{"hash":"f5f6bf98bd95e769321482904cbbd488f77922fd","data":{"records":{"id":"objective-c","name":"objective-c","belongsTo":{"totalCount":60,"pageInfo":{"totalPages":6,"currentPage":3},"edges":[{"node":{"__typename":"Job","id":"72038219776-1001054966032","title":"Ios разработчик","text":"#вакансия #ios #swift #москва #офис #objective\n\nГород: Москва (ст.м. Аэропорт).\n\nФормат работы: full-time.\n\nЗанятость: полная. \n\nВилка: 100-200 т.р. на руки.\n\nФункционал:\n\n• Разработка мобильных приложений под платформу iOS.\n\n• Участие в командной разработке, тестировании, оптимизации существующих мобильных приложений на платформе iOS \n\nПрофессиональные знания: \n\nОтличное знание Objective-C/Swift, iOS SDK 10+;\nОпыт разработки мобильных приложений - от 2 лет;\nЗнание шаблонов проектирования, принципы SOLID, умение их применять;\nЗнакомы с основными алгоритмами и структурами данных;\nУмение работать со Storyboard и Autolayout;\nОпыт разработки клиент-серверных приложений, понимание принципов и устройства сетевого взаимодействия (HTTPS, JSON, REST);\nУмение разбираться и работать с чужим кодом;\nЗнание распределенных систем контроля версий (Git). \n\nНазвание компании: Локо-Банк\nhttps://www.lockobank.ru//\nhttps://hh.ru/vacancy/37545592\n\nКонтакты: @hrlocko","markup":[{"type":"hashtag","offset":0,"length":9,"data":"вакансия"},{"type":"hashtag","offset":10,"length":4,"data":"ios"},{"type":"hashtag","offset":15,"length":6,"data":"swift"},{"type":"hashtag","offset":22,"length":7,"data":"москва"},{"type":"hashtag","offset":30,"length":5,"data":"офис"},{"type":"hashtag","offset":36,"length":10,"data":"objective"},{"type":"link","offset":881,"length":26,"data":"https://www.lockobank.ru//"},{"type":"link","offset":908,"length":30,"data":"https://hh.ru/vacancy/37545592"},{"type":"handle","offset":950,"length":8,"data":"hrlocko"}],"date":"2020-06-25T16:04:39+00:00","link":"tg://resolve?domain=mobile_jobs&post=68701","tags":[{"name":"mobile"},{"name":"ios"},{"name":"swift"},{"name":"objective-c"},{"name":"json"},{"name":"rest"},{"name":"git"}],"cities":[{"code":"moscow"}],"allowsRemote":false}},{"node":{"__typename":"Job","id":"72025636864-1001054966032","title":"Ios developer","text":"#вакансия #IOS #Senior #Objective-C #Swift #удаленно\n🔥Приглашаем Senior IOS Developer в новый проект от Сбербанка.\n💸Уровень ЗП: 250К-330К net (в зависимости от типа оформления).\n📝Оформление: ИП или штат компании партнера.\n📍Локация: удаленно❗️\n\n🧑‍💻О проекте: фронтальная SDK биометрической платформы. Данный проект занимается разработкой продукта «Фронтальная биометрическая компонента» (Фронтальная БиоSDK) для биометрической идентификации личности на различных ОС и устройствах. Первоочередная задача сейчас – забрать текущие версии SDK у непрофильных подразделений и на их основе разработать Фронтальной БиоSDK для мобильных приложений (iOS). Банку, как высокотехнологичной организации необходима биометрическая идентификация личности. Это позволит перейти к системам без документов, паролей, смс, пинкодов.\n\n🎯Ваши будущие задачи:\n· разработка (с «нуля») и поддержка собственной компоненты фронтального Био SDK по работе с камерами устройств и нейросетями собственной лаборатории (Machine Learning, Data Scientist, Computer Vision) и решений вендоров;\n· интеграция Био SDK с каналами/продуктами Банка мобильных решений\n(iOS), а также прочих систем банка (Linux, Windows, Web, SmartDevices);\n· постоянное повышение качества продукта на фоне постоянно обучающихся нейросетей.\n\n🤝Мы ожидаем от Вас:\n- сильный Swift (опыт от 2 лет), понимание Objective-C (желательно опыт от 2 лет);\n- знание следующих тем: CALayer, viewDidLoad в UIViewController, ARC, CoreData, Корневые классы, Retain-циклы и утечка памяти MRC, Atomic, SOLID, Отрисовка UI, Мультипоточность.\n\nОткликнуться на вакансию и задать вопросы: telegram @anisimovaane4ka","markup":[{"type":"hashtag","offset":0,"length":9,"data":"вакансия"},{"type":"hashtag","offset":10,"length":4,"data":"IOS"},{"type":"hashtag","offset":15,"length":7,"data":"Senior"},{"type":"hashtag","offset":23,"length":10,"data":"Objective"},{"type":"hashtag","offset":36,"length":6,"data":"Swift"},{"type":"hashtag","offset":43,"length":9,"data":"удаленно"},{"type":"handle","offset":1619,"length":16,"data":"anisimovaane4ka"}],"date":"2020-06-25T14:24:48+00:00","link":"tg://resolve?domain=mobile_jobs&post=68689","tags":[{"name":"mobile"},{"name":"ios"},{"name":"objective-c"},{"name":"swift"},{"name":"dotnet"},{"name":"linux"},{"name":"windows"},{"name":"web"},{"name":"machine-learning"}],"cities":[],"allowsRemote":true}},{"node":{"__typename":"Job","id":"71998373888-1001054966032","title":"Ios developer","text":"#вакансия #спб #ios #middle #senior #spb #офис #IoT #умныйдом \nMiddle/Senior iOS developer \nReady for Sky 🚀 \nhttps://readyforsky.com/ru/career/ \n📍 полный день, удаленно/офис (сейчас вся компания работает удаленно) \nМы ищем iOS developer, который будет разрабатывать приложение, использующее данные с IoT-устройств для предоставления пользователям нужных товаров и услуг \n💡 Используем: Swift, Objective-C; Jenkins; GraphQL; RxSwift; MVC, MVVM и Viper \nВ команде: разрабатываем новый функционал приложения, внутренние фреймворки (Private pods), фреймворки для общего доступа; пишем Unit тесты; принимаем участие в создании протоколов работы с умными устройствами; Refactoring и Code-review. \nПредлагаем: \nРаботу в профессиональной команде (team lead, senior, middle), более 300 000 активных пользователей приложения. \nПолностью белую ЗП от 130 до 250 тыс. руб. на руки \nПосле исп.срока корпоративный английский \n📬 Пиши: @Rupeka_Natali","markup":[{"type":"hashtag","offset":0,"length":9,"data":"вакансия"},{"type":"hashtag","offset":10,"length":4,"data":"спб"},{"type":"hashtag","offset":15,"length":4,"data":"ios"},{"type":"hashtag","offset":20,"length":7,"data":"middle"},{"type":"hashtag","offset":28,"length":7,"data":"senior"},{"type":"hashtag","offset":36,"length":4,"data":"spb"},{"type":"hashtag","offset":41,"length":5,"data":"офис"},{"type":"hashtag","offset":47,"length":4,"data":"IoT"},{"type":"hashtag","offset":52,"length":9,"data":"умныйдом"},{"type":"bold","offset":63,"length":27,"data":""},{"type":"bold","offset":92,"length":13,"data":""},{"type":"link","offset":110,"length":34,"data":"https://readyforsky.com/ru/career/"},{"type":"bold","offset":225,"length":13,"data":""},{"type":"bold","offset":376,"length":11,"data":""},{"type":"bold","offset":454,"length":10,"data":""},{"type":"bold","offset":693,"length":11,"data":""},{"type":"bold","offset":916,"length":5,"data":""},{"type":"handle","offset":922,"length":14,"data":"Rupeka_Natali"}],"date":"2020-06-25T10:01:03+00:00","link":"tg://resolve?domain=mobile_jobs&post=68663","tags":[{"name":"mobile"},{"name":"ios"},{"name":"swift"},{"name":"objective-c"},{"name":"jenkins"},{"name":"graphql"},{"name":"mvvm"}],"cities":[],"allowsRemote":true}},{"node":{"__typename":"Job","id":"71918682112-1001054966032","title":"Ios разработчик","text":"#вакансия #swift #objective-C #ios\n\niOS разработчик удаленно по России \nmiddle/senior\n\nГород : Санкт-Петербург\nФормат работы: офис или удаленно\nЗанятость: Полная\nЗарплатная вилка:  90 000 - 200 000 руб\n\n\nОписание компании:\nВ Blogman мы занимаемся разработкой собственного приложения – платформа для блогеров и рекламодателей. В нашей команде уже более 50 разработчиков и мы продолжаем расти. Сейчас мы ищем инженера с опытом коммерческой разработки под iOS.\nОсновной стек технологий — Swift, Realm, Alamofire. Сейчас мы разрабатываем бизнес-функционал и будем рады новому специалисту в нашей команде, вместе с которым мы будем делать быстрое приложение с отзывчивым и плавным интерфейсом.\n\nМы ожидаем, что у вас есть:\n— Опыт коммерческой разработки мобильных приложений под iOS;\n— Хорошие знания Swift, UIKit;\n— Опыт работы с мобильными БД;\n— Умение работать с Git, Cocoapods.\n\nБудет плюсом, если вы:\n— Разрабатывали клиент-серверные приложения;\n— Умеете работать с WebSocket;\n— Знаете и понимаете архитектуру VIPER;\n— Командный игрок без яркого эгоцентризма;\n— Готовы активно принимать участие в жизни компании и продукта.\n\nРады предложить:\n– Удаленное сотрудничество или комфортный офис на Невском проспекте в 5 минутах ходьбы от ст. м. Маяковская и Владимирская;\n– Желаемый оклад по результатам собеседования;\n– Понятную систему роста зарплаты каждые 6 месяцев, в которой все зависит только от вас;\n– Все необходимые офисные блага вроде вкусного кофе и т.д.\nВас будут окружать адекватные люди, с которыми комфортно решать поставленные задачи. У сотрудников есть общие ценности, такие как стремление к качественному результату, забота о продукте и желание двигаться вперед. Также у нас нет “Начальства”, а есть коллеги. Все взаимодействуют горизонтально и в команде равенство между инженерами, стейкхолдером, продактом и т.д. Все работают бок о бок и делают одно общее дело.\nНазвание компании: Blogman\nКонтакты: @maria_golovina","markup":[{"type":"hashtag","offset":0,"length":9,"data":"вакансия"},{"type":"hashtag","offset":10,"length":6,"data":"swift"},{"type":"hashtag","offset":17,"length":10,"data":"objective"},{"type":"hashtag","offset":30,"length":4,"data":"ios"},{"type":"bold","offset":225,"length":8,"data":""},{"type":"bold","offset":490,"length":2,"data":""},{"type":"bold","offset":497,"length":2,"data":""},{"type":"bold","offset":690,"length":27,"data":""},{"type":"bold","offset":878,"length":22,"data":""},{"type":"bold","offset":1125,"length":16,"data":""},{"type":"handle","offset":1914,"length":15,"data":"maria_golovina"}],"date":"2020-06-24T08:04:26+00:00","link":"tg://resolve?domain=mobile_jobs&post=68587","tags":[{"name":"mobile"},{"name":"ios"},{"name":"swift"},{"name":"objective-c"},{"name":"realm"},{"name":"uikit"},{"name":"git"},{"name":"cocoapods"},{"name":"websocket"}],"cities":[],"allowsRemote":true}},{"node":{"__typename":"Job","id":"71916584960-1001054966032","title":"Ios developer","text":"‼️Вакансия Senior iOS Developer в MNFST‼️\n\n#вакансия #ios #удалённо \nФормат работы: #удалённо\nЗанятость: полная\n💶 З/п: от 200 000 до 230 000 руб. на руки\n\n🏢 Компания: MNFST (mnfst.com)\n\nЧем предстоит заниматься: \n🔸 Разработка и доработка нового функционала iOS-приложения MNFST\n🔸 Поддержка и развитие AR и face tracker\n🔸 Работа над оптимизацией и стабильностью приложения\n\nТребования:\n✔️ Отличное владение языком Swift (не менее двух лет)\n✔️ Опыт коммерческой разработки iOS-приложений (не менее трех лет)\n✔️ Хорошее владение Objective-C\n✔️ Уверенное знание GCD и понимание ARC\n\nПлюсом будет:\n➕ Знание Objective-C Runtime\n➕ Опыт работы с AVFoundation, Vision, ARKit и CoreML\n➕ Опыт разработки Cocoa Touch Frameworks\n\n📨 Резюме и вопросы по вакансии присылайте на talent@mnfst.com или @aderyabin","markup":[{"type":"hashtag","offset":43,"length":9,"data":"вакансия"},{"type":"hashtag","offset":53,"length":4,"data":"ios"},{"type":"hashtag","offset":58,"length":9,"data":"удалённо"},{"type":"bold","offset":69,"length":14,"data":""},{"type":"hashtag","offset":84,"length":9,"data":"удалённо"},{"type":"bold","offset":94,"length":11,"data":""},{"type":"bold","offset":115,"length":5,"data":""},{"type":"bold","offset":159,"length":10,"data":""},{"type":"link","offset":176,"length":9,"data":"http://mnfst.com"},{"type":"bold","offset":188,"length":25,"data":""},{"type":"bold","offset":378,"length":11,"data":""},{"type":"bold","offset":584,"length":14,"data":""},{"type":"link","offset":768,"length":16,"data":"mailto:talent@mnfst.com"},{"type":"handle","offset":789,"length":10,"data":"aderyabin"}],"date":"2020-06-24T07:29:40+00:00","link":"tg://resolve?domain=mobile_jobs&post=68585","tags":[{"name":"mobile"},{"name":"ios"},{"name":"swift"},{"name":"objective-c"},{"name":"cocoa"},{"name":"cocoa-touch"}],"cities":[],"allowsRemote":true}},{"node":{"__typename":"Job","id":"71914487808-1001054966032","title":"Ios developer","text":"#вакансия #developer #iOS #moscow  #fulltime \niOS Developer\nГород: Москва\nФормат работы: офис \nЗанятость: полная\nЗП вилка: 160-290 тысяч \n\ninDriver - международный ride-hailing сервис:\n* 47 млн пользователей в 31 стране мира.\n* Входим в топ-5 мобильных сервисов для заказа поездки по итогам января 2020 года.\n* Офис возле м. Улица 1905 года.\n* Релокация в Москву для иногородних.\n\nОбязанности:\n• Разработка нового функционала приложения\n• Поддержка уже существующего функционала приложения\n• Участие в проектировании архитектуры системы\n\nТребования:\n• Отличное знание Swift и Objective-C\n•Опыт коммерческой iOS-разработки\n• Уверенное знание различных архитектурных подходов\n\nКонтакт для связи: @Liuboushka888","markup":[{"type":"hashtag","offset":0,"length":9,"data":"вакансия"},{"type":"hashtag","offset":10,"length":10,"data":"developer"},{"type":"hashtag","offset":21,"length":4,"data":"iOS"},{"type":"hashtag","offset":26,"length":7,"data":"moscow"},{"type":"hashtag","offset":35,"length":9,"data":"fulltime"},{"type":"handle","offset":694,"length":14,"data":"Liuboushka888"}],"date":"2020-06-24T06:00:18+00:00","link":"tg://resolve?domain=mobile_jobs&post=68583","tags":[{"name":"mobile"},{"name":"ios"},{"name":"swift"},{"name":"objective-c"}],"cities":[{"code":"moscow"}],"allowsRemote":false}},{"node":{"__typename":"Job","id":"71887224832-1001054966032","title":"Ios developer","text":"#вакансия #спб #ios #middle #senior #spb #офис #IoT #умныйдом \nMiddle/Senior iOS developer \nReady for Sky 🚀 \nhttps://readyforsky.com/ru/career/ \n📍 полный день, удаленно/офис (сейчас вся компания работает удаленно) \nМы ищем iOS developer, который будет разрабатывать приложение, использующее данные с IoT-устройств для предоставления пользователям нужных товаров и услуг \n💡 Используем: Swift, Objective-C; Jenkins; GraphQL; RxSwift; MVC, MVVM и Viper \nВ команде: разрабатываем новый функционал приложения, внутренние фреймворки (Private pods), фреймворки для общего доступа; пишем Unit тесты; принимаем участие в создании протоколов работы с умными устройствами; Refactoring и Code-review. \nПредлагаем: \nРаботу в профессиональной команде (team lead, senior, middle), более 300 000 активных пользователей приложения. \nПолностью белую ЗП от 130 до 250 тыс. руб. на руки \nПосле исп.срока корпоративный английский \n📬 Пиши: @Rupeka_Natali","markup":[{"type":"hashtag","offset":0,"length":9,"data":"вакансия"},{"type":"hashtag","offset":10,"length":4,"data":"спб"},{"type":"hashtag","offset":15,"length":4,"data":"ios"},{"type":"hashtag","offset":20,"length":7,"data":"middle"},{"type":"hashtag","offset":28,"length":7,"data":"senior"},{"type":"hashtag","offset":36,"length":4,"data":"spb"},{"type":"hashtag","offset":41,"length":5,"data":"офис"},{"type":"hashtag","offset":47,"length":4,"data":"IoT"},{"type":"hashtag","offset":52,"length":9,"data":"умныйдом"},{"type":"bold","offset":63,"length":27,"data":""},{"type":"bold","offset":92,"length":13,"data":""},{"type":"link","offset":110,"length":34,"data":"https://readyforsky.com/ru/career/"},{"type":"bold","offset":225,"length":13,"data":""},{"type":"bold","offset":376,"length":11,"data":""},{"type":"bold","offset":454,"length":10,"data":""},{"type":"bold","offset":693,"length":11,"data":""},{"type":"bold","offset":916,"length":5,"data":""},{"type":"handle","offset":922,"length":14,"data":"Rupeka_Natali"}],"date":"2020-06-23T16:01:18+00:00","link":"tg://resolve?domain=mobile_jobs&post=68557","tags":[{"name":"mobile"},{"name":"ios"},{"name":"swift"},{"name":"objective-c"},{"name":"jenkins"},{"name":"graphql"},{"name":"mvvm"}],"cities":[],"allowsRemote":true}},{"node":{"__typename":"Job","id":"71872544768-1001054966032","title":"Ios developer","text":"‼️Вакансия Senior iOS Developer в MNFST‼️\n\n#вакансия #ios #удалённо \nФормат работы: #удалённо\nЗанятость: полная\n💶 З/п: от 200 000 до 230 000 руб. на руки\n\n🏢 Компания: MNFST (mnfst.com)\n\nЧем предстоит заниматься: \n🔸 Разработка и доработка нового функционала iOS-приложения MNFST\n🔸 Поддержка и развитие AR и face tracker\n🔸 Работа над оптимизацией и стабильностью приложения\n\nТребования:\n✔️ Отличное владение языком Swift (не менее двух лет)\n✔️ Опыт коммерческой разработки iOS-приложений (не менее трех лет)\n✔️ Хорошее владение Objective-C\n✔️ Уверенное знание GCD и понимание ARC\n\nПлюсом будет:\n➕ Знание Objective-C Runtime\n➕ Опыт работы с AVFoundation, Vision, ARKit и CoreML\n➕ Опыт разработки Cocoa Touch Frameworks\n\n📨 Резюме и вопросы по вакансии присылайте на talent@mnfst.com или @aderyabin","markup":[{"type":"hashtag","offset":43,"length":9,"data":"вакансия"},{"type":"hashtag","offset":53,"length":4,"data":"ios"},{"type":"hashtag","offset":58,"length":9,"data":"удалённо"},{"type":"bold","offset":69,"length":14,"data":""},{"type":"hashtag","offset":84,"length":9,"data":"удалённо"},{"type":"bold","offset":94,"length":11,"data":""},{"type":"bold","offset":115,"length":5,"data":""},{"type":"bold","offset":159,"length":10,"data":""},{"type":"link","offset":176,"length":9,"data":"http://mnfst.com"},{"type":"bold","offset":188,"length":25,"data":""},{"type":"bold","offset":378,"length":11,"data":""},{"type":"bold","offset":584,"length":14,"data":""},{"type":"link","offset":768,"length":16,"data":"mailto:talent@mnfst.com"},{"type":"handle","offset":789,"length":10,"data":"aderyabin"}],"date":"2020-06-23T12:48:08+00:00","link":"tg://resolve?domain=mobile_jobs&post=68543","tags":[{"name":"mobile"},{"name":"ios"},{"name":"swift"},{"name":"objective-c"},{"name":"cocoa"},{"name":"cocoa-touch"}],"cities":[],"allowsRemote":true}},{"node":{"__typename":"Job","id":"71851573248-1001054966032","title":"Mobile разработчик","text":"#вакансия #работа #СанктПетербург #iOS #Swift #fulltime #офис\nГород: Санкт-Петербург, м. Чкаловская\nФорма работы: офис\nЗанятость: полная\nЗарплатная вилка: от 150 000 до 250 000 net.\nВсем привет!\nМы – Cardsmobile, петербургская IT-компания, разработчик мобильного приложения «Кошелёк». \n«Кошелёк» заменяет бумажник и избавляет от необходимости носить с собой пластик: пользователи хранят в нем дисконтные и банковские карты. Чтобы получить скидку, достаточно показать на кассе карту с экрана смартфона, а чтобы оплатить покупку – приложить NFC-смартфон к терминалу оплаты.\nНаши партнеры в ритейле – крупнейшие торговые сети страны: Лента, М.Видео, X5 Retail Group, ВкусВилл, Adidas Group и многие другие. Карты этих торговых сетей можно перенести в приложение, сфотографировав пластик, или выпустить новую карту из каталога Кошелька – сразу в мобильном формате.\nПлатформа токенизации Cardsmobile прошла сертификации Visa и MasterCard, что позволяет безопасно переносить банковские карты в приложение \"Кошелёк\" и бесконтактно оплачивать покупки.\n\nВ нашей команде более 150 человек, из которых более 50 человек – техническая команда.\nНашим приложением пользуются более 10 млн. человек в квартал, а в день от 1-го до 2-ух миллионов человек.\n\nНаши стратегические международные партнеры (MasterCard, Visa и Huawei) заинтересованы в расширении географии распространения нашего продукта и, в связи с этим мы усиляем нашу команду и ищем iOS разработчика на одно из направлений. В команде iOS у нас 7 человек.\n\n🔸Технический стек:\nКодовая база: 70% - Objective-C, 30% - Swift (активно переводим проект на Swift);\nМинимальная поддерживаемая версия: iOS 11.\n\n🔸Задачи направлений:\n🔹Performance\n• Искать и рефакторить неоптимально работающие части приложения;\n• Принимать решения о необходимости использования многопоточности, разрабатывать многопоточные механизмы и внедрять их;\n• Измерять скорость работы приложения всеми возможными способами и оценивать эффективность внедряемых изменений;\n• Проводить ревью кода коллег с точки зрения влияния изменений на производительность;\n• Настраивать эффективную фоновую работу всего приложения (различные синхронизации с сервером, загрузка данных и т.п.);\n• Делать приложение энергоэффективным.\n🔹Architecture\n• Работать над качеством многомодульной архитектуры проекта;\n• Предлагать коллегам новые архитектурные подходы для решения различных проблем, возникающих в процессе решения бизнес-задач;\n• Разрабатывать и унифицировать навигацию в многомодульном проекте;\n• Внедрять подходы, позволяющие работать над разными частями приложения максимально изолированно и независимо;\n• Создать простой и понятный для всей команды источник данных о текущей архитектуре и её особенностях;\n• Оценивать корректность решений коллег с точки зрения архитектуры в рамках ревью кода;\n• Пропагандировать преимущества качественной и чистой архитектуры внутри команды.\n🔹Components\n• Разрабатывать динамический UI на основе данных с бэка;\n• Писать нестандартные UI компоненты c анимациями на CALayers;\n• Проектировать новый API вместе с кроссплатформенной командой неравнодушных коллег;\n• Предлагать и использовать различные практики компонентно ориентированного программирования.\n\nМы предлагаем:\n• Участие в развитии полезного и популярного приложения, возможность сделать мир лучше;\n• Оформление по ТК РФ с первого дня работы, конкурентная белая зарплата, ДМС;\n• Оплату мобильной связи, частичную компенсацию оплаты питания;\n• Гибкий график работы;\n• Помощь с переездом для кандидатов из других городов (welcome бонус);\n• Оплата профильных курсов и конференций;\n• Два раза в неделю в офисе занятия йогой;\n• Командные мероприятия и приятные коллеги;\n• Комфортный офис в центре города (5 минут от станции метро Чкаловская).\n\nИнформацию о компании можно найти по ссылке: https://spb.hh.ru/employer/2032205\n\nКонтакты: katerinaziryukova\nПочта: e.ziryukova@cardsmobile.ru","markup":[{"type":"hashtag","offset":0,"length":9,"data":"вакансия"},{"type":"hashtag","offset":10,"length":7,"data":"работа"},{"type":"hashtag","offset":18,"length":15,"data":"СанктПетербург"},{"type":"hashtag","offset":34,"length":4,"data":"iOS"},{"type":"hashtag","offset":39,"length":6,"data":"Swift"},{"type":"hashtag","offset":46,"length":9,"data":"fulltime"},{"type":"hashtag","offset":56,"length":5,"data":"офис"},{"type":"link","offset":3781,"length":34,"data":"https://spb.hh.ru/employer/2032205"},{"type":"link","offset":3852,"length":26,"data":"mailto:e.ziryukova@cardsmobile.ru"}],"date":"2020-06-23T09:26:51+00:00","link":"tg://resolve?domain=mobile_jobs&post=68523","tags":[{"name":"mobile"},{"name":"ios"},{"name":"swift"},{"name":"dotnet"},{"name":"objective-c"}],"cities":[],"allowsRemote":false}},{"node":{"__typename":"Job","id":"71850524672-1001054966032","title":"Ios developer","text":"#вакансия #Москва #офис #релокация #ios #swift\n\n\nВакансия: iOS Developer (Junior/Middle/Senior) в компанию Mafin\n\nО компании: Mafin.ru - это онлайн-платформа персональных страховых сервисов. Insurtech старап компании \"АбсолютТех\", получивний инвестирование в размере $50 млн.\nГео: Москва\nФормат: Офис\nВилка: 60 000 - 240 000 Р/мес\n\nТребования: \n● Опыт разработки приложений под iOS от 1 года\n● Отличное знание Objective-C или Swift\n● Проектирование интерфейса без Xib и StoryBoard\n● Опыт разработки клиент-серверных приложений\n● Опыт разработки многопоточных приложений\n● Опыт работы с Core Data - инструмент для БД\n● Умение работать с CocoaPods (библиотеки для реализации задач)\n● Знание Git\n● Знание HTTP/S, REST API, JSON\n\nДополнительные навыки:\n● Понимание принципов UX/UI и Human Interface Guidelines\n● Опыт работы с Figma\n\nБудет плюсом:\n● Опыт C/С++/Python\n● Наличие приложений, опубликованных в AppStore\n● Опыт написания тестов\n\nУсловия: \n● НС с первого рабочего дня, ДМС по истечении испытательного срока (3 месяца);\n● Skyeng скидка 50% (в том числе занятия с носителями языка);\n● Новый красивый офис в тренде современных IT компаний с капсулами для сна и уютной кухней;\n● Бесплатное обучение; доступ к онлайн-библиотеке;\n● Работа по методологии Agile, scrum\n● Огромное количество корпоративных мероприятий\n● Гибкое начало рабочего дня до 11-00\n● Есть релокационный пакет\n● График работы 5\\2, офис 2 дня в неделю на время ограничительных мер \n\nДля оперативной связи пишите: @rudenko_telegram","markup":[{"type":"hashtag","offset":0,"length":9,"data":"вакансия"},{"type":"hashtag","offset":10,"length":7,"data":"Москва"},{"type":"hashtag","offset":18,"length":5,"data":"офис"},{"type":"hashtag","offset":24,"length":10,"data":"релокация"},{"type":"hashtag","offset":35,"length":4,"data":"ios"},{"type":"hashtag","offset":40,"length":6,"data":"swift"},{"type":"bold","offset":49,"length":9,"data":""},{"type":"bold","offset":114,"length":12,"data":""},{"type":"link","offset":126,"length":8,"data":"http://Mafin.ru"},{"type":"bold","offset":276,"length":4,"data":""},{"type":"bold","offset":288,"length":8,"data":""},{"type":"bold","offset":301,"length":7,"data":""},{"type":"bold","offset":332,"length":13,"data":""},{"type":"bold","offset":726,"length":23,"data":""},{"type":"bold","offset":829,"length":14,"data":""},{"type":"bold","offset":936,"length":7,"data":""},{"type":"handle","offset":1482,"length":17,"data":"rudenko_telegram"}],"date":"2020-06-23T09:25:42+00:00","link":"tg://resolve?domain=mobile_jobs&post=68522","tags":[{"name":"mobile"},{"name":"ios"},{"name":"swift"},{"name":"objective-c"},{"name":"cocoapods"},{"name":"git"},{"name":"rest"},{"name":"json"},{"name":"python"},{"name":"core-data"}],"cities":[{"code":"moscow"}],"allowsRemote":false}}]}}},"context":{}}