{"hash":"f34fd2c444a074f4e0e67d525015a008ef8e766f","data":{"records":{"id":"russia/moscow","belongsTo":{"totalCount":234,"pageInfo":{"totalPages":24,"currentPage":10},"edges":[{"node":{"__typename":"Job","id":"1422917632-1001091028994","title":"Java разработчик","text":"#java #spring \nКомпания: #техносервконсалтинг #тск\nЛокация: #москва\nЗ/п: 130 - 250\nКонтакты: @Alenhr, akarmakulova@tsconsulting.ru\n\nМы создаём ипотечную экосистему для Банка Топ - 3 \"с нуля\". \nРазрабатываем новую высоконагруженную систему кредитования с использованием современного стека и микросервисной архитектуры на основе Kubernetes. \nСтек: Java 8, Spring Boot, Spring Data, Spring Security, PostgreSQL, Kubernetes, Docker, Git, Jira, Confluence, Zeplin, REST, SOAP, MQ. \n\nЧто нужно делать:\nРазрабатывать северную часть на Java\nУчаствовать в развитии проекта и сервисов\nРегулярно проводить code-review\nРасти и развиваться в рамках команды\n\nЧто важно для нас:\nОпыт программирования на Java от 3 лет\nЗнание и понимание принципов Spring\nОпыт работы с базами данных, знание SQL\n\nМы предлагаем: \nAgile команду, общий штат разработки 50+ человек\nСоциальный пакет (ДМС, фитнес)\nОфис в центре Москвы (Чистые пруды/ Тургеневская / Сретенский бульвар) \nГибкое начало и окончание рабочего дня","markup":[{"type":"hashtag","offset":0,"length":5,"data":"java"},{"type":"hashtag","offset":6,"length":7,"data":"spring"},{"type":"hashtag","offset":25,"length":20,"data":"техносервконсалтинг"},{"type":"hashtag","offset":46,"length":4,"data":"тск"},{"type":"hashtag","offset":60,"length":7,"data":"москва"},{"type":"handle","offset":93,"length":7,"data":"Alenhr"},{"type":"link","offset":102,"length":28,"data":"mailto:akarmakulova@tsconsulting.ru"}],"date":"2020-04-06T14:51:47+00:00","link":"tg://resolve?domain=jvmjobs&post=1357","tags":[{"name":"java"},{"name":"jvm"},{"name":"spring"},{"name":"kubernetes"},{"name":"postgresql"},{"name":"docker"},{"name":"git"},{"name":"rest"},{"name":"soap"},{"name":"sql"},{"name":"spring-boot"},{"name":"spring-data"},{"name":"spring-security"}],"cities":[{"code":"moscow"}],"allowsRemote":false}},{"node":{"__typename":"Job","id":"16198402048-1001110946746","title":"Js developer","text":"#вакансия #Nodejs #Москва #удалёнка #офис\n\nПозиция: Backend-developer \nФормат: #удалёнка или #Москва офис\nЗанятость: #fulltime \nЗарплатная вилка: от 120 000  до 190 000 руб. net\nКомпания: Paradigmfund https://paradigmfund.io/\n\n Задачи\n\n •  Разработка и поддержка проектов компании (Блокчейн эксплорер);\n • Работа с различными БД (основная: PostgreSQL, периодически: leveldb, yandex clickhouse)\n • Работа в команде\n\nТребования:\n\n • Опыт работы с JS и NodeJS от 3 лет;\n • Большой опыт работы с различными базами данных, в частности PostgreSQL\n • Желание увеличивать этот опыт ^, много работы с БД, быть к этому готовым. \n • Умение работать с git;\n • Плюсом будет опыт работы с python и golang на уровне чтения чужого кода. \n\nУсловия:\n \n • Работа по Agile, используем Jira/Confluence\n • Полная удаленка с графиком или офис в центре Москвы\n • Командировки в Токио\n • Премии и ежегодный рост\n\nПишите в личку, желательно сразу с резюме: @grshabl","markup":[{"type":"hashtag","offset":0,"length":9,"data":"вакансия"},{"type":"hashtag","offset":10,"length":7,"data":"Nodejs"},{"type":"hashtag","offset":18,"length":7,"data":"Москва"},{"type":"hashtag","offset":26,"length":9,"data":"удалёнка"},{"type":"hashtag","offset":36,"length":5,"data":"офис"},{"type":"hashtag","offset":79,"length":9,"data":"удалёнка"},{"type":"hashtag","offset":93,"length":7,"data":"Москва"},{"type":"hashtag","offset":117,"length":9,"data":"fulltime"},{"type":"link","offset":201,"length":24,"data":"https://paradigmfund.io/"},{"type":"handle","offset":931,"length":8,"data":"grshabl"}],"date":"2020-04-06T14:42:38+00:00","link":"tg://resolve?domain=javascript_jobs_feed&post=15448","tags":[{"name":"javascript"},{"name":"nodejs"},{"name":"dotnet"},{"name":"postgresql"},{"name":"git"},{"name":"python"},{"name":"go"}],"cities":[{"code":"moscow"},{"code":"tokyo"}],"allowsRemote":true}},{"node":{"__typename":"Job","id":"16197353472-1001110946746","title":"Javascript разработчик","text":"#вакансия #angular #react #москва #релокация\n\nГород: Москва (Сокольники или Павелецкая), есть релокационный пакет\n\nФормат работы: офис, возможна удаленка после шести месяцев работы\n\nЗанятость: полная\n\nВилка: 180-250 т.р. на руки\n\nИщем коллегу для создания и развития современного сервиса дистанционных банковских услуг.\n\n• SPA на Angular 8\n\n• Пишем на TypeScript, ES6 Modules, SASS\n\n• Собираем в Webpack\n\n• Храним в Git\n\nМы также готовы рассмотреть кандидатов, которые имеют опыт работы на React, но хотели бы перейти на Angular.\n\nНазвание компании: ПСБ\nhttps://www.psbank.ru/\nhttps://hh.ru/vacancy/33110730\n\nКонтакты: @max_gusev\ngusevms@psbank.ru","markup":[{"type":"hashtag","offset":0,"length":9,"data":"вакансия"},{"type":"hashtag","offset":10,"length":8,"data":"angular"},{"type":"hashtag","offset":19,"length":6,"data":"react"},{"type":"hashtag","offset":26,"length":7,"data":"москва"},{"type":"hashtag","offset":34,"length":10,"data":"релокация"},{"type":"link","offset":554,"length":22,"data":"https://www.psbank.ru/"},{"type":"link","offset":577,"length":30,"data":"https://hh.ru/vacancy/33110730"},{"type":"handle","offset":619,"length":10,"data":"max_gusev"},{"type":"link","offset":630,"length":17,"data":"mailto:gusevms@psbank.ru"}],"date":"2020-04-06T14:42:01+00:00","link":"tg://resolve?domain=javascript_jobs_feed&post=15447","tags":[{"name":"javascript"},{"name":"angularjs"},{"name":"reactjs"},{"name":"typescript"},{"name":"sass"},{"name":"webpack"},{"name":"git"}],"cities":[{"code":"moscow"}],"allowsRemote":true}},{"node":{"__typename":"Job","id":"16196304896-1001110946746","title":"Js разработчик","text":"#вакансия #front #react #typescript #москва #генетика #javascript #nodejs #геномэксперт #барсгруп\n\nГород и адрес офиса: Москва, ст.м.Павелецкая\nФормат работы: Офис\nЗанятость: Полная \nЗарплатная вилка: от 160 до 250 000 руб. на руки\nНазвание компании: Барс Груп\nhttps://bars.group/\nПроект Геном.Эксперт  - https://genome.expert/ \n\nТребуется senior/middle front-end разработчик в крупный медицинский проект.\n\nПредметная область: Генетика.\nТекущее состояние проекта: Проект запущен как стартап, поэтому есть уникальная возможность принять участие в создании с нуля единого пространства для врачей-генетиков, лабораторных генетиков, биоинформатиков.\n\nЧем придется заниматься:\n\n-Писать микроприложения и компоненты на React;\n-Изучать исходники на Polymer, чтобы переехать на React и микросервисную архитектуру;\n-Доделывать существующую систему с использованием самописного фрэймворка(пока переезжаем на реакт, это иногда нужно будет делать)\n\nТребования:\n\n-Front-end: React(Vue), typescript, Polymer, Redux/Mobx/Vuex;\n-Межсервисное взаимодействие и API: REST/GraphQL/gRPC;\n-Инструменты для работы: Git, bitbucket, JIRA, docker, docker-compose\n\nУсловия:\n-Оформление по ТК РФ;\n-Работа в комфортабельном офисе, ст.м.Павелецкая;\n-Белая зарплата, повышающаяся по системе аттестаций несколько раз в год;\n-ДМС;\n-Перспективы карьерного роста;\n-Корпоративное обучение (тренинги, мастер-классы);\n-Корпоративная библиотека;\n-Мы рассматриваем кандидатов с возможностью переезда в Москву;\n-Возможность предоставления бесплатного жилья на первый месяц\n- График 5/2. \n\nКонтакты для связи: \n\nemail: a.starchenko@bars.group \nTelegram: @alinavelcheva \n\nbars.group\nАО «БАРС Груп» - официальный сайт компании\nАО «БАРС Груп» - российский производитель ИТ-решений и экспертный центр в сфере государственной и корпоративной информатизации.","markup":[{"type":"hashtag","offset":0,"length":9,"data":"вакансия"},{"type":"hashtag","offset":10,"length":6,"data":"front"},{"type":"hashtag","offset":17,"length":6,"data":"react"},{"type":"hashtag","offset":24,"length":11,"data":"typescript"},{"type":"hashtag","offset":36,"length":7,"data":"москва"},{"type":"hashtag","offset":44,"length":9,"data":"генетика"},{"type":"hashtag","offset":54,"length":11,"data":"javascript"},{"type":"hashtag","offset":66,"length":7,"data":"nodejs"},{"type":"hashtag","offset":74,"length":13,"data":"геномэксперт"},{"type":"hashtag","offset":88,"length":9,"data":"барсгруп"},{"type":"link","offset":261,"length":19,"data":"https://bars.group/"},{"type":"link","offset":305,"length":22,"data":"https://genome.expert/"},{"type":"link","offset":1577,"length":23,"data":"mailto:a.starchenko@bars.group"},{"type":"handle","offset":1612,"length":14,"data":"alinavelcheva"},{"type":"link","offset":1629,"length":10,"data":"http://bars.group"}],"date":"2020-04-06T14:41:46+00:00","link":"tg://resolve?domain=javascript_jobs_feed&post=15446","tags":[{"name":"javascript"},{"name":"reactjs"},{"name":"typescript"},{"name":"nodejs"},{"name":"polymerjs"},{"name":"vuejs"},{"name":"redux"},{"name":"rest"},{"name":"graphql"},{"name":"git"},{"name":"docker"},{"name":"docker-compose"}],"cities":[{"code":"moscow"}],"allowsRemote":false}},{"node":{"__typename":"Job","id":"1421869056-1001091028994","title":"Java разработчик","text":"#backend #java #spring #hibernate #docker #git #linix #moscow #office #fulltime #москва #фуллтайм #офис\n\nКомпания: #АОДанные\nВилка 250-280тр Net\n\nНаша работа — обеспечение безопасности и функционирования сетей операторов связи и крупных корпораций\n\n♦️Spring, Hibernate, Docker\n♦️Знать требования к SOLID, DRY, WET, ACID\n♦️Git, linix-подобныe консоли\nПлюсом будет:\n♦️Angular, JavaScript, html, css\n\n Наша команда - это веселые и целеустремлённые ребята, настоящие профессионалы своего дела. У нас очень дружная команда👍🏽\n\n   Присоединяясь к нашей команде вы:\n🔹Получаете поддержку в профессиональном развитии и росте\n🔹Становитесь частью большого и важного дела - безопасности каждого из нас\n\nИ это только 10% всей информации, пишите, буду рада рассказать подробнее о условиях работы, проекте и бонусах @Julia_Nikolovag","markup":[{"type":"hashtag","offset":0,"length":8,"data":"backend"},{"type":"hashtag","offset":9,"length":5,"data":"java"},{"type":"hashtag","offset":15,"length":7,"data":"spring"},{"type":"hashtag","offset":23,"length":10,"data":"hibernate"},{"type":"hashtag","offset":34,"length":7,"data":"docker"},{"type":"hashtag","offset":42,"length":4,"data":"git"},{"type":"hashtag","offset":47,"length":6,"data":"linix"},{"type":"hashtag","offset":54,"length":7,"data":"moscow"},{"type":"hashtag","offset":62,"length":7,"data":"office"},{"type":"hashtag","offset":70,"length":9,"data":"fulltime"},{"type":"hashtag","offset":80,"length":7,"data":"москва"},{"type":"hashtag","offset":88,"length":9,"data":"фуллтайм"},{"type":"hashtag","offset":98,"length":5,"data":"офис"},{"type":"hashtag","offset":115,"length":9,"data":"АОДанные"},{"type":"link","offset":805,"length":15,"data":"https://t.me/Julia_Nikolova"}],"date":"2020-04-06T14:28:08+00:00","link":"tg://resolve?domain=jvmjobs&post=1356","tags":[{"name":"java"},{"name":"jvm"},{"name":"spring"},{"name":"hibernate"},{"name":"docker"},{"name":"git"},{"name":"dotnet"},{"name":"angularjs"},{"name":"javascript"},{"name":"html"},{"name":"css"}],"cities":[{"code":"moscow"}],"allowsRemote":false}},{"node":{"__typename":"Job","id":"1420820480-1001091028994","title":"Java разработчик","text":"Вакансия: #Java #TeamLead                                           \nКомпания: #Утконос                                                                  \nЛокация: #Москва                                                                         \nЗ/п: 320 000 Net                                                                             \nКонтакт: @RecruiterTatianaK                                                   \nJava TeamLead в Утконос Онлайн\n📍Наш проект:\nВ компании разрабатывается комплексная система по управлению складом. Систему пишем сами «с нуля», на микросервисной архитектуре\n📍Что нужно делать?   \nУправление командой разработки   \nРазработка алгоритмов по оптимизации хранения и комплектации                                                                                       \nУчастие в проработке архитектурных решений                   \n📍Наш стек:\n Java 11, Spring 5, Kubernetes, ELK, Grafana, Prometheus, Kafka                                                                                               \n📍Что предлагаем?                                                                        \nОформление по ТК РФ, ДМС   \nГибкий график                                                                     \nКорпоративные скидки на utkonos.ru, tui.ru, фитнес, кино и др.                                                                                      \nОфис - 10 минут  от м. Краснопресненская/ м.Улица 1905 года","markup":[{"type":"hashtag","offset":10,"length":5,"data":"Java"},{"type":"hashtag","offset":16,"length":9,"data":"TeamLead"},{"type":"hashtag","offset":79,"length":8,"data":"Утконос"},{"type":"hashtag","offset":163,"length":7,"data":"Москва"},{"type":"handle","offset":347,"length":18,"data":"RecruiterTatianaK"},{"type":"link","offset":1254,"length":10,"data":"http://utkonos.ru"},{"type":"link","offset":1266,"length":6,"data":"http://tui.ru"}],"date":"2020-04-06T14:27:06+00:00","link":"tg://resolve?domain=jvmjobs&post=1355","tags":[{"name":"java"},{"name":"jvm"},{"name":"dotnet"},{"name":"spring"},{"name":"kubernetes"},{"name":"kafka"}],"cities":[{"code":"moscow"}],"allowsRemote":false}},{"node":{"__typename":"Job","id":"1971322880-1001134745498","title":"Devops engineer","text":"DevOps engineer\n#вакансия #DevOps #noremote #fulltime \n\nВакансия: DevOps engineer\nКомпания: ДОМ.РФ / ООО «Цифровые технологии»\nГород: Москва. ст.м. Арбатская\nФормат работы: #офис\nЗанятость: #полная\nЗарплата : от 160 до 200 на руки.\n\nТебе предстоит:\n•  Поддержка ETL процессов;\n•  Участие в процессах внедрения ПО;\n•  Администрирование операционных систем *nix и общесистемного ПО;\n•  Развертывание и конфигурирование стендов под различные нужды;\n•  Решение возникающих проблем, устранение нештатных ситуаций;\n•  Участие в разработке конструкторской и эксплуатационной документации;\n•  Формирование требований к системе резервного копирования. \n\nЗдорово если у тебя есть:\n•  Знание серверной операционной системы Linux;\n•  Уверенное понимание принципов работы сетей TCP/IP: адресация, маршрутизация, стек протоколов, сетевые топологии, принципы работы VLAN, VPN, DNS, DHCP;\n•  Практический опыт автоматизации управления средами с применением docker, Kubernetes, ansible;\n•  Практический опыт разработки технологической или эксплуатационной документации;\n•  Практический опыт конфигурирования систем хранения данных (желательно);\n•  Практический опыт конфигурирования и администрирования общесистемного ПО: системы виртуализации, СУБД (PostgreSQL), серверы приложений, системы обработки сообщений, средства мониторинга и управления, elastic search;\n\nМы предлагаем:\n•  Комфортный офис в центре Москвы;\n•  Работа в высокопрофессиональной и эффективной команде, постоянное развитие;\n•  Конкурентный компенсационный пакет (ежеквартальная премия, ДМС, компенсация расходов на фитнес-абонемент до 20 т.р. в год);\n\n\nCV в ЛС плз)\nНа входе опишу, что конкретно нужно будет делать, что и как есть сейчас.\n\nКонтакт:\n@alekseytherecruiter\n\n—\n\n👉 Обсуждение вакансии в чате @devops_jobs","markup":[{"type":"hashtag","offset":16,"length":9,"data":"вакансия"},{"type":"hashtag","offset":26,"length":7,"data":"DevOps"},{"type":"hashtag","offset":34,"length":9,"data":"noremote"},{"type":"hashtag","offset":44,"length":9,"data":"fulltime"},{"type":"link","offset":92,"length":6,"data":"http://ДОМ.РФ"},{"type":"hashtag","offset":173,"length":5,"data":"офис"},{"type":"hashtag","offset":190,"length":7,"data":"полная"},{"type":"handle","offset":1703,"length":20,"data":"alekseytherecruiter"},{"type":"handle","offset":1758,"length":12,"data":"devops_jobs"}],"date":"2020-04-06T13:25:42+00:00","link":"tg://resolve?domain=devops_jobs_feed&post=1880","tags":[{"name":"linux"},{"name":"dns"},{"name":"docker"},{"name":"kubernetes"},{"name":"ansible"},{"name":"postgresql"},{"name":"elasticsearch"}],"cities":[{"code":"moscow"}],"allowsRemote":true}},{"node":{"__typename":"Job","id":"24304943104-1001075660570","title":"Php разработчик","text":"#вакансия #TeamLead #PHP #Laravel #Go #PaaS #fulltime #офис\n\nФормат работы: офис\nРасположение офиса: Москва (м.Белорусская)\nЗанятость: полная, гибкое начало дня\nЗП: 300К-370К (на руки)\n\nВсем добрый день.\nЕсть очень интересная вакансия Team Lead`а в крупную e-commerce компанию.\n\n📍Проект - разработка внутренней платформы для запуска и разработки приложений, которая интегрирует в себя инструменты и библиотеки для разработки, pipeline доставки приложений, а также интеграции с хранилищами данных и существующими инструментами.\nСейчас у продукта около 300 пользователей (внутренние заказчики). \n\nЯ ищу человека, который возглавит разработку одной из частей платформы и будет заниматься развитием людей в своей команде.\n\n📌Требования к кандидату:\n\n- хорошо знаешь процесс разработки и можешь круто его организовывать и оптимизировать (например, увеличивать velocity, уменьшать scope drop);\n- обладаешь опытом продуктовой разработки (делаешь фичи для людей, а не для галочки);\n- сможешь управлять командой из 5-6 middle/senior-разработчиков (опыт управления командой от 3-х лет - must have);\n- любишь и умеешь развивать в людях их сильные стороны;\n- понимаешь микросервисную архитектуру и паттерны проектирования;\n- имеешь опыт работы хотя бы с одним из языков: Golang, PHP, Python.\n\n💡Условия:\n- возможность реализовать свои идеи в проекте с многомиллионной аудиторией;\n- команда профессионалов, готовых поддержать ваши инициативы;\n- красивый и комфортный офис в 2 минутах от метро «Белорусская»; \n- ДМС\n- прозрачная система бонусов и премий\n\n📧Контакты для CV и рекомендаций:\nemail: seleznevaem@gmail.com\n@EkaterinaSel","markup":[{"type":"hashtag","offset":0,"length":9,"data":"вакансия"},{"type":"hashtag","offset":10,"length":9,"data":"TeamLead"},{"type":"hashtag","offset":20,"length":4,"data":"PHP"},{"type":"hashtag","offset":25,"length":8,"data":"Laravel"},{"type":"hashtag","offset":34,"length":3,"data":"Go"},{"type":"hashtag","offset":38,"length":5,"data":"PaaS"},{"type":"hashtag","offset":44,"length":9,"data":"fulltime"},{"type":"hashtag","offset":54,"length":5,"data":"офис"},{"type":"link","offset":1583,"length":21,"data":"mailto:seleznevaem@gmail.com"},{"type":"handle","offset":1605,"length":13,"data":"EkaterinaSel"}],"date":"2020-04-06T12:54:20+00:00","link":"tg://resolve?domain=php_jobs&post=23179","tags":[{"name":"php"},{"name":"laravel"},{"name":"go"},{"name":"python"}],"cities":[{"code":"moscow"}],"allowsRemote":false}},{"node":{"__typename":"Job","id":"16193159168-1001110946746","title":"Js разработчик","text":"#вакансия #javascript #nodejs #typescript #frontend #middle\n\nКомпания: #Mетрквадратный https://m2.ru\nЛокация: #москва м.Белорусская\nФормат работы: офис\nЗанятость: полная\nЗ/п: 200к - 260к руб. на руки\nКонтакты: @maxdmitrov\n\nЭто платформа, на которой физические лица смогут в режиме одного окна подобрать объект недвижимости, оформить на него ипотеку, произвести электронную регистрацию, сделать безопасный расчет не посещая банки и воспользоваться дополнительными услугами (страхование, дизайн, ремонт). \n\nЧем предстоит заниматься:\n\n•  разрабатывать один из инновационных продуктов жилищной экосистемы;\n•  прорабатывать задачи с начального этапа (декомпозиция, проработка архитектуры, демо с владельцем продукта);\n•  проводить код ревью;\n•  покрывать код unit тестами, помогать тестировщикам в написании e2e тестов;\n•  оптимизировать рендеринг и скорость загрузки страниц;\n•  разрабатывать продуктовые компоненты, используя общие UI библиотеки, и помогать в развитии этих библиотек.\n\nЧего мы ждем:\n\n• Javascript(ES6);\n• React + MobX/Redux;\n• HTML;\n• CSS;\n• Опыт кроссбраузерной верстки.\n\nБудет плюсом:\n\n• TypeScript;\n• Знание протокола HTTP/HTTPS, websockets, опыт работы с REST API;\n• Опыт работы с react native;\n• Опыт в бекэнде на различных языках программирования;\n• Опыт профилирования, оптимизации и рефакторинга кода;\n• Опыт написания тестов.\n\nМы используем: \n\n•  TypeScript + React + MobX + Gatsby;\n•  NestJS + gRPC + ProtoBuf (мидл-слой, управляющий UI и обращающийся к API бэк-энда);\n•  Micro Frontend Service;\n•  GitLab (CI/CD);\n•  Yarn + Lerna;\n•  Webpack/Rollup.\n\nМы предлагаем: \n\n•  Современный стек технологий;\n•  Возможность влиять на архитектуру и сразу видеть результат своей работы;\n•  Белая конкурентная ЗП, официальное оформление;\n•  Гибкий график работы, возможность выбора рабочего оборудования;\n•  ДМС, компенсация фитнеса, льготная ставка по ипотеке;\n•  Комфортный офис в БЦ «Белая площадь» (минута от метро): лаундж-зоны, бариста, фрукты.\n\n—\n\n👉 Обсуждение вакансии в чате @javascript_jobs","markup":[{"type":"hashtag","offset":0,"length":9,"data":"вакансия"},{"type":"hashtag","offset":10,"length":11,"data":"javascript"},{"type":"hashtag","offset":22,"length":7,"data":"nodejs"},{"type":"hashtag","offset":30,"length":11,"data":"typescript"},{"type":"hashtag","offset":42,"length":9,"data":"frontend"},{"type":"hashtag","offset":52,"length":7,"data":"middle"},{"type":"hashtag","offset":71,"length":15,"data":"Mетрквадратный"},{"type":"link","offset":87,"length":13,"data":"https://m2.ru"},{"type":"hashtag","offset":110,"length":7,"data":"москва"},{"type":"handle","offset":210,"length":11,"data":"maxdmitrov"},{"type":"handle","offset":1998,"length":16,"data":"javascript_jobs"}],"date":"2020-04-06T12:22:15+00:00","link":"tg://resolve?domain=javascript_jobs_feed&post=15443","tags":[{"name":"javascript"},{"name":"nodejs"},{"name":"typescript"},{"name":"reactjs"},{"name":"redux"},{"name":"html"},{"name":"css"},{"name":"rest"},{"name":"gitlab"},{"name":"webpack"},{"name":"react-native"}],"cities":[{"code":"moscow"}],"allowsRemote":false}},{"node":{"__typename":"Job","id":"1970274304-1001134745498","title":"Devops engineer","text":"#вакансия #devops\nДобрый день!\nВ компании JTC открыта вакансия на должность DevOps engineer\nОфис: Москва (м. Ленинский проспект), Санкт-Петербург (м. Петроградская), Рязань, Ижевск\nЗанятость: полная\nЗарплатная вилка: от 150 000 до 250 000 рублей на руки\nОбязанности\n- настраивать и поддерживать инфраструктуру текущих и новых проектов \n- поддерживать CI/CD на основе Gerrit/Jenkins/Nexus\n- администрировать парк серверов \nRND - находить и внедрять новые решения\nТребования\n- уверенное администрирование Linux (CentOS)\n- опыт работы с Docker, Elasticsearch, Logstash и Kibana\n- уверенное владение инструментами CI/CD (Jenkis, TeamCity)\n- автоматизация с помощью Ansible\nвладение языками (bash и/или python)\n- опыт работы с системами сбора метрик и мониторинга \nжелательно: Kubernetes\nнавыки администрирования БД (Oracle, PostgreSQL)\nМы предлагаем\n- конкурентная заработная плата по результатам общения\n- соблюдение TK РФ\n- гибкий рабочий график с началом работы с 8:00 до 11:00\n- ДМС с расширенным набором услуг\n- интересные и нетривиальные задачи \n- возможность посещать семинары, тренинги, конференции\n\nКомпания: https://jtc.ooo/\nНа рынке ИТ с 2007.\nСпециализация: разработка систем ДБО и построение информационных экосистем. \n\nКонтакты: @rita_kudryashova\n\n—\n\n👉 Обсуждение вакансии в чате @devops_jobs","markup":[{"type":"hashtag","offset":0,"length":9,"data":"вакансия"},{"type":"hashtag","offset":10,"length":7,"data":"devops"},{"type":"link","offset":1114,"length":16,"data":"https://jtc.ooo/"},{"type":"handle","offset":1239,"length":17,"data":"rita_kudryashova"},{"type":"handle","offset":1291,"length":12,"data":"devops_jobs"}],"date":"2020-04-06T11:21:09+00:00","link":"tg://resolve?domain=devops_jobs_feed&post=1879","tags":[{"name":"jenkins"},{"name":"linux"},{"name":"centos"},{"name":"docker"},{"name":"elasticsearch"},{"name":"logstash"},{"name":"ansible"},{"name":"bash"},{"name":"python"},{"name":"kubernetes"},{"name":"oracle"},{"name":"postgresql"}],"cities":[{"code":"moscow"},{"code":"ryazan"},{"code":"izhevsk"}],"allowsRemote":false}}]}}},"context":{}}