{"hash":"f5f6bf98bd95e769321482904cbbd488f77922fd","data":{"records":{"totalCount":669,"pageInfo":{"totalPages":67,"currentPage":20},"edges":[{"node":{"id":"17216569344-1001110946746","title":"Js разработчик","text":"#вакансия #Frontend #Vue\n #JS\n🔸 Формат работы: удаленка/возможен офис\n🔸 Город: г. Москва (м. Дмитровская), г. Минск (м. Грушевка)\n🔸 Занятость: проектная/полная\n🔸 З/п: от 900$ до 2000$\nМы уже запустили несколько собственных успешных проектов в сфере авиаобслуживания, логистики, такси и др, и теперь помогаем другим компаниям в создании самых разных сервисов — от веб-сайтов до сложных highload проектов. \n\nСейчас ищем Frontend разработчика, готового работать на Vue.JS и разрабатывать с нуля сервис по оформлению и обслуживанию страхового продукта.\nКроме этого, для поддержки есть внутренние проекты из сферы логистики и доставки.\n📌 Задачи:\nРазработка новых сервисов, как в рамках новых проектов, так и для уже существующих;\nРабота с инфраструктурой Vue.JS;\nПроведение Code Review. \n📌 Что нужно уметь:\nОпыт работы на JavaScript, знание стандартов ECMAScript;\nУмение создавать интерфейсы с использованием Vue;\nХорошее понимание принципов ФП, ООП и паттернов проектирования;\nЗнание и понимание Git.\n📌 Что будет полезно:\nЗнание плагинов Vue (Vuex, Vue Router, axios);\nОпыт работы с NuxtJS и element-ui;\nУмение работать с ТЗ заказчика, доводить бизнес-идею до продакшн/\n📌 Что мы даем взамен: \nВозможность прокачки hard skills на проектах разного уровня сложности;\nКоманду с сильными разработчиками, QA, UX/UI дизайнерами, менеджерами и налаженными внутренними процессами;\nСамореализацию и профессиональный рост, посещение конференций и курсов за счет компании;\nГрафик работы: удаленный с пересечением по часам 11:00–19:00 по Москве; или можно работать в офисах и участвовать во всех наших активностях;\n🔸 Компания: BSL (bsl.dev)\n🔸 Контакты: hr@bsl.dev или телеграм: @viktoriya_gw","markup":[{"type":"hashtag","offset":0,"length":9,"data":"вакансия"},{"type":"hashtag","offset":10,"length":9,"data":"Frontend"},{"type":"hashtag","offset":20,"length":4,"data":"Vue"},{"type":"hashtag","offset":26,"length":3,"data":"JS"},{"type":"link","offset":1624,"length":7,"data":"http://bsl.dev"},{"type":"link","offset":1646,"length":10,"data":"mailto:hr@bsl.dev"},{"type":"handle","offset":1671,"length":13,"data":"viktoriya_gw"}],"date":"2020-06-29T13:31:53+00:00","link":"tg://resolve?domain=javascript_jobs_feed&post=16419","tags":[{"name":"javascript"},{"name":"vuejs"},{"name":"git"},{"name":"axios"}],"cities":[{"code":"moscow"},{"code":"minsk"}],"allowsRemote":true}},{"node":{"id":"103979941888-1001089317451","title":"Qa инженер","text":"#вакансия #QA #тестировщик #part-time #home-office #удалёнка #удаленная_работа #Новосибирск\n✅ Должность: Тестировщик ПО / QA engineer\n✅ Компания: Albatross Internet Group состоит из нескольких интернет-проектов со своими командами. \nМы поддерживаем атмосферу стартапа, чтобы оставаться гибкими и уметь оперативно принимать решения.\n✅ В одном из наших ключевых проектов открыта позиция QA инженер на part-time удаленную работу 8-10 часов в неделю.\n✅ Требуемый опыт работы: 1–3 года\n\n✅ Какие задачи тебя ждут?\n- тестирование задач по требованиям;\n- регрессионное тестирование на тестовом/боевом серверах;\n- формирование чек-листов;\n- написание технической документации по задачам;\n- автоматизация тестирования на Selenium(если опыта нет - не проблема, можем отправить на курсы);\n- постановка ТЗ для задач.\n\n✅ Чего мы ожидаем?\n- опыт тестирования браузерных приложений и нативных (IOS/Android);\n- умение применять на практике техники тест дизайна;\n- внимательность к деталям и неуклонное желание что-нибудь сломать;\n- понимание методологии разработки и тестирования ПО;\n- навыки в составлении и использовании тестовой документации (чек-листы, тест-кейсы, отчеты о тестировании);\n- опыт работы с Jira, Confluence.\n\n✅ Что будет преимуществом?\n- опыт автоматизации тестирования (желательно на Selenium);\n- опыт работы с системой контроля версий git;\n- опыт работы с Jenkins;\n- опыт написания SQL запросов (MySQL);\n- опыт работы с testRail, Postman;\n- опыт работы с Docker.\n\n✅ Условия:\n- оплата: до 300 руб./час\n- плавающий график\n- обучение за счет компании\n✅ Отклики с пометкой QA можно присылать на hr@albatrosscom.ru или сразу пишите @Tetyana7","markup":[{"type":"hashtag","offset":0,"length":9,"data":"вакансия"},{"type":"hashtag","offset":10,"length":3,"data":"QA"},{"type":"hashtag","offset":14,"length":12,"data":"тестировщик"},{"type":"hashtag","offset":27,"length":5,"data":"part"},{"type":"hashtag","offset":38,"length":5,"data":"home"},{"type":"hashtag","offset":51,"length":9,"data":"удалёнка"},{"type":"hashtag","offset":61,"length":17,"data":"удаленная_работа"},{"type":"hashtag","offset":79,"length":12,"data":"Новосибирск"},{"type":"link","offset":1595,"length":18,"data":"mailto:hr@albatrosscom.ru"},{"type":"handle","offset":1631,"length":9,"data":"Tetyana7"}],"date":"2020-06-29T12:44:10+00:00","link":"tg://resolve?domain=qa_jobs&post=99163","tags":[{"name":"qa"},{"name":"selenium"},{"name":"ios"},{"name":"android"},{"name":"git"},{"name":"jenkins"},{"name":"sql"},{"name":"mysql"},{"name":"docker"}],"cities":[{"code":"novosibirsk"}],"allowsRemote":true}},{"node":{"id":"26779582464-1001075660570","title":"Php developer","text":"#backend #вакансия #офис #удаленка #PHP #remote\n\nВилка: 80к - 250k руб.\nЛокация: Удаленная работа или офис в Новосибе\nЗанятость: #полная\n\nМы — Legionfarm.com.\nМы помогаем игрокам по всему миру нанимать крутых киберспортсменов для помощи в освоении end-game контента, получении топ шмота и титулов, повышении рейтингов. Основные игровые дисциплины - Destiny 2, WoW, Division 2.\n\nТысячи игроков по всему миру пользуются сервисом ежедневно, мы растем, поэтому сейчас ищем в одну из команд PHP Developer (#middle и #senior)\n\n😱Что будем делать?\n• Будем ходить в API игр Bungie, Blizzard, анализировать игровые профили наших клиентов, строить рекомендательные системы.\n• Автоматическая отправка сообщений через API в мессенджеры: discord, telegram, fb, будем сводить общение наших клиентов через мессенджеры в единую систему intercom.com.\n• Автоматизация процессов в нашей команде (полуавтоматизированные инструменты для работы с сайтом).\n\n👍Что ты должен знать/уметь?\n• Знание PHP, Linux на хорошем уровне.\n• Умение работать в системах контроля версий.\n• Знание mysql, redis.\n• Опыт работы с различными API.\n\n⭐️Будет плюсом\n• Сильный математический бэкграунд.\n• Базовое знание html, CSS, JavaScript.\n• Опыт работы с фронтенд фреймворками (React one love).\n\n✅Вопросы прошу направлять в личку @isaevakristi","markup":[{"type":"hashtag","offset":0,"length":8,"data":"backend"},{"type":"hashtag","offset":9,"length":9,"data":"вакансия"},{"type":"hashtag","offset":19,"length":5,"data":"офис"},{"type":"hashtag","offset":25,"length":9,"data":"удаленка"},{"type":"hashtag","offset":35,"length":4,"data":"PHP"},{"type":"hashtag","offset":40,"length":7,"data":"remote"},{"type":"bold","offset":49,"length":6,"data":""},{"type":"bold","offset":72,"length":9,"data":""},{"type":"bold","offset":118,"length":9,"data":""},{"type":"hashtag","offset":129,"length":7,"data":"полная"},{"type":"link","offset":143,"length":14,"data":"http://Legionfarm.com"},{"type":"bold","offset":143,"length":14,"data":""},{"type":"bold","offset":464,"length":77,"data":""},{"type":"hashtag","offset":501,"length":7,"data":"middle"},{"type":"hashtag","offset":511,"length":7,"data":"senior"},{"type":"link","offset":820,"length":12,"data":"http://intercom.com"},{"type":"bold","offset":935,"length":29,"data":""},{"type":"bold","offset":1105,"length":15,"data":""},{"type":"handle","offset":1287,"length":13,"data":"isaevakristi"}],"date":"2020-06-29T12:07:04+00:00","link":"tg://resolve?domain=php_jobs&post=25539","tags":[{"name":"php"},{"name":"linux"},{"name":"mysql"},{"name":"redis"},{"name":"html"},{"name":"css"},{"name":"javascript"},{"name":"reactjs"}],"cities":[],"allowsRemote":true}},{"node":{"id":"72254226432-1001054966032","title":"Mobile разработчик","text":"#вакансия #ios #senior #middle #objective_c \n\nОчень важен опыт работы с Core Data\n\nГород: #Москва, м. Павелецкая (удалённо на период всеобщей борьбы с вирусами)\nФормат работы: #офис, #удалёнка, #гибкие_часы \n\nЗанятость: полная  \nЗарплатная вилка: от 200к до 250к руб. net \nОписание вакансии: \n\nМы разрабатываем облачные CRM решения с широким использованием мобильных устройств.   \nСейчас мы ищем middle  и senior iOS разработчиков в команду, которая внедряет приложение CT Mobile в архитектуру CRM наших клиентов в Европе.\n\nhttps://apps.apple.com/us/app/ct-mobile-for-salesforce/id1234947996\n\nНазвание компании: Customertimes.com\nКонтакты: mikhail.zinoviev@ctconsult.ru","markup":[{"type":"hashtag","offset":0,"length":9,"data":"вакансия"},{"type":"hashtag","offset":10,"length":4,"data":"ios"},{"type":"hashtag","offset":15,"length":7,"data":"senior"},{"type":"hashtag","offset":23,"length":7,"data":"middle"},{"type":"hashtag","offset":31,"length":12,"data":"objective_c"},{"type":"hashtag","offset":90,"length":7,"data":"Москва"},{"type":"hashtag","offset":176,"length":5,"data":"офис"},{"type":"hashtag","offset":183,"length":9,"data":"удалёнка"},{"type":"hashtag","offset":194,"length":12,"data":"гибкие_часы"},{"type":"link","offset":524,"length":67,"data":"https://apps.apple.com/us/app/ct-mobile-for-salesforce/id1234947996"},{"type":"link","offset":612,"length":17,"data":"http://Customertimes.com"},{"type":"link","offset":640,"length":29,"data":"mailto:mikhail.zinoviev@ctconsult.ru"}],"date":"2020-06-29T11:15:18+00:00","link":"tg://resolve?domain=mobile_jobs&post=68907","tags":[{"name":"mobile"},{"name":"ios"},{"name":"objective-c"},{"name":"dotnet"},{"name":"core-data"}],"cities":[{"code":"moscow"}],"allowsRemote":true}},{"node":{"id":"103974699008-1001089317451","title":"Qa инженер","text":"#вакансия #QA #офис #fulltime #Москва #Jira \n\nQA инженер\n⠀\nТребуемый опыт работы: 1–3 года\nФормат: офис / fulltime (сейчас удалённо, далее офис)\nЗарплата до 170 gross + 20 % годовой бонус + ДМС\nКомпания: 5POST (подразделение X5 Retail Group)\n\nЛокация: г.Москва  / МЦК Калитники 4 мин. пешком / м. Волгоградский проспект\nСсылка на компанию: https://fivepost.ru/\n\n5POST - новое логистическое подразделение X5 Retail Group, которое развивает услуги доставки заказов для e-commerce в пункты выдачи и автоматизированные пункты выдачи (постаматы) \n\nПроект находится в стадии активного роста и развития, наши амбициозные цели позволяют в своей работе использовать только новые и надежные технологии.\n⠀\nДля удобства наших клиентов мы интегрированы с AliExpress, Ozon, Беру и другими интернет-магазинами. \n⠀\nНаша цель - доставлять 1 000 000 посылок в сутки.\n⠀\nДля обеспечения такой производительности мы развернули несколько десятков микросервисов, отмасштабировали между ними нагрузку и продолжаем работать над оптимизациями.\n\nОбязанности:\n- обеспечение качественного и своевременного исполнения работ по тестированию;\n- минимизация дефектов, выявленных в системе, после переноса протестированного релиза в продуктивную эксплуатацию;\n- осуществление анализа функциональных и бизнес - требований;\n- написание и актуализация тестовых сценариев;\n- осуществление контроля за устранением дефектов в установленные сроки (SLA);\n- проведение тестирования (функциональное, регрессионное, интеграционное);\n- взаимодействие с разработчиками и аналитиками по вопросам тестирования;\n- подготовка отчетов о ходе тестирования.\n⠀\nТребования:\n- опыт тестирования (глубокое и системное понимание тестирование и его методов);\n- опыт создания тестовой документации;\n- разработка автотестов для основных сценариев;\n- опыт разработки скриптов для автоматизации повседневных задач;\n- развертывание и настройка тестовых сред;\n- понимание принципов работы клиент - сервисных приложений;\n- Jira;\n⠀\nУсловия:\n- работа в динамично развивающемся бизнесе 5Post;\n- офис в районе м. Волгоградский проспект;\nСкидки в наших магазинах (Пятерочка, Перекресток, Карусель);\n- ДМС (после прохождения испытательного срока);\n- корпоративное обучение;\n- корпоративная йога в офисе;\n- обширная партнерская программа лояльности;\n- бесплатная парковка;\n- возможность развития и карьерного роста.\n⠀\nКонтакты: @ValeryBurkina","markup":[{"type":"hashtag","offset":0,"length":9,"data":"вакансия"},{"type":"hashtag","offset":10,"length":3,"data":"QA"},{"type":"hashtag","offset":14,"length":5,"data":"офис"},{"type":"hashtag","offset":20,"length":9,"data":"fulltime"},{"type":"hashtag","offset":30,"length":7,"data":"Москва"},{"type":"hashtag","offset":38,"length":5,"data":"Jira"},{"type":"bold","offset":46,"length":10,"data":""},{"type":"bold","offset":145,"length":98,"data":""},{"type":"link","offset":340,"length":20,"data":"https://fivepost.ru/"},{"type":"handle","offset":2354,"length":14,"data":"ValeryBurkina"}],"date":"2020-06-29T11:06:31+00:00","link":"tg://resolve?domain=qa_jobs&post=99158","tags":[{"name":"qa"}],"cities":[{"code":"moscow"}],"allowsRemote":true}},{"node":{"id":"1760559104-1001091028994","title":"Java разработчик","text":"#вакансия #удаленка #Java\n\nВакансия: Backend Java разработчик (middle, senior)\n\nЛокация: #Москва #удаленка\nВилка по ЗП: middle до 170 000 net, senior до 200 000 net)\nКонтакт: @Hr_Dina\nОсновной проект: Разработка подсистемы обеспечения юридической значимости электронного документооборота.\nСтек технологий: Java 11, Spring (Core, Boot, Security, Data), JPA (Hibernate), PostgreSQL, Angular, Ant-design, Docker.\n\nЧто нужно делать:\nBack-end - разработка проектов разных масштабов и направленности, в том числе проектов с \"нуля\"\nРефакторинг, оптимизация и модернизация кода существующих проектов\nУчастие в разработке архитектуры проекта\nРабота с разными проектными командами архитекторов, разработчиков и тестировщиков\n\nЧто мы ждем от вас:\nОпыт работы (обязательный):\nОпыт коммерческой разработки на Java от 3х лет.\nОпыт работы (желательный):\nОпыт разработки высоконагруженных приложений на Java от 1го года.\n\nНавыки (обязательные):\n- Java SE 8+ (Core, Collections, Multithreading);\n- Spring (Core, Boot, Security, Data);\n- ORM: Hibernate/JOOQ;\n- Кеши (Ehcache/Redis/Hazelcast/Ignite/GridGain/etc);\n- Очереди (Kafka/RabbitMQ/ActiveMQ/etc);\n- Проектирование REST API (Swagger);\n- БазыданныхPostgre/Oracle\n- Maven, Git\n\nНавыки (желательные):\n- OAuth, OpenId, SSO/SAML, WS-Security, PKI, Kerberos;\n- Docker\n- GitLab, Sonar","markup":[{"type":"hashtag","offset":0,"length":9,"data":"вакансия"},{"type":"hashtag","offset":10,"length":9,"data":"удаленка"},{"type":"hashtag","offset":20,"length":5,"data":"Java"},{"type":"bold","offset":27,"length":9,"data":""},{"type":"bold","offset":80,"length":8,"data":""},{"type":"hashtag","offset":89,"length":7,"data":"Москва"},{"type":"hashtag","offset":97,"length":9,"data":"удаленка"},{"type":"bold","offset":107,"length":12,"data":""},{"type":"bold","offset":166,"length":8,"data":""},{"type":"handle","offset":175,"length":8,"data":"Hr_Dina"},{"type":"bold","offset":184,"length":16,"data":""},{"type":"bold","offset":289,"length":16,"data":""},{"type":"bold","offset":411,"length":18,"data":""},{"type":"bold","offset":716,"length":20,"data":""},{"type":"bold","offset":906,"length":23,"data":""},{"type":"bold","offset":1214,"length":22,"data":""}],"date":"2020-06-29T11:03:15+00:00","link":"tg://resolve?domain=jvmjobs&post=1679","tags":[{"name":"java"},{"name":"jvm"},{"name":"dotnet"},{"name":"spring"},{"name":"jpa"},{"name":"hibernate"},{"name":"postgresql"},{"name":"angularjs"},{"name":"ant"},{"name":"docker"},{"name":"orm"},{"name":"redis"},{"name":"kafka"},{"name":"rabbitmq"},{"name":"rest"},{"name":"swagger"},{"name":"oracle"},{"name":"maven"},{"name":"git"},{"name":"oauth"},{"name":"gitlab"}],"cities":[{"code":"moscow"}],"allowsRemote":true}},{"node":{"id":"103971553280-1001089317451","title":"Qa engineer","text":"#вакансия #QA #manual #fulltime #remote #офис\n\nФормат работы: офис или удаленно\nРасположение: Санкт-Петербург \nЗанятость: полная, гибкое начало дня\nЗП: до 200k gross\n\n🔹 Компания OCS Labs более 25 лет на рынке IT и является ведущим дистрибьютером по всем продуктовым направлениям IT рынка. \nРегиональная сеть офисов OCS включает 27 городов в России, компания работает с более чем 8500 партнеров, среди которых 500 продуктовых линеек от ведущих мировых вендеров. \n\n🔸Сейчас команда находится в поиске Senior Manual QA Engineer, который будет готов в дальнейшем вырасти в teamlead’a, и в перспективе возглавить направление тестирования в R&D отделе.\nНа текущий момент в команде уже есть 1 ручной тестировщик и 1 автотестировщик (python).\nПредстоит заниматься тестированием сервиса взаимодествия вендоров; \n\n🔹  Требования:\n— Опыт тестирования Web от 2 лет;\n— Умение оценивать и распределять задачи в команде;\n— Опыт менторства/руководства командой;\n— Опыт тестирования API;\n\nБольшим плюсом будет:\n— Понимание b2b сервисов;\n— Навыки автотестирования, будет возможность расти и развиваться в этом направлении; \n\n🔹  Условия:\n— Официальное трудоустройство, белая заработная плата;\n— Комфортный офис на Б.Сампсониевском (Петербург), также для московских специалистов есть возможность работать в московском офисе: Румянцево, офисный парк «Комсити» или удаленно; \n— Техника предоставляется в соответствии с пожеланиями специалиста;\n— Внутреннее обучение;\n— Годовая дотация;\n— Дружественная рабочая среда с возможностью карьерного и профессионального роста;\n\n🔹 Контакты:\ne-mail: maria@luckyhunter.io\ntelegram: @Maria_Rey","markup":[{"type":"hashtag","offset":0,"length":9,"data":"вакансия"},{"type":"hashtag","offset":10,"length":3,"data":"QA"},{"type":"hashtag","offset":14,"length":7,"data":"manual"},{"type":"hashtag","offset":22,"length":9,"data":"fulltime"},{"type":"hashtag","offset":32,"length":7,"data":"remote"},{"type":"hashtag","offset":40,"length":5,"data":"офис"},{"type":"bold","offset":500,"length":6,"data":""},{"type":"bold","offset":507,"length":18,"data":""},{"type":"bold","offset":570,"length":10,"data":""},{"type":"link","offset":1571,"length":20,"data":"mailto:maria@luckyhunter.io"},{"type":"handle","offset":1602,"length":10,"data":"Maria_Rey"}],"date":"2020-06-29T10:55:49+00:00","link":"tg://resolve?domain=qa_jobs&post=0","tags":[{"name":"qa"},{"name":"python"},{"name":"web"}],"cities":[],"allowsRemote":true}},{"node":{"id":"1759510528-1001091028994","title":"Java developer","text":"#remote #kotlin #Java #spring #maxilect\n\nКомпания: Maxilect (https://maxilect.ru/)\n\nПозиция: Middle+/Senior Java developer\n\nСтек технологий: Java/Kotlin, Spring, Kafka. \nПредстоит участвовать в разработке бэкенда системы дистанционного банковского обслуживания. \nБольше о проекте: (https://maxilect.ru/careers/middle-senior-java-developer/).\n\nУсловия: от 200 000 руб. + приятные бонусы :)\n\nУ нас 100% удаленка, новая система — мало ограничений на используемые технологии и подходы, небольшая команда крутых специалистов. Это долгосрочная перспектива на полный рабочий день для профессионалов из России.\n\n📌Резюме и вопросы можно отправить по адресу career@maxilect.com или писать в личные сообщения – @mari_manuili (Марина).\n\n—\nСпасибо😊","markup":[{"type":"hashtag","offset":0,"length":7,"data":"remote"},{"type":"hashtag","offset":8,"length":7,"data":"kotlin"},{"type":"hashtag","offset":16,"length":5,"data":"Java"},{"type":"hashtag","offset":22,"length":7,"data":"spring"},{"type":"hashtag","offset":30,"length":9,"data":"maxilect"},{"type":"link","offset":61,"length":20,"data":"https://maxilect.ru/"},{"type":"link","offset":282,"length":57,"data":"https://maxilect.ru/careers/middle-senior-java-developer/"},{"type":"link","offset":649,"length":19,"data":"mailto:career@maxilect.com"},{"type":"handle","offset":701,"length":13,"data":"mari_manuili"}],"date":"2020-06-29T10:53:58+00:00","link":"tg://resolve?domain=jvmjobs&post=1678","tags":[{"name":"java"},{"name":"jvm"},{"name":"kotlin"},{"name":"spring"},{"name":"kafka"}],"cities":[],"allowsRemote":true}},{"node":{"id":"1758461952-1001091028994","title":"Java разработчик","text":"#Java\nИщy Java разработчика в ВТБ Банк, в команду SCRUM на автоматизацию банковских продуктов для Юр лиц.\nКоманда занимается открытием онлайн счетов для юридических лиц.\n\nЗадачи будут связаны с развитием бекенда, с использованием микросервисной архитектуры, приложение на java 8 (spring boot 2.1, mvc, data jpa, ehcache, oracle DB). \n\nВ команде:\n-3 системных аналитика, \n-2 frontend-разработчика,\n-4 backend -разработчика,\n-2 тестировщика, \n-1 DevOps, \n-2 бизнес-аналитика.\n\nУсловия обсуждаются в зависимости от опыта: до 250 000 руб. net («белая» з/п).\n\nРабота постоянная, удаленная, с оформлением в штат компании. \n\nПисать в лс @dvoretskayaEk или edvoreckaya@vtb.ru","markup":[{"type":"hashtag","offset":0,"length":5,"data":"Java"},{"type":"handle","offset":630,"length":14,"data":"dvoretskayaEk"},{"type":"link","offset":649,"length":18,"data":"mailto:edvoreckaya@vtb.ru"}],"date":"2020-06-29T10:40:50+00:00","link":"tg://resolve?domain=jvmjobs&post=1677","tags":[{"name":"java"},{"name":"jvm"},{"name":"spring"},{"name":"jpa"},{"name":"oracle"},{"name":"dotnet"},{"name":"spring-boot"}],"cities":[],"allowsRemote":true}},{"node":{"id":"1757413376-1001091028994","title":"Java разработчик","text":"#Middle #Java #Developer\nЛокация: #удаленка #офис (Москва)\nЗ/п: 100 000 – 150 000 Net\nКонтакт: @Elena19_10Kom\n\nНаша компания занимается разработкой программного обеспечения в сфере аффилированного маркетинга, оказывает сервис, связанный с обслуживанием клиентов, генерирующих трафик для различных зарубежных проектов.\nМы запускаем очередной новый проект. Цель проекта - получить современный портал в области теннисного спорта. Это должна быть мощная платформа, которая превзойдет по удобству и современности все существующие на данный момент платформы этой тематики.\nПроект стартует с \"0\", поэтому предоставляется уникальная возможность начать \"все с самого начала\", а не разбираться и пилить Legacy код.\n\nОбязанности:\n•  разработка и сопровождение веб-проектов\n•  модульное и интеграционное тестирование\n•  системная интеграция и развертывание приложений\n•  обеспечение технической поддержки второго и третьего уровня\nТребования:\n•  опыт коммерческой разработки на java от 3-х лет\n•  знание Spring Framework (в т.ч. SpringBoot, SpringData, SpringSecurity)\n•  знание ORM (JPA или Hibernate)\n•  опыт работы с RDBMS, желательно PostgreSQL\n•  опыт работы по практикам Agile, DevOps, CI/CD\n•  знание Java Core, collections, multithreading, concurrency, generics, reflection\n•  знание и понимание основных принципов ООП\n•  знание паттернов проектирования\n•  умение писать качественный и понятный код\n•  английский – уровень Intermediate\nБудет плюсом:\n•  опыт разработки на Playframework, Akka, Akka-Persistence\n•  опыт работы Full-Stack разработчиком на React/Redux\n•  опыт работы в команде\n•  знание Apache Cassandra\n•  опыт работы с Docker и Kubernetes\n•  опыт работы с микросервисной архитектурой\n•  опыт работы c AWS или другими Cloud платформами\n•  понимание принципов работы HTTP, Websockets\n•  понимание принципов работы stream-processing, reactive, CQRS\n•  наличие примеров кода на GitHub\n•  опыт администрирования Linux\nУсловия:\n•  зарплату обсуждаем\n•  оформление по ТК РФ\n•  можно работать удаленно или в комфортном офисе, который находится в пешей доступности от м. Динамо, с панорамным видом на Москву, на 25 этаже бизнес-центра класса \"А\"\n•  гибкое начало рабочего дня\n•  работа на MacBook air\n•  выделение бюджета для каждого сотрудника на развитие как профессиональных навыков (английский язык, курсы повышения квалификации), так и физических возможностей (корпоративный фитнес)","markup":[{"type":"hashtag","offset":0,"length":7,"data":"Middle"},{"type":"hashtag","offset":8,"length":5,"data":"Java"},{"type":"hashtag","offset":14,"length":10,"data":"Developer"},{"type":"hashtag","offset":34,"length":9,"data":"удаленка"},{"type":"hashtag","offset":44,"length":5,"data":"офис"},{"type":"handle","offset":95,"length":14,"data":"Elena19_10Kom"}],"date":"2020-06-29T10:38:58+00:00","link":"tg://resolve?domain=jvmjobs&post=1676","tags":[{"name":"java"},{"name":"jvm"},{"name":"dotnet"},{"name":"spring"},{"name":"orm"},{"name":"jpa"},{"name":"hibernate"},{"name":"postgresql"},{"name":"playframework"},{"name":"akka"},{"name":"reactjs"},{"name":"redux"},{"name":"apache"},{"name":"cassandra"},{"name":"docker"},{"name":"kubernetes"},{"name":"amazon-web-services"},{"name":"cloud"},{"name":"github"},{"name":"linux"},{"name":"react-redux"}],"cities":[{"code":"moscow"}],"allowsRemote":true}}]}},"context":{}}