{"hash":"f5f6bf98bd95e769321482904cbbd488f77922fd","data":{"records":{"id":"javascript","name":"javascript","belongsTo":{"totalCount":272,"pageInfo":{"totalPages":28,"currentPage":13},"edges":[{"node":{"__typename":"Job","id":"17141071872-1001110946746","title":"Js разработчик","text":"#вакансия #удаленно #fullstack #JavaScript #NodeJS #Vue #middle #senior\n\nГород: г. Москва, Сколково, б-р Большой\nФорма работы: удаленка\nЗанятость: полная\nЗарплатная вилка: от 120000 до 200000 рублей\nНазвание компании: ADMON\n\nВ связи с расширением штата, компания ADMON приглашает Middle/Senior Full-stack JavaScript-разработчиков, готовых стать полноценными членами нашей команды на удаленной основе. ADMON – одна из ведущих российских компаний по предотвращению и расследованию мошенничества в сфере рекламы в Интернете и на мобильных устройствах с использованием высоких технологий, являемся резидентами Сколково. Основные направления деятельности компании: мониторинг и предотвращение мошенничества, аудит рекламных кампаний, разработка инновационных программных продуктов по мониторингу, обнаружению и предотвращению возникающих видов мошенничества.\n\nСтек технологий:\nNode.JS, Vue, GraphQl, Jest, Redis, Clickhouse, PostgreSQL, Docker.\n\nЧто используем в работе:\n    ✔️ Jira (Kanban), Confluence;\n   ✔️Храним код в Gitlab, тут же CI/CD;\n    ✔️Практикуем code review, политику частых релизов, гибкие методологии разработки;\n    ✔️Мониторим состояние приложений с помощью: Zabbix, Grafana.\n\nВ задачи будет входить:\n    🔸 Улучшать имеющийся функционал и разрабатывать новый (Система нотификаций, Обработка платежей, Алгоритмы атрибуции, Ads Crawler и т.д.);\n    🔸Писать тесты и рефакторить кодовую базу;\n    🔸Участвовать в принятии архитектурных решений;\n    🔸 Работать как в составе команды, так и в одного над небольшими проектами;\n   🔸Участвовать в коммуникации с командой;\n    🔸Быть инициативным и предлагать свои идеи, в том числе, если это касается использования новых технологий — проводить code review.\n\nЧто мы предлагаем:\n    🚀 Удаленная работа;\n    🚀 Оформление по ТК РФ;\n    🚀 Полностью белая ЗП;\n    🚀График работы 5/2;\n    🚀 Можно выбрать свой график работы;\n    🚀Наставничество по предметной области и на равной позиции;\n    🚀 Возможность работать как в составе команды, так и возглавить со временем свое направление — мы готовы обсуждать любые ваши идеи. \n\n Контакты:@juliajudina2810\n Резюме можно присылать на почту: hr@resurs-hr.ru","markup":[{"type":"hashtag","offset":0,"length":9,"data":"вакансия"},{"type":"hashtag","offset":10,"length":9,"data":"удаленно"},{"type":"hashtag","offset":20,"length":10,"data":"fullstack"},{"type":"hashtag","offset":31,"length":11,"data":"JavaScript"},{"type":"hashtag","offset":43,"length":7,"data":"NodeJS"},{"type":"hashtag","offset":51,"length":4,"data":"Vue"},{"type":"hashtag","offset":56,"length":7,"data":"middle"},{"type":"hashtag","offset":64,"length":7,"data":"senior"},{"type":"handle","offset":2104,"length":16,"data":"juliajudina2810"},{"type":"link","offset":2155,"length":15,"data":"mailto:hr@resurs-hr.ru"}],"date":"2020-06-25T06:43:58+00:00","link":"tg://resolve?domain=javascript_jobs_feed&post=16347","tags":[{"name":"javascript"},{"name":"nodejs"},{"name":"vuejs"},{"name":"graphql"},{"name":"redis"},{"name":"postgresql"},{"name":"docker"},{"name":"gitlab"}],"cities":[{"code":"moscow"}],"allowsRemote":true}},{"node":{"__typename":"Job","id":"17133731840-1001110946746","title":"Js developer","text":"#вакансия #frontenddeveloper #frontend\n\nГород и адрес офиса: Москва\n\nФормат работы: удаленна\n\nЗанятость: проектная, далее возможно заключение долгосрочного контракта с бонусами за развитие компании (испытательный срок - 2 месяца)\n\nЗарплатная вилка: от 90 000 до 130 000 руб.\n\nОписание вакансии: РАЗРАБОТКА ИНТЕРНЕТ  ПЛАТФОРМЫ ДЛЯ СОЗДАНИЯ КОМПЬЮТЕРНОЙ ГРАФИКИ ДЛЯ ИГР И СПЕЦЭФФЕКТОВ В КИНО (cg-doo.com)\n\nТребуемый опыт работы: 2–5 лет\n\nНеобходимые навыки:\n- уверенное знание JavaScript, React / Redux, HTML5, CSS3\n- опыт коммерческой разработки с использованием React.JS, Redux от года\n- опыт работы с ES6\n- знание английского на уровне чтения документации\n\nБудет плюсом:\n- опыт работы с Docker, Git\n\nСтек проекта:\n- SPA-приложение JS / React / Redux;\n- бэкэнд на Django/Postgresql/Redis/Celery/RabbitMQ; \n- NginX, kubernetes\n\nНазвание компании: Argunov Studio (https://argunov.studio)\n\nПодробнее ознакомиться с компанией и вакансией можно здесь: https://help.cg-doo.com/work-in-cg-doo/vacancies/frontend-developer\n\nКонтакты: телеграм @victoriashrv и/или на почту vicsukhareva@yandex.ru (пожалуйста, прикладывайте резюме или сопроводительное письмо)\n\n—\n\n👉 Обсуждение вакансии в чате @javascript_jobs","markup":[{"type":"hashtag","offset":0,"length":9,"data":"вакансия"},{"type":"hashtag","offset":10,"length":18,"data":"frontenddeveloper"},{"type":"hashtag","offset":29,"length":9,"data":"frontend"},{"type":"link","offset":391,"length":10,"data":"http://cg-doo.com"},{"type":"link","offset":862,"length":22,"data":"https://argunov.studio"},{"type":"link","offset":947,"length":67,"data":"https://help.cg-doo.com/work-in-cg-doo/vacancies/frontend-developer"},{"type":"handle","offset":1035,"length":13,"data":"victoriashrv"},{"type":"link","offset":1064,"length":22,"data":"mailto:vicsukhareva@yandex.ru"},{"type":"handle","offset":1184,"length":16,"data":"javascript_jobs"}],"date":"2020-06-24T13:37:13+00:00","link":"tg://resolve?domain=javascript_jobs_feed&post=16340","tags":[{"name":"javascript"},{"name":"reactjs"},{"name":"redux"},{"name":"html"},{"name":"css"},{"name":"docker"},{"name":"git"},{"name":"django"},{"name":"postgresql"},{"name":"redis"},{"name":"rabbitmq"},{"name":"nginx"},{"name":"kubernetes"},{"name":"react-redux"}],"cities":[{"code":"moscow"}],"allowsRemote":false}},{"node":{"__typename":"Job","id":"17130586112-1001110946746","title":"Javascript разработчик","text":"#вакансия #javascript #typescript \n\nFrontend-разработчик (удаленно или в офисе)\n\nГород и адрес офиса: Санкт-Петербург\nФормат работы: офис в Санкт-Петербурге или удаленка по России / full time\nЗанятость: полная\nЗарплатная вилка: от 80 000 до 280 000 рублей\n\nОписание вакансии: \n\nОсновной стек технологий — JavaScript, TypeScript, HTML/CSS. Сейчас мы разрабатываем бизнес-функционал приложения и будем рады новому специалисту в нашей команде, который вольется в проект и мы вместе будем делать frontend с нативным кодом и отзывчивым интерфейсом.\n\nМы ожидаем, что у вас есть:\n\n🔹Хорошее знание JavaScript, TypeScript, HTML/CSS;\n\n🔹Умение пользоваться отладчиком в браузере;\n\n🔹Навыки уверенной работы с Git.\n\nРады предложить:\n\n🔹Возможность работать удаленно;\n\n🔹Желаемый оклад по результатам собеседования;\n\n🔹Понятную систему роста зарплаты каждые 6 месяцев, в которой все зависит только от вас;\n\nУ нас есть общие ценности, такие как стремление к качественному результату, забота о продукте и желание двигаться вперед. Также у нас нет “Начальства”, а есть коллеги. Все взаимодействуют горизонтально, работают бок о бок и делают одно общее дело.\n\nБлагодарим за внимание к нашей вакансии, будем рады познакомиться и ответить на ваши вопросы ツ\n\nНазвание компании: Blogman https://orenburg.hh.ru/employer/3069197\nКонтакты: @alinablogman\n\n—\n\n👉 Обсуждение вакансии в чате @javascript_jobs","markup":[{"type":"hashtag","offset":0,"length":9,"data":"вакансия"},{"type":"hashtag","offset":10,"length":11,"data":"javascript"},{"type":"hashtag","offset":22,"length":11,"data":"typescript"},{"type":"link","offset":1268,"length":39,"data":"https://orenburg.hh.ru/employer/3069197"},{"type":"handle","offset":1318,"length":13,"data":"alinablogman"},{"type":"handle","offset":1366,"length":16,"data":"javascript_jobs"}],"date":"2020-06-24T13:06:56+00:00","link":"tg://resolve?domain=javascript_jobs_feed&post=16337","tags":[{"name":"javascript"},{"name":"typescript"},{"name":"html"},{"name":"css"},{"name":"git"}],"cities":[{"code":"orenburg"}],"allowsRemote":true}},{"node":{"__typename":"Job","id":"17129537536-1001110946746","title":"Js developer","text":"#вакансия  #Москва  #fulltime #офис   #nodejs #sql #backend\n\nМосква, м. Пролетарская\nФормат работы: офис\nЗанятость: полная, гибкое начало дня\nЗарплатная вилка: 150000 - 200000 рублей после вычета налогов\nКомпания: Кадровое Агентство «HR ONLINE»\nКонтакты: @sorokinayuliyahr\n\n🧷Мы в поиске Backend developer Node.js в сервисную компанию (online-платформа, где все важные сервисы доступны 24/7: от налогового вычета до дизайна интерьеров)\n\n💎Какими навыками и знаниями необходимо обладать:\n* ответственность и желание сделать вместе с командой крутой продукт; \n* умение писать чистый, читабельный, поддерживаемый код;\n* уверенное знание JavaScript (NodeJS), опыт коммерческой разработки от 3 лет; \n* знание ООП и основных шаблонов проектирования; \n* хорошее знание RDMS и в целом SQL, опыт работы с MySQL/Postgres;\n* опыт написания автотестов. \n\n💎Какие задачи необходимо решать:\n* интеграция внутренней корпоративной системы с сайтом;\n* работа с «личным кабинетом» пользователей;\n* работа с продуктами компании.\n\n💎Что готовы предложить: \n* 5 мин от метро Пролетарская;\n* Работа в дружной слаженной команде;\n* Оформление по ТК РФ, белая ЗП;\n* Итоговая заработная плата зависит от ваших компетенций и определяется по результатам собеседования;\n* ДМС.","markup":[{"type":"hashtag","offset":0,"length":9,"data":"вакансия"},{"type":"hashtag","offset":11,"length":7,"data":"Москва"},{"type":"hashtag","offset":20,"length":9,"data":"fulltime"},{"type":"hashtag","offset":30,"length":5,"data":"офис"},{"type":"hashtag","offset":38,"length":7,"data":"nodejs"},{"type":"hashtag","offset":46,"length":4,"data":"sql"},{"type":"hashtag","offset":51,"length":8,"data":"backend"},{"type":"handle","offset":255,"length":17,"data":"sorokinayuliyahr"}],"date":"2020-06-24T10:46:25+00:00","link":"tg://resolve?domain=javascript_jobs_feed&post=16336","tags":[{"name":"javascript"},{"name":"nodejs"},{"name":"sql"},{"name":"mysql"},{"name":"postgresql"}],"cities":[{"code":"moscow"}],"allowsRemote":false}},{"node":{"__typename":"Job","id":"17128488960-1001110946746","title":"Js разработчик","text":"#вакансия #frontend  #React #офис #remote #Спб #senior \n\nКомпания: DBeaver\nЗ/п: 180 000 - 300 000 рублей на руки \nГород и адрес офиса: г. Санкт-Петербург (м. Площадь Ленина/Новочеркасская)\nФормат работы: офис или удаленка \nЗанятость: полная, fulltime\n\n🌏DВeaver  - это международный open source проект, бесплатный многоплатформенный инструмент для работы с базами данных. Поддерживает все популярные базы данных: MySQL, PostgreSQL, MariaDB, SQLite, Oracle, DB2, SQL Server, Sybase, MS Access, Teradata, Firebird, Derby и т. д. Платформа интегрируется с Amazon сервисами и нацелена на облачные решения. \n\nCейчас ребята разрабатывают web решение DВeaver, первый релиз состоялся в начале года и компания активно продолжает развитие. \n\n💠Какой опыт и знания ожидают увидеть ребята:\n- опыт работы с TypeScript и React;\n- опыт участия в многокомпонентных проектах со сложной бизнес-логикой;\n- опыт проектирования и рефакторинга;\n- готовность возглавить разработку интерфейсной части продукта, принимать ключевые архитектурные решения;\n- английский язык от уровня intermediate (письменный и на уровне чтения).\n\nСтек технологий: TypeScript, React, GraphQL, MobX, RxJS, Docker. \n\n💎Что получите вы:\n- комфортный офис в БЦ Бенуа;\n- возможность частично или полностью удаленной работы; \n- официальное оформление;\n- возможность поработать над крутым международным продуктом в сплоченной команде энтузиастов;\n- профессиональные командировки и конференции в США и Европу.\n\nКонтакты:\ne-mail: valeriya@luckyhunter.io\ntelegram: @sobolevavalery\nКА: http://luckyhunter.io\nБуду рада ответить на все вопросы и рассказать подробнее о компании 😊","markup":[{"type":"hashtag","offset":0,"length":9,"data":"вакансия"},{"type":"hashtag","offset":10,"length":9,"data":"frontend"},{"type":"hashtag","offset":21,"length":6,"data":"React"},{"type":"hashtag","offset":28,"length":5,"data":"офис"},{"type":"hashtag","offset":34,"length":7,"data":"remote"},{"type":"hashtag","offset":42,"length":4,"data":"Спб"},{"type":"hashtag","offset":47,"length":7,"data":"senior"},{"type":"link","offset":1477,"length":23,"data":"mailto:valeriya@luckyhunter.io"},{"type":"handle","offset":1511,"length":15,"data":"sobolevavalery"},{"type":"link","offset":1531,"length":21,"data":"http://luckyhunter.io"}],"date":"2020-06-24T10:45:59+00:00","link":"tg://resolve?domain=javascript_jobs_feed&post=16335","tags":[{"name":"javascript"},{"name":"reactjs"},{"name":"mysql"},{"name":"postgresql"},{"name":"mariadb"},{"name":"sqlite"},{"name":"oracle"},{"name":"sql"},{"name":"ms-access"},{"name":"web"},{"name":"typescript"},{"name":"graphql"},{"name":"rxjs"},{"name":"docker"},{"name":"sql-server"}],"cities":[],"allowsRemote":true}},{"node":{"__typename":"Job","id":"17127440384-1001110946746","title":"Js developer","text":"#вакансия #js #extjs #frontend\nГород: Москва (М. Киевская)\nФормат работы: удаленная работа\nЗанятость: полная\nЗ.п.: 90 - 150 т.р. net\n\nFrontend developer Doczilla\nСкиллы: JavaScript, HTML5, CSS3 (будет плюсом: C/С++/Java).\n\nПроект Doczilla Pro - платформа для подготовки документов и совместной работы с ними.\n- Клиентская часть разрабатывается на \"чистом\" JavaScript без использования сторонних фреймворков. \n- Подход к разработке клиентской части похож на фреймворк Sencha ExtJS с его объектно-ориентированным стилем описания JavaScript-классов, однако избавлен от всего лишнего.\n- Серверная часть Doczilla Pro разрабатывается на Java, использование сторонних библиотек минимально.\n- Для решения задач интеграции с внешними сервисами применяется язык программирования BL из состава фреймворка Z8 (https://github.com/zenframework/z8).\n- Для понимания специфики проекта мы предлагаем выполнить тестовое задание.\n\nИнтереснейший и очень перспективный проект от команды профессиональных юристов. Присоединяйся!\n\nНазвание компании: Лекс Борелис\nLexborealis.com\nDoczilla.ru\n\nСтрельченко Дмитрий \n+7-960-869-03-03\nstrelchenko@doczilla.ru \ntelegram @d_strelchenko","markup":[{"type":"hashtag","offset":0,"length":9,"data":"вакансия"},{"type":"hashtag","offset":10,"length":3,"data":"js"},{"type":"hashtag","offset":14,"length":6,"data":"extjs"},{"type":"hashtag","offset":21,"length":9,"data":"frontend"},{"type":"link","offset":798,"length":34,"data":"https://github.com/zenframework/z8"},{"type":"link","offset":1040,"length":15,"data":"http://Lexborealis.com"},{"type":"link","offset":1056,"length":11,"data":"http://Doczilla.ru"},{"type":"link","offset":1090,"length":16,"data":"tel:+7-960-869-03-03"},{"type":"link","offset":1107,"length":23,"data":"mailto:strelchenko@doczilla.ru"},{"type":"handle","offset":1141,"length":14,"data":"d_strelchenko"}],"date":"2020-06-24T09:54:00+00:00","link":"tg://resolve?domain=javascript_jobs_feed&post=16334","tags":[{"name":"javascript"},{"name":"extjs"},{"name":"dotnet"},{"name":"html"},{"name":"css"},{"name":"java"},{"name":"github"}],"cities":[{"code":"moscow"},{"code":"kiev"}],"allowsRemote":true}},{"node":{"__typename":"Job","id":"17123246080-1001110946746","title":"Js разработчик","text":"#вакансия #работа #удаленка #backend #node #nodejs #remote\nГород и адрес офиса: Москва, Савеловская\nФормат работы: удаленка\nЗанятость: полная || проектная\nЗарплатная вилка: 100-160 т.р.\n\nОписание вакансии: \nИщем опытного backend-разработчика node.js для разработки высоконадежных транзакционных сервисов интеграции с различными системами\n\nТребования:\n• Опыт работы с унаследованными системами\n• Знание PHP на уровне понимания и чтения кода будет плюсом\n• Знание и понимание работы сетевых протоколов TCP/IP, HTTP, SMTP, IMAP\n• Знание и понимание языка JavaScript и связанных с ним технологий и фреймворков\n• Опыт разработки серверных приложений\n• Понимание основных процессов разработки, умение работать в команде\n• Понимание принципов ООП, подходов в программировании и требований к транзакционным системам\n\nЗадачи:\n• Разработка высоконадежных транзакционных сервисов интеграции с различными системами\n• Поддержка и модернизация существующих систем\n\nНазвание компании: TechPlatforms (https://techpl.net)\nКонтакты:@desych79","markup":[{"type":"hashtag","offset":0,"length":9,"data":"вакансия"},{"type":"hashtag","offset":10,"length":7,"data":"работа"},{"type":"hashtag","offset":18,"length":9,"data":"удаленка"},{"type":"hashtag","offset":28,"length":8,"data":"backend"},{"type":"hashtag","offset":37,"length":5,"data":"node"},{"type":"hashtag","offset":43,"length":7,"data":"nodejs"},{"type":"hashtag","offset":51,"length":7,"data":"remote"},{"type":"link","offset":985,"length":18,"data":"https://techpl.net"},{"type":"handle","offset":1014,"length":9,"data":"desych79"}],"date":"2020-06-24T09:11:21+00:00","link":"tg://resolve?domain=javascript_jobs_feed&post=16330","tags":[{"name":"javascript"},{"name":"nodejs"},{"name":"php"},{"name":"smtp"},{"name":"dotnet"}],"cities":[{"code":"moscow"}],"allowsRemote":true}},{"node":{"__typename":"Job","id":"17120100352-1001110946746","title":"Js разработчик","text":"#вакансия #удаленка #работа #js #javascript #разработчик\n\nГород и адрес офиса: Тель-Авив \nФормат работы: удаленка\nЗанятость: полная, гибкий график.\n\nЗарплатная вилка: 5500-6000$/мес. (Почасовая оплата 35$/час + ежемесячный бонус 250$)\n\nНалоги платите по месту жительства. ИП 6%. Если патент, то он зависит от места жительства. В Подмосковье 12 000 руб в год. В Москве 300 тыс. в год. Как сами оформите налоги, так и платите. \n\nИщу разработчика к нам в команду: израильский проект Luminati (https://luminati.io).  Full-Stack. Компания разрабатывает несколько продуктов, в том числе p2p vpn, видео cdn нового поколения http://holaspark.com/\nОфис в Тель-Авиве, работа удаленная! График свободный. Что нам нужно:\n\n • Knowledge in Node JS framework: ExpressJS, Promise - Experience with MongoDB \n- Creating RESTful web services/API’s using Node.js with or without framework assistance \n\n- JavaScript-based unit testing tools \n\n- Client-side browser technologies including JavaScript, CSS, and HTML \n\n- 1 year development experience in Node JS with a solid working knowledge of frameworks and architecture \n\n- 2+ year’s overall development experience using JavaScript and open web technologies \n\n- хороший английский язык, идеальная грамматика не обязательна \n\n • работа удаленная, 7-9 часов в день (по желанию)\n • зарплата от 35$/час (+фиксированный бонус 250$ ежемесячно), через полгода повышается\n • после того, как откроют границы и будут возможны перелёты - выезд в офис на заключение контракта (перед этим возможно заключение с электронной подписью), отель и перелет за счет компании, море под окном\n\nОтвечу на все вопросы:)\n\nИнстаграмм https://instagram.com/hola_better_internet\n\nРезюме сюда:  luda.hola@gmail.com","markup":[{"type":"hashtag","offset":0,"length":9,"data":"вакансия"},{"type":"hashtag","offset":10,"length":9,"data":"удаленка"},{"type":"hashtag","offset":20,"length":7,"data":"работа"},{"type":"hashtag","offset":28,"length":3,"data":"js"},{"type":"hashtag","offset":32,"length":11,"data":"javascript"},{"type":"hashtag","offset":44,"length":12,"data":"разработчик"},{"type":"link","offset":490,"length":19,"data":"https://luminati.io"},{"type":"link","offset":617,"length":21,"data":"http://holaspark.com/"},{"type":"link","offset":1637,"length":42,"data":"https://instagram.com/hola_better_internet"},{"type":"link","offset":1695,"length":19,"data":"mailto:luda.hola@gmail.com"}],"date":"2020-06-24T08:01:10+00:00","link":"tg://resolve?domain=javascript_jobs_feed&post=16327","tags":[{"name":"javascript"},{"name":"nodejs"},{"name":"mongodb"},{"name":"web"},{"name":"css"},{"name":"html"},{"name":"unit-testing"}],"cities":[],"allowsRemote":true}},{"node":{"__typename":"Job","id":"91669659648-1001067529236","title":"Python developer","text":"#вакансия #senior #upperintermediate #fullstack #remote\nкомпания s-o-services\nз\\п 2800-3800$, оформление по ип (компании в рф нет)\nзаказчик американское издательство\nконтакты @erzentd\n\nТребования:\n\n4+ years of demonstrated experience successfully launching complex projects on time\n2+ years of experience as a full-time developer for a web app, custom software product or organization web site\n3+ years of experience with most or all of the following: Python & Django, relational DBs, jQuery & JavaScript, HTML, CSS/LESS, Git\nExperience with the following technologies preferred but not required: MongoDB, PostgreSQL, Elasticsearch,\nWordPress, CDNs, uWSGI, Redis, Celery, Jenkins, Sentry, New Relic, Nginx, CentOS, RabbitMQ, React, \nSalesforce, Marketo, high availability systems, or graph databases\nOrganized, detail and deadline oriented, highly focused\nAbility to prioritize & manage multiple projects at one time; cool under pressure\nAnalytical thinker with strong/creative problem solving skills\nExperience with Agile development methodologies\nStrong written and verbal communication skills\nAn interest in government, elections, and associated datasets","markup":[{"type":"hashtag","offset":0,"length":9,"data":"вакансия"},{"type":"hashtag","offset":10,"length":7,"data":"senior"},{"type":"hashtag","offset":18,"length":18,"data":"upperintermediate"},{"type":"hashtag","offset":37,"length":10,"data":"fullstack"},{"type":"hashtag","offset":48,"length":7,"data":"remote"},{"type":"handle","offset":175,"length":8,"data":"erzentd"}],"date":"2020-06-23T07:27:31+00:00","link":"tg://resolve?domain=python_jobs&post=87423","tags":[{"name":"python"},{"name":"web"},{"name":"django"},{"name":"jquery"},{"name":"javascript"},{"name":"html"},{"name":"css"},{"name":"git"},{"name":"mongodb"},{"name":"postgresql"},{"name":"elasticsearch"},{"name":"wordpress"},{"name":"redis"},{"name":"jenkins"},{"name":"nginx"},{"name":"centos"},{"name":"rabbitmq"},{"name":"reactjs"}],"cities":[],"allowsRemote":true}},{"node":{"__typename":"Job","id":"103440973824-1001089317451","title":"Qa инженер","text":"#вакансия #qa #middle #fulltime #удаленно\nПривет!\nКомпания: ПИК Digital (https://www.pik.ru/).\nMiddle QA - от 50к и выше (по результатам собеседования) \n\nЗадачи:\n• Участие в интересных проектах по тестированию web и мобильных приложений;\n• Проведение функционального, регрессионного, юзабилити тестирования;\n• Разработка ручных тестовых сценариев и написание тестовой документации;\n• Оценка задач на тестирование;\n• Заведение дефектов и контроль их исправления;\n• Согласование тестовых требований и планов тестирования;\n• Составление отчетов и документации по результатам тестирования;\n• Поддержка автотестов.\n\nТребования:\n• Опыт работы на аналогичной должности от 1 года;\n• Опыт тестирования API;\n• Уверенные знания SQL;\n• Опыт работы с developer tools в браузере;\n• Понимание процессов тестирования и разработки;\n• Понимание принципов работы front и backend приложений;\n• Умение ясно и грамотно формулировать свои мысли;\n• Умение пользоваться устройствами на базе Android и iOS;\n\nБудет плюсом:\n• Опыт разработки автоматизированных тестовых сценариев (Java, Pyton, JavaScript);\n• Умение работать с unix-системами, знание bash-скриптов.\n• Понимание принципов непрерывной интеграции и доставки (CI, CD).\n\nНаши преимущества:\n• Большое внутреннее community разработчиков, аналитиков;\n• Современный стек технологий и техническое оснащение;\n• Минимум бюрократии;\n• Возможности для роста и развития;\n• Обучение и посещение конференций за счет компании.\n\nУсловия:\n• Оформление в соответствии с ТК РФ;\n• После испытательного срока медицинское обслуживание;\n• Официальная заработная плата обсуждается при собеседовании;\n• Премии по итогам года;\n• Гибкое начало рабочего дня;\n• Возможность удаленной работы.\nКонтакты: @alexey_petrunin","markup":[{"type":"hashtag","offset":0,"length":9,"data":"вакансия"},{"type":"hashtag","offset":10,"length":3,"data":"qa"},{"type":"hashtag","offset":14,"length":7,"data":"middle"},{"type":"hashtag","offset":22,"length":9,"data":"fulltime"},{"type":"hashtag","offset":32,"length":9,"data":"удаленно"},{"type":"link","offset":73,"length":19,"data":"https://www.pik.ru/"},{"type":"handle","offset":1708,"length":16,"data":"alexey_petrunin"}],"date":"2020-06-22T12:44:10+00:00","link":"tg://resolve?domain=qa_jobs&post=98649","tags":[{"name":"qa"},{"name":"web"},{"name":"sql"},{"name":"android"},{"name":"ios"},{"name":"java"},{"name":"javascript"},{"name":"unix"},{"name":"bash"}],"cities":[],"allowsRemote":true}}]}}},"context":{}}