{"hash":"f5f6bf98bd95e769321482904cbbd488f77922fd","data":{"records":{"id":"russia/kazan","country":{"code":"russia","ruName":"Россия","enName":"Russia"},"city":{"code":"kazan","ruName":"Казань","enName":"Kazan"},"belongsTo":{"totalCount":42,"pageInfo":{"totalPages":5,"currentPage":5},"edges":[{"node":{"__typename":"Job","id":"102808682496-1001089317451","title":"Qa инженер","text":"🐞🐞🐞#вакансия #QA #Ульяновск #Саранск #Казань #Самара #Уфа #Краснодар #офис #удаленная_работа\n\n🔍Middle QA-специалист🔎\n\n⚡️Компания: Simbirsoft (более 19 лет на рынке, более 700 сотрудников в штате)\n\nОчень ждем тебя, наш будущий коллега и борец за качественное ПО! :)\n\n📌Твои будущие задачи:\n• тестирование ПО (frontend, backend, API);\n• локализация и документирование найденных дефектов;\n• ведение и оптимизация тестовой документации;\n• контроль качества на всех этапах разработки ПО;\n• выстраивание и оптимизация процессов тестирования ПО.\n\n📌Что мы ждем от тебя:\n• наличие опыта от 2 лет в направлениях QA или тестирования ПО;\n• понимание разницы между QA и тестированием ПО;\n• понимание особенностей гибких методологий;\n• уверенное владение техниками тест-дизайна;\n• знание клиент-серверной архитектуры;\n• понимание особенностей тестирования web, mobile и desktop приложений;\n• навык тестирования API;\n• написание запросов SQL;\n• опыт работы с системами контроля версий (git);\n• знание основных команд работы с консолью (Windows/Linux).\n\n📌Что мы предлагаем:\n• Полностью белая ЗП два раза в месяц;\n• Оформление по ТК РФ;\n• Высокий уровень экспертности внутри компании, которым мы делимся друг с другом;\n• Перспективы вертикального и горизонтального роста;\n• Работа на российских и международных проектах;\n• Оборудованное рабочее место и парк тестовых устройств;\n• Подготовка и прохождение сертификации ISTQB бесплатно;\n• Внутренние и внешние курсы, доклады, конференции;\n• Бесплатные чай, кофе, печеньки в офисе;\n• Корпоративная спортивная программа (оплата тематических секций, частичная компенсация абонемента);\n• Проведение летних и зимних корпоративов, дня именинника, совместные походы и т.д.\n\n📌Зарплата:\n• от 50 000 (Договорная, по итогу собеседования)\n\n☎️Контакты:\nKaterina","markup":[{"type":"hashtag","offset":6,"length":9,"data":"вакансия"},{"type":"hashtag","offset":16,"length":3,"data":"QA"},{"type":"hashtag","offset":20,"length":10,"data":"Ульяновск"},{"type":"hashtag","offset":31,"length":8,"data":"Саранск"},{"type":"hashtag","offset":40,"length":7,"data":"Казань"},{"type":"hashtag","offset":48,"length":7,"data":"Самара"},{"type":"hashtag","offset":56,"length":4,"data":"Уфа"},{"type":"hashtag","offset":61,"length":10,"data":"Краснодар"},{"type":"hashtag","offset":72,"length":5,"data":"офис"},{"type":"hashtag","offset":78,"length":17,"data":"удаленная_работа"}],"date":"2020-06-15T05:55:18+00:00","link":"tg://resolve?domain=qa_jobs&post=0","tags":[{"name":"qa"},{"name":"web"},{"name":"mobile"},{"name":"sql"},{"name":"git"},{"name":"windows"},{"name":"linux"}],"cities":[{"code":"ulyanovsk"},{"code":"saransk"},{"code":"kazan"},{"code":"samara"},{"code":"ufa"},{"code":"krasnodar"}],"allowsRemote":true}},{"node":{"__typename":"Job","id":"16849567744-1001110946746","title":"Js разработчик","text":"#вакансия #frontend_developer #js #react #stream #lead\nLead frontend developer (React JS)\nЛокация: г. Казань, Спартаковская, 6 \nФормат работы: удаленка (на карантине), офис с большими окнами (в обычной жизни)\nЗанятость: полная \nЗарплатная вилка: от 150 000 до 200 000 рублей net\n\nОписание вакансии:\nStream  - 100% дочерняя компания МТС. Ищем ведущего React JS разработчика в группу frontend-разработки из 4 человек для участия в проекте Виртуальная АТС.\nО проекте:\nВАТС - платформа для сборки бизнес-инструментов и «умная» телефонная связь через интернет, которая доступна в любом месте и для разных типов устройств. \nЧто предстоит?\n- проектирование архитектуры и участие в разработке frontend продукта;\n- проведение code review;\n- участие в оптимизации процессов разработки в компании.\nМы ожидаем от Вас:\n- опыт работы с React от 2-3 лет\n- опыт разработки SPA\n- знание TypeScript, NextJS, SCSS, Styled Components, HTML5, CSS\n- умение писать Unit-тесты (будет плюсом)\nЧто предлагаем?\n- \"белую\" заработную плату + полугодовые бонусы;\n- гибкий график работы;\n- ДМС со стоматологией, страхование жизни после испытательного срока;\n- корпоративную мобильную связь;\n- льготное кредитование для участников зарплатного проекта МТС Банк.\nНазвание компании: Stream https://stream.ru/\n\n📲 Контакты для резюме и вопросов: @askamasaska, AMorozova@stream.ru","markup":[{"type":"hashtag","offset":0,"length":9,"data":"вакансия"},{"type":"hashtag","offset":10,"length":19,"data":"frontend_developer"},{"type":"hashtag","offset":30,"length":3,"data":"js"},{"type":"hashtag","offset":34,"length":6,"data":"react"},{"type":"hashtag","offset":41,"length":7,"data":"stream"},{"type":"hashtag","offset":49,"length":5,"data":"lead"},{"type":"link","offset":1255,"length":18,"data":"https://stream.ru/"},{"type":"handle","offset":1310,"length":12,"data":"askamasaska"},{"type":"link","offset":1324,"length":19,"data":"mailto:AMorozova@stream.ru"}],"date":"2020-06-11T20:02:29+00:00","link":"tg://resolve?domain=javascript_jobs_feed&post=0","tags":[{"name":"javascript"},{"name":"reactjs"},{"name":"dotnet"},{"name":"typescript"},{"name":"html"},{"name":"css"}],"cities":[{"code":"kazan"}],"allowsRemote":true}}]}}},"context":{}}