{"hash":"f5f6bf98bd95e769321482904cbbd488f77922fd","data":{"records":{"totalCount":669,"pageInfo":{"totalPages":67,"currentPage":50},"edges":[{"node":{"id":"103138983936-1001089317451","title":"Qa engineer","text":"#вакансия #москва #полнаязанятость #qaengineer #auto #manual\nКомпания: #Mетрквадратный www.m2.ru\nЛокация: м.Белорусская \nФормат работы: офис (удаленная до сентября)  \nЗ/п: от 120к - 180к на руки\nКонтакты: @maxdmitrov\n\nЭто экосистема недвижимости, которая помогает клиентам решать любые жилищные вопросы: от поиска вариантов и оформления сделки до организации ремонта и переезда в новую квартиру. Мы также создаем решения для партнёров и профессиональных участников рынка недвижимости.\n\nНаш стэк:\n• Java\n • Node.js\n • React, TypeScript\n • Kafka, ElasticSearch, gRPC\n • Docker\n\nЧем предстоит заниматься:\n • анализировать и тестировать требования к разрабатываемым приложениям;\n • писать приемочные критерии к пользовательским историям;\n • проводить функциональное, регрессионное и smoke тестирование;\n • заниматься задачами по автоматизации тестирования.\n\nЧего мы ждем:\n • глубокое понимание процессов тестирования и разработки ПО;\n • опыт интеграционного тестирования:\n    - системная интеграция;\n    - компонентная интеграция\n • опыт тестирования АРI;\n • опыт автоматизации тестирования на любом стеке.\n\nБудет плюсом\n • опыт исследовательского тестирования;\n • опыт тестирования ПО с микросервисной архитектурой.\n\nМы предлагаем:\n • белая конкурентная ЗП, официальное оформление;\n • гибкий график работы;\n • ДМС, компенсация фитнеса, льготная ставка по ипотеке;\n • комфортный офис в БЦ «Белая площадь» (минута от метро): лаундж-зоны, бариста, фрукты.","markup":[{"type":"hashtag","offset":0,"length":9,"data":"вакансия"},{"type":"hashtag","offset":10,"length":7,"data":"москва"},{"type":"hashtag","offset":18,"length":16,"data":"полнаязанятость"},{"type":"hashtag","offset":35,"length":11,"data":"qaengineer"},{"type":"hashtag","offset":47,"length":5,"data":"auto"},{"type":"hashtag","offset":53,"length":7,"data":"manual"},{"type":"hashtag","offset":71,"length":15,"data":"Mетрквадратный"},{"type":"link","offset":87,"length":9,"data":"http://www.m2.ru"},{"type":"handle","offset":205,"length":11,"data":"maxdmitrov"},{"type":"bold","offset":485,"length":11,"data":""},{"type":"bold","offset":576,"length":26,"data":""},{"type":"bold","offset":853,"length":15,"data":""},{"type":"bold","offset":1103,"length":14,"data":""},{"type":"bold","offset":1212,"length":16,"data":""}],"date":"2020-06-18T07:20:58+00:00","link":"tg://resolve?domain=qa_jobs&post=0","tags":[{"name":"qa"},{"name":"java"},{"name":"nodejs"},{"name":"reactjs"},{"name":"typescript"},{"name":"kafka"},{"name":"elasticsearch"},{"name":"docker"}],"cities":[{"code":"moscow"}],"allowsRemote":true}},{"node":{"id":"91154808832-1001067529236","title":"Python разработчик","text":"#вакансия #python #django #middle #senior #фултайм #Кипр #remote                                                                                                                                                                         Компания: Exness\nФормат работы: удаленная или релокация на Кипр (по желанию кандидата)\nЗанятость: полная\nЗарплатная вилка: от 3000 EUR (обсуждаем с кандидатами по итогам интервью)                                                                               \n🌟Кто мы?\nМы финтех компания, разрабатывающая B2B и B2C решения, с более чем 100 тысячами активных клиентов. Мы развиваемся и быстро движемся, ориентируясь на данные, мы всегда узнаем что-то новое о наших клиентах и находим новые способы сделать наш продукт более полезным и удобным для них. У нас есть 3 офиса: на Кипре, в Малайзии и Великобритании, более 600 сотрудников и 50 национальностей среди сотрудников.\n\n🤩Кого мы ищем?\nК нам в команду Identity & Access Management (IAM) нужен инженер, любящий backend, имеющий опыт разработки на Python и стремящийся к простым решениям сложных задач. Будет классно, наличие опыта построения микросервисной архитектуры, знание SQL, любовь к написанию unit тестов. \n\n🤗Чем предстоит заниматься?\nРазрабатывать новые и поддерживать старые сервисы, связанные с аутентификацией, авторизацией, верификацией и процедурами KYC. Участвовать в код ревью и командных активностях. Покрывать свой код unit тестами. \n\n🛠Наш стек технологий:\n -Python 3.x\n -Django, FastAPI, aiohttp\n -PostgreSQL, Redis\n -Kafka\n -Docker, Kubernetes, Rancher\n\n🔥Мы предлагаем:\nПри удаленном сотрудничестве:\n-Медицинское страхование для сотрудника и членов их семей;\n-Компенсация спорта;\n-Путешествие на Кипр, чтобы познакомиться со своей командой (раз в год).\nПри желании релокации на Кипр:\n-Релокационный пакет для нового сотрудника и его семьи (билеты, визы, разрешение на работу, корпоративная квартира на первый месяц и т. д.);\n-Корпоративный автомобиль Мини Купер S и парковка возле офиса или автобусные билеты;\n-Медицинское страхование для сотрудника и членов их семей;\n-Корпоративный фитнес-центр для сотрудников и их супругов;\n-Программа компенсации детского сада / школы;\n-Непрерывное профессиональное развитие, много интересных задач;\n-Отличный офис со свежевыжатыми соками, печеньем и лучшим видом на море из нашего собственного бара на крыше. \n\nНемного больше об Exness - https://clck.ru/N7aRd.\n\nЕсли тебе интересно, пишите в Telegram @sofia_tomashevich или на почту sofia.tomashevich@exness.com","markup":[{"type":"hashtag","offset":0,"length":9,"data":"вакансия"},{"type":"hashtag","offset":10,"length":7,"data":"python"},{"type":"hashtag","offset":18,"length":7,"data":"django"},{"type":"hashtag","offset":26,"length":7,"data":"middle"},{"type":"hashtag","offset":34,"length":7,"data":"senior"},{"type":"hashtag","offset":42,"length":8,"data":"фултайм"},{"type":"hashtag","offset":51,"length":5,"data":"Кипр"},{"type":"hashtag","offset":57,"length":7,"data":"remote"},{"type":"link","offset":2385,"length":21,"data":"https://clck.ru/N7aRd"},{"type":"handle","offset":2448,"length":18,"data":"sofia_tomashevich"},{"type":"link","offset":2480,"length":28,"data":"mailto:sofia.tomashevich@exness.com"}],"date":"2020-06-18T06:16:03+00:00","link":"tg://resolve?domain=python_jobs&post=0","tags":[{"name":"python"},{"name":"django"},{"name":"ms-access"},{"name":"sql"},{"name":"postgresql"},{"name":"redis"},{"name":"kafka"},{"name":"docker"},{"name":"kubernetes"}],"cities":[{"code":"sofia"}],"allowsRemote":true}},{"node":{"id":"103124303872-1001089317451","title":"Qa инженер","text":"QA\n\n#QA #тестировщик #россия #APi\n#ручноетестирование #middle #senior #тестирование #вакансия\nВ нашей молодой концептуальной IT-компании ООО \"Сколопендра\" (www.skolopendra.com) на данный момент открыта позиция QA тестировщика.\nВид деятельности  нашей Компании: ИТ-разработка полного цикла. \nСпециализация: высоконагруженные промышленные системы, процессинги данных, СППР, AI, запуск стартап-идей под ключ, электротехника.\nНаправление деятельности: технологический партнер для внешних заказчиков/собственные Hard&Soft Продукты.\n\nТребуемые знания, навыки, опыт\n• Знание основных технологий и методов тестирования\n• Понимание процесса разработки и тестирования ПО\n• Хорошие знания в области тест-дизайна\n• Опыт работы с баг-трекинговыми системами (jira)\n• Понимание основных принципов REST API\n• Опыт работы в тестировании от 1,5 лет\n• Высшее образование (предпочтительно техническое)\n\nБудет плюсом:\n• Базовые знания Java будут плюсом\n• Опыт автоматизации тестирования будет плюсом\n• Базовые знания технологии блокчейн и принципов работы бирж будут плюсом\nТакже мы ждем от кандидатов:\n• Умение работать в команде\n• Ответственность, самостоятельность, инициативность\n• Умение работать в условиях большого количества задач, оперативная реакция на задачи\n• Внимание к деталям, способность анализировать информацию\n• Стремление к саморазвитию, обучению, повышению технических компетенций\nФункциональные обязанности:\n• Проведение ручного функционального и регрессионного тестирования\n• Локализация, документирование, проверка дефектов\n• Разработка и актуализация тестовых планов, тестовых сценариев\n• Оценка трудоемкости задач\n• Работа с требованиями и документацией\nЗанятость : фултайм 5/2 на удалёнке \n#iOS\n#Android\n#mobiledevelopment \n#crossplatform #flutter #kotlinnative\n#мобильнаяразработка #вакансия\n\nКомпания ООО “СКОЛОПЕНДРА” (www.skolopendra.com) приглашает целеустремленных и одаренных в наш дружный коллектив. \nДавай вместе делать интересные проекты в современных стеках технологий. А мы предоставим возможности для скорейшего профессионального и личностного роста.\n\nВид деятельности Компании: ИТ-разработка полного цикла. \nСпециализация: высоконагруженные промышленные системы, процессинги данных, СППР, AI, запуск стартап-идей под ключ, электротехника.\nНаправление деятельности: технологический партнер для внешних заказчиков/собственные Hard&Soft Продукты.\n\nОфис: Москва, м.Павелецкая, Космодамианская наб., 52/10\nФормат работы: в офисе/удаленно\nЗанятость: full-time (целевой формат) /part-time (возможный старт)\nЗП: по итогам собеседования от 600-800 рублей в час на руки , 3-х месячный цикл пересмотра grade\nОформление: по ТК\n\nДолжность: Mid/Mid+/Sen\nКонтакты: team@skolopendra.com\nТелеграмм : @Tufelka1","markup":[{"type":"hashtag","offset":4,"length":3,"data":"QA"},{"type":"hashtag","offset":8,"length":12,"data":"тестировщик"},{"type":"hashtag","offset":21,"length":7,"data":"россия"},{"type":"hashtag","offset":29,"length":4,"data":"APi"},{"type":"hashtag","offset":34,"length":19,"data":"ручноетестирование"},{"type":"hashtag","offset":54,"length":7,"data":"middle"},{"type":"hashtag","offset":62,"length":7,"data":"senior"},{"type":"hashtag","offset":70,"length":13,"data":"тестирование"},{"type":"hashtag","offset":84,"length":9,"data":"вакансия"},{"type":"link","offset":156,"length":19,"data":"http://www.skolopendra.com"},{"type":"hashtag","offset":1696,"length":4,"data":"iOS"},{"type":"hashtag","offset":1701,"length":8,"data":"Android"},{"type":"hashtag","offset":1710,"length":18,"data":"mobiledevelopment"},{"type":"hashtag","offset":1730,"length":14,"data":"crossplatform"},{"type":"hashtag","offset":1745,"length":8,"data":"flutter"},{"type":"hashtag","offset":1754,"length":13,"data":"kotlinnative"},{"type":"hashtag","offset":1768,"length":20,"data":"мобильнаяразработка"},{"type":"hashtag","offset":1789,"length":9,"data":"вакансия"},{"type":"link","offset":1828,"length":19,"data":"http://www.skolopendra.com"},{"type":"link","offset":2670,"length":20,"data":"mailto:team@skolopendra.com"},{"type":"handle","offset":2703,"length":9,"data":"Tufelka1"}],"date":"2020-06-17T22:40:04+00:00","link":"tg://resolve?domain=qa_jobs&post=0","tags":[{"name":"qa"},{"name":"rest"},{"name":"java"},{"name":"ios"},{"name":"android"},{"name":"flutter"}],"cities":[{"code":"moscow"}],"allowsRemote":true}},{"node":{"id":"1703936000-1001091028994","title":"Java разработчик","text":"#java #sprig #SQL #архитектор #architect\nЛокация: #Москва #Санкт-Петербург, #Нижний Новгород #удаленка \nКомпания: КРОК www.croc.ru\nЗ/п: до 250000 р.\n\nКонтакты для связи, и все вопросы сюда: @albinaset\n\nИщем Java архитектора на проект для Топ-5 банка.\n\nТребования:\nПрактические знания в интеграционных проектах;\nПонимание принципов работы ассиметричной/симметричной криптографии;\nОпыт работы и проектирования реляционных, документно-ориентированных СУБД;\nПонимание Web Services, SOA, MSA, Lambda и потоковой обработки данных;\nЗнание работы менеджеров/брокеров сообщений;\n\nЗадачи:\nАнализ потребности заказчика со стороны бизнеса;\nПроектирование ИТ-решений;\nРешать архитектурные вопросы в ходе реализации ИТ-проектов;\nСогласовывать и защищать принимаемые решения;\nРазрабатывает и поддерживает в актуальном состоянии описание текущей ИТ-архитектуры, участвовать в проектировании целевой ИТ-архитектуры;\nРазрабатывать и согласовывать проектную документацию;","markup":[{"type":"hashtag","offset":0,"length":5,"data":"java"},{"type":"hashtag","offset":6,"length":6,"data":"sprig"},{"type":"hashtag","offset":13,"length":4,"data":"SQL"},{"type":"hashtag","offset":18,"length":11,"data":"архитектор"},{"type":"hashtag","offset":30,"length":10,"data":"architect"},{"type":"hashtag","offset":50,"length":7,"data":"Москва"},{"type":"hashtag","offset":58,"length":6,"data":"Санкт"},{"type":"hashtag","offset":76,"length":7,"data":"Нижний"},{"type":"hashtag","offset":93,"length":9,"data":"удаленка"},{"type":"link","offset":119,"length":11,"data":"http://www.croc.ru"},{"type":"handle","offset":190,"length":10,"data":"albinaset"}],"date":"2020-06-17T22:29:38+00:00","link":"tg://resolve?domain=jvmjobs&post=1625","tags":[{"name":"java"},{"name":"jvm"},{"name":"sql"},{"name":"web"},{"name":"aws-lambda"}],"cities":[{"code":"moscow"},{"code":"nizhny-novgorod"}],"allowsRemote":true}},{"node":{"id":"17029922816-1001110946746","title":"Js разработчик","text":"#вакансия #frontend #javascript #react  #senior #remote #удаленка\nКомпания: Maxiru\nЛокация: anywhere/fully remote\nФормат работы: удаленка\nЗанятость: Полная\nГрафик: гибкий (с захватом дня по NY time)\nЗ/п вилка: $2,400-$2,900\nКонтакт: @elenamat\n\nТребуется помощь со стороны React.js в нашем новом проекте - приложения для отдыхающих на круизном судне. \nКлиент: Virgin Voyages.\n\nЗагрузка Фул Тайм. Работа частично по дневному графику EST.\n\nНесколько фактов о вас:\n- вы прекрасно знаете JavaScript (5 лет опыта) и уже активно используете в своих проектах возможности ES6;\n- у вас есть хороший опыт работы с React или Vue. Вы уже знаете, когда следует использовать Redux, и знаете, когда его использованием лучше пренебречь;\n- будет плюсом, если имеете опыт работы с React native\n- у вас неплохой разговорный и письменный английский;\n- вы способны самостоятельно принимать архитектурные решения и работать без внешнего контроля;\n- вы достаточно дисциплинированы для эффективной удаленной работы.\n- вы не боитесь брать на себя ответственность за свою работу и работу своих младших коллег.\n\nНесколько фактов о нас:\n- мы небольшая IT компания, расположенная на юге США, работаем уже более 6 лет;\n-  нашим фокусом является cruise industry technology, apps ranging from IOT to Algorithms and 3D simulations;\n- среди наших клиентов есть как огромные корпорации вроде Virgin Voyages, так и небольшие стартапы;\n- сейчас наша команда состоит из 46 человек, проживающих в 39 разных городах мира;\n- наш основной технологический стек выглядит следующим образом: Python, React, Redux, ES6, Webpack, SASS, Jenkins, Docker, Kubernetes, Google Cloud, Unreal engine;\n- работы у нас имеется много, хватит на годы вперед.\n\nЕсли вас заинтересовала наша вакансия, заполните, пожалуйста, анкету: https://forms.gle/ssxr69BwJwEDQ89h6 и мы свяжемся в течении 24-48 часов.\n\n—\n\n👉 Обсуждение вакансии в чате @javascript_jobs","markup":[{"type":"hashtag","offset":0,"length":9,"data":"вакансия"},{"type":"hashtag","offset":10,"length":9,"data":"frontend"},{"type":"hashtag","offset":20,"length":11,"data":"javascript"},{"type":"hashtag","offset":32,"length":6,"data":"react"},{"type":"hashtag","offset":40,"length":7,"data":"senior"},{"type":"hashtag","offset":48,"length":7,"data":"remote"},{"type":"hashtag","offset":56,"length":9,"data":"удаленка"},{"type":"handle","offset":233,"length":9,"data":"elenamat"},{"type":"link","offset":1769,"length":35,"data":"https://forms.gle/ssxr69BwJwEDQ89h6"},{"type":"handle","offset":1876,"length":16,"data":"javascript_jobs"}],"date":"2020-06-17T21:23:01+00:00","link":"tg://resolve?domain=javascript_jobs_feed&post=0","tags":[{"name":"javascript"},{"name":"reactjs"},{"name":"vuejs"},{"name":"redux"},{"name":"python"},{"name":"webpack"},{"name":"sass"},{"name":"jenkins"},{"name":"docker"},{"name":"kubernetes"},{"name":"cloud"},{"name":"react-native"},{"name":"react-redux"},{"name":"google-cloud-platform"}],"cities":[],"allowsRemote":true}},{"node":{"id":"103121158144-1001089317451","title":"Qa инженер","text":"Всем привет! \n\nТребуется Middle QA или Senior QA\nдля ручного тестирования мобильных приложений.\n\nРабота удаленно. \nОплата – часовая ставка с занятостью ~6-8 часов в день, от 500\\час. \nЗанятость по московскому времени, в рабочие часы. \n\nТребования к соискателю:\n1. Опыт ручного тестирование мобильных приложений от 1 года;\n2. Знание особенностей версий OS;\n3. Знание инструментов разработчика под Android;\n4. Понимание различий тестирования веб \\ мобайл;\n5. Опыт тестирования api;\n6. Опыт работы с БД;\n7. Высокий уровень самоорганизации и коммуникативных навыков.\n\nВ процессе работы возможно обучение автоматизации тестирования. \n\nЖду резюме и информацию о себе – личным сообщением. Каждому из соискателей я отвечу до 19 июня. \n\n\n🎱QA\n🎱Devquality\n🎱Тестирование бэкенда, фронта, автоматизация\n🎱 Часовой рейт, удаленное сотрудничество. #россия #москва #подмосковье #удаленное #вакансия #работавит #работаврегионах\n\nБлагодарю.","markup":[{"type":"hashtag","offset":836,"length":7,"data":"россия"},{"type":"hashtag","offset":844,"length":7,"data":"москва"},{"type":"hashtag","offset":852,"length":12,"data":"подмосковье"},{"type":"hashtag","offset":865,"length":10,"data":"удаленное"},{"type":"hashtag","offset":876,"length":9,"data":"вакансия"},{"type":"hashtag","offset":886,"length":10,"data":"работавит"},{"type":"hashtag","offset":897,"length":16,"data":"работаврегионах"}],"date":"2020-06-17T20:52:03+00:00","link":"tg://resolve?domain=qa_jobs&post=0","tags":[{"name":"qa"},{"name":"android"}],"cities":[{"code":"moscow"}],"allowsRemote":true}},{"node":{"id":"26397900800-1001075660570","title":"Php developer","text":"#вакансия #PHP #Symfony #fulltime  #удаленка  #middle #senior\nВакансия:PHP Developer (Symfony )\nНазвание компании: Farset \nФормат работы: удаленная работа, проект от 6 месяцев.\nЗанятость: 168 часов в месяц.\nЗарплатная вилка от 800-1300 рубл/час, готовы также платить и по фиксу.\nО нас: Занимаемся в основном backend разработкой, сейчас ищем таланты для работы с нашими партнерами,обычно это известные бренды, которые имеют инхаус разработку, но усиливают команду людьми с аутстаффинга.\n\nТребования \n· Опыт работы от 2х лет \n· Понимание паттернов проектирования \n· Обязателен опыт работы с Symfony 3.4+, знаний основных компонентов фреймворка \n· Понимание принципов работы клиент-серверных систем \n· Уверенная работа с реляционными СУБД (предпочтительно PostgreSQL ): join, \nsubquery, агрегирующие функции, группировки, транзакции, индексы \n· Уверенный пользователь Linux \n· Английский язык на уровне чтения и понимания технической документации \n\nЖелательно: \n· Понимание принципов SOLID, KISS, DRY \n· Понимание того, как работают DI, Doctrine \n· Опыт работы с брокерами сообщений: Kafka, RabbitMQ \n· Опыт оптимизации SQL запросов \n· Понимание того, как подготавливается backend под высокие нагрузки\n\nКонтакты для связи: @Pantera131 ( пишите постараюсь ответить на все вопросы)","markup":[{"type":"hashtag","offset":0,"length":9,"data":"вакансия"},{"type":"hashtag","offset":10,"length":4,"data":"PHP"},{"type":"hashtag","offset":15,"length":8,"data":"Symfony"},{"type":"hashtag","offset":24,"length":9,"data":"fulltime"},{"type":"hashtag","offset":35,"length":9,"data":"удаленка"},{"type":"hashtag","offset":46,"length":7,"data":"middle"},{"type":"hashtag","offset":54,"length":7,"data":"senior"},{"type":"handle","offset":1220,"length":11,"data":"Pantera131"}],"date":"2020-06-17T19:24:54+00:00","link":"tg://resolve?domain=php_jobs&post=25175","tags":[{"name":"php"},{"name":"symfony"},{"name":"postgresql"},{"name":"linux"},{"name":"doctrine"},{"name":"kafka"},{"name":"rabbitmq"},{"name":"sql"}],"cities":[],"allowsRemote":true}},{"node":{"id":"17027825664-1001110946746","title":"Js разработчик","text":"#вакансия #работа #удаленка #backend #node #nodejs #remote\nГород и адрес офиса: Москва, Савеловская\nФормат работы: удаленка\nЗанятость: полная || проектная\nЗарплатная вилка: 100-160 т.р.\n\nОписание вакансии: \nИщем опытного backend-разработчика node.js для разработки высоконадежных транзакционных сервисов интеграции с различными системами\n\nТребования:\n• Опыт работы с унаследованными системами\n• Знание PHP на уровне понимания и чтения кода будет плюсом\n• Знание и понимание работы сетевых протоколов TCP/IP, HTTP, SMTP, IMAP\n• Знание и понимание языка JavaScript и связанных с ним технологий и фреймворков\n• Опыт разработки серверных приложений\n• Понимание основных процессов разработки, умение работать в команде\n• Понимание принципов ООП, подходов в программировании и требований к транзакционным системам\n\nЗадачи:\n• Разработка высоконадежных транзакционных сервисов интеграции с различными системами\n• Поддержка и модернизация существующих систем\n\nНазвание компании: TechPlatforms (https://techpl.net)\nКонтакты:@desych79\n\n—\n\n👉 Обсуждение вакансии в чате @javascript_jobs","markup":[{"type":"hashtag","offset":0,"length":9,"data":"вакансия"},{"type":"hashtag","offset":10,"length":7,"data":"работа"},{"type":"hashtag","offset":18,"length":9,"data":"удаленка"},{"type":"hashtag","offset":28,"length":8,"data":"backend"},{"type":"hashtag","offset":37,"length":5,"data":"node"},{"type":"hashtag","offset":43,"length":7,"data":"nodejs"},{"type":"hashtag","offset":51,"length":7,"data":"remote"},{"type":"link","offset":985,"length":18,"data":"https://techpl.net"},{"type":"handle","offset":1014,"length":9,"data":"desych79"},{"type":"handle","offset":1058,"length":16,"data":"javascript_jobs"}],"date":"2020-06-17T16:37:00+00:00","link":"tg://resolve?domain=javascript_jobs_feed&post=0","tags":[{"name":"javascript"},{"name":"nodejs"},{"name":"php"},{"name":"smtp"},{"name":"dotnet"}],"cities":[{"code":"moscow"}],"allowsRemote":true}},{"node":{"id":"17026777088-1001110946746","title":"Javascript разработчик","text":"#вакансия #ReactNative  #fullstack #Москва \n📍Территориальное расположение - г.Мосва.\n👨‍💻Форма работы – удаленная. \n\n—> Коротко о нас: \n\n💻AMBIREL SOFT–  фирма по разработке Программного Обеспечения. \n\nНа данный момент существует множество проектов по направлению Коммерческой разработки (B2C/B2B). На этих проектах нам требуется \nReactNative-разработчики. Если специалист является FullStack, это приветствуется! \n\nОплата работы – за каждый проект. Размер оплаты определяется сложностью самого проекта и трудозатратами.  \nМинимальная з/п в месяц – 60 000₽. \nЗанятость: Частичная \n\n—> Требования: \n\n🔘 Нам нужны специалисты с опытом разработки от 2х лет. \n🔘Гражданство РФ. \n🔘Готовность работы в команде с перспективой дальнейшего роста (административный персонал, руководство подразделением Мобильной Разработки). \n🔘Возраст до 30 лет. \n \nОформление по договору. Любые детали обсуждаемы. Есть необходимость в увеличении технического отделения фирмы, поэтому также готов обсуждать работу другим направлениям. \n\nПрошу связаться со мной лично: \nНикита \n📱Телефон: +7 9951157458\n📱Telegram: @IT_Tiger\n✉️Почта: xenchuck@gmail.com\n\n—\n\n👉 Обсуждение вакансии в чате @javascript_jobs","markup":[{"type":"hashtag","offset":0,"length":9,"data":"вакансия"},{"type":"hashtag","offset":10,"length":12,"data":"ReactNative"},{"type":"hashtag","offset":24,"length":10,"data":"fullstack"},{"type":"hashtag","offset":35,"length":7,"data":"Москва"},{"type":"link","offset":1064,"length":13,"data":"tel:+7 9951157458"},{"type":"handle","offset":1090,"length":9,"data":"IT_Tiger"},{"type":"link","offset":1109,"length":18,"data":"mailto:xenchuck@gmail.com"},{"type":"handle","offset":1162,"length":16,"data":"javascript_jobs"}],"date":"2020-06-17T16:01:59+00:00","link":"tg://resolve?domain=javascript_jobs_feed&post=0","tags":[{"name":"javascript"}],"cities":[{"code":"moscow"}],"allowsRemote":true}},{"node":{"id":"71502397440-1001054966032","title":"Mobile разработчик","text":"#вакансия #android #kotlin #junior\nФормат работы: удаленка\n\nЗанятость: полная\n\nГород: Не имеет значения\n\nЗарплатная вилка: 600-800$ в месяц\n\nОписание вакансии: Ищу android-разработчика с горящими глазами, знающего основы работы с sdk admob, firebase, appmetrica, работа с подписками в google play. На данный момент нужно доделать текущее приложение и в дальнейшем его развивать и поддерживать. Будут адекватные условия и большая возможность проф.развития. Работа с готовыми исходниками \n\nНазвание компании: Liquid Mobile\n\nКонтакты: @JohnSelf","markup":[{"type":"hashtag","offset":0,"length":9,"data":"вакансия"},{"type":"hashtag","offset":10,"length":8,"data":"android"},{"type":"hashtag","offset":19,"length":7,"data":"kotlin"},{"type":"hashtag","offset":27,"length":7,"data":"junior"},{"type":"handle","offset":532,"length":9,"data":"JohnSelf"}],"date":"2020-06-17T15:42:09+00:00","link":"tg://resolve?domain=mobile_jobs&post=0","tags":[{"name":"mobile"},{"name":"android"},{"name":"kotlin"},{"name":"admob"},{"name":"firebase"},{"name":"playframework"}],"cities":[],"allowsRemote":true}}]}},"context":{}}