{"hash":"f5f6bf98bd95e769321482904cbbd488f77922fd","data":{"records":{"id":"kotlin","name":"kotlin","belongsTo":{"totalCount":116,"pageInfo":{"totalPages":12,"currentPage":10},"edges":[{"node":{"__typename":"Job","id":"71411171328-1001054966032","title":"Android разработчик","text":"‼️Вакансия Senior Android⁢ Developer‼️\n#android #developer #вакансия #удаленка\nВ команде Mycelium Wallet (mycelium.com) открыта #вакансия Senior Android⁢ Developer.\n💵З/П 3000-4000 USD по итогам собеседования.\nРабота удаленная 💻\n\nМы предлагаем:\n🔸Получить навыки и компетенции в одном из самых передовых и перспективных направлений финтех индустрии - blockchain;\n🔸Принять участие в разработке одного из самых популярных биткоин-кошельков в Google Play Store;\n🔸Работать в международной команде бок о бок с ведущими специалистами в индустрии;\n🔸Возможность профессионального карьерного роста и участия в разнообразных проектах компании.\n\nЧем предстоит заниматься:\n🔹Разрабатывать новые и развивать существующие мобильные сервисы компании на платформе Android;\n🔹Проектировать и разрабатывать большие функциональные части приложения с привлечением других программистов;\n🔹Использовать cutting edge технологии, а также проверенные временем решения.\n\nТребования:\n✔️Как минимум 3 года опыта разработки на Android;\n✔️Знание Java/Kotlin на уровне ведущего разработчика;\n✔️Знание шаблонов проектирования, опыт использования MVP и других архитектурных подходов;\n✔️Опыт параллельного и многопоточного программирования;\n✔️Понимание циклов работы Android-приложения и управления памятью;\n✔️Опыт разработки пользовательских интерфейсов на платформе Android. \n✔️Знание Android Design Principles;\n✔️Знание и умение использовать различные механизмы взаимодействий между приложениями, предоставляемые в рамках Android SDK;\n✔️Понимание принципов работы REST API, WS, RPC и клиент-серверных приложений;\n✔️Знание английского языка на уровне чтения документации и умения общаться в корпоративном чате.\n\nПлюсом будет:\n➕Умение и понимание необходимости написания Unit tests;\n➕Знание основ криптографии;\n➕Опыт работы с bitcoin/etherium blockchain stack;\n➕Наличие своих проектов на Github, в Google Play и т.д.\n\n📲Контакт: @valeritata","markup":[{"type":"hashtag","offset":39,"length":8,"data":"android"},{"type":"hashtag","offset":48,"length":10,"data":"developer"},{"type":"hashtag","offset":59,"length":9,"data":"вакансия"},{"type":"hashtag","offset":69,"length":9,"data":"удаленка"},{"type":"link","offset":106,"length":12,"data":"http://mycelium.com"},{"type":"hashtag","offset":128,"length":9,"data":"вакансия"},{"type":"handle","offset":1900,"length":11,"data":"valeritata"}],"date":"2020-06-16T14:37:41+00:00","link":"tg://resolve?domain=mobile_jobs&post=0","tags":[{"name":"mobile"},{"name":"android"},{"name":"playframework"},{"name":"java"},{"name":"kotlin"},{"name":"rest"},{"name":"github"}],"cities":[],"allowsRemote":true}},{"node":{"__typename":"Job","id":"71405928448-1001054966032","title":"Android developer","text":"#вакансия #job #Android #kotlin #developer #Новосибирск #Калининград #Кострома #Екатеринбург #Питер \n\nВсем привет! \nОткрыта позиция на должность \n🔥Android Developer🔥\n\nКомпания: ТЕНЗОР (https://tensor.ru)\nЦентры мобильной разработки:\n📱Новосибирск, \n📱Калининград, \n📱Кострома, \n📱Екатеринбург,\n📱Санкт-Петербург,\n📱Севастополь\nOffice, full-time\n🔸Оформление по ТК РФ 🔸ДМС со стоматологией🔸курсы иностранных языков🔸корпоративные праздники🔸комфортный офис \nЗП: \nMiddle 110 000-180 000\nSenior 180 000-300 000 на руки\n\nЕсли ты :\n✅ знаешь Kotlin/Java и Android SDK;\n✅ понимаешь паттерны архитектуры MVP и MVVM;\n✅ имеешь опыт работы с Git, Dagger 2, RxJava;\n✅ готов совершенствовать свои умения и обучаться новому, \nто пиши нам!!!\nЖдём вопросы и резюме! \n✍️ @kseniyahr\n📨 ke.pomigueva@tensor.ru","markup":[{"type":"hashtag","offset":0,"length":9,"data":"вакансия"},{"type":"hashtag","offset":10,"length":4,"data":"job"},{"type":"hashtag","offset":15,"length":8,"data":"Android"},{"type":"hashtag","offset":24,"length":7,"data":"kotlin"},{"type":"hashtag","offset":32,"length":10,"data":"developer"},{"type":"hashtag","offset":43,"length":12,"data":"Новосибирск"},{"type":"hashtag","offset":56,"length":12,"data":"Калининград"},{"type":"hashtag","offset":69,"length":9,"data":"Кострома"},{"type":"hashtag","offset":79,"length":13,"data":"Екатеринбург"},{"type":"hashtag","offset":93,"length":6,"data":"Питер"},{"type":"link","offset":187,"length":17,"data":"https://tensor.ru"},{"type":"handle","offset":758,"length":10,"data":"kseniyahr"},{"type":"link","offset":772,"length":22,"data":"mailto:ke.pomigueva@tensor.ru"}],"date":"2020-06-16T14:17:24+00:00","link":"tg://resolve?domain=mobile_jobs&post=0","tags":[{"name":"mobile"},{"name":"android"},{"name":"kotlin"},{"name":"java"},{"name":"mvvm"},{"name":"git"}],"cities":[{"code":"novosibirsk"},{"code":"kaliningrad"},{"code":"kostroma"},{"code":"sevastopol"}],"allowsRemote":false}},{"node":{"__typename":"Job","id":"71400685568-1001054966032","title":"Android разработчик","text":"#вакансия #android #java #kotlin #middle #senior #удаленка #remote #fulltime\n\nAndroid-разработчик удаленно от 200 тыс. руб.\n\nГород: Москва\nФормат работы: удаленно\nЗанятость: полная\nЗарплатная вилка: от 200 000 руб. до 250 000 руб. после налогообложения\nКомпания: CORE https://core.company\n\nМы команда разработчиков мобильных приложений и сейчас мы ищем Android-разработчика для одного из наших финтех-проектов.\n\nОсновные требования:\n— Опыт работы от 2-х лет;\n— Знание Java и Kotlin;\n— Опыт работы с Rx;\n— Знание шаблонов проектирования и умение их применять;\n— Понимание принципов SOLID;\n— Знание основных алгоритмов и структур данных;\n— Умение писать поддерживаемый и тестируемый код.\n\nУсловия:\n— Полный день, гибкий график;\n— Оформление по договору ГПХ.\n\nПрисылайте ваше резюме на @tv_corecompany","markup":[{"type":"hashtag","offset":0,"length":9,"data":"вакансия"},{"type":"hashtag","offset":10,"length":8,"data":"android"},{"type":"hashtag","offset":19,"length":5,"data":"java"},{"type":"hashtag","offset":25,"length":7,"data":"kotlin"},{"type":"hashtag","offset":33,"length":7,"data":"middle"},{"type":"hashtag","offset":41,"length":7,"data":"senior"},{"type":"hashtag","offset":49,"length":9,"data":"удаленка"},{"type":"hashtag","offset":59,"length":7,"data":"remote"},{"type":"hashtag","offset":67,"length":9,"data":"fulltime"},{"type":"link","offset":268,"length":20,"data":"https://core.company"},{"type":"handle","offset":783,"length":15,"data":"tv_corecompany"}],"date":"2020-06-16T13:37:05+00:00","link":"tg://resolve?domain=mobile_jobs&post=0","tags":[{"name":"mobile"},{"name":"android"},{"name":"java"},{"name":"kotlin"}],"cities":[{"code":"moscow"}],"allowsRemote":true}},{"node":{"__typename":"Job","id":"71389151232-1001054966032","title":"Android разработчик","text":"#вакансия #developer #android #москва #бауманская\nAndroid Developer\nГород: Москва\nФормат работы: офис\nЗанятость: полная\nЗарплатная вилка: от 100.000 до 230.000 тыс. руб. фикс\n\nИщем middle/senior разработчика в digital-агентство WakeApp для разработки приложений-утилит (forecast, vpn, safe kids etc) + приложение мотивированного траффика.\n\nСтек: Kotlin, RxJava2/RxAndroid, Dagger2, Android Architecture Components(LiveData, ViewModel, Room, Navigation);\n\nС Вас:\n🔸опыт разработки от 2-ух лет;\n🔸хорошие знания стека;\n🔸знание ООП, MVP, MVVM;\n🔸ориентирование в Android SDK, гайдлайнах, best practices;\n\nС нас:\n🔹достойный уровень заработной платы;\n🔹сложные и интересные задачи;\n🔹комфортный офис в пешей доступности от метро (кухня с запасом фруктов, йогуртов, мороженого);\n🔹технологическая свобода;\n🔹отличный коллектив и пятничные посиделки;\n\nКонтакты: @natereaver","markup":[{"type":"hashtag","offset":0,"length":9,"data":"вакансия"},{"type":"hashtag","offset":10,"length":10,"data":"developer"},{"type":"hashtag","offset":21,"length":8,"data":"android"},{"type":"hashtag","offset":30,"length":7,"data":"москва"},{"type":"hashtag","offset":38,"length":11,"data":"бауманская"},{"type":"bold","offset":50,"length":17,"data":""},{"type":"bold","offset":75,"length":6,"data":""},{"type":"bold","offset":97,"length":4,"data":""},{"type":"bold","offset":113,"length":6,"data":""},{"type":"bold","offset":138,"length":36,"data":""},{"type":"bold","offset":228,"length":7,"data":""},{"type":"handle","offset":857,"length":11,"data":"natereaver"}],"date":"2020-06-16T12:00:59+00:00","link":"tg://resolve?domain=mobile_jobs&post=0","tags":[{"name":"mobile"},{"name":"android"},{"name":"kotlin"},{"name":"mvvm"}],"cities":[{"code":"moscow"}],"allowsRemote":false}},{"node":{"__typename":"Job","id":"1696595968-1001091028994","title":"Java разработчик","text":"#вакансия  #офис #удаленка #регионы #Москва #Java #Spring #senior #middle #backend\nЛокация: #регион #Москва\nФормат работы: #офис #fulltime #удаленка\nЗ/п: 150-250 NET\nКомпания: МД-IT\nВедущий разработчик/Разработчик JAVA  \nВсем привет!\n\n✅Нужны классные разработчики Java уровня Middle, Senior, Lead\n\n👉Немного о нас: \nЦентр разработки МД-IT реализует проекты федерального масштаба под ключ. Наши специалисты работают с крупнейшими системными интеграторами, выполняя задачи по проектированию, разработке, тестированию, сопровождению и эксплуатации внедренных решений. \nНаши офисы расположены в Москве, Ростове-на –Дону, Нижнем Новгороде. \n\n👉Что ждем от Вас:\n* Уверенные знания java 8+, spring boot, будет плюсом знание Kotlin. \n Глубокие знания и практический опыт использования Java в нагруженных многопоточных приложениях Hibernate, Spring, Maven3, ХML\n\n* Опыт проектирования версионнированных REST-API, знание grpc будет плюсом\n\n* Понимание принципов асинхронного программирования, знание одного из: netty, nio, r2dbc\n\n* Желателен опыт использования библиотек реактивного программирования (rxjava, reactor) или опыт работы с vert.x, ratpack или http4\n\n*Приветствуется опыт работы с современными архитектурами, Apache Ignite, Apache Kafka\n\n👉Что мы можем предложить Вам:\n\n* Работа: удаленка\n\n*График работы 5/2, команда работает с 9(10) до 18(19) ч. по МСК\n\n*Заработную плату белую, конкурентоспособную (рассмотрим ваши предложения).\n\n* Работа в команде сообразительных, открытых, стремящихся к развитию единомышленников.\n\n* Крупные и долгосрочные проекты, увеличивающие профессиональный кругозор и опыт работы. \n* Плюшки к чаю и кофе, оплачиваемая мобильная связь, оплачиваемые тренинги и курсы для повышения квалификации. \n\n🖍 Вопросы, резюме прошу писать в личку Елене @Elenazlh","markup":[{"type":"hashtag","offset":0,"length":9,"data":"вакансия"},{"type":"hashtag","offset":11,"length":5,"data":"офис"},{"type":"hashtag","offset":17,"length":9,"data":"удаленка"},{"type":"hashtag","offset":27,"length":8,"data":"регионы"},{"type":"hashtag","offset":36,"length":7,"data":"Москва"},{"type":"hashtag","offset":44,"length":5,"data":"Java"},{"type":"hashtag","offset":50,"length":7,"data":"Spring"},{"type":"hashtag","offset":58,"length":7,"data":"senior"},{"type":"hashtag","offset":66,"length":7,"data":"middle"},{"type":"hashtag","offset":74,"length":8,"data":"backend"},{"type":"hashtag","offset":92,"length":7,"data":"регион"},{"type":"hashtag","offset":100,"length":7,"data":"Москва"},{"type":"hashtag","offset":123,"length":5,"data":"офис"},{"type":"hashtag","offset":129,"length":9,"data":"fulltime"},{"type":"hashtag","offset":139,"length":9,"data":"удаленка"},{"type":"handle","offset":1772,"length":9,"data":"Elenazlh"}],"date":"2020-06-16T11:17:46+00:00","link":"tg://resolve?domain=jvmjobs&post=1618","tags":[{"name":"java"},{"name":"jvm"},{"name":"spring"},{"name":"dotnet"},{"name":"kotlin"},{"name":"hibernate"},{"name":"maven"},{"name":"rest"},{"name":"apache"},{"name":"kafka"},{"name":"spring-boot"}],"cities":[{"code":"moscow"}],"allowsRemote":true}},{"node":{"__typename":"Job","id":"1694498816-1001091028994","title":"Java developer","text":"Senior Java/Kotlin Developer \nКомпания: Sage Seller (https://sageseller.com/)\n#удаленнаяработа #java #kotlin\n\nСтек: Java, Kotlin, Postgres, Hibernate, Spring Boot 2\n\nЧто делать: разрабатывать новый функционал, участвовать в проектировании модулей и компонент-системы, улучшать производительность и оптимизировать существующие решения, писать юнит и интеграционные тесты.\n\nЧто требуется: опыт разработки решений на Java, знание шаблонов проектирования, опыт улучшения производительности Java решений. Плюсом будет опыт работы с Kotlin и сервисами Amazon (Marketplace API и AWS).\n\nУсловия: комфортная удалёнка, интересные задачи, уровень дохода до 200К. \n\n✏️ Откликаться: @lanakononenko\n\nМы делаем сервисы для продавцов маркетплейса Amazon, в том числе финансовую и рекламную аналитику, много данных.\n\nПроект только запустился, сейчас в стадии общения с клиентами и получения обратной связи. \n\nТак что у нас отсутствие бюрократии, небольшая команда, вместе обсуждаем задачи и пути их реализации. \n\nВпереди масштабирование и сложные задачи, для которых надо находить простые решения","markup":[{"type":"bold","offset":0,"length":30,"data":""},{"type":"link","offset":53,"length":23,"data":"https://sageseller.com/"},{"type":"hashtag","offset":78,"length":16,"data":"удаленнаяработа"},{"type":"hashtag","offset":95,"length":5,"data":"java"},{"type":"hashtag","offset":101,"length":7,"data":"kotlin"},{"type":"bold","offset":110,"length":5,"data":""},{"type":"bold","offset":166,"length":12,"data":""},{"type":"bold","offset":372,"length":14,"data":""},{"type":"bold","offset":579,"length":8,"data":""},{"type":"bold","offset":657,"length":12,"data":""},{"type":"handle","offset":670,"length":14,"data":"lanakononenko"}],"date":"2020-06-16T10:54:55+00:00","link":"tg://resolve?domain=jvmjobs&post=1616","tags":[{"name":"java"},{"name":"jvm"},{"name":"kotlin"},{"name":"postgresql"},{"name":"hibernate"},{"name":"spring"},{"name":"amazon-web-services"},{"name":"spring-boot"}],"cities":[],"allowsRemote":true}},{"node":{"__typename":"Job","id":"102946045952-1001089317451","title":"Qa инженер","text":"#вакансия #москва #qa_auto #android #swift  #kotlin #java #tinkoff\n\n📣Команда автоматизированного тестирования Тинькофф ищет талантливого коллегу, готового взяться за решение нетривиальных задач.\n\nЕсли у тебя есть: \n✔️опыт автоматизации тестирования мобильных приложений;\n✔️высокий уровень владения языком программирования (Java/Kotlin или Swift);\n✔️опыт работы с фреймворками тестирования (JUnit/TestNG или XCTest);\n✔️опыт настройки CI/CD;\n✔️и желание развиваться в сфере, тестирования,\nмы ждем тебя в команду автоматизации Tinkoff.ru!\n\nЗ/п от 100 до 200 т.р. на руки.\n\n✏️По вопросам сотрудничества пиши:\nTelegram @galcian\nE-mail g.barsukova@tinkoff.ru","markup":[{"type":"hashtag","offset":0,"length":9,"data":"вакансия"},{"type":"hashtag","offset":10,"length":7,"data":"москва"},{"type":"hashtag","offset":18,"length":8,"data":"qa_auto"},{"type":"hashtag","offset":27,"length":8,"data":"android"},{"type":"hashtag","offset":36,"length":6,"data":"swift"},{"type":"hashtag","offset":44,"length":7,"data":"kotlin"},{"type":"hashtag","offset":52,"length":5,"data":"java"},{"type":"hashtag","offset":58,"length":8,"data":"tinkoff"},{"type":"link","offset":511,"length":24,"data":"https://www.tinkoff.ru/career/vacancies/testirovanie/qa-automation-engineer-ios-android/"},{"type":"handle","offset":615,"length":8,"data":"galcian"},{"type":"link","offset":631,"length":22,"data":"mailto:g.barsukova@tinkoff.ru"}],"date":"2020-06-16T10:15:14+00:00","link":"tg://resolve?domain=qa_jobs&post=0","tags":[{"name":"qa"},{"name":"android"},{"name":"swift"},{"name":"kotlin"},{"name":"java"},{"name":"junit"}],"cities":[{"code":"moscow"}],"allowsRemote":false}},{"node":{"__typename":"Job","id":"1691353088-1001091028994","title":"Java developer","text":"Senior Java/Kotlin developer в Группу компаний FIX 📍\n#удаленно #Казань #Java #Kotlin \n\nЧем предстоит заниматься:\n- разрабатывать высоконагруженную платежную платформу\n- участвовать в проектировании модулей и компонентов\n- улучшать производительность создаваемого решения\n- реализовывать решения по обработке платежей\n- решать задачи резервирования и отказоустойчивости подсистем\n \nЧто для этого нужно:\n- опыт разработки высоконагруженных решений на Java/Kotlin.\n- глубокое знание Java SE.\n- опыт создания Web-приложений, понимание соответствующего стека технологий Java/Kotlin, знание протоколов TCP/IP, HTTP/HTTPS).\n- знание устройства и правил функционирования JVM.\n- опыт разработки многопоточных высоконагруженных приложений.\n- опыт улучшения производительности Java/Kotlin решений;\n\n\nМы предлагаем: \n- ЗП 150- 250 000\n- достойный уровень дохода (обсуждается индивидуально)\n- уютный офис в центре Казани\n- интересные задачи и открытая идеям команда\n- насыщенная корпоративная жизнь (праздники и активности, футбол, волейбол, йога)\n- релокационный пакет для специалистов из других городов, ДМС\n\n✏️ Откликаться: @rsharafutdinova","markup":[{"type":"hashtag","offset":54,"length":9,"data":"удаленно"},{"type":"hashtag","offset":64,"length":7,"data":"Казань"},{"type":"hashtag","offset":72,"length":5,"data":"Java"},{"type":"hashtag","offset":78,"length":7,"data":"Kotlin"},{"type":"handle","offset":1115,"length":16,"data":"rsharafutdinova"}],"date":"2020-06-16T09:17:52+00:00","link":"tg://resolve?domain=jvmjobs&post=1613","tags":[{"name":"java"},{"name":"jvm"},{"name":"kotlin"},{"name":"web"}],"cities":[{"code":"kazan"}],"allowsRemote":true}},{"node":{"__typename":"Job","id":"1685061632-1001091028994","title":"Java разработчик","text":"#вакансия #удаленка \n\nJava Engineer\nФормат работы: #fulltime #remote\nОфис: метро Китай-город\nЗарплата: $ 60 000 в год\nКонтакт для связи: @temnik_sofya\n\nКомпания-разработчик обучающих приложений для детей 3-6 лет и их родителей ищет опытного Java Engineer. В команде сейчас 32 человека, все работают удаленно из России, Белоруссии и Украины. Мы активно растем и привлекаем новые таланты.\n\nПредстоящие задачи связаны с:\n • валидацией подписок Apple/Google/Amazon;\n • клиент-серверными фичами;\n • аналитическим сервисом и визуализацией метрик через Grafana;\n • сервисом пуш-уведомлений;\n • интеграциями со сторонними сервисами (Facebook, Amplitude, adjust, Mailchimp);\n • созданием админки;\n • безопасностью.\n\nТребования:\n\n- Технический английский;\n- Владение или желание научиться и использовать Kotlin.\n\nПервоначальный отбор осуществляется через 6nomads.com","markup":[{"type":"hashtag","offset":0,"length":9,"data":"вакансия"},{"type":"hashtag","offset":10,"length":9,"data":"удаленка"},{"type":"hashtag","offset":51,"length":9,"data":"fulltime"},{"type":"hashtag","offset":61,"length":7,"data":"remote"},{"type":"handle","offset":137,"length":13,"data":"temnik_sofya"},{"type":"link","offset":845,"length":11,"data":"http://6nomads.com"}],"date":"2020-06-16T07:54:40+00:00","link":"tg://resolve?domain=jvmjobs&post=1607","tags":[{"name":"java"},{"name":"jvm"},{"name":"kotlin"}],"cities":[],"allowsRemote":true}},{"node":{"__typename":"Job","id":"1684013056-1001091028994","title":"Java разработчик","text":"#java #java11 #tarantool #lua #redis #kotlin \n\nКомпания #Иннодата (ГК Ramax) - системный интегратор с офисами в #Москва, #Питер, #Воронеж, #Иннополис. \nФормат работы #офис, #fulltime #remote\nВилка: от 200 net на руки\nКонтакт для связи: pbokarev@innodata.ru \n\n📌Задача: Нам предстоит разработать один из центральных компонентов ИТ системы крупнейшей ритейл сети.\n\nГеораспределённую mission-critical платформу, работающую в режиме 24/7 365, объединяющую информацию из всех подразделений и IT-систем, связанных с клиентом, в единый профиль. К системе предъявляются жесткие требования ко времени отклика и rps. Ядром системы мы выбрали tarantool - одно из самых навороченных imdg решений на данный момент. Мы ищем человека, который не боится новых вызовов и готов развиваться, устал от бесконечный crud'ов и хочет попробовать себя в highload. Готовы рассмотреть кандидатов разного уровня!\n\n📌Наши плюсы:\nНикакого legacy, тк проект только начинается, есть возможность поучаствовать в выборе стека. Современные технологии, мощный кластер, после окончания проекта возможность работы на других проектах (scala, BIgData)\n\n📌Стек технологий:\nJava 11;\nTarantool (Lua);\nClickhouse;\nPostgreSQL;\n\n📌Требования:\nОпыт коммерческой разработки на Java более 2 лет. Будет плюсом умение писать на Kotlin;\nSQL, опыт проектирования реляционнных баз данных;\nОпыт использования Tarantool или Redis (Lua);\nПонимание разницы OLAP и OLTP;\n\n📌Будет плюсом:\nОпыт работы с распределёнными системами;\nОпыт разработки highload систем;\nОпыт разработки многопоточных приложений;\n\n📌Обязанности:\nУчастие в проектировании архитектуры и детализации работ;\nНепосредсвенно реализация задач;\nПокрытие нового функционала тестами (unit, регрессионные);","markup":[{"type":"hashtag","offset":0,"length":5,"data":"java"},{"type":"hashtag","offset":6,"length":7,"data":"java11"},{"type":"hashtag","offset":14,"length":10,"data":"tarantool"},{"type":"hashtag","offset":25,"length":4,"data":"lua"},{"type":"hashtag","offset":30,"length":6,"data":"redis"},{"type":"hashtag","offset":37,"length":7,"data":"kotlin"},{"type":"hashtag","offset":56,"length":9,"data":"Иннодата"},{"type":"hashtag","offset":112,"length":7,"data":"Москва"},{"type":"hashtag","offset":121,"length":6,"data":"Питер"},{"type":"hashtag","offset":129,"length":8,"data":"Воронеж"},{"type":"hashtag","offset":139,"length":10,"data":"Иннополис"},{"type":"hashtag","offset":166,"length":5,"data":"офис"},{"type":"hashtag","offset":173,"length":9,"data":"fulltime"},{"type":"hashtag","offset":183,"length":7,"data":"remote"},{"type":"link","offset":236,"length":20,"data":"mailto:pbokarev@innodata.ru"}],"date":"2020-06-16T07:13:08+00:00","link":"tg://resolve?domain=jvmjobs&post=1606","tags":[{"name":"java"},{"name":"jvm"},{"name":"lua"},{"name":"redis"},{"name":"kotlin"},{"name":"dotnet"},{"name":"scala"},{"name":"postgresql"},{"name":"sql"}],"cities":[{"code":"moscow"},{"code":"voronezh"}],"allowsRemote":true}}]}}},"context":{}}