{"hash":"f5f6bf98bd95e769321482904cbbd488f77922fd","data":{"records":{"id":"git","name":"git","belongsTo":{"totalCount":273,"pageInfo":{"totalPages":28,"currentPage":18},"edges":[{"node":{"__typename":"Job","id":"1712324608-1001091028994","title":"Java разработчик","text":"#java #fulltime\n\nНа проект от одного из лидирующих российских банков требуется\nMiddle Java Developer (backend)\n\nЛокация: Москва, ул. Сретенка\nФормат работы: Офис\nЗанятость: полная\n\nВилка зп: 150 000 - 180 000 рублей/месяц нетто\n\nСтек: \nSpring, Hibernate, Maven, JMS, REST, SOAP, Git, Jenkins, UML, TestNG.\n\nТребования: \n- Опыт от 2х лет разработки высоко-нагруженных и отказоустойчивых фронтальных систем.\n- Знание основных методологий разработки программного обеспечения, включая гибкие методологии.\n- Опыт командной разработки.\n- Умение разбираться в чужом коде, писать чистый и понятный код для других разработчиков, опыт написания автотестов.\n- Уверенное знание Java Core (типы данных, Collections Framework, JMM...)\n- Знание парадигм ООП и их реализации в Java.\n- Знание структур данных и алгоритмов.\n- Знание шаблонов проектирования (GoF)\n\nКонтакт: @mxm_at","markup":[{"type":"hashtag","offset":0,"length":5,"data":"java"},{"type":"hashtag","offset":6,"length":9,"data":"fulltime"},{"type":"handle","offset":855,"length":7,"data":"mxm_at"}],"date":"2020-06-19T13:20:17+00:00","link":"tg://resolve?domain=jvmjobs&post=1633","tags":[{"name":"java"},{"name":"jvm"},{"name":"spring"},{"name":"hibernate"},{"name":"maven"},{"name":"rest"},{"name":"soap"},{"name":"git"},{"name":"jenkins"}],"cities":[{"code":"moscow"}],"allowsRemote":false}},{"node":{"__typename":"Job","id":"71650246656-1001054966032","title":"Ios разработчик","text":"#вакансия #IOS  #middle  #офис #минск\n\nios разработчик в офис Минска м. Немига\n\nГород: Минск\nФормат работы: в офис (на период пандемии удаленно)\nЗанятость: полная\nЗарплатная вилка: 1 000 -1 500$\nКомпания: 𝓜𝓑𝓲𝓬𝔂𝓬𝓵𝓮\n\nMBicycle - команда профессионалов в области разработки мобильных и веб приложений.\nМы помогаем нашим клиентам решать их проблемы независимо от отрасли, размера компании или чего-либо еще.\nНаша работа - это постоянное развитие и движение вперед.\n\nО нас:\nНаша компания развивается с 2011 года. На данный момент отдел разработки составляет 70+ человек.\nОфисы нашей компании расположены в Гомеле, Минске и Бостоне (США).\nМы предоставляем комплексные технические решения для широкого круга отраслей, включая Спорт, IoT, FinTech, HealthCare и т.д.\nНаши сотрудники регулярно проводят митапы, на которых обсуждают актуальные технологии и возможности их внедрения на наших проектах\n\nСтек задач будет включать:\n\nОбщение с клиентом, уточнение и обсуждение требований\nУчастие в планировании проекта\nПроведение и прохождение код-ревью\nУчастие в различных фазах разработки: демо нового функционала, написание тестов, сборка и релиз приложений\nРаботу в распределенных командах, написание нового функционала\nДоработку и поддержку уже написанных частей\nНаши ожидания:\n\nЗнание английского языка на уровне Intermediate и выше\nОпыт разработки на Swift от 2-х лет\nОпыт работы с RxSwift, MVVM\nОпыт с git, понимание git flow\nОпыт написания Unit-тестов и работы с CI/CD\nМы предлагаем:\n• Работу в динамично развивающейся компании\n• Разработка приложений с нуля\n• Гибкость в выборе технологий\n• 3 sick days\n• Командировки за рубеж\n• Бесплатные курсы английского языка в нашем офисе\n\nПриятные плюшки:\n• Новый офис в центре города (Гомель), а в Минске мы находимся на Интернациональной (Немига)\n• Гибкое начало рабочего дня\n• Участие в конференциях и митапах\n• Отдых на тимбилдингах и ярких праздниках для всей семьи\n\nписать мне","markup":[{"type":"hashtag","offset":0,"length":9,"data":"вакансия"},{"type":"hashtag","offset":10,"length":4,"data":"IOS"},{"type":"hashtag","offset":16,"length":7,"data":"middle"},{"type":"hashtag","offset":25,"length":5,"data":"офис"},{"type":"hashtag","offset":31,"length":6,"data":"минск"}],"date":"2020-06-19T12:47:42+00:00","link":"tg://resolve?domain=mobile_jobs&post=0","tags":[{"name":"mobile"},{"name":"ios"},{"name":"swift"},{"name":"mvvm"},{"name":"git"}],"cities":[{"code":"minsk"},{"code":"gomel"}],"allowsRemote":true}},{"node":{"__typename":"Job","id":"2230321152-1001134745498","title":"Devops инженер","text":"#вакансия #devops\nГород и адрес офиса: #Москва\nФормат работы: #офис возможна частичная удаленка\nЗанятость: #полная\nЗарплатная вилка: от 180 000 до 270 000 на руки\n\nОдним из направлений деятельности Перфоманс Лаб является внедрение практик и инструментов DevOps, позволяющих улучшить time-to-market и повысить эффективность процессов наших клиентов.\nМы ищем сильных инженеров DevOps, умеющих решать сложные задачи в части поставки и внедрения продуктов и готовых к самостоятельному принятию решений и консультированию представителей клиентов.\nНужно будет:\n💪 Помогать командам наших клиентов при внедрении DevOps решений, включающие такие области, как автоматизация процессов сборки и развертывания систем, автоматизированное тестирование, мониторинг и релиз продуктов.\n💪 Устанавливать и настраивать инструменты DevOps.\n💪 Взаимодействовать с разработчиками и системными администраторами, координировать команды из смежных областей при переходе на модель DevOps.\n💪 Подготавливать документацию по проектам и внедрению DevOps решений.\n💪 Разрабатывать скрипты.\nБез чего не обойтись:\n🌟 Опыт развертывания, автоматизация сборки, мониторинга, непрерывной интеграции.\n🌟 Опыт работы с инструментами управления конфигурациями (Ansible или Puppet, Chef).\n🌟 Опыт работы с системами контейнерной виртуализации (Docker, Docker Swarm).\n🌟 Опыт работы с оркестраторами Docker: Kubernetes/Openshift.\n🌟 Опыт работы с CI/CD (Jenkins/Gitlab CI/Bamboo/Teamcity), понимание плюсов и минусов таких инструментов.\n🌟 Знание идеологии и инструментов infrastructure as a code.\n🌟 Хорошее знание Git, Git-Flow.\n🌟 Готовность постоянно самообучаться и помогать другим в освоении современных ИТ-технологий и инструментов.\nЧто мы предлагаем:\n🔥 Возможность попробовать разнообразные системы и технологии на практике.\n🔥 Огромное количество возможностей для обучения и саморазвития.\n🔥 Работа в успешной компании — резиденте Сколково.\n🔥 Официальное трудоустройство по ТК и белая зарплата.\n🔥 3 оплачиваемых отгула в год в дополнение к отпуску.\n🔥 Скидка на изучение английского языка и частичная компенсация ДМС.\n🔥 Курсы, сертификации за счет компании.\n🔥 Индивидуальный план профессионального развития.\n\nНазвание компании: Перфоманс Лаб \nКонтакты: @bystrova_ak / a.bystrova@pflb.ru\n\n—\n\n👉 Обсуждение вакансии в чате @devops_jobs","markup":[{"type":"hashtag","offset":0,"length":9,"data":"вакансия"},{"type":"hashtag","offset":10,"length":7,"data":"devops"},{"type":"hashtag","offset":39,"length":7,"data":"Москва"},{"type":"hashtag","offset":62,"length":5,"data":"офис"},{"type":"hashtag","offset":107,"length":7,"data":"полная"},{"type":"handle","offset":2226,"length":12,"data":"bystrova_ak"},{"type":"link","offset":2241,"length":18,"data":"mailto:a.bystrova@pflb.ru"},{"type":"handle","offset":2294,"length":12,"data":"devops_jobs"}],"date":"2020-06-19T12:25:14+00:00","link":"tg://resolve?domain=devops_jobs_feed&post=2127","tags":[{"name":"ansible"},{"name":"docker"},{"name":"kubernetes"},{"name":"jenkins"},{"name":"gitlab"},{"name":"git"}],"cities":[{"code":"moscow"}],"allowsRemote":true}},{"node":{"__typename":"Job","id":"103279493120-1001089317451","title":"Qa инженер","text":"🐞🐞🐞#вакансия #QA #Ульяновск #Саранск #Казань #Самара #Уфа #Краснодар #офис #удаленная_работа\n\n🔍Middle QA-специалист🔎\n\n⚡️Компания: Simbirsoft (более 19 лет на рынке, более 700 сотрудников в штате)\n\nОчень ждем тебя, наш будущий коллега и борец за качественное ПО! 🙂\n\n📌Твои будущие задачи:\n• тестирование ПО (frontend, backend, API);\n• локализация и документирование найденных дефектов;\n• ведение и оптимизация тестовой документации;\n• контроль качества на всех этапах разработки ПО;\n• выстраивание и оптимизация процессов тестирования ПО.\n\n📌Что мы ждем от тебя:\n• наличие опыта от 2 лет в направлениях QA или тестирования ПО;\n• понимание разницы между QA и тестированием ПО;\n• понимание особенностей гибких методологий;\n• уверенное владение техниками тест-дизайна;\n• знание клиент-серверной архитектуры;\n• понимание особенностей тестирования web, mobile и desktop приложений;\n• навык тестирования API;\n• написание запросов SQL;\n• опыт работы с системами контроля версий (git);\n• знание основных команд работы с консолью (Windows/Linux).\n\n\n📌Что мы предлагаем:\n• Полностью белая ЗП два раза в месяц;\n• Оформление по ТК РФ;\n• Высокий уровень экспертности внутри компании, которым мы делимся друг с другом;\n• Перспективы вертикального и горизонтального роста;\n• Работа на российских и международных проектах;\n• Оборудованное рабочее место и парк тестовых устройств;\n• Подготовка и прохождение сертификации ISTQB бесплатно;\n• Внутренние и внешние курсы, доклады, конференции;\n• Бесплатные чай, кофе, печеньки в офисе;\n• Корпоративная спортивная программа (оплата тематических секций, частичная компенсация абонемента);\n• Проведение летних и зимних корпоративов, дня именинника, совместные походы и т.д.\n\n📌Зарплата:\n• от 50 000 (Договорная, по итогу собеседования)\n\n\n☎️Контакты:\n@abrmova","markup":[{"type":"hashtag","offset":6,"length":9,"data":"вакансия"},{"type":"hashtag","offset":16,"length":3,"data":"QA"},{"type":"hashtag","offset":20,"length":10,"data":"Ульяновск"},{"type":"hashtag","offset":31,"length":8,"data":"Саранск"},{"type":"hashtag","offset":40,"length":7,"data":"Казань"},{"type":"hashtag","offset":48,"length":7,"data":"Самара"},{"type":"hashtag","offset":56,"length":4,"data":"Уфа"},{"type":"hashtag","offset":61,"length":10,"data":"Краснодар"},{"type":"hashtag","offset":72,"length":5,"data":"офис"},{"type":"hashtag","offset":78,"length":17,"data":"удаленная_работа"},{"type":"handle","offset":1781,"length":8,"data":"abrmova"}],"date":"2020-06-19T11:12:51+00:00","link":"tg://resolve?domain=qa_jobs&post=0","tags":[{"name":"qa"},{"name":"web"},{"name":"mobile"},{"name":"sql"},{"name":"git"},{"name":"windows"},{"name":"linux"}],"cities":[{"code":"ulyanovsk"},{"code":"saransk"},{"code":"kazan"},{"code":"samara"},{"code":"ufa"},{"code":"krasnodar"}],"allowsRemote":true}},{"node":{"__typename":"Job","id":"71637663744-1001054966032","title":"Mobile разработчик","text":"#вакансия #mobile #ios #swift #fulltime\nГород и адрес офиса: Москва, м. Нахимовский проспект, офис класса А\nФормат работы: офис + возможно частично удаленная работа \nЗанятость: полная, 5/2\nЗП: от 150к до 250к, готовы рассмотреть и выше\n\nКомпания X4Apps специализируется на разработке собственных мобильных приложений и открывает вакансию мобильного разработчика уровня Middle+/Senior, который будет работать над созданием приложений для платформы iOS.\n\nМы практикуем быструю проверку гипотез, быстро создаем приложения, запускаем первых пользователей, смотрим на обратную связь и наращиваем функционал либо переключаемся на разработку новых приложений/новых идей.\n\nОт Вас мы ждем:\n- Способность разработать приложение с нуля и выпустить его в AppStore\n- Знание Objective-C и Swift\n- Суммарный опыт программирования от 3-х лет\n- Умение работать с системой контроля версий git - console, IDE, web (Stash);\n- Понимание принципов ООП и шаблонов проектирования\n- Опыт использования JSON, REST API\n- Опыт написания клиент-серверных приложений\n- Наличие опубликованных приложений в AppStore\n\nБудет плюсом:\n- Желание постоянно учиться и применять новые технологии в своей работе\n- Понимание в разработке пользовательского интерфейса\n- Понимание работы бэкэнда\n\nКонтакт @bambaleeyo","markup":[{"type":"hashtag","offset":0,"length":9,"data":"вакансия"},{"type":"hashtag","offset":10,"length":7,"data":"mobile"},{"type":"hashtag","offset":18,"length":4,"data":"ios"},{"type":"hashtag","offset":23,"length":6,"data":"swift"},{"type":"hashtag","offset":30,"length":9,"data":"fulltime"},{"type":"bold","offset":40,"length":19,"data":""},{"type":"bold","offset":108,"length":13,"data":""},{"type":"bold","offset":166,"length":9,"data":""},{"type":"bold","offset":189,"length":2,"data":""},{"type":"bold","offset":665,"length":14,"data":""},{"type":"bold","offset":1085,"length":12,"data":""},{"type":"bold","offset":1253,"length":7,"data":""},{"type":"handle","offset":1261,"length":11,"data":"bambaleeyo"}],"date":"2020-06-19T11:04:23+00:00","link":"tg://resolve?domain=mobile_jobs&post=0","tags":[{"name":"mobile"},{"name":"ios"},{"name":"swift"},{"name":"objective-c"},{"name":"git"},{"name":"web"},{"name":"json"},{"name":"rest"}],"cities":[{"code":"moscow"}],"allowsRemote":true}},{"node":{"__typename":"Job","id":"17072914432-1001110946746","title":"Js разработчик","text":"#вакансия  #backend #nodejs #javascript #удаленка #js #remote\n\nПозиция: Backend developer (Middle)\nКомпания: paradigmfund.io - инвестиционный фонд с офисами в Москве и Токио.\nФормат работы: Удаленка \nЗанятость: Полная с графиком работы (в выходные отдыхаем, в будни работаем по графику, гибкое начало рабочего дня)\nЗарплатная вилка: 110 000-150 000 руб. на руки\nЗадача: Участвовать в разработке новых и текущих it продуктов компании (криптовалютный кошелек, торговая биржа, обменник валют). \n\nТребования:\n- Опыт программирования на чистом JS не менее 3-х лет\n- Опыт программирования под Node.js не менее года\n- Опыт работы с серверами на Ubuntu\n- Знание SQL и особенностей PostgreSQL\n- Умение оптимизировать тяжелые запросы к базе\n- Хороший навык чтения чужого кода и модернизации его\n- Навык анализа новых структур данных и чужих API\n- Навык работы с Git\n- Гибкость, отзывчивость и хорошие soft skills, мы ценим дружелюбную и продуктивную среду, которую мы создали в команде, и надеемся, что вы гармонично в нее впишетесь.\n\nЖелательно:\n- Знание html, css, vue.js\n- Навык работы с docker'ами\n- Умение настраивать NGINX\n- Навык написание unit тестов\n- Навык поиска утечек памяти\n\nПомимо всего вышесказанного, у нас вы получите:\n- Работа в дружной команде, как разработчиков так и управленцев. \n- Профессиональное развитие и новые знания касаемо blockchain технологий.\n- Возможность релокации в офис в Москве.\n- Понятные процессы разработки (Agile, двухнедельные спринты, работаем в Jira и Confluence). \n\nКонтакты:\nМы стремимся постоянно автоматизировать и улучшать наши процессы, поэтому отклик на вакансию просим оставлять через форму: https://forms.gle/L9hWmD18Zs9kMo2E8\nС подходящими кандидатами свяжемся в течение недели, если возникли какие то вопросы, с радостью отвечу на них в лс @grshabl\n\n—\n\n👉 Обсуждение вакансии в чате @javascript_jobs","markup":[{"type":"hashtag","offset":0,"length":9,"data":"вакансия"},{"type":"hashtag","offset":11,"length":8,"data":"backend"},{"type":"hashtag","offset":20,"length":7,"data":"nodejs"},{"type":"hashtag","offset":28,"length":11,"data":"javascript"},{"type":"hashtag","offset":40,"length":9,"data":"удаленка"},{"type":"hashtag","offset":50,"length":3,"data":"js"},{"type":"hashtag","offset":54,"length":7,"data":"remote"},{"type":"link","offset":109,"length":15,"data":"http://paradigmfund.io"},{"type":"link","offset":1636,"length":35,"data":"https://forms.gle/L9hWmD18Zs9kMo2E8"},{"type":"handle","offset":1787,"length":8,"data":"grshabl"},{"type":"handle","offset":1830,"length":16,"data":"javascript_jobs"}],"date":"2020-06-19T10:46:36+00:00","link":"tg://resolve?domain=javascript_jobs_feed&post=16282","tags":[{"name":"javascript"},{"name":"nodejs"},{"name":"ubuntu"},{"name":"sql"},{"name":"postgresql"},{"name":"git"},{"name":"html"},{"name":"css"},{"name":"vuejs"},{"name":"docker"},{"name":"nginx"}],"cities":[{"code":"tokyo"}],"allowsRemote":true}},{"node":{"__typename":"Job","id":"17070817280-1001110946746","title":"Js developer","text":"#вакансия #js #frontend #react\n\nПозиция: Middle React Developer\n\nФормат работы: удаленно (дэйли митинги в начале дня)\n\nЗанятость: полная, проектная\n\nТребования:\n- уверенные знания ECMAScript\n- уверенные знания React/Redux \n- знания git и git-flow (squash, merge, etc)\n- инициативность и способность общаться с командой\n- умение писать чистый и поддерживаемый код\n- умение выполнять задачи\n\nНеплохо, если вы:\n- умеете работать с веб-сокетами (потребуется в дальнейшем)\n- знаете TypeScript (возможно потребуется в дальнейшем)\n- знаете CSS/Sass и умеете верстать\n\nОбязанности:\n- разработка приложения на React+Redux\n- коммуникация с командой, принятие решений в проектировании API\n\nРабочий график: 10:00 - 18:00 Пн-Пт\n\nОплата: 1500$ - 2000$ (на руки)\n\nКонтакты: @heavycharged\n\n—\n\n👉 Обсуждение вакансии в чате @javascript_jobs","markup":[{"type":"hashtag","offset":0,"length":9,"data":"вакансия"},{"type":"hashtag","offset":10,"length":3,"data":"js"},{"type":"hashtag","offset":14,"length":9,"data":"frontend"},{"type":"hashtag","offset":24,"length":6,"data":"react"},{"type":"handle","offset":759,"length":13,"data":"heavycharged"},{"type":"handle","offset":807,"length":16,"data":"javascript_jobs"}],"date":"2020-06-19T10:45:28+00:00","link":"tg://resolve?domain=javascript_jobs_feed&post=16280","tags":[{"name":"javascript"},{"name":"reactjs"},{"name":"redux"},{"name":"git"},{"name":"typescript"},{"name":"css"},{"name":"sass"},{"name":"react-redux"}],"cities":[],"allowsRemote":true}},{"node":{"__typename":"Job","id":"349175808-1001352129329","title":"Golang разработчик","text":"Ребят, всем привет! \nПростыню сюда флудить не хочется поэтому постараюсь кратко, а подробности в ЛС, заранее напишу, что это Москва (Фултайм в офис), компания Lofty. Ищем в команду как Midle так и один Senior нужен.\n Вообщем если хочется в highload, добро пожаловать!)\n\nО проекте:\nЭто высоконагруженное backend приложение для рассылки web push-уведомлений, обслуживающее на данный момент более 100млн показов в сутки. \nЧем у нас предстоит заниматься:\nПрофилировать и оптимизировать существующие сервисы;\nПроводить доработки и интеграцию их в действующий код и инфраструктуру;\nРеализовывать новые бизнес-требования внутри сервиса;\nУстранять возникающие баги в сервисе.\n\nЧто мы ждем от кандидата:\nНавыки работы с Git;\nУверенное знание Golang;\nПонимание технологий HTTP, REST;\nОпыт работы в Unix-окружении.\n\nБудет совсем круто, если вы:\nРаботали с highload-проектами;\nПонимаете и уважаете концепцию CI/CD.\nНаш стек технологий: Golang, Gitlab, MySQL, JS, RabbitMQ, Docker, Ansible, Clickhouse\n\nУсловия: \nЗаработная плата от 130 000 до 300 000 руб. на руки, естественно зависит от уровня, преимущественно смотрим \"мидов\", но и \"джуны\" нам тоже интересны.\n\n#вакансия#golang","markup":[],"date":"2020-06-19T10:03:46+00:00","link":"tg://resolve?domain=gogetajobfeed&post=333","tags":[{"name":"go"},{"name":"web"},{"name":"git"},{"name":"rest"},{"name":"unix"},{"name":"gitlab"},{"name":"mysql"},{"name":"rabbitmq"},{"name":"docker"},{"name":"ansible"}],"cities":[{"code":"moscow"}],"allowsRemote":false}},{"node":{"__typename":"Job","id":"71624032256-1001054966032","title":"Ios разработчик","text":"#вакансия #swift #objective-C #ios\n\nГород : Санкт-Петербург\nФормат работы: офис или удаленно\nЗанятость: Полная\nЗарплатная вилка:  90 000 - 300 000 руб\n\nОписание компании:\nВ Blogman мы занимаемся разработкой собственного приложения – платформа для блогеров и рекламодателей. В нашей команде уже более 50 разработчиков и мы продолжаем расти. Сейчас мы ищем инженера с опытом коммерческой разработки под iOS.\nОсновной стек технологий — Swift, Realm, Alamofire. Сейчас мы разрабатываем бизнес-функционал и будем рады новому специалисту в нашей команде, вместе с которым мы будем делать быстрое приложение с отзывчивым и плавным интерфейсом.\n\nМы ожидаем, что у вас есть:\n— Опыт коммерческой разработки мобильных приложений под iOS;\n— Хорошие знания Swift, UIKit;\n— Опыт работы с мобильными БД;\n— Умение работать с Git, Cocoapods.\n\nБудет плюсом, если вы:\n— Разрабатывали клиент-серверные приложения;\n— Умеете работать с WebSocket;\n— Знаете и понимаете архитектуру VIPER;\n— Командный игрок без яркого эгоцентризма;\n— Готовы активно принимать участие в жизни компании и продукта.\n\nРады предложить:\n– Удаленное сотрудничество или комфортный офис на Невском проспекте в 5 минутах ходьбы от ст. м. Маяковская и Владимирская;\n– Желаемый оклад по результатам собеседования;\n– Понятную систему роста зарплаты каждые 6 месяцев, в которой все зависит только от вас;\n– Все необходимые офисные блага вроде вкусного кофе и т.д.\nВас будут окружать адекватные люди, с которыми комфортно решать поставленные задачи. У сотрудников есть общие ценности, такие как стремление к качественному результату, забота о продукте и желание двигаться вперед. Также у нас нет “Начальства”, а есть коллеги. Все взаимодействуют горизонтально и в команде равенство между инженерами, стейкхолдером, продактом и т.д. Все работают бок о бок и делают одно общее дело.\nНазвание компании: Blogman","markup":[{"type":"hashtag","offset":0,"length":9,"data":"вакансия"},{"type":"hashtag","offset":10,"length":6,"data":"swift"},{"type":"hashtag","offset":17,"length":10,"data":"objective"},{"type":"hashtag","offset":30,"length":4,"data":"ios"},{"type":"bold","offset":173,"length":8,"data":""},{"type":"bold","offset":438,"length":2,"data":""},{"type":"bold","offset":445,"length":2,"data":""},{"type":"bold","offset":638,"length":27,"data":""},{"type":"bold","offset":826,"length":22,"data":""},{"type":"bold","offset":1073,"length":16,"data":""}],"date":"2020-06-19T09:44:55+00:00","link":"tg://resolve?domain=mobile_jobs&post=0","tags":[{"name":"mobile"},{"name":"ios"},{"name":"swift"},{"name":"objective-c"},{"name":"realm"},{"name":"uikit"},{"name":"git"},{"name":"cocoapods"},{"name":"websocket"}],"cities":[],"allowsRemote":true}},{"node":{"__typename":"Job","id":"71617740800-1001054966032","title":"Android разработчик","text":"#вакансия #Android #Java #Kotlin #офис #Москва #fulltime   \n\nГород и адрес офиса: Москва, Кутузовский пр-т;\nФормат работы: офис (на период карантина удаленка)\nЗанятость: полная\nЗарплатная вилка: от 160 000 до 300 000 руб\n\nОписание вакансии: \nКомпания TEAM FORCE ищет в свою команду Android(Java/Kotlin) разработчиков  уровня Middle и выше. Проект в одном из топ-5 банков России. Предстоит разработка нового функционала текущего приложения, а также разработка новых продуктов банка. \n\nТребования:\n🔺 Опыт работы Android (Java/Kotlin) разработчиком от 2-х лет, участие в нескольких проектах.\n🔺 Опыт работы с технологиями: Java, Kotlin, RxJava, Dagger, Android Studio, Git, JIRA, Confluence\n🔺 Знание гайдлайнов мобильных приложений на базе Android\n\nКонтакты: @an_krivochenko","markup":[{"type":"hashtag","offset":0,"length":9,"data":"вакансия"},{"type":"hashtag","offset":10,"length":8,"data":"Android"},{"type":"hashtag","offset":19,"length":5,"data":"Java"},{"type":"hashtag","offset":25,"length":7,"data":"Kotlin"},{"type":"hashtag","offset":33,"length":5,"data":"офис"},{"type":"hashtag","offset":39,"length":7,"data":"Москва"},{"type":"hashtag","offset":47,"length":9,"data":"fulltime"},{"type":"handle","offset":758,"length":15,"data":"an_krivochenko"}],"date":"2020-06-19T09:06:17+00:00","link":"tg://resolve?domain=mobile_jobs&post=0","tags":[{"name":"mobile"},{"name":"android"},{"name":"java"},{"name":"kotlin"},{"name":"git"},{"name":"android-studio"}],"cities":[{"code":"moscow"}],"allowsRemote":true}}]}}},"context":{}}