{"hash":"f5f6bf98bd95e769321482904cbbd488f77922fd","data":{"records":{"id":"angularjs","name":"angularjs","belongsTo":{"totalCount":47,"pageInfo":{"totalPages":5,"currentPage":3},"edges":[{"node":{"__typename":"Job","id":"17179869184-1001110946746","title":"Js разработчик","text":"#вакансия #JavaScript #Node.js #Екатеринбург\n\nГород: Екатеринбург\nФормат: Обсуждаемый (офис/удаленка)\nзанятость: Полная\nУровень: Junior/Middle\nзп: 30 000 - 80 000 ₽ net\n\nО компании: YetiCrab (https://yeticrab.org/) - команда специалистов по разработке различных приложений (web, desktop, mobile) и сервисов на основе web-технологий. У нас много интересных проектов с заказчиками по всему миру. Мы ищем к себе в команду ответственного человека, который хочет и готов активно расти как разработчик и специалист.\n\nОбязанности:\n- Разработка Web и мобильных приложений на JavaScript с применением современных framework-ов\n- Исследование и внедрение новых тенденций и технологий\n\nТребования:\n- Хорошее знание JavaScript (ES5, ES6), HTML, CSS\n- Опыт работы с современными фреймворками (Angular/React/Vue)\n- Понимание REST\n- Умение пользоваться Git\n- Навыки работы в команде\n\nБудет плюсом:\n- Опыт работы с WebSockets и GraphQL\n- Разговорный английский язык\n- Знание Node.js и опыт работы с Express.js/KOA/Nest.js/Next.js\n- Приветствуется знание React Native или Ionic\n- Понимание работы с CI/CD\n- Опыт работы с Electron.js, PWA\n- Знание Python\n\nМы предлагаем:\n- Гибкий график работы\n- Просторный офис\n- Возможность удаленной работы\n- Рабочий ноутбук MacBook Apple\n- Чай, кофе, печеньки и другие плюшки в офисе\n- Постоянное обучение, развитие скиллов\n- Поддержку от команды единомышленников\n- Возможность получить опыт в разных проектах и изучить новые технологии\n- Поездки на IT-конференции\n\nКонтакты: @artemkuzvesov\n\n—\n\n👉 Обсуждение вакансии в чате @javascript_jobs","markup":[{"type":"hashtag","offset":0,"length":9,"data":"вакансия"},{"type":"hashtag","offset":10,"length":11,"data":"JavaScript"},{"type":"hashtag","offset":22,"length":5,"data":"Node"},{"type":"hashtag","offset":31,"length":13,"data":"Екатеринбург"},{"type":"link","offset":147,"length":15,"data":"tel:30 000 - 80 000"},{"type":"link","offset":192,"length":21,"data":"https://yeticrab.org/"},{"type":"handle","offset":1494,"length":14,"data":"artemkuzvesov"},{"type":"handle","offset":1543,"length":16,"data":"javascript_jobs"}],"date":"2020-06-27T12:12:37+00:00","link":"tg://resolve?domain=javascript_jobs_feed&post=16384","tags":[{"name":"javascript"},{"name":"nodejs"},{"name":"dotnet"},{"name":"web"},{"name":"mobile"},{"name":"html"},{"name":"css"},{"name":"angularjs"},{"name":"reactjs"},{"name":"vuejs"},{"name":"rest"},{"name":"git"},{"name":"graphql"},{"name":"express"},{"name":"electron"},{"name":"python"},{"name":"react-native"}],"cities":[],"allowsRemote":true}},{"node":{"__typename":"Job","id":"17156800512-1001110946746","title":"Js разработчик","text":"#вакансия #москва #middle #remote #angular #fulltime #офис\n\nИщем frontend разработчика для работы над основным сайтом и новыми разделами.\nГород и адрес офиса: Москва, м. Авиамоторная\nФормат работы: Офис\nЗанятость: полная\nЗарплатная вилка: 130 000 — 150 000 на руки по результатам технического собеседования\n\nAutospot.ru — онлайн гипермаркет автомобилей. \n\nВ 2018 году Mitsubishi Corporation и Mail.ru. оценили нас в $19,1 млн.\n\nВ технической команде 17 человек: СТО, 9 PHP разработчиков, 2 frontend разработчика, 3 тестировщика, DevOps.\n\nЧеловек нужен в Москве или готовый в эту самую Москву переехать.\n\nОбязанности:\n▫️Разработка компонентов и адаптация/интеграция сторонних библиотек и плагинов;\n▫️ Верстка новых разделов, кроссбраузерная, адаптивная, валидная;\n▫️ Развитие библиотеки UI компонентов;\n▫️ Оперативное исправление багов на проде (IE 11+);\n▫️ Помощь в оптимизации работы сайта (скорость загрузки, оптимизация DOM).\n\nТребования:\n▪️ Опыт разработки от 2 лет;\n▪️ Знание JavaScript (jQuery в разумных пределах);\n▪️ Уверенное знание html семантическая верстка, БЭМ, SCSS;\n▪️ Знание работы GIT & NPM;\n▪️ Опыт работы с gulp/webpack;\n▪️ Опыт работы с Figma/Zeplin;\n▪️ Опыт работы с векторной графикой (svg и svg-спрайты).\n\nЖелательно:\n◾️ Хорошее знание Vue.js и/или Angular 5+. Работать надо будет и с тем и с другим. Angular 5+ в приоритете, планируется переход полностью на него;\n◾️ Знание инструментов организации разработки Jira;\n◾️ Знание нюансов работы браузеров на разных устройствах и ОС;\n◾️ Опыт сео оптимизации;\n◾️ Понимание, что такое доступные интерфейсы;\n\nУсловия:\n▫️ Комфортабельный офис, БЦ Light Tower, бесплатный шаттл от м. Площадь Ильича;\n▫️ Оформление по ТК РФ с первого рабочего дня;\n▫️ Гибкое начало рабочего дня, с 9 до 11;\n▫️ Возможность работать 1-2 дня удалённо;\n▫️ Полностью белая заработная плата;\n▫️ Неформальная атмосфера и дружный, амбициозный коллектив;\n▫️ Корпоративная скидка на изучение английского языка.\n\nКонтакт: @dianadoma\n\n—\n\n👉 Обсуждение вакансии в чате @javascript_jobs","markup":[{"type":"hashtag","offset":0,"length":9,"data":"вакансия"},{"type":"hashtag","offset":10,"length":7,"data":"москва"},{"type":"hashtag","offset":18,"length":7,"data":"middle"},{"type":"hashtag","offset":26,"length":7,"data":"remote"},{"type":"hashtag","offset":34,"length":8,"data":"angular"},{"type":"hashtag","offset":43,"length":9,"data":"fulltime"},{"type":"hashtag","offset":53,"length":5,"data":"офис"},{"type":"link","offset":308,"length":11,"data":"http://Autospot.ru"},{"type":"link","offset":393,"length":7,"data":"http://Mail.ru"},{"type":"handle","offset":1957,"length":10,"data":"dianadoma"},{"type":"handle","offset":2002,"length":16,"data":"javascript_jobs"}],"date":"2020-06-25T18:01:18+00:00","link":"tg://resolve?domain=javascript_jobs_feed&post=16362","tags":[{"name":"javascript"},{"name":"angularjs"},{"name":"php"},{"name":"jquery"},{"name":"html"},{"name":"git"},{"name":"npm"},{"name":"gulp"},{"name":"webpack"},{"name":"svg"},{"name":"vuejs"}],"cities":[{"code":"moscow"}],"allowsRemote":true}},{"node":{"__typename":"Job","id":"1735393280-1001091028994","title":"Java разработчик","text":"#java #senior #backend #js #Москва #fulltime #офис #angular\nЛокация: Москва, м. Шаболовская\nФормат работы: Office\nЗанятость: Fulltime\nЗарплата от 100 к до 240 к\nОписание вакансии:\nРазработчик JAVA (senior\\middle)\nНаш клиент - международная компания, в связи с расширением деятельности в России - приглашает опытных Java-разработчиков. \nРазработка собственного продукта - коммерческого приложения на основе Angular front + Java backend.\nОбязанности:\n- разработка новых компонентов системы\n- доработка и оптимизация существующих компонентов\n- поддержка качества кода (code review, использование систем автоматизированного контроля кода)\n- Написание юнит-тестов и функциональных тестов\n- Взаимодействие с бизнес-аналитиками для выполнения техзадания\nТребования:\n- Высшее образование\n- Командность, гибкость подходов и мышления\n- опыт разработки на java от 3 лет\nТехнические требования:\n- знание java 8, Spring-*(Boot, Data, Rest), Hibernate\n- опыт работы с SQL (SQL Server, Oracle или postgresql)\n- понимание основ микросервисной архитектуры\n- Git\n-если ты умеешь работать с Docker и понимаешь практики DevOps ты тот, кто нам нужен.\nАдекватных руководителей, сильную команду и офисные плюшки гарантируем\nКА Wit recruitment\nКонтакты m.buldenko@witrec.com\n@marinabuldenko","markup":[{"type":"hashtag","offset":0,"length":5,"data":"java"},{"type":"hashtag","offset":6,"length":7,"data":"senior"},{"type":"hashtag","offset":14,"length":8,"data":"backend"},{"type":"hashtag","offset":23,"length":3,"data":"js"},{"type":"hashtag","offset":27,"length":7,"data":"Москва"},{"type":"hashtag","offset":35,"length":9,"data":"fulltime"},{"type":"hashtag","offset":45,"length":5,"data":"офис"},{"type":"hashtag","offset":51,"length":8,"data":"angular"},{"type":"link","offset":1229,"length":21,"data":"mailto:m.buldenko@witrec.com"},{"type":"handle","offset":1251,"length":15,"data":"marinabuldenko"}],"date":"2020-06-25T09:30:21+00:00","link":"tg://resolve?domain=jvmjobs&post=1655","tags":[{"name":"java"},{"name":"jvm"},{"name":"angularjs"},{"name":"spring"},{"name":"rest"},{"name":"hibernate"},{"name":"sql"},{"name":"oracle"},{"name":"postgresql"},{"name":"git"},{"name":"docker"},{"name":"spring-boot"},{"name":"sql-server"}],"cities":[{"code":"moscow"}],"allowsRemote":false}},{"node":{"__typename":"Job","id":"17146314752-1001110946746","title":"Js разработчик","text":"#вакансия #екб #екатеринбург #react #frontend #middle\n\nПозиция: Разработчик React \nКомпания: SoftMediaLab \nЛокация: Екатеринбург \nФормат работы: #удаленка или  #офис\nЗанятость: #фултайм \nЗП 110 000 - 140 000 рублей на руки\n\nSoftMediaLab – была основана в 2015 году в городе Екатеринбурге. Основатели компании – разработчики, поэтому никакой бюрократии и странных решений, процессы максимально простые и понятные, среда дружественная. \nРазрабатываем в основном стартапы для России, Европы и Америки. \n\nЗадачи: \n- улучшать имеющийся функционал и разрабатывать новый \n- участвовать в принятии архитектурных решений \n\nСтек: react, redux, typescript, bootstrap, material-ui, JQuery, sass, less\n\nРассматриваем также кандидатов, которые  ранее писали на vue.js или angular (от 2х лет), но хотели бы перейти на react\n\nДля связи @Ekaterina_Mitroshkina  или @iamanastasie","markup":[{"type":"hashtag","offset":0,"length":9,"data":"вакансия"},{"type":"hashtag","offset":10,"length":4,"data":"екб"},{"type":"hashtag","offset":15,"length":13,"data":"екатеринбург"},{"type":"hashtag","offset":29,"length":6,"data":"react"},{"type":"hashtag","offset":36,"length":9,"data":"frontend"},{"type":"hashtag","offset":46,"length":7,"data":"middle"},{"type":"hashtag","offset":145,"length":9,"data":"удаленка"},{"type":"hashtag","offset":160,"length":5,"data":"офис"},{"type":"hashtag","offset":177,"length":8,"data":"фултайм"},{"type":"handle","offset":820,"length":22,"data":"Ekaterina_Mitroshkina"},{"type":"handle","offset":848,"length":13,"data":"iamanastasie"}],"date":"2020-06-25T08:48:37+00:00","link":"tg://resolve?domain=javascript_jobs_feed&post=16352","tags":[{"name":"javascript"},{"name":"reactjs"},{"name":"redux"},{"name":"typescript"},{"name":"bootstrap"},{"name":"jquery"},{"name":"sass"},{"name":"vuejs"},{"name":"angularjs"},{"name":"react-redux"}],"cities":[],"allowsRemote":true}},{"node":{"__typename":"Job","id":"17143169024-1001110946746","title":"Js разработчик","text":"#вакансия #remote #frontend #Angularjs #Angular #middle #senior #удаленка \n\nГород: Краснодар\nФормат работы: remote \nЗанятость: fulltime\nВилка: 120-180k net \n\nНемного о нас: \nНа протяжении 14 лет наша команда создает кастомные веб/мобильные приложения и дизайн. \nПриглашаем к сотрудничеству на удаленной постоянно основе опытного разработчика front-end со знанием старой и новой версии Angular (Angular.js/Angular 9). \nПроект:  продукт для крупного бизнеса (USA) \n\nЗадачи: разработка front-end части на Anagular. \n\nНазвание компании: Softlight \n\nТребования: \nОпыт в разработке front-end на Angular от 3-х лет;\nОбязательный опыт работы со старой версией Angular 1.x и новой (Angular 9)\n JavaScript, HTML5/CSS3 \nработа в распределенной команде \n\nМы предлагаем:\n- Полностью удаленную работу\n- Участие в разработке зарубежных продуктов (USA)\n- Пятидневная рабочая неделя ( с 9-10 до 18-19 МСК), госпраздники - выходные\n- Оформление ИП\n- Оплачиваемый отпуск и больничный \n- Работу в слаженной опытной команде \n\nКонтакты: @MikeHR или mzaharov@softlightllc.com","markup":[{"type":"hashtag","offset":0,"length":9,"data":"вакансия"},{"type":"hashtag","offset":10,"length":7,"data":"remote"},{"type":"hashtag","offset":18,"length":9,"data":"frontend"},{"type":"hashtag","offset":28,"length":10,"data":"Angularjs"},{"type":"hashtag","offset":39,"length":8,"data":"Angular"},{"type":"hashtag","offset":48,"length":7,"data":"middle"},{"type":"hashtag","offset":56,"length":7,"data":"senior"},{"type":"hashtag","offset":64,"length":9,"data":"удаленка"},{"type":"handle","offset":1015,"length":7,"data":"MikeHR"},{"type":"link","offset":1027,"length":25,"data":"mailto:mzaharov@softlightllc.com"}],"date":"2020-06-25T08:30:01+00:00","link":"tg://resolve?domain=javascript_jobs_feed&post=16349","tags":[{"name":"javascript"},{"name":"angularjs"},{"name":"dotnet"},{"name":"html"},{"name":"css"}],"cities":[{"code":"krasnodar"}],"allowsRemote":true}},{"node":{"__typename":"Job","id":"91576336384-1001067529236","title":"Python разработчик","text":"#вакансия #москва #офис #fulltime #backed #developer #python #вакансия\n \nКомпания: MillionAgents\nГород: Москва (м. Новослободская)\nФормат работы: офис\nЗанятость: полная, гибкое начало дня, пару дней в неделю удаленно\nЗП: от 100.000 до 120.000 руб. на руки.\n \nО компании: \nНаша компания проводит маркетинговые исследования для крупных торговых сетей: собираем, обрабатываем и структурируем данные. Для этого мы разработали онлайн-платформу, с помощью которой управляем массовым персоналом по всей стране в режиме 24/7, а это сотни тысяч пользователей и десятки внутренних сервисов.\nВ проект Retail Intelligence входит:\n- Ценовой мониторинг крупных ритейлеров, работающих на территории РФ;\n- Обработка данных, связанных с товарными единицами (SKU) по фотографиям из торговых точек;\n- Розничные исследования - аналитика динамики цен, отсутствия товарного запаса (out of stock);\n- Получение и обработка данных розничной торговли из открытых источников, предоставление аналитических отчётов на основе этих данных\n\nСейчас мы в поиске  Python разработчика со знанием Django.\n \nОсновная задача: \nСоздавать и поддерживать сервисы в стеке технологий Python/Django и, в меньшей степени, Golang. Также в дальнейшем будет задача по рефактору приложения на Ruby on Rails. Взаимодействие предстоит с одним старшим разработчиком, который и будет ставить задачи. Первоначально будет строгое код-ревью.                                                                                                                                                                                                                                                      Взаимодействие: jira, git.                                                                                                                                                                                                                                                    Что нужно знать и уметь: \n- Знание одной из следующих технологий/языков программирования на уровне джун+/middle: Python/Django, Ruby/Rails;\n- Опыт работы с PostgreSQL;\n- Опыт написания интеграционных тестов;\n- Базовое знание UNIX-систем.Круто, если: \n- Есть опыт администрирования БД (создание таблиц/индексов, дамп таблиц, оптимизация);\n- Есть базовое знание JS-фреймворков, вроде Angular или React;\n- Есть базовое знание одного из следующих языков программирования: Golang, Java/Kotlin, Elixir;\n- Есть понимание работы хранилищ данных в памяти, вроде Redis;\n- Есть опыт работы с менеджерами очередей, вроде RabbitMQ или Apache Kafka;\n- Есть опыт работы с Docker и Jenkins\n                                                                                                                                                                                                                                                                                     Почему именно мы:\n-  Светлый офис с большими окнами у метро Новослободская;\n-  График 5/2, начало рабочего дня с 10:00 - 12:00 часов;\n-  Возможность работать пару дней в неделю удаленно;\n-  Никакой бюрократии;\n-  Очередь технических задач;\n-  Технически грамотное руководство;\n-  Официальное трудоустройство                                                                                                                                                                                                                                 По всем вопросам можно писать в личные сообщения @svetafeeva","markup":[{"type":"hashtag","offset":0,"length":9,"data":"вакансия"},{"type":"hashtag","offset":10,"length":7,"data":"москва"},{"type":"hashtag","offset":18,"length":5,"data":"офис"},{"type":"hashtag","offset":24,"length":9,"data":"fulltime"},{"type":"hashtag","offset":34,"length":7,"data":"backed"},{"type":"hashtag","offset":42,"length":10,"data":"developer"},{"type":"hashtag","offset":53,"length":7,"data":"python"},{"type":"hashtag","offset":61,"length":9,"data":"вакансия"},{"type":"handle","offset":3432,"length":11,"data":"svetafeeva"}],"date":"2020-06-22T10:19:47+00:00","link":"tg://resolve?domain=python_jobs&post=0","tags":[{"name":"python"},{"name":"django"},{"name":"go"},{"name":"ruby"},{"name":"ruby-on-rails"},{"name":"git"},{"name":"postgresql"},{"name":"unix"},{"name":"angularjs"},{"name":"reactjs"},{"name":"java"},{"name":"kotlin"},{"name":"elixir"},{"name":"redis"},{"name":"rabbitmq"},{"name":"apache"},{"name":"kafka"},{"name":"docker"},{"name":"jenkins"}],"cities":[{"code":"moscow"}],"allowsRemote":true}},{"node":{"__typename":"Job","id":"17098080256-1001110946746","title":"Js developer","text":"#вакансия #JavaScript #middle #senior #FrontEnd #удаленно #офиc #Москва #СПБ #Екатеринбург #Ростов-на Дону\n📣Приглашаем middle/senior JavaScript FrontEnd Developer в новый проект от Сбербанка.\n\n💸Уровень ЗП: от 170 000 до 280 000 руб. net. (обсуждается!).\n\n✍🏻Оформление: штат компании партнера или ИП. Занятость: полная.\n\n📍Локация: офис (Москва Кутузовский пр-т 32/1). Или удалено с возможностью посещать офис: СПБ, Екатеринбург, Ростов-на Дону.\n\n🏢О проекте: В рамках стратегической программы «Создание платформы поддержки развития бизнеса» наша команда разрабатывает линейку продуктов Cash Management. Продукта корпоративного блока, предоставляющий функции управления финансовыми потоками для предприятий и корпораций с развитой филиальной сетью. Линейка продуктов содержит порядка 10 продуктов, направленных на управление всеми счетами холдинга единым казначейством. Основная задача – перевод линейки продуктов из Legacy АС на целевые платформы банка и перевод управления продуктами в удаленные каналы обслуживания.\n\n🎯Ваши будущие задачи :\n- проектирование решения, в том числе разработка детальной внутренней архитектуры сервиса, включая интеграционные сценарии;\n- детальное проектирование интеграции со смежными сервисами (в том числе API);\n- разработка программного продукта, внесение изменений в код;\n- разработка автоматических модульных тестов, автоматических скриптов и тестов развертывания.\n\n🤝Мы ожидаем от вас:\n• опыт от 2х лет разработки высоко-нагруженных и отказоустойчивых фронтальных систем;\n• прекрасное знание JavaScript, React;\n• экспертное знание HTML, HTML5, SASS/LESS/CSS;\n• опыт работы с js-фреймоврками (например, Backbone, Angular, React, Reflux), REST-сервисами, Webpack, Bootstrap, Ionic, Foundation;\n• понятие о принципах разработки ПО, ООП, паттернах проектирования;\n• умение разрабатывать прототипы UI с помощью, например, Axure, Pixate, Invision, Proto.io и т.д.\n\nЖду Ваши резюме и буду рада ответить на все вопросы. Прекрасного дня!☺️\nКонтакты для связи: telegram @anisimovaane4ka\n\n—\n\n👉 Обсуждение вакансии в чате @javascript_jobs","markup":[{"type":"hashtag","offset":0,"length":9,"data":"вакансия"},{"type":"hashtag","offset":10,"length":11,"data":"JavaScript"},{"type":"hashtag","offset":22,"length":7,"data":"middle"},{"type":"hashtag","offset":30,"length":7,"data":"senior"},{"type":"hashtag","offset":38,"length":9,"data":"FrontEnd"},{"type":"hashtag","offset":48,"length":9,"data":"удаленно"},{"type":"hashtag","offset":58,"length":5,"data":"офиc"},{"type":"hashtag","offset":64,"length":7,"data":"Москва"},{"type":"hashtag","offset":72,"length":4,"data":"СПБ"},{"type":"hashtag","offset":77,"length":13,"data":"Екатеринбург"},{"type":"hashtag","offset":91,"length":7,"data":"Ростов"},{"type":"link","offset":1883,"length":8,"data":"http://Proto.io"},{"type":"handle","offset":2001,"length":16,"data":"anisimovaane4ka"},{"type":"handle","offset":2052,"length":16,"data":"javascript_jobs"}],"date":"2020-06-21T15:22:14+00:00","link":"tg://resolve?domain=javascript_jobs_feed&post=16306","tags":[{"name":"javascript"},{"name":"dotnet"},{"name":"reactjs"},{"name":"html"},{"name":"sass"},{"name":"css"},{"name":"backbonejs"},{"name":"angularjs"},{"name":"rest"},{"name":"webpack"},{"name":"bootstrap"}],"cities":[{"code":"moscow"},{"code":"rostov"}],"allowsRemote":true}},{"node":{"__typename":"Job","id":"107685609472-1001119539411","title":".net программист","text":"#вакансия #Беларусь #fulltime #офис #remote #dotnet\nЛокация: удалёнка (для особо желающих есть и офис)\nВакансия открыта только для резидентов РБ (ну или для всех, кто сможет открыть себе валютный счёт в белорусском банке)\n\nКомпания Capital Asset Exchange and Trading (CAE, caeonline.com) ищет:\n🔥 fullstack (C# Angular REST SQL) программистов (открыто несколько вакансий уровня middle и senior) в наш Отдел разработки программного обеспечения. Команда занимается разработкой и поддержкой специализированного ПО для нашей компании. Technology stack: .NET/C#, Angular, ASP.NET Core, MVC, SQL Server, MS Azure.\n\nЗарплата от 1500 долларов чистыми и выше, в зависимости от опыта работы соискателя.\n\nОбращайтесь за подробностями!","markup":[{"type":"hashtag","offset":0,"length":9,"data":"вакансия"},{"type":"hashtag","offset":10,"length":9,"data":"Беларусь"},{"type":"hashtag","offset":20,"length":9,"data":"fulltime"},{"type":"hashtag","offset":30,"length":5,"data":"офис"},{"type":"hashtag","offset":36,"length":7,"data":"remote"},{"type":"hashtag","offset":44,"length":7,"data":"dotnet"},{"type":"link","offset":273,"length":13,"data":"http://caeonline.com"},{"type":"link","offset":567,"length":7,"data":"http://ASP.NET"}],"date":"2020-06-21T13:39:05+00:00","link":"tg://resolve?domain=microsoftstackjobs&post=0","tags":[{"name":"dotnet"},{"name":"csharp"},{"name":"angularjs"},{"name":"rest"},{"name":"sql"},{"name":"azure"},{"name":"asp-net"},{"name":"net-core"},{"name":"sql-server"},{"name":"asp-net-core"}],"cities":[],"allowsRemote":true}},{"node":{"__typename":"Job","id":"26477592576-1001075660570","title":"Php разработчик","text":"🏡 При публикации вакансии необходимо указать город и станцию метро (или ближайший ориентир). Если возможна удалённая работа – надо об этом указать явно. \n\n🔵 В группе есть традиция - представляться при входе:\n\n▫️Какой у вас проект или где работаете?\n▫️В чём вы специалист?\n▫️Чем можете быть интересны или полезны сообществу?\n▫️Чем интересно сообщество вам? Что вы ищите?\n▫️Откуда вы?\n▫️Как узнали про группу?\nВ сообщении нужно указать тэг #whois\n\n🔵 Правила чата: \n\n🚫 Реклама запрещена\n🚫 Политика запрещена\n🚫 Флуд и оффтопик запрещён\n🚫 Нецензурная лексика запрещена\n\nЗа несоблюдение правил - одно предупреждение, далее следует бан.\n\nЗдесь публикуем вакансии (указывая тэг #вакансия) и запросы на поиск работы (указывая тэг #ищу) по направлению PHP, Laravel, Symfony, Yii и т.д. Формат любой: full-time, part-time, remote и разовые подработки. Также обмениваемся инсайдами и аналитикой по рынку труда.\n\nЗаметили нарушение? Обратитесь, пожалуйста, к модераторам:\n🔸@Ddonalld \n🔸@DenisIzmaylov\n\n🔵 Параллельно с этой группой развиваются другие группы с вакансиями, запросами на поиск работы и аналитикой по рынку труда в разных направлениях:\n\n🔸@qa_jobs – по всем видам тестирования, его автоматизации и т.д. \n🔸@mobile_jobs – по направлению iOS, Android, Xamarin и т.д.\n🔸@javascript_jobs – по JavaScript, React.js, Node.js, React Native и пр.\n🔸@devops_jobs – по направлению DevOps, Docker, CoreOS, Kubernetes и пр\n🔸@uiux_jobs –  по направлению дизайна UI, UX, Design Thinking, Style Guides, Mobile и т.д.\n🔸@products_jobs – по управлению продуктами, Growth Hacking, Cust Dev, Design Thinking, UX.\n\n🌎 Возможно, вам также будут интересны группы: @qa_ru, @android_ru, @ios_ru, @reactnative_ru, @react_js, @nodejs_ru, @angularjs_ru, @angular2, @devops_ru, @uiux_ru, @products_, @agile_ru, @selfdev_ru. Приятного общения!","markup":[{"type":"hashtag","offset":440,"length":6,"data":"whois"},{"type":"hashtag","offset":677,"length":9,"data":"вакансия"},{"type":"hashtag","offset":728,"length":4,"data":"ищу"},{"type":"handle","offset":968,"length":9,"data":"Ddonalld"},{"type":"handle","offset":981,"length":14,"data":"DenisIzmaylov"},{"type":"handle","offset":1147,"length":8,"data":"qa_jobs"},{"type":"handle","offset":1214,"length":12,"data":"mobile_jobs"},{"type":"handle","offset":1275,"length":16,"data":"javascript_jobs"},{"type":"handle","offset":1349,"length":12,"data":"devops_jobs"},{"type":"handle","offset":1421,"length":10,"data":"uiux_jobs"},{"type":"handle","offset":1513,"length":14,"data":"products_jobs"},{"type":"handle","offset":1651,"length":6,"data":"qa_ru"},{"type":"handle","offset":1659,"length":11,"data":"android_ru"},{"type":"handle","offset":1672,"length":7,"data":"ios_ru"},{"type":"handle","offset":1681,"length":15,"data":"reactnative_ru"},{"type":"handle","offset":1698,"length":9,"data":"react_js"},{"type":"handle","offset":1709,"length":10,"data":"nodejs_ru"},{"type":"handle","offset":1721,"length":13,"data":"angularjs_ru"},{"type":"handle","offset":1736,"length":9,"data":"angular2"},{"type":"handle","offset":1747,"length":10,"data":"devops_ru"},{"type":"handle","offset":1759,"length":8,"data":"uiux_ru"},{"type":"handle","offset":1769,"length":10,"data":"products_"},{"type":"handle","offset":1781,"length":9,"data":"agile_ru"},{"type":"handle","offset":1792,"length":11,"data":"selfdev_ru"}],"date":"2020-06-19T15:11:52+00:00","link":"tg://resolve?domain=php_jobs&post=25251","tags":[{"name":"php"},{"name":"laravel"},{"name":"symfony"},{"name":"yii"},{"name":"mobile"},{"name":"ios"},{"name":"android"},{"name":"xamarin"},{"name":"javascript"},{"name":"reactjs"},{"name":"nodejs"},{"name":"docker"},{"name":"kubernetes"},{"name":"angularjs"},{"name":"react-native"}],"cities":[],"allowsRemote":true}},{"node":{"__typename":"Job","id":"17042505728-1001110946746","title":"Js developer","text":"#вакансия  #frontend #angular #js #javascript \nПозиция: Frontend developer (Middle)\nФормат работы: удаленка\nЗанятость: полная\nЗарплатная вилка: 70 000-100 000 на руки\nЗадача: помогать автоматизировать бизнес-процессы наших клиентов.\nТребования:\n-уверенное знание базовых технологий JavaScript, Angular,Typescript, HTML, CSS;\nТочно надо будет использовать:\n-Нативный JS, ES6+\n-Angular\n-Typescript\n-Кроссбраузерная вёрстка\n-S-ass/SCSS, методология БЭМ\n-Git\nКонтакты: @hr_anya, почта:a.konovalovahr@gmail.com\n\n—\n\n👉 Обсуждение вакансии в чате @javascript_jobs","markup":[{"type":"hashtag","offset":0,"length":9,"data":"вакансия"},{"type":"hashtag","offset":11,"length":9,"data":"frontend"},{"type":"hashtag","offset":21,"length":8,"data":"angular"},{"type":"hashtag","offset":30,"length":3,"data":"js"},{"type":"hashtag","offset":34,"length":11,"data":"javascript"},{"type":"handle","offset":465,"length":8,"data":"hr_anya"},{"type":"link","offset":475,"length":30,"data":"http://почта:a.konovalovahr@gmail.com"},{"type":"handle","offset":540,"length":16,"data":"javascript_jobs"}],"date":"2020-06-18T20:57:43+00:00","link":"tg://resolve?domain=javascript_jobs_feed&post=0","tags":[{"name":"javascript"},{"name":"angularjs"},{"name":"typescript"},{"name":"html"},{"name":"css"},{"name":"git"}],"cities":[],"allowsRemote":true}}]}}},"context":{}}