{"hash":"f34fd2c444a074f4e0e67d525015a008ef8e766f","data":{"records":{"totalCount":178,"pageInfo":{"totalPages":18,"currentPage":15},"edges":[{"node":{"id":"1928331264-1001134745498","title":"Devops инженер","text":"#вакансия #remote #DevOps #MSBuild #Microsoft\nКомпания: #Softwareconsultingsolutions\nФормат работы: удаленка\nЗанятость: полная\nЗарплатная вилка: от $2500 до $4000\n\nВсем, привет.\nЯ рекрутер проектов разработки ПО для американских и мировых IT компаний, таких как Facebook, Amazon, Google и др.\nИщу DevOps/Build Engineer на MS проект.\n\n👉🏼Что нужно делать?\nЭто Azure build команда - фактически на первом рубеже провижининга новых облачных сервисов.\nDevOps инженеры проекта занимаются исследованием проблем производительности системы сборки для управления жизненным циклом приложений. Основной упор на MS Build и именно оптимизация билда. Т.е. не CI/CD, а именно сбилдить овердофига С# проектов.\n\n👉🏼Что нужно уметь?\nИметь опыт билд инженера, оптимизации времени билда больших солюшенов (в основном .Net но могут попадаться и другие, от С++ до Javascript), опыт кастомизации вручную csproj файлов, оптимизаций зависимостей проектов, организации параллельного билда проекта на кластере.\nНужно знать Powershell, Bash, MSBuild, cmd, Azure.\nРазговорный английский, очень важен.\n\n👉🏼Что предлагаем?\nНаслаждайтесь удаленной работой и гибким рабочим временем.\nУчастие в создании высокотехнологичных продуктов, которыми пользуются миллионы пользователей по всему миру.\n\nПодробности по вакансии тут: http://bit.ly/DevOpsBuild-MS\n\nВот мой telegram, пишите, все обсудим: @yerbamateya\n\n—\n\n👉 Обсуждение вакансии в чате @devops_jobs","markup":[{"type":"hashtag","offset":0,"length":9,"data":"вакансия"},{"type":"hashtag","offset":10,"length":7,"data":"remote"},{"type":"hashtag","offset":18,"length":7,"data":"DevOps"},{"type":"hashtag","offset":26,"length":8,"data":"MSBuild"},{"type":"hashtag","offset":35,"length":10,"data":"Microsoft"},{"type":"hashtag","offset":56,"length":28,"data":"Softwareconsultingsolutions"},{"type":"link","offset":1291,"length":28,"data":"http://bit.ly/DevOpsBuild-MS"},{"type":"handle","offset":1360,"length":12,"data":"yerbamateya"},{"type":"handle","offset":1407,"length":12,"data":"devops_jobs"}],"date":"2020-03-23T09:09:34+00:00","link":"tg://resolve?domain=devops_jobs_feed&post=1839","tags":[{"name":"msbuild"},{"name":"azure"},{"name":"dotnet"},{"name":"javascript"},{"name":"powershell"},{"name":"bash"}],"cities":[],"allowsRemote":true}},{"node":{"id":"1927282688-1001134745498","title":"Devops инженер","text":"#вакансия #DevOps #новосибирск \n\nГород: Новосибирск - на выбор два офиса - Академгородок или центр города (метро пл.Ленина)\nФормат работы: офис\nЗанятость: полная\nЗарплатная вилка: от 120 до 180 на руки (готовы смотреть выше) \n\nPushwoosh – глобальный хайлоад продукт для разработчиков и владельцев мобильных приложений и сайтов. Мы предоставляем решения для отправки пуш-уведомлений как стартапам, так и компаниям с многомиллионными аудиториями, и обрабатываем более двух миллиардов API-запросов ежедневно. \n\nЗадачи:\nподготавливать и поддерживать K8s-кластер, мониторинг (Prometheus), ansible, storage(CEPH), databases(mongodb, postgresql), очереди/in-mem(redis, kafka, rabbit). \nВсё до момента консампшена командой разработки. \n\nТребования:\n- Advanced Linux user (в идеале CentOS и RHEL);\n- Любой скриптовый язык (bash, python, etc...)\n- Хорошо знать хотя бы одну систему управления конфигами (у нас Ansible, но будем смотреть и людей с puppet, chef, terraform, etc.) \n\nРабота в офисе, не удаленка\nБелые, ДМС, фитнес, английский, курсы и т.д.  \n\nКонтакты: @glad2seeyou\n\n—\n\n👉 Обсуждение вакансии в чате @devops_jobs","markup":[{"type":"hashtag","offset":0,"length":9,"data":"вакансия"},{"type":"hashtag","offset":10,"length":7,"data":"DevOps"},{"type":"hashtag","offset":18,"length":12,"data":"новосибирск"},{"type":"handle","offset":1056,"length":12,"data":"glad2seeyou"},{"type":"handle","offset":1103,"length":12,"data":"devops_jobs"}],"date":"2020-03-23T07:48:51+00:00","link":"tg://resolve?domain=devops_jobs_feed&post=1838","tags":[{"name":"ansible"},{"name":"mongodb"},{"name":"postgresql"},{"name":"redis"},{"name":"kafka"},{"name":"rabbitmq"},{"name":"linux"},{"name":"centos"},{"name":"bash"},{"name":"python"}],"cities":[{"code":"novosibirsk"}],"allowsRemote":true}},{"node":{"id":"1925185536-1001134745498","title":"Devops инженер","text":"#вакансия\nСистемный архитектор \nГород и адрес офиса:  г. Москва, по адресу ул. Гиляровского\nФормат работы: Офис/ удаленка\nЗанятость: полная \nЗарплатная вилка: от 280 000 рублей до 300 000 рублей (можно обсудить) \nОпыт работы: от 3-ех лет \nКомпания ЦТР, занимающаяся созданием инновационных продуктов и высокотехнологичных цифровых сервисов в сфере ритейла, ищет системного архитектора в свою команду. \nhttps://e-tag.pro/# \nЧто нужно делать: \n1. Проектировать архитектуру системы, организовать и проводить R&D. \n2. Построение архитектуры, включая: \n-Анализ требований к информационной системе. \n-Разработку концепций интеграции данных. \n-Взаимодействие компонентов и микросервисов. \n-Разработку технической и проектной документации. \n-Описание работы отдельных модулей и всей системы. \n-Разработку ключевых технических сценариев взаимодействия компонентов и микросервисов. \n-Выбор протоколов взаимодействия компонентов (проектирование технических интерфейсов). \nТребования к кандидату: \n-опыт работы *nix-системы от 5 лет (Linux, FreeBSD, Ubuntu, Debian); \n-масштабировании сложных систем потоковой обработки данных со стеком Spark, Python, Apache Kafka, PostgreSQL версии 11.00 или другой SQL Database. \n-опыт работы с микросервисной архитектурой, RESTfull API, контейнерной виртуализацией, асинхронными сообщениями и облачными технологиями, unit- и интеграционными тестами, многопоточностью; \nнавыки проектирования баз данных; \n-опыт работы в Jira, Confluence и так далее. \nУсловия: \n-официально оформление по ТК РФ \n-белая ЗП, от 280 000 рублей (можно обсудить) \n-работа в офисе или удаленно.\nКонтакт: @Galina_Ekimova\n\n—\n\n👉 Обсуждение вакансии в чате @devops_jobs","markup":[{"type":"hashtag","offset":0,"length":9,"data":"вакансия"},{"type":"link","offset":402,"length":19,"data":"https://e-tag.pro/#"},{"type":"handle","offset":1604,"length":15,"data":"Galina_Ekimova"},{"type":"handle","offset":1654,"length":12,"data":"devops_jobs"}],"date":"2020-03-23T07:48:13+00:00","link":"tg://resolve?domain=devops_jobs_feed&post=1836","tags":[{"name":"linux"},{"name":"ubuntu"},{"name":"debian"},{"name":"python"},{"name":"apache"},{"name":"kafka"},{"name":"postgresql"},{"name":"sql"}],"cities":[{"code":"moscow"}],"allowsRemote":true}},{"node":{"id":"1924136960-1001134745498","title":"Devops инженер","text":"#devops  #middle  #senior #вакансия\n\nВсем добрый вечер\n\nЯ ищу Ведущего devops / системного инженера в компанию,  которая занимается разработкой системного интегратора ПО в области виртуализации и облачных технологий.\n\nЧто хотят:\nЖелательно - высшее профильное образование и соответствующий опыт работы от 3-5 лет\nОС: Linux, Unix\nCI/CD: Jenkins, Teamcity, Travis и аналоги\nКонтейнеры: Docker\nВеб-сервисы: Ngnix, UWSGI\nМониторинг/алертинг: AppDynamics, Nagios, Zabbix etc.\nОпыт администрирования реплицированных СУБД (PostgreSQL или MariaDB, MongoDB)\nОпыт работы с elasticsearch/logstash/kibana\nAnsible, Salt\nОпыт администрирования облачных серверов (например - под платформами Amazon EC2, GoogleCloud, VmWare vSphere, OpenStack или прочих)\n\nПлюсами будут:\nустановка/обслуживание - Reverse Proxy (Nginx …), caсhing\nserver (Squid, Nginx etc.)\nустановка/обслуживание - load balancer (HAProxy, Nginx, etc.)\nBash Scripts.\nProcess Monitoring: ps, top, htop, atop, .. etc\nSystem Performance: nmon, iostat, sar, vmstat etc\nNetworking: nmap, tcpdump, ping, traceroute, airmon, etc.\nkubernetes/docker swarm\n\nОсновные обязанности:\nРазвертка контуров (dev, qas, prod)\nPerformance тестирование, нагрузочное тестирование\nСборка и обновление из репозиториев\nПоиск и устранение проблем\n\nЧто дают:\nХорошая ЗП. от 120 000 руб. до 200.000 по результатам собеседования.\nВозможна удаленная работа \nТак же есть возможность работы в офисе.\nг. Москва Сколково, возможна работа из офиса в г. Санкт-Петербурге и г Нижний Новогород (ул Грузинская).\n\nКомпания: http://asdtech.co/\n\nКонтакты: @mayke_kin\n\n—\n\n👉 Обсуждение вакансии в чате @devops_jobs","markup":[{"type":"hashtag","offset":0,"length":7,"data":"devops"},{"type":"hashtag","offset":9,"length":7,"data":"middle"},{"type":"hashtag","offset":18,"length":7,"data":"senior"},{"type":"hashtag","offset":26,"length":9,"data":"вакансия"},{"type":"link","offset":1532,"length":18,"data":"http://asdtech.co/"},{"type":"handle","offset":1562,"length":10,"data":"mayke_kin"},{"type":"handle","offset":1607,"length":12,"data":"devops_jobs"}],"date":"2020-03-21T19:32:19+00:00","link":"tg://resolve?domain=devops_jobs_feed&post=1835","tags":[{"name":"linux"},{"name":"unix"},{"name":"jenkins"},{"name":"docker"},{"name":"postgresql"},{"name":"mariadb"},{"name":"mongodb"},{"name":"elasticsearch"},{"name":"logstash"},{"name":"ansible"},{"name":"nginx"},{"name":"bash"},{"name":"kubernetes"}],"cities":[{"code":"moscow"}],"allowsRemote":true}},{"node":{"id":"675282944-1001089319619","title":"Ruby разработчик","text":"#работа #Full-stack #RoR #React  #офис #полный_день_после_каратнтина #Минск #OTS\n\n📌Full-stack Engineer at LunaLabs \nLuna Labs разрабатывает инструменты для создания HTML5 игр и интерактивных реклам на основе Unity. Помимо собственного JS движка мы занимаемся разработкой и поддержкой платформы Luna Playground, в которой разработчики могут управлять своими приложениями, собирать билды для разных вендоров, анализировать статистику, проводить A/B тестирование и многое другое.\nМы ищем Full-stack разработчика, который поможет нам быстрее развивать Luna Playground, а именно: добавлять новые фичи, организовывать деплоймент и поддерживать качество продукта на должном уровне.\n\n📌Задачи:\n- Разработка и поддержка фронтэнда и бэкэнда Luna Playground;\n- Проектирование и разработка новых сервисов и интеграция в Luna Playground;\n- Поддержка, постоянный рефакторинг и улучшение кода;\n\n📌Мы ожидаем, что у Вас будет:\n- От 3 лет опыта коммерческой разработки JavaScript;\n- От 3 лет опыта коммерческой разработки на Ruby on Rails и React;\n- Уверенное знание React;\n- Опыт работы с реляционными СУБДж\n- Базовые знания HTML/CSS;\n- Отличное знание ООП, принципов SOLID, методологий ТDD, BDD;\n- Опыт написания юнит-тестов и интеграционных тестов;\n- Опыт использования продуктов от Atlassian: Jira, Bitbucket, Confluence и др.;\n- Высокий уровень самостоятельности, ответственности и инициативы;\n- Английский язык от уровня B2+.\n\n📌Будет плюсом:\n- Знание AWS (преимущественно EC2, Lambda);\n- Опыт работы с Docker (docker-compose, docker swarm);\n- Опыт работы с высоконагруженными приложениям;\n- Опыт работы с Clickhouse.\n\n📌Мы предлагаем взамен:\n- Работу в высокопрофессиональной команде. Неформальную и дружную атмосферу в коллективе;\n- Официальное оформление по контракту, оплачиваемый отпуск - 25 календарных дней, \n- 100% оплата больничных листов;\n- 5 sick days в год без подтверждающих документов;\n- Заработную плату, защищенную от инфляции с регулярным пересмотром условий компенсации;\n- Гибкий рабочий график и свобода действий;\n- Возможность частичной удаленной работы по согласованному с заказчиком графику;\n- Курсы английского языка 2 раза в неделю в офисе за счет компании;\n- Релокационный бонус на случай переезда из другой страны;\n- Удобное месторасположение в центре Минска в 2-х минутах от ст.м. Молодежная по адресу: ул. Пинская 28а;\n- Комфортабельный и благоустроенный оупен-спейс с организованной кухней по домашнему типу со свежими фруктами, йогуртами, кофемашиной, сладостями и печеньем;\n- Комфортное рабочее место, топовое железо и оборудование для работы по запросу сотрудника (по умолчанию Mac);\n- Яркую и запоминающуюся корпоративную жизнь: корпоративы 2 раза в год, подарки сотрудникам в честь жизненных событий, еженедельные pizza-fridays с настольными играми.\n\nЗ/П: $3500-4000\n\nПрисоединяйтесь - будет круто!\nПо всем вопросам и за дополнительной информацией обращайтесь к Ксюше Павловой @ksusha_psy","markup":[{"type":"hashtag","offset":0,"length":7,"data":"работа"},{"type":"hashtag","offset":8,"length":5,"data":"Full"},{"type":"hashtag","offset":20,"length":4,"data":"RoR"},{"type":"hashtag","offset":25,"length":6,"data":"React"},{"type":"hashtag","offset":33,"length":5,"data":"офис"},{"type":"hashtag","offset":39,"length":29,"data":"полный_день_после_каратнтина"},{"type":"hashtag","offset":69,"length":6,"data":"Минск"},{"type":"hashtag","offset":76,"length":4,"data":"OTS"},{"type":"handle","offset":2901,"length":11,"data":"ksusha_psy"}],"date":"2020-03-21T16:17:24+00:00","link":"tg://resolve?domain=rubyjob&post=644","tags":[{"name":"ruby"},{"name":"ruby-on-rails"},{"name":"reactjs"},{"name":"html"},{"name":"unity3d"},{"name":"javascript"},{"name":"css"},{"name":"amazon-web-services"},{"name":"aws-lambda"},{"name":"docker"},{"name":"docker-compose"}],"cities":[{"code":"minsk"}],"allowsRemote":true}},{"node":{"id":"1923088384-1001134745498","title":"Devops engineer","text":"#вакансия #DevOps #fulltime #спб #офис\n\nПривет!\n\nТребуется DevOps Engineer. ЗП 120-200тр/мес\n\nВ Sreda Solutions, создающей передовые продукты в automotive сфере требуется опытный DevOps, способный координировать процесс разработки проектов.\n\nОсновные задачи:\nОбеспечение процесса DevOps на проектах \nСоздание конфигураций для размещения проектов в Kubernetes.\nРазмещение проектов в кластере Kubernetes.\nОбеспечение процесса CI/CD.\nОбеспечение отказоустойчивости и масштабируемости проектов, размещенных в Kubernetes\n\nТребования к квалификации:\nОпыт с Docker от 3-х лет.\nОпыт с Kubernetes от 2-х лет.\nОпыт создания распределенных высоконагруженных масштабируемых отказоустойчивых систем с использованием Kubernetes\nЗнание английского языка на уровне чтения технической документации\nУмение следовать Agile процессу.\n\nБудет плюсом:\nОпыт разворачивания распределенных нагруженных баз данных (PostgresSQL), брокеров сообщений (Kafka), систем обработки данных (Spark)\n\nМы предлагаем:\nОфициальное трудоустройство по ТК \nГибкий график работы с учетом индивидуальных потребностей\nВозможность периодически работать удалённо\n\nПисать: Sreda \n\nПитер, м. Елизаровская\n\n—\n\n👉 Обсуждение вакансии в чате @devops_jobs","markup":[{"type":"hashtag","offset":0,"length":9,"data":"вакансия"},{"type":"hashtag","offset":10,"length":7,"data":"DevOps"},{"type":"hashtag","offset":18,"length":9,"data":"fulltime"},{"type":"hashtag","offset":28,"length":4,"data":"спб"},{"type":"hashtag","offset":33,"length":5,"data":"офис"},{"type":"handle","offset":1188,"length":12,"data":"devops_jobs"}],"date":"2020-03-20T14:46:15+00:00","link":"tg://resolve?domain=devops_jobs_feed&post=1834","tags":[{"name":"kubernetes"},{"name":"docker"},{"name":"kafka"}],"cities":[],"allowsRemote":true}},{"node":{"id":"674234368-1001089319619","title":"Ruby разработчик","text":"#работа #RoR #офис #полный_день_после_каратнтина #Минск #OTS\n\n📌Ruby Engineer at Tripledot Studios \n\nOn The Spot Development в поисках Ruby Engineer для работы над проектом от британского заказчика-разработчика и издателя казуальных игр Tripledot Studios https://tripledotstudios.com/\nTripledot Studios была основана в 2017 году в Лондоне. В 2018 году привлекла 8 млн. долларов инвестиций и за короткий промежуток времени вышла на уровень самоокупаемости. В белорусском центре разработки на данный момент команда работает 6 играми и разрабатывает серверные решения для маркетинга и аналитики, а также планирует запускать новые игры.\nМы ищем творчески настроенного Ruby-разработчика, который пополнит наш серверный коллектив.\n📌Задачи:\n- Написание высококачественного кода, работа с задачами, связанными с проектированием серверной части;\n- Поддержка и развертывание облачной инфраструктуры;\n- Написание автотестов;\n- Для нас очень важно умение слушать и выражать свои мысли на английском языке, каждый день, в устной и письменной формах.\n\n📌Пожелание к кандидату:\n- Высокий технический уровень в области сервер-сайд разработки, опыт работы и четкое понимание стека Ruby & Ruby on Rails;\n- Уверенная работа с базами данных (MySQL/Postgresql);\n- Опыт построения и развертывания продакшн API;\n- Опыт работы с docker и оркестраторами (kubernetis, swarm, mesos, ...);\n- Знание компонентов AWS таких, как EC2, S3, Lambda;\n- Базовые знания по работе в Linux среде;\n- Redis/memcache.\n\n📌Мы предлагаем взамен:\n- Работу в высокопрофессиональной команде. Неформальную и дружную атмосферу в коллективе;\n- Официальное оформление по контракту, оплачиваемый отпуск - 25 календарных дней, \n- 100% оплата больничных листов;\n- 5 sick days в год без подтверждающих документов;\n- Заработную плату, защищенную от инфляции с регулярным пересмотром условий компенсации;\n- Гибкий рабочий график и свобода действий;\n- Возможность частичной удаленной работы по согласованному с заказчиком графику;\n- Курсы английского языка 2 раза в неделю в офисе за счет компании;\n- Релокационный бонус на случай переезда из другой страны;\n- Удобное месторасположение в центре Минска в 2-х минутах от ст.м. Молодежная по адресу: ул. Пинская 28а;\n- Комфортабельный и благоустроенный оупен-спейс с организованной кухней по домашнему типу со свежими фруктами, йогуртами, кофемашиной, сладостями и печеньем;\n- Комфортное рабочее место, топовое железо и оборудование для работы по запросу сотрудника (по умолчанию Mac);\n- Яркую и запоминающуюся корпоративную жизнь: корпоративы 2 раза в год, подарки сотрудникам в честь жизненных событий, еженедельные pizza-fridays с настольными играми.\n\nЗ/П: $1500-2500 \n\nПрисоединяйтесь - будет круто!\nПо всем вопросам и за дополнительной информацией обращайтесь к Ксюше Павловой @ksusha_psy","markup":[{"type":"hashtag","offset":0,"length":7,"data":"работа"},{"type":"hashtag","offset":8,"length":4,"data":"RoR"},{"type":"hashtag","offset":13,"length":5,"data":"офис"},{"type":"hashtag","offset":19,"length":29,"data":"полный_день_после_каратнтина"},{"type":"hashtag","offset":49,"length":6,"data":"Минск"},{"type":"hashtag","offset":56,"length":4,"data":"OTS"},{"type":"link","offset":255,"length":29,"data":"https://tripledotstudios.com/"},{"type":"handle","offset":2770,"length":11,"data":"ksusha_psy"}],"date":"2020-03-19T17:07:17+00:00","link":"tg://resolve?domain=rubyjob&post=643","tags":[{"name":"ruby"},{"name":"ruby-on-rails"},{"name":"mysql"},{"name":"postgresql"},{"name":"docker"},{"name":"amazon-web-services"},{"name":"aws-lambda"},{"name":"linux"},{"name":"redis"}],"cities":[{"code":"minsk"}],"allowsRemote":true}},{"node":{"id":"1915748352-1001134745498","title":"Devops инженер","text":"#вакансия #DevOps #Москва #офис # Kafka\n🔭Ищем инженера DevOps в финансовую компанию под задачи сопровождения проектов на микросервисной архитектуре. \nВсе собеседования можно пройти по скайпу из-за карантина.\nГород: Москва, центр\nФормат работы: офис (сейчас как и у всех удалёнка).\nЗанятость: полная\n💰 Зарплатная вилка: оклад 160-170K net, с премиями 210К net.\n💎 Расширенный  соцпакет. \nОбласть ответственности:\n•  Установка нового ПО на сервера Linux \n•  Поддержка CI/CD, Jenkins,\n•  Мониторинг работы сервиса и серверов.\n•  Взаимодействие с командой разработчиков.\n•  Ведение технической документации.\n💡Требования:\n•  Знание и опыт работы с Linux от 3 лет,\n•  Опыт программирования: скриптинг под Linux + Groovy/JAVA.\n•  Опыт работы с БД\n•  Умение настройки систем мониторинга.\n\nНазвание компании https://bcraft.ru/ (Бизнес Крафт)\n📩 Контакты: \nemail: oksana@bcraft.ru Telegram: @oksanaalieva \nБуду рада ответить на уточняющие вопросы. Подробности о проекте вышлю в ЛС в ответ на присланное резюме🙂\n\n—\n\n👉 Обсуждение вакансии в чате @devops_jobs","markup":[{"type":"hashtag","offset":0,"length":9,"data":"вакансия"},{"type":"hashtag","offset":10,"length":7,"data":"DevOps"},{"type":"hashtag","offset":18,"length":7,"data":"Москва"},{"type":"hashtag","offset":26,"length":5,"data":"офис"},{"type":"link","offset":802,"length":18,"data":"https://bcraft.ru/"},{"type":"link","offset":857,"length":16,"data":"mailto:oksana@bcraft.ru"},{"type":"handle","offset":884,"length":13,"data":"oksanaalieva"},{"type":"handle","offset":1039,"length":12,"data":"devops_jobs"}],"date":"2020-03-18T20:34:15+00:00","link":"tg://resolve?domain=devops_jobs_feed&post=1827","tags":[{"name":"kafka"},{"name":"dotnet"},{"name":"linux"},{"name":"jenkins"},{"name":"groovy"},{"name":"java"}],"cities":[{"code":"moscow"}],"allowsRemote":true}},{"node":{"id":"1908408320-1001134745498","title":"Devops инженер","text":"#вакансия #Москва #Калиниград #Linux  #DevOps\n#remote #удалёнка #офис \nГород: Москва, Калиниград\nЗанятость: полная\nФормат работы: офис или удаленка\nЗарплатная вилка: от 100 000 до 150 000\nОписание вакансии:\nЧто нужно делать?\n\n-Автоматизация рутинных процессов;\n-Поддержка и развитие CI/CD\n-Настройка систем непрерывного мониторинга, сбора логов и т.д.\n-Развертывание окружений (dev, test, prod)\n-Разбор критических ситуаций, оперативное устранение выявленных неисправностей\n-Активное участие при прорабатывании новой архитектуры продукта, внедрение новейших сервисов и технологий\nТребования:\n\n-Опыт работы с Docker и (желательно) с системами оркестрации (swarm/kubernetes/openshift)\n-Опыт работы с Web-стеком PHP/NGINX/PostgreSQL\n-Опыт настройки, кластеризации rabbitMQ, PostgreSQL, ElasticSearch будет большим плюсом\n-Опыт работы с SCM (Ansible, Puppet) будет большим плюсом\n-Опыт работы с continuous integration, build&release management\n-Знание систем контроля версий. У нас Git (Gitlab)\n-Scripting (PowerShell, bash/python)\nНазвание компании: Cognitive Technologies \nКонтакты:  @codefather_ru можно в https://kaliningrad.hh.ru/vacancy/36234203\nhttps://kaliningrad.hh.ru/vacancy/36234204\n\n—\n\n👉 Обсуждение вакансии в чате @devops_jobs","markup":[{"type":"hashtag","offset":0,"length":9,"data":"вакансия"},{"type":"hashtag","offset":10,"length":7,"data":"Москва"},{"type":"hashtag","offset":18,"length":11,"data":"Калиниград"},{"type":"hashtag","offset":30,"length":6,"data":"Linux"},{"type":"hashtag","offset":38,"length":7,"data":"DevOps"},{"type":"hashtag","offset":46,"length":7,"data":"remote"},{"type":"hashtag","offset":54,"length":9,"data":"удалёнка"},{"type":"hashtag","offset":64,"length":5,"data":"офис"},{"type":"handle","offset":1082,"length":14,"data":"codefather_ru"},{"type":"link","offset":1105,"length":42,"data":"https://kaliningrad.hh.ru/vacancy/36234203"},{"type":"link","offset":1148,"length":42,"data":"https://kaliningrad.hh.ru/vacancy/36234204"},{"type":"handle","offset":1225,"length":12,"data":"devops_jobs"}],"date":"2020-03-16T14:58:57+00:00","link":"tg://resolve?domain=devops_jobs_feed&post=1820","tags":[{"name":"linux"},{"name":"docker"},{"name":"kubernetes"},{"name":"web"},{"name":"php"},{"name":"nginx"},{"name":"postgresql"},{"name":"rabbitmq"},{"name":"elasticsearch"},{"name":"ansible"},{"name":"git"},{"name":"gitlab"},{"name":"powershell"},{"name":"bash"},{"name":"python"},{"name":"continuous-integration"}],"cities":[{"code":"moscow"},{"code":"kaliningrad"}],"allowsRemote":true}},{"node":{"id":"1901068288-1001134745498","title":"Devops инженер","text":"#вакансия #jenkins #aws #украина #беларусь #прибалтика #remote #удалёнка\nкомпания s-o-services\nФормат - remote\nз\\п 5к-6к$ gross\nУвы гражданам России, живущим в РФ - вакансия недоступна.\nHere's some of the tech we use in DevOps.\n\n- jenkins экспертное знание\n- ansible\n- gradle (some maven) понимане логов сборок и умение чётко рассказать программисту что пошло не так\n- java тюнинг, хорошее понимание работы gc(чем отличается cms от g1 и от zgc, и когда лучше взять zulu? а когда openjdk?), что и когда тюнить в jvm, настройка логов и их тюнинг\n- groovy обязателен\n- HashiCorp vault\n- AWS infrastructure, понимание ценообразования, трафика и днс, стоимости i\\o и особенностей rds\n- drone\n- cri-o/containerd\n- prometheus, grafana, elk, datadog\n- upper-intermediate English обязателен\nконтакты @erzentd\n\n—\n\n👉 Обсуждение вакансии в чате @devops_jobs","markup":[{"type":"hashtag","offset":0,"length":9,"data":"вакансия"},{"type":"hashtag","offset":10,"length":8,"data":"jenkins"},{"type":"hashtag","offset":19,"length":4,"data":"aws"},{"type":"hashtag","offset":24,"length":8,"data":"украина"},{"type":"hashtag","offset":33,"length":9,"data":"беларусь"},{"type":"hashtag","offset":43,"length":11,"data":"прибалтика"},{"type":"hashtag","offset":55,"length":7,"data":"remote"},{"type":"hashtag","offset":63,"length":9,"data":"удалёнка"},{"type":"handle","offset":791,"length":8,"data":"erzentd"},{"type":"handle","offset":834,"length":12,"data":"devops_jobs"}],"date":"2020-03-14T10:23:43+00:00","link":"tg://resolve?domain=devops_jobs_feed&post=1813","tags":[{"name":"jenkins"},{"name":"amazon-web-services"},{"name":"ansible"},{"name":"gradle"},{"name":"maven"},{"name":"java"},{"name":"jvm"},{"name":"groovy"}],"cities":[],"allowsRemote":true}}]}},"context":{}}