{"hash":"f34fd2c444a074f4e0e67d525015a008ef8e766f","data":{"records":{"id":"mongodb","name":"mongodb","belongsTo":{"totalCount":39,"pageInfo":{"totalPages":4,"currentPage":1},"edges":[{"node":{"__typename":"Job","id":"16263413760-1001110946746","title":"Js developer","text":"#вакансия #офис\n\nTeam Lead (Node.js/React)\n\nГород: Мюнхен, Германия\nФормат занятости: офис\nТип занятости: полная \nЗаплата: 6000-7000 евро в месяц.\nКалькулятор налогов:\nkaiser-estate.ru/raschet-nalogov-i-socialnih-otchisleniy-po-zarplate-v-germanii.html\nРелокейт пакет \n\nОписание компании: \nCHECK24\nCompany is the leading price comparison platform in Germany. The company employs over a 2000 employees in 7 offices around the Germany with HQ in Munich \n\nRequirements\nYou have extensive experience in backend development using following languages (Node.js, C#, Java, Python or similar). You have experience of leading a team or ready to develop your management skills. You have proficient English or German level.\nExperience as a Full Stack Web Developer\nNode.js, or other OOP languages (Java, .NET, PHP, etc)\nDocker or knowledge of other containers\nCloud providers (the client is using AWS)\nUnit Testing and precise tools\nDevOps tools\nFrameworks as React, Angular / general knowledge of JavaScript\nConsiderable knowledge of MongoDB and experience with other databases\nBenefits\nVisa sponsorship and relocation budget\nYou will also be part of a company that values teamwork and life balance\nYou will get the chance to immerse yourself in German culture fully, with language courses and the opportunity to live in Munich, one of the most cultural and international cities in Germany\nWhat is more, you will have the chance to work with cutting edge technologies in one of the largest tech companies in Germany\nКонтакты:\n\nКомпания КА Zero to One search \nzerotoonesearch.com\nНаталья natalya@zerotoonesearch.com\nSkype: na.yarkova\n\n—\n\n👉 Обсуждение вакансии в чате @javascript_jobs","markup":[{"type":"hashtag","offset":0,"length":9,"data":"вакансия"},{"type":"hashtag","offset":10,"length":5,"data":"офис"},{"type":"link","offset":168,"length":84,"data":"http://kaiser-estate.ru/raschet-nalogov-i-socialnih-otchisleniy-po-zarplate-v-germanii.html"},{"type":"link","offset":1548,"length":19,"data":"http://zerotoonesearch.com"},{"type":"link","offset":1576,"length":27,"data":"mailto:natalya@zerotoonesearch.com"},{"type":"handle","offset":1656,"length":16,"data":"javascript_jobs"}],"date":"2020-04-10T12:01:17+00:00","link":"tg://resolve?domain=javascript_jobs_feed&post=15510","tags":[{"name":"javascript"},{"name":"nodejs"},{"name":"reactjs"},{"name":"html"},{"name":"java"},{"name":"python"},{"name":"web"},{"name":"dotnet"},{"name":"php"},{"name":"docker"},{"name":"cloud"},{"name":"amazon-web-services"},{"name":"angularjs"},{"name":"mongodb"},{"name":"unit-testing"}],"cities":[{"code":"munich"}],"allowsRemote":false}},{"node":{"__typename":"Job","id":"16260268032-1001110946746","title":"Javascript разработчик","text":"#вакансия #react #javascript #teamlead #москва #офис \n\n🔭 Ищем Team Lead (React) в финансовую компанию под задачи разработки с «нуля» платформы Web-решений. \n🎧 Все собеседования проводятся по скайпу из-за карантина. \nОфис: Москва, Лубянка\n🏠 Формат работы: в офисе после карантина (сейчас как у всех  удалёнка). В первый рабочий день оформляетесь и идете на удалёнку.\nЗанятость полная.\nГражданство: РФ\nПолный соцпакет.\n💰 Зарплата: оклад от 200К до 210К net (на руки) + квартальная премия 0,5 оклада. \nС премией средняя ЗП составит 245K рублей net \n\nTeam Lead (React)\n🚀Область ответственности:\n• Разработка фронт-офисных систем компании.\n• Руководство 1-2 разработчиками.\n💎 Требования:\n• Высшее образование;\n• Опыт коммерческой разработки UI 3-5 лет;\n• Необходимый стек: JavaScript, TypeScript, React (с использованием Redux/Mobx, Webpack, Babel), СУБД (PostgreSQL, MongoDB, Redis).\n• Кроссбраузерная и кроссплатформенная вёрстка.\n• Участие в высоконагруженных проектах.\n• Опыт управления распределённой командой.\n\nНазвание компании: КА Бизнес Крафт Консалт https://bcraft.ru/\n📪Контакты:\ntelegram: @oksanaalieva \nEmail: oksana@bcraft.ru \nБуду рада ответить на уточняющие вопросы. \nПодробности могу выслать в ЛС в ответ на присланное резюме.\n\n—\n\n👉 Обсуждение вакансии в чате @javascript_jobs","markup":[{"type":"hashtag","offset":0,"length":9,"data":"вакансия"},{"type":"hashtag","offset":10,"length":6,"data":"react"},{"type":"hashtag","offset":17,"length":11,"data":"javascript"},{"type":"hashtag","offset":29,"length":9,"data":"teamlead"},{"type":"hashtag","offset":39,"length":7,"data":"москва"},{"type":"hashtag","offset":47,"length":5,"data":"офис"},{"type":"link","offset":1061,"length":18,"data":"https://bcraft.ru/"},{"type":"handle","offset":1102,"length":13,"data":"oksanaalieva"},{"type":"link","offset":1124,"length":16,"data":"mailto:oksana@bcraft.ru"},{"type":"handle","offset":1279,"length":16,"data":"javascript_jobs"}],"date":"2020-04-10T12:00:27+00:00","link":"tg://resolve?domain=javascript_jobs_feed&post=15507","tags":[{"name":"javascript"},{"name":"reactjs"},{"name":"web"},{"name":"dotnet"},{"name":"typescript"},{"name":"redux"},{"name":"webpack"},{"name":"postgresql"},{"name":"mongodb"},{"name":"redis"}],"cities":[{"code":"moscow"}],"allowsRemote":true}},{"node":{"__typename":"Job","id":"24359469056-1001075660570","title":"Php разработчик","text":"Ищем!\nPHP-разработчик fullstack удаленно\n\n#вакансия #удаленка #штат #PHP #fullstack\n\nЗАДАЧИ:\n🔹 разработка графических интерфейсов к информационным системам и сервисам компании;\n🔹 разработка микросервисов обработки сообщений и сбор статистики в БД;\n🔹 участие в проектировании программных решений и обсуждении архитектурных решений;\n🔹 работы по интеграции и разработке API взаимодействия сервисов как внутри компании, так и с партнерами.\n\nТРЕБОВАНИЯ:\n 🔹 Самостоятельный разработчик с отличным знанием: PHP, js, Ajax, jQuery, HTML, CSS;\n 🔹 MySQL, PostgreSQL, ClickHouse, Redis, MongoDB;\n 🔹 Linux;\n 🔹XML, JSON, SOAP, RabbitMQ;\n 🔹Symfony, Yuii, Laravel, Zend;\n 🔹 Bootstrap;\n 🔹 Средства визуализации данных, например, d3.js.\n\nБыло бы неплохо: \n🔹знание Nodejs, Python, LUA.\n🔹 опыт разработки мобильных приложений Android, IOS\n\nУСЛОВИЯ:\n🔹 работа в штате компании (основной профиль – разработка высокотехнологичных маркетинговых рассылок и чат-ботов);\n🔹 удаленная работа 5/2 с 10 до 19 (MSK);\n🔹ЗП 70-90k (обсуждается с успешными кандидатами).\n\nПишите сюда: @abezpalova","markup":[{"type":"bold","offset":6,"length":36,"data":""},{"type":"hashtag","offset":42,"length":9,"data":"вакансия"},{"type":"hashtag","offset":52,"length":9,"data":"удаленка"},{"type":"hashtag","offset":62,"length":5,"data":"штат"},{"type":"hashtag","offset":68,"length":4,"data":"PHP"},{"type":"hashtag","offset":73,"length":10,"data":"fullstack"},{"type":"bold","offset":85,"length":8,"data":""},{"type":"bold","offset":441,"length":12,"data":""},{"type":"bold","offset":833,"length":9,"data":""},{"type":"handle","offset":1064,"length":11,"data":"abezpalova"}],"date":"2020-04-10T09:33:14+00:00","link":"tg://resolve?domain=php_jobs&post=23231","tags":[{"name":"php"},{"name":"ajax"},{"name":"jquery"},{"name":"html"},{"name":"css"},{"name":"mysql"},{"name":"postgresql"},{"name":"redis"},{"name":"mongodb"},{"name":"linux"},{"name":"xml"},{"name":"json"},{"name":"soap"},{"name":"rabbitmq"},{"name":"symfony"},{"name":"laravel"},{"name":"zend-framework"},{"name":"bootstrap"},{"name":"nodejs"},{"name":"python"},{"name":"lua"},{"name":"android"},{"name":"ios"}],"cities":[],"allowsRemote":true}},{"node":{"__typename":"Job","id":"16257122304-1001110946746","title":"Js developer","text":"#вакансия #удалёно #fulltime #remote #javascript #node.js #express\n\nJavaScript (Back-end) Developer \n\nКомпания: https://secreate.io/\nГород: любой\nФормат работы: удалёно\nПолная занятость: 40 часов в неделю.\nЗП: вилка ЗП 120-150 тыс. рублей.\n\nЧто делать: \nРазработка внутренней срм системы в компании.\nСтек технологий: \n— Node.JS, express, mongoDB, Mustache.\nТребования\n— Опыт работы c Node.Js и express от 2 лет.\nРезюме и вопросы в лс. @karysha\n\n—\n\n👉 Обсуждение вакансии в чате @javascript_jobs","markup":[{"type":"hashtag","offset":0,"length":9,"data":"вакансия"},{"type":"hashtag","offset":10,"length":8,"data":"удалёно"},{"type":"hashtag","offset":19,"length":9,"data":"fulltime"},{"type":"hashtag","offset":29,"length":7,"data":"remote"},{"type":"hashtag","offset":37,"length":11,"data":"javascript"},{"type":"hashtag","offset":49,"length":5,"data":"node"},{"type":"hashtag","offset":58,"length":8,"data":"express"},{"type":"link","offset":112,"length":20,"data":"https://secreate.io/"},{"type":"handle","offset":435,"length":8,"data":"karysha"},{"type":"handle","offset":478,"length":16,"data":"javascript_jobs"}],"date":"2020-04-10T09:31:42+00:00","link":"tg://resolve?domain=javascript_jobs_feed&post=15504","tags":[{"name":"javascript"},{"name":"nodejs"},{"name":"express"},{"name":"mongodb"}],"cities":[],"allowsRemote":true}},{"node":{"__typename":"Job","id":"1432354816-1001091028994","title":"Java разработчик","text":"Ищем Java-разработчика для создания высоконагруженных клиент-серверных приложений в компании Smartech IT Outsourcing.\n\n⚙️Который владеет большинством из:\n\n➖Java, J2EE, Spring/Spring Boot, Hibernate/JPA;\n➖JMS, Apache ActiveMQ, Tomcat;\n➖Web Services, REST, WebSocket;\n➖PostgreSQL/Oracle, Redis/MongoDB.\n➖Опыт от 2х лет \n\n💡Дают:\n\n💻 удаленная работа, ☕️гибкий график;\n\n💸 зарплата от 100 000 до 130 000 р. по результатам собеседования, регулярная индексация;\n\n📃 работа над разнообразными и интересными проектами в команде профессионалов с использованием современных технологий;\n\n🎓 возможность постоянного развития (повышение квалификации, участие в конференциях, сертификация);\n\n📱Надежда @coderhunt","markup":[{"type":"handle","offset":689,"length":10,"data":"coderhunt"}],"date":"2020-04-09T11:59:26+00:00","link":"tg://resolve?domain=jvmjobs&post=1366","tags":[{"name":"java"},{"name":"jvm"},{"name":"spring"},{"name":"hibernate"},{"name":"jpa"},{"name":"apache"},{"name":"tomcat"},{"name":"web"},{"name":"rest"},{"name":"websocket"},{"name":"postgresql"},{"name":"oracle"},{"name":"redis"},{"name":"mongodb"},{"name":"spring-boot"}],"cities":[],"allowsRemote":true}},{"node":{"__typename":"Job","id":"16227762176-1001110946746","title":"Javascript developer","text":"#вакансия #react #javascript #москва #офис\n\n🔭 Под задачи разработки платформы Web-решений ищем Frontend Developer (React) в крупную финансовую компанию. \n🎧 Все собеседования проводятся по скайпу из-за карантина. \nОфис: Москва, Лубянка\n🏠 Формат работы: в офисе после карантина (сейчас как у всех  удалёнка). В первый рабочий день оформляетесь и идете на удалёнку.\nЗанятость полная.\nГражданство: РФ\nПолный соцпакет.\n💰 Зарплата: от 165К до 175К net + квартальная премия 0,5 оклада. \nС премией средняя ЗП составит 205K рублей net \n\nFrontend Developer (React)\n🚀Область ответственности:\n• Участие в разработке фронт-офисных систем компании.\n💎 Требования:\n• Высшее / неоконченное высшее образование;\n• Опыт коммерческой разработки UI от 2,5 лет;\n• Необходимый стек: JavaScript, TypeScript, React (с использованием Redux/Mobx, Webpack, Babel), СУБД (PostgreSQL, MongoDB, Redis).\n• Кроссбраузерная и кроссплатформенная вёрстка.\n• Участие в высоконагруженных проектах.\n\nНазвание компании: КА \"Бизнес Крафт Консалт\" https://bcraft.ru/\n📪Контакты:\ntelegram: @oksanaalieva \nEmail: oksana@bcraft.ru \nБуду рада ответить на уточняющие вопросы. \nПодробности могу выслать в ЛС в ответ на присланное резюме.","markup":[{"type":"hashtag","offset":0,"length":9,"data":"вакансия"},{"type":"hashtag","offset":10,"length":6,"data":"react"},{"type":"hashtag","offset":17,"length":11,"data":"javascript"},{"type":"hashtag","offset":29,"length":7,"data":"москва"},{"type":"hashtag","offset":37,"length":5,"data":"офис"},{"type":"link","offset":1011,"length":18,"data":"https://bcraft.ru/"},{"type":"handle","offset":1052,"length":13,"data":"oksanaalieva"},{"type":"link","offset":1074,"length":16,"data":"mailto:oksana@bcraft.ru"}],"date":"2020-04-09T06:40:13+00:00","link":"tg://resolve?domain=javascript_jobs_feed&post=15476","tags":[{"name":"javascript"},{"name":"reactjs"},{"name":"web"},{"name":"dotnet"},{"name":"typescript"},{"name":"redux"},{"name":"webpack"},{"name":"postgresql"},{"name":"mongodb"},{"name":"redis"}],"cities":[{"code":"moscow"}],"allowsRemote":true}},{"node":{"__typename":"Job","id":"24333254656-1001075660570","title":"Php разработчик","text":"#вакансия  #fulltime #Fullstack #Кипр\nВсем привет!  В нашу команду высоконагруженного проекта разыскивается Fullstack Web-разработчик с переездом на Кипр!\n Город: Лимассол\nФормат работы: офис\nКомпания: Marikit Holdings LTD \nЗанятость: полная\nЗарплатная вилка: от 2500 до 4000 EUR на руки (обсуждается индивидуально).\n\nОсновные обязанности:\n-Разработка новых сервисов компании;\n-Оптимизация и поддержка текущих продуктов;\n-Мы используем: PHP7, JavaScript, VueJS, MySQL (Percona), Redis, MongoDB, RabbitMQ, YouTrack.\nНаши пожелания:\n- Опыт коммерческой разработки от 3-х лет;\n- Высшее образование в IT сфере;\n-Имеете опыт разработки на PHP;\n-Знаете ООП, умеете применять на практике основные паттерны;\n-Любите рефакторинг;\n-Знакомы с JS фреймворками, мы предпочитаем VueJS;\n-Работали с MVC-фреймворками на базе PHP.\nПлюсы работы у нас:\n- Интересные проекты и отсутствие бюрократии;\n- Возможность гибкого начала рабочего дня;\n- Бесплатные корпоративные обеды;\n- Спортзал в офисе;\n- Помощь при переезде.\n\nБуду рада Вашим вопросам и резюме @alinatalybova12","markup":[{"type":"hashtag","offset":0,"length":9,"data":"вакансия"},{"type":"hashtag","offset":11,"length":9,"data":"fulltime"},{"type":"hashtag","offset":21,"length":10,"data":"Fullstack"},{"type":"hashtag","offset":32,"length":5,"data":"Кипр"},{"type":"bold","offset":318,"length":22,"data":""},{"type":"bold","offset":515,"length":16,"data":""},{"type":"bold","offset":814,"length":20,"data":""},{"type":"handle","offset":1035,"length":16,"data":"alinatalybova12"}],"date":"2020-04-07T13:34:52+00:00","link":"tg://resolve?domain=php_jobs&post=23206","tags":[{"name":"php"},{"name":"web"},{"name":"javascript"},{"name":"vuejs"},{"name":"mysql"},{"name":"redis"},{"name":"mongodb"},{"name":"rabbitmq"}],"cities":[],"allowsRemote":false}},{"node":{"__typename":"Job","id":"1976565760-1001134745498","title":"Devops инженер","text":"#вакансия #vacancy #Москва #Moscow #fulltime #DevOps \nПозиция: DevOps / Инженер внедрения\nЛокация: Москва, м. Калужская\nВилка: 110.000-150.000 RUB net \nЗанятость: Полная\nФормат работы: офис\nКонтакты: @cated_z\nekdzolotareva@gmail.com\n \nОбязанности:\n▫️Проводить деплой;\n▫️Дорабатывать схему деплоя текущих и будущих проектов;\n▫️Перенести текущую инфраструктуру компании в код (две стойки различного оборудования с бородой из патчкордов);\n▫️Поиск проблем: взаимодействие с командой разработчиков по вопросам внедрения системы и исправления найденных в процессе внедрения недостатков;\n▫️Ведение базы знаний (у нас Confluence);\n▫️Ведение отчетной документации;\n▫️Подготовка элементов документации (описания, схемы).\n \nНеобходимые навыки: \n▫️Опыт работы с Docker, Docker-реестром, Docker-swarm (чтение структуры, запуск, конфигурирование, обслуживание, оптимизация);\n▫️Опыт работы с Windows-сервер (установка, удаление сервисов, написание конфигурации для Cocholatey реестра, PowerShell);\n▫️Опыт отладки и оптимизации сетей (просмотр трафика, обнаружение сервисов, потребляющих канал и т.д.);\n▫️Знание основных инструментов CI/CD, IasC, CasC (у нас Jenkins, BitBucket, Ansible, Terraform, Vmware, в процессе переноса инфраструктуры в облако);\n▫️Умение писать  на одном из языков: Bash, Python, Groovy;\n▫️Опыт отладки REST API;\n▫️Опыт работы с PostgreSQL (написание запросов, поиск данных);\n▫️Опыт работы с MongoDB (просмотр, поиск, редактирование данных);\n▫️Способность разбираться в сложных программных алгоритмах, логике и структуре системы.\n \nУсловия: \n▫️Официальное оформление по ТК РФ;\n▫️График работы 5/2, гибкое начало рабочего дня;\n▫️Комфортное рабочее место;\n▫️Пятидневная рабочая неделя с гибким началом рабочего дня;\n▫️Расширенный ДМС;\n▫️Скидки у компаний-партнеров;\n▫️Помощь в релокации: оплата залога + первого месяца проживания;\n▫️Офис в 7 минутах от м. Калужская, БЦ \"Neo Geo\".\n\n—\n\n👉 Обсуждение вакансии в чате @devops_jobs","markup":[{"type":"hashtag","offset":0,"length":9,"data":"вакансия"},{"type":"hashtag","offset":10,"length":8,"data":"vacancy"},{"type":"hashtag","offset":19,"length":7,"data":"Москва"},{"type":"hashtag","offset":27,"length":7,"data":"Moscow"},{"type":"hashtag","offset":35,"length":9,"data":"fulltime"},{"type":"hashtag","offset":45,"length":7,"data":"DevOps"},{"type":"handle","offset":200,"length":8,"data":"cated_z"},{"type":"link","offset":209,"length":23,"data":"mailto:ekdzolotareva@gmail.com"},{"type":"handle","offset":1921,"length":12,"data":"devops_jobs"}],"date":"2020-04-07T11:52:55+00:00","link":"tg://resolve?domain=devops_jobs_feed&post=1885","tags":[{"name":"dotnet"},{"name":"docker"},{"name":"windows"},{"name":"powershell"},{"name":"jenkins"},{"name":"ansible"},{"name":"bash"},{"name":"python"},{"name":"groovy"},{"name":"rest"},{"name":"postgresql"},{"name":"mongodb"}],"cities":[{"code":"moscow"}],"allowsRemote":false}},{"node":{"__typename":"Job","id":"1965031424-1001134745498","title":"Devops инженер","text":"#вакансия \nГород: Amsterdam\nФормат работы: удаленка / remote\nЗанятость: проектная\nЗарплатная вилка: от 15 до 25 USD в час\n\nОписание вакансии: \nПредоставить инструкцию и/или скрипты по разворачиванию Kubernetes с Istio поверх, на котором необходимо :\n- задеплоить docker с Spring Java REST приложением (имеющим доступ извне кластера, для того чтобы внешнии клиенты могли к нему подключаться)\n- задеплоить docker с MongoDB (не имеющим доступ извне  кластера, но иметь доступ с других инстанций кластера, в частности с Spring Java REST приложения\n- подключить Keycloak к Istio для авторизации через JWT token в Spring Java REST приложении\n- подключить TLS в Istio и допускать только SSL трафик в кластер\nУсловия:\n* уже имеется конфигурация Keycloak с помощью которой есть Spring Java REST приложение осуществляет регистрацию  пользователей и получение JWT token, необходимо использовать эту конфигурацию для доступа к Spring Java REST приложению\n* не все методы в Spring Java REST приложении необходимо обезопасить JWT токеном\n\nНазвание компании: Take it Personally BV\nКонтакт: @takeitpersonally\nEmail: konstantin@mytip.app\n\n—\n\n👉 Обсуждение вакансии в чате @devops_jobs","markup":[{"type":"hashtag","offset":0,"length":9,"data":"вакансия"},{"type":"handle","offset":1075,"length":17,"data":"takeitpersonally"},{"type":"link","offset":1100,"length":20,"data":"mailto:konstantin@mytip.app"},{"type":"handle","offset":1155,"length":12,"data":"devops_jobs"}],"date":"2020-04-03T15:05:06+00:00","link":"tg://resolve?domain=devops_jobs_feed&post=1874","tags":[{"name":"kubernetes"},{"name":"docker"},{"name":"spring"},{"name":"java"},{"name":"rest"},{"name":"mongodb"},{"name":"jwt"},{"name":"ssl"}],"cities":[{"code":"amsterdam"}],"allowsRemote":true}},{"node":{"__typename":"Job","id":"1962934272-1001134745498","title":"Devops инженер","text":"#вакансия #DevOps #Москва #ivi\n\nЛокация: Москва, ст. м. Дмитровская\nФормат работы: офис (на время карантина - удаленка) \nЗанятость: полная\nЗарплатная вилка: от 180 000 до 250 000 руб. на руки.\n\nМы — команда эксплуатации сервиса ivi .\n\nРазыскиваем коллегу в команду для участия в настойке процессов, технических (CI/CD) и в части взаимодействия с коллегами. Активное участие в разворачивании и эксплуатации k8s .Помогаем командам разработки строить CI/CD-пайплайны . Некоторые из нас это делают в составе кросс-команд, другие помогают многим командам, оставшиеся обеспечивают всех нас необходимыми приложениями и инфраструктурой.\n\nУчим команды использовать контейнеры (docker) для подготовки разрабатываемых приложений, осваиваем использование k8s для оркестрации. Используем Ubuntu, Linux.\n\nХраним код и разрабатываем pipeline-ы с помощью gitlab+artifactory .\nДля мониторинга серверов и сервисов используем zabbix и statsd , заправляем grafana.\nНаши сервисы написаны на python, golang и немного php и java.\nЛюбим и активно используем jenkins для решения самых разнообразных задач.\nИспользуем много open source (и не только) приложений: nginx, redis, postgresql, mongodb, rabbitmq, clickhouse, openstack, gitlab, kafka, hdfs, jira , opennebula.\n\nЧто предстоит делать: \n- развитие и настройки процессов ci/cd;\n- планирование и участие в рефакторинге процессов, инфраструктуры, приложений;\n- сопровождение сервисов от разработки до эксплуатации, участие в эксплуатации;\n- доработка текущих и разработка новых сценариев конфигурирования серверов и приложений; \n- администрирование приложений по результатам выполненной работы подготовка документации, если необходимо. \n\nКак узнать что ты нам подходишь? \n- положительный и продолжительный опыт работы с CI/CD-системами (у нас gitlab и jenkins);\n- умение хорошо готовить docker; \n- опыт программирования на скриптовых языках (shell, python);\nопыт администрирования linux и приложение 5+;\n- понимание сетевых технологий TCP/IP; \n- опыт работы с системами управления версиями (git) и конфигурациями. \n\nСо своей стороны мы обещаем: \n- Офис в 5 минутах ходьбы от м. \"Дмитровская\";\n- У нас гибкий график, мы начинаем до 11 часов дня;\n- Трудоустройство по ТК РФ;\n- ДМС + стоматология после прохождения испытательного срока;\n- Подписка на ivi;\n- Пакет релокации для соискателей со всей России.\n\nОнлайн-кинотеатр ivi \nhttps://www.ivi.tv/\n\nБуду рада рассказать подробности, пишите в личку @daria144 или на почту dsereda@ivi.ru\n\n—\n\n👉 Обсуждение вакансии в чате @devops_jobs","markup":[{"type":"hashtag","offset":0,"length":9,"data":"вакансия"},{"type":"hashtag","offset":10,"length":7,"data":"DevOps"},{"type":"hashtag","offset":18,"length":7,"data":"Москва"},{"type":"hashtag","offset":26,"length":4,"data":"ivi"},{"type":"link","offset":2354,"length":19,"data":"https://www.ivi.tv/"},{"type":"handle","offset":2424,"length":9,"data":"daria144"},{"type":"link","offset":2447,"length":14,"data":"mailto:dsereda@ivi.ru"},{"type":"handle","offset":2496,"length":12,"data":"devops_jobs"}],"date":"2020-04-03T12:38:12+00:00","link":"tg://resolve?domain=devops_jobs_feed&post=1872","tags":[{"name":"docker"},{"name":"ubuntu"},{"name":"linux"},{"name":"gitlab"},{"name":"python"},{"name":"go"},{"name":"php"},{"name":"java"},{"name":"jenkins"},{"name":"nginx"},{"name":"redis"},{"name":"postgresql"},{"name":"mongodb"},{"name":"rabbitmq"},{"name":"kafka"},{"name":"hdfs"},{"name":"shell"},{"name":"git"}],"cities":[{"code":"moscow"}],"allowsRemote":true}}]}}},"context":{}}