{"hash":"f5f6bf98bd95e769321482904cbbd488f77922fd","data":{"records":{"id":"nginx","name":"nginx","belongsTo":{"totalCount":26,"pageInfo":{"totalPages":3,"currentPage":1},"edges":[{"node":{"__typename":"Job","id":"2283798528-1001134745498","title":"Devops инженер","text":"#вакансия #Sportmaster_Labs #monitoring \n\nНазвание компании: Sportmaster Labs\nГород и адрес офиса: м. Дмитровская\nФормат работы: офис, на текущий момент удаленка (в будущем возможно частично офис)\nЗанятость: полная\nЗарплатная вилка:  от 100 000 до 300 000 рублей на руки, в зависимости от уровня кандидата\nОписание вакансии:\nМы ищем сотрудника, у которого имеется опыт построения систем мониторинга и логирования приложений, начиная с инфраструктуры, заканчивая бизнес-метриками и опыт администрирования инфраструктуры.\n\nОбязанности: \n* Внедрение, управление и развитие системы мониторинга от уровня аппаратного обеспечения до бизнес-метрик уровня приложений (метрики, зависимости, оповещения) [Zabbix, Victoria Metrics, Prometheus, etc]\n* Внедрение, управление и развитие системы логирования [Elastic Stack]\n* Внедрение, управление и развитие системы визуализации [Grafana, BI Systems, etc]\n* Разработка кастомных решений по сбору метрик, оповещений, процессинга данных\n\nЖелательно:\n* Внедрение, управление и развитие отказоустойчивой системы окрестрации контейнеров для нужд эксплуатации и не только (Kubernetes)\n* Настройка CI\\CD (Jenkins)\n* load-, stress- и chaos-тестирование инфраструктуры и сервисов\n* Опыт работы с Jaeger, OpenTracing\n* Опыт в разработке приложений (для систем мониторинга) на любом из языков программирования Python, Java\n* Опыт в эксплуатации JVM\n* Опыт администрирования web-серверов Nginx, F5, HAproxy\n\nСтав частью Sportmaster Lab, вы получите:\n* Работу в крупной стабильной российской компании - лидере на рынке розничной торговли товарами для спорта и отдыха;\n* Перспективы профессионального, карьерного и финансового роста;\n* Офис - м. Дмитровская, БЦ \"Премьер\";\n* График работы: 5/2; 8.00-17.00, 9.00-18.00 или 10.00-19.00 (можно выбрать);\n* Дисконтная карта на продукцию магазинов сети;\n* Полугодовые премии в размере 50% от суммы ежемесячного дохода;\n* Корпоративные скидки на различные виды страхования и кредитования;\n* Корпоративные программы спорта и отдыха;\n* Организованное питание в офисе (компенсация питания);\n* Обучение и сертификация за счет компании\n\nКонтакты: Для начала я (@Voffko) далее с HR сотрудниками\n\n—\n\n👉 Обсуждение вакансии в чате @devops_jobs","markup":[{"type":"hashtag","offset":0,"length":9,"data":"вакансия"},{"type":"hashtag","offset":10,"length":17,"data":"Sportmaster_Labs"},{"type":"hashtag","offset":28,"length":11,"data":"monitoring"},{"type":"handle","offset":2122,"length":7,"data":"Voffko"},{"type":"handle","offset":2189,"length":12,"data":"devops_jobs"}],"date":"2020-07-03T09:29:40+00:00","link":"tg://resolve?domain=devops_jobs_feed&post=0","tags":[{"name":"elasticsearch"},{"name":"kubernetes"},{"name":"jenkins"},{"name":"python"},{"name":"java"},{"name":"jvm"},{"name":"web"},{"name":"nginx"}],"cities":[],"allowsRemote":true}},{"node":{"__typename":"Job","id":"2280652800-1001134745498","title":"Devops инженер","text":"#вакансия #DevOps\n\nЛокация: Москва, м. Савёловская\nФормат работы: до середины июля удаленка, затем офис с возможной частичной удаленкой после испытательного срока\nЗанятость: полная\nЗарплатная вилка: от 180.000 до 300.000 на руки\n\nМедицинская компания, которая разрабатывает технологичные страховые и сервисные продукты для людей и для бизнеса ищет себе крутого DevOps инженера.\n\nЕще пару лет назад у них не было процесса CI/CD, инфраструктуры, боевой код разворачивался через git pull на продакшне, все было на одной виртуалке и т.д. и т.п.\nНа сегодняшний день есть CI, Infrastructure-as-a-Code, мониторинг и алертинг, а также докеризация.\nБизнес и команда очень сильно выросли: в 2,5 раза за 2018 год. Сейчас компания занимает 2ое место по количеству пациентов среди insurtech компаний в Европе.\nВ планах поднимать новые сервисы, масштабироваться вертикально и горизонтально, ускорять CI, внедрять CD и новые инструменты в инфраструктуру.\n\nЧтобы осуществить все задуманное, ребятам нужен человек, который сможет развивать культуру DevOps в команде.\n\nСтек технологий:\n\n➖Backend: Python 3.7, Django, Flask, aiohttp;\n➖Frontend: TypeScript, React;\n➖Mobile: React Native;\n➖Ubuntu 18.04, PostgreSQL (9.6), Redis, ElasticSearch;\n➖Nginx, Docker, Ansible;\n➖Kibana (ELK), Sentrу, Prometheus, Grafana;\n➖GitLab + GitLab CI, Selectel, servers.ru.\n\nЧто нужно будет делать:\n\n➖Ускорить CI, сборку, деплой и улучшить его инструменты;\n➖Сделать сервисы быстрее и надёжнее;\n➖Поддерживать существующую инфраструктуру;\n➖Мониторить ошибки в бою и исправлять их;\n➖Разрабатывать инструменты автоматизации для команд.\n\nОт кандидата:\n\n➖Знание Docker;\n➖Отличное знание Linux и окружения;\n➖Опыт работы с системами управления конфигурацией Chef, Puppet, Ansible или Salt (мы используем Ansible);\n➖Знание bash/Python;\n➖Опыт работы с Django приложениями будет плюсом;\n➖Опыт работы с ELK будет плюсом.\n\nПочему будет круто:\n\n➖Работаем по гибкому графику, для нас главное — результат;\n➖Отправляем на конференции и митапы, даже международные;\n➖Мы меняем рынок медицинского страхования, и у нас это отлично получается;\n➖Мы собрали команду очень талантливых и мотивированных людей;\n➖У вас будет необходимое для работы железо;\n➖Вы получите медицинское обслуживание через нашу систему. И это в разы лучше, чем стандартный ДМС :)\n➖Вы будете работать в крутом лофте у метро Савеловская. До середины июля удаленно;\n➖Cкидки на занятия английским языком, фитнес и путешествия.\n\nНазвание компании: GMS Services (ссылка на сайт — https://bit.ly/2BY7kc7)\n\nКонтакты: @diana_gms\n\n—\n\n👉 Обсуждение вакансии в чате @devops_jobs","markup":[{"type":"hashtag","offset":0,"length":9,"data":"вакансия"},{"type":"hashtag","offset":10,"length":7,"data":"DevOps"},{"type":"link","offset":1324,"length":10,"data":"http://servers.ru"},{"type":"link","offset":2485,"length":22,"data":"https://bit.ly/2BY7kc7"},{"type":"handle","offset":2520,"length":10,"data":"diana_gms"},{"type":"handle","offset":2565,"length":12,"data":"devops_jobs"}],"date":"2020-07-02T18:19:38+00:00","link":"tg://resolve?domain=devops_jobs_feed&post=2175","tags":[{"name":"git"},{"name":"python"},{"name":"django"},{"name":"flask"},{"name":"typescript"},{"name":"reactjs"},{"name":"mobile"},{"name":"ubuntu"},{"name":"postgresql"},{"name":"redis"},{"name":"elasticsearch"},{"name":"nginx"},{"name":"docker"},{"name":"ansible"},{"name":"gitlab"},{"name":"linux"},{"name":"bash"},{"name":"react-native"}],"cities":[{"code":"moscow"}],"allowsRemote":true}},{"node":{"__typename":"Job","id":"2279604224-1001134745498","title":"Devops инженер","text":"#вакансия\nГород: Москва, ст м Динамо, есть возможность частично работать удаленно\nЗанятость: полный рабочий день\nВилка от 150 тыс.руб. до 250 тыс. руб. \nОписание: Ищем Dev-Ops-инженера в крупный банк, с частично удаленной работой (офис в Москве, ст.м. Динамо): нужен опыт работы с Kubernetes, с Linux серверами (Centos,RHEL)\n· Хорошее знание инструментов DevOps (Docker, Jenkins/TeamCity, Ansible/Salt/Puppet/Chef), понимание принципов DevSecOps;\n· Опыт настройки веб-серверов (Apache, Nginx, JBoss/WildFly, Glassfish)\nКомпания: Новэлект, работа в Банке. \nКонтакт: +79269777845, Телеграм/ вотсапп, Юлия\n\n—\n\n👉 Обсуждение вакансии в чате @devops_jobs","markup":[{"type":"hashtag","offset":0,"length":9,"data":"вакансия"},{"type":"link","offset":565,"length":12,"data":"tel:+79269777845"},{"type":"handle","offset":637,"length":12,"data":"devops_jobs"}],"date":"2020-07-02T18:16:20+00:00","link":"tg://resolve?domain=devops_jobs_feed&post=2174","tags":[{"name":"kubernetes"},{"name":"linux"},{"name":"centos"},{"name":"docker"},{"name":"jenkins"},{"name":"ansible"},{"name":"apache"},{"name":"nginx"},{"name":"jboss"}],"cities":[{"code":"moscow"}],"allowsRemote":true}},{"node":{"__typename":"Job","id":"2278555648-1001134745498","title":"Devops инженер","text":"#вакансия #devops #docker #kubernetes\nВакансия: Devops\nГород: Москва, м. Марьина Роща\nФормат работы: офис\nЗанятость: полная\nЗарплатная вилка: от 150 до 200к\n\nTalentTech — это IT-холдинг, быстрорастущий стартап. \nТебе предстоит присоединиться к команде разработки EdTech продуктов, которая будет выводить Foxford.ru в общеобразовательные школы, и помогать детям учиться и развиваться.\n\nЧем тебе предстоит заниматься:\n🔸поддержание текущей серверной инфраструктуры\n🔸настройка и деплой web-приложений\n🔸автоматизация настройки и управления серверами\n🔸мониторинг серверов и приложений\n\nЧто мы ждем от тебя:\n🔹опыт администрирования Linux (Ubuntu)\n🔹опыт написания скриптов на bash\n🔹опыт администрирования open source приложений (веб-серверы, базы данных, и т.д.)\n🔹опыт работы с реляционными базами данных (обновление, восстановление данных)\n🔹умение составлять и вести документацию\n\nПлюсом будет:\n▪️знание скриптовых языков (shell, python или ruby)\n▪️опыт установки, настройки, мониторинга основных сетевых сервисов (почта, DNS, NAT, firewall, VPN)\n▪️опыт настройки окружения и деплоя rails-приложений (capistrano, nginx+unicorn)\n▪️опыт работы с Docker и Kubernetes\n▪️навыки в сфере автоматизации процессов настройки и управления серверами (puppet, ansible, chef)\n\nЧто предлагаем?\n🟣ДМС, комфортный рабочий график, бонусы от компании\n\nНазвание компании: TalentTech \n\nКонтакты: @yulianka_95\n\n—\n\n👉 Обсуждение вакансии в чате @devops_jobs","markup":[{"type":"hashtag","offset":0,"length":9,"data":"вакансия"},{"type":"hashtag","offset":10,"length":7,"data":"devops"},{"type":"hashtag","offset":18,"length":7,"data":"docker"},{"type":"hashtag","offset":26,"length":11,"data":"kubernetes"},{"type":"link","offset":304,"length":10,"data":"http://Foxford.ru"},{"type":"handle","offset":1377,"length":12,"data":"yulianka_95"},{"type":"handle","offset":1424,"length":12,"data":"devops_jobs"}],"date":"2020-07-02T18:12:38+00:00","link":"tg://resolve?domain=devops_jobs_feed&post=2173","tags":[{"name":"docker"},{"name":"kubernetes"},{"name":"web"},{"name":"linux"},{"name":"ubuntu"},{"name":"bash"},{"name":"shell"},{"name":"python"},{"name":"ruby"},{"name":"dns"},{"name":"ruby-on-rails"},{"name":"nginx"},{"name":"ansible"}],"cities":[{"code":"moscow"}],"allowsRemote":false}},{"node":{"__typename":"Job","id":"2275409920-1001134745498","title":"Devops engineer","text":"#вакансия #devops #удаленка #fulltime #remote \n\nВакансия: DevOps Engineer\nЛокация: Казань\nФормат работы: офис или удаленка\nЗП: от 100к до 150к\n\n🔸Современная IT-компания, работающая на стыке банковской, страховой, инвестиционной и страховой сфер, сейчас находится в поиске DevOps Engineer.\n\nОфисы компании расположены в Казани и Иннополисе, также есть возможность работать удаленно.\n\nКомпания занимается изучением перспективных направлений в области финансовых продуктов и сервисов, и проверяет их на практике.\n\n🔸На текущий момент компания запускает очень крупный проект, задачей которого является трансформация архитектуры бизнеса и переезд всех процессов на новую технологическую платформу.\n\nКомпания может рассматривать лишь граждан РФ.\n\n🔹Требования\n— Опыт работы с ОС Linux;\n— Опыт работы в роли DevOps Engineer не менее 2 лет;\n— Знание скриптовых языков (Bash);\n— CI (Teamcity), CD (Octopus);\n— Опыт работы с системами мониторинга (SCOM \\ Zabbix).\n— Опыт работы с NoSQL СУБД;\n— Веб-серверы и балансировщики нагрузки (Apache/nginx haproxy).\n\n🔹**Контакты:**  \nКА: Lucky hunter\ne-mail: maria@luckyhunter.io\ntelegram: @Maria_Rey\n\n—\n\n👉 Обсуждение вакансии в чате @devops_jobs","markup":[{"type":"hashtag","offset":0,"length":9,"data":"вакансия"},{"type":"hashtag","offset":10,"length":7,"data":"devops"},{"type":"hashtag","offset":18,"length":9,"data":"удаленка"},{"type":"hashtag","offset":28,"length":9,"data":"fulltime"},{"type":"hashtag","offset":38,"length":7,"data":"remote"},{"type":"link","offset":1091,"length":20,"data":"mailto:maria@luckyhunter.io"},{"type":"handle","offset":1122,"length":10,"data":"Maria_Rey"},{"type":"handle","offset":1167,"length":12,"data":"devops_jobs"}],"date":"2020-07-02T12:08:03+00:00","link":"tg://resolve?domain=devops_jobs_feed&post=2170","tags":[{"name":"linux"},{"name":"bash"},{"name":"nosql"},{"name":"apache"},{"name":"nginx"}],"cities":[{"code":"kazan"}],"allowsRemote":true}},{"node":{"__typename":"Job","id":"2263875584-1001134745498","title":"Devops инженер","text":"#вакансия #devops #москва #fulltime\nГород и адрес офиса: Москва, м. Достаевская\nФормат работы: офис, частичная удаленка\nЗанятость: проектная занятость, 3 месяца\nЗарплатная вилка: от 100000 до 150000 - готовы обсуждать\n\nЗадачи:\nУчастие в создании высоконагруженных проектов\nУчастие в проектировании архитектур, серверов\nАвтоматизация процессов разработки\nМониторинг состояния серверов, нагрузок, обновления софта\nОбеспечение бесперебойной работы всей инфраструктуры и серверов\nВнедрять новые подходы и технологии\n\nЭкспертиза:\nОпыт выстраивания процессов CI/CD (GitLab -CI, Bamboo)\nОпыт оркестрации (Kubernetes, Swarm) и контейнеризации (Docker, LXC)\nОпыт работы с облачными сервисами (Yandex, Amazon, etc)\nОтличное знание Linux дистрибутивов (CentOS, Debian).\nУверенное администрирование Nginx, PHP, Varnish, балансировка, тюнинг конфигураций веб-серверов, баз данных и систем очередей.\nУверенное администрирование СУБД MySQL, PostgreSQL, системы NoSQL. Репликация, резервное копирование, резервирование, отказоустойчивость.\nОпыт работы с системами мониторинга Zabbix, Prometheus, Grafana.\n\nКомпания: \nAero\nАутстафф через агентство Farset\n\nКонтакты:\n@lun1n\n\n—\n\n👉 Обсуждение вакансии в чате @devops_jobs","markup":[{"type":"hashtag","offset":0,"length":9,"data":"вакансия"},{"type":"hashtag","offset":10,"length":7,"data":"devops"},{"type":"hashtag","offset":18,"length":7,"data":"москва"},{"type":"hashtag","offset":26,"length":9,"data":"fulltime"},{"type":"handle","offset":1149,"length":6,"data":"lun1n"},{"type":"handle","offset":1190,"length":12,"data":"devops_jobs"}],"date":"2020-06-30T10:56:12+00:00","link":"tg://resolve?domain=devops_jobs_feed&post=2159","tags":[{"name":"gitlab"},{"name":"kubernetes"},{"name":"docker"},{"name":"linux"},{"name":"centos"},{"name":"debian"},{"name":"nginx"},{"name":"php"},{"name":"mysql"},{"name":"postgresql"},{"name":"nosql"}],"cities":[{"code":"moscow"}],"allowsRemote":true}},{"node":{"__typename":"Job","id":"26597130240-1001075660570","title":"Php разработчик","text":"PHP- разработчик \n#Drupal #php #вакансия\n\nКрупный Банк России.\n\nОклад: 100-150к net + премия\n\nОбязательно:\n• Опыт работы с Drupal 7/8 \n• Знания php 7 и ООП\n• Знания современного окружения (nginx\\apache, mysql\\pgsql, MQ и т.д) .\n• Понимание ядра Drupal 8\n• Опыт работы с популярным контрибом (views, token, paragraphs, groups и т.д.)\n• Навыки работы с большим объемом унаследованного кода\n• Опыт промышленной эксплуатации высоконагруженных проектов, со сложным релизным циклом и SLA 99,99+\n• Знание протокола HTTP/HTTPS и понимание REST архитектуры\n• Навыки работы с linux (cli)\n• Навыки по настройке и эксплуатация php приложений в контейнерах\nЖелательно:\n• Опыт ведения больших проектов в git с несколькими релизными ветками.\n• Навыки использования PHPUnit в связке с Drupal 8 (unit, kernel, functional тесты)\n• Опыт работы с криптографией, шифрованием, КЭП, ЭЦП, TLS и т.д.\nОбязанности:\n• Участие в разработке высоконагруженных интернет-порталов;\n• Разработка новых и поддержка/доработка существующих проектов компании;\n• Рефакторинг кода и устранение неисправностей/уязвимостей;\n• Интеграция проектов со сторонними сервисами;\n• Чтение ТЗ и разработка согласно его требований;\n• Документирование создаваемого кода;\n\nРезюме в личку.","markup":[{"type":"hashtag","offset":18,"length":7,"data":"Drupal"},{"type":"hashtag","offset":26,"length":4,"data":"php"},{"type":"hashtag","offset":31,"length":9,"data":"вакансия"}],"date":"2020-06-26T07:40:37+00:00","link":"tg://resolve?domain=php_jobs&post=25365","tags":[{"name":"php"},{"name":"drupal"},{"name":"dotnet"},{"name":"nginx"},{"name":"apache"},{"name":"mysql"},{"name":"rest"},{"name":"linux"},{"name":"git"},{"name":"phpunit"}],"cities":[],"allowsRemote":false}},{"node":{"__typename":"Job","id":"92279930880-1001067529236","title":"Python developer","text":"#вакансия #senior #upperintermediate #fullstack #remote\nкомпания s-o-services\nз\\п 2800-3800$, оформление по ип (компании в рф нет)\nзаказчик американское издательство\nконтакты @erzentd\n\nТребования:\n\n4+ years of demonstrated experience successfully launching complex projects on time\n2+ years of experience as a full-time developer for a web app, custom software product or organization web site\n3+ years of experience with most or all of the following: Python & Django, relational DBs, jQuery & JavaScript, HTML, CSS/LESS, Git\nExperience with the following technologies preferred but not required: MongoDB, PostgreSQL, Elasticsearch,\nWordPress, CDNs, uWSGI, Redis, Celery, Jenkins, Sentry, New Relic, Nginx, CentOS, RabbitMQ, React, \nSalesforce, Marketo, high availability systems, or graph databases\nOrganized, detail and deadline oriented, highly focused\nAbility to prioritize & manage multiple projects at one time; cool under pressure\nAnalytical thinker with strong/creative problem solving skills\nExperience with Agile development methodologies\nStrong written and verbal communication skills\nAn interest in government, elections, and associated datasets","markup":[{"type":"hashtag","offset":0,"length":9,"data":"вакансия"},{"type":"hashtag","offset":10,"length":7,"data":"senior"},{"type":"hashtag","offset":18,"length":18,"data":"upperintermediate"},{"type":"hashtag","offset":37,"length":10,"data":"fullstack"},{"type":"hashtag","offset":48,"length":7,"data":"remote"},{"type":"handle","offset":175,"length":8,"data":"erzentd"}],"date":"2020-06-25T10:25:16+00:00","link":"tg://resolve?domain=python_jobs&post=88005","tags":[{"name":"python"},{"name":"web"},{"name":"django"},{"name":"jquery"},{"name":"javascript"},{"name":"html"},{"name":"css"},{"name":"git"},{"name":"mongodb"},{"name":"postgresql"},{"name":"elasticsearch"},{"name":"wordpress"},{"name":"redis"},{"name":"jenkins"},{"name":"nginx"},{"name":"centos"},{"name":"rabbitmq"},{"name":"reactjs"}],"cities":[],"allowsRemote":true}},{"node":{"__typename":"Job","id":"2252341248-1001134745498","title":"Devops инженер","text":"#вакансия #DevOps #удаленка \nВакансия: DevOps\nФормат работы: офис или удаленная\nАдрес:  Москва, Боровая 8 (авиамоторная)\nЗанятость: полная\nЗарплатная вилка: от 140к до 190к\nКомпания: EMCD  Tech (emcd.io)\n \nВ связи с расширением бизнеса команда EMCD находится в поиске DevOps инженера. \n\nОсновная задача: развертывание и поддержка приложений на всех этапах разработки, создание и развитие систем непрерывной интеграции, развитие систем мониторинга\n\nЧто требуется:\n- ответственность, аккуратность, внимательность\n- опыт администрирования Linux\n- VMware (на базовом уровне: создание виртуалок, настройка сети)\n- Bash, Nginx, Ansible, Docker\n- CI/CD инструментарий (мы используем Bitbucket Pipelines и Docker Hub)\n- Zabbix, Prometheus, Grafana\n- MySQL, Clickhouse, Redis\n\nБудет плюсом:\n- опыт с AWS (на базовом уровне: создание виртуалок, настройка сети)\n\nУсловия\n- современный технологический стек\n- 4 перспективных продукта, команда больше 30 человек\n- возможность профессионального развития и карьерного роста\n- гибкий график\n\nКонтакты : @irapal, career@emcd.io\n\n—\n\n👉 Обсуждение вакансии в чате @devops_jobs","markup":[{"type":"hashtag","offset":0,"length":9,"data":"вакансия"},{"type":"hashtag","offset":10,"length":7,"data":"DevOps"},{"type":"hashtag","offset":18,"length":9,"data":"удаленка"},{"type":"link","offset":195,"length":7,"data":"http://emcd.io"},{"type":"handle","offset":1037,"length":7,"data":"irapal"},{"type":"link","offset":1046,"length":14,"data":"mailto:career@emcd.io"},{"type":"handle","offset":1095,"length":12,"data":"devops_jobs"}],"date":"2020-06-24T17:14:51+00:00","link":"tg://resolve?domain=devops_jobs_feed&post=2148","tags":[{"name":"linux"},{"name":"bash"},{"name":"nginx"},{"name":"ansible"},{"name":"docker"},{"name":"mysql"},{"name":"redis"},{"name":"amazon-web-services"}],"cities":[{"code":"moscow"}],"allowsRemote":true}},{"node":{"__typename":"Job","id":"17133731840-1001110946746","title":"Js developer","text":"#вакансия #frontenddeveloper #frontend\n\nГород и адрес офиса: Москва\n\nФормат работы: удаленна\n\nЗанятость: проектная, далее возможно заключение долгосрочного контракта с бонусами за развитие компании (испытательный срок - 2 месяца)\n\nЗарплатная вилка: от 90 000 до 130 000 руб.\n\nОписание вакансии: РАЗРАБОТКА ИНТЕРНЕТ  ПЛАТФОРМЫ ДЛЯ СОЗДАНИЯ КОМПЬЮТЕРНОЙ ГРАФИКИ ДЛЯ ИГР И СПЕЦЭФФЕКТОВ В КИНО (cg-doo.com)\n\nТребуемый опыт работы: 2–5 лет\n\nНеобходимые навыки:\n- уверенное знание JavaScript, React / Redux, HTML5, CSS3\n- опыт коммерческой разработки с использованием React.JS, Redux от года\n- опыт работы с ES6\n- знание английского на уровне чтения документации\n\nБудет плюсом:\n- опыт работы с Docker, Git\n\nСтек проекта:\n- SPA-приложение JS / React / Redux;\n- бэкэнд на Django/Postgresql/Redis/Celery/RabbitMQ; \n- NginX, kubernetes\n\nНазвание компании: Argunov Studio (https://argunov.studio)\n\nПодробнее ознакомиться с компанией и вакансией можно здесь: https://help.cg-doo.com/work-in-cg-doo/vacancies/frontend-developer\n\nКонтакты: телеграм @victoriashrv и/или на почту vicsukhareva@yandex.ru (пожалуйста, прикладывайте резюме или сопроводительное письмо)\n\n—\n\n👉 Обсуждение вакансии в чате @javascript_jobs","markup":[{"type":"hashtag","offset":0,"length":9,"data":"вакансия"},{"type":"hashtag","offset":10,"length":18,"data":"frontenddeveloper"},{"type":"hashtag","offset":29,"length":9,"data":"frontend"},{"type":"link","offset":391,"length":10,"data":"http://cg-doo.com"},{"type":"link","offset":862,"length":22,"data":"https://argunov.studio"},{"type":"link","offset":947,"length":67,"data":"https://help.cg-doo.com/work-in-cg-doo/vacancies/frontend-developer"},{"type":"handle","offset":1035,"length":13,"data":"victoriashrv"},{"type":"link","offset":1064,"length":22,"data":"mailto:vicsukhareva@yandex.ru"},{"type":"handle","offset":1184,"length":16,"data":"javascript_jobs"}],"date":"2020-06-24T13:37:13+00:00","link":"tg://resolve?domain=javascript_jobs_feed&post=16340","tags":[{"name":"javascript"},{"name":"reactjs"},{"name":"redux"},{"name":"html"},{"name":"css"},{"name":"docker"},{"name":"git"},{"name":"django"},{"name":"postgresql"},{"name":"redis"},{"name":"rabbitmq"},{"name":"nginx"},{"name":"kubernetes"},{"name":"react-redux"}],"cities":[{"code":"moscow"}],"allowsRemote":false}}]}}},"context":{}}