{"hash":"f5f6bf98bd95e769321482904cbbd488f77922fd","data":{"records":{"id":"mysql","name":"mysql","belongsTo":{"totalCount":78,"pageInfo":{"totalPages":8,"currentPage":4},"edges":[{"node":{"__typename":"Job","id":"26588741632-1001075660570","title":"Php разработчик","text":"РАЗРАБОТЧИК НА PHP УДАЛЕННО\n#вакансия #php #удаленно #Wordpress \n#fullstack #middle #senior \nФормат работы: Удалённая \nЗанятость: частичная, проектная, от 20 часов в неделю.  \nГрафик гибкий, но необходимо быть на связи с 9.00 до 18.00 по МСК, чтобы иметь возможность ответить на возникающие вопросы. \nЗарплатная вилка: от 50 тыс. руб. Зп 2 р в месяц или попроектная оплата (определяем по результатам собеседования)\nО нас: Веб-студия Денир  denir.ru  \nРазрабатываем сайты, лендинги, а также программные продукты для автоматизации малого бизнеса. На рынке уже 9 лет.\n\nИщем программиста в команду для работы над сайтами и сервисами на php.\n\nТребования к кандидату:\n • Опыт программирования на языке PHP от 2-х лет;\n\n • Опыт работы с MySQL,\n\n • Опыт работы с WP от 1го года,\n\n • Ответственность,\n\n • Соблюдение поставленных сроков. \n\n\nОбязанности:\n • Разработка с нуля сайтов, лендингов, интернет-магазинов,\n\n • Доработка и поддержка разработанных проектов,\n\n • Разработка сервисов на php back-front.\n\n\nМы гарантируем:\n • Интересные задачи, \n\n • Актуальный стек технологий,\n\n • Cпланированные понятные задачи,\n\n • Гибкий график,\n\n • Профессиональную команду,\n\n • Возможность получать обратную связь по результатам работы.\n\n\nКонтактное лицо: @irinadenchik (Ирина), auditdenisova@yandex.ru (рабочая почта)","markup":[{"type":"hashtag","offset":28,"length":9,"data":"вакансия"},{"type":"hashtag","offset":38,"length":4,"data":"php"},{"type":"hashtag","offset":43,"length":9,"data":"удаленно"},{"type":"hashtag","offset":53,"length":10,"data":"Wordpress"},{"type":"hashtag","offset":65,"length":10,"data":"fullstack"},{"type":"hashtag","offset":76,"length":7,"data":"middle"},{"type":"hashtag","offset":84,"length":7,"data":"senior"},{"type":"bold","offset":108,"length":9,"data":""},{"type":"bold","offset":130,"length":44,"data":""},{"type":"bold","offset":176,"length":14,"data":""},{"type":"link","offset":440,"length":8,"data":"http://denir.ru/"},{"type":"bold","offset":566,"length":70,"data":""},{"type":"bold","offset":638,"length":23,"data":""},{"type":"bold","offset":831,"length":12,"data":""},{"type":"bold","offset":999,"length":15,"data":""},{"type":"handle","offset":1237,"length":13,"data":"irinadenchik"},{"type":"link","offset":1260,"length":23,"data":"mailto:auditdenisova@yandex.ru"}],"date":"2020-06-25T12:40:27+00:00","link":"tg://resolve?domain=php_jobs&post=25357","tags":[{"name":"php"},{"name":"wordpress"},{"name":"mysql"}],"cities":[],"allowsRemote":true}},{"node":{"__typename":"Job","id":"26587693056-1001075660570","title":"Php developer","text":"#вакансия #москва #офис #fulltime #symfony #php #job\n\nВсем привет!\nСейчас нахожусь в поиске сильного специалиста и с радостью делюсь подробностями :)\n\n Позиция: Senior PHP Developer\nЗанятость: полная\nКомпания: ТД ЦУМ \nЛокация: Москва\nЗ/П: до 280.000\n\n   Основные цели и задачи:\n- Разработка программных модулей продуктов компании;\n- Глубокое погружение в процессы работы интернет-магазина;\n- Участие в разработке сервис-ориентированной архитектуре приложения.\n\n   Основные обязанности:\n- Разработка и поддержка инфраструктуры интернет-проекта, мобильного приложения и внутренних сервисов компании;\n- Разработка программных модулей продуктов интернет магазина ЦУМ;\n- Оптимизация приложения под высокую нагрузку, масштабирование, поиск узких мест;\n- Интеграция со сторонними сервисами;\n- Предложение и внедрение высокотехнологичных, инновационных решений.\n\nТребования:\n- Отличное знание и опыт работы с PHP 7 от 3 лет;\n- Понимание как устроен HTTP, REST;\n- Знание и понимание MVC архитектуры;\n- Знание и опыт работы фреймворком YII;\n- Опыт работы с одной или несколькими БД: MySQL, Redis, Mongo;\n- Опыт мониторинга и оптимизации SQL-запросов;\n\n   Условия работы:\n- Полный рабочий день (система гибкого утра с возможностью начала с 9:00 до 12:00)\n- Официальное оформление по трудовому договору.\n- Офис в центре Москвы.\n- ДМС.\n- Корпоративное обучение.\n- Скидки от партнеров компании.\n\nЕсли остались вопросы, с радостью отвечу:\n @zhukovadasha","markup":[{"type":"hashtag","offset":0,"length":9,"data":"вакансия"},{"type":"hashtag","offset":10,"length":7,"data":"москва"},{"type":"hashtag","offset":18,"length":5,"data":"офис"},{"type":"hashtag","offset":24,"length":9,"data":"fulltime"},{"type":"hashtag","offset":34,"length":8,"data":"symfony"},{"type":"hashtag","offset":43,"length":4,"data":"php"},{"type":"hashtag","offset":48,"length":4,"data":"job"},{"type":"handle","offset":1425,"length":13,"data":"zhukovadasha"}],"date":"2020-06-25T12:35:50+00:00","link":"tg://resolve?domain=php_jobs&post=25356","tags":[{"name":"php"},{"name":"symfony"},{"name":"rest"},{"name":"yii"},{"name":"mysql"},{"name":"redis"},{"name":"sql"}],"cities":[{"code":"moscow"}],"allowsRemote":false}},{"node":{"__typename":"Job","id":"1737490432-1001091028994","title":"Java developer","text":"#Вакансия #Java #Spring #Москва\n\nВсем привет! \nИщу Middle Java Backend Developer в Национальную Систему Платёжных Карт на проект \"Клиринг\".\n\nЭто Core-платформа, которая обрабатывает все транзакции внутри нашей страны по всем основным платежным системам. Обработка каждой системы уникальна, имеет свои интересные особенности. \n\nСтек: CentOS, Java Core, Spring, Akka Actors, MySql, MyBatis, Swagger, Gradle, Groovy и Kotlin скрипты.\n\nНам интересны кандидаты от уровня Middle и выше: от 160 000 rub. \nФинансовый вопрос обсуждается индивидуально и зависит от опыта, знаний и навыков кандидата.\n\nЧто предстоит делать:\n- разрабатывать и поддерживать  backend проекта в тесном взаимодействии с командой;\n- обеспечивать полный цикл разработки от анализа требований до внедрения продукта;\n- участвовать в построении новых систем и в развитии существующих.\n\nЧто требуется:\n- отличные знания Core Java;\n- опыт работы со стеком Spring, в том числе SpringBoot;\n- хорошие знания SQL, опыт работы с JUnit, использования git, вариантов gitflow;\n- понимание принципов построения CI/CD (методология, инструменты);\nумение декомпозировать задачи.\n\nМы предлагаем:\n- работу в команде профессионалов;\n- обучение за счет компании;\n- развитую корпоративную культуру;\n- комфортный офис в центре (тренажерный зал, спортивный зал, лаунж-зона, кухни с чаем и кофе на каждом этаже);\n- ДМС со стоматологией с первого месяца работы, официальное трудоустройство.\n\n@arinakulova","markup":[{"type":"hashtag","offset":0,"length":9,"data":"Вакансия"},{"type":"hashtag","offset":10,"length":5,"data":"Java"},{"type":"hashtag","offset":16,"length":7,"data":"Spring"},{"type":"hashtag","offset":24,"length":7,"data":"Москва"},{"type":"handle","offset":1431,"length":12,"data":"arinakulova"}],"date":"2020-06-25T10:47:20+00:00","link":"tg://resolve?domain=jvmjobs&post=1657","tags":[{"name":"java"},{"name":"jvm"},{"name":"spring"},{"name":"centos"},{"name":"akka"},{"name":"mysql"},{"name":"swagger"},{"name":"gradle"},{"name":"groovy"},{"name":"kotlin"},{"name":"sql"},{"name":"junit"},{"name":"git"}],"cities":[{"code":"moscow"}],"allowsRemote":false}},{"node":{"__typename":"Job","id":"17149460480-1001110946746","title":"Js разработчик","text":"Ребята, всем привет!\n\n#вакансия #москва #JavaScript #backend #nodeJS #developer #middle #SQL #MySQL #PostgresSQL #RDBMS #нода #автотест #офис\n\nИщем nodejs разработчика для онлайн-платформы, которая предоставляет услуги разного профиля и помогает в решении от сложных юридически вопросов до консультаций с врачем\n \nЗП: 140 000-180 000 на руки\nМосква, м. Пролетарская, \n\nофис\nПолный рабочий день. Гибкое начало дня.\nКА RedCode\n\nЧто делать: \n-интегрировать внутреннюю корпоративную систему с сайтом;\n- работать с «личным кабинетом» пользователей;\n- работать с продуктами компании.\n\nСтек: JavaScript (NodeJS), RDBMS, SQL, MySQL/Postgres\n\nБудет хорошо, если у вас:\n- опыт коммерческой разработки от 3 лет, \n- знание ООП и основных шаблонов проектирования;\n-опыт написания автотестов.\n\nБуду рада пообщаться лично @diana_com\n\n—\n\n👉 Обсуждение вакансии в чате @javascript_jobs","markup":[{"type":"hashtag","offset":22,"length":9,"data":"вакансия"},{"type":"hashtag","offset":32,"length":7,"data":"москва"},{"type":"hashtag","offset":40,"length":11,"data":"JavaScript"},{"type":"hashtag","offset":52,"length":8,"data":"backend"},{"type":"hashtag","offset":61,"length":7,"data":"nodeJS"},{"type":"hashtag","offset":69,"length":10,"data":"developer"},{"type":"hashtag","offset":80,"length":7,"data":"middle"},{"type":"hashtag","offset":88,"length":4,"data":"SQL"},{"type":"hashtag","offset":93,"length":6,"data":"MySQL"},{"type":"hashtag","offset":100,"length":12,"data":"PostgresSQL"},{"type":"hashtag","offset":113,"length":6,"data":"RDBMS"},{"type":"hashtag","offset":120,"length":5,"data":"нода"},{"type":"hashtag","offset":126,"length":9,"data":"автотест"},{"type":"hashtag","offset":136,"length":5,"data":"офис"},{"type":"handle","offset":807,"length":10,"data":"diana_com"},{"type":"handle","offset":852,"length":16,"data":"javascript_jobs"}],"date":"2020-06-25T10:41:37+00:00","link":"tg://resolve?domain=javascript_jobs_feed&post=16355","tags":[{"name":"javascript"},{"name":"nodejs"},{"name":"sql"},{"name":"mysql"},{"name":"postgresql"}],"cities":[{"code":"moscow"}],"allowsRemote":false}},{"node":{"__typename":"Job","id":"2255486976-1001134745498","title":"Devops инженер","text":"#вакансия #Systemarchitect #DevOps\nГород и адрес офиса: Витебск\nФормат работы: удаленка\nЗарплатная вилка: от 3000 до 3900$\nОписание вакансии: \nсначала  System architect потом DevOps.\nMust-Have Skills DevOps AWS,Google Cloud, MySQL, PHP English, Redis, Nice-to-Have Skills Java\nНемецкий заказчик\nНазвание компании: ООО «Дженерал Софт»\nКонтакты: @Hr_mihail_gurin\n\n—\n\n👉 Обсуждение вакансии в чате @devops_jobs","markup":[{"type":"hashtag","offset":0,"length":9,"data":"вакансия"},{"type":"hashtag","offset":10,"length":16,"data":"Systemarchitect"},{"type":"hashtag","offset":27,"length":7,"data":"DevOps"},{"type":"handle","offset":344,"length":16,"data":"Hr_mihail_gurin"},{"type":"handle","offset":395,"length":12,"data":"devops_jobs"}],"date":"2020-06-25T07:35:38+00:00","link":"tg://resolve?domain=devops_jobs_feed&post=2151","tags":[{"name":"amazon-web-services"},{"name":"cloud"},{"name":"mysql"},{"name":"php"},{"name":"redis"},{"name":"java"},{"name":"google-cloud-platform"}],"cities":[{"code":"vitebsk"},{"code":"nice"}],"allowsRemote":true}},{"node":{"__typename":"Job","id":"354418688-1001352129329","title":"Golang разработчик","text":"Ребят, всем привет! \nПостараюсь кратко, подробности в ЛС. Заранее напишу, что это Москва (фултайм/офис), компания Lofty. Ищем в команду как Midle так и Senior Go разработчиков.\nВообщем если хочется в highload, добро пожаловать!)\n\nО проекте:\nЭто высоконагруженное backend приложение для рассылки web push-уведомлений, обслуживающее на данный момент более 100млн показов в сутки. \nЧем у нас предстоит заниматься:\nПрофилировать и оптимизировать существующие сервисы;\nПроводить доработки и интеграцию их в действующий код и инфраструктуру;\nРеализовывать новые бизнес-требования внутри сервиса;\nУстранять возникающие баги в сервисе.\n\nЧто мы ждем от кандидата:\nНавыки работы с Git;\nУверенное знание Golang;\nПонимание технологий HTTP, REST;\nОпыт работы в Unix-окружении.\n\nБудет совсем круто, если вы:\nРаботали с highload-проектами;\nПонимаете и уважаете концепцию CI/CD.\nНаш стек технологий: Golang, Gitlab, MySQL, JS, RabbitMQ, Docker, Ansible, Clickhouse\n\nУсловия: \nЗаработная плата от 130 000 до 300 000 руб. на руки, естественно зависит от уровня, преимущественно смотрим \"мидов\", но и \"джуны\" нам тоже интересны.\n\nНаш сайт: `https://www.lofty.today/\n#вакансия#golang","markup":[{"type":"link","offset":1122,"length":24,"data":"https://www.lofty.today/"}],"date":"2020-06-24T17:53:47+00:00","link":"tg://resolve?domain=gogetajobfeed&post=338","tags":[{"name":"go"},{"name":"web"},{"name":"git"},{"name":"rest"},{"name":"unix"},{"name":"gitlab"},{"name":"mysql"},{"name":"rabbitmq"},{"name":"docker"},{"name":"ansible"}],"cities":[{"code":"moscow"}],"allowsRemote":false}},{"node":{"__typename":"Job","id":"2252341248-1001134745498","title":"Devops инженер","text":"#вакансия #DevOps #удаленка \nВакансия: DevOps\nФормат работы: офис или удаленная\nАдрес:  Москва, Боровая 8 (авиамоторная)\nЗанятость: полная\nЗарплатная вилка: от 140к до 190к\nКомпания: EMCD  Tech (emcd.io)\n \nВ связи с расширением бизнеса команда EMCD находится в поиске DevOps инженера. \n\nОсновная задача: развертывание и поддержка приложений на всех этапах разработки, создание и развитие систем непрерывной интеграции, развитие систем мониторинга\n\nЧто требуется:\n- ответственность, аккуратность, внимательность\n- опыт администрирования Linux\n- VMware (на базовом уровне: создание виртуалок, настройка сети)\n- Bash, Nginx, Ansible, Docker\n- CI/CD инструментарий (мы используем Bitbucket Pipelines и Docker Hub)\n- Zabbix, Prometheus, Grafana\n- MySQL, Clickhouse, Redis\n\nБудет плюсом:\n- опыт с AWS (на базовом уровне: создание виртуалок, настройка сети)\n\nУсловия\n- современный технологический стек\n- 4 перспективных продукта, команда больше 30 человек\n- возможность профессионального развития и карьерного роста\n- гибкий график\n\nКонтакты : @irapal, career@emcd.io\n\n—\n\n👉 Обсуждение вакансии в чате @devops_jobs","markup":[{"type":"hashtag","offset":0,"length":9,"data":"вакансия"},{"type":"hashtag","offset":10,"length":7,"data":"DevOps"},{"type":"hashtag","offset":18,"length":9,"data":"удаленка"},{"type":"link","offset":195,"length":7,"data":"http://emcd.io"},{"type":"handle","offset":1037,"length":7,"data":"irapal"},{"type":"link","offset":1046,"length":14,"data":"mailto:career@emcd.io"},{"type":"handle","offset":1095,"length":12,"data":"devops_jobs"}],"date":"2020-06-24T17:14:51+00:00","link":"tg://resolve?domain=devops_jobs_feed&post=2148","tags":[{"name":"linux"},{"name":"bash"},{"name":"nginx"},{"name":"ansible"},{"name":"docker"},{"name":"mysql"},{"name":"redis"},{"name":"amazon-web-services"}],"cities":[{"code":"moscow"}],"allowsRemote":true}},{"node":{"__typename":"Job","id":"17129537536-1001110946746","title":"Js developer","text":"#вакансия  #Москва  #fulltime #офис   #nodejs #sql #backend\n\nМосква, м. Пролетарская\nФормат работы: офис\nЗанятость: полная, гибкое начало дня\nЗарплатная вилка: 150000 - 200000 рублей после вычета налогов\nКомпания: Кадровое Агентство «HR ONLINE»\nКонтакты: @sorokinayuliyahr\n\n🧷Мы в поиске Backend developer Node.js в сервисную компанию (online-платформа, где все важные сервисы доступны 24/7: от налогового вычета до дизайна интерьеров)\n\n💎Какими навыками и знаниями необходимо обладать:\n* ответственность и желание сделать вместе с командой крутой продукт; \n* умение писать чистый, читабельный, поддерживаемый код;\n* уверенное знание JavaScript (NodeJS), опыт коммерческой разработки от 3 лет; \n* знание ООП и основных шаблонов проектирования; \n* хорошее знание RDMS и в целом SQL, опыт работы с MySQL/Postgres;\n* опыт написания автотестов. \n\n💎Какие задачи необходимо решать:\n* интеграция внутренней корпоративной системы с сайтом;\n* работа с «личным кабинетом» пользователей;\n* работа с продуктами компании.\n\n💎Что готовы предложить: \n* 5 мин от метро Пролетарская;\n* Работа в дружной слаженной команде;\n* Оформление по ТК РФ, белая ЗП;\n* Итоговая заработная плата зависит от ваших компетенций и определяется по результатам собеседования;\n* ДМС.","markup":[{"type":"hashtag","offset":0,"length":9,"data":"вакансия"},{"type":"hashtag","offset":11,"length":7,"data":"Москва"},{"type":"hashtag","offset":20,"length":9,"data":"fulltime"},{"type":"hashtag","offset":30,"length":5,"data":"офис"},{"type":"hashtag","offset":38,"length":7,"data":"nodejs"},{"type":"hashtag","offset":46,"length":4,"data":"sql"},{"type":"hashtag","offset":51,"length":8,"data":"backend"},{"type":"handle","offset":255,"length":17,"data":"sorokinayuliyahr"}],"date":"2020-06-24T10:46:25+00:00","link":"tg://resolve?domain=javascript_jobs_feed&post=16336","tags":[{"name":"javascript"},{"name":"nodejs"},{"name":"sql"},{"name":"mysql"},{"name":"postgresql"}],"cities":[{"code":"moscow"}],"allowsRemote":false}},{"node":{"__typename":"Job","id":"17128488960-1001110946746","title":"Js разработчик","text":"#вакансия #frontend  #React #офис #remote #Спб #senior \n\nКомпания: DBeaver\nЗ/п: 180 000 - 300 000 рублей на руки \nГород и адрес офиса: г. Санкт-Петербург (м. Площадь Ленина/Новочеркасская)\nФормат работы: офис или удаленка \nЗанятость: полная, fulltime\n\n🌏DВeaver  - это международный open source проект, бесплатный многоплатформенный инструмент для работы с базами данных. Поддерживает все популярные базы данных: MySQL, PostgreSQL, MariaDB, SQLite, Oracle, DB2, SQL Server, Sybase, MS Access, Teradata, Firebird, Derby и т. д. Платформа интегрируется с Amazon сервисами и нацелена на облачные решения. \n\nCейчас ребята разрабатывают web решение DВeaver, первый релиз состоялся в начале года и компания активно продолжает развитие. \n\n💠Какой опыт и знания ожидают увидеть ребята:\n- опыт работы с TypeScript и React;\n- опыт участия в многокомпонентных проектах со сложной бизнес-логикой;\n- опыт проектирования и рефакторинга;\n- готовность возглавить разработку интерфейсной части продукта, принимать ключевые архитектурные решения;\n- английский язык от уровня intermediate (письменный и на уровне чтения).\n\nСтек технологий: TypeScript, React, GraphQL, MobX, RxJS, Docker. \n\n💎Что получите вы:\n- комфортный офис в БЦ Бенуа;\n- возможность частично или полностью удаленной работы; \n- официальное оформление;\n- возможность поработать над крутым международным продуктом в сплоченной команде энтузиастов;\n- профессиональные командировки и конференции в США и Европу.\n\nКонтакты:\ne-mail: valeriya@luckyhunter.io\ntelegram: @sobolevavalery\nКА: http://luckyhunter.io\nБуду рада ответить на все вопросы и рассказать подробнее о компании 😊","markup":[{"type":"hashtag","offset":0,"length":9,"data":"вакансия"},{"type":"hashtag","offset":10,"length":9,"data":"frontend"},{"type":"hashtag","offset":21,"length":6,"data":"React"},{"type":"hashtag","offset":28,"length":5,"data":"офис"},{"type":"hashtag","offset":34,"length":7,"data":"remote"},{"type":"hashtag","offset":42,"length":4,"data":"Спб"},{"type":"hashtag","offset":47,"length":7,"data":"senior"},{"type":"link","offset":1477,"length":23,"data":"mailto:valeriya@luckyhunter.io"},{"type":"handle","offset":1511,"length":15,"data":"sobolevavalery"},{"type":"link","offset":1531,"length":21,"data":"http://luckyhunter.io"}],"date":"2020-06-24T10:45:59+00:00","link":"tg://resolve?domain=javascript_jobs_feed&post=16335","tags":[{"name":"javascript"},{"name":"reactjs"},{"name":"mysql"},{"name":"postgresql"},{"name":"mariadb"},{"name":"sqlite"},{"name":"oracle"},{"name":"sql"},{"name":"ms-access"},{"name":"web"},{"name":"typescript"},{"name":"graphql"},{"name":"rxjs"},{"name":"docker"},{"name":"sql-server"}],"cities":[],"allowsRemote":true}},{"node":{"__typename":"Job","id":"1732247552-1001091028994","title":"Java разработчик","text":"#Java #Spring #8bitgroup\n\nГород и адрес офиса: #Москва, ст.м. Тульская W-Плаза \nФормат работы: #офис или #remote\nЗанятость: #полная, #fulltime\nЗарплатная вилка: 200 000 – 300 000 руб.          \n\n8bitgroup в поиске #Java-разработчиков: Teamlead + 2 разработчика Mid или Senior\nРассмотрим по одному или переход командой. За каждый выход- бонус 50к\n\n Компания разрабатывает собственные продукты – партнёрские программы и рекламные системы CPA, RTB, CPI, mobile и игровые проекты с 2012г., владеет СРА-сетью Leadbit, и успешным игровым проектом - ссылку в личку.\nТут можно посмотреть офис и плюшки https://www.facebook.com/8bitgroup\n                                         \nНашим игровым проектам (БК с лицензией РУ, гэмблинг, игры) нужны явисты. У нас скилловая растущая команда. Все лето - свободное посещение офиса, далее по ситуации с Covid. Доставим железо и удобное кресло с трудовым договором на дом. \n\n Задачи: \n • Проектирование и разработка интеграционной платформы и ее инструментов ; ссылка на проект в личку.\n • Разработка решений с использованием открытого ПО;\n • Разработка модульных и интеграционных тестов;\n • Ревью кода;\n\nОпыт и навыки:\n • Опыт разработки промышленных (high load, low latency) приложений\n • Знание основных алгоритмов и структур данных;\n • Знание паттернов проектирования ПО;\n • Знание Java Сore\n • Опыт разработки веб-сервисов (REST, HTTP);\n • Опыт написания и оптимизации SQL запросов (MySQL);\n • Понимание требований ACID и уровней изолированности транзакций;\n • Уверенное знание фреймворка Spring\n • Знание системы управления версиями (Git); Jira желательно. \n \nМы предлагаем: \n• Оклад в указанной вилке от ожиданий и опыта\n• Соцпакет: футбол по вторникам, ДМС ВСК со стоматологией \n• Гибкий график - лояльное начало дня, 8 часов рабочий день, сейчас удаленка до сентября\n• Возможность выбрать машину (Мак или Линукс или др ПО) - доставим домой \n• Формат «работа на удаленке» по болезни  и карантину\n• Переиндексация ЗП и возможность пересмотра грейда и ЗП 1 раз в год \n• Офис с панорамой на Москву-реку и летняя веранда с шашлыками, гамаками и пиццой\n\nКонтакты: Мариэтта IT HR  @mari_et\nпочта hr@dats.team","markup":[{"type":"hashtag","offset":0,"length":5,"data":"Java"},{"type":"hashtag","offset":6,"length":7,"data":"Spring"},{"type":"hashtag","offset":14,"length":10,"data":"8bitgroup"},{"type":"hashtag","offset":47,"length":7,"data":"Москва"},{"type":"hashtag","offset":95,"length":5,"data":"офис"},{"type":"hashtag","offset":105,"length":7,"data":"remote"},{"type":"hashtag","offset":124,"length":7,"data":"полная"},{"type":"hashtag","offset":133,"length":9,"data":"fulltime"},{"type":"hashtag","offset":214,"length":5,"data":"Java"},{"type":"link","offset":594,"length":34,"data":"https://www.facebook.com/8bitgroup"},{"type":"handle","offset":2115,"length":8,"data":"mari_et"},{"type":"link","offset":2130,"length":12,"data":"mailto:hr@dats.team"}],"date":"2020-06-24T09:07:54+00:00","link":"tg://resolve?domain=jvmjobs&post=1652","tags":[{"name":"java"},{"name":"jvm"},{"name":"spring"},{"name":"mobile"},{"name":"rest"},{"name":"sql"},{"name":"mysql"},{"name":"git"}],"cities":[{"code":"moscow"}],"allowsRemote":true}}]}}},"context":{}}