{"hash":"f5f6bf98bd95e769321482904cbbd488f77922fd","data":{"records":{"id":"android","name":"android","belongsTo":{"totalCount":165,"pageInfo":{"totalPages":17,"currentPage":4},"edges":[{"node":{"__typename":"Job","id":"72467087360-1001054966032","title":"Android разработчик","text":"#вакансия #android #remote #удаленка \n\nФормат работы: удаленка\nЗанятость: проектная\nОплата:\n+ Отдельные проекты (сдельная оплата) в среднем 60-150 $\n+ Партнёрские условия (получаете процент от выручки)\n\nОписание вакансии:\nТребуется разработчик Face Swap и подобных приложений на различные проекты.\n\nВ ближайшее время планируем реализовать несколько проектов посредством подключения готовых Face Swap модулей по api или через внедрения отдельных готовых блоков кода. Есть много различных идей.\n\n🧠 Требования:\n\n+ Общий опыт работы от 2-х лет\n+ Опыт работы с различными api, с внедрением готовых модулей в приложение\n+ Опыт работы с Face Swap или дополненной реальностью и т.п.\n\nКонтакты: телеграм @makar_abraam","markup":[{"type":"hashtag","offset":0,"length":9,"data":"вакансия"},{"type":"hashtag","offset":10,"length":8,"data":"android"},{"type":"hashtag","offset":19,"length":7,"data":"remote"},{"type":"hashtag","offset":27,"length":9,"data":"удаленка"},{"type":"handle","offset":696,"length":13,"data":"makar_abraam"}],"date":"2020-07-01T15:26:25+00:00","link":"tg://resolve?domain=mobile_jobs&post=69110","tags":[{"name":"mobile"},{"name":"android"}],"cities":[],"allowsRemote":true}},{"node":{"__typename":"Job","id":"72464990208-1001054966032","title":"Android разработчик","text":"#вакансия #москва #офис #fulltime #android \n\nВакансия: Android-разработчик\nГород: Москва\nЗ/п: от 230тыс. руб. до 280 тыс. руб. после налогообложения\nФормат работы: офис, полная занятость\nКомпания: CORE\n\n📌О компании:\nНаша команда занимается мобильной и web-разработкой в области финансов и страхования. Мы реализуем проекты для международных финтех-стартапов, российских банков и страховых компаний. При разработке мы применяем самый современный стек технологий, большое внимание уделяем оптимизации процесса разработки – использованию практик CI/CD, инструментов кодогенерация. Для вас это возможность познакомиться с передовыми технологиями, развиваться в команде профессионалов, готовых поддерживать перспективные инициативы.\n\nРаботать предстоит в суперсовременном офисе в центре Москвы. Мы предоставляем современный hardware и все, что нужно для продуктивной работы. После испытательного срока предоставляется социальный пакет. Лучшие сотрудники проходят профильное обучение за счет компании, выступают спикерами на конференциях.\n\n📌Требования:\n– Уверенное знание Kotlin, Java;\n– Знает базовые алгоритмы и структуры данных;\n– Знает основные паттерны проектирования и имеет опыт их применения.\n\n📌Условия:\n– Заработная плата от 250 тыс. руб. после налогообложения;\n– Работа в офисе в центре Москвы;\n– Официальное трудоустройство согласно ТК РФ.\n\nДля иногородних специалистов предоставляем комфортные апартаменты в современном жилом комплексе недалеко от места работы.\n\nО компании https://core.company\n\nБолее подробно о вакансии в ТГ @tv_corecompany","markup":[{"type":"hashtag","offset":0,"length":9,"data":"вакансия"},{"type":"hashtag","offset":10,"length":7,"data":"москва"},{"type":"hashtag","offset":18,"length":5,"data":"офис"},{"type":"hashtag","offset":24,"length":9,"data":"fulltime"},{"type":"hashtag","offset":34,"length":8,"data":"android"},{"type":"link","offset":1483,"length":20,"data":"https://core.company"},{"type":"handle","offset":1536,"length":15,"data":"tv_corecompany"}],"date":"2020-07-01T14:42:14+00:00","link":"tg://resolve?domain=mobile_jobs&post=69108","tags":[{"name":"mobile"},{"name":"android"},{"name":"web"},{"name":"kotlin"},{"name":"java"}],"cities":[{"code":"moscow"}],"allowsRemote":false}},{"node":{"__typename":"Job","id":"17296261120-1001110946746","title":"Javascript разработчик","text":"#вакансия #удаленка #полная #react #reactnative\n\n🔹 Город и адрес офиса: Воронеж\n🔹 Формат работы: Удаленка\n🔹 Занятость: полная, проектно на 1 месяц\n🔹 Зарплатная вилка: от 60 до 100 тыс руб/месяц\n\n🔥 Описание вакансии: Ищем Middle React Native разработчика. Разрабатываем мобильное приложение - месенджер, для iOS и Android устройств, нужен еще один программист для усиления команды, проект готов на 80%. Нужно, вместе с текущим прогером, параллельно  донастроить логику в некоторых экранах/модулях и подключить к API.\n\n💻 Название компании: http://glowingcube.com \n\n☎️ Контакты, Telegram: @ShemetVlad","markup":[{"type":"hashtag","offset":0,"length":9,"data":"вакансия"},{"type":"hashtag","offset":10,"length":9,"data":"удаленка"},{"type":"hashtag","offset":20,"length":7,"data":"полная"},{"type":"hashtag","offset":28,"length":6,"data":"react"},{"type":"hashtag","offset":35,"length":12,"data":"reactnative"},{"type":"link","offset":544,"length":22,"data":"http://glowingcube.com"},{"type":"handle","offset":592,"length":11,"data":"ShemetVlad"}],"date":"2020-07-01T13:04:47+00:00","link":"tg://resolve?domain=javascript_jobs_feed&post=16495","tags":[{"name":"javascript"},{"name":"reactjs"},{"name":"ios"},{"name":"android"},{"name":"react-native"}],"cities":[{"code":"voronezh"}],"allowsRemote":true}},{"node":{"__typename":"Job","id":"72458698752-1001054966032","title":"Android developer","text":"#вакансия #fulltime  #vacancy  #remote #ремоут  #IOSdeveloper #IOS \n\n💻 IOS Developer\n🕐 Fulltime remote\n👩🏻‍💻2 year of commercial development on IOS\n💰from 10 $/hour to 17 $/hour\n\nВсем привет!🙋🏻‍♀️\nAMS ищет IOS dev на ремоут. Мы занимаемся разработкой мобильных приложений под Android и IOS.\n\nУсловия:\n-проектная занятость;\n-долгосрочный проект;\n-фуллтайм.\n\nТребования :\n-коммерческий опыт разработки от 2 лет;\n-разговорный английский B2+.\n\n📝 За подробностями по вакансии и по всем вопросам  пишите:\ndarya.matsyas@ams-apps.com\nDarya \nLinkedIn","markup":[{"type":"hashtag","offset":0,"length":9,"data":"вакансия"},{"type":"hashtag","offset":10,"length":9,"data":"fulltime"},{"type":"hashtag","offset":21,"length":8,"data":"vacancy"},{"type":"hashtag","offset":31,"length":7,"data":"remote"},{"type":"hashtag","offset":39,"length":7,"data":"ремоут"},{"type":"hashtag","offset":48,"length":13,"data":"IOSdeveloper"},{"type":"hashtag","offset":62,"length":4,"data":"IOS"},{"type":"link","offset":446,"length":2,"data":"http://darya.matsyas@ams-apps.com/"},{"type":"link","offset":506,"length":27,"data":"http://darya.matsyas@ams-apps.com/"},{"type":"link","offset":540,"length":8,"data":"https://www.linkedin.com/in/darya-matyas-12ba33158/"}],"date":"2020-07-01T11:46:07+00:00","link":"tg://resolve?domain=mobile_jobs&post=69102","tags":[{"name":"mobile"},{"name":"android"},{"name":"ios"}],"cities":[],"allowsRemote":true}},{"node":{"__typename":"Job","id":"104135131136-1001089317451","title":"Qa инженер","text":"#вакансия #санктпетербург #спб #fulltime #офис #QA \n\nМолодая игровая студия \"Тактика\" https://www.taktikagames.ru/ с уютным офисом в Петербурге ищет в штат на полный рабочий день: \n\n⭐️⭐️⭐️QA-инженера⭐️⭐️⭐️\n\nЧТО МЫ ЖДЕМ ОТ КАНДИДАТА\n— Опыт тестирования от 2х лет;\n— Понимание процессов разработки мобильных игр, знание игровых механик, работа с ГД-документами;\n— Ведение документации и её актуализация, (чек-листы/тест-кейсы/тест-сьюты/баг-репорты/отчеты) + регресс- и релиз-листы;\n— Анализ документации и составление тест-планов (в том числе и описание рисков);\n— Локализация багов и отслеживание их исправлений;\n— Опыт работы с системами контроля версий;\n— Знание таск- и баг-трекингов;\n— Опыт работы с CI/CD;\n— Опыт тестирования IAP.\n\nПЛЮСОМ БУДЕТ\n— Английский уровня intermediate;\n— Знание любого языка программирования;\n— Опыт работы с Unity;\n— Опыт управления командой;\n— Опыт UI/UX тестирования;\n— Pixel Perfect;\n— Опыт тестирования клиент-серверных приложений;\n— Опыт тестирования на мобильных устройствах Android, IOS;\n— Опыт нагрузочного тестирования;\n— Саппорт на закрытом бета-тесте.\n\nЧТО МЫ ДОВЕРИМ:\n— Составление чек-листов, тест-кейсов и пр. документации;\n— Локализация багов и отслеживание их исправлений;\n— Тестирование сложности уровней.\n\nЧТО МЫ ПРЕДЛАГАЕМ\n— Комфортный офис в пяти минутах от станции метро Технологический институт;\n— Участие в современных и интересных проектах;\n— Возможности обучения и профессионального роста;\n— Соблюдение ТК РФ (оплата отпуска‚ больничного);\n— Заработная плата по результатам собеседования (от 70 000 руб.);\n— Помощь в релокации, поможем вам с переездом.\n\nМожно откликнуться на hh: https://spb.hh.ru/vacancy/37392564\nИли на почту: khreevaa@taktikagames.ru","markup":[{"type":"hashtag","offset":0,"length":9,"data":"вакансия"},{"type":"hashtag","offset":10,"length":15,"data":"санктпетербург"},{"type":"hashtag","offset":26,"length":4,"data":"спб"},{"type":"hashtag","offset":31,"length":9,"data":"fulltime"},{"type":"hashtag","offset":41,"length":5,"data":"офис"},{"type":"hashtag","offset":47,"length":3,"data":"QA"},{"type":"link","offset":86,"length":28,"data":"https://www.taktikagames.ru/"},{"type":"bold","offset":188,"length":11,"data":""},{"type":"bold","offset":207,"length":24,"data":""},{"type":"bold","offset":737,"length":12,"data":""},{"type":"bold","offset":1096,"length":15,"data":""},{"type":"bold","offset":1256,"length":17,"data":""},{"type":"bold","offset":1611,"length":25,"data":""},{"type":"link","offset":1637,"length":34,"data":"https://spb.hh.ru/vacancy/37392564"},{"type":"bold","offset":1672,"length":13,"data":""},{"type":"link","offset":1686,"length":24,"data":"mailto:khreevaa@taktikagames.ru"}],"date":"2020-07-01T11:17:29+00:00","link":"tg://resolve?domain=qa_jobs&post=99311","tags":[{"name":"qa"},{"name":"unity3d"},{"name":"android"},{"name":"ios"}],"cities":[],"allowsRemote":false}},{"node":{"__typename":"Job","id":"72453455872-1001054966032","title":"Android разработчик","text":"#вакансия #job #Android #remote #удаленка #fulltime #Kotlin #Java\n🔶 Android developer (middle+)\n🔶 BSL (bsl.dev)\n🔶 г. Москва\n🔶 fulltime office/remote\n🔶 ЗП от 1900-2600$\n\n✅ Задачи:  \n• Разработка нового функционала мобильного приложения для сети магазинов;\n• Доработка текущего функционала;\n• Взаимодействие с распределенной командой разработчиков;\n• Проведение Code Review.\n\n✅ Что нужно уметь:\n• Коммерческий опыт на Kotlin;\n• Знание Java;\n• Знание Android SDK (API 21+);\n• Опыт разработки клиент-серверных приложений;\n• Знание современных архитектурных паттернов в разработке (MVP, MVVM, MVI, Clean Architecture и т.д.);\n• Использование стандартного стека технологий: RxJava 2, Dagger 2, Retrofit;\n• Работа по Git Flow в команде.\n\n✅ Что даем взамен:\n• Возможность прокачки hard skills на проектах разного уровня сложности; \n• Команду с сильными разработчиками, product-менеджерами, QA, UX/UI дизайнерами и налаженными процессами;\n• Самореализацию и профессиональный рост, посещение конференций и курсов за счет компании. Расскажите нам о своей профессиональной мечте, возможно мы поможем вам воплотить ее в жизнь;\n• Возможен удаленный формат сотрудничества, или работа в офисе: г. Москва - м. Дмитровская, г. Минск - м. Грушевка\n\n✅Жду ваши резюме и, если есть, вопросы.\nМои контакты: @viktoriya_gw \nhr@bsl.dev","markup":[{"type":"hashtag","offset":0,"length":9,"data":"вакансия"},{"type":"hashtag","offset":10,"length":4,"data":"job"},{"type":"hashtag","offset":15,"length":8,"data":"Android"},{"type":"hashtag","offset":24,"length":7,"data":"remote"},{"type":"hashtag","offset":32,"length":9,"data":"удаленка"},{"type":"hashtag","offset":42,"length":9,"data":"fulltime"},{"type":"hashtag","offset":52,"length":7,"data":"Kotlin"},{"type":"hashtag","offset":60,"length":5,"data":"Java"},{"type":"link","offset":105,"length":7,"data":"http://bsl.dev"},{"type":"handle","offset":1289,"length":13,"data":"viktoriya_gw"},{"type":"link","offset":1304,"length":10,"data":"mailto:hr@bsl.dev"}],"date":"2020-07-01T11:07:13+00:00","link":"tg://resolve?domain=mobile_jobs&post=69097","tags":[{"name":"mobile"},{"name":"android"},{"name":"kotlin"},{"name":"java"},{"name":"mvvm"},{"name":"git"}],"cities":[{"code":"moscow"},{"code":"minsk"}],"allowsRemote":true}},{"node":{"__typename":"Job","id":"104112062464-1001089317451","title":"Qa инженер","text":"QA\n\n#QA #тестировщик #россия #APi\n#ручноетестирование #middle #senior #тестирование #вакансия\nВ нашей молодой концептуальной IT-компании ООО \"Сколопендра\" (www.skolopendra.com) на данный момент открыта позиция QA тестировщика.\nВид деятельности  нашей Компании: ИТ-разработка полного цикла. \nСпециализация: высоконагруженные промышленные системы, процессинги данных, СППР, AI, запуск стартап-идей под ключ, электротехника.\nНаправление деятельности: технологический партнер для внешних заказчиков/собственные Hard&Soft Продукты.\n\n\n\nQA \n\nТребуемые знания, навыки, опыт\n• Знание основных технологий и методов тестирования\n• Понимание процесса разработки и тестирования ПО\n• Хорошие знания в области тест-дизайна\n• Опыт работы с баг-трекинговыми системами (jira)\n• Понимание основных принципов REST API\n• Опыт работы в тестировании от 1,5 лет\n• Высшее образование (предпочтительно техническое)\n\nБудет плюсом:\n• Базовые знания Java будут плюсом\n• Опыт автоматизации тестирования будет плюсом\n• Базовые знания технологии блокчейн и принципов работы бирж будут плюсом\nТакже мы ждем от кандидатов:\n• Умение работать в команде\n• Ответственность, самостоятельность, инициативность\n• Умение работать в условиях большого количества задач, оперативная реакция на задачи\n• Внимание к деталям, способность анализировать информацию\n• Стремление к саморазвитию, обучению, повышению технических компетенций\nФункциональные обязанности:\n• Проведение ручного функционального и регрессионного тестирования\n• Локализация, документирование, проверка дефектов\n• Разработка и актуализация тестовых планов, тестовых сценариев\n• Оценка трудоемкости задач\n• Работа с требованиями и документацией\nЗанятость : фултайм 5/2 на удалёнке Зарплатная вилка:600-800/час\n#iOS\n#Android\n#mobiledevelopment \n#crossplatform #flutter #kotlinnative\n#мобильнаяразработка #вакансия\n\nКомпания ООО “СКОЛОПЕНДРА” (www.skolopendra.com) приглашает целеустремленных и одаренных в наш дружный коллектив. \nДавай вместе делать интересные проекты в современных стеках технологий. А мы предоставим возможности для скорейшего профессионального и личностного роста.\n\nВид деятельности Компании: ИТ-разработка полного цикла. \nСпециализация: высоконагруженные промышленные системы, процессинги данных, СППР, AI, запуск стартап-идей под ключ, электротехника.\nНаправление деятельности: технологический партнер для внешних заказчиков/собственные Hard&Soft Продукты.\n\nОфис: Москва, м.Павелецкая, Космодамианская наб., 52/10\nФормат работы: в офисе/удаленно\nЗанятость: full-time (целевой формат) /part-time (возможный старт)\nЗП: по итогам собеседования, 3-х месячный цикл пересмотра grade\nОформление: по ТК\n\nДолжность: Mid/Mid+/Sen\nКонтакты: team@skolopendra.com\nТелеграмм : @Tufelka1","markup":[{"type":"hashtag","offset":4,"length":3,"data":"QA"},{"type":"hashtag","offset":8,"length":12,"data":"тестировщик"},{"type":"hashtag","offset":21,"length":7,"data":"россия"},{"type":"hashtag","offset":29,"length":4,"data":"APi"},{"type":"hashtag","offset":34,"length":19,"data":"ручноетестирование"},{"type":"hashtag","offset":54,"length":7,"data":"middle"},{"type":"hashtag","offset":62,"length":7,"data":"senior"},{"type":"hashtag","offset":70,"length":13,"data":"тестирование"},{"type":"hashtag","offset":84,"length":9,"data":"вакансия"},{"type":"link","offset":156,"length":19,"data":"http://www.skolopendra.com"},{"type":"hashtag","offset":1731,"length":4,"data":"iOS"},{"type":"hashtag","offset":1736,"length":8,"data":"Android"},{"type":"hashtag","offset":1745,"length":18,"data":"mobiledevelopment"},{"type":"hashtag","offset":1765,"length":14,"data":"crossplatform"},{"type":"hashtag","offset":1780,"length":8,"data":"flutter"},{"type":"hashtag","offset":1789,"length":13,"data":"kotlinnative"},{"type":"hashtag","offset":1803,"length":20,"data":"мобильнаяразработка"},{"type":"hashtag","offset":1824,"length":9,"data":"вакансия"},{"type":"link","offset":1863,"length":19,"data":"http://www.skolopendra.com"},{"type":"link","offset":2672,"length":20,"data":"mailto:team@skolopendra.com"},{"type":"handle","offset":2705,"length":9,"data":"Tufelka1"}],"date":"2020-07-01T00:06:52+00:00","link":"tg://resolve?domain=qa_jobs&post=99289","tags":[{"name":"qa"},{"name":"rest"},{"name":"java"},{"name":"ios"},{"name":"android"},{"name":"flutter"}],"cities":[{"code":"moscow"}],"allowsRemote":true}},{"node":{"__typename":"Job","id":"72386347008-1001054966032","title":"Mobile developer","text":"#вакансия  #android  #developer  #java  #senior  #remote  #иннополис         \n\nAndroid Developer\nCompany: NNG\nVacancy: Senior Android Developer\nLocation: Innopolis, Kazan\nWork format: #remote\nEmployment: full time\nS/p: from 180 to 200 k net\n\nAt NNG we develop the next generation of navigation and infotainment technology to improve driving experience, working with 7 of the top 10 car manufacturers worldwide. Headquartered in Hungary, we have a global footprint with coverage in almost 200 countries and 12 company offices worldwide. We have recently established a new development center in Kazan, tasked with delivering customized cutting-edge solutions to Russian vehicle manufacturers. In addition, the Kazan office will also develop independent, reusable software components for the global market, primarily frontend software (JavaScript, iOS and Android) and Java backend microservices.\n\nWhat would be your job? \n🔹Work on mobile and automotive navigation software development\n🔸Work on various projects with international clients from all parts of the world\n🔹Work in close cooperation with project managers and development teams both locally and in the Budapest office\n🔸Design, develop, code, test and debug; own your code\n                                                                                                                                                                                                                                If you have...\n🔹Experience developing, testing, and releasing Android apps\n🔸Knowledge of Java and Android UI development\n🔹 Experience collaborating with designers on usability and aesthetics of apps\n🔸 Strong experience in writing and maintaining testable code and unit tests\n🔹 Experience with git-based version control systems\n🔸Strong written and verbal communication skills in English\n🔹Experience working with global teams\n\nmoreover, you have any of the following: \n🔸Familiarity with JavaScript\n🔹 Familiarity with Flutter\n🔸Experience in Agile development, especially SaFE and SCRUM\n🔹Willingness to get familiar with new technologies\n🔸Experience in working as a team player\n\nWhat can we give you in return? \n🔹A job at a successful global company in Innopolis, where you can learn from the best\n🔸Serious professional challenges\n🔹A secure and well-paid job\n🔸The opportunity to develop the navigation software of the future in the present\n🔹 A youthful team\n🔸The opportunity of working abroad for several weeks\n\nContacts: hr.vkulneva@gmail.com, @viktoriyakulneva","markup":[{"type":"hashtag","offset":0,"length":9,"data":"вакансия"},{"type":"hashtag","offset":11,"length":8,"data":"android"},{"type":"hashtag","offset":21,"length":10,"data":"developer"},{"type":"hashtag","offset":33,"length":5,"data":"java"},{"type":"hashtag","offset":40,"length":7,"data":"senior"},{"type":"hashtag","offset":49,"length":7,"data":"remote"},{"type":"hashtag","offset":58,"length":10,"data":"иннополис"},{"type":"hashtag","offset":184,"length":7,"data":"remote"},{"type":"link","offset":2493,"length":21,"data":"mailto:hr.vkulneva@gmail.com"},{"type":"handle","offset":2516,"length":17,"data":"viktoriyakulneva"}],"date":"2020-06-30T16:09:08+00:00","link":"tg://resolve?domain=mobile_jobs&post=69033","tags":[{"name":"mobile"},{"name":"android"},{"name":"ios"},{"name":"java"},{"name":"dotnet"},{"name":"javascript"},{"name":"git"},{"name":"flutter"}],"cities":[{"code":"kazan"},{"code":"budapest"}],"allowsRemote":true}},{"node":{"__typename":"Job","id":"72382152704-1001054966032","title":"Android developer","text":"#вакансия #Juniorandroid #Android developer #kotlin #удаленно                                                                                                         Уровень дохода:💵 50 000-60 000  рублей net                                                                                                                                                                                 Требуемый опыт работы: от 1 года\nПолная занятость, дистанционно, гибкое начало рабочего дня\n \n📌Требования:\n- Нативная Android разработка (Kotlin)\n- Умение писать поддерживаемый и тестируемый код\n- Умение работать с Dagger 2\n- Умение работать с git\n- Желание развиваться и изучать новое в разработке\n- Опыт разработки приложений от 1 года\n -Знание английского языка от уровня Intermediate\n \n📌Будет плюсом:\n- Опыт работы с JNI\n- Опыт использования tensorflow\n- Опыт работы с аудио и видео\n\n📌Условия:\n- Отсутствие бюрократии\n- Время начала рабочего дня обговариваем индивидуально\n- Крутой инновационный проект - возможность самореализации и профессионального роста\n- Стабильное зарубежное финансирование\n- Десятки миллионов установок и множество глобальных партнёров\n📞Контакты @SvetikS_hr +7(963)-632-12-36 Cветлана","markup":[{"type":"hashtag","offset":0,"length":9,"data":"вакансия"},{"type":"hashtag","offset":10,"length":14,"data":"Juniorandroid"},{"type":"hashtag","offset":25,"length":8,"data":"Android"},{"type":"hashtag","offset":44,"length":7,"data":"kotlin"},{"type":"hashtag","offset":52,"length":9,"data":"удаленно"},{"type":"link","offset":184,"length":13,"data":"tel:50 000-60 000"},{"type":"handle","offset":1164,"length":11,"data":"SvetikS_hr"},{"type":"link","offset":1176,"length":17,"data":"tel:+7(963)-632-12-36"}],"date":"2020-06-30T15:44:34+00:00","link":"tg://resolve?domain=mobile_jobs&post=69029","tags":[{"name":"mobile"},{"name":"android"},{"name":"kotlin"},{"name":"dotnet"},{"name":"git"},{"name":"tensorflow"}],"cities":[],"allowsRemote":true}},{"node":{"__typename":"Job","id":"72381104128-1001054966032","title":"Android разработчик","text":"#вакансия #android #remote #удаленка\n\nГород и адрес офиса: Ростов-на-Дону\nФормат работы: удаленка\nЗанятость: проектная\nЗарплатная вилка - от $30 до $100 за проект, перспектива роста количества и сложности проектов и как следствие ставки\n\nОписание вакансии:\n\nВ ближайшее время необходимо разработать простое (со сложной аналитикой) приложение из 3-х экранов и заставки. На 2-х экранах просто текст, на одном квадратные блоки с картинками и кнопками.\nБудем рекламировать приложение через in-app сетки\nНаша цель понять из каких конкретно сеток к нам приходят заявки.\nЗаявки будут приходить из сайтов, которые будут открываться в приложении через google chrome tab\n\nИтого в цепочке надо связать:\n- Приложение\n- appsflyer\n- keitaro\n- Партнерку\n\nОплата за проект 55-70$\n\nСразу после этого проекта будут другие подобные проекты.\n\nТребования:\nОпыт работы с keitaro, appsflyer, различными api\n\nКонтакты: телеграм @makar_abraam","markup":[{"type":"hashtag","offset":0,"length":9,"data":"вакансия"},{"type":"hashtag","offset":10,"length":8,"data":"android"},{"type":"hashtag","offset":19,"length":7,"data":"remote"},{"type":"hashtag","offset":27,"length":9,"data":"удаленка"},{"type":"handle","offset":904,"length":13,"data":"makar_abraam"}],"date":"2020-06-30T15:26:16+00:00","link":"tg://resolve?domain=mobile_jobs&post=69028","tags":[{"name":"mobile"},{"name":"android"},{"name":"google-chrome"}],"cities":[{"code":"rostov"}],"allowsRemote":true}}]}}},"context":{}}