{"hash":"f5f6bf98bd95e769321482904cbbd488f77922fd","data":{"records":{"id":"dotnet","name":"dotnet","belongsTo":{"totalCount":172,"pageInfo":{"totalPages":18,"currentPage":9},"edges":[{"node":{"__typename":"Job","id":"1728053248-1001091028994","title":"Java разработчик","text":"Вакансия: #java #backend #spring #javadeveloper #middle #senior \nКомпания: Центр Информационных Технологий \nЛокация: #регион #Екатеринбург \nФормат работы: #офис #fulltime \nЗ/п: 100-200 NET \n \nМы в поисках разработчиков Java уровня Middle и Senior.\n \nЦентр Информационных Технологий — российская инжиниринговая компания, которая создает эксклюзивные ИТ-решения и услуги для межведомственного электронного взаимодействия на национальном и международном уровнях. \n\nУ нас вы получите: \n- удобное и современное железо; \n- поддержку от команды единомышленников; \n- полностью белую заработную плату - нам важно, чтобы наши сотрудники были уверены в завтрашнем дне; \n- возможность получить опыт в крупных проектах и изучить новые технологии. \n\nЧем нужно будет заниматься: \nРазрабатывать новые и дорабатывать существующие компоненты интеграционной шины. \n\nЧто мы ожидаем от вас: \n- Высшее техническое образование, желательно в сфере информационных технологий; \n- Опыт работы в области разработки информационных систем от 3 лет; \n- Опыт управления командами разработчиков; \n- Знания и умения применять на практике шаблоны проектирования и интеграции корпоративных приложений; \n- Глубокие знания Java, Java SE, Java EE; \n- Опыт работы с XML-ориентированными топологиями - WebSeivices (SOAP), WSDL/XSD, XML. \n\nБудет плюсом: \nЗнание платформы JBossFuse (Elasticsearch, Zookeeper, Apache Kafka, Apache Camel, Apache Active MQ, Apache CXF). \n \nЕсли предложение интересно, пишите мне в телеграм @mariacentreit или на почту mariya.odintseva@centre-it.com","markup":[{"type":"hashtag","offset":10,"length":5,"data":"java"},{"type":"hashtag","offset":16,"length":8,"data":"backend"},{"type":"hashtag","offset":25,"length":7,"data":"spring"},{"type":"hashtag","offset":33,"length":14,"data":"javadeveloper"},{"type":"hashtag","offset":48,"length":7,"data":"middle"},{"type":"hashtag","offset":56,"length":7,"data":"senior"},{"type":"hashtag","offset":117,"length":7,"data":"регион"},{"type":"hashtag","offset":125,"length":13,"data":"Екатеринбург"},{"type":"hashtag","offset":155,"length":5,"data":"офис"},{"type":"hashtag","offset":161,"length":9,"data":"fulltime"},{"type":"handle","offset":1479,"length":14,"data":"mariacentreit"},{"type":"link","offset":1507,"length":30,"data":"mailto:mariya.odintseva@centre-it.com"}],"date":"2020-06-23T13:27:21+00:00","link":"tg://resolve?domain=jvmjobs&post=1648","tags":[{"name":"java"},{"name":"jvm"},{"name":"spring"},{"name":"dotnet"},{"name":"xml"},{"name":"soap"},{"name":"xsd"},{"name":"elasticsearch"},{"name":"apache"},{"name":"kafka"},{"name":"apache-camel"}],"cities":[],"allowsRemote":false}},{"node":{"__typename":"Job","id":"1724907520-1001091028994","title":"Java разработчик","text":"#вакансия #java #Spring #middle #senior #офиc #backend #Москва #СПБ, #Екатеринбург #Ростов-на Дону #удаленно\n👋Приглашаем middle/senior Java Developer в новый проект от Сбербанка.\n\n💸Уровень ЗП: от 220 000 до 280 000 руб. net. (обсуждается!).\n\n✍🏻Оформление: штат компании партнера или ИП.\n\n📍Локация: офис (Москва Кутузовский пр-т 32/1). Или удалено с возможностью посещать офис: СПБ, Екатеринбург, Ростов-на Дону.\n\n🏢О проекте: В рамках стратегической программы «Создание платформы поддержки развития бизнеса» наша команда разрабатывает линейку продуктов Cash Management. Продукта корпоративного блока, предоставляющий функции управления финансовыми потоками для предприятий и корпораций с развитой филиальной сетью. Линейка продуктов содержит порядка 10 продуктов, направленных на управление всеми счетами холдинга единым казначейством. Основная задача – перевод линейки продуктов из Legacy АС на целевые платформы банка и перевод управления продуктами в удаленные каналы обслуживания.\n\n🎯Ваши будущие задачи :\n- проектирование решения, в том числе разработка детальной внутренней архитектуры сервиса, включая интеграционные сценарии;\n- детальное проектирование интеграции со смежными сервисами (в том числе API);\n- разработка программного продукта, внесение изменений в код;\n- разработка автоматических модульных тестов, автоматических скриптов и тестов развертывания.\n\n🤝Мы ожидаем от вас:\n• знание принципов ООП, методологий разработки, шаблонов проектирования;\n• уверенное владение Java 7+, Spring;\n• опыт работы с СУБД, опыт проектирования модели данных;\n• проактивная позиция, хорошие коммуникативные навыки;\n• умение работать с чужим кодом.\n• желательно опыт работы с react-js, Java Script.\n\nЖду Ваши резюме и буду рада ответить на все вопросы. Прекрасного дня!☺️\nКонтакты для связи: telegram @anisimovaane4ka\n\n#вакансия #java #Spring #middle #офиc #backend #Москва #удаленно\n📣Приглашаем Middle Java Developer в новый проект от Сбербанка.\n\n💸Уровень ЗП: от 180 000 до 270 000 руб. net. (обсуждается!).\n\n✍🏻Оформление: штат компании партнера или ИП.\n\n📌Локация: Удаленно или офис (Москва Кутузовский пр-т 32/1).\n\n🏢О проекте: Транзакционные кредитные продукты. Наша команда состоит из профессионалов и создает лучшие Кредитные карты на рынке. На платформе ППРБ мы разрабатываем принципиально новую back-office систему, которая позволит запускать продукты и сервисы с минимальным time-to-market. Технологический стек позволяет поддерживать высокую производительность, надежность и безопасность работы пользователей. Хранение данных в БД Oracle. Критичность системы – 24/7, обеспечение которой также заслуга раздельной кластеризации решений на всех уровнях: хранение данных, очереди сообщений, кластеры прикладных модулей.\n\n🎯Задачи разработчика:\n- разработка backend продукта процессинга кредитных карт (функционал кредитного продукта);\n- разработка обновлений, миграций данных и решение других backend задача.\n\n✅Наш стек:∙ Java 1.8; Spring 5 (Core, Boot, JMS, MVC, JdbcTemplate, REST); Hibernate; JUnit (Mockito); MQ (IM WS MQ, Kafka + ZooKeeper); Linux (RedHat); Application Server - Wildfly; Git, Bitbucket, Nexus, Jira, Confluence; CI: Maven, Jenkins, SonarQube, CheckMarx; IntelliJ IDEA.\n\n🤝Мы ожидаем от вас:\n- глубокие знания JavaSE 1.8;\n- понимание принципов OOP, принципов проектирования классов, шаблонов проектирования;\n- понимание принципов разработки REST сервисов;\n- желательно знания SQL и опыт работы с Oracle DB 12.2.\n\nЖду Ваши резюме и буду рада ответить на все вопросы. Прекрасного дня!☺️\nКонтакты для связи: telegram @anisimovaane4ka","markup":[{"type":"hashtag","offset":0,"length":9,"data":"вакансия"},{"type":"hashtag","offset":10,"length":5,"data":"java"},{"type":"hashtag","offset":16,"length":7,"data":"Spring"},{"type":"hashtag","offset":24,"length":7,"data":"middle"},{"type":"hashtag","offset":32,"length":7,"data":"senior"},{"type":"hashtag","offset":40,"length":5,"data":"офиc"},{"type":"hashtag","offset":46,"length":8,"data":"backend"},{"type":"hashtag","offset":55,"length":7,"data":"Москва"},{"type":"hashtag","offset":63,"length":4,"data":"СПБ"},{"type":"hashtag","offset":69,"length":13,"data":"Екатеринбург"},{"type":"hashtag","offset":83,"length":7,"data":"Ростов"},{"type":"hashtag","offset":99,"length":9,"data":"удаленно"},{"type":"handle","offset":1803,"length":16,"data":"anisimovaane4ka"},{"type":"hashtag","offset":1821,"length":9,"data":"вакансия"},{"type":"hashtag","offset":1831,"length":5,"data":"java"},{"type":"hashtag","offset":1837,"length":7,"data":"Spring"},{"type":"hashtag","offset":1845,"length":7,"data":"middle"},{"type":"hashtag","offset":1853,"length":5,"data":"офиc"},{"type":"hashtag","offset":1859,"length":8,"data":"backend"},{"type":"hashtag","offset":1868,"length":7,"data":"Москва"},{"type":"hashtag","offset":1876,"length":9,"data":"удаленно"},{"type":"handle","offset":3546,"length":16,"data":"anisimovaane4ka"}],"date":"2020-06-23T13:23:27+00:00","link":"tg://resolve?domain=jvmjobs&post=1645","tags":[{"name":"java"},{"name":"jvm"},{"name":"spring"},{"name":"dotnet"},{"name":"reactjs"},{"name":"oracle"},{"name":"rest"},{"name":"hibernate"},{"name":"junit"},{"name":"kafka"},{"name":"linux"},{"name":"git"},{"name":"maven"},{"name":"jenkins"},{"name":"sonarqube"},{"name":"sql"},{"name":"intellij-idea"}],"cities":[{"code":"moscow"},{"code":"rostov"}],"allowsRemote":true}},{"node":{"__typename":"Job","id":"107796758528-1001119539411","title":"Net разработчик","text":"#вакансия #офис #москва #сетевойинженер #network #vacancy #moscow #cisco #dc\n\nВсем добрый день! \n\nNetwork Consulting Engineer – DC (Сетевой инженер-консультант DC)\nМосква, офис, м. Крылатское\n180-300 т.р. \nОпыт: от 5 лет в сетевой архитектуре\n\nИщем опытного сетевого инженера экспертного уровня в международную компанию. Работать предстоит со сложными кейсами в нескольких больших сетях. Быстро и качественно.\n\n🔹Надо обязательно иметь в багаже: \n• любой из сертификатов DC: CCIE, CCNA, CCNP\n• продукты и технологии Cisco.\n•: Nexus Products\n• IP-технологии, протоколы и топология сети.\n\n🔹Ещё желательно: \n•Cisco Nexus 2K, 5K, 7K, 9K, Cisco NX-OS\n•Cisco UCS\n•Cisco MDS\n•OTV, Fabric Path, VxLAN, Fiber Channel,iSCSI\n•Cisco ACE\n•VMWare ESXi, Microsoft Hypervisorи\n•Storage systems: HP, Brocade, etc.\n\n🔹Условия: \n- официальный ТД, белая зарплата\n- график работы 5/2 с 9 до 18 часов\n- можно работать из дома 2-3 раза в месяц  \n\nС удовольствием отвечу на все ваши вопросы: litvak.ty@gmail.com, телеграмм @Tatiana_Litvak, watsapp +79114741607","markup":[{"type":"hashtag","offset":0,"length":9,"data":"вакансия"},{"type":"hashtag","offset":10,"length":5,"data":"офис"},{"type":"hashtag","offset":16,"length":7,"data":"москва"},{"type":"hashtag","offset":24,"length":15,"data":"сетевойинженер"},{"type":"hashtag","offset":40,"length":8,"data":"network"},{"type":"hashtag","offset":49,"length":8,"data":"vacancy"},{"type":"hashtag","offset":58,"length":7,"data":"moscow"},{"type":"hashtag","offset":66,"length":6,"data":"cisco"},{"type":"hashtag","offset":73,"length":3,"data":"dc"},{"type":"link","offset":969,"length":19,"data":"mailto:litvak.ty@gmail.com"},{"type":"handle","offset":1000,"length":15,"data":"Tatiana_Litvak"},{"type":"link","offset":1025,"length":12,"data":"tel:+79114741607"}],"date":"2020-06-23T11:59:34+00:00","link":"tg://resolve?domain=microsoftstackjobs&post=102803","tags":[{"name":"dotnet"},{"name":"csharp"}],"cities":[{"code":"moscow"}],"allowsRemote":false}},{"node":{"__typename":"Job","id":"71851573248-1001054966032","title":"Mobile разработчик","text":"#вакансия #работа #СанктПетербург #iOS #Swift #fulltime #офис\nГород: Санкт-Петербург, м. Чкаловская\nФорма работы: офис\nЗанятость: полная\nЗарплатная вилка: от 150 000 до 250 000 net.\nВсем привет!\nМы – Cardsmobile, петербургская IT-компания, разработчик мобильного приложения «Кошелёк». \n«Кошелёк» заменяет бумажник и избавляет от необходимости носить с собой пластик: пользователи хранят в нем дисконтные и банковские карты. Чтобы получить скидку, достаточно показать на кассе карту с экрана смартфона, а чтобы оплатить покупку – приложить NFC-смартфон к терминалу оплаты.\nНаши партнеры в ритейле – крупнейшие торговые сети страны: Лента, М.Видео, X5 Retail Group, ВкусВилл, Adidas Group и многие другие. Карты этих торговых сетей можно перенести в приложение, сфотографировав пластик, или выпустить новую карту из каталога Кошелька – сразу в мобильном формате.\nПлатформа токенизации Cardsmobile прошла сертификации Visa и MasterCard, что позволяет безопасно переносить банковские карты в приложение \"Кошелёк\" и бесконтактно оплачивать покупки.\n\nВ нашей команде более 150 человек, из которых более 50 человек – техническая команда.\nНашим приложением пользуются более 10 млн. человек в квартал, а в день от 1-го до 2-ух миллионов человек.\n\nНаши стратегические международные партнеры (MasterCard, Visa и Huawei) заинтересованы в расширении географии распространения нашего продукта и, в связи с этим мы усиляем нашу команду и ищем iOS разработчика на одно из направлений. В команде iOS у нас 7 человек.\n\n🔸Технический стек:\nКодовая база: 70% - Objective-C, 30% - Swift (активно переводим проект на Swift);\nМинимальная поддерживаемая версия: iOS 11.\n\n🔸Задачи направлений:\n🔹Performance\n• Искать и рефакторить неоптимально работающие части приложения;\n• Принимать решения о необходимости использования многопоточности, разрабатывать многопоточные механизмы и внедрять их;\n• Измерять скорость работы приложения всеми возможными способами и оценивать эффективность внедряемых изменений;\n• Проводить ревью кода коллег с точки зрения влияния изменений на производительность;\n• Настраивать эффективную фоновую работу всего приложения (различные синхронизации с сервером, загрузка данных и т.п.);\n• Делать приложение энергоэффективным.\n🔹Architecture\n• Работать над качеством многомодульной архитектуры проекта;\n• Предлагать коллегам новые архитектурные подходы для решения различных проблем, возникающих в процессе решения бизнес-задач;\n• Разрабатывать и унифицировать навигацию в многомодульном проекте;\n• Внедрять подходы, позволяющие работать над разными частями приложения максимально изолированно и независимо;\n• Создать простой и понятный для всей команды источник данных о текущей архитектуре и её особенностях;\n• Оценивать корректность решений коллег с точки зрения архитектуры в рамках ревью кода;\n• Пропагандировать преимущества качественной и чистой архитектуры внутри команды.\n🔹Components\n• Разрабатывать динамический UI на основе данных с бэка;\n• Писать нестандартные UI компоненты c анимациями на CALayers;\n• Проектировать новый API вместе с кроссплатформенной командой неравнодушных коллег;\n• Предлагать и использовать различные практики компонентно ориентированного программирования.\n\nМы предлагаем:\n• Участие в развитии полезного и популярного приложения, возможность сделать мир лучше;\n• Оформление по ТК РФ с первого дня работы, конкурентная белая зарплата, ДМС;\n• Оплату мобильной связи, частичную компенсацию оплаты питания;\n• Гибкий график работы;\n• Помощь с переездом для кандидатов из других городов (welcome бонус);\n• Оплата профильных курсов и конференций;\n• Два раза в неделю в офисе занятия йогой;\n• Командные мероприятия и приятные коллеги;\n• Комфортный офис в центре города (5 минут от станции метро Чкаловская).\n\nИнформацию о компании можно найти по ссылке: https://spb.hh.ru/employer/2032205\n\nКонтакты: katerinaziryukova\nПочта: e.ziryukova@cardsmobile.ru","markup":[{"type":"hashtag","offset":0,"length":9,"data":"вакансия"},{"type":"hashtag","offset":10,"length":7,"data":"работа"},{"type":"hashtag","offset":18,"length":15,"data":"СанктПетербург"},{"type":"hashtag","offset":34,"length":4,"data":"iOS"},{"type":"hashtag","offset":39,"length":6,"data":"Swift"},{"type":"hashtag","offset":46,"length":9,"data":"fulltime"},{"type":"hashtag","offset":56,"length":5,"data":"офис"},{"type":"link","offset":3781,"length":34,"data":"https://spb.hh.ru/employer/2032205"},{"type":"link","offset":3852,"length":26,"data":"mailto:e.ziryukova@cardsmobile.ru"}],"date":"2020-06-23T09:26:51+00:00","link":"tg://resolve?domain=mobile_jobs&post=68523","tags":[{"name":"mobile"},{"name":"ios"},{"name":"swift"},{"name":"dotnet"},{"name":"objective-c"}],"cities":[],"allowsRemote":false}},{"node":{"__typename":"Job","id":"71848427520-1001054966032","title":"Android developer","text":"#вакансия #Android #Java #middle #офиc #Москва\n👋Приглашаем Middle Android (Java) Developer в новый проект от Сбербанка.\n\n💸Уровень ЗП: от 220 000 до 280 000 руб. net. (обсуждается!).\n\n✍🏻Оформление: ИП или штат компании партнера.\n\n📍Локация: Офис (Москва Кутузовский пр-т 32/1).\n\n🏢О проекте: Разработка чата и видеозвонка с целью реализовать единое рабочее место оператора для дополнительного канала обслуживания. С помощью чатов клиент сможет переписываться со своим дистанционным клиентским менеджером по премиальному каналу в МП СБОЛ, с возможностью передачи файлов. Видеозвонок позволит установить визуальный контакт клиентом со своим менеджером с возможностью показа презентаций. На базе удаленных каналов обслуживания планируется реализовать возможность удаленного предоставления клиенту всего спектра продуктов банка. В настоящий момент в банке обслуживается порядка 19 млн клиентов.\n\n🤝Мы ожидаем от вас:\n· знание Java;\n· опыт коммерческой разработки Android-приложений не менее года;\n· опыт ООП, потоки и синхронизация, SOLID, clean architecture, LinkedList и ArrayList;\n· умение разбираться и работать с чужим кодом.\n\nЖду Ваши резюме и буду рада ответить на все вопросы. Прекрасного дня!😉\nКонтакты для связи: telegram @anisimovaane4ka","markup":[{"type":"hashtag","offset":0,"length":9,"data":"вакансия"},{"type":"hashtag","offset":10,"length":8,"data":"Android"},{"type":"hashtag","offset":19,"length":5,"data":"Java"},{"type":"hashtag","offset":25,"length":7,"data":"middle"},{"type":"hashtag","offset":33,"length":5,"data":"офиc"},{"type":"hashtag","offset":39,"length":7,"data":"Москва"},{"type":"handle","offset":1231,"length":16,"data":"anisimovaane4ka"}],"date":"2020-06-23T09:13:09+00:00","link":"tg://resolve?domain=mobile_jobs&post=68520","tags":[{"name":"mobile"},{"name":"android"},{"name":"java"},{"name":"dotnet"}],"cities":[{"code":"moscow"}],"allowsRemote":true}},{"node":{"__typename":"Job","id":"71841087488-1001054966032","title":"Ios разработчик","text":"#вакансия #ios #swift #Москва #офис \nМосква, м. Нагатинская \nОфис, полная занятость \nЗП: 150 - 220к net\n\nВсем привет! \nМеня зовут Марина, я из Туту.ру 🙂 \n\n🔥 Мы считаем, что будущее за мобильными устройствами. И продолжаем активно смещать фокус на разработку приложений и мобильной версии сайта.\n\n🔥 Пользователи нас любят 🙂 Оценка приложения в AppStore 4.9, а количество установок перешагнуло 3 млн.\n\n🔥 У нас масштабный многомодульный проект и 4 приложения. Если вам интересно решать сложные архитектурные задачи - welcome!\n\n🔥 Наш стек: Swift, RxSwift, RxFeedBack, GithubActions.\n\nПодробнее о вакансии здесь: \nhttps://company.tutu.ru/ios_dev\n\nБудем рады ответить на вопросы! \n\nHR (Марина): \n@mandarinka25 \nsavinova@tutu.ru\n\nРуководитель мобильной команды (Станислав): \n@DevAlloy","markup":[{"type":"hashtag","offset":0,"length":9,"data":"вакансия"},{"type":"hashtag","offset":10,"length":4,"data":"ios"},{"type":"hashtag","offset":15,"length":6,"data":"swift"},{"type":"hashtag","offset":22,"length":7,"data":"Москва"},{"type":"hashtag","offset":30,"length":5,"data":"офис"},{"type":"link","offset":615,"length":31,"data":"https://company.tutu.ru/ios_dev"},{"type":"handle","offset":696,"length":13,"data":"mandarinka25"},{"type":"link","offset":711,"length":16,"data":"mailto:savinova@tutu.ru"},{"type":"handle","offset":774,"length":9,"data":"DevAlloy"}],"date":"2020-06-23T08:17:36+00:00","link":"tg://resolve?domain=mobile_jobs&post=68513","tags":[{"name":"mobile"},{"name":"ios"},{"name":"swift"},{"name":"dotnet"}],"cities":[{"code":"moscow"}],"allowsRemote":false}},{"node":{"__typename":"Job","id":"1721761792-1001091028994","title":"Java разработчик","text":"#java #java11 #tarantool #lua #redis #kotlin \n\nКомпания #Иннодата (ГК Ramax) - системный интегратор с офисами в #Москва, #Питер, #Воронеж, #Иннополис. \nФормат работы #офис, #fulltime #remote\nВилка: 270 net на руки\nКонтакт для связи: pbokarev@innodata.ru \n\n📌Задача: Нам предстоит разработать один из центральных компонентов ИТ системы крупнейшей ритейл сети.\n\nГеораспределённую mission-critical платформу, работающую в режиме 24/7 365, объединяющую информацию из всех подразделений и IT-систем, связанных с клиентом, в единый профиль. К системе предъявляются жесткие требования ко времени отклика и rps. Ядром системы мы выбрали tarantool - одно из самых навороченных imdg решений на данный момент. Мы ищем человека, который не боится новых вызовов и готов развиваться, устал от бесконечный crud'ов и хочет попробовать себя в highload. Готовы рассмотреть кандидатов разного уровня!\n\n📌Наши плюсы:\nНикакого legacy, тк проект только начинается, есть возможность поучаствовать в выборе стека. Современные технологии, мощный кластер, после окончания проекта возможность работы на других проектах (scala, BIgData)\n\n📌Стек технологий:\nJava 11;\nTarantool (Lua);\nClickhouse;\nPostgreSQL;\n\n📌Требования:\nОпыт коммерческой разработки на Java более 2 лет. Будет плюсом умение писать на Kotlin;\nSQL, опыт проектирования реляционнных баз данных;\nОпыт использования Tarantool или Redis (Lua);\nПонимание разницы OLAP и OLTP;\n\n📌Будет плюсом:\nОпыт работы с распределёнными системами;\nОпыт разработки highload систем;\nОпыт разработки многопоточных приложений;\n\n📌Обязанности:\nУчастие в проектировании архитектуры и детализации работ;\nНепосредсвенно реализация задач;\nПокрытие нового функционала тестами (unit, регрессионные);","markup":[{"type":"hashtag","offset":0,"length":5,"data":"java"},{"type":"hashtag","offset":6,"length":7,"data":"java11"},{"type":"hashtag","offset":14,"length":10,"data":"tarantool"},{"type":"hashtag","offset":25,"length":4,"data":"lua"},{"type":"hashtag","offset":30,"length":6,"data":"redis"},{"type":"hashtag","offset":37,"length":7,"data":"kotlin"},{"type":"hashtag","offset":56,"length":9,"data":"Иннодата"},{"type":"hashtag","offset":112,"length":7,"data":"Москва"},{"type":"hashtag","offset":121,"length":6,"data":"Питер"},{"type":"hashtag","offset":129,"length":8,"data":"Воронеж"},{"type":"hashtag","offset":139,"length":10,"data":"Иннополис"},{"type":"hashtag","offset":166,"length":5,"data":"офис"},{"type":"hashtag","offset":173,"length":9,"data":"fulltime"},{"type":"hashtag","offset":183,"length":7,"data":"remote"},{"type":"link","offset":233,"length":20,"data":"mailto:pbokarev@innodata.ru"}],"date":"2020-06-23T06:39:41+00:00","link":"tg://resolve?domain=jvmjobs&post=1642","tags":[{"name":"java"},{"name":"jvm"},{"name":"lua"},{"name":"redis"},{"name":"kotlin"},{"name":"dotnet"},{"name":"scala"},{"name":"postgresql"},{"name":"sql"}],"cities":[{"code":"moscow"},{"code":"voronezh"}],"allowsRemote":true}},{"node":{"__typename":"Job","id":"1720713216-1001091028994","title":"Java разработчик","text":"#java #middle #удаленно #fulltime\nJava-разработчик (Spring)\nКомпания: Leroma GmbH\nЛокация: Удаленно\nЗп: 80к net\nКонтакты: @subaryan, alexandr@leroma.de\n\nМы небольшой стартап, и наша команда разрабатывает платформу для электронной коммерции.\n\nЗадачи:\n- Проектирование и реализация сервисов\n- Создание пользовательского интерфейса\n\nКого ищем:\n• Знание основных алгоритмов и шаблонов проектирования ПО;\n• Знание фреймворков Spring Boot, Spring Data, Websocket, веб-стека.\n• Опыт работы c SQL и NoSQL базами данных(MySQL, MongoDB);\n• Опыт работы с инструментами Maven, Git.\n\nСтек:\nJava11, Spring, MongoDB, Git, Self-developed UI framework.\n\nУсловия:\n- Полностью официальная заработная плата (ИП)\n- Есть возможность оплаты в иностранной валюте(евро)\n- Гибкий график работы\n- Удалённая работа по факту выполненных работ, нет учёта часов.","markup":[{"type":"hashtag","offset":0,"length":5,"data":"java"},{"type":"hashtag","offset":6,"length":7,"data":"middle"},{"type":"hashtag","offset":14,"length":9,"data":"удаленно"},{"type":"hashtag","offset":24,"length":9,"data":"fulltime"},{"type":"handle","offset":122,"length":9,"data":"subaryan"},{"type":"link","offset":133,"length":18,"data":"mailto:alexandr@leroma.de"}],"date":"2020-06-22T17:59:39+00:00","link":"tg://resolve?domain=jvmjobs&post=1641","tags":[{"name":"java"},{"name":"jvm"},{"name":"spring"},{"name":"dotnet"},{"name":"websocket"},{"name":"sql"},{"name":"nosql"},{"name":"mysql"},{"name":"mongodb"},{"name":"maven"},{"name":"git"},{"name":"spring-boot"},{"name":"spring-data"}],"cities":[],"allowsRemote":true}},{"node":{"__typename":"Job","id":"71798095872-1001054966032","title":"Ios developer","text":"#вакансия #IOS #Swift #Objective-C #middle #офис #Москва\n👋Приглашаем Middle IOS Developer в новый проект от Сбербанка.\n\n💸Уровень ЗП: 220К-280К net (в зависимости от типа оформления).\n\n📝Оформление: ИП или штат компании партнера.\n\n📍Локация: офис в г.Москва, Кутузовский проспект.\n\n🧑‍💻О проекте: Разработка чата и видеозвонка с целью реализовать единое рабочее место оператора для дополнительного канала обслуживания. С помощью чатов клиент сможет переписываться со своим дистанционным клиентским менеджером по премиальному каналу в МП СБОЛ, с возможностью передачи файлов. Видеозвонок позволит установить визуальный контакт клиентом со своим менеджером с возможностью показа презентаций. На базе удаленных каналов обслуживания планируется реализовать возможность удаленного предоставления клиенту всего спектра продуктов банка. В настоящий момент в банке обслуживается порядка 19 млн клиентов.\n\n🎯Мы ожидаем от вас:\n· знание Objective-C;\n· знание Swift;\n· опыт коммерческой разработки iOS-приложений не менее года;\n· опыт параллельного и многопоточного программирования;\n· опыт разработки сетевых приложений как на уровне сокетов, так и на уровне HTTP;\n· опыт работы с Core Data, Core Graphics, XML-парсером в iOS SDK;\n· умение разбираться и работать с чужим кодом.\n\nЖду Ваши резюме и буду рада ответить на все вопросы☺️\nКонтакты для связи: telegram @anisimovaane4ka","markup":[{"type":"hashtag","offset":0,"length":9,"data":"вакансия"},{"type":"hashtag","offset":10,"length":4,"data":"IOS"},{"type":"hashtag","offset":15,"length":6,"data":"Swift"},{"type":"hashtag","offset":22,"length":10,"data":"Objective"},{"type":"hashtag","offset":35,"length":7,"data":"middle"},{"type":"hashtag","offset":43,"length":5,"data":"офис"},{"type":"hashtag","offset":49,"length":7,"data":"Москва"},{"type":"handle","offset":1354,"length":16,"data":"anisimovaane4ka"}],"date":"2020-06-22T15:47:47+00:00","link":"tg://resolve?domain=mobile_jobs&post=68472","tags":[{"name":"mobile"},{"name":"ios"},{"name":"swift"},{"name":"objective-c"},{"name":"dotnet"},{"name":"xml"},{"name":"core-data"}],"cities":[{"code":"moscow"}],"allowsRemote":true}},{"node":{"__typename":"Job","id":"103458799616-1001089317451","title":"Qa engineer","text":"#Москва #вакансия #QA #fulltime #test #office\n\n💻Компания: СберТех.\n🧰Вакансия: QA Engineer.\n🏢Офис: Москва, м. Нагатинская/м. Тульская/ м. Верхние Котлы.\n💰ЗП: от 150 000 Net.\n\n📂Проект: Разработка платформы для управления бизнес-процессами Банка и Цифровой Платформы Sber.\n\n🗓Задачи:\n• Работа в роли тестировщика в scrum команде.\n• Написание, актуализация тестовых сценариев и их прохождение (API, UI).\n• Проведение функционального, регрессионного, интеграционного и других видов тестирования.\n• Регистрация, отслеживание и верификация дефектов.\n• Участие в развитии команды и процессов тестирования.\n\n📌Требования: \n• Опыт написания тестовых сценариев, чек-листов, составления сложных интеграционных сценариев.\n• Знание теории тестирования, понимание видов тестирования и необходимости их применения на различных этапах реализации проекта.\n• Опыт анализа и тестирования требований.\n• Опыт тестирования rest/soap сервисов.\n• Опыт работы с BPM системами, понимание нотации BPMN 2.0.\n\n📎Cтек: REST, XML, XSD, JSON, SQL, BPMN 2.0, Docker, Kubernetes, Openshift, Kafka.\n\n🔰Условия:\n• Оформление ТК РФ.\n• ДМС для сотрудников и скидки на медицинскую страховку для родственников;\n• Высокая белая заработная плата (оклад + годовая премия).\n• Возможность обучения за счет компании, посещения IT-конференций.\n• Бесплатный тренажерный зал на территории офиса.\n• Корпоративная жизнь и спортивные мероприятия.\n\n📩Готов ответить на интересующие вопросы - @Dmiryy","markup":[{"type":"hashtag","offset":0,"length":7,"data":"Москва"},{"type":"hashtag","offset":8,"length":9,"data":"вакансия"},{"type":"hashtag","offset":18,"length":3,"data":"QA"},{"type":"hashtag","offset":22,"length":9,"data":"fulltime"},{"type":"hashtag","offset":32,"length":5,"data":"test"},{"type":"hashtag","offset":38,"length":7,"data":"office"},{"type":"handle","offset":1443,"length":7,"data":"Dmiryy"}],"date":"2020-06-22T15:07:24+00:00","link":"tg://resolve?domain=qa_jobs&post=98666","tags":[{"name":"qa"},{"name":"dotnet"},{"name":"rest"},{"name":"soap"},{"name":"xml"},{"name":"xsd"},{"name":"json"},{"name":"sql"},{"name":"docker"},{"name":"kubernetes"},{"name":"kafka"}],"cities":[{"code":"moscow"}],"allowsRemote":false}}]}}},"context":{}}