{"hash":"f5f6bf98bd95e769321482904cbbd488f77922fd","data":{"records":{"id":"russia/krasnodar","country":{"code":"russia","ruName":"Россия","enName":"Russia"},"city":{"code":"krasnodar","ruName":"Краснодар","enName":"Krasnodar"},"belongsTo":{"totalCount":17,"pageInfo":{"totalPages":2,"currentPage":2},"edges":[{"node":{"__typename":"Job","id":"103396933632-1001089317451","title":"Qa инженер","text":"🐞🐞🐞#вакансия #QA #Ульяновск #Саранск #Казань #Самара #Уфа #Краснодар #офис #удаленная_работа\n\n🔍Middle QA-специалист🔎\n\n⚡️Компания: Simbirsoft (более 19 лет на рынке, более 700 сотрудников в штате)\n\nОчень ждем тебя, наш будущий коллега и борец за качественное ПО! :)\n\n📌Твои будущие задачи:\n• тестирование ПО (frontend, backend, API);\n• локализация и документирование найденных дефектов;\n• ведение и оптимизация тестовой документации;\n• контроль качества на всех этапах разработки ПО;\n• выстраивание и оптимизация процессов тестирования ПО.\n\n📌Что мы ждем от тебя:\n• наличие опыта от 2 лет в направлениях QA или тестирования ПО;\n• понимание разницы между QA и тестированием ПО;\n• понимание особенностей гибких методологий;\n• уверенное владение техниками тест-дизайна;\n• знание клиент-серверной архитектуры;\n• понимание особенностей тестирования web, mobile и desktop приложений;\n• навык тестирования API;\n• написание запросов SQL;\n• опыт работы с системами контроля версий (git);\n• знание основных команд работы с консолью (Windows/Linux).\n\n📌Что мы предлагаем:\n• Полностью белая ЗП два раза в месяц;\n• Оформление по ТК РФ;\n• Высокий уровень экспертности внутри компании, которым мы делимся друг с другом;\n• Перспективы вертикального и горизонтального роста;\n• Работа на российских и международных проектах;\n• Оборудованное рабочее место и парк тестовых устройств;\n• Возможность сертификации за счет компании;\n• Внутренние и внешние курсы, доклады, конференции;\n• Бесплатные чай, кофе, печеньки в офисе;\n• Корпоративная спортивная программа (оплата тематических секций, частичная компенсация абонемента);\n• Проведение летних и зимних корпоративов, дня именинника, совместные походы и т.д.\n\n📌Зарплата:\n• от 50 000 (Договорная, по итогу собеседования)\n\n☎️Контакты:\n@julia_kli","markup":[{"type":"hashtag","offset":6,"length":9,"data":"вакансия"},{"type":"hashtag","offset":16,"length":3,"data":"QA"},{"type":"hashtag","offset":20,"length":10,"data":"Ульяновск"},{"type":"hashtag","offset":31,"length":8,"data":"Саранск"},{"type":"hashtag","offset":40,"length":7,"data":"Казань"},{"type":"hashtag","offset":48,"length":7,"data":"Самара"},{"type":"hashtag","offset":56,"length":4,"data":"Уфа"},{"type":"hashtag","offset":61,"length":10,"data":"Краснодар"},{"type":"hashtag","offset":72,"length":5,"data":"офис"},{"type":"hashtag","offset":78,"length":17,"data":"удаленная_работа"},{"type":"handle","offset":1767,"length":10,"data":"julia_kli"}],"date":"2020-06-22T07:56:46+00:00","link":"tg://resolve?domain=qa_jobs&post=98607","tags":[{"name":"qa"},{"name":"web"},{"name":"mobile"},{"name":"sql"},{"name":"git"},{"name":"windows"},{"name":"linux"}],"cities":[{"code":"ulyanovsk"},{"code":"saransk"},{"code":"kazan"},{"code":"samara"},{"code":"ufa"},{"code":"krasnodar"}],"allowsRemote":true}},{"node":{"__typename":"Job","id":"103279493120-1001089317451","title":"Qa инженер","text":"🐞🐞🐞#вакансия #QA #Ульяновск #Саранск #Казань #Самара #Уфа #Краснодар #офис #удаленная_работа\n\n🔍Middle QA-специалист🔎\n\n⚡️Компания: Simbirsoft (более 19 лет на рынке, более 700 сотрудников в штате)\n\nОчень ждем тебя, наш будущий коллега и борец за качественное ПО! 🙂\n\n📌Твои будущие задачи:\n• тестирование ПО (frontend, backend, API);\n• локализация и документирование найденных дефектов;\n• ведение и оптимизация тестовой документации;\n• контроль качества на всех этапах разработки ПО;\n• выстраивание и оптимизация процессов тестирования ПО.\n\n📌Что мы ждем от тебя:\n• наличие опыта от 2 лет в направлениях QA или тестирования ПО;\n• понимание разницы между QA и тестированием ПО;\n• понимание особенностей гибких методологий;\n• уверенное владение техниками тест-дизайна;\n• знание клиент-серверной архитектуры;\n• понимание особенностей тестирования web, mobile и desktop приложений;\n• навык тестирования API;\n• написание запросов SQL;\n• опыт работы с системами контроля версий (git);\n• знание основных команд работы с консолью (Windows/Linux).\n\n\n📌Что мы предлагаем:\n• Полностью белая ЗП два раза в месяц;\n• Оформление по ТК РФ;\n• Высокий уровень экспертности внутри компании, которым мы делимся друг с другом;\n• Перспективы вертикального и горизонтального роста;\n• Работа на российских и международных проектах;\n• Оборудованное рабочее место и парк тестовых устройств;\n• Подготовка и прохождение сертификации ISTQB бесплатно;\n• Внутренние и внешние курсы, доклады, конференции;\n• Бесплатные чай, кофе, печеньки в офисе;\n• Корпоративная спортивная программа (оплата тематических секций, частичная компенсация абонемента);\n• Проведение летних и зимних корпоративов, дня именинника, совместные походы и т.д.\n\n📌Зарплата:\n• от 50 000 (Договорная, по итогу собеседования)\n\n\n☎️Контакты:\n@abrmova","markup":[{"type":"hashtag","offset":6,"length":9,"data":"вакансия"},{"type":"hashtag","offset":16,"length":3,"data":"QA"},{"type":"hashtag","offset":20,"length":10,"data":"Ульяновск"},{"type":"hashtag","offset":31,"length":8,"data":"Саранск"},{"type":"hashtag","offset":40,"length":7,"data":"Казань"},{"type":"hashtag","offset":48,"length":7,"data":"Самара"},{"type":"hashtag","offset":56,"length":4,"data":"Уфа"},{"type":"hashtag","offset":61,"length":10,"data":"Краснодар"},{"type":"hashtag","offset":72,"length":5,"data":"офис"},{"type":"hashtag","offset":78,"length":17,"data":"удаленная_работа"},{"type":"handle","offset":1781,"length":8,"data":"abrmova"}],"date":"2020-06-19T11:12:51+00:00","link":"tg://resolve?domain=qa_jobs&post=0","tags":[{"name":"qa"},{"name":"web"},{"name":"mobile"},{"name":"sql"},{"name":"git"},{"name":"windows"},{"name":"linux"}],"cities":[{"code":"ulyanovsk"},{"code":"saransk"},{"code":"kazan"},{"code":"samara"},{"code":"ufa"},{"code":"krasnodar"}],"allowsRemote":true}},{"node":{"__typename":"Job","id":"103006863360-1001089317451","title":"Qa инженер","text":"🐞🐞🐞#вакансия #QA #Ульяновск #Саранск #Казань #Самара #Уфа #Краснодар #офис #удаленная_работа\n\n🔍Middle QA-специалист🔎\n\n⚡️Компания: Simbirsoft (более 19 лет на рынке, более 700 сотрудников в штате)\n\nОчень ждем тебя, наш будущий коллега и борец за качественное ПО! :)\n\n📌Твои будущие задачи:\n• тестирование ПО (frontend, backend, API);\n• локализация и документирование найденных дефектов;\n• ведение и оптимизация тестовой документации;\n• контроль качества на всех этапах разработки ПО;\n• выстраивание и оптимизация процессов тестирования ПО.\n\n📌Что мы ждем от тебя:\n• наличие опыта от 2 лет в направлениях QA или тестирования ПО;\n• понимание разницы между QA и тестированием ПО;\n• понимание особенностей гибких методологий;\n• уверенное владение техниками тест-дизайна;\n• знание клиент-серверной архитектуры;\n• понимание особенностей тестирования web, mobile и desktop приложений;\n• навык тестирования API;\n• написание запросов SQL;\n• опыт работы с системами контроля версий (git);\n• знание основных команд работы с консолью (Windows/Linux).\n\n📌Что мы предлагаем:\n• Полностью белая ЗП два раза в месяц;\n• Оформление по ТК РФ;\n• Высокий уровень экспертности внутри компании, которым мы делимся друг с другом;\n• Перспективы вертикального и горизонтального роста;\n• Работа на российских и международных проектах;\n• Оборудованное рабочее место и парк тестовых устройств;\n• Подготовка и прохождение сертификации ISTQB бесплатно;\n• Внутренние и внешние курсы, доклады, конференции;\n• Бесплатные чай, кофе, печеньки в офисе;\n• Корпоративная спортивная программа (оплата тематических секций, частичная компенсация абонемента);\n• Проведение летних и зимних корпоративов, дня именинника, совместные походы и т.д.\n\n📌Зарплата:\n• от 50 000 (Договорная, по итогу собеседования)\n\n☎️Контакты: @nataly_max","markup":[{"type":"hashtag","offset":6,"length":9,"data":"вакансия"},{"type":"hashtag","offset":16,"length":3,"data":"QA"},{"type":"hashtag","offset":20,"length":10,"data":"Ульяновск"},{"type":"hashtag","offset":31,"length":8,"data":"Саранск"},{"type":"hashtag","offset":40,"length":7,"data":"Казань"},{"type":"hashtag","offset":48,"length":7,"data":"Самара"},{"type":"hashtag","offset":56,"length":4,"data":"Уфа"},{"type":"hashtag","offset":61,"length":10,"data":"Краснодар"},{"type":"hashtag","offset":72,"length":5,"data":"офис"},{"type":"hashtag","offset":78,"length":17,"data":"удаленная_работа"},{"type":"handle","offset":1779,"length":11,"data":"nataly_max"}],"date":"2020-06-17T05:07:15+00:00","link":"tg://resolve?domain=qa_jobs&post=0","tags":[{"name":"qa"},{"name":"web"},{"name":"mobile"},{"name":"sql"},{"name":"git"},{"name":"windows"},{"name":"linux"}],"cities":[{"code":"ulyanovsk"},{"code":"saransk"},{"code":"kazan"},{"code":"samara"},{"code":"ufa"},{"code":"krasnodar"}],"allowsRemote":true}},{"node":{"__typename":"Job","id":"16984834048-1001110946746","title":"Js разработчик","text":"#вакансия #офис #краснодар #krasnodar #fulltime #react #native\n\n✅Вакансия: React developer \n✅Город: Краснодар\n✅Занятость: полная, офис\n✅ЗП вилка: 40 000 - 100 000р. на руки\n✅Компания: WILIX\n\nПривет!\nМы создаём веб и мобильные приложения, помогаем большим и маленьким компаниям, разбросанным по всему Миру, создать надежные и быстрые программные решения.\nИщем React разработчика в свою команду!\n🙌Наши ожидания:\nJS, TypeScript,\nReact\nRedux (Redux-toolkit), \nReact Router (React Navigation), \nRedux Thunk, \nWebpack,\nHTML+CSS,\nBootstrap/material\n\nБудет плюсом:\nReact Native\nreselect, normalizr\nstyle-components, css-modules, css-in-js\n\n👍Что мы готовы предложить:\n- Работу в офисе (40 часов в неделю), возможна частичная удаленка \n- Комфортное рабочее место \n- Дружный и отзывчивый коллектив, выезды на природу и разного рода мероприятия \n- Mac или PC \n- Классика: Чай/Кофе/Печеньки/Тенис/XBox\n\nКонтакты: @Aleen_ku\n\n—\n\n👉 Обсуждение вакансии в чате @javascript_jobs","markup":[{"type":"hashtag","offset":0,"length":9,"data":"вакансия"},{"type":"hashtag","offset":10,"length":5,"data":"офис"},{"type":"hashtag","offset":16,"length":10,"data":"краснодар"},{"type":"hashtag","offset":27,"length":10,"data":"krasnodar"},{"type":"hashtag","offset":38,"length":9,"data":"fulltime"},{"type":"hashtag","offset":48,"length":6,"data":"react"},{"type":"hashtag","offset":55,"length":7,"data":"native"},{"type":"handle","offset":902,"length":9,"data":"Aleen_ku"},{"type":"handle","offset":946,"length":16,"data":"javascript_jobs"}],"date":"2020-06-16T14:24:18+00:00","link":"tg://resolve?domain=javascript_jobs_feed&post=0","tags":[{"name":"javascript"},{"name":"reactjs"},{"name":"typescript"},{"name":"redux"},{"name":"webpack"},{"name":"html"},{"name":"css"},{"name":"bootstrap"},{"name":"react-native"},{"name":"react-redux"},{"name":"react-router"}],"cities":[{"code":"krasnodar"}],"allowsRemote":true}},{"node":{"__typename":"Job","id":"71383908352-1001054966032","title":"Mobile разработчик","text":"#вакансия #офис #краснодар #krasnodar #fulltime #react #native\n\n✅Вакансия: React developer \n✅Город: Краснодар\n✅Занятость: полная, офис\n✅ЗП вилка: 40 000 - 100 000р. \n✅Компания: WILIX\n\nПривет!\nМы создаём веб и мобильные приложения, помогаем большим и маленьким компаниям, разбросанным по всему Миру, создать надежные и быстрые программные решения.\nИщем React разработчика в свою команду!\n🙌Наши ожидания:\nJS, TypeScript,\nReact\nRedux (Redux-toolkit), \nReact Router (React Navigation), \nRedux Thunk, \nWebpack,\nHTML+CSS,\nBootstrap/material\n\nБудет плюсом:\nReact Native\nreselect, normalizr\nstyle-components, css-modules, css-in-js\n\n👍Что мы готовы предложить:\n- Работу в офисе (40 часов в неделю), возможна частичная удаленка \n- Комфортное рабочее место \n- Дружный и отзывчивый коллектив, выезды на природу и разного рода мероприятия \n- Mac или PC \n- Классика: Чай/Кофе/Печеньки/Тенис/XBox\n\nКонтакты: @Aleen_ku","markup":[{"type":"hashtag","offset":0,"length":9,"data":"вакансия"},{"type":"hashtag","offset":10,"length":5,"data":"офис"},{"type":"hashtag","offset":16,"length":10,"data":"краснодар"},{"type":"hashtag","offset":27,"length":10,"data":"krasnodar"},{"type":"hashtag","offset":38,"length":9,"data":"fulltime"},{"type":"hashtag","offset":48,"length":6,"data":"react"},{"type":"hashtag","offset":55,"length":7,"data":"native"},{"type":"handle","offset":895,"length":9,"data":"Aleen_ku"}],"date":"2020-06-16T11:49:43+00:00","link":"tg://resolve?domain=mobile_jobs&post=0","tags":[{"name":"mobile"},{"name":"reactjs"},{"name":"typescript"},{"name":"redux"},{"name":"webpack"},{"name":"html"},{"name":"css"},{"name":"bootstrap"},{"name":"react-native"},{"name":"react-redux"},{"name":"react-router"}],"cities":[{"code":"krasnodar"}],"allowsRemote":true}},{"node":{"__typename":"Job","id":"102842236928-1001089317451","title":"Qa engineer","text":"#вакансия #Казань #Нижний_Новгород #Краснодар #офис #удаленно \n\n💻Компания «БАРС Груп» - ведущий российский разработчик решений для государственного и корпоративного секторов с 1992 года, входит в ТОП-15 крупнейших разработчиков России.\n\n👀Мы в поисках QA Auto Engineer на крупные государственные проекты.\n\nОт новых сотрудников мы ожидаем:\n•Знание базовых понятий и определений в тестировании;\n•Знание и уверенное владение методиками тестирования;\n•  Экспертное владение навыками составления тест-кейсов, чек-листов, баг-репортов;\n•Владение языком программирования С# / Python.\nБудет плюсом:\n•Владение инструментами тестирования Fiddler/Postman, Visual Studio, фрэймворками Nunit, restsharp, Selenium.webdriver;\n•Опыт работы с системами JIRA, git/stash.\n\n💰Уровень заработной платы: от 50000р до 150000р. \n\n⏰Рабочий день в офисе или полностью удаленно\n\n🔺Вместе мы будем работать над масштабными проектами, которые меняют к лучшему жизни людей!","markup":[{"type":"hashtag","offset":0,"length":9,"data":"вакансия"},{"type":"hashtag","offset":10,"length":7,"data":"Казань"},{"type":"hashtag","offset":18,"length":16,"data":"Нижний_Новгород"},{"type":"hashtag","offset":35,"length":10,"data":"Краснодар"},{"type":"hashtag","offset":46,"length":5,"data":"офис"},{"type":"hashtag","offset":52,"length":9,"data":"удаленно"}],"date":"2020-06-15T10:44:00+00:00","link":"tg://resolve?domain=qa_jobs&post=0","tags":[{"name":"qa"},{"name":"python"},{"name":"selenium"},{"name":"git"},{"name":"visual-studio"}],"cities":[{"code":"kazan"},{"code":"krasnodar"},{"code":"nizhny-novgorod"}],"allowsRemote":true}},{"node":{"__typename":"Job","id":"102808682496-1001089317451","title":"Qa инженер","text":"🐞🐞🐞#вакансия #QA #Ульяновск #Саранск #Казань #Самара #Уфа #Краснодар #офис #удаленная_работа\n\n🔍Middle QA-специалист🔎\n\n⚡️Компания: Simbirsoft (более 19 лет на рынке, более 700 сотрудников в штате)\n\nОчень ждем тебя, наш будущий коллега и борец за качественное ПО! :)\n\n📌Твои будущие задачи:\n• тестирование ПО (frontend, backend, API);\n• локализация и документирование найденных дефектов;\n• ведение и оптимизация тестовой документации;\n• контроль качества на всех этапах разработки ПО;\n• выстраивание и оптимизация процессов тестирования ПО.\n\n📌Что мы ждем от тебя:\n• наличие опыта от 2 лет в направлениях QA или тестирования ПО;\n• понимание разницы между QA и тестированием ПО;\n• понимание особенностей гибких методологий;\n• уверенное владение техниками тест-дизайна;\n• знание клиент-серверной архитектуры;\n• понимание особенностей тестирования web, mobile и desktop приложений;\n• навык тестирования API;\n• написание запросов SQL;\n• опыт работы с системами контроля версий (git);\n• знание основных команд работы с консолью (Windows/Linux).\n\n📌Что мы предлагаем:\n• Полностью белая ЗП два раза в месяц;\n• Оформление по ТК РФ;\n• Высокий уровень экспертности внутри компании, которым мы делимся друг с другом;\n• Перспективы вертикального и горизонтального роста;\n• Работа на российских и международных проектах;\n• Оборудованное рабочее место и парк тестовых устройств;\n• Подготовка и прохождение сертификации ISTQB бесплатно;\n• Внутренние и внешние курсы, доклады, конференции;\n• Бесплатные чай, кофе, печеньки в офисе;\n• Корпоративная спортивная программа (оплата тематических секций, частичная компенсация абонемента);\n• Проведение летних и зимних корпоративов, дня именинника, совместные походы и т.д.\n\n📌Зарплата:\n• от 50 000 (Договорная, по итогу собеседования)\n\n☎️Контакты:\nKaterina","markup":[{"type":"hashtag","offset":6,"length":9,"data":"вакансия"},{"type":"hashtag","offset":16,"length":3,"data":"QA"},{"type":"hashtag","offset":20,"length":10,"data":"Ульяновск"},{"type":"hashtag","offset":31,"length":8,"data":"Саранск"},{"type":"hashtag","offset":40,"length":7,"data":"Казань"},{"type":"hashtag","offset":48,"length":7,"data":"Самара"},{"type":"hashtag","offset":56,"length":4,"data":"Уфа"},{"type":"hashtag","offset":61,"length":10,"data":"Краснодар"},{"type":"hashtag","offset":72,"length":5,"data":"офис"},{"type":"hashtag","offset":78,"length":17,"data":"удаленная_работа"}],"date":"2020-06-15T05:55:18+00:00","link":"tg://resolve?domain=qa_jobs&post=0","tags":[{"name":"qa"},{"name":"web"},{"name":"mobile"},{"name":"sql"},{"name":"git"},{"name":"windows"},{"name":"linux"}],"cities":[{"code":"ulyanovsk"},{"code":"saransk"},{"code":"kazan"},{"code":"samara"},{"code":"ufa"},{"code":"krasnodar"}],"allowsRemote":true}}]}}},"context":{}}