{"hash":"f34fd2c444a074f4e0e67d525015a008ef8e766f","data":{"records":{"id":"git","name":"git","belongsTo":{"totalCount":114,"pageInfo":{"totalPages":12,"currentPage":1},"edges":[{"node":{"__typename":"Job","id":"66427289600-1001054966032","title":"Ios разработчик","text":"#вакансия #ios #swift #fulltime #офис #objective-c\nВакансия: IOS разработчик\nГород: Москва. \nФормат работы: офис (удаленно на время карантина)\nЗанятость: полная\nОпыт: 3 года коммерческой разработки. 1 год разработки на Swift.\nЗарплатная вилка: 120 000 net - 150 000 net.\nВсем привет!\nНаш клиент - крупнейшая финансовая организация, развивающая ИТ - проекты в направлениях Data Science, мобильная разработка, анализ бизнес процессов.\n\n📌Чем нужно заниматься:\n-Писать код.\n-Проводить декомпозицию и оценку задач.\n-Работать вместе с аналитиками и дизайнерами плечом к плечу.\n-Участвовать в проектировании архитектуры приложения.\n-Участвовать  в code rewiew.\n\n📌Требования:\n-Опыт коммерческой разработки от 3-х лет.\n-Опыт разработки под IOS от 1 года.\n-Знание swift.\n- Знание шаблонов проектирования, принципов SOLID и их применение.\n-Знание и опыт работы с архитектурой VIPER или MVC.\n-Опыт разработки клиент - серверных приложений, понимание REST API.\n-Умение работать с AutoLayout (будет плюсом использование SnapKit).\n\n✅ Желательно:\n-Знание Objective-c.\n-Опыт работы с CoreDat, геолокацией, Push Notification.\n-Опыт работы с Git, Confluence, Jira.\n-Опыт работы в Agile проектах.\n\n✅ Условия:\n-Оформление по ТК РФ\n- ДМС.\n- Посещение конференций.\n- Обучение за счёт компании.\n- Дисконт программы от компаний партнёров.\n\nКонтакты:\n@Mariam_Volkova\n📩MVolkova@globalcareer.eu\n📲8(999)169-20-38\n(Telegram, Whatsapp)","markup":[{"type":"hashtag","offset":0,"length":9,"data":"вакансия"},{"type":"hashtag","offset":10,"length":4,"data":"ios"},{"type":"hashtag","offset":15,"length":6,"data":"swift"},{"type":"hashtag","offset":22,"length":9,"data":"fulltime"},{"type":"hashtag","offset":32,"length":5,"data":"офис"},{"type":"hashtag","offset":38,"length":10,"data":"objective"},{"type":"handle","offset":1327,"length":15,"data":"Mariam_Volkova"},{"type":"link","offset":1343,"length":26,"data":"http://📩MVolkova@globalcareer.eu"},{"type":"link","offset":1372,"length":15,"data":"tel:8(999)169-20-38"}],"date":"2020-04-10T13:15:17+00:00","link":"tg://resolve?domain=mobile_jobs&post=63350","tags":[{"name":"mobile"},{"name":"ios"},{"name":"swift"},{"name":"objective-c"},{"name":"dotnet"},{"name":"rest"},{"name":"git"}],"cities":[{"code":"moscow"}],"allowsRemote":true}},{"node":{"__typename":"Job","id":"24391974912-1001075660570","title":"Php разработчик","text":"#вакансия #удаленка#php #yii\n #штат #highload #ecommerce #официально\n\nРебята, наша компания Hidden Team расширяет штат и приглашает на работу backend-разработчиков уровня middle/middle+ c опытом работы на фреймворке Yii. Мы занимаемся разработкой highload проектов в сфере e-commerce и сложных ERP систем. Сотрудничаем с топовыми веб-студиями и digital-агентствами России.\n\nЧто бы мы хотели видеть у наших кандидатов?\n🔸Хорошие знания программирования (PHP, ООП).\n🔸Опыт работы на фреймворке Yii/Laravel/Symfony\n🔸Опыт работы с Git.\n🔸Опыт работы в консоли linux.\n🔸Базовые знания html, java script, css.\n🔸Понимание принципов построения RESTFul сервисов.\n🔸Желателен опыт работы с чем-либо RabbitMQ, Redis, ElasticSearch, PostgreSQL.\n🔸Английский на уровне чтения технической документации.\n\nЛичные качества: аккуратность, внимательность к мелочам, самостоятельность и организованность, умение работать в команде, быстро реагировать на запросы и изменение ситуации, желание обучаться и развиваться, стремление сделать работу максимально качественно.\n\nМы предлагаем:\n🔹только удаленная работа с отлаженным процессом менеджмента проектов (трекинг в Redmine, оценка задач разработчиками);\n🔹работа над сложными e-commerce проектами для крупнейших российских веб-студий (топ-10 рейтинга рунета);\n🔹многосерверная архитектура, высокие нагрузки (500К+ посетителей/месяц);\n🔹множество различных интеграций с большими объемами данных;\n🔹индивидуальные планы развития;\n🔹обучение и семинары внутри компании, собственная он-лайн школа на стадии запуска;\n🔹перспективы карьерного роста (повышения уровня разработчика до senior/team lead, возможность релокации);\n🔹 заработная плата 70К-120К+ по итогам собеседования (белая, на руки), открытая система грейдов;\n🔹 официальное оформление по ТК РФ, оплачиваемый отпуск, удобный график (начало работы 8-11), в выходные, праздники и по ночам не работаем☺️.\n\nКонтакты: Яна @yanaizosimova","markup":[{"type":"hashtag","offset":0,"length":9,"data":"вакансия"},{"type":"hashtag","offset":24,"length":4,"data":"yii"},{"type":"hashtag","offset":30,"length":5,"data":"штат"},{"type":"hashtag","offset":36,"length":9,"data":"highload"},{"type":"hashtag","offset":46,"length":10,"data":"ecommerce"},{"type":"hashtag","offset":57,"length":11,"data":"официально"},{"type":"handle","offset":1906,"length":14,"data":"yanaizosimova"}],"date":"2020-04-10T10:05:28+00:00","link":"tg://resolve?domain=php_jobs&post=23262","tags":[{"name":"php"},{"name":"yii"},{"name":"laravel"},{"name":"symfony"},{"name":"git"},{"name":"linux"},{"name":"html"},{"name":"java"},{"name":"css"},{"name":"rabbitmq"},{"name":"redis"},{"name":"elasticsearch"},{"name":"postgresql"}],"cities":[],"allowsRemote":true}},{"node":{"__typename":"Job","id":"66410512384-1001054966032","title":"Mobile developer","text":"#вакансия  #iOS  #developer  #swift  #middle  #senior  #иннополис  #казань\n\nMobile Frontend Developer – iOS\n\nCompany: NNG\nVacancy: Middle/Senior iOS Developer\nLocation: Innopolis, Kazan\nWork format: office\nEmployment: full time\nS/p: from 180 to 250 k net\n\nAt NNG we develop the next generation of navigation and infotainment technology to improve driving experience, working with 7 of the top 10 car manufacturers worldwide. Headquartered in Hungary, we have a global footprint with coverage in almost 200 countries and 12 company offices worldwide. We have recently established a new development center in Kazan, tasked with delivering customized cutting-edge solutions to Russian vehicle manufacturers. In addition, the Kazan office will also develop independent, reusable software components for the global market, primarily frontend software (JavaScript, iOS and Android) and Java backend microservices.\n\nWhat would be your job? \n♦️ Work on mobile and automotive navigation software development\n🔹Work on various projects with international clients from all parts of the world\n♦️ Work in close cooperation with project managers and development teams both locally and in the Budapest office\n🔹Design, develop, code, test and debug; own your code\n\nIf you have... \n♦️Experience developing, testing, and releasing iOS apps\n🔹Knowledge of Objective-C and Swift, UIKit\n♦️Experience collaborating with designers on usability and aesthetics of apps\n🔹Strong experience in writing and maintaining testable code and unit tests\n♦️Experience with git-based version control systems\n🔹Strong written and verbal communication skills in English\n♦️ Experience working with global teams\nmoreover, you have any of the following: \n🔹Familiarity with JavaScript\n♦️Familiarity with Flutter\n🔹Experience in Agile development, especially SaFE and SCRUM\n♦️Willingness to get familiar with new technologies\n🔹Experience in working as a team player\nWhat can we give you in return? \n♦️ A job at a successful global company in Innopolis, where you can learn from the best\n🔹Serious professional challenges\n♦️A secure and well-paid job\n🔹The opportunity to develop the navigation software of the future in the present\n♦️A youthful team\n🔹The opportunity of working abroad for several weeks\n\nContacts: ✒️hr.vkulneva@gmail.com, @viktoriyakulneva","markup":[{"type":"hashtag","offset":0,"length":9,"data":"вакансия"},{"type":"hashtag","offset":11,"length":4,"data":"iOS"},{"type":"hashtag","offset":17,"length":10,"data":"developer"},{"type":"hashtag","offset":29,"length":6,"data":"swift"},{"type":"hashtag","offset":37,"length":7,"data":"middle"},{"type":"hashtag","offset":46,"length":7,"data":"senior"},{"type":"hashtag","offset":55,"length":10,"data":"иннополис"},{"type":"hashtag","offset":67,"length":7,"data":"казань"},{"type":"link","offset":2275,"length":23,"data":"http://✒️hr.vkulneva@gmail.com"},{"type":"handle","offset":2300,"length":17,"data":"viktoriyakulneva"}],"date":"2020-04-10T09:54:55+00:00","link":"tg://resolve?domain=mobile_jobs&post=63334","tags":[{"name":"mobile"},{"name":"android"},{"name":"ios"},{"name":"swift"},{"name":"dotnet"},{"name":"javascript"},{"name":"java"},{"name":"objective-c"},{"name":"uikit"},{"name":"git"},{"name":"flutter"}],"cities":[{"code":"kazan"},{"code":"budapest"}],"allowsRemote":false}},{"node":{"__typename":"Job","id":"16251879424-1001110946746","title":"Javascript разработчик","text":"#вакансия #javascript #typescript #react #удаленка\n\nГород и адрес офиса: любой\nФормат работы: удаленка\nЗанятость: полная\nЗарплатная вилка: от 130 000 до 160 000 рублей (на руки)\n\nОписание вакансии: Senior Frontend-разработчик на проект из банковской сферы. Нам нужен человек, который не боится решать задачи любой сложности и может научить этому (и не только этому) свою команду.\n\nСтек технологий:\n– JavaScript, TypeScript;\n– React, Redux, Redux-Saga;\n– Babel (ES 2016+), Webpack или Gulp, Git, БЭМ.\n\nНазвание компании: CSSSR\nКонтакты: @lena_bezbatchenko\n\n—\n\n👉 Обсуждение вакансии в чате @javascript_jobs","markup":[{"type":"hashtag","offset":0,"length":9,"data":"вакансия"},{"type":"hashtag","offset":10,"length":11,"data":"javascript"},{"type":"hashtag","offset":22,"length":11,"data":"typescript"},{"type":"hashtag","offset":34,"length":6,"data":"react"},{"type":"hashtag","offset":41,"length":9,"data":"удаленка"},{"type":"handle","offset":536,"length":18,"data":"lena_bezbatchenko"},{"type":"handle","offset":589,"length":16,"data":"javascript_jobs"}],"date":"2020-04-10T09:27:39+00:00","link":"tg://resolve?domain=javascript_jobs_feed&post=15499","tags":[{"name":"javascript"},{"name":"typescript"},{"name":"reactjs"},{"name":"redux"},{"name":"webpack"},{"name":"gulp"},{"name":"git"},{"name":"react-redux"}],"cities":[],"allowsRemote":true}},{"node":{"__typename":"Job","id":"16249782272-1001110946746","title":"Js разработчик","text":"#вакансия #javascript #react\n\nГород: Москва\nФормат работы: офис (но на время карантина удаленка)\nЗанятость: полная\nЗарплатная вилка: от 180 000 до 220 000 рублей (на руки)\n\nОписание вакансии: ищем senior frontend разработчика, который:\n\n✅ Очень хорошо знает JavaScript и React. Понимает на что нужно обращать внимание при разработке страниц;\n✅ Командный игрок и хочет обсуждать как технические, так и продуктовые идеи;\n✅ Умеет в проектирование архитектуры frontend для сложных интернет-проектов;\n✅ Имеет опыт в формировании требований к api;\n✅ Любит и понимает необходимость функциональных и unit-тестов.\n\nНаш идеальный кандидат:\n\nЗнает на отлично:\n\n✅ HTML5;\n✅ Browser API;\nособенности кроссбраузерной и адаптивной верстки;\n✅ CSS3/CSS;\n✅ JavaScript (ES6);\n✅ React, Redux, Redux-Saga, Reselect, Styled Components, SSR.\n✅ Умеет в работать с Git;\n✅ Умеет работать в Unix-окружении;\n✅ Имеет опыт работы с системами сборки Webpack, Gulp, настройка Babel.\n\nХорошим плюсом будет:\n\n✅ Знание NodeJS;\n✅ Опыт разработки SPA на React;\n✅ Опыт работы с Vue, Vuex;\n✅ Опыт использования препроцессоров (SASS, Less).\n\nМы предлагаем участие в разработке новых проектов:\n\n✅ Продуктовая разработка проработка задачи с первых этапов, декомпозиция, кодинг, отслеживание результатов;\n✅Построение команды: найм, обучение и мотивация разработчиков;\n✅ Интересные и сложные задачи;\n✅ Обязательное ревью кода;\n✅ Итеративная разработка большие проекты дробим на небольшие задачи и выпускаем постепенно;\n✅ Регулярные демо владельцам продуктов и взаимодействие с ними напрямую.\n\nНаши условия:\n\n✅ Современный процесс разработки, командная работа, молодой дружный коллектив, помощь и поддержка. Мы используем git, GitLab CI\\CD и др. современные средства разработки;\n✅ Белая зарплата и полное соблюдение ТК РФ;\n✅ Гибкий график работы;\n✅ Крутой офис в стиле фьюжн, в котором можно поиграть в VR, настольный теннис, видеоигры и даже поспать! Находится рядом со ст. м. Дмитровская, около «Флакона» и «Хлебозавода»;\n✅ Бесплатный фитнес с бассейном;\n✅ Корпоративные завтраки в офисе, любые напитки и фрукты круглый год;\n✅ДМС после прохождения испытательного срока;\n✅ Возможность быстрого профессионального роста, адекватное руководство и прекрасных коллег.\n\nНазвание компании: Admitad/Projects (https://admitad.pro/)\n\nКонтакты: @nadezhda_elizbarovna или n.isaeva@admitad.com\n\n—\n\n👉 Обсуждение вакансии в чате @javascript_jobs","markup":[{"type":"hashtag","offset":0,"length":9,"data":"вакансия"},{"type":"hashtag","offset":10,"length":11,"data":"javascript"},{"type":"hashtag","offset":22,"length":6,"data":"react"},{"type":"link","offset":2256,"length":20,"data":"https://admitad.pro/"},{"type":"handle","offset":2289,"length":21,"data":"nadezhda_elizbarovna"},{"type":"link","offset":2315,"length":20,"data":"mailto:n.isaeva@admitad.com"},{"type":"handle","offset":2370,"length":16,"data":"javascript_jobs"}],"date":"2020-04-10T09:26:19+00:00","link":"tg://resolve?domain=javascript_jobs_feed&post=15497","tags":[{"name":"javascript"},{"name":"reactjs"},{"name":"html"},{"name":"css"},{"name":"redux"},{"name":"git"},{"name":"unix"},{"name":"webpack"},{"name":"gulp"},{"name":"nodejs"},{"name":"vuejs"},{"name":"sass"},{"name":"gitlab"},{"name":"react-redux"}],"cities":[{"code":"moscow"}],"allowsRemote":true}},{"node":{"__typename":"Job","id":"66405269504-1001054966032","title":"Mobile разработчик","text":"#вакансия #работа #СанктПетербург #iOS #CICD #Swift #fulltime #офис\nГород: Санкт-Петербург, м. Чкаловская\nФорма работы: офис\nЗанятость: полная\nЗарплатная вилка: от 120 000 до 270 000 net.\nВсем привет!\nМы петербургская IT-компания, разработчик мобильного приложения «Кошелёк». \n«Кошелёк» заменяет бумажник и избавляет от необходимости носить с собой пластик: пользователи хранят в нем дисконтные и банковские карты. Чтобы получить скидку, достаточно показать на кассе карту с экрана смартфона, а, чтобы оплатить покупку – приложить NFC-смартфон к терминалу оплаты.\nВ сфере платежей мы сотрудничаем с банками (ВТБ, Альфа Банк, Почта Банк, Райффайзенбанк, Открытие и другие) и международными платежными системами Mastercard и Visa.\nНаши результаты:\n9 млн + зарегистрированных пользователей,\n180 млн + оцифрованных карт.\n\nМы находимся в поисках мобильного инженера в инфраструктурную часть iOS core команды. Позиция подойдет для специалиста с опытом в мобильном девопсе. Основная часть работы будет связана с тем, чтобы помогать остальной мобильной команде повышать автоматизацию, и ускорения скорости создания и тестирования новых фич. Дополнительно в работу будет входить всё что связано с мониторингом, автоматическими проверками и автоматизацией в целом. Ищем любознательного человека, который сможет помогать в сборе бэклога для инфраструктурной команды и проактивно предлагать идеи.\n\n🔸Чем предстоит заниматься:\n•  На первых этапах есть описанный бэклог требований, что необходимо реализовать для развития инфраструктуры - CI/CD, интеграций с JIRA/Slack, и т.д. В дальнейшем предстоит помогать формировать данный бэклог, помогая остальной команде и решая их запросы;\n•  Создавать автоматические проверки и подключать системы мониторинга;\n•  Улучшать CI/CD и отвечать за инфраструктуру;\n•  Улучшать время сборки и стабильность билдов;\n•  Администрировать Apple Developer + Firebase;\n•  Автоматизировать ручные задачи.\n\n🔸Технический стек:\n•  Кодовая база: 70% - Objective-C, 30% - Swift (активно переводим проект на Swift);\n•  Минимальная поддерживаемая версия: iOS 10;\n•  Багтрэкинг и документация: Jira + Confluence;\n•  Система контроля версий: Git;\n•  CI/CD: GitLab CI/CD (Запустили месяц назад);\n•  Архитектура: Приложение строится на паттерне Application coordinator. Постепенно разбиваем приложение на независимые модули. Также переводим UI на компоненты с кастомизацией на сервере;\n•  Хранение данных: CoreData;\n•  Дизайн в Zeplin;\n•  Высокие требования к безопасности приложения, т.к. работаем не только с программами лояльности, но и с банковскими продуктами, что требует защищать данные, как на уровне хранения приложением, так и на уровне передачи данных.\n\n🔸Мы предлагаем:\n•  Гибкий график и высокую степень самостоятельности;\n•  Оплату мобильной связи, компенсацию оплаты питания;\n•  Оформление по ТК РФ с первого дня, ДМС после испытательного срока.\nИнформацию о компании можно найти по ссылке: https://cardsmobile.ru/ \n\nКонтакты: katerinaziryukova\nПочта: e.ziryukova@cardsmobile.ru","markup":[{"type":"hashtag","offset":0,"length":9,"data":"вакансия"},{"type":"hashtag","offset":10,"length":7,"data":"работа"},{"type":"hashtag","offset":18,"length":15,"data":"СанктПетербург"},{"type":"hashtag","offset":34,"length":4,"data":"iOS"},{"type":"hashtag","offset":39,"length":5,"data":"CICD"},{"type":"hashtag","offset":45,"length":6,"data":"Swift"},{"type":"hashtag","offset":52,"length":9,"data":"fulltime"},{"type":"hashtag","offset":62,"length":5,"data":"офис"},{"type":"link","offset":2910,"length":23,"data":"https://cardsmobile.ru/"},{"type":"link","offset":2971,"length":26,"data":"mailto:e.ziryukova@cardsmobile.ru"}],"date":"2020-04-10T09:16:32+00:00","link":"tg://resolve?domain=mobile_jobs&post=63329","tags":[{"name":"mobile"},{"name":"ios"},{"name":"swift"},{"name":"dotnet"},{"name":"firebase"},{"name":"objective-c"},{"name":"git"},{"name":"gitlab"}],"cities":[],"allowsRemote":false}},{"node":{"__typename":"Job","id":"16240345088-1001110946746","title":"Js разработчик","text":"#вакансия #Ярославль\n#javascript #js #fullstack \nГород Ярославль(Ярославская область)\nРабота в офисе \nПолная занятость \nЗаработная плата от 60 000 до 80 000 руб. на руки \nWeb разработчик \nТребования: \n-Уверенное знание JavaScript,HTML,CSS;\n-Понимание принципов MVC;\n-Опыт работы с Git;\n-Умение тестировать и документировать собственный код,а также работать с чужим; \n-Умение пользоваться командной строкой Linux(bash,shell,etc)\nБудет плюсом: \n-PHP\n-Опыт работы с extjs;\n-Опыт работы с Yii,Vue;\n-Опыт работы в bugtracing системах (Redmine);\n-Опыт коммерческой разработки ПО.\nКомпания «Сетевые решения»\nПо вопросам в телеграмм @Nbagama или ват сап 8962 956 62 04 Анастасия\n\n—\n\n👉 Обсуждение вакансии в чате @javascript_jobs","markup":[{"type":"hashtag","offset":0,"length":9,"data":"вакансия"},{"type":"hashtag","offset":10,"length":10,"data":"Ярославль"},{"type":"hashtag","offset":21,"length":11,"data":"javascript"},{"type":"hashtag","offset":33,"length":3,"data":"js"},{"type":"hashtag","offset":37,"length":10,"data":"fullstack"},{"type":"handle","offset":625,"length":8,"data":"Nbagama"},{"type":"link","offset":646,"length":14,"data":"tel:8962 956 62 04"},{"type":"handle","offset":705,"length":16,"data":"javascript_jobs"}],"date":"2020-04-10T09:12:51+00:00","link":"tg://resolve?domain=javascript_jobs_feed&post=15488","tags":[{"name":"javascript"},{"name":"web"},{"name":"html"},{"name":"css"},{"name":"git"},{"name":"linux"},{"name":"bash"},{"name":"shell"},{"name":"php"},{"name":"extjs"},{"name":"yii"},{"name":"vuejs"}],"cities":[{"code":"yaroslavl"}],"allowsRemote":false}},{"node":{"__typename":"Job","id":"66398978048-1001054966032","title":"Mobile разработчик","text":"#вакансия #москва #офис #senior #unity #developer #gamedev #csharp\n\nГород и адрес офиса: Москва, м.Автозаводская \nФормат работы: офис \nЗанятость: полная \nЗарплатная вилка: от 200 000 до 250 000 на руки \n\n📣 Senior Unity 3D Developer (mobile game)\n\n\n✅ Описание вакансии: \n\nМы - успешная команда из 100 человек, которая занимается: \n• разработкой собственных мобильных игр и приложений \n• паблишингом мобильных игр \n• рекламой и маркетингом мобильных приложений (реклама на Facebook, Google и т.д.) \nЗа последние 3 года мы привлекли более 100 млн пользователей в наши собственные мобильные приложения и приложения наших клиентов и партнеров, потратив на это более $80 млн. \nУ нас есть все составляющие чтобы делать готовые продукты известными и популярными. Мы ищем сильного Unity разработчика уровня Senior, для работы над нашим главным тайтлом Dragon Champions (крупным хардкорным проектом в жанре Фэнтези, с тактической боевой системой).\n\n\n✅ Задачи: \n\n-Разработка клиентской части игры\n-Разработка клиент-серверного взаимодействия и общей игровой логики\n-Вёрстка UI по макетам от художников\n-Интеграция различных сторонних SDK\n\n\n✅ Требования: \n\n-Опыт работы на Unity3D (С#) от 3х лет\n-Отличное знание Unity и всех её подсистем\n-Отличное знание C#, умение писать чёткий, понятный, структурированный код\n-Отличное знание паттернов проектирования\n-Умение отлаживать и оптимизировать проекты под мобильные платформы iOS/Android\n-Умение верстать адаптивные интерфесы в uGUI\n-Умение разбираться в чужом коде, проводить рефакторинг\n-Уверенные знания по работе с системой контроля версий git\n-Дисциплинированность и ответственность\n\n\n✅ Плюсом будет:\n\n-Участие в разработке выпущенных игр под мобильные платформы на аналогичной должности\n-Умение работать с шейдерами\n-Опыт работы с нативными плагинами (In-Apps, PUSH notifications, аналитика, реклама, социальное взаимодействие)\n-Умение разрабатывать и поддерживать стабильную архитектуру\n-Коммуникабельность, умение чётко доносить свою точку зрения и принимать точку зрения остальных участников команды\n\n\n✅ Для вас: \n\n•  Конкурентная заработная плата, выплачивается 2 раза в месяц\n•  Необходимое оборудование для работы\n•  Бонусы по итогам выполнения KPI и запуска проектов\n•  Коллектив творческих и позитивных людей\n\n\n✅ О нас: \n\n• Просторный офис 600 метров на м. Автозаводская (3 минуты от метро и от ТТК на машине) с ультра современным дизайном и кучей ништяков (кухня с вкусняшками, кальяны каждый вечер в дружной кампании, PS4 Pro + 4K TV, аркадные автоматы с Pac-Man, Metal Slug и другими хитами геймдизайна, просторная зона отдыха, 5 переговорных комнат и т д) \n• Команда из 80 человек занимающаяся паблишингом и маркетингом, готовая сделать продукт успешным после его готовности \n• Возможность обучаться английскому языку с носителями каждый будний день по утрам \n• Менторы и инвесторы, создавшие большое количество успешных IT компаний \nПрисоединяйтесь к нашей команде уже сегодня! \n\nНазвание компании: AppQuantum \n\nКонтакты: \ne-mail: bm@adquantum.com\ntelegram: @MishaBarinov","markup":[{"type":"hashtag","offset":0,"length":9,"data":"вакансия"},{"type":"hashtag","offset":10,"length":7,"data":"москва"},{"type":"hashtag","offset":18,"length":5,"data":"офис"},{"type":"hashtag","offset":24,"length":7,"data":"senior"},{"type":"hashtag","offset":32,"length":6,"data":"unity"},{"type":"hashtag","offset":39,"length":10,"data":"developer"},{"type":"hashtag","offset":50,"length":8,"data":"gamedev"},{"type":"hashtag","offset":59,"length":7,"data":"csharp"},{"type":"link","offset":2987,"length":16,"data":"mailto:bm@adquantum.com"},{"type":"handle","offset":3014,"length":13,"data":"MishaBarinov"}],"date":"2020-04-10T07:59:54+00:00","link":"tg://resolve?domain=mobile_jobs&post=63323","tags":[{"name":"mobile"},{"name":"android"},{"name":"ios"},{"name":"unity3d"},{"name":"csharp"},{"name":"git"}],"cities":[{"code":"moscow"}],"allowsRemote":false}},{"node":{"__typename":"Job","id":"1433403392-1001091028994","title":"Java developer","text":"#java #middle+ #senoir #fulltime #Москва #Ярославль\nJava Developer\nКомпания: Solit Clouds\nЛокация: Москва/Ярославль\nЗп: от 180к до 250к \nКонтакты: @IrinaTishkina\n\nНаша сфера деятельности – это создание уникальных решений в области информатизации медицины, банковской сферы, финансовых организаций, складских систем и других, существенно влияющих на жизнь и здоровье, областей.\n✅Проекты:\n•  Разработка собственной Big Data / BI платформы\n•  Разработка решений в одном из самых масштабных проектов Москвы\n✅Во что предстоит погрузиться:\n•  Участие в проектировании и разработке высоконагруженных облачных решений;\n•  Предложение архитектурных и технических решений;\n•  Коммуникация с аналитиками: необходимо понимать бизнес задачу и предлагать оптимальное техническое решение;\n•  Проектирование интерфейсов и сервисов внутреннего обмена данными;\n•  Контроль качества технических решений, разрабатываемых командой.\n✅Какой опыт может быть интересен:\n•  Умение читать иностранную документацию;\n•  Способность и желание развиваться и изучать новые технологии;\n•  Знание и умение применять паттерны проектирования;\n•  Отличные знания Java и опыт создания приложений с нуля;\n•  Опыт работы с реляционными БД;\n•  Отличные знание SQL, навыки оптимизации планов запросов;\n✅Знание технологий:\n•  Java (Java SE, JEE);\n•  Spring Framework;\n•  Hibernate;\n•  Maven/Gradle;\n•  Oracle, PostgreSQL;\n•  Git/SVN/Mercurial;\n•  TomCat/Undertow/WildFly/GlassFish;\n•  SОAP, REST, WebSockets, JMS.\n✅Мы предлагаем:\n•  Участие в интересных масштабных проектах федерального уровня;\n•  Продуктовые команды, обмен опытом и наставничество;\n•  Конкурентная заработная плата и официальное оформление по ТК;\n•  Работа по гибким методологиям;\n•  Ежегодная оценка и пересмотр условий труда;\n•  Гибкое начало рабочего дня и социальный пакет.","markup":[{"type":"hashtag","offset":0,"length":5,"data":"java"},{"type":"hashtag","offset":6,"length":7,"data":"middle"},{"type":"hashtag","offset":15,"length":7,"data":"senoir"},{"type":"hashtag","offset":23,"length":9,"data":"fulltime"},{"type":"hashtag","offset":33,"length":7,"data":"Москва"},{"type":"hashtag","offset":41,"length":10,"data":"Ярославль"},{"type":"handle","offset":147,"length":14,"data":"IrinaTishkina"}],"date":"2020-04-10T07:57:38+00:00","link":"tg://resolve?domain=jvmjobs&post=1367","tags":[{"name":"java"},{"name":"jvm"},{"name":"sql"},{"name":"spring"},{"name":"hibernate"},{"name":"maven"},{"name":"gradle"},{"name":"oracle"},{"name":"postgresql"},{"name":"git"},{"name":"svn"},{"name":"mercurial"},{"name":"tomcat"},{"name":"rest"}],"cities":[{"code":"moscow"},{"code":"yaroslavl"}],"allowsRemote":false}},{"node":{"__typename":"Job","id":"24351080448-1001075660570","title":"Php разработчик","text":"#вакансия #middle #backend #symfony\nКомпания: AODM (aodm.ru)\nГород и адрес офиса: Санкт-Петербург, м. Чернышевская\nФормат работы: #fulltime #гибкий\nЗанятость: #полная\nЗарплатная вилка: 80-120к (на руки)\n\nЧто мы ожидаем:\n\n- Уверенное знание PHP7\n- REST API\n- Уверенное знание одной из популярных СУБД (MySQL/Postgres)\n- Умение писать Unit и функциональные тесты\n- Опыт работы с одним из современных фреймворков: Laravel, Symfony, Zend (мы используем Symfony)\n- Кэширование\n- Умение пользоваться системами контроля версий (git)\n- Владение английским языком на уровне чтения документации\n\nО проектах, над которыми предстоит работать:\nНативное приложение в сфере красоты с обучающим контентом\nCRM-системы холдинга-арендодателя \nС радостью отвечу на любые вопросы: @selyely","markup":[{"type":"hashtag","offset":0,"length":9,"data":"вакансия"},{"type":"hashtag","offset":10,"length":7,"data":"middle"},{"type":"hashtag","offset":18,"length":8,"data":"backend"},{"type":"hashtag","offset":27,"length":8,"data":"symfony"},{"type":"link","offset":52,"length":7,"data":"http://aodm.ru"},{"type":"hashtag","offset":130,"length":9,"data":"fulltime"},{"type":"hashtag","offset":140,"length":7,"data":"гибкий"},{"type":"hashtag","offset":159,"length":7,"data":"полная"},{"type":"handle","offset":760,"length":8,"data":"selyely"}],"date":"2020-04-09T15:37:56+00:00","link":"tg://resolve?domain=php_jobs&post=23223","tags":[{"name":"php"},{"name":"symfony"},{"name":"rest"},{"name":"mysql"},{"name":"postgresql"},{"name":"laravel"},{"name":"zend-framework"},{"name":"git"}],"cities":[],"allowsRemote":false}}]}}},"context":{}}