{"hash":"f5f6bf98bd95e769321482904cbbd488f77922fd","data":{"records":{"totalCount":669,"pageInfo":{"totalPages":67,"currentPage":48},"edges":[{"node":{"id":"1707081728-1001091028994","title":"Java разработчик","text":"#vacancy #Java #middle #удаленка #новый проект #вакансия  #удаленка #Java #Spring #React #senior #backend\n\nНаша компания занимается разработкой программного обеспечения в сфере аффилированного маркетинга, оказывает сервис, связанный с обслуживанием клиентов, генерирующих трафик для различных зарубежных проектов.\nМы не останавливаемся на достигнутом и запускаем очередной новый проект. Цель проекта - получить современный портал в области теннисного спорта. Это должна быть мощная платформа, которая превзойдет по удобству и современности все существующие на данный момент платформы этой тематики.\nПроект стартует с \"0\", поэтому предоставляется уникальная возможность начать \"все с самого начала\", а не разбираться и пилить Legacy код.\nИщем разработчика на Java уровня Middle+\nОфис расположен в Москве, работать можно из любой точки Мира.\nТребования:\nопыт коммерческой разработки на java от 3-х лет;\nзнание Spring Framework (в т.ч. SpringBoot, SpringData, SpringSecurity);\nзнание ORM (JPA или Hibernate);\nопыт работы с RDBMS, желательно PostgreSQL;\nопыт работы по практикам Agile, DevOps, CI/CD;\nзнание Java Core, collections, multithreading, concurrency, generics, reflection;\nзнание и понимание основных принципов ООП;\nзнание паттернов проектирования\nумение писать качественный и понятный код;\nанглийский – уровень Intermediate\n\n@Elena19_10Kom\nelena.komkova@robusta.team\n+79264236022\nз/п: 100 000 - 150 000 (зависит от опыта)","markup":[{"type":"hashtag","offset":0,"length":8,"data":"vacancy"},{"type":"hashtag","offset":9,"length":5,"data":"Java"},{"type":"hashtag","offset":15,"length":7,"data":"middle"},{"type":"hashtag","offset":23,"length":9,"data":"удаленка"},{"type":"hashtag","offset":33,"length":6,"data":"новый"},{"type":"hashtag","offset":47,"length":9,"data":"вакансия"},{"type":"hashtag","offset":58,"length":9,"data":"удаленка"},{"type":"hashtag","offset":68,"length":5,"data":"Java"},{"type":"hashtag","offset":74,"length":7,"data":"Spring"},{"type":"hashtag","offset":82,"length":6,"data":"React"},{"type":"hashtag","offset":89,"length":7,"data":"senior"},{"type":"hashtag","offset":97,"length":8,"data":"backend"},{"type":"handle","offset":1332,"length":14,"data":"Elena19_10Kom"},{"type":"link","offset":1347,"length":26,"data":"mailto:elena.komkova@robusta.team"},{"type":"link","offset":1374,"length":12,"data":"tel:+79264236022"}],"date":"2020-06-18T11:30:31+00:00","link":"tg://resolve?domain=jvmjobs&post=1628","tags":[{"name":"java"},{"name":"jvm"},{"name":"spring"},{"name":"reactjs"},{"name":"orm"},{"name":"jpa"},{"name":"hibernate"},{"name":"postgresql"}],"cities":[],"allowsRemote":true}},{"node":{"id":"1706033152-1001091028994","title":"Java разработчик","text":"#вакансия #backend #java #fulltime #офис #spring\n\n🔷 Вакансия: JAVA разработчик\nФормат работы: офис/удалёнка\nЗанятость: полная \nЗ/п: от 185 000 до 230 000 рублей на руки\nКомпания: Екомобайл\nСфера деятельности: разработка инфраструктурных IT решений\nЛокация: Зеленоград (25 минут от м. Речной вокзал)\n\n🔷 Основные задачи\n• работа в команде разработчиков над проектами с нуля;\n• доработка и поддержка существующих решений;\n• интеграции с внешними информационными системами;\n• участие в проектировании архитектуры приложений и БД;\n\n🔷 Требования\n• Опыт коммерческой разработки\n• Java SE 8 и выше;\n• Принципы ООП;\n• Spring / Spring Boot (Data, MVC, Security, Cloud);\n• Hibernate или MyBatis;\n• PostgreSQL;\n• Apache Tomcat или Eclipse Jetty или другой app server;\n• Опыт работы с сервисами REST/SOAP.\n\n🔷 Мы предлагаем\n• стабильную зарплату по результатам собеседования;\n• оформление по ТК РФ;\n• гибкий график работы;\n• возможность удалённой работы в перспективе;\n• интересные, творческие задачи;\n• перспектива для личного и профессионального роста.\n\n🔷 Контакт: @devstd","markup":[{"type":"hashtag","offset":0,"length":9,"data":"вакансия"},{"type":"hashtag","offset":10,"length":8,"data":"backend"},{"type":"hashtag","offset":19,"length":5,"data":"java"},{"type":"hashtag","offset":25,"length":9,"data":"fulltime"},{"type":"hashtag","offset":35,"length":5,"data":"офис"},{"type":"hashtag","offset":41,"length":7,"data":"spring"},{"type":"bold","offset":53,"length":27,"data":""},{"type":"bold","offset":304,"length":16,"data":""},{"type":"bold","offset":532,"length":11,"data":""},{"type":"bold","offset":800,"length":14,"data":""},{"type":"bold","offset":1056,"length":2,"data":""},{"type":"handle","offset":1058,"length":7,"data":"devstd"}],"date":"2020-06-18T11:27:13+00:00","link":"tg://resolve?domain=jvmjobs&post=1627","tags":[{"name":"java"},{"name":"jvm"},{"name":"spring"},{"name":"cloud"},{"name":"hibernate"},{"name":"postgresql"},{"name":"apache"},{"name":"tomcat"},{"name":"eclipse"},{"name":"jetty"},{"name":"rest"},{"name":"soap"},{"name":"spring-boot"}],"cities":[],"allowsRemote":true}},{"node":{"id":"2220883968-1001134745498","title":"Devops engineer","text":"#вакансия #devops #fulltime #НижнийНовгород\n\nВакансия: DevOps Engineer\nКомпания: Natera  ( www.natera.com)\nЛокация: Нижний Новгород\nФормат работы: офис и удаленный формат\nЗанятость: полная\nЗарплатная вилка: от 2500 до 3200 $ до вычета.  \nКонтакт:@zKITO\n\nВ продуктовую компанию ищем коллегу. \n\n\n      BENEFITS\nSalary $ 2500-3200 gross.  \nStocks\nPossibility of remote work with flexible working hours\nFree lunch, snacks etc in office\nMacbook Pro + monitors\nComfortable and cozy office with table tennis, playstation etc\nPossibility of business trips to the USA California\nFull compliance with labour laws.\n\n\nKNOWLEDGE, SKILLS, AND ABILITIES\n\n  Mandatory\nExperience in Linux Ubuntu administration.\nPractical experience managing applications deployed using AWS/GCP or Docker.\nAbility to read and understand Java code.\nStrong ability to troubleshoot complex issues ranging from system resources to application stack traces.\n\n  Nice to have experience with\nKubernetes, Rancher\nPython/Java\nTerraform\nAtlassian applications stack\ndatabases and SQL\n  \n \nPRIMARY RESPONSIBILITIES\n\nDevelop, configure and manage tools for fast and reliable deployments of our software.\nParticipate in operations efforts and be the point person for infrastructural activities.\nBuild tools for monitoring our infrastructure and resolve any issues with instances running in production. \nDevelop automation and CI/CD processes to enable teams to build, test, deploy, manage, configure, scale and monitor their applications using the latest technologies such as Docker, Kubernetes, Terraform and others.\nParticipate in architectural decisions to help improve reliability and scalability of our software.\nHelp configure and manage development tools such as Atlassian Bitbucket, Bamboo, Artifactory and others.\n\n—\n\n👉 Обсуждение вакансии в чате @devops_jobs","markup":[{"type":"hashtag","offset":0,"length":9,"data":"вакансия"},{"type":"hashtag","offset":10,"length":7,"data":"devops"},{"type":"hashtag","offset":18,"length":9,"data":"fulltime"},{"type":"hashtag","offset":28,"length":15,"data":"НижнийНовгород"},{"type":"link","offset":91,"length":14,"data":"http://www.natera.com"},{"type":"handle","offset":246,"length":6,"data":"zKITO"},{"type":"handle","offset":1810,"length":12,"data":"devops_jobs"}],"date":"2020-06-18T11:25:45+00:00","link":"tg://resolve?domain=devops_jobs_feed&post=2118","tags":[{"name":"linux"},{"name":"ubuntu"},{"name":"amazon-web-services"},{"name":"google-cloud-platform"},{"name":"docker"},{"name":"java"},{"name":"kubernetes"},{"name":"python"},{"name":"sql"}],"cities":[{"code":"nice"},{"code":"nizhny-novgorod"}],"allowsRemote":true}},{"node":{"id":"17040408576-1001110946746","title":"Js разработчик","text":"#вакансия  #backend #nodejs #javascript #удаленка #js #remote\n\nПозиция: Backend developer (Middle)\nКомпания: paradigmfund.io - инвестиционный фонд с офисами в Москве и Токио.\nФормат работы: Удаленка \nЗанятость: Полная с графиком работы (в выходные отдыхаем, в будни работаем по графику, гибкое начало рабочего дня)\nЗарплатная вилка: 110 000-150 000 руб. на руки\nЗадача: Участвовать в разработке новых и текущих it продуктов компании (криптовалютный кошелек, торговая биржа, обменник валют). \n\nТребования:\n- Опыт программирования на чистом JS не менее 3-х лет\n- Опыт программирования под Node.js не менее года\n- Опыт работы с серверами на Ubuntu\n- Знание SQL и особенностей PostgreSQL\n- Умение оптимизировать тяжелые запросы к базе\n- Хороший навык чтения чужого кода и модернизации его\n- Навык анализа новых структур данных и чужих API\n- Навык работы с Git\n- Гибкость, отзывчивость и хорошие soft skills, мы ценим дружелюбную и продуктивную среду, которую мы создали в команде, и надеемся, что вы гармонично в нее впишетесь.\n\nЖелательно:\n- Знание html, css, vue.js\n- Навык работы с docker'ами\n- Умение настраивать NGINX\n- Навык написание unit тестов\n- Навык поиска утечек памяти\n\nПомимо всего вышесказанного, у нас вы получите:\n- Работа в дружной команде, как разработчиков так и управленцев. \n- Профессиональное развитие и новые знания касаемо blockchain технологий.\n- Возможность релокации в офис в Москве.\n- Понятные процессы разработки (Agile, двухнедельные спринты, работаем в Jira и Confluence). \n\nКонтакты:\nМы стремимся постоянно автоматизировать и улучшать наши процессы, поэтому отклик на вакансию просим оставлять через форму: https://forms.gle/L9hWmD18Zs9kMo2E8\nС подходящими кандидатами свяжемся в течение недели, если возникли какие то вопросы, с радостью отвечу на них в лс @grshabl\n\n—\n\n👉 Обсуждение вакансии в чате @javascript_jobs","markup":[{"type":"hashtag","offset":0,"length":9,"data":"вакансия"},{"type":"hashtag","offset":11,"length":8,"data":"backend"},{"type":"hashtag","offset":20,"length":7,"data":"nodejs"},{"type":"hashtag","offset":28,"length":11,"data":"javascript"},{"type":"hashtag","offset":40,"length":9,"data":"удаленка"},{"type":"hashtag","offset":50,"length":3,"data":"js"},{"type":"hashtag","offset":54,"length":7,"data":"remote"},{"type":"link","offset":109,"length":15,"data":"http://paradigmfund.io"},{"type":"link","offset":1636,"length":35,"data":"https://forms.gle/L9hWmD18Zs9kMo2E8"},{"type":"handle","offset":1787,"length":8,"data":"grshabl"},{"type":"handle","offset":1830,"length":16,"data":"javascript_jobs"}],"date":"2020-06-18T11:24:11+00:00","link":"tg://resolve?domain=javascript_jobs_feed&post=0","tags":[{"name":"javascript"},{"name":"nodejs"},{"name":"ubuntu"},{"name":"sql"},{"name":"postgresql"},{"name":"git"},{"name":"html"},{"name":"css"},{"name":"vuejs"},{"name":"docker"},{"name":"nginx"}],"cities":[{"code":"tokyo"}],"allowsRemote":true}},{"node":{"id":"17039360000-1001110946746","title":"Js разработчик","text":"#вакансия #react #redux #москва #офис #javascript\n\nГород: Москва (ст.м. Аэропорт).\n\nФормат работы: офис,на текущий период частично существует удалёнка.\n\nЗанятость: полная\n\nВилка: 100-250 т.р. на руки\nВ связи с увеличением проектов, Коммерческий Банк ищет в свою команду Frontend-разработчика.\nФункционал:\n\n• Разработка WEB приложений;\n\n• Рефакторинг Legacy кода;\n\n• Написание и поддержка сложных модулей, реализованных на стеке технологий React;\n\n• Участие в оценке сроков, трудоёмкости и проектирование приложений.\n\nПрофессиональные знания: знание JavaScript и его особенностей; знание React / Redux, Node.js, пакетных менеджеров (Yarn / npm); умение работать с Git; понимание стратегий оптимизации web-приложения.\n\nНазвание компании: Локо-Банк\nhttps://www.lockobank.ru//\nhttps://hh.ru/vacancy/37365811\n\nКонтакты: @hrlocko\n\n—\n\n👉 Обсуждение вакансии в чате @javascript_jobs","markup":[{"type":"hashtag","offset":0,"length":9,"data":"вакансия"},{"type":"hashtag","offset":10,"length":6,"data":"react"},{"type":"hashtag","offset":17,"length":6,"data":"redux"},{"type":"hashtag","offset":24,"length":7,"data":"москва"},{"type":"hashtag","offset":32,"length":5,"data":"офис"},{"type":"hashtag","offset":38,"length":11,"data":"javascript"},{"type":"link","offset":746,"length":26,"data":"https://www.lockobank.ru//"},{"type":"link","offset":773,"length":30,"data":"https://hh.ru/vacancy/37365811"},{"type":"handle","offset":815,"length":8,"data":"hrlocko"},{"type":"handle","offset":858,"length":16,"data":"javascript_jobs"}],"date":"2020-06-18T11:23:19+00:00","link":"tg://resolve?domain=javascript_jobs_feed&post=0","tags":[{"name":"javascript"},{"name":"reactjs"},{"name":"redux"},{"name":"web"},{"name":"nodejs"},{"name":"npm"},{"name":"git"},{"name":"react-redux"}],"cities":[{"code":"moscow"}],"allowsRemote":true}},{"node":{"id":"71563214848-1001054966032","title":"Ios разработчик","text":"#вакансия #ios #офис #удаленка\n\nГород: Москва (Сокольники или Павелецкая), есть релокационный пакет\n\nФормат работы: офис, но также возможна удаленка из Москвы, Питера, Самары\n\nЗанятость: полная\n\nВилка: 180-250 т.р. на руки\n\nКоманда iOS разработчиков ищет коллегу для создания и развития функционала мобильного банка.\n\nСтек: Swift (99%), Objective-C (1%), VIPER/VIP, Alamofire, Gitlab CI\n\nЧто потребуется:\n\n• Отличные знания платформы iOS\n• Опыт применения VIPER/VIP\n• Опыт разработки клиент-серверных приложений\n\nБудет плюсом:\n\nЗнание ООП, алгоритмов и структур данных, Objective-C\n\nНазвание компании: ПСБ\nhttps://www.psbank.ru/\nhttps://hh.ru/vacancy/33110376\n\nКонтакты: @max_gusev\ngusevms@psbank.ru","markup":[{"type":"hashtag","offset":0,"length":9,"data":"вакансия"},{"type":"hashtag","offset":10,"length":4,"data":"ios"},{"type":"hashtag","offset":15,"length":5,"data":"офис"},{"type":"hashtag","offset":21,"length":9,"data":"удаленка"},{"type":"bold","offset":32,"length":6,"data":""},{"type":"bold","offset":101,"length":14,"data":""},{"type":"bold","offset":176,"length":10,"data":""},{"type":"bold","offset":195,"length":7,"data":""},{"type":"bold","offset":388,"length":16,"data":""},{"type":"bold","offset":513,"length":13,"data":""},{"type":"bold","offset":583,"length":18,"data":""},{"type":"link","offset":606,"length":21,"data":"https://www.psbank.ru/"},{"type":"link","offset":629,"length":30,"data":"https://hh.ru/vacancy/33110376"},{"type":"bold","offset":661,"length":9,"data":""},{"type":"handle","offset":671,"length":10,"data":"max_gusev"},{"type":"link","offset":682,"length":17,"data":"mailto:gusevms@psbank.ru"}],"date":"2020-06-18T11:08:38+00:00","link":"tg://resolve?domain=mobile_jobs&post=0","tags":[{"name":"mobile"},{"name":"ios"},{"name":"swift"},{"name":"objective-c"},{"name":"gitlab"}],"cities":[{"code":"moscow"}],"allowsRemote":true}},{"node":{"id":"71562166272-1001054966032","title":"Android разработчик","text":"‼️Вакансия Senior Android⁢ Developer‼️\n#android #developer #вакансия #удаленка\nВ команде Mycelium Wallet (mycelium.com) открыта #вакансия Senior Android⁢ Developer.\n💵З/П 3000-4000 USD по итогам собеседования.\nРабота удаленная 💻\n\nМы предлагаем:\n🔸Получить навыки и компетенции в одном из самых передовых и перспективных направлений финтех индустрии - blockchain;\n🔸Принять участие в разработке одного из самых популярных биткоин-кошельков в Google Play Store;\n🔸Работать в международной команде бок о бок с ведущими специалистами в индустрии;\n🔸Возможность профессионального карьерного роста и участия в разнообразных проектах компании.\n\nЧем предстоит заниматься:\n🔹Разрабатывать новые и развивать существующие мобильные сервисы компании на платформе Android;\n🔹Проектировать и разрабатывать большие функциональные части приложения с привлечением других программистов;\n🔹Использовать cutting edge технологии, а также проверенные временем решения.\n\nТребования:\n✔️Как минимум 3 года опыта разработки на Android;\n✔️Знание Java/Kotlin на уровне ведущего разработчика;\n✔️Знание шаблонов проектирования, опыт использования MVP и других архитектурных подходов;\n✔️Опыт параллельного и многопоточного программирования;\n✔️Понимание циклов работы Android-приложения и управления памятью;\n✔️Опыт разработки пользовательских интерфейсов на платформе Android. \n✔️Знание Android Design Principles;\n✔️Знание и умение использовать различные механизмы взаимодействий между приложениями, предоставляемые в рамках Android SDK;\n✔️Понимание принципов работы REST API, WS, RPC и клиент-серверных приложений;\n✔️Знание английского языка на уровне чтения документации и умения общаться в корпоративном чате.\n\nПлюсом будет:\n➕Умение и понимание необходимости написания Unit tests;\n➕Знание основ криптографии;\n➕Опыт работы с bitcoin/etherium blockchain stack;\n➕Наличие своих проектов на Github, в Google Play и т.д.\n\n📲Контакт: @valeritata","markup":[{"type":"hashtag","offset":39,"length":8,"data":"android"},{"type":"hashtag","offset":48,"length":10,"data":"developer"},{"type":"hashtag","offset":59,"length":9,"data":"вакансия"},{"type":"hashtag","offset":69,"length":9,"data":"удаленка"},{"type":"link","offset":106,"length":12,"data":"http://mycelium.com"},{"type":"hashtag","offset":128,"length":9,"data":"вакансия"},{"type":"handle","offset":1900,"length":11,"data":"valeritata"}],"date":"2020-06-18T10:56:47+00:00","link":"tg://resolve?domain=mobile_jobs&post=0","tags":[{"name":"mobile"},{"name":"android"},{"name":"playframework"},{"name":"java"},{"name":"kotlin"},{"name":"rest"},{"name":"github"}],"cities":[],"allowsRemote":true}},{"node":{"id":"3579838464-1001121589364","title":".net разработчик","text":"#Mobile #Xamarin #Android #iOS #crossplatform #Middle #Senior #удаленно\n\n#вакансия \"Разработчик мобильных приложений Xamarin\" \nУдаленная работа\n\nПредлагаемая заработная плата 3000 USD (200 000 + рублей.)\n\nО нас:\nМы - стартап в индустрии Outdoors с офисами в США и Европе. Наша команда является по-настоящему распределенной: на сегодняшний день члены команды находятся в США, Австрии, Австралии, России и Южной Африке.\n\nУ нас начинается интересный этап, так как мы запускаем новый продукт с фокусом на американском рынке.\n\nКого мы ищем? Хорошего человека и по совместительству топового мобильного разработчика :) \n\nЧто будешь делать:\nЖдем, что ты включишься в работу по созданию нового мобильного приложения, которое является частью запускаемого нами продукта.\n\nОсновные требования: \n-Опыт работы в качестве мобильного разработчика не менее 3-х лет.\n-Высокий уровень самоорганизации.\n-Экспертные знания фреймворков Xamarin Native и .NET.\n-Готовность отвечать за delivery мобильного приложения.\n-Умение работать в команде.\n-Тестирование разрабатываемых решений.\n\nУсловия: \n- ЗП 3000 USD - 200 000 + руб.\n- Огненный коллектив \n- Выслушаем и применим пожелания и идеи\n- Все плюшки удаленки\n____________________________________\n📞Telegram @tankograin +79818148442","markup":[{"type":"hashtag","offset":0,"length":7,"data":"Mobile"},{"type":"hashtag","offset":8,"length":8,"data":"Xamarin"},{"type":"hashtag","offset":17,"length":8,"data":"Android"},{"type":"hashtag","offset":26,"length":4,"data":"iOS"},{"type":"hashtag","offset":31,"length":14,"data":"crossplatform"},{"type":"hashtag","offset":46,"length":7,"data":"Middle"},{"type":"hashtag","offset":54,"length":7,"data":"Senior"},{"type":"hashtag","offset":62,"length":9,"data":"удаленно"},{"type":"hashtag","offset":73,"length":9,"data":"вакансия"},{"type":"bold","offset":205,"length":7,"data":""},{"type":"bold","offset":614,"length":19,"data":""},{"type":"bold","offset":761,"length":20,"data":""},{"type":"bold","offset":1061,"length":10,"data":""},{"type":"handle","offset":1234,"length":11,"data":"tankograin"},{"type":"link","offset":1246,"length":12,"data":"tel:+79818148442"}],"date":"2020-06-18T10:50:53+00:00","link":"tg://resolve?domain=xamarin_jobs&post=3414","tags":[{"name":"dotnet"},{"name":"csharp"},{"name":"mobile"},{"name":"xamarin"},{"name":"android"},{"name":"ios"}],"cities":[],"allowsRemote":true}},{"node":{"id":"91275395072-1001067529236","title":"Python разработчик","text":"#вакансия #python #fulltime #office #remote #спб #Senior #Middle #backend #офис #удаленка #работа\nЗп 120 000-160 000 net \n\nПривет! Компания e-Legion в поисках Python-разработчика в офис в Санкт-Петербург или удаленно.\n\nНеобходимые навыки:\n🔹 Python 3,6+, \n🔹 Django Framework и сопутствующие ему библиотеки и утилиты,\n🔹 asyncio, aiohttp и другие асинхронные библиотеки,\n🔹 PostgreSQL или другие реляционные БД,\nхорошее знание принципов работы HTTP и смежных сетевых протоколов,\n🔹 английский язык на уровне чтения и написания технической документации,\n🔹 Git.\n\nПреимуществом будет:\n🔹 знание SQL и реляционной алгебры,\n🔹 знакомство с Redis, RabbitMQ,\n🔹 опыт работы с Ansible,\n🔹 основы администрирования Linux,\n🔹 знание других языков программирования, фреймворков и технологий.\n🔹 понимание микросервисной архитектуры, опыт разработки высоконагруженных систем\n\nОт нас:\n🔹 гибкий график работы,\n🔹 компенсацию спорта, обучения и медицины,\n🔹 обучение и систему наставничества,\nвозможность писать статьи для отраслевых медиа и выступать на конференциях и митапах.\n\nОписание вакансии: https://www.e-legion.ru/vacancies/spb/python/\nКонтакты: @alexandrashirokina или на почту: hr@e-legion.com","markup":[{"type":"hashtag","offset":0,"length":9,"data":"вакансия"},{"type":"hashtag","offset":10,"length":7,"data":"python"},{"type":"hashtag","offset":18,"length":9,"data":"fulltime"},{"type":"hashtag","offset":28,"length":7,"data":"office"},{"type":"hashtag","offset":36,"length":7,"data":"remote"},{"type":"hashtag","offset":44,"length":4,"data":"спб"},{"type":"hashtag","offset":49,"length":7,"data":"Senior"},{"type":"hashtag","offset":57,"length":7,"data":"Middle"},{"type":"hashtag","offset":65,"length":8,"data":"backend"},{"type":"hashtag","offset":74,"length":5,"data":"офис"},{"type":"hashtag","offset":80,"length":9,"data":"удаленка"},{"type":"hashtag","offset":90,"length":7,"data":"работа"},{"type":"link","offset":1086,"length":45,"data":"https://www.e-legion.ru/vacancies/spb/python/"},{"type":"handle","offset":1142,"length":19,"data":"alexandrashirokina"},{"type":"link","offset":1176,"length":15,"data":"mailto:hr@e-legion.com"}],"date":"2020-06-18T10:31:37+00:00","link":"tg://resolve?domain=python_jobs&post=0","tags":[{"name":"python"},{"name":"dotnet"},{"name":"django"},{"name":"postgresql"},{"name":"git"},{"name":"sql"},{"name":"redis"},{"name":"rabbitmq"},{"name":"ansible"},{"name":"linux"}],"cities":[],"allowsRemote":true}},{"node":{"id":"26422018048-1001075660570","title":"Php разработчик","text":"#job #remote #senior #symfony #highload\n\n\n✅Вакансия: Senior PHP\n✅Занятость: полный день, удаленно\n✅Компания: Холдинг «Монастырёв» \n\n✅Задачи:\n\n- разработка микросервисной архитектуры\n- доработка системы поиска на сайте\n- разработка системы скоринга\n- разработка блока рекламы и рекомендаций на сайте\n\n✅помимо этого:\n\nВыбор стэка технологий и разработка архитектуры проекта.\nПроведение код-ревью и ревью дизайна проектов на соответствие архитектурным стандартам.\n\n✅Требования:\nОпыт в разработке архитектуры, выборе стэка технологий и проектировании сайтов и веб-сервисов.\nОпыт работы с PostgreSQL/MySQL/NoSQL\nОпыт работы Redis.\nОпыт работы с одним из PHP фреймворков Symfony/Yii/Laravel.\n\n✅Текущий стек:\nPHP, Symphony, React.js, Vue.js\nPostreSQL/MariaDb/Redis/ActiveMQ/ElasticSaerch\n\n ✅Преимущества работы в нашей команде:\n\nработаем в белую: 28 дней отпуска, полностью официальная зарплата;\nудобный рабочий график + в пятницу уходим с работы на час раньше;\nкомпенсация 100% внешнего обучения и бесплатное участие во внутренних корпоративных тренингах;\nактивная корпоративная жизнь: спортивные мероприятия, тимбилдинги, праздники и участие в благотворительных акциях;\nинтересные и амбициозные задач\n\nПишите в личку: @sundeevaa","markup":[{"type":"hashtag","offset":0,"length":4,"data":"job"},{"type":"hashtag","offset":5,"length":7,"data":"remote"},{"type":"hashtag","offset":13,"length":7,"data":"senior"},{"type":"hashtag","offset":21,"length":8,"data":"symfony"},{"type":"hashtag","offset":30,"length":9,"data":"highload"},{"type":"handle","offset":1213,"length":10,"data":"sundeevaa"}],"date":"2020-06-18T10:09:17+00:00","link":"tg://resolve?domain=php_jobs&post=25198","tags":[{"name":"php"},{"name":"symfony"},{"name":"postgresql"},{"name":"mysql"},{"name":"nosql"},{"name":"redis"},{"name":"yii"},{"name":"laravel"},{"name":"reactjs"},{"name":"vuejs"},{"name":"mariadb"}],"cities":[],"allowsRemote":true}}]}},"context":{}}