{"hash":"f5f6bf98bd95e769321482904cbbd488f77922fd","data":{"records":{"id":"russia/kazan","country":{"code":"russia","ruName":"Россия","enName":"Russia"},"city":{"code":"kazan","ruName":"Казань","enName":"Kazan"},"belongsTo":{"totalCount":42,"pageInfo":{"totalPages":5,"currentPage":3},"edges":[{"node":{"__typename":"Job","id":"103495499776-1001089317451","title":"Qa engineer","text":"#вакансия #Казань #Нижний_Новгород #Краснодар #офис #удаленно \n\n💻Компания «БАРС Груп» - ведущий российский разработчик решений для государственного и корпоративного секторов с 1992 года, входит в ТОП-15 крупнейших разработчиков России.\n\n👀Мы в поисках QA Auto Engineer на крупные государственные проекты.\n\nОт новых сотрудников мы ожидаем:\n•Знание базовых понятий и определений в тестировании;\n•Знание и уверенное владение методиками тестирования;\n•  Экспертное владение навыками составления тест-кейсов, чек-листов, баг-репортов;\n•Владение языком программирования С# / Python.\nБудет плюсом:\n•Владение инструментами тестирования Fiddler/Postman, Visual Studio, фрэймворками Nunit, restsharp, Selenium.webdriver;\n•Опыт работы с системами JIRA, git/stash.\n\n💰Уровень заработной платы: от 50000р до 150000р. \n\n⏰Рабочий день в офисе или полностью удаленно\n\n🔺Вместе мы будем работать над масштабными проектами, которые меняют к лучшему жизни людей!","markup":[{"type":"hashtag","offset":0,"length":9,"data":"вакансия"},{"type":"hashtag","offset":10,"length":7,"data":"Казань"},{"type":"hashtag","offset":18,"length":16,"data":"Нижний_Новгород"},{"type":"hashtag","offset":35,"length":10,"data":"Краснодар"},{"type":"hashtag","offset":46,"length":5,"data":"офис"},{"type":"hashtag","offset":52,"length":9,"data":"удаленно"}],"date":"2020-06-23T07:13:13+00:00","link":"tg://resolve?domain=qa_jobs&post=98701","tags":[{"name":"qa"},{"name":"python"},{"name":"selenium"},{"name":"git"},{"name":"visual-studio"}],"cities":[{"code":"kazan"},{"code":"krasnodar"},{"code":"nizhny-novgorod"}],"allowsRemote":true}},{"node":{"__typename":"Job","id":"2240806912-1001134745498","title":"Devops инженер","text":"#вакансия #fulltime #devops #middleDevops #seniorDevOps #офис #казань #нижнийновгород \n \nDevOps инженеру предлагаем full time позицию в компании MERA. Мы работаем с крупнейшими мировыми заказчиками, лидерами в своих отраслях. В одном из наших проектов открыта вакансия devops инженера.\n\nВладеть английским достаточно для чтения и переписки. \n \nРассмотрим уровень от Middle до Senior. Зарплату предлагаем, соответственно, в зависимости от уровня. Смотрите вилку, описание офисов и контакты в конце поста. \n \nС какими технологиями мы работаем? \n! CMake\nJenkins \nGitLab CI \nPython\nGrafana \nGradle \nTerraform \nAnsible \nKubernetes \nDocker \nZabbix \nLinux \n \nМы создаём высоконагруженные системы, которыми пользуются сотни тысяч людей. \n\nОблачная телефония. Данный продукт объединяет в себе возможности телефонии, видеосвязи, организации встреч и обмен сообщениями в одном надежном, простом в использовании решении, что позволяет клиентам снижать стоимость корпоративной связи. \nЕсть архитектурные команды, есть команды разработки, swat-команда которая занимается эмерженси вещами в частности билд-системами, команды автоматизаторов. На текущий момент необходим человек, который будет заниматься билд инфраструктурой, настройкой и улучшением CI/CD. \n \nПодробнее о вакансии по теме DevOps на career.mera.ru. \n \nФормат работы: офис. \n \nГде находятся офисы: Нижний Новгород, Дзержинск и Казань. \nХороший бонус при релокации. \n \nЗанятость: полная. \n \nЗарплата: 100 на руки фикс (это средняя зарплата, предложение зависит от уровня экспертизы). \n \nНазвание компании: \nMERA, career.mera.ru \n \nКонтакты: \n@sonyadremucheva \nsonya.dremucheva@mera.com\n\n—\n\n👉 Обсуждение вакансии в чате @devops_jobs","markup":[{"type":"hashtag","offset":0,"length":9,"data":"вакансия"},{"type":"hashtag","offset":10,"length":9,"data":"fulltime"},{"type":"hashtag","offset":20,"length":7,"data":"devops"},{"type":"hashtag","offset":28,"length":13,"data":"middleDevops"},{"type":"hashtag","offset":42,"length":13,"data":"seniorDevOps"},{"type":"hashtag","offset":56,"length":5,"data":"офис"},{"type":"hashtag","offset":62,"length":7,"data":"казань"},{"type":"hashtag","offset":70,"length":15,"data":"нижнийновгород"},{"type":"link","offset":1284,"length":14,"data":"http://career.mera.ru"},{"type":"link","offset":1562,"length":14,"data":"http://career.mera.ru"},{"type":"handle","offset":1591,"length":16,"data":"sonyadremucheva"},{"type":"link","offset":1609,"length":25,"data":"mailto:sonya.dremucheva@mera.com"},{"type":"handle","offset":1669,"length":12,"data":"devops_jobs"}],"date":"2020-06-22T18:03:00+00:00","link":"tg://resolve?domain=devops_jobs_feed&post=2137","tags":[{"name":"cmake"},{"name":"jenkins"},{"name":"gitlab"},{"name":"python"},{"name":"gradle"},{"name":"ansible"},{"name":"kubernetes"},{"name":"docker"},{"name":"linux"}],"cities":[{"code":"kazan"},{"code":"dzerzhinsk"},{"code":"nizhny-novgorod"}],"allowsRemote":false}},{"node":{"__typename":"Job","id":"2238709760-1001134745498","title":"Devops engineer","text":"#вакансия #devops #удаленка #fulltime #remote \n\nВакансия: DevOps Engineer\nЛокация: Казань\nФормат работы: офис или удаленка\nЗП: от 100к до 170к\n\n🔸Современная IT-компания, работающая на стыке банковской, страховой, инвестиционной и страховой сфер, сейчас находится в поиске DevOps Engineer.\n\nОфисы компании расположены в Казани и Иннополисе, также есть возможность работать удаленно.\n\nКомпания занимается изучением перспективных направлений в области финансовых продуктов и сервисов, и проверяет их на практике.\n\n🔸На текущий момент компания запускает очень крупный проект, задачей которого является трансформация архитектуры бизнеса и переезд всех процессов на новую технологическую платформу.\n\nКомпания может рассматривать лишь граждан РФ.\n\n🔹Требования\n— Опыт работы с ОС Linux;\n— Опыт работы в роли DevOps Engineer не менее 2 лет;\n— Знание скриптовых языков (Bash);\n— CI (Teamcity), CD (Octopus);\n— Опыт работы с системами мониторинга (SCOM \\ Zabbix).\n— Опыт работы с NoSQL СУБД;\n— Веб-серверы и балансировщики нагрузки (Apache/nginx haproxy).\n\n🔹**Контакты:**  \nКА: Lucky hunter\ne-mail: maria@luckyhunter.io\ntelegram: @Maria_Rey\n\n—\n\n👉 Обсуждение вакансии в чате @devops_jobs","markup":[{"type":"hashtag","offset":0,"length":9,"data":"вакансия"},{"type":"hashtag","offset":10,"length":7,"data":"devops"},{"type":"hashtag","offset":18,"length":9,"data":"удаленка"},{"type":"hashtag","offset":28,"length":9,"data":"fulltime"},{"type":"hashtag","offset":38,"length":7,"data":"remote"},{"type":"link","offset":1091,"length":20,"data":"mailto:maria@luckyhunter.io"},{"type":"handle","offset":1122,"length":10,"data":"Maria_Rey"},{"type":"handle","offset":1167,"length":12,"data":"devops_jobs"}],"date":"2020-06-22T11:45:33+00:00","link":"tg://resolve?domain=devops_jobs_feed&post=2135","tags":[{"name":"linux"},{"name":"bash"},{"name":"nosql"},{"name":"apache"},{"name":"nginx"}],"cities":[{"code":"kazan"}],"allowsRemote":true}},{"node":{"__typename":"Job","id":"103396933632-1001089317451","title":"Qa инженер","text":"🐞🐞🐞#вакансия #QA #Ульяновск #Саранск #Казань #Самара #Уфа #Краснодар #офис #удаленная_работа\n\n🔍Middle QA-специалист🔎\n\n⚡️Компания: Simbirsoft (более 19 лет на рынке, более 700 сотрудников в штате)\n\nОчень ждем тебя, наш будущий коллега и борец за качественное ПО! :)\n\n📌Твои будущие задачи:\n• тестирование ПО (frontend, backend, API);\n• локализация и документирование найденных дефектов;\n• ведение и оптимизация тестовой документации;\n• контроль качества на всех этапах разработки ПО;\n• выстраивание и оптимизация процессов тестирования ПО.\n\n📌Что мы ждем от тебя:\n• наличие опыта от 2 лет в направлениях QA или тестирования ПО;\n• понимание разницы между QA и тестированием ПО;\n• понимание особенностей гибких методологий;\n• уверенное владение техниками тест-дизайна;\n• знание клиент-серверной архитектуры;\n• понимание особенностей тестирования web, mobile и desktop приложений;\n• навык тестирования API;\n• написание запросов SQL;\n• опыт работы с системами контроля версий (git);\n• знание основных команд работы с консолью (Windows/Linux).\n\n📌Что мы предлагаем:\n• Полностью белая ЗП два раза в месяц;\n• Оформление по ТК РФ;\n• Высокий уровень экспертности внутри компании, которым мы делимся друг с другом;\n• Перспективы вертикального и горизонтального роста;\n• Работа на российских и международных проектах;\n• Оборудованное рабочее место и парк тестовых устройств;\n• Возможность сертификации за счет компании;\n• Внутренние и внешние курсы, доклады, конференции;\n• Бесплатные чай, кофе, печеньки в офисе;\n• Корпоративная спортивная программа (оплата тематических секций, частичная компенсация абонемента);\n• Проведение летних и зимних корпоративов, дня именинника, совместные походы и т.д.\n\n📌Зарплата:\n• от 50 000 (Договорная, по итогу собеседования)\n\n☎️Контакты:\n@julia_kli","markup":[{"type":"hashtag","offset":6,"length":9,"data":"вакансия"},{"type":"hashtag","offset":16,"length":3,"data":"QA"},{"type":"hashtag","offset":20,"length":10,"data":"Ульяновск"},{"type":"hashtag","offset":31,"length":8,"data":"Саранск"},{"type":"hashtag","offset":40,"length":7,"data":"Казань"},{"type":"hashtag","offset":48,"length":7,"data":"Самара"},{"type":"hashtag","offset":56,"length":4,"data":"Уфа"},{"type":"hashtag","offset":61,"length":10,"data":"Краснодар"},{"type":"hashtag","offset":72,"length":5,"data":"офис"},{"type":"hashtag","offset":78,"length":17,"data":"удаленная_работа"},{"type":"handle","offset":1767,"length":10,"data":"julia_kli"}],"date":"2020-06-22T07:56:46+00:00","link":"tg://resolve?domain=qa_jobs&post=98607","tags":[{"name":"qa"},{"name":"web"},{"name":"mobile"},{"name":"sql"},{"name":"git"},{"name":"windows"},{"name":"linux"}],"cities":[{"code":"ulyanovsk"},{"code":"saransk"},{"code":"kazan"},{"code":"samara"},{"code":"ufa"},{"code":"krasnodar"}],"allowsRemote":true}},{"node":{"__typename":"Job","id":"103394836480-1001089317451","title":"Qa engineer","text":"#вакансия #TestAutomation #Java #JS #НижнийНовгород #Казань #MERA\n💼  Java and JS Test Automation Engineers\n🔹 Формат работы: office (до конца лета 2020 remote)\n🔹 Локация офисов: НН, Казань (бонус при релокации)\n🔹 Занятость: full-time\n🔹 Опыт: от 2х лет (Test Automation)\n🔹 Английский язык:  Чтение и написание документации не ниже pre-intermediate\n🏢 О компании: MERA (крупная международная компания) сейчас быстро растет. В связи со стартом масштабного проекта наш крупный Заказчик, ведущий поставщик глобальных корпоративных облачных коммуникаций и решений для бизнеса, расширяет команду Test Automation Engineers. Открыто более 10 вакансий на Java and JS Test Automation.\n📁 О проекте:\nПроект по разработке высоконагруженных сервисов облачной телефонии для физических лиц и глобальных корпораций. Продукт объединяет в себе возможности телефонии, видеосвязи, организации встреч и обмен сообщениями в одном надежном, простом в использовании решении.\n👉🏻Подробнее о компании и проекте: https://www.youtube.com/watch?v=V9l0TkZWHfI\n✔ Обязанности: \n- Разработка и поддержка тест-планов и сценариев.\n- Автоматизация тестовых сценариев, сопровождение библиотеки автотестов.\n- Участие в разработке тестового фреймворка.\n- Запуск тестовых скриптов, анализ результатов прогона на разных окружениях, поддержка CI.\n🔹 Гибкая метология: Scrum/Agile\n👋  Команда: Работаем в рамках распределённой (Вильнюс, НН, Казань, Дзержинск), совмещённой с заказчиком команды.  80% - Test Automation Engineers, 20% - Software Developers.\n🙌 Мы предлагаем:\n• Официальное трудоустройство, полностью белая зарплата + премиальная система\n• Участие в перспективных масштабных международных проектах. Заказчики: Северная Америка, Западная Европа.\n• ДМС после прохождения испытательного срока (3 месяца).\n• Широкие возможности профессионального развития (участие в митапах, конференциях, корпоративные программы обучения) и карьерного роста.\n\n💵Бонус за рекомендацию: 60 000 рублей за Middle и 80 000 рублей за Senior.\nЗП стартуем от 70000\nКонтакты:  telegram: @nazahvat, natalya.zakhvatova@orioninc.com","markup":[{"type":"hashtag","offset":0,"length":9,"data":"вакансия"},{"type":"hashtag","offset":10,"length":15,"data":"TestAutomation"},{"type":"hashtag","offset":26,"length":5,"data":"Java"},{"type":"hashtag","offset":32,"length":3,"data":"JS"},{"type":"hashtag","offset":36,"length":15,"data":"НижнийНовгород"},{"type":"hashtag","offset":52,"length":7,"data":"Казань"},{"type":"hashtag","offset":60,"length":5,"data":"MERA"},{"type":"link","offset":991,"length":43,"data":"https://www.youtube.com/watch?v=V9l0TkZWHfI"},{"type":"handle","offset":2034,"length":9,"data":"nazahvat"},{"type":"link","offset":2045,"length":31,"data":"mailto:natalya.zakhvatova@orioninc.com"}],"date":"2020-06-22T07:23:05+00:00","link":"tg://resolve?domain=qa_jobs&post=98605","tags":[{"name":"qa"},{"name":"java"}],"cities":[{"code":"kazan"},{"code":"vilnius"},{"code":"dzerzhinsk"}],"allowsRemote":true}},{"node":{"__typename":"Job","id":"71658635264-1001054966032","title":"Ios разработчик","text":"#вакансия #Иннополис #Казань #IOS #swift #fulltime #remote\n\nВакансия: IOS разработчик\nКомпания: UFS.travel (https://www.ufs-online.ru/)\nЛокация: Иннополис\nФормат работы: удаленно или совмещение офиса и дистанционной работы\nЗ/п: от 100 000 до 150 000 руб (финальную цифру обсуждаем с успешным кандидатом) \n\n📌Что нужно будет делать?\nРазработка мобильных приложений по продаже ЖД билетов на платформе iOS.\n\n💪🏻Какие нужны компетенции?\n•Знание платформы iOS и стандартных библиотек;\n•Опыт работы: от 1 года разработки мобильных приложений ios;\n•Понимание принципов ООП, особенностей построения и разработки клиент-серверных приложений;\n•Уверенные знания Swift, понимание Objective-C.\n\n🏆Бонусы?\n•У нас полностью заполненный беклог на ближайший год: много внедрения нового функционала, в том числе оплата по карте, авторизация через AppleId и соцсети и многое другое. Все требования прорабатываются аналитиком;\n•Оформление по ТК РФ, официальная заработная плата, соц. пакет;\n•Возможность совмещения офиса и дистанционной работы или полностью удаленная работа;\n•Дружная и профессиональная команда, в которую входят аналитик, тестировщик мобильных сервисов, менеджер продукта;\n•ДМС со стоматологией после испытательного срока;\n•Возможность посещения конференций, семинаров, курсов за счет компании;\n•Комфортабельный современный офис в IT-городе Иннополис.\n\nКонтакты:\n✉️ euhabina@ufs.travel\n✍🏻 ЛС","markup":[{"type":"hashtag","offset":0,"length":9,"data":"вакансия"},{"type":"hashtag","offset":10,"length":10,"data":"Иннополис"},{"type":"hashtag","offset":21,"length":7,"data":"Казань"},{"type":"hashtag","offset":29,"length":4,"data":"IOS"},{"type":"hashtag","offset":34,"length":6,"data":"swift"},{"type":"hashtag","offset":41,"length":9,"data":"fulltime"},{"type":"hashtag","offset":51,"length":7,"data":"remote"},{"type":"link","offset":96,"length":10,"data":"http://UFS.travel"},{"type":"link","offset":108,"length":26,"data":"https://www.ufs-online.ru/"},{"type":"link","offset":1365,"length":19,"data":"mailto:euhabina@ufs.travel"}],"date":"2020-06-19T13:53:15+00:00","link":"tg://resolve?domain=mobile_jobs&post=0","tags":[{"name":"mobile"},{"name":"ios"},{"name":"swift"},{"name":"objective-c"}],"cities":[{"code":"kazan"}],"allowsRemote":true}},{"node":{"__typename":"Job","id":"103279493120-1001089317451","title":"Qa инженер","text":"🐞🐞🐞#вакансия #QA #Ульяновск #Саранск #Казань #Самара #Уфа #Краснодар #офис #удаленная_работа\n\n🔍Middle QA-специалист🔎\n\n⚡️Компания: Simbirsoft (более 19 лет на рынке, более 700 сотрудников в штате)\n\nОчень ждем тебя, наш будущий коллега и борец за качественное ПО! 🙂\n\n📌Твои будущие задачи:\n• тестирование ПО (frontend, backend, API);\n• локализация и документирование найденных дефектов;\n• ведение и оптимизация тестовой документации;\n• контроль качества на всех этапах разработки ПО;\n• выстраивание и оптимизация процессов тестирования ПО.\n\n📌Что мы ждем от тебя:\n• наличие опыта от 2 лет в направлениях QA или тестирования ПО;\n• понимание разницы между QA и тестированием ПО;\n• понимание особенностей гибких методологий;\n• уверенное владение техниками тест-дизайна;\n• знание клиент-серверной архитектуры;\n• понимание особенностей тестирования web, mobile и desktop приложений;\n• навык тестирования API;\n• написание запросов SQL;\n• опыт работы с системами контроля версий (git);\n• знание основных команд работы с консолью (Windows/Linux).\n\n\n📌Что мы предлагаем:\n• Полностью белая ЗП два раза в месяц;\n• Оформление по ТК РФ;\n• Высокий уровень экспертности внутри компании, которым мы делимся друг с другом;\n• Перспективы вертикального и горизонтального роста;\n• Работа на российских и международных проектах;\n• Оборудованное рабочее место и парк тестовых устройств;\n• Подготовка и прохождение сертификации ISTQB бесплатно;\n• Внутренние и внешние курсы, доклады, конференции;\n• Бесплатные чай, кофе, печеньки в офисе;\n• Корпоративная спортивная программа (оплата тематических секций, частичная компенсация абонемента);\n• Проведение летних и зимних корпоративов, дня именинника, совместные походы и т.д.\n\n📌Зарплата:\n• от 50 000 (Договорная, по итогу собеседования)\n\n\n☎️Контакты:\n@abrmova","markup":[{"type":"hashtag","offset":6,"length":9,"data":"вакансия"},{"type":"hashtag","offset":16,"length":3,"data":"QA"},{"type":"hashtag","offset":20,"length":10,"data":"Ульяновск"},{"type":"hashtag","offset":31,"length":8,"data":"Саранск"},{"type":"hashtag","offset":40,"length":7,"data":"Казань"},{"type":"hashtag","offset":48,"length":7,"data":"Самара"},{"type":"hashtag","offset":56,"length":4,"data":"Уфа"},{"type":"hashtag","offset":61,"length":10,"data":"Краснодар"},{"type":"hashtag","offset":72,"length":5,"data":"офис"},{"type":"hashtag","offset":78,"length":17,"data":"удаленная_работа"},{"type":"handle","offset":1781,"length":8,"data":"abrmova"}],"date":"2020-06-19T11:12:51+00:00","link":"tg://resolve?domain=qa_jobs&post=0","tags":[{"name":"qa"},{"name":"web"},{"name":"mobile"},{"name":"sql"},{"name":"git"},{"name":"windows"},{"name":"linux"}],"cities":[{"code":"ulyanovsk"},{"code":"saransk"},{"code":"kazan"},{"code":"samara"},{"code":"ufa"},{"code":"krasnodar"}],"allowsRemote":true}},{"node":{"__typename":"Job","id":"2225078272-1001134745498","title":"Devops engineer","text":"#вакансия #devops #удаленка #fulltime #remote \n\nВакансия: DevOps Engineer\nЛокация: Казань\nФормат работы: офис или удаленка\nЗП: от 100к до 170к\n\n🔸Современная IT-компания, работающая на стыке банковской, страховой, инвестиционной и страховой сфер, сейчас находится в поиске DevOps Engineer.\n\nОфисы компании расположены в Казани и Иннополисе, также есть возможность работать удаленно.\n\nКомпания занимается изучением перспективных направлений в области финансовых продуктов и сервисов, и проверяет их на практике.\n\n🔸На текущий момент компания запускает очень крупный проект, задачей которого является трансформация архитектуры бизнеса и переезд всех процессов на новую технологическую платформу.\n\n🔹Требования\n— Опыт работы с ОС Linux;\n— Опыт работы в роли DevOps Engineer не менее 2 лет;\n— Знание скриптовых языков (Bash);\n— CI (Teamcity), CD (Octopus);\n— Опыт работы с системами мониторинга (SCOM \\ Zabbix).\n— Опыт работы с NoSQL СУБД;\n— Веб-серверы и балансировщики нагрузки (Apache/nginx haproxy).\n\n🔹**Контакты:**  \nКА: Lucky hunter\ne-mail: maria@luckyhunter.io\ntelegram: @Maria_Rey\n\n—\n\n👉 Обсуждение вакансии в чате @devops_jobs","markup":[{"type":"hashtag","offset":0,"length":9,"data":"вакансия"},{"type":"hashtag","offset":10,"length":7,"data":"devops"},{"type":"hashtag","offset":18,"length":9,"data":"удаленка"},{"type":"hashtag","offset":28,"length":9,"data":"fulltime"},{"type":"hashtag","offset":38,"length":7,"data":"remote"},{"type":"link","offset":1044,"length":20,"data":"mailto:maria@luckyhunter.io"},{"type":"handle","offset":1075,"length":10,"data":"Maria_Rey"},{"type":"handle","offset":1120,"length":12,"data":"devops_jobs"}],"date":"2020-06-18T14:39:09+00:00","link":"tg://resolve?domain=devops_jobs_feed&post=2122","tags":[{"name":"linux"},{"name":"bash"},{"name":"nosql"},{"name":"apache"},{"name":"nginx"}],"cities":[{"code":"kazan"}],"allowsRemote":true}},{"node":{"__typename":"Job","id":"17019437056-1001110946746","title":"Javascript разработчик","text":"#вакансия #Иннополис #Казань #React #Javascript #офис #remote \nЛокация: Казань/ Иннополис\n(Есть хороший релокационный пакет)\nФормат работы: офис / удаленная работа\nЗанятость: полная, гибкое начало дня\nЗП: от 80 000 до 130 000 NET \n\n*к сожалению, у компании нет формальной возможности трудоустраивать иностранных граждан \n\n🔹 Ак Барс Цифровые Технологии — это лаборатория «АК БАРС» Банка, которая создает digital-продукты и инновационные решения в сфере fintech, чтобы сделать мир финансов простым и доступным каждому.\nРебята и правда инноваторы в своей сфере, которые горят своими делом и стремятся сделать жизнь людей проще и комфортнее. Команда нуждается в специалисте, который бы присоединился к работе над созданием ряда сложных интересных цифровых продуктов, которыми будут пользоваться.\nВакансия открыта в связи с глобальным расширением.\n\n🔹 Требуемый опыт:\n-Javascript (ES5, ES6+) - коммерческий опыт разработки от 2-ух лет;\n-React/Redux - коммерческий опыт разработки от 1-ого года;\n\n🔹Что интересного:\n- Рабочее пространство - один из самых привлекательных и “гибких” офисов в Казани;\n- Полное соблюдение норм ТК РФ;\n- Льготные условия кредитования;\n- Программа релокации для иногородних;\n- Конкурентоспособная белая заработная плата;\n-Профессиональное развитие и обучение (внутренние и внешние конференции, семинары);\n- Футбол, настольный теннис, скидки на занятия в фитнес-центре.\n\n🔹 Контакты:\ne-mail: daria@luckyhunter.io\ntelegram: @prudentdaria\nКА: luckyhunter\nПишите, буду рада ответить на все возможные вопросы здесь или по почте 😊\n\n—\n\n👉 Обсуждение вакансии в чате @javascript_jobs","markup":[{"type":"hashtag","offset":0,"length":9,"data":"вакансия"},{"type":"hashtag","offset":10,"length":10,"data":"Иннополис"},{"type":"hashtag","offset":21,"length":7,"data":"Казань"},{"type":"hashtag","offset":29,"length":6,"data":"React"},{"type":"hashtag","offset":36,"length":11,"data":"Javascript"},{"type":"hashtag","offset":48,"length":5,"data":"офис"},{"type":"hashtag","offset":54,"length":7,"data":"remote"},{"type":"link","offset":1414,"length":20,"data":"mailto:daria@luckyhunter.io"},{"type":"handle","offset":1445,"length":13,"data":"prudentdaria"},{"type":"handle","offset":1583,"length":16,"data":"javascript_jobs"}],"date":"2020-06-17T15:28:29+00:00","link":"tg://resolve?domain=javascript_jobs_feed&post=0","tags":[{"name":"javascript"},{"name":"reactjs"},{"name":"dotnet"},{"name":"redux"},{"name":"react-redux"}],"cities":[{"code":"kazan"}],"allowsRemote":true}},{"node":{"__typename":"Job","id":"71456260096-1001054966032","title":"Android разработчик","text":"#вакансия #работа #Санкт_Петербург #Пермь #Казань  #middle #Android #Kotlin #RxJava\nГород: Санкт-Петербург, Казань, Пермь\nФормат работы: Офис (пока удаленка)\nЗанятость: Полная\nЗарплатная вилка от 120 net до 200 net  (зависит от уровня)\nКомпания: Стрим\nКонтакты: @Ntsama_IT \n\nМы Stream - делаем классные и реально удобные продукты для людей. 📣Сейчас находимся в поиске Android разработчика.📱\n\nСейчас у нас есть несколько проектов, куда мы ищем разработчиков. Подробнее по вакансиям здесь:\nhttps://spb.hh.ru/vacancy/37445336\nhttps://spb.hh.ru/vacancy/37365465\n\nМы ждём: \n🔹опыт разработки как на Kotlin, так и на Java;\n🔹опыт в работе с RxJava;\n\nУсловия:\n✅Гибкий график\n✅ДМС со стоматологией\n✅Компенсация мобильной связи\n✅Официальное оформление и \"белая\" зарплата + премии сверху оклада\n✅Возможность дополнительного обучения\nКонтакты: @Ntsama_IT \nпочта: eivanova@stream.ru","markup":[{"type":"hashtag","offset":0,"length":9,"data":"вакансия"},{"type":"hashtag","offset":10,"length":7,"data":"работа"},{"type":"hashtag","offset":18,"length":16,"data":"Санкт_Петербург"},{"type":"hashtag","offset":35,"length":6,"data":"Пермь"},{"type":"hashtag","offset":42,"length":7,"data":"Казань"},{"type":"hashtag","offset":51,"length":7,"data":"middle"},{"type":"hashtag","offset":59,"length":8,"data":"Android"},{"type":"hashtag","offset":68,"length":7,"data":"Kotlin"},{"type":"hashtag","offset":76,"length":7,"data":"RxJava"},{"type":"link","offset":246,"length":6,"data":"https://stream.ru/"},{"type":"handle","offset":262,"length":10,"data":"Ntsama_IT"},{"type":"link","offset":490,"length":34,"data":"https://spb.hh.ru/vacancy/37445336"},{"type":"link","offset":525,"length":34,"data":"https://spb.hh.ru/vacancy/37365465"},{"type":"handle","offset":835,"length":10,"data":"Ntsama_IT"},{"type":"link","offset":854,"length":18,"data":"mailto:eivanova@stream.ru"}],"date":"2020-06-17T08:54:24+00:00","link":"tg://resolve?domain=mobile_jobs&post=0","tags":[{"name":"mobile"},{"name":"android"},{"name":"kotlin"},{"name":"dotnet"},{"name":"java"}],"cities":[{"code":"perm"},{"code":"kazan"}],"allowsRemote":true}}]}}},"context":{}}