{"hash":"f34fd2c444a074f4e0e67d525015a008ef8e766f","data":{"records":{"id":"kafka","name":"kafka","belongsTo":{"totalCount":55,"pageInfo":{"totalPages":6,"currentPage":3},"edges":[{"node":{"__typename":"Job","id":"1960837120-1001134745498","title":"Devops инженер","text":"#вакансия #sre #hadoop #kafka #devops #remote\n\nА я все еще ищу SRE (Site Reliability Engineer, ну или DevOps, как угодно, только без холиваров) в BigData команду для американской компании PulsePoint. \n\nРабота удаленная, фуллтайм, ЗП 6-8k USD/месяц.\n\nОбычно оплата на ИП, если есть какие-то альтернативы - они готовы обсудить, но юрлица в РФ у них нет.\nРазрабатывают различные продукты в области интернет рекламы, keywords: programmatic, SSP, RTB.\n\nГрафик работы: график с 16 до 01:00 по Мск (с 9 до 18 по NY). Час на обед. Рабочая неделя 5/2.\n\nВыходные и отпуски: 21 день оплачиваемого отпуска. Не работают по американским выходным.\n\nДежурств нет. Все инциденты в нерабочее время на себя берет менеджер команды.\n\nКлючевое: администрирование Hadoop (HDFS, Hive, Impala), Kafka.\nБудет плюсом: Kubernetes, Postgres/MySQL/аналогичное, какой-нть NoSQL. Супер, если был опыт с Cassandra. А еще с Presto + Alluxio.\n\nВ команде много инженеров из РФ, но язык общения английский, нужно бегло говорить без проблем. Все-таки основной костяк в NY и там русскоязычные далеко не все. \n\nЕсли заинтересует или какие вопросы - @pskuzin / pk@4cv.io\n\n—\n\n👉 Обсуждение вакансии в чате @devops_jobs","markup":[{"type":"hashtag","offset":0,"length":9,"data":"вакансия"},{"type":"hashtag","offset":10,"length":4,"data":"sre"},{"type":"hashtag","offset":15,"length":7,"data":"hadoop"},{"type":"hashtag","offset":23,"length":6,"data":"kafka"},{"type":"hashtag","offset":30,"length":7,"data":"devops"},{"type":"hashtag","offset":38,"length":7,"data":"remote"},{"type":"handle","offset":1109,"length":8,"data":"pskuzin"},{"type":"link","offset":1120,"length":9,"data":"mailto:pk@4cv.io"},{"type":"handle","offset":1164,"length":12,"data":"devops_jobs"}],"date":"2020-04-02T14:04:21+00:00","link":"tg://resolve?domain=devops_jobs_feed&post=1870","tags":[{"name":"hadoop"},{"name":"kafka"},{"name":"hdfs"},{"name":"hive"},{"name":"kubernetes"},{"name":"postgresql"},{"name":"mysql"},{"name":"nosql"},{"name":"cassandra"}],"cities":[],"allowsRemote":true}},{"node":{"__typename":"Job","id":"1413480448-1001091028994","title":"Java разработчик","text":"#java #backend #middle #senior #питер #удаленка\nВакансия: Java-разработчик (middle/senior)\nКомпания: https://loyaltyplant.com\nг. Санкт-Петербург\nЗ/П: Middle 130-160k, Senior 180-240k\nФормат работы: офис/удаленка\nЗанятость: полная \nСпециализация компании: мобильное маркетинговое решение с программой лояльности и доставкой для ресторанов, чтобы гости получали лучший сервис, а бизнес – большие выручки и возможность выжить в каратнин. Работаем не только в России, но и в США, Европе и Азии. Нашими решениями пользуются Subway Russia, Black Star Burgers, Greenbox, Papa Johns UAE, и еще 500 брендов в 20 странах, и более 10 миллионов конечных пользователей. Мы ищем не просто сотрудников, но настоящих партнеров, которые готовы предлагать прорывные решения и разделять с нами ценности открытости, честности и личной инициативы.\n\nТебе предстоит:\n • Заниматься рефакторингом legacy-блоков, распиливанием монолита на микросервисы;\n • Развивать функционал системы;\n • Готовить систему к повышению нагрузки;\n • Осуществлять техподдержку третьего уровня;\n • Проводить code review;\n • Делиться опытом с другими разработчиками.\n • Для Senior также – определять и воплощать архитектурные и технические решения.\n\nЧто нам важно?\n • Опыт backend-разработки на Java от 3 лет (Senior – от 5);\n • Хорошее знание Java Core;\n • Опыт работы с микросервисами;\n • Знания и опыт: Spring, БД (MySQL, PostgreSQL, Redis), Kafka, ELK;\n • Как +: Linux, Docker, Cassandra;\n • Самостоятельность;\n • Умение видеть и исправлять плохой код.\n\nМы предлагаем:\n • Интересные задачи и возможности для развития;\n • Возможность реально влиять на решения;\n • Гибкий график;\n • Дружественную атмосферу стартапа, офис-не-open-space, заказ еды, массаж, кикер, английский и тд.\n\nКонтакты: @orehmthfcka","markup":[{"type":"hashtag","offset":0,"length":5,"data":"java"},{"type":"hashtag","offset":6,"length":8,"data":"backend"},{"type":"hashtag","offset":15,"length":7,"data":"middle"},{"type":"hashtag","offset":23,"length":7,"data":"senior"},{"type":"hashtag","offset":31,"length":6,"data":"питер"},{"type":"hashtag","offset":38,"length":9,"data":"удаленка"},{"type":"link","offset":101,"length":24,"data":"https://loyaltyplant.com"},{"type":"handle","offset":1745,"length":12,"data":"orehmthfcka"}],"date":"2020-04-02T13:36:43+00:00","link":"tg://resolve?domain=jvmjobs&post=1348","tags":[{"name":"java"},{"name":"jvm"},{"name":"spring"},{"name":"mysql"},{"name":"postgresql"},{"name":"redis"},{"name":"kafka"},{"name":"linux"},{"name":"docker"},{"name":"cassandra"}],"cities":[],"allowsRemote":true}},{"node":{"__typename":"Job","id":"1412431872-1001091028994","title":"Java разработчик","text":"#java #middle #fulltime #удалённо #job #вакансия #remote #фуллтайм #fulltime #удаленно #удаленка #удаленно #spring\n #москва \n✔️ Вакансия: Java developer\nЗП: до 190k net\nФормат работы: полная/удаленно\nКомпания: МТС\n\nКрупная российская телекоммуникационная компания приглашает присоединиться Middle Java разработчика к проекту разработки IoT решений.\n\n ✔️ Задачи:\n• Разработка бэкенда проекта;\n• Code-review;\n• Участие в принятии архитектурных и технических решений;\n• Интеграция решений с мобильными приложениями.\n\n✔️ Предлагаем: \n• Официальное трудоустройство;\n• Повышение квалификации;\n•  Удаленная работа из дома.\n\n✔️ Пожелания к Вашему опыту:\n• Опыт работы от 3-х лет;\n• Высшее образование;\n• Работа с БД: PostgreSQL и NoSQL;\n• Опыт работы с Spring, Kafka.\nКонтактное лицо: @OlgaVzh","markup":[{"type":"hashtag","offset":0,"length":5,"data":"java"},{"type":"hashtag","offset":6,"length":7,"data":"middle"},{"type":"hashtag","offset":14,"length":9,"data":"fulltime"},{"type":"hashtag","offset":24,"length":9,"data":"удалённо"},{"type":"hashtag","offset":34,"length":4,"data":"job"},{"type":"hashtag","offset":39,"length":9,"data":"вакансия"},{"type":"hashtag","offset":49,"length":7,"data":"remote"},{"type":"hashtag","offset":57,"length":9,"data":"фуллтайм"},{"type":"hashtag","offset":67,"length":9,"data":"fulltime"},{"type":"hashtag","offset":77,"length":9,"data":"удаленно"},{"type":"hashtag","offset":87,"length":9,"data":"удаленка"},{"type":"hashtag","offset":97,"length":9,"data":"удаленно"},{"type":"hashtag","offset":107,"length":7,"data":"spring"},{"type":"hashtag","offset":116,"length":7,"data":"москва"},{"type":"bold","offset":169,"length":31,"data":""},{"type":"bold","offset":290,"length":24,"data":""},{"type":"bold","offset":354,"length":8,"data":""},{"type":"bold","offset":517,"length":13,"data":""},{"type":"bold","offset":620,"length":26,"data":""},{"type":"handle","offset":777,"length":8,"data":"OlgaVzh"}],"date":"2020-04-02T13:19:28+00:00","link":"tg://resolve?domain=jvmjobs&post=1347","tags":[{"name":"java"},{"name":"jvm"},{"name":"spring"},{"name":"dotnet"},{"name":"postgresql"},{"name":"nosql"},{"name":"kafka"}],"cities":[{"code":"moscow"}],"allowsRemote":true}},{"node":{"__typename":"Job","id":"24239931392-1001075660570","title":"Php разработчик","text":"#вакансия #php \nВакансия: PHP-разработчик\nФормат работы: удаленка\nЗанятость: полная\nЗарплата: 1500 EUR/месяц\n\nВ IT компанию приглашается PHP-разработчик.\n\nОбязанности:\n- проектирование, разработка, тестирование и поддержка кода на PHP;\n- проектирование структур баз данных;\n- разработка модулей к существующим проектам;\n- улучшение существующего кода и решений;\n- поддержание целостности архитектуры проекта.\n\nТребования:\n- опыт работы PHP программистом более 1 года; \n- уверенное владение PHP, HTML, CSS, JavaScript, MySQL;\n- опыт и понимание принципов проектирования структур баз данных;\n- понимание принципов объектно-ориентированного дизайна программ;\n- умение использовать операционные системы типа *nix;\n- владение Git и понимание принципов Git Flow;\n- приветствуется понимание TDD, BDD, опыт автоматизированного тестирования;\n- приветствуется опыт работы с технологиями Memcached, Redis, RabbitMQ, MongoDB, Cassandra, Kafka;\n- приветствуется опыт работы с другими языками Python, Ruby, TypeScript, Go, Rust;\n- умение работать в команде, желание перенимать опыт коллег и делиться собственным опытом;\n- умение и желание докапываться до сути;\n- умение поддерживать порядок и быть педантом в вопросах качества;\n- умение читать и понимать техническую литературу на английском языке;\n- терпеливое отношение к чужому коду и к критике собственного;\n- наличие широкого Интернет-канала и настроенной программы Skype, позволяющих поддерживать качественную видеосвязь.\n\nУсловия и основные принципы:\n- удаленная работа (не фриланс);\n- полная занятость (5 дней в неделю, 8/6/4 часов в день по выбору);\n- ставка заработной платы 1500 EUR (8 часов), 1125 EUR (6 часов) или 750 EUR (4 часа) в месяц;\n- возможен переезд за границу.\n\nПодробности @trlogic","markup":[{"type":"hashtag","offset":0,"length":9,"data":"вакансия"},{"type":"hashtag","offset":10,"length":4,"data":"php"},{"type":"handle","offset":1734,"length":8,"data":"trlogic"}],"date":"2020-04-01T20:18:09+00:00","link":"tg://resolve?domain=php_jobs&post=23117","tags":[{"name":"php"},{"name":"html"},{"name":"css"},{"name":"javascript"},{"name":"mysql"},{"name":"git"},{"name":"redis"},{"name":"rabbitmq"},{"name":"mongodb"},{"name":"cassandra"},{"name":"kafka"},{"name":"python"},{"name":"ruby"},{"name":"typescript"},{"name":"rust"}],"cities":[],"allowsRemote":true}},{"node":{"__typename":"Job","id":"1406140416-1001091028994","title":"Java разработчик","text":"Компания: #SimbirSoft\nЛокация: #Ульяновск, Казань, Самара, Димитровград, Саранск + возможен вариант удалённой работы\nЗ/п: 180-200 гросс\nКонтакты: @juli_simb\n+79271828496\nSenior Java-разработчик / AWS Dev\nТребуемый опыт работы: 3–6 лет\nПолная занятость, гибкий график\nУ нас не соскучишься! Поручим разработку разнообразных проектов, есть как разработка с нуля (выбор архитектуры и технологий за нами), так и доработка существующих решений. Внутренние конференции и доклады от ведущих разработчиков, на которых ты можешь узнать много нового\nУ нас есть офисы разработки в городах: Ульяновск, Казань, Самара, Саранск и Димитровград, а так же возможен дистанционный формат работы.\n\nПиши нам, если есть:\n●  опыт разработки на языке Java (не ранее 8 версии) не менее 2 лет, умение эффективно его использовать, знание особенностей, достоинств и недостатков;\n●  опыт разработки на Spring Framework;\n●  опыт работы с Java потоками включая ThreadPoolExecutor\n●  опыт разработки с AWS (Amazon Web Services) включая SQS, SNS, Kinesis Firehose, Terraform\n●  опыт применения языка SQL, умение писать и оптимизировать сложные запросы;\n●  опыт работы с Kafka\n●  понимание принципов работы ORM-фреймворков;\n●  понимание концепций OOP, методологий разработки и шаблонов проектирования.\n●  уровень английского от Upper - intermediate\nА если есть даже больше, то тем более пиши :)\n\nМы предлагаем:\n●  интересные высоконагруженные проекты;\n●  возможность работать на современных технологиях;\n●  возможность разрабатывать проекты с нуля;\n●  стабильную белоснежную заработную плату, размер зависит от квалификации и опыта;\n●  возможность профессионального развития - менторство, внутренние митапы, хакатоны, работа в одной команде с экспертами, сертификация за счет компании;\n●  постоянный обмен опытом между командами;\n●  гибкий график работы;\n●  возможность работать удаленно;\n●  оформление по ТК РФ.","markup":[{"type":"hashtag","offset":10,"length":11,"data":"SimbirSoft"},{"type":"hashtag","offset":31,"length":10,"data":"Ульяновск"},{"type":"handle","offset":146,"length":10,"data":"juli_simb"},{"type":"link","offset":157,"length":12,"data":"tel:+79271828496"}],"date":"2020-04-01T06:20:17+00:00","link":"tg://resolve?domain=jvmjobs&post=1341","tags":[{"name":"java"},{"name":"jvm"},{"name":"amazon-web-services"},{"name":"spring"},{"name":"web"},{"name":"sql"},{"name":"kafka"},{"name":"orm"}],"cities":[{"code":"ulyanovsk"},{"code":"kazan"},{"code":"samara"},{"code":"dimitrovgrad"},{"code":"saransk"}],"allowsRemote":true}},{"node":{"__typename":"Job","id":"1404043264-1001091028994","title":"Java разработчик","text":"Вакансия: #Java #TeamLead                                           \nКомпания: #Утконос                                                                  \nЛокация: #Москва                                                                         \nЗ/п: 320 000 Net                                                                             \nКонтакт: @RecruiterTatianaK                                                   \nJava TeamLead в Утконос Онлайн\n📍Наш проект:\nВ компании разрабатывается комплексная система по управлению складом. Систему пишем сами «с нуля», на микросервисной архитектуре\n📍Что нужно делать?   \nУправление командой разработки   \nРазработка алгоритмов по оптимизации хранения и комплектации                                                                                       \nУчастие в проработке архитектурных решений                   \n📍Наш стек:\n Java 11, Spring 5, Kubernetes, ELK, Grafana, Prometheus, Kafka                                                                                               \n📍Что предлагаем?                                                                        \nОформление по ТК РФ, ДМС   \nГибкий график                                                                     \nКорпоративные скидки на utkonos.ru, tui.ru, фитнес, кино и др.                                                                                      \nОфис - 10 минут  от м. Краснопресненская/ м.Улица 1905 года","markup":[{"type":"hashtag","offset":10,"length":5,"data":"Java"},{"type":"hashtag","offset":16,"length":9,"data":"TeamLead"},{"type":"hashtag","offset":79,"length":8,"data":"Утконос"},{"type":"hashtag","offset":163,"length":7,"data":"Москва"},{"type":"handle","offset":347,"length":18,"data":"RecruiterTatianaK"},{"type":"link","offset":1254,"length":10,"data":"http://utkonos.ru"},{"type":"link","offset":1266,"length":6,"data":"http://tui.ru"}],"date":"2020-03-31T21:26:33+00:00","link":"tg://resolve?domain=jvmjobs&post=1339","tags":[{"name":"java"},{"name":"jvm"},{"name":"dotnet"},{"name":"spring"},{"name":"kubernetes"},{"name":"kafka"}],"cities":[{"code":"moscow"}],"allowsRemote":false}},{"node":{"__typename":"Job","id":"1950351360-1001134745498","title":"Devops инженер","text":"#вакансия #DevOps #Москва #офис #Kafka  #RHEL\n🚀 Ищем инженера DevOps в финансовую компанию под задачи сопровождения CI/CD инфраструктуры. \n🎧 Все собеседования можно пройти по скайпу из-за карантина.\nГород: Москва, центр\n🏠 Формат работы: офис после карантина (сейчас, как и у всех, удалёнка).\nЗанятость: полная.\nГражданство: РФ, Беларусь, Казахстан.\n🔅 Зарплатная вилка: оклад от 160 до 170K рублей net, с премиями получается 210К net.\nОбласть ответственности:\n•  Установка нового ПО на сервера Linux \n•  Поддержка CI/CD, Jenkins,\n•  Мониторинг работы сервиса и серверов, снятие логов, оптимизация;\n•  Взаимодействие с командой разработчиков и совместное решение задач;\n•  Ведение технической документации по администрируемым сервисам и решениям. \n💎Требования:\n•  Знание и опыт работы с nix* подобными системами от 3 лет. Желательно, чтобы был опыт работы с RHEL.\n•  Опыт программирования: скриптинг под Linux + Python/Groovy/JAVA.\n•  Опыт работы с БД\n•  Умение делать настройки систем мониторинга.\n\nНазвание компании: КА \"Бизнес Крафт Консалт\" https://bcraft.ru/ \n📩 Контакты: \nemail: oksana@bcraft.ru Telegram: @oksanaalieva \nБуду рада ответить на уточняющие вопросы. Подробности о проекте вышлю в ЛС в ответ на присланное резюме\n\n—\n\n👉 Обсуждение вакансии в чате @devops_jobs","markup":[{"type":"hashtag","offset":0,"length":9,"data":"вакансия"},{"type":"hashtag","offset":10,"length":7,"data":"DevOps"},{"type":"hashtag","offset":18,"length":7,"data":"Москва"},{"type":"hashtag","offset":26,"length":5,"data":"офис"},{"type":"hashtag","offset":32,"length":6,"data":"Kafka"},{"type":"hashtag","offset":40,"length":5,"data":"RHEL"},{"type":"link","offset":1048,"length":18,"data":"https://bcraft.ru/"},{"type":"link","offset":1089,"length":16,"data":"mailto:oksana@bcraft.ru"},{"type":"handle","offset":1116,"length":13,"data":"oksanaalieva"},{"type":"handle","offset":1269,"length":12,"data":"devops_jobs"}],"date":"2020-03-31T18:08:40+00:00","link":"tg://resolve?domain=devops_jobs_feed&post=1860","tags":[{"name":"kafka"},{"name":"dotnet"},{"name":"linux"},{"name":"jenkins"},{"name":"python"},{"name":"groovy"},{"name":"java"}],"cities":[{"code":"moscow"}],"allowsRemote":true}},{"node":{"__typename":"Job","id":"1401946112-1001091028994","title":"Java разработчик","text":"#java #вакансия #Москва #fulltime #middle #senior \nГород и адрес офиса: Москва, между метро Нагатинская и Тульская, мцк Верхние котлы \nФормат работы: офис\nЗанятость: полная\nОплата: 180-300 тыс. рублей\n\nОписание вакансии:\nКоманда Sber Product Catalog  ищет сильного Java-разработчика!🙌\nПроект Product Catalog-это облачное решение, которое позволяет бизнесу вести все свои продукты (карты, вклады, продукты партнеров и и.п) в едином месте, гибко управлять всеми элементами 4P (product,price, promotion, place) и мгновенно выводить все изменения на рынок. Архитектура системы состоит из 11 модулей, половина из них в Production, другая половина требует проектирования и разработки. Продукт активно развивается, поэтому мы хотим усилить нашу команду. От нас вы получите опыт и развитие компетенций, амбициозные задачи, карьерный рост и открытость к инновациям!\nСтек: Spring core/Security/Batch/Rest/HateOAS, ABACUSES,BPM,Versioning, Hibernate Envers/ORM/OGM, Apache Kafka, Jasper reports, Oracle/PostgreeSQL.\nПроцесс разработки : Scrum, Jira, Gitflow,Devops до Production (переход на OpenShift)\n-Оформление ТК РФ;\n     -ДМС;\n     - Белая заработная плата (оклад + годовая премия);\n     -Возможность обучения за счет компании;\n     -   Льготное кредитование;\n      -Бесплатный тренажерный зал на территории офиса;\n       - корпоративная жизнь и спортивные мероприятия;\n       -возможность карьерного роста.\n\nЖдём Вас в нашей команде!\n@TaliaHR","markup":[{"type":"hashtag","offset":0,"length":5,"data":"java"},{"type":"hashtag","offset":6,"length":9,"data":"вакансия"},{"type":"hashtag","offset":16,"length":7,"data":"Москва"},{"type":"hashtag","offset":24,"length":9,"data":"fulltime"},{"type":"hashtag","offset":34,"length":7,"data":"middle"},{"type":"hashtag","offset":42,"length":7,"data":"senior"},{"type":"handle","offset":1430,"length":8,"data":"TaliaHR"}],"date":"2020-03-31T08:49:56+00:00","link":"tg://resolve?domain=jvmjobs&post=1337","tags":[{"name":"java"},{"name":"jvm"},{"name":"spring"},{"name":"batch"},{"name":"rest"},{"name":"hibernate"},{"name":"orm"},{"name":"apache"},{"name":"kafka"},{"name":"oracle"}],"cities":[{"code":"moscow"}],"allowsRemote":false}},{"node":{"__typename":"Job","id":"1400897536-1001091028994","title":"Java developer","text":"Вакансия: Senior Backend Developer\nЛокация: Москва\nКомпания: МТС Банк\nФормат работы: Office\nЗанятость: Full-time\nЗарплатная вилка: 200000 - 260000 net\n\nМы - команда по запуску FinTech продуктов на базе МТС банка и МТС. Мы являемся отдельной структурой со своим финансированием, имеем карт-бланш на принятие технических решений, и перед нами стоит цель наладить быстрое и качественное создание новых финтех продуктов на рынке. Ищем бывалого инженера, готового помочь с реализацией, а также с созданием грамотных и эффективных процессов разработки.\n\nКакие навыки мы ожидаем:\n- 3+ года с Kotlin/Java/Go и желание в дальнейшем писать на Kotlin/Go. Github приветствуется!\n- Опыт работы с PostgreSQL, понимание реляционной структуры БД, уровней изоляции.\n- Понимание принципов CI/CD, Kubernetes, систем мониторинга и алертинга.\n- Навык Code Review.\n- Очень ценим опыт работы с банками/финтехами/платежными системами.\n\nЧем предстоит заниматься:\n- Анализ технических задачий и требований. Предложения по их реализации и архитектуре. Оценка сроков.\n- Написание кода, unit и интеграционных тестов, документации.\n- Участие в прототипировании, проверке гипотез, развитии внутренних инструментов и подходов.\n- Code review.\n\nЧто предлагаем:\n- Работа в молодом коллективе крутых специалистов.\n- Офис в минуте ходьбы от метро \"Технопарк\".\n- Оформление по ТК с первого дня.\n- ДМС со стоматологией в МЕДСИ после 3 месячного испытательного срока.\n- Корпоративный тариф связи \"Для своих\".\n- Надежная растущая компания, входящая в крупный холдинг.\n\nНаш Стек:\n- Kotlin, Go.\n- gRPC/Protobuf.\n- Kafka.\n- Graal Native Image, Docker Kubernetes.\n\nКонтакт: @aquatir","markup":[{"type":"handle","offset":1629,"length":8,"data":"aquatir"}],"date":"2020-03-31T08:47:43+00:00","link":"tg://resolve?domain=jvmjobs&post=1336","tags":[{"name":"java"},{"name":"jvm"},{"name":"dotnet"},{"name":"kotlin"},{"name":"github"},{"name":"postgresql"},{"name":"kubernetes"},{"name":"kafka"},{"name":"docker"}],"cities":[{"code":"moscow"}],"allowsRemote":false}},{"node":{"__typename":"Job","id":"24181211136-1001075660570","title":"Php разработчик","text":"#вакансия #senior #php #symfony #воронеж \n\nSenior PHP разработчик\nКомпания: СберЛогистика\nЛокация:  г. Воронеж, ул. Кропоткина, офис, полная занятость\nЗ/п:  от 110.000 net\nКонтакт: @yagodaalena или @wander_wom \n\nСберЛогистика – это логистический оператор федерального масштаба, развивающий собственную складскую инфраструктуру, курьерскую доставку и сеть пунктов выдачи заказов во всех регионах России. \n\nЗадачи:\n• Разработка прикладного кода\n• Проведение тестирования собственного кода, написание unit-тестов и автотестов на функциональность\n• Разработка интеграционной функциональности. Диагностирование ошибок и сбоев, исправление причин\n• Сопровождение внедрения продуктов\n• Проведение code review\n\nОт Вас мы ожидаем:\n• Опыт работы с Symfony\n• Уверенная работа с реляционными СУБД (предпочтительно PostgreSQL)\n• Уверенная работа с Git\n• Уверенный пользователь Linux\n• Работа с API: OpenApi, REST, JsonRPC\n• CI/CD (Jenkins, GitLab CI/CD, etc)\n• KeyValue: Redis\n• Опыт работы с брокерами сообщений: Kafka\n• Английский язык на уровне чтения и понимания технической документации\n\nРабота у нас это:\n• Возможность работать над новыми амбициозными проектами в области логистики в дружной команде профессионалов\n• Полное соблюдение ТК РФ\n• Конкурентное вознаграждение, обсуждаем с финальным кандидатом\n• ДМС\n\nНапиши мне, если интересно. 😉","markup":[{"type":"hashtag","offset":0,"length":9,"data":"вакансия"},{"type":"hashtag","offset":10,"length":7,"data":"senior"},{"type":"hashtag","offset":18,"length":4,"data":"php"},{"type":"hashtag","offset":23,"length":8,"data":"symfony"},{"type":"hashtag","offset":32,"length":8,"data":"воронеж"},{"type":"handle","offset":181,"length":12,"data":"yagodaalena"},{"type":"handle","offset":198,"length":11,"data":"wander_wom"}],"date":"2020-03-31T08:25:15+00:00","link":"tg://resolve?domain=php_jobs&post=23061","tags":[{"name":"php"},{"name":"symfony"},{"name":"dotnet"},{"name":"postgresql"},{"name":"git"},{"name":"linux"},{"name":"rest"},{"name":"jenkins"},{"name":"gitlab"},{"name":"redis"},{"name":"kafka"}],"cities":[{"code":"voronezh"}],"allowsRemote":false}}]}}},"context":{}}