{"hash":"f5f6bf98bd95e769321482904cbbd488f77922fd","data":{"records":{"id":"swift","name":"swift","belongsTo":{"totalCount":133,"pageInfo":{"totalPages":14,"currentPage":8},"edges":[{"node":{"__typename":"Job","id":"71855767552-1001054966032","title":"Ios разработчик","text":"#вакансия #москва #офис #senior #ios #developer #gamedev #swift \nГород и адрес офиса: Москва, м.Автозаводская \nФормат работы: офис \nЗанятость: полная \nЗарплатная вилка: от 250 000 до 300 000 на руки \n\n\n✅ Senior iOS Developer \n\nОписание вакансии: \n\nМы - успешная команда из 120 человек, которая занимается: \n• разработкой собственных мобильных игр и приложений \n• паблишингом мобильных игр \n• рекламой и маркетингом мобильных приложений (реклама на Facebook, Google и т.д.) \nЗа последние 3 года мы привлекли более 100 млн пользователей в наши собственные мобильные приложения и приложения наших клиентов и партнеров, потратив на это более $80 млн. \n\nУ нас есть все составляющие чтобы делать готовые продукты известными и популярными. Мы ищем сильного и талантливого разработчика для усиления нашей текущей слаженно работающей команды и выведения нашего Fitness & Health iOS приложения Fitingo на лидирующие позиции в мире (уже сейчас приложение занимало позиции ТОП 13 в США и ТОП 6 в Великобритании с более чем 400,000 установок и более чем 45,000 совершенных покупок).\n\n✅Задачи: \n\n•  Разрабатывать новый функционал\n•  Рефакторить и оптимизировать код\n•  Писать код. Больше логики, меньше UI. Например - хранить историю и прогресс; сделать leaderboard по странам; добавить чат, аналитику и a/b тесты; Apple Health, Watch, Music и TV\n•  Участвовать в Code Review\n\nТекущий стек: Swift 5.1, MVPC, AVFoundation, UserNotifications, Realm, StoreKit, Firebase, PushWoosh, Facebook, Python.\n\n✅Требования: \n\n•  Опыт работы разработчиком iOS приложений от 3х лет\n•  Отличное знание Swift\n•  Уверенное знание SOLID и паттернов проектирования\n•  Умение профилировать приложение (Батарейка, утечки и вот это все)\n•  Опыт работы с системой контроля версий\n•  Наличие выпущенных проектов на Swift\n•  Желание делать красивые, интересные и популярные приложения\n\n✅Будет плюсом: \n\n•  Умение/желание писать небольшие серверные скрипты (например на Python)\n•  Умение автоматизировать рутинные процессы\n•  Умение рефакторить код итеративно\n•  Адекватный перфекционизм\n\n\n✅Для вас: \n\n•  Конкурентная заработная плата, выплачивается 2 раза в месяц\n•  Необходимое оборудование для работы\n•  Возможность набрать команду и выстроить всю работу под себя в краткосрочной перспективе\n•  Оформление по ТК РФ, оплачиваемые больничные, 28 дней оплачиваемого отпуска в год\n•  Возможны регулярные бонусы по результатам работы проектов\n•  Собеседование с лицом принимающим решение\n•  Возможность коммуницировать с людьми, которые принимают продуктовые решения\n\n✅О нас: \n\n•  Просторный офис 600 метров на м. Автозаводская (3 минуты от метро и от ТТК на машине) с ультра современным дизайном и кучей ништяков (кухня с вкусняшками, кальяны каждый вечер в дружной кампании, PS4 Pro + 4K TV, аркадные автоматы с Pac-Man, Metal Slug и другими хитами геймдизайна, просторная зона отдыха, 5 переговорных комнат и т д)\n•  Команда из 100 человек занимающаяся паблишингом и маркетингом, готовая сделать продукт успешным после его готовности\n•  Возможность обучаться английскому языку с носителями каждый будний день по утрам\n•  Менторы и инвесторы, создавшие большое количество успешных IT компаний (оборот в 2018 году более 140 млн долларов)\n\nНазвание компании: AppQuantum \n\nКонтакты: \ne-mail: vika@adquantum.com\ntelegram: @wikki13","markup":[{"type":"hashtag","offset":0,"length":9,"data":"вакансия"},{"type":"hashtag","offset":10,"length":7,"data":"москва"},{"type":"hashtag","offset":18,"length":5,"data":"офис"},{"type":"hashtag","offset":24,"length":7,"data":"senior"},{"type":"hashtag","offset":32,"length":4,"data":"ios"},{"type":"hashtag","offset":37,"length":10,"data":"developer"},{"type":"hashtag","offset":48,"length":8,"data":"gamedev"},{"type":"hashtag","offset":57,"length":6,"data":"swift"},{"type":"link","offset":3248,"length":18,"data":"mailto:vika@adquantum.com"},{"type":"handle","offset":3277,"length":8,"data":"wikki13"}],"date":"2020-06-23T10:28:34+00:00","link":"tg://resolve?domain=mobile_jobs&post=68527","tags":[{"name":"mobile"},{"name":"ios"},{"name":"swift"},{"name":"realm"},{"name":"firebase"},{"name":"python"}],"cities":[{"code":"moscow"}],"allowsRemote":false}},{"node":{"__typename":"Job","id":"71852621824-1001054966032","title":"Android разработчик","text":"#вакансия #fulltime #freelance #middle #IOS #Swift #СПБ \nВсем привет! \nВ поисках двух IOS разработчиков. Рассматриваем full-time в офис/на удаленку.\nЛокация: Санкт-Петербург\n \nГрафик: 5/2 с гибким началом рабочего дня. \n💶 Зарплатная вилка: от 120 до 180 на руки\n\n🧰Мы: 4xxi.com (разработка разных сложных  технологических проектов-стартапов (веб, мобильные истории IOS/Android)). 90% проектов приходится на зарубежный рынок (США, Англия).\n\n🍩 Плюшки: \n✔️оформление по ТК РФ (мы белые полностью);\n✔️уроки английского языка;\n✔️ДМС;\n✔️спортивные мероприятия;\n✔️обучение и развитие;\n✔️офис в центре города в стиле лофт, м.Горьковская;\n✔️кухня, забитая вкусняхами;\n\nНаши ожидания: \n☑️с опытом работы от 2 лет;\n☑️уверенное знание Swift;\n☑️с опытом использования CoreData и знанием принципов работы баз данных;\n☑️с пониманием жизненного цикла приложения;\n☑️с опытом использования REST, WebSocket, Reactive kit;\n☑️с умением работать с потоками;\n\n\nБудет отлично, если:\n\n☑️у вас опыт больше 2х лет.\n☑️отлично понимаете и можете обосновать применение различных паттернов проектирования;\n☑️есть успешные п1риложения в App Store;\n☑️есть open source проекты на github;\n\n\nПишите и присылайте свои резюме:  vyangurskaya@4xxi.com, @vyangurskaya","markup":[{"type":"hashtag","offset":0,"length":9,"data":"вакансия"},{"type":"hashtag","offset":10,"length":9,"data":"fulltime"},{"type":"hashtag","offset":20,"length":10,"data":"freelance"},{"type":"hashtag","offset":31,"length":7,"data":"middle"},{"type":"hashtag","offset":39,"length":4,"data":"IOS"},{"type":"hashtag","offset":44,"length":6,"data":"Swift"},{"type":"hashtag","offset":51,"length":4,"data":"СПБ"},{"type":"link","offset":270,"length":8,"data":"http://4xxi.com"},{"type":"link","offset":1192,"length":21,"data":"mailto:vyangurskaya@4xxi.com"},{"type":"handle","offset":1215,"length":13,"data":"vyangurskaya"}],"date":"2020-06-23T09:45:18+00:00","link":"tg://resolve?domain=mobile_jobs&post=68524","tags":[{"name":"mobile"},{"name":"android"},{"name":"ios"},{"name":"swift"},{"name":"rest"},{"name":"websocket"},{"name":"github"}],"cities":[],"allowsRemote":false}},{"node":{"__typename":"Job","id":"71851573248-1001054966032","title":"Mobile разработчик","text":"#вакансия #работа #СанктПетербург #iOS #Swift #fulltime #офис\nГород: Санкт-Петербург, м. Чкаловская\nФорма работы: офис\nЗанятость: полная\nЗарплатная вилка: от 150 000 до 250 000 net.\nВсем привет!\nМы – Cardsmobile, петербургская IT-компания, разработчик мобильного приложения «Кошелёк». \n«Кошелёк» заменяет бумажник и избавляет от необходимости носить с собой пластик: пользователи хранят в нем дисконтные и банковские карты. Чтобы получить скидку, достаточно показать на кассе карту с экрана смартфона, а чтобы оплатить покупку – приложить NFC-смартфон к терминалу оплаты.\nНаши партнеры в ритейле – крупнейшие торговые сети страны: Лента, М.Видео, X5 Retail Group, ВкусВилл, Adidas Group и многие другие. Карты этих торговых сетей можно перенести в приложение, сфотографировав пластик, или выпустить новую карту из каталога Кошелька – сразу в мобильном формате.\nПлатформа токенизации Cardsmobile прошла сертификации Visa и MasterCard, что позволяет безопасно переносить банковские карты в приложение \"Кошелёк\" и бесконтактно оплачивать покупки.\n\nВ нашей команде более 150 человек, из которых более 50 человек – техническая команда.\nНашим приложением пользуются более 10 млн. человек в квартал, а в день от 1-го до 2-ух миллионов человек.\n\nНаши стратегические международные партнеры (MasterCard, Visa и Huawei) заинтересованы в расширении географии распространения нашего продукта и, в связи с этим мы усиляем нашу команду и ищем iOS разработчика на одно из направлений. В команде iOS у нас 7 человек.\n\n🔸Технический стек:\nКодовая база: 70% - Objective-C, 30% - Swift (активно переводим проект на Swift);\nМинимальная поддерживаемая версия: iOS 11.\n\n🔸Задачи направлений:\n🔹Performance\n• Искать и рефакторить неоптимально работающие части приложения;\n• Принимать решения о необходимости использования многопоточности, разрабатывать многопоточные механизмы и внедрять их;\n• Измерять скорость работы приложения всеми возможными способами и оценивать эффективность внедряемых изменений;\n• Проводить ревью кода коллег с точки зрения влияния изменений на производительность;\n• Настраивать эффективную фоновую работу всего приложения (различные синхронизации с сервером, загрузка данных и т.п.);\n• Делать приложение энергоэффективным.\n🔹Architecture\n• Работать над качеством многомодульной архитектуры проекта;\n• Предлагать коллегам новые архитектурные подходы для решения различных проблем, возникающих в процессе решения бизнес-задач;\n• Разрабатывать и унифицировать навигацию в многомодульном проекте;\n• Внедрять подходы, позволяющие работать над разными частями приложения максимально изолированно и независимо;\n• Создать простой и понятный для всей команды источник данных о текущей архитектуре и её особенностях;\n• Оценивать корректность решений коллег с точки зрения архитектуры в рамках ревью кода;\n• Пропагандировать преимущества качественной и чистой архитектуры внутри команды.\n🔹Components\n• Разрабатывать динамический UI на основе данных с бэка;\n• Писать нестандартные UI компоненты c анимациями на CALayers;\n• Проектировать новый API вместе с кроссплатформенной командой неравнодушных коллег;\n• Предлагать и использовать различные практики компонентно ориентированного программирования.\n\nМы предлагаем:\n• Участие в развитии полезного и популярного приложения, возможность сделать мир лучше;\n• Оформление по ТК РФ с первого дня работы, конкурентная белая зарплата, ДМС;\n• Оплату мобильной связи, частичную компенсацию оплаты питания;\n• Гибкий график работы;\n• Помощь с переездом для кандидатов из других городов (welcome бонус);\n• Оплата профильных курсов и конференций;\n• Два раза в неделю в офисе занятия йогой;\n• Командные мероприятия и приятные коллеги;\n• Комфортный офис в центре города (5 минут от станции метро Чкаловская).\n\nИнформацию о компании можно найти по ссылке: https://spb.hh.ru/employer/2032205\n\nКонтакты: katerinaziryukova\nПочта: e.ziryukova@cardsmobile.ru","markup":[{"type":"hashtag","offset":0,"length":9,"data":"вакансия"},{"type":"hashtag","offset":10,"length":7,"data":"работа"},{"type":"hashtag","offset":18,"length":15,"data":"СанктПетербург"},{"type":"hashtag","offset":34,"length":4,"data":"iOS"},{"type":"hashtag","offset":39,"length":6,"data":"Swift"},{"type":"hashtag","offset":46,"length":9,"data":"fulltime"},{"type":"hashtag","offset":56,"length":5,"data":"офис"},{"type":"link","offset":3781,"length":34,"data":"https://spb.hh.ru/employer/2032205"},{"type":"link","offset":3852,"length":26,"data":"mailto:e.ziryukova@cardsmobile.ru"}],"date":"2020-06-23T09:26:51+00:00","link":"tg://resolve?domain=mobile_jobs&post=68523","tags":[{"name":"mobile"},{"name":"ios"},{"name":"swift"},{"name":"dotnet"},{"name":"objective-c"}],"cities":[],"allowsRemote":false}},{"node":{"__typename":"Job","id":"71850524672-1001054966032","title":"Ios developer","text":"#вакансия #Москва #офис #релокация #ios #swift\n\n\nВакансия: iOS Developer (Junior/Middle/Senior) в компанию Mafin\n\nО компании: Mafin.ru - это онлайн-платформа персональных страховых сервисов. Insurtech старап компании \"АбсолютТех\", получивний инвестирование в размере $50 млн.\nГео: Москва\nФормат: Офис\nВилка: 60 000 - 240 000 Р/мес\n\nТребования: \n● Опыт разработки приложений под iOS от 1 года\n● Отличное знание Objective-C или Swift\n● Проектирование интерфейса без Xib и StoryBoard\n● Опыт разработки клиент-серверных приложений\n● Опыт разработки многопоточных приложений\n● Опыт работы с Core Data - инструмент для БД\n● Умение работать с CocoaPods (библиотеки для реализации задач)\n● Знание Git\n● Знание HTTP/S, REST API, JSON\n\nДополнительные навыки:\n● Понимание принципов UX/UI и Human Interface Guidelines\n● Опыт работы с Figma\n\nБудет плюсом:\n● Опыт C/С++/Python\n● Наличие приложений, опубликованных в AppStore\n● Опыт написания тестов\n\nУсловия: \n● НС с первого рабочего дня, ДМС по истечении испытательного срока (3 месяца);\n● Skyeng скидка 50% (в том числе занятия с носителями языка);\n● Новый красивый офис в тренде современных IT компаний с капсулами для сна и уютной кухней;\n● Бесплатное обучение; доступ к онлайн-библиотеке;\n● Работа по методологии Agile, scrum\n● Огромное количество корпоративных мероприятий\n● Гибкое начало рабочего дня до 11-00\n● Есть релокационный пакет\n● График работы 5\\2, офис 2 дня в неделю на время ограничительных мер \n\nДля оперативной связи пишите: @rudenko_telegram","markup":[{"type":"hashtag","offset":0,"length":9,"data":"вакансия"},{"type":"hashtag","offset":10,"length":7,"data":"Москва"},{"type":"hashtag","offset":18,"length":5,"data":"офис"},{"type":"hashtag","offset":24,"length":10,"data":"релокация"},{"type":"hashtag","offset":35,"length":4,"data":"ios"},{"type":"hashtag","offset":40,"length":6,"data":"swift"},{"type":"bold","offset":49,"length":9,"data":""},{"type":"bold","offset":114,"length":12,"data":""},{"type":"link","offset":126,"length":8,"data":"http://Mafin.ru"},{"type":"bold","offset":276,"length":4,"data":""},{"type":"bold","offset":288,"length":8,"data":""},{"type":"bold","offset":301,"length":7,"data":""},{"type":"bold","offset":332,"length":13,"data":""},{"type":"bold","offset":726,"length":23,"data":""},{"type":"bold","offset":829,"length":14,"data":""},{"type":"bold","offset":936,"length":7,"data":""},{"type":"handle","offset":1482,"length":17,"data":"rudenko_telegram"}],"date":"2020-06-23T09:25:42+00:00","link":"tg://resolve?domain=mobile_jobs&post=68522","tags":[{"name":"mobile"},{"name":"ios"},{"name":"swift"},{"name":"objective-c"},{"name":"cocoapods"},{"name":"git"},{"name":"rest"},{"name":"json"},{"name":"python"},{"name":"core-data"}],"cities":[{"code":"moscow"}],"allowsRemote":false}},{"node":{"__typename":"Job","id":"71841087488-1001054966032","title":"Ios разработчик","text":"#вакансия #ios #swift #Москва #офис \nМосква, м. Нагатинская \nОфис, полная занятость \nЗП: 150 - 220к net\n\nВсем привет! \nМеня зовут Марина, я из Туту.ру 🙂 \n\n🔥 Мы считаем, что будущее за мобильными устройствами. И продолжаем активно смещать фокус на разработку приложений и мобильной версии сайта.\n\n🔥 Пользователи нас любят 🙂 Оценка приложения в AppStore 4.9, а количество установок перешагнуло 3 млн.\n\n🔥 У нас масштабный многомодульный проект и 4 приложения. Если вам интересно решать сложные архитектурные задачи - welcome!\n\n🔥 Наш стек: Swift, RxSwift, RxFeedBack, GithubActions.\n\nПодробнее о вакансии здесь: \nhttps://company.tutu.ru/ios_dev\n\nБудем рады ответить на вопросы! \n\nHR (Марина): \n@mandarinka25 \nsavinova@tutu.ru\n\nРуководитель мобильной команды (Станислав): \n@DevAlloy","markup":[{"type":"hashtag","offset":0,"length":9,"data":"вакансия"},{"type":"hashtag","offset":10,"length":4,"data":"ios"},{"type":"hashtag","offset":15,"length":6,"data":"swift"},{"type":"hashtag","offset":22,"length":7,"data":"Москва"},{"type":"hashtag","offset":30,"length":5,"data":"офис"},{"type":"link","offset":615,"length":31,"data":"https://company.tutu.ru/ios_dev"},{"type":"handle","offset":696,"length":13,"data":"mandarinka25"},{"type":"link","offset":711,"length":16,"data":"mailto:savinova@tutu.ru"},{"type":"handle","offset":774,"length":9,"data":"DevAlloy"}],"date":"2020-06-23T08:17:36+00:00","link":"tg://resolve?domain=mobile_jobs&post=68513","tags":[{"name":"mobile"},{"name":"ios"},{"name":"swift"},{"name":"dotnet"}],"cities":[{"code":"moscow"}],"allowsRemote":false}},{"node":{"__typename":"Job","id":"71833747456-1001054966032","title":"Ios разработчик","text":"💪#вакансия #удалёнка #iOS #fulltime  #Middle+/#Senior    \n💵З/П 2200-2400 $/месяц по итогам собеседования\nРабота: удалёнка\n\nЧеловек в среднем больше сотни раз взаимодействует с клавиатурой своего мобильного устройства. Для большинства пользователей нашего приложения мы делаем этот процесс  интереснее и выгодней. Мы также оцениваем эмоциональное состояние пользователя, в процессе его взаимодействия с клавиатурой. Руководство компании из топ-менеджмента крупнейших глобальных игроков мобильного рынка. В данный момент открыта вакансия Middle+/Senior IOS разработчика, в подчинении 2 сотрудника                                                                                                               \n\n📌Обязанности:\n- Разработка кастомной клавиатуры iOS\n- Подключение ML-алгоритмов (TensorFlow) распознавания эмоций к iOS-клавиатуре\n- Разработка кода обработки данных камеры, микрофона\n\n📌Требования:\n- Уверенное знание Swift;\n- Хорошее знание платформы iOS, инструментов разработки, работы UI;\n- Опыт работы с REST API, HTTP, JSON, APNs;\n- Знакомство с библиотеками CoreData, AVFoundation, CoreML и CreateML\n- Желание развиваться и развивать свои знания            \n-Знание английского на уровне от Intermediate желательно                                                                                                               \n\n📌Будет плюсом:\n- Опыт работы c TensorFlow на iOS\n- Опыт работы с OpenCV на iOS\n- Опыт работы с фреймворком SwiftUI\n\n📌Условия:\n- Отсутствие бюрократии\n- Время начала рабочего дня обговариваем индивидуально\n- Come to the Dark Side, we have тёплая ламповая атмосфера стартапа, чай, кофе и печеньки!\n- Крутой инновационный проект - возможность самореализации и профессионального роста\n- Стабильное зарубежное финансирование\n- Десятки миллионов установок и множество глобальных партнёров\n📞 Контакты @SvetikS_hr +7(963)-632-12-36 Cветлана","markup":[{"type":"hashtag","offset":2,"length":9,"data":"вакансия"},{"type":"hashtag","offset":12,"length":9,"data":"удалёнка"},{"type":"hashtag","offset":22,"length":4,"data":"iOS"},{"type":"hashtag","offset":27,"length":9,"data":"fulltime"},{"type":"hashtag","offset":38,"length":7,"data":"Middle"},{"type":"hashtag","offset":47,"length":7,"data":"Senior"},{"type":"handle","offset":1841,"length":11,"data":"SvetikS_hr"},{"type":"link","offset":1853,"length":17,"data":"tel:+7(963)-632-12-36"}],"date":"2020-06-23T07:31:00+00:00","link":"tg://resolve?domain=mobile_jobs&post=68506","tags":[{"name":"mobile"},{"name":"ios"},{"name":"tensorflow"},{"name":"swift"},{"name":"rest"},{"name":"json"},{"name":"opencv"}],"cities":[],"allowsRemote":true}},{"node":{"__typename":"Job","id":"71832698880-1001054966032","title":"Ios разработчик","text":"#вакансия #swift #objective-C #ios\n\niOS разработчик удаленно по России \nmiddle/senior/lead\n\nГород : Санкт-Петербург\nФормат работы: офис или удаленно\nЗанятость: Полная\nЗарплатная вилка:  90 000 - 300 000 руб\n\n\nОписание компании:\nВ Blogman мы занимаемся разработкой собственного приложения – платформа для блогеров и рекламодателей. В нашей команде уже более 50 разработчиков и мы продолжаем расти. Сейчас мы ищем инженера с опытом коммерческой разработки под iOS.\nОсновной стек технологий — Swift, Realm, Alamofire. Сейчас мы разрабатываем бизнес-функционал и будем рады новому специалисту в нашей команде, вместе с которым мы будем делать быстрое приложение с отзывчивым и плавным интерфейсом.\n\nМы ожидаем, что у вас есть:\n— Опыт коммерческой разработки мобильных приложений под iOS;\n— Хорошие знания Swift, UIKit;\n— Опыт работы с мобильными БД;\n— Умение работать с Git, Cocoapods.\n\nБудет плюсом, если вы:\n— Разрабатывали клиент-серверные приложения;\n— Умеете работать с WebSocket;\n— Знаете и понимаете архитектуру VIPER;\n— Командный игрок без яркого эгоцентризма;\n— Готовы активно принимать участие в жизни компании и продукта.\n\nРады предложить:\n– Удаленное сотрудничество или комфортный офис на Невском проспекте в 5 минутах ходьбы от ст. м. Маяковская и Владимирская;\n– Желаемый оклад по результатам собеседования;\n– Понятную систему роста зарплаты каждые 6 месяцев, в которой все зависит только от вас;\n– Все необходимые офисные блага вроде вкусного кофе и т.д.\nВас будут окружать адекватные люди, с которыми комфортно решать поставленные задачи. У сотрудников есть общие ценности, такие как стремление к качественному результату, забота о продукте и желание двигаться вперед. Также у нас нет “Начальства”, а есть коллеги. Все взаимодействуют горизонтально и в команде равенство между инженерами, стейкхолдером, продактом и т.д. Все работают бок о бок и делают одно общее дело.\n\n@maria_golovina","markup":[{"type":"hashtag","offset":0,"length":9,"data":"вакансия"},{"type":"hashtag","offset":10,"length":6,"data":"swift"},{"type":"hashtag","offset":17,"length":10,"data":"objective"},{"type":"hashtag","offset":30,"length":4,"data":"ios"},{"type":"bold","offset":230,"length":8,"data":""},{"type":"bold","offset":495,"length":2,"data":""},{"type":"bold","offset":502,"length":2,"data":""},{"type":"bold","offset":695,"length":27,"data":""},{"type":"bold","offset":883,"length":22,"data":""},{"type":"bold","offset":1130,"length":16,"data":""},{"type":"handle","offset":1883,"length":15,"data":"maria_golovina"}],"date":"2020-06-23T07:28:06+00:00","link":"tg://resolve?domain=mobile_jobs&post=68505","tags":[{"name":"mobile"},{"name":"ios"},{"name":"swift"},{"name":"objective-c"},{"name":"realm"},{"name":"uikit"},{"name":"git"},{"name":"cocoapods"},{"name":"websocket"}],"cities":[],"allowsRemote":true}},{"node":{"__typename":"Job","id":"71826407424-1001054966032","title":"Ios developer","text":"#вакансия #Минск #fulltime #office #iOS \n\nГород: Минск, м. пл Ленина                            \nНазвание компании: Onde, https://onde.app\nФормат работы: офис \nЗанятость: полная\nЗарплатная вилка: от $3000 до $4000 чистыми (по результатам интервью)\n\nНаш продукт - SaaS решение для других бизнесов, позволяющее начать свой бизнес - например, сервис заказа такси, медицинских услуг, вызова нотариуса, бронирования и даже ухода за домашними питомцами.\n\nСейчас мы ищем Senior iOS Developer!\n\nНаш стек: Swift + Objective C, XCode/AppCode, CoreAnimation, Texture (ex AsyncDisplayKit), Fastlane, Git\n\nЧто мы предлагаем: \n- Гибкий график\n- Современный офис (не опенс спейс)\n- Возможность реализовывать свои самые разные идеи\n- Компенсация стоимости спортивного абонемента 50% \n- Скидка 30% на обеды\n- Медицинское страхование \n- Компенсация стоимости конференций, курсов и тренингов\n- Делить офис с 2 котиками 🐱\n- Насыщенная корпоративная жизнь\n\nБольше подробностей здесь: https://onde.app/careers/ios-developer\n\nБуду рада знакомству:\nEmail: maria.kulesh@onde.app","markup":[{"type":"hashtag","offset":0,"length":9,"data":"вакансия"},{"type":"hashtag","offset":10,"length":6,"data":"Минск"},{"type":"hashtag","offset":17,"length":9,"data":"fulltime"},{"type":"hashtag","offset":27,"length":7,"data":"office"},{"type":"hashtag","offset":35,"length":4,"data":"iOS"},{"type":"link","offset":122,"length":16,"data":"https://onde.app"},{"type":"link","offset":964,"length":38,"data":"https://onde.app/careers/ios-developer"},{"type":"link","offset":1033,"length":21,"data":"mailto:maria.kulesh@onde.app"}],"date":"2020-06-23T06:27:46+00:00","link":"tg://resolve?domain=mobile_jobs&post=68499","tags":[{"name":"mobile"},{"name":"ios"},{"name":"swift"},{"name":"objective-c"},{"name":"xcode"},{"name":"git"}],"cities":[{"code":"minsk"}],"allowsRemote":false}},{"node":{"__typename":"Job","id":"71798095872-1001054966032","title":"Ios developer","text":"#вакансия #IOS #Swift #Objective-C #middle #офис #Москва\n👋Приглашаем Middle IOS Developer в новый проект от Сбербанка.\n\n💸Уровень ЗП: 220К-280К net (в зависимости от типа оформления).\n\n📝Оформление: ИП или штат компании партнера.\n\n📍Локация: офис в г.Москва, Кутузовский проспект.\n\n🧑‍💻О проекте: Разработка чата и видеозвонка с целью реализовать единое рабочее место оператора для дополнительного канала обслуживания. С помощью чатов клиент сможет переписываться со своим дистанционным клиентским менеджером по премиальному каналу в МП СБОЛ, с возможностью передачи файлов. Видеозвонок позволит установить визуальный контакт клиентом со своим менеджером с возможностью показа презентаций. На базе удаленных каналов обслуживания планируется реализовать возможность удаленного предоставления клиенту всего спектра продуктов банка. В настоящий момент в банке обслуживается порядка 19 млн клиентов.\n\n🎯Мы ожидаем от вас:\n· знание Objective-C;\n· знание Swift;\n· опыт коммерческой разработки iOS-приложений не менее года;\n· опыт параллельного и многопоточного программирования;\n· опыт разработки сетевых приложений как на уровне сокетов, так и на уровне HTTP;\n· опыт работы с Core Data, Core Graphics, XML-парсером в iOS SDK;\n· умение разбираться и работать с чужим кодом.\n\nЖду Ваши резюме и буду рада ответить на все вопросы☺️\nКонтакты для связи: telegram @anisimovaane4ka","markup":[{"type":"hashtag","offset":0,"length":9,"data":"вакансия"},{"type":"hashtag","offset":10,"length":4,"data":"IOS"},{"type":"hashtag","offset":15,"length":6,"data":"Swift"},{"type":"hashtag","offset":22,"length":10,"data":"Objective"},{"type":"hashtag","offset":35,"length":7,"data":"middle"},{"type":"hashtag","offset":43,"length":5,"data":"офис"},{"type":"hashtag","offset":49,"length":7,"data":"Москва"},{"type":"handle","offset":1354,"length":16,"data":"anisimovaane4ka"}],"date":"2020-06-22T15:47:47+00:00","link":"tg://resolve?domain=mobile_jobs&post=68472","tags":[{"name":"mobile"},{"name":"ios"},{"name":"swift"},{"name":"objective-c"},{"name":"dotnet"},{"name":"xml"},{"name":"core-data"}],"cities":[{"code":"moscow"}],"allowsRemote":true}},{"node":{"__typename":"Job","id":"71778172928-1001054966032","title":"Ios разработчик","text":"#вакансия #ios #swift #middle #senior #удаленка #remote #fulltime\n\niOS-разработчик удаленно от 200 тыс. руб.\n\nГород: Москва\nФормат работы: удаленно\nЗанятость: полная\nЗарплатная вилка: от 200 000 руб. до 250 000 руб. после налогообложения\nКомпания: CORE https://core.company\nОписание вакансии:\n\nМы команда разработчиков мобильных приложений и сейчас мы ищем iOS-разработчика для одного из наших финтех-проектов.\n\nОсновные требования:\n— Опыт работы от 2-х лет;\n— Знание Objective-C и Swift;\n— Опыт работы с Rx;\n— Знание шаблонов проектирования и умение их применять;\n— Понимание принципов SOLID;\n— Знание основных алгоритмов и структур данных;\n— Умение писать поддерживаемый и тестируемый код.\n\nУсловия:\n— Полный день, гибкий график;\n— Оформление по договору ГПХ.\n\nПрисылайте ваше резюме на @tv_corecompany","markup":[{"type":"hashtag","offset":0,"length":9,"data":"вакансия"},{"type":"hashtag","offset":10,"length":4,"data":"ios"},{"type":"hashtag","offset":15,"length":6,"data":"swift"},{"type":"hashtag","offset":22,"length":7,"data":"middle"},{"type":"hashtag","offset":30,"length":7,"data":"senior"},{"type":"hashtag","offset":38,"length":9,"data":"удаленка"},{"type":"hashtag","offset":48,"length":7,"data":"remote"},{"type":"hashtag","offset":56,"length":9,"data":"fulltime"},{"type":"link","offset":253,"length":20,"data":"https://core.company"},{"type":"handle","offset":789,"length":15,"data":"tv_corecompany"}],"date":"2020-06-22T12:07:18+00:00","link":"tg://resolve?domain=mobile_jobs&post=68453","tags":[{"name":"mobile"},{"name":"ios"},{"name":"swift"},{"name":"objective-c"}],"cities":[{"code":"moscow"}],"allowsRemote":true}}]}}},"context":{}}