{"hash":"f5f6bf98bd95e769321482904cbbd488f77922fd","data":{"records":{"id":"websocket","name":"websocket","belongsTo":{"totalCount":23,"pageInfo":{"totalPages":3,"currentPage":1},"edges":[{"node":{"__typename":"Job","id":"17326669824-1001110946746","title":"Js разработчик","text":"#вакансия #удаленка #fulltime #react #node #typescript \n\nГород: Москва\nФормат: удалённая работа\nЗанятость: полная\nЗарплатная вилка: от 150к до 250к на руки.\n\nВ российскую геймдев компанию требуется опытный TypeScript разработчик для разработки нового и доработок текущего функционала проекта на Node.js/React.\n\nНа протяжении 10 лет компания занимается разработкой, лицензированием и локализацией многопользовательских онлайн-игр. На сегодняшний день наш портфель состоит из игровых проектов разных жанров, включая легендарные MMO TERA, «Ботва», Music Wars и др. Некоторые разработки получили признание в Европе и Северной Америке.\n\nТребования:\n• React.js (React Hooks, JSX)\n• State Management (Redux)\n• Node.js\n• TypeScript\n• HTML5\n, CSS3 / SCSS \n• REST API\n• WebSocket\n• Опыт работы c PostgreSQL\n• Опыт работы с Redis\n• Bash\n• Docker\n• Git\n\nПриветствуется:\n• Docker + docker-compose\n• Angular (8+)\n• Опыт работы с криптовалютами и мастернодами\n• Умение быстро разбираться с новыми технологиями\n\nУсловия:\n• дружная и профессиональная команда (средний возраст которой 27 лет)\n• отличная возможность с головой погрузиться в мир гейм-индустрии\n• удаленная работа из любой точки мира, гибкий график\n\nПо всем вопросам: @rjaidy","markup":[{"type":"hashtag","offset":0,"length":9,"data":"вакансия"},{"type":"hashtag","offset":10,"length":9,"data":"удаленка"},{"type":"hashtag","offset":20,"length":9,"data":"fulltime"},{"type":"hashtag","offset":30,"length":6,"data":"react"},{"type":"hashtag","offset":37,"length":5,"data":"node"},{"type":"hashtag","offset":43,"length":11,"data":"typescript"},{"type":"handle","offset":1214,"length":7,"data":"rjaidy"}],"date":"2020-07-02T16:31:36+00:00","link":"tg://resolve?domain=javascript_jobs_feed&post=16524","tags":[{"name":"javascript"},{"name":"reactjs"},{"name":"nodejs"},{"name":"typescript"},{"name":"redux"},{"name":"html"},{"name":"css"},{"name":"rest"},{"name":"websocket"},{"name":"postgresql"},{"name":"redis"},{"name":"bash"},{"name":"docker"},{"name":"git"},{"name":"angularjs"},{"name":"docker-compose"}],"cities":[{"code":"moscow"}],"allowsRemote":true}},{"node":{"__typename":"Job","id":"72530001920-1001054966032","title":"Ios developer","text":"#вакансия #ios #developer #iosdeveloper #москва #мск \n\nIOS Developer\nКомпания: Азбука Вкуса\nЛокация: Москва, офис\nм. Парк Победы/Кутузовская\nЗанятость: fulltime\nЗ/п: 150-210k ₽ net  \nКонтакты: @observer69\n\nУсловия\n● Официальное оформление с соблюдением ТК РФ;\n● Организация внешнего обучения;\n● Участие в конференциях и хакатонах;\n● ДМС;\n● Возможность работать из дома пару раз в неделю;\n● Комфортный офис в шаговой доступности от м. Парк Победы / Кутузовская;\n● Большая команда IT - профессионалов;\n● Интересные задачи\n\nТребования\n● Имеешь опыт iOS-разработки от 3-х лет;\n● Знаешь и любишь Swift, без вопросов можешь разобраться с кодом на Objective-C;\n● Имеешь опыт интеграции различных социальных сетей в проект;\n● Умеешь работать в AppStoreConnect и developer.apple.com, понимаешь зачем нужны сертификаты;\n● Знаешь принципы SOLID, структуры данных, паттерны проектирования и программирования;\n● Знаешь что таĸое MVC, MVVM, MVP etc. понимаешь их плюсы и\nминуты;\n● Работал с Realm;\nУверенно делаешь сложный UI, знаешь и понимаешь Autolayout, понимаешь когда лучше отказаться от него;\n● Сможешь обьяснить разницу между процессом и потоĸом, знаешь ĸаĸ\nработает многопоточность;\n● Знаком с HTTP, REST, Websocket, JSON и т.д.;\n● Работал с git (терминал или приложение);\n● Умеешь \"гуглить\" и воспринимать информацию на английском;\n● Терпимо относишься ĸ чужому ĸоду, даже если сильно не нравится;\n● Умеешь аргументировано и последовательно отстаивать свою\nпозицию;\n● Сможешь оценить задачу, и выполнить ее в сроĸ;\n● Интересуешься “а ĸаĸ это устроено внутри?”\n\nЗадачи\n1. Развивать и поддерживать существующие приложения;\n2. Проводить code review;\n3. Развивать IOS инфраструктуру в компании;\n4. Активно участвовать в жизни команды.","markup":[{"type":"hashtag","offset":0,"length":9,"data":"вакансия"},{"type":"hashtag","offset":10,"length":4,"data":"ios"},{"type":"hashtag","offset":15,"length":10,"data":"developer"},{"type":"hashtag","offset":26,"length":13,"data":"iosdeveloper"},{"type":"hashtag","offset":40,"length":7,"data":"москва"},{"type":"hashtag","offset":48,"length":4,"data":"мск"},{"type":"bold","offset":55,"length":23,"data":""},{"type":"bold","offset":92,"length":8,"data":""},{"type":"bold","offset":141,"length":10,"data":""},{"type":"bold","offset":161,"length":5,"data":""},{"type":"bold","offset":183,"length":10,"data":""},{"type":"handle","offset":193,"length":11,"data":"observer69"},{"type":"bold","offset":206,"length":8,"data":""},{"type":"bold","offset":521,"length":11,"data":""},{"type":"link","offset":754,"length":19,"data":"http://developer.apple.com"},{"type":"bold","offset":1557,"length":9,"data":""},{"type":"bold","offset":1617,"length":2,"data":""},{"type":"bold","offset":1643,"length":2,"data":""},{"type":"bold","offset":1687,"length":2,"data":""}],"date":"2020-07-02T10:23:24+00:00","link":"tg://resolve?domain=mobile_jobs&post=69170","tags":[{"name":"mobile"},{"name":"ios"},{"name":"dotnet"},{"name":"swift"},{"name":"objective-c"},{"name":"mvvm"},{"name":"realm"},{"name":"rest"},{"name":"websocket"},{"name":"json"},{"name":"git"}],"cities":[{"code":"moscow"}],"allowsRemote":false}},{"node":{"__typename":"Job","id":"72521613312-1001054966032","title":"Android developer","text":"#вакансия #работа #Android #Kotlin #релокация #работавофисе\nAndroid developer📱\n\nГород: Санкт-Петербург\nФормат работы: офис (возможность работать удаленно первое время)\nЗанятость: полная\nЗарплатная вилка: от 140 000 до 170 000;\n\n💻Что нужно делать:\n- Разработка и поддержка приложений для Android (Kotlin);\n- Работа с серверными запросами (REST APi);\n- Разработка архитектуры мобильных приложений (MVC / MVVM / Clean / MVP);\n- Участие в решении задач, связанных с бизнес-логикой;\n- Работа в команде;\n- Участие в планировании (SCRUM).\n\n📋Требования:\n- Уверенные знание Android SDK, Android Architecture Components;\n- Уверенные знания Kotlin/Java;\n- Понимать принципы проектирования SOLID;\n- Знание сетевых протоколов и технологий (HTTP(S), REST API, JSON);\n- Знание и понимание работы WebSocket;\n- Способность самостоятельно анализировать различные форматы передачи данных и определять их структуру;\n- Разбираться с непростыми архитектурными задачами и придумывать интеграционные решения.\n\nПо условиям: оформление по ТК РФ, ДМС после испытательного срока, корпоративные курсы (скорочтение, разработка, английский и пр), развитая корпоративная культура, молодой коллектив. Помогаем с релокацией.\n\nПо всем вопросам: @kvikka20","markup":[{"type":"hashtag","offset":0,"length":9,"data":"вакансия"},{"type":"hashtag","offset":10,"length":7,"data":"работа"},{"type":"hashtag","offset":18,"length":8,"data":"Android"},{"type":"hashtag","offset":27,"length":7,"data":"Kotlin"},{"type":"hashtag","offset":35,"length":10,"data":"релокация"},{"type":"hashtag","offset":46,"length":13,"data":"работавофисе"},{"type":"handle","offset":1213,"length":9,"data":"kvikka20"}],"date":"2020-07-02T09:12:47+00:00","link":"tg://resolve?domain=mobile_jobs&post=69162","tags":[{"name":"mobile"},{"name":"android"},{"name":"kotlin"},{"name":"rest"},{"name":"mvvm"},{"name":"java"},{"name":"json"},{"name":"websocket"}],"cities":[],"allowsRemote":true}},{"node":{"__typename":"Job","id":"17271095296-1001110946746","title":"Js разработчик","text":"#вакансия #vacancy #удаленка #fullstack #nodejs #javascript #remote #remotly #удаленнаяработа #удалённая работа\n\nГород и адрес офиса:Санкт-Петербург,Москва,Ульяновск,Обнинск,Калуга,Казань,Харьков,Минск,Гомель-центр города+удалённое сотрудничество\nФормат работы:офис или удалёнка\nЗанятость: полная\nЗарплатная вилка:$1500-$2000\nОписание вакансии:\n\nИщем опытного и талантливого Full Stack девелопера в команду разработки ERP системы по продаже авиа запчастей и поддержания летной годности.\n\nСсылка на описание системы: http://www.erp.aero/\n\nЧто будет входить в задачи:\n\n🚀Бэкенд-разработка;\n🚀Фронт-енд-разработка;\n🚀Разработка архитектуры модулей приложения;\n🚀Написание документации.\n\nЧто мы ожидаем от кандидата:\n\n⚓️Опыт разработки с использованием Node.js;\n✈️Опыт разработки с использованием Vue.js;\n🚁Знание RabbitMQ;\n⛵️JavaScript (ES6);\n🛥БД MySQL;\n🛳Знание протокола WebSocket и принципов его работы;\n🚢Технический английский.\n\nБольшим плюсом будет:\n\n🛸Фреймворк Express.js;\n🏍Понимание работы с Amazon Web Services;\n🛵Оптимизация проекта под высокие нагрузки;\n🚠Понимание работы «облачных» приложений SaaS.\n\nЧто мы предлагаем:\n🇺🇸Работу в Американской компании\n🔥Возможность удалённой работы\n💵Официальное оформление- заключается договор с нашей ШК в Сан-Франциско по ИП\n☀️Гибкое начало рабочего дня\n💊ДМС\n🏖Оплачиваемый отпуск\n🎓75% компенсация стоимости курсов английского языка\nНазвание компании:  XIM, Ink. https://ximxim.com/\n\nОтклики и рекомендации направляйте, пожалуйста, сюда 👉 @veronikaborisovahr","markup":[{"type":"hashtag","offset":0,"length":9,"data":"вакансия"},{"type":"hashtag","offset":10,"length":8,"data":"vacancy"},{"type":"hashtag","offset":19,"length":9,"data":"удаленка"},{"type":"hashtag","offset":29,"length":10,"data":"fullstack"},{"type":"hashtag","offset":40,"length":7,"data":"nodejs"},{"type":"hashtag","offset":48,"length":11,"data":"javascript"},{"type":"hashtag","offset":60,"length":7,"data":"remote"},{"type":"hashtag","offset":68,"length":8,"data":"remotly"},{"type":"hashtag","offset":77,"length":16,"data":"удаленнаяработа"},{"type":"hashtag","offset":94,"length":10,"data":"удалённая"},{"type":"link","offset":516,"length":20,"data":"http://www.erp.aero/"},{"type":"link","offset":1417,"length":19,"data":"https://ximxim.com/"},{"type":"handle","offset":1494,"length":19,"data":"veronikaborisovahr"}],"date":"2020-06-30T16:10:03+00:00","link":"tg://resolve?domain=javascript_jobs_feed&post=16471","tags":[{"name":"javascript"},{"name":"nodejs"},{"name":"vuejs"},{"name":"rabbitmq"},{"name":"mysql"},{"name":"websocket"},{"name":"express"},{"name":"web"},{"name":"amazon-web-services"}],"cities":[{"code":"moscow"},{"code":"ulyanovsk"},{"code":"obninsk"},{"code":"kaluga"},{"code":"kazan"},{"code":"minsk"},{"code":"gomel"}],"allowsRemote":true}},{"node":{"__typename":"Job","id":"72318189568-1001054966032","title":"Ios разработчик","text":"#вакансия #swift #objective-C #ios\n\niOS разработчик удаленно по России \nmiddle/senior\n\nГород : Санкт-Петербург\nФормат работы: офис или удаленно\nЗанятость: Полная\nЗарплатная вилка:  90 000 - 200 000 руб\nОписание компании:\nВ Blogman мы занимаемся разработкой собственного приложения – платформа для блогеров и рекламодателей. В нашей команде уже более 50 разработчиков и мы продолжаем расти. Сейчас мы ищем инженера с опытом коммерческой разработки под iOS\n\nМы ожидаем, что у вас есть:\n— Опыт коммерческой разработки мобильных приложений под iOS;\n— Хорошие знания Swift, UIKit;\n— Опыт работы с мобильными БД;\n— Умение работать с Git, Cocoapods.\n\nБудет плюсом, если вы:\n— Разрабатывали клиент-серверные приложения;\n— Умеете работать с WebSocket;\n— Знаете и понимаете архитектуру VIPER;\n— Командный игрок без яркого эгоцентризма;\n— Готовы активно принимать участие в жизни компании и продукта.\n\nРады предложить:\n– Удаленное сотрудничество или комфортный офис на Невском проспекте в 5 минутах ходьбы от ст. м. Маяковская и Владимирская;\n– Желаемый оклад по результатам собеседования;\n– Понятную систему роста зарплаты каждые 6 месяцев, в которой все зависит только от вас;\n– Все необходимые офисные блага вроде вкусного кофе и т.д.\nВас будут окружать адекватные люди, с которыми комфортно решать поставленные задачи. У сотрудников есть общие ценности, такие как стремление к качественному результату, забота о продукте и желание двигаться вперед. Также у нас нет “Начальства”, а есть коллеги. Все взаимодействуют горизонтально и в команде равенство между инженерами, стейкхолдером, продактом и т.д. Все работают бок о бок и делают одно общее дело.\nНазвание компании: Blogman\nКонтакты: @maria_golovina","markup":[{"type":"hashtag","offset":0,"length":9,"data":"вакансия"},{"type":"hashtag","offset":10,"length":6,"data":"swift"},{"type":"hashtag","offset":17,"length":10,"data":"objective"},{"type":"hashtag","offset":30,"length":4,"data":"ios"},{"type":"bold","offset":223,"length":8,"data":""},{"type":"bold","offset":456,"length":27,"data":""},{"type":"bold","offset":644,"length":22,"data":""},{"type":"bold","offset":891,"length":16,"data":""},{"type":"handle","offset":1680,"length":15,"data":"maria_golovina"}],"date":"2020-06-30T07:56:16+00:00","link":"tg://resolve?domain=mobile_jobs&post=68968","tags":[{"name":"mobile"},{"name":"ios"},{"name":"swift"},{"name":"objective-c"},{"name":"uikit"},{"name":"git"},{"name":"cocoapods"},{"name":"websocket"}],"cities":[],"allowsRemote":true}},{"node":{"__typename":"Job","id":"72233254912-1001054966032","title":"Ios разработчик","text":"#вакансия #swift #objective-C #ios\n\niOS разработчик удаленно по России \nmiddle/senior\n\nГород : Санкт-Петербург\nФормат работы: офис или удаленно\nЗанятость: Полная\nЗарплатная вилка:  90 000 - 200 000 руб\n\n\nОписание компании:\nВ Blogman мы занимаемся разработкой собственного приложения – платформа для блогеров и рекламодателей. В нашей команде уже более 50 разработчиков и мы продолжаем расти. Сейчас мы ищем инженера с опытом коммерческой разработки под iOS.\n\nМы ожидаем, что у вас есть:\n— Опыт коммерческой разработки мобильных приложений под iOS;\n— Хорошие знания Swift, UIKit;\n— Опыт работы с мобильными БД;\n— Умение работать с Git, Cocoapods.\n\nБудет плюсом, если вы:\n— Разрабатывали клиент-серверные приложения;\n— Умеете работать с WebSocket;\n— Знаете и понимаете архитектуру VIPER;\n— Командный игрок без яркого эгоцентризма;\n— Готовы активно принимать участие в жизни компании и продукта.\n\nРады предложить:\n– Удаленное сотрудничество или комфортный офис на Невском проспекте в 5 минутах ходьбы от ст. м. Маяковская и Владимирская;\n– Желаемый оклад по результатам собеседования;\n– Понятную систему роста зарплаты каждые 6 месяцев, в которой все зависит только от вас;\n– Все необходимые офисные блага вроде вкусного кофе и т.д.\nВас будут окружать адекватные люди, с которыми комфортно решать поставленные задачи. У сотрудников есть общие ценности, такие как стремление к качественному результату, забота о продукте и желание двигаться вперед. Также у нас нет “Начальства”, а есть коллеги. Все взаимодействуют горизонтально и в команде равенство между инженерами, стейкхолдером, продактом и т.д. Все работают бок о бок и делают одно общее дело.\nНазвание компании: Blogman\nКонтакты: @maria_golovina","markup":[{"type":"hashtag","offset":0,"length":9,"data":"вакансия"},{"type":"hashtag","offset":10,"length":6,"data":"swift"},{"type":"hashtag","offset":17,"length":10,"data":"objective"},{"type":"hashtag","offset":30,"length":4,"data":"ios"},{"type":"bold","offset":225,"length":8,"data":""},{"type":"bold","offset":459,"length":27,"data":""},{"type":"bold","offset":647,"length":22,"data":""},{"type":"bold","offset":894,"length":16,"data":""},{"type":"handle","offset":1683,"length":15,"data":"maria_golovina"}],"date":"2020-06-29T09:09:05+00:00","link":"tg://resolve?domain=mobile_jobs&post=68887","tags":[{"name":"mobile"},{"name":"ios"},{"name":"swift"},{"name":"objective-c"},{"name":"uikit"},{"name":"git"},{"name":"cocoapods"},{"name":"websocket"}],"cities":[],"allowsRemote":true}},{"node":{"__typename":"Job","id":"1747976192-1001091028994","title":"Java разработчик","text":"Вакансия: Архитектор системы\n \nПроект: Разрабатываем единый веб-терминал MOEX Treasury, который позволит получить быстрый и удобный доступ ко всем рынкам Московской Биржи, а также сервисам по управлению обеспечением и внебиржевым операциям. Это не просто веб-интерфейс к уже существующим торговым системам, а новая платформа, которая взаимодействует со всеми основными торговыми и бэк-офисными системами Биржи, которая сейчас начинает активно развиваться.\n \nТехнологический стек: Java 8, Spring (Spring Boot, Spring MVC), Hazelcast, WebSocket, RabbitMQ, Firebird (с переходом на PostgreSQL), в интеграционных решения REST API и JMS.\n\nЗадачи на проекте:\nРазработка стратегии технического развития платформы, объединяющей основные рынки и инструменты Московской Биржи;\nПроектирование сервисов и интерфейсов взаимодействия с учетом нефункциональных требований, надежности обратной совмести и т.д.;\nВзаимодействие с внутренними и внешними разработчиками для контроля реализации архитектурных решений;\nВзаимодействие с аналитиками и заказчиками для выработки оптимальных технологических решений.\n \nЧто мы ожидаем:\nЗнание теоретических основ и опыт проектирования и эксплуатации отказоустойчивых систем;\nЗнание принципов ООП и понимание паттернов проектирования;\nУмение создавать техническую документацию;\nТехнологии: HTTP, REST, WebSocket OpenAPI/Swagger, XML, XSD, JAVA, JSON, Apache Tomcat, RabbitMQ, Hazelcast, rdms;\nДополнительным плюсом является: знание протоколов FIX и FAST, работа в финансовой сфере, опыт проектирования брокерских систем.\n\nНаши условия работы:\n• Компания: ПАО Московская биржа (Компания, входящая в 500 - лучших работодателей мира по версии Forbes за 2019 год);\n• Офис в центре: г. Москва, м. Арбатская/Библиотека им. Ленина/Боровицкая/Александровский сад;\n• Занятость: полная, официальное оформление в штат компании (оформление онлайн);\n• Формат работы: современный  офис возле Кремля в шаговой доступности от метро (на данный момент работаем удаленно из дома);\n• ДМС: с первого рабочего дня;\n• Свой «корпоративный университет», собственный лекторий, широкие возможности обучения – как внутри, так и вне компании;\n• Уровень з/п:  300 - 350 тыс.руб. (gross) + годовой бонус (32% годового дохода);\n• Формат интервью: 1 -2 этапа онлайн интервью (60 минут).\n\nПишите в личку, отвечу на любые вопросы!\nКонтакты: @Sasha_P92\nAlexander.Panin@moex.com","markup":[{"type":"bold","offset":0,"length":28,"data":""},{"type":"bold","offset":31,"length":8,"data":""},{"type":"bold","offset":458,"length":22,"data":""},{"type":"bold","offset":634,"length":18,"data":""},{"type":"bold","offset":1093,"length":15,"data":""},{"type":"bold","offset":1544,"length":20,"data":""},{"type":"bold","offset":1838,"length":19,"data":""},{"type":"handle","offset":2328,"length":10,"data":"Sasha_P92"},{"type":"link","offset":2339,"length":24,"data":"mailto:Alexander.Panin@moex.com"}],"date":"2020-06-26T17:13:34+00:00","link":"tg://resolve?domain=jvmjobs&post=1667","tags":[{"name":"java"},{"name":"jvm"},{"name":"spring"},{"name":"websocket"},{"name":"rabbitmq"},{"name":"postgresql"},{"name":"rest"},{"name":"swagger"},{"name":"xml"},{"name":"xsd"},{"name":"json"},{"name":"apache"},{"name":"tomcat"},{"name":"spring-boot"},{"name":"spring-mvc"}],"cities":[{"code":"moscow"}],"allowsRemote":true}},{"node":{"__typename":"Job","id":"1746927616-1001091028994","title":"Java developer","text":"Вакансия: Java developer \n \nПроект: Разрабатываем единый веб-терминал MOEX Treasury, который позволит получить быстрый и удобный доступ ко всем рынкам Московской Биржи, а также сервисам по управлению обеспечением и внебиржевым операциям. Это не просто веб-интерфейс к уже существующим торговым системам, а новая платформа, которая взаимодействует со всеми основными торговыми и бэк-офисными системами Биржи, которая сейчас начинает активно развиваться.\n \nТехнологический стек на проекте: Java 8, Spring (Spring Boot, Spring MVC), Hazelcast, WebSocket, RabbitMQ, Firebird (с переходом на PostgreSQL), в интеграционных решения REST API и JMS.\n \nЗадачи на проекте:\n Участие в проекте по разработке платформы, объединяющей основные рынки и инструменты Московской Биржи;\n Разработка и отладка модулей платформы;\n Интеграция приложения с внешними и внутренними сервисами;\n Написание понятного и стабильно работающего кода;\n Активное взаимодействие со специалистами из смежных подразделений;\n Поиск и аргументация технически эффективных путей решения бизнес задач;\n Умение и желание писать чистый и понятный код;\n Навык написания unit и интеграционных тестов на Java;\n Паттерны проектирования.\n\nЧто ожидаем от Вас:\n Опыт промышленной разработки (от 3 лет);\n\nФундаментальные знания принципов построения распределенных систем;\n Уверенные знания core Java;\n Опыт разработки веб-сервисов;\n Знание паттернов проектирования;\n Применение практик TDD, DDD, CI/CD.\n\nНаши условия работы:\n• Компания: ПАО Московская биржа (Компания, входящая в 500 - лучших работодателей мира по версии Forbes за 2019 год);\n• Офис в центре: г. Москва, м. Арбатская/Библиотека им. Ленина/Боровицкая/Александровский сад;\n• Занятость: полная, официальное оформление в штат компании (оформление онлайн);\n• Формат работы: современный  офис возле Кремля в шаговой доступности от метро (на данный момент работаем удаленно из дома);\n• ДМС: с первого рабочего дня;\n• Свой «корпоративный университет», собственный лекторий, широкие возможности обучения – как внутри, так и вне компании;\n• Уровень з/п:  230 - 290 тыс.руб. (gross) + годовой бонус (25% от годового дохода);\n• Формат интервью: 1 этап онлайн интервью (60 минут).\n\nПишите в личку, отвечу на любые вопросы!\nКонтакты: @Sasha_P92\nAlexander.Panin@moex.com","markup":[{"type":"bold","offset":0,"length":25,"data":""},{"type":"bold","offset":28,"length":8,"data":""},{"type":"bold","offset":455,"length":33,"data":""},{"type":"bold","offset":643,"length":18,"data":""},{"type":"bold","offset":1188,"length":19,"data":""},{"type":"bold","offset":1450,"length":20,"data":""},{"type":"bold","offset":1744,"length":19,"data":""},{"type":"handle","offset":2233,"length":10,"data":"Sasha_P92"},{"type":"link","offset":2244,"length":24,"data":"mailto:Alexander.Panin@moex.com"}],"date":"2020-06-26T17:13:07+00:00","link":"tg://resolve?domain=jvmjobs&post=1666","tags":[{"name":"java"},{"name":"jvm"},{"name":"spring"},{"name":"websocket"},{"name":"rabbitmq"},{"name":"postgresql"},{"name":"rest"},{"name":"spring-boot"},{"name":"spring-mvc"}],"cities":[{"code":"moscow"}],"allowsRemote":true}},{"node":{"__typename":"Job","id":"72065482752-1001054966032","title":"Ios разработчик","text":"#вакансия #swift #objective-C #ios\n\niOS разработчик удаленно по России \nmiddle/senior\n\nГород : Санкт-Петербург\nФормат работы: офис или удаленно\nЗанятость: Полная\nЗарплатная вилка:  90 000 - 200 000 руб\n\n\nОписание компании:\nВ Blogman мы занимаемся разработкой собственного приложения – платформа для блогеров и рекламодателей. В нашей команде уже более 50 разработчиков и мы продолжаем расти. Сейчас мы ищем инженера с опытом коммерческой разработки под iOS.\nОсновной стек технологий — Swift, Realm, Alamofire. Сейчас мы разрабатываем бизнес-функционал и будем рады новому специалисту в нашей команде, вместе с которым мы будем делать быстрое приложение с отзывчивым и плавным интерфейсом.\n\nМы ожидаем, что у вас есть:\n— Опыт коммерческой разработки мобильных приложений под iOS;\n— Хорошие знания Swift, UIKit;\n— Опыт работы с мобильными БД;\n— Умение работать с Git, Cocoapods.\n\nБудет плюсом, если вы:\n— Разрабатывали клиент-серверные приложения;\n— Умеете работать с WebSocket;\n— Знаете и понимаете архитектуру VIPER;\n— Командный игрок без яркого эгоцентризма;\n— Готовы активно принимать участие в жизни компании и продукта.\n\nРады предложить:\n– Удаленное сотрудничество или комфортный офис на Невском проспекте в 5 минутах ходьбы от ст. м. Маяковская и Владимирская;\n– Желаемый оклад по результатам собеседования;\n– Понятную систему роста зарплаты каждые 6 месяцев, в которой все зависит только от вас;\n– Все необходимые офисные блага вроде вкусного кофе и т.д.\nВас будут окружать адекватные люди, с которыми комфортно решать поставленные задачи. У сотрудников есть общие ценности, такие как стремление к качественному результату, забота о продукте и желание двигаться вперед. Также у нас нет “Начальства”, а есть коллеги. Все взаимодействуют горизонтально и в команде равенство между инженерами, стейкхолдером, продактом и т.д. Все работают бок о бок и делают одно общее дело.\nНазвание компании: Blogman\nКонтакты: @maria_golovina","markup":[{"type":"hashtag","offset":0,"length":9,"data":"вакансия"},{"type":"hashtag","offset":10,"length":6,"data":"swift"},{"type":"hashtag","offset":17,"length":10,"data":"objective"},{"type":"hashtag","offset":30,"length":4,"data":"ios"},{"type":"bold","offset":225,"length":8,"data":""},{"type":"bold","offset":490,"length":2,"data":""},{"type":"bold","offset":497,"length":2,"data":""},{"type":"bold","offset":690,"length":27,"data":""},{"type":"bold","offset":878,"length":22,"data":""},{"type":"bold","offset":1125,"length":16,"data":""},{"type":"handle","offset":1914,"length":15,"data":"maria_golovina"}],"date":"2020-06-26T07:38:07+00:00","link":"tg://resolve?domain=mobile_jobs&post=68727","tags":[{"name":"mobile"},{"name":"ios"},{"name":"swift"},{"name":"objective-c"},{"name":"realm"},{"name":"uikit"},{"name":"git"},{"name":"cocoapods"},{"name":"websocket"}],"cities":[],"allowsRemote":true}},{"node":{"__typename":"Job","id":"103630766080-1001089317451","title":"Qa engineer","text":"#hr #вакансия #QA #Москва #командасобранасамимбоженькой\n\n🔴 Xena Exchange - профессиональная торговая платформа для профессиональных трейдеров и институциональных инвесторов. \n🔍 Ищем QA Engineer\n\n✔️ Задачи: \n1- Создавать стратегии тестирования/тест-планы для верификации качества функциональности продукта;\n2- Выполнять ручное тестирование;\n3- Выполнять автоматизированное интеграционное тестирование;\n4- Проводить нагрузочное тестирование.\n\n✔️ Супер, если: \nИмеешь опыт тест-дизайна, планирования и управления тестированием;\nПонимаешь принципы работы веб-приложений и API, имеешь опыт автоматизированного тестирования REST и WebSocket API с применением любых языков и фреймворков;\nИмеешь опыт проведения нагрузочных тестов;\nСпособен анализировать логи и выяснять root-cause ошибок;\nЗнаком с микросервисной архитектурой;\nМожешь применять для автоматизации Bash, Python;\nИмеешь опыт работы с middleware - PostgreSQL, RabbitMQ, Kafka, Redis;\n\n✔️ Условия:\n- покупаем всю технику которая нужна вам для продуктивной работы; \n- у нас сплоченный коллектив профессионалов с серьезным бэкраундом\nгибкий график, время не трекаем, главное - результат\n- Интересные задачи, возможность применить и прокачать скилы в создании высоконагруженных сервисов\n\n✔️ Доп. информация: \nзарплатная вилка обсуждаема, от 170к до 240к 💸 (в зависимости от уровня)\n\nЗа подробной инфой го в личку @anastaysha163 или @anastaysha164","markup":[{"type":"hashtag","offset":0,"length":3,"data":"hr"},{"type":"hashtag","offset":4,"length":9,"data":"вакансия"},{"type":"hashtag","offset":14,"length":3,"data":"QA"},{"type":"hashtag","offset":18,"length":7,"data":"Москва"},{"type":"hashtag","offset":26,"length":29,"data":"командасобранасамимбоженькой"},{"type":"handle","offset":1367,"length":14,"data":"anastaysha163"},{"type":"handle","offset":1386,"length":14,"data":"anastaysha164"}],"date":"2020-06-24T12:47:34+00:00","link":"tg://resolve?domain=qa_jobs&post=98830","tags":[{"name":"qa"},{"name":"rest"},{"name":"websocket"},{"name":"bash"},{"name":"python"},{"name":"postgresql"},{"name":"rabbitmq"},{"name":"kafka"},{"name":"redis"}],"cities":[{"code":"moscow"}],"allowsRemote":false}}]}}},"context":{}}