{"hash":"f5f6bf98bd95e769321482904cbbd488f77922fd","data":{"records":{"id":"nodejs","name":"nodejs","belongsTo":{"totalCount":122,"pageInfo":{"totalPages":13,"currentPage":10},"edges":[{"node":{"__typename":"Job","id":"16986931200-1001110946746","title":"Js разработчик","text":"#вакансия #berlin #remote #fulltime #react #english\n\n🔸 Город и адрес офиса: Берлин\n🔸 Формат работы: удалённо\n🔸 Занятость: полная\n🔸 Зарплатная вилка: от 2000$ до 3100$\n\n🔥 Описание вакансии:\nPaulCamper — marketplace для частных домов на колёсах (camper vans). Мы являемся крупнейшей camper-sharing платформой в Германии и активно выходим на другие рынки.\nhttps://paulcamper.com/\n\nМы ищем опытных разработчиков, готовых применять свои профессиональные навыки и развивать экспертизу в смежных областях. Вакансия открыта для нескольких команд, каждая из которых польностью отвечает за определенный этап на пути пользователя.\n\nFrontend stack: React, Redux, Saga, CSS Modules, cusom SSR for several NodeJS services including web, email and pdf renderers & React Native for the app. Подробнее https://stackshare.io/paulcamper/paulcamper\n\n🚀 Опыт:\nМинимум 3 года профессиональной программной разработки (из них 2+ на React стэке).\nЖелание работать над полным циклом решения в кросс-функциональной команде.\nАнглийский на уровне upper intermediate и выше для работы в интернациональном коллективе.\n\nКонтакты: https://paulcamper.orgos.io/frontend, @sergeizimakov\n\n—\n\n👉 Обсуждение вакансии в чате @javascript_jobs","markup":[{"type":"hashtag","offset":0,"length":9,"data":"вакансия"},{"type":"hashtag","offset":10,"length":7,"data":"berlin"},{"type":"hashtag","offset":18,"length":7,"data":"remote"},{"type":"hashtag","offset":26,"length":9,"data":"fulltime"},{"type":"hashtag","offset":36,"length":6,"data":"react"},{"type":"hashtag","offset":43,"length":8,"data":"english"},{"type":"link","offset":358,"length":23,"data":"https://paulcamper.com/"},{"type":"link","offset":790,"length":43,"data":"https://stackshare.io/paulcamper/paulcamper"},{"type":"link","offset":1103,"length":36,"data":"https://paulcamper.orgos.io/frontend"},{"type":"handle","offset":1141,"length":14,"data":"sergeizimakov"},{"type":"handle","offset":1190,"length":16,"data":"javascript_jobs"}],"date":"2020-06-16T19:29:26+00:00","link":"tg://resolve?domain=javascript_jobs_feed&post=0","tags":[{"name":"javascript"},{"name":"reactjs"},{"name":"redux"},{"name":"css"},{"name":"nodejs"},{"name":"web"},{"name":"react-redux"},{"name":"react-native"}],"cities":[{"code":"berlin"}],"allowsRemote":true}},{"node":{"__typename":"Job","id":"91035271168-1001067529236","title":"Python разработчик","text":"#вакансия #python\n\nНазвание компании: Appello, appello.com.au\nОписание вакансии: Ищем в команду Python разработчика, Django/Flask. Удаленно, на долгий срок.\n\n-Опыт работы с Python 3, Django REST Framework (DRF);\n-Знание MySQL/PostgreSQL;\n-Конечно же Git;\n-Знание других технологий будет плюсом (NodeJS, RoR, Symfony или другое);\n-Круто если вы участвовали в open-source проектах;\n-Ссылки на выполненные проекты и примеры вашего кода;\n-Возможность работать 30+ часов в неделю;\n\nУсловия работы: \nУдаленно, фуллтайм 30-40 часов в неделю.\nРабота происходит с таймтрекером. Выплаты на основе отработанного времени 2 раза в месяц.\nТехнологии: #python, #django\nОфис или удаленка: #удаленка\nЗанятость: #полная\n\nЗарплатная вилка: 1100-1900$\nКонтакты: jobs@appello.com.au @stpa3k","markup":[{"type":"hashtag","offset":0,"length":9,"data":"вакансия"},{"type":"hashtag","offset":10,"length":7,"data":"python"},{"type":"link","offset":47,"length":14,"data":"http://appello.com.au"},{"type":"hashtag","offset":637,"length":7,"data":"python"},{"type":"hashtag","offset":646,"length":7,"data":"django"},{"type":"hashtag","offset":673,"length":9,"data":"удаленка"},{"type":"hashtag","offset":694,"length":7,"data":"полная"},{"type":"link","offset":742,"length":19,"data":"mailto:jobs@appello.com.au"},{"type":"handle","offset":762,"length":7,"data":"stpa3k"}],"date":"2020-06-16T16:26:20+00:00","link":"tg://resolve?domain=python_jobs&post=0","tags":[{"name":"python"},{"name":"django"},{"name":"flask"},{"name":"rest"},{"name":"mysql"},{"name":"postgresql"},{"name":"git"},{"name":"nodejs"},{"name":"ruby-on-rails"},{"name":"symfony"}],"cities":[],"allowsRemote":true}},{"node":{"__typename":"Job","id":"16982736896-1001110946746","title":"Js разработчик","text":"#вакансия #удаленно #fullstack #JavaScript #NodeJS #Vue\n\nГород: г. Москва, Сколково, б-р Большой\nФорма работы: удаленка\nЗанятость: полная\nЗарплатная вилка: от 120000 до 200000 рублей\nНазвание компании: ADMON\n\nВ связи с расширением штата, компания ADMON приглашает Senior Full-stack JavaScript-разработчиков, готовых стать полноценными членами нашей команды на удаленной основе или в Новосибирском офисе. ADMON – одна из ведущих российских компаний по предотвращению и расследованию мошенничества в сфере рекламы в Интернете и на мобильных устройствах с использованием высоких технологий. Основные направления деятельности компании: мониторинг и предотвращение мошенничества, аудит рекламных кампаний, разработка инновационных программных продуктов по мониторингу, обнаружению и предотвращению возникающих видов мошенничества.\n\nСтек технологий:\nNode.JS, Vue, GraphQl, Jest, Redis, Clickhouse, PostgreSQL, Docker.\n\nЧто используем в работе:\n    - Jira (Kanban), Confluence;\n   - Храним код в Gitlab, тут же CI/CD;\n    -Практикуем code review, политику частых релизов, гибкие методологии разработки;\n    -Мониторим состояние приложений с помощью: Zabbix, Grafana.\n\nВ задачи будет входить:\n    - Улучшать имеющийся функционал и разрабатывать новый (Система нотификаций, Обработка платежей, Алгоритмы атрибуции, Ads Crawler и т.д.);\n    - Писать тесты и рефакторить кодовую базу;\n    - Участвовать в принятии архитектурных решений;\n    - Работать как в составе команды, так и в одного над небольшими проектами;\n    - Участвовать в коммуникации с командой;\n    - Быть инициативным и предлагать свои идеи, в том числе, если это касается использования новых технологий — проводить code review.\n\nЧто мы предлагаем:\n    - Профессионализм, взаимопомощь и наставничество;\n    - Гибкий график;\n    - Удаленная работа;\n    - Возможность работать как в составе команды, так и возглавить со временем свое направление — мы готовы обсуждать любые ваши идеи. \n\n Контакты:@juliajudina2810\n\n—\n\n👉 Обсуждение вакансии в чате @javascript_jobs","markup":[{"type":"hashtag","offset":0,"length":9,"data":"вакансия"},{"type":"hashtag","offset":10,"length":9,"data":"удаленно"},{"type":"hashtag","offset":20,"length":10,"data":"fullstack"},{"type":"hashtag","offset":31,"length":11,"data":"JavaScript"},{"type":"hashtag","offset":43,"length":7,"data":"NodeJS"},{"type":"hashtag","offset":51,"length":4,"data":"Vue"},{"type":"handle","offset":1961,"length":16,"data":"juliajudina2810"},{"type":"handle","offset":2012,"length":16,"data":"javascript_jobs"}],"date":"2020-06-16T12:57:50+00:00","link":"tg://resolve?domain=javascript_jobs_feed&post=0","tags":[{"name":"javascript"},{"name":"nodejs"},{"name":"vuejs"},{"name":"graphql"},{"name":"redis"},{"name":"postgresql"},{"name":"docker"},{"name":"gitlab"}],"cities":[{"code":"moscow"}],"allowsRemote":true}},{"node":{"__typename":"Job","id":"16977494016-1001110946746","title":"Js разработчик","text":"Всем привет.\nИщу Тимлид/Техлид команды в компанию bianca.\nС опытом TypeScript от 2-х лет, NodeJS от 3-х лет и Angular или React от 2-х лет.\n\nСеть химчисток Bianca-city это крупная сеть.\nУ нас предстоит развитие нескольких продуктов:  - собственной логистической платформы на Yandex.Routing - производственного модуля - CRM - клиентского мобильного приложения.\n\nЧто предстоит делать\n1) Технический аудит текущих проектов (инхаус + аутсорс), выработка первичной стратегии разработки, с учетом пожеланий бизнеса\n2) Обсуждение с СЕО и декомпозиция задач для текущей команды\n3) Контроль качества аутсорс-проектов\n4) Расширение инхаус-команды и аккумуляция задач на внутренних ресурсах\n\nФункционал: \n-управление командой 3 чел\n-контроль разработки от 2 аутсорсеров (мобайл+розничный блок)\n-интерес к продуктовой аналитике и улучшениям продукта\n\nЧто нужно уметь\nЗнания Node.js на уровне Senior\nFrontend –React/TypeScript/Angular и др.\nопыт постановки задач, код-ревью\nПожелания: развитые софт-скиллы для общения с собственником\n\nУсловия и преимущества \nБесплатные (неограниченно) услуги химчистки \nГрафик 5/2 с 10 до 19, возможно подвигать, возможно часть удаленно \n\n\nФормат работы: Работа в офисе у метро Электрозаводская (200 метров от метро). \nЗанятость: Полная. оформление по ТК РФ (возможность оформления через ИП)\nЗарплатная вилка: 200 000–300 000 ₽ / мес\n\n#вакансия #Frontend #Backend #TypeScript #NodeJS #Angular #МСК #офис #js #javascript #Fullstack\n\n—\n\n👉 Обсуждение вакансии в чате @javascript_jobs","markup":[{"type":"hashtag","offset":1356,"length":9,"data":"вакансия"},{"type":"hashtag","offset":1366,"length":9,"data":"Frontend"},{"type":"hashtag","offset":1376,"length":8,"data":"Backend"},{"type":"hashtag","offset":1385,"length":11,"data":"TypeScript"},{"type":"hashtag","offset":1397,"length":7,"data":"NodeJS"},{"type":"hashtag","offset":1405,"length":8,"data":"Angular"},{"type":"hashtag","offset":1414,"length":4,"data":"МСК"},{"type":"hashtag","offset":1419,"length":5,"data":"офис"},{"type":"hashtag","offset":1425,"length":3,"data":"js"},{"type":"hashtag","offset":1429,"length":11,"data":"javascript"},{"type":"hashtag","offset":1441,"length":10,"data":"Fullstack"},{"type":"handle","offset":1486,"length":16,"data":"javascript_jobs"}],"date":"2020-06-16T11:45:58+00:00","link":"tg://resolve?domain=javascript_jobs_feed&post=0","tags":[{"name":"javascript"},{"name":"typescript"},{"name":"nodejs"},{"name":"angularjs"},{"name":"reactjs"}],"cities":[],"allowsRemote":true}},{"node":{"__typename":"Job","id":"16972251136-1001110946746","title":"Js разработчик","text":"💥 💥 💥💣💣💣\n#вакансия #developer #Solidity #C++ #rust #senior #remote #удаленно #fulltime#blockchain#backend \n\nВ компании TON Labs открыта Вакансия Senior Backend developer \n\nФормат работы: #удаленка\nЗанятость: #полная\nОпыт: 5+лет\nЗарплатная вилка: $2000-$4000\n\nTON Labs - независимая международная IT-компания, которая занимается  разработкой решений на основе блокчейн-платформы TON, с командой из более 50 разработчиков, инженеров и профессионалов со всего мира.  Проект реализуется с нуля.\n\nWe are looking for all candidates to have:\n   Deep knowledge in one of the following languages: Node JS, Solidity, C++\n  Some experience in statically typed and/or purely functional programming languages\n  Experience working with document oriented or real time databases\n  Interest in blockchain development and crypto-currencies\n  Good level of technical English, ability to communicate in English\n\nОписание вакансии : https://hh.ru/vacancy/37280290\n\nНазвание компании: Ton Labs\nКонтакты: @Marina0733\nДля резюме: marina.k@tonlabs.io\n\n—\n\n👉 Обсуждение вакансии в чате @javascript_jobs","markup":[{"type":"hashtag","offset":15,"length":9,"data":"вакансия"},{"type":"hashtag","offset":25,"length":10,"data":"developer"},{"type":"hashtag","offset":36,"length":9,"data":"Solidity"},{"type":"hashtag","offset":46,"length":2,"data":"C"},{"type":"hashtag","offset":51,"length":5,"data":"rust"},{"type":"hashtag","offset":57,"length":7,"data":"senior"},{"type":"hashtag","offset":65,"length":7,"data":"remote"},{"type":"hashtag","offset":73,"length":9,"data":"удаленно"},{"type":"hashtag","offset":193,"length":9,"data":"удаленка"},{"type":"hashtag","offset":214,"length":7,"data":"полная"},{"type":"link","offset":918,"length":30,"data":"https://hh.ru/vacancy/37280290"},{"type":"handle","offset":988,"length":11,"data":"Marina0733"},{"type":"link","offset":1012,"length":19,"data":"mailto:marina.k@tonlabs.io"},{"type":"handle","offset":1066,"length":16,"data":"javascript_jobs"}],"date":"2020-06-16T11:38:06+00:00","link":"tg://resolve?domain=javascript_jobs_feed&post=0","tags":[{"name":"javascript"},{"name":"rust"},{"name":"nodejs"}],"cities":[],"allowsRemote":true}},{"node":{"__typename":"Job","id":"16971202560-1001110946746","title":"Js developer","text":"#вакансия\nГород и адрес офиса: Эйлат, Израиль\nФормат работы: удаленка\nЗанятость: полная\nЗарплатная вилка: (оба значения обязательны) от 1500$ до 3000$ net\nОписание вакансии:\n\nhttps://trucknet.io/en/open-positions/middle-senior-backend-typescript-developer/\n\nWho are we looking for\nWe are looking for a Backend Developer to join our R&D department in Eilat, Israel. Have you ever dreamed of working with a small and capable team in a coastal town on the southern edge of the Negev Desert? Are you interested in creating an eco-friendly product in a domain of logistics and transportation, solving mysteries problems and facing new challenges? If so, the Trucknet team is just the place for you!\nResponsibilities\n • Implementing new features and providing support for various microservices.\n • Proposing, brainstorming and carrying out refactoring to improve the internal structure of our software.\n • Improving the developer experience by constantly bettering our toolbox.\n • Advancing deployment/integration infrastructure.\nRequirements\n • 3+ years of professional experience with backend development.\n • Acquaintance with Typescript, OOP Javascript, NodeJS.\n • Acquaintance with MongoDB and experience with databases in general.\n • Practical skills in software architecture and software design.\nAdvantages\n • Knowledge of Docker and Kubernetes.\n • Understanding the concept of horizontal scaling and what limitations it does impose on the application.\n • Strong knowledge of MongoDB, PostgreSQL.\n • Experience with CI/CD (we use GitLab CI).\n • Experience with test-driven development.\n • Experience with AWS.\n\n\nНазвание компании: Trucknet (https://trucknet.io/)\nКонтакты: @g000seman alex@trucknet.io\n\n—\n\n👉 Обсуждение вакансии в чате @javascript_jobs","markup":[{"type":"hashtag","offset":0,"length":9,"data":"вакансия"},{"type":"link","offset":175,"length":81,"data":"https://trucknet.io/en/open-positions/middle-senior-backend-typescript-developer/"},{"type":"link","offset":1641,"length":20,"data":"https://trucknet.io/"},{"type":"handle","offset":1673,"length":10,"data":"g000seman"},{"type":"link","offset":1684,"length":16,"data":"mailto:alex@trucknet.io"},{"type":"handle","offset":1735,"length":16,"data":"javascript_jobs"}],"date":"2020-06-16T11:37:40+00:00","link":"tg://resolve?domain=javascript_jobs_feed&post=0","tags":[{"name":"javascript"},{"name":"dotnet"},{"name":"typescript"},{"name":"deployment"},{"name":"nodejs"},{"name":"mongodb"},{"name":"docker"},{"name":"kubernetes"},{"name":"postgresql"},{"name":"gitlab"},{"name":"amazon-web-services"}],"cities":[],"allowsRemote":true}},{"node":{"__typename":"Job","id":"16970153984-1001110946746","title":"Js разработчик","text":"#вакансия #удаленка #fulltime #frontend #vue #nuxt #react\n\nКомпания: webland.design\nПозиция: frontend разарботчик\nФормат работы: удалённый, fulltime\n\nЗарплатная вилка: от 70 до 100 т.р на руки \n\nЗадачи:\n• Разработка веб-интерфейсов на vue.js/React\n• Активное участие в обсуждении задач.\n• Разработка нового функционала.\n• Доработка/Оптимизация существующего функционала.\n\nТребования:\n• Уверенное знание Javascript (ES6+)\n• Обязательное понимание экосистемы Vue/VueRouter/Vuex\n• Понимание принципов построения архитектуры большого приложения и принципов компонентного подхода.\n• Умение делать качественную кросс-браузерную адаптивную верстку (SCSS).\n• Опыт работы с Webpack и Babel.\n• Опыт работы с REST API\n\nБудет супер, если:\n•  Есть понимание принципов pixel perfect\n• Опыт использования серверного рендеринга (SSR) с использованием Nuxt.js.\n• Коммерческий опыт работы c React (Redux or Mobx)\n• Есть ИП или статус самозанятого\n\nСтек: \n• HTML5/JS/SCSS\n• Vue.js и/или React\n• Webpack/Babel\n• php или node.js REST API\n\nКонтакт: @alex_project\n\n—\n\n👉 Обсуждение вакансии в чате @javascript_jobs","markup":[{"type":"hashtag","offset":0,"length":9,"data":"вакансия"},{"type":"hashtag","offset":10,"length":9,"data":"удаленка"},{"type":"hashtag","offset":20,"length":9,"data":"fulltime"},{"type":"hashtag","offset":30,"length":9,"data":"frontend"},{"type":"hashtag","offset":40,"length":4,"data":"vue"},{"type":"hashtag","offset":45,"length":5,"data":"nuxt"},{"type":"hashtag","offset":51,"length":6,"data":"react"},{"type":"link","offset":69,"length":14,"data":"http://webland.design"},{"type":"handle","offset":1027,"length":13,"data":"alex_project"},{"type":"handle","offset":1075,"length":16,"data":"javascript_jobs"}],"date":"2020-06-16T10:19:35+00:00","link":"tg://resolve?domain=javascript_jobs_feed&post=0","tags":[{"name":"javascript"},{"name":"vuejs"},{"name":"reactjs"},{"name":"webpack"},{"name":"rest"},{"name":"redux"},{"name":"html"},{"name":"php"},{"name":"nodejs"},{"name":"react-redux"}],"cities":[],"allowsRemote":true}},{"node":{"__typename":"Job","id":"16954425344-1001110946746","title":"Js разработчик","text":"#вакансия #удалённо #nestjs #nest #fullstack #typescript \n\nFullstack TypeScript Developer\n\nhttps://edm-ghost-production.com ищет в команду разработчика для создания музыкальной платформы. \n\n⭐Стек: \nNode.Js, TypeScript, Express, NestJS, TypeOrm, PostgreSQL, Redis, Vue \n\n🔻 Требования:\n- Опыт работы с NestJS (не менее 6 месяцев), TypeOrm;\n- Опыт работы с Vue (vue-class-component, vue-property-decorator) не менее года\n- Знания ES6/ES7/ES8;\n- REST APIs, на основе Express и NestJS;\n- Опыт работы с PostgreSQL; \n- Typescript (не менее года)\n- ESLint;\n- Знание основ систем контроля версий (Git);\n- Умение работать в команде и писать чистый код;\n\n💥Будет плюсом:\n- AWS S3;\n- Интеграция с Helpdesk (Zendesk/Intercom/Helpcrunch etc.)\n\n🙋♂Обязанности:\n- Разработка бэкенда и фронтэнда нового приложения \n- Взаимодействие с другими разработчиками\n\n🔹Условия:\n- Удалённая работа\n- Полная занятость \n- Гибкий график работы (важно что бы все задачи были выполнены)\n- Зарплатная вилка 120 000 - 200 000 рублей (в зависимости от уровня кандидата middle/senior)\n\nПрисылайте CV в ЛС @alexlarichev","markup":[{"type":"hashtag","offset":0,"length":9,"data":"вакансия"},{"type":"hashtag","offset":10,"length":9,"data":"удалённо"},{"type":"hashtag","offset":20,"length":7,"data":"nestjs"},{"type":"hashtag","offset":28,"length":5,"data":"nest"},{"type":"hashtag","offset":34,"length":10,"data":"fullstack"},{"type":"hashtag","offset":45,"length":11,"data":"typescript"},{"type":"link","offset":91,"length":32,"data":"https://edm-ghost-production.com"},{"type":"handle","offset":1070,"length":13,"data":"alexlarichev"}],"date":"2020-06-16T06:34:02+00:00","link":"tg://resolve?domain=javascript_jobs_feed&post=0","tags":[{"name":"javascript"},{"name":"typescript"},{"name":"nodejs"},{"name":"express"},{"name":"postgresql"},{"name":"redis"},{"name":"vuejs"},{"name":"rest"},{"name":"git"},{"name":"amazon-web-services"}],"cities":[],"allowsRemote":true}},{"node":{"__typename":"Job","id":"16948133888-1001110946746","title":"Js разработчик","text":"#вакансия #удаленка #gamedev #геймдев #job #работа #JavaScript #WebGL #AR #8thwall #React #JS  #ReactNative #WebAR \n\n🔹 Название компании: https://twin3d.ru\n🔹 Город и адрес офиса: Москва\n🔹 Формат работы: Удаленка, проектная работа\n🔹 Занятость: На полный рабочий день (2 месяца)\n🔹 Зарплатная вилка: 100 000 - 150 000 руб\n\n🔥 Описание вакансии: React Native + JavaScript Frontend или Fullstack разработчик на игровой WebAR проект на iOS и Android (safari, chrome, opera).\nУдаленно, полный рабочий день, проектно на 2+ месяца.\n\n🛎 Требования:\n- JavaScript, а именно three.js, ar.js, node.js\n- React Native\n- Опыт c AR и мобильными игровыми проектами будет огромным плюсом\n- Опыт работы с Web проектами\n- Опыт сборки в приложение 3D моделей и анимаций\n- Уровень Middle или Senior\n- Опыт коммерческой разработки +3 года\n- Наличие портфолио - ссылок на успешно реализованные проекты\n\n💻 Обязанности:\n- Разработать архитектуру приложения\n- Коммуникация с беком на стороне заказчика\n- Верстка/сборка дизайна приложения (адаптивная)\n- Настройка логики\n- Интеграция в приложение и настройка 3D моделей, анимаций\n- Сопровождение проекта после релиза, до завершения промо кампании (+4 месяца) без активной разработки (будем оплачивать почасово или по задачам)\n\n☎️ Контакты: присылайте ссылки на реализованные проекты и финансовые ожидания в телеграм: @shemetvlad","markup":[{"type":"hashtag","offset":0,"length":9,"data":"вакансия"},{"type":"hashtag","offset":10,"length":9,"data":"удаленка"},{"type":"hashtag","offset":20,"length":8,"data":"gamedev"},{"type":"hashtag","offset":29,"length":8,"data":"геймдев"},{"type":"hashtag","offset":38,"length":4,"data":"job"},{"type":"hashtag","offset":43,"length":7,"data":"работа"},{"type":"hashtag","offset":51,"length":11,"data":"JavaScript"},{"type":"hashtag","offset":63,"length":6,"data":"WebGL"},{"type":"hashtag","offset":70,"length":3,"data":"AR"},{"type":"hashtag","offset":74,"length":8,"data":"8thwall"},{"type":"hashtag","offset":83,"length":6,"data":"React"},{"type":"hashtag","offset":90,"length":3,"data":"JS"},{"type":"hashtag","offset":95,"length":12,"data":"ReactNative"},{"type":"hashtag","offset":108,"length":6,"data":"WebAR"},{"type":"link","offset":139,"length":17,"data":"https://twin3d.ru"},{"type":"handle","offset":1343,"length":11,"data":"shemetvlad"}],"date":"2020-06-15T18:52:35+00:00","link":"tg://resolve?domain=javascript_jobs_feed&post=0","tags":[{"name":"javascript"},{"name":"reactjs"},{"name":"ios"},{"name":"android"},{"name":"safari"},{"name":"nodejs"},{"name":"web"},{"name":"react-native"}],"cities":[{"code":"moscow"}],"allowsRemote":true}},{"node":{"__typename":"Job","id":"16943939584-1001110946746","title":"Js разработчик","text":"#вакансия #remote #Javascript #React #Node.js\n\nЛокация: из любой точки мира\nФормат работы: удаленно\nЗанятость: от 8 часов/неделю\nЗаработная плата: от 20-000 до 100.000 рублей (нетто), заработная плата складывается из количества проверенных проектов\n\nОписание вакансии: Яндекс.Практикум — сервис онлайн-образования, ежемесячно запускает обучение по направлению веб-разработки. Нам требуется Code reviewer (HTML, CSS, JavaScript) со знанием английского языка. Код-ревьер проверяет написанный студентом международного потока код и даёт обратную связь на английском языке. Код-ревьюер решает: зачесть задание или нет. Также он даёт советы по улучшению кода, отмечает неточности, указывает на ошибки. Вся коммуникация проходит на английском языке.м. Примерная занятость - от 8 часов в неделю (но можно и больше :) Рабочий язык - английский.\nТребования:\n✔Опыт работы веб-разработчиком от одного года;\n✔ Знание HTML, CSS, JavaScript и Node.js;\n✔ Умение грамотно писать на английском языке;\n✔ Готовность посвящать проекту минимум восемь часов в неделю.\n\nНазвание компании: Яндекс.Практикум https://practicum.yandex.com/\n\nКонтакты: чтобы откликнуться, отправьте резюме с пометкой на какую позицию вы претендуете на адрес ilinovamarian@yandex-team.ru","markup":[{"type":"hashtag","offset":0,"length":9,"data":"вакансия"},{"type":"hashtag","offset":10,"length":7,"data":"remote"},{"type":"hashtag","offset":18,"length":11,"data":"Javascript"},{"type":"hashtag","offset":30,"length":6,"data":"React"},{"type":"hashtag","offset":37,"length":5,"data":"Node"},{"type":"link","offset":1082,"length":29,"data":"https://practicum.yandex.com/"},{"type":"link","offset":1212,"length":28,"data":"mailto:ilinovamarian@yandex-team.ru"}],"date":"2020-06-15T18:42:02+00:00","link":"tg://resolve?domain=javascript_jobs_feed&post=0","tags":[{"name":"javascript"},{"name":"reactjs"},{"name":"nodejs"},{"name":"html"},{"name":"css"}],"cities":[],"allowsRemote":true}}]}}},"context":{}}