{"hash":"f5f6bf98bd95e769321482904cbbd488f77922fd","data":{"records":{"id":"mobile","name":"mobile","belongsTo":{"totalCount":307,"pageInfo":{"totalPages":31,"currentPage":14},"edges":[{"node":{"__typename":"Job","id":"72013053952-1001054966032","title":"Ios developer","text":"#вакансия #ios #swift #fulltime #spb\n\niOS developer (Senior/Middle), в офис, Санкт-Петербург\n\nЗ/п: 2000-3500$\n\nLifestyle Production Group - американская компания, лидер в индустрии видеомаркетинга элитного сегмента \nhttps://lifestyleproduction.com\n\nЧто нужно делать:\n🔹Разработка внутреннего продукта компании в сфере видеоредактирования\n🔹Тесное сотрудничество с Product Owner — человеком, досконально знающим все технические детали проекта\n🔹Участие в работе над продуктом компании с самых первых этапов формирования команды\n\nДля нас важно: \n ✔️Опыт коммерческой разработки\n ✔️Практический опыт работы с многопоточностью и autolayout\n ✔️Наличие примеров кода\n\nЧто предлагаем:\n 🔸Работа над быстро развивающимся, востребованным продуктом в перспективной индустрии\n🔸Работа на иностранный рынок\n🔸Общение с единомышленниками, обмен опытом и идеями с профессионалами в своем деле, изучение новых навыков в позитивной, комфортной среде\n🔸Отсутствие бюрократии, гибкий, слаженный внутренний процесс с эффективным менеджментом\n🔸Корпоративное оборудование, индивидуальная комплектация рабочего места\n🔸Good energy vibes\n\nКонтакты: @nadipakhomova\nnadya@lifestyleproduction.com","markup":[{"type":"hashtag","offset":0,"length":9,"data":"вакансия"},{"type":"hashtag","offset":10,"length":4,"data":"ios"},{"type":"hashtag","offset":15,"length":6,"data":"swift"},{"type":"hashtag","offset":22,"length":9,"data":"fulltime"},{"type":"hashtag","offset":32,"length":4,"data":"spb"},{"type":"bold","offset":38,"length":29,"data":""},{"type":"bold","offset":94,"length":16,"data":""},{"type":"link","offset":216,"length":31,"data":"https://lifestyleproduction.com"},{"type":"bold","offset":249,"length":20,"data":""},{"type":"bold","offset":528,"length":16,"data":""},{"type":"bold","offset":662,"length":16,"data":""},{"type":"handle","offset":1127,"length":14,"data":"nadipakhomova"},{"type":"link","offset":1142,"length":29,"data":"mailto:nadya@lifestyleproduction.com"}],"date":"2020-06-25T11:02:17+00:00","link":"tg://resolve?domain=mobile_jobs&post=68677","tags":[{"name":"mobile"},{"name":"ios"},{"name":"swift"}],"cities":[],"allowsRemote":false}},{"node":{"__typename":"Job","id":"103702069248-1001089317451","title":"Qa инженер","text":"#вакансия #fulltime #QA  #mobile #automation #СПБ \nВсем привет! \nИщем QA mobile.\nЛокация: Санкт-Петербург\nФормат работы: офис (пока карантин - работа удаленно)\nГрафик: 5/2 с гибким началом рабочего дня. \nЗанятость: полная\n💶 Зарплатная вилка: от 160К до 200К на руки (суммы в рублях/месяц). Если ожидания выше - пишите, обсудим. \n\n🧰Мы: 4xxi.com (разработка разных сложных  технологических проектов (веб, мобильные истории IOS/Android, чаще всего стартапов). 90% проектов приходится на зарубежный рынок (США, Англия).\n\n🏠3 офиса: Лондон, Санкт-Петербург, Саранск. \nВся разработка в России. \n\n🍩 Плюшки: \n✔️оформление по ТК РФ (мы белые полностью);\n✔️уроки английского языка;\n✔️ДМС;\n✔️спортивные мероприятия;\n✔️обучение и развитие;\n✔️офис в центре города в стиле лофт, м.Горьковская;\n✔️кухня, забитая вкусняшками;\n\nНаши ожидания: \n✔️опыт автоматизации клиент-серверных приложений (Web и/или Mobile - преимущественно) более 2 лет\n✔️знание англ на уровне чтения тех. документации и выше (все доки на англ)\n✔️Flutter driver, Dart или желание быстро изучить и применять\n\nБольшим плюсом будет опыт работы с:\n✔️Приложения с микро-сервисной архитектурой\n\n\nПишите и присылайте свои резюме:  vyangurskaya@4xxi.com, @vyangurskaya","markup":[{"type":"hashtag","offset":0,"length":9,"data":"вакансия"},{"type":"hashtag","offset":10,"length":9,"data":"fulltime"},{"type":"hashtag","offset":20,"length":3,"data":"QA"},{"type":"hashtag","offset":25,"length":7,"data":"mobile"},{"type":"hashtag","offset":33,"length":11,"data":"automation"},{"type":"hashtag","offset":45,"length":4,"data":"СПБ"},{"type":"link","offset":337,"length":8,"data":"http://4xxi.com"},{"type":"link","offset":1182,"length":21,"data":"mailto:vyangurskaya@4xxi.com"},{"type":"handle","offset":1205,"length":13,"data":"vyangurskaya"}],"date":"2020-06-25T10:49:23+00:00","link":"tg://resolve?domain=qa_jobs&post=98898","tags":[{"name":"qa"},{"name":"mobile"},{"name":"ios"},{"name":"android"},{"name":"web"},{"name":"flutter"},{"name":"dart"}],"cities":[{"code":"london"},{"code":"saransk"}],"allowsRemote":true}},{"node":{"__typename":"Job","id":"72004665344-1001054966032","title":"Android разработчик","text":"#вакансия #работа #Санкт_Петербург #Пермь #Казань  #middle #Android #Kotlin #RxJava\nГород: Санкт-Петербург, Казань, Пермь\nФормат работы: Офис (пока удаленка)\nЗанятость: Полная\nЗарплатная вилка от 120 net до 200 net  (зависит от уровня)\nКомпания: https://stream.ru/\nКонтакты: @Ntsama_IT\n\nМы Stream - делаем классные и реально удобные продукты для людей. 📣Сейчас находимся в поиске Android разработчика.📱\n\nСейчас у нас есть несколько проектов, куда мы ищем разработчиков. Подробнее по вакансиям здесь:\nhttps://spb.hh.ru/vacancy/37445336\nhttps://spb.hh.ru/vacancy/37365465\n\nМы ждём: \n🔹опыт разработки как на Kotlin, так и на Java;\n🔹опыт в работе с RxJava;\n\nУсловия:\n✅Гибкий график\n✅ДМС со стоматологией\n✅Компенсация мобильной связи\n✅Официальное оформление и \"белая\" зарплата + премии сверху оклада\n✅Возможность дополнительного обучения\nКонтакты: telegram - @Ntsama_IT \nпочта: eivanova@stream.ru","markup":[{"type":"hashtag","offset":0,"length":9,"data":"вакансия"},{"type":"hashtag","offset":10,"length":7,"data":"работа"},{"type":"hashtag","offset":18,"length":16,"data":"Санкт_Петербург"},{"type":"hashtag","offset":35,"length":6,"data":"Пермь"},{"type":"hashtag","offset":42,"length":7,"data":"Казань"},{"type":"hashtag","offset":51,"length":7,"data":"middle"},{"type":"hashtag","offset":59,"length":8,"data":"Android"},{"type":"hashtag","offset":68,"length":7,"data":"Kotlin"},{"type":"hashtag","offset":76,"length":7,"data":"RxJava"},{"type":"link","offset":246,"length":18,"data":"https://stream.ru/"},{"type":"handle","offset":275,"length":10,"data":"Ntsama_IT"},{"type":"link","offset":502,"length":34,"data":"https://spb.hh.ru/vacancy/37445336"},{"type":"link","offset":537,"length":34,"data":"https://spb.hh.ru/vacancy/37365465"},{"type":"handle","offset":858,"length":10,"data":"Ntsama_IT"},{"type":"link","offset":877,"length":18,"data":"mailto:eivanova@stream.ru"}],"date":"2020-06-25T10:20:10+00:00","link":"tg://resolve?domain=mobile_jobs&post=68669","tags":[{"name":"mobile"},{"name":"android"},{"name":"kotlin"},{"name":"dotnet"},{"name":"java"}],"cities":[{"code":"perm"},{"code":"kazan"}],"allowsRemote":true}},{"node":{"__typename":"Job","id":"92275736576-1001067529236","title":"Python developer","text":"#вакансия #python #Django #vacancy #IT  #remote\n\nI’m looking for a very strong python developer to become one of key engineers for one of our clients. The client is a US-based startup developing revolutionary products in the Gaming and Lottery industries using NFC and SmartCard-based solutions. This role is extremely important for our client as it has the responsibility of coordinating with the whole team to provide a backend and APIs that support mobile and web clients, as well as third-party integrations.\n\nLocation: Remote\nJob Type: Full-time, contract\nIndustries: Technology, Gaming, Lottery\nLanguages: English, Russian\nPay Rate: $25/hr - $35/hr depending on experience\nProbationary Period: 1 month\nStart Date: ASAP\n\nQualifications\nBS in Information Systems, Engineering, other related discipline \n6-10 years Software Engineering experience\n4-6+ years of work experience developing in Python\n2-3+ years developing on the Django platform\nWorking experience with microservices architecture.\nSolid understanding of data structures, coding standards, best practices\nDevelopment experience in Cloud and DevSecOps environments\nExperience working with relational databases and various data formats and technologies.\nExperience with test-driven development\nExperience working in adaptive methodologies like Agile, DevOps and Scrum, etc.\nStrong written and communication skills required.\nMust be a self-starter/self-directed member of the team\nProficient with Git\nB2+ CEFR English level\n\nFor more information, write to the PM.","markup":[{"type":"hashtag","offset":0,"length":9,"data":"вакансия"},{"type":"hashtag","offset":10,"length":7,"data":"python"},{"type":"hashtag","offset":18,"length":7,"data":"Django"},{"type":"hashtag","offset":26,"length":8,"data":"vacancy"},{"type":"hashtag","offset":35,"length":3,"data":"IT"},{"type":"hashtag","offset":40,"length":7,"data":"remote"}],"date":"2020-06-25T10:09:29+00:00","link":"tg://resolve?domain=python_jobs&post=88001","tags":[{"name":"python"},{"name":"django"},{"name":"mobile"},{"name":"web"},{"name":"cloud"},{"name":"git"}],"cities":[],"allowsRemote":true}},{"node":{"__typename":"Job","id":"72002568192-1001054966032","title":"Android разработчик","text":"#вакансия #москва #офис #unity #developer #gamedev #csharp c#\n\nГород и адрес офиса: Москва, м.Автозаводская \nФормат работы: офис \nЗанятость: полная \nЗарплатная вилка: от 160 000 до 200 000 на руки \n\n📣 Unity Developer (gamedev)\n\n✅ Описание вакансии:\n\nAppQuantum - это успешная команда из 120 человек, которая занимается мобильным маркетингом, разработкой и паблишингом мобильных игр. Один из наших самых успешных проектов Idle Evil Clicker набрал за пол года 5 млн пользователей на iOS и Android и мы не планируем останавливаться на достигнутом.\nМы ищем сильного Unity разработчика для работы над проектами в жанре Idle / Clicker / Tycoon. У нас три запущенных проекта, сейчас работаем над четвертым.\n\n\n✅ Задачи:\n\n• Разработка клиентской части игры\n• Интеграция в проект готового контента (модели, анимации, звуки)\n• Интеграция в проект готовых VFX, написание логики их управления\n• Вёрстка UI по макетам от художников\n• Интеграция различных сторонних SDK\n\n\n✅ Требования:\n\n• Опыт работы на Unity3D (С#) от 3х лет\n• Отличное знание Unity и всех её подсистем\n• Отличное знание C#, умение писать чёткий, понятный, структурированный код\n• Отличное знание паттернов проектирования\n• Умение верстать адаптивные интерфесы в uGUI\n• Умение отлаживать и оптимизировать проекты под мобильные платформы iOS/Android\n• Понимание Рендер пайплайна Unity3D, его тонких мест и принципов оптимизации\n• Уверенные знания по работе с системой контроля версий git\n• Умение разбираться в чужом коде, проводить рефакторинг\n• Дисциплинированность и ответственность\n\n\n✅ Плюсом будет:\n\n• Участие в разработке выпущенных игр под мобильные платформы на аналогичной должности\n• Умение работать с шейдерами\n• Опыт работы с нативными плагинами (In-Apps, PUSH notifications, аналитика, реклама, социальное взаимодействие)\n• Опыт работы с ecs (Unity DOTS, Entitas)\n• Умение разрабатывать и поддерживать стабильную архитектуру\n• Коммуникабельность, yмение чётко доносить свою точку зрения и принимать точку зрения остальных участников команды\n\n\n✅ Для вас:\n\n• Конкурентная заработная плата по результатам собеседования, выплачивается 2 раза в месяц без задержек\n• Необходимое оборудование заказываем под вас\n• Возможность обучаться английскому языку с носителями каждый будний день по утрам\n• Собеседование сразу же с руководителем, который принимает решение о найме\n\nНазвание компании: AppQuantum\n\nhttps://appquantum.com/\n\nКонтакты: \ne-mail: vika@adquantum.com\ntelegram: @wikki13","markup":[{"type":"hashtag","offset":0,"length":9,"data":"вакансия"},{"type":"hashtag","offset":10,"length":7,"data":"москва"},{"type":"hashtag","offset":18,"length":5,"data":"офис"},{"type":"hashtag","offset":24,"length":6,"data":"unity"},{"type":"hashtag","offset":31,"length":10,"data":"developer"},{"type":"hashtag","offset":42,"length":8,"data":"gamedev"},{"type":"hashtag","offset":51,"length":7,"data":"csharp"},{"type":"bold","offset":231,"length":18,"data":""},{"type":"bold","offset":705,"length":7,"data":""},{"type":"bold","offset":960,"length":11,"data":""},{"type":"bold","offset":1543,"length":13,"data":""},{"type":"bold","offset":2011,"length":8,"data":""},{"type":"link","offset":2362,"length":23,"data":"https://appquantum.com/"},{"type":"link","offset":2406,"length":18,"data":"mailto:vika@adquantum.com"},{"type":"handle","offset":2435,"length":8,"data":"wikki13"}],"date":"2020-06-25T10:07:53+00:00","link":"tg://resolve?domain=mobile_jobs&post=68667","tags":[{"name":"mobile"},{"name":"android"},{"name":"ios"},{"name":"unity3d"},{"name":"csharp"},{"name":"git"}],"cities":[{"code":"moscow"}],"allowsRemote":false}},{"node":{"__typename":"Job","id":"71999422464-1001054966032","title":"Ios разработчик","text":"#вакансия #Москва #fulltime #swift #middle \nКомпания: Trinity Monsters\nПозиция: middle iOS developer\nЛокация: Россия, Москва, офис в самом центре, у метро Охотный Ряд\nЗанятость: полная \n\nЗП: от 150.000 до 200.000 руб. на руки\n\nНа новый проект (с нуля), нужен разработчик в команду. Мы занимаемся разработкой с 2013 года и входим в ТОП-10 лучших разработчиков Москвы. У нас небольшой коллектив, с которым мы реализуем амбициозные проекты (Nespresso, Азбука Вкуса, Газпром-Нефть, ВТБ, несколько внутренних проектов-стартапов).\n\nИщем разработчиков уровня middle и выше.  \n\nПочему мы:\n⁃ гибкий график\n⁃ отлаженный менеджмент\n⁃ большие проекты \n⁃ работа с разнообразными интересными и амбициозными проектами\n⁃ сложные технические задачи, возможность развития и роста\n⁃ просторный комфортный офис в 2-х минутах от метро Охотный ряд с кухней, чаем, кофе и т.д.\n⁃ возможность влиять на продукт и вносить свои идеи\n⁃ оформление по ТК РФ\n\nДля связи @vicemik","markup":[{"type":"hashtag","offset":0,"length":9,"data":"вакансия"},{"type":"hashtag","offset":10,"length":7,"data":"Москва"},{"type":"hashtag","offset":18,"length":9,"data":"fulltime"},{"type":"hashtag","offset":28,"length":6,"data":"swift"},{"type":"hashtag","offset":35,"length":7,"data":"middle"},{"type":"handle","offset":939,"length":8,"data":"vicemik"}],"date":"2020-06-25T10:02:27+00:00","link":"tg://resolve?domain=mobile_jobs&post=68664","tags":[{"name":"mobile"},{"name":"ios"},{"name":"swift"}],"cities":[{"code":"moscow"}],"allowsRemote":false}},{"node":{"__typename":"Job","id":"71998373888-1001054966032","title":"Ios developer","text":"#вакансия #спб #ios #middle #senior #spb #офис #IoT #умныйдом \nMiddle/Senior iOS developer \nReady for Sky 🚀 \nhttps://readyforsky.com/ru/career/ \n📍 полный день, удаленно/офис (сейчас вся компания работает удаленно) \nМы ищем iOS developer, который будет разрабатывать приложение, использующее данные с IoT-устройств для предоставления пользователям нужных товаров и услуг \n💡 Используем: Swift, Objective-C; Jenkins; GraphQL; RxSwift; MVC, MVVM и Viper \nВ команде: разрабатываем новый функционал приложения, внутренние фреймворки (Private pods), фреймворки для общего доступа; пишем Unit тесты; принимаем участие в создании протоколов работы с умными устройствами; Refactoring и Code-review. \nПредлагаем: \nРаботу в профессиональной команде (team lead, senior, middle), более 300 000 активных пользователей приложения. \nПолностью белую ЗП от 130 до 250 тыс. руб. на руки \nПосле исп.срока корпоративный английский \n📬 Пиши: @Rupeka_Natali","markup":[{"type":"hashtag","offset":0,"length":9,"data":"вакансия"},{"type":"hashtag","offset":10,"length":4,"data":"спб"},{"type":"hashtag","offset":15,"length":4,"data":"ios"},{"type":"hashtag","offset":20,"length":7,"data":"middle"},{"type":"hashtag","offset":28,"length":7,"data":"senior"},{"type":"hashtag","offset":36,"length":4,"data":"spb"},{"type":"hashtag","offset":41,"length":5,"data":"офис"},{"type":"hashtag","offset":47,"length":4,"data":"IoT"},{"type":"hashtag","offset":52,"length":9,"data":"умныйдом"},{"type":"bold","offset":63,"length":27,"data":""},{"type":"bold","offset":92,"length":13,"data":""},{"type":"link","offset":110,"length":34,"data":"https://readyforsky.com/ru/career/"},{"type":"bold","offset":225,"length":13,"data":""},{"type":"bold","offset":376,"length":11,"data":""},{"type":"bold","offset":454,"length":10,"data":""},{"type":"bold","offset":693,"length":11,"data":""},{"type":"bold","offset":916,"length":5,"data":""},{"type":"handle","offset":922,"length":14,"data":"Rupeka_Natali"}],"date":"2020-06-25T10:01:03+00:00","link":"tg://resolve?domain=mobile_jobs&post=68663","tags":[{"name":"mobile"},{"name":"ios"},{"name":"swift"},{"name":"objective-c"},{"name":"jenkins"},{"name":"graphql"},{"name":"mvvm"}],"cities":[],"allowsRemote":true}},{"node":{"__typename":"Job","id":"103696826368-1001089317451","title":"Qa engineer","text":"#вакансия #Ульяновск #QA #fulltime #офис #manual #relocate\n\n🔸 manual QA engineer \n🔸 Ульяновск, офис, remote не рассматриваем (но пока удаленно из-за covid)\n🔸 Dualboot Partners (NC, USA)\n🔸 вилка $1000-$3000\n\nОт вас:\n\n- нужно очень хорошо тестировать web- и mobile-приложения, API, нужны уверенные скиллы в этом\n- эрудиция в web-технологиях\n- опыт работы с различными инструментами для тестирования\n- умение работать самостоятельно и ответственно\n- вся документация и общение с клиентом на английском, соответственно, уровень хотя бы базовый необходим\n- есть проекты, покрываемые автотестами, поэтому умение их разрабатывать может быть плюсом и пригодиться в будущем\n\nОт нас:\n\n- ноль лишней бюрократии\n- з/п в $ официально\n- уроки английского от компании\n- MacBook Pro для работы (через 1 год работы он переходит во владение сотруднику)\n- очень крутой офис-коттедж в центре города (да, Ульяновск) с кучей вкусностей и прочими радостями\n- команда - молодые, разносторонние и очень скилловые люди\n- гибкий график и вообще всевозможные свободы, не мешающие эффективно работать\n- помощь при переезде в Ульяновск\n\nБуду рада ответить на любые вопросы,  @alina_fatkhutdinova","markup":[{"type":"hashtag","offset":0,"length":9,"data":"вакансия"},{"type":"hashtag","offset":10,"length":10,"data":"Ульяновск"},{"type":"hashtag","offset":21,"length":3,"data":"QA"},{"type":"hashtag","offset":25,"length":9,"data":"fulltime"},{"type":"hashtag","offset":35,"length":5,"data":"офис"},{"type":"hashtag","offset":41,"length":7,"data":"manual"},{"type":"hashtag","offset":49,"length":9,"data":"relocate"},{"type":"handle","offset":1149,"length":20,"data":"alina_fatkhutdinova"}],"date":"2020-06-25T09:43:47+00:00","link":"tg://resolve?domain=qa_jobs&post=98893","tags":[{"name":"qa"},{"name":"web"},{"name":"mobile"}],"cities":[{"code":"ulyanovsk"}],"allowsRemote":true}},{"node":{"__typename":"Job","id":"71996276736-1001054966032","title":"Android разработчик","text":"#Удаленка #вакансия #android #fulltime  #middle\nФормат работы: Удаленка \nЗанятость: полная\nЗарплатная вилка: от 60 т.р. до 100 т.р \n\nMobidoo - ADTech компания, занимаемся рекламой в мобильном сегменте интернета. Разрабатываем in house проекты различной степени сложности, как небольшие проекты, так и нацеленные на большие аудитории. На данный момент ищем Android разработчика уровня  middle, который хотел бы реализовывать нетривиальные задачи и участвовать в комплексной разработке проекта\n\nС чем придется работать:\n-Разработка мобильных приложений\n-Оптимизация работы мобильного приложения\n-Тесное взаимодействие с backend отделом разработки\n\nНазвание компании: Mobidoo http://mobidoo.io\nКонтакты: @ohmytraff","markup":[{"type":"hashtag","offset":0,"length":9,"data":"Удаленка"},{"type":"hashtag","offset":10,"length":9,"data":"вакансия"},{"type":"hashtag","offset":20,"length":8,"data":"android"},{"type":"hashtag","offset":29,"length":9,"data":"fulltime"},{"type":"hashtag","offset":40,"length":7,"data":"middle"},{"type":"link","offset":673,"length":17,"data":"http://mobidoo.io"},{"type":"handle","offset":701,"length":10,"data":"ohmytraff"}],"date":"2020-06-25T09:43:43+00:00","link":"tg://resolve?domain=mobile_jobs&post=68661","tags":[{"name":"mobile"},{"name":"android"}],"cities":[],"allowsRemote":false}},{"node":{"__typename":"Job","id":"71992082432-1001054966032","title":"Ios developer","text":"#вакансия #job #ios #swift #developer #Новосибирск #Калининград #Кострома #Екатеринбург #Питер #Тюмень \n\nВсем привет! \nОткрыта позиция на должность \n🔥iOS Developer🔥\n\nКомпания: ТЕНЗОР (https://tensor.ru)\nЦентры мобильной разработки:\n📱Новосибирск, \n📱Калининград, \n📱Кострома, \n📱Екатеринбург,\n📱Тюмень, \n📱Санкт-Петербург,\n📱Севастополь \nOffice, full-time\n🔸Оформление по ТК РФ 🔸ДМС со стоматологией🔸курсы иностранных языков🔸корпоративные праздники🔸комфортный офис \nЗП: \nMiddle 110 000-180 000\nSenior 180 000-300 000 на руки\n\nЕсли ты :\n✅ имеешь опыт программирования на Swift;\n✅ знаешь базовые фреймворки iOS SDK(UIKit, Foundation, CoreLocation идр.);\n✅ понимаешь принципы : SOLID, DI;\n✅ знаешь архитектурные паттерны:MVP, VIPER;\n✅ умеешь работать с AutoLayout из кода, StoryBoards, XIB;\n✅ готов к профессиональному развитию\nто пиши нам!!!\nЖдём вопросы и резюме! \n✍️ @kseniyahr\n📨 ke.pomigueva@tensor.ru","markup":[{"type":"hashtag","offset":0,"length":9,"data":"вакансия"},{"type":"hashtag","offset":10,"length":4,"data":"job"},{"type":"hashtag","offset":15,"length":4,"data":"ios"},{"type":"hashtag","offset":20,"length":6,"data":"swift"},{"type":"hashtag","offset":27,"length":10,"data":"developer"},{"type":"hashtag","offset":38,"length":12,"data":"Новосибирск"},{"type":"hashtag","offset":51,"length":12,"data":"Калининград"},{"type":"hashtag","offset":64,"length":9,"data":"Кострома"},{"type":"hashtag","offset":74,"length":13,"data":"Екатеринбург"},{"type":"hashtag","offset":88,"length":6,"data":"Питер"},{"type":"hashtag","offset":95,"length":7,"data":"Тюмень"},{"type":"link","offset":186,"length":17,"data":"https://tensor.ru"},{"type":"handle","offset":873,"length":10,"data":"kseniyahr"},{"type":"link","offset":887,"length":22,"data":"mailto:ke.pomigueva@tensor.ru"}],"date":"2020-06-25T08:37:26+00:00","link":"tg://resolve?domain=mobile_jobs&post=68657","tags":[{"name":"mobile"},{"name":"ios"},{"name":"swift"},{"name":"uikit"}],"cities":[{"code":"novosibirsk"},{"code":"kaliningrad"},{"code":"kostroma"},{"code":"tyumen"},{"code":"sevastopol"}],"allowsRemote":false}}]}}},"context":{}}