{"hash":"f5f6bf98bd95e769321482904cbbd488f77922fd","data":{"records":{"id":"mobile","name":"mobile","belongsTo":{"totalCount":307,"pageInfo":{"totalPages":31,"currentPage":7},"edges":[{"node":{"__typename":"Job","id":"72446115840-1001054966032","title":"Ios разработчик","text":"#вакансия #москва #офис #fulltime #ios \n\nВакансия: iOS-разработчик\nГород: Москва\nЗ/п: от 230 тыс.руб. до 280 тыс. руб. после налогообложения\nФормат работы: офис, полная занятость\nКомпания: CORE\n\n📌О компании:\nНаша команда занимается мобильной и web-разработкой в области финансов и страхования. Мы реализуем проекты для международных финтех-стартапов, российских банков и страховых компаний. При разработке мы применяем самый современный стек технологий, большое внимание уделяем оптимизации процесса разработки – использованию практик CI/CD, инструментов кодогенерация. Для вас это возможность познакомиться с передовыми технологиями, развиваться в команде профессионалов, готовых поддерживать перспективные инициативы.\n\nРаботать предстоит в суперсовременном офисе в центре Москвы. Мы предоставляем современный hardware и все, что нужно для продуктивной работы. После испытательного срока предоставляется социальный пакет. Лучшие сотрудники проходят профильное обучение за счет компании, выступают спикерами на конференциях.\n\n📌Требования:\n– Уверенное знание Swift и Objective-C; \n– Знает базовые алгоритмы и структуры данных;\n– Знает основные паттерны проектирования и имеет опыт их применения.\n\n📌Условия:\n– Заработная плата 250 тыс. руб. после налогообложения;\n– Работа в офисе в центре Москвы;\n– Официальное трудоустройство согласно ТК РФ.\n\nДля иногородних специалистов предоставляем комфортные апартаменты в современном жилом комплексе недалеко от места работы.\n\nО компании https://core.company\n\nБолее подробно о вакансии в ТГ @tv_corecompany","markup":[{"type":"hashtag","offset":0,"length":9,"data":"вакансия"},{"type":"hashtag","offset":10,"length":7,"data":"москва"},{"type":"hashtag","offset":18,"length":5,"data":"офис"},{"type":"hashtag","offset":24,"length":9,"data":"fulltime"},{"type":"hashtag","offset":34,"length":4,"data":"ios"},{"type":"link","offset":1480,"length":20,"data":"https://core.company"},{"type":"handle","offset":1533,"length":15,"data":"tv_corecompany"}],"date":"2020-07-01T09:51:30+00:00","link":"tg://resolve?domain=mobile_jobs&post=69090","tags":[{"name":"mobile"},{"name":"ios"},{"name":"web"},{"name":"swift"},{"name":"objective-c"}],"cities":[{"code":"moscow"}],"allowsRemote":false}},{"node":{"__typename":"Job","id":"72445067264-1001054966032","title":"Ios разработчик","text":"#вакансия #IOS #fulltime #офис #Кипр\nГород: Лимассол\nФормат работы: офис\nКомпания: Marikit Holdings LTD \nЗанятость: полная\nЗарплатная вилка:от 2 500 до 4 500 EUR на руки. \n\nПривет! Мы растем и активно развиваемся, поэтому ищем специалистов для работы в офисе нашей компании на Кипре. Это отличная возможность реализовать свои навыки, прокачаться ещё больше в команде профессионалов и нежиться на солнышке в выходные😉 Подробности смотри в описании:\n\n⭐️Чем предстоит заниматься:\n- Разработка мобильных приложений под платформу iOS.\n- Взаимодействие с аналитиками, дизайнерами и тестировщиками.\n- Выявление и исправление ошибок в работе текущих разработок.\n\n⭐️Наши ожидания:\n- Опыт коммерческой iOS разработки от 2-х лет;\n- Отличные знания Swift.\n- Высшее образование в IT сфере. \n\n⭐️Мы предлагаем:\n- Итоговый уровень ЗП зависит от профессионального уровня и пожеланий кандидата.\n- Комфортный, современный офис с видом на Средиземное море.\n- Удобное рабочее место, с современной техникой.\n- Помощь при переезде (поиск и компенсация жилья в пределах оговоренной суммы либо предоставление жилплощади от компании, оформление рабочей визы и необходимых документов для семьи, оплата перелёта и трансфера).\n- Бесплатные обеды (шведский стол).\n\nБуду рада вопросам и резюме:\n✏️@hrkaterina\n✉️hrrekruterit@gmail.com","markup":[{"type":"hashtag","offset":0,"length":9,"data":"вакансия"},{"type":"hashtag","offset":10,"length":4,"data":"IOS"},{"type":"hashtag","offset":15,"length":9,"data":"fulltime"},{"type":"hashtag","offset":25,"length":5,"data":"офис"},{"type":"hashtag","offset":31,"length":5,"data":"Кипр"},{"type":"bold","offset":37,"length":6,"data":""},{"type":"bold","offset":53,"length":14,"data":""},{"type":"bold","offset":73,"length":10,"data":""},{"type":"bold","offset":105,"length":10,"data":""},{"type":"bold","offset":123,"length":17,"data":""},{"type":"italic","offset":173,"length":79,"data":""},{"type":"italic","offset":259,"length":18,"data":""},{"type":"bold","offset":277,"length":7,"data":""},{"type":"italic","offset":284,"length":122,"data":""},{"type":"italic","offset":407,"length":8,"data":""},{"type":"bold","offset":415,"length":3,"data":""},{"type":"italic","offset":418,"length":32,"data":""},{"type":"bold","offset":450,"length":28,"data":""},{"type":"bold","offset":656,"length":17,"data":""},{"type":"bold","offset":780,"length":17,"data":""},{"type":"bold","offset":1236,"length":4,"data":""},{"type":"bold","offset":1241,"length":24,"data":""},{"type":"handle","offset":1267,"length":11,"data":"hrkaterina"},{"type":"link","offset":1279,"length":24,"data":"http://✉️hrrekruterit@gmail.com"}],"date":"2020-07-01T09:46:35+00:00","link":"tg://resolve?domain=mobile_jobs&post=69089","tags":[{"name":"mobile"},{"name":"ios"},{"name":"swift"}],"cities":[],"allowsRemote":false}},{"node":{"__typename":"Job","id":"72444018688-1001054966032","title":"Ios разработчик","text":"#вакансия #ios #senior #спб #fulltime #офис #spb\n\n🚀Senior iOS developer (Swift) (в офис)\n180 - 220k\n\nО компании:\nНаПоправку - медицинский онлайн-сервис: мы делаем болезнь меньшим стрессом в жизни людей, а медицину - проще и дружелюбнее (удобный поиск хорошего врача, запись на прием онлайн в пару кликов, хранение мед.документов и многое другое).  Мы помогаем более 1 млн. пользователей в месяц. Сейчас создаём наше первое! приложение (нативное). Ищем опытного разработчика, который готов и хочет взять на себя задачи по развитию приложения внутри продуктовой компании почти с 0!\n\nЦель должности:\n🔸Принять у подрядчика на аутсорсинга MVP приложения;\n🔸Развивать архитектуру приложения и решать «как делать»;\n🔸Развивать функциональность приложения (хранение мед.документов, возмещение налогового вычета - это лишь малая часть);\n🔸 Участвовать в планировании спринтов;\n🔸 Быть ментором для младшего разработчика/ов \n\nПочему точно стоит идти к нам:\n🔸 Прогрессивный стек, 0 легаси;\n🔸Возможность применить всю экспертизу;\n🔸 Социально-значимый проект, его пользователи - простые люди как ты и я;\n🔸Гибкое начало рабочего дня (с 8 до 11);\n🔸Официальное оформление и «белая» зарплата;\n🔸ДМС;\n🔸У нас есть софинансирование командных активностей;\n🔸Программа опционов для ключевых сотрудников;\n🔸Офис (в нем снеки и прочее) на ВО;\nЗарплата:\n🔸Гибко обсуждаем, вилка для ориентира 180-220k\n\nЧего мы ждём от тебя:\n🔸Опыт коммерческой разработки на Swift более 3х лет;\n🔸Понимания как устроен жизненный цикл разработки мобильного приложения от концепции и первой строчки кода до релиза на маркетплейс;\n🔸Опыт взаимодействия с REST API\n🔸 Уверенное владение iOS SDK;\n🔸 Что ты пишешь SOLID’ней код, знаешь и применяешь паттерны проектирования;\n🔸В App Store есть актуальное приложение, в создании которого ты активно участвовал;\n🔸 Желания не просто писать код, а делать классный продукт, который будет помогать людям;\n🔸 Настроя на решение реальных задач бизнеса.\n\nВопросы и резюме к @Vasilisa_bu","markup":[{"type":"hashtag","offset":0,"length":9,"data":"вакансия"},{"type":"hashtag","offset":10,"length":4,"data":"ios"},{"type":"hashtag","offset":15,"length":7,"data":"senior"},{"type":"hashtag","offset":23,"length":4,"data":"спб"},{"type":"hashtag","offset":28,"length":9,"data":"fulltime"},{"type":"hashtag","offset":38,"length":5,"data":"офис"},{"type":"hashtag","offset":44,"length":4,"data":"spb"},{"type":"bold","offset":52,"length":38,"data":""},{"type":"bold","offset":102,"length":10,"data":""},{"type":"bold","offset":417,"length":8,"data":""},{"type":"bold","offset":582,"length":16,"data":""},{"type":"bold","offset":918,"length":31,"data":""},{"type":"bold","offset":1386,"length":22,"data":""},{"type":"bold","offset":1958,"length":31,"data":""},{"type":"handle","offset":1977,"length":12,"data":"Vasilisa_bu"}],"date":"2020-07-01T09:23:36+00:00","link":"tg://resolve?domain=mobile_jobs&post=69088","tags":[{"name":"mobile"},{"name":"ios"},{"name":"swift"},{"name":"rest"}],"cities":[],"allowsRemote":false}},{"node":{"__typename":"Job","id":"72425144320-1001054966032","title":"Mobile программист","text":"#вакансия #middle #senior #iOS #developer #Minsk #Moscow #удаленка #fulltime\n\nГород - Минск или Москва\nФормат работы: #офис или #удаленно\nЗанятость: полная \nЗарплатная вилка: от 2.000$ до 6.000$\n\nКоманда BP Mobile в поисках опытных iOS программистов, для работы над мобильными продуктами!\n\nЖдем в команду людей, у которых:\n-3+ лет опыта в разработке мобильных приложений;\n-Глубокие знания Objective-C и Swift;\n-Уверенные знания Core Data, Rest API, iOS SDK и паттернов MVC/MVVM, знания Realm - плюс;\n-Дополнительно будет плюсом знание С++ и других языков программирования.\n\n У нас: \n-Свобода выбора технологий;\n-Только собственные и разнообразные проекты (одновременно в разработке более 20 продуктов);\n-Курсы английского языка на базе офиса;\n-Медицинская страховка (включает стоматологию);\n-Скидка на паркинг возле офиса;\n-Корпоративы несколько раз в год;\n-5 Sick days в году;\n-Скидка в тренажерный зал и другие бонусы.\nКонтакты: \nemail - nadezhda.kostenevich@bpmobile.com\ntelegram - @nadzzzeya","markup":[{"type":"hashtag","offset":0,"length":9,"data":"вакансия"},{"type":"hashtag","offset":10,"length":7,"data":"middle"},{"type":"hashtag","offset":18,"length":7,"data":"senior"},{"type":"hashtag","offset":26,"length":4,"data":"iOS"},{"type":"hashtag","offset":31,"length":10,"data":"developer"},{"type":"hashtag","offset":42,"length":6,"data":"Minsk"},{"type":"hashtag","offset":49,"length":7,"data":"Moscow"},{"type":"hashtag","offset":57,"length":9,"data":"удаленка"},{"type":"hashtag","offset":67,"length":9,"data":"fulltime"},{"type":"hashtag","offset":118,"length":5,"data":"офис"},{"type":"hashtag","offset":128,"length":9,"data":"удаленно"},{"type":"link","offset":940,"length":33,"data":"mailto:nadezhda.kostenevich@bpmobile.com"},{"type":"handle","offset":985,"length":10,"data":"nadzzzeya"}],"date":"2020-07-01T06:59:55+00:00","link":"tg://resolve?domain=mobile_jobs&post=69070","tags":[{"name":"mobile"},{"name":"ios"},{"name":"objective-c"},{"name":"swift"},{"name":"rest"},{"name":"mvvm"},{"name":"realm"},{"name":"core-data"}],"cities":[{"code":"minsk"},{"code":"moscow"}],"allowsRemote":true}},{"node":{"__typename":"Job","id":"17274241024-1001110946746","title":"Js разработчик","text":"Всем привет! \n\nИщу Frontend-разработчика в крупную инвестиционно-строительную компанию, реализующую свои проекты на рынке Москвы и Московской области. Топ-5 среди застройщиков Москвы и МО.\n\nНеобходимо будет разрабатывать проекты по управлению стройкой и её оптимизацией (планирование, распределение бюджетов, управление процессами на стройке и т.д.), а также для внешних пользователей сервис по покупке недвижимости (web и mobile-версии). Команда пока собрана небольшая - 12 человек. \nСтек: JavaScript (ES6) React +Redux + CSS + SCSS на фронтенде, Python (Django) на бекенде, React-Native - на мобильной разработке. \n\nПо требованиям: \n- опыт с React (от 1,5 лет)\n- опыт с JS (от 2-х лет)\n\nВилка ЗП 150-220k руб. на руки, офис в пяти минутах от ст. м. Кунцевская (г. Москва), есть возможность работать удаленно, отсутствие бюрократии, лояльное руководство, ДМС, возможность посещения конференций, курсов по повышению квалификации за счет работодателя.\n\nТип занятости: полная, офис, удаленка\nНазвание компании: Самолет Девелопмент\n\nКто заинтересовался - пишите в ЛС (@eivanova17),  буду оперативно отвечать 🙂 \n\n#работа #Москва #вакансия #job #react #reactjs #js #офис #удаленка","markup":[{"type":"handle","offset":1065,"length":11,"data":"eivanova17"},{"type":"hashtag","offset":1110,"length":7,"data":"работа"},{"type":"hashtag","offset":1118,"length":7,"data":"Москва"},{"type":"hashtag","offset":1126,"length":9,"data":"вакансия"},{"type":"hashtag","offset":1136,"length":4,"data":"job"},{"type":"hashtag","offset":1141,"length":6,"data":"react"},{"type":"hashtag","offset":1148,"length":8,"data":"reactjs"},{"type":"hashtag","offset":1157,"length":3,"data":"js"},{"type":"hashtag","offset":1161,"length":5,"data":"офис"},{"type":"hashtag","offset":1167,"length":9,"data":"удаленка"}],"date":"2020-06-30T16:39:47+00:00","link":"tg://resolve?domain=javascript_jobs_feed&post=16474","tags":[{"name":"javascript"},{"name":"web"},{"name":"mobile"},{"name":"reactjs"},{"name":"redux"},{"name":"css"},{"name":"python"},{"name":"django"},{"name":"react-redux"},{"name":"react-native"}],"cities":[{"code":"moscow"}],"allowsRemote":true}},{"node":{"__typename":"Job","id":"72389492736-1001054966032","title":"Ios разработчик","text":"#вакансия #москва #офис #senior #ios #developer #gamedev #swift \nГород и адрес офиса: Москва, м.Автозаводская \nФормат работы: офис \nЗанятость: полная \nЗарплатная вилка: от 250 000 до 300 000 на руки \n\n\n✅ Senior iOS Developer \n\nОписание вакансии: \n\nМы - успешная команда из 120 человек, которая занимается: \n• разработкой собственных мобильных игр и приложений \n• паблишингом мобильных игр \n• рекламой и маркетингом мобильных приложений (реклама на Facebook, Google и т.д.) \nЗа последние 3 года мы привлекли более 100 млн пользователей в наши собственные мобильные приложения и приложения наших клиентов и партнеров, потратив на это более $80 млн. \n\nУ нас есть все составляющие чтобы делать готовые продукты известными и популярными. Мы ищем сильного и талантливого разработчика для усиления нашей текущей слаженно работающей команды и выведения нашего Fitness & Health iOS приложения Fitingo на лидирующие позиции в мире (уже сейчас приложение занимало позиции ТОП 13 в США и ТОП 6 в Великобритании с более чем 400,000 установок и более чем 45,000 совершенных покупок).\n\n✅Задачи: \n\n•  Разрабатывать новый функционал\n•  Рефакторить и оптимизировать код\n•  Писать код. Больше логики, меньше UI. Например - хранить историю и прогресс; сделать leaderboard по странам; добавить чат, аналитику и a/b тесты; Apple Health, Watch, Music и TV\n•  Участвовать в Code Review\n\nТекущий стек: Swift 5.1, MVPC, AVFoundation, UserNotifications, Realm, StoreKit, Firebase, PushWoosh, Facebook, Python.\n\n✅Требования: \n\n•  Опыт работы разработчиком iOS приложений от 3х лет\n•  Отличное знание Swift\n•  Уверенное знание SOLID и паттернов проектирования\n•  Умение профилировать приложение (Батарейка, утечки и вот это все)\n•  Опыт работы с системой контроля версий\n•  Наличие выпущенных проектов на Swift\n•  Желание делать красивые, интересные и популярные приложения\n\n✅Будет плюсом: \n\n•  Умение/желание писать небольшие серверные скрипты (например на Python)\n•  Умение автоматизировать рутинные процессы\n•  Умение рефакторить код итеративно\n•  Адекватный перфекционизм\n\n\n✅Для вас: \n\n•  Конкурентная заработная плата, выплачивается 2 раза в месяц\n•  Необходимое оборудование для работы\n•  Возможность набрать команду и выстроить всю работу под себя в краткосрочной перспективе\n•  Оформление по ТК РФ, оплачиваемые больничные, 28 дней оплачиваемого отпуска в год\n•  Возможны регулярные бонусы по результатам работы проектов\n•  Собеседование с лицом принимающим решение\n•  Возможность коммуницировать с людьми, которые принимают продуктовые решения\n\n✅О нас: \n\n•  Просторный офис 600 метров на м. Автозаводская (3 минуты от метро и от ТТК на машине) с ультра современным дизайном и кучей ништяков (кухня с вкусняшками, кальяны каждый вечер в дружной кампании, PS4 Pro + 4K TV, аркадные автоматы с Pac-Man, Metal Slug и другими хитами геймдизайна, просторная зона отдыха, 5 переговорных комнат и т д)\n•  Команда из 100 человек занимающаяся паблишингом и маркетингом, готовая сделать продукт успешным после его готовности\n•  Возможность обучаться английскому языку с носителями каждый будний день по утрам\n•  Менторы и инвесторы, создавшие большое количество успешных IT компаний (оборот в 2018 году более 140 млн долларов)\n\nНазвание компании: AppQuantum \n\nКонтакты: \ne-mail: vika@adquantum.com\ntelegram: @wikki13","markup":[{"type":"hashtag","offset":0,"length":9,"data":"вакансия"},{"type":"hashtag","offset":10,"length":7,"data":"москва"},{"type":"hashtag","offset":18,"length":5,"data":"офис"},{"type":"hashtag","offset":24,"length":7,"data":"senior"},{"type":"hashtag","offset":32,"length":4,"data":"ios"},{"type":"hashtag","offset":37,"length":10,"data":"developer"},{"type":"hashtag","offset":48,"length":8,"data":"gamedev"},{"type":"hashtag","offset":57,"length":6,"data":"swift"},{"type":"link","offset":3248,"length":18,"data":"mailto:vika@adquantum.com"},{"type":"handle","offset":3277,"length":8,"data":"wikki13"}],"date":"2020-06-30T16:30:31+00:00","link":"tg://resolve?domain=mobile_jobs&post=69036","tags":[{"name":"mobile"},{"name":"ios"},{"name":"swift"},{"name":"realm"},{"name":"firebase"},{"name":"python"}],"cities":[{"code":"moscow"}],"allowsRemote":false}},{"node":{"__typename":"Job","id":"72386347008-1001054966032","title":"Mobile developer","text":"#вакансия  #android  #developer  #java  #senior  #remote  #иннополис         \n\nAndroid Developer\nCompany: NNG\nVacancy: Senior Android Developer\nLocation: Innopolis, Kazan\nWork format: #remote\nEmployment: full time\nS/p: from 180 to 200 k net\n\nAt NNG we develop the next generation of navigation and infotainment technology to improve driving experience, working with 7 of the top 10 car manufacturers worldwide. Headquartered in Hungary, we have a global footprint with coverage in almost 200 countries and 12 company offices worldwide. We have recently established a new development center in Kazan, tasked with delivering customized cutting-edge solutions to Russian vehicle manufacturers. In addition, the Kazan office will also develop independent, reusable software components for the global market, primarily frontend software (JavaScript, iOS and Android) and Java backend microservices.\n\nWhat would be your job? \n🔹Work on mobile and automotive navigation software development\n🔸Work on various projects with international clients from all parts of the world\n🔹Work in close cooperation with project managers and development teams both locally and in the Budapest office\n🔸Design, develop, code, test and debug; own your code\n                                                                                                                                                                                                                                If you have...\n🔹Experience developing, testing, and releasing Android apps\n🔸Knowledge of Java and Android UI development\n🔹 Experience collaborating with designers on usability and aesthetics of apps\n🔸 Strong experience in writing and maintaining testable code and unit tests\n🔹 Experience with git-based version control systems\n🔸Strong written and verbal communication skills in English\n🔹Experience working with global teams\n\nmoreover, you have any of the following: \n🔸Familiarity with JavaScript\n🔹 Familiarity with Flutter\n🔸Experience in Agile development, especially SaFE and SCRUM\n🔹Willingness to get familiar with new technologies\n🔸Experience in working as a team player\n\nWhat can we give you in return? \n🔹A job at a successful global company in Innopolis, where you can learn from the best\n🔸Serious professional challenges\n🔹A secure and well-paid job\n🔸The opportunity to develop the navigation software of the future in the present\n🔹 A youthful team\n🔸The opportunity of working abroad for several weeks\n\nContacts: hr.vkulneva@gmail.com, @viktoriyakulneva","markup":[{"type":"hashtag","offset":0,"length":9,"data":"вакансия"},{"type":"hashtag","offset":11,"length":8,"data":"android"},{"type":"hashtag","offset":21,"length":10,"data":"developer"},{"type":"hashtag","offset":33,"length":5,"data":"java"},{"type":"hashtag","offset":40,"length":7,"data":"senior"},{"type":"hashtag","offset":49,"length":7,"data":"remote"},{"type":"hashtag","offset":58,"length":10,"data":"иннополис"},{"type":"hashtag","offset":184,"length":7,"data":"remote"},{"type":"link","offset":2493,"length":21,"data":"mailto:hr.vkulneva@gmail.com"},{"type":"handle","offset":2516,"length":17,"data":"viktoriyakulneva"}],"date":"2020-06-30T16:09:08+00:00","link":"tg://resolve?domain=mobile_jobs&post=69033","tags":[{"name":"mobile"},{"name":"android"},{"name":"ios"},{"name":"java"},{"name":"dotnet"},{"name":"javascript"},{"name":"git"},{"name":"flutter"}],"cities":[{"code":"kazan"},{"code":"budapest"}],"allowsRemote":true}},{"node":{"__typename":"Job","id":"72385298432-1001054966032","title":"Mobile разработчик","text":"#вакансия #react #native  #middle #senior \n\nГород и адрес офиса: Локация не важна. \n\nФормат работы: Удаленная работа. \n\nЗанятость: Полная. Проектов несколько. Основная работа - разработка и контроль кроссплатформенного приложения по доставке. \n\nЗарплатная вилка: от 100 до 250 \n\nОписание вакансии: Требуется специалист по React Native в дружную команду для работы над очень интересными проектами. Обязательна адекватность, ответственность и любовь к своему делу. Уровень не ниже middle. \n\nНазвание компании: Scripta IT \nКонтакты: @buddhh","markup":[{"type":"hashtag","offset":0,"length":9,"data":"вакансия"},{"type":"hashtag","offset":10,"length":6,"data":"react"},{"type":"hashtag","offset":17,"length":7,"data":"native"},{"type":"hashtag","offset":26,"length":7,"data":"middle"},{"type":"hashtag","offset":34,"length":7,"data":"senior"},{"type":"bold","offset":44,"length":19,"data":""},{"type":"bold","offset":85,"length":13,"data":""},{"type":"bold","offset":120,"length":9,"data":""},{"type":"bold","offset":245,"length":16,"data":""},{"type":"bold","offset":279,"length":17,"data":""},{"type":"bold","offset":489,"length":18,"data":""},{"type":"bold","offset":520,"length":9,"data":""},{"type":"handle","offset":530,"length":7,"data":"buddhh"}],"date":"2020-06-30T15:58:50+00:00","link":"tg://resolve?domain=mobile_jobs&post=69032","tags":[{"name":"mobile"},{"name":"reactjs"},{"name":"react-native"}],"cities":[],"allowsRemote":false}},{"node":{"__typename":"Job","id":"72383201280-1001054966032","title":"Ios developer","text":"#вакансия #спб #ios #middle #senior #spb #офис #IoT #умныйдом \nMiddle/Senior iOS developer \nReady for Sky 🚀 \nhttps://readyforsky.com/ru/career/ \n📍 полный день, удаленно в СПб/офис м. Нарвская \nМы серьезно занимаемся сферой iot, создаем умные приборы.\nИщем iOS developer, который будет разрабатывать приложение, использующее данные с IoT-устройств для предоставления пользователям нужных товаров и услуг \n💡 Используем: Swift, Objective-C; Jenkins; GraphQL; RxSwift; MVC, MVVM и Viper \nВ команде: разрабатываем новый функционал приложения, внутренние фреймворки (Private pods), фреймворки для общего доступа; пишем Unit тесты; принимаем участие в создании протоколов работы с умными устройствами; Refactoring и Code-review. \nПредлагаем: \nРаботу в профессиональной команде, более 300 000 активных пользователей приложения. \nЗП от 130 до 250 тыс. руб. на руки  \nПосле исп.срока корпоративный английский \n📬 Пиши: @Rupeka_Natali","markup":[{"type":"hashtag","offset":0,"length":9,"data":"вакансия"},{"type":"hashtag","offset":10,"length":4,"data":"спб"},{"type":"hashtag","offset":15,"length":4,"data":"ios"},{"type":"hashtag","offset":20,"length":7,"data":"middle"},{"type":"hashtag","offset":28,"length":7,"data":"senior"},{"type":"hashtag","offset":36,"length":4,"data":"spb"},{"type":"hashtag","offset":41,"length":5,"data":"офис"},{"type":"hashtag","offset":47,"length":4,"data":"IoT"},{"type":"hashtag","offset":52,"length":9,"data":"умныйдом"},{"type":"bold","offset":63,"length":27,"data":""},{"type":"bold","offset":92,"length":13,"data":""},{"type":"link","offset":110,"length":34,"data":"https://readyforsky.com/ru/career/"},{"type":"bold","offset":258,"length":13,"data":""},{"type":"bold","offset":409,"length":11,"data":""},{"type":"bold","offset":487,"length":10,"data":""},{"type":"bold","offset":726,"length":11,"data":""},{"type":"bold","offset":906,"length":5,"data":""},{"type":"handle","offset":912,"length":14,"data":"Rupeka_Natali"}],"date":"2020-06-30T15:50:02+00:00","link":"tg://resolve?domain=mobile_jobs&post=69030","tags":[{"name":"mobile"},{"name":"ios"},{"name":"swift"},{"name":"objective-c"},{"name":"jenkins"},{"name":"graphql"},{"name":"mvvm"}],"cities":[],"allowsRemote":true}},{"node":{"__typename":"Job","id":"72382152704-1001054966032","title":"Android developer","text":"#вакансия #Juniorandroid #Android developer #kotlin #удаленно                                                                                                         Уровень дохода:💵 50 000-60 000  рублей net                                                                                                                                                                                 Требуемый опыт работы: от 1 года\nПолная занятость, дистанционно, гибкое начало рабочего дня\n \n📌Требования:\n- Нативная Android разработка (Kotlin)\n- Умение писать поддерживаемый и тестируемый код\n- Умение работать с Dagger 2\n- Умение работать с git\n- Желание развиваться и изучать новое в разработке\n- Опыт разработки приложений от 1 года\n -Знание английского языка от уровня Intermediate\n \n📌Будет плюсом:\n- Опыт работы с JNI\n- Опыт использования tensorflow\n- Опыт работы с аудио и видео\n\n📌Условия:\n- Отсутствие бюрократии\n- Время начала рабочего дня обговариваем индивидуально\n- Крутой инновационный проект - возможность самореализации и профессионального роста\n- Стабильное зарубежное финансирование\n- Десятки миллионов установок и множество глобальных партнёров\n📞Контакты @SvetikS_hr +7(963)-632-12-36 Cветлана","markup":[{"type":"hashtag","offset":0,"length":9,"data":"вакансия"},{"type":"hashtag","offset":10,"length":14,"data":"Juniorandroid"},{"type":"hashtag","offset":25,"length":8,"data":"Android"},{"type":"hashtag","offset":44,"length":7,"data":"kotlin"},{"type":"hashtag","offset":52,"length":9,"data":"удаленно"},{"type":"link","offset":184,"length":13,"data":"tel:50 000-60 000"},{"type":"handle","offset":1164,"length":11,"data":"SvetikS_hr"},{"type":"link","offset":1176,"length":17,"data":"tel:+7(963)-632-12-36"}],"date":"2020-06-30T15:44:34+00:00","link":"tg://resolve?domain=mobile_jobs&post=69029","tags":[{"name":"mobile"},{"name":"android"},{"name":"kotlin"},{"name":"dotnet"},{"name":"git"},{"name":"tensorflow"}],"cities":[],"allowsRemote":true}}]}}},"context":{}}