{"hash":"f5f6bf98bd95e769321482904cbbd488f77922fd","data":{"records":{"totalCount":669,"pageInfo":{"totalPages":67,"currentPage":54},"edges":[{"node":{"id":"103016300544-1001089317451","title":"Qa engineer","text":"#вакансия #Москва #офис #QA #тестировщик #fulltime\n\nГород и адрес офиса: Москва, м. Новокузнецкая/Павелецкая\nФормат работы: #офис\nЗанятость: #полная\nЗП: от 80к до 120к руб. нетт\n\nSports.ru - провайдер развлечений для любителей спорта.\nЕсть спорт. Есть болельщики. Мы заполняем среду между ними, оживляем ее, наполняем общением и другими развлечениями. Мы делаем не «сайты» или «приложения», а мультиплатформенные продукты, с учетом актуальной технологической парадигмы.\n\nМы ищем Middle QA Engineer'а в наш флагманский проект Sports.ru.\nЭто главное медиа о спорте на русском языке с аудиторией 18 млн пользователей в месяц. Highload-проект с десятками тысяч RPS, состоящий из самых разных продуктов – сайтов, мобильных приложений, email-рассылок, чат-ботов и многого другого.\n\nВ данный момент мы заняты активным внедрением процесса тестирования. Под капотом - нативный js на фронте, php+perl на бэке. Все новые сервисы разрабатываем на новом стеке: vue.js+ssr+golang+graphql. Да, легаси есть - иногда попадается, но в тестирование всё же большинство задач идут на новом стеке.\n\nО задачах\nВы будете заниматься приёмкой фич и проведением регресса, написанием тестовой документации, разработкой автотестов и регистрацией ошибок в баг-трекере.\n\nО наших ожиданиях\nМы ждем, что вы уже минимум пару лет как в профессии и имеете хороший опыт ручного тестирования. Знаете различные инструменты и подходы к тестированию, обладаете навыками тест-дизайна и умеете их применять.\nПонимаете процессы разработки и тестирования, а также, что процессы не могут быть идеальными, но к этому необходимо стремиться.\nМы также ждем, что вы уже имеете навыки автоматизации и не ограничились одним инструментом.\n\nБудет плюсом\nЕсли вы уже пробовали себя в нагрузочном тестировании и автоматизации мобильных устройств.\n\nОб условиях:\nПросторный стильный офис возле м. Новокузнецкая/Третьяковская.\n“Белая” заработная плата.\nБесплатная медстраховка со стоматологией после испытательного срока.\nГибкий график работы с возможностью день-два в неделю работать удаленно.\nФрукты, снеки, чай, кофе, какао 24/7.\nКорпоративная скидка в спортзал и на занятия английским языком.\nКорпоративный футбол с тренером.\nФинансовая помощь при переезде из другого города.\nВозможности для профессионального развития.\n\nНазвание компании: Sports.ru (Tribuna Digital)\n\nКого заинтересовало, пишите мне в личку (@pbuyatova), рада буду поделиться подробностями:)","markup":[{"type":"hashtag","offset":0,"length":9,"data":"вакансия"},{"type":"hashtag","offset":10,"length":7,"data":"Москва"},{"type":"hashtag","offset":18,"length":5,"data":"офис"},{"type":"hashtag","offset":24,"length":3,"data":"QA"},{"type":"hashtag","offset":28,"length":12,"data":"тестировщик"},{"type":"hashtag","offset":41,"length":9,"data":"fulltime"},{"type":"hashtag","offset":124,"length":5,"data":"офис"},{"type":"hashtag","offset":141,"length":7,"data":"полная"},{"type":"link","offset":179,"length":9,"data":"http://Sports.ru"},{"type":"bold","offset":179,"length":9,"data":""},{"type":"bold","offset":479,"length":20,"data":""},{"type":"link","offset":525,"length":9,"data":"http://Sports.ru"},{"type":"bold","offset":1077,"length":10,"data":""},{"type":"bold","offset":1240,"length":18,"data":""},{"type":"bold","offset":1686,"length":13,"data":""},{"type":"bold","offset":1791,"length":13,"data":""},{"type":"link","offset":2284,"length":9,"data":"http://Sports.ru"},{"type":"handle","offset":2354,"length":10,"data":"pbuyatova"}],"date":"2020-06-17T07:41:47+00:00","link":"tg://resolve?domain=qa_jobs&post=0","tags":[{"name":"qa"},{"name":"php"},{"name":"perl"},{"name":"vuejs"},{"name":"go"},{"name":"graphql"}],"cities":[{"code":"moscow"}],"allowsRemote":true}},{"node":{"id":"71445774336-1001054966032","title":"Android разработчик","text":"#вакансия #Москва #офис #удаленка #android #kotlin #fulltime\n\nГород и адрес офиса: Москва, м. Новокузнецкая/Павелецкая\nФормат работы: #офис, #удаленка\nЗанятость: #полная\nЗП: от 120к до 200к руб. нетт\n\nSports.ru - провайдер развлечений для любителей спорта.\nЕсть спорт. Есть болельщики. Мы заполняем среду между ними, оживляем ее, наполняем общением и другими развлечениями. Мы делаем не «сайты» или «приложения», а мультиплатформенные продукты, с учетом актуальной технологической парадигмы.\n\nСейчас мы ищем к нам в команду Android-разработчика (middle/senior), который будет разрабатывать новые функциональные возможности для проекта Betting Insider.\nBetting Insider — одно из наших ключевых подразделений. Это социальная сеть для любителей ставок, точно так же не ограниченная русскоязычными странами, где пользователи смогут не только обмениваться мнениями, но и продавать свои прогнозы.\n\nО задачах:\nРазрабатывать мобильные приложения на Android платформе.\nУчаствовать в принятии технических и архитектурных решений.\nУчаствовать в планировании процесса разработки.\nСоздавать тесты для продукта.\nВзаимодействовать с продуктовой командой, дизайнерами, влиять на будущие фичи.\n\nО наших ожиданиях:\nНавыки программирования под платформу Android.\nУверенное владение Kotlin.\nЗнание паттернов проектирования ПО и опыт их применения.\n\nОб условиях:\nПросторный стильный офис возле м. Новокузнецкая/Третьяковская.\n“Белая” заработная плата.\nБесплатная медстраховка со стоматологией после испытательного срока.\nГибкий график работы с возможностью день-два в неделю работать удаленно либо удаленная работа.\nФрукты, снеки, чай, кофе, какао 24/7.\nКорпоративная скидка в спортзал и на занятия английским языком.\nКорпоративный футбол с тренером.\nФинансовая помощь при переезде из другого города.\n\nНазвание компании: Sports.ru (Tribuna Digital)\nКого заинтересовало, пишите мне в личку (@pbuyatova), рада буду поделиться подробностями:)","markup":[{"type":"hashtag","offset":0,"length":9,"data":"вакансия"},{"type":"hashtag","offset":10,"length":7,"data":"Москва"},{"type":"hashtag","offset":18,"length":5,"data":"офис"},{"type":"hashtag","offset":24,"length":9,"data":"удаленка"},{"type":"hashtag","offset":34,"length":8,"data":"android"},{"type":"hashtag","offset":43,"length":7,"data":"kotlin"},{"type":"hashtag","offset":51,"length":9,"data":"fulltime"},{"type":"hashtag","offset":134,"length":5,"data":"офис"},{"type":"hashtag","offset":141,"length":9,"data":"удаленка"},{"type":"hashtag","offset":162,"length":7,"data":"полная"},{"type":"bold","offset":201,"length":10,"data":""},{"type":"link","offset":201,"length":9,"data":"http://Sports.ru"},{"type":"bold","offset":524,"length":36,"data":""},{"type":"bold","offset":652,"length":15,"data":""},{"type":"bold","offset":892,"length":11,"data":""},{"type":"bold","offset":1178,"length":19,"data":""},{"type":"bold","offset":1329,"length":13,"data":""},{"type":"link","offset":1800,"length":9,"data":"http://Sports.ru"},{"type":"handle","offset":1869,"length":10,"data":"pbuyatova"}],"date":"2020-06-17T07:27:07+00:00","link":"tg://resolve?domain=mobile_jobs&post=0","tags":[{"name":"mobile"},{"name":"android"},{"name":"kotlin"}],"cities":[{"code":"moscow"}],"allowsRemote":true}},{"node":{"id":"103006863360-1001089317451","title":"Qa инженер","text":"🐞🐞🐞#вакансия #QA #Ульяновск #Саранск #Казань #Самара #Уфа #Краснодар #офис #удаленная_работа\n\n🔍Middle QA-специалист🔎\n\n⚡️Компания: Simbirsoft (более 19 лет на рынке, более 700 сотрудников в штате)\n\nОчень ждем тебя, наш будущий коллега и борец за качественное ПО! :)\n\n📌Твои будущие задачи:\n• тестирование ПО (frontend, backend, API);\n• локализация и документирование найденных дефектов;\n• ведение и оптимизация тестовой документации;\n• контроль качества на всех этапах разработки ПО;\n• выстраивание и оптимизация процессов тестирования ПО.\n\n📌Что мы ждем от тебя:\n• наличие опыта от 2 лет в направлениях QA или тестирования ПО;\n• понимание разницы между QA и тестированием ПО;\n• понимание особенностей гибких методологий;\n• уверенное владение техниками тест-дизайна;\n• знание клиент-серверной архитектуры;\n• понимание особенностей тестирования web, mobile и desktop приложений;\n• навык тестирования API;\n• написание запросов SQL;\n• опыт работы с системами контроля версий (git);\n• знание основных команд работы с консолью (Windows/Linux).\n\n📌Что мы предлагаем:\n• Полностью белая ЗП два раза в месяц;\n• Оформление по ТК РФ;\n• Высокий уровень экспертности внутри компании, которым мы делимся друг с другом;\n• Перспективы вертикального и горизонтального роста;\n• Работа на российских и международных проектах;\n• Оборудованное рабочее место и парк тестовых устройств;\n• Подготовка и прохождение сертификации ISTQB бесплатно;\n• Внутренние и внешние курсы, доклады, конференции;\n• Бесплатные чай, кофе, печеньки в офисе;\n• Корпоративная спортивная программа (оплата тематических секций, частичная компенсация абонемента);\n• Проведение летних и зимних корпоративов, дня именинника, совместные походы и т.д.\n\n📌Зарплата:\n• от 50 000 (Договорная, по итогу собеседования)\n\n☎️Контакты: @nataly_max","markup":[{"type":"hashtag","offset":6,"length":9,"data":"вакансия"},{"type":"hashtag","offset":16,"length":3,"data":"QA"},{"type":"hashtag","offset":20,"length":10,"data":"Ульяновск"},{"type":"hashtag","offset":31,"length":8,"data":"Саранск"},{"type":"hashtag","offset":40,"length":7,"data":"Казань"},{"type":"hashtag","offset":48,"length":7,"data":"Самара"},{"type":"hashtag","offset":56,"length":4,"data":"Уфа"},{"type":"hashtag","offset":61,"length":10,"data":"Краснодар"},{"type":"hashtag","offset":72,"length":5,"data":"офис"},{"type":"hashtag","offset":78,"length":17,"data":"удаленная_работа"},{"type":"handle","offset":1779,"length":11,"data":"nataly_max"}],"date":"2020-06-17T05:07:15+00:00","link":"tg://resolve?domain=qa_jobs&post=0","tags":[{"name":"qa"},{"name":"web"},{"name":"mobile"},{"name":"sql"},{"name":"git"},{"name":"windows"},{"name":"linux"}],"cities":[{"code":"ulyanovsk"},{"code":"saransk"},{"code":"kazan"},{"code":"samara"},{"code":"ufa"},{"code":"krasnodar"}],"allowsRemote":true}},{"node":{"id":"16992174080-1001110946746","title":"Js разработчик","text":"#вакансия #москва #react\n\nИщем Frontend-разработчика\n\nГород и адрес офиса: Москва, Волгоградский проспект 42к5\nФормат работы: офис либо удаленная работа\nЗанятость: полная\nЗарплатная вилка: от 160 000 рублей до 220 000 рублей на руки\n\nОписание вакансии: \nРазработка Web-версии приложения (платформа обучения с использованием стриминговых сервисов, сервисов распознавания речи, сервисов перевода);\nВыполнение задач по frontend разработке (через Jira);\nВерстка страниц дизайн-проекта (дизайн уже отрисован в Figma)\nТребования:\nХорошее знание JS;\nХорошее знание React;\nУмение писать структурированный и понятный код;\nХорошие знания HTML/CSS;\nУмение работать с GIT;\nОпыт разработки для вэба от 3 лет;\nХорошее знание ES6;\nЗнание адаптивной верстки;\nЗнание кроссбраузерной вёрстки;\nОпыт верстки по макетам;\nУмение работать в команде и коммуницировать.\n\nТехнологический стек проекта:\nБек: Golang;\nФронт: React.js;\nИнфраструктура: Docker, Jira, Github, Jenkins, инфраструктура на сервисах Amazon\n\nНазвание компании: Everytale (www.everytale.net)\nКонтактная информация: vm@everytale.net, 89267213115\n\n—\n\n👉 Обсуждение вакансии в чате @javascript_jobs","markup":[{"type":"hashtag","offset":0,"length":9,"data":"вакансия"},{"type":"hashtag","offset":10,"length":7,"data":"москва"},{"type":"hashtag","offset":18,"length":6,"data":"react"},{"type":"link","offset":1018,"length":17,"data":"http://www.everytale.net"},{"type":"link","offset":1060,"length":16,"data":"mailto:vm@everytale.net"},{"type":"link","offset":1078,"length":11,"data":"tel:89267213115"},{"type":"handle","offset":1124,"length":16,"data":"javascript_jobs"}],"date":"2020-06-16T19:46:41+00:00","link":"tg://resolve?domain=javascript_jobs_feed&post=0","tags":[{"name":"javascript"},{"name":"reactjs"},{"name":"web"},{"name":"html"},{"name":"css"},{"name":"git"},{"name":"go"},{"name":"docker"},{"name":"github"},{"name":"jenkins"},{"name":"dotnet"}],"cities":[{"code":"moscow"}],"allowsRemote":true}},{"node":{"id":"71427948544-1001054966032","title":"Ios разработчик","text":"#вакансия #ios\n\nГород и адрес офиса: Сочи\nПолитехническая 62/1\n\nФормат работы: удаленка\n\nЗанятость: полная\n\nЗарплата: от 80 000 до 150 000 ₽ в месяц\n\nПриложение для строителей 101 GROUP\n\nТребования:\n— Опыт мобильной разработки не менее 3 лет;\n— Работа в команде;\n— Страсть к UX и UI;\n— Опыт design reviews, code reviews, и pair programming; \n— Четкая коммуникация.\n— Опыт удаленной работы.\n\nНазвание компании: 101 GROUP\nКонтакт: +79882372101\nsochi@101-group.ru","markup":[{"type":"hashtag","offset":0,"length":9,"data":"вакансия"},{"type":"hashtag","offset":10,"length":4,"data":"ios"},{"type":"link","offset":429,"length":12,"data":"tel:+79882372101"},{"type":"link","offset":442,"length":18,"data":"mailto:sochi@101-group.ru"}],"date":"2020-06-16T19:46:15+00:00","link":"tg://resolve?domain=mobile_jobs&post=0","tags":[{"name":"mobile"},{"name":"ios"}],"cities":[{"code":"sochi"}],"allowsRemote":true}},{"node":{"id":"16991125504-1001110946746","title":"Js разработчик","text":"Greenatom.ru\n#вакансия #Москва #javascript #React #Typescript #Node.js #Middle #Senior #удаленка #удаленная работа \n\n👨🏼‍💻 Middle/Senior Frontend Developer, Middle/Senior Backend Developer\nГород и адрес офиса: #Москва, БЦ Сириус Парк, метро Нагатинская\n\n✅Формат работы: \nУДАЛЕННАЯ РАБОТА\n\n💻Занятость: полная, гибкое начало трудового дня.\n\nЗарплатная вилка: от 170 000 до 230 000 руб. на руки.\n\n🏢Компания: АО Гринатом\n\nПривет! Мы растём и активно развиваем ряд внутренних проектов: например, корпоративный портал, горячая линия, собственная кадровая система. Мы формируем НЕСКОЛЬКО КОМАНД и ищем классных:\n\n✅фронтенд разработчиков;\n\n✅бэкенд разработчиков. \n\nПроекты в стадии разработки пилота и у тебя есть возможность повлиять на дальнейшее развитие продукта. Если у тебя есть крутые идеи - ты сможешь их здесь реализовать! Откликайся сам и зови друзей! Вирус пройдёт, работа останется!\n\n✅Требуемые знания и навыки:\n- Опыт разработки от двух лет\n- Хорошее знание чистого JS\n- Опыт работы с TypeScript\n- React, MobX, Less/Sass\n- Опыт написания юнит-тестов с помощью Jest, Enzymе очень приветствуется\n\n💡Наш стек:\n      React, TypeScript, Node.js, MobX, Docker\n\nМы работаем по Scrum.\n\n✅Условия:\n- Официальное оформление по ТК, белая зп;\n- Возможности профессионального и карьерного роста;\n- Дополнительные 3 дня к отпуску;\n- Плавающее начало дня;\n- ДМС со стоматологией\n\n☎️Контакты:\nЮлия - YAnZueva@Greenatom.ru\n\n—\n\n👉 Обсуждение вакансии в чате @javascript_jobs","markup":[{"type":"link","offset":0,"length":12,"data":"http://Greenatom.ru"},{"type":"hashtag","offset":13,"length":9,"data":"вакансия"},{"type":"hashtag","offset":23,"length":7,"data":"Москва"},{"type":"hashtag","offset":31,"length":11,"data":"javascript"},{"type":"hashtag","offset":43,"length":6,"data":"React"},{"type":"hashtag","offset":50,"length":11,"data":"Typescript"},{"type":"hashtag","offset":62,"length":5,"data":"Node"},{"type":"hashtag","offset":71,"length":7,"data":"Middle"},{"type":"hashtag","offset":79,"length":7,"data":"Senior"},{"type":"hashtag","offset":87,"length":9,"data":"удаленка"},{"type":"hashtag","offset":97,"length":10,"data":"удаленная"},{"type":"hashtag","offset":212,"length":7,"data":"Москва"},{"type":"link","offset":1392,"length":21,"data":"mailto:YAnZueva@Greenatom.ru"},{"type":"handle","offset":1448,"length":16,"data":"javascript_jobs"}],"date":"2020-06-16T19:43:17+00:00","link":"tg://resolve?domain=javascript_jobs_feed&post=0","tags":[{"name":"javascript"},{"name":"reactjs"},{"name":"typescript"},{"name":"nodejs"},{"name":"sass"},{"name":"docker"}],"cities":[{"code":"moscow"}],"allowsRemote":true}},{"node":{"id":"16990076928-1001110946746","title":"Js developer","text":"#вакансия #удаленка #nodejs \n\nRocketech.it срочно ищет Middle+ Backend Node.js Developer\n\nФормат занятости: удаленка\nЗанятость: part-time\nЗарплатная вилка: 1200-1700$/месяц на руки\n\nО компании: \n\nRocketech - компания, предоставляющая полноценные продуктовые команды для инвесторов, стартаперов и крупных компаний. Мы уже больше 5 лет на рынке разработки програмного обеспечения. Сотни выполненых кейсов, десятки крупных клиентов. \n\nО проекте:\n\nМаркетинговый инструмент.\n\nСтек технологий: \n\nNest.js, MongoDB\n\nТребования: \n\n3+ года опыта коммерческой разработки на Node.js\n\nБудет плюсом:\n\nРазговорный английский\n\nКонтакт: @mxm_at\n\n—\n\n👉 Обсуждение вакансии в чате @javascript_jobs","markup":[{"type":"hashtag","offset":0,"length":9,"data":"вакансия"},{"type":"hashtag","offset":10,"length":9,"data":"удаленка"},{"type":"hashtag","offset":20,"length":7,"data":"nodejs"},{"type":"link","offset":30,"length":12,"data":"http://Rocketech.it"},{"type":"handle","offset":620,"length":7,"data":"mxm_at"},{"type":"handle","offset":662,"length":16,"data":"javascript_jobs"}],"date":"2020-06-16T19:42:25+00:00","link":"tg://resolve?domain=javascript_jobs_feed&post=0","tags":[{"name":"javascript"},{"name":"nodejs"},{"name":"mongodb"}],"cities":[],"allowsRemote":true}},{"node":{"id":"16989028352-1001110946746","title":"Js разработчик","text":"#вакансия #москва #удаленка #частичная\n\nГород и адрес офиса: Москва;\nФормат работы: удаленка;\nЗанятость: полная, частичная;\nЗарплатная вилка:от 20000 до 45000 руб. (за 10-20 часов работы в неделю). Можно работать больше.\n\nКод-ревьюер в Яндекс.Практикум\n\nНужно будет писать комментарии к домашним заданиям студентов курса \"Веб-разработчик\". Работу легко можно совмещать с основной)\nКакой опыт нужен: Опыт работы веб-разработчиком от 1 года, знание html, js.\nНазвание компании: Яндекс. Практикум, https://praktikum.yandex.ru/\n\nКонтакт для связи: uluchka@yandex-team.ru\nИли @Uluchka\n\n—\n\n👉 Обсуждение вакансии в чате @javascript_jobs","markup":[{"type":"hashtag","offset":0,"length":9,"data":"вакансия"},{"type":"hashtag","offset":10,"length":7,"data":"москва"},{"type":"hashtag","offset":18,"length":9,"data":"удаленка"},{"type":"hashtag","offset":28,"length":10,"data":"частичная"},{"type":"link","offset":495,"length":28,"data":"https://praktikum.yandex.ru/"},{"type":"link","offset":544,"length":22,"data":"mailto:uluchka@yandex-team.ru"},{"type":"handle","offset":571,"length":8,"data":"Uluchka"},{"type":"handle","offset":614,"length":16,"data":"javascript_jobs"}],"date":"2020-06-16T19:40:54+00:00","link":"tg://resolve?domain=javascript_jobs_feed&post=0","tags":[{"name":"javascript"},{"name":"html"}],"cities":[{"code":"moscow"}],"allowsRemote":true}},{"node":{"id":"16987979776-1001110946746","title":"Javascript developer","text":"#вакансия #удаленка #react\n\nRocketech.it срочно ищет Middle+ Frontend React Developer\n\nФормат занятости: удаленка\nЗанятость: fulltime\nЗарплатная вилка: 2200 -2700$/месяц на руки\n\nО компании: \n\nRocketech - компания, предоставляющая полноценные продуктовые команды для инвесторов, стартаперов и крупных компаний. Мы уже больше 5 лет на рынке разработки програмного обеспечения. Сотни выполненых кейсов, десятки крупных клиентов. \n\nО проекте:\n\nМаркетинговый инструмент.\n\nСтек технологий: \n\nTypeScript, React, CRA, less, mobx, antd\n\nТребования: \n\n3+ года опыта коммерческой разработки в frontend\n\nБудет плюсом:\n\nРазговорный английский\n\nКонтакт: @mxm_at\n\n—\n\n👉 Обсуждение вакансии в чате @javascript_jobs","markup":[{"type":"hashtag","offset":0,"length":9,"data":"вакансия"},{"type":"hashtag","offset":10,"length":9,"data":"удаленка"},{"type":"hashtag","offset":20,"length":6,"data":"react"},{"type":"link","offset":28,"length":12,"data":"http://Rocketech.it"},{"type":"handle","offset":641,"length":7,"data":"mxm_at"},{"type":"handle","offset":683,"length":16,"data":"javascript_jobs"}],"date":"2020-06-16T19:38:07+00:00","link":"tg://resolve?domain=javascript_jobs_feed&post=0","tags":[{"name":"javascript"},{"name":"reactjs"},{"name":"typescript"}],"cities":[],"allowsRemote":true}},{"node":{"id":"16986931200-1001110946746","title":"Js разработчик","text":"#вакансия #berlin #remote #fulltime #react #english\n\n🔸 Город и адрес офиса: Берлин\n🔸 Формат работы: удалённо\n🔸 Занятость: полная\n🔸 Зарплатная вилка: от 2000$ до 3100$\n\n🔥 Описание вакансии:\nPaulCamper — marketplace для частных домов на колёсах (camper vans). Мы являемся крупнейшей camper-sharing платформой в Германии и активно выходим на другие рынки.\nhttps://paulcamper.com/\n\nМы ищем опытных разработчиков, готовых применять свои профессиональные навыки и развивать экспертизу в смежных областях. Вакансия открыта для нескольких команд, каждая из которых польностью отвечает за определенный этап на пути пользователя.\n\nFrontend stack: React, Redux, Saga, CSS Modules, cusom SSR for several NodeJS services including web, email and pdf renderers & React Native for the app. Подробнее https://stackshare.io/paulcamper/paulcamper\n\n🚀 Опыт:\nМинимум 3 года профессиональной программной разработки (из них 2+ на React стэке).\nЖелание работать над полным циклом решения в кросс-функциональной команде.\nАнглийский на уровне upper intermediate и выше для работы в интернациональном коллективе.\n\nКонтакты: https://paulcamper.orgos.io/frontend, @sergeizimakov\n\n—\n\n👉 Обсуждение вакансии в чате @javascript_jobs","markup":[{"type":"hashtag","offset":0,"length":9,"data":"вакансия"},{"type":"hashtag","offset":10,"length":7,"data":"berlin"},{"type":"hashtag","offset":18,"length":7,"data":"remote"},{"type":"hashtag","offset":26,"length":9,"data":"fulltime"},{"type":"hashtag","offset":36,"length":6,"data":"react"},{"type":"hashtag","offset":43,"length":8,"data":"english"},{"type":"link","offset":358,"length":23,"data":"https://paulcamper.com/"},{"type":"link","offset":790,"length":43,"data":"https://stackshare.io/paulcamper/paulcamper"},{"type":"link","offset":1103,"length":36,"data":"https://paulcamper.orgos.io/frontend"},{"type":"handle","offset":1141,"length":14,"data":"sergeizimakov"},{"type":"handle","offset":1190,"length":16,"data":"javascript_jobs"}],"date":"2020-06-16T19:29:26+00:00","link":"tg://resolve?domain=javascript_jobs_feed&post=0","tags":[{"name":"javascript"},{"name":"reactjs"},{"name":"redux"},{"name":"css"},{"name":"nodejs"},{"name":"web"},{"name":"react-redux"},{"name":"react-native"}],"cities":[{"code":"berlin"}],"allowsRemote":true}}]}},"context":{}}