{"hash":"f5f6bf98bd95e769321482904cbbd488f77922fd","data":{"records":{"id":"web","name":"web","belongsTo":{"totalCount":155,"pageInfo":{"totalPages":16,"currentPage":13},"edges":[{"node":{"__typename":"Job","id":"16992174080-1001110946746","title":"Js разработчик","text":"#вакансия #москва #react\n\nИщем Frontend-разработчика\n\nГород и адрес офиса: Москва, Волгоградский проспект 42к5\nФормат работы: офис либо удаленная работа\nЗанятость: полная\nЗарплатная вилка: от 160 000 рублей до 220 000 рублей на руки\n\nОписание вакансии: \nРазработка Web-версии приложения (платформа обучения с использованием стриминговых сервисов, сервисов распознавания речи, сервисов перевода);\nВыполнение задач по frontend разработке (через Jira);\nВерстка страниц дизайн-проекта (дизайн уже отрисован в Figma)\nТребования:\nХорошее знание JS;\nХорошее знание React;\nУмение писать структурированный и понятный код;\nХорошие знания HTML/CSS;\nУмение работать с GIT;\nОпыт разработки для вэба от 3 лет;\nХорошее знание ES6;\nЗнание адаптивной верстки;\nЗнание кроссбраузерной вёрстки;\nОпыт верстки по макетам;\nУмение работать в команде и коммуницировать.\n\nТехнологический стек проекта:\nБек: Golang;\nФронт: React.js;\nИнфраструктура: Docker, Jira, Github, Jenkins, инфраструктура на сервисах Amazon\n\nНазвание компании: Everytale (www.everytale.net)\nКонтактная информация: vm@everytale.net, 89267213115\n\n—\n\n👉 Обсуждение вакансии в чате @javascript_jobs","markup":[{"type":"hashtag","offset":0,"length":9,"data":"вакансия"},{"type":"hashtag","offset":10,"length":7,"data":"москва"},{"type":"hashtag","offset":18,"length":6,"data":"react"},{"type":"link","offset":1018,"length":17,"data":"http://www.everytale.net"},{"type":"link","offset":1060,"length":16,"data":"mailto:vm@everytale.net"},{"type":"link","offset":1078,"length":11,"data":"tel:89267213115"},{"type":"handle","offset":1124,"length":16,"data":"javascript_jobs"}],"date":"2020-06-16T19:46:41+00:00","link":"tg://resolve?domain=javascript_jobs_feed&post=0","tags":[{"name":"javascript"},{"name":"reactjs"},{"name":"web"},{"name":"html"},{"name":"css"},{"name":"git"},{"name":"go"},{"name":"docker"},{"name":"github"},{"name":"jenkins"},{"name":"dotnet"}],"cities":[{"code":"moscow"}],"allowsRemote":true}},{"node":{"__typename":"Job","id":"16986931200-1001110946746","title":"Js разработчик","text":"#вакансия #berlin #remote #fulltime #react #english\n\n🔸 Город и адрес офиса: Берлин\n🔸 Формат работы: удалённо\n🔸 Занятость: полная\n🔸 Зарплатная вилка: от 2000$ до 3100$\n\n🔥 Описание вакансии:\nPaulCamper — marketplace для частных домов на колёсах (camper vans). Мы являемся крупнейшей camper-sharing платформой в Германии и активно выходим на другие рынки.\nhttps://paulcamper.com/\n\nМы ищем опытных разработчиков, готовых применять свои профессиональные навыки и развивать экспертизу в смежных областях. Вакансия открыта для нескольких команд, каждая из которых польностью отвечает за определенный этап на пути пользователя.\n\nFrontend stack: React, Redux, Saga, CSS Modules, cusom SSR for several NodeJS services including web, email and pdf renderers & React Native for the app. Подробнее https://stackshare.io/paulcamper/paulcamper\n\n🚀 Опыт:\nМинимум 3 года профессиональной программной разработки (из них 2+ на React стэке).\nЖелание работать над полным циклом решения в кросс-функциональной команде.\nАнглийский на уровне upper intermediate и выше для работы в интернациональном коллективе.\n\nКонтакты: https://paulcamper.orgos.io/frontend, @sergeizimakov\n\n—\n\n👉 Обсуждение вакансии в чате @javascript_jobs","markup":[{"type":"hashtag","offset":0,"length":9,"data":"вакансия"},{"type":"hashtag","offset":10,"length":7,"data":"berlin"},{"type":"hashtag","offset":18,"length":7,"data":"remote"},{"type":"hashtag","offset":26,"length":9,"data":"fulltime"},{"type":"hashtag","offset":36,"length":6,"data":"react"},{"type":"hashtag","offset":43,"length":8,"data":"english"},{"type":"link","offset":358,"length":23,"data":"https://paulcamper.com/"},{"type":"link","offset":790,"length":43,"data":"https://stackshare.io/paulcamper/paulcamper"},{"type":"link","offset":1103,"length":36,"data":"https://paulcamper.orgos.io/frontend"},{"type":"handle","offset":1141,"length":14,"data":"sergeizimakov"},{"type":"handle","offset":1190,"length":16,"data":"javascript_jobs"}],"date":"2020-06-16T19:29:26+00:00","link":"tg://resolve?domain=javascript_jobs_feed&post=0","tags":[{"name":"javascript"},{"name":"reactjs"},{"name":"redux"},{"name":"css"},{"name":"nodejs"},{"name":"web"},{"name":"react-redux"},{"name":"react-native"}],"cities":[{"code":"berlin"}],"allowsRemote":true}},{"node":{"__typename":"Job","id":"102977503232-1001089317451","title":"Qa engineer","text":"#вакансия #работа #удалёнка #fulltime #qa\nДолжность : QA Engineer\nКомпания : 6nomads.com\nФормат работы: #fulltime #remote\nЗарплата: $ 40 000 в год\n\nМолодой стартап из Сан-Франциско, призванный упростить онлайн-коммуникации для бизнеса, недавно привлек $ 4 млн инвестиций и теперь ищет удаленного QA на фул-тайм. \n\nТребования: \n•  Опыт разработки тест кейсов от 2 лет;\n•  Опыт тестирования WEB, API и мобильных iOS/Android приложений;\n•  Умение анализировать логи серверов приложений и локализовать причину сбоя;\n• Опыт интеграционного тестирования систем;\n• Знание PL/SQL;\n• Уровень английского не ниже В2.\n\nБудет плюсом:\n• Опыт работы с Rest Assured, Selenium;\n• Опыт работы с WAS, WildFly и Nginx;\n• Умение работать в Redmine или Jira.\n\nКонтакт для связи: @nastya_stret","markup":[{"type":"hashtag","offset":0,"length":9,"data":"вакансия"},{"type":"hashtag","offset":10,"length":7,"data":"работа"},{"type":"hashtag","offset":18,"length":9,"data":"удалёнка"},{"type":"hashtag","offset":28,"length":9,"data":"fulltime"},{"type":"hashtag","offset":38,"length":3,"data":"qa"},{"type":"link","offset":77,"length":11,"data":"http://6nomads.com"},{"type":"hashtag","offset":104,"length":9,"data":"fulltime"},{"type":"hashtag","offset":114,"length":7,"data":"remote"},{"type":"handle","offset":758,"length":13,"data":"nastya_stret"}],"date":"2020-06-16T18:31:08+00:00","link":"tg://resolve?domain=qa_jobs&post=0","tags":[{"name":"qa"},{"name":"web"},{"name":"ios"},{"name":"android"},{"name":"sql"},{"name":"rest"},{"name":"selenium"},{"name":"nginx"}],"cities":[],"allowsRemote":true}},{"node":{"__typename":"Job","id":"2217738240-1001134745498","title":"Devops engineer","text":"#вакансия #devops #fulltime #НижнийНовгород\n\nВакансия: DevOps Engineer\nКомпания: Natera\nЛокация: Нижний Новгород\nФормат работы: офис и удаленный формат\nЗанятость: полная\nЗарплатная вилка: от 2500 до 3200 $ до вычета.  \nКонтакт:@zKITO\n\nAt Natera we build fast, reliable and scalable software that is easy to test and deploy. Our Engineering team works on a set of applications such as a complex Laboratory Information Management System (LIMS) and Constellation – our cloud based data analytics SaaS platform hosted on Amazon Web Services. As a DevOps Engineer your responsibilities will include building scalable infrastructure on which we deliver our software as well as managing development tools that are used on a daily basis by the members of Engineering team.\n\n\n      BENEFITS\nSalary $ 2500-3200 gross.  \nStocks\nPossibility of remote work with flexible working hours\nFree lunch, snacks etc in office\nMacbook Pro + monitors\nComfortable and cozy office with table tennis, playstation etc\nPossibility of business trips to the USA California\nFull compliance with labour laws.\n\n\nKNOWLEDGE, SKILLS, AND ABILITIES\n\n  Mandatory\nExperience in Linux Ubuntu administration.\nPractical experience managing applications deployed using AWS/GCP or Docker.\nAbility to read and understand Java code.\nStrong ability to troubleshoot complex issues ranging from system resources to application stack traces.\n\n  Nice to have experience with\nKubernetes, Rancher\nPython/Java\nTerraform\nAtlassian applications stack\ndatabases and SQL\n  \n \nPRIMARY RESPONSIBILITIES\n\nDevelop, configure and manage tools for fast and reliable deployments of our software.\nParticipate in operations efforts and be the point person for infrastructural activities.\nBuild tools for monitoring our infrastructure and resolve any issues with instances running in production. \nDevelop automation and CI/CD processes to enable teams to build, test, deploy, manage, configure, scale and monitor their applications using the latest technologies such as Docker, Kubernetes, Terraform and others.\nParticipate in architectural decisions to help improve reliability and scalability of our software.\nHelp configure and manage development tools such as Atlassian Bitbucket, Bamboo, Artifactory and others.\n\n—\n\n👉 Обсуждение вакансии в чате @devops_jobs","markup":[{"type":"hashtag","offset":0,"length":9,"data":"вакансия"},{"type":"hashtag","offset":10,"length":7,"data":"devops"},{"type":"hashtag","offset":18,"length":9,"data":"fulltime"},{"type":"hashtag","offset":28,"length":15,"data":"НижнийНовгород"},{"type":"handle","offset":227,"length":6,"data":"zKITO"},{"type":"handle","offset":2283,"length":12,"data":"devops_jobs"}],"date":"2020-06-16T15:59:39+00:00","link":"tg://resolve?domain=devops_jobs_feed&post=2115","tags":[{"name":"cloud"},{"name":"web"},{"name":"linux"},{"name":"ubuntu"},{"name":"amazon-web-services"},{"name":"google-cloud-platform"},{"name":"docker"},{"name":"java"},{"name":"kubernetes"},{"name":"python"},{"name":"sql"}],"cities":[{"code":"nice"},{"code":"nizhny-novgorod"}],"allowsRemote":true}},{"node":{"__typename":"Job","id":"1700790272-1001091028994","title":"Java разработчик","text":"Вакансия: #java #senior\nКомпания: #сбертех\nЛокация: Москва, м. Тульская, Новоданиловская наб, д.10\nФормат работы: офис (сейчас удаленка)\nЗарплатная вилка: 170-270к\n\nЕдиный сервис аутентификации - это система, которая принимает решение о допуске клиентов через различные каналы обслуживания (веб, мобильное приложение, банкомат) к сервисам экосистемы Сбербанка. Система является высоконагруженной, так как одновременно может обслуживать более 10к операций в секунду.\n\nЗадачи:\n • разработка back-end web-приложения; \n • участие разработки архитектуры продукта;\n • участие в code review. \n\nОбязательно:\n· Опыт работы с Java от 2ух лет (хорошее знание core, Collections, jdbc, IO, Exceptions)\n· Опыт работы с системами сборки: maven или gradle\n· Опыт работы с БД, знание языка запросов SQL\n· Знакомство с ORM Hibernate\n\nБудет плюсом:\n· понимание многопоточности в Java;\n· знакомство со Spring Framework\n\nБонусы: \n • гибкое начало дня, отсутствие микроменеджмента и дресс-кода\n • отличная атмосфера в команде, способность слышать мнение каждого\n • современное железо (можно выбрать ноут MacOS или Windows) \n • возможность сменить проект\n • ДМС, спортзал, корпоративные мероприятия\n\nКонтакт: @hralexandra 📲","markup":[{"type":"hashtag","offset":10,"length":5,"data":"java"},{"type":"hashtag","offset":16,"length":7,"data":"senior"},{"type":"hashtag","offset":34,"length":8,"data":"сбертех"},{"type":"handle","offset":1186,"length":12,"data":"hralexandra"}],"date":"2020-06-16T15:48:40+00:00","link":"tg://resolve?domain=jvmjobs&post=1622","tags":[{"name":"java"},{"name":"jvm"},{"name":"web"},{"name":"jdbc"},{"name":"maven"},{"name":"gradle"},{"name":"sql"},{"name":"orm"},{"name":"hibernate"},{"name":"spring"},{"name":"macos"},{"name":"windows"}],"cities":[{"code":"moscow"}],"allowsRemote":true}},{"node":{"__typename":"Job","id":"107603820544-1001119539411","title":".net разработчик","text":"#вакансия #fulltime #офис #remote \n\nЛокация: Казань, ст. м. Козья Слобода; Иннополис;\nФормат работы: офис или remote, фуллтайм \nЗанятость: полная, гибкое начало дня\nЗП: до 160 000 Net \n\n🚀Компания Ак Барс Цифровые Технологии запускает новый большой проект по трансформации архитектуры розничного бизнеса (физические лица) и переезд всех процессов на новую технологическую платформу. В рамках проекта будет сформировано 8 команд, занимающихся разными задачами по платежным решениям, каталогам продуктов, работой с электронными досье клиента, операционному обслуживанию и др.\n\nВ связи с чем компания в поисках Middle .Net разработчиков с коммерческим опытом работы от 2 лет. \n\nСтек технологий: C#, ASP.NET MVC / Core, Web API, MS SQLServer / PostgreSql, Entity Framework, JS /React, RabbitMQ\n\n✅Ребята ищут специалиста с опытом разработки веб-платформ, которому знаком .NET, ASP.NET Core, MS SQL Server. Команды гибко рассматривают кандидатов, готовы обучать и делиться опытом. \n\n✅АК Барс Цифровые технологии предлагают отличные условия:\n- официальное оформление и полностью белую зп;\n- гибкий график работы, позитивная атмосфера, дружный молодой коллектив;\n- возможность работать удаленно или в комфортном офисе в Казани;\n- помощь с релокацией, если вы из другого города; \n- возможность быстро «прокачаться» в скиллах на интересных проектах и другие приятные плюшки и бонусы.\n\nКонтакты:\ne-mail: valeriya@luckyhunter.io\ntelegram: @sobolevavalery\nБуду рада ответить на все вопросы и комментарии! 😊","markup":[{"type":"hashtag","offset":0,"length":9,"data":"вакансия"},{"type":"hashtag","offset":10,"length":9,"data":"fulltime"},{"type":"hashtag","offset":20,"length":5,"data":"офис"},{"type":"hashtag","offset":26,"length":7,"data":"remote"},{"type":"bold","offset":675,"length":15,"data":""},{"type":"link","offset":696,"length":7,"data":"http://ASP.NET"},{"type":"link","offset":872,"length":7,"data":"http://ASP.NET"},{"type":"link","offset":1393,"length":23,"data":"mailto:valeriya@luckyhunter.io"},{"type":"handle","offset":1427,"length":15,"data":"sobolevavalery"}],"date":"2020-06-16T13:12:05+00:00","link":"tg://resolve?domain=microsoftstackjobs&post=0","tags":[{"name":"dotnet"},{"name":"csharp"},{"name":"web"},{"name":"sql-server"},{"name":"postgresql"},{"name":"reactjs"},{"name":"rabbitmq"},{"name":"sql"},{"name":"asp-net"},{"name":"entity-framework"},{"name":"net-core"},{"name":"asp-net-mvc"},{"name":"asp-net-core"}],"cities":[{"code":"kazan"}],"allowsRemote":true}},{"node":{"__typename":"Job","id":"16981688320-1001110946746","title":"Js разработчик","text":"#вакансия #frontend  #React #офис #remote #Спб #senior \n\nКомпания: DBeaver\nЗ/п: 180 000 - 300 000 рублей на руки \nГород и адрес офиса: г. Санкт-Петербург (м. Площадь Ленина/Новочеркасская)\nФормат работы: офис или удаленка (приоритет кандидатам из Санкт-Петербурга)\nЗанятость: полная, fulltime\n\n🌏DВeaver  - это международный open source проект, бесплатный многоплатформенный инструмент для работы с базами данных. Поддерживает все популярные базы данных: MySQL, PostgreSQL, MariaDB, SQLite, Oracle, DB2, SQL Server, Sybase, MS Access, Teradata, Firebird, Derby и т. д. Платформа интегрируется с Amazon сервисами и нацелена на облачные решения. \n\nCейчас ребята разрабатывают web решение DВeaver, первый релиз состоялся в начале года и компания активно продолжает развитие. \n\n💠Какой опыт и знания ожидают увидеть ребята:\n- опыт работы с TypeScript и React;\n- опыт участия в многокомпонентных проектах со сложной бизнес-логикой;\n- опыт проектирования и рефакторинга;\n- готовность возглавить разработку интерфейсной части продукта, принимать ключевые архитектурные решения;\n- английский язык от уровня intermediate (письменный и на уровне чтения).\n\nСтек технологий: TypeScript, React, GraphQL, MobX, RxJS, Docker. \n\n💎Что получите вы:\n- комфортный офис в БЦ Бенуа;\n- возможность частично или полностью удаленной работы; \n- официальное оформление;\n- возможность поработать над крутым международным продуктом в сплоченной команде энтузиастов;\n- профессиональные командировки и конференции в США и Европу.\n\nКонтакты:\ne-mail: valeriya@luckyhunter.io\ntelegram: @sobolevavalery\nКА: http://luckyhunter.io\nБуду рада ответить на все вопросы и рассказать подробнее о компании 😊\n\n—\n\n👉 Обсуждение вакансии в чате @javascript_jobs","markup":[{"type":"hashtag","offset":0,"length":9,"data":"вакансия"},{"type":"hashtag","offset":10,"length":9,"data":"frontend"},{"type":"hashtag","offset":21,"length":6,"data":"React"},{"type":"hashtag","offset":28,"length":5,"data":"офис"},{"type":"hashtag","offset":34,"length":7,"data":"remote"},{"type":"hashtag","offset":42,"length":4,"data":"Спб"},{"type":"hashtag","offset":47,"length":7,"data":"senior"},{"type":"link","offset":1519,"length":23,"data":"mailto:valeriya@luckyhunter.io"},{"type":"handle","offset":1553,"length":15,"data":"sobolevavalery"},{"type":"link","offset":1573,"length":21,"data":"http://luckyhunter.io"},{"type":"handle","offset":1700,"length":16,"data":"javascript_jobs"}],"date":"2020-06-16T12:56:30+00:00","link":"tg://resolve?domain=javascript_jobs_feed&post=0","tags":[{"name":"javascript"},{"name":"reactjs"},{"name":"mysql"},{"name":"postgresql"},{"name":"mariadb"},{"name":"sqlite"},{"name":"oracle"},{"name":"sql"},{"name":"ms-access"},{"name":"web"},{"name":"typescript"},{"name":"graphql"},{"name":"rxjs"},{"name":"docker"},{"name":"sql-server"}],"cities":[],"allowsRemote":true}},{"node":{"__typename":"Job","id":"16973299712-1001110946746","title":"Javascript разработчик","text":"#вакансия # react #офис #москва #мск \nГород и адрес офиса:  #москва #мск  #арбатская\nФормат работы: офис, фултайм, гибкий график, можно удаленно (с редкими встречами в мск, поэтому важно, чтобы вы жили не очень далеко от мск)\nЗанятость: полная\nЗарплатная вилка: 170-250 т.р. net в зависимости от опыта\nОписание вакансии: \nИщу сейчас React разработчика в финтех проект (Openbanking, psd2) -  это новый продукт в онлайн покупках на европейском рынке, со своей «платежкой», которое сделает эту сферу более технологичной и еще проще и доступнее для пользователей:\n- новое удобное решение для b2c клиентов (мобильное приложение+web)\n- выгодные условия для b2b партнеров (низкие комиссии за транзакции) - web\n\nОформление белое, проект полностью с нуля, только собираем команду, есть возможность максимального влияния на продукт, на выбор технологий и построение процессов.\n\nНазвание компании:  Star-Staff\nКонтакты: пишите на этот тг @yuliaataman\n\n—\n\n👉 Обсуждение вакансии в чате @javascript_jobs","markup":[{"type":"hashtag","offset":0,"length":9,"data":"вакансия"},{"type":"hashtag","offset":18,"length":5,"data":"офис"},{"type":"hashtag","offset":24,"length":7,"data":"москва"},{"type":"hashtag","offset":32,"length":4,"data":"мск"},{"type":"hashtag","offset":60,"length":7,"data":"москва"},{"type":"hashtag","offset":68,"length":4,"data":"мск"},{"type":"hashtag","offset":74,"length":10,"data":"арбатская"},{"type":"handle","offset":927,"length":12,"data":"yuliaataman"},{"type":"handle","offset":974,"length":16,"data":"javascript_jobs"}],"date":"2020-06-16T11:39:23+00:00","link":"tg://resolve?domain=javascript_jobs_feed&post=0","tags":[{"name":"javascript"},{"name":"reactjs"},{"name":"dotnet"},{"name":"web"}],"cities":[{"code":"moscow"}],"allowsRemote":true}},{"node":{"__typename":"Job","id":"1692401664-1001091028994","title":"Java разработчик","text":"#remote #java #backend #удаленка\nНаш заказчик - Компания, которая предоставляет услуги по разработке программного обеспечения полного цикла для бизнеса по всему миру.\nКомпания постоянно прокачивает скиллы и предоставляет возможности для карьерного роста своих работников, как вертикального, так и горизонтального\"\nИщем в сильную команду разработчиков Java уровня middle, senior\nГород: Калининград, но вообще удаленно.                                                                                                                                                                                 Занятость: Полная                                                                                                                                                                                                                                          Вилка: 150 000- 200 000                                                                                                                                                                                                                         Задачи:\n•  Заниматься разработкой server-side, web back-end (J2EE);\n•  Успешно реализовывать и применять современные подходы, технологии и новейшие практики на реальных проектах (TDD, BDD, DDD);\n•  Вносить собственные предложения по архитектуре проекта;\n•  Декомпозировать пользовательские истории (User story) на задачи (в т.ч. для junior-разработчиков);\nКого мы хотим видеть в команде:\n•  Обладает опытом реализации собственных или коммерческих проектов;\n•  Имеет опыт разработки микросервесов на java;\n•  Имеет опыт работы с многопоточными приложениями;\n•  Имеет опыт работы с Docker;\n•  Умеет проектировать базы данных и работать с NoSQL базами данных;\n•  Умеет применять на практике Solid, Dry, Kiss, Yagni;\n•  Имеет опыт настройки CI/CD;\n•  Хорошо знает java core, java collections, multithreading;\n•  Имеет опыт работы с java frameworks (Spring/Spring Boot);\nБудет плюсом:\n•  Разговорный уровень английского языка будет плюсом;\nУсловия работы:\n•  Работать можно удаленно или в офисе в г. Калининград (предусмотрел релокационный пакет);\n•  Гибкий график работы;\n•  Официальное трудоустойство;\nЕсли вакансия заинтересовала или есть вопросы - пишите! @lavelina желательно сразу с резюме ☺️","markup":[{"type":"hashtag","offset":0,"length":7,"data":"remote"},{"type":"hashtag","offset":8,"length":5,"data":"java"},{"type":"hashtag","offset":14,"length":8,"data":"backend"},{"type":"hashtag","offset":23,"length":9,"data":"удаленка"},{"type":"handle","offset":2240,"length":9,"data":"lavelina"}],"date":"2020-06-16T10:51:59+00:00","link":"tg://resolve?domain=jvmjobs&post=1614","tags":[{"name":"java"},{"name":"jvm"},{"name":"web"},{"name":"docker"},{"name":"nosql"},{"name":"spring"},{"name":"spring-boot"}],"cities":[{"code":"kaliningrad"}],"allowsRemote":true}},{"node":{"__typename":"Job","id":"102942900224-1001089317451","title":"Qa инженер","text":"#вакансия #Моcква #Россия #офис #удаленка #тест-менеджер \n\nДолжность: Ведущий тестировщик\\Тест-менеджер\nГород: Москва (Парк Культуры) и не только\nФормат работы: возможна удаленка\nЗанятость: полная\nЗП: 160 – 180 net (в зависимости от опыта), + квартальные бонусы\nОформление ТК РФ\nСоцпакет – ДМС, обучение, корп скидки и т.д.\n\nКто мы:\nДирекция BigData  в X5 Retail\nРазрабатываем продукты работающие с большими данными в ритэйле.\n\nЧто нужно делать:\nРабота  в продуктовой команде \nРазвитие процесса тестирования продукта с 0 до выхода на автоматизацию  в будущем\nРазработка тестовой модели\nРабота с документацией\nПодготовка тестовых данных\nПланирование и проведение тестирования – регресс, интеграционное, тестирование нового функционала и исправлений дефектов\nОрганизация автоматизированного и нагрузочного тестирования\nАнализ причин появления дефектов\nРабота с баг-трекинговой системой (Jira) и TMS (Allure Enterprise) системами\n\nНаш кандидат:\n🔎Опыт тестирования web-приложений от 4 лет\n🔎Опыт организации тестирования сложных интеграционных продуктов\n🔎Уверенные знания гибких методологий тестирования \n🔎Умение аргументированно отстаивать свою точку зрения \n\n🔎Опыт работы с баг-трекинговыми системами\n🔎Знание SQL на уровне написания составных запросов\n🔎Способность быстро адаптироваться к изменениям приоритетов в работе\n🔎Аналитическое мышление, системный подход к решению задач, умение работать в команде, склонность к самообразованию, усидчивость, внимательность, инициативность\n🔎Желание развиваться\n🔎Дополнительный плюсы\n – знание основ автоматизации (Python) и нагрузочного тестирования\n - Базовые знания работы с Docker, k8s\n - Опты работы в Scrum командах \n\n\nРезюме и вопросы в личные сообщения denis_d_u либо по телефону + 7 985 2986708","markup":[{"type":"hashtag","offset":0,"length":9,"data":"вакансия"},{"type":"hashtag","offset":10,"length":7,"data":"Моcква"},{"type":"hashtag","offset":18,"length":7,"data":"Россия"},{"type":"hashtag","offset":26,"length":5,"data":"офис"},{"type":"hashtag","offset":32,"length":9,"data":"удаленка"},{"type":"hashtag","offset":42,"length":5,"data":"тест"},{"type":"link","offset":1735,"length":15,"data":"tel:+ 7 985 2986708"}],"date":"2020-06-16T09:28:29+00:00","link":"tg://resolve?domain=qa_jobs&post=0","tags":[{"name":"qa"},{"name":"dotnet"},{"name":"web"},{"name":"sql"},{"name":"python"},{"name":"docker"}],"cities":[{"code":"moscow"}],"allowsRemote":true}}]}}},"context":{}}