{"hash":"f34fd2c444a074f4e0e67d525015a008ef8e766f","data":{"records":{"id":"gitlab","name":"gitlab","belongsTo":{"totalCount":52,"pageInfo":{"totalPages":6,"currentPage":5},"edges":[{"node":{"__typename":"Job","id":"1896873984-1001134745498","title":"Devops инженер","text":"#вакансия #DevOps\nМосква, м.Ботанический сад\nФормат работы: офис\nЗанятость: полная\nЗаработная плата: 180 000р. на руки - фиксированный оклад\n(в планах со 2/3 квартала - квартальные премии по итогам работы до 45 000р. на руки) \nЧто делать:\n- Разработка и поддержка инфраструктуры для dev/test/prod (On-Cloud и On-Premise);\n- Разработка и поддержка процессов CI/CD;\n- Выбор технологий для реализации проектов;\n- Разработка и поддержка систем мониторинга, регистрации инцидентов и оповещения;\n- Организация бесперебойной работы всех сервисов (на всех уровнях: от инфраструктуры до разрабатываемого ПО);\n- Развертывание и поддержка общей инфраструктуры (nginx, haproxy, dns, iptables, ssh, sssd & etc).\nЧто нужно знать и уметь:\n- Экспертное понимание Linux (Ubuntu/CentOS7);\n- Знание скриптовых языков;\n- Опыт работы с технологиями виртуализации (VMware) и контейнеризации (Docker);\n- Опыт развёртывания и эксплуатации CI/CD (GitLab-CI, Jenkins);\n- Навыки работы и администрирования GitLab, Jira, Confluence;\n- Опыт внедрения и эксплуатации систем мониторинга и сбора метрик (ELK, Prometheus, Grafana, Sentry);\n- Опыт развёртывания и эксплуатации Redis, MySQL, RabbitMQ, HAProxy, nginx, PostgreSQL, php-fpm);\n- Интеграция Jenkins, Jira, GitLab. \nКомпания: АСНА (www.asna.ru)\nКонтакты: 8(965)194-28-96 (WhatsApp), @mil0lika (Telegram)\n\n—\n\n👉 Обсуждение вакансии в чате @devops_jobs","markup":[{"type":"hashtag","offset":0,"length":9,"data":"вакансия"},{"type":"hashtag","offset":10,"length":7,"data":"DevOps"},{"type":"link","offset":1258,"length":11,"data":"http://www.asna.ru"},{"type":"link","offset":1281,"length":15,"data":"tel:8(965)194-28-96"},{"type":"handle","offset":1309,"length":9,"data":"mil0lika"},{"type":"handle","offset":1364,"length":12,"data":"devops_jobs"}],"date":"2020-03-13T09:43:31+00:00","link":"tg://resolve?domain=devops_jobs_feed&post=1809","tags":[{"name":"cloud"},{"name":"nginx"},{"name":"dns"},{"name":"ssh"},{"name":"linux"},{"name":"ubuntu"},{"name":"centos"},{"name":"docker"},{"name":"gitlab"},{"name":"jenkins"},{"name":"redis"},{"name":"mysql"},{"name":"rabbitmq"},{"name":"postgresql"},{"name":"php"}],"cities":[{"code":"moscow"}],"allowsRemote":false}},{"node":{"__typename":"Job","id":"1889533952-1001134745498","title":"Devops инженер","text":"#вакансия #Devops #moscow #Linux #linuxsysadmin\nLinux sys admin/Devops\n\nCity: Moscow, Oktyabrskaya  \n\nWork style: office, sometimes remote\n\nWork Schedule: flexible, fulltime\n\nCompany name: System Lab\n\nDomain: Virtualization, infrastructure\n\nSalary range: 180.000..250.000 rub net\n\nResponsibilities:\nManage Docker containers with monitoring and alerting systems\nCreating and supporting Jenkins jobs for automation testing\nManage and operate Gitlab infrastructure by development CI/CD\nSystem administration of Test infrastructure\n\n\nRequirements:\nExpert-level knowledge of Linux System Administration (5 years).\nExperience with monitoring and alerting systems\nSome experience in CI/CD processes, Jenkins, pipelines\nExperience with Strace\n\nNice to have:\nExperience with building and tuning custom Linux Kernel\nSome programming skills in Python\nHand-on experience in building and administering VMs and containers using tools such as Docker, Kubernetes\n\n\nWork Conditions:\nAttractive compensation package + bonuses\nMedical insurance with dental care included and travel insurance\nRelocation bonus for candidates moving from other cities\nFlexible working hours(possible from 14,15 pm), no dress code\nCorporate discounts for purchasing devices\nMobile phone allowance\nOffice gym\nOpportunity for professional growth and career development\nFriendly team, interesting projects, the opportunity for business trips\n\nContacts: @kaizenst\n\n—\n\n👉 Обсуждение вакансии в чате @devops_jobs","markup":[{"type":"hashtag","offset":0,"length":9,"data":"вакансия"},{"type":"hashtag","offset":10,"length":7,"data":"Devops"},{"type":"hashtag","offset":18,"length":7,"data":"moscow"},{"type":"hashtag","offset":26,"length":6,"data":"Linux"},{"type":"hashtag","offset":33,"length":14,"data":"linuxsysadmin"},{"type":"handle","offset":1411,"length":9,"data":"kaizenst"},{"type":"handle","offset":1455,"length":12,"data":"devops_jobs"}],"date":"2020-03-12T13:17:03+00:00","link":"tg://resolve?domain=devops_jobs_feed&post=1802","tags":[{"name":"linux"},{"name":"dotnet"},{"name":"docker"},{"name":"jenkins"},{"name":"gitlab"},{"name":"python"},{"name":"kubernetes"},{"name":"mobile"}],"cities":[{"code":"moscow"},{"code":"nice"}],"allowsRemote":true}},{"node":{"__typename":"Job","id":"1885339648-1001134745498","title":"Devops инженер","text":"#вакансия #DevOps\nМосква, м.Ботанический сад\nФормат работы: офис\nЗанятость: полная\nЗаработная плата: 180 000р. на руки - фиксированный оклад\n(в планах со 2/3 квартала - квартальные премии по итогам работы до 45 000р. на руки) \nЧто делать:\n- Разработка и поддержка инфраструктуры для dev/test/prod (On-Cloud и On-Premise);\n- Разработка и поддержка процессов CI/CD;\n- Выбор технологий для реализации проектов;\n- Разработка и поддержка систем мониторинга, регистрации инцидентов и оповещения;\n- Организация бесперебойной работы всех сервисов (на всех уровнях: от инфраструктуры до разрабатываемого ПО);\n- Развертывание и поддержка общей инфраструктуры (nginx, haproxy, dns, iptables, ssh, sssd & etc).\nЧто нужно знать и уметь:\n- Экспертное понимание Linux (Ubuntu/CentOS7);\n- Знание скриптовых языков;\n- Опыт работы с технологиями виртуализации (VMware) и контейнеризации (Docker);\n- Опыт развёртывания и эксплуатации CI/CD (GitLab-CI, Jenkins);\n- Навыки работы и администрирования GitLab, Jira, Confluence;\n- Опыт внедрения и эксплуатации систем мониторинга и сбора метрик (ELK, Prometheus, Grafana, Sentry);\n- Опыт развёртывания и эксплуатации Redis, MySQL, RabbitMQ, HAProxy, nginx, PostgreSQL, php-fpm);\n- Интеграция Jenkins, Jira, GitLab. \nКомпания: АСНА (www.asna.ru)\nКонтакты: 8(965)194-28-96 (WhatsApp), @mil0lika (Telegram)\n\n—\n\n👉 Обсуждение вакансии в чате @devops_jobs","markup":[{"type":"hashtag","offset":0,"length":9,"data":"вакансия"},{"type":"hashtag","offset":10,"length":7,"data":"DevOps"},{"type":"link","offset":1258,"length":11,"data":"http://www.asna.ru"},{"type":"link","offset":1281,"length":15,"data":"tel:8(965)194-28-96"},{"type":"handle","offset":1309,"length":9,"data":"mil0lika"},{"type":"handle","offset":1364,"length":12,"data":"devops_jobs"}],"date":"2020-03-12T07:46:45+00:00","link":"tg://resolve?domain=devops_jobs_feed&post=1798","tags":[{"name":"cloud"},{"name":"nginx"},{"name":"dns"},{"name":"ssh"},{"name":"linux"},{"name":"ubuntu"},{"name":"centos"},{"name":"docker"},{"name":"gitlab"},{"name":"jenkins"},{"name":"redis"},{"name":"mysql"},{"name":"rabbitmq"},{"name":"postgresql"},{"name":"php"}],"cities":[{"code":"moscow"}],"allowsRemote":false}},{"node":{"__typename":"Job","id":"1882193920-1001134745498","title":"Devops инженер","text":"#вакансия #devops  #москва\n\nВакансия: DevOps\nКомпания: IBS https://www.ibs.ru/\nФормат работы: офис, возможна частичная удаленка\nГород: Москва (м. Дмитровская)\nЗП вилка: 150-230 тыс. руб. гросс\n\nОбязанности:\n•  Организация процесса непрерывной сборки приложений (CI) на базе TC\n•  Участие в разработке скриптов автоматизированного развёртывания приложений (ansible, bash)\n•  Участие в разработке/доработке технической архитектуры системы (совместно с архитектором системы), составление требований к серверам и системному ПО\n•  Сборка и развертывание приложений/разработок на разработческой, тестовой и продуктивных средах (участие, организация и настройка процесса)\n•  Мониторинг работы системы/компонентов системы, проработка принципов отказоустойчивости инфраструктуры\n•  Установка и настройка системного ПО, включая БД и прочего ПО\n•  Диагностика и устранение проблем с системным ПО и прочим ПО, решение проблем по производительности (в части системного ПО, настройки БД и прочего ПО)\n•  Организация и проведение автоматического тестирования, включая нагрузочное.\n•  Развертывание и сопровождение инструментов разработки: Gitlab, Confluence, Jira, TestRail\n•  Автоматизация деплоя стендов разработки и тестирования.\n\nТребования:\n•  Понимание и опыт поддержки, устранения проблем с сетевыми сервисами Linux\n•  Понимание принципов построения отказоустойчивых систем\n•  Опыт настройки или сопровождения CI/СD (TeamCity) и опыт автоматизации с использованием Ansible\n•  Владение Bash и/или Python\n•  Наличие опыта настройки и управления Nginx и HAProxy\n•  Знание принципов балансировки нагрузки (например, HAProxy и Citrix NetScaler)\n•  Умение работать с инструментами мониторинга Zabbix/Nagios или их аналогами.\n\nУсловия:\n•  Работа в лидирующей IT компании, профессиональное развитие\n•  Конкурентная заработная плата по результатам собеседования, ежегодный ее пересмотр\n•  Работа в команде с сильной экспертизой\n•  Обучение, участие в корпоративных тренингах/семинарах, наставничество\n•  Социальный пакет, оформление по ТК РФ\n•  Испытательный срок 3 месяца\n•  Офис Москва, м.Дмировская\n\nЕще больше о компании https://www.facebook.com/IBS.ru\n\nКонтакты: opankina@ibs.ru @itgig\n\n—\n\n👉 Обсуждение вакансии в чате @devops_jobs","markup":[{"type":"hashtag","offset":0,"length":9,"data":"вакансия"},{"type":"hashtag","offset":10,"length":7,"data":"devops"},{"type":"hashtag","offset":19,"length":7,"data":"москва"},{"type":"link","offset":59,"length":19,"data":"https://www.ibs.ru/"},{"type":"link","offset":2108,"length":31,"data":"https://www.facebook.com/IBS.ru"},{"type":"link","offset":2151,"length":15,"data":"mailto:opankina@ibs.ru"},{"type":"handle","offset":2167,"length":6,"data":"itgig"},{"type":"handle","offset":2208,"length":12,"data":"devops_jobs"}],"date":"2020-03-11T09:14:08+00:00","link":"tg://resolve?domain=devops_jobs_feed&post=1795","tags":[{"name":"ansible"},{"name":"bash"},{"name":"gitlab"},{"name":"linux"},{"name":"python"},{"name":"nginx"}],"cities":[{"code":"moscow"}],"allowsRemote":true}},{"node":{"__typename":"Job","id":"239075328-1001352129329","title":"Golang разработчик","text":"#вакансия #office #golang #fulltime \nВакансия: Golang разработчик\nФормат работы: fulltime, офис\nМесто работы: Москва, м. Сухаревская\nПродукт: маркетплейс \nЗП: от 180 000 до 200 000 рублей.\nТребования: опыт программирования на Golang от 1 года\nСтек: Golang, NodeJS, Redis, RabbitMQ, ElasticSearch, MongoDB, ClickHouse, GitLab, Docker, Kubernetes.\nКомпания: pharmaspace.ru\nКонтакты: @irarudakova\n\nС уважением, Ирина\n Автор @irarudakova","markup":[{"type":"hashtag","offset":0,"length":9,"data":"вакансия"},{"type":"hashtag","offset":10,"length":7,"data":"office"},{"type":"hashtag","offset":18,"length":7,"data":"golang"},{"type":"hashtag","offset":26,"length":9,"data":"fulltime"},{"type":"link","offset":356,"length":14,"data":"http://pharmaspace.ru"},{"type":"handle","offset":381,"length":12,"data":"irarudakova"},{"type":"handle","offset":421,"length":12,"data":"irarudakova"}],"date":"2020-02-25T19:44:58+00:00","link":"tg://resolve?domain=gogetajobfeed&post=228","tags":[{"name":"go"},{"name":"nodejs"},{"name":"redis"},{"name":"rabbitmq"},{"name":"elasticsearch"},{"name":"mongodb"},{"name":"gitlab"},{"name":"docker"},{"name":"kubernetes"}],"cities":[{"code":"moscow"}],"allowsRemote":false}},{"node":{"__typename":"Job","id":"228589568-1001352129329","title":"Golang разработчик","text":"#вакансия #Москва #офис #Golang #fulltime\nГород и адрес офиса: Москва, м. Новокузнецкая/Павелецкая\nФормат работы: #офис\nЗанятость: #полная\nЗП: от 80к до 140к руб. нетт\n\nSports.ru – ведущий спортивный сайт в России. Мы строим сообщества людей, увлекающихся разными видами спорта, помогаем им развиваться и даем им площадку для общения.\nМы ищем к себе в команду backend-разработчика (golang), который будет разрабатывать новые решения и сервисы и сопровождать полный цикл жизни продукта от проработки архитектуры до деплоя и сопровождения продакшена.\n\nЧто предстоит делать:\n\n* Разрабатывать новые решения и сервисы для пользователей с наибольшим объемом данных.\n* Работать над CI/CD, инструментами деплоя, инфраструктурой: gitlab, docker, Kubernetes, nginx.\n* Работать с такими инструментами, как Jira, git.\n* Сопровождать полный цикл жизни продукта от проработки архитектуры до деплоя и сопровождения продакшена.\n\nЧто мы хотим от вас:\n\n* Опыт разработки на Go ~ от 1 года.\n* Понимание того, как работает HTTP.\n* Уверенные навыки работы с SQL.\n* Понимание микросервисной архитектуры.\n* Знание основных алгоритмов, структур данных и способов защиты информации.\nУ нас: \n* Просторный офис в 7-ми минутах ходьбы от м.Новокузнецкая/Павелецкая.\n* Всё, что вы любите в ИТ-индустрии: высокая белая зарплата, оплачиваемые отпуска и больничные, ДМС со стоматологией, кофе, фрукты и шоколадки.\n* Мы работаем по индивидуальному графику, иногда позволяя себе поработать и удаленно. \n* Мы играем в кикер, с удовольствием едим пряники, печеньки, фрукты и пьем вкусный кофе в офисе.\n* Мы играем в футбол и баскетбол на арендованных площадках, смотрим знаковые матчи на большом проекторе и вообще любим различные внутрикорпоративные активности.\n\nНазвание компании: Sports.ru (Tribuna Digital)\nКого заинтересовало, пишите мне в личку (@pbuyatova), рада буду поделиться подробностями🙂\n Автор @pbuyatova","markup":[{"type":"hashtag","offset":0,"length":9,"data":"вакансия"},{"type":"hashtag","offset":10,"length":7,"data":"Москва"},{"type":"hashtag","offset":18,"length":5,"data":"офис"},{"type":"hashtag","offset":24,"length":7,"data":"Golang"},{"type":"hashtag","offset":32,"length":9,"data":"fulltime"},{"type":"hashtag","offset":114,"length":5,"data":"офис"},{"type":"hashtag","offset":131,"length":7,"data":"полная"},{"type":"link","offset":169,"length":9,"data":"http://Sports.ru"},{"type":"link","offset":1746,"length":9,"data":"http://Sports.ru"},{"type":"handle","offset":1815,"length":10,"data":"pbuyatova"},{"type":"handle","offset":1872,"length":10,"data":"pbuyatova"}],"date":"2020-02-11T09:14:17+00:00","link":"tg://resolve?domain=gogetajobfeed&post=218","tags":[{"name":"go"},{"name":"gitlab"},{"name":"docker"},{"name":"kubernetes"},{"name":"nginx"},{"name":"git"},{"name":"sql"}],"cities":[{"code":"moscow"}],"allowsRemote":true}},{"node":{"__typename":"Job","id":"227540992-1001352129329","title":"Golang разработчик","text":"#вакансия\nНеобходимые навыки: \n ⁃ опыт коммерческой разработки от 3-х лет;\n ⁃ опыт проектирования архитектуры приложений;\n ⁃ опыт организации работы в команде.\nНеобходимые технологии:\n ⁃ Golang with dep. Cobra + Viper;\n ⁃ RESTful API;\n ⁃ Go test;\n ⁃ MongoDB, SQL;\n ⁃ Git/Gitlab Flow;\n ⁃ Уверенная работа в Linux-консоли;\n ⁃ Docker, docker-compose.\nЗарплатная вилка (на руки): 180 тр - 220 тр (по результатам общения)\nРабота только в офисе с 9 до 18 (м. Парк Победы)\nГород: Москва\nЯзыки: русский, английский (для работы)\nНазвание компании: ООО «Спора» (разработка собственной интеллектуальной системы для медицинских организаций)\nКонтактное лицо: Марина \nm.n.katsenya@nefrosovet.ru\n@m_katsenya\n Автор @m_katsenya","markup":[{"type":"hashtag","offset":0,"length":9,"data":"вакансия"},{"type":"link","offset":654,"length":26,"data":"mailto:m.n.katsenya@nefrosovet.ru"},{"type":"handle","offset":681,"length":11,"data":"m_katsenya"},{"type":"handle","offset":700,"length":11,"data":"m_katsenya"}],"date":"2020-02-11T07:20:55+00:00","link":"tg://resolve?domain=gogetajobfeed&post=217","tags":[{"name":"go"},{"name":"mongodb"},{"name":"sql"},{"name":"git"},{"name":"gitlab"},{"name":"linux"},{"name":"docker"},{"name":"docker-compose"}],"cities":[{"code":"moscow"}],"allowsRemote":false}},{"node":{"__typename":"Job","id":"224395264-1001352129329","title":"Golang разработчик","text":"#вакансия #office #golang #fulltime \nВакансия: Golang разработчик\nФормат работы: fulltime, офис\nМесто работы: Москва, м. Сухаревская, Проспект мира 3с3 (100 метров от метро)\nЗП: от 180 000 до 200 000 net.\n\nЧто мы ждём от вас\nопыт работы с GoLang\nопыт работы с MongoDB\nумеете пользоваться Git\n\nВ проекте мы используем Docker, RabbitMQ, Redis, ElasticSearch - будет плюсом, если вы имели опыт работы с чем-то из этого списка. Если нет - приходите и мы научим\n\nЧто у нас есть\nминимум формальностей и множество возможностей проявить себя, стать лидером команды\nпогружение в изучение и использование различных практик и инструментов современной разработки\nполностью «белая» зарплата\nгибкий график работы\n\nСтек\n- Golang, NodeJS, Redis, RabbitMQ, ElasticSearch, MongoDB, ClickHouse\n- для ведения задач и хранения кода мы используем GitLab\n- используем практики CI & CD - наши проекты автоматически разворачиваются на серверах, а некоторые из них «гоняются» автотестами\n- Docker в наших сердцах - все продакшны работают на Docker внутри Kubernetes\n- вся инфраструктура находится внутри AWS\n- собираем метрики и организуем мониторинг наших проектов с помощью CloudWatch\n\nКомпания: Фармспейс\nСайт: https://pharmaspace.ru\nПродукт: маркетплейс фармакологической тематики.\n\nКонтакты @irarudakova\n Автор @irarudakova","markup":[{"type":"hashtag","offset":0,"length":9,"data":"вакансия"},{"type":"hashtag","offset":10,"length":7,"data":"office"},{"type":"hashtag","offset":18,"length":7,"data":"golang"},{"type":"hashtag","offset":26,"length":9,"data":"fulltime"},{"type":"link","offset":1188,"length":22,"data":"https://pharmaspace.ru"},{"type":"handle","offset":1270,"length":12,"data":"irarudakova"},{"type":"handle","offset":1290,"length":12,"data":"irarudakova"}],"date":"2020-02-10T08:23:12+00:00","link":"tg://resolve?domain=gogetajobfeed&post=214","tags":[{"name":"go"},{"name":"dotnet"},{"name":"mongodb"},{"name":"git"},{"name":"docker"},{"name":"rabbitmq"},{"name":"redis"},{"name":"elasticsearch"},{"name":"nodejs"},{"name":"gitlab"},{"name":"kubernetes"},{"name":"amazon-web-services"}],"cities":[{"code":"moscow"}],"allowsRemote":false}},{"node":{"__typename":"Job","id":"217055232-1001352129329","title":"Golang разработчик","text":"#вакансия #office #golang #fulltime \nВакансия: Golang разработчик\nФормат работы: fulltime, офис\nМесто работы: Москва, м. Сухаревская, Проспект мира 3с3\nПродукт: маркетплейс фармакологической тематики совместно с X5 Retail group.\nЗП: от 150 000 до 200 000 net.\n\nЧто мы ждём от вас\n- опыт работы с GoLang\n- опыт работы с MongoDB\n- умеете пользоваться Git\n- желание работать в команде, вносить идеи и предложение по совершенствованию продукта\nВ проекте мы используем Docker, RabbitMQ, Redis, ElasticSearch - будет плюсом, если вы имели опыт работы с чем-то из этого списка. Если нет - приходите и мы научим\n\nЧто у нас есть\n- минимум формальностей и множество возможностей проявить себя\n- погружение в изучение и использование различных практик и инструментов\nсовременной разработки\n- молодую, дружную и целеустремленную команду профессионалов\n- работу над интересными и востребованными сервисами\n- полностью «белая» зарплата\n- гибкий график работы\n- современный удобный офис в минуте ходьбы от станций метро Сухоревская\n\nСтек\n- у нас большой стек современных технологий - Golang, NodeJS, Redis, RabbitMQ, ElasticSearch, MongoDB, ClickHouse\n- для ведения задач и хранения кода мы используем GitLab\n- используем практики CI & CD - наши проекты автоматически разворачиваются на серверах, а некоторые из них - «гоняются» автотестами\n- Docker в наших сердцах - все продакшны работают на Docker внутри Kubernetes\n- вся инфраструктура находится внутри AWS\n- собираем метрики и организуем мониторинг наших проектов с помощью CloudWatch\n\nКомпания: Фармспейс\nСайт: https://pharmaspace.ru\nПродукт: маркетплейс фармакологической тематики совместно с X5 Retail group.\n\nПо всем вопросам в личку или в телегу @irarudakova\n Автор @irarudakova","markup":[{"type":"hashtag","offset":0,"length":9,"data":"вакансия"},{"type":"hashtag","offset":10,"length":7,"data":"office"},{"type":"hashtag","offset":18,"length":7,"data":"golang"},{"type":"hashtag","offset":26,"length":9,"data":"fulltime"},{"type":"link","offset":1552,"length":22,"data":"https://pharmaspace.ru"},{"type":"handle","offset":1691,"length":12,"data":"irarudakova"},{"type":"handle","offset":1711,"length":12,"data":"irarudakova"}],"date":"2020-02-03T19:00:39+00:00","link":"tg://resolve?domain=gogetajobfeed&post=207","tags":[{"name":"go"},{"name":"dotnet"},{"name":"mongodb"},{"name":"git"},{"name":"docker"},{"name":"rabbitmq"},{"name":"redis"},{"name":"elasticsearch"},{"name":"nodejs"},{"name":"gitlab"},{"name":"kubernetes"},{"name":"amazon-web-services"}],"cities":[{"code":"moscow"}],"allowsRemote":false}},{"node":{"__typename":"Job","id":"214958080-1001352129329","title":"Go developer","text":"#вакансия #fulltime #remote #office #relocate #Amsterdam\n\nSenior Software Engineer - Kickstox (Amsterdam, The Netherlands)\n€48.000 - €58.000 / year (gross)\n\nAt Kickstox we have the modest goal of reinventing fantasy football and transforming it into a 24/7, real time game that allows football fans to meet, greet and compete. For this we have created the Kickstox exchange where users can trade fictional stocks of their favourite football players, check how they perform in real-time, compete in different competition formats and challenge their friends to prove them they know best about football, every day – every play!\nWe need you to be the best of both worlds; a manager who takes complete control of the Tech team and also a creative, senior back-end developer that is not afraid to get his or her hands dirty. The foundations have been laid but the quest to expand and improve is never ending and for that we look to you. You are in charge of reaching the milestones, building responsive and elegant web applications, improve usability and customer experience and find solutions to the everyday challenges that come up.\nYou will have a small team of different skill sets to manage with a high probability of expansion in the near future. \n\nYour skills:\nA great sense of ownership and responsibility\nInsightfulness and a hawk’s eye for detail\nConstant drive to grow fast and improve yourself\nA problem-solving mindset that thinks in solutions\nResourcefulness, thinking creatively and optimistically \nProven experience with managing multi-talented and multi-national teams\nProject management with teams of varying technical skills using scrum protocols\nFull professional command of English\n\nProfound working knowledge with:\n▪ Go \n▪ Postgres(TimescaleDB)\n▪ Redis\n▪ RabbitMQ\n▪ MQTT/Websocket\n\nOur infrastructure runs over Google Cloud Platform using Docker, Kubernetes and Gitlab. And is provisioned by Ansible.\n\nAnd a love for the beautiful game is definitely a pro!\n\nWhat can we offer\nAs a key part of the technical heart of the company you get the freedom to think and work out new functions. Ideas and suggestions are greatly appreciated and more importantly, they are listened to. We want to expand and rapidly conquer this market in the coming years. This offers opportunity for you to become included in the success of the company.\n\nContact @cra3y\n Автор @cra3y","markup":[{"type":"hashtag","offset":0,"length":9,"data":"вакансия"},{"type":"hashtag","offset":10,"length":9,"data":"fulltime"},{"type":"hashtag","offset":20,"length":7,"data":"remote"},{"type":"hashtag","offset":28,"length":7,"data":"office"},{"type":"hashtag","offset":36,"length":9,"data":"relocate"},{"type":"hashtag","offset":46,"length":10,"data":"Amsterdam"},{"type":"handle","offset":2353,"length":6,"data":"cra3y"},{"type":"handle","offset":2367,"length":6,"data":"cra3y"}],"date":"2020-01-31T11:21:41+00:00","link":"tg://resolve?domain=gogetajobfeed&post=205","tags":[{"name":"go"},{"name":"playframework"},{"name":"web"},{"name":"postgresql"},{"name":"redis"},{"name":"rabbitmq"},{"name":"websocket"},{"name":"cloud"},{"name":"docker"},{"name":"kubernetes"},{"name":"gitlab"},{"name":"ansible"},{"name":"google-cloud-platform"}],"cities":[{"code":"amsterdam"}],"allowsRemote":true}}]}}},"context":{}}