{"hash":"f34fd2c444a074f4e0e67d525015a008ef8e766f","data":{"records":{"id":"docker","name":"docker","belongsTo":{"totalCount":130,"pageInfo":{"totalPages":13,"currentPage":3},"edges":[{"node":{"__typename":"Job","id":"98213822464-1001089317451","title":"Qa инженер","text":"#вакансия #QA #Москва #офис #java\n\nВакансия: Тестировщик (ФТ+АТ)\nГород: Москва м. Комсомольская, но скоро переезд на Технопарк\nЗарплата: от 100 000 рублей до 140 000 рублей на руки \nФормат: офис, полный день, полная занятость \nКомпания Innovative People \n\nПроект «заявление на получение наличных»\nСоотношение ручного тестирования и автоматизации примерно 50/50.\nМы уже запилили шаблоны рублевых платежей, а теперь беремся за Модуль заказа наличных. Через наш модуль клиент-юр лицо сможет заказать выдачу наличных любому своему сотруднику с точностью суммы до копеечки, а точность -  это уже половина успеха. \nЕсли без тебя никак нельзя - тебе к нам!\n\nНа проекте понадобится:\n🔹Опыт работы в функциональном тестировании от 1 года + опыт написания авто-тестов\n🔹Java, selenide/selenium (автотесты через docker + selenoid)\n🔹Опыт работы с Jira\n🔹Документация – confluence\n🔹Логирование - kibana + monlog + grafana (prod) + логи напрямую на сервере\n🔹Система контроля версий - git bitbucket\n🔹Сервис планирования, почтовик - Lotus Notes\n🔹Сервис для сборки и развертывания приложений – Bamboo\n🔹Сервис хранения образов приложений – artifactory\n\n\nНадо будет:\n🔸поддерживать и актуализировать авто-тесты\n🔸отвечать за функциональное и приемочное тестирвоание\n🔸проводить регулярный регресс проекта\n🔸разрабатывать тестовую документацию\n🔸принимать активное участие в scrum\n\nМы предлагаем:\n🔺все официальное и белое \n🔺ДМС со стоматологией, программа лояльности\n🔺Macbook \n🔺гибкое начало дня, иногда можно работать из дома \n🔺четкое видение результата и наличие обратной связи\n🔺отличный продакт во главе scrum-команды, хорошая корпоративная культура\n🔺большое комьюнити, карьерный рост\n\n\n📩Резюме и вопросы a.anokhina@inpglobal.com","markup":[{"type":"hashtag","offset":0,"length":9,"data":"вакансия"},{"type":"hashtag","offset":10,"length":3,"data":"QA"},{"type":"hashtag","offset":14,"length":7,"data":"Москва"},{"type":"hashtag","offset":22,"length":5,"data":"офис"},{"type":"hashtag","offset":28,"length":5,"data":"java"},{"type":"bold","offset":650,"length":25,"data":""},{"type":"bold","offset":1141,"length":13,"data":""},{"type":"bold","offset":1367,"length":16,"data":""},{"type":"link","offset":1702,"length":24,"data":"mailto:a.anokhina@inpglobal.com"}],"date":"2020-04-08T08:41:54+00:00","link":"tg://resolve?domain=qa_jobs&post=93664","tags":[{"name":"qa"},{"name":"java"},{"name":"selenium"},{"name":"docker"},{"name":"git"}],"cities":[{"code":"moscow"}],"allowsRemote":false}},{"node":{"__typename":"Job","id":"98204385280-1001089317451","title":"Qa инженер","text":"#QA #вакансия #Москва #fulltime #java\n💥Команда СберТеха  ищет классного QA-инженера!🙌\n💥Проект: тестирование сервисов безопасности технологической платформы Сбербанка.\n💥Задачи: дизайн, разработка и поддержка пакетов автотестов API и UI группы продуктов платформы поддержки развития бизнеса;подготовка тест-кейсов; регистрация и отслеживание дефектов.\n💥Стек: Java,cucumber, Junit, Jenkins, Allure reports, Docker, BPM\n💥Москва, м.Нагатинская/Тульская\n💥зп: 150-250 k\n💥-Оформление ТК РФ;\n     -ДМС;\n     - Белая заработная плата (оклад + годовая премия);\n     -Возможность обучения за счет компании;\n     -   Льготное кредитование;\n      -Бесплатный тренажерный зал на территории офиса;\n       - корпоративная жизнь и спортивные мероприятия;\n       -возможность карьерного роста.\n\nЖдём Вас в нашей команде!\n@TaliaHR","markup":[{"type":"hashtag","offset":0,"length":3,"data":"QA"},{"type":"hashtag","offset":4,"length":9,"data":"вакансия"},{"type":"hashtag","offset":14,"length":7,"data":"Москва"},{"type":"hashtag","offset":22,"length":9,"data":"fulltime"},{"type":"hashtag","offset":32,"length":5,"data":"java"},{"type":"handle","offset":810,"length":8,"data":"TaliaHR"}],"date":"2020-04-08T07:57:21+00:00","link":"tg://resolve?domain=qa_jobs&post=93655","tags":[{"name":"qa"},{"name":"java"},{"name":"cucumber"},{"name":"junit"},{"name":"jenkins"},{"name":"docker"}],"cities":[{"code":"moscow"}],"allowsRemote":false}},{"node":{"__typename":"Job","id":"1427111936-1001091028994","title":"Java developer","text":"#вакансия #java #backend #spring \nКомпания OpenDev\nЛокация #мск #москва \nЗП 170-230 gross\n\n🔵 Middle / Senior Java Developer\nТендеция  бесконтактных услуг и удаленных сервисов набирает обороты. Присоединийся к нам!\nПроект: SMARTBRANCH \nРазработка и поддержка ПО банковских терминалов нового поколения. Все услуги банка и интерактивное общение с менеджером  - в одном устройстве. Больше никаких очередей и \"возьмите талончик\" :) \n\nСтек:\n🔹 Java core, Java 8+\n🔹  Spring Framework, Spring boot, Spring Cloud\n🔹 Docker\n🔹 БД: NoSQL\n\nУсловия\n- Белая ЗП + ДМС\n- Продуктовые Scrum команды\n- Performance review\n- Релокация кандидатов из регионов ✈  \n\nЗадать вопрос / прислать CV / просто поздороваться @xenia_agv","markup":[{"type":"hashtag","offset":0,"length":9,"data":"вакансия"},{"type":"hashtag","offset":10,"length":5,"data":"java"},{"type":"hashtag","offset":16,"length":8,"data":"backend"},{"type":"hashtag","offset":25,"length":7,"data":"spring"},{"type":"hashtag","offset":59,"length":4,"data":"мск"},{"type":"hashtag","offset":64,"length":7,"data":"москва"},{"type":"handle","offset":695,"length":10,"data":"xenia_agv"}],"date":"2020-04-08T07:16:44+00:00","link":"tg://resolve?domain=jvmjobs&post=1361","tags":[{"name":"java"},{"name":"jvm"},{"name":"spring"},{"name":"cloud"},{"name":"docker"},{"name":"nosql"},{"name":"spring-boot"}],"cities":[{"code":"moscow"}],"allowsRemote":false}},{"node":{"__typename":"Job","id":"1978662912-1001134745498","title":"Devops engineer","text":"#вакансия #DevOps #fulltime\nВакансия: DevOps engineer / Системный администратор\nКомпания: Sl-Tech\nГород: Москва, метро Маяковская\nФормат работы: офис\nЗанятость: полная\nЗарплата : от 100 до 170 т.р. net\nО компании:\nSL Tech – компания, которая управляет портфелем проектов, предназначенных как для потребителей, так и для партнеров - поставщиков услуг в высокотехнологичных областях.\nКомпания родилась в 2006 году как часть группы SEALINE, в которую также входит страховой и перестраховочный брокер SEALINE, входящий в ТОП-10 страховых брокеров РФ.\nМы создаем современные IT-решения для бизнеса и жизни, помогая выстраивать коммуникацию между поставщиками и потребителями услуг. Своим партнерам мы предлагаем готовые решения, которые позволяют расширить возможности существующего бизнеса и получить дополнительный доход.\nSL Tech не просто разрабатывает продукты, отвечающие современным запросам партнеров и их клиентов, но и влияет непосредственно на формирование новых сегментов рынка\nТебе предстоит:\n- Развитие и поддержка сервисов компании\n- Управление инфраструктурой компании\n- Автоматизация развертывания\n- Мониторинг\n- Сбор и анализ логов\n- Организация непрерывного функционирования сервисов, резервное копирование\nЧто нужно уметь:\n- Администрирование Linux (Ubuntu)\n- От 3-х лет опыта администрирования веб-сервисов работающих на Linux\n- Опыт использования и настройки системы Gitlab\n- Знания систем Docker Swarm, Kubernetes\n- Настройка, репликация PostgreSQL\n- Работы с системами автоматизации (Ansible, Chef и т.п.), мониторинга (Zabbix, Prometheus), сбора и анализа логов (ELK, ClickHouse)\n- Умение читать код на Python\n- Желание работать в команде\nМы предлагаем:\n• Оформление по ТК РФ\n• Полностью белая зп;\n• Уровень зп обсуждается индивидуально (в соответствии с вашим уровнем и ожиданиями) ЗП вилка 100-170 тыс.руб.\n• ДМС (после испытательного срока 3 месяца)\n• Офис в центре (5 минут от м.Маяковская)\n• Чай, кофе, печеньки\n• Адекватное руководство\n• Весёлая, сильная команда\nКонтакт: @SanDevl\n\n—\n\n👉 Обсуждение вакансии в чате @devops_jobs","markup":[{"type":"hashtag","offset":0,"length":9,"data":"вакансия"},{"type":"hashtag","offset":10,"length":7,"data":"DevOps"},{"type":"hashtag","offset":18,"length":9,"data":"fulltime"},{"type":"handle","offset":1997,"length":8,"data":"SanDevl"},{"type":"handle","offset":2040,"length":12,"data":"devops_jobs"}],"date":"2020-04-07T13:49:27+00:00","link":"tg://resolve?domain=devops_jobs_feed&post=1887","tags":[{"name":"dotnet"},{"name":"linux"},{"name":"ubuntu"},{"name":"gitlab"},{"name":"docker"},{"name":"kubernetes"},{"name":"postgresql"},{"name":"ansible"},{"name":"python"}],"cities":[{"code":"moscow"}],"allowsRemote":false}},{"node":{"__typename":"Job","id":"1977614336-1001134745498","title":"Devops инженер","text":"#вакансия #devops \nГород и адрес офиса: #москва ул. Барклая, 6, стр. 5\nФормат работы: #офис\nЗанятость: #полная #fulltime \nЗарплатная вилка: от 220 до 260 т.р. на руки\nНаша компания ищет сильного инженера, обладающего большим бэкграундом в DevOps, который бы занял ключевую техническую роль в развитии данного направления и стал бы лидером нашего центра компетенций по DevOps. Мы ожидаем, что кандидат разделяет принципы философии DevOps и является экспертом с большим техническим кругозором в данной области.\nТебе предстоит:\nРазвивать центр компетенций DevOps в компании, проводить RnD, обучать коллег, участвовать в найме DevOps-инженеров и SRE.\nУчаствовать в пресейловых активностях: проработка, планирование и оценка внедряемых решений.\nВнедрять DevOps решения, включающих такие области, как автоматизация процессов сборки и развертывания систем, автоматизированное тестирование, мониторинг и менеджмент релизов.\nУстанавливать и настраивать инструменты DevOps.\nПодготавливать документацию по проектам и внедрению DevOps решений.\nБез чего ты не сможешь работать у нас: Наличие в портфолио успешно завершенных проектов по внедрению DevOps инструментов и методологии.\nОпыт работы в роли DevOps-инженера не менее 3х лет.\nОпыт системного администрирования Linux/Unix, Windows не менее 2х лет.\nОпыт работы с серверной виртуализацией (VMWare, KVM, Xen, etc.).\nОпыт работы с инструментами управления конфигурациями (Ansible или Puppet, Chef).\nОпыт настройки CI и CD (Jenkins, Gitlab CI, Teamcity), понимание плюсов и минусов данных инструментов.\nЗнание идеологии и инструментов infrastructure as code.\nОпыт работы с системами контейнерной виртуализации (Docker, Docker Swarm).\nОпыт развития и поддержки средств мониторинга инфраструктуры и сервисов (Prometheus, Zabbix, Grafana).\nХорошее знание Git, включая стратегии ветвления и слияния (Git-Flow).\nБонусы и дополнительные условия: 3 дополнительных отгула в год; корпоративный английский язык; настольный футбол, гибкое начало дня.\nНазвание компании: Перфоманс Лаб \nКонтакты: @bystrova_ak / a.bystrova@pflb.ru\n\n—\n\n👉 Обсуждение вакансии в чате @devops_jobs","markup":[{"type":"hashtag","offset":0,"length":9,"data":"вакансия"},{"type":"hashtag","offset":10,"length":7,"data":"devops"},{"type":"hashtag","offset":40,"length":7,"data":"москва"},{"type":"hashtag","offset":86,"length":5,"data":"офис"},{"type":"hashtag","offset":103,"length":7,"data":"полная"},{"type":"hashtag","offset":111,"length":9,"data":"fulltime"},{"type":"handle","offset":2022,"length":12,"data":"bystrova_ak"},{"type":"link","offset":2037,"length":18,"data":"mailto:a.bystrova@pflb.ru"},{"type":"handle","offset":2090,"length":12,"data":"devops_jobs"}],"date":"2020-04-07T13:04:24+00:00","link":"tg://resolve?domain=devops_jobs_feed&post=1886","tags":[{"name":"linux"},{"name":"unix"},{"name":"windows"},{"name":"ansible"},{"name":"jenkins"},{"name":"gitlab"},{"name":"docker"},{"name":"git"}],"cities":[{"code":"moscow"}],"allowsRemote":false}},{"node":{"__typename":"Job","id":"98126790656-1001089317451","title":"Qa engineer","text":"#вакансия #москва #полнаязанятость #qaengineer\nКомпания: #Mетрквадратный ( https://m2.ru )\nЛокация: м.Белорусская (в шаге от метро) \nЗ/п: от 120к - 230к на руки\nКонтакты: @maxdmitrov\n\nЭто платформа, на которой физические лица смогут в режиме одного окна подобрать объект недвижимости, оформить на него ипотеку, произвести электронную регистрацию, сделать безопасный расчет не посещая банки и воспользоваться дополнительными услугами (страхование, дизайн, ремонт). \n\nНаш стэк:\n• Java\n • Node.js\n • React, TypeScript\n • Kafka, ElasticSearch, gRPC\n • Docker\n\nЧем предстоит заниматься:\n • анализировать и тестировать требования к разрабатываемым приложениям;\n • писать приемочные критерии к пользовательским историям;\n • проводить функциональное, регрессионное и smoke тестирование;\n • заниматься задачами по автоматизации тестирования.\n\nЧего мы ждем:\n • глубокое понимание процессов тестирования и разработки ПО;\n • опыт интеграционного тестирования:\n    - системная интеграция;\n    - компонентная интеграция\n • опыт тестирования АРI;\n • опыт автоматизации тестирования на любом стеке.\n\nБудет плюсом\n • опыт исследовательского тестирования;\n • опыт тестирования ПО с микросервисной архитектурой.\n\nМы предлагаем:\n • белая конкурентная ЗП, официальное оформление;\n • гибкий график работы, возможность выбора рабочего оборудования;\n • ДМС, компенсация фитнеса, льготная ставка по ипотеке;\n • комфортный офис в БЦ «Белая площадь» (минута от метро): лаундж-зоны, бариста, фрукты.","markup":[{"type":"hashtag","offset":0,"length":9,"data":"вакансия"},{"type":"hashtag","offset":10,"length":7,"data":"москва"},{"type":"hashtag","offset":18,"length":16,"data":"полнаязанятость"},{"type":"hashtag","offset":35,"length":11,"data":"qaengineer"},{"type":"hashtag","offset":57,"length":15,"data":"Mетрквадратный"},{"type":"link","offset":75,"length":13,"data":"https://m2.ru"},{"type":"handle","offset":171,"length":11,"data":"maxdmitrov"},{"type":"bold","offset":465,"length":11,"data":""},{"type":"bold","offset":556,"length":26,"data":""},{"type":"bold","offset":833,"length":15,"data":""},{"type":"bold","offset":1083,"length":14,"data":""},{"type":"bold","offset":1192,"length":16,"data":""}],"date":"2020-04-07T11:57:25+00:00","link":"tg://resolve?domain=qa_jobs&post=93581","tags":[{"name":"qa"},{"name":"java"},{"name":"nodejs"},{"name":"reactjs"},{"name":"typescript"},{"name":"kafka"},{"name":"elasticsearch"},{"name":"docker"}],"cities":[{"code":"moscow"}],"allowsRemote":false}},{"node":{"__typename":"Job","id":"1976565760-1001134745498","title":"Devops инженер","text":"#вакансия #vacancy #Москва #Moscow #fulltime #DevOps \nПозиция: DevOps / Инженер внедрения\nЛокация: Москва, м. Калужская\nВилка: 110.000-150.000 RUB net \nЗанятость: Полная\nФормат работы: офис\nКонтакты: @cated_z\nekdzolotareva@gmail.com\n \nОбязанности:\n▫️Проводить деплой;\n▫️Дорабатывать схему деплоя текущих и будущих проектов;\n▫️Перенести текущую инфраструктуру компании в код (две стойки различного оборудования с бородой из патчкордов);\n▫️Поиск проблем: взаимодействие с командой разработчиков по вопросам внедрения системы и исправления найденных в процессе внедрения недостатков;\n▫️Ведение базы знаний (у нас Confluence);\n▫️Ведение отчетной документации;\n▫️Подготовка элементов документации (описания, схемы).\n \nНеобходимые навыки: \n▫️Опыт работы с Docker, Docker-реестром, Docker-swarm (чтение структуры, запуск, конфигурирование, обслуживание, оптимизация);\n▫️Опыт работы с Windows-сервер (установка, удаление сервисов, написание конфигурации для Cocholatey реестра, PowerShell);\n▫️Опыт отладки и оптимизации сетей (просмотр трафика, обнаружение сервисов, потребляющих канал и т.д.);\n▫️Знание основных инструментов CI/CD, IasC, CasC (у нас Jenkins, BitBucket, Ansible, Terraform, Vmware, в процессе переноса инфраструктуры в облако);\n▫️Умение писать  на одном из языков: Bash, Python, Groovy;\n▫️Опыт отладки REST API;\n▫️Опыт работы с PostgreSQL (написание запросов, поиск данных);\n▫️Опыт работы с MongoDB (просмотр, поиск, редактирование данных);\n▫️Способность разбираться в сложных программных алгоритмах, логике и структуре системы.\n \nУсловия: \n▫️Официальное оформление по ТК РФ;\n▫️График работы 5/2, гибкое начало рабочего дня;\n▫️Комфортное рабочее место;\n▫️Пятидневная рабочая неделя с гибким началом рабочего дня;\n▫️Расширенный ДМС;\n▫️Скидки у компаний-партнеров;\n▫️Помощь в релокации: оплата залога + первого месяца проживания;\n▫️Офис в 7 минутах от м. Калужская, БЦ \"Neo Geo\".\n\n—\n\n👉 Обсуждение вакансии в чате @devops_jobs","markup":[{"type":"hashtag","offset":0,"length":9,"data":"вакансия"},{"type":"hashtag","offset":10,"length":8,"data":"vacancy"},{"type":"hashtag","offset":19,"length":7,"data":"Москва"},{"type":"hashtag","offset":27,"length":7,"data":"Moscow"},{"type":"hashtag","offset":35,"length":9,"data":"fulltime"},{"type":"hashtag","offset":45,"length":7,"data":"DevOps"},{"type":"handle","offset":200,"length":8,"data":"cated_z"},{"type":"link","offset":209,"length":23,"data":"mailto:ekdzolotareva@gmail.com"},{"type":"handle","offset":1921,"length":12,"data":"devops_jobs"}],"date":"2020-04-07T11:52:55+00:00","link":"tg://resolve?domain=devops_jobs_feed&post=1885","tags":[{"name":"dotnet"},{"name":"docker"},{"name":"windows"},{"name":"powershell"},{"name":"jenkins"},{"name":"ansible"},{"name":"bash"},{"name":"python"},{"name":"groovy"},{"name":"rest"},{"name":"postgresql"},{"name":"mongodb"}],"cities":[{"code":"moscow"}],"allowsRemote":false}},{"node":{"__typename":"Job","id":"1975517184-1001134745498","title":"Devops engineer","text":"#вакансия #fulltime #devops #удалёнка\n\n💫Компания: i-techlabs\n\nЯ ищу опытного DevOps Engineer на проект по созданию Playtech Open Platform (POP) и игровой платформы как услуги (GPAS). \nОбе платформы построены с использованием архитектуры реактивных микроуслуг и написаны на языке программирования Scala.\nОни используют базу данных No-SQL Couchbase для сохранения и хранения данных.\n\n☕️Условия:\n\n• Вилка по зп 150 000 р.-200 000+р.\n• Удалённая работа\n• Полный день\n• Гибкий график\n\n💻Требования:\n\n• Более 3 лет опыта в DevOps или администрировании Linux\n• Хороший набор навыков Linux\n• Опыт работы с контейнерами Docker (сборка и развертывание)\n• Навыки программирования на Python / Bash\n• Jenkins\n• Управление Java-приложениями\n• Intermediate English \n\n➕Плюсом:\n• Mirantis\n• Kubernetes\n• Akka cluster\n• Couchbase\n• Elasticsearch\n• Grafana\n• Prometheus\n\n☎️ Контакт: @coderhunt Надежда\n\n—\n\n👉 Обсуждение вакансии в чате @devops_jobs","markup":[{"type":"hashtag","offset":0,"length":9,"data":"вакансия"},{"type":"hashtag","offset":10,"length":9,"data":"fulltime"},{"type":"hashtag","offset":20,"length":7,"data":"devops"},{"type":"hashtag","offset":28,"length":9,"data":"удалёнка"},{"type":"handle","offset":865,"length":10,"data":"coderhunt"},{"type":"handle","offset":918,"length":12,"data":"devops_jobs"}],"date":"2020-04-07T11:32:53+00:00","link":"tg://resolve?domain=devops_jobs_feed&post=1884","tags":[{"name":"scala"},{"name":"sql"},{"name":"linux"},{"name":"docker"},{"name":"python"},{"name":"bash"},{"name":"jenkins"},{"name":"java"},{"name":"kubernetes"},{"name":"akka"},{"name":"elasticsearch"}],"cities":[],"allowsRemote":true}},{"node":{"__typename":"Job","id":"24324866048-1001075660570","title":"Php разработчик","text":"#вакансия #php #backend #senior #developer #удалённо #фуллтайм\n\n📌Vigrom – международная компания-разработчик. Более 9 лет мы создаём решения и продукты для онлайн-игр.\nСегодня в компании работает более 150 сотрудников из России, Латвии, Кипра.\n\n📍Мы ищем Senior PHP developer в сложный и масштабный проект.\n\nСтек наших технологий: PHP 7.4, PostgreSQL 12, Memcache, компоненты Symfony, PHPUnit, Docker, Gitlab CI.\n\nВам предстоит:\n\n🔹 Работа над новым функционалом, непрерывные улучшения и оптимизации текущего;\n🔹Активное участие во всём процессе разработки, начиная с проектирования и заканчивая запуском и поддержкой;\n🔹Коммуникация с командами мобильной разработки и разработки игр. Поиски оптимальных вариантов реализации (архитектура, API, сервисы);\n🔹 Unit- и API-тестирование;\n🔹Проведение Code review;\n🔹Участие в технологическом развитии проекта (выбор новых технологий и подходов к разработке);\n🔹Обеспечение качества кода на всех этапах разработки.\n\nЧто нужно знать/уметь/иметь:\n\n🔹Опыт разработки веб-приложений и сервисов от 3х лет;\n🔹Уверенное владение PHP (сильные и слабые стороны языка);\n🔹 Опыт проектирования реляционных баз данных, уверенное владение SQL;\n🔹 Опыт разработки веб-приложений под существенную нагрузку;\n🔹 Понимание ООП и принципов SOLID;\n🔹 Применение модульного тестирования;\n🔹Быть открытым к диалогу и вести аргументированные споры.\n\nПлюсом будет:\n\n🔹Опыт работы в долгосрочных проектах;\n🔹Опыт работы с PostgreSQL;\n🔹 Знание дополнительных языков - JS, Python.\n\nМы предлагаем:\n\n🔹Высокую заработную плату  + бонусы за результат;\n🔹Возможность карьерного роста;\n🔹Посещение профильных конференций и митапов;\n🔹Сильную команду разработчиков, где можно серьезно прокачать свои скиллы;\n🔹Корпоративные мероприятия, открытое общение с коллегами как в сети, так и в реальном мире. \n\n📝Пиши: @ladychekman, Наталья","markup":[{"type":"hashtag","offset":0,"length":9,"data":"вакансия"},{"type":"hashtag","offset":10,"length":4,"data":"php"},{"type":"hashtag","offset":15,"length":8,"data":"backend"},{"type":"hashtag","offset":24,"length":7,"data":"senior"},{"type":"hashtag","offset":32,"length":10,"data":"developer"},{"type":"hashtag","offset":43,"length":9,"data":"удалённо"},{"type":"hashtag","offset":53,"length":9,"data":"фуллтайм"},{"type":"handle","offset":1824,"length":12,"data":"ladychekman"}],"date":"2020-04-07T07:40:30+00:00","link":"tg://resolve?domain=php_jobs&post=23198","tags":[{"name":"php"},{"name":"postgresql"},{"name":"symfony"},{"name":"phpunit"},{"name":"docker"},{"name":"gitlab"},{"name":"sql"},{"name":"python"}],"cities":[],"allowsRemote":true}},{"node":{"__typename":"Job","id":"98102673408-1001089317451","title":"Qa инженер","text":"#QA #вакансия #Москва #fulltime #java\n💥Команда СберТеха  ищет классного QA-инженера!🙌\n💥Проект: тестирование сервисов безопасности технологической платформы Сбербанка.\n💥Задачи: дизайн, разработка и поддержка пакетов автотестов API и UI группы продуктов платформы поддержки развития бизнеса;подготовка тест-кейсов; регистрация и отслеживание дефектов.\n💥Стек: Java,cucumber, Junit, Jenkins, Allure reports, Docker, BPM\n💥Москва, м.Нагатинская/Тульская\n💥зп: 150-250 k\n💥-Оформление ТК РФ;\n     -ДМС;\n     - Белая заработная плата (оклад + годовая премия);\n     -Возможность обучения за счет компании;\n     -   Льготное кредитование;\n      -Бесплатный тренажерный зал на территории офиса;\n       - корпоративная жизнь и спортивные мероприятия;\n       -возможность карьерного роста.\n\nЖдём Вас в нашей команде!\n@TaliaHR","markup":[{"type":"hashtag","offset":0,"length":3,"data":"QA"},{"type":"hashtag","offset":4,"length":9,"data":"вакансия"},{"type":"hashtag","offset":14,"length":7,"data":"Москва"},{"type":"hashtag","offset":22,"length":9,"data":"fulltime"},{"type":"hashtag","offset":32,"length":5,"data":"java"},{"type":"handle","offset":810,"length":8,"data":"TaliaHR"}],"date":"2020-04-07T06:39:30+00:00","link":"tg://resolve?domain=qa_jobs&post=0","tags":[{"name":"qa"},{"name":"java"},{"name":"cucumber"},{"name":"junit"},{"name":"jenkins"},{"name":"docker"}],"cities":[{"code":"moscow"}],"allowsRemote":false}}]}}},"context":{}}