{"hash":"f5f6bf98bd95e769321482904cbbd488f77922fd","data":{"records":{"id":"sql","name":"sql","belongsTo":{"totalCount":169,"pageInfo":{"totalPages":17,"currentPage":16},"edges":[{"node":{"__typename":"Job","id":"1686110208-1001091028994","title":"Java разработчик","text":"#вакансия #java #senior #middle \nЛокация: Саратов, Самара, Кемерово \nЗП: 80.000-170.000 на руки\nИщем в команду Java dev  уровня middle/senior в связи с большим количеством интересных проектов и расширения команды.\nКратко по стеку: \n[ Java 11+, Maven, Spring Boot 2+, Hibernate 5+, PostgreSQL 12, RabbitMQ ]\nТребования:\n - Java SE 8 и выше \n- Spring / Spring Boot \n- Hibernate или MyBatis\n- SQL (PostgreSQL) \n- Apache Tomcat или Eclipse Jetty или другой app server\n- Принципы ООП\n- Web сервисы (REST или SOAP).\n Будет плюсом: опыт работы с одним из актуальных frontend фреймворков - Angular, React, Vue; понимание принципов работы протоколов HTTP, HTTPS; работа с очередями (ActiveMQ, RabbitMQ) и опыт работы с Docker.\nЧто предлагаем:\n- белая з/п и оформление в штат;\n- интересные проекты и адекватное руководство; \n- возможность профессионального и карьерного роста;\n- формат интервью 1 этап по Skype или Zoom\nДля связи и резюме @KaterinaHR","markup":[{"type":"hashtag","offset":0,"length":9,"data":"вакансия"},{"type":"hashtag","offset":10,"length":5,"data":"java"},{"type":"hashtag","offset":16,"length":7,"data":"senior"},{"type":"hashtag","offset":24,"length":7,"data":"middle"},{"type":"handle","offset":929,"length":11,"data":"KaterinaHR"}],"date":"2020-06-16T07:55:35+00:00","link":"tg://resolve?domain=jvmjobs&post=1608","tags":[{"name":"java"},{"name":"jvm"},{"name":"maven"},{"name":"spring"},{"name":"hibernate"},{"name":"postgresql"},{"name":"rabbitmq"},{"name":"sql"},{"name":"apache"},{"name":"tomcat"},{"name":"eclipse"},{"name":"jetty"},{"name":"web"},{"name":"rest"},{"name":"soap"},{"name":"angularjs"},{"name":"reactjs"},{"name":"vuejs"},{"name":"docker"},{"name":"spring-boot"}],"cities":[{"code":"saratov"},{"code":"samara"},{"code":"kemerovo"}],"allowsRemote":false}},{"node":{"__typename":"Job","id":"102932414464-1001089317451","title":"Qa инженер","text":"#вакансия #remote #office #fulltime #senior #middle #junior #qa #новосибирск\n \nКомпания: Бюро судебного взыскания\nЛокация: remote или офис в Новосибирске\nЗанятость: full-time\nЗП до 55 000\nКонтакты: @AntoshaStark \n \nКомпания Бюро судебного взыскания помогает избавить всех участников финансовой системы от проблем с долгами. Мы решаем финансовые проблемы людей и крупных компаний. И сейчас мы в поиске QA-инженера.\n\nЧем нужно будет заниматься:\n\n▪️детализация требований к программе;\n▪️анализ и расчет времени нужного на создание ▪️приложения или исправление бага;\n▪️разработка сценариев тестирования;\n▪️внесение обнаруженных недочетов в трекинговую систему;\n▪️обсуждение исправлений с всеми участниками разработки;\n▪️доработка сценариев тестирования;\n▪️анализ процесса командной разработки;\n▪️оптимизация процессов разработки для избежания повторного появления обнаруженных ошибок;\n▪️ведение документации по тестам.\n\nЧто мы ждем от кандидатов:\n\n▫️Опыт работы в должности от года;\n▫️Знания теории и видов тестирования;\n▫️Знания SQL;\n▫️Опыт написания тест-кейсов;\n▫️Опыт написания документации.\n▫️Желателен опыт в написании автотестов.\n\nЧто мы предлагаем:\n\n🔸Официальное трудоустройство с первого дня работы (в том числе на удалёнке).\n🔸Возможность профессионального и карьерного развития в компании.\n🔸Сильная команда из 25+ профессионалов своего дела. И мы ещё растём :)\n🔸Работа возможна в офисе и на удалёнке.","markup":[{"type":"hashtag","offset":0,"length":9,"data":"вакансия"},{"type":"hashtag","offset":10,"length":7,"data":"remote"},{"type":"hashtag","offset":18,"length":7,"data":"office"},{"type":"hashtag","offset":26,"length":9,"data":"fulltime"},{"type":"hashtag","offset":36,"length":7,"data":"senior"},{"type":"hashtag","offset":44,"length":7,"data":"middle"},{"type":"hashtag","offset":52,"length":7,"data":"junior"},{"type":"hashtag","offset":60,"length":3,"data":"qa"},{"type":"hashtag","offset":64,"length":12,"data":"новосибирск"},{"type":"handle","offset":198,"length":13,"data":"AntoshaStark"},{"type":"bold","offset":224,"length":24,"data":""},{"type":"bold","offset":401,"length":11,"data":""},{"type":"bold","offset":415,"length":29,"data":""},{"type":"bold","offset":916,"length":28,"data":""},{"type":"bold","offset":1134,"length":20,"data":""}],"date":"2020-06-16T07:31:57+00:00","link":"tg://resolve?domain=qa_jobs&post=0","tags":[{"name":"qa"},{"name":"sql"}],"cities":[{"code":"novosibirsk"}],"allowsRemote":true}},{"node":{"__typename":"Job","id":"1684013056-1001091028994","title":"Java разработчик","text":"#java #java11 #tarantool #lua #redis #kotlin \n\nКомпания #Иннодата (ГК Ramax) - системный интегратор с офисами в #Москва, #Питер, #Воронеж, #Иннополис. \nФормат работы #офис, #fulltime #remote\nВилка: от 200 net на руки\nКонтакт для связи: pbokarev@innodata.ru \n\n📌Задача: Нам предстоит разработать один из центральных компонентов ИТ системы крупнейшей ритейл сети.\n\nГеораспределённую mission-critical платформу, работающую в режиме 24/7 365, объединяющую информацию из всех подразделений и IT-систем, связанных с клиентом, в единый профиль. К системе предъявляются жесткие требования ко времени отклика и rps. Ядром системы мы выбрали tarantool - одно из самых навороченных imdg решений на данный момент. Мы ищем человека, который не боится новых вызовов и готов развиваться, устал от бесконечный crud'ов и хочет попробовать себя в highload. Готовы рассмотреть кандидатов разного уровня!\n\n📌Наши плюсы:\nНикакого legacy, тк проект только начинается, есть возможность поучаствовать в выборе стека. Современные технологии, мощный кластер, после окончания проекта возможность работы на других проектах (scala, BIgData)\n\n📌Стек технологий:\nJava 11;\nTarantool (Lua);\nClickhouse;\nPostgreSQL;\n\n📌Требования:\nОпыт коммерческой разработки на Java более 2 лет. Будет плюсом умение писать на Kotlin;\nSQL, опыт проектирования реляционнных баз данных;\nОпыт использования Tarantool или Redis (Lua);\nПонимание разницы OLAP и OLTP;\n\n📌Будет плюсом:\nОпыт работы с распределёнными системами;\nОпыт разработки highload систем;\nОпыт разработки многопоточных приложений;\n\n📌Обязанности:\nУчастие в проектировании архитектуры и детализации работ;\nНепосредсвенно реализация задач;\nПокрытие нового функционала тестами (unit, регрессионные);","markup":[{"type":"hashtag","offset":0,"length":5,"data":"java"},{"type":"hashtag","offset":6,"length":7,"data":"java11"},{"type":"hashtag","offset":14,"length":10,"data":"tarantool"},{"type":"hashtag","offset":25,"length":4,"data":"lua"},{"type":"hashtag","offset":30,"length":6,"data":"redis"},{"type":"hashtag","offset":37,"length":7,"data":"kotlin"},{"type":"hashtag","offset":56,"length":9,"data":"Иннодата"},{"type":"hashtag","offset":112,"length":7,"data":"Москва"},{"type":"hashtag","offset":121,"length":6,"data":"Питер"},{"type":"hashtag","offset":129,"length":8,"data":"Воронеж"},{"type":"hashtag","offset":139,"length":10,"data":"Иннополис"},{"type":"hashtag","offset":166,"length":5,"data":"офис"},{"type":"hashtag","offset":173,"length":9,"data":"fulltime"},{"type":"hashtag","offset":183,"length":7,"data":"remote"},{"type":"link","offset":236,"length":20,"data":"mailto:pbokarev@innodata.ru"}],"date":"2020-06-16T07:13:08+00:00","link":"tg://resolve?domain=jvmjobs&post=1606","tags":[{"name":"java"},{"name":"jvm"},{"name":"lua"},{"name":"redis"},{"name":"kotlin"},{"name":"dotnet"},{"name":"scala"},{"name":"postgresql"},{"name":"sql"}],"cities":[{"code":"moscow"},{"code":"voronezh"}],"allowsRemote":true}},{"node":{"__typename":"Job","id":"26322403328-1001075660570","title":"Php разработчик","text":"#вакансия  #fulltime #backend  #москва #go #php\nВакансия: backend-разработчик PHP\nКомпания: Авито\nГород: Москва\nФормат работы: #офис\nЗанятость: #полная\n\n\nВам предстоит:\n-проектировать и реализовывать решения для одной из крупнейших вертикалей Авито;\n-справляться с высокой нагрузкой и быстрым ростом этой самой нагрузки;\n-участвовать в разработке продукта, которым пользуются миллионы человек.    \n\nМы ожидаем, что вы:\n-имеете опыт разработки на PHP от 3 лет;\n-понимаете, что такое ООП\n-знаете что такое паттерны проектирования, когда их применять и когда их не применять\n-знакомы с основными алгоритмами, структурами данных и способами защиты информации;\n-знаете SQL и работали с реляционными БД;\n-любите Unit-тесты и знаете как их писать.\n\nНе обязательно, но круто если Вы:\n-владеете Go или хотите на нём писать;\n-имеете опыт работы с NoSQL, системами очередей;\n-работали с Docker/Kubernetes;\n-имеете опыт коммерческой разработки микросервисной архитектуры.\n\nПо всем вопросам писать @anna_shangareeva","markup":[{"type":"hashtag","offset":0,"length":9,"data":"вакансия"},{"type":"hashtag","offset":11,"length":9,"data":"fulltime"},{"type":"hashtag","offset":21,"length":8,"data":"backend"},{"type":"hashtag","offset":31,"length":7,"data":"москва"},{"type":"hashtag","offset":39,"length":3,"data":"go"},{"type":"hashtag","offset":43,"length":4,"data":"php"},{"type":"hashtag","offset":127,"length":5,"data":"офис"},{"type":"hashtag","offset":144,"length":7,"data":"полная"},{"type":"handle","offset":985,"length":17,"data":"anna_shangareeva"}],"date":"2020-06-16T06:45:09+00:00","link":"tg://resolve?domain=php_jobs&post=25103","tags":[{"name":"php"},{"name":"sql"},{"name":"nosql"},{"name":"docker"},{"name":"kubernetes"}],"cities":[{"code":"moscow"}],"allowsRemote":false}},{"node":{"__typename":"Job","id":"340787200-1001352129329","title":"Golang разработчик","text":"#вакансия #Москва #senior #Go #fulltime #офис #удаленка  \nВакансия: Lead or Senior Golang Developer \nКомпания: Skytech Solutions\nГород: Moscow/Malta\nФормат работы: офис или удаленка (на выбор кандидата)\nЗанятость: полная\nВилка заработной платы: от 180 000 - 230 000 р на руки\n\nТребуемый опыт работы: 3–6 лет.\nПолная занятость, полный день\n\nОбязанности:\nСоздание высоконагруженных сервисов / микро-сервисов;\nРазработка интеграции с внешними сервисами;\nРазработка платформы для Betting / Gambling;\nРазработка надежной, безопасной и безотказной экосистемы;\nРешение сложных и интересных задач;\n\nТребования:\nИметь опыт коммерческой разработки ПО на Go не менее 3-х лет, отличное знание языка и экосистемы;\nПонимание многопоточности, параллельных вычислений и широко используемых структур данных и алгоритмов;\nПонимание основных паттернов проектирования;\nУмение работать с контролем версий Git;\nУверенно знаете стек TCP / IP;\nЗнаете RFC стандартны HTTP / WebSockets;\nРаботаете с REST / GraphQL;\nЗнание лучших практик разработки микро-сервисных архитектур, Docker и опыт production релизов совместно с девопс инженерами;\nИмеете опыт написания высоконагруженных систем;\nРаботаете unix-подобными системами;\nОтличное знание SQL и одной из реляционных СУБД.\nСильные навыки решения проблем, желание работать в команде;\n\nБудет плюсом:\nПрофильное высшее образование (математическое или техническое);\nИмеете опыт разработки подобных решений (Ставки на спорт/Gambling/Poker/Trade)\nЗнание Алгоритмов\nОпыт работы с Графовыми базами данных;\n\nSoft skills:\nРешать поставленные задачи максимально эффективно в поставленный срок;\nЯвляться командным разработчиком, слышать других и учитывать чужое мнение;\nПонимать, что не надо делать overhead там, где это не надо;\nБыть самостоятельным и уметь брать на себя ответственность за свои решения;\nСчитать тестирование неотъемлемой частью разработки;\nСпокойно относиться к техническому долгу, так как это нормальный этап в развитии проекта;\n\nНемного о проекте:\nВ связи с расширением нашего портфеля проектов, мы находится в поисках квалифицированных разработчиков ПО.\nМы разрабатываем  высоконагруженный проект, связанный со ставками на sport/e-sport , фактически - это биржа ставок со своими сопутствующими сервисами, в нашем случае упор идет на Algo-trading, bot platform, AI и алгоритмы. Проект очень сложный и интересный, нет Legacy кода, все разрабатывается с 0. Будем рады видеть тебя в своих рядах.\nНаш стек :\nLinux, Go, PostgreSQL, Git, ArangoDB, Tarantool, Kafka, Redis.\n\nМы предлагаем:\nВозможность карьерного и профессионального роста в международной компании;\nРабота по контракту с зарубежной компанией (Мальта);\nВысокий уровень заработной платы;\nБонусы и премии по итогам выполненных задач;\nРазработка ведется по гибким методологиям;\nВозможна удаленная работа;\nГибкий график работы, но без фанатизма (главное - это качественное выполнение задач в сжатые сроки);\nПК - MacBook;\nМолодой профессиональный коллектив.\n\nКонтакты: telegram @FreddyNigma","markup":[{"type":"hashtag","offset":0,"length":9,"data":"вакансия"},{"type":"hashtag","offset":10,"length":7,"data":"Москва"},{"type":"hashtag","offset":18,"length":7,"data":"senior"},{"type":"hashtag","offset":26,"length":3,"data":"Go"},{"type":"hashtag","offset":30,"length":9,"data":"fulltime"},{"type":"hashtag","offset":40,"length":5,"data":"офис"},{"type":"hashtag","offset":46,"length":9,"data":"удаленка"},{"type":"handle","offset":2968,"length":12,"data":"FreddyNigma"}],"date":"2020-06-15T19:50:50+00:00","link":"tg://resolve?domain=gogetajobfeed&post=325","tags":[{"name":"go"},{"name":"git"},{"name":"rest"},{"name":"graphql"},{"name":"docker"},{"name":"unix"},{"name":"sql"},{"name":"linux"},{"name":"postgresql"},{"name":"kafka"},{"name":"redis"}],"cities":[{"code":"moscow"}],"allowsRemote":true}},{"node":{"__typename":"Job","id":"102911442944-1001089317451","title":"Qa engineer","text":"#Москва #вакансия #QA #fulltime #test #office\n\n💻Компания: СберТех.\n🧰Вакансия: QA Engineer.\n🏢Офис: Москва, м. Нагатинская/м. Тульская/ м. Верхние Котлы.\n💰ЗП: от 150 000 Net.\n\n📂Проект: Разработка платформы для управления бизнес-процессами Банка и Цифровой Платформы Sber.\n\n🗓Задачи:\n• Работа в роли тестировщика в scrum команде.\n• Написание, актуализация тестовых сценариев и их прохождение (API, UI).\n• Проведение функционального, регрессионного, интеграционного и других видов тестирования.\n• Регистрация, отслеживание и верификация дефектов.\n• Участие в развитии команды и процессов тестирования.\n\n📌Требования: \n• Опыт написания тестовых сценариев, чек-листов, составления сложных интеграционных сценариев.\n• Знание теории тестирования, понимание видов тестирования и необходимости их применения на различных этапах реализации проекта.\n• Опыт анализа и тестирования требований.\n• Опыт тестирования rest/soap сервисов.\n• Опыт работы с BPM системами, понимание нотации BPMN 2.0.\n\n📎Cтек: REST, XML, XSD, JSON, SQL, BPMN 2.0, Docker, Kubernetes, Openshift, Kafka.\n\n🔰Условия:\n• Оформление ТК РФ.\n• ДМС для сотрудников и скидки на медицинскую страховку для родственников;\n• Высокая белая заработная плата (оклад + годовая премия).\n• Возможность обучения за счет компании, посещения IT-конференций.\n• Бесплатный тренажерный зал на территории офиса.\n• Корпоративная жизнь и спортивные мероприятия.\n\n📩Готов ответить на интересующие вопросы - @Dmiryy","markup":[{"type":"hashtag","offset":0,"length":7,"data":"Москва"},{"type":"hashtag","offset":8,"length":9,"data":"вакансия"},{"type":"hashtag","offset":18,"length":3,"data":"QA"},{"type":"hashtag","offset":22,"length":9,"data":"fulltime"},{"type":"hashtag","offset":32,"length":5,"data":"test"},{"type":"hashtag","offset":38,"length":7,"data":"office"},{"type":"handle","offset":1443,"length":7,"data":"Dmiryy"}],"date":"2020-06-15T19:05:56+00:00","link":"tg://resolve?domain=qa_jobs&post=0","tags":[{"name":"qa"},{"name":"dotnet"},{"name":"rest"},{"name":"soap"},{"name":"xml"},{"name":"xsd"},{"name":"json"},{"name":"sql"},{"name":"docker"},{"name":"kubernetes"},{"name":"kafka"}],"cities":[{"code":"moscow"}],"allowsRemote":false}},{"node":{"__typename":"Job","id":"102896762880-1001089317451","title":"Qa инженер","text":"#вакансия #Москва #работаQA #Выставочная #офис/удаленная\nЗаработная плата от 70 000 - 90 000 с налогами в зависимости от опыта кандидата\nКомпания https://agregatoreat.ru/  \nЗанятость: полная (50/50 офис и удаленно) \nКонтакт: @OlesyaE \nОбязанности:\n•  Тестирование высоконагруженного web-сервиса (в том числе, во время его обновления в нерабочее время - 2 раза в месяц);\n•  Ручное тестирование ПО (функциональное, нагрузочное, интеграционное и др.);\n•  Разработка тестовой документации;\n•  написание Unit тестов\n•  Оценка времени на проверку задач;\n•  Создание баг-репортов;\n•  Взаимодействие с разработчиками, аналитиками, службой технической поддержки;\nТребования:\n•  Опыт работы в области тестирования ПО от 1 года;\n•  Знание жизненного цикла ПО, тест-кейсов, багов и т.д.\n•  Знание различных методов тестирования;\n•  Опыт разработки тестовой документации;\n•  Базовые знания языка SQL;\n•  Приветствуется опыт работы с файлами *.xml, *.json;\n•  Опыт работы с баг-трекинговыми системами (Jira, TFS и т.д.);\n•  Внимательность, ответственность, умение работать в команде;\n•  Самостоятельность, стремление к профессиональному и карьерному росту.","markup":[{"type":"hashtag","offset":0,"length":9,"data":"вакансия"},{"type":"hashtag","offset":10,"length":7,"data":"Москва"},{"type":"hashtag","offset":18,"length":9,"data":"работаQA"},{"type":"hashtag","offset":28,"length":12,"data":"Выставочная"},{"type":"hashtag","offset":41,"length":5,"data":"офис"},{"type":"link","offset":77,"length":15,"data":"tel:70 000 - 90 000"},{"type":"link","offset":146,"length":24,"data":"https://agregatoreat.ru/"},{"type":"handle","offset":225,"length":8,"data":"OlesyaE"}],"date":"2020-06-15T15:21:59+00:00","link":"tg://resolve?domain=qa_jobs&post=0","tags":[{"name":"qa"},{"name":"web"},{"name":"sql"},{"name":"xml"},{"name":"json"},{"name":"tfs"}],"cities":[{"code":"moscow"}],"allowsRemote":true}},{"node":{"__typename":"Job","id":"90985988096-1001067529236","title":"Python разработчик","text":"#вакансия #москва #удаленка #backend #python #SQL #REST #Agile #Developer #PythonDeveloper #ORM\n\nВакансия:  Python Developer\nГород: Москва|СПб|Нижний Новгород\nЗП: 120 - 200к net\nЗанятость: полная, УДАЛЕНКА\n\nВсем привет! Ищу Python-разработчика!\n\nУсловия:\n✅ Безобразно интересные проекты\n✅ Удаленка (мы идейные удалёнщики)\n✅ Работу с межд. проектом с клиентами в >40 странах мира\n✅ Перспективу роста в профессионала глобального уровня\n✅ Оформление по ИП\n✅ 120 - 200к net\n✅ График свободный\n✅ Возмещение оплаты подключения ПО и оформления ИП\n\nТребования:\n❇️ Владение Python и любимыми его фреймворками\n❇️ Опыт руководства командой 1-5чел\n❇️ Релевантный опыт от 3х лет\n❇️ Опыт проектирования и разработки масштабируемых бекендов и REST APIs\n❇️ Опыт работы с реляционными БД, знание SQL\n❇️ Опыт работы с распределенными очередями\n❇️ Английский язык - уровень от B1\n❇️ Профильное высшее образование\n\nЗадачи:\n\nМного. Очень много)\nв лс, а то длинный текст 😄\n\nРабота со стеком технологий: Python 3.6, Pyramid, PostgreSQL, SQLAlchemy, Celery, Rabbitmq, Redis, Buildout, Rest API, немного JS (тех админка), Socket.io, Docker\n\nПодробности в лс😏\nКонтакты: @nutella_n","markup":[{"type":"hashtag","offset":0,"length":9,"data":"вакансия"},{"type":"hashtag","offset":10,"length":7,"data":"москва"},{"type":"hashtag","offset":18,"length":9,"data":"удаленка"},{"type":"hashtag","offset":28,"length":8,"data":"backend"},{"type":"hashtag","offset":37,"length":7,"data":"python"},{"type":"hashtag","offset":45,"length":4,"data":"SQL"},{"type":"hashtag","offset":50,"length":5,"data":"REST"},{"type":"hashtag","offset":56,"length":6,"data":"Agile"},{"type":"hashtag","offset":63,"length":10,"data":"Developer"},{"type":"hashtag","offset":74,"length":16,"data":"PythonDeveloper"},{"type":"hashtag","offset":91,"length":4,"data":"ORM"},{"type":"bold","offset":108,"length":17,"data":""},{"type":"bold","offset":163,"length":10,"data":""},{"type":"bold","offset":174,"length":4,"data":""},{"type":"bold","offset":189,"length":34,"data":""},{"type":"bold","offset":224,"length":31,"data":""},{"type":"bold","offset":541,"length":12,"data":""},{"type":"bold","offset":895,"length":14,"data":""},{"type":"bold","offset":953,"length":28,"data":""},{"type":"link","offset":1098,"length":9,"data":"http://Socket.io"},{"type":"bold","offset":1136,"length":20,"data":""},{"type":"handle","offset":1146,"length":10,"data":"nutella_n"}],"date":"2020-06-15T11:51:07+00:00","link":"tg://resolve?domain=python_jobs&post=0","tags":[{"name":"python"},{"name":"sql"},{"name":"rest"},{"name":"orm"},{"name":"dotnet"},{"name":"postgresql"},{"name":"sqlalchemy"},{"name":"rabbitmq"},{"name":"redis"},{"name":"docker"}],"cities":[{"code":"moscow"},{"code":"nizhny-novgorod"}],"allowsRemote":true}},{"node":{"__typename":"Job","id":"1679818752-1001091028994","title":"Java разработчик","text":"#javaвакансия #javaspring #senior #middle\nДобрый день!\nВ настоящий момент нахожусь в поисках ведущего разработчика Java (backend) для международной аутсорсинговой компании (проекты банковского направления).\n160-300 K, Москва, ст.м. Динамо\nСтэк: Java 8, Spring, Spring (Boot, Cloud), Hibernate, SQL, Микросервисы, DevOps, REST-сервисы. \nУсловия: 160 – 300.000 рублей, полностью «белая» заработная плата. В компании регулярно проводится корпоративное обучение, сертификация в технических и бизнес-областях. Помощь в релокации.\nБуду рада ответить на Ваши вопросы: @LyKatrin, ekaterina706712@mail.ru","markup":[{"type":"hashtag","offset":0,"length":13,"data":"javaвакансия"},{"type":"hashtag","offset":14,"length":11,"data":"javaspring"},{"type":"hashtag","offset":26,"length":7,"data":"senior"},{"type":"hashtag","offset":34,"length":7,"data":"middle"},{"type":"handle","offset":561,"length":9,"data":"LyKatrin"},{"type":"link","offset":572,"length":23,"data":"mailto:ekaterina706712@mail.ru"}],"date":"2020-06-15T11:01:34+00:00","link":"tg://resolve?domain=jvmjobs&post=1602","tags":[{"name":"java"},{"name":"jvm"},{"name":"spring"},{"name":"cloud"},{"name":"hibernate"},{"name":"sql"},{"name":"rest"},{"name":"spring-boot"}],"cities":[{"code":"moscow"}],"allowsRemote":false}},{"node":{"__typename":"Job","id":"102831751168-1001089317451","title":"Qa инженер","text":"#вакансия #Москва #офис #fulltime #QA #релокация \n\nВсем привет! \nИщем Ведущего инженера по автоматизации\n\nКомпания: Промсвязьбанк\nМосква \n(есть релокационный пакет)\n💰 от 120 на руки.\n\nТребования:\n- опыт работы с БД ( MS SQL, PL SQL) знание языка запросов SQL \n-опыт тестирования web-сервисов ( Postman,SoapUI,ReadyApi)\n- опыт разработки автотестов на Java \n \nУсловия:\n-Гибкий график\n-Отсутсвие дресс-кода\n-Льготное кредитование \n-ДМС \n-Корпоративный спорт 🏀 \n-Участие в конференциях  и тд\n\nЕсть ещё несколько проектов \nПо всем вопросам ✍️ в личку","markup":[{"type":"hashtag","offset":0,"length":9,"data":"вакансия"},{"type":"hashtag","offset":10,"length":7,"data":"Москва"},{"type":"hashtag","offset":18,"length":5,"data":"офис"},{"type":"hashtag","offset":24,"length":9,"data":"fulltime"},{"type":"hashtag","offset":34,"length":3,"data":"QA"},{"type":"hashtag","offset":38,"length":10,"data":"релокация"}],"date":"2020-06-15T09:00:27+00:00","link":"tg://resolve?domain=qa_jobs&post=0","tags":[{"name":"qa"},{"name":"sql"},{"name":"web"},{"name":"java"}],"cities":[{"code":"moscow"}],"allowsRemote":false}}]}}},"context":{}}