{"hash":"f5f6bf98bd95e769321482904cbbd488f77922fd","data":{"records":{"id":"jquery","name":"jquery","belongsTo":{"totalCount":21,"pageInfo":{"totalPages":3,"currentPage":3},"edges":[{"node":{"__typename":"Job","id":"16866344960-1001110946746","title":"Js программист","text":"#вакансия #middle #WordPress #fullstack\n\nГород и адрес офиса: Запорожье (Украина)\nФормат работы: удаленная работа\nЗанятость: полная\nЗарплатная вилка: от 600 до 1300 usd\n\nО нас:\nНебольшая команда, сконцентрирована на WordPress разработке и ищет в команду хорошего программиста на длительное время для работы с различными проектами.\n\nСпецифика:\n● Поддержка постоянных проектов, плюс разработка новых сайтов.      \n● Общение с клиентами, как направления, так и опосредованно.\n\nУровень задач:\nОт очень простых (добавить код /   пофиксить элемент) для полного цикла разработки.\nТипичная задача - преобразование готовой верстки (возможно, с поправками) на WP тему, написанные JS и PHP кода.\n\nПрофессиональные качества соискателя:\n● Страсть к разработке, хороший самоменеджмент, желание всегда писать лучший код, а не код, просто решает задачи; Умение быстро осваивать новую технологию или предметной области;      \n● Английский на уровне не менее B2;      \n● Уметь уверенно работать с git;      \n● Хорошее знание API WP - умение перенести верстку с нуля и минимумом плагинов; написать плагин с нуля, получать данные со стороннего API; Знание ACF; Умение настроить кэширование на различных уровнях; Знание базовых принципов обеспечения безопасности проекта;      \n● Хорошее знание Node.js и npm;      \n● Умение семантической станки без CSS-фреймворков. Уверенное знание flexbox, знание основных проблем кросс-браузерную верстки; Навыки работы с Less, Scss;      \n● Умение писать JS (ES-2015 +) без jQuery;      \n● Понимание принципов работы webpack, gulp; Умение писать и изменять их конфигурацию;      \n● Навыки работы с VPS через SSH;      \n● Понимание показателей, влияющих на PageSpeed и SEO;      \n\nБыло бы плюсом:\n● Понимание принципов a11y;      \n● Подтвержденный open source contribution, выступления на конференциях, митапах;      \n● Опыт работы с Ruby, Python / Vue.js, React.js, Angular;      \n● Хорошие навыки работы с PHPStorm;      \n\nПлюшки:\n● Удаленная работа.      \n● Реальные возможности карьерного роста.      \n● Зарплата по результатам собеседования с быстрой возможностью по пересмотру по результатам работы. \n\nНазвание компании: MaximumStart\n\nКонтакты: \n- Телеграм @polinasvetlaya\n- Email polina.dubovik@gmail.com\n\n—\n\n👉 Обсуждение вакансии в чате @javascript_jobs","markup":[{"type":"hashtag","offset":0,"length":9,"data":"вакансия"},{"type":"hashtag","offset":10,"length":7,"data":"middle"},{"type":"hashtag","offset":18,"length":10,"data":"WordPress"},{"type":"hashtag","offset":29,"length":10,"data":"fullstack"},{"type":"handle","offset":2179,"length":15,"data":"polinasvetlaya"},{"type":"link","offset":2203,"length":24,"data":"mailto:polina.dubovik@gmail.com"},{"type":"handle","offset":2262,"length":16,"data":"javascript_jobs"}],"date":"2020-06-12T10:38:58+00:00","link":"tg://resolve?domain=javascript_jobs_feed&post=16085","tags":[{"name":"javascript"},{"name":"wordpress"},{"name":"php"},{"name":"git"},{"name":"nodejs"},{"name":"npm"},{"name":"css"},{"name":"jquery"},{"name":"webpack"},{"name":"gulp"},{"name":"ssh"},{"name":"seo"},{"name":"ruby"},{"name":"python"},{"name":"vuejs"},{"name":"reactjs"},{"name":"angularjs"}],"cities":[],"allowsRemote":true}}]}}},"context":{}}