{"hash":"f34fd2c444a074f4e0e67d525015a008ef8e766f","data":{"records":{"id":"ansible","name":"ansible","belongsTo":{"totalCount":59,"pageInfo":{"totalPages":6,"currentPage":1},"edges":[{"node":{"__typename":"Job","id":"1431306240-1001091028994","title":"Java разработчик","text":"#scala #teamlead #senior #офис #удаленно #fulltime #Москва\n\nПриглашаем Scala-разработчика уровня senior-teamlead, 220-270 тыс. на руки.\n\nТребования:\nлидировать и развивать команду разработчиков\nразвивать backend приложение на Akka HTTP\nпрорабатывать интеграции для сервисов на Java (Spring Cloud)\nинтегрироваться со стеком Kafka, MQ, Redis, Orcale SQL, Postgres\nfrontend разработка (React, Redux, Typescript, собственная библиотека компонентов)\nработать с витринами на Spark, Hadoop\nразработать web-scraper на Akka Streams\nподдерживать процесс сборки и тестирования (git, Ansible, Jenkins, Docker, OpenShift)\n\nСбербанк, Москва, Кутузовская\n\nКонтакты: @MikeTurchenkov","markup":[{"type":"hashtag","offset":0,"length":6,"data":"scala"},{"type":"hashtag","offset":7,"length":9,"data":"teamlead"},{"type":"hashtag","offset":17,"length":7,"data":"senior"},{"type":"hashtag","offset":25,"length":5,"data":"офис"},{"type":"hashtag","offset":31,"length":9,"data":"удаленно"},{"type":"hashtag","offset":41,"length":9,"data":"fulltime"},{"type":"hashtag","offset":51,"length":7,"data":"Москва"},{"type":"handle","offset":651,"length":15,"data":"MikeTurchenkov"}],"date":"2020-04-09T11:58:52+00:00","link":"tg://resolve?domain=jvmjobs&post=1365","tags":[{"name":"java"},{"name":"jvm"},{"name":"scala"},{"name":"akka"},{"name":"spring"},{"name":"cloud"},{"name":"kafka"},{"name":"redis"},{"name":"sql"},{"name":"postgresql"},{"name":"reactjs"},{"name":"redux"},{"name":"typescript"},{"name":"hadoop"},{"name":"web"},{"name":"git"},{"name":"ansible"},{"name":"jenkins"},{"name":"docker"},{"name":"react-redux"}],"cities":[{"code":"moscow"}],"allowsRemote":true}},{"node":{"__typename":"Job","id":"1991245824-1001134745498","title":"Devops инженер","text":"#вакансия #devops #remote \nКомпания Imhio Ltd ищет инженера инфраструктуры, обладающего навыками конфигурирования и поддержки аппаратных и облачных платформ, организации работы отказоустойчивых систем, а также автоматизации доставки программного обеспечения. \nВ составе нашей инфраструктуры мы используем Digital Ocean и AWS, Oracle Linux, Νginx, Consul, RabbitMQ, ScyllaDB, Redis, PostgreSQL, GoLang, GoCD и Docker.\nАктуальная цель, которая стоит перед нами, переход к полностью автоматизированному конфигурированию и эксплуатации всех элементов нашей инфраструктуры.\n\nОбязанности:\n- автоматизация конфигурирования и обслуживания элементов инфраструктуры\n- участие в процессах CI/CD\n- мониторинг работоспособности\n- планирование использования ресурсов\n- оптимизация инфраструктуры\n- документирование инфраструктуры\n\nТребования:\n - Минимальный опыт работы по специальности от 3 лет.\n\nДля соответствия нашей команде, ваши личные качества должны включать:\n - коммуникабельность, умение находить точки соприкосновения\nцелеустремленность, ответственность, внимательность и аккуратность\n- умение и желание решать комплексные, нестандартные проблемы и задачи\n- понятное формулирование своих мыслей и идей\n- умение отстаивать свою позицию\n- понимание технической документации на английском языке\n- поддержка принципов DevOPS методологии\n\nДля соответствия нашим задачам, у вас должен быть опыт промышленной эксплуатации:\n- Linux \n- Digital Ocean или AWS\n- Terraform и Ansible\n- CI/CD инструментов\n- Docker или Kubernetes\n- Nginx, SQL, MQ, Redis, Consul\n- Prometheus и Grafana, Graylog или ELK\n- Python или Bash\nУ вас будет дополнительное преимущество при наличии\nопыта использования:\n- ScyllaDB или Cassandra\n- системы мониторинга DataDog\n- системы доставки GoCD\n- (микро)сервисов, разработанных с использованием Golang\n\nУсловия:\n- полностью удаленная работа\n- оплачиваемый отпуск и больничный\n- заработная плата в евро, определяется вашей компетенцией (1850-2900 Евро)\n- гибкий график и широкая автономия - мы оцениваем результаты работы\n- интересные задачи, способствующие профессиональному развитию\n- работа в команде профессионалов\n- отсутствие бюрократических процедур\nКонтакты: @yanalyakhova, jane@imhio.com\n\n—\n\n👉 Обсуждение вакансии в чате @devops_jobs","markup":[{"type":"hashtag","offset":0,"length":9,"data":"вакансия"},{"type":"hashtag","offset":10,"length":7,"data":"devops"},{"type":"hashtag","offset":18,"length":7,"data":"remote"},{"type":"handle","offset":2176,"length":13,"data":"yanalyakhova"},{"type":"link","offset":2191,"length":14,"data":"mailto:jane@imhio.com"},{"type":"handle","offset":2240,"length":12,"data":"devops_jobs"}],"date":"2020-04-09T11:57:04+00:00","link":"tg://resolve?domain=devops_jobs_feed&post=1899","tags":[{"name":"amazon-web-services"},{"name":"oracle"},{"name":"linux"},{"name":"rabbitmq"},{"name":"redis"},{"name":"postgresql"},{"name":"go"},{"name":"docker"},{"name":"ansible"},{"name":"kubernetes"},{"name":"nginx"},{"name":"sql"},{"name":"python"},{"name":"bash"},{"name":"cassandra"}],"cities":[],"allowsRemote":true}},{"node":{"__typename":"Job","id":"1990197248-1001134745498","title":"Devops инженер","text":"#вакансия  #Мск #Москва #офис #devops #fulltime\nГород: Москва \nФормат работы: офис\nЗанятость: полная\n\nПозиция: DevOps \nЗарплатная вилка: от 170 000 до 200 000 net. (после налогов) \n\nОписание вакансии: \nИщу DevOps инженера в европейскую компанию, которая открыла офис в Москве.\n\nОсновные задачи - поддержка сред разработки, прода, администрирование.\n\nТочно нужно: \nразговорный английский – обязательно,\nLinux (CentOS), Ansible, Jenkins, CI/CD, Docker\nKubernetes как плюс\n\nПредлагаем: интересный проект, медицинское страхование, обучение, комфортный офис.\n\nНазвание компании: SPICE IT\nРезюме отправлять: achistyakova@spice-agency.ru или @AlinaChist\n\n—\n\n👉 Обсуждение вакансии в чате @devops_jobs","markup":[{"type":"hashtag","offset":0,"length":9,"data":"вакансия"},{"type":"hashtag","offset":11,"length":4,"data":"Мск"},{"type":"hashtag","offset":16,"length":7,"data":"Москва"},{"type":"hashtag","offset":24,"length":5,"data":"офис"},{"type":"hashtag","offset":30,"length":7,"data":"devops"},{"type":"hashtag","offset":38,"length":9,"data":"fulltime"},{"type":"link","offset":602,"length":28,"data":"mailto:achistyakova@spice-agency.ru"},{"type":"handle","offset":635,"length":11,"data":"AlinaChist"},{"type":"handle","offset":681,"length":12,"data":"devops_jobs"}],"date":"2020-04-09T10:02:31+00:00","link":"tg://resolve?domain=devops_jobs_feed&post=1898","tags":[{"name":"dotnet"},{"name":"linux"},{"name":"centos"},{"name":"ansible"},{"name":"jenkins"},{"name":"docker"},{"name":"kubernetes"}],"cities":[{"code":"moscow"}],"allowsRemote":false}},{"node":{"__typename":"Job","id":"98229551104-1001089317451","title":"Qa engineer","text":"#вакансия \nВакансия: #sdet #QA #automation #fulltime\nКомпания: #нспк #псмир\nЛокация: #томск\nЗ/п: 100к-180к net (после вычета налогов)\n\n«Национальная система платежных карт» ищет QA Automation Engineer.\n\nНСПК - развивающаяся компания, создающая финтех-сервисы, которыми пользуются миллионы людей. \n\nЗа 5 лет нашей истории мы разработали бизнес-продукты, аналоги которых в мире можно пересчитать по пальцам:\n✔️Платежная система \"Мир\";\n✔️Система быстрых платежей;\n✔️Программа лояльности \"Мир\";\n✔️Сервис мобильной оплаты MirPay;\n✔️Система аутентификации пользователей MirAccept.  \n\n⛏ Наш стек: Java, Spring, MySql, Linux, Git, Jenkins, Nexus, Ansible, Groovy, Gradle, Nginx, HAProxy, Kafka, Hazelcast, Prometheus, ELK, Atlassian stack. \n\n🧠 Что нужно будет делать?\n- Разрабатывать автоматизированные тесты;\n- Проводить интеграционное тестирование;\n- Разрабатывать тест-кейсы и регистрировать баги;\n- Разрабатывать собственные платформы для автоматизации тестирования.\n\nВ общем, контролировать качество разрабатываемого решения. \n\n🎁 Мы предлагаем:\n- Работу в команде профессионалов;\n- Обучение за счет компании;\n- Развитую корпоративную культуру;\n- ДМС со стоматологией, официальное трудоустройство; \n- Комфортный офис в центре;\n- Чай, кофе, печеньки. ✌️\n\nХотите поучаствовать в масштабном и сложном проекте?\n\nМои контакты:\n📲 +7-916-051-20-63\n      @Ekaterina1915 \n\n📩 makarovaen@nspk.ru","markup":[{"type":"hashtag","offset":0,"length":9,"data":"вакансия"},{"type":"hashtag","offset":21,"length":5,"data":"sdet"},{"type":"hashtag","offset":27,"length":3,"data":"QA"},{"type":"hashtag","offset":31,"length":11,"data":"automation"},{"type":"hashtag","offset":43,"length":9,"data":"fulltime"},{"type":"hashtag","offset":63,"length":5,"data":"нспк"},{"type":"hashtag","offset":69,"length":6,"data":"псмир"},{"type":"hashtag","offset":85,"length":6,"data":"томск"},{"type":"link","offset":1323,"length":16,"data":"tel:+7-916-051-20-63"},{"type":"handle","offset":1346,"length":14,"data":"Ekaterina1915"},{"type":"link","offset":1366,"length":18,"data":"mailto:makarovaen@nspk.ru"}],"date":"2020-04-08T11:49:39+00:00","link":"tg://resolve?domain=qa_jobs&post=93679","tags":[{"name":"qa"},{"name":"dotnet"},{"name":"java"},{"name":"spring"},{"name":"mysql"},{"name":"linux"},{"name":"git"},{"name":"jenkins"},{"name":"ansible"},{"name":"groovy"},{"name":"gradle"},{"name":"nginx"},{"name":"kafka"}],"cities":[{"code":"tomsk"}],"allowsRemote":false}},{"node":{"__typename":"Job","id":"1987051520-1001134745498","title":"Devops инженер","text":"#вакансия #DevOps #Москва\nMiddle DevOps\nФормат работы: офис\\удаленно, Занятость: полная\nКомпания: SnegirSoft - вендор ITSM-платформы «4it».\nРазрабатываем и поддерживаем платформу для управления it-процессами больших компаний.\n\nЗадачи:\n⚙️Развитие и поддержка инфраструктуры;\n⚙️Автоматизация сборки и доставки кода;\n⚙️Поддержка разработчиков;\n⚙️Анализ и устранение инцидентов на продуктовых контурах;\n⚙️Обеспечение работоспособности и отказоустойчивости сервисов;\n⚙️Внедрение новых инструментов администрирования;\n\nНаши хотелки:\n🛠Системы контроля версий Git (Bitbucket, Gitlab);\n🛠Управление конфигурациями (Ansible);\n🛠CI\\CD: Teamcity \\ Gitlab \\ Jenkins;\n🛠Опыт администрирования Windows, IIS;\n🛠Умение хорошо писать на Powershell;\n🛠Cистемы мониторинга (Zabbix \\ Prometheus);\n🛠ELK – стек (Elasticsearch, Kibana);\n🛠Сообщения, очереди: RabbitMQ, Kafka;\nБудет круто если:\n🛠Опыт администрирования Apache \\ Nginx;\n🛠Опыт администрирования Linux;\n🛠Контейнеризация (Docker);\n🛠Умение писать SQL-запросы, понимание принципов работы СУБД;\n🛠Опыт работы с монолитными и микросервисными архитектурами;\n🛠Навыки написание скриптов на bash;\n\nПредлагаем:\n🏢м. Нововкузнецкая 3(!) мин. пешком,\n🚑  ДМС (почти all inclusive)\n💰  Доход: 140 000 – 180 000 нетт\n⏰Начало дня гибко с 9-10-11, как договоримся.\n🖥ПК: i7 8-gen, 24Gb, SSD 512Gb, 2 хороших монитора.\n🚀  Стэк актуальный: .Net Core, Angular, Elasticsearch, RabbitMQ, MS SQL->Postgres, Almost SCRUM ^)\nКонтакты: @aastaf  a.astafev@snegirsoft.com\n\n—\n\n👉 Обсуждение вакансии в чате @devops_jobs","markup":[{"type":"hashtag","offset":0,"length":9,"data":"вакансия"},{"type":"hashtag","offset":10,"length":7,"data":"DevOps"},{"type":"hashtag","offset":18,"length":7,"data":"Москва"},{"type":"handle","offset":1457,"length":7,"data":"aastaf"},{"type":"link","offset":1466,"length":24,"data":"mailto:a.astafev@snegirsoft.com"},{"type":"handle","offset":1525,"length":12,"data":"devops_jobs"}],"date":"2020-04-08T10:14:42+00:00","link":"tg://resolve?domain=devops_jobs_feed&post=1895","tags":[{"name":"git"},{"name":"gitlab"},{"name":"ansible"},{"name":"jenkins"},{"name":"windows"},{"name":"iis"},{"name":"powershell"},{"name":"elasticsearch"},{"name":"rabbitmq"},{"name":"kafka"},{"name":"apache"},{"name":"nginx"},{"name":"linux"},{"name":"docker"},{"name":"sql"},{"name":"bash"},{"name":"dotnet"},{"name":"angularjs"},{"name":"postgresql"},{"name":"net-core"}],"cities":[{"code":"moscow"}],"allowsRemote":true}},{"node":{"__typename":"Job","id":"1986002944-1001134745498","title":"Devops engineer","text":"#вакансия #Казань #офис #Linux  #DevOps\n🌎Город и адрес офиса: Казань, м. Суконная Слобода, ул. Спартаковская д. 6 \n🏙Формат работы: офис (на время карантина удаленно)\n🕗Занятость: полная\n💰Зарплатная вилка: от 150 000 до 250 000 рублей gross\n\nОписание вакансии: \nПолная занятость, гибкий график\n\nStream – дочерняя компания ПАО МТС, задача которой – вывести мобильную и веб-разработку холдинга на новый уровень.\nИщем Lead DevOps engineer, который:\n- не боится новых технологий, но и не забывает старые (уметь руками поднять и настроить);\n- выбирает решения и стек исходя из требований и эффективности;\n- готов быть наставником для менее опытных ребят (наставничество, менторство);\n- возглавит группу DevOps (в первые месяцы 2-3 человека, в будущем будет больше);\n- сможет курировать много проектов и распределять задачи между членами команд (потребуются навыки планирования, оценки задач и общения с внутренними заказчиками – техлидами проектов);\n- готов быть на связи в экстренных случаях в любое время.\nНаша цель – развивать лучшие DevOps практики и наращивать экспертизу в компании.\n\nНаш стек достаточно разнообразен, не обязательно быть экспертом во всем, но если вдруг есть хороший опыт с чем-то из этого списка: Kubernates, Kafka, Bamboo, Jenkins, Ansible, Prometheus, Postgres, vmware, то будет плюсом.\n\n🍩🍭Мы предлагаем:\n- оформление по ТК РФ, гибкий график работы;\n- \"Белая\" заработная плата + полугодовые бонусы;\n- ДМС со стоматологией, страхование жизни после испытательного срока;\n- обучение и посещение профильных конференций;\n- корпоративная мобильная связь;\n- просторный офис в центре Казани.\nНазвание компании: Stream https://stream.ru/\nКонтакты: @askamasaska\n\n—\n\n👉 Обсуждение вакансии в чате @devops_jobs","markup":[{"type":"hashtag","offset":0,"length":9,"data":"вакансия"},{"type":"hashtag","offset":10,"length":7,"data":"Казань"},{"type":"hashtag","offset":18,"length":5,"data":"офис"},{"type":"hashtag","offset":24,"length":6,"data":"Linux"},{"type":"hashtag","offset":32,"length":7,"data":"DevOps"},{"type":"link","offset":1635,"length":18,"data":"https://stream.ru/"},{"type":"handle","offset":1664,"length":12,"data":"askamasaska"},{"type":"handle","offset":1711,"length":12,"data":"devops_jobs"}],"date":"2020-04-08T09:52:24+00:00","link":"tg://resolve?domain=devops_jobs_feed&post=1894","tags":[{"name":"linux"},{"name":"kafka"},{"name":"jenkins"},{"name":"ansible"},{"name":"postgresql"}],"cities":[{"code":"kazan"}],"allowsRemote":true}},{"node":{"__typename":"Job","id":"1983905792-1001134745498","title":"Devops engineer","text":"#вакансия #мысоцблок #дитпобедит\nКомпания: ДИТ правительства г. Москва(продукт «Московская электронная школа»)\nСейчас мы ищем в продукт «Московская электронная школа» человека, который готов делать московскую систему образования еще более технологичной.☝️👍🤘\nПозиция: ❗️System Engineer (DevOps)❗️\nЛокация: г. Москва (м. Деловой центр)\nФормат работы: full-time, 1 день доступен для удаленной работы\nЗанятость: полная\nЗаработная плата: 150 000 – 200 000 рублей «на руки» \nСтек:\n👉RHEL\n👉Postgres\n👉Java\n👉Ansible\n👉Jenkins\n👉Zabbix\nЧем предстоит заниматься: \nЭксплуатировать и улучшать с использованием методологии CI/CD  инфраструктуру одного из флагманских продуктов ДИТа - Московская электронная школа(МЭШ).\n\nЧто предлагаем:\n👉Бюджетная организация с полным соблюдением норм ТК РФ\n👉Корпоративная культура современной ИТ-компании\n👉Интересные задачи на социальнозначимом проекте ДИТ\n👉Корпоративные скидки на ДМС, фитнес, английский \n👉Прекрасный офис в Москва-Сити.\n\nКонтакты: @nazar_an; nazarovaaa3@it.mos.ru\n\n—\n\n👉 Обсуждение вакансии в чате @devops_jobs","markup":[{"type":"hashtag","offset":0,"length":9,"data":"вакансия"},{"type":"hashtag","offset":10,"length":10,"data":"мысоцблок"},{"type":"hashtag","offset":21,"length":11,"data":"дитпобедит"},{"type":"handle","offset":980,"length":9,"data":"nazar_an"},{"type":"link","offset":991,"length":21,"data":"mailto:nazarovaaa3@it.mos.ru"},{"type":"handle","offset":1047,"length":12,"data":"devops_jobs"}],"date":"2020-04-08T08:20:06+00:00","link":"tg://resolve?domain=devops_jobs_feed&post=1892","tags":[{"name":"postgresql"},{"name":"java"},{"name":"ansible"},{"name":"jenkins"}],"cities":[{"code":"moscow"}],"allowsRemote":true}},{"node":{"__typename":"Job","id":"1979711488-1001134745498","title":"Devops инженер","text":"#вакансия #DevOps #Москва\nФормат: #fulltime #office #remote\nЗарплатная вилка: 170 000 - 230 000\n\n#aurigajob для DevOps инженера в проект по разработке и внедрению автоматизированного сервиса взаимодействия учетных систем заказчика (преимущественно на базе SAP) и налоговой службы. Заказчик - крупная и (что сейчас особенно важно😉 ) стабильная компания в нефтегазовой сфере. \n\n✅ На проекте вас ждет:\n-  Создание, настройка и поддержка инфраструктуры решения :\nLinux (Red Hat, CentOs, Debian, AstraLinux) – установка, настройка, сопровождение\nNginx – установка, настройка\nPostgreSql – установка, настройка, тюнинг (репликация, шардирование, бэкапирование, отказоустойчивый кластер)\nAnsible – разработка и сопровождение скриптов развертывания\nGit Lab CI – установка, настройка, настройка пайплайнов сборки и развертывания\nTarantool – установка, сопровождение\nPrometheus, Grafana – мониторинг\nELK\n-  Участие в проектировании технической архитектуры решения\n- Настройка и сопровождение конвейера CI/CD\n- Исследование и выбор подходящих для системы инфраструктурных компонентов\n- Расчет сайзинга системы под требования заказчика\n- Оптимизация производительности\n \n✴️ Мы предлагаем:        \n- На время режима самоизоляции - удаленка, потом в период испытательного срока офис на м. Аэропорт, а дальше как вам больше нравится. \n- Заработную плату, выплачиваемую день-в-день, и ежегодные индексации.\n- Бесплатное обучение английскому языку, возможно, в режиме скайп-групп от внутреннего преподавателя, упор на разговорную практику.\n- Хорошая корпоративная программа ДМС со стоматологией, скорой помощью, вызовом врача на дом и льготным подключением родственников в лучших клиниках региона.\n- Один из плюсов аутсорсинговой компании - это множество интересных проектов и современных технологий. Нам важно, чтобы наши сотрудники находили себе проект по душе.\n- Мы очень ценим наш коллектив, микроклимат и домашнюю атмосферу.\n\n👍Нам нужен инженер сейчас, оформляем по ТК РФ удаленно, обмениваемся документами с помощью курьера.\n\nСмело пиши, если даже просто спросить :-) \n@Maria_Auriga\n\n—\n\n👉 Обсуждение вакансии в чате @devops_jobs","markup":[{"type":"hashtag","offset":0,"length":9,"data":"вакансия"},{"type":"hashtag","offset":10,"length":7,"data":"DevOps"},{"type":"hashtag","offset":18,"length":7,"data":"Москва"},{"type":"hashtag","offset":34,"length":9,"data":"fulltime"},{"type":"hashtag","offset":44,"length":7,"data":"office"},{"type":"hashtag","offset":52,"length":7,"data":"remote"},{"type":"hashtag","offset":97,"length":10,"data":"aurigajob"},{"type":"handle","offset":2059,"length":13,"data":"Maria_Auriga"},{"type":"handle","offset":2107,"length":12,"data":"devops_jobs"}],"date":"2020-04-07T16:22:31+00:00","link":"tg://resolve?domain=devops_jobs_feed&post=1888","tags":[{"name":"linux"},{"name":"centos"},{"name":"debian"},{"name":"nginx"},{"name":"postgresql"},{"name":"ansible"},{"name":"git"}],"cities":[{"code":"moscow"}],"allowsRemote":true}},{"node":{"__typename":"Job","id":"1978662912-1001134745498","title":"Devops engineer","text":"#вакансия #DevOps #fulltime\nВакансия: DevOps engineer / Системный администратор\nКомпания: Sl-Tech\nГород: Москва, метро Маяковская\nФормат работы: офис\nЗанятость: полная\nЗарплата : от 100 до 170 т.р. net\nО компании:\nSL Tech – компания, которая управляет портфелем проектов, предназначенных как для потребителей, так и для партнеров - поставщиков услуг в высокотехнологичных областях.\nКомпания родилась в 2006 году как часть группы SEALINE, в которую также входит страховой и перестраховочный брокер SEALINE, входящий в ТОП-10 страховых брокеров РФ.\nМы создаем современные IT-решения для бизнеса и жизни, помогая выстраивать коммуникацию между поставщиками и потребителями услуг. Своим партнерам мы предлагаем готовые решения, которые позволяют расширить возможности существующего бизнеса и получить дополнительный доход.\nSL Tech не просто разрабатывает продукты, отвечающие современным запросам партнеров и их клиентов, но и влияет непосредственно на формирование новых сегментов рынка\nТебе предстоит:\n- Развитие и поддержка сервисов компании\n- Управление инфраструктурой компании\n- Автоматизация развертывания\n- Мониторинг\n- Сбор и анализ логов\n- Организация непрерывного функционирования сервисов, резервное копирование\nЧто нужно уметь:\n- Администрирование Linux (Ubuntu)\n- От 3-х лет опыта администрирования веб-сервисов работающих на Linux\n- Опыт использования и настройки системы Gitlab\n- Знания систем Docker Swarm, Kubernetes\n- Настройка, репликация PostgreSQL\n- Работы с системами автоматизации (Ansible, Chef и т.п.), мониторинга (Zabbix, Prometheus), сбора и анализа логов (ELK, ClickHouse)\n- Умение читать код на Python\n- Желание работать в команде\nМы предлагаем:\n• Оформление по ТК РФ\n• Полностью белая зп;\n• Уровень зп обсуждается индивидуально (в соответствии с вашим уровнем и ожиданиями) ЗП вилка 100-170 тыс.руб.\n• ДМС (после испытательного срока 3 месяца)\n• Офис в центре (5 минут от м.Маяковская)\n• Чай, кофе, печеньки\n• Адекватное руководство\n• Весёлая, сильная команда\nКонтакт: @SanDevl\n\n—\n\n👉 Обсуждение вакансии в чате @devops_jobs","markup":[{"type":"hashtag","offset":0,"length":9,"data":"вакансия"},{"type":"hashtag","offset":10,"length":7,"data":"DevOps"},{"type":"hashtag","offset":18,"length":9,"data":"fulltime"},{"type":"handle","offset":1997,"length":8,"data":"SanDevl"},{"type":"handle","offset":2040,"length":12,"data":"devops_jobs"}],"date":"2020-04-07T13:49:27+00:00","link":"tg://resolve?domain=devops_jobs_feed&post=1887","tags":[{"name":"dotnet"},{"name":"linux"},{"name":"ubuntu"},{"name":"gitlab"},{"name":"docker"},{"name":"kubernetes"},{"name":"postgresql"},{"name":"ansible"},{"name":"python"}],"cities":[{"code":"moscow"}],"allowsRemote":false}},{"node":{"__typename":"Job","id":"1977614336-1001134745498","title":"Devops инженер","text":"#вакансия #devops \nГород и адрес офиса: #москва ул. Барклая, 6, стр. 5\nФормат работы: #офис\nЗанятость: #полная #fulltime \nЗарплатная вилка: от 220 до 260 т.р. на руки\nНаша компания ищет сильного инженера, обладающего большим бэкграундом в DevOps, который бы занял ключевую техническую роль в развитии данного направления и стал бы лидером нашего центра компетенций по DevOps. Мы ожидаем, что кандидат разделяет принципы философии DevOps и является экспертом с большим техническим кругозором в данной области.\nТебе предстоит:\nРазвивать центр компетенций DevOps в компании, проводить RnD, обучать коллег, участвовать в найме DevOps-инженеров и SRE.\nУчаствовать в пресейловых активностях: проработка, планирование и оценка внедряемых решений.\nВнедрять DevOps решения, включающих такие области, как автоматизация процессов сборки и развертывания систем, автоматизированное тестирование, мониторинг и менеджмент релизов.\nУстанавливать и настраивать инструменты DevOps.\nПодготавливать документацию по проектам и внедрению DevOps решений.\nБез чего ты не сможешь работать у нас: Наличие в портфолио успешно завершенных проектов по внедрению DevOps инструментов и методологии.\nОпыт работы в роли DevOps-инженера не менее 3х лет.\nОпыт системного администрирования Linux/Unix, Windows не менее 2х лет.\nОпыт работы с серверной виртуализацией (VMWare, KVM, Xen, etc.).\nОпыт работы с инструментами управления конфигурациями (Ansible или Puppet, Chef).\nОпыт настройки CI и CD (Jenkins, Gitlab CI, Teamcity), понимание плюсов и минусов данных инструментов.\nЗнание идеологии и инструментов infrastructure as code.\nОпыт работы с системами контейнерной виртуализации (Docker, Docker Swarm).\nОпыт развития и поддержки средств мониторинга инфраструктуры и сервисов (Prometheus, Zabbix, Grafana).\nХорошее знание Git, включая стратегии ветвления и слияния (Git-Flow).\nБонусы и дополнительные условия: 3 дополнительных отгула в год; корпоративный английский язык; настольный футбол, гибкое начало дня.\nНазвание компании: Перфоманс Лаб \nКонтакты: @bystrova_ak / a.bystrova@pflb.ru\n\n—\n\n👉 Обсуждение вакансии в чате @devops_jobs","markup":[{"type":"hashtag","offset":0,"length":9,"data":"вакансия"},{"type":"hashtag","offset":10,"length":7,"data":"devops"},{"type":"hashtag","offset":40,"length":7,"data":"москва"},{"type":"hashtag","offset":86,"length":5,"data":"офис"},{"type":"hashtag","offset":103,"length":7,"data":"полная"},{"type":"hashtag","offset":111,"length":9,"data":"fulltime"},{"type":"handle","offset":2022,"length":12,"data":"bystrova_ak"},{"type":"link","offset":2037,"length":18,"data":"mailto:a.bystrova@pflb.ru"},{"type":"handle","offset":2090,"length":12,"data":"devops_jobs"}],"date":"2020-04-07T13:04:24+00:00","link":"tg://resolve?domain=devops_jobs_feed&post=1886","tags":[{"name":"linux"},{"name":"unix"},{"name":"windows"},{"name":"ansible"},{"name":"jenkins"},{"name":"gitlab"},{"name":"docker"},{"name":"git"}],"cities":[{"code":"moscow"}],"allowsRemote":false}}]}}},"context":{}}