{"hash":"f5f6bf98bd95e769321482904cbbd488f77922fd","data":{"records":{"id":"github","name":"github","belongsTo":{"totalCount":37,"pageInfo":{"totalPages":4,"currentPage":4},"edges":[{"node":{"__typename":"Job","id":"90895810560-1001067529236","title":"Python разработчик","text":"#вакансия #vacancy #fulltime #remote #fullstack #senior\n\nПозиция: Senior Python Developer\nКомпания: SO Services Ltd\nФормат работы: удаленная работа\nЗанятость: полная\nОплата: от 3000 до 4000 USD в месяц\nКонтакт: Марк, @mark_soservices\n\nДобрый день! Мы ищем Python разработчика для нашего клиента из США. Требуется разговорный английский. Оформление контракта через ИП - с этим проконсультируем.\n\nResponsibilities\n- Plan and architect development work with rest of Dev team to ensure successful execution and delivery\n- Participate in improving and refining development processes and workflows\n- Help your peers with code review with focus on performance and reliability\n- Develop automation culture\n- Collaborate with Product Management to plan sprints\n- Collaborate with IT Operations to ensure services stability and high uptime\n- Help with investigation of software issues causing downtime and/or malfunction\n- Adapt legacy code to AWS\n\nRequirements\n- 4+ years professional experience building front and back-end web applications\n- Experience with most or all technologies: Python & Django, RDBMS, JS and jQuery, HTML/CSS/LESS, Git\n- Experience with following technologies will be a bonus: MongoDB, PostgreSQL, Elastic Search, WordPress, Redis, Celery, Jenkins, Sentry, New Relic, Nginx, RabbitMQ, NodeJS\n- Focus on task accomplishment and pursuing deadlines\n- Ability to prioritise and manage work across multiple related projects\n- Experienced in working following Agile development methodologies\n- Strong written and communications skills\n\n\nTechnology Stack\n- Python, Django\n- MySQL, Redis\n- AWS (storage, container services, serverless)\n- Github for code management\n- Jenkins as CI","markup":[{"type":"hashtag","offset":0,"length":9,"data":"вакансия"},{"type":"hashtag","offset":10,"length":8,"data":"vacancy"},{"type":"hashtag","offset":19,"length":9,"data":"fulltime"},{"type":"hashtag","offset":29,"length":7,"data":"remote"},{"type":"hashtag","offset":37,"length":10,"data":"fullstack"},{"type":"hashtag","offset":48,"length":7,"data":"senior"},{"type":"handle","offset":217,"length":16,"data":"mark_soservices"},{"type":"bold","offset":395,"length":16,"data":""},{"type":"bold","offset":939,"length":12,"data":""},{"type":"bold","offset":1546,"length":16,"data":""}],"date":"2020-06-13T14:26:03+00:00","link":"tg://resolve?domain=python_jobs&post=0","tags":[{"name":"python"},{"name":"rest"},{"name":"amazon-web-services"},{"name":"web"},{"name":"django"},{"name":"jquery"},{"name":"html"},{"name":"css"},{"name":"git"},{"name":"mongodb"},{"name":"postgresql"},{"name":"elasticsearch"},{"name":"wordpress"},{"name":"redis"},{"name":"jenkins"},{"name":"nginx"},{"name":"rabbitmq"},{"name":"nodejs"},{"name":"mysql"},{"name":"github"}],"cities":[],"allowsRemote":true}},{"node":{"__typename":"Job","id":"16886267904-1001110946746","title":"Js разработчик","text":"#remote #вакансия #typescript #node #nodejs #express #expressjs #fulltime #fullstack #москва #санктпетербург #новосибирск #екатеринбург #нижний #новгород #нижнийновгород #пермь #уфа #ульяновск\nНазвание компании: 4spaces\nПозиция: Full Stack JavaScript/TypeScript/Node.js Разработчик\nФормат работы: #удаленка\nЗанятость: полная\nЗарплатная вилка: от 80 000 руб. до 200 000 руб.\n\nОписание вакансии:\nМы ищем талантливого fullstack разработчика с коммерческим опытом создания сложных/высоконагруженных сервисов. Львиная доля разработки приходится на бэкэнд, поэтому значние frontend технологий опционально при условии высокого уровня разработки на стороне backend.\n\nДанная позиция предполагает полную занятость (минимум 40 часовая рабочая неделя).\n\nРассматриваем Senior и Middle кандидатов.\n\nТребования:\n* опыт работы с NodeJS\n* опыт работы с Typescript или JavaScript\n* опыт автоматизации процессов разработки: CI/CD, PR Checks, и т.д.\n* знанение git, gitflow, github flow, и т.д.\n* знание стандартных фреймворков и SDK\n* самое важное – умение и желание получать новые знания необходимые для работы\n\nБудет плюсом:\n* опыт разработки RESTful API\n* опыт работы c ExpressJS\n* опыт работы с ReactJS, webpack, rollup, parcel, jest\n* опыт работы или хотя бы понимание архитектуры Serverless\n* опыт работы в создании/поддержки инфраструктуры на AWS\n* опыт работы с алгоритмами Machine Learning, в частности, для рекомендательных систем.\n* опыт работы c Typescript\n* опыт работы c frontend frameworks, например React, Angular, JQuery\n* опыт работы с SQL и NoSQL базами данных, например MySQL, Postgres, Elasticsearch, Cassandra, AWS DynamoDB, Mongo, Redis etc.\n* опыт работы с масштабируемыми технологиями кэширования, например memchached, Coherence, Infinispan etc.\n* опыт работы с Linux\n* понимание современных процессов и лучших практик разработки: TDD, DDD, CQRS, Eventsourcing, и так далее\n* опыт контрибуции в Open Source (приложите ссылку на github, если есть на что посмотреть)\n\nКонтакты:\nВакансия – https://hh.ru/vacancy/37464232\nEmail – abalchunas@4spaces.company\nSkype – alexey.balchunas\nTelegram – https://t.me/AlexeyBalchunas\n\n—\n\n👉 Обсуждение вакансии в чате @javascript_jobs","markup":[{"type":"hashtag","offset":0,"length":7,"data":"remote"},{"type":"hashtag","offset":8,"length":9,"data":"вакансия"},{"type":"hashtag","offset":18,"length":11,"data":"typescript"},{"type":"hashtag","offset":30,"length":5,"data":"node"},{"type":"hashtag","offset":36,"length":7,"data":"nodejs"},{"type":"hashtag","offset":44,"length":8,"data":"express"},{"type":"hashtag","offset":53,"length":10,"data":"expressjs"},{"type":"hashtag","offset":64,"length":9,"data":"fulltime"},{"type":"hashtag","offset":74,"length":10,"data":"fullstack"},{"type":"hashtag","offset":85,"length":7,"data":"москва"},{"type":"hashtag","offset":93,"length":15,"data":"санктпетербург"},{"type":"hashtag","offset":109,"length":12,"data":"новосибирск"},{"type":"hashtag","offset":122,"length":13,"data":"екатеринбург"},{"type":"hashtag","offset":136,"length":7,"data":"нижний"},{"type":"hashtag","offset":144,"length":9,"data":"новгород"},{"type":"hashtag","offset":154,"length":15,"data":"нижнийновгород"},{"type":"hashtag","offset":170,"length":6,"data":"пермь"},{"type":"hashtag","offset":177,"length":4,"data":"уфа"},{"type":"hashtag","offset":182,"length":10,"data":"ульяновск"},{"type":"hashtag","offset":297,"length":9,"data":"удаленка"},{"type":"link","offset":1993,"length":30,"data":"https://hh.ru/vacancy/37464232"},{"type":"link","offset":2032,"length":26,"data":"http://abalchunas@4spaces.company"},{"type":"link","offset":2095,"length":28,"data":"https://t.me/AlexeyBalchunas"},{"type":"handle","offset":2158,"length":16,"data":"javascript_jobs"}],"date":"2020-06-13T13:50:55+00:00","link":"tg://resolve?domain=javascript_jobs_feed&post=16104","tags":[{"name":"javascript"},{"name":"typescript"},{"name":"nodejs"},{"name":"express"},{"name":"git"},{"name":"github"},{"name":"reactjs"},{"name":"webpack"},{"name":"amazon-web-services"},{"name":"angularjs"},{"name":"jquery"},{"name":"sql"},{"name":"nosql"},{"name":"mysql"},{"name":"postgresql"},{"name":"elasticsearch"},{"name":"cassandra"},{"name":"dynamodb"},{"name":"redis"},{"name":"linux"},{"name":"machine-learning"}],"cities":[{"code":"moscow"},{"code":"novosibirsk"},{"code":"perm"},{"code":"ufa"},{"code":"ulyanovsk"},{"code":"nizhny-novgorod"}],"allowsRemote":true}},{"node":{"__typename":"Job","id":"71178387456-1001054966032","title":"Android разработчик","text":"#remote #вакансия #android #kotlin #java #fulltime #новосибирск #екатеринбург #нижний #новгород #нижнийновгород #пермь #уфа #ульяновск\nПозиция: Android Разработчик (удаленно)\nФормат работы: #удаленка\nЗанятость: полная\nЗарплатная вилка: от 80 000 руб. до 130 000 руб.\n\nОписание вакансии:\nМы ищем Android разработчика с опытом создания Android приложений от прототипа заказчика и до непосредственной публикации в Google Play.\n\nДанная позиция предполагает полную занятость (минимум 30 часовая рабочая неделя).\n\nРассматриваем Senior и Middle кандидатов.\n\nТребования:\n* опыт разработки Android приложений (ожидается, что кандидат продемонстрирует хотя бы 1 приложение в App Store, разработанного с его/ее участием)\n* знание Kotlin или Java\n* знание стандартных фреймворков и SDK\n* самое важное – умение и желание получать новые знания необходимые для работы\n\nБудет плюсом:\n* опыт работы с видео/фото\n* опыт работы с OpenGL\n* опыт работы с машинным обучением\n* опыт работы с C++\n* опыт работы с RESTful API\n* опыт контрибуции в Open Source (приложите ссылку на github, если есть на что посмотреть)\n\nНазвание компании: 4spaces\n\nКонтакты:\nВакансия – https://hh.ru/vacancy/37448182\nEmail – abalchunas@4spaces.company\nSkype – alexey.balchunas\nTelegram – https://t.me/AlexeyBalchunas","markup":[{"type":"hashtag","offset":0,"length":7,"data":"remote"},{"type":"hashtag","offset":8,"length":9,"data":"вакансия"},{"type":"hashtag","offset":18,"length":8,"data":"android"},{"type":"hashtag","offset":27,"length":7,"data":"kotlin"},{"type":"hashtag","offset":35,"length":5,"data":"java"},{"type":"hashtag","offset":41,"length":9,"data":"fulltime"},{"type":"hashtag","offset":51,"length":12,"data":"новосибирск"},{"type":"hashtag","offset":64,"length":13,"data":"екатеринбург"},{"type":"hashtag","offset":78,"length":7,"data":"нижний"},{"type":"hashtag","offset":86,"length":9,"data":"новгород"},{"type":"hashtag","offset":96,"length":15,"data":"нижнийновгород"},{"type":"hashtag","offset":112,"length":6,"data":"пермь"},{"type":"hashtag","offset":119,"length":4,"data":"уфа"},{"type":"hashtag","offset":124,"length":10,"data":"ульяновск"},{"type":"hashtag","offset":190,"length":9,"data":"удаленка"},{"type":"link","offset":1142,"length":30,"data":"https://hh.ru/vacancy/37448182"},{"type":"link","offset":1181,"length":26,"data":"http://abalchunas@4spaces.company"},{"type":"link","offset":1244,"length":28,"data":"https://t.me/AlexeyBalchunas"}],"date":"2020-06-12T13:32:37+00:00","link":"tg://resolve?domain=mobile_jobs&post=0","tags":[{"name":"mobile"},{"name":"android"},{"name":"kotlin"},{"name":"java"},{"name":"playframework"},{"name":"opengl"},{"name":"github"}],"cities":[{"code":"novosibirsk"},{"code":"perm"},{"code":"ufa"},{"code":"ulyanovsk"},{"code":"nizhny-novgorod"}],"allowsRemote":true}},{"node":{"__typename":"Job","id":"71172096000-1001054966032","title":"Ios разработчик","text":"#remote #вакансия #ios #swift #fulltime #новосибирск #екатеринбург #нижний #новгород #нижнийновгород #пермь #уфа #ульяновск\nПозиция: iOS Разработчик (удаленно)\nФормат работы: #удаленка \nЗанятость: полная\nЗарплатная вилка: от 70 000 руб. до 130 000 руб.\n\nОписание вакансии:\nТребуется iOS разработчик с опытом создания iOS приложений от прототипа заказчика и до непосредственной публикации в App Store.\nДанная позиция предполагает полную занятость (минимум 30 часовая рабочая неделя).\nРассматриваем Senior и Middle кандидатов.\n\nТребования:\n* опыт разработки iOS приложений (ожидается, что кандидат продемонстрирует хотя бы 1 приложение в App Store, разработанного с его/ее участием)\n* знание Swift\n* знание стандартных фреймворков и SDK\n* самое важное – умение и желание получать новые знания необходимые для работы\n\nБудет плюсом:\n* опыт работы с видео/фото\n* опыт работы с Metal\n* опыт работы с ARKit\n* опыт работы с Core ML\n* опыт работы с Objective-C\n* опыт работы с RESTful API\n* опыт контрибуции в Open Source (приложите ссылку на github, если есть на что посмотреть)\n\nНазвание компании: 4spaces\n\nКонтакты:\nВакансия – https://hh.ru/vacancy/37463738\nEmail – abalchunas@4spaces.company\nSkype – alexey.balchunas\nTelegram – https://t.me/AlexeyBalchunas","markup":[{"type":"hashtag","offset":0,"length":7,"data":"remote"},{"type":"hashtag","offset":8,"length":9,"data":"вакансия"},{"type":"hashtag","offset":18,"length":4,"data":"ios"},{"type":"hashtag","offset":23,"length":6,"data":"swift"},{"type":"hashtag","offset":30,"length":9,"data":"fulltime"},{"type":"hashtag","offset":40,"length":12,"data":"новосибирск"},{"type":"hashtag","offset":53,"length":13,"data":"екатеринбург"},{"type":"hashtag","offset":67,"length":7,"data":"нижний"},{"type":"hashtag","offset":75,"length":9,"data":"новгород"},{"type":"hashtag","offset":85,"length":15,"data":"нижнийновгород"},{"type":"hashtag","offset":101,"length":6,"data":"пермь"},{"type":"hashtag","offset":108,"length":4,"data":"уфа"},{"type":"hashtag","offset":113,"length":10,"data":"ульяновск"},{"type":"hashtag","offset":175,"length":9,"data":"удаленка"},{"type":"link","offset":1121,"length":30,"data":"https://hh.ru/vacancy/37463738"},{"type":"link","offset":1160,"length":27,"data":"http://abalchunas@4spaces.company/"},{"type":"link","offset":1223,"length":28,"data":"https://t.me/AlexeyBalchunas"}],"date":"2020-06-12T12:27:13+00:00","link":"tg://resolve?domain=mobile_jobs&post=0","tags":[{"name":"mobile"},{"name":"ios"},{"name":"swift"},{"name":"objective-c"},{"name":"github"}],"cities":[{"code":"novosibirsk"},{"code":"perm"},{"code":"ufa"},{"code":"ulyanovsk"},{"code":"nizhny-novgorod"}],"allowsRemote":true}},{"node":{"__typename":"Job","id":"16859004928-1001110946746","title":"Js разработчик","text":"#вакансия #frontend #vue #senior #middle #remote #офис #удаленка\n\nГород: Москва, м. Славянский бульвар\nФормат работы: офис, удаленное сотрудничество\nЗанятость: полная, гибкий график (обсуждаем)\nЗарплатная вилка: от 80 000 рублей до 240 000 рублей на руки\nНазвание компании: ФГБУ «ИАЦ МЧС России»\nКонтакты для связи: @mxrkin\n\nНа данный момент отдел разработки программного обеспечения формирует команду JS-разработчиков для поддержки существующих и реализации новых проектов.\n\nТребования для соискателей:\n— уверенные знания Javascript, знание стандартов ECMAScript;\n— знание и опыт применения фреймворка Vue.js и использование элементов экосистемы фреймворка (vuex, vue-router);\n— опыт использования систем сборки - webpack, gulp, parcel. Опыт написания конфигов для webpack;\n— владение препроцессорами CSS - SASS/LESS;\n— опыт использования Prettier, ESLint;\n— гражданство РФ (местонахождение так же РФ).\n\nПлюсом будет:\n— владение Node.js или знание других языков программирования;\n— активные профили в сообществах habrahabr, habr Q&A, участие в opensource проектах, активный профиль github;\n— опыт работы с библиотекой D3.js;\n— опыт работы с картографическими библиотеками.\n\nТрудоустройство официальное по ТК РФ, социальный пакет.\nНа территории имеется столовая для сотрудников, спортивные площадки, футбольное и баскетбольное поле.\nРабота не является государственной службой.\n\nСобеседование проходит в три этапа — общение с руководителем, выполнение тестового задания (простое задание на 15-30 минут), предложение сотрудничества. \n\nЕсли вас заинтересовала вакансия, обращайтесь в тг @mxrkin. Большим плюсом будет, если первым сообщением прикрепите резюме и поделитесь ссылками на проекты, в которых принимали активное участие, или ссылку на гитхаб с кодом, который, по-вашему мнению, сможет показать все ваши знания и навыки.","markup":[{"type":"hashtag","offset":0,"length":9,"data":"вакансия"},{"type":"hashtag","offset":10,"length":9,"data":"frontend"},{"type":"hashtag","offset":20,"length":4,"data":"vue"},{"type":"hashtag","offset":25,"length":7,"data":"senior"},{"type":"hashtag","offset":33,"length":7,"data":"middle"},{"type":"hashtag","offset":41,"length":7,"data":"remote"},{"type":"hashtag","offset":49,"length":5,"data":"офис"},{"type":"hashtag","offset":55,"length":9,"data":"удаленка"},{"type":"handle","offset":316,"length":7,"data":"mxrkin"},{"type":"handle","offset":1584,"length":7,"data":"mxrkin"}],"date":"2020-06-11T20:24:35+00:00","link":"tg://resolve?domain=javascript_jobs_feed&post=16078","tags":[{"name":"javascript"},{"name":"vuejs"},{"name":"webpack"},{"name":"gulp"},{"name":"css"},{"name":"sass"},{"name":"nodejs"},{"name":"github"}],"cities":[{"code":"moscow"}],"allowsRemote":true}},{"node":{"__typename":"Job","id":"16844324864-1001110946746","title":"Js разработчик","text":"#вакансия #удаленка #работа \n\nГород и адрес офиса: любой\nФормат работы: удаленка\nЗанятость: полная\nЗарплатная вилка:  от 120 до 160 net\n\nHigh-Middle/Senior Front-End Developer\nМы стартап, у вас будет возможность стать нашим главным Front-End разработчиком и определять архитектуру и стек веб-приложений над которыми мы работаем.\n • интересные задачи \n • начальство адекват \n • стек крутой ) \n • сильная команда с опытом успешного развития подобных проектов \n • деньги есть \n\nТехнические требования:\n • Опыт прототипирования архитектуры современного высоко оптимизированного веб-приложения с нуля \n • HTML5, CSS preprocessors, JavaScript (ES6) \n • Опыт сборки CSS Grid, UI Components Kit библиотек, Style Guide ( Storybook.js / … ) \n • Понимание методологии Atomic Design, ее плюсов и минусов. Cпособность писать модульный и хорошо проверенный код \n • Работа с Webpack, управление NPM зависимостями, владение GIT, основы CLI \n • Responsive / mobile-first development \n • Анимация Javascript / CSS, ее оптимизация \n • Работа с SVG и оптимизация \n • Взаимодействие с внешними API и интеграция сторонних сервисов, оптимизация их работы \n • Использование современных стандартов семантики и применение их для технической SEO оптимизации \n • Понимание как добиться высоких результатов в Page Speed Insights \n • Разработка и покрытие кода тестами \n • Работа с Google Analytics, event tracking и альтернативы \n\nБонусом будет наличие опыта с:\n • Wordpress Stack: Trellis / Bedrock / Sage или альтернативы \n • основы PHP \n • Конфигурирование и запуск A/B тестов Optimizely / VWO / альтернативы \n • Опыт с JAMstack проектами \n • Опыт работы с Segment \n • Ссылка на Github проект которым есть желание гордиться \n • Ссылка на вклад в open-source проекты / участие в сообществах / конференциях \n\nОбщие требования: \nАнглийский\n Адекватность \n Возможность работы в пределах 15:00-23:00 по Москве (может плавать - типа 13:00-21:00, но так или иначе это вторая половина дня)  \nГотовность открыть ИП \nБонусы: \nДостойная заработная плата\n Атмосфера работы в стартапе \nОплачиваемый отпуск \nОплата книг и софта для работы\n Оплата профессиональных конференций\nРаз в год мы проводим встречи в разных городах И всякие другие плюшки\nДополнительные инструкции: Пожалуйста, присылайте ссылки на ваше CV, ссылки на LinkedIn / Habr страничку, ссылку на гитхаб и по возможности портфолио на sergey@waltbury.com","markup":[{"type":"hashtag","offset":0,"length":9,"data":"вакансия"},{"type":"hashtag","offset":10,"length":9,"data":"удаленка"},{"type":"hashtag","offset":20,"length":7,"data":"работа"},{"type":"link","offset":2359,"length":19,"data":"mailto:sergey@waltbury.com"}],"date":"2020-06-11T19:56:30+00:00","link":"tg://resolve?domain=javascript_jobs_feed&post=0","tags":[{"name":"javascript"},{"name":"dotnet"},{"name":"html"},{"name":"css"},{"name":"webpack"},{"name":"npm"},{"name":"git"},{"name":"mobile"},{"name":"svg"},{"name":"seo"},{"name":"wordpress"},{"name":"php"},{"name":"github"},{"name":"google-analytics"}],"cities":[],"allowsRemote":true}},{"node":{"__typename":"Job","id":"16841179136-1001110946746","title":"Js developer","text":"#вакансия #remote #node #fullstack_developer #startup\nSenior Software Developer \nЛокация: г. Москва, м. Белорусская\nФормат работы: удаленка и офис, мы за свободу выбора.\nЗанятость: полная (возможно частичная в период onboarding’a)\nЗарплатная вилка: от 200 000 до 300 000 рублей net\n\nОписание вакансии:\n\nSegmentStream — это технологический стартап со штаб-квартирой в Лондоне и офисом в Москве, где в основном сосредоточена команда разработки. Также часть сотрудников работает удаленно из Кипра, Санкт-Петербурга и других городов. \n\nПродукт:\nПлатформа для построения продвинутой маркетинговой аналитики. \n\nМы используем технологии обработки больших данных и машинное обучение, чтобы помочь маркетологам точно оценивать эффективность рекламных кампаний, при этом не тратить время на подготовку подобной отчетности вручную.\n\nТак, платформа SegmentStream позволяет наладить сбор данных из всех рекламных кабинетов, сайта, CRM-систем и других источников данных, объединить их в полезные маркетинговые отчеты, и применить справедливую модель атрибуции для понимания реальной ценности каждого маркетингового канала и кампании.   \n\nЧто мы делаем:\n- Мы разрабатываем высоконагруженные data pipelines с использованием NodeJs\n- Мы строим UI на React\n- Мы разрабатываем наш API, используя NodeJS и TypeScript.\n- Мы деплоим наш код несколько раз в день. Мы любим эффективность, облачные решения, CI / CD, Spinnaker, Kubernetes и Terraform.\n\nСтек команды: JavaScript, Node.js, React, TypeScript, Kubernetes, Google Cloud, Rust, Scala.\n\n Пример будущих задач:\n\n- Создать масштабируемую и отказоустойчивую архитектуру микросервиса с балансировкой нагрузки и автоматическим обнаружением.\n- Параллельная обработка терабайтов данных в условиях жестких ограничений оперативной памяти.\n- Создание высокодоступных конвейеров обработки событий в реальном времени с неограниченной масштабируемостью.\n- Построение эффективных систем кэширования и проксирования.\n\nТребования:\n\n- Опыт разработки бекенда и фронтенда на  ES6 или TypeScript;\n- 4+ лет опыта разработки или наличия крутых проектов с открытым исходным кодом на GitHub.\n- Сильные теоретические знания и практический опыт в проектировании и реализации высокодоступных, высоконагруженных, отказоустойчивых распределенных систем.\n- Знание английского языка не ниже B1\nЖелательно:\nТехническое образование\n\nКонтакты: @bezelune ; nelya.bakhshibaeva@segmentstream.com; segmentstream.com","markup":[{"type":"hashtag","offset":0,"length":9,"data":"вакансия"},{"type":"hashtag","offset":10,"length":7,"data":"remote"},{"type":"hashtag","offset":18,"length":5,"data":"node"},{"type":"hashtag","offset":24,"length":20,"data":"fullstack_developer"},{"type":"hashtag","offset":45,"length":8,"data":"startup"},{"type":"handle","offset":2346,"length":9,"data":"bezelune"},{"type":"link","offset":2358,"length":36,"data":"mailto:nelya.bakhshibaeva@segmentstream.com"},{"type":"link","offset":2396,"length":17,"data":"http://segmentstream.com"}],"date":"2020-06-11T19:44:16+00:00","link":"tg://resolve?domain=javascript_jobs_feed&post=0","tags":[{"name":"javascript"},{"name":"nodejs"},{"name":"dotnet"},{"name":"reactjs"},{"name":"typescript"},{"name":"kubernetes"},{"name":"cloud"},{"name":"rust"},{"name":"scala"},{"name":"github"},{"name":"google-cloud-platform"}],"cities":[{"code":"moscow"}],"allowsRemote":true}}]}}},"context":{}}