{"hash":"f5f6bf98bd95e769321482904cbbd488f77922fd","data":{"records":{"id":"nodejs","name":"nodejs","belongsTo":{"totalCount":122,"pageInfo":{"totalPages":13,"currentPage":13},"edges":[{"node":{"__typename":"Job","id":"16843276288-1001110946746","title":"Js разработчик","text":"#вакансия #удаленка #работа #node #команда_разработчиков \n\nГород и адрес офиса: любой\nФормат работы: удаленка\nЗанятость: полная\nЗарплатная вилка: для middle от 160 до 180 net\nдля teamlead от 200 до 230 net\n\nОписание вакансии: \nНужна сработанная команда node.js разработчиков с тимлидом для разработки облачных сервисов.\n\nЗадачи:\n1. Разработка и развитие системы управления биллингом облачных сервисов.\n- Front-end - личные кабинеты, различные графики, настройки использования и отчёты сервиса.\n- Back-end - реализация функционала, необходимого фронту, плюс реализация непосредственного взаимодействия с облачными сервисами.\n- Интеграция других бизнес-процессов в систему.\n- Постепенное превращение системы из внутреннего продукта компании в продукт для клиентов, с соответствующими требованиями.\n\n2. Разработка сервиса регистрации и классификации обращений с использованием машинного обучения.\n- Создание среды для работы моделей, созданных нашими дата-сайентистами.\n- Интеграция с другими сервисами.\n\n3. Создание продуктов или MVP совместно с другими подразделениями в рамках автоматизации деятельности организации или в рамках проверки гипотез;\n\n4. Закрытые проекты для заказчиков федерального уровня.\n\nИспользуемые технологии: \nBack end: node.js\nFront end: Vue + typescript (текущая версия), React with hooks + redux + typescript (новые версии).\nСоотношение задач back/front примерно 80/20, поэтому знание фреймворков на front end не критично, если есть готовность их освоить.\n\nТакже важны знания:\n- PostgreSQL.\n- Умение работать в Linux.\n- Знание React.Js и Redux.\n\nИ будет плюсом:\n- Опыт разработки систем в микросервисной архитектуре и работы с геоинформационными системами.\n- Опыт работы с mongoDB.\n- Знания по настройке web-серверов.\n- Знания инструментария devops. \n\nУсловия: возможна полностью удаленная работа (не в Москве), оформление по ТК РФ, ежеквартальные премии, ДМС после испытательного + есть программы лояльности с партнерами (подробнее на интервью).\n\nНазвание компании: КА Star-Staff\n\nКонтакты: @aazaitseva azaitseva@star-staff.ru","markup":[{"type":"hashtag","offset":0,"length":9,"data":"вакансия"},{"type":"hashtag","offset":10,"length":9,"data":"удаленка"},{"type":"hashtag","offset":20,"length":7,"data":"работа"},{"type":"hashtag","offset":28,"length":5,"data":"node"},{"type":"hashtag","offset":34,"length":22,"data":"команда_разработчиков"},{"type":"handle","offset":2016,"length":11,"data":"aazaitseva"},{"type":"link","offset":2028,"length":23,"data":"mailto:azaitseva@star-staff.ru"}],"date":"2020-06-11T19:55:18+00:00","link":"tg://resolve?domain=javascript_jobs_feed&post=0","tags":[{"name":"javascript"},{"name":"nodejs"},{"name":"dotnet"},{"name":"vuejs"},{"name":"typescript"},{"name":"reactjs"},{"name":"redux"},{"name":"postgresql"},{"name":"linux"},{"name":"mongodb"},{"name":"web"},{"name":"react-redux"}],"cities":[],"allowsRemote":true}},{"node":{"__typename":"Job","id":"16841179136-1001110946746","title":"Js developer","text":"#вакансия #remote #node #fullstack_developer #startup\nSenior Software Developer \nЛокация: г. Москва, м. Белорусская\nФормат работы: удаленка и офис, мы за свободу выбора.\nЗанятость: полная (возможно частичная в период onboarding’a)\nЗарплатная вилка: от 200 000 до 300 000 рублей net\n\nОписание вакансии:\n\nSegmentStream — это технологический стартап со штаб-квартирой в Лондоне и офисом в Москве, где в основном сосредоточена команда разработки. Также часть сотрудников работает удаленно из Кипра, Санкт-Петербурга и других городов. \n\nПродукт:\nПлатформа для построения продвинутой маркетинговой аналитики. \n\nМы используем технологии обработки больших данных и машинное обучение, чтобы помочь маркетологам точно оценивать эффективность рекламных кампаний, при этом не тратить время на подготовку подобной отчетности вручную.\n\nТак, платформа SegmentStream позволяет наладить сбор данных из всех рекламных кабинетов, сайта, CRM-систем и других источников данных, объединить их в полезные маркетинговые отчеты, и применить справедливую модель атрибуции для понимания реальной ценности каждого маркетингового канала и кампании.   \n\nЧто мы делаем:\n- Мы разрабатываем высоконагруженные data pipelines с использованием NodeJs\n- Мы строим UI на React\n- Мы разрабатываем наш API, используя NodeJS и TypeScript.\n- Мы деплоим наш код несколько раз в день. Мы любим эффективность, облачные решения, CI / CD, Spinnaker, Kubernetes и Terraform.\n\nСтек команды: JavaScript, Node.js, React, TypeScript, Kubernetes, Google Cloud, Rust, Scala.\n\n Пример будущих задач:\n\n- Создать масштабируемую и отказоустойчивую архитектуру микросервиса с балансировкой нагрузки и автоматическим обнаружением.\n- Параллельная обработка терабайтов данных в условиях жестких ограничений оперативной памяти.\n- Создание высокодоступных конвейеров обработки событий в реальном времени с неограниченной масштабируемостью.\n- Построение эффективных систем кэширования и проксирования.\n\nТребования:\n\n- Опыт разработки бекенда и фронтенда на  ES6 или TypeScript;\n- 4+ лет опыта разработки или наличия крутых проектов с открытым исходным кодом на GitHub.\n- Сильные теоретические знания и практический опыт в проектировании и реализации высокодоступных, высоконагруженных, отказоустойчивых распределенных систем.\n- Знание английского языка не ниже B1\nЖелательно:\nТехническое образование\n\nКонтакты: @bezelune ; nelya.bakhshibaeva@segmentstream.com; segmentstream.com","markup":[{"type":"hashtag","offset":0,"length":9,"data":"вакансия"},{"type":"hashtag","offset":10,"length":7,"data":"remote"},{"type":"hashtag","offset":18,"length":5,"data":"node"},{"type":"hashtag","offset":24,"length":20,"data":"fullstack_developer"},{"type":"hashtag","offset":45,"length":8,"data":"startup"},{"type":"handle","offset":2346,"length":9,"data":"bezelune"},{"type":"link","offset":2358,"length":36,"data":"mailto:nelya.bakhshibaeva@segmentstream.com"},{"type":"link","offset":2396,"length":17,"data":"http://segmentstream.com"}],"date":"2020-06-11T19:44:16+00:00","link":"tg://resolve?domain=javascript_jobs_feed&post=0","tags":[{"name":"javascript"},{"name":"nodejs"},{"name":"dotnet"},{"name":"reactjs"},{"name":"typescript"},{"name":"kubernetes"},{"name":"cloud"},{"name":"rust"},{"name":"scala"},{"name":"github"},{"name":"google-cloud-platform"}],"cities":[{"code":"moscow"}],"allowsRemote":true}}]}}},"context":{}}