{"hash":"f5f6bf98bd95e769321482904cbbd488f77922fd","data":{"records":{"id":"ios","name":"ios","belongsTo":{"totalCount":194,"pageInfo":{"totalPages":20,"currentPage":13},"edges":[{"node":{"__typename":"Job","id":"103440973824-1001089317451","title":"Qa инженер","text":"#вакансия #qa #middle #fulltime #удаленно\nПривет!\nКомпания: ПИК Digital (https://www.pik.ru/).\nMiddle QA - от 50к и выше (по результатам собеседования) \n\nЗадачи:\n• Участие в интересных проектах по тестированию web и мобильных приложений;\n• Проведение функционального, регрессионного, юзабилити тестирования;\n• Разработка ручных тестовых сценариев и написание тестовой документации;\n• Оценка задач на тестирование;\n• Заведение дефектов и контроль их исправления;\n• Согласование тестовых требований и планов тестирования;\n• Составление отчетов и документации по результатам тестирования;\n• Поддержка автотестов.\n\nТребования:\n• Опыт работы на аналогичной должности от 1 года;\n• Опыт тестирования API;\n• Уверенные знания SQL;\n• Опыт работы с developer tools в браузере;\n• Понимание процессов тестирования и разработки;\n• Понимание принципов работы front и backend приложений;\n• Умение ясно и грамотно формулировать свои мысли;\n• Умение пользоваться устройствами на базе Android и iOS;\n\nБудет плюсом:\n• Опыт разработки автоматизированных тестовых сценариев (Java, Pyton, JavaScript);\n• Умение работать с unix-системами, знание bash-скриптов.\n• Понимание принципов непрерывной интеграции и доставки (CI, CD).\n\nНаши преимущества:\n• Большое внутреннее community разработчиков, аналитиков;\n• Современный стек технологий и техническое оснащение;\n• Минимум бюрократии;\n• Возможности для роста и развития;\n• Обучение и посещение конференций за счет компании.\n\nУсловия:\n• Оформление в соответствии с ТК РФ;\n• После испытательного срока медицинское обслуживание;\n• Официальная заработная плата обсуждается при собеседовании;\n• Премии по итогам года;\n• Гибкое начало рабочего дня;\n• Возможность удаленной работы.\nКонтакты: @alexey_petrunin","markup":[{"type":"hashtag","offset":0,"length":9,"data":"вакансия"},{"type":"hashtag","offset":10,"length":3,"data":"qa"},{"type":"hashtag","offset":14,"length":7,"data":"middle"},{"type":"hashtag","offset":22,"length":9,"data":"fulltime"},{"type":"hashtag","offset":32,"length":9,"data":"удаленно"},{"type":"link","offset":73,"length":19,"data":"https://www.pik.ru/"},{"type":"handle","offset":1708,"length":16,"data":"alexey_petrunin"}],"date":"2020-06-22T12:44:10+00:00","link":"tg://resolve?domain=qa_jobs&post=98649","tags":[{"name":"qa"},{"name":"web"},{"name":"sql"},{"name":"android"},{"name":"ios"},{"name":"java"},{"name":"javascript"},{"name":"unix"},{"name":"bash"}],"cities":[],"allowsRemote":true}},{"node":{"__typename":"Job","id":"71778172928-1001054966032","title":"Ios разработчик","text":"#вакансия #ios #swift #middle #senior #удаленка #remote #fulltime\n\niOS-разработчик удаленно от 200 тыс. руб.\n\nГород: Москва\nФормат работы: удаленно\nЗанятость: полная\nЗарплатная вилка: от 200 000 руб. до 250 000 руб. после налогообложения\nКомпания: CORE https://core.company\nОписание вакансии:\n\nМы команда разработчиков мобильных приложений и сейчас мы ищем iOS-разработчика для одного из наших финтех-проектов.\n\nОсновные требования:\n— Опыт работы от 2-х лет;\n— Знание Objective-C и Swift;\n— Опыт работы с Rx;\n— Знание шаблонов проектирования и умение их применять;\n— Понимание принципов SOLID;\n— Знание основных алгоритмов и структур данных;\n— Умение писать поддерживаемый и тестируемый код.\n\nУсловия:\n— Полный день, гибкий график;\n— Оформление по договору ГПХ.\n\nПрисылайте ваше резюме на @tv_corecompany","markup":[{"type":"hashtag","offset":0,"length":9,"data":"вакансия"},{"type":"hashtag","offset":10,"length":4,"data":"ios"},{"type":"hashtag","offset":15,"length":6,"data":"swift"},{"type":"hashtag","offset":22,"length":7,"data":"middle"},{"type":"hashtag","offset":30,"length":7,"data":"senior"},{"type":"hashtag","offset":38,"length":9,"data":"удаленка"},{"type":"hashtag","offset":48,"length":7,"data":"remote"},{"type":"hashtag","offset":56,"length":9,"data":"fulltime"},{"type":"link","offset":253,"length":20,"data":"https://core.company"},{"type":"handle","offset":789,"length":15,"data":"tv_corecompany"}],"date":"2020-06-22T12:07:18+00:00","link":"tg://resolve?domain=mobile_jobs&post=68453","tags":[{"name":"mobile"},{"name":"ios"},{"name":"swift"},{"name":"objective-c"}],"cities":[{"code":"moscow"}],"allowsRemote":true}},{"node":{"__typename":"Job","id":"71777124352-1001054966032","title":"Ios разработчик","text":"#вакансия #ios \n\n📱Ищется в распределенную команду Разработчик IOS (Swift). \n\n✅ Формат работы:  удаленка/ meetup в СПб\n\n✅ Занятость: частичная, проектная\n\nПриглашаем Junior/Intermediate разработчика в команду для совместной работы над мобильным приложением (аналог системы охраны AJAX) управление умным домом, аналитика, оповещения и т.п. \n\n👨‍💻Мы - небольшая дружелюбная и веселая команда профессионалов, работаем в сфере автоматизации бизнеса различных направлений. С нами интересно и есть куда вырасти в части навыков, опыта и компетенций. \n\n✅ Условия: \n\n- Выплаты по этапам выполнения проекта \n- Новые задачи и проекты по мере роста компетенций и опыта.\n- Вилка 15000 - 60000р\n\n✅ Контакты:\n\n@vseoto","markup":[{"type":"hashtag","offset":0,"length":9,"data":"вакансия"},{"type":"hashtag","offset":10,"length":4,"data":"ios"},{"type":"link","offset":667,"length":13,"data":"tel:15000 - 60000"},{"type":"handle","offset":696,"length":7,"data":"vseoto"}],"date":"2020-06-22T11:48:13+00:00","link":"tg://resolve?domain=mobile_jobs&post=68452","tags":[{"name":"mobile"},{"name":"ios"},{"name":"swift"},{"name":"ajax"}],"cities":[],"allowsRemote":true}},{"node":{"__typename":"Job","id":"103429439488-1001089317451","title":"Qa engineer","text":"#вакансия #удалённо #QAEngineer #QA \n\n🌈Классная компания ищет в команду QA Engineer для тестирования мобильного приложения ^-^\n\n\n💻Формат работы: удалённо\n🏢Компания: #Magic\n⌛️Занятость: полный день \n💰ЗП вилка: до 200 000\n\n💼Требования:)\n-опыт от 3-х лет;\n- опыт мануального тестирования мобильных приложений;\n- опыт тестирования браузерных бизнес-приложений\n- опыт тестирования приложений со сложными use-case’ами параллельно на нескольких девайсах\n- уверенное знание iOS/Android-систем\n- базовый, но уверенный, уровень английского языка для чтения технической/продуктовой документации\n- умение работать без документации\n\nРассматриваем кандидатов со своей фермой девайсов)\n\n🧜🏼‍♀️Telegram: @Gleaming_Darkness","markup":[{"type":"hashtag","offset":0,"length":9,"data":"вакансия"},{"type":"hashtag","offset":10,"length":9,"data":"удалённо"},{"type":"hashtag","offset":20,"length":11,"data":"QAEngineer"},{"type":"hashtag","offset":32,"length":3,"data":"QA"},{"type":"bold","offset":132,"length":14,"data":""},{"type":"hashtag","offset":168,"length":6,"data":"Magic"},{"type":"bold","offset":177,"length":10,"data":""},{"type":"bold","offset":203,"length":9,"data":""},{"type":"handle","offset":694,"length":18,"data":"Gleaming_Darkness"}],"date":"2020-06-22T11:32:25+00:00","link":"tg://resolve?domain=qa_jobs&post=0","tags":[{"name":"qa"},{"name":"ios"},{"name":"android"}],"cities":[],"allowsRemote":true}},{"node":{"__typename":"Job","id":"103427342336-1001089317451","title":"Qa инженер","text":"#вакансия #работа #СанктПетербург #QA #Manual #Mobile #API #fulltime #офис\nГород: Санкт-Петербург, м. Чкаловская\nФорма работы: офис\nЗанятость: полная\nЗарплатная вилка: от 100 000 net (обсуждается по результатам собеседования).\nВсем привет!\nМы – Cardsmobile, петербургская IT-компания, разработчик мобильного приложения «Кошелёк». \n«Кошелёк» заменяет бумажник и избавляет от необходимости носить с собой пластик: пользователи хранят в нем дисконтные и банковские карты. Чтобы получить скидку, достаточно показать на кассе карту с экрана смартфона, а чтобы оплатить покупку – приложить NFC-смартфон к терминалу оплаты.\nВ связи с расширением функционала приложения и выходом на зарубежные рынки мы усиляем нашу команду и ищем QA инженера с опытом тестирования мобильных и веб продуктов.\n🔹Что нужно будет делать:\n•  тестировать работу «Кошелька» на Android и iOS;\n•  проводить функциональное и регрессионное тестирование клиентской части приложения, функциональное и нагрузочное тестирование серверной;\n•  организовывать процесс тестирования: устанавливать и настраивать тестовое окружение, разрабатывать тестовые сценарии, писать тестовую документацию.\n🔹Ожидаем, что у Вас есть:\n•  опыт тестирования мобильных приложений от 1,5 лет;\n•  понимание принципов клиент-серверного взаимодействия;\n•  навыки работы с базами данных (Postgresql, MongoDB и др.);\n•  навыки работы с инструментами для тестирования серверного API (Postman, SoapUI и т.д.).\n🔹Будет плюсом:\n•  Опыт разработки автотестов для web (Selenium), mobile (Espresso, XCTest) или желание его приобрести.\n🔹Мы предлагаем:\n•  Участие в развитии полезного и популярного приложения, возможность сделать мир лучше;\n•  Оформление по ТК РФ с первого дня работы. ДМС после прохождения испытательного срока;\n•  Оплату мобильной связи, частичную компенсацию питания;\n•  Гибкий график и высокий уровень самостоятельности;\n•  Командные мероприятия и приятные коллеги;\n•  Комфортный офис в центре города (2 минуты от станции метро Чкаловская).\n\nИнформацию о компании можно найти по ссылке: https://spb.hh.ru/employer/2032205\n\nTelegram: katerinaziryukova","markup":[{"type":"hashtag","offset":0,"length":9,"data":"вакансия"},{"type":"hashtag","offset":10,"length":7,"data":"работа"},{"type":"hashtag","offset":18,"length":15,"data":"СанктПетербург"},{"type":"hashtag","offset":34,"length":3,"data":"QA"},{"type":"hashtag","offset":38,"length":7,"data":"Manual"},{"type":"hashtag","offset":46,"length":7,"data":"Mobile"},{"type":"hashtag","offset":54,"length":4,"data":"API"},{"type":"hashtag","offset":59,"length":9,"data":"fulltime"},{"type":"hashtag","offset":69,"length":5,"data":"офис"},{"type":"link","offset":2035,"length":34,"data":"https://spb.hh.ru/employer/2032205"}],"date":"2020-06-22T10:58:58+00:00","link":"tg://resolve?domain=qa_jobs&post=98636","tags":[{"name":"qa"},{"name":"mobile"},{"name":"dotnet"},{"name":"android"},{"name":"ios"},{"name":"postgresql"},{"name":"mongodb"},{"name":"web"},{"name":"selenium"}],"cities":[],"allowsRemote":false}},{"node":{"__typename":"Job","id":"71767687168-1001054966032","title":"Android разработчик","text":"#вакансия #москва #офис #unity #developer #gamedev #csharp c#\n\nГород и адрес офиса: Москва, м.Автозаводская \nФормат работы: офис \nЗанятость: полная \nЗарплатная вилка: от 160 000 на руки \n\n📣 Unity Developer (gamedev)\n\n✅ Описание вакансии:\n\nAppQuantum - это успешная команда из 120 человек, которая занимается мобильным маркетингом, разработкой и паблишингом мобильных игр. Один из наших самых успешных проектов Idle Evil Clicker набрал за пол года 5 млн пользователей на iOS и Android и мы не планируем останавливаться на достигнутом.\nМы ищем сильного Unity разработчика для работы над проектами в жанре Idle / Clicker / Tycoon. У нас три запущенных проекта, сейчас работаем над четвертым.\n\n\n✅ Задачи:\n\n• Разработка клиентской части игры\n• Интеграция в проект готового контента (модели, анимации, звуки)\n• Интеграция в проект готовых VFX, написание логики их управления\n• Вёрстка UI по макетам от художников\n• Интеграция различных сторонних SDK\n\n\n✅ Требования:\n\n• Опыт работы на Unity3D (С#) от 3х лет\n• Отличное знание Unity и всех её подсистем\n• Отличное знание C#, умение писать чёткий, понятный, структурированный код\n• Отличное знание паттернов проектирования\n• Умение верстать адаптивные интерфесы в uGUI\n• Умение отлаживать и оптимизировать проекты под мобильные платформы iOS/Android\n• Понимание Рендер пайплайна Unity3D, его тонких мест и принципов оптимизации\n• Уверенные знания по работе с системой контроля версий git\n• Умение разбираться в чужом коде, проводить рефакторинг\n• Дисциплинированность и ответственность\n\n\n✅ Плюсом будет:\n\n• Участие в разработке выпущенных игр под мобильные платформы на аналогичной должности\n• Умение работать с шейдерами\n• Опыт работы с нативными плагинами (In-Apps, PUSH notifications, аналитика, реклама, социальное взаимодействие)\n• Опыт работы с ecs (Unity DOTS, Entitas)\n• Умение разрабатывать и поддерживать стабильную архитектуру\n• Коммуникабельность, yмение чётко доносить свою точку зрения и принимать точку зрения остальных участников команды\n\n\n✅ Для вас:\n\n• Конкурентная заработная плата по результатам собеседования, выплачивается 2 раза в месяц без задержек\n• Необходимое оборудование заказываем под вас\n• Возможность обучаться английскому языку с носителями каждый будний день по утрам\n• Собеседование сразу же с руководителем, который принимает решение о найме\n\nНазвание компании: AppQuantum\n\nhttps://appquantum.com/\n\nКонтакты: \ne-mail: bm@adquantum.com\ntelegram: @MishaBarinov","markup":[{"type":"hashtag","offset":0,"length":9,"data":"вакансия"},{"type":"hashtag","offset":10,"length":7,"data":"москва"},{"type":"hashtag","offset":18,"length":5,"data":"офис"},{"type":"hashtag","offset":24,"length":6,"data":"unity"},{"type":"hashtag","offset":31,"length":10,"data":"developer"},{"type":"hashtag","offset":42,"length":8,"data":"gamedev"},{"type":"hashtag","offset":51,"length":7,"data":"csharp"},{"type":"bold","offset":220,"length":18,"data":""},{"type":"bold","offset":694,"length":7,"data":""},{"type":"bold","offset":949,"length":11,"data":""},{"type":"bold","offset":1532,"length":13,"data":""},{"type":"bold","offset":2000,"length":8,"data":""},{"type":"link","offset":2351,"length":23,"data":"https://appquantum.com/"},{"type":"link","offset":2395,"length":16,"data":"mailto:bm@adquantum.com"},{"type":"handle","offset":2422,"length":13,"data":"MishaBarinov"}],"date":"2020-06-22T10:46:02+00:00","link":"tg://resolve?domain=mobile_jobs&post=68443","tags":[{"name":"mobile"},{"name":"android"},{"name":"ios"},{"name":"unity3d"},{"name":"csharp"},{"name":"git"}],"cities":[{"code":"moscow"}],"allowsRemote":false}},{"node":{"__typename":"Job","id":"71765590016-1001054966032","title":"Ios разработчик","text":"#вакансия #ios #swift #офис #москва\nм.Бауманская, полная занятость\nБелая з/п от 150.000 до 200.000 руб. на руки\niOS developer\n\nМы — команда разработки Level.Travel, сложного продукта в сфере путешествий.  За последние 8 лет мы с нуля создали и продолжаем развивать решение для онлайн-продажи путешествий. Нашу платформу используют лидеры рынка – Тинькофф Банк, OneTwoTrip, Сбербанк, TripAdvisor, Kayak, АК Барс Банк, Евросеть и многие другие. Компания Level.Travel является резидентом Инновационного центра «Сколково».\n\nОбязанности:\n🔸Разработка проекта на Swift\n🔸Разработка новых модулей приложения\n🔸Проведение code review\n🔸Пишем на VIPER, используем Realm, Swinject, SnapKit\n🔸Сбор требований и фидбэка от других команд разработчиков и дизайнеров для улучшения и развития нашего продукта\n🔸Проводить оценку и корректировать требования для развития и улучшения приложения\n\nОт Вас:\n🔸Разработка на iOS от 2х лет\n🔸Умеете писать поддерживаемый и тестируемый код и понимаете, что DRY, KISS и 🔸SOLID — не просто аббревиатуры\n🔸Умение разрабатывать многопоточные приложения\n🔸Способность планировать и приоритезировать работу\n🔸Умение находить аргументы и конструктивно реагировать на комментарии коллег\n🔸Готовность много общаться с другими командами\n\nОт нас: белая зп, официальное трудоустройство, больничные, отпуска. Скидки на изучение английского языка, техника MacBook Pro. Регулярная обратная связь и аттестации. Геймификация процессов и несколько раз в год релокейты поработать в другую страну. Клевый молодой коллектив, интересные ивенты, насыщенная корпоративная жизнь. Пинг-понг, бильярд, кальян и другие развлечения в офисе. Скидки на путешествия)\n\nСвязь по почте: vos@level.travel\nИли тут @Alyask_a","markup":[{"type":"hashtag","offset":0,"length":9,"data":"вакансия"},{"type":"hashtag","offset":10,"length":4,"data":"ios"},{"type":"hashtag","offset":15,"length":6,"data":"swift"},{"type":"hashtag","offset":22,"length":5,"data":"офис"},{"type":"hashtag","offset":28,"length":7,"data":"москва"},{"type":"bold","offset":67,"length":44,"data":""},{"type":"bold","offset":112,"length":13,"data":""},{"type":"bold","offset":127,"length":76,"data":""},{"type":"bold","offset":521,"length":12,"data":""},{"type":"bold","offset":878,"length":7,"data":""},{"type":"bold","offset":1254,"length":7,"data":""},{"type":"bold","offset":1662,"length":32,"data":""},{"type":"link","offset":1678,"length":16,"data":"mailto:vos@level.travel"},{"type":"bold","offset":1695,"length":17,"data":""},{"type":"handle","offset":1703,"length":9,"data":"Alyask_a"}],"date":"2020-06-22T10:35:56+00:00","link":"tg://resolve?domain=mobile_jobs&post=68441","tags":[{"name":"mobile"},{"name":"ios"},{"name":"swift"},{"name":"realm"}],"cities":[{"code":"moscow"}],"allowsRemote":false}},{"node":{"__typename":"Job","id":"71763492864-1001054966032","title":"Ios developer","text":"#вакансия #IOS #Swift #middle\n\nMiddle+ IOS developer \nКомпания WebAnt I Ростов-на-Дону (Кировский р-н)\n\nФормат работы: удаленно или в офисе, если ты из Ростова-на-Дону\nЗанятость: full-time \nЗП от 80 тыс. руб. до 100 тыс. руб. на руки \n\nЖдем тебя, если ты: \n\nУверенно знаешь Swift; realm, alamofire\nЕсть опыт написания клиент-серверных приложений от 2 лет\nОпыт работы с серверным API, JSON;\nРаботаешь с Git;\nПонимаешь ООП и шаблоны проектирования;\nЗнаешь базовые алгоритмы и структуры данных;\nРаботаешь с rest API;\nТестируешь собственный код;\nРаботаешь с ffmpeg либо другими библиотеками по обработке видео\nЗнаешь английский язык на уровне чтения технической документации\nЕсть свои приложения в продакшете\n\nКсения: @sladkiy_pirozhok","markup":[{"type":"hashtag","offset":0,"length":9,"data":"вакансия"},{"type":"hashtag","offset":10,"length":4,"data":"IOS"},{"type":"hashtag","offset":15,"length":6,"data":"Swift"},{"type":"hashtag","offset":22,"length":7,"data":"middle"},{"type":"handle","offset":714,"length":17,"data":"sladkiy_pirozhok"}],"date":"2020-06-22T10:11:27+00:00","link":"tg://resolve?domain=mobile_jobs&post=68439","tags":[{"name":"mobile"},{"name":"ios"},{"name":"swift"},{"name":"realm"},{"name":"json"},{"name":"git"},{"name":"rest"}],"cities":[{"code":"rostov"},{"code":"kirov"}],"allowsRemote":true}},{"node":{"__typename":"Job","id":"71750909952-1001054966032","title":"Ios разработчик","text":"‼️Вакансия Senior IOS C++ Developer‼️\n#вакансия #IOS #developer #удаленка\nВ команде Mycelium Wallet (mycelium.com) открыта вакансия Senior IOS C++ Developer.\n💵З/П 3000-4000 USD по итогам собеседования.\nРабота удаленная 💻\n\nМы предлагаем:\n🔸Получить навыки и компетенции в одном из самых передовых и перспективных направлений финтех индустрии - blockchain;\n🔸Принять участие в разработке одного из самых популярных биткоин-стартапов;\n🔸Работать в международной команде бок о бок с ведущими специалистами в индустрии;\n🔸Возможность профессионального карьерного роста и участия в разнообразных проектах компании.\nЧем предстоит заниматься:\n🔸Разрабатывать мультивалютный крипто-валютный кошелек с кросс-платформенным ядром;\n🔸Проектировать и разрабатывать большие функциональные части приложения с привлечением других разработчиков;\n🔸Использовать cutting edge технологии, а также проверенные временем решения;\n🔸Находить решения для нестандартных задач.\nТребования:\n✔️Как минимум 3 года опыта разработки под IOS и опыта программирования на C++;\nЗнание C++ на уровне ведущего разработчика;\n✔️Знание шаблонов проектирования, опыт использования MVP и других архитектурных подходов;\n✔️Знание шаблонов проектирования пользовательских интерфейсов для iOS 9+ (Human Interface Guidelines);\n✔️Знание iOS SDK (UIKit, Foundation, CoreLocation и др.), общее понимание архитектуры iOS;\n✔️Знание особенностей UiKit: storyboards, autolayout, size classes;\n✔️Знание CocoaPods, FastLane, Xcode utils, code analyzers;\n✔️Опыт параллельного и многопоточного программирования, знание примитивов синхронизации (std::thread, std::mutex и тд);\n✔️Понимание циклов работы IOS-приложения и управления памятью;\n✔️Понимание принципов работы REST API, RPC, WS и клиент-серверных приложений;\n✔️Опыт работы с системами контроля версий (Git) и постановки задач (JIRA, TFS, Redmine);\n✔️Знание английского языка на уровне чтения документации и умения общаться в корпоративном чате.\n\nПлюсом будет:\n🔸Знание Objective-С и Swift;\n🔸Умение и понимание необходимости написания Unit tests;\n🔸Знание основ криптографии;\n🔸Опыт работы с bitcoin/etherium blockchain stack;\n🔸Наличие своих проектов на Github, в App Store и т.д.\n\n📲 Контакт : @valeritata","markup":[{"type":"hashtag","offset":38,"length":9,"data":"вакансия"},{"type":"hashtag","offset":48,"length":4,"data":"IOS"},{"type":"hashtag","offset":53,"length":10,"data":"developer"},{"type":"hashtag","offset":64,"length":9,"data":"удаленка"},{"type":"link","offset":101,"length":12,"data":"http://mycelium.com"},{"type":"handle","offset":2196,"length":11,"data":"valeritata"}],"date":"2020-06-22T07:22:15+00:00","link":"tg://resolve?domain=mobile_jobs&post=0","tags":[{"name":"mobile"},{"name":"ios"},{"name":"uikit"},{"name":"cocoapods"},{"name":"xcode"},{"name":"rest"},{"name":"git"},{"name":"tfs"},{"name":"objective-c"},{"name":"swift"},{"name":"github"}],"cities":[],"allowsRemote":true}},{"node":{"__typename":"Job","id":"103373864960-1001089317451","title":"Qa инженер","text":"#вакансия #ручное_тестирование #функциональное_тестирование\n\n‼️Внимание! Вакансия закрыта. Специалист найден.\n\nВакансия: QA инженер\nПолный рабочий день / частичная занятость от 5 часов в день\nМожно удаленно\nЗарплата: 500р/час\n\nКомпания «МВС Медиа» — мы команда разработчиков технических решений в сфере доставки медиа контента, а также создания тематических сервисов и цифровых платформ.\n\n\nОбязанности:\n— составление чек-листов и тест-кейсов, баг-листов,\n— ручное функциональное тестирование веб платформы, веб версии мессенджера,\n— тестирование мобильных приложений (пока в стадии проектирования),\n— тестирование API,\n— тестирование верстки и дизайна,\n— поддержка и генерация тестовых данных,\n— описание ошибок в различных трекерах.\n— Написание технической документации по проекту, в свободное от тестов время\n— Обрабатывать обращения пользователей на 2й линии техподдержки (выяснить проблему, протестировать и завести тикет для разработчиков на устранение)\n\n\nЧто предлагаем:\n— Стабильные выплаты заработной платы 2 раза в месяц,\n— работа удаленно или в офисе (г. Москва, 10 минут от метро Павелецкая), \n— гибкий график,\n— профессиональный коллектив\n\nДополнительные инструкции:\n— Соискателю необходимо будет выполнить тестовое задание, которое оплатим в случае успешного прохождения.\n— опыт работы от 1 года,\n— знания в области теории и практики тестирования ПО,\n— понимание современных тенденций веб-дизайна, адаптивной верстки и подходов к тестированию веб и мобильных приложений,\n— умение работать с консолью браузера, отслеживать http запросы,\n— Желательно наличие iphone 8+ для тестирования веб версии сайта в ios safari\n— грамотная устная и письменная русская речь.\n— Соискатели с ИП или самозанятые рассматриваются в приоритете\n\nОтклики ждем в личные сообщения @recomp","markup":[{"type":"hashtag","offset":0,"length":9,"data":"вакансия"},{"type":"hashtag","offset":10,"length":20,"data":"ручное_тестирование"},{"type":"hashtag","offset":31,"length":28,"data":"функциональное_тестирование"},{"type":"bold","offset":61,"length":50,"data":""},{"type":"handle","offset":1769,"length":7,"data":"recomp"}],"date":"2020-06-21T19:01:49+00:00","link":"tg://resolve?domain=qa_jobs&post=98585","tags":[{"name":"qa"},{"name":"ios"},{"name":"safari"}],"cities":[{"code":"moscow"}],"allowsRemote":true}}]}}},"context":{}}