{"hash":"f5f6bf98bd95e769321482904cbbd488f77922fd","data":{"records":{"id":"css","name":"css","belongsTo":{"totalCount":116,"pageInfo":{"totalPages":12,"currentPage":3},"edges":[{"node":{"__typename":"Job","id":"17246978048-1001110946746","title":"Js developer","text":"#Харьков #офис #FullTime #вакансия #Middle #FullStack #Node #Vue \n\nКомпания: Business Process Technologies\nГород: Харьков, Гимназическая Набережная 24\nФормат работы: офис\nЗанятость: полная \nЗарплатная вилка: 2000 - 3500$ (50% налога берем на себя) \n\nОписание вакансии \nВсем привет\nВ продуктовую компанию на наши проекты ищем Middle Full Stack Node\\Vue.JS Developer \nТребования\n— Опыт работы с Vue от 2х лет\n— Опыт работы с SSR (nuxt, gridsome etc.)\n— Опыт работы с node (express || adonis || sails) от 1 года\n— Опыт работы как FullStack от 1,5 лет\n— Понимание принципов ООП, S.O.L.I.D., паттернов разработки и архитектуры приложений\n— Опыт работы с HTML/CSS\n— Опыт работы с GIT\n— Опыт работы с MySQL, MongoDB\n— Английский на уровне чтения тех документации\n\nБудет плюсом\n\n— Опыт работы с tailwindcss, bootstrap или vuetify\n— Опыт работы с firebase\n— Опыт работы с Docker\n\nУДАЛЕННОЕ СОТРУДНИЧЕСТВО НЕ РАССМАТРИВАЕМ\n\nКонтакты:\n@nataliashlyahova \nSkype live:shlyahovanatalia","markup":[{"type":"hashtag","offset":0,"length":8,"data":"Харьков"},{"type":"hashtag","offset":9,"length":5,"data":"офис"},{"type":"hashtag","offset":15,"length":9,"data":"FullTime"},{"type":"hashtag","offset":25,"length":9,"data":"вакансия"},{"type":"hashtag","offset":35,"length":7,"data":"Middle"},{"type":"hashtag","offset":43,"length":10,"data":"FullStack"},{"type":"hashtag","offset":54,"length":5,"data":"Node"},{"type":"hashtag","offset":60,"length":4,"data":"Vue"},{"type":"handle","offset":924,"length":17,"data":"nataliashlyahova"}],"date":"2020-06-30T11:51:49+00:00","link":"tg://resolve?domain=javascript_jobs_feed&post=16448","tags":[{"name":"javascript"},{"name":"nodejs"},{"name":"vuejs"},{"name":"express"},{"name":"html"},{"name":"css"},{"name":"git"},{"name":"mysql"},{"name":"mongodb"},{"name":"bootstrap"},{"name":"firebase"},{"name":"docker"}],"cities":[],"allowsRemote":false}},{"node":{"__typename":"Job","id":"17244880896-1001110946746","title":"Js разработчик","text":"#вакансия #удаленка #junior #reactjs #remote\n\nГород и адрес офиса: Москва, удаленка\n\nФормат работы: удаленка\n\nЗанятость: полная\n\nЗарплатная вилка:  от 15000р до 25000р\n\n\nОписание вакансии: \nМы ищем стажера или джуна на стажировку React-разработчика :)\n\n\nНеобходимые знания:\nБазовые знания html / css / js\nЖелание развиваться в front-end разработке, особеннов в React\nРазвитое логическое мышление\nСтремление развиваться и создавать не только функциональные, но и удобные продукты\nПреимуществом будет опыт разработки в роли front-end разработчика\n\n\nОбязанности:\nСоздание веб-сервиса в роли front-end разработчика (стажера) на React\nучастие в полном цикле работы команды: от планирования до релиза\nвозможность участвовать\n\nПредлагем: \nИнтересные и сложные задачи для улучшения скиллов React-разработчика\nнаставника, который будет помогать и подсказывать \nудаленную работу с комфортным графиком\nвознаграждение по итогам стажировки\n\nНазвание компании: Outlines tech\n\nКонтакты: телеграм @MrNapcae","markup":[{"type":"hashtag","offset":0,"length":9,"data":"вакансия"},{"type":"hashtag","offset":10,"length":9,"data":"удаленка"},{"type":"hashtag","offset":20,"length":7,"data":"junior"},{"type":"hashtag","offset":28,"length":8,"data":"reactjs"},{"type":"hashtag","offset":37,"length":7,"data":"remote"},{"type":"handle","offset":981,"length":9,"data":"MrNapcae"}],"date":"2020-06-30T11:47:46+00:00","link":"tg://resolve?domain=javascript_jobs_feed&post=16446","tags":[{"name":"javascript"},{"name":"reactjs"},{"name":"html"},{"name":"css"}],"cities":[{"code":"moscow"}],"allowsRemote":true}},{"node":{"__typename":"Job","id":"17242783744-1001110946746","title":"Js разработчик","text":"#вакансия #владимир #удаленно #middle #angular #fulltime \n\nИщем frontend разработчика для работы над основным сайтом и новыми разделами.\nГород и адрес офиса: Владимир\nФормат работы: Удаленно/Офис\nЗанятость: полная\nЗарплатная вилка: 75 000 — 100 000 на руки по результатам технического собеседования\n\nСайт компании: srvhub.ru\n\nВ технической команде 70 человек.\n\nОбязанности:\n▫ Самостоятельно разрабатывать ПО;\n▫ Тестировать продукт;\n▫ Запускать ПО в работу;\n▫ Корректировать ПО на основе анализа выходных данных;\n▫ Разрабатывать инструкции по работе с ПО, оформлять необходимую техническую документацию.\nТребования:\n▪ Опыт разработки от 1-2 лет;\n▪ Уверенное знание JavaScript;\n▪ работа с DOM;\n▪ понимание EventLoop (задачи, микрозадачи , animation frames);\n▪ браузерное API;\n▪ Опыт работы с Figma/Zeplin;\n▪ Работа с сетью (кэширование, безопасность)\n▪ Уверенное знание HTML, CSS3:\n Владение адаптивной вёрсткой\n БЭМ (для CSS)\n Умение оптимально выбрать способ отображения графики, растр, вектор (SVG)\n Оптимизация трафика\n RxJS\nPromise (async, await)\nGit, Git-flow\n\nЖелательно:\n◾ Хорошее знание или желание изучить Angular последней версии;\n◾ Владение адаптивной вёрсткой\n◾ БЭМ (для CSS)\n◾ Умение оптимально выбрать способ отображения графики, растр, вектор (SVG)\n◾ Оптимизация трафика\n◾ RxJS, Promise (async, await), Git, Git-flow.\n\nУсловия:\n\n▫ Комфортный офис в центре г.Владимира;\n▫ Оформление по ТК РФ с первого рабочего дня;\n▫ Возможность работать удалённо;\n▫ Полностью белая заработная плата;\n▫ Неформальная атмосфера и дружный, амбициозный коллектив;\n▫ Корпоративная скидка на изучение английского языка.\n\nКонтакт: https://t.me/olya_fru","markup":[{"type":"hashtag","offset":0,"length":9,"data":"вакансия"},{"type":"hashtag","offset":10,"length":9,"data":"владимир"},{"type":"hashtag","offset":20,"length":9,"data":"удаленно"},{"type":"hashtag","offset":30,"length":7,"data":"middle"},{"type":"hashtag","offset":38,"length":8,"data":"angular"},{"type":"hashtag","offset":47,"length":9,"data":"fulltime"},{"type":"link","offset":315,"length":9,"data":"http://srvhub.ru"},{"type":"link","offset":1621,"length":21,"data":"https://t.me/olya_fru"}],"date":"2020-06-30T08:31:24+00:00","link":"tg://resolve?domain=javascript_jobs_feed&post=16444","tags":[{"name":"javascript"},{"name":"angularjs"},{"name":"html"},{"name":"css"},{"name":"svg"},{"name":"rxjs"},{"name":"git"}],"cities":[{"code":"vladimir"}],"allowsRemote":true}},{"node":{"__typename":"Job","id":"17241735168-1001110946746","title":"Js разработчик","text":"#вакансия #frontend #Москва #fulltime #middle #senior #react #работа\nГород и адрес офиса: Москва, между метро Нагатинская и Тульская, мцк Верхние котлы \nФормат работы: офис\nЗанятость:полная\nОплата: 180-250 тыс. рублей\nОписание вакансии:\n💥Команда СберТеха  ищет сильного Frontend-разработчика!🙌\n💥Проект «Управление сбойными ситуациями, возникающими при работе банковских процессов». Система находится в промышленной эксплуатации, имеет пользовательский интерфейс для ручного разбора инцидентов ( реализован на React JS).Продукт активно развивается, поэтому мы хотим усилить нашу команду. От нас вы получите опыт и развитие компетенций, амбициозные задачи, карьерный рост и открытость к инновациям!\n💥Стек: React JS, react-redux, webPack, CSS, HTML, Java, Spring, Git, Maven.\n💥 Процесс разработки : Scrum, Jira, Gitflow, DevOps до Production (переход на OpenShift)\n💥-Оформление ТК РФ;\n     -ДМС;\n     - Белая заработная плата (оклад + годовая премия);\n     -Возможность обучения за счет компании;\n     -   Льготное кредитование;\n      -Бесплатный тренажерный зал на территории офиса;\n       - корпоративная жизнь и спортивные мероприятия;\n       -возможность карьерного роста.\nКомпания: СберТех\nКонтакты: @TaliaHR","markup":[{"type":"hashtag","offset":0,"length":9,"data":"вакансия"},{"type":"hashtag","offset":10,"length":9,"data":"frontend"},{"type":"hashtag","offset":20,"length":7,"data":"Москва"},{"type":"hashtag","offset":28,"length":9,"data":"fulltime"},{"type":"hashtag","offset":38,"length":7,"data":"middle"},{"type":"hashtag","offset":46,"length":7,"data":"senior"},{"type":"hashtag","offset":54,"length":6,"data":"react"},{"type":"hashtag","offset":61,"length":7,"data":"работа"},{"type":"handle","offset":1208,"length":8,"data":"TaliaHR"}],"date":"2020-06-30T08:30:19+00:00","link":"tg://resolve?domain=javascript_jobs_feed&post=16443","tags":[{"name":"javascript"},{"name":"reactjs"},{"name":"redux"},{"name":"webpack"},{"name":"css"},{"name":"html"},{"name":"java"},{"name":"spring"},{"name":"git"},{"name":"maven"},{"name":"react-redux"}],"cities":[{"code":"moscow"}],"allowsRemote":false}},{"node":{"__typename":"Job","id":"17240686592-1001110946746","title":"Js разработчик","text":"#вакансия #удаленка #работа #js #javascript #разработчик\n\nГород и адрес офиса: Тель-Авив \nФормат работы: удаленка\nЗанятость: полная, гибкий график.\n\nЗарплатная вилка: 5500-6000$/мес. (Почасовая оплата 35$/час + ежемесячный бонус 250$)\n\nНалоги платите по месту жительства. ИП 6%. Если патент, то он зависит от места жительства. В Подмосковье 12 000 руб в год. В Москве 300 тыс. в год. Как сами оформите налоги, так и платите. \n\nИщу разработчика к нам в команду: израильский проект Luminati (https://luminati.io).  Full-Stack. Компания разрабатывает несколько продуктов, в том числе p2p vpn, видео cdn нового поколения http://holaspark.com/\nОфис в Тель-Авиве, работа удаленная! График свободный. Что нам нужно:\n\n • Knowledge in Node JS framework: ExpressJS, Promise - Experience with MongoDB \n- Creating RESTful web services/API’s using Node.js with or without framework assistance \n\n- JavaScript-based unit testing tools \n\n- Client-side browser technologies including JavaScript, CSS, and HTML \n\n- 1 year development experience in Node JS with a solid working knowledge of frameworks and architecture \n\n- 2+ year’s overall development experience using JavaScript and open web technologies \n\n- хороший английский язык, идеальная грамматика не обязательна \n\n • работа удаленная, 7-9 часов в день (по желанию)\n • зарплата от 35$/час (+фиксированный бонус 250$ ежемесячно), через полгода повышается\n • после того, как откроют границы и будут возможны перелёты - выезд в офис на заключение контракта (перед этим возможно заключение с электронной подписью), отель и перелет за счет компании, море под окном\n\nОтвечу на все вопросы:)\n\nИнстаграмм https://instagram.com/hola_better_internet\n\nРезюме сюда:  luda.hola@gmail.com","markup":[{"type":"hashtag","offset":0,"length":9,"data":"вакансия"},{"type":"hashtag","offset":10,"length":9,"data":"удаленка"},{"type":"hashtag","offset":20,"length":7,"data":"работа"},{"type":"hashtag","offset":28,"length":3,"data":"js"},{"type":"hashtag","offset":32,"length":11,"data":"javascript"},{"type":"hashtag","offset":44,"length":12,"data":"разработчик"},{"type":"link","offset":490,"length":19,"data":"https://luminati.io"},{"type":"link","offset":617,"length":21,"data":"http://holaspark.com/"},{"type":"link","offset":1637,"length":42,"data":"https://instagram.com/hola_better_internet"},{"type":"link","offset":1695,"length":19,"data":"mailto:luda.hola@gmail.com"}],"date":"2020-06-30T08:30:05+00:00","link":"tg://resolve?domain=javascript_jobs_feed&post=16442","tags":[{"name":"javascript"},{"name":"nodejs"},{"name":"mongodb"},{"name":"web"},{"name":"css"},{"name":"html"},{"name":"unit-testing"}],"cities":[],"allowsRemote":true}},{"node":{"__typename":"Job","id":"26847739904-1001075660570","title":"Php разработчик","text":"#работа #вакансия #удаленка #job #РНР #Yii #Laravel #Symfony \n\nСейчас нахожусь в поисках РНР разработчика уровня senior в одну из крупнейших ecommerce компаний России - Bork/Technopark. \nНа текущий  момент внутри идет несколько проектов по поддержке и развитию интернет-площадки по продаже бытовой техники и электроники премиум-класса.\n\nПродукты реализуются на стеке: PHP (Yii2), MySql, JS (Vue), HTML, CSS, Gulp, Webpack, SVG, Canvas. \nЗадачи: разработка серверной части веб-проектов на всех этапах (от участия в проектировании архитектуры, до разработки сервисов), участие в митапах для обсуждения предстоящих задач, вносить вклад в планирование архитектуры и т.д.\n\nОсновные требования:\n\n- Опыт коммерческой разработки от 3 лет на PHP (7.1 или выше);\n\n- Хорошие знания современных фреймворков  (YII, Symfony);\n\n- Знание ООП, базовых алгоритмов, шаблонов проектирования, стандартов написания кода.\n\nУсловия: \n\n- ЗП до 220 000 net;\n\n- Полная УДАЛЁНКА; \n\n- Оформление через ИП или как самозанятый; \n\nКто заинтересовался - пишите в ЛС (@nastyaklassnaya),  буду рада пообщаться :)","markup":[{"type":"hashtag","offset":0,"length":7,"data":"работа"},{"type":"hashtag","offset":8,"length":9,"data":"вакансия"},{"type":"hashtag","offset":18,"length":9,"data":"удаленка"},{"type":"hashtag","offset":28,"length":4,"data":"job"},{"type":"hashtag","offset":33,"length":4,"data":"РНР"},{"type":"hashtag","offset":38,"length":4,"data":"Yii"},{"type":"hashtag","offset":43,"length":8,"data":"Laravel"},{"type":"hashtag","offset":52,"length":8,"data":"Symfony"},{"type":"handle","offset":1034,"length":16,"data":"nastyaklassnaya"}],"date":"2020-06-30T07:37:17+00:00","link":"tg://resolve?domain=php_jobs&post=25604","tags":[{"name":"php"},{"name":"yii"},{"name":"laravel"},{"name":"symfony"},{"name":"mysql"},{"name":"vuejs"},{"name":"html"},{"name":"css"},{"name":"gulp"},{"name":"webpack"},{"name":"svg"},{"name":"canvas"},{"name":"dotnet"}],"cities":[],"allowsRemote":true}},{"node":{"__typename":"Job","id":"17236492288-1001110946746","title":"Js разработчик","text":"#вакансия #remote #Javascript #React #Node.js\n\nЛокация: из любой точки мира\nФормат работы: удаленно\nЗанятость: от 8 часов/неделю\nЗаработная плата: от 20-000 до 100.000 рублей (нетто), заработная плата складывается из количества проверенных проектов\n\nОписание вакансии: Яндекс.Практикум — сервис онлайн-образования, ежемесячно запускает обучение по направлению веб-разработки. Нам требуется Code reviewer (HTML, CSS, JavaScript) со знанием английского языка. Код-ревьер проверяет написанный студентом международного потока код и даёт обратную связь на английском языке. Код-ревьюер решает: зачесть задание или нет. Также он даёт советы по улучшению кода, отмечает неточности, указывает на ошибки. Вся коммуникация проходит на английском языке.м. Примерная занятость - от 8 часов в неделю (но можно и больше :) Рабочий язык - английский.\nТребования:\n✔Опыт работы веб-разработчиком от одного года;\n✔ Знание HTML, CSS, JavaScript и Node.js;\n✔ Умение грамотно писать на английском языке;\n✔ Готовность посвящать проекту минимум восемь часов в неделю.\n\nНазвание компании: Яндекс.Практикум https://practicum.yandex.com/\n\nКонтакты: чтобы откликнуться, отправьте резюме с пометкой на какую позицию вы претендуете на адрес ilinovamarian@yandex-team.ru","markup":[{"type":"hashtag","offset":0,"length":9,"data":"вакансия"},{"type":"hashtag","offset":10,"length":7,"data":"remote"},{"type":"hashtag","offset":18,"length":11,"data":"Javascript"},{"type":"hashtag","offset":30,"length":6,"data":"React"},{"type":"hashtag","offset":37,"length":5,"data":"Node"},{"type":"link","offset":1082,"length":29,"data":"https://practicum.yandex.com/"},{"type":"link","offset":1212,"length":28,"data":"mailto:ilinovamarian@yandex-team.ru"}],"date":"2020-06-30T02:35:14+00:00","link":"tg://resolve?domain=javascript_jobs_feed&post=16438","tags":[{"name":"javascript"},{"name":"reactjs"},{"name":"nodejs"},{"name":"html"},{"name":"css"}],"cities":[],"allowsRemote":true}},{"node":{"__typename":"Job","id":"17235443712-1001110946746","title":"Javascript разработчик","text":"#вакансия #frontend #react #typescript #graphQL #junior #middle #senior #lead #москва #офис #fulltime\n\nКомпания: СберТех\nЛокация: г. Москва, м. Савеловская\nФормат работы: офис (до конца июля удаленка), полная занятость\nЗ/п: 100 000 - 230 000 руб. net (+ у нас высокая годовая премия) \n\nВсем привет 🙌\nТут один проект скучает без Frontend-разработчика \n\n💻 Делаем образовательную цифровую платформу - SaaS решение для персонализированного обучения в школах, университетах, IT Bootcamp  Сбербанка. \nПредстоит повышать перфоманс приложения (плановая нагрузка на сентябрь 2020 - 500 000 активных пользователей в день)\n\n🔔 Must have:\nReact, Typescript, HTML5+CSS3, Webpack/аналог, система контроля версий Git, для уровня lead управление командой из 3-6 человек\n\nБудет здорово, если есть\nопыт/желание изучить: GraphQL (Apollo client), уверенное знание ЕS6, Styled-components, Jest/React-testing-library, Code review, адаптивность под мобильные платформы\n\nПредлагаем:\n✔профессиональное развитие: конференции, митапы, обучение в Корпоративном университете Сбербанка\n✔ДМС и страховку от несчастных случаев, льготные условия ипотеки, скидки от компаний-партнеров, бесплатный корпоративный тренажерный зал\n✔офис А класса в БЦ «Северное Сияние» (5 мин. от м. Савеловская), возможность гибкого начала рабочего дня \n\nЕсли интересно - буду рада обсудить, вот мои контакты:\n📲 @karprokar\n📩 KVProlomova@sberbank.ru","markup":[{"type":"hashtag","offset":0,"length":9,"data":"вакансия"},{"type":"hashtag","offset":10,"length":9,"data":"frontend"},{"type":"hashtag","offset":20,"length":6,"data":"react"},{"type":"hashtag","offset":27,"length":11,"data":"typescript"},{"type":"hashtag","offset":39,"length":8,"data":"graphQL"},{"type":"hashtag","offset":48,"length":7,"data":"junior"},{"type":"hashtag","offset":56,"length":7,"data":"middle"},{"type":"hashtag","offset":64,"length":7,"data":"senior"},{"type":"hashtag","offset":72,"length":5,"data":"lead"},{"type":"hashtag","offset":78,"length":7,"data":"москва"},{"type":"hashtag","offset":86,"length":5,"data":"офис"},{"type":"hashtag","offset":92,"length":9,"data":"fulltime"},{"type":"link","offset":568,"length":14,"data":"tel:2020 - 500 000"},{"type":"handle","offset":1361,"length":10,"data":"karprokar"},{"type":"link","offset":1375,"length":23,"data":"mailto:KVProlomova@sberbank.ru"}],"date":"2020-06-29T20:21:25+00:00","link":"tg://resolve?domain=javascript_jobs_feed&post=16437","tags":[{"name":"javascript"},{"name":"reactjs"},{"name":"typescript"},{"name":"graphql"},{"name":"dotnet"},{"name":"html"},{"name":"css"},{"name":"webpack"},{"name":"git"}],"cities":[{"code":"moscow"}],"allowsRemote":true}},{"node":{"__typename":"Job","id":"17229152256-1001110946746","title":"Javascript разработчик","text":"#вакансия #middledev #frontend #javascript #react #fulltime \n\nЛокация: Казахстан, город Алматы\nФормат работы: офис или удаленка\nЗанятость: полная\nЗарплатная вилка: 70к – 100к рублей (350К - 600К тенге)\n\nОписание вакансии:\n\nMiddle React Frontend Developer\n\nОбязанности:\n • Проектирование и разработка удобных и практичных интерфейсов веб-приложений;\n • Кроссбраузерная и адаптивная верстка компонентов системы;\n • Интеграция с серверной частью через API;\n • Поддержка и развитие существующих проектов;\n • Тестирование и оптимизация написанного кода;\n • Участие в проектировании архитектуры систем;\n • Планирование работы и оценка задач;\n • Взаимодействие с backend-разработчиками, менеджером проекта и архитектором  системы;\n\nТребования:\n • Уверенное владение и реальный опыт работы с React;\n • Знание библиотек Redux/Next, TypeScript;\n • Уверенное знание Javascript (ES6+);\n • Владение HTML5 и CSS3 (адаптивная, кроссбраузерная, семантическая верстка);\n • Умение работать с системой контроля версий (Git);\n • Знание современных парадигм программирования, умение писать чистый и быстрый код;\n • Знание архитектуры веб приложения и принципов клиент-серверного взаимодействия;\n • Знание английского языка на уровне чтения технической документации и зарубежных ресурсов;\n • Знание препроцессоров (SASS, SCSS, Stylus, Pug);\n • Хорошие навыки работы со сборщиками (Webpack, Gulp);\n • Postman / Swagger UI;\n\nНазвание компании: KIT SYSTEMS (разработка CRM / ERP / BMP систем управления)\n\nКонтакты: Писать @askhhh или звонить по номеру +77010999936","markup":[{"type":"hashtag","offset":0,"length":9,"data":"вакансия"},{"type":"hashtag","offset":10,"length":10,"data":"middledev"},{"type":"hashtag","offset":21,"length":9,"data":"frontend"},{"type":"hashtag","offset":31,"length":11,"data":"javascript"},{"type":"hashtag","offset":43,"length":6,"data":"react"},{"type":"hashtag","offset":50,"length":9,"data":"fulltime"},{"type":"handle","offset":1497,"length":7,"data":"askhhh"},{"type":"link","offset":1527,"length":12,"data":"tel:+77010999936"}],"date":"2020-06-29T16:13:31+00:00","link":"tg://resolve?domain=javascript_jobs_feed&post=16431","tags":[{"name":"javascript"},{"name":"reactjs"},{"name":"redux"},{"name":"typescript"},{"name":"html"},{"name":"css"},{"name":"git"},{"name":"sass"},{"name":"webpack"},{"name":"gulp"},{"name":"swagger"}],"cities":[{"code":"almaty"}],"allowsRemote":true}},{"node":{"__typename":"Job","id":"17227055104-1001110946746","title":"Js разработчик","text":"#вакансия #seniordev #frontend #javascript #react #vue #angular #fulltime #office \n\nSenior/Middle Frontend Developer\nЛокация: Москва, м. Таганская\nФормат работы: офис\nЗанятость: полная\nЗарплатная вилка: 175к – 235к\nКомпания: WhoIsBlogger(WIB), www.whoisblogger.com \n\nМы разрабатываем аналитический продукт, который позволяет нашим клиентам принимать обоснованные решения при планировании рекламных кампаний с помощью блогеров.\n\nМы ищем человека для создания фронтенда веб-приложения, в котором наши клиенты смогут быстро получать доступ к нужным данным о блогерах, а также вести историю своих рекламных кампаний и проектов.\n\nЧто нужно делать?\n• разработка пользовательской платформы;\n• согласование требований с бизнес-заказчиками, дизайнерами и бэкенд командой;\n• разработка архитектурных решений, поиск и внедрение необходимых технологий, поиск узких мест в работе систем, оптимизация и рефакторинг;\n• внедрение методик и инструментов для повышения качества кода и продукта.\n\nЧто нужно уметь?\n• опыт работы не менее 3-х лет в роли фронтенд-разработчика;\n• уверенное владение HTML, CSS, JavaScript, TypeScript;\n• опыт самостоятельной разработки фронтенда с использованием современного стека: React/Angular/Vue.js, Redux/MobX, Webpack;\n• готовность и желание встать у истоков фронтенд-разработки в компании, оставаясь на первых порах единственным фронтенд-разработчиком;\n• высокая степень самостоятельности, ответственности и работоспособности, желание развиваться и достигать результатов в кратчайшие сроки.\n\nБудет плюсом:\n• опыт реализации многомодульных и высоконагруженных проектов;\n• опыт разработки SPA;\n• опыт использования D3.js;\n• умение работать с БД PostgreSQL, MongoDB;\n• опыт работы с облачными провайдерами, предпочтительно AWS;\n• умение собирать и анализировать пользовательское поведение в Google Analytics, Яндекс.Метрике и подобных системах.\n\nКонтакты: akurdin@whoisblogger.com, @ifeelKud, +7(903)505-38-32","markup":[{"type":"hashtag","offset":0,"length":9,"data":"вакансия"},{"type":"hashtag","offset":10,"length":10,"data":"seniordev"},{"type":"hashtag","offset":21,"length":9,"data":"frontend"},{"type":"hashtag","offset":31,"length":11,"data":"javascript"},{"type":"hashtag","offset":43,"length":6,"data":"react"},{"type":"hashtag","offset":50,"length":4,"data":"vue"},{"type":"hashtag","offset":55,"length":8,"data":"angular"},{"type":"hashtag","offset":64,"length":9,"data":"fulltime"},{"type":"hashtag","offset":74,"length":7,"data":"office"},{"type":"link","offset":244,"length":20,"data":"http://www.whoisblogger.com"},{"type":"link","offset":1871,"length":24,"data":"mailto:akurdin@whoisblogger.com"},{"type":"handle","offset":1897,"length":9,"data":"ifeelKud"},{"type":"link","offset":1908,"length":16,"data":"tel:+7(903)505-38-32"}],"date":"2020-06-29T15:34:36+00:00","link":"tg://resolve?domain=javascript_jobs_feed&post=16429","tags":[{"name":"javascript"},{"name":"reactjs"},{"name":"vuejs"},{"name":"angularjs"},{"name":"html"},{"name":"css"},{"name":"typescript"},{"name":"redux"},{"name":"webpack"},{"name":"postgresql"},{"name":"mongodb"},{"name":"amazon-web-services"},{"name":"google-analytics"}],"cities":[{"code":"moscow"}],"allowsRemote":false}}]}}},"context":{}}