{"hash":"f5f6bf98bd95e769321482904cbbd488f77922fd","data":{"records":{"id":"sql","name":"sql","belongsTo":{"totalCount":169,"pageInfo":{"totalPages":17,"currentPage":14},"edges":[{"node":{"__typename":"Job","id":"102977503232-1001089317451","title":"Qa engineer","text":"#вакансия #работа #удалёнка #fulltime #qa\nДолжность : QA Engineer\nКомпания : 6nomads.com\nФормат работы: #fulltime #remote\nЗарплата: $ 40 000 в год\n\nМолодой стартап из Сан-Франциско, призванный упростить онлайн-коммуникации для бизнеса, недавно привлек $ 4 млн инвестиций и теперь ищет удаленного QA на фул-тайм. \n\nТребования: \n•  Опыт разработки тест кейсов от 2 лет;\n•  Опыт тестирования WEB, API и мобильных iOS/Android приложений;\n•  Умение анализировать логи серверов приложений и локализовать причину сбоя;\n• Опыт интеграционного тестирования систем;\n• Знание PL/SQL;\n• Уровень английского не ниже В2.\n\nБудет плюсом:\n• Опыт работы с Rest Assured, Selenium;\n• Опыт работы с WAS, WildFly и Nginx;\n• Умение работать в Redmine или Jira.\n\nКонтакт для связи: @nastya_stret","markup":[{"type":"hashtag","offset":0,"length":9,"data":"вакансия"},{"type":"hashtag","offset":10,"length":7,"data":"работа"},{"type":"hashtag","offset":18,"length":9,"data":"удалёнка"},{"type":"hashtag","offset":28,"length":9,"data":"fulltime"},{"type":"hashtag","offset":38,"length":3,"data":"qa"},{"type":"link","offset":77,"length":11,"data":"http://6nomads.com"},{"type":"hashtag","offset":104,"length":9,"data":"fulltime"},{"type":"hashtag","offset":114,"length":7,"data":"remote"},{"type":"handle","offset":758,"length":13,"data":"nastya_stret"}],"date":"2020-06-16T18:31:08+00:00","link":"tg://resolve?domain=qa_jobs&post=0","tags":[{"name":"qa"},{"name":"web"},{"name":"ios"},{"name":"android"},{"name":"sql"},{"name":"rest"},{"name":"selenium"},{"name":"nginx"}],"cities":[],"allowsRemote":true}},{"node":{"__typename":"Job","id":"102971211776-1001089317451","title":"Qa engineer","text":"#вакансия #QA #Java #Python #HighLoad #backend #СанктПетербург #Спб #fulltime #Bercut\n\nПривет! Мы команда компании Bercut.\nУже 25 лет разрабатываем высоконагруженное ПО для ведущих игроков на рынке операторов сотовой связи.\nНашими решениями, реально, пользуется каждый 5 человек в мире! \nОчень ждем в команду гениев тестирования #QA Engineer\nКто испытывает страсть к высоконагруженному backend – welcome!!!\nУмеешь тестить руками – отлично! Автоматизировать – огонь! Не умеешь, но хочешь - научим!)\n\nMust Have:\n- Базы данных: Oracle/Postgre\n- ОС Linux/Solaris\n- Sql/PL/Sql\n- SOAP\n- Python/Java\n\nНаходимся в Санкт-Петербурге, рядом с метро Пионерская.\nЖдем, как в офис, так и на удаленку.\nЗарплата: от 100 000 до 150 000net + годовой бонус до 2х окладов.\n\nЧто в проекте:\n•  тестирование многокомпонентной OLTP систему 24/7 (API);\n•  нагрузка;\n•  регрессия;\n•  настройка CD;\n•  тест-планы, тест-кейсы, чек-листы и тд.\n\nПиши мне в личку, отправляй письмо, звони – буду рада рассказать все  подробности!\n\nhttps://www.bercut.com/\nКонтакты @Mari_Kupaeva или почта maria.kupaeva@bercut.co","markup":[{"type":"hashtag","offset":0,"length":9,"data":"вакансия"},{"type":"hashtag","offset":10,"length":3,"data":"QA"},{"type":"hashtag","offset":14,"length":5,"data":"Java"},{"type":"hashtag","offset":20,"length":7,"data":"Python"},{"type":"hashtag","offset":28,"length":9,"data":"HighLoad"},{"type":"hashtag","offset":38,"length":8,"data":"backend"},{"type":"hashtag","offset":47,"length":15,"data":"СанктПетербург"},{"type":"hashtag","offset":63,"length":4,"data":"Спб"},{"type":"hashtag","offset":68,"length":9,"data":"fulltime"},{"type":"hashtag","offset":78,"length":7,"data":"Bercut"},{"type":"hashtag","offset":329,"length":3,"data":"QA"},{"type":"link","offset":1000,"length":23,"data":"https://www.bercut.com/"},{"type":"handle","offset":1033,"length":13,"data":"Mari_Kupaeva"},{"type":"link","offset":1057,"length":23,"data":"mailto:maria.kupaeva@bercut.co"}],"date":"2020-06-16T17:01:11+00:00","link":"tg://resolve?domain=qa_jobs&post=0","tags":[{"name":"qa"},{"name":"java"},{"name":"python"},{"name":"oracle"},{"name":"linux"},{"name":"sql"},{"name":"soap"},{"name":"dotnet"}],"cities":[],"allowsRemote":false}},{"node":{"__typename":"Job","id":"102969114624-1001089317451","title":"Qa engineer","text":"#Москва #вакансия #QA #ручное тестирование #тестировщик #manual  #python\n\nДолжность: QA Engineer \nКомпания: Get IT, Москва\nЗП: до 120 000 \nФормат работы: офис, гибкое начало дня\nЗанятость: полная\n\n☘️Задачи:\n- Тестирование ERP-системы;\n- Создание тест-кейсов, чек-листов и т.д. \n\n☘️Ожидания:\n- Понимание жизненного цикла разработки продукта\n- Знание теории и видов тестирования,  умение вести тестовую документацию;\n- Умение локализовать баги и оформлять баг репорты\n- Понимание и умение применять техники тест-дизайна\n- Тестирование API\n- Опыт использование Postman\n- Понимание мобильного тестирования \n- Знание и умение пользования командной строкой UNIX\n- Знание SQL (простые запросы), Git\n- Умение использовать снифферы (Charles,Fiddler и т.д.)\n- Опыт работы 1-3 года\nЖелательно:\n- Умение работать с Docker\n- Python\n\n☘️Предлагаем:\n- белая зп (до 120 000, зависит от опыта);\n- офис в центре Москвы;\n- ДМС,  курсы английского, участие в конференциях. \n\nКонтакт: @Olga11019","markup":[{"type":"hashtag","offset":0,"length":7,"data":"Москва"},{"type":"hashtag","offset":8,"length":9,"data":"вакансия"},{"type":"hashtag","offset":18,"length":3,"data":"QA"},{"type":"hashtag","offset":22,"length":7,"data":"ручное"},{"type":"hashtag","offset":43,"length":12,"data":"тестировщик"},{"type":"hashtag","offset":56,"length":7,"data":"manual"},{"type":"hashtag","offset":65,"length":7,"data":"python"},{"type":"handle","offset":963,"length":10,"data":"Olga11019"}],"date":"2020-06-16T16:53:06+00:00","link":"tg://resolve?domain=qa_jobs&post=0","tags":[{"name":"qa"},{"name":"python"},{"name":"unix"},{"name":"sql"},{"name":"git"},{"name":"docker"}],"cities":[{"code":"moscow"}],"allowsRemote":false}},{"node":{"__typename":"Job","id":"91031076864-1001067529236","title":"Python разработчик","text":"#job #вакансия #python #Django #vacancy #IT  #remote\n\nДрузья, всем привет! \nНовая вакансия -  #Senior_PythonDeveloper\nЛокация - Россия,\nПолный рабочий день, #remote \n#Оплата: 3000$\n\nТребования:\n\n-Опыт работы в индустрии разработки ПО от 5-ти лет;\n-Уверенное знание Python 3+/Python Core (языковые структуры, стандартные библиотеки, регулярные выражения и т.д.);\n-Практический опыт работы с Django (Django ORM, Django Rest Framework);\n-Иметь представление о GraphQL APIs (Graphene будет плюсом);\n-Знание SQL (знание реляционной СУБД PostgreSQL будет плюсом) на уровне работы как прикладного разработчика;\n-Опыт написания API и работы/интеграции с API сторонних сервисов;\n-Опыт работы с рядом AWS-сервисов: Lambda, API Gateway, SNS, SQS, SES, S3, RDS, VPC, EC2, CloudWatch, etc;\n-The English language MUST HAVE (B2+ level) to work with the english speaking team.\n\n\nЗа дополнительной информацией, пишите в ЛС\nили Telegram: @Zalvovskaya","markup":[{"type":"hashtag","offset":0,"length":4,"data":"job"},{"type":"hashtag","offset":5,"length":9,"data":"вакансия"},{"type":"hashtag","offset":15,"length":7,"data":"python"},{"type":"hashtag","offset":23,"length":7,"data":"Django"},{"type":"hashtag","offset":31,"length":8,"data":"vacancy"},{"type":"hashtag","offset":40,"length":3,"data":"IT"},{"type":"hashtag","offset":45,"length":7,"data":"remote"},{"type":"hashtag","offset":94,"length":23,"data":"Senior_PythonDeveloper"},{"type":"hashtag","offset":157,"length":7,"data":"remote"},{"type":"hashtag","offset":166,"length":7,"data":"Оплата"},{"type":"handle","offset":920,"length":12,"data":"Zalvovskaya"}],"date":"2020-06-16T16:10:10+00:00","link":"tg://resolve?domain=python_jobs&post=0","tags":[{"name":"python"},{"name":"django"},{"name":"orm"},{"name":"rest"},{"name":"graphql"},{"name":"sql"},{"name":"postgresql"},{"name":"amazon-web-services"},{"name":"aws-lambda"}],"cities":[],"allowsRemote":true}},{"node":{"__typename":"Job","id":"102963871744-1001089317451","title":"Qa engineer","text":"#Москва #вакансия #QA #fulltime #test #office\n\n💻Компания: СберТех.\n🧰Вакансия: QA Engineer.\n🏢Офис: Москва, м. Нагатинская/м. Тульская/ м. Верхние Котлы.\n💰ЗП: от 150 000 Net.\n\n📂Проект: Разработка платформы для управления бизнес-процессами Банка и Цифровой Платформы Sber.\n\n🗓Задачи:\n• Работа в роли тестировщика в scrum команде.\n• Написание, актуализация тестовых сценариев и их прохождение (API, UI).\n• Проведение функционального, регрессионного, интеграционного и других видов тестирования.\n• Регистрация, отслеживание и верификация дефектов.\n• Участие в развитии команды и процессов тестирования.\n\n📌Требования: \n• Опыт написания тестовых сценариев, чек-листов, составления сложных интеграционных сценариев.\n• Знание теории тестирования, понимание видов тестирования и необходимости их применения на различных этапах реализации проекта.\n• Опыт анализа и тестирования требований.\n• Опыт тестирования rest/soap сервисов.\n• Опыт работы с BPM системами, понимание нотации BPMN 2.0.\n\n📎Cтек: REST, XML, XSD, JSON, SQL, BPMN 2.0, Docker, Kubernetes, Openshift, Kafka.\n\n🔰Условия:\n• Оформление ТК РФ.\n• ДМС для сотрудников и скидки на медицинскую страховку для родственников;\n• Высокая белая заработная плата (оклад + годовая премия).\n• Возможность обучения за счет компании, посещения IT-конференций.\n• Бесплатный тренажерный зал на территории офиса.\n• Корпоративная жизнь и спортивные мероприятия.\n\n📩Готов ответить на интересующие вопросы - @Dmiryy","markup":[{"type":"hashtag","offset":0,"length":7,"data":"Москва"},{"type":"hashtag","offset":8,"length":9,"data":"вакансия"},{"type":"hashtag","offset":18,"length":3,"data":"QA"},{"type":"hashtag","offset":22,"length":9,"data":"fulltime"},{"type":"hashtag","offset":32,"length":5,"data":"test"},{"type":"hashtag","offset":38,"length":7,"data":"office"},{"type":"handle","offset":1443,"length":7,"data":"Dmiryy"}],"date":"2020-06-16T16:02:50+00:00","link":"tg://resolve?domain=qa_jobs&post=0","tags":[{"name":"qa"},{"name":"dotnet"},{"name":"rest"},{"name":"soap"},{"name":"xml"},{"name":"xsd"},{"name":"json"},{"name":"sql"},{"name":"docker"},{"name":"kubernetes"},{"name":"kafka"}],"cities":[{"code":"moscow"}],"allowsRemote":false}},{"node":{"__typename":"Job","id":"2217738240-1001134745498","title":"Devops engineer","text":"#вакансия #devops #fulltime #НижнийНовгород\n\nВакансия: DevOps Engineer\nКомпания: Natera\nЛокация: Нижний Новгород\nФормат работы: офис и удаленный формат\nЗанятость: полная\nЗарплатная вилка: от 2500 до 3200 $ до вычета.  \nКонтакт:@zKITO\n\nAt Natera we build fast, reliable and scalable software that is easy to test and deploy. Our Engineering team works on a set of applications such as a complex Laboratory Information Management System (LIMS) and Constellation – our cloud based data analytics SaaS platform hosted on Amazon Web Services. As a DevOps Engineer your responsibilities will include building scalable infrastructure on which we deliver our software as well as managing development tools that are used on a daily basis by the members of Engineering team.\n\n\n      BENEFITS\nSalary $ 2500-3200 gross.  \nStocks\nPossibility of remote work with flexible working hours\nFree lunch, snacks etc in office\nMacbook Pro + monitors\nComfortable and cozy office with table tennis, playstation etc\nPossibility of business trips to the USA California\nFull compliance with labour laws.\n\n\nKNOWLEDGE, SKILLS, AND ABILITIES\n\n  Mandatory\nExperience in Linux Ubuntu administration.\nPractical experience managing applications deployed using AWS/GCP or Docker.\nAbility to read and understand Java code.\nStrong ability to troubleshoot complex issues ranging from system resources to application stack traces.\n\n  Nice to have experience with\nKubernetes, Rancher\nPython/Java\nTerraform\nAtlassian applications stack\ndatabases and SQL\n  \n \nPRIMARY RESPONSIBILITIES\n\nDevelop, configure and manage tools for fast and reliable deployments of our software.\nParticipate in operations efforts and be the point person for infrastructural activities.\nBuild tools for monitoring our infrastructure and resolve any issues with instances running in production. \nDevelop automation and CI/CD processes to enable teams to build, test, deploy, manage, configure, scale and monitor their applications using the latest technologies such as Docker, Kubernetes, Terraform and others.\nParticipate in architectural decisions to help improve reliability and scalability of our software.\nHelp configure and manage development tools such as Atlassian Bitbucket, Bamboo, Artifactory and others.\n\n—\n\n👉 Обсуждение вакансии в чате @devops_jobs","markup":[{"type":"hashtag","offset":0,"length":9,"data":"вакансия"},{"type":"hashtag","offset":10,"length":7,"data":"devops"},{"type":"hashtag","offset":18,"length":9,"data":"fulltime"},{"type":"hashtag","offset":28,"length":15,"data":"НижнийНовгород"},{"type":"handle","offset":227,"length":6,"data":"zKITO"},{"type":"handle","offset":2283,"length":12,"data":"devops_jobs"}],"date":"2020-06-16T15:59:39+00:00","link":"tg://resolve?domain=devops_jobs_feed&post=2115","tags":[{"name":"cloud"},{"name":"web"},{"name":"linux"},{"name":"ubuntu"},{"name":"amazon-web-services"},{"name":"google-cloud-platform"},{"name":"docker"},{"name":"java"},{"name":"kubernetes"},{"name":"python"},{"name":"sql"}],"cities":[{"code":"nice"},{"code":"nizhny-novgorod"}],"allowsRemote":true}},{"node":{"__typename":"Job","id":"1700790272-1001091028994","title":"Java разработчик","text":"Вакансия: #java #senior\nКомпания: #сбертех\nЛокация: Москва, м. Тульская, Новоданиловская наб, д.10\nФормат работы: офис (сейчас удаленка)\nЗарплатная вилка: 170-270к\n\nЕдиный сервис аутентификации - это система, которая принимает решение о допуске клиентов через различные каналы обслуживания (веб, мобильное приложение, банкомат) к сервисам экосистемы Сбербанка. Система является высоконагруженной, так как одновременно может обслуживать более 10к операций в секунду.\n\nЗадачи:\n • разработка back-end web-приложения; \n • участие разработки архитектуры продукта;\n • участие в code review. \n\nОбязательно:\n· Опыт работы с Java от 2ух лет (хорошее знание core, Collections, jdbc, IO, Exceptions)\n· Опыт работы с системами сборки: maven или gradle\n· Опыт работы с БД, знание языка запросов SQL\n· Знакомство с ORM Hibernate\n\nБудет плюсом:\n· понимание многопоточности в Java;\n· знакомство со Spring Framework\n\nБонусы: \n • гибкое начало дня, отсутствие микроменеджмента и дресс-кода\n • отличная атмосфера в команде, способность слышать мнение каждого\n • современное железо (можно выбрать ноут MacOS или Windows) \n • возможность сменить проект\n • ДМС, спортзал, корпоративные мероприятия\n\nКонтакт: @hralexandra 📲","markup":[{"type":"hashtag","offset":10,"length":5,"data":"java"},{"type":"hashtag","offset":16,"length":7,"data":"senior"},{"type":"hashtag","offset":34,"length":8,"data":"сбертех"},{"type":"handle","offset":1186,"length":12,"data":"hralexandra"}],"date":"2020-06-16T15:48:40+00:00","link":"tg://resolve?domain=jvmjobs&post=1622","tags":[{"name":"java"},{"name":"jvm"},{"name":"web"},{"name":"jdbc"},{"name":"maven"},{"name":"gradle"},{"name":"sql"},{"name":"orm"},{"name":"hibernate"},{"name":"spring"},{"name":"macos"},{"name":"windows"}],"cities":[{"code":"moscow"}],"allowsRemote":true}},{"node":{"__typename":"Job","id":"1697644544-1001091028994","title":"Java разработчик","text":"#java #javascript #middle #senior\nКомпания: #kode \nЛокация: #калининград\nЗ/п: от 100К руб\nКонтакты: @Nadia_Rudometova\n \nKODE – компания мобильной разработки, которая закрепилась в ТОП-10 лучших студий и постоянно улучшает свои позиции. Мы выступаем технологическими партнёрами бизнеса, помогая заказчику развивать их digital-сервисы. \n\nЧто нужно делать?\n-Декомпозировать, планировать и оценивать задачи;\nУчаствовать в проектировании сложных систем с чистого листа;\n-Проектировать архитектуру веб-сервисов и REST API;\n-Реализовывать сложные интеграции с различными системами (GDS, банкинг, ритейл, биллинг и т.д.);\n-Покрывать свой код тестами;\n-Сопровождать и документировать архитектурные решения по своим проектам;\n-Взаимодействовать с участниками проектной команды для реализации лучших решений\n\nЧто нужно уметь?\n-Отличные знания Java;\n-Знания Spring и Spring Boot, Groovy;\n-Опыт работы c Kafka;\n-Умение использовать различные инструменты для тестирования кода и приложений различной сложности: JUnit, Spock, Testcontainers, Mockito, Hamcrest;\n-Опыт работы с SQL и NoSQL СУБД;\nЗнание принципов и шаблонов проектирования;\n-Уверенные знания о работе unix-систем. Любовь к ним и умение с ними работать;\n-Умение работать с Docker, docker-compose;\n\nЧто предлагаем?\n-Официальное оформление по ТК;\n-Работа в продуктовой команде, используя современный стек разработки;\n-Возможность влиять на развитие проекта и компании;\n-Корпоративы в Европе","markup":[{"type":"hashtag","offset":0,"length":5,"data":"java"},{"type":"hashtag","offset":6,"length":11,"data":"javascript"},{"type":"hashtag","offset":18,"length":7,"data":"middle"},{"type":"hashtag","offset":26,"length":7,"data":"senior"},{"type":"hashtag","offset":44,"length":5,"data":"kode"},{"type":"hashtag","offset":60,"length":12,"data":"калининград"},{"type":"handle","offset":100,"length":17,"data":"Nadia_Rudometova"}],"date":"2020-06-16T14:47:56+00:00","link":"tg://resolve?domain=jvmjobs&post=1619","tags":[{"name":"java"},{"name":"jvm"},{"name":"javascript"},{"name":"rest"},{"name":"spring"},{"name":"groovy"},{"name":"kafka"},{"name":"junit"},{"name":"sql"},{"name":"nosql"},{"name":"unix"},{"name":"docker"},{"name":"spring-boot"},{"name":"docker-compose"}],"cities":[{"code":"kaliningrad"}],"allowsRemote":false}},{"node":{"__typename":"Job","id":"343932928-1001352129329","title":"Go developer","text":"Всем привет.\nЯ ищу Senior Go developer в компанию Xpate\nС опытом Go от 3-х лет, PostgreSQL от 1 года и SQL.\n\nXpate-это финтех-стартап, который создает финансовые услуги, используя дизайн-ориентированный подход, делающий процесс оплаты проще, быстрее и доступным для всех.\nXpate - это система электронных кошельков, ориентированная на розничных и бизнес-клиентов, которые стремятся сделать финансовую сферу своей жизни комфортной и легкой.\nМы пишем своё собственное решение банковского ядра и платёжный шлюз, который интегрируется с различными эквайринг-системами.\n\nЧто предстоит делать\n- Разработка и проектирование ядра банковской системы;\n- Разработка и проектирование сервиса интернет-эквайринга в рамках банковской системы.\n\nЧто нужно уметь\n- Понимание принципов работы с распределёнными брокерами сообщений (Kafka / RabbitMQ);\n- Опыт работы и понимание принципов построения мультипоточных систем;\n- Понимание и применение принципов разработки программного обеспечения: SOA, SOLID, KISS, DRY;\n- Опыт разработки микросервисной архитектуры;\n- Готовность предлагать архитектурные решения, активное участие в проектировании архитектуры продукта.\n- Чистый код (очень ВАЖНО)\n\nФормат работы:  Удаленно или Офис (Рига или МСК)\nЗанятость: Полная. оформление по ТК РФ (либо контрактная работа для иностранных граждан)\nЗарплатная вилка: 2 500–3 000 € / мес (возможна в любой валюте)\nПо всем вопросам пишите: @alex_brus\n\n#работа #удаленнка #вакансия #Go #Backend","markup":[{"type":"handle","offset":1401,"length":10,"data":"alex_brus"},{"type":"hashtag","offset":1413,"length":7,"data":"работа"},{"type":"hashtag","offset":1421,"length":10,"data":"удаленнка"},{"type":"hashtag","offset":1432,"length":9,"data":"вакансия"},{"type":"hashtag","offset":1442,"length":3,"data":"Go"},{"type":"hashtag","offset":1446,"length":8,"data":"Backend"}],"date":"2020-06-16T13:59:22+00:00","link":"tg://resolve?domain=gogetajobfeed&post=328","tags":[{"name":"go"},{"name":"postgresql"},{"name":"sql"},{"name":"kafka"},{"name":"rabbitmq"}],"cities":[{"code":"riga"}],"allowsRemote":false}},{"node":{"__typename":"Job","id":"107603820544-1001119539411","title":".net разработчик","text":"#вакансия #fulltime #офис #remote \n\nЛокация: Казань, ст. м. Козья Слобода; Иннополис;\nФормат работы: офис или remote, фуллтайм \nЗанятость: полная, гибкое начало дня\nЗП: до 160 000 Net \n\n🚀Компания Ак Барс Цифровые Технологии запускает новый большой проект по трансформации архитектуры розничного бизнеса (физические лица) и переезд всех процессов на новую технологическую платформу. В рамках проекта будет сформировано 8 команд, занимающихся разными задачами по платежным решениям, каталогам продуктов, работой с электронными досье клиента, операционному обслуживанию и др.\n\nВ связи с чем компания в поисках Middle .Net разработчиков с коммерческим опытом работы от 2 лет. \n\nСтек технологий: C#, ASP.NET MVC / Core, Web API, MS SQLServer / PostgreSql, Entity Framework, JS /React, RabbitMQ\n\n✅Ребята ищут специалиста с опытом разработки веб-платформ, которому знаком .NET, ASP.NET Core, MS SQL Server. Команды гибко рассматривают кандидатов, готовы обучать и делиться опытом. \n\n✅АК Барс Цифровые технологии предлагают отличные условия:\n- официальное оформление и полностью белую зп;\n- гибкий график работы, позитивная атмосфера, дружный молодой коллектив;\n- возможность работать удаленно или в комфортном офисе в Казани;\n- помощь с релокацией, если вы из другого города; \n- возможность быстро «прокачаться» в скиллах на интересных проектах и другие приятные плюшки и бонусы.\n\nКонтакты:\ne-mail: valeriya@luckyhunter.io\ntelegram: @sobolevavalery\nБуду рада ответить на все вопросы и комментарии! 😊","markup":[{"type":"hashtag","offset":0,"length":9,"data":"вакансия"},{"type":"hashtag","offset":10,"length":9,"data":"fulltime"},{"type":"hashtag","offset":20,"length":5,"data":"офис"},{"type":"hashtag","offset":26,"length":7,"data":"remote"},{"type":"bold","offset":675,"length":15,"data":""},{"type":"link","offset":696,"length":7,"data":"http://ASP.NET"},{"type":"link","offset":872,"length":7,"data":"http://ASP.NET"},{"type":"link","offset":1393,"length":23,"data":"mailto:valeriya@luckyhunter.io"},{"type":"handle","offset":1427,"length":15,"data":"sobolevavalery"}],"date":"2020-06-16T13:12:05+00:00","link":"tg://resolve?domain=microsoftstackjobs&post=0","tags":[{"name":"dotnet"},{"name":"csharp"},{"name":"web"},{"name":"sql-server"},{"name":"postgresql"},{"name":"reactjs"},{"name":"rabbitmq"},{"name":"sql"},{"name":"asp-net"},{"name":"entity-framework"},{"name":"net-core"},{"name":"asp-net-mvc"},{"name":"asp-net-core"}],"cities":[{"code":"kazan"}],"allowsRemote":true}}]}}},"context":{}}