{"hash":"f5f6bf98bd95e769321482904cbbd488f77922fd","data":{"records":{"id":"qa","name":"qa","belongsTo":{"totalCount":208,"pageInfo":{"totalPages":21,"currentPage":1},"edges":[{"node":{"__typename":"Job","id":"104366866432-1001089317451","title":"Qa engineer","text":"#вакансия #QA #Краснодар #Krasnodar #fulltime #java #sql #API #web #mobile #Functionaltesting\n\n✅Вакансия: QA engineer \n✅Город: Краснодар (релокация)\n✅Занятость: полная, офис\n✅ЗП вилка: 80 000 - 100 000р. gross (обсуждаема)\n✅КА: IT.Huntme\n\nИщем функционального тестировщика, но если у него есть еще и знания автотестирования, то это доп. бонус (и в этом случае смотрим требования ниже для такого опыта).\n\nЗадачи:\n· Обеспечение качества разработки ПО;\n· Проведение системного, интеграционно-функционального, регрессионного тестирования в рамках регулярных интеграционных релизов, приветствуется желание участвовать в автоматизации процесса тестирования;\n· Автоматизация процессов функционального тестирования, разработка автотестов, заглушек, поддержка framework (для автотестировщиков)\n· Активное взаимодействие внутри команды и за ее пределами (аналитики, разработчики, тестировщики интеграционных проектов, работа в Agile команде);\n· Анализ бизнес требований, функциональных требований и технических заданий;\n· Ведение BUG-трекера; контроль, тестирование исправления дефектов;\n· Выявление и эскалация проблем, подготовка заключений качества тестирования.\n\n🙌Наши ожидания:\n· Опыт работы в сфере тестирования и /или аналитики от 1 года;\n· Знание теоретических основ тестирования, практик и инструментов;\n· Опыт подготовки тестовых моделей для тестирования нового функционала;\n· Умение грамотно описывать тестовую модель и дефекты;\n· Знание техник тест-дизайна и умение применять их на практике;\n· Опыт работы с багтрекинговыми системами и системами управления тестированием (HP ALM, Atlassian Jira или аналогичными): разработка тестов, кроссировка требований с тестами и работа с дефектами);\n· Знание SQL (написание запросов средней сложности, на уровне join)\n· Представление о взаимодействии интеграционных решений (front-end);\n· Опыт или хорошее представление о тестировании SOAP/REST веб-сервисов, работа с XML;\n\nДополнительно для автоматизаторов:\n· Опыт программирования на Java или\\и Python - практический навык написания автотестов с использованием хотя бы одного языка\n\nБудет плюсом:\n· Опыт работы в сфере тестирования более 1 года;\n· Практический опыт тестирования интеграционных решений на уровне UI и API;\n· Опыт системного и интеграционного тестирования релизов, в том числе взаимодействие фронт-офисных и бэк-офисных систем;\n· Опыт анализа большого объема документации и подготовки тестовой модели;\n· Знание SQL на более продвинутых уровнях (составление запросов различной сложности, объединение нескольких таблиц – от 3-х и более, вложенные запросы, фильтрация по нескольким полям, умение работать с разным форматом дат, создание/удаление редактирование таблиц, создание процедур), опыт работы с СУБД Oracle/MS SQL Server;\n· Опыт работы с десктопными приложениями или WEB-приложениями;\n· Опыт работы с расчетами комиссий, налогов;\n· Опыт работы с Diasoft 5NT\n· Опыт разработки авто-тестов по методологии BDD (Java + Spring Framework + Cucumber);\n· Опыт разработки эмуляторов/заглушек;\n· Практический опыт автоматизации тестирования на одном из инструменте: Selenium, cucumber, Junit, TestNG, Espresso, Earl Grey;\n· Практический опыт внедрения инструментов и практик DevOps;\n\n👍Что мы готовы предложить:\n- Работу в крупной компании с возможностью поработать в распределенной команде на крупном проекте; \n- Работу с новейшими технологиями и участие в проектах из разных областей;\n- Полное соблюдение ТК РФ; \n- Белая зарплата, отпускные и больничный + Социальный пакет;\n- ДМС с первого дня работы в компании;\n- Курсы английского языка.\n✍️Контакты: @mary_itfox или it.huntme@gmail.com","markup":[{"type":"hashtag","offset":0,"length":9,"data":"вакансия"},{"type":"hashtag","offset":10,"length":3,"data":"QA"},{"type":"hashtag","offset":14,"length":10,"data":"Краснодар"},{"type":"hashtag","offset":25,"length":10,"data":"Krasnodar"},{"type":"hashtag","offset":36,"length":9,"data":"fulltime"},{"type":"hashtag","offset":46,"length":5,"data":"java"},{"type":"hashtag","offset":52,"length":4,"data":"sql"},{"type":"hashtag","offset":57,"length":4,"data":"API"},{"type":"hashtag","offset":62,"length":4,"data":"web"},{"type":"hashtag","offset":67,"length":7,"data":"mobile"},{"type":"hashtag","offset":75,"length":18,"data":"Functionaltesting"},{"type":"handle","offset":3565,"length":11,"data":"mary_itfox"},{"type":"link","offset":3581,"length":19,"data":"mailto:it.huntme@gmail.com"}],"date":"2020-07-03T11:30:48+00:00","link":"tg://resolve?domain=qa_jobs&post=99532","tags":[{"name":"qa"},{"name":"java"},{"name":"sql"},{"name":"web"},{"name":"mobile"},{"name":"soap"},{"name":"rest"},{"name":"xml"},{"name":"python"},{"name":"oracle"},{"name":"spring"},{"name":"cucumber"},{"name":"selenium"},{"name":"junit"},{"name":"sql-server"}],"cities":[{"code":"krasnodar"}],"allowsRemote":false}},{"node":{"__typename":"Job","id":"104347992064-1001089317451","title":"Qa engineer","text":"#вакансия #remote #office #fulltime #lead #teamlead #qa #qa_auto  #java #csharp\n\nКомпания: Quantori\nЛокация: remote или офис в Санкт-Петербурге/Воронеже\nЗанятость: full-time\nЗП вилка: от 3000$\nКонтакты: @Bukaa \n \nПривет! Мы в Quantori расширяем команду QA и ищем Lead QA Automation Engineer. Компания занимается системной интеграцией и разработкой программного обеспечения преимущественно в сфере Life Science.\n\nЗадачи: участие в развитии QA-компетенции, в формировании пула и найме, управление командой тестировщиков, проектная активность, регулярное общение с заказчиками из США и других стран.\n\nДетали по позиции и информация о нас здесь:\nhttps://career.quantori.com/lead-qa-automation-engineer","markup":[{"type":"hashtag","offset":0,"length":9,"data":"вакансия"},{"type":"hashtag","offset":10,"length":7,"data":"remote"},{"type":"hashtag","offset":18,"length":7,"data":"office"},{"type":"hashtag","offset":26,"length":9,"data":"fulltime"},{"type":"hashtag","offset":36,"length":5,"data":"lead"},{"type":"hashtag","offset":42,"length":9,"data":"teamlead"},{"type":"hashtag","offset":52,"length":3,"data":"qa"},{"type":"hashtag","offset":56,"length":8,"data":"qa_auto"},{"type":"hashtag","offset":66,"length":5,"data":"java"},{"type":"hashtag","offset":72,"length":7,"data":"csharp"},{"type":"handle","offset":203,"length":6,"data":"Bukaa"},{"type":"bold","offset":226,"length":8,"data":""},{"type":"bold","offset":412,"length":8,"data":""},{"type":"link","offset":642,"length":55,"data":"https://career.quantori.com/lead-qa-automation-engineer"}],"date":"2020-07-03T10:21:37+00:00","link":"tg://resolve?domain=qa_jobs&post=99514","tags":[{"name":"qa"},{"name":"java"},{"name":"csharp"}],"cities":[],"allowsRemote":true}},{"node":{"__typename":"Job","id":"104346943488-1001089317451","title":"Qa инженер","text":"#вакансия #QA #automation #москва #fulltime \nКомпания: #KALABI\nЛокация: Мск, Сухаревская\nФормат работы: fulltime, офис, гибкий график\nЗ/П: 80 000 – 120 000 net.\n👉 Что потребуется от Вас:\n✔ Знание основ тестирования (жизненный цикл разработки ПО, цели тестирования, что такое качество, что такое ошибка и т.д.);\n✔ Практические знания различных видов и типов тестирования;\n✔ Знания разработки тестовой документации (сценарии, тест-кейсы, чек-листы);\n✔ Практические навыки написания автотестов на Selenium, навыки их интегрирования в Git или Jenkins;\n👉 Чем предстоит заниматься:\n✔ Проводить комплексное тестирование программного продукта (функциональное и нефункциональное);\n✔ Анализировать требования к программному продукту;\n✔ Разрабатывать автотесты и загружать их на сервер непрерывной интеграции;\n✔ Фиксировать дефекты в баг-трекер;\n✔ Обеспечивать контроль качества разрабатываемых продуктов.\n👉 Что мы предлагаем:\n✅прекрасный офис в центре Москвы, гибкий график (пару дней в неделю можно работать из дома);\n✅полностью белая зарплата, ДМС;\n✅обучение используемым технологиям, сложные и необычные задачи (некоторые из задач решаются всего в нескольких компаниях в мире).\n📞telegram:@faina_kleinman\n📮e-mail: fk@kalabi.ru","markup":[{"type":"hashtag","offset":0,"length":9,"data":"вакансия"},{"type":"hashtag","offset":10,"length":3,"data":"QA"},{"type":"hashtag","offset":14,"length":11,"data":"automation"},{"type":"hashtag","offset":26,"length":7,"data":"москва"},{"type":"hashtag","offset":34,"length":9,"data":"fulltime"},{"type":"hashtag","offset":55,"length":7,"data":"KALABI"},{"type":"handle","offset":1185,"length":15,"data":"faina_kleinman"},{"type":"link","offset":1211,"length":12,"data":"mailto:fk@kalabi.ru"}],"date":"2020-07-03T10:21:36+00:00","link":"tg://resolve?domain=qa_jobs&post=99513","tags":[{"name":"qa"},{"name":"dotnet"},{"name":"selenium"},{"name":"git"},{"name":"jenkins"}],"cities":[{"code":"moscow"}],"allowsRemote":false}},{"node":{"__typename":"Job","id":"104341700608-1001089317451","title":"Qa инженер","text":"#вакансия #fulltime #офис #москва #qa #middle\n\nКомпания «Ростелеком Информационные Технологии».\nИщу в команду по тестированию камер видеонаблюдения ручного тестировщика.\n\nТребования:\n- знание теории тестирования\n- владение техниками тест-дизайна и опыт написания тестовых сценариев\n- опыт работы с системами баг-трекинга\n- понимание устройства сетей, базовые навыки работы с сетевым оборудованием, знание основных сетевых протоколов\n- опыт тестирования restapi, знание основ протокола http, кодов ответа, json и пр\n- уверенная работа с командной строкой linux\n- базовые навыки пайки и работы с железом\n\nУсловия:\n- вилка в районе 60-120 в зависимости от уровня\n- компенсация фитнеса, обучения, ДМС и пр\n- офис в районе м. Павелецкая\\Новокузнецкая (в данный момент удалёнка)\n- широкие возможности для реализации и карьерного роста\n\nВопросы, резюме, предложения и прочее в telegram @shpyntov","markup":[{"type":"hashtag","offset":0,"length":9,"data":"вакансия"},{"type":"hashtag","offset":10,"length":9,"data":"fulltime"},{"type":"hashtag","offset":20,"length":5,"data":"офис"},{"type":"hashtag","offset":26,"length":7,"data":"москва"},{"type":"hashtag","offset":34,"length":3,"data":"qa"},{"type":"hashtag","offset":38,"length":7,"data":"middle"},{"type":"handle","offset":879,"length":9,"data":"shpyntov"}],"date":"2020-07-03T09:51:22+00:00","link":"tg://resolve?domain=qa_jobs&post=99508","tags":[{"name":"qa"},{"name":"json"},{"name":"linux"}],"cities":[{"code":"moscow"}],"allowsRemote":true}},{"node":{"__typename":"Job","id":"104336457728-1001089317451","title":"Qa инженер","text":"#вакансия #москва #fulltime #middle #automation\n🏢Город: Москва, м. Павелецкая\n💻Формат: Офис\n💰З/п: от 180 до 250 т.р net\n\nИщем тестировщика в команду мобильного тестирования, на один из наших крупнейших проектов. Коротко о проекте: крупный американский заказчик (входит в топ 3 фарм компании США) .\nПроекту больше года, приложение вышло в прод, есть реальные пользователи, работаем над новыми релизами, добавляем новый функционал\nИщем специалиста, с опытом автоматизации тестирования мобильных приложений (желательно Android)\n\nCustomertimes – это международный системный интегратор, который работает  в США, России и более чем 50 странах мира. Мы работаем с крупнейшими мировыми поставщиками программного обеспечения, такими как Salesforce, Pega, SAP, а также предоставляем собственные разработки для крупных и средних компаний. \nНаши офисы расположены в Москве, Нью-Йорке, Киеве, Минске, Риге, Лондоне, Торонто\n📌Задачи: \n • Анализ технической документации и требований к системе\n•Написание, отладка и поддержание в актуальном состоянии автоматизированных скриптов \n•Проведение автоматизированного тестирования\n•Настройка, управление и поддержание тестового фреймворка для автоматизации. Участие в создании нового фреймворка для автоматизированного тестирования, если это требуется на проекте.\n•Внедрение и настройка инструментов и утилит необходимых для проведения автоматизированного тестирования \n•Фиксация обнаруженных во время автоматизированного тестирования дефектов в Jira, согласно внутренним инструкциям и регламентам принятым на проекте\n•Взаимодействие с командой ручного тестирования и командой разработки с целью локализации и исправления обнаруженных дефектов\n•Разработка инструкций и документации  \n📌Требования: \n • Ясное понимание проектного подхода к работе, знакомство с различными методологиями управления проектами. \n • Опыт работы в  автоматизированном  тестировании от 2х лет. \n • Опыт проведения  автоматизированного тестирования (mobile/Web)\n • Уверенные знание ООП (Java) \n • Английский язык на уровне Intermediate и выше\n • Самостоятельность, высокий уровень личной дисциплины \n  \n  \nМы предлагаем: \n • Работу в дружном и быстроразвивающемся международном коллективе.\n•Решение сложных задач;\n•Возможность повысить уровень своего профессионализма и познакомиться с лучшими мировыми практиками наших клиентов;\n•Возможность поучаствовать в строительстве международного бизнеса             в области ИТ и занять достойное место в команде.\n•Принять участие в построении эффективных бизнес-процессов компании, их автоматизации.\n•Обучение по курсам компании: Tester, Salesforce Specialist\n•Подготовку и оплату сдачи экзамена Salesforce Administrator\n•Возможность сертификации по ISTQB в качестве KPI на первый год работы\nTelegram: @Surkofff\nТелефон: +7 916 824 11 34","markup":[{"type":"hashtag","offset":0,"length":9,"data":"вакансия"},{"type":"hashtag","offset":10,"length":7,"data":"москва"},{"type":"hashtag","offset":18,"length":9,"data":"fulltime"},{"type":"hashtag","offset":28,"length":7,"data":"middle"},{"type":"hashtag","offset":36,"length":11,"data":"automation"},{"type":"handle","offset":2754,"length":9,"data":"Surkofff"},{"type":"link","offset":2773,"length":16,"data":"tel:+7 916 824 11 34"}],"date":"2020-07-03T09:33:49+00:00","link":"tg://resolve?domain=qa_jobs&post=99503","tags":[{"name":"qa"},{"name":"dotnet"},{"name":"android"},{"name":"mobile"},{"name":"web"},{"name":"java"}],"cities":[{"code":"moscow"},{"code":"toronto"}],"allowsRemote":false}},{"node":{"__typename":"Job","id":"104333312000-1001089317451","title":"Qa инженер","text":"#Екатеринбург #полная_занятость #офис #вакансия  \n\nQA-инженер\nГород: Екатеринбург\nЗарплата: 40 000-60 000 на руки \nФормат: полный день, полная занятость\nКомпания Mystand — mystand.io\n\n➡️ Требования:\n • Опыт проведения функционального, интеграционного, регрессионного, юзабилити тестирования от 1 года;\n • Опыт использования техник тест-дизайна;\n • Умение пользоваться сервисами Postman, Sentry, Swagger и другими;\n • Навык тестирования API;\n • Понимание работы HTML, CSS и что такое DOM-дерево;\n • Умение работать с базами данных, мы используем PostgreSQL;\n • Опыт разработки тестовой документации (use-case, тест-кейсы, баг-репорты, тест-планы, чек-листы, спецификация требований);\n • Понимание основ современной разработки;\n • Желание работать в Agile-команде.\n\n➡️ Обязанности:\n • Тестирование новых и существующих проектов компании;\n • Составление и актуализация тестовой документации;\n • Описание функциональности системы и принципы ее работы;\n • Ведение баг-репорта;\n • Постановка задач по исправлению ошибок и контроль их выполнения;\n • Проработка и автоматизация сценариев тестирования продукта.\n\n➡️ Мы предлагаем:\n • Карьерный и профессиональный рост;\n • Команду, которая поможет и поделится опытом;\n • Участие в митапах и конференциях;\n • Performance review раз в полгода;\n • Конкурентную зарплату и официальное трудоустройство;\n • Просторный и уютный офис с зонами релакса, кухней, настольным теннисом и кикером. Всегда есть снеки, чай, кофе и фрукты.\n\nДвойникова Мария\nTG @MariyaMaryHr\nT +7 (982) 6238954\nE mdvoynikova@mystand.io","markup":[{"type":"hashtag","offset":0,"length":13,"data":"Екатеринбург"},{"type":"hashtag","offset":14,"length":17,"data":"полная_занятость"},{"type":"hashtag","offset":32,"length":5,"data":"офис"},{"type":"hashtag","offset":38,"length":9,"data":"вакансия"},{"type":"link","offset":92,"length":13,"data":"tel:40 000-60 000"},{"type":"link","offset":172,"length":10,"data":"http://mystand.io"},{"type":"code","offset":199,"length":3,"data":""},{"type":"code","offset":302,"length":3,"data":""},{"type":"code","offset":345,"length":3,"data":""},{"type":"code","offset":414,"length":3,"data":""},{"type":"code","offset":441,"length":3,"data":""},{"type":"code","offset":495,"length":3,"data":""},{"type":"code","offset":557,"length":3,"data":""},{"type":"code","offset":683,"length":3,"data":""},{"type":"code","offset":726,"length":3,"data":""},{"type":"code","offset":780,"length":3,"data":""},{"type":"code","offset":836,"length":3,"data":""},{"type":"code","offset":889,"length":3,"data":""},{"type":"code","offset":948,"length":3,"data":""},{"type":"code","offset":972,"length":3,"data":""},{"type":"code","offset":1040,"length":3,"data":""},{"type":"code","offset":1122,"length":3,"data":""},{"type":"code","offset":1160,"length":3,"data":""},{"type":"code","offset":1208,"length":3,"data":""},{"type":"code","offset":1245,"length":3,"data":""},{"type":"code","offset":1282,"length":3,"data":""},{"type":"code","offset":1338,"length":3,"data":""},{"type":"handle","offset":1483,"length":13,"data":"MariyaMaryHr"},{"type":"link","offset":1499,"length":16,"data":"tel:+7 (982) 6238954"},{"type":"link","offset":1518,"length":22,"data":"mailto:mdvoynikova@mystand.io"}],"date":"2020-07-03T08:54:27+00:00","link":"tg://resolve?domain=qa_jobs&post=99500","tags":[{"name":"qa"},{"name":"swagger"},{"name":"html"},{"name":"css"},{"name":"postgresql"}],"cities":[],"allowsRemote":false}},{"node":{"__typename":"Job","id":"104329117696-1001089317451","title":"Qa engineer","text":"#вакансия #QA #фуллстек #ФТ #АТ #удаленка \n\nВакансия: QA Engineer (АФТ на Java/Ruby/C#)\nГород: Москва или удаленка из городов РФ, стандартный график с Москвой\nЗарплата: от 140 000 рублей до 240 000 рублей на руки \nФормат: полный день, полная занятость\nКомпания Innovative People \n\n➡ Требования:\n• От 2х лет опыта тестирования веб- или мобильных приложений\n• Практический опыт применения практик тест-дизайна\n• Рабочие знания клиент-серверной архитектуры\n• Знание Java/Ruby/C#, опыт автоматизации от 1 года\n• Уверенный опыт разработки авто-тестов, работы с инструментами автоматизации\nДля удаленки нужен релевантный опыт удаленной работы.\n\n➡ Обязанности:\n• Автоматизированное тестирование (Selenium/Selenide+Cucumber)\n• Функциональное, интеграционное, регрессионное и приемочное тестирование\n\n➡ Предлагаем:\n• все по ТК РФ, белое и официальное\n• ДМС со стоматологией, программа лояльности\n• адекватное руководство\n• большое комьюнити, классные команды, карьерный рост\n• помогаем с релокацией в Москву/Питер/Екатеринбург (50 000 рублей)\nили есть возможность работы удаленно\n\nРезюме и вопросы @Priboch","markup":[{"type":"hashtag","offset":0,"length":9,"data":"вакансия"},{"type":"hashtag","offset":10,"length":3,"data":"QA"},{"type":"hashtag","offset":14,"length":9,"data":"фуллстек"},{"type":"hashtag","offset":24,"length":3,"data":"ФТ"},{"type":"hashtag","offset":28,"length":3,"data":"АТ"},{"type":"hashtag","offset":32,"length":9,"data":"удаленка"},{"type":"handle","offset":1089,"length":8,"data":"Priboch"}],"date":"2020-07-03T08:33:25+00:00","link":"tg://resolve?domain=qa_jobs&post=99496","tags":[{"name":"qa"},{"name":"java"},{"name":"ruby"},{"name":"selenium"},{"name":"cucumber"}],"cities":[{"code":"moscow"}],"allowsRemote":true}},{"node":{"__typename":"Job","id":"104324923392-1001089317451","title":"Qa инженер","text":"#вакансия #работа #QA  #ручное #москва #fulltime #офис\n\nКомпания: X5FoodTech\n\nQA ручное тестирование\n\nГород: Москва м. Парк культуры(5 минут)\nФормат: в офисе\nЗанятость: полная\nЗарплатная вилка: до 100 000  рублей в месяц net (на руки)\n\nВсякие преимущества:\nВ нашей команде крутые ребята создатели и топы: \nKupiVip, Avito и других лидеров рынка.\nМы работаем в одной из самых быстрорастущих отраслей - FoodTech.\nРабота в современном офисе - WeWork. Кофе, печеньки, бесплатное пиво по вечерам.\nВозможность учиться, развиваться и много работать. \nДМС + стоматология.\n\nПродукт, который нужно тестировать:\nСсылка на мобильное приложение: http://app.5-delivery.ru/\n\nЗадачи:\nРучное тестирование мобильных приложений,\nЗаведение дефектов в системе баг-трекинга;\nСоставление тестовых сценариев и поддержка их в актуальном состоянии;\nПодготовка отчетов о тестировании;\nВзаимодействие с разработчиками, продакт-менеджером;\n\nПожелания к твоему опыту:\nЗнание методов и методик тестирования;\nОпыт работы с REST API, HTTP/HTTPS, JSON;\nОпыт тестирования с помощью Chrome DevTools\n\nБудет плюсом:\nПонимание как работают мобильные приложения и опыт их тестирования;\nРабота с базами данных. \n\nКонтакты: \nДарья\n@Daryanepevnaya\n+7 925 175 175 2 \ndarya.nepevnaya@x5.ru","markup":[{"type":"hashtag","offset":0,"length":9,"data":"вакансия"},{"type":"hashtag","offset":10,"length":7,"data":"работа"},{"type":"hashtag","offset":18,"length":3,"data":"QA"},{"type":"hashtag","offset":23,"length":7,"data":"ручное"},{"type":"hashtag","offset":31,"length":7,"data":"москва"},{"type":"hashtag","offset":39,"length":9,"data":"fulltime"},{"type":"hashtag","offset":49,"length":5,"data":"офис"},{"type":"link","offset":632,"length":25,"data":"http://app.5-delivery.ru/"},{"type":"handle","offset":1188,"length":15,"data":"Daryanepevnaya"},{"type":"link","offset":1204,"length":16,"data":"tel:+7 925 175 175 2"},{"type":"link","offset":1222,"length":21,"data":"mailto:darya.nepevnaya@x5.ru"}],"date":"2020-07-03T07:23:09+00:00","link":"tg://resolve?domain=qa_jobs&post=99492","tags":[{"name":"qa"},{"name":"dotnet"},{"name":"rest"},{"name":"json"}],"cities":[{"code":"moscow"}],"allowsRemote":false}},{"node":{"__typename":"Job","id":"104322826240-1001089317451","title":"Qa engineer","text":"#вакансия #Москва #офис #fulltime #QA \n\nВсем привет! \nИщем QA Engineer ( web и мобилка)\n\nКомпания: банк \"Открытие\"\nМосква, м Динамо\n💰 до 135 тыс. гросс\n\nОсновные задачи:\nТестирование ДБО для юридических лиц, разработка собственного фреймворка\n\nТребования:\n- опыт выполнения простых задачах в автотестировании на Java;\n- хороший бэкграунд в других видах тестирования;\n- знание Java (Selenium, Selenide).\n\n\nУсловия:\n-Отсутствие дресс-кода;\n-Льготное кредитование;\n-ДМС;\n-Корпоративный спорт.\n\nПо всем вопросам пишите @VickyKS","markup":[{"type":"hashtag","offset":0,"length":9,"data":"вакансия"},{"type":"hashtag","offset":10,"length":7,"data":"Москва"},{"type":"hashtag","offset":18,"length":5,"data":"офис"},{"type":"hashtag","offset":24,"length":9,"data":"fulltime"},{"type":"hashtag","offset":34,"length":3,"data":"QA"},{"type":"bold","offset":154,"length":17,"data":""},{"type":"bold","offset":245,"length":12,"data":""},{"type":"bold","offset":406,"length":9,"data":""},{"type":"handle","offset":516,"length":8,"data":"VickyKS"}],"date":"2020-07-03T07:02:51+00:00","link":"tg://resolve?domain=qa_jobs&post=99490","tags":[{"name":"qa"},{"name":"web"},{"name":"java"},{"name":"selenium"}],"cities":[{"code":"moscow"}],"allowsRemote":false}},{"node":{"__typename":"Job","id":"104318631936-1001089317451","title":"Qa инженер","text":"🐞🐞🐞#вакансия #QA #Ульяновск #Саранск #Казань #Самара #Уфа #Краснодар #офис #удаленная_работа\n\n🔍Middle QA-специалист🔎\n\n⚡️Компания: Simbirsoft (более 19 лет на рынке, более 700 сотрудников в штате)\n\nОчень ждем тебя, наш будущий коллега и борец за качественное ПО! :)\n\n📌Твои будущие задачи:\n• тестирование ПО (frontend, backend, API);\n• локализация и документирование найденных дефектов;\n• ведение и оптимизация тестовой документации;\n• контроль качества на всех этапах разработки ПО;\n• выстраивание и оптимизация процессов тестирования ПО.\n\n📌Что мы ждем от тебя:\n• наличие опыта от 2 лет в направлениях QA или тестирования ПО;\n• понимание разницы между QA и тестированием ПО;\n• понимание особенностей гибких методологий;\n• уверенное владение техниками тест-дизайна;\n• знание клиент-серверной архитектуры;\n• понимание особенностей тестирования web, mobile и desktop приложений;\n• навык тестирования API;\n• написание запросов SQL;\n• опыт работы с системами контроля версий (git);\n• знание основных команд работы с консолью (Windows/Linux).\n\n📌Что мы предлагаем:\n• Полностью белая ЗП два раза в месяц;\n• Оформление по ТК РФ;\n• Высокий уровень экспертности внутри компании, которым мы делимся друг с другом;\n• Перспективы вертикального и горизонтального роста;\n• Работа на российских и международных проектах;\n• Оборудованное рабочее место и парк тестовых устройств;\n• Подготовка и прохождение сертификации ISTQB бесплатно;\n• Внутренние и внешние курсы, доклады, конференции;\n• Бесплатные чай, кофе, печеньки в офисе;\n• Корпоративная спортивная программа (оплата тематических секций, частичная компенсация абонемента);\n• Проведение летних и зимних корпоративов, дня именинника, совместные походы и т.д.\n\n📌Зарплата:\n• от 50 000 (Договорная, по итогу собеседования)\n\n☎️Контакты:\nAlena","markup":[{"type":"hashtag","offset":6,"length":9,"data":"вакансия"},{"type":"hashtag","offset":16,"length":3,"data":"QA"},{"type":"hashtag","offset":20,"length":10,"data":"Ульяновск"},{"type":"hashtag","offset":31,"length":8,"data":"Саранск"},{"type":"hashtag","offset":40,"length":7,"data":"Казань"},{"type":"hashtag","offset":48,"length":7,"data":"Самара"},{"type":"hashtag","offset":56,"length":4,"data":"Уфа"},{"type":"hashtag","offset":61,"length":10,"data":"Краснодар"},{"type":"hashtag","offset":72,"length":5,"data":"офис"},{"type":"hashtag","offset":78,"length":17,"data":"удаленная_работа"}],"date":"2020-07-03T05:58:13+00:00","link":"tg://resolve?domain=qa_jobs&post=99486","tags":[{"name":"qa"},{"name":"web"},{"name":"mobile"},{"name":"sql"},{"name":"git"},{"name":"windows"},{"name":"linux"}],"cities":[{"code":"ulyanovsk"},{"code":"saransk"},{"code":"kazan"},{"code":"samara"},{"code":"ufa"},{"code":"krasnodar"}],"allowsRemote":true}}]}}},"context":{}}