{"hash":"f5f6bf98bd95e769321482904cbbd488f77922fd","data":{"records":{"id":"java","name":"java","belongsTo":{"totalCount":242,"pageInfo":{"totalPages":25,"currentPage":2},"edges":[{"node":{"__typename":"Job","id":"1774190592-1001091028994","title":"Java разработчик","text":"#москва #удаленка #fulltime #JavaDeveloper #Backend\n\nJava-разработчик/Backend Developer \n\nООО Криптериум (https://crypterium.com)\n\nЗп: 180.000-270.000 net\n\nПривет!\n\nМы команда Crypterium!\n\nМы международный финтех стартап.\n\nМы строим банк будущего, который поддерживает криптофиатные операции.\n\nНаша цель – создание сервиса, который фактически займёт место традиционных банков, по всем возможным банковским операциям!\n\nУ нас сложные, но интересные задачи по созданию крутого и по-настоящему полезного продукта для людей из разных стран по всему миру. Работа у нас реальная возможность приложить руку к крутому продукту, которым будет пользоваться большое количество людей.\n\nНа данный момент наша компания активно растет и развивается, в связи с этим мы ищем Backend Developer. Нам нужен по-настоящему про активный и ответственный сотрудник. Задач много, они разные и крайне интересны\n\n🟢Что предстоит делать?\n\n🔹Разработка бэкэнда финансового приложения;\n🔹Разработка платформенных микросервисов: интеграция с партнерами, аналитика, карточный процессинг, etc;\n🔹Разработка REST API для frontend\n\n🟢Какие skill’s мы хотим видеть в нашем будущем коллеге?\n\n🔹Java 8 (также желательно Kotlin);\n🔹Spring, Spring Cloud, Hibernate;\n🔹JUnit или другие фреймворки для тестирования;\n🔹Умение работать с SQL и не-SQL базами данных (у нас PostgreSQL);\n🔹Умение проектировать и реализовывать REST API;\n🔹Понимание микросервисной архитектуры;\n🔹Английский язык: умение читать и писать техническую документацию.\n🔹Понимание принципов работы tcp/ip, сетей передачи данных.\n🔹Умение писать тестируемый код;\n🔹Умение работать в команде и использовать соответствующие инструменты (git, jira, etc).\n\n🟢Преимущества:\n\n🔹Знание Kotlin;\n🔹Понимание принципов CI/CD;\n🔹Понимание, как работают основные сервисы AWS.\n\n🟢Что мы готовы предложить будущему коллеге?\n\n🔹По настоящему заряженная команда профессионалов\n🔹Офис м.Тульская\n🔹Удаленная работа, с возможностью приезжать в офис, гибкое начало рабочего дня (c 9 до 12)\n🔹Возможности профессионально развиваться и расти\n\n🔔Контакты:\n@kriskrisych Кристина","markup":[{"type":"hashtag","offset":0,"length":7,"data":"москва"},{"type":"hashtag","offset":8,"length":9,"data":"удаленка"},{"type":"hashtag","offset":18,"length":9,"data":"fulltime"},{"type":"hashtag","offset":28,"length":14,"data":"JavaDeveloper"},{"type":"hashtag","offset":43,"length":8,"data":"Backend"},{"type":"link","offset":106,"length":22,"data":"https://crypterium.com"},{"type":"handle","offset":2060,"length":12,"data":"kriskrisych"}],"date":"2020-07-02T15:08:19+00:00","link":"tg://resolve?domain=jvmjobs&post=1692","tags":[{"name":"java"},{"name":"jvm"},{"name":"dotnet"},{"name":"rest"},{"name":"kotlin"},{"name":"spring"},{"name":"cloud"},{"name":"hibernate"},{"name":"junit"},{"name":"sql"},{"name":"postgresql"},{"name":"git"},{"name":"amazon-web-services"}],"cities":[{"code":"moscow"}],"allowsRemote":true}},{"node":{"__typename":"Job","id":"1773142016-1001091028994","title":"Java разработчик","text":"#спб #офис #java #middle #senior\n\nМесто работы: Санкт-Петербург, м. Лиговский проспект\nКомпания: Санкт-Петербургский Информационно аналитический центр\nФормат работы: офис ( на текущий момент удаленно)\nЗанятость: полная, гибкое начало дня\nЗарплатная вилка: до 200 на руки, 100% белая\n\n«Санкт-Петербургский Информационно-аналитический центр» с 1980 года улучшает качество жизни петербуржцев, автоматизируя городские процессы и государственные органы. В портфолио компании - 50 действующих проектов в Санкт-Петербурге и других регионах. Наши проекты побеждают в общероссийских и международных конкурсах.\n\nСодержание работы:\n- Требуется Java разработчик в Agile команду разработки государственных информационных систем.\n\nОбязанности:\n- Проектирование, разработка и развитие информационных систем с использованием технологий: Java, Postgres/Oracle, ElasticSearch, Spring Boot, Kafka, React, Ansible, Docker, Kubernetes, Jenkins и других\n\nТребования:\n- опыт веб-разработки на Java от 3-х лет;\n- знание ООП, SQL;\n- опыт разработки моделей БД;\n- умение думать и желание развиваться;\n- умение и желание решать сложные технические задачи;\n- высшее техническое образование;\n- знание английского языка (уровень чтения профессиональной литературы);\n\nЖелательно:\n- опыт работы со Spring Boot\n- опыт работы с React\n- опыт работы с СУБД Postgres или другой\n- опыт работы с Gradle\n- опыт работы с брокерами сообщений (Kafka, RabbitMQ);\n- знакомство с оркестраторами (Kubernetes, Swarm);\n- знание современных инженерных практик и инструментов (XP, TDD, Continuous delivery и т.п.).\n\nО команде:\n- мы работаем в компактных командах;\n- избегаем бюрократии и фокусируемся на реальных потребностях граждан нашего города;\n- осуществляем полный цикл разработки от выявления требований, до внедрения и сопровождения;\n- проводим ежедневные митинги, совместные обсуждения возле доски и регулярные ретроспективы;\n- стремимся к постоянному персональному и командному росту и развитию!\n\nВ портфолио команды информационные системы, функционирующие в СПб, других регионах РФ и на международном уровне:\n- Аналитическая платформа поддержки принятия решений по управлению городом;\n- Культура Петербурга\n- Общедоступные библиотеки Санкт-Петербурга\n- Государственные архивы Санкт-Петербурга\n- Приграничный электронный архив\n\nМы готовы предложить успешным кандидатам :\n- влиться в большой дружный коллектив, стать частью команды увлеченных, целеустремленных людей;\n- конкурентоспособный уровень заработной платы, который мы готовы обсудить с успешными кандидатами на собеседовании;\n- бонусы и премии по результатам работы;\n- оплачиваемые отпуска и больничные, полностью «белая» заработная плата дважды в месяц;\n- оплата обучения (тренинги, семинары, конференции);\n- широкие возможности для повышения личного мастерства и профессионального роста;\n- рабочий график – пятидневка с 9 до 18 часов, по пятницам до 17;\n- офис около ст. метро «Лиговский проспект»;\n- возможность внести свой значимый вклад в развитие городской автоматизации!\n\nБуду рад ответить на ваши вопросы о команде и проектах @akozhin","markup":[{"type":"hashtag","offset":0,"length":4,"data":"спб"},{"type":"hashtag","offset":5,"length":5,"data":"офис"},{"type":"hashtag","offset":11,"length":5,"data":"java"},{"type":"hashtag","offset":17,"length":7,"data":"middle"},{"type":"hashtag","offset":25,"length":7,"data":"senior"},{"type":"handle","offset":3051,"length":8,"data":"akozhin"}],"date":"2020-07-02T15:01:55+00:00","link":"tg://resolve?domain=jvmjobs&post=1691","tags":[{"name":"java"},{"name":"jvm"},{"name":"postgresql"},{"name":"oracle"},{"name":"elasticsearch"},{"name":"spring"},{"name":"kafka"},{"name":"reactjs"},{"name":"ansible"},{"name":"docker"},{"name":"kubernetes"},{"name":"jenkins"},{"name":"sql"},{"name":"gradle"},{"name":"rabbitmq"},{"name":"spring-boot"}],"cities":[],"allowsRemote":true}},{"node":{"__typename":"Job","id":"104223211520-1001089317451","title":"Qa инженер","text":"#вакансия#QAAutomation#тестировщик #атоматизация #Тюмень #офис \n\n🏢Компания: Creative\n🏙Город: Тюмень, ул. Малыгина, 84/1\n💰Зп: от 85к (обсуждается по результатам собеседования)\n\nФормат работы: офис \nЗанятость: полная\nМы занимаемся веб и мобильной разработкой: помогаем нашим клиентам эффективно инвестировать деньги в цифровую среду и стремимся стать лидерами на российском рынке.\nСейчас у нас в работе флагманский проект с крупнейшим банком TOP-5 в России по разработке сервиса для поиска и заказа услуг самозанятых. Мы активно формируем команду разработчиков на долгосрочный проект.\n\nЗадачи: \n✔️ Написание и поддержка behat-тестов на API продукта (backend), \n✔️Написание и поддержка Java+Selenium-тестов на интерфейсную часть продукта (frontend). \n\nТребования:\n ✔️Знание behat фреймворка тестирования и умение его применять\n✔️ Знания в PHP на уровне, достаточном для поддержания behat-сценариев - написание бэкдоров\n✔️Знания в Java на уровне, достаточном для написания сценариев тестирования на связка Java+Selenium\n\nУсловия:\n✔️Конкурентная заработная плата;\n✔️работаем с 10:00 до 19:00. График индивидуально корректируемый. Иногда можно работать из дома. Обед можно смещать.\n✔️возможность пробовать новый стек;\n✔️пятничные встречи с интересными ребятами, английский прямо в офисе, поездки на конференции, обучение друг друга внутри компании;\n✔️современный офис в центре города;\n✔️программа релокации по переезду в г. Тюмень\nПодробнее о компании здесь https://crtweb.ru/career\n📲Контакты: m.zinoveva@rabota.ru или в лс (в телеге)","markup":[{"type":"hashtag","offset":35,"length":13,"data":"атоматизация"},{"type":"hashtag","offset":49,"length":7,"data":"Тюмень"},{"type":"hashtag","offset":57,"length":5,"data":"офис"},{"type":"link","offset":1455,"length":24,"data":"https://crtweb.ru/career"},{"type":"link","offset":1492,"length":20,"data":"mailto:m.zinoveva@rabota.ru"}],"date":"2020-07-02T13:15:47+00:00","link":"tg://resolve?domain=qa_jobs&post=99395","tags":[{"name":"qa"},{"name":"java"},{"name":"selenium"},{"name":"php"}],"cities":[{"code":"tyumen"}],"allowsRemote":false}},{"node":{"__typename":"Job","id":"72537341952-1001054966032","title":"Android разработчик","text":"#вакансия #android #java #kotlin #офис #москва\nм.Бауманская, полная занятость\nБелая з/п 150.000 - 200.000 руб. на руки\nAndroid developer\nУдаленки нет\n\nМы — команда разработки Level.Travel, сложного продукта в сфере путешествий. За последние 8 лет мы с нуля создали и продолжаем развивать решение для онлайн-продажи путешествий. Нашу платформу используют лидеры рынка – Тинькофф Банк, OneTwoTrip, Сбербанк, TripAdvisor, Kayak, АК Барс Банк, Евросеть и многие другие. Компания Level.Travel является резидентом Инновационного центра «Сколково».\n\nОбязанности:\n🔸Разработка приложения со сложным UI в команде разработчиков\n🔸Построение архитектуры\n🔸Реализация клиент-серверного взаимодействия\n🔸Написание тестов\n\nОт Вас:\n🔸От 2-х лет в разработке на Android\n🔸Знание Java/Kotlin на уровне ведущего разработчика\n🔸Знание архитектурных паттернов (MVVM / Clean Architecture), ООП\n🔸Знания цикла работы приложения, управления памятью\n🔸Опыт работы или понимание RxJava, RxAndroid, Retrofit, Dagger2, Android Data Binding\n🔸Понимание Android Architecture Components будет плюсом\n🔸CI / CD\n🔸Все тонкости работы с клиент-серверной архитектурой\n🔸Умение отлаживать приложение, профилирование кода\n\nОт нас: белая зп, официальное трудоустройство, больничные, отпуска. Скидки на изучение английского языка, техника MacBook Pro. Регулярная обратная связь и аттестации. Геймификация процессов и несколько раз в год релокейты поработать в другую страну. Клевый молодой коллектив, интересные ивенты, насыщенная корпоративная жизнь. Пинг-понг, бильярд, кальян и другие развлечения в офисе. Скидки на путешествия)\n\nСвязь по почте : vos@level.travel\nИли тут @Alyask_a","markup":[{"type":"hashtag","offset":0,"length":9,"data":"вакансия"},{"type":"hashtag","offset":10,"length":8,"data":"android"},{"type":"hashtag","offset":19,"length":5,"data":"java"},{"type":"hashtag","offset":25,"length":7,"data":"kotlin"},{"type":"hashtag","offset":33,"length":5,"data":"офис"},{"type":"hashtag","offset":39,"length":7,"data":"москва"},{"type":"bold","offset":78,"length":40,"data":""},{"type":"bold","offset":119,"length":17,"data":""},{"type":"bold","offset":151,"length":76,"data":""},{"type":"bold","offset":544,"length":12,"data":""},{"type":"bold","offset":710,"length":7,"data":""},{"type":"bold","offset":1188,"length":7,"data":""},{"type":"bold","offset":1596,"length":33,"data":""},{"type":"link","offset":1613,"length":16,"data":"mailto:vos@level.travel"},{"type":"bold","offset":1630,"length":17,"data":""},{"type":"handle","offset":1638,"length":9,"data":"Alyask_a"}],"date":"2020-07-02T12:22:40+00:00","link":"tg://resolve?domain=mobile_jobs&post=69177","tags":[{"name":"mobile"},{"name":"android"},{"name":"java"},{"name":"kotlin"},{"name":"mvvm"}],"cities":[{"code":"moscow"}],"allowsRemote":false}},{"node":{"__typename":"Job","id":"17317232640-1001110946746","title":"Javascript developer","text":"#вакансия #ReactNative #Одесса\n🔹Локация: Одесса,  #Odessa, р-н Пересыпи\n🔹Формат работы: #Офис / #удаленка\n🔹Занятость: Полная занятость, #Fulltime\n🔹Вилка 1700-2500 уе, дважды в год Performance Review.\n\n☀Вакансия Middle React Native developer\n🔹Описание вакансии:\n- 4+ years of experience in software development and JavaScript (ES6+).\n- 2+ years of experience with React Native.\n- Experience with commercial native applications development (IOS/Android).\n- Understanding and experience with building the full mobile application’s lifecycle.\n- Knowledge of architecture design and experience working knowledge of SOAP and RESTful integrations.\n- Intermediate written and spoken English.\nБудет плюсом:\n- Experience with native SDKs for Android (Kotlin/Java) and/or iOS (Swift).\n\n\n🔹Компания Attract Group.\n🔹Контакты:\n✏️телеграм @Niedova_Olga,\n✏️почта hr@attractgroup.com.\n\n—\n\n👉 Обсуждение вакансии в чате @javascript_jobs","markup":[{"type":"hashtag","offset":0,"length":9,"data":"вакансия"},{"type":"hashtag","offset":10,"length":12,"data":"ReactNative"},{"type":"hashtag","offset":23,"length":7,"data":"Одесса"},{"type":"hashtag","offset":51,"length":7,"data":"Odessa"},{"type":"hashtag","offset":90,"length":5,"data":"Офис"},{"type":"hashtag","offset":98,"length":9,"data":"удаленка"},{"type":"hashtag","offset":139,"length":9,"data":"Fulltime"},{"type":"handle","offset":830,"length":13,"data":"Niedova_Olga"},{"type":"link","offset":853,"length":19,"data":"mailto:hr@attractgroup.com"},{"type":"handle","offset":908,"length":16,"data":"javascript_jobs"}],"date":"2020-07-02T11:06:21+00:00","link":"tg://resolve?domain=javascript_jobs_feed&post=16515","tags":[{"name":"javascript"},{"name":"reactjs"},{"name":"ios"},{"name":"android"},{"name":"mobile"},{"name":"soap"},{"name":"kotlin"},{"name":"java"},{"name":"swift"},{"name":"react-native"}],"cities":[{"code":"odessa"}],"allowsRemote":true}},{"node":{"__typename":"Job","id":"2274361344-1001134745498","title":"Devops инженер","text":"#вакансия #офис #DevSecOps #Москва\nДобрый день! \nМеня зовут Дмитрий и я ищу крутого спеца в команду Swordfish Security!!\n\nКомпания специализируется на сервисах запуска практик безопасной разработки ПО, создании центров компетенций для своих Клиентов, оказывает услуги аутсорсинга экспертизы в области безопасного ПО, а также разрабатывает собственные продуктовые решения для автоматизации ряда индустриальных задач в области DevSecOps.\nЭто интернациональная команда с офисами в Санкт-Петербурге, Москве, Софии (Болгария) и  Нью-Йорке (США).\nSwordfish Security является технологическим партнером ведущих игроков-разработчиков решений на рынке DevSecOps – Checkmarx, Sonatype, Netsparker, Wallarm.\n\nЧем будем заниматься вместо работы:\n• Работа с инструментами статического анализа кода (SAST), контроля open source компонент (OSA/SCA) и динамического анализа приложений (DAST);\n• Разбор результатов анализа SAST/SCA/DAST;\n• Анализ выявленных дефектов, проверка, приоритезация, поиск решения для их устранения;\n• Разработка специальных правил анализа исходного кода;\n• Участие в развитии выделенного сегмента или практики безопасной разработки;\n• Участие в проработке процесса Application Security вместе с командой.\n\nЧто хотим видеть в нашем Спеце: \n• Опыт разработки на Java или Python;\n• Умение читать и разбираться в чужом коде на различных языках программирования;\n• Понимание принципов процесса DevOps;\n• Уверенная работа с Unix системами;\n• Умение находить и эксплуатировать уязвимости;\n• Опыт работы с инструментами безопасности:\n  SAST (Checkmarx, Fortify, Solar Incode) - в приоритете;\n\nКруто Если ты знаешь и умеешь :\n* DAST (NetSparker, Acunetix, HP WebInspect, Burp Enterprise, Wallarm FAST);\n* OSA / SCA (Nexus IQ, WhiteSource, BlackDuck, Dependency Checker);\n* Опыт работы с широким инструментальным стеком разработки:\n* Teamcity/Jenkins/Gitlab CI,\n* Bitbucket/GitLab,\n* Jira/Confluence,\n* Nexus Repo/Jfrog Artifactory,\n* Docker/Kubernetes;\n\nЧем вознаградим:\n• Возможность развиваться и получать уникальный опыт;\n• Гибкий график рабочего времени;\n• «Белая» заработная плата от 100 000 до 180 000 руб. \n• Соц. Пакет и ДМС со стоматологией, компенсация спортивных занятий.\n\n\n\nИнтересно?? Пиши отвечу на все вопросы!!\n@tankograin\n\n—\n\n👉 Обсуждение вакансии в чате @devops_jobs","markup":[{"type":"hashtag","offset":0,"length":9,"data":"вакансия"},{"type":"hashtag","offset":10,"length":5,"data":"офис"},{"type":"hashtag","offset":16,"length":10,"data":"DevSecOps"},{"type":"hashtag","offset":27,"length":7,"data":"Москва"},{"type":"handle","offset":2227,"length":11,"data":"tankograin"},{"type":"handle","offset":2273,"length":12,"data":"devops_jobs"}],"date":"2020-07-02T09:54:11+00:00","link":"tg://resolve?domain=devops_jobs_feed&post=2169","tags":[{"name":"java"},{"name":"python"},{"name":"unix"},{"name":"jenkins"},{"name":"gitlab"},{"name":"docker"},{"name":"kubernetes"}],"cities":[{"code":"moscow"}],"allowsRemote":false}},{"node":{"__typename":"Job","id":"72525807616-1001054966032","title":"Mobile developer","text":"#вакансия #ReactNative #Одесса\n🔹Локация: Одесса,  #Odessa, р-н Пересыпи\n🔹Формат работы: #Офис / #удаленка\n🔹Занятость: Полная занятость, #Fulltime\n🔹Вилка $1700-$2500, дважды в год Performance Review.\n\n☀Вакансия Middle React Native developer\n🔹Описание вакансии:\n- 4+ years of experience in software development and JavaScript (ES6+).\n- 2+ years of experience with React Native.\n- Experience with commercial native applications development (IOS/Android).\n- Understanding and experience with building the full mobile application’s lifecycle.\n- Knowledge of architecture design and experience working knowledge of SOAP and RESTful integrations.\n- Experience with native SDKs for Android (Kotlin/Java) and/or iOS (Swift).\n- Intermediate written and spoken English.\n\n🔹Компания Attract Group.\n🔹Контакты:\n✏️телеграм @Niedova_Olga,\n✏️почта hr@attractgroup.com.","markup":[{"type":"hashtag","offset":0,"length":9,"data":"вакансия"},{"type":"hashtag","offset":10,"length":12,"data":"ReactNative"},{"type":"hashtag","offset":23,"length":7,"data":"Одесса"},{"type":"hashtag","offset":51,"length":7,"data":"Odessa"},{"type":"hashtag","offset":90,"length":5,"data":"Офис"},{"type":"hashtag","offset":98,"length":9,"data":"удаленка"},{"type":"hashtag","offset":139,"length":9,"data":"Fulltime"},{"type":"handle","offset":814,"length":13,"data":"Niedova_Olga"},{"type":"link","offset":837,"length":19,"data":"mailto:hr@attractgroup.com"}],"date":"2020-07-02T09:41:39+00:00","link":"tg://resolve?domain=mobile_jobs&post=69166","tags":[{"name":"mobile"},{"name":"android"},{"name":"ios"},{"name":"reactjs"},{"name":"javascript"},{"name":"soap"},{"name":"kotlin"},{"name":"java"},{"name":"swift"},{"name":"react-native"}],"cities":[{"code":"odessa"}],"allowsRemote":true}},{"node":{"__typename":"Job","id":"104203288576-1001089317451","title":"Qa engineer","text":"#вакансия #москва #полнаязанятость #qaengineer\n\nДолжность: Специалист по тестированию #QA_engineer\nКомпания: Selecty IT (аутсорс)\nГород:  #Москва\nЗП: до 170к на руки\nКонтакты: @BekBuzz , sergei.bekbuzarov@selecty.ru\nЗадачи - ручное и автоматизированное тестирование.\n\nФункциональные требования:\n\nOracle DB: SQL - сложные запросы, PL SQL - желательно знать основы (данный пункт является обязательным требованием)\nООП (преимущественно Java) - желательно знать как минимум основы\nSoupUI\nWeb-services (SOAP, REST)\nJira, Confluence, ALM\n\nОбработка большого кол-ва информации за короткие сроки\nКоммуникабельность, общительность, стрессоустойчивость\nЖелателен опыт работы с SAS MA/RTDM (но не критичен)\nОпыт в тестировании от 2 лет.\nНаличие сертификатов приветствуется (ISTQB и пр.). \n\nУслoвия:\n\nОфис в г. Москва;\nИнтeрeсныe и нeтривиaльныe зaдaчи;\nГибкий грaфик рaбoты (планируется переход на 3 дня в офисе, 2 дома);\nВoзмoжнoсть влиять нa всё тo, чтo тeбe нe нрaвится;\nДoстoйнoe вoзнaгрaждeниe и oтсутствиe кризисa;\nOфициaльнoe oфoрмлeниe нa кoмпaнию-интeгрaтoрa.","markup":[{"type":"hashtag","offset":0,"length":9,"data":"вакансия"},{"type":"hashtag","offset":10,"length":7,"data":"москва"},{"type":"hashtag","offset":18,"length":16,"data":"полнаязанятость"},{"type":"hashtag","offset":35,"length":11,"data":"qaengineer"},{"type":"hashtag","offset":86,"length":12,"data":"QA_engineer"},{"type":"hashtag","offset":138,"length":7,"data":"Москва"},{"type":"handle","offset":176,"length":8,"data":"BekBuzz"},{"type":"link","offset":187,"length":28,"data":"mailto:sergei.bekbuzarov@selecty.ru"}],"date":"2020-07-02T09:32:30+00:00","link":"tg://resolve?domain=qa_jobs&post=99376","tags":[{"name":"qa"},{"name":"oracle"},{"name":"sql"},{"name":"java"},{"name":"web"},{"name":"soap"},{"name":"rest"},{"name":"sas"}],"cities":[{"code":"moscow"}],"allowsRemote":false}},{"node":{"__typename":"Job","id":"104201191424-1001089317451","title":"Qa инженер","text":"#вакансия #QA #Java #QAAutomation #Москва #офис \n\nВакансия: QA Lead (Тест-Менеджер)\nГород: Москва м. Технопарк \nЗарплата: от 250 000 рублей до 290 000 рублей на руки\nФормат: офис, полный день, полная занятость\nКомпания Innovative People \n\n🕘 Чем предстоит заниматься:\n• планирование тестирования;\n• выстраивание процессов тестирования среди 8 команд с упором на автоматизацию;\n• выстраивать CI/CD проекта;\n• налаживание взаимодействия QA инженеров в нескольких командах;\n• поддерживать и развивать разработанные решения по автоматизации;\n• исследовать новые технологии и внедрять их на проекте;\n• принятие решений о внедрении / обновлении программного обеспечения.\n\n🕒 От кандидата ожидаем:\n• опыт в тестировании от 4х лет\n• опыт в автотестировании от 3х лет\n• опыт руководства группой тестировщиков от 2х лет\n• практический опыт применения практик тест-дизайна\n• умение проектировать тест-кейсы и подготавливать тестовые данные для тестирования\n• хорошие знание Java, библиотек\n• уверенное использование и понимание как работает под капотом Selenium Webdriver (Selenide и Appium для мобильных платформ)\n• опыт написания собственного фреймворка\n• опыт работы в unix системах\n• опыт работы с API (Soap, Rest)\n• опыт использование git\n• опыт использование CI (желательно, но не обязательно Jenkins)\n• опыт работы с Docker\n• опыт составления запросов SQL\n• опыт управления непрямыми (функциональными) подчиненными\n• умение контролировать несколько проектов одновременно\n• умение мотивировать команду, опыт управления рисками, мониторинг эффективности процессов\n\n🕧 Предлагаем:\n• все по ТК РФ\n• ДМС со стоматологией, программа лояльности\n• Macbook \n• адекватное руководство и лояльные процессы\n• большое комьюнити, классные команды\n• помогаем с релокацией!\n\nРезюме и вопросы @Priboch","markup":[{"type":"hashtag","offset":0,"length":9,"data":"вакансия"},{"type":"hashtag","offset":10,"length":3,"data":"QA"},{"type":"hashtag","offset":14,"length":5,"data":"Java"},{"type":"hashtag","offset":20,"length":13,"data":"QAAutomation"},{"type":"hashtag","offset":34,"length":7,"data":"Москва"},{"type":"hashtag","offset":42,"length":5,"data":"офис"},{"type":"handle","offset":1771,"length":8,"data":"Priboch"}],"date":"2020-07-02T09:23:09+00:00","link":"tg://resolve?domain=qa_jobs&post=99374","tags":[{"name":"qa"},{"name":"java"},{"name":"selenium"},{"name":"unix"},{"name":"soap"},{"name":"rest"},{"name":"git"},{"name":"jenkins"},{"name":"docker"},{"name":"sql"}],"cities":[{"code":"moscow"}],"allowsRemote":false}},{"node":{"__typename":"Job","id":"72521613312-1001054966032","title":"Android developer","text":"#вакансия #работа #Android #Kotlin #релокация #работавофисе\nAndroid developer📱\n\nГород: Санкт-Петербург\nФормат работы: офис (возможность работать удаленно первое время)\nЗанятость: полная\nЗарплатная вилка: от 140 000 до 170 000;\n\n💻Что нужно делать:\n- Разработка и поддержка приложений для Android (Kotlin);\n- Работа с серверными запросами (REST APi);\n- Разработка архитектуры мобильных приложений (MVC / MVVM / Clean / MVP);\n- Участие в решении задач, связанных с бизнес-логикой;\n- Работа в команде;\n- Участие в планировании (SCRUM).\n\n📋Требования:\n- Уверенные знание Android SDK, Android Architecture Components;\n- Уверенные знания Kotlin/Java;\n- Понимать принципы проектирования SOLID;\n- Знание сетевых протоколов и технологий (HTTP(S), REST API, JSON);\n- Знание и понимание работы WebSocket;\n- Способность самостоятельно анализировать различные форматы передачи данных и определять их структуру;\n- Разбираться с непростыми архитектурными задачами и придумывать интеграционные решения.\n\nПо условиям: оформление по ТК РФ, ДМС после испытательного срока, корпоративные курсы (скорочтение, разработка, английский и пр), развитая корпоративная культура, молодой коллектив. Помогаем с релокацией.\n\nПо всем вопросам: @kvikka20","markup":[{"type":"hashtag","offset":0,"length":9,"data":"вакансия"},{"type":"hashtag","offset":10,"length":7,"data":"работа"},{"type":"hashtag","offset":18,"length":8,"data":"Android"},{"type":"hashtag","offset":27,"length":7,"data":"Kotlin"},{"type":"hashtag","offset":35,"length":10,"data":"релокация"},{"type":"hashtag","offset":46,"length":13,"data":"работавофисе"},{"type":"handle","offset":1213,"length":9,"data":"kvikka20"}],"date":"2020-07-02T09:12:47+00:00","link":"tg://resolve?domain=mobile_jobs&post=69162","tags":[{"name":"mobile"},{"name":"android"},{"name":"kotlin"},{"name":"rest"},{"name":"mvvm"},{"name":"java"},{"name":"json"},{"name":"websocket"}],"cities":[],"allowsRemote":true}}]}}},"context":{}}