{"hash":"f5f6bf98bd95e769321482904cbbd488f77922fd","data":{"records":{"id":"docker","name":"docker","belongsTo":{"totalCount":182,"pageInfo":{"totalPages":19,"currentPage":13},"edges":[{"node":{"__typename":"Job","id":"1709178880-1001091028994","title":"Java разработчик","text":"Ищем разработчика на Java (HyperLedger) на постоянную занятость на удаленной основе в команду http://www.proleum.pro \n\nОт соискателя ожидается: \n\n- знание REST, HTTP, JSON;\n- умение создавать и  оптимизировать API;\n- умение писать тесты;\n- опыт работы с SQL- и NoSQL-базами данных;\n- знание и умение работать с Git;\n- знакомство с docker;\n- уверенный пользователь Linux;\n- знание и базовый опыт работы с Hyperledger Fabric;\n- принципы работы сетей (TCP/UDP, DNS, gRPC и http, маршрутизация/инкапсуляция, как сети связываются между собой и т.д.).\n\nОформление по законадательству РФ. Зарплата 70-200кр белая по результатам собеседования и зависит от уровня соискателя.\n\nТалантливый разработчик, найдись! Напиши в телеграм @soloway или на почту solo@proleum.pro и приходи в наш дружный коллектив совершать революцию на рынке нефтепродуктов!","markup":[{"type":"link","offset":94,"length":22,"data":"http://www.proleum.pro"},{"type":"handle","offset":720,"length":8,"data":"soloway"},{"type":"link","offset":742,"length":16,"data":"mailto:solo@proleum.pro"}],"date":"2020-06-18T17:01:52+00:00","link":"tg://resolve?domain=jvmjobs&post=1630","tags":[{"name":"java"},{"name":"jvm"},{"name":"rest"},{"name":"json"},{"name":"sql"},{"name":"nosql"},{"name":"git"},{"name":"docker"},{"name":"linux"},{"name":"dns"}],"cities":[],"allowsRemote":true}},{"node":{"__typename":"Job","id":"2222981120-1001134745498","title":"Devops engineer","text":"#monitoring #devops  #вакансия #skuvault\n#remote\n\nSkuVault.com (суровая SaaS система управления складским учетом на американском рынке, ищет в команду Lead DevOps Engineer.\n\nВилка: $4000 - $5800\nЗанятость: полная (fulltime)\nРабота: удаленка или работа в офисе в Уфе (при желании, ходить никто не заставляет)\nКому писать:  @eskeemo / @maratskuvault\nОбязанности: доброта, профессионализм, проактивность, адекватность.\n\nСтек:\n\n- Jenkins, Terraform, Salt, Pipelines, Docker, influx (grafana, kibana), telegraf, elastalert, .netcore, azure\n\nХотим:\n\n- Provide environments that developers use working uninterrupted;\n- Troubleshoot together with developers;\n- Setup and deploy telemetry;\n- Support and help with production releases, as well as gather metrics and logs that signal that we have no issues;\n- Overall be proactive about telemetry and alarms on app / server states;\n- Help Azure get better, when it starts feeling blue and nauseous;\n- Leadership/Supervisor: oversee and guide all activities of the junior DevOps teams. The Head of DevOps leads the design, build, and operational management of highly secure and scalable sites/software for the business and works tirelessly to guarantee the reduction or removal of bottlenecks and inefficiencies in the DevOps department and engineering department as a whole.\n- As the leader of the DevOps department, the Head of DevOps promotes, documents, and implements systems infrastructure best practices, building tools that allow the department to develop and deploy efficient modules for our SaaS.\n- Collaboration/Support: The role of the Head of DevOps at SkuVault as expected is a highly collaborative one. In your collaborative capacity, you'll work hand-in-hand with the cross-functional feature teams through all technical operations and works to reduce or eliminate any repetitive or manual tasks.\n\n—\n\n👉 Обсуждение вакансии в чате @devops_jobs","markup":[{"type":"hashtag","offset":0,"length":11,"data":"monitoring"},{"type":"hashtag","offset":12,"length":7,"data":"devops"},{"type":"hashtag","offset":21,"length":9,"data":"вакансия"},{"type":"hashtag","offset":31,"length":9,"data":"skuvault"},{"type":"hashtag","offset":41,"length":7,"data":"remote"},{"type":"link","offset":50,"length":12,"data":"http://SkuVault.com"},{"type":"handle","offset":322,"length":8,"data":"eskeemo"},{"type":"handle","offset":333,"length":14,"data":"maratskuvault"},{"type":"handle","offset":1885,"length":12,"data":"devops_jobs"}],"date":"2020-06-18T12:05:37+00:00","link":"tg://resolve?domain=devops_jobs_feed&post=2120","tags":[{"name":"jenkins"},{"name":"docker"},{"name":"azure"}],"cities":[],"allowsRemote":true}},{"node":{"__typename":"Job","id":"2220883968-1001134745498","title":"Devops engineer","text":"#вакансия #devops #fulltime #НижнийНовгород\n\nВакансия: DevOps Engineer\nКомпания: Natera  ( www.natera.com)\nЛокация: Нижний Новгород\nФормат работы: офис и удаленный формат\nЗанятость: полная\nЗарплатная вилка: от 2500 до 3200 $ до вычета.  \nКонтакт:@zKITO\n\nВ продуктовую компанию ищем коллегу. \n\n\n      BENEFITS\nSalary $ 2500-3200 gross.  \nStocks\nPossibility of remote work with flexible working hours\nFree lunch, snacks etc in office\nMacbook Pro + monitors\nComfortable and cozy office with table tennis, playstation etc\nPossibility of business trips to the USA California\nFull compliance with labour laws.\n\n\nKNOWLEDGE, SKILLS, AND ABILITIES\n\n  Mandatory\nExperience in Linux Ubuntu administration.\nPractical experience managing applications deployed using AWS/GCP or Docker.\nAbility to read and understand Java code.\nStrong ability to troubleshoot complex issues ranging from system resources to application stack traces.\n\n  Nice to have experience with\nKubernetes, Rancher\nPython/Java\nTerraform\nAtlassian applications stack\ndatabases and SQL\n  \n \nPRIMARY RESPONSIBILITIES\n\nDevelop, configure and manage tools for fast and reliable deployments of our software.\nParticipate in operations efforts and be the point person for infrastructural activities.\nBuild tools for monitoring our infrastructure and resolve any issues with instances running in production. \nDevelop automation and CI/CD processes to enable teams to build, test, deploy, manage, configure, scale and monitor their applications using the latest technologies such as Docker, Kubernetes, Terraform and others.\nParticipate in architectural decisions to help improve reliability and scalability of our software.\nHelp configure and manage development tools such as Atlassian Bitbucket, Bamboo, Artifactory and others.\n\n—\n\n👉 Обсуждение вакансии в чате @devops_jobs","markup":[{"type":"hashtag","offset":0,"length":9,"data":"вакансия"},{"type":"hashtag","offset":10,"length":7,"data":"devops"},{"type":"hashtag","offset":18,"length":9,"data":"fulltime"},{"type":"hashtag","offset":28,"length":15,"data":"НижнийНовгород"},{"type":"link","offset":91,"length":14,"data":"http://www.natera.com"},{"type":"handle","offset":246,"length":6,"data":"zKITO"},{"type":"handle","offset":1810,"length":12,"data":"devops_jobs"}],"date":"2020-06-18T11:25:45+00:00","link":"tg://resolve?domain=devops_jobs_feed&post=2118","tags":[{"name":"linux"},{"name":"ubuntu"},{"name":"amazon-web-services"},{"name":"google-cloud-platform"},{"name":"docker"},{"name":"java"},{"name":"kubernetes"},{"name":"python"},{"name":"sql"}],"cities":[{"code":"nice"},{"code":"nizhny-novgorod"}],"allowsRemote":true}},{"node":{"__typename":"Job","id":"17040408576-1001110946746","title":"Js разработчик","text":"#вакансия  #backend #nodejs #javascript #удаленка #js #remote\n\nПозиция: Backend developer (Middle)\nКомпания: paradigmfund.io - инвестиционный фонд с офисами в Москве и Токио.\nФормат работы: Удаленка \nЗанятость: Полная с графиком работы (в выходные отдыхаем, в будни работаем по графику, гибкое начало рабочего дня)\nЗарплатная вилка: 110 000-150 000 руб. на руки\nЗадача: Участвовать в разработке новых и текущих it продуктов компании (криптовалютный кошелек, торговая биржа, обменник валют). \n\nТребования:\n- Опыт программирования на чистом JS не менее 3-х лет\n- Опыт программирования под Node.js не менее года\n- Опыт работы с серверами на Ubuntu\n- Знание SQL и особенностей PostgreSQL\n- Умение оптимизировать тяжелые запросы к базе\n- Хороший навык чтения чужого кода и модернизации его\n- Навык анализа новых структур данных и чужих API\n- Навык работы с Git\n- Гибкость, отзывчивость и хорошие soft skills, мы ценим дружелюбную и продуктивную среду, которую мы создали в команде, и надеемся, что вы гармонично в нее впишетесь.\n\nЖелательно:\n- Знание html, css, vue.js\n- Навык работы с docker'ами\n- Умение настраивать NGINX\n- Навык написание unit тестов\n- Навык поиска утечек памяти\n\nПомимо всего вышесказанного, у нас вы получите:\n- Работа в дружной команде, как разработчиков так и управленцев. \n- Профессиональное развитие и новые знания касаемо blockchain технологий.\n- Возможность релокации в офис в Москве.\n- Понятные процессы разработки (Agile, двухнедельные спринты, работаем в Jira и Confluence). \n\nКонтакты:\nМы стремимся постоянно автоматизировать и улучшать наши процессы, поэтому отклик на вакансию просим оставлять через форму: https://forms.gle/L9hWmD18Zs9kMo2E8\nС подходящими кандидатами свяжемся в течение недели, если возникли какие то вопросы, с радостью отвечу на них в лс @grshabl\n\n—\n\n👉 Обсуждение вакансии в чате @javascript_jobs","markup":[{"type":"hashtag","offset":0,"length":9,"data":"вакансия"},{"type":"hashtag","offset":11,"length":8,"data":"backend"},{"type":"hashtag","offset":20,"length":7,"data":"nodejs"},{"type":"hashtag","offset":28,"length":11,"data":"javascript"},{"type":"hashtag","offset":40,"length":9,"data":"удаленка"},{"type":"hashtag","offset":50,"length":3,"data":"js"},{"type":"hashtag","offset":54,"length":7,"data":"remote"},{"type":"link","offset":109,"length":15,"data":"http://paradigmfund.io"},{"type":"link","offset":1636,"length":35,"data":"https://forms.gle/L9hWmD18Zs9kMo2E8"},{"type":"handle","offset":1787,"length":8,"data":"grshabl"},{"type":"handle","offset":1830,"length":16,"data":"javascript_jobs"}],"date":"2020-06-18T11:24:11+00:00","link":"tg://resolve?domain=javascript_jobs_feed&post=0","tags":[{"name":"javascript"},{"name":"nodejs"},{"name":"ubuntu"},{"name":"sql"},{"name":"postgresql"},{"name":"git"},{"name":"html"},{"name":"css"},{"name":"vuejs"},{"name":"docker"},{"name":"nginx"}],"cities":[{"code":"tokyo"}],"allowsRemote":true}},{"node":{"__typename":"Job","id":"348127232-1001352129329","title":"Golang разработчик","text":"#вакансия #Бэкенд, #СреднийMiddle #Golang #Docker #Restful #webservices #goразработчик #goразраб #разработчик#участникСколково \n\nGo разработчик \nОт 100 000 ₽ - 150 000\n\nUNIM  — первая цифровая диагностическая лаборатория в России. \n\n🧑🏽‍💻Мы приглашаем в команду опытного разработчика, способного на многое, а точнее на: \n* Разработку и проектирование новых сервисов на Go\n* Поддержку и рефакторинг существующих сервисов на Go\n* Написание автотестов (Postman, unit-тесты)\n* Интеграцию с внешними информационными системами\n* Участие в разработке архитектурных решений\n\n💥 Наш гуру обладает знаниями:\n* Опыт разработки и поддержки сервисов на Go\n* Опыт работы с другим ЯП\n* Понимание RESTful, умение работать над OpenAPI спецификациями, использовать кодогенераторы (oapi-codegen, go-swagger)\n* Опыт работы с асинхронными очередями сообщений (MQ)\n* Опыт работы с Docker и docker-compose\n* Базовое понимание принципов чистой архитектуры\n* Навыки работы в linux, необходимые для разработки\n\n 🍪   Плюшки:\n* Конкурентная заработанная плата;\n* Возможность работать home office или в удобном офисе в 5 минутах от м. Курская на выбор;\n* Оформление по Трудовому Кодексу РФ, полное соблюдение трудового законодательства, оплачиваемые отпуска и больничные листы, «белая» заработная плата.\n* Возможность выбора удобного графика работы: начало рабочего дня с 8:00 до 12:00\n\nоткликнуться - http://hrcommunity.sk.ru/skolkovo-job","markup":[{"type":"hashtag","offset":0,"length":9,"data":"вакансия"},{"type":"hashtag","offset":10,"length":7,"data":"Бэкенд"},{"type":"hashtag","offset":19,"length":14,"data":"СреднийMiddle"},{"type":"hashtag","offset":34,"length":7,"data":"Golang"},{"type":"hashtag","offset":42,"length":7,"data":"Docker"},{"type":"hashtag","offset":50,"length":8,"data":"Restful"},{"type":"hashtag","offset":59,"length":12,"data":"webservices"},{"type":"hashtag","offset":72,"length":14,"data":"goразработчик"},{"type":"hashtag","offset":87,"length":9,"data":"goразраб"},{"type":"link","offset":1376,"length":37,"data":"http://hrcommunity.sk.ru/skolkovo-job"}],"date":"2020-06-18T10:42:05+00:00","link":"tg://resolve?domain=gogetajobfeed&post=332","tags":[{"name":"go"},{"name":"docker"},{"name":"swagger"},{"name":"linux"},{"name":"docker-compose"}],"cities":[],"allowsRemote":false}},{"node":{"__typename":"Job","id":"103155761152-1001089317451","title":"Qa инженер","text":"#вакансия #москва #полнаязанятость #мегафон #bigdata #покаработаемиздомапотомвофис\n\nМы ищем QA-инженера в команду для тестирования внутренних и внешних сервисов.\n\nЧем предстоит заниматься:\n\n- Разработка модулей интеграционных тестов для наших сервисов;\n- Подготовка тестовых данных (работа с hive/oracle);\nРабота с SQL/HiveQL (Oracle/Hive);\n- Написание алгоритмов работы с данными, в рамках тестирования;\n- Взаимодействие с разработчиками и аналитиками в процессе проектирования и развития;\n- Выявление, фиксация и контроль багов в баг-трекере (Jira);\n- Ведение документации по тестированию (confluence);\n\nИспользуемые технологии:\nДля разработки – Play, Spring, Flask, Scala, Java (8+), Python(3+);\nДля тестирования: Java/Scala & Maven + TestNG + Google Guice;\nДля работы сервисов – Docker;\nДля работы с кодом – GitLab;\nДля работы с задачами – Jira.\n\nМы ожидаем от вас:\n- Опыт работы в автоматизации тестирования от 1 года;\n- Знание структур данных и алгоритмов;\n- Уверенное знание Java;\n- Уверенное знание фреймворков TestNG/JUnit;\n- Опыт работы в автоматизации тестирования;\n- Опыт работы с реляционными СУБД (Oracle/PostgreSQL);\n- Умение писать хорошо читаемый код;\n- Умение работать с VCS (Git) и сборщиками (maven).\n\nБудет плюсом:\n- Опыт в области тестирования приложений по работе с большими данными;\n- Опыт в нагрузочном тестировании;\n- Опыт работы с Spring/Google Guice;\n- Опыт конфигурирования CI/CD (GitLab);\n- Умение писать код на Scala;\n- Опыт работы с Hadoop/Spark.\n\nЧто мы предлагаем:\n- Внутреннее и внешнее обучение в России (Coursera, New Prolab, Geek Brains и др.);\n- Новый офис в центре: 7 минут пешком от м. Маяковская/Новослободская;\n- Компенсация затрат на мобильную связь;\nДМС (включая стоматологию);\n- Частичная компенсация спорта;\n- Возможность участия в корпоративных спортивных командах: футбол, волейбол, баскетбол, хоккей и бег\n- Регулярные митапы в офисе с внешними спикерами из разных областей.\n\n#мегафон #bigdata\nКонтакты: Svetlana.stakanova@megafon.ru или @svetastakanova","markup":[{"type":"hashtag","offset":0,"length":9,"data":"вакансия"},{"type":"hashtag","offset":10,"length":7,"data":"москва"},{"type":"hashtag","offset":18,"length":16,"data":"полнаязанятость"},{"type":"hashtag","offset":35,"length":8,"data":"мегафон"},{"type":"hashtag","offset":44,"length":8,"data":"bigdata"},{"type":"hashtag","offset":53,"length":29,"data":"покаработаемиздомапотомвофис"},{"type":"hashtag","offset":1926,"length":8,"data":"мегафон"},{"type":"hashtag","offset":1935,"length":8,"data":"bigdata"},{"type":"link","offset":1954,"length":29,"data":"mailto:Svetlana.stakanova@megafon.ru"},{"type":"handle","offset":1988,"length":15,"data":"svetastakanova"}],"date":"2020-06-18T09:58:49+00:00","link":"tg://resolve?domain=qa_jobs&post=0","tags":[{"name":"qa"},{"name":"hive"},{"name":"oracle"},{"name":"sql"},{"name":"playframework"},{"name":"spring"},{"name":"flask"},{"name":"scala"},{"name":"java"},{"name":"python"},{"name":"maven"},{"name":"docker"},{"name":"gitlab"},{"name":"junit"},{"name":"postgresql"},{"name":"git"},{"name":"hadoop"}],"cities":[{"code":"moscow"}],"allowsRemote":false}},{"node":{"__typename":"Job","id":"1704984576-1001091028994","title":"Java разработчик","text":"#вакансия  #офис #удалёнка #DevOps #Java\n\nкомпания: #JTSOFT\nгород: #Москва\nвилка: 200-260+ на рук\nконтакты: @reanimatsiya\n\n\n🧑🏻‍💻Я ищу ведущего Java-разработчика со знанием Spring Boot и DevOps практик в компанию JTSOFT.\n\nJTSOFT - это аутсорсинговая IT компания, которая уже 7 лет специализируемся на разработке программных решений в сферах b2b, b2g. \n\nКомпания имеет статус IBM Premier Business Partner и работает практически со всей линейкой IBM. \nКоманды JTSOFT внедряли Универсальную Электронную Карту, разрабатывали приложения и формы для банка «Возрождение», а также реализовали проект по визуализации и контролю системы БД IBM Tivoli.\n\n🤝Вам будут рады при:\n\n✔️Опыте работы не менее 5 лет на Java Core, Java 8+\n✔️Уверенном знании фреймворков Spring\n✔️Знании принципов и шаблонов проектирования\n✔️Опыте профилирования, оптимизации и решения performance-проблем Java-приложений\n✔️Опыте проектирования API (REST, GRPC и т.д.)\n✔️Опыте работы с разными системами оркестрации (Kubernetes, OpenShift, Mesos/Marathon);\n✔️Знании Apache Kafka, MongoDB, Elasticsearch, Docker\n✔️Опыте написания инфраструктурных скриптов на Ansible\n\n\n➕Огромным плюсом будет:\n\n▪️Опыт работы с реляционными БД;\n▪️Опыт работы с SOAP;\n▪️Знакомство с методологией Agile, Scrum.\n\n\n🍪 Компания предоставляет все необходимое:\n\n👌🏻ТК РФ\n👌🏻Ваш вклад в разработку всегда будет учтен, так как работа происходит в небольших автономных группах, обеспечивающих полный цикл разработки.\n👌🏻Компания предоставляет современное и удобное оборудование\n👌🏻Комфортный офис в бизнес-центре \"Технопарк\", в двух минутах ходьбы от м. Технопарк или удаленно при согласовании с командой","markup":[{"type":"hashtag","offset":0,"length":9,"data":"вакансия"},{"type":"hashtag","offset":11,"length":5,"data":"офис"},{"type":"hashtag","offset":17,"length":9,"data":"удалёнка"},{"type":"hashtag","offset":27,"length":7,"data":"DevOps"},{"type":"hashtag","offset":35,"length":5,"data":"Java"},{"type":"hashtag","offset":52,"length":7,"data":"JTSOFT"},{"type":"hashtag","offset":67,"length":7,"data":"Москва"},{"type":"handle","offset":108,"length":13,"data":"reanimatsiya"}],"date":"2020-06-18T08:57:14+00:00","link":"tg://resolve?domain=jvmjobs&post=1626","tags":[{"name":"java"},{"name":"jvm"},{"name":"spring"},{"name":"rest"},{"name":"kubernetes"},{"name":"apache"},{"name":"kafka"},{"name":"mongodb"},{"name":"elasticsearch"},{"name":"docker"},{"name":"ansible"},{"name":"soap"},{"name":"spring-boot"}],"cities":[{"code":"moscow"}],"allowsRemote":true}},{"node":{"__typename":"Job","id":"91179974656-1001067529236","title":"Python разработчик","text":"#job #вакансия  #dataengineer #remote\n\nВсем привет! Мы - PeakData AG ищем Data Engineer.\n\nPosition: Data Engineer\nCompany: Peakdata (http://peakdata.ch/)\nLocation: remote.\nSalary range in USD: 2,500 - 3,200 USD/month (gross)\nSalary range in RUB: 180 000 – 230 000 Rub/month (na ruki)\nContact: mfeldman@peakdata.ch\n\nWe are young and ambitious startup in the field of AI and Data Science looking for a  join our team. We are active in the area of web mining and Language Processing. Are you up for the challenge? \n\nResponsibilities: \n • Be able to process and integrate disparate data from different data sources\n • Be able to think with creativity, propose and lead development of data crunching software modules (mostly text analysis. NLP big plus)\n • Be able to work with version control system (Git)\n • Be able to understand software architecture and the existing workflow\n • Be able to clearly communicate in English\n • Be able to work independently in the remote work setting\n • Be able to overlap with our business hours for a great collaboration. \n\nRequirements:\n • At least 1 year of professional experience in data engineering/machine learning\n • Experienced in the relevant Python and its libraries; Especially appreciated is the knowledge of the following libraries: pandas, request, beatifulsoup, lxml, scrappy, selenium, joblib\n • Experience with backend development in Python - BIG PLUS\n • Bachelor degree in computer science –PLUS\n • Good knowledge of Docker - PLUS\n • Good documentation skills\n • Good written and spoken English\n • Strong sense of ownership and responsibility for code quality that follows best practices\n • Strong coding, problem-solving, and debugging skills\n • Awesome communication, collaboration, and self-management skills. \n\nWhat we offer:\n • Very interesting and innovative data product which includes real-world web data at scale (Tera to Petabytes)\n • Competitive salary\n • Highly professional and innovative team (most of our team members have either Masters or PhD)\n • Flexible work environment with opportunity to work remotely at  pajamas from your kitchen and still be part of interesting and innovative project 🙂 If you feel like you might be a good fit please drop us a message at mfeldman@peakdata.ch","markup":[{"type":"hashtag","offset":0,"length":4,"data":"job"},{"type":"hashtag","offset":5,"length":9,"data":"вакансия"},{"type":"hashtag","offset":16,"length":13,"data":"dataengineer"},{"type":"hashtag","offset":30,"length":7,"data":"remote"},{"type":"link","offset":133,"length":19,"data":"http://peakdata.ch/"},{"type":"link","offset":293,"length":20,"data":"mailto:mfeldman@peakdata.ch"},{"type":"link","offset":2231,"length":20,"data":"mailto:mfeldman@peakdata.ch"}],"date":"2020-06-18T08:10:06+00:00","link":"tg://resolve?domain=python_jobs&post=0","tags":[{"name":"python"},{"name":"web"},{"name":"nlp"},{"name":"git"},{"name":"pandas"},{"name":"selenium"},{"name":"docker"},{"name":"machine-learning"}],"cities":[],"allowsRemote":true}},{"node":{"__typename":"Job","id":"103138983936-1001089317451","title":"Qa engineer","text":"#вакансия #москва #полнаязанятость #qaengineer #auto #manual\nКомпания: #Mетрквадратный www.m2.ru\nЛокация: м.Белорусская \nФормат работы: офис (удаленная до сентября)  \nЗ/п: от 120к - 180к на руки\nКонтакты: @maxdmitrov\n\nЭто экосистема недвижимости, которая помогает клиентам решать любые жилищные вопросы: от поиска вариантов и оформления сделки до организации ремонта и переезда в новую квартиру. Мы также создаем решения для партнёров и профессиональных участников рынка недвижимости.\n\nНаш стэк:\n• Java\n • Node.js\n • React, TypeScript\n • Kafka, ElasticSearch, gRPC\n • Docker\n\nЧем предстоит заниматься:\n • анализировать и тестировать требования к разрабатываемым приложениям;\n • писать приемочные критерии к пользовательским историям;\n • проводить функциональное, регрессионное и smoke тестирование;\n • заниматься задачами по автоматизации тестирования.\n\nЧего мы ждем:\n • глубокое понимание процессов тестирования и разработки ПО;\n • опыт интеграционного тестирования:\n    - системная интеграция;\n    - компонентная интеграция\n • опыт тестирования АРI;\n • опыт автоматизации тестирования на любом стеке.\n\nБудет плюсом\n • опыт исследовательского тестирования;\n • опыт тестирования ПО с микросервисной архитектурой.\n\nМы предлагаем:\n • белая конкурентная ЗП, официальное оформление;\n • гибкий график работы;\n • ДМС, компенсация фитнеса, льготная ставка по ипотеке;\n • комфортный офис в БЦ «Белая площадь» (минута от метро): лаундж-зоны, бариста, фрукты.","markup":[{"type":"hashtag","offset":0,"length":9,"data":"вакансия"},{"type":"hashtag","offset":10,"length":7,"data":"москва"},{"type":"hashtag","offset":18,"length":16,"data":"полнаязанятость"},{"type":"hashtag","offset":35,"length":11,"data":"qaengineer"},{"type":"hashtag","offset":47,"length":5,"data":"auto"},{"type":"hashtag","offset":53,"length":7,"data":"manual"},{"type":"hashtag","offset":71,"length":15,"data":"Mетрквадратный"},{"type":"link","offset":87,"length":9,"data":"http://www.m2.ru"},{"type":"handle","offset":205,"length":11,"data":"maxdmitrov"},{"type":"bold","offset":485,"length":11,"data":""},{"type":"bold","offset":576,"length":26,"data":""},{"type":"bold","offset":853,"length":15,"data":""},{"type":"bold","offset":1103,"length":14,"data":""},{"type":"bold","offset":1212,"length":16,"data":""}],"date":"2020-06-18T07:20:58+00:00","link":"tg://resolve?domain=qa_jobs&post=0","tags":[{"name":"qa"},{"name":"java"},{"name":"nodejs"},{"name":"reactjs"},{"name":"typescript"},{"name":"kafka"},{"name":"elasticsearch"},{"name":"docker"}],"cities":[{"code":"moscow"}],"allowsRemote":true}},{"node":{"__typename":"Job","id":"91154808832-1001067529236","title":"Python разработчик","text":"#вакансия #python #django #middle #senior #фултайм #Кипр #remote                                                                                                                                                                         Компания: Exness\nФормат работы: удаленная или релокация на Кипр (по желанию кандидата)\nЗанятость: полная\nЗарплатная вилка: от 3000 EUR (обсуждаем с кандидатами по итогам интервью)                                                                               \n🌟Кто мы?\nМы финтех компания, разрабатывающая B2B и B2C решения, с более чем 100 тысячами активных клиентов. Мы развиваемся и быстро движемся, ориентируясь на данные, мы всегда узнаем что-то новое о наших клиентах и находим новые способы сделать наш продукт более полезным и удобным для них. У нас есть 3 офиса: на Кипре, в Малайзии и Великобритании, более 600 сотрудников и 50 национальностей среди сотрудников.\n\n🤩Кого мы ищем?\nК нам в команду Identity & Access Management (IAM) нужен инженер, любящий backend, имеющий опыт разработки на Python и стремящийся к простым решениям сложных задач. Будет классно, наличие опыта построения микросервисной архитектуры, знание SQL, любовь к написанию unit тестов. \n\n🤗Чем предстоит заниматься?\nРазрабатывать новые и поддерживать старые сервисы, связанные с аутентификацией, авторизацией, верификацией и процедурами KYC. Участвовать в код ревью и командных активностях. Покрывать свой код unit тестами. \n\n🛠Наш стек технологий:\n -Python 3.x\n -Django, FastAPI, aiohttp\n -PostgreSQL, Redis\n -Kafka\n -Docker, Kubernetes, Rancher\n\n🔥Мы предлагаем:\nПри удаленном сотрудничестве:\n-Медицинское страхование для сотрудника и членов их семей;\n-Компенсация спорта;\n-Путешествие на Кипр, чтобы познакомиться со своей командой (раз в год).\nПри желании релокации на Кипр:\n-Релокационный пакет для нового сотрудника и его семьи (билеты, визы, разрешение на работу, корпоративная квартира на первый месяц и т. д.);\n-Корпоративный автомобиль Мини Купер S и парковка возле офиса или автобусные билеты;\n-Медицинское страхование для сотрудника и членов их семей;\n-Корпоративный фитнес-центр для сотрудников и их супругов;\n-Программа компенсации детского сада / школы;\n-Непрерывное профессиональное развитие, много интересных задач;\n-Отличный офис со свежевыжатыми соками, печеньем и лучшим видом на море из нашего собственного бара на крыше. \n\nНемного больше об Exness - https://clck.ru/N7aRd.\n\nЕсли тебе интересно, пишите в Telegram @sofia_tomashevich или на почту sofia.tomashevich@exness.com","markup":[{"type":"hashtag","offset":0,"length":9,"data":"вакансия"},{"type":"hashtag","offset":10,"length":7,"data":"python"},{"type":"hashtag","offset":18,"length":7,"data":"django"},{"type":"hashtag","offset":26,"length":7,"data":"middle"},{"type":"hashtag","offset":34,"length":7,"data":"senior"},{"type":"hashtag","offset":42,"length":8,"data":"фултайм"},{"type":"hashtag","offset":51,"length":5,"data":"Кипр"},{"type":"hashtag","offset":57,"length":7,"data":"remote"},{"type":"link","offset":2385,"length":21,"data":"https://clck.ru/N7aRd"},{"type":"handle","offset":2448,"length":18,"data":"sofia_tomashevich"},{"type":"link","offset":2480,"length":28,"data":"mailto:sofia.tomashevich@exness.com"}],"date":"2020-06-18T06:16:03+00:00","link":"tg://resolve?domain=python_jobs&post=0","tags":[{"name":"python"},{"name":"django"},{"name":"ms-access"},{"name":"sql"},{"name":"postgresql"},{"name":"redis"},{"name":"kafka"},{"name":"docker"},{"name":"kubernetes"}],"cities":[{"code":"sofia"}],"allowsRemote":true}}]}}},"context":{}}