{"hash":"f5f6bf98bd95e769321482904cbbd488f77922fd","data":{"records":{"id":"javascript","name":"javascript","belongsTo":{"totalCount":272,"pageInfo":{"totalPages":28,"currentPage":17},"edges":[{"node":{"__typename":"Job","id":"17054040064-1001110946746","title":"Js разработчик","text":"#вакансия #job #fulltime #frontend #спб #санкт_петербург\nВакансия: Frontend-разработчик\nКомпания: 4people https://the4people.com\nГород: Санкт-Петербург. ст.м. Обводный канал\nФормат работы: #офис\nЗанятость: #полная\nЗарплата : от 140 000 до 250 000 р. на руки💥\n\nПривет! Мы растем и активно развиваемся, поэтому ищем специалистов для работы в офисе нашей компании в Санкт-Петербурге. Это отличная возможность реализовать свои навыки и прокачаться ещё больше в команде профессионалов. Подробности в описании:\n\n🔷Задачи: \n- Разработка новых сервисов компании.\n- Оптимизация и поддержка текущих продуктов.\n- Наш стек: JavaScript, VueJS, YouTrack.\n\n🔷Добро пожаловать в нашу команду, если вы:\n- Имеете опыт разработки на JS.\n- Умеете использовать Git.\n- Знаете ООП, умеете применять на практике основные паттерны, не теряетесь при использовании объектно-ориентированного подхода в JS.\n- Знакомы с JS фреймворками (мы предпочитаем VueJS) либо являетесь гуру нативного JS.\n\n🔷Мы предлагаем:\n- Уровень заработной платы зависит от пожеланий и профессионально уровня кандидата.\n- Поездки на ИТ-конференции, митапы, учебные курсы за счет компании.\n- Возможность гибкого начала рабочего дня.\n- Бесплатные корпоративные обеды (шведский стол).\n- Абонемент в спорт зал за счет компании.\n\nБуду рада вопросам и резюме: \n✍️ @hrkaterina\n✉️ ekaterina.4people@gmail.com\n\n—\n\n👉 Обсуждение вакансии в чате @javascript_jobs","markup":[{"type":"hashtag","offset":0,"length":9,"data":"вакансия"},{"type":"hashtag","offset":10,"length":4,"data":"job"},{"type":"hashtag","offset":15,"length":9,"data":"fulltime"},{"type":"hashtag","offset":25,"length":9,"data":"frontend"},{"type":"hashtag","offset":35,"length":4,"data":"спб"},{"type":"hashtag","offset":40,"length":16,"data":"санкт_петербург"},{"type":"link","offset":106,"length":22,"data":"https://the4people.com"},{"type":"hashtag","offset":189,"length":5,"data":"офис"},{"type":"hashtag","offset":206,"length":7,"data":"полная"},{"type":"handle","offset":1305,"length":11,"data":"hrkaterina"},{"type":"link","offset":1320,"length":27,"data":"mailto:ekaterina.4people@gmail.com"},{"type":"handle","offset":1382,"length":16,"data":"javascript_jobs"}],"date":"2020-06-18T21:05:53+00:00","link":"tg://resolve?domain=javascript_jobs_feed&post=0","tags":[{"name":"javascript"},{"name":"vuejs"},{"name":"git"}],"cities":[],"allowsRemote":false}},{"node":{"__typename":"Job","id":"17052991488-1001110946746","title":"Javascript разработчик","text":"#вакансия\n\nФормат работы: удаленка\nЗанятость: проектная\nЗарплатная вилка: от 50 000 до 60 000 рублей в месяц\n\nОписание вакансии: Ищу pre-middle/middle frontend dev в проект https://sneaker.sale/ (стек vue/nuxt), делаем агрегатор скидок на обувь. \n\nОснова сайта уже готова, нужно пилить другие фичи, например, дорабатывать роутинг seo страниц и фильтры. Также в планах делать страницу избранное, отслеживание цены, блок интересного. \n\n• Спринты у нас недельные, общение по discord, доска в Trello\n\n• Работы много, можем легко загрузить на 40 часов в неделю\n\n• В команде 2 backend и 1 frontend разработчик\n\n\nНазвание компании: SNEAKERSALE (https://sneaker.sale)\nКонтакты: @olegshchurin\n\n—\n\n👉 Обсуждение вакансии в чате @javascript_jobs","markup":[{"type":"hashtag","offset":0,"length":9,"data":"вакансия"},{"type":"link","offset":173,"length":21,"data":"https://sneaker.sale/"},{"type":"link","offset":638,"length":20,"data":"https://sneaker.sale"},{"type":"handle","offset":670,"length":13,"data":"olegshchurin"},{"type":"handle","offset":718,"length":16,"data":"javascript_jobs"}],"date":"2020-06-18T21:05:33+00:00","link":"tg://resolve?domain=javascript_jobs_feed&post=0","tags":[{"name":"javascript"},{"name":"vuejs"},{"name":"seo"}],"cities":[],"allowsRemote":true}},{"node":{"__typename":"Job","id":"17051942912-1001110946746","title":"Js разработчик","text":"#вакансия #удаленка #работа #js #javascript #разработчик\n\nГород и адрес офиса: Тель-Авив \nФормат работы: удаленка\nЗанятость: полная, гибкий график.\n\nЗарплатная вилка: 5500-6000$/мес. (Почасовая оплата 35$/час + ежемесячный бонус 250$)\n\nНалоги платите по месту жительства. ИП 6%. Если патент, то он зависит от места жительства. В Подмосковье 12 000 руб в год. В Москве 300 тыс. в год. Как сами оформите налоги, так и платите. \n\nИщу разработчика к нам в команду: израильский проект Luminati (https://luminati.io).  Full-Stack. Компания разрабатывает несколько продуктов, в том числе p2p vpn, видео cdn нового поколения http://holaspark.com/\nОфис в Тель-Авиве, работа удаленная! График свободный. Что нам нужно:\n\n • Knowledge in Node JS framework: ExpressJS, Promise - Experience with MongoDB \n- Creating RESTful web services/API’s using Node.js with or without framework assistance \n\n- JavaScript-based unit testing tools \n\n- Client-side browser technologies including JavaScript, CSS, and HTML \n\n- 1 year development experience in Node JS with a solid working knowledge of frameworks and architecture \n\n- 2+ year’s overall development experience using JavaScript and open web technologies \n\n- хороший английский язык, идеальная грамматика не обязательна \n\n • работа удаленная, 7-9 часов в день (по желанию)\n • зарплата от 35$/час (+фиксированный бонус 250$ ежемесячно), через полгода повышается\n • после того, как откроют границы и будут возможны перелёты - выезд в офис на заключение контракта (перед этим возможно заключение с электронной подписью), отель и перелет за счет компании, море под окном\n\nОтвечу на все вопросы:)\n\nИнстаграмм https://instagram.com/hola_better_internet\n\nРезюме сюда:  luda.hola@gmail.com\n\n—\n\n👉 Обсуждение вакансии в чате @javascript_jobs","markup":[{"type":"hashtag","offset":0,"length":9,"data":"вакансия"},{"type":"hashtag","offset":10,"length":9,"data":"удаленка"},{"type":"hashtag","offset":20,"length":7,"data":"работа"},{"type":"hashtag","offset":28,"length":3,"data":"js"},{"type":"hashtag","offset":32,"length":11,"data":"javascript"},{"type":"hashtag","offset":44,"length":12,"data":"разработчик"},{"type":"link","offset":490,"length":19,"data":"https://luminati.io"},{"type":"link","offset":617,"length":21,"data":"http://holaspark.com/"},{"type":"link","offset":1637,"length":42,"data":"https://instagram.com/hola_better_internet"},{"type":"link","offset":1695,"length":19,"data":"mailto:luda.hola@gmail.com"},{"type":"handle","offset":1749,"length":16,"data":"javascript_jobs"}],"date":"2020-06-18T21:04:51+00:00","link":"tg://resolve?domain=javascript_jobs_feed&post=0","tags":[{"name":"javascript"},{"name":"nodejs"},{"name":"mongodb"},{"name":"web"},{"name":"css"},{"name":"html"},{"name":"unit-testing"}],"cities":[],"allowsRemote":true}},{"node":{"__typename":"Job","id":"17050894336-1001110946746","title":"Javascript разработчик","text":"#вакансия #frontend #JavaScript #React #senior #middle #remote #офис #удаленка                                                              \n\nFrontend-разработчик (React)\nГород и адрес офиса: Москва,Пермь\nФормат работы: офис или удаленно, пятидневка\nЗанятость: полный день\nЗарплатная вилка: от 50 000 до 140 000 руб.                                                                                                                                                                       \n\nО компании: GreenData - компания разработчик уникального ПО для финансового сектора. За более чем десять лет автоматизации кредитных процессов, мы выработали оптимальные подходы к решению большого количества конкретных прикладных задач.                                                       \n\nЧто надо делать:                                                                                                                                                                                                    Участие в разработке платформы.\nПроведение code review.                                                                                                                                                                                                   Работа с контролем версий, управление сборками                                                                                                                                                  \n\nМы работаем с:\nReact\nJavaScript/TypeScript\nHTML, CSS\nGitLab\n\nОпыт работы от 1,5 лет React/JavaScript\nОфициальное трудоустройство\nБелая зарплата\n\nКонтакты:@AnastasyiaKustova\n\n—\n\n👉 Обсуждение вакансии в чате @javascript_jobs","markup":[{"type":"hashtag","offset":0,"length":9,"data":"вакансия"},{"type":"hashtag","offset":10,"length":9,"data":"frontend"},{"type":"hashtag","offset":20,"length":11,"data":"JavaScript"},{"type":"hashtag","offset":32,"length":6,"data":"React"},{"type":"hashtag","offset":39,"length":7,"data":"senior"},{"type":"hashtag","offset":47,"length":7,"data":"middle"},{"type":"hashtag","offset":55,"length":7,"data":"remote"},{"type":"hashtag","offset":63,"length":5,"data":"офис"},{"type":"hashtag","offset":69,"length":9,"data":"удаленка"},{"type":"handle","offset":1588,"length":18,"data":"AnastasyiaKustova"},{"type":"handle","offset":1641,"length":16,"data":"javascript_jobs"}],"date":"2020-06-18T21:04:37+00:00","link":"tg://resolve?domain=javascript_jobs_feed&post=0","tags":[{"name":"javascript"},{"name":"reactjs"},{"name":"typescript"},{"name":"html"},{"name":"css"},{"name":"gitlab"}],"cities":[{"code":"moscow"},{"code":"perm"}],"allowsRemote":true}},{"node":{"__typename":"Job","id":"17049845760-1001110946746","title":"Js разработчик","text":"#вакансия #frontend #vue #senior #middle #remote #офис #удаленка\n\nГород: Москва, м. Славянский бульвар\nФормат работы: офис, удаленное сотрудничество\nЗанятость: полная, гибкий график (обсуждаем)\nЗарплатная вилка: от 80 000 рублей до 240 000 рублей на руки\nНазвание компании: ФГБУ «ИАЦ МЧС России»\nКонтакты для связи: @mxrkin\n\nНа данный момент отдел разработки программного обеспечения формирует команду JS-разработчиков для поддержки существующих и реализации новых проектов.\n\nТребования для соискателей:\n— уверенные знания Javascript, знание стандартов ECMAScript;\n— знание и опыт применения фреймворка Vue.js и использование элементов экосистемы фреймворка (vuex, vue-router);\n— опыт использования систем сборки - webpack, gulp, parcel. Опыт написания конфигов для webpack;\n— владение препроцессорами CSS - SASS/LESS;\n— опыт использования Prettier, ESLint;\n— гражданство РФ (местонахождение так же РФ).\n\nПлюсом будет:\n— владение Node.js или знание других языков программирования;\n— активные профили в сообществах habrahabr, habr Q&A, участие в opensource проектах, активный профиль github;\n— опыт работы с библиотекой D3.js;\n— опыт работы с картографическими библиотеками.\n\nТрудоустройство официальное по ТК РФ, социальный пакет.\nНа территории имеется столовая для сотрудников, спортивные площадки, футбольное и баскетбольное поле.\nРабота не является государственной службой.\n\nСобеседование проходит в три этапа — общение с руководителем, выполнение тестового задания (простое задание на 15-30 минут), предложение сотрудничества. \n\nЕсли вас заинтересовала вакансия, обращайтесь в тг @mxrkin. Большим плюсом будет, если первым сообщением прикрепите резюме и поделитесь ссылками на проекты, в которых принимали активное участие, или ссылку на гитхаб с кодом, который, по-вашему мнению, сможет показать все ваши знания и навыки.\n\n—\n\n👉 Обсуждение вакансии в чате @javascript_jobs","markup":[{"type":"hashtag","offset":0,"length":9,"data":"вакансия"},{"type":"hashtag","offset":10,"length":9,"data":"frontend"},{"type":"hashtag","offset":20,"length":4,"data":"vue"},{"type":"hashtag","offset":25,"length":7,"data":"senior"},{"type":"hashtag","offset":33,"length":7,"data":"middle"},{"type":"hashtag","offset":41,"length":7,"data":"remote"},{"type":"hashtag","offset":49,"length":5,"data":"офис"},{"type":"hashtag","offset":55,"length":9,"data":"удаленка"},{"type":"handle","offset":316,"length":7,"data":"mxrkin"},{"type":"handle","offset":1584,"length":7,"data":"mxrkin"},{"type":"handle","offset":1861,"length":16,"data":"javascript_jobs"}],"date":"2020-06-18T21:02:31+00:00","link":"tg://resolve?domain=javascript_jobs_feed&post=0","tags":[{"name":"javascript"},{"name":"vuejs"},{"name":"webpack"},{"name":"gulp"},{"name":"css"},{"name":"sass"},{"name":"nodejs"},{"name":"github"}],"cities":[{"code":"moscow"}],"allowsRemote":true}},{"node":{"__typename":"Job","id":"17048797184-1001110946746","title":"Javascript разработчик","text":"#вакансия #JavaScript #React #jenkins #HTML #CSS #офис #удаленка\n\nMiddle Frontend-разработчик (React)\nГород и адрес офиса: Новосибирск, центр и Академгородок\nФормат работы: Офис или удаленно, пятидневка\nЗанятость: Полный день\nЗарплатная вилка: от 80 000 до 130 000 руб.\n\nО компании: Компания создает и продает софт для любительской обработки видео, музыки и изображений, сотрудничает с Intel, Amazon, Google и NVIDIA.\n\nЧем предстоит заниматься:\n– разработка онлайн-программ для обработки мультимедиа (фоторедактор)\n– проведение ревью кода\n– внедрение новых технологий и подходов в разработке\n\nВ своей работе мы используем:\n– React\n– JavaScript/TypeScript\n– Webpack\n– HTML, CSS\n– Git, GitLab\n– Jenkins\n\nДля успешного выполнения задач тебе потребуется:\n– опыт работы на позиции frontend-разработчика от 1,5 лет\n– опыт разработки на React от 1 года\n– опыт удаленной работы в команде от полугода (в случае удаленной работы)\n– знание JavaScript\n\nофициальное трудоустройство с 1-го дня, белая зп\n\nНазвание компании: HR-project\nКонтакты: @nicedream13\n\n—\n\n👉 Обсуждение вакансии в чате @javascript_jobs","markup":[{"type":"hashtag","offset":0,"length":9,"data":"вакансия"},{"type":"hashtag","offset":10,"length":11,"data":"JavaScript"},{"type":"hashtag","offset":22,"length":6,"data":"React"},{"type":"hashtag","offset":29,"length":8,"data":"jenkins"},{"type":"hashtag","offset":38,"length":5,"data":"HTML"},{"type":"hashtag","offset":44,"length":4,"data":"CSS"},{"type":"hashtag","offset":49,"length":5,"data":"офис"},{"type":"hashtag","offset":55,"length":9,"data":"удаленка"},{"type":"handle","offset":1031,"length":12,"data":"nicedream13"},{"type":"handle","offset":1078,"length":16,"data":"javascript_jobs"}],"date":"2020-06-18T21:02:05+00:00","link":"tg://resolve?domain=javascript_jobs_feed&post=0","tags":[{"name":"javascript"},{"name":"reactjs"},{"name":"jenkins"},{"name":"html"},{"name":"css"},{"name":"typescript"},{"name":"webpack"},{"name":"git"},{"name":"gitlab"}],"cities":[{"code":"novosibirsk"}],"allowsRemote":true}},{"node":{"__typename":"Job","id":"17047748608-1001110946746","title":"Js разработчик","text":"#вакансия #frontend #middle #JavaScript #SPB\n\nГород: Санкт-Петербург м.Чернышевская  \nФормат работы: офис (иногда можно удаленку)\nЗанятость: полная \nЗарплатная вилка: от 1300 USD до 2000 USD после уплаты налогов. Фиксируется в долларах.\n\nОписание вакансии: \n\n🟠 Обязанности:\nРазработка интерфейсов, приложений и сайтов\n\n🟢 Требования:\n\n- Уверенное знание JavaScript Уверенные знания в HTML-верстке (кроссбраузерная/адаптивная/мобильная/HTML5/CSS3/Less)/\n- Понимание основных принципов UI/UX Понимание принципов работы в системе контроля версий\n- Дополнительным плюсом будет: Опыт работы с Electron/Cordova/Node.js/Vue.js\n- Дополнительный плюс: опыт вёрстки приложений\n\n☝️В первую очередь ищем петербуржцев, готовых работать в офисе. Однако готовы рассмотреть и вариант удалённой работы.\n\n🔵 Условия:\n- Уютный офис в Питере (можно иногда удаленку)\n- 3 недели оплачиваемого отпуска\n- Фирма продаёт свой софт в США. Это не аутсорс, а интересная работа со своими динамичными продуктами!\n\nО компании: Компания Rixtrema Inc. находится в поиске frontend-разработчика уровня middle, который, также, как и мы, обожает программировать и разрабатывать интерфейсы.  Нам важно видеть у соискателя огонь в глазах и желание развиваться вместе с командой.\n\n🟣 Контакты: @foundook\n\n—\n\n👉 Обсуждение вакансии в чате @javascript_jobs","markup":[{"type":"hashtag","offset":0,"length":9,"data":"вакансия"},{"type":"hashtag","offset":10,"length":9,"data":"frontend"},{"type":"hashtag","offset":20,"length":7,"data":"middle"},{"type":"hashtag","offset":28,"length":11,"data":"JavaScript"},{"type":"hashtag","offset":40,"length":4,"data":"SPB"},{"type":"handle","offset":1254,"length":9,"data":"foundook"},{"type":"handle","offset":1298,"length":16,"data":"javascript_jobs"}],"date":"2020-06-18T21:01:17+00:00","link":"tg://resolve?domain=javascript_jobs_feed&post=0","tags":[{"name":"javascript"},{"name":"html"},{"name":"css"},{"name":"electron"},{"name":"cordova"},{"name":"nodejs"},{"name":"vuejs"}],"cities":[],"allowsRemote":true}},{"node":{"__typename":"Job","id":"17046700032-1001110946746","title":"Javascript developer","text":"#вакансия #удаленка #react\n\nRocketech.it срочно ищет Middle Frontend React Developer\n\nФормат занятости: удаленка\nЗанятость: fulltime\nЗарплатная вилка: 2200 -2700$/месяц на руки\n\nО компании: \n\nRocketech - компания, предоставляющая полноценные продуктовые команды для инвесторов, стартаперов и крупных компаний. Мы уже больше 5 лет на рынке разработки програмного обеспечения. Сотни выполненых кейсов, десятки крупных клиентов. \n\nО проекте:\n\nМаркетинговый инструмент.\n\nСтек технологий: \n\nTypeScript, React, CRA, less, mobx, antd\n\nТребования: \n\n3+ года опыта коммерческой frontend разработки, разговорный английский\n\nКонтакт: @mxm_at\n\n—\n\n👉 Обсуждение вакансии в чате @javascript_jobs","markup":[{"type":"hashtag","offset":0,"length":9,"data":"вакансия"},{"type":"hashtag","offset":10,"length":9,"data":"удаленка"},{"type":"hashtag","offset":20,"length":6,"data":"react"},{"type":"link","offset":28,"length":12,"data":"http://Rocketech.it"},{"type":"handle","offset":623,"length":7,"data":"mxm_at"},{"type":"handle","offset":665,"length":16,"data":"javascript_jobs"}],"date":"2020-06-18T21:00:08+00:00","link":"tg://resolve?domain=javascript_jobs_feed&post=0","tags":[{"name":"javascript"},{"name":"reactjs"},{"name":"typescript"}],"cities":[],"allowsRemote":true}},{"node":{"__typename":"Job","id":"17045651456-1001110946746","title":"Js developer","text":"#вакансия #удаленка #nodejs \n\nRocketech.it срочно ищет Middle+ Backend Node.js Developer\n\nФормат занятости: удаленка\nЗанятость: part-time\nЗарплатная вилка: 1200-1700$/месяц на руки\n\nО компании: \n\nRocketech - компания, предоставляющая полноценные продуктовые команды для инвесторов, стартаперов и крупных компаний. Мы уже больше 5 лет на рынке разработки програмного обеспечения. Сотни выполненых кейсов, десятки крупных клиентов. \n\nО проекте:\n\nМаркетинговый инструмент.\n\nСтек технологий: \n\nNest.js, MongoDB\n\nТребования: \n\n3+ года опыта коммерческой разработки на Node.js\n\nБудет плюсом:\n\nРазговорный английский\n\nКонтакт: @mxm_at\n\n—\n\n👉 Обсуждение вакансии в чате @javascript_jobs","markup":[{"type":"hashtag","offset":0,"length":9,"data":"вакансия"},{"type":"hashtag","offset":10,"length":9,"data":"удаленка"},{"type":"hashtag","offset":20,"length":7,"data":"nodejs"},{"type":"link","offset":30,"length":12,"data":"http://Rocketech.it"},{"type":"handle","offset":620,"length":7,"data":"mxm_at"},{"type":"handle","offset":662,"length":16,"data":"javascript_jobs"}],"date":"2020-06-18T20:59:03+00:00","link":"tg://resolve?domain=javascript_jobs_feed&post=0","tags":[{"name":"javascript"},{"name":"nodejs"},{"name":"mongodb"}],"cities":[],"allowsRemote":true}},{"node":{"__typename":"Job","id":"17044602880-1001110946746","title":"Js разработчик","text":"#вакансия #Москва #nodejs #офис\n\nКомпания Proscom ищет Middle/Senior Backend (Node.js) разработчика\n\nФормат занятости: Офис около м. Серпуховская/Павелецкая.\nЗанятость: полная \nЗарплатная вилка: 130 000 - 240 000 рублей/месяц (по результатам собеседования)\n\nО компании: \n\nС 2013 года создаем интерфейсы, веб-сайты,\nмобильные приложения для крупных\nправительственных организаций и\nкоммерческих предприятий\n\nЗадачи:\n\nВести разработку как новых проектов, так и поддерживать уже существующий код. \n\nСтек:\n\nNode.js, GraphQL, REST, Nest.js, TypeScript, CRDT, MySQL, PostreSQL, Git, Docker\n\nТребования:\n\nОт 1 года опыта работы с Node.js, от 2х лет опыта программирования\n\nКонтакт: @mxm_at\n\n—\n\n👉 Обсуждение вакансии в чате @javascript_jobs","markup":[{"type":"hashtag","offset":0,"length":9,"data":"вакансия"},{"type":"hashtag","offset":10,"length":7,"data":"Москва"},{"type":"hashtag","offset":18,"length":7,"data":"nodejs"},{"type":"hashtag","offset":26,"length":5,"data":"офис"},{"type":"handle","offset":674,"length":7,"data":"mxm_at"},{"type":"handle","offset":716,"length":16,"data":"javascript_jobs"}],"date":"2020-06-18T20:58:51+00:00","link":"tg://resolve?domain=javascript_jobs_feed&post=0","tags":[{"name":"javascript"},{"name":"nodejs"},{"name":"graphql"},{"name":"rest"},{"name":"typescript"},{"name":"mysql"},{"name":"git"},{"name":"docker"}],"cities":[{"code":"moscow"}],"allowsRemote":false}}]}}},"context":{}}