{"hash":"f5f6bf98bd95e769321482904cbbd488f77922fd","data":{"records":{"id":"mysql","name":"mysql","belongsTo":{"totalCount":78,"pageInfo":{"totalPages":8,"currentPage":6},"edges":[{"node":{"__typename":"Job","id":"349175808-1001352129329","title":"Golang разработчик","text":"Ребят, всем привет! \nПростыню сюда флудить не хочется поэтому постараюсь кратко, а подробности в ЛС, заранее напишу, что это Москва (Фултайм в офис), компания Lofty. Ищем в команду как Midle так и один Senior нужен.\n Вообщем если хочется в highload, добро пожаловать!)\n\nО проекте:\nЭто высоконагруженное backend приложение для рассылки web push-уведомлений, обслуживающее на данный момент более 100млн показов в сутки. \nЧем у нас предстоит заниматься:\nПрофилировать и оптимизировать существующие сервисы;\nПроводить доработки и интеграцию их в действующий код и инфраструктуру;\nРеализовывать новые бизнес-требования внутри сервиса;\nУстранять возникающие баги в сервисе.\n\nЧто мы ждем от кандидата:\nНавыки работы с Git;\nУверенное знание Golang;\nПонимание технологий HTTP, REST;\nОпыт работы в Unix-окружении.\n\nБудет совсем круто, если вы:\nРаботали с highload-проектами;\nПонимаете и уважаете концепцию CI/CD.\nНаш стек технологий: Golang, Gitlab, MySQL, JS, RabbitMQ, Docker, Ansible, Clickhouse\n\nУсловия: \nЗаработная плата от 130 000 до 300 000 руб. на руки, естественно зависит от уровня, преимущественно смотрим \"мидов\", но и \"джуны\" нам тоже интересны.\n\n#вакансия#golang","markup":[],"date":"2020-06-19T10:03:46+00:00","link":"tg://resolve?domain=gogetajobfeed&post=333","tags":[{"name":"go"},{"name":"web"},{"name":"git"},{"name":"rest"},{"name":"unix"},{"name":"gitlab"},{"name":"mysql"},{"name":"rabbitmq"},{"name":"docker"},{"name":"ansible"}],"cities":[{"code":"moscow"}],"allowsRemote":false}},{"node":{"__typename":"Job","id":"17044602880-1001110946746","title":"Js разработчик","text":"#вакансия #Москва #nodejs #офис\n\nКомпания Proscom ищет Middle/Senior Backend (Node.js) разработчика\n\nФормат занятости: Офис около м. Серпуховская/Павелецкая.\nЗанятость: полная \nЗарплатная вилка: 130 000 - 240 000 рублей/месяц (по результатам собеседования)\n\nО компании: \n\nС 2013 года создаем интерфейсы, веб-сайты,\nмобильные приложения для крупных\nправительственных организаций и\nкоммерческих предприятий\n\nЗадачи:\n\nВести разработку как новых проектов, так и поддерживать уже существующий код. \n\nСтек:\n\nNode.js, GraphQL, REST, Nest.js, TypeScript, CRDT, MySQL, PostreSQL, Git, Docker\n\nТребования:\n\nОт 1 года опыта работы с Node.js, от 2х лет опыта программирования\n\nКонтакт: @mxm_at\n\n—\n\n👉 Обсуждение вакансии в чате @javascript_jobs","markup":[{"type":"hashtag","offset":0,"length":9,"data":"вакансия"},{"type":"hashtag","offset":10,"length":7,"data":"Москва"},{"type":"hashtag","offset":18,"length":7,"data":"nodejs"},{"type":"hashtag","offset":26,"length":5,"data":"офис"},{"type":"handle","offset":674,"length":7,"data":"mxm_at"},{"type":"handle","offset":716,"length":16,"data":"javascript_jobs"}],"date":"2020-06-18T20:58:51+00:00","link":"tg://resolve?domain=javascript_jobs_feed&post=0","tags":[{"name":"javascript"},{"name":"nodejs"},{"name":"graphql"},{"name":"rest"},{"name":"typescript"},{"name":"mysql"},{"name":"git"},{"name":"docker"}],"cities":[{"code":"moscow"}],"allowsRemote":false}},{"node":{"__typename":"Job","id":"26422018048-1001075660570","title":"Php разработчик","text":"#job #remote #senior #symfony #highload\n\n\n✅Вакансия: Senior PHP\n✅Занятость: полный день, удаленно\n✅Компания: Холдинг «Монастырёв» \n\n✅Задачи:\n\n- разработка микросервисной архитектуры\n- доработка системы поиска на сайте\n- разработка системы скоринга\n- разработка блока рекламы и рекомендаций на сайте\n\n✅помимо этого:\n\nВыбор стэка технологий и разработка архитектуры проекта.\nПроведение код-ревью и ревью дизайна проектов на соответствие архитектурным стандартам.\n\n✅Требования:\nОпыт в разработке архитектуры, выборе стэка технологий и проектировании сайтов и веб-сервисов.\nОпыт работы с PostgreSQL/MySQL/NoSQL\nОпыт работы Redis.\nОпыт работы с одним из PHP фреймворков Symfony/Yii/Laravel.\n\n✅Текущий стек:\nPHP, Symphony, React.js, Vue.js\nPostreSQL/MariaDb/Redis/ActiveMQ/ElasticSaerch\n\n ✅Преимущества работы в нашей команде:\n\nработаем в белую: 28 дней отпуска, полностью официальная зарплата;\nудобный рабочий график + в пятницу уходим с работы на час раньше;\nкомпенсация 100% внешнего обучения и бесплатное участие во внутренних корпоративных тренингах;\nактивная корпоративная жизнь: спортивные мероприятия, тимбилдинги, праздники и участие в благотворительных акциях;\nинтересные и амбициозные задач\n\nПишите в личку: @sundeevaa","markup":[{"type":"hashtag","offset":0,"length":4,"data":"job"},{"type":"hashtag","offset":5,"length":7,"data":"remote"},{"type":"hashtag","offset":13,"length":7,"data":"senior"},{"type":"hashtag","offset":21,"length":8,"data":"symfony"},{"type":"hashtag","offset":30,"length":9,"data":"highload"},{"type":"handle","offset":1213,"length":10,"data":"sundeevaa"}],"date":"2020-06-18T10:09:17+00:00","link":"tg://resolve?domain=php_jobs&post=25198","tags":[{"name":"php"},{"name":"symfony"},{"name":"postgresql"},{"name":"mysql"},{"name":"nosql"},{"name":"redis"},{"name":"yii"},{"name":"laravel"},{"name":"reactjs"},{"name":"vuejs"},{"name":"mariadb"}],"cities":[],"allowsRemote":true}},{"node":{"__typename":"Job","id":"91264909312-1001067529236","title":"Python разработчик","text":"#вакансия #python  #sql #офис #москва\nм.Бауманская, полная занятость\nБелая з/п до 160.000 руб. на руки \nData Scientist\n\nМы — команда разработки Level.Travel, сложного продукта в сфере путешествий. За последние 8 лет мы с нуля создали и продолжаем развивать решение для онлайн-продажи путешествий. Нашу платформу используют лидеры рынка – Тинькофф Банк, OneTwoTrip, Сбербанк, TripAdvisor, Kayak, АК Барс Банк, Евросеть и многие другие. Компания Level.Travel является резидентом Инновационного центра «Сколково».\n\nОбязанности:\n🔸Работа над проектами, решаемыми с использованием машинного обучения: участие в постановке задачи, исследование, подбор алгоритма и оптимизация модели, подготовка к использованию модели бизнесом.\n🔸Решение задач требующих умения работать с данными, продвинутое знание SQL, Python, статистики\n\nОт Вас:\n🔸Уметь программировать на Python\n🔸Использовать популярные библиотеки: scikit-learn, Pandas, numpy, scipy\n🔸Уверенно писать SQL-запросы (MySQL, PostgreSQL, Clickhouse)\n🔸Знать основных методов и алгоритмов Machine Learning\n🔸Иметь знания в области мат. статистики, теории вероятности\n\nЖелательно:\n🔸Иметь завершенный проект с применением машинного обучения\n🔸Уметь работать с временными рядами, анализировать их свойства\n🔸Опыт разработки на языке программирования Scala/Java с использованием Spark\n\nОт нас: белая зп, официальное трудоустройство, больничные, отпуска. Скидки на изучение английского языка, техника MacBook Pro. Регулярная обратная связь и аттестации. Геймификация процессов и несколько раз в год релокейты поработать в другую страну. Клевый молодой коллектив, интересные ивенты, насыщенная корпоративная жизнь. Пинг-понг, бильярд, кальян и другие развлечения в офисе. Скидки на путешествия)\n\nСвязь по почте : vos@level.travel\nИли тут @Alyask_a","markup":[{"type":"hashtag","offset":0,"length":9,"data":"вакансия"},{"type":"hashtag","offset":10,"length":7,"data":"python"},{"type":"hashtag","offset":19,"length":4,"data":"sql"},{"type":"hashtag","offset":24,"length":5,"data":"офис"},{"type":"hashtag","offset":30,"length":7,"data":"москва"},{"type":"bold","offset":69,"length":33,"data":""},{"type":"bold","offset":104,"length":14,"data":""},{"type":"bold","offset":120,"length":76,"data":""},{"type":"bold","offset":513,"length":12,"data":""},{"type":"bold","offset":820,"length":7,"data":""},{"type":"bold","offset":1114,"length":11,"data":""},{"type":"bold","offset":1329,"length":7,"data":""},{"type":"bold","offset":1737,"length":33,"data":""},{"type":"link","offset":1754,"length":16,"data":"mailto:vos@level.travel"},{"type":"bold","offset":1771,"length":17,"data":""},{"type":"handle","offset":1779,"length":9,"data":"Alyask_a"}],"date":"2020-06-18T09:21:55+00:00","link":"tg://resolve?domain=python_jobs&post=0","tags":[{"name":"python"},{"name":"sql"},{"name":"scikit-learn"},{"name":"pandas"},{"name":"numpy"},{"name":"mysql"},{"name":"postgresql"},{"name":"scala"},{"name":"java"},{"name":"machine-learning"}],"cities":[{"code":"moscow"}],"allowsRemote":false}},{"node":{"__typename":"Job","id":"26406289408-1001075660570","title":"Php разработчик","text":"#работа #вакансия #удаленка #job #РНР #Yii #Laravel #Symfony \n\nВсем привет! \n\nСейчас нахожусь в поисках РНР разработчика уровня senior в одну из крупнейших ecommerce компаний России - Bork/Technopark. \nНа текущий  момент внутри идет несколько проектов по поддержке и развитию интернет-площадки по продаже бытовой техники и электроники премиум-класса.\n\nПродукты реализуются на стеке: PHP (Yii2), MySql, JS (Vue), HTML, CSS, Gulp, Webpack, SVG, Canvas. \nЗадачи: разработка серверной части веб-проектов на всех этапах (от участия в проектировании архитектуры, до разработки сервисов), участие в митапах для обсуждения предстоящих задач, вносить вклад в планирование архитектуры и т.д.\n\nОсновные требования:\n\n- Опыт коммерческой разработки от 3 лет на PHP (7.1 или выше);\n\n- Хорошие знания современных фреймворков  (YII, Symfony);\n\n- Знание ООП, базовых алгоритмов, шаблонов проектирования, стандартов написания кода.\n\nУсловия: \n\n- ЗП до 250 000 net;\n\n- Полная УДАЛЁНКА; \n\n- Оформление через ИП или как самозанятый; \n\nКто заинтересовался - пишите в ЛС (@nastyaklassnaya),  буду рада пообщаться :)","markup":[{"type":"hashtag","offset":0,"length":7,"data":"работа"},{"type":"hashtag","offset":8,"length":9,"data":"вакансия"},{"type":"hashtag","offset":18,"length":9,"data":"удаленка"},{"type":"hashtag","offset":28,"length":4,"data":"job"},{"type":"hashtag","offset":33,"length":4,"data":"РНР"},{"type":"hashtag","offset":38,"length":4,"data":"Yii"},{"type":"hashtag","offset":43,"length":8,"data":"Laravel"},{"type":"hashtag","offset":52,"length":8,"data":"Symfony"},{"type":"handle","offset":1049,"length":16,"data":"nastyaklassnaya"}],"date":"2020-06-18T08:54:14+00:00","link":"tg://resolve?domain=php_jobs&post=25183","tags":[{"name":"php"},{"name":"yii"},{"name":"laravel"},{"name":"symfony"},{"name":"mysql"},{"name":"vuejs"},{"name":"html"},{"name":"css"},{"name":"gulp"},{"name":"webpack"},{"name":"svg"},{"name":"canvas"},{"name":"dotnet"}],"cities":[],"allowsRemote":true}},{"node":{"__typename":"Job","id":"17020485632-1001110946746","title":"Js developer","text":"#вакансия  #js  #node #спб                                                                                 Вакансия: BACKEND JS DEVELOPER (NODE.JS) \n\nФормат: офис\nЛокация: санкт-петербург, метро: комендантский проспект\nЗанятость: Полная, офис. (Удаленная работа на время карантина)\nОпыт: от 2 лет\nЗарплата: от 180000 до 300000 тыс. руб на руки\nКомпания: Aline digital agency \n\nУ нас комфортный офис, гибкий график работы, отличный коллектив, классные корпоративы:) Команда занимается написанием софта для крупной международной букмекерской конторы, онлайн-кинотеатра, партнерской программы и других крупных проектов. Наши офисы расположены в Киеве и Спб.\n\nТребования:\n\n🔸 Опыт коммерческой разработки на JavaScript/Java от 2 лет;\n🔸 Опыт работы с базами данных (MySQL / Redis / Clickhouse);\n🔸 Опыт работы с брокерами сообщений и микросервисной архитектурой\n🔸 Опыт работы с Node.js ( koa / Socket.io);\n🔸 Читаемый, комментируемый и поддерживаемый код;\n🔸 Внимательное отношение к своему и чужому коду:)\n\nОбязанности:\n\nНеобходимо будет заниматься поддержкой и развитием новой составляющей нашего сервиса на Nodejs, поэтому опыт обязателен (koa/socket.io).\n\nУсловия:\n\n🔸 Работа в современном офисе недалеко от метро;\n🔸 Оборудованное отличной техникой рабочее место;\n🔸 График 5/2 с сокращенным рабочим днем;\n🔸 Конкурентный уровень ЗП, который будет установлен по результатам собеседования;\n🔸 Перспектива карьерного роста;\n🔸 Оплачиваем ваш переезд, если вы находитесь не в Санкт-Петербурге.\n\nСтек:\n\n🔸 node.js 8+\n🔸 async/await\n🔸 mysql(native driver only/no builders/orm's)\n🔸 redis/rabbit\n🔸 socket.io\n🔸 optional:\n🔸 ramda \n\nПо всем вопросам: @DashaChernenkova\n\n—\n\n👉 Обсуждение вакансии в чате @javascript_jobs","markup":[{"type":"hashtag","offset":0,"length":9,"data":"вакансия"},{"type":"hashtag","offset":11,"length":3,"data":"js"},{"type":"hashtag","offset":16,"length":5,"data":"node"},{"type":"hashtag","offset":22,"length":4,"data":"спб"},{"type":"link","offset":891,"length":9,"data":"http://Socket.io"},{"type":"link","offset":1144,"length":9,"data":"http://socket.io"},{"type":"link","offset":1596,"length":9,"data":"http://socket.io"},{"type":"handle","offset":1648,"length":17,"data":"DashaChernenkova"},{"type":"handle","offset":1700,"length":16,"data":"javascript_jobs"}],"date":"2020-06-17T15:28:54+00:00","link":"tg://resolve?domain=javascript_jobs_feed&post=0","tags":[{"name":"javascript"},{"name":"nodejs"},{"name":"java"},{"name":"mysql"},{"name":"redis"},{"name":"orm"},{"name":"rabbitmq"}],"cities":[],"allowsRemote":false}},{"node":{"__typename":"Job","id":"91050999808-1001067529236","title":"Python разработчик","text":"#fullstack_dev #вакансия #удаленка #Python \n\nПривет! Меня зовут Виолетта, ищу Python разработчика в компанию SIMKOMAT.\n\nМесто работы: удаленка \nРабочий день: полный рабочий день\nТвои умения: \nPython, asyncio, flask\nОпыт программирования многопоточных приложений;\nЗнание операционной системы Linux;\nЗнание Docker/Docker-compose\nУмение работы с системой контроля версий Git, gitlab, CI/CD\nОпыт работы с базами данных Mongodb, PostgreSQL или MySQL\nПонимание принципов виртуализации;\nОпыт администрирования ОС семейства Linux, localhost, умение работать с ssh\nМы общаемся в: Trello, Atlassian, Telegram, Viber, GitLab Issues\nО компании: создаем программные аппараты для выдачи сим-карт без участия человека. В основном сотрудничаем с иностраннными компаниями. Нашему коллективу кажется, что мы веселые и приятные люди. \nОткликаться на вакансию: пиши мне в телеграм @violker или на почту yo@simkomat.com\n\nЗа внимание спасибо. Сайт SIMKOMAT - тебе. https://simkomat.com/ru/","markup":[{"type":"hashtag","offset":0,"length":14,"data":"fullstack_dev"},{"type":"hashtag","offset":15,"length":9,"data":"вакансия"},{"type":"hashtag","offset":25,"length":9,"data":"удаленка"},{"type":"hashtag","offset":35,"length":7,"data":"Python"},{"type":"bold","offset":120,"length":13,"data":""},{"type":"bold","offset":144,"length":13,"data":""},{"type":"bold","offset":178,"length":14,"data":""},{"type":"bold","offset":556,"length":15,"data":""},{"type":"bold","offset":621,"length":11,"data":""},{"type":"bold","offset":816,"length":24,"data":""},{"type":"handle","offset":861,"length":8,"data":"violker"},{"type":"link","offset":883,"length":15,"data":"mailto:yo@simkomat.com"},{"type":"link","offset":943,"length":24,"data":"https://simkomat.com/ru/"},{"type":"bold","offset":943,"length":24,"data":""}],"date":"2020-06-17T14:10:22+00:00","link":"tg://resolve?domain=python_jobs&post=0","tags":[{"name":"python"},{"name":"flask"},{"name":"linux"},{"name":"docker"},{"name":"git"},{"name":"gitlab"},{"name":"mongodb"},{"name":"postgresql"},{"name":"mysql"},{"name":"ssh"},{"name":"docker-compose"}],"cities":[],"allowsRemote":true}},{"node":{"__typename":"Job","id":"26368540672-1001075660570","title":"Php разработчик","text":"#вакансия #php #Москва #разработчик\nВакансия: Fullstack Developer\nЛокация: Москва\nКомпания: Bliss Finance\nФормат работы: офис/удаленная работа\nЗанятость: Full-time\nЗарплатная вилка: от 150 000 на руки (обсуждается)\n\n🚀 О проекте\n\nМы создаем финансовую платформу, объединяющую интернет-магазины с банками и даем возможность покупателям приобретать товары в рассрочку или кредит\n\n👨‍💻 Наш будущий коллега имеет\n\n- опыт работы с PHP от 3 лет\n- опыт работы с Phalcon\n- опыт проведния интеграций с финансовыми системами\n- опыт работы с HTML, JS, CSS \n- опыт работы с базами данных SQL на уровне сложных запросов (MySQL)\n- опыт работы с CircleCI, PHPUnit\n- опыт работы с GIT\n- опыт работы с REST, SOAP\n- опыт проведения code review\n- опыт проектирования и разработки архитектуры систем\n- понимает основы DevOps\n\n🍩 Условия\n\n- работа в офисе м. Калужская\n- стабильная зарплата\n- оформление по ТК РФ\n- гибкое начало рабочего дня\n- участие в конференциях\n- перспективы профессионального и карьерного роста\n\nКонтакт: @ave_mariy","markup":[{"type":"hashtag","offset":0,"length":9,"data":"вакансия"},{"type":"hashtag","offset":10,"length":4,"data":"php"},{"type":"hashtag","offset":15,"length":7,"data":"Москва"},{"type":"hashtag","offset":23,"length":12,"data":"разработчик"},{"type":"handle","offset":1008,"length":10,"data":"ave_mariy"}],"date":"2020-06-17T10:06:56+00:00","link":"tg://resolve?domain=php_jobs&post=25147","tags":[{"name":"php"},{"name":"html"},{"name":"css"},{"name":"sql"},{"name":"mysql"},{"name":"phpunit"},{"name":"git"},{"name":"rest"},{"name":"soap"}],"cities":[{"code":"moscow"}],"allowsRemote":true}},{"node":{"__typename":"Job","id":"26351763456-1001075660570","title":"Php developer","text":"#вакансия #москва #офис #fulltime #yii #php\n\n Позиция: Senior PHP Developer\nЗанятость: полная\nКомпания: ТД ЦУМ \nЛокация: Москва\nЗ/П: до 270.000\n\n   Основные цели и задачи:\n- Разработка программных модулей продуктов компании;\n- Глубокое погружение в процессы работы интернет-магазина;\n- Участие в разработке сервис-ориентированной архитектуре приложения.\n\n   Основные обязанности:\n- Разработка и поддержка инфраструктуры интернет-проекта, мобильного приложения и внутренних сервисов компании;\n- Разработка программных модулей продуктов интернет магазина ЦУМ;\n- Оптимизация приложения под высокую нагрузку, масштабирование, поиск узких мест;\n- Интеграция со сторонними сервисами;\n- Предложение и внедрение высокотехнологичных, инновационных решений.\n\nТребования:\n- Отличное знание и опыт работы с PHP 5.3 (желательно 7) от 3 лет;\n- Понимание как устроен HTTP, REST;\n- Знание и понимание MVC архитектуры;\n- Знание и опыт работы фреймворком YII;\n- Опыт работы с одной или несколькими БД: MySQL, Redis, Mongo;\n- Опыт мониторинга и оптимизации SQL-запросов;\n\n   Условия работы:\n- Полный рабочий день.\n- Официальное оформление по трудовому договору.\n- Офис в центре Москвы.\n- ДМС.\n\nЗа подробностями в личку - @nastyaklassnaya","markup":[{"type":"hashtag","offset":0,"length":9,"data":"вакансия"},{"type":"hashtag","offset":10,"length":7,"data":"москва"},{"type":"hashtag","offset":18,"length":5,"data":"офис"},{"type":"hashtag","offset":24,"length":9,"data":"fulltime"},{"type":"hashtag","offset":34,"length":4,"data":"yii"},{"type":"hashtag","offset":39,"length":4,"data":"php"},{"type":"handle","offset":1202,"length":16,"data":"nastyaklassnaya"}],"date":"2020-06-17T07:47:26+00:00","link":"tg://resolve?domain=php_jobs&post=25131","tags":[{"name":"php"},{"name":"yii"},{"name":"rest"},{"name":"mysql"},{"name":"redis"},{"name":"sql"}],"cities":[{"code":"moscow"}],"allowsRemote":false}},{"node":{"__typename":"Job","id":"91035271168-1001067529236","title":"Python разработчик","text":"#вакансия #python\n\nНазвание компании: Appello, appello.com.au\nОписание вакансии: Ищем в команду Python разработчика, Django/Flask. Удаленно, на долгий срок.\n\n-Опыт работы с Python 3, Django REST Framework (DRF);\n-Знание MySQL/PostgreSQL;\n-Конечно же Git;\n-Знание других технологий будет плюсом (NodeJS, RoR, Symfony или другое);\n-Круто если вы участвовали в open-source проектах;\n-Ссылки на выполненные проекты и примеры вашего кода;\n-Возможность работать 30+ часов в неделю;\n\nУсловия работы: \nУдаленно, фуллтайм 30-40 часов в неделю.\nРабота происходит с таймтрекером. Выплаты на основе отработанного времени 2 раза в месяц.\nТехнологии: #python, #django\nОфис или удаленка: #удаленка\nЗанятость: #полная\n\nЗарплатная вилка: 1100-1900$\nКонтакты: jobs@appello.com.au @stpa3k","markup":[{"type":"hashtag","offset":0,"length":9,"data":"вакансия"},{"type":"hashtag","offset":10,"length":7,"data":"python"},{"type":"link","offset":47,"length":14,"data":"http://appello.com.au"},{"type":"hashtag","offset":637,"length":7,"data":"python"},{"type":"hashtag","offset":646,"length":7,"data":"django"},{"type":"hashtag","offset":673,"length":9,"data":"удаленка"},{"type":"hashtag","offset":694,"length":7,"data":"полная"},{"type":"link","offset":742,"length":19,"data":"mailto:jobs@appello.com.au"},{"type":"handle","offset":762,"length":7,"data":"stpa3k"}],"date":"2020-06-16T16:26:20+00:00","link":"tg://resolve?domain=python_jobs&post=0","tags":[{"name":"python"},{"name":"django"},{"name":"flask"},{"name":"rest"},{"name":"mysql"},{"name":"postgresql"},{"name":"git"},{"name":"nodejs"},{"name":"ruby-on-rails"},{"name":"symfony"}],"cities":[],"allowsRemote":true}}]}}},"context":{}}