{"hash":"f5f6bf98bd95e769321482904cbbd488f77922fd","data":{"records":{"id":"linux","name":"linux","belongsTo":{"totalCount":109,"pageInfo":{"totalPages":11,"currentPage":5},"edges":[{"node":{"__typename":"Job","id":"103637057536-1001089317451","title":"Qa engineer","text":"#вакансия #remote #highload #QA\n\nДолжность: QA engineer (remote)\n\nГород: не принципиально, GMT +03:00\nКомпания: Wisebits, Лимассол, Кипр\nФормат работы: remote/удаленный\nЗанятость: полная занятость \nЗарплата: до 1500 EUR\n\n📍Что мы ждем от тебя:\n- навыки проектирования тест-дизайнов (тест-кейсов, тест-сценариев, ...)\n- навык написания качественных баг-репортов (да, это действительно отдельный и важный пункт)\n- навык работы с багтрекинг системами (Jira (у нас она), Redmine, Asana, YouTrack, ...)\n- умение работы с Linux (либо Unix)\nаналитическое мышление (команда взаимодействует с внешними партнерами. Очень часто причина ошибки в них и нужно это доказать)\n- английский язык на уровне intermediate\n \n \n📍Будет плюсом:\n- опыт работы с высоконагруженными сервисами\n- опыт написания автотестов (сейчас у нас есть автотесты на Python)\n- опыт работы с системами мониторинга и логирования (наш стек: ElasicSearch + Kibana, VictoriaMetrics + Grafana)\n- умение написания SQL-запросов\n- знание Docker\n- знание и понимание принципов Scrum\n\n📍Задачи:\n- тебе предстоит тестировать как backend, так и frontend, а также взаимодействовать с тестировщиками из других команд, потому что команда RTB является командой полного цикла и способна выполнить задачу от и до без привлечения внешних сил (мы называем это feature team)\n- также мы обязательно научим читать тебя код на языке golang, потому что это наш основной язык для разработки. Мы верим что тестировщик должен понимать как работает код и находить первые ошибки еще на этапе разработки. В команде RTB работают евангелисты языка, которые запустили сообщества в нескольких городах и активно развивают его, они обязательно помогут тебе с его освоением.\n\nРада буду ответить на вопросы, контакты: \n📲  tg: @lapteva_darja","markup":[{"type":"hashtag","offset":0,"length":9,"data":"вакансия"},{"type":"hashtag","offset":10,"length":7,"data":"remote"},{"type":"hashtag","offset":18,"length":9,"data":"highload"},{"type":"hashtag","offset":28,"length":3,"data":"QA"},{"type":"bold","offset":221,"length":23,"data":""},{"type":"bold","offset":705,"length":16,"data":""},{"type":"bold","offset":1033,"length":10,"data":""},{"type":"handle","offset":1746,"length":14,"data":"lapteva_darja"}],"date":"2020-06-24T14:11:31+00:00","link":"tg://resolve?domain=qa_jobs&post=98836","tags":[{"name":"qa"},{"name":"linux"},{"name":"unix"},{"name":"python"},{"name":"sql"},{"name":"docker"},{"name":"go"}],"cities":[],"allowsRemote":true}},{"node":{"__typename":"Job","id":"2250244096-1001134745498","title":"Devops engineer","text":"#вакансия #vacancy #job #Belarus #Russsia #Ukraine #office #remote #fulltime #flexible #devops #aws #docker  #kubernetes #terraform\nPosition - DevOps Engineer\nCompany - Sphere Software\nLocation - Belarus, Russia, Ukraine\nWork - Remote or Office, Full-time\nSalary - 3700$ - 4800$ gross (3500$-4500$ nett)\n\nSphere Software is  partnered innovative trading platform with post-trade settlement and payments system and looking for DevOps engineer. \n\nRequirements:\n🔹 5+ years of experience as an SRE, DevOps engineer, operations engineer or similar\n🔹 Expert at Linux system administration\n🔹 Deep understanding of AWS technologies  \n🔹 Experience using IaC tools such as Ansible or Terraform \n🔹 Hands-on experience using Docker, AWS ECS or other orchestration tools\n🔹 Experience with bare metal infrastructures preferred\n🔹 Proficient in Python or alternative scripting language \n🔹 Experience managing a metrics driven system infrastructure\n🔹 Familiarity and hands on experience with common CI/CD pipeline tools (we use Jenkins) and container technologies\n🔹 Experience using Hashicorp Vault and Consul (big plus)\n🔹 Knowledge of cybersecurity mitigation and best practice (big plus)\n🔹 Relevant experience from an exchange, proprietary trading firm or top tier bank (big plus) \n \nResponsibilities include but are not limited to:\n🔹 Maintain and improve upon the uptime reliability of the overall platform \n🔹 Investigation and handling of issues in all public environments \n🔹 Designing automation tools and improving upon our deployment and release pipeline \n🔹 Build monitoring and alerting tools to keep internal teams and external stakeholders informed about system health and platform viability\n🔹 Identify and advocate for changes vital to the stability and supportability of the system\n🔹 Support the growth and scale of our infrastructure by suggesting and implementing new technology architecture\n \nOn-site benefits:\n🔹 Competitive compensation and paid time off\n🔹 Team of professionals providing you with the opportunity to grow\n🔹 Sports compensation\n🔹 Team building events.\n\nFeel free to contact me for more info! 👋  @alex_ithr\n\n—\n\n👉 Обсуждение вакансии в чате @devops_jobs","markup":[{"type":"hashtag","offset":0,"length":9,"data":"вакансия"},{"type":"hashtag","offset":10,"length":8,"data":"vacancy"},{"type":"hashtag","offset":19,"length":4,"data":"job"},{"type":"hashtag","offset":24,"length":8,"data":"Belarus"},{"type":"hashtag","offset":33,"length":8,"data":"Russsia"},{"type":"hashtag","offset":42,"length":8,"data":"Ukraine"},{"type":"hashtag","offset":51,"length":7,"data":"office"},{"type":"hashtag","offset":59,"length":7,"data":"remote"},{"type":"hashtag","offset":67,"length":9,"data":"fulltime"},{"type":"hashtag","offset":77,"length":9,"data":"flexible"},{"type":"hashtag","offset":87,"length":7,"data":"devops"},{"type":"hashtag","offset":95,"length":4,"data":"aws"},{"type":"hashtag","offset":100,"length":7,"data":"docker"},{"type":"hashtag","offset":109,"length":11,"data":"kubernetes"},{"type":"hashtag","offset":121,"length":10,"data":"terraform"},{"type":"handle","offset":2133,"length":10,"data":"alex_ithr"},{"type":"handle","offset":2178,"length":12,"data":"devops_jobs"}],"date":"2020-06-24T10:07:58+00:00","link":"tg://resolve?domain=devops_jobs_feed&post=2146","tags":[{"name":"amazon-web-services"},{"name":"docker"},{"name":"kubernetes"},{"name":"linux"},{"name":"ansible"},{"name":"python"},{"name":"jenkins"},{"name":"deployment"}],"cities":[],"allowsRemote":true}},{"node":{"__typename":"Job","id":"103569948672-1001089317451","title":"Qa инженер","text":"#вакансия #fulltime #офис #testautomation #Москва #middle #senior #TS\n\nКомпания: Техносерв https://technoserv.com/ \nВакансия: Middle/Senior QA\nДля работы на проектах в крупном банке (T&M)\nЗП: 70 000 - 220 000\nГрафик работы: фултайм, 10:00-19:00 (по договоренности)\nМесто работы: офис, г. Москва\n\nЗадачи:\n· Разработка и поддержка UI автотестов,  API автотестов, интеграционных автотестов. \n\nТребования:\n· Знание языка Java на уровне middle/senior. Опыт в автоматизации тестирования не менее 2 лет.\n· Опыт создания с нуля и развития фреймворка для UI и API автоматизированного  тестирования.\n· Отличное понимание работы Selenium Web Driver.\n· Знание html и xpath селекторов.\n· Умение работать с Базами данных.\n· Общее понимание технологий Docker, GraphQL, NodeJS, ReactJS.\n· Умение работать в Scrum команде.\n· Отличное знание теории тестирования, опыт в работе с документацией по тестированию. \n· Знание основ работы с Linux. \n· Будет плюсом опыт разработки мок-сервисов.\n\nЖдем резюме: QAResume@technoserv.com","markup":[{"type":"hashtag","offset":0,"length":9,"data":"вакансия"},{"type":"hashtag","offset":10,"length":9,"data":"fulltime"},{"type":"hashtag","offset":20,"length":5,"data":"офис"},{"type":"hashtag","offset":26,"length":15,"data":"testautomation"},{"type":"hashtag","offset":42,"length":7,"data":"Москва"},{"type":"hashtag","offset":50,"length":7,"data":"middle"},{"type":"hashtag","offset":58,"length":7,"data":"senior"},{"type":"hashtag","offset":66,"length":3,"data":"TS"},{"type":"link","offset":91,"length":23,"data":"https://technoserv.com/"},{"type":"link","offset":984,"length":23,"data":"mailto:QAResume@technoserv.com"}],"date":"2020-06-23T17:34:52+00:00","link":"tg://resolve?domain=qa_jobs&post=98772","tags":[{"name":"qa"},{"name":"java"},{"name":"selenium"},{"name":"web"},{"name":"html"},{"name":"docker"},{"name":"graphql"},{"name":"nodejs"},{"name":"reactjs"},{"name":"linux"}],"cities":[{"code":"moscow"}],"allowsRemote":false}},{"node":{"__typename":"Job","id":"2249195520-1001134745498","title":"Devops engineer","text":"#вакансия #devops #azure #remote #спб #fulltime #релокация \n\nSenior DevOps Remote Engineer (Azure)\n\nCity: Saint-Petersburg, metro Mayakovskaya | Chernyshevskaya \nFormat: office or remote (both are possible)\nSalary: ₽220-300k\n\nProject: We are BeKitzur and now we are looking for a Senior DevOps Engineer to support and drive innovative collaboration software products used by dozens of thousands of clients across the world. \nThe platform is an Azure-hosted solution and offers you a great opportunity in driving state-of-the-art CI/CD, security, monitoring and DB management. This is a great position for an energetic and ambitious professional to get to the next career step and become a member of a stable and growing international company.\n\nResponsibilities:\n🔹Set up the best monitoring ever - unified, transparent and flexible\n🔹Improve our CI/CD process and automation to deliver faster, more frequent and reliable releases\n🔹Migrate databases to more secure and powerful clusters\n🔹Migrate applications to Kubernetes\n🔹Increase High-Availability and Reliability of applications and DB clusters\n🔹Optimize Azure costs and design more cost-effective DevOps solutions\n🔹Improve the existing DevOps processes and technologies, such as CI/CD, monitoring, logs aggregation, and security\n🔹Participate in all DevOps decisions together with Senior engineers and Tech leads\n🔹Define and implement the security architecture to ensure data security at rest and in transit, application security, key management, identity management, authentication, and authorization with OIDC and OAuth2, infrastructure security with Azure VNets, NSGs, UDR, etc.\n\nRequired Skills and Experience:\n🔹5 years of experience in IT with good knowledge in Linux\n🔹Experience in maintaining a production data processing system\n🔹Hands-on experience with git, Jenkins, Docker, and MySQL\n🔹Azure Networking - Azure Virtual Networks, ExpressRoute, NSG, App Service Environment\n🔹Azure PAAS Services Security and Provisioning\n🔹Cloud Security - Azure Key Vault, HSTS, SSL/TLS Ingress Control\n🔹Cloud monitoring - Experience with Azure Log Analytics, Azure Monitor, DataDog\n🔹Experience with any configuration management tool (Ansible, Saltstack, Chef, Puppet, etc), Ansible preferred\n🔹Hands-on experience with cloud technologies (Azure in our case)\n🔹Bash and Python scripting skills\n🔹Good written and spoken English\n\nBenefits:\n🔹Extremely interesting complex products\n🔹The most modern technology stack\n🔹Wonderful result-oriented team of senior professionals\n🔹Support for all your Cloud studies and certificates (you will have access and we will pay for exams)\n🔹Friendly atmosphere\n🔹Competitive salary\n🔹Medical insurance, sport, English classes in the office\n🔹Business trips to the US (Silicon Valley)\n🔹Relocation package to St.Petersburg\n🔹Opportunity to build a career in a growing branch of the stable US company\n🔹Professional growth in the international business environment\n\n📩\nОткликнуться: @Khabibulin_it\n\n—\n\n👉 Обсуждение вакансии в чате @devops_jobs","markup":[{"type":"hashtag","offset":0,"length":9,"data":"вакансия"},{"type":"hashtag","offset":10,"length":7,"data":"devops"},{"type":"hashtag","offset":18,"length":6,"data":"azure"},{"type":"hashtag","offset":25,"length":7,"data":"remote"},{"type":"hashtag","offset":33,"length":4,"data":"спб"},{"type":"hashtag","offset":38,"length":9,"data":"fulltime"},{"type":"hashtag","offset":48,"length":10,"data":"релокация"},{"type":"handle","offset":2975,"length":14,"data":"Khabibulin_it"},{"type":"handle","offset":3024,"length":12,"data":"devops_jobs"}],"date":"2020-06-23T16:22:03+00:00","link":"tg://resolve?domain=devops_jobs_feed&post=2145","tags":[{"name":"azure"},{"name":"kubernetes"},{"name":"rest"},{"name":"oauth"},{"name":"linux"},{"name":"git"},{"name":"jenkins"},{"name":"docker"},{"name":"mysql"},{"name":"cloud"},{"name":"ssl"},{"name":"ansible"},{"name":"bash"},{"name":"python"},{"name":"ms-access"}],"cities":[],"allowsRemote":true}},{"node":{"__typename":"Job","id":"2248146944-1001134745498","title":"Devops engineer","text":"#вакансия #офис #Москва\nДолжность: Devops Engineer\nКомпания: Selecty IT – компания интегратор\nГород и адрес офиса: Москва, м.Технопарк\nФормат работы: офис\nЗанятость: постоянная\nЗарплатная вилка: от 200 000 до 300 000 net по итогам собеседования\n\n▪️Чем предстоит заниматься \n• Разработка и поддержка программно-определяемой инфраструктуры хранилищ данных,\n• Развертывание и непрерывная бесперебойная эксплуатация\n• Решение инцидентов в тестовых и промышленных средах\n• Проведение регламентных и профилактических работ\n\n▪️Наши пожелания к кандидатам:\n• Знание Linux на уровне администратора \n• Навыки использования инструментов управления конфигурациями\n• Владение скриптовыми языками программирования, aCI/CD инструментами\n• Понимание принципов и особенностей работы Kafka, Hazelcast, Infinispan, Elasticsearch, Mongodb, Minio\n• Знание Docker\n• Понимание Java, Python, JS\n• Создавать, развертывать, обновлять, оптимизировать и сопровождать отказоустойчивые кластеры различных БД и инфраструктурных элементов\n• Настраивать системы мониторинга и алертинга\n• Развивать практики инцидент-менеджмента и хаос-инжениринга\n\n▪️Контакты для связи: igor.bekbuzarov@selecty.ru ,+7 (999) 826-43-02, @IgorBekB\nБекбузаров Игорь\n\n—\n\n👉 Обсуждение вакансии в чате @devops_jobs","markup":[{"type":"hashtag","offset":0,"length":9,"data":"вакансия"},{"type":"hashtag","offset":10,"length":5,"data":"офис"},{"type":"hashtag","offset":16,"length":7,"data":"Москва"},{"type":"link","offset":1137,"length":26,"data":"mailto:igor.bekbuzarov@selecty.ru"},{"type":"link","offset":1165,"length":18,"data":"tel:+7 (999) 826-43-02"},{"type":"handle","offset":1185,"length":9,"data":"IgorBekB"},{"type":"handle","offset":1246,"length":12,"data":"devops_jobs"}],"date":"2020-06-23T16:21:30+00:00","link":"tg://resolve?domain=devops_jobs_feed&post=2144","tags":[{"name":"dotnet"},{"name":"linux"},{"name":"kafka"},{"name":"elasticsearch"},{"name":"mongodb"},{"name":"docker"},{"name":"java"},{"name":"python"}],"cities":[{"code":"moscow"}],"allowsRemote":false}},{"node":{"__typename":"Job","id":"103540588544-1001089317451","title":"Qa инженер","text":"#вакансия #fulltime #Middle #Manual #Auto #Functional #Regression #RoR #Vue\n\nО компании:\nhttplab.ru\nРазработка и консалтинг Ruby on Rails проектов.\nМы — небольшая команда Rails–разработчиков. Не любим бюрократию и предпочитаем работать маленьким коллективом, где каждый человек незаменим.\n\nВ основном работаем с проектами, автоматизирующими интернет-маркетинг B2B (зарубежный рынок).\n\nЗарплатная вилка:\nот 60 000 RUB до 110 000\n\nТип работы:\nПолный рабочий день\n\nТип занятости:\nОфис, Ростов-на-Дону\nМожно удаленно\n\nОписание вакансии:\nРазрабатываем веб-приложения для автоматизации рутинных задач бизнеса, например, колл-центр, CRM для рекламных агентств, аналитические системы. Нам приходится работать с очень сложной бизнес–логикой, и ее сложными настройками, отображать разнородные данные и формировать отчеты.\n\nОбязанности:\n• Налаживание процесса тестирования продукта;\n• Проведение функционального, регрессионного и интеграционного тестирования;\n• Обнаружение, описание и отслеживание дефектов в работе приложения;\n• Контроль исправления ошибок.\n\nНаш стек:\nRuby on Rails, Vue\n\nТребования:\n• English (взаимодействие с разработчиками и менеджером);\n• Linux;\n• Git;\n• SQL;\n• Ruby on Rails;\n• Vue.\n\nБудут плюсом:\n• Docker;\n• Понимание принципов работы CI/CD;\n• Разработка скриптов тестирования для типовых задач.\n\nУсловия работы:\n• Уютный офис в самом центре;\n• Полный 9–часовой рабочий день;\n• Гибкий график (с 7.00 до 16.00, с 12.00 до 21.00, ...);\n• Дружная команда, демократичная атмосфера;\n• Участие в разработке систем федерального масштаба.\n\nДополнительные инструкции:\nПрислать CV, сообщить удобное время для собеседования\nУдобнее всего, если оставите отклик тут: https://career.habr.com/vacancies/1000058890\n\nКонтакты:\ninfo@httplab.ru, @flggg","markup":[{"type":"hashtag","offset":0,"length":9,"data":"вакансия"},{"type":"hashtag","offset":10,"length":9,"data":"fulltime"},{"type":"hashtag","offset":20,"length":7,"data":"Middle"},{"type":"hashtag","offset":28,"length":7,"data":"Manual"},{"type":"hashtag","offset":36,"length":5,"data":"Auto"},{"type":"hashtag","offset":42,"length":11,"data":"Functional"},{"type":"hashtag","offset":54,"length":11,"data":"Regression"},{"type":"hashtag","offset":66,"length":4,"data":"RoR"},{"type":"hashtag","offset":71,"length":4,"data":"Vue"},{"type":"bold","offset":77,"length":19,"data":""},{"type":"link","offset":89,"length":7,"data":"http://httplab.ru/"},{"type":"link","offset":96,"length":3,"data":"http://httplab.ru/"},{"type":"bold","offset":385,"length":18,"data":""},{"type":"bold","offset":429,"length":12,"data":""},{"type":"bold","offset":462,"length":15,"data":""},{"type":"bold","offset":514,"length":19,"data":""},{"type":"bold","offset":813,"length":12,"data":""},{"type":"bold","offset":1050,"length":10,"data":""},{"type":"bold","offset":1080,"length":12,"data":""},{"type":"bold","offset":1198,"length":14,"data":""},{"type":"bold","offset":1313,"length":16,"data":""},{"type":"bold","offset":1548,"length":27,"data":""},{"type":"link","offset":1670,"length":44,"data":"https://career.habr.com/vacancies/1000058890"},{"type":"bold","offset":1716,"length":9,"data":""},{"type":"link","offset":1726,"length":15,"data":"mailto:info@httplab.ru"},{"type":"handle","offset":1743,"length":6,"data":"flggg"}],"date":"2020-06-23T14:01:57+00:00","link":"tg://resolve?domain=qa_jobs&post=98744","tags":[{"name":"qa"},{"name":"ruby-on-rails"},{"name":"vuejs"},{"name":"ruby"},{"name":"linux"},{"name":"git"},{"name":"sql"},{"name":"docker"}],"cities":[{"code":"rostov"}],"allowsRemote":true}},{"node":{"__typename":"Job","id":"1724907520-1001091028994","title":"Java разработчик","text":"#вакансия #java #Spring #middle #senior #офиc #backend #Москва #СПБ, #Екатеринбург #Ростов-на Дону #удаленно\n👋Приглашаем middle/senior Java Developer в новый проект от Сбербанка.\n\n💸Уровень ЗП: от 220 000 до 280 000 руб. net. (обсуждается!).\n\n✍🏻Оформление: штат компании партнера или ИП.\n\n📍Локация: офис (Москва Кутузовский пр-т 32/1). Или удалено с возможностью посещать офис: СПБ, Екатеринбург, Ростов-на Дону.\n\n🏢О проекте: В рамках стратегической программы «Создание платформы поддержки развития бизнеса» наша команда разрабатывает линейку продуктов Cash Management. Продукта корпоративного блока, предоставляющий функции управления финансовыми потоками для предприятий и корпораций с развитой филиальной сетью. Линейка продуктов содержит порядка 10 продуктов, направленных на управление всеми счетами холдинга единым казначейством. Основная задача – перевод линейки продуктов из Legacy АС на целевые платформы банка и перевод управления продуктами в удаленные каналы обслуживания.\n\n🎯Ваши будущие задачи :\n- проектирование решения, в том числе разработка детальной внутренней архитектуры сервиса, включая интеграционные сценарии;\n- детальное проектирование интеграции со смежными сервисами (в том числе API);\n- разработка программного продукта, внесение изменений в код;\n- разработка автоматических модульных тестов, автоматических скриптов и тестов развертывания.\n\n🤝Мы ожидаем от вас:\n• знание принципов ООП, методологий разработки, шаблонов проектирования;\n• уверенное владение Java 7+, Spring;\n• опыт работы с СУБД, опыт проектирования модели данных;\n• проактивная позиция, хорошие коммуникативные навыки;\n• умение работать с чужим кодом.\n• желательно опыт работы с react-js, Java Script.\n\nЖду Ваши резюме и буду рада ответить на все вопросы. Прекрасного дня!☺️\nКонтакты для связи: telegram @anisimovaane4ka\n\n#вакансия #java #Spring #middle #офиc #backend #Москва #удаленно\n📣Приглашаем Middle Java Developer в новый проект от Сбербанка.\n\n💸Уровень ЗП: от 180 000 до 270 000 руб. net. (обсуждается!).\n\n✍🏻Оформление: штат компании партнера или ИП.\n\n📌Локация: Удаленно или офис (Москва Кутузовский пр-т 32/1).\n\n🏢О проекте: Транзакционные кредитные продукты. Наша команда состоит из профессионалов и создает лучшие Кредитные карты на рынке. На платформе ППРБ мы разрабатываем принципиально новую back-office систему, которая позволит запускать продукты и сервисы с минимальным time-to-market. Технологический стек позволяет поддерживать высокую производительность, надежность и безопасность работы пользователей. Хранение данных в БД Oracle. Критичность системы – 24/7, обеспечение которой также заслуга раздельной кластеризации решений на всех уровнях: хранение данных, очереди сообщений, кластеры прикладных модулей.\n\n🎯Задачи разработчика:\n- разработка backend продукта процессинга кредитных карт (функционал кредитного продукта);\n- разработка обновлений, миграций данных и решение других backend задача.\n\n✅Наш стек:∙ Java 1.8; Spring 5 (Core, Boot, JMS, MVC, JdbcTemplate, REST); Hibernate; JUnit (Mockito); MQ (IM WS MQ, Kafka + ZooKeeper); Linux (RedHat); Application Server - Wildfly; Git, Bitbucket, Nexus, Jira, Confluence; CI: Maven, Jenkins, SonarQube, CheckMarx; IntelliJ IDEA.\n\n🤝Мы ожидаем от вас:\n- глубокие знания JavaSE 1.8;\n- понимание принципов OOP, принципов проектирования классов, шаблонов проектирования;\n- понимание принципов разработки REST сервисов;\n- желательно знания SQL и опыт работы с Oracle DB 12.2.\n\nЖду Ваши резюме и буду рада ответить на все вопросы. Прекрасного дня!☺️\nКонтакты для связи: telegram @anisimovaane4ka","markup":[{"type":"hashtag","offset":0,"length":9,"data":"вакансия"},{"type":"hashtag","offset":10,"length":5,"data":"java"},{"type":"hashtag","offset":16,"length":7,"data":"Spring"},{"type":"hashtag","offset":24,"length":7,"data":"middle"},{"type":"hashtag","offset":32,"length":7,"data":"senior"},{"type":"hashtag","offset":40,"length":5,"data":"офиc"},{"type":"hashtag","offset":46,"length":8,"data":"backend"},{"type":"hashtag","offset":55,"length":7,"data":"Москва"},{"type":"hashtag","offset":63,"length":4,"data":"СПБ"},{"type":"hashtag","offset":69,"length":13,"data":"Екатеринбург"},{"type":"hashtag","offset":83,"length":7,"data":"Ростов"},{"type":"hashtag","offset":99,"length":9,"data":"удаленно"},{"type":"handle","offset":1803,"length":16,"data":"anisimovaane4ka"},{"type":"hashtag","offset":1821,"length":9,"data":"вакансия"},{"type":"hashtag","offset":1831,"length":5,"data":"java"},{"type":"hashtag","offset":1837,"length":7,"data":"Spring"},{"type":"hashtag","offset":1845,"length":7,"data":"middle"},{"type":"hashtag","offset":1853,"length":5,"data":"офиc"},{"type":"hashtag","offset":1859,"length":8,"data":"backend"},{"type":"hashtag","offset":1868,"length":7,"data":"Москва"},{"type":"hashtag","offset":1876,"length":9,"data":"удаленно"},{"type":"handle","offset":3546,"length":16,"data":"anisimovaane4ka"}],"date":"2020-06-23T13:23:27+00:00","link":"tg://resolve?domain=jvmjobs&post=1645","tags":[{"name":"java"},{"name":"jvm"},{"name":"spring"},{"name":"dotnet"},{"name":"reactjs"},{"name":"oracle"},{"name":"rest"},{"name":"hibernate"},{"name":"junit"},{"name":"kafka"},{"name":"linux"},{"name":"git"},{"name":"maven"},{"name":"jenkins"},{"name":"sonarqube"},{"name":"sql"},{"name":"intellij-idea"}],"cities":[{"code":"moscow"},{"code":"rostov"}],"allowsRemote":true}},{"node":{"__typename":"Job","id":"2247098368-1001134745498","title":"Devops инженер","text":"#вакансия #devops #senior  #офис \nГород и адрес офиса: Москва, метро Румянцево \nФормат работы: офис \nЗанятость: полная \nЗарплатная вилка: от 180000 руб до 250000 руб  + премии\nТребования в вакансии:\nОпыт работы в качестве системного администратора\nОпыт работы в качестве DevOPS от 2 лет\nОпыт работы с GitLAb/Puppet/Ansible/Consul/Terraform\nРабота с CI/CD (Jenkins, Gitlab) \nАвтоматизация внутренних процессов (Linux, Python, Ansible, Docker) \nЗадача: Разработка, внедрение и поддержка решений по обеспечению и автоматизации процесса разработки и тестирования.\nНазвание компании: РТЛабс \nКонтакты: @mari13291\n\n—\n\n👉 Обсуждение вакансии в чате @devops_jobs","markup":[{"type":"hashtag","offset":0,"length":9,"data":"вакансия"},{"type":"hashtag","offset":10,"length":7,"data":"devops"},{"type":"hashtag","offset":18,"length":7,"data":"senior"},{"type":"hashtag","offset":27,"length":5,"data":"офис"},{"type":"handle","offset":597,"length":10,"data":"mari13291"},{"type":"handle","offset":642,"length":12,"data":"devops_jobs"}],"date":"2020-06-23T12:50:12+00:00","link":"tg://resolve?domain=devops_jobs_feed&post=2143","tags":[{"name":"gitlab"},{"name":"ansible"},{"name":"jenkins"},{"name":"linux"},{"name":"python"},{"name":"docker"}],"cities":[{"code":"moscow"}],"allowsRemote":false}},{"node":{"__typename":"Job","id":"2246049792-1001134745498","title":"Devops инженер","text":"#вакансия #МСК #DevOps #удаленно\nГород : Москва \nГрафик работы: 5/2\nЗанятость: полная\nЗ/п: от 100 т.р до 250 т.р. на руки 💥\nКомпания: wavesenterprise.com\n\nПозиция открыта в очень крутую команду, которая занимается разработкой и внедрением кастомизированных решений на технологии блокчейн внешним заказчикам (b2b, b2g).\n\nЗадачи:\n- подготовка инфраструктуры для сборки, развертывания и тестирования программного обеспечения;\n- построение и сопровождение конвейера непрерывной интеграции\\поставки программного обеспечения;\n- администрирование и обеспечение работоспособности ИТ-инфраструктуры разработки.\n\nТребования:\n- Опыт администрирования linux;\n- Опыт работы с Jenkins, Kubernetes, Ansible, public cloud engines.\n- Умение писать на bash/python и желательно groovy.\n\nПо вакансии прошу писать мне в tg @v_soloveva\n\n—\n\n👉 Обсуждение вакансии в чате @devops_jobs","markup":[{"type":"hashtag","offset":0,"length":9,"data":"вакансия"},{"type":"hashtag","offset":10,"length":4,"data":"МСК"},{"type":"hashtag","offset":15,"length":7,"data":"DevOps"},{"type":"hashtag","offset":23,"length":9,"data":"удаленно"},{"type":"link","offset":135,"length":19,"data":"http://wavesenterprise.com"},{"type":"handle","offset":803,"length":11,"data":"v_soloveva"},{"type":"handle","offset":849,"length":12,"data":"devops_jobs"}],"date":"2020-06-23T12:50:03+00:00","link":"tg://resolve?domain=devops_jobs_feed&post=2142","tags":[{"name":"linux"},{"name":"jenkins"},{"name":"kubernetes"},{"name":"ansible"},{"name":"cloud"},{"name":"bash"},{"name":"python"},{"name":"groovy"}],"cities":[{"code":"moscow"}],"allowsRemote":true}},{"node":{"__typename":"Job","id":"103518568448-1001089317451","title":"Qa инженер","text":"#вакансия #СПб #fulltime #qa #manual\nВакансия: QA Manual (middle)\nКомпания: QuadCode\nГород: Санкт-Петербург (ст. метро Новочеркасская)\nФормат работы: офис\nЗарплата (полностью белая): от 80 000 до 140 000 ₽ на руки\n\nТебе предстоит:\n• проведение ручной части тестирования;\n• анализ и оценка поступающих требований;\n• составление тестовой документации: тест-планов, тест-кейсов, чек-листов;\n• сопровождение проекта на всех этапах его существования.\n\nТы нам подходишь, если:\n• тестируешь веб-приложения больше 2 лет!!!;\n• знаешь SQL на уровне составления запросов для выборки из нескольких таблиц (SELECT JOIN);\n• знаешь и применяешь техники тест дизайна;\n• понимаешь принципы работы клиент-серверных приложений.\n\nБудет плюсом:\n• владение навыками написания и запуска автотестов (Jenkins / Gitlab CI / Allure/ etc) или желание в этом разобраться;\n• знание Linux на уровне чтения логов и просмотра файлов в контейнерах;\n• понимание жизненного цикла разработки ПО и гибких методологии разработки (agile-методы).\n\nПочему именно мы:\n• трудоустройство, согласно ТК РФ;\n• место работы в десяти минутах ходьбы от ст.м. Новочеркасская в офисе класса А+;\n• питание: компенсация обедов, кухни с едой на каждом этаже;\n• здоровье: ДМС со стоматологией, массажный кабинет в офисе;\n• спорт: корпоративный спортзал с личным тренером, спортивные секции (футбол, баскетбол, волейбол);\n• развитие: корпоративные тренинги, обучение английскому языку;\n• работа в отличном коллективе, множество развлекательных мероприятий и возможность влиять на продукт.\n\nДополнительные условия для иногородних и иностранных кандидатов: \n• предоставление места проживания за счет компании в первый месяц работы;\n• компенсация переезда;\n• помощь в оформлении документов (для иностранных граждан).\n\nПишите и присылайте резюме: \nTelegram: @gala_kr","markup":[{"type":"hashtag","offset":0,"length":9,"data":"вакансия"},{"type":"hashtag","offset":10,"length":4,"data":"СПб"},{"type":"hashtag","offset":15,"length":9,"data":"fulltime"},{"type":"hashtag","offset":25,"length":3,"data":"qa"},{"type":"hashtag","offset":29,"length":7,"data":"manual"},{"type":"bold","offset":37,"length":29,"data":""},{"type":"bold","offset":215,"length":16,"data":""},{"type":"bold","offset":447,"length":24,"data":""},{"type":"bold","offset":499,"length":15,"data":""},{"type":"bold","offset":710,"length":14,"data":""},{"type":"bold","offset":1007,"length":18,"data":""},{"type":"bold","offset":1532,"length":64,"data":""},{"type":"handle","offset":1796,"length":8,"data":"gala_kr"}],"date":"2020-06-23T11:11:49+00:00","link":"tg://resolve?domain=qa_jobs&post=98723","tags":[{"name":"qa"},{"name":"sql"},{"name":"jenkins"},{"name":"gitlab"},{"name":"linux"}],"cities":[],"allowsRemote":false}}]}}},"context":{}}