{"hash":"f5f6bf98bd95e769321482904cbbd488f77922fd","data":{"records":{"id":"swift","name":"swift","belongsTo":{"totalCount":133,"pageInfo":{"totalPages":14,"currentPage":13},"edges":[{"node":{"__typename":"Job","id":"71337771008-1001054966032","title":"Ios разработчик","text":"В классную компанию требуется Senior IOS разработчик, для работы над приложением ^_^ \n\n💻Вакансия: #вакансия #ios #удалённо\n🏢Компания: #IT\n📍Локация:  #удалённо\n💰З/п: от 200 до 320 на руки\n\n🔮Чем предстоит заниматься:\n• Разработка мобильных приложений под платформу iOS.\n• Участвовать в CodeReview.\n• Поддержка и развитие проектов, добавление нового функционала.\n\n💼Наши ожидания:\n• Опыт на Swift от 4-х лет, опыт на Obj-C будет плюсом;\n• Глубокие знания UIKit, SnapKit;\n• Глубокие знания iOS SDK.\n\n📩Резюме и вопросы по вакансии жду:\n✍️ @Gleaming_Darkness\n✉️ margoshwarz@gmail.com","markup":[{"type":"hashtag","offset":99,"length":9,"data":"вакансия"},{"type":"hashtag","offset":109,"length":4,"data":"ios"},{"type":"hashtag","offset":114,"length":9,"data":"удалённо"},{"type":"hashtag","offset":136,"length":3,"data":"IT"},{"type":"hashtag","offset":152,"length":9,"data":"удалённо"},{"type":"handle","offset":540,"length":18,"data":"Gleaming_Darkness"},{"type":"link","offset":562,"length":21,"data":"mailto:margoshwarz@gmail.com"}],"date":"2020-06-16T05:20:37+00:00","link":"tg://resolve?domain=mobile_jobs&post=0","tags":[{"name":"mobile"},{"name":"ios"},{"name":"swift"},{"name":"uikit"}],"cities":[],"allowsRemote":true}},{"node":{"__typename":"Job","id":"71334625280-1001054966032","title":"Ios разработчик","text":"🌈 В компанию в Москве требуется Senior IOS разработчик, для работы над стриминговой платформой ^_^ \n\n💻Вакансия: #вакансия #москва #ios #офис\n🏢Компания: #Magic\n📍Локация:  #мск #москва\n💰З/п: от 200 до 280 на руки\n\n🔮Чем предстоит заниматься:\n• Разработка мобильных приложений под платформу iOS.\n• Участвовать в CodeReview.\n• Поддержка и развитие проектов, добавление нового функционала.\n\n💼Наши ожидания:\n• Опыт на Swift от 3-х лет, опыт на Obj-C;\n• Глубокие знания UIKit;\n• Опыт работы с RxSwift;\n• Глубокие знания iOS SDK.\n\n🏆Мы предлагаем:\n• Уровень заработной платы (зависит от пожеланий и профессионально уровня кандидата).\n• Возможность гибкого начала рабочего дня.\n• Офис: м. Дубровка, м.Волгоградский проспект.\n• Работа в классном офисе.\n\n📩Резюме и вопросы по вакансии жду:\n✍️ @Gleaming_Darkness\n✉️ margoshwarz@gmail.com","markup":[{"type":"hashtag","offset":114,"length":9,"data":"вакансия"},{"type":"hashtag","offset":124,"length":7,"data":"москва"},{"type":"hashtag","offset":132,"length":4,"data":"ios"},{"type":"hashtag","offset":137,"length":5,"data":"офис"},{"type":"hashtag","offset":155,"length":6,"data":"Magic"},{"type":"hashtag","offset":174,"length":4,"data":"мск"},{"type":"hashtag","offset":179,"length":7,"data":"москва"},{"type":"handle","offset":789,"length":18,"data":"Gleaming_Darkness"},{"type":"link","offset":811,"length":21,"data":"mailto:margoshwarz@gmail.com"}],"date":"2020-06-16T03:41:27+00:00","link":"tg://resolve?domain=mobile_jobs&post=0","tags":[{"name":"mobile"},{"name":"ios"},{"name":"swift"},{"name":"uikit"}],"cities":[{"code":"moscow"}],"allowsRemote":false}},{"node":{"__typename":"Job","id":"71323090944-1001054966032","title":"Ios разработчик","text":"‼️Вакансия Senior IOS C++ Developer‼️\n#вакансия #IOS #developer #удаленка\nВ команде Mycelium Wallet (mycelium.com) открыта вакансия Senior IOS C++ Developer.\n💵З/П 3000-4000 USD по итогам собеседования.\nРабота удаленная 💻\n\nМы предлагаем:\n🔸Получить навыки и компетенции в одном из самых передовых и перспективных направлений финтех индустрии - blockchain;\n🔸Принять участие в разработке одного из самых популярных биткоин-стартапов;\n🔸Работать в международной команде бок о бок с ведущими специалистами в индустрии;\n🔸Возможность профессионального карьерного роста и участия в разнообразных проектах компании.\nЧем предстоит заниматься:\n🔸Разрабатывать мультивалютный крипто-валютный кошелек с кросс-платформенным ядром;\n🔸Проектировать и разрабатывать большие функциональные части приложения с привлечением других разработчиков;\n🔸Использовать cutting edge технологии, а также проверенные временем решения;\n🔸Находить решения для нестандартных задач.\nТребования:\n✔️Как минимум 3 года опыта разработки под IOS и опыта программирования на C++;\nЗнание C++ на уровне ведущего разработчика;\n✔️Знание шаблонов проектирования, опыт использования MVP и других архитектурных подходов;\n✔️Знание шаблонов проектирования пользовательских интерфейсов для iOS 9+ (Human Interface Guidelines);\n✔️Знание iOS SDK (UIKit, Foundation, CoreLocation и др.), общее понимание архитектуры iOS;\n✔️Знание особенностей UiKit: storyboards, autolayout, size classes;\n✔️Знание CocoaPods, FastLane, Xcode utils, code analyzers;\n✔️Опыт параллельного и многопоточного программирования, знание примитивов синхронизации (std::thread, std::mutex и тд);\n✔️Понимание циклов работы IOS-приложения и управления памятью;\n✔️Понимание принципов работы REST API, RPC, WS и клиент-серверных приложений;\n✔️Опыт работы с системами контроля версий (Git) и постановки задач (JIRA, TFS, Redmine);\n✔️Знание английского языка на уровне чтения документации и умения общаться в корпоративном чате.\n\nПлюсом будет:\n🔸Знание Objective-С и Swift;\n🔸Умение и понимание необходимости написания Unit tests;\n🔸Знание основ криптографии;\n🔸Опыт работы с bitcoin/etherium blockchain stack;\n🔸Наличие своих проектов на Github, в App Store и т.д.\n\n📲 Контакт : @valeritata","markup":[{"type":"hashtag","offset":38,"length":9,"data":"вакансия"},{"type":"hashtag","offset":48,"length":4,"data":"IOS"},{"type":"hashtag","offset":53,"length":10,"data":"developer"},{"type":"hashtag","offset":64,"length":9,"data":"удаленка"},{"type":"link","offset":101,"length":12,"data":"http://mycelium.com"},{"type":"handle","offset":2196,"length":11,"data":"valeritata"}],"date":"2020-06-15T18:26:28+00:00","link":"tg://resolve?domain=mobile_jobs&post=0","tags":[{"name":"mobile"},{"name":"ios"},{"name":"uikit"},{"name":"cocoapods"},{"name":"xcode"},{"name":"rest"},{"name":"git"},{"name":"tfs"},{"name":"objective-c"},{"name":"swift"},{"name":"github"}],"cities":[],"allowsRemote":true}},{"node":{"__typename":"Job","id":"71322042368-1001054966032","title":"Ios разработчик","text":"#вакансия #Москва #офис #fulltime #IOS #Middle #Senior \nформат работы: полный день\nлокация: Павелецкая\nЗ.п: от 120 до 260K на руки\nКонтакты: @Mironov_Boris \n\nПРЕДСТОИТ:\n• Разработка нового функционала приложения Rubetek Умный Дом и доработка имеющегося;\n• Участвовать в обсуждении новых задач и давать оценки своим задачам;\n• Участие в процессе архитектурного проектирования;\n• Разработка принципиально нового функционала приложения.\n \nОЖИДАЕМ:\n• Опыт программирования на Swift и Obj C от 2-х лет;\n• Опыт параллельного и многопоточного программирования;\n• Опыт разработки сетевых приложений;\n• Понимание принципов ООП и шаблонов проектирования;\n• Умение разбираться и работать с чужим кодом.\nПлюсом будет опыт работы с веб сокетами, IoT, EspTouch, опыт проектирования клиент-серверного взаимодействия с требованиями к серверной стороне, опыт рефакторинга Obj C и разделения приложения на модули\n \nПРЕДЛАГАЕМ:\n• Современный офис в стиле Loft в шаговой доступности от м. Павелецкая (7–10 минут), БЦ «Симонов Плаза»;\n• Официальное оформление и соблюдение ТК РФ;\n• График работы: понедельник – пятница с гибким началом рабочего дня (приход на работу до 11-00)","markup":[{"type":"hashtag","offset":0,"length":9,"data":"вакансия"},{"type":"hashtag","offset":10,"length":7,"data":"Москва"},{"type":"hashtag","offset":18,"length":5,"data":"офис"},{"type":"hashtag","offset":24,"length":9,"data":"fulltime"},{"type":"hashtag","offset":34,"length":4,"data":"IOS"},{"type":"hashtag","offset":39,"length":7,"data":"Middle"},{"type":"hashtag","offset":47,"length":7,"data":"Senior"},{"type":"bold","offset":71,"length":12,"data":""},{"type":"bold","offset":118,"length":4,"data":""},{"type":"handle","offset":141,"length":14,"data":"Mironov_Boris"},{"type":"bold","offset":158,"length":11,"data":""},{"type":"bold","offset":436,"length":9,"data":""},{"type":"bold","offset":897,"length":12,"data":""}],"date":"2020-06-15T18:26:09+00:00","link":"tg://resolve?domain=mobile_jobs&post=0","tags":[{"name":"mobile"},{"name":"ios"},{"name":"swift"}],"cities":[{"code":"moscow"}],"allowsRemote":false}},{"node":{"__typename":"Job","id":"71319945216-1001054966032","title":"Ios разработчик","text":"#вакансия #Москва #fulltime #swift #middle \nКомпания: Trinity Monsters\nПозиция: middle iOS developer\nЛокация: Россия, Москва, офис в самом центре, у метро Охотный Ряд\nЗанятость: полная \n\nЗП: от 150.000 до 200.000 руб. на руки\n\nНа новый проект (с нуля), нужен разработчик в команду. Мы занимаемся разработкой с 2013 года и входим в ТОП-10 лучших разработчиков Москвы. У нас небольшой коллектив, с которым мы реализуем амбициозные проекты (Nespresso, Азбука Вкуса, Газпром-Нефть, ВТБ, несколько внутренних проектов-стартапов).\n\nИщем разработчиков уровня middle и выше.  \n\nПочему мы:\n⁃ гибкий график\n⁃ отлаженный менеджмент\n⁃ большие проекты \n⁃ работа с разнообразными интересными и амбициозными проектами\n⁃ сложные технические задачи, возможность развития и роста\n⁃ просторный комфортный офис в 2-х минутах от метро Охотный ряд с кухней, чаем, кофе и т.д.\n⁃ возможность влиять на продукт и вносить свои идеи\n⁃ оформление по ТК РФ\n\nДля связи @vicemik","markup":[{"type":"hashtag","offset":0,"length":9,"data":"вакансия"},{"type":"hashtag","offset":10,"length":7,"data":"Москва"},{"type":"hashtag","offset":18,"length":9,"data":"fulltime"},{"type":"hashtag","offset":28,"length":6,"data":"swift"},{"type":"hashtag","offset":35,"length":7,"data":"middle"},{"type":"handle","offset":939,"length":8,"data":"vicemik"}],"date":"2020-06-15T17:52:46+00:00","link":"tg://resolve?domain=mobile_jobs&post=0","tags":[{"name":"mobile"},{"name":"ios"},{"name":"swift"}],"cities":[{"code":"moscow"}],"allowsRemote":false}},{"node":{"__typename":"Job","id":"71308410880-1001054966032","title":"Ios developer","text":"#вакансия #ios #swift #senior #middle #петербург #fulltime\n\niOS Developer (Senior, Middle)\nЗ/п: 2000-3500$\n\nLifestyle Production Group - американская компания, лидер в индустрии видеомаркетинга элитного сегмента \nhttps://lifestyleproduction.com\n\nЧто нужно делать:\nРазработка внутреннего продукта компании в сфере видеоредактирования\n\nДля нас важно: \n 1. Опыт коммерческой разработки\n 2. Практический опыт работы с многопоточностью и autolayout\n 3. Наличие примеров кода\n\nЧто предлагаем:\n 1. Работа над быстро развивающимся, востребованным продуктом в перспективной индустрии\n 2. Работа на иностранный рынок\n 3. Корпоративное оборудование, индивидуальная комплектация рабочего места\n 4. Good energy vibe\n\nКонтакты: @nadipakhomova, nadya@lifestyleproduction.com","markup":[{"type":"hashtag","offset":0,"length":9,"data":"вакансия"},{"type":"hashtag","offset":10,"length":4,"data":"ios"},{"type":"hashtag","offset":15,"length":6,"data":"swift"},{"type":"hashtag","offset":22,"length":7,"data":"senior"},{"type":"hashtag","offset":30,"length":7,"data":"middle"},{"type":"hashtag","offset":38,"length":10,"data":"петербург"},{"type":"hashtag","offset":49,"length":9,"data":"fulltime"},{"type":"bold","offset":60,"length":30,"data":""},{"type":"bold","offset":91,"length":16,"data":""},{"type":"link","offset":213,"length":31,"data":"https://lifestyleproduction.com"},{"type":"bold","offset":246,"length":18,"data":""},{"type":"bold","offset":334,"length":16,"data":""},{"type":"bold","offset":471,"length":16,"data":""},{"type":"handle","offset":714,"length":14,"data":"nadipakhomova"},{"type":"link","offset":730,"length":29,"data":"mailto:nadya@lifestyleproduction.com"}],"date":"2020-06-15T14:30:11+00:00","link":"tg://resolve?domain=mobile_jobs&post=0","tags":[{"name":"mobile"},{"name":"ios"},{"name":"swift"}],"cities":[],"allowsRemote":false}},{"node":{"__typename":"Job","id":"71304216576-1001054966032","title":"Ios разработчик","text":"💪#вакансия #удалёнка #iOS #fulltime  #Middle+/#Senior    \n💵З/П 2200-2400 $/месяц по итогам собеседования\nРабота: удалёнка\n\nЧеловек в среднем больше сотни раз взаимодействует с клавиатурой своего мобильного устройства. Для большинства пользователей нашего приложения мы делаем этот процесс  интереснее и выгодней. Мы также оцениваем эмоциональное состояние пользователя, в процессе его взаимодействия с клавиатурой. Руководство компании из топ-менеджмента крупнейших глобальных игроков мобильного рынка. В данный момент открыта вакансия Middle+/Senior IOS разработчика, в подчинении 2 сотрудника                                                                                                               \n\n📌Обязанности:\n- Разработка кастомной клавиатуры iOS\n- Подключение ML-алгоритмов (TensorFlow) распознавания эмоций к iOS-клавиатуре\n- Разработка кода обработки данных камеры, микрофона\n\n📌Требования:\n- Уверенное знание Swift;\n- Хорошее знание платформы iOS, инструментов разработки, работы UI;\n- Опыт работы с REST API, HTTP, JSON, APNs;\n- Знакомство с библиотеками CoreData, AVFoundation, CoreML и CreateML\n- Желание развиваться и развивать свои знания            \n-Знание английского на уровне от Intermediate желательно                                                                                                               \n\n📌Будет плюсом:\n- Опыт работы c TensorFlow на iOS\n- Опыт работы с OpenCV на iOS\n- Опыт работы с фреймворком SwiftUI\n\n📌Условия:\n- Отсутствие бюрократии\n- Время начала рабочего дня обговариваем индивидуально\n- Come to the Dark Side, we have тёплая ламповая атмосфера стартапа, чай, кофе и печеньки!\n- Крутой инновационный проект - возможность самореализации и профессионального роста\n- Стабильное зарубежное финансирование\n- Десятки миллионов установок и множество глобальных партнёров\n📞 Контакты @SvetikS_hr +7(963)-632-12-36 Cветлана","markup":[{"type":"hashtag","offset":2,"length":9,"data":"вакансия"},{"type":"hashtag","offset":12,"length":9,"data":"удалёнка"},{"type":"hashtag","offset":22,"length":4,"data":"iOS"},{"type":"hashtag","offset":27,"length":9,"data":"fulltime"},{"type":"hashtag","offset":38,"length":7,"data":"Middle"},{"type":"hashtag","offset":47,"length":7,"data":"Senior"},{"type":"handle","offset":1841,"length":11,"data":"SvetikS_hr"},{"type":"link","offset":1853,"length":17,"data":"tel:+7(963)-632-12-36"}],"date":"2020-06-15T13:31:43+00:00","link":"tg://resolve?domain=mobile_jobs&post=0","tags":[{"name":"mobile"},{"name":"ios"},{"name":"tensorflow"},{"name":"swift"},{"name":"rest"},{"name":"json"},{"name":"opencv"}],"cities":[],"allowsRemote":true}},{"node":{"__typename":"Job","id":"102840139776-1001089317451","title":"Qa инженер","text":"#СПб #fulltime #офис #вакансия\n\nQA engineer (manual/AT)\n\nМеждународная продуктовая ИТ компания ТТ DEVELOPMENT приглашает присоединиться к команде опытного инженера по тестированию для обеспечения качества выпускаемого ПО.\n\nО наших продуктах: youtube.com/channel/UCNyfseLuQVXVo79c8-bQEzQ\n\nЧем предстоит заниматься?\n\n- Проводить анализ, оценку, испытания решений для гарантированного высокого качества нашего программного обеспечения;\n- Производить мониторинг последних технических разработок и делать предложения по улучшению наших продуктов на основе вашего опыта и знаний;\n- Тестировать наше программное обеспечение (ручное);\n- Оказывать поддержку команды саппорта по всем нестандартным запросам;\n- Обновлять и создавать документацию и часто задаваемые вопросы;\n- Если имеются знания автоматизированного тестирования, писать и выполнять тесты (Java).\n\nНам важно, чтобы у тебя было:\n\n- Опыт работы на аналогичной должности от 2х лет;\n- Опыт работы с приложениями, написанными на разных языках программирования, в частности: C/C ++, Java (Kotlin), Go, Swift;\n- Понимание основ программирования: структуры данных, алгоритмы;\n- Умение работать с базами данных на уровне простых запросов MySQL, Mongo;\n- Понимание клиент-серверной архитектуры (опыт работы с этим, понимание этого);\n- Опыт работы с REST API;\n- Умение гуглить выше среднего;\n- Владение инструментами ручного тестировщика под разные платформы и разные задачи (postman, fiddler, wireshark, loggers, adb etc);\n- Работа с командной строкой *nix систем;\n- Уверенное знание английского языка для общения устно и письмом;\n- Готовность выполнить тестовое задание.\n\nУсловия работы:\n\n- График 5/2, 8-ми часовой рабочий день, гибкое начало рабочего дня;\n- Стабильная заработная плата (фиксированный оклад), устанавливается по итогам собеседования;\n- Оформление по ТК РФ, испытательный срок 3 месяца;\n- Современный, уютный офис в 15 мин. ходьбы от м. Бухарестская.\n\nПочему с нами круто работать:\n\n- Нетривиальный продукт и такая же команда;\n- Работа в международной компании с возможностью практики английского языка;\n- Белоснежно белая заработная плата;\n- Бизнес-ланчи за счёт компании;\n- Свободный стиль в одежде - у нас можно оставаться собой;\n- Неформальное общение и быстрые решения без лишней бюрократии и грозных начальников;\n- Компенсация 50% годового абонемента в fitness-зале;\n- Яркая корпоративная жизнь (поздравления коллег, пятничные вечера с пиццей и настолками, корпоративные подарки и многое другое);\n- Relax уголок с Sony Playstation 4;\n- Фруктовые дни, чай, кофе, конфетки и пр.;\n- У нас точно некогда будет скучать ;)\n\nВилка: от 60 000 до 120 000 руб. до вычета налогов\n\nHR специалист: Бэлла, telegram bellykim","markup":[{"type":"hashtag","offset":0,"length":4,"data":"СПб"},{"type":"hashtag","offset":5,"length":9,"data":"fulltime"},{"type":"hashtag","offset":15,"length":5,"data":"офис"},{"type":"hashtag","offset":21,"length":9,"data":"вакансия"},{"type":"bold","offset":32,"length":25,"data":""},{"type":"bold","offset":94,"length":15,"data":""},{"type":"bold","offset":223,"length":17,"data":""},{"type":"link","offset":242,"length":44,"data":"http://youtube.com/channel/UCNyfseLuQVXVo79c8-bQEzQ"},{"type":"bold","offset":288,"length":27,"data":""},{"type":"bold","offset":853,"length":31,"data":""},{"type":"bold","offset":1618,"length":17,"data":""},{"type":"bold","offset":1915,"length":31,"data":""},{"type":"bold","offset":2587,"length":6,"data":""}],"date":"2020-06-15T10:15:29+00:00","link":"tg://resolve?domain=qa_jobs&post=0","tags":[{"name":"qa"},{"name":"java"},{"name":"kotlin"},{"name":"swift"},{"name":"mysql"},{"name":"rest"}],"cities":[],"allowsRemote":false}},{"node":{"__typename":"Job","id":"26294091776-1001075660570","title":"Php разработчик","text":"#вакансия #удалённо #фронтенд #javascript #AngularJs #Symfony\n\nКомпания: Промрукав\nО компании: Компания «Промрукав» — это торгово-производственная организация, с 1999 года динамично развивающаяся на рынке кабеленесущих систем. \nФормат работы: удалённая работа, график работы 5/2, частичная занятость (<5 ч/день), по желанию возможна работа в офисе\nПроект: B2B Ecommerce\nЗаработная плата: от 50 000 и выше (на руки)\nЗадачи/Обязанности: \nПоддержка и развитие e-commerce проектов компании: b2b-платформа, сайт: \n- разработка новых сервисов компании\n- оптимизация и поддержка текущих продуктов\n- улучшать имеющийся функционал и разрабатывать новый \n- участвовать в принятии архитектурных решений\n- способного к эффективному взаимодействию удалённо или в офисе\n- чёткое следование установленным Вами же срокам \n- оперативное решение проблем   \nСтек: \n  LAMP/LEMP для оптовой онлайн торговли.\n  PHP 7, MySQL, Nginx, Nodejs\n  Фреймворки: Symfony (Symfony console component, Symfony process component, Swift Mailer)\n  Модульная сетка и внешний вид: gentelella\n  Фреймворки: bootstrap, AngularJs\n\nТребования:\n•  Опыт работы от 3х лет\n•  Уверенное знание , MySQL, OOP, Composer, Design patterns в целом, Git.  PHP 7 \n•  Навыки работы в Linux, Apache/nginx, Bootstrap (Gentelella), AngularJs, Nodejs (сборщик js -> gulp на nodejs работает + различные js компоненты). \n•  Приветствуются знания в области интеграции сайта с 1С (использование Web- и HTTP-сервисов) \n\nЧто предлагаем: \nМы не web-студия и не зарабатываем, продавая Ваши способности третьим лицам, поэтому для разработчика наши проекты — это возможность заниматься одним интересным делом без необходимости каждый раз вникать в новый проект и тонкости его работы. Преимущества работы у нас это:\n • стабильный ежемесячный заработок в формате удалённой работы с оформление по ТК; \n • небольшой, но очень дружный коллектив (ИТ-отдел);\n • один руководитель;  \n • возможность посещения всероссийских и международных IT-конференций;\n • возможность принимать участие в корпоративных мероприятиях (проезд оплачивается)\n\nКонтакт для связи: \nTelegram: @dnmit","markup":[{"type":"hashtag","offset":0,"length":9,"data":"вакансия"},{"type":"hashtag","offset":10,"length":9,"data":"удалённо"},{"type":"hashtag","offset":20,"length":9,"data":"фронтенд"},{"type":"hashtag","offset":30,"length":11,"data":"javascript"},{"type":"hashtag","offset":42,"length":10,"data":"AngularJs"},{"type":"hashtag","offset":53,"length":8,"data":"Symfony"},{"type":"handle","offset":2095,"length":6,"data":"dnmit"}],"date":"2020-06-14T14:06:14+00:00","link":"tg://resolve?domain=php_jobs&post=25076","tags":[{"name":"php"},{"name":"javascript"},{"name":"angularjs"},{"name":"symfony"},{"name":"mysql"},{"name":"nginx"},{"name":"nodejs"},{"name":"swift"},{"name":"bootstrap"},{"name":"git"},{"name":"linux"},{"name":"apache"},{"name":"gulp"},{"name":"web"}],"cities":[],"allowsRemote":true}},{"node":{"__typename":"Job","id":"71214039040-1001054966032","title":"Ios разработчик","text":"#вакансия #iOS \n\nНа проект от крупного российского банка требуется Middle iOS разработчик\n\nФормат: офис/удаленка \n\nВилка ЗП: 150-180К\n\nЛокация: Москва/СПБ\n\nТребования:\nОпыт разработки под IOS (Objective-C или Swift) от 2 лет\nУверенное знание iOS SDK, Xcode\nОпыт использования одной из архитектур: MVP, MVVM, VIPER\nЗнание особенностей: Collections, Optionals, Protocol Oriented, Generics\nПонимание, как происходит управление памятью в iOS\nПонимание принципов проектирования SOLID и желание придерживаться их\nНаличие опыта работы с REST API, HTTP, JSON, APNs\nОпыт работы с Git, знание git flow\nЖелательно уметь писать UI тесты\nЖелателен опыт в команде\n\nКонтакт: @mxm_at","markup":[{"type":"hashtag","offset":0,"length":9,"data":"вакансия"},{"type":"hashtag","offset":10,"length":4,"data":"iOS"},{"type":"handle","offset":660,"length":7,"data":"mxm_at"}],"date":"2020-06-13T11:49:54+00:00","link":"tg://resolve?domain=mobile_jobs&post=0","tags":[{"name":"mobile"},{"name":"ios"},{"name":"objective-c"},{"name":"swift"},{"name":"xcode"},{"name":"mvvm"},{"name":"rest"},{"name":"json"},{"name":"git"}],"cities":[{"code":"moscow"}],"allowsRemote":true}}]}}},"context":{}}