{"hash":"f5f6bf98bd95e769321482904cbbd488f77922fd","data":{"records":{"id":"javascript","name":"javascript","belongsTo":{"totalCount":272,"pageInfo":{"totalPages":28,"currentPage":15},"edges":[{"node":{"__typename":"Job","id":"17093885952-1001110946746","title":"Js разработчик","text":"#вакансия #работа #удаленка #backend #node #nodejs #remote\nГород и адрес офиса: Москва, Савеловская\nФормат работы: удаленка\nЗанятость: полная || проектная\nЗарплатная вилка: 100-160 т.р.\n\nОписание вакансии: \nИщем опытного backend-разработчика node.js для разработки высоконадежных транзакционных сервисов интеграции с различными системами\n\nТребования:\n• Опыт работы с унаследованными системами\n• Знание PHP на уровне понимания и чтения кода будет плюсом\n• Знание и понимание работы сетевых протоколов TCP/IP, HTTP, SMTP, IMAP\n• Знание и понимание языка JavaScript и связанных с ним технологий и фреймворков\n• Опыт разработки серверных приложений\n• Понимание основных процессов разработки, умение работать в команде\n• Понимание принципов ООП, подходов в программировании и требований к транзакционным системам\n\nЗадачи:\n• Разработка высоконадежных транзакционных сервисов интеграции с различными системами\n• Поддержка и модернизация существующих систем\n\nНазвание компании: TechPlatforms (https://techpl.net)\nКонтакты:@desych79\n\n—\n\n👉 Обсуждение вакансии в чате @javascript_jobs","markup":[{"type":"hashtag","offset":0,"length":9,"data":"вакансия"},{"type":"hashtag","offset":10,"length":7,"data":"работа"},{"type":"hashtag","offset":18,"length":9,"data":"удаленка"},{"type":"hashtag","offset":28,"length":8,"data":"backend"},{"type":"hashtag","offset":37,"length":5,"data":"node"},{"type":"hashtag","offset":43,"length":7,"data":"nodejs"},{"type":"hashtag","offset":51,"length":7,"data":"remote"},{"type":"link","offset":985,"length":18,"data":"https://techpl.net"},{"type":"handle","offset":1014,"length":9,"data":"desych79"},{"type":"handle","offset":1058,"length":16,"data":"javascript_jobs"}],"date":"2020-06-21T08:02:39+00:00","link":"tg://resolve?domain=javascript_jobs_feed&post=16302","tags":[{"name":"javascript"},{"name":"nodejs"},{"name":"php"},{"name":"smtp"},{"name":"dotnet"}],"cities":[{"code":"moscow"}],"allowsRemote":true}},{"node":{"__typename":"Job","id":"17090740224-1001110946746","title":"Js разработчик","text":"#вакансия\n\nФормат работы:  удаленка\nЗанятость: частичная, проектная\nЗарплатная вилка: 800руб в ч \nОписание вакансии: ищу JS разработчика с опытом работы с telegram bot API и желательно google spreadsheets api.\n\nудаленка, доработка существующего продукта, халфтайм на 3-6 месяцев\n\nНазвание компании: Anybots\nКонтакты: @spiritized\n\nесли интересно - пишите в лс с портфолио (над чем работали, какую роль в этом выполняли)\n\n—\n\n👉 Обсуждение вакансии в чате @javascript_jobs","markup":[{"type":"hashtag","offset":0,"length":9,"data":"вакансия"},{"type":"handle","offset":317,"length":11,"data":"spiritized"},{"type":"handle","offset":453,"length":16,"data":"javascript_jobs"}],"date":"2020-06-20T13:21:38+00:00","link":"tg://resolve?domain=javascript_jobs_feed&post=16299","tags":[{"name":"javascript"}],"cities":[],"allowsRemote":true}},{"node":{"__typename":"Job","id":"17089691648-1001110946746","title":"Js developer","text":"#вакансия #удаленка #nodejs \n\nRocketech.it ищет Middle+ Backend Node.js Developer\n\nФормат занятости: удаленка\nЗанятость: full-time\nЗарплатная вилка: 2000-2700$/месяц на руки\n\nО компании: \n\nRocketech - компания, предоставляющая полноценные продуктовые команды для инвесторов, стартаперов и крупных компаний. Мы уже больше 5 лет на рынке разработки програмного обеспечения. Сотни выполненых кейсов, десятки крупных клиентов. \n\nО проекте:\n\nМаркетинговый инструмент.\n\nСтек технологий: \n\nNest.js, MongoDB\n\nТребования: \n\n3+ года опыта коммерческой разработки на Node.js\n\nБудет плюсом:\n\nРазговорный английский\n\nКонтакт: @mxm_at\n\n—\n\n👉 Обсуждение вакансии в чате @javascript_jobs","markup":[{"type":"hashtag","offset":0,"length":9,"data":"вакансия"},{"type":"hashtag","offset":10,"length":9,"data":"удаленка"},{"type":"hashtag","offset":20,"length":7,"data":"nodejs"},{"type":"link","offset":30,"length":12,"data":"http://Rocketech.it"},{"type":"handle","offset":613,"length":7,"data":"mxm_at"},{"type":"handle","offset":655,"length":16,"data":"javascript_jobs"}],"date":"2020-06-20T10:39:10+00:00","link":"tg://resolve?domain=javascript_jobs_feed&post=16298","tags":[{"name":"javascript"},{"name":"nodejs"},{"name":"mongodb"}],"cities":[],"allowsRemote":true}},{"node":{"__typename":"Job","id":"17087594496-1001110946746","title":"Js разработчик","text":"#вакансия #работа #удаленка #backend #node #nodejs #remote\nГород и адрес офиса: Москва, Савеловская\nФормат работы: удаленка\nЗанятость: полная || проектная\nЗарплатная вилка: 100-160 т.р.\n\nОписание вакансии: \nИщем опытного backend-разработчика node.js для разработки высоконадежных транзакционных сервисов интеграции с различными системами\n\nТребования:\n• Опыт работы с унаследованными системами\n• Знание PHP на уровне понимания и чтения кода будет плюсом\n• Знание и понимание работы сетевых протоколов TCP/IP, HTTP, SMTP, IMAP\n• Знание и понимание языка JavaScript и связанных с ним технологий и фреймворков\n• Опыт разработки серверных приложений\n• Понимание основных процессов разработки, умение работать в команде\n• Понимание принципов ООП, подходов в программировании и требований к транзакционным системам\n\nЗадачи:\n• Разработка высоконадежных транзакционных сервисов интеграции с различными системами\n• Поддержка и модернизация существующих систем\n\nНазвание компании: TechPlatforms (https://techpl.net)\nКонтакты:@desych79\n\n—\n\n👉 Обсуждение вакансии в чате @javascript_jobs","markup":[{"type":"hashtag","offset":0,"length":9,"data":"вакансия"},{"type":"hashtag","offset":10,"length":7,"data":"работа"},{"type":"hashtag","offset":18,"length":9,"data":"удаленка"},{"type":"hashtag","offset":28,"length":8,"data":"backend"},{"type":"hashtag","offset":37,"length":5,"data":"node"},{"type":"hashtag","offset":43,"length":7,"data":"nodejs"},{"type":"hashtag","offset":51,"length":7,"data":"remote"},{"type":"link","offset":985,"length":18,"data":"https://techpl.net"},{"type":"handle","offset":1014,"length":9,"data":"desych79"},{"type":"handle","offset":1058,"length":16,"data":"javascript_jobs"}],"date":"2020-06-20T10:35:03+00:00","link":"tg://resolve?domain=javascript_jobs_feed&post=16296","tags":[{"name":"javascript"},{"name":"nodejs"},{"name":"php"},{"name":"smtp"},{"name":"dotnet"}],"cities":[{"code":"moscow"}],"allowsRemote":true}},{"node":{"__typename":"Job","id":"17084448768-1001110946746","title":"Javascript разработчик","text":"#вакансия #удаленка #работа #html #css #javascript \n\nГород и адрес офиса: любой\nФормат работы: удаленка\nЗанятость: полная\nЗарплатная вилка:  2000$ - 2400$\n\nИщем крутого верстальщика, фултайм, американский стартап (крутая стартап-корпоративная культура, адекватное начальство, зарплата по курсу в долларах), свой продукт, рост по знаниям и деньгам! \n\nТребования: \n • Уметь в верстку на 10 из 5 (responsive / adaptive, Pixel Perfect, SASS, HTML5, SEO Optimized, дружить с Figma) \n • Быть адекватным - четко соблюдать оговоренные условия (если вы не придете на пару интервью вовремя или любите проспать гибкое начало рабочего дня - не пишите нам) \n • Мочь в письменный английский (а если можете говорить - это +100 к нашей совместимости) \n\nПолная вакансия по ссылке: https://career.habr.com/vacancies/1000059669 \n\nДополнительные инструкции: Пожалуйста, присылайте ссылки на ваше CV, ссылки на LinkedIn / Habr страничку, ссылку на гитхаб и по возможности портфолио на sergey@waltbury.com\n\n—\n\n👉 Обсуждение вакансии в чате @javascript_jobs","markup":[{"type":"hashtag","offset":0,"length":9,"data":"вакансия"},{"type":"hashtag","offset":10,"length":9,"data":"удаленка"},{"type":"hashtag","offset":20,"length":7,"data":"работа"},{"type":"hashtag","offset":28,"length":5,"data":"html"},{"type":"hashtag","offset":34,"length":4,"data":"css"},{"type":"hashtag","offset":39,"length":11,"data":"javascript"},{"type":"link","offset":764,"length":44,"data":"https://career.habr.com/vacancies/1000059669"},{"type":"link","offset":964,"length":19,"data":"mailto:sergey@waltbury.com"},{"type":"handle","offset":1018,"length":16,"data":"javascript_jobs"}],"date":"2020-06-19T19:03:46+00:00","link":"tg://resolve?domain=javascript_jobs_feed&post=16293","tags":[{"name":"javascript"},{"name":"html"},{"name":"css"},{"name":"sass"},{"name":"seo"}],"cities":[],"allowsRemote":true}},{"node":{"__typename":"Job","id":"17082351616-1001110946746","title":"Javascript разработчик","text":"#вакансия #front #react #typescript #москва #генетика #javascript #геномэксперт #барсгруп\n\nГород и адрес офиса: Москва, ст.м.Павелецкая\nФормат работы: Офис\nЗанятость: полная.\nЗарплатная вилка: от 200.000 до 300.000 рублей на руки. \nНазвание компании: Барс Груп\nhttps://bars.group/\nПроект Геном.Эксперт  - https://genome.expert/ \n\nТребуется senior/middle front-end разработчик в крупный медицинский проект.\n\nПредметная область: Генетика. \nТекущее состояние проекта: \nПроект запущен с прошлого года, сейчас добираем команду по потребностям проекта и новым направлениям, есть уникальная возможность принять участие в создании единого пространства для врачей-генетиков, лабораторных генетиков и биоинформатиков.\n\n✅Чем придется заниматься:\n\n- Писать микроприложения и компоненты на React (В данный момент есть большое приложение, его разбиваем на небольшие)\n- Пилить компоненты для ui-kit\n- Менять legacy components(polymer) на react components\n\n\n✔️Требования:\n\n-Front-end: React(Vue), typescript, Redux/Mobx/Vuex;\n-Межсервисное взаимодействие и API: REST/GraphQL/gRPC. \n\n✔️Инструменты для работы: \n\nGit, bitbucket, JIRA, docker, docker-compose. \n\n✔️Условия:\n\n-Оформление по ТК РФ;\n-Работа в офисе в пешей доступности от ст.м.Павелецкая (на данный момент удаленка);\n-График 5/2, гибкое начало рабочего дня ;\n-Белая зарплата, повышающаяся по системе аттестаций несколько раз в год;\n-ДМС;\n-Перспективы карьерного роста;\n-Корпоративное обучение (тренинги, мастер-классы);\n-Корпоративная библиотека;\n-Мы рассматриваем кандидатов с возможностью переезда в Москву;\n-Возможность предоставления бесплатного жилья на первый месяц. \n\nКонтакты для связи: \n\nemail: a.starchenko@bars.group \nTelegram: @alinavelcheva \n\nbars.group\nАО «БАРС Груп» - официальный сайт компании\nАО «БАРС Груп» - российский производитель ИТ-решений и экспертный центр в сфере государственной и корпоративной информатизации.\n\n—\n\n👉 Обсуждение вакансии в чате @javascript_jobs","markup":[{"type":"hashtag","offset":0,"length":9,"data":"вакансия"},{"type":"hashtag","offset":10,"length":6,"data":"front"},{"type":"hashtag","offset":17,"length":6,"data":"react"},{"type":"hashtag","offset":24,"length":11,"data":"typescript"},{"type":"hashtag","offset":36,"length":7,"data":"москва"},{"type":"hashtag","offset":44,"length":9,"data":"генетика"},{"type":"hashtag","offset":54,"length":11,"data":"javascript"},{"type":"hashtag","offset":66,"length":13,"data":"геномэксперт"},{"type":"hashtag","offset":80,"length":9,"data":"барсгруп"},{"type":"link","offset":261,"length":19,"data":"https://bars.group/"},{"type":"link","offset":305,"length":22,"data":"https://genome.expert/"},{"type":"link","offset":1648,"length":23,"data":"mailto:a.starchenko@bars.group"},{"type":"handle","offset":1683,"length":14,"data":"alinavelcheva"},{"type":"link","offset":1700,"length":10,"data":"http://bars.group"},{"type":"handle","offset":1916,"length":16,"data":"javascript_jobs"}],"date":"2020-06-19T18:52:18+00:00","link":"tg://resolve?domain=javascript_jobs_feed&post=16291","tags":[{"name":"javascript"},{"name":"reactjs"},{"name":"typescript"},{"name":"polymerjs"},{"name":"vuejs"},{"name":"redux"},{"name":"rest"},{"name":"graphql"},{"name":"git"},{"name":"docker"},{"name":"docker-compose"}],"cities":[{"code":"moscow"}],"allowsRemote":true}},{"node":{"__typename":"Job","id":"17081303040-1001110946746","title":"Javascript разработчик","text":"#вакансия #javascript #typescript \n\nFrontend-разработчик (удаленно)\n\nГород и адрес офиса: Санкт-Петербург\nФормат работы: офис или удаленка / full time\nЗанятость: полная\nЗарплатная вилка: от 100К до 280К\n\nОписание вакансии: \n\nОсновной стек технологий — JavaScript, TypeScript, HTML/CSS. Сейчас мы разрабатываем бизнес-функционал приложения и будем рады новому специалисту в нашей команде, который вольется в проект и мы вместе будем делать frontend с нативным кодом и отзывчивым интерфейсом.\n\nМы ожидаем, что у вас есть:\n\n— Хорошее знание JavaScript, TypeScript, HTML/CSS;\n\n— Умение пользоваться отладчиком в браузере;\n\n— Навыки уверенной работы с Git.\n\nРады предложить:\n\n— Возможность работать удаленно;\n\n— Желаемый оклад по результатам собеседования;\n\n— Понятную систему роста зарплаты каждые 6 месяцев, в которой все зависит только от вас;\n\nУ нас есть общие ценности, такие как стремление к качественному результату, забота о продукте и желание двигаться вперед. Также у нас нет “Начальства”, а есть коллеги. Все взаимодействуют горизонтально, работают бок о бок и делают одно общее дело.\n\nБлагодарим за внимание к нашей вакансии, будем рады познакомиться и ответить на ваши вопросы ツ\n\nНазвание компании: Blogman https://orenburg.hh.ru/employer/3069197\nКонтакты: @alinablogman\n\n—\n\n👉 Обсуждение вакансии в чате @javascript_jobs","markup":[{"type":"hashtag","offset":0,"length":9,"data":"вакансия"},{"type":"hashtag","offset":10,"length":11,"data":"javascript"},{"type":"hashtag","offset":22,"length":11,"data":"typescript"},{"type":"link","offset":1215,"length":39,"data":"https://orenburg.hh.ru/employer/3069197"},{"type":"handle","offset":1265,"length":13,"data":"alinablogman"},{"type":"handle","offset":1313,"length":16,"data":"javascript_jobs"}],"date":"2020-06-19T18:48:58+00:00","link":"tg://resolve?domain=javascript_jobs_feed&post=16290","tags":[{"name":"javascript"},{"name":"typescript"},{"name":"html"},{"name":"css"},{"name":"git"}],"cities":[{"code":"orenburg"}],"allowsRemote":true}},{"node":{"__typename":"Job","id":"17080254464-1001110946746","title":"Js разработчик","text":"#вакансия #вакансии #удаленная #работа #разработчик #remote #job #remotejob #full #stack #fullstack #software #engineer #develop #developer #node #react #amazon #aws #api #crm #erp #zoho #us #usa\n\n😎 Full Stack Software Engineer\n\nКомпания: Deep Consulting Solutions (Austin, Texas)\n\nМестоположение: Anywhere\n\nФормат работы: Remote \n\nЗанятость: Full Time, Flexible Schedule \n\nЗарплата: $1000-3000\n \nОписание вакансии:\n\nhttps://zfrmz.com/yIDN35yaj3apxsNfR9qS?src=irina-itrecruiter\n\nRequirements:\n\nYou must be:\n\n- A mature and responsible individual driven by results and not activities.\n- An individual with genuine interest in technology.\n- Willing to learn, grow, and admit mistakes.\n- Able to communicate with other people on the project's team effectively.\n \nSkills/Experience:\n\n- Node.js, React, SQL and NoSQL databases.\n- APIs.\n- Effective Written and Verbal English.\n- Basic Understanding of DevOps and SDLC.\n \nThe following will be a good plus:\n\n- Experience with Amazon AWS, serverless technologies, and microservices on its platform.\n- Experience with CRM and ERP systems such as Zoho and others.\n\nКак подать заявку:\n\nhttps://zfrmz.com/yIDN35yaj3apxsNfR9qS?src=irina-itrecruiter\n\nКонтакт:\n@Aagdan\n\n—\n\n👉 Обсуждение вакансии в чате @javascript_jobs","markup":[{"type":"hashtag","offset":0,"length":9,"data":"вакансия"},{"type":"hashtag","offset":10,"length":9,"data":"вакансии"},{"type":"hashtag","offset":20,"length":10,"data":"удаленная"},{"type":"hashtag","offset":31,"length":7,"data":"работа"},{"type":"hashtag","offset":39,"length":12,"data":"разработчик"},{"type":"hashtag","offset":52,"length":7,"data":"remote"},{"type":"hashtag","offset":60,"length":4,"data":"job"},{"type":"hashtag","offset":65,"length":10,"data":"remotejob"},{"type":"hashtag","offset":76,"length":5,"data":"full"},{"type":"hashtag","offset":82,"length":6,"data":"stack"},{"type":"hashtag","offset":89,"length":10,"data":"fullstack"},{"type":"hashtag","offset":100,"length":9,"data":"software"},{"type":"hashtag","offset":110,"length":9,"data":"engineer"},{"type":"hashtag","offset":120,"length":8,"data":"develop"},{"type":"hashtag","offset":129,"length":10,"data":"developer"},{"type":"hashtag","offset":140,"length":5,"data":"node"},{"type":"hashtag","offset":146,"length":6,"data":"react"},{"type":"hashtag","offset":153,"length":7,"data":"amazon"},{"type":"hashtag","offset":161,"length":4,"data":"aws"},{"type":"hashtag","offset":166,"length":4,"data":"api"},{"type":"hashtag","offset":171,"length":4,"data":"crm"},{"type":"hashtag","offset":176,"length":4,"data":"erp"},{"type":"hashtag","offset":181,"length":5,"data":"zoho"},{"type":"hashtag","offset":187,"length":3,"data":"us"},{"type":"hashtag","offset":191,"length":4,"data":"usa"},{"type":"link","offset":418,"length":60,"data":"https://zfrmz.com/yIDN35yaj3apxsNfR9qS?src=irina-itrecruiter"},{"type":"link","offset":1126,"length":60,"data":"https://zfrmz.com/yIDN35yaj3apxsNfR9qS?src=irina-itrecruiter"},{"type":"handle","offset":1197,"length":7,"data":"Aagdan"},{"type":"handle","offset":1239,"length":16,"data":"javascript_jobs"}],"date":"2020-06-19T18:46:06+00:00","link":"tg://resolve?domain=javascript_jobs_feed&post=16289","tags":[{"name":"javascript"},{"name":"nodejs"},{"name":"reactjs"},{"name":"amazon-web-services"},{"name":"sql"},{"name":"nosql"}],"cities":[{"code":"austin"}],"allowsRemote":true}},{"node":{"__typename":"Job","id":"26477592576-1001075660570","title":"Php разработчик","text":"🏡 При публикации вакансии необходимо указать город и станцию метро (или ближайший ориентир). Если возможна удалённая работа – надо об этом указать явно. \n\n🔵 В группе есть традиция - представляться при входе:\n\n▫️Какой у вас проект или где работаете?\n▫️В чём вы специалист?\n▫️Чем можете быть интересны или полезны сообществу?\n▫️Чем интересно сообщество вам? Что вы ищите?\n▫️Откуда вы?\n▫️Как узнали про группу?\nВ сообщении нужно указать тэг #whois\n\n🔵 Правила чата: \n\n🚫 Реклама запрещена\n🚫 Политика запрещена\n🚫 Флуд и оффтопик запрещён\n🚫 Нецензурная лексика запрещена\n\nЗа несоблюдение правил - одно предупреждение, далее следует бан.\n\nЗдесь публикуем вакансии (указывая тэг #вакансия) и запросы на поиск работы (указывая тэг #ищу) по направлению PHP, Laravel, Symfony, Yii и т.д. Формат любой: full-time, part-time, remote и разовые подработки. Также обмениваемся инсайдами и аналитикой по рынку труда.\n\nЗаметили нарушение? Обратитесь, пожалуйста, к модераторам:\n🔸@Ddonalld \n🔸@DenisIzmaylov\n\n🔵 Параллельно с этой группой развиваются другие группы с вакансиями, запросами на поиск работы и аналитикой по рынку труда в разных направлениях:\n\n🔸@qa_jobs – по всем видам тестирования, его автоматизации и т.д. \n🔸@mobile_jobs – по направлению iOS, Android, Xamarin и т.д.\n🔸@javascript_jobs – по JavaScript, React.js, Node.js, React Native и пр.\n🔸@devops_jobs – по направлению DevOps, Docker, CoreOS, Kubernetes и пр\n🔸@uiux_jobs –  по направлению дизайна UI, UX, Design Thinking, Style Guides, Mobile и т.д.\n🔸@products_jobs – по управлению продуктами, Growth Hacking, Cust Dev, Design Thinking, UX.\n\n🌎 Возможно, вам также будут интересны группы: @qa_ru, @android_ru, @ios_ru, @reactnative_ru, @react_js, @nodejs_ru, @angularjs_ru, @angular2, @devops_ru, @uiux_ru, @products_, @agile_ru, @selfdev_ru. Приятного общения!","markup":[{"type":"hashtag","offset":440,"length":6,"data":"whois"},{"type":"hashtag","offset":677,"length":9,"data":"вакансия"},{"type":"hashtag","offset":728,"length":4,"data":"ищу"},{"type":"handle","offset":968,"length":9,"data":"Ddonalld"},{"type":"handle","offset":981,"length":14,"data":"DenisIzmaylov"},{"type":"handle","offset":1147,"length":8,"data":"qa_jobs"},{"type":"handle","offset":1214,"length":12,"data":"mobile_jobs"},{"type":"handle","offset":1275,"length":16,"data":"javascript_jobs"},{"type":"handle","offset":1349,"length":12,"data":"devops_jobs"},{"type":"handle","offset":1421,"length":10,"data":"uiux_jobs"},{"type":"handle","offset":1513,"length":14,"data":"products_jobs"},{"type":"handle","offset":1651,"length":6,"data":"qa_ru"},{"type":"handle","offset":1659,"length":11,"data":"android_ru"},{"type":"handle","offset":1672,"length":7,"data":"ios_ru"},{"type":"handle","offset":1681,"length":15,"data":"reactnative_ru"},{"type":"handle","offset":1698,"length":9,"data":"react_js"},{"type":"handle","offset":1709,"length":10,"data":"nodejs_ru"},{"type":"handle","offset":1721,"length":13,"data":"angularjs_ru"},{"type":"handle","offset":1736,"length":9,"data":"angular2"},{"type":"handle","offset":1747,"length":10,"data":"devops_ru"},{"type":"handle","offset":1759,"length":8,"data":"uiux_ru"},{"type":"handle","offset":1769,"length":10,"data":"products_"},{"type":"handle","offset":1781,"length":9,"data":"agile_ru"},{"type":"handle","offset":1792,"length":11,"data":"selfdev_ru"}],"date":"2020-06-19T15:11:52+00:00","link":"tg://resolve?domain=php_jobs&post=25251","tags":[{"name":"php"},{"name":"laravel"},{"name":"symfony"},{"name":"yii"},{"name":"mobile"},{"name":"ios"},{"name":"android"},{"name":"xamarin"},{"name":"javascript"},{"name":"reactjs"},{"name":"nodejs"},{"name":"docker"},{"name":"kubernetes"},{"name":"angularjs"},{"name":"react-native"}],"cities":[],"allowsRemote":true}},{"node":{"__typename":"Job","id":"17079205888-1001110946746","title":"Js разработчик","text":"#вакансия  #vue.js #Nuxt.js #удаленно\n\nСрочно ищем Vue.js разработчика\n\nГород и адрес офиса: г.Запорожье, Украина.\nЗанятость: частичная\\проектная \nФормат работы: удаленка\nЗарплатная вилка: от 400 до 1500 usd \n\nОписание вакансии:\nНужен Vue.js разработчик (желательно с опытом Nuxt.js) на проект для выполнения нескольких не слишком сложных задач. Основная задача - получить данные с уже подключенной к проекту headless CMS (directus.io), отрендерить на их основе несколько таблиц и отправить их URL параметрами на сервер. Также будет необходимость внести несколько дополнительных правок. Работа через Upwork под трекером. Если проект закончится успешно - будем заинтересованы в сотрудничестве в будущем.\n\nНазвание компании: Maximumstart\nКонтакты: @polinasvetlaya\n\n—\n\n👉 Обсуждение вакансии в чате @javascript_jobs","markup":[{"type":"hashtag","offset":0,"length":9,"data":"вакансия"},{"type":"hashtag","offset":11,"length":4,"data":"vue"},{"type":"hashtag","offset":19,"length":5,"data":"Nuxt"},{"type":"hashtag","offset":28,"length":9,"data":"удаленно"},{"type":"link","offset":423,"length":11,"data":"http://directus.io"},{"type":"handle","offset":746,"length":15,"data":"polinasvetlaya"},{"type":"handle","offset":796,"length":16,"data":"javascript_jobs"}],"date":"2020-06-19T12:55:52+00:00","link":"tg://resolve?domain=javascript_jobs_feed&post=16288","tags":[{"name":"javascript"},{"name":"vuejs"}],"cities":[],"allowsRemote":true}}]}}},"context":{}}