{"hash":"f5f6bf98bd95e769321482904cbbd488f77922fd","data":{"records":{"id":"kotlin","name":"kotlin","belongsTo":{"totalCount":116,"pageInfo":{"totalPages":12,"currentPage":8},"edges":[{"node":{"__typename":"Job","id":"91576336384-1001067529236","title":"Python разработчик","text":"#вакансия #москва #офис #fulltime #backed #developer #python #вакансия\n \nКомпания: MillionAgents\nГород: Москва (м. Новослободская)\nФормат работы: офис\nЗанятость: полная, гибкое начало дня, пару дней в неделю удаленно\nЗП: от 100.000 до 120.000 руб. на руки.\n \nО компании: \nНаша компания проводит маркетинговые исследования для крупных торговых сетей: собираем, обрабатываем и структурируем данные. Для этого мы разработали онлайн-платформу, с помощью которой управляем массовым персоналом по всей стране в режиме 24/7, а это сотни тысяч пользователей и десятки внутренних сервисов.\nВ проект Retail Intelligence входит:\n- Ценовой мониторинг крупных ритейлеров, работающих на территории РФ;\n- Обработка данных, связанных с товарными единицами (SKU) по фотографиям из торговых точек;\n- Розничные исследования - аналитика динамики цен, отсутствия товарного запаса (out of stock);\n- Получение и обработка данных розничной торговли из открытых источников, предоставление аналитических отчётов на основе этих данных\n\nСейчас мы в поиске  Python разработчика со знанием Django.\n \nОсновная задача: \nСоздавать и поддерживать сервисы в стеке технологий Python/Django и, в меньшей степени, Golang. Также в дальнейшем будет задача по рефактору приложения на Ruby on Rails. Взаимодействие предстоит с одним старшим разработчиком, который и будет ставить задачи. Первоначально будет строгое код-ревью.                                                                                                                                                                                                                                                      Взаимодействие: jira, git.                                                                                                                                                                                                                                                    Что нужно знать и уметь: \n- Знание одной из следующих технологий/языков программирования на уровне джун+/middle: Python/Django, Ruby/Rails;\n- Опыт работы с PostgreSQL;\n- Опыт написания интеграционных тестов;\n- Базовое знание UNIX-систем.Круто, если: \n- Есть опыт администрирования БД (создание таблиц/индексов, дамп таблиц, оптимизация);\n- Есть базовое знание JS-фреймворков, вроде Angular или React;\n- Есть базовое знание одного из следующих языков программирования: Golang, Java/Kotlin, Elixir;\n- Есть понимание работы хранилищ данных в памяти, вроде Redis;\n- Есть опыт работы с менеджерами очередей, вроде RabbitMQ или Apache Kafka;\n- Есть опыт работы с Docker и Jenkins\n                                                                                                                                                                                                                                                                                     Почему именно мы:\n-  Светлый офис с большими окнами у метро Новослободская;\n-  График 5/2, начало рабочего дня с 10:00 - 12:00 часов;\n-  Возможность работать пару дней в неделю удаленно;\n-  Никакой бюрократии;\n-  Очередь технических задач;\n-  Технически грамотное руководство;\n-  Официальное трудоустройство                                                                                                                                                                                                                                 По всем вопросам можно писать в личные сообщения @svetafeeva","markup":[{"type":"hashtag","offset":0,"length":9,"data":"вакансия"},{"type":"hashtag","offset":10,"length":7,"data":"москва"},{"type":"hashtag","offset":18,"length":5,"data":"офис"},{"type":"hashtag","offset":24,"length":9,"data":"fulltime"},{"type":"hashtag","offset":34,"length":7,"data":"backed"},{"type":"hashtag","offset":42,"length":10,"data":"developer"},{"type":"hashtag","offset":53,"length":7,"data":"python"},{"type":"hashtag","offset":61,"length":9,"data":"вакансия"},{"type":"handle","offset":3432,"length":11,"data":"svetafeeva"}],"date":"2020-06-22T10:19:47+00:00","link":"tg://resolve?domain=python_jobs&post=0","tags":[{"name":"python"},{"name":"django"},{"name":"go"},{"name":"ruby"},{"name":"ruby-on-rails"},{"name":"git"},{"name":"postgresql"},{"name":"unix"},{"name":"angularjs"},{"name":"reactjs"},{"name":"java"},{"name":"kotlin"},{"name":"elixir"},{"name":"redis"},{"name":"rabbitmq"},{"name":"apache"},{"name":"kafka"},{"name":"docker"},{"name":"jenkins"}],"cities":[{"code":"moscow"}],"allowsRemote":true}},{"node":{"__typename":"Job","id":"71663878144-1001054966032","title":"Android разработчик","text":"#вакансия #android #kotlin  #senior #удаленнаяработа \n\nКомпания Digital Zone — разработчик информационных систем полного цикла, создает и развивает программные решения под любые задачи заказчика с 2005 года. \n\n💡Мы ищем Android разработчика  уровня senior.\n\nЧего мы ждем:\n✅Опыт командной разработки коммерческих проектов;\n✅Приверженность к чистому коду и принципам S.O.L.I.D;\n✅ Уверенное знание Kotlin, Java и основных шаблонов проектирования;\n✅Уверенное знание Android SDK, опыт с Gradle;\n✅Хорошее понимание Reactive Extensions (RxJava);\n✅Опыт с основными библиотеками (Dagger, Retrofit, Glide, Kodein);\n✅Умение писать Unit и UI тесты;\n✅Знание и опыт применения Material Design;\n✅ Умеете пользоваться git;\n✅Слышали про JIRA, Confluence, Slack, Agile.\n\nОт нас:\n✅Зарплатная вилка от  150 000 до 180 000 рублей;\n✅Сильная команда специалистов, с которой можно расти;\n✅Компенсация занятий спортом, английским языком и проф.обучения;\n✅Удаленная работа;\n✅Работа по Agile-методологиям;\n✅Пересмотр заработной платы по итогам аттестации 2 раза в год.\nОтвечу на любые вопросы по вакансии)\nМои контакты: @Darua_N","markup":[{"type":"hashtag","offset":0,"length":9,"data":"вакансия"},{"type":"hashtag","offset":10,"length":8,"data":"android"},{"type":"hashtag","offset":19,"length":7,"data":"kotlin"},{"type":"hashtag","offset":28,"length":7,"data":"senior"},{"type":"hashtag","offset":36,"length":16,"data":"удаленнаяработа"},{"type":"handle","offset":1093,"length":8,"data":"Darua_N"}],"date":"2020-06-19T14:51:53+00:00","link":"tg://resolve?domain=mobile_jobs&post=0","tags":[{"name":"mobile"},{"name":"android"},{"name":"kotlin"},{"name":"java"},{"name":"gradle"},{"name":"git"}],"cities":[],"allowsRemote":true}},{"node":{"__typename":"Job","id":"71662829568-1001054966032","title":"Android разработчик","text":"#вакансия #developer #android #москва #бауманская\nAndroid Developer\nГород: Москва\nФормат работы: офис\nЗанятость: полная\nЗарплатная вилка: от 100.000 до 250.000 тыс. руб. фикс\n\nИщем middle/senior разработчика в digital-агентство WakeApp для разработки приложений-утилит (forecast, vpn, safe kids etc) + приложение мотивированного траффика.\n\nСтек: Kotlin, RxJava2/RxAndroid, Dagger2, Android Architecture Components (LiveData, ViewModel, Room, Navigation);\n\nС Вас:\n🔸опыт разработки от 2-ух лет;\n🔸хорошие знания стека;\n🔸знание ООП, MVP, MVVM;\n🔸ориентирование в Android SDK, гайдлайнах, best practices;\n\nС нас:\n🔹достойный уровень заработной платы;\n🔹сложные и интересные задачи;\n🔹комфортный офис в пешей доступности от метро (кухня с запасом фруктов, йогуртов, мороженого);\n🔹технологическая свобода;\n🔹отличный коллектив и пятничные посиделки;\n\nКонтакты: @natereaver","markup":[{"type":"hashtag","offset":0,"length":9,"data":"вакансия"},{"type":"hashtag","offset":10,"length":10,"data":"developer"},{"type":"hashtag","offset":21,"length":8,"data":"android"},{"type":"hashtag","offset":30,"length":7,"data":"москва"},{"type":"hashtag","offset":38,"length":11,"data":"бауманская"},{"type":"bold","offset":50,"length":17,"data":""},{"type":"bold","offset":75,"length":6,"data":""},{"type":"bold","offset":97,"length":4,"data":""},{"type":"bold","offset":113,"length":6,"data":""},{"type":"bold","offset":138,"length":15,"data":""},{"type":"bold","offset":154,"length":20,"data":""},{"type":"bold","offset":228,"length":7,"data":""},{"type":"handle","offset":858,"length":11,"data":"natereaver"}],"date":"2020-06-19T14:40:59+00:00","link":"tg://resolve?domain=mobile_jobs&post=0","tags":[{"name":"mobile"},{"name":"android"},{"name":"kotlin"},{"name":"mvvm"}],"cities":[{"code":"moscow"}],"allowsRemote":false}},{"node":{"__typename":"Job","id":"71643955200-1001054966032","title":"Android разработчик","text":"#вакансия #android #java #kotlin #middle #senior #удаленка #remote #fulltime\n\nAndroid-разработчик удаленно от 200 тыс. руб.\n\nГород: Москва\nФормат работы: удаленно\nЗанятость: полная\nЗарплатная вилка: от 200 000 руб. до 250 000 руб. после налогообложения\nКомпания: CORE https://core.company\n\nМы команда разработчиков мобильных приложений и сейчас мы ищем Android-разработчика для одного из наших финтех-проектов.\n\nОсновные требования:\n— Опыт работы от 2-х лет;\n— Знание Java и Kotlin;\n— Опыт работы с Rx;\n— Знание шаблонов проектирования и умение их применять;\n— Понимание принципов SOLID;\n— Знание основных алгоритмов и структур данных;\n— Умение писать поддерживаемый и тестируемый код.\n\nУсловия:\n— Полный день, гибкий график;\n— Оформление по договору ГПХ.\n\nПрисылайте ваше резюме на @tv_corecompany","markup":[{"type":"hashtag","offset":0,"length":9,"data":"вакансия"},{"type":"hashtag","offset":10,"length":8,"data":"android"},{"type":"hashtag","offset":19,"length":5,"data":"java"},{"type":"hashtag","offset":25,"length":7,"data":"kotlin"},{"type":"hashtag","offset":33,"length":7,"data":"middle"},{"type":"hashtag","offset":41,"length":7,"data":"senior"},{"type":"hashtag","offset":49,"length":9,"data":"удаленка"},{"type":"hashtag","offset":59,"length":7,"data":"remote"},{"type":"hashtag","offset":67,"length":9,"data":"fulltime"},{"type":"link","offset":268,"length":20,"data":"https://core.company"},{"type":"handle","offset":783,"length":15,"data":"tv_corecompany"}],"date":"2020-06-19T11:49:24+00:00","link":"tg://resolve?domain=mobile_jobs&post=0","tags":[{"name":"mobile"},{"name":"android"},{"name":"java"},{"name":"kotlin"}],"cities":[{"code":"moscow"}],"allowsRemote":true}},{"node":{"__typename":"Job","id":"71639760896-1001054966032","title":"Android разработчик","text":"#вакансия #senior #Москва #Android #СПБ\nГород: Москва, м. Кутузовская / Санкт-Петербург, Невский проспект, д. 19\nПозиция: Senior Android Developer\nФормат работы: офис\nЗанятость: полная\nВилка: от 200 т.р до 270 т.р.\nКомпания: Dialog (экосистема Сбербанка) - делаем конкурента Slack\n\nИщем в команду senior Android разработчикa для разработки платформы нашего мессенджера и доработки ее новым функционалом для крупных партнеров.\n\nНужен самостоятельный разработчик, способный работать в команде и готовый участвовать в разработке MVP решений.\n\nЧто нужно будет делать:\n- разработка dialog platform (коммуникационная платформа) для Android;\n- документирование, проектирование модулей, принятие архитектурных решений;\n- проведение код-ревью, формирование стайл гайдов;\n- обеспечение качества продукта (написание unit тестов).\n\n\nИспользуемый стек: RxJava / Kotlin \nЧто предлагаем мы:\n• белая ЗП и премии, гибкий график;\n• участие в разработке open-source проектов;\n• ДМС, спортзал;\n• супер-адекватная и профессиональная, дружная команда;\n\n\n\nПо вакансии написать: @avnaum","markup":[{"type":"hashtag","offset":0,"length":9,"data":"вакансия"},{"type":"hashtag","offset":10,"length":7,"data":"senior"},{"type":"hashtag","offset":18,"length":7,"data":"Москва"},{"type":"hashtag","offset":26,"length":8,"data":"Android"},{"type":"hashtag","offset":35,"length":4,"data":"СПБ"},{"type":"handle","offset":1055,"length":7,"data":"avnaum"}],"date":"2020-06-19T11:17:23+00:00","link":"tg://resolve?domain=mobile_jobs&post=0","tags":[{"name":"mobile"},{"name":"android"},{"name":"kotlin"}],"cities":[{"code":"moscow"}],"allowsRemote":false}},{"node":{"__typename":"Job","id":"71617740800-1001054966032","title":"Android разработчик","text":"#вакансия #Android #Java #Kotlin #офис #Москва #fulltime   \n\nГород и адрес офиса: Москва, Кутузовский пр-т;\nФормат работы: офис (на период карантина удаленка)\nЗанятость: полная\nЗарплатная вилка: от 160 000 до 300 000 руб\n\nОписание вакансии: \nКомпания TEAM FORCE ищет в свою команду Android(Java/Kotlin) разработчиков  уровня Middle и выше. Проект в одном из топ-5 банков России. Предстоит разработка нового функционала текущего приложения, а также разработка новых продуктов банка. \n\nТребования:\n🔺 Опыт работы Android (Java/Kotlin) разработчиком от 2-х лет, участие в нескольких проектах.\n🔺 Опыт работы с технологиями: Java, Kotlin, RxJava, Dagger, Android Studio, Git, JIRA, Confluence\n🔺 Знание гайдлайнов мобильных приложений на базе Android\n\nКонтакты: @an_krivochenko","markup":[{"type":"hashtag","offset":0,"length":9,"data":"вакансия"},{"type":"hashtag","offset":10,"length":8,"data":"Android"},{"type":"hashtag","offset":19,"length":5,"data":"Java"},{"type":"hashtag","offset":25,"length":7,"data":"Kotlin"},{"type":"hashtag","offset":33,"length":5,"data":"офис"},{"type":"hashtag","offset":39,"length":7,"data":"Москва"},{"type":"hashtag","offset":47,"length":9,"data":"fulltime"},{"type":"handle","offset":758,"length":15,"data":"an_krivochenko"}],"date":"2020-06-19T09:06:17+00:00","link":"tg://resolve?domain=mobile_jobs&post=0","tags":[{"name":"mobile"},{"name":"android"},{"name":"java"},{"name":"kotlin"},{"name":"git"},{"name":"android-studio"}],"cities":[{"code":"moscow"}],"allowsRemote":true}},{"node":{"__typename":"Job","id":"91367669760-1001067529236","title":"Python developer","text":"#вакансия #Москва #fulltime #офис #python #machinelearning\nКомпания: FunCorp\nВакансия: Senior Python Backend Developer (Machine Learning)\nОпыт работы: от 3-х лет\nЗарплата: от 250 000 р. на руки\nМесторасположение: Москва, м. Белорусская\nЗанятость: fulltime, офис.\nNB! Удаленный вариант работы после выхода из карантина, к сожалению, не рассматриваем\nКонтактные данные: @chrschredinger или kristina@fun.co\n\nFunCorp — международная компания, которая занимается разработкой развлекательных UGC-сервисов и игр. В работе наших приложений мы активно используем сервисы, построенные на машинном обучении. Значительная часть этих сервисов построена на базе ML-фреймворков и пакетов на Python. \n\nТребования:\n- знание Python 3, фреймворков Flask или Django, а также иметь опыт написания асинхронного кода с использованием AsyncIO;\n- опыт построения и поддержки высоконагруженных систем и сервисов;\n- интерес к Machine Learning как отрасли и быть готовым изучать фреймворки (PyTorch, TensorFlow).\n\nСтек используемых технологий: Docker, Redis, MongoDB, ClickHouse.\n\nОбязанности:\n- создание и поддержка Highload-сервисы на базе обученных моделей;\n- интегрирование ML-сервисов с бизнес-логикой PHP-монолита и Java/Kotlin-сервисов;\n- участие в обучении и доработке существующих моделей, получении и консолидации данных, построении тестовых выборок.\n\nУсловия:\n- ДМС, включая стоматологию;\n- бонусная система;\n- обеды и ужины в офисе;\n- бюджет на обучение и на фитнес;\n- оплата участия в российских и зарубежных конференциях;\n- отличный офис на м. Белорусская (БЦ «Белая площадь).","markup":[{"type":"hashtag","offset":0,"length":9,"data":"вакансия"},{"type":"hashtag","offset":10,"length":7,"data":"Москва"},{"type":"hashtag","offset":18,"length":9,"data":"fulltime"},{"type":"hashtag","offset":28,"length":5,"data":"офис"},{"type":"hashtag","offset":34,"length":7,"data":"python"},{"type":"hashtag","offset":42,"length":16,"data":"machinelearning"},{"type":"bold","offset":59,"length":10,"data":""},{"type":"bold","offset":77,"length":10,"data":""},{"type":"bold","offset":138,"length":13,"data":""},{"type":"bold","offset":162,"length":10,"data":""},{"type":"bold","offset":194,"length":19,"data":""},{"type":"bold","offset":236,"length":11,"data":""},{"type":"underline","offset":263,"length":86,"data":""},{"type":"bold","offset":349,"length":19,"data":""},{"type":"handle","offset":368,"length":15,"data":"chrschredinger"},{"type":"link","offset":388,"length":15,"data":"mailto:kristina@fun.co"},{"type":"bold","offset":686,"length":12,"data":""},{"type":"italic","offset":986,"length":67,"data":""},{"type":"bold","offset":1053,"length":13,"data":""},{"type":"bold","offset":1334,"length":9,"data":""}],"date":"2020-06-19T07:10:14+00:00","link":"tg://resolve?domain=python_jobs&post=0","tags":[{"name":"python"},{"name":"flask"},{"name":"django"},{"name":"tensorflow"},{"name":"docker"},{"name":"redis"},{"name":"mongodb"},{"name":"php"},{"name":"java"},{"name":"kotlin"},{"name":"machine-learning"}],"cities":[{"code":"moscow"}],"allowsRemote":false}},{"node":{"__typename":"Job","id":"71604109312-1001054966032","title":"Android разработчик","text":"#вакансия #android #fulltime #удаленка #middle #senior\n\nГород и адрес офиса: Уфа (удаленно)\nФормат работы: удаленка\nЗанятость: полная\nЗарплатная вилка: от 100 000 р. до 250 000\n\nОписание вакансии:\nЕсли Вы крутой аndroid разработчик, влюбленный в свое дело, обладаете опытом разработки мобильных приложений, любите использовать в работе самые современные подходы и техники, интересуетесь трендами в мобильной разработке, то эта вакансия для Вас!\n\nКлассно, если Вы:\n- Свободно владеете языком Kotlin и Java\n- Имеете опыт реактивного программирования (RxJava2)\n- Имеете опыт работы с сетевыми протоколами (HTTP, REST, JSON и др.)\n- Знакомы с концепциями ООП, знаете паттерны проектирования, принципы SOLID и умеете их применять\n- Имеете базовое понимание и опыт работы с основными архитектурными паттернами (Clean, MVP, MVVM)\n- Знакомы с основными алгоритмами и структурами данных\n- Умеете писать простой в понимании и тестируемый код\n- Умеете работать в команде и готовы активно принимать участие в жизни продукта\n\nЖелательно:\n- Опыт работы с библиотеками Moxy, Dagger2\n- Знание принципов Agile-разработки\n- Умение работать с git, CI/CD системами (у нас Gitlab)\n- Умение проводить перекрестное Code Review\n- Ссылки на проекты в Play Market, профили GitHub и StackOverflow\n\nВашими ключевыми задачами будут:\n- Разрабатывать и поддерживать мобильное приложение с нуля\n- Создавать удобный и понятный для пользователей интерфейса по макету\n- Взаимодействовать с другими командами, для совместного решения задач\n- Разрабатывать и внедрять новые интересные фичи\n\nМы предлагаем:\n- Работа над финтех проектом европейской компании.\n- Самые современные технологии разработки\n- Возможность роста, как в профессиональной так и в управленческой сфере\n\nНазвание компании: Фином-Технологии —  команда разработчиков с большим опытом создания успешных финтех продуктов.  Расширяем свою команду для работы над проектом для стран Европы. Автоматизация финансовых процессов для малого бизнеса.\n\nКонтакт для связи: @deeeana","markup":[{"type":"hashtag","offset":0,"length":9,"data":"вакансия"},{"type":"hashtag","offset":10,"length":8,"data":"android"},{"type":"hashtag","offset":19,"length":9,"data":"fulltime"},{"type":"hashtag","offset":29,"length":9,"data":"удаленка"},{"type":"hashtag","offset":39,"length":7,"data":"middle"},{"type":"hashtag","offset":47,"length":7,"data":"senior"},{"type":"bold","offset":56,"length":20,"data":""},{"type":"bold","offset":92,"length":14,"data":""},{"type":"bold","offset":116,"length":11,"data":""},{"type":"bold","offset":134,"length":10,"data":""},{"type":"bold","offset":145,"length":6,"data":""},{"type":"bold","offset":178,"length":23,"data":""},{"type":"underline","offset":446,"length":18,"data":""},{"type":"underline","offset":1013,"length":12,"data":""},{"type":"underline","offset":1271,"length":33,"data":""},{"type":"underline","offset":1554,"length":15,"data":""},{"type":"bold","offset":1736,"length":19,"data":""},{"type":"bold","offset":1972,"length":18,"data":""},{"type":"handle","offset":1991,"length":8,"data":"deeeana"}],"date":"2020-06-19T05:01:29+00:00","link":"tg://resolve?domain=mobile_jobs&post=0","tags":[{"name":"mobile"},{"name":"android"},{"name":"kotlin"},{"name":"java"},{"name":"rest"},{"name":"json"},{"name":"mvvm"},{"name":"git"},{"name":"gitlab"},{"name":"playframework"},{"name":"github"}],"cities":[{"code":"ufa"}],"allowsRemote":true}},{"node":{"__typename":"Job","id":"71586283520-1001054966032","title":"Android developer","text":"#вакансия #Juniorandroid #Android developer #kotlin #удаленно                                                                                                         Уровень дохода:💵 50 000-60 000  рублей net                                                                                                                                                                                 Требуемый опыт работы: от 1 года\nПолная занятость, дистанционно, гибкое начало рабочего дня\n \n📌Требования:\n- Нативная Android разработка (Kotlin)\n- Умение писать поддерживаемый и тестируемый код\n- Умение работать с Dagger 2\n- Умение работать с git\n- Желание развиваться и изучать новое в разработке\n- Опыт разработки приложений от 1 года\n -Знание английского языка от уровня Intermediate\n \n📌Будет плюсом:\n- Опыт работы с JNI\n- Опыт использования tensorflow\n- Опыт работы с аудио и видео\n\n📌Условия:\n- Отсутствие бюрократии\n- Время начала рабочего дня обговариваем индивидуально\n- Крутой инновационный проект - возможность самореализации и профессионального роста\n- Стабильное зарубежное финансирование\n- Десятки миллионов установок и множество глобальных партнёров\n📞Контакты @SvetikS_hr +7(963)-632-12-36 Cветлана","markup":[{"type":"hashtag","offset":0,"length":9,"data":"вакансия"},{"type":"hashtag","offset":10,"length":14,"data":"Juniorandroid"},{"type":"hashtag","offset":25,"length":8,"data":"Android"},{"type":"hashtag","offset":44,"length":7,"data":"kotlin"},{"type":"hashtag","offset":52,"length":9,"data":"удаленно"},{"type":"link","offset":184,"length":13,"data":"tel:50 000-60 000"},{"type":"handle","offset":1164,"length":11,"data":"SvetikS_hr"},{"type":"link","offset":1176,"length":17,"data":"tel:+7(963)-632-12-36"}],"date":"2020-06-18T15:22:25+00:00","link":"tg://resolve?domain=mobile_jobs&post=0","tags":[{"name":"mobile"},{"name":"android"},{"name":"kotlin"},{"name":"dotnet"},{"name":"git"},{"name":"tensorflow"}],"cities":[],"allowsRemote":true}},{"node":{"__typename":"Job","id":"71578943488-1001054966032","title":"Android разработчик","text":"Вакансия: #вакансия #спб #android #офис\nКомпания: #4people\nЛокация:  #спб #питер\nЗ/п: от 140 до 250 т.р.\n\nВ компанию 4people в Петербурге срочно требуется Android-разработчик.\n\n📌Чем предстоит заниматься:\n• Разработка мобильных приложений под платформу Android.\n•Выявление и исправление ошибок в работе текущих разработок.\n•Поддержка и развитие проектов, добавление нового функционала.\n\n💪Наши ожидания:\n•Разработка на Kotlin от 2-х лет.\n•Android от 2-х лет коммерческой разработки.\n•Проектирование и разработка архитектуры приложений.\n•Знание RxJava.\n•Опыт работы с Dagger 2, Retrofit, Moxy.\n\n🏆Мы предлагаем:\n•Уровень заработной платы (зависит от пожеланий и профессионально уровня кандидата).\n•Возможность гибкого начала рабочего дня.\n•Бесплатные корпоративные обеды (шведский стол).\n•Абонемент в спорт зал за счет компании.\n•Возможность релокации в Европу.\n\nЖдем вопросы и резюме: \n✍️ @hrkaterina \n✉️ ekaterina.4people@gmail.com","markup":[{"type":"hashtag","offset":10,"length":9,"data":"вакансия"},{"type":"hashtag","offset":20,"length":4,"data":"спб"},{"type":"hashtag","offset":25,"length":8,"data":"android"},{"type":"hashtag","offset":34,"length":5,"data":"офис"},{"type":"hashtag","offset":50,"length":8,"data":"4people"},{"type":"hashtag","offset":69,"length":4,"data":"спб"},{"type":"hashtag","offset":74,"length":6,"data":"питер"},{"type":"bold","offset":179,"length":26,"data":""},{"type":"bold","offset":387,"length":17,"data":""},{"type":"bold","offset":596,"length":15,"data":""},{"type":"handle","offset":889,"length":11,"data":"hrkaterina"},{"type":"link","offset":905,"length":27,"data":"mailto:ekaterina.4people@gmail.com"}],"date":"2020-06-18T14:04:59+00:00","link":"tg://resolve?domain=mobile_jobs&post=0","tags":[{"name":"mobile"},{"name":"android"},{"name":"kotlin"}],"cities":[],"allowsRemote":false}}]}}},"context":{}}