{"hash":"f5f6bf98bd95e769321482904cbbd488f77922fd","data":{"records":{"id":"html","name":"html","belongsTo":{"totalCount":110,"pageInfo":{"totalPages":11,"currentPage":4},"edges":[{"node":{"__typename":"Job","id":"17236492288-1001110946746","title":"Js разработчик","text":"#вакансия #remote #Javascript #React #Node.js\n\nЛокация: из любой точки мира\nФормат работы: удаленно\nЗанятость: от 8 часов/неделю\nЗаработная плата: от 20-000 до 100.000 рублей (нетто), заработная плата складывается из количества проверенных проектов\n\nОписание вакансии: Яндекс.Практикум — сервис онлайн-образования, ежемесячно запускает обучение по направлению веб-разработки. Нам требуется Code reviewer (HTML, CSS, JavaScript) со знанием английского языка. Код-ревьер проверяет написанный студентом международного потока код и даёт обратную связь на английском языке. Код-ревьюер решает: зачесть задание или нет. Также он даёт советы по улучшению кода, отмечает неточности, указывает на ошибки. Вся коммуникация проходит на английском языке.м. Примерная занятость - от 8 часов в неделю (но можно и больше :) Рабочий язык - английский.\nТребования:\n✔Опыт работы веб-разработчиком от одного года;\n✔ Знание HTML, CSS, JavaScript и Node.js;\n✔ Умение грамотно писать на английском языке;\n✔ Готовность посвящать проекту минимум восемь часов в неделю.\n\nНазвание компании: Яндекс.Практикум https://practicum.yandex.com/\n\nКонтакты: чтобы откликнуться, отправьте резюме с пометкой на какую позицию вы претендуете на адрес ilinovamarian@yandex-team.ru","markup":[{"type":"hashtag","offset":0,"length":9,"data":"вакансия"},{"type":"hashtag","offset":10,"length":7,"data":"remote"},{"type":"hashtag","offset":18,"length":11,"data":"Javascript"},{"type":"hashtag","offset":30,"length":6,"data":"React"},{"type":"hashtag","offset":37,"length":5,"data":"Node"},{"type":"link","offset":1082,"length":29,"data":"https://practicum.yandex.com/"},{"type":"link","offset":1212,"length":28,"data":"mailto:ilinovamarian@yandex-team.ru"}],"date":"2020-06-30T02:35:14+00:00","link":"tg://resolve?domain=javascript_jobs_feed&post=16438","tags":[{"name":"javascript"},{"name":"reactjs"},{"name":"nodejs"},{"name":"html"},{"name":"css"}],"cities":[],"allowsRemote":true}},{"node":{"__typename":"Job","id":"17235443712-1001110946746","title":"Javascript разработчик","text":"#вакансия #frontend #react #typescript #graphQL #junior #middle #senior #lead #москва #офис #fulltime\n\nКомпания: СберТех\nЛокация: г. Москва, м. Савеловская\nФормат работы: офис (до конца июля удаленка), полная занятость\nЗ/п: 100 000 - 230 000 руб. net (+ у нас высокая годовая премия) \n\nВсем привет 🙌\nТут один проект скучает без Frontend-разработчика \n\n💻 Делаем образовательную цифровую платформу - SaaS решение для персонализированного обучения в школах, университетах, IT Bootcamp  Сбербанка. \nПредстоит повышать перфоманс приложения (плановая нагрузка на сентябрь 2020 - 500 000 активных пользователей в день)\n\n🔔 Must have:\nReact, Typescript, HTML5+CSS3, Webpack/аналог, система контроля версий Git, для уровня lead управление командой из 3-6 человек\n\nБудет здорово, если есть\nопыт/желание изучить: GraphQL (Apollo client), уверенное знание ЕS6, Styled-components, Jest/React-testing-library, Code review, адаптивность под мобильные платформы\n\nПредлагаем:\n✔профессиональное развитие: конференции, митапы, обучение в Корпоративном университете Сбербанка\n✔ДМС и страховку от несчастных случаев, льготные условия ипотеки, скидки от компаний-партнеров, бесплатный корпоративный тренажерный зал\n✔офис А класса в БЦ «Северное Сияние» (5 мин. от м. Савеловская), возможность гибкого начала рабочего дня \n\nЕсли интересно - буду рада обсудить, вот мои контакты:\n📲 @karprokar\n📩 KVProlomova@sberbank.ru","markup":[{"type":"hashtag","offset":0,"length":9,"data":"вакансия"},{"type":"hashtag","offset":10,"length":9,"data":"frontend"},{"type":"hashtag","offset":20,"length":6,"data":"react"},{"type":"hashtag","offset":27,"length":11,"data":"typescript"},{"type":"hashtag","offset":39,"length":8,"data":"graphQL"},{"type":"hashtag","offset":48,"length":7,"data":"junior"},{"type":"hashtag","offset":56,"length":7,"data":"middle"},{"type":"hashtag","offset":64,"length":7,"data":"senior"},{"type":"hashtag","offset":72,"length":5,"data":"lead"},{"type":"hashtag","offset":78,"length":7,"data":"москва"},{"type":"hashtag","offset":86,"length":5,"data":"офис"},{"type":"hashtag","offset":92,"length":9,"data":"fulltime"},{"type":"link","offset":568,"length":14,"data":"tel:2020 - 500 000"},{"type":"handle","offset":1361,"length":10,"data":"karprokar"},{"type":"link","offset":1375,"length":23,"data":"mailto:KVProlomova@sberbank.ru"}],"date":"2020-06-29T20:21:25+00:00","link":"tg://resolve?domain=javascript_jobs_feed&post=16437","tags":[{"name":"javascript"},{"name":"reactjs"},{"name":"typescript"},{"name":"graphql"},{"name":"dotnet"},{"name":"html"},{"name":"css"},{"name":"webpack"},{"name":"git"}],"cities":[{"code":"moscow"}],"allowsRemote":true}},{"node":{"__typename":"Job","id":"17229152256-1001110946746","title":"Javascript разработчик","text":"#вакансия #middledev #frontend #javascript #react #fulltime \n\nЛокация: Казахстан, город Алматы\nФормат работы: офис или удаленка\nЗанятость: полная\nЗарплатная вилка: 70к – 100к рублей (350К - 600К тенге)\n\nОписание вакансии:\n\nMiddle React Frontend Developer\n\nОбязанности:\n • Проектирование и разработка удобных и практичных интерфейсов веб-приложений;\n • Кроссбраузерная и адаптивная верстка компонентов системы;\n • Интеграция с серверной частью через API;\n • Поддержка и развитие существующих проектов;\n • Тестирование и оптимизация написанного кода;\n • Участие в проектировании архитектуры систем;\n • Планирование работы и оценка задач;\n • Взаимодействие с backend-разработчиками, менеджером проекта и архитектором  системы;\n\nТребования:\n • Уверенное владение и реальный опыт работы с React;\n • Знание библиотек Redux/Next, TypeScript;\n • Уверенное знание Javascript (ES6+);\n • Владение HTML5 и CSS3 (адаптивная, кроссбраузерная, семантическая верстка);\n • Умение работать с системой контроля версий (Git);\n • Знание современных парадигм программирования, умение писать чистый и быстрый код;\n • Знание архитектуры веб приложения и принципов клиент-серверного взаимодействия;\n • Знание английского языка на уровне чтения технической документации и зарубежных ресурсов;\n • Знание препроцессоров (SASS, SCSS, Stylus, Pug);\n • Хорошие навыки работы со сборщиками (Webpack, Gulp);\n • Postman / Swagger UI;\n\nНазвание компании: KIT SYSTEMS (разработка CRM / ERP / BMP систем управления)\n\nКонтакты: Писать @askhhh или звонить по номеру +77010999936","markup":[{"type":"hashtag","offset":0,"length":9,"data":"вакансия"},{"type":"hashtag","offset":10,"length":10,"data":"middledev"},{"type":"hashtag","offset":21,"length":9,"data":"frontend"},{"type":"hashtag","offset":31,"length":11,"data":"javascript"},{"type":"hashtag","offset":43,"length":6,"data":"react"},{"type":"hashtag","offset":50,"length":9,"data":"fulltime"},{"type":"handle","offset":1497,"length":7,"data":"askhhh"},{"type":"link","offset":1527,"length":12,"data":"tel:+77010999936"}],"date":"2020-06-29T16:13:31+00:00","link":"tg://resolve?domain=javascript_jobs_feed&post=16431","tags":[{"name":"javascript"},{"name":"reactjs"},{"name":"redux"},{"name":"typescript"},{"name":"html"},{"name":"css"},{"name":"git"},{"name":"sass"},{"name":"webpack"},{"name":"gulp"},{"name":"swagger"}],"cities":[{"code":"almaty"}],"allowsRemote":true}},{"node":{"__typename":"Job","id":"17227055104-1001110946746","title":"Js разработчик","text":"#вакансия #seniordev #frontend #javascript #react #vue #angular #fulltime #office \n\nSenior/Middle Frontend Developer\nЛокация: Москва, м. Таганская\nФормат работы: офис\nЗанятость: полная\nЗарплатная вилка: 175к – 235к\nКомпания: WhoIsBlogger(WIB), www.whoisblogger.com \n\nМы разрабатываем аналитический продукт, который позволяет нашим клиентам принимать обоснованные решения при планировании рекламных кампаний с помощью блогеров.\n\nМы ищем человека для создания фронтенда веб-приложения, в котором наши клиенты смогут быстро получать доступ к нужным данным о блогерах, а также вести историю своих рекламных кампаний и проектов.\n\nЧто нужно делать?\n• разработка пользовательской платформы;\n• согласование требований с бизнес-заказчиками, дизайнерами и бэкенд командой;\n• разработка архитектурных решений, поиск и внедрение необходимых технологий, поиск узких мест в работе систем, оптимизация и рефакторинг;\n• внедрение методик и инструментов для повышения качества кода и продукта.\n\nЧто нужно уметь?\n• опыт работы не менее 3-х лет в роли фронтенд-разработчика;\n• уверенное владение HTML, CSS, JavaScript, TypeScript;\n• опыт самостоятельной разработки фронтенда с использованием современного стека: React/Angular/Vue.js, Redux/MobX, Webpack;\n• готовность и желание встать у истоков фронтенд-разработки в компании, оставаясь на первых порах единственным фронтенд-разработчиком;\n• высокая степень самостоятельности, ответственности и работоспособности, желание развиваться и достигать результатов в кратчайшие сроки.\n\nБудет плюсом:\n• опыт реализации многомодульных и высоконагруженных проектов;\n• опыт разработки SPA;\n• опыт использования D3.js;\n• умение работать с БД PostgreSQL, MongoDB;\n• опыт работы с облачными провайдерами, предпочтительно AWS;\n• умение собирать и анализировать пользовательское поведение в Google Analytics, Яндекс.Метрике и подобных системах.\n\nКонтакты: akurdin@whoisblogger.com, @ifeelKud, +7(903)505-38-32","markup":[{"type":"hashtag","offset":0,"length":9,"data":"вакансия"},{"type":"hashtag","offset":10,"length":10,"data":"seniordev"},{"type":"hashtag","offset":21,"length":9,"data":"frontend"},{"type":"hashtag","offset":31,"length":11,"data":"javascript"},{"type":"hashtag","offset":43,"length":6,"data":"react"},{"type":"hashtag","offset":50,"length":4,"data":"vue"},{"type":"hashtag","offset":55,"length":8,"data":"angular"},{"type":"hashtag","offset":64,"length":9,"data":"fulltime"},{"type":"hashtag","offset":74,"length":7,"data":"office"},{"type":"link","offset":244,"length":20,"data":"http://www.whoisblogger.com"},{"type":"link","offset":1871,"length":24,"data":"mailto:akurdin@whoisblogger.com"},{"type":"handle","offset":1897,"length":9,"data":"ifeelKud"},{"type":"link","offset":1908,"length":16,"data":"tel:+7(903)505-38-32"}],"date":"2020-06-29T15:34:36+00:00","link":"tg://resolve?domain=javascript_jobs_feed&post=16429","tags":[{"name":"javascript"},{"name":"reactjs"},{"name":"vuejs"},{"name":"angularjs"},{"name":"html"},{"name":"css"},{"name":"typescript"},{"name":"redux"},{"name":"webpack"},{"name":"postgresql"},{"name":"mongodb"},{"name":"amazon-web-services"},{"name":"google-analytics"}],"cities":[{"code":"moscow"}],"allowsRemote":false}},{"node":{"__typename":"Job","id":"17224957952-1001110946746","title":"Js разработчик","text":"#вакансия #москва #middle #remote #angular #fulltime #офис\n\nИщем frontend разработчика для работы над основным сайтом и новыми разделами.\nГород и адрес офиса: Москва, м. Авиамоторная\nФормат работы: Офис\nЗанятость: полная\nЗарплатная вилка: 130 000 — 150 000 на руки по результатам технического собеседования\n\nAutospot.ru — онлайн гипермаркет автомобилей. \n\nВ 2018 году Mitsubishi Corporation и Mail.ru. оценили нас в $19,1 млн.\n\nВ технической команде 17 человек: СТО, 9 PHP разработчиков, 2 frontend разработчика, 3 тестировщика, DevOps.\n\nЧеловек нужен в Москве или готовый в эту самую Москву переехать.\n\nОбязанности:\n▫️Разработка компонентов и адаптация/интеграция сторонних библиотек и плагинов;\n▫️ Верстка новых разделов, кроссбраузерная, адаптивная, валидная;\n▫️ Развитие библиотеки UI компонентов;\n▫️ Оперативное исправление багов на проде (IE 11+);\n▫️ Помощь в оптимизации работы сайта (скорость загрузки, оптимизация DOM).\n\nТребования:\n▪️ Опыт разработки от 2 лет;\n▪️ Знание JavaScript (jQuery в разумных пределах);\n▪️ Уверенное знание html семантическая верстка, БЭМ, SCSS;\n▪️ Знание работы GIT & NPM;\n▪️ Опыт работы с gulp/webpack;\n▪️ Опыт работы с Figma/Zeplin;\n▪️ Опыт работы с векторной графикой (svg и svg-спрайты).\n\nЖелательно:\n◾️ Хорошее знание Vue.js и/или Angular 5+. Работать надо будет и с тем и с другим. Angular 5+ в приоритете, планируется переход полностью на него;\n◾️ Знание инструментов организации разработки Jira;\n◾️ Знание нюансов работы браузеров на разных устройствах и ОС;\n◾️ Опыт сео оптимизации;\n◾️ Понимание, что такое доступные интерфейсы;\n\nУсловия:\n▫️ Комфортабельный офис, БЦ Light Tower, бесплатный шаттл от м. Площадь Ильича;\n▫️ Оформление по ТК РФ с первого рабочего дня;\n▫️ Гибкое начало рабочего дня, с 9 до 11;\n▫️ Возможность работать 1-2 дня удалённо;\n▫️ Полностью белая заработная плата;\n▫️ Неформальная атмосфера и дружный, амбициозный коллектив;\n▫️ Корпоративная скидка на изучение английского языка.\n\nКонтакт: @dianadoma","markup":[{"type":"hashtag","offset":0,"length":9,"data":"вакансия"},{"type":"hashtag","offset":10,"length":7,"data":"москва"},{"type":"hashtag","offset":18,"length":7,"data":"middle"},{"type":"hashtag","offset":26,"length":7,"data":"remote"},{"type":"hashtag","offset":34,"length":8,"data":"angular"},{"type":"hashtag","offset":43,"length":9,"data":"fulltime"},{"type":"hashtag","offset":53,"length":5,"data":"офис"},{"type":"link","offset":308,"length":11,"data":"http://Autospot.ru"},{"type":"link","offset":393,"length":7,"data":"http://Mail.ru"},{"type":"handle","offset":1957,"length":10,"data":"dianadoma"}],"date":"2020-06-29T15:32:23+00:00","link":"tg://resolve?domain=javascript_jobs_feed&post=16427","tags":[{"name":"javascript"},{"name":"angularjs"},{"name":"php"},{"name":"jquery"},{"name":"html"},{"name":"git"},{"name":"npm"},{"name":"gulp"},{"name":"webpack"},{"name":"svg"},{"name":"vuejs"}],"cities":[{"code":"moscow"}],"allowsRemote":true}},{"node":{"__typename":"Job","id":"17221812224-1001110946746","title":"Js developer","text":"#вакансия #Frontend #React\n #JS #Lead \n🔸 Формат работы: full time офис\n🔸 Город: г. Москва 1905 года с сентября Кутузовский проспект\n🔸 З/п: от 260 000 руб. net до 300 000 net, готовы обсудить.\n🔸Мы -  международный сервис пассажирских перевозок. Создаем глобальный высокотехнологичный продукт, который меняет жизнь миллионов людей к лучшему.\nВходим в топ-5 мобильных сервисов для заказа поездок.\n\nСейчас ищем Lead frontend developer в Московский офис разработки.\n\nИспользуемые технологии:\n- React;\n- PHP и Go в качестве языков для бекенда;\n- Kubernetes + Teamcity для CI/CD.\n\n📌 Чем придется заниматься:\n- разработкой фронтовых проектов на React;\n- нанимать, проводить Code review и обучать младших коллег;\n- интегрироваться с Backend, отстаивать свою точку зрения почему так и как сделать лучше;\n- проектирование архитектуры приложения.\n📌Мы ожидаем, что вы:\n- отлично владеете базовыми технологиями — HTML, CSS, JavaScript (ES6), DOM, браузерные API;\n- имеете опыт разработки сложных продуктов с использованием React;\n- ответственны, умеете работать в команде и самостоятельно восполнять недостающие навыки и знания;\n\n🔹Будет здорово, если вы:\n- интересуетесь новыми технологиями во фронтенде;\n- обладаете навыками в автоматизации сборки и тестирования фронтенда.\n\n🔸 Компания: inDriver\n🔸 Контакты: @molly_doll","markup":[{"type":"hashtag","offset":0,"length":9,"data":"вакансия"},{"type":"hashtag","offset":10,"length":9,"data":"Frontend"},{"type":"hashtag","offset":20,"length":6,"data":"React"},{"type":"hashtag","offset":28,"length":3,"data":"JS"},{"type":"hashtag","offset":32,"length":5,"data":"Lead"},{"type":"handle","offset":1304,"length":11,"data":"molly_doll"}],"date":"2020-06-29T15:29:20+00:00","link":"tg://resolve?domain=javascript_jobs_feed&post=16424","tags":[{"name":"javascript"},{"name":"reactjs"},{"name":"dotnet"},{"name":"php"},{"name":"kubernetes"},{"name":"html"},{"name":"css"}],"cities":[{"code":"moscow"}],"allowsRemote":false}},{"node":{"__typename":"Job","id":"26800553984-1001075660570","title":"Php разработчик","text":"#разработчикБитрикс #Битрикс #PHPразработчик #ProgressiveMedia #вакансия \n\nProgressive Media приглашает в штат разработчиков PHP/ 1С-Битрикс (удаленно, полная занятость). Работа в проектных группах. Чистый бэкэнд-кодинг, интересные формализованные задачи. \n\n✅Обязанности: \n- Создание бэкенда на PHP на базе Bitrix framework \n- Интеграция фронтенда \n- Разработка сервисов интеграции с различными ERP и CRM-системами \n\n✅Требуется: \n- PHP, MySQL \n- Знание принципов ООП (PHP7) \n- HTML5, CSS3, JavaScript, JQuery, SQL для интеграции фронтенда \n- знание Bitrix framework \n- Знание ядра Bitrix D7 \n\n✅Предлагаем: \n- Удаленная работа \n- Белая ЗП \n- Используем GIT и сервис деплоймента \n\n📩📩📩Для резюме: shevchenko@progressivemedia.ru","markup":[{"type":"hashtag","offset":0,"length":19,"data":"разработчикБитрикс"},{"type":"hashtag","offset":20,"length":8,"data":"Битрикс"},{"type":"hashtag","offset":29,"length":15,"data":"PHPразработчик"},{"type":"hashtag","offset":45,"length":17,"data":"ProgressiveMedia"},{"type":"hashtag","offset":63,"length":9,"data":"вакансия"},{"type":"bold","offset":111,"length":17,"data":""},{"type":"bold","offset":142,"length":26,"data":""},{"type":"link","offset":697,"length":30,"data":"mailto:shevchenko@progressivemedia.ru"}],"date":"2020-06-29T14:45:14+00:00","link":"tg://resolve?domain=php_jobs&post=25559","tags":[{"name":"php"},{"name":"mysql"},{"name":"html"},{"name":"css"},{"name":"javascript"},{"name":"jquery"},{"name":"sql"},{"name":"git"}],"cities":[],"allowsRemote":true}},{"node":{"__typename":"Job","id":"17219715072-1001110946746","title":"Javascript developer","text":"Front-end Developer with knowledge of HTMl, CSS, JavaScript, some Photoshop\n \nRemote Project Fixed Job: ~8hrs \nHourly rate: $10-25/hr \n\nTeam is small, English-speaking. Knowledge of English at intermediate level and above is welcome.\n\nProject Description:\n- Create 3 html pages using bootstrap\n\nRequirements:\n- 2+ years of software development in HTML & CSS\n⁃ 1 year of software development in vanilla JavaScript \n- Eagerness to constantly improve and learn new skills.\n- Experience using Ticketing tools.\n⁃ Ability to decompose specs efficiently\n\nКомпания hazelops.com\n\n#вакансия #удалённо #job #project #remote #fixed\n\nРезюме и рейты на jobs@hazelops.com, за описанием в лс @AutomationD\n\n—\n\n👉 Обсуждение вакансии в чате @javascript_jobs","markup":[{"type":"link","offset":557,"length":12,"data":"http://hazelops.com"},{"type":"hashtag","offset":571,"length":9,"data":"вакансия"},{"type":"hashtag","offset":581,"length":9,"data":"удалённо"},{"type":"hashtag","offset":591,"length":4,"data":"job"},{"type":"hashtag","offset":596,"length":8,"data":"project"},{"type":"hashtag","offset":605,"length":7,"data":"remote"},{"type":"hashtag","offset":613,"length":6,"data":"fixed"},{"type":"link","offset":639,"length":17,"data":"mailto:jobs@hazelops.com"},{"type":"handle","offset":676,"length":12,"data":"AutomationD"},{"type":"handle","offset":723,"length":16,"data":"javascript_jobs"}],"date":"2020-06-29T13:43:45+00:00","link":"tg://resolve?domain=javascript_jobs_feed&post=16422","tags":[{"name":"javascript"},{"name":"html"},{"name":"css"},{"name":"bootstrap"}],"cities":[],"allowsRemote":true}},{"node":{"__typename":"Job","id":"17218666496-1001110946746","title":"Javascript разработчик","text":"#вакансия #удаленка #работа #html #css #javascript \n\nГород и адрес офиса: любой\nФормат работы: удаленка\nЗанятость: полная\nЗарплатная вилка:  2000$ - 2400$\n\nИщем крутого верстальщика, фултайм, американский стартап (крутая стартап-корпоративная культура, адекватное начальство, зарплата по курсу в долларах), свой продукт, рост по знаниям и деньгам! \nТребования: \n • Уметь в верстку на 10 из 5 (responsive / adaptive, Pixel Perfect, SASS, HTML5, SEO Optimized, дружить с Figma) \n • Быть адекватным - четко соблюдать оговоренные условия (если вы не придете на пару интервью вовремя или любите проспать гибкое начало рабочего дня - не пишите нам) \n • Мочь в письменный английский (а если можете говорить - это +100 к нашей совместимости) \n\nПолная вакансия по ссылке: https://career.habr.com/vacancies/1000059669\n \nКомпания: Waltbury\n\nКонтакты: Пожалуйста, присылайте ссылки на ваше CV, ссылки на LinkedIn / Habr страничку, ссылку на гитхаб и по возможности портфолио на sergey@waltbury.com\n\n—\n\n👉 Обсуждение вакансии в чате @javascript_jobs","markup":[{"type":"hashtag","offset":0,"length":9,"data":"вакансия"},{"type":"hashtag","offset":10,"length":9,"data":"удаленка"},{"type":"hashtag","offset":20,"length":7,"data":"работа"},{"type":"hashtag","offset":28,"length":5,"data":"html"},{"type":"hashtag","offset":34,"length":4,"data":"css"},{"type":"hashtag","offset":39,"length":11,"data":"javascript"},{"type":"link","offset":763,"length":44,"data":"https://career.habr.com/vacancies/1000059669"},{"type":"link","offset":966,"length":19,"data":"mailto:sergey@waltbury.com"},{"type":"handle","offset":1020,"length":16,"data":"javascript_jobs"}],"date":"2020-06-29T13:35:59+00:00","link":"tg://resolve?domain=javascript_jobs_feed&post=16421","tags":[{"name":"javascript"},{"name":"html"},{"name":"css"},{"name":"sass"},{"name":"seo"}],"cities":[],"allowsRemote":true}},{"node":{"__typename":"Job","id":"26779582464-1001075660570","title":"Php developer","text":"#backend #вакансия #офис #удаленка #PHP #remote\n\nВилка: 80к - 250k руб.\nЛокация: Удаленная работа или офис в Новосибе\nЗанятость: #полная\n\nМы — Legionfarm.com.\nМы помогаем игрокам по всему миру нанимать крутых киберспортсменов для помощи в освоении end-game контента, получении топ шмота и титулов, повышении рейтингов. Основные игровые дисциплины - Destiny 2, WoW, Division 2.\n\nТысячи игроков по всему миру пользуются сервисом ежедневно, мы растем, поэтому сейчас ищем в одну из команд PHP Developer (#middle и #senior)\n\n😱Что будем делать?\n• Будем ходить в API игр Bungie, Blizzard, анализировать игровые профили наших клиентов, строить рекомендательные системы.\n• Автоматическая отправка сообщений через API в мессенджеры: discord, telegram, fb, будем сводить общение наших клиентов через мессенджеры в единую систему intercom.com.\n• Автоматизация процессов в нашей команде (полуавтоматизированные инструменты для работы с сайтом).\n\n👍Что ты должен знать/уметь?\n• Знание PHP, Linux на хорошем уровне.\n• Умение работать в системах контроля версий.\n• Знание mysql, redis.\n• Опыт работы с различными API.\n\n⭐️Будет плюсом\n• Сильный математический бэкграунд.\n• Базовое знание html, CSS, JavaScript.\n• Опыт работы с фронтенд фреймворками (React one love).\n\n✅Вопросы прошу направлять в личку @isaevakristi","markup":[{"type":"hashtag","offset":0,"length":8,"data":"backend"},{"type":"hashtag","offset":9,"length":9,"data":"вакансия"},{"type":"hashtag","offset":19,"length":5,"data":"офис"},{"type":"hashtag","offset":25,"length":9,"data":"удаленка"},{"type":"hashtag","offset":35,"length":4,"data":"PHP"},{"type":"hashtag","offset":40,"length":7,"data":"remote"},{"type":"bold","offset":49,"length":6,"data":""},{"type":"bold","offset":72,"length":9,"data":""},{"type":"bold","offset":118,"length":9,"data":""},{"type":"hashtag","offset":129,"length":7,"data":"полная"},{"type":"link","offset":143,"length":14,"data":"http://Legionfarm.com"},{"type":"bold","offset":143,"length":14,"data":""},{"type":"bold","offset":464,"length":77,"data":""},{"type":"hashtag","offset":501,"length":7,"data":"middle"},{"type":"hashtag","offset":511,"length":7,"data":"senior"},{"type":"link","offset":820,"length":12,"data":"http://intercom.com"},{"type":"bold","offset":935,"length":29,"data":""},{"type":"bold","offset":1105,"length":15,"data":""},{"type":"handle","offset":1287,"length":13,"data":"isaevakristi"}],"date":"2020-06-29T12:07:04+00:00","link":"tg://resolve?domain=php_jobs&post=25539","tags":[{"name":"php"},{"name":"linux"},{"name":"mysql"},{"name":"redis"},{"name":"html"},{"name":"css"},{"name":"javascript"},{"name":"reactjs"}],"cities":[],"allowsRemote":true}}]}}},"context":{}}