{"hash":"f34fd2c444a074f4e0e67d525015a008ef8e766f","data":{"records":{"id":"laravel","name":"laravel","belongsTo":{"totalCount":20,"pageInfo":{"totalPages":2,"currentPage":1},"edges":[{"node":{"__typename":"Job","id":"24391974912-1001075660570","title":"Php разработчик","text":"#вакансия #удаленка#php #yii\n #штат #highload #ecommerce #официально\n\nРебята, наша компания Hidden Team расширяет штат и приглашает на работу backend-разработчиков уровня middle/middle+ c опытом работы на фреймворке Yii. Мы занимаемся разработкой highload проектов в сфере e-commerce и сложных ERP систем. Сотрудничаем с топовыми веб-студиями и digital-агентствами России.\n\nЧто бы мы хотели видеть у наших кандидатов?\n🔸Хорошие знания программирования (PHP, ООП).\n🔸Опыт работы на фреймворке Yii/Laravel/Symfony\n🔸Опыт работы с Git.\n🔸Опыт работы в консоли linux.\n🔸Базовые знания html, java script, css.\n🔸Понимание принципов построения RESTFul сервисов.\n🔸Желателен опыт работы с чем-либо RabbitMQ, Redis, ElasticSearch, PostgreSQL.\n🔸Английский на уровне чтения технической документации.\n\nЛичные качества: аккуратность, внимательность к мелочам, самостоятельность и организованность, умение работать в команде, быстро реагировать на запросы и изменение ситуации, желание обучаться и развиваться, стремление сделать работу максимально качественно.\n\nМы предлагаем:\n🔹только удаленная работа с отлаженным процессом менеджмента проектов (трекинг в Redmine, оценка задач разработчиками);\n🔹работа над сложными e-commerce проектами для крупнейших российских веб-студий (топ-10 рейтинга рунета);\n🔹многосерверная архитектура, высокие нагрузки (500К+ посетителей/месяц);\n🔹множество различных интеграций с большими объемами данных;\n🔹индивидуальные планы развития;\n🔹обучение и семинары внутри компании, собственная он-лайн школа на стадии запуска;\n🔹перспективы карьерного роста (повышения уровня разработчика до senior/team lead, возможность релокации);\n🔹 заработная плата 70К-120К+ по итогам собеседования (белая, на руки), открытая система грейдов;\n🔹 официальное оформление по ТК РФ, оплачиваемый отпуск, удобный график (начало работы 8-11), в выходные, праздники и по ночам не работаем☺️.\n\nКонтакты: Яна @yanaizosimova","markup":[{"type":"hashtag","offset":0,"length":9,"data":"вакансия"},{"type":"hashtag","offset":24,"length":4,"data":"yii"},{"type":"hashtag","offset":30,"length":5,"data":"штат"},{"type":"hashtag","offset":36,"length":9,"data":"highload"},{"type":"hashtag","offset":46,"length":10,"data":"ecommerce"},{"type":"hashtag","offset":57,"length":11,"data":"официально"},{"type":"handle","offset":1906,"length":14,"data":"yanaizosimova"}],"date":"2020-04-10T10:05:28+00:00","link":"tg://resolve?domain=php_jobs&post=23262","tags":[{"name":"php"},{"name":"yii"},{"name":"laravel"},{"name":"symfony"},{"name":"git"},{"name":"linux"},{"name":"html"},{"name":"java"},{"name":"css"},{"name":"rabbitmq"},{"name":"redis"},{"name":"elasticsearch"},{"name":"postgresql"}],"cities":[],"allowsRemote":true}},{"node":{"__typename":"Job","id":"24359469056-1001075660570","title":"Php разработчик","text":"Ищем!\nPHP-разработчик fullstack удаленно\n\n#вакансия #удаленка #штат #PHP #fullstack\n\nЗАДАЧИ:\n🔹 разработка графических интерфейсов к информационным системам и сервисам компании;\n🔹 разработка микросервисов обработки сообщений и сбор статистики в БД;\n🔹 участие в проектировании программных решений и обсуждении архитектурных решений;\n🔹 работы по интеграции и разработке API взаимодействия сервисов как внутри компании, так и с партнерами.\n\nТРЕБОВАНИЯ:\n 🔹 Самостоятельный разработчик с отличным знанием: PHP, js, Ajax, jQuery, HTML, CSS;\n 🔹 MySQL, PostgreSQL, ClickHouse, Redis, MongoDB;\n 🔹 Linux;\n 🔹XML, JSON, SOAP, RabbitMQ;\n 🔹Symfony, Yuii, Laravel, Zend;\n 🔹 Bootstrap;\n 🔹 Средства визуализации данных, например, d3.js.\n\nБыло бы неплохо: \n🔹знание Nodejs, Python, LUA.\n🔹 опыт разработки мобильных приложений Android, IOS\n\nУСЛОВИЯ:\n🔹 работа в штате компании (основной профиль – разработка высокотехнологичных маркетинговых рассылок и чат-ботов);\n🔹 удаленная работа 5/2 с 10 до 19 (MSK);\n🔹ЗП 70-90k (обсуждается с успешными кандидатами).\n\nПишите сюда: @abezpalova","markup":[{"type":"bold","offset":6,"length":36,"data":""},{"type":"hashtag","offset":42,"length":9,"data":"вакансия"},{"type":"hashtag","offset":52,"length":9,"data":"удаленка"},{"type":"hashtag","offset":62,"length":5,"data":"штат"},{"type":"hashtag","offset":68,"length":4,"data":"PHP"},{"type":"hashtag","offset":73,"length":10,"data":"fullstack"},{"type":"bold","offset":85,"length":8,"data":""},{"type":"bold","offset":441,"length":12,"data":""},{"type":"bold","offset":833,"length":9,"data":""},{"type":"handle","offset":1064,"length":11,"data":"abezpalova"}],"date":"2020-04-10T09:33:14+00:00","link":"tg://resolve?domain=php_jobs&post=23231","tags":[{"name":"php"},{"name":"ajax"},{"name":"jquery"},{"name":"html"},{"name":"css"},{"name":"mysql"},{"name":"postgresql"},{"name":"redis"},{"name":"mongodb"},{"name":"linux"},{"name":"xml"},{"name":"json"},{"name":"soap"},{"name":"rabbitmq"},{"name":"symfony"},{"name":"laravel"},{"name":"zend-framework"},{"name":"bootstrap"},{"name":"nodejs"},{"name":"python"},{"name":"lua"},{"name":"android"},{"name":"ios"}],"cities":[],"allowsRemote":true}},{"node":{"__typename":"Job","id":"24351080448-1001075660570","title":"Php разработчик","text":"#вакансия #middle #backend #symfony\nКомпания: AODM (aodm.ru)\nГород и адрес офиса: Санкт-Петербург, м. Чернышевская\nФормат работы: #fulltime #гибкий\nЗанятость: #полная\nЗарплатная вилка: 80-120к (на руки)\n\nЧто мы ожидаем:\n\n- Уверенное знание PHP7\n- REST API\n- Уверенное знание одной из популярных СУБД (MySQL/Postgres)\n- Умение писать Unit и функциональные тесты\n- Опыт работы с одним из современных фреймворков: Laravel, Symfony, Zend (мы используем Symfony)\n- Кэширование\n- Умение пользоваться системами контроля версий (git)\n- Владение английским языком на уровне чтения документации\n\nО проектах, над которыми предстоит работать:\nНативное приложение в сфере красоты с обучающим контентом\nCRM-системы холдинга-арендодателя \nС радостью отвечу на любые вопросы: @selyely","markup":[{"type":"hashtag","offset":0,"length":9,"data":"вакансия"},{"type":"hashtag","offset":10,"length":7,"data":"middle"},{"type":"hashtag","offset":18,"length":8,"data":"backend"},{"type":"hashtag","offset":27,"length":8,"data":"symfony"},{"type":"link","offset":52,"length":7,"data":"http://aodm.ru"},{"type":"hashtag","offset":130,"length":9,"data":"fulltime"},{"type":"hashtag","offset":140,"length":7,"data":"гибкий"},{"type":"hashtag","offset":159,"length":7,"data":"полная"},{"type":"handle","offset":760,"length":8,"data":"selyely"}],"date":"2020-04-09T15:37:56+00:00","link":"tg://resolve?domain=php_jobs&post=23223","tags":[{"name":"php"},{"name":"symfony"},{"name":"rest"},{"name":"mysql"},{"name":"postgresql"},{"name":"laravel"},{"name":"zend-framework"},{"name":"git"}],"cities":[],"allowsRemote":false}},{"node":{"__typename":"Job","id":"24342691840-1001075660570","title":"Php разработчик","text":"#вакансия #Новосибирск #офис #удаленно#FullStack#Middle #Senior#PHP#JavaScript\n\nГород: Новосибирск\nФормат работы: в офисе/удаленно\nЗанятость: полная\nЗарплатная вилка: от 100 000 до 200 000 руб. на руки\nНазвание компании: ВилайнТВ\n\nНужен FullStack разработчик для создания и развития нового проекта видео- тематики. Данная компания разрабатывает и поддерживает облачные хранилища. Проекту уже более 7 лет, в своей нише занимает второе место в мире, аналог на рынке России turbobit, аналог в мире rapidgator, основные рынки это США, Европа, сейчас выходят на Азию, в России не работают. \n\nСтек технологий: Хранилище - OpenStack Swift, BackEnd - Nodejs, PHP (Yii1, Yii2, Laravel), FrontEnd - React, BD - MySql, Postgres, Mongo, Elastic, Доставка - Jenkins, Docker, Kubernetes.\n\nЧто хотят:\n• программирование на JS хотя бы 1 год.\n• программирование на PHP хотя бы 2 года\n• решение любой front-задачи начинать с составления модели данных.\n• уметь работать со сложными SQL-запросами.\n• самостоятельно уметь планировать свою работу.\n• опыт создания сайтов «под ключ»\n• навыки работы с системами контроля версий\n• обязательное понимание валидной, кросс-браузерной и адаптивной верстки.\n\nЧто дают:\n• Работа в офисе или возможность работать удаленно на полный рабочий день;\n• Трудоустройство в соответствии с ТК РФ;\n• График работы с Пн по Пт;\n• Просторный офис в центре Новосибирска либо удаленно;\n• Гибкое начало рабочего дня.\n\nБудет плюсом, если работали с большими проектами.\n\nВопросы : @juliajudina2810\njuliajudina2810@gmail.com","markup":[{"type":"hashtag","offset":0,"length":9,"data":"вакансия"},{"type":"hashtag","offset":10,"length":12,"data":"Новосибирск"},{"type":"hashtag","offset":23,"length":5,"data":"офис"},{"type":"handle","offset":1481,"length":16,"data":"juliajudina2810"},{"type":"link","offset":1498,"length":25,"data":"mailto:juliajudina2810@gmail.com"}],"date":"2020-04-09T10:05:09+00:00","link":"tg://resolve?domain=php_jobs&post=23215","tags":[{"name":"php"},{"name":"javascript"},{"name":"swift"},{"name":"nodejs"},{"name":"yii"},{"name":"laravel"},{"name":"reactjs"},{"name":"mysql"},{"name":"postgresql"},{"name":"elasticsearch"},{"name":"jenkins"},{"name":"docker"},{"name":"kubernetes"},{"name":"sql"}],"cities":[{"code":"novosibirsk"}],"allowsRemote":true}},{"node":{"__typename":"Job","id":"24325914624-1001075660570","title":"Php разработчик","text":"#вакансия #удаленка #php #yii\n #штат #highload #ecommerce #официально\n\nРебята, наша компания Hidden Team расширяет штат и приглашает на работу backend-разработчиков уровня middle/middle+. Мы занимаемся разработкой highload проектов в сфере e-commerce и сложных ERP систем. Сотрудничаем с топовыми веб-студиями и digital-агентствами России, любим Битрикс и возможность решать нестандартные проблемы из любой точки страны!\n\nЧто бы мы хотели видеть у наших кандидатов?\n🔸Хорошие знания программирования (PHP, ООП).\n🔸Опыт работы на фреймворке Yii/Symfony/Laravel\n🔸Опыт работы с Git.\n🔸Опыт работы в консоли linux.\n🔸Базовые знания html, java script, css.\n🔸Понимание принципов построения RESTFul сервисов.\n🔸Желателен опыт работы с чем-либо RabbitMQ, Redis, ElasticSearch, PostgreSQL.\n🔸Английский на уровне чтения технической документации.\n\nЛичные качества: аккуратность, внимательность к мелочам, самостоятельность и организованность, умение работать в команде, быстро реагировать на запросы и изменение ситуации, желание обучаться и развиваться, стремление сделать работу максимально качественно.\n\nМы предлагаем:\n🔹только удаленная работа с отлаженным процессом менеджмента проектов (трекинг в Redmine, оценка задач разработчиками);\n🔹работа над сложными e-commerce проектами для крупнейших российских веб-студий (топ-10 рейтинга рунета);\n🔹многосерверная архитектура, высокие нагрузки (500К+ посетителей/месяц);\n🔹множество различных интеграций с большими объемами данных;\n🔹индивидуальные планы развития;\n🔹обучение и семинары внутри компании, собственная он-лайн школа на стадии запуска;\n🔹перспективы карьерного роста (повышения уровня разработчика до senior/team lead, возможность релокации);\n🔹 заработная плата 70К-120К+ по итогам собеседования (белая, на руки), открытая система грейдов;\n🔹 официальное оформление по ТК РФ, оплачиваемый отпуск, удобный график (начало работы 8-11), в выходные, праздники и по ночам не работаем☺️.\n\nКонтакты: Яна @yanaizosimova","markup":[{"type":"hashtag","offset":0,"length":9,"data":"вакансия"},{"type":"hashtag","offset":10,"length":9,"data":"удаленка"},{"type":"hashtag","offset":20,"length":4,"data":"php"},{"type":"hashtag","offset":25,"length":4,"data":"yii"},{"type":"hashtag","offset":31,"length":5,"data":"штат"},{"type":"hashtag","offset":37,"length":9,"data":"highload"},{"type":"hashtag","offset":47,"length":10,"data":"ecommerce"},{"type":"hashtag","offset":58,"length":11,"data":"официально"},{"type":"handle","offset":1954,"length":14,"data":"yanaizosimova"}],"date":"2020-04-07T08:24:30+00:00","link":"tg://resolve?domain=php_jobs&post=23199","tags":[{"name":"php"},{"name":"yii"},{"name":"symfony"},{"name":"laravel"},{"name":"git"},{"name":"linux"},{"name":"html"},{"name":"java"},{"name":"css"},{"name":"rabbitmq"},{"name":"redis"},{"name":"elasticsearch"},{"name":"postgresql"}],"cities":[],"allowsRemote":true}},{"node":{"__typename":"Job","id":"24304943104-1001075660570","title":"Php разработчик","text":"#вакансия #TeamLead #PHP #Laravel #Go #PaaS #fulltime #офис\n\nФормат работы: офис\nРасположение офиса: Москва (м.Белорусская)\nЗанятость: полная, гибкое начало дня\nЗП: 300К-370К (на руки)\n\nВсем добрый день.\nЕсть очень интересная вакансия Team Lead`а в крупную e-commerce компанию.\n\n📍Проект - разработка внутренней платформы для запуска и разработки приложений, которая интегрирует в себя инструменты и библиотеки для разработки, pipeline доставки приложений, а также интеграции с хранилищами данных и существующими инструментами.\nСейчас у продукта около 300 пользователей (внутренние заказчики). \n\nЯ ищу человека, который возглавит разработку одной из частей платформы и будет заниматься развитием людей в своей команде.\n\n📌Требования к кандидату:\n\n- хорошо знаешь процесс разработки и можешь круто его организовывать и оптимизировать (например, увеличивать velocity, уменьшать scope drop);\n- обладаешь опытом продуктовой разработки (делаешь фичи для людей, а не для галочки);\n- сможешь управлять командой из 5-6 middle/senior-разработчиков (опыт управления командой от 3-х лет - must have);\n- любишь и умеешь развивать в людях их сильные стороны;\n- понимаешь микросервисную архитектуру и паттерны проектирования;\n- имеешь опыт работы хотя бы с одним из языков: Golang, PHP, Python.\n\n💡Условия:\n- возможность реализовать свои идеи в проекте с многомиллионной аудиторией;\n- команда профессионалов, готовых поддержать ваши инициативы;\n- красивый и комфортный офис в 2 минутах от метро «Белорусская»; \n- ДМС\n- прозрачная система бонусов и премий\n\n📧Контакты для CV и рекомендаций:\nemail: seleznevaem@gmail.com\n@EkaterinaSel","markup":[{"type":"hashtag","offset":0,"length":9,"data":"вакансия"},{"type":"hashtag","offset":10,"length":9,"data":"TeamLead"},{"type":"hashtag","offset":20,"length":4,"data":"PHP"},{"type":"hashtag","offset":25,"length":8,"data":"Laravel"},{"type":"hashtag","offset":34,"length":3,"data":"Go"},{"type":"hashtag","offset":38,"length":5,"data":"PaaS"},{"type":"hashtag","offset":44,"length":9,"data":"fulltime"},{"type":"hashtag","offset":54,"length":5,"data":"офис"},{"type":"link","offset":1583,"length":21,"data":"mailto:seleznevaem@gmail.com"},{"type":"handle","offset":1605,"length":13,"data":"EkaterinaSel"}],"date":"2020-04-06T12:54:20+00:00","link":"tg://resolve?domain=php_jobs&post=23179","tags":[{"name":"php"},{"name":"laravel"},{"name":"go"},{"name":"python"}],"cities":[{"code":"moscow"}],"allowsRemote":false}},{"node":{"__typename":"Job","id":"24242028544-1001075660570","title":"Php разработчик","text":"#php #developer #middle #senior #fulltime #удалённо #job #вакансия #remote #фуллтайм #fulltime #удаленно #удаленка #удалёнка #удаленно \n #москва \n✔️ Вакансия: PHP developer\nЗП: до 160k net\nФормат работы: полная/удаленно\nКомпания: МТС \n\nКрупная российская телекоммуникационная компания приглашает присоединиться PHP разработчика к проекту доработки приложения, позволяющее абонентам эффективно и комфортно управлять финансами абонентского счета.\n\n ✔️ Задачи:\n• Доработка CMS бэкенда проекта;\n• Доработка бэкенда проекта;\n• Интеграции решений с внешними системами;\n• Интеграция решения с мобильными приложениями;\n• Разработка веб-приложений с использованием PHP 5.3, 5.6, 7.3.\n\n✔️ Предлагаем: \n• Официальное трудоустройство;\n• Повышение квалификации;\n•  Удаленная работа из дома.\n\n✔️ Пожелания к Вашему опыту:\n• Знание отличий версий PHP 5.3, 5.6, 7.3;\n• Понимание принципов ООП, MVP;\n• Опыт работы с #Yii2, #Laravel;\n• Работа с БД: PL/SQL, MySQL, MS SQL;\n• Опыт работы с JavaScript, jQuery, Bootstrap, CSS, HTML;\n• Опыт работы с Yii2, Laravel;\n• Работа с БД: PL/SQL, MySQL, MS SQL;\n• Знание команд Unix/Windows;\n• Опыт разработки пользовательских интерфейсов;\n• Опыт работы с системами контроля версий: TFS/SVN/GIT.\n\nКонтактное лицо: @OlgaVzh","markup":[{"type":"hashtag","offset":0,"length":4,"data":"php"},{"type":"hashtag","offset":5,"length":10,"data":"developer"},{"type":"hashtag","offset":16,"length":7,"data":"middle"},{"type":"hashtag","offset":24,"length":7,"data":"senior"},{"type":"hashtag","offset":32,"length":9,"data":"fulltime"},{"type":"hashtag","offset":42,"length":9,"data":"удалённо"},{"type":"hashtag","offset":52,"length":4,"data":"job"},{"type":"hashtag","offset":57,"length":9,"data":"вакансия"},{"type":"hashtag","offset":67,"length":7,"data":"remote"},{"type":"hashtag","offset":75,"length":9,"data":"фуллтайм"},{"type":"hashtag","offset":85,"length":9,"data":"fulltime"},{"type":"hashtag","offset":95,"length":9,"data":"удаленно"},{"type":"hashtag","offset":105,"length":9,"data":"удаленка"},{"type":"hashtag","offset":115,"length":9,"data":"удалёнка"},{"type":"hashtag","offset":125,"length":9,"data":"удаленно"},{"type":"hashtag","offset":137,"length":7,"data":"москва"},{"type":"bold","offset":158,"length":15,"data":""},{"type":"bold","offset":204,"length":16,"data":""},{"type":"bold","offset":447,"length":11,"data":""},{"type":"bold","offset":676,"length":16,"data":""},{"type":"bold","offset":779,"length":29,"data":""},{"type":"hashtag","offset":899,"length":5,"data":"Yii2"},{"type":"hashtag","offset":906,"length":8,"data":"Laravel"},{"type":"handle","offset":1233,"length":8,"data":"OlgaVzh"}],"date":"2020-04-02T08:52:06+00:00","link":"tg://resolve?domain=php_jobs&post=23119","tags":[{"name":"php"},{"name":"dotnet"},{"name":"yii"},{"name":"laravel"},{"name":"sql"},{"name":"mysql"},{"name":"javascript"},{"name":"jquery"},{"name":"bootstrap"},{"name":"css"},{"name":"html"},{"name":"unix"},{"name":"windows"},{"name":"tfs"},{"name":"svn"},{"name":"git"}],"cities":[{"code":"moscow"}],"allowsRemote":true}},{"node":{"__typename":"Job","id":"24236785664-1001075660570","title":"Php разработчик","text":"#вакансия #fulltime #symfony #middle #senior\nГород и адрес офиса: Санкт-Петербург, м. Московская\nФормат работы: #офис\nЗанятость: полная\nНазвание компании: Paydek, paydek.com\nЗарплатная вилка: от 160 000 до 240 000 рублей на руки\n\nНаш продукт — это удобная система для оплаты фрилансеров и удалённых сотрудников по всему миру.\n\nПроект существует 10 лет, у него 50 000 корпоративных клиентов и порядка 500 000 частных.\n\nПроект высоконагруженный, мы расширяем команду для его рефакторинга, сейчас в команде backend'а 6 человек.\n\nНаши основные ожидания:\n— умение качественно и эффективно программировать на PHP (5.3-7.2)\n— хорошее знание какого-либо популярного фреймворка (Symfony/ Laravel)\n— знание ООП, паттернов и принципов (SOLID, DRY, KISS) и умение это знание применять на практике\n— умение строить REST API\n— уверенное владение SQL \n\nБудет плюсом: \n— опыт работы с большими объёмами данных и высоко нагруженными системами (репликация, шардинг, балансировка запросов)\n— опыт перехода на микросервисную архитектуру/облачные технологии\n\nГрафик работы гибкий — приход в офис до 13:00.\n\nКонтакт для связи: @recruiter","markup":[{"type":"hashtag","offset":0,"length":9,"data":"вакансия"},{"type":"hashtag","offset":10,"length":9,"data":"fulltime"},{"type":"hashtag","offset":20,"length":8,"data":"symfony"},{"type":"hashtag","offset":29,"length":7,"data":"middle"},{"type":"hashtag","offset":37,"length":7,"data":"senior"},{"type":"hashtag","offset":112,"length":5,"data":"офис"},{"type":"bold","offset":155,"length":6,"data":""},{"type":"link","offset":163,"length":10,"data":"http://paydek.com"},{"type":"bold","offset":526,"length":24,"data":""},{"type":"bold","offset":838,"length":12,"data":""},{"type":"handle","offset":1105,"length":10,"data":"recruiter"}],"date":"2020-04-01T17:09:23+00:00","link":"tg://resolve?domain=php_jobs&post=23114","tags":[{"name":"php"},{"name":"symfony"},{"name":"laravel"},{"name":"rest"},{"name":"sql"}],"cities":[],"allowsRemote":false}},{"node":{"__typename":"Job","id":"24228397056-1001075660570","title":"Php разработчик","text":"#вакансия #Москва #fulltime #php #офис #middle #senior\n  \nВакансия: Ведущий backend разработчик (PHP)\nГород: #Москва (м. Парк Победы)\nЗП: от 120К net (готовы рассмотреть ваши ожидания)\nЗанятость: полная / офис \nКомпания: Румиком (https://ru-mi.com/)\n\n📌 Компания Румиком, крупнейший реселлер экосистемы Xiaomi на российском рынке и странах СНГ, ищет увлеченного PHP-профи в свою команду.\n\n📌 Задачи:\n•  Поддержка высоконагруженного ecommerce-проекта (интернет-магазина с посещаемостью больше 1 миллиона пользователей в месяц) в качестве ведущего программиста: доработки по функционалу, фронтенд- и бэкенд-работы при обновлении дизайна разделов и так далее;\n•  Перевод интернет-магазина на новую платформу;\n•  Разработка экосистемы небольших лидген-сайтов для подразделений, входящих в ГК (в будущем — контроль внешних подрядчиков);\n•  Оптимизация скорости работы сайтов;\n•  Интеграционные связки 1С — CRM — сайт.\n\n📌 Что мы готовы предложить:\n•  Практикуем современный подход к работе — мы даем свободу действий и творчества; \n•  Комфортный офис в 7 минутах пешком от станции метро \"Парк Победы\"; \n•  Программы коучинга и горизонтальное обучение в отделах; \n•  Уютный бизнес-центр с фитнес-залом и бассейном; \n•  С удовольствием делимся всем, что сами знаем, \"закрытость\" - не про нас.\n\n📌 Наши ожидания:\n•  Опыт разработки на OpenCart любой версии (от 1.5), понимание модели MVC;\n•  Опыт разработки на РНР от 3-х лет. В ваше портфолио могут входить как решения на CMS, CMF и на фреймворках (Yii 2, Laravel и пр.), так и на популярных CMS (1C-Bitrix, Netcat, MODx);\n•  Хорошие навыки по фронтенду, включая интеграцию верстки, опыт разработки на JavaScript (jQuery);\n•  Опыт работы с реляционными БД: MySQL, PostgreSQL как плюс для соискателя;\n•  Опыт работы с Git. Будет отлично, если работали с Docker.\n\n✉️ Для связи:\nПочта: hr.administrator@digmi.agency\nТелеграм: @dnikiforova","markup":[{"type":"hashtag","offset":0,"length":9,"data":"вакансия"},{"type":"hashtag","offset":10,"length":7,"data":"Москва"},{"type":"hashtag","offset":18,"length":9,"data":"fulltime"},{"type":"hashtag","offset":28,"length":4,"data":"php"},{"type":"hashtag","offset":33,"length":5,"data":"офис"},{"type":"hashtag","offset":39,"length":7,"data":"middle"},{"type":"hashtag","offset":47,"length":7,"data":"senior"},{"type":"hashtag","offset":109,"length":7,"data":"Москва"},{"type":"link","offset":230,"length":18,"data":"https://ru-mi.com/"},{"type":"link","offset":1826,"length":29,"data":"mailto:hr.administrator@digmi.agency"},{"type":"handle","offset":1866,"length":12,"data":"dnikiforova"}],"date":"2020-04-01T14:40:24+00:00","link":"tg://resolve?domain=php_jobs&post=23106","tags":[{"name":"php"},{"name":"dotnet"},{"name":"yii"},{"name":"laravel"},{"name":"javascript"},{"name":"jquery"},{"name":"mysql"},{"name":"postgresql"},{"name":"git"},{"name":"docker"}],"cities":[{"code":"moscow"}],"allowsRemote":false}},{"node":{"__typename":"Job","id":"24184356864-1001075660570","title":"Php разработчик","text":"#вакансия #удаленно #php #symfony #junior\nРасположение: Санкт-Петербург\nФормат работы: удаленно\nЗанятость: полная\nЗп: от 20 до 50 т.р. на руки\n\nО компании: Мы питерская компания LandPro занимаемся помощью бизнесу в организации и ведении дел, ищем в команду 2 начинающих разработчиков, на полностью удаленную работу. \n\nНаш стек: php 7+, symfony 4.4, CSS/Js, jQuery\n\nТребования: \n- Наличие коммерческого опыта желательно но не обязательно\n- Железная сила воли (так как вы работает на удаленке)\n- Уверенное знание php \n- Понимание/Опыт работы с одним из фреймворков symfony/laravel/yii\n- Понимание/опыт работы с MySQL бд \n\nДля связи писать сюда: @elcorporation","markup":[{"type":"hashtag","offset":0,"length":9,"data":"вакансия"},{"type":"hashtag","offset":10,"length":9,"data":"удаленно"},{"type":"hashtag","offset":20,"length":4,"data":"php"},{"type":"hashtag","offset":25,"length":8,"data":"symfony"},{"type":"hashtag","offset":34,"length":7,"data":"junior"},{"type":"handle","offset":643,"length":14,"data":"elcorporation"}],"date":"2020-03-31T14:05:15+00:00","link":"tg://resolve?domain=php_jobs&post=23064","tags":[{"name":"php"},{"name":"symfony"},{"name":"css"},{"name":"jquery"},{"name":"laravel"},{"name":"yii"},{"name":"mysql"}],"cities":[],"allowsRemote":true}}]}}},"context":{}}