{"hash":"f5f6bf98bd95e769321482904cbbd488f77922fd","data":{"records":{"id":"russia/moscow","country":{"code":"russia","ruName":"Россия","enName":"Russia"},"city":{"code":"moscow","ruName":"Москва","enName":"Moscow"},"belongsTo":{"totalCount":476,"pageInfo":{"totalPages":48,"currentPage":9},"edges":[{"node":{"__typename":"Job","id":"72425144320-1001054966032","title":"Mobile программист","text":"#вакансия #middle #senior #iOS #developer #Minsk #Moscow #удаленка #fulltime\n\nГород - Минск или Москва\nФормат работы: #офис или #удаленно\nЗанятость: полная \nЗарплатная вилка: от 2.000$ до 6.000$\n\nКоманда BP Mobile в поисках опытных iOS программистов, для работы над мобильными продуктами!\n\nЖдем в команду людей, у которых:\n-3+ лет опыта в разработке мобильных приложений;\n-Глубокие знания Objective-C и Swift;\n-Уверенные знания Core Data, Rest API, iOS SDK и паттернов MVC/MVVM, знания Realm - плюс;\n-Дополнительно будет плюсом знание С++ и других языков программирования.\n\n У нас: \n-Свобода выбора технологий;\n-Только собственные и разнообразные проекты (одновременно в разработке более 20 продуктов);\n-Курсы английского языка на базе офиса;\n-Медицинская страховка (включает стоматологию);\n-Скидка на паркинг возле офиса;\n-Корпоративы несколько раз в год;\n-5 Sick days в году;\n-Скидка в тренажерный зал и другие бонусы.\nКонтакты: \nemail - nadezhda.kostenevich@bpmobile.com\ntelegram - @nadzzzeya","markup":[{"type":"hashtag","offset":0,"length":9,"data":"вакансия"},{"type":"hashtag","offset":10,"length":7,"data":"middle"},{"type":"hashtag","offset":18,"length":7,"data":"senior"},{"type":"hashtag","offset":26,"length":4,"data":"iOS"},{"type":"hashtag","offset":31,"length":10,"data":"developer"},{"type":"hashtag","offset":42,"length":6,"data":"Minsk"},{"type":"hashtag","offset":49,"length":7,"data":"Moscow"},{"type":"hashtag","offset":57,"length":9,"data":"удаленка"},{"type":"hashtag","offset":67,"length":9,"data":"fulltime"},{"type":"hashtag","offset":118,"length":5,"data":"офис"},{"type":"hashtag","offset":128,"length":9,"data":"удаленно"},{"type":"link","offset":940,"length":33,"data":"mailto:nadezhda.kostenevich@bpmobile.com"},{"type":"handle","offset":985,"length":10,"data":"nadzzzeya"}],"date":"2020-07-01T06:59:55+00:00","link":"tg://resolve?domain=mobile_jobs&post=69070","tags":[{"name":"mobile"},{"name":"ios"},{"name":"objective-c"},{"name":"swift"},{"name":"rest"},{"name":"mvvm"},{"name":"realm"},{"name":"core-data"}],"cities":[{"code":"minsk"},{"code":"moscow"}],"allowsRemote":true}},{"node":{"__typename":"Job","id":"104112062464-1001089317451","title":"Qa инженер","text":"QA\n\n#QA #тестировщик #россия #APi\n#ручноетестирование #middle #senior #тестирование #вакансия\nВ нашей молодой концептуальной IT-компании ООО \"Сколопендра\" (www.skolopendra.com) на данный момент открыта позиция QA тестировщика.\nВид деятельности  нашей Компании: ИТ-разработка полного цикла. \nСпециализация: высоконагруженные промышленные системы, процессинги данных, СППР, AI, запуск стартап-идей под ключ, электротехника.\nНаправление деятельности: технологический партнер для внешних заказчиков/собственные Hard&Soft Продукты.\n\n\n\nQA \n\nТребуемые знания, навыки, опыт\n• Знание основных технологий и методов тестирования\n• Понимание процесса разработки и тестирования ПО\n• Хорошие знания в области тест-дизайна\n• Опыт работы с баг-трекинговыми системами (jira)\n• Понимание основных принципов REST API\n• Опыт работы в тестировании от 1,5 лет\n• Высшее образование (предпочтительно техническое)\n\nБудет плюсом:\n• Базовые знания Java будут плюсом\n• Опыт автоматизации тестирования будет плюсом\n• Базовые знания технологии блокчейн и принципов работы бирж будут плюсом\nТакже мы ждем от кандидатов:\n• Умение работать в команде\n• Ответственность, самостоятельность, инициативность\n• Умение работать в условиях большого количества задач, оперативная реакция на задачи\n• Внимание к деталям, способность анализировать информацию\n• Стремление к саморазвитию, обучению, повышению технических компетенций\nФункциональные обязанности:\n• Проведение ручного функционального и регрессионного тестирования\n• Локализация, документирование, проверка дефектов\n• Разработка и актуализация тестовых планов, тестовых сценариев\n• Оценка трудоемкости задач\n• Работа с требованиями и документацией\nЗанятость : фултайм 5/2 на удалёнке Зарплатная вилка:600-800/час\n#iOS\n#Android\n#mobiledevelopment \n#crossplatform #flutter #kotlinnative\n#мобильнаяразработка #вакансия\n\nКомпания ООО “СКОЛОПЕНДРА” (www.skolopendra.com) приглашает целеустремленных и одаренных в наш дружный коллектив. \nДавай вместе делать интересные проекты в современных стеках технологий. А мы предоставим возможности для скорейшего профессионального и личностного роста.\n\nВид деятельности Компании: ИТ-разработка полного цикла. \nСпециализация: высоконагруженные промышленные системы, процессинги данных, СППР, AI, запуск стартап-идей под ключ, электротехника.\nНаправление деятельности: технологический партнер для внешних заказчиков/собственные Hard&Soft Продукты.\n\nОфис: Москва, м.Павелецкая, Космодамианская наб., 52/10\nФормат работы: в офисе/удаленно\nЗанятость: full-time (целевой формат) /part-time (возможный старт)\nЗП: по итогам собеседования, 3-х месячный цикл пересмотра grade\nОформление: по ТК\n\nДолжность: Mid/Mid+/Sen\nКонтакты: team@skolopendra.com\nТелеграмм : @Tufelka1","markup":[{"type":"hashtag","offset":4,"length":3,"data":"QA"},{"type":"hashtag","offset":8,"length":12,"data":"тестировщик"},{"type":"hashtag","offset":21,"length":7,"data":"россия"},{"type":"hashtag","offset":29,"length":4,"data":"APi"},{"type":"hashtag","offset":34,"length":19,"data":"ручноетестирование"},{"type":"hashtag","offset":54,"length":7,"data":"middle"},{"type":"hashtag","offset":62,"length":7,"data":"senior"},{"type":"hashtag","offset":70,"length":13,"data":"тестирование"},{"type":"hashtag","offset":84,"length":9,"data":"вакансия"},{"type":"link","offset":156,"length":19,"data":"http://www.skolopendra.com"},{"type":"hashtag","offset":1731,"length":4,"data":"iOS"},{"type":"hashtag","offset":1736,"length":8,"data":"Android"},{"type":"hashtag","offset":1745,"length":18,"data":"mobiledevelopment"},{"type":"hashtag","offset":1765,"length":14,"data":"crossplatform"},{"type":"hashtag","offset":1780,"length":8,"data":"flutter"},{"type":"hashtag","offset":1789,"length":13,"data":"kotlinnative"},{"type":"hashtag","offset":1803,"length":20,"data":"мобильнаяразработка"},{"type":"hashtag","offset":1824,"length":9,"data":"вакансия"},{"type":"link","offset":1863,"length":19,"data":"http://www.skolopendra.com"},{"type":"link","offset":2672,"length":20,"data":"mailto:team@skolopendra.com"},{"type":"handle","offset":2705,"length":9,"data":"Tufelka1"}],"date":"2020-07-01T00:06:52+00:00","link":"tg://resolve?domain=qa_jobs&post=99289","tags":[{"name":"qa"},{"name":"rest"},{"name":"java"},{"name":"ios"},{"name":"android"},{"name":"flutter"}],"cities":[{"code":"moscow"}],"allowsRemote":true}},{"node":{"__typename":"Job","id":"104108916736-1001089317451","title":"Qa engineer","text":"#вакансия #QA #тестировщик #middle #senior #москва #офис #fulltime\n\nКомпания: СберТех\nЛокация: г. Москва\nЗ/п: 130-250k\n \nСберТех приглашает в команду QA Engineer. Так же того, кто желает обучаться автоматизации на JS/CodeceptJS или уже состоявшегося автоматизатора\n\n💻 Делаем образовательную цифровую платформу - SaaS решение для персонализированного обучения в школах, IT Bootcamp Сбербанка. Сейчас масштабируемся и выходим на университеты\n\nСтек проекта:\nBack: Java 8+, Spring 5, SpringBoot 2, PostgreSQL, MongoDB, Flyway\n﻿Front: ReactJS, Typescript, Apollo-client, Styled-Components\nAutomationQA: API - Java/TestNG; UI - JavaScript/CodeceptJS\nInfracture: Jenkins, Allure, Bitbucket, Jira, EFK, Grafana\nEnvironment: Docker, Kubernetes, Ceph\n\nЧем предстоит заниматься:\n🔹проходить регресс текущего функционала\n🔹разрабатывать кейсы параллельно разработке нового функционала\n🔹проводить анализ требований для новых фич и давать свое заключение\n🔹участвовать в расширении тестовой модели\n🔹автоматизировать регресс, поддерживать старый функционал, писать тесты для новых фич\n\nОжидания от квалификации:\n🔹умение работать с DevTools, различать Get & Post-запросы\n🔹знание видов тестирования, умение отличить функциональное тестирование от нефункционального, понимание зачем и когда нужен regress, end-2-end и smoke testing\n🔹умение/желание тестировать UI\n🔹опыт работы с технической документацией, анализом макетов и составлением тестовой документации \n🔹умение чётко и внятно составлять баг-репорты в таск-трекере (у нас Jira)\n🔹умение писать понятные для других тест-кейсы без лишней информации\n🔹опыт взаимодействия с Rest-API\n\nПлюсом будет:\n🔹если слова cross platform testing & cross device testing не вызывают ступора, на примете есть полезные applications для тестирования UI\n🔹если уже ступил на путь познания JavaScript или Java\n🔹шапочное или личное знакомство с GraphQL\n🔹опыт работы в Agile-команде\n\nПредлагаем:\n✔достойную зарплату (оклад + высокая годовая премия) \n✔профессиональное развитие: конференции, митапы, обучение в Корпоративном университете Сбербанка\n✔ДМС, страховку от несчастных случаев, льготные условия ипотеки, скидки от компаний-партнеров, бесплатный тренажёрный зал\n✔офис А класса в БЦ «Северное Сияние» (5 мин от м. Савеловская), удалёнка до конца июля\n\nЕсли интересно - буду рада обсудить, вот мои контакты:\n📲 @karprokar\n📩 KVProlomova@sberbank.ru","markup":[{"type":"hashtag","offset":0,"length":9,"data":"вакансия"},{"type":"hashtag","offset":10,"length":3,"data":"QA"},{"type":"hashtag","offset":14,"length":12,"data":"тестировщик"},{"type":"hashtag","offset":27,"length":7,"data":"middle"},{"type":"hashtag","offset":35,"length":7,"data":"senior"},{"type":"hashtag","offset":43,"length":7,"data":"москва"},{"type":"hashtag","offset":51,"length":5,"data":"офис"},{"type":"hashtag","offset":57,"length":9,"data":"fulltime"},{"type":"bold","offset":68,"length":8,"data":""},{"type":"bold","offset":86,"length":7,"data":""},{"type":"bold","offset":105,"length":3,"data":""},{"type":"bold","offset":121,"length":40,"data":""},{"type":"bold","offset":442,"length":12,"data":""},{"type":"bold","offset":743,"length":24,"data":""},{"type":"bold","offset":1074,"length":24,"data":""},{"type":"bold","offset":1627,"length":12,"data":""},{"type":"bold","offset":1908,"length":10,"data":""},{"type":"handle","offset":2340,"length":10,"data":"karprokar"},{"type":"link","offset":2354,"length":23,"data":"mailto:KVProlomova@sberbank.ru"}],"date":"2020-06-30T20:08:43+00:00","link":"tg://resolve?domain=qa_jobs&post=99286","tags":[{"name":"qa"},{"name":"java"},{"name":"spring"},{"name":"postgresql"},{"name":"mongodb"},{"name":"reactjs"},{"name":"typescript"},{"name":"javascript"},{"name":"jenkins"},{"name":"docker"},{"name":"kubernetes"},{"name":"rest"},{"name":"graphql"}],"cities":[{"code":"moscow"}],"allowsRemote":true}},{"node":{"__typename":"Job","id":"17276338176-1001110946746","title":"Javascript разработчик","text":"#вакансия #react #junior #middle #работа #parttime #JavaScript #Frontend #Web\n\nГород и адрес офиса: Москва. \nФормат работы: Удаленная работа. \nЗанятость: Частичная. В ближайший месяц требуется фуллтайм и работы много, дальше почасово или по задачам.\n\nЗарплатная вилка: от 50.000 до 100.000 рублей на руки\n\nОписание вакансии: Требуется второй разработчик для разработки админки, который сверстает и запрограммирует второстепенные экраны. React. Делать необходимо только фронтенд-часть. Ответственные джуниоры приветствуются\n\nНазвание компании: Новая Газета\nКонтакты: @hector5555","markup":[{"type":"hashtag","offset":0,"length":9,"data":"вакансия"},{"type":"hashtag","offset":10,"length":6,"data":"react"},{"type":"hashtag","offset":17,"length":7,"data":"junior"},{"type":"hashtag","offset":25,"length":7,"data":"middle"},{"type":"hashtag","offset":33,"length":7,"data":"работа"},{"type":"hashtag","offset":41,"length":9,"data":"parttime"},{"type":"hashtag","offset":51,"length":11,"data":"JavaScript"},{"type":"hashtag","offset":63,"length":9,"data":"Frontend"},{"type":"hashtag","offset":73,"length":4,"data":"Web"},{"type":"handle","offset":566,"length":11,"data":"hector5555"}],"date":"2020-06-30T17:34:12+00:00","link":"tg://resolve?domain=javascript_jobs_feed&post=16476","tags":[{"name":"javascript"},{"name":"reactjs"},{"name":"web"}],"cities":[{"code":"moscow"}],"allowsRemote":false}},{"node":{"__typename":"Job","id":"2269118464-1001134745498","title":"Devops инженер","text":"#вакансия #Москва #Казань #Екатеринбург #Питер #Новосибирск фултайм #Экспресс42 #инженер #удаленка\nГород: Москва. Вакансия для кандидатов из любых городов.\nКомпания: Экспресс 42\nФормат работы: удалённый \nЗанятость: полная\nЗарплата: от 120 000 до 200 000 рублей на руки\n\nМы небольшая команда, которая легко проводит эксперименты и быстро принимает решения. Мы делаем проекты по постановке практик DevOps, обучению DevOps практикам в технологических компаниях и корпоративном секторе.\nВ составе нашей команды тебя ждут разнообразные задачи по созданию и улучшению решений, обеспечивающих процессы разработки и эксплуатации цифровых продуктов наших клиентов. \nМы строим высокодоступную и удобную инфраструктуру, изучаем новые подходы и помогаем нашим клиентом с внедрением и адаптацией инженерных практик, таких как Непрерывная поставка, Инфраструктура как код, Централизованное логирование. \nИнструменты выбираем под задачу и потребности клиентов, среди основных, которые точно нужно знать: Kubernetes и его экосистема, Ansible, Terraform, CI-сервисы, системы контроля версий, облачные решения от разных провайдеров.\n\nМы ожидаем от тебя:\n— знание практик и инструментов логирования и мониторинга;\n— опыт описания инфраструктуры в виде кода (Ansible, Terraform, etc);\n— понимание процесса CI/CD;\n— слова Kubernetes, Prometheus, Jenkins, Gitlab, ELK, AWS, GCP не вызывают изумления, а заставляют трепетать нежное сердце инженера\n\nКлассно, если у тебя есть опыт эксплуатации веб-проектов в продакшене. И если при этом ты можешь похвастаться опытом применения нескольких перечисленных инструментов, то тебе точно нужно в Экспресс.\n\nУ нас действительно огненная команда. Мы вместе работаем, общаемся, ходим в бары, посещаем ивенты, организовываем внутренние хакатоны, готовим друг друга к выступлениям на конференциях, поддерживаем и болеем за наше общее дело. А с марта мы перешли на удалённую работу 🚀\nУ нас классно! Присоединяйся!\n\nКонтакты: Рушана @razrushana и rushana@express42.com\n\n—\n\n👉 Обсуждение вакансии в чате @devops_jobs","markup":[{"type":"hashtag","offset":0,"length":9,"data":"вакансия"},{"type":"hashtag","offset":10,"length":7,"data":"Москва"},{"type":"hashtag","offset":18,"length":7,"data":"Казань"},{"type":"hashtag","offset":26,"length":13,"data":"Екатеринбург"},{"type":"hashtag","offset":40,"length":6,"data":"Питер"},{"type":"hashtag","offset":47,"length":12,"data":"Новосибирск"},{"type":"hashtag","offset":68,"length":11,"data":"Экспресс42"},{"type":"hashtag","offset":80,"length":8,"data":"инженер"},{"type":"hashtag","offset":89,"length":9,"data":"удаленка"},{"type":"handle","offset":1946,"length":11,"data":"razrushana"},{"type":"link","offset":1960,"length":21,"data":"mailto:rushana@express42.com"},{"type":"handle","offset":2016,"length":12,"data":"devops_jobs"}],"date":"2020-06-30T17:13:05+00:00","link":"tg://resolve?domain=devops_jobs_feed&post=2164","tags":[{"name":"kubernetes"},{"name":"ansible"},{"name":"jenkins"},{"name":"gitlab"},{"name":"amazon-web-services"},{"name":"google-cloud-platform"},{"name":"express"}],"cities":[{"code":"moscow"},{"code":"kazan"},{"code":"novosibirsk"}],"allowsRemote":true}},{"node":{"__typename":"Job","id":"17274241024-1001110946746","title":"Js разработчик","text":"Всем привет! \n\nИщу Frontend-разработчика в крупную инвестиционно-строительную компанию, реализующую свои проекты на рынке Москвы и Московской области. Топ-5 среди застройщиков Москвы и МО.\n\nНеобходимо будет разрабатывать проекты по управлению стройкой и её оптимизацией (планирование, распределение бюджетов, управление процессами на стройке и т.д.), а также для внешних пользователей сервис по покупке недвижимости (web и mobile-версии). Команда пока собрана небольшая - 12 человек. \nСтек: JavaScript (ES6) React +Redux + CSS + SCSS на фронтенде, Python (Django) на бекенде, React-Native - на мобильной разработке. \n\nПо требованиям: \n- опыт с React (от 1,5 лет)\n- опыт с JS (от 2-х лет)\n\nВилка ЗП 150-220k руб. на руки, офис в пяти минутах от ст. м. Кунцевская (г. Москва), есть возможность работать удаленно, отсутствие бюрократии, лояльное руководство, ДМС, возможность посещения конференций, курсов по повышению квалификации за счет работодателя.\n\nТип занятости: полная, офис, удаленка\nНазвание компании: Самолет Девелопмент\n\nКто заинтересовался - пишите в ЛС (@eivanova17),  буду оперативно отвечать 🙂 \n\n#работа #Москва #вакансия #job #react #reactjs #js #офис #удаленка","markup":[{"type":"handle","offset":1065,"length":11,"data":"eivanova17"},{"type":"hashtag","offset":1110,"length":7,"data":"работа"},{"type":"hashtag","offset":1118,"length":7,"data":"Москва"},{"type":"hashtag","offset":1126,"length":9,"data":"вакансия"},{"type":"hashtag","offset":1136,"length":4,"data":"job"},{"type":"hashtag","offset":1141,"length":6,"data":"react"},{"type":"hashtag","offset":1148,"length":8,"data":"reactjs"},{"type":"hashtag","offset":1157,"length":3,"data":"js"},{"type":"hashtag","offset":1161,"length":5,"data":"офис"},{"type":"hashtag","offset":1167,"length":9,"data":"удаленка"}],"date":"2020-06-30T16:39:47+00:00","link":"tg://resolve?domain=javascript_jobs_feed&post=16474","tags":[{"name":"javascript"},{"name":"web"},{"name":"mobile"},{"name":"reactjs"},{"name":"redux"},{"name":"css"},{"name":"python"},{"name":"django"},{"name":"react-redux"},{"name":"react-native"}],"cities":[{"code":"moscow"}],"allowsRemote":true}},{"node":{"__typename":"Job","id":"17273192448-1001110946746","title":"Js разработчик","text":"Всем привет!\n#вакансия #Frontend #React #PWA\nФормат работы: удаленка/возможен офис\nГород: г. Москва (м. Дмитровская), г. Минск (м. Грушевка)\nЗанятость: проектная/полная\nЗ/п: от 1200$ до 2500$\nКомпания: BSL (bsl.dev)\n\nСейчас ищем на иностранный проект Frontend разработчика для работы над PWA.\n\n🔸 Задачи:\nРазработка новых сервисов и приложений PWA;\nРабота с инфраструктурой React.JS;\nРабота совместно с тех. руководством, участие в принятии решения об архитектуре проекта;\nПроведение Code Review.\n🔸 Что нужно уметь:\nОпыт работы на JavaScript, знание стандартов ECMAScript;\nУмение создавать интерфейсы с использованием React;\nХорошее понимание принципов ФП, ООП и паттернов проектирования;\nЗнание и понимание Git.\n🔸 Что мы даем взамен:\nВозможность прокачки hard skills на проектах разного уровня сложности;\nКоманду с сильными разработчиками, QA, UX/UI дизайнерами, менеджерами и налаженными внутренними процессами;\nСамореализацию и профессиональный рост, посещение конференций и курсов за счет компании. Расскажите нам о своей профессиональной мечте, возможно мы поможем вам воплотить ее в жизнь;\nГрафик работы: удаленный или можно работать в офисе: г. Москва - м. Дмитровская, г. Минск - м. Грушевка;\n\nКонтакты: hr@bsl.dev или мой телеграм: @viktoriya_gw","markup":[{"type":"hashtag","offset":13,"length":9,"data":"вакансия"},{"type":"hashtag","offset":23,"length":9,"data":"Frontend"},{"type":"hashtag","offset":33,"length":6,"data":"React"},{"type":"hashtag","offset":40,"length":4,"data":"PWA"},{"type":"link","offset":207,"length":7,"data":"http://bsl.dev"},{"type":"link","offset":1214,"length":10,"data":"mailto:hr@bsl.dev"},{"type":"handle","offset":1243,"length":13,"data":"viktoriya_gw"}],"date":"2020-06-30T16:38:59+00:00","link":"tg://resolve?domain=javascript_jobs_feed&post=16473","tags":[{"name":"javascript"},{"name":"reactjs"},{"name":"git"}],"cities":[{"code":"moscow"},{"code":"minsk"}],"allowsRemote":true}},{"node":{"__typename":"Job","id":"17272143872-1001110946746","title":"Js разработчик","text":"#вакансия #frontend #JS #JavaScript\nГород и адрес офиса: Москва, м. Шаболовская\nФормат работы: Офис и удаленка\nЗанятость: полная\nЗарплатная вилка: от 90 000 до 130 000\nОписание вакансии: Мы высокотехнологичный платежный сервис с персонализированным подходом к каждому партнеру. Мы хотим и умеем менять рынок!\nЧем мы интересны для тебя:\no Сейчас запускаем процесс перехода с ASP.NET MVC на Angular - долой легаси.\no Пишем свой Angular UI Kit.\no Есть своя команда дизайнеров, но фантазировать не запрещаем.\no Если любишь сложности - есть высоконагруженные проекты с высокими требованиями к кроссбраузерности.\no Митапы, конференции за счет компании.\no Возможность работать удаленно - на время пандемии удаленка обязательна.                                                                                                               Подробно тут: https://geekjob.ru/vacancy/5ef9a95a28806b36183f315c\n\n\nНазвание компании: CloudPayments https://cloudpayments.ru/\nКонтакты: @akulovaeg или на почту hr@cloudpayments.ru","markup":[{"type":"hashtag","offset":0,"length":9,"data":"вакансия"},{"type":"hashtag","offset":10,"length":9,"data":"frontend"},{"type":"hashtag","offset":20,"length":3,"data":"JS"},{"type":"hashtag","offset":24,"length":11,"data":"JavaScript"},{"type":"link","offset":374,"length":7,"data":"http://ASP.NET"},{"type":"link","offset":845,"length":51,"data":"https://geekjob.ru/vacancy/5ef9a95a28806b36183f315c"},{"type":"link","offset":932,"length":25,"data":"https://cloudpayments.ru/"},{"type":"handle","offset":968,"length":10,"data":"akulovaeg"},{"type":"link","offset":992,"length":19,"data":"mailto:hr@cloudpayments.ru"}],"date":"2020-06-30T16:31:42+00:00","link":"tg://resolve?domain=javascript_jobs_feed&post=16472","tags":[{"name":"javascript"},{"name":"dotnet"},{"name":"angularjs"},{"name":"asp-net"},{"name":"asp-net-mvc"}],"cities":[{"code":"moscow"}],"allowsRemote":true}},{"node":{"__typename":"Job","id":"72389492736-1001054966032","title":"Ios разработчик","text":"#вакансия #москва #офис #senior #ios #developer #gamedev #swift \nГород и адрес офиса: Москва, м.Автозаводская \nФормат работы: офис \nЗанятость: полная \nЗарплатная вилка: от 250 000 до 300 000 на руки \n\n\n✅ Senior iOS Developer \n\nОписание вакансии: \n\nМы - успешная команда из 120 человек, которая занимается: \n• разработкой собственных мобильных игр и приложений \n• паблишингом мобильных игр \n• рекламой и маркетингом мобильных приложений (реклама на Facebook, Google и т.д.) \nЗа последние 3 года мы привлекли более 100 млн пользователей в наши собственные мобильные приложения и приложения наших клиентов и партнеров, потратив на это более $80 млн. \n\nУ нас есть все составляющие чтобы делать готовые продукты известными и популярными. Мы ищем сильного и талантливого разработчика для усиления нашей текущей слаженно работающей команды и выведения нашего Fitness & Health iOS приложения Fitingo на лидирующие позиции в мире (уже сейчас приложение занимало позиции ТОП 13 в США и ТОП 6 в Великобритании с более чем 400,000 установок и более чем 45,000 совершенных покупок).\n\n✅Задачи: \n\n•  Разрабатывать новый функционал\n•  Рефакторить и оптимизировать код\n•  Писать код. Больше логики, меньше UI. Например - хранить историю и прогресс; сделать leaderboard по странам; добавить чат, аналитику и a/b тесты; Apple Health, Watch, Music и TV\n•  Участвовать в Code Review\n\nТекущий стек: Swift 5.1, MVPC, AVFoundation, UserNotifications, Realm, StoreKit, Firebase, PushWoosh, Facebook, Python.\n\n✅Требования: \n\n•  Опыт работы разработчиком iOS приложений от 3х лет\n•  Отличное знание Swift\n•  Уверенное знание SOLID и паттернов проектирования\n•  Умение профилировать приложение (Батарейка, утечки и вот это все)\n•  Опыт работы с системой контроля версий\n•  Наличие выпущенных проектов на Swift\n•  Желание делать красивые, интересные и популярные приложения\n\n✅Будет плюсом: \n\n•  Умение/желание писать небольшие серверные скрипты (например на Python)\n•  Умение автоматизировать рутинные процессы\n•  Умение рефакторить код итеративно\n•  Адекватный перфекционизм\n\n\n✅Для вас: \n\n•  Конкурентная заработная плата, выплачивается 2 раза в месяц\n•  Необходимое оборудование для работы\n•  Возможность набрать команду и выстроить всю работу под себя в краткосрочной перспективе\n•  Оформление по ТК РФ, оплачиваемые больничные, 28 дней оплачиваемого отпуска в год\n•  Возможны регулярные бонусы по результатам работы проектов\n•  Собеседование с лицом принимающим решение\n•  Возможность коммуницировать с людьми, которые принимают продуктовые решения\n\n✅О нас: \n\n•  Просторный офис 600 метров на м. Автозаводская (3 минуты от метро и от ТТК на машине) с ультра современным дизайном и кучей ништяков (кухня с вкусняшками, кальяны каждый вечер в дружной кампании, PS4 Pro + 4K TV, аркадные автоматы с Pac-Man, Metal Slug и другими хитами геймдизайна, просторная зона отдыха, 5 переговорных комнат и т д)\n•  Команда из 100 человек занимающаяся паблишингом и маркетингом, готовая сделать продукт успешным после его готовности\n•  Возможность обучаться английскому языку с носителями каждый будний день по утрам\n•  Менторы и инвесторы, создавшие большое количество успешных IT компаний (оборот в 2018 году более 140 млн долларов)\n\nНазвание компании: AppQuantum \n\nКонтакты: \ne-mail: vika@adquantum.com\ntelegram: @wikki13","markup":[{"type":"hashtag","offset":0,"length":9,"data":"вакансия"},{"type":"hashtag","offset":10,"length":7,"data":"москва"},{"type":"hashtag","offset":18,"length":5,"data":"офис"},{"type":"hashtag","offset":24,"length":7,"data":"senior"},{"type":"hashtag","offset":32,"length":4,"data":"ios"},{"type":"hashtag","offset":37,"length":10,"data":"developer"},{"type":"hashtag","offset":48,"length":8,"data":"gamedev"},{"type":"hashtag","offset":57,"length":6,"data":"swift"},{"type":"link","offset":3248,"length":18,"data":"mailto:vika@adquantum.com"},{"type":"handle","offset":3277,"length":8,"data":"wikki13"}],"date":"2020-06-30T16:30:31+00:00","link":"tg://resolve?domain=mobile_jobs&post=69036","tags":[{"name":"mobile"},{"name":"ios"},{"name":"swift"},{"name":"realm"},{"name":"firebase"},{"name":"python"}],"cities":[{"code":"moscow"}],"allowsRemote":false}},{"node":{"__typename":"Job","id":"17271095296-1001110946746","title":"Js разработчик","text":"#вакансия #vacancy #удаленка #fullstack #nodejs #javascript #remote #remotly #удаленнаяработа #удалённая работа\n\nГород и адрес офиса:Санкт-Петербург,Москва,Ульяновск,Обнинск,Калуга,Казань,Харьков,Минск,Гомель-центр города+удалённое сотрудничество\nФормат работы:офис или удалёнка\nЗанятость: полная\nЗарплатная вилка:$1500-$2000\nОписание вакансии:\n\nИщем опытного и талантливого Full Stack девелопера в команду разработки ERP системы по продаже авиа запчастей и поддержания летной годности.\n\nСсылка на описание системы: http://www.erp.aero/\n\nЧто будет входить в задачи:\n\n🚀Бэкенд-разработка;\n🚀Фронт-енд-разработка;\n🚀Разработка архитектуры модулей приложения;\n🚀Написание документации.\n\nЧто мы ожидаем от кандидата:\n\n⚓️Опыт разработки с использованием Node.js;\n✈️Опыт разработки с использованием Vue.js;\n🚁Знание RabbitMQ;\n⛵️JavaScript (ES6);\n🛥БД MySQL;\n🛳Знание протокола WebSocket и принципов его работы;\n🚢Технический английский.\n\nБольшим плюсом будет:\n\n🛸Фреймворк Express.js;\n🏍Понимание работы с Amazon Web Services;\n🛵Оптимизация проекта под высокие нагрузки;\n🚠Понимание работы «облачных» приложений SaaS.\n\nЧто мы предлагаем:\n🇺🇸Работу в Американской компании\n🔥Возможность удалённой работы\n💵Официальное оформление- заключается договор с нашей ШК в Сан-Франциско по ИП\n☀️Гибкое начало рабочего дня\n💊ДМС\n🏖Оплачиваемый отпуск\n🎓75% компенсация стоимости курсов английского языка\nНазвание компании:  XIM, Ink. https://ximxim.com/\n\nОтклики и рекомендации направляйте, пожалуйста, сюда 👉 @veronikaborisovahr","markup":[{"type":"hashtag","offset":0,"length":9,"data":"вакансия"},{"type":"hashtag","offset":10,"length":8,"data":"vacancy"},{"type":"hashtag","offset":19,"length":9,"data":"удаленка"},{"type":"hashtag","offset":29,"length":10,"data":"fullstack"},{"type":"hashtag","offset":40,"length":7,"data":"nodejs"},{"type":"hashtag","offset":48,"length":11,"data":"javascript"},{"type":"hashtag","offset":60,"length":7,"data":"remote"},{"type":"hashtag","offset":68,"length":8,"data":"remotly"},{"type":"hashtag","offset":77,"length":16,"data":"удаленнаяработа"},{"type":"hashtag","offset":94,"length":10,"data":"удалённая"},{"type":"link","offset":516,"length":20,"data":"http://www.erp.aero/"},{"type":"link","offset":1417,"length":19,"data":"https://ximxim.com/"},{"type":"handle","offset":1494,"length":19,"data":"veronikaborisovahr"}],"date":"2020-06-30T16:10:03+00:00","link":"tg://resolve?domain=javascript_jobs_feed&post=16471","tags":[{"name":"javascript"},{"name":"nodejs"},{"name":"vuejs"},{"name":"rabbitmq"},{"name":"mysql"},{"name":"websocket"},{"name":"express"},{"name":"web"},{"name":"amazon-web-services"}],"cities":[{"code":"moscow"},{"code":"ulyanovsk"},{"code":"obninsk"},{"code":"kaluga"},{"code":"kazan"},{"code":"minsk"},{"code":"gomel"}],"allowsRemote":true}}]}}},"context":{}}