{"hash":"f34fd2c444a074f4e0e67d525015a008ef8e766f","data":{"records":{"id":"kubernetes","name":"kubernetes","belongsTo":{"totalCount":75,"pageInfo":{"totalPages":8,"currentPage":5},"edges":[{"node":{"__typename":"Job","id":"1924136960-1001134745498","title":"Devops инженер","text":"#devops  #middle  #senior #вакансия\n\nВсем добрый вечер\n\nЯ ищу Ведущего devops / системного инженера в компанию,  которая занимается разработкой системного интегратора ПО в области виртуализации и облачных технологий.\n\nЧто хотят:\nЖелательно - высшее профильное образование и соответствующий опыт работы от 3-5 лет\nОС: Linux, Unix\nCI/CD: Jenkins, Teamcity, Travis и аналоги\nКонтейнеры: Docker\nВеб-сервисы: Ngnix, UWSGI\nМониторинг/алертинг: AppDynamics, Nagios, Zabbix etc.\nОпыт администрирования реплицированных СУБД (PostgreSQL или MariaDB, MongoDB)\nОпыт работы с elasticsearch/logstash/kibana\nAnsible, Salt\nОпыт администрирования облачных серверов (например - под платформами Amazon EC2, GoogleCloud, VmWare vSphere, OpenStack или прочих)\n\nПлюсами будут:\nустановка/обслуживание - Reverse Proxy (Nginx …), caсhing\nserver (Squid, Nginx etc.)\nустановка/обслуживание - load balancer (HAProxy, Nginx, etc.)\nBash Scripts.\nProcess Monitoring: ps, top, htop, atop, .. etc\nSystem Performance: nmon, iostat, sar, vmstat etc\nNetworking: nmap, tcpdump, ping, traceroute, airmon, etc.\nkubernetes/docker swarm\n\nОсновные обязанности:\nРазвертка контуров (dev, qas, prod)\nPerformance тестирование, нагрузочное тестирование\nСборка и обновление из репозиториев\nПоиск и устранение проблем\n\nЧто дают:\nХорошая ЗП. от 120 000 руб. до 200.000 по результатам собеседования.\nВозможна удаленная работа \nТак же есть возможность работы в офисе.\nг. Москва Сколково, возможна работа из офиса в г. Санкт-Петербурге и г Нижний Новогород (ул Грузинская).\n\nКомпания: http://asdtech.co/\n\nКонтакты: @mayke_kin\n\n—\n\n👉 Обсуждение вакансии в чате @devops_jobs","markup":[{"type":"hashtag","offset":0,"length":7,"data":"devops"},{"type":"hashtag","offset":9,"length":7,"data":"middle"},{"type":"hashtag","offset":18,"length":7,"data":"senior"},{"type":"hashtag","offset":26,"length":9,"data":"вакансия"},{"type":"link","offset":1532,"length":18,"data":"http://asdtech.co/"},{"type":"handle","offset":1562,"length":10,"data":"mayke_kin"},{"type":"handle","offset":1607,"length":12,"data":"devops_jobs"}],"date":"2020-03-21T19:32:19+00:00","link":"tg://resolve?domain=devops_jobs_feed&post=1835","tags":[{"name":"linux"},{"name":"unix"},{"name":"jenkins"},{"name":"docker"},{"name":"postgresql"},{"name":"mariadb"},{"name":"mongodb"},{"name":"elasticsearch"},{"name":"logstash"},{"name":"ansible"},{"name":"nginx"},{"name":"bash"},{"name":"kubernetes"}],"cities":[{"code":"moscow"}],"allowsRemote":true}},{"node":{"__typename":"Job","id":"1923088384-1001134745498","title":"Devops engineer","text":"#вакансия #DevOps #fulltime #спб #офис\n\nПривет!\n\nТребуется DevOps Engineer. ЗП 120-200тр/мес\n\nВ Sreda Solutions, создающей передовые продукты в automotive сфере требуется опытный DevOps, способный координировать процесс разработки проектов.\n\nОсновные задачи:\nОбеспечение процесса DevOps на проектах \nСоздание конфигураций для размещения проектов в Kubernetes.\nРазмещение проектов в кластере Kubernetes.\nОбеспечение процесса CI/CD.\nОбеспечение отказоустойчивости и масштабируемости проектов, размещенных в Kubernetes\n\nТребования к квалификации:\nОпыт с Docker от 3-х лет.\nОпыт с Kubernetes от 2-х лет.\nОпыт создания распределенных высоконагруженных масштабируемых отказоустойчивых систем с использованием Kubernetes\nЗнание английского языка на уровне чтения технической документации\nУмение следовать Agile процессу.\n\nБудет плюсом:\nОпыт разворачивания распределенных нагруженных баз данных (PostgresSQL), брокеров сообщений (Kafka), систем обработки данных (Spark)\n\nМы предлагаем:\nОфициальное трудоустройство по ТК \nГибкий график работы с учетом индивидуальных потребностей\nВозможность периодически работать удалённо\n\nПисать: Sreda \n\nПитер, м. Елизаровская\n\n—\n\n👉 Обсуждение вакансии в чате @devops_jobs","markup":[{"type":"hashtag","offset":0,"length":9,"data":"вакансия"},{"type":"hashtag","offset":10,"length":7,"data":"DevOps"},{"type":"hashtag","offset":18,"length":9,"data":"fulltime"},{"type":"hashtag","offset":28,"length":4,"data":"спб"},{"type":"hashtag","offset":33,"length":5,"data":"офис"},{"type":"handle","offset":1188,"length":12,"data":"devops_jobs"}],"date":"2020-03-20T14:46:15+00:00","link":"tg://resolve?domain=devops_jobs_feed&post=1834","tags":[{"name":"kubernetes"},{"name":"docker"},{"name":"kafka"}],"cities":[],"allowsRemote":true}},{"node":{"__typename":"Job","id":"1922039808-1001134745498","title":"Devops engineer","text":"DevOps engineer\n#вакансия #DevOps #fulltime \nВакансия: DevOps engineer\nКомпания: ДОМ.РФ ООО «Цифровые технологии»\nГород: Санкт-Петербург. ст.м. Василеостровская, БЦ Сенатор\nФормат работы: #офис\nЗанятость: #полная\nЗарплата : от 150 до 180 т.р. net\n\nТебе предстоит:\n•  Поддержка ETL процессов;\n•  Участие в процессах внедрения ПО;\n•  Администрирование операционных систем *nix и общесистемного ПО;\n•  Развертывание и конфигурирование стендов под различные нужды;\n•  Решение возникающих проблем, устранение нештатных ситуаций;\n•  Участие в разработке конструкторской и эксплуатационной документации;\n•  Формирование требований к системе резервного копирования. \nЗдорово если у тебя есть:\n•  Знание серверной операционной системы Linux;\n•  Уверенное понимание принципов работы сетей TCP/IP: адресация, маршрутизация, стек протоколов, сетевые топологии, принципы работы VLAN, VPN, DNS, DHCP;\n•  Практический опыт автоматизации управления средами с применением docker, Kubernetes, ansible;\n•  Практический опыт разработки технологической или эксплуатационной документации;\n•  Практический опыт конфигурирования систем хранения данных (желательно);\n•  Практический опыт конфигурирования и администрирования общесистемного ПО: системы виртуализации, СУБД (PostgreSQL), серверы приложений, системы обработки сообщений, средства мониторинга и управления, elastic search;\nМы предлагаем:\n•  Комфортный офис в центре Санкт-Петербурга;\n•  Работа в высокопрофессиональной и эффективной команде, постоянное развитие;\n•  Конкурентный компенсационный пакет (ежеквартальная премия, ДМС, компенсация расходов на фитнес-абонемент до 20 т.р. в год);\n•  Амбициозный проект.\nЕсли ты молодой, амбициозный, идейный специалист - будем рады пригласить тебя на встречу и расскажем о возможностях работы с нами🥇\n✍️ ЛС @polipropilenka\n\n—\n\n👉 Обсуждение вакансии в чате @devops_jobs","markup":[{"type":"hashtag","offset":16,"length":9,"data":"вакансия"},{"type":"hashtag","offset":26,"length":7,"data":"DevOps"},{"type":"hashtag","offset":34,"length":9,"data":"fulltime"},{"type":"link","offset":81,"length":6,"data":"http://ДОМ.РФ"},{"type":"hashtag","offset":188,"length":5,"data":"офис"},{"type":"hashtag","offset":205,"length":7,"data":"полная"},{"type":"handle","offset":1789,"length":15,"data":"polipropilenka"},{"type":"handle","offset":1839,"length":12,"data":"devops_jobs"}],"date":"2020-03-19T14:20:41+00:00","link":"tg://resolve?domain=devops_jobs_feed&post=1833","tags":[{"name":"dotnet"},{"name":"linux"},{"name":"dns"},{"name":"docker"},{"name":"kubernetes"},{"name":"ansible"},{"name":"postgresql"},{"name":"elasticsearch"}],"cities":[],"allowsRemote":false}},{"node":{"__typename":"Job","id":"1920991232-1001134745498","title":"Devops инженер","text":"#вакансия #МСК #работаDevOps #seniorDevOps \n\nГород и адрес офиса: Москва; м.Арбатская\nФормат работы: офисная\nЗанятость: полная\nЗарплатная вилка: 100-200 gross + 25% бонус \nОписание вакансии:  \n\nПроект: платформа для финансовых услуг . \nДанный проект является новым продуктом компании. Поэтому одним из преимуществ является отсутсвие легасикода.Полностью новая разработка с нуля. \n\nЗадачи:  \n- Поддержка CI/CD инфраструктуры для разработки, тестирования (Jenkins, Kubernetes и др.)\n- Автоматизация задач (Bash / Python / Groovy)\n- Настройка ОС Linux и необходимого системного ПО под созданную архитектуру\n- Обновление и установка нового ПО на сервера Linux \n- Мониторинг работы сервиса и серверов (Zabbix, Prometheus, ELK Stack) снятие логов, оптимизация \n- Взаимодействие с командой разработчиков и совместное решение задач \n- Ведение технической документации по администрируемым сервисам и решениям \n\nТребования:  \n- Знание Linux, опыт работы с Linux от 3 лет \n- Опыт работы с CentOS (RHEL) от года \n- Опыт работы с Kubernetes и docker \n- Опыт работы с Kafka \n- Опыт работы с Zabbix, умение добавить дополнительные метрики для мониторинга  \n- Умение писать скрипты на bash \n- Умение локализовать проблему до точки отказа и объяснить это профильному специалисту для её решения \n- Опыт автоматизации на основе configuration managers: ansible, saltstack будет дополнительным преимуществом \n\nУсловия:  \n- Оформление по ТК  \n\nНазвание компании:https://ru.globalcareer.eu/  (Global Career)\n\nКонтакты: @EkaterinaHRecruiter\n\n—\n\n👉 Обсуждение вакансии в чате @devops_jobs","markup":[{"type":"hashtag","offset":0,"length":9,"data":"вакансия"},{"type":"hashtag","offset":10,"length":4,"data":"МСК"},{"type":"hashtag","offset":15,"length":13,"data":"работаDevOps"},{"type":"hashtag","offset":29,"length":13,"data":"seniorDevOps"},{"type":"link","offset":1440,"length":27,"data":"https://ru.globalcareer.eu/"},{"type":"handle","offset":1496,"length":20,"data":"EkaterinaHRecruiter"},{"type":"handle","offset":1551,"length":12,"data":"devops_jobs"}],"date":"2020-03-19T10:09:11+00:00","link":"tg://resolve?domain=devops_jobs_feed&post=1832","tags":[{"name":"jenkins"},{"name":"kubernetes"},{"name":"bash"},{"name":"python"},{"name":"groovy"},{"name":"linux"},{"name":"centos"},{"name":"docker"},{"name":"kafka"},{"name":"ansible"}],"cities":[{"code":"moscow"}],"allowsRemote":false}},{"node":{"__typename":"Job","id":"1917845504-1001134745498","title":"Devops инженер","text":"#вакансия #devOps #Москва #офис \n\nГород: Москва \\ м. Кутузовская \nЗанятость: полная \nФормат работы: офис \nЗарплатная вилка: от 230 000 до 260000 рублей на руки \n\nОписание: Команда «Интеллектуальной системы управления» Сбербанка ищет Dev.Ops-инженера. Ты поможешь нам в разработке системы, которая анализирует бизнес-показатели и формирует задания для менеджеров по развитию подчиненных.\n\nЗадачи:\nразработка инструментов сборки и развертывания ПО\n\nЧто нужно:\n∙ опыт работы с Jenkins(Groovy), liquibase, Ansible, Docker, Kubernetes, OpenShift\n∙ знание форматов JSON, Yaml, XML\n∙ общее понимание стека протоколов TCP/IP, HTTP, HTTPS, REST, SOAP\n∙ опыт использования системы управления задачами, например в Atlassian Jira\n\nНазвание компании: Сбербанк \nКонтакты : @vsevkosmo\n\n—\n\n👉 Обсуждение вакансии в чате @devops_jobs","markup":[{"type":"hashtag","offset":0,"length":9,"data":"вакансия"},{"type":"hashtag","offset":10,"length":7,"data":"devOps"},{"type":"hashtag","offset":18,"length":7,"data":"Москва"},{"type":"hashtag","offset":26,"length":5,"data":"офис"},{"type":"handle","offset":759,"length":10,"data":"vsevkosmo"},{"type":"handle","offset":804,"length":12,"data":"devops_jobs"}],"date":"2020-03-19T06:43:45+00:00","link":"tg://resolve?domain=devops_jobs_feed&post=1829","tags":[{"name":"jenkins"},{"name":"groovy"},{"name":"ansible"},{"name":"docker"},{"name":"kubernetes"},{"name":"json"},{"name":"yaml"},{"name":"xml"},{"name":"rest"},{"name":"soap"}],"cities":[{"code":"moscow"}],"allowsRemote":false}},{"node":{"__typename":"Job","id":"1910505472-1001134745498","title":"Devops engineer","text":"#вакансия DevOps Engineer \n#vacancy #job #вакансия #работа #кипр #cyprus #fulltime #relocate #релокация #DevOps #linux #golang #ClickHouse #PostgreSQL #Kafka \n \nКомпания: TrafficStars \nГород: Лимасcол, Кипр \nФормат работы: офис \nЗанятость: полная \nЗарплатная вилка: от 2500 до 3500 евро на руки \n \nОписание вакансии:  \nDevOps Engineer в кипрскую ad-network компанию TrafficStars, релокация в г. Лимасcол \n \nНаш базовый стек: \n•Linux; \n•Golang, Python; \n•PostgreSQL, ClickHouse, Kafka, ELK, Redis; \n•Consul. \n \nЗадачи: \n•Развертывание и поддержка IT-инфраструктуры проекта в ЦОДах Европы, США и Азии; \n•Сопровождение кластеров PostgreSQL, ClickHouse и Kafka; \n•Автоматизация процессов деплоя конфигурации (Ansible); \n•Настройка дев процессов CI на Atlassian стеке (JIRA, Bitbucket, Bamboo) или аналоге; \n•Взаимодействие с хостинг-провайдерами (админы в саппорте, тикеты, постановка и контроль задач по серверам). \n \nБольшой плюс в опыте: \n•Настройка и мониторинг БД и разрабатываемых сервисов; \n•Репликация, бекапы, шардинг; \n•Установка и настройка среды разработки, тестирования и деплоя; \n•Оптимизация всех сервисов под highload (каждые сутки сохраняем более 4 млрд. новых событий); \n•Настройка и поддержка DNS, CDN, monitoring и прочих сервисов; \n•Опыт работы с контейнеризацией (Docker/LXC/Kubernetes); \n•Опыт работы с системами контроля версий. \n \nМы предлагаем: \n•Релокационный пакет: \n- покупаем билеты до Кипра тебе и твоей семье; \n- встречаем в аэропорту; \n- оформляем рабочую визу; \n- оплачиваем жильё на первый месяц; \n•Медицинскую страховку для тебя и твоей семьи; \n•50% компенсация затрат на детский сад и школу; \n•Оплачиваемую мобильную связь; \n•Бесплатные и вкусные завтраки, обеды и напитки; \n•Фрукты, снэки и другие вкусняшки в офисе; \n•Рабочий компьютер/ноутбук на выбор: Mac или PC; \n•Корпоративные скидки (кафе, магазины и др); \n•Бесплатные абонементы в спортзал и занятия йогой; \n•Уроки английского и греческого языка; \n•Корпоративные вечеринки, тимбилдинги; \n•Корпоративные митапы и конференции; \n•Интересные проекты; \n•Приятную рабочую атмосферу. \n  \nПрисоединяйся к нашей молодой и талантливой команде! \n \nКонтакты: +35795588440 \ntelegram: sofia_tomashevich \ne-mail: sofia@trafficstars.com\n\n—\n\n👉 Обсуждение вакансии в чате @devops_jobs","markup":[{"type":"hashtag","offset":0,"length":9,"data":"вакансия"},{"type":"hashtag","offset":27,"length":8,"data":"vacancy"},{"type":"hashtag","offset":36,"length":4,"data":"job"},{"type":"hashtag","offset":41,"length":9,"data":"вакансия"},{"type":"hashtag","offset":51,"length":7,"data":"работа"},{"type":"hashtag","offset":59,"length":5,"data":"кипр"},{"type":"hashtag","offset":65,"length":7,"data":"cyprus"},{"type":"hashtag","offset":73,"length":9,"data":"fulltime"},{"type":"hashtag","offset":83,"length":9,"data":"relocate"},{"type":"hashtag","offset":93,"length":10,"data":"релокация"},{"type":"hashtag","offset":104,"length":7,"data":"DevOps"},{"type":"hashtag","offset":112,"length":6,"data":"linux"},{"type":"hashtag","offset":119,"length":7,"data":"golang"},{"type":"hashtag","offset":127,"length":11,"data":"ClickHouse"},{"type":"hashtag","offset":139,"length":11,"data":"PostgreSQL"},{"type":"hashtag","offset":151,"length":6,"data":"Kafka"},{"type":"link","offset":2142,"length":12,"data":"tel:+35795588440"},{"type":"link","offset":2193,"length":22,"data":"mailto:sofia@trafficstars.com"},{"type":"handle","offset":2250,"length":12,"data":"devops_jobs"}],"date":"2020-03-16T16:17:55+00:00","link":"tg://resolve?domain=devops_jobs_feed&post=1822","tags":[{"name":"linux"},{"name":"go"},{"name":"postgresql"},{"name":"kafka"},{"name":"python"},{"name":"redis"},{"name":"ansible"},{"name":"dns"},{"name":"docker"},{"name":"kubernetes"}],"cities":[{"code":"sofia"}],"allowsRemote":false}},{"node":{"__typename":"Job","id":"1909456896-1001134745498","title":"Devops инженер","text":"Всем привет\nПопробуем снова)\n\n#вакансия\nМосква, Бауманская\nРабота в офисе (Классный, современный)\nПолная занятость\nот 150.000 (На руки, после налогов) до 170.000\nМы ищем крутого DevOps в нашу команду. HomeApp быстро растёт, и нам необходим человек, который будет следить за тем, чтобы всё не рухнуло в один момент. \n\nМы ожидаем, что ты:\n\nумеешь администрировать linux-системы;\nзнаешь как работают облачные системы;\nхорошо разбираешься в Docker и Kubernetes;\nзнаком с Google Cloud;\nзнаешь как разграничивать права доступа к инфраструктуре для разных ролей в системе;\nпонимаешь как настраивать интеграцию Jira/GitHub/Teamcity и других частей CI/CD;\nзнаешь Python, GO или PHP на базовом уровне;\nможешь развернуть VPN для доступа ко внутренним сервисам;\nхорошо разбираешься в настройке PostgreSQL, RabbitMQ, nginx.\nЧто у нас внутри:\nмы пишем на PHP7 и Symfony 4;\n•  храним данные в PostgreSQL, Google Cloud Storage;\n•  используем Docker как основу для сборки релизов;\n•  запускаем релизы в Google Kubernetes Engine;\n•  пишем unit-тесты и функциональные тесты в Codeception;\n•  придерживаемся scrum;\n•  планируем задачи в Jira;\n•  держим код на GitHub;\n\n\nПодробнее можно ознакомиться здесь:\n\nhttps://career.habr.com/vacancies/1000056382\n\nHomeApp\nhomeapp.ru\n\nПисать можно в телеграмм: \n@SugarLeps\n\nИли на почту: \nEvgeniy.kozlov@homeapp.ru\n\n—\n\n👉 Обсуждение вакансии в чате @devops_jobs","markup":[{"type":"hashtag","offset":30,"length":9,"data":"вакансия"},{"type":"link","offset":1187,"length":44,"data":"https://career.habr.com/vacancies/1000056382"},{"type":"link","offset":1241,"length":10,"data":"http://homeapp.ru"},{"type":"handle","offset":1280,"length":10,"data":"SugarLeps"},{"type":"link","offset":1307,"length":25,"data":"mailto:Evgeniy.kozlov@homeapp.ru"},{"type":"handle","offset":1367,"length":12,"data":"devops_jobs"}],"date":"2020-03-16T15:00:41+00:00","link":"tg://resolve?domain=devops_jobs_feed&post=1821","tags":[{"name":"linux"},{"name":"docker"},{"name":"kubernetes"},{"name":"cloud"},{"name":"github"},{"name":"python"},{"name":"php"},{"name":"postgresql"},{"name":"rabbitmq"},{"name":"nginx"},{"name":"symfony"},{"name":"google-cloud-platform"},{"name":"google-cloud-storage"}],"cities":[{"code":"moscow"}],"allowsRemote":false}},{"node":{"__typename":"Job","id":"1908408320-1001134745498","title":"Devops инженер","text":"#вакансия #Москва #Калиниград #Linux  #DevOps\n#remote #удалёнка #офис \nГород: Москва, Калиниград\nЗанятость: полная\nФормат работы: офис или удаленка\nЗарплатная вилка: от 100 000 до 150 000\nОписание вакансии:\nЧто нужно делать?\n\n-Автоматизация рутинных процессов;\n-Поддержка и развитие CI/CD\n-Настройка систем непрерывного мониторинга, сбора логов и т.д.\n-Развертывание окружений (dev, test, prod)\n-Разбор критических ситуаций, оперативное устранение выявленных неисправностей\n-Активное участие при прорабатывании новой архитектуры продукта, внедрение новейших сервисов и технологий\nТребования:\n\n-Опыт работы с Docker и (желательно) с системами оркестрации (swarm/kubernetes/openshift)\n-Опыт работы с Web-стеком PHP/NGINX/PostgreSQL\n-Опыт настройки, кластеризации rabbitMQ, PostgreSQL, ElasticSearch будет большим плюсом\n-Опыт работы с SCM (Ansible, Puppet) будет большим плюсом\n-Опыт работы с continuous integration, build&release management\n-Знание систем контроля версий. У нас Git (Gitlab)\n-Scripting (PowerShell, bash/python)\nНазвание компании: Cognitive Technologies \nКонтакты:  @codefather_ru можно в https://kaliningrad.hh.ru/vacancy/36234203\nhttps://kaliningrad.hh.ru/vacancy/36234204\n\n—\n\n👉 Обсуждение вакансии в чате @devops_jobs","markup":[{"type":"hashtag","offset":0,"length":9,"data":"вакансия"},{"type":"hashtag","offset":10,"length":7,"data":"Москва"},{"type":"hashtag","offset":18,"length":11,"data":"Калиниград"},{"type":"hashtag","offset":30,"length":6,"data":"Linux"},{"type":"hashtag","offset":38,"length":7,"data":"DevOps"},{"type":"hashtag","offset":46,"length":7,"data":"remote"},{"type":"hashtag","offset":54,"length":9,"data":"удалёнка"},{"type":"hashtag","offset":64,"length":5,"data":"офис"},{"type":"handle","offset":1082,"length":14,"data":"codefather_ru"},{"type":"link","offset":1105,"length":42,"data":"https://kaliningrad.hh.ru/vacancy/36234203"},{"type":"link","offset":1148,"length":42,"data":"https://kaliningrad.hh.ru/vacancy/36234204"},{"type":"handle","offset":1225,"length":12,"data":"devops_jobs"}],"date":"2020-03-16T14:58:57+00:00","link":"tg://resolve?domain=devops_jobs_feed&post=1820","tags":[{"name":"linux"},{"name":"docker"},{"name":"kubernetes"},{"name":"web"},{"name":"php"},{"name":"nginx"},{"name":"postgresql"},{"name":"rabbitmq"},{"name":"elasticsearch"},{"name":"ansible"},{"name":"git"},{"name":"gitlab"},{"name":"powershell"},{"name":"bash"},{"name":"python"},{"name":"continuous-integration"}],"cities":[{"code":"moscow"},{"code":"kaliningrad"}],"allowsRemote":true}},{"node":{"__typename":"Job","id":"1907359744-1001134745498","title":"Devops инженер","text":"#вакансия #Москва #офис #Linux #Unix #DevOps\nВ крупный банк ищем DevOps инженера\n🎱 Город и адрес офиса: Москва\n🎱 Формат работы: офис, fulltime\n🎱 Занятость: полная \n🎱 Условия: зп от 170 до 250К. ДМС, фитнес, английский язык. \n\n🎱 Задачи:\nCопровождение проектов на микросервисной архитектуре.\n\n🎱 Ожидания:\nОпыт работы инженером DEVOPS или ведущим системным инженером/администратором;\nЗнание Linux-подобных систем, умение настраивать Nginx , Apache HTTPD, HAProxy;\nЗнание сетевых технологий(TCP/IP, HTTP(S), TLS… );\nПонимание технологии виртуализации серверов;\nЗнание Docker на продвинутом уровне;\nБазовое знакомство с: Prometheus-Grafana/Zabbix,Elasticsearch-Logstash-Kibana(ELK);\nОпыт администрирования в production средах оркестраторов микросервисов: Kubernetes или OpenShift;\nОпыт построения процессов CI/CD для микросервисов с использованием GitLab CI;\nОпыт использования Helm для деплоя микросервисов, способность читать, понимать и при необходимости написать свои Helm-чарты;\nОпыт работы с базами данных PostgreSQL,MongoDB.\n\n🎱 Контакты: @kornet_croft\n\n—\n\n👉 Обсуждение вакансии в чате @devops_jobs","markup":[{"type":"hashtag","offset":0,"length":9,"data":"вакансия"},{"type":"hashtag","offset":10,"length":7,"data":"Москва"},{"type":"hashtag","offset":18,"length":5,"data":"офис"},{"type":"hashtag","offset":24,"length":6,"data":"Linux"},{"type":"hashtag","offset":31,"length":5,"data":"Unix"},{"type":"hashtag","offset":37,"length":7,"data":"DevOps"},{"type":"handle","offset":1047,"length":13,"data":"kornet_croft"},{"type":"handle","offset":1095,"length":12,"data":"devops_jobs"}],"date":"2020-03-16T11:10:02+00:00","link":"tg://resolve?domain=devops_jobs_feed&post=1819","tags":[{"name":"linux"},{"name":"unix"},{"name":"nginx"},{"name":"apache"},{"name":"docker"},{"name":"elasticsearch"},{"name":"logstash"},{"name":"kubernetes"},{"name":"gitlab"},{"name":"postgresql"},{"name":"mongodb"}],"cities":[{"code":"moscow"}],"allowsRemote":false}},{"node":{"__typename":"Job","id":"1905262592-1001134745498","title":"Devops инженер","text":"#вакансия #devops\nОфис: Москва (м. Ленинский проспект), Санкт-Петербург (м. Петроградская), Рязань, Ижевск\nФормат работы: офис\nЗанятость: полная\nЗарплатная вилка: от 180 000 до 200 000 рублей на руки\nВ связи с расширением предлагаем рассмотреть нашу вакансию. \nОбязанности\n- настраивать и поддерживать инфраструктуру текущих и новых проектов \n- поддерживать CI/CD на основе Gerrit/Jenkins/Nexus\n- администрировать парк серверов \nRND - находить и внедрять новые решения\nТребования\n- уверенное администрирование Linux (CentOS)\n- опыт работы с Docker, Elasticsearch, Logstash и Kibana\n- уверенное владение инструментами CI/CD (Jenkis, TeamCity)\n- автоматизация с помощью Ansible\nвладение языками (bash и/или python)\n- опыт работы с системами сбора метрик и мониторинга \nжелательно: Kubernetes\nнавыки администрирования БД (Oracle, PostgreSQL)\nМы предлагаем\n- конкурентная заработная плата по результатам общения\n- соблюдение TK РФ\n- гибкий рабочий график с началом работы с 8:00 до 11:00\n- ДМС с расширенным набором услуг\n- интересные и нетривиальные задачи \n- возможность посещать семинары, тренинги, конференции\n\nКомпания: https://jtc.ooo/\nНа рынке ИТ с 2007.\nСпециализация: разработка систем ДБО и построение информационных экосистем. \n\nКонтакты: @irarudakova\n\n—\n\n👉 Обсуждение вакансии в чате @devops_jobs","markup":[{"type":"hashtag","offset":0,"length":9,"data":"вакансия"},{"type":"hashtag","offset":10,"length":7,"data":"devops"},{"type":"link","offset":1121,"length":16,"data":"https://jtc.ooo/"},{"type":"handle","offset":1246,"length":12,"data":"irarudakova"},{"type":"handle","offset":1293,"length":12,"data":"devops_jobs"}],"date":"2020-03-16T10:22:37+00:00","link":"tg://resolve?domain=devops_jobs_feed&post=1817","tags":[{"name":"jenkins"},{"name":"linux"},{"name":"centos"},{"name":"docker"},{"name":"elasticsearch"},{"name":"logstash"},{"name":"ansible"},{"name":"bash"},{"name":"python"},{"name":"kubernetes"},{"name":"oracle"},{"name":"postgresql"}],"cities":[{"code":"moscow"},{"code":"ryazan"},{"code":"izhevsk"}],"allowsRemote":false}}]}}},"context":{}}