{"hash":"f5f6bf98bd95e769321482904cbbd488f77922fd","data":{"records":{"id":"nodejs","name":"nodejs","belongsTo":{"totalCount":122,"pageInfo":{"totalPages":13,"currentPage":2},"edges":[{"node":{"__typename":"Job","id":"17327718400-1001110946746","title":"Js разработчик","text":"#вакансия #удаленка #работа #js #javascript #разработчик\n\nГород и адрес офиса: Тель-Авив \nФормат работы: удаленка\nЗанятость: полная, гибкий график.\n\nЗарплатная вилка: 5500-6000$/мес. (Почасовая оплата 35$/час + ежемесячный бонус 250$)\n\nНалоги платите по месту жительства. ИП 6%. Если патент, то он зависит от места жительства. В Подмосковье 12 000 руб в год. В Москве 300 тыс. в год. Как сами оформите налоги, так и платите. \n\nИщу разработчика к нам в команду: израильский проект Luminati (https://luminati.io).  Full-Stack. Компания разрабатывает несколько продуктов, в том числе p2p vpn, видео cdn нового поколения http://holaspark.com/\nОфис в Тель-Авиве, работа удаленная! График свободный. Что нам нужно:\n\n • Knowledge in Node JS framework: ExpressJS, Promise - Experience with MongoDB \n- Creating RESTful web services/API’s using Node.js with or without framework assistance \n\n- JavaScript-based unit testing tools \n\n- Client-side browser technologies including JavaScript, CSS, and HTML \n\n- 1 year development experience in Node JS with a solid working knowledge of frameworks and architecture \n\n- 2+ year’s overall development experience using JavaScript and open web technologies \n\n- хороший английский язык, идеальная грамматика не обязательна \n\n • работа удаленная, 7-9 часов в день (по желанию)\n • зарплата от 35$/час (+фиксированный бонус 250$ ежемесячно), через полгода повышается\n • после того, как откроют границы и будут возможны перелёты - выезд в офис на заключение контракта (перед этим возможно заключение с электронной подписью), отель и перелет за счет компании, море под окном\n\nОтвечу на все вопросы:)\n\nИнстаграмм https://instagram.com/hola_better_internet\n\nРезюме сюда:  luda.hola@gmail.com","markup":[{"type":"hashtag","offset":0,"length":9,"data":"вакансия"},{"type":"hashtag","offset":10,"length":9,"data":"удаленка"},{"type":"hashtag","offset":20,"length":7,"data":"работа"},{"type":"hashtag","offset":28,"length":3,"data":"js"},{"type":"hashtag","offset":32,"length":11,"data":"javascript"},{"type":"hashtag","offset":44,"length":12,"data":"разработчик"},{"type":"link","offset":490,"length":19,"data":"https://luminati.io"},{"type":"link","offset":617,"length":21,"data":"http://holaspark.com/"},{"type":"link","offset":1637,"length":42,"data":"https://instagram.com/hola_better_internet"},{"type":"link","offset":1695,"length":19,"data":"mailto:luda.hola@gmail.com"}],"date":"2020-07-02T16:31:59+00:00","link":"tg://resolve?domain=javascript_jobs_feed&post=16525","tags":[{"name":"javascript"},{"name":"nodejs"},{"name":"mongodb"},{"name":"web"},{"name":"css"},{"name":"html"},{"name":"unit-testing"}],"cities":[],"allowsRemote":true}},{"node":{"__typename":"Job","id":"17326669824-1001110946746","title":"Js разработчик","text":"#вакансия #удаленка #fulltime #react #node #typescript \n\nГород: Москва\nФормат: удалённая работа\nЗанятость: полная\nЗарплатная вилка: от 150к до 250к на руки.\n\nВ российскую геймдев компанию требуется опытный TypeScript разработчик для разработки нового и доработок текущего функционала проекта на Node.js/React.\n\nНа протяжении 10 лет компания занимается разработкой, лицензированием и локализацией многопользовательских онлайн-игр. На сегодняшний день наш портфель состоит из игровых проектов разных жанров, включая легендарные MMO TERA, «Ботва», Music Wars и др. Некоторые разработки получили признание в Европе и Северной Америке.\n\nТребования:\n• React.js (React Hooks, JSX)\n• State Management (Redux)\n• Node.js\n• TypeScript\n• HTML5\n, CSS3 / SCSS \n• REST API\n• WebSocket\n• Опыт работы c PostgreSQL\n• Опыт работы с Redis\n• Bash\n• Docker\n• Git\n\nПриветствуется:\n• Docker + docker-compose\n• Angular (8+)\n• Опыт работы с криптовалютами и мастернодами\n• Умение быстро разбираться с новыми технологиями\n\nУсловия:\n• дружная и профессиональная команда (средний возраст которой 27 лет)\n• отличная возможность с головой погрузиться в мир гейм-индустрии\n• удаленная работа из любой точки мира, гибкий график\n\nПо всем вопросам: @rjaidy","markup":[{"type":"hashtag","offset":0,"length":9,"data":"вакансия"},{"type":"hashtag","offset":10,"length":9,"data":"удаленка"},{"type":"hashtag","offset":20,"length":9,"data":"fulltime"},{"type":"hashtag","offset":30,"length":6,"data":"react"},{"type":"hashtag","offset":37,"length":5,"data":"node"},{"type":"hashtag","offset":43,"length":11,"data":"typescript"},{"type":"handle","offset":1214,"length":7,"data":"rjaidy"}],"date":"2020-07-02T16:31:36+00:00","link":"tg://resolve?domain=javascript_jobs_feed&post=16524","tags":[{"name":"javascript"},{"name":"reactjs"},{"name":"nodejs"},{"name":"typescript"},{"name":"redux"},{"name":"html"},{"name":"css"},{"name":"rest"},{"name":"websocket"},{"name":"postgresql"},{"name":"redis"},{"name":"bash"},{"name":"docker"},{"name":"git"},{"name":"angularjs"},{"name":"docker-compose"}],"cities":[{"code":"moscow"}],"allowsRemote":true}},{"node":{"__typename":"Job","id":"17325621248-1001110946746","title":"Js developer","text":"#вакансия #frontend #react  #senior #мbycr #офис #fulltime #релокация в литву #минск\n\nПозиция – Frontend developer (senior)\n\nКомпания – ThiNKT Digital\n\nЛокация – Работать в Литве. Возможна релокация из РБ\n\nЗанятость – полная, офис, гибкое время начала дня\n\nОплата: от 2 000 до 3 400 евро на руки\n\nРелокационный пакет - оплата 1 мес аренды кв и переезд\n\n The Role \n• Discuss the client‘s needs to propose the best solution • Develop responsive web applications • Keep up to date with terminology, concepts and best practices for coding web applications • Work closely with colleagues to constantly innovate product functionality and design • Architect customer-centric front-end part of the solution • Collaborate with Venture Managers and engage with development teams \n   We offer\n • Participation in a dynamic startup solving challenges in the energy sector & beyond • Responsibility over a wide portfolio of products  • Access to large network of startups & corporates through our various partnerships • A great international exposure, and a diverse team with extensive & rich experiences  • Competitive compensation package & flexible work schedule  \n \n       Your Background \n● Solid foundation in web application front-end development ● You know what are the best UI & UX practices ● Experience with front-end programming languages such as HTML, CSS,  Javascript, ReactJS, etc ● Experience in software process models such as Agile / Scrum / etc ● Well-rounded interpersonal and communication skills to work in flexible teams ● You are Problem solver, and very interested in technology-related entrepreneurial start-up projects. ● Relevant experience with Node or other backend programming languages would be a plus ● Experience with Azure or Amazon Web Service (AWS) would be a huge plus ● Relevant experience 3-5 years ● Required language: English \n \n \n\n\n\n☎️ Контакты для обсуждения вакансии:\n\ntelegram @veroneko","markup":[{"type":"hashtag","offset":0,"length":9,"data":"вакансия"},{"type":"hashtag","offset":10,"length":9,"data":"frontend"},{"type":"hashtag","offset":20,"length":6,"data":"react"},{"type":"hashtag","offset":28,"length":7,"data":"senior"},{"type":"hashtag","offset":36,"length":6,"data":"мbycr"},{"type":"hashtag","offset":43,"length":5,"data":"офис"},{"type":"hashtag","offset":49,"length":9,"data":"fulltime"},{"type":"hashtag","offset":59,"length":10,"data":"релокация"},{"type":"hashtag","offset":78,"length":6,"data":"минск"},{"type":"handle","offset":1910,"length":9,"data":"veroneko"}],"date":"2020-07-02T16:31:22+00:00","link":"tg://resolve?domain=javascript_jobs_feed&post=16523","tags":[{"name":"javascript"},{"name":"reactjs"},{"name":"web"},{"name":"ms-access"},{"name":"html"},{"name":"css"},{"name":"nodejs"},{"name":"azure"},{"name":"amazon-web-services"}],"cities":[{"code":"minsk"}],"allowsRemote":false}},{"node":{"__typename":"Job","id":"17324572672-1001110946746","title":"Js developer","text":"#вакансия #frontend #react  #senior #мbycr #офис #fulltime #релокация в литву #минск\n\nПозиция – Frontend developer (senior)\n\nКомпания – ThiNKT Digital\n\nЛокация – Литва\n\nЗанятость – полная, офис, гибкое время начала дня\n\nОплата: от 2 000 до 3400 евро на руки\n\nРелокационный пакет - оплата 1 мес аренды кв и переезд\n\n The Role • Discuss the client‘s needs to propose the best solution • Develop responsive web applications • Keep up to date with terminology, concepts and best practices for coding web applications • Work closely with colleagues to constantly innovate product functionality and design • Architect customer-centric front-end part of the solution • Collaborate with Venture Managers and engage with development teams \n   We offer • Participation in a dynamic startup solving challenges in the energy sector & beyond • Responsibility over a wide portfolio of products  • Access to large network of startups & corporates through our various partnerships • A great international exposure, and a diverse team with extensive & rich experiences  • Competitive compensation package & flexible work schedule  \n \n       Your Background ● Solid foundation in web application front-end development ● You know what are the best UI & UX practices ● Experience with front-end programming languages such as HTML, CSS,  Javascript, ReactJS, etc ● Experience in software process models such as Agile / Scrum / etc ● Well-rounded interpersonal and communication skills to work in flexible teams ● You are Problem solver, and very interested in technology-related entrepreneurial start-up projects. ● Relevant experience with Node or other backend programming languages would be a plus ● Experience with Azure or Amazon Web Service (AWS) would be a huge plus ● Relevant experience 3-5 years ● Required language: English \n \n \n\n\n\n☎️ Контакты для обсуждения вакансии:\n\ntelegram @codebor\n\ne-mail ybb@quadcom.ru","markup":[{"type":"hashtag","offset":0,"length":9,"data":"вакансия"},{"type":"hashtag","offset":10,"length":9,"data":"frontend"},{"type":"hashtag","offset":20,"length":6,"data":"react"},{"type":"hashtag","offset":28,"length":7,"data":"senior"},{"type":"hashtag","offset":36,"length":6,"data":"мbycr"},{"type":"hashtag","offset":43,"length":5,"data":"офис"},{"type":"hashtag","offset":49,"length":9,"data":"fulltime"},{"type":"hashtag","offset":59,"length":10,"data":"релокация"},{"type":"hashtag","offset":78,"length":6,"data":"минск"},{"type":"handle","offset":1869,"length":8,"data":"codebor"},{"type":"link","offset":1886,"length":14,"data":"mailto:ybb@quadcom.ru"}],"date":"2020-07-02T16:29:51+00:00","link":"tg://resolve?domain=javascript_jobs_feed&post=16522","tags":[{"name":"javascript"},{"name":"reactjs"},{"name":"web"},{"name":"ms-access"},{"name":"html"},{"name":"css"},{"name":"nodejs"},{"name":"azure"},{"name":"amazon-web-services"}],"cities":[{"code":"minsk"}],"allowsRemote":false}},{"node":{"__typename":"Job","id":"17321426944-1001110946746","title":"Js разработчик","text":"#вакансия #удаленка #part-time\nFinland, Espoo, удаленка\nЗанятость: частичная\n🔴Наставник онлайн-курсов по программированию на JS, Node.js\n❗️Оплата: от 12500 до 20 000 рублей в месяц\n\n▶️Что мы предлагаем:\nУдаленную работу со свободным графиком.\nПолный доступ к материалам Хекслета.\nПерсональную прокачку от команды Хекслета.\n▶️Ожидания:\n✔️Опыт командной работы, понимание гибких процессов разработки\n✔️Знакомство с минимум двумя языками программирования\n✔️Базовые знания алгоритмов и структур данных\n✔️Автоматизированное тестирование собственного кода\n✔️Знание веб-технологий: http, dns\n✔️Опыт профилирования и оптимизации кода\n✔️Понимание функциональной парадигмы\n🟢Название компании: Hexlet\n\nКонтакты: job@hexlet.io или @LyudmilaSemenova","markup":[{"type":"hashtag","offset":0,"length":9,"data":"вакансия"},{"type":"hashtag","offset":10,"length":9,"data":"удаленка"},{"type":"hashtag","offset":20,"length":5,"data":"part"},{"type":"link","offset":703,"length":13,"data":"mailto:job@hexlet.io"},{"type":"handle","offset":721,"length":17,"data":"LyudmilaSemenova"}],"date":"2020-07-02T13:12:24+00:00","link":"tg://resolve?domain=javascript_jobs_feed&post=16519","tags":[{"name":"javascript"},{"name":"nodejs"},{"name":"dns"}],"cities":[],"allowsRemote":true}},{"node":{"__typename":"Job","id":"17315135488-1001110946746","title":"Js разработчик","text":"#вакансия #разработчик #senior #NodeJs #фуллтайм #Иннополис\n\nГород и адрес офиса: РТ, г.Иннополис, ул. Университетская 7.\nФормат работы: офис.\nЗанятость: полная.\n\n💸ЗП: от 80 до 180 тыс.руб. (на руки) (обсуждаемо)\n\nОписание вакансии: \n\nКомпания Zen.Car\n\n⭐️Стек: Node.Js, Nestjs, TypeScript,  TypeOrm, GraphQL, PostgreSQL, Redis.\n\n🔹Требования:\n- Опыт в WEB-программировании от 3х лет;\n- Знания ES6/ES7 на уровне не ниже middle;\n- Опыт работы с реляционными БД;\n- Знание основ систем контроля версий (Git);\n- Умение работать в команде и писать код \n\n💥Будет плюсом:\n- опыт работы с Express.js, Nestjs,TypeScript, TypeOrm, GraphQL ;\n- опыт создания высоконагруженных проектов;\n- опыт создания собственных проектов;\n- TTD.\n   \nОбязанности:\n- Разработка нового функционала в существующем продукте;\n- Улучшение и оптимизация текущего кода;\n- Взаимодействие с командой frontend-разработки.\n\n🔸Условия:\n* комфортный офис в г.Иннополис;\n* 3-х разовое питание в офисе за счет компании;\n* помощь в получении арендного жилья в городе Иннополис;\n* скидка на фитнес.\n \n📩Контакты: \nэл.п.: anna@sayhire.agency; \nтелеграм: @anika0801.\n\n—\n\n👉 Обсуждение вакансии в чате @javascript_jobs","markup":[{"type":"hashtag","offset":0,"length":9,"data":"вакансия"},{"type":"hashtag","offset":10,"length":12,"data":"разработчик"},{"type":"hashtag","offset":23,"length":7,"data":"senior"},{"type":"hashtag","offset":31,"length":7,"data":"NodeJs"},{"type":"hashtag","offset":39,"length":9,"data":"фуллтайм"},{"type":"hashtag","offset":49,"length":10,"data":"Иннополис"},{"type":"link","offset":1076,"length":19,"data":"mailto:anna@sayhire.agency"},{"type":"handle","offset":1108,"length":10,"data":"anika0801"},{"type":"handle","offset":1154,"length":16,"data":"javascript_jobs"}],"date":"2020-07-02T10:41:33+00:00","link":"tg://resolve?domain=javascript_jobs_feed&post=16513","tags":[{"name":"javascript"},{"name":"nodejs"},{"name":"typescript"},{"name":"graphql"},{"name":"postgresql"},{"name":"redis"},{"name":"web"},{"name":"git"},{"name":"express"}],"cities":[],"allowsRemote":false}},{"node":{"__typename":"Job","id":"17311989760-1001110946746","title":"Js разработчик","text":"#вакансия #екб #react #fulltime #Fullstack #NodeJS #middle\n\nПозиция: FULLSTACK разработчик (node.js, react)\nКомпания: SoftMediaLab \nЛокация: Екатеринбург \nФормат работы: #удаленка\nЗанятость: #фултайм\nЗП 110 00 - 140 000 рублей на руки (пересмотр з/п раз в год)\n\nSoftMediaLab —основана в 2015 году в городе Екатеринбурге. Основатели компании - разработчики, поэтому никакой бюрократии и странных решений, процессы максимально простые и понятные, среда дружественная. На данный момент более 50 выполненных проектов в России, Канаде, Европе, Израиле, Сингапуре и США.\n\nТребования:\n- Обязателен опыт работы с Node.js и React (не менее 2х лет)\n- Опыт работы с базой данных PostgreSQL\n- Опыт работы с системами контроля версий.\n- Владение английским языком на уровне чтения документации. Плюсом будет владение разговорным английским для международных проектов.\n- Опыт написания unit-тестов.\n\nСтек: node.js, react, typescript, express.js, socket.io, PostgreSQL , bootstrap, material-ui, JQuery, sass, less\n\nКонтакты: @Ekaterina_Mitroshkina или @iamanastasie","markup":[{"type":"hashtag","offset":0,"length":9,"data":"вакансия"},{"type":"hashtag","offset":10,"length":4,"data":"екб"},{"type":"hashtag","offset":15,"length":6,"data":"react"},{"type":"hashtag","offset":22,"length":9,"data":"fulltime"},{"type":"hashtag","offset":32,"length":10,"data":"Fullstack"},{"type":"hashtag","offset":43,"length":7,"data":"NodeJS"},{"type":"hashtag","offset":51,"length":7,"data":"middle"},{"type":"hashtag","offset":170,"length":9,"data":"удаленка"},{"type":"hashtag","offset":191,"length":8,"data":"фултайм"},{"type":"link","offset":933,"length":9,"data":"http://socket.io"},{"type":"handle","offset":1011,"length":22,"data":"Ekaterina_Mitroshkina"},{"type":"handle","offset":1038,"length":13,"data":"iamanastasie"}],"date":"2020-07-02T09:21:42+00:00","link":"tg://resolve?domain=javascript_jobs_feed&post=16510","tags":[{"name":"javascript"},{"name":"reactjs"},{"name":"nodejs"},{"name":"postgresql"},{"name":"typescript"},{"name":"express"},{"name":"bootstrap"},{"name":"jquery"},{"name":"sass"}],"cities":[],"allowsRemote":true}},{"node":{"__typename":"Job","id":"104182317056-1001089317451","title":"Qa engineer","text":"#вакансия #москва #полнаязанятость #qaengineer #auto \nКомпания: #Mетрквадратный www.m2.ru\nЛокация: м.Белорусская \nФормат работы: офис (удаленная до сентября)  \nЗ/п: от 120к - 180к на руки\nКонтакты: @maxdmitrov\n\nЭто экосистема недвижимости, которая помогает клиентам решать любые жилищные вопросы: от поиска вариантов и оформления сделки до организации ремонта и переезда в новую квартиру. Мы также создаем решения для партнёров и профессиональных участников рынка недвижимости.\n\nНаш стэк:\n• Java\n • Node.js\n • React, TypeScript\n • Kafka, ElasticSearch, gRPC\n • Docker\n\nЧем предстоит заниматься:\n• заниматься задачами по автоматизации тестирования. \n• анализировать и тестировать требования к разрабатываемым приложениям;\n • писать приемочные критерии к пользовательским историям;\n • проводить функциональное, регрессионное и smoke тестирование;\n \n\nЧего мы ждем:\n • глубокое понимание процессов тестирования и разработки ПО;\n • опыт интеграционного тестирования:\n    - системная интеграция;\n    - компонентная интеграция\n • опыт тестирования АРI;\n • опыт автоматизации тестирования на любом стеке.\n\nБудет плюсом\n • опыт исследовательского тестирования;\n • опыт тестирования ПО с микросервисной архитектурой.\n\nМы предлагаем:\n • белая конкурентная ЗП, официальное оформление;\n • гибкий график работы;\n • ДМС, компенсация фитнеса, льготная ставка по ипотеке;","markup":[{"type":"hashtag","offset":0,"length":9,"data":"вакансия"},{"type":"hashtag","offset":10,"length":7,"data":"москва"},{"type":"hashtag","offset":18,"length":16,"data":"полнаязанятость"},{"type":"hashtag","offset":35,"length":11,"data":"qaengineer"},{"type":"hashtag","offset":47,"length":5,"data":"auto"},{"type":"hashtag","offset":64,"length":15,"data":"Mетрквадратный"},{"type":"link","offset":80,"length":9,"data":"http://www.m2.ru"},{"type":"handle","offset":198,"length":11,"data":"maxdmitrov"},{"type":"bold","offset":478,"length":11,"data":""},{"type":"bold","offset":569,"length":26,"data":""},{"type":"bold","offset":847,"length":15,"data":""},{"type":"bold","offset":1097,"length":14,"data":""},{"type":"bold","offset":1206,"length":16,"data":""}],"date":"2020-07-02T07:49:51+00:00","link":"tg://resolve?domain=qa_jobs&post=99356","tags":[{"name":"qa"},{"name":"java"},{"name":"nodejs"},{"name":"reactjs"},{"name":"typescript"},{"name":"kafka"},{"name":"elasticsearch"},{"name":"docker"}],"cities":[{"code":"moscow"}],"allowsRemote":true}},{"node":{"__typename":"Job","id":"26941063168-1001075660570","title":"Php разработчик","text":"#вакансия #laravel #удалёнка #удаленно #ищем\n\nПривет мир!\n\nМы ищем backend-разработчика (Laravel) в небольшую продуктовую команду, которая в данный момент разрабатывает MVP для SaaS продукта (продажа услуг в интернете).\n\nВ твои обязанности будет входить разработка API, внутренней админки, а также интеграция с платежными системами.\n\nУ нас также имеются рабочие проекты, в будущем можно будет перейти на один из них при желании.\n\n🔧 Требования:\n— Опыт разработки не менее 3 лет;\n— Отличное знание PHP (понимание сильных и слабых сторон);\n— Знание SQL и умение проектировать базы данных;\n\n👀 Плюсами будет:\n— Опыт коммерческой разработки\n— Опыт работы с обработкой платежей и внутренними балансами, понимание того, как делать НЕ надо.\n— Опыт настройки CI/CD пайплайнов\n— Базовое понимание как работает фронтенд (в частности React / SSR), и как это влияет на проектирование API.\n— Опыт работы с Node.JS\n— Умение думать не только про код, но и про продукт.\n\n⭐️  Почему мы?\n— Возможность повлиять на технологический стек на раннем этапе;\n— Свободный график;\n— Возможность роста в желаемом для тебя направлении;\n— ЗП два раза в месяц;\n\n💰 Зарплата\nот 80 000 до 100 000 руб. (супер сильным кандидатам готовы дать больше)\n\nСвязь и резюме: @l3v1k","markup":[{"type":"hashtag","offset":0,"length":9,"data":"вакансия"},{"type":"hashtag","offset":10,"length":8,"data":"laravel"},{"type":"hashtag","offset":19,"length":9,"data":"удалёнка"},{"type":"hashtag","offset":29,"length":9,"data":"удаленно"},{"type":"hashtag","offset":39,"length":5,"data":"ищем"},{"type":"bold","offset":67,"length":20,"data":""},{"type":"handle","offset":1232,"length":6,"data":"l3v1k"}],"date":"2020-07-01T20:41:53+00:00","link":"tg://resolve?domain=php_jobs&post=25693","tags":[{"name":"php"},{"name":"laravel"},{"name":"sql"},{"name":"reactjs"},{"name":"nodejs"}],"cities":[],"allowsRemote":true}},{"node":{"__typename":"Job","id":"17277386752-1001110946746","title":"Js разработчик","text":"#вакансия #вакансии #удаленная #работа #разработчик #remote #job #remotejob #full #stack #fullstack #software #engineer #develop #developer #node #react #amazon #aws #api #crm #erp #zoho #us #usa\n\n😎 Full Stack Software Engineer\n\nКомпания: Deep Consulting Solutions (Austin, Texas)\n\nМестоположение: Anywhere\n\nФормат работы: Remote \n\nЗанятость: Full Time, Flexible Schedule \n\nЗарплата: $20-80K в год. Compensation plan depends on level of ability, responsibility taken, and results delivered. Compensation consists of base and bonus pay.\n \nОписание вакансии:\n\nhttps://zfrmz.com/yIDN35yaj3apxsNfR9qS?src=irina-itrecruiter\n\nRequirements:\n\nYou must be:\n\n- A mature and responsible individual driven by results and not activities.\n- An individual with genuine interest in technology.\n- Willing to learn, grow, and admit mistakes.\n- Able to communicate with other people on the project's team effectively.\n \nSkills/Experience:\n\n- Node.js, React, SQL and NoSQL databases.\n- APIs.\n- Effective Written and Verbal English.\n- Basic Understanding of DevOps and SDLC.\n \nThe following will be a good plus:\n\n- Experience with Amazon AWS, serverless technologies, and microservices on its platform.\n- Experience with CRM and ERP systems such as Zoho and others.\n\nКак подать заявку:\n\nhttps://zfrmz.com/yIDN35yaj3apxsNfR9qS?src=irina-itrecruiter\n\nКонтакт:\n@Aagdan","markup":[{"type":"hashtag","offset":0,"length":9,"data":"вакансия"},{"type":"hashtag","offset":10,"length":9,"data":"вакансии"},{"type":"hashtag","offset":20,"length":10,"data":"удаленная"},{"type":"hashtag","offset":31,"length":7,"data":"работа"},{"type":"hashtag","offset":39,"length":12,"data":"разработчик"},{"type":"hashtag","offset":52,"length":7,"data":"remote"},{"type":"hashtag","offset":60,"length":4,"data":"job"},{"type":"hashtag","offset":65,"length":10,"data":"remotejob"},{"type":"hashtag","offset":76,"length":5,"data":"full"},{"type":"hashtag","offset":82,"length":6,"data":"stack"},{"type":"hashtag","offset":89,"length":10,"data":"fullstack"},{"type":"hashtag","offset":100,"length":9,"data":"software"},{"type":"hashtag","offset":110,"length":9,"data":"engineer"},{"type":"hashtag","offset":120,"length":8,"data":"develop"},{"type":"hashtag","offset":129,"length":10,"data":"developer"},{"type":"hashtag","offset":140,"length":5,"data":"node"},{"type":"hashtag","offset":146,"length":6,"data":"react"},{"type":"hashtag","offset":153,"length":7,"data":"amazon"},{"type":"hashtag","offset":161,"length":4,"data":"aws"},{"type":"hashtag","offset":166,"length":4,"data":"api"},{"type":"hashtag","offset":171,"length":4,"data":"crm"},{"type":"hashtag","offset":176,"length":4,"data":"erp"},{"type":"hashtag","offset":181,"length":5,"data":"zoho"},{"type":"hashtag","offset":187,"length":3,"data":"us"},{"type":"hashtag","offset":191,"length":4,"data":"usa"},{"type":"link","offset":559,"length":60,"data":"https://zfrmz.com/yIDN35yaj3apxsNfR9qS?src=irina-itrecruiter"},{"type":"link","offset":1267,"length":60,"data":"https://zfrmz.com/yIDN35yaj3apxsNfR9qS?src=irina-itrecruiter"},{"type":"handle","offset":1338,"length":7,"data":"Aagdan"}],"date":"2020-07-01T05:19:22+00:00","link":"tg://resolve?domain=javascript_jobs_feed&post=16477","tags":[{"name":"javascript"},{"name":"nodejs"},{"name":"reactjs"},{"name":"amazon-web-services"},{"name":"sql"},{"name":"nosql"}],"cities":[{"code":"austin"}],"allowsRemote":true}}]}}},"context":{}}