{"hash":"f5f6bf98bd95e769321482904cbbd488f77922fd","data":{"records":{"id":"windows","name":"windows","belongsTo":{"totalCount":15,"pageInfo":{"totalPages":2,"currentPage":2},"edges":[{"node":{"__typename":"Job","id":"1700790272-1001091028994","title":"Java разработчик","text":"Вакансия: #java #senior\nКомпания: #сбертех\nЛокация: Москва, м. Тульская, Новоданиловская наб, д.10\nФормат работы: офис (сейчас удаленка)\nЗарплатная вилка: 170-270к\n\nЕдиный сервис аутентификации - это система, которая принимает решение о допуске клиентов через различные каналы обслуживания (веб, мобильное приложение, банкомат) к сервисам экосистемы Сбербанка. Система является высоконагруженной, так как одновременно может обслуживать более 10к операций в секунду.\n\nЗадачи:\n • разработка back-end web-приложения; \n • участие разработки архитектуры продукта;\n • участие в code review. \n\nОбязательно:\n· Опыт работы с Java от 2ух лет (хорошее знание core, Collections, jdbc, IO, Exceptions)\n· Опыт работы с системами сборки: maven или gradle\n· Опыт работы с БД, знание языка запросов SQL\n· Знакомство с ORM Hibernate\n\nБудет плюсом:\n· понимание многопоточности в Java;\n· знакомство со Spring Framework\n\nБонусы: \n • гибкое начало дня, отсутствие микроменеджмента и дресс-кода\n • отличная атмосфера в команде, способность слышать мнение каждого\n • современное железо (можно выбрать ноут MacOS или Windows) \n • возможность сменить проект\n • ДМС, спортзал, корпоративные мероприятия\n\nКонтакт: @hralexandra 📲","markup":[{"type":"hashtag","offset":10,"length":5,"data":"java"},{"type":"hashtag","offset":16,"length":7,"data":"senior"},{"type":"hashtag","offset":34,"length":8,"data":"сбертех"},{"type":"handle","offset":1186,"length":12,"data":"hralexandra"}],"date":"2020-06-16T15:48:40+00:00","link":"tg://resolve?domain=jvmjobs&post=1622","tags":[{"name":"java"},{"name":"jvm"},{"name":"web"},{"name":"jdbc"},{"name":"maven"},{"name":"gradle"},{"name":"sql"},{"name":"orm"},{"name":"hibernate"},{"name":"spring"},{"name":"macos"},{"name":"windows"}],"cities":[{"code":"moscow"}],"allowsRemote":true}},{"node":{"__typename":"Job","id":"2215641088-1001134745498","title":"Devops engineer","text":"#вакансия #devops #fulltime #релокация #казань #удаленка \n\nВакансия: DevOps Engineer\nКомпания: Ак Барс Цифровые Технологии.\nЛокация: Казань, возможна релокация.\nФормат работы: офис и удаленный формат.\nЗанятость: полная.\nКонтакт:@aabilova\n\nВсем привет! Мы разрабатываем цифровые продукты в сфере финтех и находимся в поисках DevOps Engineer.\n\nЗадачи:\n•Сопровождение и развитие текущей инфраструктуры проекта, поддержка тестового окружения и переноса данных между тестовыми серверами.\n•Разработка инструментов и автоматизация процессов развертывания систем, проектов и окружений, организация стабильного процесса выпуска версий продуктов.\n•Планирование архитектуры, прогноз по нагрузке.\n•Взаимодействие с разработчиками и сисадминами, координация команд по смежным областям.\n•Решение возникающих в процессе развёртывания проблем.\n\nЖелателен опыт с:\n•ОС Linux (серверные и клиентские).\n•Системы контейнеризации (мы используем RedHat OpenShift).\n•Уверенные навыки Shell-скриптинга (Bash).\n•Continious Integration (Teamcity) \\ Continious Delivery (Octopus).\n•Системы мониторинга (SCOM \\ Zabbix).\n•NoSQL СУБД (MongoDB, Redis).\n•Системы контроля версий (GIT).\n•Веб-серверы и балансировщики нагрузки (Apache \\ nginx \\ haproxy).\n•Навыки использования аналогичных по функциональности инструментов вполне допустимы, инструменты - не главное, важно понимание.\n\nБазовая экспертиза в областях:\n•ОС Windows (серверные).\n•Системы виртуализации (Vmware), системы управления (Vcenter \\ Openstack).\n•Системы управления конфигурацией (Ansible \\ Chef \\ Puppet \\ SaltStack).\n•Реляционные СУБД (SQL Server \\ Postgre \\ Mysql).\n•Agile-разработка.\n•Информационная безопасность.\n•Архитектура информационных систем.\n\nЧто предлагаем:\n•Работа в команде профессионалов из разных городов с общими интересами и разными взглядами.\n•Официальное трудоустройство, белая зарплата.\n•Программа релокации для иногородних.\n•ДМС.\n•Комфортный офис (кухня, зоны отдыха, X-box, бесплатные парковочные места, фрукты).\n•Профессиональное развитие и обучение (внутренние и внешние профильные мероприятия).\n•Физическое развитие (спортивная комната, скидки на занятия в фитнес-центре, футбол).\n•Зарплата -  вилка 100-150 тыс.руб., обсуждается индивидуально на интервью.\n\nКонтакт:@aabilova\n\n—\n\n👉 Обсуждение вакансии в чате @devops_jobs","markup":[{"type":"hashtag","offset":0,"length":9,"data":"вакансия"},{"type":"hashtag","offset":10,"length":7,"data":"devops"},{"type":"hashtag","offset":18,"length":9,"data":"fulltime"},{"type":"hashtag","offset":28,"length":10,"data":"релокация"},{"type":"hashtag","offset":39,"length":7,"data":"казань"},{"type":"hashtag","offset":47,"length":9,"data":"удаленка"},{"type":"handle","offset":228,"length":9,"data":"aabilova"},{"type":"handle","offset":2227,"length":9,"data":"aabilova"},{"type":"handle","offset":2271,"length":12,"data":"devops_jobs"}],"date":"2020-06-16T10:19:49+00:00","link":"tg://resolve?domain=devops_jobs_feed&post=2113","tags":[{"name":"linux"},{"name":"shell"},{"name":"bash"},{"name":"nosql"},{"name":"mongodb"},{"name":"redis"},{"name":"git"},{"name":"apache"},{"name":"nginx"},{"name":"windows"},{"name":"ansible"},{"name":"sql"},{"name":"mysql"},{"name":"sql-server"}],"cities":[{"code":"kazan"}],"allowsRemote":true}},{"node":{"__typename":"Job","id":"102944997376-1001089317451","title":"Qa инженер","text":"#вакансия #remote #fulltime #qa #python#autotest#aurgajob\n\nКомпания: Auriga\nВакансия:  Инженер по автотестированию (Python) \nОпыт работы: от 1 года (нужны специалисты от junior до senior)\nЗарплата: до 130 000 р. на руки\nМесторасположение: Возможна полностью удаленная работа или любая из локаций Ауриги (Москва, Санкт-Петербург, Нижний Новгород, Ростов-на-Дону, Новосибирск)\nЗанятость: fulltime\n\n✅Задача команды – разработка и рефакторинг автотестов на Python для десктопных Windows приложений, которые работают с 3D моделями и позволяют врачам-ортодонтам создавать и отслеживать планы лечения пациентов.\n✅Наша цель - переработать текущий устоявшийся подход к автотестам, обеспечить масштабируемость и включить все тесты в автоматический процесс CI/CD.\n✅У нас гибкий график + адекватный руководитель = баланс работы и личной жизни, получится решать проектные задачи и проводить время с семьей, ходить на тренировки или заниматься хобби. \n✅Да-да,  на проекте можно работать из дома, даже после завершения самоизоляции, а если хочется общества - велком в любой из наших офисов (Москва, Питер, Нижний, Ростов, Новосибирск)\n✅Аурига разрабатывает ПО на заказ уже 30 лет, у компании много проектов - у вас гарантия занятости и возможность выбора. \n✅Будем радовать белой з/п, щедрой ДМС с прямым доступом и стоматологией за счет компании, дружескими посиделками на занятиях английского.\n\nРасскажу о вакансии и познакомлю с менеджером, пишите maria.babushkina@auriga.com или в телеграм @Maria_Auriga","markup":[{"type":"hashtag","offset":0,"length":9,"data":"вакансия"},{"type":"hashtag","offset":10,"length":7,"data":"remote"},{"type":"hashtag","offset":18,"length":9,"data":"fulltime"},{"type":"hashtag","offset":28,"length":3,"data":"qa"},{"type":"bold","offset":59,"length":10,"data":""},{"type":"bold","offset":76,"length":11,"data":""},{"type":"bold","offset":125,"length":13,"data":""},{"type":"bold","offset":188,"length":10,"data":""},{"type":"bold","offset":220,"length":18,"data":""},{"type":"bold","offset":375,"length":11,"data":""},{"type":"link","offset":1435,"length":27,"data":"mailto:maria.babushkina@auriga.com"},{"type":"handle","offset":1478,"length":13,"data":"Maria_Auriga"}],"date":"2020-06-16T09:46:43+00:00","link":"tg://resolve?domain=qa_jobs&post=0","tags":[{"name":"qa"},{"name":"python"},{"name":"windows"}],"cities":[{"code":"moscow"},{"code":"rostov"},{"code":"novosibirsk"},{"code":"nizhny-novgorod"}],"allowsRemote":true}},{"node":{"__typename":"Job","id":"102808682496-1001089317451","title":"Qa инженер","text":"🐞🐞🐞#вакансия #QA #Ульяновск #Саранск #Казань #Самара #Уфа #Краснодар #офис #удаленная_работа\n\n🔍Middle QA-специалист🔎\n\n⚡️Компания: Simbirsoft (более 19 лет на рынке, более 700 сотрудников в штате)\n\nОчень ждем тебя, наш будущий коллега и борец за качественное ПО! :)\n\n📌Твои будущие задачи:\n• тестирование ПО (frontend, backend, API);\n• локализация и документирование найденных дефектов;\n• ведение и оптимизация тестовой документации;\n• контроль качества на всех этапах разработки ПО;\n• выстраивание и оптимизация процессов тестирования ПО.\n\n📌Что мы ждем от тебя:\n• наличие опыта от 2 лет в направлениях QA или тестирования ПО;\n• понимание разницы между QA и тестированием ПО;\n• понимание особенностей гибких методологий;\n• уверенное владение техниками тест-дизайна;\n• знание клиент-серверной архитектуры;\n• понимание особенностей тестирования web, mobile и desktop приложений;\n• навык тестирования API;\n• написание запросов SQL;\n• опыт работы с системами контроля версий (git);\n• знание основных команд работы с консолью (Windows/Linux).\n\n📌Что мы предлагаем:\n• Полностью белая ЗП два раза в месяц;\n• Оформление по ТК РФ;\n• Высокий уровень экспертности внутри компании, которым мы делимся друг с другом;\n• Перспективы вертикального и горизонтального роста;\n• Работа на российских и международных проектах;\n• Оборудованное рабочее место и парк тестовых устройств;\n• Подготовка и прохождение сертификации ISTQB бесплатно;\n• Внутренние и внешние курсы, доклады, конференции;\n• Бесплатные чай, кофе, печеньки в офисе;\n• Корпоративная спортивная программа (оплата тематических секций, частичная компенсация абонемента);\n• Проведение летних и зимних корпоративов, дня именинника, совместные походы и т.д.\n\n📌Зарплата:\n• от 50 000 (Договорная, по итогу собеседования)\n\n☎️Контакты:\nKaterina","markup":[{"type":"hashtag","offset":6,"length":9,"data":"вакансия"},{"type":"hashtag","offset":16,"length":3,"data":"QA"},{"type":"hashtag","offset":20,"length":10,"data":"Ульяновск"},{"type":"hashtag","offset":31,"length":8,"data":"Саранск"},{"type":"hashtag","offset":40,"length":7,"data":"Казань"},{"type":"hashtag","offset":48,"length":7,"data":"Самара"},{"type":"hashtag","offset":56,"length":4,"data":"Уфа"},{"type":"hashtag","offset":61,"length":10,"data":"Краснодар"},{"type":"hashtag","offset":72,"length":5,"data":"офис"},{"type":"hashtag","offset":78,"length":17,"data":"удаленная_работа"}],"date":"2020-06-15T05:55:18+00:00","link":"tg://resolve?domain=qa_jobs&post=0","tags":[{"name":"qa"},{"name":"web"},{"name":"mobile"},{"name":"sql"},{"name":"git"},{"name":"windows"},{"name":"linux"}],"cities":[{"code":"ulyanovsk"},{"code":"saransk"},{"code":"kazan"},{"code":"samara"},{"code":"ufa"},{"code":"krasnodar"}],"allowsRemote":true}},{"node":{"__typename":"Job","id":"102741573632-1001089317451","title":"Qa инженер","text":"Тестировщик в платформу WikiVote\n\nТребования, необходимый опыт:\n* Опыт функционального тестирования от полугода\n\n* Наличие сертификатов о пройденном обучении в тестировании\n\n\nЗадача на первый месяц сотрудничества:\n1. Провести ручное тестирование пула сценариев по существующим тест-кейсам. Мы обновили версию Ruby платформы, и нужно все прогнать, не отвалилось ли чего.\n\n\nЗадачи дальше:\n1. Ручное функциональное тестирование сценариев платформы при запуске новых проектов\n\n2. Ручное функциональное тестирование новых внедренных фич\n\n3. Разработка карточек тест-кейсов\n\n4. Кроссбраузерное тестирование верстки\n\n5. Разработка автотестов для платформы (после того, как поймете, что из ручного тестирования можно автоматизировать, приветствуем инициативу и выделим часть рабочего времени чисто под это)\n\n6. Ручное тестирование на будущем проекте по разработке Windows-приложения (в основном проверка интеграции приложения с MS Office). Если сможете автоматизировать - велком. \n\nРабота полностью удаленная, всегда была такой до весны 2020 и такой останется после. В связи с этим про ресурсы:\n\n* Мы предоставляем виртуальные машины для тестирования Windows приложений \n\n* После полугода сотрудничества возможна покупка необходимого оборудования за счет компании.\n\n\nГрафик работы:\n* Стандартный 8 часовой рабочий день, удаленно\n\n* Две обязательные планерки: 10 утра мск в понедельник и пятницу; остальные дни по желанию\n\n* Максимальное отклонение от московского времени +/- 2 часа (команда и клиенты в основном находятся в этом часовом поясе, и с бОльшим отрывом очень сложно).\n\n\nЧто предлагаем:\n* Испытательный срок 3 месяца\n\n* Белое оформление \n* от 50 000\n\n#удаленка #вакансия","markup":[{"type":"hashtag","offset":1653,"length":9,"data":"удаленка"},{"type":"hashtag","offset":1663,"length":9,"data":"вакансия"}],"date":"2020-06-13T05:46:47+00:00","link":"tg://resolve?domain=qa_jobs&post=0","tags":[{"name":"qa"},{"name":"ruby"},{"name":"windows"}],"cities":[],"allowsRemote":true}}]}}},"context":{}}