{"hash":"f5f6bf98bd95e769321482904cbbd488f77922fd","data":{"records":{"id":"swift","name":"swift","belongsTo":{"totalCount":133,"pageInfo":{"totalPages":14,"currentPage":12},"edges":[{"node":{"__typename":"Job","id":"71418511360-1001054966032","title":"Ios разработчик","text":"💪#вакансия #удалёнка #iOS #fulltime  #Middle+/#Senior    \n💵З/П 2200-2400 $/месяц по итогам собеседования\nРабота: удалёнка\n\nЧеловек в среднем больше сотни раз взаимодействует с клавиатурой своего мобильного устройства. Для большинства пользователей нашего приложения мы делаем этот процесс  интереснее и выгодней. Мы также оцениваем эмоциональное состояние пользователя, в процессе его взаимодействия с клавиатурой. Руководство компании из топ-менеджмента крупнейших глобальных игроков мобильного рынка. В данный момент открыта вакансия Middle+/Senior IOS разработчика, в подчинении 2 сотрудника                                                                                                               \n\n📌Обязанности:\n- Разработка кастомной клавиатуры iOS\n- Подключение ML-алгоритмов (TensorFlow) распознавания эмоций к iOS-клавиатуре\n- Разработка кода обработки данных камеры, микрофона\n\n📌Требования:\n- Уверенное знание Swift;\n- Хорошее знание платформы iOS, инструментов разработки, работы UI;\n- Опыт работы с REST API, HTTP, JSON, APNs;\n- Знакомство с библиотеками CoreData, AVFoundation, CoreML и CreateML\n- Желание развиваться и развивать свои знания            \n-Знание английского на уровне от Intermediate желательно                                                                                                               \n\n📌Будет плюсом:\n- Опыт работы c TensorFlow на iOS\n- Опыт работы с OpenCV на iOS\n- Опыт работы с фреймворком SwiftUI\n\n📌Условия:\n- Отсутствие бюрократии\n- Время начала рабочего дня обговариваем индивидуально\n- Come to the Dark Side, we have тёплая ламповая атмосфера стартапа, чай, кофе и печеньки!\n- Крутой инновационный проект - возможность самореализации и профессионального роста\n- Стабильное зарубежное финансирование\n- Десятки миллионов установок и множество глобальных партнёров\n📞 Контакты @SvetikS_hr +7(963)-632-12-36 Cветлана","markup":[{"type":"hashtag","offset":2,"length":9,"data":"вакансия"},{"type":"hashtag","offset":12,"length":9,"data":"удалёнка"},{"type":"hashtag","offset":22,"length":4,"data":"iOS"},{"type":"hashtag","offset":27,"length":9,"data":"fulltime"},{"type":"hashtag","offset":38,"length":7,"data":"Middle"},{"type":"hashtag","offset":47,"length":7,"data":"Senior"},{"type":"handle","offset":1841,"length":11,"data":"SvetikS_hr"},{"type":"link","offset":1853,"length":17,"data":"tel:+7(963)-632-12-36"}],"date":"2020-06-16T16:45:08+00:00","link":"tg://resolve?domain=mobile_jobs&post=0","tags":[{"name":"mobile"},{"name":"ios"},{"name":"tensorflow"},{"name":"swift"},{"name":"rest"},{"name":"json"},{"name":"opencv"}],"cities":[],"allowsRemote":true}},{"node":{"__typename":"Job","id":"71412219904-1001054966032","title":"Ios developer","text":"#УДАЛЕНКА #вакансия #Москва #reactnative #senior #iOS #гибкийграфик #GBP  #vacancy #startup #Sweatcoin \n☀️Всем привет! Ищу к нам в команду Senior iOS Developer в #Sweatcoin - №1 in Appstore среди Health&Fitness приложений \nГород Москва, м Чистые пруды/Тургеневская, возможна удаленка \nФормат работы: удаленка/офис, все как вы захотите (вы можете находиться, где угодно, главное быть на связи с 10 до 16 по Лондону) \nЗанятость: полная, гибкий график\n💷Зарплатная вилка: от 180 до 250 K RUR Net, ЗП зафиксированная в фунтах (GBP); Также оплачиваем участие в отраслевых международных конференциях, бывают командировки в Лондон и 3-х месячные вылазки зимой в Португалию всем офисом 🌅 Также в перспективе возможна релокация в Европу \nОписание вакансии: Задачи сложные и интересные, на любой вкус — космический и сложный UI, борьба с батарейкой, GPS/Sensors, защита от фрода и безопасность, ML/AI, аналитика и рост, a/b тестирование, Apple Watch и различные wearables - в общем, разнообразно. Часть проекта реализована на React Native.\n\nОт вас требуется\n* Наличие завершенного приложения, доступного в AppStore\n* Английский не ниже intermediate\n* Опыт коммерческой разработки от 3-ти лет\n* Отличное и глубокое понимание Swift, Objective-C и платформы в целом.\n* Уметь писать поддерживаемый и читабельный код, знать паттерны проектирования\n* Прекрасно владеть git, не бояться rebase, делать code review и пул реквесты\n* Будет большим плюсом, если вы знакомы с React Native или JS, а также участвуете в open-source проектах или помогаете остальным на stackoverflow\n\nНаше приложение уверенно занимает первое место в AppStore и Google Play в категории Health&Fitness в Америке и Англии, а также входит в Top 10 Overall. Количество пользователей постоянно растет (порядка 70 000 загрузок в день, за последний год выросли с 8 млн до 30 млн), сейчас приложением пользуются порядка 30 млн человек в 40 странах. Присоединяйся к глобальному проекту! \nДетали по ссылке: https://sweatco.in/team\nКонтакты: @ElenaZangeeva","markup":[{"type":"hashtag","offset":0,"length":9,"data":"УДАЛЕНКА"},{"type":"hashtag","offset":10,"length":9,"data":"вакансия"},{"type":"hashtag","offset":20,"length":7,"data":"Москва"},{"type":"hashtag","offset":28,"length":12,"data":"reactnative"},{"type":"hashtag","offset":41,"length":7,"data":"senior"},{"type":"hashtag","offset":49,"length":4,"data":"iOS"},{"type":"hashtag","offset":54,"length":13,"data":"гибкийграфик"},{"type":"hashtag","offset":68,"length":4,"data":"GBP"},{"type":"hashtag","offset":74,"length":8,"data":"vacancy"},{"type":"hashtag","offset":83,"length":8,"data":"startup"},{"type":"hashtag","offset":92,"length":10,"data":"Sweatcoin"},{"type":"hashtag","offset":162,"length":10,"data":"Sweatcoin"},{"type":"link","offset":1954,"length":23,"data":"https://sweatco.in/team"},{"type":"handle","offset":1988,"length":14,"data":"ElenaZangeeva"}],"date":"2020-06-16T14:55:34+00:00","link":"tg://resolve?domain=mobile_jobs&post=0","tags":[{"name":"mobile"},{"name":"ios"},{"name":"dotnet"},{"name":"reactjs"},{"name":"swift"},{"name":"objective-c"},{"name":"git"},{"name":"playframework"},{"name":"react-native"}],"cities":[{"code":"moscow"},{"code":"london"}],"allowsRemote":true}},{"node":{"__typename":"Job","id":"71402782720-1001054966032","title":"Ios разработчик","text":"#вакансия #iOS #удалёнка #fulltime #swift \n\nКомпания: \"Доктор на работе\" - социальная сеть для врачей. Самая стабильная отрасль сейчас:  Фарма+ Digital.\nМесто работы: удалённая работа\nЗП:  от 165к до 180к рублей на руки, белая\n\nИщем еще одного iOS разработчика.  \n\n🤟Особенности: новый проект, без легаси. Технологии: Swift, MVVM, Alamofire, Codable, Realm, RxSwift, SignalR, WebSockets.\n\n🔥Задача: создание новой Ленты врача с нуля, доработка существующего мессенджера для наших пользователей.\n\n🔥 Условия:\n* зп от 165к до 180к рублей на руки, белая;\n* удалённая работа.\n\n\n👉Вакансию можно посмотреть здесь: https://dev.doktornarabote.ru/ios\n👉 Отклики ждем здесь:  hr@doktornarabote.ru или в Telegram: @KseniaRyakhovskaya","markup":[{"type":"hashtag","offset":0,"length":9,"data":"вакансия"},{"type":"hashtag","offset":10,"length":4,"data":"iOS"},{"type":"hashtag","offset":15,"length":9,"data":"удалёнка"},{"type":"hashtag","offset":25,"length":9,"data":"fulltime"},{"type":"hashtag","offset":35,"length":6,"data":"swift"},{"type":"bold","offset":244,"length":16,"data":""},{"type":"bold","offset":510,"length":40,"data":""},{"type":"link","offset":609,"length":33,"data":"https://dev.doktornarabote.ru/ios"},{"type":"link","offset":667,"length":20,"data":"mailto:hr@doktornarabote.ru"},{"type":"handle","offset":704,"length":19,"data":"KseniaRyakhovskaya"}],"date":"2020-06-16T13:51:52+00:00","link":"tg://resolve?domain=mobile_jobs&post=0","tags":[{"name":"mobile"},{"name":"ios"},{"name":"swift"},{"name":"mvvm"},{"name":"realm"},{"name":"signalr"}],"cities":[],"allowsRemote":true}},{"node":{"__typename":"Job","id":"71388102656-1001054966032","title":"Ios разработчик","text":"#вакансия #iOS #developer #moscow #офис #fulltime\n\n🔸Адрес: Москва, Новокузнецкая\n🔸Формат работы: офис \n🔸Занятость: полная \n🔸ЗП: 180 000-250 000\n\n📣Middle/Senior iOS Разработчик\n\nна один из наших проектов-социальная сеть нового поколения на базе блокчейн-технологий.\n\n🔶Компания Freedom Group International \n\nЧем придётся заниматься:\n🔶Разработка нового функционала в рамках существующего приложения;\n🔶Рефакторинг и апгрейд ранее сделанного функционала\n\nЧто для этого потребуется:\n🔶Опыт разработки мобильных приложений от трех лет;\n🔶Отличные знания ООП, алгоритмов и структур данных;\n🔶Отличное знание Swift;\n🔶Знание Objective-C для правки старого кода;\n🔶Понимание REST API, взаимодействие с backend;\n🔶Опыт работы с GIT\n\nЖелательно знание следующих библиотек:\n   • RxSwift\n   • AFNetworking\n\nМы готовы предложить:\n🔷Уютный, современный офис;\n🔷Гибкий график;\n🔷Дружный коллектив и лояльное руководство;\n🔷Все плюсы работы в «белой» компании\n\n🔶Контакт для связи: @AnutaF","markup":[{"type":"hashtag","offset":0,"length":9,"data":"вакансия"},{"type":"hashtag","offset":10,"length":4,"data":"iOS"},{"type":"hashtag","offset":15,"length":10,"data":"developer"},{"type":"hashtag","offset":26,"length":7,"data":"moscow"},{"type":"hashtag","offset":34,"length":5,"data":"офис"},{"type":"hashtag","offset":40,"length":9,"data":"fulltime"},{"type":"bold","offset":312,"length":24,"data":""},{"type":"bold","offset":458,"length":26,"data":""},{"type":"bold","offset":730,"length":38,"data":""},{"type":"bold","offset":801,"length":21,"data":""},{"type":"handle","offset":972,"length":7,"data":"AnutaF"}],"date":"2020-06-16T12:00:18+00:00","link":"tg://resolve?domain=mobile_jobs&post=0","tags":[{"name":"mobile"},{"name":"ios"},{"name":"swift"},{"name":"objective-c"},{"name":"rest"},{"name":"git"}],"cities":[{"code":"moscow"}],"allowsRemote":false}},{"node":{"__typename":"Job","id":"71381811200-1001054966032","title":"Mobile разработчик","text":"Всем добрый день!\nИщем iOS разработчика (возможна удаленная работа).\n#вакансия\n#iOS developer\n#Казань #Иннополис\n#fulltime # офис или #remote\nЗанятость: полная \nЗарплатная вилка от 180-250+ net (зависит от уровня)\nКомпания: NNG\nКонтакты: @BetterCallOl\n\nWe are a world leader in the development of navigation equipment. Head office in Budapest.\nWhat would be your job? \n  •  Mobile and automotive navigation software development;\n  •  Various projects with international clients from all parts of the world;\n  •  Сooperation with PM and development teams both locally and in the Budapest office;\n  •  Design, develop, code, test and debug; own your code.\n If you have\n  •  Experience developing, testing, and releasing iOS apps;\n  •  Knowledge of Objective-C and Swift, UIKit;\n  •  Experience collaborating with designers on usability and aesthetics of apps;\n  •  Strong experience in writing and maintaining testable code and unit tests;\n  •  Experience with git-based version control systems;\n  •  Strong written and verbal communication skills in English;\nmoreover, you have any of the following: \n  •  Familiarity with JavaScript;\n  •  Familiarity with Flutter;\n  •  Experience in Agile development, especially SaFE and SCRUM;\n  You will make quite an impression on us! \nWhat can we give you in return? \n  •  A job at a successful global company;\n  •  Serious professional challenges;\n  •  A secure and well-paid job;\n  •  The opportunity to develop the navigation software of the future in the present;\n  •  Сompensation for rental flat;\n  •  The opportunity of working abroad for several weeks.\n\nКонтакты: @BetterCallOl","markup":[{"type":"hashtag","offset":69,"length":9,"data":"вакансия"},{"type":"hashtag","offset":79,"length":4,"data":"iOS"},{"type":"hashtag","offset":94,"length":7,"data":"Казань"},{"type":"hashtag","offset":102,"length":10,"data":"Иннополис"},{"type":"hashtag","offset":113,"length":9,"data":"fulltime"},{"type":"hashtag","offset":134,"length":7,"data":"remote"},{"type":"handle","offset":238,"length":13,"data":"BetterCallOl"},{"type":"handle","offset":1611,"length":13,"data":"BetterCallOl"}],"date":"2020-06-16T11:39:43+00:00","link":"tg://resolve?domain=mobile_jobs&post=0","tags":[{"name":"mobile"},{"name":"ios"},{"name":"dotnet"},{"name":"objective-c"},{"name":"swift"},{"name":"uikit"},{"name":"git"},{"name":"javascript"},{"name":"flutter"}],"cities":[{"code":"kazan"},{"code":"budapest"}],"allowsRemote":true}},{"node":{"__typename":"Job","id":"71376568320-1001054966032","title":"Ios разработчик","text":"#вакансия #ios #swift #middle #senior #удаленка #remote #fulltime\n\niOS-разработчик удаленно от 200 тыс. руб.\n\nГород: Москва\nФормат работы: удаленно\nЗанятость: полная\nЗарплатная вилка: от 200 000 руб. до 250 000 руб. после налогообложения\nКомпания: CORE https://core.company\nОписание вакансии:\n\nМы команда разработчиков мобильных приложений и сейчас мы ищем iOS-разработчика для одного из наших финтех-проектов.\n\nОсновные требования:\n— Опыт работы от 2-х лет;\n— Знание Objective-C и Swift;\n— Опыт работы с Rx;\n— Знание шаблонов проектирования и умение их применять;\n— Понимание принципов SOLID;\n— Знание основных алгоритмов и структур данных;\n— Умение писать поддерживаемый и тестируемый код.\n\nУсловия:\n— Полный день, гибкий график;\n— Оформление по договору ГПХ.\n\nПрисылайте ваше резюме на @tv_corecompany","markup":[{"type":"hashtag","offset":0,"length":9,"data":"вакансия"},{"type":"hashtag","offset":10,"length":4,"data":"ios"},{"type":"hashtag","offset":15,"length":6,"data":"swift"},{"type":"hashtag","offset":22,"length":7,"data":"middle"},{"type":"hashtag","offset":30,"length":7,"data":"senior"},{"type":"hashtag","offset":38,"length":9,"data":"удаленка"},{"type":"hashtag","offset":48,"length":7,"data":"remote"},{"type":"hashtag","offset":56,"length":9,"data":"fulltime"},{"type":"link","offset":253,"length":20,"data":"https://core.company"},{"type":"handle","offset":789,"length":15,"data":"tv_corecompany"}],"date":"2020-06-16T10:59:05+00:00","link":"tg://resolve?domain=mobile_jobs&post=0","tags":[{"name":"mobile"},{"name":"ios"},{"name":"swift"},{"name":"objective-c"}],"cities":[{"code":"moscow"}],"allowsRemote":true}},{"node":{"__typename":"Job","id":"102946045952-1001089317451","title":"Qa инженер","text":"#вакансия #москва #qa_auto #android #swift  #kotlin #java #tinkoff\n\n📣Команда автоматизированного тестирования Тинькофф ищет талантливого коллегу, готового взяться за решение нетривиальных задач.\n\nЕсли у тебя есть: \n✔️опыт автоматизации тестирования мобильных приложений;\n✔️высокий уровень владения языком программирования (Java/Kotlin или Swift);\n✔️опыт работы с фреймворками тестирования (JUnit/TestNG или XCTest);\n✔️опыт настройки CI/CD;\n✔️и желание развиваться в сфере, тестирования,\nмы ждем тебя в команду автоматизации Tinkoff.ru!\n\nЗ/п от 100 до 200 т.р. на руки.\n\n✏️По вопросам сотрудничества пиши:\nTelegram @galcian\nE-mail g.barsukova@tinkoff.ru","markup":[{"type":"hashtag","offset":0,"length":9,"data":"вакансия"},{"type":"hashtag","offset":10,"length":7,"data":"москва"},{"type":"hashtag","offset":18,"length":8,"data":"qa_auto"},{"type":"hashtag","offset":27,"length":8,"data":"android"},{"type":"hashtag","offset":36,"length":6,"data":"swift"},{"type":"hashtag","offset":44,"length":7,"data":"kotlin"},{"type":"hashtag","offset":52,"length":5,"data":"java"},{"type":"hashtag","offset":58,"length":8,"data":"tinkoff"},{"type":"link","offset":511,"length":24,"data":"https://www.tinkoff.ru/career/vacancies/testirovanie/qa-automation-engineer-ios-android/"},{"type":"handle","offset":615,"length":8,"data":"galcian"},{"type":"link","offset":631,"length":22,"data":"mailto:g.barsukova@tinkoff.ru"}],"date":"2020-06-16T10:15:14+00:00","link":"tg://resolve?domain=qa_jobs&post=0","tags":[{"name":"qa"},{"name":"android"},{"name":"swift"},{"name":"kotlin"},{"name":"java"},{"name":"junit"}],"cities":[{"code":"moscow"}],"allowsRemote":false}},{"node":{"__typename":"Job","id":"71359791104-1001054966032","title":"Ios разработчик","text":"#вакансия #ios #swift #офис #москва\nм.Бауманская, полная занятость\nБелая з/п от 130.000 до 200.000 руб. на руки (рассматриваем уровень Middle/Senior)\niOS developer\nНа время изоляции работаем удаленно, после вновь вернемся в офис!\nПолностью удаленной работы у нас нет!\n\n Мы — команда разработки Level.Travel, сложного продукта в сфере путешествий.  За последние 8 лет мы с нуля создали и продолжаем развивать решение для онлайн-продажи путешествий. Нашу платформу используют лидеры рынка – Тинькофф Банк, OneTwoTrip, Сбербанк, TripAdvisor, Kayak, АК Барс Банк, Евросеть и многие другие. Компания Level.Travel является резидентом Инновационного центра «Сколково».\n\nОбязанности:\n🔸Разработка проекта на Swift\n🔸Разработка новых модулей приложения\n🔸Проведение code review\n🔸Пишем на VIPER, используем Realm, Swinject, SnapKit\n🔸Сбор требований и фидбэка от других команд разработчиков и дизайнеров для улучшения и развития нашего продукта\n🔸Проводить оценку и корректировать требования для развития и улучшения приложения\n\nОт Вас:\n🔸Разработка на iOS от 2х лет\n🔸Умеете писать поддерживаемый и тестируемый код и понимаете, что DRY, KISS и 🔸SOLID — не просто аббревиатуры\n🔸Умение разрабатывать многопоточные приложения\n🔸Способность планировать и приоритезировать работу\n🔸Умение находить аргументы и конструктивно реагировать на комментарии коллег\n🔸Готовность много общаться с другими командами\n\nОт нас: белая зп, официальное трудоустройство, больничные, отпуска. Скидки на изучение английского языка, техника MacBook Pro. Регулярная обратная связь и аттестации. Геймификация процессов и несколько раз в год релокейты поработать в другую страну. Клевый молодой коллектив, интересные ивенты, насыщенная корпоративная жизнь. Пинг-понг, бильярд, кальян и другие развлечения в офисе. Скидки на путешествия)\n\nСвязь по почте: vos@level.travel\nИли тут @Alyask_a","markup":[{"type":"hashtag","offset":0,"length":9,"data":"вакансия"},{"type":"hashtag","offset":10,"length":4,"data":"ios"},{"type":"hashtag","offset":15,"length":6,"data":"swift"},{"type":"hashtag","offset":22,"length":5,"data":"офис"},{"type":"hashtag","offset":28,"length":7,"data":"москва"},{"type":"bold","offset":67,"length":44,"data":""},{"type":"bold","offset":150,"length":13,"data":""},{"type":"bold","offset":164,"length":65,"data":""},{"type":"bold","offset":270,"length":76,"data":""},{"type":"bold","offset":664,"length":12,"data":""},{"type":"bold","offset":1021,"length":7,"data":""},{"type":"bold","offset":1397,"length":7,"data":""},{"type":"bold","offset":1805,"length":32,"data":""},{"type":"link","offset":1821,"length":16,"data":"mailto:vos@level.travel"},{"type":"bold","offset":1838,"length":17,"data":""},{"type":"handle","offset":1846,"length":9,"data":"Alyask_a"}],"date":"2020-06-16T08:56:51+00:00","link":"tg://resolve?domain=mobile_jobs&post=0","tags":[{"name":"mobile"},{"name":"ios"},{"name":"swift"},{"name":"realm"}],"cities":[{"code":"moscow"}],"allowsRemote":true}},{"node":{"__typename":"Job","id":"71349305344-1001054966032","title":"Ios разработчик","text":"#вакансия #developer #iOS #москва  #fulltime \niOS Developer\nГород: Москва\nФормат работы: офис \nЗанятость: полная\nЗП вилка: 150-250 т.р.\n\nВ штат в офис госбанка в Москве в команду нужны разработчики iOS (Swift, objective-C) для написания нативных приложений. \nОпыт: Middle (выше - приветствуется) \nПолный соц. пакет, дмс и поддержка ре-локации.\nГибкое время работы.\n\nПодробнее – пишем в личку. @okokgoogLE","markup":[{"type":"hashtag","offset":0,"length":9,"data":"вакансия"},{"type":"hashtag","offset":10,"length":10,"data":"developer"},{"type":"hashtag","offset":21,"length":4,"data":"iOS"},{"type":"hashtag","offset":26,"length":7,"data":"москва"},{"type":"hashtag","offset":35,"length":9,"data":"fulltime"},{"type":"handle","offset":393,"length":11,"data":"okokgoogLE"}],"date":"2020-06-16T08:03:13+00:00","link":"tg://resolve?domain=mobile_jobs&post=0","tags":[{"name":"mobile"},{"name":"ios"},{"name":"swift"},{"name":"objective-c"}],"cities":[{"code":"moscow"}],"allowsRemote":false}},{"node":{"__typename":"Job","id":"71344062464-1001054966032","title":"Ios developer","text":"#вакансия #developer #iOS #moscow  #fulltime \niOS Developer\nГород: Москва\nФормат работы: офис \nЗанятость: полная\nЗП вилка: 160-290 тысяч \n\ninDriver - международный ride-hailing сервис:\n* 47 млн пользователей в 31 стране мира.\n* Входим в топ-5 мобильных сервисов для заказа поездки по итогам января 2020 года.\n* Офис возле м. Улица 1905 года.\n* Релокация в Москву для иногородних.\n\nОбязанности:\n• Разработка нового функционала приложения\n• Поддержка уже существующего функционала приложения\n• Участие в проектировании архитектуры системы\n\nТребования:\n• Отличное знание Swift и Objective-C\n•Опыт коммерческой iOS-разработки\n• Уверенное знание различных архитектурных подходов\n\nКонтакт для связи: @Liuboushka888 или lubov.iv@indriver.com","markup":[{"type":"hashtag","offset":0,"length":9,"data":"вакансия"},{"type":"hashtag","offset":10,"length":10,"data":"developer"},{"type":"hashtag","offset":21,"length":4,"data":"iOS"},{"type":"hashtag","offset":26,"length":7,"data":"moscow"},{"type":"hashtag","offset":35,"length":9,"data":"fulltime"},{"type":"handle","offset":694,"length":14,"data":"Liuboushka888"},{"type":"link","offset":713,"length":21,"data":"mailto:lubov.iv@indriver.com"}],"date":"2020-06-16T06:43:35+00:00","link":"tg://resolve?domain=mobile_jobs&post=0","tags":[{"name":"mobile"},{"name":"ios"},{"name":"swift"},{"name":"objective-c"}],"cities":[{"code":"moscow"}],"allowsRemote":false}}]}}},"context":{}}