{"hash":"f5f6bf98bd95e769321482904cbbd488f77922fd","data":{"records":{"totalCount":669,"pageInfo":{"totalPages":67,"currentPage":3},"edges":[{"node":{"id":"2281701376-1001134745498","title":"Devops инженер","text":"#вакансия #удаленка\nДолжность : Ведущий DevOps Инженер\nКомпания : https://www.bitorb.com/\nФормат работы: удаленная, на полный рабочий день\nЗарплата: 4-5k USD\nКто мы?\nBitOrb - биржа на азиатском рынке на стадии бета-тестирования.\n\nЧто делать?\n- Взять на себя инфраструктуру проекта;\n- Отвечать за мониторингы и алерты;\n- Работать вместе с девелоперами по обеспечению надежности и работы системы 24/7;\n- Автоматизировать все что можно (и что нельзя);\n- Настраивать железо и ОС для обеспечения low latency.\n\nЧто нужно в обязательном порядке?\n- Разговорный английский;\n- Опыт от 3 лет.\n\nЧто будет плюсом?\n- Опыт работы с JVM;\n- Опыт работы с Amazon;\n- Опыт работы над перфомансом (перфоманс тесты);\n- Также мы используем Ansible, Terraform, TeamCity, Docker - тоже не плохо бы было в это уметь.\n\nПочему это может быть интересно?\n- Удаленная работа и гибкий график;\n- Сложная система, требовательная к перфомансу, секьюрити;\n- Можно брать задачи и развиваться в соседних областях;\n- Дружная и многонациональная команда;\n- Опыт работы в международной компании.\n\nПросьба присылать резюме на английском языке на почту svetlanaishmanova@gmail.com или в телеграмм @svetlanaishmanova\n\n—\n\n👉 Обсуждение вакансии в чате @devops_jobs","markup":[{"type":"hashtag","offset":0,"length":9,"data":"вакансия"},{"type":"hashtag","offset":10,"length":9,"data":"удаленка"},{"type":"link","offset":66,"length":23,"data":"https://www.bitorb.com/"},{"type":"link","offset":1110,"length":27,"data":"mailto:svetlanaishmanova@gmail.com"},{"type":"handle","offset":1154,"length":18,"data":"svetlanaishmanova"},{"type":"handle","offset":1207,"length":12,"data":"devops_jobs"}],"date":"2020-07-03T06:05:29+00:00","link":"tg://resolve?domain=devops_jobs_feed&post=2176","tags":[{"name":"jvm"},{"name":"ansible"},{"name":"docker"}],"cities":[],"allowsRemote":true}},{"node":{"id":"104318631936-1001089317451","title":"Qa инженер","text":"🐞🐞🐞#вакансия #QA #Ульяновск #Саранск #Казань #Самара #Уфа #Краснодар #офис #удаленная_работа\n\n🔍Middle QA-специалист🔎\n\n⚡️Компания: Simbirsoft (более 19 лет на рынке, более 700 сотрудников в штате)\n\nОчень ждем тебя, наш будущий коллега и борец за качественное ПО! :)\n\n📌Твои будущие задачи:\n• тестирование ПО (frontend, backend, API);\n• локализация и документирование найденных дефектов;\n• ведение и оптимизация тестовой документации;\n• контроль качества на всех этапах разработки ПО;\n• выстраивание и оптимизация процессов тестирования ПО.\n\n📌Что мы ждем от тебя:\n• наличие опыта от 2 лет в направлениях QA или тестирования ПО;\n• понимание разницы между QA и тестированием ПО;\n• понимание особенностей гибких методологий;\n• уверенное владение техниками тест-дизайна;\n• знание клиент-серверной архитектуры;\n• понимание особенностей тестирования web, mobile и desktop приложений;\n• навык тестирования API;\n• написание запросов SQL;\n• опыт работы с системами контроля версий (git);\n• знание основных команд работы с консолью (Windows/Linux).\n\n📌Что мы предлагаем:\n• Полностью белая ЗП два раза в месяц;\n• Оформление по ТК РФ;\n• Высокий уровень экспертности внутри компании, которым мы делимся друг с другом;\n• Перспективы вертикального и горизонтального роста;\n• Работа на российских и международных проектах;\n• Оборудованное рабочее место и парк тестовых устройств;\n• Подготовка и прохождение сертификации ISTQB бесплатно;\n• Внутренние и внешние курсы, доклады, конференции;\n• Бесплатные чай, кофе, печеньки в офисе;\n• Корпоративная спортивная программа (оплата тематических секций, частичная компенсация абонемента);\n• Проведение летних и зимних корпоративов, дня именинника, совместные походы и т.д.\n\n📌Зарплата:\n• от 50 000 (Договорная, по итогу собеседования)\n\n☎️Контакты:\nAlena","markup":[{"type":"hashtag","offset":6,"length":9,"data":"вакансия"},{"type":"hashtag","offset":16,"length":3,"data":"QA"},{"type":"hashtag","offset":20,"length":10,"data":"Ульяновск"},{"type":"hashtag","offset":31,"length":8,"data":"Саранск"},{"type":"hashtag","offset":40,"length":7,"data":"Казань"},{"type":"hashtag","offset":48,"length":7,"data":"Самара"},{"type":"hashtag","offset":56,"length":4,"data":"Уфа"},{"type":"hashtag","offset":61,"length":10,"data":"Краснодар"},{"type":"hashtag","offset":72,"length":5,"data":"офис"},{"type":"hashtag","offset":78,"length":17,"data":"удаленная_работа"}],"date":"2020-07-03T05:58:13+00:00","link":"tg://resolve?domain=qa_jobs&post=99486","tags":[{"name":"qa"},{"name":"web"},{"name":"mobile"},{"name":"sql"},{"name":"git"},{"name":"windows"},{"name":"linux"}],"cities":[{"code":"ulyanovsk"},{"code":"saransk"},{"code":"kazan"},{"code":"samara"},{"code":"ufa"},{"code":"krasnodar"}],"allowsRemote":true}},{"node":{"id":"26983006208-1001075660570","title":"Php разработчик","text":"#вакансия #удаленно #офис #ростов #senior\nКомпания «E.Mi» - производитель материалов для салонов красоты, дистрибуция, профессиональное образование, сеть салонов красоты.\nКомпания входит в ТОП-5 лидеров nail-рынка РФ и СНГ по объёму реализации.\nВ штат компании требуется Ведущий WEB-разработчик Bitrix\nЛокация: головной офис РФ - Ростов-на-Дону\nРассматриваем кандидатов как для удаленной работы, так и на офисную\n\nОбязанности:\n-Доработка функционала и исправление ошибок на сайтах;\n-Администрирование хостинга VPS, CentOS7;\n-Поддержка обмена данных Битрикс с 1С;\n-Настройка синхронизации с 1С, Битрикс24, данных между сайтами.\n\nУсловия:\n-Работа в крупной развивающейся компании;\n-Креативная и молодая команда;\n-В подчинении Web-разработчик и Web-мастер;\n-Оформление по ТК РФ.\n\nЗарплату готовы обсуждать от ваших ожиданий (от 70.000 руб)\nСвязь в лс, по телефону или почта bondarenko@emi-school.ru","markup":[{"type":"hashtag","offset":0,"length":9,"data":"вакансия"},{"type":"hashtag","offset":10,"length":9,"data":"удаленно"},{"type":"hashtag","offset":20,"length":5,"data":"офис"},{"type":"hashtag","offset":26,"length":7,"data":"ростов"},{"type":"hashtag","offset":34,"length":7,"data":"senior"},{"type":"bold","offset":279,"length":23,"data":""},{"type":"underline","offset":345,"length":69,"data":""},{"type":"bold","offset":414,"length":13,"data":""},{"type":"bold","offset":628,"length":9,"data":""},{"type":"link","offset":871,"length":24,"data":"mailto:bondarenko@emi-school.ru"}],"date":"2020-07-03T05:54:45+00:00","link":"tg://resolve?domain=php_jobs&post=25733","tags":[{"name":"php"},{"name":"web"},{"name":"centos"}],"cities":[{"code":"rostov"}],"allowsRemote":true}},{"node":{"id":"72601305088-1001054966032","title":"Ios разработчик","text":"#вакансия #swift #ios #удаленка\n\nГород и адрес офиса: мы находимся в г.Новосибирск\n\nФормат работы: удаленно\n\nЗанятость: проектная\n\nОплата: 2 - 5 т.р.\n\nОписание вакансии: Ищем мобильного разработчика на Swift. Требуются небольшие доработки в приложение. \n\nКонтакты: @kovy17","markup":[{"type":"hashtag","offset":0,"length":9,"data":"вакансия"},{"type":"hashtag","offset":10,"length":6,"data":"swift"},{"type":"hashtag","offset":17,"length":4,"data":"ios"},{"type":"hashtag","offset":22,"length":9,"data":"удаленка"},{"type":"bold","offset":33,"length":20,"data":""},{"type":"bold","offset":84,"length":15,"data":""},{"type":"bold","offset":109,"length":10,"data":""},{"type":"bold","offset":131,"length":7,"data":""},{"type":"bold","offset":151,"length":18,"data":""},{"type":"bold","offset":255,"length":9,"data":""},{"type":"handle","offset":265,"length":7,"data":"kovy17"}],"date":"2020-07-03T04:52:53+00:00","link":"tg://resolve?domain=mobile_jobs&post=69238","tags":[{"name":"mobile"},{"name":"ios"},{"name":"swift"}],"cities":[{"code":"novosibirsk"}],"allowsRemote":true}},{"node":{"id":"72599207936-1001054966032","title":"Ios разработчик","text":"#вакансия #ios #swift #удаленно #fulltime #middle #senior\n👋 Ищем iOS разработчика для контрактной удаленной работы (500к + скачиваний, app of the day in the app store)\nФормат работы: удаленка\n💵 Зарплата: от 1500 до 2000 usd после налогов\n\nУровень: middle / senior\nКомпания: Remember, https://rmmbr.io/\n\n👩‍🎓 Описание компании:\nЛюди, изучающие новые языки, постоянно забывают слова, которые они перевели или встретили в течении дня. Remember решает эту проблему, помогая людям, запоминать все, что они переводят.\n\n🎯 Что мы ожидаем от вас:\n- уверенное знание Swift\n- знание шаблонов проектирования и умение их применять\n- понимание принципов SOLID\n- умение планировать и приоритезировать работу\n\n👨‍💻 Что нужно делать:\n- Разрабатывать новые фичи, которые помогут тысячам пользователей запоминать слова\n- Участвовать в code review\n- Работать по спринтам\nДля работы мы используем trello, bitbucket, zeplin, slack\nПроект полностью написан на Swift, используется MVVM архитектура, новые модули пишем на VIPER\n\n📍 Как будет проходить процесс выбора кандидата:\n1. От вас CV + примеры кода\n2. Небольшое техническое интервью удаленно\n3. Оплачиваемое тестовое задание\n\n✉️ Контакты: @izvestnaya_lichnost","markup":[{"type":"hashtag","offset":0,"length":9,"data":"вакансия"},{"type":"hashtag","offset":10,"length":4,"data":"ios"},{"type":"hashtag","offset":15,"length":6,"data":"swift"},{"type":"hashtag","offset":22,"length":9,"data":"удаленно"},{"type":"hashtag","offset":32,"length":9,"data":"fulltime"},{"type":"hashtag","offset":42,"length":7,"data":"middle"},{"type":"hashtag","offset":50,"length":7,"data":"senior"},{"type":"link","offset":286,"length":17,"data":"https://rmmbr.io/"},{"type":"handle","offset":1176,"length":20,"data":"izvestnaya_lichnost"}],"date":"2020-07-03T04:32:01+00:00","link":"tg://resolve?domain=mobile_jobs&post=69236","tags":[{"name":"mobile"},{"name":"ios"},{"name":"swift"},{"name":"mvvm"}],"cities":[],"allowsRemote":true}},{"node":{"id":"72593965056-1001054966032","title":"Android разработчик","text":"⚠️ #вакансия #удаленка #android #middle #senior #c++\n\n🔹Формат работы: Удаленный\n🔹Занятость: Частичная\n🔹Зарплатная вилка: от 100 000₽ (почасово 15/20/25$)\n🔹Компания: ABT apps\n\n🔹Описание вакансии:\nНужен android разработчик который ранее работал с api telegram android. Нужна разработка приложения на базе telegram. Работа удаленная, с оплатой почасово, не полная занятость. Приступить к работе нужно уже сейчас. Интересует удаленное сотрудничество, на длительный период (обновления/фикс багов)\n\n🔹Контакты: @tetri (высылайте сразу примеры предыдущих работ)","markup":[{"type":"hashtag","offset":3,"length":9,"data":"вакансия"},{"type":"hashtag","offset":13,"length":9,"data":"удаленка"},{"type":"hashtag","offset":23,"length":8,"data":"android"},{"type":"hashtag","offset":32,"length":7,"data":"middle"},{"type":"hashtag","offset":40,"length":7,"data":"senior"},{"type":"hashtag","offset":48,"length":2,"data":"c"},{"type":"bold","offset":56,"length":15,"data":""},{"type":"bold","offset":83,"length":10,"data":""},{"type":"bold","offset":106,"length":17,"data":""},{"type":"bold","offset":159,"length":10,"data":""},{"type":"bold","offset":181,"length":18,"data":""},{"type":"bold","offset":500,"length":18,"data":""},{"type":"handle","offset":510,"length":6,"data":"tetri"}],"date":"2020-07-03T00:16:06+00:00","link":"tg://resolve?domain=mobile_jobs&post=69231","tags":[{"name":"mobile"},{"name":"android"}],"cities":[],"allowsRemote":true}},{"node":{"id":"72590819328-1001054966032","title":"Ios developer","text":"#вакансия #ios #swift #удаленка #проект #middle\n\n🦄\nВакансия middle iOS Developer\n\n- Компания: Renewal\n- Город: СПб\n- Формат: Удаленка\n⁃ Зарплатная вилка: 600-800 руб/час, оплата еженедельная, считается по закрытым userstory\n⁃ Занятость: проектная с возможностью дальнейшего сотрудничества при успешном взаимодействии\n⁃ Работа по scrum\n\n✏️\nКонтакты:\ntg: @gagmark\ne-mail: ml.tsarkovg@gmail.com\n\nОтвечу на все вопросы касательно проекта","markup":[{"type":"hashtag","offset":0,"length":9,"data":"вакансия"},{"type":"hashtag","offset":10,"length":4,"data":"ios"},{"type":"hashtag","offset":15,"length":6,"data":"swift"},{"type":"hashtag","offset":22,"length":9,"data":"удаленка"},{"type":"hashtag","offset":32,"length":7,"data":"проект"},{"type":"hashtag","offset":40,"length":7,"data":"middle"},{"type":"handle","offset":354,"length":8,"data":"gagmark"},{"type":"link","offset":371,"length":21,"data":"mailto:ml.tsarkovg@gmail.com"}],"date":"2020-07-02T20:49:28+00:00","link":"tg://resolve?domain=mobile_jobs&post=69228","tags":[{"name":"mobile"},{"name":"ios"},{"name":"swift"}],"cities":[],"allowsRemote":true}},{"node":{"id":"72589770752-1001054966032","title":"Android разработчик","text":"#вакансия #Middle #Android #kotlin #удаленно #parttime #проект                                                                                                         \n\nФормат работы: Удалёнка\nЗанятость: частичная, проектная (0,5 ставки = 20 часов/нед.)\nУсловия: от $700 до $1000 в месяц\nКонтакты: 📲 @ogura86\n\n📚 Требования:\n • Уверенное знание Kotlin и Android SDK\n • Понимание Clean Architecture и принципов SOLID \n • Знание различных принципов построения архитектуры MVC(MVP, MVVM) \n • Умение работать с git \n • RxJava/RxKotlin\n • Знание основ сетевого взаимодействия (Retrofit)\n\n⚡️ Будет плюсом:\n •  Android architecture components: lifecycle-aware components, LiveData, ViewModel, Room\n •  Знакомство с Dagger 2 \n •  Опыт написания custom view\n\n🏖 Условия: \n • Отсутствие бюрократии\n • Свободный график работы \n • Крутой проект в области цифровизации промышленных компаний\n • Еженедельная оплата","markup":[{"type":"hashtag","offset":0,"length":9,"data":"вакансия"},{"type":"hashtag","offset":10,"length":7,"data":"Middle"},{"type":"hashtag","offset":18,"length":8,"data":"Android"},{"type":"hashtag","offset":27,"length":7,"data":"kotlin"},{"type":"hashtag","offset":35,"length":9,"data":"удаленно"},{"type":"hashtag","offset":45,"length":9,"data":"parttime"},{"type":"hashtag","offset":55,"length":7,"data":"проект"},{"type":"bold","offset":169,"length":13,"data":""},{"type":"bold","offset":193,"length":11,"data":""},{"type":"bold","offset":254,"length":8,"data":""},{"type":"bold","offset":288,"length":9,"data":""},{"type":"handle","offset":301,"length":8,"data":"ogura86"},{"type":"bold","offset":313,"length":13,"data":""},{"type":"code","offset":326,"length":3,"data":""},{"type":"code","offset":367,"length":3,"data":""},{"type":"code","offset":418,"length":3,"data":""},{"type":"code","offset":487,"length":3,"data":""},{"type":"code","offset":513,"length":3,"data":""},{"type":"code","offset":532,"length":3,"data":""},{"type":"bold","offset":586,"length":15,"data":""},{"type":"code","offset":601,"length":3,"data":""},{"type":"code","offset":692,"length":3,"data":""},{"type":"code","offset":719,"length":3,"data":""},{"type":"bold","offset":753,"length":11,"data":""},{"type":"code","offset":764,"length":3,"data":""},{"type":"code","offset":789,"length":3,"data":""},{"type":"code","offset":817,"length":3,"data":""},{"type":"code","offset":879,"length":3,"data":""}],"date":"2020-07-02T20:46:47+00:00","link":"tg://resolve?domain=mobile_jobs&post=69227","tags":[{"name":"mobile"},{"name":"android"},{"name":"kotlin"},{"name":"mvvm"},{"name":"git"}],"cities":[],"allowsRemote":true}},{"node":{"id":"17339252736-1001110946746","title":"Javascript разработчик","text":"#вакансия #ReactNative\n\nПозиция: Frontend-dev\nФормат работы: удалёнка\nЗарплатная вилка:  от 10$ до 25$ в час\nЗанятость: полная, частичная, проектная\nНазвание компании: Sleecs\n\n\n\nЗадача:\nНеобходимо запилить модуль камеры, способный одновременно транслировать preview и при необходимости делать снимки на основную/фронтальную камеру, в зависимости от параметров. \n\nПриоритет под IOS, но Android будет плюсом.\n\nПодробнее в личку, @canveed\n\n—\n\n👉 Обсуждение вакансии в чате @javascript_jobs","markup":[{"type":"hashtag","offset":0,"length":9,"data":"вакансия"},{"type":"hashtag","offset":10,"length":12,"data":"ReactNative"},{"type":"handle","offset":427,"length":8,"data":"canveed"},{"type":"handle","offset":470,"length":16,"data":"javascript_jobs"}],"date":"2020-07-02T20:12:42+00:00","link":"tg://resolve?domain=javascript_jobs_feed&post=16536","tags":[{"name":"javascript"},{"name":"ios"},{"name":"android"}],"cities":[],"allowsRemote":true}},{"node":{"id":"17338204160-1001110946746","title":"Js developer","text":"#вакансия \n\nГород и адрес офиса: Москва (Калужская) или remote\nФормат работы: удаленка\nЗанятость: проектная\nЗарплатная вилка: от 90000 до 140000 руб / мес, для опытных возможен part-time (4 часа в день)\nОписание вакансии: JavaScript Node.js Developer\n\n📲 Кто мы?\n\n→ Компания Axept занимается консалтингом и заказной разработкой программных продуктов.\n→ Наши клиенты – Интернет-компании, профессиональные стартапы и крупные корпорации (Россия, Европа, Сингапур, Японии, США).\n→ Текущий портфель проектов – Личные кабинеты, ERP, Поисковые системы, CRM, Dashboards, Социальные сети, мобильные приложения.\n→ Центр разработки находится в Москве. Но 70% сотрудников работают удалённо по всему миру.\n→ Ключевой момент — мы относимся к проектам наших клиентов ❤️, как к своим собственным, с любовью и максимальной ответственностью.\n→ Много лет команнда Axept развивает сообщества Node.js, React.js и Kubernetes в России.\n→ Мы искренне любим то, что делаем и постоянно улучшаемся. Более подробно здесь – www.axept.com/ru-ru/jobs\n\n🎸 Задачи:\n\n1. Разработка Backend для ERP-платформы (Node.js, TypeScript, PostgreSQL, Redis, Express.js, Knex.js, Passport)\n2. Реализация REST API по модели www.jsonapi.org\n3. Документирование разрабатываемого REST API на Swagger или Apiary \n4. Разработка WebSockets-интерфейса\n\n🏆 Для этого вам потребуется:\n\n1. Опыт работы с PostgreSQL и Redis на уровне прямых коннекторов и knex (включая миграции)\n2. Понимание базовых принципов построения отказоустойчивой архитектуры\n3. Взаимодействие с файловой системой\n4. Свободное владение TypeScript\n5. Опыт работы с Express.js, Sentry и логгерами (Bunyan)\n6. Ваши будущие коллеги на Front-end используют React.js, поэтому понимае React.js и Redux будет плюсом\n7. Желание и готовность активно развиваться 🙂\n\n🎁 Что мы предлагаем?\n\n1. Полнностью удаленная работа (remote).\n2. Сильная команда коллег.\n3. Проекты и задачи, которые реально развивают.\n4. Оформление по ТК РФ. ЗП два раза в месяц.\n5. Опционально – ДМС, конференции, тренинги.\n6. Возможность присоединниться в офисе в БЦ НеоГео (Калужская) – самом стильном и награждаемом БЦ Москвы. В офисе новая техника от iMac до Dell, завтраки, M&Ms и прочие радости.\n7. Быстрая прокачка и гордость за результаты достигнутые вместе.\n8. Админка в @nodejs_ru (шутка).\n\n📩 Напишите краткий рассказ о себе и приложение резюме, отправьте сообщение @DenisIzmaylov или на @AxeptJobs или jobs@ru.axept.com","markup":[{"type":"hashtag","offset":0,"length":9,"data":"вакансия"},{"type":"link","offset":995,"length":24,"data":"http://www.axept.com/ru-ru/jobs"},{"type":"link","offset":1178,"length":15,"data":"http://www.jsonapi.org"},{"type":"handle","offset":2258,"length":10,"data":"nodejs_ru"},{"type":"handle","offset":2355,"length":14,"data":"DenisIzmaylov"},{"type":"handle","offset":2377,"length":10,"data":"AxeptJobs"},{"type":"link","offset":2392,"length":17,"data":"mailto:jobs@ru.axept.com"}],"date":"2020-07-02T18:48:53+00:00","link":"tg://resolve?domain=javascript_jobs_feed&post=16535","tags":[{"name":"javascript"},{"name":"nodejs"},{"name":"reactjs"},{"name":"kubernetes"},{"name":"typescript"},{"name":"postgresql"},{"name":"redis"},{"name":"express"},{"name":"rest"},{"name":"swagger"},{"name":"redux"},{"name":"react-redux"}],"cities":[{"code":"moscow"},{"code":"singapore"}],"allowsRemote":true}}]}},"context":{}}