{"hash":"f5f6bf98bd95e769321482904cbbd488f77922fd","data":{"records":{"id":"gitlab","name":"gitlab","belongsTo":{"totalCount":68,"pageInfo":{"totalPages":7,"currentPage":4},"edges":[{"node":{"__typename":"Job","id":"354418688-1001352129329","title":"Golang разработчик","text":"Ребят, всем привет! \nПостараюсь кратко, подробности в ЛС. Заранее напишу, что это Москва (фултайм/офис), компания Lofty. Ищем в команду как Midle так и Senior Go разработчиков.\nВообщем если хочется в highload, добро пожаловать!)\n\nО проекте:\nЭто высоконагруженное backend приложение для рассылки web push-уведомлений, обслуживающее на данный момент более 100млн показов в сутки. \nЧем у нас предстоит заниматься:\nПрофилировать и оптимизировать существующие сервисы;\nПроводить доработки и интеграцию их в действующий код и инфраструктуру;\nРеализовывать новые бизнес-требования внутри сервиса;\nУстранять возникающие баги в сервисе.\n\nЧто мы ждем от кандидата:\nНавыки работы с Git;\nУверенное знание Golang;\nПонимание технологий HTTP, REST;\nОпыт работы в Unix-окружении.\n\nБудет совсем круто, если вы:\nРаботали с highload-проектами;\nПонимаете и уважаете концепцию CI/CD.\nНаш стек технологий: Golang, Gitlab, MySQL, JS, RabbitMQ, Docker, Ansible, Clickhouse\n\nУсловия: \nЗаработная плата от 130 000 до 300 000 руб. на руки, естественно зависит от уровня, преимущественно смотрим \"мидов\", но и \"джуны\" нам тоже интересны.\n\nНаш сайт: `https://www.lofty.today/\n#вакансия#golang","markup":[{"type":"link","offset":1122,"length":24,"data":"https://www.lofty.today/"}],"date":"2020-06-24T17:53:47+00:00","link":"tg://resolve?domain=gogetajobfeed&post=338","tags":[{"name":"go"},{"name":"web"},{"name":"git"},{"name":"rest"},{"name":"unix"},{"name":"gitlab"},{"name":"mysql"},{"name":"rabbitmq"},{"name":"docker"},{"name":"ansible"}],"cities":[{"code":"moscow"}],"allowsRemote":false}},{"node":{"__typename":"Job","id":"103545831424-1001089317451","title":"Qa инженер","text":"#вакансия #homeoffice #upper-intermediate\nЗ\\п 2500-3500$ в месяц(по результатам собеседования)\nФорма занятости – фулл тайм, home-office\nТребования:\n- английский не ниже upper-intermediate, всё общение на английском\n- умение использовать GitLab (артефакты, логи сборок, логи прогона тестов и т.п., ci\\cd настроен)\n- уверенные знания JS (обязательное требование)\n- тестирование api и функционала\n- end to end tests на headless Chrome\n- Demonstrate ability to automate test plan using Webdriver.io\n\nhome-office\nтолько иностранные заказчики\nконтакты \nerzentd@gmail.com\nкомпания s-o-services\n@erzentd","markup":[{"type":"hashtag","offset":0,"length":9,"data":"вакансия"},{"type":"hashtag","offset":10,"length":11,"data":"homeoffice"},{"type":"hashtag","offset":22,"length":6,"data":"upper"},{"type":"link","offset":482,"length":12,"data":"http://Webdriver.io"},{"type":"link","offset":547,"length":17,"data":"mailto:erzentd@gmail.com"},{"type":"handle","offset":587,"length":8,"data":"erzentd"}],"date":"2020-06-23T14:07:13+00:00","link":"tg://resolve?domain=qa_jobs&post=98749","tags":[{"name":"qa"},{"name":"gitlab"}],"cities":[],"allowsRemote":false}},{"node":{"__typename":"Job","id":"2247098368-1001134745498","title":"Devops инженер","text":"#вакансия #devops #senior  #офис \nГород и адрес офиса: Москва, метро Румянцево \nФормат работы: офис \nЗанятость: полная \nЗарплатная вилка: от 180000 руб до 250000 руб  + премии\nТребования в вакансии:\nОпыт работы в качестве системного администратора\nОпыт работы в качестве DevOPS от 2 лет\nОпыт работы с GitLAb/Puppet/Ansible/Consul/Terraform\nРабота с CI/CD (Jenkins, Gitlab) \nАвтоматизация внутренних процессов (Linux, Python, Ansible, Docker) \nЗадача: Разработка, внедрение и поддержка решений по обеспечению и автоматизации процесса разработки и тестирования.\nНазвание компании: РТЛабс \nКонтакты: @mari13291\n\n—\n\n👉 Обсуждение вакансии в чате @devops_jobs","markup":[{"type":"hashtag","offset":0,"length":9,"data":"вакансия"},{"type":"hashtag","offset":10,"length":7,"data":"devops"},{"type":"hashtag","offset":18,"length":7,"data":"senior"},{"type":"hashtag","offset":27,"length":5,"data":"офис"},{"type":"handle","offset":597,"length":10,"data":"mari13291"},{"type":"handle","offset":642,"length":12,"data":"devops_jobs"}],"date":"2020-06-23T12:50:12+00:00","link":"tg://resolve?domain=devops_jobs_feed&post=2143","tags":[{"name":"gitlab"},{"name":"ansible"},{"name":"jenkins"},{"name":"linux"},{"name":"python"},{"name":"docker"}],"cities":[{"code":"moscow"}],"allowsRemote":false}},{"node":{"__typename":"Job","id":"103518568448-1001089317451","title":"Qa инженер","text":"#вакансия #СПб #fulltime #qa #manual\nВакансия: QA Manual (middle)\nКомпания: QuadCode\nГород: Санкт-Петербург (ст. метро Новочеркасская)\nФормат работы: офис\nЗарплата (полностью белая): от 80 000 до 140 000 ₽ на руки\n\nТебе предстоит:\n• проведение ручной части тестирования;\n• анализ и оценка поступающих требований;\n• составление тестовой документации: тест-планов, тест-кейсов, чек-листов;\n• сопровождение проекта на всех этапах его существования.\n\nТы нам подходишь, если:\n• тестируешь веб-приложения больше 2 лет!!!;\n• знаешь SQL на уровне составления запросов для выборки из нескольких таблиц (SELECT JOIN);\n• знаешь и применяешь техники тест дизайна;\n• понимаешь принципы работы клиент-серверных приложений.\n\nБудет плюсом:\n• владение навыками написания и запуска автотестов (Jenkins / Gitlab CI / Allure/ etc) или желание в этом разобраться;\n• знание Linux на уровне чтения логов и просмотра файлов в контейнерах;\n• понимание жизненного цикла разработки ПО и гибких методологии разработки (agile-методы).\n\nПочему именно мы:\n• трудоустройство, согласно ТК РФ;\n• место работы в десяти минутах ходьбы от ст.м. Новочеркасская в офисе класса А+;\n• питание: компенсация обедов, кухни с едой на каждом этаже;\n• здоровье: ДМС со стоматологией, массажный кабинет в офисе;\n• спорт: корпоративный спортзал с личным тренером, спортивные секции (футбол, баскетбол, волейбол);\n• развитие: корпоративные тренинги, обучение английскому языку;\n• работа в отличном коллективе, множество развлекательных мероприятий и возможность влиять на продукт.\n\nДополнительные условия для иногородних и иностранных кандидатов: \n• предоставление места проживания за счет компании в первый месяц работы;\n• компенсация переезда;\n• помощь в оформлении документов (для иностранных граждан).\n\nПишите и присылайте резюме: \nTelegram: @gala_kr","markup":[{"type":"hashtag","offset":0,"length":9,"data":"вакансия"},{"type":"hashtag","offset":10,"length":4,"data":"СПб"},{"type":"hashtag","offset":15,"length":9,"data":"fulltime"},{"type":"hashtag","offset":25,"length":3,"data":"qa"},{"type":"hashtag","offset":29,"length":7,"data":"manual"},{"type":"bold","offset":37,"length":29,"data":""},{"type":"bold","offset":215,"length":16,"data":""},{"type":"bold","offset":447,"length":24,"data":""},{"type":"bold","offset":499,"length":15,"data":""},{"type":"bold","offset":710,"length":14,"data":""},{"type":"bold","offset":1007,"length":18,"data":""},{"type":"bold","offset":1532,"length":64,"data":""},{"type":"handle","offset":1796,"length":8,"data":"gala_kr"}],"date":"2020-06-23T11:11:49+00:00","link":"tg://resolve?domain=qa_jobs&post=98723","tags":[{"name":"qa"},{"name":"sql"},{"name":"jenkins"},{"name":"gitlab"},{"name":"linux"}],"cities":[],"allowsRemote":false}},{"node":{"__typename":"Job","id":"2245001216-1001134745498","title":"Devops инженер","text":"#вакансия #Москва #офис #DevOps\n\n▫️ВАКАНСИЯ: Devops engineer\nКомпания: Северсталь-Диджитал\nФормат работы: удаленно на пандемии, далее офис  \nЛокация: Москва, Офис на м. Войковская или МЦК Балтийская\nЗанятость: полная \nЗарплатная вилка: до 140-180к gross middle, 180-230к gross senior  + 30% годовой бонус\n\nКомпания занимается внедрением моделей машинного обучение в производстве. Мы ищем devops инженера для поддержки и развития платформы k8s, Kafka, Hadoop, Gitlab. Работа в небольшой команде, где ваши идеи будут быстро находить реализацию.\n\n▫️Обязанности:\n • Настройка, обновление, GitLab, GitlabCI, Nexus/Artifactory; \n • Организация сбора логов с компонентов IoT платформы Северстали (GrayLog); \n • Организация сбора метрик, описывающих состояние IoT платформы; \n • Создание дашбордов и алертов в Grafana; \n • Автоматизированный выпуск релизов. \n\n▫️Требования:\n• Опыт работы в роли DevOps инженера или аналогичной позиции от 1-го года;  \n• Опыт работы с Linux в роли администратора, навыки работы с Docker; \n• Опыт работы с Hadoop, Kafka, Kubernetes. \n\n▫️Желательно:\n• Умение быстро изучать англоязычные технические ресурсы; \n• Экспертные навыки работы с ОС семейства Linux; \n• Навыки работы на языках программирования Bash, Python, Java, Scala.\n• Опыт работы с Prometeus, Zabbix, ELK\n\n▫️Условия:\n•  Гибкое начало рабочего дня\n•  Официальное оформление\n•  Корпоративную мобильную связь, медицинскую страховку и страхование жизни\n•  Участие в профессиональных конференциях\n•  Современное рабочее пространство и уютные зоны отдыха\n\nКонтакты @DaynekoRoman, @ikart\n\n—\n\n👉 Обсуждение вакансии в чате @devops_jobs","markup":[{"type":"hashtag","offset":0,"length":9,"data":"вакансия"},{"type":"hashtag","offset":10,"length":7,"data":"Москва"},{"type":"hashtag","offset":18,"length":5,"data":"офис"},{"type":"hashtag","offset":24,"length":7,"data":"DevOps"},{"type":"handle","offset":1544,"length":13,"data":"DaynekoRoman"},{"type":"handle","offset":1559,"length":6,"data":"ikart"},{"type":"handle","offset":1600,"length":12,"data":"devops_jobs"}],"date":"2020-06-23T09:00:51+00:00","link":"tg://resolve?domain=devops_jobs_feed&post=2141","tags":[{"name":"kafka"},{"name":"hadoop"},{"name":"gitlab"},{"name":"linux"},{"name":"docker"},{"name":"kubernetes"},{"name":"bash"},{"name":"python"},{"name":"java"},{"name":"scala"}],"cities":[{"code":"moscow"}],"allowsRemote":true}},{"node":{"__typename":"Job","id":"91666513920-1001067529236","title":"Python разработчик","text":"#fullstack_dev #вакансия #удаленка #Python \n\nПривет! Меня зовут Виолетта, ищу Python разработчика в компанию SIMKOMAT.\n\nМесто работы: удаленка \nРабочий день: полный рабочий день\nТвои умения: \nPython, asyncio, flask\nОпыт программирования многопоточных приложений;\nЗнание операционной системы Linux;\nЗнание Docker/Docker-compose\nУмение работы с системой контроля версий Git, gitlab, CI/CD\nОпыт работы с базами данных Mongodb, PostgreSQL или MySQL\nПонимание принципов виртуализации;\nОпыт администрирования ОС семейства Linux, localhost, умение работать с ssh\nМы общаемся в: Trello, Atlassian, Telegram, Viber, GitLab Issues\nО компании: создаем программные аппараты для выдачи сим-карт без участия человека. В основном сотрудничаем с иностраннными компаниями. Нашему коллективу кажется, что мы веселые и приятные люди. \nОткликаться на вакансию: пиши мне в телеграм @violker или на почту yo@simkomat.com\n\nЗа внимание спасибо. Сайт SIMKOMAT - тебе. https://simkomat.com/ru/","markup":[{"type":"hashtag","offset":0,"length":14,"data":"fullstack_dev"},{"type":"hashtag","offset":15,"length":9,"data":"вакансия"},{"type":"hashtag","offset":25,"length":9,"data":"удаленка"},{"type":"hashtag","offset":35,"length":7,"data":"Python"},{"type":"bold","offset":120,"length":13,"data":""},{"type":"bold","offset":144,"length":13,"data":""},{"type":"bold","offset":178,"length":14,"data":""},{"type":"bold","offset":556,"length":15,"data":""},{"type":"bold","offset":621,"length":11,"data":""},{"type":"bold","offset":816,"length":24,"data":""},{"type":"handle","offset":861,"length":8,"data":"violker"},{"type":"link","offset":883,"length":15,"data":"mailto:yo@simkomat.com"},{"type":"link","offset":943,"length":24,"data":"https://simkomat.com/ru/"},{"type":"bold","offset":943,"length":24,"data":""}],"date":"2020-06-23T06:31:18+00:00","link":"tg://resolve?domain=python_jobs&post=0","tags":[{"name":"python"},{"name":"flask"},{"name":"linux"},{"name":"docker"},{"name":"git"},{"name":"gitlab"},{"name":"mongodb"},{"name":"postgresql"},{"name":"mysql"},{"name":"ssh"},{"name":"docker-compose"}],"cities":[],"allowsRemote":true}},{"node":{"__typename":"Job","id":"2240806912-1001134745498","title":"Devops инженер","text":"#вакансия #fulltime #devops #middleDevops #seniorDevOps #офис #казань #нижнийновгород \n \nDevOps инженеру предлагаем full time позицию в компании MERA. Мы работаем с крупнейшими мировыми заказчиками, лидерами в своих отраслях. В одном из наших проектов открыта вакансия devops инженера.\n\nВладеть английским достаточно для чтения и переписки. \n \nРассмотрим уровень от Middle до Senior. Зарплату предлагаем, соответственно, в зависимости от уровня. Смотрите вилку, описание офисов и контакты в конце поста. \n \nС какими технологиями мы работаем? \n! CMake\nJenkins \nGitLab CI \nPython\nGrafana \nGradle \nTerraform \nAnsible \nKubernetes \nDocker \nZabbix \nLinux \n \nМы создаём высоконагруженные системы, которыми пользуются сотни тысяч людей. \n\nОблачная телефония. Данный продукт объединяет в себе возможности телефонии, видеосвязи, организации встреч и обмен сообщениями в одном надежном, простом в использовании решении, что позволяет клиентам снижать стоимость корпоративной связи. \nЕсть архитектурные команды, есть команды разработки, swat-команда которая занимается эмерженси вещами в частности билд-системами, команды автоматизаторов. На текущий момент необходим человек, который будет заниматься билд инфраструктурой, настройкой и улучшением CI/CD. \n \nПодробнее о вакансии по теме DevOps на career.mera.ru. \n \nФормат работы: офис. \n \nГде находятся офисы: Нижний Новгород, Дзержинск и Казань. \nХороший бонус при релокации. \n \nЗанятость: полная. \n \nЗарплата: 100 на руки фикс (это средняя зарплата, предложение зависит от уровня экспертизы). \n \nНазвание компании: \nMERA, career.mera.ru \n \nКонтакты: \n@sonyadremucheva \nsonya.dremucheva@mera.com\n\n—\n\n👉 Обсуждение вакансии в чате @devops_jobs","markup":[{"type":"hashtag","offset":0,"length":9,"data":"вакансия"},{"type":"hashtag","offset":10,"length":9,"data":"fulltime"},{"type":"hashtag","offset":20,"length":7,"data":"devops"},{"type":"hashtag","offset":28,"length":13,"data":"middleDevops"},{"type":"hashtag","offset":42,"length":13,"data":"seniorDevOps"},{"type":"hashtag","offset":56,"length":5,"data":"офис"},{"type":"hashtag","offset":62,"length":7,"data":"казань"},{"type":"hashtag","offset":70,"length":15,"data":"нижнийновгород"},{"type":"link","offset":1284,"length":14,"data":"http://career.mera.ru"},{"type":"link","offset":1562,"length":14,"data":"http://career.mera.ru"},{"type":"handle","offset":1591,"length":16,"data":"sonyadremucheva"},{"type":"link","offset":1609,"length":25,"data":"mailto:sonya.dremucheva@mera.com"},{"type":"handle","offset":1669,"length":12,"data":"devops_jobs"}],"date":"2020-06-22T18:03:00+00:00","link":"tg://resolve?domain=devops_jobs_feed&post=2137","tags":[{"name":"cmake"},{"name":"jenkins"},{"name":"gitlab"},{"name":"python"},{"name":"gradle"},{"name":"ansible"},{"name":"kubernetes"},{"name":"docker"},{"name":"linux"}],"cities":[{"code":"kazan"},{"code":"dzerzhinsk"},{"code":"nizhny-novgorod"}],"allowsRemote":false}},{"node":{"__typename":"Job","id":"2239758336-1001134745498","title":"Devops инженер","text":"#вакансия #DevOps#Москва#удаленка #полнаязанятость\n180000-220000\nПривет!\nМы команда Crypterium!\nМы международный финтех стартап.\nМы строим банк будущего, который поддерживает криптофиатные операции.\nНаша цель – создание сервиса, который фактически займёт место традиционных банков, по всем возможным банковским операциям!\nУ нас сложные, но интересные задачи по созданию крутого и по-настоящему полезного продукта для людей из разных стран по всему миру. Работа у нас реальная возможность приложить руку к крутому продукту, которым будет пользоваться большое количество людей.\nНа данный момент наша компания активно растет и развивается, в связи с этим мы ищем DevOps инженера Нам нужен по-настоящему про активный и ответственный сотрудник. Задач много, они разные и крайне интересны\nЧто предстоит делать?\n•  Поддержка инфраструктуры проекта на AWS;\n•  Улучшение существующей инфраструктуры, включая масштабирование и отказоустойчивость;\n•  Мониторинг системы, анализ быстродействия и тонкая настройка;\n•  Администрирование AWS. Предоставления безопасного доступа к ресурсам хостинга;\n•  Обеспечение бесперебойной работы сервисов компании;\n•  Выбор и внедрение DevOps практик и инструментов на всех этапах работы проекта;\n•  Развертывание, мониторинг и поддержка работы облачных и dedicated сервисов компании;\n•  Оперативное реагирование и устранение инцидентов;\n•  Поддержка процесса разработки;\n•  Автоматизация рутинных задач\nКакие skils мы хотим видеть в нашем будущем коллеге?\n•  Не менее 3 лет работы с linux системами в роли системного администратора/devops инженера;\n•  Уверенное знание инфраструктуры/сервисов AWS и DO;\n•  Опыт работы (настройка и конфигурирование) с CI/CD системами (у нас TeamCity и Code Pipeline/Code Deploy с миграцией на GitLab);\n•  Умение конфигурировать Nginx (ssl, request limits, cache, headers manipulation);\n•  Опыт работы с Docker.\n•  Опыт создания отказоустойчивых распределенных серверных архитектур с высоким уровнем доступности;\n•  Навыки администрирования и оптимизации СУБД: PostgeSQL;\n•  Преимущества:\n•  Опыт работы с системами управления конфигурацией Chef, Puppet, Ansible\n•  Понимание принципов CI/CD;\n•  Понимание, как работают основные сервисы AWS.\n•  Знание Java/Kotlin;\nЧто мы можем предложить для Вас?\n•  По настоящему заряженная команда профессионалов\n•  Гибкое начало рабочего дня\n•  Возможности профессионально развиваться и расти\n\nПисать в ЛС @borisovaem\n\n—\n\n👉 Обсуждение вакансии в чате @devops_jobs","markup":[{"type":"hashtag","offset":0,"length":9,"data":"вакансия"},{"type":"hashtag","offset":34,"length":16,"data":"полнаязанятость"},{"type":"handle","offset":2400,"length":11,"data":"borisovaem"},{"type":"handle","offset":2446,"length":12,"data":"devops_jobs"}],"date":"2020-06-22T13:16:02+00:00","link":"tg://resolve?domain=devops_jobs_feed&post=2136","tags":[{"name":"amazon-web-services"},{"name":"linux"},{"name":"gitlab"},{"name":"nginx"},{"name":"ssl"},{"name":"docker"},{"name":"ansible"},{"name":"java"},{"name":"kotlin"}],"cities":[{"code":"moscow"}],"allowsRemote":true}},{"node":{"__typename":"Job","id":"26534215680-1001075660570","title":"Php разработчик","text":"#вакансия #php #удаленка #удаленно #офис #фултайм  #fulltime #msk #мск \nГде: Москва\nО нас: К50\nМы разрабатываем программные продукты в области контекстной рекламы. На рынке уже 7 лет.\nИщем коллегу, чтобы разрабатывать и развивать высоконагруженные сервисы компании.\nСтек наших технологий: \nPHP7 + Symfony + Doctrine + Composer;\nMySQL, Redis, Vertica; Jira/Confluence, Git, Gitlab;\n\nНаши требования к кандидату:\n- Опыт программирования на языке PHP от 2-х лет;\n- Опыт работы с современными MVC PHP фреймворком\n- Опыт работы с MySQL, умение писать оптимизированные SQL запросы\n- Знание основ построения высоконагруженных систем\n- Опыт работы с git\n- Опыт с Google API, Yandex API как преимущество\n\nМы со своей стороны обещаем:\n- Интересные задачи, работу с BigData\n- Актуальный стек технологий\n- Отсутствие овертаймов, спланированную работу по методикам Agile\n- Гибкий график работы\n- Полностью белая заработная плата, которая выплачивается без задержек 2 раза в месяц\n- Профессиональную команду, которая готова помочь.\n- Возможность получать обратную связь по результатам работы\n- Человечное отношение (стараемся вместе понять и помочь решить возникающие проблемы, не бросаем сотрудников на произвол судьбы)\n- Открытое и вовлеченное руководство, которое полностью отдает себя компании\n- Веселые корпоративы\n- Клуб английского языка\n\nЗарплатная вилка: 100-200 тысяч рублей в месяц на руки по результатам технического интервью\nКонтактное лицо: @brungilda_vo_tme (Кирилл), k.alekseenko@k50.ru (рабочая почта)","markup":[{"type":"hashtag","offset":0,"length":9,"data":"вакансия"},{"type":"hashtag","offset":10,"length":4,"data":"php"},{"type":"hashtag","offset":15,"length":9,"data":"удаленка"},{"type":"hashtag","offset":25,"length":9,"data":"удаленно"},{"type":"hashtag","offset":35,"length":5,"data":"офис"},{"type":"hashtag","offset":41,"length":8,"data":"фултайм"},{"type":"hashtag","offset":51,"length":9,"data":"fulltime"},{"type":"hashtag","offset":61,"length":4,"data":"msk"},{"type":"hashtag","offset":66,"length":4,"data":"мск"},{"type":"handle","offset":1441,"length":17,"data":"brungilda_vo_tme"},{"type":"link","offset":1469,"length":19,"data":"mailto:k.alekseenko@k50.ru"}],"date":"2020-06-22T12:35:16+00:00","link":"tg://resolve?domain=php_jobs&post=25305","tags":[{"name":"php"},{"name":"symfony"},{"name":"doctrine"},{"name":"mysql"},{"name":"redis"},{"name":"git"},{"name":"gitlab"},{"name":"sql"}],"cities":[{"code":"moscow"}],"allowsRemote":true}},{"node":{"__typename":"Job","id":"17109614592-1001110946746","title":"Js разработчик","text":"#вакансия #удаленно #fullstack #JavaScript #NodeJS #Vue #middle #senior\n\nГород: г. Москва, Сколково, б-р Большой\nФорма работы: удаленка\nЗанятость: полная\nЗарплатная вилка: от 120000 до 200000 рублей\nНазвание компании: ADMON\n\nВ связи с расширением штата, компания ADMON приглашает Middle/Senior Full-stack JavaScript-разработчиков, готовых стать полноценными членами нашей команды на удаленной основе или в Новосибирском офисе. ADMON – одна из ведущих российских компаний по предотвращению и расследованию мошенничества в сфере рекламы в Интернете и на мобильных устройствах с использованием высоких технологий. Основные направления деятельности компании: мониторинг и предотвращение мошенничества, аудит рекламных кампаний, разработка инновационных программных продуктов по мониторингу, обнаружению и предотвращению возникающих видов мошенничества.\n\nСтек технологий:\nNode.JS, Vue, GraphQl, Jest, Redis, Clickhouse, PostgreSQL, Docker.\n\nЧто используем в работе:\n    - Jira (Kanban), Confluence;\n   - Храним код в Gitlab, тут же CI/CD;\n    -Практикуем code review, политику частых релизов, гибкие методологии разработки;\n    -Мониторим состояние приложений с помощью: Zabbix, Grafana.\n\nВ задачи будет входить:\n    - Улучшать имеющийся функционал и разрабатывать новый (Система нотификаций, Обработка платежей, Алгоритмы атрибуции, Ads Crawler и т.д.);\n    - Писать тесты и рефакторить кодовую базу;\n    - Участвовать в принятии архитектурных решений;\n    - Работать как в составе команды, так и в одного над небольшими проектами;\n    - Участвовать в коммуникации с командой;\n    - Быть инициативным и предлагать свои идеи, в том числе, если это касается использования новых технологий — проводить code review.\n\nЧто мы предлагаем:\n    - Удаленная работа;\n    - Оформление по ТК РФ;\n    - Полностью белая ЗП;\n    -  График работы 5/2;\n    - Можно выбрать свой график работы;\n    - Наставничество по предметной области и на равной позиции;\n    - Возможность работать как в составе команды, так и возглавить со временем свое направление — мы готовы обсуждать любые ваши идеи. \n\n Контакты:@juliajudina2810\n Резюме можно присылать на почту: hr@resurs-hr.ru\n\n—\n\n👉 Обсуждение вакансии в чате @javascript_jobs","markup":[{"type":"hashtag","offset":0,"length":9,"data":"вакансия"},{"type":"hashtag","offset":10,"length":9,"data":"удаленно"},{"type":"hashtag","offset":20,"length":10,"data":"fullstack"},{"type":"hashtag","offset":31,"length":11,"data":"JavaScript"},{"type":"hashtag","offset":43,"length":7,"data":"NodeJS"},{"type":"hashtag","offset":51,"length":4,"data":"Vue"},{"type":"hashtag","offset":56,"length":7,"data":"middle"},{"type":"hashtag","offset":64,"length":7,"data":"senior"},{"type":"handle","offset":2091,"length":16,"data":"juliajudina2810"},{"type":"link","offset":2142,"length":15,"data":"mailto:hr@resurs-hr.ru"},{"type":"handle","offset":2192,"length":16,"data":"javascript_jobs"}],"date":"2020-06-22T11:12:30+00:00","link":"tg://resolve?domain=javascript_jobs_feed&post=16317","tags":[{"name":"javascript"},{"name":"nodejs"},{"name":"vuejs"},{"name":"graphql"},{"name":"redis"},{"name":"postgresql"},{"name":"docker"},{"name":"gitlab"}],"cities":[{"code":"moscow"}],"allowsRemote":true}}]}}},"context":{}}