{"hash":"f34fd2c444a074f4e0e67d525015a008ef8e766f","data":{"records":{"id":"kubernetes","name":"kubernetes","belongsTo":{"totalCount":75,"pageInfo":{"totalPages":8,"currentPage":3},"edges":[{"node":{"__typename":"Job","id":"1961885696-1001134745498","title":"Devops инженер","text":"#вакансия #remote #удаленка #kubernetes #kuber #k8s #puppet\n\nИ еще в другой команде в PulsePoint вакансия SRE (Site Reliability Engineer / можно DevOps, как угодно).\n\nРабота удаленная, фуллтайм, ЗП 5-8k USD/месяц.\n\nОбычно оплата на ИП, если есть какие-то альтернативы - они готовы обсудить, но юрлица в РФ у них нет.\nРазрабатывают различные продукты в области интернет рекламы, keywords: programmatic, SSP, RTB.\n\nГрафик работы: график с 17 до 02:00 по Мск (с 9 до 18 по NY). Час на обед.\n\nВыходные и отпуски: 21 день оплачиваемого отпуска. Не работают на американских выходных.\n\nДежурств нет. Все инциденты в нерабочее время на себя берет менеджер команды.\n\nКлючевое: Kubernetes (работает на bare metal, у них свои датацентры), Puppet (версия 4+. Чем сложнее и больше опыта, тем лучше), Linux (у них CentOS).\nОстальное: Postgres/MySQL/аналогичное, какой-нть NoSQL. Супер, если был опыт с Cassandra. Мониторинг,  ELK.\n\nВ команде много инженеров из РФ, но язык общения английский, нужно бегло говорить без проблем. Все-таки основной костяк в NY и там русскоязычные далеко не все. \n\nЕсли заинтересует или какие вопросы - @pskuzin / pk@4cv.io\n\n—\n\n👉 Обсуждение вакансии в чате @devops_jobs","markup":[{"type":"hashtag","offset":0,"length":9,"data":"вакансия"},{"type":"hashtag","offset":10,"length":7,"data":"remote"},{"type":"hashtag","offset":18,"length":9,"data":"удаленка"},{"type":"hashtag","offset":28,"length":11,"data":"kubernetes"},{"type":"hashtag","offset":40,"length":6,"data":"kuber"},{"type":"hashtag","offset":47,"length":4,"data":"k8s"},{"type":"hashtag","offset":52,"length":7,"data":"puppet"},{"type":"handle","offset":1118,"length":8,"data":"pskuzin"},{"type":"link","offset":1129,"length":9,"data":"mailto:pk@4cv.io"},{"type":"handle","offset":1173,"length":12,"data":"devops_jobs"}],"date":"2020-04-02T14:05:36+00:00","link":"tg://resolve?domain=devops_jobs_feed&post=1871","tags":[{"name":"kubernetes"},{"name":"linux"},{"name":"centos"},{"name":"postgresql"},{"name":"mysql"},{"name":"nosql"},{"name":"cassandra"}],"cities":[],"allowsRemote":true}},{"node":{"__typename":"Job","id":"1960837120-1001134745498","title":"Devops инженер","text":"#вакансия #sre #hadoop #kafka #devops #remote\n\nА я все еще ищу SRE (Site Reliability Engineer, ну или DevOps, как угодно, только без холиваров) в BigData команду для американской компании PulsePoint. \n\nРабота удаленная, фуллтайм, ЗП 6-8k USD/месяц.\n\nОбычно оплата на ИП, если есть какие-то альтернативы - они готовы обсудить, но юрлица в РФ у них нет.\nРазрабатывают различные продукты в области интернет рекламы, keywords: programmatic, SSP, RTB.\n\nГрафик работы: график с 16 до 01:00 по Мск (с 9 до 18 по NY). Час на обед. Рабочая неделя 5/2.\n\nВыходные и отпуски: 21 день оплачиваемого отпуска. Не работают по американским выходным.\n\nДежурств нет. Все инциденты в нерабочее время на себя берет менеджер команды.\n\nКлючевое: администрирование Hadoop (HDFS, Hive, Impala), Kafka.\nБудет плюсом: Kubernetes, Postgres/MySQL/аналогичное, какой-нть NoSQL. Супер, если был опыт с Cassandra. А еще с Presto + Alluxio.\n\nВ команде много инженеров из РФ, но язык общения английский, нужно бегло говорить без проблем. Все-таки основной костяк в NY и там русскоязычные далеко не все. \n\nЕсли заинтересует или какие вопросы - @pskuzin / pk@4cv.io\n\n—\n\n👉 Обсуждение вакансии в чате @devops_jobs","markup":[{"type":"hashtag","offset":0,"length":9,"data":"вакансия"},{"type":"hashtag","offset":10,"length":4,"data":"sre"},{"type":"hashtag","offset":15,"length":7,"data":"hadoop"},{"type":"hashtag","offset":23,"length":6,"data":"kafka"},{"type":"hashtag","offset":30,"length":7,"data":"devops"},{"type":"hashtag","offset":38,"length":7,"data":"remote"},{"type":"handle","offset":1109,"length":8,"data":"pskuzin"},{"type":"link","offset":1120,"length":9,"data":"mailto:pk@4cv.io"},{"type":"handle","offset":1164,"length":12,"data":"devops_jobs"}],"date":"2020-04-02T14:04:21+00:00","link":"tg://resolve?domain=devops_jobs_feed&post=1870","tags":[{"name":"hadoop"},{"name":"kafka"},{"name":"hdfs"},{"name":"hive"},{"name":"kubernetes"},{"name":"postgresql"},{"name":"mysql"},{"name":"nosql"},{"name":"cassandra"}],"cities":[],"allowsRemote":true}},{"node":{"__typename":"Job","id":"1957691392-1001134745498","title":"Devops инженер","text":"#вакансия #devops #remote\n\nГород: #Новосибирск\nформат работы: #удаленка #remote\nзанятость: #проектная #fulltime\nзарплатная вилка: 700-1000 рублей в час\n\nОписание вакансии:\n\nДобрый день!\n\nМеня зовут Матвей, менеджер проектов в компании The Invaders. Мы занимаемся заказной веб и мобильной разработкой для компаний по всему миру. Основная специализация компании это разработка Web и Mobile проектов, кроме того, в портфеле нашей компании работа с  блокчейн проектами на различных платформах (Waves, Ethereum, EOS, Corda, Hyperledger и тд.)  Наша команда разработки находится в Новосибирске, но у нас так же, на удаленной основе, работают разработчики с разных мест Земного шара.\n\nВ данный момент мы ищем колегу DevOps, который поможет нам периодически настраивать, разворачивать сервера, улучшит нашу ситуацию с CI/CD, покажет путь лучшей жизни с контейнеризацией\n\nЧем предстоит заниматься:\n\n1. Формирование Docker-образов, CI/CD сценариев\n2. Управления контейнеризованными рабочими нагрузками и сервисами (Kubernetes)\n3. Решение сетевых вопросов организации серверов\n4. Решение вопросов хранения данных\n5. Мониторинг систем, сбор, визуализация и анализ логов\n6. Взаимодействие с командой разработчиков и совместное решение задач\n\nТехнические скиллы:\n\n1.  Умение работать с Ansible\n2.  Опыт администрирования баз данных (PostgreSQL, Redis)\n3.  Опыт работы в качестве Инженера DevOps\n\nТехнологический стек:\n\n- Непосредственное взаимодействие и окружение\n\n  - Gitlab CI/CD\n  - Docker\n  - Ansible\n  - Ubuntu\n  - PostgreSQL\n  - Redis\n  - Rabbitmq\n  - Python\n  - Django\n  - Celery\n  - Nginx\n\nТак же будет очень хорошо:\n\n- Увлекаешься программированием\n- Сможешь рассказать о ревалентном опыте работы\n\nНазвание компании: The Invaders\n\nКонтакты: hr@theinvaders.pro @matteslip\n\n—\n\n👉 Обсуждение вакансии в чате @devops_jobs","markup":[{"type":"hashtag","offset":0,"length":9,"data":"вакансия"},{"type":"hashtag","offset":10,"length":7,"data":"devops"},{"type":"hashtag","offset":18,"length":7,"data":"remote"},{"type":"hashtag","offset":34,"length":12,"data":"Новосибирск"},{"type":"hashtag","offset":62,"length":9,"data":"удаленка"},{"type":"hashtag","offset":72,"length":7,"data":"remote"},{"type":"hashtag","offset":91,"length":10,"data":"проектная"},{"type":"hashtag","offset":102,"length":9,"data":"fulltime"},{"type":"link","offset":1737,"length":18,"data":"mailto:hr@theinvaders.pro"},{"type":"handle","offset":1756,"length":10,"data":"matteslip"},{"type":"handle","offset":1801,"length":12,"data":"devops_jobs"}],"date":"2020-04-02T06:34:20+00:00","link":"tg://resolve?domain=devops_jobs_feed&post=1867","tags":[{"name":"web"},{"name":"mobile"},{"name":"docker"},{"name":"kubernetes"},{"name":"ansible"},{"name":"postgresql"},{"name":"redis"},{"name":"gitlab"},{"name":"ubuntu"},{"name":"rabbitmq"},{"name":"python"},{"name":"django"},{"name":"nginx"}],"cities":[{"code":"novosibirsk"}],"allowsRemote":true}},{"node":{"__typename":"Job","id":"1954545664-1001134745498","title":"Devops engineer","text":"#вакансия #devops \nВакансия: DevOps Engineer\nГород: San Jose, Costa Rica\nФормат работы: удаленка\nЗанятость: полная\nЗарплата: 2000 EUR/месяц\n\nОбязанности\nПроектирование, построение, поддержка и развитие в эксплуатации:\n- высокодоступной инфраструктуры в рамках нескольких датацентров (на базе Kubernetes);\n- инструментов жизненного цикла проектов (Docker-образы, CI/CD сценарии, баг-трекеры, инструменты сборки);\n- систем распределенного мониторинга, логирования, трасcировки;\n- распределенных баз данных, файловых хранилищ, шин событий.\n\nТребования:\n- богатый опыт работы с контейнеризацией и Kubernetes (Docker, rkt, CRI), написания Helm-чартов;\n- богатый опыт администрирования Linux, написания shell-скриптов, работы с systemd;\n- умение работать с Ansible;\n- опыт администрирования баз данных (MySQL, PostgreSQL, Redis, Cassandra, ClickHouse, и т.д.);\n- опыт эксплуатации распределенных систем логирования, мониторинга, трассировки (Fluentd, Prometheus, ElasticSearch, Kibana, Grafana, Zipkin, и т.д.);\n- опыт работы с Grafana;\n- владение языками программирования (что-то из Python, Go, Rust, Java, PHP);\n- хорошее понимание фундаментальных основ PKI, DNS, TLS, SSH, OSI, Linux;\n- технический английский;\n- наличие широкого Интернет-канала и Skype.\n\nУсловия:\n- удаленная работа (не фриланс);\n- полная занятость;\n- зарплата 2000 EUR/мес.;\n- возможен переезд за границу.\n\nКанал нашей компании https://t.me/TRlogik\nРезюме присылайте сюда @trlogic\n\n—\n\n👉 Обсуждение вакансии в чате @devops_jobs","markup":[{"type":"hashtag","offset":0,"length":9,"data":"вакансия"},{"type":"hashtag","offset":10,"length":7,"data":"devops"},{"type":"link","offset":1394,"length":20,"data":"https://t.me/TRlogik"},{"type":"handle","offset":1438,"length":8,"data":"trlogic"},{"type":"handle","offset":1481,"length":12,"data":"devops_jobs"}],"date":"2020-04-01T20:19:12+00:00","link":"tg://resolve?domain=devops_jobs_feed&post=1864","tags":[{"name":"kubernetes"},{"name":"docker"},{"name":"linux"},{"name":"shell"},{"name":"ansible"},{"name":"mysql"},{"name":"postgresql"},{"name":"redis"},{"name":"cassandra"},{"name":"elasticsearch"},{"name":"python"},{"name":"rust"},{"name":"java"},{"name":"php"},{"name":"dns"},{"name":"ssh"}],"cities":[{"code":"san-jose"}],"allowsRemote":true}},{"node":{"__typename":"Job","id":"1952448512-1001134745498","title":"Devops engineer","text":"DevOps engineer\n#вакансия #DevOps #fulltime \nВакансия: DevOps engineer\nКомпания: ДОМ.РФ ООО «Цифровые технологии»\nГород: Санкт-Петербург. ст.м. Василеостровская, БЦ Сенатор\nФормат работы: #офис\nЗанятость: #полная\nЗарплата : от 150 до 180 т.р. net\nКто мы:\nIT-компания \"Цифровые технологии\" была образована марте 2019 г. в рамках ГК ДОМ.РФ - финансового института развития в жилищной сфере.\nНаша миссия состоит в том, чтобы покрывать потребность в разработке собственных продуктов для всей группы компаний.\nОдин из самых перспективных наших проектов - это ВИТРИНА недвижимости. Сейчас это сайт с информацией о всех новостройках страны. Следом туда добавится много разных сервисов, которые позволят вывести сделку по покупке жилья в онлайн. Проект продолжительный и очень амбициозный.\nТебе предстоит:\n•  Поддержка ETL процессов;\n•  Участие в процессах внедрения ПО;\n•  Администрирование операционных систем *nix и общесистемного ПО;\n•  Развертывание и конфигурирование стендов под различные нужды;\n•  Решение возникающих проблем, устранение нештатных ситуаций;\n•  Участие в разработке конструкторской и эксплуатационной документации;\n•  Формирование требований к системе резервного копирования. \nЗдорово если у тебя есть:\n•  Знание серверной операционной системы Linux;\n•  Уверенное понимание принципов работы сетей TCP/IP: адресация, маршрутизация, стек протоколов, сетевые топологии, принципы работы VLAN, VPN, DNS, DHCP;\n•  Практический опыт автоматизации управления средами с применением docker, Kubernetes, ansible;\n•  Практический опыт разработки технологической или эксплуатационной документации;\n•  Практический опыт конфигурирования систем хранения данных (желательно);\n•  Практический опыт конфигурирования и администрирования общесистемного ПО: системы виртуализации, СУБД (PostgreSQL), серверы приложений, системы обработки сообщений, средства мониторинга и управления, elastic search;\nМы предлагаем:\n•  Комфортный офис в центре Санкт-Петербурга;\n•  Работа в высокопрофессиональной и эффективной команде, постоянное развитие;\n•  Конкурентный компенсационный пакет (ежеквартальная премия, ДМС, компенсация расходов на фитнес-абонемент до 20 т.р. в год);\n•  Амбициозный проект.\nЕсли ты молодой, амбициозный, идейный специалист - будем рады пригласить тебя на встречу и расскажем о возможностях работы с нами🥇\n✍️ ЛС @polipropilenka\n\n—\n\n👉 Обсуждение вакансии в чате @devops_jobs","markup":[{"type":"hashtag","offset":16,"length":9,"data":"вакансия"},{"type":"hashtag","offset":26,"length":7,"data":"DevOps"},{"type":"hashtag","offset":34,"length":9,"data":"fulltime"},{"type":"link","offset":81,"length":6,"data":"http://ДОМ.РФ"},{"type":"hashtag","offset":188,"length":5,"data":"офис"},{"type":"hashtag","offset":205,"length":7,"data":"полная"},{"type":"link","offset":331,"length":6,"data":"http://ДОМ.РФ"},{"type":"handle","offset":2323,"length":15,"data":"polipropilenka"},{"type":"handle","offset":2373,"length":12,"data":"devops_jobs"}],"date":"2020-04-01T14:15:31+00:00","link":"tg://resolve?domain=devops_jobs_feed&post=1862","tags":[{"name":"dotnet"},{"name":"linux"},{"name":"dns"},{"name":"docker"},{"name":"kubernetes"},{"name":"ansible"},{"name":"postgresql"},{"name":"elasticsearch"}],"cities":[],"allowsRemote":false}},{"node":{"__typename":"Job","id":"1405091840-1001091028994","title":"Java разработчик","text":"Вакансия: #java #spring #hibernate \nКомпания: #MTS\nЛокация: #Санкт-Петербург #Горьковская\nФормат работы: #работавофисе + иногда возможно удаленно работать\n✔️ЗП: 140-180 net (в замисимости от знаний и опыта)\nКонтакт: @alina_katkova почта: avkatko2@mts.ru\n\nВ рамках реализации платформы по обеспечению контроля, наблюдаемости и безопасности API (API gateway) ищем в команду Java разработчика.\n\nЦель продукта — предоставить командам средство управления жизненным циклом API и контроль передаваемых данных в соответствии с требованиями безопасности.\nЧто нужно делать: \n- Заниматься разработкой компонентов обработки и управления трафиком HTTP/S (веб-сервисы);\n- Реализовывать правила управления жизненным циклом API (Rest/SOAP);\n- Участвовать в разработке архитектуры и согласовании сценариев использования продукта.\nНаш стек:\n- Spring (boot, MVC, JPA), Hibernate, Liquibase;\n- Java 8 - 11;\n- Java 8 (Collections, I/O);\n- Multithreading (synchronization, java.util.concurrent);\n- PostgreSQL;\n- RabbitMQ;\n- Hazelcast;\n- Netflix (eureka, zuul, microservices);\n- ElasticSearch;\n- Docker;\n- Kubernetes;Git;\n- Maven;\n- Linux.\nУсловия:\n-штат, все по ТК РФ\n-премия 20% от годового оклада сверху\n-соц.пакет\n-удаленка на время карантина :)","markup":[{"type":"hashtag","offset":10,"length":5,"data":"java"},{"type":"hashtag","offset":16,"length":7,"data":"spring"},{"type":"hashtag","offset":24,"length":10,"data":"hibernate"},{"type":"hashtag","offset":46,"length":4,"data":"MTS"},{"type":"hashtag","offset":60,"length":6,"data":"Санкт"},{"type":"hashtag","offset":77,"length":12,"data":"Горьковская"},{"type":"hashtag","offset":105,"length":13,"data":"работавофисе"},{"type":"handle","offset":216,"length":14,"data":"alina_katkova"},{"type":"link","offset":238,"length":15,"data":"mailto:avkatko2@mts.ru"},{"type":"bold","offset":546,"length":16,"data":""},{"type":"bold","offset":813,"length":10,"data":""},{"type":"bold","offset":1117,"length":7,"data":""}],"date":"2020-04-01T06:15:37+00:00","link":"tg://resolve?domain=jvmjobs&post=1340","tags":[{"name":"java"},{"name":"jvm"},{"name":"spring"},{"name":"hibernate"},{"name":"dotnet"},{"name":"rest"},{"name":"soap"},{"name":"jpa"},{"name":"postgresql"},{"name":"rabbitmq"},{"name":"elasticsearch"},{"name":"docker"},{"name":"kubernetes"},{"name":"git"},{"name":"maven"},{"name":"linux"},{"name":"spring-boot"}],"cities":[],"allowsRemote":true}},{"node":{"__typename":"Job","id":"1404043264-1001091028994","title":"Java разработчик","text":"Вакансия: #Java #TeamLead                                           \nКомпания: #Утконос                                                                  \nЛокация: #Москва                                                                         \nЗ/п: 320 000 Net                                                                             \nКонтакт: @RecruiterTatianaK                                                   \nJava TeamLead в Утконос Онлайн\n📍Наш проект:\nВ компании разрабатывается комплексная система по управлению складом. Систему пишем сами «с нуля», на микросервисной архитектуре\n📍Что нужно делать?   \nУправление командой разработки   \nРазработка алгоритмов по оптимизации хранения и комплектации                                                                                       \nУчастие в проработке архитектурных решений                   \n📍Наш стек:\n Java 11, Spring 5, Kubernetes, ELK, Grafana, Prometheus, Kafka                                                                                               \n📍Что предлагаем?                                                                        \nОформление по ТК РФ, ДМС   \nГибкий график                                                                     \nКорпоративные скидки на utkonos.ru, tui.ru, фитнес, кино и др.                                                                                      \nОфис - 10 минут  от м. Краснопресненская/ м.Улица 1905 года","markup":[{"type":"hashtag","offset":10,"length":5,"data":"Java"},{"type":"hashtag","offset":16,"length":9,"data":"TeamLead"},{"type":"hashtag","offset":79,"length":8,"data":"Утконос"},{"type":"hashtag","offset":163,"length":7,"data":"Москва"},{"type":"handle","offset":347,"length":18,"data":"RecruiterTatianaK"},{"type":"link","offset":1254,"length":10,"data":"http://utkonos.ru"},{"type":"link","offset":1266,"length":6,"data":"http://tui.ru"}],"date":"2020-03-31T21:26:33+00:00","link":"tg://resolve?domain=jvmjobs&post=1339","tags":[{"name":"java"},{"name":"jvm"},{"name":"dotnet"},{"name":"spring"},{"name":"kubernetes"},{"name":"kafka"}],"cities":[{"code":"moscow"}],"allowsRemote":false}},{"node":{"__typename":"Job","id":"1948254208-1001134745498","title":"Devops инженер","text":"#вакансия #DevОps #Network\nГород и адрес офиса: #москва \nФормат работы: #удаленка\nЗанятость: #полная \nЗарплатная вилка: от 200 до 300 т.р. на руки\n\nFreedomFi строит частные LTE-сети с использованием commodity-оборудования, программного обеспечения с открытым исходным кодом и CBRS. Компания ищет опытных DevOps/Network инженеров для участия в проекте по разработке распределенной packet core сети с открытым исходным кодом под названием Magma. Нам предстоит совместная работа в тесном сотрудничестве с внешними контрибьюторами из таких организаций, как Facebook Connectivity, Eurocom, AmDocs, Rakuten.\nБез чего ты не сможешь работать у нас:\nАнглийский язык на разговорном уровне.\nМинимум 1 год опыта работы с Kubernetes (K8s), Docker.\nРасширенные знания в сетях LAN / WAN.\nОпыт Автоматизации от 2 лет (Bash, Ansible, Puppet, helm).\nЗнание архитектуры ОС Linux.\nХорошее понимание спецификации архитектуры 3GPP 5G SA, связанных компонентов и интерфейсов.\nПрактический опыт работы с протоколами стека 3GPP: HSS, AAA-Swx, Diameter, PCRF / PCEF, OCS, GGSN, Gx, Gy.\nWi-Fi AP, WAC, AGW, Радиусная аутентификация, Аутентификация, EAP-AKA, EAP-SIM \nЧто предстоит делать:\nРазвертывание и эксплуатация сред контейнеризации: K8s, Docker.\nРазработка Helm Charts и скриптов автоматизации для автоматического развертывания различных микросервисов в рамках проекта Magma (Access Gateway, Federation Gateway, Orchestrator и т. Д.) в облачной инфраструктуре на основе Kubernetes.\nУсловия: скидка на изучение английского языка, 3 дополнительных отгула в год, гибкое начало дня (до 9-10 вечера для общения с американским Заказчиком)\nКонтакт: @bystrova_ak\n\n—\n\n👉 Обсуждение вакансии в чате @devops_jobs","markup":[{"type":"hashtag","offset":0,"length":9,"data":"вакансия"},{"type":"hashtag","offset":10,"length":7,"data":"DevОps"},{"type":"hashtag","offset":18,"length":8,"data":"Network"},{"type":"hashtag","offset":48,"length":7,"data":"москва"},{"type":"hashtag","offset":72,"length":9,"data":"удаленка"},{"type":"hashtag","offset":93,"length":7,"data":"полная"},{"type":"handle","offset":1622,"length":12,"data":"bystrova_ak"},{"type":"handle","offset":1669,"length":12,"data":"devops_jobs"}],"date":"2020-03-31T15:18:32+00:00","link":"tg://resolve?domain=devops_jobs_feed&post=1858","tags":[{"name":"kubernetes"},{"name":"docker"},{"name":"bash"},{"name":"ansible"},{"name":"linux"},{"name":"ms-access"}],"cities":[{"code":"moscow"}],"allowsRemote":true}},{"node":{"__typename":"Job","id":"1402994688-1001091028994","title":"Java разработчик","text":"#java #Moscow #Tallin\n\nГород: Москва (возможна релокация в Эстонию через 3 месяца)\nФормат работы/занятость: Офис / полная/ Сейчас удаленка\nЗарплатная вилка: 200 000- 300 000 руб на руки \nКомпания: РА  Clever Recruiting\n\nДрузья, есть отличная вакансия Java Developer (Middle/Senior) в Москве, для тех кто:\n •хочет участвовать в создании приложений для здоровья людей, которыми будут пользоваться юзеры по всему миру\n •готов работать в международной компании в команде с разработчиками из других стран\n •желает развиваться в сфере AI и Machine Vision\n •любит высокую степень самостоятельности и автономности и готов принимать решения вплоть до выбора технологического стека\n •ищет стабильную компанию с демократичной атмосферой, гибким графиком работы, и возможностью частично удаленной работы\n \nПроект: создание SaaS платформы для диагностики проблем с кожей и разработки рекомендации для ухода за кожей, с использованием алгоритмов искусственного интеллекта и машинного зрения.\n \nСтек: Java, Spring Boot, PostgreSQL, Maven, Docker, Kubernetes, AWS, GCP, Azure\n \nТребования:\n •Опыт коммерческой разработки на Java от2 лет с использованием Spring Frameworks\n •Знание классических алгоритмов и структур данных\n •Английский - Upper-Intermediate level\n •Опыт работы с облаками будет преимуществом\n \nУсловия:\nЗарплата 200-300К рублей на руки, все по ТК\nГибкий график работы, возможность частично- удаленной работы\nОфис в Москве в 5 мин ходьбы от м. Нахимовский проспект\n\nконтакты:@Marina_Pelikh\nm.chetverikova@clever-recruiting.com","markup":[{"type":"hashtag","offset":0,"length":5,"data":"java"},{"type":"hashtag","offset":6,"length":7,"data":"Moscow"},{"type":"hashtag","offset":14,"length":7,"data":"Tallin"},{"type":"handle","offset":1474,"length":14,"data":"Marina_Pelikh"},{"type":"link","offset":1489,"length":36,"data":"mailto:m.chetverikova@clever-recruiting.com"}],"date":"2020-03-31T12:57:14+00:00","link":"tg://resolve?domain=jvmjobs&post=1338","tags":[{"name":"java"},{"name":"jvm"},{"name":"spring"},{"name":"postgresql"},{"name":"maven"},{"name":"docker"},{"name":"kubernetes"},{"name":"amazon-web-services"},{"name":"google-cloud-platform"},{"name":"azure"},{"name":"spring-boot"}],"cities":[{"code":"moscow"}],"allowsRemote":true}},{"node":{"__typename":"Job","id":"1947205632-1001134745498","title":"Devops инженер","text":"#вакансия #moscow #alfa\nИнженер DevOps\nКомпания: Альфа-Лизинг \nСайт: https://alfaleasing.ru/\nГород: Москва м. Профсоюзная \nЗанятость: полная, в н. в. удаленка. Рассматриваем кандидатов только из г. Москва или релокация\n💰ЗП: 150 - 220\n\nЗадачи:\n✅Лидировать направление DevOps, встать у истоков и сделать все правильно.\n✅Разворачивать dev/stage/production в k8s;\n✅Выстраивать процессы CI/CD;\n✅Поддерживать тулзы для команд разработки;\n✅Настраивать мониторинг;\n✅Развивать инфраструктурные сервисы. \n\n💎Требования:\nОпыт администрирования OC Linux;\nОпыт поддержки production окружений в kubernetes;\nЗнать принципы работы баз данных и распределенных систем хранения и обработки данных;\nЗнание и понимание принципов инфраструктура как сервис и как код;\n\n💻Хорошо если знакомы с:\nKubernetes; Docker; Postgresql; Helm; Gitlab; HashiStack; Mongodb;Prometheus; ELK; Grafana; Vault; Istio\n\nДетали: @ifrolova_13\n\n—\n\n👉 Обсуждение вакансии в чате @devops_jobs","markup":[{"type":"hashtag","offset":0,"length":9,"data":"вакансия"},{"type":"hashtag","offset":10,"length":7,"data":"moscow"},{"type":"hashtag","offset":18,"length":5,"data":"alfa"},{"type":"link","offset":69,"length":23,"data":"https://alfaleasing.ru/"},{"type":"handle","offset":886,"length":12,"data":"ifrolova_13"},{"type":"handle","offset":933,"length":12,"data":"devops_jobs"}],"date":"2020-03-31T09:20:29+00:00","link":"tg://resolve?domain=devops_jobs_feed&post=1857","tags":[{"name":"linux"},{"name":"kubernetes"},{"name":"docker"},{"name":"postgresql"},{"name":"gitlab"},{"name":"mongodb"}],"cities":[{"code":"moscow"}],"allowsRemote":true}}]}}},"context":{}}