{"hash":"f34fd2c444a074f4e0e67d525015a008ef8e766f","data":{"records":{"id":"russia/moscow","belongsTo":{"totalCount":234,"pageInfo":{"totalPages":24,"currentPage":8},"edges":[{"node":{"__typename":"Job","id":"85074116608-1001067529236","title":"Python разработчик","text":"#python #вакансия #backend #Москва #офис #fulltime\n\nВсем привет! \nМеня зовут Эля, помогаю усилить талантливыми Python разработчиками продуктовую команду, \nразрабатывающую девайсы на основе голосовых и речевых технологий .\nВ команде открыто несколько направлений:\nРазработка приложений для девайсов.\nСоздание платформы для разных поставщиков данных.\nРазработка сценариев для виртуального ассистента.\nРазработка системы метрик.\nРазработка инструментов для сервиса синтеза и распознавания речи.\nРазработка NLP платформы.\nВсего ищем 7-8 разработчиков строго с опытом на Python 3 и использованием алгоритмов,\nдля увеличения производительности в работе. Опыт интересен от года и выше, позиции от джуна до лида. \n\nЗп от 100 до 350 тыр целковых + широчайший соц пакет (ДМС, обучение, конференции, спортзал с сауной в офисе и еще много интересного).\nРабота СТРОГО В ОФИСЕ (NDA) на м. Кутузовский проспект, удаленка только на время карантина... \n\nДетали буду рада обсудить в личке или по тел +7 965 314 45 43","markup":[{"type":"hashtag","offset":0,"length":7,"data":"python"},{"type":"hashtag","offset":8,"length":9,"data":"вакансия"},{"type":"hashtag","offset":18,"length":8,"data":"backend"},{"type":"hashtag","offset":27,"length":7,"data":"Москва"},{"type":"hashtag","offset":35,"length":5,"data":"офис"},{"type":"hashtag","offset":41,"length":9,"data":"fulltime"},{"type":"link","offset":982,"length":16,"data":"tel:+7 965 314 45 43"}],"date":"2020-04-08T07:08:31+00:00","link":"tg://resolve?domain=python_jobs&post=0","tags":[{"name":"python"},{"name":"nlp"}],"cities":[{"code":"moscow"},{"code":"lida"}],"allowsRemote":true}},{"node":{"__typename":"Job","id":"98197045248-1001089317451","title":"Qa engineer","text":"#вакансия #москва #офис #qaengineer #ios #qa \nГород и адрес офиса: Москва, м.Автозаводская \nФормат работы: офис \nЗанятость: полная \nЗарплатная вилка: от 60 000 до 100 000 на руки \n\n✅QA Engineer (iOS App)\n\nОписание вакансии: \n\nМы - успешная команда из 100 человек, которая занимается: \n• разработкой собственных мобильных игр и приложений \n• паблишингом мобильных игр \n• рекламой и маркетингом мобильных приложений (реклама на Facebook, Google и т.д.) \nЗа последние 3 года мы привлекли более 100 млн пользователей в наши собственные мобильные приложения и приложения наших клиентов и партнеров, потратив на это более $80 млн. \nИщем себе мобильного QA-engineer.\n\n✅Что делать:\n-Писать тест кейсы и чек листы.\n-Вручную тестировать iOS приложение (категория Health & Fitness) - новые фичи, UI, регресс.\n-Заводить баги в трекере (Trello), показывать их разработчикам.\n\n✅Требования:\n-Опыт тестирования не игровых iOS приложений от 1 года.\n-Уметь работать с Charles (или аналогом).\n-Желание делать красивые, интересные и популярные приложения.\n\n✅Для вас:\n-Необходимое оборудование для работы, включая стопку тестовых iPhone-ов.\n-Конкурентная заработная плата, выплачивается 2 раза в месяц\n-Возможность набрать команду и выстроить всю работу под себя в краткосрочной перспективе\n-Оформление по ТК РФ, оплачиваемые больничные, 28 дней оплачиваемого отпуска в год\n-Возможны регулярные бонусы по результатам работы проектов\n-Собеседование с лицом принимающим решение\n\n✅О нас:\n-Просторный офис 600 метров на м. Автозаводская (3 минуты от метро и от ТТК на машине) с ультра современным дизайном и кучей ништяков (кухня с вкусняшками, кальяны каждый вечер в дружной кампании, PS4 Pro + 4K TV, аркадные автоматы с Pac-Man, Metal Slug и другими хитами геймдизайна, просторная зона отдыха, 5 переговорных комнат и т д)\n-Команда из 100 человек занимающаяся паблишингом и маркетингом, готовая сделать продукт успешным после его готовности\n-Возможность обучаться английскому языку с носителями каждый будний день по утрам\n-Менторы и инвесторы, создавшие большое количество успешных IT компаний (оборот в 2018 году более 140 млн долларов)\n-Присоединяйтесь к нашей команде уже сегодня!Название компании: AppQuantum\n\nКонтакты: \ne-mail: bm@adquantum.com\ntelegram: @MishaBarinov","markup":[{"type":"hashtag","offset":0,"length":9,"data":"вакансия"},{"type":"hashtag","offset":10,"length":7,"data":"москва"},{"type":"hashtag","offset":18,"length":5,"data":"офис"},{"type":"hashtag","offset":24,"length":11,"data":"qaengineer"},{"type":"hashtag","offset":36,"length":4,"data":"ios"},{"type":"hashtag","offset":41,"length":3,"data":"qa"},{"type":"link","offset":2212,"length":16,"data":"mailto:bm@adquantum.com"},{"type":"handle","offset":2239,"length":13,"data":"MishaBarinov"}],"date":"2020-04-08T07:03:28+00:00","link":"tg://resolve?domain=qa_jobs&post=93648","tags":[{"name":"qa"},{"name":"ios"}],"cities":[{"code":"moscow"}],"allowsRemote":false}},{"node":{"__typename":"Job","id":"98195996672-1001089317451","title":"Qa инженер","text":"#вакансия #москва #fulltime #фуллтайм #офис #тестировщик #qa \n\nОнлайн-кинотеатр ivi\nТестлид команды backend \nот 140 т.р. на руки \n\nОбязанности:\n• Управление командой тестирования, обучение;\n• Внедрение локальных процедур, техник, регламентов в области QA;\n• Тестирование нового и существующего функционала;\n• Участие в автоматизации процессов тестирования.\n\nТребования:\n• Опыт в тестировании от 3х лет;\n• Опыт руководства командой тестирования от 1 года;\n• Опыт работы с REST API, SQL;\n• Знания и навыки в области автоматизации тестирования;\n• Опыт автоматизации python/bash будет плюсом.\n\nУсловия:\n• Офис в 5 минутах ходьбы от м. \"Дмитровская\";\n• У нас гибкий график, мы начинаем до 11 часов дня;\n• Трудоустройство по ТК РФ;\n• ДМС + стоматология после прохождения испытательного срока;\n• Подписка на ivi;\n• Пакет релокации для соискателей со всей России.\n\nПишите @daria144, на почту dsereda@ivi.ru или откликайтесь здесь https://hh.ru/vacancy/35356764","markup":[{"type":"hashtag","offset":0,"length":9,"data":"вакансия"},{"type":"hashtag","offset":10,"length":7,"data":"москва"},{"type":"hashtag","offset":18,"length":9,"data":"fulltime"},{"type":"hashtag","offset":28,"length":9,"data":"фуллтайм"},{"type":"hashtag","offset":38,"length":5,"data":"офис"},{"type":"hashtag","offset":44,"length":12,"data":"тестировщик"},{"type":"hashtag","offset":57,"length":3,"data":"qa"},{"type":"bold","offset":63,"length":46,"data":""},{"type":"bold","offset":131,"length":13,"data":""},{"type":"bold","offset":358,"length":12,"data":""},{"type":"bold","offset":590,"length":9,"data":""},{"type":"handle","offset":864,"length":9,"data":"daria144"},{"type":"link","offset":884,"length":14,"data":"mailto:dsereda@ivi.ru"},{"type":"link","offset":922,"length":30,"data":"https://hh.ru/vacancy/35356764"}],"date":"2020-04-08T06:55:54+00:00","link":"tg://resolve?domain=qa_jobs&post=93647","tags":[{"name":"qa"},{"name":"rest"},{"name":"sql"},{"name":"python"},{"name":"bash"}],"cities":[{"code":"moscow"}],"allowsRemote":false}},{"node":{"__typename":"Job","id":"16209936384-1001110946746","title":"Js разработчик","text":"#вакансия #javascript #nodejs #typescript #frontend #middle\n\nКомпания: #Mетрквадратный https://m2.ru\nЛокация: #москва м.Белорусская\nФормат работы: офис\nЗанятость: полная\nЗ/п: 200к - 260к руб. на руки\nКонтакты: @maxdmitrov\n\nЭто платформа, на которой физические лица смогут в режиме одного окна подобрать объект недвижимости, оформить на него ипотеку, произвести электронную регистрацию, сделать безопасный расчет не посещая банки и воспользоваться дополнительными услугами (страхование, дизайн, ремонт). \n\nЧем предстоит заниматься:\n\n•  разрабатывать один из продуктов жилищной экосистемы;\n•  прорабатывать задачи с начального этапа (декомпозиция, проработка архитектуры, демо с владельцем продукта);\n•  проводить код ревью;\n•  покрывать код unit тестами, помогать тестировщикам в написании e2e тестов;\n•  оптимизировать рендеринг и скорость загрузки страниц;\n•  разрабатывать продуктовые компоненты, используя общие UI библиотеки, и помогать в развитии этих библиотек.\n\nЧего мы ждем:\n\n• Javascript(ES6);\n• React + MobX/Redux;\n• HTML;\n• CSS;\n• Опыт кроссбраузерной верстки.\n\nБудет плюсом:\n\n• TypeScript;\n• Знание протокола HTTP/HTTPS, websockets, опыт работы с REST API;\n• Опыт работы с react native;\n• Опыт в бекэнде на различных языках программирования;\n• Опыт профилирования, оптимизации и рефакторинга кода;\n• Опыт написания тестов.\n\nМы используем: \n\n•  TypeScript + React + MobX + Gatsby;\n•  NestJS + gRPC + ProtoBuf (мидл-слой, управляющий UI и обращающийся к API бэк-энда);\n•  Micro Frontend Service;\n•  GitLab (CI/CD);\n•  Yarn + Lerna;\n•  Webpack/Rollup.\n\nМы предлагаем: \n\n•  Современный стек технологий;\n•  Возможность влиять на архитектуру и сразу видеть результат своей работы;\n•  Белая конкурентная ЗП, официальное оформление;\n•  Гибкий график работы, возможность выбора рабочего оборудования;\n•  ДМС, компенсация фитнеса, льготная ставка по ипотеке;\n•  Комфортный офис в БЦ «Белая площадь» (минута от метро): лаундж-зоны, бариста, фрукты.","markup":[{"type":"hashtag","offset":0,"length":9,"data":"вакансия"},{"type":"hashtag","offset":10,"length":11,"data":"javascript"},{"type":"hashtag","offset":22,"length":7,"data":"nodejs"},{"type":"hashtag","offset":30,"length":11,"data":"typescript"},{"type":"hashtag","offset":42,"length":9,"data":"frontend"},{"type":"hashtag","offset":52,"length":7,"data":"middle"},{"type":"hashtag","offset":71,"length":15,"data":"Mетрквадратный"},{"type":"link","offset":87,"length":13,"data":"https://m2.ru"},{"type":"hashtag","offset":110,"length":7,"data":"москва"},{"type":"handle","offset":210,"length":11,"data":"maxdmitrov"}],"date":"2020-04-07T18:36:46+00:00","link":"tg://resolve?domain=javascript_jobs_feed&post=15459","tags":[{"name":"javascript"},{"name":"nodejs"},{"name":"typescript"},{"name":"reactjs"},{"name":"redux"},{"name":"html"},{"name":"css"},{"name":"rest"},{"name":"gitlab"},{"name":"webpack"},{"name":"react-native"}],"cities":[{"code":"moscow"}],"allowsRemote":false}},{"node":{"__typename":"Job","id":"16208887808-1001110946746","title":"Js разработчик","text":"Город:  Москва, м. Киевская\nФормат работы: офис, а также возможность работать удаленно\nЗанятость: полная\nЗарплатная вилка: 100 000-150 000 руб.\n\nРазыскиваем Фронтенд-разработчика (JS, React, SPA)\n#Москва #вакансия  #JavaScript #JS #React #удаленка #fulltime #фронтенд\n\nИщем коллегу в сформировавшуюся команду разработки крупных и технологически сложных сайтов. Наши проекты начинаются с идеи и заканчиваются эксплуатацией, поддержкой. Действительно полезные сервисы с приличной посещаемостью. \n\nМЫ ПРЕДЛАГАЕМ:\n-Работу в небольшом сплоченном коллективе, высокую скорость коммуникации, минимум бюрократии;\n-Оформление в соответствии с ТК РФ или договор с ИП;\n-Программу профессионального роста сотрудников, компенсацию курсов, семинаров;\n-Офис м. Киевская, а также возможность работать удаленно или частично удаленно.\n-Рабочий ноутбук, мобильный телефон, комфортное рабочее место;\nБОНУСЫ: \nГибкий график работы.\nВозможность быть причастным к крупным интересным проектам, которые не стыдно показать в портфолио и хороший опыт работы в команде.\n\nОЖИДАЕМ ОТ ВАС:\n-Отличное знание и опыт разработки на JavaScript;\n-Хорошее знание React (или других похожих фреймворков)\n-Опыт работы с инструментами командной разработки: Git, таск-трекер (используем YouTrack);\n-Понимание клиент-серверного взаимодействия, архитектуры REST;\n-Умение слышать коллег, находить лучшие решения задач;\n-Умение адекватно оценивать сложность задач, соблюдать сроки;\n-Понимание методологии БЭМ, знание HTML и CSS, разумеется;\nБУДЕТ ПЛЮСОМ\nОпыт работы с API картографических сервисов;\nОпыт разработки Single Page Application;\nЗнакомство с шаблонизатором Twig, опыт разработки фронтенда под Symfony-приложения;\n\nНазвание компании: KR Digital https://kr.digital/about/ \nКонтакты: Елена @HRechubakina","markup":[{"type":"hashtag","offset":196,"length":7,"data":"Москва"},{"type":"hashtag","offset":204,"length":9,"data":"вакансия"},{"type":"hashtag","offset":215,"length":11,"data":"JavaScript"},{"type":"hashtag","offset":227,"length":3,"data":"JS"},{"type":"hashtag","offset":231,"length":6,"data":"React"},{"type":"hashtag","offset":238,"length":9,"data":"удаленка"},{"type":"hashtag","offset":248,"length":9,"data":"fulltime"},{"type":"hashtag","offset":258,"length":9,"data":"фронтенд"},{"type":"link","offset":1707,"length":25,"data":"https://kr.digital/about/"},{"type":"handle","offset":1750,"length":13,"data":"HRechubakina"}],"date":"2020-04-07T18:36:35+00:00","link":"tg://resolve?domain=javascript_jobs_feed&post=15458","tags":[{"name":"javascript"},{"name":"reactjs"},{"name":"git"},{"name":"rest"},{"name":"html"},{"name":"css"},{"name":"twig"},{"name":"symfony"}],"cities":[{"code":"moscow"},{"code":"kiev"}],"allowsRemote":true}},{"node":{"__typename":"Job","id":"1979711488-1001134745498","title":"Devops инженер","text":"#вакансия #DevOps #Москва\nФормат: #fulltime #office #remote\nЗарплатная вилка: 170 000 - 230 000\n\n#aurigajob для DevOps инженера в проект по разработке и внедрению автоматизированного сервиса взаимодействия учетных систем заказчика (преимущественно на базе SAP) и налоговой службы. Заказчик - крупная и (что сейчас особенно важно😉 ) стабильная компания в нефтегазовой сфере. \n\n✅ На проекте вас ждет:\n-  Создание, настройка и поддержка инфраструктуры решения :\nLinux (Red Hat, CentOs, Debian, AstraLinux) – установка, настройка, сопровождение\nNginx – установка, настройка\nPostgreSql – установка, настройка, тюнинг (репликация, шардирование, бэкапирование, отказоустойчивый кластер)\nAnsible – разработка и сопровождение скриптов развертывания\nGit Lab CI – установка, настройка, настройка пайплайнов сборки и развертывания\nTarantool – установка, сопровождение\nPrometheus, Grafana – мониторинг\nELK\n-  Участие в проектировании технической архитектуры решения\n- Настройка и сопровождение конвейера CI/CD\n- Исследование и выбор подходящих для системы инфраструктурных компонентов\n- Расчет сайзинга системы под требования заказчика\n- Оптимизация производительности\n \n✴️ Мы предлагаем:        \n- На время режима самоизоляции - удаленка, потом в период испытательного срока офис на м. Аэропорт, а дальше как вам больше нравится. \n- Заработную плату, выплачиваемую день-в-день, и ежегодные индексации.\n- Бесплатное обучение английскому языку, возможно, в режиме скайп-групп от внутреннего преподавателя, упор на разговорную практику.\n- Хорошая корпоративная программа ДМС со стоматологией, скорой помощью, вызовом врача на дом и льготным подключением родственников в лучших клиниках региона.\n- Один из плюсов аутсорсинговой компании - это множество интересных проектов и современных технологий. Нам важно, чтобы наши сотрудники находили себе проект по душе.\n- Мы очень ценим наш коллектив, микроклимат и домашнюю атмосферу.\n\n👍Нам нужен инженер сейчас, оформляем по ТК РФ удаленно, обмениваемся документами с помощью курьера.\n\nСмело пиши, если даже просто спросить :-) \n@Maria_Auriga\n\n—\n\n👉 Обсуждение вакансии в чате @devops_jobs","markup":[{"type":"hashtag","offset":0,"length":9,"data":"вакансия"},{"type":"hashtag","offset":10,"length":7,"data":"DevOps"},{"type":"hashtag","offset":18,"length":7,"data":"Москва"},{"type":"hashtag","offset":34,"length":9,"data":"fulltime"},{"type":"hashtag","offset":44,"length":7,"data":"office"},{"type":"hashtag","offset":52,"length":7,"data":"remote"},{"type":"hashtag","offset":97,"length":10,"data":"aurigajob"},{"type":"handle","offset":2059,"length":13,"data":"Maria_Auriga"},{"type":"handle","offset":2107,"length":12,"data":"devops_jobs"}],"date":"2020-04-07T16:22:31+00:00","link":"tg://resolve?domain=devops_jobs_feed&post=1888","tags":[{"name":"linux"},{"name":"centos"},{"name":"debian"},{"name":"nginx"},{"name":"postgresql"},{"name":"ansible"},{"name":"git"}],"cities":[{"code":"moscow"}],"allowsRemote":true}},{"node":{"__typename":"Job","id":"98158247936-1001089317451","title":"Qa инженер","text":"#вакансия #fulltime #тестировщик #QA #Manual #полнаязанятость #офис\nГород: #Москва\nКомпания: Инновационный Центр Айтеко\nПозиция: Тестировщик РФТ ( ручное функциональное тестирование)\nОпыт: от 1 года и выше\nФормат работы: офис\nЗанятость: полный день\n💰 Заработная плата: от 100 000 до 150 000 (в зависимости от опыта)\n\nАй-Теко - ведущий российский системный интегратор и поставщик информационных технологий для корпоративных заказчиков. ТОП-10 крупнейших IT-компаний России.\n\nЧто хотим видеть в кандидате:\n• Опыт функционального или интеграционного тестирования web-приложений (frontend & backend)\n• Опыт по написанию тест-кейсов \n• Опыт работы с требованиями\n• Опыт работы с таск и баг-трекинговыми системами (Jira)\n• Опыт тестирования API\n• Знание SQL на уровне join-ов и работы с вложенными подзапросами\n• Познания в теории тестирования, процессов и методологий разработки ПО\n\nБудет плюсом:\n• Знание и опыт разработки автотестов на Selenium (Java) или web-driver или  cucumber\n• Знание и опыт работы с HP QuickTest Professional;\n• Понимание одного из языков программирования (Java, C++).\n\nЧто предлагаем:\n• Полностью белое официальное оформление\n• Бонусы обсуждаются индивидуально\n• ДМС включая стоматологию\n• Скидки на фитнес\n• Обучение\n• Возможность участвовать в масштабных проектах, создавать то, чем будут пользоваться миллионы людей.\n\nПишите:\n @Taisia_Feo   Анастасия","markup":[{"type":"hashtag","offset":0,"length":9,"data":"вакансия"},{"type":"hashtag","offset":10,"length":9,"data":"fulltime"},{"type":"hashtag","offset":20,"length":12,"data":"тестировщик"},{"type":"hashtag","offset":33,"length":3,"data":"QA"},{"type":"hashtag","offset":37,"length":7,"data":"Manual"},{"type":"hashtag","offset":45,"length":16,"data":"полнаязанятость"},{"type":"hashtag","offset":62,"length":5,"data":"офис"},{"type":"hashtag","offset":75,"length":7,"data":"Москва"},{"type":"handle","offset":1352,"length":11,"data":"Taisia_Feo"}],"date":"2020-04-07T15:49:52+00:00","link":"tg://resolve?domain=qa_jobs&post=93611","tags":[{"name":"qa"},{"name":"web"},{"name":"sql"},{"name":"selenium"},{"name":"java"},{"name":"cucumber"}],"cities":[{"code":"moscow"}],"allowsRemote":false}},{"node":{"__typename":"Job","id":"1425014784-1001091028994","title":"Java разработчик","text":"#java #вакансия #Москва #fulltime #middle #senior \nГород и адрес офиса: Москва, между метро Нагатинская и Тульская, мцк Верхние котлы \nФормат работы: офис\nЗанятость: полная\nОплата: 180-300 тыс. рублей\n\nОписание вакансии:\nКоманда Sber Product Catalog  ищет сильного Java-разработчика!🙌\nПроект Product Catalog-это облачное решение, которое позволяет бизнесу вести все свои продукты (карты, вклады, продукты партнеров и и.п) в едином месте, гибко управлять всеми элементами 4P (product,price, promotion, place) и мгновенно выводить все изменения на рынок. Архитектура системы состоит из 11 модулей, половина из них в Production, другая половина требует проектирования и разработки. Продукт активно развивается, поэтому мы хотим усилить нашу команду. От нас вы получите опыт и развитие компетенций, амбициозные задачи, карьерный рост и открытость к инновациям!\nСтек: Spring core/Security/Batch/Rest/HateOAS, ABACUSES,BPM,Versioning, Hibernate Envers/ORM/OGM, Apache Kafka, Jasper reports, Oracle/PostgreeSQL.\nПроцесс разработки : Scrum, Jira, Gitflow,Devops до Production (переход на OpenShift)\n-Оформление ТК РФ;\n     -ДМС;\n     - Белая заработная плата (оклад + годовая премия);\n     -Возможность обучения за счет компании;\n     -   Льготное кредитование;\n      -Бесплатный тренажерный зал на территории офиса;\n       - корпоративная жизнь и спортивные мероприятия;\n       -возможность карьерного роста.\n\nЖдём Вас в нашей команде!\n@TaliaHR","markup":[{"type":"hashtag","offset":0,"length":5,"data":"java"},{"type":"hashtag","offset":6,"length":9,"data":"вакансия"},{"type":"hashtag","offset":16,"length":7,"data":"Москва"},{"type":"hashtag","offset":24,"length":9,"data":"fulltime"},{"type":"hashtag","offset":34,"length":7,"data":"middle"},{"type":"hashtag","offset":42,"length":7,"data":"senior"},{"type":"handle","offset":1430,"length":8,"data":"TaliaHR"}],"date":"2020-04-07T14:08:33+00:00","link":"tg://resolve?domain=jvmjobs&post=1359","tags":[{"name":"java"},{"name":"jvm"},{"name":"spring"},{"name":"batch"},{"name":"rest"},{"name":"hibernate"},{"name":"orm"},{"name":"apache"},{"name":"kafka"},{"name":"oracle"}],"cities":[{"code":"moscow"}],"allowsRemote":false}},{"node":{"__typename":"Job","id":"1978662912-1001134745498","title":"Devops engineer","text":"#вакансия #DevOps #fulltime\nВакансия: DevOps engineer / Системный администратор\nКомпания: Sl-Tech\nГород: Москва, метро Маяковская\nФормат работы: офис\nЗанятость: полная\nЗарплата : от 100 до 170 т.р. net\nО компании:\nSL Tech – компания, которая управляет портфелем проектов, предназначенных как для потребителей, так и для партнеров - поставщиков услуг в высокотехнологичных областях.\nКомпания родилась в 2006 году как часть группы SEALINE, в которую также входит страховой и перестраховочный брокер SEALINE, входящий в ТОП-10 страховых брокеров РФ.\nМы создаем современные IT-решения для бизнеса и жизни, помогая выстраивать коммуникацию между поставщиками и потребителями услуг. Своим партнерам мы предлагаем готовые решения, которые позволяют расширить возможности существующего бизнеса и получить дополнительный доход.\nSL Tech не просто разрабатывает продукты, отвечающие современным запросам партнеров и их клиентов, но и влияет непосредственно на формирование новых сегментов рынка\nТебе предстоит:\n- Развитие и поддержка сервисов компании\n- Управление инфраструктурой компании\n- Автоматизация развертывания\n- Мониторинг\n- Сбор и анализ логов\n- Организация непрерывного функционирования сервисов, резервное копирование\nЧто нужно уметь:\n- Администрирование Linux (Ubuntu)\n- От 3-х лет опыта администрирования веб-сервисов работающих на Linux\n- Опыт использования и настройки системы Gitlab\n- Знания систем Docker Swarm, Kubernetes\n- Настройка, репликация PostgreSQL\n- Работы с системами автоматизации (Ansible, Chef и т.п.), мониторинга (Zabbix, Prometheus), сбора и анализа логов (ELK, ClickHouse)\n- Умение читать код на Python\n- Желание работать в команде\nМы предлагаем:\n• Оформление по ТК РФ\n• Полностью белая зп;\n• Уровень зп обсуждается индивидуально (в соответствии с вашим уровнем и ожиданиями) ЗП вилка 100-170 тыс.руб.\n• ДМС (после испытательного срока 3 месяца)\n• Офис в центре (5 минут от м.Маяковская)\n• Чай, кофе, печеньки\n• Адекватное руководство\n• Весёлая, сильная команда\nКонтакт: @SanDevl\n\n—\n\n👉 Обсуждение вакансии в чате @devops_jobs","markup":[{"type":"hashtag","offset":0,"length":9,"data":"вакансия"},{"type":"hashtag","offset":10,"length":7,"data":"DevOps"},{"type":"hashtag","offset":18,"length":9,"data":"fulltime"},{"type":"handle","offset":1997,"length":8,"data":"SanDevl"},{"type":"handle","offset":2040,"length":12,"data":"devops_jobs"}],"date":"2020-04-07T13:49:27+00:00","link":"tg://resolve?domain=devops_jobs_feed&post=1887","tags":[{"name":"dotnet"},{"name":"linux"},{"name":"ubuntu"},{"name":"gitlab"},{"name":"docker"},{"name":"kubernetes"},{"name":"postgresql"},{"name":"ansible"},{"name":"python"}],"cities":[{"code":"moscow"}],"allowsRemote":false}},{"node":{"__typename":"Job","id":"1977614336-1001134745498","title":"Devops инженер","text":"#вакансия #devops \nГород и адрес офиса: #москва ул. Барклая, 6, стр. 5\nФормат работы: #офис\nЗанятость: #полная #fulltime \nЗарплатная вилка: от 220 до 260 т.р. на руки\nНаша компания ищет сильного инженера, обладающего большим бэкграундом в DevOps, который бы занял ключевую техническую роль в развитии данного направления и стал бы лидером нашего центра компетенций по DevOps. Мы ожидаем, что кандидат разделяет принципы философии DevOps и является экспертом с большим техническим кругозором в данной области.\nТебе предстоит:\nРазвивать центр компетенций DevOps в компании, проводить RnD, обучать коллег, участвовать в найме DevOps-инженеров и SRE.\nУчаствовать в пресейловых активностях: проработка, планирование и оценка внедряемых решений.\nВнедрять DevOps решения, включающих такие области, как автоматизация процессов сборки и развертывания систем, автоматизированное тестирование, мониторинг и менеджмент релизов.\nУстанавливать и настраивать инструменты DevOps.\nПодготавливать документацию по проектам и внедрению DevOps решений.\nБез чего ты не сможешь работать у нас: Наличие в портфолио успешно завершенных проектов по внедрению DevOps инструментов и методологии.\nОпыт работы в роли DevOps-инженера не менее 3х лет.\nОпыт системного администрирования Linux/Unix, Windows не менее 2х лет.\nОпыт работы с серверной виртуализацией (VMWare, KVM, Xen, etc.).\nОпыт работы с инструментами управления конфигурациями (Ansible или Puppet, Chef).\nОпыт настройки CI и CD (Jenkins, Gitlab CI, Teamcity), понимание плюсов и минусов данных инструментов.\nЗнание идеологии и инструментов infrastructure as code.\nОпыт работы с системами контейнерной виртуализации (Docker, Docker Swarm).\nОпыт развития и поддержки средств мониторинга инфраструктуры и сервисов (Prometheus, Zabbix, Grafana).\nХорошее знание Git, включая стратегии ветвления и слияния (Git-Flow).\nБонусы и дополнительные условия: 3 дополнительных отгула в год; корпоративный английский язык; настольный футбол, гибкое начало дня.\nНазвание компании: Перфоманс Лаб \nКонтакты: @bystrova_ak / a.bystrova@pflb.ru\n\n—\n\n👉 Обсуждение вакансии в чате @devops_jobs","markup":[{"type":"hashtag","offset":0,"length":9,"data":"вакансия"},{"type":"hashtag","offset":10,"length":7,"data":"devops"},{"type":"hashtag","offset":40,"length":7,"data":"москва"},{"type":"hashtag","offset":86,"length":5,"data":"офис"},{"type":"hashtag","offset":103,"length":7,"data":"полная"},{"type":"hashtag","offset":111,"length":9,"data":"fulltime"},{"type":"handle","offset":2022,"length":12,"data":"bystrova_ak"},{"type":"link","offset":2037,"length":18,"data":"mailto:a.bystrova@pflb.ru"},{"type":"handle","offset":2090,"length":12,"data":"devops_jobs"}],"date":"2020-04-07T13:04:24+00:00","link":"tg://resolve?domain=devops_jobs_feed&post=1886","tags":[{"name":"linux"},{"name":"unix"},{"name":"windows"},{"name":"ansible"},{"name":"jenkins"},{"name":"gitlab"},{"name":"docker"},{"name":"git"}],"cities":[{"code":"moscow"}],"allowsRemote":false}}]}}},"context":{}}