{"hash":"f5f6bf98bd95e769321482904cbbd488f77922fd","data":{"records":{"id":"junit","name":"junit","belongsTo":{"totalCount":25,"pageInfo":{"totalPages":3,"currentPage":3},"edges":[{"node":{"__typename":"Job","id":"1701838848-1001091028994","title":"Java developer","text":"#вакансия  #удаленка #Java #Spring #senior #middle #backend\nЛокация: #регион \nФормат работы: #fulltime #удаленка\nЗ/п: 80-160 NET\nВакансия: Java developer (senior,middle)\nКомпания: X5 Retail Group\nКонтакты: @CatProgramist\nТребования:\n- отличное понимание Java Core, Collections, Multithreading, transaction API\n- Spring\n- Hibernate, JDBC\n- SOAP\n- REST\n- Maven, Gradle\n- ActiveMQ\n- Git\n- *nix\nНаш целевой стек: Java 11+, Spring Boot, Spring Cloud, Netflix, PostgreSQL.  \nРаботаем в окружении CI/CD на GitLab, Apache Maven, Jira, Confluence (сейчас переписывают на этом стеке)\nСтарый стек проекта: Java 8, Spring Core, Spring Security, TBI (ORM), PostgreSQL, SQL, Jasper, Swing, XML, Jetty Embedded, Junit, Mockito, PowerMock, JBehave, maven, gradle, Jenkins, Gitlab, Sonar, REST, RMI, Git, CI/CD\nУсловия:\nУдаленка\nОфициальное трудоустройство и оформление полностью согласно ТК РФ\nДополнительная медицинская страховка (ДМС) – после испытательного срока","markup":[{"type":"hashtag","offset":0,"length":9,"data":"вакансия"},{"type":"hashtag","offset":11,"length":9,"data":"удаленка"},{"type":"hashtag","offset":21,"length":5,"data":"Java"},{"type":"hashtag","offset":27,"length":7,"data":"Spring"},{"type":"hashtag","offset":35,"length":7,"data":"senior"},{"type":"hashtag","offset":43,"length":7,"data":"middle"},{"type":"hashtag","offset":51,"length":8,"data":"backend"},{"type":"hashtag","offset":69,"length":7,"data":"регион"},{"type":"hashtag","offset":93,"length":9,"data":"fulltime"},{"type":"hashtag","offset":103,"length":9,"data":"удаленка"},{"type":"handle","offset":206,"length":14,"data":"CatProgramist"}],"date":"2020-06-17T08:02:57+00:00","link":"tg://resolve?domain=jvmjobs&post=1623","tags":[{"name":"java"},{"name":"jvm"},{"name":"spring"},{"name":"dotnet"},{"name":"hibernate"},{"name":"jdbc"},{"name":"soap"},{"name":"rest"},{"name":"maven"},{"name":"gradle"},{"name":"git"},{"name":"cloud"},{"name":"postgresql"},{"name":"gitlab"},{"name":"apache"},{"name":"orm"},{"name":"sql"},{"name":"swing"},{"name":"xml"},{"name":"jetty"},{"name":"junit"},{"name":"jenkins"},{"name":"spring-boot"},{"name":"spring-security"}],"cities":[],"allowsRemote":true}},{"node":{"__typename":"Job","id":"1697644544-1001091028994","title":"Java разработчик","text":"#java #javascript #middle #senior\nКомпания: #kode \nЛокация: #калининград\nЗ/п: от 100К руб\nКонтакты: @Nadia_Rudometova\n \nKODE – компания мобильной разработки, которая закрепилась в ТОП-10 лучших студий и постоянно улучшает свои позиции. Мы выступаем технологическими партнёрами бизнеса, помогая заказчику развивать их digital-сервисы. \n\nЧто нужно делать?\n-Декомпозировать, планировать и оценивать задачи;\nУчаствовать в проектировании сложных систем с чистого листа;\n-Проектировать архитектуру веб-сервисов и REST API;\n-Реализовывать сложные интеграции с различными системами (GDS, банкинг, ритейл, биллинг и т.д.);\n-Покрывать свой код тестами;\n-Сопровождать и документировать архитектурные решения по своим проектам;\n-Взаимодействовать с участниками проектной команды для реализации лучших решений\n\nЧто нужно уметь?\n-Отличные знания Java;\n-Знания Spring и Spring Boot, Groovy;\n-Опыт работы c Kafka;\n-Умение использовать различные инструменты для тестирования кода и приложений различной сложности: JUnit, Spock, Testcontainers, Mockito, Hamcrest;\n-Опыт работы с SQL и NoSQL СУБД;\nЗнание принципов и шаблонов проектирования;\n-Уверенные знания о работе unix-систем. Любовь к ним и умение с ними работать;\n-Умение работать с Docker, docker-compose;\n\nЧто предлагаем?\n-Официальное оформление по ТК;\n-Работа в продуктовой команде, используя современный стек разработки;\n-Возможность влиять на развитие проекта и компании;\n-Корпоративы в Европе","markup":[{"type":"hashtag","offset":0,"length":5,"data":"java"},{"type":"hashtag","offset":6,"length":11,"data":"javascript"},{"type":"hashtag","offset":18,"length":7,"data":"middle"},{"type":"hashtag","offset":26,"length":7,"data":"senior"},{"type":"hashtag","offset":44,"length":5,"data":"kode"},{"type":"hashtag","offset":60,"length":12,"data":"калининград"},{"type":"handle","offset":100,"length":17,"data":"Nadia_Rudometova"}],"date":"2020-06-16T14:47:56+00:00","link":"tg://resolve?domain=jvmjobs&post=1619","tags":[{"name":"java"},{"name":"jvm"},{"name":"javascript"},{"name":"rest"},{"name":"spring"},{"name":"groovy"},{"name":"kafka"},{"name":"junit"},{"name":"sql"},{"name":"nosql"},{"name":"unix"},{"name":"docker"},{"name":"spring-boot"},{"name":"docker-compose"}],"cities":[{"code":"kaliningrad"}],"allowsRemote":false}},{"node":{"__typename":"Job","id":"102946045952-1001089317451","title":"Qa инженер","text":"#вакансия #москва #qa_auto #android #swift  #kotlin #java #tinkoff\n\n📣Команда автоматизированного тестирования Тинькофф ищет талантливого коллегу, готового взяться за решение нетривиальных задач.\n\nЕсли у тебя есть: \n✔️опыт автоматизации тестирования мобильных приложений;\n✔️высокий уровень владения языком программирования (Java/Kotlin или Swift);\n✔️опыт работы с фреймворками тестирования (JUnit/TestNG или XCTest);\n✔️опыт настройки CI/CD;\n✔️и желание развиваться в сфере, тестирования,\nмы ждем тебя в команду автоматизации Tinkoff.ru!\n\nЗ/п от 100 до 200 т.р. на руки.\n\n✏️По вопросам сотрудничества пиши:\nTelegram @galcian\nE-mail g.barsukova@tinkoff.ru","markup":[{"type":"hashtag","offset":0,"length":9,"data":"вакансия"},{"type":"hashtag","offset":10,"length":7,"data":"москва"},{"type":"hashtag","offset":18,"length":8,"data":"qa_auto"},{"type":"hashtag","offset":27,"length":8,"data":"android"},{"type":"hashtag","offset":36,"length":6,"data":"swift"},{"type":"hashtag","offset":44,"length":7,"data":"kotlin"},{"type":"hashtag","offset":52,"length":5,"data":"java"},{"type":"hashtag","offset":58,"length":8,"data":"tinkoff"},{"type":"link","offset":511,"length":24,"data":"https://www.tinkoff.ru/career/vacancies/testirovanie/qa-automation-engineer-ios-android/"},{"type":"handle","offset":615,"length":8,"data":"galcian"},{"type":"link","offset":631,"length":22,"data":"mailto:g.barsukova@tinkoff.ru"}],"date":"2020-06-16T10:15:14+00:00","link":"tg://resolve?domain=qa_jobs&post=0","tags":[{"name":"qa"},{"name":"android"},{"name":"swift"},{"name":"kotlin"},{"name":"java"},{"name":"junit"}],"cities":[{"code":"moscow"}],"allowsRemote":false}},{"node":{"__typename":"Job","id":"102940803072-1001089317451","title":"Qa инженер","text":"#QAинженервакансия #QAjava #автотестыjava #QAМосква #вакансияМосква #middle \nДобрый день! В настоящий момент нахожусь в поисках QА-инженера для международной аутсорсинговой компании на проект банковской сферы.\nМестоположение: Москва, м. Кутузовская, либо Нагатинская\nОплата труда: 130-160.000 рублей\nФункциональные задачи;\n•  Анализ требований\n•  Разработка автотестов на Java + Selenium\n•  Актуализация автотестов\n•  Анализ ошибок\n•  Формирование отчетов\nТребования:\n•  Опыт разработки на Java + Selenium от 2-х лет\n•  Знание инструмента Maven\n•  Знание Junit и Allure\n•  Знание XML\n•  Знание SQL (MS SQL, Oracle)\n•  Опыт работы с Git, JenkinS\n•  Опыт работы с Bug Tracking Systems (Jira, Redmine)\n•  Опыт работы с линейкой HP ALM\n•  Знание BDD (Cucumber)\nУсловия:\n•  Конкурентная заработная плата\n•  Оформление в соответствии с ТК РФ, соц. пакет\n•  Работа в команде профессионалов\n•  Обучение, наставничество в процессе работы\nБуду рада ответить на Ваши вопросы: @LyKatrin, ekaterina706712@mail.ru\n\n•","markup":[{"type":"hashtag","offset":0,"length":18,"data":"QAинженервакансия"},{"type":"hashtag","offset":19,"length":7,"data":"QAjava"},{"type":"hashtag","offset":27,"length":14,"data":"автотестыjava"},{"type":"hashtag","offset":42,"length":9,"data":"QAМосква"},{"type":"hashtag","offset":52,"length":15,"data":"вакансияМосква"},{"type":"hashtag","offset":68,"length":7,"data":"middle"},{"type":"handle","offset":965,"length":9,"data":"LyKatrin"},{"type":"link","offset":976,"length":23,"data":"mailto:ekaterina706712@mail.ru"}],"date":"2020-06-16T09:14:53+00:00","link":"tg://resolve?domain=qa_jobs&post=0","tags":[{"name":"qa"},{"name":"java"},{"name":"selenium"},{"name":"maven"},{"name":"junit"},{"name":"xml"},{"name":"sql"},{"name":"oracle"},{"name":"git"},{"name":"jenkins"},{"name":"cucumber"}],"cities":[{"code":"moscow"}],"allowsRemote":false}},{"node":{"__typename":"Job","id":"1678770176-1001091028994","title":"Java разработчик","text":"#вакансия #java #senior #middle\nКомпания: #сбербанктехнологии #сбертех\nЛокация: #москва\nЗП: 180-270 + премии\nКонтакты: @okashchenko, kashchenko.o.bor@sberbank.ru\n\nМы - современная инженерная компания, продолжаем расти и развиваться. Активно ищем Java разработчиков уровня middle и senior в связи с расширением команды для Образовательной платформы - SaaS решения для автоматизации обучения в средних школах. Разработка началась марте 2019, сейчас дорабатываем функционал и создаём фичи.\n\n  Требования:\n· Знание Java 8+ (хорошее знание core, collections), Spring IoC 4-5, от 2х лет\n· Системы сборки maven или gradle\n· Опыт использования jUnit/TestNG\n· БД: jdbc, SQL(лучше PostgresQL) на уровне написания средних запросов\n· VCS: опыт работы с git в команде\n· Опыт командной разработки\n\n  Очень желательно:\n· Умение работать с linux command line, писать минимальные bash-скрипты.\n· Понимание оптимизации SQL-запросов\n· Опыт разработки промышленных микросервисных приложений\n· Опыт работы со SpringBoot, MongoDB, Docker/Kubernetes\n\n  Наши условия:\n· Конкурентная «белая» заработная плата (оклад + премии)\n· Профессиональный и зарплатный рост\n· Интересные, сложные, амбициозные задачи, молодая и сильная команда профессионалов\n· Обучение за счет компании в Корпоративном университете\n· Льготная ипотека от Сбербанка, ДМС\n· Страхование от несчастных случаев\n· Тренажерный зал\n\nБуду рада обсудить вакансию и ответить на ваши вопросы!","markup":[{"type":"hashtag","offset":0,"length":9,"data":"вакансия"},{"type":"hashtag","offset":10,"length":5,"data":"java"},{"type":"hashtag","offset":16,"length":7,"data":"senior"},{"type":"hashtag","offset":24,"length":7,"data":"middle"},{"type":"hashtag","offset":42,"length":19,"data":"сбербанктехнологии"},{"type":"hashtag","offset":62,"length":8,"data":"сбертех"},{"type":"hashtag","offset":80,"length":7,"data":"москва"},{"type":"handle","offset":119,"length":12,"data":"okashchenko"},{"type":"link","offset":133,"length":28,"data":"mailto:kashchenko.o.bor@sberbank.ru"}],"date":"2020-06-15T07:12:16+00:00","link":"tg://resolve?domain=jvmjobs&post=1601","tags":[{"name":"java"},{"name":"jvm"},{"name":"spring"},{"name":"maven"},{"name":"gradle"},{"name":"junit"},{"name":"jdbc"},{"name":"sql"},{"name":"postgresql"},{"name":"git"},{"name":"linux"},{"name":"bash"},{"name":"mongodb"},{"name":"docker"},{"name":"kubernetes"}],"cities":[{"code":"moscow"}],"allowsRemote":false}}]}}},"context":{}}