{"hash":"f5f6bf98bd95e769321482904cbbd488f77922fd","data":{"records":{"id":"vuejs","name":"vuejs","belongsTo":{"totalCount":82,"pageInfo":{"totalPages":9,"currentPage":7},"edges":[{"node":{"__typename":"Job","id":"17013145600-1001110946746","title":"Js разработчик","text":"#вакансия\nГород и адрес офиса: Москва \nФормат работы: удаленка\nЗанятость: полная\nЗарплатная вилка:  от 80 000 до 150 000руб net\nОписание вакансии: Требования - миддл, опыт от 3х лет\nCSS3, HTML5, JavaScript\nVue.js второй версии\nwebpack\nопыт в работе с REST или GraphQL\nумение верстать или писать JS код с учетом возможностей IE11\nуверенное использование Git\nНазвание компании: в платформу WikiVote\nКонтакты: @irensergeeva\n\n—\n\n👉 Обсуждение вакансии в чате @javascript_jobs","markup":[{"type":"hashtag","offset":0,"length":9,"data":"вакансия"},{"type":"handle","offset":407,"length":13,"data":"irensergeeva"},{"type":"handle","offset":455,"length":16,"data":"javascript_jobs"}],"date":"2020-06-17T15:23:09+00:00","link":"tg://resolve?domain=javascript_jobs_feed&post=0","tags":[{"name":"javascript"},{"name":"dotnet"},{"name":"css"},{"name":"html"},{"name":"vuejs"},{"name":"webpack"},{"name":"rest"},{"name":"graphql"},{"name":"git"}],"cities":[{"code":"moscow"}],"allowsRemote":true}},{"node":{"__typename":"Job","id":"17004756992-1001110946746","title":"Js разработчик","text":"MIDDLE FRONTEND DEVELOPER\n#вакансия #Москва #Vue.js #javascript #vanilla.js #frontend\nКомпания-резидент Сколково в поиске FRONTEND DEVELOPER (Middle). \nMedpoint24 (https://medpoint24.ru/#about) - бурно развивающаяся компания, предоставляющая программное обеспечение и оборудование для автоматизированного проведения медицинских осмотров водителей. \nОфис в г. Москва, 7 мин от м. Марьина Роща/м. Савёловская \nФормат: фулл-тайм (гибкое начало рабочего дня), в офисе, оформление полностью по ТК. \nЗ/П - от 130 000net - 160 000net \nКоманда из 20 человек: разработчики (фронт, бэк, фуллстак), техлид, тестировщики, системный аналитик, DevOps инженер. \nЧТО ДЕЛАТЬ: \n-Разработка клиентской части web-приложений\n-Поддержка и рефакторинг существующего front-end\n-Участие в разработке архитектуры web-приложений\n-Принятие участия в тестировании web-приложений\nТРЕБОВАНИЯ: \n- Опыт от 1,5-2 года по направлению Frontend\n-Знание Vanilla.js, Vue.js 2.0, html 5, css 3, Javascript ES6 и выше\n-Понимание принципов Клиент-серверной архитектуры, REST, СКВ (git), *NIX систем\nПишите смело по всем вопросам: \nТелега:@hr_orlik\nПочта: v.orlik@medpoint24.ru\n\n—\n\n👉 Обсуждение вакансии в чате @javascript_jobs","markup":[{"type":"hashtag","offset":26,"length":9,"data":"вакансия"},{"type":"hashtag","offset":36,"length":7,"data":"Москва"},{"type":"hashtag","offset":44,"length":4,"data":"Vue"},{"type":"hashtag","offset":52,"length":11,"data":"javascript"},{"type":"hashtag","offset":64,"length":8,"data":"vanilla"},{"type":"hashtag","offset":76,"length":9,"data":"frontend"},{"type":"link","offset":164,"length":28,"data":"https://medpoint24.ru/#about"},{"type":"handle","offset":1096,"length":9,"data":"hr_orlik"},{"type":"link","offset":1113,"length":21,"data":"mailto:v.orlik@medpoint24.ru"},{"type":"handle","offset":1169,"length":16,"data":"javascript_jobs"}],"date":"2020-06-17T15:15:44+00:00","link":"tg://resolve?domain=javascript_jobs_feed&post=0","tags":[{"name":"javascript"},{"name":"vuejs"},{"name":"dotnet"},{"name":"web"},{"name":"html"},{"name":"css"},{"name":"rest"},{"name":"git"}],"cities":[{"code":"moscow"}],"allowsRemote":false}},{"node":{"__typename":"Job","id":"17000562688-1001110946746","title":"Js разработчик","text":"#вакансия #frontend #teamlead #Москва #офис #JS #fulltime\n\nГород и адрес офиса: Москва, м. Новокузнецкая/Павелецкая\nФормат работы: #офис\nЗанятость: #полная\nЗП: от 200к до 350к руб. нетт\n\nSports.ru – провайдер развлечений для любителей спорта.\nЕсть спорт. Есть болельщики. Мы заполняем среду между ними, оживляем ее, наполняем общением и другими развлечениями. Мы делаем не «сайты» или «приложения», а мультиплатформенные продукты, с учетом актуальной технологической парадигмы.\n\nСейчас нашему флагманскому проекту Sports.ru нужен Frontend Team Lead. Это – главное медиа о спорте на русском языке с аудиторией 18 млн пользователей в месяц. Highload-проект с десятками тысяч RPS, состоящий из самых разных продуктов – сайтов, мобильных приложений, email-рассылок, чат-ботов и многого другого.\n\nПроекту уже более 20-ти лет, но двадцатилетнего кода вы тут не увидите, хотя со старым наследием [handlebars на сервере + js-компоненты на самописном фреймворке на клиенте] все же придется столкнуться. Все новые фичи мы делаем на Vue.js + SSR.\n\nО задачах:\nМы ищем человека, который будет не только заниматься руководством и развитием frontend-команды и участвовать в распределении задач и планировании. [Сейчас в команде 5 разработчиков +/- middle уровня.]\n\nМы рассчитываем, что наш team lead будет самостоятельно разрабатывать сложные фичи, будет ответственным за принятие архитектурных решений на проекте и будет лидировать процесс переезда на новый стек.\n\nО наших ожиданиях:\nМы ожидаем, что вы в качестве team lead’a имеете успешный опыт управления командой frontend-разработки: умеете выстраивать процессы, нанимать, увольнять и растить людей.\nВ качестве разработчика умеете работать с git, понимаете принципы работы сборщиков (webpack, rollup), имеете опыт работы с одним из современных js-фреймворков (Vue, React), умеете и любите писать тесты.\n\nОб условиях:\nПросторный стильный офис возле м. Новокузнецкая/Третьяковская.\n“Белая” заработная плата.\nБесплатная медстраховка со стоматологией после испытательного срока.\nГибкий график работы с возможностью день-два в неделю работать удаленно.\nФрукты, снеки, чай, кофе, какао 24/7.\nКорпоративная скидка в спортзал и на занятия английским языком.\nКорпоративный футбол с тренером.\nФинансовая помощь при переезде из другого города.\nВозможности для профессионального развития (сложные задачи, новые технологии, оплата обучающих курсов и конференций, помощь в развитии персонального бренда (участие в конференциях, написание статей).\n\nНазвание компании: Sports.ru (Tribuna Digital)\nКому интересно, пишите в личку (@pbuyatova), рада буду поделиться подробностями :)\n\n—\n\n👉 Обсуждение вакансии в чате @javascript_jobs","markup":[{"type":"hashtag","offset":0,"length":9,"data":"вакансия"},{"type":"hashtag","offset":10,"length":9,"data":"frontend"},{"type":"hashtag","offset":20,"length":9,"data":"teamlead"},{"type":"hashtag","offset":30,"length":7,"data":"Москва"},{"type":"hashtag","offset":38,"length":5,"data":"офис"},{"type":"hashtag","offset":44,"length":3,"data":"JS"},{"type":"hashtag","offset":48,"length":9,"data":"fulltime"},{"type":"hashtag","offset":131,"length":5,"data":"офис"},{"type":"hashtag","offset":148,"length":7,"data":"полная"},{"type":"link","offset":187,"length":9,"data":"http://Sports.ru"},{"type":"link","offset":514,"length":9,"data":"http://Sports.ru"},{"type":"link","offset":2493,"length":9,"data":"http://Sports.ru"},{"type":"handle","offset":2553,"length":10,"data":"pbuyatova"},{"type":"handle","offset":2638,"length":16,"data":"javascript_jobs"}],"date":"2020-06-17T15:09:55+00:00","link":"tg://resolve?domain=javascript_jobs_feed&post=0","tags":[{"name":"javascript"},{"name":"vuejs"},{"name":"git"},{"name":"webpack"},{"name":"reactjs"}],"cities":[{"code":"moscow"}],"allowsRemote":true}},{"node":{"__typename":"Job","id":"16997416960-1001110946746","title":"Js разработчик","text":"#вакансия \"Front-end разработчик\" г.Нур-Султан (Астана)\nПредлагаемая заработная плата 300 000 – 500 000 KZT на руки.\n🔹Информация о Работодателе:\nКазахстанская IT компания. Инновационный продукт компании успешно существует на рынке более 4 лет и насчитывает более 500 пользователей по всему Казахстану.\nМы ищем человека, который будет вовлечен в разработку данной информационной системы на длительное время.\n🔹Обязанности:\n• Разработка frontend-части проекта; \n• Доработка существующих версий проектов; \n• Проектирование пользовательских интерфейсов; \n• Кроссбраузерная и адаптивная верстка HTML5/CSS3; \n• Полное понимание предметной области и консультированаие Back-end разработчиков; \n• Анализ существующих систем и разработка способов интеграции; \n• Оптимизация клиентского портала (#JS, #CSS);\n🔹Основные требования: \n• Свободное владение #HTML и CSS; \n• Понимание препроцессоров CSS (Sass (SCSS), #Less, #Stylus, CSS3); \n• Свободное владение #JavaScript (ES6+), Vue.js (2.x); \n• Знание и опыт работы с фреймворками и библиотеками: #Angular.JS, #React.JS; \n• Владение инструментами дебаггинга; \n• Владение инструментами контроля версий (#Git); \n• #Element, #Webpack; \n• Понимание принципов построения бекэнда и серверных технологий (Node.js, #PHP, #Ruby, .NET и т.д.\n 🔹Условия: \n• Стабильно высокую зарплату от 300 000 до 500 000 тг. на руки; \n• Пятидневная рабочая неделя с 9:00 до 18:00; \n• Дружный коллектив, оказывающий поддержку во всем; \n• Возможности внедрять идеи и инициативы; \n• Возможность обучения за счет организации; \n• Работа в офисе по адресу г. Нур-Султан (Астана), ул. Иманова.\n\n📩Эл. почта для резюме: ke@recrutoman.kz\n\n—\n\n👉 Обсуждение вакансии в чате @javascript_jobs","markup":[{"type":"hashtag","offset":0,"length":9,"data":"вакансия"},{"type":"hashtag","offset":786,"length":3,"data":"JS"},{"type":"hashtag","offset":791,"length":4,"data":"CSS"},{"type":"hashtag","offset":843,"length":5,"data":"HTML"},{"type":"hashtag","offset":902,"length":5,"data":"Less"},{"type":"hashtag","offset":909,"length":7,"data":"Stylus"},{"type":"hashtag","offset":947,"length":11,"data":"JavaScript"},{"type":"hashtag","offset":1036,"length":8,"data":"Angular"},{"type":"hashtag","offset":1049,"length":6,"data":"React"},{"type":"hashtag","offset":1141,"length":4,"data":"Git"},{"type":"hashtag","offset":1151,"length":8,"data":"Element"},{"type":"hashtag","offset":1161,"length":8,"data":"Webpack"},{"type":"hashtag","offset":1246,"length":4,"data":"PHP"},{"type":"hashtag","offset":1252,"length":5,"data":"Ruby"},{"type":"link","offset":1626,"length":16,"data":"mailto:ke@recrutoman.kz"},{"type":"handle","offset":1677,"length":16,"data":"javascript_jobs"}],"date":"2020-06-17T15:08:41+00:00","link":"tg://resolve?domain=javascript_jobs_feed&post=0","tags":[{"name":"javascript"},{"name":"html"},{"name":"css"},{"name":"sass"},{"name":"vuejs"},{"name":"angularjs"},{"name":"reactjs"},{"name":"git"},{"name":"webpack"},{"name":"nodejs"},{"name":"php"},{"name":"ruby"},{"name":"dotnet"}],"cities":[],"allowsRemote":false}},{"node":{"__typename":"Job","id":"103016300544-1001089317451","title":"Qa engineer","text":"#вакансия #Москва #офис #QA #тестировщик #fulltime\n\nГород и адрес офиса: Москва, м. Новокузнецкая/Павелецкая\nФормат работы: #офис\nЗанятость: #полная\nЗП: от 80к до 120к руб. нетт\n\nSports.ru - провайдер развлечений для любителей спорта.\nЕсть спорт. Есть болельщики. Мы заполняем среду между ними, оживляем ее, наполняем общением и другими развлечениями. Мы делаем не «сайты» или «приложения», а мультиплатформенные продукты, с учетом актуальной технологической парадигмы.\n\nМы ищем Middle QA Engineer'а в наш флагманский проект Sports.ru.\nЭто главное медиа о спорте на русском языке с аудиторией 18 млн пользователей в месяц. Highload-проект с десятками тысяч RPS, состоящий из самых разных продуктов – сайтов, мобильных приложений, email-рассылок, чат-ботов и многого другого.\n\nВ данный момент мы заняты активным внедрением процесса тестирования. Под капотом - нативный js на фронте, php+perl на бэке. Все новые сервисы разрабатываем на новом стеке: vue.js+ssr+golang+graphql. Да, легаси есть - иногда попадается, но в тестирование всё же большинство задач идут на новом стеке.\n\nО задачах\nВы будете заниматься приёмкой фич и проведением регресса, написанием тестовой документации, разработкой автотестов и регистрацией ошибок в баг-трекере.\n\nО наших ожиданиях\nМы ждем, что вы уже минимум пару лет как в профессии и имеете хороший опыт ручного тестирования. Знаете различные инструменты и подходы к тестированию, обладаете навыками тест-дизайна и умеете их применять.\nПонимаете процессы разработки и тестирования, а также, что процессы не могут быть идеальными, но к этому необходимо стремиться.\nМы также ждем, что вы уже имеете навыки автоматизации и не ограничились одним инструментом.\n\nБудет плюсом\nЕсли вы уже пробовали себя в нагрузочном тестировании и автоматизации мобильных устройств.\n\nОб условиях:\nПросторный стильный офис возле м. Новокузнецкая/Третьяковская.\n“Белая” заработная плата.\nБесплатная медстраховка со стоматологией после испытательного срока.\nГибкий график работы с возможностью день-два в неделю работать удаленно.\nФрукты, снеки, чай, кофе, какао 24/7.\nКорпоративная скидка в спортзал и на занятия английским языком.\nКорпоративный футбол с тренером.\nФинансовая помощь при переезде из другого города.\nВозможности для профессионального развития.\n\nНазвание компании: Sports.ru (Tribuna Digital)\n\nКого заинтересовало, пишите мне в личку (@pbuyatova), рада буду поделиться подробностями:)","markup":[{"type":"hashtag","offset":0,"length":9,"data":"вакансия"},{"type":"hashtag","offset":10,"length":7,"data":"Москва"},{"type":"hashtag","offset":18,"length":5,"data":"офис"},{"type":"hashtag","offset":24,"length":3,"data":"QA"},{"type":"hashtag","offset":28,"length":12,"data":"тестировщик"},{"type":"hashtag","offset":41,"length":9,"data":"fulltime"},{"type":"hashtag","offset":124,"length":5,"data":"офис"},{"type":"hashtag","offset":141,"length":7,"data":"полная"},{"type":"link","offset":179,"length":9,"data":"http://Sports.ru"},{"type":"bold","offset":179,"length":9,"data":""},{"type":"bold","offset":479,"length":20,"data":""},{"type":"link","offset":525,"length":9,"data":"http://Sports.ru"},{"type":"bold","offset":1077,"length":10,"data":""},{"type":"bold","offset":1240,"length":18,"data":""},{"type":"bold","offset":1686,"length":13,"data":""},{"type":"bold","offset":1791,"length":13,"data":""},{"type":"link","offset":2284,"length":9,"data":"http://Sports.ru"},{"type":"handle","offset":2354,"length":10,"data":"pbuyatova"}],"date":"2020-06-17T07:41:47+00:00","link":"tg://resolve?domain=qa_jobs&post=0","tags":[{"name":"qa"},{"name":"php"},{"name":"perl"},{"name":"vuejs"},{"name":"go"},{"name":"graphql"}],"cities":[{"code":"moscow"}],"allowsRemote":true}},{"node":{"__typename":"Job","id":"71417462784-1001054966032","title":"Mobile разработчик","text":"#вакансия #удаленка #полная #react #reactnative\n\nНазвание компании: Appello www.appello.com.au\nОписание вакансии: Привет!\nИщем в команду ReactJS/React Native разработчиков. Удаленно, на долгий срок.\n\nТребования:\nОпыт минимум 2 года с реактом и хотя бы одно приложение сделанное на React Native.\nЖелательно знание других JS фреймворков (Angular, Vue)\n\nУсловия работы: \nУдаленно, фуллтайм 30-40 часов в неделю.\nРабота происходит с таймтрекером. Выплаты происходят на основе отработанного времени 2 раза в месяц.\nТехнологии: #react, #reactnative, #reactjs\nОфис или удаленка: #удаленка\nАдрес офиса: Sydney\nЗанятость: #полная\nЗарплатная вилка: от 110000 до 190000 рублей\n\nКонтакты: jobs@appello.com.au, @stpa3k","markup":[{"type":"hashtag","offset":0,"length":9,"data":"вакансия"},{"type":"hashtag","offset":10,"length":9,"data":"удаленка"},{"type":"hashtag","offset":20,"length":7,"data":"полная"},{"type":"hashtag","offset":28,"length":6,"data":"react"},{"type":"hashtag","offset":35,"length":12,"data":"reactnative"},{"type":"link","offset":76,"length":18,"data":"http://www.appello.com.au"},{"type":"hashtag","offset":522,"length":6,"data":"react"},{"type":"hashtag","offset":530,"length":12,"data":"reactnative"},{"type":"hashtag","offset":544,"length":8,"data":"reactjs"},{"type":"hashtag","offset":572,"length":9,"data":"удаленка"},{"type":"hashtag","offset":613,"length":7,"data":"полная"},{"type":"link","offset":677,"length":19,"data":"mailto:jobs@appello.com.au"},{"type":"handle","offset":698,"length":7,"data":"stpa3k"}],"date":"2020-06-16T15:52:50+00:00","link":"tg://resolve?domain=mobile_jobs&post=0","tags":[{"name":"mobile"},{"name":"reactjs"},{"name":"angularjs"},{"name":"vuejs"},{"name":"react-native"}],"cities":[{"code":"sydney"}],"allowsRemote":true}},{"node":{"__typename":"Job","id":"16983785472-1001110946746","title":"Javascript разработчик","text":"#вакансия #frontend #javascript #typescript #удаленка #fulltime \nВакансия: Frontend разработчик\nФормат работы: удаленная работа\nЗанятость: полная\nЗарплатная вилка: от 120000 до 200000 рублей на руки\nОписание вакансии: \nВ данный момент мы используем:\n• TypeScript\n• Vue + SFC + Vuex\n• Scoped SCSS, CSS variables, animations, flexbox, SVG\n• Различные “хаки” для улучшения производительности (rAF, gpu layers etc.)\nСобранное вебпаком приложение мы деплоим сразу на CDN.\nВам предстоит:\n• делать новые фичи, интеграции и развивать ядро продукта\n• реализовывать элегантные UX/UI-концепции (из Zeplin)\n• добиваться максимальной отзывчивости интерфейса при минимальной нагрузке на систему\nНазвание компании: SpatialChat - платформа для живого неформального онлайн-общения \nКонтакты: @ElizavetaKoHR\n\n—\n\n👉 Обсуждение вакансии в чате @javascript_jobs","markup":[{"type":"hashtag","offset":0,"length":9,"data":"вакансия"},{"type":"hashtag","offset":10,"length":9,"data":"frontend"},{"type":"hashtag","offset":20,"length":11,"data":"javascript"},{"type":"hashtag","offset":32,"length":11,"data":"typescript"},{"type":"hashtag","offset":44,"length":9,"data":"удаленка"},{"type":"hashtag","offset":54,"length":9,"data":"fulltime"},{"type":"handle","offset":775,"length":14,"data":"ElizavetaKoHR"},{"type":"handle","offset":824,"length":16,"data":"javascript_jobs"}],"date":"2020-06-16T13:00:03+00:00","link":"tg://resolve?domain=javascript_jobs_feed&post=0","tags":[{"name":"javascript"},{"name":"typescript"},{"name":"vuejs"},{"name":"css"},{"name":"svg"}],"cities":[],"allowsRemote":true}},{"node":{"__typename":"Job","id":"16982736896-1001110946746","title":"Js разработчик","text":"#вакансия #удаленно #fullstack #JavaScript #NodeJS #Vue\n\nГород: г. Москва, Сколково, б-р Большой\nФорма работы: удаленка\nЗанятость: полная\nЗарплатная вилка: от 120000 до 200000 рублей\nНазвание компании: ADMON\n\nВ связи с расширением штата, компания ADMON приглашает Senior Full-stack JavaScript-разработчиков, готовых стать полноценными членами нашей команды на удаленной основе или в Новосибирском офисе. ADMON – одна из ведущих российских компаний по предотвращению и расследованию мошенничества в сфере рекламы в Интернете и на мобильных устройствах с использованием высоких технологий. Основные направления деятельности компании: мониторинг и предотвращение мошенничества, аудит рекламных кампаний, разработка инновационных программных продуктов по мониторингу, обнаружению и предотвращению возникающих видов мошенничества.\n\nСтек технологий:\nNode.JS, Vue, GraphQl, Jest, Redis, Clickhouse, PostgreSQL, Docker.\n\nЧто используем в работе:\n    - Jira (Kanban), Confluence;\n   - Храним код в Gitlab, тут же CI/CD;\n    -Практикуем code review, политику частых релизов, гибкие методологии разработки;\n    -Мониторим состояние приложений с помощью: Zabbix, Grafana.\n\nВ задачи будет входить:\n    - Улучшать имеющийся функционал и разрабатывать новый (Система нотификаций, Обработка платежей, Алгоритмы атрибуции, Ads Crawler и т.д.);\n    - Писать тесты и рефакторить кодовую базу;\n    - Участвовать в принятии архитектурных решений;\n    - Работать как в составе команды, так и в одного над небольшими проектами;\n    - Участвовать в коммуникации с командой;\n    - Быть инициативным и предлагать свои идеи, в том числе, если это касается использования новых технологий — проводить code review.\n\nЧто мы предлагаем:\n    - Профессионализм, взаимопомощь и наставничество;\n    - Гибкий график;\n    - Удаленная работа;\n    - Возможность работать как в составе команды, так и возглавить со временем свое направление — мы готовы обсуждать любые ваши идеи. \n\n Контакты:@juliajudina2810\n\n—\n\n👉 Обсуждение вакансии в чате @javascript_jobs","markup":[{"type":"hashtag","offset":0,"length":9,"data":"вакансия"},{"type":"hashtag","offset":10,"length":9,"data":"удаленно"},{"type":"hashtag","offset":20,"length":10,"data":"fullstack"},{"type":"hashtag","offset":31,"length":11,"data":"JavaScript"},{"type":"hashtag","offset":43,"length":7,"data":"NodeJS"},{"type":"hashtag","offset":51,"length":4,"data":"Vue"},{"type":"handle","offset":1961,"length":16,"data":"juliajudina2810"},{"type":"handle","offset":2012,"length":16,"data":"javascript_jobs"}],"date":"2020-06-16T12:57:50+00:00","link":"tg://resolve?domain=javascript_jobs_feed&post=0","tags":[{"name":"javascript"},{"name":"nodejs"},{"name":"vuejs"},{"name":"graphql"},{"name":"redis"},{"name":"postgresql"},{"name":"docker"},{"name":"gitlab"}],"cities":[{"code":"moscow"}],"allowsRemote":true}},{"node":{"__typename":"Job","id":"16970153984-1001110946746","title":"Js разработчик","text":"#вакансия #удаленка #fulltime #frontend #vue #nuxt #react\n\nКомпания: webland.design\nПозиция: frontend разарботчик\nФормат работы: удалённый, fulltime\n\nЗарплатная вилка: от 70 до 100 т.р на руки \n\nЗадачи:\n• Разработка веб-интерфейсов на vue.js/React\n• Активное участие в обсуждении задач.\n• Разработка нового функционала.\n• Доработка/Оптимизация существующего функционала.\n\nТребования:\n• Уверенное знание Javascript (ES6+)\n• Обязательное понимание экосистемы Vue/VueRouter/Vuex\n• Понимание принципов построения архитектуры большого приложения и принципов компонентного подхода.\n• Умение делать качественную кросс-браузерную адаптивную верстку (SCSS).\n• Опыт работы с Webpack и Babel.\n• Опыт работы с REST API\n\nБудет супер, если:\n•  Есть понимание принципов pixel perfect\n• Опыт использования серверного рендеринга (SSR) с использованием Nuxt.js.\n• Коммерческий опыт работы c React (Redux or Mobx)\n• Есть ИП или статус самозанятого\n\nСтек: \n• HTML5/JS/SCSS\n• Vue.js и/или React\n• Webpack/Babel\n• php или node.js REST API\n\nКонтакт: @alex_project\n\n—\n\n👉 Обсуждение вакансии в чате @javascript_jobs","markup":[{"type":"hashtag","offset":0,"length":9,"data":"вакансия"},{"type":"hashtag","offset":10,"length":9,"data":"удаленка"},{"type":"hashtag","offset":20,"length":9,"data":"fulltime"},{"type":"hashtag","offset":30,"length":9,"data":"frontend"},{"type":"hashtag","offset":40,"length":4,"data":"vue"},{"type":"hashtag","offset":45,"length":5,"data":"nuxt"},{"type":"hashtag","offset":51,"length":6,"data":"react"},{"type":"link","offset":69,"length":14,"data":"http://webland.design"},{"type":"handle","offset":1027,"length":13,"data":"alex_project"},{"type":"handle","offset":1075,"length":16,"data":"javascript_jobs"}],"date":"2020-06-16T10:19:35+00:00","link":"tg://resolve?domain=javascript_jobs_feed&post=0","tags":[{"name":"javascript"},{"name":"vuejs"},{"name":"reactjs"},{"name":"webpack"},{"name":"rest"},{"name":"redux"},{"name":"html"},{"name":"php"},{"name":"nodejs"},{"name":"react-redux"}],"cities":[],"allowsRemote":true}},{"node":{"__typename":"Job","id":"16968056832-1001110946746","title":"Js разработчик","text":"#вакансия #fulltime #frontend #vue #react\n\n⚫️ Junior frontend-разработчик\nФормат работы: удаленка\nЗанятость: полная\nТребуемый опыт работы: от 1 года.\nНазвание компании: Blackmagic, blackmagic.digital\nЗарплатная вилка: от 60 000 до 90 000 рублей. \n\nОписание вакансии: \n\nМы ищем Веб-программиста с опытом работы над реальными проектами. \n\nОсновная наша специализация SPA. Задачи бывают различной сложности. От поддержки проекта и выполенния разовых задач, до разработки c нуля. \n\nМы ищем ответственного человека, умеющего здраво оценивать свои силы и сроки. \n\nТребования к кандидату: \n— знания js, css, html \n— знание основ использования Git \n— знание адаптивной/резиновой верстки \n— опыт работы с любым веб-фреймворком (React/Vue) \n\nБудет большим плюсом: \n— знание Vue.js \n— знание препроцессоров (мы предпочитаем SCSS) \n— понимание Dоcker и CI/CD \n— GitLab Flow \n\nМы работает по недельным спринтам, используем GitLab. Есть ежедневные созвоны по статусу.\n\n🤙 Контакты:\nАлександр Силин\nTelegram @pushdatempo, alexander@blackmagic.digital\n\n—\n\n👉 Обсуждение вакансии в чате @javascript_jobs","markup":[{"type":"hashtag","offset":0,"length":9,"data":"вакансия"},{"type":"hashtag","offset":10,"length":9,"data":"fulltime"},{"type":"hashtag","offset":20,"length":9,"data":"frontend"},{"type":"hashtag","offset":30,"length":4,"data":"vue"},{"type":"hashtag","offset":35,"length":6,"data":"react"},{"type":"link","offset":181,"length":18,"data":"http://blackmagic.digital"},{"type":"handle","offset":993,"length":12,"data":"pushdatempo"},{"type":"link","offset":1007,"length":28,"data":"http://alexander@blackmagic.digital"},{"type":"handle","offset":1070,"length":16,"data":"javascript_jobs"}],"date":"2020-06-16T09:53:28+00:00","link":"tg://resolve?domain=javascript_jobs_feed&post=0","tags":[{"name":"javascript"},{"name":"vuejs"},{"name":"reactjs"},{"name":"css"},{"name":"html"},{"name":"git"},{"name":"gitlab"}],"cities":[],"allowsRemote":true}}]}}},"context":{}}