{"hash":"f5f6bf98bd95e769321482904cbbd488f77922fd","data":{"records":{"id":"web","name":"web","belongsTo":{"totalCount":155,"pageInfo":{"totalPages":16,"currentPage":1},"edges":[{"node":{"__typename":"Job","id":"26997686272-1001075660570","title":"Php программист","text":"#вакансия #работа #fulltime #parttime #laravel #php #backend #Web\nГород и адрес офиса: Москва\nФормат работы: удаленка\nЗанятость: частичная, не менее 20-30 часов в неделю или полная 40 часов в неделю Зарплатная вилка: от 7$ до 20$ в час, либо сдельная\n\nПривет! Мы ищем человека который вольется в нашу команду для развития платформы EdaPort. Вам предстоит полностью взять на себя развитие бекенд-части.\nТребования:\nЗнание Laravel 5.x\nPHP 7.0 +\nЗнание для чего нужен REST-API и как его готовить\nРазбираться в чужом коде (наша платформа уже в продакшене)\nПисать понятные любому программисту Swagger-аннотации\nИметь представления о хорошей архитектуре, сейчас все не идеально, мы хотим чтобы становилось лучше с каждой итерацией.\nЛюбить или хотя бы не бояться писать тесты, понимать зачем они вообще нужны.\nИметь представление как работает CI\nОпыт работы по подключению платежных систем будет плюсом.\nУмение работать в команде, доступность с 10 до 19 по Москве (большую часть этого промежутка) для коммуникаций с командой.\nОпыт работы с таск-менеджерами будет плюсом.\n\nРабота удаленная, перед началом сотрудничества нужно будет пройти небольшое телефонное интервью с командой.\n\nКомпания: Enlighted\nКонтакты: Писать мне в личку @westarakagrek или на почту ra@enlighted.ru","markup":[{"type":"hashtag","offset":0,"length":9,"data":"вакансия"},{"type":"hashtag","offset":10,"length":7,"data":"работа"},{"type":"hashtag","offset":18,"length":9,"data":"fulltime"},{"type":"hashtag","offset":28,"length":9,"data":"parttime"},{"type":"hashtag","offset":38,"length":8,"data":"laravel"},{"type":"hashtag","offset":47,"length":4,"data":"php"},{"type":"hashtag","offset":52,"length":8,"data":"backend"},{"type":"hashtag","offset":61,"length":4,"data":"Web"},{"type":"handle","offset":1223,"length":14,"data":"westarakagrek"},{"type":"link","offset":1251,"length":15,"data":"mailto:ra@enlighted.ru"}],"date":"2020-07-03T11:31:03+00:00","link":"tg://resolve?domain=php_jobs&post=25747","tags":[{"name":"php"},{"name":"laravel"},{"name":"web"},{"name":"rest"},{"name":"swagger"}],"cities":[{"code":"moscow"}],"allowsRemote":true}},{"node":{"__typename":"Job","id":"104366866432-1001089317451","title":"Qa engineer","text":"#вакансия #QA #Краснодар #Krasnodar #fulltime #java #sql #API #web #mobile #Functionaltesting\n\n✅Вакансия: QA engineer \n✅Город: Краснодар (релокация)\n✅Занятость: полная, офис\n✅ЗП вилка: 80 000 - 100 000р. gross (обсуждаема)\n✅КА: IT.Huntme\n\nИщем функционального тестировщика, но если у него есть еще и знания автотестирования, то это доп. бонус (и в этом случае смотрим требования ниже для такого опыта).\n\nЗадачи:\n· Обеспечение качества разработки ПО;\n· Проведение системного, интеграционно-функционального, регрессионного тестирования в рамках регулярных интеграционных релизов, приветствуется желание участвовать в автоматизации процесса тестирования;\n· Автоматизация процессов функционального тестирования, разработка автотестов, заглушек, поддержка framework (для автотестировщиков)\n· Активное взаимодействие внутри команды и за ее пределами (аналитики, разработчики, тестировщики интеграционных проектов, работа в Agile команде);\n· Анализ бизнес требований, функциональных требований и технических заданий;\n· Ведение BUG-трекера; контроль, тестирование исправления дефектов;\n· Выявление и эскалация проблем, подготовка заключений качества тестирования.\n\n🙌Наши ожидания:\n· Опыт работы в сфере тестирования и /или аналитики от 1 года;\n· Знание теоретических основ тестирования, практик и инструментов;\n· Опыт подготовки тестовых моделей для тестирования нового функционала;\n· Умение грамотно описывать тестовую модель и дефекты;\n· Знание техник тест-дизайна и умение применять их на практике;\n· Опыт работы с багтрекинговыми системами и системами управления тестированием (HP ALM, Atlassian Jira или аналогичными): разработка тестов, кроссировка требований с тестами и работа с дефектами);\n· Знание SQL (написание запросов средней сложности, на уровне join)\n· Представление о взаимодействии интеграционных решений (front-end);\n· Опыт или хорошее представление о тестировании SOAP/REST веб-сервисов, работа с XML;\n\nДополнительно для автоматизаторов:\n· Опыт программирования на Java или\\и Python - практический навык написания автотестов с использованием хотя бы одного языка\n\nБудет плюсом:\n· Опыт работы в сфере тестирования более 1 года;\n· Практический опыт тестирования интеграционных решений на уровне UI и API;\n· Опыт системного и интеграционного тестирования релизов, в том числе взаимодействие фронт-офисных и бэк-офисных систем;\n· Опыт анализа большого объема документации и подготовки тестовой модели;\n· Знание SQL на более продвинутых уровнях (составление запросов различной сложности, объединение нескольких таблиц – от 3-х и более, вложенные запросы, фильтрация по нескольким полям, умение работать с разным форматом дат, создание/удаление редактирование таблиц, создание процедур), опыт работы с СУБД Oracle/MS SQL Server;\n· Опыт работы с десктопными приложениями или WEB-приложениями;\n· Опыт работы с расчетами комиссий, налогов;\n· Опыт работы с Diasoft 5NT\n· Опыт разработки авто-тестов по методологии BDD (Java + Spring Framework + Cucumber);\n· Опыт разработки эмуляторов/заглушек;\n· Практический опыт автоматизации тестирования на одном из инструменте: Selenium, cucumber, Junit, TestNG, Espresso, Earl Grey;\n· Практический опыт внедрения инструментов и практик DevOps;\n\n👍Что мы готовы предложить:\n- Работу в крупной компании с возможностью поработать в распределенной команде на крупном проекте; \n- Работу с новейшими технологиями и участие в проектах из разных областей;\n- Полное соблюдение ТК РФ; \n- Белая зарплата, отпускные и больничный + Социальный пакет;\n- ДМС с первого дня работы в компании;\n- Курсы английского языка.\n✍️Контакты: @mary_itfox или it.huntme@gmail.com","markup":[{"type":"hashtag","offset":0,"length":9,"data":"вакансия"},{"type":"hashtag","offset":10,"length":3,"data":"QA"},{"type":"hashtag","offset":14,"length":10,"data":"Краснодар"},{"type":"hashtag","offset":25,"length":10,"data":"Krasnodar"},{"type":"hashtag","offset":36,"length":9,"data":"fulltime"},{"type":"hashtag","offset":46,"length":5,"data":"java"},{"type":"hashtag","offset":52,"length":4,"data":"sql"},{"type":"hashtag","offset":57,"length":4,"data":"API"},{"type":"hashtag","offset":62,"length":4,"data":"web"},{"type":"hashtag","offset":67,"length":7,"data":"mobile"},{"type":"hashtag","offset":75,"length":18,"data":"Functionaltesting"},{"type":"handle","offset":3565,"length":11,"data":"mary_itfox"},{"type":"link","offset":3581,"length":19,"data":"mailto:it.huntme@gmail.com"}],"date":"2020-07-03T11:30:48+00:00","link":"tg://resolve?domain=qa_jobs&post=99532","tags":[{"name":"qa"},{"name":"java"},{"name":"sql"},{"name":"web"},{"name":"mobile"},{"name":"soap"},{"name":"rest"},{"name":"xml"},{"name":"python"},{"name":"oracle"},{"name":"spring"},{"name":"cucumber"},{"name":"selenium"},{"name":"junit"},{"name":"sql-server"}],"cities":[{"code":"krasnodar"}],"allowsRemote":false}},{"node":{"__typename":"Job","id":"26990346240-1001075660570","title":"Php разработчик","text":"#вакансия #php #symfony #удаленка  #fulltime #parttime\n\nPHP-разработчик (middle, senior), Symfony 3.4+\n\nДля работы нужно: \n- опыт работы с Symfony 3.4+ и понимание DI, Doctrine\n- владение PostgreSQL\n\nБудет плюсом: \n- опыт работы с брокерами сообщений: Kafka, RabbitMQ\n- понимание принципов работы микросервисных систем\n- опыт автоматизированного тестирования (PHPUnit, Codeception)\n\nУсловия: 120-180к в зависимости от уровня, оформление ТК\n- Разработка web-сервисов и digital-решений. \nКомпания: grapheme.ru \n\nКонтакты: @AnastasiaTum","markup":[{"type":"hashtag","offset":0,"length":9,"data":"вакансия"},{"type":"hashtag","offset":10,"length":4,"data":"php"},{"type":"hashtag","offset":15,"length":8,"data":"symfony"},{"type":"hashtag","offset":24,"length":9,"data":"удаленка"},{"type":"hashtag","offset":35,"length":9,"data":"fulltime"},{"type":"hashtag","offset":45,"length":9,"data":"parttime"},{"type":"link","offset":496,"length":11,"data":"http://grapheme.ru"},{"type":"handle","offset":520,"length":13,"data":"AnastasiaTum"}],"date":"2020-07-03T10:35:12+00:00","link":"tg://resolve?domain=php_jobs&post=25740","tags":[{"name":"php"},{"name":"symfony"},{"name":"doctrine"},{"name":"postgresql"},{"name":"kafka"},{"name":"rabbitmq"},{"name":"phpunit"},{"name":"web"}],"cities":[],"allowsRemote":true}},{"node":{"__typename":"Job","id":"17358127104-1001110946746","title":"Js разработчик","text":"#вакансия #работа #fulltime #parttime #JavaScript #vuejs #Frontend #Web\n\nГород и адрес офиса: Москва\nФормат работы: удаленка\nЗанятость: частичная, не менее 20-30 часов в неделю или полная 40 часов в неделю\nЗарплатная вилка: от 7$ до 20$ в час, либо сдельная\n\n\nО проекте:\nМы разрабатываем MVP нового сервиса для доставки и предзаказа еды. Также разрабатываем MVP для управления персоналом в сфере ЖКХ\n\nМакеты в Sketch, задачи в Трекере\n\nСтек:\nVue2 + Vuex\n\nОписание вакансии\nТребования:\nУмение верстать по макетам из Sketch/Figma\nПонимание принципа работы Vuex, уметь рассказать зачем он вообще нужен.\nvue+vuex, es6, vue-cli\nЗнание html, css3, BEM-методологии\nУмение работать с git, знание процесса git flow будет плюсом.\nОпыт интеграции Google/OSM maps будет плюсом.\nОпыт настройки CI/CD или хотя бы понимание как устроен процесс сборки Vue проекта.\n\nВам предстоит:\nРазрабатывать фронтенд-часть проекта по предоставленным макетам, никакого legacy, проект начинается с нуля.\nКомандная работа, утренние стендапы и еженедельные релизы.\n\nКомпания: Enlighted\n\nКонтакты:\nПисать мне в личку @westarakagrek или на почту ra@enlighted.ru\n\n—\n\n👉 Обсуждение вакансии в чате @javascript_jobs","markup":[{"type":"hashtag","offset":0,"length":9,"data":"вакансия"},{"type":"hashtag","offset":10,"length":7,"data":"работа"},{"type":"hashtag","offset":18,"length":9,"data":"fulltime"},{"type":"hashtag","offset":28,"length":9,"data":"parttime"},{"type":"hashtag","offset":38,"length":11,"data":"JavaScript"},{"type":"hashtag","offset":50,"length":6,"data":"vuejs"},{"type":"hashtag","offset":57,"length":9,"data":"Frontend"},{"type":"hashtag","offset":67,"length":4,"data":"Web"},{"type":"handle","offset":1083,"length":14,"data":"westarakagrek"},{"type":"link","offset":1111,"length":15,"data":"mailto:ra@enlighted.ru"},{"type":"handle","offset":1161,"length":16,"data":"javascript_jobs"}],"date":"2020-07-03T10:19:14+00:00","link":"tg://resolve?domain=javascript_jobs_feed&post=16554","tags":[{"name":"javascript"},{"name":"vuejs"},{"name":"web"},{"name":"html"},{"name":"css"},{"name":"git"}],"cities":[{"code":"moscow"}],"allowsRemote":true}},{"node":{"__typename":"Job","id":"104336457728-1001089317451","title":"Qa инженер","text":"#вакансия #москва #fulltime #middle #automation\n🏢Город: Москва, м. Павелецкая\n💻Формат: Офис\n💰З/п: от 180 до 250 т.р net\n\nИщем тестировщика в команду мобильного тестирования, на один из наших крупнейших проектов. Коротко о проекте: крупный американский заказчик (входит в топ 3 фарм компании США) .\nПроекту больше года, приложение вышло в прод, есть реальные пользователи, работаем над новыми релизами, добавляем новый функционал\nИщем специалиста, с опытом автоматизации тестирования мобильных приложений (желательно Android)\n\nCustomertimes – это международный системный интегратор, который работает  в США, России и более чем 50 странах мира. Мы работаем с крупнейшими мировыми поставщиками программного обеспечения, такими как Salesforce, Pega, SAP, а также предоставляем собственные разработки для крупных и средних компаний. \nНаши офисы расположены в Москве, Нью-Йорке, Киеве, Минске, Риге, Лондоне, Торонто\n📌Задачи: \n • Анализ технической документации и требований к системе\n•Написание, отладка и поддержание в актуальном состоянии автоматизированных скриптов \n•Проведение автоматизированного тестирования\n•Настройка, управление и поддержание тестового фреймворка для автоматизации. Участие в создании нового фреймворка для автоматизированного тестирования, если это требуется на проекте.\n•Внедрение и настройка инструментов и утилит необходимых для проведения автоматизированного тестирования \n•Фиксация обнаруженных во время автоматизированного тестирования дефектов в Jira, согласно внутренним инструкциям и регламентам принятым на проекте\n•Взаимодействие с командой ручного тестирования и командой разработки с целью локализации и исправления обнаруженных дефектов\n•Разработка инструкций и документации  \n📌Требования: \n • Ясное понимание проектного подхода к работе, знакомство с различными методологиями управления проектами. \n • Опыт работы в  автоматизированном  тестировании от 2х лет. \n • Опыт проведения  автоматизированного тестирования (mobile/Web)\n • Уверенные знание ООП (Java) \n • Английский язык на уровне Intermediate и выше\n • Самостоятельность, высокий уровень личной дисциплины \n  \n  \nМы предлагаем: \n • Работу в дружном и быстроразвивающемся международном коллективе.\n•Решение сложных задач;\n•Возможность повысить уровень своего профессионализма и познакомиться с лучшими мировыми практиками наших клиентов;\n•Возможность поучаствовать в строительстве международного бизнеса             в области ИТ и занять достойное место в команде.\n•Принять участие в построении эффективных бизнес-процессов компании, их автоматизации.\n•Обучение по курсам компании: Tester, Salesforce Specialist\n•Подготовку и оплату сдачи экзамена Salesforce Administrator\n•Возможность сертификации по ISTQB в качестве KPI на первый год работы\nTelegram: @Surkofff\nТелефон: +7 916 824 11 34","markup":[{"type":"hashtag","offset":0,"length":9,"data":"вакансия"},{"type":"hashtag","offset":10,"length":7,"data":"москва"},{"type":"hashtag","offset":18,"length":9,"data":"fulltime"},{"type":"hashtag","offset":28,"length":7,"data":"middle"},{"type":"hashtag","offset":36,"length":11,"data":"automation"},{"type":"handle","offset":2754,"length":9,"data":"Surkofff"},{"type":"link","offset":2773,"length":16,"data":"tel:+7 916 824 11 34"}],"date":"2020-07-03T09:33:49+00:00","link":"tg://resolve?domain=qa_jobs&post=99503","tags":[{"name":"qa"},{"name":"dotnet"},{"name":"android"},{"name":"mobile"},{"name":"web"},{"name":"java"}],"cities":[{"code":"moscow"},{"code":"toronto"}],"allowsRemote":false}},{"node":{"__typename":"Job","id":"2283798528-1001134745498","title":"Devops инженер","text":"#вакансия #Sportmaster_Labs #monitoring \n\nНазвание компании: Sportmaster Labs\nГород и адрес офиса: м. Дмитровская\nФормат работы: офис, на текущий момент удаленка (в будущем возможно частично офис)\nЗанятость: полная\nЗарплатная вилка:  от 100 000 до 300 000 рублей на руки, в зависимости от уровня кандидата\nОписание вакансии:\nМы ищем сотрудника, у которого имеется опыт построения систем мониторинга и логирования приложений, начиная с инфраструктуры, заканчивая бизнес-метриками и опыт администрирования инфраструктуры.\n\nОбязанности: \n* Внедрение, управление и развитие системы мониторинга от уровня аппаратного обеспечения до бизнес-метрик уровня приложений (метрики, зависимости, оповещения) [Zabbix, Victoria Metrics, Prometheus, etc]\n* Внедрение, управление и развитие системы логирования [Elastic Stack]\n* Внедрение, управление и развитие системы визуализации [Grafana, BI Systems, etc]\n* Разработка кастомных решений по сбору метрик, оповещений, процессинга данных\n\nЖелательно:\n* Внедрение, управление и развитие отказоустойчивой системы окрестрации контейнеров для нужд эксплуатации и не только (Kubernetes)\n* Настройка CI\\CD (Jenkins)\n* load-, stress- и chaos-тестирование инфраструктуры и сервисов\n* Опыт работы с Jaeger, OpenTracing\n* Опыт в разработке приложений (для систем мониторинга) на любом из языков программирования Python, Java\n* Опыт в эксплуатации JVM\n* Опыт администрирования web-серверов Nginx, F5, HAproxy\n\nСтав частью Sportmaster Lab, вы получите:\n* Работу в крупной стабильной российской компании - лидере на рынке розничной торговли товарами для спорта и отдыха;\n* Перспективы профессионального, карьерного и финансового роста;\n* Офис - м. Дмитровская, БЦ \"Премьер\";\n* График работы: 5/2; 8.00-17.00, 9.00-18.00 или 10.00-19.00 (можно выбрать);\n* Дисконтная карта на продукцию магазинов сети;\n* Полугодовые премии в размере 50% от суммы ежемесячного дохода;\n* Корпоративные скидки на различные виды страхования и кредитования;\n* Корпоративные программы спорта и отдыха;\n* Организованное питание в офисе (компенсация питания);\n* Обучение и сертификация за счет компании\n\nКонтакты: Для начала я (@Voffko) далее с HR сотрудниками\n\n—\n\n👉 Обсуждение вакансии в чате @devops_jobs","markup":[{"type":"hashtag","offset":0,"length":9,"data":"вакансия"},{"type":"hashtag","offset":10,"length":17,"data":"Sportmaster_Labs"},{"type":"hashtag","offset":28,"length":11,"data":"monitoring"},{"type":"handle","offset":2122,"length":7,"data":"Voffko"},{"type":"handle","offset":2189,"length":12,"data":"devops_jobs"}],"date":"2020-07-03T09:29:40+00:00","link":"tg://resolve?domain=devops_jobs_feed&post=0","tags":[{"name":"elasticsearch"},{"name":"kubernetes"},{"name":"jenkins"},{"name":"python"},{"name":"java"},{"name":"jvm"},{"name":"web"},{"name":"nginx"}],"cities":[],"allowsRemote":true}},{"node":{"__typename":"Job","id":"17353932800-1001110946746","title":"Js разработчик","text":"#вакансия #удаленка #москва #developer #frontend #react #node #middle\n\n🔹Город и адрес офиса:  \n • Москва, удаленная \n\n🔹Требования:\n • В  US  компанию , требуется разработчик, на полную   занятость, статус Independent Contractor, удаленная работа, slack,  jira.\n\n🔹Формат работы: \n • Ближайшее время преимущественно удаленно, есть идея сделать в Мск штаб и будут встречи-гибкая офисная работа после окончания карантинов\n\n🔹Зарплатная вилка: \n • 2000-3000 $ , контракт\n\n🔹Ищу:\n•  Подбираю фулстек мидл инженера со знанием бэкенда, но c приоритетом на веб фронтенд - развиваем web app, в том числе потребуется верстка панели администратора.\n•  Стек : Node.js, Express, MongoDB, React, HTTP, Soсket, Асинхронные запросы, Знание паттернов, Bootstrap.\n\n\n🔹Контакты: \n•  Cтучитесь в лк (@kotenkov)","markup":[{"type":"hashtag","offset":0,"length":9,"data":"вакансия"},{"type":"hashtag","offset":10,"length":9,"data":"удаленка"},{"type":"hashtag","offset":20,"length":7,"data":"москва"},{"type":"hashtag","offset":28,"length":10,"data":"developer"},{"type":"hashtag","offset":39,"length":9,"data":"frontend"},{"type":"hashtag","offset":49,"length":6,"data":"react"},{"type":"hashtag","offset":56,"length":5,"data":"node"},{"type":"hashtag","offset":62,"length":7,"data":"middle"},{"type":"handle","offset":782,"length":9,"data":"kotenkov"}],"date":"2020-07-03T09:01:00+00:00","link":"tg://resolve?domain=javascript_jobs_feed&post=16550","tags":[{"name":"javascript"},{"name":"reactjs"},{"name":"nodejs"},{"name":"web"},{"name":"express"},{"name":"mongodb"},{"name":"bootstrap"}],"cities":[{"code":"moscow"}],"allowsRemote":true}},{"node":{"__typename":"Job","id":"104322826240-1001089317451","title":"Qa engineer","text":"#вакансия #Москва #офис #fulltime #QA \n\nВсем привет! \nИщем QA Engineer ( web и мобилка)\n\nКомпания: банк \"Открытие\"\nМосква, м Динамо\n💰 до 135 тыс. гросс\n\nОсновные задачи:\nТестирование ДБО для юридических лиц, разработка собственного фреймворка\n\nТребования:\n- опыт выполнения простых задачах в автотестировании на Java;\n- хороший бэкграунд в других видах тестирования;\n- знание Java (Selenium, Selenide).\n\n\nУсловия:\n-Отсутствие дресс-кода;\n-Льготное кредитование;\n-ДМС;\n-Корпоративный спорт.\n\nПо всем вопросам пишите @VickyKS","markup":[{"type":"hashtag","offset":0,"length":9,"data":"вакансия"},{"type":"hashtag","offset":10,"length":7,"data":"Москва"},{"type":"hashtag","offset":18,"length":5,"data":"офис"},{"type":"hashtag","offset":24,"length":9,"data":"fulltime"},{"type":"hashtag","offset":34,"length":3,"data":"QA"},{"type":"bold","offset":154,"length":17,"data":""},{"type":"bold","offset":245,"length":12,"data":""},{"type":"bold","offset":406,"length":9,"data":""},{"type":"handle","offset":516,"length":8,"data":"VickyKS"}],"date":"2020-07-03T07:02:51+00:00","link":"tg://resolve?domain=qa_jobs&post=99490","tags":[{"name":"qa"},{"name":"web"},{"name":"java"},{"name":"selenium"}],"cities":[{"code":"moscow"}],"allowsRemote":false}},{"node":{"__typename":"Job","id":"104318631936-1001089317451","title":"Qa инженер","text":"🐞🐞🐞#вакансия #QA #Ульяновск #Саранск #Казань #Самара #Уфа #Краснодар #офис #удаленная_работа\n\n🔍Middle QA-специалист🔎\n\n⚡️Компания: Simbirsoft (более 19 лет на рынке, более 700 сотрудников в штате)\n\nОчень ждем тебя, наш будущий коллега и борец за качественное ПО! :)\n\n📌Твои будущие задачи:\n• тестирование ПО (frontend, backend, API);\n• локализация и документирование найденных дефектов;\n• ведение и оптимизация тестовой документации;\n• контроль качества на всех этапах разработки ПО;\n• выстраивание и оптимизация процессов тестирования ПО.\n\n📌Что мы ждем от тебя:\n• наличие опыта от 2 лет в направлениях QA или тестирования ПО;\n• понимание разницы между QA и тестированием ПО;\n• понимание особенностей гибких методологий;\n• уверенное владение техниками тест-дизайна;\n• знание клиент-серверной архитектуры;\n• понимание особенностей тестирования web, mobile и desktop приложений;\n• навык тестирования API;\n• написание запросов SQL;\n• опыт работы с системами контроля версий (git);\n• знание основных команд работы с консолью (Windows/Linux).\n\n📌Что мы предлагаем:\n• Полностью белая ЗП два раза в месяц;\n• Оформление по ТК РФ;\n• Высокий уровень экспертности внутри компании, которым мы делимся друг с другом;\n• Перспективы вертикального и горизонтального роста;\n• Работа на российских и международных проектах;\n• Оборудованное рабочее место и парк тестовых устройств;\n• Подготовка и прохождение сертификации ISTQB бесплатно;\n• Внутренние и внешние курсы, доклады, конференции;\n• Бесплатные чай, кофе, печеньки в офисе;\n• Корпоративная спортивная программа (оплата тематических секций, частичная компенсация абонемента);\n• Проведение летних и зимних корпоративов, дня именинника, совместные походы и т.д.\n\n📌Зарплата:\n• от 50 000 (Договорная, по итогу собеседования)\n\n☎️Контакты:\nAlena","markup":[{"type":"hashtag","offset":6,"length":9,"data":"вакансия"},{"type":"hashtag","offset":16,"length":3,"data":"QA"},{"type":"hashtag","offset":20,"length":10,"data":"Ульяновск"},{"type":"hashtag","offset":31,"length":8,"data":"Саранск"},{"type":"hashtag","offset":40,"length":7,"data":"Казань"},{"type":"hashtag","offset":48,"length":7,"data":"Самара"},{"type":"hashtag","offset":56,"length":4,"data":"Уфа"},{"type":"hashtag","offset":61,"length":10,"data":"Краснодар"},{"type":"hashtag","offset":72,"length":5,"data":"офис"},{"type":"hashtag","offset":78,"length":17,"data":"удаленная_работа"}],"date":"2020-07-03T05:58:13+00:00","link":"tg://resolve?domain=qa_jobs&post=99486","tags":[{"name":"qa"},{"name":"web"},{"name":"mobile"},{"name":"sql"},{"name":"git"},{"name":"windows"},{"name":"linux"}],"cities":[{"code":"ulyanovsk"},{"code":"saransk"},{"code":"kazan"},{"code":"samara"},{"code":"ufa"},{"code":"krasnodar"}],"allowsRemote":true}},{"node":{"__typename":"Job","id":"26983006208-1001075660570","title":"Php разработчик","text":"#вакансия #удаленно #офис #ростов #senior\nКомпания «E.Mi» - производитель материалов для салонов красоты, дистрибуция, профессиональное образование, сеть салонов красоты.\nКомпания входит в ТОП-5 лидеров nail-рынка РФ и СНГ по объёму реализации.\nВ штат компании требуется Ведущий WEB-разработчик Bitrix\nЛокация: головной офис РФ - Ростов-на-Дону\nРассматриваем кандидатов как для удаленной работы, так и на офисную\n\nОбязанности:\n-Доработка функционала и исправление ошибок на сайтах;\n-Администрирование хостинга VPS, CentOS7;\n-Поддержка обмена данных Битрикс с 1С;\n-Настройка синхронизации с 1С, Битрикс24, данных между сайтами.\n\nУсловия:\n-Работа в крупной развивающейся компании;\n-Креативная и молодая команда;\n-В подчинении Web-разработчик и Web-мастер;\n-Оформление по ТК РФ.\n\nЗарплату готовы обсуждать от ваших ожиданий (от 70.000 руб)\nСвязь в лс, по телефону или почта bondarenko@emi-school.ru","markup":[{"type":"hashtag","offset":0,"length":9,"data":"вакансия"},{"type":"hashtag","offset":10,"length":9,"data":"удаленно"},{"type":"hashtag","offset":20,"length":5,"data":"офис"},{"type":"hashtag","offset":26,"length":7,"data":"ростов"},{"type":"hashtag","offset":34,"length":7,"data":"senior"},{"type":"bold","offset":279,"length":23,"data":""},{"type":"underline","offset":345,"length":69,"data":""},{"type":"bold","offset":414,"length":13,"data":""},{"type":"bold","offset":628,"length":9,"data":""},{"type":"link","offset":871,"length":24,"data":"mailto:bondarenko@emi-school.ru"}],"date":"2020-07-03T05:54:45+00:00","link":"tg://resolve?domain=php_jobs&post=25733","tags":[{"name":"php"},{"name":"web"},{"name":"centos"}],"cities":[{"code":"rostov"}],"allowsRemote":true}}]}}},"context":{}}