{"hash":"f5f6bf98bd95e769321482904cbbd488f77922fd","data":{"records":{"id":"russia/novosibirsk","country":{"code":"russia","ruName":"Россия","enName":"Russia"},"city":{"code":"novosibirsk","ruName":"Новосибирск","enName":"Novosibirsk"},"belongsTo":{"totalCount":19,"pageInfo":{"totalPages":2,"currentPage":1},"edges":[{"node":{"__typename":"Job","id":"72601305088-1001054966032","title":"Ios разработчик","text":"#вакансия #swift #ios #удаленка\n\nГород и адрес офиса: мы находимся в г.Новосибирск\n\nФормат работы: удаленно\n\nЗанятость: проектная\n\nОплата: 2 - 5 т.р.\n\nОписание вакансии: Ищем мобильного разработчика на Swift. Требуются небольшие доработки в приложение. \n\nКонтакты: @kovy17","markup":[{"type":"hashtag","offset":0,"length":9,"data":"вакансия"},{"type":"hashtag","offset":10,"length":6,"data":"swift"},{"type":"hashtag","offset":17,"length":4,"data":"ios"},{"type":"hashtag","offset":22,"length":9,"data":"удаленка"},{"type":"bold","offset":33,"length":20,"data":""},{"type":"bold","offset":84,"length":15,"data":""},{"type":"bold","offset":109,"length":10,"data":""},{"type":"bold","offset":131,"length":7,"data":""},{"type":"bold","offset":151,"length":18,"data":""},{"type":"bold","offset":255,"length":9,"data":""},{"type":"handle","offset":265,"length":7,"data":"kovy17"}],"date":"2020-07-03T04:52:53+00:00","link":"tg://resolve?domain=mobile_jobs&post=69238","tags":[{"name":"mobile"},{"name":"ios"},{"name":"swift"}],"cities":[{"code":"novosibirsk"}],"allowsRemote":true}},{"node":{"__typename":"Job","id":"2269118464-1001134745498","title":"Devops инженер","text":"#вакансия #Москва #Казань #Екатеринбург #Питер #Новосибирск фултайм #Экспресс42 #инженер #удаленка\nГород: Москва. Вакансия для кандидатов из любых городов.\nКомпания: Экспресс 42\nФормат работы: удалённый \nЗанятость: полная\nЗарплата: от 120 000 до 200 000 рублей на руки\n\nМы небольшая команда, которая легко проводит эксперименты и быстро принимает решения. Мы делаем проекты по постановке практик DevOps, обучению DevOps практикам в технологических компаниях и корпоративном секторе.\nВ составе нашей команды тебя ждут разнообразные задачи по созданию и улучшению решений, обеспечивающих процессы разработки и эксплуатации цифровых продуктов наших клиентов. \nМы строим высокодоступную и удобную инфраструктуру, изучаем новые подходы и помогаем нашим клиентом с внедрением и адаптацией инженерных практик, таких как Непрерывная поставка, Инфраструктура как код, Централизованное логирование. \nИнструменты выбираем под задачу и потребности клиентов, среди основных, которые точно нужно знать: Kubernetes и его экосистема, Ansible, Terraform, CI-сервисы, системы контроля версий, облачные решения от разных провайдеров.\n\nМы ожидаем от тебя:\n— знание практик и инструментов логирования и мониторинга;\n— опыт описания инфраструктуры в виде кода (Ansible, Terraform, etc);\n— понимание процесса CI/CD;\n— слова Kubernetes, Prometheus, Jenkins, Gitlab, ELK, AWS, GCP не вызывают изумления, а заставляют трепетать нежное сердце инженера\n\nКлассно, если у тебя есть опыт эксплуатации веб-проектов в продакшене. И если при этом ты можешь похвастаться опытом применения нескольких перечисленных инструментов, то тебе точно нужно в Экспресс.\n\nУ нас действительно огненная команда. Мы вместе работаем, общаемся, ходим в бары, посещаем ивенты, организовываем внутренние хакатоны, готовим друг друга к выступлениям на конференциях, поддерживаем и болеем за наше общее дело. А с марта мы перешли на удалённую работу 🚀\nУ нас классно! Присоединяйся!\n\nКонтакты: Рушана @razrushana и rushana@express42.com\n\n—\n\n👉 Обсуждение вакансии в чате @devops_jobs","markup":[{"type":"hashtag","offset":0,"length":9,"data":"вакансия"},{"type":"hashtag","offset":10,"length":7,"data":"Москва"},{"type":"hashtag","offset":18,"length":7,"data":"Казань"},{"type":"hashtag","offset":26,"length":13,"data":"Екатеринбург"},{"type":"hashtag","offset":40,"length":6,"data":"Питер"},{"type":"hashtag","offset":47,"length":12,"data":"Новосибирск"},{"type":"hashtag","offset":68,"length":11,"data":"Экспресс42"},{"type":"hashtag","offset":80,"length":8,"data":"инженер"},{"type":"hashtag","offset":89,"length":9,"data":"удаленка"},{"type":"handle","offset":1946,"length":11,"data":"razrushana"},{"type":"link","offset":1960,"length":21,"data":"mailto:rushana@express42.com"},{"type":"handle","offset":2016,"length":12,"data":"devops_jobs"}],"date":"2020-06-30T17:13:05+00:00","link":"tg://resolve?domain=devops_jobs_feed&post=2164","tags":[{"name":"kubernetes"},{"name":"ansible"},{"name":"jenkins"},{"name":"gitlab"},{"name":"amazon-web-services"},{"name":"google-cloud-platform"},{"name":"express"}],"cities":[{"code":"moscow"},{"code":"kazan"},{"code":"novosibirsk"}],"allowsRemote":true}},{"node":{"__typename":"Job","id":"72331821056-1001054966032","title":"Android developer","text":"#вакансия #Android #удаленка #remote #Senior \n\nSenior\\Lead Android developer at Quality Wolves (remote)\n\nГород и адрес офиса: Новосибирск, Академгородок \nФормат работы: удаленка\nЗанятость: проектная/частичная (оплата по часам)\nЗарплатная вилка: 20-25$ в час\nОписание:\nЧто хотим: \nЧтобы ты был опытным и самостоятельным ИПшником из России. \nА также:\nJava, Kotlin, \nAndroid Architecture Components,\nRxJava2, Coroutines DI (Kodein, Dagger2) \nRealm, Room, etc. \nMVVM, MVP, etc. \nАнглийский язык уровня Intermediate\nУмение развивать существующий код \nНавыки многопоточного программирования\nУровень не ниже senior\nОпыт коммерческой разработки для Android от 5 лет. \nАдекватную оценку своих профессиональных компетенций\n\nЧто даем:\nГибкий график работы, удаленка, прозрачный и лояльный менеджмент, 20-25$ в час, с потенциальным ростом оплаты, команда квалифицированных и адекватных профессионалов, существующие, интересные, крупные рабочие проекты и постоянный приток новых. Мы не делаем trash for cash и тебя не попросим. \n\nКомпания: Quality Wolves подробнее про вакансию и компанию - https://www.quality-wolves.com/senior_android_dev\n\nКонтакты: @punfush anna@quality-wolves.com (резюме, портфолио)\nАутсаф и кадровые не беспокоить","markup":[{"type":"hashtag","offset":0,"length":9,"data":"вакансия"},{"type":"hashtag","offset":10,"length":8,"data":"Android"},{"type":"hashtag","offset":19,"length":9,"data":"удаленка"},{"type":"hashtag","offset":29,"length":7,"data":"remote"},{"type":"hashtag","offset":37,"length":7,"data":"Senior"},{"type":"link","offset":1078,"length":49,"data":"https://www.quality-wolves.com/senior_android_dev"},{"type":"handle","offset":1139,"length":8,"data":"punfush"},{"type":"link","offset":1148,"length":23,"data":"mailto:anna@quality-wolves.com"}],"date":"2020-06-30T09:21:46+00:00","link":"tg://resolve?domain=mobile_jobs&post=68981","tags":[{"name":"mobile"},{"name":"android"},{"name":"java"},{"name":"kotlin"},{"name":"realm"},{"name":"mvvm"}],"cities":[{"code":"novosibirsk"}],"allowsRemote":true}},{"node":{"__typename":"Job","id":"2262827008-1001134745498","title":"Devops engineer","text":"#вакансия #удаленка #DevOps \n\nDevOps Engineer \nГород и адрес офиса: Москва, Сочи, Новосибирск \nФормат работы: удаленка\nЗанятость: полная\nЗарплатная вилка: 4000 - 5000$ в месяц \n\nКомпания решает задачи в областях искусственного интеллекта, машинного обучения и больших данных, а вам предстоит заниматься поддержкой сложной облачной инфраструктуры и развитием DevOps-практик в компании.\n\nСильная команда, сложные задачи, перспектива быстрого роста, удаленная работа, гибкий график. С вас — опыт 3+ лет, понимание современных подходов к инфраструктуре (immutable infrastructure) и представление о том, как работают современные вычислительные облака (aws, gcp, azure, openstack-based решения).\n\nТребования: \nDevOps/SRE, ключевые слова:\nTypeScrypt, Node.js, SRE, SDN, PoP, VPN, динамическая маршрутизация, инкапсуляция трафика, Kubernetes, Helm и что-нибудь из стораджа типа Lustre, CEPH и про Apache Spark, Hadoop и особенно HDFS\n\nЧто мы предлагаем:\n— Сложные задачи, в которых можно сильно прокачать свои навыки;\n— Гибкий график;\n— Оплата обучения внутри и вне компании.\n\nP.S. Ищем супер ниндзю, который творит чудеса;)\n\nПоскольку позиция требует срочного закрытия, для того, чтобы на нее откликнуться, кандидату нужно пройти отбор на платформе по ссылке https://6nomads.com/ (это займет около часа).\n\nКонтакт для связи: @temnik_sofya\n\n—\n\n👉 Обсуждение вакансии в чате @devops_jobs","markup":[{"type":"hashtag","offset":0,"length":9,"data":"вакансия"},{"type":"hashtag","offset":10,"length":9,"data":"удаленка"},{"type":"hashtag","offset":20,"length":7,"data":"DevOps"},{"type":"link","offset":1252,"length":20,"data":"https://6nomads.com/"},{"type":"handle","offset":1318,"length":13,"data":"temnik_sofya"},{"type":"handle","offset":1366,"length":12,"data":"devops_jobs"}],"date":"2020-06-29T22:07:11+00:00","link":"tg://resolve?domain=devops_jobs_feed&post=2158","tags":[{"name":"amazon-web-services"},{"name":"google-cloud-platform"},{"name":"azure"},{"name":"nodejs"},{"name":"kubernetes"},{"name":"apache"},{"name":"hadoop"},{"name":"hdfs"},{"name":"apache-spark"}],"cities":[{"code":"moscow"},{"code":"sochi"},{"code":"novosibirsk"}],"allowsRemote":true}},{"node":{"__typename":"Job","id":"1766850560-1001091028994","title":"Java разработчик","text":"#Java #developer #job #офис\n\nВакансия: Java-разработчик \n\nКомпания: Selecty\n\nГород: Москва, Санкт-Петербург, Новосибирск, Самара\n\nФормат работы: Офис\n\nЗанятость: full timе\n\nЗарплатная вилка: 320k net \n\nОписание вакансии:\n\nРазработка ПО для одного из крупнейших российских банков.\n\nОбязанности:\n• Разработка под Java, фреймворк: Spring boot\n• Разработка в рамках микросервисной архитектуры\n• Проектирование интерфейсов взаимодействия с другими системами.\n• Работа в тесном сотрудничестве со специалистами фронтенд разработки, тестирования и аналитиками.\n• Работа по гибким методологиям разработки.\n\nCтек технологий:\n• Java 8-11, Kotlin.\n• Spring/Springboot.\n• PostgreSQL/Oracle, Kafka, Redis\n• Maven/Gradle\n• Docker/Kubernetes(или OpenShift).\n\nНаши ожидания от кандидата:\n• уверенное владение Java, понимание принципов работы JVM. Знание основных библиотек и шаблонов проектирования.\n• опыт использования Spring Framework (boot, mvc, data, secutity...)\n• опыт работы с многопоточностью и асинхронностью.\n• опыт работы с базами данных, умение писать и оптимизировать запросы.\n• опыт работы с распределёнными хранилищами и системами.\n• знание HTTP, REST, SOAP.\n• опыт работы с фреймворками и инструментами автоматического тестирования (junit, postman, jmeter).\n\nМы предлагаем:\n•  Оформление согласно ТК РФ.\n•  Заработная плата полностью \"белая\".\n•  ДМС.\n•  Оплата корпоративной мобильной связи.\n•  Внутреннее, внешнее обучение (сертификаты).\n•  Льготные программы от компаний – партнеров.\n\nКонтакты: @lelya01\nolga.afonina@selecty.ru","markup":[{"type":"hashtag","offset":0,"length":5,"data":"Java"},{"type":"hashtag","offset":6,"length":10,"data":"developer"},{"type":"hashtag","offset":17,"length":4,"data":"job"},{"type":"hashtag","offset":22,"length":5,"data":"офис"},{"type":"handle","offset":1497,"length":8,"data":"lelya01"},{"type":"link","offset":1506,"length":23,"data":"mailto:olga.afonina@selecty.ru"}],"date":"2020-06-29T16:07:55+00:00","link":"tg://resolve?domain=jvmjobs&post=1685","tags":[{"name":"java"},{"name":"jvm"},{"name":"dotnet"},{"name":"spring"},{"name":"kotlin"},{"name":"postgresql"},{"name":"oracle"},{"name":"kafka"},{"name":"redis"},{"name":"maven"},{"name":"gradle"},{"name":"docker"},{"name":"kubernetes"},{"name":"rest"},{"name":"soap"},{"name":"junit"},{"name":"jmeter"},{"name":"spring-boot"}],"cities":[{"code":"moscow"},{"code":"novosibirsk"},{"code":"samara"}],"allowsRemote":false}},{"node":{"__typename":"Job","id":"103979941888-1001089317451","title":"Qa инженер","text":"#вакансия #QA #тестировщик #part-time #home-office #удалёнка #удаленная_работа #Новосибирск\n✅ Должность: Тестировщик ПО / QA engineer\n✅ Компания: Albatross Internet Group состоит из нескольких интернет-проектов со своими командами. \nМы поддерживаем атмосферу стартапа, чтобы оставаться гибкими и уметь оперативно принимать решения.\n✅ В одном из наших ключевых проектов открыта позиция QA инженер на part-time удаленную работу 8-10 часов в неделю.\n✅ Требуемый опыт работы: 1–3 года\n\n✅ Какие задачи тебя ждут?\n- тестирование задач по требованиям;\n- регрессионное тестирование на тестовом/боевом серверах;\n- формирование чек-листов;\n- написание технической документации по задачам;\n- автоматизация тестирования на Selenium(если опыта нет - не проблема, можем отправить на курсы);\n- постановка ТЗ для задач.\n\n✅ Чего мы ожидаем?\n- опыт тестирования браузерных приложений и нативных (IOS/Android);\n- умение применять на практике техники тест дизайна;\n- внимательность к деталям и неуклонное желание что-нибудь сломать;\n- понимание методологии разработки и тестирования ПО;\n- навыки в составлении и использовании тестовой документации (чек-листы, тест-кейсы, отчеты о тестировании);\n- опыт работы с Jira, Confluence.\n\n✅ Что будет преимуществом?\n- опыт автоматизации тестирования (желательно на Selenium);\n- опыт работы с системой контроля версий git;\n- опыт работы с Jenkins;\n- опыт написания SQL запросов (MySQL);\n- опыт работы с testRail, Postman;\n- опыт работы с Docker.\n\n✅ Условия:\n- оплата: до 300 руб./час\n- плавающий график\n- обучение за счет компании\n✅ Отклики с пометкой QA можно присылать на hr@albatrosscom.ru или сразу пишите @Tetyana7","markup":[{"type":"hashtag","offset":0,"length":9,"data":"вакансия"},{"type":"hashtag","offset":10,"length":3,"data":"QA"},{"type":"hashtag","offset":14,"length":12,"data":"тестировщик"},{"type":"hashtag","offset":27,"length":5,"data":"part"},{"type":"hashtag","offset":38,"length":5,"data":"home"},{"type":"hashtag","offset":51,"length":9,"data":"удалёнка"},{"type":"hashtag","offset":61,"length":17,"data":"удаленная_работа"},{"type":"hashtag","offset":79,"length":12,"data":"Новосибирск"},{"type":"link","offset":1595,"length":18,"data":"mailto:hr@albatrosscom.ru"},{"type":"handle","offset":1631,"length":9,"data":"Tetyana7"}],"date":"2020-06-29T12:44:10+00:00","link":"tg://resolve?domain=qa_jobs&post=99163","tags":[{"name":"qa"},{"name":"selenium"},{"name":"ios"},{"name":"android"},{"name":"git"},{"name":"jenkins"},{"name":"sql"},{"name":"mysql"},{"name":"docker"}],"cities":[{"code":"novosibirsk"}],"allowsRemote":true}},{"node":{"__typename":"Job","id":"71992082432-1001054966032","title":"Ios developer","text":"#вакансия #job #ios #swift #developer #Новосибирск #Калининград #Кострома #Екатеринбург #Питер #Тюмень \n\nВсем привет! \nОткрыта позиция на должность \n🔥iOS Developer🔥\n\nКомпания: ТЕНЗОР (https://tensor.ru)\nЦентры мобильной разработки:\n📱Новосибирск, \n📱Калининград, \n📱Кострома, \n📱Екатеринбург,\n📱Тюмень, \n📱Санкт-Петербург,\n📱Севастополь \nOffice, full-time\n🔸Оформление по ТК РФ 🔸ДМС со стоматологией🔸курсы иностранных языков🔸корпоративные праздники🔸комфортный офис \nЗП: \nMiddle 110 000-180 000\nSenior 180 000-300 000 на руки\n\nЕсли ты :\n✅ имеешь опыт программирования на Swift;\n✅ знаешь базовые фреймворки iOS SDK(UIKit, Foundation, CoreLocation идр.);\n✅ понимаешь принципы : SOLID, DI;\n✅ знаешь архитектурные паттерны:MVP, VIPER;\n✅ умеешь работать с AutoLayout из кода, StoryBoards, XIB;\n✅ готов к профессиональному развитию\nто пиши нам!!!\nЖдём вопросы и резюме! \n✍️ @kseniyahr\n📨 ke.pomigueva@tensor.ru","markup":[{"type":"hashtag","offset":0,"length":9,"data":"вакансия"},{"type":"hashtag","offset":10,"length":4,"data":"job"},{"type":"hashtag","offset":15,"length":4,"data":"ios"},{"type":"hashtag","offset":20,"length":6,"data":"swift"},{"type":"hashtag","offset":27,"length":10,"data":"developer"},{"type":"hashtag","offset":38,"length":12,"data":"Новосибирск"},{"type":"hashtag","offset":51,"length":12,"data":"Калининград"},{"type":"hashtag","offset":64,"length":9,"data":"Кострома"},{"type":"hashtag","offset":74,"length":13,"data":"Екатеринбург"},{"type":"hashtag","offset":88,"length":6,"data":"Питер"},{"type":"hashtag","offset":95,"length":7,"data":"Тюмень"},{"type":"link","offset":186,"length":17,"data":"https://tensor.ru"},{"type":"handle","offset":873,"length":10,"data":"kseniyahr"},{"type":"link","offset":887,"length":22,"data":"mailto:ke.pomigueva@tensor.ru"}],"date":"2020-06-25T08:37:26+00:00","link":"tg://resolve?domain=mobile_jobs&post=68657","tags":[{"name":"mobile"},{"name":"ios"},{"name":"swift"},{"name":"uikit"}],"cities":[{"code":"novosibirsk"},{"code":"kaliningrad"},{"code":"kostroma"},{"code":"tyumen"},{"code":"sevastopol"}],"allowsRemote":false}},{"node":{"__typename":"Job","id":"17048797184-1001110946746","title":"Javascript разработчик","text":"#вакансия #JavaScript #React #jenkins #HTML #CSS #офис #удаленка\n\nMiddle Frontend-разработчик (React)\nГород и адрес офиса: Новосибирск, центр и Академгородок\nФормат работы: Офис или удаленно, пятидневка\nЗанятость: Полный день\nЗарплатная вилка: от 80 000 до 130 000 руб.\n\nО компании: Компания создает и продает софт для любительской обработки видео, музыки и изображений, сотрудничает с Intel, Amazon, Google и NVIDIA.\n\nЧем предстоит заниматься:\n– разработка онлайн-программ для обработки мультимедиа (фоторедактор)\n– проведение ревью кода\n– внедрение новых технологий и подходов в разработке\n\nВ своей работе мы используем:\n– React\n– JavaScript/TypeScript\n– Webpack\n– HTML, CSS\n– Git, GitLab\n– Jenkins\n\nДля успешного выполнения задач тебе потребуется:\n– опыт работы на позиции frontend-разработчика от 1,5 лет\n– опыт разработки на React от 1 года\n– опыт удаленной работы в команде от полугода (в случае удаленной работы)\n– знание JavaScript\n\nофициальное трудоустройство с 1-го дня, белая зп\n\nНазвание компании: HR-project\nКонтакты: @nicedream13\n\n—\n\n👉 Обсуждение вакансии в чате @javascript_jobs","markup":[{"type":"hashtag","offset":0,"length":9,"data":"вакансия"},{"type":"hashtag","offset":10,"length":11,"data":"JavaScript"},{"type":"hashtag","offset":22,"length":6,"data":"React"},{"type":"hashtag","offset":29,"length":8,"data":"jenkins"},{"type":"hashtag","offset":38,"length":5,"data":"HTML"},{"type":"hashtag","offset":44,"length":4,"data":"CSS"},{"type":"hashtag","offset":49,"length":5,"data":"офис"},{"type":"hashtag","offset":55,"length":9,"data":"удаленка"},{"type":"handle","offset":1031,"length":12,"data":"nicedream13"},{"type":"handle","offset":1078,"length":16,"data":"javascript_jobs"}],"date":"2020-06-18T21:02:05+00:00","link":"tg://resolve?domain=javascript_jobs_feed&post=0","tags":[{"name":"javascript"},{"name":"reactjs"},{"name":"jenkins"},{"name":"html"},{"name":"css"},{"name":"typescript"},{"name":"webpack"},{"name":"git"},{"name":"gitlab"}],"cities":[{"code":"novosibirsk"}],"allowsRemote":true}},{"node":{"__typename":"Job","id":"17021534208-1001110946746","title":"Js разработчик","text":"#вакансия  #React #Новосибирск #fulltime #frontend #middle #senior    \n                                       \nГород: Новосибирск\nФормат: в офисе\nЗанятость: полная\nЗарплатная вилка: 100-140К на руки\nОписание:\nТехнологичный IT проект\nУсловия: \n- Продуктовая разработка;\n- Оформление согласно ТК РФ, белая зп;\n- ЗП вилка 100-140К на руки;\n- График 5/2;\n- Офис в Новосибирске.\n\nФункционал:\n- Разработка нового функционала проекта;\n- Участие в принятии архитектурных решений;\n- Ревью кода.\n\nПожелания к опыту:\nУверенное владение\n- React.js (приоритетно, но можно и vue.js), JS, CSS, ES6+\n- Опыт командной работы\n- Приветствуется опыт/понимание бэкенда.           \nКомпания: КА HRIT                                      \nКонтакт: @recruIIT\n\n—\n\n👉 Обсуждение вакансии в чате @javascript_jobs","markup":[{"type":"hashtag","offset":0,"length":9,"data":"вакансия"},{"type":"hashtag","offset":11,"length":6,"data":"React"},{"type":"hashtag","offset":18,"length":12,"data":"Новосибирск"},{"type":"hashtag","offset":31,"length":9,"data":"fulltime"},{"type":"hashtag","offset":41,"length":9,"data":"frontend"},{"type":"hashtag","offset":51,"length":7,"data":"middle"},{"type":"hashtag","offset":59,"length":7,"data":"senior"},{"type":"handle","offset":725,"length":9,"data":"recruIIT"},{"type":"handle","offset":769,"length":16,"data":"javascript_jobs"}],"date":"2020-06-17T15:29:40+00:00","link":"tg://resolve?domain=javascript_jobs_feed&post=0","tags":[{"name":"javascript"},{"name":"reactjs"},{"name":"vuejs"},{"name":"css"}],"cities":[{"code":"novosibirsk"}],"allowsRemote":false}},{"node":{"__typename":"Job","id":"2218786816-1001134745498","title":"Devops инженер","text":"#вакансия #DevOps\n\nDevOps Engineer \nГород и адрес офиса: Москва, Сочи, Новосибирск \n\nФормат работы: удаленка\n\nЗанятость: полная\n\nЗарплатная вилка: от 40000 до 60000 USD в год \n\nКрупная международная компания по разработке игр ищет в свою команду DevOps инженера. \n\nТребования: \nDevOps/SRE, ключевые слова:\nTypeScrypt, Node.js, SRE, SDN, PoP, VPN, динамическая маршрутизация, инкапсуляция трафика, Kubernetes, Helm и что-нибудь из стораджа типа Lustre, CEPH и про Apache Spark, Hadoop и особенно HDFS\n\nБудет плюсом: \n• Опыт удаленной работы.\n\nP.S. Ищем супер ниндзю, который творит чудеса;) \n\nКонтакт для связи: @nastya_stret\n\n—\n\n👉 Обсуждение вакансии в чате @devops_jobs","markup":[{"type":"hashtag","offset":0,"length":9,"data":"вакансия"},{"type":"hashtag","offset":10,"length":7,"data":"DevOps"},{"type":"handle","offset":611,"length":13,"data":"nastya_stret"},{"type":"handle","offset":659,"length":12,"data":"devops_jobs"}],"date":"2020-06-17T11:52:49+00:00","link":"tg://resolve?domain=devops_jobs_feed&post=2116","tags":[{"name":"nodejs"},{"name":"kubernetes"},{"name":"apache"},{"name":"hadoop"},{"name":"hdfs"},{"name":"apache-spark"}],"cities":[{"code":"moscow"},{"code":"sochi"},{"code":"novosibirsk"}],"allowsRemote":true}}]}}},"context":{}}