{"hash":"f5f6bf98bd95e769321482904cbbd488f77922fd","data":{"records":{"id":"swift","name":"swift","belongsTo":{"totalCount":133,"pageInfo":{"totalPages":14,"currentPage":7},"edges":[{"node":{"__typename":"Job","id":"71920779264-1001054966032","title":"Ios разработчик","text":"#вакансия #IOS #senior #full-time #офис #удаленка \nГород: Санкт-Петербург\nФормат работы: офис и удаленка\nЗанятость: полная \nЗарплатная вилка (обязательно): от 230 000 до 300 000 на руки\n\nКомпания: VOIR - приложение реалистичного диджитал мейкапа с самым большим количеством качественно оцифрованной продукции реальных брендов.\nМы используем компьютерное зрение, нейронные сети и запатентованный 3D рендеринг, чтобы обеспечить реалистичную примерку в дополненной реальности. \nНаше приложение Voir уже имеет более 3 млн. загрузок по всему миру.\n\nАудитория приложения составляет сотни тысяч пользователей по всему миру, и компания уже заключила партнерства с такими брендами как Dior, Sephora, Guerlain. Подробнее о компании можно узнать в статье Forbes и на сайте, а еще лучше скачать приложение.\nВ данный момент мы ищеним Senior IOS Developer'а. \n\nЧто нужно делать:\n\n* Активно участвовать в развитие проекта, общаться с командой, вместе находить крутые решения;\n* Разработка мобильных приложений;\n* Участие в работе над архитектурой, SDK, API;\n* Работа с командой разработчиков, тестировщиков, дизайнеров и специалистов по machine learning.\n\nЧто нам важно:\n\n* Опыт iOS разработки от 3-х лет;\n* Опыт разработки от 5-х лет;\n* Отличное знание Swift, RxSwift;\n* Отличное знание API и фреймворков iOS;\n* Отличные знания Metal, OpenGL, SceneKit, ARkit, CoreML;\n* Фундаментальные знания ООП, архитектур и алгоритмов;\n* Умение проводить комплексный анализ и самостоятельно решать проблемы;\n* Опыт разработки клиент-серверных приложений и работы с сетевыми протоколами;\n* Английский не ниже Intermediate, свободное чтение любой технической документации;\n* Опубликованные приложения, которые создавались с вашим значительным участием;\n* Плюсом будет открытый актуальный код на GitHub или даже в zip-архиве, статьи, выступления на конференциях, пришлите ссылки на них в сопроводительном письме;\n* Любить IOS и понимать гайды и best-practice;\n* Умение аргументированно излагать свою точку зрения.\n\nЧто мы предлагаем: \n\n* Интересные задачи на активно развивающемся проекте с использованием технологий machine learning;\n* Возможность непосредственно влиять на продукт и видеть результат работы;\n* Работу в профессиональной, заряженной команде и драйвовую атмосферу;\n* Гибкий график работы;\n* Белую зарплату, которая зависит только от ваших навыков и опыта;\n* Комфортный офис в 10 минутах ходьбы, от метро Петроградская.\n\nКонтакты: @aartenyan","markup":[{"type":"hashtag","offset":0,"length":9,"data":"вакансия"},{"type":"hashtag","offset":10,"length":4,"data":"IOS"},{"type":"hashtag","offset":15,"length":7,"data":"senior"},{"type":"hashtag","offset":23,"length":5,"data":"full"},{"type":"hashtag","offset":34,"length":5,"data":"офис"},{"type":"hashtag","offset":40,"length":9,"data":"удаленка"},{"type":"link","offset":737,"length":15,"data":"https://www.forbes.ru/tehnologii/381845-didzhital-makiyazh-kak-natalya-vodyanova-podarila-vtoruyu-zhizn-startapu-iz"},{"type":"link","offset":756,"length":5,"data":"http://voir.me/"},{"type":"link","offset":775,"length":19,"data":"https://apps.apple.com/us/app/voir-makeup-selfie-camera/id1226417060"},{"type":"handle","offset":2416,"length":10,"data":"aartenyan"}],"date":"2020-06-24T08:14:26+00:00","link":"tg://resolve?domain=mobile_jobs&post=68589","tags":[{"name":"mobile"},{"name":"ios"},{"name":"swift"},{"name":"opengl"},{"name":"github"},{"name":"machine-learning"}],"cities":[],"allowsRemote":true}},{"node":{"__typename":"Job","id":"71918682112-1001054966032","title":"Ios разработчик","text":"#вакансия #swift #objective-C #ios\n\niOS разработчик удаленно по России \nmiddle/senior\n\nГород : Санкт-Петербург\nФормат работы: офис или удаленно\nЗанятость: Полная\nЗарплатная вилка:  90 000 - 200 000 руб\n\n\nОписание компании:\nВ Blogman мы занимаемся разработкой собственного приложения – платформа для блогеров и рекламодателей. В нашей команде уже более 50 разработчиков и мы продолжаем расти. Сейчас мы ищем инженера с опытом коммерческой разработки под iOS.\nОсновной стек технологий — Swift, Realm, Alamofire. Сейчас мы разрабатываем бизнес-функционал и будем рады новому специалисту в нашей команде, вместе с которым мы будем делать быстрое приложение с отзывчивым и плавным интерфейсом.\n\nМы ожидаем, что у вас есть:\n— Опыт коммерческой разработки мобильных приложений под iOS;\n— Хорошие знания Swift, UIKit;\n— Опыт работы с мобильными БД;\n— Умение работать с Git, Cocoapods.\n\nБудет плюсом, если вы:\n— Разрабатывали клиент-серверные приложения;\n— Умеете работать с WebSocket;\n— Знаете и понимаете архитектуру VIPER;\n— Командный игрок без яркого эгоцентризма;\n— Готовы активно принимать участие в жизни компании и продукта.\n\nРады предложить:\n– Удаленное сотрудничество или комфортный офис на Невском проспекте в 5 минутах ходьбы от ст. м. Маяковская и Владимирская;\n– Желаемый оклад по результатам собеседования;\n– Понятную систему роста зарплаты каждые 6 месяцев, в которой все зависит только от вас;\n– Все необходимые офисные блага вроде вкусного кофе и т.д.\nВас будут окружать адекватные люди, с которыми комфортно решать поставленные задачи. У сотрудников есть общие ценности, такие как стремление к качественному результату, забота о продукте и желание двигаться вперед. Также у нас нет “Начальства”, а есть коллеги. Все взаимодействуют горизонтально и в команде равенство между инженерами, стейкхолдером, продактом и т.д. Все работают бок о бок и делают одно общее дело.\nНазвание компании: Blogman\nКонтакты: @maria_golovina","markup":[{"type":"hashtag","offset":0,"length":9,"data":"вакансия"},{"type":"hashtag","offset":10,"length":6,"data":"swift"},{"type":"hashtag","offset":17,"length":10,"data":"objective"},{"type":"hashtag","offset":30,"length":4,"data":"ios"},{"type":"bold","offset":225,"length":8,"data":""},{"type":"bold","offset":490,"length":2,"data":""},{"type":"bold","offset":497,"length":2,"data":""},{"type":"bold","offset":690,"length":27,"data":""},{"type":"bold","offset":878,"length":22,"data":""},{"type":"bold","offset":1125,"length":16,"data":""},{"type":"handle","offset":1914,"length":15,"data":"maria_golovina"}],"date":"2020-06-24T08:04:26+00:00","link":"tg://resolve?domain=mobile_jobs&post=68587","tags":[{"name":"mobile"},{"name":"ios"},{"name":"swift"},{"name":"objective-c"},{"name":"realm"},{"name":"uikit"},{"name":"git"},{"name":"cocoapods"},{"name":"websocket"}],"cities":[],"allowsRemote":true}},{"node":{"__typename":"Job","id":"71916584960-1001054966032","title":"Ios developer","text":"‼️Вакансия Senior iOS Developer в MNFST‼️\n\n#вакансия #ios #удалённо \nФормат работы: #удалённо\nЗанятость: полная\n💶 З/п: от 200 000 до 230 000 руб. на руки\n\n🏢 Компания: MNFST (mnfst.com)\n\nЧем предстоит заниматься: \n🔸 Разработка и доработка нового функционала iOS-приложения MNFST\n🔸 Поддержка и развитие AR и face tracker\n🔸 Работа над оптимизацией и стабильностью приложения\n\nТребования:\n✔️ Отличное владение языком Swift (не менее двух лет)\n✔️ Опыт коммерческой разработки iOS-приложений (не менее трех лет)\n✔️ Хорошее владение Objective-C\n✔️ Уверенное знание GCD и понимание ARC\n\nПлюсом будет:\n➕ Знание Objective-C Runtime\n➕ Опыт работы с AVFoundation, Vision, ARKit и CoreML\n➕ Опыт разработки Cocoa Touch Frameworks\n\n📨 Резюме и вопросы по вакансии присылайте на talent@mnfst.com или @aderyabin","markup":[{"type":"hashtag","offset":43,"length":9,"data":"вакансия"},{"type":"hashtag","offset":53,"length":4,"data":"ios"},{"type":"hashtag","offset":58,"length":9,"data":"удалённо"},{"type":"bold","offset":69,"length":14,"data":""},{"type":"hashtag","offset":84,"length":9,"data":"удалённо"},{"type":"bold","offset":94,"length":11,"data":""},{"type":"bold","offset":115,"length":5,"data":""},{"type":"bold","offset":159,"length":10,"data":""},{"type":"link","offset":176,"length":9,"data":"http://mnfst.com"},{"type":"bold","offset":188,"length":25,"data":""},{"type":"bold","offset":378,"length":11,"data":""},{"type":"bold","offset":584,"length":14,"data":""},{"type":"link","offset":768,"length":16,"data":"mailto:talent@mnfst.com"},{"type":"handle","offset":789,"length":10,"data":"aderyabin"}],"date":"2020-06-24T07:29:40+00:00","link":"tg://resolve?domain=mobile_jobs&post=68585","tags":[{"name":"mobile"},{"name":"ios"},{"name":"swift"},{"name":"objective-c"},{"name":"cocoa"},{"name":"cocoa-touch"}],"cities":[],"allowsRemote":true}},{"node":{"__typename":"Job","id":"71914487808-1001054966032","title":"Ios developer","text":"#вакансия #developer #iOS #moscow  #fulltime \niOS Developer\nГород: Москва\nФормат работы: офис \nЗанятость: полная\nЗП вилка: 160-290 тысяч \n\ninDriver - международный ride-hailing сервис:\n* 47 млн пользователей в 31 стране мира.\n* Входим в топ-5 мобильных сервисов для заказа поездки по итогам января 2020 года.\n* Офис возле м. Улица 1905 года.\n* Релокация в Москву для иногородних.\n\nОбязанности:\n• Разработка нового функционала приложения\n• Поддержка уже существующего функционала приложения\n• Участие в проектировании архитектуры системы\n\nТребования:\n• Отличное знание Swift и Objective-C\n•Опыт коммерческой iOS-разработки\n• Уверенное знание различных архитектурных подходов\n\nКонтакт для связи: @Liuboushka888","markup":[{"type":"hashtag","offset":0,"length":9,"data":"вакансия"},{"type":"hashtag","offset":10,"length":10,"data":"developer"},{"type":"hashtag","offset":21,"length":4,"data":"iOS"},{"type":"hashtag","offset":26,"length":7,"data":"moscow"},{"type":"hashtag","offset":35,"length":9,"data":"fulltime"},{"type":"handle","offset":694,"length":14,"data":"Liuboushka888"}],"date":"2020-06-24T06:00:18+00:00","link":"tg://resolve?domain=mobile_jobs&post=68583","tags":[{"name":"mobile"},{"name":"ios"},{"name":"swift"},{"name":"objective-c"}],"cities":[{"code":"moscow"}],"allowsRemote":false}},{"node":{"__typename":"Job","id":"71912390656-1001054966032","title":"Ios разработчик","text":"#remote #вакансия #ios #swift #fulltime\nПозиция: iOS Разработчик\nФормат работы: #удаленка \nЗанятость: полная\nЗарплатная вилка: от 70 000 руб. до 180 000 руб.\n\n🔥Описание вакансии:\nТребуется iOS разработчик с опытом создания iOS приложений от прототипа заказчика и до непосредственной публикации в App Store.\nДанная позиция предполагает полную занятость (минимум 30 часовая рабочая неделя).\nРассматриваем Senior и Middle кандидатов.\n\n👨🏻‍💻Требования:\n* опыт разработки iOS приложений (ожидается, что кандидат продемонстрирует хотя бы 1 приложение в App Store, разработанного с его/ее участием)\n* знание Swift\n* знание стандартных фреймворков и SDK\n* самое важное – умение и желание получать новые знания необходимые для работы\n\n🏢Компания: https://4spaces.company\n🌍Вакансия: https://hh.ru/vacancy/37463738\n💌Email: jobs@4spaces.company\n💬Skype: https://join.skype.com/invite/e0SoJ9M6dn8W","markup":[{"type":"hashtag","offset":0,"length":7,"data":"remote"},{"type":"hashtag","offset":8,"length":9,"data":"вакансия"},{"type":"hashtag","offset":18,"length":4,"data":"ios"},{"type":"hashtag","offset":23,"length":6,"data":"swift"},{"type":"hashtag","offset":30,"length":9,"data":"fulltime"},{"type":"hashtag","offset":80,"length":9,"data":"удаленка"},{"type":"link","offset":741,"length":23,"data":"https://4spaces.company"},{"type":"link","offset":777,"length":30,"data":"https://hh.ru/vacancy/37463738"},{"type":"link","offset":817,"length":21,"data":"http://jobs@4spaces.company/"},{"type":"link","offset":847,"length":42,"data":"https://join.skype.com/invite/e0SoJ9M6dn8W"}],"date":"2020-06-24T04:27:31+00:00","link":"tg://resolve?domain=mobile_jobs&post=68581","tags":[{"name":"mobile"},{"name":"ios"},{"name":"swift"}],"cities":[],"allowsRemote":true}},{"node":{"__typename":"Job","id":"71907147776-1001054966032","title":"Ios разработчик","text":"#вакансия #удаленно #частичная #IOS #Swift #нетология\n\n❗️«Нетология» ищет iOS—разработчиков на Swift уровня middle и выше для преподавания на курсах.\nРабота частичная/удаленная❗️\n\nВ чем можно участвовать: \n📌Проводить лекции и открытые занятия для студентов, быть для них тренером, помогать делать дипломный проект\n📌Участвовать в создании новых образовательных программ, быть автором курса\n\nЧто мы предлагаем: \n🔹Удаленную работу, которую можно совмещать с основной (объем, занятость обсуждаются индивидуально)\n🔹Личный PR как эксперта\n🔹Возможность прокачивать спикерские навыки и быть частью сообщества экспертов одной из лучших IT-компаний\n🔹З/п в зависимости от объема занятости ( до 100 тыс. руб.)\n\nУспешные специалисты, которые работают у нас, рассказывают о том, как это повлияло на их жизнь и карьеру ➡️//habr.com/ru/company/netologyru/blog/423023/\n\nУзнать подробнее о вакансии и отправить резюме: a.ogarkowa@netology.ru или сюда @mileyet","markup":[{"type":"hashtag","offset":0,"length":9,"data":"вакансия"},{"type":"hashtag","offset":10,"length":9,"data":"удаленно"},{"type":"hashtag","offset":20,"length":10,"data":"частичная"},{"type":"hashtag","offset":31,"length":4,"data":"IOS"},{"type":"hashtag","offset":36,"length":6,"data":"Swift"},{"type":"hashtag","offset":43,"length":10,"data":"нетология"},{"type":"link","offset":814,"length":43,"data":"http://habr.com/ru/company/netologyru/blog/423023/"},{"type":"link","offset":907,"length":22,"data":"mailto:a.ogarkowa@netology.ru"},{"type":"handle","offset":939,"length":8,"data":"mileyet"}],"date":"2020-06-23T22:46:53+00:00","link":"tg://resolve?domain=mobile_jobs&post=68576","tags":[{"name":"mobile"},{"name":"ios"},{"name":"swift"}],"cities":[],"allowsRemote":true}},{"node":{"__typename":"Job","id":"71887224832-1001054966032","title":"Ios developer","text":"#вакансия #спб #ios #middle #senior #spb #офис #IoT #умныйдом \nMiddle/Senior iOS developer \nReady for Sky 🚀 \nhttps://readyforsky.com/ru/career/ \n📍 полный день, удаленно/офис (сейчас вся компания работает удаленно) \nМы ищем iOS developer, который будет разрабатывать приложение, использующее данные с IoT-устройств для предоставления пользователям нужных товаров и услуг \n💡 Используем: Swift, Objective-C; Jenkins; GraphQL; RxSwift; MVC, MVVM и Viper \nВ команде: разрабатываем новый функционал приложения, внутренние фреймворки (Private pods), фреймворки для общего доступа; пишем Unit тесты; принимаем участие в создании протоколов работы с умными устройствами; Refactoring и Code-review. \nПредлагаем: \nРаботу в профессиональной команде (team lead, senior, middle), более 300 000 активных пользователей приложения. \nПолностью белую ЗП от 130 до 250 тыс. руб. на руки \nПосле исп.срока корпоративный английский \n📬 Пиши: @Rupeka_Natali","markup":[{"type":"hashtag","offset":0,"length":9,"data":"вакансия"},{"type":"hashtag","offset":10,"length":4,"data":"спб"},{"type":"hashtag","offset":15,"length":4,"data":"ios"},{"type":"hashtag","offset":20,"length":7,"data":"middle"},{"type":"hashtag","offset":28,"length":7,"data":"senior"},{"type":"hashtag","offset":36,"length":4,"data":"spb"},{"type":"hashtag","offset":41,"length":5,"data":"офис"},{"type":"hashtag","offset":47,"length":4,"data":"IoT"},{"type":"hashtag","offset":52,"length":9,"data":"умныйдом"},{"type":"bold","offset":63,"length":27,"data":""},{"type":"bold","offset":92,"length":13,"data":""},{"type":"link","offset":110,"length":34,"data":"https://readyforsky.com/ru/career/"},{"type":"bold","offset":225,"length":13,"data":""},{"type":"bold","offset":376,"length":11,"data":""},{"type":"bold","offset":454,"length":10,"data":""},{"type":"bold","offset":693,"length":11,"data":""},{"type":"bold","offset":916,"length":5,"data":""},{"type":"handle","offset":922,"length":14,"data":"Rupeka_Natali"}],"date":"2020-06-23T16:01:18+00:00","link":"tg://resolve?domain=mobile_jobs&post=68557","tags":[{"name":"mobile"},{"name":"ios"},{"name":"swift"},{"name":"objective-c"},{"name":"jenkins"},{"name":"graphql"},{"name":"mvvm"}],"cities":[],"allowsRemote":true}},{"node":{"__typename":"Job","id":"71875690496-1001054966032","title":"Ios разработчик","text":"❗️Вакансия IOS разработчик❗️\n#вакансия     #IOS   #офис\n\nГород: Санкт-Петербург\nФормат работы: офис\nЗанятость: полная\n💰ЗП: от 180 до 210\nКомпания: ООО Липтсофт\n\nОбязанности:\n✔️Разработка нативных iOS приложений (МБ для физ.лиц)\n✔️Обсуждение функционала и требований с разработчиками, дизайнерами, менеджерами проектов\n\nОпыт и навыки:\n- Swift от 1 года коммерческой разработки\n- REST, TCP, HTTPS(handshake, certificate, MITM understanding)\n- IB, Autolayout, Верстка из кода, SwiftUI + Combine\n- MVC, MVVM\n- ООП, SOLID, Design Patterns.\n- Multithreading (GCD, NSOperationQueue)\n- Git\n\nНаше предложение:\n✅белая заработная плата, премии и индексации;\n✅ДМС (включая стоматологию)\n✅компенсация занятий спортом;\n✅корпоративный английский в офисе;\n✅оплата курсов и участия в конференциях;\n✅гибкое начало рабочего дня с 9.00 до 11.00;\n✅комфортный офис в БЦ \"Санкт-Петербург Плаза\", м. Новочеркасская\";\n✅отсутствие дресс-кода;\n✅теннисный стол, снеки в офисе\n\nРезюме и любые вопросы присылайте @e_zharova или на почту e.zharova@lipt-soft.ru","markup":[{"type":"hashtag","offset":29,"length":9,"data":"вакансия"},{"type":"hashtag","offset":43,"length":4,"data":"IOS"},{"type":"hashtag","offset":50,"length":5,"data":"офис"},{"type":"handle","offset":984,"length":10,"data":"e_zharova"},{"type":"link","offset":1008,"length":22,"data":"mailto:e.zharova@lipt-soft.ru"}],"date":"2020-06-23T13:29:40+00:00","link":"tg://resolve?domain=mobile_jobs&post=68546","tags":[{"name":"mobile"},{"name":"ios"},{"name":"swift"},{"name":"rest"},{"name":"mvvm"},{"name":"git"}],"cities":[],"allowsRemote":false}},{"node":{"__typename":"Job","id":"71872544768-1001054966032","title":"Ios developer","text":"‼️Вакансия Senior iOS Developer в MNFST‼️\n\n#вакансия #ios #удалённо \nФормат работы: #удалённо\nЗанятость: полная\n💶 З/п: от 200 000 до 230 000 руб. на руки\n\n🏢 Компания: MNFST (mnfst.com)\n\nЧем предстоит заниматься: \n🔸 Разработка и доработка нового функционала iOS-приложения MNFST\n🔸 Поддержка и развитие AR и face tracker\n🔸 Работа над оптимизацией и стабильностью приложения\n\nТребования:\n✔️ Отличное владение языком Swift (не менее двух лет)\n✔️ Опыт коммерческой разработки iOS-приложений (не менее трех лет)\n✔️ Хорошее владение Objective-C\n✔️ Уверенное знание GCD и понимание ARC\n\nПлюсом будет:\n➕ Знание Objective-C Runtime\n➕ Опыт работы с AVFoundation, Vision, ARKit и CoreML\n➕ Опыт разработки Cocoa Touch Frameworks\n\n📨 Резюме и вопросы по вакансии присылайте на talent@mnfst.com или @aderyabin","markup":[{"type":"hashtag","offset":43,"length":9,"data":"вакансия"},{"type":"hashtag","offset":53,"length":4,"data":"ios"},{"type":"hashtag","offset":58,"length":9,"data":"удалённо"},{"type":"bold","offset":69,"length":14,"data":""},{"type":"hashtag","offset":84,"length":9,"data":"удалённо"},{"type":"bold","offset":94,"length":11,"data":""},{"type":"bold","offset":115,"length":5,"data":""},{"type":"bold","offset":159,"length":10,"data":""},{"type":"link","offset":176,"length":9,"data":"http://mnfst.com"},{"type":"bold","offset":188,"length":25,"data":""},{"type":"bold","offset":378,"length":11,"data":""},{"type":"bold","offset":584,"length":14,"data":""},{"type":"link","offset":768,"length":16,"data":"mailto:talent@mnfst.com"},{"type":"handle","offset":789,"length":10,"data":"aderyabin"}],"date":"2020-06-23T12:48:08+00:00","link":"tg://resolve?domain=mobile_jobs&post=68543","tags":[{"name":"mobile"},{"name":"ios"},{"name":"swift"},{"name":"objective-c"},{"name":"cocoa"},{"name":"cocoa-touch"}],"cities":[],"allowsRemote":true}},{"node":{"__typename":"Job","id":"71867301888-1001054966032","title":"Mobile разработчик","text":"#вакансия #работа #Москва #fulltime#IOS #Swift #ObjectiveC\n \nВсем привет:)\nИщем iOS разработчика с опытом работы от 1 года.\nЛокация: Москва, м. Бауманская/удаленка\nЗанятость: полный день\nВилка: до 150 000 на руки.\n \nMobile Dimension – продуктовая компания-разработчик В2В и В2С решений. В нашем действующем портфеле продуктов четыре решения, которые успешно реализуются на рынке. \n \nPregnancy Tracker  - это площадка для будущих мам, с активной аудиторией по всему миру (2 млн). Мы работаем в странах СНГ, Америке и выходим на рынок Китая. \nРазвитие проекта предполагает создание экосистемы приложений, а также внедрение внутренней криптовалюты.\n \nЗадачи:\n•Разработка нового функционала \n•Участие в полном цикле жизни продукта\n•Тесное взаимодействие с командами разработки и тестирования\n \nОжидания:\n•Опыт разработки под iOS от 1 года\n•Умение читать Оbjective-С\n•RxSwift, RxCocoa, RxFeedback, MagicalRecor, Moya\n•AutoLayout из кода\n•База данных Realm\n \nУсловия:\n•Достойная заработная плата по итогам собеседования\n•Оформление по ТК\n•Корпоративное обучение, профессиональный рост\n•Удобный график работы\n•Молодая и сплоченная команда, комфортная атмосфера и современный офис рядом с метро Бауманская. \n \nПо всем вопросам пишите в телеграм - Jenya_sll 😊","markup":[{"type":"hashtag","offset":0,"length":9,"data":"вакансия"},{"type":"hashtag","offset":10,"length":7,"data":"работа"},{"type":"hashtag","offset":18,"length":7,"data":"Москва"},{"type":"hashtag","offset":40,"length":6,"data":"Swift"},{"type":"hashtag","offset":47,"length":11,"data":"ObjectiveC"},{"type":"link","offset":216,"length":17,"data":"https://mobiledimension.ru/"},{"type":"bold","offset":216,"length":17,"data":""},{"type":"link","offset":383,"length":18,"data":"https://pregnancytracker.app/ru/"},{"type":"bold","offset":383,"length":18,"data":""},{"type":"bold","offset":648,"length":7,"data":""},{"type":"bold","offset":790,"length":9,"data":""},{"type":"bold","offset":953,"length":8,"data":""}],"date":"2020-06-23T12:37:33+00:00","link":"tg://resolve?domain=mobile_jobs&post=68538","tags":[{"name":"mobile"},{"name":"ios"},{"name":"swift"},{"name":"realm"}],"cities":[{"code":"moscow"}],"allowsRemote":true}}]}}},"context":{}}