{"hash":"f5f6bf98bd95e769321482904cbbd488f77922fd","data":{"records":{"id":"mobile","name":"mobile","belongsTo":{"totalCount":307,"pageInfo":{"totalPages":31,"currentPage":18},"edges":[{"node":{"__typename":"Job","id":"71832698880-1001054966032","title":"Ios разработчик","text":"#вакансия #swift #objective-C #ios\n\niOS разработчик удаленно по России \nmiddle/senior/lead\n\nГород : Санкт-Петербург\nФормат работы: офис или удаленно\nЗанятость: Полная\nЗарплатная вилка:  90 000 - 300 000 руб\n\n\nОписание компании:\nВ Blogman мы занимаемся разработкой собственного приложения – платформа для блогеров и рекламодателей. В нашей команде уже более 50 разработчиков и мы продолжаем расти. Сейчас мы ищем инженера с опытом коммерческой разработки под iOS.\nОсновной стек технологий — Swift, Realm, Alamofire. Сейчас мы разрабатываем бизнес-функционал и будем рады новому специалисту в нашей команде, вместе с которым мы будем делать быстрое приложение с отзывчивым и плавным интерфейсом.\n\nМы ожидаем, что у вас есть:\n— Опыт коммерческой разработки мобильных приложений под iOS;\n— Хорошие знания Swift, UIKit;\n— Опыт работы с мобильными БД;\n— Умение работать с Git, Cocoapods.\n\nБудет плюсом, если вы:\n— Разрабатывали клиент-серверные приложения;\n— Умеете работать с WebSocket;\n— Знаете и понимаете архитектуру VIPER;\n— Командный игрок без яркого эгоцентризма;\n— Готовы активно принимать участие в жизни компании и продукта.\n\nРады предложить:\n– Удаленное сотрудничество или комфортный офис на Невском проспекте в 5 минутах ходьбы от ст. м. Маяковская и Владимирская;\n– Желаемый оклад по результатам собеседования;\n– Понятную систему роста зарплаты каждые 6 месяцев, в которой все зависит только от вас;\n– Все необходимые офисные блага вроде вкусного кофе и т.д.\nВас будут окружать адекватные люди, с которыми комфортно решать поставленные задачи. У сотрудников есть общие ценности, такие как стремление к качественному результату, забота о продукте и желание двигаться вперед. Также у нас нет “Начальства”, а есть коллеги. Все взаимодействуют горизонтально и в команде равенство между инженерами, стейкхолдером, продактом и т.д. Все работают бок о бок и делают одно общее дело.\n\n@maria_golovina","markup":[{"type":"hashtag","offset":0,"length":9,"data":"вакансия"},{"type":"hashtag","offset":10,"length":6,"data":"swift"},{"type":"hashtag","offset":17,"length":10,"data":"objective"},{"type":"hashtag","offset":30,"length":4,"data":"ios"},{"type":"bold","offset":230,"length":8,"data":""},{"type":"bold","offset":495,"length":2,"data":""},{"type":"bold","offset":502,"length":2,"data":""},{"type":"bold","offset":695,"length":27,"data":""},{"type":"bold","offset":883,"length":22,"data":""},{"type":"bold","offset":1130,"length":16,"data":""},{"type":"handle","offset":1883,"length":15,"data":"maria_golovina"}],"date":"2020-06-23T07:28:06+00:00","link":"tg://resolve?domain=mobile_jobs&post=68505","tags":[{"name":"mobile"},{"name":"ios"},{"name":"swift"},{"name":"objective-c"},{"name":"realm"},{"name":"uikit"},{"name":"git"},{"name":"cocoapods"},{"name":"websocket"}],"cities":[],"allowsRemote":true}},{"node":{"__typename":"Job","id":"71831650304-1001054966032","title":"Android разработчик","text":"#вакансия #москва #офис #unity #developer #gamedev #csharp c#\n\nГород и адрес офиса: Москва, м.Автозаводская \nФормат работы: офис \nЗанятость: полная \nЗарплатная вилка: от 160 000 на руки \n\n📣 Unity Developer (gamedev)\n\n✅ Описание вакансии:\n\nAppQuantum - это успешная команда из 120 человек, которая занимается мобильным маркетингом, разработкой и паблишингом мобильных игр. Один из наших самых успешных проектов Idle Evil Clicker набрал за пол года 5 млн пользователей на iOS и Android и мы не планируем останавливаться на достигнутом.\nМы ищем сильного Unity разработчика для работы над проектами в жанре Idle / Clicker / Tycoon. У нас три запущенных проекта, сейчас работаем над четвертым.\n\n\n✅ Задачи:\n\n• Разработка клиентской части игры\n• Интеграция в проект готового контента (модели, анимации, звуки)\n• Интеграция в проект готовых VFX, написание логики их управления\n• Вёрстка UI по макетам от художников\n• Интеграция различных сторонних SDK\n\n\n✅ Требования:\n\n• Опыт работы на Unity3D (С#) от 3х лет\n• Отличное знание Unity и всех её подсистем\n• Отличное знание C#, умение писать чёткий, понятный, структурированный код\n• Отличное знание паттернов проектирования\n• Умение верстать адаптивные интерфесы в uGUI\n• Умение отлаживать и оптимизировать проекты под мобильные платформы iOS/Android\n• Понимание Рендер пайплайна Unity3D, его тонких мест и принципов оптимизации\n• Уверенные знания по работе с системой контроля версий git\n• Умение разбираться в чужом коде, проводить рефакторинг\n• Дисциплинированность и ответственность\n\n\n✅ Плюсом будет:\n\n• Участие в разработке выпущенных игр под мобильные платформы на аналогичной должности\n• Умение работать с шейдерами\n• Опыт работы с нативными плагинами (In-Apps, PUSH notifications, аналитика, реклама, социальное взаимодействие)\n• Опыт работы с ecs (Unity DOTS, Entitas)\n• Умение разрабатывать и поддерживать стабильную архитектуру\n• Коммуникабельность, yмение чётко доносить свою точку зрения и принимать точку зрения остальных участников команды\n\n\n✅ Для вас:\n\n• Конкурентная заработная плата по результатам собеседования, выплачивается 2 раза в месяц без задержек\n• Необходимое оборудование заказываем под вас\n• Возможность обучаться английскому языку с носителями каждый будний день по утрам\n• Собеседование сразу же с руководителем, который принимает решение о найме\n\nНазвание компании: AppQuantum\n\nhttps://appquantum.com/\n\nКонтакты: \ne-mail: bm@adquantum.com\ntelegram: @MishaBarinov","markup":[{"type":"hashtag","offset":0,"length":9,"data":"вакансия"},{"type":"hashtag","offset":10,"length":7,"data":"москва"},{"type":"hashtag","offset":18,"length":5,"data":"офис"},{"type":"hashtag","offset":24,"length":6,"data":"unity"},{"type":"hashtag","offset":31,"length":10,"data":"developer"},{"type":"hashtag","offset":42,"length":8,"data":"gamedev"},{"type":"hashtag","offset":51,"length":7,"data":"csharp"},{"type":"bold","offset":220,"length":18,"data":""},{"type":"bold","offset":694,"length":7,"data":""},{"type":"bold","offset":949,"length":11,"data":""},{"type":"bold","offset":1532,"length":13,"data":""},{"type":"bold","offset":2000,"length":8,"data":""},{"type":"link","offset":2351,"length":23,"data":"https://appquantum.com/"},{"type":"link","offset":2395,"length":16,"data":"mailto:bm@adquantum.com"},{"type":"handle","offset":2422,"length":13,"data":"MishaBarinov"}],"date":"2020-06-23T07:21:01+00:00","link":"tg://resolve?domain=mobile_jobs&post=0","tags":[{"name":"mobile"},{"name":"android"},{"name":"ios"},{"name":"unity3d"},{"name":"csharp"},{"name":"git"}],"cities":[{"code":"moscow"}],"allowsRemote":false}},{"node":{"__typename":"Job","id":"71826407424-1001054966032","title":"Ios developer","text":"#вакансия #Минск #fulltime #office #iOS \n\nГород: Минск, м. пл Ленина                            \nНазвание компании: Onde, https://onde.app\nФормат работы: офис \nЗанятость: полная\nЗарплатная вилка: от $3000 до $4000 чистыми (по результатам интервью)\n\nНаш продукт - SaaS решение для других бизнесов, позволяющее начать свой бизнес - например, сервис заказа такси, медицинских услуг, вызова нотариуса, бронирования и даже ухода за домашними питомцами.\n\nСейчас мы ищем Senior iOS Developer!\n\nНаш стек: Swift + Objective C, XCode/AppCode, CoreAnimation, Texture (ex AsyncDisplayKit), Fastlane, Git\n\nЧто мы предлагаем: \n- Гибкий график\n- Современный офис (не опенс спейс)\n- Возможность реализовывать свои самые разные идеи\n- Компенсация стоимости спортивного абонемента 50% \n- Скидка 30% на обеды\n- Медицинское страхование \n- Компенсация стоимости конференций, курсов и тренингов\n- Делить офис с 2 котиками 🐱\n- Насыщенная корпоративная жизнь\n\nБольше подробностей здесь: https://onde.app/careers/ios-developer\n\nБуду рада знакомству:\nEmail: maria.kulesh@onde.app","markup":[{"type":"hashtag","offset":0,"length":9,"data":"вакансия"},{"type":"hashtag","offset":10,"length":6,"data":"Минск"},{"type":"hashtag","offset":17,"length":9,"data":"fulltime"},{"type":"hashtag","offset":27,"length":7,"data":"office"},{"type":"hashtag","offset":35,"length":4,"data":"iOS"},{"type":"link","offset":122,"length":16,"data":"https://onde.app"},{"type":"link","offset":964,"length":38,"data":"https://onde.app/careers/ios-developer"},{"type":"link","offset":1033,"length":21,"data":"mailto:maria.kulesh@onde.app"}],"date":"2020-06-23T06:27:46+00:00","link":"tg://resolve?domain=mobile_jobs&post=68499","tags":[{"name":"mobile"},{"name":"ios"},{"name":"swift"},{"name":"objective-c"},{"name":"xcode"},{"name":"git"}],"cities":[{"code":"minsk"}],"allowsRemote":false}},{"node":{"__typename":"Job","id":"71798095872-1001054966032","title":"Ios developer","text":"#вакансия #IOS #Swift #Objective-C #middle #офис #Москва\n👋Приглашаем Middle IOS Developer в новый проект от Сбербанка.\n\n💸Уровень ЗП: 220К-280К net (в зависимости от типа оформления).\n\n📝Оформление: ИП или штат компании партнера.\n\n📍Локация: офис в г.Москва, Кутузовский проспект.\n\n🧑‍💻О проекте: Разработка чата и видеозвонка с целью реализовать единое рабочее место оператора для дополнительного канала обслуживания. С помощью чатов клиент сможет переписываться со своим дистанционным клиентским менеджером по премиальному каналу в МП СБОЛ, с возможностью передачи файлов. Видеозвонок позволит установить визуальный контакт клиентом со своим менеджером с возможностью показа презентаций. На базе удаленных каналов обслуживания планируется реализовать возможность удаленного предоставления клиенту всего спектра продуктов банка. В настоящий момент в банке обслуживается порядка 19 млн клиентов.\n\n🎯Мы ожидаем от вас:\n· знание Objective-C;\n· знание Swift;\n· опыт коммерческой разработки iOS-приложений не менее года;\n· опыт параллельного и многопоточного программирования;\n· опыт разработки сетевых приложений как на уровне сокетов, так и на уровне HTTP;\n· опыт работы с Core Data, Core Graphics, XML-парсером в iOS SDK;\n· умение разбираться и работать с чужим кодом.\n\nЖду Ваши резюме и буду рада ответить на все вопросы☺️\nКонтакты для связи: telegram @anisimovaane4ka","markup":[{"type":"hashtag","offset":0,"length":9,"data":"вакансия"},{"type":"hashtag","offset":10,"length":4,"data":"IOS"},{"type":"hashtag","offset":15,"length":6,"data":"Swift"},{"type":"hashtag","offset":22,"length":10,"data":"Objective"},{"type":"hashtag","offset":35,"length":7,"data":"middle"},{"type":"hashtag","offset":43,"length":5,"data":"офис"},{"type":"hashtag","offset":49,"length":7,"data":"Москва"},{"type":"handle","offset":1354,"length":16,"data":"anisimovaane4ka"}],"date":"2020-06-22T15:47:47+00:00","link":"tg://resolve?domain=mobile_jobs&post=68472","tags":[{"name":"mobile"},{"name":"ios"},{"name":"swift"},{"name":"objective-c"},{"name":"dotnet"},{"name":"xml"},{"name":"core-data"}],"cities":[{"code":"moscow"}],"allowsRemote":true}},{"node":{"__typename":"Job","id":"71795998720-1001054966032","title":"Android разработчик","text":"#вакансия #developer #android #москва #бауманская\nAndroid Developer\nГород: Москва\nФормат работы: офис\nЗанятость: полная\nЗарплатная вилка: от 100.000 до 250.000 тыс. руб. фикс\n\nИщем middle/senior разработчика в digital-агентство WakeApp для разработки приложений-утилит (forecast, vpn, safe kids etc) + приложение мотивированного траффика.\n\nСтек: Kotlin, RxJava2/RxAndroid, Dagger2, Android Architecture Components (LiveData, ViewModel, Room, Navigation);\n\nС Вас:\n🔸опыт разработки от 2-ух лет;\n🔸хорошие знания стека;\n🔸знание ООП, MVP, MVVM;\n🔸ориентирование в Android SDK, гайдлайнах, best practices;\n\nС нас:\n🔹достойный уровень заработной платы;\n🔹сложные и интересные задачи;\n🔹комфортный офис в пешей доступности от метро (кухня с запасом фруктов, йогуртов, мороженого);\n🔹технологическая свобода;\n🔹отличный коллектив и пятничные посиделки;\n\nКонтакты: @natereaver","markup":[{"type":"hashtag","offset":0,"length":9,"data":"вакансия"},{"type":"hashtag","offset":10,"length":10,"data":"developer"},{"type":"hashtag","offset":21,"length":8,"data":"android"},{"type":"hashtag","offset":30,"length":7,"data":"москва"},{"type":"hashtag","offset":38,"length":11,"data":"бауманская"},{"type":"bold","offset":50,"length":17,"data":""},{"type":"bold","offset":75,"length":6,"data":""},{"type":"bold","offset":97,"length":4,"data":""},{"type":"bold","offset":113,"length":6,"data":""},{"type":"bold","offset":138,"length":15,"data":""},{"type":"bold","offset":154,"length":20,"data":""},{"type":"bold","offset":228,"length":7,"data":""},{"type":"handle","offset":858,"length":11,"data":"natereaver"}],"date":"2020-06-22T15:29:10+00:00","link":"tg://resolve?domain=mobile_jobs&post=0","tags":[{"name":"mobile"},{"name":"android"},{"name":"kotlin"},{"name":"mvvm"}],"cities":[{"code":"moscow"}],"allowsRemote":false}},{"node":{"__typename":"Job","id":"71783415808-1001054966032","title":"Android разработчик","text":"#вакансия #android #java #kotlin #middle #senior #удаленка #remote #fulltime\n\nAndroid-разработчик удаленно от 200 тыс. руб.\n\nГород: Москва\nФормат работы: удаленно\nЗанятость: полная\nЗарплатная вилка: от 200 000 руб. до 250 000 руб. после налогообложения\nКомпания: CORE https://core.company\n\nМы команда разработчиков мобильных приложений и сейчас мы ищем Android-разработчика для одного из наших финтех-проектов.\n\nОсновные требования:\n— Опыт работы от 2-х лет;\n— Знание Java и Kotlin;\n— Опыт работы с Rx;\n— Знание шаблонов проектирования и умение их применять;\n— Понимание принципов SOLID;\n— Знание основных алгоритмов и структур данных;\n— Умение писать поддерживаемый и тестируемый код.\n\nУсловия:\n— Полный день, гибкий график;\n— Оформление по договору ГПХ.\n\nПрисылайте ваше резюме на @tv_corecompany","markup":[{"type":"hashtag","offset":0,"length":9,"data":"вакансия"},{"type":"hashtag","offset":10,"length":8,"data":"android"},{"type":"hashtag","offset":19,"length":5,"data":"java"},{"type":"hashtag","offset":25,"length":7,"data":"kotlin"},{"type":"hashtag","offset":33,"length":7,"data":"middle"},{"type":"hashtag","offset":41,"length":7,"data":"senior"},{"type":"hashtag","offset":49,"length":9,"data":"удаленка"},{"type":"hashtag","offset":59,"length":7,"data":"remote"},{"type":"hashtag","offset":67,"length":9,"data":"fulltime"},{"type":"link","offset":268,"length":20,"data":"https://core.company"},{"type":"handle","offset":783,"length":15,"data":"tv_corecompany"}],"date":"2020-06-22T14:12:24+00:00","link":"tg://resolve?domain=mobile_jobs&post=68458","tags":[{"name":"mobile"},{"name":"android"},{"name":"java"},{"name":"kotlin"}],"cities":[{"code":"moscow"}],"allowsRemote":true}},{"node":{"__typename":"Job","id":"71780270080-1001054966032","title":"Mobile разработчик","text":"💥 💥 💥💣💣💣\n#вакансия #developer #Solidity #C++ #rust #senior #remote #удаленно #fulltime#blockchain#backend \n\nВ компании TON Labs открыта Вакансия Senior Backend developer \n\nФормат работы: #удаленка\nЗанятость: #полная\nОпыт: 5+лет\nЗарплатная вилка: $2000-$4000\n\nTON Labs - независимая международная IT-компания, которая занимается  разработкой решений на основе блокчейн-платформы TON, с командой из более 50 разработчиков, инженеров и профессионалов со всего мира.  Проект реализуется с нуля.\n\nWe are looking for all candidates to have:\n   Deep knowledge in one of the following languages: Node JS, Solidity, C++\n  Some experience in statically typed and/or purely functional programming languages\n  Experience working with document oriented or real time databases\n  Interest in blockchain development and crypto-currencies\n  Good level of technical English, ability to communicate in English\n\nНазвание компании: Ton Labs\nКонтакты: @Marina0733\nДля резюме: marina.k@tonlabs.io","markup":[{"type":"hashtag","offset":15,"length":9,"data":"вакансия"},{"type":"hashtag","offset":25,"length":10,"data":"developer"},{"type":"hashtag","offset":36,"length":9,"data":"Solidity"},{"type":"hashtag","offset":46,"length":2,"data":"C"},{"type":"hashtag","offset":51,"length":5,"data":"rust"},{"type":"hashtag","offset":57,"length":7,"data":"senior"},{"type":"hashtag","offset":65,"length":7,"data":"remote"},{"type":"hashtag","offset":73,"length":9,"data":"удаленно"},{"type":"hashtag","offset":193,"length":9,"data":"удаленка"},{"type":"hashtag","offset":214,"length":7,"data":"полная"},{"type":"handle","offset":936,"length":11,"data":"Marina0733"},{"type":"link","offset":960,"length":19,"data":"mailto:marina.k@tonlabs.io"}],"date":"2020-06-22T13:54:15+00:00","link":"tg://resolve?domain=mobile_jobs&post=68455","tags":[{"name":"mobile"},{"name":"rust"},{"name":"nodejs"}],"cities":[],"allowsRemote":true}},{"node":{"__typename":"Job","id":"71778172928-1001054966032","title":"Ios разработчик","text":"#вакансия #ios #swift #middle #senior #удаленка #remote #fulltime\n\niOS-разработчик удаленно от 200 тыс. руб.\n\nГород: Москва\nФормат работы: удаленно\nЗанятость: полная\nЗарплатная вилка: от 200 000 руб. до 250 000 руб. после налогообложения\nКомпания: CORE https://core.company\nОписание вакансии:\n\nМы команда разработчиков мобильных приложений и сейчас мы ищем iOS-разработчика для одного из наших финтех-проектов.\n\nОсновные требования:\n— Опыт работы от 2-х лет;\n— Знание Objective-C и Swift;\n— Опыт работы с Rx;\n— Знание шаблонов проектирования и умение их применять;\n— Понимание принципов SOLID;\n— Знание основных алгоритмов и структур данных;\n— Умение писать поддерживаемый и тестируемый код.\n\nУсловия:\n— Полный день, гибкий график;\n— Оформление по договору ГПХ.\n\nПрисылайте ваше резюме на @tv_corecompany","markup":[{"type":"hashtag","offset":0,"length":9,"data":"вакансия"},{"type":"hashtag","offset":10,"length":4,"data":"ios"},{"type":"hashtag","offset":15,"length":6,"data":"swift"},{"type":"hashtag","offset":22,"length":7,"data":"middle"},{"type":"hashtag","offset":30,"length":7,"data":"senior"},{"type":"hashtag","offset":38,"length":9,"data":"удаленка"},{"type":"hashtag","offset":48,"length":7,"data":"remote"},{"type":"hashtag","offset":56,"length":9,"data":"fulltime"},{"type":"link","offset":253,"length":20,"data":"https://core.company"},{"type":"handle","offset":789,"length":15,"data":"tv_corecompany"}],"date":"2020-06-22T12:07:18+00:00","link":"tg://resolve?domain=mobile_jobs&post=68453","tags":[{"name":"mobile"},{"name":"ios"},{"name":"swift"},{"name":"objective-c"}],"cities":[{"code":"moscow"}],"allowsRemote":true}},{"node":{"__typename":"Job","id":"71777124352-1001054966032","title":"Ios разработчик","text":"#вакансия #ios \n\n📱Ищется в распределенную команду Разработчик IOS (Swift). \n\n✅ Формат работы:  удаленка/ meetup в СПб\n\n✅ Занятость: частичная, проектная\n\nПриглашаем Junior/Intermediate разработчика в команду для совместной работы над мобильным приложением (аналог системы охраны AJAX) управление умным домом, аналитика, оповещения и т.п. \n\n👨‍💻Мы - небольшая дружелюбная и веселая команда профессионалов, работаем в сфере автоматизации бизнеса различных направлений. С нами интересно и есть куда вырасти в части навыков, опыта и компетенций. \n\n✅ Условия: \n\n- Выплаты по этапам выполнения проекта \n- Новые задачи и проекты по мере роста компетенций и опыта.\n- Вилка 15000 - 60000р\n\n✅ Контакты:\n\n@vseoto","markup":[{"type":"hashtag","offset":0,"length":9,"data":"вакансия"},{"type":"hashtag","offset":10,"length":4,"data":"ios"},{"type":"link","offset":667,"length":13,"data":"tel:15000 - 60000"},{"type":"handle","offset":696,"length":7,"data":"vseoto"}],"date":"2020-06-22T11:48:13+00:00","link":"tg://resolve?domain=mobile_jobs&post=68452","tags":[{"name":"mobile"},{"name":"ios"},{"name":"swift"},{"name":"ajax"}],"cities":[],"allowsRemote":true}},{"node":{"__typename":"Job","id":"71776075776-1001054966032","title":"Mobile разработчик","text":"#вакансия #ReactNative #JavaScript #Краснодар #Ижевск #Екатеринбург #fulltime                                                                                                                                                                                                                                                                                                                                                                                                                                                                                                                                                                                                                                                                                                                                                                                                                                                                                                                                                                                                                                                                        \n\nГотовы обсудить удаленное сотрудничество, помощь при релокации, работу в любом из наших офисов.\n\n🔊Fastdev – шведская аутсорсинговая компания, помогает заказчикам с 2007 г.                                                                                                                                                                                                         Портфель проектов – интересный и разнообразный, как и экспертиза сотрудников, которую мы каждый день стремимся увеличить.\nНаша дружная сильная команда работает в Ижевске, Екатеринбурге и Краснодаре, головной офис компании - в Стокгольме.\nСейчас мы в поиске классного разработчика React Native на один из наших проектов.\n\n📝 Какой проект?\nРазработка для крупнейшего международной производителя швейных машин в Европе. Эти устройства – маленькие роботы, с приложениями для автоматизации всего процесса изготовления изделия, начиная от создания эскиза.\nУстройства ориентированы на широкого пользователя, в разработку активно внедряются вычислительные сети (TiO).\n\nВ поиске классного разработчика React Native на один из наших проектов для крупнейшего международной производителя швейных машин в Европе. \n                                                                                                                                                                                                              \nХорошо вольется в проект middle+ разработчик на React Native, c хорошим пониманием кросплатформенной разработки.\n\n💥  Что получает наш будущий сотрудник? \nО наших проектах и только зарубежных заказчиках можно рассказывать много - приходите в гости и приятно пообщайтесь с командой за чашкой кофе.\nЕсть все условия для развития: бесплатные занятия английским языком в офисе компании, конференции два раза в год для каждого, Performance review.\nДоход 100-150К net (для ориентира), каждый квартал 15% прибыли Fastdev делится между сотрудниками.\nУ нас гибкий график в комфортном офисе в центре, с отличным видом из окна.\nКомандировки за рубеж и возможность релокации в Европу – без этого никак, ведь компания европейская. \nОформляем в штат, все прозрачно, ДМС и компенсация спорта.\nКаждый год проводим выездной тимбилдинг всей компанией (РФ, Азия, Европа) – воспоминаний хватает до следующей встречи!                                                                                                                                                                                                                                                                                                                                                                                                                                                                                             \n\nПо вопросам и резюме пишите @Lizhen0305 или elizaveta.yakimova@fastdev.se","markup":[{"type":"hashtag","offset":0,"length":9,"data":"вакансия"},{"type":"hashtag","offset":10,"length":12,"data":"ReactNative"},{"type":"hashtag","offset":23,"length":11,"data":"JavaScript"},{"type":"hashtag","offset":35,"length":10,"data":"Краснодар"},{"type":"hashtag","offset":46,"length":7,"data":"Ижевск"},{"type":"hashtag","offset":54,"length":13,"data":"Екатеринбург"},{"type":"hashtag","offset":68,"length":9,"data":"fulltime"},{"type":"handle","offset":3895,"length":11,"data":"Lizhen0305"},{"type":"link","offset":3911,"length":29,"data":"mailto:elizaveta.yakimova@fastdev.se"}],"date":"2020-06-22T11:39:29+00:00","link":"tg://resolve?domain=mobile_jobs&post=68451","tags":[{"name":"mobile"},{"name":"javascript"},{"name":"reactjs"},{"name":"dotnet"},{"name":"react-native"}],"cities":[{"code":"krasnodar"},{"code":"izhevsk"}],"allowsRemote":true}}]}}},"context":{}}