{"hash":"f5f6bf98bd95e769321482904cbbd488f77922fd","data":{"records":{"totalCount":669,"pageInfo":{"totalPages":67,"currentPage":32},"edges":[{"node":{"id":"17123246080-1001110946746","title":"Js разработчик","text":"#вакансия #работа #удаленка #backend #node #nodejs #remote\nГород и адрес офиса: Москва, Савеловская\nФормат работы: удаленка\nЗанятость: полная || проектная\nЗарплатная вилка: 100-160 т.р.\n\nОписание вакансии: \nИщем опытного backend-разработчика node.js для разработки высоконадежных транзакционных сервисов интеграции с различными системами\n\nТребования:\n• Опыт работы с унаследованными системами\n• Знание PHP на уровне понимания и чтения кода будет плюсом\n• Знание и понимание работы сетевых протоколов TCP/IP, HTTP, SMTP, IMAP\n• Знание и понимание языка JavaScript и связанных с ним технологий и фреймворков\n• Опыт разработки серверных приложений\n• Понимание основных процессов разработки, умение работать в команде\n• Понимание принципов ООП, подходов в программировании и требований к транзакционным системам\n\nЗадачи:\n• Разработка высоконадежных транзакционных сервисов интеграции с различными системами\n• Поддержка и модернизация существующих систем\n\nНазвание компании: TechPlatforms (https://techpl.net)\nКонтакты:@desych79","markup":[{"type":"hashtag","offset":0,"length":9,"data":"вакансия"},{"type":"hashtag","offset":10,"length":7,"data":"работа"},{"type":"hashtag","offset":18,"length":9,"data":"удаленка"},{"type":"hashtag","offset":28,"length":8,"data":"backend"},{"type":"hashtag","offset":37,"length":5,"data":"node"},{"type":"hashtag","offset":43,"length":7,"data":"nodejs"},{"type":"hashtag","offset":51,"length":7,"data":"remote"},{"type":"link","offset":985,"length":18,"data":"https://techpl.net"},{"type":"handle","offset":1014,"length":9,"data":"desych79"}],"date":"2020-06-24T09:11:21+00:00","link":"tg://resolve?domain=javascript_jobs_feed&post=16330","tags":[{"name":"javascript"},{"name":"nodejs"},{"name":"php"},{"name":"smtp"},{"name":"dotnet"}],"cities":[{"code":"moscow"}],"allowsRemote":true}},{"node":{"id":"1732247552-1001091028994","title":"Java разработчик","text":"#Java #Spring #8bitgroup\n\nГород и адрес офиса: #Москва, ст.м. Тульская W-Плаза \nФормат работы: #офис или #remote\nЗанятость: #полная, #fulltime\nЗарплатная вилка: 200 000 – 300 000 руб.          \n\n8bitgroup в поиске #Java-разработчиков: Teamlead + 2 разработчика Mid или Senior\nРассмотрим по одному или переход командой. За каждый выход- бонус 50к\n\n Компания разрабатывает собственные продукты – партнёрские программы и рекламные системы CPA, RTB, CPI, mobile и игровые проекты с 2012г., владеет СРА-сетью Leadbit, и успешным игровым проектом - ссылку в личку.\nТут можно посмотреть офис и плюшки https://www.facebook.com/8bitgroup\n                                         \nНашим игровым проектам (БК с лицензией РУ, гэмблинг, игры) нужны явисты. У нас скилловая растущая команда. Все лето - свободное посещение офиса, далее по ситуации с Covid. Доставим железо и удобное кресло с трудовым договором на дом. \n\n Задачи: \n • Проектирование и разработка интеграционной платформы и ее инструментов ; ссылка на проект в личку.\n • Разработка решений с использованием открытого ПО;\n • Разработка модульных и интеграционных тестов;\n • Ревью кода;\n\nОпыт и навыки:\n • Опыт разработки промышленных (high load, low latency) приложений\n • Знание основных алгоритмов и структур данных;\n • Знание паттернов проектирования ПО;\n • Знание Java Сore\n • Опыт разработки веб-сервисов (REST, HTTP);\n • Опыт написания и оптимизации SQL запросов (MySQL);\n • Понимание требований ACID и уровней изолированности транзакций;\n • Уверенное знание фреймворка Spring\n • Знание системы управления версиями (Git); Jira желательно. \n \nМы предлагаем: \n• Оклад в указанной вилке от ожиданий и опыта\n• Соцпакет: футбол по вторникам, ДМС ВСК со стоматологией \n• Гибкий график - лояльное начало дня, 8 часов рабочий день, сейчас удаленка до сентября\n• Возможность выбрать машину (Мак или Линукс или др ПО) - доставим домой \n• Формат «работа на удаленке» по болезни  и карантину\n• Переиндексация ЗП и возможность пересмотра грейда и ЗП 1 раз в год \n• Офис с панорамой на Москву-реку и летняя веранда с шашлыками, гамаками и пиццой\n\nКонтакты: Мариэтта IT HR  @mari_et\nпочта hr@dats.team","markup":[{"type":"hashtag","offset":0,"length":5,"data":"Java"},{"type":"hashtag","offset":6,"length":7,"data":"Spring"},{"type":"hashtag","offset":14,"length":10,"data":"8bitgroup"},{"type":"hashtag","offset":47,"length":7,"data":"Москва"},{"type":"hashtag","offset":95,"length":5,"data":"офис"},{"type":"hashtag","offset":105,"length":7,"data":"remote"},{"type":"hashtag","offset":124,"length":7,"data":"полная"},{"type":"hashtag","offset":133,"length":9,"data":"fulltime"},{"type":"hashtag","offset":214,"length":5,"data":"Java"},{"type":"link","offset":594,"length":34,"data":"https://www.facebook.com/8bitgroup"},{"type":"handle","offset":2115,"length":8,"data":"mari_et"},{"type":"link","offset":2130,"length":12,"data":"mailto:hr@dats.team"}],"date":"2020-06-24T09:07:54+00:00","link":"tg://resolve?domain=jvmjobs&post=1652","tags":[{"name":"java"},{"name":"jvm"},{"name":"spring"},{"name":"mobile"},{"name":"rest"},{"name":"sql"},{"name":"mysql"},{"name":"git"}],"cities":[{"code":"moscow"}],"allowsRemote":true}},{"node":{"id":"1731198976-1001091028994","title":"Java разработчик","text":"#вакансия  #офис #удаленка #регионы #Москва #Java #Spring #senior #middle #backend\nЛокация: #регион #Москва\nФормат работы: #офис #fulltime #удаленка\nЗ/п: 150-250 NET\nКомпания: МД-IT\nВедущий разработчик/Разработчик JAVA  \nВсем привет!\n\n✅Нужны классные разработчики Java уровня Middle, Senior, Lead\n\n👉Немного о нас: \nЦентр разработки МД-IT реализует проекты федерального масштаба под ключ. Наши специалисты работают с крупнейшими системными интеграторами, выполняя задачи по проектированию, разработке, тестированию, сопровождению и эксплуатации внедренных решений. \nНаши офисы расположены в Москве, Ростове-на –Дону, Нижнем Новгороде. \n\n👉Что ждем от Вас:\n* Уверенные знания java 8+, spring boot, будет плюсом знание Kotlin. \n Глубокие знания и практический опыт использования Java в нагруженных многопоточных приложениях Hibernate, Spring, Maven3, ХML\n\n* Опыт проектирования версионнированных REST-API, знание grpc будет плюсом\n\n* Понимание принципов асинхронного программирования, знание одного из: netty, nio, r2dbc\n\n* Желателен опыт использования библиотек реактивного программирования (rxjava, reactor) или опыт работы с vert.x, ratpack или http4\n\n*Приветствуется опыт работы с современными архитектурами, Apache Ignite, Apache Kafka\n\n👉Что мы можем предложить Вам:\n\n* Работа: удаленка\n\n*График работы 5/2, команда работает с 9(10) до 18(19) ч. по МСК\n\n*Заработную плату белую, конкурентоспособную (рассмотрим ваши предложения).\n\n* Работа в команде сообразительных, открытых, стремящихся к развитию единомышленников.\n\n* Крупные и долгосрочные проекты, увеличивающие профессиональный кругозор и опыт работы. \n* Плюшки к чаю и кофе, оплачиваемая мобильная связь, оплачиваемые тренинги и курсы для повышения квалификации. \n\n🖍 Вопросы, резюме прошу писать в личку Елене @Elenazlh","markup":[{"type":"hashtag","offset":0,"length":9,"data":"вакансия"},{"type":"hashtag","offset":11,"length":5,"data":"офис"},{"type":"hashtag","offset":17,"length":9,"data":"удаленка"},{"type":"hashtag","offset":27,"length":8,"data":"регионы"},{"type":"hashtag","offset":36,"length":7,"data":"Москва"},{"type":"hashtag","offset":44,"length":5,"data":"Java"},{"type":"hashtag","offset":50,"length":7,"data":"Spring"},{"type":"hashtag","offset":58,"length":7,"data":"senior"},{"type":"hashtag","offset":66,"length":7,"data":"middle"},{"type":"hashtag","offset":74,"length":8,"data":"backend"},{"type":"hashtag","offset":92,"length":7,"data":"регион"},{"type":"hashtag","offset":100,"length":7,"data":"Москва"},{"type":"hashtag","offset":123,"length":5,"data":"офис"},{"type":"hashtag","offset":129,"length":9,"data":"fulltime"},{"type":"hashtag","offset":139,"length":9,"data":"удаленка"},{"type":"handle","offset":1772,"length":9,"data":"Elenazlh"}],"date":"2020-06-24T08:41:15+00:00","link":"tg://resolve?domain=jvmjobs&post=1651","tags":[{"name":"java"},{"name":"jvm"},{"name":"spring"},{"name":"dotnet"},{"name":"kotlin"},{"name":"hibernate"},{"name":"maven"},{"name":"rest"},{"name":"apache"},{"name":"kafka"},{"name":"spring-boot"}],"cities":[{"code":"moscow"}],"allowsRemote":true}},{"node":{"id":"103594065920-1001089317451","title":"Qa инженер","text":"#вакансия #QA #fulltime #hardware #firmware #петербург #спб #питер #офис\n\nМы — британская 🇬🇧 компания SoterAnalytics, разрабатываем не имеющее аналогов в мире решение для предотвращения травм 🤕 на производстве. Мы делаем небольшой девайс, который цепляется на рубашку 🦺 рабочим👨‍🏭👩‍🏭 и дает обратную связь🔔, если рабочий что-то делает не соблюдая техники безопасности. Среди наших клиентов крупнейшие логистические и горнодобывающие компании, авиакомпании и ритейлеры со всего мира — США, Великобритания, Австралия и пр (к примеру, Amazon, DHL, Coca-Cola). \n\nИщем в команду человека 👨👩 , который понимает, КАК нужно тестировать и ЧТО важно в этом процессе. Тестировать нужно будет много разного — блутус связь с девайсом (BLE, собственный протокол обмена данными, Nordic), мобильные приложения (преимущественно Flutter iOS/Android), веб (React + лендинги на WordPress и пр) и бэкенд (Go), так что скучать не придется. Ищем амбициозного человека, которому будет интересно вникнуть во все детали и наладить процессы тестирования.\n\nМы преимущественно ищем человека с опытом работы 👩‍💻👨‍💻. Но готовы рассматривать кандидатов и без опыта работы 👶, но с горящими глазами.\n\nТакже было бы неплохо, чтобы человек владел английским языком  — часть сотрудников у нас англоязычная;\n\nЗП\n• вилка от 40 000 РУБ 💵 и сильно больше, зависит от уровня кандидата 🤓\n• участие в доле компании\n\nСейчас работаем все еще удаленно, но постепенно возвращаемся в офис. Офис расположен в центре СПб, на ул Рубинштейна.\n\nПишите в личку — @votruk","markup":[{"type":"hashtag","offset":0,"length":9,"data":"вакансия"},{"type":"hashtag","offset":10,"length":3,"data":"QA"},{"type":"hashtag","offset":14,"length":9,"data":"fulltime"},{"type":"hashtag","offset":24,"length":9,"data":"hardware"},{"type":"hashtag","offset":34,"length":9,"data":"firmware"},{"type":"hashtag","offset":44,"length":10,"data":"петербург"},{"type":"hashtag","offset":55,"length":4,"data":"спб"},{"type":"hashtag","offset":60,"length":6,"data":"питер"},{"type":"hashtag","offset":67,"length":5,"data":"офис"},{"type":"handle","offset":1526,"length":7,"data":"votruk"}],"date":"2020-06-24T08:18:41+00:00","link":"tg://resolve?domain=qa_jobs&post=98795","tags":[{"name":"qa"},{"name":"flutter"},{"name":"ios"},{"name":"android"},{"name":"reactjs"},{"name":"wordpress"}],"cities":[],"allowsRemote":true}},{"node":{"id":"71920779264-1001054966032","title":"Ios разработчик","text":"#вакансия #IOS #senior #full-time #офис #удаленка \nГород: Санкт-Петербург\nФормат работы: офис и удаленка\nЗанятость: полная \nЗарплатная вилка (обязательно): от 230 000 до 300 000 на руки\n\nКомпания: VOIR - приложение реалистичного диджитал мейкапа с самым большим количеством качественно оцифрованной продукции реальных брендов.\nМы используем компьютерное зрение, нейронные сети и запатентованный 3D рендеринг, чтобы обеспечить реалистичную примерку в дополненной реальности. \nНаше приложение Voir уже имеет более 3 млн. загрузок по всему миру.\n\nАудитория приложения составляет сотни тысяч пользователей по всему миру, и компания уже заключила партнерства с такими брендами как Dior, Sephora, Guerlain. Подробнее о компании можно узнать в статье Forbes и на сайте, а еще лучше скачать приложение.\nВ данный момент мы ищеним Senior IOS Developer'а. \n\nЧто нужно делать:\n\n* Активно участвовать в развитие проекта, общаться с командой, вместе находить крутые решения;\n* Разработка мобильных приложений;\n* Участие в работе над архитектурой, SDK, API;\n* Работа с командой разработчиков, тестировщиков, дизайнеров и специалистов по machine learning.\n\nЧто нам важно:\n\n* Опыт iOS разработки от 3-х лет;\n* Опыт разработки от 5-х лет;\n* Отличное знание Swift, RxSwift;\n* Отличное знание API и фреймворков iOS;\n* Отличные знания Metal, OpenGL, SceneKit, ARkit, CoreML;\n* Фундаментальные знания ООП, архитектур и алгоритмов;\n* Умение проводить комплексный анализ и самостоятельно решать проблемы;\n* Опыт разработки клиент-серверных приложений и работы с сетевыми протоколами;\n* Английский не ниже Intermediate, свободное чтение любой технической документации;\n* Опубликованные приложения, которые создавались с вашим значительным участием;\n* Плюсом будет открытый актуальный код на GitHub или даже в zip-архиве, статьи, выступления на конференциях, пришлите ссылки на них в сопроводительном письме;\n* Любить IOS и понимать гайды и best-practice;\n* Умение аргументированно излагать свою точку зрения.\n\nЧто мы предлагаем: \n\n* Интересные задачи на активно развивающемся проекте с использованием технологий machine learning;\n* Возможность непосредственно влиять на продукт и видеть результат работы;\n* Работу в профессиональной, заряженной команде и драйвовую атмосферу;\n* Гибкий график работы;\n* Белую зарплату, которая зависит только от ваших навыков и опыта;\n* Комфортный офис в 10 минутах ходьбы, от метро Петроградская.\n\nКонтакты: @aartenyan","markup":[{"type":"hashtag","offset":0,"length":9,"data":"вакансия"},{"type":"hashtag","offset":10,"length":4,"data":"IOS"},{"type":"hashtag","offset":15,"length":7,"data":"senior"},{"type":"hashtag","offset":23,"length":5,"data":"full"},{"type":"hashtag","offset":34,"length":5,"data":"офис"},{"type":"hashtag","offset":40,"length":9,"data":"удаленка"},{"type":"link","offset":737,"length":15,"data":"https://www.forbes.ru/tehnologii/381845-didzhital-makiyazh-kak-natalya-vodyanova-podarila-vtoruyu-zhizn-startapu-iz"},{"type":"link","offset":756,"length":5,"data":"http://voir.me/"},{"type":"link","offset":775,"length":19,"data":"https://apps.apple.com/us/app/voir-makeup-selfie-camera/id1226417060"},{"type":"handle","offset":2416,"length":10,"data":"aartenyan"}],"date":"2020-06-24T08:14:26+00:00","link":"tg://resolve?domain=mobile_jobs&post=68589","tags":[{"name":"mobile"},{"name":"ios"},{"name":"swift"},{"name":"opengl"},{"name":"github"},{"name":"machine-learning"}],"cities":[],"allowsRemote":true}},{"node":{"id":"71918682112-1001054966032","title":"Ios разработчик","text":"#вакансия #swift #objective-C #ios\n\niOS разработчик удаленно по России \nmiddle/senior\n\nГород : Санкт-Петербург\nФормат работы: офис или удаленно\nЗанятость: Полная\nЗарплатная вилка:  90 000 - 200 000 руб\n\n\nОписание компании:\nВ Blogman мы занимаемся разработкой собственного приложения – платформа для блогеров и рекламодателей. В нашей команде уже более 50 разработчиков и мы продолжаем расти. Сейчас мы ищем инженера с опытом коммерческой разработки под iOS.\nОсновной стек технологий — Swift, Realm, Alamofire. Сейчас мы разрабатываем бизнес-функционал и будем рады новому специалисту в нашей команде, вместе с которым мы будем делать быстрое приложение с отзывчивым и плавным интерфейсом.\n\nМы ожидаем, что у вас есть:\n— Опыт коммерческой разработки мобильных приложений под iOS;\n— Хорошие знания Swift, UIKit;\n— Опыт работы с мобильными БД;\n— Умение работать с Git, Cocoapods.\n\nБудет плюсом, если вы:\n— Разрабатывали клиент-серверные приложения;\n— Умеете работать с WebSocket;\n— Знаете и понимаете архитектуру VIPER;\n— Командный игрок без яркого эгоцентризма;\n— Готовы активно принимать участие в жизни компании и продукта.\n\nРады предложить:\n– Удаленное сотрудничество или комфортный офис на Невском проспекте в 5 минутах ходьбы от ст. м. Маяковская и Владимирская;\n– Желаемый оклад по результатам собеседования;\n– Понятную систему роста зарплаты каждые 6 месяцев, в которой все зависит только от вас;\n– Все необходимые офисные блага вроде вкусного кофе и т.д.\nВас будут окружать адекватные люди, с которыми комфортно решать поставленные задачи. У сотрудников есть общие ценности, такие как стремление к качественному результату, забота о продукте и желание двигаться вперед. Также у нас нет “Начальства”, а есть коллеги. Все взаимодействуют горизонтально и в команде равенство между инженерами, стейкхолдером, продактом и т.д. Все работают бок о бок и делают одно общее дело.\nНазвание компании: Blogman\nКонтакты: @maria_golovina","markup":[{"type":"hashtag","offset":0,"length":9,"data":"вакансия"},{"type":"hashtag","offset":10,"length":6,"data":"swift"},{"type":"hashtag","offset":17,"length":10,"data":"objective"},{"type":"hashtag","offset":30,"length":4,"data":"ios"},{"type":"bold","offset":225,"length":8,"data":""},{"type":"bold","offset":490,"length":2,"data":""},{"type":"bold","offset":497,"length":2,"data":""},{"type":"bold","offset":690,"length":27,"data":""},{"type":"bold","offset":878,"length":22,"data":""},{"type":"bold","offset":1125,"length":16,"data":""},{"type":"handle","offset":1914,"length":15,"data":"maria_golovina"}],"date":"2020-06-24T08:04:26+00:00","link":"tg://resolve?domain=mobile_jobs&post=68587","tags":[{"name":"mobile"},{"name":"ios"},{"name":"swift"},{"name":"objective-c"},{"name":"realm"},{"name":"uikit"},{"name":"git"},{"name":"cocoapods"},{"name":"websocket"}],"cities":[],"allowsRemote":true}},{"node":{"id":"17120100352-1001110946746","title":"Js разработчик","text":"#вакансия #удаленка #работа #js #javascript #разработчик\n\nГород и адрес офиса: Тель-Авив \nФормат работы: удаленка\nЗанятость: полная, гибкий график.\n\nЗарплатная вилка: 5500-6000$/мес. (Почасовая оплата 35$/час + ежемесячный бонус 250$)\n\nНалоги платите по месту жительства. ИП 6%. Если патент, то он зависит от места жительства. В Подмосковье 12 000 руб в год. В Москве 300 тыс. в год. Как сами оформите налоги, так и платите. \n\nИщу разработчика к нам в команду: израильский проект Luminati (https://luminati.io).  Full-Stack. Компания разрабатывает несколько продуктов, в том числе p2p vpn, видео cdn нового поколения http://holaspark.com/\nОфис в Тель-Авиве, работа удаленная! График свободный. Что нам нужно:\n\n • Knowledge in Node JS framework: ExpressJS, Promise - Experience with MongoDB \n- Creating RESTful web services/API’s using Node.js with or without framework assistance \n\n- JavaScript-based unit testing tools \n\n- Client-side browser technologies including JavaScript, CSS, and HTML \n\n- 1 year development experience in Node JS with a solid working knowledge of frameworks and architecture \n\n- 2+ year’s overall development experience using JavaScript and open web technologies \n\n- хороший английский язык, идеальная грамматика не обязательна \n\n • работа удаленная, 7-9 часов в день (по желанию)\n • зарплата от 35$/час (+фиксированный бонус 250$ ежемесячно), через полгода повышается\n • после того, как откроют границы и будут возможны перелёты - выезд в офис на заключение контракта (перед этим возможно заключение с электронной подписью), отель и перелет за счет компании, море под окном\n\nОтвечу на все вопросы:)\n\nИнстаграмм https://instagram.com/hola_better_internet\n\nРезюме сюда:  luda.hola@gmail.com","markup":[{"type":"hashtag","offset":0,"length":9,"data":"вакансия"},{"type":"hashtag","offset":10,"length":9,"data":"удаленка"},{"type":"hashtag","offset":20,"length":7,"data":"работа"},{"type":"hashtag","offset":28,"length":3,"data":"js"},{"type":"hashtag","offset":32,"length":11,"data":"javascript"},{"type":"hashtag","offset":44,"length":12,"data":"разработчик"},{"type":"link","offset":490,"length":19,"data":"https://luminati.io"},{"type":"link","offset":617,"length":21,"data":"http://holaspark.com/"},{"type":"link","offset":1637,"length":42,"data":"https://instagram.com/hola_better_internet"},{"type":"link","offset":1695,"length":19,"data":"mailto:luda.hola@gmail.com"}],"date":"2020-06-24T08:01:10+00:00","link":"tg://resolve?domain=javascript_jobs_feed&post=16327","tags":[{"name":"javascript"},{"name":"nodejs"},{"name":"mongodb"},{"name":"web"},{"name":"css"},{"name":"html"},{"name":"unit-testing"}],"cities":[],"allowsRemote":true}},{"node":{"id":"71916584960-1001054966032","title":"Ios developer","text":"‼️Вакансия Senior iOS Developer в MNFST‼️\n\n#вакансия #ios #удалённо \nФормат работы: #удалённо\nЗанятость: полная\n💶 З/п: от 200 000 до 230 000 руб. на руки\n\n🏢 Компания: MNFST (mnfst.com)\n\nЧем предстоит заниматься: \n🔸 Разработка и доработка нового функционала iOS-приложения MNFST\n🔸 Поддержка и развитие AR и face tracker\n🔸 Работа над оптимизацией и стабильностью приложения\n\nТребования:\n✔️ Отличное владение языком Swift (не менее двух лет)\n✔️ Опыт коммерческой разработки iOS-приложений (не менее трех лет)\n✔️ Хорошее владение Objective-C\n✔️ Уверенное знание GCD и понимание ARC\n\nПлюсом будет:\n➕ Знание Objective-C Runtime\n➕ Опыт работы с AVFoundation, Vision, ARKit и CoreML\n➕ Опыт разработки Cocoa Touch Frameworks\n\n📨 Резюме и вопросы по вакансии присылайте на talent@mnfst.com или @aderyabin","markup":[{"type":"hashtag","offset":43,"length":9,"data":"вакансия"},{"type":"hashtag","offset":53,"length":4,"data":"ios"},{"type":"hashtag","offset":58,"length":9,"data":"удалённо"},{"type":"bold","offset":69,"length":14,"data":""},{"type":"hashtag","offset":84,"length":9,"data":"удалённо"},{"type":"bold","offset":94,"length":11,"data":""},{"type":"bold","offset":115,"length":5,"data":""},{"type":"bold","offset":159,"length":10,"data":""},{"type":"link","offset":176,"length":9,"data":"http://mnfst.com"},{"type":"bold","offset":188,"length":25,"data":""},{"type":"bold","offset":378,"length":11,"data":""},{"type":"bold","offset":584,"length":14,"data":""},{"type":"link","offset":768,"length":16,"data":"mailto:talent@mnfst.com"},{"type":"handle","offset":789,"length":10,"data":"aderyabin"}],"date":"2020-06-24T07:29:40+00:00","link":"tg://resolve?domain=mobile_jobs&post=68585","tags":[{"name":"mobile"},{"name":"ios"},{"name":"swift"},{"name":"objective-c"},{"name":"cocoa"},{"name":"cocoa-touch"}],"cities":[],"allowsRemote":true}},{"node":{"id":"71912390656-1001054966032","title":"Ios разработчик","text":"#remote #вакансия #ios #swift #fulltime\nПозиция: iOS Разработчик\nФормат работы: #удаленка \nЗанятость: полная\nЗарплатная вилка: от 70 000 руб. до 180 000 руб.\n\n🔥Описание вакансии:\nТребуется iOS разработчик с опытом создания iOS приложений от прототипа заказчика и до непосредственной публикации в App Store.\nДанная позиция предполагает полную занятость (минимум 30 часовая рабочая неделя).\nРассматриваем Senior и Middle кандидатов.\n\n👨🏻‍💻Требования:\n* опыт разработки iOS приложений (ожидается, что кандидат продемонстрирует хотя бы 1 приложение в App Store, разработанного с его/ее участием)\n* знание Swift\n* знание стандартных фреймворков и SDK\n* самое важное – умение и желание получать новые знания необходимые для работы\n\n🏢Компания: https://4spaces.company\n🌍Вакансия: https://hh.ru/vacancy/37463738\n💌Email: jobs@4spaces.company\n💬Skype: https://join.skype.com/invite/e0SoJ9M6dn8W","markup":[{"type":"hashtag","offset":0,"length":7,"data":"remote"},{"type":"hashtag","offset":8,"length":9,"data":"вакансия"},{"type":"hashtag","offset":18,"length":4,"data":"ios"},{"type":"hashtag","offset":23,"length":6,"data":"swift"},{"type":"hashtag","offset":30,"length":9,"data":"fulltime"},{"type":"hashtag","offset":80,"length":9,"data":"удаленка"},{"type":"link","offset":741,"length":23,"data":"https://4spaces.company"},{"type":"link","offset":777,"length":30,"data":"https://hh.ru/vacancy/37463738"},{"type":"link","offset":817,"length":21,"data":"http://jobs@4spaces.company/"},{"type":"link","offset":847,"length":42,"data":"https://join.skype.com/invite/e0SoJ9M6dn8W"}],"date":"2020-06-24T04:27:31+00:00","link":"tg://resolve?domain=mobile_jobs&post=68581","tags":[{"name":"mobile"},{"name":"ios"},{"name":"swift"}],"cities":[],"allowsRemote":true}},{"node":{"id":"71907147776-1001054966032","title":"Ios разработчик","text":"#вакансия #удаленно #частичная #IOS #Swift #нетология\n\n❗️«Нетология» ищет iOS—разработчиков на Swift уровня middle и выше для преподавания на курсах.\nРабота частичная/удаленная❗️\n\nВ чем можно участвовать: \n📌Проводить лекции и открытые занятия для студентов, быть для них тренером, помогать делать дипломный проект\n📌Участвовать в создании новых образовательных программ, быть автором курса\n\nЧто мы предлагаем: \n🔹Удаленную работу, которую можно совмещать с основной (объем, занятость обсуждаются индивидуально)\n🔹Личный PR как эксперта\n🔹Возможность прокачивать спикерские навыки и быть частью сообщества экспертов одной из лучших IT-компаний\n🔹З/п в зависимости от объема занятости ( до 100 тыс. руб.)\n\nУспешные специалисты, которые работают у нас, рассказывают о том, как это повлияло на их жизнь и карьеру ➡️//habr.com/ru/company/netologyru/blog/423023/\n\nУзнать подробнее о вакансии и отправить резюме: a.ogarkowa@netology.ru или сюда @mileyet","markup":[{"type":"hashtag","offset":0,"length":9,"data":"вакансия"},{"type":"hashtag","offset":10,"length":9,"data":"удаленно"},{"type":"hashtag","offset":20,"length":10,"data":"частичная"},{"type":"hashtag","offset":31,"length":4,"data":"IOS"},{"type":"hashtag","offset":36,"length":6,"data":"Swift"},{"type":"hashtag","offset":43,"length":10,"data":"нетология"},{"type":"link","offset":814,"length":43,"data":"http://habr.com/ru/company/netologyru/blog/423023/"},{"type":"link","offset":907,"length":22,"data":"mailto:a.ogarkowa@netology.ru"},{"type":"handle","offset":939,"length":8,"data":"mileyet"}],"date":"2020-06-23T22:46:53+00:00","link":"tg://resolve?domain=mobile_jobs&post=68576","tags":[{"name":"mobile"},{"name":"ios"},{"name":"swift"}],"cities":[],"allowsRemote":true}}]}},"context":{}}