{"hash":"f5f6bf98bd95e769321482904cbbd488f77922fd","data":{"records":{"id":"rest","name":"rest","belongsTo":{"totalCount":192,"pageInfo":{"totalPages":20,"currentPage":1},"edges":[{"node":{"__typename":"Job","id":"72626470912-1001054966032","title":"Ios developer","text":"#вакансия #москва #удаленка #fulltime #IOSdeveloper #swift #middle #senior \n\nКриптериум (https://crypterium.com) \n\nМеждународный финтех стартап (криптофиатные операции).\n\n🟢Что предстоит делать?\n\n🔹Разработка нового функционала мобильного приложения под iOS и исправление существующих недостатков;\n🔹Проведение интеграционных тестов при передаче функционала в тест;\n🔹Участие в принятии технических решений и планировании процесса разработки продукта;\n🔹Участие в CodeReview;\n🔹Покрытие написанного кода UnitTest’ами;\n🔹Участие в проектировании REST API.\n\n🟢Какие skill’s мы хотим видеть в нашем будущем коллеге?\n\n🔹Отличное знание Swift.\n🔹Знание архитектуры MVVM.\n🔹Использование Router, Assemblies, Managers.\n🔹Понимание принципов работы RESTful API и HTTP.\n🔹Знание шаблонов проектирования и умение их применять, придерживаясь принципов SOLID.\n🔹Знание основных алгоритмов и структур данных.\n🔹Умение писать поддерживаемый и тестируемый код.\n🔹Опыт модульного программирования в больших проектах\n🔹Понимание linking библиотек\n\n🟢Что мы готовы предложить будущему коллеге?\n\n🔹По настоящему заряженная команда профессионалов\n🔹Удаленная работа, с возможностью приезжать в офис, гибкое начало рабочего дня (c 9 до 12)\n🔹Возможности профессионально развиваться и расти\n\n📱Контакты:\n@kriskrisych Кристина","markup":[{"type":"hashtag","offset":0,"length":9,"data":"вакансия"},{"type":"hashtag","offset":10,"length":7,"data":"москва"},{"type":"hashtag","offset":18,"length":9,"data":"удаленка"},{"type":"hashtag","offset":28,"length":9,"data":"fulltime"},{"type":"hashtag","offset":38,"length":13,"data":"IOSdeveloper"},{"type":"hashtag","offset":52,"length":6,"data":"swift"},{"type":"hashtag","offset":59,"length":7,"data":"middle"},{"type":"hashtag","offset":67,"length":7,"data":"senior"},{"type":"link","offset":89,"length":22,"data":"https://crypterium.com"},{"type":"handle","offset":1282,"length":12,"data":"kriskrisych"}],"date":"2020-07-03T11:42:08+00:00","link":"tg://resolve?domain=mobile_jobs&post=0","tags":[{"name":"mobile"},{"name":"ios"},{"name":"swift"},{"name":"rest"},{"name":"mvvm"}],"cities":[{"code":"moscow"}],"allowsRemote":true}},{"node":{"__typename":"Job","id":"26997686272-1001075660570","title":"Php программист","text":"#вакансия #работа #fulltime #parttime #laravel #php #backend #Web\nГород и адрес офиса: Москва\nФормат работы: удаленка\nЗанятость: частичная, не менее 20-30 часов в неделю или полная 40 часов в неделю Зарплатная вилка: от 7$ до 20$ в час, либо сдельная\n\nПривет! Мы ищем человека который вольется в нашу команду для развития платформы EdaPort. Вам предстоит полностью взять на себя развитие бекенд-части.\nТребования:\nЗнание Laravel 5.x\nPHP 7.0 +\nЗнание для чего нужен REST-API и как его готовить\nРазбираться в чужом коде (наша платформа уже в продакшене)\nПисать понятные любому программисту Swagger-аннотации\nИметь представления о хорошей архитектуре, сейчас все не идеально, мы хотим чтобы становилось лучше с каждой итерацией.\nЛюбить или хотя бы не бояться писать тесты, понимать зачем они вообще нужны.\nИметь представление как работает CI\nОпыт работы по подключению платежных систем будет плюсом.\nУмение работать в команде, доступность с 10 до 19 по Москве (большую часть этого промежутка) для коммуникаций с командой.\nОпыт работы с таск-менеджерами будет плюсом.\n\nРабота удаленная, перед началом сотрудничества нужно будет пройти небольшое телефонное интервью с командой.\n\nКомпания: Enlighted\nКонтакты: Писать мне в личку @westarakagrek или на почту ra@enlighted.ru","markup":[{"type":"hashtag","offset":0,"length":9,"data":"вакансия"},{"type":"hashtag","offset":10,"length":7,"data":"работа"},{"type":"hashtag","offset":18,"length":9,"data":"fulltime"},{"type":"hashtag","offset":28,"length":9,"data":"parttime"},{"type":"hashtag","offset":38,"length":8,"data":"laravel"},{"type":"hashtag","offset":47,"length":4,"data":"php"},{"type":"hashtag","offset":52,"length":8,"data":"backend"},{"type":"hashtag","offset":61,"length":4,"data":"Web"},{"type":"handle","offset":1223,"length":14,"data":"westarakagrek"},{"type":"link","offset":1251,"length":15,"data":"mailto:ra@enlighted.ru"}],"date":"2020-07-03T11:31:03+00:00","link":"tg://resolve?domain=php_jobs&post=25747","tags":[{"name":"php"},{"name":"laravel"},{"name":"web"},{"name":"rest"},{"name":"swagger"}],"cities":[{"code":"moscow"}],"allowsRemote":true}},{"node":{"__typename":"Job","id":"104366866432-1001089317451","title":"Qa engineer","text":"#вакансия #QA #Краснодар #Krasnodar #fulltime #java #sql #API #web #mobile #Functionaltesting\n\n✅Вакансия: QA engineer \n✅Город: Краснодар (релокация)\n✅Занятость: полная, офис\n✅ЗП вилка: 80 000 - 100 000р. gross (обсуждаема)\n✅КА: IT.Huntme\n\nИщем функционального тестировщика, но если у него есть еще и знания автотестирования, то это доп. бонус (и в этом случае смотрим требования ниже для такого опыта).\n\nЗадачи:\n· Обеспечение качества разработки ПО;\n· Проведение системного, интеграционно-функционального, регрессионного тестирования в рамках регулярных интеграционных релизов, приветствуется желание участвовать в автоматизации процесса тестирования;\n· Автоматизация процессов функционального тестирования, разработка автотестов, заглушек, поддержка framework (для автотестировщиков)\n· Активное взаимодействие внутри команды и за ее пределами (аналитики, разработчики, тестировщики интеграционных проектов, работа в Agile команде);\n· Анализ бизнес требований, функциональных требований и технических заданий;\n· Ведение BUG-трекера; контроль, тестирование исправления дефектов;\n· Выявление и эскалация проблем, подготовка заключений качества тестирования.\n\n🙌Наши ожидания:\n· Опыт работы в сфере тестирования и /или аналитики от 1 года;\n· Знание теоретических основ тестирования, практик и инструментов;\n· Опыт подготовки тестовых моделей для тестирования нового функционала;\n· Умение грамотно описывать тестовую модель и дефекты;\n· Знание техник тест-дизайна и умение применять их на практике;\n· Опыт работы с багтрекинговыми системами и системами управления тестированием (HP ALM, Atlassian Jira или аналогичными): разработка тестов, кроссировка требований с тестами и работа с дефектами);\n· Знание SQL (написание запросов средней сложности, на уровне join)\n· Представление о взаимодействии интеграционных решений (front-end);\n· Опыт или хорошее представление о тестировании SOAP/REST веб-сервисов, работа с XML;\n\nДополнительно для автоматизаторов:\n· Опыт программирования на Java или\\и Python - практический навык написания автотестов с использованием хотя бы одного языка\n\nБудет плюсом:\n· Опыт работы в сфере тестирования более 1 года;\n· Практический опыт тестирования интеграционных решений на уровне UI и API;\n· Опыт системного и интеграционного тестирования релизов, в том числе взаимодействие фронт-офисных и бэк-офисных систем;\n· Опыт анализа большого объема документации и подготовки тестовой модели;\n· Знание SQL на более продвинутых уровнях (составление запросов различной сложности, объединение нескольких таблиц – от 3-х и более, вложенные запросы, фильтрация по нескольким полям, умение работать с разным форматом дат, создание/удаление редактирование таблиц, создание процедур), опыт работы с СУБД Oracle/MS SQL Server;\n· Опыт работы с десктопными приложениями или WEB-приложениями;\n· Опыт работы с расчетами комиссий, налогов;\n· Опыт работы с Diasoft 5NT\n· Опыт разработки авто-тестов по методологии BDD (Java + Spring Framework + Cucumber);\n· Опыт разработки эмуляторов/заглушек;\n· Практический опыт автоматизации тестирования на одном из инструменте: Selenium, cucumber, Junit, TestNG, Espresso, Earl Grey;\n· Практический опыт внедрения инструментов и практик DevOps;\n\n👍Что мы готовы предложить:\n- Работу в крупной компании с возможностью поработать в распределенной команде на крупном проекте; \n- Работу с новейшими технологиями и участие в проектах из разных областей;\n- Полное соблюдение ТК РФ; \n- Белая зарплата, отпускные и больничный + Социальный пакет;\n- ДМС с первого дня работы в компании;\n- Курсы английского языка.\n✍️Контакты: @mary_itfox или it.huntme@gmail.com","markup":[{"type":"hashtag","offset":0,"length":9,"data":"вакансия"},{"type":"hashtag","offset":10,"length":3,"data":"QA"},{"type":"hashtag","offset":14,"length":10,"data":"Краснодар"},{"type":"hashtag","offset":25,"length":10,"data":"Krasnodar"},{"type":"hashtag","offset":36,"length":9,"data":"fulltime"},{"type":"hashtag","offset":46,"length":5,"data":"java"},{"type":"hashtag","offset":52,"length":4,"data":"sql"},{"type":"hashtag","offset":57,"length":4,"data":"API"},{"type":"hashtag","offset":62,"length":4,"data":"web"},{"type":"hashtag","offset":67,"length":7,"data":"mobile"},{"type":"hashtag","offset":75,"length":18,"data":"Functionaltesting"},{"type":"handle","offset":3565,"length":11,"data":"mary_itfox"},{"type":"link","offset":3581,"length":19,"data":"mailto:it.huntme@gmail.com"}],"date":"2020-07-03T11:30:48+00:00","link":"tg://resolve?domain=qa_jobs&post=99532","tags":[{"name":"qa"},{"name":"java"},{"name":"sql"},{"name":"web"},{"name":"mobile"},{"name":"soap"},{"name":"rest"},{"name":"xml"},{"name":"python"},{"name":"oracle"},{"name":"spring"},{"name":"cucumber"},{"name":"selenium"},{"name":"junit"},{"name":"sql-server"}],"cities":[{"code":"krasnodar"}],"allowsRemote":false}},{"node":{"__typename":"Job","id":"72611790848-1001054966032","title":"Android разработчик","text":"#вакансия #работа #Android #Kotlin #удаленнаяработа\n\nГород: Москва\nФормат работы: фулл тайм удаленно \n\nЗарплатная вилка: от 150 000 до 230 000;\nКомпания: АО «Почта банк»\n\nМы занимаем лидирующие позиции в рейтингах Интернет-банков, и не останавливаемся на достигнутом. Приглашаем к себе в команду разработчика Android.\n\nВАША ГЛАВНАЯ ЗАДАЧА:\n⚡️Разработка систем дистанционного банковского обслуживания (мобильный банк) на Android.\n\nНАШИ ТРЕБОВАНИЯ:\n✅ Опыт разработки для платформы Android от 3-х лет;\n✅ Знание Android SDK, Java, Kotlin, Rest/SOAP, Google Maps API, SQLite;\n\nВАШИМ ДОПОЛНИТЕЛЬНЫМ ПРЕИМУЩЕСТВОМ БУДЕТ:\n✅ Наличие высшего технического образования;\n✅ Знание стандартов проектирования и разработки мобильных приложений;\n✅ Знание архитектуры мобильных приложений и реализации серверного взаимодействия для мобильных приложений;\n✅ Навыки работы с многопоточностью;\n✅Опыт работы в банковской сфере.\n\nГОТОВЫ ВАМ ПРЕДЛОЖИТЬ:\n🔹 Удобный график («плавающее» начало рабочего дня);\n🔹 Удаленный формат работы;\n🔹 Оклад + квартальное премирование + годовой бонус;\n🔹 Agile. Scrum (двухнедельные спринты, работа в командах по 6-8 человек: 2 backend, 3 frontend, системный аналитик, 2 тестировщика) Демократия и самоорганизация + наличие удаленного доступа;\n🔹 Обучение - доступное внутреннее и внешнее обучение. В Банке есть корпоративная академия. Регулярно проходят внутренние митаппы, tech. chapters и ретроспективы. Мы посещаем ключевые отраслевые конференции;\n🔹 Профессиональное развитие - мы используем современный стэк, поддерживаем разумные инициативы по внедрению новшеств, совершенствуем архитектуру и кодовую базу;\n🔹 Карьерный рост- команда постоянно растет. В зависимости от вклада, каждый сотрудник может претендовать на повышение дохода, новый функционал и дополнительные задачи. Мы держимся за наших сотрудников;\n🔹 ДМС. Многочисленные скидки и бонусы от партнеров (от каршеринга до ипотеки).\n\n📩 Контакты: @dorogavtseva","markup":[{"type":"hashtag","offset":0,"length":9,"data":"вакансия"},{"type":"hashtag","offset":10,"length":7,"data":"работа"},{"type":"hashtag","offset":18,"length":8,"data":"Android"},{"type":"hashtag","offset":27,"length":7,"data":"Kotlin"},{"type":"hashtag","offset":35,"length":16,"data":"удаленнаяработа"},{"type":"handle","offset":1921,"length":13,"data":"dorogavtseva"}],"date":"2020-07-03T09:38:54+00:00","link":"tg://resolve?domain=mobile_jobs&post=69248","tags":[{"name":"mobile"},{"name":"android"},{"name":"kotlin"},{"name":"java"},{"name":"rest"},{"name":"soap"},{"name":"sqlite"},{"name":"google-maps"}],"cities":[{"code":"moscow"}],"allowsRemote":true}},{"node":{"__typename":"Job","id":"104324923392-1001089317451","title":"Qa инженер","text":"#вакансия #работа #QA  #ручное #москва #fulltime #офис\n\nКомпания: X5FoodTech\n\nQA ручное тестирование\n\nГород: Москва м. Парк культуры(5 минут)\nФормат: в офисе\nЗанятость: полная\nЗарплатная вилка: до 100 000  рублей в месяц net (на руки)\n\nВсякие преимущества:\nВ нашей команде крутые ребята создатели и топы: \nKupiVip, Avito и других лидеров рынка.\nМы работаем в одной из самых быстрорастущих отраслей - FoodTech.\nРабота в современном офисе - WeWork. Кофе, печеньки, бесплатное пиво по вечерам.\nВозможность учиться, развиваться и много работать. \nДМС + стоматология.\n\nПродукт, который нужно тестировать:\nСсылка на мобильное приложение: http://app.5-delivery.ru/\n\nЗадачи:\nРучное тестирование мобильных приложений,\nЗаведение дефектов в системе баг-трекинга;\nСоставление тестовых сценариев и поддержка их в актуальном состоянии;\nПодготовка отчетов о тестировании;\nВзаимодействие с разработчиками, продакт-менеджером;\n\nПожелания к твоему опыту:\nЗнание методов и методик тестирования;\nОпыт работы с REST API, HTTP/HTTPS, JSON;\nОпыт тестирования с помощью Chrome DevTools\n\nБудет плюсом:\nПонимание как работают мобильные приложения и опыт их тестирования;\nРабота с базами данных. \n\nКонтакты: \nДарья\n@Daryanepevnaya\n+7 925 175 175 2 \ndarya.nepevnaya@x5.ru","markup":[{"type":"hashtag","offset":0,"length":9,"data":"вакансия"},{"type":"hashtag","offset":10,"length":7,"data":"работа"},{"type":"hashtag","offset":18,"length":3,"data":"QA"},{"type":"hashtag","offset":23,"length":7,"data":"ручное"},{"type":"hashtag","offset":31,"length":7,"data":"москва"},{"type":"hashtag","offset":39,"length":9,"data":"fulltime"},{"type":"hashtag","offset":49,"length":5,"data":"офис"},{"type":"link","offset":632,"length":25,"data":"http://app.5-delivery.ru/"},{"type":"handle","offset":1188,"length":15,"data":"Daryanepevnaya"},{"type":"link","offset":1204,"length":16,"data":"tel:+7 925 175 175 2"},{"type":"link","offset":1222,"length":21,"data":"mailto:darya.nepevnaya@x5.ru"}],"date":"2020-07-03T07:23:09+00:00","link":"tg://resolve?domain=qa_jobs&post=99492","tags":[{"name":"qa"},{"name":"dotnet"},{"name":"rest"},{"name":"json"}],"cities":[{"code":"moscow"}],"allowsRemote":false}},{"node":{"__typename":"Job","id":"17338204160-1001110946746","title":"Js developer","text":"#вакансия \n\nГород и адрес офиса: Москва (Калужская) или remote\nФормат работы: удаленка\nЗанятость: проектная\nЗарплатная вилка: от 90000 до 140000 руб / мес, для опытных возможен part-time (4 часа в день)\nОписание вакансии: JavaScript Node.js Developer\n\n📲 Кто мы?\n\n→ Компания Axept занимается консалтингом и заказной разработкой программных продуктов.\n→ Наши клиенты – Интернет-компании, профессиональные стартапы и крупные корпорации (Россия, Европа, Сингапур, Японии, США).\n→ Текущий портфель проектов – Личные кабинеты, ERP, Поисковые системы, CRM, Dashboards, Социальные сети, мобильные приложения.\n→ Центр разработки находится в Москве. Но 70% сотрудников работают удалённо по всему миру.\n→ Ключевой момент — мы относимся к проектам наших клиентов ❤️, как к своим собственным, с любовью и максимальной ответственностью.\n→ Много лет команнда Axept развивает сообщества Node.js, React.js и Kubernetes в России.\n→ Мы искренне любим то, что делаем и постоянно улучшаемся. Более подробно здесь – www.axept.com/ru-ru/jobs\n\n🎸 Задачи:\n\n1. Разработка Backend для ERP-платформы (Node.js, TypeScript, PostgreSQL, Redis, Express.js, Knex.js, Passport)\n2. Реализация REST API по модели www.jsonapi.org\n3. Документирование разрабатываемого REST API на Swagger или Apiary \n4. Разработка WebSockets-интерфейса\n\n🏆 Для этого вам потребуется:\n\n1. Опыт работы с PostgreSQL и Redis на уровне прямых коннекторов и knex (включая миграции)\n2. Понимание базовых принципов построения отказоустойчивой архитектуры\n3. Взаимодействие с файловой системой\n4. Свободное владение TypeScript\n5. Опыт работы с Express.js, Sentry и логгерами (Bunyan)\n6. Ваши будущие коллеги на Front-end используют React.js, поэтому понимае React.js и Redux будет плюсом\n7. Желание и готовность активно развиваться 🙂\n\n🎁 Что мы предлагаем?\n\n1. Полнностью удаленная работа (remote).\n2. Сильная команда коллег.\n3. Проекты и задачи, которые реально развивают.\n4. Оформление по ТК РФ. ЗП два раза в месяц.\n5. Опционально – ДМС, конференции, тренинги.\n6. Возможность присоединниться в офисе в БЦ НеоГео (Калужская) – самом стильном и награждаемом БЦ Москвы. В офисе новая техника от iMac до Dell, завтраки, M&Ms и прочие радости.\n7. Быстрая прокачка и гордость за результаты достигнутые вместе.\n8. Админка в @nodejs_ru (шутка).\n\n📩 Напишите краткий рассказ о себе и приложение резюме, отправьте сообщение @DenisIzmaylov или на @AxeptJobs или jobs@ru.axept.com","markup":[{"type":"hashtag","offset":0,"length":9,"data":"вакансия"},{"type":"link","offset":995,"length":24,"data":"http://www.axept.com/ru-ru/jobs"},{"type":"link","offset":1178,"length":15,"data":"http://www.jsonapi.org"},{"type":"handle","offset":2258,"length":10,"data":"nodejs_ru"},{"type":"handle","offset":2355,"length":14,"data":"DenisIzmaylov"},{"type":"handle","offset":2377,"length":10,"data":"AxeptJobs"},{"type":"link","offset":2392,"length":17,"data":"mailto:jobs@ru.axept.com"}],"date":"2020-07-02T18:48:53+00:00","link":"tg://resolve?domain=javascript_jobs_feed&post=16535","tags":[{"name":"javascript"},{"name":"nodejs"},{"name":"reactjs"},{"name":"kubernetes"},{"name":"typescript"},{"name":"postgresql"},{"name":"redis"},{"name":"express"},{"name":"rest"},{"name":"swagger"},{"name":"redux"},{"name":"react-redux"}],"cities":[{"code":"moscow"},{"code":"singapore"}],"allowsRemote":true}},{"node":{"__typename":"Job","id":"17334009856-1001110946746","title":"Js developer","text":"#вакансия #fulltime #backend #js #node\nBackend developer\nГород: Москва\nФормат работы: удаленная работа \nЗанятость: полная\nДиапазон: от 250 до 700 руб./ч\n\nОписание вакансии: Проект связан с сферой обучения. Задачи разработкa rest api и базы данных.\nСтек технологий: \n-node.js;\n- express.js;\n- sockets.\n\nКомпания: Secreate\nКонтакты: telegram @karysha","markup":[{"type":"hashtag","offset":0,"length":9,"data":"вакансия"},{"type":"hashtag","offset":10,"length":9,"data":"fulltime"},{"type":"hashtag","offset":20,"length":8,"data":"backend"},{"type":"hashtag","offset":29,"length":3,"data":"js"},{"type":"hashtag","offset":33,"length":5,"data":"node"},{"type":"handle","offset":340,"length":8,"data":"karysha"}],"date":"2020-07-02T16:35:35+00:00","link":"tg://resolve?domain=javascript_jobs_feed&post=16531","tags":[{"name":"javascript"},{"name":"nodejs"},{"name":"rest"},{"name":"express"}],"cities":[{"code":"moscow"}],"allowsRemote":true}},{"node":{"__typename":"Job","id":"17329815552-1001110946746","title":"Js разработчик","text":"#вакансия #vue #vuex #frontend\nМосква, м. Цветной бульвар (2 мин до офиса), фулл тайм в офис на полную занятость\nЗарплатная вилка: от 90 до 180 т.р.\nJETSTAT \n\nОписание вакансии: \nМы делаем инструмент (ETL), который помогает упростить работу пользователей с отчетами.\nМы подключаемся к различным сервисам: рекламным, аналитическим, базам данных и тд, чтобы с помощью автоматизации решать задачи для аналитики и маркетинга.\n\nИщем frontend разработчика для нашей аналитической платформы. У тебя будет самостоятельность в принятии решений, например построение архитектуры.\nПроцессы не строго регламентированы и мы прислушиваемся ко мнению каждого при планировании спринтов.\n\nТебе предстоит:\n\n- разрабатывать сложные интерактивных интерфейсы на JS с использованием Vue;\n- разрабатывать архитектуру проекта со стороны frontend.\n\nМы ожидаем:\n\n- знание JS (ES5 / ES6);\n- знание Vue.js, Vuex Webpack;\n- знание и понимание клиент-серверного взаимодействия;\n- умение работать с REST-API; \n- HTML5, CSS3.\n\nБудет плюсом:\n\n- опыт тестирования кода (мы используем mocha, chai и sinon);\n- WebSockets (используем socket-io).\n\nhttps://jetstat.io/workflow \n\nКонтакты: @diana131313","markup":[{"type":"hashtag","offset":0,"length":9,"data":"вакансия"},{"type":"hashtag","offset":10,"length":4,"data":"vue"},{"type":"hashtag","offset":15,"length":5,"data":"vuex"},{"type":"hashtag","offset":21,"length":9,"data":"frontend"},{"type":"link","offset":1110,"length":27,"data":"https://jetstat.io/workflow"},{"type":"handle","offset":1150,"length":12,"data":"diana131313"}],"date":"2020-07-02T16:33:11+00:00","link":"tg://resolve?domain=javascript_jobs_feed&post=16527","tags":[{"name":"javascript"},{"name":"vuejs"},{"name":"webpack"},{"name":"rest"},{"name":"html"},{"name":"css"},{"name":"mocha"}],"cities":[{"code":"moscow"}],"allowsRemote":false}},{"node":{"__typename":"Job","id":"17326669824-1001110946746","title":"Js разработчик","text":"#вакансия #удаленка #fulltime #react #node #typescript \n\nГород: Москва\nФормат: удалённая работа\nЗанятость: полная\nЗарплатная вилка: от 150к до 250к на руки.\n\nВ российскую геймдев компанию требуется опытный TypeScript разработчик для разработки нового и доработок текущего функционала проекта на Node.js/React.\n\nНа протяжении 10 лет компания занимается разработкой, лицензированием и локализацией многопользовательских онлайн-игр. На сегодняшний день наш портфель состоит из игровых проектов разных жанров, включая легендарные MMO TERA, «Ботва», Music Wars и др. Некоторые разработки получили признание в Европе и Северной Америке.\n\nТребования:\n• React.js (React Hooks, JSX)\n• State Management (Redux)\n• Node.js\n• TypeScript\n• HTML5\n, CSS3 / SCSS \n• REST API\n• WebSocket\n• Опыт работы c PostgreSQL\n• Опыт работы с Redis\n• Bash\n• Docker\n• Git\n\nПриветствуется:\n• Docker + docker-compose\n• Angular (8+)\n• Опыт работы с криптовалютами и мастернодами\n• Умение быстро разбираться с новыми технологиями\n\nУсловия:\n• дружная и профессиональная команда (средний возраст которой 27 лет)\n• отличная возможность с головой погрузиться в мир гейм-индустрии\n• удаленная работа из любой точки мира, гибкий график\n\nПо всем вопросам: @rjaidy","markup":[{"type":"hashtag","offset":0,"length":9,"data":"вакансия"},{"type":"hashtag","offset":10,"length":9,"data":"удаленка"},{"type":"hashtag","offset":20,"length":9,"data":"fulltime"},{"type":"hashtag","offset":30,"length":6,"data":"react"},{"type":"hashtag","offset":37,"length":5,"data":"node"},{"type":"hashtag","offset":43,"length":11,"data":"typescript"},{"type":"handle","offset":1214,"length":7,"data":"rjaidy"}],"date":"2020-07-02T16:31:36+00:00","link":"tg://resolve?domain=javascript_jobs_feed&post=16524","tags":[{"name":"javascript"},{"name":"reactjs"},{"name":"nodejs"},{"name":"typescript"},{"name":"redux"},{"name":"html"},{"name":"css"},{"name":"rest"},{"name":"websocket"},{"name":"postgresql"},{"name":"redis"},{"name":"bash"},{"name":"docker"},{"name":"git"},{"name":"angularjs"},{"name":"docker-compose"}],"cities":[{"code":"moscow"}],"allowsRemote":true}},{"node":{"__typename":"Job","id":"1774190592-1001091028994","title":"Java разработчик","text":"#москва #удаленка #fulltime #JavaDeveloper #Backend\n\nJava-разработчик/Backend Developer \n\nООО Криптериум (https://crypterium.com)\n\nЗп: 180.000-270.000 net\n\nПривет!\n\nМы команда Crypterium!\n\nМы международный финтех стартап.\n\nМы строим банк будущего, который поддерживает криптофиатные операции.\n\nНаша цель – создание сервиса, который фактически займёт место традиционных банков, по всем возможным банковским операциям!\n\nУ нас сложные, но интересные задачи по созданию крутого и по-настоящему полезного продукта для людей из разных стран по всему миру. Работа у нас реальная возможность приложить руку к крутому продукту, которым будет пользоваться большое количество людей.\n\nНа данный момент наша компания активно растет и развивается, в связи с этим мы ищем Backend Developer. Нам нужен по-настоящему про активный и ответственный сотрудник. Задач много, они разные и крайне интересны\n\n🟢Что предстоит делать?\n\n🔹Разработка бэкэнда финансового приложения;\n🔹Разработка платформенных микросервисов: интеграция с партнерами, аналитика, карточный процессинг, etc;\n🔹Разработка REST API для frontend\n\n🟢Какие skill’s мы хотим видеть в нашем будущем коллеге?\n\n🔹Java 8 (также желательно Kotlin);\n🔹Spring, Spring Cloud, Hibernate;\n🔹JUnit или другие фреймворки для тестирования;\n🔹Умение работать с SQL и не-SQL базами данных (у нас PostgreSQL);\n🔹Умение проектировать и реализовывать REST API;\n🔹Понимание микросервисной архитектуры;\n🔹Английский язык: умение читать и писать техническую документацию.\n🔹Понимание принципов работы tcp/ip, сетей передачи данных.\n🔹Умение писать тестируемый код;\n🔹Умение работать в команде и использовать соответствующие инструменты (git, jira, etc).\n\n🟢Преимущества:\n\n🔹Знание Kotlin;\n🔹Понимание принципов CI/CD;\n🔹Понимание, как работают основные сервисы AWS.\n\n🟢Что мы готовы предложить будущему коллеге?\n\n🔹По настоящему заряженная команда профессионалов\n🔹Офис м.Тульская\n🔹Удаленная работа, с возможностью приезжать в офис, гибкое начало рабочего дня (c 9 до 12)\n🔹Возможности профессионально развиваться и расти\n\n🔔Контакты:\n@kriskrisych Кристина","markup":[{"type":"hashtag","offset":0,"length":7,"data":"москва"},{"type":"hashtag","offset":8,"length":9,"data":"удаленка"},{"type":"hashtag","offset":18,"length":9,"data":"fulltime"},{"type":"hashtag","offset":28,"length":14,"data":"JavaDeveloper"},{"type":"hashtag","offset":43,"length":8,"data":"Backend"},{"type":"link","offset":106,"length":22,"data":"https://crypterium.com"},{"type":"handle","offset":2060,"length":12,"data":"kriskrisych"}],"date":"2020-07-02T15:08:19+00:00","link":"tg://resolve?domain=jvmjobs&post=1692","tags":[{"name":"java"},{"name":"jvm"},{"name":"dotnet"},{"name":"rest"},{"name":"kotlin"},{"name":"spring"},{"name":"cloud"},{"name":"hibernate"},{"name":"junit"},{"name":"sql"},{"name":"postgresql"},{"name":"git"},{"name":"amazon-web-services"}],"cities":[{"code":"moscow"}],"allowsRemote":true}}]}}},"context":{}}