{"hash":"f5f6bf98bd95e769321482904cbbd488f77922fd","data":{"records":{"id":"spring-boot","name":"spring-boot","belongsTo":{"totalCount":38,"pageInfo":{"totalPages":4,"currentPage":4},"edges":[{"node":{"__typename":"Job","id":"1690304512-1001091028994","title":"Java developer","text":"Вакансия: Java developer \n \nПроект: Разрабатываем единый веб-терминал MOEX Treasury, который позволит получить быстрый и удобный доступ ко всем рынкам Московской Биржи, а также сервисам по управлению обеспечением и внебиржевым операциям. Это не просто веб-интерфейс к уже существующим торговым системам, а новая платформа, которая взаимодействует со всеми основными торговыми и бэк-офисными системами Биржи, которая сейчас начинает активно развиваться.\n \nТехнологический стек на проекте: Java 8, Spring (Spring Boot, Spring MVC), Hazelcast, WebSocket, RabbitMQ, Firebird (с переходом на PostgreSQL), в интеграционных решения REST API и JMS.\n \nЗадачи на проекте:\n Участие в проекте по разработке платформы, объединяющей основные рынки и инструменты Московской Биржи;\n Разработка и отладка модулей платформы;\n Интеграция приложения с внешними и внутренними сервисами;\n Написание понятного и стабильно работающего кода;\n Активное взаимодействие со специалистами из смежных подразделений;\n Поиск и аргументация технически эффективных путей решения бизнес задач;\n Умение и желание писать чистый и понятный код;\n Навык написания unit и интеграционных тестов на Java;\n Паттерны проектирования.\n\nЧто ожидаем от Вас:\n Опыт промышленной разработки (от 3 лет);\n\nФундаментальные знания принципов построения распределенных систем;\n Уверенные знания core Java;\n Опыт разработки веб-сервисов;\n Знание паттернов проектирования;\n Применение практик TDD, DDD, CI/CD.\n\nНаши условия работы:\n• Компания: ПАО Московская биржа (Компания, входящая в 500 - лучших работодателей мира по версии Forbes за 2019 год);\n• Офис в центре: г. Москва, м. Арбатская/Библиотека им. Ленина/Боровицкая/Александровский сад;\n• Занятость: полная, официальное оформление в штат компании (оформление онлайн);\n• Формат работы: современный  офис возле Кремля в шаговой доступности от метро (на данный момент работаем удаленно из дома);\n• ДМС: с первого рабочего дня;\n• Свой «корпоративный университет», собственный лекторий, широкие возможности обучения – как внутри, так и вне компании;\n• Уровень з/п:  230 - 290 тыс.руб. (gross) + годовой бонус (25% от годового дохода);\n• Формат интервью: 1 этап онлайн интервью (60 минут).\n\nПишите в личку, отвечу на любые вопросы!\nКонтакты: @Sasha_P92\nAlexander.Panin@moex.com","markup":[{"type":"bold","offset":0,"length":26,"data":""},{"type":"bold","offset":28,"length":8,"data":""},{"type":"bold","offset":455,"length":33,"data":""},{"type":"bold","offset":643,"length":19,"data":""},{"type":"bold","offset":1188,"length":20,"data":""},{"type":"bold","offset":1450,"length":21,"data":""},{"type":"bold","offset":1744,"length":19,"data":""},{"type":"handle","offset":2233,"length":10,"data":"Sasha_P92"},{"type":"link","offset":2244,"length":24,"data":"mailto:Alexander.Panin@moex.com"}],"date":"2020-06-16T08:53:26+00:00","link":"tg://resolve?domain=jvmjobs&post=1612","tags":[{"name":"java"},{"name":"jvm"},{"name":"spring"},{"name":"websocket"},{"name":"rabbitmq"},{"name":"postgresql"},{"name":"rest"},{"name":"spring-boot"},{"name":"spring-mvc"}],"cities":[{"code":"moscow"}],"allowsRemote":true}},{"node":{"__typename":"Job","id":"1689255936-1001091028994","title":"Java разработчик","text":"Вакансия Team Lead Java \n\nПроект: Разрабатываем единый веб-терминал MOEX Treasury, который позволит получить быстрый и удобный доступ ко всем рынкам Московской Биржи, а также сервисам по управлению обеспечением и внебиржевым операциям. Это не просто веб-интерфейс к уже существующим торговым системам, а новая платформа, которая взаимодействует со всеми основными торговыми и бэк-офисными системами Биржи, которая сейчас начинает активно развиваться.\n \nТехнологический стек: Java 8, Spring (Spring Boot, Spring MVC), Hazelcast, WebSocket, RabbitMQ, Firebird (с переходом на PostgreSQL), в интеграционных решения REST API и JMS.\n \n Задачи на проекте:\n Участие в проекте по разработке платформы, объединяющей основные рынки и инструменты Московской Биржи;\n Подбор команды java-разработчиков (3 человека);\n Решение всех эскалаций по сотрудникам направления – качество и производительность работы, мотивация и пр.;\n Обеспечение качества работы членов команды;\n Накопление экспертизы по направлению;\n Организация и поддержание в актуальном состоянии базы знаний, проведение внутренних мероприятий по обмену знаниями и пр.;\n Проработка подхода к организации работ и его документирование в регламентах;\n Информирование всех заинтересованных сторон о процессе и его изменениях, контроль следования установленному процессу;\n Оценка задач в итерацию, оценка скоупа входящих работ;\n Ревью оценок от команды, отчетность план/факт по задачам команды;\n Разработка и контроль стандартов проектирования и качества кода для внешнего подрядчика.\n \nЧто мы ожидаем от Вас:\n Глубокое знание Java core;\n Знание принципов ООП и понимание паттернов проектирования;\n Уверенное знание JEE, Spring, Spring Boot, Spring MVC;\n Опыт разработки высоконагруженных систем;\n Уверенное знание, опыт проектирования и разработки RESTful API и WebSocket;\n Уверенное знание и опыт работы с данными в формате xml,json;\n Опыт работы с jaxb;\n Уверенное знание rdms. умение отлаживать, оптимизировать sql запросы;\n Опыт работы с Postgres приветствуется.\n\nНаши условия работы:\n• Компания: ПАО Московская биржа (Компания, входящая в 500 - лучших работодателей мира по версии Forbes за 2019 год);\n• Офис в центре: г. Москва, м. Арбатская/Библиотека им. Ленина/Боровицкая/Александровский сад;\n• Занятость: полная, официальное оформление в штат компании (оформление онлайн);\n• Формат работы: современный  офис возле Кремля в шаговой доступности от метро (на данный момент работаем удаленно из дома);\n• ДМС: с первого рабочего дня;\n• Свой «корпоративный университет», собственный лекторий, широкие возможности обучения – как внутри, так и вне компании;\n• Уровень з/п:  300 - 350 тыс.руб. (gross) + годовой бонус (32% от годового дохода);\n• Формат интервью: 1 этап онлайн интервью (60 минут).\n\nПишите в личку, отвечу на любые вопросы!\nКонтакты: @Sasha_P92\nAlexander.Panin@moex.com","markup":[{"type":"bold","offset":0,"length":34,"data":""},{"type":"bold","offset":453,"length":22,"data":""},{"type":"bold","offset":631,"length":19,"data":""},{"type":"bold","offset":1530,"length":23,"data":""},{"type":"bold","offset":2012,"length":21,"data":""},{"type":"bold","offset":2306,"length":19,"data":""},{"type":"handle","offset":2795,"length":10,"data":"Sasha_P92"},{"type":"link","offset":2806,"length":24,"data":"mailto:Alexander.Panin@moex.com"}],"date":"2020-06-16T08:53:10+00:00","link":"tg://resolve?domain=jvmjobs&post=1611","tags":[{"name":"java"},{"name":"jvm"},{"name":"spring"},{"name":"websocket"},{"name":"rabbitmq"},{"name":"postgresql"},{"name":"rest"},{"name":"xml"},{"name":"json"},{"name":"jaxb"},{"name":"sql"},{"name":"spring-boot"},{"name":"spring-mvc"}],"cities":[{"code":"moscow"}],"allowsRemote":true}},{"node":{"__typename":"Job","id":"1687158784-1001091028994","title":"Java разработчик","text":"#java #senior #backend #js #Москва #fulltime #офис #angular\nЛокация: Москва, м. Шаболовская\nФормат работы: Office\nЗанятость: Fulltime\nЗарплата от 100 к до 240 к\nОписание вакансии:\nРазработчик JAVA (senior\\middle)\nНаш клиент - международная компания, в связи с расширением деятельности в России - приглашает опытных Java-разработчиков. \nРазработка собственного продукта - коммерческого приложения на основе Angular front + Java backend.\nОбязанности:\n- разработка новых компонентов системы\n- доработка и оптимизация существующих компонентов\n- поддержка качества кода (code review, использование систем автоматизированного контроля кода)\n- Написание юнит-тестов и функциональных тестов\n- Взаимодействие с бизнес-аналитиками для выполнения техзадания\nТребования:\n- Высшее образование\n- Командность, гибкость подходов и мышления\n- опыт разработки на java от 3 лет\nТехнические требования:\n- знание java 8, Spring-*(Boot, Data, Rest), Hibernate\n- опыт работы с SQL (SQL Server, Oracle или postgresql)\n- понимание основ микросервисной архитектуры\n- Git\n-если ты умеешь работать с Docker и понимаешь практики DevOps ты тот, кто нам нужен.\nАдекватных руководителей, сильную команду и офисные плюшки гарантируем\nКА Wit recruitment\nКонтакты m.buldenko@witrec.com\n@marinabuldenko","markup":[{"type":"hashtag","offset":0,"length":5,"data":"java"},{"type":"hashtag","offset":6,"length":7,"data":"senior"},{"type":"hashtag","offset":14,"length":8,"data":"backend"},{"type":"hashtag","offset":23,"length":3,"data":"js"},{"type":"hashtag","offset":27,"length":7,"data":"Москва"},{"type":"hashtag","offset":35,"length":9,"data":"fulltime"},{"type":"hashtag","offset":45,"length":5,"data":"офис"},{"type":"hashtag","offset":51,"length":8,"data":"angular"},{"type":"link","offset":1229,"length":21,"data":"mailto:m.buldenko@witrec.com"},{"type":"handle","offset":1251,"length":15,"data":"marinabuldenko"}],"date":"2020-06-16T08:20:47+00:00","link":"tg://resolve?domain=jvmjobs&post=1609","tags":[{"name":"java"},{"name":"jvm"},{"name":"angularjs"},{"name":"spring"},{"name":"rest"},{"name":"hibernate"},{"name":"sql"},{"name":"oracle"},{"name":"postgresql"},{"name":"git"},{"name":"docker"},{"name":"spring-boot"},{"name":"sql-server"}],"cities":[{"code":"moscow"}],"allowsRemote":false}},{"node":{"__typename":"Job","id":"1686110208-1001091028994","title":"Java разработчик","text":"#вакансия #java #senior #middle \nЛокация: Саратов, Самара, Кемерово \nЗП: 80.000-170.000 на руки\nИщем в команду Java dev  уровня middle/senior в связи с большим количеством интересных проектов и расширения команды.\nКратко по стеку: \n[ Java 11+, Maven, Spring Boot 2+, Hibernate 5+, PostgreSQL 12, RabbitMQ ]\nТребования:\n - Java SE 8 и выше \n- Spring / Spring Boot \n- Hibernate или MyBatis\n- SQL (PostgreSQL) \n- Apache Tomcat или Eclipse Jetty или другой app server\n- Принципы ООП\n- Web сервисы (REST или SOAP).\n Будет плюсом: опыт работы с одним из актуальных frontend фреймворков - Angular, React, Vue; понимание принципов работы протоколов HTTP, HTTPS; работа с очередями (ActiveMQ, RabbitMQ) и опыт работы с Docker.\nЧто предлагаем:\n- белая з/п и оформление в штат;\n- интересные проекты и адекватное руководство; \n- возможность профессионального и карьерного роста;\n- формат интервью 1 этап по Skype или Zoom\nДля связи и резюме @KaterinaHR","markup":[{"type":"hashtag","offset":0,"length":9,"data":"вакансия"},{"type":"hashtag","offset":10,"length":5,"data":"java"},{"type":"hashtag","offset":16,"length":7,"data":"senior"},{"type":"hashtag","offset":24,"length":7,"data":"middle"},{"type":"handle","offset":929,"length":11,"data":"KaterinaHR"}],"date":"2020-06-16T07:55:35+00:00","link":"tg://resolve?domain=jvmjobs&post=1608","tags":[{"name":"java"},{"name":"jvm"},{"name":"maven"},{"name":"spring"},{"name":"hibernate"},{"name":"postgresql"},{"name":"rabbitmq"},{"name":"sql"},{"name":"apache"},{"name":"tomcat"},{"name":"eclipse"},{"name":"jetty"},{"name":"web"},{"name":"rest"},{"name":"soap"},{"name":"angularjs"},{"name":"reactjs"},{"name":"vuejs"},{"name":"docker"},{"name":"spring-boot"}],"cities":[{"code":"saratov"},{"code":"samara"},{"code":"kemerovo"}],"allowsRemote":false}},{"node":{"__typename":"Job","id":"1682964480-1001091028994","title":"Java developer","text":"#Junior #Middle #Java #Developer\nКомпания: #Утконос\nЛокация: #Москва\nЗ/п: до 180 000 Net\nКонтакт: @RecruiterTatianaK\nJunior/Middle Java Developer в Утконос Онлайн\n📍Наш проект:\nВ компании разрабатывается комплексная система по управлению складом (WMS). Систему пишем сами «с нуля» на микросервисной архитектуре. \nСистема является ключевой для бизнеса и проектируется под высокие нагрузки.\n📍Что нужно делать?\n25% времени:\nАвтоматизировать бизнес процессы на складе в одной из scrum команд в количестве 10 человек.\n75% времени:\nРазрабатывать E2E и нагрузочные тесты.\n📍Наш стек:\nJava 11/Kotlin, Spring Boot 2.3.0, Camunda BPM, Kafka, Kubernetes, ELK, Grafana, Prometheus\n📍Что предлагаем?\nОформление по ТК РФ, ДМС\nГибкий график\nВозможность работы из дома\nСплоченный и профессиональный коллектив\nКорпоративные скидки на utkonos.ru, tui.ru, фитнес, кино и др.\nОфис - 10 минут  от м. Краснопресненская/ м.Улица 1905 года","markup":[{"type":"hashtag","offset":0,"length":7,"data":"Junior"},{"type":"hashtag","offset":8,"length":7,"data":"Middle"},{"type":"hashtag","offset":16,"length":5,"data":"Java"},{"type":"hashtag","offset":22,"length":10,"data":"Developer"},{"type":"hashtag","offset":43,"length":8,"data":"Утконос"},{"type":"hashtag","offset":61,"length":7,"data":"Москва"},{"type":"handle","offset":98,"length":18,"data":"RecruiterTatianaK"},{"type":"link","offset":818,"length":10,"data":"http://utkonos.ru"},{"type":"link","offset":830,"length":6,"data":"http://tui.ru"}],"date":"2020-06-15T20:10:30+00:00","link":"tg://resolve?domain=jvmjobs&post=1605","tags":[{"name":"java"},{"name":"jvm"},{"name":"dotnet"},{"name":"kotlin"},{"name":"spring"},{"name":"kafka"},{"name":"kubernetes"},{"name":"spring-boot"}],"cities":[{"code":"moscow"}],"allowsRemote":false}},{"node":{"__typename":"Job","id":"1681915904-1001091028994","title":"Java developer","text":"#вакансия #java #javadeveloper #spring #офис #МСК\n\nГород и адрес офиса: Москва, \nФормат работы: в офисе\nЗанятость: фулл тайм\nЗарплатная вилка: 200 000-250 000 рублей на руки (+-10% люфт для кандидатов с немного большими ожиданиями)\nНазвание компании: Фирма 1С\n\nВ амбициозный проект фирмы «1С» требуется Lead Java Developer с экспертным знанием стека Spring Framework и практическим опытом в области разработки интернет-проектов на платформе Java. Вы получите возможность работать над архитектурно значимыми компонентами, создавая масштабные и современные интернет-проекты делового назначения. \nСам проект представляет: современную торговую площадку в сегменте B2B https://1cbn.ru/trading.htm. Наша торговая площадка - технически сложный интернет-проект, работающий как в web, так и встроенный во многие учетные системы \"1С\".\n\nТЕХНОЛОГИЧЕСКИЙ СТЕК:\nJava, экосистема Spring (IoC, Spring MVC, Spring Data JPA, Spring Security, Spring Boot), PostgreSQL\n\nЧТО ВЫ БУДЕТЕ ДЕЛАТЬ:\n-Анализ задачи и проектирование микросервисов с использованием DDD и Hexagonal Architecture;\n-Проведение code review;\n-Участие в архитектурном совете продукта;\n-Проектирование REST API (OpenAPI 3);\n-Разработку микросервисов на Spring Framework 5 от идеи до запуска в эксплуатацию;\n-Покрытие своего кода unit и интеграционными тестами;\n-Соотношение легаси к разработке 20/80%.\n\nМы используем микросервисную архитектуру, Project Lombok, технологии Spring Cloud, Spring Boot, Spring Data, Elasticsearch, PostgreSQL, Git, Docker. Практикуем DDD, Agile-методологии, code review, CI и прочие полезные инженерные практики.\n\nЧТО ПРЕДЛАГАЕМ:\n-возможность профессионального и карьерного роста вместе с ростом команды;\n-опыт работы с талантливыми профессионалами, у которых есть чему научиться;\n-современный комфортный офис в 5-ти минутах ходьбы от м. Тимирязевская  http://1c.ru/rus/firm1c/d9.html;\n-зоны отдыха и кофе-поинты с диванами и массажными креслами;\n-гибкий график;\n-возможность заказывать проф. литературу за счет компании;\n-стабильная и конкурентоспособная заработная плата;\n-расширенный социальный пакет (ДМС со стоматологией всех видов работ);\n(хорошо решены вопросы медицинского обслуживания   (страхования), питания, проезда, спорта);\n-бесплатная охраняемая парковка на территории офиса;\n-предоставляем жилье для иногородних на период исп. срока.\n\nПообщаться по вакансии можно в телеграм @lamamama или по почте yana@geecko.ru","markup":[{"type":"hashtag","offset":0,"length":9,"data":"вакансия"},{"type":"hashtag","offset":10,"length":5,"data":"java"},{"type":"hashtag","offset":16,"length":14,"data":"javadeveloper"},{"type":"hashtag","offset":31,"length":7,"data":"spring"},{"type":"hashtag","offset":39,"length":5,"data":"офис"},{"type":"hashtag","offset":45,"length":4,"data":"МСК"},{"type":"link","offset":664,"length":27,"data":"https://1cbn.ru/trading.htm"},{"type":"link","offset":1828,"length":31,"data":"http://1c.ru/rus/firm1c/d9.html"},{"type":"handle","offset":2366,"length":9,"data":"lamamama"},{"type":"link","offset":2389,"length":14,"data":"mailto:yana@geecko.ru"}],"date":"2020-06-15T14:41:52+00:00","link":"tg://resolve?domain=jvmjobs&post=1604","tags":[{"name":"java"},{"name":"jvm"},{"name":"spring"},{"name":"web"},{"name":"jpa"},{"name":"postgresql"},{"name":"rest"},{"name":"cloud"},{"name":"elasticsearch"},{"name":"git"},{"name":"docker"},{"name":"html"},{"name":"spring-mvc"},{"name":"spring-data"},{"name":"spring-security"},{"name":"spring-boot"}],"cities":[{"code":"moscow"}],"allowsRemote":false}},{"node":{"__typename":"Job","id":"1680867328-1001091028994","title":"Java developer","text":"#java #backend #spring #javadeveloper\nКомпания OpenDev\nЛокация #мск #москва м. Технопарк\nЗП до 250 gross\nМы разрабатываем \"умную\" шину для крупного финтеха: интеграция компонентов системы и их распределение на микросервисы.\nЗадачи интересные и их много, поэтому нам требуется подкрепление!\n🚀 Вакансия - Java Developer\n\nНавыки и знания\n- Java core, Java 8+\n- Spring Framework, Spring boot, Spring Cloud\n- Docker\n- Микросервисная архитектура\n- Опыт проектирования API (REST, GRPC и т.д.) \n- Опыт работы с разными системами оркестрации (Kubernetes, OpenShift, Mesos/Marathon)\n\nУсловия:\n- Белая ЗП + ДМС\n- Продуктовая Scrum команда\n- Релокация кандидатов из регионов\n\nОбсудить вакансию - @xenia_agv","markup":[{"type":"hashtag","offset":0,"length":5,"data":"java"},{"type":"hashtag","offset":6,"length":8,"data":"backend"},{"type":"hashtag","offset":15,"length":7,"data":"spring"},{"type":"hashtag","offset":23,"length":14,"data":"javadeveloper"},{"type":"hashtag","offset":63,"length":4,"data":"мск"},{"type":"hashtag","offset":68,"length":7,"data":"москва"},{"type":"bold","offset":320,"length":15,"data":""},{"type":"handle","offset":685,"length":10,"data":"xenia_agv"}],"date":"2020-06-15T11:38:21+00:00","link":"tg://resolve?domain=jvmjobs&post=1603","tags":[{"name":"java"},{"name":"jvm"},{"name":"spring"},{"name":"cloud"},{"name":"docker"},{"name":"rest"},{"name":"kubernetes"},{"name":"spring-boot"}],"cities":[{"code":"moscow"}],"allowsRemote":false}},{"node":{"__typename":"Job","id":"1679818752-1001091028994","title":"Java разработчик","text":"#javaвакансия #javaspring #senior #middle\nДобрый день!\nВ настоящий момент нахожусь в поисках ведущего разработчика Java (backend) для международной аутсорсинговой компании (проекты банковского направления).\n160-300 K, Москва, ст.м. Динамо\nСтэк: Java 8, Spring, Spring (Boot, Cloud), Hibernate, SQL, Микросервисы, DevOps, REST-сервисы. \nУсловия: 160 – 300.000 рублей, полностью «белая» заработная плата. В компании регулярно проводится корпоративное обучение, сертификация в технических и бизнес-областях. Помощь в релокации.\nБуду рада ответить на Ваши вопросы: @LyKatrin, ekaterina706712@mail.ru","markup":[{"type":"hashtag","offset":0,"length":13,"data":"javaвакансия"},{"type":"hashtag","offset":14,"length":11,"data":"javaspring"},{"type":"hashtag","offset":26,"length":7,"data":"senior"},{"type":"hashtag","offset":34,"length":7,"data":"middle"},{"type":"handle","offset":561,"length":9,"data":"LyKatrin"},{"type":"link","offset":572,"length":23,"data":"mailto:ekaterina706712@mail.ru"}],"date":"2020-06-15T11:01:34+00:00","link":"tg://resolve?domain=jvmjobs&post=1602","tags":[{"name":"java"},{"name":"jvm"},{"name":"spring"},{"name":"cloud"},{"name":"hibernate"},{"name":"sql"},{"name":"rest"},{"name":"spring-boot"}],"cities":[{"code":"moscow"}],"allowsRemote":false}}]}}},"context":{}}