{"hash":"f34fd2c444a074f4e0e67d525015a008ef8e766f","data":{"records":{"id":"java","name":"java","belongsTo":{"totalCount":123,"pageInfo":{"totalPages":13,"currentPage":8},"edges":[{"node":{"__typename":"Job","id":"1409286144-1001091028994","title":"Java разработчик","text":"#вакансия #москва #java #middle #senior\n\nКомпания Альфа Страхование в поисках Java-разработчика на внутренние проекты (Москва).\n\n💰Заработная вилка: 200 000 ₽ — 300 000 ₽ (в зависимости от опыта)\n\n🔸Проект «АльфаПартнерс»\nСистема для партнеров компании для продажи страховок. Некое B2B решение, которое используют сотрудники наших партнёров, чтобы продавать страховки.\n\nТехнологии:\n▪️Java 8\n▪️[legacy часть] — Java Core, Weblogic + Oracle (LiquidBase)\n▪️[новая часть] — Spring Boot , Tomcat + Mongo + Vaadin 14\n\n————-\n\n🔸Проект «Продуктовая фабрика»\nПишется с нуля.\n\nТехнологии:\n▪️Java 8\n▪️Vaadin\n▪️Spring Framework (IoC, Data, Security, Web)\n▪️Spring Boot\n▪️Spring Cloud REST, SOAP, Docker SQL (PostgreSQL)\n▪️[тестирование] — JUnit, Mockito, spring tests, test containers\n\n————-\n\n🔸Проект «РСА 2.0 (Шина)»\n\nТехнологии:\n▪️Java 8/11\n▪️Spring Boot\n▪️Rest API\n▪️JUnit\n▪️PostgreSQL\n▪️ActiveMQ\n▪️Redis\n\n————-\n\n🔸Проект «Альфа NEXT»\n\nТехнологии:\n▪️Java 8/11\n▪️Spring Boot\n▪️Camunda\n▪️JUnit\n▪️PostgreSQL\n▪️k8s\n▪️cloud-native\n\n========\n\n🔸🔸🔸\nУсловия\n▫️ График работы: 5/2 (гибкое начало дня)\n▫️ Работа в профессиональной команде разработчиков, которая готова делиться знаниями и опытом\n▫️ Удобное расположение офиса – м. Шаболовская (7 минут пешком от метро)\n▫️ Оформление по ТК РФ\n🔸🔸🔸\n\nКонтакты\n▪️Telegram: @ruslan_mart","markup":[{"type":"hashtag","offset":0,"length":9,"data":"вакансия"},{"type":"hashtag","offset":10,"length":7,"data":"москва"},{"type":"hashtag","offset":18,"length":5,"data":"java"},{"type":"hashtag","offset":24,"length":7,"data":"middle"},{"type":"hashtag","offset":32,"length":7,"data":"senior"},{"type":"bold","offset":50,"length":17,"data":""},{"type":"bold","offset":149,"length":21,"data":""},{"type":"bold","offset":207,"length":13,"data":""},{"type":"italic","offset":222,"length":148,"data":""},{"type":"bold","offset":370,"length":12,"data":""},{"type":"italic","offset":394,"length":12,"data":""},{"type":"italic","offset":455,"length":11,"data":""},{"type":"bold","offset":529,"length":19,"data":""},{"type":"italic","offset":550,"length":17,"data":""},{"type":"bold","offset":567,"length":12,"data":""},{"type":"italic","offset":711,"length":12,"data":""},{"type":"bold","offset":791,"length":14,"data":""},{"type":"bold","offset":808,"length":12,"data":""},{"type":"bold","offset":915,"length":10,"data":""},{"type":"bold","offset":928,"length":12,"data":""},{"type":"bold","offset":1036,"length":8,"data":""},{"type":"bold","offset":1284,"length":9,"data":""},{"type":"handle","offset":1305,"length":12,"data":"ruslan_mart"}],"date":"2020-04-02T12:23:30+00:00","link":"tg://resolve?domain=jvmjobs&post=1344","tags":[{"name":"java"},{"name":"jvm"},{"name":"oracle"},{"name":"spring"},{"name":"tomcat"},{"name":"web"},{"name":"cloud"},{"name":"rest"},{"name":"soap"},{"name":"docker"},{"name":"sql"},{"name":"postgresql"},{"name":"junit"},{"name":"redis"},{"name":"spring-boot"}],"cities":[{"code":"moscow"}],"allowsRemote":false}},{"node":{"__typename":"Job","id":"1954545664-1001134745498","title":"Devops engineer","text":"#вакансия #devops \nВакансия: DevOps Engineer\nГород: San Jose, Costa Rica\nФормат работы: удаленка\nЗанятость: полная\nЗарплата: 2000 EUR/месяц\n\nОбязанности\nПроектирование, построение, поддержка и развитие в эксплуатации:\n- высокодоступной инфраструктуры в рамках нескольких датацентров (на базе Kubernetes);\n- инструментов жизненного цикла проектов (Docker-образы, CI/CD сценарии, баг-трекеры, инструменты сборки);\n- систем распределенного мониторинга, логирования, трасcировки;\n- распределенных баз данных, файловых хранилищ, шин событий.\n\nТребования:\n- богатый опыт работы с контейнеризацией и Kubernetes (Docker, rkt, CRI), написания Helm-чартов;\n- богатый опыт администрирования Linux, написания shell-скриптов, работы с systemd;\n- умение работать с Ansible;\n- опыт администрирования баз данных (MySQL, PostgreSQL, Redis, Cassandra, ClickHouse, и т.д.);\n- опыт эксплуатации распределенных систем логирования, мониторинга, трассировки (Fluentd, Prometheus, ElasticSearch, Kibana, Grafana, Zipkin, и т.д.);\n- опыт работы с Grafana;\n- владение языками программирования (что-то из Python, Go, Rust, Java, PHP);\n- хорошее понимание фундаментальных основ PKI, DNS, TLS, SSH, OSI, Linux;\n- технический английский;\n- наличие широкого Интернет-канала и Skype.\n\nУсловия:\n- удаленная работа (не фриланс);\n- полная занятость;\n- зарплата 2000 EUR/мес.;\n- возможен переезд за границу.\n\nКанал нашей компании https://t.me/TRlogik\nРезюме присылайте сюда @trlogic\n\n—\n\n👉 Обсуждение вакансии в чате @devops_jobs","markup":[{"type":"hashtag","offset":0,"length":9,"data":"вакансия"},{"type":"hashtag","offset":10,"length":7,"data":"devops"},{"type":"link","offset":1394,"length":20,"data":"https://t.me/TRlogik"},{"type":"handle","offset":1438,"length":8,"data":"trlogic"},{"type":"handle","offset":1481,"length":12,"data":"devops_jobs"}],"date":"2020-04-01T20:19:12+00:00","link":"tg://resolve?domain=devops_jobs_feed&post=1864","tags":[{"name":"kubernetes"},{"name":"docker"},{"name":"linux"},{"name":"shell"},{"name":"ansible"},{"name":"mysql"},{"name":"postgresql"},{"name":"redis"},{"name":"cassandra"},{"name":"elasticsearch"},{"name":"python"},{"name":"rust"},{"name":"java"},{"name":"php"},{"name":"dns"},{"name":"ssh"}],"cities":[{"code":"san-jose"}],"allowsRemote":true}},{"node":{"__typename":"Job","id":"1408237568-1001091028994","title":"Java разработчик","text":"#java #middle #senior #москва #рязань #ижевск #питер\nВакансия: Java-разработчик \nКомпания: https://jtc.ooo/\nРабота в одном из офисов: Москва, Рязань, Ижевск, Санкт-Петербург\nЗ/п: от 150 000 до 250 000 рублей\nФормат работы: офис\nЗанятость: полная \nСпециализация компании: с 2007 года работаем в области построения систем ДБО для юридических лиц, как на базе собственного решения, так и в области построения систем ДБО на заказ.\n\nОбязанности\n- проектирование и разработка backend высоконагруженного web-приложения с использованием микросервисной архитектуры\n- интеграция со сторонними сервисами\n- рефакторинг\n\nТребования\n- опыт работы с java  от 2 лет\n- Java 8, Hibernate, SQL(PostgreSQL/Oracle/MSSQL), Spring Framework, Maven/Gradle\n- знание основных алгоритмов и структур данных\n\nМы предлагаем\n- конкурентная заработная плата по результатам общения\n- соблюдение TK РФ\n- уютный офис и современная техника на рабочих местах\n- гибкий рабочий график с началом работы с 8:00 до 11:00\n- ДМС с расширенным набором услуг\n- интересные и нетривиальные задачи \n- возможность посещать семинары, тренинги, конференции\n- дружный коллектив профессионалов, комфортная атмосфера\n- возможность участия в крупных и интересных проектах\n\nКонтакты: @rita_kudryashova","markup":[{"type":"hashtag","offset":0,"length":5,"data":"java"},{"type":"hashtag","offset":6,"length":7,"data":"middle"},{"type":"hashtag","offset":14,"length":7,"data":"senior"},{"type":"hashtag","offset":22,"length":7,"data":"москва"},{"type":"hashtag","offset":30,"length":7,"data":"рязань"},{"type":"hashtag","offset":38,"length":7,"data":"ижевск"},{"type":"hashtag","offset":46,"length":6,"data":"питер"},{"type":"link","offset":91,"length":16,"data":"https://jtc.ooo/"},{"type":"handle","offset":1227,"length":17,"data":"rita_kudryashova"}],"date":"2020-04-01T09:07:17+00:00","link":"tg://resolve?domain=jvmjobs&post=1343","tags":[{"name":"java"},{"name":"jvm"},{"name":"web"},{"name":"hibernate"},{"name":"sql"},{"name":"postgresql"},{"name":"oracle"},{"name":"sql-server"},{"name":"spring"},{"name":"maven"},{"name":"gradle"}],"cities":[{"code":"moscow"},{"code":"ryazan"},{"code":"izhevsk"}],"allowsRemote":false}},{"node":{"__typename":"Job","id":"1407188992-1001091028994","title":"Java developer","text":"RBS, Рунет Бизнес Системы (входит в BPC Group) \n#вакансия #Москва #Java \nГород: Москва, м.Курская \nФормат работы: full-time (офис, гибкий график) \nЗарпатная вилка: 170-250 тыс. руб gross + 50% от оклада квартальный бонус (фикс) \nРоль: Java developer (middle) \n\nКомпания РБС специализируется на предоставлении услуг в области электронной коммерции, а также процессинга электронных платежей. \nСегодня клиентами РБС являются крупнейшие банки и компании России: Сбербанк РФ, Альфа-Банк, Аэрофлот, Открытие, группа ВТБ и многие другие. \n\nТвои задачи: \n📌Разработка серверных Java-приложений, рефакторинг и оптимизация; \n📌Реализация бизнес-функционала как в тесной работе с аналитиком, так и самостоятельно; \n📌Описание функционала на уровне подробного комментария (описание API, алгоритма, структур данных, информация для тестировщиков); \n📌Код-ревью изменений коллег и работа по основным принципам Agile. \n\nТребования: \n✅Опыт разработки на Java от 2-х лет, знание synchronized; \n✅Знание Spring (boot, MVC, JDBC); \n✅Опыт написания тестов (JUnit, Mockito или PowerMock); \n✅Знание Java 8, 11 (Stream API), java.util.concurrent; \n✅Понимание принципов работы HTTP/HTTPS (SSL, TLS); \n✅Уверенное владение SQL; \n✅Git, Maven, Gradle. \n\nВзамен мы: \n🌟Гарантируем оформление трудовых отношений в соответствии с ТК РФ: \"белую\" конкурентоспособную зарплату, оплату больничных и отпусков; \n🌟Обеспечиваем ДМС, включая стоматологию, участие в программах корпоративного кредитования и страхования; \n🌟Даем возможность карьерного роста (пересмотр зарплаты и грейда каждый год); \n🌟Предлагаем обучение в Корпоративном Университете, возможность посещать внешние тренинги и конференции (JPoint, Joker); \n🌟Организуем гибкое начало рабочего дня; \n🌟Проводим интересные и активные корпоративные мероприятия (выездные: Франция, Германия и т.д.); \n🌟Предоставляем комфортный офис в шаговой доступности от метро Курская/Чкаловская. \n\n📝Контакты: \nDaria Kuznetsova \nHR Business Parthner \n\nBPC Group | Bld. 2, 50A/8 Zemlyanoy Val St., Moscow, Russia, 109028\nTel: +7 (495) 780-31-65 | Fax: +7 (495) 780-31-67 | Mobile: +7 (915) 469-99-53\ndo.kuznetsova@bpcbt.com | www.bpcbt.com\nTelegram @KuznetsovaDO","markup":[{"type":"hashtag","offset":48,"length":9,"data":"вакансия"},{"type":"hashtag","offset":58,"length":7,"data":"Москва"},{"type":"hashtag","offset":66,"length":5,"data":"Java"},{"type":"link","offset":2033,"length":18,"data":"tel:+7 (495) 780-31-65"},{"type":"link","offset":2059,"length":18,"data":"tel:+7 (495) 780-31-67"},{"type":"link","offset":2088,"length":18,"data":"tel:+7 (915) 469-99-53"},{"type":"link","offset":2107,"length":23,"data":"mailto:do.kuznetsova@bpcbt.com"},{"type":"link","offset":2133,"length":13,"data":"http://www.bpcbt.com"},{"type":"handle","offset":2156,"length":13,"data":"KuznetsovaDO"}],"date":"2020-04-01T08:49:26+00:00","link":"tg://resolve?domain=jvmjobs&post=1342","tags":[{"name":"java"},{"name":"jvm"},{"name":"spring"},{"name":"jdbc"},{"name":"junit"},{"name":"ssl"},{"name":"sql"},{"name":"git"},{"name":"maven"},{"name":"gradle"},{"name":"mobile"},{"name":"spring-boot"}],"cities":[{"code":"moscow"}],"allowsRemote":false}},{"node":{"__typename":"Job","id":"1406140416-1001091028994","title":"Java разработчик","text":"Компания: #SimbirSoft\nЛокация: #Ульяновск, Казань, Самара, Димитровград, Саранск + возможен вариант удалённой работы\nЗ/п: 180-200 гросс\nКонтакты: @juli_simb\n+79271828496\nSenior Java-разработчик / AWS Dev\nТребуемый опыт работы: 3–6 лет\nПолная занятость, гибкий график\nУ нас не соскучишься! Поручим разработку разнообразных проектов, есть как разработка с нуля (выбор архитектуры и технологий за нами), так и доработка существующих решений. Внутренние конференции и доклады от ведущих разработчиков, на которых ты можешь узнать много нового\nУ нас есть офисы разработки в городах: Ульяновск, Казань, Самара, Саранск и Димитровград, а так же возможен дистанционный формат работы.\n\nПиши нам, если есть:\n●  опыт разработки на языке Java (не ранее 8 версии) не менее 2 лет, умение эффективно его использовать, знание особенностей, достоинств и недостатков;\n●  опыт разработки на Spring Framework;\n●  опыт работы с Java потоками включая ThreadPoolExecutor\n●  опыт разработки с AWS (Amazon Web Services) включая SQS, SNS, Kinesis Firehose, Terraform\n●  опыт применения языка SQL, умение писать и оптимизировать сложные запросы;\n●  опыт работы с Kafka\n●  понимание принципов работы ORM-фреймворков;\n●  понимание концепций OOP, методологий разработки и шаблонов проектирования.\n●  уровень английского от Upper - intermediate\nА если есть даже больше, то тем более пиши :)\n\nМы предлагаем:\n●  интересные высоконагруженные проекты;\n●  возможность работать на современных технологиях;\n●  возможность разрабатывать проекты с нуля;\n●  стабильную белоснежную заработную плату, размер зависит от квалификации и опыта;\n●  возможность профессионального развития - менторство, внутренние митапы, хакатоны, работа в одной команде с экспертами, сертификация за счет компании;\n●  постоянный обмен опытом между командами;\n●  гибкий график работы;\n●  возможность работать удаленно;\n●  оформление по ТК РФ.","markup":[{"type":"hashtag","offset":10,"length":11,"data":"SimbirSoft"},{"type":"hashtag","offset":31,"length":10,"data":"Ульяновск"},{"type":"handle","offset":146,"length":10,"data":"juli_simb"},{"type":"link","offset":157,"length":12,"data":"tel:+79271828496"}],"date":"2020-04-01T06:20:17+00:00","link":"tg://resolve?domain=jvmjobs&post=1341","tags":[{"name":"java"},{"name":"jvm"},{"name":"amazon-web-services"},{"name":"spring"},{"name":"web"},{"name":"sql"},{"name":"kafka"},{"name":"orm"}],"cities":[{"code":"ulyanovsk"},{"code":"kazan"},{"code":"samara"},{"code":"dimitrovgrad"},{"code":"saransk"}],"allowsRemote":true}},{"node":{"__typename":"Job","id":"1405091840-1001091028994","title":"Java разработчик","text":"Вакансия: #java #spring #hibernate \nКомпания: #MTS\nЛокация: #Санкт-Петербург #Горьковская\nФормат работы: #работавофисе + иногда возможно удаленно работать\n✔️ЗП: 140-180 net (в замисимости от знаний и опыта)\nКонтакт: @alina_katkova почта: avkatko2@mts.ru\n\nВ рамках реализации платформы по обеспечению контроля, наблюдаемости и безопасности API (API gateway) ищем в команду Java разработчика.\n\nЦель продукта — предоставить командам средство управления жизненным циклом API и контроль передаваемых данных в соответствии с требованиями безопасности.\nЧто нужно делать: \n- Заниматься разработкой компонентов обработки и управления трафиком HTTP/S (веб-сервисы);\n- Реализовывать правила управления жизненным циклом API (Rest/SOAP);\n- Участвовать в разработке архитектуры и согласовании сценариев использования продукта.\nНаш стек:\n- Spring (boot, MVC, JPA), Hibernate, Liquibase;\n- Java 8 - 11;\n- Java 8 (Collections, I/O);\n- Multithreading (synchronization, java.util.concurrent);\n- PostgreSQL;\n- RabbitMQ;\n- Hazelcast;\n- Netflix (eureka, zuul, microservices);\n- ElasticSearch;\n- Docker;\n- Kubernetes;Git;\n- Maven;\n- Linux.\nУсловия:\n-штат, все по ТК РФ\n-премия 20% от годового оклада сверху\n-соц.пакет\n-удаленка на время карантина :)","markup":[{"type":"hashtag","offset":10,"length":5,"data":"java"},{"type":"hashtag","offset":16,"length":7,"data":"spring"},{"type":"hashtag","offset":24,"length":10,"data":"hibernate"},{"type":"hashtag","offset":46,"length":4,"data":"MTS"},{"type":"hashtag","offset":60,"length":6,"data":"Санкт"},{"type":"hashtag","offset":77,"length":12,"data":"Горьковская"},{"type":"hashtag","offset":105,"length":13,"data":"работавофисе"},{"type":"handle","offset":216,"length":14,"data":"alina_katkova"},{"type":"link","offset":238,"length":15,"data":"mailto:avkatko2@mts.ru"},{"type":"bold","offset":546,"length":16,"data":""},{"type":"bold","offset":813,"length":10,"data":""},{"type":"bold","offset":1117,"length":7,"data":""}],"date":"2020-04-01T06:15:37+00:00","link":"tg://resolve?domain=jvmjobs&post=1340","tags":[{"name":"java"},{"name":"jvm"},{"name":"spring"},{"name":"hibernate"},{"name":"dotnet"},{"name":"rest"},{"name":"soap"},{"name":"jpa"},{"name":"postgresql"},{"name":"rabbitmq"},{"name":"elasticsearch"},{"name":"docker"},{"name":"kubernetes"},{"name":"git"},{"name":"maven"},{"name":"linux"},{"name":"spring-boot"}],"cities":[],"allowsRemote":true}},{"node":{"__typename":"Job","id":"1404043264-1001091028994","title":"Java разработчик","text":"Вакансия: #Java #TeamLead                                           \nКомпания: #Утконос                                                                  \nЛокация: #Москва                                                                         \nЗ/п: 320 000 Net                                                                             \nКонтакт: @RecruiterTatianaK                                                   \nJava TeamLead в Утконос Онлайн\n📍Наш проект:\nВ компании разрабатывается комплексная система по управлению складом. Систему пишем сами «с нуля», на микросервисной архитектуре\n📍Что нужно делать?   \nУправление командой разработки   \nРазработка алгоритмов по оптимизации хранения и комплектации                                                                                       \nУчастие в проработке архитектурных решений                   \n📍Наш стек:\n Java 11, Spring 5, Kubernetes, ELK, Grafana, Prometheus, Kafka                                                                                               \n📍Что предлагаем?                                                                        \nОформление по ТК РФ, ДМС   \nГибкий график                                                                     \nКорпоративные скидки на utkonos.ru, tui.ru, фитнес, кино и др.                                                                                      \nОфис - 10 минут  от м. Краснопресненская/ м.Улица 1905 года","markup":[{"type":"hashtag","offset":10,"length":5,"data":"Java"},{"type":"hashtag","offset":16,"length":9,"data":"TeamLead"},{"type":"hashtag","offset":79,"length":8,"data":"Утконос"},{"type":"hashtag","offset":163,"length":7,"data":"Москва"},{"type":"handle","offset":347,"length":18,"data":"RecruiterTatianaK"},{"type":"link","offset":1254,"length":10,"data":"http://utkonos.ru"},{"type":"link","offset":1266,"length":6,"data":"http://tui.ru"}],"date":"2020-03-31T21:26:33+00:00","link":"tg://resolve?domain=jvmjobs&post=1339","tags":[{"name":"java"},{"name":"jvm"},{"name":"dotnet"},{"name":"spring"},{"name":"kubernetes"},{"name":"kafka"}],"cities":[{"code":"moscow"}],"allowsRemote":false}},{"node":{"__typename":"Job","id":"1950351360-1001134745498","title":"Devops инженер","text":"#вакансия #DevOps #Москва #офис #Kafka  #RHEL\n🚀 Ищем инженера DevOps в финансовую компанию под задачи сопровождения CI/CD инфраструктуры. \n🎧 Все собеседования можно пройти по скайпу из-за карантина.\nГород: Москва, центр\n🏠 Формат работы: офис после карантина (сейчас, как и у всех, удалёнка).\nЗанятость: полная.\nГражданство: РФ, Беларусь, Казахстан.\n🔅 Зарплатная вилка: оклад от 160 до 170K рублей net, с премиями получается 210К net.\nОбласть ответственности:\n•  Установка нового ПО на сервера Linux \n•  Поддержка CI/CD, Jenkins,\n•  Мониторинг работы сервиса и серверов, снятие логов, оптимизация;\n•  Взаимодействие с командой разработчиков и совместное решение задач;\n•  Ведение технической документации по администрируемым сервисам и решениям. \n💎Требования:\n•  Знание и опыт работы с nix* подобными системами от 3 лет. Желательно, чтобы был опыт работы с RHEL.\n•  Опыт программирования: скриптинг под Linux + Python/Groovy/JAVA.\n•  Опыт работы с БД\n•  Умение делать настройки систем мониторинга.\n\nНазвание компании: КА \"Бизнес Крафт Консалт\" https://bcraft.ru/ \n📩 Контакты: \nemail: oksana@bcraft.ru Telegram: @oksanaalieva \nБуду рада ответить на уточняющие вопросы. Подробности о проекте вышлю в ЛС в ответ на присланное резюме\n\n—\n\n👉 Обсуждение вакансии в чате @devops_jobs","markup":[{"type":"hashtag","offset":0,"length":9,"data":"вакансия"},{"type":"hashtag","offset":10,"length":7,"data":"DevOps"},{"type":"hashtag","offset":18,"length":7,"data":"Москва"},{"type":"hashtag","offset":26,"length":5,"data":"офис"},{"type":"hashtag","offset":32,"length":6,"data":"Kafka"},{"type":"hashtag","offset":40,"length":5,"data":"RHEL"},{"type":"link","offset":1048,"length":18,"data":"https://bcraft.ru/"},{"type":"link","offset":1089,"length":16,"data":"mailto:oksana@bcraft.ru"},{"type":"handle","offset":1116,"length":13,"data":"oksanaalieva"},{"type":"handle","offset":1269,"length":12,"data":"devops_jobs"}],"date":"2020-03-31T18:08:40+00:00","link":"tg://resolve?domain=devops_jobs_feed&post=1860","tags":[{"name":"kafka"},{"name":"dotnet"},{"name":"linux"},{"name":"jenkins"},{"name":"python"},{"name":"groovy"},{"name":"java"}],"cities":[{"code":"moscow"}],"allowsRemote":true}},{"node":{"__typename":"Job","id":"1402994688-1001091028994","title":"Java разработчик","text":"#java #Moscow #Tallin\n\nГород: Москва (возможна релокация в Эстонию через 3 месяца)\nФормат работы/занятость: Офис / полная/ Сейчас удаленка\nЗарплатная вилка: 200 000- 300 000 руб на руки \nКомпания: РА  Clever Recruiting\n\nДрузья, есть отличная вакансия Java Developer (Middle/Senior) в Москве, для тех кто:\n •хочет участвовать в создании приложений для здоровья людей, которыми будут пользоваться юзеры по всему миру\n •готов работать в международной компании в команде с разработчиками из других стран\n •желает развиваться в сфере AI и Machine Vision\n •любит высокую степень самостоятельности и автономности и готов принимать решения вплоть до выбора технологического стека\n •ищет стабильную компанию с демократичной атмосферой, гибким графиком работы, и возможностью частично удаленной работы\n \nПроект: создание SaaS платформы для диагностики проблем с кожей и разработки рекомендации для ухода за кожей, с использованием алгоритмов искусственного интеллекта и машинного зрения.\n \nСтек: Java, Spring Boot, PostgreSQL, Maven, Docker, Kubernetes, AWS, GCP, Azure\n \nТребования:\n •Опыт коммерческой разработки на Java от2 лет с использованием Spring Frameworks\n •Знание классических алгоритмов и структур данных\n •Английский - Upper-Intermediate level\n •Опыт работы с облаками будет преимуществом\n \nУсловия:\nЗарплата 200-300К рублей на руки, все по ТК\nГибкий график работы, возможность частично- удаленной работы\nОфис в Москве в 5 мин ходьбы от м. Нахимовский проспект\n\nконтакты:@Marina_Pelikh\nm.chetverikova@clever-recruiting.com","markup":[{"type":"hashtag","offset":0,"length":5,"data":"java"},{"type":"hashtag","offset":6,"length":7,"data":"Moscow"},{"type":"hashtag","offset":14,"length":7,"data":"Tallin"},{"type":"handle","offset":1474,"length":14,"data":"Marina_Pelikh"},{"type":"link","offset":1489,"length":36,"data":"mailto:m.chetverikova@clever-recruiting.com"}],"date":"2020-03-31T12:57:14+00:00","link":"tg://resolve?domain=jvmjobs&post=1338","tags":[{"name":"java"},{"name":"jvm"},{"name":"spring"},{"name":"postgresql"},{"name":"maven"},{"name":"docker"},{"name":"kubernetes"},{"name":"amazon-web-services"},{"name":"google-cloud-platform"},{"name":"azure"},{"name":"spring-boot"}],"cities":[{"code":"moscow"}],"allowsRemote":true}},{"node":{"__typename":"Job","id":"1401946112-1001091028994","title":"Java разработчик","text":"#java #вакансия #Москва #fulltime #middle #senior \nГород и адрес офиса: Москва, между метро Нагатинская и Тульская, мцк Верхние котлы \nФормат работы: офис\nЗанятость: полная\nОплата: 180-300 тыс. рублей\n\nОписание вакансии:\nКоманда Sber Product Catalog  ищет сильного Java-разработчика!🙌\nПроект Product Catalog-это облачное решение, которое позволяет бизнесу вести все свои продукты (карты, вклады, продукты партнеров и и.п) в едином месте, гибко управлять всеми элементами 4P (product,price, promotion, place) и мгновенно выводить все изменения на рынок. Архитектура системы состоит из 11 модулей, половина из них в Production, другая половина требует проектирования и разработки. Продукт активно развивается, поэтому мы хотим усилить нашу команду. От нас вы получите опыт и развитие компетенций, амбициозные задачи, карьерный рост и открытость к инновациям!\nСтек: Spring core/Security/Batch/Rest/HateOAS, ABACUSES,BPM,Versioning, Hibernate Envers/ORM/OGM, Apache Kafka, Jasper reports, Oracle/PostgreeSQL.\nПроцесс разработки : Scrum, Jira, Gitflow,Devops до Production (переход на OpenShift)\n-Оформление ТК РФ;\n     -ДМС;\n     - Белая заработная плата (оклад + годовая премия);\n     -Возможность обучения за счет компании;\n     -   Льготное кредитование;\n      -Бесплатный тренажерный зал на территории офиса;\n       - корпоративная жизнь и спортивные мероприятия;\n       -возможность карьерного роста.\n\nЖдём Вас в нашей команде!\n@TaliaHR","markup":[{"type":"hashtag","offset":0,"length":5,"data":"java"},{"type":"hashtag","offset":6,"length":9,"data":"вакансия"},{"type":"hashtag","offset":16,"length":7,"data":"Москва"},{"type":"hashtag","offset":24,"length":9,"data":"fulltime"},{"type":"hashtag","offset":34,"length":7,"data":"middle"},{"type":"hashtag","offset":42,"length":7,"data":"senior"},{"type":"handle","offset":1430,"length":8,"data":"TaliaHR"}],"date":"2020-03-31T08:49:56+00:00","link":"tg://resolve?domain=jvmjobs&post=1337","tags":[{"name":"java"},{"name":"jvm"},{"name":"spring"},{"name":"batch"},{"name":"rest"},{"name":"hibernate"},{"name":"orm"},{"name":"apache"},{"name":"kafka"},{"name":"oracle"}],"cities":[{"code":"moscow"}],"allowsRemote":false}}]}}},"context":{}}