{"hash":"f5f6bf98bd95e769321482904cbbd488f77922fd","data":{"records":{"id":"mobile","name":"mobile","belongsTo":{"totalCount":307,"pageInfo":{"totalPages":31,"currentPage":9},"edges":[{"node":{"__typename":"Job","id":"72324481024-1001054966032","title":"Ios разработчик","text":"#вакансия #работа #Санкт_Петербург #middle #IOS #Swift #Scrum\n\nФормат работы: Удаленный\nЗанятость: Полная\nЗарплатная вилка: от 120 000 до 200 000.\n\nМы Stream - делаем классные и реально удобные продукты для людей. 📣Сейчас находимся в поиске IOS разработчика.📱\n\nЖдём от вас: \n🔹Опыт разработки приложений на IOS (желательно от 2-х лет).\n🔹Знание ООП, структур данных, архитектурных паттернов;\n🔹Опыт применения RxSwift;\n🔹Опыт написания unit-тестов;\n🔹Наличие готовых приложений в AppStore будет преимуществом;\n🔹Коммуникабельность, желание работать в команде единомышленников.\nПредлагаем:\n✅Сильная команда\n✅Гибкий график\n✅ДМС со стоматологией\n✅Компенсация мобильной связи\n✅Официальное оформление и \"белая\" зарплата + премии сверху оклада\n✅Возможность дополнительного обучения.\n\nКонтакты: telegram - @YanaKuzn\nпочта: ykuznetsova@stream.ru","markup":[{"type":"hashtag","offset":0,"length":9,"data":"вакансия"},{"type":"hashtag","offset":10,"length":7,"data":"работа"},{"type":"hashtag","offset":18,"length":16,"data":"Санкт_Петербург"},{"type":"hashtag","offset":35,"length":7,"data":"middle"},{"type":"hashtag","offset":43,"length":4,"data":"IOS"},{"type":"hashtag","offset":48,"length":6,"data":"Swift"},{"type":"hashtag","offset":55,"length":6,"data":"Scrum"},{"type":"handle","offset":801,"length":9,"data":"YanaKuzn"},{"type":"link","offset":818,"length":21,"data":"mailto:ykuznetsova@stream.ru"}],"date":"2020-06-30T08:35:09+00:00","link":"tg://resolve?domain=mobile_jobs&post=68974","tags":[{"name":"mobile"},{"name":"ios"},{"name":"swift"}],"cities":[],"allowsRemote":false}},{"node":{"__typename":"Job","id":"72318189568-1001054966032","title":"Ios разработчик","text":"#вакансия #swift #objective-C #ios\n\niOS разработчик удаленно по России \nmiddle/senior\n\nГород : Санкт-Петербург\nФормат работы: офис или удаленно\nЗанятость: Полная\nЗарплатная вилка:  90 000 - 200 000 руб\nОписание компании:\nВ Blogman мы занимаемся разработкой собственного приложения – платформа для блогеров и рекламодателей. В нашей команде уже более 50 разработчиков и мы продолжаем расти. Сейчас мы ищем инженера с опытом коммерческой разработки под iOS\n\nМы ожидаем, что у вас есть:\n— Опыт коммерческой разработки мобильных приложений под iOS;\n— Хорошие знания Swift, UIKit;\n— Опыт работы с мобильными БД;\n— Умение работать с Git, Cocoapods.\n\nБудет плюсом, если вы:\n— Разрабатывали клиент-серверные приложения;\n— Умеете работать с WebSocket;\n— Знаете и понимаете архитектуру VIPER;\n— Командный игрок без яркого эгоцентризма;\n— Готовы активно принимать участие в жизни компании и продукта.\n\nРады предложить:\n– Удаленное сотрудничество или комфортный офис на Невском проспекте в 5 минутах ходьбы от ст. м. Маяковская и Владимирская;\n– Желаемый оклад по результатам собеседования;\n– Понятную систему роста зарплаты каждые 6 месяцев, в которой все зависит только от вас;\n– Все необходимые офисные блага вроде вкусного кофе и т.д.\nВас будут окружать адекватные люди, с которыми комфортно решать поставленные задачи. У сотрудников есть общие ценности, такие как стремление к качественному результату, забота о продукте и желание двигаться вперед. Также у нас нет “Начальства”, а есть коллеги. Все взаимодействуют горизонтально и в команде равенство между инженерами, стейкхолдером, продактом и т.д. Все работают бок о бок и делают одно общее дело.\nНазвание компании: Blogman\nКонтакты: @maria_golovina","markup":[{"type":"hashtag","offset":0,"length":9,"data":"вакансия"},{"type":"hashtag","offset":10,"length":6,"data":"swift"},{"type":"hashtag","offset":17,"length":10,"data":"objective"},{"type":"hashtag","offset":30,"length":4,"data":"ios"},{"type":"bold","offset":223,"length":8,"data":""},{"type":"bold","offset":456,"length":27,"data":""},{"type":"bold","offset":644,"length":22,"data":""},{"type":"bold","offset":891,"length":16,"data":""},{"type":"handle","offset":1680,"length":15,"data":"maria_golovina"}],"date":"2020-06-30T07:56:16+00:00","link":"tg://resolve?domain=mobile_jobs&post=68968","tags":[{"name":"mobile"},{"name":"ios"},{"name":"swift"},{"name":"objective-c"},{"name":"uikit"},{"name":"git"},{"name":"cocoapods"},{"name":"websocket"}],"cities":[],"allowsRemote":true}},{"node":{"__typename":"Job","id":"72308752384-1001054966032","title":"Android разработчик","text":"#вакансия #android #офис #штат #тюмень\n\nИщу Android разработчика (Тюмень) на фултайм в офис.\nКомпания Строительный двор.\n\nЗарплатная вилка 70 000 - 100 000 р./мес. на руки, полностью \"белые\" выплаты, гибкий график, можно периодически работать удаленно, 39-часовая рабочая неделя.\n\nНа текущий момент у нас в работе несколько интересных проектов, один из них – мобильное приложение для формата Дистрибуции. Оно позволяет торговым представителям работать в дистанционном формате, оформляя заказы и выставляя счета.\nСейчас есть большой объем задач по доработке и усовершенствованию этого приложения, а также по добавлению новых функций.\n\nВ первую очередь важно:\nопыт разработки под Android от 2-х лет\nзнание Java (Kotlin будет плюсом);\nпонимание архитектурных паттернов MVP, MVVM, Clean Architecture;\nопыт работы с SQLite, Realm;\nпонимание REST API;\nопыт работы с Git, RxJava 2, Retrofit, FireBase, Dagger2.\n\nБуду рада Вашей обратной связи здесь, по почте oegorova@sdvor.com или в телеграм @ov_egorova","markup":[{"type":"hashtag","offset":0,"length":9,"data":"вакансия"},{"type":"hashtag","offset":10,"length":8,"data":"android"},{"type":"hashtag","offset":19,"length":5,"data":"офис"},{"type":"hashtag","offset":25,"length":5,"data":"штат"},{"type":"hashtag","offset":31,"length":7,"data":"тюмень"},{"type":"link","offset":952,"length":18,"data":"mailto:oegorova@sdvor.com"},{"type":"handle","offset":986,"length":11,"data":"ov_egorova"}],"date":"2020-06-30T06:20:52+00:00","link":"tg://resolve?domain=mobile_jobs&post=68959","tags":[{"name":"mobile"},{"name":"android"},{"name":"java"},{"name":"kotlin"},{"name":"mvvm"},{"name":"sqlite"},{"name":"realm"},{"name":"rest"},{"name":"git"},{"name":"firebase"}],"cities":[{"code":"tyumen"}],"allowsRemote":true}},{"node":{"__typename":"Job","id":"72299315200-1001054966032","title":"Android developer","text":"#вакансия #Juniorandroid #Android developer #kotlin #удаленно                                                                                                         Уровень дохода:💵 50 000-60 000  рублей net                                                                                                                                                                                 Требуемый опыт работы: от 1 года\nПолная занятость, дистанционно, гибкое начало рабочего дня\n \n📌Требования:\n- Нативная Android разработка (Kotlin)\n- Умение писать поддерживаемый и тестируемый код\n- Умение работать с Dagger 2\n- Умение работать с git\n- Желание развиваться и изучать новое в разработке\n- Опыт разработки приложений от 1 года\n -Знание английского языка от уровня Intermediate\n \n📌Будет плюсом:\n- Опыт работы с JNI\n- Опыт использования tensorflow\n- Опыт работы с аудио и видео\n\n📌Условия:\n- Отсутствие бюрократии\n- Время начала рабочего дня обговариваем индивидуально\n- Крутой инновационный проект - возможность самореализации и профессионального роста\n- Стабильное зарубежное финансирование\n- Десятки миллионов установок и множество глобальных партнёров\n📞Контакты @SvetikS_hr +7(963)-632-12-36 Cветлана","markup":[{"type":"hashtag","offset":0,"length":9,"data":"вакансия"},{"type":"hashtag","offset":10,"length":14,"data":"Juniorandroid"},{"type":"hashtag","offset":25,"length":8,"data":"Android"},{"type":"hashtag","offset":44,"length":7,"data":"kotlin"},{"type":"hashtag","offset":52,"length":9,"data":"удаленно"},{"type":"link","offset":184,"length":13,"data":"tel:50 000-60 000"},{"type":"handle","offset":1164,"length":11,"data":"SvetikS_hr"},{"type":"link","offset":1176,"length":17,"data":"tel:+7(963)-632-12-36"}],"date":"2020-06-29T18:30:37+00:00","link":"tg://resolve?domain=mobile_jobs&post=68950","tags":[{"name":"mobile"},{"name":"android"},{"name":"kotlin"},{"name":"dotnet"},{"name":"git"},{"name":"tensorflow"}],"cities":[],"allowsRemote":true}},{"node":{"__typename":"Job","id":"72296169472-1001054966032","title":"Ios разработчик","text":"#вакансия #ios #swift #junior #джун\n\nГород и адрес офиса: Санкт-Петербург, м. Петроградская (но команда работает удалённо)\n\nФормат работы: удалёнка\n\nЗанятость: проектная\n\nЗарплатная вилка (за проект): 200 000–500 000₽\n\nОписание вакансии: \nИщем джуниор-iOS разработчиков для разработки приложения под руководством сильного тимлида. Все подробности про приложение — в личку. \n\nФормат работы — проектный, с фиксированной оплатой за проект. После запуска приложения есть вероятность перехода на фултайм в команду (зависит от успеха запуска приложения). \n\nЕсли хочешь работать на международном рынке, тебе интересны стартапы, хочешь быть частью команды, которая работает над классными продуктами — пиши и присоединяйся к нам!\n\nВ отклике укажи портфолио/проекты/ссылки на приложения, резюме, ссылку на гитхаб. Вкратце расскажи, почему тебя заинтересовала наша вакансия. \n\nНазвание компании: Mooza.ru (пилим внутренний проект, не заказной)\n\nКонтакты: tg — @arutyunov","markup":[{"type":"hashtag","offset":0,"length":9,"data":"вакансия"},{"type":"hashtag","offset":10,"length":4,"data":"ios"},{"type":"hashtag","offset":15,"length":6,"data":"swift"},{"type":"hashtag","offset":22,"length":7,"data":"junior"},{"type":"hashtag","offset":30,"length":5,"data":"джун"},{"type":"bold","offset":37,"length":20,"data":""},{"type":"bold","offset":124,"length":14,"data":""},{"type":"bold","offset":149,"length":11,"data":""},{"type":"bold","offset":171,"length":30,"data":""},{"type":"bold","offset":219,"length":19,"data":""},{"type":"bold","offset":866,"length":18,"data":""},{"type":"link","offset":885,"length":8,"data":"http://mooza.ru/"},{"type":"bold","offset":934,"length":9,"data":""},{"type":"handle","offset":949,"length":10,"data":"arutyunov"}],"date":"2020-06-29T17:31:17+00:00","link":"tg://resolve?domain=mobile_jobs&post=68947","tags":[{"name":"mobile"},{"name":"ios"},{"name":"swift"}],"cities":[],"allowsRemote":true}},{"node":{"__typename":"Job","id":"72293023744-1001054966032","title":"Mobile разработчик","text":"#вакансия #RN #reactnative #офис #москва #мск #remote #удаленка \nГород и адрес офиса:  #москва #мск  #арбатская\nФормат работы: офис, фултайм, гибкий график, можно удаленно (с редкими встречами в мск, поэтому важно, чтобы вы жили не очень далеко от мск)\nЗанятость: полная\nЗарплатная вилка: 180-250 т.р. net готовы обсуждать\nОписание вакансии: \nИщу сейчас RN разработчика в финтех проект (Openbanking, psd2) -  это новый продукт в онлайн покупках на европейском рынке, со своей «платежкой», которое сделает эту сферу более технологичной и еще проще и доступнее для пользователей:\n- новое удобное решение для b2c клиентов (мобильное приложение)\n- выгодные условия для b2b партнеров (низкие комиссии за транзакции)\n\nОформление белое, проект полностью с нуля, только собираем команду, есть возможность максимального влияния на продукт, на выбор технологий и построение процессов.\n\nНазвание компании:  Star-Staff\nКонтакты: пишите на этот тг @yuliaataman","markup":[{"type":"hashtag","offset":0,"length":9,"data":"вакансия"},{"type":"hashtag","offset":10,"length":3,"data":"RN"},{"type":"hashtag","offset":14,"length":12,"data":"reactnative"},{"type":"hashtag","offset":27,"length":5,"data":"офис"},{"type":"hashtag","offset":33,"length":7,"data":"москва"},{"type":"hashtag","offset":41,"length":4,"data":"мск"},{"type":"hashtag","offset":46,"length":7,"data":"remote"},{"type":"hashtag","offset":54,"length":9,"data":"удаленка"},{"type":"hashtag","offset":87,"length":7,"data":"москва"},{"type":"hashtag","offset":95,"length":4,"data":"мск"},{"type":"hashtag","offset":101,"length":10,"data":"арбатская"},{"type":"handle","offset":935,"length":12,"data":"yuliaataman"}],"date":"2020-06-29T16:37:14+00:00","link":"tg://resolve?domain=mobile_jobs&post=68944","tags":[{"name":"mobile"},{"name":"dotnet"}],"cities":[{"code":"moscow"}],"allowsRemote":true}},{"node":{"__typename":"Job","id":"72286732288-1001054966032","title":"Ios разработчик","text":"#вакансия #ios #офис #удаленка #Москва #fulltime\n\nГород: Москва\nФормат работы: офис/удаленная работа\nЗанятость: полная\nЗарплатная вилка: от 130 000 до 200 000\n\nКомпания: Лига Цифровой Экономики \n\nЛига Цифровой Экономики — это 3 500 человек и  1 000 проектов цифровой трансформации каждый год!\n\nНаши клиенты — лидеры рынка в ключевых отраслях экономики и государственного сектора. Мы гордимся нашей экспертизой и знаковыми проектами.\n\n🟢Мы пишем iOS-приложение для крупного ритейлера по продаже электроники и уже прошли довольно большой путь. Как ты уже понял, останавливаться мы не собираемся.\n\nМы постоянно растём и прямо сейчас ищем в команду хорошего iOS-разработчика, который будет с нами и в горе, и в радости.\n\nМы разрабатываем на последней версии Swift, используем VIPER. А также, пишем unit-тесты, используем моднейший CI/CD, ратуем за чистую архитектуру и не боимся экспериментировать.\n\n🔹Чего тебя ждёт на нашем проекте:\n\nРазработка нового функционала приложения – на горизонте маячит большое количество интересных фич, включая геймификацию.\nПоддержка и сопровождение существующего функционала – приложение уже довольно большое и за ним нужно ухаживать: не давать зарастать багами и следить за unit-тестами;\nУчастие в обсуждениях по развитию приложения и его архитектуры;\nРефакторинг устаревших модулей проекта;\n\n🔹Кого мы ищем:\n\nУверенное знание языка Swift, UIKit, Foundation и среды разработки в целом;\nПонимание архитектуры VIPER;\nОпыт написания Unit-тестов приветствуется;\nПонимание принципов SOLID;\nОпыт работы с системами контроля версий (Git);\nКоммуникабельность;\nЖелание обучаться и развиваться;\nУмение разбираться в чужом коде без приступов тошноты.\n\nПо всем вопросам пишите в ЛС: @Bogdan_Ln","markup":[{"type":"hashtag","offset":0,"length":9,"data":"вакансия"},{"type":"hashtag","offset":10,"length":4,"data":"ios"},{"type":"hashtag","offset":15,"length":5,"data":"офис"},{"type":"hashtag","offset":21,"length":9,"data":"удаленка"},{"type":"hashtag","offset":31,"length":7,"data":"Москва"},{"type":"hashtag","offset":39,"length":9,"data":"fulltime"},{"type":"handle","offset":1701,"length":10,"data":"Bogdan_Ln"}],"date":"2020-06-29T15:45:55+00:00","link":"tg://resolve?domain=mobile_jobs&post=68938","tags":[{"name":"mobile"},{"name":"ios"},{"name":"swift"},{"name":"uikit"},{"name":"git"}],"cities":[{"code":"moscow"}],"allowsRemote":true}},{"node":{"__typename":"Job","id":"72284635136-1001054966032","title":"Ios developer","text":"#вакансия #спб #ios #middle #senior #spb #офис #IoT #умныйдом \nMiddle/Senior iOS developer \nReady for Sky 🚀 \nhttps://readyforsky.com/ru/career/ \n📍 полный день, удаленно/офис (сейчас вся компания работает удаленно) \nМы ищем iOS developer, который будет разрабатывать приложение, использующее данные с IoT-устройств для предоставления пользователям нужных товаров и услуг \n💡 Используем: Swift, Objective-C; Jenkins; GraphQL; RxSwift; MVC, MVVM и Viper \nВ команде: разрабатываем новый функционал приложения, внутренние фреймворки (Private pods), фреймворки для общего доступа; пишем Unit тесты; принимаем участие в создании протоколов работы с умными устройствами; Refactoring и Code-review. \nПредлагаем: \nРаботу в профессиональной команде (team lead, senior, middle), более 300 000 активных пользователей приложения. \nЗП от 130 до 250 тыс. руб. на руки \nПосле исп.срока корпоративный английский \n📬 Пиши: @Rupeka_Natali","markup":[{"type":"hashtag","offset":0,"length":9,"data":"вакансия"},{"type":"hashtag","offset":10,"length":4,"data":"спб"},{"type":"hashtag","offset":15,"length":4,"data":"ios"},{"type":"hashtag","offset":20,"length":7,"data":"middle"},{"type":"hashtag","offset":28,"length":7,"data":"senior"},{"type":"hashtag","offset":36,"length":4,"data":"spb"},{"type":"hashtag","offset":41,"length":5,"data":"офис"},{"type":"hashtag","offset":47,"length":4,"data":"IoT"},{"type":"hashtag","offset":52,"length":9,"data":"умныйдом"},{"type":"bold","offset":63,"length":27,"data":""},{"type":"bold","offset":92,"length":13,"data":""},{"type":"link","offset":110,"length":34,"data":"https://readyforsky.com/ru/career/"},{"type":"bold","offset":225,"length":13,"data":""},{"type":"bold","offset":376,"length":11,"data":""},{"type":"bold","offset":454,"length":10,"data":""},{"type":"bold","offset":693,"length":11,"data":""},{"type":"bold","offset":900,"length":5,"data":""},{"type":"handle","offset":906,"length":14,"data":"Rupeka_Natali"}],"date":"2020-06-29T15:34:19+00:00","link":"tg://resolve?domain=mobile_jobs&post=68936","tags":[{"name":"mobile"},{"name":"ios"},{"name":"swift"},{"name":"objective-c"},{"name":"jenkins"},{"name":"graphql"},{"name":"mvvm"}],"cities":[],"allowsRemote":true}},{"node":{"__typename":"Job","id":"72279392256-1001054966032","title":"Android разработчик","text":"#вакансия #работа #Android #Kotlin #удаленнаяработа\n\nГород: Москва\nФормат работы: фулл тайм удаленно \n\nЗарплатная вилка: от 150 000 до 230 000;\nКомпания: АО «Почта банк»\n\nМы занимаем лидирующие позиции в рейтингах Интернет-банков, и не останавливаемся на достигнутом. Приглашаем к себе в команду разработчика Android.\n\nВАША ГЛАВНАЯ ЗАДАЧА:\n⚡️Разработка систем дистанционного банковского обслуживания (мобильный банк) на Android.\n\nНАШИ ТРЕБОВАНИЯ:\n✅ Опыт разработки для платформы Android от 3-х лет;\n✅ Знание Android SDK, Java, Kotlin, Rest/SOAP, Google Maps API, SQLite;\n\nВАШИМ ДОПОЛНИТЕЛЬНЫМ ПРЕИМУЩЕСТВОМ БУДЕТ:\n✅ Наличие высшего технического образования;\n✅ Знание стандартов проектирования и разработки мобильных приложений;\n✅ Знание архитектуры мобильных приложений и реализации серверного взаимодействия для мобильных приложений;\n✅ Навыки работы с многопоточностью;\n✅Опыт работы в банковской сфере.\n\nГОТОВЫ ВАМ ПРЕДЛОЖИТЬ:\n🔹 Удобный график («плавающее» начало рабочего дня);\n🔹 Удаленный формат работы;\n🔹 Оклад + квартальное премирование + годовой бонус;\n🔹 Agile. Scrum (двухнедельные спринты, работа в командах по 6-8 человек: 2 backend, 3 frontend, системный аналитик, 2 тестировщика) Демократия и самоорганизация + наличие удаленного доступа;\n🔹 Обучение - доступное внутреннее и внешнее обучение. В Банке есть корпоративная академия. Регулярно проходят внутренние митаппы, tech. chapters и ретроспективы. Мы посещаем ключевые отраслевые конференции;\n🔹 Профессиональное развитие - мы используем современный стэк, поддерживаем разумные инициативы по внедрению новшеств, совершенствуем архитектуру и кодовую базу;\n🔹 Карьерный рост- команда постоянно растет. В зависимости от вклада, каждый сотрудник может претендовать на повышение дохода, новый функционал и дополнительные задачи. Мы держимся за наших сотрудников;\n🔹 ДМС. Многочисленные скидки и бонусы от партнеров (от каршеринга до ипотеки).\n\n📩 Контакты: @dorogavtseva","markup":[{"type":"hashtag","offset":0,"length":9,"data":"вакансия"},{"type":"hashtag","offset":10,"length":7,"data":"работа"},{"type":"hashtag","offset":18,"length":8,"data":"Android"},{"type":"hashtag","offset":27,"length":7,"data":"Kotlin"},{"type":"hashtag","offset":35,"length":16,"data":"удаленнаяработа"},{"type":"handle","offset":1921,"length":13,"data":"dorogavtseva"}],"date":"2020-06-29T14:42:50+00:00","link":"tg://resolve?domain=mobile_jobs&post=68931","tags":[{"name":"mobile"},{"name":"android"},{"name":"kotlin"},{"name":"java"},{"name":"rest"},{"name":"soap"},{"name":"sqlite"},{"name":"google-maps"}],"cities":[{"code":"moscow"}],"allowsRemote":true}},{"node":{"__typename":"Job","id":"72278343680-1001054966032","title":"Ios developer","text":"‼️Вакансия Senior iOS Developer в MNFST‼️\n\n#вакансия #ios #удалённо \nФормат работы: #удалённо\nЗанятость: полная\n💶 З/п: от 200 000 до 230 000 руб. на руки\n\n🏢 Компания: MNFST (mnfst.com)\n\nЧем предстоит заниматься: \n🔸 Разработка и доработка нового функционала iOS-приложения MNFST\n🔸 Поддержка и развитие AR и face tracker\n🔸 Работа над оптимизацией и стабильностью приложения\n\nТребования:\n✔️ Отличное владение языком Swift (не менее двух лет)\n✔️ Опыт коммерческой разработки iOS-приложений (не менее трех лет)\n✔️ Хорошее владение Objective-C\n✔️ Уверенное знание GCD и понимание ARC\n\nПлюсом будет:\n➕ Знание Objective-C Runtime\n➕ Опыт работы с AVFoundation, Vision, ARKit и CoreML\n➕ Опыт разработки Cocoa Touch Frameworks\n\n📨 Резюме и вопросы по вакансии присылайте на talent@mnfst.com или @aderyabin","markup":[{"type":"hashtag","offset":43,"length":9,"data":"вакансия"},{"type":"hashtag","offset":53,"length":4,"data":"ios"},{"type":"hashtag","offset":58,"length":9,"data":"удалённо"},{"type":"bold","offset":69,"length":14,"data":""},{"type":"hashtag","offset":84,"length":9,"data":"удалённо"},{"type":"bold","offset":94,"length":11,"data":""},{"type":"bold","offset":115,"length":5,"data":""},{"type":"bold","offset":159,"length":10,"data":""},{"type":"link","offset":176,"length":9,"data":"http://mnfst.com"},{"type":"bold","offset":188,"length":25,"data":""},{"type":"bold","offset":378,"length":11,"data":""},{"type":"bold","offset":584,"length":14,"data":""},{"type":"link","offset":768,"length":16,"data":"mailto:talent@mnfst.com"},{"type":"handle","offset":789,"length":10,"data":"aderyabin"}],"date":"2020-06-29T14:33:28+00:00","link":"tg://resolve?domain=mobile_jobs&post=68930","tags":[{"name":"mobile"},{"name":"ios"},{"name":"swift"},{"name":"objective-c"},{"name":"cocoa"},{"name":"cocoa-touch"}],"cities":[],"allowsRemote":true}}]}}},"context":{}}