{"hash":"f5f6bf98bd95e769321482904cbbd488f77922fd","data":{"records":{"id":"russia/moscow","country":{"code":"russia","ruName":"Россия","enName":"Russia"},"city":{"code":"moscow","ruName":"Москва","enName":"Moscow"},"belongsTo":{"totalCount":476,"pageInfo":{"totalPages":48,"currentPage":48},"edges":[{"node":{"__typename":"Job","id":"16862150656-1001110946746","title":"Js разработчик","text":"#вакансия #Москва #nodejs #офис\n\nКомпания Proscom ищет Middle/Senior Backend (Node.js) разработчика\n\nФормат занятости: Офис около м. Серпуховская/Павелецкая.\nЗанятость: полная \nЗарплатная вилка: 100 000 - 240 000 рублей/месяц (по результатам собеседования)\n\nО компании: \n\nС 2013 года создаем интерфейсы, веб-сайты,\nмобильные приложения для крупных\nправительственных организаций и\nкоммерческих предприятий\n\nЗадачи:\n\nВести разработку как новых проектов, так и поддерживать уже существующий код.\n\nСтек:\n\nNode.js, GraphQL, REST, Nest.js, TypeScript, CRDT, MySQL, PostreSQL, Git, Docker\n\nТребования:\n\nОт 1 года опыта работы с Node.js, от 2х лет опыта программирования\n\nБудет плюсом:\n\nОпыт с frontend\n\nНаши преимущества:\n\n ⁃ У нас много интересных проектов\n ⁃ Используем актуальные технологии, следим за трендами и постоянно улучшаем UX и DX\n ⁃ Не заморачиваемся графиком 9-18, не считаем съеденные печеньки, не заставляем ходить на обязательные корпоративы в нерабочее время, петь гимны и ублажать начальство\n ⁃ Заинтересованы в развитии сотрудников. Есть чему учиться и куда расти.\n ⁃ У нас дружный коллектив. Периодически проводим время вместе, но всегда без принуждения\n ⁃ У нас минимум бюрократии и нет дресс-кода\n ⁃ У нас уютный лофт офис у м. Серпуховская/Павелецкая.\n\nКонтакт: @mxm_at","markup":[{"type":"hashtag","offset":0,"length":9,"data":"вакансия"},{"type":"hashtag","offset":10,"length":7,"data":"Москва"},{"type":"hashtag","offset":18,"length":7,"data":"nodejs"},{"type":"hashtag","offset":26,"length":5,"data":"офис"},{"type":"handle","offset":1279,"length":7,"data":"mxm_at"}],"date":"2020-06-12T08:59:08+00:00","link":"tg://resolve?domain=javascript_jobs_feed&post=16081","tags":[{"name":"javascript"},{"name":"nodejs"},{"name":"graphql"},{"name":"rest"},{"name":"typescript"},{"name":"mysql"},{"name":"git"},{"name":"docker"}],"cities":[{"code":"moscow"}],"allowsRemote":false}},{"node":{"__typename":"Job","id":"2199912448-1001134745498","title":"Devops инженер","text":"#вакансия #DevOps \nDevOps Engineer \nГород и адрес офиса: Москва, Сочи, Новосибирск \n\nФормат работы: удаленка\n\nЗанятость: полная\n\nЗарплатная вилка: от 40000 до 60000 USD в год \n\nОписание вакансии: Крупная международная компания по разработке игр ищет в свою команду DevOps инженера. \n\nТребования: \nDevOps/SRE, ключевые слова:\nTypeScrypt, Node.js, SRE, SDN, PoP, VPN, динамическая маршрутизация, инкапсуляция трафика, Kubernetes, Helm и что-нибудь из стораджа типа Lustre, CEPH и про Apache Spark, Hadoop и особенно HDFS\n\nБудет плюсом: \n• Опыт удаленной работы.\n\nP.S. Ищем супер ниндзю, который отвечает всем требованиям вакансии \n\nКонтакт для связи: @temnik_sofya\n\n—\n\n👉 Обсуждение вакансии в чате @devops_jobs","markup":[{"type":"hashtag","offset":0,"length":9,"data":"вакансия"},{"type":"hashtag","offset":10,"length":7,"data":"DevOps"},{"type":"handle","offset":649,"length":13,"data":"temnik_sofya"},{"type":"handle","offset":697,"length":12,"data":"devops_jobs"}],"date":"2020-06-12T08:26:02+00:00","link":"tg://resolve?domain=devops_jobs_feed&post=2098","tags":[{"name":"nodejs"},{"name":"kubernetes"},{"name":"apache"},{"name":"hadoop"},{"name":"hdfs"},{"name":"apache-spark"}],"cities":[{"code":"moscow"},{"code":"sochi"},{"code":"novosibirsk"}],"allowsRemote":true}},{"node":{"__typename":"Job","id":"16860053504-1001110946746","title":"Js разработчик","text":"#вакансия #Москва #vue\n\nКомпания Proscom ищет Middle/Senior Frontend разработчика\n\nФормат занятости: Офис около м. Серпуховская/Павелецкая.\nЗанятость: полная \nЗарплатная вилка: 100 000 - 250 000 рублей/месяц (по результатам собеседования)\n\nО компании: \n\nС 2013 года создаем интерфейсы, веб-сайты,\nмобильные приложения для крупных\nправительственных организаций и\nкоммерческих предприятий\n\nЗадачи:\n\n ⁃ Разработка компонентов дизайн-системы с крутым UX\n ⁃ Разработка страниц с использованием этих компонентов\n ⁃ Проектирование и реализация фронтенда в команде с дизайнерами и другими разработчиками\n ⁃ Реализация адаптива, микровзаимодействий и анимаций\n ⁃ Решение проблем с кроссбраузерностью (Safari, IE 11)\n ⁃ Визуализация данных, кастомные графики (d3.js)\n\nТребования: \n\n ⁃ Знание языка JavaScript и его современных стандартов (ES6+)\n ⁃ Уверенная работа с асинхронным кодом\n ⁃ Знание тонкостей Vue.js\n ⁃ Опыт программирования от 2 лет\n ⁃ Опыт фронтенд веб-разработки от 1 года\n ⁃ Владение английским языком на уровне чтения технической документации\n\nБудет плюсом:\n\n ⁃ Представление о React\n ⁃ Уверенная адаптивная верстка\n ⁃ Понимание TypeScript\n ⁃ Работа с Git\n ⁃ Знание основ Computer Science (алгоритмы, структуры данных и математика)\n ⁃ Опыт написания автотестов для фронтенда\n\nНаши преимущества:\n\n - Оформление по ТК\n ⁃ У нас много интересных проектов\n ⁃ Используем актуальные технологии, следим за трендами и постоянно улучшаем UX и DX\n ⁃ Не заморачиваемся графиком 9-18, не считаем съеденные печеньки, не заставляем ходить на обязательные корпоративы в нерабочее время, петь гимны и ублажать начальство\n ⁃ Заинтересованы в развитии сотрудников. Есть чему учиться и куда расти.\n ⁃ У нас дружный коллектив. Периодически проводим время вместе, но всегда без принуждения\n ⁃ У нас минимум бюрократии и нет дресс-кода\n ⁃ У нас уютный лофт офис у м. Серпуховская/Павелецкая.\n\nКонтакт: @mxm_at","markup":[{"type":"hashtag","offset":0,"length":9,"data":"вакансия"},{"type":"hashtag","offset":10,"length":7,"data":"Москва"},{"type":"hashtag","offset":18,"length":4,"data":"vue"},{"type":"handle","offset":1886,"length":7,"data":"mxm_at"}],"date":"2020-06-11T20:26:10+00:00","link":"tg://resolve?domain=javascript_jobs_feed&post=16079","tags":[{"name":"javascript"},{"name":"vuejs"},{"name":"safari"},{"name":"reactjs"},{"name":"typescript"},{"name":"git"}],"cities":[{"code":"moscow"}],"allowsRemote":false}},{"node":{"__typename":"Job","id":"16859004928-1001110946746","title":"Js разработчик","text":"#вакансия #frontend #vue #senior #middle #remote #офис #удаленка\n\nГород: Москва, м. Славянский бульвар\nФормат работы: офис, удаленное сотрудничество\nЗанятость: полная, гибкий график (обсуждаем)\nЗарплатная вилка: от 80 000 рублей до 240 000 рублей на руки\nНазвание компании: ФГБУ «ИАЦ МЧС России»\nКонтакты для связи: @mxrkin\n\nНа данный момент отдел разработки программного обеспечения формирует команду JS-разработчиков для поддержки существующих и реализации новых проектов.\n\nТребования для соискателей:\n— уверенные знания Javascript, знание стандартов ECMAScript;\n— знание и опыт применения фреймворка Vue.js и использование элементов экосистемы фреймворка (vuex, vue-router);\n— опыт использования систем сборки - webpack, gulp, parcel. Опыт написания конфигов для webpack;\n— владение препроцессорами CSS - SASS/LESS;\n— опыт использования Prettier, ESLint;\n— гражданство РФ (местонахождение так же РФ).\n\nПлюсом будет:\n— владение Node.js или знание других языков программирования;\n— активные профили в сообществах habrahabr, habr Q&A, участие в opensource проектах, активный профиль github;\n— опыт работы с библиотекой D3.js;\n— опыт работы с картографическими библиотеками.\n\nТрудоустройство официальное по ТК РФ, социальный пакет.\nНа территории имеется столовая для сотрудников, спортивные площадки, футбольное и баскетбольное поле.\nРабота не является государственной службой.\n\nСобеседование проходит в три этапа — общение с руководителем, выполнение тестового задания (простое задание на 15-30 минут), предложение сотрудничества. \n\nЕсли вас заинтересовала вакансия, обращайтесь в тг @mxrkin. Большим плюсом будет, если первым сообщением прикрепите резюме и поделитесь ссылками на проекты, в которых принимали активное участие, или ссылку на гитхаб с кодом, который, по-вашему мнению, сможет показать все ваши знания и навыки.","markup":[{"type":"hashtag","offset":0,"length":9,"data":"вакансия"},{"type":"hashtag","offset":10,"length":9,"data":"frontend"},{"type":"hashtag","offset":20,"length":4,"data":"vue"},{"type":"hashtag","offset":25,"length":7,"data":"senior"},{"type":"hashtag","offset":33,"length":7,"data":"middle"},{"type":"hashtag","offset":41,"length":7,"data":"remote"},{"type":"hashtag","offset":49,"length":5,"data":"офис"},{"type":"hashtag","offset":55,"length":9,"data":"удаленка"},{"type":"handle","offset":316,"length":7,"data":"mxrkin"},{"type":"handle","offset":1584,"length":7,"data":"mxrkin"}],"date":"2020-06-11T20:24:35+00:00","link":"tg://resolve?domain=javascript_jobs_feed&post=16078","tags":[{"name":"javascript"},{"name":"vuejs"},{"name":"webpack"},{"name":"gulp"},{"name":"css"},{"name":"sass"},{"name":"nodejs"},{"name":"github"}],"cities":[{"code":"moscow"}],"allowsRemote":true}},{"node":{"__typename":"Job","id":"16842227712-1001110946746","title":"Js разработчик","text":"#вакансия #Москва #fullstack #офис\n\nКомпания Proscom ищет Fullstack TeamLead разработчика\n\nФормат занятости: Офис около м. Серпуховская/Павелецкая.\nЗанятость: полная \nЗарплатная вилка: 200 000 - 260 000 рублей/месяц (по результатам собеседования)\n\nО компании: \n\nС 2013 года создаем интерфейсы, веб-сайты,\nмобильные приложения для крупных\nправительственных организаций и\nкоммерческих предприятий\n\nЗадачи:\n\nВести разработку как новых проектов, так и поддерживать уже существующий код. Принимать архитектурные решения. \n\nСтек:\n\nReact, Vue, Nest.js\n\nТребования:\n\nОт 3 лет опыта в веб разработке\n\nНаши преимущества:\n\n ⁃ У нас много интересных проектов\n ⁃ Используем актуальные технологии, следим за трендами и постоянно улучшаем UX и DX\n ⁃ Не заморачиваемся графиком 9-18, не считаем съеденные печеньки, не заставляем ходить на обязательные корпоративы в нерабочее время, петь гимны и ублажать начальство\n ⁃ Заинтересованы в развитии сотрудников. Есть чему учиться и куда расти.\n ⁃ У нас дружный коллектив. Периодически проводим время вместе, но всегда без принуждения\n ⁃ У нас минимум бюрократии и нет дресс-кода\n ⁃ У нас уютный лофт офис у м. Серпуховская/Павелецкая.\n\nКонтакт: @mxm_at","markup":[{"type":"hashtag","offset":0,"length":9,"data":"вакансия"},{"type":"hashtag","offset":10,"length":7,"data":"Москва"},{"type":"hashtag","offset":18,"length":10,"data":"fullstack"},{"type":"hashtag","offset":29,"length":5,"data":"офис"},{"type":"handle","offset":1175,"length":7,"data":"mxm_at"}],"date":"2020-06-11T19:53:40+00:00","link":"tg://resolve?domain=javascript_jobs_feed&post=0","tags":[{"name":"javascript"},{"name":"reactjs"},{"name":"vuejs"}],"cities":[{"code":"moscow"}],"allowsRemote":false}},{"node":{"__typename":"Job","id":"16841179136-1001110946746","title":"Js developer","text":"#вакансия #remote #node #fullstack_developer #startup\nSenior Software Developer \nЛокация: г. Москва, м. Белорусская\nФормат работы: удаленка и офис, мы за свободу выбора.\nЗанятость: полная (возможно частичная в период onboarding’a)\nЗарплатная вилка: от 200 000 до 300 000 рублей net\n\nОписание вакансии:\n\nSegmentStream — это технологический стартап со штаб-квартирой в Лондоне и офисом в Москве, где в основном сосредоточена команда разработки. Также часть сотрудников работает удаленно из Кипра, Санкт-Петербурга и других городов. \n\nПродукт:\nПлатформа для построения продвинутой маркетинговой аналитики. \n\nМы используем технологии обработки больших данных и машинное обучение, чтобы помочь маркетологам точно оценивать эффективность рекламных кампаний, при этом не тратить время на подготовку подобной отчетности вручную.\n\nТак, платформа SegmentStream позволяет наладить сбор данных из всех рекламных кабинетов, сайта, CRM-систем и других источников данных, объединить их в полезные маркетинговые отчеты, и применить справедливую модель атрибуции для понимания реальной ценности каждого маркетингового канала и кампании.   \n\nЧто мы делаем:\n- Мы разрабатываем высоконагруженные data pipelines с использованием NodeJs\n- Мы строим UI на React\n- Мы разрабатываем наш API, используя NodeJS и TypeScript.\n- Мы деплоим наш код несколько раз в день. Мы любим эффективность, облачные решения, CI / CD, Spinnaker, Kubernetes и Terraform.\n\nСтек команды: JavaScript, Node.js, React, TypeScript, Kubernetes, Google Cloud, Rust, Scala.\n\n Пример будущих задач:\n\n- Создать масштабируемую и отказоустойчивую архитектуру микросервиса с балансировкой нагрузки и автоматическим обнаружением.\n- Параллельная обработка терабайтов данных в условиях жестких ограничений оперативной памяти.\n- Создание высокодоступных конвейеров обработки событий в реальном времени с неограниченной масштабируемостью.\n- Построение эффективных систем кэширования и проксирования.\n\nТребования:\n\n- Опыт разработки бекенда и фронтенда на  ES6 или TypeScript;\n- 4+ лет опыта разработки или наличия крутых проектов с открытым исходным кодом на GitHub.\n- Сильные теоретические знания и практический опыт в проектировании и реализации высокодоступных, высоконагруженных, отказоустойчивых распределенных систем.\n- Знание английского языка не ниже B1\nЖелательно:\nТехническое образование\n\nКонтакты: @bezelune ; nelya.bakhshibaeva@segmentstream.com; segmentstream.com","markup":[{"type":"hashtag","offset":0,"length":9,"data":"вакансия"},{"type":"hashtag","offset":10,"length":7,"data":"remote"},{"type":"hashtag","offset":18,"length":5,"data":"node"},{"type":"hashtag","offset":24,"length":20,"data":"fullstack_developer"},{"type":"hashtag","offset":45,"length":8,"data":"startup"},{"type":"handle","offset":2346,"length":9,"data":"bezelune"},{"type":"link","offset":2358,"length":36,"data":"mailto:nelya.bakhshibaeva@segmentstream.com"},{"type":"link","offset":2396,"length":17,"data":"http://segmentstream.com"}],"date":"2020-06-11T19:44:16+00:00","link":"tg://resolve?domain=javascript_jobs_feed&post=0","tags":[{"name":"javascript"},{"name":"nodejs"},{"name":"dotnet"},{"name":"reactjs"},{"name":"typescript"},{"name":"kubernetes"},{"name":"cloud"},{"name":"rust"},{"name":"scala"},{"name":"github"},{"name":"google-cloud-platform"}],"cities":[{"code":"moscow"}],"allowsRemote":true}}]}}},"context":{}}