{"hash":"f5f6bf98bd95e769321482904cbbd488f77922fd","data":{"records":{"id":"web","name":"web","belongsTo":{"totalCount":155,"pageInfo":{"totalPages":16,"currentPage":2},"edges":[{"node":{"__typename":"Job","id":"104309194752-1001089317451","title":"Qa инженер","text":"#moscow #москва #вакансия\n\nИщем QA инженера в британский стартап с российскими корнями copper.co. \n\nНам нужен человек, которому до всего будет дело :)\n\nВилка - от 1500 до 2200 usd\n\nЗадачи:\n — создание и поддержка функциональных и регрессионных тестов на JS на новый и существующий код.\n — проведение ручного тестирование web, мобильных и desktop приложений\n \n — контроль задачи на каждом этапе производственного цикла\n — релиз менеджмент: сбор и анализ требований, контроль качества реализации, управление процессом CI/CD\n — организация и поддержка процессов тестирования\n — поддержка account managers по техническим вопросам\n\nНеобходимые навыки:\n — опыт ручного тестирования web приложений\n — опыт автоматизированного тестирования\n — понимание процесса разработки\n — умение читать код\n — уметь пользоваться логами\n\nБудет плюсом:\n — разговорный и письменный английский \n — базовые навыки и желание развиваться в построении серверной инфраструктуры\n — опыт промышленной разработки\n\nО проекте:\n — Сервисно-ориентированная архитектура (SOA)\n — Backend на Scala/Java, фронтенд: ReactJS, нативные мобильные приложения, desktop на ElectronJS\n — AWS, CI/CD\n — Блокчейн, криптовалюты, финансовые инструменты\n\nПлюшки:\nВозможны командировки, совместные выезды с командой в Европу (мы , конечно, верим в то, что границы будут открыты :));\nДМС – депозит в клинике Медси;\nВ такое непростое время платим зарплату в $$;\nЛамповый офис с кухней в лофте на Тульской;\nНаш стартап – двухлетний продакшн, который имеет выручку от клиентов.\n\n Пишите в ЛС :)","markup":[{"type":"hashtag","offset":0,"length":7,"data":"moscow"},{"type":"hashtag","offset":8,"length":7,"data":"москва"},{"type":"hashtag","offset":16,"length":9,"data":"вакансия"},{"type":"link","offset":87,"length":9,"data":"http://copper.co"}],"date":"2020-07-02T21:43:14+00:00","link":"tg://resolve?domain=qa_jobs&post=99477","tags":[{"name":"qa"},{"name":"web"},{"name":"scala"},{"name":"java"},{"name":"reactjs"},{"name":"amazon-web-services"}],"cities":[{"code":"moscow"}],"allowsRemote":false}},{"node":{"__typename":"Job","id":"2278555648-1001134745498","title":"Devops инженер","text":"#вакансия #devops #docker #kubernetes\nВакансия: Devops\nГород: Москва, м. Марьина Роща\nФормат работы: офис\nЗанятость: полная\nЗарплатная вилка: от 150 до 200к\n\nTalentTech — это IT-холдинг, быстрорастущий стартап. \nТебе предстоит присоединиться к команде разработки EdTech продуктов, которая будет выводить Foxford.ru в общеобразовательные школы, и помогать детям учиться и развиваться.\n\nЧем тебе предстоит заниматься:\n🔸поддержание текущей серверной инфраструктуры\n🔸настройка и деплой web-приложений\n🔸автоматизация настройки и управления серверами\n🔸мониторинг серверов и приложений\n\nЧто мы ждем от тебя:\n🔹опыт администрирования Linux (Ubuntu)\n🔹опыт написания скриптов на bash\n🔹опыт администрирования open source приложений (веб-серверы, базы данных, и т.д.)\n🔹опыт работы с реляционными базами данных (обновление, восстановление данных)\n🔹умение составлять и вести документацию\n\nПлюсом будет:\n▪️знание скриптовых языков (shell, python или ruby)\n▪️опыт установки, настройки, мониторинга основных сетевых сервисов (почта, DNS, NAT, firewall, VPN)\n▪️опыт настройки окружения и деплоя rails-приложений (capistrano, nginx+unicorn)\n▪️опыт работы с Docker и Kubernetes\n▪️навыки в сфере автоматизации процессов настройки и управления серверами (puppet, ansible, chef)\n\nЧто предлагаем?\n🟣ДМС, комфортный рабочий график, бонусы от компании\n\nНазвание компании: TalentTech \n\nКонтакты: @yulianka_95\n\n—\n\n👉 Обсуждение вакансии в чате @devops_jobs","markup":[{"type":"hashtag","offset":0,"length":9,"data":"вакансия"},{"type":"hashtag","offset":10,"length":7,"data":"devops"},{"type":"hashtag","offset":18,"length":7,"data":"docker"},{"type":"hashtag","offset":26,"length":11,"data":"kubernetes"},{"type":"link","offset":304,"length":10,"data":"http://Foxford.ru"},{"type":"handle","offset":1377,"length":12,"data":"yulianka_95"},{"type":"handle","offset":1424,"length":12,"data":"devops_jobs"}],"date":"2020-07-02T18:12:38+00:00","link":"tg://resolve?domain=devops_jobs_feed&post=2173","tags":[{"name":"docker"},{"name":"kubernetes"},{"name":"web"},{"name":"linux"},{"name":"ubuntu"},{"name":"bash"},{"name":"shell"},{"name":"python"},{"name":"ruby"},{"name":"dns"},{"name":"ruby-on-rails"},{"name":"nginx"},{"name":"ansible"}],"cities":[{"code":"moscow"}],"allowsRemote":false}},{"node":{"__typename":"Job","id":"17327718400-1001110946746","title":"Js разработчик","text":"#вакансия #удаленка #работа #js #javascript #разработчик\n\nГород и адрес офиса: Тель-Авив \nФормат работы: удаленка\nЗанятость: полная, гибкий график.\n\nЗарплатная вилка: 5500-6000$/мес. (Почасовая оплата 35$/час + ежемесячный бонус 250$)\n\nНалоги платите по месту жительства. ИП 6%. Если патент, то он зависит от места жительства. В Подмосковье 12 000 руб в год. В Москве 300 тыс. в год. Как сами оформите налоги, так и платите. \n\nИщу разработчика к нам в команду: израильский проект Luminati (https://luminati.io).  Full-Stack. Компания разрабатывает несколько продуктов, в том числе p2p vpn, видео cdn нового поколения http://holaspark.com/\nОфис в Тель-Авиве, работа удаленная! График свободный. Что нам нужно:\n\n • Knowledge in Node JS framework: ExpressJS, Promise - Experience with MongoDB \n- Creating RESTful web services/API’s using Node.js with or without framework assistance \n\n- JavaScript-based unit testing tools \n\n- Client-side browser technologies including JavaScript, CSS, and HTML \n\n- 1 year development experience in Node JS with a solid working knowledge of frameworks and architecture \n\n- 2+ year’s overall development experience using JavaScript and open web technologies \n\n- хороший английский язык, идеальная грамматика не обязательна \n\n • работа удаленная, 7-9 часов в день (по желанию)\n • зарплата от 35$/час (+фиксированный бонус 250$ ежемесячно), через полгода повышается\n • после того, как откроют границы и будут возможны перелёты - выезд в офис на заключение контракта (перед этим возможно заключение с электронной подписью), отель и перелет за счет компании, море под окном\n\nОтвечу на все вопросы:)\n\nИнстаграмм https://instagram.com/hola_better_internet\n\nРезюме сюда:  luda.hola@gmail.com","markup":[{"type":"hashtag","offset":0,"length":9,"data":"вакансия"},{"type":"hashtag","offset":10,"length":9,"data":"удаленка"},{"type":"hashtag","offset":20,"length":7,"data":"работа"},{"type":"hashtag","offset":28,"length":3,"data":"js"},{"type":"hashtag","offset":32,"length":11,"data":"javascript"},{"type":"hashtag","offset":44,"length":12,"data":"разработчик"},{"type":"link","offset":490,"length":19,"data":"https://luminati.io"},{"type":"link","offset":617,"length":21,"data":"http://holaspark.com/"},{"type":"link","offset":1637,"length":42,"data":"https://instagram.com/hola_better_internet"},{"type":"link","offset":1695,"length":19,"data":"mailto:luda.hola@gmail.com"}],"date":"2020-07-02T16:31:59+00:00","link":"tg://resolve?domain=javascript_jobs_feed&post=16525","tags":[{"name":"javascript"},{"name":"nodejs"},{"name":"mongodb"},{"name":"web"},{"name":"css"},{"name":"html"},{"name":"unit-testing"}],"cities":[],"allowsRemote":true}},{"node":{"__typename":"Job","id":"17325621248-1001110946746","title":"Js developer","text":"#вакансия #frontend #react  #senior #мbycr #офис #fulltime #релокация в литву #минск\n\nПозиция – Frontend developer (senior)\n\nКомпания – ThiNKT Digital\n\nЛокация – Работать в Литве. Возможна релокация из РБ\n\nЗанятость – полная, офис, гибкое время начала дня\n\nОплата: от 2 000 до 3 400 евро на руки\n\nРелокационный пакет - оплата 1 мес аренды кв и переезд\n\n The Role \n• Discuss the client‘s needs to propose the best solution • Develop responsive web applications • Keep up to date with terminology, concepts and best practices for coding web applications • Work closely with colleagues to constantly innovate product functionality and design • Architect customer-centric front-end part of the solution • Collaborate with Venture Managers and engage with development teams \n   We offer\n • Participation in a dynamic startup solving challenges in the energy sector & beyond • Responsibility over a wide portfolio of products  • Access to large network of startups & corporates through our various partnerships • A great international exposure, and a diverse team with extensive & rich experiences  • Competitive compensation package & flexible work schedule  \n \n       Your Background \n● Solid foundation in web application front-end development ● You know what are the best UI & UX practices ● Experience with front-end programming languages such as HTML, CSS,  Javascript, ReactJS, etc ● Experience in software process models such as Agile / Scrum / etc ● Well-rounded interpersonal and communication skills to work in flexible teams ● You are Problem solver, and very interested in technology-related entrepreneurial start-up projects. ● Relevant experience with Node or other backend programming languages would be a plus ● Experience with Azure or Amazon Web Service (AWS) would be a huge plus ● Relevant experience 3-5 years ● Required language: English \n \n \n\n\n\n☎️ Контакты для обсуждения вакансии:\n\ntelegram @veroneko","markup":[{"type":"hashtag","offset":0,"length":9,"data":"вакансия"},{"type":"hashtag","offset":10,"length":9,"data":"frontend"},{"type":"hashtag","offset":20,"length":6,"data":"react"},{"type":"hashtag","offset":28,"length":7,"data":"senior"},{"type":"hashtag","offset":36,"length":6,"data":"мbycr"},{"type":"hashtag","offset":43,"length":5,"data":"офис"},{"type":"hashtag","offset":49,"length":9,"data":"fulltime"},{"type":"hashtag","offset":59,"length":10,"data":"релокация"},{"type":"hashtag","offset":78,"length":6,"data":"минск"},{"type":"handle","offset":1910,"length":9,"data":"veroneko"}],"date":"2020-07-02T16:31:22+00:00","link":"tg://resolve?domain=javascript_jobs_feed&post=16523","tags":[{"name":"javascript"},{"name":"reactjs"},{"name":"web"},{"name":"ms-access"},{"name":"html"},{"name":"css"},{"name":"nodejs"},{"name":"azure"},{"name":"amazon-web-services"}],"cities":[{"code":"minsk"}],"allowsRemote":false}},{"node":{"__typename":"Job","id":"17324572672-1001110946746","title":"Js developer","text":"#вакансия #frontend #react  #senior #мbycr #офис #fulltime #релокация в литву #минск\n\nПозиция – Frontend developer (senior)\n\nКомпания – ThiNKT Digital\n\nЛокация – Литва\n\nЗанятость – полная, офис, гибкое время начала дня\n\nОплата: от 2 000 до 3400 евро на руки\n\nРелокационный пакет - оплата 1 мес аренды кв и переезд\n\n The Role • Discuss the client‘s needs to propose the best solution • Develop responsive web applications • Keep up to date with terminology, concepts and best practices for coding web applications • Work closely with colleagues to constantly innovate product functionality and design • Architect customer-centric front-end part of the solution • Collaborate with Venture Managers and engage with development teams \n   We offer • Participation in a dynamic startup solving challenges in the energy sector & beyond • Responsibility over a wide portfolio of products  • Access to large network of startups & corporates through our various partnerships • A great international exposure, and a diverse team with extensive & rich experiences  • Competitive compensation package & flexible work schedule  \n \n       Your Background ● Solid foundation in web application front-end development ● You know what are the best UI & UX practices ● Experience with front-end programming languages such as HTML, CSS,  Javascript, ReactJS, etc ● Experience in software process models such as Agile / Scrum / etc ● Well-rounded interpersonal and communication skills to work in flexible teams ● You are Problem solver, and very interested in technology-related entrepreneurial start-up projects. ● Relevant experience with Node or other backend programming languages would be a plus ● Experience with Azure or Amazon Web Service (AWS) would be a huge plus ● Relevant experience 3-5 years ● Required language: English \n \n \n\n\n\n☎️ Контакты для обсуждения вакансии:\n\ntelegram @codebor\n\ne-mail ybb@quadcom.ru","markup":[{"type":"hashtag","offset":0,"length":9,"data":"вакансия"},{"type":"hashtag","offset":10,"length":9,"data":"frontend"},{"type":"hashtag","offset":20,"length":6,"data":"react"},{"type":"hashtag","offset":28,"length":7,"data":"senior"},{"type":"hashtag","offset":36,"length":6,"data":"мbycr"},{"type":"hashtag","offset":43,"length":5,"data":"офис"},{"type":"hashtag","offset":49,"length":9,"data":"fulltime"},{"type":"hashtag","offset":59,"length":10,"data":"релокация"},{"type":"hashtag","offset":78,"length":6,"data":"минск"},{"type":"handle","offset":1869,"length":8,"data":"codebor"},{"type":"link","offset":1886,"length":14,"data":"mailto:ybb@quadcom.ru"}],"date":"2020-07-02T16:29:51+00:00","link":"tg://resolve?domain=javascript_jobs_feed&post=16522","tags":[{"name":"javascript"},{"name":"reactjs"},{"name":"web"},{"name":"ms-access"},{"name":"html"},{"name":"css"},{"name":"nodejs"},{"name":"azure"},{"name":"amazon-web-services"}],"cities":[{"code":"minsk"}],"allowsRemote":false}},{"node":{"__typename":"Job","id":"1775239168-1001091028994","title":"Java разработчик","text":"#middle #senior #Java #Spring #backend #developer #вакансия \nЛокация: Cанкт-Петербург\nЗанятость: полная, гибкое начало дня\n*до окончания пандемии работа удаленная, далее работа в офисе\nЗ/п: 130 – 200 k net.\nКомпания: CSI\nКонтакты: @Danny_Ushakova\nМы продуктовая компания CSI, создающая решения для автоматизации торговых сетей.  \nМы ищем крутых разработчиков, ответственных за собственный код, любящих тесты и понимающих важность unit тестов. Разработчиков, которые с радостью забывают про бюрократию, которые умеют защищать собственные решения и хотят сделать этот мир лучше!  \n💥JAVA developer (высоконагруженные сервисы лояльности)  \nКлючевой задачей будет разработка нового и доработка нашего продукта -  существующего функционала системы Set Retail 10. \n🔵Стек:\n• Java от 2 лет.\n• Spring (Web, Data, Cloud), Kafka.\n• Опыт разработки микросервисов.\n• Опыт проектирования базы данных.\n• SQL (желательно PostgreSQL), JDBC, Hibernate.\n• Git, Gradle.\n🔵Будет плюсом:\n• Опыт работы с J2EE (EJB3, JAX-WS, JAXB, JPA2).\n• Знание Linux.\n• Опыт работы с Redis, MongoDB, Docker, Hashicorp Nomad, Ansible.\n\nМы предлагаем:\n• возможность каждый день видеть результаты своей работы;\n• официальное оформление, белая зарплата, отпуск согласно ТК РФ;\n• гибкий график работы;\n• ДМС со стоматологией, 100% оплата больничных;\n• курсы английского языка в офисе;\n• посещение тренингов, конференций;\n• работа по Agile в команде высокопрофессиональных разработчиков;\n• возможности профессионального роста, четкая схема повышения зарплаты;\n• работа в современном и комфортном офисе в центре города (Чкаловcкий пр-т);\n• оборудованные столовые, чай, кофе, фрукты, печеньки и PlayStation;\n• командные тимбилдинги, футбольная команда.","markup":[{"type":"hashtag","offset":0,"length":7,"data":"middle"},{"type":"hashtag","offset":8,"length":7,"data":"senior"},{"type":"hashtag","offset":16,"length":5,"data":"Java"},{"type":"hashtag","offset":22,"length":7,"data":"Spring"},{"type":"hashtag","offset":30,"length":8,"data":"backend"},{"type":"hashtag","offset":39,"length":10,"data":"developer"},{"type":"hashtag","offset":50,"length":9,"data":"вакансия"},{"type":"handle","offset":231,"length":15,"data":"Danny_Ushakova"}],"date":"2020-07-02T15:12:35+00:00","link":"tg://resolve?domain=jvmjobs&post=1693","tags":[{"name":"java"},{"name":"jvm"},{"name":"spring"},{"name":"dotnet"},{"name":"web"},{"name":"cloud"},{"name":"kafka"},{"name":"sql"},{"name":"postgresql"},{"name":"jdbc"},{"name":"hibernate"},{"name":"git"},{"name":"gradle"},{"name":"jaxb"},{"name":"jpa"},{"name":"linux"},{"name":"redis"},{"name":"mongodb"},{"name":"docker"},{"name":"ansible"}],"cities":[],"allowsRemote":true}},{"node":{"__typename":"Job","id":"104273543168-1001089317451","title":"Qa engineer","text":"#вакансия #QA #manual #fulltime #remote #офис\n\nФормат работы: офис или удаленно\nРасположение: Санкт-Петербург \nЗанятость: полная, гибкое начало дня\nЗП: до 200k gross\n\n🔹 Компания OCS Labs более 25 лет на рынке IT и является ведущим дистрибьютером по всем продуктовым направлениям IT рынка. \nРегиональная сеть офисов OCS включает 27 городов в России, компания работает с более чем 8500 партнеров, среди которых 500 продуктовых линеек от ведущих мировых вендеров. \n\n🔸Сейчас команда находится в поиске Senior Manual QA Engineer, который будет готов в дальнейшем вырасти в teamlead’a, и в перспективе возглавить направление тестирования в R&D отделе.\nНа текущий момент в команде уже есть 1 ручной тестировщик и 1 автотестировщик (python).\nПредстоит заниматься тестированием сервиса взаимодествия вендоров; \n\n🔹  Требования:\n— Опыт тестирования Web от 2 лет;\n— Умение оценивать и распределять задачи в команде;\n— Опыт менторства/руководства командой;\n— Опыт тестирования API;\n\nБольшим плюсом будет:\n— Понимание b2b сервисов;\n— Навыки автотестирования, будет возможность расти и развиваться в этом направлении; \n\n🔹  Условия:\n— Официальное трудоустройство, белая заработная плата;\n— Комфортный офис на Б.Сампсониевском (Петербург), также для московских специалистов есть возможность работать в московском офисе: Румянцево, офисный парк «Комсити» или удаленно; \n— Техника предоставляется в соответствии с пожеланиями специалиста;\n— Внутреннее обучение;\n— Годовая дотация;\n— Дружественная рабочая среда с возможностью карьерного и профессионального роста;\n\n🔹 Контакты:\ne-mail: maria@luckyhunter.io\ntelegram: @Maria_Rey","markup":[{"type":"hashtag","offset":0,"length":9,"data":"вакансия"},{"type":"hashtag","offset":10,"length":3,"data":"QA"},{"type":"hashtag","offset":14,"length":7,"data":"manual"},{"type":"hashtag","offset":22,"length":9,"data":"fulltime"},{"type":"hashtag","offset":32,"length":7,"data":"remote"},{"type":"hashtag","offset":40,"length":5,"data":"офис"},{"type":"bold","offset":500,"length":6,"data":""},{"type":"bold","offset":507,"length":18,"data":""},{"type":"bold","offset":570,"length":10,"data":""},{"type":"link","offset":1571,"length":20,"data":"mailto:maria@luckyhunter.io"},{"type":"handle","offset":1602,"length":10,"data":"Maria_Rey"}],"date":"2020-07-02T14:59:51+00:00","link":"tg://resolve?domain=qa_jobs&post=99443","tags":[{"name":"qa"},{"name":"python"},{"name":"web"}],"cities":[],"allowsRemote":true}},{"node":{"__typename":"Job","id":"72555167744-1001054966032","title":"Mobile разработчик","text":"#вакансия #mobile #ios #swift #fulltime\nГород и адрес офиса: Москва, м. Нахимовский проспект, БЦ Лотос, офис класса А\nФормат работы: офис + возможно частично удаленная работа \nЗанятость: полная, 5/2\nЗП: от 150к до 250к, готовы рассмотреть и выше\n\nКомпания X4Apps специализируется на разработке собственных мобильных приложений и открывает вакансию мобильного разработчика уровня Middle+/Senior, который будет работать над созданием приложений для платформы iOS.\n\nМы практикуем быструю проверку гипотез, быстро создаем приложения, запускаем первых пользователей, смотрим на обратную связь и наращиваем функционал либо переключаемся на разработку новых приложений/новых идей.\n\nОт Вас мы ждем:\n- Способность разработать приложение с нуля и выпустить его в AppStore\n- Знание Objective-C и Swift\n- Суммарный опыт программирования от 3-х лет\n- Умение работать с системой контроля версий git - console, IDE, web;\n- Понимание принципов ООП и шаблонов проектирования\n- Опыт использования JSON, REST API\n- Опыт написания клиент-серверных приложений\n- Наличие опубликованных приложений в AppStore\n\nБудет плюсом:\n- Желание постоянно учиться и применять новые технологии в своей работе\n- Понимание в разработке пользовательского интерфейса\n- Понимание работы бэкэнда\n\nКонтакт @bambaleeyo","markup":[{"type":"hashtag","offset":0,"length":9,"data":"вакансия"},{"type":"hashtag","offset":10,"length":7,"data":"mobile"},{"type":"hashtag","offset":18,"length":4,"data":"ios"},{"type":"hashtag","offset":23,"length":6,"data":"swift"},{"type":"hashtag","offset":30,"length":9,"data":"fulltime"},{"type":"bold","offset":40,"length":19,"data":""},{"type":"bold","offset":118,"length":13,"data":""},{"type":"bold","offset":176,"length":9,"data":""},{"type":"bold","offset":199,"length":2,"data":""},{"type":"bold","offset":675,"length":14,"data":""},{"type":"bold","offset":1087,"length":12,"data":""},{"type":"bold","offset":1255,"length":7,"data":""},{"type":"handle","offset":1263,"length":11,"data":"bambaleeyo"}],"date":"2020-07-02T14:04:01+00:00","link":"tg://resolve?domain=mobile_jobs&post=69194","tags":[{"name":"mobile"},{"name":"ios"},{"name":"swift"},{"name":"objective-c"},{"name":"git"},{"name":"web"},{"name":"json"},{"name":"rest"}],"cities":[{"code":"moscow"}],"allowsRemote":true}},{"node":{"__typename":"Job","id":"104219017216-1001089317451","title":"Qa инженер","text":"#вакансия #спб #job #fulltime #saintpetersburg #office #QA #mobileqa  #manual #Android #iOS\n\nQA\n\nКомпания: e-Legion\nСанкт-Петербург, м. Старая деревня\nФормат работы: офис (гибкое начало дня) \nЗанятость: полная\nЗарплатная вилка: от 70 тыс. руб.\n\nПривет! Ищем в команду тестировщика мобильных приложений. Ты будешь влиять на качество продукта крупных компаний. QA участвует во всех этапах создания продукта: от анализа требований до публикации в стор. Мы взаимодействуем со всеми отделами: от продаж до разработки. \n\nЧем будем заниматься:\n-тестировать мобильные приложения на платформах iOS и Android,\nна части проектов еще тестируем WEB\n-проводить тест-анализ и писать тестовую документацию\n-анализировать и тестировать требования\n-оформлять задачи в трекере Redmine или Jira\n\nНеобходимые навыки:\n-опыт тестирования мобильных приложений\n-знание техник тест–дизайна и умение их применять\n-умение работать с сетевыми снифферами — Fiddler, Charles\n-умение снимать и анализировать логи\n-знание гайдлайнов iOS и Android\n\nМы предлагаем:\n-гибкий график работы\n-офис в 7 минутах ходьбы от м. Старая Деревня\n-компенсацию спорта, обучения и медицины\n-обучение и систему наставничества, которые помогут быстро расти и получать новые грейды\n-возможность писать статьи для отраслевых медиа и выступать на конференциях и митапах\n\nСсылка на вакансию: https://www.e-legion.ru/vacancies/spb/qa/\nОтклики, резюме, вопросы пишите:\n@AlexandraShirokina или на почту hr@e-legion.com","markup":[{"type":"hashtag","offset":0,"length":9,"data":"вакансия"},{"type":"hashtag","offset":10,"length":4,"data":"спб"},{"type":"hashtag","offset":15,"length":4,"data":"job"},{"type":"hashtag","offset":20,"length":9,"data":"fulltime"},{"type":"hashtag","offset":30,"length":16,"data":"saintpetersburg"},{"type":"hashtag","offset":47,"length":7,"data":"office"},{"type":"hashtag","offset":55,"length":3,"data":"QA"},{"type":"hashtag","offset":59,"length":9,"data":"mobileqa"},{"type":"hashtag","offset":70,"length":7,"data":"manual"},{"type":"hashtag","offset":78,"length":8,"data":"Android"},{"type":"hashtag","offset":87,"length":4,"data":"iOS"},{"type":"link","offset":1335,"length":41,"data":"https://www.e-legion.ru/vacancies/spb/qa/"},{"type":"handle","offset":1410,"length":19,"data":"AlexandraShirokina"},{"type":"link","offset":1443,"length":15,"data":"mailto:hr@e-legion.com"}],"date":"2020-07-02T12:46:57+00:00","link":"tg://resolve?domain=qa_jobs&post=99391","tags":[{"name":"qa"},{"name":"android"},{"name":"ios"},{"name":"web"}],"cities":[],"allowsRemote":false}},{"node":{"__typename":"Job","id":"104216920064-1001089317451","title":"Qa engineer","text":"#вакансия #Ульяновск #QA #fulltime #офис #manual #relocate\n\n🔸 manual QA engineer \n🔸 Ульяновск, офис, remote не рассматриваем (но пока удаленно из-за covid)\n🔸 Dualboot Partners (NC, USA)\n🔸 от $1000\n\nОт вас:\n\n- нужно очень хорошо тестировать web- и mobile-приложения, API, нужны уверенные скиллы в этом\n- эрудиция в web-технологиях\n- опыт работы с различными инструментами для тестирования\n- умение работать самостоятельно и ответственно\n- вся документация и общение с клиентом на английском, соответственно, уровень хотя бы базовый необходим\n- есть проекты, покрываемые автотестами, поэтому умение их разрабатывать может быть плюсом и пригодиться в будущем\n\nОт нас:\n\n- ноль лишней бюрократии\n- з/п в $ официально\n- уроки английского от компании\n- MacBook Pro для работы (через 1 год работы он переходит во владение сотруднику)\n- очень крутой офис-коттедж в центре города (да, Ульяновск) с кучей вкусностей и прочими радостями\n- команда - молодые, разносторонние и очень скилловые люди\n- гибкий график и вообще всевозможные свободы, не мешающие эффективно работать\n- помощь при переезде в Ульяновск\n\nБуду рада ответить на любые вопросы,  @alina_fatkhutdinova","markup":[{"type":"hashtag","offset":0,"length":9,"data":"вакансия"},{"type":"hashtag","offset":10,"length":10,"data":"Ульяновск"},{"type":"hashtag","offset":21,"length":3,"data":"QA"},{"type":"hashtag","offset":25,"length":9,"data":"fulltime"},{"type":"hashtag","offset":35,"length":5,"data":"офис"},{"type":"hashtag","offset":41,"length":7,"data":"manual"},{"type":"hashtag","offset":49,"length":9,"data":"relocate"},{"type":"handle","offset":1140,"length":20,"data":"alina_fatkhutdinova"}],"date":"2020-07-02T12:12:53+00:00","link":"tg://resolve?domain=qa_jobs&post=99389","tags":[{"name":"qa"},{"name":"web"},{"name":"mobile"}],"cities":[{"code":"ulyanovsk"}],"allowsRemote":true}}]}}},"context":{}}