{"hash":"f34fd2c444a074f4e0e67d525015a008ef8e766f","data":{"records":{"id":"net-core","name":"net-core","belongsTo":{"totalCount":24,"pageInfo":{"totalPages":3,"currentPage":1},"edges":[{"node":{"__typename":"Job","id":"85082505216-1001067529236","title":"Python developer","text":"#developer #python #django #reactjs #remote #part_time #parttime #lead #greatbritain #job #jobs #python #backend #вакансия #remotework #ml #urgently\nVacancy: Lead Python developer\nCountry: Great Britain\nEmployment: Full-time remote/ Part-Time (20 h a week)\nSalary:  2500$+ - net\nOur client, a unique mass media project (platform) is looking for a Lead Developer/CTO to further develop the product and team while creating a culture of positivity & problem solving with a sense of fun.\nIncome level depends on your previous experience & knowledge.\nIt’s an exciting and pivotal time for the product and business - we have a solid platform and foundation of clients asking for features that no one in the market yet offers.\nSo, as well as servicing the current offering, there is a greenfield opportunity to further develop the platform using smart tech.\n✅ Responsibilities:\n- Co-creating and delivering the strategy.\n- Managing and building the team, as well as being hands on with the code.\nThere are many technical challenges, core of which are based around using machine learning to surface how clients can make content more readable and enticing, as well as where and when to deliver it to maximise results.\n✅ The current tech stack is based on: Python, Django, ReactJS, Elasticsearch, .NET Core, AngularJS, Docker + AWS Infrastructure.\nWe expect you to take the lead on how to evolve the stack in a smart way.\n🎬 Requirements:\nYou’ve been around the block and are now hungry to become more commercial, take ownership, and although you don’t want to stop coding, you’re keen to manage and build teams or develop existing skills in these areas.\nA strong interest in data science and machine learning.\nYou’ve been a lead developer or CTO before.\nYou’ve built and scaled a SaaS platform.\nWould be great if you have a background in news publishing or analytics.\nYou’ve managed teams or are now ready to do so.\nContact: @OlgaVzh","markup":[{"type":"hashtag","offset":0,"length":10,"data":"developer"},{"type":"hashtag","offset":11,"length":7,"data":"python"},{"type":"hashtag","offset":19,"length":7,"data":"django"},{"type":"hashtag","offset":27,"length":8,"data":"reactjs"},{"type":"hashtag","offset":36,"length":7,"data":"remote"},{"type":"hashtag","offset":44,"length":10,"data":"part_time"},{"type":"hashtag","offset":55,"length":9,"data":"parttime"},{"type":"hashtag","offset":65,"length":5,"data":"lead"},{"type":"hashtag","offset":71,"length":13,"data":"greatbritain"},{"type":"hashtag","offset":85,"length":4,"data":"job"},{"type":"hashtag","offset":90,"length":5,"data":"jobs"},{"type":"hashtag","offset":96,"length":7,"data":"python"},{"type":"hashtag","offset":104,"length":8,"data":"backend"},{"type":"hashtag","offset":113,"length":9,"data":"вакансия"},{"type":"hashtag","offset":123,"length":11,"data":"remotework"},{"type":"hashtag","offset":135,"length":3,"data":"ml"},{"type":"hashtag","offset":139,"length":9,"data":"urgently"},{"type":"bold","offset":149,"length":8,"data":""},{"type":"bold","offset":180,"length":8,"data":""},{"type":"bold","offset":215,"length":42,"data":""},{"type":"bold","offset":853,"length":18,"data":""},{"type":"bold","offset":1211,"length":36,"data":""},{"type":"bold","offset":1415,"length":14,"data":""},{"type":"bold","offset":1907,"length":8,"data":""},{"type":"handle","offset":1916,"length":8,"data":"OlgaVzh"}],"date":"2020-04-08T16:03:48+00:00","link":"tg://resolve?domain=python_jobs&post=0","tags":[{"name":"python"},{"name":"django"},{"name":"reactjs"},{"name":"dotnet"},{"name":"elasticsearch"},{"name":"angularjs"},{"name":"docker"},{"name":"amazon-web-services"},{"name":"machine-learning"},{"name":"net-core"}],"cities":[],"allowsRemote":true}},{"node":{"__typename":"Job","id":"1987051520-1001134745498","title":"Devops инженер","text":"#вакансия #DevOps #Москва\nMiddle DevOps\nФормат работы: офис\\удаленно, Занятость: полная\nКомпания: SnegirSoft - вендор ITSM-платформы «4it».\nРазрабатываем и поддерживаем платформу для управления it-процессами больших компаний.\n\nЗадачи:\n⚙️Развитие и поддержка инфраструктуры;\n⚙️Автоматизация сборки и доставки кода;\n⚙️Поддержка разработчиков;\n⚙️Анализ и устранение инцидентов на продуктовых контурах;\n⚙️Обеспечение работоспособности и отказоустойчивости сервисов;\n⚙️Внедрение новых инструментов администрирования;\n\nНаши хотелки:\n🛠Системы контроля версий Git (Bitbucket, Gitlab);\n🛠Управление конфигурациями (Ansible);\n🛠CI\\CD: Teamcity \\ Gitlab \\ Jenkins;\n🛠Опыт администрирования Windows, IIS;\n🛠Умение хорошо писать на Powershell;\n🛠Cистемы мониторинга (Zabbix \\ Prometheus);\n🛠ELK – стек (Elasticsearch, Kibana);\n🛠Сообщения, очереди: RabbitMQ, Kafka;\nБудет круто если:\n🛠Опыт администрирования Apache \\ Nginx;\n🛠Опыт администрирования Linux;\n🛠Контейнеризация (Docker);\n🛠Умение писать SQL-запросы, понимание принципов работы СУБД;\n🛠Опыт работы с монолитными и микросервисными архитектурами;\n🛠Навыки написание скриптов на bash;\n\nПредлагаем:\n🏢м. Нововкузнецкая 3(!) мин. пешком,\n🚑  ДМС (почти all inclusive)\n💰  Доход: 140 000 – 180 000 нетт\n⏰Начало дня гибко с 9-10-11, как договоримся.\n🖥ПК: i7 8-gen, 24Gb, SSD 512Gb, 2 хороших монитора.\n🚀  Стэк актуальный: .Net Core, Angular, Elasticsearch, RabbitMQ, MS SQL->Postgres, Almost SCRUM ^)\nКонтакты: @aastaf  a.astafev@snegirsoft.com\n\n—\n\n👉 Обсуждение вакансии в чате @devops_jobs","markup":[{"type":"hashtag","offset":0,"length":9,"data":"вакансия"},{"type":"hashtag","offset":10,"length":7,"data":"DevOps"},{"type":"hashtag","offset":18,"length":7,"data":"Москва"},{"type":"handle","offset":1457,"length":7,"data":"aastaf"},{"type":"link","offset":1466,"length":24,"data":"mailto:a.astafev@snegirsoft.com"},{"type":"handle","offset":1525,"length":12,"data":"devops_jobs"}],"date":"2020-04-08T10:14:42+00:00","link":"tg://resolve?domain=devops_jobs_feed&post=1895","tags":[{"name":"git"},{"name":"gitlab"},{"name":"ansible"},{"name":"jenkins"},{"name":"windows"},{"name":"iis"},{"name":"powershell"},{"name":"elasticsearch"},{"name":"rabbitmq"},{"name":"kafka"},{"name":"apache"},{"name":"nginx"},{"name":"linux"},{"name":"docker"},{"name":"sql"},{"name":"bash"},{"name":"dotnet"},{"name":"angularjs"},{"name":"postgresql"},{"name":"net-core"}],"cities":[{"code":"moscow"}],"allowsRemote":true}},{"node":{"__typename":"Job","id":"98216968192-1001089317451","title":"Qa инженер","text":"#вакансия #fulltime #офис #Москва #Саратов #testautomation #middle #senior #TS\n\nКомпания: Техносерв https://technoserv.com/ \nВакансия: QA-ИНЖЕНЕР ПО АВТОМАТИЗАЦИИ ТЕСТИРОВАНИЯ\nДля работы на проектах в крупном банке (T&M)\nЗП: 60 000 - 220 000 (несколько позиций)\nГрафик работы: фултайм, 10:00-19:00 (по договоренности)\nМесто работы: офис, г. Москва или г. Саратов\n\nО проекте:\nСоздание системы, упрощающей работу операционистов в отделениях банка.\nРелизы выпускаются несколько раз в день\nQA активно участвуют в DevOps и CI/CD.\n\nКого мы ищем:\nИщем опытного QA-автоматизатора, разбирающегося в ключевых моментах автотестирования ПО. Основной его задачей будет увеличение покрытия автотестами существующего/нового функционала.\n\nЧем будете заниматься:\n• Разрабатывать автотесты на C# (Rest API / Rabbit MQ), поддерживать как новые, так и существующие тесты\n• Разрабатывать тестовые заглушки и сервисы (.net)\n• Конфигурировать сборки на CI-сервере (TeamCity)\n• Конфигурировать тестовые стенды (Helm, ArgoCD, Kubernetes, Docker)\n\nТребуемый опыт и знание технологий:\n• Опыт написания автотестов на C# (от года);\n• Опыт работы с NUnit / xUnit;\n• Умение разбираться с деплоймент-тулами и понимание принципов DevOps;\n• SQL на уровне написания запросов;\n• Знание методологий тестирования;\n• Умение написать чек-лист / тест-кейсы для функционала, покрываемого автотестами.\n\nБудет плюсом:\n• Работа с .net Core;\n• Опыт конфигурирования CI-серверов (мы используем TeamCity);\n• Знание PL-SQL и опыт работы c Oracle;\n• Навыки работы в консоли Linux (CentOS).\n\nРезюме сюда: QAResume@technoserv.com\n\nP.S. Если вы слабы в C#, но уверенно знаете java и Selenium, не стесняйтесь присылать резюме - варианты и возможности есть.","markup":[{"type":"hashtag","offset":0,"length":9,"data":"вакансия"},{"type":"hashtag","offset":10,"length":9,"data":"fulltime"},{"type":"hashtag","offset":20,"length":5,"data":"офис"},{"type":"hashtag","offset":26,"length":7,"data":"Москва"},{"type":"hashtag","offset":34,"length":8,"data":"Саратов"},{"type":"hashtag","offset":43,"length":15,"data":"testautomation"},{"type":"hashtag","offset":59,"length":7,"data":"middle"},{"type":"hashtag","offset":67,"length":7,"data":"senior"},{"type":"hashtag","offset":75,"length":3,"data":"TS"},{"type":"link","offset":100,"length":23,"data":"https://technoserv.com/"},{"type":"link","offset":1554,"length":23,"data":"mailto:QAResume@technoserv.com"}],"date":"2020-04-08T09:15:43+00:00","link":"tg://resolve?domain=qa_jobs&post=93667","tags":[{"name":"qa"},{"name":"rest"},{"name":"rabbitmq"},{"name":"dotnet"},{"name":"kubernetes"},{"name":"docker"},{"name":"sql"},{"name":"oracle"},{"name":"linux"},{"name":"centos"},{"name":"java"},{"name":"selenium"},{"name":"net-core"}],"cities":[{"code":"moscow"},{"code":"saratov"}],"allowsRemote":false}},{"node":{"__typename":"Job","id":"1902116864-1001134745498","title":"Devops инженер","text":"#вакансия #естьработа #офис #казань\nГород: Казань\nМесто: IT-Park\nФормат: офис, фултайм\nВилка: 100 000 - 200 000 на руки \nУровень: Опытный\nКонтакты: @kirbex, Юра\nОблака: есть\nDevOps: есть\nAgile: есть\nКофе: тонны\nВ разработке: используем .NET Core и C#\nВозможность: полностью с нуля построить всю инфраструктуру разрбаотки, начиная от физических серверов и виртуализации и заканчивая CI\\CD, кубами и многими другими вещами\nЧто делать: сделать так, чтобы в первую очередь dev team кайфовали от инфраструктуры и автоматизации \nТехнологии: только новые, только самые крутые, стильные и молодёжные и есть возможность влиять на выбор\nРелоцироваться: поможем\nПлюшки: дефолт++\nКомпания: ICL Системные Технологии 2.0\nПредметные области: Нефтеперерабатывающие Заводы, Информационная безопасность, Умный город, Система контроля и управления доступом и другие\nРынки: РФ и забугор\nСпойлер: Мы не занимаемся скучным энтерпрайзом и интеграциями. Мы пишем вещи, которые воистину меняют жизни и судьбы людей, а также действительно приносят много удовольствия и бабок нашим клиентам и нам. \n\nПочему нету конкретного списка обязанностей и требований, инструментов и технологий? Потому что я верю что если у человека есть мозги, руки и опыт, то он без труда освоит те технологии, инстурменты и предметные области, с которыми никогда до этого не работал. И именно поэтому опыт каждого кандидата будет оцениваться индивидуально, без привязки к конкретному инструментарию.\n\nЕсли ваш уровень over опытный, можем рассмотреть over вилку.\n\nВсе вопросы и за подробностями пишите в личку. Если что я не HR, а ваш будущий собрат по dev team.\n\n—\n\n👉 Обсуждение вакансии в чате @devops_jobs","markup":[{"type":"hashtag","offset":0,"length":9,"data":"вакансия"},{"type":"hashtag","offset":10,"length":11,"data":"естьработа"},{"type":"hashtag","offset":22,"length":5,"data":"офис"},{"type":"hashtag","offset":28,"length":7,"data":"казань"},{"type":"handle","offset":148,"length":7,"data":"kirbex"},{"type":"handle","offset":1645,"length":12,"data":"devops_jobs"}],"date":"2020-03-14T15:03:20+00:00","link":"tg://resolve?domain=devops_jobs_feed&post=1814","tags":[{"name":"dotnet"},{"name":"net-core"}],"cities":[{"code":"kazan"}],"allowsRemote":false}},{"node":{"__typename":"Job","id":"83886080-1001375797688","title":".net разработчик","text":"#вакансия #офис #москва #csharp\n\nПривет!\n\nТехнологичный стартап ищет C# разработчиков уровня senior и middle на задачи, связанные с развитием платформы Neuro Angel.\n\nПлатформа преобразовывает данные об электрической активности мозга, получаемые с нейрогарнитур, в понятные пользователю прикладные состояния: стресс, концентрация, увлечённость, когнитивная нагрузка.\n\nОбласти применения платформы: нейрофитнес, нейромаркетинг, образование, управление персоналом, киберспорт и другие. \n\nВилка net 160-220 р.\nГрафик 5/2 с 10 до 18\n\nТребования: отличное знание C#, .NET Core + понимание SOLID, KISS, DRY, TDD. \n\nЖелателен опыт с акторными фрейморками, стриминговой обработкой real-time данных, цифровой обработкой сигналов, AI, машинным обучением.\n\nПросьба присылать резюме на knwlab001@gmail.com","markup":[{"type":"hashtag","offset":0,"length":9,"data":"вакансия"},{"type":"hashtag","offset":10,"length":5,"data":"офис"},{"type":"hashtag","offset":16,"length":7,"data":"москва"},{"type":"hashtag","offset":24,"length":7,"data":"csharp"},{"type":"link","offset":773,"length":19,"data":"mailto:knwlab001@gmail.com"}],"date":"2020-01-31T15:41:51+00:00","link":"tg://resolve?domain=DotNetRuJobsFeed&post=80","tags":[{"name":"dotnet"},{"name":"csharp"},{"name":"net-core"}],"cities":[{"code":"moscow"}],"allowsRemote":false}},{"node":{"__typename":"Job","id":"84934656-1001375797688","title":".net разработчик","text":"#вакансия #НижнийНовгород #офис #.net core #Middle#Senior\n\nГород: Нижний Новгород\nФормат работы: в офисе\nЗанятость: полная\nЗарплатная вилка: от 70 000 до 120 000 руб. на руки\nНазвание компании: Сезон\n\nСезон – это площадка с элементами социальной сети для продажи своей одежды и аксессуаров от известных брендов премиум-класса.\n\nЧто хотят:\n- Уверенное владение C#, .NET Framework, ASP.NET Core;\n- Знания и понимание принципов ООП, шаблонов проектирования;\n- Опыт работы и понимание асинхронного кода, блокировок и дедлоков;\n- Опыт работы с базами данных MS SQL и ORM;\n- Опыт разработки REST сервисов, работа с JSON и XML;\n- Опыт работы с Git\n\nЧто дают:\n- Современный офис в Нижнем Новгороде;\n- Официальное трудоустройство;\n- Частичная оплата личных образовательных мероприятий;\n- Любая профессиональная литература по заказу;\n- Гибкий график;\n- Дружный молодой коллектив;\n- Интересные неповторяющиеся задачи, никакой рутины.\n\nВопросы в любом  мессенджере +79297474161","markup":[{"type":"hashtag","offset":0,"length":9,"data":"вакансия"},{"type":"hashtag","offset":10,"length":15,"data":"НижнийНовгород"},{"type":"hashtag","offset":26,"length":5,"data":"офис"},{"type":"link","offset":380,"length":7,"data":"http://ASP.NET"},{"type":"link","offset":953,"length":12,"data":"tel:+79297474161"}],"date":"2020-01-31T15:41:51+00:00","link":"tg://resolve?domain=DotNetRuJobsFeed&post=81","tags":[{"name":"dotnet"},{"name":"csharp"},{"name":"sql"},{"name":"orm"},{"name":"rest"},{"name":"json"},{"name":"xml"},{"name":"git"},{"name":"net-core"},{"name":"asp-net"},{"name":"asp-net-core"}],"cities":[{"code":"nizhny-novgorod"}],"allowsRemote":false}},{"node":{"__typename":"Job","id":"80740352-1001375797688","title":".net разработчик","text":"#вакансия #НижнийНовгород #офис #.net core #Middle#Senior\n\nГород: Нижний Новгород\nФормат работы: в офисе\nЗанятость: полная\nЗарплатная вилка: от 70 000 до 120 000 руб. на руки\nНазвание компании: Сезон\n\nСезон – это площадка с элементами социальной сети для продажи своей одежды и аксессуаров от известных брендов премиум-класса.\n\nЧто хотят:\n- Уверенное владение C#, .NET Framework, ASP.NET Core;\n- Знания и понимание принципов ООП, шаблонов проектирования;\n- Опыт работы и понимание асинхронного кода, блокировок и дедлоков;\n- Опыт работы с базами данных MS SQL и ORM;\n- Опыт разработки REST сервисов, работа с JSON и XML;\n- Опыт работы с Git\n\nЧто дают:\n- Современный офис в Нижнем Новгороде;\n- Официальное трудоустройство;\n- Частичная оплата личных образовательных мероприятий;\n- Любая профессиональная литература по заказу;\n- Гибкий график;\n- Дружный молодой коллектив;\n- Интересные неповторяющиеся задачи, никакой рутины.\n\nВопросы в любом  мессенджере +79297474161","markup":[{"type":"hashtag","offset":0,"length":9,"data":"вакансия"},{"type":"hashtag","offset":10,"length":15,"data":"НижнийНовгород"},{"type":"hashtag","offset":26,"length":5,"data":"офис"},{"type":"link","offset":380,"length":7,"data":"http://ASP.NET"},{"type":"link","offset":953,"length":12,"data":"tel:+79297474161"}],"date":"2020-01-29T15:40:11+00:00","link":"tg://resolve?domain=DotNetRuJobsFeed&post=77","tags":[{"name":"dotnet"},{"name":"csharp"},{"name":"sql"},{"name":"orm"},{"name":"rest"},{"name":"json"},{"name":"xml"},{"name":"git"},{"name":"net-core"},{"name":"asp-net"},{"name":"asp-net-core"}],"cities":[{"code":"nizhny-novgorod"}],"allowsRemote":false}},{"node":{"__typename":"Job","id":"77594624-1001375797688","title":".net разработчик","text":"#вакансия #ереван #релокация\n\nВсем привет!\n\nОдин из немногих СНГ-шных юникорнов ищет лида на бекенд с релокацией в Ереван.\n\nЭто ServiceTitan, который недавно поднял очередной раунд и был оценен в >1.6 млрд долларов.\nЭто софт для рабочих профессий (в основном ремонтников), который помогает им больше зарабатывать, оптимизировать процессы.\nГоловной офис в США, команда разработки сейчас растет в Ереване. \n\nЧто надо будет делать?\n60% времени уходит на написание кода, 40% - на менторинг, менеджмент и работу над документацией\nРазрабатывать нужно фичи и новые продукты, а не фиксить баги или что-то постоянно переписывать.\n\nКого ждем?\nБудет круто, если у вас 4+ лет опыта, погружены с головой в .NET, знаете .NET Core, умеете на фронте. \nЕще нужен английский, чтобы понимать друг друга с командой в ЛА. Летать в Штаты тоже \"придется\". \n\nЧто даем?\nВилка - ≈250к в рублях после вычетов\nОфис в центре Еревана со всеми плюшками\nСтраховка для всей семьи\nОпцион с первого дня (размер обсуждается)\nГодовые бонусы, реферальные бонусы, бонусы-бонусы\nВообще полное покрытие всего, что связано с переездом, включая квартплату первые 3 месяца\nДва раза в год всей семье еще и билеты оплатят домой, чтобы сильно не скучали по дому\n\nCV/вопросы можно отправлять сюда: @satenikavetis","markup":[{"type":"hashtag","offset":0,"length":9,"data":"вакансия"},{"type":"hashtag","offset":10,"length":7,"data":"ереван"},{"type":"hashtag","offset":18,"length":10,"data":"релокация"},{"type":"bold","offset":85,"length":14,"data":""},{"type":"bold","offset":128,"length":12,"data":""},{"type":"bold","offset":406,"length":22,"data":""},{"type":"bold","offset":622,"length":10,"data":""},{"type":"bold","offset":835,"length":9,"data":""},{"type":"bold","offset":1216,"length":34,"data":""},{"type":"handle","offset":1250,"length":14,"data":"satenikavetis"}],"date":"2020-01-29T15:40:11+00:00","link":"tg://resolve?domain=DotNetRuJobsFeed&post=74","tags":[{"name":"dotnet"},{"name":"csharp"},{"name":"net-core"}],"cities":[{"code":"yerevan"},{"code":"lida"}],"allowsRemote":false}},{"node":{"__typename":"Job","id":"79691776-1001375797688","title":".net разработчик","text":"#вакансия #Москва #офис\n\nВ команду разработки высоконагруженной фронт системы компании Ренессанс Страхование ищем .NET-разработчика.\n\nГрафик работы 5/2 гибкое начало рабочего дня\nВилка до 170 т.р gross\n\nЗадачи :\n- Развитие и доработка высоконагруженной фронт-системы.\n- Участие в выработке архитектурных решений и их реализация\n- Участие в подготовке и развертывании новых версий ПО.\n- Мониторинг работоспособности и производительности ПО.\n- Участие как в активностях отдела по улучшению текущих систем в рамках техдолга, так и в активностях по проектированию и развитию систем на будущее.\n\nЖдем, что у вас есть:\n- Уверенное знание знание языка C# и платформы .net/.net core.\n- Знание паттернов проектирования и умение применять их на практике.\n- Знание системы контроля версий git.\n- Хорошее знание SQL/TSQL.\n- Опыт разработки автоматизированных тестов (unit и интеграционные тесты).\n-  Умение разбираться в чужом коде.\n- Понимание архитектурных принципов: микросервисная архитектура, SOLID, IoC (DI), Design Patterns (GoF), Unit Testing.\n- Базовые навыки front-разработки. Умение ориентироваться в front-технологиях.\n\nЖелательно:\n· Знание платформы Services Fabric.\n· Опыт внедрения новых технологий в разрабатываемое ПО.\n· Опыт внедрения новых методологий разработки ПО.\n· Знание методологий разработки ПО и инструментов: JIRA, Confluence.\n· Знания и опыт применения LINQ, WCF 4.0+, WEB API, XPATH, XSLT.\n· Желание развиваться в сторону .NET Core.\n\nОт нас:\n· Гибкий подход к началу рабочего дня - с 9 до 11.\n· ДМС со стоматологией, страховка от несчастного случая.\n· Работа в комфортном офисе в БЦ на Дербеневской набережной.\n· Спортивные корпоративные программы - йога, футбол.\n\nКонтакты: VladLazHR","markup":[{"type":"hashtag","offset":0,"length":9,"data":"вакансия"},{"type":"hashtag","offset":10,"length":7,"data":"Москва"},{"type":"hashtag","offset":18,"length":5,"data":"офис"}],"date":"2020-01-29T15:40:11+00:00","link":"tg://resolve?domain=DotNetRuJobsFeed&post=76","tags":[{"name":"dotnet"},{"name":"csharp"},{"name":"git"},{"name":"sql"},{"name":"tsql"},{"name":"linq"},{"name":"wcf"},{"name":"web"},{"name":"xslt"},{"name":"net-core"},{"name":"unit-testing"}],"cities":[{"code":"moscow"}],"allowsRemote":false}},{"node":{"__typename":"Job","id":"75497472-1001375797688","title":".net developer","text":"#вакансия #dotnet #aspnet #entityframework #remote\n\nFull-stack Developer\nFull-time, $60k-$80k annually, Remote\n\nAbout us\n* Our main product is practice management software system “Stage 4 MD”. It is designed specifically for and used by plastic surgeons\n* It is single-page multi-tenant application hosted in Azure cloud\n\nMain technologies we use:\n* ASP.Net MVC with DevExpress controls\n* Entity Framework 6 with SQL Server Azure in Azure cloud\n* DBUp is used for automatic database schema and data updates\n* A part of the system system uses ASP.Net Web API for back-end with Vue.js front-end\n* We boldly mix Vue.js with ASP.Net MVC by rendering MVC controls inside Vue.js components and visa versa\n* Vue Router is used for single-page application navigation\n* We recently moved code repository from Bitbucket to Github\n* Tasks are still in Jira\n* Teamcity builds generate binaries for development, and release branches. Binaries are deployed with one-click process\n* We use Trunk Based Development for releases. Release deployment to production is done once every three weeks. QA deployment happens several times a week\n* QA team runs automated browser tests as well as does some manual testing\n* Every developer works with their local development environment\n* Slack is used for communication\n\nYour personal skills\n* You have to be proficient with reading, writing and speaking English (expert level not required)\n* From picking the next task to writing a specific line of code you are expected to be keeping in mind the customer’s needs and the value that your contribution creates for them\n* You should be able to develop code that does its job, performs well, easy to read and maintain and doesn’t require additional explanations\n* You need to self-manage next tasks from backlog, consistently report your progress and escalate roadblocks timely\n* You are expected to be comfortable with asking questions, proposing better solutions and accepting suggestions from teammates, giving and taking feedback\n\nYour technical skills\nThings you’re expected to be well experienced with:\n* C# and .Net Framework\n* ASP.Net MVC and ASP.Net Web API\n* JavaScript, HTML, CSS\n* Entity Framework and SQL Server\n* Git\n\nOther things that are nice to know, but not required:\n* ASP.Net Core\n* Entity Framework Core\n* DevExpress Controls\n* Vue.js and Vuetify\n\nYour compensation package\n* You will operate as independent contractor (прим: ИП по официальному договору с американской компанией)\n* You will receive $60k-$80k annually in bi-weekly payments (до налогов, их вы платите сами как ИП)\n* You will have unlimited time off in accordance with our time-off policy\n* You can work from anywhere in the world, at hours of your convenience\n\nOur recruitment process\n* Skills test. Short online quiz to get a quick evaluation of your technical skills\n* Interview. Brief conversation for you to tell about your interests, learn about our company and the product\n* Test project. Review existing codebase, report fixes and improvements, and implement one or few of them\n* Test week. Five days of paid work with us on our real project\n\nReady to start?\nTake the test: https://apply.hire.toggl.com/966DPZE7RPE5Y9P8H27P?utm_source=dotnetrujobs","markup":[{"type":"hashtag","offset":0,"length":9,"data":"вакансия"},{"type":"hashtag","offset":10,"length":7,"data":"dotnet"},{"type":"hashtag","offset":18,"length":7,"data":"aspnet"},{"type":"hashtag","offset":26,"length":16,"data":"entityframework"},{"type":"hashtag","offset":43,"length":7,"data":"remote"},{"type":"bold","offset":52,"length":20,"data":""},{"type":"bold","offset":112,"length":8,"data":""},{"type":"bold","offset":1296,"length":20,"data":""},{"type":"bold","offset":2008,"length":21,"data":""},{"type":"italic","offset":2059,"length":16,"data":""},{"type":"italic","offset":2227,"length":12,"data":""},{"type":"bold","offset":2342,"length":25,"data":""},{"type":"bold","offset":2721,"length":23,"data":""},{"type":"bold","offset":3110,"length":15,"data":""},{"type":"link","offset":3141,"length":73,"data":"https://apply.hire.toggl.com/966DPZE7RPE5Y9P8H27P?utm_source=dotnetrujobs"}],"date":"2020-01-10T06:42:51+00:00","link":"tg://resolve?domain=DotNetRuJobsFeed&post=72","tags":[{"name":"dotnet"},{"name":"csharp"},{"name":"azure"},{"name":"cloud"},{"name":"sql"},{"name":"web"},{"name":"vuejs"},{"name":"github"},{"name":"deployment"},{"name":"javascript"},{"name":"html"},{"name":"css"},{"name":"git"},{"name":"asp-net"},{"name":"entity-framework"},{"name":"sql-server"},{"name":"net-core"},{"name":"asp-net-mvc"},{"name":"asp-net-core"},{"name":"entity-framework-core"}],"cities":[{"code":"nice"}],"allowsRemote":true}}]}}},"context":{}}