{"hash":"f5f6bf98bd95e769321482904cbbd488f77922fd","data":{"records":{"id":"java","name":"java","belongsTo":{"totalCount":242,"pageInfo":{"totalPages":25,"currentPage":20},"edges":[{"node":{"__typename":"Job","id":"1700790272-1001091028994","title":"Java разработчик","text":"Вакансия: #java #senior\nКомпания: #сбертех\nЛокация: Москва, м. Тульская, Новоданиловская наб, д.10\nФормат работы: офис (сейчас удаленка)\nЗарплатная вилка: 170-270к\n\nЕдиный сервис аутентификации - это система, которая принимает решение о допуске клиентов через различные каналы обслуживания (веб, мобильное приложение, банкомат) к сервисам экосистемы Сбербанка. Система является высоконагруженной, так как одновременно может обслуживать более 10к операций в секунду.\n\nЗадачи:\n • разработка back-end web-приложения; \n • участие разработки архитектуры продукта;\n • участие в code review. \n\nОбязательно:\n· Опыт работы с Java от 2ух лет (хорошее знание core, Collections, jdbc, IO, Exceptions)\n· Опыт работы с системами сборки: maven или gradle\n· Опыт работы с БД, знание языка запросов SQL\n· Знакомство с ORM Hibernate\n\nБудет плюсом:\n· понимание многопоточности в Java;\n· знакомство со Spring Framework\n\nБонусы: \n • гибкое начало дня, отсутствие микроменеджмента и дресс-кода\n • отличная атмосфера в команде, способность слышать мнение каждого\n • современное железо (можно выбрать ноут MacOS или Windows) \n • возможность сменить проект\n • ДМС, спортзал, корпоративные мероприятия\n\nКонтакт: @hralexandra 📲","markup":[{"type":"hashtag","offset":10,"length":5,"data":"java"},{"type":"hashtag","offset":16,"length":7,"data":"senior"},{"type":"hashtag","offset":34,"length":8,"data":"сбертех"},{"type":"handle","offset":1186,"length":12,"data":"hralexandra"}],"date":"2020-06-16T15:48:40+00:00","link":"tg://resolve?domain=jvmjobs&post=1622","tags":[{"name":"java"},{"name":"jvm"},{"name":"web"},{"name":"jdbc"},{"name":"maven"},{"name":"gradle"},{"name":"sql"},{"name":"orm"},{"name":"hibernate"},{"name":"spring"},{"name":"macos"},{"name":"windows"}],"cities":[{"code":"moscow"}],"allowsRemote":true}},{"node":{"__typename":"Job","id":"1699741696-1001091028994","title":"Java разработчик","text":"#вакансия #Москва #Архитектор #Java\n \nВакансия: АРХИТЕКТОР\nЛокация: #Москва ст.м.Верхние Лихоборы, МЦК Окружная\nВилка по ЗП: до 300 000 net \nКонтакт: @Hr_Dina\nОсновной проект: Развитие решения класса IDM/AM.\nВ рамках проекта необходимо доработать решение под требования заказчика.\nНаписать проектно-рабочую документацию.\nПройти процедуру сертификации решения.\n \nСтек технологий: OpenJDK 11 Spring 5 Springboot 2 Hibernate 5 Ignite (возможно будет заменен на redis) Netty 4 Postgres 11 Angular 8 Docker (планируется использовать kubernetes)\n \n \nЧем Вам предстоит заниматься:\nРазработка архитектуры и проектирование информационных систем;\nОрганизация и проведение обследований существующей и планируемой IT-инфраструктуры на территории Заказчика;\nРазработка и согласование проектной и технической документации в части системной архитектуры;\nРазработка тендерной документации и технических предложений в части системной архитектуры;\nКонсультирование ИТ и бизнес - специалистов Заказчика по вопросам, относящимся к компетенции архитектора.\nВ рамках текущего проекта:\nСопровождение архитектуры решения;\nУправление запросами на доработку решения от интегрированных прикладных проектов, проектирование общих согласованных решений на доработку;\nОбеспечение нефункциональных требований к масштабируемости и производительности.\n \n \nЧто мы ждем от вас:\nОпыт работы от 2 лет в сфере реализации корпоративных приложений на java платформе в должности руководитель группы разработки, архитектор/ведущий архитектор.\n\nЗнания и навыки:\nЗнание основ разграничения доступа (RBAC/ABAC/мандатное), опыт использования решений класса IDM/AM;\nЗнание и практический опыт применения методологий разработки и проектирования ПО;\nЗнания и опыт применения шаблонов проектирования информационных систем;\nЗнания принципов работы реляционных СУБД, опыт работы с различными реализация БД (Oracle, Postgre предпочтительно).\nОпыт разработки или проектирования высоконагруженных приложений на Java;\nJava SE 8+ (Core, Collections, Multithreading);\nSpring (Core, Boot, Security, Data);\nHibernate/Ebean/Jooq;\nIgnite/redis\nPostgres\n\nПлюсом будет:\nОпыт разработки и/или проектирования СЗИ от НСД в соответствии с требованиями РД ФСТЭК/Гостехкомиссии;\nОпыт подготовки проектной документации, знание ГОСТ 19/34;\nЗнание основ криптографической защиты информации;\nЗнание ОС Astra Linux SE\n\nЗнание:\nOAuth, SSO/SAML, Kerberos, PKI, WS-Security;\nПроектирование REST API (Swagger);\nDocker, Kubernetes\n\nЧто готовы предложить:\nВозможность участвовать в масштабных проектах на уровне страны.\nГибкий график работы. Преимущественно команда работает с 9 (10.00) до 18 (19.00) по московскому времени. Возможность работать удаленно.\nСоциальный пакет (ДМС, дополнительные компенсации по обучению и туризму, изучение английского языка на льготных условиях).","markup":[{"type":"hashtag","offset":0,"length":9,"data":"вакансия"},{"type":"hashtag","offset":10,"length":7,"data":"Москва"},{"type":"hashtag","offset":18,"length":11,"data":"Архитектор"},{"type":"hashtag","offset":30,"length":5,"data":"Java"},{"type":"bold","offset":38,"length":9,"data":""},{"type":"bold","offset":59,"length":8,"data":""},{"type":"hashtag","offset":68,"length":7,"data":"Москва"},{"type":"bold","offset":112,"length":12,"data":""},{"type":"bold","offset":141,"length":8,"data":""},{"type":"handle","offset":150,"length":8,"data":"Hr_Dina"},{"type":"bold","offset":159,"length":16,"data":""},{"type":"bold","offset":362,"length":17,"data":""},{"type":"bold","offset":544,"length":30,"data":""},{"type":"bold","offset":1322,"length":20,"data":""},{"type":"italic","offset":1501,"length":17,"data":""},{"type":"italic","offset":2091,"length":14,"data":""},{"type":"italic","offset":2343,"length":8,"data":""},{"type":"bold","offset":2451,"length":23,"data":""}],"date":"2020-06-16T15:11:33+00:00","link":"tg://resolve?domain=jvmjobs&post=1621","tags":[{"name":"java"},{"name":"jvm"},{"name":"dotnet"},{"name":"spring"},{"name":"hibernate"},{"name":"redis"},{"name":"postgresql"},{"name":"angularjs"},{"name":"docker"},{"name":"kubernetes"},{"name":"oracle"},{"name":"linux"},{"name":"oauth"},{"name":"rest"},{"name":"swagger"}],"cities":[{"code":"moscow"}],"allowsRemote":true}},{"node":{"__typename":"Job","id":"1698693120-1001091028994","title":"Java разработчик","text":"Sr. Kubernetes/Spring Engineer with High-load\nCompany: Rockbite Games \nhttps://stackoverflow.com/jobs/companies/rockbite-games\n#remote #java #kubernetes\n\nStack: Java, Spring, Kubernetes, MongoDB, NGINX Ingress\n\nChallenge: Sandship. It is a complicated popular game created by Rockbite Games. Currently, it is expanding and scaling like crazy in terms of its user base. As we are facing new multilayer issues that came with that we know most of the system needs redoing, proper issue diagnosing and solutions. We are looking for an “I can solve all of the backend problems” person.\n\nhttps://apps.apple.com/us/app/sandship-crafting-factory/id1440385758 \n\nRequired loot: Expertise with Java Spring applications on Kubernetes\n, Microservices expertise, Extremely high load backend experience (5000 req per second or more on heavy application), Understanding of low-level details and optimizations.\n\nNot required but nice Side quests: Experience in networking, understanding Nginx ingress, load balancers and the whole cluster ecosystem. Contributions to high-load or Spring connected Open Source projects.\n\nTerms: $3-10K net (depends on who you are), all remote, full-time, contract. Start date ASAP.\n\nContact: @ach94er or https://stackoverflow.com/jobs/401742/sr-kubernetes-spring-engineer-rockbite-games","markup":[{"type":"link","offset":71,"length":55,"data":"https://stackoverflow.com/jobs/companies/rockbite-games"},{"type":"hashtag","offset":127,"length":7,"data":"remote"},{"type":"hashtag","offset":135,"length":5,"data":"java"},{"type":"hashtag","offset":141,"length":11,"data":"kubernetes"},{"type":"link","offset":582,"length":68,"data":"https://apps.apple.com/us/app/sandship-crafting-factory/id1440385758"},{"type":"handle","offset":1207,"length":8,"data":"ach94er"},{"type":"link","offset":1219,"length":82,"data":"https://stackoverflow.com/jobs/401742/sr-kubernetes-spring-engineer-rockbite-games"}],"date":"2020-06-16T14:56:51+00:00","link":"tg://resolve?domain=jvmjobs&post=1620","tags":[{"name":"java"},{"name":"jvm"},{"name":"kubernetes"},{"name":"spring"},{"name":"mongodb"},{"name":"nginx"},{"name":"dotnet"}],"cities":[{"code":"nice"}],"allowsRemote":true}},{"node":{"__typename":"Job","id":"1697644544-1001091028994","title":"Java разработчик","text":"#java #javascript #middle #senior\nКомпания: #kode \nЛокация: #калининград\nЗ/п: от 100К руб\nКонтакты: @Nadia_Rudometova\n \nKODE – компания мобильной разработки, которая закрепилась в ТОП-10 лучших студий и постоянно улучшает свои позиции. Мы выступаем технологическими партнёрами бизнеса, помогая заказчику развивать их digital-сервисы. \n\nЧто нужно делать?\n-Декомпозировать, планировать и оценивать задачи;\nУчаствовать в проектировании сложных систем с чистого листа;\n-Проектировать архитектуру веб-сервисов и REST API;\n-Реализовывать сложные интеграции с различными системами (GDS, банкинг, ритейл, биллинг и т.д.);\n-Покрывать свой код тестами;\n-Сопровождать и документировать архитектурные решения по своим проектам;\n-Взаимодействовать с участниками проектной команды для реализации лучших решений\n\nЧто нужно уметь?\n-Отличные знания Java;\n-Знания Spring и Spring Boot, Groovy;\n-Опыт работы c Kafka;\n-Умение использовать различные инструменты для тестирования кода и приложений различной сложности: JUnit, Spock, Testcontainers, Mockito, Hamcrest;\n-Опыт работы с SQL и NoSQL СУБД;\nЗнание принципов и шаблонов проектирования;\n-Уверенные знания о работе unix-систем. Любовь к ним и умение с ними работать;\n-Умение работать с Docker, docker-compose;\n\nЧто предлагаем?\n-Официальное оформление по ТК;\n-Работа в продуктовой команде, используя современный стек разработки;\n-Возможность влиять на развитие проекта и компании;\n-Корпоративы в Европе","markup":[{"type":"hashtag","offset":0,"length":5,"data":"java"},{"type":"hashtag","offset":6,"length":11,"data":"javascript"},{"type":"hashtag","offset":18,"length":7,"data":"middle"},{"type":"hashtag","offset":26,"length":7,"data":"senior"},{"type":"hashtag","offset":44,"length":5,"data":"kode"},{"type":"hashtag","offset":60,"length":12,"data":"калининград"},{"type":"handle","offset":100,"length":17,"data":"Nadia_Rudometova"}],"date":"2020-06-16T14:47:56+00:00","link":"tg://resolve?domain=jvmjobs&post=1619","tags":[{"name":"java"},{"name":"jvm"},{"name":"javascript"},{"name":"rest"},{"name":"spring"},{"name":"groovy"},{"name":"kafka"},{"name":"junit"},{"name":"sql"},{"name":"nosql"},{"name":"unix"},{"name":"docker"},{"name":"spring-boot"},{"name":"docker-compose"}],"cities":[{"code":"kaliningrad"}],"allowsRemote":false}},{"node":{"__typename":"Job","id":"71411171328-1001054966032","title":"Android разработчик","text":"‼️Вакансия Senior Android⁢ Developer‼️\n#android #developer #вакансия #удаленка\nВ команде Mycelium Wallet (mycelium.com) открыта #вакансия Senior Android⁢ Developer.\n💵З/П 3000-4000 USD по итогам собеседования.\nРабота удаленная 💻\n\nМы предлагаем:\n🔸Получить навыки и компетенции в одном из самых передовых и перспективных направлений финтех индустрии - blockchain;\n🔸Принять участие в разработке одного из самых популярных биткоин-кошельков в Google Play Store;\n🔸Работать в международной команде бок о бок с ведущими специалистами в индустрии;\n🔸Возможность профессионального карьерного роста и участия в разнообразных проектах компании.\n\nЧем предстоит заниматься:\n🔹Разрабатывать новые и развивать существующие мобильные сервисы компании на платформе Android;\n🔹Проектировать и разрабатывать большие функциональные части приложения с привлечением других программистов;\n🔹Использовать cutting edge технологии, а также проверенные временем решения.\n\nТребования:\n✔️Как минимум 3 года опыта разработки на Android;\n✔️Знание Java/Kotlin на уровне ведущего разработчика;\n✔️Знание шаблонов проектирования, опыт использования MVP и других архитектурных подходов;\n✔️Опыт параллельного и многопоточного программирования;\n✔️Понимание циклов работы Android-приложения и управления памятью;\n✔️Опыт разработки пользовательских интерфейсов на платформе Android. \n✔️Знание Android Design Principles;\n✔️Знание и умение использовать различные механизмы взаимодействий между приложениями, предоставляемые в рамках Android SDK;\n✔️Понимание принципов работы REST API, WS, RPC и клиент-серверных приложений;\n✔️Знание английского языка на уровне чтения документации и умения общаться в корпоративном чате.\n\nПлюсом будет:\n➕Умение и понимание необходимости написания Unit tests;\n➕Знание основ криптографии;\n➕Опыт работы с bitcoin/etherium blockchain stack;\n➕Наличие своих проектов на Github, в Google Play и т.д.\n\n📲Контакт: @valeritata","markup":[{"type":"hashtag","offset":39,"length":8,"data":"android"},{"type":"hashtag","offset":48,"length":10,"data":"developer"},{"type":"hashtag","offset":59,"length":9,"data":"вакансия"},{"type":"hashtag","offset":69,"length":9,"data":"удаленка"},{"type":"link","offset":106,"length":12,"data":"http://mycelium.com"},{"type":"hashtag","offset":128,"length":9,"data":"вакансия"},{"type":"handle","offset":1900,"length":11,"data":"valeritata"}],"date":"2020-06-16T14:37:41+00:00","link":"tg://resolve?domain=mobile_jobs&post=0","tags":[{"name":"mobile"},{"name":"android"},{"name":"playframework"},{"name":"java"},{"name":"kotlin"},{"name":"rest"},{"name":"github"}],"cities":[],"allowsRemote":true}},{"node":{"__typename":"Job","id":"71405928448-1001054966032","title":"Android developer","text":"#вакансия #job #Android #kotlin #developer #Новосибирск #Калининград #Кострома #Екатеринбург #Питер \n\nВсем привет! \nОткрыта позиция на должность \n🔥Android Developer🔥\n\nКомпания: ТЕНЗОР (https://tensor.ru)\nЦентры мобильной разработки:\n📱Новосибирск, \n📱Калининград, \n📱Кострома, \n📱Екатеринбург,\n📱Санкт-Петербург,\n📱Севастополь\nOffice, full-time\n🔸Оформление по ТК РФ 🔸ДМС со стоматологией🔸курсы иностранных языков🔸корпоративные праздники🔸комфортный офис \nЗП: \nMiddle 110 000-180 000\nSenior 180 000-300 000 на руки\n\nЕсли ты :\n✅ знаешь Kotlin/Java и Android SDK;\n✅ понимаешь паттерны архитектуры MVP и MVVM;\n✅ имеешь опыт работы с Git, Dagger 2, RxJava;\n✅ готов совершенствовать свои умения и обучаться новому, \nто пиши нам!!!\nЖдём вопросы и резюме! \n✍️ @kseniyahr\n📨 ke.pomigueva@tensor.ru","markup":[{"type":"hashtag","offset":0,"length":9,"data":"вакансия"},{"type":"hashtag","offset":10,"length":4,"data":"job"},{"type":"hashtag","offset":15,"length":8,"data":"Android"},{"type":"hashtag","offset":24,"length":7,"data":"kotlin"},{"type":"hashtag","offset":32,"length":10,"data":"developer"},{"type":"hashtag","offset":43,"length":12,"data":"Новосибирск"},{"type":"hashtag","offset":56,"length":12,"data":"Калининград"},{"type":"hashtag","offset":69,"length":9,"data":"Кострома"},{"type":"hashtag","offset":79,"length":13,"data":"Екатеринбург"},{"type":"hashtag","offset":93,"length":6,"data":"Питер"},{"type":"link","offset":187,"length":17,"data":"https://tensor.ru"},{"type":"handle","offset":758,"length":10,"data":"kseniyahr"},{"type":"link","offset":772,"length":22,"data":"mailto:ke.pomigueva@tensor.ru"}],"date":"2020-06-16T14:17:24+00:00","link":"tg://resolve?domain=mobile_jobs&post=0","tags":[{"name":"mobile"},{"name":"android"},{"name":"kotlin"},{"name":"java"},{"name":"mvvm"},{"name":"git"}],"cities":[{"code":"novosibirsk"},{"code":"kaliningrad"},{"code":"kostroma"},{"code":"sevastopol"}],"allowsRemote":false}},{"node":{"__typename":"Job","id":"71400685568-1001054966032","title":"Android разработчик","text":"#вакансия #android #java #kotlin #middle #senior #удаленка #remote #fulltime\n\nAndroid-разработчик удаленно от 200 тыс. руб.\n\nГород: Москва\nФормат работы: удаленно\nЗанятость: полная\nЗарплатная вилка: от 200 000 руб. до 250 000 руб. после налогообложения\nКомпания: CORE https://core.company\n\nМы команда разработчиков мобильных приложений и сейчас мы ищем Android-разработчика для одного из наших финтех-проектов.\n\nОсновные требования:\n— Опыт работы от 2-х лет;\n— Знание Java и Kotlin;\n— Опыт работы с Rx;\n— Знание шаблонов проектирования и умение их применять;\n— Понимание принципов SOLID;\n— Знание основных алгоритмов и структур данных;\n— Умение писать поддерживаемый и тестируемый код.\n\nУсловия:\n— Полный день, гибкий график;\n— Оформление по договору ГПХ.\n\nПрисылайте ваше резюме на @tv_corecompany","markup":[{"type":"hashtag","offset":0,"length":9,"data":"вакансия"},{"type":"hashtag","offset":10,"length":8,"data":"android"},{"type":"hashtag","offset":19,"length":5,"data":"java"},{"type":"hashtag","offset":25,"length":7,"data":"kotlin"},{"type":"hashtag","offset":33,"length":7,"data":"middle"},{"type":"hashtag","offset":41,"length":7,"data":"senior"},{"type":"hashtag","offset":49,"length":9,"data":"удаленка"},{"type":"hashtag","offset":59,"length":7,"data":"remote"},{"type":"hashtag","offset":67,"length":9,"data":"fulltime"},{"type":"link","offset":268,"length":20,"data":"https://core.company"},{"type":"handle","offset":783,"length":15,"data":"tv_corecompany"}],"date":"2020-06-16T13:37:05+00:00","link":"tg://resolve?domain=mobile_jobs&post=0","tags":[{"name":"mobile"},{"name":"android"},{"name":"java"},{"name":"kotlin"}],"cities":[{"code":"moscow"}],"allowsRemote":true}},{"node":{"__typename":"Job","id":"71390199808-1001054966032","title":"Android разработчик","text":"#вакансия #developer #Android #москва  #fulltime \nAndroid Developer\nГород: Москва\nФормат работы: офис \nЗанятость: полная\nЗП вилка: 150-250 т.р.\n\nВ штат в офис госбанка в Москве в команду нужны разработчик Android (Java/Kotin, Теоритические знания SOLID) для написания нативных приложений. \nОпыт: Middle (выше - приветствуется) \nПолный соц пакет и поддержка ре-локации.\nГибкое время работы.\n\nПодробнее – пишем в личку. @okokgoogLE","markup":[{"type":"hashtag","offset":0,"length":9,"data":"вакансия"},{"type":"hashtag","offset":10,"length":10,"data":"developer"},{"type":"hashtag","offset":21,"length":8,"data":"Android"},{"type":"hashtag","offset":30,"length":7,"data":"москва"},{"type":"hashtag","offset":39,"length":9,"data":"fulltime"},{"type":"handle","offset":418,"length":11,"data":"okokgoogLE"}],"date":"2020-06-16T12:02:57+00:00","link":"tg://resolve?domain=mobile_jobs&post=0","tags":[{"name":"mobile"},{"name":"android"},{"name":"java"}],"cities":[{"code":"moscow"}],"allowsRemote":false}},{"node":{"__typename":"Job","id":"102953385984-1001089317451","title":"Qa инженер","text":"#уфа #вакансия #офис #QA #Java \n\nВакансия: 🔹Разработчик автотестов🔹\nКомпания: ИнфоТеКС\nЗ/п: до 100 000 руб. гросс\n\n🔻Что нужно делать?\n- Написание и запуск автотестов для сетевого оборудования;\n- Установка и настройка оборудования в серверной стойке;\n- Установка и настройка ПО;\n\n🔻Мы ожидаем, что у тебя есть:\n- Знание языка программирования Java (знания Java Core будет достаточно), либо любой другой ООП-язык + желание изучить Java;\n- Знание сетевых технологий (понимание того, как сетевые узлы обмениваются трафиком);\n- Знание Linux на уровне администратора;\n- Навыки работы с Selenium WebDriver будут очень большим плюсом;\n\n🔻Что предлагаем?\n- Работа в офисе в Уфе (ул.Карла Маркса)\n- Официальное трудоустройство, \"белая\" з/п.\n- Гибкое утро (8:00-11:00)\n- Бесплатные обеды в офисе или кафе.\n- Занятия в фитнес клубе.\n- ДМС.\n- Обучение внутреннее и внешнее.\n\n📲 Контакты:\nЮсупова Елена @iusupovahr\nили можно просто откликнуться на вакансию здесь: https://ufa.hh.ru/vacancy/36889979","markup":[{"type":"hashtag","offset":0,"length":4,"data":"уфа"},{"type":"hashtag","offset":5,"length":9,"data":"вакансия"},{"type":"hashtag","offset":15,"length":5,"data":"офис"},{"type":"hashtag","offset":21,"length":3,"data":"QA"},{"type":"hashtag","offset":25,"length":5,"data":"Java"},{"type":"handle","offset":892,"length":11,"data":"iusupovahr"},{"type":"link","offset":953,"length":34,"data":"https://ufa.hh.ru/vacancy/36889979"}],"date":"2020-06-16T11:28:31+00:00","link":"tg://resolve?domain=qa_jobs&post=0","tags":[{"name":"qa"},{"name":"java"},{"name":"linux"},{"name":"selenium"}],"cities":[{"code":"ufa"}],"allowsRemote":false}},{"node":{"__typename":"Job","id":"1696595968-1001091028994","title":"Java разработчик","text":"#вакансия  #офис #удаленка #регионы #Москва #Java #Spring #senior #middle #backend\nЛокация: #регион #Москва\nФормат работы: #офис #fulltime #удаленка\nЗ/п: 150-250 NET\nКомпания: МД-IT\nВедущий разработчик/Разработчик JAVA  \nВсем привет!\n\n✅Нужны классные разработчики Java уровня Middle, Senior, Lead\n\n👉Немного о нас: \nЦентр разработки МД-IT реализует проекты федерального масштаба под ключ. Наши специалисты работают с крупнейшими системными интеграторами, выполняя задачи по проектированию, разработке, тестированию, сопровождению и эксплуатации внедренных решений. \nНаши офисы расположены в Москве, Ростове-на –Дону, Нижнем Новгороде. \n\n👉Что ждем от Вас:\n* Уверенные знания java 8+, spring boot, будет плюсом знание Kotlin. \n Глубокие знания и практический опыт использования Java в нагруженных многопоточных приложениях Hibernate, Spring, Maven3, ХML\n\n* Опыт проектирования версионнированных REST-API, знание grpc будет плюсом\n\n* Понимание принципов асинхронного программирования, знание одного из: netty, nio, r2dbc\n\n* Желателен опыт использования библиотек реактивного программирования (rxjava, reactor) или опыт работы с vert.x, ratpack или http4\n\n*Приветствуется опыт работы с современными архитектурами, Apache Ignite, Apache Kafka\n\n👉Что мы можем предложить Вам:\n\n* Работа: удаленка\n\n*График работы 5/2, команда работает с 9(10) до 18(19) ч. по МСК\n\n*Заработную плату белую, конкурентоспособную (рассмотрим ваши предложения).\n\n* Работа в команде сообразительных, открытых, стремящихся к развитию единомышленников.\n\n* Крупные и долгосрочные проекты, увеличивающие профессиональный кругозор и опыт работы. \n* Плюшки к чаю и кофе, оплачиваемая мобильная связь, оплачиваемые тренинги и курсы для повышения квалификации. \n\n🖍 Вопросы, резюме прошу писать в личку Елене @Elenazlh","markup":[{"type":"hashtag","offset":0,"length":9,"data":"вакансия"},{"type":"hashtag","offset":11,"length":5,"data":"офис"},{"type":"hashtag","offset":17,"length":9,"data":"удаленка"},{"type":"hashtag","offset":27,"length":8,"data":"регионы"},{"type":"hashtag","offset":36,"length":7,"data":"Москва"},{"type":"hashtag","offset":44,"length":5,"data":"Java"},{"type":"hashtag","offset":50,"length":7,"data":"Spring"},{"type":"hashtag","offset":58,"length":7,"data":"senior"},{"type":"hashtag","offset":66,"length":7,"data":"middle"},{"type":"hashtag","offset":74,"length":8,"data":"backend"},{"type":"hashtag","offset":92,"length":7,"data":"регион"},{"type":"hashtag","offset":100,"length":7,"data":"Москва"},{"type":"hashtag","offset":123,"length":5,"data":"офис"},{"type":"hashtag","offset":129,"length":9,"data":"fulltime"},{"type":"hashtag","offset":139,"length":9,"data":"удаленка"},{"type":"handle","offset":1772,"length":9,"data":"Elenazlh"}],"date":"2020-06-16T11:17:46+00:00","link":"tg://resolve?domain=jvmjobs&post=1618","tags":[{"name":"java"},{"name":"jvm"},{"name":"spring"},{"name":"dotnet"},{"name":"kotlin"},{"name":"hibernate"},{"name":"maven"},{"name":"rest"},{"name":"apache"},{"name":"kafka"},{"name":"spring-boot"}],"cities":[{"code":"moscow"}],"allowsRemote":true}}]}}},"context":{}}