{"hash":"f5f6bf98bd95e769321482904cbbd488f77922fd","data":{"records":{"id":"mobile","name":"mobile","belongsTo":{"totalCount":307,"pageInfo":{"totalPages":31,"currentPage":30},"edges":[{"node":{"__typename":"Job","id":"71287439360-1001054966032","title":"Android разработчик","text":"#вакансия #ios #android #Flutter\nНаставник-помощник Flutter разработчик\n\nЧастичная занятость, гибкий график, удаленно \nОплата почасовая от 8$ \n\nМы ищем мобильного разработчика уровня Middle на почасовую консультацию, который:\n\n- имеет опыт коммерческой разработки на Dart и Flutter;\n- знает ООП, Git, Gradle, Pods;\n- уверенно знает Kotlin/Java\n- имеет опыт в разработке нативных мобильных приложений и модулей (android/ios).\n\nПлюсом будет:\n\n- знание основных шаблонов проектирования и опыт их применения;\n- опыт работы с Firebase;\n- понимание принципов и опыт настройки CI/CD.\n\nТебе предстоит:\n\n- консультировать нашего разработчика по нашим актуальным проектам\n- в случае проблем изредка участвовать в разработке \n- помогать в настройке CI/CD;\n- участвовать в Code Review;\n\nКонтакт для связи @korchikova","markup":[{"type":"hashtag","offset":0,"length":9,"data":"вакансия"},{"type":"hashtag","offset":10,"length":4,"data":"ios"},{"type":"hashtag","offset":15,"length":8,"data":"android"},{"type":"hashtag","offset":24,"length":8,"data":"Flutter"},{"type":"handle","offset":793,"length":11,"data":"korchikova"}],"date":"2020-06-15T09:01:39+00:00","link":"tg://resolve?domain=mobile_jobs&post=0","tags":[{"name":"mobile"},{"name":"android"},{"name":"ios"},{"name":"flutter"},{"name":"dart"},{"name":"git"},{"name":"gradle"},{"name":"kotlin"},{"name":"java"},{"name":"firebase"}],"cities":[],"allowsRemote":true}},{"node":{"__typename":"Job","id":"71284293632-1001054966032","title":"Android разработчик","text":"#вакансия #android #remote #fulltime \nВакансия: android разработчик\nФормат работы: удаленно \nЗанятость: полная\nЗ/п: от 170 000 до 200 000 по результатам общения\nКомпания: https://poloniumarts.com/\nСфера деятельности: разработка ПО.\n\nНа один из новых проектов. Все с нуля. Никакого легаси. \n\nCтек: kotlin, RxJava, Firebase (Retrofit Glide Android Annotation) \n\nОсновные задачи\n▪️верстка экранов приложения\n▪️проработка Api и логика приложения\n▪️полная поддержка проекта\n\nТребования\n▪️опыт коммерческой разработки на Java и/или Kotlin от 1 года\n▪️опыт работы с Android SDK, Gradle, Layout Inspector, Linux\n▪️понимание принципов MVP и MVVM\n▪️понимание основных принципов работы с многопоточностью\n\nМы предлагаем\n▪️стабильную зарплату по результатам собеседования\n▪️оформление по ТК РФ\n▪️гибкий график работы\n▪️интересные, творческие задачи\n\nКонтакты: @Tragoman","markup":[{"type":"hashtag","offset":0,"length":9,"data":"вакансия"},{"type":"hashtag","offset":10,"length":8,"data":"android"},{"type":"hashtag","offset":19,"length":7,"data":"remote"},{"type":"hashtag","offset":27,"length":9,"data":"fulltime"},{"type":"bold","offset":38,"length":9,"data":""},{"type":"bold","offset":68,"length":13,"data":""},{"type":"bold","offset":93,"length":11,"data":""},{"type":"bold","offset":111,"length":5,"data":""},{"type":"bold","offset":161,"length":9,"data":""},{"type":"link","offset":171,"length":25,"data":"https://poloniumarts.com/"},{"type":"bold","offset":197,"length":19,"data":""},{"type":"bold","offset":360,"length":16,"data":""},{"type":"bold","offset":470,"length":11,"data":""},{"type":"bold","offset":695,"length":14,"data":""},{"type":"bold","offset":838,"length":9,"data":""},{"type":"handle","offset":848,"length":9,"data":"Tragoman"}],"date":"2020-06-15T07:25:26+00:00","link":"tg://resolve?domain=mobile_jobs&post=0","tags":[{"name":"mobile"},{"name":"android"},{"name":"kotlin"},{"name":"firebase"},{"name":"java"},{"name":"gradle"},{"name":"linux"},{"name":"mvvm"}],"cities":[],"allowsRemote":true}},{"node":{"__typename":"Job","id":"71281147904-1001054966032","title":"Mobile разработчик","text":"#вакансия #аналитик #продуктовый аналитик #мобильные приложения #Москва #удаленка\n🔸РосШтрафы\n▫️Москва\n▫️офис на Проспекте мира или удаленка\n▫️Fulltime\n▫️от 140К до 250К на руки\n\"РосШтрафы\" – сервис для проверки и оплаты штрафов ГИБДД и налогов, который постепенно превращается в маркетплейс для автомобилистов. Аудитория – несколько миллионов человек.\nНаш отдел маркетинга открывает вакансию 📣Аналитика мобильных приложений (продуктового аналитика)! 📣\n✔️Основные требования:\nОпыт работы на аналогичной должности от 2-х лет;\nЖелательно знание МОБИЛЬНОЙ аналитики (Firebase, AppМетрика, Appsflyer);\nПонимание принципов клиентской аналитики и сегментирования клиентского ядра;\nПонимание когортного анализа, основным метрик цифровых бизнесов, APRU, Retention, LTV, CPA, CPI;\nОпыт работы с регулярным точечным сбором данных;\nВладение SQL на уверенном уровне;\nОтличное знание SQL в диалекте MySQL/PgSQL и ClickHouse.\n✔️Задачи:\nПодготовка данных и настройка их сбора из различных источников;\nРазработка методики оценки окупаемости маркетинговых каналов;\nСоздание и улучшение аналитических инструментов;\nИсследования и поиск инсайтов в данных;\nПовышение эффективности работы менеджеров отдела маркетинга за счет получения достоверных, актуальных данных;\nГрамотное выстраивание системы аналитики с нуля.\n✔️Предлагаем:\nДостойная оплата труда;\nМинимум бюрократии;\nНикакого скрин-трекинга или почасового журнала работ -- всё на совести и доверии;\nГибкое начало рабочего дня;\nПлюшки на домашнюю технику, подарки на ДР;\nНеформальное адекватное общение по всей вертикали компании ;\nПринимаются во внимание любые идеи и инициатива;\nКомпенсация профессиональных курсов и конференций до 60%;\nВозможность 100% удалёнки с опциональным посещением офиса для работы и тимбилдинга.\n◽️@grabulya","markup":[{"type":"hashtag","offset":0,"length":9,"data":"вакансия"},{"type":"hashtag","offset":10,"length":9,"data":"аналитик"},{"type":"hashtag","offset":20,"length":12,"data":"продуктовый"},{"type":"hashtag","offset":42,"length":10,"data":"мобильные"},{"type":"hashtag","offset":64,"length":7,"data":"Москва"},{"type":"hashtag","offset":72,"length":9,"data":"удаленка"},{"type":"handle","offset":1763,"length":9,"data":"grabulya"}],"date":"2020-06-15T06:07:20+00:00","link":"tg://resolve?domain=mobile_jobs&post=0","tags":[{"name":"mobile"},{"name":"firebase"},{"name":"sql"},{"name":"mysql"}],"cities":[{"code":"moscow"}],"allowsRemote":true}},{"node":{"__typename":"Job","id":"71279050752-1001054966032","title":"Mobile разработчик","text":"#вакансия #Екатеринбург #удалённо #fulltime #фултайм #backend #fullstack #NestJS #nodejs #typescript\n#Backend-разработчик в компанию-резидент Сколково IPnote\nЕкатеринбург, Технопарк высоких технологий Свердловской области\nУдаленка или офис, но full time\nЗП белая от 80 до 120 и разные бенефиты\nСтек: Node.js, NestJS, TypeScript/JavaScript, MongoDB\nПодробности: @Sasha_hr_tut","markup":[{"type":"hashtag","offset":0,"length":9,"data":"вакансия"},{"type":"hashtag","offset":10,"length":13,"data":"Екатеринбург"},{"type":"hashtag","offset":24,"length":9,"data":"удалённо"},{"type":"hashtag","offset":34,"length":9,"data":"fulltime"},{"type":"hashtag","offset":44,"length":8,"data":"фултайм"},{"type":"hashtag","offset":53,"length":8,"data":"backend"},{"type":"hashtag","offset":62,"length":10,"data":"fullstack"},{"type":"hashtag","offset":73,"length":7,"data":"NestJS"},{"type":"hashtag","offset":81,"length":7,"data":"nodejs"},{"type":"hashtag","offset":89,"length":11,"data":"typescript"},{"type":"hashtag","offset":101,"length":8,"data":"Backend"},{"type":"handle","offset":361,"length":13,"data":"Sasha_hr_tut"}],"date":"2020-06-15T06:02:03+00:00","link":"tg://resolve?domain=mobile_jobs&post=0","tags":[{"name":"mobile"},{"name":"nodejs"},{"name":"typescript"},{"name":"javascript"},{"name":"mongodb"}],"cities":[],"allowsRemote":true}},{"node":{"__typename":"Job","id":"102808682496-1001089317451","title":"Qa инженер","text":"🐞🐞🐞#вакансия #QA #Ульяновск #Саранск #Казань #Самара #Уфа #Краснодар #офис #удаленная_работа\n\n🔍Middle QA-специалист🔎\n\n⚡️Компания: Simbirsoft (более 19 лет на рынке, более 700 сотрудников в штате)\n\nОчень ждем тебя, наш будущий коллега и борец за качественное ПО! :)\n\n📌Твои будущие задачи:\n• тестирование ПО (frontend, backend, API);\n• локализация и документирование найденных дефектов;\n• ведение и оптимизация тестовой документации;\n• контроль качества на всех этапах разработки ПО;\n• выстраивание и оптимизация процессов тестирования ПО.\n\n📌Что мы ждем от тебя:\n• наличие опыта от 2 лет в направлениях QA или тестирования ПО;\n• понимание разницы между QA и тестированием ПО;\n• понимание особенностей гибких методологий;\n• уверенное владение техниками тест-дизайна;\n• знание клиент-серверной архитектуры;\n• понимание особенностей тестирования web, mobile и desktop приложений;\n• навык тестирования API;\n• написание запросов SQL;\n• опыт работы с системами контроля версий (git);\n• знание основных команд работы с консолью (Windows/Linux).\n\n📌Что мы предлагаем:\n• Полностью белая ЗП два раза в месяц;\n• Оформление по ТК РФ;\n• Высокий уровень экспертности внутри компании, которым мы делимся друг с другом;\n• Перспективы вертикального и горизонтального роста;\n• Работа на российских и международных проектах;\n• Оборудованное рабочее место и парк тестовых устройств;\n• Подготовка и прохождение сертификации ISTQB бесплатно;\n• Внутренние и внешние курсы, доклады, конференции;\n• Бесплатные чай, кофе, печеньки в офисе;\n• Корпоративная спортивная программа (оплата тематических секций, частичная компенсация абонемента);\n• Проведение летних и зимних корпоративов, дня именинника, совместные походы и т.д.\n\n📌Зарплата:\n• от 50 000 (Договорная, по итогу собеседования)\n\n☎️Контакты:\nKaterina","markup":[{"type":"hashtag","offset":6,"length":9,"data":"вакансия"},{"type":"hashtag","offset":16,"length":3,"data":"QA"},{"type":"hashtag","offset":20,"length":10,"data":"Ульяновск"},{"type":"hashtag","offset":31,"length":8,"data":"Саранск"},{"type":"hashtag","offset":40,"length":7,"data":"Казань"},{"type":"hashtag","offset":48,"length":7,"data":"Самара"},{"type":"hashtag","offset":56,"length":4,"data":"Уфа"},{"type":"hashtag","offset":61,"length":10,"data":"Краснодар"},{"type":"hashtag","offset":72,"length":5,"data":"офис"},{"type":"hashtag","offset":78,"length":17,"data":"удаленная_работа"}],"date":"2020-06-15T05:55:18+00:00","link":"tg://resolve?domain=qa_jobs&post=0","tags":[{"name":"qa"},{"name":"web"},{"name":"mobile"},{"name":"sql"},{"name":"git"},{"name":"windows"},{"name":"linux"}],"cities":[{"code":"ulyanovsk"},{"code":"saransk"},{"code":"kazan"},{"code":"samara"},{"code":"ufa"},{"code":"krasnodar"}],"allowsRemote":true}},{"node":{"__typename":"Job","id":"71269613568-1001054966032","title":"Mobile разработчик","text":"#вакансия #reactnative\nГород и адрес офиса: #Екатеринбург\nФормат работы: #удаленка\nЗанятость: полная\nКомпания: Just Search (https://just-search.net/)\nЗарплатная вилка: 120 - 140к (на руки)\n\nВсем привет! Меня зовут Валентина, я IT-рекрутер.  \nИщу разработчика на React Native \nМой клиент - компания из Екатеринбурга. Команда разрабатывает в основном стартапы для России, Европы и Америки.\nНа данный момент у компании более 50 выполненных проектов в России, Канаде, Европе, Израиле, Сингапуре и США.\nОснователи компании сами разработчики, поэтому никакой бюрократии и странных решений, процессы максимально простые и понятные\nСтек технологии: react-native, typescript, react native cli (не expo)\n\nТребования:\n- опыт разработки на react native с использованием react native cli (не expo) от 2 лет;\n- владение typescript;\n- опыт создания pixel-perfect верстки по макетам из figma (или аналогичных платформ) от 2 лет.\n\nЗадачи, которые предстоит решать:\n- интеграция со списком контактов;\n- интеграция с календарем;\n- отправка сообщений в установленные на смартфоне мессенджеры;\n- интеграция с фотокамерой;\n- отправка фотографий в популярные соцсети;\n- отправка почты через email-клиент смартфона;\n- совершение вызова с помощью смартфона;\n- реализация механизма автоматического уведомления о выходе новых версий приложения;\n- реализация поддержки нескольких языков (русский, английский);\n- реализация интерактивной карты.\n\nКонтакты: \nТелеграм @justsearchagency \nEmail: v.kazantseva@just-search.net","markup":[{"type":"hashtag","offset":0,"length":9,"data":"вакансия"},{"type":"hashtag","offset":10,"length":12,"data":"reactnative"},{"type":"hashtag","offset":44,"length":13,"data":"Екатеринбург"},{"type":"hashtag","offset":73,"length":9,"data":"удаленка"},{"type":"link","offset":124,"length":24,"data":"https://just-search.net/"},{"type":"handle","offset":1437,"length":17,"data":"justsearchagency"},{"type":"link","offset":1463,"length":28,"data":"mailto:v.kazantseva@just-search.net"}],"date":"2020-06-14T15:33:36+00:00","link":"tg://resolve?domain=mobile_jobs&post=0","tags":[{"name":"mobile"},{"name":"dotnet"},{"name":"reactjs"},{"name":"typescript"},{"name":"react-native"}],"cities":[],"allowsRemote":true}},{"node":{"__typename":"Job","id":"71216136192-1001054966032","title":"Android разработчик","text":"#вакансия #android #relocate #germany\n\nAndroid Developer  \n\nРелокация:🇩🇪 Германия, Дюссельдорф\nФормат работы: офис\nЗанятость: полная\nЗ/п: брутто - от 36000€  до 50000€ в год\nнетто - от 1800€ в месяц - (в среднем 40% налогов для неженатого человека) \n\nВ общем:👌 Компания troido ищет Android разработчиков в свою команду, помогает с релокацией (трудоустройство по голубой карте), предоставляет идеальные условия для развития и работы (4 рабочих дня + 1 день для обучения), а также конкурентную, постоянно возрастающую заработную плату (компания оплачивает сертификаты - вы их получаете - зарплата возрастает). Важны хорошие знания английского и android-разработки.\n\nМы ждём от будущего сотрудника:🙃\n • От 2-х лет опыта работы с Android SDK и Java\n • Хорошее знание Kotlin и Git\n • Способность писать чистый и тестируемый код\n • Хорошее знание английского языка (Upper intermediate и выше)\n • Бонус: знание популярных фреймворков RxJava, Dagger2\n • Бонус: знание архитектурных паттернов  (MVC, MVP, or MVVM)\n • Наличие высшего образование (это условие для предоставления голубой карты)\n  \nКомпания предлагает:👍\n • Конкурентyую заработную плату и бонусы\n • 4-х дневную рабочую неделю \n • План персонального развития\n • Современное оборудование\n • Бесплатные книги\n • Конференции\n • Курсы немецкого языка для ассимиляции в немецком обществе\n • Общепринятые плюшки в мире айти (снэки, барбeкю, тимбилдинг и всё такое)\n\nЧем занимаемся:🥳\nКомпания является синергией аутсорсинговой компании, которая предоставляет разработчиков другим компаниям и продуктовой компании(имеются свои проекты над которыми также идет работа)\n\nПолезные видеоматериалы:🎬\n • О компании\n • О Дюссельдорфе\n • О Развитии в компании\n • О Тимбилдинге\n\nНе теряй свой шанс пиши сюда: @Giorgi_qvark","markup":[{"type":"hashtag","offset":0,"length":9,"data":"вакансия"},{"type":"hashtag","offset":10,"length":8,"data":"android"},{"type":"hashtag","offset":19,"length":9,"data":"relocate"},{"type":"hashtag","offset":29,"length":8,"data":"germany"},{"type":"bold","offset":39,"length":18,"data":""},{"type":"bold","offset":60,"length":10,"data":""},{"type":"bold","offset":97,"length":14,"data":""},{"type":"bold","offset":117,"length":9,"data":""},{"type":"bold","offset":135,"length":4,"data":""},{"type":"italic","offset":140,"length":60,"data":""},{"type":"bold","offset":253,"length":7,"data":""},{"type":"link","offset":273,"length":6,"data":"https://www.troido.de/en/"},{"type":"italic","offset":346,"length":32,"data":""},{"type":"italic","offset":436,"length":35,"data":""},{"type":"italic","offset":536,"length":72,"data":""},{"type":"bold","offset":632,"length":11,"data":""},{"type":"bold","offset":646,"length":51,"data":""},{"type":"italic","offset":864,"length":25,"data":""},{"type":"italic","offset":1041,"length":44,"data":""},{"type":"bold","offset":1090,"length":19,"data":""},{"type":"bold","offset":1418,"length":14,"data":""},{"type":"bold","offset":1619,"length":24,"data":""},{"type":"link","offset":1649,"length":11,"data":"https://1180390772.rsc.cdn77.org/troidorecruiting.m4v"},{"type":"link","offset":1663,"length":15,"data":"https://1180390772.rsc.cdn77.org/duesseldorf.mp4"},{"type":"link","offset":1681,"length":22,"data":"https://1180390772.rsc.cdn77.org/persdev.mp4"},{"type":"link","offset":1706,"length":15,"data":"https://1180390772.rsc.cdn77.org/teambuilding.mp4"},{"type":"handle","offset":1751,"length":13,"data":"Giorgi_qvark"}],"date":"2020-06-13T12:26:32+00:00","link":"tg://resolve?domain=mobile_jobs&post=0","tags":[{"name":"mobile"},{"name":"android"},{"name":"java"},{"name":"kotlin"},{"name":"git"},{"name":"mvvm"}],"cities":[],"allowsRemote":false}},{"node":{"__typename":"Job","id":"71214039040-1001054966032","title":"Ios разработчик","text":"#вакансия #iOS \n\nНа проект от крупного российского банка требуется Middle iOS разработчик\n\nФормат: офис/удаленка \n\nВилка ЗП: 150-180К\n\nЛокация: Москва/СПБ\n\nТребования:\nОпыт разработки под IOS (Objective-C или Swift) от 2 лет\nУверенное знание iOS SDK, Xcode\nОпыт использования одной из архитектур: MVP, MVVM, VIPER\nЗнание особенностей: Collections, Optionals, Protocol Oriented, Generics\nПонимание, как происходит управление памятью в iOS\nПонимание принципов проектирования SOLID и желание придерживаться их\nНаличие опыта работы с REST API, HTTP, JSON, APNs\nОпыт работы с Git, знание git flow\nЖелательно уметь писать UI тесты\nЖелателен опыт в команде\n\nКонтакт: @mxm_at","markup":[{"type":"hashtag","offset":0,"length":9,"data":"вакансия"},{"type":"hashtag","offset":10,"length":4,"data":"iOS"},{"type":"handle","offset":660,"length":7,"data":"mxm_at"}],"date":"2020-06-13T11:49:54+00:00","link":"tg://resolve?domain=mobile_jobs&post=0","tags":[{"name":"mobile"},{"name":"ios"},{"name":"objective-c"},{"name":"swift"},{"name":"xcode"},{"name":"mvvm"},{"name":"rest"},{"name":"json"},{"name":"git"}],"cities":[{"code":"moscow"}],"allowsRemote":true}},{"node":{"__typename":"Job","id":"71194116096-1001054966032","title":"Android developer","text":"#вакансия #Android #Java #middle #офис #Москва\n📣Разыскиваем Middle Android developer в новый проект от Сбербанка.\n\n💵Уровень ЗП: 220К-310К net (в зависимости от типа оформления).\n\n📝Оформление: ИП или штат компании партнера.\n\n📍Локация: офис в г.Москва, Кутузовский проспект.\n\n🧑‍💻О проекте: Разработка чата и видеозвонка с целью реализовать единое рабочее место оператора для дополнительного канала обслуживания. С помощью чатов клиент сможет переписываться со своим дистанционным клиентским менеджером по премиальному каналу в МП СБОЛ, с возможностью передачи файлов. Видеозвонок позволит установить визуальный контакт клиентом со своим менеджером с возможностью показа презентаций. На базе удаленных каналов обслуживания планируется реализовать возможность удаленного предоставления клиенту всего спектра продуктов банка.\n\n🎯Наш стек: Java, ООП, потоки и синхронизация, SOLID, clean architecture, LinkedList и ArrayList, recyclerView, виды Layout, паттерны MVP, MMVM,unit tests, коллекции, жизненному циклу активити и фрагмента.\n\nЖду Ваши резюме и буду рада ответить на все вопросы☺️\nКонтакты для связи: telegram @anisimovaane4ka","markup":[{"type":"hashtag","offset":0,"length":9,"data":"вакансия"},{"type":"hashtag","offset":10,"length":8,"data":"Android"},{"type":"hashtag","offset":19,"length":5,"data":"Java"},{"type":"hashtag","offset":25,"length":7,"data":"middle"},{"type":"hashtag","offset":33,"length":5,"data":"офис"},{"type":"hashtag","offset":39,"length":7,"data":"Москва"},{"type":"handle","offset":1118,"length":16,"data":"anisimovaane4ka"}],"date":"2020-06-12T21:20:16+00:00","link":"tg://resolve?domain=mobile_jobs&post=0","tags":[{"name":"mobile"},{"name":"android"},{"name":"java"},{"name":"dotnet"}],"cities":[{"code":"moscow"}],"allowsRemote":true}},{"node":{"__typename":"Job","id":"71186776064-1001054966032","title":"Ios разработчик","text":"#вакансия #ios #swift #middle #senior #удаленка #remote #fulltime\n\niOS-разработчик удаленно от 200 тыс. руб.\n\nГород: Москва\nФормат работы: удаленно\nЗанятость: полная\nЗарплатная вилка: от 200 000 руб. до 250 000 руб. после налогообложения\nКомпания: CORE https://core.company\nОписание вакансии:\n\nМы команда разработчиков мобильных приложений и сейчас мы ищем iOS-разработчика для одного из наших финтех-проектов.\n\nОсновные требования:\n— Опыт работы от 2-х лет;\n— Знание Objective-C и Swift;\n— Опыт работы с Rx;\n— Знание шаблонов проектирования и умение их применять;\n— Понимание принципов SOLID;\n— Знание основных алгоритмов и структур данных;\n— Умение писать поддерживаемый и тестируемый код.\n\nУсловия:\n— Полный день, гибкий график;\n— Оформление по договору ГПХ.\n\nПрисылайте ваше резюме на @tv_corecompany","markup":[{"type":"hashtag","offset":0,"length":9,"data":"вакансия"},{"type":"hashtag","offset":10,"length":4,"data":"ios"},{"type":"hashtag","offset":15,"length":6,"data":"swift"},{"type":"hashtag","offset":22,"length":7,"data":"middle"},{"type":"hashtag","offset":30,"length":7,"data":"senior"},{"type":"hashtag","offset":38,"length":9,"data":"удаленка"},{"type":"hashtag","offset":48,"length":7,"data":"remote"},{"type":"hashtag","offset":56,"length":9,"data":"fulltime"},{"type":"link","offset":253,"length":20,"data":"https://core.company"},{"type":"handle","offset":789,"length":15,"data":"tv_corecompany"}],"date":"2020-06-12T17:56:19+00:00","link":"tg://resolve?domain=mobile_jobs&post=0","tags":[{"name":"mobile"},{"name":"ios"},{"name":"swift"},{"name":"objective-c"}],"cities":[{"code":"moscow"}],"allowsRemote":true}}]}}},"context":{}}