{"hash":"f34fd2c444a074f4e0e67d525015a008ef8e766f","data":{"records":{"id":"ansible","name":"ansible","belongsTo":{"totalCount":59,"pageInfo":{"totalPages":6,"currentPage":6},"edges":[{"node":{"__typename":"Job","id":"1886388224-1001134745498","title":"Devops инженер","text":"#вакансия \nВакансия: #devops  #fulltime #office\nКомпания: #нспк #псмир\nЛокация: #томск\nЗ/п: 100к-180к net (после вычета налогов)\n\n«Национальная система платежных карт» ищет DevOps-инженера.\n\nНСПК - развивающаяся компания, создающая финтех-сервисы, которыми пользуются миллионы людей. \n\nЗа 5 лет нашей истории мы разработали бизнес-продукты, аналоги которых в мире можно пересчитать по пальцам:\n✔️Платежная система \"Мир\";\n✔️Система быстрых платежей;\n✔️Программа лояльности \"Мир\";\n✔️Сервис мобильной оплаты MirPay;\n✔️Система аутентификации пользователей MirAccept.  \n\n⛏ Наш стек:  \nLinux, Docker, Git, Jenkins, Nexus, Ansible, Groovy, Python, Java, Spring, Gradle, MySql, Nginx, HAProxy, Kafka, Hazelcast, Prometheus, ELK, Atlassian stack. \n\n🧠 Какие у нас бывают задачи?\n- Написание конвейеров (CI/CD); \n- Автоматизация процессов создания окружений инфраструктуры разработки (репозитории, типовые job CI, RBAC, Ansible roles);\n- Автоматизация housekeeping. \n\n🎁 Мы предлагаем:\n- Работу в команде профессионалов;\n- Обучение за счет компании;\n- Развитую корпоративную культуру;\n- ДМС со стоматологией, официальное трудоустройство; \n- Комфортный офис в центре;\n- Чай, кофе, печеньки✌️\n\nХотите поучаствовать в масштабном и сложном проекте?\n\nМои контакты:\n📲 +7-916-051-20-63\n      @Ekaterina1915 \n\n📩 makarovaen@nspk.ru\n\n—\n\n👉 Обсуждение вакансии в чате @devops_jobs","markup":[{"type":"hashtag","offset":0,"length":9,"data":"вакансия"},{"type":"hashtag","offset":21,"length":7,"data":"devops"},{"type":"hashtag","offset":30,"length":9,"data":"fulltime"},{"type":"hashtag","offset":40,"length":7,"data":"office"},{"type":"hashtag","offset":58,"length":5,"data":"нспк"},{"type":"hashtag","offset":64,"length":6,"data":"псмир"},{"type":"hashtag","offset":80,"length":6,"data":"томск"},{"type":"link","offset":1253,"length":16,"data":"tel:+7-916-051-20-63"},{"type":"handle","offset":1276,"length":14,"data":"Ekaterina1915"},{"type":"link","offset":1296,"length":18,"data":"mailto:makarovaen@nspk.ru"},{"type":"handle","offset":1349,"length":12,"data":"devops_jobs"}],"date":"2020-03-12T08:17:51+00:00","link":"tg://resolve?domain=devops_jobs_feed&post=1799","tags":[{"name":"dotnet"},{"name":"linux"},{"name":"docker"},{"name":"git"},{"name":"jenkins"},{"name":"ansible"},{"name":"groovy"},{"name":"python"},{"name":"java"},{"name":"spring"},{"name":"gradle"},{"name":"mysql"},{"name":"nginx"},{"name":"kafka"}],"cities":[{"code":"tomsk"}],"allowsRemote":false}},{"node":{"__typename":"Job","id":"1882193920-1001134745498","title":"Devops инженер","text":"#вакансия #devops  #москва\n\nВакансия: DevOps\nКомпания: IBS https://www.ibs.ru/\nФормат работы: офис, возможна частичная удаленка\nГород: Москва (м. Дмитровская)\nЗП вилка: 150-230 тыс. руб. гросс\n\nОбязанности:\n•  Организация процесса непрерывной сборки приложений (CI) на базе TC\n•  Участие в разработке скриптов автоматизированного развёртывания приложений (ansible, bash)\n•  Участие в разработке/доработке технической архитектуры системы (совместно с архитектором системы), составление требований к серверам и системному ПО\n•  Сборка и развертывание приложений/разработок на разработческой, тестовой и продуктивных средах (участие, организация и настройка процесса)\n•  Мониторинг работы системы/компонентов системы, проработка принципов отказоустойчивости инфраструктуры\n•  Установка и настройка системного ПО, включая БД и прочего ПО\n•  Диагностика и устранение проблем с системным ПО и прочим ПО, решение проблем по производительности (в части системного ПО, настройки БД и прочего ПО)\n•  Организация и проведение автоматического тестирования, включая нагрузочное.\n•  Развертывание и сопровождение инструментов разработки: Gitlab, Confluence, Jira, TestRail\n•  Автоматизация деплоя стендов разработки и тестирования.\n\nТребования:\n•  Понимание и опыт поддержки, устранения проблем с сетевыми сервисами Linux\n•  Понимание принципов построения отказоустойчивых систем\n•  Опыт настройки или сопровождения CI/СD (TeamCity) и опыт автоматизации с использованием Ansible\n•  Владение Bash и/или Python\n•  Наличие опыта настройки и управления Nginx и HAProxy\n•  Знание принципов балансировки нагрузки (например, HAProxy и Citrix NetScaler)\n•  Умение работать с инструментами мониторинга Zabbix/Nagios или их аналогами.\n\nУсловия:\n•  Работа в лидирующей IT компании, профессиональное развитие\n•  Конкурентная заработная плата по результатам собеседования, ежегодный ее пересмотр\n•  Работа в команде с сильной экспертизой\n•  Обучение, участие в корпоративных тренингах/семинарах, наставничество\n•  Социальный пакет, оформление по ТК РФ\n•  Испытательный срок 3 месяца\n•  Офис Москва, м.Дмировская\n\nЕще больше о компании https://www.facebook.com/IBS.ru\n\nКонтакты: opankina@ibs.ru @itgig\n\n—\n\n👉 Обсуждение вакансии в чате @devops_jobs","markup":[{"type":"hashtag","offset":0,"length":9,"data":"вакансия"},{"type":"hashtag","offset":10,"length":7,"data":"devops"},{"type":"hashtag","offset":19,"length":7,"data":"москва"},{"type":"link","offset":59,"length":19,"data":"https://www.ibs.ru/"},{"type":"link","offset":2108,"length":31,"data":"https://www.facebook.com/IBS.ru"},{"type":"link","offset":2151,"length":15,"data":"mailto:opankina@ibs.ru"},{"type":"handle","offset":2167,"length":6,"data":"itgig"},{"type":"handle","offset":2208,"length":12,"data":"devops_jobs"}],"date":"2020-03-11T09:14:08+00:00","link":"tg://resolve?domain=devops_jobs_feed&post=1795","tags":[{"name":"ansible"},{"name":"bash"},{"name":"gitlab"},{"name":"linux"},{"name":"python"},{"name":"nginx"}],"cities":[{"code":"moscow"}],"allowsRemote":true}},{"node":{"__typename":"Job","id":"1881145344-1001134745498","title":"Devops engineer","text":"#вакансия #DevOps #fulltime #москва\n\nDevOps Engineer\nГород: Москва\nФормат работы: офис \nЗанятость: полная\nЗП вилка 160-220 тысяч\n\ninDriver - международный ride-hailing сервис:\n* 47 млн пользователей в 31 стране мира.\n* Входим в топ-5 мобильных сервисов для заказа поездки по итогам января 2020 года.\n* Офис возле м. Улица 1905 года.\n\nОбязанности:\n• Настройка и поддержка инфраструктуры для разработки (сервера, docker, kubernetes, helm)\n• Внедрение и поддержка Kubernetes в production\n• Создание Helm Charts\n• Настройка пайплайнов для процессов CI/CD (TeamCity)\n• Повышение отказоустойчивости работы сервисов\n\nТребования:\n• Опыт работы с операционными системами семейства Linux (CentOS/RHEL)\n• Опыт внедрения и использования Kubernetes в production\n• Опыт настройки и работы с nginx, MySQL, Redis, Prometheus, ClickHouse\n• Опыт работы с облачными провайдерами: GCP, AWS, Azure\n• Опыт использования Ansible и написания ролей и плейбуков\n• Опыт поддержки высоконагруженных сервисов на базе ОС Linux\n• Умение читать и разбираться в чужом коде: Go, PHP\n\nКонтакт для связи: @mariamolko\n\n—\n\n👉 Обсуждение вакансии в чате @devops_jobs","markup":[{"type":"hashtag","offset":0,"length":9,"data":"вакансия"},{"type":"hashtag","offset":10,"length":7,"data":"DevOps"},{"type":"hashtag","offset":18,"length":9,"data":"fulltime"},{"type":"hashtag","offset":28,"length":7,"data":"москва"},{"type":"handle","offset":1069,"length":11,"data":"mariamolko"},{"type":"handle","offset":1115,"length":12,"data":"devops_jobs"}],"date":"2020-03-11T09:14:00+00:00","link":"tg://resolve?domain=devops_jobs_feed&post=1794","tags":[{"name":"docker"},{"name":"kubernetes"},{"name":"linux"},{"name":"centos"},{"name":"nginx"},{"name":"mysql"},{"name":"redis"},{"name":"google-cloud-platform"},{"name":"amazon-web-services"},{"name":"azure"},{"name":"ansible"},{"name":"php"}],"cities":[{"code":"moscow"}],"allowsRemote":false}},{"node":{"__typename":"Job","id":"1880096768-1001134745498","title":"Devops инженер","text":"#вакансия #НижнийНовгород\n\nАдрес: Нижний Новгород (рассматриваем так же тех, кто готов переехать, предлагаем полный релокационный пакет);\nФормат работы: Офис;\nЗарплатная вилка: 150-250 net\n\nВсем привет! В международной IT компании all.me открыта горящая вакансия \"DevOps\"!\n\nМы активно используем облачные технологии, расширяемся и ищем в команду увлеченных DevOps инженеров, готовых творить что-то новое, активно учиться и решать технические проблемы любой сложности.\n\nЗадачи:\n\nПроектирование, внедрение и сопровождение инфраструктуры программных продуктов компании\nРазработка и поддержка CI/CD\nСопровождение процесса разработки и консультация разработчиков\nКакие технологии используем:\n\nKubernetes и Helm\nTerraform и Ansible\nMongoDB, Elasticsearch, Clickhouse, PostgreSQL, Redis\nRabbitMQ, NATS, ActiveMQ\nТребования:\n\nРабота в highload-проектах от 2 лет\nОтличное знание LInux\nУверенная работа с Kubernetes\nОпыт работы с облачными провайдерами, преимущественно AWS\nВладение каким либо языком программирования: Python, Javascript, Go. Знание всех языков из этого списка будет особым плюсом.\nУсловия:\n\nМеждународная команда профессионалов\nКонкурентная заработная плата, по результатам собеседования;\nКарьерный рост, профессиональное развитие\nОтличный старт для начинающих специалистов\nУникальные мотивационные программы\nПрограмма ДМС “Премиум”\nКорпоративная онлайн-библиотека\nАктивная корпоративная жизнь\nНовейшее оборудование на выбор\nКомфортабельный офис с современным дизайном\n\nПо всем вопросам можно обращаться в личку, либо на почту Oleg.Oltybaev@all.me\n\n—\n\n👉 Обсуждение вакансии в чате @devops_jobs","markup":[{"type":"hashtag","offset":0,"length":9,"data":"вакансия"},{"type":"hashtag","offset":10,"length":15,"data":"НижнийНовгород"},{"type":"link","offset":231,"length":6,"data":"http://all.me"},{"type":"link","offset":1535,"length":20,"data":"mailto:Oleg.Oltybaev@all.me"},{"type":"handle","offset":1590,"length":12,"data":"devops_jobs"}],"date":"2020-03-11T06:58:26+00:00","link":"tg://resolve?domain=devops_jobs_feed&post=1793","tags":[{"name":"dotnet"},{"name":"kubernetes"},{"name":"ansible"},{"name":"mongodb"},{"name":"elasticsearch"},{"name":"postgresql"},{"name":"redis"},{"name":"rabbitmq"},{"name":"linux"},{"name":"amazon-web-services"},{"name":"python"},{"name":"javascript"}],"cities":[{"code":"nizhny-novgorod"}],"allowsRemote":false}},{"node":{"__typename":"Job","id":"1879048192-1001134745498","title":"Devops инженер","text":"#вакансия #МСК #работаDevOps #seniorDevOps \n\nГород и адрес офиса: Москва; м.Арбатская\nФормат работы: офисная\nЗанятость: полная\nЗарплатная вилка: 100-200 gross + 25% бонус \nОписание вакансии:  \n\nПроект: платформа для финансовых услуг . \nДанный проект является новым продуктом компании. Поэтому одним из преимуществ является отсутсвие легасикода.Полностью новая разработка с нуля. \n\nЗадачи:  \n- Поддержка CI/CD инфраструктуры для разработки, тестирования (Jenkins, Kubernetes и др.)\n- Автоматизация задач (Bash / Python / Groovy)\n- Настройка ОС Linux и необходимого системного ПО под созданную архитектуру\n- Обновление и установка нового ПО на сервера Linux \n- Мониторинг работы сервиса и серверов (Zabbix, Prometheus, ELK Stack) снятие логов, оптимизация \n- Взаимодействие с командой разработчиков и совместное решение задач \n- Ведение технической документации по администрируемым сервисам и решениям \n\nТребования:  \n- Знание Linux, опыт работы с Linux от 3 лет \n- Опыт работы с CentOS (RHEL) от года \n- Опыт работы с Kubernetes и docker \n- Опыт работы с Kafka \n- Опыт работы с Zabbix, умение добавить дополнительные метрики для мониторинга  \n- Умение писать скрипты на bash \n- Умение локализовать проблему до точки отказа и объяснить это профильному специалисту для её решения \n- Опыт автоматизации на основе configuration managers: ansible, saltstack будет дополнительным преимуществом \n\nУсловия:  \n- Оформление по ТК  \n\nНазвание компании:https://ru.globalcareer.eu/  (Global Career)\n\nКонтакты: @EkaterinaHRecruiter\n\n—\n\n👉 Обсуждение вакансии в чате @devops_jobs","markup":[{"type":"hashtag","offset":0,"length":9,"data":"вакансия"},{"type":"hashtag","offset":10,"length":4,"data":"МСК"},{"type":"hashtag","offset":15,"length":13,"data":"работаDevOps"},{"type":"hashtag","offset":29,"length":13,"data":"seniorDevOps"},{"type":"link","offset":1440,"length":27,"data":"https://ru.globalcareer.eu/"},{"type":"handle","offset":1496,"length":20,"data":"EkaterinaHRecruiter"},{"type":"handle","offset":1551,"length":12,"data":"devops_jobs"}],"date":"2020-03-11T05:08:14+00:00","link":"tg://resolve?domain=devops_jobs_feed&post=1792","tags":[{"name":"jenkins"},{"name":"kubernetes"},{"name":"bash"},{"name":"python"},{"name":"groovy"},{"name":"linux"},{"name":"centos"},{"name":"docker"},{"name":"kafka"},{"name":"ansible"}],"cities":[{"code":"moscow"}],"allowsRemote":false}},{"node":{"__typename":"Job","id":"216006656-1001352129329","title":"Golang разработчик","text":"и ещё одна golang-вакансия от нас\n#вакансия\n\nGolang backend developer в питерский офис компании Cryptopay (СПб).\n\nОдин из наших продуктов - Buy Now, сервис по продаже криптовалют с оплатой по банковской карте. В наших планах превращение данного продукта в полноценный платежный шлюз для приема фиатных платежей и их обмена на криптовалюту, способный к интеграции со сторонними сервисами. Для BuyNow мы ищем Golang-разработчика, готового улучшать и поддерживать продукт, а так же расти и развивать команду.\n\nЧто нужно будет делать:\n🔸Проектировать и создавать сервисную архитектуру приложения\n🔸Переработать существующие модули системы\n🔸Разрабатывать новую функциональность\n🔸Проводить code review\n🔸Развивать инструменты мониторинга и обработки нештатных ситуаций\n🔸Разрабатывать высоконагруженные API\n🔸Анализировать поступающие задачи и находить оптимальные пути реализации\n\nПридется погрузиться в:\n🔸Распределенные системы;\n🔸Криптографию и работу с конфиденциальными данными;\n🔸Финтех и математику.\n\nВ работе мы используем:\n🔸Golang\n🔸Vue\n🔸PostgreSQL;\n🔸Redis;\n🔸Docker;\n\nТакже не помешает:\n🔸Опыт работы с Prometheus;\n🔸Опыт профилирования Golang-приложений;\n🔸Наличие опыта работы с криптовалютами;\n🔸Опыт работы с Ansible;\n\nЧто мы можем предложить:\n🔸Сплоченную и дружную команду, работающую на результат\n🔸Минимум бюрократии и микроменеджмента\n🔸Максимум поддержки и открытости\n🔸Индивидуальный подход к распределению задач и определению зон ответственности\n🔸Непростые задачи и интересные проекты\n🔸Возможность влиять на процессы и результат\n🔸Гибкий график\n🔸Возможность периодической удаленной работы\n🔸Конкурентную зарплату\n🔸Трудоустройство по ТК РФ\n\nЗарплата: от 200к на руки (смотрим кандидатов разного уровня, потолка нет) Пусть будут условные 300.\nВозможна удаленная работа после прохождения испытательного срока.\n\nКонтакты: @gonzogirl\n Автор @gonzogirl","markup":[{"type":"hashtag","offset":34,"length":9,"data":"вакансия"},{"type":"handle","offset":1844,"length":10,"data":"gonzogirl"},{"type":"handle","offset":1862,"length":10,"data":"gonzogirl"}],"date":"2020-01-31T11:21:55+00:00","link":"tg://resolve?domain=gogetajobfeed&post=206","tags":[{"name":"go"},{"name":"vuejs"},{"name":"postgresql"},{"name":"redis"},{"name":"docker"},{"name":"ansible"}],"cities":[],"allowsRemote":true}},{"node":{"__typename":"Job","id":"214958080-1001352129329","title":"Go developer","text":"#вакансия #fulltime #remote #office #relocate #Amsterdam\n\nSenior Software Engineer - Kickstox (Amsterdam, The Netherlands)\n€48.000 - €58.000 / year (gross)\n\nAt Kickstox we have the modest goal of reinventing fantasy football and transforming it into a 24/7, real time game that allows football fans to meet, greet and compete. For this we have created the Kickstox exchange where users can trade fictional stocks of their favourite football players, check how they perform in real-time, compete in different competition formats and challenge their friends to prove them they know best about football, every day – every play!\nWe need you to be the best of both worlds; a manager who takes complete control of the Tech team and also a creative, senior back-end developer that is not afraid to get his or her hands dirty. The foundations have been laid but the quest to expand and improve is never ending and for that we look to you. You are in charge of reaching the milestones, building responsive and elegant web applications, improve usability and customer experience and find solutions to the everyday challenges that come up.\nYou will have a small team of different skill sets to manage with a high probability of expansion in the near future. \n\nYour skills:\nA great sense of ownership and responsibility\nInsightfulness and a hawk’s eye for detail\nConstant drive to grow fast and improve yourself\nA problem-solving mindset that thinks in solutions\nResourcefulness, thinking creatively and optimistically \nProven experience with managing multi-talented and multi-national teams\nProject management with teams of varying technical skills using scrum protocols\nFull professional command of English\n\nProfound working knowledge with:\n▪ Go \n▪ Postgres(TimescaleDB)\n▪ Redis\n▪ RabbitMQ\n▪ MQTT/Websocket\n\nOur infrastructure runs over Google Cloud Platform using Docker, Kubernetes and Gitlab. And is provisioned by Ansible.\n\nAnd a love for the beautiful game is definitely a pro!\n\nWhat can we offer\nAs a key part of the technical heart of the company you get the freedom to think and work out new functions. Ideas and suggestions are greatly appreciated and more importantly, they are listened to. We want to expand and rapidly conquer this market in the coming years. This offers opportunity for you to become included in the success of the company.\n\nContact @cra3y\n Автор @cra3y","markup":[{"type":"hashtag","offset":0,"length":9,"data":"вакансия"},{"type":"hashtag","offset":10,"length":9,"data":"fulltime"},{"type":"hashtag","offset":20,"length":7,"data":"remote"},{"type":"hashtag","offset":28,"length":7,"data":"office"},{"type":"hashtag","offset":36,"length":9,"data":"relocate"},{"type":"hashtag","offset":46,"length":10,"data":"Amsterdam"},{"type":"handle","offset":2353,"length":6,"data":"cra3y"},{"type":"handle","offset":2367,"length":6,"data":"cra3y"}],"date":"2020-01-31T11:21:41+00:00","link":"tg://resolve?domain=gogetajobfeed&post=205","tags":[{"name":"go"},{"name":"playframework"},{"name":"web"},{"name":"postgresql"},{"name":"redis"},{"name":"rabbitmq"},{"name":"websocket"},{"name":"cloud"},{"name":"docker"},{"name":"kubernetes"},{"name":"gitlab"},{"name":"ansible"},{"name":"google-cloud-platform"}],"cities":[{"code":"amsterdam"}],"allowsRemote":true}},{"node":{"__typename":"Job","id":"205520896-1001352129329","title":"Golang developer","text":"Всем опять привет. Продолжаем искать того самого гошника 🙂\n\nМисс Кутёж, [9 Jan 2020, 16:09:20]:\n#вакансия\n\nGolang backend developer в питерский офис компании Cryptopay (СПб).\n\nУже больше 5 лет Cryptopay помогает людям со всего мира распоряжаться своими криптоактивами. Мы - сильная, слаженная команда, но внезапно потеряли golang-бойца.\n\nЧто нужно будет делать:\n🔸Разработка сервисов для использования их в основном приложении\n🔸Поддержка существующих продуктов на Golang\n🔸Сопровождение проекта от оценки до поддержки\n\nНаши ожидания:\n🔸Отличные знания Golang\n🔸Хорошие знания PostgreSQL\n🔸Опыт работы с: Redis, RabbitMQ, ELK\n🔸Опыт работы с: Docker\n🔸Умение работать с чужим кодом\n🔸Отличная самоорганизация\n\nБудет плюсом:\n🔸Знание/Умение читать код Ruby и Ruby on Rails\n🔸Опыт работы с gRPC\n🔸Опыт работы с NATS\n🔸Опыт профилирования Golang приложений\n🔸Наличие опыта работы с криптовалютами\nОпыт работы с Ansible\n🔸Английский язык, чтобы было комфортней общаться с европейским офисом\n\nТехническая составляющая проекта:\n\nНаш кошелек сейчас проходит этап роста - мы разделяем монолитный проект на микросервисы, переходим на SPA, оптимизируем AWS инфраструктуру. \n\nНаш стэк - #Ruby #RoR #GoLang #PostgreSQL #Sidekiq #Redis #Elasticsearch #gRPC #NATS.\n\nОчень большим плюс будет наличие опыта в финтехе / крипто индустрии.\n\nЗарплата: от 200к на руки (смотрим кандидатов разного уровня, потолка нет) Пусть будут условные 300.\nВозможна удаленная работа после прохождения испытательного срока.\n\nКонтакты: @gonzogirl\n\nIlya Kaznacheev🥤, [9 Jan 2020, 16:30:34 (09.01.2020, 16:30:41)]:\nЧто, все ещё никто не может пройти ваш тест?)))\n Автор @gonzogirl","markup":[{"type":"hashtag","offset":97,"length":9,"data":"вакансия"},{"type":"hashtag","offset":1177,"length":5,"data":"Ruby"},{"type":"hashtag","offset":1183,"length":4,"data":"RoR"},{"type":"hashtag","offset":1188,"length":7,"data":"GoLang"},{"type":"hashtag","offset":1196,"length":11,"data":"PostgreSQL"},{"type":"hashtag","offset":1208,"length":8,"data":"Sidekiq"},{"type":"hashtag","offset":1217,"length":6,"data":"Redis"},{"type":"hashtag","offset":1224,"length":14,"data":"Elasticsearch"},{"type":"hashtag","offset":1239,"length":5,"data":"gRPC"},{"type":"hashtag","offset":1245,"length":5,"data":"NATS"},{"type":"handle","offset":1501,"length":10,"data":"gonzogirl"},{"type":"handle","offset":1634,"length":10,"data":"gonzogirl"}],"date":"2020-01-17T14:02:05+00:00","link":"tg://resolve?domain=gogetajobfeed&post=196","tags":[{"name":"go"},{"name":"postgresql"},{"name":"redis"},{"name":"rabbitmq"},{"name":"docker"},{"name":"ruby"},{"name":"ruby-on-rails"},{"name":"ansible"},{"name":"amazon-web-services"},{"name":"elasticsearch"}],"cities":[],"allowsRemote":true}},{"node":{"__typename":"Job","id":"199229440-1001352129329","title":"Golang developer","text":"#вакансия\n\nGolang backend developer в питерский офис компании Cryptopay (СПб).\n\nУже больше 5 лет Cryptopay помогает людям со всего мира распоряжаться своими криптоактивами. Мы - сильная, слаженная команда, но внезапно потеряли golang-бойца.\n\nЧто нужно будет делать:\n🔸Разработка сервисов для использования их в основном приложении\n🔸Поддержка существующих продуктов на Golang\n🔸Сопровождение проекта от оценки до поддержки\n\nНаши ожидания:\n🔸Отличные знания Golang\n🔸Хорошие знания PostgreSQL\n🔸Опыт работы с: Redis, RabbitMQ, ELK\n🔸Опыт работы с: Docker\n🔸Умение работать с чужим кодом\n🔸Отличная самоорганизация\n\nБудет плюсом:\n🔸Знание/Умение читать код Ruby и Ruby on Rails\n🔸Опыт работы с gRPC\n🔸Опыт работы с NATS\n🔸Опыт профилирования Golang приложений\n🔸Наличие опыта работы с криптовалютами\nОпыт работы с Ansible\n🔸Английский язык, чтобы было комфортней общаться с европейским офисом\n\nТехническая составляющая проекта:\n\nНаш кошелек сейчас проходит этап роста - мы разделяем монолитный проект на микросервисы, переходим на SPA, оптимизируем AWS инфраструктуру. \n\nНаш стэк - #Ruby #RoR #GoLang #PostgreSQL #Sidekiq #Redis #Elasticsearch #gRPC #NATS.\n\nОчень большим плюс будет наличие опыта в финтехе / крипто индустрии.\n\nЗарплата: от 200к на руки (смотрим кандидатов разного уровня, потолка нет) Пусть будут условные 300.\nВозможна удаленная работа после прохождения испытательного срока.\n\nКонтакты: @gonzogirl\n Автор @gonzogirl","markup":[{"type":"hashtag","offset":0,"length":9,"data":"вакансия"},{"type":"hashtag","offset":1080,"length":5,"data":"Ruby"},{"type":"hashtag","offset":1086,"length":4,"data":"RoR"},{"type":"hashtag","offset":1091,"length":7,"data":"GoLang"},{"type":"hashtag","offset":1099,"length":11,"data":"PostgreSQL"},{"type":"hashtag","offset":1111,"length":8,"data":"Sidekiq"},{"type":"hashtag","offset":1120,"length":6,"data":"Redis"},{"type":"hashtag","offset":1127,"length":14,"data":"Elasticsearch"},{"type":"hashtag","offset":1142,"length":5,"data":"gRPC"},{"type":"hashtag","offset":1148,"length":5,"data":"NATS"},{"type":"handle","offset":1404,"length":10,"data":"gonzogirl"},{"type":"handle","offset":1422,"length":10,"data":"gonzogirl"}],"date":"2020-01-10T08:50:26+00:00","link":"tg://resolve?domain=gogetajobfeed&post=190","tags":[{"name":"go"},{"name":"postgresql"},{"name":"redis"},{"name":"rabbitmq"},{"name":"docker"},{"name":"ruby"},{"name":"ruby-on-rails"},{"name":"ansible"},{"name":"amazon-web-services"},{"name":"elasticsearch"}],"cities":[],"allowsRemote":true}}]}}},"context":{}}