{"hash":"f5f6bf98bd95e769321482904cbbd488f77922fd","data":{"records":{"totalCount":669,"pageInfo":{"totalPages":67,"currentPage":55},"edges":[{"node":{"id":"71425851392-1001054966032","title":"Android developer","text":"#вакансия #Juniorandroid #Android developer #kotlin #удаленно                                                                                                         Уровень дохода:💵 50 000-60 000  рублей net                                                                                                                                                                                 Требуемый опыт работы: от 1 года\nПолная занятость, дистанционно, гибкое начало рабочего дня\n \n📌Требования:\n- Нативная Android разработка (Kotlin)\n- Умение писать поддерживаемый и тестируемый код\n- Умение работать с Dagger 2\n- Умение работать с git\n- Желание развиваться и изучать новое в разработке\n- Опыт разработки приложений от 1 года\n -Знание английского языка от уровня Intermediate\n \n📌Будет плюсом:\n- Опыт работы с JNI\n- Опыт использования tensorflow\n- Опыт работы с аудио и видео\n\n📌Условия:\n- Отсутствие бюрократии\n- Время начала рабочего дня обговариваем индивидуально\n- Крутой инновационный проект - возможность самореализации и профессионального роста\n- Стабильное зарубежное финансирование\n- Десятки миллионов установок и множество глобальных партнёров\n📞Контакты @SvetikS_hr +7(963)-632-12-36 Cветлана","markup":[{"type":"hashtag","offset":0,"length":9,"data":"вакансия"},{"type":"hashtag","offset":10,"length":14,"data":"Juniorandroid"},{"type":"hashtag","offset":25,"length":8,"data":"Android"},{"type":"hashtag","offset":44,"length":7,"data":"kotlin"},{"type":"hashtag","offset":52,"length":9,"data":"удаленно"},{"type":"link","offset":184,"length":13,"data":"tel:50 000-60 000"},{"type":"handle","offset":1164,"length":11,"data":"SvetikS_hr"},{"type":"link","offset":1176,"length":17,"data":"tel:+7(963)-632-12-36"}],"date":"2020-06-16T18:45:45+00:00","link":"tg://resolve?domain=mobile_jobs&post=0","tags":[{"name":"mobile"},{"name":"android"},{"name":"kotlin"},{"name":"dotnet"},{"name":"git"},{"name":"tensorflow"}],"cities":[],"allowsRemote":true}},{"node":{"id":"102977503232-1001089317451","title":"Qa engineer","text":"#вакансия #работа #удалёнка #fulltime #qa\nДолжность : QA Engineer\nКомпания : 6nomads.com\nФормат работы: #fulltime #remote\nЗарплата: $ 40 000 в год\n\nМолодой стартап из Сан-Франциско, призванный упростить онлайн-коммуникации для бизнеса, недавно привлек $ 4 млн инвестиций и теперь ищет удаленного QA на фул-тайм. \n\nТребования: \n•  Опыт разработки тест кейсов от 2 лет;\n•  Опыт тестирования WEB, API и мобильных iOS/Android приложений;\n•  Умение анализировать логи серверов приложений и локализовать причину сбоя;\n• Опыт интеграционного тестирования систем;\n• Знание PL/SQL;\n• Уровень английского не ниже В2.\n\nБудет плюсом:\n• Опыт работы с Rest Assured, Selenium;\n• Опыт работы с WAS, WildFly и Nginx;\n• Умение работать в Redmine или Jira.\n\nКонтакт для связи: @nastya_stret","markup":[{"type":"hashtag","offset":0,"length":9,"data":"вакансия"},{"type":"hashtag","offset":10,"length":7,"data":"работа"},{"type":"hashtag","offset":18,"length":9,"data":"удалёнка"},{"type":"hashtag","offset":28,"length":9,"data":"fulltime"},{"type":"hashtag","offset":38,"length":3,"data":"qa"},{"type":"link","offset":77,"length":11,"data":"http://6nomads.com"},{"type":"hashtag","offset":104,"length":9,"data":"fulltime"},{"type":"hashtag","offset":114,"length":7,"data":"remote"},{"type":"handle","offset":758,"length":13,"data":"nastya_stret"}],"date":"2020-06-16T18:31:08+00:00","link":"tg://resolve?domain=qa_jobs&post=0","tags":[{"name":"qa"},{"name":"web"},{"name":"ios"},{"name":"android"},{"name":"sql"},{"name":"rest"},{"name":"selenium"},{"name":"nginx"}],"cities":[],"allowsRemote":true}},{"node":{"id":"71418511360-1001054966032","title":"Ios разработчик","text":"💪#вакансия #удалёнка #iOS #fulltime  #Middle+/#Senior    \n💵З/П 2200-2400 $/месяц по итогам собеседования\nРабота: удалёнка\n\nЧеловек в среднем больше сотни раз взаимодействует с клавиатурой своего мобильного устройства. Для большинства пользователей нашего приложения мы делаем этот процесс  интереснее и выгодней. Мы также оцениваем эмоциональное состояние пользователя, в процессе его взаимодействия с клавиатурой. Руководство компании из топ-менеджмента крупнейших глобальных игроков мобильного рынка. В данный момент открыта вакансия Middle+/Senior IOS разработчика, в подчинении 2 сотрудника                                                                                                               \n\n📌Обязанности:\n- Разработка кастомной клавиатуры iOS\n- Подключение ML-алгоритмов (TensorFlow) распознавания эмоций к iOS-клавиатуре\n- Разработка кода обработки данных камеры, микрофона\n\n📌Требования:\n- Уверенное знание Swift;\n- Хорошее знание платформы iOS, инструментов разработки, работы UI;\n- Опыт работы с REST API, HTTP, JSON, APNs;\n- Знакомство с библиотеками CoreData, AVFoundation, CoreML и CreateML\n- Желание развиваться и развивать свои знания            \n-Знание английского на уровне от Intermediate желательно                                                                                                               \n\n📌Будет плюсом:\n- Опыт работы c TensorFlow на iOS\n- Опыт работы с OpenCV на iOS\n- Опыт работы с фреймворком SwiftUI\n\n📌Условия:\n- Отсутствие бюрократии\n- Время начала рабочего дня обговариваем индивидуально\n- Come to the Dark Side, we have тёплая ламповая атмосфера стартапа, чай, кофе и печеньки!\n- Крутой инновационный проект - возможность самореализации и профессионального роста\n- Стабильное зарубежное финансирование\n- Десятки миллионов установок и множество глобальных партнёров\n📞 Контакты @SvetikS_hr +7(963)-632-12-36 Cветлана","markup":[{"type":"hashtag","offset":2,"length":9,"data":"вакансия"},{"type":"hashtag","offset":12,"length":9,"data":"удалёнка"},{"type":"hashtag","offset":22,"length":4,"data":"iOS"},{"type":"hashtag","offset":27,"length":9,"data":"fulltime"},{"type":"hashtag","offset":38,"length":7,"data":"Middle"},{"type":"hashtag","offset":47,"length":7,"data":"Senior"},{"type":"handle","offset":1841,"length":11,"data":"SvetikS_hr"},{"type":"link","offset":1853,"length":17,"data":"tel:+7(963)-632-12-36"}],"date":"2020-06-16T16:45:08+00:00","link":"tg://resolve?domain=mobile_jobs&post=0","tags":[{"name":"mobile"},{"name":"ios"},{"name":"tensorflow"},{"name":"swift"},{"name":"rest"},{"name":"json"},{"name":"opencv"}],"cities":[],"allowsRemote":true}},{"node":{"id":"91035271168-1001067529236","title":"Python разработчик","text":"#вакансия #python\n\nНазвание компании: Appello, appello.com.au\nОписание вакансии: Ищем в команду Python разработчика, Django/Flask. Удаленно, на долгий срок.\n\n-Опыт работы с Python 3, Django REST Framework (DRF);\n-Знание MySQL/PostgreSQL;\n-Конечно же Git;\n-Знание других технологий будет плюсом (NodeJS, RoR, Symfony или другое);\n-Круто если вы участвовали в open-source проектах;\n-Ссылки на выполненные проекты и примеры вашего кода;\n-Возможность работать 30+ часов в неделю;\n\nУсловия работы: \nУдаленно, фуллтайм 30-40 часов в неделю.\nРабота происходит с таймтрекером. Выплаты на основе отработанного времени 2 раза в месяц.\nТехнологии: #python, #django\nОфис или удаленка: #удаленка\nЗанятость: #полная\n\nЗарплатная вилка: 1100-1900$\nКонтакты: jobs@appello.com.au @stpa3k","markup":[{"type":"hashtag","offset":0,"length":9,"data":"вакансия"},{"type":"hashtag","offset":10,"length":7,"data":"python"},{"type":"link","offset":47,"length":14,"data":"http://appello.com.au"},{"type":"hashtag","offset":637,"length":7,"data":"python"},{"type":"hashtag","offset":646,"length":7,"data":"django"},{"type":"hashtag","offset":673,"length":9,"data":"удаленка"},{"type":"hashtag","offset":694,"length":7,"data":"полная"},{"type":"link","offset":742,"length":19,"data":"mailto:jobs@appello.com.au"},{"type":"handle","offset":762,"length":7,"data":"stpa3k"}],"date":"2020-06-16T16:26:20+00:00","link":"tg://resolve?domain=python_jobs&post=0","tags":[{"name":"python"},{"name":"django"},{"name":"flask"},{"name":"rest"},{"name":"mysql"},{"name":"postgresql"},{"name":"git"},{"name":"nodejs"},{"name":"ruby-on-rails"},{"name":"symfony"}],"cities":[],"allowsRemote":true}},{"node":{"id":"344981504-1001352129329","title":"Go разработчик","text":"#вакансия #go #релокейт #fulltime #oфис\nНазвание компании: Toughbyte \nНазвание вакансии: Senior Go Developer\nЗарплатная вилка (до налогов): 3500-5000 EUR\nДоступна ли удалённая работа: Нет, офис, полный день.\nГород: Helsinki, Espoo\nСписок языков, которые необходимо знать: Английский \n\nСписок необходимых навыков: Go и по крайней мере, еще один надежный статически типизированный язык бэкэнда (например, Haskell, Rust, C#, Scala, Java, Elixir).\n- Опыт написания функционального кода\n- Опыт создания микросервисной архитектуры\n- Знание DevOps \n\n\nДано: Компания автоматизирует процесс проверки различных установок из воздуха с помощью дронов (например, линии электропередачи, ветрянные мельницы и тд). Они занимаются не производством самих дронов, а улучшением их производительности с помощью созданной командой компании самой развитой в мире системы воздушных датчиков. Благодаря этой технологии процесс сбора и анализа информации с помощью дронов стал намного быстрее, а затраты компаний на проверку и поддержание состояния своих установок значительно уменьшились. \n\nВ настоящий момент компания находится в поиске амбициозного Go разработчика, который бы присоединился к их команде в Хельсинки. Компания предлагает интересные и сложные задачи, связанные со сбором информации, геопривязки, анализом и обраткой 3D изображений практически в режиме реального времени, и последующая визуализация результатов с помощью современного веб интерфейса. \n\nПомимо возможности стать частью инновационного проекта, компания предлагает гибкие рабочие часы, а также возможность получить опыт с интересными технологиями в сфере дронов, географических информационных систем, интеграции датчиков - таких как LiDAR и тепловизионные камеры, ML / AI, DevOps.\nКонтактное лицо: Даша - @Daria_Shvec","markup":[{"type":"hashtag","offset":0,"length":9,"data":"вакансия"},{"type":"hashtag","offset":10,"length":3,"data":"go"},{"type":"hashtag","offset":14,"length":9,"data":"релокейт"},{"type":"hashtag","offset":24,"length":9,"data":"fulltime"},{"type":"hashtag","offset":34,"length":5,"data":"oфис"},{"type":"handle","offset":1759,"length":12,"data":"Daria_Shvec"}],"date":"2020-06-16T16:12:32+00:00","link":"tg://resolve?domain=gogetajobfeed&post=329","tags":[{"name":"go"},{"name":"haskell"},{"name":"rust"},{"name":"scala"},{"name":"java"},{"name":"elixir"}],"cities":[{"code":"helsinki"}],"allowsRemote":true}},{"node":{"id":"91031076864-1001067529236","title":"Python разработчик","text":"#job #вакансия #python #Django #vacancy #IT  #remote\n\nДрузья, всем привет! \nНовая вакансия -  #Senior_PythonDeveloper\nЛокация - Россия,\nПолный рабочий день, #remote \n#Оплата: 3000$\n\nТребования:\n\n-Опыт работы в индустрии разработки ПО от 5-ти лет;\n-Уверенное знание Python 3+/Python Core (языковые структуры, стандартные библиотеки, регулярные выражения и т.д.);\n-Практический опыт работы с Django (Django ORM, Django Rest Framework);\n-Иметь представление о GraphQL APIs (Graphene будет плюсом);\n-Знание SQL (знание реляционной СУБД PostgreSQL будет плюсом) на уровне работы как прикладного разработчика;\n-Опыт написания API и работы/интеграции с API сторонних сервисов;\n-Опыт работы с рядом AWS-сервисов: Lambda, API Gateway, SNS, SQS, SES, S3, RDS, VPC, EC2, CloudWatch, etc;\n-The English language MUST HAVE (B2+ level) to work with the english speaking team.\n\n\nЗа дополнительной информацией, пишите в ЛС\nили Telegram: @Zalvovskaya","markup":[{"type":"hashtag","offset":0,"length":4,"data":"job"},{"type":"hashtag","offset":5,"length":9,"data":"вакансия"},{"type":"hashtag","offset":15,"length":7,"data":"python"},{"type":"hashtag","offset":23,"length":7,"data":"Django"},{"type":"hashtag","offset":31,"length":8,"data":"vacancy"},{"type":"hashtag","offset":40,"length":3,"data":"IT"},{"type":"hashtag","offset":45,"length":7,"data":"remote"},{"type":"hashtag","offset":94,"length":23,"data":"Senior_PythonDeveloper"},{"type":"hashtag","offset":157,"length":7,"data":"remote"},{"type":"hashtag","offset":166,"length":7,"data":"Оплата"},{"type":"handle","offset":920,"length":12,"data":"Zalvovskaya"}],"date":"2020-06-16T16:10:10+00:00","link":"tg://resolve?domain=python_jobs&post=0","tags":[{"name":"python"},{"name":"django"},{"name":"orm"},{"name":"rest"},{"name":"graphql"},{"name":"sql"},{"name":"postgresql"},{"name":"amazon-web-services"},{"name":"aws-lambda"}],"cities":[],"allowsRemote":true}},{"node":{"id":"2217738240-1001134745498","title":"Devops engineer","text":"#вакансия #devops #fulltime #НижнийНовгород\n\nВакансия: DevOps Engineer\nКомпания: Natera\nЛокация: Нижний Новгород\nФормат работы: офис и удаленный формат\nЗанятость: полная\nЗарплатная вилка: от 2500 до 3200 $ до вычета.  \nКонтакт:@zKITO\n\nAt Natera we build fast, reliable and scalable software that is easy to test and deploy. Our Engineering team works on a set of applications such as a complex Laboratory Information Management System (LIMS) and Constellation – our cloud based data analytics SaaS platform hosted on Amazon Web Services. As a DevOps Engineer your responsibilities will include building scalable infrastructure on which we deliver our software as well as managing development tools that are used on a daily basis by the members of Engineering team.\n\n\n      BENEFITS\nSalary $ 2500-3200 gross.  \nStocks\nPossibility of remote work with flexible working hours\nFree lunch, snacks etc in office\nMacbook Pro + monitors\nComfortable and cozy office with table tennis, playstation etc\nPossibility of business trips to the USA California\nFull compliance with labour laws.\n\n\nKNOWLEDGE, SKILLS, AND ABILITIES\n\n  Mandatory\nExperience in Linux Ubuntu administration.\nPractical experience managing applications deployed using AWS/GCP or Docker.\nAbility to read and understand Java code.\nStrong ability to troubleshoot complex issues ranging from system resources to application stack traces.\n\n  Nice to have experience with\nKubernetes, Rancher\nPython/Java\nTerraform\nAtlassian applications stack\ndatabases and SQL\n  \n \nPRIMARY RESPONSIBILITIES\n\nDevelop, configure and manage tools for fast and reliable deployments of our software.\nParticipate in operations efforts and be the point person for infrastructural activities.\nBuild tools for monitoring our infrastructure and resolve any issues with instances running in production. \nDevelop automation and CI/CD processes to enable teams to build, test, deploy, manage, configure, scale and monitor their applications using the latest technologies such as Docker, Kubernetes, Terraform and others.\nParticipate in architectural decisions to help improve reliability and scalability of our software.\nHelp configure and manage development tools such as Atlassian Bitbucket, Bamboo, Artifactory and others.\n\n—\n\n👉 Обсуждение вакансии в чате @devops_jobs","markup":[{"type":"hashtag","offset":0,"length":9,"data":"вакансия"},{"type":"hashtag","offset":10,"length":7,"data":"devops"},{"type":"hashtag","offset":18,"length":9,"data":"fulltime"},{"type":"hashtag","offset":28,"length":15,"data":"НижнийНовгород"},{"type":"handle","offset":227,"length":6,"data":"zKITO"},{"type":"handle","offset":2283,"length":12,"data":"devops_jobs"}],"date":"2020-06-16T15:59:39+00:00","link":"tg://resolve?domain=devops_jobs_feed&post=2115","tags":[{"name":"cloud"},{"name":"web"},{"name":"linux"},{"name":"ubuntu"},{"name":"amazon-web-services"},{"name":"google-cloud-platform"},{"name":"docker"},{"name":"java"},{"name":"kubernetes"},{"name":"python"},{"name":"sql"}],"cities":[{"code":"nice"},{"code":"nizhny-novgorod"}],"allowsRemote":true}},{"node":{"id":"71417462784-1001054966032","title":"Mobile разработчик","text":"#вакансия #удаленка #полная #react #reactnative\n\nНазвание компании: Appello www.appello.com.au\nОписание вакансии: Привет!\nИщем в команду ReactJS/React Native разработчиков. Удаленно, на долгий срок.\n\nТребования:\nОпыт минимум 2 года с реактом и хотя бы одно приложение сделанное на React Native.\nЖелательно знание других JS фреймворков (Angular, Vue)\n\nУсловия работы: \nУдаленно, фуллтайм 30-40 часов в неделю.\nРабота происходит с таймтрекером. Выплаты происходят на основе отработанного времени 2 раза в месяц.\nТехнологии: #react, #reactnative, #reactjs\nОфис или удаленка: #удаленка\nАдрес офиса: Sydney\nЗанятость: #полная\nЗарплатная вилка: от 110000 до 190000 рублей\n\nКонтакты: jobs@appello.com.au, @stpa3k","markup":[{"type":"hashtag","offset":0,"length":9,"data":"вакансия"},{"type":"hashtag","offset":10,"length":9,"data":"удаленка"},{"type":"hashtag","offset":20,"length":7,"data":"полная"},{"type":"hashtag","offset":28,"length":6,"data":"react"},{"type":"hashtag","offset":35,"length":12,"data":"reactnative"},{"type":"link","offset":76,"length":18,"data":"http://www.appello.com.au"},{"type":"hashtag","offset":522,"length":6,"data":"react"},{"type":"hashtag","offset":530,"length":12,"data":"reactnative"},{"type":"hashtag","offset":544,"length":8,"data":"reactjs"},{"type":"hashtag","offset":572,"length":9,"data":"удаленка"},{"type":"hashtag","offset":613,"length":7,"data":"полная"},{"type":"link","offset":677,"length":19,"data":"mailto:jobs@appello.com.au"},{"type":"handle","offset":698,"length":7,"data":"stpa3k"}],"date":"2020-06-16T15:52:50+00:00","link":"tg://resolve?domain=mobile_jobs&post=0","tags":[{"name":"mobile"},{"name":"reactjs"},{"name":"angularjs"},{"name":"vuejs"},{"name":"react-native"}],"cities":[{"code":"sydney"}],"allowsRemote":true}},{"node":{"id":"1700790272-1001091028994","title":"Java разработчик","text":"Вакансия: #java #senior\nКомпания: #сбертех\nЛокация: Москва, м. Тульская, Новоданиловская наб, д.10\nФормат работы: офис (сейчас удаленка)\nЗарплатная вилка: 170-270к\n\nЕдиный сервис аутентификации - это система, которая принимает решение о допуске клиентов через различные каналы обслуживания (веб, мобильное приложение, банкомат) к сервисам экосистемы Сбербанка. Система является высоконагруженной, так как одновременно может обслуживать более 10к операций в секунду.\n\nЗадачи:\n • разработка back-end web-приложения; \n • участие разработки архитектуры продукта;\n • участие в code review. \n\nОбязательно:\n· Опыт работы с Java от 2ух лет (хорошее знание core, Collections, jdbc, IO, Exceptions)\n· Опыт работы с системами сборки: maven или gradle\n· Опыт работы с БД, знание языка запросов SQL\n· Знакомство с ORM Hibernate\n\nБудет плюсом:\n· понимание многопоточности в Java;\n· знакомство со Spring Framework\n\nБонусы: \n • гибкое начало дня, отсутствие микроменеджмента и дресс-кода\n • отличная атмосфера в команде, способность слышать мнение каждого\n • современное железо (можно выбрать ноут MacOS или Windows) \n • возможность сменить проект\n • ДМС, спортзал, корпоративные мероприятия\n\nКонтакт: @hralexandra 📲","markup":[{"type":"hashtag","offset":10,"length":5,"data":"java"},{"type":"hashtag","offset":16,"length":7,"data":"senior"},{"type":"hashtag","offset":34,"length":8,"data":"сбертех"},{"type":"handle","offset":1186,"length":12,"data":"hralexandra"}],"date":"2020-06-16T15:48:40+00:00","link":"tg://resolve?domain=jvmjobs&post=1622","tags":[{"name":"java"},{"name":"jvm"},{"name":"web"},{"name":"jdbc"},{"name":"maven"},{"name":"gradle"},{"name":"sql"},{"name":"orm"},{"name":"hibernate"},{"name":"spring"},{"name":"macos"},{"name":"windows"}],"cities":[{"code":"moscow"}],"allowsRemote":true}},{"node":{"id":"1699741696-1001091028994","title":"Java разработчик","text":"#вакансия #Москва #Архитектор #Java\n \nВакансия: АРХИТЕКТОР\nЛокация: #Москва ст.м.Верхние Лихоборы, МЦК Окружная\nВилка по ЗП: до 300 000 net \nКонтакт: @Hr_Dina\nОсновной проект: Развитие решения класса IDM/AM.\nВ рамках проекта необходимо доработать решение под требования заказчика.\nНаписать проектно-рабочую документацию.\nПройти процедуру сертификации решения.\n \nСтек технологий: OpenJDK 11 Spring 5 Springboot 2 Hibernate 5 Ignite (возможно будет заменен на redis) Netty 4 Postgres 11 Angular 8 Docker (планируется использовать kubernetes)\n \n \nЧем Вам предстоит заниматься:\nРазработка архитектуры и проектирование информационных систем;\nОрганизация и проведение обследований существующей и планируемой IT-инфраструктуры на территории Заказчика;\nРазработка и согласование проектной и технической документации в части системной архитектуры;\nРазработка тендерной документации и технических предложений в части системной архитектуры;\nКонсультирование ИТ и бизнес - специалистов Заказчика по вопросам, относящимся к компетенции архитектора.\nВ рамках текущего проекта:\nСопровождение архитектуры решения;\nУправление запросами на доработку решения от интегрированных прикладных проектов, проектирование общих согласованных решений на доработку;\nОбеспечение нефункциональных требований к масштабируемости и производительности.\n \n \nЧто мы ждем от вас:\nОпыт работы от 2 лет в сфере реализации корпоративных приложений на java платформе в должности руководитель группы разработки, архитектор/ведущий архитектор.\n\nЗнания и навыки:\nЗнание основ разграничения доступа (RBAC/ABAC/мандатное), опыт использования решений класса IDM/AM;\nЗнание и практический опыт применения методологий разработки и проектирования ПО;\nЗнания и опыт применения шаблонов проектирования информационных систем;\nЗнания принципов работы реляционных СУБД, опыт работы с различными реализация БД (Oracle, Postgre предпочтительно).\nОпыт разработки или проектирования высоконагруженных приложений на Java;\nJava SE 8+ (Core, Collections, Multithreading);\nSpring (Core, Boot, Security, Data);\nHibernate/Ebean/Jooq;\nIgnite/redis\nPostgres\n\nПлюсом будет:\nОпыт разработки и/или проектирования СЗИ от НСД в соответствии с требованиями РД ФСТЭК/Гостехкомиссии;\nОпыт подготовки проектной документации, знание ГОСТ 19/34;\nЗнание основ криптографической защиты информации;\nЗнание ОС Astra Linux SE\n\nЗнание:\nOAuth, SSO/SAML, Kerberos, PKI, WS-Security;\nПроектирование REST API (Swagger);\nDocker, Kubernetes\n\nЧто готовы предложить:\nВозможность участвовать в масштабных проектах на уровне страны.\nГибкий график работы. Преимущественно команда работает с 9 (10.00) до 18 (19.00) по московскому времени. Возможность работать удаленно.\nСоциальный пакет (ДМС, дополнительные компенсации по обучению и туризму, изучение английского языка на льготных условиях).","markup":[{"type":"hashtag","offset":0,"length":9,"data":"вакансия"},{"type":"hashtag","offset":10,"length":7,"data":"Москва"},{"type":"hashtag","offset":18,"length":11,"data":"Архитектор"},{"type":"hashtag","offset":30,"length":5,"data":"Java"},{"type":"bold","offset":38,"length":9,"data":""},{"type":"bold","offset":59,"length":8,"data":""},{"type":"hashtag","offset":68,"length":7,"data":"Москва"},{"type":"bold","offset":112,"length":12,"data":""},{"type":"bold","offset":141,"length":8,"data":""},{"type":"handle","offset":150,"length":8,"data":"Hr_Dina"},{"type":"bold","offset":159,"length":16,"data":""},{"type":"bold","offset":362,"length":17,"data":""},{"type":"bold","offset":544,"length":30,"data":""},{"type":"bold","offset":1322,"length":20,"data":""},{"type":"italic","offset":1501,"length":17,"data":""},{"type":"italic","offset":2091,"length":14,"data":""},{"type":"italic","offset":2343,"length":8,"data":""},{"type":"bold","offset":2451,"length":23,"data":""}],"date":"2020-06-16T15:11:33+00:00","link":"tg://resolve?domain=jvmjobs&post=1621","tags":[{"name":"java"},{"name":"jvm"},{"name":"dotnet"},{"name":"spring"},{"name":"hibernate"},{"name":"redis"},{"name":"postgresql"},{"name":"angularjs"},{"name":"docker"},{"name":"kubernetes"},{"name":"oracle"},{"name":"linux"},{"name":"oauth"},{"name":"rest"},{"name":"swagger"}],"cities":[{"code":"moscow"}],"allowsRemote":true}}]}},"context":{}}