{"hash":"f5f6bf98bd95e769321482904cbbd488f77922fd","data":{"records":{"totalCount":669,"pageInfo":{"totalPages":67,"currentPage":60},"edges":[{"node":{"id":"2213543936-1001134745498","title":"Devops инженер","text":"#вакансия #fulltime #devops #удалёнка\n\nГород и адрес офиса: г. Москва, метро Динамо, 12 минут пешком через Петровский парк\n\nФормат работы: офис и/или удалёнка\n\nЗанятость: полная\n\nЗарплатная вилка:  150 000 фикс на руки\n\nОписание вакансии: \n\nДрузья!\n\nИщем DevOps в образовательный онлайн-проект https://edu.sirius.online \nНас сейчас 15 человек. \nЗанимаемся бесплатным дополнительным образованием. \nДелаем его доступным и качественным.\n\nЧем надо заниматься:\n– осваивать и развивать существующую инфраструктуру\n– совершенствовать процессы CI/CD\n– автоматизировать и оптимизировать\n– внедрять новые технологии и идеи\n– заниматься поддержкой и обслуживанием сервисов\n\nЧто надо уметь:\n– быть активным и ответственным \n– учиться и развиваться самостоятельно\n\nНаши технологии одним списком:\nReact, Haskell, GoLang, PostgreSQL, Redis, MINIO, Янлекс.Облако, Kubernetes, Rancher, EFK, Grafana, Prometheus, GitLab CI/CD, HELM.\n\nВ начале поможем, научим, подскажем.\n\nНазвание компании: \nФонд «Талант и успех» (Образовательный центр «Сириус»), г. Сочи\n\nКонтакты:\n@szemskov\nszemskov@sirius.online\n\n—\n\n👉 Обсуждение вакансии в чате @devops_jobs","markup":[{"type":"hashtag","offset":0,"length":9,"data":"вакансия"},{"type":"hashtag","offset":10,"length":9,"data":"fulltime"},{"type":"hashtag","offset":20,"length":7,"data":"devops"},{"type":"hashtag","offset":28,"length":9,"data":"удалёнка"},{"type":"link","offset":294,"length":25,"data":"https://edu.sirius.online"},{"type":"handle","offset":1049,"length":9,"data":"szemskov"},{"type":"link","offset":1059,"length":22,"data":"mailto:szemskov@sirius.online"},{"type":"handle","offset":1116,"length":12,"data":"devops_jobs"}],"date":"2020-06-16T07:58:20+00:00","link":"tg://resolve?domain=devops_jobs_feed&post=2111","tags":[{"name":"reactjs"},{"name":"haskell"},{"name":"go"},{"name":"postgresql"},{"name":"redis"},{"name":"kubernetes"},{"name":"gitlab"}],"cities":[{"code":"moscow"},{"code":"sochi"}],"allowsRemote":true}},{"node":{"id":"1685061632-1001091028994","title":"Java разработчик","text":"#вакансия #удаленка \n\nJava Engineer\nФормат работы: #fulltime #remote\nОфис: метро Китай-город\nЗарплата: $ 60 000 в год\nКонтакт для связи: @temnik_sofya\n\nКомпания-разработчик обучающих приложений для детей 3-6 лет и их родителей ищет опытного Java Engineer. В команде сейчас 32 человека, все работают удаленно из России, Белоруссии и Украины. Мы активно растем и привлекаем новые таланты.\n\nПредстоящие задачи связаны с:\n • валидацией подписок Apple/Google/Amazon;\n • клиент-серверными фичами;\n • аналитическим сервисом и визуализацией метрик через Grafana;\n • сервисом пуш-уведомлений;\n • интеграциями со сторонними сервисами (Facebook, Amplitude, adjust, Mailchimp);\n • созданием админки;\n • безопасностью.\n\nТребования:\n\n- Технический английский;\n- Владение или желание научиться и использовать Kotlin.\n\nПервоначальный отбор осуществляется через 6nomads.com","markup":[{"type":"hashtag","offset":0,"length":9,"data":"вакансия"},{"type":"hashtag","offset":10,"length":9,"data":"удаленка"},{"type":"hashtag","offset":51,"length":9,"data":"fulltime"},{"type":"hashtag","offset":61,"length":7,"data":"remote"},{"type":"handle","offset":137,"length":13,"data":"temnik_sofya"},{"type":"link","offset":845,"length":11,"data":"http://6nomads.com"}],"date":"2020-06-16T07:54:40+00:00","link":"tg://resolve?domain=jvmjobs&post=1607","tags":[{"name":"java"},{"name":"jvm"},{"name":"kotlin"}],"cities":[],"allowsRemote":true}},{"node":{"id":"16957571072-1001110946746","title":"Javascript программист","text":"#вакансия #angular\n\nФормат работы: удаленка\n\nЗанятость: полная, проектная\n\nЗарплатная вилка: 700-850 рублей час.\n\nОписание вакансии: Здравствуйте, ищу Angular программиста для доработки Front enda проекта, все подробности при личном общении.\nАнгуляр последней версии.\n\nНазвание компании: SiP\n\nКонтакты: https://t.me/vladyslav_shubyn\n\n—\n\n👉 Обсуждение вакансии в чате @javascript_jobs","markup":[{"type":"hashtag","offset":0,"length":9,"data":"вакансия"},{"type":"hashtag","offset":10,"length":8,"data":"angular"},{"type":"link","offset":303,"length":29,"data":"https://t.me/vladyslav_shubyn"},{"type":"handle","offset":367,"length":16,"data":"javascript_jobs"}],"date":"2020-06-16T07:41:08+00:00","link":"tg://resolve?domain=javascript_jobs_feed&post=0","tags":[{"name":"javascript"},{"name":"angularjs"}],"cities":[],"allowsRemote":true}},{"node":{"id":"102932414464-1001089317451","title":"Qa инженер","text":"#вакансия #remote #office #fulltime #senior #middle #junior #qa #новосибирск\n \nКомпания: Бюро судебного взыскания\nЛокация: remote или офис в Новосибирске\nЗанятость: full-time\nЗП до 55 000\nКонтакты: @AntoshaStark \n \nКомпания Бюро судебного взыскания помогает избавить всех участников финансовой системы от проблем с долгами. Мы решаем финансовые проблемы людей и крупных компаний. И сейчас мы в поиске QA-инженера.\n\nЧем нужно будет заниматься:\n\n▪️детализация требований к программе;\n▪️анализ и расчет времени нужного на создание ▪️приложения или исправление бага;\n▪️разработка сценариев тестирования;\n▪️внесение обнаруженных недочетов в трекинговую систему;\n▪️обсуждение исправлений с всеми участниками разработки;\n▪️доработка сценариев тестирования;\n▪️анализ процесса командной разработки;\n▪️оптимизация процессов разработки для избежания повторного появления обнаруженных ошибок;\n▪️ведение документации по тестам.\n\nЧто мы ждем от кандидатов:\n\n▫️Опыт работы в должности от года;\n▫️Знания теории и видов тестирования;\n▫️Знания SQL;\n▫️Опыт написания тест-кейсов;\n▫️Опыт написания документации.\n▫️Желателен опыт в написании автотестов.\n\nЧто мы предлагаем:\n\n🔸Официальное трудоустройство с первого дня работы (в том числе на удалёнке).\n🔸Возможность профессионального и карьерного развития в компании.\n🔸Сильная команда из 25+ профессионалов своего дела. И мы ещё растём :)\n🔸Работа возможна в офисе и на удалёнке.","markup":[{"type":"hashtag","offset":0,"length":9,"data":"вакансия"},{"type":"hashtag","offset":10,"length":7,"data":"remote"},{"type":"hashtag","offset":18,"length":7,"data":"office"},{"type":"hashtag","offset":26,"length":9,"data":"fulltime"},{"type":"hashtag","offset":36,"length":7,"data":"senior"},{"type":"hashtag","offset":44,"length":7,"data":"middle"},{"type":"hashtag","offset":52,"length":7,"data":"junior"},{"type":"hashtag","offset":60,"length":3,"data":"qa"},{"type":"hashtag","offset":64,"length":12,"data":"новосибирск"},{"type":"handle","offset":198,"length":13,"data":"AntoshaStark"},{"type":"bold","offset":224,"length":24,"data":""},{"type":"bold","offset":401,"length":11,"data":""},{"type":"bold","offset":415,"length":29,"data":""},{"type":"bold","offset":916,"length":28,"data":""},{"type":"bold","offset":1134,"length":20,"data":""}],"date":"2020-06-16T07:31:57+00:00","link":"tg://resolve?domain=qa_jobs&post=0","tags":[{"name":"qa"},{"name":"sql"}],"cities":[{"code":"novosibirsk"}],"allowsRemote":true}},{"node":{"id":"1684013056-1001091028994","title":"Java разработчик","text":"#java #java11 #tarantool #lua #redis #kotlin \n\nКомпания #Иннодата (ГК Ramax) - системный интегратор с офисами в #Москва, #Питер, #Воронеж, #Иннополис. \nФормат работы #офис, #fulltime #remote\nВилка: от 200 net на руки\nКонтакт для связи: pbokarev@innodata.ru \n\n📌Задача: Нам предстоит разработать один из центральных компонентов ИТ системы крупнейшей ритейл сети.\n\nГеораспределённую mission-critical платформу, работающую в режиме 24/7 365, объединяющую информацию из всех подразделений и IT-систем, связанных с клиентом, в единый профиль. К системе предъявляются жесткие требования ко времени отклика и rps. Ядром системы мы выбрали tarantool - одно из самых навороченных imdg решений на данный момент. Мы ищем человека, который не боится новых вызовов и готов развиваться, устал от бесконечный crud'ов и хочет попробовать себя в highload. Готовы рассмотреть кандидатов разного уровня!\n\n📌Наши плюсы:\nНикакого legacy, тк проект только начинается, есть возможность поучаствовать в выборе стека. Современные технологии, мощный кластер, после окончания проекта возможность работы на других проектах (scala, BIgData)\n\n📌Стек технологий:\nJava 11;\nTarantool (Lua);\nClickhouse;\nPostgreSQL;\n\n📌Требования:\nОпыт коммерческой разработки на Java более 2 лет. Будет плюсом умение писать на Kotlin;\nSQL, опыт проектирования реляционнных баз данных;\nОпыт использования Tarantool или Redis (Lua);\nПонимание разницы OLAP и OLTP;\n\n📌Будет плюсом:\nОпыт работы с распределёнными системами;\nОпыт разработки highload систем;\nОпыт разработки многопоточных приложений;\n\n📌Обязанности:\nУчастие в проектировании архитектуры и детализации работ;\nНепосредсвенно реализация задач;\nПокрытие нового функционала тестами (unit, регрессионные);","markup":[{"type":"hashtag","offset":0,"length":5,"data":"java"},{"type":"hashtag","offset":6,"length":7,"data":"java11"},{"type":"hashtag","offset":14,"length":10,"data":"tarantool"},{"type":"hashtag","offset":25,"length":4,"data":"lua"},{"type":"hashtag","offset":30,"length":6,"data":"redis"},{"type":"hashtag","offset":37,"length":7,"data":"kotlin"},{"type":"hashtag","offset":56,"length":9,"data":"Иннодата"},{"type":"hashtag","offset":112,"length":7,"data":"Москва"},{"type":"hashtag","offset":121,"length":6,"data":"Питер"},{"type":"hashtag","offset":129,"length":8,"data":"Воронеж"},{"type":"hashtag","offset":139,"length":10,"data":"Иннополис"},{"type":"hashtag","offset":166,"length":5,"data":"офис"},{"type":"hashtag","offset":173,"length":9,"data":"fulltime"},{"type":"hashtag","offset":183,"length":7,"data":"remote"},{"type":"link","offset":236,"length":20,"data":"mailto:pbokarev@innodata.ru"}],"date":"2020-06-16T07:13:08+00:00","link":"tg://resolve?domain=jvmjobs&post=1606","tags":[{"name":"java"},{"name":"jvm"},{"name":"lua"},{"name":"redis"},{"name":"kotlin"},{"name":"dotnet"},{"name":"scala"},{"name":"postgresql"},{"name":"sql"}],"cities":[{"code":"moscow"},{"code":"voronezh"}],"allowsRemote":true}},{"node":{"id":"16954425344-1001110946746","title":"Js разработчик","text":"#вакансия #удалённо #nestjs #nest #fullstack #typescript \n\nFullstack TypeScript Developer\n\nhttps://edm-ghost-production.com ищет в команду разработчика для создания музыкальной платформы. \n\n⭐Стек: \nNode.Js, TypeScript, Express, NestJS, TypeOrm, PostgreSQL, Redis, Vue \n\n🔻 Требования:\n- Опыт работы с NestJS (не менее 6 месяцев), TypeOrm;\n- Опыт работы с Vue (vue-class-component, vue-property-decorator) не менее года\n- Знания ES6/ES7/ES8;\n- REST APIs, на основе Express и NestJS;\n- Опыт работы с PostgreSQL; \n- Typescript (не менее года)\n- ESLint;\n- Знание основ систем контроля версий (Git);\n- Умение работать в команде и писать чистый код;\n\n💥Будет плюсом:\n- AWS S3;\n- Интеграция с Helpdesk (Zendesk/Intercom/Helpcrunch etc.)\n\n🙋♂Обязанности:\n- Разработка бэкенда и фронтэнда нового приложения \n- Взаимодействие с другими разработчиками\n\n🔹Условия:\n- Удалённая работа\n- Полная занятость \n- Гибкий график работы (важно что бы все задачи были выполнены)\n- Зарплатная вилка 120 000 - 200 000 рублей (в зависимости от уровня кандидата middle/senior)\n\nПрисылайте CV в ЛС @alexlarichev","markup":[{"type":"hashtag","offset":0,"length":9,"data":"вакансия"},{"type":"hashtag","offset":10,"length":9,"data":"удалённо"},{"type":"hashtag","offset":20,"length":7,"data":"nestjs"},{"type":"hashtag","offset":28,"length":5,"data":"nest"},{"type":"hashtag","offset":34,"length":10,"data":"fullstack"},{"type":"hashtag","offset":45,"length":11,"data":"typescript"},{"type":"link","offset":91,"length":32,"data":"https://edm-ghost-production.com"},{"type":"handle","offset":1070,"length":13,"data":"alexlarichev"}],"date":"2020-06-16T06:34:02+00:00","link":"tg://resolve?domain=javascript_jobs_feed&post=0","tags":[{"name":"javascript"},{"name":"typescript"},{"name":"nodejs"},{"name":"express"},{"name":"postgresql"},{"name":"redis"},{"name":"vuejs"},{"name":"rest"},{"name":"git"},{"name":"amazon-web-services"}],"cities":[],"allowsRemote":true}},{"node":{"id":"71338819584-1001054966032","title":"Android разработчик","text":"#казань #вакансия #работа #android #fудаленка                                                                                                                                                              Город: Казань \nФорма работы: удаленка; проектная занятость на 2-3 месяца                                                                                                             Зарплатная вилка: 60 000 - 80 000 \nНаш стек: Kotlin/Java, Moxy, Cicerone, Retrofit, Dagger2, RxJava2, Room, FCM, Gitlab CI, Mockito                                                                                    Обязанности:\n- Участие в командной разработке, тестировании, оптимизации существующих мобильных приложений на платформе Android;\n- Проектирование архитектуры приложений;\n\nТребования:\n- Опыт коммерческой разработки под Android от 1 года (Java/Kotlin);\n- Опыт создания клиент-серверных приложений;\n- Уверенное знание Java Core, Android SDK;\n- Знание основных технологий и протоколов передачи данных;\n- Знание ООП и паттернов проектирования;\n- Опыт работы с системами контроля версий Git;\n- Английский язык на уровне понимания технической литературы.\n\nБудет плюсом:\n- Наличие завершённых проектов в магазинах приложений;\n- Понимание принципов Clean Architecture;\n- Опыт написания unit и UI-тестов;\n- Умение организовать CI/CD в проекте;\n- Опыт работы с DI.                                                                                                                                                                                                                             Контакты: @daryahr","markup":[{"type":"hashtag","offset":0,"length":7,"data":"казань"},{"type":"hashtag","offset":8,"length":9,"data":"вакансия"},{"type":"hashtag","offset":18,"length":7,"data":"работа"},{"type":"hashtag","offset":26,"length":8,"data":"android"},{"type":"hashtag","offset":35,"length":10,"data":"fудаленка"},{"type":"link","offset":402,"length":15,"data":"tel:60 000 - 80 000"},{"type":"handle","offset":1583,"length":8,"data":"daryahr"}],"date":"2020-06-16T06:01:14+00:00","link":"tg://resolve?domain=mobile_jobs&post=0","tags":[{"name":"mobile"},{"name":"android"},{"name":"kotlin"},{"name":"java"},{"name":"gitlab"},{"name":"git"}],"cities":[{"code":"kazan"}],"allowsRemote":true}},{"node":{"id":"71337771008-1001054966032","title":"Ios разработчик","text":"В классную компанию требуется Senior IOS разработчик, для работы над приложением ^_^ \n\n💻Вакансия: #вакансия #ios #удалённо\n🏢Компания: #IT\n📍Локация:  #удалённо\n💰З/п: от 200 до 320 на руки\n\n🔮Чем предстоит заниматься:\n• Разработка мобильных приложений под платформу iOS.\n• Участвовать в CodeReview.\n• Поддержка и развитие проектов, добавление нового функционала.\n\n💼Наши ожидания:\n• Опыт на Swift от 4-х лет, опыт на Obj-C будет плюсом;\n• Глубокие знания UIKit, SnapKit;\n• Глубокие знания iOS SDK.\n\n📩Резюме и вопросы по вакансии жду:\n✍️ @Gleaming_Darkness\n✉️ margoshwarz@gmail.com","markup":[{"type":"hashtag","offset":99,"length":9,"data":"вакансия"},{"type":"hashtag","offset":109,"length":4,"data":"ios"},{"type":"hashtag","offset":114,"length":9,"data":"удалённо"},{"type":"hashtag","offset":136,"length":3,"data":"IT"},{"type":"hashtag","offset":152,"length":9,"data":"удалённо"},{"type":"handle","offset":540,"length":18,"data":"Gleaming_Darkness"},{"type":"link","offset":562,"length":21,"data":"mailto:margoshwarz@gmail.com"}],"date":"2020-06-16T05:20:37+00:00","link":"tg://resolve?domain=mobile_jobs&post=0","tags":[{"name":"mobile"},{"name":"ios"},{"name":"swift"},{"name":"uikit"}],"cities":[],"allowsRemote":true}},{"node":{"id":"340787200-1001352129329","title":"Golang разработчик","text":"#вакансия #Москва #senior #Go #fulltime #офис #удаленка  \nВакансия: Lead or Senior Golang Developer \nКомпания: Skytech Solutions\nГород: Moscow/Malta\nФормат работы: офис или удаленка (на выбор кандидата)\nЗанятость: полная\nВилка заработной платы: от 180 000 - 230 000 р на руки\n\nТребуемый опыт работы: 3–6 лет.\nПолная занятость, полный день\n\nОбязанности:\nСоздание высоконагруженных сервисов / микро-сервисов;\nРазработка интеграции с внешними сервисами;\nРазработка платформы для Betting / Gambling;\nРазработка надежной, безопасной и безотказной экосистемы;\nРешение сложных и интересных задач;\n\nТребования:\nИметь опыт коммерческой разработки ПО на Go не менее 3-х лет, отличное знание языка и экосистемы;\nПонимание многопоточности, параллельных вычислений и широко используемых структур данных и алгоритмов;\nПонимание основных паттернов проектирования;\nУмение работать с контролем версий Git;\nУверенно знаете стек TCP / IP;\nЗнаете RFC стандартны HTTP / WebSockets;\nРаботаете с REST / GraphQL;\nЗнание лучших практик разработки микро-сервисных архитектур, Docker и опыт production релизов совместно с девопс инженерами;\nИмеете опыт написания высоконагруженных систем;\nРаботаете unix-подобными системами;\nОтличное знание SQL и одной из реляционных СУБД.\nСильные навыки решения проблем, желание работать в команде;\n\nБудет плюсом:\nПрофильное высшее образование (математическое или техническое);\nИмеете опыт разработки подобных решений (Ставки на спорт/Gambling/Poker/Trade)\nЗнание Алгоритмов\nОпыт работы с Графовыми базами данных;\n\nSoft skills:\nРешать поставленные задачи максимально эффективно в поставленный срок;\nЯвляться командным разработчиком, слышать других и учитывать чужое мнение;\nПонимать, что не надо делать overhead там, где это не надо;\nБыть самостоятельным и уметь брать на себя ответственность за свои решения;\nСчитать тестирование неотъемлемой частью разработки;\nСпокойно относиться к техническому долгу, так как это нормальный этап в развитии проекта;\n\nНемного о проекте:\nВ связи с расширением нашего портфеля проектов, мы находится в поисках квалифицированных разработчиков ПО.\nМы разрабатываем  высоконагруженный проект, связанный со ставками на sport/e-sport , фактически - это биржа ставок со своими сопутствующими сервисами, в нашем случае упор идет на Algo-trading, bot platform, AI и алгоритмы. Проект очень сложный и интересный, нет Legacy кода, все разрабатывается с 0. Будем рады видеть тебя в своих рядах.\nНаш стек :\nLinux, Go, PostgreSQL, Git, ArangoDB, Tarantool, Kafka, Redis.\n\nМы предлагаем:\nВозможность карьерного и профессионального роста в международной компании;\nРабота по контракту с зарубежной компанией (Мальта);\nВысокий уровень заработной платы;\nБонусы и премии по итогам выполненных задач;\nРазработка ведется по гибким методологиям;\nВозможна удаленная работа;\nГибкий график работы, но без фанатизма (главное - это качественное выполнение задач в сжатые сроки);\nПК - MacBook;\nМолодой профессиональный коллектив.\n\nКонтакты: telegram @FreddyNigma","markup":[{"type":"hashtag","offset":0,"length":9,"data":"вакансия"},{"type":"hashtag","offset":10,"length":7,"data":"Москва"},{"type":"hashtag","offset":18,"length":7,"data":"senior"},{"type":"hashtag","offset":26,"length":3,"data":"Go"},{"type":"hashtag","offset":30,"length":9,"data":"fulltime"},{"type":"hashtag","offset":40,"length":5,"data":"офис"},{"type":"hashtag","offset":46,"length":9,"data":"удаленка"},{"type":"handle","offset":2968,"length":12,"data":"FreddyNigma"}],"date":"2020-06-15T19:50:50+00:00","link":"tg://resolve?domain=gogetajobfeed&post=325","tags":[{"name":"go"},{"name":"git"},{"name":"rest"},{"name":"graphql"},{"name":"docker"},{"name":"unix"},{"name":"sql"},{"name":"linux"},{"name":"postgresql"},{"name":"kafka"},{"name":"redis"}],"cities":[{"code":"moscow"}],"allowsRemote":true}},{"node":{"id":"16948133888-1001110946746","title":"Js разработчик","text":"#вакансия #удаленка #gamedev #геймдев #job #работа #JavaScript #WebGL #AR #8thwall #React #JS  #ReactNative #WebAR \n\n🔹 Название компании: https://twin3d.ru\n🔹 Город и адрес офиса: Москва\n🔹 Формат работы: Удаленка, проектная работа\n🔹 Занятость: На полный рабочий день (2 месяца)\n🔹 Зарплатная вилка: 100 000 - 150 000 руб\n\n🔥 Описание вакансии: React Native + JavaScript Frontend или Fullstack разработчик на игровой WebAR проект на iOS и Android (safari, chrome, opera).\nУдаленно, полный рабочий день, проектно на 2+ месяца.\n\n🛎 Требования:\n- JavaScript, а именно three.js, ar.js, node.js\n- React Native\n- Опыт c AR и мобильными игровыми проектами будет огромным плюсом\n- Опыт работы с Web проектами\n- Опыт сборки в приложение 3D моделей и анимаций\n- Уровень Middle или Senior\n- Опыт коммерческой разработки +3 года\n- Наличие портфолио - ссылок на успешно реализованные проекты\n\n💻 Обязанности:\n- Разработать архитектуру приложения\n- Коммуникация с беком на стороне заказчика\n- Верстка/сборка дизайна приложения (адаптивная)\n- Настройка логики\n- Интеграция в приложение и настройка 3D моделей, анимаций\n- Сопровождение проекта после релиза, до завершения промо кампании (+4 месяца) без активной разработки (будем оплачивать почасово или по задачам)\n\n☎️ Контакты: присылайте ссылки на реализованные проекты и финансовые ожидания в телеграм: @shemetvlad","markup":[{"type":"hashtag","offset":0,"length":9,"data":"вакансия"},{"type":"hashtag","offset":10,"length":9,"data":"удаленка"},{"type":"hashtag","offset":20,"length":8,"data":"gamedev"},{"type":"hashtag","offset":29,"length":8,"data":"геймдев"},{"type":"hashtag","offset":38,"length":4,"data":"job"},{"type":"hashtag","offset":43,"length":7,"data":"работа"},{"type":"hashtag","offset":51,"length":11,"data":"JavaScript"},{"type":"hashtag","offset":63,"length":6,"data":"WebGL"},{"type":"hashtag","offset":70,"length":3,"data":"AR"},{"type":"hashtag","offset":74,"length":8,"data":"8thwall"},{"type":"hashtag","offset":83,"length":6,"data":"React"},{"type":"hashtag","offset":90,"length":3,"data":"JS"},{"type":"hashtag","offset":95,"length":12,"data":"ReactNative"},{"type":"hashtag","offset":108,"length":6,"data":"WebAR"},{"type":"link","offset":139,"length":17,"data":"https://twin3d.ru"},{"type":"handle","offset":1343,"length":11,"data":"shemetvlad"}],"date":"2020-06-15T18:52:35+00:00","link":"tg://resolve?domain=javascript_jobs_feed&post=0","tags":[{"name":"javascript"},{"name":"reactjs"},{"name":"ios"},{"name":"android"},{"name":"safari"},{"name":"nodejs"},{"name":"web"},{"name":"react-native"}],"cities":[{"code":"moscow"}],"allowsRemote":true}}]}},"context":{}}