{"hash":"f5f6bf98bd95e769321482904cbbd488f77922fd","data":{"records":{"id":"html","name":"html","belongsTo":{"totalCount":110,"pageInfo":{"totalPages":11,"currentPage":6},"edges":[{"node":{"__typename":"Job","id":"17156800512-1001110946746","title":"Js разработчик","text":"#вакансия #москва #middle #remote #angular #fulltime #офис\n\nИщем frontend разработчика для работы над основным сайтом и новыми разделами.\nГород и адрес офиса: Москва, м. Авиамоторная\nФормат работы: Офис\nЗанятость: полная\nЗарплатная вилка: 130 000 — 150 000 на руки по результатам технического собеседования\n\nAutospot.ru — онлайн гипермаркет автомобилей. \n\nВ 2018 году Mitsubishi Corporation и Mail.ru. оценили нас в $19,1 млн.\n\nВ технической команде 17 человек: СТО, 9 PHP разработчиков, 2 frontend разработчика, 3 тестировщика, DevOps.\n\nЧеловек нужен в Москве или готовый в эту самую Москву переехать.\n\nОбязанности:\n▫️Разработка компонентов и адаптация/интеграция сторонних библиотек и плагинов;\n▫️ Верстка новых разделов, кроссбраузерная, адаптивная, валидная;\n▫️ Развитие библиотеки UI компонентов;\n▫️ Оперативное исправление багов на проде (IE 11+);\n▫️ Помощь в оптимизации работы сайта (скорость загрузки, оптимизация DOM).\n\nТребования:\n▪️ Опыт разработки от 2 лет;\n▪️ Знание JavaScript (jQuery в разумных пределах);\n▪️ Уверенное знание html семантическая верстка, БЭМ, SCSS;\n▪️ Знание работы GIT & NPM;\n▪️ Опыт работы с gulp/webpack;\n▪️ Опыт работы с Figma/Zeplin;\n▪️ Опыт работы с векторной графикой (svg и svg-спрайты).\n\nЖелательно:\n◾️ Хорошее знание Vue.js и/или Angular 5+. Работать надо будет и с тем и с другим. Angular 5+ в приоритете, планируется переход полностью на него;\n◾️ Знание инструментов организации разработки Jira;\n◾️ Знание нюансов работы браузеров на разных устройствах и ОС;\n◾️ Опыт сео оптимизации;\n◾️ Понимание, что такое доступные интерфейсы;\n\nУсловия:\n▫️ Комфортабельный офис, БЦ Light Tower, бесплатный шаттл от м. Площадь Ильича;\n▫️ Оформление по ТК РФ с первого рабочего дня;\n▫️ Гибкое начало рабочего дня, с 9 до 11;\n▫️ Возможность работать 1-2 дня удалённо;\n▫️ Полностью белая заработная плата;\n▫️ Неформальная атмосфера и дружный, амбициозный коллектив;\n▫️ Корпоративная скидка на изучение английского языка.\n\nКонтакт: @dianadoma\n\n—\n\n👉 Обсуждение вакансии в чате @javascript_jobs","markup":[{"type":"hashtag","offset":0,"length":9,"data":"вакансия"},{"type":"hashtag","offset":10,"length":7,"data":"москва"},{"type":"hashtag","offset":18,"length":7,"data":"middle"},{"type":"hashtag","offset":26,"length":7,"data":"remote"},{"type":"hashtag","offset":34,"length":8,"data":"angular"},{"type":"hashtag","offset":43,"length":9,"data":"fulltime"},{"type":"hashtag","offset":53,"length":5,"data":"офис"},{"type":"link","offset":308,"length":11,"data":"http://Autospot.ru"},{"type":"link","offset":393,"length":7,"data":"http://Mail.ru"},{"type":"handle","offset":1957,"length":10,"data":"dianadoma"},{"type":"handle","offset":2002,"length":16,"data":"javascript_jobs"}],"date":"2020-06-25T18:01:18+00:00","link":"tg://resolve?domain=javascript_jobs_feed&post=16362","tags":[{"name":"javascript"},{"name":"angularjs"},{"name":"php"},{"name":"jquery"},{"name":"html"},{"name":"git"},{"name":"npm"},{"name":"gulp"},{"name":"webpack"},{"name":"svg"},{"name":"vuejs"}],"cities":[{"code":"moscow"}],"allowsRemote":true}},{"node":{"__typename":"Job","id":"17155751936-1001110946746","title":"Js developer","text":"#вакансия #удаленка #React #Frontend\n\nГород: Москва Emirex\nФормат работы: удаленка\nЗанятость: полная\nЗарплатная вилка:  от 80k  до 150к рублей\n\n👉Ближневосточная биржа Emirex ищет React Developer👈\n\n⚡️О компании:\nEmirex Group объединяет сообщество эмитентов и трейдеров со всей Африки, Азии и Европы и предоставляет им доступ к богатству Ближнего Востока, используя современные технологии (токен EMRX входит в ТОП-300 CMC)\n\nТребуемый опыт работы: от 3–ех лет\nПолная занятость, удаленная работа\n\nЧто для это нужно уметь:\n– знания и опыт работы с React.js, Javascript (ES6+),Typescript, HTML5, CSS3;\n– знание redux, redux saga, next.js (edited);\n– знание принципов ООП, шаблонов проектирования;\n– умение писать понятный и логичный код;\n– опыт работы с системами контроля версий (Git) и багтрекинг системами. Опыт работы с системами непрерывной интеграции (Gitlab CI);\n– ВАЖНО! амбициозность, порядочность, внимательность, аккуратность, умение четко и ясно излагать свои мысли.\n\nКруто, если вы:\n– знаете системы сборок (Gulp, Webpack);\n– имеете опыт разработки коммерческих проектов;\n– есть желание осваивать новые технологии, совершенствовать свои профессиональные навыки;\n– есть опыт разработки серверной стороны Web-приложения.\n\n📱Контакты: \nПрисылайте резюме на: recruiting@emirex.com\nTelegram: @AndreNaumov\n\n—\n\n👉 Обсуждение вакансии в чате @javascript_jobs","markup":[{"type":"hashtag","offset":0,"length":9,"data":"вакансия"},{"type":"hashtag","offset":10,"length":9,"data":"удаленка"},{"type":"hashtag","offset":20,"length":6,"data":"React"},{"type":"hashtag","offset":27,"length":9,"data":"Frontend"},{"type":"link","offset":1264,"length":21,"data":"mailto:recruiting@emirex.com"},{"type":"handle","offset":1296,"length":12,"data":"AndreNaumov"},{"type":"handle","offset":1343,"length":16,"data":"javascript_jobs"}],"date":"2020-06-25T17:58:55+00:00","link":"tg://resolve?domain=javascript_jobs_feed&post=16361","tags":[{"name":"javascript"},{"name":"reactjs"},{"name":"typescript"},{"name":"html"},{"name":"css"},{"name":"redux"},{"name":"git"},{"name":"gitlab"},{"name":"gulp"},{"name":"webpack"},{"name":"web"}],"cities":[{"code":"moscow"}],"allowsRemote":true}},{"node":{"__typename":"Job","id":"103721992192-1001089317451","title":"Qa инженер","text":"#офис #Москва #вакансия #QA #fulltime  #тестировщик #Middle #ручное тестирование\n\nКомпания ООО Rondem (IT-интегратор) специализируется на построении систем управления IT, разработке и тестированию ПО. Нашими клиентами являются крупные банки и системные интеграторы, для которых мы ведем десятки проектов.\n\n❗Мы ищем инженера по функциональному тестированию (Middle) для крупного Московского банка \n\n      Требования:\n• Ручное тестирование · CSS · HTML · XML · Restful api · SQL;\n• Опыт работы тестировщиком;  \n• Опыт написания тест кейсов по технической документации;  \n• Знание жизненного цикла программного обеспечения и теории тестирования;  \n• Знание и опыт работы с системами баг трекинга Atlassian JIRA, HP ALM и пр.;\n• Знание программ SOAP UI, MS SQL, POSTMAN, GitLab как +;  \n• SQL (простые запросы);  \n• Начальные знания Java.\n\nОбязанности:\n• Выполнение различных видов тестирования (функциональное, регрессионное, интеграционное);\n• Обнаружение, регистрация и отслеживание дефектов в bug-tracking системе;\n• Разработка тест-кейсов, чек-листов, тест-дизайнов;\n• Отчетность по результату тестирования;\n• Взаимодействие с разработчиками, аналитиками.\n\n▪️Условия:\nУДАЛЕННЫЙ ГРАФИК НЕ РАССМАТРИВАЕТСЯ!\n• Работа в офисе м.Бауманская г. Москва\n• ДМС\n• График работы по согласованию с Заказчиком и командой\n• Работа в дружном коллективе единомышленников\n• Оформление по ТК РФ\n• Зп: до 140 к (обсуждается по результатам собеседования)\n\n\n▪️Резюме 📩 kudrina@rondem.ru или в лс.","markup":[{"type":"hashtag","offset":0,"length":5,"data":"офис"},{"type":"hashtag","offset":6,"length":7,"data":"Москва"},{"type":"hashtag","offset":14,"length":9,"data":"вакансия"},{"type":"hashtag","offset":24,"length":3,"data":"QA"},{"type":"hashtag","offset":28,"length":9,"data":"fulltime"},{"type":"hashtag","offset":39,"length":12,"data":"тестировщик"},{"type":"hashtag","offset":52,"length":7,"data":"Middle"},{"type":"hashtag","offset":60,"length":7,"data":"ручное"},{"type":"link","offset":1449,"length":17,"data":"mailto:kudrina@rondem.ru"}],"date":"2020-06-25T13:52:39+00:00","link":"tg://resolve?domain=qa_jobs&post=98917","tags":[{"name":"qa"},{"name":"css"},{"name":"html"},{"name":"xml"},{"name":"sql"},{"name":"soap"},{"name":"gitlab"},{"name":"java"}],"cities":[{"code":"moscow"}],"allowsRemote":false}},{"node":{"__typename":"Job","id":"17151557632-1001110946746","title":"Js разработчик","text":"#вакансия #работа #frontend #react #redux #js #typescript #ульяновск #крснодар #нижнийновгород #самара #тольятти #ижевск #воронеж #казань #fulltime #удаленно #офис \n\nMiddle/Senior frontend разработчик React/Redux\nКомпания: Норд Клан\nГород: Ульяновск\nФормат: в офисе, удаленно, если живете не в Ульяновске\nЗарплатная вилка: от 70 до 150k на руки\n\n\nМы ищем разработчика в нашу команду NORD CLAN.  \nМы разрабатываем системы для бизнеса в области финтеха, медицины и фудтеха. Так же разрабатываем собственные продукты связанные с машинным обучением, распознаванием образов и компьютерным зрением. \n\nПо задачам:\n\nРазработка пользовательских интерфейсов в стеке React + Redux\nПроектирование, выбор и доработка архитектурных и технологических решений\nПроведение code-review Frontend-команды\nРазработка прототипов для отработки новых идей\n\nПо тербованиям:\nРеальный опыт работы с React;\nУверенные знания в HTML, CSS;\nНавыки работы с Git.\n\nБудет плюсом:\nОпыт работы на других языках (например, Java);\nАнглийский язык уровня Upper Intermediate.\n\n\nУ нас нет бюрократии, четко выстроены процессы разработки, мы любим и чтим ТК РФ и белую зп\n\n\nПисать в Telegram: @Dinovikova1477","markup":[{"type":"hashtag","offset":0,"length":9,"data":"вакансия"},{"type":"hashtag","offset":10,"length":7,"data":"работа"},{"type":"hashtag","offset":18,"length":9,"data":"frontend"},{"type":"hashtag","offset":28,"length":6,"data":"react"},{"type":"hashtag","offset":35,"length":6,"data":"redux"},{"type":"hashtag","offset":42,"length":3,"data":"js"},{"type":"hashtag","offset":46,"length":11,"data":"typescript"},{"type":"hashtag","offset":58,"length":10,"data":"ульяновск"},{"type":"hashtag","offset":69,"length":9,"data":"крснодар"},{"type":"hashtag","offset":79,"length":15,"data":"нижнийновгород"},{"type":"hashtag","offset":95,"length":7,"data":"самара"},{"type":"hashtag","offset":103,"length":9,"data":"тольятти"},{"type":"hashtag","offset":113,"length":7,"data":"ижевск"},{"type":"hashtag","offset":121,"length":8,"data":"воронеж"},{"type":"hashtag","offset":130,"length":7,"data":"казань"},{"type":"hashtag","offset":138,"length":9,"data":"fulltime"},{"type":"hashtag","offset":148,"length":9,"data":"удаленно"},{"type":"hashtag","offset":158,"length":5,"data":"офис"},{"type":"handle","offset":1149,"length":15,"data":"Dinovikova1477"}],"date":"2020-06-25T11:31:56+00:00","link":"tg://resolve?domain=javascript_jobs_feed&post=16357","tags":[{"name":"javascript"},{"name":"reactjs"},{"name":"redux"},{"name":"typescript"},{"name":"html"},{"name":"css"},{"name":"git"},{"name":"java"},{"name":"react-redux"}],"cities":[{"code":"ulyanovsk"},{"code":"samara"},{"code":"izhevsk"},{"code":"voronezh"},{"code":"kazan"}],"allowsRemote":true}},{"node":{"__typename":"Job","id":"92279930880-1001067529236","title":"Python developer","text":"#вакансия #senior #upperintermediate #fullstack #remote\nкомпания s-o-services\nз\\п 2800-3800$, оформление по ип (компании в рф нет)\nзаказчик американское издательство\nконтакты @erzentd\n\nТребования:\n\n4+ years of demonstrated experience successfully launching complex projects on time\n2+ years of experience as a full-time developer for a web app, custom software product or organization web site\n3+ years of experience with most or all of the following: Python & Django, relational DBs, jQuery & JavaScript, HTML, CSS/LESS, Git\nExperience with the following technologies preferred but not required: MongoDB, PostgreSQL, Elasticsearch,\nWordPress, CDNs, uWSGI, Redis, Celery, Jenkins, Sentry, New Relic, Nginx, CentOS, RabbitMQ, React, \nSalesforce, Marketo, high availability systems, or graph databases\nOrganized, detail and deadline oriented, highly focused\nAbility to prioritize & manage multiple projects at one time; cool under pressure\nAnalytical thinker with strong/creative problem solving skills\nExperience with Agile development methodologies\nStrong written and verbal communication skills\nAn interest in government, elections, and associated datasets","markup":[{"type":"hashtag","offset":0,"length":9,"data":"вакансия"},{"type":"hashtag","offset":10,"length":7,"data":"senior"},{"type":"hashtag","offset":18,"length":18,"data":"upperintermediate"},{"type":"hashtag","offset":37,"length":10,"data":"fullstack"},{"type":"hashtag","offset":48,"length":7,"data":"remote"},{"type":"handle","offset":175,"length":8,"data":"erzentd"}],"date":"2020-06-25T10:25:16+00:00","link":"tg://resolve?domain=python_jobs&post=88005","tags":[{"name":"python"},{"name":"web"},{"name":"django"},{"name":"jquery"},{"name":"javascript"},{"name":"html"},{"name":"css"},{"name":"git"},{"name":"mongodb"},{"name":"postgresql"},{"name":"elasticsearch"},{"name":"wordpress"},{"name":"redis"},{"name":"jenkins"},{"name":"nginx"},{"name":"centos"},{"name":"rabbitmq"},{"name":"reactjs"}],"cities":[],"allowsRemote":true}},{"node":{"__typename":"Job","id":"1736441856-1001091028994","title":"Java разработчик","text":"Город: #москва, м. Кутузовская \nКомпания: Лига Цифровой Экономики \nПозиция:  #fullstack #java #senior разработчик  \nФормат работы: #офис #fulltime\nЗарплатная вилка: 220 000 – 230 000 \n\nВсем привет! \nИщу senior java разработчика с желанием развиваться во fullstack (js+React).\nКоманда занимается разработкой продукта, реализующего инструменты анализа данных и методик расчета метрик, он-лайн и офф-лайн отчетности (Grafana, QlikView, Qlik Sense)\n\nКроме желания мы ожидаем от вас:\n- опыт коммерческой разработки на java от 3 лет;\n- опыт использования Spring;\n- знание JavaScript/HTML/CSS;\n- умение оценивать объем работ по поставляемым бизнес-требованиям и выдерживать обозначенные сроки.\n \nВ нашей команде вы будете:\n- участвовать в развитии текущего функционал оперативной отчетности (фронт: Grafana, JS+React; бэк: Java);\n- лидировать команду разработки, распределять и контролировать задачи на junior-разработчиков; \n- участвовать в выстраивании процессов и требований к аналитическим материалам, передачи функционала в тестирование;\n- участвовать в приемочных испытаниях и помогать в установке/настройке функционала в промышленном контуре, а также консультировать и bug-fix в случае выявления дефектов.\n\nМы, в свою очередь, предлагаем: \n- удобное для вас время начала работы (с 9 до 11);\n- первое время удаленная работа, далее - офис 5/2;\n- развитую систему внутренних тренингов и возможность обучатся на внешних курсах;\n- расширенный ДМС, скидки на фитнес и обучение английскому языку, оплачиваемая мобильная связь и многое другое.\n\nЖдем ваши резюме!\n@hr_ushka\nosalina@digitalleague.ru","markup":[{"type":"bold","offset":0,"length":6,"data":""},{"type":"hashtag","offset":7,"length":7,"data":"москва"},{"type":"bold","offset":32,"length":9,"data":""},{"type":"bold","offset":67,"length":8,"data":""},{"type":"hashtag","offset":77,"length":10,"data":"fullstack"},{"type":"hashtag","offset":88,"length":5,"data":"java"},{"type":"hashtag","offset":94,"length":7,"data":"senior"},{"type":"bold","offset":116,"length":14,"data":""},{"type":"hashtag","offset":131,"length":5,"data":"офис"},{"type":"hashtag","offset":137,"length":9,"data":"fulltime"},{"type":"bold","offset":147,"length":17,"data":""},{"type":"bold","offset":446,"length":33,"data":""},{"type":"bold","offset":689,"length":27,"data":""},{"type":"bold","offset":1207,"length":31,"data":""},{"type":"bold","offset":1537,"length":18,"data":""},{"type":"handle","offset":1555,"length":9,"data":"hr_ushka"},{"type":"link","offset":1565,"length":24,"data":"mailto:osalina@digitalleague.ru"}],"date":"2020-06-25T09:37:50+00:00","link":"tg://resolve?domain=jvmjobs&post=1656","tags":[{"name":"java"},{"name":"jvm"},{"name":"reactjs"},{"name":"spring"},{"name":"javascript"},{"name":"html"},{"name":"css"}],"cities":[{"code":"moscow"}],"allowsRemote":true}},{"node":{"__typename":"Job","id":"17143169024-1001110946746","title":"Js разработчик","text":"#вакансия #remote #frontend #Angularjs #Angular #middle #senior #удаленка \n\nГород: Краснодар\nФормат работы: remote \nЗанятость: fulltime\nВилка: 120-180k net \n\nНемного о нас: \nНа протяжении 14 лет наша команда создает кастомные веб/мобильные приложения и дизайн. \nПриглашаем к сотрудничеству на удаленной постоянно основе опытного разработчика front-end со знанием старой и новой версии Angular (Angular.js/Angular 9). \nПроект:  продукт для крупного бизнеса (USA) \n\nЗадачи: разработка front-end части на Anagular. \n\nНазвание компании: Softlight \n\nТребования: \nОпыт в разработке front-end на Angular от 3-х лет;\nОбязательный опыт работы со старой версией Angular 1.x и новой (Angular 9)\n JavaScript, HTML5/CSS3 \nработа в распределенной команде \n\nМы предлагаем:\n- Полностью удаленную работу\n- Участие в разработке зарубежных продуктов (USA)\n- Пятидневная рабочая неделя ( с 9-10 до 18-19 МСК), госпраздники - выходные\n- Оформление ИП\n- Оплачиваемый отпуск и больничный \n- Работу в слаженной опытной команде \n\nКонтакты: @MikeHR или mzaharov@softlightllc.com","markup":[{"type":"hashtag","offset":0,"length":9,"data":"вакансия"},{"type":"hashtag","offset":10,"length":7,"data":"remote"},{"type":"hashtag","offset":18,"length":9,"data":"frontend"},{"type":"hashtag","offset":28,"length":10,"data":"Angularjs"},{"type":"hashtag","offset":39,"length":8,"data":"Angular"},{"type":"hashtag","offset":48,"length":7,"data":"middle"},{"type":"hashtag","offset":56,"length":7,"data":"senior"},{"type":"hashtag","offset":64,"length":9,"data":"удаленка"},{"type":"handle","offset":1015,"length":7,"data":"MikeHR"},{"type":"link","offset":1027,"length":25,"data":"mailto:mzaharov@softlightllc.com"}],"date":"2020-06-25T08:30:01+00:00","link":"tg://resolve?domain=javascript_jobs_feed&post=16349","tags":[{"name":"javascript"},{"name":"angularjs"},{"name":"dotnet"},{"name":"html"},{"name":"css"}],"cities":[{"code":"krasnodar"}],"allowsRemote":true}},{"node":{"__typename":"Job","id":"17133731840-1001110946746","title":"Js developer","text":"#вакансия #frontenddeveloper #frontend\n\nГород и адрес офиса: Москва\n\nФормат работы: удаленна\n\nЗанятость: проектная, далее возможно заключение долгосрочного контракта с бонусами за развитие компании (испытательный срок - 2 месяца)\n\nЗарплатная вилка: от 90 000 до 130 000 руб.\n\nОписание вакансии: РАЗРАБОТКА ИНТЕРНЕТ  ПЛАТФОРМЫ ДЛЯ СОЗДАНИЯ КОМПЬЮТЕРНОЙ ГРАФИКИ ДЛЯ ИГР И СПЕЦЭФФЕКТОВ В КИНО (cg-doo.com)\n\nТребуемый опыт работы: 2–5 лет\n\nНеобходимые навыки:\n- уверенное знание JavaScript, React / Redux, HTML5, CSS3\n- опыт коммерческой разработки с использованием React.JS, Redux от года\n- опыт работы с ES6\n- знание английского на уровне чтения документации\n\nБудет плюсом:\n- опыт работы с Docker, Git\n\nСтек проекта:\n- SPA-приложение JS / React / Redux;\n- бэкэнд на Django/Postgresql/Redis/Celery/RabbitMQ; \n- NginX, kubernetes\n\nНазвание компании: Argunov Studio (https://argunov.studio)\n\nПодробнее ознакомиться с компанией и вакансией можно здесь: https://help.cg-doo.com/work-in-cg-doo/vacancies/frontend-developer\n\nКонтакты: телеграм @victoriashrv и/или на почту vicsukhareva@yandex.ru (пожалуйста, прикладывайте резюме или сопроводительное письмо)\n\n—\n\n👉 Обсуждение вакансии в чате @javascript_jobs","markup":[{"type":"hashtag","offset":0,"length":9,"data":"вакансия"},{"type":"hashtag","offset":10,"length":18,"data":"frontenddeveloper"},{"type":"hashtag","offset":29,"length":9,"data":"frontend"},{"type":"link","offset":391,"length":10,"data":"http://cg-doo.com"},{"type":"link","offset":862,"length":22,"data":"https://argunov.studio"},{"type":"link","offset":947,"length":67,"data":"https://help.cg-doo.com/work-in-cg-doo/vacancies/frontend-developer"},{"type":"handle","offset":1035,"length":13,"data":"victoriashrv"},{"type":"link","offset":1064,"length":22,"data":"mailto:vicsukhareva@yandex.ru"},{"type":"handle","offset":1184,"length":16,"data":"javascript_jobs"}],"date":"2020-06-24T13:37:13+00:00","link":"tg://resolve?domain=javascript_jobs_feed&post=16340","tags":[{"name":"javascript"},{"name":"reactjs"},{"name":"redux"},{"name":"html"},{"name":"css"},{"name":"docker"},{"name":"git"},{"name":"django"},{"name":"postgresql"},{"name":"redis"},{"name":"rabbitmq"},{"name":"nginx"},{"name":"kubernetes"},{"name":"react-redux"}],"cities":[{"code":"moscow"}],"allowsRemote":false}},{"node":{"__typename":"Job","id":"17130586112-1001110946746","title":"Javascript разработчик","text":"#вакансия #javascript #typescript \n\nFrontend-разработчик (удаленно или в офисе)\n\nГород и адрес офиса: Санкт-Петербург\nФормат работы: офис в Санкт-Петербурге или удаленка по России / full time\nЗанятость: полная\nЗарплатная вилка: от 80 000 до 280 000 рублей\n\nОписание вакансии: \n\nОсновной стек технологий — JavaScript, TypeScript, HTML/CSS. Сейчас мы разрабатываем бизнес-функционал приложения и будем рады новому специалисту в нашей команде, который вольется в проект и мы вместе будем делать frontend с нативным кодом и отзывчивым интерфейсом.\n\nМы ожидаем, что у вас есть:\n\n🔹Хорошее знание JavaScript, TypeScript, HTML/CSS;\n\n🔹Умение пользоваться отладчиком в браузере;\n\n🔹Навыки уверенной работы с Git.\n\nРады предложить:\n\n🔹Возможность работать удаленно;\n\n🔹Желаемый оклад по результатам собеседования;\n\n🔹Понятную систему роста зарплаты каждые 6 месяцев, в которой все зависит только от вас;\n\nУ нас есть общие ценности, такие как стремление к качественному результату, забота о продукте и желание двигаться вперед. Также у нас нет “Начальства”, а есть коллеги. Все взаимодействуют горизонтально, работают бок о бок и делают одно общее дело.\n\nБлагодарим за внимание к нашей вакансии, будем рады познакомиться и ответить на ваши вопросы ツ\n\nНазвание компании: Blogman https://orenburg.hh.ru/employer/3069197\nКонтакты: @alinablogman\n\n—\n\n👉 Обсуждение вакансии в чате @javascript_jobs","markup":[{"type":"hashtag","offset":0,"length":9,"data":"вакансия"},{"type":"hashtag","offset":10,"length":11,"data":"javascript"},{"type":"hashtag","offset":22,"length":11,"data":"typescript"},{"type":"link","offset":1268,"length":39,"data":"https://orenburg.hh.ru/employer/3069197"},{"type":"handle","offset":1318,"length":13,"data":"alinablogman"},{"type":"handle","offset":1366,"length":16,"data":"javascript_jobs"}],"date":"2020-06-24T13:06:56+00:00","link":"tg://resolve?domain=javascript_jobs_feed&post=16337","tags":[{"name":"javascript"},{"name":"typescript"},{"name":"html"},{"name":"css"},{"name":"git"}],"cities":[{"code":"orenburg"}],"allowsRemote":true}},{"node":{"__typename":"Job","id":"17127440384-1001110946746","title":"Js developer","text":"#вакансия #js #extjs #frontend\nГород: Москва (М. Киевская)\nФормат работы: удаленная работа\nЗанятость: полная\nЗ.п.: 90 - 150 т.р. net\n\nFrontend developer Doczilla\nСкиллы: JavaScript, HTML5, CSS3 (будет плюсом: C/С++/Java).\n\nПроект Doczilla Pro - платформа для подготовки документов и совместной работы с ними.\n- Клиентская часть разрабатывается на \"чистом\" JavaScript без использования сторонних фреймворков. \n- Подход к разработке клиентской части похож на фреймворк Sencha ExtJS с его объектно-ориентированным стилем описания JavaScript-классов, однако избавлен от всего лишнего.\n- Серверная часть Doczilla Pro разрабатывается на Java, использование сторонних библиотек минимально.\n- Для решения задач интеграции с внешними сервисами применяется язык программирования BL из состава фреймворка Z8 (https://github.com/zenframework/z8).\n- Для понимания специфики проекта мы предлагаем выполнить тестовое задание.\n\nИнтереснейший и очень перспективный проект от команды профессиональных юристов. Присоединяйся!\n\nНазвание компании: Лекс Борелис\nLexborealis.com\nDoczilla.ru\n\nСтрельченко Дмитрий \n+7-960-869-03-03\nstrelchenko@doczilla.ru \ntelegram @d_strelchenko","markup":[{"type":"hashtag","offset":0,"length":9,"data":"вакансия"},{"type":"hashtag","offset":10,"length":3,"data":"js"},{"type":"hashtag","offset":14,"length":6,"data":"extjs"},{"type":"hashtag","offset":21,"length":9,"data":"frontend"},{"type":"link","offset":798,"length":34,"data":"https://github.com/zenframework/z8"},{"type":"link","offset":1040,"length":15,"data":"http://Lexborealis.com"},{"type":"link","offset":1056,"length":11,"data":"http://Doczilla.ru"},{"type":"link","offset":1090,"length":16,"data":"tel:+7-960-869-03-03"},{"type":"link","offset":1107,"length":23,"data":"mailto:strelchenko@doczilla.ru"},{"type":"handle","offset":1141,"length":14,"data":"d_strelchenko"}],"date":"2020-06-24T09:54:00+00:00","link":"tg://resolve?domain=javascript_jobs_feed&post=16334","tags":[{"name":"javascript"},{"name":"extjs"},{"name":"dotnet"},{"name":"html"},{"name":"css"},{"name":"java"},{"name":"github"}],"cities":[{"code":"moscow"},{"code":"kiev"}],"allowsRemote":true}}]}}},"context":{}}