{"hash":"f5f6bf98bd95e769321482904cbbd488f77922fd","data":{"records":{"id":"sql","name":"sql","belongsTo":{"totalCount":169,"pageInfo":{"totalPages":17,"currentPage":13},"edges":[{"node":{"__typename":"Job","id":"91154808832-1001067529236","title":"Python разработчик","text":"#вакансия #python #django #middle #senior #фултайм #Кипр #remote                                                                                                                                                                         Компания: Exness\nФормат работы: удаленная или релокация на Кипр (по желанию кандидата)\nЗанятость: полная\nЗарплатная вилка: от 3000 EUR (обсуждаем с кандидатами по итогам интервью)                                                                               \n🌟Кто мы?\nМы финтех компания, разрабатывающая B2B и B2C решения, с более чем 100 тысячами активных клиентов. Мы развиваемся и быстро движемся, ориентируясь на данные, мы всегда узнаем что-то новое о наших клиентах и находим новые способы сделать наш продукт более полезным и удобным для них. У нас есть 3 офиса: на Кипре, в Малайзии и Великобритании, более 600 сотрудников и 50 национальностей среди сотрудников.\n\n🤩Кого мы ищем?\nК нам в команду Identity & Access Management (IAM) нужен инженер, любящий backend, имеющий опыт разработки на Python и стремящийся к простым решениям сложных задач. Будет классно, наличие опыта построения микросервисной архитектуры, знание SQL, любовь к написанию unit тестов. \n\n🤗Чем предстоит заниматься?\nРазрабатывать новые и поддерживать старые сервисы, связанные с аутентификацией, авторизацией, верификацией и процедурами KYC. Участвовать в код ревью и командных активностях. Покрывать свой код unit тестами. \n\n🛠Наш стек технологий:\n -Python 3.x\n -Django, FastAPI, aiohttp\n -PostgreSQL, Redis\n -Kafka\n -Docker, Kubernetes, Rancher\n\n🔥Мы предлагаем:\nПри удаленном сотрудничестве:\n-Медицинское страхование для сотрудника и членов их семей;\n-Компенсация спорта;\n-Путешествие на Кипр, чтобы познакомиться со своей командой (раз в год).\nПри желании релокации на Кипр:\n-Релокационный пакет для нового сотрудника и его семьи (билеты, визы, разрешение на работу, корпоративная квартира на первый месяц и т. д.);\n-Корпоративный автомобиль Мини Купер S и парковка возле офиса или автобусные билеты;\n-Медицинское страхование для сотрудника и членов их семей;\n-Корпоративный фитнес-центр для сотрудников и их супругов;\n-Программа компенсации детского сада / школы;\n-Непрерывное профессиональное развитие, много интересных задач;\n-Отличный офис со свежевыжатыми соками, печеньем и лучшим видом на море из нашего собственного бара на крыше. \n\nНемного больше об Exness - https://clck.ru/N7aRd.\n\nЕсли тебе интересно, пишите в Telegram @sofia_tomashevich или на почту sofia.tomashevich@exness.com","markup":[{"type":"hashtag","offset":0,"length":9,"data":"вакансия"},{"type":"hashtag","offset":10,"length":7,"data":"python"},{"type":"hashtag","offset":18,"length":7,"data":"django"},{"type":"hashtag","offset":26,"length":7,"data":"middle"},{"type":"hashtag","offset":34,"length":7,"data":"senior"},{"type":"hashtag","offset":42,"length":8,"data":"фултайм"},{"type":"hashtag","offset":51,"length":5,"data":"Кипр"},{"type":"hashtag","offset":57,"length":7,"data":"remote"},{"type":"link","offset":2385,"length":21,"data":"https://clck.ru/N7aRd"},{"type":"handle","offset":2448,"length":18,"data":"sofia_tomashevich"},{"type":"link","offset":2480,"length":28,"data":"mailto:sofia.tomashevich@exness.com"}],"date":"2020-06-18T06:16:03+00:00","link":"tg://resolve?domain=python_jobs&post=0","tags":[{"name":"python"},{"name":"django"},{"name":"ms-access"},{"name":"sql"},{"name":"postgresql"},{"name":"redis"},{"name":"kafka"},{"name":"docker"},{"name":"kubernetes"}],"cities":[{"code":"sofia"}],"allowsRemote":true}},{"node":{"__typename":"Job","id":"1703936000-1001091028994","title":"Java разработчик","text":"#java #sprig #SQL #архитектор #architect\nЛокация: #Москва #Санкт-Петербург, #Нижний Новгород #удаленка \nКомпания: КРОК www.croc.ru\nЗ/п: до 250000 р.\n\nКонтакты для связи, и все вопросы сюда: @albinaset\n\nИщем Java архитектора на проект для Топ-5 банка.\n\nТребования:\nПрактические знания в интеграционных проектах;\nПонимание принципов работы ассиметричной/симметричной криптографии;\nОпыт работы и проектирования реляционных, документно-ориентированных СУБД;\nПонимание Web Services, SOA, MSA, Lambda и потоковой обработки данных;\nЗнание работы менеджеров/брокеров сообщений;\n\nЗадачи:\nАнализ потребности заказчика со стороны бизнеса;\nПроектирование ИТ-решений;\nРешать архитектурные вопросы в ходе реализации ИТ-проектов;\nСогласовывать и защищать принимаемые решения;\nРазрабатывает и поддерживает в актуальном состоянии описание текущей ИТ-архитектуры, участвовать в проектировании целевой ИТ-архитектуры;\nРазрабатывать и согласовывать проектную документацию;","markup":[{"type":"hashtag","offset":0,"length":5,"data":"java"},{"type":"hashtag","offset":6,"length":6,"data":"sprig"},{"type":"hashtag","offset":13,"length":4,"data":"SQL"},{"type":"hashtag","offset":18,"length":11,"data":"архитектор"},{"type":"hashtag","offset":30,"length":10,"data":"architect"},{"type":"hashtag","offset":50,"length":7,"data":"Москва"},{"type":"hashtag","offset":58,"length":6,"data":"Санкт"},{"type":"hashtag","offset":76,"length":7,"data":"Нижний"},{"type":"hashtag","offset":93,"length":9,"data":"удаленка"},{"type":"link","offset":119,"length":11,"data":"http://www.croc.ru"},{"type":"handle","offset":190,"length":10,"data":"albinaset"}],"date":"2020-06-17T22:29:38+00:00","link":"tg://resolve?domain=jvmjobs&post=1625","tags":[{"name":"java"},{"name":"jvm"},{"name":"sql"},{"name":"web"},{"name":"aws-lambda"}],"cities":[{"code":"moscow"},{"code":"nizhny-novgorod"}],"allowsRemote":true}},{"node":{"__typename":"Job","id":"26397900800-1001075660570","title":"Php developer","text":"#вакансия #PHP #Symfony #fulltime  #удаленка  #middle #senior\nВакансия:PHP Developer (Symfony )\nНазвание компании: Farset \nФормат работы: удаленная работа, проект от 6 месяцев.\nЗанятость: 168 часов в месяц.\nЗарплатная вилка от 800-1300 рубл/час, готовы также платить и по фиксу.\nО нас: Занимаемся в основном backend разработкой, сейчас ищем таланты для работы с нашими партнерами,обычно это известные бренды, которые имеют инхаус разработку, но усиливают команду людьми с аутстаффинга.\n\nТребования \n· Опыт работы от 2х лет \n· Понимание паттернов проектирования \n· Обязателен опыт работы с Symfony 3.4+, знаний основных компонентов фреймворка \n· Понимание принципов работы клиент-серверных систем \n· Уверенная работа с реляционными СУБД (предпочтительно PostgreSQL ): join, \nsubquery, агрегирующие функции, группировки, транзакции, индексы \n· Уверенный пользователь Linux \n· Английский язык на уровне чтения и понимания технической документации \n\nЖелательно: \n· Понимание принципов SOLID, KISS, DRY \n· Понимание того, как работают DI, Doctrine \n· Опыт работы с брокерами сообщений: Kafka, RabbitMQ \n· Опыт оптимизации SQL запросов \n· Понимание того, как подготавливается backend под высокие нагрузки\n\nКонтакты для связи: @Pantera131 ( пишите постараюсь ответить на все вопросы)","markup":[{"type":"hashtag","offset":0,"length":9,"data":"вакансия"},{"type":"hashtag","offset":10,"length":4,"data":"PHP"},{"type":"hashtag","offset":15,"length":8,"data":"Symfony"},{"type":"hashtag","offset":24,"length":9,"data":"fulltime"},{"type":"hashtag","offset":35,"length":9,"data":"удаленка"},{"type":"hashtag","offset":46,"length":7,"data":"middle"},{"type":"hashtag","offset":54,"length":7,"data":"senior"},{"type":"handle","offset":1220,"length":11,"data":"Pantera131"}],"date":"2020-06-17T19:24:54+00:00","link":"tg://resolve?domain=php_jobs&post=25175","tags":[{"name":"php"},{"name":"symfony"},{"name":"postgresql"},{"name":"linux"},{"name":"doctrine"},{"name":"kafka"},{"name":"rabbitmq"},{"name":"sql"}],"cities":[],"allowsRemote":true}},{"node":{"__typename":"Job","id":"103088652288-1001089317451","title":"Qa инженер","text":"#Иннополис #fulltime  #manualqa #manual #тестировщик  #офис #вакансия\nКомпания:X5 Retail Group («Х5»)\nВакансия : QA manual\nГород: Иннополис (офис, удаленки нет) \nВилка: 70т.р.-100т.р. на руки\nТребования\nОпыт в тестировании от 2-х лет\nХорошие навыки тест-дизайна\nОпыт работы с инструментами ИТ (SoapUI, Postman, и т.д)\nОпыт работы с базами данных (Oracle, PostgreSQL, FireBird)\nХорошие коммуникативные навыки\nЗнание SQL на уровне написания простых запросов\nЗнание методологий тестирования\nЖелателен\nОпыт работы c Linux системами\nОпыт работы с распределенной командой\nОпыт работы с HP ALM\nОпыт работы с Jira, Confluence\nОпыт работы с инструментами/фреймворками автоматизации\nОпыт тестирования оборудования\nПонимание процессов ритейла\nУсловия\nРабота в современном офисе в г. Иннополис\nСкидки на спорт\nСофинансирование обучения\n5-10% скидки в магазинах «Пятерочка», «Перекресток», «Карусель», «Перекресток-экспресс»\nОформление по ТК РФ, белая зп, премия по итогам года.\nО проекте:\nIT-отдел X5 в Иннополисе занимается разработкой комплекса программного обеспечения, используемого для автоматизации процессов магазинов таких торговых сетей как «Пятерочка», «Перекресток», «Карусель».\nНа данный момент команда находится на стадии трансформации процессов разработки. Уходим от Waterfall в сторону гибких методологий.\nОсновными задачами команды тестирования являются:\nТестирование бэк-офиса\nТестирование мобильного приложения\nТестирование рассчетно-кассового оборудования\nПосле ознакомления с основным функционалом, тестировщик определяется в конкретную команду.\nХотелось бы выделить несколько основных моментов:\nКаждая команда пользуется своей методологией, в зависимости от поставленных задач. На каких-то проектах еще сохраняется Waterfall, на других - Agile.\nВсе кейсы тестировщики трекают и проходят в HP ALM\nКоманды разработки расположены в разных городах России. Команда Иннополиса собирается с нуля и постепенно интегрируется в рабочие процессы\nСтэк технологий для тестировщика включает в себя SQL и Java","markup":[{"type":"hashtag","offset":0,"length":10,"data":"Иннополис"},{"type":"hashtag","offset":11,"length":9,"data":"fulltime"},{"type":"hashtag","offset":22,"length":9,"data":"manualqa"},{"type":"hashtag","offset":32,"length":7,"data":"manual"},{"type":"hashtag","offset":40,"length":12,"data":"тестировщик"},{"type":"hashtag","offset":54,"length":5,"data":"офис"},{"type":"hashtag","offset":60,"length":9,"data":"вакансия"}],"date":"2020-06-17T16:43:43+00:00","link":"tg://resolve?domain=qa_jobs&post=0","tags":[{"name":"qa"},{"name":"oracle"},{"name":"postgresql"},{"name":"sql"},{"name":"linux"}],"cities":[],"allowsRemote":false}},{"node":{"__typename":"Job","id":"91047854080-1001067529236","title":"Python разработчик","text":"#вакансия #удаленка #remote #системныйаналитик \nВсем привет!\nВакансия: Python developer\nФормат работы: УДАЛЕННО\nЗАнятость: полная, гибкое начало дня\nЗаработная плата: до 120.000 на руки\n\n👾 Компания АК Барс Цифровые технологии находится в поиске Python разработчика на удаленный формат работы. Это современная продуктовая компания и команда крутых профессионалов, которые разрабатывают новейшие продукты в финтех индустрии. Сейчас они работают над совершенно новым масштабным проектом, основной задачей которого является трансформация архитектуры розничного бизнеса - продукта, которым пользуются абсолютно все. В компании чистый Agile - гибкие подходы и процессы, максимум свободы и инициативности. \n\n✅Требования: \nКоманды ищут специалиста с коммерческим опытом разработки на Python от 1,5 лет.\nОт вас ожидается отличное знание Python, SQL, Git и REST.\n\n🚀В свою очередь ребята предлагают отличные условия:\n🔹Официальное оформление, полностью белую З/П\n🔹Льготные условия кредитования\n🔹Молодой и дружный коллектив, гибкий график работы, комфортная и позитивная атмосфера \n🔹Участие в уникальных инновационных  проектах в команде настоящих профессионалов\n\n✅Контакты:\nLucky Hunter\nE-mail: maria.yurkanskaya@luckyhunter.io\nTelegram: @mashaselina\n\nПишите, буду рада рассказать подробнее о вакансии и ответить на вопросы😊","markup":[{"type":"hashtag","offset":0,"length":9,"data":"вакансия"},{"type":"hashtag","offset":10,"length":9,"data":"удаленка"},{"type":"hashtag","offset":20,"length":7,"data":"remote"},{"type":"hashtag","offset":28,"length":18,"data":"системныйаналитик"},{"type":"link","offset":1189,"length":32,"data":"mailto:maria.yurkanskaya@luckyhunter.io"},{"type":"handle","offset":1232,"length":12,"data":"mashaselina"}],"date":"2020-06-17T10:18:56+00:00","link":"tg://resolve?domain=python_jobs&post=0","tags":[{"name":"python"},{"name":"sql"},{"name":"git"},{"name":"rest"}],"cities":[],"allowsRemote":true}},{"node":{"__typename":"Job","id":"26368540672-1001075660570","title":"Php разработчик","text":"#вакансия #php #Москва #разработчик\nВакансия: Fullstack Developer\nЛокация: Москва\nКомпания: Bliss Finance\nФормат работы: офис/удаленная работа\nЗанятость: Full-time\nЗарплатная вилка: от 150 000 на руки (обсуждается)\n\n🚀 О проекте\n\nМы создаем финансовую платформу, объединяющую интернет-магазины с банками и даем возможность покупателям приобретать товары в рассрочку или кредит\n\n👨‍💻 Наш будущий коллега имеет\n\n- опыт работы с PHP от 3 лет\n- опыт работы с Phalcon\n- опыт проведния интеграций с финансовыми системами\n- опыт работы с HTML, JS, CSS \n- опыт работы с базами данных SQL на уровне сложных запросов (MySQL)\n- опыт работы с CircleCI, PHPUnit\n- опыт работы с GIT\n- опыт работы с REST, SOAP\n- опыт проведения code review\n- опыт проектирования и разработки архитектуры систем\n- понимает основы DevOps\n\n🍩 Условия\n\n- работа в офисе м. Калужская\n- стабильная зарплата\n- оформление по ТК РФ\n- гибкое начало рабочего дня\n- участие в конференциях\n- перспективы профессионального и карьерного роста\n\nКонтакт: @ave_mariy","markup":[{"type":"hashtag","offset":0,"length":9,"data":"вакансия"},{"type":"hashtag","offset":10,"length":4,"data":"php"},{"type":"hashtag","offset":15,"length":7,"data":"Москва"},{"type":"hashtag","offset":23,"length":12,"data":"разработчик"},{"type":"handle","offset":1008,"length":10,"data":"ave_mariy"}],"date":"2020-06-17T10:06:56+00:00","link":"tg://resolve?domain=php_jobs&post=25147","tags":[{"name":"php"},{"name":"html"},{"name":"css"},{"name":"sql"},{"name":"mysql"},{"name":"phpunit"},{"name":"git"},{"name":"rest"},{"name":"soap"}],"cities":[{"code":"moscow"}],"allowsRemote":true}},{"node":{"__typename":"Job","id":"103039369216-1001089317451","title":"Qa engineer","text":"#вакансия #QA #ФТ #СПб #офис \n\nВакансия: QA Engineer (ручное с переходом в АТ), Middle/Senior\nГород: Санкт-Петербург \nЗарплата: от 100 000 до 150 000 рублей на руки \nФормат: офис, полный день, полная занятость\nКомпания Wert\n\nКоманда Wert занимается разработкой финтех-решений на базе blockchain. В данным момент мы ищем Senior QA Engineer, готового трудиться над созданием и развитием нового продукта.\n\nЧто нужно будет делать:\n • Анализ задач для разработки\n • Написание тестовой документации\n • Анализ и решение технических проблем, связанных с конфигурацией сервисов\n • Работать в тесном контакте с разработчиками.\n\nОгромным плюсом будут:\n • Опыт работы в финансовом секторе/процессинге\n • Понимание технологии blockchain\n\nВ работе мы используем:\n• Golang\n• Amazon\n• Kubernetes\n• PostgreSQL\n• Redis\n\nЧто мы ожидаем от вас:\n • Опыт в тестировании как backend, так и frontend от 2-х лет\n • Умение составлять план тестирования.\n • Базовое понимание вопросов безопастности (SQL Injection, XSS, OWASP - хоть одно слово должно вызвать отклик)\n • Знание видов тестирование и понимание разницы между ними.\n • Наличие опыта работы с баг-трекинговыми и кейс-трекинговыми системами (например, с JIRA и TestRail)\n • Способность аргументированно выбирать оптимальные инструменты и решения\n • Умение работать в команде и самостоятельно\n\nЧто мы можем предложить:\n • участие в интересном проекте с “нуля”;\n • адекватную команду;\n • плоскую структуру компании без бюрократии.\n\n\nРезюме и вопросы @gonzogirl","markup":[{"type":"hashtag","offset":0,"length":9,"data":"вакансия"},{"type":"hashtag","offset":10,"length":3,"data":"QA"},{"type":"hashtag","offset":14,"length":3,"data":"ФТ"},{"type":"hashtag","offset":18,"length":4,"data":"СПб"},{"type":"hashtag","offset":23,"length":5,"data":"офис"},{"type":"handle","offset":1480,"length":10,"data":"gonzogirl"}],"date":"2020-06-17T09:47:25+00:00","link":"tg://resolve?domain=qa_jobs&post=0","tags":[{"name":"qa"},{"name":"go"},{"name":"kubernetes"},{"name":"postgresql"},{"name":"redis"},{"name":"sql"}],"cities":[],"allowsRemote":false}},{"node":{"__typename":"Job","id":"1701838848-1001091028994","title":"Java developer","text":"#вакансия  #удаленка #Java #Spring #senior #middle #backend\nЛокация: #регион \nФормат работы: #fulltime #удаленка\nЗ/п: 80-160 NET\nВакансия: Java developer (senior,middle)\nКомпания: X5 Retail Group\nКонтакты: @CatProgramist\nТребования:\n- отличное понимание Java Core, Collections, Multithreading, transaction API\n- Spring\n- Hibernate, JDBC\n- SOAP\n- REST\n- Maven, Gradle\n- ActiveMQ\n- Git\n- *nix\nНаш целевой стек: Java 11+, Spring Boot, Spring Cloud, Netflix, PostgreSQL.  \nРаботаем в окружении CI/CD на GitLab, Apache Maven, Jira, Confluence (сейчас переписывают на этом стеке)\nСтарый стек проекта: Java 8, Spring Core, Spring Security, TBI (ORM), PostgreSQL, SQL, Jasper, Swing, XML, Jetty Embedded, Junit, Mockito, PowerMock, JBehave, maven, gradle, Jenkins, Gitlab, Sonar, REST, RMI, Git, CI/CD\nУсловия:\nУдаленка\nОфициальное трудоустройство и оформление полностью согласно ТК РФ\nДополнительная медицинская страховка (ДМС) – после испытательного срока","markup":[{"type":"hashtag","offset":0,"length":9,"data":"вакансия"},{"type":"hashtag","offset":11,"length":9,"data":"удаленка"},{"type":"hashtag","offset":21,"length":5,"data":"Java"},{"type":"hashtag","offset":27,"length":7,"data":"Spring"},{"type":"hashtag","offset":35,"length":7,"data":"senior"},{"type":"hashtag","offset":43,"length":7,"data":"middle"},{"type":"hashtag","offset":51,"length":8,"data":"backend"},{"type":"hashtag","offset":69,"length":7,"data":"регион"},{"type":"hashtag","offset":93,"length":9,"data":"fulltime"},{"type":"hashtag","offset":103,"length":9,"data":"удаленка"},{"type":"handle","offset":206,"length":14,"data":"CatProgramist"}],"date":"2020-06-17T08:02:57+00:00","link":"tg://resolve?domain=jvmjobs&post=1623","tags":[{"name":"java"},{"name":"jvm"},{"name":"spring"},{"name":"dotnet"},{"name":"hibernate"},{"name":"jdbc"},{"name":"soap"},{"name":"rest"},{"name":"maven"},{"name":"gradle"},{"name":"git"},{"name":"cloud"},{"name":"postgresql"},{"name":"gitlab"},{"name":"apache"},{"name":"orm"},{"name":"sql"},{"name":"swing"},{"name":"xml"},{"name":"jetty"},{"name":"junit"},{"name":"jenkins"},{"name":"spring-boot"},{"name":"spring-security"}],"cities":[],"allowsRemote":true}},{"node":{"__typename":"Job","id":"26351763456-1001075660570","title":"Php developer","text":"#вакансия #москва #офис #fulltime #yii #php\n\n Позиция: Senior PHP Developer\nЗанятость: полная\nКомпания: ТД ЦУМ \nЛокация: Москва\nЗ/П: до 270.000\n\n   Основные цели и задачи:\n- Разработка программных модулей продуктов компании;\n- Глубокое погружение в процессы работы интернет-магазина;\n- Участие в разработке сервис-ориентированной архитектуре приложения.\n\n   Основные обязанности:\n- Разработка и поддержка инфраструктуры интернет-проекта, мобильного приложения и внутренних сервисов компании;\n- Разработка программных модулей продуктов интернет магазина ЦУМ;\n- Оптимизация приложения под высокую нагрузку, масштабирование, поиск узких мест;\n- Интеграция со сторонними сервисами;\n- Предложение и внедрение высокотехнологичных, инновационных решений.\n\nТребования:\n- Отличное знание и опыт работы с PHP 5.3 (желательно 7) от 3 лет;\n- Понимание как устроен HTTP, REST;\n- Знание и понимание MVC архитектуры;\n- Знание и опыт работы фреймворком YII;\n- Опыт работы с одной или несколькими БД: MySQL, Redis, Mongo;\n- Опыт мониторинга и оптимизации SQL-запросов;\n\n   Условия работы:\n- Полный рабочий день.\n- Официальное оформление по трудовому договору.\n- Офис в центре Москвы.\n- ДМС.\n\nЗа подробностями в личку - @nastyaklassnaya","markup":[{"type":"hashtag","offset":0,"length":9,"data":"вакансия"},{"type":"hashtag","offset":10,"length":7,"data":"москва"},{"type":"hashtag","offset":18,"length":5,"data":"офис"},{"type":"hashtag","offset":24,"length":9,"data":"fulltime"},{"type":"hashtag","offset":34,"length":4,"data":"yii"},{"type":"hashtag","offset":39,"length":4,"data":"php"},{"type":"handle","offset":1202,"length":16,"data":"nastyaklassnaya"}],"date":"2020-06-17T07:47:26+00:00","link":"tg://resolve?domain=php_jobs&post=25131","tags":[{"name":"php"},{"name":"yii"},{"name":"rest"},{"name":"mysql"},{"name":"redis"},{"name":"sql"}],"cities":[{"code":"moscow"}],"allowsRemote":false}},{"node":{"__typename":"Job","id":"103006863360-1001089317451","title":"Qa инженер","text":"🐞🐞🐞#вакансия #QA #Ульяновск #Саранск #Казань #Самара #Уфа #Краснодар #офис #удаленная_работа\n\n🔍Middle QA-специалист🔎\n\n⚡️Компания: Simbirsoft (более 19 лет на рынке, более 700 сотрудников в штате)\n\nОчень ждем тебя, наш будущий коллега и борец за качественное ПО! :)\n\n📌Твои будущие задачи:\n• тестирование ПО (frontend, backend, API);\n• локализация и документирование найденных дефектов;\n• ведение и оптимизация тестовой документации;\n• контроль качества на всех этапах разработки ПО;\n• выстраивание и оптимизация процессов тестирования ПО.\n\n📌Что мы ждем от тебя:\n• наличие опыта от 2 лет в направлениях QA или тестирования ПО;\n• понимание разницы между QA и тестированием ПО;\n• понимание особенностей гибких методологий;\n• уверенное владение техниками тест-дизайна;\n• знание клиент-серверной архитектуры;\n• понимание особенностей тестирования web, mobile и desktop приложений;\n• навык тестирования API;\n• написание запросов SQL;\n• опыт работы с системами контроля версий (git);\n• знание основных команд работы с консолью (Windows/Linux).\n\n📌Что мы предлагаем:\n• Полностью белая ЗП два раза в месяц;\n• Оформление по ТК РФ;\n• Высокий уровень экспертности внутри компании, которым мы делимся друг с другом;\n• Перспективы вертикального и горизонтального роста;\n• Работа на российских и международных проектах;\n• Оборудованное рабочее место и парк тестовых устройств;\n• Подготовка и прохождение сертификации ISTQB бесплатно;\n• Внутренние и внешние курсы, доклады, конференции;\n• Бесплатные чай, кофе, печеньки в офисе;\n• Корпоративная спортивная программа (оплата тематических секций, частичная компенсация абонемента);\n• Проведение летних и зимних корпоративов, дня именинника, совместные походы и т.д.\n\n📌Зарплата:\n• от 50 000 (Договорная, по итогу собеседования)\n\n☎️Контакты: @nataly_max","markup":[{"type":"hashtag","offset":6,"length":9,"data":"вакансия"},{"type":"hashtag","offset":16,"length":3,"data":"QA"},{"type":"hashtag","offset":20,"length":10,"data":"Ульяновск"},{"type":"hashtag","offset":31,"length":8,"data":"Саранск"},{"type":"hashtag","offset":40,"length":7,"data":"Казань"},{"type":"hashtag","offset":48,"length":7,"data":"Самара"},{"type":"hashtag","offset":56,"length":4,"data":"Уфа"},{"type":"hashtag","offset":61,"length":10,"data":"Краснодар"},{"type":"hashtag","offset":72,"length":5,"data":"офис"},{"type":"hashtag","offset":78,"length":17,"data":"удаленная_работа"},{"type":"handle","offset":1779,"length":11,"data":"nataly_max"}],"date":"2020-06-17T05:07:15+00:00","link":"tg://resolve?domain=qa_jobs&post=0","tags":[{"name":"qa"},{"name":"web"},{"name":"mobile"},{"name":"sql"},{"name":"git"},{"name":"windows"},{"name":"linux"}],"cities":[{"code":"ulyanovsk"},{"code":"saransk"},{"code":"kazan"},{"code":"samara"},{"code":"ufa"},{"code":"krasnodar"}],"allowsRemote":true}}]}}},"context":{}}