{"hash":"f34fd2c444a074f4e0e67d525015a008ef8e766f","data":{"records":{"id":"ansible","name":"ansible","belongsTo":{"totalCount":59,"pageInfo":{"totalPages":6,"currentPage":4},"edges":[{"node":{"__typename":"Job","id":"1931476992-1001134745498","title":"Devops инженер","text":"#вакансия #Москва #фултайм #Экспресс42 #инженер\nГород: Москва\nКомпания: Экспресс 42\nФормат работы: офис\nЗанятость: полная\nЗарплата: от 120 000 до 200 000 рублей на руки\n\nМы небольшая команда, которая легко проводит эксперименты и быстро принимает решения. Мы делаем проекты по постановке практик DevOps, обучению DevOps практикам в технологических компаниях и корпоративном секторе.\nВ составе нашей команды тебя ждут разнообразные задачи по созданию и улучшению решений, обеспечивающих процессы разработки и эксплуатации цифровых продуктов наших клиентов. \nМы строим высокодоступную и удобную инфраструктуру, изучаем новые подходы и помогаем нашим клиентом с внедрением и адаптацией инженерных практик, таких как Непрерывная поставка, Инфраструктура как код, Централизованное логирование. \nИнструменты выбираем под задачу и потребности клиентов, среди основных, которые точно нужно знать: Kubernetes и его экосистема, Ansible, Terraform, CI-сервисы, системы контроля версий, облачные решения от разных провайдеров.\n\nМы ожидаем от тебя:\n— знание практик и инструментов логирования и мониторинга;\n— опыт описания инфраструктуры в виде кода (Ansible, Terraform, etc);\n— понимание процесса CI/CD;\n— слова Kubernetes, Prometheus, Jenkins, Gitlab, ELK, AWS, GCP не вызывают изумления, а заставляют трепетать нежное сердце инженера\n\nКлассно, если у тебя есть опыт эксплуатации веб-проектов в продакшене. И если при этом ты можешь похвастаться опытом применения нескольких перечисленных инструментов, то тебе точно нужно в Экспресс.\n\nУ нас действительно огненная команда. Мы вместе работаем, общаемся, ходим в бары, посещаем ивенты, организовываем внутренние хакатоны, готовим друг друга к выступлениям на конференциях, поддерживаем и болеем за наше общее дело.\nУ нас классно! Присоединяйся!\n\nКонтакты: Рушана @razrushana и rushana@express42.com\n\n—\n\n👉 Обсуждение вакансии в чате @devops_jobs","markup":[{"type":"hashtag","offset":0,"length":9,"data":"вакансия"},{"type":"hashtag","offset":10,"length":7,"data":"Москва"},{"type":"hashtag","offset":18,"length":8,"data":"фултайм"},{"type":"hashtag","offset":27,"length":11,"data":"Экспресс42"},{"type":"hashtag","offset":39,"length":8,"data":"инженер"},{"type":"handle","offset":1802,"length":11,"data":"razrushana"},{"type":"link","offset":1816,"length":21,"data":"mailto:rushana@express42.com"},{"type":"handle","offset":1872,"length":12,"data":"devops_jobs"}],"date":"2020-03-23T13:34:20+00:00","link":"tg://resolve?domain=devops_jobs_feed&post=1842","tags":[{"name":"kubernetes"},{"name":"ansible"},{"name":"jenkins"},{"name":"gitlab"},{"name":"amazon-web-services"},{"name":"google-cloud-platform"},{"name":"express"}],"cities":[{"code":"moscow"}],"allowsRemote":false}},{"node":{"__typename":"Job","id":"1930428416-1001134745498","title":"Devops инженер","text":"#вакансия #Москва #офис #полная занятость\nБанк ВТБ (ПАО) ищет DevOps инженера в отдел внедрения\nФормат работы: #офис #полнаязанятость\n\nЗадачи: \n👉разработка скриптов автоматизированного развертывания ПО на контурах банка;\n👉автоматизации процессов администрирования;\n👉владение новых подходов разработки автоматизации. \n\nТребования:\n👉опыт работы DevOps инженером от 2х лет;\n👉опыт работы с Git, Bitbucket;\n👉выстраивание процессов CI/CD с помощью Jenkins, Gitlab CI и TeamCity;\n👉экспертные навыки написания скриптов bash, powershell, python;\n👉 администрирование linux/unix, windows;\n👉  владение Ansible и Groovy;\n👉  опыт работа с Rest API, SOAP;\n👉 опыт работы с MsSQL Oracle, PostrgeSQL;\n👉 наличие опыта автоматизации бизнес-процессов и рутинных операций;\n👉  знание инструментов микросервисной архитектуры.\n \nУсловия:\n👉офис м.Алексеевская;\n👉заработная плата от 180 000 до 240 000;\n👉ДМС, спортивная жизнь;\n👉проффесиональное обучение и развитие.\n\nБолее подробно о вакансиях можно узнать у меня. Мои контакты @Nchugreeva\n+7 9264549707\nChugreeva@vtb.ru\n\n—\n\n👉 Обсуждение вакансии в чате @devops_jobs","markup":[{"type":"hashtag","offset":0,"length":9,"data":"вакансия"},{"type":"hashtag","offset":10,"length":7,"data":"Москва"},{"type":"hashtag","offset":18,"length":5,"data":"офис"},{"type":"hashtag","offset":24,"length":7,"data":"полная"},{"type":"hashtag","offset":111,"length":5,"data":"офис"},{"type":"hashtag","offset":117,"length":16,"data":"полнаязанятость"},{"type":"handle","offset":1018,"length":11,"data":"Nchugreeva"},{"type":"link","offset":1030,"length":13,"data":"tel:+7 9264549707"},{"type":"link","offset":1044,"length":16,"data":"mailto:Chugreeva@vtb.ru"},{"type":"handle","offset":1095,"length":12,"data":"devops_jobs"}],"date":"2020-03-23T13:20:40+00:00","link":"tg://resolve?domain=devops_jobs_feed&post=1841","tags":[{"name":"git"},{"name":"jenkins"},{"name":"gitlab"},{"name":"bash"},{"name":"powershell"},{"name":"python"},{"name":"linux"},{"name":"unix"},{"name":"windows"},{"name":"ansible"},{"name":"groovy"},{"name":"rest"},{"name":"soap"},{"name":"sql-server"},{"name":"oracle"}],"cities":[{"code":"moscow"}],"allowsRemote":false}},{"node":{"__typename":"Job","id":"1927282688-1001134745498","title":"Devops инженер","text":"#вакансия #DevOps #новосибирск \n\nГород: Новосибирск - на выбор два офиса - Академгородок или центр города (метро пл.Ленина)\nФормат работы: офис\nЗанятость: полная\nЗарплатная вилка: от 120 до 180 на руки (готовы смотреть выше) \n\nPushwoosh – глобальный хайлоад продукт для разработчиков и владельцев мобильных приложений и сайтов. Мы предоставляем решения для отправки пуш-уведомлений как стартапам, так и компаниям с многомиллионными аудиториями, и обрабатываем более двух миллиардов API-запросов ежедневно. \n\nЗадачи:\nподготавливать и поддерживать K8s-кластер, мониторинг (Prometheus), ansible, storage(CEPH), databases(mongodb, postgresql), очереди/in-mem(redis, kafka, rabbit). \nВсё до момента консампшена командой разработки. \n\nТребования:\n- Advanced Linux user (в идеале CentOS и RHEL);\n- Любой скриптовый язык (bash, python, etc...)\n- Хорошо знать хотя бы одну систему управления конфигами (у нас Ansible, но будем смотреть и людей с puppet, chef, terraform, etc.) \n\nРабота в офисе, не удаленка\nБелые, ДМС, фитнес, английский, курсы и т.д.  \n\nКонтакты: @glad2seeyou\n\n—\n\n👉 Обсуждение вакансии в чате @devops_jobs","markup":[{"type":"hashtag","offset":0,"length":9,"data":"вакансия"},{"type":"hashtag","offset":10,"length":7,"data":"DevOps"},{"type":"hashtag","offset":18,"length":12,"data":"новосибирск"},{"type":"handle","offset":1056,"length":12,"data":"glad2seeyou"},{"type":"handle","offset":1103,"length":12,"data":"devops_jobs"}],"date":"2020-03-23T07:48:51+00:00","link":"tg://resolve?domain=devops_jobs_feed&post=1838","tags":[{"name":"ansible"},{"name":"mongodb"},{"name":"postgresql"},{"name":"redis"},{"name":"kafka"},{"name":"rabbitmq"},{"name":"linux"},{"name":"centos"},{"name":"bash"},{"name":"python"}],"cities":[{"code":"novosibirsk"}],"allowsRemote":true}},{"node":{"__typename":"Job","id":"1926234112-1001134745498","title":"Devops инженер","text":"#вакансия #Москва #devops #полнаязанятость \n\nИщем DevOps в команду по разработке платежной системы\n\nЗп: до 150-200 т.р.(обсуждаемо)\nТребуемый опыт работы: 3–6 лет\nПолная занятость, полный день\n\nЕсли тебе интересны задачи по контейнерам и автоматизации, и для тебя такие аббревиатуры как DevOps, IaaC, SCM, PaaS, AWS, K8S, VCS, RegExp - не пустой звук, то тебе к нам!\n\nМы занимаемся разработкой платежной системы.\nМы совместили технические инновации и надежность классических финансовых институтов чтобы создавать удобные и полезные цифровые финансовые продукты для жизни, работы и бизнеса.\nМы создаем высокотехнологичные, надежные инструменты по управлению финансами, полностью регламентированы законами ЕС, а значит средства наших клиентов и персональные данные находятся в безопасности.\n\nС нами работают уже более 80-ти молодых, талантливых и амбициозных специалистов, которые каждый день создают передовые технологии вместе с нами!\n\nЗадачи:\n 1-Обеспечение бесперебойной работы серверов и приложений Компании (не менее 99.9% доступности);\n 2-Разработка и поддержка Docker-контейнеров приложений и оркестрация микросервисов с использованием Kubernetes;\n 3-CI/CD pipelining;\n 4-Развитие и поддержка мониторинга доступности сервисов Компании;\n 5-Автоматизация развертывания новых сервисов и управление конфигурациями;\n\nТочно нужно:\n 1-Знание Linux(Debian-based, RedHat-based) – мы ждем администраторов;\n 2-Nginx;\n 3-Docker– разработка образов контейнеров;\n 4-Bash,Python– написание скриптов автоматизации;\n 5-Teamcity(GitlabCI, Jenkins) – реализация CI/CDpipeline;\n 6-Git;\n 7-Puppet (Chef, Ansible, Salt) – разработка своих модулей, модификация существующих;\n\nДополнительным преимуществом будет:\n 1-Если Вы создавали кластеры на Kubernetes и настраивали в них сетевую подсистему;\n 2-Если Вы знакомы с Helm;\n 3-Работали с Prometheus;\n 4-Готовили vSphere (VCSA HA, advanced networking);\n 5-Слышали о Foreman;\n 6-Использовали регулярные выражения;\n 7-Использовали Hiera;\nУсловия:\n 1-Возможность выбрать время начала работы (с 8:00/9:00/10:00);\n 2-Современный, просторный офис;\n 3-Современный рабочий компьютер (16 GBRAM, SSD), удобное рабочее место;\n 4-Комфортная кухонная зона для кофе-брейков, зона отдыха, PS4 PRO +VR;\n 5-Возможность выбрать на чем работать: Windows/Linux\nА еще:\n 1-ДМС по окончанию испытательного срока;\n 2-Корпоративные курсы по изучению Английского языка;\n 3-Компенсация расходов на питание по картам Obed.ru;\n 4-Компенсация расходов на спорт, внутри БЦ World Trade Center;\n\nKA RedCode\nКонтакты: @dmitry_demyanov\n\n—\n\n👉 Обсуждение вакансии в чате @devops_jobs","markup":[{"type":"hashtag","offset":0,"length":9,"data":"вакансия"},{"type":"hashtag","offset":10,"length":7,"data":"Москва"},{"type":"hashtag","offset":18,"length":7,"data":"devops"},{"type":"hashtag","offset":26,"length":16,"data":"полнаязанятость"},{"type":"link","offset":2420,"length":7,"data":"http://Obed.ru"},{"type":"handle","offset":2515,"length":16,"data":"dmitry_demyanov"},{"type":"handle","offset":2566,"length":12,"data":"devops_jobs"}],"date":"2020-03-23T07:48:35+00:00","link":"tg://resolve?domain=devops_jobs_feed&post=1837","tags":[{"name":"amazon-web-services"},{"name":"docker"},{"name":"kubernetes"},{"name":"linux"},{"name":"debian"},{"name":"nginx"},{"name":"bash"},{"name":"python"},{"name":"jenkins"},{"name":"git"},{"name":"ansible"},{"name":"windows"}],"cities":[{"code":"moscow"}],"allowsRemote":false}},{"node":{"__typename":"Job","id":"1924136960-1001134745498","title":"Devops инженер","text":"#devops  #middle  #senior #вакансия\n\nВсем добрый вечер\n\nЯ ищу Ведущего devops / системного инженера в компанию,  которая занимается разработкой системного интегратора ПО в области виртуализации и облачных технологий.\n\nЧто хотят:\nЖелательно - высшее профильное образование и соответствующий опыт работы от 3-5 лет\nОС: Linux, Unix\nCI/CD: Jenkins, Teamcity, Travis и аналоги\nКонтейнеры: Docker\nВеб-сервисы: Ngnix, UWSGI\nМониторинг/алертинг: AppDynamics, Nagios, Zabbix etc.\nОпыт администрирования реплицированных СУБД (PostgreSQL или MariaDB, MongoDB)\nОпыт работы с elasticsearch/logstash/kibana\nAnsible, Salt\nОпыт администрирования облачных серверов (например - под платформами Amazon EC2, GoogleCloud, VmWare vSphere, OpenStack или прочих)\n\nПлюсами будут:\nустановка/обслуживание - Reverse Proxy (Nginx …), caсhing\nserver (Squid, Nginx etc.)\nустановка/обслуживание - load balancer (HAProxy, Nginx, etc.)\nBash Scripts.\nProcess Monitoring: ps, top, htop, atop, .. etc\nSystem Performance: nmon, iostat, sar, vmstat etc\nNetworking: nmap, tcpdump, ping, traceroute, airmon, etc.\nkubernetes/docker swarm\n\nОсновные обязанности:\nРазвертка контуров (dev, qas, prod)\nPerformance тестирование, нагрузочное тестирование\nСборка и обновление из репозиториев\nПоиск и устранение проблем\n\nЧто дают:\nХорошая ЗП. от 120 000 руб. до 200.000 по результатам собеседования.\nВозможна удаленная работа \nТак же есть возможность работы в офисе.\nг. Москва Сколково, возможна работа из офиса в г. Санкт-Петербурге и г Нижний Новогород (ул Грузинская).\n\nКомпания: http://asdtech.co/\n\nКонтакты: @mayke_kin\n\n—\n\n👉 Обсуждение вакансии в чате @devops_jobs","markup":[{"type":"hashtag","offset":0,"length":7,"data":"devops"},{"type":"hashtag","offset":9,"length":7,"data":"middle"},{"type":"hashtag","offset":18,"length":7,"data":"senior"},{"type":"hashtag","offset":26,"length":9,"data":"вакансия"},{"type":"link","offset":1532,"length":18,"data":"http://asdtech.co/"},{"type":"handle","offset":1562,"length":10,"data":"mayke_kin"},{"type":"handle","offset":1607,"length":12,"data":"devops_jobs"}],"date":"2020-03-21T19:32:19+00:00","link":"tg://resolve?domain=devops_jobs_feed&post=1835","tags":[{"name":"linux"},{"name":"unix"},{"name":"jenkins"},{"name":"docker"},{"name":"postgresql"},{"name":"mariadb"},{"name":"mongodb"},{"name":"elasticsearch"},{"name":"logstash"},{"name":"ansible"},{"name":"nginx"},{"name":"bash"},{"name":"kubernetes"}],"cities":[{"code":"moscow"}],"allowsRemote":true}},{"node":{"__typename":"Job","id":"1922039808-1001134745498","title":"Devops engineer","text":"DevOps engineer\n#вакансия #DevOps #fulltime \nВакансия: DevOps engineer\nКомпания: ДОМ.РФ ООО «Цифровые технологии»\nГород: Санкт-Петербург. ст.м. Василеостровская, БЦ Сенатор\nФормат работы: #офис\nЗанятость: #полная\nЗарплата : от 150 до 180 т.р. net\n\nТебе предстоит:\n•  Поддержка ETL процессов;\n•  Участие в процессах внедрения ПО;\n•  Администрирование операционных систем *nix и общесистемного ПО;\n•  Развертывание и конфигурирование стендов под различные нужды;\n•  Решение возникающих проблем, устранение нештатных ситуаций;\n•  Участие в разработке конструкторской и эксплуатационной документации;\n•  Формирование требований к системе резервного копирования. \nЗдорово если у тебя есть:\n•  Знание серверной операционной системы Linux;\n•  Уверенное понимание принципов работы сетей TCP/IP: адресация, маршрутизация, стек протоколов, сетевые топологии, принципы работы VLAN, VPN, DNS, DHCP;\n•  Практический опыт автоматизации управления средами с применением docker, Kubernetes, ansible;\n•  Практический опыт разработки технологической или эксплуатационной документации;\n•  Практический опыт конфигурирования систем хранения данных (желательно);\n•  Практический опыт конфигурирования и администрирования общесистемного ПО: системы виртуализации, СУБД (PostgreSQL), серверы приложений, системы обработки сообщений, средства мониторинга и управления, elastic search;\nМы предлагаем:\n•  Комфортный офис в центре Санкт-Петербурга;\n•  Работа в высокопрофессиональной и эффективной команде, постоянное развитие;\n•  Конкурентный компенсационный пакет (ежеквартальная премия, ДМС, компенсация расходов на фитнес-абонемент до 20 т.р. в год);\n•  Амбициозный проект.\nЕсли ты молодой, амбициозный, идейный специалист - будем рады пригласить тебя на встречу и расскажем о возможностях работы с нами🥇\n✍️ ЛС @polipropilenka\n\n—\n\n👉 Обсуждение вакансии в чате @devops_jobs","markup":[{"type":"hashtag","offset":16,"length":9,"data":"вакансия"},{"type":"hashtag","offset":26,"length":7,"data":"DevOps"},{"type":"hashtag","offset":34,"length":9,"data":"fulltime"},{"type":"link","offset":81,"length":6,"data":"http://ДОМ.РФ"},{"type":"hashtag","offset":188,"length":5,"data":"офис"},{"type":"hashtag","offset":205,"length":7,"data":"полная"},{"type":"handle","offset":1789,"length":15,"data":"polipropilenka"},{"type":"handle","offset":1839,"length":12,"data":"devops_jobs"}],"date":"2020-03-19T14:20:41+00:00","link":"tg://resolve?domain=devops_jobs_feed&post=1833","tags":[{"name":"dotnet"},{"name":"linux"},{"name":"dns"},{"name":"docker"},{"name":"kubernetes"},{"name":"ansible"},{"name":"postgresql"},{"name":"elasticsearch"}],"cities":[],"allowsRemote":false}},{"node":{"__typename":"Job","id":"1920991232-1001134745498","title":"Devops инженер","text":"#вакансия #МСК #работаDevOps #seniorDevOps \n\nГород и адрес офиса: Москва; м.Арбатская\nФормат работы: офисная\nЗанятость: полная\nЗарплатная вилка: 100-200 gross + 25% бонус \nОписание вакансии:  \n\nПроект: платформа для финансовых услуг . \nДанный проект является новым продуктом компании. Поэтому одним из преимуществ является отсутсвие легасикода.Полностью новая разработка с нуля. \n\nЗадачи:  \n- Поддержка CI/CD инфраструктуры для разработки, тестирования (Jenkins, Kubernetes и др.)\n- Автоматизация задач (Bash / Python / Groovy)\n- Настройка ОС Linux и необходимого системного ПО под созданную архитектуру\n- Обновление и установка нового ПО на сервера Linux \n- Мониторинг работы сервиса и серверов (Zabbix, Prometheus, ELK Stack) снятие логов, оптимизация \n- Взаимодействие с командой разработчиков и совместное решение задач \n- Ведение технической документации по администрируемым сервисам и решениям \n\nТребования:  \n- Знание Linux, опыт работы с Linux от 3 лет \n- Опыт работы с CentOS (RHEL) от года \n- Опыт работы с Kubernetes и docker \n- Опыт работы с Kafka \n- Опыт работы с Zabbix, умение добавить дополнительные метрики для мониторинга  \n- Умение писать скрипты на bash \n- Умение локализовать проблему до точки отказа и объяснить это профильному специалисту для её решения \n- Опыт автоматизации на основе configuration managers: ansible, saltstack будет дополнительным преимуществом \n\nУсловия:  \n- Оформление по ТК  \n\nНазвание компании:https://ru.globalcareer.eu/  (Global Career)\n\nКонтакты: @EkaterinaHRecruiter\n\n—\n\n👉 Обсуждение вакансии в чате @devops_jobs","markup":[{"type":"hashtag","offset":0,"length":9,"data":"вакансия"},{"type":"hashtag","offset":10,"length":4,"data":"МСК"},{"type":"hashtag","offset":15,"length":13,"data":"работаDevOps"},{"type":"hashtag","offset":29,"length":13,"data":"seniorDevOps"},{"type":"link","offset":1440,"length":27,"data":"https://ru.globalcareer.eu/"},{"type":"handle","offset":1496,"length":20,"data":"EkaterinaHRecruiter"},{"type":"handle","offset":1551,"length":12,"data":"devops_jobs"}],"date":"2020-03-19T10:09:11+00:00","link":"tg://resolve?domain=devops_jobs_feed&post=1832","tags":[{"name":"jenkins"},{"name":"kubernetes"},{"name":"bash"},{"name":"python"},{"name":"groovy"},{"name":"linux"},{"name":"centos"},{"name":"docker"},{"name":"kafka"},{"name":"ansible"}],"cities":[{"code":"moscow"}],"allowsRemote":false}},{"node":{"__typename":"Job","id":"1917845504-1001134745498","title":"Devops инженер","text":"#вакансия #devOps #Москва #офис \n\nГород: Москва \\ м. Кутузовская \nЗанятость: полная \nФормат работы: офис \nЗарплатная вилка: от 230 000 до 260000 рублей на руки \n\nОписание: Команда «Интеллектуальной системы управления» Сбербанка ищет Dev.Ops-инженера. Ты поможешь нам в разработке системы, которая анализирует бизнес-показатели и формирует задания для менеджеров по развитию подчиненных.\n\nЗадачи:\nразработка инструментов сборки и развертывания ПО\n\nЧто нужно:\n∙ опыт работы с Jenkins(Groovy), liquibase, Ansible, Docker, Kubernetes, OpenShift\n∙ знание форматов JSON, Yaml, XML\n∙ общее понимание стека протоколов TCP/IP, HTTP, HTTPS, REST, SOAP\n∙ опыт использования системы управления задачами, например в Atlassian Jira\n\nНазвание компании: Сбербанк \nКонтакты : @vsevkosmo\n\n—\n\n👉 Обсуждение вакансии в чате @devops_jobs","markup":[{"type":"hashtag","offset":0,"length":9,"data":"вакансия"},{"type":"hashtag","offset":10,"length":7,"data":"devOps"},{"type":"hashtag","offset":18,"length":7,"data":"Москва"},{"type":"hashtag","offset":26,"length":5,"data":"офис"},{"type":"handle","offset":759,"length":10,"data":"vsevkosmo"},{"type":"handle","offset":804,"length":12,"data":"devops_jobs"}],"date":"2020-03-19T06:43:45+00:00","link":"tg://resolve?domain=devops_jobs_feed&post=1829","tags":[{"name":"jenkins"},{"name":"groovy"},{"name":"ansible"},{"name":"docker"},{"name":"kubernetes"},{"name":"json"},{"name":"yaml"},{"name":"xml"},{"name":"rest"},{"name":"soap"}],"cities":[{"code":"moscow"}],"allowsRemote":false}},{"node":{"__typename":"Job","id":"1916796928-1001134745498","title":"Devops engineer","text":"#вакансия #NOC #engineer \nГород : Одесса\nФормат работы : офис\nЗарплатная вилка : 1500$\nО компании : Продуктовая компания, сети онлайн магазинов в области автотюнинга, мотоиндустрии, экстремального и водного транспорта. Входим в топ 5 на рынке США. \n\nТребования :\n—От 2х лет опыта поддержки, управления и мониторинга удаленных серверов на OC Linux;\n— Опыт работы с одной из систем мониторинга Prometheus, Zabbix;\n— Опыт работы с web-серверами (LAMP, LEMP);\n— Опыт работы с серверами баз данных MySQL;\n— Опыт работы с системой контроля версий на основе Git (GitLab/BitBucket);\n— Работа с системами управления конфигурациями серверов Puppet/Ansible;\n— Работа с контейнеризацией Docker/LXC;\n— Уверенные знания английского языка, не ниже среднего уровня.\n\nКонтакты : на этот номер в телеграмм +380660960461\n\n—\n\n👉 Обсуждение вакансии в чате @devops_jobs","markup":[{"type":"hashtag","offset":0,"length":9,"data":"вакансия"},{"type":"hashtag","offset":10,"length":4,"data":"NOC"},{"type":"hashtag","offset":15,"length":9,"data":"engineer"},{"type":"link","offset":788,"length":13,"data":"tel:+380660960461"},{"type":"handle","offset":836,"length":12,"data":"devops_jobs"}],"date":"2020-03-18T20:47:38+00:00","link":"tg://resolve?domain=devops_jobs_feed&post=1828","tags":[{"name":"linux"},{"name":"web"},{"name":"mysql"},{"name":"git"},{"name":"gitlab"},{"name":"ansible"},{"name":"docker"}],"cities":[{"code":"odessa"}],"allowsRemote":false}},{"node":{"__typename":"Job","id":"1910505472-1001134745498","title":"Devops engineer","text":"#вакансия DevOps Engineer \n#vacancy #job #вакансия #работа #кипр #cyprus #fulltime #relocate #релокация #DevOps #linux #golang #ClickHouse #PostgreSQL #Kafka \n \nКомпания: TrafficStars \nГород: Лимасcол, Кипр \nФормат работы: офис \nЗанятость: полная \nЗарплатная вилка: от 2500 до 3500 евро на руки \n \nОписание вакансии:  \nDevOps Engineer в кипрскую ad-network компанию TrafficStars, релокация в г. Лимасcол \n \nНаш базовый стек: \n•Linux; \n•Golang, Python; \n•PostgreSQL, ClickHouse, Kafka, ELK, Redis; \n•Consul. \n \nЗадачи: \n•Развертывание и поддержка IT-инфраструктуры проекта в ЦОДах Европы, США и Азии; \n•Сопровождение кластеров PostgreSQL, ClickHouse и Kafka; \n•Автоматизация процессов деплоя конфигурации (Ansible); \n•Настройка дев процессов CI на Atlassian стеке (JIRA, Bitbucket, Bamboo) или аналоге; \n•Взаимодействие с хостинг-провайдерами (админы в саппорте, тикеты, постановка и контроль задач по серверам). \n \nБольшой плюс в опыте: \n•Настройка и мониторинг БД и разрабатываемых сервисов; \n•Репликация, бекапы, шардинг; \n•Установка и настройка среды разработки, тестирования и деплоя; \n•Оптимизация всех сервисов под highload (каждые сутки сохраняем более 4 млрд. новых событий); \n•Настройка и поддержка DNS, CDN, monitoring и прочих сервисов; \n•Опыт работы с контейнеризацией (Docker/LXC/Kubernetes); \n•Опыт работы с системами контроля версий. \n \nМы предлагаем: \n•Релокационный пакет: \n- покупаем билеты до Кипра тебе и твоей семье; \n- встречаем в аэропорту; \n- оформляем рабочую визу; \n- оплачиваем жильё на первый месяц; \n•Медицинскую страховку для тебя и твоей семьи; \n•50% компенсация затрат на детский сад и школу; \n•Оплачиваемую мобильную связь; \n•Бесплатные и вкусные завтраки, обеды и напитки; \n•Фрукты, снэки и другие вкусняшки в офисе; \n•Рабочий компьютер/ноутбук на выбор: Mac или PC; \n•Корпоративные скидки (кафе, магазины и др); \n•Бесплатные абонементы в спортзал и занятия йогой; \n•Уроки английского и греческого языка; \n•Корпоративные вечеринки, тимбилдинги; \n•Корпоративные митапы и конференции; \n•Интересные проекты; \n•Приятную рабочую атмосферу. \n  \nПрисоединяйся к нашей молодой и талантливой команде! \n \nКонтакты: +35795588440 \ntelegram: sofia_tomashevich \ne-mail: sofia@trafficstars.com\n\n—\n\n👉 Обсуждение вакансии в чате @devops_jobs","markup":[{"type":"hashtag","offset":0,"length":9,"data":"вакансия"},{"type":"hashtag","offset":27,"length":8,"data":"vacancy"},{"type":"hashtag","offset":36,"length":4,"data":"job"},{"type":"hashtag","offset":41,"length":9,"data":"вакансия"},{"type":"hashtag","offset":51,"length":7,"data":"работа"},{"type":"hashtag","offset":59,"length":5,"data":"кипр"},{"type":"hashtag","offset":65,"length":7,"data":"cyprus"},{"type":"hashtag","offset":73,"length":9,"data":"fulltime"},{"type":"hashtag","offset":83,"length":9,"data":"relocate"},{"type":"hashtag","offset":93,"length":10,"data":"релокация"},{"type":"hashtag","offset":104,"length":7,"data":"DevOps"},{"type":"hashtag","offset":112,"length":6,"data":"linux"},{"type":"hashtag","offset":119,"length":7,"data":"golang"},{"type":"hashtag","offset":127,"length":11,"data":"ClickHouse"},{"type":"hashtag","offset":139,"length":11,"data":"PostgreSQL"},{"type":"hashtag","offset":151,"length":6,"data":"Kafka"},{"type":"link","offset":2142,"length":12,"data":"tel:+35795588440"},{"type":"link","offset":2193,"length":22,"data":"mailto:sofia@trafficstars.com"},{"type":"handle","offset":2250,"length":12,"data":"devops_jobs"}],"date":"2020-03-16T16:17:55+00:00","link":"tg://resolve?domain=devops_jobs_feed&post=1822","tags":[{"name":"linux"},{"name":"go"},{"name":"postgresql"},{"name":"kafka"},{"name":"python"},{"name":"redis"},{"name":"ansible"},{"name":"dns"},{"name":"docker"},{"name":"kubernetes"}],"cities":[{"code":"sofia"}],"allowsRemote":false}}]}}},"context":{}}