{"hash":"f5f6bf98bd95e769321482904cbbd488f77922fd","data":{"records":{"id":"spring","name":"spring","belongsTo":{"totalCount":84,"pageInfo":{"totalPages":9,"currentPage":9},"edges":[{"node":{"__typename":"Job","id":"1680867328-1001091028994","title":"Java developer","text":"#java #backend #spring #javadeveloper\nКомпания OpenDev\nЛокация #мск #москва м. Технопарк\nЗП до 250 gross\nМы разрабатываем \"умную\" шину для крупного финтеха: интеграция компонентов системы и их распределение на микросервисы.\nЗадачи интересные и их много, поэтому нам требуется подкрепление!\n🚀 Вакансия - Java Developer\n\nНавыки и знания\n- Java core, Java 8+\n- Spring Framework, Spring boot, Spring Cloud\n- Docker\n- Микросервисная архитектура\n- Опыт проектирования API (REST, GRPC и т.д.) \n- Опыт работы с разными системами оркестрации (Kubernetes, OpenShift, Mesos/Marathon)\n\nУсловия:\n- Белая ЗП + ДМС\n- Продуктовая Scrum команда\n- Релокация кандидатов из регионов\n\nОбсудить вакансию - @xenia_agv","markup":[{"type":"hashtag","offset":0,"length":5,"data":"java"},{"type":"hashtag","offset":6,"length":8,"data":"backend"},{"type":"hashtag","offset":15,"length":7,"data":"spring"},{"type":"hashtag","offset":23,"length":14,"data":"javadeveloper"},{"type":"hashtag","offset":63,"length":4,"data":"мск"},{"type":"hashtag","offset":68,"length":7,"data":"москва"},{"type":"bold","offset":320,"length":15,"data":""},{"type":"handle","offset":685,"length":10,"data":"xenia_agv"}],"date":"2020-06-15T11:38:21+00:00","link":"tg://resolve?domain=jvmjobs&post=1603","tags":[{"name":"java"},{"name":"jvm"},{"name":"spring"},{"name":"cloud"},{"name":"docker"},{"name":"rest"},{"name":"kubernetes"},{"name":"spring-boot"}],"cities":[{"code":"moscow"}],"allowsRemote":false}},{"node":{"__typename":"Job","id":"1679818752-1001091028994","title":"Java разработчик","text":"#javaвакансия #javaspring #senior #middle\nДобрый день!\nВ настоящий момент нахожусь в поисках ведущего разработчика Java (backend) для международной аутсорсинговой компании (проекты банковского направления).\n160-300 K, Москва, ст.м. Динамо\nСтэк: Java 8, Spring, Spring (Boot, Cloud), Hibernate, SQL, Микросервисы, DevOps, REST-сервисы. \nУсловия: 160 – 300.000 рублей, полностью «белая» заработная плата. В компании регулярно проводится корпоративное обучение, сертификация в технических и бизнес-областях. Помощь в релокации.\nБуду рада ответить на Ваши вопросы: @LyKatrin, ekaterina706712@mail.ru","markup":[{"type":"hashtag","offset":0,"length":13,"data":"javaвакансия"},{"type":"hashtag","offset":14,"length":11,"data":"javaspring"},{"type":"hashtag","offset":26,"length":7,"data":"senior"},{"type":"hashtag","offset":34,"length":7,"data":"middle"},{"type":"handle","offset":561,"length":9,"data":"LyKatrin"},{"type":"link","offset":572,"length":23,"data":"mailto:ekaterina706712@mail.ru"}],"date":"2020-06-15T11:01:34+00:00","link":"tg://resolve?domain=jvmjobs&post=1602","tags":[{"name":"java"},{"name":"jvm"},{"name":"spring"},{"name":"cloud"},{"name":"hibernate"},{"name":"sql"},{"name":"rest"},{"name":"spring-boot"}],"cities":[{"code":"moscow"}],"allowsRemote":false}},{"node":{"__typename":"Job","id":"1678770176-1001091028994","title":"Java разработчик","text":"#вакансия #java #senior #middle\nКомпания: #сбербанктехнологии #сбертех\nЛокация: #москва\nЗП: 180-270 + премии\nКонтакты: @okashchenko, kashchenko.o.bor@sberbank.ru\n\nМы - современная инженерная компания, продолжаем расти и развиваться. Активно ищем Java разработчиков уровня middle и senior в связи с расширением команды для Образовательной платформы - SaaS решения для автоматизации обучения в средних школах. Разработка началась марте 2019, сейчас дорабатываем функционал и создаём фичи.\n\n  Требования:\n· Знание Java 8+ (хорошее знание core, collections), Spring IoC 4-5, от 2х лет\n· Системы сборки maven или gradle\n· Опыт использования jUnit/TestNG\n· БД: jdbc, SQL(лучше PostgresQL) на уровне написания средних запросов\n· VCS: опыт работы с git в команде\n· Опыт командной разработки\n\n  Очень желательно:\n· Умение работать с linux command line, писать минимальные bash-скрипты.\n· Понимание оптимизации SQL-запросов\n· Опыт разработки промышленных микросервисных приложений\n· Опыт работы со SpringBoot, MongoDB, Docker/Kubernetes\n\n  Наши условия:\n· Конкурентная «белая» заработная плата (оклад + премии)\n· Профессиональный и зарплатный рост\n· Интересные, сложные, амбициозные задачи, молодая и сильная команда профессионалов\n· Обучение за счет компании в Корпоративном университете\n· Льготная ипотека от Сбербанка, ДМС\n· Страхование от несчастных случаев\n· Тренажерный зал\n\nБуду рада обсудить вакансию и ответить на ваши вопросы!","markup":[{"type":"hashtag","offset":0,"length":9,"data":"вакансия"},{"type":"hashtag","offset":10,"length":5,"data":"java"},{"type":"hashtag","offset":16,"length":7,"data":"senior"},{"type":"hashtag","offset":24,"length":7,"data":"middle"},{"type":"hashtag","offset":42,"length":19,"data":"сбербанктехнологии"},{"type":"hashtag","offset":62,"length":8,"data":"сбертех"},{"type":"hashtag","offset":80,"length":7,"data":"москва"},{"type":"handle","offset":119,"length":12,"data":"okashchenko"},{"type":"link","offset":133,"length":28,"data":"mailto:kashchenko.o.bor@sberbank.ru"}],"date":"2020-06-15T07:12:16+00:00","link":"tg://resolve?domain=jvmjobs&post=1601","tags":[{"name":"java"},{"name":"jvm"},{"name":"spring"},{"name":"maven"},{"name":"gradle"},{"name":"junit"},{"name":"jdbc"},{"name":"sql"},{"name":"postgresql"},{"name":"git"},{"name":"linux"},{"name":"bash"},{"name":"mongodb"},{"name":"docker"},{"name":"kubernetes"}],"cities":[{"code":"moscow"}],"allowsRemote":false}},{"node":{"__typename":"Job","id":"1677721600-1001091028994","title":"Java developer","text":"#вакансия #java #remote  \nВакансия: Java developer \nКомпания: tracepharm.ru\nФормат работы: удалённо\nЗанятость: полная, частичная (от 30 часов в неделю) \nСтавка: от 1100 до 1300 р/ч\nКонтакты: @Tragoman\n\nОбязанности\n- развитие существующих и разработка новых микросервисов\n- интеграция с внешними системами через REST API\n- работа с СУБД PostgreSQL\n- написание, модификация и оптимизация хранимых процедур в БД\n\nТребования:\n- опыт разработки на JAVA от 2 лет\n- уверенные знания в многопоточности\n- хорошее знание SQL, знание PL/pgSQL или PL/SQL;\n- опыт работы с  Docker контейнерами\n\nНаш стек: от Java 8, PostgreSQL, Apache Camel, Camnda BPM, Spring Framework, Hibernate, ActiveMQ, Kafka, Redis, ELK, ОС Linux\n\nУсловия: \n- работа в распределенной команде\n- гибкий график (работаете в удобное для Вас время)\n- сотрудничаем с ИП\n\nСфера деятельности компании: разработка ПО для участников фармацевтического рынка.","markup":[{"type":"hashtag","offset":0,"length":9,"data":"вакансия"},{"type":"hashtag","offset":10,"length":5,"data":"java"},{"type":"hashtag","offset":16,"length":7,"data":"remote"},{"type":"bold","offset":26,"length":10,"data":""},{"type":"bold","offset":52,"length":9,"data":""},{"type":"link","offset":62,"length":13,"data":"http://tracepharm.ru"},{"type":"bold","offset":76,"length":14,"data":""},{"type":"bold","offset":100,"length":10,"data":""},{"type":"bold","offset":153,"length":7,"data":""},{"type":"bold","offset":181,"length":9,"data":""},{"type":"handle","offset":191,"length":9,"data":"Tragoman"},{"type":"bold","offset":202,"length":12,"data":""},{"type":"bold","offset":410,"length":12,"data":""},{"type":"bold","offset":582,"length":9,"data":""},{"type":"bold","offset":709,"length":10,"data":""},{"type":"bold","offset":826,"length":28,"data":""}],"date":"2020-06-15T06:47:29+00:00","link":"tg://resolve?domain=jvmjobs&post=1600","tags":[{"name":"java"},{"name":"jvm"},{"name":"rest"},{"name":"postgresql"},{"name":"sql"},{"name":"docker"},{"name":"apache"},{"name":"spring"},{"name":"hibernate"},{"name":"kafka"},{"name":"redis"},{"name":"linux"},{"name":"apache-camel"}],"cities":[],"allowsRemote":true}}]}}},"context":{}}