{"hash":"f5f6bf98bd95e769321482904cbbd488f77922fd","data":{"records":{"id":"reactjs","name":"reactjs","belongsTo":{"totalCount":182,"pageInfo":{"totalPages":19,"currentPage":11},"edges":[{"node":{"__typename":"Job","id":"26477592576-1001075660570","title":"Php разработчик","text":"🏡 При публикации вакансии необходимо указать город и станцию метро (или ближайший ориентир). Если возможна удалённая работа – надо об этом указать явно. \n\n🔵 В группе есть традиция - представляться при входе:\n\n▫️Какой у вас проект или где работаете?\n▫️В чём вы специалист?\n▫️Чем можете быть интересны или полезны сообществу?\n▫️Чем интересно сообщество вам? Что вы ищите?\n▫️Откуда вы?\n▫️Как узнали про группу?\nВ сообщении нужно указать тэг #whois\n\n🔵 Правила чата: \n\n🚫 Реклама запрещена\n🚫 Политика запрещена\n🚫 Флуд и оффтопик запрещён\n🚫 Нецензурная лексика запрещена\n\nЗа несоблюдение правил - одно предупреждение, далее следует бан.\n\nЗдесь публикуем вакансии (указывая тэг #вакансия) и запросы на поиск работы (указывая тэг #ищу) по направлению PHP, Laravel, Symfony, Yii и т.д. Формат любой: full-time, part-time, remote и разовые подработки. Также обмениваемся инсайдами и аналитикой по рынку труда.\n\nЗаметили нарушение? Обратитесь, пожалуйста, к модераторам:\n🔸@Ddonalld \n🔸@DenisIzmaylov\n\n🔵 Параллельно с этой группой развиваются другие группы с вакансиями, запросами на поиск работы и аналитикой по рынку труда в разных направлениях:\n\n🔸@qa_jobs – по всем видам тестирования, его автоматизации и т.д. \n🔸@mobile_jobs – по направлению iOS, Android, Xamarin и т.д.\n🔸@javascript_jobs – по JavaScript, React.js, Node.js, React Native и пр.\n🔸@devops_jobs – по направлению DevOps, Docker, CoreOS, Kubernetes и пр\n🔸@uiux_jobs –  по направлению дизайна UI, UX, Design Thinking, Style Guides, Mobile и т.д.\n🔸@products_jobs – по управлению продуктами, Growth Hacking, Cust Dev, Design Thinking, UX.\n\n🌎 Возможно, вам также будут интересны группы: @qa_ru, @android_ru, @ios_ru, @reactnative_ru, @react_js, @nodejs_ru, @angularjs_ru, @angular2, @devops_ru, @uiux_ru, @products_, @agile_ru, @selfdev_ru. Приятного общения!","markup":[{"type":"hashtag","offset":440,"length":6,"data":"whois"},{"type":"hashtag","offset":677,"length":9,"data":"вакансия"},{"type":"hashtag","offset":728,"length":4,"data":"ищу"},{"type":"handle","offset":968,"length":9,"data":"Ddonalld"},{"type":"handle","offset":981,"length":14,"data":"DenisIzmaylov"},{"type":"handle","offset":1147,"length":8,"data":"qa_jobs"},{"type":"handle","offset":1214,"length":12,"data":"mobile_jobs"},{"type":"handle","offset":1275,"length":16,"data":"javascript_jobs"},{"type":"handle","offset":1349,"length":12,"data":"devops_jobs"},{"type":"handle","offset":1421,"length":10,"data":"uiux_jobs"},{"type":"handle","offset":1513,"length":14,"data":"products_jobs"},{"type":"handle","offset":1651,"length":6,"data":"qa_ru"},{"type":"handle","offset":1659,"length":11,"data":"android_ru"},{"type":"handle","offset":1672,"length":7,"data":"ios_ru"},{"type":"handle","offset":1681,"length":15,"data":"reactnative_ru"},{"type":"handle","offset":1698,"length":9,"data":"react_js"},{"type":"handle","offset":1709,"length":10,"data":"nodejs_ru"},{"type":"handle","offset":1721,"length":13,"data":"angularjs_ru"},{"type":"handle","offset":1736,"length":9,"data":"angular2"},{"type":"handle","offset":1747,"length":10,"data":"devops_ru"},{"type":"handle","offset":1759,"length":8,"data":"uiux_ru"},{"type":"handle","offset":1769,"length":10,"data":"products_"},{"type":"handle","offset":1781,"length":9,"data":"agile_ru"},{"type":"handle","offset":1792,"length":11,"data":"selfdev_ru"}],"date":"2020-06-19T15:11:52+00:00","link":"tg://resolve?domain=php_jobs&post=25251","tags":[{"name":"php"},{"name":"laravel"},{"name":"symfony"},{"name":"yii"},{"name":"mobile"},{"name":"ios"},{"name":"android"},{"name":"xamarin"},{"name":"javascript"},{"name":"reactjs"},{"name":"nodejs"},{"name":"docker"},{"name":"kubernetes"},{"name":"angularjs"},{"name":"react-native"}],"cities":[],"allowsRemote":true}},{"node":{"__typename":"Job","id":"17070817280-1001110946746","title":"Js developer","text":"#вакансия #js #frontend #react\n\nПозиция: Middle React Developer\n\nФормат работы: удаленно (дэйли митинги в начале дня)\n\nЗанятость: полная, проектная\n\nТребования:\n- уверенные знания ECMAScript\n- уверенные знания React/Redux \n- знания git и git-flow (squash, merge, etc)\n- инициативность и способность общаться с командой\n- умение писать чистый и поддерживаемый код\n- умение выполнять задачи\n\nНеплохо, если вы:\n- умеете работать с веб-сокетами (потребуется в дальнейшем)\n- знаете TypeScript (возможно потребуется в дальнейшем)\n- знаете CSS/Sass и умеете верстать\n\nОбязанности:\n- разработка приложения на React+Redux\n- коммуникация с командой, принятие решений в проектировании API\n\nРабочий график: 10:00 - 18:00 Пн-Пт\n\nОплата: 1500$ - 2000$ (на руки)\n\nКонтакты: @heavycharged\n\n—\n\n👉 Обсуждение вакансии в чате @javascript_jobs","markup":[{"type":"hashtag","offset":0,"length":9,"data":"вакансия"},{"type":"hashtag","offset":10,"length":3,"data":"js"},{"type":"hashtag","offset":14,"length":9,"data":"frontend"},{"type":"hashtag","offset":24,"length":6,"data":"react"},{"type":"handle","offset":759,"length":13,"data":"heavycharged"},{"type":"handle","offset":807,"length":16,"data":"javascript_jobs"}],"date":"2020-06-19T10:45:28+00:00","link":"tg://resolve?domain=javascript_jobs_feed&post=16280","tags":[{"name":"javascript"},{"name":"reactjs"},{"name":"redux"},{"name":"git"},{"name":"typescript"},{"name":"css"},{"name":"sass"},{"name":"react-redux"}],"cities":[],"allowsRemote":true}},{"node":{"__typename":"Job","id":"17064525824-1001110946746","title":"Js разработчик","text":"#вакансия #вакансии #удаленная #работа #разработчик #remote #job #remotejob #senior #full #stack #fullstack #software #engineer #develop #developer #node #react #amazon #aws #api #crm #erp #zoho #us #usa\n\n😎 Senior Full Stack Software Engineer\n\nCompany: Deep Consulting Solutions (Austin, Texas)\n\nLocation: Anywhere\n\nMonthly Salary: $3000-4000\n \n#Remote #FullTime #Flexible\n\nRequirements: \n\nYou must be:\n- A mature and responsible individual driven by results and not activities.\n- An individual with genuine interest in technology.\n- Willing to learn, grow, and admit mistakes.\n- Able to communicate with other people on the project's team effectively.\n \nSkills/Experience:\n\n- Node.js, React, SQL and NoSQL databases.\n- APIs.\n- Effective Written and Verbal English.\n- Basic Understanding of DevOps and SDLC.\n \nThe following will be a good plus:\n\n- Experience with Amazon AWS, serverless technologies, and microservices on its platform.\n- Experience with CRM and ERP systems such as Zoho and others.\n\nHow to apply:\n\nhttps://zfrmz.com/yIDN35yaj3apxsNfR9qS?src=irina-itrecruiter\n\nContact:\n@Aagdan\n\n—\n\n👉 Обсуждение вакансии в чате @javascript_jobs","markup":[{"type":"hashtag","offset":0,"length":9,"data":"вакансия"},{"type":"hashtag","offset":10,"length":9,"data":"вакансии"},{"type":"hashtag","offset":20,"length":10,"data":"удаленная"},{"type":"hashtag","offset":31,"length":7,"data":"работа"},{"type":"hashtag","offset":39,"length":12,"data":"разработчик"},{"type":"hashtag","offset":52,"length":7,"data":"remote"},{"type":"hashtag","offset":60,"length":4,"data":"job"},{"type":"hashtag","offset":65,"length":10,"data":"remotejob"},{"type":"hashtag","offset":76,"length":7,"data":"senior"},{"type":"hashtag","offset":84,"length":5,"data":"full"},{"type":"hashtag","offset":90,"length":6,"data":"stack"},{"type":"hashtag","offset":97,"length":10,"data":"fullstack"},{"type":"hashtag","offset":108,"length":9,"data":"software"},{"type":"hashtag","offset":118,"length":9,"data":"engineer"},{"type":"hashtag","offset":128,"length":8,"data":"develop"},{"type":"hashtag","offset":137,"length":10,"data":"developer"},{"type":"hashtag","offset":148,"length":5,"data":"node"},{"type":"hashtag","offset":154,"length":6,"data":"react"},{"type":"hashtag","offset":161,"length":7,"data":"amazon"},{"type":"hashtag","offset":169,"length":4,"data":"aws"},{"type":"hashtag","offset":174,"length":4,"data":"api"},{"type":"hashtag","offset":179,"length":4,"data":"crm"},{"type":"hashtag","offset":184,"length":4,"data":"erp"},{"type":"hashtag","offset":189,"length":5,"data":"zoho"},{"type":"hashtag","offset":195,"length":3,"data":"us"},{"type":"hashtag","offset":199,"length":4,"data":"usa"},{"type":"hashtag","offset":346,"length":7,"data":"Remote"},{"type":"hashtag","offset":354,"length":9,"data":"FullTime"},{"type":"hashtag","offset":364,"length":9,"data":"Flexible"},{"type":"link","offset":1016,"length":60,"data":"https://zfrmz.com/yIDN35yaj3apxsNfR9qS?src=irina-itrecruiter"},{"type":"handle","offset":1087,"length":7,"data":"Aagdan"},{"type":"handle","offset":1129,"length":16,"data":"javascript_jobs"}],"date":"2020-06-19T10:38:42+00:00","link":"tg://resolve?domain=javascript_jobs_feed&post=16274","tags":[{"name":"javascript"},{"name":"nodejs"},{"name":"reactjs"},{"name":"amazon-web-services"},{"name":"sql"},{"name":"nosql"}],"cities":[{"code":"austin"}],"allowsRemote":true}},{"node":{"__typename":"Job","id":"2229272576-1001134745498","title":"Devops инженер","text":"#вакансия #офис #Москва #DevOps \n\nВакансия для азартных энтузиастов:\n\nСтартапу AVVYLAND нужен девопс, строить все с нуля )) Милейшие чуваки, очень адекватный тех.дир. Денежка на проекте есть, релиз был, инвестиции привлечены. \n\nМоя личная рекомендация к вакухе: очень хороший шанс проявить себя за вполне нормальные деньги, ребята классные! \n\nКубер, облачка, линукс - технологии на выбор\n\nВилка: 180-250, нужно будет ИП\n\nО команде:\n•  7 человек, есть фронты, бекендеры, тестировщики\n•  Создаем приложения для различных платформ. От web до AR/VR;\n•  Работаем по недельным спринтам с ежедневными стендапами;\n•  Используем Jira, Confluence, Notion, Gitlab, Docker.\nО компании:\n•  Пишем на C#, Python, JS, Golang.\n•  Работаем с современным стэком Unity3D, React, Redis, aiohttp.\n\nДля тебя подготовили:\n•  Технику, на которой приятно работать.\n•  Оплату профессиональных конференций и курсов.\n• офис с плюшками в Москве (Большая Татарская)\n• адекватное руководство и понимающую команду =)\n\nКонтакты:\nМарьяна @reanimatsiya\n\n—\n\n👉 Обсуждение вакансии в чате @devops_jobs","markup":[{"type":"hashtag","offset":0,"length":9,"data":"вакансия"},{"type":"hashtag","offset":10,"length":5,"data":"офис"},{"type":"hashtag","offset":16,"length":7,"data":"Москва"},{"type":"hashtag","offset":24,"length":7,"data":"DevOps"},{"type":"handle","offset":1003,"length":13,"data":"reanimatsiya"},{"type":"handle","offset":1051,"length":12,"data":"devops_jobs"}],"date":"2020-06-19T09:46:43+00:00","link":"tg://resolve?domain=devops_jobs_feed&post=2126","tags":[{"name":"web"},{"name":"gitlab"},{"name":"docker"},{"name":"python"},{"name":"go"},{"name":"unity3d"},{"name":"reactjs"},{"name":"redis"}],"cities":[{"code":"moscow"}],"allowsRemote":false}},{"node":{"__typename":"Job","id":"17061380096-1001110946746","title":"Js разработчик","text":"Greenatom.ru\n#вакансия #Москва #javascript #React #Typescript #Node.js #Middle #Senior #удаленка #удаленная работа \n\n👨🏼‍💻 Middle/Senior Frontend Developer, Middle/Senior Backend Developer\nГород и адрес офиса: #Москва, БЦ Сириус Парк, метро Нагатинская\n\n✅Формат работы: \nУДАЛЕННАЯ РАБОТА\n\n💻Занятость: полная, гибкое начало трудового дня.\n\nЗарплатная вилка: от 170 000 до 230 000 руб. на руки.\n\n🏢Компания: АО Гринатом\n\nПривет! Мы растём и активно развиваем ряд внутренних проектов: например, корпоративный портал, горячая линия, собственная кадровая система для 400 предприятий! \nМы формируем НЕСКОЛЬКО КОМАНД, общей численностью более 60 человек и ищем классных:\n\n✅ФРОНТЕНД  разработчиков;\n\n✅БЭКЕНД разработчиков. \n\nПроекты в стадии разработки пилота и у тебя есть возможность повлиять на дальнейшее развитие продукта. Если у тебя есть крутые идеи - ты сможешь их здесь реализовать! Откликайся сам и зови друзей! Вирус пройдёт, работа останется!\n\n✅Требуемые знания и навыки:\n- Опыт разработки от двух лет\n- Хорошее знание чистого JS\n- Опыт работы с TypeScript\n- React, MobX, Less/Sass\n- Опыт написания юнит-тестов с помощью Jest, Enzymе очень приветствуется\n\n💡Наш стек:\n      React, TypeScript, Node.js, MobX, Docker\n\nМы работаем по Scrum.\n\n✅Условия:\n- Официальное оформление по ТК, белая зп;\n- Годовой бонус;\n- Возможности профессионального и карьерного роста;\n- Дополнительные 3 дня к отпуску;\n- Плавающее начало дня;\n- ДМС со стоматологией;\n- Полная удаленка \n(Если тебе нравится работать в офисе, мы не против)\n\n☎️Контакты:\nЮлия - YAnZueva@Greenatom.ru\n\n—\n\n👉 Обсуждение вакансии в чате @javascript_jobs","markup":[{"type":"link","offset":0,"length":12,"data":"http://Greenatom.ru"},{"type":"hashtag","offset":13,"length":9,"data":"вакансия"},{"type":"hashtag","offset":23,"length":7,"data":"Москва"},{"type":"hashtag","offset":31,"length":11,"data":"javascript"},{"type":"hashtag","offset":43,"length":6,"data":"React"},{"type":"hashtag","offset":50,"length":11,"data":"Typescript"},{"type":"hashtag","offset":62,"length":5,"data":"Node"},{"type":"hashtag","offset":71,"length":7,"data":"Middle"},{"type":"hashtag","offset":79,"length":7,"data":"Senior"},{"type":"hashtag","offset":87,"length":9,"data":"удаленка"},{"type":"hashtag","offset":97,"length":10,"data":"удаленная"},{"type":"hashtag","offset":212,"length":7,"data":"Москва"},{"type":"link","offset":1540,"length":21,"data":"mailto:YAnZueva@Greenatom.ru"},{"type":"handle","offset":1596,"length":16,"data":"javascript_jobs"}],"date":"2020-06-18T21:15:55+00:00","link":"tg://resolve?domain=javascript_jobs_feed&post=16271","tags":[{"name":"javascript"},{"name":"reactjs"},{"name":"typescript"},{"name":"nodejs"},{"name":"sass"},{"name":"docker"}],"cities":[{"code":"moscow"}],"allowsRemote":true}},{"node":{"__typename":"Job","id":"17057185792-1001110946746","title":"Js программист","text":"#вакансия #remote #Javascript #React #Node.js #middle #senior\n\nВсем привет!\n\nЯндекс.Практикум — сервис онлайн-образования. Мы помогаем людям расти — на работе и в жизни. Студенты могут освоить новую специальность, заговорить на иностранном языке и получать удовольствие от того, чем занимаются — каждый день.\n\nСейчас мы в поиске наставников на факультет Веб-разработки!\n\nКомпания: Яндекс.Практикум \nГрафик: частичная удаленная работа, 12 часов в неделю (з/п 50 тыс рублей в месяц). Можно легко совмещать с основной работой.\n\n🔹Что делает наставник?\nНаставник курирует группу из 60 студентов на протяжении всего процесса обучения (примерно 10 месяцев). Он отвечает на их вопросы, проводит групповые консультации и лайвкодинг-вебинары. \n\n🔹Вам подойдет роль, если у вас есть: опыт работы программистом больше трех лет;\nЗнаете HTML, CSS, JavaScript, React, NodeJs;\nПлюсом будет опыт преподавания и экспертной деятельности. \n\n🔹Все наставники перед работой проходят Школу наставников от Яндекс.Практикума. \n\nОткликаться можно здесь: https://praktikum.yandex.ru/job/vacancy-9 \nили пишите в личку @valerymis \nПочта: valeriamis@yandex-team.ru\n\n—\n\n👉 Обсуждение вакансии в чате @javascript_jobs","markup":[{"type":"hashtag","offset":0,"length":9,"data":"вакансия"},{"type":"hashtag","offset":10,"length":7,"data":"remote"},{"type":"hashtag","offset":18,"length":11,"data":"Javascript"},{"type":"hashtag","offset":30,"length":6,"data":"React"},{"type":"hashtag","offset":37,"length":5,"data":"Node"},{"type":"hashtag","offset":46,"length":7,"data":"middle"},{"type":"hashtag","offset":54,"length":7,"data":"senior"},{"type":"link","offset":1029,"length":41,"data":"https://praktikum.yandex.ru/job/vacancy-9"},{"type":"handle","offset":1091,"length":10,"data":"valerymis"},{"type":"link","offset":1110,"length":25,"data":"mailto:valeriamis@yandex-team.ru"},{"type":"handle","offset":1170,"length":16,"data":"javascript_jobs"}],"date":"2020-06-18T21:09:30+00:00","link":"tg://resolve?domain=javascript_jobs_feed&post=0","tags":[{"name":"javascript"},{"name":"reactjs"},{"name":"nodejs"},{"name":"html"},{"name":"css"}],"cities":[],"allowsRemote":true}},{"node":{"__typename":"Job","id":"17056137216-1001110946746","title":"Js разработчик","text":"#вакансия #middle #спб #react #redux #emotion\n\nГород: Сантк-Петербург, ул. Рубинштейна (5 углов)\nФормат работы: офис или удаленка\nЗанятость: полная\nЗарплатная вилка: от 80к до 130к рублей (на руки, больше по согласованию)\nИспользуемый стек: react 16 (hooks), redux, emotion\n\nОписание вакансии:\n\nПривет всем, мы разрабатываем крутые проекты, связанные прежде всего с физическим здоровьем людей, которые тратят его, зарабатывая себе на хлеб. Эти люди работают на складах, перенося коробки с места на место, в сортировочных центрах, доставляя вам посылки, на стройках, и в остальных местах, где требуется ручной труд.\nНаши решения помогают компаниям за границей измерять и управлять (с помощью носимых устройств) рисками возникновения травмы для своих сотрудников (подробнее можете ознакомиться по ссылке: https://soteranalytics.com/ ). Я сооснователь проекта и нам в сентябре исполнится 4 года. С помощью этого канала мы уже нашли двух сотрудников, которые успешно у нас работают, но сейчас такие времена, что чем быстрее мы сможем разработать новые фичи в наших продуктах, тем больше рынка сможем захватить.\n\nЧто нужно делать: нужно разрабатывать дэшборды и прочие веб интерфейсы для наших клиентов, так и для наших внутренних нужд.\n\nЧто требуется от вас: мы ценим самоорганизованность и очень не любим микроменеджмент. Также мы любим когда наши сотрудники развиваются у нас на глазах и всячески стараемся этому помочь. У нас также сформирована команда из опытных сотрудников, которые имеют экспертизы почти в каждой теме.\nТакже мы ценим, когда человек умеет решать проблемы, а не создавать их другим.\n\nКонтакты: писать мне в личку @pavko_a. В сообщении пишите что вы уже сделали на reactjs, чем вы гордитесь в своей работе, а также пару строк о себе и чем вы занимались на последнем проекте.\n\nЗабыл упомянуть: в команде очень много общения на английском, так как коммерческая команда находится в Лондоне и являются носителями языка. #doyourhomework\n\n—\n\n👉 Обсуждение вакансии в чате @javascript_jobs","markup":[{"type":"hashtag","offset":0,"length":9,"data":"вакансия"},{"type":"hashtag","offset":10,"length":7,"data":"middle"},{"type":"hashtag","offset":18,"length":4,"data":"спб"},{"type":"hashtag","offset":23,"length":6,"data":"react"},{"type":"hashtag","offset":30,"length":6,"data":"redux"},{"type":"hashtag","offset":37,"length":8,"data":"emotion"},{"type":"link","offset":803,"length":27,"data":"https://soteranalytics.com/"},{"type":"handle","offset":1631,"length":8,"data":"pavko_a"},{"type":"hashtag","offset":1933,"length":15,"data":"doyourhomework"},{"type":"handle","offset":1983,"length":16,"data":"javascript_jobs"}],"date":"2020-06-18T21:08:30+00:00","link":"tg://resolve?domain=javascript_jobs_feed&post=0","tags":[{"name":"javascript"},{"name":"reactjs"},{"name":"redux"},{"name":"react-redux"}],"cities":[],"allowsRemote":true}},{"node":{"__typename":"Job","id":"17050894336-1001110946746","title":"Javascript разработчик","text":"#вакансия #frontend #JavaScript #React #senior #middle #remote #офис #удаленка                                                              \n\nFrontend-разработчик (React)\nГород и адрес офиса: Москва,Пермь\nФормат работы: офис или удаленно, пятидневка\nЗанятость: полный день\nЗарплатная вилка: от 50 000 до 140 000 руб.                                                                                                                                                                       \n\nО компании: GreenData - компания разработчик уникального ПО для финансового сектора. За более чем десять лет автоматизации кредитных процессов, мы выработали оптимальные подходы к решению большого количества конкретных прикладных задач.                                                       \n\nЧто надо делать:                                                                                                                                                                                                    Участие в разработке платформы.\nПроведение code review.                                                                                                                                                                                                   Работа с контролем версий, управление сборками                                                                                                                                                  \n\nМы работаем с:\nReact\nJavaScript/TypeScript\nHTML, CSS\nGitLab\n\nОпыт работы от 1,5 лет React/JavaScript\nОфициальное трудоустройство\nБелая зарплата\n\nКонтакты:@AnastasyiaKustova\n\n—\n\n👉 Обсуждение вакансии в чате @javascript_jobs","markup":[{"type":"hashtag","offset":0,"length":9,"data":"вакансия"},{"type":"hashtag","offset":10,"length":9,"data":"frontend"},{"type":"hashtag","offset":20,"length":11,"data":"JavaScript"},{"type":"hashtag","offset":32,"length":6,"data":"React"},{"type":"hashtag","offset":39,"length":7,"data":"senior"},{"type":"hashtag","offset":47,"length":7,"data":"middle"},{"type":"hashtag","offset":55,"length":7,"data":"remote"},{"type":"hashtag","offset":63,"length":5,"data":"офис"},{"type":"hashtag","offset":69,"length":9,"data":"удаленка"},{"type":"handle","offset":1588,"length":18,"data":"AnastasyiaKustova"},{"type":"handle","offset":1641,"length":16,"data":"javascript_jobs"}],"date":"2020-06-18T21:04:37+00:00","link":"tg://resolve?domain=javascript_jobs_feed&post=0","tags":[{"name":"javascript"},{"name":"reactjs"},{"name":"typescript"},{"name":"html"},{"name":"css"},{"name":"gitlab"}],"cities":[{"code":"moscow"},{"code":"perm"}],"allowsRemote":true}},{"node":{"__typename":"Job","id":"17048797184-1001110946746","title":"Javascript разработчик","text":"#вакансия #JavaScript #React #jenkins #HTML #CSS #офис #удаленка\n\nMiddle Frontend-разработчик (React)\nГород и адрес офиса: Новосибирск, центр и Академгородок\nФормат работы: Офис или удаленно, пятидневка\nЗанятость: Полный день\nЗарплатная вилка: от 80 000 до 130 000 руб.\n\nО компании: Компания создает и продает софт для любительской обработки видео, музыки и изображений, сотрудничает с Intel, Amazon, Google и NVIDIA.\n\nЧем предстоит заниматься:\n– разработка онлайн-программ для обработки мультимедиа (фоторедактор)\n– проведение ревью кода\n– внедрение новых технологий и подходов в разработке\n\nВ своей работе мы используем:\n– React\n– JavaScript/TypeScript\n– Webpack\n– HTML, CSS\n– Git, GitLab\n– Jenkins\n\nДля успешного выполнения задач тебе потребуется:\n– опыт работы на позиции frontend-разработчика от 1,5 лет\n– опыт разработки на React от 1 года\n– опыт удаленной работы в команде от полугода (в случае удаленной работы)\n– знание JavaScript\n\nофициальное трудоустройство с 1-го дня, белая зп\n\nНазвание компании: HR-project\nКонтакты: @nicedream13\n\n—\n\n👉 Обсуждение вакансии в чате @javascript_jobs","markup":[{"type":"hashtag","offset":0,"length":9,"data":"вакансия"},{"type":"hashtag","offset":10,"length":11,"data":"JavaScript"},{"type":"hashtag","offset":22,"length":6,"data":"React"},{"type":"hashtag","offset":29,"length":8,"data":"jenkins"},{"type":"hashtag","offset":38,"length":5,"data":"HTML"},{"type":"hashtag","offset":44,"length":4,"data":"CSS"},{"type":"hashtag","offset":49,"length":5,"data":"офис"},{"type":"hashtag","offset":55,"length":9,"data":"удаленка"},{"type":"handle","offset":1031,"length":12,"data":"nicedream13"},{"type":"handle","offset":1078,"length":16,"data":"javascript_jobs"}],"date":"2020-06-18T21:02:05+00:00","link":"tg://resolve?domain=javascript_jobs_feed&post=0","tags":[{"name":"javascript"},{"name":"reactjs"},{"name":"jenkins"},{"name":"html"},{"name":"css"},{"name":"typescript"},{"name":"webpack"},{"name":"git"},{"name":"gitlab"}],"cities":[{"code":"novosibirsk"}],"allowsRemote":true}},{"node":{"__typename":"Job","id":"17046700032-1001110946746","title":"Javascript developer","text":"#вакансия #удаленка #react\n\nRocketech.it срочно ищет Middle Frontend React Developer\n\nФормат занятости: удаленка\nЗанятость: fulltime\nЗарплатная вилка: 2200 -2700$/месяц на руки\n\nО компании: \n\nRocketech - компания, предоставляющая полноценные продуктовые команды для инвесторов, стартаперов и крупных компаний. Мы уже больше 5 лет на рынке разработки програмного обеспечения. Сотни выполненых кейсов, десятки крупных клиентов. \n\nО проекте:\n\nМаркетинговый инструмент.\n\nСтек технологий: \n\nTypeScript, React, CRA, less, mobx, antd\n\nТребования: \n\n3+ года опыта коммерческой frontend разработки, разговорный английский\n\nКонтакт: @mxm_at\n\n—\n\n👉 Обсуждение вакансии в чате @javascript_jobs","markup":[{"type":"hashtag","offset":0,"length":9,"data":"вакансия"},{"type":"hashtag","offset":10,"length":9,"data":"удаленка"},{"type":"hashtag","offset":20,"length":6,"data":"react"},{"type":"link","offset":28,"length":12,"data":"http://Rocketech.it"},{"type":"handle","offset":623,"length":7,"data":"mxm_at"},{"type":"handle","offset":665,"length":16,"data":"javascript_jobs"}],"date":"2020-06-18T21:00:08+00:00","link":"tg://resolve?domain=javascript_jobs_feed&post=0","tags":[{"name":"javascript"},{"name":"reactjs"},{"name":"typescript"}],"cities":[],"allowsRemote":true}}]}}},"context":{}}