{"hash":"f34fd2c444a074f4e0e67d525015a008ef8e766f","data":{"records":{"id":"css","name":"css","belongsTo":{"totalCount":40,"pageInfo":{"totalPages":4,"currentPage":1},"edges":[{"node":{"__typename":"Job","id":"24391974912-1001075660570","title":"Php разработчик","text":"#вакансия #удаленка#php #yii\n #штат #highload #ecommerce #официально\n\nРебята, наша компания Hidden Team расширяет штат и приглашает на работу backend-разработчиков уровня middle/middle+ c опытом работы на фреймворке Yii. Мы занимаемся разработкой highload проектов в сфере e-commerce и сложных ERP систем. Сотрудничаем с топовыми веб-студиями и digital-агентствами России.\n\nЧто бы мы хотели видеть у наших кандидатов?\n🔸Хорошие знания программирования (PHP, ООП).\n🔸Опыт работы на фреймворке Yii/Laravel/Symfony\n🔸Опыт работы с Git.\n🔸Опыт работы в консоли linux.\n🔸Базовые знания html, java script, css.\n🔸Понимание принципов построения RESTFul сервисов.\n🔸Желателен опыт работы с чем-либо RabbitMQ, Redis, ElasticSearch, PostgreSQL.\n🔸Английский на уровне чтения технической документации.\n\nЛичные качества: аккуратность, внимательность к мелочам, самостоятельность и организованность, умение работать в команде, быстро реагировать на запросы и изменение ситуации, желание обучаться и развиваться, стремление сделать работу максимально качественно.\n\nМы предлагаем:\n🔹только удаленная работа с отлаженным процессом менеджмента проектов (трекинг в Redmine, оценка задач разработчиками);\n🔹работа над сложными e-commerce проектами для крупнейших российских веб-студий (топ-10 рейтинга рунета);\n🔹многосерверная архитектура, высокие нагрузки (500К+ посетителей/месяц);\n🔹множество различных интеграций с большими объемами данных;\n🔹индивидуальные планы развития;\n🔹обучение и семинары внутри компании, собственная он-лайн школа на стадии запуска;\n🔹перспективы карьерного роста (повышения уровня разработчика до senior/team lead, возможность релокации);\n🔹 заработная плата 70К-120К+ по итогам собеседования (белая, на руки), открытая система грейдов;\n🔹 официальное оформление по ТК РФ, оплачиваемый отпуск, удобный график (начало работы 8-11), в выходные, праздники и по ночам не работаем☺️.\n\nКонтакты: Яна @yanaizosimova","markup":[{"type":"hashtag","offset":0,"length":9,"data":"вакансия"},{"type":"hashtag","offset":24,"length":4,"data":"yii"},{"type":"hashtag","offset":30,"length":5,"data":"штат"},{"type":"hashtag","offset":36,"length":9,"data":"highload"},{"type":"hashtag","offset":46,"length":10,"data":"ecommerce"},{"type":"hashtag","offset":57,"length":11,"data":"официально"},{"type":"handle","offset":1906,"length":14,"data":"yanaizosimova"}],"date":"2020-04-10T10:05:28+00:00","link":"tg://resolve?domain=php_jobs&post=23262","tags":[{"name":"php"},{"name":"yii"},{"name":"laravel"},{"name":"symfony"},{"name":"git"},{"name":"linux"},{"name":"html"},{"name":"java"},{"name":"css"},{"name":"rabbitmq"},{"name":"redis"},{"name":"elasticsearch"},{"name":"postgresql"}],"cities":[],"allowsRemote":true}},{"node":{"__typename":"Job","id":"24359469056-1001075660570","title":"Php разработчик","text":"Ищем!\nPHP-разработчик fullstack удаленно\n\n#вакансия #удаленка #штат #PHP #fullstack\n\nЗАДАЧИ:\n🔹 разработка графических интерфейсов к информационным системам и сервисам компании;\n🔹 разработка микросервисов обработки сообщений и сбор статистики в БД;\n🔹 участие в проектировании программных решений и обсуждении архитектурных решений;\n🔹 работы по интеграции и разработке API взаимодействия сервисов как внутри компании, так и с партнерами.\n\nТРЕБОВАНИЯ:\n 🔹 Самостоятельный разработчик с отличным знанием: PHP, js, Ajax, jQuery, HTML, CSS;\n 🔹 MySQL, PostgreSQL, ClickHouse, Redis, MongoDB;\n 🔹 Linux;\n 🔹XML, JSON, SOAP, RabbitMQ;\n 🔹Symfony, Yuii, Laravel, Zend;\n 🔹 Bootstrap;\n 🔹 Средства визуализации данных, например, d3.js.\n\nБыло бы неплохо: \n🔹знание Nodejs, Python, LUA.\n🔹 опыт разработки мобильных приложений Android, IOS\n\nУСЛОВИЯ:\n🔹 работа в штате компании (основной профиль – разработка высокотехнологичных маркетинговых рассылок и чат-ботов);\n🔹 удаленная работа 5/2 с 10 до 19 (MSK);\n🔹ЗП 70-90k (обсуждается с успешными кандидатами).\n\nПишите сюда: @abezpalova","markup":[{"type":"bold","offset":6,"length":36,"data":""},{"type":"hashtag","offset":42,"length":9,"data":"вакансия"},{"type":"hashtag","offset":52,"length":9,"data":"удаленка"},{"type":"hashtag","offset":62,"length":5,"data":"штат"},{"type":"hashtag","offset":68,"length":4,"data":"PHP"},{"type":"hashtag","offset":73,"length":10,"data":"fullstack"},{"type":"bold","offset":85,"length":8,"data":""},{"type":"bold","offset":441,"length":12,"data":""},{"type":"bold","offset":833,"length":9,"data":""},{"type":"handle","offset":1064,"length":11,"data":"abezpalova"}],"date":"2020-04-10T09:33:14+00:00","link":"tg://resolve?domain=php_jobs&post=23231","tags":[{"name":"php"},{"name":"ajax"},{"name":"jquery"},{"name":"html"},{"name":"css"},{"name":"mysql"},{"name":"postgresql"},{"name":"redis"},{"name":"mongodb"},{"name":"linux"},{"name":"xml"},{"name":"json"},{"name":"soap"},{"name":"rabbitmq"},{"name":"symfony"},{"name":"laravel"},{"name":"zend-framework"},{"name":"bootstrap"},{"name":"nodejs"},{"name":"python"},{"name":"lua"},{"name":"android"},{"name":"ios"}],"cities":[],"allowsRemote":true}},{"node":{"__typename":"Job","id":"16249782272-1001110946746","title":"Js разработчик","text":"#вакансия #javascript #react\n\nГород: Москва\nФормат работы: офис (но на время карантина удаленка)\nЗанятость: полная\nЗарплатная вилка: от 180 000 до 220 000 рублей (на руки)\n\nОписание вакансии: ищем senior frontend разработчика, который:\n\n✅ Очень хорошо знает JavaScript и React. Понимает на что нужно обращать внимание при разработке страниц;\n✅ Командный игрок и хочет обсуждать как технические, так и продуктовые идеи;\n✅ Умеет в проектирование архитектуры frontend для сложных интернет-проектов;\n✅ Имеет опыт в формировании требований к api;\n✅ Любит и понимает необходимость функциональных и unit-тестов.\n\nНаш идеальный кандидат:\n\nЗнает на отлично:\n\n✅ HTML5;\n✅ Browser API;\nособенности кроссбраузерной и адаптивной верстки;\n✅ CSS3/CSS;\n✅ JavaScript (ES6);\n✅ React, Redux, Redux-Saga, Reselect, Styled Components, SSR.\n✅ Умеет в работать с Git;\n✅ Умеет работать в Unix-окружении;\n✅ Имеет опыт работы с системами сборки Webpack, Gulp, настройка Babel.\n\nХорошим плюсом будет:\n\n✅ Знание NodeJS;\n✅ Опыт разработки SPA на React;\n✅ Опыт работы с Vue, Vuex;\n✅ Опыт использования препроцессоров (SASS, Less).\n\nМы предлагаем участие в разработке новых проектов:\n\n✅ Продуктовая разработка проработка задачи с первых этапов, декомпозиция, кодинг, отслеживание результатов;\n✅Построение команды: найм, обучение и мотивация разработчиков;\n✅ Интересные и сложные задачи;\n✅ Обязательное ревью кода;\n✅ Итеративная разработка большие проекты дробим на небольшие задачи и выпускаем постепенно;\n✅ Регулярные демо владельцам продуктов и взаимодействие с ними напрямую.\n\nНаши условия:\n\n✅ Современный процесс разработки, командная работа, молодой дружный коллектив, помощь и поддержка. Мы используем git, GitLab CI\\CD и др. современные средства разработки;\n✅ Белая зарплата и полное соблюдение ТК РФ;\n✅ Гибкий график работы;\n✅ Крутой офис в стиле фьюжн, в котором можно поиграть в VR, настольный теннис, видеоигры и даже поспать! Находится рядом со ст. м. Дмитровская, около «Флакона» и «Хлебозавода»;\n✅ Бесплатный фитнес с бассейном;\n✅ Корпоративные завтраки в офисе, любые напитки и фрукты круглый год;\n✅ДМС после прохождения испытательного срока;\n✅ Возможность быстрого профессионального роста, адекватное руководство и прекрасных коллег.\n\nНазвание компании: Admitad/Projects (https://admitad.pro/)\n\nКонтакты: @nadezhda_elizbarovna или n.isaeva@admitad.com\n\n—\n\n👉 Обсуждение вакансии в чате @javascript_jobs","markup":[{"type":"hashtag","offset":0,"length":9,"data":"вакансия"},{"type":"hashtag","offset":10,"length":11,"data":"javascript"},{"type":"hashtag","offset":22,"length":6,"data":"react"},{"type":"link","offset":2256,"length":20,"data":"https://admitad.pro/"},{"type":"handle","offset":2289,"length":21,"data":"nadezhda_elizbarovna"},{"type":"link","offset":2315,"length":20,"data":"mailto:n.isaeva@admitad.com"},{"type":"handle","offset":2370,"length":16,"data":"javascript_jobs"}],"date":"2020-04-10T09:26:19+00:00","link":"tg://resolve?domain=javascript_jobs_feed&post=15497","tags":[{"name":"javascript"},{"name":"reactjs"},{"name":"html"},{"name":"css"},{"name":"redux"},{"name":"git"},{"name":"unix"},{"name":"webpack"},{"name":"gulp"},{"name":"nodejs"},{"name":"vuejs"},{"name":"sass"},{"name":"gitlab"},{"name":"react-redux"}],"cities":[{"code":"moscow"}],"allowsRemote":true}},{"node":{"__typename":"Job","id":"16248733696-1001110946746","title":"Js разработчик","text":"#вакансия #frontend #Москва #офис #JS #Vue #fulltime\n\nГород и адрес офиса: Москва, м. Новокузнецкая/Павелецкая\nФормат работы: #офис (удаленно на период карантина)\nЗанятость: #полная\nЗП: от 80к до 160к руб. нетт\n\nSports.ru - провайдер развлечений для любителей спорта.\nЕсть спорт. Есть болельщики. Мы заполняем среду между ними, оживляем ее, наполняем общением и другими развлечениями. Мы делаем не «сайты» или «приложения», а мультиплатформенные продукты, с учетом актуальной технологической парадигмы.\n\nВажная часть работы команды разработки в компании – спецпроекты. Вместе с редакцией и рекламодателями мы создаем игровые, образовательные и просто веселые проекты, в которых легче пробовать новые технологии и быстрее релизный цикл.\n\nСейчас мы ищем Frontend-разработчика именно для реализации коммерческих и редакционных спецпроектов.\n\nО задачах:\nВам предстоит заниматься разработкой спецпроектов, созданием внутренних инструментов и интеграцией и поддержкой рекламных систем (Google Ad Manager, AdFox и т. д.).\n\nО наших ожиданиях:\nМы ожидаем, что у вас есть навыки разработки веб-интерфейсов с использованием JavaScript и кроссбраузерной верстки интерфейсов с помощью HTML и CSS. Еще вы имеете опыт работы в команде с другими разработчиками и умеете пользоваться инструментами отладки в браузере. Идеально, если вы уже работали с Vue.js.\n\nОб условиях:\nПросторный стильный офис возле м. Новокузнецкая/Третьяковская.\n“Белая” заработная плата.\nБесплатная медстраховка со стоматологией после испытательного срока.\nГибкий график работы с возможностью день-два в неделю работать удаленно,\nФрукты, снеки, чай, кофе, какао 24/7.\nКорпоративная скидка в спортзал и на занятия английским языком.\nКорпоративный футбол с тренером.\nФинансовая помощь при переезде из другого города.\nВозможности для профессионального развития (сложные задачи, новые технологии, оплата обучающих курсов и конференций, помощь в развитии персонального бренда (участие в конференциях, написание статей).\n\nНазвание компании: Sports.ru (Tribuna Digital)\nКому интересно, пишите в личку (@pbuyatova), рада буду поделиться подробностями :)\n\n—\n\n👉 Обсуждение вакансии в чате @javascript_jobs","markup":[{"type":"hashtag","offset":0,"length":9,"data":"вакансия"},{"type":"hashtag","offset":10,"length":9,"data":"frontend"},{"type":"hashtag","offset":20,"length":7,"data":"Москва"},{"type":"hashtag","offset":28,"length":5,"data":"офис"},{"type":"hashtag","offset":34,"length":3,"data":"JS"},{"type":"hashtag","offset":38,"length":4,"data":"Vue"},{"type":"hashtag","offset":43,"length":9,"data":"fulltime"},{"type":"hashtag","offset":126,"length":5,"data":"офис"},{"type":"hashtag","offset":174,"length":7,"data":"полная"},{"type":"link","offset":212,"length":9,"data":"http://Sports.ru"},{"type":"link","offset":1992,"length":9,"data":"http://Sports.ru"},{"type":"handle","offset":2052,"length":10,"data":"pbuyatova"},{"type":"handle","offset":2137,"length":16,"data":"javascript_jobs"}],"date":"2020-04-10T09:25:49+00:00","link":"tg://resolve?domain=javascript_jobs_feed&post=15496","tags":[{"name":"javascript"},{"name":"vuejs"},{"name":"html"},{"name":"css"}],"cities":[{"code":"moscow"}],"allowsRemote":true}},{"node":{"__typename":"Job","id":"16240345088-1001110946746","title":"Js разработчик","text":"#вакансия #Ярославль\n#javascript #js #fullstack \nГород Ярославль(Ярославская область)\nРабота в офисе \nПолная занятость \nЗаработная плата от 60 000 до 80 000 руб. на руки \nWeb разработчик \nТребования: \n-Уверенное знание JavaScript,HTML,CSS;\n-Понимание принципов MVC;\n-Опыт работы с Git;\n-Умение тестировать и документировать собственный код,а также работать с чужим; \n-Умение пользоваться командной строкой Linux(bash,shell,etc)\nБудет плюсом: \n-PHP\n-Опыт работы с extjs;\n-Опыт работы с Yii,Vue;\n-Опыт работы в bugtracing системах (Redmine);\n-Опыт коммерческой разработки ПО.\nКомпания «Сетевые решения»\nПо вопросам в телеграмм @Nbagama или ват сап 8962 956 62 04 Анастасия\n\n—\n\n👉 Обсуждение вакансии в чате @javascript_jobs","markup":[{"type":"hashtag","offset":0,"length":9,"data":"вакансия"},{"type":"hashtag","offset":10,"length":10,"data":"Ярославль"},{"type":"hashtag","offset":21,"length":11,"data":"javascript"},{"type":"hashtag","offset":33,"length":3,"data":"js"},{"type":"hashtag","offset":37,"length":10,"data":"fullstack"},{"type":"handle","offset":625,"length":8,"data":"Nbagama"},{"type":"link","offset":646,"length":14,"data":"tel:8962 956 62 04"},{"type":"handle","offset":705,"length":16,"data":"javascript_jobs"}],"date":"2020-04-10T09:12:51+00:00","link":"tg://resolve?domain=javascript_jobs_feed&post=15488","tags":[{"name":"javascript"},{"name":"web"},{"name":"html"},{"name":"css"},{"name":"git"},{"name":"linux"},{"name":"bash"},{"name":"shell"},{"name":"php"},{"name":"extjs"},{"name":"yii"},{"name":"vuejs"}],"cities":[{"code":"yaroslavl"}],"allowsRemote":false}},{"node":{"__typename":"Job","id":"24346886144-1001075660570","title":"Php разработчик","text":"#вакансия #удалёнка #PHP #zend #офис \n\nЯ ищу PHP-разработчика для работы над Федеральными проектами в сфере ЖКХ в компанию «АйДжиЭс Цифровые Технологии».\n\nГород: Уфа\nФормат работы: в офисе/удаленно\nЗанятость: полная\nЗарплатная вилка: от 60 000 до 100 000 руб. на руки\nНазвание компании: АйДжиЭс Цифровые Технологии\n\nЧто надо:\n\n- Опыт работы PHP-разработчиком от 3 лет;\n- Знание HTML, JavaScript (vue.js), CSS;\n- Zend Framework 2.5.3, PosrgreSQL 10, extjs 4, PHP 7, javascript, PhpSpreadsheet, PSR, Orm, Doctrine 2.\n\nЧто дают:\n\n- ЗП от 60 000 до 100 000;\n- Возможность видеть результат своего труда, развиваться и стать частью чего-то грандиозного;\n- Гибкий график, возможна удалёнка;\n\nЧто делать:\n\n- Разработка веб-приложений на PHP, веб-разработка;\n- Проектирование архитектуры системы;\n- Участие в развитии компании и улучшении сервисов.\n\nКонтакт: @coderhunt Надежда","markup":[{"type":"hashtag","offset":0,"length":9,"data":"вакансия"},{"type":"hashtag","offset":10,"length":9,"data":"удалёнка"},{"type":"hashtag","offset":20,"length":4,"data":"PHP"},{"type":"hashtag","offset":25,"length":5,"data":"zend"},{"type":"hashtag","offset":31,"length":5,"data":"офис"},{"type":"handle","offset":850,"length":10,"data":"coderhunt"}],"date":"2020-04-09T13:57:51+00:00","link":"tg://resolve?domain=php_jobs&post=23219","tags":[{"name":"php"},{"name":"zend-framework"},{"name":"html"},{"name":"javascript"},{"name":"vuejs"},{"name":"css"},{"name":"extjs"},{"name":"orm"},{"name":"doctrine"}],"cities":[{"code":"ufa"}],"allowsRemote":true}},{"node":{"__typename":"Job","id":"16236150784-1001110946746","title":"Js developer","text":"#вакансия #удаленно #remote \n#frontend #react #js #ukraine\n \nИщу Middle Frontend Developer (React)\n\nЛокация: Украина, г. Днепр, ул. Ломаная (центр города)\nФормат работы: Полная удаленка или удаленка на время карантина, потом офис\nЗанятость: полная #fulltime \nЗарплатная вилка: от 1000$ до 2500$ на руки (готовы рассмотреть ваши предложения)\nОписание вакансии: \n— 2+ years of experience in building Front End solutions;\n— 2+ years of experience JavaScript, ES6;\n— Good understanding of state-of-the-art JavaScript libraries and frameworks, such as ReactJS, Redux;\n— Proficient understanding of web markup, including HTML5, CSS3;\n— Understanding of server-side CSS pre-processing platforms, such as LESS and SASS;\n— Proficient understanding of client-side scripting and JavaScript frameworks;\n— Understanding of asynchronous request handling, partial page updates, and AJAX;\n— Understanding of cross-browser compatibility issues and ways to work around them;\n— Experience in writing semantic, valid, cross-browser code;\n— Experience with Git;\n— Knowledge of BEM principles, progressive enhancement, graceful degradation.\n— Good written and spoken English level\nболее детальнее по сссылке - https://jobs.dou.ua/companies/dinarys/vacancies/110429/\nНазвание компании: Dinarys - https://dinarys.com/\nКонтакты: @oleynikusss - телеграм/скайп","markup":[{"type":"hashtag","offset":0,"length":9,"data":"вакансия"},{"type":"hashtag","offset":10,"length":9,"data":"удаленно"},{"type":"hashtag","offset":20,"length":7,"data":"remote"},{"type":"hashtag","offset":29,"length":9,"data":"frontend"},{"type":"hashtag","offset":39,"length":6,"data":"react"},{"type":"hashtag","offset":46,"length":3,"data":"js"},{"type":"hashtag","offset":50,"length":8,"data":"ukraine"},{"type":"hashtag","offset":248,"length":9,"data":"fulltime"},{"type":"link","offset":1188,"length":55,"data":"https://jobs.dou.ua/companies/dinarys/vacancies/110429/"},{"type":"link","offset":1273,"length":20,"data":"https://dinarys.com/"},{"type":"handle","offset":1304,"length":12,"data":"oleynikusss"}],"date":"2020-04-09T08:18:45+00:00","link":"tg://resolve?domain=javascript_jobs_feed&post=15484","tags":[{"name":"javascript"},{"name":"reactjs"},{"name":"redux"},{"name":"web"},{"name":"html"},{"name":"css"},{"name":"sass"},{"name":"ajax"},{"name":"git"},{"name":"cross-browser"}],"cities":[],"allowsRemote":true}},{"node":{"__typename":"Job","id":"16228810752-1001110946746","title":"Js разработчик","text":"#вакансия #javascript #nodejs #typescript #frontend #middle\n\nКомпания: #Mетрквадратный https://m2.ru\nЛокация: #москва м.Белорусская\nФормат работы: офис\nЗанятость: полная\nЗ/п: 200к - 260к руб. на руки\nКонтакты: @maxdmitrov\n\nЭто платформа, на которой физические лица смогут в режиме одного окна подобрать объект недвижимости, оформить на него ипотеку, произвести электронную регистрацию, сделать безопасный расчет не посещая банки и воспользоваться дополнительными услугами (страхование, дизайн, ремонт). \n\nЧем предстоит заниматься:\n\n•  разрабатывать один из продуктов жилищной экосистемы;\n•  прорабатывать задачи с начального этапа (декомпозиция, проработка архитектуры, демо с владельцем продукта);\n•  проводить код ревью;\n•  покрывать код unit тестами, помогать тестировщикам в написании e2e тестов;\n•  оптимизировать рендеринг и скорость загрузки страниц;\n•  разрабатывать продуктовые компоненты, используя общие UI библиотеки, и помогать в развитии этих библиотек.\n\nЧего мы ждем:\n\n• Javascript(ES6);\n• React + MobX/Redux;\n• HTML;\n• CSS;\n• Опыт кроссбраузерной верстки.\n\nБудет плюсом:\n\n• TypeScript;\n• Знание протокола HTTP/HTTPS, websockets, опыт работы с REST API;\n• Опыт работы с react native;\n• Опыт в бекэнде на различных языках программирования;\n• Опыт профилирования, оптимизации и рефакторинга кода;\n• Опыт написания тестов.\n\nМы используем: \n\n•  TypeScript + React + MobX + Gatsby;\n•  NestJS + gRPC + ProtoBuf (мидл-слой, управляющий UI и обращающийся к API бэк-энда);\n•  Micro Frontend Service;\n•  GitLab (CI/CD);\n•  Yarn + Lerna;\n•  Webpack/Rollup.\n\nМы предлагаем: \n\n•  Современный стек технологий;\n•  Возможность влиять на архитектуру и сразу видеть результат своей работы;\n•  Белая конкурентная ЗП, официальное оформление;\n•  Гибкий график работы, возможность выбора рабочего оборудования;\n•  ДМС, компенсация фитнеса, льготная ставка по ипотеке;\n•  Комфортный офис в БЦ «Белая площадь» (минута от метро): лаундж-зоны, бариста, фрукты.","markup":[{"type":"hashtag","offset":0,"length":9,"data":"вакансия"},{"type":"hashtag","offset":10,"length":11,"data":"javascript"},{"type":"hashtag","offset":22,"length":7,"data":"nodejs"},{"type":"hashtag","offset":30,"length":11,"data":"typescript"},{"type":"hashtag","offset":42,"length":9,"data":"frontend"},{"type":"hashtag","offset":52,"length":7,"data":"middle"},{"type":"hashtag","offset":71,"length":15,"data":"Mетрквадратный"},{"type":"link","offset":87,"length":13,"data":"https://m2.ru"},{"type":"hashtag","offset":110,"length":7,"data":"москва"},{"type":"handle","offset":210,"length":11,"data":"maxdmitrov"}],"date":"2020-04-09T06:40:27+00:00","link":"tg://resolve?domain=javascript_jobs_feed&post=15477","tags":[{"name":"javascript"},{"name":"nodejs"},{"name":"typescript"},{"name":"reactjs"},{"name":"redux"},{"name":"html"},{"name":"css"},{"name":"rest"},{"name":"gitlab"},{"name":"webpack"},{"name":"react-native"}],"cities":[{"code":"moscow"}],"allowsRemote":false}},{"node":{"__typename":"Job","id":"16226713600-1001110946746","title":"Js программист","text":"#вакансия #js #angular\n\nНазвание компании: Froot Middle Asia (ФрутМидл Эйжа)\nhttps://thefroot.com\nВилка: от 350 до 750 тысяч тенге (1 - 2К $)\nТребуемый опыт работы: 1–3 года\nГород: Алматы, Казахстан\n\nФормат: Полная занятость, полный день, можно удаленно\n\nО компании\nСегодня Froot - это 650 000 товаров в собственном маркетплейсе, 15 магазинов в Алматы, договора франшизы на 100 магазинов по всему Казахстану и успешные переговоры по экспансии на рынки Турции, Филиппин, Узбекистана, Таджикистана и Кыргызстана.\nВ 2020 году мы откроем 200 магазинов по всему Казахстану и доведём ассортимент нашего онлайн маркетплейса до 3 000 000!\n\nМы ожидаем, что программист умеет работать в команде и готов оперативно погрузится в существующий продукт. Он пишет код не «для себя» или «чтобы работало», а хорошо, аккуратно и понятно, чтобы любой член команды смог продолжить работу. Мы используем несколько серверов (тестовый, продакшен, rnd), gitflow, разветвление микросервисов.\n\nКого мы ищем?\nСамостоятельного Frontend Developer'а, сильного командного игрока, свято уважающего дедлайны и эффективную коммуникацию. Важно уметь предлагать свои идеи, делиться своим видением какие технологии могут давать результат.\n\nЧто делать:\n\nПоддерживать проекты;\nРазрабатывать новые модули и спецпроекты в существующих проектах;\nПредлагать технические решения для упрощения бизнес-процессов\nЗапускаем мобильную разработку на js\n\nТребования:\n\nЗнание современных стандартов и методов разработки веб-приложений\nОтличное знание HTML5/CSS3, JavaScript ES5/ES6\nAngular 2+\nУмение обращаться с системами сборки Grunt/Gulp/Webpack\nЗнание CSS/HTML препроцессоров (Sass/Less/Stylus/Pug)\nЗнание Git\nВнимательность к мелочам;\nУмение создавать адаптивную верстку;\nПлюсом будет:\n\nОпыт работы с Node.js\nPWA\nNativeScript\nМы предлагаем:\n· Молодой коллектив с крутой командой разработки, в которой можно быстро расти и развиваться;\n· Интересные рабочие задачи;\n· Офис на Кунаева с панорамным видом на город;\n· Стабильная заработная плата, официальное трудоустройство.\n\nКонтакты: @sanzhikee, sanzhar.sarsenbi@gmail.com, +7 702 97 65 999","markup":[{"type":"hashtag","offset":0,"length":9,"data":"вакансия"},{"type":"hashtag","offset":10,"length":3,"data":"js"},{"type":"hashtag","offset":14,"length":8,"data":"angular"},{"type":"link","offset":77,"length":20,"data":"https://thefroot.com"},{"type":"handle","offset":2034,"length":10,"data":"sanzhikee"},{"type":"link","offset":2046,"length":26,"data":"mailto:sanzhar.sarsenbi@gmail.com"},{"type":"link","offset":2074,"length":16,"data":"tel:+7 702 97 65 999"}],"date":"2020-04-09T06:39:00+00:00","link":"tg://resolve?domain=javascript_jobs_feed&post=15475","tags":[{"name":"javascript"},{"name":"angularjs"},{"name":"html"},{"name":"css"},{"name":"gruntjs"},{"name":"gulp"},{"name":"webpack"},{"name":"sass"},{"name":"git"},{"name":"nodejs"}],"cities":[{"code":"almaty"}],"allowsRemote":true}},{"node":{"__typename":"Job","id":"16223567872-1001110946746","title":"Javascript разработчик","text":"#вакансия #москва #офис #полнаязанятость #frontend #javascript #react #angular #vue\n\nFrontend-разработчик (JavaScript)\n\nГород и адрес офиса: Москва, метро Дубровка\nФормат работы: офис (в период самоизоляции работаем удалённо)\nЗанятость: полная\nЗарплатная вилка: от 140 000 до 170 000 рублей\n\nЗадачи:\n\n— Разработка frontend-интерфейса рекламной платформы\n— Перевод UI/UX макетов в верстку\n— Взаимодействие с backend-разработчиками, согласование протоколов обмена данными\n— Работа со сторонними frontend-решениями, в т.ч. внесение изменений в сторонний код\n— Разработка плеера, поддерживающего стандарты VAST/VPAID\n— Разработка и поддержка рекламных блоков (VPAID AdUnit)\n— Разработка автоматизированных тестов и тестовых сред\n\nТребования:\n\n— Опыт кроссбраузерной веб-разработки от трех лет (HTML 5, CSS)\n— Опыт программирования с использованием как чистого JavaScript, так и фреймворков (react, angular, vue), работа с npm\n— Опыт работы с REST API\n\nБудет плюсом:\n\n— Представление об асинхронной̆ обработке запросов, разработка single-page application\n— Опыт работы в AdTech, знание протоколов VAST/VPAID, представление о работе плееров с рекламными материалами\n— Знание о том, что такое CORS\n— Хорошее понимание работы HTTP протокола \n— Навыки работы с сетевыми инспекторами\n\nУсловия:\n\n— Заработная плата от 140 000 до 170 000 рублей (по результатам собеседования)\n— Полная занятость, полный день\n— Работа под руководством опытного CTO c хорошим чувством юмора :)\n— Современный комфортный офис в Москве (метро Дубровка)\n\nНазвание компании:\n\nUnion Media Group\n\nО компании:\n\nГруппа компаний на стыке агентского бизнеса и рекламных технологий.\n\nРазрабатываем ab ovo рекламную платформу, не отягощенную legacy-кодом и грузом обратной совместимости.\n\nВ качестве таск-трекера используем Jira.\n\nДля откликов: \n\nПройдите первичное собеседование в экспресс-формате прямо сейчас:\n\n👉 @yeshr_it_bot\n\nПо дополнительным вопросам:\n\n🖖 @asubc","markup":[{"type":"hashtag","offset":0,"length":9,"data":"вакансия"},{"type":"hashtag","offset":10,"length":7,"data":"москва"},{"type":"hashtag","offset":18,"length":5,"data":"офис"},{"type":"hashtag","offset":24,"length":16,"data":"полнаязанятость"},{"type":"hashtag","offset":41,"length":9,"data":"frontend"},{"type":"hashtag","offset":51,"length":11,"data":"javascript"},{"type":"hashtag","offset":63,"length":6,"data":"react"},{"type":"hashtag","offset":70,"length":8,"data":"angular"},{"type":"hashtag","offset":79,"length":4,"data":"vue"},{"type":"handle","offset":1875,"length":13,"data":"yeshr_it_bot"},{"type":"handle","offset":1922,"length":6,"data":"asubc"}],"date":"2020-04-09T06:38:06+00:00","link":"tg://resolve?domain=javascript_jobs_feed&post=15472","tags":[{"name":"javascript"},{"name":"reactjs"},{"name":"angularjs"},{"name":"vuejs"},{"name":"html"},{"name":"css"},{"name":"npm"},{"name":"rest"}],"cities":[{"code":"moscow"}],"allowsRemote":true}}]}}},"context":{}}