{"hash":"f5f6bf98bd95e769321482904cbbd488f77922fd","data":{"records":{"id":"azure","name":"azure","belongsTo":{"totalCount":16,"pageInfo":{"totalPages":2,"currentPage":1},"edges":[{"node":{"__typename":"Job","id":"17354981376-1001110946746","title":"Js developer","text":"#вакансия #ReactNative #NodeJS #Remote \n\n✅Вакансия: React Native  Developer\n✅Занятость: full-time, remote\n✅ЗП вилка:180000- 250 000 rub\nКА: IT.HuntMe\n\nCurrently we are looking for a Senior React Native Software Engineer to work on solutions for enterprise-level clients with our best-in-class engineering and design teams. \n❇️Responsibilities:\n* Build New ReactNative app\n* Integrate with our Cloud-based video editing API\n* Implement new UI to expose new editing features\n* Convert product requirements into actionable and tangible items for all stakeholders\n* Overall Design - code, performance, security\n* Release estimation, planning and timely integration with other stakeholders (product, app, backend, ui/ux etc)\n* Performance fixes and optimization\n* JSON API design and finalization\n* Continuously discover, evaluate, and implement new best practices to maximize development quality efficiency\n* Code review\n* Build modular, efficient, testable, and reusable React components\n\n❇️Basic qualifications:\n* Experienced, ReactNative Lead\n* Comfortable with modern JS frameworks (NodeJS, ReactJS/AngularJS), MongoDB, HTML5 and SASS\n* Have experience building and running production-ready API’s\n* 2+ years of React Native/full-stack work experience\n* Influence which tools, programming languages, and technologies you work with\n* Help ensure we have a smooth software pipeline for continuous and fast delivery\n* Balance discovery phases with implementation work\n* Be excellent at working both independently and in a team\n* Passion for software development, scalable architecture and product build\n\n♻️Preferred qualifications:\n* Native Android or iPhone development experience, or experience developing in Ionic\n* Experience building a SaaS service\n* User interface and visual design skills\n* Experience with Azure/AWS\n\n👍 WE OFFER:  \n* Competitive compensation depending on experience and skills  \n* Work in enterprise-level projects on a long-term basis  \n* Full-time remote work (you can work from anywhere you are)  \n* Unlimited access to learning courses \n* Community of 36,700+ industry’s top professionals  \n\n✍️Контакты: @mary_itfox или it.huntme@gmail.com","markup":[{"type":"hashtag","offset":0,"length":9,"data":"вакансия"},{"type":"hashtag","offset":10,"length":12,"data":"ReactNative"},{"type":"hashtag","offset":23,"length":7,"data":"NodeJS"},{"type":"hashtag","offset":31,"length":7,"data":"Remote"},{"type":"handle","offset":2129,"length":11,"data":"mary_itfox"},{"type":"link","offset":2145,"length":19,"data":"mailto:it.huntme@gmail.com"}],"date":"2020-07-03T09:55:06+00:00","link":"tg://resolve?domain=javascript_jobs_feed&post=16551","tags":[{"name":"javascript"},{"name":"nodejs"},{"name":"reactjs"},{"name":"cloud"},{"name":"json"},{"name":"angularjs"},{"name":"mongodb"},{"name":"html"},{"name":"sass"},{"name":"android"},{"name":"azure"},{"name":"amazon-web-services"},{"name":"ms-access"},{"name":"react-native"},{"name":"user-interface"}],"cities":[],"allowsRemote":true}},{"node":{"__typename":"Job","id":"17325621248-1001110946746","title":"Js developer","text":"#вакансия #frontend #react  #senior #мbycr #офис #fulltime #релокация в литву #минск\n\nПозиция – Frontend developer (senior)\n\nКомпания – ThiNKT Digital\n\nЛокация – Работать в Литве. Возможна релокация из РБ\n\nЗанятость – полная, офис, гибкое время начала дня\n\nОплата: от 2 000 до 3 400 евро на руки\n\nРелокационный пакет - оплата 1 мес аренды кв и переезд\n\n The Role \n• Discuss the client‘s needs to propose the best solution • Develop responsive web applications • Keep up to date with terminology, concepts and best practices for coding web applications • Work closely with colleagues to constantly innovate product functionality and design • Architect customer-centric front-end part of the solution • Collaborate with Venture Managers and engage with development teams \n   We offer\n • Participation in a dynamic startup solving challenges in the energy sector & beyond • Responsibility over a wide portfolio of products  • Access to large network of startups & corporates through our various partnerships • A great international exposure, and a diverse team with extensive & rich experiences  • Competitive compensation package & flexible work schedule  \n \n       Your Background \n● Solid foundation in web application front-end development ● You know what are the best UI & UX practices ● Experience with front-end programming languages such as HTML, CSS,  Javascript, ReactJS, etc ● Experience in software process models such as Agile / Scrum / etc ● Well-rounded interpersonal and communication skills to work in flexible teams ● You are Problem solver, and very interested in technology-related entrepreneurial start-up projects. ● Relevant experience with Node or other backend programming languages would be a plus ● Experience with Azure or Amazon Web Service (AWS) would be a huge plus ● Relevant experience 3-5 years ● Required language: English \n \n \n\n\n\n☎️ Контакты для обсуждения вакансии:\n\ntelegram @veroneko","markup":[{"type":"hashtag","offset":0,"length":9,"data":"вакансия"},{"type":"hashtag","offset":10,"length":9,"data":"frontend"},{"type":"hashtag","offset":20,"length":6,"data":"react"},{"type":"hashtag","offset":28,"length":7,"data":"senior"},{"type":"hashtag","offset":36,"length":6,"data":"мbycr"},{"type":"hashtag","offset":43,"length":5,"data":"офис"},{"type":"hashtag","offset":49,"length":9,"data":"fulltime"},{"type":"hashtag","offset":59,"length":10,"data":"релокация"},{"type":"hashtag","offset":78,"length":6,"data":"минск"},{"type":"handle","offset":1910,"length":9,"data":"veroneko"}],"date":"2020-07-02T16:31:22+00:00","link":"tg://resolve?domain=javascript_jobs_feed&post=16523","tags":[{"name":"javascript"},{"name":"reactjs"},{"name":"web"},{"name":"ms-access"},{"name":"html"},{"name":"css"},{"name":"nodejs"},{"name":"azure"},{"name":"amazon-web-services"}],"cities":[{"code":"minsk"}],"allowsRemote":false}},{"node":{"__typename":"Job","id":"17324572672-1001110946746","title":"Js developer","text":"#вакансия #frontend #react  #senior #мbycr #офис #fulltime #релокация в литву #минск\n\nПозиция – Frontend developer (senior)\n\nКомпания – ThiNKT Digital\n\nЛокация – Литва\n\nЗанятость – полная, офис, гибкое время начала дня\n\nОплата: от 2 000 до 3400 евро на руки\n\nРелокационный пакет - оплата 1 мес аренды кв и переезд\n\n The Role • Discuss the client‘s needs to propose the best solution • Develop responsive web applications • Keep up to date with terminology, concepts and best practices for coding web applications • Work closely with colleagues to constantly innovate product functionality and design • Architect customer-centric front-end part of the solution • Collaborate with Venture Managers and engage with development teams \n   We offer • Participation in a dynamic startup solving challenges in the energy sector & beyond • Responsibility over a wide portfolio of products  • Access to large network of startups & corporates through our various partnerships • A great international exposure, and a diverse team with extensive & rich experiences  • Competitive compensation package & flexible work schedule  \n \n       Your Background ● Solid foundation in web application front-end development ● You know what are the best UI & UX practices ● Experience with front-end programming languages such as HTML, CSS,  Javascript, ReactJS, etc ● Experience in software process models such as Agile / Scrum / etc ● Well-rounded interpersonal and communication skills to work in flexible teams ● You are Problem solver, and very interested in technology-related entrepreneurial start-up projects. ● Relevant experience with Node or other backend programming languages would be a plus ● Experience with Azure or Amazon Web Service (AWS) would be a huge plus ● Relevant experience 3-5 years ● Required language: English \n \n \n\n\n\n☎️ Контакты для обсуждения вакансии:\n\ntelegram @codebor\n\ne-mail ybb@quadcom.ru","markup":[{"type":"hashtag","offset":0,"length":9,"data":"вакансия"},{"type":"hashtag","offset":10,"length":9,"data":"frontend"},{"type":"hashtag","offset":20,"length":6,"data":"react"},{"type":"hashtag","offset":28,"length":7,"data":"senior"},{"type":"hashtag","offset":36,"length":6,"data":"мbycr"},{"type":"hashtag","offset":43,"length":5,"data":"офис"},{"type":"hashtag","offset":49,"length":9,"data":"fulltime"},{"type":"hashtag","offset":59,"length":10,"data":"релокация"},{"type":"hashtag","offset":78,"length":6,"data":"минск"},{"type":"handle","offset":1869,"length":8,"data":"codebor"},{"type":"link","offset":1886,"length":14,"data":"mailto:ybb@quadcom.ru"}],"date":"2020-07-02T16:29:51+00:00","link":"tg://resolve?domain=javascript_jobs_feed&post=16522","tags":[{"name":"javascript"},{"name":"reactjs"},{"name":"web"},{"name":"ms-access"},{"name":"html"},{"name":"css"},{"name":"nodejs"},{"name":"azure"},{"name":"amazon-web-services"}],"cities":[{"code":"minsk"}],"allowsRemote":false}},{"node":{"__typename":"Job","id":"2270167040-1001134745498","title":"Devops инженер","text":"#вакансия удаленно, полная занятость\nЗарплатная вилка: от 200 до 250\nОписание вакансии: Разработка универсальной системы управления облачными сервисами на основе кластера Kubernetes и методологии CI/CD\nХорошо, если у Вас есть опыт работы с Azure (или GCE или AWS ), знание Kubernetes, опыт работы в enterprise и/или продуктовой компании и хороший разговорный английский.\nНазвание компании: Virtocommerce\nКонтакты: lr@virtoway.com\n\n—\n\n👉 Обсуждение вакансии в чате @devops_jobs","markup":[{"type":"hashtag","offset":0,"length":9,"data":"вакансия"},{"type":"link","offset":414,"length":15,"data":"mailto:lr@virtoway.com"},{"type":"handle","offset":464,"length":12,"data":"devops_jobs"}],"date":"2020-07-01T14:20:36+00:00","link":"tg://resolve?domain=devops_jobs_feed&post=2165","tags":[{"name":"kubernetes"},{"name":"azure"},{"name":"amazon-web-services"}],"cities":[],"allowsRemote":true}},{"node":{"__typename":"Job","id":"2265972736-1001134745498","title":"Devops инженер","text":"#вакансия #Remote #работаDevOps  #удаленка \nКомпания: IDG\nФормат работы: удаленка\nЗанятость: полная\nЗарплатная вилка: $2500 до $4000\n\n👋Всем привет. \nМы занимаемся разработкой собственных образовательных проектов, а также проектов для клиентов - технологических, финансовых и аудиторских компаний.\nСейчас мы ищем DevOps инженера в дополнение к нашей текущей DevOps-команде, который будет вместе с нами делать cross-cloud big-data/ai платформу для одного из наших крупных постоянных клиентов.\nУ нас всё в k8s. Помимо этого есть spark, несколько баз данных и еще куча всего интересного. Разворачиваем с помощью Terraform/Ansible/Helm\n\n📍Требования:\n\n- Опыт работы с AWS/Azure/GCE - от 2+ лет;\n- Опыт работы с Kubernetes - от 2+ лет\n- Опыт работы со Spark - от 1 года\n- Имеет опыт настройки и администрирования БД (Mongo, Redis, Rabbit, SQL Server, Postgres, MySQL, Elastic Search)\n- Опыт разработки на Python или других подобных языках;\n- Опыт организации процесса CI/CD (jenkins, teamcity).\n- Английский на уровне Intermediate и выше.\nБудет плюсом: \n\n- Опыт работы в крупных международных компаниях;\n- Опыт работы с технологиями Big Data;\n\n📌Что мы предлагаем:\n\n- Интересные задачи и возможность реализовать свой потенциал в международных проектах компании и внутренних стартапах;\n- Гибкий график (начало и конец рабочего дня согласовываются с менеджером и командой проекта)\n- Полностью удаленная работа\n- Дополнительные выплаты за профессиональные успехи\n\nКонтакт: @IDGAccount\n\n—\n\n👉 Обсуждение вакансии в чате @devops_jobs","markup":[{"type":"hashtag","offset":0,"length":9,"data":"вакансия"},{"type":"hashtag","offset":10,"length":7,"data":"Remote"},{"type":"hashtag","offset":18,"length":13,"data":"работаDevOps"},{"type":"hashtag","offset":33,"length":9,"data":"удаленка"},{"type":"handle","offset":1465,"length":11,"data":"IDGAccount"},{"type":"handle","offset":1511,"length":12,"data":"devops_jobs"}],"date":"2020-06-30T11:03:34+00:00","link":"tg://resolve?domain=devops_jobs_feed&post=2161","tags":[{"name":"cloud"},{"name":"ansible"},{"name":"amazon-web-services"},{"name":"azure"},{"name":"kubernetes"},{"name":"redis"},{"name":"rabbitmq"},{"name":"sql"},{"name":"postgresql"},{"name":"mysql"},{"name":"elasticsearch"},{"name":"python"},{"name":"jenkins"},{"name":"sql-server"}],"cities":[],"allowsRemote":true}},{"node":{"__typename":"Job","id":"2262827008-1001134745498","title":"Devops engineer","text":"#вакансия #удаленка #DevOps \n\nDevOps Engineer \nГород и адрес офиса: Москва, Сочи, Новосибирск \nФормат работы: удаленка\nЗанятость: полная\nЗарплатная вилка: 4000 - 5000$ в месяц \n\nКомпания решает задачи в областях искусственного интеллекта, машинного обучения и больших данных, а вам предстоит заниматься поддержкой сложной облачной инфраструктуры и развитием DevOps-практик в компании.\n\nСильная команда, сложные задачи, перспектива быстрого роста, удаленная работа, гибкий график. С вас — опыт 3+ лет, понимание современных подходов к инфраструктуре (immutable infrastructure) и представление о том, как работают современные вычислительные облака (aws, gcp, azure, openstack-based решения).\n\nТребования: \nDevOps/SRE, ключевые слова:\nTypeScrypt, Node.js, SRE, SDN, PoP, VPN, динамическая маршрутизация, инкапсуляция трафика, Kubernetes, Helm и что-нибудь из стораджа типа Lustre, CEPH и про Apache Spark, Hadoop и особенно HDFS\n\nЧто мы предлагаем:\n— Сложные задачи, в которых можно сильно прокачать свои навыки;\n— Гибкий график;\n— Оплата обучения внутри и вне компании.\n\nP.S. Ищем супер ниндзю, который творит чудеса;)\n\nПоскольку позиция требует срочного закрытия, для того, чтобы на нее откликнуться, кандидату нужно пройти отбор на платформе по ссылке https://6nomads.com/ (это займет около часа).\n\nКонтакт для связи: @temnik_sofya\n\n—\n\n👉 Обсуждение вакансии в чате @devops_jobs","markup":[{"type":"hashtag","offset":0,"length":9,"data":"вакансия"},{"type":"hashtag","offset":10,"length":9,"data":"удаленка"},{"type":"hashtag","offset":20,"length":7,"data":"DevOps"},{"type":"link","offset":1252,"length":20,"data":"https://6nomads.com/"},{"type":"handle","offset":1318,"length":13,"data":"temnik_sofya"},{"type":"handle","offset":1366,"length":12,"data":"devops_jobs"}],"date":"2020-06-29T22:07:11+00:00","link":"tg://resolve?domain=devops_jobs_feed&post=2158","tags":[{"name":"amazon-web-services"},{"name":"google-cloud-platform"},{"name":"azure"},{"name":"nodejs"},{"name":"kubernetes"},{"name":"apache"},{"name":"hadoop"},{"name":"hdfs"},{"name":"apache-spark"}],"cities":[{"code":"moscow"},{"code":"sochi"},{"code":"novosibirsk"}],"allowsRemote":true}},{"node":{"__typename":"Job","id":"2260729856-1001134745498","title":"Devops engineer","text":"#вакансия #devops #azure #remote #спб #fulltime #релокация #офис #удаленка\n\nВ компании Bekitzur открыта позиция Senior DevOps Remote Engineer (Azure)\n\nМы работаем с крупными Американскими проектами и стартапами из Кремниевой долины.\n\nЗарплатная вилка: от 200 до 300К рублей на руки.\n\nПроект: Софт для командного планирования, с возможностью интерактивного управления с помощью жестов рук.\n\nИспользуемые технологии: Azure, Terraform, Kubernetes, PostgreSQL, Redis.\n\nОсновные требования:\nОпыт с Azure от 2-х лет\nОпыт на позиции DevOps от 3-х лет\nАнглийский от B2\n\nВозможно работать в офисе(Санкт-Петербург) и удаленно\n\nПисать: @khabibulin_it\n\n—\n\n👉 Обсуждение вакансии в чате @devops_jobs","markup":[{"type":"hashtag","offset":0,"length":9,"data":"вакансия"},{"type":"hashtag","offset":10,"length":7,"data":"devops"},{"type":"hashtag","offset":18,"length":6,"data":"azure"},{"type":"hashtag","offset":25,"length":7,"data":"remote"},{"type":"hashtag","offset":33,"length":4,"data":"спб"},{"type":"hashtag","offset":38,"length":9,"data":"fulltime"},{"type":"hashtag","offset":48,"length":10,"data":"релокация"},{"type":"hashtag","offset":59,"length":5,"data":"офис"},{"type":"hashtag","offset":65,"length":9,"data":"удаленка"},{"type":"handle","offset":625,"length":14,"data":"khabibulin_it"},{"type":"handle","offset":674,"length":12,"data":"devops_jobs"}],"date":"2020-06-29T08:16:46+00:00","link":"tg://resolve?domain=devops_jobs_feed&post=2156","tags":[{"name":"azure"},{"name":"kubernetes"},{"name":"postgresql"},{"name":"redis"}],"cities":[],"allowsRemote":true}},{"node":{"__typename":"Job","id":"2249195520-1001134745498","title":"Devops engineer","text":"#вакансия #devops #azure #remote #спб #fulltime #релокация \n\nSenior DevOps Remote Engineer (Azure)\n\nCity: Saint-Petersburg, metro Mayakovskaya | Chernyshevskaya \nFormat: office or remote (both are possible)\nSalary: ₽220-300k\n\nProject: We are BeKitzur and now we are looking for a Senior DevOps Engineer to support and drive innovative collaboration software products used by dozens of thousands of clients across the world. \nThe platform is an Azure-hosted solution and offers you a great opportunity in driving state-of-the-art CI/CD, security, monitoring and DB management. This is a great position for an energetic and ambitious professional to get to the next career step and become a member of a stable and growing international company.\n\nResponsibilities:\n🔹Set up the best monitoring ever - unified, transparent and flexible\n🔹Improve our CI/CD process and automation to deliver faster, more frequent and reliable releases\n🔹Migrate databases to more secure and powerful clusters\n🔹Migrate applications to Kubernetes\n🔹Increase High-Availability and Reliability of applications and DB clusters\n🔹Optimize Azure costs and design more cost-effective DevOps solutions\n🔹Improve the existing DevOps processes and technologies, such as CI/CD, monitoring, logs aggregation, and security\n🔹Participate in all DevOps decisions together with Senior engineers and Tech leads\n🔹Define and implement the security architecture to ensure data security at rest and in transit, application security, key management, identity management, authentication, and authorization with OIDC and OAuth2, infrastructure security with Azure VNets, NSGs, UDR, etc.\n\nRequired Skills and Experience:\n🔹5 years of experience in IT with good knowledge in Linux\n🔹Experience in maintaining a production data processing system\n🔹Hands-on experience with git, Jenkins, Docker, and MySQL\n🔹Azure Networking - Azure Virtual Networks, ExpressRoute, NSG, App Service Environment\n🔹Azure PAAS Services Security and Provisioning\n🔹Cloud Security - Azure Key Vault, HSTS, SSL/TLS Ingress Control\n🔹Cloud monitoring - Experience with Azure Log Analytics, Azure Monitor, DataDog\n🔹Experience with any configuration management tool (Ansible, Saltstack, Chef, Puppet, etc), Ansible preferred\n🔹Hands-on experience with cloud technologies (Azure in our case)\n🔹Bash and Python scripting skills\n🔹Good written and spoken English\n\nBenefits:\n🔹Extremely interesting complex products\n🔹The most modern technology stack\n🔹Wonderful result-oriented team of senior professionals\n🔹Support for all your Cloud studies and certificates (you will have access and we will pay for exams)\n🔹Friendly atmosphere\n🔹Competitive salary\n🔹Medical insurance, sport, English classes in the office\n🔹Business trips to the US (Silicon Valley)\n🔹Relocation package to St.Petersburg\n🔹Opportunity to build a career in a growing branch of the stable US company\n🔹Professional growth in the international business environment\n\n📩\nОткликнуться: @Khabibulin_it\n\n—\n\n👉 Обсуждение вакансии в чате @devops_jobs","markup":[{"type":"hashtag","offset":0,"length":9,"data":"вакансия"},{"type":"hashtag","offset":10,"length":7,"data":"devops"},{"type":"hashtag","offset":18,"length":6,"data":"azure"},{"type":"hashtag","offset":25,"length":7,"data":"remote"},{"type":"hashtag","offset":33,"length":4,"data":"спб"},{"type":"hashtag","offset":38,"length":9,"data":"fulltime"},{"type":"hashtag","offset":48,"length":10,"data":"релокация"},{"type":"handle","offset":2975,"length":14,"data":"Khabibulin_it"},{"type":"handle","offset":3024,"length":12,"data":"devops_jobs"}],"date":"2020-06-23T16:22:03+00:00","link":"tg://resolve?domain=devops_jobs_feed&post=2145","tags":[{"name":"azure"},{"name":"kubernetes"},{"name":"rest"},{"name":"oauth"},{"name":"linux"},{"name":"git"},{"name":"jenkins"},{"name":"docker"},{"name":"mysql"},{"name":"cloud"},{"name":"ssl"},{"name":"ansible"},{"name":"bash"},{"name":"python"},{"name":"ms-access"}],"cities":[],"allowsRemote":true}},{"node":{"__typename":"Job","id":"91801780224-1001067529236","title":"Python developer","text":"#вакансия #remote #fulltime #python\n\nBack-end Python Developer\n\nФормат работы: #fulltime #remote\nЗарплата: от  $ 50 000 до $ 70 000  в год\n\nКоманда с большим опытом в компьютерном зрении и экспертами мирового уровня ищет в свои ряды Backend Python Developer. Продукт и его основатели базируются в Калифорнии, а почти вся команда — в России и Украине.\n\nЗадачи :\n• Оптимизация и улучшение качества алгоритмов трекинга людей;\n• Доработка основного кода клиентской стороны;\n• Разработка механизмов обновления клиентских приложений (Linux\\Docker);\n• Разработка системы сбора и разметки данных;\n• Доработка инфраструктурных сервисов и системы оценки качества.\n\nТребования:\n• Опыт промышленной работы от двух лет;\n• Опыт разработки оптимизационных алгоритмов разного назначения;\n• Опыт работы с AWS, Google Cloud, Azure, Docker.\n• Знание Python и\\или С++ и\\или Java;\n• Знание сетевых протоколов, их вариаций и особенностей;\n• Умение работать с многопоточной средой, понимание принципов работы сопрограмм;\n• Умение создавать сервера, способные выдерживать большие нагрузки.\n\nБудет плюсом:\n• Веб каркас Tornado, знания протокола HTTP;\n• Базы данных MongoDB, Redis, Aerospike, Cassandra;\n• Опыт работы с распределенной инфраструктурой;\n• Опыт использования нейронных сетей на TensorFlow / Keras / Caffe;\n• Понимание принципов работы различных архитектур нейронных сетей, знание алгоритмов машинного обучения.\n\nКонтакт для связи: @temnik_sofya","markup":[{"type":"hashtag","offset":0,"length":9,"data":"вакансия"},{"type":"hashtag","offset":10,"length":7,"data":"remote"},{"type":"hashtag","offset":18,"length":9,"data":"fulltime"},{"type":"hashtag","offset":28,"length":7,"data":"python"},{"type":"hashtag","offset":79,"length":9,"data":"fulltime"},{"type":"hashtag","offset":89,"length":7,"data":"remote"},{"type":"handle","offset":1419,"length":13,"data":"temnik_sofya"}],"date":"2020-06-23T10:09:17+00:00","link":"tg://resolve?domain=python_jobs&post=87549","tags":[{"name":"python"},{"name":"linux"},{"name":"docker"},{"name":"amazon-web-services"},{"name":"cloud"},{"name":"azure"},{"name":"java"},{"name":"mongodb"},{"name":"redis"},{"name":"cassandra"},{"name":"tensorflow"},{"name":"google-cloud-platform"}],"cities":[],"allowsRemote":true}},{"node":{"__typename":"Job","id":"107685609472-1001119539411","title":".net программист","text":"#вакансия #Беларусь #fulltime #офис #remote #dotnet\nЛокация: удалёнка (для особо желающих есть и офис)\nВакансия открыта только для резидентов РБ (ну или для всех, кто сможет открыть себе валютный счёт в белорусском банке)\n\nКомпания Capital Asset Exchange and Trading (CAE, caeonline.com) ищет:\n🔥 fullstack (C# Angular REST SQL) программистов (открыто несколько вакансий уровня middle и senior) в наш Отдел разработки программного обеспечения. Команда занимается разработкой и поддержкой специализированного ПО для нашей компании. Technology stack: .NET/C#, Angular, ASP.NET Core, MVC, SQL Server, MS Azure.\n\nЗарплата от 1500 долларов чистыми и выше, в зависимости от опыта работы соискателя.\n\nОбращайтесь за подробностями!","markup":[{"type":"hashtag","offset":0,"length":9,"data":"вакансия"},{"type":"hashtag","offset":10,"length":9,"data":"Беларусь"},{"type":"hashtag","offset":20,"length":9,"data":"fulltime"},{"type":"hashtag","offset":30,"length":5,"data":"офис"},{"type":"hashtag","offset":36,"length":7,"data":"remote"},{"type":"hashtag","offset":44,"length":7,"data":"dotnet"},{"type":"link","offset":273,"length":13,"data":"http://caeonline.com"},{"type":"link","offset":567,"length":7,"data":"http://ASP.NET"}],"date":"2020-06-21T13:39:05+00:00","link":"tg://resolve?domain=microsoftstackjobs&post=0","tags":[{"name":"dotnet"},{"name":"csharp"},{"name":"angularjs"},{"name":"rest"},{"name":"sql"},{"name":"azure"},{"name":"asp-net"},{"name":"net-core"},{"name":"sql-server"},{"name":"asp-net-core"}],"cities":[],"allowsRemote":true}}]}}},"context":{}}