{"hash":"f5f6bf98bd95e769321482904cbbd488f77922fd","data":{"records":{"id":"junit","name":"junit","belongsTo":{"totalCount":25,"pageInfo":{"totalPages":3,"currentPage":1},"edges":[{"node":{"__typename":"Job","id":"104366866432-1001089317451","title":"Qa engineer","text":"#вакансия #QA #Краснодар #Krasnodar #fulltime #java #sql #API #web #mobile #Functionaltesting\n\n✅Вакансия: QA engineer \n✅Город: Краснодар (релокация)\n✅Занятость: полная, офис\n✅ЗП вилка: 80 000 - 100 000р. gross (обсуждаема)\n✅КА: IT.Huntme\n\nИщем функционального тестировщика, но если у него есть еще и знания автотестирования, то это доп. бонус (и в этом случае смотрим требования ниже для такого опыта).\n\nЗадачи:\n· Обеспечение качества разработки ПО;\n· Проведение системного, интеграционно-функционального, регрессионного тестирования в рамках регулярных интеграционных релизов, приветствуется желание участвовать в автоматизации процесса тестирования;\n· Автоматизация процессов функционального тестирования, разработка автотестов, заглушек, поддержка framework (для автотестировщиков)\n· Активное взаимодействие внутри команды и за ее пределами (аналитики, разработчики, тестировщики интеграционных проектов, работа в Agile команде);\n· Анализ бизнес требований, функциональных требований и технических заданий;\n· Ведение BUG-трекера; контроль, тестирование исправления дефектов;\n· Выявление и эскалация проблем, подготовка заключений качества тестирования.\n\n🙌Наши ожидания:\n· Опыт работы в сфере тестирования и /или аналитики от 1 года;\n· Знание теоретических основ тестирования, практик и инструментов;\n· Опыт подготовки тестовых моделей для тестирования нового функционала;\n· Умение грамотно описывать тестовую модель и дефекты;\n· Знание техник тест-дизайна и умение применять их на практике;\n· Опыт работы с багтрекинговыми системами и системами управления тестированием (HP ALM, Atlassian Jira или аналогичными): разработка тестов, кроссировка требований с тестами и работа с дефектами);\n· Знание SQL (написание запросов средней сложности, на уровне join)\n· Представление о взаимодействии интеграционных решений (front-end);\n· Опыт или хорошее представление о тестировании SOAP/REST веб-сервисов, работа с XML;\n\nДополнительно для автоматизаторов:\n· Опыт программирования на Java или\\и Python - практический навык написания автотестов с использованием хотя бы одного языка\n\nБудет плюсом:\n· Опыт работы в сфере тестирования более 1 года;\n· Практический опыт тестирования интеграционных решений на уровне UI и API;\n· Опыт системного и интеграционного тестирования релизов, в том числе взаимодействие фронт-офисных и бэк-офисных систем;\n· Опыт анализа большого объема документации и подготовки тестовой модели;\n· Знание SQL на более продвинутых уровнях (составление запросов различной сложности, объединение нескольких таблиц – от 3-х и более, вложенные запросы, фильтрация по нескольким полям, умение работать с разным форматом дат, создание/удаление редактирование таблиц, создание процедур), опыт работы с СУБД Oracle/MS SQL Server;\n· Опыт работы с десктопными приложениями или WEB-приложениями;\n· Опыт работы с расчетами комиссий, налогов;\n· Опыт работы с Diasoft 5NT\n· Опыт разработки авто-тестов по методологии BDD (Java + Spring Framework + Cucumber);\n· Опыт разработки эмуляторов/заглушек;\n· Практический опыт автоматизации тестирования на одном из инструменте: Selenium, cucumber, Junit, TestNG, Espresso, Earl Grey;\n· Практический опыт внедрения инструментов и практик DevOps;\n\n👍Что мы готовы предложить:\n- Работу в крупной компании с возможностью поработать в распределенной команде на крупном проекте; \n- Работу с новейшими технологиями и участие в проектах из разных областей;\n- Полное соблюдение ТК РФ; \n- Белая зарплата, отпускные и больничный + Социальный пакет;\n- ДМС с первого дня работы в компании;\n- Курсы английского языка.\n✍️Контакты: @mary_itfox или it.huntme@gmail.com","markup":[{"type":"hashtag","offset":0,"length":9,"data":"вакансия"},{"type":"hashtag","offset":10,"length":3,"data":"QA"},{"type":"hashtag","offset":14,"length":10,"data":"Краснодар"},{"type":"hashtag","offset":25,"length":10,"data":"Krasnodar"},{"type":"hashtag","offset":36,"length":9,"data":"fulltime"},{"type":"hashtag","offset":46,"length":5,"data":"java"},{"type":"hashtag","offset":52,"length":4,"data":"sql"},{"type":"hashtag","offset":57,"length":4,"data":"API"},{"type":"hashtag","offset":62,"length":4,"data":"web"},{"type":"hashtag","offset":67,"length":7,"data":"mobile"},{"type":"hashtag","offset":75,"length":18,"data":"Functionaltesting"},{"type":"handle","offset":3565,"length":11,"data":"mary_itfox"},{"type":"link","offset":3581,"length":19,"data":"mailto:it.huntme@gmail.com"}],"date":"2020-07-03T11:30:48+00:00","link":"tg://resolve?domain=qa_jobs&post=99532","tags":[{"name":"qa"},{"name":"java"},{"name":"sql"},{"name":"web"},{"name":"mobile"},{"name":"soap"},{"name":"rest"},{"name":"xml"},{"name":"python"},{"name":"oracle"},{"name":"spring"},{"name":"cucumber"},{"name":"selenium"},{"name":"junit"},{"name":"sql-server"}],"cities":[{"code":"krasnodar"}],"allowsRemote":false}},{"node":{"__typename":"Job","id":"1774190592-1001091028994","title":"Java разработчик","text":"#москва #удаленка #fulltime #JavaDeveloper #Backend\n\nJava-разработчик/Backend Developer \n\nООО Криптериум (https://crypterium.com)\n\nЗп: 180.000-270.000 net\n\nПривет!\n\nМы команда Crypterium!\n\nМы международный финтех стартап.\n\nМы строим банк будущего, который поддерживает криптофиатные операции.\n\nНаша цель – создание сервиса, который фактически займёт место традиционных банков, по всем возможным банковским операциям!\n\nУ нас сложные, но интересные задачи по созданию крутого и по-настоящему полезного продукта для людей из разных стран по всему миру. Работа у нас реальная возможность приложить руку к крутому продукту, которым будет пользоваться большое количество людей.\n\nНа данный момент наша компания активно растет и развивается, в связи с этим мы ищем Backend Developer. Нам нужен по-настоящему про активный и ответственный сотрудник. Задач много, они разные и крайне интересны\n\n🟢Что предстоит делать?\n\n🔹Разработка бэкэнда финансового приложения;\n🔹Разработка платформенных микросервисов: интеграция с партнерами, аналитика, карточный процессинг, etc;\n🔹Разработка REST API для frontend\n\n🟢Какие skill’s мы хотим видеть в нашем будущем коллеге?\n\n🔹Java 8 (также желательно Kotlin);\n🔹Spring, Spring Cloud, Hibernate;\n🔹JUnit или другие фреймворки для тестирования;\n🔹Умение работать с SQL и не-SQL базами данных (у нас PostgreSQL);\n🔹Умение проектировать и реализовывать REST API;\n🔹Понимание микросервисной архитектуры;\n🔹Английский язык: умение читать и писать техническую документацию.\n🔹Понимание принципов работы tcp/ip, сетей передачи данных.\n🔹Умение писать тестируемый код;\n🔹Умение работать в команде и использовать соответствующие инструменты (git, jira, etc).\n\n🟢Преимущества:\n\n🔹Знание Kotlin;\n🔹Понимание принципов CI/CD;\n🔹Понимание, как работают основные сервисы AWS.\n\n🟢Что мы готовы предложить будущему коллеге?\n\n🔹По настоящему заряженная команда профессионалов\n🔹Офис м.Тульская\n🔹Удаленная работа, с возможностью приезжать в офис, гибкое начало рабочего дня (c 9 до 12)\n🔹Возможности профессионально развиваться и расти\n\n🔔Контакты:\n@kriskrisych Кристина","markup":[{"type":"hashtag","offset":0,"length":7,"data":"москва"},{"type":"hashtag","offset":8,"length":9,"data":"удаленка"},{"type":"hashtag","offset":18,"length":9,"data":"fulltime"},{"type":"hashtag","offset":28,"length":14,"data":"JavaDeveloper"},{"type":"hashtag","offset":43,"length":8,"data":"Backend"},{"type":"link","offset":106,"length":22,"data":"https://crypterium.com"},{"type":"handle","offset":2060,"length":12,"data":"kriskrisych"}],"date":"2020-07-02T15:08:19+00:00","link":"tg://resolve?domain=jvmjobs&post=1692","tags":[{"name":"java"},{"name":"jvm"},{"name":"dotnet"},{"name":"rest"},{"name":"kotlin"},{"name":"spring"},{"name":"cloud"},{"name":"hibernate"},{"name":"junit"},{"name":"sql"},{"name":"postgresql"},{"name":"git"},{"name":"amazon-web-services"}],"cities":[{"code":"moscow"}],"allowsRemote":true}},{"node":{"__typename":"Job","id":"1771044864-1001091028994","title":"Java разработчик","text":"#java#middle#senior#J#developer#telecom\nЛокация: Москва, Нижний Новгород, Россия\nЗанятость: офис, полная, удаленная\nЗ/п: от 120 000 рублей на руки\nКомпания: ГК INTECH\n\nКонтакты: @vkechatova\n\nINTECH – IT компания, контент и сервис провайдер на рынке телекома России и стран СНГ, разработчик инновационных идей для мобильной и WEB индустрии. Мы работаем с операторами сотовой связи не только в России, но и в странах СНГ и Вьетнаме.\n\nПримеры наших проектов:\nПроект «Глаголь» - Платформа создания и управления высоко нагружёнными видео конференциями с мобильными приложениями.\nОблачная АТС - Решение облачной телефонии для корпоративных клиентов;\nСтриминговая платформа - Видео, аудио стриминговые решения для работы с ТВ трансляциями;\nВидео Истории - Платформа для видеозвонков и для проигрывания пользовательских и коммерческих видео роликов на экране мобильного телефона во время вызова и т.д.\n\nЗадачи:\n•  Разработка голосовых и SMS/USSD сервисов для сотовых операторов;\n•  Сопровождение существующие продуктов и разработка новых.\n\nДля работы потребуется:\n•  Опыт разработки от 3-х лет;\n•  Уверенное знание Java Core, Multithreading, Collections;\n•  Уверенные навыки работы с реляционными базами данных;\n•  Опыт работы с JPA, Hibernate\n•  Опыт работы с Spring (MVC, Data)\n•  Опыт работы с ОС Linux;\n•  Опыт работы с системой контроля версий;\n•  Навыки работы с JUnit - приветствуются.\n\nПлюсом будет:\n•  Опыт работы в телеком (SIP, SS7).\n\nМы предлагаем:\n•  Официальное трудоустройство, полностью официальная заработная плата;\n•  Белая заработная плата - полностью зависит от квалификации кандидата и обсуждается на интервью;\n•  Возможность карьерного и профессионального роста;\n•  Возможность предлагать и реализовывать собственные идеи;\n•  Работа в профессиональной команде разработчиков;\n•  Обучение в процессе работы;\nА также:\n•  Гибкая мотивационная программа;\n•  Ежегодные корпоративные мероприятия и удобный формат работы (современные офисы в Москве, Нижнем Новгороде, или удаленно).","markup":[{"type":"handle","offset":178,"length":11,"data":"vkechatova"}],"date":"2020-07-02T06:59:13+00:00","link":"tg://resolve?domain=jvmjobs&post=1689","tags":[{"name":"java"},{"name":"jvm"},{"name":"web"},{"name":"jpa"},{"name":"hibernate"},{"name":"spring"},{"name":"linux"},{"name":"junit"},{"name":"spring-mvc"}],"cities":[{"code":"moscow"},{"code":"nizhny-novgorod"}],"allowsRemote":true}},{"node":{"__typename":"Job","id":"104143519744-1001089317451","title":"Qa инженер","text":"#вакансия #QA #fulltime #офис #москва\nГород: Москва, ст. м. Автозаводская \nФормат работы: офис\nКомпания: Логистик Тайм\nЗанятость: полная\nЗ/п: от 130 000 р. на руки.\n\nПривет! Мы растем и активно развиваемся, поэтому ищем специалистов для работы в офисе нашей компании в Москве. Это отличная возможность реализовать свои навыки и прокачаться ещё больше в команде профессионалов. Подробности смотри в описании:\n\n🔷Основные обязанности: \n-Написание и поддержка автотестов;\n-Анализ отчетов прогонов;\n-Организация и поддержка тестового окружения;\n-Взаимодействие с группой разработки и тестирования.\n\n🔷Наши пожелания:\n-Понимание принципов разработки и тестирования;\n-Знание методов и технологий тестирования;\n-Опыт разработки/написания автотестов на Java\\Kotlin;\n-Опыт автоматизации на базе Selenium WebDriver+JUnit+Cucumber (+Gradle/Maven);\n-Опыт работы с баг-трекинговыми системами (Jira, Redmine, YouTrack или др.);\n-Навыки работы с системами контроля версия (Git).\n\n🔷Плюсы работы у нас:\n-Уровень заработной платы зависит от пожеланий и профессионально уровня кандидата;\n-Поездки на ИТ-конференции, митапы, учебные курсы за счет компании;\n-Гибкое начало рабочего дня;\n-Перспективы материального и профессионального роста;\n-Возможность релокации в Европу.\n\nБуду рада Вашим вопросам и резюме:\n✏️@hrkaterina\n✉️ekaterina.logistik@gmail.com","markup":[{"type":"hashtag","offset":0,"length":9,"data":"вакансия"},{"type":"hashtag","offset":10,"length":3,"data":"QA"},{"type":"hashtag","offset":14,"length":9,"data":"fulltime"},{"type":"hashtag","offset":24,"length":5,"data":"офис"},{"type":"hashtag","offset":30,"length":7,"data":"москва"},{"type":"italic","offset":166,"length":79,"data":""},{"type":"italic","offset":252,"length":15,"data":""},{"type":"bold","offset":267,"length":10,"data":""},{"type":"italic","offset":277,"length":98,"data":""},{"type":"italic","offset":377,"length":32,"data":""},{"type":"bold","offset":409,"length":25,"data":""},{"type":"bold","offset":595,"length":18,"data":""},{"type":"bold","offset":965,"length":22,"data":""},{"type":"bold","offset":1255,"length":37,"data":""},{"type":"handle","offset":1292,"length":11,"data":"hrkaterina"},{"type":"link","offset":1304,"length":30,"data":"http://✉️ekaterina.logistik@gmail.com"}],"date":"2020-07-01T14:52:07+00:00","link":"tg://resolve?domain=qa_jobs&post=99319","tags":[{"name":"qa"},{"name":"java"},{"name":"kotlin"},{"name":"selenium"},{"name":"junit"},{"name":"cucumber"},{"name":"gradle"},{"name":"maven"},{"name":"git"}],"cities":[{"code":"moscow"}],"allowsRemote":false}},{"node":{"__typename":"Job","id":"104071168000-1001089317451","title":"Qa engineer","text":"#вакансия #qaautomation #fulltime #удаленка #москва #криптериум\n\nQA automation engineer/QA engineer (100.000-250.000)\n\n\n\nПривет!\n\nМы команда Crypterium!\n\nМы международный финтех стартап.\n\nМы строим банк будущего, который поддерживает криптофиатные операции.\n\nНаша цель – создание сервиса, который фактически займёт место традиционных банков, по всем возможным банковским операциям!\n\nУ нас сложные, но интересные задачи по созданию крутого и по-настоящему полезного продукта для людей из разных стран по всему миру. Работа у нас-реальная возможность приложить руку к крутому продукту, которым будет пользоваться большое количество людей.\n\nНа данный момент наша компания активно растет и развивается, в связи с этим мы ищем QA autimation enginer .Нам нужен по-настоящему проактивный и ответственный сотрудник. Задач много, они разные и крайне интересные\n\n🟢Что предстоит делать?\n\n-Тестировать веб и мобильную версию нашего продукта (РФТ)\n\n-Фиксировать ошибки и писать отчёты по результатам тест-кейсов\n\n-Писать автотесты по тест-кейсам\n\n-Осуществлять исследовательское тестирование\n\n-Взаимодействовать с командой разработки\n\n🟢Какие skill’s мы хотим видеть в нашем будущем коллеге?\n\n-Опыт функционального тестирования web и mobile приложений от 1 года\n-Английский язык на уровне чтения документации\n-Опыт работы в Jira, Confluence\n-Написание автотестов на Java+JUnit\n-Опыт работы с Rest API\n-Знакомство с Postman, Fiddler, Swagger\n-Опыт работы в PostgreSQL\n-Понимание принципов CI/CD\n-Минимальные навыки программирования\n-Опыт написание автоматизированных тестов (Java+JUnit, Postman, Fiddler, Swagger, понимание Rest API)\n\n\n🟢Как преимущество:\n\n-Опыт проведения нагрузочного тестирования\n-Понимание, как работают основные сервисы AWS\n-Знание Kotlin/.Net\n-Опыт работы с TeamCity/GitLab\n\n\n🟢Что мы готовы предложить будущему коллеге?\n\n-По настоящему заряженная команда профессионалов\n-Офис в Москва Сити с видом на Москва реку\n-Удаленная работа, с возможностью приезжать в офис, гибкое начало рабочего дня (c 9 до 12)\n-Возможности профессионально развиваться и расти\n\nКонтакты: \nКристина +79161262306 (WhatsApp)\n@kriskrisych telegram\nИли пишите в ЛС.","markup":[{"type":"hashtag","offset":0,"length":9,"data":"вакансия"},{"type":"hashtag","offset":10,"length":13,"data":"qaautomation"},{"type":"hashtag","offset":24,"length":9,"data":"fulltime"},{"type":"hashtag","offset":34,"length":9,"data":"удаленка"},{"type":"hashtag","offset":44,"length":7,"data":"москва"},{"type":"hashtag","offset":52,"length":11,"data":"криптериум"},{"type":"link","offset":2085,"length":12,"data":"tel:+79161262306"},{"type":"handle","offset":2109,"length":12,"data":"kriskrisych"}],"date":"2020-06-30T12:31:02+00:00","link":"tg://resolve?domain=qa_jobs&post=99250","tags":[{"name":"qa"},{"name":"web"},{"name":"mobile"},{"name":"java"},{"name":"junit"},{"name":"rest"},{"name":"swagger"},{"name":"postgresql"},{"name":"amazon-web-services"},{"name":"kotlin"},{"name":"dotnet"},{"name":"gitlab"}],"cities":[{"code":"moscow"}],"allowsRemote":true}},{"node":{"__typename":"Job","id":"1768947712-1001091028994","title":"Java разработчик","text":"#backend #java #middle  \nКомпания: #ОООСервисхаб \nЛокация: #удаленка \nЗ/п: 80 000-120 000 \nКонтакты:👉 @ANASTASIAHRServicehub  \n\nВ команду, которая производит и внедряет ПО для банков, нужен Разработчик Java (удаленно или в офис во Владимир).   \n\nМы предлагаем Вам:\n  \nФедеральный ИТ проект.  \n Бесплатное обучение английскому языку и возможность выбора обучающего курса по интересующей тематике. \nСоциальный пакет, официальное трудоустройство.  \n\n\nВ проекте используется следующий стек :  \n\n✔️Java с использованием spring-boot \n✔️Axon Framework в качестве каркасных фрейворков.  \n✔️А так же JOOQ, MapStruct, Jackson для работы с внешними источниками данных.  \n✔️Для тестирования используется JUnit + Mockito.  \n✔️Для решения задач безопасности(ЭЦП) используется BouncyCastle. \n✔️CI/CD организуется средствами Gradle, Docker, Jenkins, Rancher 2, Kubernetes, Helm.  \n✔️Для хранения данных используется СУБД PostgreSQL,для организации асинхронной коммуникации применяется RabbitMQ.  \n\nЧто требуется от Вас:  \n\nЗнание языков/фреймворков, Spring, SQL, Core Java S, серверов очередей, неряляционных баз данных, web-технологий приветствуется;  \nУверенное знание Core Java, Spring IoC, SQL  \n\n❕Приветствуются экспертизы в следующих областях: сервера очередей, неряляционные базы данных, CQRS, Event Sourcing, Web-технологии \n \nБуду также благодарна за контакты и рекомендации😊 \n✍️@ANASTASIAHRServicehub hr@srvhub.ru","markup":[{"type":"hashtag","offset":0,"length":8,"data":"backend"},{"type":"hashtag","offset":9,"length":5,"data":"java"},{"type":"hashtag","offset":15,"length":7,"data":"middle"},{"type":"hashtag","offset":35,"length":13,"data":"ОООСервисхаб"},{"type":"hashtag","offset":59,"length":9,"data":"удаленка"},{"type":"handle","offset":103,"length":22,"data":"ANASTASIAHRServicehub"},{"type":"handle","offset":1374,"length":22,"data":"ANASTASIAHRServicehub"},{"type":"link","offset":1397,"length":12,"data":"mailto:hr@srvhub.ru"}],"date":"2020-06-30T08:39:05+00:00","link":"tg://resolve?domain=jvmjobs&post=1687","tags":[{"name":"java"},{"name":"jvm"},{"name":"spring"},{"name":"jackson"},{"name":"junit"},{"name":"gradle"},{"name":"docker"},{"name":"jenkins"},{"name":"kubernetes"},{"name":"postgresql"},{"name":"rabbitmq"},{"name":"sql"},{"name":"web"},{"name":"spring-boot"}],"cities":[{"code":"vladimir"}],"allowsRemote":true}},{"node":{"__typename":"Job","id":"1766850560-1001091028994","title":"Java разработчик","text":"#Java #developer #job #офис\n\nВакансия: Java-разработчик \n\nКомпания: Selecty\n\nГород: Москва, Санкт-Петербург, Новосибирск, Самара\n\nФормат работы: Офис\n\nЗанятость: full timе\n\nЗарплатная вилка: 320k net \n\nОписание вакансии:\n\nРазработка ПО для одного из крупнейших российских банков.\n\nОбязанности:\n• Разработка под Java, фреймворк: Spring boot\n• Разработка в рамках микросервисной архитектуры\n• Проектирование интерфейсов взаимодействия с другими системами.\n• Работа в тесном сотрудничестве со специалистами фронтенд разработки, тестирования и аналитиками.\n• Работа по гибким методологиям разработки.\n\nCтек технологий:\n• Java 8-11, Kotlin.\n• Spring/Springboot.\n• PostgreSQL/Oracle, Kafka, Redis\n• Maven/Gradle\n• Docker/Kubernetes(или OpenShift).\n\nНаши ожидания от кандидата:\n• уверенное владение Java, понимание принципов работы JVM. Знание основных библиотек и шаблонов проектирования.\n• опыт использования Spring Framework (boot, mvc, data, secutity...)\n• опыт работы с многопоточностью и асинхронностью.\n• опыт работы с базами данных, умение писать и оптимизировать запросы.\n• опыт работы с распределёнными хранилищами и системами.\n• знание HTTP, REST, SOAP.\n• опыт работы с фреймворками и инструментами автоматического тестирования (junit, postman, jmeter).\n\nМы предлагаем:\n•  Оформление согласно ТК РФ.\n•  Заработная плата полностью \"белая\".\n•  ДМС.\n•  Оплата корпоративной мобильной связи.\n•  Внутреннее, внешнее обучение (сертификаты).\n•  Льготные программы от компаний – партнеров.\n\nКонтакты: @lelya01\nolga.afonina@selecty.ru","markup":[{"type":"hashtag","offset":0,"length":5,"data":"Java"},{"type":"hashtag","offset":6,"length":10,"data":"developer"},{"type":"hashtag","offset":17,"length":4,"data":"job"},{"type":"hashtag","offset":22,"length":5,"data":"офис"},{"type":"handle","offset":1497,"length":8,"data":"lelya01"},{"type":"link","offset":1506,"length":23,"data":"mailto:olga.afonina@selecty.ru"}],"date":"2020-06-29T16:07:55+00:00","link":"tg://resolve?domain=jvmjobs&post=1685","tags":[{"name":"java"},{"name":"jvm"},{"name":"dotnet"},{"name":"spring"},{"name":"kotlin"},{"name":"postgresql"},{"name":"oracle"},{"name":"kafka"},{"name":"redis"},{"name":"maven"},{"name":"gradle"},{"name":"docker"},{"name":"kubernetes"},{"name":"rest"},{"name":"soap"},{"name":"junit"},{"name":"jmeter"},{"name":"spring-boot"}],"cities":[{"code":"moscow"},{"code":"novosibirsk"},{"code":"samara"}],"allowsRemote":false}},{"node":{"__typename":"Job","id":"1756364800-1001091028994","title":"Java разработчик","text":"#java#fulltime \nЛокация: #Москва ст.м.Петровско-Разумовская, мцк/мжд Окружная \nФормат работы: 5/2 с гибким началом дня, 1 день в неделю можно работать удаленно,остальные в офисе #fulltime  \nЗ/п:  300-400 000 руб. gross (опыт от 5 лет) \nКомпания: ПАО «Детский Мир» \nОснования появления: Расширяем команду, много новых задач. Если ты устал/а от бюрократии и не стабильности- приходи в нашу команду! \nКрупнейший ритейлер на рынке детских товаров (до 130000 заказов в сутки, более 30 000 одновременных пользователей на сайте, 2000-3000 rps на базовые сервисы) ищет Java разработчика для разработки бэкенда в сфере e-commerce. \n \n  Что мы используем : \nJava 14/Scala 2.13, Spring, SpringBoot , Sbt/Maven, MySQL, Kafka, JUnit, Jenkins, GitLab, Docker, Kubernetes, Jira/Confluence, Scrum, Kanban \n \n   Что нужно делать? \n⁃    Писать качественный код для распределенной системы, стек: Java 14/Kafka/Redis/Solr/MySQL \n⁃    Проводить code review кода коллег по команде \n⁃    Разбираться в сложных вопросах интеграции со смежными системами \n⁃    Участвовать в создании архитектурных решений и проектировании высоконагруженных отказоустойчивых систем \n \n    Наши ожидания: \n• Хорошие знания J2SE, в частности - Java Concurrency, Collections \n• Опыт работы с Spring \n• Опыт работы и проектирования REST API \n• Знания SQL и оптимизации запросов \n• Понимание принципов работы сетей: TCP/IP, HTTP, Websockets, etc. \n• Владение git \n• Базовое знание архитектурных паттернов и типичных вариантов решения проблем с производительностью \n \n    Желательно: \n• Базовые знания Docker/Kubernetes \n• Опыт разработки распределенных систем \n• Опыт работы c lucene (Apache Solr, ElasticSearch, Kibana) \n \nМы предлагаем: \n• Официальное оформление в соответствии с ТК РФ в том числе возможно онлайн оформление (или оффлайн в офисе) \n• Отсутствие бюрократии и плоская организационная структура \n• Лояльный бизнес, постоянные коммуникации, возможность на равных обсуждать бизнес-фичи на стадии формирования \n• Хорошая техническая оснащенность: MacBook pro 2019, 27 дюймовые мониторы(4к/5к) \n• до 20% скидка на продукцию компании, расширенный полис ДМС \n• Внешнее обучение, оплата участия в конференциях(JPoint, Highload, Joker etc) \n• Годовые бонусы по итогам работы, ежегодная индексация дохода \n \nСейчас пока работаем частично удаленно, 2 интервью в формате скайпа, не выходя из дома (в офис ехать не обязательно). По любым вопросам отвечу в:  \ntelegram:  @HR_aleshina почта: EAleshina@detmir.ru","markup":[{"type":"hashtag","offset":25,"length":7,"data":"Москва"},{"type":"hashtag","offset":178,"length":9,"data":"fulltime"},{"type":"handle","offset":2425,"length":12,"data":"HR_aleshina"},{"type":"link","offset":2445,"length":19,"data":"mailto:EAleshina@detmir.ru"}],"date":"2020-06-29T09:43:28+00:00","link":"tg://resolve?domain=jvmjobs&post=1675","tags":[{"name":"java"},{"name":"jvm"},{"name":"scala"},{"name":"spring"},{"name":"sbt"},{"name":"maven"},{"name":"mysql"},{"name":"kafka"},{"name":"junit"},{"name":"jenkins"},{"name":"gitlab"},{"name":"docker"},{"name":"kubernetes"},{"name":"redis"},{"name":"solr"},{"name":"rest"},{"name":"sql"},{"name":"git"},{"name":"lucene"},{"name":"apache"},{"name":"elasticsearch"}],"cities":[{"code":"moscow"}],"allowsRemote":true}},{"node":{"__typename":"Job","id":"103942193152-1001089317451","title":"Qa инженер","text":"Юлия Романова, [17.06.20 14:29]\n#вакансия #спб #fulltime #qa #удаленно\n\nКомпания: Smart Design (smddev.com) \n\nДолжность: Инженер по ручному и автоматизированному тестированию (QA & Automation Engineer)\n\nИщем инженера по тестированию BSS сотового оператора.\nБольшая распределенная команда (~30 человек).\nНужно хорошо уметь тестировать вручную и, когда это выгодно, суметь автоматизировать.\n\n\nНаши пожелания к кандидатам:\n✔️Опыт работы с Java или любым другим высокоуровневым языком программирования на уровне, достаточном для самостоятельного написания игры \"Сапёр\"\n✔️Опыт работы в консоли linux на уровне, достаточном для для решения задач:\nпоиск и изменение строк в файле\nуправление системными процессами\n✔️Опыт взаимодействия с REST API на уровне, достаточном для того, чтобы получить из ВКонтакте имя и фамилию своего аккаунта, не используя браузер\n\nПлюсом будет:\n✔️Опыт работы с протоколом SOAP\n✔️Профессиональный опыт функционального тестирования\n✔️Опыт работы с JUnit, Gradle, Oracle\n\nУсловия:\n✔️\"Белая\" зарплата до 110K gross\n✔️ДМС\n✔️ Работа в удаленном режиме на данный момент, далее в уютном офисе.\n\nhttps://spb.hh.ru/vacancy/37540632\n\nМои контакты: @romanovaya iyliia.romanova@smddev.com","markup":[{"type":"hashtag","offset":32,"length":9,"data":"вакансия"},{"type":"hashtag","offset":42,"length":4,"data":"спб"},{"type":"hashtag","offset":47,"length":9,"data":"fulltime"},{"type":"hashtag","offset":57,"length":3,"data":"qa"},{"type":"hashtag","offset":61,"length":9,"data":"удаленно"},{"type":"link","offset":96,"length":10,"data":"http://smddev.com"},{"type":"link","offset":1109,"length":34,"data":"https://spb.hh.ru/vacancy/37540632"},{"type":"handle","offset":1159,"length":11,"data":"romanovaya"},{"type":"link","offset":1171,"length":26,"data":"mailto:iyliia.romanova@smddev.com"}],"date":"2020-06-29T05:55:45+00:00","link":"tg://resolve?domain=qa_jobs&post=99127","tags":[{"name":"qa"},{"name":"java"},{"name":"linux"},{"name":"rest"},{"name":"soap"},{"name":"junit"},{"name":"gradle"},{"name":"oracle"}],"cities":[],"allowsRemote":true}},{"node":{"__typename":"Job","id":"103795392512-1001089317451","title":"Qa инженер","text":"#QA #вакансия #Москва #fulltime #java #тестирование\n💥Команда СберТеха  ищет амбициозного и готового обучаться QA-инженера!🙌\n💥Проект: тестирование сервисов безопасности технологической платформы Сбербанка.\n💥Задачи: тестирование API сервисов ( CRUD системы); автоматизация тестирования с использованием существующих средств или разработка собственного фреймворка на Java;подготовка тест-кейсов; регистрация и отслеживание дефектов.\n💥Стек: Java,cucumber, Maven,Junit, Jenkins, Allure reports, Docker, BPM\n💥Москва, м.Нагатинская/Тульская\n💥зп: 90- 120тыс.руб.\n💥-Оформление ТК РФ;\n     -ДМС;\n     - Белая заработная плата (оклад + годовая премия);\n     -Возможность обучения за счет компании;\n     -   Льготное кредитование;\n      -Бесплатный тренажерный зал на территории офиса;\n       - корпоративная жизнь и спортивные мероприятия;\n       -возможность карьерного роста.\n\nГотовы обучать! Ждём Вас в нашей команде!\n@TaliaHR","markup":[{"type":"hashtag","offset":0,"length":3,"data":"QA"},{"type":"hashtag","offset":4,"length":9,"data":"вакансия"},{"type":"hashtag","offset":14,"length":7,"data":"Москва"},{"type":"hashtag","offset":22,"length":9,"data":"fulltime"},{"type":"hashtag","offset":32,"length":5,"data":"java"},{"type":"hashtag","offset":38,"length":13,"data":"тестирование"},{"type":"handle","offset":918,"length":8,"data":"TaliaHR"}],"date":"2020-06-26T08:52:58+00:00","link":"tg://resolve?domain=qa_jobs&post=98987","tags":[{"name":"qa"},{"name":"java"},{"name":"cucumber"},{"name":"maven"},{"name":"junit"},{"name":"jenkins"},{"name":"docker"}],"cities":[{"code":"moscow"}],"allowsRemote":false}}]}}},"context":{}}