{"hash":"f5f6bf98bd95e769321482904cbbd488f77922fd","data":{"records":{"id":"docker","name":"docker","belongsTo":{"totalCount":182,"pageInfo":{"totalPages":19,"currentPage":19},"edges":[{"node":{"__typename":"Job","id":"16862150656-1001110946746","title":"Js разработчик","text":"#вакансия #Москва #nodejs #офис\n\nКомпания Proscom ищет Middle/Senior Backend (Node.js) разработчика\n\nФормат занятости: Офис около м. Серпуховская/Павелецкая.\nЗанятость: полная \nЗарплатная вилка: 100 000 - 240 000 рублей/месяц (по результатам собеседования)\n\nО компании: \n\nС 2013 года создаем интерфейсы, веб-сайты,\nмобильные приложения для крупных\nправительственных организаций и\nкоммерческих предприятий\n\nЗадачи:\n\nВести разработку как новых проектов, так и поддерживать уже существующий код.\n\nСтек:\n\nNode.js, GraphQL, REST, Nest.js, TypeScript, CRDT, MySQL, PostreSQL, Git, Docker\n\nТребования:\n\nОт 1 года опыта работы с Node.js, от 2х лет опыта программирования\n\nБудет плюсом:\n\nОпыт с frontend\n\nНаши преимущества:\n\n ⁃ У нас много интересных проектов\n ⁃ Используем актуальные технологии, следим за трендами и постоянно улучшаем UX и DX\n ⁃ Не заморачиваемся графиком 9-18, не считаем съеденные печеньки, не заставляем ходить на обязательные корпоративы в нерабочее время, петь гимны и ублажать начальство\n ⁃ Заинтересованы в развитии сотрудников. Есть чему учиться и куда расти.\n ⁃ У нас дружный коллектив. Периодически проводим время вместе, но всегда без принуждения\n ⁃ У нас минимум бюрократии и нет дресс-кода\n ⁃ У нас уютный лофт офис у м. Серпуховская/Павелецкая.\n\nКонтакт: @mxm_at","markup":[{"type":"hashtag","offset":0,"length":9,"data":"вакансия"},{"type":"hashtag","offset":10,"length":7,"data":"Москва"},{"type":"hashtag","offset":18,"length":7,"data":"nodejs"},{"type":"hashtag","offset":26,"length":5,"data":"офис"},{"type":"handle","offset":1279,"length":7,"data":"mxm_at"}],"date":"2020-06-12T08:59:08+00:00","link":"tg://resolve?domain=javascript_jobs_feed&post=16081","tags":[{"name":"javascript"},{"name":"nodejs"},{"name":"graphql"},{"name":"rest"},{"name":"typescript"},{"name":"mysql"},{"name":"git"},{"name":"docker"}],"cities":[{"code":"moscow"}],"allowsRemote":false}},{"node":{"__typename":"Job","id":"16854810624-1001110946746","title":"Js разработчик","text":"#вакансия #fulltime #fullstack #frontend #nodejs #reactjs #remote\n\nГород и адрес офиса: Санкт-Петербург, м. Звенигородская\n\nФормат работы: офис / частично ремоут\n\nЗанятость: полная\n\nЗарплатная вилка: от 90к до 160к\n\nОписание вакансии: \nработа в небольшой команде над банковскими продуктами, фронтенд / фулстек разработка, написание API, поддержка кода\n\nОсновные задачи:\n- Участие в разработке внутрибанковских сервисов на JS\n- Разработка архитектуры проектов\n- Бывают задачи по настройке серверов, CD/CI, Docker, и т.п., если нет опыта, будет возможность узнать что-то новое\n\nТребования:\n- JS ES6 от 1 года\n- уверенное знание React.js / Node.js \n- умение в git\n- MongoDB (mongoose)\n\nРабота по контрактам, оформление белое\n\nКонтакты: @hopacha","markup":[{"type":"hashtag","offset":0,"length":9,"data":"вакансия"},{"type":"hashtag","offset":10,"length":9,"data":"fulltime"},{"type":"hashtag","offset":20,"length":10,"data":"fullstack"},{"type":"hashtag","offset":31,"length":9,"data":"frontend"},{"type":"hashtag","offset":41,"length":7,"data":"nodejs"},{"type":"hashtag","offset":49,"length":8,"data":"reactjs"},{"type":"hashtag","offset":58,"length":7,"data":"remote"},{"type":"handle","offset":733,"length":8,"data":"hopacha"}],"date":"2020-06-11T20:10:59+00:00","link":"tg://resolve?domain=javascript_jobs_feed&post=0","tags":[{"name":"javascript"},{"name":"nodejs"},{"name":"reactjs"},{"name":"docker"},{"name":"git"},{"name":"mongodb"},{"name":"mongoose"}],"cities":[],"allowsRemote":true}}]}}},"context":{}}