{"hash":"f5f6bf98bd95e769321482904cbbd488f77922fd","data":{"records":{"id":"reactjs","name":"reactjs","belongsTo":{"totalCount":182,"pageInfo":{"totalPages":19,"currentPage":13},"edges":[{"node":{"__typename":"Job","id":"17019437056-1001110946746","title":"Javascript разработчик","text":"#вакансия #Иннополис #Казань #React #Javascript #офис #remote \nЛокация: Казань/ Иннополис\n(Есть хороший релокационный пакет)\nФормат работы: офис / удаленная работа\nЗанятость: полная, гибкое начало дня\nЗП: от 80 000 до 130 000 NET \n\n*к сожалению, у компании нет формальной возможности трудоустраивать иностранных граждан \n\n🔹 Ак Барс Цифровые Технологии — это лаборатория «АК БАРС» Банка, которая создает digital-продукты и инновационные решения в сфере fintech, чтобы сделать мир финансов простым и доступным каждому.\nРебята и правда инноваторы в своей сфере, которые горят своими делом и стремятся сделать жизнь людей проще и комфортнее. Команда нуждается в специалисте, который бы присоединился к работе над созданием ряда сложных интересных цифровых продуктов, которыми будут пользоваться.\nВакансия открыта в связи с глобальным расширением.\n\n🔹 Требуемый опыт:\n-Javascript (ES5, ES6+) - коммерческий опыт разработки от 2-ух лет;\n-React/Redux - коммерческий опыт разработки от 1-ого года;\n\n🔹Что интересного:\n- Рабочее пространство - один из самых привлекательных и “гибких” офисов в Казани;\n- Полное соблюдение норм ТК РФ;\n- Льготные условия кредитования;\n- Программа релокации для иногородних;\n- Конкурентоспособная белая заработная плата;\n-Профессиональное развитие и обучение (внутренние и внешние конференции, семинары);\n- Футбол, настольный теннис, скидки на занятия в фитнес-центре.\n\n🔹 Контакты:\ne-mail: daria@luckyhunter.io\ntelegram: @prudentdaria\nКА: luckyhunter\nПишите, буду рада ответить на все возможные вопросы здесь или по почте 😊\n\n—\n\n👉 Обсуждение вакансии в чате @javascript_jobs","markup":[{"type":"hashtag","offset":0,"length":9,"data":"вакансия"},{"type":"hashtag","offset":10,"length":10,"data":"Иннополис"},{"type":"hashtag","offset":21,"length":7,"data":"Казань"},{"type":"hashtag","offset":29,"length":6,"data":"React"},{"type":"hashtag","offset":36,"length":11,"data":"Javascript"},{"type":"hashtag","offset":48,"length":5,"data":"офис"},{"type":"hashtag","offset":54,"length":7,"data":"remote"},{"type":"link","offset":1414,"length":20,"data":"mailto:daria@luckyhunter.io"},{"type":"handle","offset":1445,"length":13,"data":"prudentdaria"},{"type":"handle","offset":1583,"length":16,"data":"javascript_jobs"}],"date":"2020-06-17T15:28:29+00:00","link":"tg://resolve?domain=javascript_jobs_feed&post=0","tags":[{"name":"javascript"},{"name":"reactjs"},{"name":"dotnet"},{"name":"redux"},{"name":"react-redux"}],"cities":[{"code":"kazan"}],"allowsRemote":true}},{"node":{"__typename":"Job","id":"17017339904-1001110946746","title":"Javascript разработчик","text":"#вакансия #екб #екатеринбург #react #frontend #middle\n\nПозиция: Разработчик React \nКомпания: SoftMediaLab \nЛокация: Екатеринбург \nФормат работы: #удаленка или  #офис\nЗанятость: #фултайм \nЗП 110 000 - 140 000 рублей на руки\n\nSoftMediaLab – была основана в 2015 году в городе Екатеринбурге. Основатели компании – разработчики, поэтому никакой бюрократии и странных решений, процессы максимально простые и понятные, среда дружественная. \nРазрабатываем в основном стартапы для России, Европы и Америки. \n\nЗадачи: \n- улучшать имеющийся функционал и разрабатывать новый \n- участвовать в принятии архитектурных решений \n\nСтек: react, redux, typescript, bootstrap, material-ui, JQuery, sass, less\n\nДля связи @Ekaterina_Mitroshkina  или @iamanastasie\n\n—\n\n👉 Обсуждение вакансии в чате @javascript_jobs","markup":[{"type":"hashtag","offset":0,"length":9,"data":"вакансия"},{"type":"hashtag","offset":10,"length":4,"data":"екб"},{"type":"hashtag","offset":15,"length":13,"data":"екатеринбург"},{"type":"hashtag","offset":29,"length":6,"data":"react"},{"type":"hashtag","offset":36,"length":9,"data":"frontend"},{"type":"hashtag","offset":46,"length":7,"data":"middle"},{"type":"hashtag","offset":145,"length":9,"data":"удаленка"},{"type":"hashtag","offset":160,"length":5,"data":"офис"},{"type":"hashtag","offset":177,"length":8,"data":"фултайм"},{"type":"handle","offset":700,"length":22,"data":"Ekaterina_Mitroshkina"},{"type":"handle","offset":728,"length":13,"data":"iamanastasie"},{"type":"handle","offset":776,"length":16,"data":"javascript_jobs"}],"date":"2020-06-17T15:26:32+00:00","link":"tg://resolve?domain=javascript_jobs_feed&post=0","tags":[{"name":"javascript"},{"name":"reactjs"},{"name":"redux"},{"name":"typescript"},{"name":"bootstrap"},{"name":"jquery"},{"name":"sass"},{"name":"react-redux"}],"cities":[],"allowsRemote":true}},{"node":{"__typename":"Job","id":"17014194176-1001110946746","title":"Js разработчик","text":"#вакансия #москва #frontend #Javascript #middle #react #vanilla \n🚀 Frontend developer (middle/middle+) \nГород и адрес офиса: Москва, метро Дмитривская, БЦ Савеловский Сити \nФормат работы: офис, пока что удаленка \nЗанятость: полная \nЗарплатная вилка: от 120 000 до 180 000 RUB net \nОписание вакансии: \n▫Компания Admitad Projects ищет фронтенд-разработчика, который способен писать код с красивой модульной архитектурой под два наших продукта. \n▪ Задачи: \n\n-- доработка сайта и внутреннего редактора материалов (проект Hype.Tech) \n-- создание нового личного кабинета на react (проект Push.World) \n▪ Стек: S6+, React, node.js (опционально) \n▫ Все стильно, модно, молодежно, атмосфера Silicon Valley – included. \n▫ Компания – бизнес-инкубатор и бизнес-акселератор от Адмитада, под ее крышей собрано N стартапов, есть собственная и аутсорс-разработка, сейчас ищем в конкретный проект. \nНазвание компании: Admitad (Admitad/Projects)  \nКонтакты: @Si8eria or a.podolskaya@admitad.pro\nЗа успешную рекомендацию - бутылочка просекко🍸\n\n—\n\n👉 Обсуждение вакансии в чате @javascript_jobs","markup":[{"type":"hashtag","offset":0,"length":9,"data":"вакансия"},{"type":"hashtag","offset":10,"length":7,"data":"москва"},{"type":"hashtag","offset":18,"length":9,"data":"frontend"},{"type":"hashtag","offset":28,"length":11,"data":"Javascript"},{"type":"hashtag","offset":40,"length":7,"data":"middle"},{"type":"hashtag","offset":48,"length":6,"data":"react"},{"type":"hashtag","offset":55,"length":8,"data":"vanilla"},{"type":"handle","offset":940,"length":8,"data":"Si8eria"},{"type":"link","offset":952,"length":24,"data":"mailto:a.podolskaya@admitad.pro"},{"type":"handle","offset":1059,"length":16,"data":"javascript_jobs"}],"date":"2020-06-17T15:23:50+00:00","link":"tg://resolve?domain=javascript_jobs_feed&post=0","tags":[{"name":"javascript"},{"name":"reactjs"},{"name":"dotnet"},{"name":"nodejs"}],"cities":[{"code":"moscow"}],"allowsRemote":true}},{"node":{"__typename":"Job","id":"17011048448-1001110946746","title":"Js developer","text":"#вакансия #fulltime #frontend #js #react \nReact developer\nГород: Москва\nФормат работы: удаленная работа \nЗанятость: полная\nДиапазон: от 250 до 700 руб./ч\n\nОписание вакансии: Проект связан с сферой обучения. Задачи будут связаны с версткой, написание логики, подключение api.\nСтек технологий: \n- React.js ;\n- Mobx;\n- HTML5, CSS3, SCSS.\n\nКомпания: Secreate\nКонтакты: telegram @karysha\n\n—\n\n👉 Обсуждение вакансии в чате @javascript_jobs","markup":[{"type":"hashtag","offset":0,"length":9,"data":"вакансия"},{"type":"hashtag","offset":10,"length":9,"data":"fulltime"},{"type":"hashtag","offset":20,"length":9,"data":"frontend"},{"type":"hashtag","offset":30,"length":3,"data":"js"},{"type":"hashtag","offset":34,"length":6,"data":"react"},{"type":"handle","offset":374,"length":8,"data":"karysha"},{"type":"handle","offset":417,"length":16,"data":"javascript_jobs"}],"date":"2020-06-17T15:21:34+00:00","link":"tg://resolve?domain=javascript_jobs_feed&post=0","tags":[{"name":"javascript"},{"name":"reactjs"},{"name":"html"},{"name":"css"}],"cities":[{"code":"moscow"}],"allowsRemote":true}},{"node":{"__typename":"Job","id":"17009999872-1001110946746","title":"Js разработчик","text":"#вакансия #удаленно #frontend #react\nКомпания - VMB\nГород - Москва \nМетро - Киевская\nФормат - удаленная работа \nГрафик - полный рабочий день \n\n📍Приглашаем middle/middle + frontend разработчика развивать социальный и известный проект \n📍Что нужно? \nзнание React и TypeScript;\nотличное владение чистым JS;\nхорошее знание Node.js и ES6;\nхорошее знание HTML и CSS;\nумение работать с Git;\nпонимание особенностей SPA-приложений.\n📍Плюсами будут:\nпонимание принципов разработки изоморфных приложений;\nопыт разработки под мобильные браузеры;\nзнакомство с Unix-системами;\nопыт написания тестов (юнит- или интеграционных);\nопыт работы с системами сборки (Webpack, Rollup, Gulp, Grunt и т. п.);\nопыт работы с системами непрерывной интеграции (TeamСity, Travis, Jenkins, Drone и т. п.).\n📍Что предлагаем?\nУдалённую занятость \nВозможность развиваться и развивать интересный проект\nЗП 150-200к рублей на руки \n\nКонтакты \n@nariarakel","markup":[{"type":"hashtag","offset":0,"length":9,"data":"вакансия"},{"type":"hashtag","offset":10,"length":9,"data":"удаленно"},{"type":"hashtag","offset":20,"length":9,"data":"frontend"},{"type":"hashtag","offset":30,"length":6,"data":"react"},{"type":"handle","offset":908,"length":11,"data":"nariarakel"}],"date":"2020-06-17T15:21:28+00:00","link":"tg://resolve?domain=javascript_jobs_feed&post=0","tags":[{"name":"javascript"},{"name":"reactjs"},{"name":"typescript"},{"name":"nodejs"},{"name":"html"},{"name":"css"},{"name":"git"},{"name":"unix"},{"name":"webpack"},{"name":"gulp"},{"name":"gruntjs"},{"name":"jenkins"}],"cities":[{"code":"moscow"},{"code":"kiev"}],"allowsRemote":true}},{"node":{"__typename":"Job","id":"17006854144-1001110946746","title":"Js разработчик","text":"Greenatom.ru\n#вакансия #Москва #javascript #React #Typescript #Node.js #Middle #Senior #удаленка #удаленная работа \n\n👨🏼‍💻 Middle/Senior Frontend Developer, Middle/Senior Backend Developer\nГород и адрес офиса: #Москва, БЦ Сириус Парк, метро Нагатинская\n\n✅Формат работы: \nУДАЛЕННАЯ РАБОТА\n\n💻Занятость: полная, гибкое начало трудового дня.\n\nЗарплатная вилка: от 170 000 до 230 000 руб. на руки.\n\n🏢Компания: АО Гринатом\n\nПривет! Мы растём и активно развиваем ряд внутренних проектов: например, корпоративный портал, горячая линия, собственная кадровая система для нескольких сотен предприятий. Мы формируем НЕСКОЛЬКО КОМАНД и ищем классных:\n\n✅ФРОНТЕНД  разработчиков;\n\n✅БЭКЕНД разработчиков. \n\nПроекты в стадии разработки пилота и у тебя есть возможность повлиять на дальнейшее развитие продукта. Если у тебя есть крутые идеи - ты сможешь их здесь реализовать! Откликайся сам и зови друзей! Вирус пройдёт, работа останется!\n\n✅Требуемые знания и навыки:\n- Опыт разработки от двух лет\n- Хорошее знание чистого JS\n- Опыт работы с TypeScript\n- React, MobX, Less/Sass\n- Опыт написания юнит-тестов с помощью Jest, Enzymе очень приветствуется\n\n💡Наш стек:\n      React, TypeScript, Node.js, MobX, Docker\n\nМы работаем по Scrum.\n\n✅Условия:\n- Официальное оформление по ТК, белая зп;\n- Возможности профессионального и карьерного роста;\n- Дополнительные 3 дня к отпуску;\n- Плавающее начало дня;\n- ДМС со стоматологией\n\n☎️Контакты:\nЮлия - YAnZueva@Greenatom.ru\n\n—\n\n👉 Обсуждение вакансии в чате @javascript_jobs","markup":[{"type":"link","offset":0,"length":12,"data":"http://Greenatom.ru"},{"type":"hashtag","offset":13,"length":9,"data":"вакансия"},{"type":"hashtag","offset":23,"length":7,"data":"Москва"},{"type":"hashtag","offset":31,"length":11,"data":"javascript"},{"type":"hashtag","offset":43,"length":6,"data":"React"},{"type":"hashtag","offset":50,"length":11,"data":"Typescript"},{"type":"hashtag","offset":62,"length":5,"data":"Node"},{"type":"hashtag","offset":71,"length":7,"data":"Middle"},{"type":"hashtag","offset":79,"length":7,"data":"Senior"},{"type":"hashtag","offset":87,"length":9,"data":"удаленка"},{"type":"hashtag","offset":97,"length":10,"data":"удаленная"},{"type":"hashtag","offset":212,"length":7,"data":"Москва"},{"type":"link","offset":1426,"length":21,"data":"mailto:YAnZueva@Greenatom.ru"},{"type":"handle","offset":1482,"length":16,"data":"javascript_jobs"}],"date":"2020-06-17T15:17:29+00:00","link":"tg://resolve?domain=javascript_jobs_feed&post=0","tags":[{"name":"javascript"},{"name":"reactjs"},{"name":"typescript"},{"name":"nodejs"},{"name":"sass"},{"name":"docker"}],"cities":[{"code":"moscow"}],"allowsRemote":true}},{"node":{"__typename":"Job","id":"17005805568-1001110946746","title":"Js разработчик","text":"#вакансия #удаленка #frontend #react\n\nПривет, мы ищем в команду опытного фронта, уровня middle, middle+, senior.\n\nГород и адрес офиса: Москва, Парк Культуры, Кропоткинская\n\nФормат работы: офис, удаленка\n\nЗанятость: полная\n\nЗарплатная вилка:  от 100к до 170к руб на руки\n\nОписание вакансии: \n\nМы занимаемся разработкой внутреннего продукта компании - платформой информационного оператора. Платформа состоит из разных модулей, среди которых есть картографический сервис, конструктор аналитики, личный кабинет и многие другие. Некоторые из них еще находятся на этапе проектирования. Пользователь получает продукт, собранный из модулей, как конструктор.\n\nПишем мы на React, в некоторых модулях используем дизайн систему Ant. Стараемся следить за кодом, делаем код-ревью, но иногда можем оставить технический долг “на потом” ради ускорения процесса.\n\nДля нас очень важным качеством является самостоятельность. Зачастую для нетривиальных задач нужно проводить анализ, делать ресерч. В большинстве случаев перед интеграцией с серверной частью мы делаем прототипы интерфейса без дизайна, основываясь на существующих компонентах и решениях.\n\nМы хотим, чтобы ты:\n- участвовал в принятии архитектурных решений и активно занимался разработкой проекта;\n- знал плюсы и минусы выбранного решения и был бы готов их обосновывать;\n- умел разбираться в чужом коде;\n- не пугался отсутствия подробного ТЗ или дизайна;\n\nНавыки, которые пригодятся:\n- уверенное владение JavaScript (es5, es6+);\n- хороший опыт работы с React (Hooks, Context API, etc);\n- опыт работы с библиотеками для управления состоянием приложения (redux/mobx);\n- понимание принципов REST;\n- понимание асинхронности;\n\nБудем плюсом, если ты:\n- строил карты на фронте (Openlayers, Mapbox, etc);\n- сам настраивал Webpack;\n- делал архитектуру приложений с нуля;\n- писал тесты (интеграционные, юнит);\n- писал на Node JS;\n\nНам не важно где ты находишься, если у тебя нормальный интернет и ты готов быть на связи в установленное время. Как правило, разброс активности ребят в команде с 10 утра до 8 вечера по Москве. Мы также можем предоставить тебе рабочее место в офисе в центре Москвы, возле Парка Культуры.\n\nОформляем по ТК, белая ЗП, ДМС по истечению испытательного срока, если нет препятствий к оформлению в России. Можем заключить договор ГПХ.\n\nПостарайся к отклику, помимо резюме, прикрепить проект, компонент или библиотеку, которыми ты гордишься, чтобы мы посмотрели на твой код.\n\nОдним из этапов собеседования может быть тестовое задание.\n\nНазвание компании: Центр 2М\n\nКонтакты: @fedorm\n\n—\n\n👉 Обсуждение вакансии в чате @javascript_jobs","markup":[{"type":"hashtag","offset":0,"length":9,"data":"вакансия"},{"type":"hashtag","offset":10,"length":9,"data":"удаленка"},{"type":"hashtag","offset":20,"length":9,"data":"frontend"},{"type":"hashtag","offset":30,"length":6,"data":"react"},{"type":"handle","offset":2529,"length":7,"data":"fedorm"},{"type":"handle","offset":2571,"length":16,"data":"javascript_jobs"}],"date":"2020-06-17T15:17:00+00:00","link":"tg://resolve?domain=javascript_jobs_feed&post=0","tags":[{"name":"javascript"},{"name":"reactjs"},{"name":"ant"},{"name":"redux"},{"name":"rest"},{"name":"webpack"},{"name":"nodejs"}],"cities":[{"code":"moscow"}],"allowsRemote":true}},{"node":{"__typename":"Job","id":"17001611264-1001110946746","title":"Js разработчик","text":"#вакансия #middle #спб #react #redux #emotion\n\nГород: Сантк-Петербург, ул. Рубинштейна (5 углов)\nФормат работы: офис или удаленка\nЗанятость: полная\nЗарплатная вилка: от 80к до 130к рублей (на руки, больше по согласованию)\nИспользуемый стек: react 16 (hooks), redux, emotion\n\nОписание вакансии:\n\nПривет всем, мы разрабатываем крутые проекты, связанные прежде всего с физическим здоровьем людей, которые тратят его, зарабатывая себе на хлеб. Эти люди работают на складах, перенося коробки с места на место, в сортировочных центрах, доставляя вам посылки, на стройках, и в остальных местах, где требуется ручной труд.\nНаши решения помогают компаниям за границей измерять и управлять (с помощью носимых устройств) рисками возникновения травмы для своих сотрудников (подробнее можете ознакомиться по ссылке: https://soteranalytics.com/ ). Я сооснователь проекта и нам в сентябре исполнится 4 года. С помощью этого канала мы уже нашли двух сотрудников, которые успешно у нас работают, но сейчас такие времена, что чем быстрее мы сможем разработать новые фичи в наших продуктах, тем больше рынка сможем захватить.\n\nЧто нужно делать: нужно разрабатывать дэшборды и прочие веб интерфейсы для наших клиентов, так и для наших внутренних нужд.\n\nЧто требуется от вас: мы ценим самоорганизованность и очень не любим микроменеджмент. Также мы любим когда наши сотрудники развиваются у нас на глазах и всячески стараемся этому помочь. У нас также сформирована команда из опытных сотрудников, которые имеют экспертизы почти в каждой теме.\nТакже мы ценим, когда человек умеет решать проблемы, а не создавать их другим.\n\nКонтакты: писать мне в личку @pavko_a. В сообщении пишите что вы уже сделали на reactjs, чем вы гордитесь в своей работе, а также пару строк о себе и чем вы занимались на последнем проекте.\n\nЗабыл упомянуть: в команде очень много общения на английском, так как коммерческая команда находится в Лондоне и являются носителями языка. #doyourhomework\n\n—\n\n👉 Обсуждение вакансии в чате @javascript_jobs","markup":[{"type":"hashtag","offset":0,"length":9,"data":"вакансия"},{"type":"hashtag","offset":10,"length":7,"data":"middle"},{"type":"hashtag","offset":18,"length":4,"data":"спб"},{"type":"hashtag","offset":23,"length":6,"data":"react"},{"type":"hashtag","offset":30,"length":6,"data":"redux"},{"type":"hashtag","offset":37,"length":8,"data":"emotion"},{"type":"link","offset":803,"length":27,"data":"https://soteranalytics.com/"},{"type":"handle","offset":1631,"length":8,"data":"pavko_a"},{"type":"hashtag","offset":1933,"length":15,"data":"doyourhomework"},{"type":"handle","offset":1983,"length":16,"data":"javascript_jobs"}],"date":"2020-06-17T15:12:15+00:00","link":"tg://resolve?domain=javascript_jobs_feed&post=0","tags":[{"name":"javascript"},{"name":"reactjs"},{"name":"redux"},{"name":"react-redux"}],"cities":[],"allowsRemote":true}},{"node":{"__typename":"Job","id":"17000562688-1001110946746","title":"Js разработчик","text":"#вакансия #frontend #teamlead #Москва #офис #JS #fulltime\n\nГород и адрес офиса: Москва, м. Новокузнецкая/Павелецкая\nФормат работы: #офис\nЗанятость: #полная\nЗП: от 200к до 350к руб. нетт\n\nSports.ru – провайдер развлечений для любителей спорта.\nЕсть спорт. Есть болельщики. Мы заполняем среду между ними, оживляем ее, наполняем общением и другими развлечениями. Мы делаем не «сайты» или «приложения», а мультиплатформенные продукты, с учетом актуальной технологической парадигмы.\n\nСейчас нашему флагманскому проекту Sports.ru нужен Frontend Team Lead. Это – главное медиа о спорте на русском языке с аудиторией 18 млн пользователей в месяц. Highload-проект с десятками тысяч RPS, состоящий из самых разных продуктов – сайтов, мобильных приложений, email-рассылок, чат-ботов и многого другого.\n\nПроекту уже более 20-ти лет, но двадцатилетнего кода вы тут не увидите, хотя со старым наследием [handlebars на сервере + js-компоненты на самописном фреймворке на клиенте] все же придется столкнуться. Все новые фичи мы делаем на Vue.js + SSR.\n\nО задачах:\nМы ищем человека, который будет не только заниматься руководством и развитием frontend-команды и участвовать в распределении задач и планировании. [Сейчас в команде 5 разработчиков +/- middle уровня.]\n\nМы рассчитываем, что наш team lead будет самостоятельно разрабатывать сложные фичи, будет ответственным за принятие архитектурных решений на проекте и будет лидировать процесс переезда на новый стек.\n\nО наших ожиданиях:\nМы ожидаем, что вы в качестве team lead’a имеете успешный опыт управления командой frontend-разработки: умеете выстраивать процессы, нанимать, увольнять и растить людей.\nВ качестве разработчика умеете работать с git, понимаете принципы работы сборщиков (webpack, rollup), имеете опыт работы с одним из современных js-фреймворков (Vue, React), умеете и любите писать тесты.\n\nОб условиях:\nПросторный стильный офис возле м. Новокузнецкая/Третьяковская.\n“Белая” заработная плата.\nБесплатная медстраховка со стоматологией после испытательного срока.\nГибкий график работы с возможностью день-два в неделю работать удаленно.\nФрукты, снеки, чай, кофе, какао 24/7.\nКорпоративная скидка в спортзал и на занятия английским языком.\nКорпоративный футбол с тренером.\nФинансовая помощь при переезде из другого города.\nВозможности для профессионального развития (сложные задачи, новые технологии, оплата обучающих курсов и конференций, помощь в развитии персонального бренда (участие в конференциях, написание статей).\n\nНазвание компании: Sports.ru (Tribuna Digital)\nКому интересно, пишите в личку (@pbuyatova), рада буду поделиться подробностями :)\n\n—\n\n👉 Обсуждение вакансии в чате @javascript_jobs","markup":[{"type":"hashtag","offset":0,"length":9,"data":"вакансия"},{"type":"hashtag","offset":10,"length":9,"data":"frontend"},{"type":"hashtag","offset":20,"length":9,"data":"teamlead"},{"type":"hashtag","offset":30,"length":7,"data":"Москва"},{"type":"hashtag","offset":38,"length":5,"data":"офис"},{"type":"hashtag","offset":44,"length":3,"data":"JS"},{"type":"hashtag","offset":48,"length":9,"data":"fulltime"},{"type":"hashtag","offset":131,"length":5,"data":"офис"},{"type":"hashtag","offset":148,"length":7,"data":"полная"},{"type":"link","offset":187,"length":9,"data":"http://Sports.ru"},{"type":"link","offset":514,"length":9,"data":"http://Sports.ru"},{"type":"link","offset":2493,"length":9,"data":"http://Sports.ru"},{"type":"handle","offset":2553,"length":10,"data":"pbuyatova"},{"type":"handle","offset":2638,"length":16,"data":"javascript_jobs"}],"date":"2020-06-17T15:09:55+00:00","link":"tg://resolve?domain=javascript_jobs_feed&post=0","tags":[{"name":"javascript"},{"name":"vuejs"},{"name":"git"},{"name":"webpack"},{"name":"reactjs"}],"cities":[{"code":"moscow"}],"allowsRemote":true}},{"node":{"__typename":"Job","id":"16997416960-1001110946746","title":"Js разработчик","text":"#вакансия \"Front-end разработчик\" г.Нур-Султан (Астана)\nПредлагаемая заработная плата 300 000 – 500 000 KZT на руки.\n🔹Информация о Работодателе:\nКазахстанская IT компания. Инновационный продукт компании успешно существует на рынке более 4 лет и насчитывает более 500 пользователей по всему Казахстану.\nМы ищем человека, который будет вовлечен в разработку данной информационной системы на длительное время.\n🔹Обязанности:\n• Разработка frontend-части проекта; \n• Доработка существующих версий проектов; \n• Проектирование пользовательских интерфейсов; \n• Кроссбраузерная и адаптивная верстка HTML5/CSS3; \n• Полное понимание предметной области и консультированаие Back-end разработчиков; \n• Анализ существующих систем и разработка способов интеграции; \n• Оптимизация клиентского портала (#JS, #CSS);\n🔹Основные требования: \n• Свободное владение #HTML и CSS; \n• Понимание препроцессоров CSS (Sass (SCSS), #Less, #Stylus, CSS3); \n• Свободное владение #JavaScript (ES6+), Vue.js (2.x); \n• Знание и опыт работы с фреймворками и библиотеками: #Angular.JS, #React.JS; \n• Владение инструментами дебаггинга; \n• Владение инструментами контроля версий (#Git); \n• #Element, #Webpack; \n• Понимание принципов построения бекэнда и серверных технологий (Node.js, #PHP, #Ruby, .NET и т.д.\n 🔹Условия: \n• Стабильно высокую зарплату от 300 000 до 500 000 тг. на руки; \n• Пятидневная рабочая неделя с 9:00 до 18:00; \n• Дружный коллектив, оказывающий поддержку во всем; \n• Возможности внедрять идеи и инициативы; \n• Возможность обучения за счет организации; \n• Работа в офисе по адресу г. Нур-Султан (Астана), ул. Иманова.\n\n📩Эл. почта для резюме: ke@recrutoman.kz\n\n—\n\n👉 Обсуждение вакансии в чате @javascript_jobs","markup":[{"type":"hashtag","offset":0,"length":9,"data":"вакансия"},{"type":"hashtag","offset":786,"length":3,"data":"JS"},{"type":"hashtag","offset":791,"length":4,"data":"CSS"},{"type":"hashtag","offset":843,"length":5,"data":"HTML"},{"type":"hashtag","offset":902,"length":5,"data":"Less"},{"type":"hashtag","offset":909,"length":7,"data":"Stylus"},{"type":"hashtag","offset":947,"length":11,"data":"JavaScript"},{"type":"hashtag","offset":1036,"length":8,"data":"Angular"},{"type":"hashtag","offset":1049,"length":6,"data":"React"},{"type":"hashtag","offset":1141,"length":4,"data":"Git"},{"type":"hashtag","offset":1151,"length":8,"data":"Element"},{"type":"hashtag","offset":1161,"length":8,"data":"Webpack"},{"type":"hashtag","offset":1246,"length":4,"data":"PHP"},{"type":"hashtag","offset":1252,"length":5,"data":"Ruby"},{"type":"link","offset":1626,"length":16,"data":"mailto:ke@recrutoman.kz"},{"type":"handle","offset":1677,"length":16,"data":"javascript_jobs"}],"date":"2020-06-17T15:08:41+00:00","link":"tg://resolve?domain=javascript_jobs_feed&post=0","tags":[{"name":"javascript"},{"name":"html"},{"name":"css"},{"name":"sass"},{"name":"vuejs"},{"name":"angularjs"},{"name":"reactjs"},{"name":"git"},{"name":"webpack"},{"name":"nodejs"},{"name":"php"},{"name":"ruby"},{"name":"dotnet"}],"cities":[],"allowsRemote":false}}]}}},"context":{}}