{"hash":"f34fd2c444a074f4e0e67d525015a008ef8e766f","data":{"records":{"id":"nosql","name":"nosql","belongsTo":{"totalCount":29,"pageInfo":{"totalPages":3,"currentPage":3},"edges":[{"node":{"__typename":"Job","id":"223346688-1001352129329","title":"Golang разработчик","text":"#вакансия #fulltime #Москва #goland\n\nВакансия: Go dev (Middle)\nГород: Москва\nЗанятость: полная \nЗП: 200-230К net\nНазвание компании: BI.ZONE (https://bi.zone/)\n\nКто мы: \nBI.ZONE — активно растущая команда единомышленников, которая исследует, разрабатывает и поддерживает решения для защиты от киберпреступников. \nМы создаем инновационные продукты для анализа угроз и активной защиты от мошенничества, автоматизируем и масштабируем экспертизу наших сервисных подразделений и разрабатываем инструменты для внутреннего использования.\nЕсли тебя привлекают сложные задачи и вызовы, ты по своей сути экспериментатор и горишь идеями, приглашаем присоединиться к нашей команде.\n\nЧто мы можем предложить: \n- Современный офис в центре Москвы,10 минут от метро\n- Комфортные рабочие места, техника Mac или Windows на выбор, отсутствие дресс-кода\n- Игровые комнаты для отдыха после решения важных задач, «капсулы сна»\n- Кухня на каждом этаже и много приятных плюшек\n- Реализация собственных идей\n- Достойная и своевременная оплата труда\n- Минимум бюрократии и должностной иерархии\n- Сложные задачи, прокачивающие уникальные скиллы;\n- Профессиональный коллектив, сплошь состоящий из асов разработки сложных систем в области практической ИБ;\n- Оплачиваем обучение, посещение конференций и сертификацию;\n- Свободный график;\n- ДМС и скидки на фитнес;\n\nЧем конкретно придется заниматься\n- Погрузиться в предметную область, процессы информационной безопасности и непрерывного R&D;\n- Участвовать в проработке архитектурных решений;\n- Создавать качественный код (тесты, паттерны, производительность, кроссплатформенность);\n- Работать в команде профессионалов;\n- Разрабатывать востребованные продукты;\n\nО проектах:\n- Основной проект: распределенная модульная клиент-серверная система;\n- Сложные сетевые взаимодействия;\n- Высокие требования к безопасности;\n- Производительные алгоритмы;\n- Разнообразные host-устройства;\n- Дополнительно: помощь коллегам (экспертам в практической ИБ) с инструментами;\n- console tools;\n- small services;\n\nНаши ожидания: \n- Опыт активной разработки на Go (Golang) от 1 года;\n- Хорошее знание сетевых протоколов;\n- Опыт работы с SQL/NoSQL;\n- Знание Git, понимание методологии Git Flow;\n- Понимание Agile методик (Scrum, Kanban) и принципов, лежащих в их основе;\n- Ответственность и достаточная самостоятельность;\n\nКонтакты: @Kate_Guseva\n Автор @Kate_Guseva","markup":[{"type":"hashtag","offset":0,"length":9,"data":"вакансия"},{"type":"hashtag","offset":10,"length":9,"data":"fulltime"},{"type":"hashtag","offset":20,"length":7,"data":"Москва"},{"type":"hashtag","offset":28,"length":7,"data":"goland"},{"type":"link","offset":132,"length":7,"data":"http://BI.ZONE"},{"type":"link","offset":141,"length":16,"data":"https://bi.zone/"},{"type":"link","offset":169,"length":7,"data":"http://BI.ZONE"},{"type":"handle","offset":2329,"length":12,"data":"Kate_Guseva"},{"type":"handle","offset":2349,"length":12,"data":"Kate_Guseva"}],"date":"2020-02-08T19:06:19+00:00","link":"tg://resolve?domain=gogetajobfeed&post=213","tags":[{"name":"go"},{"name":"dotnet"},{"name":"windows"},{"name":"sql"},{"name":"nosql"},{"name":"git"}],"cities":[{"code":"moscow"}],"allowsRemote":false}},{"node":{"__typename":"Job","id":"221249536-1001352129329","title":"Golang developer","text":"#вакансия Golang developer\n#вакансия #работа #кипр #cyprus #fulltime #relocate #релокация #golang #developer #\n\nКомпания: TrafficStars\nГород: Лимасcол, Кипр\nФормат работы: офис\nЗанятость: полная\nЗарплатная вилка: от 2500 до 3500 евро на руки\nЯзыки: русский, английский на уровне свободного чтения технической документации, митинги на русском\n\nОбязанности: Разработка серверной части высоконагруженной рекламной сети на Golang.\n\nТребования:\n  Опыт веб-разработки не менее 3 лет;\n  Знание паттернов программирования MVC, ООП;\n  Отличное знание Go;\n  Отличное знание сетевых протоколов;\n  Опыт работы с реляционными базами данных, хорошее знание SQL;\n  Опыт работы с NoSQL;\n  Опыт командной работы (трекеры, знание Git, понимание Git Flow);\n  Умение разбираться в чужом коде.\n  \nМы приветствуем:\n  Знание языков C/C++, Python, Java, Erlang, NodeJs;\n  Опыт работы с высокими нагрузками;\n  Любовь к деталям и желание делать хорошо свою работу, а не так чтобы “просто работало“;\n  Умение отстаивать свою позицию, при этом прислушиваться к другим мнениям и сообща находить компромисс;\n  Желание развиваться и постигать новое;\n  Ориентацию на результат.\n  \nЧто у нас есть интересного кроме задач:\n  Современный новый офис в центре Лимассола;\n  Отсутствие дресс-кода и бюрократии;\n  Молодая нескучная команда с горящими глазами;\n  Профессиональное развитие в быстрорастущем проекте;\n  Медицинская страховка и мобильная связь;\n  Бесплатные вкусные обеды;\n  Уроки и практика английского в офисе;\n  Билет до Кипра за счёт компании, помощь с переездом семьи;\n  Первое время помогаем с жильем и транспортом.\n\nКонтакты: +35795588440\ntelegram: sofia_tomashevich\ne-mail: sofia@trafficstars.com\n Автор @sofia_tomashevich","markup":[{"type":"hashtag","offset":0,"length":9,"data":"вакансия"},{"type":"hashtag","offset":27,"length":9,"data":"вакансия"},{"type":"hashtag","offset":37,"length":7,"data":"работа"},{"type":"hashtag","offset":45,"length":5,"data":"кипр"},{"type":"hashtag","offset":51,"length":7,"data":"cyprus"},{"type":"hashtag","offset":59,"length":9,"data":"fulltime"},{"type":"hashtag","offset":69,"length":9,"data":"relocate"},{"type":"hashtag","offset":79,"length":10,"data":"релокация"},{"type":"hashtag","offset":90,"length":7,"data":"golang"},{"type":"hashtag","offset":98,"length":10,"data":"developer"},{"type":"link","offset":1605,"length":12,"data":"tel:+35795588440"},{"type":"link","offset":1654,"length":22,"data":"mailto:sofia@trafficstars.com"},{"type":"handle","offset":1684,"length":18,"data":"sofia_tomashevich"}],"date":"2020-02-05T15:30:18+00:00","link":"tg://resolve?domain=gogetajobfeed&post=211","tags":[{"name":"go"},{"name":"sql"},{"name":"nosql"},{"name":"git"},{"name":"python"},{"name":"java"},{"name":"erlang"},{"name":"nodejs"}],"cities":[{"code":"sofia"}],"allowsRemote":false}},{"node":{"__typename":"Job","id":"208666624-1001352129329","title":"Golang разработчик","text":"#вакансия #godeveloper #golang #backend #fulltime #офис #senior #techlead\n\nВсем привет! В поиске талантливого и клёвого техлида. \nЕсли вы были ведущим разработчиком, если вы сеньор или техлид, и вилка вам подходит, то welcome. \nДаже если опыта менеджера не было, но вы сеньор/ведущий разработчик - welcome. \nА ещё если у вас немного опыта на Go, но есть хороший опыт на java - welcome. \nПро проект напишу в лс, если вам подходит вилка по зп (больше 250net, к сожалению, не рассматриваем). \n\nСписок необходимых навыков:\n- Golang/Java\n- Docker\n- SQL (В основном Postgres)\n- NoSQL (Redis/Elastic/Couchbase/Mongo/etc.. - зависит от задач)\n- REST/gRPC \n- Kubernetes\n\nЗ/П: 180 000 - 250 000 net (обсуждаемо)\nУдаленка: нет\nЛокация: Москва, м. Смоленская\nКомпания: МТС ИТ\nКонтакты: @horthekifo \n\nЧто нужно делать?\nРазрабатывать бекенд web-приложения и участвовать в проектировании архитектуры, проводить code review. \n\nЧто мы предлагаем:\n- Белая ЗП, премия 20% от годового оклада;\n- ДМС со стоматологией;\n- Хакатоны, митапы, конференции;\n- Гибкое начало рабочего дня;\n- Корпоративная связь, доп. дни ежегодного отпуска;\n- Офис у м. Смоленская (7 мин. пешком).\n Автор @Horthekifo","markup":[{"type":"hashtag","offset":0,"length":9,"data":"вакансия"},{"type":"hashtag","offset":10,"length":12,"data":"godeveloper"},{"type":"hashtag","offset":23,"length":7,"data":"golang"},{"type":"hashtag","offset":31,"length":8,"data":"backend"},{"type":"hashtag","offset":40,"length":9,"data":"fulltime"},{"type":"hashtag","offset":50,"length":5,"data":"офис"},{"type":"hashtag","offset":56,"length":7,"data":"senior"},{"type":"hashtag","offset":64,"length":9,"data":"techlead"},{"type":"handle","offset":774,"length":11,"data":"horthekifo"},{"type":"handle","offset":1159,"length":11,"data":"Horthekifo"}],"date":"2020-01-21T09:10:55+00:00","link":"tg://resolve?domain=gogetajobfeed&post=199","tags":[{"name":"go"},{"name":"java"},{"name":"dotnet"},{"name":"docker"},{"name":"sql"},{"name":"postgresql"},{"name":"nosql"},{"name":"redis"},{"name":"elasticsearch"},{"name":"rest"},{"name":"kubernetes"},{"name":"web"}],"cities":[{"code":"moscow"}],"allowsRemote":false}},{"node":{"__typename":"Job","id":"207618048-1001352129329","title":"Golang разработчик","text":"#вакансия #godeveloper #golang #backend #fulltime #офис #senior #techlead\n\nВсем привет! В поиске талантливого и клёвого техлида. \nЕсли вы были ведущим разработчиком, если вы сеньор или техлид, и вилка вам подходит, то welcome. \nДаже если опыта менеджера не было, но вы сеньор/ведущий разработчик - welcome. \nА ещё если у вас немного опыта на Go, но есть хороший опыт на java - welcome. \nПро проект напишу в лс, если вам подходит вилка по зп (больше 250net, к сожалению, не рассматриваем). \n\nСписок необходимых навыков:\n- Golang/Java\n- Docker\n- SQL (В основном Postgres)\n- NoSQL (Redis/Elastic/Couchbase/Mongo/etc.. - зависит от задач)\n- REST/gRPC \n- Kubernetes\n\nЗ/П: 180 000 - 250 000 net (обсуждаемо)\nУдаленка: нет\nЛокация: Москва, м. Смоленская\nКомпания: МТС ИТ\nКонтакты: @horthekifo \n\nЧто нужно делать?\nРазрабатывать бекенд web-приложения и участвовать в проектировании архитектуры, проводить code review. \n\nЧто мы предлагаем:\n- Белая ЗП, премия 20% от годового оклада;\n- ДМС со стоматологией;\n- Хакатоны, митапы, конференции;\n- Гибкое начало рабочего дня;\n- Корпоративная связь, доп. дни ежегодного отпуска;\n- Офис у м. Смоленская (7 мин. пешком).\n Автор @Horthekifo","markup":[{"type":"hashtag","offset":0,"length":9,"data":"вакансия"},{"type":"hashtag","offset":10,"length":12,"data":"godeveloper"},{"type":"hashtag","offset":23,"length":7,"data":"golang"},{"type":"hashtag","offset":31,"length":8,"data":"backend"},{"type":"hashtag","offset":40,"length":9,"data":"fulltime"},{"type":"hashtag","offset":50,"length":5,"data":"офис"},{"type":"hashtag","offset":56,"length":7,"data":"senior"},{"type":"hashtag","offset":64,"length":9,"data":"techlead"},{"type":"handle","offset":774,"length":11,"data":"horthekifo"},{"type":"handle","offset":1159,"length":11,"data":"Horthekifo"}],"date":"2020-01-21T09:10:53+00:00","link":"tg://resolve?domain=gogetajobfeed&post=198","tags":[{"name":"go"},{"name":"java"},{"name":"dotnet"},{"name":"docker"},{"name":"sql"},{"name":"postgresql"},{"name":"nosql"},{"name":"redis"},{"name":"elasticsearch"},{"name":"rest"},{"name":"kubernetes"},{"name":"web"}],"cities":[{"code":"moscow"}],"allowsRemote":false}},{"node":{"__typename":"Job","id":"202375168-1001352129329","title":"Golang разработчик","text":"#вакансия #godeveloper #golang #backend #fulltime #офис #middle #москва\n\nВсем привет! Разыскиваю Go разработчиков, так как появились новые проекты. \n\nСписок необходимых навыков:\n- Golang\n- Docker\n- SQL (В основном Postgres)\n- NoSQL (Redis/Elastic/Couchbase/Mongo/etc.. - зависит от задач)\n- REST/gRPC \n- Kubernetes\n\nЗ/П: 170 000- 230 000 net (обсуждаемо)\nУдаленка: да\nЛокация: Москва, м. Смоленская\nКомпания: МТС ИТ\nКонтакты: @horthekifo \n\nЧто нужно делать?\nРазрабатывать бекенд web-приложения и участвовать в проектировании архитектуры, проводить code review.\n\nНа данный момент есть несколько проектов, куда нужно по одному человеку. Трайб занимается автоматизацией внутренних бизнес-процессов. \n\nЧто мы предлагаем:\n- Белая ЗП, премия 20% от годового оклада;\n- ДМС со стоматологией;\n- Хакатоны, митапы;\n- Гибкое начало рабочего дня;\n- Корпоративная связь, доп. дни ежегодного отпуска;\n- Офис у м. Смоленская (7 мин. пешком).\n\nТут про проекты не пишу, т.к будет много текста, если вы по деньгам ок и по уровню middle/senior - welcome, расскажу про проекты, выберите наиболее интересный.\n Автор @Horthekifo","markup":[{"type":"hashtag","offset":0,"length":9,"data":"вакансия"},{"type":"hashtag","offset":10,"length":12,"data":"godeveloper"},{"type":"hashtag","offset":23,"length":7,"data":"golang"},{"type":"hashtag","offset":31,"length":8,"data":"backend"},{"type":"hashtag","offset":40,"length":9,"data":"fulltime"},{"type":"hashtag","offset":50,"length":5,"data":"офис"},{"type":"hashtag","offset":56,"length":7,"data":"middle"},{"type":"hashtag","offset":64,"length":7,"data":"москва"},{"type":"handle","offset":426,"length":11,"data":"horthekifo"},{"type":"handle","offset":1094,"length":11,"data":"Horthekifo"}],"date":"2020-01-14T11:23:01+00:00","link":"tg://resolve?domain=gogetajobfeed&post=193","tags":[{"name":"go"},{"name":"docker"},{"name":"sql"},{"name":"postgresql"},{"name":"nosql"},{"name":"redis"},{"name":"elasticsearch"},{"name":"rest"},{"name":"kubernetes"},{"name":"dotnet"},{"name":"web"}],"cities":[{"code":"moscow"}],"allowsRemote":false}},{"node":{"__typename":"Job","id":"74448896-1001375797688","title":".net разработчик","text":"#вакансия #dotnet #csharp #remote #удаленка\n\nФормат: #удаленка\nЗанятость: полная\nЗарплата: от 2 000$ до 3 500$ (зп обсуждается с каждым лично и зависит от вашего уровня...)\nКомпания: IDG\n\n💡Задачи:\n- Разработка высоконагруженных систем на стороне заказчика;\n- Поддержка и сопровождения проектов;\n\n📍Требования:\n- опыт разработки коммерческих приложений на платформе .NET от 2 лет;\n- опыт и понимание ASP.Net MVC, Web API, опыт работы с клиентскими JS фреймворками;\n- опыт и понимание протокола передачи данных REST;\n- знание и опыт работы с MongoDB или другой NoSQL базой данных;\n- технический английский;\n\n🔗Будет плюсом:\n- опыт работы в финансовой индустрии, либо другой корпоративной среде, где важна защита данных и правильная организация контроля доступа к исполнению кода\n- опыт работы с зарубежными заказчиками\n- использование TDD в разработке\n- наличие сертификатов Microsoft\n- опыт работы с Datawarehouse/Big Data системами\n- Опыт работы с VSTS\n- Опыт работы с Kubernetes/Docker\n- Опыт работы с React\n\n📝Условия:\n- Интересные задачи и возможность реализовать свой потенциал в международных проектах компании и внутренних стартапах;\n- Гибкий график (начало и конец рабочего дня согласовываются с менеджером и командой проекта)\n- Полностью удаленная работа\n\nРезюме можно в личку или на почту.\n\nКонтакты:\n📧 seleznevaem@gmail.com\n🖌@EkaterinaSel\n\nТакже буду благодарна за рекомендации.","markup":[{"type":"hashtag","offset":0,"length":9,"data":"вакансия"},{"type":"hashtag","offset":10,"length":7,"data":"dotnet"},{"type":"hashtag","offset":18,"length":7,"data":"csharp"},{"type":"hashtag","offset":26,"length":7,"data":"remote"},{"type":"hashtag","offset":34,"length":9,"data":"удаленка"},{"type":"bold","offset":45,"length":8,"data":""},{"type":"hashtag","offset":53,"length":9,"data":"удаленка"},{"type":"bold","offset":63,"length":11,"data":""},{"type":"bold","offset":81,"length":10,"data":""},{"type":"bold","offset":173,"length":9,"data":""},{"type":"link","offset":1314,"length":21,"data":"mailto:seleznevaem@gmail.com"},{"type":"handle","offset":1338,"length":13,"data":"EkaterinaSel"}],"date":"2020-01-08T12:47:08+00:00","link":"tg://resolve?domain=DotNetRuJobsFeed&post=71","tags":[{"name":"dotnet"},{"name":"csharp"},{"name":"web"},{"name":"rest"},{"name":"mongodb"},{"name":"nosql"},{"name":"kubernetes"},{"name":"docker"},{"name":"reactjs"},{"name":"asp-net"},{"name":"asp-net-mvc"}],"cities":[],"allowsRemote":true}},{"node":{"__typename":"Job","id":"197132288-1001352129329","title":"Golang developer","text":"#вакансия #Golang developer #офис #Москва #fulltime #метро Павелецкая #зп 150 000руб на руки. \n\nВсем привет! ❄️ \nНадежда - it рекрутер 😌 ищу Go developerа в компанию rubetek, которая занимается реализацией систем «умный дом».\nДержит свой интернет-магазин. В поисках коллеги, который сможет влиться в команду, чтобы совместно развивать серверную часть экосистемы и сопутствующие сервисы, поможет построить лучший в IoT отказоустойчивый сервис 24/7.\nЧто нужно будет делать:\n ⁃ Разрабатывать новый и поддерживать существующий функционал серверной части\n ⁃ Проектировать и реализовывать API для устройств IoT и публичное API экосистемы\n ⁃ Разрабатывать инструменты управления и мониторинга, сбора и анализа статистики\n ⁃ Анализировать и оптимизировать производительность сервисов\n ⁃ Писать модульные, функциональные и интеграционные тесты\n ⁃ Участвовать в совершенствовании архитектуры платформы\nМы ожидаем от Вас:\n • Уверенные знания языка Go (Golang), опыт коммерческих проектов на нем порядка двух лет\n • Нам важно! чтобы было стремление доводить дела до конца, а также несмотря на опыт и хорошую теоретическую подготовку была тяга к постоянному развитию.\n • Далее стек: SQL (у нас MariaDB)/NoSQL, Опыт работы с SQL/NoSQL\n • API, API Design ( REST, RPC)\n • Хорошие знания Git\n • Написание тестов, CI\n • Уверенное использование Linux\nКомпания предлагает в замен:\n • Интересная работа в инновационном проекте в сфере IoT.\n • Официальное трудоустройство по ТК РФ с 1-го рабочего дня и полностью белая зарплата.\n • Оплачиваемые отпуск и больничный.\n • Благоприятные условия работы и очень дружный коллектив.\n • Комфортный и современный офис в стиле лофт в Бизнес квартале Новоспасский двор, в шаговой доступности от м. Павелецкая.\n • Заработная плата до 150 000 руб по итогу собеседования.\n\nПишите @NadiSmile или скидывайте информацию о себе n.ivanova@witrec.com\n Автор @NadiSmile","markup":[{"type":"hashtag","offset":0,"length":9,"data":"вакансия"},{"type":"hashtag","offset":10,"length":7,"data":"Golang"},{"type":"hashtag","offset":28,"length":5,"data":"офис"},{"type":"hashtag","offset":34,"length":7,"data":"Москва"},{"type":"hashtag","offset":42,"length":9,"data":"fulltime"},{"type":"hashtag","offset":52,"length":6,"data":"метро"},{"type":"hashtag","offset":70,"length":3,"data":"зп"},{"type":"handle","offset":1794,"length":10,"data":"NadiSmile"},{"type":"link","offset":1838,"length":20,"data":"mailto:n.ivanova@witrec.com"},{"type":"handle","offset":1866,"length":10,"data":"NadiSmile"}],"date":"2019-12-25T13:40:49+00:00","link":"tg://resolve?domain=gogetajobfeed&post=188","tags":[{"name":"go"},{"name":"sql"},{"name":"mariadb"},{"name":"nosql"},{"name":"rest"},{"name":"git"},{"name":"linux"}],"cities":[{"code":"moscow"}],"allowsRemote":false}},{"node":{"__typename":"Job","id":"195035136-1001352129329","title":"Golang developer","text":"#вакансия #godeveloper #golang #backtend #fulltime #офис #middle #москва\n\nСписок необходимых навыков:\n- Golang\n- Docker\n- SQL (В основном Postgres)\n- NoSQL (Redis/Elastic/Couchbase/Mongo/etc.. - зависит от задач)\n- REST/gRPC \n- Kubernetes\n\nЗ/П: 170 000- 230 000 net (обсуждаемо)\nУдаленка: нет\nЛокация: Москва, м. Смоленская\nКомпания: МТС ИТ\nКонтакты: @horthekifo \n\nЧто нужно делать?\nРазрабатывать бекенд web-приложения и участвовать в проектировании архитектуры, проводить code review.\n\nНа данный момент есть два проекта, куда нужно по одному человеку. Трайб занимается автоматизацией внутренних бизнес-процессов. \n\nЧто мы предлагаем:\n- Белая ЗП, премия 20% от годового оклада;\n- ДМС со стоматологией;\n- Хакатоны, митапы;\n- Гибкое начало рабочего дня;\n- Корпоративная связь, доп. дни ежегодного отпуска;\n- Офис у м. Смоленская (7 мин. пешком).\n\nТут про проекты не пишу, т.к будет много текста, если вы по деньгам ок и по уровню middle/senior - welcome, расскажу про проекты, выберите наиболее интересный.\n Автор @Horthekifo","markup":[{"type":"hashtag","offset":0,"length":9,"data":"вакансия"},{"type":"hashtag","offset":10,"length":12,"data":"godeveloper"},{"type":"hashtag","offset":23,"length":7,"data":"golang"},{"type":"hashtag","offset":31,"length":9,"data":"backtend"},{"type":"hashtag","offset":41,"length":9,"data":"fulltime"},{"type":"hashtag","offset":51,"length":5,"data":"офис"},{"type":"hashtag","offset":57,"length":7,"data":"middle"},{"type":"hashtag","offset":65,"length":7,"data":"москва"},{"type":"handle","offset":351,"length":11,"data":"horthekifo"},{"type":"handle","offset":1012,"length":11,"data":"Horthekifo"}],"date":"2019-12-23T13:23:38+00:00","link":"tg://resolve?domain=gogetajobfeed&post=186","tags":[{"name":"go"},{"name":"docker"},{"name":"sql"},{"name":"postgresql"},{"name":"nosql"},{"name":"redis"},{"name":"elasticsearch"},{"name":"rest"},{"name":"kubernetes"},{"name":"dotnet"},{"name":"web"}],"cities":[{"code":"moscow"}],"allowsRemote":false}},{"node":{"__typename":"Job","id":"58720256-1001375797688","title":".net developer","text":"#Москва #вакансия #офис #net #developer #fullstack #backend\n\nВ настоящее время мы ищем коллегу в нашу команду разработки. C 2014 года мы разрабатываем облачное решение для автоматизации процессов перевода, наш продукт работает в 200 странах.\n\nЧто предлагаем:\nОфициальное оформление по ТК РФ с первого дня.\nПолностью \"белая\" заработная плата 150-200К на руки.\nРабота в офисе или удаленно.\nГибкий график работы.\n\nПожелания:\nОпыт создания и продакшн-эксплуатации веб-приложений в .Net стеке.\nПонимание и осознанное применение принципов ООП и паттернов проектирования.\nХорошее знание C# и понимание его особенностей.\nОпыт разработки приложений с конкурентным доступом к ресурсам в БД.\nОпыт разработки фронтэнда для нетривиальных web-приложений на любом из современных фреймворков: Vue.js, AngularJS, Angular 2+, ReactJS.\nЗнание JavaScript, TypeScript, HTML 5, CSS 3.\nОпыт работы с NoSQL.\n\nКакие задачи будут стоять:\nПроектирование, разработка и рефакторинг высоконагруженных веб-приложений с высокими требованиями к производительности и доступности.\nРабота на общий результат в кросс-функциональной скрам-команде, активное взаимодействие с коллегами, участие в решении широкого спектра задач.\nТесное взаимодействие с менеджерами по продукту.\nПроведение код-ревью, участие в выработке архитектурных и проектных решений.\n\nЕсли позиция full stack'а - это не совсем подходящая роль, то мы можем обсудить и другие возможности и варианты.\n\nЕсли вы тот человек, которого мы ищем, напишите в ЛС - @dnotna","markup":[{"type":"hashtag","offset":0,"length":7,"data":"Москва"},{"type":"hashtag","offset":8,"length":9,"data":"вакансия"},{"type":"hashtag","offset":18,"length":5,"data":"офис"},{"type":"hashtag","offset":24,"length":4,"data":"net"},{"type":"hashtag","offset":29,"length":10,"data":"developer"},{"type":"hashtag","offset":40,"length":10,"data":"fullstack"},{"type":"hashtag","offset":51,"length":8,"data":"backend"},{"type":"handle","offset":1485,"length":7,"data":"dnotna"}],"date":"2019-11-27T14:39:20+00:00","link":"tg://resolve?domain=DotNetRuJobsFeed&post=56","tags":[{"name":"dotnet"},{"name":"csharp"},{"name":"web"},{"name":"vuejs"},{"name":"angularjs"},{"name":"reactjs"},{"name":"javascript"},{"name":"typescript"},{"name":"html"},{"name":"css"},{"name":"nosql"}],"cities":[{"code":"moscow"}],"allowsRemote":true}}]}}},"context":{}}