{"hash":"f5f6bf98bd95e769321482904cbbd488f77922fd","data":{"records":{"id":"json","name":"json","belongsTo":{"totalCount":48,"pageInfo":{"totalPages":5,"currentPage":4},"edges":[{"node":{"__typename":"Job","id":"71604109312-1001054966032","title":"Android разработчик","text":"#вакансия #android #fulltime #удаленка #middle #senior\n\nГород и адрес офиса: Уфа (удаленно)\nФормат работы: удаленка\nЗанятость: полная\nЗарплатная вилка: от 100 000 р. до 250 000\n\nОписание вакансии:\nЕсли Вы крутой аndroid разработчик, влюбленный в свое дело, обладаете опытом разработки мобильных приложений, любите использовать в работе самые современные подходы и техники, интересуетесь трендами в мобильной разработке, то эта вакансия для Вас!\n\nКлассно, если Вы:\n- Свободно владеете языком Kotlin и Java\n- Имеете опыт реактивного программирования (RxJava2)\n- Имеете опыт работы с сетевыми протоколами (HTTP, REST, JSON и др.)\n- Знакомы с концепциями ООП, знаете паттерны проектирования, принципы SOLID и умеете их применять\n- Имеете базовое понимание и опыт работы с основными архитектурными паттернами (Clean, MVP, MVVM)\n- Знакомы с основными алгоритмами и структурами данных\n- Умеете писать простой в понимании и тестируемый код\n- Умеете работать в команде и готовы активно принимать участие в жизни продукта\n\nЖелательно:\n- Опыт работы с библиотеками Moxy, Dagger2\n- Знание принципов Agile-разработки\n- Умение работать с git, CI/CD системами (у нас Gitlab)\n- Умение проводить перекрестное Code Review\n- Ссылки на проекты в Play Market, профили GitHub и StackOverflow\n\nВашими ключевыми задачами будут:\n- Разрабатывать и поддерживать мобильное приложение с нуля\n- Создавать удобный и понятный для пользователей интерфейса по макету\n- Взаимодействовать с другими командами, для совместного решения задач\n- Разрабатывать и внедрять новые интересные фичи\n\nМы предлагаем:\n- Работа над финтех проектом европейской компании.\n- Самые современные технологии разработки\n- Возможность роста, как в профессиональной так и в управленческой сфере\n\nНазвание компании: Фином-Технологии —  команда разработчиков с большим опытом создания успешных финтех продуктов.  Расширяем свою команду для работы над проектом для стран Европы. Автоматизация финансовых процессов для малого бизнеса.\n\nКонтакт для связи: @deeeana","markup":[{"type":"hashtag","offset":0,"length":9,"data":"вакансия"},{"type":"hashtag","offset":10,"length":8,"data":"android"},{"type":"hashtag","offset":19,"length":9,"data":"fulltime"},{"type":"hashtag","offset":29,"length":9,"data":"удаленка"},{"type":"hashtag","offset":39,"length":7,"data":"middle"},{"type":"hashtag","offset":47,"length":7,"data":"senior"},{"type":"bold","offset":56,"length":20,"data":""},{"type":"bold","offset":92,"length":14,"data":""},{"type":"bold","offset":116,"length":11,"data":""},{"type":"bold","offset":134,"length":10,"data":""},{"type":"bold","offset":145,"length":6,"data":""},{"type":"bold","offset":178,"length":23,"data":""},{"type":"underline","offset":446,"length":18,"data":""},{"type":"underline","offset":1013,"length":12,"data":""},{"type":"underline","offset":1271,"length":33,"data":""},{"type":"underline","offset":1554,"length":15,"data":""},{"type":"bold","offset":1736,"length":19,"data":""},{"type":"bold","offset":1972,"length":18,"data":""},{"type":"handle","offset":1991,"length":8,"data":"deeeana"}],"date":"2020-06-19T05:01:29+00:00","link":"tg://resolve?domain=mobile_jobs&post=0","tags":[{"name":"mobile"},{"name":"android"},{"name":"kotlin"},{"name":"java"},{"name":"rest"},{"name":"json"},{"name":"mvvm"},{"name":"git"},{"name":"gitlab"},{"name":"playframework"},{"name":"github"}],"cities":[{"code":"ufa"}],"allowsRemote":true}},{"node":{"__typename":"Job","id":"1709178880-1001091028994","title":"Java разработчик","text":"Ищем разработчика на Java (HyperLedger) на постоянную занятость на удаленной основе в команду http://www.proleum.pro \n\nОт соискателя ожидается: \n\n- знание REST, HTTP, JSON;\n- умение создавать и  оптимизировать API;\n- умение писать тесты;\n- опыт работы с SQL- и NoSQL-базами данных;\n- знание и умение работать с Git;\n- знакомство с docker;\n- уверенный пользователь Linux;\n- знание и базовый опыт работы с Hyperledger Fabric;\n- принципы работы сетей (TCP/UDP, DNS, gRPC и http, маршрутизация/инкапсуляция, как сети связываются между собой и т.д.).\n\nОформление по законадательству РФ. Зарплата 70-200кр белая по результатам собеседования и зависит от уровня соискателя.\n\nТалантливый разработчик, найдись! Напиши в телеграм @soloway или на почту solo@proleum.pro и приходи в наш дружный коллектив совершать революцию на рынке нефтепродуктов!","markup":[{"type":"link","offset":94,"length":22,"data":"http://www.proleum.pro"},{"type":"handle","offset":720,"length":8,"data":"soloway"},{"type":"link","offset":742,"length":16,"data":"mailto:solo@proleum.pro"}],"date":"2020-06-18T17:01:52+00:00","link":"tg://resolve?domain=jvmjobs&post=1630","tags":[{"name":"java"},{"name":"jvm"},{"name":"rest"},{"name":"json"},{"name":"sql"},{"name":"nosql"},{"name":"git"},{"name":"docker"},{"name":"linux"},{"name":"dns"}],"cities":[],"allowsRemote":true}},{"node":{"__typename":"Job","id":"71579992064-1001054966032","title":"Ios разработчик","text":"💪#вакансия #удалёнка #iOS #fulltime  #Middle+/#Senior    \n💵З/П 2200-2400 $/месяц по итогам собеседования\nРабота: удалёнка\n\nЧеловек в среднем больше сотни раз взаимодействует с клавиатурой своего мобильного устройства. Для большинства пользователей нашего приложения мы делаем этот процесс  интереснее и выгодней. Мы также оцениваем эмоциональное состояние пользователя, в процессе его взаимодействия с клавиатурой. Руководство компании из топ-менеджмента крупнейших глобальных игроков мобильного рынка. В данный момент открыта вакансия Middle+/Senior IOS разработчика, в подчинении 2 сотрудника                                                                                                               \n\n📌Обязанности:\n- Разработка кастомной клавиатуры iOS\n- Подключение ML-алгоритмов (TensorFlow) распознавания эмоций к iOS-клавиатуре\n- Разработка кода обработки данных камеры, микрофона\n\n📌Требования:\n- Уверенное знание Swift;\n- Хорошее знание платформы iOS, инструментов разработки, работы UI;\n- Опыт работы с REST API, HTTP, JSON, APNs;\n- Знакомство с библиотеками CoreData, AVFoundation, CoreML и CreateML\n- Желание развиваться и развивать свои знания            \n-Знание английского на уровне от Intermediate желательно                                                                                                               \n\n📌Будет плюсом:\n- Опыт работы c TensorFlow на iOS\n- Опыт работы с OpenCV на iOS\n- Опыт работы с фреймворком SwiftUI\n\n📌Условия:\n- Отсутствие бюрократии\n- Время начала рабочего дня обговариваем индивидуально\n- Come to the Dark Side, we have тёплая ламповая атмосфера стартапа, чай, кофе и печеньки!\n- Крутой инновационный проект - возможность самореализации и профессионального роста\n- Стабильное зарубежное финансирование\n- Десятки миллионов установок и множество глобальных партнёров\n📞 Контакты @SvetikS_hr +7(963)-632-12-36 Cветлана","markup":[{"type":"hashtag","offset":2,"length":9,"data":"вакансия"},{"type":"hashtag","offset":12,"length":9,"data":"удалёнка"},{"type":"hashtag","offset":22,"length":4,"data":"iOS"},{"type":"hashtag","offset":27,"length":9,"data":"fulltime"},{"type":"hashtag","offset":38,"length":7,"data":"Middle"},{"type":"hashtag","offset":47,"length":7,"data":"Senior"},{"type":"handle","offset":1841,"length":11,"data":"SvetikS_hr"},{"type":"link","offset":1853,"length":17,"data":"tel:+7(963)-632-12-36"}],"date":"2020-06-18T14:11:13+00:00","link":"tg://resolve?domain=mobile_jobs&post=0","tags":[{"name":"mobile"},{"name":"ios"},{"name":"tensorflow"},{"name":"swift"},{"name":"rest"},{"name":"json"},{"name":"opencv"}],"cities":[],"allowsRemote":true}},{"node":{"__typename":"Job","id":"71571603456-1001054966032","title":"Ios разработчик","text":"#вакансия IOS developer\n\n🏙Город:  в г. Москве (м. Сокольники) или в г. Санкт-Петербурге (м. Адмиралтейская)\n\n🧰Формат: офис\n\n⏳Занятость: полная\n\n💸Зарплатная вилка: 170 000- 190 000 руб.\n\n🔺Описание вакансии: \nВ один из крупнейших банков РФ ищем IOS разработчика. \n\n🔺Мы ждём от вас:\n➖Разработка мобильного приложения для платформы iOS\n➖Два проекта на выбор: мобильный банк для физических лиц и для юридических лиц;\n➖Разработка unit-тестов, рефакторинг, code review;\n➖Формирование принципов командной разработки.\n\n 🔺Для нас важно:\n➖Опыт разработки мобильных приложений от двух лет;\n➖Отличные знания платформы iOS и Swift;\n➖Опыт применения архитектурных паттернов: MV*, VIPER;\n➖Опыт разработки клиент-серверных приложений (HTTP(S), XML, JSON);\n➖Опыт написания unit-тестов;\n➖Опыт работы с GIT.\n\n🔺Будет Вашим преимуществом: \n      \n➖Отличные знания ООП, алгоритмов и структур данных;\n➖Знание Objective-C.   \n\n🔺Мы предлагаем:\n\n➖Официальное оформление по ТК РФ;\n➖График 5/2, гибкое начало и окончание рабочего дня;\n➖Конкурентный уровень дохода: оклад+премии (по итогам собеседования)\n➖Медицинская страховка для себя и членов семьи на особых условиях, страховка для выезжающих за рубеж.\n➖Большое количество льгот\n\n‼️Для переезжающих в Москву или Санкт-Петербург компания предоставляет \n“Релокационный пакет” (компенсация затрат на переезд и съем жилья первые 3 месяца).              \n  \nHR компания: Unicorn Search\n\nПо вакансии обращаться: @olgapivneva","markup":[{"type":"hashtag","offset":0,"length":9,"data":"вакансия"},{"type":"bold","offset":9,"length":14,"data":""},{"type":"bold","offset":27,"length":6,"data":""},{"type":"bold","offset":112,"length":6,"data":""},{"type":"bold","offset":127,"length":9,"data":""},{"type":"bold","offset":148,"length":16,"data":""},{"type":"bold","offset":191,"length":17,"data":""},{"type":"bold","offset":266,"length":17,"data":""},{"type":"bold","offset":518,"length":13,"data":""},{"type":"bold","offset":794,"length":28,"data":""},{"type":"bold","offset":908,"length":16,"data":""},{"type":"bold","offset":1214,"length":45,"data":""},{"type":"bold","offset":1284,"length":21,"data":""},{"type":"bold","offset":1382,"length":14,"data":""},{"type":"handle","offset":1438,"length":12,"data":"olgapivneva"}],"date":"2020-06-18T12:34:40+00:00","link":"tg://resolve?domain=mobile_jobs&post=0","tags":[{"name":"mobile"},{"name":"ios"},{"name":"swift"},{"name":"xml"},{"name":"json"},{"name":"git"},{"name":"objective-c"}],"cities":[],"allowsRemote":false}},{"node":{"__typename":"Job","id":"71565312000-1001054966032","title":"Ios разработчик","text":"#вакансия #iOS #москва\n\nНа проект от крупного российского банка требуется Middle iOS разработчик\n\nФормат: офис\n\nВилка ЗП: 150-180К\n\nЛокация: Москва\n\nТребования:\n\n- Опыт разработки под IOS (Objective-C или Swift) от 2 лет\n- Уверенное знание iOS SDK, Xcode\n- Опыт использования одной из архитектур: MVP, MVVM, VIPER\n- Знание особенностей: Collections, Optionals, Protocol Oriented, Generics\n- Понимание, как происходит управление памятью в iOS\n- Понимание принципов проектирования SOLID и желание придерживаться их\n- Наличие опыта работы с REST API, HTTP, JSON, APNs\n- Опыт работы с Git, знание git flow\n\nБудет плюсом:\n\n- Умение писать UI тесты\n- Опыт работы в команде\n\nКонтакт: @mxm_at","markup":[{"type":"hashtag","offset":0,"length":9,"data":"вакансия"},{"type":"hashtag","offset":10,"length":4,"data":"iOS"},{"type":"hashtag","offset":15,"length":7,"data":"москва"},{"type":"bold","offset":73,"length":23,"data":""},{"type":"bold","offset":98,"length":7,"data":""},{"type":"bold","offset":112,"length":9,"data":""},{"type":"bold","offset":132,"length":8,"data":""},{"type":"bold","offset":149,"length":11,"data":""},{"type":"bold","offset":603,"length":13,"data":""},{"type":"bold","offset":668,"length":8,"data":""},{"type":"handle","offset":677,"length":7,"data":"mxm_at"}],"date":"2020-06-18T11:11:25+00:00","link":"tg://resolve?domain=mobile_jobs&post=0","tags":[{"name":"mobile"},{"name":"ios"},{"name":"objective-c"},{"name":"swift"},{"name":"xcode"},{"name":"mvvm"},{"name":"rest"},{"name":"json"},{"name":"git"}],"cities":[{"code":"moscow"}],"allowsRemote":false}},{"node":{"__typename":"Job","id":"71447871488-1001054966032","title":"Ios разработчик","text":"#вакансия #ios #remote #fulltime \nВакансия: iOS разработчик\nФормат работы: удаленно или при желании в офисе (Москва, м. Трубная)\nЗанятость: полная\nЗ/п: от 170 000 до 200 000 по результатам общения\nКомпания: https://poloniumarts.com/\nСфера деятельности: разработка ПО.\n\nНа один из новых проектов. Все с нуля. Никакого легаси. \n\nОсновные задачи\n▪️верстка экранов приложения\n▪️проработка Api и логика приложения\n▪️полная поддержка проекта\n\nТребования\n▪️опыт коммерческой разработки мобильных приложений под iOS с нуля\n▪️знания Swift, Auto Layout, iOS SDK\n▪️понимание и опыт использования принципов ООП, SOLID\n▪️опыт использования JSON, REST API\n\nМы предлагаем\n▪️стабильную зарплату по результатам собеседования\n▪️оформление по ТК РФ\n▪️гибкий график работы\n▪️интересные, творческие задачи","markup":[{"type":"hashtag","offset":0,"length":9,"data":"вакансия"},{"type":"hashtag","offset":10,"length":4,"data":"ios"},{"type":"hashtag","offset":15,"length":7,"data":"remote"},{"type":"hashtag","offset":23,"length":9,"data":"fulltime"},{"type":"bold","offset":34,"length":9,"data":""},{"type":"bold","offset":60,"length":14,"data":""},{"type":"bold","offset":129,"length":10,"data":""},{"type":"bold","offset":147,"length":5,"data":""},{"type":"bold","offset":197,"length":10,"data":""},{"type":"link","offset":207,"length":25,"data":"https://poloniumarts.com/"},{"type":"bold","offset":233,"length":19,"data":""},{"type":"bold","offset":327,"length":16,"data":""},{"type":"bold","offset":437,"length":11,"data":""},{"type":"bold","offset":643,"length":14,"data":""}],"date":"2020-06-17T07:59:57+00:00","link":"tg://resolve?domain=mobile_jobs&post=0","tags":[{"name":"mobile"},{"name":"ios"},{"name":"swift"},{"name":"json"},{"name":"rest"}],"cities":[{"code":"moscow"}],"allowsRemote":true}},{"node":{"__typename":"Job","id":"71420608512-1001054966032","title":"Ios разработчик","text":"#вакансия #iOS #москва\n\nНа проект от крупного российского банка требуется Middle iOS разработчик\n\nФормат: офис\n\nВилка ЗП: 150-180К\n\nЛокация: Москва\n\nТребования:\nОпыт разработки под IOS (Objective-C или Swift) от 2 лет\nУверенное знание iOS SDK, Xcode\nОпыт использования одной из архитектур: MVP, MVVM, VIPER\nЗнание особенностей: Collections, Optionals, Protocol Oriented, Generics\nПонимание, как происходит управление памятью в iOS\nПонимание принципов проектирования SOLID и желание придерживаться их\nНаличие опыта работы с REST API, HTTP, JSON, APNs\nОпыт работы с Git, знание git flow\nЖелательно уметь писать UI тесты\nЖелателен опыт в команде\n\nКонтакт: @mxm_at","markup":[{"type":"hashtag","offset":0,"length":9,"data":"вакансия"},{"type":"hashtag","offset":10,"length":4,"data":"iOS"},{"type":"hashtag","offset":15,"length":7,"data":"москва"},{"type":"handle","offset":653,"length":7,"data":"mxm_at"}],"date":"2020-06-16T17:18:18+00:00","link":"tg://resolve?domain=mobile_jobs&post=0","tags":[{"name":"mobile"},{"name":"ios"},{"name":"objective-c"},{"name":"swift"},{"name":"xcode"},{"name":"mvvm"},{"name":"rest"},{"name":"json"},{"name":"git"}],"cities":[{"code":"moscow"}],"allowsRemote":false}},{"node":{"__typename":"Job","id":"71418511360-1001054966032","title":"Ios разработчик","text":"💪#вакансия #удалёнка #iOS #fulltime  #Middle+/#Senior    \n💵З/П 2200-2400 $/месяц по итогам собеседования\nРабота: удалёнка\n\nЧеловек в среднем больше сотни раз взаимодействует с клавиатурой своего мобильного устройства. Для большинства пользователей нашего приложения мы делаем этот процесс  интереснее и выгодней. Мы также оцениваем эмоциональное состояние пользователя, в процессе его взаимодействия с клавиатурой. Руководство компании из топ-менеджмента крупнейших глобальных игроков мобильного рынка. В данный момент открыта вакансия Middle+/Senior IOS разработчика, в подчинении 2 сотрудника                                                                                                               \n\n📌Обязанности:\n- Разработка кастомной клавиатуры iOS\n- Подключение ML-алгоритмов (TensorFlow) распознавания эмоций к iOS-клавиатуре\n- Разработка кода обработки данных камеры, микрофона\n\n📌Требования:\n- Уверенное знание Swift;\n- Хорошее знание платформы iOS, инструментов разработки, работы UI;\n- Опыт работы с REST API, HTTP, JSON, APNs;\n- Знакомство с библиотеками CoreData, AVFoundation, CoreML и CreateML\n- Желание развиваться и развивать свои знания            \n-Знание английского на уровне от Intermediate желательно                                                                                                               \n\n📌Будет плюсом:\n- Опыт работы c TensorFlow на iOS\n- Опыт работы с OpenCV на iOS\n- Опыт работы с фреймворком SwiftUI\n\n📌Условия:\n- Отсутствие бюрократии\n- Время начала рабочего дня обговариваем индивидуально\n- Come to the Dark Side, we have тёплая ламповая атмосфера стартапа, чай, кофе и печеньки!\n- Крутой инновационный проект - возможность самореализации и профессионального роста\n- Стабильное зарубежное финансирование\n- Десятки миллионов установок и множество глобальных партнёров\n📞 Контакты @SvetikS_hr +7(963)-632-12-36 Cветлана","markup":[{"type":"hashtag","offset":2,"length":9,"data":"вакансия"},{"type":"hashtag","offset":12,"length":9,"data":"удалёнка"},{"type":"hashtag","offset":22,"length":4,"data":"iOS"},{"type":"hashtag","offset":27,"length":9,"data":"fulltime"},{"type":"hashtag","offset":38,"length":7,"data":"Middle"},{"type":"hashtag","offset":47,"length":7,"data":"Senior"},{"type":"handle","offset":1841,"length":11,"data":"SvetikS_hr"},{"type":"link","offset":1853,"length":17,"data":"tel:+7(963)-632-12-36"}],"date":"2020-06-16T16:45:08+00:00","link":"tg://resolve?domain=mobile_jobs&post=0","tags":[{"name":"mobile"},{"name":"ios"},{"name":"tensorflow"},{"name":"swift"},{"name":"rest"},{"name":"json"},{"name":"opencv"}],"cities":[],"allowsRemote":true}},{"node":{"__typename":"Job","id":"102963871744-1001089317451","title":"Qa engineer","text":"#Москва #вакансия #QA #fulltime #test #office\n\n💻Компания: СберТех.\n🧰Вакансия: QA Engineer.\n🏢Офис: Москва, м. Нагатинская/м. Тульская/ м. Верхние Котлы.\n💰ЗП: от 150 000 Net.\n\n📂Проект: Разработка платформы для управления бизнес-процессами Банка и Цифровой Платформы Sber.\n\n🗓Задачи:\n• Работа в роли тестировщика в scrum команде.\n• Написание, актуализация тестовых сценариев и их прохождение (API, UI).\n• Проведение функционального, регрессионного, интеграционного и других видов тестирования.\n• Регистрация, отслеживание и верификация дефектов.\n• Участие в развитии команды и процессов тестирования.\n\n📌Требования: \n• Опыт написания тестовых сценариев, чек-листов, составления сложных интеграционных сценариев.\n• Знание теории тестирования, понимание видов тестирования и необходимости их применения на различных этапах реализации проекта.\n• Опыт анализа и тестирования требований.\n• Опыт тестирования rest/soap сервисов.\n• Опыт работы с BPM системами, понимание нотации BPMN 2.0.\n\n📎Cтек: REST, XML, XSD, JSON, SQL, BPMN 2.0, Docker, Kubernetes, Openshift, Kafka.\n\n🔰Условия:\n• Оформление ТК РФ.\n• ДМС для сотрудников и скидки на медицинскую страховку для родственников;\n• Высокая белая заработная плата (оклад + годовая премия).\n• Возможность обучения за счет компании, посещения IT-конференций.\n• Бесплатный тренажерный зал на территории офиса.\n• Корпоративная жизнь и спортивные мероприятия.\n\n📩Готов ответить на интересующие вопросы - @Dmiryy","markup":[{"type":"hashtag","offset":0,"length":7,"data":"Москва"},{"type":"hashtag","offset":8,"length":9,"data":"вакансия"},{"type":"hashtag","offset":18,"length":3,"data":"QA"},{"type":"hashtag","offset":22,"length":9,"data":"fulltime"},{"type":"hashtag","offset":32,"length":5,"data":"test"},{"type":"hashtag","offset":38,"length":7,"data":"office"},{"type":"handle","offset":1443,"length":7,"data":"Dmiryy"}],"date":"2020-06-16T16:02:50+00:00","link":"tg://resolve?domain=qa_jobs&post=0","tags":[{"name":"qa"},{"name":"dotnet"},{"name":"rest"},{"name":"soap"},{"name":"xml"},{"name":"xsd"},{"name":"json"},{"name":"sql"},{"name":"docker"},{"name":"kubernetes"},{"name":"kafka"}],"cities":[{"code":"moscow"}],"allowsRemote":false}},{"node":{"__typename":"Job","id":"1689255936-1001091028994","title":"Java разработчик","text":"Вакансия Team Lead Java \n\nПроект: Разрабатываем единый веб-терминал MOEX Treasury, который позволит получить быстрый и удобный доступ ко всем рынкам Московской Биржи, а также сервисам по управлению обеспечением и внебиржевым операциям. Это не просто веб-интерфейс к уже существующим торговым системам, а новая платформа, которая взаимодействует со всеми основными торговыми и бэк-офисными системами Биржи, которая сейчас начинает активно развиваться.\n \nТехнологический стек: Java 8, Spring (Spring Boot, Spring MVC), Hazelcast, WebSocket, RabbitMQ, Firebird (с переходом на PostgreSQL), в интеграционных решения REST API и JMS.\n \n Задачи на проекте:\n Участие в проекте по разработке платформы, объединяющей основные рынки и инструменты Московской Биржи;\n Подбор команды java-разработчиков (3 человека);\n Решение всех эскалаций по сотрудникам направления – качество и производительность работы, мотивация и пр.;\n Обеспечение качества работы членов команды;\n Накопление экспертизы по направлению;\n Организация и поддержание в актуальном состоянии базы знаний, проведение внутренних мероприятий по обмену знаниями и пр.;\n Проработка подхода к организации работ и его документирование в регламентах;\n Информирование всех заинтересованных сторон о процессе и его изменениях, контроль следования установленному процессу;\n Оценка задач в итерацию, оценка скоупа входящих работ;\n Ревью оценок от команды, отчетность план/факт по задачам команды;\n Разработка и контроль стандартов проектирования и качества кода для внешнего подрядчика.\n \nЧто мы ожидаем от Вас:\n Глубокое знание Java core;\n Знание принципов ООП и понимание паттернов проектирования;\n Уверенное знание JEE, Spring, Spring Boot, Spring MVC;\n Опыт разработки высоконагруженных систем;\n Уверенное знание, опыт проектирования и разработки RESTful API и WebSocket;\n Уверенное знание и опыт работы с данными в формате xml,json;\n Опыт работы с jaxb;\n Уверенное знание rdms. умение отлаживать, оптимизировать sql запросы;\n Опыт работы с Postgres приветствуется.\n\nНаши условия работы:\n• Компания: ПАО Московская биржа (Компания, входящая в 500 - лучших работодателей мира по версии Forbes за 2019 год);\n• Офис в центре: г. Москва, м. Арбатская/Библиотека им. Ленина/Боровицкая/Александровский сад;\n• Занятость: полная, официальное оформление в штат компании (оформление онлайн);\n• Формат работы: современный  офис возле Кремля в шаговой доступности от метро (на данный момент работаем удаленно из дома);\n• ДМС: с первого рабочего дня;\n• Свой «корпоративный университет», собственный лекторий, широкие возможности обучения – как внутри, так и вне компании;\n• Уровень з/п:  300 - 350 тыс.руб. (gross) + годовой бонус (32% от годового дохода);\n• Формат интервью: 1 этап онлайн интервью (60 минут).\n\nПишите в личку, отвечу на любые вопросы!\nКонтакты: @Sasha_P92\nAlexander.Panin@moex.com","markup":[{"type":"bold","offset":0,"length":34,"data":""},{"type":"bold","offset":453,"length":22,"data":""},{"type":"bold","offset":631,"length":19,"data":""},{"type":"bold","offset":1530,"length":23,"data":""},{"type":"bold","offset":2012,"length":21,"data":""},{"type":"bold","offset":2306,"length":19,"data":""},{"type":"handle","offset":2795,"length":10,"data":"Sasha_P92"},{"type":"link","offset":2806,"length":24,"data":"mailto:Alexander.Panin@moex.com"}],"date":"2020-06-16T08:53:10+00:00","link":"tg://resolve?domain=jvmjobs&post=1611","tags":[{"name":"java"},{"name":"jvm"},{"name":"spring"},{"name":"websocket"},{"name":"rabbitmq"},{"name":"postgresql"},{"name":"rest"},{"name":"xml"},{"name":"json"},{"name":"jaxb"},{"name":"sql"},{"name":"spring-boot"},{"name":"spring-mvc"}],"cities":[{"code":"moscow"}],"allowsRemote":true}}]}}},"context":{}}