{"hash":"f5f6bf98bd95e769321482904cbbd488f77922fd","data":{"records":{"id":"ios","name":"ios","belongsTo":{"totalCount":194,"pageInfo":{"totalPages":20,"currentPage":7},"edges":[{"node":{"__typename":"Job","id":"72271003648-1001054966032","title":"Ios разработчик","text":"#вакансия #работа #iOS #Developer #fulltime #удаленно\n\nВсем привет!\n\nМы в applicatura.com опять выросли и ищем middle iOS-разработчика. \nЗП 60 000 - 130 000 руб. после налогов. \n\n\nМы создаем и поддерживаем мобильные приложения для крупных известных брендов , SimpleWine, Перекресток, Абсолют Банк и др. \nВ команде - дизайнеры, мобильные разработчики, бэкенд разработчики, проджект менеджеры, qa-инженеры.\nУ нас налаженные процессы разработки и никакого чайка-менеджмента. \n\nЧто вам придется делать:\n - разрабатывать новые приложений \n - поддерживать имеющиеся приложения клиентов\n - создание библиотек и SDK\n - верстать по макетам дизайнеров\n - проходить технические аудиты от заказчиков\n\n\nТребования:\n- Опыт коммерческой разработки от 0,5 года;\n - Знание Swift\n - Знание особенностей и тонкостей разработки под iOS (UIKit, Foundation, CoreData и др.)\n - Знание git и уверенное использование подходов и инструментов командной разработки и ревью кода - ревьювить будем вас )\n - Имеющееся представление о том, как выстроить архитектуру большого и сложного приложения\n - Знания последних технологий, фреймворков, инструментов и вообще желание разумно следовать прогрессу\n - Понимание аспектов и этапов разработки мобильного приложения полного цикла (от настройки окружения до релиза в сторы)\n - Знание библиотек и стека мобильной разработки\n\nУсловия:\n\n - белая ЗП, соблюдаем и чтим Трудовой Кодекс РФ\n - возможность иметь нестандартный рабочий график\n - предоставляем возможности для карьерного и профессионального роста\n - работа в крупных публичных проектах, которые можно положить себе в портфолио\n \nВАЖНО! Вакансия для граждан РФ/РБ. \n\nПисать в телеграм @k_kononov, CV присылать на почту kononov@applicatura.com","markup":[{"type":"hashtag","offset":0,"length":9,"data":"вакансия"},{"type":"hashtag","offset":10,"length":7,"data":"работа"},{"type":"hashtag","offset":18,"length":4,"data":"iOS"},{"type":"hashtag","offset":23,"length":10,"data":"Developer"},{"type":"hashtag","offset":34,"length":9,"data":"fulltime"},{"type":"hashtag","offset":44,"length":9,"data":"удаленно"},{"type":"link","offset":74,"length":15,"data":"http://applicatura.com"},{"type":"handle","offset":1655,"length":10,"data":"k_kononov"},{"type":"link","offset":1689,"length":23,"data":"mailto:kononov@applicatura.com"}],"date":"2020-06-29T13:43:31+00:00","link":"tg://resolve?domain=mobile_jobs&post=68923","tags":[{"name":"mobile"},{"name":"ios"},{"name":"swift"},{"name":"uikit"},{"name":"git"}],"cities":[],"allowsRemote":true}},{"node":{"__typename":"Job","id":"103979941888-1001089317451","title":"Qa инженер","text":"#вакансия #QA #тестировщик #part-time #home-office #удалёнка #удаленная_работа #Новосибирск\n✅ Должность: Тестировщик ПО / QA engineer\n✅ Компания: Albatross Internet Group состоит из нескольких интернет-проектов со своими командами. \nМы поддерживаем атмосферу стартапа, чтобы оставаться гибкими и уметь оперативно принимать решения.\n✅ В одном из наших ключевых проектов открыта позиция QA инженер на part-time удаленную работу 8-10 часов в неделю.\n✅ Требуемый опыт работы: 1–3 года\n\n✅ Какие задачи тебя ждут?\n- тестирование задач по требованиям;\n- регрессионное тестирование на тестовом/боевом серверах;\n- формирование чек-листов;\n- написание технической документации по задачам;\n- автоматизация тестирования на Selenium(если опыта нет - не проблема, можем отправить на курсы);\n- постановка ТЗ для задач.\n\n✅ Чего мы ожидаем?\n- опыт тестирования браузерных приложений и нативных (IOS/Android);\n- умение применять на практике техники тест дизайна;\n- внимательность к деталям и неуклонное желание что-нибудь сломать;\n- понимание методологии разработки и тестирования ПО;\n- навыки в составлении и использовании тестовой документации (чек-листы, тест-кейсы, отчеты о тестировании);\n- опыт работы с Jira, Confluence.\n\n✅ Что будет преимуществом?\n- опыт автоматизации тестирования (желательно на Selenium);\n- опыт работы с системой контроля версий git;\n- опыт работы с Jenkins;\n- опыт написания SQL запросов (MySQL);\n- опыт работы с testRail, Postman;\n- опыт работы с Docker.\n\n✅ Условия:\n- оплата: до 300 руб./час\n- плавающий график\n- обучение за счет компании\n✅ Отклики с пометкой QA можно присылать на hr@albatrosscom.ru или сразу пишите @Tetyana7","markup":[{"type":"hashtag","offset":0,"length":9,"data":"вакансия"},{"type":"hashtag","offset":10,"length":3,"data":"QA"},{"type":"hashtag","offset":14,"length":12,"data":"тестировщик"},{"type":"hashtag","offset":27,"length":5,"data":"part"},{"type":"hashtag","offset":38,"length":5,"data":"home"},{"type":"hashtag","offset":51,"length":9,"data":"удалёнка"},{"type":"hashtag","offset":61,"length":17,"data":"удаленная_работа"},{"type":"hashtag","offset":79,"length":12,"data":"Новосибирск"},{"type":"link","offset":1595,"length":18,"data":"mailto:hr@albatrosscom.ru"},{"type":"handle","offset":1631,"length":9,"data":"Tetyana7"}],"date":"2020-06-29T12:44:10+00:00","link":"tg://resolve?domain=qa_jobs&post=99163","tags":[{"name":"qa"},{"name":"selenium"},{"name":"ios"},{"name":"android"},{"name":"git"},{"name":"jenkins"},{"name":"sql"},{"name":"mysql"},{"name":"docker"}],"cities":[{"code":"novosibirsk"}],"allowsRemote":true}},{"node":{"__typename":"Job","id":"72254226432-1001054966032","title":"Mobile разработчик","text":"#вакансия #ios #senior #middle #objective_c \n\nОчень важен опыт работы с Core Data\n\nГород: #Москва, м. Павелецкая (удалённо на период всеобщей борьбы с вирусами)\nФормат работы: #офис, #удалёнка, #гибкие_часы \n\nЗанятость: полная  \nЗарплатная вилка: от 200к до 250к руб. net \nОписание вакансии: \n\nМы разрабатываем облачные CRM решения с широким использованием мобильных устройств.   \nСейчас мы ищем middle  и senior iOS разработчиков в команду, которая внедряет приложение CT Mobile в архитектуру CRM наших клиентов в Европе.\n\nhttps://apps.apple.com/us/app/ct-mobile-for-salesforce/id1234947996\n\nНазвание компании: Customertimes.com\nКонтакты: mikhail.zinoviev@ctconsult.ru","markup":[{"type":"hashtag","offset":0,"length":9,"data":"вакансия"},{"type":"hashtag","offset":10,"length":4,"data":"ios"},{"type":"hashtag","offset":15,"length":7,"data":"senior"},{"type":"hashtag","offset":23,"length":7,"data":"middle"},{"type":"hashtag","offset":31,"length":12,"data":"objective_c"},{"type":"hashtag","offset":90,"length":7,"data":"Москва"},{"type":"hashtag","offset":176,"length":5,"data":"офис"},{"type":"hashtag","offset":183,"length":9,"data":"удалёнка"},{"type":"hashtag","offset":194,"length":12,"data":"гибкие_часы"},{"type":"link","offset":524,"length":67,"data":"https://apps.apple.com/us/app/ct-mobile-for-salesforce/id1234947996"},{"type":"link","offset":612,"length":17,"data":"http://Customertimes.com"},{"type":"link","offset":640,"length":29,"data":"mailto:mikhail.zinoviev@ctconsult.ru"}],"date":"2020-06-29T11:15:18+00:00","link":"tg://resolve?domain=mobile_jobs&post=68907","tags":[{"name":"mobile"},{"name":"ios"},{"name":"objective-c"},{"name":"dotnet"},{"name":"core-data"}],"cities":[{"code":"moscow"}],"allowsRemote":true}},{"node":{"__typename":"Job","id":"103973650432-1001089317451","title":"Qa engineer","text":"#вакансия #QA #ФТ #Москва #офис \n\nВакансия: QA Engineer\nГород: Москва м. Полежаевская\nЗарплата: от 100 000 до 150 000 рублей на руки \nФормат: офис, полный день, полная занятость\nКомпания Innovative People \n\nПроект \"Жизненный цикл клиента\" в банке, agile-команда.\n\n➡ Задачи и требования:\n\n• Ручное тестирование Web приложения/IOS/Android;\n• Проектировать и поддерживать актуальную тестовую документацию;\n• Разбор, детализация и заведение дефектов;\n\n• Опыт в тестирования от 2-х лет (от черновиков ТЗ до отчетности по текущему состоянию системы и потенциальным рискам);\n• Понимание принципов работы современных веб-сервисов: REST, SOAP;\n• Умение работать с Jira, Confluence;\n• Умение составлять чек-листы и тест-кейсы;\n\n• Желательно умение работать со сниффером (Charles/Fiddler/etc);\n• Желательно умение работать с инструментами тестирования\\отладки web-сервисов (SoapUI, Postman, Swagger UI);\"\n\n➡ Предлагаем:\n• все по ТК РФ, белое и официальное\n• ДМС со стоматологией, программа лояльности\n• адекватное руководство \n• большое комьюнити \n• ноутбук\n\nРезюме и вопросы @Priboch","markup":[{"type":"hashtag","offset":0,"length":9,"data":"вакансия"},{"type":"hashtag","offset":10,"length":3,"data":"QA"},{"type":"hashtag","offset":14,"length":3,"data":"ФТ"},{"type":"hashtag","offset":18,"length":7,"data":"Москва"},{"type":"hashtag","offset":26,"length":5,"data":"офис"},{"type":"handle","offset":1065,"length":8,"data":"Priboch"}],"date":"2020-06-29T11:02:48+00:00","link":"tg://resolve?domain=qa_jobs&post=99157","tags":[{"name":"qa"},{"name":"web"},{"name":"ios"},{"name":"android"},{"name":"rest"},{"name":"soap"},{"name":"swagger"}],"cities":[{"code":"moscow"}],"allowsRemote":false}},{"node":{"__typename":"Job","id":"72240594944-1001054966032","title":"Android developer","text":"#вакансия #android #kotlin #Москва #Fulltime #Офис\n\nКомпания: Звук\nФормат работы: офис \nЗанятость: полная \nЗп: от 200 до 300к\nНаша команда создает современный музыкальный сервис Звук. Приложение доступно на устройствах Android и IOS. \n\nДля разработки собственного мобильного приложения в команду разработки приглашается Senior Android Developer.\n\nОжидания:\n— Опыт работы с Android от 2-х лет.\n— Уверенное знание Java Core, понимание принципов многопоточного программирования.\n— Уверенное знание Android SDK v19 – v28.\n— Опыт работы с RxJava(1 / 2), Retrofit, Exoplayer, Jetpack, Dagger2, StorIO.\n— Опыт работы с Kotlin, понимание основных принципов.\n— Опыт разработки клиент серверных приложений, понимание сетевого стека.\n— Умение работать с системой контроля версий git (terminal/gui).\n— Знание ООП, паттернов проектирования ПО.\n— Ответственность и умение работать на результат.\n— Знание общих мобильных подходов, архитектур, тенденций и новых технологий.\n— Твердое понимание полного жизненного цикла мобильной разработки.\n\nОсновные задачи:\n— Работать над исправлением ошибок и улучшением производительности приложений.\n— Постоянно находить, оценивать и внедрять новые технологии, чтобы максимизировать эффективность разработки. \n\nЧто у нас:\n— Опен-спейс между станциями метро Комсомольская, Красные Ворота и Бауманская.\n— Гибкий график работы, возможность периодически работать из дома.\n— Современная и производительная техника.\n— Оплачиваемые билеты на конференции.\n— В офисе есть стол для Пинг-понг, доска для дартс, оборудованная кухня, печеньки.\n— Факультативные просмотры лекций, обучение.\n\n\n\nЗа доп. инфой в лс: @AnnaPai4","markup":[{"type":"hashtag","offset":0,"length":9,"data":"вакансия"},{"type":"hashtag","offset":10,"length":8,"data":"android"},{"type":"hashtag","offset":19,"length":7,"data":"kotlin"},{"type":"hashtag","offset":27,"length":7,"data":"Москва"},{"type":"hashtag","offset":35,"length":9,"data":"Fulltime"},{"type":"hashtag","offset":45,"length":5,"data":"Офис"},{"type":"handle","offset":1621,"length":9,"data":"AnnaPai4"}],"date":"2020-06-29T10:29:04+00:00","link":"tg://resolve?domain=mobile_jobs&post=68894","tags":[{"name":"mobile"},{"name":"android"},{"name":"ios"},{"name":"kotlin"},{"name":"java"},{"name":"git"}],"cities":[{"code":"moscow"}],"allowsRemote":false}},{"node":{"__typename":"Job","id":"72233254912-1001054966032","title":"Ios разработчик","text":"#вакансия #swift #objective-C #ios\n\niOS разработчик удаленно по России \nmiddle/senior\n\nГород : Санкт-Петербург\nФормат работы: офис или удаленно\nЗанятость: Полная\nЗарплатная вилка:  90 000 - 200 000 руб\n\n\nОписание компании:\nВ Blogman мы занимаемся разработкой собственного приложения – платформа для блогеров и рекламодателей. В нашей команде уже более 50 разработчиков и мы продолжаем расти. Сейчас мы ищем инженера с опытом коммерческой разработки под iOS.\n\nМы ожидаем, что у вас есть:\n— Опыт коммерческой разработки мобильных приложений под iOS;\n— Хорошие знания Swift, UIKit;\n— Опыт работы с мобильными БД;\n— Умение работать с Git, Cocoapods.\n\nБудет плюсом, если вы:\n— Разрабатывали клиент-серверные приложения;\n— Умеете работать с WebSocket;\n— Знаете и понимаете архитектуру VIPER;\n— Командный игрок без яркого эгоцентризма;\n— Готовы активно принимать участие в жизни компании и продукта.\n\nРады предложить:\n– Удаленное сотрудничество или комфортный офис на Невском проспекте в 5 минутах ходьбы от ст. м. Маяковская и Владимирская;\n– Желаемый оклад по результатам собеседования;\n– Понятную систему роста зарплаты каждые 6 месяцев, в которой все зависит только от вас;\n– Все необходимые офисные блага вроде вкусного кофе и т.д.\nВас будут окружать адекватные люди, с которыми комфортно решать поставленные задачи. У сотрудников есть общие ценности, такие как стремление к качественному результату, забота о продукте и желание двигаться вперед. Также у нас нет “Начальства”, а есть коллеги. Все взаимодействуют горизонтально и в команде равенство между инженерами, стейкхолдером, продактом и т.д. Все работают бок о бок и делают одно общее дело.\nНазвание компании: Blogman\nКонтакты: @maria_golovina","markup":[{"type":"hashtag","offset":0,"length":9,"data":"вакансия"},{"type":"hashtag","offset":10,"length":6,"data":"swift"},{"type":"hashtag","offset":17,"length":10,"data":"objective"},{"type":"hashtag","offset":30,"length":4,"data":"ios"},{"type":"bold","offset":225,"length":8,"data":""},{"type":"bold","offset":459,"length":27,"data":""},{"type":"bold","offset":647,"length":22,"data":""},{"type":"bold","offset":894,"length":16,"data":""},{"type":"handle","offset":1683,"length":15,"data":"maria_golovina"}],"date":"2020-06-29T09:09:05+00:00","link":"tg://resolve?domain=mobile_jobs&post=68887","tags":[{"name":"mobile"},{"name":"ios"},{"name":"swift"},{"name":"objective-c"},{"name":"uikit"},{"name":"git"},{"name":"cocoapods"},{"name":"websocket"}],"cities":[],"allowsRemote":true}},{"node":{"__typename":"Job","id":"72224866304-1001054966032","title":"Ios разработчик","text":"#вакансия #ios #swift #objective-c #офис #спб\nМы в #МойОфис собираем команду, которая будет работать над мобильной почтой, и нам нужен опытный iOS разработчик. У нас есть: зп от 170 до 250 (зависит от уровня), отлаженные процессы разработки, удобный офис в историческом центре. Подробное описание здесь- https://careers.myoffice.ru/vacancies/ios-razrabotchik/\nрезюме и вопросы пишите сюда: @itkriska","markup":[{"type":"hashtag","offset":0,"length":9,"data":"вакансия"},{"type":"hashtag","offset":10,"length":4,"data":"ios"},{"type":"hashtag","offset":15,"length":6,"data":"swift"},{"type":"hashtag","offset":22,"length":10,"data":"objective"},{"type":"hashtag","offset":35,"length":5,"data":"офис"},{"type":"hashtag","offset":41,"length":4,"data":"спб"},{"type":"hashtag","offset":51,"length":8,"data":"МойОфис"},{"type":"link","offset":304,"length":55,"data":"https://careers.myoffice.ru/vacancies/ios-razrabotchik/"},{"type":"handle","offset":390,"length":9,"data":"itkriska"}],"date":"2020-06-29T08:18:21+00:00","link":"tg://resolve?domain=mobile_jobs&post=68879","tags":[{"name":"mobile"},{"name":"ios"},{"name":"swift"},{"name":"objective-c"}],"cities":[],"allowsRemote":false}},{"node":{"__typename":"Job","id":"72218574848-1001054966032","title":"Ios разработчик","text":"#вакансия #IOS разработчик #ObjectiveC\n\nРабота в офисе или УД\nЗП от 120 000 до 240 000 руб. на руки\nг. Москва\n\nМы ищем коллегу iOS-разработчика в команду, основными задачами которой является разработка приложений для ведущих операторов сотовой связи, компаний в сфере финансов и телекоммуникаций. \n \nДолжностные обязанности: \n∙ Разработка и поддержка новых приложений;\n∙ Поддержка имеющихся приложений;\n∙ Создание библиотек;\n∙ Верстка по макетам с нарезкой. \n \nНеобходимые навыки: \n∙ Опыт работы от 2-х лет;\n∙ Наличие законченных проектов; \n∙ Уверенное знание iOS SDK 7+;\n∙ Опыт разработки кастомных UI; \n∙ Опыт работы с анимацией;\n∙ Опыт работы с push-нотификациями, сетью, базами данных, структурами данных;\n∙ Опыт работы с Git;\n∙ Хорошее знание ООП и паттернов проектирования;\n∙ Умение разбираться в чужом коде. \n \nБудет плюсом: \n∙ Опыт работы с другими языками программирования;\n∙ Опыт работы с MVVM;\n∙ Опыт публикации приложений в App Store;\n∙ Знание классических алгоритмов и структур данных. \n \nМы предлагаем: \n∙ Достойную заработную плату;\n∙ График работы понедельник-пятница 9.00-18.00;\n∙ Дружный коллектив, творческая самостоятельность в работе.\n\nКомпания ИММО – VAS-интегратор, ведущий поставщик сервисов для операторов связи. \nМы сотрудничаем с более чем 60 операторами сотовой связи в 14 странах.\nМы разрабатываем, внедряем и развиваем высокотехнологичные сервисы «под ключ».\nНаши партнеры – операторы мобильной и фиксированной связи, производители мобильных и сетевых устройств нового поколения, ведущие социальные сети, поставщики и производители технологических VAS-решений, Правообладатели (Universal, Sony, Warner, EMI, Disney).\n\ntel: +7(985)896-83-99\nhr@immo.ru","markup":[{"type":"hashtag","offset":0,"length":9,"data":"вакансия"},{"type":"hashtag","offset":10,"length":4,"data":"IOS"},{"type":"hashtag","offset":27,"length":11,"data":"ObjectiveC"},{"type":"link","offset":1653,"length":16,"data":"tel:+7(985)896-83-99"},{"type":"link","offset":1670,"length":10,"data":"mailto:hr@immo.ru"}],"date":"2020-06-29T05:59:01+00:00","link":"tg://resolve?domain=mobile_jobs&post=68873","tags":[{"name":"mobile"},{"name":"ios"},{"name":"git"},{"name":"mvvm"}],"cities":[{"code":"moscow"}],"allowsRemote":false}},{"node":{"__typename":"Job","id":"72111620096-1001054966032","title":"Ios разработчик","text":"#вакансия #москва #офис #senior #ios #developer #gamedev #swift \nГород и адрес офиса: Москва, м.Автозаводская \nФормат работы: офис \nЗанятость: полная \nЗарплатная вилка: от 250 000 до 300 000 на руки \n\n\n✅ Senior iOS Developer \n\nОписание вакансии: \n\nМы - успешная команда из 120 человек, которая занимается: \n• разработкой собственных мобильных игр и приложений \n• паблишингом мобильных игр \n• рекламой и маркетингом мобильных приложений (реклама на Facebook, Google и т.д.) \nЗа последние 3 года мы привлекли более 100 млн пользователей в наши собственные мобильные приложения и приложения наших клиентов и партнеров, потратив на это более $80 млн. \n\nУ нас есть все составляющие чтобы делать готовые продукты известными и популярными. Мы ищем сильного и талантливого разработчика для усиления нашей текущей слаженно работающей команды и выведения нашего Fitness & Health iOS приложения Fitingo на лидирующие позиции в мире (уже сейчас приложение занимало позиции ТОП 13 в США и ТОП 6 в Великобритании с более чем 400,000 установок и более чем 45,000 совершенных покупок).\n\n✅Задачи: \n\n•  Разрабатывать новый функционал\n•  Рефакторить и оптимизировать код\n•  Писать код. Больше логики, меньше UI. Например - хранить историю и прогресс; сделать leaderboard по странам; добавить чат, аналитику и a/b тесты; Apple Health, Watch, Music и TV\n•  Участвовать в Code Review\n\nТекущий стек: Swift 5.1, MVPC, AVFoundation, UserNotifications, Realm, StoreKit, Firebase, PushWoosh, Facebook, Python.\n\n✅Требования: \n\n•  Опыт работы разработчиком iOS приложений от 3х лет\n•  Отличное знание Swift\n•  Уверенное знание SOLID и паттернов проектирования\n•  Умение профилировать приложение (Батарейка, утечки и вот это все)\n•  Опыт работы с системой контроля версий\n•  Наличие выпущенных проектов на Swift\n•  Желание делать красивые, интересные и популярные приложения\n\n✅Будет плюсом: \n\n•  Умение/желание писать небольшие серверные скрипты (например на Python)\n•  Умение автоматизировать рутинные процессы\n•  Умение рефакторить код итеративно\n•  Адекватный перфекционизм\n\n\n✅Для вас: \n\n•  Конкурентная заработная плата, выплачивается 2 раза в месяц\n•  Необходимое оборудование для работы\n•  Возможность набрать команду и выстроить всю работу под себя в краткосрочной перспективе\n•  Оформление по ТК РФ, оплачиваемые больничные, 28 дней оплачиваемого отпуска в год\n•  Возможны регулярные бонусы по результатам работы проектов\n•  Собеседование с лицом принимающим решение\n•  Возможность коммуницировать с людьми, которые принимают продуктовые решения\n\n✅О нас: \n\n•  Просторный офис 600 метров на м. Автозаводская (3 минуты от метро и от ТТК на машине) с ультра современным дизайном и кучей ништяков (кухня с вкусняшками, кальяны каждый вечер в дружной кампании, PS4 Pro + 4K TV, аркадные автоматы с Pac-Man, Metal Slug и другими хитами геймдизайна, просторная зона отдыха, 5 переговорных комнат и т д)\n•  Команда из 100 человек занимающаяся паблишингом и маркетингом, готовая сделать продукт успешным после его готовности\n•  Возможность обучаться английскому языку с носителями каждый будний день по утрам\n•  Менторы и инвесторы, создавшие большое количество успешных IT компаний (оборот в 2018 году более 140 млн долларов)\n\nНазвание компании: AppQuantum \n\nКонтакты: \ne-mail: vika@adquantum.com\ntelegram: @wikki13","markup":[{"type":"hashtag","offset":0,"length":9,"data":"вакансия"},{"type":"hashtag","offset":10,"length":7,"data":"москва"},{"type":"hashtag","offset":18,"length":5,"data":"офис"},{"type":"hashtag","offset":24,"length":7,"data":"senior"},{"type":"hashtag","offset":32,"length":4,"data":"ios"},{"type":"hashtag","offset":37,"length":10,"data":"developer"},{"type":"hashtag","offset":48,"length":8,"data":"gamedev"},{"type":"hashtag","offset":57,"length":6,"data":"swift"},{"type":"link","offset":3248,"length":18,"data":"mailto:vika@adquantum.com"},{"type":"handle","offset":3277,"length":8,"data":"wikki13"}],"date":"2020-06-26T16:57:05+00:00","link":"tg://resolve?domain=mobile_jobs&post=68771","tags":[{"name":"mobile"},{"name":"ios"},{"name":"swift"},{"name":"realm"},{"name":"firebase"},{"name":"python"}],"cities":[{"code":"moscow"}],"allowsRemote":false}},{"node":{"__typename":"Job","id":"103850967040-1001089317451","title":"Qa инженер","text":"#remote #вакансия #удаленка #manual #qa\n\nВсем привет! ✌🏻\n\nКоманда Dostavista.global ищет в свои ряды талантливого QA Инженера 🤓\n\n💥Немного о нас💥\nDostavista основана в 2012 году. Аналог Uber в курьерской доставке. Курьеры работают через приложения для iOS и Android, доставляют десятки тысяч отправлений ежедневно. Достависта — крупнейшая в Европе служба доставки «день в день». Работаем в 10 странах (Россия, Южная Корея, Индия, Турция, Бразилия, Мексика, Индонезия, Вьетнам, Филиппины, Таиланд, Малайзия) под собственными локальными брендами.\n\n💥Твои задачи💥\n\n- Тестирование различных модулей системы (большинство из них не имеют пользовательского интерфейса);\n- Тестирование различных алгоритмов (маршрутизация, динамическое ценообразование, динамическое изменение видимости ордеров и т.д.);\n- Интеграционное тестирование;\n- Ведение тестовой документации: чек-листы, тест-кейсы, планы тестирования, отчеты об ошибках;\n- Подготовка тестовой среды и тестовых данных, разработка простейших инструментов для автоматизации этого процесса;\n- Анализ больших объемов данных (логи, MySQL, ClickHouse).\n\n\n💥Наши пожелания💥\n\n- Отличные аналитические навыки, уверенное знание SQL, желателен опыт работы с ClickHouse;\n- Умение работать с логами;\n- Базовые навыки программирования (умение самостоятельно писать простые автотесты на любом языке программирования).\n- Базовые навыки работы с Linux;\n- Уровень английского от intermediate и выше.\n\n💥Мы предлагаем💥\n\n- Удаленная работа;\n- Осенью откроется московский офис после ремонта, при желании можно будет работать там вместо удалёнки;\n - Офисы в 9 других странах, и туда тоже можно ездить работать;\n- Гибкий график, отпуска и болезни без бюрократии;\n- Неформальная обстановка внутри команды;\n- Полностью белая заработная плата, оформление по ТК;\n- Ежегодная индексация заработной платы;\n- Скидка на изучение английского в онлайн-школе Skyeng;\n- Оплата отпусков, больничных, курсов и конференций, корпоративная библиотека;\n- ДМС (включая стоматологию и массаж).\n\n💰По зарплате готовы обсуждать от 120 000 на руки и выше💰\n\nОткрыты к диалогу!\n\nПо всем вопросам пишите:\n@annfilimonova\nafi@dostavista.ru","markup":[{"type":"hashtag","offset":0,"length":7,"data":"remote"},{"type":"hashtag","offset":8,"length":9,"data":"вакансия"},{"type":"hashtag","offset":18,"length":9,"data":"удаленка"},{"type":"hashtag","offset":28,"length":7,"data":"manual"},{"type":"hashtag","offset":36,"length":3,"data":"qa"},{"type":"link","offset":67,"length":17,"data":"http://Dostavista.global"},{"type":"bold","offset":131,"length":15,"data":""},{"type":"bold","offset":549,"length":13,"data":""},{"type":"bold","offset":1102,"length":20,"data":""},{"type":"bold","offset":1439,"length":13,"data":""},{"type":"bold","offset":2009,"length":54,"data":""},{"type":"handle","offset":2112,"length":14,"data":"annfilimonova"},{"type":"link","offset":2127,"length":17,"data":"mailto:afi@dostavista.ru"}],"date":"2020-06-26T16:42:56+00:00","link":"tg://resolve?domain=qa_jobs&post=99040","tags":[{"name":"qa"},{"name":"ios"},{"name":"android"},{"name":"mysql"},{"name":"sql"},{"name":"linux"}],"cities":[{"code":"moscow"}],"allowsRemote":true}}]}}},"context":{}}