{"hash":"f34fd2c444a074f4e0e67d525015a008ef8e766f","data":{"records":{"totalCount":178,"pageInfo":{"totalPages":18,"currentPage":12},"edges":[{"node":{"id":"1957691392-1001134745498","title":"Devops инженер","text":"#вакансия #devops #remote\n\nГород: #Новосибирск\nформат работы: #удаленка #remote\nзанятость: #проектная #fulltime\nзарплатная вилка: 700-1000 рублей в час\n\nОписание вакансии:\n\nДобрый день!\n\nМеня зовут Матвей, менеджер проектов в компании The Invaders. Мы занимаемся заказной веб и мобильной разработкой для компаний по всему миру. Основная специализация компании это разработка Web и Mobile проектов, кроме того, в портфеле нашей компании работа с  блокчейн проектами на различных платформах (Waves, Ethereum, EOS, Corda, Hyperledger и тд.)  Наша команда разработки находится в Новосибирске, но у нас так же, на удаленной основе, работают разработчики с разных мест Земного шара.\n\nВ данный момент мы ищем колегу DevOps, который поможет нам периодически настраивать, разворачивать сервера, улучшит нашу ситуацию с CI/CD, покажет путь лучшей жизни с контейнеризацией\n\nЧем предстоит заниматься:\n\n1. Формирование Docker-образов, CI/CD сценариев\n2. Управления контейнеризованными рабочими нагрузками и сервисами (Kubernetes)\n3. Решение сетевых вопросов организации серверов\n4. Решение вопросов хранения данных\n5. Мониторинг систем, сбор, визуализация и анализ логов\n6. Взаимодействие с командой разработчиков и совместное решение задач\n\nТехнические скиллы:\n\n1.  Умение работать с Ansible\n2.  Опыт администрирования баз данных (PostgreSQL, Redis)\n3.  Опыт работы в качестве Инженера DevOps\n\nТехнологический стек:\n\n- Непосредственное взаимодействие и окружение\n\n  - Gitlab CI/CD\n  - Docker\n  - Ansible\n  - Ubuntu\n  - PostgreSQL\n  - Redis\n  - Rabbitmq\n  - Python\n  - Django\n  - Celery\n  - Nginx\n\nТак же будет очень хорошо:\n\n- Увлекаешься программированием\n- Сможешь рассказать о ревалентном опыте работы\n\nНазвание компании: The Invaders\n\nКонтакты: hr@theinvaders.pro @matteslip\n\n—\n\n👉 Обсуждение вакансии в чате @devops_jobs","markup":[{"type":"hashtag","offset":0,"length":9,"data":"вакансия"},{"type":"hashtag","offset":10,"length":7,"data":"devops"},{"type":"hashtag","offset":18,"length":7,"data":"remote"},{"type":"hashtag","offset":34,"length":12,"data":"Новосибирск"},{"type":"hashtag","offset":62,"length":9,"data":"удаленка"},{"type":"hashtag","offset":72,"length":7,"data":"remote"},{"type":"hashtag","offset":91,"length":10,"data":"проектная"},{"type":"hashtag","offset":102,"length":9,"data":"fulltime"},{"type":"link","offset":1737,"length":18,"data":"mailto:hr@theinvaders.pro"},{"type":"handle","offset":1756,"length":10,"data":"matteslip"},{"type":"handle","offset":1801,"length":12,"data":"devops_jobs"}],"date":"2020-04-02T06:34:20+00:00","link":"tg://resolve?domain=devops_jobs_feed&post=1867","tags":[{"name":"web"},{"name":"mobile"},{"name":"docker"},{"name":"kubernetes"},{"name":"ansible"},{"name":"postgresql"},{"name":"redis"},{"name":"gitlab"},{"name":"ubuntu"},{"name":"rabbitmq"},{"name":"python"},{"name":"django"},{"name":"nginx"}],"cities":[{"code":"novosibirsk"}],"allowsRemote":true}},{"node":{"id":"1954545664-1001134745498","title":"Devops engineer","text":"#вакансия #devops \nВакансия: DevOps Engineer\nГород: San Jose, Costa Rica\nФормат работы: удаленка\nЗанятость: полная\nЗарплата: 2000 EUR/месяц\n\nОбязанности\nПроектирование, построение, поддержка и развитие в эксплуатации:\n- высокодоступной инфраструктуры в рамках нескольких датацентров (на базе Kubernetes);\n- инструментов жизненного цикла проектов (Docker-образы, CI/CD сценарии, баг-трекеры, инструменты сборки);\n- систем распределенного мониторинга, логирования, трасcировки;\n- распределенных баз данных, файловых хранилищ, шин событий.\n\nТребования:\n- богатый опыт работы с контейнеризацией и Kubernetes (Docker, rkt, CRI), написания Helm-чартов;\n- богатый опыт администрирования Linux, написания shell-скриптов, работы с systemd;\n- умение работать с Ansible;\n- опыт администрирования баз данных (MySQL, PostgreSQL, Redis, Cassandra, ClickHouse, и т.д.);\n- опыт эксплуатации распределенных систем логирования, мониторинга, трассировки (Fluentd, Prometheus, ElasticSearch, Kibana, Grafana, Zipkin, и т.д.);\n- опыт работы с Grafana;\n- владение языками программирования (что-то из Python, Go, Rust, Java, PHP);\n- хорошее понимание фундаментальных основ PKI, DNS, TLS, SSH, OSI, Linux;\n- технический английский;\n- наличие широкого Интернет-канала и Skype.\n\nУсловия:\n- удаленная работа (не фриланс);\n- полная занятость;\n- зарплата 2000 EUR/мес.;\n- возможен переезд за границу.\n\nКанал нашей компании https://t.me/TRlogik\nРезюме присылайте сюда @trlogic\n\n—\n\n👉 Обсуждение вакансии в чате @devops_jobs","markup":[{"type":"hashtag","offset":0,"length":9,"data":"вакансия"},{"type":"hashtag","offset":10,"length":7,"data":"devops"},{"type":"link","offset":1394,"length":20,"data":"https://t.me/TRlogik"},{"type":"handle","offset":1438,"length":8,"data":"trlogic"},{"type":"handle","offset":1481,"length":12,"data":"devops_jobs"}],"date":"2020-04-01T20:19:12+00:00","link":"tg://resolve?domain=devops_jobs_feed&post=1864","tags":[{"name":"kubernetes"},{"name":"docker"},{"name":"linux"},{"name":"shell"},{"name":"ansible"},{"name":"mysql"},{"name":"postgresql"},{"name":"redis"},{"name":"cassandra"},{"name":"elasticsearch"},{"name":"python"},{"name":"rust"},{"name":"java"},{"name":"php"},{"name":"dns"},{"name":"ssh"}],"cities":[{"code":"san-jose"}],"allowsRemote":true}},{"node":{"id":"24239931392-1001075660570","title":"Php разработчик","text":"#вакансия #php \nВакансия: PHP-разработчик\nФормат работы: удаленка\nЗанятость: полная\nЗарплата: 1500 EUR/месяц\n\nВ IT компанию приглашается PHP-разработчик.\n\nОбязанности:\n- проектирование, разработка, тестирование и поддержка кода на PHP;\n- проектирование структур баз данных;\n- разработка модулей к существующим проектам;\n- улучшение существующего кода и решений;\n- поддержание целостности архитектуры проекта.\n\nТребования:\n- опыт работы PHP программистом более 1 года; \n- уверенное владение PHP, HTML, CSS, JavaScript, MySQL;\n- опыт и понимание принципов проектирования структур баз данных;\n- понимание принципов объектно-ориентированного дизайна программ;\n- умение использовать операционные системы типа *nix;\n- владение Git и понимание принципов Git Flow;\n- приветствуется понимание TDD, BDD, опыт автоматизированного тестирования;\n- приветствуется опыт работы с технологиями Memcached, Redis, RabbitMQ, MongoDB, Cassandra, Kafka;\n- приветствуется опыт работы с другими языками Python, Ruby, TypeScript, Go, Rust;\n- умение работать в команде, желание перенимать опыт коллег и делиться собственным опытом;\n- умение и желание докапываться до сути;\n- умение поддерживать порядок и быть педантом в вопросах качества;\n- умение читать и понимать техническую литературу на английском языке;\n- терпеливое отношение к чужому коду и к критике собственного;\n- наличие широкого Интернет-канала и настроенной программы Skype, позволяющих поддерживать качественную видеосвязь.\n\nУсловия и основные принципы:\n- удаленная работа (не фриланс);\n- полная занятость (5 дней в неделю, 8/6/4 часов в день по выбору);\n- ставка заработной платы 1500 EUR (8 часов), 1125 EUR (6 часов) или 750 EUR (4 часа) в месяц;\n- возможен переезд за границу.\n\nПодробности @trlogic","markup":[{"type":"hashtag","offset":0,"length":9,"data":"вакансия"},{"type":"hashtag","offset":10,"length":4,"data":"php"},{"type":"handle","offset":1734,"length":8,"data":"trlogic"}],"date":"2020-04-01T20:18:09+00:00","link":"tg://resolve?domain=php_jobs&post=23117","tags":[{"name":"php"},{"name":"html"},{"name":"css"},{"name":"javascript"},{"name":"mysql"},{"name":"git"},{"name":"redis"},{"name":"rabbitmq"},{"name":"mongodb"},{"name":"cassandra"},{"name":"kafka"},{"name":"python"},{"name":"ruby"},{"name":"typescript"},{"name":"rust"}],"cities":[],"allowsRemote":true}},{"node":{"id":"1953497088-1001134745498","title":"Devops инженер","text":"DevOps engineer\n#вакансия #DevOps #удаленно\nВакансия: DevOps engineer\nКомпания: Amazon \nГород: любой город \nФормат работы: #удаленно\nЗанятость: #полная\nЗарплата : обсуждаем, 180 - 300 тр\n\n  Обязательно: нужна сертификация AWS (amazon web services) + хороший английский. \n\nОпыт работы в среде Unix / Linux от 1 года, знание сценариев, настройки, настройки и устранения неисправностей параметров приложений и ОС.\n\nПРЕДПОЧТИТЕЛЬНЫЕ КВАЛИФИКАЦИИ\n· Сильные, объектно-ориентированные навыки проектирования и кодирования (желательно Python)\n· Знание внутренних компонентов операционной системы\n· Опыт работы с распределенными (многоуровневыми) системами, алгоритмами и реляционными базами данных.\n· Знание служб Active Directory, ADFS, SAML2, OIDC является плюсом.\n\nМы ищем квалифицированного инженера, чтобы присоединиться к нашей команде и иметь собственный инструментарий самообслуживания, который повышает производительность для команд разработчиков. Наш инструментарий включает в себя управление инфраструктурой в AWS, кодирование с использованием API-интерфейсов REST, управление собственной задолженностью и работа с заинтересованными сторонами по интеграции их приложений в нашу платформу.\n\n✍️ ЛС @veroni_kash\n\n—\n\n👉 Обсуждение вакансии в чате @devops_jobs","markup":[{"type":"hashtag","offset":16,"length":9,"data":"вакансия"},{"type":"hashtag","offset":26,"length":7,"data":"DevOps"},{"type":"hashtag","offset":34,"length":9,"data":"удаленно"},{"type":"hashtag","offset":123,"length":9,"data":"удаленно"},{"type":"hashtag","offset":144,"length":7,"data":"полная"},{"type":"handle","offset":1198,"length":12,"data":"veroni_kash"},{"type":"handle","offset":1245,"length":12,"data":"devops_jobs"}],"date":"2020-04-01T18:24:21+00:00","link":"tg://resolve?domain=devops_jobs_feed&post=1863","tags":[{"name":"amazon-web-services"},{"name":"web"},{"name":"unix"},{"name":"linux"},{"name":"python"},{"name":"rest"},{"name":"active-directory"}],"cities":[],"allowsRemote":true}},{"node":{"id":"1406140416-1001091028994","title":"Java разработчик","text":"Компания: #SimbirSoft\nЛокация: #Ульяновск, Казань, Самара, Димитровград, Саранск + возможен вариант удалённой работы\nЗ/п: 180-200 гросс\nКонтакты: @juli_simb\n+79271828496\nSenior Java-разработчик / AWS Dev\nТребуемый опыт работы: 3–6 лет\nПолная занятость, гибкий график\nУ нас не соскучишься! Поручим разработку разнообразных проектов, есть как разработка с нуля (выбор архитектуры и технологий за нами), так и доработка существующих решений. Внутренние конференции и доклады от ведущих разработчиков, на которых ты можешь узнать много нового\nУ нас есть офисы разработки в городах: Ульяновск, Казань, Самара, Саранск и Димитровград, а так же возможен дистанционный формат работы.\n\nПиши нам, если есть:\n●  опыт разработки на языке Java (не ранее 8 версии) не менее 2 лет, умение эффективно его использовать, знание особенностей, достоинств и недостатков;\n●  опыт разработки на Spring Framework;\n●  опыт работы с Java потоками включая ThreadPoolExecutor\n●  опыт разработки с AWS (Amazon Web Services) включая SQS, SNS, Kinesis Firehose, Terraform\n●  опыт применения языка SQL, умение писать и оптимизировать сложные запросы;\n●  опыт работы с Kafka\n●  понимание принципов работы ORM-фреймворков;\n●  понимание концепций OOP, методологий разработки и шаблонов проектирования.\n●  уровень английского от Upper - intermediate\nА если есть даже больше, то тем более пиши :)\n\nМы предлагаем:\n●  интересные высоконагруженные проекты;\n●  возможность работать на современных технологиях;\n●  возможность разрабатывать проекты с нуля;\n●  стабильную белоснежную заработную плату, размер зависит от квалификации и опыта;\n●  возможность профессионального развития - менторство, внутренние митапы, хакатоны, работа в одной команде с экспертами, сертификация за счет компании;\n●  постоянный обмен опытом между командами;\n●  гибкий график работы;\n●  возможность работать удаленно;\n●  оформление по ТК РФ.","markup":[{"type":"hashtag","offset":10,"length":11,"data":"SimbirSoft"},{"type":"hashtag","offset":31,"length":10,"data":"Ульяновск"},{"type":"handle","offset":146,"length":10,"data":"juli_simb"},{"type":"link","offset":157,"length":12,"data":"tel:+79271828496"}],"date":"2020-04-01T06:20:17+00:00","link":"tg://resolve?domain=jvmjobs&post=1341","tags":[{"name":"java"},{"name":"jvm"},{"name":"amazon-web-services"},{"name":"spring"},{"name":"web"},{"name":"sql"},{"name":"kafka"},{"name":"orm"}],"cities":[{"code":"ulyanovsk"},{"code":"kazan"},{"code":"samara"},{"code":"dimitrovgrad"},{"code":"saransk"}],"allowsRemote":true}},{"node":{"id":"1405091840-1001091028994","title":"Java разработчик","text":"Вакансия: #java #spring #hibernate \nКомпания: #MTS\nЛокация: #Санкт-Петербург #Горьковская\nФормат работы: #работавофисе + иногда возможно удаленно работать\n✔️ЗП: 140-180 net (в замисимости от знаний и опыта)\nКонтакт: @alina_katkova почта: avkatko2@mts.ru\n\nВ рамках реализации платформы по обеспечению контроля, наблюдаемости и безопасности API (API gateway) ищем в команду Java разработчика.\n\nЦель продукта — предоставить командам средство управления жизненным циклом API и контроль передаваемых данных в соответствии с требованиями безопасности.\nЧто нужно делать: \n- Заниматься разработкой компонентов обработки и управления трафиком HTTP/S (веб-сервисы);\n- Реализовывать правила управления жизненным циклом API (Rest/SOAP);\n- Участвовать в разработке архитектуры и согласовании сценариев использования продукта.\nНаш стек:\n- Spring (boot, MVC, JPA), Hibernate, Liquibase;\n- Java 8 - 11;\n- Java 8 (Collections, I/O);\n- Multithreading (synchronization, java.util.concurrent);\n- PostgreSQL;\n- RabbitMQ;\n- Hazelcast;\n- Netflix (eureka, zuul, microservices);\n- ElasticSearch;\n- Docker;\n- Kubernetes;Git;\n- Maven;\n- Linux.\nУсловия:\n-штат, все по ТК РФ\n-премия 20% от годового оклада сверху\n-соц.пакет\n-удаленка на время карантина :)","markup":[{"type":"hashtag","offset":10,"length":5,"data":"java"},{"type":"hashtag","offset":16,"length":7,"data":"spring"},{"type":"hashtag","offset":24,"length":10,"data":"hibernate"},{"type":"hashtag","offset":46,"length":4,"data":"MTS"},{"type":"hashtag","offset":60,"length":6,"data":"Санкт"},{"type":"hashtag","offset":77,"length":12,"data":"Горьковская"},{"type":"hashtag","offset":105,"length":13,"data":"работавофисе"},{"type":"handle","offset":216,"length":14,"data":"alina_katkova"},{"type":"link","offset":238,"length":15,"data":"mailto:avkatko2@mts.ru"},{"type":"bold","offset":546,"length":16,"data":""},{"type":"bold","offset":813,"length":10,"data":""},{"type":"bold","offset":1117,"length":7,"data":""}],"date":"2020-04-01T06:15:37+00:00","link":"tg://resolve?domain=jvmjobs&post=1340","tags":[{"name":"java"},{"name":"jvm"},{"name":"spring"},{"name":"hibernate"},{"name":"dotnet"},{"name":"rest"},{"name":"soap"},{"name":"jpa"},{"name":"postgresql"},{"name":"rabbitmq"},{"name":"elasticsearch"},{"name":"docker"},{"name":"kubernetes"},{"name":"git"},{"name":"maven"},{"name":"linux"},{"name":"spring-boot"}],"cities":[],"allowsRemote":true}},{"node":{"id":"1950351360-1001134745498","title":"Devops инженер","text":"#вакансия #DevOps #Москва #офис #Kafka  #RHEL\n🚀 Ищем инженера DevOps в финансовую компанию под задачи сопровождения CI/CD инфраструктуры. \n🎧 Все собеседования можно пройти по скайпу из-за карантина.\nГород: Москва, центр\n🏠 Формат работы: офис после карантина (сейчас, как и у всех, удалёнка).\nЗанятость: полная.\nГражданство: РФ, Беларусь, Казахстан.\n🔅 Зарплатная вилка: оклад от 160 до 170K рублей net, с премиями получается 210К net.\nОбласть ответственности:\n•  Установка нового ПО на сервера Linux \n•  Поддержка CI/CD, Jenkins,\n•  Мониторинг работы сервиса и серверов, снятие логов, оптимизация;\n•  Взаимодействие с командой разработчиков и совместное решение задач;\n•  Ведение технической документации по администрируемым сервисам и решениям. \n💎Требования:\n•  Знание и опыт работы с nix* подобными системами от 3 лет. Желательно, чтобы был опыт работы с RHEL.\n•  Опыт программирования: скриптинг под Linux + Python/Groovy/JAVA.\n•  Опыт работы с БД\n•  Умение делать настройки систем мониторинга.\n\nНазвание компании: КА \"Бизнес Крафт Консалт\" https://bcraft.ru/ \n📩 Контакты: \nemail: oksana@bcraft.ru Telegram: @oksanaalieva \nБуду рада ответить на уточняющие вопросы. Подробности о проекте вышлю в ЛС в ответ на присланное резюме\n\n—\n\n👉 Обсуждение вакансии в чате @devops_jobs","markup":[{"type":"hashtag","offset":0,"length":9,"data":"вакансия"},{"type":"hashtag","offset":10,"length":7,"data":"DevOps"},{"type":"hashtag","offset":18,"length":7,"data":"Москва"},{"type":"hashtag","offset":26,"length":5,"data":"офис"},{"type":"hashtag","offset":32,"length":6,"data":"Kafka"},{"type":"hashtag","offset":40,"length":5,"data":"RHEL"},{"type":"link","offset":1048,"length":18,"data":"https://bcraft.ru/"},{"type":"link","offset":1089,"length":16,"data":"mailto:oksana@bcraft.ru"},{"type":"handle","offset":1116,"length":13,"data":"oksanaalieva"},{"type":"handle","offset":1269,"length":12,"data":"devops_jobs"}],"date":"2020-03-31T18:08:40+00:00","link":"tg://resolve?domain=devops_jobs_feed&post=1860","tags":[{"name":"kafka"},{"name":"dotnet"},{"name":"linux"},{"name":"jenkins"},{"name":"python"},{"name":"groovy"},{"name":"java"}],"cities":[{"code":"moscow"}],"allowsRemote":true}},{"node":{"id":"1949302784-1001134745498","title":"Devops инженер","text":"#вакансия #devops  #мск #remote #fulltime  #linux\n\nСистемный администратор Linux\nГород: Москва\nФормат работы:   удаленка\nЗанятость: полный рабочий день\nОформление: официальное \nЗарплатная вилка:  120 000 - 150 000 nett\n\nВсем привет! Мы DocDoc — крупнейшая в России Digital Health платформа, которая начала свою работу в 2012 году. Сейчас DocDoc включает в себя сервис онлайн записи на прием к врачам, телемедицину, второе мнение, электронную медицинскую карту и другие продукты цифровой медицины. 25 мая 2017 года DocDoc вошел в состав группы компаний Сбербанк и продолжил свой быстрый рост и активное развитие. \n\nВ данный момент мы ищем  DevOps инженера, который сможет усилить нашу команду, покажет высокую скорость работы и качественный результат. Если тебе интересно разрабатывать и внедрять проекты по развитию инфраструктуры, то тебе к нам!\n\nЧто нужно делать:\nРаботать в команде опытных DevOps инженеров\nЦеленаправленно показывать скорость работы и качественный результат\nБыстро адаптироваться и принимать верные решения в стрессовых ситуациях\nРазрабатывать и внедрять проекты по развитию инфраструктуры\nАдминистрировать инфраструктуру\nОсуществлять мониторинг, находить узкие места в производительности систем\nРегулярно тестировать отказоустойчивость компонентов системы\nАвтоматизировать процессы\nСтроить, отлаживать и дополнять ci/cd процессы в компании\nПроводить review\n\n\nПозиция удаленная, на долгосрочное сотрудничество.  Трудоустройство официальное, зарплата вся белая. Есть система наставничества. График с 10 до 19 по мск, можно немного подвинуть. 5/2. Ссылка на подробное описание: https://hh.ru/vacancy/36501711\n\nКонтакты : \nАнна,  alapaeva@docdoc.ru\n\n—\n\n👉 Обсуждение вакансии в чате @devops_jobs","markup":[{"type":"hashtag","offset":0,"length":9,"data":"вакансия"},{"type":"hashtag","offset":10,"length":7,"data":"devops"},{"type":"hashtag","offset":19,"length":4,"data":"мск"},{"type":"hashtag","offset":24,"length":7,"data":"remote"},{"type":"hashtag","offset":32,"length":9,"data":"fulltime"},{"type":"hashtag","offset":43,"length":6,"data":"linux"},{"type":"link","offset":1596,"length":30,"data":"https://hh.ru/vacancy/36501711"},{"type":"link","offset":1647,"length":18,"data":"mailto:alapaeva@docdoc.ru"},{"type":"handle","offset":1700,"length":12,"data":"devops_jobs"}],"date":"2020-03-31T15:18:56+00:00","link":"tg://resolve?domain=devops_jobs_feed&post=1859","tags":[{"name":"linux"}],"cities":[{"code":"moscow"}],"allowsRemote":true}},{"node":{"id":"1948254208-1001134745498","title":"Devops инженер","text":"#вакансия #DevОps #Network\nГород и адрес офиса: #москва \nФормат работы: #удаленка\nЗанятость: #полная \nЗарплатная вилка: от 200 до 300 т.р. на руки\n\nFreedomFi строит частные LTE-сети с использованием commodity-оборудования, программного обеспечения с открытым исходным кодом и CBRS. Компания ищет опытных DevOps/Network инженеров для участия в проекте по разработке распределенной packet core сети с открытым исходным кодом под названием Magma. Нам предстоит совместная работа в тесном сотрудничестве с внешними контрибьюторами из таких организаций, как Facebook Connectivity, Eurocom, AmDocs, Rakuten.\nБез чего ты не сможешь работать у нас:\nАнглийский язык на разговорном уровне.\nМинимум 1 год опыта работы с Kubernetes (K8s), Docker.\nРасширенные знания в сетях LAN / WAN.\nОпыт Автоматизации от 2 лет (Bash, Ansible, Puppet, helm).\nЗнание архитектуры ОС Linux.\nХорошее понимание спецификации архитектуры 3GPP 5G SA, связанных компонентов и интерфейсов.\nПрактический опыт работы с протоколами стека 3GPP: HSS, AAA-Swx, Diameter, PCRF / PCEF, OCS, GGSN, Gx, Gy.\nWi-Fi AP, WAC, AGW, Радиусная аутентификация, Аутентификация, EAP-AKA, EAP-SIM \nЧто предстоит делать:\nРазвертывание и эксплуатация сред контейнеризации: K8s, Docker.\nРазработка Helm Charts и скриптов автоматизации для автоматического развертывания различных микросервисов в рамках проекта Magma (Access Gateway, Federation Gateway, Orchestrator и т. Д.) в облачной инфраструктуре на основе Kubernetes.\nУсловия: скидка на изучение английского языка, 3 дополнительных отгула в год, гибкое начало дня (до 9-10 вечера для общения с американским Заказчиком)\nКонтакт: @bystrova_ak\n\n—\n\n👉 Обсуждение вакансии в чате @devops_jobs","markup":[{"type":"hashtag","offset":0,"length":9,"data":"вакансия"},{"type":"hashtag","offset":10,"length":7,"data":"DevОps"},{"type":"hashtag","offset":18,"length":8,"data":"Network"},{"type":"hashtag","offset":48,"length":7,"data":"москва"},{"type":"hashtag","offset":72,"length":9,"data":"удаленка"},{"type":"hashtag","offset":93,"length":7,"data":"полная"},{"type":"handle","offset":1622,"length":12,"data":"bystrova_ak"},{"type":"handle","offset":1669,"length":12,"data":"devops_jobs"}],"date":"2020-03-31T15:18:32+00:00","link":"tg://resolve?domain=devops_jobs_feed&post=1858","tags":[{"name":"kubernetes"},{"name":"docker"},{"name":"bash"},{"name":"ansible"},{"name":"linux"},{"name":"ms-access"}],"cities":[{"code":"moscow"}],"allowsRemote":true}},{"node":{"id":"24184356864-1001075660570","title":"Php разработчик","text":"#вакансия #удаленно #php #symfony #junior\nРасположение: Санкт-Петербург\nФормат работы: удаленно\nЗанятость: полная\nЗп: от 20 до 50 т.р. на руки\n\nО компании: Мы питерская компания LandPro занимаемся помощью бизнесу в организации и ведении дел, ищем в команду 2 начинающих разработчиков, на полностью удаленную работу. \n\nНаш стек: php 7+, symfony 4.4, CSS/Js, jQuery\n\nТребования: \n- Наличие коммерческого опыта желательно но не обязательно\n- Железная сила воли (так как вы работает на удаленке)\n- Уверенное знание php \n- Понимание/Опыт работы с одним из фреймворков symfony/laravel/yii\n- Понимание/опыт работы с MySQL бд \n\nДля связи писать сюда: @elcorporation","markup":[{"type":"hashtag","offset":0,"length":9,"data":"вакансия"},{"type":"hashtag","offset":10,"length":9,"data":"удаленно"},{"type":"hashtag","offset":20,"length":4,"data":"php"},{"type":"hashtag","offset":25,"length":8,"data":"symfony"},{"type":"hashtag","offset":34,"length":7,"data":"junior"},{"type":"handle","offset":643,"length":14,"data":"elcorporation"}],"date":"2020-03-31T14:05:15+00:00","link":"tg://resolve?domain=php_jobs&post=23064","tags":[{"name":"php"},{"name":"symfony"},{"name":"css"},{"name":"jquery"},{"name":"laravel"},{"name":"yii"},{"name":"mysql"}],"cities":[],"allowsRemote":true}}]}},"context":{}}