{"hash":"f5f6bf98bd95e769321482904cbbd488f77922fd","data":{"records":{"id":"java","name":"java","belongsTo":{"totalCount":242,"pageInfo":{"totalPages":25,"currentPage":24},"edges":[{"node":{"__typename":"Job","id":"102821265408-1001089317451","title":"Qa engineer","text":"#вакансия #москва #полнаязанятость #qaengineer #auto #manual\nКомпания: #Mетрквадратный www.m2.ru\nЛокация: м.Белорусская \nФормат работы: офис (удаленная до сентября)  \nЗ/п: от 120к - 180к на руки\nКонтакты: @maxdmitrov\n\nЭто экосистема недвижимости, которая помогает клиентам решать любые жилищные вопросы: от поиска вариантов и оформления сделки до организации ремонта и переезда в новую квартиру. Мы также создаем решения для партнёров и профессиональных участников рынка недвижимости.\n\nНаш стэк:\n• Java\n • Node.js\n • React, TypeScript\n • Kafka, ElasticSearch, gRPC\n • Docker\n\nЧем предстоит заниматься:\n • анализировать и тестировать требования к разрабатываемым приложениям;\n • писать приемочные критерии к пользовательским историям;\n • проводить функциональное, регрессионное и smoke тестирование;\n • заниматься задачами по автоматизации тестирования.\n\nЧего мы ждем:\n • глубокое понимание процессов тестирования и разработки ПО;\n • опыт интеграционного тестирования:\n    - системная интеграция;\n    - компонентная интеграция\n • опыт тестирования АРI;\n • опыт автоматизации тестирования на любом стеке.\n\nБудет плюсом\n • опыт исследовательского тестирования;\n • опыт тестирования ПО с микросервисной архитектурой.\n\nМы предлагаем:\n • белая конкурентная ЗП, официальное оформление;\n • гибкий график работы;\n • ДМС, компенсация фитнеса, льготная ставка по ипотеке;\n • комфортный офис в БЦ «Белая площадь» (минута от метро): лаундж-зоны, бариста, фрукты.","markup":[{"type":"hashtag","offset":0,"length":9,"data":"вакансия"},{"type":"hashtag","offset":10,"length":7,"data":"москва"},{"type":"hashtag","offset":18,"length":16,"data":"полнаязанятость"},{"type":"hashtag","offset":35,"length":11,"data":"qaengineer"},{"type":"hashtag","offset":47,"length":5,"data":"auto"},{"type":"hashtag","offset":53,"length":7,"data":"manual"},{"type":"hashtag","offset":71,"length":15,"data":"Mетрквадратный"},{"type":"link","offset":87,"length":9,"data":"http://www.m2.ru"},{"type":"handle","offset":205,"length":11,"data":"maxdmitrov"},{"type":"bold","offset":485,"length":11,"data":""},{"type":"bold","offset":576,"length":26,"data":""},{"type":"bold","offset":853,"length":15,"data":""},{"type":"bold","offset":1103,"length":14,"data":""},{"type":"bold","offset":1212,"length":16,"data":""}],"date":"2020-06-15T07:59:01+00:00","link":"tg://resolve?domain=qa_jobs&post=0","tags":[{"name":"qa"},{"name":"java"},{"name":"nodejs"},{"name":"reactjs"},{"name":"typescript"},{"name":"kafka"},{"name":"elasticsearch"},{"name":"docker"}],"cities":[{"code":"moscow"}],"allowsRemote":true}},{"node":{"__typename":"Job","id":"71284293632-1001054966032","title":"Android разработчик","text":"#вакансия #android #remote #fulltime \nВакансия: android разработчик\nФормат работы: удаленно \nЗанятость: полная\nЗ/п: от 170 000 до 200 000 по результатам общения\nКомпания: https://poloniumarts.com/\nСфера деятельности: разработка ПО.\n\nНа один из новых проектов. Все с нуля. Никакого легаси. \n\nCтек: kotlin, RxJava, Firebase (Retrofit Glide Android Annotation) \n\nОсновные задачи\n▪️верстка экранов приложения\n▪️проработка Api и логика приложения\n▪️полная поддержка проекта\n\nТребования\n▪️опыт коммерческой разработки на Java и/или Kotlin от 1 года\n▪️опыт работы с Android SDK, Gradle, Layout Inspector, Linux\n▪️понимание принципов MVP и MVVM\n▪️понимание основных принципов работы с многопоточностью\n\nМы предлагаем\n▪️стабильную зарплату по результатам собеседования\n▪️оформление по ТК РФ\n▪️гибкий график работы\n▪️интересные, творческие задачи\n\nКонтакты: @Tragoman","markup":[{"type":"hashtag","offset":0,"length":9,"data":"вакансия"},{"type":"hashtag","offset":10,"length":8,"data":"android"},{"type":"hashtag","offset":19,"length":7,"data":"remote"},{"type":"hashtag","offset":27,"length":9,"data":"fulltime"},{"type":"bold","offset":38,"length":9,"data":""},{"type":"bold","offset":68,"length":13,"data":""},{"type":"bold","offset":93,"length":11,"data":""},{"type":"bold","offset":111,"length":5,"data":""},{"type":"bold","offset":161,"length":9,"data":""},{"type":"link","offset":171,"length":25,"data":"https://poloniumarts.com/"},{"type":"bold","offset":197,"length":19,"data":""},{"type":"bold","offset":360,"length":16,"data":""},{"type":"bold","offset":470,"length":11,"data":""},{"type":"bold","offset":695,"length":14,"data":""},{"type":"bold","offset":838,"length":9,"data":""},{"type":"handle","offset":848,"length":9,"data":"Tragoman"}],"date":"2020-06-15T07:25:26+00:00","link":"tg://resolve?domain=mobile_jobs&post=0","tags":[{"name":"mobile"},{"name":"android"},{"name":"kotlin"},{"name":"firebase"},{"name":"java"},{"name":"gradle"},{"name":"linux"},{"name":"mvvm"}],"cities":[],"allowsRemote":true}},{"node":{"__typename":"Job","id":"1678770176-1001091028994","title":"Java разработчик","text":"#вакансия #java #senior #middle\nКомпания: #сбербанктехнологии #сбертех\nЛокация: #москва\nЗП: 180-270 + премии\nКонтакты: @okashchenko, kashchenko.o.bor@sberbank.ru\n\nМы - современная инженерная компания, продолжаем расти и развиваться. Активно ищем Java разработчиков уровня middle и senior в связи с расширением команды для Образовательной платформы - SaaS решения для автоматизации обучения в средних школах. Разработка началась марте 2019, сейчас дорабатываем функционал и создаём фичи.\n\n  Требования:\n· Знание Java 8+ (хорошее знание core, collections), Spring IoC 4-5, от 2х лет\n· Системы сборки maven или gradle\n· Опыт использования jUnit/TestNG\n· БД: jdbc, SQL(лучше PostgresQL) на уровне написания средних запросов\n· VCS: опыт работы с git в команде\n· Опыт командной разработки\n\n  Очень желательно:\n· Умение работать с linux command line, писать минимальные bash-скрипты.\n· Понимание оптимизации SQL-запросов\n· Опыт разработки промышленных микросервисных приложений\n· Опыт работы со SpringBoot, MongoDB, Docker/Kubernetes\n\n  Наши условия:\n· Конкурентная «белая» заработная плата (оклад + премии)\n· Профессиональный и зарплатный рост\n· Интересные, сложные, амбициозные задачи, молодая и сильная команда профессионалов\n· Обучение за счет компании в Корпоративном университете\n· Льготная ипотека от Сбербанка, ДМС\n· Страхование от несчастных случаев\n· Тренажерный зал\n\nБуду рада обсудить вакансию и ответить на ваши вопросы!","markup":[{"type":"hashtag","offset":0,"length":9,"data":"вакансия"},{"type":"hashtag","offset":10,"length":5,"data":"java"},{"type":"hashtag","offset":16,"length":7,"data":"senior"},{"type":"hashtag","offset":24,"length":7,"data":"middle"},{"type":"hashtag","offset":42,"length":19,"data":"сбербанктехнологии"},{"type":"hashtag","offset":62,"length":8,"data":"сбертех"},{"type":"hashtag","offset":80,"length":7,"data":"москва"},{"type":"handle","offset":119,"length":12,"data":"okashchenko"},{"type":"link","offset":133,"length":28,"data":"mailto:kashchenko.o.bor@sberbank.ru"}],"date":"2020-06-15T07:12:16+00:00","link":"tg://resolve?domain=jvmjobs&post=1601","tags":[{"name":"java"},{"name":"jvm"},{"name":"spring"},{"name":"maven"},{"name":"gradle"},{"name":"junit"},{"name":"jdbc"},{"name":"sql"},{"name":"postgresql"},{"name":"git"},{"name":"linux"},{"name":"bash"},{"name":"mongodb"},{"name":"docker"},{"name":"kubernetes"}],"cities":[{"code":"moscow"}],"allowsRemote":false}},{"node":{"__typename":"Job","id":"1677721600-1001091028994","title":"Java developer","text":"#вакансия #java #remote  \nВакансия: Java developer \nКомпания: tracepharm.ru\nФормат работы: удалённо\nЗанятость: полная, частичная (от 30 часов в неделю) \nСтавка: от 1100 до 1300 р/ч\nКонтакты: @Tragoman\n\nОбязанности\n- развитие существующих и разработка новых микросервисов\n- интеграция с внешними системами через REST API\n- работа с СУБД PostgreSQL\n- написание, модификация и оптимизация хранимых процедур в БД\n\nТребования:\n- опыт разработки на JAVA от 2 лет\n- уверенные знания в многопоточности\n- хорошее знание SQL, знание PL/pgSQL или PL/SQL;\n- опыт работы с  Docker контейнерами\n\nНаш стек: от Java 8, PostgreSQL, Apache Camel, Camnda BPM, Spring Framework, Hibernate, ActiveMQ, Kafka, Redis, ELK, ОС Linux\n\nУсловия: \n- работа в распределенной команде\n- гибкий график (работаете в удобное для Вас время)\n- сотрудничаем с ИП\n\nСфера деятельности компании: разработка ПО для участников фармацевтического рынка.","markup":[{"type":"hashtag","offset":0,"length":9,"data":"вакансия"},{"type":"hashtag","offset":10,"length":5,"data":"java"},{"type":"hashtag","offset":16,"length":7,"data":"remote"},{"type":"bold","offset":26,"length":10,"data":""},{"type":"bold","offset":52,"length":9,"data":""},{"type":"link","offset":62,"length":13,"data":"http://tracepharm.ru"},{"type":"bold","offset":76,"length":14,"data":""},{"type":"bold","offset":100,"length":10,"data":""},{"type":"bold","offset":153,"length":7,"data":""},{"type":"bold","offset":181,"length":9,"data":""},{"type":"handle","offset":191,"length":9,"data":"Tragoman"},{"type":"bold","offset":202,"length":12,"data":""},{"type":"bold","offset":410,"length":12,"data":""},{"type":"bold","offset":582,"length":9,"data":""},{"type":"bold","offset":709,"length":10,"data":""},{"type":"bold","offset":826,"length":28,"data":""}],"date":"2020-06-15T06:47:29+00:00","link":"tg://resolve?domain=jvmjobs&post=1600","tags":[{"name":"java"},{"name":"jvm"},{"name":"rest"},{"name":"postgresql"},{"name":"sql"},{"name":"docker"},{"name":"apache"},{"name":"spring"},{"name":"hibernate"},{"name":"kafka"},{"name":"redis"},{"name":"linux"},{"name":"apache-camel"}],"cities":[],"allowsRemote":true}},{"node":{"__typename":"Job","id":"102802391040-1001089317451","title":"Qa инженер","text":"#вакансия #QA #Java #QAAutomation #Москва #офис \n\nВакансия: QA Lead (Тест-Менеджер)\nГород: Москва м. Технопарк \nЗарплата: от 220 000 рублей до 260 000 рублей на руки\nФормат: офис, полный день, полная занятость\nКомпания Innovative People \n\n🚀 Чем предстоит заниматься:\n• планирование тестирования;\n• выстраивание процессов тестирования среди 8 команд с упором на автоматизацию;\n• автоматизировать процессы разработки и тестирования;\n• выстраивать CI/CD проекта;\n• налаживание взаимодействия QA инженеров в нескольких командах;\n• поддерживать и развивать разработанные решения по автоматизации;\n• разрабатывать фреймворк автоматизации;\n• исследовать новые технологии и внедрять их на проекте;\n• подготовка метрик автоматизированных тестов;\n• принятие решений о внедрении / обновлении программного обеспечения.\n\n🚀 От кандидата ожидаем:\n• опыт в тестировании от 4х лет\n• опыт в автотестировании от 3х лет\n• опыт руководства группой тестировщиков от 2х лет\n• практический опыт применения практик тест-дизайна\n• умение проектировать тест-кейсы и подготавливать тестовые данные для тестирования\n• хорошие знание Java, библиотек\n• уверенное использование и понимание как работает под капотом Selenium Webdriver (Selenide и Appium для мобильных платформ)\n• опыт написания собственного фреймворка\n• опыт работы в unix системах\n• опыт работы с API (Soap, Rest)\n• опыт использование git\n• опыт использование CI (желательно, но не обязательно Jenkins)\n• опыт работы с Docker\n• опыт составления запросов SQL\n• опыт управления непрямыми (функциональными) подчиненными\n• умение контролировать несколько проектов одновременно\n• умение мотивировать команду, опыт управления рисками, мониторинг эффективности процессов\n\n🚀 Предлагаем:\n• все по ТК РФ\n• ДМС со стоматологией, программа лояльности\n• Macbook \n• адекватное руководство и лояльные процессы\n• большое комьюнити, классные команды\n• помогаем с релокацией!\n\nРезюме и вопросы @Priboch","markup":[{"type":"hashtag","offset":0,"length":9,"data":"вакансия"},{"type":"hashtag","offset":10,"length":3,"data":"QA"},{"type":"hashtag","offset":14,"length":5,"data":"Java"},{"type":"hashtag","offset":20,"length":13,"data":"QAAutomation"},{"type":"hashtag","offset":34,"length":7,"data":"Москва"},{"type":"hashtag","offset":42,"length":5,"data":"офис"},{"type":"handle","offset":1914,"length":8,"data":"Priboch"}],"date":"2020-06-15T04:41:09+00:00","link":"tg://resolve?domain=qa_jobs&post=0","tags":[{"name":"qa"},{"name":"java"},{"name":"selenium"},{"name":"unix"},{"name":"soap"},{"name":"rest"},{"name":"git"},{"name":"jenkins"},{"name":"docker"},{"name":"sql"}],"cities":[{"code":"moscow"}],"allowsRemote":false}},{"node":{"__typename":"Job","id":"71216136192-1001054966032","title":"Android разработчик","text":"#вакансия #android #relocate #germany\n\nAndroid Developer  \n\nРелокация:🇩🇪 Германия, Дюссельдорф\nФормат работы: офис\nЗанятость: полная\nЗ/п: брутто - от 36000€  до 50000€ в год\nнетто - от 1800€ в месяц - (в среднем 40% налогов для неженатого человека) \n\nВ общем:👌 Компания troido ищет Android разработчиков в свою команду, помогает с релокацией (трудоустройство по голубой карте), предоставляет идеальные условия для развития и работы (4 рабочих дня + 1 день для обучения), а также конкурентную, постоянно возрастающую заработную плату (компания оплачивает сертификаты - вы их получаете - зарплата возрастает). Важны хорошие знания английского и android-разработки.\n\nМы ждём от будущего сотрудника:🙃\n • От 2-х лет опыта работы с Android SDK и Java\n • Хорошее знание Kotlin и Git\n • Способность писать чистый и тестируемый код\n • Хорошее знание английского языка (Upper intermediate и выше)\n • Бонус: знание популярных фреймворков RxJava, Dagger2\n • Бонус: знание архитектурных паттернов  (MVC, MVP, or MVVM)\n • Наличие высшего образование (это условие для предоставления голубой карты)\n  \nКомпания предлагает:👍\n • Конкурентyую заработную плату и бонусы\n • 4-х дневную рабочую неделю \n • План персонального развития\n • Современное оборудование\n • Бесплатные книги\n • Конференции\n • Курсы немецкого языка для ассимиляции в немецком обществе\n • Общепринятые плюшки в мире айти (снэки, барбeкю, тимбилдинг и всё такое)\n\nЧем занимаемся:🥳\nКомпания является синергией аутсорсинговой компании, которая предоставляет разработчиков другим компаниям и продуктовой компании(имеются свои проекты над которыми также идет работа)\n\nПолезные видеоматериалы:🎬\n • О компании\n • О Дюссельдорфе\n • О Развитии в компании\n • О Тимбилдинге\n\nНе теряй свой шанс пиши сюда: @Giorgi_qvark","markup":[{"type":"hashtag","offset":0,"length":9,"data":"вакансия"},{"type":"hashtag","offset":10,"length":8,"data":"android"},{"type":"hashtag","offset":19,"length":9,"data":"relocate"},{"type":"hashtag","offset":29,"length":8,"data":"germany"},{"type":"bold","offset":39,"length":18,"data":""},{"type":"bold","offset":60,"length":10,"data":""},{"type":"bold","offset":97,"length":14,"data":""},{"type":"bold","offset":117,"length":9,"data":""},{"type":"bold","offset":135,"length":4,"data":""},{"type":"italic","offset":140,"length":60,"data":""},{"type":"bold","offset":253,"length":7,"data":""},{"type":"link","offset":273,"length":6,"data":"https://www.troido.de/en/"},{"type":"italic","offset":346,"length":32,"data":""},{"type":"italic","offset":436,"length":35,"data":""},{"type":"italic","offset":536,"length":72,"data":""},{"type":"bold","offset":632,"length":11,"data":""},{"type":"bold","offset":646,"length":51,"data":""},{"type":"italic","offset":864,"length":25,"data":""},{"type":"italic","offset":1041,"length":44,"data":""},{"type":"bold","offset":1090,"length":19,"data":""},{"type":"bold","offset":1418,"length":14,"data":""},{"type":"bold","offset":1619,"length":24,"data":""},{"type":"link","offset":1649,"length":11,"data":"https://1180390772.rsc.cdn77.org/troidorecruiting.m4v"},{"type":"link","offset":1663,"length":15,"data":"https://1180390772.rsc.cdn77.org/duesseldorf.mp4"},{"type":"link","offset":1681,"length":22,"data":"https://1180390772.rsc.cdn77.org/persdev.mp4"},{"type":"link","offset":1706,"length":15,"data":"https://1180390772.rsc.cdn77.org/teambuilding.mp4"},{"type":"handle","offset":1751,"length":13,"data":"Giorgi_qvark"}],"date":"2020-06-13T12:26:32+00:00","link":"tg://resolve?domain=mobile_jobs&post=0","tags":[{"name":"mobile"},{"name":"android"},{"name":"java"},{"name":"kotlin"},{"name":"git"},{"name":"mvvm"}],"cities":[],"allowsRemote":false}},{"node":{"__typename":"Job","id":"71194116096-1001054966032","title":"Android developer","text":"#вакансия #Android #Java #middle #офис #Москва\n📣Разыскиваем Middle Android developer в новый проект от Сбербанка.\n\n💵Уровень ЗП: 220К-310К net (в зависимости от типа оформления).\n\n📝Оформление: ИП или штат компании партнера.\n\n📍Локация: офис в г.Москва, Кутузовский проспект.\n\n🧑‍💻О проекте: Разработка чата и видеозвонка с целью реализовать единое рабочее место оператора для дополнительного канала обслуживания. С помощью чатов клиент сможет переписываться со своим дистанционным клиентским менеджером по премиальному каналу в МП СБОЛ, с возможностью передачи файлов. Видеозвонок позволит установить визуальный контакт клиентом со своим менеджером с возможностью показа презентаций. На базе удаленных каналов обслуживания планируется реализовать возможность удаленного предоставления клиенту всего спектра продуктов банка.\n\n🎯Наш стек: Java, ООП, потоки и синхронизация, SOLID, clean architecture, LinkedList и ArrayList, recyclerView, виды Layout, паттерны MVP, MMVM,unit tests, коллекции, жизненному циклу активити и фрагмента.\n\nЖду Ваши резюме и буду рада ответить на все вопросы☺️\nКонтакты для связи: telegram @anisimovaane4ka","markup":[{"type":"hashtag","offset":0,"length":9,"data":"вакансия"},{"type":"hashtag","offset":10,"length":8,"data":"Android"},{"type":"hashtag","offset":19,"length":5,"data":"Java"},{"type":"hashtag","offset":25,"length":7,"data":"middle"},{"type":"hashtag","offset":33,"length":5,"data":"офис"},{"type":"hashtag","offset":39,"length":7,"data":"Москва"},{"type":"handle","offset":1118,"length":16,"data":"anisimovaane4ka"}],"date":"2020-06-12T21:20:16+00:00","link":"tg://resolve?domain=mobile_jobs&post=0","tags":[{"name":"mobile"},{"name":"android"},{"name":"java"},{"name":"dotnet"}],"cities":[{"code":"moscow"}],"allowsRemote":true}},{"node":{"__typename":"Job","id":"71178387456-1001054966032","title":"Android разработчик","text":"#remote #вакансия #android #kotlin #java #fulltime #новосибирск #екатеринбург #нижний #новгород #нижнийновгород #пермь #уфа #ульяновск\nПозиция: Android Разработчик (удаленно)\nФормат работы: #удаленка\nЗанятость: полная\nЗарплатная вилка: от 80 000 руб. до 130 000 руб.\n\nОписание вакансии:\nМы ищем Android разработчика с опытом создания Android приложений от прототипа заказчика и до непосредственной публикации в Google Play.\n\nДанная позиция предполагает полную занятость (минимум 30 часовая рабочая неделя).\n\nРассматриваем Senior и Middle кандидатов.\n\nТребования:\n* опыт разработки Android приложений (ожидается, что кандидат продемонстрирует хотя бы 1 приложение в App Store, разработанного с его/ее участием)\n* знание Kotlin или Java\n* знание стандартных фреймворков и SDK\n* самое важное – умение и желание получать новые знания необходимые для работы\n\nБудет плюсом:\n* опыт работы с видео/фото\n* опыт работы с OpenGL\n* опыт работы с машинным обучением\n* опыт работы с C++\n* опыт работы с RESTful API\n* опыт контрибуции в Open Source (приложите ссылку на github, если есть на что посмотреть)\n\nНазвание компании: 4spaces\n\nКонтакты:\nВакансия – https://hh.ru/vacancy/37448182\nEmail – abalchunas@4spaces.company\nSkype – alexey.balchunas\nTelegram – https://t.me/AlexeyBalchunas","markup":[{"type":"hashtag","offset":0,"length":7,"data":"remote"},{"type":"hashtag","offset":8,"length":9,"data":"вакансия"},{"type":"hashtag","offset":18,"length":8,"data":"android"},{"type":"hashtag","offset":27,"length":7,"data":"kotlin"},{"type":"hashtag","offset":35,"length":5,"data":"java"},{"type":"hashtag","offset":41,"length":9,"data":"fulltime"},{"type":"hashtag","offset":51,"length":12,"data":"новосибирск"},{"type":"hashtag","offset":64,"length":13,"data":"екатеринбург"},{"type":"hashtag","offset":78,"length":7,"data":"нижний"},{"type":"hashtag","offset":86,"length":9,"data":"новгород"},{"type":"hashtag","offset":96,"length":15,"data":"нижнийновгород"},{"type":"hashtag","offset":112,"length":6,"data":"пермь"},{"type":"hashtag","offset":119,"length":4,"data":"уфа"},{"type":"hashtag","offset":124,"length":10,"data":"ульяновск"},{"type":"hashtag","offset":190,"length":9,"data":"удаленка"},{"type":"link","offset":1142,"length":30,"data":"https://hh.ru/vacancy/37448182"},{"type":"link","offset":1181,"length":26,"data":"http://abalchunas@4spaces.company"},{"type":"link","offset":1244,"length":28,"data":"https://t.me/AlexeyBalchunas"}],"date":"2020-06-12T13:32:37+00:00","link":"tg://resolve?domain=mobile_jobs&post=0","tags":[{"name":"mobile"},{"name":"android"},{"name":"kotlin"},{"name":"java"},{"name":"playframework"},{"name":"opengl"},{"name":"github"}],"cities":[{"code":"novosibirsk"},{"code":"perm"},{"code":"ufa"},{"code":"ulyanovsk"},{"code":"nizhny-novgorod"}],"allowsRemote":true}},{"node":{"__typename":"Job","id":"102713262080-1001089317451","title":"Qa engineer","text":"#vacancy #fulltime #relocate #вакансия  #работаQA \n\nQA Engineer - relocation to Germany -  company Excelsior \n\nThe role: testing web and mobile applications in the banking area.\n\nWhat you should have:\n\n📍BS degree (it's a must-have for getting a work permit).\n📍3+ years of experience in testing web and mobile applications.\n📍Experience with UI Automation.\n📍Selenium, Appium and Kotlin/Java skills.\n📍Knowledge of SDLC.\n📍Upper-Intermediate English and willing to learn German.\n\nCompany offers:\n\n✅Good salary - 2600 EUR/month - and bonus system .\n✅Relocation Support.\n✅Temporary apartment for the first 3 months.\n✅Tickets compensation.\n✅Official employment and medical insurance.\n✅Drinks and snacks at the office.\n\nPlease send any expressions of interest/CV's to \ne: nadiia@skillers.tech\ns: tixayaya\nt: @nadia_tykha","markup":[{"type":"hashtag","offset":0,"length":8,"data":"vacancy"},{"type":"hashtag","offset":9,"length":9,"data":"fulltime"},{"type":"hashtag","offset":19,"length":9,"data":"relocate"},{"type":"hashtag","offset":29,"length":9,"data":"вакансия"},{"type":"hashtag","offset":40,"length":9,"data":"работаQA"},{"type":"bold","offset":66,"length":21,"data":""},{"type":"bold","offset":99,"length":9,"data":""},{"type":"italic","offset":111,"length":10,"data":""},{"type":"italic","offset":179,"length":23,"data":""},{"type":"italic","offset":296,"length":27,"data":""},{"type":"italic","offset":481,"length":17,"data":""},{"type":"link","offset":769,"length":20,"data":"mailto:nadiia@skillers.tech"},{"type":"handle","offset":805,"length":12,"data":"nadia_tykha"}],"date":"2020-06-12T12:08:21+00:00","link":"tg://resolve?domain=qa_jobs&post=0","tags":[{"name":"qa"},{"name":"web"},{"name":"mobile"},{"name":"selenium"},{"name":"kotlin"},{"name":"java"}],"cities":[],"allowsRemote":false}},{"node":{"__typename":"Job","id":"71168950272-1001054966032","title":"Android разработчик","text":"#вакансия #android #java #kotlin #middle #senior #удаленка #remote #fulltime\n\nAndroid-разработчик удаленно от 200 тыс. руб.\n\nГород: Москва\nФормат работы: удаленно\nЗанятость: полная\nЗарплатная вилка: от 200 000 руб. до 250 000 руб. после налогообложения\nКомпания: CORE https://core.company\n\nМы команда разработчиков мобильных приложений и сейчас мы ищем Android-разработчика для одного из наших финтех-проектов.\n\nОсновные требования:\n— Опыт работы от 2-х лет;\n— Знание Java и Kotlin;\n— Опыт работы с Rx;\n— Знание шаблонов проектирования и умение их применять;\n— Понимание принципов SOLID;\n— Знание основных алгоритмов и структур данных;\n— Умение писать поддерживаемый и тестируемый код.\n\nУсловия:\n— Полный день, гибкий график;\n— Оформление по договору ГПХ.\n\nПрисылайте ваше резюме на @tv_corecompany","markup":[{"type":"hashtag","offset":0,"length":9,"data":"вакансия"},{"type":"hashtag","offset":10,"length":8,"data":"android"},{"type":"hashtag","offset":19,"length":5,"data":"java"},{"type":"hashtag","offset":25,"length":7,"data":"kotlin"},{"type":"hashtag","offset":33,"length":7,"data":"middle"},{"type":"hashtag","offset":41,"length":7,"data":"senior"},{"type":"hashtag","offset":49,"length":9,"data":"удаленка"},{"type":"hashtag","offset":59,"length":7,"data":"remote"},{"type":"hashtag","offset":67,"length":9,"data":"fulltime"},{"type":"link","offset":268,"length":20,"data":"https://core.company"},{"type":"handle","offset":783,"length":15,"data":"tv_corecompany"}],"date":"2020-06-12T11:36:40+00:00","link":"tg://resolve?domain=mobile_jobs&post=0","tags":[{"name":"mobile"},{"name":"android"},{"name":"java"},{"name":"kotlin"}],"cities":[{"code":"moscow"}],"allowsRemote":true}}]}}},"context":{}}