{"hash":"f34fd2c444a074f4e0e67d525015a008ef8e766f","data":{"records":{"id":"jvm","name":"jvm","belongsTo":{"totalCount":62,"pageInfo":{"totalPages":7,"currentPage":6},"edges":[{"node":{"__typename":"Job","id":"1382023168-1001091028994","title":"Java developer","text":"#вакансия #москва #офис #fulltime #scala #middle #senior\nГород и адрес офиса: Москва (м.Войковская)\nФормат работы: офис \nЗанятость: полная\nЗарплатная вилка: до 350к net\n\nВ международный венчурный фонд разыскивается scala developer. Проект - платформа для сбора и анализа данных для отслеживания быстрорастущих европейских и американских стартапов на ранней стадии.\n\nЗадачи:\n- краулинг профессиональных источников информации о стартапах\n- разработка системы хранения данных и отображения сигналов для команды инвест аналитиков\n- вспомогательные сервисы с ML\n\nТребования:\n- опыт разработки на scala от 2-х лет, в том числе функциональное программирование\n- опыт с PostgreSQL\n\nБудет плюсом:\n- опыт с ML\n\nМы предлагаем:\n- оформление по ТК РФ\n- достойный уровень з/п с перспективой роста\n- офис м. Войковская\n- крутой международный проект с хорошим финансированием\n\nЗа подробностями —-> @nat_kirisova","markup":[{"type":"hashtag","offset":0,"length":9,"data":"вакансия"},{"type":"hashtag","offset":10,"length":7,"data":"москва"},{"type":"hashtag","offset":18,"length":5,"data":"офис"},{"type":"hashtag","offset":24,"length":9,"data":"fulltime"},{"type":"hashtag","offset":34,"length":6,"data":"scala"},{"type":"hashtag","offset":41,"length":7,"data":"middle"},{"type":"hashtag","offset":49,"length":7,"data":"senior"},{"type":"handle","offset":882,"length":13,"data":"nat_kirisova"}],"date":"2020-03-25T07:08:54+00:00","link":"tg://resolve?domain=jvmjobs&post=1318","tags":[{"name":"java"},{"name":"jvm"},{"name":"scala"},{"name":"dotnet"},{"name":"postgresql"}],"cities":[{"code":"moscow"}],"allowsRemote":false}},{"node":{"__typename":"Job","id":"1379926016-1001091028994","title":"Java developer","text":"#team #lead #java #developer\nкомпания:#сбербанк\nлокация: #ростовнадону #рнд\nЗ/п: 160- 220 к. \nконтакты: @Natalyatur\n\n\nМы ожидаем, что Вы: \n· Имееете опыт разработки в Java.\n· Умение проектировать сложные решения для отказоустойчивых и высоконагруженных систем.\n· Умение управлять группой разработки.\n· Глубокие знания в Collections API, Stream API, Fork/Join Framework, Reflection API и Java Generics.· Глубокие знания в Spring Boot, Spring Data, Spring Jpa, Spring Security.\n· Глубокие знание SQL.\n· Знание REST-сервисов\n· Написание кода с поддержкой unit-тестов.\n· Знание GIT\n\nВам предстоит: \n· Выполнять задачи по разработке.\n· Обеспечивать оптимальный процесс взаимодействия внутри команды и со смежными подразделениями.\n· Выполнять планирование спринтов и следить за ходом выполнения.\n· Управлять группой разработки.\n· Проектировать техническую архитектуру решений.\n· Управлять архитектурой проекта.\n· Выполнение code review.\n· Развивать «младших» коллег и обучать новых членов команды.\n· Участвовать в приемочных испытаниях и проводить встречи с заказчиком на техническом уровне.\n· Разрабатывать техническую документацию.\n\nРабота у нас — это:\n\n• Команда профессионалов, готовых поддержать ваши инициативы;\n• Мощное железо, дополнительные мониторы и всё, что нужно для продуктивной работы;\n• Возможность работы с новыми технологиями;\n• Обучение за счёт компании;\n• ДМС;\n• Прозрачная система бонусов и премий, достойная зарплата — размер обсудим на собеседовании","markup":[{"type":"hashtag","offset":0,"length":5,"data":"team"},{"type":"hashtag","offset":6,"length":5,"data":"lead"},{"type":"hashtag","offset":12,"length":5,"data":"java"},{"type":"hashtag","offset":18,"length":10,"data":"developer"},{"type":"hashtag","offset":38,"length":9,"data":"сбербанк"},{"type":"hashtag","offset":57,"length":13,"data":"ростовнадону"},{"type":"hashtag","offset":71,"length":4,"data":"рнд"},{"type":"handle","offset":104,"length":11,"data":"Natalyatur"}],"date":"2020-03-24T12:19:16+00:00","link":"tg://resolve?domain=jvmjobs&post=1316","tags":[{"name":"java"},{"name":"jvm"},{"name":"spring"},{"name":"jpa"},{"name":"sql"},{"name":"rest"},{"name":"git"},{"name":"spring-boot"},{"name":"spring-data"},{"name":"spring-security"}],"cities":[],"allowsRemote":false}},{"node":{"__typename":"Job","id":"1378877440-1001091028994","title":"Java developer","text":"#вакансия #backend #javadeveloper #java #spb\nЛокация: Санкт-Петербург, станция метро Петроградская\nЗанятость: полная/ офис / гибкое начало рабочего дня\nЗарплата: от 180 000 net\nКомпания: ТетраСофт\nКонтакты: @dproto (Telegram), darya.protopopova@tetra-soft.ru\n\nКомпания ТетраСофт разрабатывает крутые информационные системы для сопровождения строительства нефтяных и газовых скважин (удаленный мониторинг различных параметров, аналитика на основе полученных данных, сбор и формирование отчётов).\nВ данный момент мы разрабатываем новый функционал платформы (SSO + modules).\nДля этого мы хотим усилить команду и приглашаем вас стать её частью.\n\nТехнологический стек разработки:\nJava 8, Spring, Hibernate, Elasticsearch, NATS, JUnit, MySQL, OAuth 2.0.\n\nЧто нужно будет делать:\n• Реализовывать алгоритмы работы с данными\n• Прорабатывать функциональные блоки бекенд части от проектирования до реализации\n• Участвовать в code review\n• Проектировать API\n\nЖдем от вас:\n• Опыт коммерческой разработки от 3-х лет\n• Хорошее знание Java core\n• Spring Boot (Security, MVC, REST Docs)\n• Hibernate 4+\n• Знание какого-либо SQL сервера\n• Знание алгоритмов и структур данных\n• Умение писать junit тесты\n• Понимание уязвимостей от OWASP Top 10\n• Умение работать с системой контроля версия (git)\n• Знание минимум одной системы сборки (ant, maven, gradle)\n\nБудет плюсом:\n• NoSQL\n• Docker\n• Знание коммуникационных протоколов (в том числе промышленных)\n• Опыт работы в Linux системах\n• Elasticsearch\n• Опыт работы с message broker\n• Знание других языков программирования\n• Понимание SOLID-принципов\n\nОт нас:\n• Гибкое начало рабочего дня (с 9:00 до 11:00);\n• Интересные проекты с возможностью карьерного роста;\n• Ежегодная премия по итогам работы;\n• Ежегодный пересмотр заработной платы по результатам работы;\n• ДМС после успешного прохождение ИС (включая стоматологию);\n• Компенсация питания;\n• Бесплатные курсы английского языка на территории офиса;\n• Возможность профильного обучения за счёт компании (оплата конференций, курсов);\n• Кикер, настолки, турник, XBox, корпоративные мероприятия;\n• Корпоративный волейбол на песке;\n• Иногородним соискателям помощь в релокации.","markup":[{"type":"hashtag","offset":0,"length":9,"data":"вакансия"},{"type":"hashtag","offset":10,"length":8,"data":"backend"},{"type":"hashtag","offset":19,"length":14,"data":"javadeveloper"},{"type":"hashtag","offset":34,"length":5,"data":"java"},{"type":"hashtag","offset":40,"length":4,"data":"spb"},{"type":"bold","offset":45,"length":8,"data":""},{"type":"bold","offset":99,"length":10,"data":""},{"type":"bold","offset":152,"length":9,"data":""},{"type":"bold","offset":177,"length":9,"data":""},{"type":"bold","offset":197,"length":9,"data":""},{"type":"handle","offset":207,"length":7,"data":"dproto"},{"type":"link","offset":227,"length":31,"data":"mailto:darya.protopopova@tetra-soft.ru"},{"type":"bold","offset":642,"length":31,"data":""},{"type":"bold","offset":749,"length":23,"data":""},{"type":"bold","offset":947,"length":12,"data":""},{"type":"bold","offset":1335,"length":13,"data":""},{"type":"bold","offset":1577,"length":7,"data":""}],"date":"2020-03-24T10:39:20+00:00","link":"tg://resolve?domain=jvmjobs&post=1315","tags":[{"name":"java"},{"name":"jvm"},{"name":"dotnet"},{"name":"spring"},{"name":"hibernate"},{"name":"elasticsearch"},{"name":"junit"},{"name":"mysql"},{"name":"oauth"},{"name":"rest"},{"name":"sql"},{"name":"git"},{"name":"ant"},{"name":"maven"},{"name":"gradle"},{"name":"nosql"},{"name":"docker"},{"name":"linux"},{"name":"spring-boot"}],"cities":[],"allowsRemote":true}},{"node":{"__typename":"Job","id":"1377828864-1001091028994","title":"Java разработчик","text":"Вакансия: #java #spring #hibernate \nКонцепция: #IoT\nКомпания: #MTS\nЛокация: #Москва #Комсомольская #Красныеворота\nФормат работы: #работавофисе + иногда возможно удаленно работать\nЗП: 150-200 net (в замисимости от знаний и опыта)\nКонтакт: @alina_katkova почта: avkatko2@mts.ru\n\nВ команду IoT, трайба отраслевых решений требуется java-разработчик. Трайб отраслевых решений – направление внутри МТС, которое осуществляет разработку полного цикла инновационных продуктов в B2B и B2C сегментах. Основное направление – инновационные продукты в сфере интернета вещей, медицины, видео аналитики.\n\nЧто нужно делать: \n-участвовать в командной работе над решениями;\n-принимать участие в code-review;\n-участвовать в принятии архитектурных и технических решений;\n-писать качественный код;\nНаш стек:\n-Java1.8+;\n-Spring: Spring Security, Spring Data, Spring Boot и т.д.;\n-Реляционные базы (в основном Postgres) и NoSQL (InfluxDB, Mongo);\n-Restful-сервисы, JSON, клиент-серверное взаимодействие;\n-ORM Hibernate;\n-MQ: RabbitMQ.\nУсловия:\n-штат, все по ТК РФ\n-премия 20% от годового оклада сверху\n-соц.пакет\n-удаленка на время карантина :)","markup":[{"type":"hashtag","offset":10,"length":5,"data":"java"},{"type":"hashtag","offset":16,"length":7,"data":"spring"},{"type":"hashtag","offset":24,"length":10,"data":"hibernate"},{"type":"hashtag","offset":47,"length":4,"data":"IoT"},{"type":"hashtag","offset":62,"length":4,"data":"MTS"},{"type":"hashtag","offset":76,"length":7,"data":"Москва"},{"type":"hashtag","offset":84,"length":14,"data":"Комсомольская"},{"type":"hashtag","offset":99,"length":14,"data":"Красныеворота"},{"type":"hashtag","offset":129,"length":13,"data":"работавофисе"},{"type":"handle","offset":238,"length":14,"data":"alina_katkova"},{"type":"link","offset":260,"length":15,"data":"mailto:avkatko2@mts.ru"},{"type":"bold","offset":589,"length":18,"data":""},{"type":"bold","offset":776,"length":9,"data":""},{"type":"bold","offset":1011,"length":8,"data":""}],"date":"2020-03-24T09:58:43+00:00","link":"tg://resolve?domain=jvmjobs&post=1314","tags":[{"name":"java"},{"name":"jvm"},{"name":"spring"},{"name":"hibernate"},{"name":"dotnet"},{"name":"postgresql"},{"name":"nosql"},{"name":"json"},{"name":"orm"},{"name":"rabbitmq"},{"name":"spring-security"},{"name":"spring-data"},{"name":"spring-boot"}],"cities":[{"code":"moscow"}],"allowsRemote":true}},{"node":{"__typename":"Job","id":"1376780288-1001091028994","title":"Java разработчик","text":"Вакансия: #Middle #Java #SQL #Spring #JavaCore\nКомпания: #Rubbles\nЛокация: #Москва #МСК #Moscow\nЗ/П: 180-200кР NET\nКонтакты: @Julia_Nikolova\n\nВедущая российская IT-компания, занимающаяся разработкой решений для крупного бизнеса. Офисы в России и по всей Европе\n\nОпыт разработки на Java от 2х лет\n\nОбязанности:\n· Проектирование и написание кода\n· Участие в разработке продуктов, и в новых проектах\n· Устранение критических ошибок в системах\n\nТребования\n· Опыт работы со Spring стеком (Spring Boot, Spring Data, Spring MVC)\n· Уверенное знание Java Core\n· Умение работать с любой SQL базой данных\n\nУсловия: \n- Регулярные пересмотры заработной платы\n- Уютный офис в центре Москвы (кикер, пинг-понг, разные вкусности)\n- ДМС\n- Корпоративное обучение","markup":[{"type":"hashtag","offset":10,"length":7,"data":"Middle"},{"type":"hashtag","offset":18,"length":5,"data":"Java"},{"type":"hashtag","offset":24,"length":4,"data":"SQL"},{"type":"hashtag","offset":29,"length":7,"data":"Spring"},{"type":"hashtag","offset":37,"length":9,"data":"JavaCore"},{"type":"hashtag","offset":57,"length":8,"data":"Rubbles"},{"type":"hashtag","offset":75,"length":7,"data":"Москва"},{"type":"hashtag","offset":83,"length":4,"data":"МСК"},{"type":"hashtag","offset":88,"length":7,"data":"Moscow"},{"type":"handle","offset":125,"length":15,"data":"Julia_Nikolova"}],"date":"2020-03-24T09:40:32+00:00","link":"tg://resolve?domain=jvmjobs&post=1313","tags":[{"name":"java"},{"name":"jvm"},{"name":"sql"},{"name":"spring"},{"name":"dotnet"},{"name":"spring-boot"},{"name":"spring-data"},{"name":"spring-mvc"}],"cities":[{"code":"moscow"}],"allowsRemote":false}},{"node":{"__typename":"Job","id":"1375731712-1001091028994","title":"Java разработчик","text":"#Москва #java #еса #senior #middle\nГород и адрес офиса: Москва, м. Тульская, Новоданиловская наб, д.10\nФормат работы: офис (хотя в связи с последними событиями может быть и удалённо :)\nЗанятость: фулл тайм\nЗарплатная вилка: 150к-300к (в зависимости от навыков и знаний)\n\nЕдиный сервис аутентификации - это система, которая принимает решение о допуске клиентов через различные каналы обслуживания (веб, мобильное приложение, банкомат) к сервисам экосистемы Сбербанка. Система является высоконагруженной, так как одновременно может обслуживать более 10к операций в секунду.\n\nЗадачи:\n • разработка back-end web-приложения; \n • участие разработки архитектуры продукта;\n • участие в code review. \n\nОбязательно:\n· Опыт работы с Java от 2ух лет (хорошее знание core, Collections, jdbc, IO, Exceptions)\n· Опыт работы с системами сборки: maven или gradle\n· Опыт работы с БД, знание языка запросов SQL\n· Знакомство с ORM Hibernate\n\nБудет плюсом:\n· понимание многопоточности в Java;\n· знакомство со Spring Framework\n\nБонусы: \n • гибкое начало дня, отсутствие микроменеджмента и дресс-кода\n • отличная атмосфера в команде, способность слышать мнение каждого\n • современное железо (можно выбрать ноут MacOS или Windows) \n • возможность сменить проект\n • ДМС, спортзал, корпоративные мероприятия\n\nКонтакт: @hralexandra 📲","markup":[{"type":"hashtag","offset":0,"length":7,"data":"Москва"},{"type":"hashtag","offset":8,"length":5,"data":"java"},{"type":"hashtag","offset":14,"length":4,"data":"еса"},{"type":"hashtag","offset":19,"length":7,"data":"senior"},{"type":"hashtag","offset":27,"length":7,"data":"middle"},{"type":"handle","offset":1292,"length":12,"data":"hralexandra"}],"date":"2020-03-24T07:57:32+00:00","link":"tg://resolve?domain=jvmjobs&post=1312","tags":[{"name":"java"},{"name":"jvm"},{"name":"web"},{"name":"jdbc"},{"name":"maven"},{"name":"gradle"},{"name":"sql"},{"name":"orm"},{"name":"hibernate"},{"name":"spring"},{"name":"macos"},{"name":"windows"}],"cities":[{"code":"moscow"}],"allowsRemote":true}},{"node":{"__typename":"Job","id":"1374683136-1001091028994","title":"Java разработчик","text":"#fulltime #офис\n#backend #Москва\n#высоконагруженные_сервисы\n#вакансия\n#Middle_Java_dev\nвилка для middle от 180 net (и выше зависит от уровня)\n\nпозиция Middle Java dev\nО проекте:\n•Высоконагруженные сервисы\n•Разработка виртуальной мобильной связи\nЗадачи:\nРазработка нового backend функционала;\nСтек:\n • Java Core (Collection, NIO, Multithreading)  \n • Java SE (Spring), Java EE; Java 8 (Concurrency, NIO, Spring);\n • JDBC БД (Oracle);\n • Опыт работы JSON, XML, RESTful API, HTTP, SOAP, MQ; \n • Linux\nМЫ ПРЕДЛАГАЕМ:\n •  Сильная команда разработчиков\n •  Официальное оформление (ДМС, английский, спорт)\n •  Офис в центре Москвы\n •  Профессиональное развитие и участие в разработке серьезного продукта.\n\n\nКонтакты: @BetterCallOl","markup":[{"type":"hashtag","offset":0,"length":9,"data":"fulltime"},{"type":"hashtag","offset":10,"length":5,"data":"офис"},{"type":"hashtag","offset":16,"length":8,"data":"backend"},{"type":"hashtag","offset":25,"length":7,"data":"Москва"},{"type":"hashtag","offset":33,"length":26,"data":"высоконагруженные_сервисы"},{"type":"hashtag","offset":60,"length":9,"data":"вакансия"},{"type":"hashtag","offset":70,"length":16,"data":"Middle_Java_dev"},{"type":"bold","offset":167,"length":10,"data":""},{"type":"bold","offset":245,"length":7,"data":""},{"type":"bold","offset":292,"length":6,"data":""},{"type":"bold","offset":498,"length":14,"data":""},{"type":"handle","offset":710,"length":13,"data":"BetterCallOl"}],"date":"2020-03-24T07:51:42+00:00","link":"tg://resolve?domain=jvmjobs&post=1311","tags":[{"name":"java"},{"name":"jvm"},{"name":"dotnet"},{"name":"spring"},{"name":"jdbc"},{"name":"oracle"},{"name":"json"},{"name":"xml"},{"name":"soap"},{"name":"linux"}],"cities":[{"code":"moscow"}],"allowsRemote":false}},{"node":{"__typename":"Job","id":"1373634560-1001091028994","title":"Java разработчик","text":"Вакансия: #java #spring #JPA #JEE7 #JSF #Apache #CXF #JUnit\nКомпания: #DigitalZone \nЛокация: #удаленнаяработа\nЗ/п: ставка 1200 руб/час\nКонтакты: @JuliaVlad\n\nКомпания Digital Zone — разработчик информационных систем полного цикла. \n\n‼️Сейчас мы ищем сильного Java специалиста для одного из ведущих поставщиков электронных платежных систем для мировой финансовой индустрии. Продукт - система SmartVista представляет собой единую технологическую платформу для процессинга пластиковых карт, обработки электронных платежей и поддержки операций розничного бизнеса.\n\nНеобходимо будет:\n🔹Разработка серверной и клиентской части приложений на Java с использованием технологий: Java, Spring, JPA, JEE7, JSF, Apache CXF, JUnit;\n🔹 Анализ и оптимизация существующего кода;\n🔹 Участие в архитектурных советах;\n🔹 Взаимодействие с сотрудниками других структурных подразделений компании для решения интеграционных задач;\n🔹 Взаимодействие с клиентами компании на уровне технических специалистов.\n\nТребуется:\n🔹 Программирование на Java от 5-ти лет;\n🔹 Spring MVC, Spring Boot и прочий Spring, JPA, глубокое знание Java Core, в т.ч. Java Concurrency, Collections;\n🔹 Опыт написания и развития больших приложений с высокой нагрузкой;\n🔹 Опыт решения проблем в enterprise-инфраструктуре;\n🔹 Отладка Java-приложений;\n🔹 Опыт работы с реляционными БД (базовый SQL, оптимизация планов выполнений SQL-запросов в Oracle);\n🔹 Умение работать с Maven, Git; \n🔹 Знания JUnit 4 / Mockito;\n🔹 Построение CI/CD-процессов;\n🔹 Взаимодействие с отделами тестирования, сопровождения, внедрения.\n\nМы предлагаем: \n🔹Оформление по ТК РФ с первого рабочего дня;\n🔹Ставка 1200 руб/час, полная занятость;\n🔹Компенсация занятий спортом, английским языком и проф.обучения;\n🔹Гибкий график работы и возможность работать удаленно;\n🔹Дружная команда;\n🔹Пересмотр заработной платы по итогам аттестации 2 раза в год;\n🔹Day-off - до 3 -х дней оплачиваемого больничного без предоставления больничного листа.","markup":[{"type":"hashtag","offset":10,"length":5,"data":"java"},{"type":"hashtag","offset":16,"length":7,"data":"spring"},{"type":"hashtag","offset":24,"length":4,"data":"JPA"},{"type":"hashtag","offset":29,"length":5,"data":"JEE7"},{"type":"hashtag","offset":35,"length":4,"data":"JSF"},{"type":"hashtag","offset":40,"length":7,"data":"Apache"},{"type":"hashtag","offset":48,"length":4,"data":"CXF"},{"type":"hashtag","offset":53,"length":6,"data":"JUnit"},{"type":"hashtag","offset":70,"length":12,"data":"DigitalZone"},{"type":"hashtag","offset":93,"length":16,"data":"удаленнаяработа"},{"type":"handle","offset":145,"length":10,"data":"JuliaVlad"}],"date":"2020-03-23T15:33:02+00:00","link":"tg://resolve?domain=jvmjobs&post=1310","tags":[{"name":"java"},{"name":"jvm"},{"name":"spring"},{"name":"jpa"},{"name":"jsf"},{"name":"apache"},{"name":"junit"},{"name":"sql"},{"name":"oracle"},{"name":"maven"},{"name":"git"},{"name":"spring-mvc"},{"name":"spring-boot"}],"cities":[],"allowsRemote":true}},{"node":{"__typename":"Job","id":"1932525568-1001134745498","title":"Devops инженер","text":"#вакансия #jenkins #aws #украина #беларусь #прибалтика #remote #удалёнка\nкомпания s-o-services\nФормат - remote\nз\\п 5к-6к$ gross\nУвы гражданам России, живущим в РФ - вакансия недоступна.\nHere's some of the tech we use in DevOps.\n\n- jenkins экспертное знание\n- ansible\n- gradle (some maven) понимане логов сборок и умение чётко рассказать программисту что пошло не так\n- java тюнинг, хорошее понимание работы gc(чем отличается cms от g1 и от zgc, и когда лучше взять zulu? а когда openjdk?), что и когда тюнить в jvm, настройка логов и их тюнинг\n- groovy обязателен\n- HashiCorp vault\n- AWS infrastructure, понимание ценообразования, трафика и днс, стоимости i\\o и особенностей rds\n- drone\n- cri-o/containerd\n- prometheus, grafana, elk, datadog\n- upper-intermediate English обязателен\nконтакты @erzentd\n\n—\n\n👉 Обсуждение вакансии в чате @devops_jobs","markup":[{"type":"hashtag","offset":0,"length":9,"data":"вакансия"},{"type":"hashtag","offset":10,"length":8,"data":"jenkins"},{"type":"hashtag","offset":19,"length":4,"data":"aws"},{"type":"hashtag","offset":24,"length":8,"data":"украина"},{"type":"hashtag","offset":33,"length":9,"data":"беларусь"},{"type":"hashtag","offset":43,"length":11,"data":"прибалтика"},{"type":"hashtag","offset":55,"length":7,"data":"remote"},{"type":"hashtag","offset":63,"length":9,"data":"удалёнка"},{"type":"handle","offset":791,"length":8,"data":"erzentd"},{"type":"handle","offset":834,"length":12,"data":"devops_jobs"}],"date":"2020-03-23T14:06:57+00:00","link":"tg://resolve?domain=devops_jobs_feed&post=1843","tags":[{"name":"jenkins"},{"name":"amazon-web-services"},{"name":"ansible"},{"name":"gradle"},{"name":"maven"},{"name":"java"},{"name":"jvm"},{"name":"groovy"}],"cities":[],"allowsRemote":true}},{"node":{"__typename":"Job","id":"1901068288-1001134745498","title":"Devops инженер","text":"#вакансия #jenkins #aws #украина #беларусь #прибалтика #remote #удалёнка\nкомпания s-o-services\nФормат - remote\nз\\п 5к-6к$ gross\nУвы гражданам России, живущим в РФ - вакансия недоступна.\nHere's some of the tech we use in DevOps.\n\n- jenkins экспертное знание\n- ansible\n- gradle (some maven) понимане логов сборок и умение чётко рассказать программисту что пошло не так\n- java тюнинг, хорошее понимание работы gc(чем отличается cms от g1 и от zgc, и когда лучше взять zulu? а когда openjdk?), что и когда тюнить в jvm, настройка логов и их тюнинг\n- groovy обязателен\n- HashiCorp vault\n- AWS infrastructure, понимание ценообразования, трафика и днс, стоимости i\\o и особенностей rds\n- drone\n- cri-o/containerd\n- prometheus, grafana, elk, datadog\n- upper-intermediate English обязателен\nконтакты @erzentd\n\n—\n\n👉 Обсуждение вакансии в чате @devops_jobs","markup":[{"type":"hashtag","offset":0,"length":9,"data":"вакансия"},{"type":"hashtag","offset":10,"length":8,"data":"jenkins"},{"type":"hashtag","offset":19,"length":4,"data":"aws"},{"type":"hashtag","offset":24,"length":8,"data":"украина"},{"type":"hashtag","offset":33,"length":9,"data":"беларусь"},{"type":"hashtag","offset":43,"length":11,"data":"прибалтика"},{"type":"hashtag","offset":55,"length":7,"data":"remote"},{"type":"hashtag","offset":63,"length":9,"data":"удалёнка"},{"type":"handle","offset":791,"length":8,"data":"erzentd"},{"type":"handle","offset":834,"length":12,"data":"devops_jobs"}],"date":"2020-03-14T10:23:43+00:00","link":"tg://resolve?domain=devops_jobs_feed&post=1813","tags":[{"name":"jenkins"},{"name":"amazon-web-services"},{"name":"ansible"},{"name":"gradle"},{"name":"maven"},{"name":"java"},{"name":"jvm"},{"name":"groovy"}],"cities":[],"allowsRemote":true}}]}}},"context":{}}