{"hash":"f5f6bf98bd95e769321482904cbbd488f77922fd","data":{"records":{"id":"javascript","name":"javascript","belongsTo":{"totalCount":272,"pageInfo":{"totalPages":28,"currentPage":16},"edges":[{"node":{"__typename":"Job","id":"17077108736-1001110946746","title":"Js разработчик","text":"#вакансия  #офис #спб или #удалённо \n#job #fulltime #office #saintpetersburg or #remote \n\nJavaScript разработчик\n\nГород: Санкт-Петербург, м. пл. А. Невского\nФормат работы:  офис или удаленка (по желанию)\nЗанятость полная\nЗ/П: от 150к до 240к руб net\nКомпания: DevUnit\n\nИщу JS разработчика для разработки новой версии ритейл платформы для инвестиций\n\nВакансия включает в себя  работу с высокодинамичными real-time графиками (WebGL, highcharts.js)\nОсновной фреймворк - Vue.JS\nА еще:\nБольшие и непрерывные потоки данных по websocket\nPWA \n\nДля нас важно:\nКоммерческий опыт разработок на JS - от 2 лет \nОпыт работы с популярными фреймворками.\n\nСущественным плюсом будет: \nопыт работы с WebGL\nзнания VueJS\n\nЧто предлагаем: \n- Работу в опытной команде разработчиков\n- Современный стек \n- Возможность влиять на ход разработки \n- Достойную зарплату, с регулярным пересмотром. \n- Комфортное рабочее место, и качественное оборудование ( пл. А. Невского)\n- Также есть возможность работать в режиме хоум-офис\n- Увеличенный срок отпуска до 70-ти дней, в зависимости от продолжительности наших отношений.\n- Компенсацию участия в профильных мероприятиях и конференциях.\n\nИ самое главное: мы заботимся о том, чтобы работа была в радость, и всегда гибко подходим к решению любых  вопросов. \n\nКонтакты:\n@zazajul\njulizun09@gmail.com\n\n—\n\n👉 Обсуждение вакансии в чате @javascript_jobs","markup":[{"type":"hashtag","offset":0,"length":9,"data":"вакансия"},{"type":"hashtag","offset":11,"length":5,"data":"офис"},{"type":"hashtag","offset":17,"length":4,"data":"спб"},{"type":"hashtag","offset":26,"length":9,"data":"удалённо"},{"type":"hashtag","offset":37,"length":4,"data":"job"},{"type":"hashtag","offset":42,"length":9,"data":"fulltime"},{"type":"hashtag","offset":52,"length":7,"data":"office"},{"type":"hashtag","offset":60,"length":16,"data":"saintpetersburg"},{"type":"hashtag","offset":80,"length":7,"data":"remote"},{"type":"handle","offset":1284,"length":8,"data":"zazajul"},{"type":"link","offset":1293,"length":19,"data":"mailto:julizun09@gmail.com"},{"type":"handle","offset":1347,"length":16,"data":"javascript_jobs"}],"date":"2020-06-19T10:52:58+00:00","link":"tg://resolve?domain=javascript_jobs_feed&post=16286","tags":[{"name":"javascript"},{"name":"dotnet"},{"name":"highcharts"},{"name":"vuejs"},{"name":"websocket"}],"cities":[],"allowsRemote":true}},{"node":{"__typename":"Job","id":"17076060160-1001110946746","title":"Js разработчик","text":"#вакансия #работа #удаленка #backend #node #nodejs #remote\nГород и адрес офиса: Москва, Савеловская\nФормат работы: удаленка\nЗанятость: полная || проектная\nЗарплатная вилка: 100-160 т.р. net\n\nОписание вакансии: \nИщем опытного backend-разработчика node.js для разработки высоконадежных транзакционных сервисов интеграции с различными системами\n\nТребования:\n• Опыт работы с унаследованными системами\n• Знание PHP на уровне понимания и чтения кода будет плюсом\n• Знание и понимание работы сетевых протоколов TCP/IP, HTTP, SMTP, IMAP\n• Знание и понимание языка JavaScript и связанных с ним технологий и фреймворков\n• Опыт разработки серверных приложений\n• Понимание основных процессов разработки, умение работать в команде\n• Понимание принципов ООП, подходов в программировании и требований к транзакционным системам\n\nЗадачи:\n• Разработка высоконадежных транзакционных сервисов интеграции с различными системами\n• Поддержка и модернизация существующих систем\n\nНазвание компании: TechPlatforms (https://techpl.net)\nКонтакты:@desych79\n\n—\n\n👉 Обсуждение вакансии в чате @javascript_jobs","markup":[{"type":"hashtag","offset":0,"length":9,"data":"вакансия"},{"type":"hashtag","offset":10,"length":7,"data":"работа"},{"type":"hashtag","offset":18,"length":9,"data":"удаленка"},{"type":"hashtag","offset":28,"length":8,"data":"backend"},{"type":"hashtag","offset":37,"length":5,"data":"node"},{"type":"hashtag","offset":43,"length":7,"data":"nodejs"},{"type":"hashtag","offset":51,"length":7,"data":"remote"},{"type":"link","offset":989,"length":18,"data":"https://techpl.net"},{"type":"handle","offset":1018,"length":9,"data":"desych79"},{"type":"handle","offset":1062,"length":16,"data":"javascript_jobs"}],"date":"2020-06-19T10:52:00+00:00","link":"tg://resolve?domain=javascript_jobs_feed&post=16285","tags":[{"name":"javascript"},{"name":"nodejs"},{"name":"dotnet"},{"name":"php"},{"name":"smtp"}],"cities":[{"code":"moscow"}],"allowsRemote":true}},{"node":{"__typename":"Job","id":"17072914432-1001110946746","title":"Js разработчик","text":"#вакансия  #backend #nodejs #javascript #удаленка #js #remote\n\nПозиция: Backend developer (Middle)\nКомпания: paradigmfund.io - инвестиционный фонд с офисами в Москве и Токио.\nФормат работы: Удаленка \nЗанятость: Полная с графиком работы (в выходные отдыхаем, в будни работаем по графику, гибкое начало рабочего дня)\nЗарплатная вилка: 110 000-150 000 руб. на руки\nЗадача: Участвовать в разработке новых и текущих it продуктов компании (криптовалютный кошелек, торговая биржа, обменник валют). \n\nТребования:\n- Опыт программирования на чистом JS не менее 3-х лет\n- Опыт программирования под Node.js не менее года\n- Опыт работы с серверами на Ubuntu\n- Знание SQL и особенностей PostgreSQL\n- Умение оптимизировать тяжелые запросы к базе\n- Хороший навык чтения чужого кода и модернизации его\n- Навык анализа новых структур данных и чужих API\n- Навык работы с Git\n- Гибкость, отзывчивость и хорошие soft skills, мы ценим дружелюбную и продуктивную среду, которую мы создали в команде, и надеемся, что вы гармонично в нее впишетесь.\n\nЖелательно:\n- Знание html, css, vue.js\n- Навык работы с docker'ами\n- Умение настраивать NGINX\n- Навык написание unit тестов\n- Навык поиска утечек памяти\n\nПомимо всего вышесказанного, у нас вы получите:\n- Работа в дружной команде, как разработчиков так и управленцев. \n- Профессиональное развитие и новые знания касаемо blockchain технологий.\n- Возможность релокации в офис в Москве.\n- Понятные процессы разработки (Agile, двухнедельные спринты, работаем в Jira и Confluence). \n\nКонтакты:\nМы стремимся постоянно автоматизировать и улучшать наши процессы, поэтому отклик на вакансию просим оставлять через форму: https://forms.gle/L9hWmD18Zs9kMo2E8\nС подходящими кандидатами свяжемся в течение недели, если возникли какие то вопросы, с радостью отвечу на них в лс @grshabl\n\n—\n\n👉 Обсуждение вакансии в чате @javascript_jobs","markup":[{"type":"hashtag","offset":0,"length":9,"data":"вакансия"},{"type":"hashtag","offset":11,"length":8,"data":"backend"},{"type":"hashtag","offset":20,"length":7,"data":"nodejs"},{"type":"hashtag","offset":28,"length":11,"data":"javascript"},{"type":"hashtag","offset":40,"length":9,"data":"удаленка"},{"type":"hashtag","offset":50,"length":3,"data":"js"},{"type":"hashtag","offset":54,"length":7,"data":"remote"},{"type":"link","offset":109,"length":15,"data":"http://paradigmfund.io"},{"type":"link","offset":1636,"length":35,"data":"https://forms.gle/L9hWmD18Zs9kMo2E8"},{"type":"handle","offset":1787,"length":8,"data":"grshabl"},{"type":"handle","offset":1830,"length":16,"data":"javascript_jobs"}],"date":"2020-06-19T10:46:36+00:00","link":"tg://resolve?domain=javascript_jobs_feed&post=16282","tags":[{"name":"javascript"},{"name":"nodejs"},{"name":"ubuntu"},{"name":"sql"},{"name":"postgresql"},{"name":"git"},{"name":"html"},{"name":"css"},{"name":"vuejs"},{"name":"docker"},{"name":"nginx"}],"cities":[{"code":"tokyo"}],"allowsRemote":true}},{"node":{"__typename":"Job","id":"17070817280-1001110946746","title":"Js developer","text":"#вакансия #js #frontend #react\n\nПозиция: Middle React Developer\n\nФормат работы: удаленно (дэйли митинги в начале дня)\n\nЗанятость: полная, проектная\n\nТребования:\n- уверенные знания ECMAScript\n- уверенные знания React/Redux \n- знания git и git-flow (squash, merge, etc)\n- инициативность и способность общаться с командой\n- умение писать чистый и поддерживаемый код\n- умение выполнять задачи\n\nНеплохо, если вы:\n- умеете работать с веб-сокетами (потребуется в дальнейшем)\n- знаете TypeScript (возможно потребуется в дальнейшем)\n- знаете CSS/Sass и умеете верстать\n\nОбязанности:\n- разработка приложения на React+Redux\n- коммуникация с командой, принятие решений в проектировании API\n\nРабочий график: 10:00 - 18:00 Пн-Пт\n\nОплата: 1500$ - 2000$ (на руки)\n\nКонтакты: @heavycharged\n\n—\n\n👉 Обсуждение вакансии в чате @javascript_jobs","markup":[{"type":"hashtag","offset":0,"length":9,"data":"вакансия"},{"type":"hashtag","offset":10,"length":3,"data":"js"},{"type":"hashtag","offset":14,"length":9,"data":"frontend"},{"type":"hashtag","offset":24,"length":6,"data":"react"},{"type":"handle","offset":759,"length":13,"data":"heavycharged"},{"type":"handle","offset":807,"length":16,"data":"javascript_jobs"}],"date":"2020-06-19T10:45:28+00:00","link":"tg://resolve?domain=javascript_jobs_feed&post=16280","tags":[{"name":"javascript"},{"name":"reactjs"},{"name":"redux"},{"name":"git"},{"name":"typescript"},{"name":"css"},{"name":"sass"},{"name":"react-redux"}],"cities":[],"allowsRemote":true}},{"node":{"__typename":"Job","id":"17065574400-1001110946746","title":"Js разработчик","text":"#вакансия #js #frontend #vue\nSenior Frontend Engineer \n\nФормат работы \nremote\n\nЗанятость\nполная\n\nНазвание компании \nUscreen\n\nЗарплатная вилка\n$2800-$4000 (контракт - swift/payoneer)\n\nОписание вакансии\nUscreen - помогает монетизировать видео более чем тысяче контент мейкерам и обслуживает несколько миллионов пользователей. Мы полностью удаленная команда из 38 специалистов со всех уголков мира.  Мы bootstrap компания, которая оперирует как бизнес. Нет инвесторов - нет головной боли. \nМы ищем самостоятельного и мотивированного фронтенд разработчика, который сможет работать с одной из наших команд над фитчами и UI-компонентами\n\nЧто от вас\n- опыт с JavaScript \n- опыт с Vue.js \n- английский язык (🇺🇸 ну почти английский)\n- какой-то опыт с Ruby on Rails - всегда плюс\n- 40 часов вашего времени каждую неделю 🙂 остальное время нужно проводить с семьей, друзьями и хобби. \n\nЧто о нас\n- удаленная работа\n- зп с ежегодными пересмотрами\n- Покупка книг/курсов\n- неделя оплачиваемого отпуска каждый сезон\n- оплата ко-воркинг спейса\n\nКонтакты\n- Telegram: @savrov_n\n- Почта: nick@uscreen.tv\n\n—\n\n👉 Обсуждение вакансии в чате @javascript_jobs","markup":[{"type":"hashtag","offset":0,"length":9,"data":"вакансия"},{"type":"hashtag","offset":10,"length":3,"data":"js"},{"type":"hashtag","offset":14,"length":9,"data":"frontend"},{"type":"hashtag","offset":24,"length":4,"data":"vue"},{"type":"handle","offset":1052,"length":9,"data":"savrov_n"},{"type":"link","offset":1071,"length":15,"data":"mailto:nick@uscreen.tv"},{"type":"handle","offset":1121,"length":16,"data":"javascript_jobs"}],"date":"2020-06-19T10:40:51+00:00","link":"tg://resolve?domain=javascript_jobs_feed&post=16275","tags":[{"name":"javascript"},{"name":"vuejs"},{"name":"swift"},{"name":"bootstrap"},{"name":"ruby"},{"name":"ruby-on-rails"}],"cities":[],"allowsRemote":true}},{"node":{"__typename":"Job","id":"17064525824-1001110946746","title":"Js разработчик","text":"#вакансия #вакансии #удаленная #работа #разработчик #remote #job #remotejob #senior #full #stack #fullstack #software #engineer #develop #developer #node #react #amazon #aws #api #crm #erp #zoho #us #usa\n\n😎 Senior Full Stack Software Engineer\n\nCompany: Deep Consulting Solutions (Austin, Texas)\n\nLocation: Anywhere\n\nMonthly Salary: $3000-4000\n \n#Remote #FullTime #Flexible\n\nRequirements: \n\nYou must be:\n- A mature and responsible individual driven by results and not activities.\n- An individual with genuine interest in technology.\n- Willing to learn, grow, and admit mistakes.\n- Able to communicate with other people on the project's team effectively.\n \nSkills/Experience:\n\n- Node.js, React, SQL and NoSQL databases.\n- APIs.\n- Effective Written and Verbal English.\n- Basic Understanding of DevOps and SDLC.\n \nThe following will be a good plus:\n\n- Experience with Amazon AWS, serverless technologies, and microservices on its platform.\n- Experience with CRM and ERP systems such as Zoho and others.\n\nHow to apply:\n\nhttps://zfrmz.com/yIDN35yaj3apxsNfR9qS?src=irina-itrecruiter\n\nContact:\n@Aagdan\n\n—\n\n👉 Обсуждение вакансии в чате @javascript_jobs","markup":[{"type":"hashtag","offset":0,"length":9,"data":"вакансия"},{"type":"hashtag","offset":10,"length":9,"data":"вакансии"},{"type":"hashtag","offset":20,"length":10,"data":"удаленная"},{"type":"hashtag","offset":31,"length":7,"data":"работа"},{"type":"hashtag","offset":39,"length":12,"data":"разработчик"},{"type":"hashtag","offset":52,"length":7,"data":"remote"},{"type":"hashtag","offset":60,"length":4,"data":"job"},{"type":"hashtag","offset":65,"length":10,"data":"remotejob"},{"type":"hashtag","offset":76,"length":7,"data":"senior"},{"type":"hashtag","offset":84,"length":5,"data":"full"},{"type":"hashtag","offset":90,"length":6,"data":"stack"},{"type":"hashtag","offset":97,"length":10,"data":"fullstack"},{"type":"hashtag","offset":108,"length":9,"data":"software"},{"type":"hashtag","offset":118,"length":9,"data":"engineer"},{"type":"hashtag","offset":128,"length":8,"data":"develop"},{"type":"hashtag","offset":137,"length":10,"data":"developer"},{"type":"hashtag","offset":148,"length":5,"data":"node"},{"type":"hashtag","offset":154,"length":6,"data":"react"},{"type":"hashtag","offset":161,"length":7,"data":"amazon"},{"type":"hashtag","offset":169,"length":4,"data":"aws"},{"type":"hashtag","offset":174,"length":4,"data":"api"},{"type":"hashtag","offset":179,"length":4,"data":"crm"},{"type":"hashtag","offset":184,"length":4,"data":"erp"},{"type":"hashtag","offset":189,"length":5,"data":"zoho"},{"type":"hashtag","offset":195,"length":3,"data":"us"},{"type":"hashtag","offset":199,"length":4,"data":"usa"},{"type":"hashtag","offset":346,"length":7,"data":"Remote"},{"type":"hashtag","offset":354,"length":9,"data":"FullTime"},{"type":"hashtag","offset":364,"length":9,"data":"Flexible"},{"type":"link","offset":1016,"length":60,"data":"https://zfrmz.com/yIDN35yaj3apxsNfR9qS?src=irina-itrecruiter"},{"type":"handle","offset":1087,"length":7,"data":"Aagdan"},{"type":"handle","offset":1129,"length":16,"data":"javascript_jobs"}],"date":"2020-06-19T10:38:42+00:00","link":"tg://resolve?domain=javascript_jobs_feed&post=16274","tags":[{"name":"javascript"},{"name":"nodejs"},{"name":"reactjs"},{"name":"amazon-web-services"},{"name":"sql"},{"name":"nosql"}],"cities":[{"code":"austin"}],"allowsRemote":true}},{"node":{"__typename":"Job","id":"17062428672-1001110946746","title":"Js developer","text":"#вакансия #vue #js #frontend #html #css\n\nВакансия: Frontend / Vuejs Developer\nНазвание компании: Httplab, https://httplab.ru/\nГород и адрес офиса: Ростов-на-Дону, Будённовский 35\nЗанятость: полная\nЗарплатная вилка: от 90 000 до 130 000 руб. (нетто)\n\nОписание вакансии:\n\nТребования:\n• Опыт работы с VueJS и сопутствующими библиотеками. Опыт разработки сложных UI-компонентов.\n• Отличное понимание того, как работает современный веб. Мы ждем, что вы следите за событиями и трендами, но обладаете усточивостью к хайпу. :)\n• Навыки кроссброузерной и адаптивной верстки с использованием HTML5, SСSS.\n• Умение писать тесты для фронтенд-кода, понимать, как и что нужно тестировать.\n• Навыки рефакторинга плохого кода и последовательного превращения его в хороший.\n• Хорошие фундаментальные знания в области ИТ: алгоритмы и структуры данных, шаблоны проектирования.\n• Уверенное использование Linux и утилит командной строки.\n\nУсловия:\n• Профессиональное развитие в команде специалистов высокого уровня\n• Уютный офис в центре Ростова\n• Возможность удаленной работы\n\nКонтакты: info@httplab.ru, @flggg\n\n—\n\n👉 Обсуждение вакансии в чате @javascript_jobs","markup":[{"type":"hashtag","offset":0,"length":9,"data":"вакансия"},{"type":"hashtag","offset":10,"length":4,"data":"vue"},{"type":"hashtag","offset":15,"length":3,"data":"js"},{"type":"hashtag","offset":19,"length":9,"data":"frontend"},{"type":"hashtag","offset":29,"length":5,"data":"html"},{"type":"hashtag","offset":35,"length":4,"data":"css"},{"type":"link","offset":106,"length":19,"data":"https://httplab.ru/"},{"type":"link","offset":1067,"length":15,"data":"mailto:info@httplab.ru"},{"type":"handle","offset":1084,"length":6,"data":"flggg"},{"type":"handle","offset":1125,"length":16,"data":"javascript_jobs"}],"date":"2020-06-18T21:53:52+00:00","link":"tg://resolve?domain=javascript_jobs_feed&post=16272","tags":[{"name":"javascript"},{"name":"vuejs"},{"name":"html"},{"name":"css"},{"name":"linux"}],"cities":[{"code":"rostov"}],"allowsRemote":true}},{"node":{"__typename":"Job","id":"17061380096-1001110946746","title":"Js разработчик","text":"Greenatom.ru\n#вакансия #Москва #javascript #React #Typescript #Node.js #Middle #Senior #удаленка #удаленная работа \n\n👨🏼‍💻 Middle/Senior Frontend Developer, Middle/Senior Backend Developer\nГород и адрес офиса: #Москва, БЦ Сириус Парк, метро Нагатинская\n\n✅Формат работы: \nУДАЛЕННАЯ РАБОТА\n\n💻Занятость: полная, гибкое начало трудового дня.\n\nЗарплатная вилка: от 170 000 до 230 000 руб. на руки.\n\n🏢Компания: АО Гринатом\n\nПривет! Мы растём и активно развиваем ряд внутренних проектов: например, корпоративный портал, горячая линия, собственная кадровая система для 400 предприятий! \nМы формируем НЕСКОЛЬКО КОМАНД, общей численностью более 60 человек и ищем классных:\n\n✅ФРОНТЕНД  разработчиков;\n\n✅БЭКЕНД разработчиков. \n\nПроекты в стадии разработки пилота и у тебя есть возможность повлиять на дальнейшее развитие продукта. Если у тебя есть крутые идеи - ты сможешь их здесь реализовать! Откликайся сам и зови друзей! Вирус пройдёт, работа останется!\n\n✅Требуемые знания и навыки:\n- Опыт разработки от двух лет\n- Хорошее знание чистого JS\n- Опыт работы с TypeScript\n- React, MobX, Less/Sass\n- Опыт написания юнит-тестов с помощью Jest, Enzymе очень приветствуется\n\n💡Наш стек:\n      React, TypeScript, Node.js, MobX, Docker\n\nМы работаем по Scrum.\n\n✅Условия:\n- Официальное оформление по ТК, белая зп;\n- Годовой бонус;\n- Возможности профессионального и карьерного роста;\n- Дополнительные 3 дня к отпуску;\n- Плавающее начало дня;\n- ДМС со стоматологией;\n- Полная удаленка \n(Если тебе нравится работать в офисе, мы не против)\n\n☎️Контакты:\nЮлия - YAnZueva@Greenatom.ru\n\n—\n\n👉 Обсуждение вакансии в чате @javascript_jobs","markup":[{"type":"link","offset":0,"length":12,"data":"http://Greenatom.ru"},{"type":"hashtag","offset":13,"length":9,"data":"вакансия"},{"type":"hashtag","offset":23,"length":7,"data":"Москва"},{"type":"hashtag","offset":31,"length":11,"data":"javascript"},{"type":"hashtag","offset":43,"length":6,"data":"React"},{"type":"hashtag","offset":50,"length":11,"data":"Typescript"},{"type":"hashtag","offset":62,"length":5,"data":"Node"},{"type":"hashtag","offset":71,"length":7,"data":"Middle"},{"type":"hashtag","offset":79,"length":7,"data":"Senior"},{"type":"hashtag","offset":87,"length":9,"data":"удаленка"},{"type":"hashtag","offset":97,"length":10,"data":"удаленная"},{"type":"hashtag","offset":212,"length":7,"data":"Москва"},{"type":"link","offset":1540,"length":21,"data":"mailto:YAnZueva@Greenatom.ru"},{"type":"handle","offset":1596,"length":16,"data":"javascript_jobs"}],"date":"2020-06-18T21:15:55+00:00","link":"tg://resolve?domain=javascript_jobs_feed&post=16271","tags":[{"name":"javascript"},{"name":"reactjs"},{"name":"typescript"},{"name":"nodejs"},{"name":"sass"},{"name":"docker"}],"cities":[{"code":"moscow"}],"allowsRemote":true}},{"node":{"__typename":"Job","id":"17057185792-1001110946746","title":"Js программист","text":"#вакансия #remote #Javascript #React #Node.js #middle #senior\n\nВсем привет!\n\nЯндекс.Практикум — сервис онлайн-образования. Мы помогаем людям расти — на работе и в жизни. Студенты могут освоить новую специальность, заговорить на иностранном языке и получать удовольствие от того, чем занимаются — каждый день.\n\nСейчас мы в поиске наставников на факультет Веб-разработки!\n\nКомпания: Яндекс.Практикум \nГрафик: частичная удаленная работа, 12 часов в неделю (з/п 50 тыс рублей в месяц). Можно легко совмещать с основной работой.\n\n🔹Что делает наставник?\nНаставник курирует группу из 60 студентов на протяжении всего процесса обучения (примерно 10 месяцев). Он отвечает на их вопросы, проводит групповые консультации и лайвкодинг-вебинары. \n\n🔹Вам подойдет роль, если у вас есть: опыт работы программистом больше трех лет;\nЗнаете HTML, CSS, JavaScript, React, NodeJs;\nПлюсом будет опыт преподавания и экспертной деятельности. \n\n🔹Все наставники перед работой проходят Школу наставников от Яндекс.Практикума. \n\nОткликаться можно здесь: https://praktikum.yandex.ru/job/vacancy-9 \nили пишите в личку @valerymis \nПочта: valeriamis@yandex-team.ru\n\n—\n\n👉 Обсуждение вакансии в чате @javascript_jobs","markup":[{"type":"hashtag","offset":0,"length":9,"data":"вакансия"},{"type":"hashtag","offset":10,"length":7,"data":"remote"},{"type":"hashtag","offset":18,"length":11,"data":"Javascript"},{"type":"hashtag","offset":30,"length":6,"data":"React"},{"type":"hashtag","offset":37,"length":5,"data":"Node"},{"type":"hashtag","offset":46,"length":7,"data":"middle"},{"type":"hashtag","offset":54,"length":7,"data":"senior"},{"type":"link","offset":1029,"length":41,"data":"https://praktikum.yandex.ru/job/vacancy-9"},{"type":"handle","offset":1091,"length":10,"data":"valerymis"},{"type":"link","offset":1110,"length":25,"data":"mailto:valeriamis@yandex-team.ru"},{"type":"handle","offset":1170,"length":16,"data":"javascript_jobs"}],"date":"2020-06-18T21:09:30+00:00","link":"tg://resolve?domain=javascript_jobs_feed&post=0","tags":[{"name":"javascript"},{"name":"reactjs"},{"name":"nodejs"},{"name":"html"},{"name":"css"}],"cities":[],"allowsRemote":true}},{"node":{"__typename":"Job","id":"17056137216-1001110946746","title":"Js разработчик","text":"#вакансия #middle #спб #react #redux #emotion\n\nГород: Сантк-Петербург, ул. Рубинштейна (5 углов)\nФормат работы: офис или удаленка\nЗанятость: полная\nЗарплатная вилка: от 80к до 130к рублей (на руки, больше по согласованию)\nИспользуемый стек: react 16 (hooks), redux, emotion\n\nОписание вакансии:\n\nПривет всем, мы разрабатываем крутые проекты, связанные прежде всего с физическим здоровьем людей, которые тратят его, зарабатывая себе на хлеб. Эти люди работают на складах, перенося коробки с места на место, в сортировочных центрах, доставляя вам посылки, на стройках, и в остальных местах, где требуется ручной труд.\nНаши решения помогают компаниям за границей измерять и управлять (с помощью носимых устройств) рисками возникновения травмы для своих сотрудников (подробнее можете ознакомиться по ссылке: https://soteranalytics.com/ ). Я сооснователь проекта и нам в сентябре исполнится 4 года. С помощью этого канала мы уже нашли двух сотрудников, которые успешно у нас работают, но сейчас такие времена, что чем быстрее мы сможем разработать новые фичи в наших продуктах, тем больше рынка сможем захватить.\n\nЧто нужно делать: нужно разрабатывать дэшборды и прочие веб интерфейсы для наших клиентов, так и для наших внутренних нужд.\n\nЧто требуется от вас: мы ценим самоорганизованность и очень не любим микроменеджмент. Также мы любим когда наши сотрудники развиваются у нас на глазах и всячески стараемся этому помочь. У нас также сформирована команда из опытных сотрудников, которые имеют экспертизы почти в каждой теме.\nТакже мы ценим, когда человек умеет решать проблемы, а не создавать их другим.\n\nКонтакты: писать мне в личку @pavko_a. В сообщении пишите что вы уже сделали на reactjs, чем вы гордитесь в своей работе, а также пару строк о себе и чем вы занимались на последнем проекте.\n\nЗабыл упомянуть: в команде очень много общения на английском, так как коммерческая команда находится в Лондоне и являются носителями языка. #doyourhomework\n\n—\n\n👉 Обсуждение вакансии в чате @javascript_jobs","markup":[{"type":"hashtag","offset":0,"length":9,"data":"вакансия"},{"type":"hashtag","offset":10,"length":7,"data":"middle"},{"type":"hashtag","offset":18,"length":4,"data":"спб"},{"type":"hashtag","offset":23,"length":6,"data":"react"},{"type":"hashtag","offset":30,"length":6,"data":"redux"},{"type":"hashtag","offset":37,"length":8,"data":"emotion"},{"type":"link","offset":803,"length":27,"data":"https://soteranalytics.com/"},{"type":"handle","offset":1631,"length":8,"data":"pavko_a"},{"type":"hashtag","offset":1933,"length":15,"data":"doyourhomework"},{"type":"handle","offset":1983,"length":16,"data":"javascript_jobs"}],"date":"2020-06-18T21:08:30+00:00","link":"tg://resolve?domain=javascript_jobs_feed&post=0","tags":[{"name":"javascript"},{"name":"reactjs"},{"name":"redux"},{"name":"react-redux"}],"cities":[],"allowsRemote":true}}]}}},"context":{}}