{"hash":"f5f6bf98bd95e769321482904cbbd488f77922fd","data":{"records":{"id":"git","name":"git","belongsTo":{"totalCount":273,"pageInfo":{"totalPages":28,"currentPage":12},"edges":[{"node":{"__typename":"Job","id":"72028782592-1001054966032","title":"Ios разработчик","text":"#вакансия #работа #iOS #Developer #fulltime #удаленно\n\nВсем привет!\n\nМы в applicatura.com опять выросли и ищем middle iOS-разработчика. \nЗП 60 000 - 100 000 руб. после налогов. \n\n\nМы создаем и поддерживаем мобильные приложения для крупных известных брендов , SimpleWine, Перекресток, Абсолют Банк и др. \nВ команде - дизайнеры, мобильные разработчики, бэкенд разработчики, проджект менеджеры, qa-инженеры.\nУ нас налаженные процессы разработки и никакого чайка-менеджмента. \n\nЧто вам придется делать:\n - разрабатывать новые приложений \n - поддерживать имеющиеся приложения клиентов\n - создание библиотек и SDK\n - верстать по макетам дизайнеров\n - проходить технические аудиты от заказчиков\n\n\nТребования:\n- Опыт коммерческой разработки от 0,5 года;\n - Знание Swift\n - Знание особенностей и тонкостей разработки под iOS (UIKit, Foundation, CoreData и др.)\n - Знание git и уверенное использование подходов и инструментов командной разработки и ревью кода - ревьювить будем вас )\n - Имеющееся представление о том, как выстроить архитектуру большого и сложного приложения\n - Знания последних технологий, фреймворков, инструментов и вообще желание разумно следовать прогрессу\n - Понимание аспектов и этапов разработки мобильного приложения полного цикла (от настройки окружения до релиза в сторы)\n - Знание библиотек и стека мобильной разработки\n\nУсловия:\n\n - белая ЗП, соблюдаем и чтим Трудовой Кодекс РФ\n - возможность иметь нестандартный рабочий график\n - предоставляем возможности для карьерного и профессионального роста\n - работа в крупных публичных проектах, которые можно положить себе в портфолио\n \nВАЖНО! Вакансия для граждан РФ/РБ. \n\nПисать в телеграм @k_kononov, CV присылать на почту kononov@applicatura.com","markup":[{"type":"hashtag","offset":0,"length":9,"data":"вакансия"},{"type":"hashtag","offset":10,"length":7,"data":"работа"},{"type":"hashtag","offset":18,"length":4,"data":"iOS"},{"type":"hashtag","offset":23,"length":10,"data":"Developer"},{"type":"hashtag","offset":34,"length":9,"data":"fulltime"},{"type":"hashtag","offset":44,"length":9,"data":"удаленно"},{"type":"link","offset":74,"length":15,"data":"http://applicatura.com"},{"type":"handle","offset":1655,"length":10,"data":"k_kononov"},{"type":"link","offset":1689,"length":23,"data":"mailto:kononov@applicatura.com"}],"date":"2020-06-25T15:06:42+00:00","link":"tg://resolve?domain=mobile_jobs&post=68692","tags":[{"name":"mobile"},{"name":"ios"},{"name":"swift"},{"name":"uikit"},{"name":"git"}],"cities":[],"allowsRemote":true}},{"node":{"__typename":"Job","id":"17153654784-1001110946746","title":"Js разработчик","text":"#вакансия #react #redux #москва #офис #javascript\n\nГород: Москва (ст.м. Аэропорт), также города с тем же часовым поясом.\n\nФормат работы: full-time, remote.\n\nЗанятость: полная. \n\nВилка: 100-250 т.р. на руки.\n\nФункционал:\n\n• Разработка WEB приложений;\n\n• Рефакторинг Legacy кода;\n\n• Написание и поддержка сложных модулей, реализованных на стеке технологий React;\n\n• Участие в оценке сроков, трудоёмкости и проектирование приложений.\n\nПрофессиональные знания: знание JavaScript и его особенностей; знание React / Redux, Node.js, пакетных менеджеров (Yarn / npm); умение работать с Git; понимание стратегий оптимизации web-приложения.\n\nНазвание компании: Локо-Банк\nhttps://www.lockobank.ru//\nhttps://hh.ru/vacancy/37365811\n\nКонтакты: @hrlocko","markup":[{"type":"hashtag","offset":0,"length":9,"data":"вакансия"},{"type":"hashtag","offset":10,"length":6,"data":"react"},{"type":"hashtag","offset":17,"length":6,"data":"redux"},{"type":"hashtag","offset":24,"length":7,"data":"москва"},{"type":"hashtag","offset":32,"length":5,"data":"офис"},{"type":"hashtag","offset":38,"length":11,"data":"javascript"},{"type":"link","offset":661,"length":26,"data":"https://www.lockobank.ru//"},{"type":"link","offset":688,"length":30,"data":"https://hh.ru/vacancy/37365811"},{"type":"handle","offset":730,"length":8,"data":"hrlocko"}],"date":"2020-06-25T13:40:52+00:00","link":"tg://resolve?domain=javascript_jobs_feed&post=16359","tags":[{"name":"javascript"},{"name":"reactjs"},{"name":"redux"},{"name":"web"},{"name":"nodejs"},{"name":"npm"},{"name":"git"},{"name":"react-redux"}],"cities":[{"code":"moscow"}],"allowsRemote":true}},{"node":{"__typename":"Job","id":"17151557632-1001110946746","title":"Js разработчик","text":"#вакансия #работа #frontend #react #redux #js #typescript #ульяновск #крснодар #нижнийновгород #самара #тольятти #ижевск #воронеж #казань #fulltime #удаленно #офис \n\nMiddle/Senior frontend разработчик React/Redux\nКомпания: Норд Клан\nГород: Ульяновск\nФормат: в офисе, удаленно, если живете не в Ульяновске\nЗарплатная вилка: от 70 до 150k на руки\n\n\nМы ищем разработчика в нашу команду NORD CLAN.  \nМы разрабатываем системы для бизнеса в области финтеха, медицины и фудтеха. Так же разрабатываем собственные продукты связанные с машинным обучением, распознаванием образов и компьютерным зрением. \n\nПо задачам:\n\nРазработка пользовательских интерфейсов в стеке React + Redux\nПроектирование, выбор и доработка архитектурных и технологических решений\nПроведение code-review Frontend-команды\nРазработка прототипов для отработки новых идей\n\nПо тербованиям:\nРеальный опыт работы с React;\nУверенные знания в HTML, CSS;\nНавыки работы с Git.\n\nБудет плюсом:\nОпыт работы на других языках (например, Java);\nАнглийский язык уровня Upper Intermediate.\n\n\nУ нас нет бюрократии, четко выстроены процессы разработки, мы любим и чтим ТК РФ и белую зп\n\n\nПисать в Telegram: @Dinovikova1477","markup":[{"type":"hashtag","offset":0,"length":9,"data":"вакансия"},{"type":"hashtag","offset":10,"length":7,"data":"работа"},{"type":"hashtag","offset":18,"length":9,"data":"frontend"},{"type":"hashtag","offset":28,"length":6,"data":"react"},{"type":"hashtag","offset":35,"length":6,"data":"redux"},{"type":"hashtag","offset":42,"length":3,"data":"js"},{"type":"hashtag","offset":46,"length":11,"data":"typescript"},{"type":"hashtag","offset":58,"length":10,"data":"ульяновск"},{"type":"hashtag","offset":69,"length":9,"data":"крснодар"},{"type":"hashtag","offset":79,"length":15,"data":"нижнийновгород"},{"type":"hashtag","offset":95,"length":7,"data":"самара"},{"type":"hashtag","offset":103,"length":9,"data":"тольятти"},{"type":"hashtag","offset":113,"length":7,"data":"ижевск"},{"type":"hashtag","offset":121,"length":8,"data":"воронеж"},{"type":"hashtag","offset":130,"length":7,"data":"казань"},{"type":"hashtag","offset":138,"length":9,"data":"fulltime"},{"type":"hashtag","offset":148,"length":9,"data":"удаленно"},{"type":"hashtag","offset":158,"length":5,"data":"офис"},{"type":"handle","offset":1149,"length":15,"data":"Dinovikova1477"}],"date":"2020-06-25T11:31:56+00:00","link":"tg://resolve?domain=javascript_jobs_feed&post=16357","tags":[{"name":"javascript"},{"name":"reactjs"},{"name":"redux"},{"name":"typescript"},{"name":"html"},{"name":"css"},{"name":"git"},{"name":"java"},{"name":"react-redux"}],"cities":[{"code":"ulyanovsk"},{"code":"samara"},{"code":"izhevsk"},{"code":"voronezh"},{"code":"kazan"}],"allowsRemote":true}},{"node":{"__typename":"Job","id":"2257584128-1001134745498","title":"Devops инженер","text":"#вакансия #офис #fulltime #devops #Будва_Черногория\n\nВакансия: DevOps\nКомпания: Alar Studios\nАдрес: Будва, Черногория\nФормат работы: удаленно на время пандемии, далее офис\nЗанятость: full time\nЗ.п вилка: 1700-2300 eur (на руки)\n\nКомпания Alar Studios занимается разработкой крупных технологически тяжелых проектов на заказ для западных заказчиков. Предлагаем возможность развиваться в комфортных условиях мягкого климата Черногории на берегу моря (офис).\n\n📌Требования:\n    • Знание Jenkins, Ansible;\n    • Отличное знание Linux и опыт от 2-х лет;\n    • Кристально ясное понимание TCP/IP;\n    • Общее понимание ИТ-безопасности, зачем нужна и каковы пути ее достижения;\n    • Опыт работы с PostgreSQL или другой open source RDBMS;\n    • Опыт работы в инфраструктуре AWS или подобной;\n    • Отличное знание и понимание RDBMS как такового: в частности, знание SQL, зачем нужны и как работают индексы;\n    • Знание и понимание HTTP;\n    • Хотя бы basic English;\n    • Горячее желание учиться новому!\n📌 Приветствуется:\n    • Знание Python;\n    • Опыт работы с Flask или Django;\n    • Опыт с Amazon VPC и dedicated hosts;\n    • Опыт с Celery, Redis;\n    • Знание git.\n📌Основные задачи:\n    • Разработка архитектуры (в том числе high load, horizontal scalability);\n    • Администрирование инфраструктуры (Linux, Amazon AWS);\n    • Поиск и отладка проблем, работа с серверным кодом;\n    • Написание автоматизации (Ansible);\n    • Быть частью команды и взаимодействовать с командой разработчиков.\n📌 Мы предлагаем\n    • Интересные проекты;\n    • Оплачиваемые отпуска; \n    • Двойную почасовую оплату согласованной переработки сверх рабочего времени (OVERTIME);\n    • Возможность работы в нашем офисе в Черногории, фактически, в раю на берегу Адриатического моря — до моря 10 минут пешком (поможем с переездом вам и семье).\nРазмер зарплат по опыту/знаниям (если хорошо знаете все из списка и есть опыт, то верхняя планка). Рост по производительности.\nДополнительные инструкции: Для интервью будет необходимо сделать тестовое задание.\nВаше CV прошу направлять на pakhomova@alarstudios.com или в @daikirey\n\n—\n\n👉 Обсуждение вакансии в чате @devops_jobs","markup":[{"type":"hashtag","offset":0,"length":9,"data":"вакансия"},{"type":"hashtag","offset":10,"length":5,"data":"офис"},{"type":"hashtag","offset":16,"length":9,"data":"fulltime"},{"type":"hashtag","offset":26,"length":7,"data":"devops"},{"type":"hashtag","offset":34,"length":17,"data":"Будва_Черногория"},{"type":"link","offset":2054,"length":25,"data":"mailto:pakhomova@alarstudios.com"},{"type":"handle","offset":2086,"length":9,"data":"daikirey"},{"type":"handle","offset":2130,"length":12,"data":"devops_jobs"}],"date":"2020-06-25T11:11:19+00:00","link":"tg://resolve?domain=devops_jobs_feed&post=2153","tags":[{"name":"jenkins"},{"name":"ansible"},{"name":"linux"},{"name":"postgresql"},{"name":"amazon-web-services"},{"name":"sql"},{"name":"python"},{"name":"flask"},{"name":"django"},{"name":"redis"},{"name":"git"}],"cities":[],"allowsRemote":true}},{"node":{"__typename":"Job","id":"1737490432-1001091028994","title":"Java developer","text":"#Вакансия #Java #Spring #Москва\n\nВсем привет! \nИщу Middle Java Backend Developer в Национальную Систему Платёжных Карт на проект \"Клиринг\".\n\nЭто Core-платформа, которая обрабатывает все транзакции внутри нашей страны по всем основным платежным системам. Обработка каждой системы уникальна, имеет свои интересные особенности. \n\nСтек: CentOS, Java Core, Spring, Akka Actors, MySql, MyBatis, Swagger, Gradle, Groovy и Kotlin скрипты.\n\nНам интересны кандидаты от уровня Middle и выше: от 160 000 rub. \nФинансовый вопрос обсуждается индивидуально и зависит от опыта, знаний и навыков кандидата.\n\nЧто предстоит делать:\n- разрабатывать и поддерживать  backend проекта в тесном взаимодействии с командой;\n- обеспечивать полный цикл разработки от анализа требований до внедрения продукта;\n- участвовать в построении новых систем и в развитии существующих.\n\nЧто требуется:\n- отличные знания Core Java;\n- опыт работы со стеком Spring, в том числе SpringBoot;\n- хорошие знания SQL, опыт работы с JUnit, использования git, вариантов gitflow;\n- понимание принципов построения CI/CD (методология, инструменты);\nумение декомпозировать задачи.\n\nМы предлагаем:\n- работу в команде профессионалов;\n- обучение за счет компании;\n- развитую корпоративную культуру;\n- комфортный офис в центре (тренажерный зал, спортивный зал, лаунж-зона, кухни с чаем и кофе на каждом этаже);\n- ДМС со стоматологией с первого месяца работы, официальное трудоустройство.\n\n@arinakulova","markup":[{"type":"hashtag","offset":0,"length":9,"data":"Вакансия"},{"type":"hashtag","offset":10,"length":5,"data":"Java"},{"type":"hashtag","offset":16,"length":7,"data":"Spring"},{"type":"hashtag","offset":24,"length":7,"data":"Москва"},{"type":"handle","offset":1431,"length":12,"data":"arinakulova"}],"date":"2020-06-25T10:47:20+00:00","link":"tg://resolve?domain=jvmjobs&post=1657","tags":[{"name":"java"},{"name":"jvm"},{"name":"spring"},{"name":"centos"},{"name":"akka"},{"name":"mysql"},{"name":"swagger"},{"name":"gradle"},{"name":"groovy"},{"name":"kotlin"},{"name":"sql"},{"name":"junit"},{"name":"git"}],"cities":[{"code":"moscow"}],"allowsRemote":false}},{"node":{"__typename":"Job","id":"92279930880-1001067529236","title":"Python developer","text":"#вакансия #senior #upperintermediate #fullstack #remote\nкомпания s-o-services\nз\\п 2800-3800$, оформление по ип (компании в рф нет)\nзаказчик американское издательство\nконтакты @erzentd\n\nТребования:\n\n4+ years of demonstrated experience successfully launching complex projects on time\n2+ years of experience as a full-time developer for a web app, custom software product or organization web site\n3+ years of experience with most or all of the following: Python & Django, relational DBs, jQuery & JavaScript, HTML, CSS/LESS, Git\nExperience with the following technologies preferred but not required: MongoDB, PostgreSQL, Elasticsearch,\nWordPress, CDNs, uWSGI, Redis, Celery, Jenkins, Sentry, New Relic, Nginx, CentOS, RabbitMQ, React, \nSalesforce, Marketo, high availability systems, or graph databases\nOrganized, detail and deadline oriented, highly focused\nAbility to prioritize & manage multiple projects at one time; cool under pressure\nAnalytical thinker with strong/creative problem solving skills\nExperience with Agile development methodologies\nStrong written and verbal communication skills\nAn interest in government, elections, and associated datasets","markup":[{"type":"hashtag","offset":0,"length":9,"data":"вакансия"},{"type":"hashtag","offset":10,"length":7,"data":"senior"},{"type":"hashtag","offset":18,"length":18,"data":"upperintermediate"},{"type":"hashtag","offset":37,"length":10,"data":"fullstack"},{"type":"hashtag","offset":48,"length":7,"data":"remote"},{"type":"handle","offset":175,"length":8,"data":"erzentd"}],"date":"2020-06-25T10:25:16+00:00","link":"tg://resolve?domain=python_jobs&post=88005","tags":[{"name":"python"},{"name":"web"},{"name":"django"},{"name":"jquery"},{"name":"javascript"},{"name":"html"},{"name":"css"},{"name":"git"},{"name":"mongodb"},{"name":"postgresql"},{"name":"elasticsearch"},{"name":"wordpress"},{"name":"redis"},{"name":"jenkins"},{"name":"nginx"},{"name":"centos"},{"name":"rabbitmq"},{"name":"reactjs"}],"cities":[],"allowsRemote":true}},{"node":{"__typename":"Job","id":"92275736576-1001067529236","title":"Python developer","text":"#вакансия #python #Django #vacancy #IT  #remote\n\nI’m looking for a very strong python developer to become one of key engineers for one of our clients. The client is a US-based startup developing revolutionary products in the Gaming and Lottery industries using NFC and SmartCard-based solutions. This role is extremely important for our client as it has the responsibility of coordinating with the whole team to provide a backend and APIs that support mobile and web clients, as well as third-party integrations.\n\nLocation: Remote\nJob Type: Full-time, contract\nIndustries: Technology, Gaming, Lottery\nLanguages: English, Russian\nPay Rate: $25/hr - $35/hr depending on experience\nProbationary Period: 1 month\nStart Date: ASAP\n\nQualifications\nBS in Information Systems, Engineering, other related discipline \n6-10 years Software Engineering experience\n4-6+ years of work experience developing in Python\n2-3+ years developing on the Django platform\nWorking experience with microservices architecture.\nSolid understanding of data structures, coding standards, best practices\nDevelopment experience in Cloud and DevSecOps environments\nExperience working with relational databases and various data formats and technologies.\nExperience with test-driven development\nExperience working in adaptive methodologies like Agile, DevOps and Scrum, etc.\nStrong written and communication skills required.\nMust be a self-starter/self-directed member of the team\nProficient with Git\nB2+ CEFR English level\n\nFor more information, write to the PM.","markup":[{"type":"hashtag","offset":0,"length":9,"data":"вакансия"},{"type":"hashtag","offset":10,"length":7,"data":"python"},{"type":"hashtag","offset":18,"length":7,"data":"Django"},{"type":"hashtag","offset":26,"length":8,"data":"vacancy"},{"type":"hashtag","offset":35,"length":3,"data":"IT"},{"type":"hashtag","offset":40,"length":7,"data":"remote"}],"date":"2020-06-25T10:09:29+00:00","link":"tg://resolve?domain=python_jobs&post=88001","tags":[{"name":"python"},{"name":"django"},{"name":"mobile"},{"name":"web"},{"name":"cloud"},{"name":"git"}],"cities":[],"allowsRemote":true}},{"node":{"__typename":"Job","id":"72002568192-1001054966032","title":"Android разработчик","text":"#вакансия #москва #офис #unity #developer #gamedev #csharp c#\n\nГород и адрес офиса: Москва, м.Автозаводская \nФормат работы: офис \nЗанятость: полная \nЗарплатная вилка: от 160 000 до 200 000 на руки \n\n📣 Unity Developer (gamedev)\n\n✅ Описание вакансии:\n\nAppQuantum - это успешная команда из 120 человек, которая занимается мобильным маркетингом, разработкой и паблишингом мобильных игр. Один из наших самых успешных проектов Idle Evil Clicker набрал за пол года 5 млн пользователей на iOS и Android и мы не планируем останавливаться на достигнутом.\nМы ищем сильного Unity разработчика для работы над проектами в жанре Idle / Clicker / Tycoon. У нас три запущенных проекта, сейчас работаем над четвертым.\n\n\n✅ Задачи:\n\n• Разработка клиентской части игры\n• Интеграция в проект готового контента (модели, анимации, звуки)\n• Интеграция в проект готовых VFX, написание логики их управления\n• Вёрстка UI по макетам от художников\n• Интеграция различных сторонних SDK\n\n\n✅ Требования:\n\n• Опыт работы на Unity3D (С#) от 3х лет\n• Отличное знание Unity и всех её подсистем\n• Отличное знание C#, умение писать чёткий, понятный, структурированный код\n• Отличное знание паттернов проектирования\n• Умение верстать адаптивные интерфесы в uGUI\n• Умение отлаживать и оптимизировать проекты под мобильные платформы iOS/Android\n• Понимание Рендер пайплайна Unity3D, его тонких мест и принципов оптимизации\n• Уверенные знания по работе с системой контроля версий git\n• Умение разбираться в чужом коде, проводить рефакторинг\n• Дисциплинированность и ответственность\n\n\n✅ Плюсом будет:\n\n• Участие в разработке выпущенных игр под мобильные платформы на аналогичной должности\n• Умение работать с шейдерами\n• Опыт работы с нативными плагинами (In-Apps, PUSH notifications, аналитика, реклама, социальное взаимодействие)\n• Опыт работы с ecs (Unity DOTS, Entitas)\n• Умение разрабатывать и поддерживать стабильную архитектуру\n• Коммуникабельность, yмение чётко доносить свою точку зрения и принимать точку зрения остальных участников команды\n\n\n✅ Для вас:\n\n• Конкурентная заработная плата по результатам собеседования, выплачивается 2 раза в месяц без задержек\n• Необходимое оборудование заказываем под вас\n• Возможность обучаться английскому языку с носителями каждый будний день по утрам\n• Собеседование сразу же с руководителем, который принимает решение о найме\n\nНазвание компании: AppQuantum\n\nhttps://appquantum.com/\n\nКонтакты: \ne-mail: vika@adquantum.com\ntelegram: @wikki13","markup":[{"type":"hashtag","offset":0,"length":9,"data":"вакансия"},{"type":"hashtag","offset":10,"length":7,"data":"москва"},{"type":"hashtag","offset":18,"length":5,"data":"офис"},{"type":"hashtag","offset":24,"length":6,"data":"unity"},{"type":"hashtag","offset":31,"length":10,"data":"developer"},{"type":"hashtag","offset":42,"length":8,"data":"gamedev"},{"type":"hashtag","offset":51,"length":7,"data":"csharp"},{"type":"bold","offset":231,"length":18,"data":""},{"type":"bold","offset":705,"length":7,"data":""},{"type":"bold","offset":960,"length":11,"data":""},{"type":"bold","offset":1543,"length":13,"data":""},{"type":"bold","offset":2011,"length":8,"data":""},{"type":"link","offset":2362,"length":23,"data":"https://appquantum.com/"},{"type":"link","offset":2406,"length":18,"data":"mailto:vika@adquantum.com"},{"type":"handle","offset":2435,"length":8,"data":"wikki13"}],"date":"2020-06-25T10:07:53+00:00","link":"tg://resolve?domain=mobile_jobs&post=68667","tags":[{"name":"mobile"},{"name":"android"},{"name":"ios"},{"name":"unity3d"},{"name":"csharp"},{"name":"git"}],"cities":[{"code":"moscow"}],"allowsRemote":false}},{"node":{"__typename":"Job","id":"1735393280-1001091028994","title":"Java разработчик","text":"#java #senior #backend #js #Москва #fulltime #офис #angular\nЛокация: Москва, м. Шаболовская\nФормат работы: Office\nЗанятость: Fulltime\nЗарплата от 100 к до 240 к\nОписание вакансии:\nРазработчик JAVA (senior\\middle)\nНаш клиент - международная компания, в связи с расширением деятельности в России - приглашает опытных Java-разработчиков. \nРазработка собственного продукта - коммерческого приложения на основе Angular front + Java backend.\nОбязанности:\n- разработка новых компонентов системы\n- доработка и оптимизация существующих компонентов\n- поддержка качества кода (code review, использование систем автоматизированного контроля кода)\n- Написание юнит-тестов и функциональных тестов\n- Взаимодействие с бизнес-аналитиками для выполнения техзадания\nТребования:\n- Высшее образование\n- Командность, гибкость подходов и мышления\n- опыт разработки на java от 3 лет\nТехнические требования:\n- знание java 8, Spring-*(Boot, Data, Rest), Hibernate\n- опыт работы с SQL (SQL Server, Oracle или postgresql)\n- понимание основ микросервисной архитектуры\n- Git\n-если ты умеешь работать с Docker и понимаешь практики DevOps ты тот, кто нам нужен.\nАдекватных руководителей, сильную команду и офисные плюшки гарантируем\nКА Wit recruitment\nКонтакты m.buldenko@witrec.com\n@marinabuldenko","markup":[{"type":"hashtag","offset":0,"length":5,"data":"java"},{"type":"hashtag","offset":6,"length":7,"data":"senior"},{"type":"hashtag","offset":14,"length":8,"data":"backend"},{"type":"hashtag","offset":23,"length":3,"data":"js"},{"type":"hashtag","offset":27,"length":7,"data":"Москва"},{"type":"hashtag","offset":35,"length":9,"data":"fulltime"},{"type":"hashtag","offset":45,"length":5,"data":"офис"},{"type":"hashtag","offset":51,"length":8,"data":"angular"},{"type":"link","offset":1229,"length":21,"data":"mailto:m.buldenko@witrec.com"},{"type":"handle","offset":1251,"length":15,"data":"marinabuldenko"}],"date":"2020-06-25T09:30:21+00:00","link":"tg://resolve?domain=jvmjobs&post=1655","tags":[{"name":"java"},{"name":"jvm"},{"name":"angularjs"},{"name":"spring"},{"name":"rest"},{"name":"hibernate"},{"name":"sql"},{"name":"oracle"},{"name":"postgresql"},{"name":"git"},{"name":"docker"},{"name":"spring-boot"},{"name":"sql-server"}],"cities":[{"code":"moscow"}],"allowsRemote":false}},{"node":{"__typename":"Job","id":"103690534912-1001089317451","title":"Qa engineer","text":"#Москва #вакансия #QA #manual  #python\n\nДолжность: QA Engineer \nКомпания: Andromeda Lab\nЗП: до 120 000 \nФормат работы: офис, гибкое начало дня\nЗанятость: полная\n\n\nКого мы ищем:\nЧеловека который готов заниматься ручным тестированием 80% времени и 20% времени - автоматизацией. Со временем доля автоматизации вырастет до 50%. \nЕсли у вас не хватает каких-то скиллов - готовы учить и помогать развиваться. Мы очень ценим проактивность и готовность менять все вокруг себя. \n\nЗадачи:\n- Тестирование ERP-системы (состоит из более чем 40 приложений, объединенные в одну экосистему)\n- Введение документации для тестирования (Создание тест-кейсов, чек-листов и т.д.)\n- Тестирование мобильного приложения \n- Тестирование API\n- Участие в автоматизации тестирования продуктов компании\n\nОбязанности:\n- Понимание жизненного цикла разработки продукта\n- Знание теории и видов тестирования,  умение вести тестовую документацию;\n- Умение локализовать баги и оформлять баг репорты\n- Понимание и умение применять техники тест-дизайна\n- Тестирование API\n- Опыт использование Postman\n- Понимание мобильного тестирования \n- Знание и умение пользования командной строкой UNIX\n- Знание SQL (простые запросы), Git\n- Умение использовать снифферы (Charles,Fiddler и т.д.)\n- Понимание как работать с Docker\n- Начальные знания Python либо желание выучить в ближайшее время\n\nПредлагаем:\n- белая зп (до 120 000, зависит от опыта);\n- уютный офис в Moscow City (сладости, печенки,кофе\\чай,PS4 и т.д.);\n- ДМС,  курсы английского, участие в конференциях. \n\nРезюме скидывать в лс.","markup":[{"type":"hashtag","offset":0,"length":7,"data":"Москва"},{"type":"hashtag","offset":8,"length":9,"data":"вакансия"},{"type":"hashtag","offset":18,"length":3,"data":"QA"},{"type":"hashtag","offset":22,"length":7,"data":"manual"},{"type":"hashtag","offset":31,"length":7,"data":"python"}],"date":"2020-06-25T08:22:40+00:00","link":"tg://resolve?domain=qa_jobs&post=98887","tags":[{"name":"qa"},{"name":"python"},{"name":"unix"},{"name":"sql"},{"name":"git"},{"name":"docker"}],"cities":[{"code":"moscow"}],"allowsRemote":false}}]}}},"context":{}}