{"hash":"f5f6bf98bd95e769321482904cbbd488f77922fd","data":{"records":{"id":"android","name":"android","belongsTo":{"totalCount":165,"pageInfo":{"totalPages":17,"currentPage":2},"edges":[{"node":{"__typename":"Job","id":"104246280192-1001089317451","title":"Qa engineer","text":"#вакансия #qa #QAEngineer #спб #санктпетербург #fulltime \n\nPosition: Manual QA Engineer\nLocation: Saint Petersvurg\nSalary: ₽60 - 90k net\nOffice: Saint Petersburg\nCompany: Bekitzur \n\nResponsibilities:\n🔹Maintain QA process on iOS platform to fit fast pace and highest quality needs of a mature San Francisco-based mobile business;\n🔹Collaborate closely with other team members including US-based founders, managers and developers on a daily basis, work with the client representatives to prepare tasks and bugs for development team, clarify requirements with customers directly;\n🔹Maintain JIRA and up-to-date documentation in Confluence, Testrail and Figma;\n🔹Create and execute test cases and suites to ensure that the product specification is met for both iOS and Android platforms;\n🔹Analyze test results at the story or feature level and provide meaningful reports to the project and product team.\n\nRequired Skills and Experience:\n🔹3+ years experience with QA of mobile applications (iOS is preferred) and API testing;\n🔹Understanding of requirement elicitation and functional spec writing;\n🔹Excellent communication skills: upper-Intermediate English speaking skills to communicate by email and on conference calls;\n🔹Deep knowledge of testing theory\n\nNice to have:\n🔹Mobile or social network product QA experience;\n🔹Strong practical knowledge of Agile product development methodologies\n\nBenefits:\n🔹Friendly atmosphere\n🔹Competitive salary\n🔹Medical insurance, sport, English classes\n🔹Professional growth in the international business environment\n\nContact: @macarthur64","markup":[{"type":"hashtag","offset":0,"length":9,"data":"вакансия"},{"type":"hashtag","offset":10,"length":3,"data":"qa"},{"type":"hashtag","offset":14,"length":11,"data":"QAEngineer"},{"type":"hashtag","offset":26,"length":4,"data":"спб"},{"type":"hashtag","offset":31,"length":15,"data":"санктпетербург"},{"type":"hashtag","offset":47,"length":9,"data":"fulltime"},{"type":"bold","offset":59,"length":8,"data":""},{"type":"link","offset":69,"length":19,"data":"https://bekitzur.com/job/st-petersburg-qa-engineer/"},{"type":"bold","offset":88,"length":8,"data":""},{"type":"bold","offset":115,"length":6,"data":""},{"type":"bold","offset":137,"length":6,"data":""},{"type":"bold","offset":162,"length":7,"data":""},{"type":"link","offset":171,"length":8,"data":"https://bekitzur.com/"},{"type":"bold","offset":182,"length":18,"data":""},{"type":"bold","offset":903,"length":32,"data":""},{"type":"bold","offset":1258,"length":14,"data":""},{"type":"bold","offset":1395,"length":10,"data":""},{"type":"bold","offset":1557,"length":8,"data":""},{"type":"handle","offset":1566,"length":12,"data":"macarthur64"}],"date":"2020-07-02T13:44:26+00:00","link":"tg://resolve?domain=qa_jobs&post=99417","tags":[{"name":"qa"},{"name":"dotnet"},{"name":"ios"},{"name":"mobile"},{"name":"android"}],"cities":[{"code":"nice"},{"code":"san-francisco"}],"allowsRemote":false}},{"node":{"__typename":"Job","id":"72548876288-1001054966032","title":"Android developer","text":"#вакансия #Middle+ #Android developer #kotlin #удаленно                                                                                                         Уровень дохода:💵 130 000-150 000  рублей net                                                                                                                                                                                 Требуемый опыт работы: 2-4 года\nПолная занятость, дистанционно, гибкое начало рабочего дня\n \n📌Требования:\n- Нативная Android разработка (Kotlin)\n- Умение писать поддерживаемый и тестируемый код\n- Умение работать с Dagger 2\n- Умение работать с git\n- Желание развиваться и изучать новое в разработке\n- Опыт разработки приложений от 2 лет\n -Знание английского языка от уровня Intermediate\n \n📌Будет плюсом:\n- Опыт работы с JNI\n- Опыт использования tensorflow\n- Опыт работы с аудио и видео\n\n📌Условия:\n- Отсутствие бюрократии\n- Время начала рабочего дня обговариваем индивидуально\n- Крутой инновационный проект - возможность самореализации и профессионального роста\n- Стабильное зарубежное финансирование\n- Десятки миллионов установок и множество глобальных партнёров\n📞Контакты @SvetikS_hr +7(963)-632-12-36 Cветлана","markup":[{"type":"hashtag","offset":0,"length":9,"data":"вакансия"},{"type":"hashtag","offset":10,"length":7,"data":"Middle"},{"type":"hashtag","offset":19,"length":8,"data":"Android"},{"type":"hashtag","offset":38,"length":7,"data":"kotlin"},{"type":"hashtag","offset":46,"length":9,"data":"удаленно"},{"type":"handle","offset":1158,"length":11,"data":"SvetikS_hr"},{"type":"link","offset":1170,"length":17,"data":"tel:+7(963)-632-12-36"}],"date":"2020-07-02T13:23:17+00:00","link":"tg://resolve?domain=mobile_jobs&post=69188","tags":[{"name":"mobile"},{"name":"android"},{"name":"kotlin"},{"name":"dotnet"},{"name":"git"},{"name":"tensorflow"}],"cities":[],"allowsRemote":true}},{"node":{"__typename":"Job","id":"104219017216-1001089317451","title":"Qa инженер","text":"#вакансия #спб #job #fulltime #saintpetersburg #office #QA #mobileqa  #manual #Android #iOS\n\nQA\n\nКомпания: e-Legion\nСанкт-Петербург, м. Старая деревня\nФормат работы: офис (гибкое начало дня) \nЗанятость: полная\nЗарплатная вилка: от 70 тыс. руб.\n\nПривет! Ищем в команду тестировщика мобильных приложений. Ты будешь влиять на качество продукта крупных компаний. QA участвует во всех этапах создания продукта: от анализа требований до публикации в стор. Мы взаимодействуем со всеми отделами: от продаж до разработки. \n\nЧем будем заниматься:\n-тестировать мобильные приложения на платформах iOS и Android,\nна части проектов еще тестируем WEB\n-проводить тест-анализ и писать тестовую документацию\n-анализировать и тестировать требования\n-оформлять задачи в трекере Redmine или Jira\n\nНеобходимые навыки:\n-опыт тестирования мобильных приложений\n-знание техник тест–дизайна и умение их применять\n-умение работать с сетевыми снифферами — Fiddler, Charles\n-умение снимать и анализировать логи\n-знание гайдлайнов iOS и Android\n\nМы предлагаем:\n-гибкий график работы\n-офис в 7 минутах ходьбы от м. Старая Деревня\n-компенсацию спорта, обучения и медицины\n-обучение и систему наставничества, которые помогут быстро расти и получать новые грейды\n-возможность писать статьи для отраслевых медиа и выступать на конференциях и митапах\n\nСсылка на вакансию: https://www.e-legion.ru/vacancies/spb/qa/\nОтклики, резюме, вопросы пишите:\n@AlexandraShirokina или на почту hr@e-legion.com","markup":[{"type":"hashtag","offset":0,"length":9,"data":"вакансия"},{"type":"hashtag","offset":10,"length":4,"data":"спб"},{"type":"hashtag","offset":15,"length":4,"data":"job"},{"type":"hashtag","offset":20,"length":9,"data":"fulltime"},{"type":"hashtag","offset":30,"length":16,"data":"saintpetersburg"},{"type":"hashtag","offset":47,"length":7,"data":"office"},{"type":"hashtag","offset":55,"length":3,"data":"QA"},{"type":"hashtag","offset":59,"length":9,"data":"mobileqa"},{"type":"hashtag","offset":70,"length":7,"data":"manual"},{"type":"hashtag","offset":78,"length":8,"data":"Android"},{"type":"hashtag","offset":87,"length":4,"data":"iOS"},{"type":"link","offset":1335,"length":41,"data":"https://www.e-legion.ru/vacancies/spb/qa/"},{"type":"handle","offset":1410,"length":19,"data":"AlexandraShirokina"},{"type":"link","offset":1443,"length":15,"data":"mailto:hr@e-legion.com"}],"date":"2020-07-02T12:46:57+00:00","link":"tg://resolve?domain=qa_jobs&post=99391","tags":[{"name":"qa"},{"name":"android"},{"name":"ios"},{"name":"web"}],"cities":[],"allowsRemote":false}},{"node":{"__typename":"Job","id":"72537341952-1001054966032","title":"Android разработчик","text":"#вакансия #android #java #kotlin #офис #москва\nм.Бауманская, полная занятость\nБелая з/п 150.000 - 200.000 руб. на руки\nAndroid developer\nУдаленки нет\n\nМы — команда разработки Level.Travel, сложного продукта в сфере путешествий. За последние 8 лет мы с нуля создали и продолжаем развивать решение для онлайн-продажи путешествий. Нашу платформу используют лидеры рынка – Тинькофф Банк, OneTwoTrip, Сбербанк, TripAdvisor, Kayak, АК Барс Банк, Евросеть и многие другие. Компания Level.Travel является резидентом Инновационного центра «Сколково».\n\nОбязанности:\n🔸Разработка приложения со сложным UI в команде разработчиков\n🔸Построение архитектуры\n🔸Реализация клиент-серверного взаимодействия\n🔸Написание тестов\n\nОт Вас:\n🔸От 2-х лет в разработке на Android\n🔸Знание Java/Kotlin на уровне ведущего разработчика\n🔸Знание архитектурных паттернов (MVVM / Clean Architecture), ООП\n🔸Знания цикла работы приложения, управления памятью\n🔸Опыт работы или понимание RxJava, RxAndroid, Retrofit, Dagger2, Android Data Binding\n🔸Понимание Android Architecture Components будет плюсом\n🔸CI / CD\n🔸Все тонкости работы с клиент-серверной архитектурой\n🔸Умение отлаживать приложение, профилирование кода\n\nОт нас: белая зп, официальное трудоустройство, больничные, отпуска. Скидки на изучение английского языка, техника MacBook Pro. Регулярная обратная связь и аттестации. Геймификация процессов и несколько раз в год релокейты поработать в другую страну. Клевый молодой коллектив, интересные ивенты, насыщенная корпоративная жизнь. Пинг-понг, бильярд, кальян и другие развлечения в офисе. Скидки на путешествия)\n\nСвязь по почте : vos@level.travel\nИли тут @Alyask_a","markup":[{"type":"hashtag","offset":0,"length":9,"data":"вакансия"},{"type":"hashtag","offset":10,"length":8,"data":"android"},{"type":"hashtag","offset":19,"length":5,"data":"java"},{"type":"hashtag","offset":25,"length":7,"data":"kotlin"},{"type":"hashtag","offset":33,"length":5,"data":"офис"},{"type":"hashtag","offset":39,"length":7,"data":"москва"},{"type":"bold","offset":78,"length":40,"data":""},{"type":"bold","offset":119,"length":17,"data":""},{"type":"bold","offset":151,"length":76,"data":""},{"type":"bold","offset":544,"length":12,"data":""},{"type":"bold","offset":710,"length":7,"data":""},{"type":"bold","offset":1188,"length":7,"data":""},{"type":"bold","offset":1596,"length":33,"data":""},{"type":"link","offset":1613,"length":16,"data":"mailto:vos@level.travel"},{"type":"bold","offset":1630,"length":17,"data":""},{"type":"handle","offset":1638,"length":9,"data":"Alyask_a"}],"date":"2020-07-02T12:22:40+00:00","link":"tg://resolve?domain=mobile_jobs&post=69177","tags":[{"name":"mobile"},{"name":"android"},{"name":"java"},{"name":"kotlin"},{"name":"mvvm"}],"cities":[{"code":"moscow"}],"allowsRemote":false}},{"node":{"__typename":"Job","id":"104215871488-1001089317451","title":"Qa инженер","text":"#вакансия #qa #Москва #офис #fulltime \n🌀Если Вы - manual qa с опытом тестирования Web и mobile приложений от 2-х лет\n🌀Если Вы хотите профессионально развиваться в крутой команде\n\nПишите на avinogradova@corpteamo.com\n\n📝Кто мы?\n💟Teamo - ведущий сервис знакомств, www.teamo.ru \n\n📝Что нужно будет делать? \n- обеспечивать качества разрабатываемого ПО (web приложение + мобильные приложения);\n- выполнять различные виды ручного тестирования (функциональное, исследовательское, приемочное и др.);\n- находить и документировать дефекты;\n- взаимодействовать с другими участниками процесса разработки ПО (аналитики, разработчики, бизнес-пользователи) для быстрого и качественного устранения дефектов\n\n📝Что нужно уметь?\n- опыт тестирования web и мобильных приложений;\n- опыт тестирования без функциональной спецификации;\n- умение взаимодействовать с командой в целях улучшения конечного продукта;\n- опыт работы с баг-трекинговыми системами (Redmine, Jira и аналоги)\n- понимание принципов работы современных веб-приложений, понимание клиент-серверной архитектуры, взаимодействия API и его клиентов (web-сайт, ios/android-приложения);\n- умение локализовать дефект, грамотно описать его в task-трекере с последующим сопровождением процесса устранения;\n- понимание и поиск уязвимостей (sql injection, csrf, xss, etc); \n\n📝 Будет плюсом:\n- знакомство с инструментами автоматизированного тестирования (Selenium, Appium, etc);\n- опыт тестирования API, умение пользоваться инструментом для работы с HTTP-запросами Postman/Fiddler;\n  \n📝Что мы предлагаем?\n- возможность присоединиться к работе над успешным продуктом в нише Dating’a;\n- возможность повлиять на масштабную аудиторию пользователей и быстро увидеть результат своей работы;\n- дружную команду. Вы приносите свои идеи и методы для которых мы предоставим Вам требуемые ресурсы;\n- минимум бюрократии;\n- официальное оформление и \"белая\" заработная плата с компенсацией больничных. Вилка з/п 90-120т.р.net;\n- пятидневная рабочая неделя с возможностью выбрать удобное начало рабочего дня;\n- уютный офис в пешей доступности от ст.м. ул.1905 года;\n- плюшки, печеньки, фрукты;","markup":[{"type":"hashtag","offset":0,"length":9,"data":"вакансия"},{"type":"hashtag","offset":10,"length":3,"data":"qa"},{"type":"hashtag","offset":14,"length":7,"data":"Москва"},{"type":"hashtag","offset":22,"length":5,"data":"офис"},{"type":"hashtag","offset":28,"length":9,"data":"fulltime"},{"type":"link","offset":191,"length":26,"data":"mailto:avinogradova@corpteamo.com"},{"type":"bold","offset":231,"length":6,"data":""},{"type":"link","offset":265,"length":12,"data":"http://www.teamo.ru"},{"type":"link","offset":1933,"length":13,"data":"http://90-120т.р.net"}],"date":"2020-07-02T12:06:10+00:00","link":"tg://resolve?domain=qa_jobs&post=99388","tags":[{"name":"qa"},{"name":"web"},{"name":"mobile"},{"name":"ios"},{"name":"android"},{"name":"sql"},{"name":"selenium"},{"name":"dotnet"}],"cities":[{"code":"moscow"}],"allowsRemote":false}},{"node":{"__typename":"Job","id":"72536293376-1001054966032","title":"Android разработчик","text":"#вакансия #москва #офис #android \n\nгород: Москва\nформат работы: офис\nзанятость: полная\nзарплатная вилка: 150-200\nвакансия: Ищу Android-разработчика  middle+, готового возглавить развитие  и поддержку приложения.\n\nо компании: Электронное издательство «Юрайт» Мы работаем со всеми вузами страны и считаем своей главной целью повышение образовательного уровня в России.\nwww.urait.ru\n\nо проекте: Над проектом работает 20 человек. Приложение заказывали на стороне в 2019 г. Теперь решили собрать свою команду для рефакторинга и выведения на новый уровень.\n\nЧто ждет от тебя будущее нашего образования:\nПоддержку и развитие нашего приложения;\nПеренос функционала из web;\nВзаимодействие с командой - аналитиками и тестировщиками;\nУчастие в развитии проекта.\n\nСкажем тебе уверенное “да”, если ты:\nИмеешь успешный опыт разработки и поддержки под Android  (Android Studio, Gradle);\nИмеешь опыт разработки на Kotlin;\nИмеешь успешный опыт разработки клиент-серверных приложений (REST, JSON);\nТрогал архитектуру (MVP, Clean architecture);\nЗнаешь  Android application architecture, Android SDK, Gradle;\nВладеешь паттернами UI;\nЗнаешь, зачем нужен Git, без контроля версий никуда, правда?\nМожешь писать тесты;\nГотов ин-хаус исправлять код от аутсорса. Уверен в том, что ты сделаешь круче, чем исполнители на стороне =)\n\nКак и что по условиям\nОфис с плюшками в 5 минутах от м. Шоссе Энтузиастов, Мск\nГибкое начало дня:  с 8 до 11 \nВсе по ТК РФ + соц.пакет \nАдекватные коллеги и руководство!!!\n\n\nЗаинтересовало?\nДмитрий @tankograin","markup":[{"type":"hashtag","offset":0,"length":9,"data":"вакансия"},{"type":"hashtag","offset":10,"length":7,"data":"москва"},{"type":"hashtag","offset":18,"length":5,"data":"офис"},{"type":"hashtag","offset":24,"length":8,"data":"android"},{"type":"bold","offset":225,"length":32,"data":""},{"type":"bold","offset":270,"length":22,"data":""},{"type":"bold","offset":323,"length":42,"data":""},{"type":"link","offset":367,"length":12,"data":"http://www.urait.ru"},{"type":"bold","offset":552,"length":45,"data":""},{"type":"bold","offset":752,"length":37,"data":""},{"type":"bold","offset":1305,"length":22,"data":""},{"type":"handle","offset":1503,"length":11,"data":"tankograin"}],"date":"2020-07-02T11:44:19+00:00","link":"tg://resolve?domain=mobile_jobs&post=69176","tags":[{"name":"mobile"},{"name":"android"},{"name":"web"},{"name":"gradle"},{"name":"kotlin"},{"name":"rest"},{"name":"json"},{"name":"git"},{"name":"android-studio"}],"cities":[{"code":"moscow"}],"allowsRemote":false}},{"node":{"__typename":"Job","id":"17317232640-1001110946746","title":"Javascript developer","text":"#вакансия #ReactNative #Одесса\n🔹Локация: Одесса,  #Odessa, р-н Пересыпи\n🔹Формат работы: #Офис / #удаленка\n🔹Занятость: Полная занятость, #Fulltime\n🔹Вилка 1700-2500 уе, дважды в год Performance Review.\n\n☀Вакансия Middle React Native developer\n🔹Описание вакансии:\n- 4+ years of experience in software development and JavaScript (ES6+).\n- 2+ years of experience with React Native.\n- Experience with commercial native applications development (IOS/Android).\n- Understanding and experience with building the full mobile application’s lifecycle.\n- Knowledge of architecture design and experience working knowledge of SOAP and RESTful integrations.\n- Intermediate written and spoken English.\nБудет плюсом:\n- Experience with native SDKs for Android (Kotlin/Java) and/or iOS (Swift).\n\n\n🔹Компания Attract Group.\n🔹Контакты:\n✏️телеграм @Niedova_Olga,\n✏️почта hr@attractgroup.com.\n\n—\n\n👉 Обсуждение вакансии в чате @javascript_jobs","markup":[{"type":"hashtag","offset":0,"length":9,"data":"вакансия"},{"type":"hashtag","offset":10,"length":12,"data":"ReactNative"},{"type":"hashtag","offset":23,"length":7,"data":"Одесса"},{"type":"hashtag","offset":51,"length":7,"data":"Odessa"},{"type":"hashtag","offset":90,"length":5,"data":"Офис"},{"type":"hashtag","offset":98,"length":9,"data":"удаленка"},{"type":"hashtag","offset":139,"length":9,"data":"Fulltime"},{"type":"handle","offset":830,"length":13,"data":"Niedova_Olga"},{"type":"link","offset":853,"length":19,"data":"mailto:hr@attractgroup.com"},{"type":"handle","offset":908,"length":16,"data":"javascript_jobs"}],"date":"2020-07-02T11:06:21+00:00","link":"tg://resolve?domain=javascript_jobs_feed&post=16515","tags":[{"name":"javascript"},{"name":"reactjs"},{"name":"ios"},{"name":"android"},{"name":"mobile"},{"name":"soap"},{"name":"kotlin"},{"name":"java"},{"name":"swift"},{"name":"react-native"}],"cities":[{"code":"odessa"}],"allowsRemote":true}},{"node":{"__typename":"Job","id":"72534196224-1001054966032","title":"Mobile разработчик","text":"#вакансия #работа #ios #android #Swift #kotlin #Москва #удаленка #remote #офис #mobile\nГород: Москва\nФормат работы: офис или удаленка\nЗанятость: полная, частичная, проектная, обсуждаем все варианты\nЗарплатная вилка: от 150 000 до 300 000 рублей\nКонтакты: 📲 @d_aleshina\n📧d.aleshina@ancor.ru\n\nТребования: Коммерческий опыт разработки на iOS или Android от 2-х лет\n\nОписание вакансии: Ищем мобильных разработчиков на несколько крупных FinTech-проектов (всегда есть возможность выбрать наиболее вам интересный), текущих или со стартом через 1-2 месяца и далее. \n\nУсловия:\n🔸У нас 100% белая зп (фиксированный оклад), ДМС со стоматологией, международной страховкой, оплачиваемая мобильная связь.  \n🔸По доходу и условиям мы гибкие, готовы договариваться с вами, отталкиваемся от пожеланий.  \n🔸Есть возможности роста по уровню дохода, по роли в проектах, а также возможность выбрать альтернативный проект, перейти в новую команду. \n\nКомпания: ANCOR FinTech https://ancor.ru\nЗа подробностями пишите 📲@d_aleshina","markup":[{"type":"hashtag","offset":0,"length":9,"data":"вакансия"},{"type":"hashtag","offset":10,"length":7,"data":"работа"},{"type":"hashtag","offset":18,"length":4,"data":"ios"},{"type":"hashtag","offset":23,"length":8,"data":"android"},{"type":"hashtag","offset":32,"length":6,"data":"Swift"},{"type":"hashtag","offset":39,"length":7,"data":"kotlin"},{"type":"hashtag","offset":47,"length":7,"data":"Москва"},{"type":"hashtag","offset":55,"length":9,"data":"удаленка"},{"type":"hashtag","offset":65,"length":7,"data":"remote"},{"type":"hashtag","offset":73,"length":5,"data":"офис"},{"type":"hashtag","offset":79,"length":7,"data":"mobile"},{"type":"bold","offset":87,"length":5,"data":""},{"type":"bold","offset":101,"length":13,"data":""},{"type":"bold","offset":134,"length":11,"data":""},{"type":"bold","offset":198,"length":17,"data":""},{"type":"bold","offset":245,"length":9,"data":""},{"type":"handle","offset":258,"length":11,"data":"d_aleshina"},{"type":"link","offset":270,"length":23,"data":"http://%F0%9F%93%A7d.aleshina@ancor.ru/"},{"type":"bold","offset":293,"length":12,"data":""},{"type":"bold","offset":365,"length":19,"data":""},{"type":"bold","offset":561,"length":9,"data":""},{"type":"bold","offset":930,"length":10,"data":""},{"type":"link","offset":954,"length":16,"data":"https://ancor.ru"},{"type":"handle","offset":997,"length":11,"data":"d_aleshina"}],"date":"2020-07-02T10:55:01+00:00","link":"tg://resolve?domain=mobile_jobs&post=69174","tags":[{"name":"mobile"},{"name":"android"},{"name":"ios"},{"name":"swift"},{"name":"kotlin"}],"cities":[{"code":"moscow"}],"allowsRemote":true}},{"node":{"__typename":"Job","id":"72533147648-1001054966032","title":"Android разработчик","text":"#Android #Kotlin #вакансия #офис #Санкт-Петербург\nЗанятость: полная, опыт: 1-3  лет\nЗарплатная вилка: от 80 т.р до 160 т.р\n\nЧем предстоит заниматься:\n•  Разработкой приложений разного профиля под андроид\n\nТребования:\n•  Знание Kotlin\n•  Знание архитектуры OS Android\n•  Опыт разработки UI компонентов\n•  Опыт работы с геолокацией и GPS\n•  Знание систем контроля версий (Git)\n•  Обязательно: примеры работ с геолокацией/картами/gps\n\nБудет плюсом:\n•  Опыт работы с видео\n•  Реализованные проекты в Google Play\n\nМы предлагаем:\n•  Участие в разработке интересных проектов\n•  Возможность быть проактивным, влиять на процессы и общий результат\n•  Молодую команду увлеченных людей\n•  Комфортную лаундж зону, овощи, фрукты, закуски\nВ сопроводительном письме просим указать примеры работ с геолокацией /картами/gps.\nНазвание компании: AI.People\nРезюме прислать: dina.maystruk@aipeople.ru, либо в телеграм @dinochkamay","markup":[{"type":"hashtag","offset":0,"length":8,"data":"Android"},{"type":"hashtag","offset":9,"length":7,"data":"Kotlin"},{"type":"hashtag","offset":17,"length":9,"data":"вакансия"},{"type":"hashtag","offset":27,"length":5,"data":"офис"},{"type":"hashtag","offset":33,"length":6,"data":"Санкт"},{"type":"link","offset":853,"length":25,"data":"mailto:dina.maystruk@aipeople.ru"},{"type":"handle","offset":896,"length":12,"data":"dinochkamay"}],"date":"2020-07-02T10:30:36+00:00","link":"tg://resolve?domain=mobile_jobs&post=69173","tags":[{"name":"mobile"},{"name":"android"},{"name":"kotlin"},{"name":"git"},{"name":"playframework"}],"cities":[],"allowsRemote":false}},{"node":{"__typename":"Job","id":"72525807616-1001054966032","title":"Mobile developer","text":"#вакансия #ReactNative #Одесса\n🔹Локация: Одесса,  #Odessa, р-н Пересыпи\n🔹Формат работы: #Офис / #удаленка\n🔹Занятость: Полная занятость, #Fulltime\n🔹Вилка $1700-$2500, дважды в год Performance Review.\n\n☀Вакансия Middle React Native developer\n🔹Описание вакансии:\n- 4+ years of experience in software development and JavaScript (ES6+).\n- 2+ years of experience with React Native.\n- Experience with commercial native applications development (IOS/Android).\n- Understanding and experience with building the full mobile application’s lifecycle.\n- Knowledge of architecture design and experience working knowledge of SOAP and RESTful integrations.\n- Experience with native SDKs for Android (Kotlin/Java) and/or iOS (Swift).\n- Intermediate written and spoken English.\n\n🔹Компания Attract Group.\n🔹Контакты:\n✏️телеграм @Niedova_Olga,\n✏️почта hr@attractgroup.com.","markup":[{"type":"hashtag","offset":0,"length":9,"data":"вакансия"},{"type":"hashtag","offset":10,"length":12,"data":"ReactNative"},{"type":"hashtag","offset":23,"length":7,"data":"Одесса"},{"type":"hashtag","offset":51,"length":7,"data":"Odessa"},{"type":"hashtag","offset":90,"length":5,"data":"Офис"},{"type":"hashtag","offset":98,"length":9,"data":"удаленка"},{"type":"hashtag","offset":139,"length":9,"data":"Fulltime"},{"type":"handle","offset":814,"length":13,"data":"Niedova_Olga"},{"type":"link","offset":837,"length":19,"data":"mailto:hr@attractgroup.com"}],"date":"2020-07-02T09:41:39+00:00","link":"tg://resolve?domain=mobile_jobs&post=69166","tags":[{"name":"mobile"},{"name":"android"},{"name":"ios"},{"name":"reactjs"},{"name":"javascript"},{"name":"soap"},{"name":"kotlin"},{"name":"java"},{"name":"swift"},{"name":"react-native"}],"cities":[{"code":"odessa"}],"allowsRemote":true}}]}}},"context":{}}