{"hash":"f34fd2c444a074f4e0e67d525015a008ef8e766f","data":{"records":{"id":"rabbitmq","name":"rabbitmq","belongsTo":{"totalCount":55,"pageInfo":{"totalPages":6,"currentPage":5},"edges":[{"node":{"__typename":"Job","id":"233832448-1001352129329","title":"Golang разработчик","text":"#вакансия #Москва #удаленка #fulltime \nНазвание компании: xpate\nНазвание вакансии: Go developer\nЗарплатная вилка (после налогов в стандартной валюте расчетов компании): 2500 - 4000 EUR\nДоступна ли удалённая работа: да, так как вся команда распределенная\nГород: Москва \nСписок языков, которые необходимо знать: Русский, Английский\n\nСписок необходимых навыков:\n- отличные знания Golang и его экосистемы;\n- понимание принципов работы с распределёнными брокерами сообщений (Kafka / RabbitMQ);\n- опыт работы и понимание принципов построения мультипоточных систем; \n- знание SQL;\n- понимание и применение принципов разработки программного обеспечения: SOA, SOLID, KISS, DRY;\n- опыт разработки микросервисной архитектуры;\n- готовность предлагать архитектурные решения, активное участие в проектировании архитектуры продукта;\n- склонность к авантюризму и желание развиваться вместе с компанией.😉 \n\nО нас: xpate - это европейская финтех-компания, которая делает быстрый и удобный продукт в необанкинге. Мы пишем своё собственное решение банковского ядра и платёжный шлюз, который интегрируется с различными эквайринг-системами. Центральный офис в Риге, часть команды работает в Москве и удаленно.\n\nКого мы ищем: Golang разработчика, который поможет нам создать ядро банковской системы и решение по интернет-эквайрингу. В команде сейчас есть CTO, 3 фронтендера на React и 4 бэкенд разработчика на Go. Среди нас есть много ребят с разных высоконагруженных проектов, в том числе из Gett и Mail. Вся команда распределенная.\n\nКонтакты:\ntelegram: @kvrtree\nпочта: Kirill.vladimirov@xpate.com\n Автор @kvrtree","markup":[{"type":"hashtag","offset":0,"length":9,"data":"вакансия"},{"type":"hashtag","offset":10,"length":7,"data":"Москва"},{"type":"hashtag","offset":18,"length":9,"data":"удаленка"},{"type":"hashtag","offset":28,"length":9,"data":"fulltime"},{"type":"handle","offset":1533,"length":8,"data":"kvrtree"},{"type":"link","offset":1549,"length":27,"data":"mailto:Kirill.vladimirov@xpate.com"},{"type":"handle","offset":1584,"length":8,"data":"kvrtree"}],"date":"2020-02-17T16:46:02+00:00","link":"tg://resolve?domain=gogetajobfeed&post=223","tags":[{"name":"go"},{"name":"kafka"},{"name":"rabbitmq"},{"name":"sql"},{"name":"reactjs"}],"cities":[{"code":"moscow"}],"allowsRemote":true}},{"node":{"__typename":"Job","id":"224395264-1001352129329","title":"Golang разработчик","text":"#вакансия #office #golang #fulltime \nВакансия: Golang разработчик\nФормат работы: fulltime, офис\nМесто работы: Москва, м. Сухаревская, Проспект мира 3с3 (100 метров от метро)\nЗП: от 180 000 до 200 000 net.\n\nЧто мы ждём от вас\nопыт работы с GoLang\nопыт работы с MongoDB\nумеете пользоваться Git\n\nВ проекте мы используем Docker, RabbitMQ, Redis, ElasticSearch - будет плюсом, если вы имели опыт работы с чем-то из этого списка. Если нет - приходите и мы научим\n\nЧто у нас есть\nминимум формальностей и множество возможностей проявить себя, стать лидером команды\nпогружение в изучение и использование различных практик и инструментов современной разработки\nполностью «белая» зарплата\nгибкий график работы\n\nСтек\n- Golang, NodeJS, Redis, RabbitMQ, ElasticSearch, MongoDB, ClickHouse\n- для ведения задач и хранения кода мы используем GitLab\n- используем практики CI & CD - наши проекты автоматически разворачиваются на серверах, а некоторые из них «гоняются» автотестами\n- Docker в наших сердцах - все продакшны работают на Docker внутри Kubernetes\n- вся инфраструктура находится внутри AWS\n- собираем метрики и организуем мониторинг наших проектов с помощью CloudWatch\n\nКомпания: Фармспейс\nСайт: https://pharmaspace.ru\nПродукт: маркетплейс фармакологической тематики.\n\nКонтакты @irarudakova\n Автор @irarudakova","markup":[{"type":"hashtag","offset":0,"length":9,"data":"вакансия"},{"type":"hashtag","offset":10,"length":7,"data":"office"},{"type":"hashtag","offset":18,"length":7,"data":"golang"},{"type":"hashtag","offset":26,"length":9,"data":"fulltime"},{"type":"link","offset":1188,"length":22,"data":"https://pharmaspace.ru"},{"type":"handle","offset":1270,"length":12,"data":"irarudakova"},{"type":"handle","offset":1290,"length":12,"data":"irarudakova"}],"date":"2020-02-10T08:23:12+00:00","link":"tg://resolve?domain=gogetajobfeed&post=214","tags":[{"name":"go"},{"name":"dotnet"},{"name":"mongodb"},{"name":"git"},{"name":"docker"},{"name":"rabbitmq"},{"name":"redis"},{"name":"elasticsearch"},{"name":"nodejs"},{"name":"gitlab"},{"name":"kubernetes"},{"name":"amazon-web-services"}],"cities":[{"code":"moscow"}],"allowsRemote":false}},{"node":{"__typename":"Job","id":"217055232-1001352129329","title":"Golang разработчик","text":"#вакансия #office #golang #fulltime \nВакансия: Golang разработчик\nФормат работы: fulltime, офис\nМесто работы: Москва, м. Сухаревская, Проспект мира 3с3\nПродукт: маркетплейс фармакологической тематики совместно с X5 Retail group.\nЗП: от 150 000 до 200 000 net.\n\nЧто мы ждём от вас\n- опыт работы с GoLang\n- опыт работы с MongoDB\n- умеете пользоваться Git\n- желание работать в команде, вносить идеи и предложение по совершенствованию продукта\nВ проекте мы используем Docker, RabbitMQ, Redis, ElasticSearch - будет плюсом, если вы имели опыт работы с чем-то из этого списка. Если нет - приходите и мы научим\n\nЧто у нас есть\n- минимум формальностей и множество возможностей проявить себя\n- погружение в изучение и использование различных практик и инструментов\nсовременной разработки\n- молодую, дружную и целеустремленную команду профессионалов\n- работу над интересными и востребованными сервисами\n- полностью «белая» зарплата\n- гибкий график работы\n- современный удобный офис в минуте ходьбы от станций метро Сухоревская\n\nСтек\n- у нас большой стек современных технологий - Golang, NodeJS, Redis, RabbitMQ, ElasticSearch, MongoDB, ClickHouse\n- для ведения задач и хранения кода мы используем GitLab\n- используем практики CI & CD - наши проекты автоматически разворачиваются на серверах, а некоторые из них - «гоняются» автотестами\n- Docker в наших сердцах - все продакшны работают на Docker внутри Kubernetes\n- вся инфраструктура находится внутри AWS\n- собираем метрики и организуем мониторинг наших проектов с помощью CloudWatch\n\nКомпания: Фармспейс\nСайт: https://pharmaspace.ru\nПродукт: маркетплейс фармакологической тематики совместно с X5 Retail group.\n\nПо всем вопросам в личку или в телегу @irarudakova\n Автор @irarudakova","markup":[{"type":"hashtag","offset":0,"length":9,"data":"вакансия"},{"type":"hashtag","offset":10,"length":7,"data":"office"},{"type":"hashtag","offset":18,"length":7,"data":"golang"},{"type":"hashtag","offset":26,"length":9,"data":"fulltime"},{"type":"link","offset":1552,"length":22,"data":"https://pharmaspace.ru"},{"type":"handle","offset":1691,"length":12,"data":"irarudakova"},{"type":"handle","offset":1711,"length":12,"data":"irarudakova"}],"date":"2020-02-03T19:00:39+00:00","link":"tg://resolve?domain=gogetajobfeed&post=207","tags":[{"name":"go"},{"name":"dotnet"},{"name":"mongodb"},{"name":"git"},{"name":"docker"},{"name":"rabbitmq"},{"name":"redis"},{"name":"elasticsearch"},{"name":"nodejs"},{"name":"gitlab"},{"name":"kubernetes"},{"name":"amazon-web-services"}],"cities":[{"code":"moscow"}],"allowsRemote":false}},{"node":{"__typename":"Job","id":"87031808-1001375797688","title":".net разработчик","text":"#вакансия #орел #fulltime #офис #csharp #netframework\nВсем привет! ✋\nКомпания ИнСистем в поисках C# разработчиков в офис в г. Орел:\n\nОсновные обязанности:\n- Разработка высоконагруженных систем;\n- Поддержка и сопровождение текущих проектов.\n\nДля нас важно: \n- Опыт разработки более 2-х лет.\n- Знание C#, RabbitMQ, LINQ, Git, MySQL, MongoDB, WCF, .NET Framework.\n- Опыт работы с реляционными базами данных.\n\nГотовы рассматривать кандидатов уровня Middle и Senior с заработной вилкой до 150 000 р. на руки. \nУ нас есть все необходимое для работы и отдыха: комфортный современный офис, компенсация поездок на IT – конференции и митапы, бесплатные обеды, спорт зал, современный подход к управлению, постановке задач, процессам.\n\nБуду рада Вашим вопросам и резюме: \n✍️  @hrkaterina \n📨 personal.insistem@gmail.com","markup":[{"type":"hashtag","offset":0,"length":9,"data":"вакансия"},{"type":"hashtag","offset":10,"length":5,"data":"орел"},{"type":"hashtag","offset":16,"length":9,"data":"fulltime"},{"type":"hashtag","offset":26,"length":5,"data":"офис"},{"type":"hashtag","offset":32,"length":7,"data":"csharp"},{"type":"hashtag","offset":40,"length":13,"data":"netframework"},{"type":"bold","offset":133,"length":22,"data":""},{"type":"bold","offset":241,"length":16,"data":""},{"type":"bold","offset":438,"length":13,"data":""},{"type":"bold","offset":453,"length":7,"data":""},{"type":"handle","offset":764,"length":11,"data":"hrkaterina"},{"type":"link","offset":780,"length":27,"data":"mailto:personal.insistem@gmail.com"}],"date":"2020-01-31T15:41:51+00:00","link":"tg://resolve?domain=DotNetRuJobsFeed&post=83","tags":[{"name":"dotnet"},{"name":"csharp"},{"name":"rabbitmq"},{"name":"linq"},{"name":"git"},{"name":"mysql"},{"name":"mongodb"},{"name":"wcf"}],"cities":[],"allowsRemote":false}},{"node":{"__typename":"Job","id":"214958080-1001352129329","title":"Go developer","text":"#вакансия #fulltime #remote #office #relocate #Amsterdam\n\nSenior Software Engineer - Kickstox (Amsterdam, The Netherlands)\n€48.000 - €58.000 / year (gross)\n\nAt Kickstox we have the modest goal of reinventing fantasy football and transforming it into a 24/7, real time game that allows football fans to meet, greet and compete. For this we have created the Kickstox exchange where users can trade fictional stocks of their favourite football players, check how they perform in real-time, compete in different competition formats and challenge their friends to prove them they know best about football, every day – every play!\nWe need you to be the best of both worlds; a manager who takes complete control of the Tech team and also a creative, senior back-end developer that is not afraid to get his or her hands dirty. The foundations have been laid but the quest to expand and improve is never ending and for that we look to you. You are in charge of reaching the milestones, building responsive and elegant web applications, improve usability and customer experience and find solutions to the everyday challenges that come up.\nYou will have a small team of different skill sets to manage with a high probability of expansion in the near future. \n\nYour skills:\nA great sense of ownership and responsibility\nInsightfulness and a hawk’s eye for detail\nConstant drive to grow fast and improve yourself\nA problem-solving mindset that thinks in solutions\nResourcefulness, thinking creatively and optimistically \nProven experience with managing multi-talented and multi-national teams\nProject management with teams of varying technical skills using scrum protocols\nFull professional command of English\n\nProfound working knowledge with:\n▪ Go \n▪ Postgres(TimescaleDB)\n▪ Redis\n▪ RabbitMQ\n▪ MQTT/Websocket\n\nOur infrastructure runs over Google Cloud Platform using Docker, Kubernetes and Gitlab. And is provisioned by Ansible.\n\nAnd a love for the beautiful game is definitely a pro!\n\nWhat can we offer\nAs a key part of the technical heart of the company you get the freedom to think and work out new functions. Ideas and suggestions are greatly appreciated and more importantly, they are listened to. We want to expand and rapidly conquer this market in the coming years. This offers opportunity for you to become included in the success of the company.\n\nContact @cra3y\n Автор @cra3y","markup":[{"type":"hashtag","offset":0,"length":9,"data":"вакансия"},{"type":"hashtag","offset":10,"length":9,"data":"fulltime"},{"type":"hashtag","offset":20,"length":7,"data":"remote"},{"type":"hashtag","offset":28,"length":7,"data":"office"},{"type":"hashtag","offset":36,"length":9,"data":"relocate"},{"type":"hashtag","offset":46,"length":10,"data":"Amsterdam"},{"type":"handle","offset":2353,"length":6,"data":"cra3y"},{"type":"handle","offset":2367,"length":6,"data":"cra3y"}],"date":"2020-01-31T11:21:41+00:00","link":"tg://resolve?domain=gogetajobfeed&post=205","tags":[{"name":"go"},{"name":"playframework"},{"name":"web"},{"name":"postgresql"},{"name":"redis"},{"name":"rabbitmq"},{"name":"websocket"},{"name":"cloud"},{"name":"docker"},{"name":"kubernetes"},{"name":"gitlab"},{"name":"ansible"},{"name":"google-cloud-platform"}],"cities":[{"code":"amsterdam"}],"allowsRemote":true}},{"node":{"__typename":"Job","id":"212860928-1001352129329","title":"Golang разработчик","text":"#вакансия #backend #developer\nВсем привет! Я рекрутер из компании СофтТелематика и мы собираем wow команду golang разработчиков. \nФормат работы: fulltime, офис, гибкий график\nЛокация: Москва, Савеловская\nЗП: до 300 000 net +бонусы\n\nМы занимаемся заказной разработкой и делаем большие информационные системы, У нас стартовал новый проект \"Умная дорога\" для транспортных магистралей и мы существенно расширяем команду разработки. \n\nЧто надо будет кодить:\n - backend проекта, фактически с нуля\n - интеграции с разнообразным периферийным оборудованием (метеостанции, камеры, шлагбаумы, весы и пр.)\n\nЧто хотим от будущего коллеги: \n- Уверенные знания Go и опыт разработки от года. \n- Опыт серверной асинхронной / многопоточной разработки\n- Опыт работы с ClickHouse, PostgreSQL,MySSQL, in-memory базами, системами обмена сообщений (RabbitMQ)\n- Опыт интеграции с API сторонних Web-сервисов. Приветствуется опыт интеграции оборудования\n- Знание и понимание о HTTP, CoAP, MQTT, gRPC, REST, JSON, SOAP, XML\n- Опыт работы с протоколом SNMP\n- Понимание особенностей микросервисной архитектуры\n- Адекватно выбирать инструменты и находить золотую середину\n- будет круто если есть опыт работы в сфере автоматизации транспортных систем.\n\nЧто предлагаем:\n- высокую зарплату;\n- официальное оформление и соблюдение ТК;\n- ДМС со стоматологией после испытательного;\n- гибкий график и отсутствие бюрократии;\n-  отличный коллектив;\n- возможность обучения и развития;\n- и конечно крутой социально значимый проект. \nВакансий открыто несколько - от уровня миддл до лидовых. \nПисать мне в личку @tivalkin\n Автор @TiValkin","markup":[{"type":"hashtag","offset":0,"length":9,"data":"вакансия"},{"type":"hashtag","offset":10,"length":8,"data":"backend"},{"type":"hashtag","offset":19,"length":10,"data":"developer"},{"type":"handle","offset":1568,"length":9,"data":"tivalkin"},{"type":"handle","offset":1585,"length":9,"data":"TiValkin"}],"date":"2020-01-28T14:15:31+00:00","link":"tg://resolve?domain=gogetajobfeed&post=203","tags":[{"name":"go"},{"name":"dotnet"},{"name":"postgresql"},{"name":"rabbitmq"},{"name":"web"},{"name":"rest"},{"name":"json"},{"name":"soap"},{"name":"xml"}],"cities":[{"code":"moscow"}],"allowsRemote":false}},{"node":{"__typename":"Job","id":"211812352-1001352129329","title":"Go разработчик","text":"#вакансия #Ижевск #fulltime\n\nКомпания: Ростелеком БПМ (коллаборация ELMA + Ростелеком)\nНазвание вакансии: go-разработчик\nЗарплатная вилка: 90 000 - 180 000 RUB\nУдаленка: нет, офис\nГород: Ижевск\nНеобходимость знания языков: русский\n\nСписок необходимых навыков: \nЯзыки: go, angular+typescript. \nБД: postgres, mongodb, redis, rabbitmq. \nИнфраструктура: kubernetes, docker.\n+ отсутствие предубеждений против написания логики на фронтенде (многие компоненты готовы и конструирование интерфейса чаще сводится к сборке конструктора, но логику сложных валидаций и обмена данными необходимо будет писать);\n+ опыт работы в команде.\n\nО компании и проекте:\nКомпания Ростелеком БПМ — это коллаборация двух лидеров ИТ-рынка в своей области- ELMA и Ростелеком с целью создания новой BPM-платформы, которая позволит автоматизировать процессы, связанные с оказанием государственных и муниципальн.ых услуг\nНаш продукт — это самый масштабный государственный ИТ-проект в России, с соответствующим бюджетом. И делаться он будет здесь, в Удмуртии! \nМы ищем профессионалов, которые готовы вложить весь свой опыт разработки в создание мощной bpm-платформы.\n\nКонтактное лицо:  @ohhcheese\n Автор @ohhcheese","markup":[{"type":"hashtag","offset":0,"length":9,"data":"вакансия"},{"type":"hashtag","offset":10,"length":7,"data":"Ижевск"},{"type":"hashtag","offset":18,"length":9,"data":"fulltime"},{"type":"handle","offset":1152,"length":10,"data":"ohhcheese"},{"type":"handle","offset":1170,"length":10,"data":"ohhcheese"}],"date":"2020-01-28T09:50:05+00:00","link":"tg://resolve?domain=gogetajobfeed&post=202","tags":[{"name":"go"},{"name":"angularjs"},{"name":"typescript"},{"name":"postgresql"},{"name":"mongodb"},{"name":"redis"},{"name":"rabbitmq"},{"name":"kubernetes"},{"name":"docker"}],"cities":[{"code":"izhevsk"}],"allowsRemote":false}},{"node":{"__typename":"Job","id":"628097024-1001089319619","title":"Ruby разработчик","text":"#вакансия #Senior #Ruby #Rails #Севастополь #офис \n\nгород: Севастополь\nкомпания: SoftLight\nформат работы: офис, fulltime \n\nКратко о нас: \n\nНа протяжении 13 лет наша команда создает кастомные web/mobile applications и design. \nПриглашаем присоединиться к нашей команде Senior RoR разработчика с опытом проектирования и разработки высоконагруженных B2С web applications. \n\nОбязанности:\nПроектирование и разработка серверной части на RoR framework.\n\nПроект - очень сложная и большая финансовая платформа для получения инвестиций, займов etc. на уровне больших компаний (UK). \nОбласть проекта - fintech\n\nТребования: \n\nПрактический опыт работы с RoR/Sinatra/Padrino frameworks от 5 лет \nПрактический опыт работы с PostgreSQL и SQL в целом\nОпыт работы с Redis/Memcached, RSpec\nCистема контроля версий - Git\nБазовые знания Frontend - HTML, CSS, JavaScript/jQuery\nПонимание принципов и шаблонов проектирования сложных систем\nПонимание специфики и опыт работы с highload системами\nАнглийский язык - желательно (Intermediate+), но не обязательно \n\nПлюсом будет:\nОпыт работы с большими объемами данных (сотни GB)\nElasticSearch, MongoDB\nRabbitMQ/Kafka\nДругие технологии JVM/Elixir\nОпыт работы с распределенными системами\n \nМы предлагаем:\n\n- Офис с видом на море и бухту\n- Большая команда опытных разработчиков\n- Бессрочный проект (UK) \n- Сильная проектная команда включая менеджера \n- Бесплатные курсы английского для всех сотрудников\n- Необходимый environment (Mac, PC etc.)\n- Пятидневная рабочая неделя, гибкое начало дня ( с 9-10 до 18-19), госпраздники - выходные\n- Оформление ИП (с нашей стороны бухгалтерское сопровождение + gross) \n- Корпоративный отдых за счет компании\n- Пакет релокации (оплачиваем трансфер в Севастополь и аренду жилья 2 месяца) \n\nВилка: 2800-4000$ net \n\nemail: @MikeHR","markup":[{"type":"hashtag","offset":0,"length":9,"data":"вакансия"},{"type":"hashtag","offset":10,"length":7,"data":"Senior"},{"type":"hashtag","offset":18,"length":5,"data":"Ruby"},{"type":"hashtag","offset":24,"length":6,"data":"Rails"},{"type":"hashtag","offset":31,"length":12,"data":"Севастополь"},{"type":"hashtag","offset":44,"length":5,"data":"офис"},{"type":"handle","offset":1777,"length":7,"data":"MikeHR"}],"date":"2020-01-27T12:08:06+00:00","link":"tg://resolve?domain=rubyjob&post=0","tags":[{"name":"ruby"},{"name":"ruby-on-rails"},{"name":"web"},{"name":"mobile"},{"name":"postgresql"},{"name":"sql"},{"name":"redis"},{"name":"git"},{"name":"html"},{"name":"css"},{"name":"javascript"},{"name":"jquery"},{"name":"elasticsearch"},{"name":"mongodb"},{"name":"rabbitmq"},{"name":"kafka"},{"name":"jvm"},{"name":"elixir"},{"name":"dotnet"}],"cities":[{"code":"sevastopol"}],"allowsRemote":false}},{"node":{"__typename":"Job","id":"206569472-1001352129329","title":"Golang разработчик","text":"#вакансия #go #офис #фултайм  #fulltime #spb #спб #FBS \nГде: Санкт-Петербург\nО нас: Компания FBS\nМы разрабатываем крутые программные и рекламные продукты для международного брокера. На рынке с 2009 года.\nИщем коллегу, чтобы разрабатывать и развивать проекты компании. \nСтек наших технологий: Golang, PostgreSQL, RabbitMQ, Redis, ElasticSearch, Cassandra, ClickHouse, клиентские web приложения - PHP 7 (Yii2), Angular 7.\n\nНаши требования к кандидату:\n- Опыт программирования на языке Golang от 2-х лет;\n- Знание SQL и опытом оптимизации запросов;\n- Опыт работы с key-value хранилищами данных и понимание механизмов кеширования на разных уровнях приложения;\n- Знает идеологию git и умеет применять ее на практике;\n- Ответственность за результаты своей работы.\nБудет плюсом:\n- Знание Redis, RabbitMQ;\n- Знание PostgreSQL.\n\nЗарплатная вилка: 160-250+ тысяч рублей в месяц на руки по результатам технического интервью\nКонтактное лицо: @AgafonovG\n Автор @AgafonovG","markup":[{"type":"hashtag","offset":0,"length":9,"data":"вакансия"},{"type":"hashtag","offset":10,"length":3,"data":"go"},{"type":"hashtag","offset":14,"length":5,"data":"офис"},{"type":"hashtag","offset":20,"length":8,"data":"фултайм"},{"type":"hashtag","offset":30,"length":9,"data":"fulltime"},{"type":"hashtag","offset":40,"length":4,"data":"spb"},{"type":"hashtag","offset":45,"length":4,"data":"спб"},{"type":"hashtag","offset":50,"length":4,"data":"FBS"},{"type":"handle","offset":930,"length":10,"data":"AgafonovG"},{"type":"handle","offset":948,"length":10,"data":"AgafonovG"}],"date":"2020-01-20T12:10:14+00:00","link":"tg://resolve?domain=gogetajobfeed&post=197","tags":[{"name":"go"},{"name":"postgresql"},{"name":"rabbitmq"},{"name":"redis"},{"name":"elasticsearch"},{"name":"cassandra"},{"name":"web"},{"name":"php"},{"name":"yii"},{"name":"angularjs"},{"name":"sql"},{"name":"git"}],"cities":[],"allowsRemote":false}},{"node":{"__typename":"Job","id":"205520896-1001352129329","title":"Golang developer","text":"Всем опять привет. Продолжаем искать того самого гошника 🙂\n\nМисс Кутёж, [9 Jan 2020, 16:09:20]:\n#вакансия\n\nGolang backend developer в питерский офис компании Cryptopay (СПб).\n\nУже больше 5 лет Cryptopay помогает людям со всего мира распоряжаться своими криптоактивами. Мы - сильная, слаженная команда, но внезапно потеряли golang-бойца.\n\nЧто нужно будет делать:\n🔸Разработка сервисов для использования их в основном приложении\n🔸Поддержка существующих продуктов на Golang\n🔸Сопровождение проекта от оценки до поддержки\n\nНаши ожидания:\n🔸Отличные знания Golang\n🔸Хорошие знания PostgreSQL\n🔸Опыт работы с: Redis, RabbitMQ, ELK\n🔸Опыт работы с: Docker\n🔸Умение работать с чужим кодом\n🔸Отличная самоорганизация\n\nБудет плюсом:\n🔸Знание/Умение читать код Ruby и Ruby on Rails\n🔸Опыт работы с gRPC\n🔸Опыт работы с NATS\n🔸Опыт профилирования Golang приложений\n🔸Наличие опыта работы с криптовалютами\nОпыт работы с Ansible\n🔸Английский язык, чтобы было комфортней общаться с европейским офисом\n\nТехническая составляющая проекта:\n\nНаш кошелек сейчас проходит этап роста - мы разделяем монолитный проект на микросервисы, переходим на SPA, оптимизируем AWS инфраструктуру. \n\nНаш стэк - #Ruby #RoR #GoLang #PostgreSQL #Sidekiq #Redis #Elasticsearch #gRPC #NATS.\n\nОчень большим плюс будет наличие опыта в финтехе / крипто индустрии.\n\nЗарплата: от 200к на руки (смотрим кандидатов разного уровня, потолка нет) Пусть будут условные 300.\nВозможна удаленная работа после прохождения испытательного срока.\n\nКонтакты: @gonzogirl\n\nIlya Kaznacheev🥤, [9 Jan 2020, 16:30:34 (09.01.2020, 16:30:41)]:\nЧто, все ещё никто не может пройти ваш тест?)))\n Автор @gonzogirl","markup":[{"type":"hashtag","offset":97,"length":9,"data":"вакансия"},{"type":"hashtag","offset":1177,"length":5,"data":"Ruby"},{"type":"hashtag","offset":1183,"length":4,"data":"RoR"},{"type":"hashtag","offset":1188,"length":7,"data":"GoLang"},{"type":"hashtag","offset":1196,"length":11,"data":"PostgreSQL"},{"type":"hashtag","offset":1208,"length":8,"data":"Sidekiq"},{"type":"hashtag","offset":1217,"length":6,"data":"Redis"},{"type":"hashtag","offset":1224,"length":14,"data":"Elasticsearch"},{"type":"hashtag","offset":1239,"length":5,"data":"gRPC"},{"type":"hashtag","offset":1245,"length":5,"data":"NATS"},{"type":"handle","offset":1501,"length":10,"data":"gonzogirl"},{"type":"handle","offset":1634,"length":10,"data":"gonzogirl"}],"date":"2020-01-17T14:02:05+00:00","link":"tg://resolve?domain=gogetajobfeed&post=196","tags":[{"name":"go"},{"name":"postgresql"},{"name":"redis"},{"name":"rabbitmq"},{"name":"docker"},{"name":"ruby"},{"name":"ruby-on-rails"},{"name":"ansible"},{"name":"amazon-web-services"},{"name":"elasticsearch"}],"cities":[],"allowsRemote":true}}]}}},"context":{}}