{"hash":"f34fd2c444a074f4e0e67d525015a008ef8e766f","data":{"records":{"totalCount":178,"pageInfo":{"totalPages":18,"currentPage":4},"edges":[{"node":{"id":"1432354816-1001091028994","title":"Java разработчик","text":"Ищем Java-разработчика для создания высоконагруженных клиент-серверных приложений в компании Smartech IT Outsourcing.\n\n⚙️Который владеет большинством из:\n\n➖Java, J2EE, Spring/Spring Boot, Hibernate/JPA;\n➖JMS, Apache ActiveMQ, Tomcat;\n➖Web Services, REST, WebSocket;\n➖PostgreSQL/Oracle, Redis/MongoDB.\n➖Опыт от 2х лет \n\n💡Дают:\n\n💻 удаленная работа, ☕️гибкий график;\n\n💸 зарплата от 100 000 до 130 000 р. по результатам собеседования, регулярная индексация;\n\n📃 работа над разнообразными и интересными проектами в команде профессионалов с использованием современных технологий;\n\n🎓 возможность постоянного развития (повышение квалификации, участие в конференциях, сертификация);\n\n📱Надежда @coderhunt","markup":[{"type":"handle","offset":689,"length":10,"data":"coderhunt"}],"date":"2020-04-09T11:59:26+00:00","link":"tg://resolve?domain=jvmjobs&post=1366","tags":[{"name":"java"},{"name":"jvm"},{"name":"spring"},{"name":"hibernate"},{"name":"jpa"},{"name":"apache"},{"name":"tomcat"},{"name":"web"},{"name":"rest"},{"name":"websocket"},{"name":"postgresql"},{"name":"oracle"},{"name":"redis"},{"name":"mongodb"},{"name":"spring-boot"}],"cities":[],"allowsRemote":true}},{"node":{"id":"1431306240-1001091028994","title":"Java разработчик","text":"#scala #teamlead #senior #офис #удаленно #fulltime #Москва\n\nПриглашаем Scala-разработчика уровня senior-teamlead, 220-270 тыс. на руки.\n\nТребования:\nлидировать и развивать команду разработчиков\nразвивать backend приложение на Akka HTTP\nпрорабатывать интеграции для сервисов на Java (Spring Cloud)\nинтегрироваться со стеком Kafka, MQ, Redis, Orcale SQL, Postgres\nfrontend разработка (React, Redux, Typescript, собственная библиотека компонентов)\nработать с витринами на Spark, Hadoop\nразработать web-scraper на Akka Streams\nподдерживать процесс сборки и тестирования (git, Ansible, Jenkins, Docker, OpenShift)\n\nСбербанк, Москва, Кутузовская\n\nКонтакты: @MikeTurchenkov","markup":[{"type":"hashtag","offset":0,"length":6,"data":"scala"},{"type":"hashtag","offset":7,"length":9,"data":"teamlead"},{"type":"hashtag","offset":17,"length":7,"data":"senior"},{"type":"hashtag","offset":25,"length":5,"data":"офис"},{"type":"hashtag","offset":31,"length":9,"data":"удаленно"},{"type":"hashtag","offset":41,"length":9,"data":"fulltime"},{"type":"hashtag","offset":51,"length":7,"data":"Москва"},{"type":"handle","offset":651,"length":15,"data":"MikeTurchenkov"}],"date":"2020-04-09T11:58:52+00:00","link":"tg://resolve?domain=jvmjobs&post=1365","tags":[{"name":"java"},{"name":"jvm"},{"name":"scala"},{"name":"akka"},{"name":"spring"},{"name":"cloud"},{"name":"kafka"},{"name":"redis"},{"name":"sql"},{"name":"postgresql"},{"name":"reactjs"},{"name":"redux"},{"name":"typescript"},{"name":"hadoop"},{"name":"web"},{"name":"git"},{"name":"ansible"},{"name":"jenkins"},{"name":"docker"},{"name":"react-redux"}],"cities":[{"code":"moscow"}],"allowsRemote":true}},{"node":{"id":"1991245824-1001134745498","title":"Devops инженер","text":"#вакансия #devops #remote \nКомпания Imhio Ltd ищет инженера инфраструктуры, обладающего навыками конфигурирования и поддержки аппаратных и облачных платформ, организации работы отказоустойчивых систем, а также автоматизации доставки программного обеспечения. \nВ составе нашей инфраструктуры мы используем Digital Ocean и AWS, Oracle Linux, Νginx, Consul, RabbitMQ, ScyllaDB, Redis, PostgreSQL, GoLang, GoCD и Docker.\nАктуальная цель, которая стоит перед нами, переход к полностью автоматизированному конфигурированию и эксплуатации всех элементов нашей инфраструктуры.\n\nОбязанности:\n- автоматизация конфигурирования и обслуживания элементов инфраструктуры\n- участие в процессах CI/CD\n- мониторинг работоспособности\n- планирование использования ресурсов\n- оптимизация инфраструктуры\n- документирование инфраструктуры\n\nТребования:\n - Минимальный опыт работы по специальности от 3 лет.\n\nДля соответствия нашей команде, ваши личные качества должны включать:\n - коммуникабельность, умение находить точки соприкосновения\nцелеустремленность, ответственность, внимательность и аккуратность\n- умение и желание решать комплексные, нестандартные проблемы и задачи\n- понятное формулирование своих мыслей и идей\n- умение отстаивать свою позицию\n- понимание технической документации на английском языке\n- поддержка принципов DevOPS методологии\n\nДля соответствия нашим задачам, у вас должен быть опыт промышленной эксплуатации:\n- Linux \n- Digital Ocean или AWS\n- Terraform и Ansible\n- CI/CD инструментов\n- Docker или Kubernetes\n- Nginx, SQL, MQ, Redis, Consul\n- Prometheus и Grafana, Graylog или ELK\n- Python или Bash\nУ вас будет дополнительное преимущество при наличии\nопыта использования:\n- ScyllaDB или Cassandra\n- системы мониторинга DataDog\n- системы доставки GoCD\n- (микро)сервисов, разработанных с использованием Golang\n\nУсловия:\n- полностью удаленная работа\n- оплачиваемый отпуск и больничный\n- заработная плата в евро, определяется вашей компетенцией (1850-2900 Евро)\n- гибкий график и широкая автономия - мы оцениваем результаты работы\n- интересные задачи, способствующие профессиональному развитию\n- работа в команде профессионалов\n- отсутствие бюрократических процедур\nКонтакты: @yanalyakhova, jane@imhio.com\n\n—\n\n👉 Обсуждение вакансии в чате @devops_jobs","markup":[{"type":"hashtag","offset":0,"length":9,"data":"вакансия"},{"type":"hashtag","offset":10,"length":7,"data":"devops"},{"type":"hashtag","offset":18,"length":7,"data":"remote"},{"type":"handle","offset":2176,"length":13,"data":"yanalyakhova"},{"type":"link","offset":2191,"length":14,"data":"mailto:jane@imhio.com"},{"type":"handle","offset":2240,"length":12,"data":"devops_jobs"}],"date":"2020-04-09T11:57:04+00:00","link":"tg://resolve?domain=devops_jobs_feed&post=1899","tags":[{"name":"amazon-web-services"},{"name":"oracle"},{"name":"linux"},{"name":"rabbitmq"},{"name":"redis"},{"name":"postgresql"},{"name":"go"},{"name":"docker"},{"name":"ansible"},{"name":"kubernetes"},{"name":"nginx"},{"name":"sql"},{"name":"python"},{"name":"bash"},{"name":"cassandra"}],"cities":[],"allowsRemote":true}},{"node":{"id":"66338160640-1001054966032","title":"Android разработчик","text":"#вакансия #fulltime  #vacancy  #remote #ремоут  #Flutterdeveloper #Flutter \n\n💻 Flutter Developer\n🕐 Fulltime remote\n👩🏻‍💻1-1,5 year of commercial development on Flutter\n💰from 10 $/hour to 12 $/hour\n\nВсем привет!🙋🏻‍♀️\nAMS ищет разработчиков на долгосрочное сотрудничество на ремоут. Мы занимаемся разработкой мобильных приложений под Android и IOS.\n\nУсловия:\n-проектная занятость;\n-доступность в неделю 40 часов.\n\nТребования :\n-коммерческий опыт разработки от 1-1,5 года;\n-английский B1+.\n\n📝 За подробностями по вакансиям и по всем вопросам  пишите:\ndarya.matsyas@ams-apps.com\nDarya \nLinkedIn","markup":[{"type":"hashtag","offset":0,"length":9,"data":"вакансия"},{"type":"hashtag","offset":10,"length":9,"data":"fulltime"},{"type":"hashtag","offset":21,"length":8,"data":"vacancy"},{"type":"hashtag","offset":31,"length":7,"data":"remote"},{"type":"hashtag","offset":39,"length":7,"data":"ремоут"},{"type":"hashtag","offset":48,"length":17,"data":"Flutterdeveloper"},{"type":"hashtag","offset":66,"length":8,"data":"Flutter"},{"type":"link","offset":495,"length":2,"data":"http://darya.matsyas@ams-apps.com/"},{"type":"link","offset":556,"length":27,"data":"http://darya.matsyas@ams-apps.com/"},{"type":"link","offset":590,"length":8,"data":"https://www.linkedin.com/in/darya-matyas-12ba33158/"}],"date":"2020-04-09T10:39:22+00:00","link":"tg://resolve?domain=mobile_jobs&post=63265","tags":[{"name":"mobile"},{"name":"android"},{"name":"ios"},{"name":"flutter"}],"cities":[],"allowsRemote":true}},{"node":{"id":"66336063488-1001054966032","title":"Android разработчик","text":"‼️Вакансия Senior Android⁢ Developer‼️\n#android #developer #vacancy\nВ команде Mycelium Wallet (mycelium.com) открыта #вакансия Senior Android⁢ Developer.\n💵З/П 3500-4000 USD по итогам собеседования.\nРабота удаленная 💻\n\nМы предлагаем:\n🔸Получить навыки и компетенции в одном из самых передовых и перспективных направлений финтех индустрии - blockchain;\n🔸Принять участие в разработке одного из самых популярных биткоин-кошельков в Google Play Store;\n🔸Работать в международной команде бок о бок с ведущими специалистами в индустрии;\n🔸Возможность профессионального карьерного роста и участия в разнообразных проектах компании.\n\nЧем предстоит заниматься:\n🔹Разрабатывать новые и развивать существующие мобильные сервисы компании на платформе Android;\n🔹Проектировать и разрабатывать большие функциональные части приложения с привлечением других программистов;\n🔹Использовать cutting edge технологии, а также проверенные временем решения.\n\nТребования:\n✔️Как минимум 3 года опыта разработки на Android;\n✔️Знание Java/Kotlin на уровне ведущего разработчика;\n✔️Знание шаблонов проектирования, опыт использования MVP и других архитектурных подходов;\n✔️Опыт параллельного и многопоточного программирования;\n✔️Понимание циклов работы Android-приложения и управления памятью;\n✔️Опыт разработки пользовательских интерфейсов на платформе Android. \n✔️Знание Android Design Principles;\n✔️Знание и умение использовать различные механизмы взаимодействий между приложениями, предоставляемые в рамках Android SDK;\n✔️Понимание принципов работы REST API, WS, RPC и клиент-серверных приложений;\n✔️Знание английского языка на уровне чтения документации и умения общаться в корпоративном чате.\n\nПлюсом будет:\n➕Умение и понимание необходимости написания Unit tests;\n➕Знание основ криптографии;\n➕Опыт работы с bitcoin/etherium blockchain stack;\n➕Наличие своих проектов на Github, в Google Play и т.д.\n\n📲Контакт: @valeritata","markup":[{"type":"hashtag","offset":39,"length":8,"data":"android"},{"type":"hashtag","offset":48,"length":10,"data":"developer"},{"type":"hashtag","offset":59,"length":8,"data":"vacancy"},{"type":"link","offset":95,"length":12,"data":"http://mycelium.com"},{"type":"hashtag","offset":117,"length":9,"data":"вакансия"},{"type":"handle","offset":1889,"length":11,"data":"valeritata"}],"date":"2020-04-09T10:22:55+00:00","link":"tg://resolve?domain=mobile_jobs&post=63263","tags":[{"name":"mobile"},{"name":"android"},{"name":"playframework"},{"name":"java"},{"name":"kotlin"},{"name":"rest"},{"name":"github"}],"cities":[],"allowsRemote":true}},{"node":{"id":"24342691840-1001075660570","title":"Php разработчик","text":"#вакансия #Новосибирск #офис #удаленно#FullStack#Middle #Senior#PHP#JavaScript\n\nГород: Новосибирск\nФормат работы: в офисе/удаленно\nЗанятость: полная\nЗарплатная вилка: от 100 000 до 200 000 руб. на руки\nНазвание компании: ВилайнТВ\n\nНужен FullStack разработчик для создания и развития нового проекта видео- тематики. Данная компания разрабатывает и поддерживает облачные хранилища. Проекту уже более 7 лет, в своей нише занимает второе место в мире, аналог на рынке России turbobit, аналог в мире rapidgator, основные рынки это США, Европа, сейчас выходят на Азию, в России не работают. \n\nСтек технологий: Хранилище - OpenStack Swift, BackEnd - Nodejs, PHP (Yii1, Yii2, Laravel), FrontEnd - React, BD - MySql, Postgres, Mongo, Elastic, Доставка - Jenkins, Docker, Kubernetes.\n\nЧто хотят:\n• программирование на JS хотя бы 1 год.\n• программирование на PHP хотя бы 2 года\n• решение любой front-задачи начинать с составления модели данных.\n• уметь работать со сложными SQL-запросами.\n• самостоятельно уметь планировать свою работу.\n• опыт создания сайтов «под ключ»\n• навыки работы с системами контроля версий\n• обязательное понимание валидной, кросс-браузерной и адаптивной верстки.\n\nЧто дают:\n• Работа в офисе или возможность работать удаленно на полный рабочий день;\n• Трудоустройство в соответствии с ТК РФ;\n• График работы с Пн по Пт;\n• Просторный офис в центре Новосибирска либо удаленно;\n• Гибкое начало рабочего дня.\n\nБудет плюсом, если работали с большими проектами.\n\nВопросы : @juliajudina2810\njuliajudina2810@gmail.com","markup":[{"type":"hashtag","offset":0,"length":9,"data":"вакансия"},{"type":"hashtag","offset":10,"length":12,"data":"Новосибирск"},{"type":"hashtag","offset":23,"length":5,"data":"офис"},{"type":"handle","offset":1481,"length":16,"data":"juliajudina2810"},{"type":"link","offset":1498,"length":25,"data":"mailto:juliajudina2810@gmail.com"}],"date":"2020-04-09T10:05:09+00:00","link":"tg://resolve?domain=php_jobs&post=23215","tags":[{"name":"php"},{"name":"javascript"},{"name":"swift"},{"name":"nodejs"},{"name":"yii"},{"name":"laravel"},{"name":"reactjs"},{"name":"mysql"},{"name":"postgresql"},{"name":"elasticsearch"},{"name":"jenkins"},{"name":"docker"},{"name":"kubernetes"},{"name":"sql"}],"cities":[{"code":"novosibirsk"}],"allowsRemote":true}},{"node":{"id":"1989148672-1001134745498","title":"Devops инженер","text":"#вакансия #devops\nОфис: Москва, м. Сухаревская\nФормат работы: удаленно\nЗанятость: полная\nЗарплатная вилка: 120 000 - 150 000 рублей в месяц на руки\n\nТребования:\n- опыт работы системным администратором от 5 лет (Linux)\n- знание Bash\n- опыт внедрения CI процессов\n- настройка и работа с Jenkins и/или TeamCity\n- использование систем управления конфигурациями\n- контейнеризация и виртуализация на стадиях сборки и тестирования\n- понимание систем оркестрации контейнеров (k8s, swarm, nomad)\n\nОбязанности:\n- поддерживать и автоматизировать CI/CD\n- анализировать изменение кода и результаты тестирования (прием релиза)\n- настраивать и поддерживать серверы непрерывной интеграции\n- развертывать, управлять серверами и БД на тестовых и продуктовых площадках, настраивать репликации различной степени сложности\n\nУсловия:\n- соблюдение ТК РФ\n- полностью белая ЗП\n\nКомпания: ООО \"Трэйсфарм\" tracepharm.ru\n\nКонтакты\n@irarudakova\n\n—\n\n👉 Обсуждение вакансии в чате @devops_jobs","markup":[{"type":"hashtag","offset":0,"length":9,"data":"вакансия"},{"type":"hashtag","offset":10,"length":7,"data":"devops"},{"type":"link","offset":879,"length":13,"data":"http://tracepharm.ru"},{"type":"handle","offset":903,"length":12,"data":"irarudakova"},{"type":"handle","offset":950,"length":12,"data":"devops_jobs"}],"date":"2020-04-09T09:50:12+00:00","link":"tg://resolve?domain=devops_jobs_feed&post=1897","tags":[{"name":"linux"},{"name":"bash"},{"name":"jenkins"}],"cities":[{"code":"moscow"}],"allowsRemote":true}},{"node":{"id":"16239296512-1001110946746","title":"Js разработчик","text":"#вакансия #frontend #react #redux #js\n\nГород: Релокация в г. Лимасол, Кипр (сейчас сразу удаленка, до открытия границ, потом переезд)\nФормат работы: офис /Занятость: полная\nЗарплатная вилка: от 3300 до 3500 евро на руки +ежеквартальный бонус в размере 70-100% зарплаты\nКомпания: Clever Recruiting Company \n\nSenior Frontend Developer В Международную фин-тех компанию на Кипре.\n \n Требования:\n• От 3 лет работы в должности frontend разработчика\n• Обязательно опыт коммерческой разработки на связке React+Redux \n• Опыт разработки SPA\n• Опыт использования ECMAScript 2017\n \nУсловия:\n• Релокационный пакет и визовая поддержка для сотрудника и членов семьи\n• Авто в личное пользование \n•Спорт зал с тренером, питание, врач в офисе\n• Медицинская страховка (стомотология)\n• Компенсация расходов на детский сад и школу\n\nДля вопросов: @Marina_Pelikh\nДля резюме: m.chetverikova@clever-recruiting.com","markup":[{"type":"hashtag","offset":0,"length":9,"data":"вакансия"},{"type":"hashtag","offset":10,"length":9,"data":"frontend"},{"type":"hashtag","offset":20,"length":6,"data":"react"},{"type":"hashtag","offset":27,"length":6,"data":"redux"},{"type":"hashtag","offset":34,"length":3,"data":"js"},{"type":"handle","offset":825,"length":14,"data":"Marina_Pelikh"},{"type":"link","offset":852,"length":36,"data":"mailto:m.chetverikova@clever-recruiting.com"}],"date":"2020-04-09T09:24:22+00:00","link":"tg://resolve?domain=javascript_jobs_feed&post=15487","tags":[{"name":"javascript"},{"name":"reactjs"},{"name":"redux"},{"name":"react-redux"}],"cities":[],"allowsRemote":true}},{"node":{"id":"66332917760-1001054966032","title":"Android разработчик","text":"#вакансия #android #москва #офис #fulltime\n\nИщем еще одного Android разработчика, Middle или Middle+\n\nКомпания: \"Доктор на работе\" - социальная сеть для врачей.  Фарма+Digital=стабильность в текущее время.\nМесто работы:  сейчас удалёнка, потом Москва, м. Новослободская, 3 минуты от метро\nЗП: 180-220тр., белая\n\n🤟Особенности: новый проект, без легаси. Технологии: Kotlin, Dagger 2, Rx, Retrofit 2\n\n🔥Задача: создание новой Ленты врача с нуля, доработка существующего мессенджера для наших пользователей.\n\n\n🔥 Условия:\n* зп от 180к до 220к рублей на руки, белая;\n* сейчас работаем из дома, потом в офисе, ст. м. Новослободская, 3 м. от метро. \n\n👉Вакансию можно посмотреть здесь: https://dev.doktornarabote.ru/andr\n\n👉Отклики: hr@doktornarabote.ru или\nTelegram @KseniaRyakhovskaya","markup":[{"type":"hashtag","offset":0,"length":9,"data":"вакансия"},{"type":"hashtag","offset":10,"length":8,"data":"android"},{"type":"hashtag","offset":19,"length":7,"data":"москва"},{"type":"hashtag","offset":27,"length":5,"data":"офис"},{"type":"hashtag","offset":33,"length":9,"data":"fulltime"},{"type":"bold","offset":60,"length":28,"data":""},{"type":"bold","offset":93,"length":9,"data":""},{"type":"bold","offset":521,"length":40,"data":""},{"type":"link","offset":680,"length":34,"data":"https://dev.doktornarabote.ru/andr"},{"type":"link","offset":727,"length":20,"data":"mailto:hr@doktornarabote.ru"},{"type":"handle","offset":761,"length":19,"data":"KseniaRyakhovskaya"}],"date":"2020-04-09T08:59:25+00:00","link":"tg://resolve?domain=mobile_jobs&post=63260","tags":[{"name":"mobile"},{"name":"android"},{"name":"kotlin"}],"cities":[{"code":"moscow"}],"allowsRemote":true}},{"node":{"id":"16237199360-1001110946746","title":"Js разработчик","text":"#вакансия #удаленка #extjs #postgresql \n\nГород: Томск, Никитина\nФормат работы: удаленка\nЗанятость: полная/проектная\nЗарплатная вилка:  от 80 до 120k рублей на руки в месяц \n\nОписание вакансии: \nМы ищем разработчика со знанием Ext.js + PostgreSQL\n\nТы нам подходишь, если у тебя есть..\n\n✔️Опыт работы с ExtJS (от года)\n✔️Хорошие знания JavaScript\n✔️Опыт работы с PostgreSQL\n✔️Опыт работы с VCS (Git преимущественно)\n✔️Знание и уверенное использование принципов ООП\n\nЧто мы предлагаем?\n➖Официальное трудоустройство\n➖Регулярное повышение зарплаты по результатам работы\n➖Премирование по итогам проектов\n\nНазвание компании:\nООО \"ай-Линк\"  i-link.pro\n\nКонтакты: \nhttps://t.me/ferret24","markup":[{"type":"hashtag","offset":0,"length":9,"data":"вакансия"},{"type":"hashtag","offset":10,"length":9,"data":"удаленка"},{"type":"hashtag","offset":20,"length":6,"data":"extjs"},{"type":"hashtag","offset":27,"length":11,"data":"postgresql"},{"type":"link","offset":633,"length":10,"data":"http://i-link.pro"},{"type":"link","offset":656,"length":21,"data":"https://t.me/ferret24"}],"date":"2020-04-09T08:30:03+00:00","link":"tg://resolve?domain=javascript_jobs_feed&post=15485","tags":[{"name":"javascript"},{"name":"extjs"},{"name":"postgresql"},{"name":"git"}],"cities":[{"code":"tomsk"}],"allowsRemote":true}}]}},"context":{}}