{"hash":"f5f6bf98bd95e769321482904cbbd488f77922fd","data":{"records":{"id":"sql","name":"sql","belongsTo":{"totalCount":169,"pageInfo":{"totalPages":17,"currentPage":4},"edges":[{"node":{"__typename":"Job","id":"17226006528-1001110946746","title":"Js разработчик","text":"#вакансия #frontend  #React #офис #remote #Спб #senior \n\nКомпания: DBeaver\nЗ/п: 180 000 - 300 000 рублей на руки \nГород и адрес офиса: г. Санкт-Петербург (м. Площадь Ленина/Новочеркасская)\nФормат работы: офис или удаленка \nЗанятость: полная, fulltime\n\n🌏DВeaver  - это международный open source проект, бесплатный многоплатформенный инструмент для работы с базами данных. Поддерживает все популярные базы данных: MySQL, PostgreSQL, MariaDB, SQLite, Oracle, DB2, SQL Server, Sybase, MS Access, Teradata, Firebird, Derby и т. д. Платформа интегрируется с Amazon сервисами и нацелена на облачные решения. \n\nCейчас ребята разрабатывают web решение DВeaver, первый релиз состоялся в начале года и компания активно продолжает развитие. \n\n💠Какой опыт и знания ожидают увидеть ребята:\n- опыт работы с TypeScript и React;\n- опыт участия в многокомпонентных проектах со сложной бизнес-логикой;\n- опыт проектирования и рефакторинга;\n- готовность возглавить разработку интерфейсной части продукта, принимать ключевые архитектурные решения;\n- английский язык от уровня intermediate (письменный и на уровне чтения).\n\nСтек технологий: TypeScript, React, GraphQL, MobX, RxJS, Docker. \n\n💎Что получите вы:\n- комфортный офис в БЦ Бенуа;\n- возможность частично или полностью удаленной работы; \n- официальное оформление;\n- возможность поработать над крутым международным продуктом в сплоченной команде энтузиастов;\n- профессиональные командировки и конференции в США и Европу.\n\nКонтакты:\ne-mail: valeriya@luckyhunter.io\ntelegram: @sobolevavalery\nКА: http://luckyhunter.io\nБуду рада ответить на все вопросы и рассказать подробнее о компании 😊","markup":[{"type":"hashtag","offset":0,"length":9,"data":"вакансия"},{"type":"hashtag","offset":10,"length":9,"data":"frontend"},{"type":"hashtag","offset":21,"length":6,"data":"React"},{"type":"hashtag","offset":28,"length":5,"data":"офис"},{"type":"hashtag","offset":34,"length":7,"data":"remote"},{"type":"hashtag","offset":42,"length":4,"data":"Спб"},{"type":"hashtag","offset":47,"length":7,"data":"senior"},{"type":"link","offset":1477,"length":23,"data":"mailto:valeriya@luckyhunter.io"},{"type":"handle","offset":1511,"length":15,"data":"sobolevavalery"},{"type":"link","offset":1531,"length":21,"data":"http://luckyhunter.io"}],"date":"2020-06-29T15:33:08+00:00","link":"tg://resolve?domain=javascript_jobs_feed&post=16428","tags":[{"name":"javascript"},{"name":"reactjs"},{"name":"mysql"},{"name":"postgresql"},{"name":"mariadb"},{"name":"sqlite"},{"name":"oracle"},{"name":"sql"},{"name":"ms-access"},{"name":"web"},{"name":"typescript"},{"name":"graphql"},{"name":"rxjs"},{"name":"docker"},{"name":"sql-server"}],"cities":[],"allowsRemote":true}},{"node":{"__typename":"Job","id":"108252889088-1001119539411","title":".net разработчик","text":"#вакансия #fulltime #офис #remote \n\nЛокация: Казань, ст. м. Козья Слобода; Иннополис;\nФормат работы: офис или remote, фуллтайм \nЗанятость: полная, гибкое начало дня\nЗП: до 160 000 Net \n\n🚀Компания Ак Барс Цифровые Технологии запускает новый большой проект по трансформации архитектуры розничного бизнеса (физические лица) и переезд всех процессов на новую технологическую платформу. В рамках проекта будет сформировано 8 команд, занимающихся разными задачами по платежным решениям, каталогам продуктов, работой с электронными досье клиента, операционному обслуживанию и др.\n\nВ связи с чем компания в поисках Middle .Net разработчиков с коммерческим опытом работы от 2 лет. \n\nСтек технологий: C#, ASP.NET MVC / Core, Web API, MS SQLServer / PostgreSql, Entity Framework, JS /React, RabbitMQ\n\n✅Ребята ищут специалиста с опытом разработки веб-платформ, которому знаком .NET, ASP.NET Core, MS SQL Server. Команды гибко рассматривают кандидатов, готовы обучать и делиться опытом. \n\n✅АК Барс Цифровые технологии предлагают отличные условия:\n- официальное оформление и полностью белую зп;\n- гибкий график работы, позитивная атмосфера, дружный молодой коллектив;\n- возможность работать удаленно или в комфортном офисе в Казани;\n- помощь с релокацией, если вы из другого города; \n- возможность быстро «прокачаться» в скиллах на интересных проектах и другие приятные плюшки и бонусы.\n\nКонтакты:\ne-mail: valeriya@luckyhunter.io\ntelegram: @sobolevavalery\nБуду рада ответить на все вопросы и комментарии! 😊","markup":[{"type":"hashtag","offset":0,"length":9,"data":"вакансия"},{"type":"hashtag","offset":10,"length":9,"data":"fulltime"},{"type":"hashtag","offset":20,"length":5,"data":"офис"},{"type":"hashtag","offset":26,"length":7,"data":"remote"},{"type":"bold","offset":675,"length":15,"data":""},{"type":"link","offset":696,"length":7,"data":"http://ASP.NET"},{"type":"link","offset":872,"length":7,"data":"http://ASP.NET"},{"type":"link","offset":1393,"length":23,"data":"mailto:valeriya@luckyhunter.io"},{"type":"handle","offset":1427,"length":15,"data":"sobolevavalery"}],"date":"2020-06-29T15:13:52+00:00","link":"tg://resolve?domain=microsoftstackjobs&post=103238","tags":[{"name":"dotnet"},{"name":"csharp"},{"name":"web"},{"name":"sql-server"},{"name":"postgresql"},{"name":"reactjs"},{"name":"rabbitmq"},{"name":"sql"},{"name":"asp-net"},{"name":"entity-framework"},{"name":"net-core"},{"name":"asp-net-mvc"},{"name":"asp-net-core"}],"cities":[{"code":"kazan"}],"allowsRemote":true}},{"node":{"__typename":"Job","id":"26800553984-1001075660570","title":"Php разработчик","text":"#разработчикБитрикс #Битрикс #PHPразработчик #ProgressiveMedia #вакансия \n\nProgressive Media приглашает в штат разработчиков PHP/ 1С-Битрикс (удаленно, полная занятость). Работа в проектных группах. Чистый бэкэнд-кодинг, интересные формализованные задачи. \n\n✅Обязанности: \n- Создание бэкенда на PHP на базе Bitrix framework \n- Интеграция фронтенда \n- Разработка сервисов интеграции с различными ERP и CRM-системами \n\n✅Требуется: \n- PHP, MySQL \n- Знание принципов ООП (PHP7) \n- HTML5, CSS3, JavaScript, JQuery, SQL для интеграции фронтенда \n- знание Bitrix framework \n- Знание ядра Bitrix D7 \n\n✅Предлагаем: \n- Удаленная работа \n- Белая ЗП \n- Используем GIT и сервис деплоймента \n\n📩📩📩Для резюме: shevchenko@progressivemedia.ru","markup":[{"type":"hashtag","offset":0,"length":19,"data":"разработчикБитрикс"},{"type":"hashtag","offset":20,"length":8,"data":"Битрикс"},{"type":"hashtag","offset":29,"length":15,"data":"PHPразработчик"},{"type":"hashtag","offset":45,"length":17,"data":"ProgressiveMedia"},{"type":"hashtag","offset":63,"length":9,"data":"вакансия"},{"type":"bold","offset":111,"length":17,"data":""},{"type":"bold","offset":142,"length":26,"data":""},{"type":"link","offset":697,"length":30,"data":"mailto:shevchenko@progressivemedia.ru"}],"date":"2020-06-29T14:45:14+00:00","link":"tg://resolve?domain=php_jobs&post=25559","tags":[{"name":"php"},{"name":"mysql"},{"name":"html"},{"name":"css"},{"name":"javascript"},{"name":"jquery"},{"name":"sql"},{"name":"git"}],"cities":[],"allowsRemote":true}},{"node":{"__typename":"Job","id":"103979941888-1001089317451","title":"Qa инженер","text":"#вакансия #QA #тестировщик #part-time #home-office #удалёнка #удаленная_работа #Новосибирск\n✅ Должность: Тестировщик ПО / QA engineer\n✅ Компания: Albatross Internet Group состоит из нескольких интернет-проектов со своими командами. \nМы поддерживаем атмосферу стартапа, чтобы оставаться гибкими и уметь оперативно принимать решения.\n✅ В одном из наших ключевых проектов открыта позиция QA инженер на part-time удаленную работу 8-10 часов в неделю.\n✅ Требуемый опыт работы: 1–3 года\n\n✅ Какие задачи тебя ждут?\n- тестирование задач по требованиям;\n- регрессионное тестирование на тестовом/боевом серверах;\n- формирование чек-листов;\n- написание технической документации по задачам;\n- автоматизация тестирования на Selenium(если опыта нет - не проблема, можем отправить на курсы);\n- постановка ТЗ для задач.\n\n✅ Чего мы ожидаем?\n- опыт тестирования браузерных приложений и нативных (IOS/Android);\n- умение применять на практике техники тест дизайна;\n- внимательность к деталям и неуклонное желание что-нибудь сломать;\n- понимание методологии разработки и тестирования ПО;\n- навыки в составлении и использовании тестовой документации (чек-листы, тест-кейсы, отчеты о тестировании);\n- опыт работы с Jira, Confluence.\n\n✅ Что будет преимуществом?\n- опыт автоматизации тестирования (желательно на Selenium);\n- опыт работы с системой контроля версий git;\n- опыт работы с Jenkins;\n- опыт написания SQL запросов (MySQL);\n- опыт работы с testRail, Postman;\n- опыт работы с Docker.\n\n✅ Условия:\n- оплата: до 300 руб./час\n- плавающий график\n- обучение за счет компании\n✅ Отклики с пометкой QA можно присылать на hr@albatrosscom.ru или сразу пишите @Tetyana7","markup":[{"type":"hashtag","offset":0,"length":9,"data":"вакансия"},{"type":"hashtag","offset":10,"length":3,"data":"QA"},{"type":"hashtag","offset":14,"length":12,"data":"тестировщик"},{"type":"hashtag","offset":27,"length":5,"data":"part"},{"type":"hashtag","offset":38,"length":5,"data":"home"},{"type":"hashtag","offset":51,"length":9,"data":"удалёнка"},{"type":"hashtag","offset":61,"length":17,"data":"удаленная_работа"},{"type":"hashtag","offset":79,"length":12,"data":"Новосибирск"},{"type":"link","offset":1595,"length":18,"data":"mailto:hr@albatrosscom.ru"},{"type":"handle","offset":1631,"length":9,"data":"Tetyana7"}],"date":"2020-06-29T12:44:10+00:00","link":"tg://resolve?domain=qa_jobs&post=99163","tags":[{"name":"qa"},{"name":"selenium"},{"name":"ios"},{"name":"android"},{"name":"git"},{"name":"jenkins"},{"name":"sql"},{"name":"mysql"},{"name":"docker"}],"cities":[{"code":"novosibirsk"}],"allowsRemote":true}},{"node":{"__typename":"Job","id":"1764753408-1001091028994","title":"Java разработчик","text":"#вакансия #офис #Java #москва #senior #fulltime\nВакансия: Senior Java-разработчик в Райффайзенбанк\nВилка по ЗП: senior 265-345 gross\nМы ищем старшего Java-разработчика в команду разработки внутренних инструментов для продуктовых команд. Наша цель – быстрая, надежная и эффективная разработка продуктов и для этого нам нужны крутые инструменты и мощная инфраструктура. Если тебе интересно делать работу большого количества инженеров проще и удобней, то мы тебя ждем.\nСтек технологий: Java 11, Spring (Core, Boot, Security, Data), PostgreSQL, React, Docker, Python\nОсновные задачи:\n•  участие в разработке инструментов и инфраструктуры для продуктовых команд;\n•  написание юнит-тестов;\n•  написание документации;\n•  участие в разработке стандартов разработки и проектирования программного обеспечения.\n\nЧто мы ждем от вас:\n\n•  опыт промышленной разработки на Java не менее 3х лет;\n•  опыт применения основных паттернов проектирования;\n•  опыт разработки распределенных систем, микросервисной архитектуры;\n•  опыт работы с SQL/NoSQL-решениями;\n•  знание Maven или Gradle, опыт использования инструментов и практик CI/CD.\n•  опыт написания юнит и интеграционных тестов;\n•  понимание принципов работы по методологии Agile (Scrum, Kanban, etc.).\nПро нас:\n•  у нас очень комфортная культура и отзывчивые люди;\n•  мы вкладываемся в развитие сотрудников: отправляем на курсы, проводим митапы, делимся опытом;\n•  боремся с бюрократией, костюмы не носим.\nА еще:\n•  приятная заработная плата;\n•  1-2 раза в неделю можно работать из дома после карантина (сейчас мы полностью на удаленке);\n•  наш офис находится всего в двух минутах пешком от метро Технопарк;\n•  бесплатный спортзал на первом этаже;\n•  социальный пакет, включая ДМС с первого дня, страхование выезжающих за рубеж и от несчастных случаев;\n•  доплата по больничным, выгодный отпуск в январе и мае, корпоративный пенсионный план;\n•  льготное кредитование, программа корпоративных скидок от множества партнеров.\nКонтакт: @ZamyslovaN","markup":[{"type":"hashtag","offset":0,"length":9,"data":"вакансия"},{"type":"hashtag","offset":10,"length":5,"data":"офис"},{"type":"hashtag","offset":16,"length":5,"data":"Java"},{"type":"hashtag","offset":22,"length":7,"data":"москва"},{"type":"hashtag","offset":30,"length":7,"data":"senior"},{"type":"hashtag","offset":38,"length":9,"data":"fulltime"},{"type":"handle","offset":1970,"length":11,"data":"ZamyslovaN"}],"date":"2020-06-29T12:17:59+00:00","link":"tg://resolve?domain=jvmjobs&post=1683","tags":[{"name":"java"},{"name":"jvm"},{"name":"spring"},{"name":"postgresql"},{"name":"reactjs"},{"name":"docker"},{"name":"python"},{"name":"sql"},{"name":"nosql"},{"name":"maven"},{"name":"gradle"}],"cities":[{"code":"moscow"}],"allowsRemote":false}},{"node":{"__typename":"Job","id":"1763704832-1001091028994","title":"Java разработчик","text":"#Java #developer #Сочи #fulltime #работа #офис \n\nВакансия: Java-разработчик\n\nГород: Сочи\n\nФормат работы: офис\n\nЗанятость: fulltimе\n\nЗарплатная вилка: от 130 000 до 150 000 рублей\n\nОписание вакансии:\nСоздание системы по управлению метаданными компании. Работа в кроссфункциональной команде в составе до 10 человек\n\nНазвание компании: ОЦРВ\n\nПримерный пул задач:\n•  Разработка системы по управлению метаданными\n•  Участие в построение архитектуры решения\n•  Разработка интеграционных сценариев с другими системами\n•  Подготовка инструкций и документации\n\n\nНаши требования к кандидату: \n•  Аналитическое мышление, понимание работы алгоритмов, структур данных и оптимизации работы приложений\n•  Понимание паттернов проектирования, умение писать чистый читаемый код\n•  Знание Java SE (Core, Servlets, Exceptions)\n•  Опыт работы с Spring Framework (Boot, MVC, Data, Security), Hibernate ORM\n•  Опыт работы с веб-сервисами (SOAP, REST)\n•  Опыт работы с микросервисной архитектурой\n•  Опыт работы и развертывания приложений под Linux\n•  Опыт работы с очередями и брокерами сообщений (Kafka, Rabbit, ActiveMQ)\n•  Знание SQL\n•  Опыт работы с инструментами сборки Maven, Gradle\n•  Опыт работы с GIT\n\nБудет плюсом\n•  Опыт написания скриптов автоматизации для CI/CD (bash, python, Java, Groovy)\n•  Опыт работы с базами данных NoSQL (Janus Graph, HBase, Cassandra)\n•  Навыки frontend-разработки (HTML, CSS, React/Vue.js)\n•  Опыт работы с системами BPM или СЭД (Spring Activity, Camunda)\n•  Опыт работы с Apache Atlas, ODPi Egeria\n\n\n\nНаш стек:\nБек: Java 8-11, Spring, PostgreSQL/HBase/MongoDB/JanusGraph, GIT, Docker, Kubernetes, Kafka\nФронт: Vue.js\n\nУсловия: \n•  Офис в Адлере в 10 минутах до моря\n•  Оклад: 130 000 - 150 000 руб. gross\n•  Компенсация проживания 20 000 руб. gross в месяц (для кандидатов из других регионов)\n•  Релокационный бонус в размере оклада (для кандидатов из других регионов)\n•  Премия до 30% годового оклада\n•  Работа в динамичной команде единомышленников\n•  Компенсация ДМС после прохождения испытательного срока\n•  Скидки на ДМС для родственников\n•  Компенсация мобильной связи\n•  Новейшее оборудование и просторный офис\n•  Лучшая экология и климат в России\n•  Море и горнолыжный курорт рядом\n\n\nКомпания: ОЦРВ\nСайт: http://www.ocrv.ru/\nКонтакты: @Mirovan","markup":[{"type":"hashtag","offset":0,"length":5,"data":"Java"},{"type":"hashtag","offset":6,"length":10,"data":"developer"},{"type":"hashtag","offset":17,"length":5,"data":"Сочи"},{"type":"hashtag","offset":23,"length":9,"data":"fulltime"},{"type":"hashtag","offset":33,"length":7,"data":"работа"},{"type":"hashtag","offset":41,"length":5,"data":"офис"},{"type":"link","offset":2229,"length":19,"data":"http://www.ocrv.ru/"},{"type":"handle","offset":2259,"length":8,"data":"Mirovan"}],"date":"2020-06-29T11:37:47+00:00","link":"tg://resolve?domain=jvmjobs&post=1682","tags":[{"name":"java"},{"name":"jvm"},{"name":"spring"},{"name":"hibernate"},{"name":"orm"},{"name":"soap"},{"name":"rest"},{"name":"linux"},{"name":"kafka"},{"name":"rabbitmq"},{"name":"sql"},{"name":"maven"},{"name":"gradle"},{"name":"git"},{"name":"bash"},{"name":"python"},{"name":"groovy"},{"name":"nosql"},{"name":"hbase"},{"name":"cassandra"},{"name":"html"},{"name":"css"},{"name":"reactjs"},{"name":"vuejs"},{"name":"apache"},{"name":"postgresql"},{"name":"mongodb"},{"name":"docker"},{"name":"kubernetes"}],"cities":[{"code":"sochi"}],"allowsRemote":false}},{"node":{"__typename":"Job","id":"1761607680-1001091028994","title":"Java разработчик","text":"#javaвакансия #javaspring #senior #middle #полнаязанятость\nДобрый день!\nВ настоящий момент нахожусь в поисках ведущего разработчика Java (backend) для международной аутсорсинговой компании (проекты банковского направления).\n160-300 K, Москва, ст.м. Динамо\nСтэк: Java 8, Spring, Spring (Boot, Cloud), Hibernate, SQL, Микросервисы, DevOps, REST-сервисы. \nУсловия: 160 – 300.000 рублей, полностью «белая» заработная плата. В компании регулярно проводится корпоративное обучение, сертификация в технических и бизнес-областях. Помощь в релокации.\nБуду рада ответить на Ваши вопросы: @LyKatrin, ekaterina706712@mail.ru","markup":[{"type":"hashtag","offset":0,"length":13,"data":"javaвакансия"},{"type":"hashtag","offset":14,"length":11,"data":"javaspring"},{"type":"hashtag","offset":26,"length":7,"data":"senior"},{"type":"hashtag","offset":34,"length":7,"data":"middle"},{"type":"hashtag","offset":42,"length":16,"data":"полнаязанятость"},{"type":"handle","offset":578,"length":9,"data":"LyKatrin"},{"type":"link","offset":589,"length":23,"data":"mailto:ekaterina706712@mail.ru"}],"date":"2020-06-29T11:14:55+00:00","link":"tg://resolve?domain=jvmjobs&post=1680","tags":[{"name":"java"},{"name":"jvm"},{"name":"spring"},{"name":"cloud"},{"name":"hibernate"},{"name":"sql"},{"name":"rest"},{"name":"spring-boot"}],"cities":[{"code":"moscow"}],"allowsRemote":false}},{"node":{"__typename":"Job","id":"103975747584-1001089317451","title":"Qa engineer","text":"#Москва  #QA  #вакансия #офис\nКомпания: Start.ru\n\nМы ищем коллег, которые смогут влиться в нашу команду и вместе с нами развивать и совершенствовать наш сервис!\nУ Вас есть возможность стать частью команды, развивающей первую в Восточной Европе студию с собственным международным VOD сервисом.\nВ данный момент мы усиляем нашу команду по тестированию и в поисках позиций Backend QA Engineer и QA Automation Engineer (python)\n\n———————————\nДолжность: Backend QA Engineer\nЗарплатная вилка: От 80.р. до 120т.р. по результатам собеседования\n\nКакие задачи вы будете решать:\n- Прогон описаных кейсов в TestRail и документация найденых дефектов;\n- Тестирование API (программного интерфейса платформы);\n- Разработка тестовых сценариев;\n- Взаимодействие с разработчиками и сопровождение дефектов до полного их решения;\n- Отладка и сбор логов в процессе воспроизведения проблем\n- Проведение регрессионного тестирования\n\nЧего мы хотим:\n- Вас не пугает работа с командной строкой чаще чем работа с графическим интерфейсом\n- Работа с chromedev tools и командной строкой (bash);\n- Знание и понимания клиент-серверной архитектуры приложений;\n- Понимание принципов работы веб-приложений;\n- Умение грамотно составлять свои мысли в предложения и описывать дефекты, чтобы понятно было разработчикам;\n- Навыки работы с технической документацией, анализ и вычленение требований;\n- Работали с программами-снифферами и проксями траффика (charles/wireshark/fiddler/mitmproxy etc)\n\nБудет плюсом:\n- Если знаете python на уровне, достаточном для автоматизации и сможете прочитать код который на нем написан\n- Знаете что такое DOM-дерево, локаторы и селекторы в контексте веб-приложения\n\n—————————\nДолжность: QA Automation Engineer\nЗарплатная вилка: От 130.р. до 170т.р. по результатам собеседования\n\nУ нас:\nВ нашем проекте есть автоматизация тестирования как API, так и WEB UI. \nНаш стек: Python3, PyTest, Requests, Selenium WebDriver, Selenoid, DB clients (MongoDB, PostgreSQL), JSON validation (jsonschema), TestRail API, Telegram API, GitLab CI. \nПомимо автотестов мы разрабатываем проект нагрузочного тестирования на Locust.\n\nВаши задачи:\n- Расширение покрытия автотестов API, WEB UI\n- Поддержка автотестов в актуальном состоянии\n- Анализ прохождения тестов с возможным заведением багов в Jira\n- Ревью кода\n- Ведение тестовой - документации\n- Написание сценариев нагрузочного тестирования\n\nТребования:\n- Хорошее знание теории тестирования\n- Опыт автоматизированного тестирования от 2х лет\n- Знание Python3, PyTest\n- Навыки написания и использования тестовой документации\n- Умение писать простые запросы на SQL и в MongoDB\n- Навыки работы с Git\n- Обсуждение проблем приложения с разработчиками\n\nБудет плюсом:\n- Опыт написания архитектуры проекта автотестов с нуля\n- Работа с Docker, Docker Compose\n- Опыт работы с Telegram API\n- Опыт описания JSON схем для валидации ответов API\n- Базовые знания в Linux\n\nОт нас:\n- На данный момент условия сотрудничества удаленные, но при нормализации ситуации мы выйдем в офис\n- Офис в районе Хамовники (территориально м.Киевская, м. Спортивная в 20.мин ходьбы)\n- График работы: 5/2 начинаем с 9  до 11 (в целом гибкий - главное результат);\n- Оформление в соответствии с ТК РФ (белая зарплата, отпускные, больничные);\n- Все возможности для прокачки имеющихся скиллов и получения новых;\n- Драйвовая и высокопрофессиональная команда единомышленников;\n- Возможность стать частью динамично развивающегося видеосервиса.\n\n\nВопросы и отклики по вакансии писать в tlgrm: @unambo OR emailto: v.selyanin@start.ru","markup":[{"type":"hashtag","offset":0,"length":7,"data":"Москва"},{"type":"hashtag","offset":9,"length":3,"data":"QA"},{"type":"hashtag","offset":14,"length":9,"data":"вакансия"},{"type":"hashtag","offset":24,"length":5,"data":"офис"},{"type":"link","offset":40,"length":8,"data":"http://Start.ru"},{"type":"handle","offset":3471,"length":7,"data":"unambo"},{"type":"link","offset":3491,"length":19,"data":"mailto:v.selyanin@start.ru"}],"date":"2020-06-29T11:07:45+00:00","link":"tg://resolve?domain=qa_jobs&post=99159","tags":[{"name":"qa"},{"name":"python"},{"name":"bash"},{"name":"web"},{"name":"selenium"},{"name":"mongodb"},{"name":"postgresql"},{"name":"json"},{"name":"gitlab"},{"name":"sql"},{"name":"git"},{"name":"docker"},{"name":"linux"},{"name":"docker-compose"}],"cities":[{"code":"moscow"},{"code":"kiev"}],"allowsRemote":false}},{"node":{"__typename":"Job","id":"103967358976-1001089317451","title":"Qa инженер","text":"#вакансия #QA  #fulltime  #офис #Москва\nИщу ВЕДУЩЕГО ТЕСТИРОВЩИКА  в HOLODILNIK.RU, это  один из ведущих игроков на рынке электронной торговли. Компания приглашает в свою команду профессионала, кто своими знаниями в тестировании программного обеспечения поможет в проектах развития информационных систем интернет-магазина, CRM, интеграции партнерами.\n\n✅Обязанности:\n\n· Построение и поддержка процессов тестирования (ручного и автоматизированного UI тестирования).\n\n· Осуществление процесса тестирования: декомпозиция и оценка задач QA, распределение задач, ревью результатов работы.\n\n· Непосредственное участие в процессе функционального и регрессионного тестирования web-приложений; анализа и тестирования требований.\n\n· Составление тестовой документации (тест-планы, тест-кейсы, чек- листы) и поддержка уже существующей в актуальном состоянии.\n\n· Планирование тестовых сценариев для автоматизации.\n\n✅Требования:\n\n· Опыт работы в качестве QA инженера веб-приложений (от 3-х лет)\n\n· Опыт построения и поддержания процесса обеспечения качества\n\n· Опыт автоматизации тестирования (желательно - Selenium WebDriver);\n\n· Опыт работы с инструментами CI (Jenkins)\n\n· Знание методологий и инструментов тестирования\n\n· Навыки тест-дизайна (тест-кейсы, чек-листы), опыт создания комплексных тест-кейсов;\n\n· Опыт участия в сессиях исследовательского тестирования\n\n· Знание REST, опыт тестирования API (Postman, SoapUI);\n\n· Знание SQL, опыт написания SQL-скриптов и запросов\n\n· Понимание процессов разработки ПО\n\n· Знания XML, CSS, Html;\n\n· Опыт работы с баг-трекинговыми системами (желательно - Jira).\n\n\n✅Условия:\nЗП от 140 000 до 170 000 на руки\n\n· Место работы: Москва, м.Краснопресненская\n\n· При необходимости удаленная работа.\n\n· График работы: 5/2 с 9:00 до 18:00.\n\nКонтакты 🖊\ne-mail: anna-recruitment@mail.ru\nTelegram: @anna_recruitment","markup":[{"type":"hashtag","offset":0,"length":9,"data":"вакансия"},{"type":"hashtag","offset":10,"length":3,"data":"QA"},{"type":"hashtag","offset":15,"length":9,"data":"fulltime"},{"type":"hashtag","offset":26,"length":5,"data":"офис"},{"type":"hashtag","offset":32,"length":7,"data":"Москва"},{"type":"link","offset":69,"length":13,"data":"http://HOLODILNIK.RU"},{"type":"link","offset":1780,"length":24,"data":"mailto:anna-recruitment@mail.ru"},{"type":"handle","offset":1815,"length":17,"data":"anna_recruitment"}],"date":"2020-06-29T10:25:38+00:00","link":"tg://resolve?domain=qa_jobs&post=99151","tags":[{"name":"qa"},{"name":"web"},{"name":"selenium"},{"name":"jenkins"},{"name":"rest"},{"name":"sql"},{"name":"xml"},{"name":"css"},{"name":"html"}],"cities":[{"code":"moscow"}],"allowsRemote":true}},{"node":{"__typename":"Job","id":"103966310400-1001089317451","title":"Qa инженер","text":"#Москва #вакансия #QA #тестировщик #автотестирование #bellintegrator\n\nКомпания Bell integrator – международная аутсорсинговая компания. Сейчас есть несколько интересных проектов в крупном банке.\n\nТребования:\n-Опыт работы в тестировании от 3х лет\n-Опыт работы с Java + Selenium\n-Знание SQL \n\nУсловия: ЗП 140-200 т.р. комфортный офис в г.Москва, а пока временная удаленка, оформление по ТК РФ.\nКонтакт: @AnnDemina или ASDemina@bellintegrator.com","markup":[{"type":"hashtag","offset":0,"length":7,"data":"Москва"},{"type":"hashtag","offset":8,"length":9,"data":"вакансия"},{"type":"hashtag","offset":18,"length":3,"data":"QA"},{"type":"hashtag","offset":22,"length":12,"data":"тестировщик"},{"type":"hashtag","offset":35,"length":17,"data":"автотестирование"},{"type":"hashtag","offset":53,"length":15,"data":"bellintegrator"},{"type":"bold","offset":70,"length":8,"data":""},{"type":"bold","offset":79,"length":15,"data":""},{"type":"bold","offset":196,"length":10,"data":""},{"type":"bold","offset":291,"length":7,"data":""},{"type":"bold","offset":392,"length":7,"data":""},{"type":"handle","offset":401,"length":10,"data":"AnnDemina"},{"type":"link","offset":416,"length":27,"data":"mailto:ASDemina@bellintegrator.com"}],"date":"2020-06-29T10:07:17+00:00","link":"tg://resolve?domain=qa_jobs&post=99150","tags":[{"name":"qa"},{"name":"java"},{"name":"selenium"},{"name":"sql"}],"cities":[{"code":"moscow"}],"allowsRemote":true}}]}}},"context":{}}