{"hash":"f5f6bf98bd95e769321482904cbbd488f77922fd","data":{"records":{"id":"json","name":"json","belongsTo":{"totalCount":48,"pageInfo":{"totalPages":5,"currentPage":1},"edges":[{"node":{"__typename":"Job","id":"17354981376-1001110946746","title":"Js developer","text":"#вакансия #ReactNative #NodeJS #Remote \n\n✅Вакансия: React Native  Developer\n✅Занятость: full-time, remote\n✅ЗП вилка:180000- 250 000 rub\nКА: IT.HuntMe\n\nCurrently we are looking for a Senior React Native Software Engineer to work on solutions for enterprise-level clients with our best-in-class engineering and design teams. \n❇️Responsibilities:\n* Build New ReactNative app\n* Integrate with our Cloud-based video editing API\n* Implement new UI to expose new editing features\n* Convert product requirements into actionable and tangible items for all stakeholders\n* Overall Design - code, performance, security\n* Release estimation, planning and timely integration with other stakeholders (product, app, backend, ui/ux etc)\n* Performance fixes and optimization\n* JSON API design and finalization\n* Continuously discover, evaluate, and implement new best practices to maximize development quality efficiency\n* Code review\n* Build modular, efficient, testable, and reusable React components\n\n❇️Basic qualifications:\n* Experienced, ReactNative Lead\n* Comfortable with modern JS frameworks (NodeJS, ReactJS/AngularJS), MongoDB, HTML5 and SASS\n* Have experience building and running production-ready API’s\n* 2+ years of React Native/full-stack work experience\n* Influence which tools, programming languages, and technologies you work with\n* Help ensure we have a smooth software pipeline for continuous and fast delivery\n* Balance discovery phases with implementation work\n* Be excellent at working both independently and in a team\n* Passion for software development, scalable architecture and product build\n\n♻️Preferred qualifications:\n* Native Android or iPhone development experience, or experience developing in Ionic\n* Experience building a SaaS service\n* User interface and visual design skills\n* Experience with Azure/AWS\n\n👍 WE OFFER:  \n* Competitive compensation depending on experience and skills  \n* Work in enterprise-level projects on a long-term basis  \n* Full-time remote work (you can work from anywhere you are)  \n* Unlimited access to learning courses \n* Community of 36,700+ industry’s top professionals  \n\n✍️Контакты: @mary_itfox или it.huntme@gmail.com","markup":[{"type":"hashtag","offset":0,"length":9,"data":"вакансия"},{"type":"hashtag","offset":10,"length":12,"data":"ReactNative"},{"type":"hashtag","offset":23,"length":7,"data":"NodeJS"},{"type":"hashtag","offset":31,"length":7,"data":"Remote"},{"type":"handle","offset":2129,"length":11,"data":"mary_itfox"},{"type":"link","offset":2145,"length":19,"data":"mailto:it.huntme@gmail.com"}],"date":"2020-07-03T09:55:06+00:00","link":"tg://resolve?domain=javascript_jobs_feed&post=16551","tags":[{"name":"javascript"},{"name":"nodejs"},{"name":"reactjs"},{"name":"cloud"},{"name":"json"},{"name":"angularjs"},{"name":"mongodb"},{"name":"html"},{"name":"sass"},{"name":"android"},{"name":"azure"},{"name":"amazon-web-services"},{"name":"ms-access"},{"name":"react-native"},{"name":"user-interface"}],"cities":[],"allowsRemote":true}},{"node":{"__typename":"Job","id":"104341700608-1001089317451","title":"Qa инженер","text":"#вакансия #fulltime #офис #москва #qa #middle\n\nКомпания «Ростелеком Информационные Технологии».\nИщу в команду по тестированию камер видеонаблюдения ручного тестировщика.\n\nТребования:\n- знание теории тестирования\n- владение техниками тест-дизайна и опыт написания тестовых сценариев\n- опыт работы с системами баг-трекинга\n- понимание устройства сетей, базовые навыки работы с сетевым оборудованием, знание основных сетевых протоколов\n- опыт тестирования restapi, знание основ протокола http, кодов ответа, json и пр\n- уверенная работа с командной строкой linux\n- базовые навыки пайки и работы с железом\n\nУсловия:\n- вилка в районе 60-120 в зависимости от уровня\n- компенсация фитнеса, обучения, ДМС и пр\n- офис в районе м. Павелецкая\\Новокузнецкая (в данный момент удалёнка)\n- широкие возможности для реализации и карьерного роста\n\nВопросы, резюме, предложения и прочее в telegram @shpyntov","markup":[{"type":"hashtag","offset":0,"length":9,"data":"вакансия"},{"type":"hashtag","offset":10,"length":9,"data":"fulltime"},{"type":"hashtag","offset":20,"length":5,"data":"офис"},{"type":"hashtag","offset":26,"length":7,"data":"москва"},{"type":"hashtag","offset":34,"length":3,"data":"qa"},{"type":"hashtag","offset":38,"length":7,"data":"middle"},{"type":"handle","offset":879,"length":9,"data":"shpyntov"}],"date":"2020-07-03T09:51:22+00:00","link":"tg://resolve?domain=qa_jobs&post=99508","tags":[{"name":"qa"},{"name":"json"},{"name":"linux"}],"cities":[{"code":"moscow"}],"allowsRemote":true}},{"node":{"__typename":"Job","id":"104324923392-1001089317451","title":"Qa инженер","text":"#вакансия #работа #QA  #ручное #москва #fulltime #офис\n\nКомпания: X5FoodTech\n\nQA ручное тестирование\n\nГород: Москва м. Парк культуры(5 минут)\nФормат: в офисе\nЗанятость: полная\nЗарплатная вилка: до 100 000  рублей в месяц net (на руки)\n\nВсякие преимущества:\nВ нашей команде крутые ребята создатели и топы: \nKupiVip, Avito и других лидеров рынка.\nМы работаем в одной из самых быстрорастущих отраслей - FoodTech.\nРабота в современном офисе - WeWork. Кофе, печеньки, бесплатное пиво по вечерам.\nВозможность учиться, развиваться и много работать. \nДМС + стоматология.\n\nПродукт, который нужно тестировать:\nСсылка на мобильное приложение: http://app.5-delivery.ru/\n\nЗадачи:\nРучное тестирование мобильных приложений,\nЗаведение дефектов в системе баг-трекинга;\nСоставление тестовых сценариев и поддержка их в актуальном состоянии;\nПодготовка отчетов о тестировании;\nВзаимодействие с разработчиками, продакт-менеджером;\n\nПожелания к твоему опыту:\nЗнание методов и методик тестирования;\nОпыт работы с REST API, HTTP/HTTPS, JSON;\nОпыт тестирования с помощью Chrome DevTools\n\nБудет плюсом:\nПонимание как работают мобильные приложения и опыт их тестирования;\nРабота с базами данных. \n\nКонтакты: \nДарья\n@Daryanepevnaya\n+7 925 175 175 2 \ndarya.nepevnaya@x5.ru","markup":[{"type":"hashtag","offset":0,"length":9,"data":"вакансия"},{"type":"hashtag","offset":10,"length":7,"data":"работа"},{"type":"hashtag","offset":18,"length":3,"data":"QA"},{"type":"hashtag","offset":23,"length":7,"data":"ручное"},{"type":"hashtag","offset":31,"length":7,"data":"москва"},{"type":"hashtag","offset":39,"length":9,"data":"fulltime"},{"type":"hashtag","offset":49,"length":5,"data":"офис"},{"type":"link","offset":632,"length":25,"data":"http://app.5-delivery.ru/"},{"type":"handle","offset":1188,"length":15,"data":"Daryanepevnaya"},{"type":"link","offset":1204,"length":16,"data":"tel:+7 925 175 175 2"},{"type":"link","offset":1222,"length":21,"data":"mailto:darya.nepevnaya@x5.ru"}],"date":"2020-07-03T07:23:09+00:00","link":"tg://resolve?domain=qa_jobs&post=99492","tags":[{"name":"qa"},{"name":"dotnet"},{"name":"rest"},{"name":"json"}],"cities":[{"code":"moscow"}],"allowsRemote":false}},{"node":{"__typename":"Job","id":"72555167744-1001054966032","title":"Mobile разработчик","text":"#вакансия #mobile #ios #swift #fulltime\nГород и адрес офиса: Москва, м. Нахимовский проспект, БЦ Лотос, офис класса А\nФормат работы: офис + возможно частично удаленная работа \nЗанятость: полная, 5/2\nЗП: от 150к до 250к, готовы рассмотреть и выше\n\nКомпания X4Apps специализируется на разработке собственных мобильных приложений и открывает вакансию мобильного разработчика уровня Middle+/Senior, который будет работать над созданием приложений для платформы iOS.\n\nМы практикуем быструю проверку гипотез, быстро создаем приложения, запускаем первых пользователей, смотрим на обратную связь и наращиваем функционал либо переключаемся на разработку новых приложений/новых идей.\n\nОт Вас мы ждем:\n- Способность разработать приложение с нуля и выпустить его в AppStore\n- Знание Objective-C и Swift\n- Суммарный опыт программирования от 3-х лет\n- Умение работать с системой контроля версий git - console, IDE, web;\n- Понимание принципов ООП и шаблонов проектирования\n- Опыт использования JSON, REST API\n- Опыт написания клиент-серверных приложений\n- Наличие опубликованных приложений в AppStore\n\nБудет плюсом:\n- Желание постоянно учиться и применять новые технологии в своей работе\n- Понимание в разработке пользовательского интерфейса\n- Понимание работы бэкэнда\n\nКонтакт @bambaleeyo","markup":[{"type":"hashtag","offset":0,"length":9,"data":"вакансия"},{"type":"hashtag","offset":10,"length":7,"data":"mobile"},{"type":"hashtag","offset":18,"length":4,"data":"ios"},{"type":"hashtag","offset":23,"length":6,"data":"swift"},{"type":"hashtag","offset":30,"length":9,"data":"fulltime"},{"type":"bold","offset":40,"length":19,"data":""},{"type":"bold","offset":118,"length":13,"data":""},{"type":"bold","offset":176,"length":9,"data":""},{"type":"bold","offset":199,"length":2,"data":""},{"type":"bold","offset":675,"length":14,"data":""},{"type":"bold","offset":1087,"length":12,"data":""},{"type":"bold","offset":1255,"length":7,"data":""},{"type":"handle","offset":1263,"length":11,"data":"bambaleeyo"}],"date":"2020-07-02T14:04:01+00:00","link":"tg://resolve?domain=mobile_jobs&post=69194","tags":[{"name":"mobile"},{"name":"ios"},{"name":"swift"},{"name":"objective-c"},{"name":"git"},{"name":"web"},{"name":"json"},{"name":"rest"}],"cities":[{"code":"moscow"}],"allowsRemote":true}},{"node":{"__typename":"Job","id":"72550973440-1001054966032","title":"Ios разработчик","text":"#вакансия #ios #swift #москва #офис #objectivec\n\nГород: Москва (ст.м. Аэропорт).\n\nФормат работы: full-time.\n\nЗанятость: полная. \n\nВилка: 100-200 т.р. на руки.\n\nФункционал:\n\n• Разработка мобильных приложений под платформу iOS.\n\n• Участие в командной разработке, тестировании, оптимизации существующих мобильных приложений на платформе iOS \n\nПрофессиональные знания: \n\nОтличное знание Objective-C/Swift, iOS SDK 10+;\nОпыт разработки мобильных приложений - от 2 лет;\nЗнание шаблонов проектирования, принципы SOLID, умение их применять;\nЗнакомы с основными алгоритмами и структурами данных;\nУмение работать со Storyboard и Autolayout;\nОпыт разработки клиент-серверных приложений, понимание принципов и устройства сетевого взаимодействия (HTTPS, JSON, REST);\nУмеете работать в команде и конструктивно реагируете на аргументы коллег;\nУмение разбираться и работать с чужим кодом;\nЗнание распределенных систем контроля версий (Git). \n\nНазвание компании: Локо-Банк\nhttps://www.lockobank.ru//\nhttps://hh.ru/vacancy/37365811\n\nКонтакты: @hrlocko","markup":[{"type":"hashtag","offset":0,"length":9,"data":"вакансия"},{"type":"hashtag","offset":10,"length":4,"data":"ios"},{"type":"hashtag","offset":15,"length":6,"data":"swift"},{"type":"hashtag","offset":22,"length":7,"data":"москва"},{"type":"hashtag","offset":30,"length":5,"data":"офис"},{"type":"hashtag","offset":36,"length":11,"data":"objectivec"},{"type":"link","offset":956,"length":26,"data":"https://www.lockobank.ru//"},{"type":"link","offset":983,"length":30,"data":"https://hh.ru/vacancy/37365811"},{"type":"handle","offset":1025,"length":8,"data":"hrlocko"}],"date":"2020-07-02T13:41:35+00:00","link":"tg://resolve?domain=mobile_jobs&post=69190","tags":[{"name":"mobile"},{"name":"ios"},{"name":"swift"},{"name":"objective-c"},{"name":"json"},{"name":"rest"},{"name":"git"}],"cities":[{"code":"moscow"}],"allowsRemote":false}},{"node":{"__typename":"Job","id":"72536293376-1001054966032","title":"Android разработчик","text":"#вакансия #москва #офис #android \n\nгород: Москва\nформат работы: офис\nзанятость: полная\nзарплатная вилка: 150-200\nвакансия: Ищу Android-разработчика  middle+, готового возглавить развитие  и поддержку приложения.\n\nо компании: Электронное издательство «Юрайт» Мы работаем со всеми вузами страны и считаем своей главной целью повышение образовательного уровня в России.\nwww.urait.ru\n\nо проекте: Над проектом работает 20 человек. Приложение заказывали на стороне в 2019 г. Теперь решили собрать свою команду для рефакторинга и выведения на новый уровень.\n\nЧто ждет от тебя будущее нашего образования:\nПоддержку и развитие нашего приложения;\nПеренос функционала из web;\nВзаимодействие с командой - аналитиками и тестировщиками;\nУчастие в развитии проекта.\n\nСкажем тебе уверенное “да”, если ты:\nИмеешь успешный опыт разработки и поддержки под Android  (Android Studio, Gradle);\nИмеешь опыт разработки на Kotlin;\nИмеешь успешный опыт разработки клиент-серверных приложений (REST, JSON);\nТрогал архитектуру (MVP, Clean architecture);\nЗнаешь  Android application architecture, Android SDK, Gradle;\nВладеешь паттернами UI;\nЗнаешь, зачем нужен Git, без контроля версий никуда, правда?\nМожешь писать тесты;\nГотов ин-хаус исправлять код от аутсорса. Уверен в том, что ты сделаешь круче, чем исполнители на стороне =)\n\nКак и что по условиям\nОфис с плюшками в 5 минутах от м. Шоссе Энтузиастов, Мск\nГибкое начало дня:  с 8 до 11 \nВсе по ТК РФ + соц.пакет \nАдекватные коллеги и руководство!!!\n\n\nЗаинтересовало?\nДмитрий @tankograin","markup":[{"type":"hashtag","offset":0,"length":9,"data":"вакансия"},{"type":"hashtag","offset":10,"length":7,"data":"москва"},{"type":"hashtag","offset":18,"length":5,"data":"офис"},{"type":"hashtag","offset":24,"length":8,"data":"android"},{"type":"bold","offset":225,"length":32,"data":""},{"type":"bold","offset":270,"length":22,"data":""},{"type":"bold","offset":323,"length":42,"data":""},{"type":"link","offset":367,"length":12,"data":"http://www.urait.ru"},{"type":"bold","offset":552,"length":45,"data":""},{"type":"bold","offset":752,"length":37,"data":""},{"type":"bold","offset":1305,"length":22,"data":""},{"type":"handle","offset":1503,"length":11,"data":"tankograin"}],"date":"2020-07-02T11:44:19+00:00","link":"tg://resolve?domain=mobile_jobs&post=69176","tags":[{"name":"mobile"},{"name":"android"},{"name":"web"},{"name":"gradle"},{"name":"kotlin"},{"name":"rest"},{"name":"json"},{"name":"git"},{"name":"android-studio"}],"cities":[{"code":"moscow"}],"allowsRemote":false}},{"node":{"__typename":"Job","id":"72530001920-1001054966032","title":"Ios developer","text":"#вакансия #ios #developer #iosdeveloper #москва #мск \n\nIOS Developer\nКомпания: Азбука Вкуса\nЛокация: Москва, офис\nм. Парк Победы/Кутузовская\nЗанятость: fulltime\nЗ/п: 150-210k ₽ net  \nКонтакты: @observer69\n\nУсловия\n● Официальное оформление с соблюдением ТК РФ;\n● Организация внешнего обучения;\n● Участие в конференциях и хакатонах;\n● ДМС;\n● Возможность работать из дома пару раз в неделю;\n● Комфортный офис в шаговой доступности от м. Парк Победы / Кутузовская;\n● Большая команда IT - профессионалов;\n● Интересные задачи\n\nТребования\n● Имеешь опыт iOS-разработки от 3-х лет;\n● Знаешь и любишь Swift, без вопросов можешь разобраться с кодом на Objective-C;\n● Имеешь опыт интеграции различных социальных сетей в проект;\n● Умеешь работать в AppStoreConnect и developer.apple.com, понимаешь зачем нужны сертификаты;\n● Знаешь принципы SOLID, структуры данных, паттерны проектирования и программирования;\n● Знаешь что таĸое MVC, MVVM, MVP etc. понимаешь их плюсы и\nминуты;\n● Работал с Realm;\nУверенно делаешь сложный UI, знаешь и понимаешь Autolayout, понимаешь когда лучше отказаться от него;\n● Сможешь обьяснить разницу между процессом и потоĸом, знаешь ĸаĸ\nработает многопоточность;\n● Знаком с HTTP, REST, Websocket, JSON и т.д.;\n● Работал с git (терминал или приложение);\n● Умеешь \"гуглить\" и воспринимать информацию на английском;\n● Терпимо относишься ĸ чужому ĸоду, даже если сильно не нравится;\n● Умеешь аргументировано и последовательно отстаивать свою\nпозицию;\n● Сможешь оценить задачу, и выполнить ее в сроĸ;\n● Интересуешься “а ĸаĸ это устроено внутри?”\n\nЗадачи\n1. Развивать и поддерживать существующие приложения;\n2. Проводить code review;\n3. Развивать IOS инфраструктуру в компании;\n4. Активно участвовать в жизни команды.","markup":[{"type":"hashtag","offset":0,"length":9,"data":"вакансия"},{"type":"hashtag","offset":10,"length":4,"data":"ios"},{"type":"hashtag","offset":15,"length":10,"data":"developer"},{"type":"hashtag","offset":26,"length":13,"data":"iosdeveloper"},{"type":"hashtag","offset":40,"length":7,"data":"москва"},{"type":"hashtag","offset":48,"length":4,"data":"мск"},{"type":"bold","offset":55,"length":23,"data":""},{"type":"bold","offset":92,"length":8,"data":""},{"type":"bold","offset":141,"length":10,"data":""},{"type":"bold","offset":161,"length":5,"data":""},{"type":"bold","offset":183,"length":10,"data":""},{"type":"handle","offset":193,"length":11,"data":"observer69"},{"type":"bold","offset":206,"length":8,"data":""},{"type":"bold","offset":521,"length":11,"data":""},{"type":"link","offset":754,"length":19,"data":"http://developer.apple.com"},{"type":"bold","offset":1557,"length":9,"data":""},{"type":"bold","offset":1617,"length":2,"data":""},{"type":"bold","offset":1643,"length":2,"data":""},{"type":"bold","offset":1687,"length":2,"data":""}],"date":"2020-07-02T10:23:24+00:00","link":"tg://resolve?domain=mobile_jobs&post=69170","tags":[{"name":"mobile"},{"name":"ios"},{"name":"dotnet"},{"name":"swift"},{"name":"objective-c"},{"name":"mvvm"},{"name":"realm"},{"name":"rest"},{"name":"websocket"},{"name":"json"},{"name":"git"}],"cities":[{"code":"moscow"}],"allowsRemote":false}},{"node":{"__typename":"Job","id":"72521613312-1001054966032","title":"Android developer","text":"#вакансия #работа #Android #Kotlin #релокация #работавофисе\nAndroid developer📱\n\nГород: Санкт-Петербург\nФормат работы: офис (возможность работать удаленно первое время)\nЗанятость: полная\nЗарплатная вилка: от 140 000 до 170 000;\n\n💻Что нужно делать:\n- Разработка и поддержка приложений для Android (Kotlin);\n- Работа с серверными запросами (REST APi);\n- Разработка архитектуры мобильных приложений (MVC / MVVM / Clean / MVP);\n- Участие в решении задач, связанных с бизнес-логикой;\n- Работа в команде;\n- Участие в планировании (SCRUM).\n\n📋Требования:\n- Уверенные знание Android SDK, Android Architecture Components;\n- Уверенные знания Kotlin/Java;\n- Понимать принципы проектирования SOLID;\n- Знание сетевых протоколов и технологий (HTTP(S), REST API, JSON);\n- Знание и понимание работы WebSocket;\n- Способность самостоятельно анализировать различные форматы передачи данных и определять их структуру;\n- Разбираться с непростыми архитектурными задачами и придумывать интеграционные решения.\n\nПо условиям: оформление по ТК РФ, ДМС после испытательного срока, корпоративные курсы (скорочтение, разработка, английский и пр), развитая корпоративная культура, молодой коллектив. Помогаем с релокацией.\n\nПо всем вопросам: @kvikka20","markup":[{"type":"hashtag","offset":0,"length":9,"data":"вакансия"},{"type":"hashtag","offset":10,"length":7,"data":"работа"},{"type":"hashtag","offset":18,"length":8,"data":"Android"},{"type":"hashtag","offset":27,"length":7,"data":"Kotlin"},{"type":"hashtag","offset":35,"length":10,"data":"релокация"},{"type":"hashtag","offset":46,"length":13,"data":"работавофисе"},{"type":"handle","offset":1213,"length":9,"data":"kvikka20"}],"date":"2020-07-02T09:12:47+00:00","link":"tg://resolve?domain=mobile_jobs&post=69162","tags":[{"name":"mobile"},{"name":"android"},{"name":"kotlin"},{"name":"rest"},{"name":"mvvm"},{"name":"java"},{"name":"json"},{"name":"websocket"}],"cities":[],"allowsRemote":true}},{"node":{"__typename":"Job","id":"104180219904-1001089317451","title":"Qa engineer","text":"#Москва  #QA  #вакансия #офис\nКомпания: Start.ru\n\nМы ищем коллег, которые смогут влиться в нашу команду и вместе с нами развивать и совершенствовать наш сервис!\nУ Вас есть возможность стать частью команды, развивающей первую в Восточной Европе студию с собственным международным VOD сервисом.\nВ данный момент мы усиляем нашу команду по тестированию и в поисках позиций Backend QA Engineer и QA Automation Engineer (python)\n\n———————————\nДолжность: Backend QA Engineer\nЗарплатная вилка: От 80.р. до 120т.р. по результатам собеседования\n\nКакие задачи вы будете решать:\n- Прогон описаных кейсов в TestRail и документация найденых дефектов;\n- Тестирование API (программного интерфейса платформы);\n- Разработка тестовых сценариев;\n- Взаимодействие с разработчиками и сопровождение дефектов до полного их решения;\n- Отладка и сбор логов в процессе воспроизведения проблем\n- Проведение регрессионного тестирования\n\nЧего мы хотим:\n- Вас не пугает работа с командной строкой чаще чем работа с графическим интерфейсом\n- Работа с chromedev tools и командной строкой (bash);\n- Знание и понимания клиент-серверной архитектуры приложений;\n- Понимание принципов работы веб-приложений;\n- Умение грамотно составлять свои мысли в предложения и описывать дефекты, чтобы понятно было разработчикам;\n- Навыки работы с технической документацией, анализ и вычленение требований;\n- Работали с программами-снифферами и проксями траффика (charles/wireshark/fiddler/mitmproxy etc)\n\nБудет плюсом:\n- Если знаете python на уровне, достаточном для автоматизации и сможете прочитать код который на нем написан\n- Знаете что такое DOM-дерево, локаторы и селекторы в контексте веб-приложения\n\n—————————\nДолжность: QA Automation Engineer\nЗарплатная вилка: От 130.р. до 170т.р. по результатам собеседования\n\nУ нас:\nВ нашем проекте есть автоматизация тестирования как API, так и WEB UI. \nНаш стек: Python3, PyTest, Requests, Selenium WebDriver, Selenoid, DB clients (MongoDB, PostgreSQL), JSON validation (jsonschema), TestRail API, Telegram API, GitLab CI. \nПомимо автотестов мы разрабатываем проект нагрузочного тестирования на Locust.\n\nВаши задачи:\n- Расширение покрытия автотестов API, WEB UI\n- Поддержка автотестов в актуальном состоянии\n- Анализ прохождения тестов с возможным заведением багов в Jira\n- Ревью кода\n- Ведение тестовой - документации\n- Написание сценариев нагрузочного тестирования\n\nТребования:\n- Хорошее знание теории тестирования\n- Опыт автоматизированного тестирования от 2х лет\n- Знание Python3, PyTest\n- Навыки написания и использования тестовой документации\n- Умение писать простые запросы на SQL и в MongoDB\n- Навыки работы с Git\n- Обсуждение проблем приложения с разработчиками\n\nБудет плюсом:\n- Опыт написания архитектуры проекта автотестов с нуля\n- Работа с Docker, Docker Compose\n- Опыт работы с Telegram API\n- Опыт описания JSON схем для валидации ответов API\n- Базовые знания в Linux\n\nОт нас:\n- На данный момент условия сотрудничества удаленные, но при нормализации ситуации мы выйдем в офис\n- Офис в районе Хамовники (территориально м.Киевская, м. Спортивная в 20.мин ходьбы)\n- График работы: 5/2 начинаем с 9  до 11 (в целом гибкий - главное результат);\n- Оформление в соответствии с ТК РФ (белая зарплата, отпускные, больничные);\n- Все возможности для прокачки имеющихся скиллов и получения новых;\n- Драйвовая и высокопрофессиональная команда единомышленников;\n- Возможность стать частью динамично развивающегося видеосервиса.\n\n\nВопросы и отклики по вакансии писать в tlgrm: @unambo OR emailto: v.selyanin@start.ru","markup":[{"type":"hashtag","offset":0,"length":7,"data":"Москва"},{"type":"hashtag","offset":9,"length":3,"data":"QA"},{"type":"hashtag","offset":14,"length":9,"data":"вакансия"},{"type":"hashtag","offset":24,"length":5,"data":"офис"},{"type":"link","offset":40,"length":8,"data":"http://Start.ru"},{"type":"handle","offset":3471,"length":7,"data":"unambo"},{"type":"link","offset":3491,"length":19,"data":"mailto:v.selyanin@start.ru"}],"date":"2020-07-02T07:33:55+00:00","link":"tg://resolve?domain=qa_jobs&post=99354","tags":[{"name":"qa"},{"name":"python"},{"name":"bash"},{"name":"web"},{"name":"selenium"},{"name":"mongodb"},{"name":"postgresql"},{"name":"json"},{"name":"gitlab"},{"name":"sql"},{"name":"git"},{"name":"docker"},{"name":"linux"},{"name":"docker-compose"}],"cities":[{"code":"moscow"},{"code":"kiev"}],"allowsRemote":false}},{"node":{"__typename":"Job","id":"72472330240-1001054966032","title":"Android разработчик","text":"#вакансия #москва #офис #kotlin#Android\n\nгород: Москва\nформат работы: офис\nзанятость: полная\nзарплатная вилка: 150-200\nвакансия: Ищу Android-разработчика  middle+, готового возглавить развитие  и поддержку приложения.\nПодробности: @Jane1204\n\nо компании: Электронное издательство «Юрайт» Мы работаем со всеми вузами страны и считаем своей главной целью повышение образовательного уровня в России.\nwww.urait.ru\n\nо проекте: Над проектом работает 20 человек. Приложение заказывали на стороне в 2019 г. Теперь решили собрать свою команду для рефакторинга и выведения на новый уровень.\n\nЧто ждет от тебя будущее нашего образования:\n-Поддержку и развитие нашего приложения;\n-Перенос функционала из web;\n-Взаимодействие с командой - аналитиками и тестировщиками;\n-Участие в развитии проекта.\n\nСкажем тебе уверенное “да”, если ты:\n-Имеешь успешный опыт разработки и поддержки под Android  (Android Studio, Gradle);\n-Имеешь опыт разработки на Kotlin;\n-Имеешь успешный опыт разработки клиент-серверных приложений (REST, JSON);\n-Трогал архитектуру (MVP, Clean architecture);\n-Знаешь  Android application architecture, Android SDK, Gradle;\n-Владеешь паттернами UI;\n-Знаешь, зачем нужен Git, \n-Можешь писать тесты;\n-Готов ин-хаус исправлять код от аутсорса. Уверен в том, что ты сделаешь круче, чем исполнители на стороне =)\n\nПо  условиям:\nОфис с плюшками в 5 минутах от м. Шоссе Энтузиастов, МСК\nГибкое начало дня:  с 8 до 11 \nВсе по ТК РФ + соц.пакет \nАдекватные коллеги и руководство!!!\n\nСвязь по почте: manuylovaey@gmail.com\nИли тут @Jane1204","markup":[{"type":"hashtag","offset":0,"length":9,"data":"вакансия"},{"type":"hashtag","offset":10,"length":7,"data":"москва"},{"type":"hashtag","offset":18,"length":5,"data":"офис"},{"type":"handle","offset":231,"length":9,"data":"Jane1204"},{"type":"link","offset":396,"length":12,"data":"http://www.urait.ru"},{"type":"link","offset":1493,"length":21,"data":"mailto:manuylovaey@gmail.com"},{"type":"handle","offset":1523,"length":9,"data":"Jane1204"}],"date":"2020-07-01T16:51:34+00:00","link":"tg://resolve?domain=mobile_jobs&post=69115","tags":[{"name":"mobile"},{"name":"android"},{"name":"kotlin"},{"name":"web"},{"name":"gradle"},{"name":"rest"},{"name":"json"},{"name":"git"},{"name":"android-studio"}],"cities":[{"code":"moscow"}],"allowsRemote":false}}]}}},"context":{}}