{"hash":"f5f6bf98bd95e769321482904cbbd488f77922fd","data":{"records":{"id":"gradle","name":"gradle","belongsTo":{"totalCount":33,"pageInfo":{"totalPages":4,"currentPage":4},"edges":[{"node":{"__typename":"Job","id":"71287439360-1001054966032","title":"Android разработчик","text":"#вакансия #ios #android #Flutter\nНаставник-помощник Flutter разработчик\n\nЧастичная занятость, гибкий график, удаленно \nОплата почасовая от 8$ \n\nМы ищем мобильного разработчика уровня Middle на почасовую консультацию, который:\n\n- имеет опыт коммерческой разработки на Dart и Flutter;\n- знает ООП, Git, Gradle, Pods;\n- уверенно знает Kotlin/Java\n- имеет опыт в разработке нативных мобильных приложений и модулей (android/ios).\n\nПлюсом будет:\n\n- знание основных шаблонов проектирования и опыт их применения;\n- опыт работы с Firebase;\n- понимание принципов и опыт настройки CI/CD.\n\nТебе предстоит:\n\n- консультировать нашего разработчика по нашим актуальным проектам\n- в случае проблем изредка участвовать в разработке \n- помогать в настройке CI/CD;\n- участвовать в Code Review;\n\nКонтакт для связи @korchikova","markup":[{"type":"hashtag","offset":0,"length":9,"data":"вакансия"},{"type":"hashtag","offset":10,"length":4,"data":"ios"},{"type":"hashtag","offset":15,"length":8,"data":"android"},{"type":"hashtag","offset":24,"length":8,"data":"Flutter"},{"type":"handle","offset":793,"length":11,"data":"korchikova"}],"date":"2020-06-15T09:01:39+00:00","link":"tg://resolve?domain=mobile_jobs&post=0","tags":[{"name":"mobile"},{"name":"android"},{"name":"ios"},{"name":"flutter"},{"name":"dart"},{"name":"git"},{"name":"gradle"},{"name":"kotlin"},{"name":"java"},{"name":"firebase"}],"cities":[],"allowsRemote":true}},{"node":{"__typename":"Job","id":"71284293632-1001054966032","title":"Android разработчик","text":"#вакансия #android #remote #fulltime \nВакансия: android разработчик\nФормат работы: удаленно \nЗанятость: полная\nЗ/п: от 170 000 до 200 000 по результатам общения\nКомпания: https://poloniumarts.com/\nСфера деятельности: разработка ПО.\n\nНа один из новых проектов. Все с нуля. Никакого легаси. \n\nCтек: kotlin, RxJava, Firebase (Retrofit Glide Android Annotation) \n\nОсновные задачи\n▪️верстка экранов приложения\n▪️проработка Api и логика приложения\n▪️полная поддержка проекта\n\nТребования\n▪️опыт коммерческой разработки на Java и/или Kotlin от 1 года\n▪️опыт работы с Android SDK, Gradle, Layout Inspector, Linux\n▪️понимание принципов MVP и MVVM\n▪️понимание основных принципов работы с многопоточностью\n\nМы предлагаем\n▪️стабильную зарплату по результатам собеседования\n▪️оформление по ТК РФ\n▪️гибкий график работы\n▪️интересные, творческие задачи\n\nКонтакты: @Tragoman","markup":[{"type":"hashtag","offset":0,"length":9,"data":"вакансия"},{"type":"hashtag","offset":10,"length":8,"data":"android"},{"type":"hashtag","offset":19,"length":7,"data":"remote"},{"type":"hashtag","offset":27,"length":9,"data":"fulltime"},{"type":"bold","offset":38,"length":9,"data":""},{"type":"bold","offset":68,"length":13,"data":""},{"type":"bold","offset":93,"length":11,"data":""},{"type":"bold","offset":111,"length":5,"data":""},{"type":"bold","offset":161,"length":9,"data":""},{"type":"link","offset":171,"length":25,"data":"https://poloniumarts.com/"},{"type":"bold","offset":197,"length":19,"data":""},{"type":"bold","offset":360,"length":16,"data":""},{"type":"bold","offset":470,"length":11,"data":""},{"type":"bold","offset":695,"length":14,"data":""},{"type":"bold","offset":838,"length":9,"data":""},{"type":"handle","offset":848,"length":9,"data":"Tragoman"}],"date":"2020-06-15T07:25:26+00:00","link":"tg://resolve?domain=mobile_jobs&post=0","tags":[{"name":"mobile"},{"name":"android"},{"name":"kotlin"},{"name":"firebase"},{"name":"java"},{"name":"gradle"},{"name":"linux"},{"name":"mvvm"}],"cities":[],"allowsRemote":true}},{"node":{"__typename":"Job","id":"1678770176-1001091028994","title":"Java разработчик","text":"#вакансия #java #senior #middle\nКомпания: #сбербанктехнологии #сбертех\nЛокация: #москва\nЗП: 180-270 + премии\nКонтакты: @okashchenko, kashchenko.o.bor@sberbank.ru\n\nМы - современная инженерная компания, продолжаем расти и развиваться. Активно ищем Java разработчиков уровня middle и senior в связи с расширением команды для Образовательной платформы - SaaS решения для автоматизации обучения в средних школах. Разработка началась марте 2019, сейчас дорабатываем функционал и создаём фичи.\n\n  Требования:\n· Знание Java 8+ (хорошее знание core, collections), Spring IoC 4-5, от 2х лет\n· Системы сборки maven или gradle\n· Опыт использования jUnit/TestNG\n· БД: jdbc, SQL(лучше PostgresQL) на уровне написания средних запросов\n· VCS: опыт работы с git в команде\n· Опыт командной разработки\n\n  Очень желательно:\n· Умение работать с linux command line, писать минимальные bash-скрипты.\n· Понимание оптимизации SQL-запросов\n· Опыт разработки промышленных микросервисных приложений\n· Опыт работы со SpringBoot, MongoDB, Docker/Kubernetes\n\n  Наши условия:\n· Конкурентная «белая» заработная плата (оклад + премии)\n· Профессиональный и зарплатный рост\n· Интересные, сложные, амбициозные задачи, молодая и сильная команда профессионалов\n· Обучение за счет компании в Корпоративном университете\n· Льготная ипотека от Сбербанка, ДМС\n· Страхование от несчастных случаев\n· Тренажерный зал\n\nБуду рада обсудить вакансию и ответить на ваши вопросы!","markup":[{"type":"hashtag","offset":0,"length":9,"data":"вакансия"},{"type":"hashtag","offset":10,"length":5,"data":"java"},{"type":"hashtag","offset":16,"length":7,"data":"senior"},{"type":"hashtag","offset":24,"length":7,"data":"middle"},{"type":"hashtag","offset":42,"length":19,"data":"сбербанктехнологии"},{"type":"hashtag","offset":62,"length":8,"data":"сбертех"},{"type":"hashtag","offset":80,"length":7,"data":"москва"},{"type":"handle","offset":119,"length":12,"data":"okashchenko"},{"type":"link","offset":133,"length":28,"data":"mailto:kashchenko.o.bor@sberbank.ru"}],"date":"2020-06-15T07:12:16+00:00","link":"tg://resolve?domain=jvmjobs&post=1601","tags":[{"name":"java"},{"name":"jvm"},{"name":"spring"},{"name":"maven"},{"name":"gradle"},{"name":"junit"},{"name":"jdbc"},{"name":"sql"},{"name":"postgresql"},{"name":"git"},{"name":"linux"},{"name":"bash"},{"name":"mongodb"},{"name":"docker"},{"name":"kubernetes"}],"cities":[{"code":"moscow"}],"allowsRemote":false}}]}}},"context":{}}