{"hash":"f5f6bf98bd95e769321482904cbbd488f77922fd","data":{"records":{"id":"ios","name":"ios","belongsTo":{"totalCount":194,"pageInfo":{"totalPages":20,"currentPage":2},"edges":[{"node":{"__typename":"Job","id":"17339252736-1001110946746","title":"Javascript разработчик","text":"#вакансия #ReactNative\n\nПозиция: Frontend-dev\nФормат работы: удалёнка\nЗарплатная вилка:  от 10$ до 25$ в час\nЗанятость: полная, частичная, проектная\nНазвание компании: Sleecs\n\n\n\nЗадача:\nНеобходимо запилить модуль камеры, способный одновременно транслировать preview и при необходимости делать снимки на основную/фронтальную камеру, в зависимости от параметров. \n\nПриоритет под IOS, но Android будет плюсом.\n\nПодробнее в личку, @canveed\n\n—\n\n👉 Обсуждение вакансии в чате @javascript_jobs","markup":[{"type":"hashtag","offset":0,"length":9,"data":"вакансия"},{"type":"hashtag","offset":10,"length":12,"data":"ReactNative"},{"type":"handle","offset":427,"length":8,"data":"canveed"},{"type":"handle","offset":470,"length":16,"data":"javascript_jobs"}],"date":"2020-07-02T20:12:42+00:00","link":"tg://resolve?domain=javascript_jobs_feed&post=16536","tags":[{"name":"javascript"},{"name":"ios"},{"name":"android"}],"cities":[],"allowsRemote":true}},{"node":{"__typename":"Job","id":"72577187840-1001054966032","title":"Ios разработчик","text":"#вакансия #iOS #swift #remote #удаленка  #fulltime #джун\n\nИщу на фултайм Junior iOS разработчика, который будет заниматься адаптацией iPhone-only приложения для iPad и MacOS (под чутким руководством лида) \n🔸Продукт: digital workspace https://apps.apple.com/ru/app/togezzer/id1350490541\n💰ЗП $1200 -1700 в месяц\n💡От вас:\n- знание Swift\n- знание iOS SDK, UIKit\n- желательно VIPER и Dependency Injection\n🔗Стэк:\nUIKit\nVIPER\nR.swift\nDI: Dip   \nСоединение: Alamofire, Socket.IO\nХранение: Realm\nПуши/статистика: Firebase\nЛоги: SwiftyBeaver\nCI/Repo: Firebase, Fastlane (with Match), Gitlab\n\n✏️Жду в личку резюме/профиль @lucyfier (будет здорово, если сможете показать свои проекты и примеры кода)","markup":[{"type":"hashtag","offset":0,"length":9,"data":"вакансия"},{"type":"hashtag","offset":10,"length":4,"data":"iOS"},{"type":"hashtag","offset":15,"length":6,"data":"swift"},{"type":"hashtag","offset":22,"length":7,"data":"remote"},{"type":"hashtag","offset":30,"length":9,"data":"удаленка"},{"type":"hashtag","offset":41,"length":9,"data":"fulltime"},{"type":"hashtag","offset":51,"length":5,"data":"джун"},{"type":"bold","offset":73,"length":23,"data":""},{"type":"italic","offset":173,"length":33,"data":""},{"type":"bold","offset":206,"length":9,"data":""},{"type":"link","offset":235,"length":51,"data":"https://apps.apple.com/ru/app/togezzer/id1350490541"},{"type":"bold","offset":312,"length":10,"data":""},{"type":"bold","offset":403,"length":6,"data":""},{"type":"link","offset":465,"length":9,"data":"http://Socket.IO"},{"type":"handle","offset":615,"length":9,"data":"lucyfier"},{"type":"italic","offset":625,"length":66,"data":""}],"date":"2020-07-02T17:22:00+00:00","link":"tg://resolve?domain=mobile_jobs&post=69215","tags":[{"name":"mobile"},{"name":"ios"},{"name":"swift"},{"name":"macos"},{"name":"uikit"},{"name":"realm"},{"name":"firebase"},{"name":"gitlab"}],"cities":[{"code":"lida"}],"allowsRemote":true}},{"node":{"__typename":"Job","id":"72565653504-1001054966032","title":"Mobile разработчик","text":"🔹 Город и адрес офиса: Минск, метро Площадь Победы\n🔹 Формат работы: офис \n🔹 Занятость: полная\n🔹 Зарплатная вилка: 3500$ - 4000$\n#вакансия #IOS #Swift #developer #mobile #office #Minsk #fulltime \n🔹 Описание вакансии: \nВсем привет! Мы в поиске сильного IOS разработчика (Swift) для разработки и масштабирования продукта  в стартапе из сферы Health & Fitness.\n✔  Что нужно делать: \n• Разработать и постоянно развивать продукт на Swift \n• Взаимодействовать с нативными API (Apple Health, Subscriptions) и бекендом \n• Оптимизировать продукт и искать узкие места в производительности \n• По мере роста проекта — нанимать и развивать техническую команду \n✔ Что нужно для этой позиции: \n• Опыт работы со Swift от 3 лет \n• Опыт публикации приложений в сторы \n• Фанат pixel-perfect UI \n• Портфолио успешно реализованных коммерческих проектов на Swift \n• Опыт работы с Apple Health (будет плюсом) \n✔ Что ты получишь в проекте: \n• Возможность с командой строить продукт на глобальный рынок \n• Работа в стартапе со всеми преимуществами и недостатками \n• Шанс быстро вырасти до уровня VP / C-level проекта в перспективе 2-3 лет \n• Возможность войти в первую десятку сотрудников проекта \n• Офис в центре Минска в бизнес центре ААА класса\n🔹 Контакты: \nАлёна\nРезюме и отклики можно отправлять сюда: alyona.a.kovalchuk@gmail.com. \nОперативно отвечу на вопросы в телеграм - @alyonakov. \nБуду благодарна за рекомендации)","markup":[{"type":"hashtag","offset":132,"length":9,"data":"вакансия"},{"type":"hashtag","offset":142,"length":4,"data":"IOS"},{"type":"hashtag","offset":147,"length":6,"data":"Swift"},{"type":"hashtag","offset":154,"length":10,"data":"developer"},{"type":"hashtag","offset":165,"length":7,"data":"mobile"},{"type":"hashtag","offset":173,"length":7,"data":"office"},{"type":"hashtag","offset":181,"length":6,"data":"Minsk"},{"type":"hashtag","offset":188,"length":9,"data":"fulltime"},{"type":"link","offset":1287,"length":28,"data":"mailto:alyona.a.kovalchuk@gmail.com"},{"type":"handle","offset":1360,"length":10,"data":"alyonakov"}],"date":"2020-07-02T14:55:51+00:00","link":"tg://resolve?domain=mobile_jobs&post=69204","tags":[{"name":"mobile"},{"name":"ios"},{"name":"swift"}],"cities":[{"code":"minsk"}],"allowsRemote":false}},{"node":{"__typename":"Job","id":"72560410624-1001054966032","title":"Ios разработчик","text":"#вакансия #удаленка #ios #junior #middle #напроект\n\nФормат работы: улалённая,\nОплата за проект: 25 т.р.\nСрок выполнения: 7 - 10 дней.\n \nПриглашаем на удаленный проект, разработчика уровня junior или middle, с хорошими знаниями и опытом по части верстки UI.\n\nПроект небольшой и по большей части будет заключаться в том, чтобы сверстать UI для мобильного приложения под iOS платформу (iPhone и iPad) + написать немного кода.\n\nСамо по себе приложение простое, состоит из 10 уникальных экранов и имеет не сложный UI. \n\nМакеты дизайна подготовлены в Figma.\n\nВам в помощь, будет предоставлена архитектура (вайпер + координатор), а также готовый код для пары основных элементов UI. \n\n\nЧто мы ждем от кандидата:\n• хорошие знания и опыт по части верстки UI (iPhone и iPad),\n• опыт работы с автовозобновляемыми подписками и их валидация на устройстве,\n• наличие завершенных и опубликованых в AppStore проектов,\n• наличие репозитория в Git.\n\n\nБуду готов пообщаться, показать макеты дизайна всех экранов и ответить на ваши вопросы.\n\nИ пару слов скажу о том, кто мы такие - студия разработки мобильных приложений PERO (https://peroapp.ru/)\n\nМой телеграмм для связи: @MyKu_spb","markup":[{"type":"hashtag","offset":0,"length":9,"data":"вакансия"},{"type":"hashtag","offset":10,"length":9,"data":"удаленка"},{"type":"hashtag","offset":20,"length":4,"data":"ios"},{"type":"hashtag","offset":25,"length":7,"data":"junior"},{"type":"hashtag","offset":33,"length":7,"data":"middle"},{"type":"hashtag","offset":41,"length":9,"data":"напроект"},{"type":"link","offset":1106,"length":19,"data":"https://peroapp.ru/"},{"type":"handle","offset":1153,"length":9,"data":"MyKu_spb"}],"date":"2020-07-02T14:23:17+00:00","link":"tg://resolve?domain=mobile_jobs&post=69199","tags":[{"name":"mobile"},{"name":"ios"},{"name":"git"}],"cities":[],"allowsRemote":true}},{"node":{"__typename":"Job","id":"72559362048-1001054966032","title":"Ios разработчик","text":"#вакансия #iOS #Swift\n\nГород и адрес офиса: #Питер ст.м. Петроградская, #Москва ст.м. Белорусская\nФормат работы: #офис (сейчас удалёнка)\nЗанятость: #полная #fulltime\nЗарплатная вилка: 160-220к на руки\n\nExperiment X — биотех-компания, мы делаем девайсы и приложения для мониторинга здоровья для лабораторий, клиник и обычных людей. Ищем iOS-разработчика в команду разработки мобильного приложения, стимулирующего пользователя формировать развернутый медицинский профиль, подбирая подходящие исследования. Продукт свежий, разработка ведётся всего полгода — самое время подключиться и повлиять на то, каким он станет в итоге.\n\nЧто нам важно:\n- опыт коммерческой разработки приложений под iOS 3+ лет\n- уверенное знание Swift \n- опыт создания кастомных анимаций и переходов\n- умение писать хорошо структурированный и читаемый код\n- понимание принципов работы iOS и умение использовать возможности системы\n- хорошее понимание архитектурных паттернов и умение их применять\n- умение оценивать задачи и попадать в собственные оценки\n- внимание к деталям и качеству кода\n\nУ нас отличная экспертная команда, офисы в Москве и Питере, всё по-белому и как у людей: ДМС со стоматологией, корпоративная библиотека, компенсации обучения и занятий спортом. До конца лета работаем удалённо.\n\nКонтакты:\nя тут @mariefilins\nexperimentx.co","markup":[{"type":"hashtag","offset":0,"length":9,"data":"вакансия"},{"type":"hashtag","offset":10,"length":4,"data":"iOS"},{"type":"hashtag","offset":15,"length":6,"data":"Swift"},{"type":"hashtag","offset":44,"length":6,"data":"Питер"},{"type":"hashtag","offset":72,"length":7,"data":"Москва"},{"type":"hashtag","offset":113,"length":5,"data":"офис"},{"type":"hashtag","offset":148,"length":7,"data":"полная"},{"type":"hashtag","offset":156,"length":9,"data":"fulltime"},{"type":"handle","offset":1289,"length":12,"data":"mariefilins"},{"type":"link","offset":1302,"length":14,"data":"http://experimentx.co"}],"date":"2020-07-02T14:19:14+00:00","link":"tg://resolve?domain=mobile_jobs&post=69198","tags":[{"name":"mobile"},{"name":"ios"},{"name":"swift"}],"cities":[{"code":"moscow"}],"allowsRemote":true}},{"node":{"__typename":"Job","id":"72555167744-1001054966032","title":"Mobile разработчик","text":"#вакансия #mobile #ios #swift #fulltime\nГород и адрес офиса: Москва, м. Нахимовский проспект, БЦ Лотос, офис класса А\nФормат работы: офис + возможно частично удаленная работа \nЗанятость: полная, 5/2\nЗП: от 150к до 250к, готовы рассмотреть и выше\n\nКомпания X4Apps специализируется на разработке собственных мобильных приложений и открывает вакансию мобильного разработчика уровня Middle+/Senior, который будет работать над созданием приложений для платформы iOS.\n\nМы практикуем быструю проверку гипотез, быстро создаем приложения, запускаем первых пользователей, смотрим на обратную связь и наращиваем функционал либо переключаемся на разработку новых приложений/новых идей.\n\nОт Вас мы ждем:\n- Способность разработать приложение с нуля и выпустить его в AppStore\n- Знание Objective-C и Swift\n- Суммарный опыт программирования от 3-х лет\n- Умение работать с системой контроля версий git - console, IDE, web;\n- Понимание принципов ООП и шаблонов проектирования\n- Опыт использования JSON, REST API\n- Опыт написания клиент-серверных приложений\n- Наличие опубликованных приложений в AppStore\n\nБудет плюсом:\n- Желание постоянно учиться и применять новые технологии в своей работе\n- Понимание в разработке пользовательского интерфейса\n- Понимание работы бэкэнда\n\nКонтакт @bambaleeyo","markup":[{"type":"hashtag","offset":0,"length":9,"data":"вакансия"},{"type":"hashtag","offset":10,"length":7,"data":"mobile"},{"type":"hashtag","offset":18,"length":4,"data":"ios"},{"type":"hashtag","offset":23,"length":6,"data":"swift"},{"type":"hashtag","offset":30,"length":9,"data":"fulltime"},{"type":"bold","offset":40,"length":19,"data":""},{"type":"bold","offset":118,"length":13,"data":""},{"type":"bold","offset":176,"length":9,"data":""},{"type":"bold","offset":199,"length":2,"data":""},{"type":"bold","offset":675,"length":14,"data":""},{"type":"bold","offset":1087,"length":12,"data":""},{"type":"bold","offset":1255,"length":7,"data":""},{"type":"handle","offset":1263,"length":11,"data":"bambaleeyo"}],"date":"2020-07-02T14:04:01+00:00","link":"tg://resolve?domain=mobile_jobs&post=69194","tags":[{"name":"mobile"},{"name":"ios"},{"name":"swift"},{"name":"objective-c"},{"name":"git"},{"name":"web"},{"name":"json"},{"name":"rest"}],"cities":[{"code":"moscow"}],"allowsRemote":true}},{"node":{"__typename":"Job","id":"104246280192-1001089317451","title":"Qa engineer","text":"#вакансия #qa #QAEngineer #спб #санктпетербург #fulltime \n\nPosition: Manual QA Engineer\nLocation: Saint Petersvurg\nSalary: ₽60 - 90k net\nOffice: Saint Petersburg\nCompany: Bekitzur \n\nResponsibilities:\n🔹Maintain QA process on iOS platform to fit fast pace and highest quality needs of a mature San Francisco-based mobile business;\n🔹Collaborate closely with other team members including US-based founders, managers and developers on a daily basis, work with the client representatives to prepare tasks and bugs for development team, clarify requirements with customers directly;\n🔹Maintain JIRA and up-to-date documentation in Confluence, Testrail and Figma;\n🔹Create and execute test cases and suites to ensure that the product specification is met for both iOS and Android platforms;\n🔹Analyze test results at the story or feature level and provide meaningful reports to the project and product team.\n\nRequired Skills and Experience:\n🔹3+ years experience with QA of mobile applications (iOS is preferred) and API testing;\n🔹Understanding of requirement elicitation and functional spec writing;\n🔹Excellent communication skills: upper-Intermediate English speaking skills to communicate by email and on conference calls;\n🔹Deep knowledge of testing theory\n\nNice to have:\n🔹Mobile or social network product QA experience;\n🔹Strong practical knowledge of Agile product development methodologies\n\nBenefits:\n🔹Friendly atmosphere\n🔹Competitive salary\n🔹Medical insurance, sport, English classes\n🔹Professional growth in the international business environment\n\nContact: @macarthur64","markup":[{"type":"hashtag","offset":0,"length":9,"data":"вакансия"},{"type":"hashtag","offset":10,"length":3,"data":"qa"},{"type":"hashtag","offset":14,"length":11,"data":"QAEngineer"},{"type":"hashtag","offset":26,"length":4,"data":"спб"},{"type":"hashtag","offset":31,"length":15,"data":"санктпетербург"},{"type":"hashtag","offset":47,"length":9,"data":"fulltime"},{"type":"bold","offset":59,"length":8,"data":""},{"type":"link","offset":69,"length":19,"data":"https://bekitzur.com/job/st-petersburg-qa-engineer/"},{"type":"bold","offset":88,"length":8,"data":""},{"type":"bold","offset":115,"length":6,"data":""},{"type":"bold","offset":137,"length":6,"data":""},{"type":"bold","offset":162,"length":7,"data":""},{"type":"link","offset":171,"length":8,"data":"https://bekitzur.com/"},{"type":"bold","offset":182,"length":18,"data":""},{"type":"bold","offset":903,"length":32,"data":""},{"type":"bold","offset":1258,"length":14,"data":""},{"type":"bold","offset":1395,"length":10,"data":""},{"type":"bold","offset":1557,"length":8,"data":""},{"type":"handle","offset":1566,"length":12,"data":"macarthur64"}],"date":"2020-07-02T13:44:26+00:00","link":"tg://resolve?domain=qa_jobs&post=99417","tags":[{"name":"qa"},{"name":"dotnet"},{"name":"ios"},{"name":"mobile"},{"name":"android"}],"cities":[{"code":"nice"},{"code":"san-francisco"}],"allowsRemote":false}},{"node":{"__typename":"Job","id":"72550973440-1001054966032","title":"Ios разработчик","text":"#вакансия #ios #swift #москва #офис #objectivec\n\nГород: Москва (ст.м. Аэропорт).\n\nФормат работы: full-time.\n\nЗанятость: полная. \n\nВилка: 100-200 т.р. на руки.\n\nФункционал:\n\n• Разработка мобильных приложений под платформу iOS.\n\n• Участие в командной разработке, тестировании, оптимизации существующих мобильных приложений на платформе iOS \n\nПрофессиональные знания: \n\nОтличное знание Objective-C/Swift, iOS SDK 10+;\nОпыт разработки мобильных приложений - от 2 лет;\nЗнание шаблонов проектирования, принципы SOLID, умение их применять;\nЗнакомы с основными алгоритмами и структурами данных;\nУмение работать со Storyboard и Autolayout;\nОпыт разработки клиент-серверных приложений, понимание принципов и устройства сетевого взаимодействия (HTTPS, JSON, REST);\nУмеете работать в команде и конструктивно реагируете на аргументы коллег;\nУмение разбираться и работать с чужим кодом;\nЗнание распределенных систем контроля версий (Git). \n\nНазвание компании: Локо-Банк\nhttps://www.lockobank.ru//\nhttps://hh.ru/vacancy/37365811\n\nКонтакты: @hrlocko","markup":[{"type":"hashtag","offset":0,"length":9,"data":"вакансия"},{"type":"hashtag","offset":10,"length":4,"data":"ios"},{"type":"hashtag","offset":15,"length":6,"data":"swift"},{"type":"hashtag","offset":22,"length":7,"data":"москва"},{"type":"hashtag","offset":30,"length":5,"data":"офис"},{"type":"hashtag","offset":36,"length":11,"data":"objectivec"},{"type":"link","offset":956,"length":26,"data":"https://www.lockobank.ru//"},{"type":"link","offset":983,"length":30,"data":"https://hh.ru/vacancy/37365811"},{"type":"handle","offset":1025,"length":8,"data":"hrlocko"}],"date":"2020-07-02T13:41:35+00:00","link":"tg://resolve?domain=mobile_jobs&post=69190","tags":[{"name":"mobile"},{"name":"ios"},{"name":"swift"},{"name":"objective-c"},{"name":"json"},{"name":"rest"},{"name":"git"}],"cities":[{"code":"moscow"}],"allowsRemote":false}},{"node":{"__typename":"Job","id":"72545730560-1001054966032","title":"Ios разработчик","text":"#ios #вакансия #доработка #проект\n #swift #удаленка\n\nЗдравствуйте! \nУ нас приложение \"Правое полушарие Интроверта\"\nПриложение предоставляет доступ к аудиолекциям и видеолекциям об искусстве, психологии и науке по подписке. \nМы обнаружили ошибку в текущем аудиоплеере(накладываются аудиозаписи) и текущий разработчик не может исправить ошибку, поэтому необходимо:\n- Написать новый аудиоплеер. С функцией запоминания, ускорения воспроизведения, фонового прослушивания\n\nДизайн макеты приложения есть.\n\nФормат - удаленка\nЗанятость - проектная\nЗП - 20 000 за доработки на руки\nСрок - 10 дней\n\nНазвание компании - artforintrovert.ru\nКонтакты - @volokartin . Пишите в личные сообщения","markup":[{"type":"hashtag","offset":0,"length":4,"data":"ios"},{"type":"hashtag","offset":5,"length":9,"data":"вакансия"},{"type":"hashtag","offset":15,"length":10,"data":"доработка"},{"type":"hashtag","offset":26,"length":7,"data":"проект"},{"type":"hashtag","offset":35,"length":6,"data":"swift"},{"type":"hashtag","offset":42,"length":9,"data":"удаленка"},{"type":"link","offset":608,"length":18,"data":"http://artforintrovert.ru"},{"type":"handle","offset":638,"length":11,"data":"volokartin"}],"date":"2020-07-02T12:55:22+00:00","link":"tg://resolve?domain=mobile_jobs&post=69185","tags":[{"name":"mobile"},{"name":"ios"},{"name":"swift"}],"cities":[],"allowsRemote":true}},{"node":{"__typename":"Job","id":"104219017216-1001089317451","title":"Qa инженер","text":"#вакансия #спб #job #fulltime #saintpetersburg #office #QA #mobileqa  #manual #Android #iOS\n\nQA\n\nКомпания: e-Legion\nСанкт-Петербург, м. Старая деревня\nФормат работы: офис (гибкое начало дня) \nЗанятость: полная\nЗарплатная вилка: от 70 тыс. руб.\n\nПривет! Ищем в команду тестировщика мобильных приложений. Ты будешь влиять на качество продукта крупных компаний. QA участвует во всех этапах создания продукта: от анализа требований до публикации в стор. Мы взаимодействуем со всеми отделами: от продаж до разработки. \n\nЧем будем заниматься:\n-тестировать мобильные приложения на платформах iOS и Android,\nна части проектов еще тестируем WEB\n-проводить тест-анализ и писать тестовую документацию\n-анализировать и тестировать требования\n-оформлять задачи в трекере Redmine или Jira\n\nНеобходимые навыки:\n-опыт тестирования мобильных приложений\n-знание техник тест–дизайна и умение их применять\n-умение работать с сетевыми снифферами — Fiddler, Charles\n-умение снимать и анализировать логи\n-знание гайдлайнов iOS и Android\n\nМы предлагаем:\n-гибкий график работы\n-офис в 7 минутах ходьбы от м. Старая Деревня\n-компенсацию спорта, обучения и медицины\n-обучение и систему наставничества, которые помогут быстро расти и получать новые грейды\n-возможность писать статьи для отраслевых медиа и выступать на конференциях и митапах\n\nСсылка на вакансию: https://www.e-legion.ru/vacancies/spb/qa/\nОтклики, резюме, вопросы пишите:\n@AlexandraShirokina или на почту hr@e-legion.com","markup":[{"type":"hashtag","offset":0,"length":9,"data":"вакансия"},{"type":"hashtag","offset":10,"length":4,"data":"спб"},{"type":"hashtag","offset":15,"length":4,"data":"job"},{"type":"hashtag","offset":20,"length":9,"data":"fulltime"},{"type":"hashtag","offset":30,"length":16,"data":"saintpetersburg"},{"type":"hashtag","offset":47,"length":7,"data":"office"},{"type":"hashtag","offset":55,"length":3,"data":"QA"},{"type":"hashtag","offset":59,"length":9,"data":"mobileqa"},{"type":"hashtag","offset":70,"length":7,"data":"manual"},{"type":"hashtag","offset":78,"length":8,"data":"Android"},{"type":"hashtag","offset":87,"length":4,"data":"iOS"},{"type":"link","offset":1335,"length":41,"data":"https://www.e-legion.ru/vacancies/spb/qa/"},{"type":"handle","offset":1410,"length":19,"data":"AlexandraShirokina"},{"type":"link","offset":1443,"length":15,"data":"mailto:hr@e-legion.com"}],"date":"2020-07-02T12:46:57+00:00","link":"tg://resolve?domain=qa_jobs&post=99391","tags":[{"name":"qa"},{"name":"android"},{"name":"ios"},{"name":"web"}],"cities":[],"allowsRemote":false}}]}}},"context":{}}