{"hash":"f5f6bf98bd95e769321482904cbbd488f77922fd","data":{"records":{"id":"python","name":"python","belongsTo":{"totalCount":130,"pageInfo":{"totalPages":13,"currentPage":9},"edges":[{"node":{"__typename":"Job","id":"91367669760-1001067529236","title":"Python developer","text":"#вакансия #Москва #fulltime #офис #python #machinelearning\nКомпания: FunCorp\nВакансия: Senior Python Backend Developer (Machine Learning)\nОпыт работы: от 3-х лет\nЗарплата: от 250 000 р. на руки\nМесторасположение: Москва, м. Белорусская\nЗанятость: fulltime, офис.\nNB! Удаленный вариант работы после выхода из карантина, к сожалению, не рассматриваем\nКонтактные данные: @chrschredinger или kristina@fun.co\n\nFunCorp — международная компания, которая занимается разработкой развлекательных UGC-сервисов и игр. В работе наших приложений мы активно используем сервисы, построенные на машинном обучении. Значительная часть этих сервисов построена на базе ML-фреймворков и пакетов на Python. \n\nТребования:\n- знание Python 3, фреймворков Flask или Django, а также иметь опыт написания асинхронного кода с использованием AsyncIO;\n- опыт построения и поддержки высоконагруженных систем и сервисов;\n- интерес к Machine Learning как отрасли и быть готовым изучать фреймворки (PyTorch, TensorFlow).\n\nСтек используемых технологий: Docker, Redis, MongoDB, ClickHouse.\n\nОбязанности:\n- создание и поддержка Highload-сервисы на базе обученных моделей;\n- интегрирование ML-сервисов с бизнес-логикой PHP-монолита и Java/Kotlin-сервисов;\n- участие в обучении и доработке существующих моделей, получении и консолидации данных, построении тестовых выборок.\n\nУсловия:\n- ДМС, включая стоматологию;\n- бонусная система;\n- обеды и ужины в офисе;\n- бюджет на обучение и на фитнес;\n- оплата участия в российских и зарубежных конференциях;\n- отличный офис на м. Белорусская (БЦ «Белая площадь).","markup":[{"type":"hashtag","offset":0,"length":9,"data":"вакансия"},{"type":"hashtag","offset":10,"length":7,"data":"Москва"},{"type":"hashtag","offset":18,"length":9,"data":"fulltime"},{"type":"hashtag","offset":28,"length":5,"data":"офис"},{"type":"hashtag","offset":34,"length":7,"data":"python"},{"type":"hashtag","offset":42,"length":16,"data":"machinelearning"},{"type":"bold","offset":59,"length":10,"data":""},{"type":"bold","offset":77,"length":10,"data":""},{"type":"bold","offset":138,"length":13,"data":""},{"type":"bold","offset":162,"length":10,"data":""},{"type":"bold","offset":194,"length":19,"data":""},{"type":"bold","offset":236,"length":11,"data":""},{"type":"underline","offset":263,"length":86,"data":""},{"type":"bold","offset":349,"length":19,"data":""},{"type":"handle","offset":368,"length":15,"data":"chrschredinger"},{"type":"link","offset":388,"length":15,"data":"mailto:kristina@fun.co"},{"type":"bold","offset":686,"length":12,"data":""},{"type":"italic","offset":986,"length":67,"data":""},{"type":"bold","offset":1053,"length":13,"data":""},{"type":"bold","offset":1334,"length":9,"data":""}],"date":"2020-06-19T07:10:14+00:00","link":"tg://resolve?domain=python_jobs&post=0","tags":[{"name":"python"},{"name":"flask"},{"name":"django"},{"name":"tensorflow"},{"name":"docker"},{"name":"redis"},{"name":"mongodb"},{"name":"php"},{"name":"java"},{"name":"kotlin"},{"name":"machine-learning"}],"cities":[{"code":"moscow"}],"allowsRemote":false}},{"node":{"__typename":"Job","id":"91365572608-1001067529236","title":"Python разработчик","text":"#вакансия #удаленка #remote #python \nВсем привет! 🌟 \nВакансия: Python developer\nФормат работы: УДАЛЕННО\nЗАнятость: полная, гибкое начало дня\nЗаработная плата: до 120.000 на руки\n\n👾 Компания АК Барс Цифровые технологии находится в поиске Python разработчика на удаленный формат работы. Это современная продуктовая компания и команда крутых профессионалов, которые разрабатывают новейшие продукты в финтех индустрии. Сейчас они работают над совершенно новым масштабным проектом, основной задачей которого является трансформация архитектуры розничного бизнеса - продукта, которым пользуются абсолютно все. В компании чистый Agile - гибкие подходы и процессы, максимум свободы и инициативности. \n\n✅Требования: \nКоманды ищут специалиста с коммерческим опытом разработки на Python от 1,5 лет.\nОт вас ожидается отличное знание Python, SQL, Git и REST.\n\n🚀В свою очередь ребята предлагают отличные условия:\n🔹Официальное оформление, полностью белую З/П\n🔹Льготные условия кредитования\n🔹Молодой и дружный коллектив, гибкий график работы, комфортная и позитивная атмосфера \n🔹Участие в уникальных инновационных  проектах в команде настоящих профессионалов\n\n✅Контакты:\nLucky Hunter\nE-mail: maria.yurkanskaya@luckyhunter.io\nTelegram: @mashaselina\n\nПишите, буду рада рассказать подробнее о вакансии и ответить на вопросы😊","markup":[{"type":"hashtag","offset":0,"length":9,"data":"вакансия"},{"type":"hashtag","offset":10,"length":9,"data":"удаленка"},{"type":"hashtag","offset":20,"length":7,"data":"remote"},{"type":"hashtag","offset":28,"length":7,"data":"python"},{"type":"link","offset":1182,"length":32,"data":"mailto:maria.yurkanskaya@luckyhunter.io"},{"type":"handle","offset":1225,"length":12,"data":"mashaselina"}],"date":"2020-06-19T07:02:03+00:00","link":"tg://resolve?domain=python_jobs&post=0","tags":[{"name":"python"},{"name":"sql"},{"name":"git"},{"name":"rest"}],"cities":[],"allowsRemote":true}},{"node":{"__typename":"Job","id":"103246987264-1001089317451","title":"Qa инженер","text":"#job #вакансия #remote #QA #удаленка\n\nВсем привет!\n\nЯндекс.Практикум — сервис онлайн-образования. Мы помогаем людям расти — на работе и в жизни. Студенты могут освоить новую специальность, заговорить на иностранном языке и получать удовольствие от того, чем занимаются — каждый день.\n\nСейчас мы в поиске Наставников на факультет QA!\n\nКомпания: Яндекс.Практикум \nГрафик: частичная удаленная работа, 10 часов в неделю (з/п 50 тыс рублей в месяц). Можно легко совмещать с основной работой.\n\n🔹Что делает наставник?\nНаставник курирует группу из 40 студентов на протяжении всего процесса обучения (примерно 4  месяца). Он отвечает на их вопросы, проводит групповые консультации. \n\n🔹Вам подойдет роль, если у вас есть: опыт работы тестировщиком от 3х лет, опыт тестирования веб- и мобильных приложений, веб-сервисов; \nЕсть опыт с автоматизацией тестирования: selenium + язык программирования (js, python, java);\nПлюсом будет опыт преподавания и экспертной деятельности. \n\n🔹Все наставники перед работой проходят Школу наставников от Яндекс.Практикума. \n\nОткликаться можно здесь: https://praktikum.yandex.ru/job/vacancy-3\nили пишите в личку 🙌","markup":[{"type":"hashtag","offset":0,"length":4,"data":"job"},{"type":"hashtag","offset":5,"length":9,"data":"вакансия"},{"type":"hashtag","offset":15,"length":7,"data":"remote"},{"type":"hashtag","offset":23,"length":3,"data":"QA"},{"type":"hashtag","offset":27,"length":9,"data":"удаленка"},{"type":"link","offset":1074,"length":41,"data":"https://praktikum.yandex.ru/job/vacancy-3"}],"date":"2020-06-19T06:58:50+00:00","link":"tg://resolve?domain=qa_jobs&post=0","tags":[{"name":"qa"},{"name":"selenium"},{"name":"python"},{"name":"java"}],"cities":[],"allowsRemote":true}},{"node":{"__typename":"Job","id":"2226126848-1001134745498","title":"Devops инженер","text":"#вакансия #удаленно #devops \nВакансия: DevOps/Разработчик бандлов\nЛокация: удаленно\nЗаработная плата: от 120 до 180 тыс. руб. гросс (готовы обсуждать)\n\nArenadata – корпоративная платформа сбора и обработки больших данных на базе open-source проектов https://arenadata.tech/ Является контрибьютором open-source проектов Kafka, Clickhouse, Hadoop, Greenplum и других. Компания входит в ODPi (Linux Foundation).\n\nЧем предстоит заниматься:\n• Активно участвовать в разработке, развитии и поддержке системы управления развертыванием Big Data сервисов (Hadoop, Clickhouse, Greenplum);\n• Cозданием инфраструктурных обвязок для опенсорс проектов для автоматизации их разверток;\n• Работать c системой отслеживания ошибок (Jira);\n• Участвовать в разработке сценариев тестирования;\n• Принимать решения по выбору инструментов;\n• Участвовать в третьей линии поддержки заказчиков сервиса.\n\nЧто ожидаем:\n• Опыт автоматизации работы с помощью Ansible, опыт написания с нуля Ansible playbook;\n• Знание Linux (RHEL, CentOS, Ubuntu) на уровне администратора;\n• Опыт написания bash-скриптов;\n• Опыт работы с Git; \n• Опыт работы со стеком Hadoop.\n\nДополнительным плюсом будет:\n• Опыт работы с системами виртуализации (KVM, VMware, OpenStack);\n• Опыт работы с контейнерами: Docker, OpenShift, Kubernetes;\n• Опыт работы со Clickhouse;\n• Опыт работы со Greenplum;\n• Опыт сопровождения IT-инфраструктуры;\n• Знание Python.\n\nУ нас Вы сможете получить:\n• Работа в молодом, дружном коллективе в атмосфере стартапа, но с бонусами большой устоявшейся компании;\n• Сильная техническая экспертиза в команде;\n• Проекты внедрения в крупнейших компаниях России;\n• Возможность гибкого графика;\n• Участие в крупнейших российских и международных ИТ-конференциях и выставках;\n• Конкурентная заработная плата по результатам собеседования, ежегодный ее пересмотр по итогам аттестации\n\n✉️ Контакты: opankina@ibs.ru @itgig\n\n—\n\n👉 Обсуждение вакансии в чате @devops_jobs","markup":[{"type":"hashtag","offset":0,"length":9,"data":"вакансия"},{"type":"hashtag","offset":10,"length":9,"data":"удаленно"},{"type":"hashtag","offset":20,"length":7,"data":"devops"},{"type":"link","offset":250,"length":23,"data":"https://arenadata.tech/"},{"type":"link","offset":1854,"length":15,"data":"mailto:opankina@ibs.ru"},{"type":"handle","offset":1870,"length":6,"data":"itgig"},{"type":"handle","offset":1911,"length":12,"data":"devops_jobs"}],"date":"2020-06-18T20:27:12+00:00","link":"tg://resolve?domain=devops_jobs_feed&post=2123","tags":[{"name":"kafka"},{"name":"hadoop"},{"name":"linux"},{"name":"ansible"},{"name":"centos"},{"name":"ubuntu"},{"name":"bash"},{"name":"git"},{"name":"docker"},{"name":"kubernetes"},{"name":"python"}],"cities":[],"allowsRemote":true}},{"node":{"__typename":"Job","id":"103207141376-1001089317451","title":"Qa engineer","text":"#вакансия #удаленка #Москва #fulltime #qa \nКомпания: «Intelligence Retail» (https://intrtl.com/).\nQA manual engineer\nФормат: удаленно, 5/2\nВилка: до 120 000 т.р\nЖелающим поможем вырасти в автоматизации на python.\n\nКто мы?\nIntelligence Retail входит в число 30 крупнейших поставщиков AI в России (по версии Rusbase). Мы работаем с такими глобальными компаниями по производству CPG, как Danone, Heineken, P & G, Perfetti Van Melle, Red Bull и другими. www.intrtl.com\nIntelligence Retail — молодой стартап в области ИИ. Мы помогаем компаниям в ритейле и FMCG повысить эффективность труда своих сотрудников. Наш продукт это система контроля товаров, использующая передовые алгоритмы компьютерного зрения на базе нейронных сетей.\n\nПожелания к кандидату:\n• Опыт тестирования сложных web программ, включая разработку тестов, тестовых данных, и сценариев тестирования;\n• Опыт тестирования API (Postman, SoapUI)\n• Способность выявлять уязвимые места систем, способность к поиску дефектов;\n• Опыт работы с системами багтрекинга;\n• Базовые знания SQL (на уровне простых запросов);\n• Технический английский.\nПлюсом будет:\n• опыт в автоматизации тестирования;\n• знание Python.\n\nЗадачи:\n• Мы разрабатываем SaaS решение которое содержит следующие компоненты:\n- мобильное приложение под iOS и Android;\n- аналитический web-портал;\n- REST API на python и php;\n- бекенд распознавания с использованием нейронных сетей.\n\nВот что нужно будет делать:\n• Ручное тестирование нового и существующего функционала ПО (Web, API, Mobile);\n• Проведение регрессионного тестирования перед поставкой;\n• Составление тестовых сценариев и поддержка их в актуальном состоянии;\n• Взаимодействие с командой разработки;\n• Обработка ошибок от технической поддержки пользователей;\n• Фиксация дефектов в трекере задач и последующий контроль их исправления.\n\nУсловия работы:\n• Достойная белая ЗП и полное соблюдение трудового законодательства РФ;\n• Удаленная работа с гибким графиком 5/2;\n• Команда крутых разработчиков и учёных, интересные задачи и перспективные продукты.\nИ ещё:\n• Тестировщик является частью скрам-команды, которая работает с 2-х недельными спринтами;\n• Ежедневные стендапы примерно в 11:30;\n• Задачи ведем в youtrack;\n• Мы — один из немногих Российских стартапов, который работает сразу на международном рынке, у нас уже есть зарубежные клиенты;\nВ компании работает порядка 40 человек, тех команда примерно 25.\n\nКонтакты: @DariaYugova","markup":[{"type":"hashtag","offset":0,"length":9,"data":"вакансия"},{"type":"hashtag","offset":10,"length":9,"data":"удаленка"},{"type":"hashtag","offset":20,"length":7,"data":"Москва"},{"type":"hashtag","offset":28,"length":9,"data":"fulltime"},{"type":"hashtag","offset":38,"length":3,"data":"qa"},{"type":"link","offset":76,"length":19,"data":"https://intrtl.com/"},{"type":"bold","offset":98,"length":18,"data":""},{"type":"link","offset":450,"length":14,"data":"http://www.intrtl.com"},{"type":"bold","offset":726,"length":22,"data":""},{"type":"bold","offset":1165,"length":7,"data":""},{"type":"bold","offset":1400,"length":27,"data":""},{"type":"bold","offset":1813,"length":15,"data":""},{"type":"handle","offset":2396,"length":12,"data":"DariaYugova"}],"date":"2020-06-18T16:31:41+00:00","link":"tg://resolve?domain=qa_jobs&post=0","tags":[{"name":"qa"},{"name":"python"},{"name":"web"},{"name":"sql"},{"name":"ios"},{"name":"android"},{"name":"rest"},{"name":"php"},{"name":"mobile"}],"cities":[{"code":"moscow"}],"allowsRemote":true}},{"node":{"__typename":"Job","id":"103185121280-1001089317451","title":"Qa инженер","text":"#вакансия #fulltime #офис #москва\n\nНаша компания (ООО Солид Дев) находится в поиске ручного тестировщика (но с желанием развиваться в автоматизации), который будет помогать нам совершенствовать наши продукты и сервисы! \n\nЕсли ты:\n- Тестишь web-приложения уже больше 1 года\n- Имеешь базовые знания SQL и опыт написания автотестов на python\n- Хочешь работать в команде профессионалов и развиваться\n\nТо пиши мне в личку или присылай резюме на почту - soliddevhr@gmail.ru расскажу подробнее про функционал и про наши плюшки)\n\nСтанция м.Бабушкинская\nВилка: от 120 на руки","markup":[{"type":"hashtag","offset":0,"length":9,"data":"вакансия"},{"type":"hashtag","offset":10,"length":9,"data":"fulltime"},{"type":"hashtag","offset":20,"length":5,"data":"офис"},{"type":"hashtag","offset":26,"length":7,"data":"москва"},{"type":"bold","offset":221,"length":8,"data":""},{"type":"bold","offset":397,"length":19,"data":""},{"type":"link","offset":448,"length":19,"data":"mailto:soliddevhr@gmail.ru"},{"type":"bold","offset":522,"length":7,"data":""},{"type":"bold","offset":545,"length":5,"data":""}],"date":"2020-06-18T14:07:39+00:00","link":"tg://resolve?domain=qa_jobs&post=0","tags":[{"name":"qa"},{"name":"web"},{"name":"sql"},{"name":"python"}],"cities":[{"code":"moscow"}],"allowsRemote":false}},{"node":{"__typename":"Job","id":"2220883968-1001134745498","title":"Devops engineer","text":"#вакансия #devops #fulltime #НижнийНовгород\n\nВакансия: DevOps Engineer\nКомпания: Natera  ( www.natera.com)\nЛокация: Нижний Новгород\nФормат работы: офис и удаленный формат\nЗанятость: полная\nЗарплатная вилка: от 2500 до 3200 $ до вычета.  \nКонтакт:@zKITO\n\nВ продуктовую компанию ищем коллегу. \n\n\n      BENEFITS\nSalary $ 2500-3200 gross.  \nStocks\nPossibility of remote work with flexible working hours\nFree lunch, snacks etc in office\nMacbook Pro + monitors\nComfortable and cozy office with table tennis, playstation etc\nPossibility of business trips to the USA California\nFull compliance with labour laws.\n\n\nKNOWLEDGE, SKILLS, AND ABILITIES\n\n  Mandatory\nExperience in Linux Ubuntu administration.\nPractical experience managing applications deployed using AWS/GCP or Docker.\nAbility to read and understand Java code.\nStrong ability to troubleshoot complex issues ranging from system resources to application stack traces.\n\n  Nice to have experience with\nKubernetes, Rancher\nPython/Java\nTerraform\nAtlassian applications stack\ndatabases and SQL\n  \n \nPRIMARY RESPONSIBILITIES\n\nDevelop, configure and manage tools for fast and reliable deployments of our software.\nParticipate in operations efforts and be the point person for infrastructural activities.\nBuild tools for monitoring our infrastructure and resolve any issues with instances running in production. \nDevelop automation and CI/CD processes to enable teams to build, test, deploy, manage, configure, scale and monitor their applications using the latest technologies such as Docker, Kubernetes, Terraform and others.\nParticipate in architectural decisions to help improve reliability and scalability of our software.\nHelp configure and manage development tools such as Atlassian Bitbucket, Bamboo, Artifactory and others.\n\n—\n\n👉 Обсуждение вакансии в чате @devops_jobs","markup":[{"type":"hashtag","offset":0,"length":9,"data":"вакансия"},{"type":"hashtag","offset":10,"length":7,"data":"devops"},{"type":"hashtag","offset":18,"length":9,"data":"fulltime"},{"type":"hashtag","offset":28,"length":15,"data":"НижнийНовгород"},{"type":"link","offset":91,"length":14,"data":"http://www.natera.com"},{"type":"handle","offset":246,"length":6,"data":"zKITO"},{"type":"handle","offset":1810,"length":12,"data":"devops_jobs"}],"date":"2020-06-18T11:25:45+00:00","link":"tg://resolve?domain=devops_jobs_feed&post=2118","tags":[{"name":"linux"},{"name":"ubuntu"},{"name":"amazon-web-services"},{"name":"google-cloud-platform"},{"name":"docker"},{"name":"java"},{"name":"kubernetes"},{"name":"python"},{"name":"sql"}],"cities":[{"code":"nice"},{"code":"nizhny-novgorod"}],"allowsRemote":true}},{"node":{"__typename":"Job","id":"91275395072-1001067529236","title":"Python разработчик","text":"#вакансия #python #fulltime #office #remote #спб #Senior #Middle #backend #офис #удаленка #работа\nЗп 120 000-160 000 net \n\nПривет! Компания e-Legion в поисках Python-разработчика в офис в Санкт-Петербург или удаленно.\n\nНеобходимые навыки:\n🔹 Python 3,6+, \n🔹 Django Framework и сопутствующие ему библиотеки и утилиты,\n🔹 asyncio, aiohttp и другие асинхронные библиотеки,\n🔹 PostgreSQL или другие реляционные БД,\nхорошее знание принципов работы HTTP и смежных сетевых протоколов,\n🔹 английский язык на уровне чтения и написания технической документации,\n🔹 Git.\n\nПреимуществом будет:\n🔹 знание SQL и реляционной алгебры,\n🔹 знакомство с Redis, RabbitMQ,\n🔹 опыт работы с Ansible,\n🔹 основы администрирования Linux,\n🔹 знание других языков программирования, фреймворков и технологий.\n🔹 понимание микросервисной архитектуры, опыт разработки высоконагруженных систем\n\nОт нас:\n🔹 гибкий график работы,\n🔹 компенсацию спорта, обучения и медицины,\n🔹 обучение и систему наставничества,\nвозможность писать статьи для отраслевых медиа и выступать на конференциях и митапах.\n\nОписание вакансии: https://www.e-legion.ru/vacancies/spb/python/\nКонтакты: @alexandrashirokina или на почту: hr@e-legion.com","markup":[{"type":"hashtag","offset":0,"length":9,"data":"вакансия"},{"type":"hashtag","offset":10,"length":7,"data":"python"},{"type":"hashtag","offset":18,"length":9,"data":"fulltime"},{"type":"hashtag","offset":28,"length":7,"data":"office"},{"type":"hashtag","offset":36,"length":7,"data":"remote"},{"type":"hashtag","offset":44,"length":4,"data":"спб"},{"type":"hashtag","offset":49,"length":7,"data":"Senior"},{"type":"hashtag","offset":57,"length":7,"data":"Middle"},{"type":"hashtag","offset":65,"length":8,"data":"backend"},{"type":"hashtag","offset":74,"length":5,"data":"офис"},{"type":"hashtag","offset":80,"length":9,"data":"удаленка"},{"type":"hashtag","offset":90,"length":7,"data":"работа"},{"type":"link","offset":1086,"length":45,"data":"https://www.e-legion.ru/vacancies/spb/python/"},{"type":"handle","offset":1142,"length":19,"data":"alexandrashirokina"},{"type":"link","offset":1176,"length":15,"data":"mailto:hr@e-legion.com"}],"date":"2020-06-18T10:31:37+00:00","link":"tg://resolve?domain=python_jobs&post=0","tags":[{"name":"python"},{"name":"dotnet"},{"name":"django"},{"name":"postgresql"},{"name":"git"},{"name":"sql"},{"name":"redis"},{"name":"rabbitmq"},{"name":"ansible"},{"name":"linux"}],"cities":[],"allowsRemote":true}},{"node":{"__typename":"Job","id":"103155761152-1001089317451","title":"Qa инженер","text":"#вакансия #москва #полнаязанятость #мегафон #bigdata #покаработаемиздомапотомвофис\n\nМы ищем QA-инженера в команду для тестирования внутренних и внешних сервисов.\n\nЧем предстоит заниматься:\n\n- Разработка модулей интеграционных тестов для наших сервисов;\n- Подготовка тестовых данных (работа с hive/oracle);\nРабота с SQL/HiveQL (Oracle/Hive);\n- Написание алгоритмов работы с данными, в рамках тестирования;\n- Взаимодействие с разработчиками и аналитиками в процессе проектирования и развития;\n- Выявление, фиксация и контроль багов в баг-трекере (Jira);\n- Ведение документации по тестированию (confluence);\n\nИспользуемые технологии:\nДля разработки – Play, Spring, Flask, Scala, Java (8+), Python(3+);\nДля тестирования: Java/Scala & Maven + TestNG + Google Guice;\nДля работы сервисов – Docker;\nДля работы с кодом – GitLab;\nДля работы с задачами – Jira.\n\nМы ожидаем от вас:\n- Опыт работы в автоматизации тестирования от 1 года;\n- Знание структур данных и алгоритмов;\n- Уверенное знание Java;\n- Уверенное знание фреймворков TestNG/JUnit;\n- Опыт работы в автоматизации тестирования;\n- Опыт работы с реляционными СУБД (Oracle/PostgreSQL);\n- Умение писать хорошо читаемый код;\n- Умение работать с VCS (Git) и сборщиками (maven).\n\nБудет плюсом:\n- Опыт в области тестирования приложений по работе с большими данными;\n- Опыт в нагрузочном тестировании;\n- Опыт работы с Spring/Google Guice;\n- Опыт конфигурирования CI/CD (GitLab);\n- Умение писать код на Scala;\n- Опыт работы с Hadoop/Spark.\n\nЧто мы предлагаем:\n- Внутреннее и внешнее обучение в России (Coursera, New Prolab, Geek Brains и др.);\n- Новый офис в центре: 7 минут пешком от м. Маяковская/Новослободская;\n- Компенсация затрат на мобильную связь;\nДМС (включая стоматологию);\n- Частичная компенсация спорта;\n- Возможность участия в корпоративных спортивных командах: футбол, волейбол, баскетбол, хоккей и бег\n- Регулярные митапы в офисе с внешними спикерами из разных областей.\n\n#мегафон #bigdata\nКонтакты: Svetlana.stakanova@megafon.ru или @svetastakanova","markup":[{"type":"hashtag","offset":0,"length":9,"data":"вакансия"},{"type":"hashtag","offset":10,"length":7,"data":"москва"},{"type":"hashtag","offset":18,"length":16,"data":"полнаязанятость"},{"type":"hashtag","offset":35,"length":8,"data":"мегафон"},{"type":"hashtag","offset":44,"length":8,"data":"bigdata"},{"type":"hashtag","offset":53,"length":29,"data":"покаработаемиздомапотомвофис"},{"type":"hashtag","offset":1926,"length":8,"data":"мегафон"},{"type":"hashtag","offset":1935,"length":8,"data":"bigdata"},{"type":"link","offset":1954,"length":29,"data":"mailto:Svetlana.stakanova@megafon.ru"},{"type":"handle","offset":1988,"length":15,"data":"svetastakanova"}],"date":"2020-06-18T09:58:49+00:00","link":"tg://resolve?domain=qa_jobs&post=0","tags":[{"name":"qa"},{"name":"hive"},{"name":"oracle"},{"name":"sql"},{"name":"playframework"},{"name":"spring"},{"name":"flask"},{"name":"scala"},{"name":"java"},{"name":"python"},{"name":"maven"},{"name":"docker"},{"name":"gitlab"},{"name":"junit"},{"name":"postgresql"},{"name":"git"},{"name":"hadoop"}],"cities":[{"code":"moscow"}],"allowsRemote":false}},{"node":{"__typename":"Job","id":"91264909312-1001067529236","title":"Python разработчик","text":"#вакансия #python  #sql #офис #москва\nм.Бауманская, полная занятость\nБелая з/п до 160.000 руб. на руки \nData Scientist\n\nМы — команда разработки Level.Travel, сложного продукта в сфере путешествий. За последние 8 лет мы с нуля создали и продолжаем развивать решение для онлайн-продажи путешествий. Нашу платформу используют лидеры рынка – Тинькофф Банк, OneTwoTrip, Сбербанк, TripAdvisor, Kayak, АК Барс Банк, Евросеть и многие другие. Компания Level.Travel является резидентом Инновационного центра «Сколково».\n\nОбязанности:\n🔸Работа над проектами, решаемыми с использованием машинного обучения: участие в постановке задачи, исследование, подбор алгоритма и оптимизация модели, подготовка к использованию модели бизнесом.\n🔸Решение задач требующих умения работать с данными, продвинутое знание SQL, Python, статистики\n\nОт Вас:\n🔸Уметь программировать на Python\n🔸Использовать популярные библиотеки: scikit-learn, Pandas, numpy, scipy\n🔸Уверенно писать SQL-запросы (MySQL, PostgreSQL, Clickhouse)\n🔸Знать основных методов и алгоритмов Machine Learning\n🔸Иметь знания в области мат. статистики, теории вероятности\n\nЖелательно:\n🔸Иметь завершенный проект с применением машинного обучения\n🔸Уметь работать с временными рядами, анализировать их свойства\n🔸Опыт разработки на языке программирования Scala/Java с использованием Spark\n\nОт нас: белая зп, официальное трудоустройство, больничные, отпуска. Скидки на изучение английского языка, техника MacBook Pro. Регулярная обратная связь и аттестации. Геймификация процессов и несколько раз в год релокейты поработать в другую страну. Клевый молодой коллектив, интересные ивенты, насыщенная корпоративная жизнь. Пинг-понг, бильярд, кальян и другие развлечения в офисе. Скидки на путешествия)\n\nСвязь по почте : vos@level.travel\nИли тут @Alyask_a","markup":[{"type":"hashtag","offset":0,"length":9,"data":"вакансия"},{"type":"hashtag","offset":10,"length":7,"data":"python"},{"type":"hashtag","offset":19,"length":4,"data":"sql"},{"type":"hashtag","offset":24,"length":5,"data":"офис"},{"type":"hashtag","offset":30,"length":7,"data":"москва"},{"type":"bold","offset":69,"length":33,"data":""},{"type":"bold","offset":104,"length":14,"data":""},{"type":"bold","offset":120,"length":76,"data":""},{"type":"bold","offset":513,"length":12,"data":""},{"type":"bold","offset":820,"length":7,"data":""},{"type":"bold","offset":1114,"length":11,"data":""},{"type":"bold","offset":1329,"length":7,"data":""},{"type":"bold","offset":1737,"length":33,"data":""},{"type":"link","offset":1754,"length":16,"data":"mailto:vos@level.travel"},{"type":"bold","offset":1771,"length":17,"data":""},{"type":"handle","offset":1779,"length":9,"data":"Alyask_a"}],"date":"2020-06-18T09:21:55+00:00","link":"tg://resolve?domain=python_jobs&post=0","tags":[{"name":"python"},{"name":"sql"},{"name":"scikit-learn"},{"name":"pandas"},{"name":"numpy"},{"name":"mysql"},{"name":"postgresql"},{"name":"scala"},{"name":"java"},{"name":"machine-learning"}],"cities":[{"code":"moscow"}],"allowsRemote":false}}]}}},"context":{}}