{"hash":"f5f6bf98bd95e769321482904cbbd488f77922fd","data":{"records":{"id":"junit","name":"junit","belongsTo":{"totalCount":25,"pageInfo":{"totalPages":3,"currentPage":2},"edges":[{"node":{"__typename":"Job","id":"1737490432-1001091028994","title":"Java developer","text":"#Вакансия #Java #Spring #Москва\n\nВсем привет! \nИщу Middle Java Backend Developer в Национальную Систему Платёжных Карт на проект \"Клиринг\".\n\nЭто Core-платформа, которая обрабатывает все транзакции внутри нашей страны по всем основным платежным системам. Обработка каждой системы уникальна, имеет свои интересные особенности. \n\nСтек: CentOS, Java Core, Spring, Akka Actors, MySql, MyBatis, Swagger, Gradle, Groovy и Kotlin скрипты.\n\nНам интересны кандидаты от уровня Middle и выше: от 160 000 rub. \nФинансовый вопрос обсуждается индивидуально и зависит от опыта, знаний и навыков кандидата.\n\nЧто предстоит делать:\n- разрабатывать и поддерживать  backend проекта в тесном взаимодействии с командой;\n- обеспечивать полный цикл разработки от анализа требований до внедрения продукта;\n- участвовать в построении новых систем и в развитии существующих.\n\nЧто требуется:\n- отличные знания Core Java;\n- опыт работы со стеком Spring, в том числе SpringBoot;\n- хорошие знания SQL, опыт работы с JUnit, использования git, вариантов gitflow;\n- понимание принципов построения CI/CD (методология, инструменты);\nумение декомпозировать задачи.\n\nМы предлагаем:\n- работу в команде профессионалов;\n- обучение за счет компании;\n- развитую корпоративную культуру;\n- комфортный офис в центре (тренажерный зал, спортивный зал, лаунж-зона, кухни с чаем и кофе на каждом этаже);\n- ДМС со стоматологией с первого месяца работы, официальное трудоустройство.\n\n@arinakulova","markup":[{"type":"hashtag","offset":0,"length":9,"data":"Вакансия"},{"type":"hashtag","offset":10,"length":5,"data":"Java"},{"type":"hashtag","offset":16,"length":7,"data":"Spring"},{"type":"hashtag","offset":24,"length":7,"data":"Москва"},{"type":"handle","offset":1431,"length":12,"data":"arinakulova"}],"date":"2020-06-25T10:47:20+00:00","link":"tg://resolve?domain=jvmjobs&post=1657","tags":[{"name":"java"},{"name":"jvm"},{"name":"spring"},{"name":"centos"},{"name":"akka"},{"name":"mysql"},{"name":"swagger"},{"name":"gradle"},{"name":"groovy"},{"name":"kotlin"},{"name":"sql"},{"name":"junit"},{"name":"git"}],"cities":[{"code":"moscow"}],"allowsRemote":false}},{"node":{"__typename":"Job","id":"1734344704-1001091028994","title":"Java developer","text":"#java#spring#сбербанк#москва\nКомпания: Сбербанк\nПозиция: Java backend-developer (Москва)\nЗп: от 250 тыс. net + годовой бонус\n \nЗадачи:\nРазработка backend-части высоконагруженной инновационной аналитической системы на Java; разработка интеграционных сервисов и микросервисных компонентов на Java (стандарты JMS, REST API); написание Unit-тестов; рефакторинг и оптимизация кода; участие в принятии архитектурных решений и исследовательские задачи.\n\nМы ожидаем:\nОпыт коммерческой разработки на Java от 2-х лет; понимание принципов ООП; уверенное знание Java SE (желательно, Java SE 8), Collection, JDBC, Multithreading; знания и опыт использования: Spring Framework/ Boot (Spring MVC, Spring Security, SpringJDBC); опыт написания Unit-тестов (Junit, TestNG); уверенное знание SQL; опыт работы с Git, Maven.\n\nКонтакт: Екатерина (+79250716855, @katyavarlygina)","markup":[{"type":"link","offset":825,"length":12,"data":"tel:+79250716855"},{"type":"handle","offset":839,"length":15,"data":"katyavarlygina"}],"date":"2020-06-24T11:21:18+00:00","link":"tg://resolve?domain=jvmjobs&post=1654","tags":[{"name":"java"},{"name":"jvm"},{"name":"spring"},{"name":"dotnet"},{"name":"rest"},{"name":"jdbc"},{"name":"junit"},{"name":"sql"},{"name":"git"},{"name":"maven"},{"name":"spring-mvc"},{"name":"spring-security"}],"cities":[{"code":"moscow"}],"allowsRemote":false}},{"node":{"__typename":"Job","id":"1724907520-1001091028994","title":"Java разработчик","text":"#вакансия #java #Spring #middle #senior #офиc #backend #Москва #СПБ, #Екатеринбург #Ростов-на Дону #удаленно\n👋Приглашаем middle/senior Java Developer в новый проект от Сбербанка.\n\n💸Уровень ЗП: от 220 000 до 280 000 руб. net. (обсуждается!).\n\n✍🏻Оформление: штат компании партнера или ИП.\n\n📍Локация: офис (Москва Кутузовский пр-т 32/1). Или удалено с возможностью посещать офис: СПБ, Екатеринбург, Ростов-на Дону.\n\n🏢О проекте: В рамках стратегической программы «Создание платформы поддержки развития бизнеса» наша команда разрабатывает линейку продуктов Cash Management. Продукта корпоративного блока, предоставляющий функции управления финансовыми потоками для предприятий и корпораций с развитой филиальной сетью. Линейка продуктов содержит порядка 10 продуктов, направленных на управление всеми счетами холдинга единым казначейством. Основная задача – перевод линейки продуктов из Legacy АС на целевые платформы банка и перевод управления продуктами в удаленные каналы обслуживания.\n\n🎯Ваши будущие задачи :\n- проектирование решения, в том числе разработка детальной внутренней архитектуры сервиса, включая интеграционные сценарии;\n- детальное проектирование интеграции со смежными сервисами (в том числе API);\n- разработка программного продукта, внесение изменений в код;\n- разработка автоматических модульных тестов, автоматических скриптов и тестов развертывания.\n\n🤝Мы ожидаем от вас:\n• знание принципов ООП, методологий разработки, шаблонов проектирования;\n• уверенное владение Java 7+, Spring;\n• опыт работы с СУБД, опыт проектирования модели данных;\n• проактивная позиция, хорошие коммуникативные навыки;\n• умение работать с чужим кодом.\n• желательно опыт работы с react-js, Java Script.\n\nЖду Ваши резюме и буду рада ответить на все вопросы. Прекрасного дня!☺️\nКонтакты для связи: telegram @anisimovaane4ka\n\n#вакансия #java #Spring #middle #офиc #backend #Москва #удаленно\n📣Приглашаем Middle Java Developer в новый проект от Сбербанка.\n\n💸Уровень ЗП: от 180 000 до 270 000 руб. net. (обсуждается!).\n\n✍🏻Оформление: штат компании партнера или ИП.\n\n📌Локация: Удаленно или офис (Москва Кутузовский пр-т 32/1).\n\n🏢О проекте: Транзакционные кредитные продукты. Наша команда состоит из профессионалов и создает лучшие Кредитные карты на рынке. На платформе ППРБ мы разрабатываем принципиально новую back-office систему, которая позволит запускать продукты и сервисы с минимальным time-to-market. Технологический стек позволяет поддерживать высокую производительность, надежность и безопасность работы пользователей. Хранение данных в БД Oracle. Критичность системы – 24/7, обеспечение которой также заслуга раздельной кластеризации решений на всех уровнях: хранение данных, очереди сообщений, кластеры прикладных модулей.\n\n🎯Задачи разработчика:\n- разработка backend продукта процессинга кредитных карт (функционал кредитного продукта);\n- разработка обновлений, миграций данных и решение других backend задача.\n\n✅Наш стек:∙ Java 1.8; Spring 5 (Core, Boot, JMS, MVC, JdbcTemplate, REST); Hibernate; JUnit (Mockito); MQ (IM WS MQ, Kafka + ZooKeeper); Linux (RedHat); Application Server - Wildfly; Git, Bitbucket, Nexus, Jira, Confluence; CI: Maven, Jenkins, SonarQube, CheckMarx; IntelliJ IDEA.\n\n🤝Мы ожидаем от вас:\n- глубокие знания JavaSE 1.8;\n- понимание принципов OOP, принципов проектирования классов, шаблонов проектирования;\n- понимание принципов разработки REST сервисов;\n- желательно знания SQL и опыт работы с Oracle DB 12.2.\n\nЖду Ваши резюме и буду рада ответить на все вопросы. Прекрасного дня!☺️\nКонтакты для связи: telegram @anisimovaane4ka","markup":[{"type":"hashtag","offset":0,"length":9,"data":"вакансия"},{"type":"hashtag","offset":10,"length":5,"data":"java"},{"type":"hashtag","offset":16,"length":7,"data":"Spring"},{"type":"hashtag","offset":24,"length":7,"data":"middle"},{"type":"hashtag","offset":32,"length":7,"data":"senior"},{"type":"hashtag","offset":40,"length":5,"data":"офиc"},{"type":"hashtag","offset":46,"length":8,"data":"backend"},{"type":"hashtag","offset":55,"length":7,"data":"Москва"},{"type":"hashtag","offset":63,"length":4,"data":"СПБ"},{"type":"hashtag","offset":69,"length":13,"data":"Екатеринбург"},{"type":"hashtag","offset":83,"length":7,"data":"Ростов"},{"type":"hashtag","offset":99,"length":9,"data":"удаленно"},{"type":"handle","offset":1803,"length":16,"data":"anisimovaane4ka"},{"type":"hashtag","offset":1821,"length":9,"data":"вакансия"},{"type":"hashtag","offset":1831,"length":5,"data":"java"},{"type":"hashtag","offset":1837,"length":7,"data":"Spring"},{"type":"hashtag","offset":1845,"length":7,"data":"middle"},{"type":"hashtag","offset":1853,"length":5,"data":"офиc"},{"type":"hashtag","offset":1859,"length":8,"data":"backend"},{"type":"hashtag","offset":1868,"length":7,"data":"Москва"},{"type":"hashtag","offset":1876,"length":9,"data":"удаленно"},{"type":"handle","offset":3546,"length":16,"data":"anisimovaane4ka"}],"date":"2020-06-23T13:23:27+00:00","link":"tg://resolve?domain=jvmjobs&post=1645","tags":[{"name":"java"},{"name":"jvm"},{"name":"spring"},{"name":"dotnet"},{"name":"reactjs"},{"name":"oracle"},{"name":"rest"},{"name":"hibernate"},{"name":"junit"},{"name":"kafka"},{"name":"linux"},{"name":"git"},{"name":"maven"},{"name":"jenkins"},{"name":"sonarqube"},{"name":"sql"},{"name":"intellij-idea"}],"cities":[{"code":"moscow"},{"code":"rostov"}],"allowsRemote":true}},{"node":{"__typename":"Job","id":"1723858944-1001091028994","title":"Java разработчик","text":"#backend #java #middle  \nКомпания: #ОООСервисхаб \nЛокация: #удаленка \nЗ/п: 80 000-120 000 \nКонтакты:👉 @ANASTASIAHRServicehub  \n\nВ команду, которая производит и внедряет ПО для банков, нужен Разработчик Java (удаленно или в офис во Владимир).   \n\nМы предлагаем Вам:\n  \nФедеральный ИТ проект.  \n Бесплатное обучение английскому языку и возможность выбора обучающего курса по интересующей тематике. \nСоциальный пакет, официальное трудоустройство.  \n\n\nВ проекте используется следующий стек :  \n\n✔️Java с использованием spring-boot \n✔️Axon Framework в качестве каркасных фрейворков.  \n✔️А так же JOOQ, MapStruct, Jackson для работы с внешними источниками данных.  \n✔️Для тестирования используется JUnit + Mockito.  \n✔️Для решения задач безопасности(ЭЦП) используется BouncyCastle. \n✔️CI/CD организуется средствами Gradle, Docker, Jenkins, Rancher 2, Kubernetes, Helm.  \n✔️Для хранения данных используется СУБД PostgreSQL,для организации асинхронной коммуникации применяется RabbitMQ.  \n\nЧто требуется от Вас:  \n\nЗнание языков/фреймворков, Spring, SQL, Core Java S, серверов очередей, неряляционных баз данных, web-технологий приветствуется;  \nУверенное знание Core Java, Spring IoC, SQL  \n\n❕Приветствуются экспертизы в следующих областях: сервера очередей, неряляционные базы данных, CQRS, Event Sourcing, Web-технологии \n \nБуду также благодарна за контакты и рекомендации😊 \n✍️@ANASTASIAHRServicehu hr@srvhub.ru","markup":[{"type":"hashtag","offset":0,"length":8,"data":"backend"},{"type":"hashtag","offset":9,"length":5,"data":"java"},{"type":"hashtag","offset":15,"length":7,"data":"middle"},{"type":"hashtag","offset":35,"length":13,"data":"ОООСервисхаб"},{"type":"hashtag","offset":59,"length":9,"data":"удаленка"},{"type":"handle","offset":103,"length":22,"data":"ANASTASIAHRServicehub"},{"type":"handle","offset":1374,"length":21,"data":"ANASTASIAHRServicehu"},{"type":"link","offset":1396,"length":12,"data":"mailto:hr@srvhub.ru"}],"date":"2020-06-23T09:46:47+00:00","link":"tg://resolve?domain=jvmjobs&post=1644","tags":[{"name":"java"},{"name":"jvm"},{"name":"spring"},{"name":"jackson"},{"name":"junit"},{"name":"gradle"},{"name":"docker"},{"name":"jenkins"},{"name":"kubernetes"},{"name":"postgresql"},{"name":"rabbitmq"},{"name":"sql"},{"name":"web"},{"name":"spring-boot"}],"cities":[{"code":"vladimir"}],"allowsRemote":true}},{"node":{"__typename":"Job","id":"103421050880-1001089317451","title":"Qa инженер","text":"Юлия Романова, [17.06.20 14:29]\n#вакансия #спб #fulltime #qa #удаленно\n\nКомпания: Smart Design (smddev.com) \n\nДолжность: Инженер по ручному и автоматизированному тестированию (QA & Automation Engineer)\n\nИщем инженера по тестированию BSS сотового оператора.\nБольшая распределенная команда (~30 человек).\nНужно хорошо уметь тестировать вручную и, когда это выгодно, суметь автоматизировать.\n\n\nНаши пожелания к кандидатам:\n✔️Опыт работы с Java или любым другим высокоуровневым языком программирования на уровне, достаточном для самостоятельного написания игры \"Сапёр\"\n✔️Опыт работы в консоли linux на уровне, достаточном для для решения задач:\nпоиск и изменение строк в файле\nуправление системными процессами\n✔️Опыт взаимодействия с REST API на уровне, достаточном для того, чтобы получить из ВКонтакте имя и фамилию своего аккаунта, не используя браузер\n\nПлюсом будет:\n✔️Опыт работы с протоколом SOAP\n✔️Профессиональный опыт функционального тестирования\n✔️Опыт работы с JUnit, Gradle, Oracle\n\nУсловия:\n✔️\"Белая\" зарплата до 110K gross\n✔️ДМС\n✔️ Работа в удаленном режиме на данный момент, далее в уютном офисе.\n\nhttps://spb.hh.ru/vacancy/37540632\n\nМои контакты: @romanovaya iyliia.romanova@smddev.com","markup":[{"type":"hashtag","offset":32,"length":9,"data":"вакансия"},{"type":"hashtag","offset":42,"length":4,"data":"спб"},{"type":"hashtag","offset":47,"length":9,"data":"fulltime"},{"type":"hashtag","offset":57,"length":3,"data":"qa"},{"type":"hashtag","offset":61,"length":9,"data":"удаленно"},{"type":"link","offset":96,"length":10,"data":"http://smddev.com"},{"type":"link","offset":1109,"length":34,"data":"https://spb.hh.ru/vacancy/37540632"},{"type":"handle","offset":1159,"length":11,"data":"romanovaya"},{"type":"link","offset":1171,"length":26,"data":"mailto:iyliia.romanova@smddev.com"}],"date":"2020-06-22T10:04:08+00:00","link":"tg://resolve?domain=qa_jobs&post=98630","tags":[{"name":"qa"},{"name":"java"},{"name":"linux"},{"name":"rest"},{"name":"soap"},{"name":"junit"},{"name":"gradle"},{"name":"oracle"}],"cities":[],"allowsRemote":true}},{"node":{"__typename":"Job","id":"1714421760-1001091028994","title":"Java разработчик","text":"#java#Junior#Java#developer#telecom\nЛокация: Москва, Нижний Новгород, Россия\nЗанятость: офис, полная, удаленная\nЗ/п: от 100 000 рублей на руки\nКомпания: ГК INTECH\n\nКонтакты: @vkechatova\n\nINTECH – IT компания, контент и сервис провайдер на рынке телекома России и стран СНГ, разработчик инновационных идей для мобильной и WEB индустрии. Мы работаем с операторами сотовой связи не только в России, но и в странах СНГ и Вьетнаме.\n\nПримеры наших проектов:\nПроект «Глаголь» - Платформа создания и управления высоко нагружёнными видео конференциями с мобильными приложениями.\nCashback - Сервис Сахар;\nОблачная АТС - Решение облачной телефонии для корпоративных клиентов;\nСтриминговая платформа - Видео, аудио стриминговые решения для работы с ТВ трансляциями;\nВидео Истории - Платформа для видеозвонков и для проигрывания пользовательских и коммерческих видео роликов на экране мобильного телефона во время вызова.\n\nЗадачи:\n•  Разработка голосовых и SMS/USSD сервисов для сотовых операторов;\n•  Сопровождение существующие продуктов и разработка новых.\n\nДля работы потребуется:\n•  Опыт разработки от 1 года;\n•  Уверенное знание Java Core, Multithreading, Collections;\n•  Уверенные навыки работы с реляционными базами данных;\n•  Опыт работы с JPA, Hibernate\n•  Опыт работы с Spring (MVC, Data)\n•  Опыт работы с ОС Linux;\n•  Опыт работы с системой контроля версий;\n•  Навыки работы с JUnit - приветствуются.\n\nПлюсом будет:\n•  Опыт работы в телеком (SIP, SS7).\n\nМы предлагаем:\n•  Официальное трудоустройство, полностью официальная заработная плата;\n•  Белая заработная плата - полностью зависит от квалификации кандидата и обсуждается на интервью;\n•  Возможность карьерного и профессионального роста;\n•  Возможность предлагать и реализовывать собственные идеи;\n•  Работа в профессиональной команде разработчиков;\n•  Обучение в процессе работы;\nА также:\n•  Гибкая мотивационная программа;\n•  Ежемесячные премии;\n•  Ежегодные корпоративные мероприятия.","markup":[{"type":"handle","offset":174,"length":11,"data":"vkechatova"}],"date":"2020-06-22T06:35:58+00:00","link":"tg://resolve?domain=jvmjobs&post=1635","tags":[{"name":"java"},{"name":"jvm"},{"name":"web"},{"name":"jpa"},{"name":"hibernate"},{"name":"spring"},{"name":"linux"},{"name":"junit"},{"name":"spring-mvc"}],"cities":[{"code":"moscow"},{"code":"nizhny-novgorod"}],"allowsRemote":true}},{"node":{"__typename":"Job","id":"103155761152-1001089317451","title":"Qa инженер","text":"#вакансия #москва #полнаязанятость #мегафон #bigdata #покаработаемиздомапотомвофис\n\nМы ищем QA-инженера в команду для тестирования внутренних и внешних сервисов.\n\nЧем предстоит заниматься:\n\n- Разработка модулей интеграционных тестов для наших сервисов;\n- Подготовка тестовых данных (работа с hive/oracle);\nРабота с SQL/HiveQL (Oracle/Hive);\n- Написание алгоритмов работы с данными, в рамках тестирования;\n- Взаимодействие с разработчиками и аналитиками в процессе проектирования и развития;\n- Выявление, фиксация и контроль багов в баг-трекере (Jira);\n- Ведение документации по тестированию (confluence);\n\nИспользуемые технологии:\nДля разработки – Play, Spring, Flask, Scala, Java (8+), Python(3+);\nДля тестирования: Java/Scala & Maven + TestNG + Google Guice;\nДля работы сервисов – Docker;\nДля работы с кодом – GitLab;\nДля работы с задачами – Jira.\n\nМы ожидаем от вас:\n- Опыт работы в автоматизации тестирования от 1 года;\n- Знание структур данных и алгоритмов;\n- Уверенное знание Java;\n- Уверенное знание фреймворков TestNG/JUnit;\n- Опыт работы в автоматизации тестирования;\n- Опыт работы с реляционными СУБД (Oracle/PostgreSQL);\n- Умение писать хорошо читаемый код;\n- Умение работать с VCS (Git) и сборщиками (maven).\n\nБудет плюсом:\n- Опыт в области тестирования приложений по работе с большими данными;\n- Опыт в нагрузочном тестировании;\n- Опыт работы с Spring/Google Guice;\n- Опыт конфигурирования CI/CD (GitLab);\n- Умение писать код на Scala;\n- Опыт работы с Hadoop/Spark.\n\nЧто мы предлагаем:\n- Внутреннее и внешнее обучение в России (Coursera, New Prolab, Geek Brains и др.);\n- Новый офис в центре: 7 минут пешком от м. Маяковская/Новослободская;\n- Компенсация затрат на мобильную связь;\nДМС (включая стоматологию);\n- Частичная компенсация спорта;\n- Возможность участия в корпоративных спортивных командах: футбол, волейбол, баскетбол, хоккей и бег\n- Регулярные митапы в офисе с внешними спикерами из разных областей.\n\n#мегафон #bigdata\nКонтакты: Svetlana.stakanova@megafon.ru или @svetastakanova","markup":[{"type":"hashtag","offset":0,"length":9,"data":"вакансия"},{"type":"hashtag","offset":10,"length":7,"data":"москва"},{"type":"hashtag","offset":18,"length":16,"data":"полнаязанятость"},{"type":"hashtag","offset":35,"length":8,"data":"мегафон"},{"type":"hashtag","offset":44,"length":8,"data":"bigdata"},{"type":"hashtag","offset":53,"length":29,"data":"покаработаемиздомапотомвофис"},{"type":"hashtag","offset":1926,"length":8,"data":"мегафон"},{"type":"hashtag","offset":1935,"length":8,"data":"bigdata"},{"type":"link","offset":1954,"length":29,"data":"mailto:Svetlana.stakanova@megafon.ru"},{"type":"handle","offset":1988,"length":15,"data":"svetastakanova"}],"date":"2020-06-18T09:58:49+00:00","link":"tg://resolve?domain=qa_jobs&post=0","tags":[{"name":"qa"},{"name":"hive"},{"name":"oracle"},{"name":"sql"},{"name":"playframework"},{"name":"spring"},{"name":"flask"},{"name":"scala"},{"name":"java"},{"name":"python"},{"name":"maven"},{"name":"docker"},{"name":"gitlab"},{"name":"junit"},{"name":"postgresql"},{"name":"git"},{"name":"hadoop"}],"cities":[{"code":"moscow"}],"allowsRemote":false}},{"node":{"__typename":"Job","id":"103149469696-1001089317451","title":"Qa инженер","text":"Юлия Романова, [17.06.20 14:29]\n#вакансия #спб #fulltime #qa #удаленно\n\nКомпания: Smart Design (smddev.com) \n\nДолжность: Инженер по ручному и автоматизированному тестированию (QA & Automation Engineer)\n\nИщем инженера по тестированию BSS сотового оператора.\nБольшая распределенная команда (~30 человек).\nНужно хорошо уметь тестировать вручную и, когда это выгодно, суметь автоматизировать.\n\n\nНаши пожелания к кандидатам:\n✔️Опыт работы с Java или любым другим высокоуровневым языком программирования на уровне, достаточном для самостоятельного написания игры \"Сапёр\"\n✔️Опыт работы в консоли linux на уровне, достаточном для для решения задач:\nпоиск и изменение строк в файле\nуправление системными процессами\n✔️Опыт взаимодействия с REST API на уровне, достаточном для того, чтобы получить из ВКонтакте имя и фамилию своего аккаунта, не используя браузер\n\nПлюсом будет:\n✔️Опыт работы с протоколом SOAP\n✔️Профессиональный опыт функционального тестирования\n✔️Опыт работы с JUnit, Gradle, Oracle\n\nУсловия:\n✔️\"Белая\" зарплата до 110K gross\n✔️ДМС\n✔️ Работа в удаленном режиме на данный момент, далее в уютном офисе.\n\nhttps://spb.hh.ru/vacancy/37540632\n\nМои контакты: @romanovaya iyliia.romanova@smddev.com","markup":[{"type":"hashtag","offset":32,"length":9,"data":"вакансия"},{"type":"hashtag","offset":42,"length":4,"data":"спб"},{"type":"hashtag","offset":47,"length":9,"data":"fulltime"},{"type":"hashtag","offset":57,"length":3,"data":"qa"},{"type":"hashtag","offset":61,"length":9,"data":"удаленно"},{"type":"link","offset":96,"length":10,"data":"http://smddev.com"},{"type":"link","offset":1109,"length":34,"data":"https://spb.hh.ru/vacancy/37540632"},{"type":"handle","offset":1159,"length":11,"data":"romanovaya"},{"type":"link","offset":1171,"length":26,"data":"mailto:iyliia.romanova@smddev.com"}],"date":"2020-06-18T09:08:47+00:00","link":"tg://resolve?domain=qa_jobs&post=0","tags":[{"name":"qa"},{"name":"java"},{"name":"linux"},{"name":"rest"},{"name":"soap"},{"name":"junit"},{"name":"gradle"},{"name":"oracle"}],"cities":[],"allowsRemote":true}},{"node":{"__typename":"Job","id":"71547486208-1001054966032","title":"Android разработчик","text":"#вакансия #android #офис #удаленка\n\nГород: Москва (Сокольники или Павелецкая), есть релокационный пакет\n\nФормат работы: офис, но также возможна удаленка из Москвы, Питера, Самары\n\nЗанятость: полная\n\nВилка: 180-250 т.р. на руки\n\nКоманда разработчиков ищет коллегу для создания и развития функционала мобильного банка.\n\nЧто требуется знать:\n\n• Паттерны GOF\n• Алгоритмы и структуры данных\n• Core Java SE 8\n• Kotlin\n• Android SDK API Level 19-29\n• Android Support Library\n• Dagger 2\n• RxJava 2\n• JUnit, Espresso, Mockito\n\nБудет плюсом:\n\n• Cicerone\n• Moxy\n• FCM\n• Fingerprint Authentication\n• Знание основ криптологии\n• Android Architecture Components\n• Gradle\n• REST API\n• Опыт работы с Google Maps SDK для Android\n\nНазвание компании: ПСБ\nhttps://www.psbank.ru/\nhttps://hh.ru/vacancy/34497271\n\nКонтакты: @max_gusev\ngusevms@psbank.ru","markup":[{"type":"hashtag","offset":0,"length":9,"data":"вакансия"},{"type":"hashtag","offset":10,"length":8,"data":"android"},{"type":"hashtag","offset":19,"length":5,"data":"офис"},{"type":"hashtag","offset":25,"length":9,"data":"удаленка"},{"type":"bold","offset":36,"length":6,"data":""},{"type":"bold","offset":105,"length":14,"data":""},{"type":"bold","offset":180,"length":10,"data":""},{"type":"bold","offset":199,"length":7,"data":""},{"type":"bold","offset":318,"length":20,"data":""},{"type":"bold","offset":518,"length":13,"data":""},{"type":"bold","offset":712,"length":18,"data":""},{"type":"link","offset":735,"length":21,"data":"https://www.psbank.ru/"},{"type":"link","offset":758,"length":30,"data":"https://hh.ru/vacancy/34497271"},{"type":"bold","offset":790,"length":9,"data":""},{"type":"handle","offset":800,"length":10,"data":"max_gusev"},{"type":"link","offset":811,"length":17,"data":"mailto:gusevms@psbank.ru"}],"date":"2020-06-18T08:14:18+00:00","link":"tg://resolve?domain=mobile_jobs&post=0","tags":[{"name":"mobile"},{"name":"android"},{"name":"java"},{"name":"kotlin"},{"name":"junit"},{"name":"gradle"},{"name":"rest"},{"name":"google-maps"}],"cities":[{"code":"moscow"}],"allowsRemote":true}},{"node":{"__typename":"Job","id":"103051952128-1001089317451","title":"Qa инженер","text":"#вакансия #спб #fulltime #qa #удаленно\n\nКомпания: Smart Design (smddev.com) \n\nДолжность: Инженер по ручному и автоматизированному тестированию (QA & Automation Engineer)\n\nИщем инженера по тестированию BSS сотового оператора.\nБольшая распределенная команда (~30 человек).\nНужно хорошо уметь тестировать вручную и, когда это выгодно, суметь автоматизировать.\n\n\nНаши пожелания к кандидатам:\n✔️Опыт работы с Java или любым другим высокоуровневым языком программирования на уровне, достаточном для самостоятельного написания игры \"Сапёр\"\n✔️Опыт работы в консоли linux на уровне, достаточном для для решения задач:\nпоиск и изменение строк в файле\nуправление системными процессами\n✔️Опыт взаимодействия с REST API на уровне, достаточном для того, чтобы получить из ВКонтакте имя и фамилию своего аккаунта, не используя браузер\n\nПлюсом будет:\n✔️Опыт работы с протоколом SOAP\n✔️Профессиональный опыт функционального тестирования\n✔️Опыт работы с JUnit, Gradle, Oracle\n\nУсловия:\n✔️\"Белая\" зарплата до 110K gross\n✔️ДМС\n✔️ Работа в удаленном режиме на данный момент, далее в уютном офисе.\n\nhttps://spb.hh.ru/vacancy/37540632\n\nМои контакты: @romanovaya iyliia.romanova@smddev.com","markup":[{"type":"hashtag","offset":0,"length":9,"data":"вакансия"},{"type":"hashtag","offset":10,"length":4,"data":"спб"},{"type":"hashtag","offset":15,"length":9,"data":"fulltime"},{"type":"hashtag","offset":25,"length":3,"data":"qa"},{"type":"hashtag","offset":29,"length":9,"data":"удаленно"},{"type":"link","offset":64,"length":10,"data":"http://smddev.com"},{"type":"link","offset":1077,"length":34,"data":"https://spb.hh.ru/vacancy/37540632"},{"type":"handle","offset":1127,"length":11,"data":"romanovaya"},{"type":"link","offset":1139,"length":26,"data":"mailto:iyliia.romanova@smddev.com"}],"date":"2020-06-17T11:29:10+00:00","link":"tg://resolve?domain=qa_jobs&post=0","tags":[{"name":"qa"},{"name":"java"},{"name":"linux"},{"name":"rest"},{"name":"soap"},{"name":"junit"},{"name":"gradle"},{"name":"oracle"}],"cities":[],"allowsRemote":true}}]}}},"context":{}}