{"hash":"f34fd2c444a074f4e0e67d525015a008ef8e766f","data":{"records":{"id":"kotlin","name":"kotlin","belongsTo":{"totalCount":22,"pageInfo":{"totalPages":3,"currentPage":3},"edges":[{"node":{"__typename":"Job","id":"1391460352-1001091028994","title":"Java разработчик","text":"#вакансия #java #javadeveloper #spring #kotlin\n\nГород и адрес офиса: Москва, Преображенская площадь\nФормат работы: в офисе\nЗанятость: фулл тайм\nЗарплатная вилка: 3000$ - 4000$/month\nНазвание компании: крупный банк\n\nРазрабатываем платформу мобильного и интернет-банка (дистанционный банкинг) на основе микросервисов в современном стеке технологий, которые мы выбираем сами. \n\nТЕХНОЛОГИЧЕСКИЙ СТЕК:\n ⁃ ЯП и фреймворки: Java 8/11, Kotlin (по желанию), Spring Boot, Apache Camel.\n ⁃ Хранилища и очереди: Redis, Apache Cassandra, Oracle 12, ActiveMQ, IBM WS MQ.\n ⁃ DevOps & CI: Apache Maven, Jenkins, GitLab, Docker + Kubernetes (внедряем сейчас).\n ⁃ Мониторинг: Elasticsearch, Logstash, Kibana, Sentry (внедряем сейчас), Zabbix.\n\nЧТО ВЫ БУДЕТ ДЕЛАТЬ:\n ⁃ Разрабатывать микросервисы платформы дистанционного банкинга.\n ⁃ Разрабатывать интеграцию мобильного приложения и веб- приложения с сервисами платформы и другими системами Банка.\n ⁃ Разрабатывать архитектурные схемы сервисов и выбирать технологии для решения новых и нетривиальных задач (вместе с архитектором и аналитиком).\n ⁃ Выполнять ревью кода, написанного другими разработчиками, и обучать начинающих разработчиков. \n\nЧТО ПРЕДЛАГАЕМ:\n ⁃ Удобный график работы (плавающее начало рабочего дня);\n ⁃ Комфортный офис класса «А» в 1-й минуте от метро (офис доступен 24/7; open-space, в котором сидят только команды разработки);\n ⁃ Привлекательная система оплаты труда - оклад + ежеквартальные премии + годовой бонус;\n ⁃ Работа в scrum-командах по 6-8 человек, 2-х недельные спринты, демократия и самоорганизация + наличие удаленного доступа;\n ⁃ Обучение внутреннее и внешнее, регулярно проходят митаппы. Мы посещаем ключевые отраслевые конференции;\n ⁃ Профессиональное развитие и карьерный рост;\n ⁃ ДМС и многочисленные скидки и бонусы от партнеров (от каршеринга до ипотеки).\nРезюме можно отправить на почту: a.dorogavtseva@gmail.com, @Dorogavtseva","markup":[{"type":"hashtag","offset":0,"length":9,"data":"вакансия"},{"type":"hashtag","offset":10,"length":5,"data":"java"},{"type":"hashtag","offset":16,"length":14,"data":"javadeveloper"},{"type":"hashtag","offset":31,"length":7,"data":"spring"},{"type":"hashtag","offset":39,"length":7,"data":"kotlin"},{"type":"link","offset":1859,"length":24,"data":"mailto:a.dorogavtseva@gmail.com"},{"type":"handle","offset":1885,"length":13,"data":"Dorogavtseva"}],"date":"2020-03-27T09:07:26+00:00","link":"tg://resolve?domain=jvmjobs&post=1327","tags":[{"name":"java"},{"name":"jvm"},{"name":"spring"},{"name":"kotlin"},{"name":"apache"},{"name":"redis"},{"name":"cassandra"},{"name":"oracle"},{"name":"maven"},{"name":"jenkins"},{"name":"gitlab"},{"name":"docker"},{"name":"kubernetes"},{"name":"elasticsearch"},{"name":"logstash"},{"name":"spring-boot"},{"name":"apache-camel"}],"cities":[{"code":"moscow"}],"allowsRemote":true}},{"node":{"__typename":"Job","id":"1935671296-1001134745498","title":"Devops инженер","text":"#вакансия #fulltime #офис #kotlin #android #питер\n\nВсем привет!\n\nИщем Инженера Android инфраструктуры в офис, в Питер.\n\nВилка: 150к - 200к руб (но можно обсуждать исходя из опыта)\n\nМы пролуктовая финтех компания. Наши партнеры — крупные торговые сети и банки страны: Спортмастер, X5 Retail Group, Adidas Group, О’КЕЙ, Альфа банк, МТС банк, Тинькофф банк и многие другие.\n\nМы ищем мобильного инженера в инфраструктурную часть core команды. Данная позиция подходит для специалиста с опытом в мобильном девопсе. Основная часть работы будет связана с тем, чтобы помогать остальной мобильной команде повышать автоматизацию, для ускорения скорости создания и тестирования новых фич. Дополнительно в работу будет входить всё что связано с мониторингом, автоматическими проверками и автоматизацией в целом. Ищем изначально любознательного человека, который на определенном этапе сможет помогать в сборе бэклога для инфраструктурной команде и активно предлагать идеи.\n\nЧем предстоит заниматься:\n\n- На первых этапах есть описанный бэклог требований, что необходимо реализовать для развития инфраструктуры - CI/CD, интеграций с JIRA/Slack, и т.д. В дальнейшем предстоит помогать формировать данный бэклог, помогая остальной команде и решая их запросы;\n- Создавать автоматические проверки и подключать системы мониторинга;\n- Создавать CI/CD и отвечать за инфраструктуру;\n- Улучшать время сборки и стабильность билдов;\n- Администрировать Google Developer Console + Firebase;\n- Автоматизировать ручные задачи.\n\nТребования:\n\n- Опыт работы Android разработчиком;\n- Опыт работы с Gradle;\n- Опыт работы с CI/CD такими как Jenkins/TeamCity/Bitrise/Gitlab;\n- Опыт работы с Fastlane;\n- Опыт работы и интеграции с системами контроля версий (у нас Gitlab);\n- Опыт публикации приложений. Опыт администрирования Google Developer Console + Firebase.\n\nБудет плюсом:\n\n- Опыт работы с Upsource - используется для code review;\n- Опыт работы с Docker;\n- Опыт интеграции таких тулзов как SonarQube;\n- Опыт работы над платформенными задачами или в core команде;\n- Опыт работы с UI тестами;\n- Опыт работы с *nix консолью использования и скриптовых языков.\n\nМы предлагаем:\n\n- Участие в развитии полезного и популярного приложения, возможность сделать мир лучше;\n- Оформление по ТК РФ с первого дня работы, конкурентная белая зарплата, ДМС;\n- Оплату мобильной связи, частичную компенсацию оплаты питания;\n- Гибкий график работы;\n- Помощь с переездом для кандидатов из других городов (welcome бонус);\n- Оплата профильных курсов и конференций;\n- Два раза в неделю в офисе занятия йогой;\n- Командные мероприятия и приятные коллеги;\n- Комфортный офис в центре города (5 минут от станции метро Чкаловская). \n\nВопросы и отклики: @Alex_Korm\n\n—\n\n👉 Обсуждение вакансии в чате @devops_jobs","markup":[{"type":"hashtag","offset":0,"length":9,"data":"вакансия"},{"type":"hashtag","offset":10,"length":9,"data":"fulltime"},{"type":"hashtag","offset":20,"length":5,"data":"офис"},{"type":"hashtag","offset":26,"length":7,"data":"kotlin"},{"type":"hashtag","offset":34,"length":8,"data":"android"},{"type":"hashtag","offset":43,"length":6,"data":"питер"},{"type":"handle","offset":2687,"length":10,"data":"Alex_Korm"},{"type":"handle","offset":2732,"length":12,"data":"devops_jobs"}],"date":"2020-03-24T11:27:13+00:00","link":"tg://resolve?domain=devops_jobs_feed&post=1846","tags":[{"name":"kotlin"},{"name":"android"},{"name":"firebase"},{"name":"gradle"},{"name":"jenkins"},{"name":"gitlab"},{"name":"docker"},{"name":"sonarqube"}],"cities":[],"allowsRemote":false}}]}}},"context":{}}