{"hash":"f34fd2c444a074f4e0e67d525015a008ef8e766f","data":{"records":{"id":"nginx","name":"nginx","belongsTo":{"totalCount":41,"pageInfo":{"totalPages":5,"currentPage":2},"edges":[{"node":{"__typename":"Job","id":"1414529024-1001091028994","title":"Java разработчик","text":"#senior #java #architect #москва \nГород: Москва\nФормат работы: офис\nЗанятость: Полная\nЗарплатная вилка: от 220 000 до 260 000\nКомпания «Performance Lab» — одна из лидирующих ИТ-компаний в России ищет в свою команду Архитектора Java на направление custom development. Нам нужен эксперт, которому интересно заниматься проектированием и разработкой, быть ответственным за результаты работы.\n❗️Обязанности:\n-Проводить анализ функциональных и нефункциональных требований заказчика совместно с группой аналитики.\n-Разрабатывать концепции, архитектурные решения и подходы к реализации.\n-Взаимодействовать с заказчиком, представлять и защищать свои архитектурные решения.\n-Быть лидером в проектной команде (планировать работу команды, проводить декомпозицию задач, отслеживать прогресс по выполнению задач, поддерживать рабочую атмосферу в команде).\n-Полностью отвечать за техническую составляющую и качество проекта.\n-Обеспечивать прозрачность и прогнозируемость работы проектной команды, отвечать за своевременный выпуск релизов.\n-Самому участвовать в разработке back-end’а, проводить code-review.\n-Принимать участие в согласовании и разработке технической документации.\n❗️Требования:\n-Обладает большим опытом backend-разработки на Java, уверенно владеет Java 8 и выше.\n-Отлично знает Spring (Core, Boot, MVC, JPA, Security) и Hibernate.\n-Отлично знает SQL и хотя бы одну реляционную СУБД.\n-Разбирается в технологиях: REST, gRPC, GraphQL, SOAP, XML, JSON, JWT, OAuth.\n-Имеет опыт разработки на микросервисной архитектуре, понимает ее плюсы и минусы, понимает как организовать взаимодействия микросервисов.\n-Работал с Apache Kafka, Rabbit MQ.\n-Уверенно владеет Git.\n-Уже управлял командой разработки от 3-х человек.\n-Может быть лидером в команде, вести за собой людей.\n❗️Будет плюсом:\n-Немного умеет в devops (построить CI/CD пайплайн, оптимизировать сборку docker-контейнеров, настроить nginx и тд).\n-Знает JavaScript и знаком с современными Frontend-фреймворками (если знаком с React, то совсем хорошо).\n-Умеет налаживать отношения с бизнес-заказчиками, умеет договариваться и искать компромиссы.\n❗️Условия:\n-Официальное трудоустройство по ТК, дополнительные выходные.\n-Белая зарплата.\n-Место работы: отличный офис на м. Парк победы, БЦ «Барклай плаза».\n 📩Контакты: @polinakokina","markup":[{"type":"hashtag","offset":0,"length":7,"data":"senior"},{"type":"hashtag","offset":8,"length":5,"data":"java"},{"type":"hashtag","offset":14,"length":10,"data":"architect"},{"type":"hashtag","offset":25,"length":7,"data":"москва"},{"type":"handle","offset":2262,"length":13,"data":"polinakokina"}],"date":"2020-04-02T14:38:38+00:00","link":"tg://resolve?domain=jvmjobs&post=1349","tags":[{"name":"java"},{"name":"jvm"},{"name":"spring"},{"name":"jpa"},{"name":"hibernate"},{"name":"sql"},{"name":"rest"},{"name":"graphql"},{"name":"soap"},{"name":"xml"},{"name":"json"},{"name":"jwt"},{"name":"oauth"},{"name":"apache"},{"name":"kafka"},{"name":"rabbitmq"},{"name":"git"},{"name":"docker"},{"name":"nginx"},{"name":"javascript"},{"name":"reactjs"}],"cities":[{"code":"moscow"}],"allowsRemote":false}},{"node":{"__typename":"Job","id":"1957691392-1001134745498","title":"Devops инженер","text":"#вакансия #devops #remote\n\nГород: #Новосибирск\nформат работы: #удаленка #remote\nзанятость: #проектная #fulltime\nзарплатная вилка: 700-1000 рублей в час\n\nОписание вакансии:\n\nДобрый день!\n\nМеня зовут Матвей, менеджер проектов в компании The Invaders. Мы занимаемся заказной веб и мобильной разработкой для компаний по всему миру. Основная специализация компании это разработка Web и Mobile проектов, кроме того, в портфеле нашей компании работа с  блокчейн проектами на различных платформах (Waves, Ethereum, EOS, Corda, Hyperledger и тд.)  Наша команда разработки находится в Новосибирске, но у нас так же, на удаленной основе, работают разработчики с разных мест Земного шара.\n\nВ данный момент мы ищем колегу DevOps, который поможет нам периодически настраивать, разворачивать сервера, улучшит нашу ситуацию с CI/CD, покажет путь лучшей жизни с контейнеризацией\n\nЧем предстоит заниматься:\n\n1. Формирование Docker-образов, CI/CD сценариев\n2. Управления контейнеризованными рабочими нагрузками и сервисами (Kubernetes)\n3. Решение сетевых вопросов организации серверов\n4. Решение вопросов хранения данных\n5. Мониторинг систем, сбор, визуализация и анализ логов\n6. Взаимодействие с командой разработчиков и совместное решение задач\n\nТехнические скиллы:\n\n1.  Умение работать с Ansible\n2.  Опыт администрирования баз данных (PostgreSQL, Redis)\n3.  Опыт работы в качестве Инженера DevOps\n\nТехнологический стек:\n\n- Непосредственное взаимодействие и окружение\n\n  - Gitlab CI/CD\n  - Docker\n  - Ansible\n  - Ubuntu\n  - PostgreSQL\n  - Redis\n  - Rabbitmq\n  - Python\n  - Django\n  - Celery\n  - Nginx\n\nТак же будет очень хорошо:\n\n- Увлекаешься программированием\n- Сможешь рассказать о ревалентном опыте работы\n\nНазвание компании: The Invaders\n\nКонтакты: hr@theinvaders.pro @matteslip\n\n—\n\n👉 Обсуждение вакансии в чате @devops_jobs","markup":[{"type":"hashtag","offset":0,"length":9,"data":"вакансия"},{"type":"hashtag","offset":10,"length":7,"data":"devops"},{"type":"hashtag","offset":18,"length":7,"data":"remote"},{"type":"hashtag","offset":34,"length":12,"data":"Новосибирск"},{"type":"hashtag","offset":62,"length":9,"data":"удаленка"},{"type":"hashtag","offset":72,"length":7,"data":"remote"},{"type":"hashtag","offset":91,"length":10,"data":"проектная"},{"type":"hashtag","offset":102,"length":9,"data":"fulltime"},{"type":"link","offset":1737,"length":18,"data":"mailto:hr@theinvaders.pro"},{"type":"handle","offset":1756,"length":10,"data":"matteslip"},{"type":"handle","offset":1801,"length":12,"data":"devops_jobs"}],"date":"2020-04-02T06:34:20+00:00","link":"tg://resolve?domain=devops_jobs_feed&post=1867","tags":[{"name":"web"},{"name":"mobile"},{"name":"docker"},{"name":"kubernetes"},{"name":"ansible"},{"name":"postgresql"},{"name":"redis"},{"name":"gitlab"},{"name":"ubuntu"},{"name":"rabbitmq"},{"name":"python"},{"name":"django"},{"name":"nginx"}],"cities":[{"code":"novosibirsk"}],"allowsRemote":true}},{"node":{"__typename":"Job","id":"1956642816-1001134745498","title":"Devops инженер","text":"#вакансия #DevOps\nМосква, м.Ботанический сад\nФормат работы: офис\nЗанятость: полная\nЗаработная плата: 180 000р. на руки - фиксированный оклад\nЧто делать:\n- Разработка и поддержка инфраструктуры для dev/test/prod (On-Cloud и On-Premise);\n- Разработка и поддержка процессов CI/CD;\n- Выбор технологий для реализации проектов;\n- Разработка и поддержка систем мониторинга, регистрации инцидентов и оповещения;\n- Организация бесперебойной работы всех сервисов (на всех уровнях: от инфраструктуры до разрабатываемого ПО);\n- Развертывание и поддержка общей инфраструктуры (nginx, haproxy, dns, iptables, ssh, sssd & etc).\nЧто нужно знать и уметь:\n- Экспертное понимание Linux (Ubuntu/CentOS7);\n- Знание скриптовых языков;\n- Опыт работы с технологиями виртуализации (VMware) и контейнеризации (Docker);\n- Опыт развёртывания и эксплуатации CI/CD (GitLab-CI, Jenkins);\n- Навыки работы и администрирования GitLab, Jira, Confluence;\n- Опыт внедрения и эксплуатации систем мониторинга и сбора метрик (ELK, Prometheus, Grafana, Sentry);\n- Опыт развёртывания и эксплуатации Redis, MySQL, RabbitMQ, HAProxy, nginx, PostgreSQL, php-fpm);\n- Интеграция Jenkins, Jira, GitLab. \nКомпания: АСНА (www.asna.ru)\nКонтакты: 8(965)194-28-96 (WhatsApp), @mil0lika (Telegram)\n\n—\n\n👉 Обсуждение вакансии в чате @devops_jobs","markup":[{"type":"hashtag","offset":0,"length":9,"data":"вакансия"},{"type":"hashtag","offset":10,"length":7,"data":"DevOps"},{"type":"link","offset":1172,"length":11,"data":"http://www.asna.ru"},{"type":"link","offset":1195,"length":15,"data":"tel:8(965)194-28-96"},{"type":"handle","offset":1223,"length":9,"data":"mil0lika"},{"type":"handle","offset":1278,"length":12,"data":"devops_jobs"}],"date":"2020-04-02T06:33:16+00:00","link":"tg://resolve?domain=devops_jobs_feed&post=1866","tags":[{"name":"cloud"},{"name":"nginx"},{"name":"dns"},{"name":"ssh"},{"name":"linux"},{"name":"ubuntu"},{"name":"centos"},{"name":"docker"},{"name":"gitlab"},{"name":"jenkins"},{"name":"redis"},{"name":"mysql"},{"name":"rabbitmq"},{"name":"postgresql"},{"name":"php"}],"cities":[{"code":"moscow"}],"allowsRemote":false}},{"node":{"__typename":"Job","id":"1951399936-1001134745498","title":"Devops инженер","text":"#вакансия #DevOps\nМосква, м.Ботанический сад\nФормат работы: офис\nЗанятость: полная\nЗаработная плата: 180 000р. на руки - фиксированный оклад\nЧто делать:\n- Разработка и поддержка инфраструктуры для dev/test/prod (On-Cloud и On-Premise);\n- Разработка и поддержка процессов CI/CD;\n- Выбор технологий для реализации проектов;\n- Разработка и поддержка систем мониторинга, регистрации инцидентов и оповещения;\n- Организация бесперебойной работы всех сервисов (на всех уровнях: от инфраструктуры до разрабатываемого ПО);\n- Развертывание и поддержка общей инфраструктуры (nginx, haproxy, dns, iptables, ssh, sssd & etc).\nЧто нужно знать и уметь:\n- Экспертное понимание Linux (Ubuntu/CentOS7);\n- Знание скриптовых языков;\n- Опыт работы с технологиями виртуализации (VMware) и контейнеризации (Docker);\n- Опыт развёртывания и эксплуатации CI/CD (GitLab-CI, Jenkins);\n- Навыки работы и администрирования GitLab, Jira, Confluence;\n- Опыт внедрения и эксплуатации систем мониторинга и сбора метрик (ELK, Prometheus, Grafana, Sentry);\n- Опыт развёртывания и эксплуатации Redis, MySQL, RabbitMQ, HAProxy, nginx, PostgreSQL, php-fpm);\n- Интеграция Jenkins, Jira, GitLab. \nКомпания: АСНА (www.asna.ru)\nКонтакты: 8(965)194-28-96 (WhatsApp), @mil0lika (Telegram)\n\n—\n\n👉 Обсуждение вакансии в чате @devops_jobs","markup":[{"type":"hashtag","offset":0,"length":9,"data":"вакансия"},{"type":"hashtag","offset":10,"length":7,"data":"DevOps"},{"type":"link","offset":1172,"length":11,"data":"http://www.asna.ru"},{"type":"link","offset":1195,"length":15,"data":"tel:8(965)194-28-96"},{"type":"handle","offset":1223,"length":9,"data":"mil0lika"},{"type":"handle","offset":1278,"length":12,"data":"devops_jobs"}],"date":"2020-04-01T13:22:09+00:00","link":"tg://resolve?domain=devops_jobs_feed&post=1861","tags":[{"name":"cloud"},{"name":"nginx"},{"name":"dns"},{"name":"ssh"},{"name":"linux"},{"name":"ubuntu"},{"name":"centos"},{"name":"docker"},{"name":"gitlab"},{"name":"jenkins"},{"name":"redis"},{"name":"mysql"},{"name":"rabbitmq"},{"name":"postgresql"},{"name":"php"}],"cities":[{"code":"moscow"}],"allowsRemote":false}},{"node":{"__typename":"Job","id":"24178065408-1001075660570","title":"Php разработчик","text":"#вакансия #PHP #backend #senior #middle #СПб #офис\n\nПозиция: Senior PHP Developer\nКомпания: Studyworld\nЛокация:  Санкт- Петербург\nФормат работы: #офис\nЗанятость: полная\nЗ/п:  от 120.000 \nКонтакт: @Escabaret\n\nStudyworld - EdTech компания, развивающая масштабные сервисы на российском и на зарубежном рынке.\nНаша команда - более 100 человек, 5 проектов, которые 7 лет помогают студентам по всему миру. Территория охвата наших проектов очень велика – США, Канада, Бразилия, Россия и страны СНГ.\nСейчас мы в поисках уверенного Senior разработчика с гибким мышлением, ценящего важность сроков и обратную связь, и который в перспективе станет лидом команды Studybay.\n\nStack: PHP7, PostgreSQL, Redis, Sphinx\n\nПервостепенные задачи:\n- Развитие одного из наших продуктов, проектирование и реализация новых фич - переписывание легаси частей проекта, написание тестов - оптимизация системы деплоя и совершенствование процессов разработки.\n\n Мы ждем от Вас:\n- Очень уверенные знание PHP;\n- Опыт работы с одним из фреймворков (Codeigniter, Laravel, Symfony) и сопутствующими инструментами (composer, phpunit, phpstan);\n- Опыт командной разработки, работа с ветками в git (master/test/feature);\n- Умение писать и оптимизировать SQL запросы, проектировать структуру БД. Мы используем PostgreSQL;\n- Можете настроить nginx + php-fpm, читать логи и не бояться консоли linux.\n\nМы предлагаем:\n- Официальное оформление согласно ТК РФ;\n- Care bonus - это ДМС после испытательного срока, оплата обучения, поездки на конференции и все интересующее Вас для личного развития.\n- Наш офис - двухэтажный open space в центре Петербурга c собственной террасой, велопарковкой на территории БЦ. Все необходимое в офисе для комфортной работы и время препровождения.\n\nВ сопроводительном письме или резюме прошу ссылку на GitHub с примерами кода.\nЯ готова ответить на все-все вопросы, рассказать подробнее. Спасибо, что прочли простыню!)\nКонтакт: @Escabaret","markup":[{"type":"hashtag","offset":0,"length":9,"data":"вакансия"},{"type":"hashtag","offset":10,"length":4,"data":"PHP"},{"type":"hashtag","offset":15,"length":8,"data":"backend"},{"type":"hashtag","offset":24,"length":7,"data":"senior"},{"type":"hashtag","offset":32,"length":7,"data":"middle"},{"type":"hashtag","offset":40,"length":4,"data":"СПб"},{"type":"hashtag","offset":45,"length":5,"data":"офис"},{"type":"hashtag","offset":145,"length":5,"data":"офис"},{"type":"handle","offset":196,"length":10,"data":"Escabaret"},{"type":"bold","offset":208,"length":10,"data":""},{"type":"bold","offset":662,"length":6,"data":""},{"type":"bold","offset":702,"length":21,"data":""},{"type":"bold","offset":929,"length":17,"data":""},{"type":"handle","offset":1911,"length":10,"data":"Escabaret"}],"date":"2020-03-31T07:00:02+00:00","link":"tg://resolve?domain=php_jobs&post=23058","tags":[{"name":"php"},{"name":"postgresql"},{"name":"redis"},{"name":"codeigniter"},{"name":"laravel"},{"name":"symfony"},{"name":"phpunit"},{"name":"git"},{"name":"sql"},{"name":"nginx"},{"name":"linux"},{"name":"github"}],"cities":[],"allowsRemote":false}},{"node":{"__typename":"Job","id":"1945108480-1001134745498","title":"Devops инженер","text":"#вакансия #devOps #hadoop \nПривет! Крупнейший медиа холдинг ищет крутого инженера DevOps! \n\nЛокация: Москва, м. Тульская или Сколково\nИщем сотрудника в офис на полный рабочий день.\nУсловия: зп от 220 000 до 250 000 (обсуждается на собеседовании), комфортабельный офис, ДМС и ВЗР после испытательного срока, дополнительные скидки на услуги партнеров\n\nПроект по консолидации данных активов холдинга и созданию DMP для профилирования аудитории\n\nОсновные задачи:\n• Установка, настройка, обновление программного обеспечения\n• Поддержание отказоустойчивости веб сервисов\n• Сопровождение процесса разработки, автоматизация релизов и тестирования.\n• Управление и поддержка тестового и продуктивного окружения\n• Настройка мониторинга и оповещения о событиях\n\nНаш стек: Hadoop, Spark, Kafka\n\nОжидаем от тебя:\n• Опыт работы в качестве Инженера DevOps по сопровождению систем распределенных вычислений на основе стека Hadoop+Kafka.\n• Оркестратор процессов – Airflow\n• Опыт настройки Nginx для высоконагруженных веб сервисов.\n• Опыт работы с Docker и Kubernetes, системами мониторинга Grafana+Prometheus или подобными\n• Опыт работы с Gitlab и системами CI/CD\n\nКомпания: Национальная медиа группа https://nm-g.ru/holding/\n\nГотова рассказать детали, я всегда на связи в telegram @AnnaSafarova\nТакже буду очень признательна за рекомендации \n\nВсем хорошего дня!\n\n—\n\n👉 Обсуждение вакансии в чате @devops_jobs","markup":[{"type":"hashtag","offset":0,"length":9,"data":"вакансия"},{"type":"hashtag","offset":10,"length":7,"data":"devOps"},{"type":"hashtag","offset":18,"length":7,"data":"hadoop"},{"type":"link","offset":1183,"length":24,"data":"https://nm-g.ru/holding/"},{"type":"handle","offset":1264,"length":13,"data":"AnnaSafarova"},{"type":"handle","offset":1379,"length":12,"data":"devops_jobs"}],"date":"2020-03-30T09:21:58+00:00","link":"tg://resolve?domain=devops_jobs_feed&post=1855","tags":[{"name":"hadoop"},{"name":"kafka"},{"name":"nginx"},{"name":"docker"},{"name":"kubernetes"},{"name":"gitlab"}],"cities":[{"code":"moscow"}],"allowsRemote":false}},{"node":{"__typename":"Job","id":"1943011328-1001134745498","title":"Devops инженер","text":"#вакансия #DevOps #Москва #ivi\n\nЛокация: Москва, ст. м. Дмитровская\nФормат работы: офис \nЗанятость: полная\nЗарплатная вилка: от 180 000 до 250 000 руб. на руки.\n\nМы — команда эксплуатации сервиса ivi .\n\nРазыскиваем коллегу в команду для участия в настойке процессов, технических (CI/CD) и в части взаимодействия с коллегами. Активное участие в разворачивании и эксплуатации k8s .Помогаем командам разработки строить CI/CD-пайплайны . Некоторые из нас это делают в составе кросс-команд, другие помогают многим командам, оставшиеся обеспечивают всех нас необходимыми приложениями и инфраструктурой.\n\nХраним код и разрабатываем pipeline-ы с помощью gitlab+artifactory .\nДля мониторинга серверов и сервисов используем zabbix и statsd , заправляем grafana.\nНаши сервисы написаны на python, golang и немного php и java.\nЛюбим и активно используем jenkins для решения самых разнообразных задач.\nИспользуем много open source (и не только) приложений: nginx, redis, postgresql, mongodb, rabbitmq, clickhouse, openstack, gitlab, kafka, hdfs, jira , opennebula.\n\nЧто предстоит делать: \n- развитие и настройки процессов ci/cd;\n- планирование и участие в рефакторинге процессов, инфраструктуры, приложений;\n- сопровождение сервисов от разработки до эксплуатации, участие в эксплуатации;\n- доработка текущих и разработка новых сценариев конфигурирования серверов и приложений; \n- администрирование приложений по результатам выполненной работы подготовка документации, если необходимо. \n\nКак узнать что ты нам подходишь? \n- положительный и продолжительный опыт работы с CI/CD-системами (у нас gitlab и jenkins);\n- умение хорошо готовить docker; \n- опыт программирования на скриптовых языках (shell, python);\nопыт администрирования linux и приложение 5+;\n- понимание сетевых технологий TCP/IP; \n- опыт работы с системами управления версиями (git) и конфигурациями. \n\nСо своей стороны мы обещаем: \n- Офис в 5 минутах ходьбы от м. \"Дмитровская\";\n- У нас гибкий график, мы начинаем до 11 часов дня;\n- Трудоустройство по ТК РФ;\n- ДМС + стоматология после прохождения испытательного срока;\n- Подписка на ivi;\n- Пакет релокации для соискателей со всей России.\n\nОнлайн-кинотеатр ivi \nhttps://www.ivi.tv/\n\nБуду рада рассказать подробности, пишите в личку @daria144 или на почту dsereda@ivi.ru\n\n—\n\n👉 Обсуждение вакансии в чате @devops_jobs","markup":[{"type":"hashtag","offset":0,"length":9,"data":"вакансия"},{"type":"hashtag","offset":10,"length":7,"data":"DevOps"},{"type":"hashtag","offset":18,"length":7,"data":"Москва"},{"type":"hashtag","offset":26,"length":4,"data":"ivi"},{"type":"link","offset":2161,"length":19,"data":"https://www.ivi.tv/"},{"type":"handle","offset":2231,"length":9,"data":"daria144"},{"type":"link","offset":2254,"length":14,"data":"mailto:dsereda@ivi.ru"},{"type":"handle","offset":2303,"length":12,"data":"devops_jobs"}],"date":"2020-03-27T09:21:44+00:00","link":"tg://resolve?domain=devops_jobs_feed&post=1853","tags":[{"name":"gitlab"},{"name":"python"},{"name":"go"},{"name":"php"},{"name":"java"},{"name":"jenkins"},{"name":"nginx"},{"name":"redis"},{"name":"postgresql"},{"name":"mongodb"},{"name":"rabbitmq"},{"name":"kafka"},{"name":"hdfs"},{"name":"docker"},{"name":"shell"},{"name":"linux"},{"name":"git"}],"cities":[{"code":"moscow"}],"allowsRemote":false}},{"node":{"__typename":"Job","id":"1940914176-1001134745498","title":"Devops инженер","text":"#вакансия #DevOps #fulltime \nСанкт-Петербург, м. Чкаловская\nОфис, полная занятость \nЗарплата от 150 000 до 200 000\nЧто предстоит делать:\n-Настройка и поддержание в работоспособном состоянии продуктовых бизнес систем\n-Работа с инфраструктурой в DigitalOcean, AWS\n-Автоматизация разворачивания сервисов\n-Миграция, а также поддержка проектов на Kubernetes\n-Интеграция новых сервисов в существующую инфраструктуру\n-Администрирование операционных систем: RHEL/CentOS, Ubuntu\nЧто нам нужно от Вас:\n-Обязателен production опыт эксплуатации кластера kubernetes\n-Опыт работы с Linux системами\n-Понимание работы сетевых протоколов\n-Docker\n-git\n-Написание и поддержка Ansible playbooks\n-CI/CD (мы используем Drone CI, CircleCI)\n-Знакомство с одним из языков: Go, Python, Bash\n-Знания хотя бы об одном из продуктов: nginx, haproxy, tomcat\n-Опыт работы с PostgreSQL/MySQL, MongoDB\n-Глубокое понимание Terraform\n-Amazon Web Services\n-Знакомство с Prometheus\nNice to have:\n-Базовые знания DigitalOcean\n-Опыт работы с Kafka, Redis\n-Знакомство с ElasticSearch\nКомпания Snowball Gaming https://www.linkedin.com/company/snowball-gaming/about/\nКонтакт: maria.yudina@snowball.dev, TG @maria_you\n\n—\n\n👉 Обсуждение вакансии в чате @devops_jobs","markup":[{"type":"hashtag","offset":0,"length":9,"data":"вакансия"},{"type":"hashtag","offset":10,"length":7,"data":"DevOps"},{"type":"hashtag","offset":18,"length":9,"data":"fulltime"},{"type":"link","offset":1068,"length":55,"data":"https://www.linkedin.com/company/snowball-gaming/about/"},{"type":"link","offset":1133,"length":25,"data":"mailto:maria.yudina@snowball.dev"},{"type":"handle","offset":1163,"length":10,"data":"maria_you"},{"type":"handle","offset":1208,"length":12,"data":"devops_jobs"}],"date":"2020-03-26T12:56:42+00:00","link":"tg://resolve?domain=devops_jobs_feed&post=1851","tags":[{"name":"amazon-web-services"},{"name":"kubernetes"},{"name":"centos"},{"name":"ubuntu"},{"name":"linux"},{"name":"docker"},{"name":"git"},{"name":"ansible"},{"name":"python"},{"name":"bash"},{"name":"nginx"},{"name":"tomcat"},{"name":"postgresql"},{"name":"mysql"},{"name":"mongodb"},{"name":"web"},{"name":"kafka"},{"name":"redis"},{"name":"elasticsearch"}],"cities":[{"code":"nice"}],"allowsRemote":false}},{"node":{"__typename":"Job","id":"1939865600-1001134745498","title":"Devops инженер","text":"#вакансия\n\nГород и адрес офиса: Москва, метро Парк Культуры\n\nФормат работы: формат офис, пока ситуация с короновирусом непонятная на удаленке\n\nЗанятость: полная\n\nЗарплатная вилка: от 120 до 150 на руки\n\nОписание вакансии: Чем предстоит заниматься\nуправление несколькими десятками Linux-серверов\nсистемная поддержка проектов компании\nцентрализованное хранение логов, автоматизированная их обработка\nперестройка, актуализация политик сетевого доступа, создание новых инструментов для их управления;\nУправление инцидентами, бэкапами, выдачей прав\nМы ожидаем, что у вас имеется\nтехнический бэкграунд в системном администрировании Linux и большей части сервисов, что перечислены ниже\nопыт создания и эксплуатации развитых сетевых конфигураций (/tcp/udp/vpn/nat/iptables/…)\nОсновные используемые технологии\nAnsible\nOpenVPN, IPsec, GRE, BGP\nBareos\nGraphite, Graphana, Moira\nOS Ubuntu\nELK\nMongoDB\nPostgresql\nNGINX\nAtlassian (JIRA, Confluence)\nGitlab\nDocker\nПлюсом будет\nопыт работы с Kanban\n\n\nНазвание компании: x5 Retail Group x5.ru\nКонтакты: natalya.shumshurova@gmail.com\n\n—\n\n👉 Обсуждение вакансии в чате @devops_jobs","markup":[{"type":"hashtag","offset":0,"length":9,"data":"вакансия"},{"type":"link","offset":1020,"length":5,"data":"http://x5.ru"},{"type":"link","offset":1036,"length":29,"data":"mailto:natalya.shumshurova@gmail.com"},{"type":"handle","offset":1100,"length":12,"data":"devops_jobs"}],"date":"2020-03-26T12:40:04+00:00","link":"tg://resolve?domain=devops_jobs_feed&post=1850","tags":[{"name":"linux"},{"name":"ansible"},{"name":"ubuntu"},{"name":"mongodb"},{"name":"postgresql"},{"name":"nginx"},{"name":"gitlab"},{"name":"docker"}],"cities":[{"code":"moscow"}],"allowsRemote":false}},{"node":{"__typename":"Job","id":"1934622720-1001134745498","title":"Devops инженер","text":"#вакансия #devOps\nПривет! Крупнейший медиа холдинг ищет крутого инженера DevOps! \nЛокация: Москва, м. Тульская или Сколково\nИщем сотрудника в офис на полный рабочий день.\nУсловия: зп от 170 000 до 200 000 (обсуждается на собеседовании), комфортабельный офис, ДМС и ВЗР после испытательного срока, дополнительные скидки на услуги партнеров\n\nПроект по консолидации данных активов холдинга и созданию DMP для профилирования аудитории\n\nОсновные задачи:\n• Установка, настройка, обновление программного обеспечения\n• Поддержание отказоустойчивости веб сервисов\n• Сопровождение процесса разработки, автоматизация релизов и тестирования.\n• Управление и поддержка тестового и продуктивного окружения\n• Настройка мониторинга и оповещения о событиях\n\nНаш стек: Hadoop, Spark, Kafka\n\nОжидаем от тебя:\n• Опыт работы в качестве Инженера DevOps по сопровождению систем распределенных вычислений на основе стека Hadoop+Kafka.\n• Оркестратор процессов – Airflow\n• Опыт настройки Nginx для высоконагруженных веб сервисов.\n• Опыт работы с Docker и Kubernetes, системами мониторинга Grafana+Prometheus или подобными\n• Опыт работы с Gitlab и системами CI/CD\n\nКомпания: Национальная медиа группа https://nm-g.ru/holding/\n\nГотова рассказать детали, я всегда на связи в telegram @AnnaSafarova\nТакже буду очень признательна за рекомендации \n\nВсем хорошего дня!\n\n—\n\n👉 Обсуждение вакансии в чате @devops_jobs","markup":[{"type":"hashtag","offset":0,"length":9,"data":"вакансия"},{"type":"hashtag","offset":10,"length":7,"data":"devOps"},{"type":"link","offset":1173,"length":24,"data":"https://nm-g.ru/holding/"},{"type":"handle","offset":1254,"length":13,"data":"AnnaSafarova"},{"type":"handle","offset":1369,"length":12,"data":"devops_jobs"}],"date":"2020-03-24T11:26:47+00:00","link":"tg://resolve?domain=devops_jobs_feed&post=1845","tags":[{"name":"hadoop"},{"name":"kafka"},{"name":"nginx"},{"name":"docker"},{"name":"kubernetes"},{"name":"gitlab"}],"cities":[{"code":"moscow"}],"allowsRemote":false}}]}}},"context":{}}