{"hash":"f5f6bf98bd95e769321482904cbbd488f77922fd","data":{"records":{"id":"git","name":"git","belongsTo":{"totalCount":273,"pageInfo":{"totalPages":28,"currentPage":22},"edges":[{"node":{"__typename":"Job","id":"71484571648-1001054966032","title":"Android разработчик","text":"#вакансия #iOS #android #developer #remote #InStat \n\nГород и адрес офиса: Москва, ст.м. Автозаводская\nФормат работы: удаленка\nЗанятость: полная/проектная\nЗарплатная вилка (обязательно): от 80 до 130 net\nОписание вакансии:\n\nВсем привет. Ищем разработчиков приложений для Apple TV и Android Box. Мы занимаемся сложными задачами, а также хотим разработать с нуля приложения, а у вас есть возможность поработать в спортивном стартапе и сделать лучшее приложение на рынке.\nЧто главное:\nОпыт разработки приложений Apple TV/Android box обязательно;\nОпыт по созданию продукта для просмотра видео-контента\nЗадачи:\nРазработка OTT приложения для Apple TV/Android box, анализ и оценка задач;\nпроведение code review, участие в SCRUM активностях\nТребования:\nXcode;опыт разработки нативных приложений на платформе iOS (swift) не менее 2-х лет, работа с GIT, Unit-test; знание основных паттернов проектирования, REST API; SOLID, GCD, MVP/MVVM, опыт разработки по Apple TV/Android box, знание Android Studio \nМы предлагаем:\nофициальное трудоустройство, полный соц. пакет;удаленное сотрудничество\nПодробнее о вакансиях тут: \nhttps://hh.ru/vacancy/37544424\nhttps://hh.ru/vacancy/37520710\n\nНазвание компании: InStat (https://instatsport.com/)\n\nКонтакты: yana.gurinovich@instatsport.com\n @Yana_Gurinovich","markup":[{"type":"hashtag","offset":0,"length":9,"data":"вакансия"},{"type":"hashtag","offset":10,"length":4,"data":"iOS"},{"type":"hashtag","offset":15,"length":8,"data":"android"},{"type":"hashtag","offset":24,"length":10,"data":"developer"},{"type":"hashtag","offset":35,"length":7,"data":"remote"},{"type":"hashtag","offset":43,"length":7,"data":"InStat"},{"type":"link","offset":1107,"length":30,"data":"https://hh.ru/vacancy/37544424"},{"type":"link","offset":1138,"length":30,"data":"https://hh.ru/vacancy/37520710"},{"type":"link","offset":1197,"length":24,"data":"https://instatsport.com/"},{"type":"link","offset":1234,"length":31,"data":"mailto:yana.gurinovich@instatsport.com"},{"type":"handle","offset":1267,"length":16,"data":"Yana_Gurinovich"}],"date":"2020-06-17T13:46:14+00:00","link":"tg://resolve?domain=mobile_jobs&post=0","tags":[{"name":"mobile"},{"name":"android"},{"name":"ios"},{"name":"dotnet"},{"name":"xcode"},{"name":"swift"},{"name":"git"},{"name":"rest"},{"name":"mvvm"},{"name":"android-studio"}],"cities":[{"code":"moscow"}],"allowsRemote":true}},{"node":{"__typename":"Job","id":"91047854080-1001067529236","title":"Python разработчик","text":"#вакансия #удаленка #remote #системныйаналитик \nВсем привет!\nВакансия: Python developer\nФормат работы: УДАЛЕННО\nЗАнятость: полная, гибкое начало дня\nЗаработная плата: до 120.000 на руки\n\n👾 Компания АК Барс Цифровые технологии находится в поиске Python разработчика на удаленный формат работы. Это современная продуктовая компания и команда крутых профессионалов, которые разрабатывают новейшие продукты в финтех индустрии. Сейчас они работают над совершенно новым масштабным проектом, основной задачей которого является трансформация архитектуры розничного бизнеса - продукта, которым пользуются абсолютно все. В компании чистый Agile - гибкие подходы и процессы, максимум свободы и инициативности. \n\n✅Требования: \nКоманды ищут специалиста с коммерческим опытом разработки на Python от 1,5 лет.\nОт вас ожидается отличное знание Python, SQL, Git и REST.\n\n🚀В свою очередь ребята предлагают отличные условия:\n🔹Официальное оформление, полностью белую З/П\n🔹Льготные условия кредитования\n🔹Молодой и дружный коллектив, гибкий график работы, комфортная и позитивная атмосфера \n🔹Участие в уникальных инновационных  проектах в команде настоящих профессионалов\n\n✅Контакты:\nLucky Hunter\nE-mail: maria.yurkanskaya@luckyhunter.io\nTelegram: @mashaselina\n\nПишите, буду рада рассказать подробнее о вакансии и ответить на вопросы😊","markup":[{"type":"hashtag","offset":0,"length":9,"data":"вакансия"},{"type":"hashtag","offset":10,"length":9,"data":"удаленка"},{"type":"hashtag","offset":20,"length":7,"data":"remote"},{"type":"hashtag","offset":28,"length":18,"data":"системныйаналитик"},{"type":"link","offset":1189,"length":32,"data":"mailto:maria.yurkanskaya@luckyhunter.io"},{"type":"handle","offset":1232,"length":12,"data":"mashaselina"}],"date":"2020-06-17T10:18:56+00:00","link":"tg://resolve?domain=python_jobs&post=0","tags":[{"name":"python"},{"name":"sql"},{"name":"git"},{"name":"rest"}],"cities":[],"allowsRemote":true}},{"node":{"__typename":"Job","id":"26368540672-1001075660570","title":"Php разработчик","text":"#вакансия #php #Москва #разработчик\nВакансия: Fullstack Developer\nЛокация: Москва\nКомпания: Bliss Finance\nФормат работы: офис/удаленная работа\nЗанятость: Full-time\nЗарплатная вилка: от 150 000 на руки (обсуждается)\n\n🚀 О проекте\n\nМы создаем финансовую платформу, объединяющую интернет-магазины с банками и даем возможность покупателям приобретать товары в рассрочку или кредит\n\n👨‍💻 Наш будущий коллега имеет\n\n- опыт работы с PHP от 3 лет\n- опыт работы с Phalcon\n- опыт проведния интеграций с финансовыми системами\n- опыт работы с HTML, JS, CSS \n- опыт работы с базами данных SQL на уровне сложных запросов (MySQL)\n- опыт работы с CircleCI, PHPUnit\n- опыт работы с GIT\n- опыт работы с REST, SOAP\n- опыт проведения code review\n- опыт проектирования и разработки архитектуры систем\n- понимает основы DevOps\n\n🍩 Условия\n\n- работа в офисе м. Калужская\n- стабильная зарплата\n- оформление по ТК РФ\n- гибкое начало рабочего дня\n- участие в конференциях\n- перспективы профессионального и карьерного роста\n\nКонтакт: @ave_mariy","markup":[{"type":"hashtag","offset":0,"length":9,"data":"вакансия"},{"type":"hashtag","offset":10,"length":4,"data":"php"},{"type":"hashtag","offset":15,"length":7,"data":"Москва"},{"type":"hashtag","offset":23,"length":12,"data":"разработчик"},{"type":"handle","offset":1008,"length":10,"data":"ave_mariy"}],"date":"2020-06-17T10:06:56+00:00","link":"tg://resolve?domain=php_jobs&post=25147","tags":[{"name":"php"},{"name":"html"},{"name":"css"},{"name":"sql"},{"name":"mysql"},{"name":"phpunit"},{"name":"git"},{"name":"rest"},{"name":"soap"}],"cities":[{"code":"moscow"}],"allowsRemote":true}},{"node":{"__typename":"Job","id":"1701838848-1001091028994","title":"Java developer","text":"#вакансия  #удаленка #Java #Spring #senior #middle #backend\nЛокация: #регион \nФормат работы: #fulltime #удаленка\nЗ/п: 80-160 NET\nВакансия: Java developer (senior,middle)\nКомпания: X5 Retail Group\nКонтакты: @CatProgramist\nТребования:\n- отличное понимание Java Core, Collections, Multithreading, transaction API\n- Spring\n- Hibernate, JDBC\n- SOAP\n- REST\n- Maven, Gradle\n- ActiveMQ\n- Git\n- *nix\nНаш целевой стек: Java 11+, Spring Boot, Spring Cloud, Netflix, PostgreSQL.  \nРаботаем в окружении CI/CD на GitLab, Apache Maven, Jira, Confluence (сейчас переписывают на этом стеке)\nСтарый стек проекта: Java 8, Spring Core, Spring Security, TBI (ORM), PostgreSQL, SQL, Jasper, Swing, XML, Jetty Embedded, Junit, Mockito, PowerMock, JBehave, maven, gradle, Jenkins, Gitlab, Sonar, REST, RMI, Git, CI/CD\nУсловия:\nУдаленка\nОфициальное трудоустройство и оформление полностью согласно ТК РФ\nДополнительная медицинская страховка (ДМС) – после испытательного срока","markup":[{"type":"hashtag","offset":0,"length":9,"data":"вакансия"},{"type":"hashtag","offset":11,"length":9,"data":"удаленка"},{"type":"hashtag","offset":21,"length":5,"data":"Java"},{"type":"hashtag","offset":27,"length":7,"data":"Spring"},{"type":"hashtag","offset":35,"length":7,"data":"senior"},{"type":"hashtag","offset":43,"length":7,"data":"middle"},{"type":"hashtag","offset":51,"length":8,"data":"backend"},{"type":"hashtag","offset":69,"length":7,"data":"регион"},{"type":"hashtag","offset":93,"length":9,"data":"fulltime"},{"type":"hashtag","offset":103,"length":9,"data":"удаленка"},{"type":"handle","offset":206,"length":14,"data":"CatProgramist"}],"date":"2020-06-17T08:02:57+00:00","link":"tg://resolve?domain=jvmjobs&post=1623","tags":[{"name":"java"},{"name":"jvm"},{"name":"spring"},{"name":"dotnet"},{"name":"hibernate"},{"name":"jdbc"},{"name":"soap"},{"name":"rest"},{"name":"maven"},{"name":"gradle"},{"name":"git"},{"name":"cloud"},{"name":"postgresql"},{"name":"gitlab"},{"name":"apache"},{"name":"orm"},{"name":"sql"},{"name":"swing"},{"name":"xml"},{"name":"jetty"},{"name":"junit"},{"name":"jenkins"},{"name":"spring-boot"},{"name":"spring-security"}],"cities":[],"allowsRemote":true}},{"node":{"__typename":"Job","id":"103006863360-1001089317451","title":"Qa инженер","text":"🐞🐞🐞#вакансия #QA #Ульяновск #Саранск #Казань #Самара #Уфа #Краснодар #офис #удаленная_работа\n\n🔍Middle QA-специалист🔎\n\n⚡️Компания: Simbirsoft (более 19 лет на рынке, более 700 сотрудников в штате)\n\nОчень ждем тебя, наш будущий коллега и борец за качественное ПО! :)\n\n📌Твои будущие задачи:\n• тестирование ПО (frontend, backend, API);\n• локализация и документирование найденных дефектов;\n• ведение и оптимизация тестовой документации;\n• контроль качества на всех этапах разработки ПО;\n• выстраивание и оптимизация процессов тестирования ПО.\n\n📌Что мы ждем от тебя:\n• наличие опыта от 2 лет в направлениях QA или тестирования ПО;\n• понимание разницы между QA и тестированием ПО;\n• понимание особенностей гибких методологий;\n• уверенное владение техниками тест-дизайна;\n• знание клиент-серверной архитектуры;\n• понимание особенностей тестирования web, mobile и desktop приложений;\n• навык тестирования API;\n• написание запросов SQL;\n• опыт работы с системами контроля версий (git);\n• знание основных команд работы с консолью (Windows/Linux).\n\n📌Что мы предлагаем:\n• Полностью белая ЗП два раза в месяц;\n• Оформление по ТК РФ;\n• Высокий уровень экспертности внутри компании, которым мы делимся друг с другом;\n• Перспективы вертикального и горизонтального роста;\n• Работа на российских и международных проектах;\n• Оборудованное рабочее место и парк тестовых устройств;\n• Подготовка и прохождение сертификации ISTQB бесплатно;\n• Внутренние и внешние курсы, доклады, конференции;\n• Бесплатные чай, кофе, печеньки в офисе;\n• Корпоративная спортивная программа (оплата тематических секций, частичная компенсация абонемента);\n• Проведение летних и зимних корпоративов, дня именинника, совместные походы и т.д.\n\n📌Зарплата:\n• от 50 000 (Договорная, по итогу собеседования)\n\n☎️Контакты: @nataly_max","markup":[{"type":"hashtag","offset":6,"length":9,"data":"вакансия"},{"type":"hashtag","offset":16,"length":3,"data":"QA"},{"type":"hashtag","offset":20,"length":10,"data":"Ульяновск"},{"type":"hashtag","offset":31,"length":8,"data":"Саранск"},{"type":"hashtag","offset":40,"length":7,"data":"Казань"},{"type":"hashtag","offset":48,"length":7,"data":"Самара"},{"type":"hashtag","offset":56,"length":4,"data":"Уфа"},{"type":"hashtag","offset":61,"length":10,"data":"Краснодар"},{"type":"hashtag","offset":72,"length":5,"data":"офис"},{"type":"hashtag","offset":78,"length":17,"data":"удаленная_работа"},{"type":"handle","offset":1779,"length":11,"data":"nataly_max"}],"date":"2020-06-17T05:07:15+00:00","link":"tg://resolve?domain=qa_jobs&post=0","tags":[{"name":"qa"},{"name":"web"},{"name":"mobile"},{"name":"sql"},{"name":"git"},{"name":"windows"},{"name":"linux"}],"cities":[{"code":"ulyanovsk"},{"code":"saransk"},{"code":"kazan"},{"code":"samara"},{"code":"ufa"},{"code":"krasnodar"}],"allowsRemote":true}},{"node":{"__typename":"Job","id":"91043659776-1001067529236","title":"Python разработчик","text":"#вакансия #БАРСГруп #Python #новосибирск #офис\n😊Всем привет! Ищем Python разработчиков в Новосибирский офис БАРС Груп. \nКоличество наших проектов увеличивается, мы рады принять в нашу команду новых сотрудников. \nЗП: до 110 \n\n📍 Мы используем в разработке: \n\nDjango и ExtJS для реализации Rich Internet Application; \nPython для широкого круга задач; \nContinuous Integration: Jenkins; \nSource control: git; \nTask tracking: Jira; \nИтерационный подход к выпуску релизов; \nТестирование: unittest, behave, selenium, etc; \nОС и IDE на выбор разработчика. \n\nПодробности можно уточнить в ЛС. https://bars.group","markup":[{"type":"hashtag","offset":0,"length":9,"data":"вакансия"},{"type":"hashtag","offset":10,"length":9,"data":"БАРСГруп"},{"type":"hashtag","offset":20,"length":7,"data":"Python"},{"type":"hashtag","offset":28,"length":12,"data":"новосибирск"},{"type":"hashtag","offset":41,"length":5,"data":"офис"},{"type":"link","offset":584,"length":18,"data":"https://bars.group"}],"date":"2020-06-17T05:04:21+00:00","link":"tg://resolve?domain=python_jobs&post=0","tags":[{"name":"python"},{"name":"django"},{"name":"extjs"},{"name":"jenkins"},{"name":"git"},{"name":"selenium"},{"name":"continuous-integration"}],"cities":[{"code":"novosibirsk"}],"allowsRemote":false}},{"node":{"__typename":"Job","id":"16992174080-1001110946746","title":"Js разработчик","text":"#вакансия #москва #react\n\nИщем Frontend-разработчика\n\nГород и адрес офиса: Москва, Волгоградский проспект 42к5\nФормат работы: офис либо удаленная работа\nЗанятость: полная\nЗарплатная вилка: от 160 000 рублей до 220 000 рублей на руки\n\nОписание вакансии: \nРазработка Web-версии приложения (платформа обучения с использованием стриминговых сервисов, сервисов распознавания речи, сервисов перевода);\nВыполнение задач по frontend разработке (через Jira);\nВерстка страниц дизайн-проекта (дизайн уже отрисован в Figma)\nТребования:\nХорошее знание JS;\nХорошее знание React;\nУмение писать структурированный и понятный код;\nХорошие знания HTML/CSS;\nУмение работать с GIT;\nОпыт разработки для вэба от 3 лет;\nХорошее знание ES6;\nЗнание адаптивной верстки;\nЗнание кроссбраузерной вёрстки;\nОпыт верстки по макетам;\nУмение работать в команде и коммуницировать.\n\nТехнологический стек проекта:\nБек: Golang;\nФронт: React.js;\nИнфраструктура: Docker, Jira, Github, Jenkins, инфраструктура на сервисах Amazon\n\nНазвание компании: Everytale (www.everytale.net)\nКонтактная информация: vm@everytale.net, 89267213115\n\n—\n\n👉 Обсуждение вакансии в чате @javascript_jobs","markup":[{"type":"hashtag","offset":0,"length":9,"data":"вакансия"},{"type":"hashtag","offset":10,"length":7,"data":"москва"},{"type":"hashtag","offset":18,"length":6,"data":"react"},{"type":"link","offset":1018,"length":17,"data":"http://www.everytale.net"},{"type":"link","offset":1060,"length":16,"data":"mailto:vm@everytale.net"},{"type":"link","offset":1078,"length":11,"data":"tel:89267213115"},{"type":"handle","offset":1124,"length":16,"data":"javascript_jobs"}],"date":"2020-06-16T19:46:41+00:00","link":"tg://resolve?domain=javascript_jobs_feed&post=0","tags":[{"name":"javascript"},{"name":"reactjs"},{"name":"web"},{"name":"html"},{"name":"css"},{"name":"git"},{"name":"go"},{"name":"docker"},{"name":"github"},{"name":"jenkins"},{"name":"dotnet"}],"cities":[{"code":"moscow"}],"allowsRemote":true}},{"node":{"__typename":"Job","id":"91038416896-1001067529236","title":"Python разработчик","text":"#вакансия #python #Казань\n\nНаш основной проект Матур:мастера маникюра. \n\nВаши задачи:\n• Участие в продуктовой разработке с высоким уровнем свободы и ответственности.\n• Изучение и реализация новых требований, анализ и устранение неисправностей в написанном коде.\n• Применение современных подходов и технологий разработки.\n\nТехнологии и требования:\n• ​​​​Знание Python (версии 3+)\n• Знание Python-фреймворков (DRF и Django)\n• Знание Channels под Django\n• Навыки построения REST API на Python\n• Опыт использования ORM\n• Умение работать с системой контроля версий (Git)\n• Опыт работы с Unix-образными системами\n• Опыт работы с базами (postgresql, redis)\n• Опыт работы с Docker, docker-compose\n\nУсловия:\n• Полная занятость; пн-пт; 8 часовой рабочий день. \n• Плавающее начало рабочего дня; возможность несколько раз в неделю работать из дома.\n• Современный и комфортный офис; Бесплатные обеды в офис.\n• Работа в небольшом и дружном коллективе, сплоченной команде профессионалов с отзывчивым руководство.\n• Профессиональное развитие с возможностью посещения ИТ конференций,семинаров, митапов.\n• Заработная плата от 60.000 рублей по результатам собеседования.\n\nПервый контакт: @rkrts","markup":[{"type":"hashtag","offset":0,"length":9,"data":"вакансия"},{"type":"hashtag","offset":10,"length":7,"data":"python"},{"type":"hashtag","offset":18,"length":7,"data":"Казань"},{"type":"bold","offset":73,"length":12,"data":""},{"type":"bold","offset":322,"length":24,"data":""},{"type":"bold","offset":690,"length":8,"data":""},{"type":"handle","offset":1169,"length":6,"data":"rkrts"}],"date":"2020-06-16T18:49:54+00:00","link":"tg://resolve?domain=python_jobs&post=0","tags":[{"name":"python"},{"name":"django"},{"name":"rest"},{"name":"orm"},{"name":"git"},{"name":"unix"},{"name":"postgresql"},{"name":"redis"},{"name":"docker"},{"name":"docker-compose"}],"cities":[{"code":"kazan"}],"allowsRemote":false}},{"node":{"__typename":"Job","id":"71425851392-1001054966032","title":"Android developer","text":"#вакансия #Juniorandroid #Android developer #kotlin #удаленно                                                                                                         Уровень дохода:💵 50 000-60 000  рублей net                                                                                                                                                                                 Требуемый опыт работы: от 1 года\nПолная занятость, дистанционно, гибкое начало рабочего дня\n \n📌Требования:\n- Нативная Android разработка (Kotlin)\n- Умение писать поддерживаемый и тестируемый код\n- Умение работать с Dagger 2\n- Умение работать с git\n- Желание развиваться и изучать новое в разработке\n- Опыт разработки приложений от 1 года\n -Знание английского языка от уровня Intermediate\n \n📌Будет плюсом:\n- Опыт работы с JNI\n- Опыт использования tensorflow\n- Опыт работы с аудио и видео\n\n📌Условия:\n- Отсутствие бюрократии\n- Время начала рабочего дня обговариваем индивидуально\n- Крутой инновационный проект - возможность самореализации и профессионального роста\n- Стабильное зарубежное финансирование\n- Десятки миллионов установок и множество глобальных партнёров\n📞Контакты @SvetikS_hr +7(963)-632-12-36 Cветлана","markup":[{"type":"hashtag","offset":0,"length":9,"data":"вакансия"},{"type":"hashtag","offset":10,"length":14,"data":"Juniorandroid"},{"type":"hashtag","offset":25,"length":8,"data":"Android"},{"type":"hashtag","offset":44,"length":7,"data":"kotlin"},{"type":"hashtag","offset":52,"length":9,"data":"удаленно"},{"type":"link","offset":184,"length":13,"data":"tel:50 000-60 000"},{"type":"handle","offset":1164,"length":11,"data":"SvetikS_hr"},{"type":"link","offset":1176,"length":17,"data":"tel:+7(963)-632-12-36"}],"date":"2020-06-16T18:45:45+00:00","link":"tg://resolve?domain=mobile_jobs&post=0","tags":[{"name":"mobile"},{"name":"android"},{"name":"kotlin"},{"name":"dotnet"},{"name":"git"},{"name":"tensorflow"}],"cities":[],"allowsRemote":true}},{"node":{"__typename":"Job","id":"71420608512-1001054966032","title":"Ios разработчик","text":"#вакансия #iOS #москва\n\nНа проект от крупного российского банка требуется Middle iOS разработчик\n\nФормат: офис\n\nВилка ЗП: 150-180К\n\nЛокация: Москва\n\nТребования:\nОпыт разработки под IOS (Objective-C или Swift) от 2 лет\nУверенное знание iOS SDK, Xcode\nОпыт использования одной из архитектур: MVP, MVVM, VIPER\nЗнание особенностей: Collections, Optionals, Protocol Oriented, Generics\nПонимание, как происходит управление памятью в iOS\nПонимание принципов проектирования SOLID и желание придерживаться их\nНаличие опыта работы с REST API, HTTP, JSON, APNs\nОпыт работы с Git, знание git flow\nЖелательно уметь писать UI тесты\nЖелателен опыт в команде\n\nКонтакт: @mxm_at","markup":[{"type":"hashtag","offset":0,"length":9,"data":"вакансия"},{"type":"hashtag","offset":10,"length":4,"data":"iOS"},{"type":"hashtag","offset":15,"length":7,"data":"москва"},{"type":"handle","offset":653,"length":7,"data":"mxm_at"}],"date":"2020-06-16T17:18:18+00:00","link":"tg://resolve?domain=mobile_jobs&post=0","tags":[{"name":"mobile"},{"name":"ios"},{"name":"objective-c"},{"name":"swift"},{"name":"xcode"},{"name":"mvvm"},{"name":"rest"},{"name":"json"},{"name":"git"}],"cities":[{"code":"moscow"}],"allowsRemote":false}}]}}},"context":{}}