{"hash":"f5f6bf98bd95e769321482904cbbd488f77922fd","data":{"records":{"id":"gitlab","name":"gitlab","belongsTo":{"totalCount":68,"pageInfo":{"totalPages":7,"currentPage":3},"edges":[{"node":{"__typename":"Job","id":"1756364800-1001091028994","title":"Java разработчик","text":"#java#fulltime \nЛокация: #Москва ст.м.Петровско-Разумовская, мцк/мжд Окружная \nФормат работы: 5/2 с гибким началом дня, 1 день в неделю можно работать удаленно,остальные в офисе #fulltime  \nЗ/п:  300-400 000 руб. gross (опыт от 5 лет) \nКомпания: ПАО «Детский Мир» \nОснования появления: Расширяем команду, много новых задач. Если ты устал/а от бюрократии и не стабильности- приходи в нашу команду! \nКрупнейший ритейлер на рынке детских товаров (до 130000 заказов в сутки, более 30 000 одновременных пользователей на сайте, 2000-3000 rps на базовые сервисы) ищет Java разработчика для разработки бэкенда в сфере e-commerce. \n \n  Что мы используем : \nJava 14/Scala 2.13, Spring, SpringBoot , Sbt/Maven, MySQL, Kafka, JUnit, Jenkins, GitLab, Docker, Kubernetes, Jira/Confluence, Scrum, Kanban \n \n   Что нужно делать? \n⁃    Писать качественный код для распределенной системы, стек: Java 14/Kafka/Redis/Solr/MySQL \n⁃    Проводить code review кода коллег по команде \n⁃    Разбираться в сложных вопросах интеграции со смежными системами \n⁃    Участвовать в создании архитектурных решений и проектировании высоконагруженных отказоустойчивых систем \n \n    Наши ожидания: \n• Хорошие знания J2SE, в частности - Java Concurrency, Collections \n• Опыт работы с Spring \n• Опыт работы и проектирования REST API \n• Знания SQL и оптимизации запросов \n• Понимание принципов работы сетей: TCP/IP, HTTP, Websockets, etc. \n• Владение git \n• Базовое знание архитектурных паттернов и типичных вариантов решения проблем с производительностью \n \n    Желательно: \n• Базовые знания Docker/Kubernetes \n• Опыт разработки распределенных систем \n• Опыт работы c lucene (Apache Solr, ElasticSearch, Kibana) \n \nМы предлагаем: \n• Официальное оформление в соответствии с ТК РФ в том числе возможно онлайн оформление (или оффлайн в офисе) \n• Отсутствие бюрократии и плоская организационная структура \n• Лояльный бизнес, постоянные коммуникации, возможность на равных обсуждать бизнес-фичи на стадии формирования \n• Хорошая техническая оснащенность: MacBook pro 2019, 27 дюймовые мониторы(4к/5к) \n• до 20% скидка на продукцию компании, расширенный полис ДМС \n• Внешнее обучение, оплата участия в конференциях(JPoint, Highload, Joker etc) \n• Годовые бонусы по итогам работы, ежегодная индексация дохода \n \nСейчас пока работаем частично удаленно, 2 интервью в формате скайпа, не выходя из дома (в офис ехать не обязательно). По любым вопросам отвечу в:  \ntelegram:  @HR_aleshina почта: EAleshina@detmir.ru","markup":[{"type":"hashtag","offset":25,"length":7,"data":"Москва"},{"type":"hashtag","offset":178,"length":9,"data":"fulltime"},{"type":"handle","offset":2425,"length":12,"data":"HR_aleshina"},{"type":"link","offset":2445,"length":19,"data":"mailto:EAleshina@detmir.ru"}],"date":"2020-06-29T09:43:28+00:00","link":"tg://resolve?domain=jvmjobs&post=1675","tags":[{"name":"java"},{"name":"jvm"},{"name":"scala"},{"name":"spring"},{"name":"sbt"},{"name":"maven"},{"name":"mysql"},{"name":"kafka"},{"name":"junit"},{"name":"jenkins"},{"name":"gitlab"},{"name":"docker"},{"name":"kubernetes"},{"name":"redis"},{"name":"solr"},{"name":"rest"},{"name":"sql"},{"name":"git"},{"name":"lucene"},{"name":"apache"},{"name":"elasticsearch"}],"cities":[{"code":"moscow"}],"allowsRemote":true}},{"node":{"__typename":"Job","id":"357564416-1001352129329","title":"Golang разработчик","text":"#вакансия #golang #fulltime #office #junior #middle\n\nДобрый день.\nВакансия: Golang разработчик \nУровень: джун->мидл\nЗанятость: полная\nФормат работы: офис\nМесто работы: Москва, м. Сухаревская\nКомпания:  pharmaspace.ru\nПродукт: маркетплейс фармакологической тематики .\nЗП: от 130 000 до 150 000 net.\nОформление по ТК РФ\n\nМикросервисная архитектура.\n\nСтек\nGolang, NodeJS, Redis, RabbitMQ, ElasticSearch, MongoDB, ClickHouse, GitLab, Docker, Kubernetes, React\n\nЧто мы ждём от вас\n- опыт работы с GoLang \n- опыт работы с MongoDB\n- умеете пользоваться Git\n\nКонтакт: @irarudakova","markup":[{"type":"hashtag","offset":0,"length":9,"data":"вакансия"},{"type":"hashtag","offset":10,"length":7,"data":"golang"},{"type":"hashtag","offset":18,"length":9,"data":"fulltime"},{"type":"hashtag","offset":28,"length":7,"data":"office"},{"type":"hashtag","offset":36,"length":7,"data":"junior"},{"type":"hashtag","offset":44,"length":7,"data":"middle"},{"type":"link","offset":202,"length":14,"data":"http://pharmaspace.ru"},{"type":"handle","offset":560,"length":12,"data":"irarudakova"}],"date":"2020-06-29T09:00:25+00:00","link":"tg://resolve?domain=gogetajobfeed&post=341","tags":[{"name":"go"},{"name":"dotnet"},{"name":"nodejs"},{"name":"redis"},{"name":"rabbitmq"},{"name":"elasticsearch"},{"name":"mongodb"},{"name":"gitlab"},{"name":"docker"},{"name":"kubernetes"},{"name":"reactjs"},{"name":"git"}],"cities":[{"code":"moscow"}],"allowsRemote":false}},{"node":{"__typename":"Job","id":"103928561664-1001089317451","title":"Qa инженер","text":"#вакансия #homeoffice #upper-intermediate\nЗ\\п 2500-3500$ в месяц(по результатам собеседования)\nФорма занятости – фулл тайм, home-office\nТребования:\n- английский не ниже upper-intermediate, всё общение на английском\n- умение использовать GitLab (артефакты, логи сборок, логи прогона тестов и т.п., ci\\cd настроен)\n- уверенные знания JS (обязательное требование)\n- тестирование api и функционала\n- end to end tests на headless Chrome\n- Demonstrate ability to automate test plan using Webdriver.io\n\nhome-office\nтолько иностранные заказчики\nконтакты \nvladimir.revutsky@so-services.com\nкомпания s-o-services\n@erzentd","markup":[{"type":"hashtag","offset":0,"length":9,"data":"вакансия"},{"type":"hashtag","offset":10,"length":11,"data":"homeoffice"},{"type":"hashtag","offset":22,"length":6,"data":"upper"},{"type":"link","offset":482,"length":12,"data":"http://Webdriver.io"},{"type":"link","offset":547,"length":33,"data":"mailto:vladimir.revutsky@so-services.com"},{"type":"handle","offset":603,"length":8,"data":"erzentd"}],"date":"2020-06-28T16:51:04+00:00","link":"tg://resolve?domain=qa_jobs&post=99114","tags":[{"name":"qa"},{"name":"gitlab"}],"cities":[{"code":"vladimir"}],"allowsRemote":false}},{"node":{"__typename":"Job","id":"1744830464-1001091028994","title":"Java разработчик","text":"#москва #вакансия #java #javateamlead \nВакансия: Lead/Senior java разработчик \nВилка заработной платы: 180 000 – 250 000 net\nФормат: офис\n\nПроекты по созданию/развитию информационных систем в части цифровизации городских сервисов ЖКХ.\nРабота с IoT-системами, проекты по Bigdata, сбору и анализу данных с множества источников.\n\n🔸Мы предлагаем:\n-Высокая заработная плата от 180 000 до 250 000 на руки;\n-Повышение ставки после испытательного срока;\n-13-я зарплата+премии по итогу выполнения проектов;\n-Полностью официальное оформление по ТК РФ;\n\n🔸Требования:\n-Опыт управления командой 6+ человек от 1-го года;\n-Базовые знания Computer Science (алгоритмы, структуры данных);\n-Опыт разработки серверной части приложений на Java;\n-Знание практик и инструментария DevOps;\n-Отличное знание Java 8+ и популярных библиотек (Log4J, Apache Commons, Google Guava);\n-Знание Linux, основы Shell scripts, понимание архитектуры ОС.\n\n🔸Стек технологий:\n-На проектах используются языки: Java, JavaScript(React + Redux);\n-Java-стэк: Java8, Spring, Spring Cloud, Apache Kafka, Apache Spark, Tomcat;\n-Docker, Postgres, HDFS, Apache Hive;\n-Gitlab, Telegram.\n\nКонтакт: @Zarnica_hr","markup":[{"type":"hashtag","offset":0,"length":7,"data":"москва"},{"type":"hashtag","offset":8,"length":9,"data":"вакансия"},{"type":"hashtag","offset":18,"length":5,"data":"java"},{"type":"hashtag","offset":24,"length":13,"data":"javateamlead"},{"type":"handle","offset":1147,"length":11,"data":"Zarnica_hr"}],"date":"2020-06-26T12:01:03+00:00","link":"tg://resolve?domain=jvmjobs&post=1664","tags":[{"name":"java"},{"name":"jvm"},{"name":"dotnet"},{"name":"apache"},{"name":"linux"},{"name":"shell"},{"name":"javascript"},{"name":"reactjs"},{"name":"redux"},{"name":"spring"},{"name":"cloud"},{"name":"kafka"},{"name":"tomcat"},{"name":"docker"},{"name":"postgresql"},{"name":"hdfs"},{"name":"hive"},{"name":"gitlab"},{"name":"react-redux"},{"name":"apache-spark"}],"cities":[{"code":"moscow"}],"allowsRemote":false}},{"node":{"__typename":"Job","id":"17163091968-1001110946746","title":"Js разработчик","text":"#вакансия #удаленно #fullstack #JavaScript #NodeJS #Vue #middle #junior\n\nГород: г. Москва, Сколково, б-р Большой\nФорма работы: удаленка\nЗанятость: полная\nЗарплатная вилка: от 80000 до 120000 рублей\nНазвание компании: ADMON\n\nВ связи с расширением штата, компания ADMON приглашает Junior+/Middle Full-stack JavaScript-разработчиков, готовых стать полноценными членами нашей команды на удаленной основе. ADMON – одна из ведущих российских компаний по предотвращению и расследованию мошенничества в сфере рекламы в Интернете и на мобильных устройствах с использованием высоких технологий, являемся резидентами Сколково. Основные направления деятельности компании: мониторинг и предотвращение мошенничества, аудит рекламных кампаний, разработка инновационных программных продуктов по мониторингу, обнаружению и предотвращению возникающих видов мошенничества.\n\nСтек технологий:\nNode.JS, Vue, GraphQl, Jest, Redis, Clickhouse, PostgreSQL, Docker.\n\nЧто используем в работе:\n    ✔️ Jira (Kanban), Confluence;\n   ✔️Храним код в Gitlab, тут же CI/CD;\n    ✔️Практикуем code review, политику частых релизов, гибкие методологии разработки;\n    ✔️Мониторим состояние приложений с помощью: Zabbix, Grafana.\n\nВ задачи будет входить:\n    🔸 Улучшать имеющийся функционал и разрабатывать новый (Система нотификаций, Обработка платежей, Алгоритмы атрибуции, Ads Crawler и т.д.);\n    🔸Писать тесты и рефакторить кодовую базу;\n    🔸Участвовать в принятии архитектурных решений;\n    🔸 Работать как в составе команды, так и в одного над небольшими проектами;\n   🔸Участвовать в коммуникации с командой;\n    🔸Быть инициативным и предлагать свои идеи, в том числе, если это касается использования новых технологий — проводить code review.\n\nЧто мы предлагаем:\n    🚀 Удаленная работа;\n    🚀 Оформление по ТК РФ;\n    🚀 Полностью белая ЗП;\n    🚀График работы 5/2;\n    🚀 Можно выбрать свой график работы;\n    🚀Наставничество по предметной области и на равной позиции;\n    🚀 Возможность работать как в составе команды, так и возглавить со временем свое направление — мы готовы обсуждать любые ваши идеи. \n\n Контакты:@juliajudina2810\n Резюме можно присылать на почту: hr@resurs-hr.ru\n\n—\n\n👉 Обсуждение вакансии в чате @javascript_jobs","markup":[{"type":"hashtag","offset":0,"length":9,"data":"вакансия"},{"type":"hashtag","offset":10,"length":9,"data":"удаленно"},{"type":"hashtag","offset":20,"length":10,"data":"fullstack"},{"type":"hashtag","offset":31,"length":11,"data":"JavaScript"},{"type":"hashtag","offset":43,"length":7,"data":"NodeJS"},{"type":"hashtag","offset":51,"length":4,"data":"Vue"},{"type":"hashtag","offset":56,"length":7,"data":"middle"},{"type":"hashtag","offset":64,"length":7,"data":"junior"},{"type":"handle","offset":2104,"length":16,"data":"juliajudina2810"},{"type":"link","offset":2155,"length":15,"data":"mailto:hr@resurs-hr.ru"},{"type":"handle","offset":2205,"length":16,"data":"javascript_jobs"}],"date":"2020-06-26T07:25:28+00:00","link":"tg://resolve?domain=javascript_jobs_feed&post=16368","tags":[{"name":"javascript"},{"name":"nodejs"},{"name":"vuejs"},{"name":"graphql"},{"name":"redis"},{"name":"postgresql"},{"name":"docker"},{"name":"gitlab"}],"cities":[{"code":"moscow"}],"allowsRemote":true}},{"node":{"__typename":"Job","id":"17155751936-1001110946746","title":"Js developer","text":"#вакансия #удаленка #React #Frontend\n\nГород: Москва Emirex\nФормат работы: удаленка\nЗанятость: полная\nЗарплатная вилка:  от 80k  до 150к рублей\n\n👉Ближневосточная биржа Emirex ищет React Developer👈\n\n⚡️О компании:\nEmirex Group объединяет сообщество эмитентов и трейдеров со всей Африки, Азии и Европы и предоставляет им доступ к богатству Ближнего Востока, используя современные технологии (токен EMRX входит в ТОП-300 CMC)\n\nТребуемый опыт работы: от 3–ех лет\nПолная занятость, удаленная работа\n\nЧто для это нужно уметь:\n– знания и опыт работы с React.js, Javascript (ES6+),Typescript, HTML5, CSS3;\n– знание redux, redux saga, next.js (edited);\n– знание принципов ООП, шаблонов проектирования;\n– умение писать понятный и логичный код;\n– опыт работы с системами контроля версий (Git) и багтрекинг системами. Опыт работы с системами непрерывной интеграции (Gitlab CI);\n– ВАЖНО! амбициозность, порядочность, внимательность, аккуратность, умение четко и ясно излагать свои мысли.\n\nКруто, если вы:\n– знаете системы сборок (Gulp, Webpack);\n– имеете опыт разработки коммерческих проектов;\n– есть желание осваивать новые технологии, совершенствовать свои профессиональные навыки;\n– есть опыт разработки серверной стороны Web-приложения.\n\n📱Контакты: \nПрисылайте резюме на: recruiting@emirex.com\nTelegram: @AndreNaumov\n\n—\n\n👉 Обсуждение вакансии в чате @javascript_jobs","markup":[{"type":"hashtag","offset":0,"length":9,"data":"вакансия"},{"type":"hashtag","offset":10,"length":9,"data":"удаленка"},{"type":"hashtag","offset":20,"length":6,"data":"React"},{"type":"hashtag","offset":27,"length":9,"data":"Frontend"},{"type":"link","offset":1264,"length":21,"data":"mailto:recruiting@emirex.com"},{"type":"handle","offset":1296,"length":12,"data":"AndreNaumov"},{"type":"handle","offset":1343,"length":16,"data":"javascript_jobs"}],"date":"2020-06-25T17:58:55+00:00","link":"tg://resolve?domain=javascript_jobs_feed&post=16361","tags":[{"name":"javascript"},{"name":"reactjs"},{"name":"typescript"},{"name":"html"},{"name":"css"},{"name":"redux"},{"name":"git"},{"name":"gitlab"},{"name":"gulp"},{"name":"webpack"},{"name":"web"}],"cities":[{"code":"moscow"}],"allowsRemote":true}},{"node":{"__typename":"Job","id":"103721992192-1001089317451","title":"Qa инженер","text":"#офис #Москва #вакансия #QA #fulltime  #тестировщик #Middle #ручное тестирование\n\nКомпания ООО Rondem (IT-интегратор) специализируется на построении систем управления IT, разработке и тестированию ПО. Нашими клиентами являются крупные банки и системные интеграторы, для которых мы ведем десятки проектов.\n\n❗Мы ищем инженера по функциональному тестированию (Middle) для крупного Московского банка \n\n      Требования:\n• Ручное тестирование · CSS · HTML · XML · Restful api · SQL;\n• Опыт работы тестировщиком;  \n• Опыт написания тест кейсов по технической документации;  \n• Знание жизненного цикла программного обеспечения и теории тестирования;  \n• Знание и опыт работы с системами баг трекинга Atlassian JIRA, HP ALM и пр.;\n• Знание программ SOAP UI, MS SQL, POSTMAN, GitLab как +;  \n• SQL (простые запросы);  \n• Начальные знания Java.\n\nОбязанности:\n• Выполнение различных видов тестирования (функциональное, регрессионное, интеграционное);\n• Обнаружение, регистрация и отслеживание дефектов в bug-tracking системе;\n• Разработка тест-кейсов, чек-листов, тест-дизайнов;\n• Отчетность по результату тестирования;\n• Взаимодействие с разработчиками, аналитиками.\n\n▪️Условия:\nУДАЛЕННЫЙ ГРАФИК НЕ РАССМАТРИВАЕТСЯ!\n• Работа в офисе м.Бауманская г. Москва\n• ДМС\n• График работы по согласованию с Заказчиком и командой\n• Работа в дружном коллективе единомышленников\n• Оформление по ТК РФ\n• Зп: до 140 к (обсуждается по результатам собеседования)\n\n\n▪️Резюме 📩 kudrina@rondem.ru или в лс.","markup":[{"type":"hashtag","offset":0,"length":5,"data":"офис"},{"type":"hashtag","offset":6,"length":7,"data":"Москва"},{"type":"hashtag","offset":14,"length":9,"data":"вакансия"},{"type":"hashtag","offset":24,"length":3,"data":"QA"},{"type":"hashtag","offset":28,"length":9,"data":"fulltime"},{"type":"hashtag","offset":39,"length":12,"data":"тестировщик"},{"type":"hashtag","offset":52,"length":7,"data":"Middle"},{"type":"hashtag","offset":60,"length":7,"data":"ручное"},{"type":"link","offset":1449,"length":17,"data":"mailto:kudrina@rondem.ru"}],"date":"2020-06-25T13:52:39+00:00","link":"tg://resolve?domain=qa_jobs&post=98917","tags":[{"name":"qa"},{"name":"css"},{"name":"html"},{"name":"xml"},{"name":"sql"},{"name":"soap"},{"name":"gitlab"},{"name":"java"}],"cities":[{"code":"moscow"}],"allowsRemote":false}},{"node":{"__typename":"Job","id":"2254438400-1001134745498","title":"Devops инженер","text":"Инженер DevOps \n#вакансия #Москва #Сколково #DevOps \n\nКомпания: Farzoom (финтех стартап 2016 года, резидент Сколково) \nЛокация: Москва, МЦД Сколково \nФормат работы: частично удаленный формат  \nЗанятость: Полная  \n💰Зарплатная вилка: от 180т.р до 230т.р net, премии \n\nПроект по разработке облачной фронтальной системы для банковского сектора.  \n\nЧто мы используем: микросервисная архитектура, Java 8, Spring Boot, Camunda BPM, Gitlab, Jenkins, Ansible, Docker Swarm, OpenStack, Nexus. Везде стоит Linux CentOS. \n \nСейчас идет переход на стек: Kubernetes, Coreos, Terraform, Podman. \n \n🎯 Что предстоит делать: \nПоддержка инфраструктуры в облаке (порядка 60 серверов/виртуалок) \nРазворачивание новых контуров \nСборка сервисов \nПоддержка CI/CD (в том числе настройка пайплайнов) \nИнтеграция контура и помощь в поддержке решения \n \n🎯  Мы предлагаем: \nОформление по ТК РФ с первого рабочего дня \nЕжегодные премии \nОфис рядом с МЦД Сколково, возможность часть времени работать удаленно \n\n👉 Контакты: @edzyuba\n\n—\n\n👉 Обсуждение вакансии в чате @devops_jobs","markup":[{"type":"hashtag","offset":16,"length":9,"data":"вакансия"},{"type":"hashtag","offset":26,"length":7,"data":"Москва"},{"type":"hashtag","offset":34,"length":9,"data":"Сколково"},{"type":"hashtag","offset":44,"length":7,"data":"DevOps"},{"type":"handle","offset":996,"length":8,"data":"edzyuba"},{"type":"handle","offset":1039,"length":12,"data":"devops_jobs"}],"date":"2020-06-25T07:28:33+00:00","link":"tg://resolve?domain=devops_jobs_feed&post=2150","tags":[{"name":"dotnet"},{"name":"java"},{"name":"spring"},{"name":"gitlab"},{"name":"jenkins"},{"name":"ansible"},{"name":"docker"},{"name":"linux"},{"name":"centos"},{"name":"kubernetes"},{"name":"spring-boot"}],"cities":[{"code":"moscow"}],"allowsRemote":true}},{"node":{"__typename":"Job","id":"2253389824-1001134745498","title":"Devops инженер","text":"#вакансия #Москва #офис #DevOps\n\n▫️ВАКАНСИЯ: Devops engineer\nКомпания: Северсталь-Диджитал\nФормат работы: удаленно на пандемии, далее офис  \nЛокация: Москва Офис на м. Войковская или МЦК Балтийская\nЗанятость: полная \nЗарплатная вилка: до 140-180к gross middle, 180-230к gross senior  + 30% годовой бонус\n\nКомпания занимается внедрением моделей машинного обучение в производстве. Мы ищем devops инженера для поддержки и развития платформы k8s, Kafka, Hadoop, Gitlab. Работа в небольшой команде, где ваши идеи будут быстро находить реализацию.\n\n▫️Обязанности:\n • Настройка, обновление, GitLab, GitlabCI, Nexus/Artifactory; \n • Организация сбора логов с компонентов IoT платформы Северстали (GrayLog); \n • Организация сбора метрик, описывающих состояние IoT платформы; \n • Создание дашбордов и алертов в Grafana; \n • Автоматизированный выпуск релизов. \n\n▫️Требования:\n• Опыт работы в роли DevOps инженера или аналогичной позиции от 1-го года;  \n• Опыт работы с Linux в роли администратора, навыки работы с Docker; \n• Опыт работы с Hadoop, Kafka, Kubernetes. \n\n▫️Желательно:\n• Умение быстро изучать англоязычные технические ресурсы; \n• Экспертные навыки работы с ОС семейства Linux; \n• Навыки работы на языках программирования Bash, Python, Java, Scala.\n• Опыт работы с Prometeus, Zabbix, ELK\n\n▫️Условия:\n•  Гибкое начало рабочего дня\n•  Официальное оформление\n•  Корпоративную мобильную связь, медицинскую страховку и страхование жизни\n•  Участие в профессиональных конференциях\n•  Современное рабочее пространство и уютные зоны отдыха\n\nКонтакты @DaynekoRoman, @ikart\n\n—\n\n👉 Обсуждение вакансии в чате @devops_jobs","markup":[{"type":"hashtag","offset":0,"length":9,"data":"вакансия"},{"type":"hashtag","offset":10,"length":7,"data":"Москва"},{"type":"hashtag","offset":18,"length":5,"data":"офис"},{"type":"hashtag","offset":24,"length":7,"data":"DevOps"},{"type":"handle","offset":1543,"length":13,"data":"DaynekoRoman"},{"type":"handle","offset":1558,"length":6,"data":"ikart"},{"type":"handle","offset":1599,"length":12,"data":"devops_jobs"}],"date":"2020-06-25T07:26:49+00:00","link":"tg://resolve?domain=devops_jobs_feed&post=2149","tags":[{"name":"kafka"},{"name":"hadoop"},{"name":"gitlab"},{"name":"linux"},{"name":"docker"},{"name":"kubernetes"},{"name":"bash"},{"name":"python"},{"name":"java"},{"name":"scala"}],"cities":[{"code":"moscow"}],"allowsRemote":true}},{"node":{"__typename":"Job","id":"17141071872-1001110946746","title":"Js разработчик","text":"#вакансия #удаленно #fullstack #JavaScript #NodeJS #Vue #middle #senior\n\nГород: г. Москва, Сколково, б-р Большой\nФорма работы: удаленка\nЗанятость: полная\nЗарплатная вилка: от 120000 до 200000 рублей\nНазвание компании: ADMON\n\nВ связи с расширением штата, компания ADMON приглашает Middle/Senior Full-stack JavaScript-разработчиков, готовых стать полноценными членами нашей команды на удаленной основе. ADMON – одна из ведущих российских компаний по предотвращению и расследованию мошенничества в сфере рекламы в Интернете и на мобильных устройствах с использованием высоких технологий, являемся резидентами Сколково. Основные направления деятельности компании: мониторинг и предотвращение мошенничества, аудит рекламных кампаний, разработка инновационных программных продуктов по мониторингу, обнаружению и предотвращению возникающих видов мошенничества.\n\nСтек технологий:\nNode.JS, Vue, GraphQl, Jest, Redis, Clickhouse, PostgreSQL, Docker.\n\nЧто используем в работе:\n    ✔️ Jira (Kanban), Confluence;\n   ✔️Храним код в Gitlab, тут же CI/CD;\n    ✔️Практикуем code review, политику частых релизов, гибкие методологии разработки;\n    ✔️Мониторим состояние приложений с помощью: Zabbix, Grafana.\n\nВ задачи будет входить:\n    🔸 Улучшать имеющийся функционал и разрабатывать новый (Система нотификаций, Обработка платежей, Алгоритмы атрибуции, Ads Crawler и т.д.);\n    🔸Писать тесты и рефакторить кодовую базу;\n    🔸Участвовать в принятии архитектурных решений;\n    🔸 Работать как в составе команды, так и в одного над небольшими проектами;\n   🔸Участвовать в коммуникации с командой;\n    🔸Быть инициативным и предлагать свои идеи, в том числе, если это касается использования новых технологий — проводить code review.\n\nЧто мы предлагаем:\n    🚀 Удаленная работа;\n    🚀 Оформление по ТК РФ;\n    🚀 Полностью белая ЗП;\n    🚀График работы 5/2;\n    🚀 Можно выбрать свой график работы;\n    🚀Наставничество по предметной области и на равной позиции;\n    🚀 Возможность работать как в составе команды, так и возглавить со временем свое направление — мы готовы обсуждать любые ваши идеи. \n\n Контакты:@juliajudina2810\n Резюме можно присылать на почту: hr@resurs-hr.ru","markup":[{"type":"hashtag","offset":0,"length":9,"data":"вакансия"},{"type":"hashtag","offset":10,"length":9,"data":"удаленно"},{"type":"hashtag","offset":20,"length":10,"data":"fullstack"},{"type":"hashtag","offset":31,"length":11,"data":"JavaScript"},{"type":"hashtag","offset":43,"length":7,"data":"NodeJS"},{"type":"hashtag","offset":51,"length":4,"data":"Vue"},{"type":"hashtag","offset":56,"length":7,"data":"middle"},{"type":"hashtag","offset":64,"length":7,"data":"senior"},{"type":"handle","offset":2104,"length":16,"data":"juliajudina2810"},{"type":"link","offset":2155,"length":15,"data":"mailto:hr@resurs-hr.ru"}],"date":"2020-06-25T06:43:58+00:00","link":"tg://resolve?domain=javascript_jobs_feed&post=16347","tags":[{"name":"javascript"},{"name":"nodejs"},{"name":"vuejs"},{"name":"graphql"},{"name":"redis"},{"name":"postgresql"},{"name":"docker"},{"name":"gitlab"}],"cities":[{"code":"moscow"}],"allowsRemote":true}}]}}},"context":{}}