{"hash":"f5f6bf98bd95e769321482904cbbd488f77922fd","data":{"records":{"id":"python","name":"python","belongsTo":{"totalCount":130,"pageInfo":{"totalPages":13,"currentPage":6},"edges":[{"node":{"__typename":"Job","id":"1730150400-1001091028994","title":"Java разработчик","text":"#вакансия #москва #офис #fulltime #clojure \nИщу разработчика, желающего переехать на Clojure или уже имеет опыт с ним.\n\nПроект - saas платформа для digital маркетинга. Собираем и обрабатываем большие данные о покупателях всего крупного e-commerce. \n\nУ нас:\n- Clojure, FP;\n- Kafka, Spark;\n- Docker, Docker Compose, Terraform, Kubernetes, AWS;\n- Highload (15k - 20k rps), терабайты данных;\n- Postgresql, Vertica, DynamoDB, Redis, Tarantool, Memcached, Clickhouse.\n\nУ вас:\n- Опыт в промышленном программировании (Java, Scala, Python, Ruby, Clojure, etc) от 2-х лет; \n- Опыт в высоконагруженных проектах с микросервисной архитектурой;\n- Любовь к FP.\n\nУсловия:\n- Москва, офис м.Тверская, фуллтайм;\n- Белая з/п до 300к net;\n- ДМС, хороший офис и техника;\n\nЗа подробностями —-> @nat_kirisova","markup":[{"type":"hashtag","offset":0,"length":9,"data":"вакансия"},{"type":"hashtag","offset":10,"length":7,"data":"москва"},{"type":"hashtag","offset":18,"length":5,"data":"офис"},{"type":"hashtag","offset":24,"length":9,"data":"fulltime"},{"type":"hashtag","offset":34,"length":8,"data":"clojure"},{"type":"handle","offset":771,"length":13,"data":"nat_kirisova"}],"date":"2020-06-23T15:25:30+00:00","link":"tg://resolve?domain=jvmjobs&post=1650","tags":[{"name":"java"},{"name":"jvm"},{"name":"clojure"},{"name":"kafka"},{"name":"docker"},{"name":"kubernetes"},{"name":"amazon-web-services"},{"name":"postgresql"},{"name":"dynamodb"},{"name":"redis"},{"name":"scala"},{"name":"python"},{"name":"ruby"},{"name":"dotnet"},{"name":"docker-compose"}],"cities":[{"code":"moscow"}],"allowsRemote":false}},{"node":{"__typename":"Job","id":"92012544000-1001067529236","title":"Python разработчик","text":"#вакансия #удалёнка #python #django #middle #djangorestframework\n\nФормат работы: #удалёнка\nЗанятость: частичная\nРейт: 20$/час\nОписание вакансии: Требуется Middle Python/Django разработчик\n\nКомпания:\nМеждународный стартап (интеграции в 11 странах) на стабильном финансировании, готовящийся выйти из stealth-mode.\n\nОбязанности:\n- Разработка API-сервисов для мобильных приложений\n- Интеграция с сервисами партнёров и клиентов\n- Отладка и оптимизация сервисов\n\nТребования:\n- знание Python (Python3)\n- знание Django\n- знание Django Rest Framework 3\n\nБудет плюсом:\n- опыт работы с AWS\n\nКонтакты и вопросы:\n@eugenebolotin","markup":[{"type":"hashtag","offset":0,"length":9,"data":"вакансия"},{"type":"hashtag","offset":10,"length":9,"data":"удалёнка"},{"type":"hashtag","offset":20,"length":7,"data":"python"},{"type":"hashtag","offset":28,"length":7,"data":"django"},{"type":"hashtag","offset":36,"length":7,"data":"middle"},{"type":"hashtag","offset":44,"length":20,"data":"djangorestframework"},{"type":"hashtag","offset":81,"length":9,"data":"удалёнка"},{"type":"handle","offset":600,"length":14,"data":"eugenebolotin"}],"date":"2020-06-23T14:10:14+00:00","link":"tg://resolve?domain=python_jobs&post=87750","tags":[{"name":"python"},{"name":"django"},{"name":"rest"},{"name":"amazon-web-services"}],"cities":[],"allowsRemote":true}},{"node":{"__typename":"Job","id":"91907686400-1001067529236","title":"Python разработчик","text":"#вакансия #удаленка #python #part-time\n\nОчереди в Хекслет на наставников все больше и больше с каждым днем. Курс по Python - не исключение.\nНаставник привязывается к студенту на модуль (часть профессии, состоящая из набора курсов + проект). \nОдин студент получает доступ к 5 часам работы (голосом и текстом) с наставником в месяц + ревью проекта. Наставники обычно берут в работу 5 студентов. Это около 5-7 часов в неделю.\nЧто мы предлагаем\n🙌Удаленную работу со свободным графиком.\n🤝Полный доступ к материалам Хекслета.\n👍Персональную прокачку от команды Хекслета.\nНаши ожидания:\n❗️Опыт production (web-разработка) от года, использование TDD в повседневной практике\n❗️Желание делиться знаниями и помогать расти другим\n❗️Умение объяснять простыми словами сложные вещи\n❗️Спокойное отношение к чужим ошибкам\n\nКонтакты: job@hexlet.io или в tg @LyudmilaSemenova","markup":[{"type":"hashtag","offset":0,"length":9,"data":"вакансия"},{"type":"hashtag","offset":10,"length":9,"data":"удаленка"},{"type":"hashtag","offset":20,"length":7,"data":"python"},{"type":"hashtag","offset":28,"length":5,"data":"part"},{"type":"link","offset":818,"length":13,"data":"mailto:job@hexlet.io"},{"type":"handle","offset":841,"length":17,"data":"LyudmilaSemenova"}],"date":"2020-06-23T13:06:47+00:00","link":"tg://resolve?domain=python_jobs&post=87650","tags":[{"name":"python"},{"name":"web"}],"cities":[],"allowsRemote":true}},{"node":{"__typename":"Job","id":"2247098368-1001134745498","title":"Devops инженер","text":"#вакансия #devops #senior  #офис \nГород и адрес офиса: Москва, метро Румянцево \nФормат работы: офис \nЗанятость: полная \nЗарплатная вилка: от 180000 руб до 250000 руб  + премии\nТребования в вакансии:\nОпыт работы в качестве системного администратора\nОпыт работы в качестве DevOPS от 2 лет\nОпыт работы с GitLAb/Puppet/Ansible/Consul/Terraform\nРабота с CI/CD (Jenkins, Gitlab) \nАвтоматизация внутренних процессов (Linux, Python, Ansible, Docker) \nЗадача: Разработка, внедрение и поддержка решений по обеспечению и автоматизации процесса разработки и тестирования.\nНазвание компании: РТЛабс \nКонтакты: @mari13291\n\n—\n\n👉 Обсуждение вакансии в чате @devops_jobs","markup":[{"type":"hashtag","offset":0,"length":9,"data":"вакансия"},{"type":"hashtag","offset":10,"length":7,"data":"devops"},{"type":"hashtag","offset":18,"length":7,"data":"senior"},{"type":"hashtag","offset":27,"length":5,"data":"офис"},{"type":"handle","offset":597,"length":10,"data":"mari13291"},{"type":"handle","offset":642,"length":12,"data":"devops_jobs"}],"date":"2020-06-23T12:50:12+00:00","link":"tg://resolve?domain=devops_jobs_feed&post=2143","tags":[{"name":"gitlab"},{"name":"ansible"},{"name":"jenkins"},{"name":"linux"},{"name":"python"},{"name":"docker"}],"cities":[{"code":"moscow"}],"allowsRemote":false}},{"node":{"__typename":"Job","id":"2246049792-1001134745498","title":"Devops инженер","text":"#вакансия #МСК #DevOps #удаленно\nГород : Москва \nГрафик работы: 5/2\nЗанятость: полная\nЗ/п: от 100 т.р до 250 т.р. на руки 💥\nКомпания: wavesenterprise.com\n\nПозиция открыта в очень крутую команду, которая занимается разработкой и внедрением кастомизированных решений на технологии блокчейн внешним заказчикам (b2b, b2g).\n\nЗадачи:\n- подготовка инфраструктуры для сборки, развертывания и тестирования программного обеспечения;\n- построение и сопровождение конвейера непрерывной интеграции\\поставки программного обеспечения;\n- администрирование и обеспечение работоспособности ИТ-инфраструктуры разработки.\n\nТребования:\n- Опыт администрирования linux;\n- Опыт работы с Jenkins, Kubernetes, Ansible, public cloud engines.\n- Умение писать на bash/python и желательно groovy.\n\nПо вакансии прошу писать мне в tg @v_soloveva\n\n—\n\n👉 Обсуждение вакансии в чате @devops_jobs","markup":[{"type":"hashtag","offset":0,"length":9,"data":"вакансия"},{"type":"hashtag","offset":10,"length":4,"data":"МСК"},{"type":"hashtag","offset":15,"length":7,"data":"DevOps"},{"type":"hashtag","offset":23,"length":9,"data":"удаленно"},{"type":"link","offset":135,"length":19,"data":"http://wavesenterprise.com"},{"type":"handle","offset":803,"length":11,"data":"v_soloveva"},{"type":"handle","offset":849,"length":12,"data":"devops_jobs"}],"date":"2020-06-23T12:50:03+00:00","link":"tg://resolve?domain=devops_jobs_feed&post=2142","tags":[{"name":"linux"},{"name":"jenkins"},{"name":"kubernetes"},{"name":"ansible"},{"name":"cloud"},{"name":"bash"},{"name":"python"},{"name":"groovy"}],"cities":[{"code":"moscow"}],"allowsRemote":true}},{"node":{"__typename":"Job","id":"103520665600-1001089317451","title":"Qa engineer","text":"#Москва #вакансия #QA #manual  #python\n\nДолжность: QA Engineer \nКомпания: Andromeda Lab\nЗП: до 120 000 \nФормат работы: офис, гибкое начало дня\nЗанятость: полная\n\n\nКого мы ищем:\nЧеловека который готов заниматься ручным тестированием 80% времени и 20% времени - автоматизацией. Со временем доля автоматизации вырастет до 50%. \nЕсли у вас не хватает каких-то скиллов - готовы учить и помогать развиваться. Мы очень ценим проактивность и готовность менять все вокруг себя. \n\nЗадачи:\n- Тестирование ERP-системы (состоит из более чем 40 приложений, объединенные в одну экосистему)\n- Введение документации для тестирования (Создание тест-кейсов, чек-листов и т.д.)\n- Тестирование мобильного приложения \n- Тестирование API\n- Участие в автоматизации тестирования продуктов компании\n\nОбязанности:\n- Понимание жизненного цикла разработки продукта\n- Знание теории и видов тестирования,  умение вести тестовую документацию;\n- Умение локализовать баги и оформлять баг репорты\n- Понимание и умение применять техники тест-дизайна\n- Тестирование API\n- Опыт использование Postman\n- Понимание мобильного тестирования \n- Знание и умение пользования командной строкой UNIX\n- Знание SQL (простые запросы), Git\n- Умение использовать снифферы (Charles,Fiddler и т.д.)\n- Понимание как работать с Docker\n- Начальные знания Python либо желание выучить в ближайшее время\n\nПредлагаем:\n- белая зп (до 120 000, зависит от опыта);\n- уютный офис в Moscow City (сладости, печенки,кофе\\чай,PS4 и т.д.);\n- ДМС,  курсы английского, участие в конференциях. \n\nРезюме скидывать в лс.","markup":[{"type":"hashtag","offset":0,"length":7,"data":"Москва"},{"type":"hashtag","offset":8,"length":9,"data":"вакансия"},{"type":"hashtag","offset":18,"length":3,"data":"QA"},{"type":"hashtag","offset":22,"length":7,"data":"manual"},{"type":"hashtag","offset":31,"length":7,"data":"python"}],"date":"2020-06-23T11:23:15+00:00","link":"tg://resolve?domain=qa_jobs&post=98725","tags":[{"name":"qa"},{"name":"python"},{"name":"unix"},{"name":"sql"},{"name":"git"},{"name":"docker"}],"cities":[{"code":"moscow"}],"allowsRemote":false}},{"node":{"__typename":"Job","id":"71855767552-1001054966032","title":"Ios разработчик","text":"#вакансия #москва #офис #senior #ios #developer #gamedev #swift \nГород и адрес офиса: Москва, м.Автозаводская \nФормат работы: офис \nЗанятость: полная \nЗарплатная вилка: от 250 000 до 300 000 на руки \n\n\n✅ Senior iOS Developer \n\nОписание вакансии: \n\nМы - успешная команда из 120 человек, которая занимается: \n• разработкой собственных мобильных игр и приложений \n• паблишингом мобильных игр \n• рекламой и маркетингом мобильных приложений (реклама на Facebook, Google и т.д.) \nЗа последние 3 года мы привлекли более 100 млн пользователей в наши собственные мобильные приложения и приложения наших клиентов и партнеров, потратив на это более $80 млн. \n\nУ нас есть все составляющие чтобы делать готовые продукты известными и популярными. Мы ищем сильного и талантливого разработчика для усиления нашей текущей слаженно работающей команды и выведения нашего Fitness & Health iOS приложения Fitingo на лидирующие позиции в мире (уже сейчас приложение занимало позиции ТОП 13 в США и ТОП 6 в Великобритании с более чем 400,000 установок и более чем 45,000 совершенных покупок).\n\n✅Задачи: \n\n•  Разрабатывать новый функционал\n•  Рефакторить и оптимизировать код\n•  Писать код. Больше логики, меньше UI. Например - хранить историю и прогресс; сделать leaderboard по странам; добавить чат, аналитику и a/b тесты; Apple Health, Watch, Music и TV\n•  Участвовать в Code Review\n\nТекущий стек: Swift 5.1, MVPC, AVFoundation, UserNotifications, Realm, StoreKit, Firebase, PushWoosh, Facebook, Python.\n\n✅Требования: \n\n•  Опыт работы разработчиком iOS приложений от 3х лет\n•  Отличное знание Swift\n•  Уверенное знание SOLID и паттернов проектирования\n•  Умение профилировать приложение (Батарейка, утечки и вот это все)\n•  Опыт работы с системой контроля версий\n•  Наличие выпущенных проектов на Swift\n•  Желание делать красивые, интересные и популярные приложения\n\n✅Будет плюсом: \n\n•  Умение/желание писать небольшие серверные скрипты (например на Python)\n•  Умение автоматизировать рутинные процессы\n•  Умение рефакторить код итеративно\n•  Адекватный перфекционизм\n\n\n✅Для вас: \n\n•  Конкурентная заработная плата, выплачивается 2 раза в месяц\n•  Необходимое оборудование для работы\n•  Возможность набрать команду и выстроить всю работу под себя в краткосрочной перспективе\n•  Оформление по ТК РФ, оплачиваемые больничные, 28 дней оплачиваемого отпуска в год\n•  Возможны регулярные бонусы по результатам работы проектов\n•  Собеседование с лицом принимающим решение\n•  Возможность коммуницировать с людьми, которые принимают продуктовые решения\n\n✅О нас: \n\n•  Просторный офис 600 метров на м. Автозаводская (3 минуты от метро и от ТТК на машине) с ультра современным дизайном и кучей ништяков (кухня с вкусняшками, кальяны каждый вечер в дружной кампании, PS4 Pro + 4K TV, аркадные автоматы с Pac-Man, Metal Slug и другими хитами геймдизайна, просторная зона отдыха, 5 переговорных комнат и т д)\n•  Команда из 100 человек занимающаяся паблишингом и маркетингом, готовая сделать продукт успешным после его готовности\n•  Возможность обучаться английскому языку с носителями каждый будний день по утрам\n•  Менторы и инвесторы, создавшие большое количество успешных IT компаний (оборот в 2018 году более 140 млн долларов)\n\nНазвание компании: AppQuantum \n\nКонтакты: \ne-mail: vika@adquantum.com\ntelegram: @wikki13","markup":[{"type":"hashtag","offset":0,"length":9,"data":"вакансия"},{"type":"hashtag","offset":10,"length":7,"data":"москва"},{"type":"hashtag","offset":18,"length":5,"data":"офис"},{"type":"hashtag","offset":24,"length":7,"data":"senior"},{"type":"hashtag","offset":32,"length":4,"data":"ios"},{"type":"hashtag","offset":37,"length":10,"data":"developer"},{"type":"hashtag","offset":48,"length":8,"data":"gamedev"},{"type":"hashtag","offset":57,"length":6,"data":"swift"},{"type":"link","offset":3248,"length":18,"data":"mailto:vika@adquantum.com"},{"type":"handle","offset":3277,"length":8,"data":"wikki13"}],"date":"2020-06-23T10:28:34+00:00","link":"tg://resolve?domain=mobile_jobs&post=68527","tags":[{"name":"mobile"},{"name":"ios"},{"name":"swift"},{"name":"realm"},{"name":"firebase"},{"name":"python"}],"cities":[{"code":"moscow"}],"allowsRemote":false}},{"node":{"__typename":"Job","id":"103514374144-1001089317451","title":"Qa engineer","text":"#вакансия #работа #удалёнка #fulltime #qa\n\nДолжность : QA Engineer\nКомпания : 6nomads.com\nФормат работы: #fulltime #remote\nЗарплата: 100-140 тыс рублей\n\nКто? \nБританский сервис с русскими корнями. Банковский помощник, который своей гибридной моделью автоматизации меняет скучный английский рынок платежных сервисов, лишает его бумажной составляющей и бюрократии, а заодно оставляет без работы бухгалтеров.\n\nЧто предлагают?\n- Заработная плата в фунтах (100-140 тыс рублей);\n- Командировки в Лондон и Кардифф;\n- Возможность релокации в Великобританию;\n- Работа в одном из офисов (Москва, Екатеринбург, Лондон и Кардифф) или удаленно;\n- Обучение и рост внутри компании, помощь в смене профиля на бэкенд, датасайнс или мобильную разработку при желании. \n\nЧто делать?    \n- Проектирование новых фич вместе с командой;\n- Написание тестовых сценариев;\n- Ручное тестирование (+немного автоматизации Python, appium);\n- Проведение регрессионного тестирования перед релизом;      \n- Создание отчетов по ошибкам и контроль их исправления;\n\nТребования:\n- Противобаговый иммунитет\n- Опыт поиска UI/UX дефектов \n- Английский не ниже Intermediate\n\nЧто тестировать?\ni​OS app, Android App, backend, web.                \nСтек: ​\nKaiten, Testrail, Git, TeamCity, Miro, Zeplin.\n\nКонтакт для связи: @temnik_sofya","markup":[{"type":"hashtag","offset":0,"length":9,"data":"вакансия"},{"type":"hashtag","offset":10,"length":7,"data":"работа"},{"type":"hashtag","offset":18,"length":9,"data":"удалёнка"},{"type":"hashtag","offset":28,"length":9,"data":"fulltime"},{"type":"hashtag","offset":38,"length":3,"data":"qa"},{"type":"link","offset":78,"length":11,"data":"http://6nomads.com"},{"type":"hashtag","offset":105,"length":9,"data":"fulltime"},{"type":"hashtag","offset":115,"length":7,"data":"remote"},{"type":"handle","offset":1280,"length":13,"data":"temnik_sofya"}],"date":"2020-06-23T10:26:42+00:00","link":"tg://resolve?domain=qa_jobs&post=98719","tags":[{"name":"qa"},{"name":"python"},{"name":"android"},{"name":"web"},{"name":"git"}],"cities":[{"code":"london"},{"code":"moscow"}],"allowsRemote":true}},{"node":{"__typename":"Job","id":"91801780224-1001067529236","title":"Python developer","text":"#вакансия #remote #fulltime #python\n\nBack-end Python Developer\n\nФормат работы: #fulltime #remote\nЗарплата: от  $ 50 000 до $ 70 000  в год\n\nКоманда с большим опытом в компьютерном зрении и экспертами мирового уровня ищет в свои ряды Backend Python Developer. Продукт и его основатели базируются в Калифорнии, а почти вся команда — в России и Украине.\n\nЗадачи :\n• Оптимизация и улучшение качества алгоритмов трекинга людей;\n• Доработка основного кода клиентской стороны;\n• Разработка механизмов обновления клиентских приложений (Linux\\Docker);\n• Разработка системы сбора и разметки данных;\n• Доработка инфраструктурных сервисов и системы оценки качества.\n\nТребования:\n• Опыт промышленной работы от двух лет;\n• Опыт разработки оптимизационных алгоритмов разного назначения;\n• Опыт работы с AWS, Google Cloud, Azure, Docker.\n• Знание Python и\\или С++ и\\или Java;\n• Знание сетевых протоколов, их вариаций и особенностей;\n• Умение работать с многопоточной средой, понимание принципов работы сопрограмм;\n• Умение создавать сервера, способные выдерживать большие нагрузки.\n\nБудет плюсом:\n• Веб каркас Tornado, знания протокола HTTP;\n• Базы данных MongoDB, Redis, Aerospike, Cassandra;\n• Опыт работы с распределенной инфраструктурой;\n• Опыт использования нейронных сетей на TensorFlow / Keras / Caffe;\n• Понимание принципов работы различных архитектур нейронных сетей, знание алгоритмов машинного обучения.\n\nКонтакт для связи: @temnik_sofya","markup":[{"type":"hashtag","offset":0,"length":9,"data":"вакансия"},{"type":"hashtag","offset":10,"length":7,"data":"remote"},{"type":"hashtag","offset":18,"length":9,"data":"fulltime"},{"type":"hashtag","offset":28,"length":7,"data":"python"},{"type":"hashtag","offset":79,"length":9,"data":"fulltime"},{"type":"hashtag","offset":89,"length":7,"data":"remote"},{"type":"handle","offset":1419,"length":13,"data":"temnik_sofya"}],"date":"2020-06-23T10:09:17+00:00","link":"tg://resolve?domain=python_jobs&post=87549","tags":[{"name":"python"},{"name":"linux"},{"name":"docker"},{"name":"amazon-web-services"},{"name":"cloud"},{"name":"azure"},{"name":"java"},{"name":"mongodb"},{"name":"redis"},{"name":"cassandra"},{"name":"tensorflow"},{"name":"google-cloud-platform"}],"cities":[],"allowsRemote":true}},{"node":{"__typename":"Job","id":"91755642880-1001067529236","title":"Python разработчик","text":"#вакансия #django #drf #python #postgresql #fulltime #remote \n\nКоманда Cactus Vision ищет разработчика Python (Middle) на полную занятость. Важно, чтобы человек любил то, чем он занимается, и был готов трудиться в дружеской команде единомышленников.\n\nМы – организация, работающая по принципам Бирюзовой парадигмы. Это значит, что мы придерживаемся самоуправления и самоорганизации. Наши сотрудники работают сообща, вместе преодолевая трудности. Мы не боимся брать на себя новые роли и развиваться в них. Если у человека есть цель, миссия, которым он готов следовать, трудясь на благо компании – мы вам рады.\n\nУ разработчиков компании Cactus Vision есть возможность не просто писать код, но и участвовать в развитии Бирюзовой организации, раскрывать свой потенциал и расти. Присоединяйся!\n\nЧто вам предстоит:\n- Разработка нового функционала;\n- Рефакторинг legacy и некорректных решений;\n- Проектирование архитектуры и БД;\n- Разработка интеграционных решений;\n\nЧто от вас нужно:\n- Уверенное знание Python 3.x+;\n- Уверенное знание PostgreSQL;\n- Опыт работы не менее 2 лет, в том числе в команде;\n- Умение писать тесты (знание TDD приветствуется);\n- Опыт проектирования архитектуры приложений, в том числе БД;\n- Умение ориентироваться в больших объемах информации;\n- Уровень английского языка, необходимого для чтения технической документации;\n- Ответственность и желание развиваться.\n\nЧто мы готовы предоставить:\n- Возможность трудиться удаленно;\n- Работа в дружной команде;\n- Помощь и поддержка в реализации личной миссии;\n- Возможность попробовать в себя различных ролях.\n\nВознаграждение труда: 50000 - 85000р в месяц, по результатам.\n\nПо всем вопросам писать 👉 @iboman\n+7 (999) 634-24-41","markup":[{"type":"hashtag","offset":0,"length":9,"data":"вакансия"},{"type":"hashtag","offset":10,"length":7,"data":"django"},{"type":"hashtag","offset":18,"length":4,"data":"drf"},{"type":"hashtag","offset":23,"length":7,"data":"python"},{"type":"hashtag","offset":31,"length":11,"data":"postgresql"},{"type":"hashtag","offset":43,"length":9,"data":"fulltime"},{"type":"hashtag","offset":53,"length":7,"data":"remote"},{"type":"bold","offset":789,"length":18,"data":""},{"type":"bold","offset":959,"length":17,"data":""},{"type":"bold","offset":1382,"length":27,"data":""},{"type":"link","offset":1594,"length":13,"data":"tel:50000 - 85000"},{"type":"handle","offset":1662,"length":7,"data":"iboman"},{"type":"link","offset":1670,"length":18,"data":"tel:+7 (999) 634-24-41"}],"date":"2020-06-23T09:41:26+00:00","link":"tg://resolve?domain=python_jobs&post=87505","tags":[{"name":"python"},{"name":"django"},{"name":"postgresql"}],"cities":[],"allowsRemote":true}}]}}},"context":{}}