{"hash":"f5f6bf98bd95e769321482904cbbd488f77922fd","data":{"records":{"id":"graphql","name":"graphql","belongsTo":{"totalCount":46,"pageInfo":{"totalPages":5,"currentPage":1},"edges":[{"node":{"__typename":"Job","id":"72622276608-1001054966032","title":"Ios developer","text":"#вакансия #спб #ios #middle #senior #spb #офис #IoT #умныйдом \nMiddle/Senior iOS developer \nReady for Sky 🚀 \nhttps://readyforsky.com/ru/career/ \n📍 полный день, удаленно в СПб/офис м. Нарвская \nМы ищем iOS developer, который будет разрабатывать приложение, использующее данные с IoT-устройств для предоставления пользователям нужных товаров и услуг \n💡 Используем: Swift, Objective-C; Jenkins; GraphQL; RxSwift; MVC, MVVM и Viper \nВ команде: разрабатываем новый функционал приложения, внутренние фреймворки (Private pods), фреймворки для общего доступа; пишем Unit тесты; принимаем участие в создании протоколов работы с умными устройствами; Refactoring и Code-review. \nПредлагаем: \nРаботу в профессиональной команде (team lead, senior, middle), более 300 000 активных пользователей приложения. \nЗП от 130 до 250 тыс. руб. \nПосле исп.срока корпоративный английский \n📬 Пиши: @Rupeka_Natali","markup":[{"type":"hashtag","offset":0,"length":9,"data":"вакансия"},{"type":"hashtag","offset":10,"length":4,"data":"спб"},{"type":"hashtag","offset":15,"length":4,"data":"ios"},{"type":"hashtag","offset":20,"length":7,"data":"middle"},{"type":"hashtag","offset":28,"length":7,"data":"senior"},{"type":"hashtag","offset":36,"length":4,"data":"spb"},{"type":"hashtag","offset":41,"length":5,"data":"офис"},{"type":"hashtag","offset":47,"length":4,"data":"IoT"},{"type":"hashtag","offset":52,"length":9,"data":"умныйдом"},{"type":"bold","offset":63,"length":27,"data":""},{"type":"bold","offset":92,"length":13,"data":""},{"type":"link","offset":110,"length":34,"data":"https://readyforsky.com/ru/career/"},{"type":"bold","offset":203,"length":13,"data":""},{"type":"bold","offset":354,"length":11,"data":""},{"type":"bold","offset":432,"length":10,"data":""},{"type":"bold","offset":671,"length":11,"data":""},{"type":"bold","offset":870,"length":5,"data":""},{"type":"handle","offset":876,"length":14,"data":"Rupeka_Natali"}],"date":"2020-07-03T11:26:33+00:00","link":"tg://resolve?domain=mobile_jobs&post=69258","tags":[{"name":"mobile"},{"name":"ios"},{"name":"swift"},{"name":"objective-c"},{"name":"jenkins"},{"name":"graphql"},{"name":"mvvm"}],"cities":[],"allowsRemote":true}},{"node":{"__typename":"Job","id":"17347641344-1001110946746","title":"Js разработчик","text":"#вакансия #JavaScript #React #ReactNative #Node #офис #Москва\nГород и адрес офиса: Москва, м.Дмитровская\nФормат работы: Офис на испытательный срок, далее - возможна удаленка, пятидневка\nЗанятость: Полный день\nЗарплатная вилка: от 150 000 до 200 000 руб.; с опытным кандидатом готовы обсуждать уровень выше.\n\nО компании: проект из Амстердама, занимающийся созданием приложений для веб - / мобильных / настольных компьютеров и разрабатывает решения для масштабируемого бизнеса в Европе и за ее пределами.\nОт Вас:\n- сильные навыки JavaScript, качественный опыт на React;\n- опыт в интеграции облачных сервисов RESTful APIs, GraphQL;\n- знание методологии Agile/Scrum\n- навыки разработки Node.js applications (API servers, SSR, Tooling)\n- опыт работы с React Native или нативной мобильной разработкой;\n- опыт публичных выступлений будет преимуществом;\n- беглый разговорный английский.\nНазвание компании: Sirotina Personnel\nКонтакты: @nicedream13","markup":[{"type":"hashtag","offset":0,"length":9,"data":"вакансия"},{"type":"hashtag","offset":10,"length":11,"data":"JavaScript"},{"type":"hashtag","offset":22,"length":6,"data":"React"},{"type":"hashtag","offset":29,"length":12,"data":"ReactNative"},{"type":"hashtag","offset":42,"length":5,"data":"Node"},{"type":"hashtag","offset":48,"length":5,"data":"офис"},{"type":"hashtag","offset":54,"length":7,"data":"Москва"},{"type":"handle","offset":927,"length":12,"data":"nicedream13"}],"date":"2020-07-03T07:39:55+00:00","link":"tg://resolve?domain=javascript_jobs_feed&post=16544","tags":[{"name":"javascript"},{"name":"reactjs"},{"name":"nodejs"},{"name":"graphql"},{"name":"react-native"}],"cities":[{"code":"moscow"}],"allowsRemote":true}},{"node":{"__typename":"Job","id":"17315135488-1001110946746","title":"Js разработчик","text":"#вакансия #разработчик #senior #NodeJs #фуллтайм #Иннополис\n\nГород и адрес офиса: РТ, г.Иннополис, ул. Университетская 7.\nФормат работы: офис.\nЗанятость: полная.\n\n💸ЗП: от 80 до 180 тыс.руб. (на руки) (обсуждаемо)\n\nОписание вакансии: \n\nКомпания Zen.Car\n\n⭐️Стек: Node.Js, Nestjs, TypeScript,  TypeOrm, GraphQL, PostgreSQL, Redis.\n\n🔹Требования:\n- Опыт в WEB-программировании от 3х лет;\n- Знания ES6/ES7 на уровне не ниже middle;\n- Опыт работы с реляционными БД;\n- Знание основ систем контроля версий (Git);\n- Умение работать в команде и писать код \n\n💥Будет плюсом:\n- опыт работы с Express.js, Nestjs,TypeScript, TypeOrm, GraphQL ;\n- опыт создания высоконагруженных проектов;\n- опыт создания собственных проектов;\n- TTD.\n   \nОбязанности:\n- Разработка нового функционала в существующем продукте;\n- Улучшение и оптимизация текущего кода;\n- Взаимодействие с командой frontend-разработки.\n\n🔸Условия:\n* комфортный офис в г.Иннополис;\n* 3-х разовое питание в офисе за счет компании;\n* помощь в получении арендного жилья в городе Иннополис;\n* скидка на фитнес.\n \n📩Контакты: \nэл.п.: anna@sayhire.agency; \nтелеграм: @anika0801.\n\n—\n\n👉 Обсуждение вакансии в чате @javascript_jobs","markup":[{"type":"hashtag","offset":0,"length":9,"data":"вакансия"},{"type":"hashtag","offset":10,"length":12,"data":"разработчик"},{"type":"hashtag","offset":23,"length":7,"data":"senior"},{"type":"hashtag","offset":31,"length":7,"data":"NodeJs"},{"type":"hashtag","offset":39,"length":9,"data":"фуллтайм"},{"type":"hashtag","offset":49,"length":10,"data":"Иннополис"},{"type":"link","offset":1076,"length":19,"data":"mailto:anna@sayhire.agency"},{"type":"handle","offset":1108,"length":10,"data":"anika0801"},{"type":"handle","offset":1154,"length":16,"data":"javascript_jobs"}],"date":"2020-07-02T10:41:33+00:00","link":"tg://resolve?domain=javascript_jobs_feed&post=16513","tags":[{"name":"javascript"},{"name":"nodejs"},{"name":"typescript"},{"name":"graphql"},{"name":"postgresql"},{"name":"redis"},{"name":"web"},{"name":"git"},{"name":"express"}],"cities":[],"allowsRemote":false}},{"node":{"__typename":"Job","id":"17313038336-1001110946746","title":"Js разработчик","text":"#вакансия #frontEnd  #удаленка\nИщем frontend developer в компанию Датурум - разработчик и поставщик платформы WikiVote, которую мы внедряем в крупные организации. Платформа создает среду, в которой сотрудники делятся идеями по совершенствованию своей компании, улучшению рабочих процессов, а руководство прислушивается к идеям и внедряет их. \n\n🚩Заработная плата: от 80 000 до 150 000 руб\nЛокация: РФ, удаленно\nРежим работы: полная занятость, 8 часовой рабочий день\n\n🚩Требования: опыт от 2х лет\nCSS3, HTML5, JavaScript\nVue.js второй версии, webpack\nопыт в работе с REST или GraphQL\nумение верстать или писать JS код с учетом возможностей IE11\nуверенное использование Git\n\n🚩Чем заниматься: внедрением платформы в гос и частные крупные учреждения, исследовательские штуки типа разработки всяких умных алгоритмов для платформы.\nТакже примерно раз в год мы делаем крупный проект по заказной разработке ПО, у нас в портфолио: Windows-приложение рабочий блокнот УИК для помощи участковым избирательным комиссиям, чтобы лучше проводить выборы,  MVP банка на блокчейне, и тд.\n\n🚩Что предлагаем: Испытательный срок 3 месяца, белое оформление в штат, своевременную оплату\n\nРезюме @irensergeeva","markup":[{"type":"hashtag","offset":0,"length":9,"data":"вакансия"},{"type":"hashtag","offset":10,"length":9,"data":"frontEnd"},{"type":"hashtag","offset":21,"length":9,"data":"удаленка"},{"type":"handle","offset":1172,"length":13,"data":"irensergeeva"}],"date":"2020-07-02T09:44:12+00:00","link":"tg://resolve?domain=javascript_jobs_feed&post=16511","tags":[{"name":"javascript"},{"name":"css"},{"name":"html"},{"name":"vuejs"},{"name":"webpack"},{"name":"rest"},{"name":"graphql"},{"name":"git"},{"name":"windows"}],"cities":[],"allowsRemote":true}},{"node":{"__typename":"Job","id":"104146665472-1001089317451","title":"Qa engineer","text":"#вакансия #Москва #офис #QA #тестировщик #fulltime\n\nГород и адрес офиса: Москва, м. Новокузнецкая/Павелецкая\nФормат работы: #офис\nЗанятость: #полная\nЗП: от 90к до 120к руб. нетт\n\nSports.ru - провайдер развлечений для любителей спорта.\nЕсть спорт. Есть болельщики. Мы заполняем среду между ними, оживляем ее, наполняем общением и другими развлечениями. Мы делаем не «сайты» или «приложения», а мультиплатформенные продукты, с учетом актуальной технологической парадигмы.\n\nМы ищем QA Engineer'а в наш флагманский проект Sports.ru.\nЭто главное медиа о спорте на русском языке с аудиторией 18 млн пользователей в месяц. Highload-проект с десятками тысяч RPS, состоящий из самых разных продуктов – сайтов, мобильных приложений, email-рассылок, чат-ботов и многого другого.\n\nВ данный момент мы заняты активным внедрением процесса тестирования. Под капотом - нативный js на фронте, php+perl на бэке. Все новые сервисы разрабатываем на новом стеке: vue.js+ssr+golang+graphql. Да, легаси есть - иногда попадается, но в тестирование всё же большинство задач идут на новом стеке.\n\nО задачах\nВы будете заниматься приёмкой фич и проведением регресса, написанием тестовой документации, разработкой автотестов и регистрацией ошибок в баг-трекере.\n\nО наших ожиданиях\nМы ждем, что вы уже пару лет как в профессии и имеете хороший опыт ручного тестирования. Знаете различные инструменты и подходы к тестированию, обладаете навыками тест-дизайна и умеете их применять.\nПонимаете процессы разработки и тестирования, а также, что процессы не могут быть идеальными, но к этому необходимо стремиться.\nМы также ждем, что вы уже попробовали свои силы в автоматизации тестирования и хотите дальше развиваться в этом направлении (у нас автоматизация на JavaScript).\n\nБудет плюсом\nЕсли вы уже пробовали себя в нагрузочном тестировании и автоматизации мобильных устройств.\n\nОб условиях:\nПросторный стильный офис возле м. Новокузнецкая/Третьяковская.\n“Белая” заработная плата.\nБесплатная медстраховка со стоматологией после испытательного срока.\nГибкий график работы с возможностью день-два в неделю работать удаленно,\nФрукты, снеки, чай, кофе, какао 24/7.\nКорпоративная скидка в спортзал и на занятия английским языком.\nКорпоративный футбол с тренером.\nФинансовая помощь при переезде из другого города.\nВозможности для профессионального развития.\n\nНазвание компании: Sports.ru (Tribuna Digital)\nЕсли заинтересовало, пишите мне в личку (@pbuyatova), рада буду поделиться подробностями 😌","markup":[{"type":"hashtag","offset":0,"length":9,"data":"вакансия"},{"type":"hashtag","offset":10,"length":7,"data":"Москва"},{"type":"hashtag","offset":18,"length":5,"data":"офис"},{"type":"hashtag","offset":24,"length":3,"data":"QA"},{"type":"hashtag","offset":28,"length":12,"data":"тестировщик"},{"type":"hashtag","offset":41,"length":9,"data":"fulltime"},{"type":"hashtag","offset":124,"length":5,"data":"офис"},{"type":"hashtag","offset":141,"length":7,"data":"полная"},{"type":"link","offset":179,"length":9,"data":"http://Sports.ru"},{"type":"bold","offset":179,"length":9,"data":""},{"type":"bold","offset":479,"length":13,"data":""},{"type":"link","offset":518,"length":9,"data":"http://Sports.ru"},{"type":"bold","offset":1070,"length":10,"data":""},{"type":"bold","offset":1233,"length":18,"data":""},{"type":"bold","offset":1740,"length":13,"data":""},{"type":"bold","offset":1845,"length":13,"data":""},{"type":"link","offset":2338,"length":9,"data":"http://Sports.ru"},{"type":"handle","offset":2407,"length":10,"data":"pbuyatova"}],"date":"2020-07-01T15:51:57+00:00","link":"tg://resolve?domain=qa_jobs&post=99322","tags":[{"name":"qa"},{"name":"php"},{"name":"perl"},{"name":"vuejs"},{"name":"go"},{"name":"graphql"},{"name":"javascript"}],"cities":[{"code":"moscow"}],"allowsRemote":true}},{"node":{"__typename":"Job","id":"17284726784-1001110946746","title":"Js developer","text":"#вакансия #frontend #react #senior #Kyiv #Kiev #Киев  #vacancy #office #офис #fulltime \n\n📍Компания: Ninety Percent of Everything (https://openocean.studio)\n📍Локация: Киев, Майдан Независимости\n📍Формат: офис с возможностью 1-2 дня в неделю работать из дома\n📍Вилка от 3к$ до 6к$. \n\n✅ Основные требования:\n- React;\n- JavaScript core and TypeScript;\n- GraphQL using React Apollo;\n- Data structures and algorithms;\n- Data visualisations (i.e. charts via Highchart);\n- Global state management;\n- Unit testing with Jest;\n- CI/CD practices;\n\n 🖥 Обязанности:\n- Developing React applications for web.\n- Following modern JS and TypeScript best practices to deliver and support production ready industry quality code.\n- Being responsible for full lifecycle of applications. Developers will take the applications they build from design, through implementation and into production.\n- Contributing to developing and maintaining a core UI component library.\n- Working closely with designers to ensure delivery of the vision.\n- Regular and clear communication of progress to the squad product owner and technical lead.\n\n💥 Условия:\n- Flexible hours, possibility to work from home 1-2 times per week, no time-tracking. \nThe main thing is to accomplish your goals and deliver results on time;\n- State of the art, cool, centrally located office (Maidan Nezalezhnosti) with cozy atmosphere; \n- Competitive net salary in￡ (taxes are on us);\n- 25 business days of paid vacation;\n- Health insurance;\n- Occasional travels to client offices based in London.\n\nПо всем вопросам пишите в личку 😊\nTelegram: @IrynaDim\n\n—\n\n👉 Обсуждение вакансии в чате @javascript_jobs","markup":[{"type":"hashtag","offset":0,"length":9,"data":"вакансия"},{"type":"hashtag","offset":10,"length":9,"data":"frontend"},{"type":"hashtag","offset":20,"length":6,"data":"react"},{"type":"hashtag","offset":27,"length":7,"data":"senior"},{"type":"hashtag","offset":35,"length":5,"data":"Kyiv"},{"type":"hashtag","offset":41,"length":5,"data":"Kiev"},{"type":"hashtag","offset":47,"length":5,"data":"Киев"},{"type":"hashtag","offset":54,"length":8,"data":"vacancy"},{"type":"hashtag","offset":63,"length":7,"data":"office"},{"type":"hashtag","offset":71,"length":5,"data":"офис"},{"type":"hashtag","offset":77,"length":9,"data":"fulltime"},{"type":"link","offset":131,"length":24,"data":"https://openocean.studio"},{"type":"handle","offset":1583,"length":9,"data":"IrynaDim"},{"type":"handle","offset":1627,"length":16,"data":"javascript_jobs"}],"date":"2020-07-01T08:16:53+00:00","link":"tg://resolve?domain=javascript_jobs_feed&post=16484","tags":[{"name":"javascript"},{"name":"reactjs"},{"name":"typescript"},{"name":"graphql"},{"name":"web"},{"name":"dotnet"},{"name":"unit-testing"}],"cities":[{"code":"kiev"},{"code":"london"}],"allowsRemote":false}},{"node":{"__typename":"Job","id":"104108916736-1001089317451","title":"Qa engineer","text":"#вакансия #QA #тестировщик #middle #senior #москва #офис #fulltime\n\nКомпания: СберТех\nЛокация: г. Москва\nЗ/п: 130-250k\n \nСберТех приглашает в команду QA Engineer. Так же того, кто желает обучаться автоматизации на JS/CodeceptJS или уже состоявшегося автоматизатора\n\n💻 Делаем образовательную цифровую платформу - SaaS решение для персонализированного обучения в школах, IT Bootcamp Сбербанка. Сейчас масштабируемся и выходим на университеты\n\nСтек проекта:\nBack: Java 8+, Spring 5, SpringBoot 2, PostgreSQL, MongoDB, Flyway\n﻿Front: ReactJS, Typescript, Apollo-client, Styled-Components\nAutomationQA: API - Java/TestNG; UI - JavaScript/CodeceptJS\nInfracture: Jenkins, Allure, Bitbucket, Jira, EFK, Grafana\nEnvironment: Docker, Kubernetes, Ceph\n\nЧем предстоит заниматься:\n🔹проходить регресс текущего функционала\n🔹разрабатывать кейсы параллельно разработке нового функционала\n🔹проводить анализ требований для новых фич и давать свое заключение\n🔹участвовать в расширении тестовой модели\n🔹автоматизировать регресс, поддерживать старый функционал, писать тесты для новых фич\n\nОжидания от квалификации:\n🔹умение работать с DevTools, различать Get & Post-запросы\n🔹знание видов тестирования, умение отличить функциональное тестирование от нефункционального, понимание зачем и когда нужен regress, end-2-end и smoke testing\n🔹умение/желание тестировать UI\n🔹опыт работы с технической документацией, анализом макетов и составлением тестовой документации \n🔹умение чётко и внятно составлять баг-репорты в таск-трекере (у нас Jira)\n🔹умение писать понятные для других тест-кейсы без лишней информации\n🔹опыт взаимодействия с Rest-API\n\nПлюсом будет:\n🔹если слова cross platform testing & cross device testing не вызывают ступора, на примете есть полезные applications для тестирования UI\n🔹если уже ступил на путь познания JavaScript или Java\n🔹шапочное или личное знакомство с GraphQL\n🔹опыт работы в Agile-команде\n\nПредлагаем:\n✔достойную зарплату (оклад + высокая годовая премия) \n✔профессиональное развитие: конференции, митапы, обучение в Корпоративном университете Сбербанка\n✔ДМС, страховку от несчастных случаев, льготные условия ипотеки, скидки от компаний-партнеров, бесплатный тренажёрный зал\n✔офис А класса в БЦ «Северное Сияние» (5 мин от м. Савеловская), удалёнка до конца июля\n\nЕсли интересно - буду рада обсудить, вот мои контакты:\n📲 @karprokar\n📩 KVProlomova@sberbank.ru","markup":[{"type":"hashtag","offset":0,"length":9,"data":"вакансия"},{"type":"hashtag","offset":10,"length":3,"data":"QA"},{"type":"hashtag","offset":14,"length":12,"data":"тестировщик"},{"type":"hashtag","offset":27,"length":7,"data":"middle"},{"type":"hashtag","offset":35,"length":7,"data":"senior"},{"type":"hashtag","offset":43,"length":7,"data":"москва"},{"type":"hashtag","offset":51,"length":5,"data":"офис"},{"type":"hashtag","offset":57,"length":9,"data":"fulltime"},{"type":"bold","offset":68,"length":8,"data":""},{"type":"bold","offset":86,"length":7,"data":""},{"type":"bold","offset":105,"length":3,"data":""},{"type":"bold","offset":121,"length":40,"data":""},{"type":"bold","offset":442,"length":12,"data":""},{"type":"bold","offset":743,"length":24,"data":""},{"type":"bold","offset":1074,"length":24,"data":""},{"type":"bold","offset":1627,"length":12,"data":""},{"type":"bold","offset":1908,"length":10,"data":""},{"type":"handle","offset":2340,"length":10,"data":"karprokar"},{"type":"link","offset":2354,"length":23,"data":"mailto:KVProlomova@sberbank.ru"}],"date":"2020-06-30T20:08:43+00:00","link":"tg://resolve?domain=qa_jobs&post=99286","tags":[{"name":"qa"},{"name":"java"},{"name":"spring"},{"name":"postgresql"},{"name":"mongodb"},{"name":"reactjs"},{"name":"typescript"},{"name":"javascript"},{"name":"jenkins"},{"name":"docker"},{"name":"kubernetes"},{"name":"rest"},{"name":"graphql"}],"cities":[{"code":"moscow"}],"allowsRemote":true}},{"node":{"__typename":"Job","id":"72383201280-1001054966032","title":"Ios developer","text":"#вакансия #спб #ios #middle #senior #spb #офис #IoT #умныйдом \nMiddle/Senior iOS developer \nReady for Sky 🚀 \nhttps://readyforsky.com/ru/career/ \n📍 полный день, удаленно в СПб/офис м. Нарвская \nМы серьезно занимаемся сферой iot, создаем умные приборы.\nИщем iOS developer, который будет разрабатывать приложение, использующее данные с IoT-устройств для предоставления пользователям нужных товаров и услуг \n💡 Используем: Swift, Objective-C; Jenkins; GraphQL; RxSwift; MVC, MVVM и Viper \nВ команде: разрабатываем новый функционал приложения, внутренние фреймворки (Private pods), фреймворки для общего доступа; пишем Unit тесты; принимаем участие в создании протоколов работы с умными устройствами; Refactoring и Code-review. \nПредлагаем: \nРаботу в профессиональной команде, более 300 000 активных пользователей приложения. \nЗП от 130 до 250 тыс. руб. на руки  \nПосле исп.срока корпоративный английский \n📬 Пиши: @Rupeka_Natali","markup":[{"type":"hashtag","offset":0,"length":9,"data":"вакансия"},{"type":"hashtag","offset":10,"length":4,"data":"спб"},{"type":"hashtag","offset":15,"length":4,"data":"ios"},{"type":"hashtag","offset":20,"length":7,"data":"middle"},{"type":"hashtag","offset":28,"length":7,"data":"senior"},{"type":"hashtag","offset":36,"length":4,"data":"spb"},{"type":"hashtag","offset":41,"length":5,"data":"офис"},{"type":"hashtag","offset":47,"length":4,"data":"IoT"},{"type":"hashtag","offset":52,"length":9,"data":"умныйдом"},{"type":"bold","offset":63,"length":27,"data":""},{"type":"bold","offset":92,"length":13,"data":""},{"type":"link","offset":110,"length":34,"data":"https://readyforsky.com/ru/career/"},{"type":"bold","offset":258,"length":13,"data":""},{"type":"bold","offset":409,"length":11,"data":""},{"type":"bold","offset":487,"length":10,"data":""},{"type":"bold","offset":726,"length":11,"data":""},{"type":"bold","offset":906,"length":5,"data":""},{"type":"handle","offset":912,"length":14,"data":"Rupeka_Natali"}],"date":"2020-06-30T15:50:02+00:00","link":"tg://resolve?domain=mobile_jobs&post=69030","tags":[{"name":"mobile"},{"name":"ios"},{"name":"swift"},{"name":"objective-c"},{"name":"jenkins"},{"name":"graphql"},{"name":"mvvm"}],"cities":[],"allowsRemote":true}},{"node":{"__typename":"Job","id":"17261658112-1001110946746","title":"Js разработчик","text":"#вакансия #remote #node.js #graphql #typescript\nГород и адрес офиса: Atlanta, GA, USA\nФормат работы: удаленка\nЗанятость: полная\nЗарплатная вилка: от $5'000 до $10'000/мес на руки + %\nНазвание компании: Kriasoft (https://github.com/kriasoft)\nКонтакты: @koistya\n \nИщем талантливого sr. level веб-разработчика в стартап ($1.5M посевных инвестиций) для разработки современного конструктора веб-сайтов похожий на Framer.com, который будет конкурировать с Webflow, Squarespace, Tilda.\n\n👉 Требования\n\n- Опыт работы с React.js, Node.js/GraphQL, PostgreSQL, TypeScript\n- Опыт разработки веб-приложений в роли основного контрибьютора\n- Умение писать грамотный, продуманный код и решать сложные задачи\n- Хороший разговорный английский","markup":[{"type":"hashtag","offset":0,"length":9,"data":"вакансия"},{"type":"hashtag","offset":10,"length":7,"data":"remote"},{"type":"hashtag","offset":18,"length":5,"data":"node"},{"type":"hashtag","offset":27,"length":8,"data":"graphql"},{"type":"hashtag","offset":36,"length":11,"data":"typescript"},{"type":"link","offset":212,"length":27,"data":"https://github.com/kriasoft"},{"type":"handle","offset":251,"length":8,"data":"koistya"},{"type":"link","offset":408,"length":10,"data":"http://Framer.com"}],"date":"2020-06-30T11:57:59+00:00","link":"tg://resolve?domain=javascript_jobs_feed&post=16462","tags":[{"name":"javascript"},{"name":"nodejs"},{"name":"graphql"},{"name":"typescript"},{"name":"github"},{"name":"reactjs"},{"name":"postgresql"}],"cities":[{"code":"atlanta"}],"allowsRemote":true}},{"node":{"__typename":"Job","id":"17255366656-1001110946746","title":"Js разработчик","text":"#вакансия #Москва #nodejs #офис\n\nКомпания Proscom ищет Middle/Senior Backend (Node.js) разработчика\n\nФормат занятости: Офис около м. Серпуховская/Павелецкая.\nЗанятость: полная \nЗарплатная вилка: 130 000 - 240 000 рублей/месяц (по результатам собеседования)\n\nО компании: \n\nС 2013 года создаем интерфейсы, веб-сайты,\nмобильные приложения для крупных\nправительственных организаций и\nкоммерческих предприятий\n\nЗадачи:\n\nВести разработку как новых проектов, так и поддерживать уже существующий код. \n\nСтек:\n\nNode.js, GraphQL, REST, Nest.js, TypeScript, CRDT, MySQL, PostreSQL, Git, Docker\n\nТребования:\n\nОт 1 года опыта работы с Node.js, от 2х лет опыта программирования\n\nКонтакт: @mxm_at","markup":[{"type":"hashtag","offset":0,"length":9,"data":"вакансия"},{"type":"hashtag","offset":10,"length":7,"data":"Москва"},{"type":"hashtag","offset":18,"length":7,"data":"nodejs"},{"type":"hashtag","offset":26,"length":5,"data":"офис"},{"type":"handle","offset":674,"length":7,"data":"mxm_at"}],"date":"2020-06-30T11:55:06+00:00","link":"tg://resolve?domain=javascript_jobs_feed&post=16456","tags":[{"name":"javascript"},{"name":"nodejs"},{"name":"graphql"},{"name":"rest"},{"name":"typescript"},{"name":"mysql"},{"name":"git"},{"name":"docker"}],"cities":[{"code":"moscow"}],"allowsRemote":false}}]}}},"context":{}}