{"hash":"f5f6bf98bd95e769321482904cbbd488f77922fd","data":{"records":{"totalCount":669,"pageInfo":{"totalPages":67,"currentPage":43},"edges":[{"node":{"id":"71650246656-1001054966032","title":"Ios разработчик","text":"#вакансия #IOS  #middle  #офис #минск\n\nios разработчик в офис Минска м. Немига\n\nГород: Минск\nФормат работы: в офис (на период пандемии удаленно)\nЗанятость: полная\nЗарплатная вилка: 1 000 -1 500$\nКомпания: 𝓜𝓑𝓲𝓬𝔂𝓬𝓵𝓮\n\nMBicycle - команда профессионалов в области разработки мобильных и веб приложений.\nМы помогаем нашим клиентам решать их проблемы независимо от отрасли, размера компании или чего-либо еще.\nНаша работа - это постоянное развитие и движение вперед.\n\nО нас:\nНаша компания развивается с 2011 года. На данный момент отдел разработки составляет 70+ человек.\nОфисы нашей компании расположены в Гомеле, Минске и Бостоне (США).\nМы предоставляем комплексные технические решения для широкого круга отраслей, включая Спорт, IoT, FinTech, HealthCare и т.д.\nНаши сотрудники регулярно проводят митапы, на которых обсуждают актуальные технологии и возможности их внедрения на наших проектах\n\nСтек задач будет включать:\n\nОбщение с клиентом, уточнение и обсуждение требований\nУчастие в планировании проекта\nПроведение и прохождение код-ревью\nУчастие в различных фазах разработки: демо нового функционала, написание тестов, сборка и релиз приложений\nРаботу в распределенных командах, написание нового функционала\nДоработку и поддержку уже написанных частей\nНаши ожидания:\n\nЗнание английского языка на уровне Intermediate и выше\nОпыт разработки на Swift от 2-х лет\nОпыт работы с RxSwift, MVVM\nОпыт с git, понимание git flow\nОпыт написания Unit-тестов и работы с CI/CD\nМы предлагаем:\n• Работу в динамично развивающейся компании\n• Разработка приложений с нуля\n• Гибкость в выборе технологий\n• 3 sick days\n• Командировки за рубеж\n• Бесплатные курсы английского языка в нашем офисе\n\nПриятные плюшки:\n• Новый офис в центре города (Гомель), а в Минске мы находимся на Интернациональной (Немига)\n• Гибкое начало рабочего дня\n• Участие в конференциях и митапах\n• Отдых на тимбилдингах и ярких праздниках для всей семьи\n\nписать мне","markup":[{"type":"hashtag","offset":0,"length":9,"data":"вакансия"},{"type":"hashtag","offset":10,"length":4,"data":"IOS"},{"type":"hashtag","offset":16,"length":7,"data":"middle"},{"type":"hashtag","offset":25,"length":5,"data":"офис"},{"type":"hashtag","offset":31,"length":6,"data":"минск"}],"date":"2020-06-19T12:47:42+00:00","link":"tg://resolve?domain=mobile_jobs&post=0","tags":[{"name":"mobile"},{"name":"ios"},{"name":"swift"},{"name":"mvvm"},{"name":"git"}],"cities":[{"code":"minsk"},{"code":"gomel"}],"allowsRemote":true}},{"node":{"id":"26452426752-1001075660570","title":"Php разработчик","text":"#вакансия #php #удаленка #разработчик #remote #symfony #freelance\nВакансия: PHP Developer (Symfony)\nПроект: trivago.com \nФормат работы: удаленная работа\nЗанятость: от 120 часов в месяц\nЗарплатная вилка: до 1500 руб/час (обсуждается)\nАнглийский: interview/meeting speaking\nНа один из самых больших порталов для путешествий trivago.com требуется PHP-разработчиков (Symfony), уровень миддл, сеньор.\nУдаленная работа, проектная занятость (проект 3 месяца, возможно дольше).\nНам важно, чтобы Вы уверенно работали с PHP Symfony, Docker, continuous Integration, имели опыт в API interface. Преимуществом будет опыт работы с порталами бронирования услуг, путешествий.\nОсновные задачи: развитие и поддержка функциональности портала, подробности на интервью.\nРабота под руководством технического директора, находящегося в Германии, поэтому ключевое требование – способность пройти интервью на английском языке и коммуницировать с англоговорящей командой.\nОриентировочная дата начала проекта с 1-ого июля, работа происходит по немецкому времени (с 9:00 по 18:00 по german time), т.е. с 10.00 до 19.00 московского времени. \nНа проекте отличная международная команда и комфортные условия. Оформление по договору.\nЕсли Вам это интересно, буду рада продолжить диалог и ответить на Ваши вопросы! \nКонтакт: Ирина, @ir1na_hr","markup":[{"type":"hashtag","offset":0,"length":9,"data":"вакансия"},{"type":"hashtag","offset":10,"length":4,"data":"php"},{"type":"hashtag","offset":15,"length":9,"data":"удаленка"},{"type":"hashtag","offset":25,"length":12,"data":"разработчик"},{"type":"hashtag","offset":38,"length":7,"data":"remote"},{"type":"hashtag","offset":46,"length":8,"data":"symfony"},{"type":"hashtag","offset":55,"length":10,"data":"freelance"},{"type":"link","offset":108,"length":11,"data":"http://trivago.com"},{"type":"link","offset":322,"length":11,"data":"http://trivago.com"},{"type":"handle","offset":1297,"length":9,"data":"ir1na_hr"}],"date":"2020-06-19T12:43:28+00:00","link":"tg://resolve?domain=php_jobs&post=25227","tags":[{"name":"php"},{"name":"symfony"},{"name":"docker"},{"name":"continuous-integration"}],"cities":[],"allowsRemote":true}},{"node":{"id":"2230321152-1001134745498","title":"Devops инженер","text":"#вакансия #devops\nГород и адрес офиса: #Москва\nФормат работы: #офис возможна частичная удаленка\nЗанятость: #полная\nЗарплатная вилка: от 180 000 до 270 000 на руки\n\nОдним из направлений деятельности Перфоманс Лаб является внедрение практик и инструментов DevOps, позволяющих улучшить time-to-market и повысить эффективность процессов наших клиентов.\nМы ищем сильных инженеров DevOps, умеющих решать сложные задачи в части поставки и внедрения продуктов и готовых к самостоятельному принятию решений и консультированию представителей клиентов.\nНужно будет:\n💪 Помогать командам наших клиентов при внедрении DevOps решений, включающие такие области, как автоматизация процессов сборки и развертывания систем, автоматизированное тестирование, мониторинг и релиз продуктов.\n💪 Устанавливать и настраивать инструменты DevOps.\n💪 Взаимодействовать с разработчиками и системными администраторами, координировать команды из смежных областей при переходе на модель DevOps.\n💪 Подготавливать документацию по проектам и внедрению DevOps решений.\n💪 Разрабатывать скрипты.\nБез чего не обойтись:\n🌟 Опыт развертывания, автоматизация сборки, мониторинга, непрерывной интеграции.\n🌟 Опыт работы с инструментами управления конфигурациями (Ansible или Puppet, Chef).\n🌟 Опыт работы с системами контейнерной виртуализации (Docker, Docker Swarm).\n🌟 Опыт работы с оркестраторами Docker: Kubernetes/Openshift.\n🌟 Опыт работы с CI/CD (Jenkins/Gitlab CI/Bamboo/Teamcity), понимание плюсов и минусов таких инструментов.\n🌟 Знание идеологии и инструментов infrastructure as a code.\n🌟 Хорошее знание Git, Git-Flow.\n🌟 Готовность постоянно самообучаться и помогать другим в освоении современных ИТ-технологий и инструментов.\nЧто мы предлагаем:\n🔥 Возможность попробовать разнообразные системы и технологии на практике.\n🔥 Огромное количество возможностей для обучения и саморазвития.\n🔥 Работа в успешной компании — резиденте Сколково.\n🔥 Официальное трудоустройство по ТК и белая зарплата.\n🔥 3 оплачиваемых отгула в год в дополнение к отпуску.\n🔥 Скидка на изучение английского языка и частичная компенсация ДМС.\n🔥 Курсы, сертификации за счет компании.\n🔥 Индивидуальный план профессионального развития.\n\nНазвание компании: Перфоманс Лаб \nКонтакты: @bystrova_ak / a.bystrova@pflb.ru\n\n—\n\n👉 Обсуждение вакансии в чате @devops_jobs","markup":[{"type":"hashtag","offset":0,"length":9,"data":"вакансия"},{"type":"hashtag","offset":10,"length":7,"data":"devops"},{"type":"hashtag","offset":39,"length":7,"data":"Москва"},{"type":"hashtag","offset":62,"length":5,"data":"офис"},{"type":"hashtag","offset":107,"length":7,"data":"полная"},{"type":"handle","offset":2226,"length":12,"data":"bystrova_ak"},{"type":"link","offset":2241,"length":18,"data":"mailto:a.bystrova@pflb.ru"},{"type":"handle","offset":2294,"length":12,"data":"devops_jobs"}],"date":"2020-06-19T12:25:14+00:00","link":"tg://resolve?domain=devops_jobs_feed&post=2127","tags":[{"name":"ansible"},{"name":"docker"},{"name":"kubernetes"},{"name":"jenkins"},{"name":"gitlab"},{"name":"git"}],"cities":[{"code":"moscow"}],"allowsRemote":true}},{"node":{"id":"71643955200-1001054966032","title":"Android разработчик","text":"#вакансия #android #java #kotlin #middle #senior #удаленка #remote #fulltime\n\nAndroid-разработчик удаленно от 200 тыс. руб.\n\nГород: Москва\nФормат работы: удаленно\nЗанятость: полная\nЗарплатная вилка: от 200 000 руб. до 250 000 руб. после налогообложения\nКомпания: CORE https://core.company\n\nМы команда разработчиков мобильных приложений и сейчас мы ищем Android-разработчика для одного из наших финтех-проектов.\n\nОсновные требования:\n— Опыт работы от 2-х лет;\n— Знание Java и Kotlin;\n— Опыт работы с Rx;\n— Знание шаблонов проектирования и умение их применять;\n— Понимание принципов SOLID;\n— Знание основных алгоритмов и структур данных;\n— Умение писать поддерживаемый и тестируемый код.\n\nУсловия:\n— Полный день, гибкий график;\n— Оформление по договору ГПХ.\n\nПрисылайте ваше резюме на @tv_corecompany","markup":[{"type":"hashtag","offset":0,"length":9,"data":"вакансия"},{"type":"hashtag","offset":10,"length":8,"data":"android"},{"type":"hashtag","offset":19,"length":5,"data":"java"},{"type":"hashtag","offset":25,"length":7,"data":"kotlin"},{"type":"hashtag","offset":33,"length":7,"data":"middle"},{"type":"hashtag","offset":41,"length":7,"data":"senior"},{"type":"hashtag","offset":49,"length":9,"data":"удаленка"},{"type":"hashtag","offset":59,"length":7,"data":"remote"},{"type":"hashtag","offset":67,"length":9,"data":"fulltime"},{"type":"link","offset":268,"length":20,"data":"https://core.company"},{"type":"handle","offset":783,"length":15,"data":"tv_corecompany"}],"date":"2020-06-19T11:49:24+00:00","link":"tg://resolve?domain=mobile_jobs&post=0","tags":[{"name":"mobile"},{"name":"android"},{"name":"java"},{"name":"kotlin"}],"cities":[{"code":"moscow"}],"allowsRemote":true}},{"node":{"id":"103279493120-1001089317451","title":"Qa инженер","text":"🐞🐞🐞#вакансия #QA #Ульяновск #Саранск #Казань #Самара #Уфа #Краснодар #офис #удаленная_работа\n\n🔍Middle QA-специалист🔎\n\n⚡️Компания: Simbirsoft (более 19 лет на рынке, более 700 сотрудников в штате)\n\nОчень ждем тебя, наш будущий коллега и борец за качественное ПО! 🙂\n\n📌Твои будущие задачи:\n• тестирование ПО (frontend, backend, API);\n• локализация и документирование найденных дефектов;\n• ведение и оптимизация тестовой документации;\n• контроль качества на всех этапах разработки ПО;\n• выстраивание и оптимизация процессов тестирования ПО.\n\n📌Что мы ждем от тебя:\n• наличие опыта от 2 лет в направлениях QA или тестирования ПО;\n• понимание разницы между QA и тестированием ПО;\n• понимание особенностей гибких методологий;\n• уверенное владение техниками тест-дизайна;\n• знание клиент-серверной архитектуры;\n• понимание особенностей тестирования web, mobile и desktop приложений;\n• навык тестирования API;\n• написание запросов SQL;\n• опыт работы с системами контроля версий (git);\n• знание основных команд работы с консолью (Windows/Linux).\n\n\n📌Что мы предлагаем:\n• Полностью белая ЗП два раза в месяц;\n• Оформление по ТК РФ;\n• Высокий уровень экспертности внутри компании, которым мы делимся друг с другом;\n• Перспективы вертикального и горизонтального роста;\n• Работа на российских и международных проектах;\n• Оборудованное рабочее место и парк тестовых устройств;\n• Подготовка и прохождение сертификации ISTQB бесплатно;\n• Внутренние и внешние курсы, доклады, конференции;\n• Бесплатные чай, кофе, печеньки в офисе;\n• Корпоративная спортивная программа (оплата тематических секций, частичная компенсация абонемента);\n• Проведение летних и зимних корпоративов, дня именинника, совместные походы и т.д.\n\n📌Зарплата:\n• от 50 000 (Договорная, по итогу собеседования)\n\n\n☎️Контакты:\n@abrmova","markup":[{"type":"hashtag","offset":6,"length":9,"data":"вакансия"},{"type":"hashtag","offset":16,"length":3,"data":"QA"},{"type":"hashtag","offset":20,"length":10,"data":"Ульяновск"},{"type":"hashtag","offset":31,"length":8,"data":"Саранск"},{"type":"hashtag","offset":40,"length":7,"data":"Казань"},{"type":"hashtag","offset":48,"length":7,"data":"Самара"},{"type":"hashtag","offset":56,"length":4,"data":"Уфа"},{"type":"hashtag","offset":61,"length":10,"data":"Краснодар"},{"type":"hashtag","offset":72,"length":5,"data":"офис"},{"type":"hashtag","offset":78,"length":17,"data":"удаленная_работа"},{"type":"handle","offset":1781,"length":8,"data":"abrmova"}],"date":"2020-06-19T11:12:51+00:00","link":"tg://resolve?domain=qa_jobs&post=0","tags":[{"name":"qa"},{"name":"web"},{"name":"mobile"},{"name":"sql"},{"name":"git"},{"name":"windows"},{"name":"linux"}],"cities":[{"code":"ulyanovsk"},{"code":"saransk"},{"code":"kazan"},{"code":"samara"},{"code":"ufa"},{"code":"krasnodar"}],"allowsRemote":true}},{"node":{"id":"71637663744-1001054966032","title":"Mobile разработчик","text":"#вакансия #mobile #ios #swift #fulltime\nГород и адрес офиса: Москва, м. Нахимовский проспект, офис класса А\nФормат работы: офис + возможно частично удаленная работа \nЗанятость: полная, 5/2\nЗП: от 150к до 250к, готовы рассмотреть и выше\n\nКомпания X4Apps специализируется на разработке собственных мобильных приложений и открывает вакансию мобильного разработчика уровня Middle+/Senior, который будет работать над созданием приложений для платформы iOS.\n\nМы практикуем быструю проверку гипотез, быстро создаем приложения, запускаем первых пользователей, смотрим на обратную связь и наращиваем функционал либо переключаемся на разработку новых приложений/новых идей.\n\nОт Вас мы ждем:\n- Способность разработать приложение с нуля и выпустить его в AppStore\n- Знание Objective-C и Swift\n- Суммарный опыт программирования от 3-х лет\n- Умение работать с системой контроля версий git - console, IDE, web (Stash);\n- Понимание принципов ООП и шаблонов проектирования\n- Опыт использования JSON, REST API\n- Опыт написания клиент-серверных приложений\n- Наличие опубликованных приложений в AppStore\n\nБудет плюсом:\n- Желание постоянно учиться и применять новые технологии в своей работе\n- Понимание в разработке пользовательского интерфейса\n- Понимание работы бэкэнда\n\nКонтакт @bambaleeyo","markup":[{"type":"hashtag","offset":0,"length":9,"data":"вакансия"},{"type":"hashtag","offset":10,"length":7,"data":"mobile"},{"type":"hashtag","offset":18,"length":4,"data":"ios"},{"type":"hashtag","offset":23,"length":6,"data":"swift"},{"type":"hashtag","offset":30,"length":9,"data":"fulltime"},{"type":"bold","offset":40,"length":19,"data":""},{"type":"bold","offset":108,"length":13,"data":""},{"type":"bold","offset":166,"length":9,"data":""},{"type":"bold","offset":189,"length":2,"data":""},{"type":"bold","offset":665,"length":14,"data":""},{"type":"bold","offset":1085,"length":12,"data":""},{"type":"bold","offset":1253,"length":7,"data":""},{"type":"handle","offset":1261,"length":11,"data":"bambaleeyo"}],"date":"2020-06-19T11:04:23+00:00","link":"tg://resolve?domain=mobile_jobs&post=0","tags":[{"name":"mobile"},{"name":"ios"},{"name":"swift"},{"name":"objective-c"},{"name":"git"},{"name":"web"},{"name":"json"},{"name":"rest"}],"cities":[{"code":"moscow"}],"allowsRemote":true}},{"node":{"id":"17077108736-1001110946746","title":"Js разработчик","text":"#вакансия  #офис #спб или #удалённо \n#job #fulltime #office #saintpetersburg or #remote \n\nJavaScript разработчик\n\nГород: Санкт-Петербург, м. пл. А. Невского\nФормат работы:  офис или удаленка (по желанию)\nЗанятость полная\nЗ/П: от 150к до 240к руб net\nКомпания: DevUnit\n\nИщу JS разработчика для разработки новой версии ритейл платформы для инвестиций\n\nВакансия включает в себя  работу с высокодинамичными real-time графиками (WebGL, highcharts.js)\nОсновной фреймворк - Vue.JS\nА еще:\nБольшие и непрерывные потоки данных по websocket\nPWA \n\nДля нас важно:\nКоммерческий опыт разработок на JS - от 2 лет \nОпыт работы с популярными фреймворками.\n\nСущественным плюсом будет: \nопыт работы с WebGL\nзнания VueJS\n\nЧто предлагаем: \n- Работу в опытной команде разработчиков\n- Современный стек \n- Возможность влиять на ход разработки \n- Достойную зарплату, с регулярным пересмотром. \n- Комфортное рабочее место, и качественное оборудование ( пл. А. Невского)\n- Также есть возможность работать в режиме хоум-офис\n- Увеличенный срок отпуска до 70-ти дней, в зависимости от продолжительности наших отношений.\n- Компенсацию участия в профильных мероприятиях и конференциях.\n\nИ самое главное: мы заботимся о том, чтобы работа была в радость, и всегда гибко подходим к решению любых  вопросов. \n\nКонтакты:\n@zazajul\njulizun09@gmail.com\n\n—\n\n👉 Обсуждение вакансии в чате @javascript_jobs","markup":[{"type":"hashtag","offset":0,"length":9,"data":"вакансия"},{"type":"hashtag","offset":11,"length":5,"data":"офис"},{"type":"hashtag","offset":17,"length":4,"data":"спб"},{"type":"hashtag","offset":26,"length":9,"data":"удалённо"},{"type":"hashtag","offset":37,"length":4,"data":"job"},{"type":"hashtag","offset":42,"length":9,"data":"fulltime"},{"type":"hashtag","offset":52,"length":7,"data":"office"},{"type":"hashtag","offset":60,"length":16,"data":"saintpetersburg"},{"type":"hashtag","offset":80,"length":7,"data":"remote"},{"type":"handle","offset":1284,"length":8,"data":"zazajul"},{"type":"link","offset":1293,"length":19,"data":"mailto:julizun09@gmail.com"},{"type":"handle","offset":1347,"length":16,"data":"javascript_jobs"}],"date":"2020-06-19T10:52:58+00:00","link":"tg://resolve?domain=javascript_jobs_feed&post=16286","tags":[{"name":"javascript"},{"name":"dotnet"},{"name":"highcharts"},{"name":"vuejs"},{"name":"websocket"}],"cities":[],"allowsRemote":true}},{"node":{"id":"17076060160-1001110946746","title":"Js разработчик","text":"#вакансия #работа #удаленка #backend #node #nodejs #remote\nГород и адрес офиса: Москва, Савеловская\nФормат работы: удаленка\nЗанятость: полная || проектная\nЗарплатная вилка: 100-160 т.р. net\n\nОписание вакансии: \nИщем опытного backend-разработчика node.js для разработки высоконадежных транзакционных сервисов интеграции с различными системами\n\nТребования:\n• Опыт работы с унаследованными системами\n• Знание PHP на уровне понимания и чтения кода будет плюсом\n• Знание и понимание работы сетевых протоколов TCP/IP, HTTP, SMTP, IMAP\n• Знание и понимание языка JavaScript и связанных с ним технологий и фреймворков\n• Опыт разработки серверных приложений\n• Понимание основных процессов разработки, умение работать в команде\n• Понимание принципов ООП, подходов в программировании и требований к транзакционным системам\n\nЗадачи:\n• Разработка высоконадежных транзакционных сервисов интеграции с различными системами\n• Поддержка и модернизация существующих систем\n\nНазвание компании: TechPlatforms (https://techpl.net)\nКонтакты:@desych79\n\n—\n\n👉 Обсуждение вакансии в чате @javascript_jobs","markup":[{"type":"hashtag","offset":0,"length":9,"data":"вакансия"},{"type":"hashtag","offset":10,"length":7,"data":"работа"},{"type":"hashtag","offset":18,"length":9,"data":"удаленка"},{"type":"hashtag","offset":28,"length":8,"data":"backend"},{"type":"hashtag","offset":37,"length":5,"data":"node"},{"type":"hashtag","offset":43,"length":7,"data":"nodejs"},{"type":"hashtag","offset":51,"length":7,"data":"remote"},{"type":"link","offset":989,"length":18,"data":"https://techpl.net"},{"type":"handle","offset":1018,"length":9,"data":"desych79"},{"type":"handle","offset":1062,"length":16,"data":"javascript_jobs"}],"date":"2020-06-19T10:52:00+00:00","link":"tg://resolve?domain=javascript_jobs_feed&post=16285","tags":[{"name":"javascript"},{"name":"nodejs"},{"name":"dotnet"},{"name":"php"},{"name":"smtp"}],"cities":[{"code":"moscow"}],"allowsRemote":true}},{"node":{"id":"17072914432-1001110946746","title":"Js разработчик","text":"#вакансия  #backend #nodejs #javascript #удаленка #js #remote\n\nПозиция: Backend developer (Middle)\nКомпания: paradigmfund.io - инвестиционный фонд с офисами в Москве и Токио.\nФормат работы: Удаленка \nЗанятость: Полная с графиком работы (в выходные отдыхаем, в будни работаем по графику, гибкое начало рабочего дня)\nЗарплатная вилка: 110 000-150 000 руб. на руки\nЗадача: Участвовать в разработке новых и текущих it продуктов компании (криптовалютный кошелек, торговая биржа, обменник валют). \n\nТребования:\n- Опыт программирования на чистом JS не менее 3-х лет\n- Опыт программирования под Node.js не менее года\n- Опыт работы с серверами на Ubuntu\n- Знание SQL и особенностей PostgreSQL\n- Умение оптимизировать тяжелые запросы к базе\n- Хороший навык чтения чужого кода и модернизации его\n- Навык анализа новых структур данных и чужих API\n- Навык работы с Git\n- Гибкость, отзывчивость и хорошие soft skills, мы ценим дружелюбную и продуктивную среду, которую мы создали в команде, и надеемся, что вы гармонично в нее впишетесь.\n\nЖелательно:\n- Знание html, css, vue.js\n- Навык работы с docker'ами\n- Умение настраивать NGINX\n- Навык написание unit тестов\n- Навык поиска утечек памяти\n\nПомимо всего вышесказанного, у нас вы получите:\n- Работа в дружной команде, как разработчиков так и управленцев. \n- Профессиональное развитие и новые знания касаемо blockchain технологий.\n- Возможность релокации в офис в Москве.\n- Понятные процессы разработки (Agile, двухнедельные спринты, работаем в Jira и Confluence). \n\nКонтакты:\nМы стремимся постоянно автоматизировать и улучшать наши процессы, поэтому отклик на вакансию просим оставлять через форму: https://forms.gle/L9hWmD18Zs9kMo2E8\nС подходящими кандидатами свяжемся в течение недели, если возникли какие то вопросы, с радостью отвечу на них в лс @grshabl\n\n—\n\n👉 Обсуждение вакансии в чате @javascript_jobs","markup":[{"type":"hashtag","offset":0,"length":9,"data":"вакансия"},{"type":"hashtag","offset":11,"length":8,"data":"backend"},{"type":"hashtag","offset":20,"length":7,"data":"nodejs"},{"type":"hashtag","offset":28,"length":11,"data":"javascript"},{"type":"hashtag","offset":40,"length":9,"data":"удаленка"},{"type":"hashtag","offset":50,"length":3,"data":"js"},{"type":"hashtag","offset":54,"length":7,"data":"remote"},{"type":"link","offset":109,"length":15,"data":"http://paradigmfund.io"},{"type":"link","offset":1636,"length":35,"data":"https://forms.gle/L9hWmD18Zs9kMo2E8"},{"type":"handle","offset":1787,"length":8,"data":"grshabl"},{"type":"handle","offset":1830,"length":16,"data":"javascript_jobs"}],"date":"2020-06-19T10:46:36+00:00","link":"tg://resolve?domain=javascript_jobs_feed&post=16282","tags":[{"name":"javascript"},{"name":"nodejs"},{"name":"ubuntu"},{"name":"sql"},{"name":"postgresql"},{"name":"git"},{"name":"html"},{"name":"css"},{"name":"vuejs"},{"name":"docker"},{"name":"nginx"}],"cities":[{"code":"tokyo"}],"allowsRemote":true}},{"node":{"id":"17070817280-1001110946746","title":"Js developer","text":"#вакансия #js #frontend #react\n\nПозиция: Middle React Developer\n\nФормат работы: удаленно (дэйли митинги в начале дня)\n\nЗанятость: полная, проектная\n\nТребования:\n- уверенные знания ECMAScript\n- уверенные знания React/Redux \n- знания git и git-flow (squash, merge, etc)\n- инициативность и способность общаться с командой\n- умение писать чистый и поддерживаемый код\n- умение выполнять задачи\n\nНеплохо, если вы:\n- умеете работать с веб-сокетами (потребуется в дальнейшем)\n- знаете TypeScript (возможно потребуется в дальнейшем)\n- знаете CSS/Sass и умеете верстать\n\nОбязанности:\n- разработка приложения на React+Redux\n- коммуникация с командой, принятие решений в проектировании API\n\nРабочий график: 10:00 - 18:00 Пн-Пт\n\nОплата: 1500$ - 2000$ (на руки)\n\nКонтакты: @heavycharged\n\n—\n\n👉 Обсуждение вакансии в чате @javascript_jobs","markup":[{"type":"hashtag","offset":0,"length":9,"data":"вакансия"},{"type":"hashtag","offset":10,"length":3,"data":"js"},{"type":"hashtag","offset":14,"length":9,"data":"frontend"},{"type":"hashtag","offset":24,"length":6,"data":"react"},{"type":"handle","offset":759,"length":13,"data":"heavycharged"},{"type":"handle","offset":807,"length":16,"data":"javascript_jobs"}],"date":"2020-06-19T10:45:28+00:00","link":"tg://resolve?domain=javascript_jobs_feed&post=16280","tags":[{"name":"javascript"},{"name":"reactjs"},{"name":"redux"},{"name":"git"},{"name":"typescript"},{"name":"css"},{"name":"sass"},{"name":"react-redux"}],"cities":[],"allowsRemote":true}}]}},"context":{}}