{"hash":"f5f6bf98bd95e769321482904cbbd488f77922fd","data":{"records":{"id":"sql-server","name":"sql-server","belongsTo":{"totalCount":16,"pageInfo":{"totalPages":2,"currentPage":1},"edges":[{"node":{"__typename":"Job","id":"104366866432-1001089317451","title":"Qa engineer","text":"#вакансия #QA #Краснодар #Krasnodar #fulltime #java #sql #API #web #mobile #Functionaltesting\n\n✅Вакансия: QA engineer \n✅Город: Краснодар (релокация)\n✅Занятость: полная, офис\n✅ЗП вилка: 80 000 - 100 000р. gross (обсуждаема)\n✅КА: IT.Huntme\n\nИщем функционального тестировщика, но если у него есть еще и знания автотестирования, то это доп. бонус (и в этом случае смотрим требования ниже для такого опыта).\n\nЗадачи:\n· Обеспечение качества разработки ПО;\n· Проведение системного, интеграционно-функционального, регрессионного тестирования в рамках регулярных интеграционных релизов, приветствуется желание участвовать в автоматизации процесса тестирования;\n· Автоматизация процессов функционального тестирования, разработка автотестов, заглушек, поддержка framework (для автотестировщиков)\n· Активное взаимодействие внутри команды и за ее пределами (аналитики, разработчики, тестировщики интеграционных проектов, работа в Agile команде);\n· Анализ бизнес требований, функциональных требований и технических заданий;\n· Ведение BUG-трекера; контроль, тестирование исправления дефектов;\n· Выявление и эскалация проблем, подготовка заключений качества тестирования.\n\n🙌Наши ожидания:\n· Опыт работы в сфере тестирования и /или аналитики от 1 года;\n· Знание теоретических основ тестирования, практик и инструментов;\n· Опыт подготовки тестовых моделей для тестирования нового функционала;\n· Умение грамотно описывать тестовую модель и дефекты;\n· Знание техник тест-дизайна и умение применять их на практике;\n· Опыт работы с багтрекинговыми системами и системами управления тестированием (HP ALM, Atlassian Jira или аналогичными): разработка тестов, кроссировка требований с тестами и работа с дефектами);\n· Знание SQL (написание запросов средней сложности, на уровне join)\n· Представление о взаимодействии интеграционных решений (front-end);\n· Опыт или хорошее представление о тестировании SOAP/REST веб-сервисов, работа с XML;\n\nДополнительно для автоматизаторов:\n· Опыт программирования на Java или\\и Python - практический навык написания автотестов с использованием хотя бы одного языка\n\nБудет плюсом:\n· Опыт работы в сфере тестирования более 1 года;\n· Практический опыт тестирования интеграционных решений на уровне UI и API;\n· Опыт системного и интеграционного тестирования релизов, в том числе взаимодействие фронт-офисных и бэк-офисных систем;\n· Опыт анализа большого объема документации и подготовки тестовой модели;\n· Знание SQL на более продвинутых уровнях (составление запросов различной сложности, объединение нескольких таблиц – от 3-х и более, вложенные запросы, фильтрация по нескольким полям, умение работать с разным форматом дат, создание/удаление редактирование таблиц, создание процедур), опыт работы с СУБД Oracle/MS SQL Server;\n· Опыт работы с десктопными приложениями или WEB-приложениями;\n· Опыт работы с расчетами комиссий, налогов;\n· Опыт работы с Diasoft 5NT\n· Опыт разработки авто-тестов по методологии BDD (Java + Spring Framework + Cucumber);\n· Опыт разработки эмуляторов/заглушек;\n· Практический опыт автоматизации тестирования на одном из инструменте: Selenium, cucumber, Junit, TestNG, Espresso, Earl Grey;\n· Практический опыт внедрения инструментов и практик DevOps;\n\n👍Что мы готовы предложить:\n- Работу в крупной компании с возможностью поработать в распределенной команде на крупном проекте; \n- Работу с новейшими технологиями и участие в проектах из разных областей;\n- Полное соблюдение ТК РФ; \n- Белая зарплата, отпускные и больничный + Социальный пакет;\n- ДМС с первого дня работы в компании;\n- Курсы английского языка.\n✍️Контакты: @mary_itfox или it.huntme@gmail.com","markup":[{"type":"hashtag","offset":0,"length":9,"data":"вакансия"},{"type":"hashtag","offset":10,"length":3,"data":"QA"},{"type":"hashtag","offset":14,"length":10,"data":"Краснодар"},{"type":"hashtag","offset":25,"length":10,"data":"Krasnodar"},{"type":"hashtag","offset":36,"length":9,"data":"fulltime"},{"type":"hashtag","offset":46,"length":5,"data":"java"},{"type":"hashtag","offset":52,"length":4,"data":"sql"},{"type":"hashtag","offset":57,"length":4,"data":"API"},{"type":"hashtag","offset":62,"length":4,"data":"web"},{"type":"hashtag","offset":67,"length":7,"data":"mobile"},{"type":"hashtag","offset":75,"length":18,"data":"Functionaltesting"},{"type":"handle","offset":3565,"length":11,"data":"mary_itfox"},{"type":"link","offset":3581,"length":19,"data":"mailto:it.huntme@gmail.com"}],"date":"2020-07-03T11:30:48+00:00","link":"tg://resolve?domain=qa_jobs&post=99532","tags":[{"name":"qa"},{"name":"java"},{"name":"sql"},{"name":"web"},{"name":"mobile"},{"name":"soap"},{"name":"rest"},{"name":"xml"},{"name":"python"},{"name":"oracle"},{"name":"spring"},{"name":"cucumber"},{"name":"selenium"},{"name":"junit"},{"name":"sql-server"}],"cities":[{"code":"krasnodar"}],"allowsRemote":false}},{"node":{"__typename":"Job","id":"26920091648-1001075660570","title":"Php developer","text":"#вакансия #удаленно #php\n\nСтабильная растущая IT компания (не стартап) ищет в свою ламповую команду Middle/Senior Backend PHP Developer (или Fullstack с уклоном в Backend) на fulltime.\n\nКлючевые навыки:\n– SQL (PostgreSQL),\n– PHP 7,\n– Symfony 2,\n– умение ориентироваться в базах данных и их проектировании,\n– умение преобразовывать техническое задание в план работ.\n\nБудет плюсом:\n– MySQL,\n– MSSQL,\n– PHP 5,\n– опыт оценки временных затрат на выполнение задач.\n\nСтек технологий:\n– PHP 7.2,\n– PostgreSQL,\n– JS,\n– Bootstrap,\n– Symfony 2.\n\nОт нас:\n– удалённая работа,\n– свободный график,\n– гибкость в профессиональном росте,\n– ламповое общение внутри команды,\n– возможность переключения между проектами,\n– сложные и интересные задачи,\n– поддержка в развитии профессиональных навыков и обучении перспективным для проектов технологиям,\n– возможность влиять на стек технологий проектов,\n– зарплатная вилка в зависимости от прохождения собеседования $12 - $15 в час,\n– полная занятость.\n\nКратко о нас:\n– компания с выстроенным процессом управления, коммуникацией и delivery,\n– специализация: бизнес анализ, развитие, модернизация и поддержка авторских приложений,\n– мы более 10 лет на рынке IT США и Европы,\n– проекты с надёжными заказчиками,\n– русскоязычная команда, которая любит своё дело,\n– основное направление работы – развитие, модернизация и поддержка авторского web-приложения.\n\nЖдём твоего резюме на career@tomita.pro!","markup":[{"type":"hashtag","offset":0,"length":9,"data":"вакансия"},{"type":"hashtag","offset":10,"length":9,"data":"удаленно"},{"type":"hashtag","offset":20,"length":4,"data":"php"},{"type":"link","offset":1401,"length":17,"data":"mailto:career@tomita.pro"}],"date":"2020-07-01T15:47:46+00:00","link":"tg://resolve?domain=php_jobs&post=25673","tags":[{"name":"php"},{"name":"sql"},{"name":"postgresql"},{"name":"symfony"},{"name":"mysql"},{"name":"sql-server"},{"name":"bootstrap"},{"name":"web"}],"cities":[],"allowsRemote":true}},{"node":{"__typename":"Job","id":"2265972736-1001134745498","title":"Devops инженер","text":"#вакансия #Remote #работаDevOps  #удаленка \nКомпания: IDG\nФормат работы: удаленка\nЗанятость: полная\nЗарплатная вилка: $2500 до $4000\n\n👋Всем привет. \nМы занимаемся разработкой собственных образовательных проектов, а также проектов для клиентов - технологических, финансовых и аудиторских компаний.\nСейчас мы ищем DevOps инженера в дополнение к нашей текущей DevOps-команде, который будет вместе с нами делать cross-cloud big-data/ai платформу для одного из наших крупных постоянных клиентов.\nУ нас всё в k8s. Помимо этого есть spark, несколько баз данных и еще куча всего интересного. Разворачиваем с помощью Terraform/Ansible/Helm\n\n📍Требования:\n\n- Опыт работы с AWS/Azure/GCE - от 2+ лет;\n- Опыт работы с Kubernetes - от 2+ лет\n- Опыт работы со Spark - от 1 года\n- Имеет опыт настройки и администрирования БД (Mongo, Redis, Rabbit, SQL Server, Postgres, MySQL, Elastic Search)\n- Опыт разработки на Python или других подобных языках;\n- Опыт организации процесса CI/CD (jenkins, teamcity).\n- Английский на уровне Intermediate и выше.\nБудет плюсом: \n\n- Опыт работы в крупных международных компаниях;\n- Опыт работы с технологиями Big Data;\n\n📌Что мы предлагаем:\n\n- Интересные задачи и возможность реализовать свой потенциал в международных проектах компании и внутренних стартапах;\n- Гибкий график (начало и конец рабочего дня согласовываются с менеджером и командой проекта)\n- Полностью удаленная работа\n- Дополнительные выплаты за профессиональные успехи\n\nКонтакт: @IDGAccount\n\n—\n\n👉 Обсуждение вакансии в чате @devops_jobs","markup":[{"type":"hashtag","offset":0,"length":9,"data":"вакансия"},{"type":"hashtag","offset":10,"length":7,"data":"Remote"},{"type":"hashtag","offset":18,"length":13,"data":"работаDevOps"},{"type":"hashtag","offset":33,"length":9,"data":"удаленка"},{"type":"handle","offset":1465,"length":11,"data":"IDGAccount"},{"type":"handle","offset":1511,"length":12,"data":"devops_jobs"}],"date":"2020-06-30T11:03:34+00:00","link":"tg://resolve?domain=devops_jobs_feed&post=2161","tags":[{"name":"cloud"},{"name":"ansible"},{"name":"amazon-web-services"},{"name":"azure"},{"name":"kubernetes"},{"name":"redis"},{"name":"rabbitmq"},{"name":"sql"},{"name":"postgresql"},{"name":"mysql"},{"name":"elasticsearch"},{"name":"python"},{"name":"jenkins"},{"name":"sql-server"}],"cities":[],"allowsRemote":true}},{"node":{"__typename":"Job","id":"17226006528-1001110946746","title":"Js разработчик","text":"#вакансия #frontend  #React #офис #remote #Спб #senior \n\nКомпания: DBeaver\nЗ/п: 180 000 - 300 000 рублей на руки \nГород и адрес офиса: г. Санкт-Петербург (м. Площадь Ленина/Новочеркасская)\nФормат работы: офис или удаленка \nЗанятость: полная, fulltime\n\n🌏DВeaver  - это международный open source проект, бесплатный многоплатформенный инструмент для работы с базами данных. Поддерживает все популярные базы данных: MySQL, PostgreSQL, MariaDB, SQLite, Oracle, DB2, SQL Server, Sybase, MS Access, Teradata, Firebird, Derby и т. д. Платформа интегрируется с Amazon сервисами и нацелена на облачные решения. \n\nCейчас ребята разрабатывают web решение DВeaver, первый релиз состоялся в начале года и компания активно продолжает развитие. \n\n💠Какой опыт и знания ожидают увидеть ребята:\n- опыт работы с TypeScript и React;\n- опыт участия в многокомпонентных проектах со сложной бизнес-логикой;\n- опыт проектирования и рефакторинга;\n- готовность возглавить разработку интерфейсной части продукта, принимать ключевые архитектурные решения;\n- английский язык от уровня intermediate (письменный и на уровне чтения).\n\nСтек технологий: TypeScript, React, GraphQL, MobX, RxJS, Docker. \n\n💎Что получите вы:\n- комфортный офис в БЦ Бенуа;\n- возможность частично или полностью удаленной работы; \n- официальное оформление;\n- возможность поработать над крутым международным продуктом в сплоченной команде энтузиастов;\n- профессиональные командировки и конференции в США и Европу.\n\nКонтакты:\ne-mail: valeriya@luckyhunter.io\ntelegram: @sobolevavalery\nКА: http://luckyhunter.io\nБуду рада ответить на все вопросы и рассказать подробнее о компании 😊","markup":[{"type":"hashtag","offset":0,"length":9,"data":"вакансия"},{"type":"hashtag","offset":10,"length":9,"data":"frontend"},{"type":"hashtag","offset":21,"length":6,"data":"React"},{"type":"hashtag","offset":28,"length":5,"data":"офис"},{"type":"hashtag","offset":34,"length":7,"data":"remote"},{"type":"hashtag","offset":42,"length":4,"data":"Спб"},{"type":"hashtag","offset":47,"length":7,"data":"senior"},{"type":"link","offset":1477,"length":23,"data":"mailto:valeriya@luckyhunter.io"},{"type":"handle","offset":1511,"length":15,"data":"sobolevavalery"},{"type":"link","offset":1531,"length":21,"data":"http://luckyhunter.io"}],"date":"2020-06-29T15:33:08+00:00","link":"tg://resolve?domain=javascript_jobs_feed&post=16428","tags":[{"name":"javascript"},{"name":"reactjs"},{"name":"mysql"},{"name":"postgresql"},{"name":"mariadb"},{"name":"sqlite"},{"name":"oracle"},{"name":"sql"},{"name":"ms-access"},{"name":"web"},{"name":"typescript"},{"name":"graphql"},{"name":"rxjs"},{"name":"docker"},{"name":"sql-server"}],"cities":[],"allowsRemote":true}},{"node":{"__typename":"Job","id":"108252889088-1001119539411","title":".net разработчик","text":"#вакансия #fulltime #офис #remote \n\nЛокация: Казань, ст. м. Козья Слобода; Иннополис;\nФормат работы: офис или remote, фуллтайм \nЗанятость: полная, гибкое начало дня\nЗП: до 160 000 Net \n\n🚀Компания Ак Барс Цифровые Технологии запускает новый большой проект по трансформации архитектуры розничного бизнеса (физические лица) и переезд всех процессов на новую технологическую платформу. В рамках проекта будет сформировано 8 команд, занимающихся разными задачами по платежным решениям, каталогам продуктов, работой с электронными досье клиента, операционному обслуживанию и др.\n\nВ связи с чем компания в поисках Middle .Net разработчиков с коммерческим опытом работы от 2 лет. \n\nСтек технологий: C#, ASP.NET MVC / Core, Web API, MS SQLServer / PostgreSql, Entity Framework, JS /React, RabbitMQ\n\n✅Ребята ищут специалиста с опытом разработки веб-платформ, которому знаком .NET, ASP.NET Core, MS SQL Server. Команды гибко рассматривают кандидатов, готовы обучать и делиться опытом. \n\n✅АК Барс Цифровые технологии предлагают отличные условия:\n- официальное оформление и полностью белую зп;\n- гибкий график работы, позитивная атмосфера, дружный молодой коллектив;\n- возможность работать удаленно или в комфортном офисе в Казани;\n- помощь с релокацией, если вы из другого города; \n- возможность быстро «прокачаться» в скиллах на интересных проектах и другие приятные плюшки и бонусы.\n\nКонтакты:\ne-mail: valeriya@luckyhunter.io\ntelegram: @sobolevavalery\nБуду рада ответить на все вопросы и комментарии! 😊","markup":[{"type":"hashtag","offset":0,"length":9,"data":"вакансия"},{"type":"hashtag","offset":10,"length":9,"data":"fulltime"},{"type":"hashtag","offset":20,"length":5,"data":"офис"},{"type":"hashtag","offset":26,"length":7,"data":"remote"},{"type":"bold","offset":675,"length":15,"data":""},{"type":"link","offset":696,"length":7,"data":"http://ASP.NET"},{"type":"link","offset":872,"length":7,"data":"http://ASP.NET"},{"type":"link","offset":1393,"length":23,"data":"mailto:valeriya@luckyhunter.io"},{"type":"handle","offset":1427,"length":15,"data":"sobolevavalery"}],"date":"2020-06-29T15:13:52+00:00","link":"tg://resolve?domain=microsoftstackjobs&post=103238","tags":[{"name":"dotnet"},{"name":"csharp"},{"name":"web"},{"name":"sql-server"},{"name":"postgresql"},{"name":"reactjs"},{"name":"rabbitmq"},{"name":"sql"},{"name":"asp-net"},{"name":"entity-framework"},{"name":"net-core"},{"name":"asp-net-mvc"},{"name":"asp-net-core"}],"cities":[{"code":"kazan"}],"allowsRemote":true}},{"node":{"__typename":"Job","id":"1735393280-1001091028994","title":"Java разработчик","text":"#java #senior #backend #js #Москва #fulltime #офис #angular\nЛокация: Москва, м. Шаболовская\nФормат работы: Office\nЗанятость: Fulltime\nЗарплата от 100 к до 240 к\nОписание вакансии:\nРазработчик JAVA (senior\\middle)\nНаш клиент - международная компания, в связи с расширением деятельности в России - приглашает опытных Java-разработчиков. \nРазработка собственного продукта - коммерческого приложения на основе Angular front + Java backend.\nОбязанности:\n- разработка новых компонентов системы\n- доработка и оптимизация существующих компонентов\n- поддержка качества кода (code review, использование систем автоматизированного контроля кода)\n- Написание юнит-тестов и функциональных тестов\n- Взаимодействие с бизнес-аналитиками для выполнения техзадания\nТребования:\n- Высшее образование\n- Командность, гибкость подходов и мышления\n- опыт разработки на java от 3 лет\nТехнические требования:\n- знание java 8, Spring-*(Boot, Data, Rest), Hibernate\n- опыт работы с SQL (SQL Server, Oracle или postgresql)\n- понимание основ микросервисной архитектуры\n- Git\n-если ты умеешь работать с Docker и понимаешь практики DevOps ты тот, кто нам нужен.\nАдекватных руководителей, сильную команду и офисные плюшки гарантируем\nКА Wit recruitment\nКонтакты m.buldenko@witrec.com\n@marinabuldenko","markup":[{"type":"hashtag","offset":0,"length":5,"data":"java"},{"type":"hashtag","offset":6,"length":7,"data":"senior"},{"type":"hashtag","offset":14,"length":8,"data":"backend"},{"type":"hashtag","offset":23,"length":3,"data":"js"},{"type":"hashtag","offset":27,"length":7,"data":"Москва"},{"type":"hashtag","offset":35,"length":9,"data":"fulltime"},{"type":"hashtag","offset":45,"length":5,"data":"офис"},{"type":"hashtag","offset":51,"length":8,"data":"angular"},{"type":"link","offset":1229,"length":21,"data":"mailto:m.buldenko@witrec.com"},{"type":"handle","offset":1251,"length":15,"data":"marinabuldenko"}],"date":"2020-06-25T09:30:21+00:00","link":"tg://resolve?domain=jvmjobs&post=1655","tags":[{"name":"java"},{"name":"jvm"},{"name":"angularjs"},{"name":"spring"},{"name":"rest"},{"name":"hibernate"},{"name":"sql"},{"name":"oracle"},{"name":"postgresql"},{"name":"git"},{"name":"docker"},{"name":"spring-boot"},{"name":"sql-server"}],"cities":[{"code":"moscow"}],"allowsRemote":false}},{"node":{"__typename":"Job","id":"17128488960-1001110946746","title":"Js разработчик","text":"#вакансия #frontend  #React #офис #remote #Спб #senior \n\nКомпания: DBeaver\nЗ/п: 180 000 - 300 000 рублей на руки \nГород и адрес офиса: г. Санкт-Петербург (м. Площадь Ленина/Новочеркасская)\nФормат работы: офис или удаленка \nЗанятость: полная, fulltime\n\n🌏DВeaver  - это международный open source проект, бесплатный многоплатформенный инструмент для работы с базами данных. Поддерживает все популярные базы данных: MySQL, PostgreSQL, MariaDB, SQLite, Oracle, DB2, SQL Server, Sybase, MS Access, Teradata, Firebird, Derby и т. д. Платформа интегрируется с Amazon сервисами и нацелена на облачные решения. \n\nCейчас ребята разрабатывают web решение DВeaver, первый релиз состоялся в начале года и компания активно продолжает развитие. \n\n💠Какой опыт и знания ожидают увидеть ребята:\n- опыт работы с TypeScript и React;\n- опыт участия в многокомпонентных проектах со сложной бизнес-логикой;\n- опыт проектирования и рефакторинга;\n- готовность возглавить разработку интерфейсной части продукта, принимать ключевые архитектурные решения;\n- английский язык от уровня intermediate (письменный и на уровне чтения).\n\nСтек технологий: TypeScript, React, GraphQL, MobX, RxJS, Docker. \n\n💎Что получите вы:\n- комфортный офис в БЦ Бенуа;\n- возможность частично или полностью удаленной работы; \n- официальное оформление;\n- возможность поработать над крутым международным продуктом в сплоченной команде энтузиастов;\n- профессиональные командировки и конференции в США и Европу.\n\nКонтакты:\ne-mail: valeriya@luckyhunter.io\ntelegram: @sobolevavalery\nКА: http://luckyhunter.io\nБуду рада ответить на все вопросы и рассказать подробнее о компании 😊","markup":[{"type":"hashtag","offset":0,"length":9,"data":"вакансия"},{"type":"hashtag","offset":10,"length":9,"data":"frontend"},{"type":"hashtag","offset":21,"length":6,"data":"React"},{"type":"hashtag","offset":28,"length":5,"data":"офис"},{"type":"hashtag","offset":34,"length":7,"data":"remote"},{"type":"hashtag","offset":42,"length":4,"data":"Спб"},{"type":"hashtag","offset":47,"length":7,"data":"senior"},{"type":"link","offset":1477,"length":23,"data":"mailto:valeriya@luckyhunter.io"},{"type":"handle","offset":1511,"length":15,"data":"sobolevavalery"},{"type":"link","offset":1531,"length":21,"data":"http://luckyhunter.io"}],"date":"2020-06-24T10:45:59+00:00","link":"tg://resolve?domain=javascript_jobs_feed&post=16335","tags":[{"name":"javascript"},{"name":"reactjs"},{"name":"mysql"},{"name":"postgresql"},{"name":"mariadb"},{"name":"sqlite"},{"name":"oracle"},{"name":"sql"},{"name":"ms-access"},{"name":"web"},{"name":"typescript"},{"name":"graphql"},{"name":"rxjs"},{"name":"docker"},{"name":"sql-server"}],"cities":[],"allowsRemote":true}},{"node":{"__typename":"Job","id":"108047368192-1001119539411","title":".net разработчик","text":"#вакансия #fulltime #офис #remote \n\nЛокация: Казань, ст. м. Козья Слобода; Иннополис;\nФормат работы: офис или remote, фуллтайм \nЗанятость: полная, гибкое начало дня\nЗП: до 160 000 Net \n\n🚀Компания Ак Барс Цифровые Технологии запускает новый большой проект по трансформации архитектуры розничного бизнеса (физические лица) и переезд всех процессов на новую технологическую платформу. В рамках проекта будет сформировано 8 команд, занимающихся разными задачами по платежным решениям, каталогам продуктов, работой с электронными досье клиента, операционному обслуживанию и др.\n\nВ связи с чем компания в поисках Middle .Net разработчиков с коммерческим опытом работы от 2 лет. \n\nСтек технологий: C#, ASP.NET MVC / Core, Web API, MS SQLServer / PostgreSql, Entity Framework, JS /React, RabbitMQ\n\n✅Ребята ищут специалиста с опытом разработки веб-платформ, которому знаком .NET, ASP.NET Core, MS SQL Server. Команды гибко рассматривают кандидатов, готовы обучать и делиться опытом. \n\n✅АК Барс Цифровые технологии предлагают отличные условия:\n- официальное оформление и полностью белую зп;\n- гибкий график работы, позитивная атмосфера, дружный молодой коллектив;\n- возможность работать удаленно или в комфортном офисе в Казани;\n- помощь с релокацией, если вы из другого города; \n- возможность быстро «прокачаться» в скиллах на интересных проектах и другие приятные плюшки и бонусы.\n\nКонтакты:\ne-mail: valeriya@luckyhunter.io\ntelegram: @sobolevavalery\nБуду рада ответить на все вопросы и комментарии! 😊","markup":[{"type":"hashtag","offset":0,"length":9,"data":"вакансия"},{"type":"hashtag","offset":10,"length":9,"data":"fulltime"},{"type":"hashtag","offset":20,"length":5,"data":"офис"},{"type":"hashtag","offset":26,"length":7,"data":"remote"},{"type":"bold","offset":675,"length":15,"data":""},{"type":"link","offset":696,"length":7,"data":"http://ASP.NET"},{"type":"link","offset":872,"length":7,"data":"http://ASP.NET"},{"type":"link","offset":1393,"length":23,"data":"mailto:valeriya@luckyhunter.io"},{"type":"handle","offset":1427,"length":15,"data":"sobolevavalery"}],"date":"2020-06-24T10:23:42+00:00","link":"tg://resolve?domain=microsoftstackjobs&post=103042","tags":[{"name":"dotnet"},{"name":"csharp"},{"name":"web"},{"name":"sql-server"},{"name":"postgresql"},{"name":"reactjs"},{"name":"rabbitmq"},{"name":"sql"},{"name":"asp-net"},{"name":"entity-framework"},{"name":"net-core"},{"name":"asp-net-mvc"},{"name":"asp-net-core"}],"cities":[{"code":"kazan"}],"allowsRemote":true}},{"node":{"__typename":"Job","id":"107685609472-1001119539411","title":".net программист","text":"#вакансия #Беларусь #fulltime #офис #remote #dotnet\nЛокация: удалёнка (для особо желающих есть и офис)\nВакансия открыта только для резидентов РБ (ну или для всех, кто сможет открыть себе валютный счёт в белорусском банке)\n\nКомпания Capital Asset Exchange and Trading (CAE, caeonline.com) ищет:\n🔥 fullstack (C# Angular REST SQL) программистов (открыто несколько вакансий уровня middle и senior) в наш Отдел разработки программного обеспечения. Команда занимается разработкой и поддержкой специализированного ПО для нашей компании. Technology stack: .NET/C#, Angular, ASP.NET Core, MVC, SQL Server, MS Azure.\n\nЗарплата от 1500 долларов чистыми и выше, в зависимости от опыта работы соискателя.\n\nОбращайтесь за подробностями!","markup":[{"type":"hashtag","offset":0,"length":9,"data":"вакансия"},{"type":"hashtag","offset":10,"length":9,"data":"Беларусь"},{"type":"hashtag","offset":20,"length":9,"data":"fulltime"},{"type":"hashtag","offset":30,"length":5,"data":"офис"},{"type":"hashtag","offset":36,"length":7,"data":"remote"},{"type":"hashtag","offset":44,"length":7,"data":"dotnet"},{"type":"link","offset":273,"length":13,"data":"http://caeonline.com"},{"type":"link","offset":567,"length":7,"data":"http://ASP.NET"}],"date":"2020-06-21T13:39:05+00:00","link":"tg://resolve?domain=microsoftstackjobs&post=0","tags":[{"name":"dotnet"},{"name":"csharp"},{"name":"angularjs"},{"name":"rest"},{"name":"sql"},{"name":"azure"},{"name":"asp-net"},{"name":"net-core"},{"name":"sql-server"},{"name":"asp-net-core"}],"cities":[],"allowsRemote":true}},{"node":{"__typename":"Job","id":"2232418304-1001134745498","title":"Devops инженер","text":"#вакансия #Remote #работаDevOps  #удаленка \n\nКомпания: IDG\nФормат работы: удаленка\nЗанятость: полная\nЗарплатная вилка: $2500 до $4000\n\n👋Всем привет. Меня зовут Гульназ. \nМы занимаемся разработкой собственных образовательных проектов, а также проектов для клиентов - технологических, финансовых и аудиторских компаний.\nСейчас мы ищем DevOps инженера в дополнение к нашей текущей DevOps-команде, который будет вместе с нами делать cross-cloud big-data/ai платформу для одного из наших крупных постоянных клиентов.\nУ нас всё в k8s. Помимо этого есть spark, несколько баз данных и еще куча всего интересного. Разворачиваем с помощью Terraform/Ansible/Helm\n\n📍Требования:\n\n- Опыт работы с AWS/Azure/GCE - от 2+ лет;\n- Опыт работы с Kubernetes - от 2+ лет\n- Опыт работы со Spark - от 1 года\n- Имеет опыт настройки и администрирования БД (Mongo, Redis, Rabbit, SQL Server, Postgres, MySQL, Elastic Search)\n- Опыт разработки на Python или других подобных языках;\n- Опыт организации процесса CI/CD (jenkins, teamcity).\n- Английский на уровне Intermediate и выше.\n\nБудет плюсом: \n\n- Опыт работы в крупных международных компаниях;\n- Опыт работы с технологиями Big Data;\n\n📌Что мы предлагаем:\n\n- Интересные задачи и возможность реализовать свой потенциал в международных проектах компании и внутренних стартапах;\n- Гибкий график (начало и конец рабочего дня согласовываются с менеджером и командой проекта)\n- Полностью удаленная работа\n- Дополнительные выплаты за профессиональные успехи\n\nКонтакт: @IDGAccount\n\n—\n\n👉 Обсуждение вакансии в чате @devops_jobs","markup":[{"type":"hashtag","offset":0,"length":9,"data":"вакансия"},{"type":"hashtag","offset":10,"length":7,"data":"Remote"},{"type":"hashtag","offset":18,"length":13,"data":"работаDevOps"},{"type":"hashtag","offset":33,"length":9,"data":"удаленка"},{"type":"handle","offset":1487,"length":11,"data":"IDGAccount"},{"type":"handle","offset":1533,"length":12,"data":"devops_jobs"}],"date":"2020-06-19T14:40:37+00:00","link":"tg://resolve?domain=devops_jobs_feed&post=2129","tags":[{"name":"cloud"},{"name":"ansible"},{"name":"amazon-web-services"},{"name":"azure"},{"name":"kubernetes"},{"name":"redis"},{"name":"rabbitmq"},{"name":"sql"},{"name":"postgresql"},{"name":"mysql"},{"name":"elasticsearch"},{"name":"python"},{"name":"jenkins"},{"name":"sql-server"}],"cities":[],"allowsRemote":true}}]}}},"context":{}}