{"hash":"f5f6bf98bd95e769321482904cbbd488f77922fd","data":{"records":{"totalCount":669,"pageInfo":{"totalPages":67,"currentPage":2},"edges":[{"node":{"id":"104341700608-1001089317451","title":"Qa инженер","text":"#вакансия #fulltime #офис #москва #qa #middle\n\nКомпания «Ростелеком Информационные Технологии».\nИщу в команду по тестированию камер видеонаблюдения ручного тестировщика.\n\nТребования:\n- знание теории тестирования\n- владение техниками тест-дизайна и опыт написания тестовых сценариев\n- опыт работы с системами баг-трекинга\n- понимание устройства сетей, базовые навыки работы с сетевым оборудованием, знание основных сетевых протоколов\n- опыт тестирования restapi, знание основ протокола http, кодов ответа, json и пр\n- уверенная работа с командной строкой linux\n- базовые навыки пайки и работы с железом\n\nУсловия:\n- вилка в районе 60-120 в зависимости от уровня\n- компенсация фитнеса, обучения, ДМС и пр\n- офис в районе м. Павелецкая\\Новокузнецкая (в данный момент удалёнка)\n- широкие возможности для реализации и карьерного роста\n\nВопросы, резюме, предложения и прочее в telegram @shpyntov","markup":[{"type":"hashtag","offset":0,"length":9,"data":"вакансия"},{"type":"hashtag","offset":10,"length":9,"data":"fulltime"},{"type":"hashtag","offset":20,"length":5,"data":"офис"},{"type":"hashtag","offset":26,"length":7,"data":"москва"},{"type":"hashtag","offset":34,"length":3,"data":"qa"},{"type":"hashtag","offset":38,"length":7,"data":"middle"},{"type":"handle","offset":879,"length":9,"data":"shpyntov"}],"date":"2020-07-03T09:51:22+00:00","link":"tg://resolve?domain=qa_jobs&post=99508","tags":[{"name":"qa"},{"name":"json"},{"name":"linux"}],"cities":[{"code":"moscow"}],"allowsRemote":true}},{"node":{"id":"72612839424-1001054966032","title":"Mobile разработчик","text":"#вакансия #ios #senior #middle #objective_c \n\nОчень важен опыт работы с Core Data\n\nГород: #Москва, м. Павелецкая или удалённо\nФормат работы: #офис, #удалёнка, #гибкие_часы \n\nЗанятость: полная  \nЗарплатная вилка: от 200к до 250к руб. net \nОписание вакансии: \n\nМы разрабатываем облачные CRM решения с широким использованием мобильных устройств.   \nСейчас мы ищем middle  и senior iOS разработчиков в команду, которая внедряет приложение CT Mobile в архитектуру CRM наших клиентов в Европе.\n\nhttps://apps.apple.com/us/app/ct-mobile-for-salesforce/id1234947996\n\nНазвание компании: Customertimes.com\nКонтакты: mikhail.zinoviev@ctconsult.ru","markup":[{"type":"hashtag","offset":0,"length":9,"data":"вакансия"},{"type":"hashtag","offset":10,"length":4,"data":"ios"},{"type":"hashtag","offset":15,"length":7,"data":"senior"},{"type":"hashtag","offset":23,"length":7,"data":"middle"},{"type":"hashtag","offset":31,"length":12,"data":"objective_c"},{"type":"hashtag","offset":90,"length":7,"data":"Москва"},{"type":"hashtag","offset":141,"length":5,"data":"офис"},{"type":"hashtag","offset":148,"length":9,"data":"удалёнка"},{"type":"hashtag","offset":159,"length":12,"data":"гибкие_часы"},{"type":"link","offset":489,"length":67,"data":"https://apps.apple.com/us/app/ct-mobile-for-salesforce/id1234947996"},{"type":"link","offset":577,"length":17,"data":"http://Customertimes.com"},{"type":"link","offset":605,"length":29,"data":"mailto:mikhail.zinoviev@ctconsult.ru"}],"date":"2020-07-03T09:46:34+00:00","link":"tg://resolve?domain=mobile_jobs&post=69249","tags":[{"name":"mobile"},{"name":"ios"},{"name":"objective-c"},{"name":"dotnet"},{"name":"core-data"}],"cities":[{"code":"moscow"}],"allowsRemote":true}},{"node":{"id":"72611790848-1001054966032","title":"Android разработчик","text":"#вакансия #работа #Android #Kotlin #удаленнаяработа\n\nГород: Москва\nФормат работы: фулл тайм удаленно \n\nЗарплатная вилка: от 150 000 до 230 000;\nКомпания: АО «Почта банк»\n\nМы занимаем лидирующие позиции в рейтингах Интернет-банков, и не останавливаемся на достигнутом. Приглашаем к себе в команду разработчика Android.\n\nВАША ГЛАВНАЯ ЗАДАЧА:\n⚡️Разработка систем дистанционного банковского обслуживания (мобильный банк) на Android.\n\nНАШИ ТРЕБОВАНИЯ:\n✅ Опыт разработки для платформы Android от 3-х лет;\n✅ Знание Android SDK, Java, Kotlin, Rest/SOAP, Google Maps API, SQLite;\n\nВАШИМ ДОПОЛНИТЕЛЬНЫМ ПРЕИМУЩЕСТВОМ БУДЕТ:\n✅ Наличие высшего технического образования;\n✅ Знание стандартов проектирования и разработки мобильных приложений;\n✅ Знание архитектуры мобильных приложений и реализации серверного взаимодействия для мобильных приложений;\n✅ Навыки работы с многопоточностью;\n✅Опыт работы в банковской сфере.\n\nГОТОВЫ ВАМ ПРЕДЛОЖИТЬ:\n🔹 Удобный график («плавающее» начало рабочего дня);\n🔹 Удаленный формат работы;\n🔹 Оклад + квартальное премирование + годовой бонус;\n🔹 Agile. Scrum (двухнедельные спринты, работа в командах по 6-8 человек: 2 backend, 3 frontend, системный аналитик, 2 тестировщика) Демократия и самоорганизация + наличие удаленного доступа;\n🔹 Обучение - доступное внутреннее и внешнее обучение. В Банке есть корпоративная академия. Регулярно проходят внутренние митаппы, tech. chapters и ретроспективы. Мы посещаем ключевые отраслевые конференции;\n🔹 Профессиональное развитие - мы используем современный стэк, поддерживаем разумные инициативы по внедрению новшеств, совершенствуем архитектуру и кодовую базу;\n🔹 Карьерный рост- команда постоянно растет. В зависимости от вклада, каждый сотрудник может претендовать на повышение дохода, новый функционал и дополнительные задачи. Мы держимся за наших сотрудников;\n🔹 ДМС. Многочисленные скидки и бонусы от партнеров (от каршеринга до ипотеки).\n\n📩 Контакты: @dorogavtseva","markup":[{"type":"hashtag","offset":0,"length":9,"data":"вакансия"},{"type":"hashtag","offset":10,"length":7,"data":"работа"},{"type":"hashtag","offset":18,"length":8,"data":"Android"},{"type":"hashtag","offset":27,"length":7,"data":"Kotlin"},{"type":"hashtag","offset":35,"length":16,"data":"удаленнаяработа"},{"type":"handle","offset":1921,"length":13,"data":"dorogavtseva"}],"date":"2020-07-03T09:38:54+00:00","link":"tg://resolve?domain=mobile_jobs&post=69248","tags":[{"name":"mobile"},{"name":"android"},{"name":"kotlin"},{"name":"java"},{"name":"rest"},{"name":"soap"},{"name":"sqlite"},{"name":"google-maps"}],"cities":[{"code":"moscow"}],"allowsRemote":true}},{"node":{"id":"2283798528-1001134745498","title":"Devops инженер","text":"#вакансия #Sportmaster_Labs #monitoring \n\nНазвание компании: Sportmaster Labs\nГород и адрес офиса: м. Дмитровская\nФормат работы: офис, на текущий момент удаленка (в будущем возможно частично офис)\nЗанятость: полная\nЗарплатная вилка:  от 100 000 до 300 000 рублей на руки, в зависимости от уровня кандидата\nОписание вакансии:\nМы ищем сотрудника, у которого имеется опыт построения систем мониторинга и логирования приложений, начиная с инфраструктуры, заканчивая бизнес-метриками и опыт администрирования инфраструктуры.\n\nОбязанности: \n* Внедрение, управление и развитие системы мониторинга от уровня аппаратного обеспечения до бизнес-метрик уровня приложений (метрики, зависимости, оповещения) [Zabbix, Victoria Metrics, Prometheus, etc]\n* Внедрение, управление и развитие системы логирования [Elastic Stack]\n* Внедрение, управление и развитие системы визуализации [Grafana, BI Systems, etc]\n* Разработка кастомных решений по сбору метрик, оповещений, процессинга данных\n\nЖелательно:\n* Внедрение, управление и развитие отказоустойчивой системы окрестрации контейнеров для нужд эксплуатации и не только (Kubernetes)\n* Настройка CI\\CD (Jenkins)\n* load-, stress- и chaos-тестирование инфраструктуры и сервисов\n* Опыт работы с Jaeger, OpenTracing\n* Опыт в разработке приложений (для систем мониторинга) на любом из языков программирования Python, Java\n* Опыт в эксплуатации JVM\n* Опыт администрирования web-серверов Nginx, F5, HAproxy\n\nСтав частью Sportmaster Lab, вы получите:\n* Работу в крупной стабильной российской компании - лидере на рынке розничной торговли товарами для спорта и отдыха;\n* Перспективы профессионального, карьерного и финансового роста;\n* Офис - м. Дмитровская, БЦ \"Премьер\";\n* График работы: 5/2; 8.00-17.00, 9.00-18.00 или 10.00-19.00 (можно выбрать);\n* Дисконтная карта на продукцию магазинов сети;\n* Полугодовые премии в размере 50% от суммы ежемесячного дохода;\n* Корпоративные скидки на различные виды страхования и кредитования;\n* Корпоративные программы спорта и отдыха;\n* Организованное питание в офисе (компенсация питания);\n* Обучение и сертификация за счет компании\n\nКонтакты: Для начала я (@Voffko) далее с HR сотрудниками\n\n—\n\n👉 Обсуждение вакансии в чате @devops_jobs","markup":[{"type":"hashtag","offset":0,"length":9,"data":"вакансия"},{"type":"hashtag","offset":10,"length":17,"data":"Sportmaster_Labs"},{"type":"hashtag","offset":28,"length":11,"data":"monitoring"},{"type":"handle","offset":2122,"length":7,"data":"Voffko"},{"type":"handle","offset":2189,"length":12,"data":"devops_jobs"}],"date":"2020-07-03T09:29:40+00:00","link":"tg://resolve?domain=devops_jobs_feed&post=0","tags":[{"name":"elasticsearch"},{"name":"kubernetes"},{"name":"jenkins"},{"name":"python"},{"name":"java"},{"name":"jvm"},{"name":"web"},{"name":"nginx"}],"cities":[],"allowsRemote":true}},{"node":{"id":"17353932800-1001110946746","title":"Js разработчик","text":"#вакансия #удаленка #москва #developer #frontend #react #node #middle\n\n🔹Город и адрес офиса:  \n • Москва, удаленная \n\n🔹Требования:\n • В  US  компанию , требуется разработчик, на полную   занятость, статус Independent Contractor, удаленная работа, slack,  jira.\n\n🔹Формат работы: \n • Ближайшее время преимущественно удаленно, есть идея сделать в Мск штаб и будут встречи-гибкая офисная работа после окончания карантинов\n\n🔹Зарплатная вилка: \n • 2000-3000 $ , контракт\n\n🔹Ищу:\n•  Подбираю фулстек мидл инженера со знанием бэкенда, но c приоритетом на веб фронтенд - развиваем web app, в том числе потребуется верстка панели администратора.\n•  Стек : Node.js, Express, MongoDB, React, HTTP, Soсket, Асинхронные запросы, Знание паттернов, Bootstrap.\n\n\n🔹Контакты: \n•  Cтучитесь в лк (@kotenkov)","markup":[{"type":"hashtag","offset":0,"length":9,"data":"вакансия"},{"type":"hashtag","offset":10,"length":9,"data":"удаленка"},{"type":"hashtag","offset":20,"length":7,"data":"москва"},{"type":"hashtag","offset":28,"length":10,"data":"developer"},{"type":"hashtag","offset":39,"length":9,"data":"frontend"},{"type":"hashtag","offset":49,"length":6,"data":"react"},{"type":"hashtag","offset":56,"length":5,"data":"node"},{"type":"hashtag","offset":62,"length":7,"data":"middle"},{"type":"handle","offset":782,"length":9,"data":"kotenkov"}],"date":"2020-07-03T09:01:00+00:00","link":"tg://resolve?domain=javascript_jobs_feed&post=16550","tags":[{"name":"javascript"},{"name":"reactjs"},{"name":"nodejs"},{"name":"web"},{"name":"express"},{"name":"mongodb"},{"name":"bootstrap"}],"cities":[{"code":"moscow"}],"allowsRemote":true}},{"node":{"id":"17350787072-1001110946746","title":"Javascript разработчик","text":"#вакансия #javascript #typescript \n\n🔹Frontend-разработчик (удаленно или в офисе)\n\nBlogman\n\nГород и адрес офиса: \n— Санкт-Петербург\nФормат работы:           \n— офис в Санкт-Петербурге или удаленка по России \nЗанятость:                     \n— полная / full time\nЗарплатная вилка:       \n— от 80 000 до 300 000 рублей\n\n🔹Основной стек технологий — JavaScript, TypeScript, HTML/CSS. Сейчас мы разрабатываем бизнес-функционал приложения и будем рады новому специалисту в нашей команде, который вольется в проект и мы вместе будем делать frontend с нативным кодом и отзывчивым интерфейсом.\n\n🔹Мы ожидаем, что у вас есть:\n— Опыт коммерческой разработки от 3 лет\n— Хорошее знание JavaScript, TypeScript, HTML/CSS;\n\n🔹Рады предложить:\n— Возможность работать удаленно;\n— Желаемый оклад по результатам собеседования;\n— Cистему роста зарплаты каждые 6 месяцев\n\nКонтакт: @alinablogman\nhttps://spb.hh.ru/employer/3069197?customDomain=","markup":[{"type":"hashtag","offset":0,"length":9,"data":"вакансия"},{"type":"hashtag","offset":10,"length":11,"data":"javascript"},{"type":"hashtag","offset":22,"length":11,"data":"typescript"},{"type":"handle","offset":859,"length":13,"data":"alinablogman"},{"type":"link","offset":873,"length":48,"data":"https://spb.hh.ru/employer/3069197?customDomain="}],"date":"2020-07-03T08:49:37+00:00","link":"tg://resolve?domain=javascript_jobs_feed&post=16547","tags":[{"name":"javascript"},{"name":"typescript"},{"name":"html"},{"name":"css"}],"cities":[],"allowsRemote":true}},{"node":{"id":"104329117696-1001089317451","title":"Qa engineer","text":"#вакансия #QA #фуллстек #ФТ #АТ #удаленка \n\nВакансия: QA Engineer (АФТ на Java/Ruby/C#)\nГород: Москва или удаленка из городов РФ, стандартный график с Москвой\nЗарплата: от 140 000 рублей до 240 000 рублей на руки \nФормат: полный день, полная занятость\nКомпания Innovative People \n\n➡ Требования:\n• От 2х лет опыта тестирования веб- или мобильных приложений\n• Практический опыт применения практик тест-дизайна\n• Рабочие знания клиент-серверной архитектуры\n• Знание Java/Ruby/C#, опыт автоматизации от 1 года\n• Уверенный опыт разработки авто-тестов, работы с инструментами автоматизации\nДля удаленки нужен релевантный опыт удаленной работы.\n\n➡ Обязанности:\n• Автоматизированное тестирование (Selenium/Selenide+Cucumber)\n• Функциональное, интеграционное, регрессионное и приемочное тестирование\n\n➡ Предлагаем:\n• все по ТК РФ, белое и официальное\n• ДМС со стоматологией, программа лояльности\n• адекватное руководство\n• большое комьюнити, классные команды, карьерный рост\n• помогаем с релокацией в Москву/Питер/Екатеринбург (50 000 рублей)\nили есть возможность работы удаленно\n\nРезюме и вопросы @Priboch","markup":[{"type":"hashtag","offset":0,"length":9,"data":"вакансия"},{"type":"hashtag","offset":10,"length":3,"data":"QA"},{"type":"hashtag","offset":14,"length":9,"data":"фуллстек"},{"type":"hashtag","offset":24,"length":3,"data":"ФТ"},{"type":"hashtag","offset":28,"length":3,"data":"АТ"},{"type":"hashtag","offset":32,"length":9,"data":"удаленка"},{"type":"handle","offset":1089,"length":8,"data":"Priboch"}],"date":"2020-07-03T08:33:25+00:00","link":"tg://resolve?domain=qa_jobs&post=99496","tags":[{"name":"qa"},{"name":"java"},{"name":"ruby"},{"name":"selenium"},{"name":"cucumber"}],"cities":[{"code":"moscow"}],"allowsRemote":true}},{"node":{"id":"17347641344-1001110946746","title":"Js разработчик","text":"#вакансия #JavaScript #React #ReactNative #Node #офис #Москва\nГород и адрес офиса: Москва, м.Дмитровская\nФормат работы: Офис на испытательный срок, далее - возможна удаленка, пятидневка\nЗанятость: Полный день\nЗарплатная вилка: от 150 000 до 200 000 руб.; с опытным кандидатом готовы обсуждать уровень выше.\n\nО компании: проект из Амстердама, занимающийся созданием приложений для веб - / мобильных / настольных компьютеров и разрабатывает решения для масштабируемого бизнеса в Европе и за ее пределами.\nОт Вас:\n- сильные навыки JavaScript, качественный опыт на React;\n- опыт в интеграции облачных сервисов RESTful APIs, GraphQL;\n- знание методологии Agile/Scrum\n- навыки разработки Node.js applications (API servers, SSR, Tooling)\n- опыт работы с React Native или нативной мобильной разработкой;\n- опыт публичных выступлений будет преимуществом;\n- беглый разговорный английский.\nНазвание компании: Sirotina Personnel\nКонтакты: @nicedream13","markup":[{"type":"hashtag","offset":0,"length":9,"data":"вакансия"},{"type":"hashtag","offset":10,"length":11,"data":"JavaScript"},{"type":"hashtag","offset":22,"length":6,"data":"React"},{"type":"hashtag","offset":29,"length":12,"data":"ReactNative"},{"type":"hashtag","offset":42,"length":5,"data":"Node"},{"type":"hashtag","offset":48,"length":5,"data":"офис"},{"type":"hashtag","offset":54,"length":7,"data":"Москва"},{"type":"handle","offset":927,"length":12,"data":"nicedream13"}],"date":"2020-07-03T07:39:55+00:00","link":"tg://resolve?domain=javascript_jobs_feed&post=16544","tags":[{"name":"javascript"},{"name":"reactjs"},{"name":"nodejs"},{"name":"graphql"},{"name":"react-native"}],"cities":[{"code":"moscow"}],"allowsRemote":true}},{"node":{"id":"17346592768-1001110946746","title":"Js разработчик","text":"#вакансия #москва #middle #remote #angular #fulltime #офис\n\nИщем frontend разработчика для работы над основным сайтом и новыми разделами.\nГород и адрес офиса: Москва, м. Авиамоторная\nФормат работы: Офис\nЗанятость: полная\nЗарплатная вилка: 130 000 — 150 000 на руки по результатам технического собеседования\n\nAutospot.ru — онлайн гипермаркет автомобилей. 🚘\n\nВ 2018 году Mitsubishi Corporation и Mail.ru. оценили нас в $19,1 млн.\n\nВ технической команде 17 человек: СТО, 9 PHP разработчиков, 2 frontend разработчика, 3 тестировщика, DevOps.\n\nЧеловек нужен в Москве или готовый в эту самую Москву переехать.\n\n📍Обязанности:\n▫️Разработка компонентов и адаптация/интеграция сторонних библиотек и плагинов;\n▫️ Верстка новых разделов, кроссбраузерная, адаптивная, валидная;\n▫️ Развитие библиотеки UI компонентов;\n▫️ Оперативное исправление багов на проде (IE 11+);\n▫️ Помощь в оптимизации работы сайта (скорость загрузки, оптимизация DOM).\n\n📍Требования:\n▪️ Опыт разработки от 2 лет;\n▪️ Знание JavaScript (jQuery в разумных пределах);\n▪️ Уверенное знание html семантическая верстка, БЭМ, SCSS;\n▪️ Знание работы GIT & NPM;\n▪️ Опыт работы с gulp/webpack;\n▪️ Опыт работы с Figma/Zeplin;\n▪️ Опыт работы с векторной графикой (svg и svg-спрайты).\n\n📍Желательно:\n◾️ Хорошее знание Vue.js и/или Angular 5+. Работать надо будет и с тем и с другим. Angular 5+ в приоритете, планируется переход полностью на него;\n◾️ Знание инструментов организации разработки Jira;\n◾️ Знание нюансов работы браузеров на разных устройствах и ОС;\n◾️ Опыт сео оптимизации;\n◾️ Понимание, что такое доступные интерфейсы;\n\n📍Условия:\n▫️ Комфортабельный офис, БЦ Light Tower, бесплатный шаттл от м. Площадь Ильича;\n▫️ Оформление по ТК РФ с первого рабочего дня;\n▫️ Гибкое начало рабочего дня, с 9 до 11;\n▫️ Возможность работать 1-2 дня удалённо;\n▫️ Полностью белая заработная плата;\n▫️ Неформальная атмосфера и дружный, амбициозный коллектив;\n▫️ Корпоративная скидка на изучение английского языка.\n\n📌 Контакт: @dianadoma","markup":[{"type":"hashtag","offset":0,"length":9,"data":"вакансия"},{"type":"hashtag","offset":10,"length":7,"data":"москва"},{"type":"hashtag","offset":18,"length":7,"data":"middle"},{"type":"hashtag","offset":26,"length":7,"data":"remote"},{"type":"hashtag","offset":34,"length":8,"data":"angular"},{"type":"hashtag","offset":43,"length":9,"data":"fulltime"},{"type":"hashtag","offset":53,"length":5,"data":"офис"},{"type":"link","offset":308,"length":11,"data":"http://Autospot.ru"},{"type":"link","offset":395,"length":7,"data":"http://Mail.ru"},{"type":"handle","offset":1970,"length":10,"data":"dianadoma"}],"date":"2020-07-03T07:39:26+00:00","link":"tg://resolve?domain=javascript_jobs_feed&post=16543","tags":[{"name":"javascript"},{"name":"angularjs"},{"name":"php"},{"name":"jquery"},{"name":"html"},{"name":"git"},{"name":"npm"},{"name":"gulp"},{"name":"webpack"},{"name":"svg"},{"name":"vuejs"}],"cities":[{"code":"moscow"}],"allowsRemote":true}},{"node":{"id":"17342398464-1001110946746","title":"Js разработчик","text":"#вакансия #remote #frontend #fullstack #Angular #Node #middle #senior #remote\n\nФормат работы: remote \nЗанятость: fulltime\nВилка: 120 - 220k net \n\nНа протяжении 14 лет наша команда создает кастомные веб/мобильные приложения и дизайн. \nПриглашаем к сотрудничеству на удаленной постоянной основе опытного fullstack разработчика со знанием Angular 9 и Node.js\n\nПроект:  сервис для разработчиков\n\nЗадачи: fullstack разработка front-end и back-end на Angular 9 и Node.js \n\nНазвание компании: Softlight \n\nТребования: \nОпыт в разработке front-end на Angular от 2-х лет \nОпыт в разработке back-end на Node.js от 2-х лет \nработа в команде\nРазговорный английский - Intermediate и выше \n\nМы предлагаем:\n- Полностью удаленную работу\n- Интересный зарубежный сервис для разработчиков (USA)\n- Пятидневная рабочая неделя ( с 9-10 до 18-19 МСК), госпраздники - выходные\n- Оформление ИП\n- Оплачиваемый отпуск и больничный \n- Работу в слаженной опытной команде\n\nКонтакты: @MikeHR или mzaharov@softlightllc.com","markup":[{"type":"hashtag","offset":0,"length":9,"data":"вакансия"},{"type":"hashtag","offset":10,"length":7,"data":"remote"},{"type":"hashtag","offset":18,"length":9,"data":"frontend"},{"type":"hashtag","offset":28,"length":10,"data":"fullstack"},{"type":"hashtag","offset":39,"length":8,"data":"Angular"},{"type":"hashtag","offset":48,"length":5,"data":"Node"},{"type":"hashtag","offset":54,"length":7,"data":"middle"},{"type":"hashtag","offset":62,"length":7,"data":"senior"},{"type":"hashtag","offset":70,"length":7,"data":"remote"},{"type":"handle","offset":952,"length":7,"data":"MikeHR"},{"type":"link","offset":964,"length":25,"data":"mailto:mzaharov@softlightllc.com"}],"date":"2020-07-03T06:42:56+00:00","link":"tg://resolve?domain=javascript_jobs_feed&post=16539","tags":[{"name":"javascript"},{"name":"angularjs"},{"name":"nodejs"},{"name":"dotnet"}],"cities":[],"allowsRemote":true}}]}},"context":{}}