{"hash":"f34fd2c444a074f4e0e67d525015a008ef8e766f","data":{"records":{"totalCount":178,"pageInfo":{"totalPages":18,"currentPage":6},"edges":[{"node":{"id":"16223567872-1001110946746","title":"Javascript разработчик","text":"#вакансия #москва #офис #полнаязанятость #frontend #javascript #react #angular #vue\n\nFrontend-разработчик (JavaScript)\n\nГород и адрес офиса: Москва, метро Дубровка\nФормат работы: офис (в период самоизоляции работаем удалённо)\nЗанятость: полная\nЗарплатная вилка: от 140 000 до 170 000 рублей\n\nЗадачи:\n\n— Разработка frontend-интерфейса рекламной платформы\n— Перевод UI/UX макетов в верстку\n— Взаимодействие с backend-разработчиками, согласование протоколов обмена данными\n— Работа со сторонними frontend-решениями, в т.ч. внесение изменений в сторонний код\n— Разработка плеера, поддерживающего стандарты VAST/VPAID\n— Разработка и поддержка рекламных блоков (VPAID AdUnit)\n— Разработка автоматизированных тестов и тестовых сред\n\nТребования:\n\n— Опыт кроссбраузерной веб-разработки от трех лет (HTML 5, CSS)\n— Опыт программирования с использованием как чистого JavaScript, так и фреймворков (react, angular, vue), работа с npm\n— Опыт работы с REST API\n\nБудет плюсом:\n\n— Представление об асинхронной̆ обработке запросов, разработка single-page application\n— Опыт работы в AdTech, знание протоколов VAST/VPAID, представление о работе плееров с рекламными материалами\n— Знание о том, что такое CORS\n— Хорошее понимание работы HTTP протокола \n— Навыки работы с сетевыми инспекторами\n\nУсловия:\n\n— Заработная плата от 140 000 до 170 000 рублей (по результатам собеседования)\n— Полная занятость, полный день\n— Работа под руководством опытного CTO c хорошим чувством юмора :)\n— Современный комфортный офис в Москве (метро Дубровка)\n\nНазвание компании:\n\nUnion Media Group\n\nО компании:\n\nГруппа компаний на стыке агентского бизнеса и рекламных технологий.\n\nРазрабатываем ab ovo рекламную платформу, не отягощенную legacy-кодом и грузом обратной совместимости.\n\nВ качестве таск-трекера используем Jira.\n\nДля откликов: \n\nПройдите первичное собеседование в экспресс-формате прямо сейчас:\n\n👉 @yeshr_it_bot\n\nПо дополнительным вопросам:\n\n🖖 @asubc","markup":[{"type":"hashtag","offset":0,"length":9,"data":"вакансия"},{"type":"hashtag","offset":10,"length":7,"data":"москва"},{"type":"hashtag","offset":18,"length":5,"data":"офис"},{"type":"hashtag","offset":24,"length":16,"data":"полнаязанятость"},{"type":"hashtag","offset":41,"length":9,"data":"frontend"},{"type":"hashtag","offset":51,"length":11,"data":"javascript"},{"type":"hashtag","offset":63,"length":6,"data":"react"},{"type":"hashtag","offset":70,"length":8,"data":"angular"},{"type":"hashtag","offset":79,"length":4,"data":"vue"},{"type":"handle","offset":1875,"length":13,"data":"yeshr_it_bot"},{"type":"handle","offset":1922,"length":6,"data":"asubc"}],"date":"2020-04-09T06:38:06+00:00","link":"tg://resolve?domain=javascript_jobs_feed&post=15472","tags":[{"name":"javascript"},{"name":"reactjs"},{"name":"angularjs"},{"name":"vuejs"},{"name":"html"},{"name":"css"},{"name":"npm"},{"name":"rest"}],"cities":[{"code":"moscow"}],"allowsRemote":true}},{"node":{"id":"16221470720-1001110946746","title":"Js разработчик","text":"#вакансия #удаленка #remote #angular #javascript #киров #томск #уфа #брест #белгород #новгород\nЛокация: удаленно или офис (Н.Новгород, Томск, Киров, Уфа, Белгород, Брест)\n\nЗанятость: полная\n\nЗарплатная вилка: от 120 т.р. до 150т.р. на руки\n\nКомпания: Colvir Software Solutions\n\nТребуется senior или middle разработчик на удаленную работу\n\nЗадачи:\n\nРазработка/доработка одностраничных Web-приложений (SPA) дистанционного банковского обслуживания (на базе Angular 2+)\n\n\nПожелания к опыту соискателя:\n\nОпыт коммерческой разработки Angular 2+\n\nОпыт работы с Angular 2+ от 2 лет\n\nОпыт разработки Apache Сordova приложений;\n\nОпыт использования CSS-препроцессоров (LESS, SASS);\n\nОтличные знания JavaScript/HTML/CSS,\n\n\nСущественным плюсом будет:\n\nОпыт использования библиотек функционального программирования (Lodash);\n\nПрограммирование на платформе NodeJS;\n\nОпыт программирования по спецификации ECMAScript 6\n\nУмение читать SQL код;\n\nОпыт работы с Mercurial и(или) Git;\n\nБазовые знания администрирования Linux;\n\nАнглийский язык - на уровне чтения документации.\nМы предлагаем:\nОфициальное трудоустройство, оплачиваемые больничные и отпуск\n\nКорпоративное обучение и библиотека\n\nБесплатные медицинские онлайн-консультации «Онлайн Доктор»\n\nКорпоративные скидки на изучение английского языка\n\nКонтакты: @CTatyana или почта tchertykova@colvir.ru","markup":[{"type":"hashtag","offset":0,"length":9,"data":"вакансия"},{"type":"hashtag","offset":10,"length":9,"data":"удаленка"},{"type":"hashtag","offset":20,"length":7,"data":"remote"},{"type":"hashtag","offset":28,"length":8,"data":"angular"},{"type":"hashtag","offset":37,"length":11,"data":"javascript"},{"type":"hashtag","offset":49,"length":6,"data":"киров"},{"type":"hashtag","offset":56,"length":6,"data":"томск"},{"type":"hashtag","offset":63,"length":4,"data":"уфа"},{"type":"hashtag","offset":68,"length":6,"data":"брест"},{"type":"hashtag","offset":75,"length":9,"data":"белгород"},{"type":"hashtag","offset":85,"length":9,"data":"новгород"},{"type":"handle","offset":1291,"length":9,"data":"CTatyana"},{"type":"link","offset":1311,"length":21,"data":"mailto:tchertykova@colvir.ru"}],"date":"2020-04-09T06:37:28+00:00","link":"tg://resolve?domain=javascript_jobs_feed&post=15470","tags":[{"name":"javascript"},{"name":"angularjs"},{"name":"web"},{"name":"apache"},{"name":"css"},{"name":"sass"},{"name":"html"},{"name":"nodejs"},{"name":"sql"},{"name":"mercurial"},{"name":"git"},{"name":"linux"}],"cities":[{"code":"kirov"},{"code":"tomsk"},{"code":"ufa"},{"code":"brest"},{"code":"belgorod"}],"allowsRemote":true}},{"node":{"id":"16220422144-1001110946746","title":"Js разработчик","text":"#вакансия #Москва #remote #Javascript #frontend #middle #react #vuejs\n\nЛокация: Москва\nФормат работы: удаленка\nЗанятость: полная, гибкое начало дня\nЗП: 150 000 - 180 000 рублей до вычета налогов \n\n🔹 Открыта вакансия Frontend developer (уровня миддл) в компании Агроплем.\nАгроплем - это инновационный лабораторный кластер, который трудится над задачами по изучению генетики животных, аналитики данных ферм, почв.\nКомпания является резидентом Сколково, MVP продукта планируется на конец 2020 года.\nСейчас работают над сложным комплексным проектом по автоматизации ферм, аналогов которых нет в мире. Проект идет на стыке с IoT технологиями,  в будущем будет BigData, цифровая модель ферм.\nБекенд проектов пишется на .Net. Сейчас ребята в поиске первого фронтенд разработчика для разработки системы управления фермой (фронтенд фреймворк пока не выбран). \n\n🔹 Требования:\n- коммерческий опыт разработки на Javascript от 2- ух лет;\n- коммерческий опыт разработки на vuejs/react от 1-ого года;\n- будет плюсом опыт разработки на Node.JS\n- будет плюсом, если кандидат не относится отрицательно к .Net cтеку\n\n🔹 Что интересного есть у ребят:\n- официальное трудоустройство и белая ЗП;\n- полностью удаленная работа;\n- компенсация техники;\nа главное, возможность присоединиться к отличной команде специалистов, которые действительно горят своим делом!\n\n🔹 Контакты:\ne-mail: daria@luckyhunter.io\ntelegram: @prudentdaria\nКА: luckyhunter\nПишите, буду рада ответить на все возможные вопросы в телеграме или по почте 😊","markup":[{"type":"hashtag","offset":0,"length":9,"data":"вакансия"},{"type":"hashtag","offset":10,"length":7,"data":"Москва"},{"type":"hashtag","offset":18,"length":7,"data":"remote"},{"type":"hashtag","offset":26,"length":11,"data":"Javascript"},{"type":"hashtag","offset":38,"length":9,"data":"frontend"},{"type":"hashtag","offset":48,"length":7,"data":"middle"},{"type":"hashtag","offset":56,"length":6,"data":"react"},{"type":"hashtag","offset":63,"length":6,"data":"vuejs"},{"type":"link","offset":1362,"length":20,"data":"mailto:daria@luckyhunter.io"},{"type":"handle","offset":1393,"length":13,"data":"prudentdaria"}],"date":"2020-04-09T06:37:00+00:00","link":"tg://resolve?domain=javascript_jobs_feed&post=15469","tags":[{"name":"javascript"},{"name":"reactjs"},{"name":"vuejs"},{"name":"dotnet"},{"name":"nodejs"}],"cities":[{"code":"moscow"}],"allowsRemote":true}},{"node":{"id":"16219373568-1001110946746","title":"Js разработчик","text":"#вакансия #удаленно #react #middle+\nКомпания - VMB\nГород - Москва \nФормат - удаленная работа \nГрафик - полный рабочий день \nВилка - 150-200к рублей на руки \n\n📍Проект - “Детский проект” для поискового приложения нужно сделать веб приложение, где дети могут тыкаться с любимыми персонажами \n📍Что нужно? \nзнание React и TypeScript;\nотличное владение чистым JS;\nхорошее знание Node.js и ES6;\nхорошее знание HTML и CSS;\nумение работать с Git;\nпонимание особенностей SPA-приложений.\n📍Плюсами будут:\nпонимание принципов разработки изоморфных приложений;\nопыт разработки под мобильные браузеры;\nзнакомство с Unix-системами;\nопыт написания тестов (юнит- или интеграционных);\nопыт работы с системами сборки (Webpack, Rollup, Gulp, Grunt и т. п.);\nопыт работы с системами непрерывной интеграции (TeamСity, Travis, Jenkins, Drone и т. п.).\n📍Что предлагаем?\nУдалённую занятость \nВозможность развиваться и развивать интересный проект\n\nКонтакты \n@nariarakel","markup":[{"type":"hashtag","offset":0,"length":9,"data":"вакансия"},{"type":"hashtag","offset":10,"length":9,"data":"удаленно"},{"type":"hashtag","offset":20,"length":6,"data":"react"},{"type":"hashtag","offset":27,"length":7,"data":"middle"},{"type":"handle","offset":935,"length":11,"data":"nariarakel"}],"date":"2020-04-09T06:36:49+00:00","link":"tg://resolve?domain=javascript_jobs_feed&post=15468","tags":[{"name":"javascript"},{"name":"reactjs"},{"name":"typescript"},{"name":"nodejs"},{"name":"html"},{"name":"css"},{"name":"git"},{"name":"unix"},{"name":"webpack"},{"name":"gulp"},{"name":"gruntjs"},{"name":"jenkins"}],"cities":[{"code":"moscow"}],"allowsRemote":true}},{"node":{"id":"98258911232-1001089317451","title":"Qa engineer","text":"#qa #automation #java #testng #remote #fulltime #job #jobs #backend #вакансия #remotework #sdet\nVacancy: Test Automation Engineer/SDET\nCompany: Libertex Group\nEmployment: Full-time remote\nSalary: 2,5k$ – 3,5k$ net\nDescription\nOur perfect automation engineer applies appropriate automation technologies to meet the short- and long-term goals of IT development. They are able to fulfill key activities of an Agile QA Tester.\n\nThe automation engineer strive to Automate as much of the testing effort as possible with a minimum set of code/scripts.\n\nThe Automation Engineer focuses on test effort not testing coverage, reducing expensive manual overheads at all times. The Automation engineer is aligned with services teams but is flexible when required to assist with projects.\n\nRequirements\nExperience with test automation frameworks & tools (Essential: Java, TestNG; optional: Cucumber/Gherkin)\nPerformance testing (Gatling)\nDemonstrable experience creating and maintaining automated test suites\nExperience with object-oriented programming language (Java)\nExperience with functional UI testing (Selenium WebDriver)\nExperience with RESTful web services testing\nExperience with Continuous Integration / Continuous Delivery\nPractical experience working with Agile methodologies, Scrum / Kanban\nExperience working in an Agile Scrum team\nExperience with Python and Golang would be a plus\nExperience with Message Brokers (e.g. Kafka, ActiveMQ) would be a plus\nGit basics\nUpper Intermediate is a minimal level, ability to pass an interview in English\nContact: @OlgaVzh","markup":[{"type":"hashtag","offset":0,"length":3,"data":"qa"},{"type":"hashtag","offset":4,"length":11,"data":"automation"},{"type":"hashtag","offset":16,"length":5,"data":"java"},{"type":"hashtag","offset":22,"length":7,"data":"testng"},{"type":"hashtag","offset":30,"length":7,"data":"remote"},{"type":"hashtag","offset":38,"length":9,"data":"fulltime"},{"type":"hashtag","offset":48,"length":4,"data":"job"},{"type":"hashtag","offset":53,"length":5,"data":"jobs"},{"type":"hashtag","offset":59,"length":8,"data":"backend"},{"type":"hashtag","offset":68,"length":9,"data":"вакансия"},{"type":"hashtag","offset":78,"length":11,"data":"remotework"},{"type":"hashtag","offset":90,"length":5,"data":"sdet"},{"type":"bold","offset":96,"length":47,"data":""},{"type":"bold","offset":159,"length":11,"data":""},{"type":"bold","offset":188,"length":6,"data":""},{"type":"bold","offset":214,"length":12,"data":""},{"type":"bold","offset":776,"length":13,"data":""},{"type":"underline","offset":1039,"length":8,"data":""},{"type":"bold","offset":1047,"length":8,"data":""},{"type":"bold","offset":1464,"length":87,"data":""},{"type":"handle","offset":1552,"length":8,"data":"OlgaVzh"}],"date":"2020-04-08T22:34:06+00:00","link":"tg://resolve?domain=qa_jobs&post=93707","tags":[{"name":"qa"},{"name":"java"},{"name":"dotnet"},{"name":"cucumber"},{"name":"selenium"},{"name":"web"},{"name":"python"},{"name":"go"},{"name":"kafka"},{"name":"git"},{"name":"continuous-integration"}],"cities":[],"allowsRemote":true}},{"node":{"id":"98255765504-1001089317451","title":"Qa инженер","text":"#вакансия #QA Automation #remote/офис #Limassol \nПозиция: QA Automation Engineer\nГород: Лимассол\nОфис / full-time remote\nПолный день, полная занятость\nЗаработная плата: от 3000 eur\nhttps://exness.bamboohr.com/jobs/view.php?id=221\n\nНаша компания строит финтех-продукты (как B2B, так и B2C) для 70 тысяч активных клиентов, постоянно стремясь к совершенствованию. \nМы приглашаем опытного инженера по автоматизации QA в команду партнерства. \nРаботаем в гибкой среде по методологии scrum, где каждый сотрудник влияет на функциональность продукта/услуги.\n\nОсновные задачи: \n- Автоматизированное тестирование REST API / RPC / Web;\n- Выполнение и анализ результатов автоматизированных тестов;\n- Подготовка и разработка стратегий тестирования и планов тестирования;\n- Наставничество в области методологии, практики и методов контроля качества;\n- Исследование, разработка и применение новых инструментов и функций для автоматизации тестирования.\n\nТребования:\n- 5+ лет в тестировании автоматизации Web/API\n- Хорошие знания в области Selenium/Selenide, TestNG/JUnit, Allure, Selenoid\n- Знание Java\n- Базовые знания системы контроля версий Git\n- Опыт работы с SQL, Docker, CI (GitLab, Jenkins)\n\nМы предлагаем:\n- Стабильную работу с интересными продуктами\n- Заработная плата от 3000 eur netto\n- Возможность работы из любой страны\nЕсли решите переехать, предоставим: \n- Пакет переезда (виза, билеты, корпоративная квартира на 1 месяц)\n- Медицинское страхование сотрудников и членов их семей\n- Корпоративный Mini Cooper Countryman S\n- Фитнес-центр для сотрудников и их супругов\n- Курсы английского/греческого языка\n- Программа компенсации детского сада / школы\n- Отличный офис с лучшим видом на море\n\nРезюме и вопросы задавайте здесь @lyubovblv","markup":[{"type":"hashtag","offset":0,"length":9,"data":"вакансия"},{"type":"hashtag","offset":10,"length":3,"data":"QA"},{"type":"hashtag","offset":25,"length":7,"data":"remote"},{"type":"hashtag","offset":38,"length":9,"data":"Limassol"},{"type":"link","offset":181,"length":48,"data":"https://exness.bamboohr.com/jobs/view.php?id=221"},{"type":"handle","offset":1718,"length":10,"data":"lyubovblv"}],"date":"2020-04-08T20:32:01+00:00","link":"tg://resolve?domain=qa_jobs&post=93704","tags":[{"name":"qa"},{"name":"php"},{"name":"rest"},{"name":"web"},{"name":"selenium"},{"name":"junit"},{"name":"java"},{"name":"git"},{"name":"sql"},{"name":"docker"},{"name":"gitlab"},{"name":"jenkins"}],"cities":[],"allowsRemote":true}},{"node":{"id":"98253668352-1001089317451","title":"Qa engineer","text":"#вакансия #QA #офис/remote #Limassol \nПозиция: QA Engineer\nГород: Лимассол\nОфис / full-time remote\nПолный день, полная занятость\nЗаработная плата: от 3000 eur\n\nExness, ведущий валютный брокер в сфере финансовых услуг, приглашает QA engineer. https://exness-careers.com/step1#vacancies\n\nОсновные задачи: \n- Анализ и уточнение требований\n- Функциональное и нефункциональное тестирование\n- Создание и ведение тестовой документации\n- Модуль, интеграция, сквозное тестирование\n\nИщем специалиста со следующим опытом:\n- 5+ лет в функциональном/нефункциональном / API тестировании\n- Уверенное знание процесса тестирования\n- Профессиональные навыки документирования\n- Опыт автоматизации на Python\n- Опыт работы с UNIX\n- Понимание архитектуры микросервисов\n- Желателен опыт работы с гибкими методологиями разработки\n- Английский-Intermediate\n\nМы предлагаем:\n- Стабильную работу с интересными продуктами\n- Заработная плата от 3000 eur netto\n- Возможность работы из любой страны\nЕсли решите переехать, предоставим: \n- Пакет переезда (виза, билеты, корпоративная квартира на 1 месяц)\n- Медицинское страхование сотрудников и членов их семей\n- Корпоративный Mini Cooper Countryman S\n- Фитнес-центр для сотрудников и их супругов\n- Курсы английского/греческого языка\n- Программа компенсации детского сада / школы\n- Отличный офис с лучшим видом на море\n\nРезюме и вопросы задавайте здесь @lyubovblv","markup":[{"type":"hashtag","offset":0,"length":9,"data":"вакансия"},{"type":"hashtag","offset":10,"length":3,"data":"QA"},{"type":"hashtag","offset":14,"length":5,"data":"офис"},{"type":"hashtag","offset":27,"length":9,"data":"Limassol"},{"type":"link","offset":242,"length":42,"data":"https://exness-careers.com/step1#vacancies"},{"type":"handle","offset":1369,"length":10,"data":"lyubovblv"}],"date":"2020-04-08T20:14:53+00:00","link":"tg://resolve?domain=qa_jobs&post=93702","tags":[{"name":"qa"},{"name":"python"},{"name":"unix"}],"cities":[],"allowsRemote":true}},{"node":{"id":"85082505216-1001067529236","title":"Python developer","text":"#developer #python #django #reactjs #remote #part_time #parttime #lead #greatbritain #job #jobs #python #backend #вакансия #remotework #ml #urgently\nVacancy: Lead Python developer\nCountry: Great Britain\nEmployment: Full-time remote/ Part-Time (20 h a week)\nSalary:  2500$+ - net\nOur client, a unique mass media project (platform) is looking for a Lead Developer/CTO to further develop the product and team while creating a culture of positivity & problem solving with a sense of fun.\nIncome level depends on your previous experience & knowledge.\nIt’s an exciting and pivotal time for the product and business - we have a solid platform and foundation of clients asking for features that no one in the market yet offers.\nSo, as well as servicing the current offering, there is a greenfield opportunity to further develop the platform using smart tech.\n✅ Responsibilities:\n- Co-creating and delivering the strategy.\n- Managing and building the team, as well as being hands on with the code.\nThere are many technical challenges, core of which are based around using machine learning to surface how clients can make content more readable and enticing, as well as where and when to deliver it to maximise results.\n✅ The current tech stack is based on: Python, Django, ReactJS, Elasticsearch, .NET Core, AngularJS, Docker + AWS Infrastructure.\nWe expect you to take the lead on how to evolve the stack in a smart way.\n🎬 Requirements:\nYou’ve been around the block and are now hungry to become more commercial, take ownership, and although you don’t want to stop coding, you’re keen to manage and build teams or develop existing skills in these areas.\nA strong interest in data science and machine learning.\nYou’ve been a lead developer or CTO before.\nYou’ve built and scaled a SaaS platform.\nWould be great if you have a background in news publishing or analytics.\nYou’ve managed teams or are now ready to do so.\nContact: @OlgaVzh","markup":[{"type":"hashtag","offset":0,"length":10,"data":"developer"},{"type":"hashtag","offset":11,"length":7,"data":"python"},{"type":"hashtag","offset":19,"length":7,"data":"django"},{"type":"hashtag","offset":27,"length":8,"data":"reactjs"},{"type":"hashtag","offset":36,"length":7,"data":"remote"},{"type":"hashtag","offset":44,"length":10,"data":"part_time"},{"type":"hashtag","offset":55,"length":9,"data":"parttime"},{"type":"hashtag","offset":65,"length":5,"data":"lead"},{"type":"hashtag","offset":71,"length":13,"data":"greatbritain"},{"type":"hashtag","offset":85,"length":4,"data":"job"},{"type":"hashtag","offset":90,"length":5,"data":"jobs"},{"type":"hashtag","offset":96,"length":7,"data":"python"},{"type":"hashtag","offset":104,"length":8,"data":"backend"},{"type":"hashtag","offset":113,"length":9,"data":"вакансия"},{"type":"hashtag","offset":123,"length":11,"data":"remotework"},{"type":"hashtag","offset":135,"length":3,"data":"ml"},{"type":"hashtag","offset":139,"length":9,"data":"urgently"},{"type":"bold","offset":149,"length":8,"data":""},{"type":"bold","offset":180,"length":8,"data":""},{"type":"bold","offset":215,"length":42,"data":""},{"type":"bold","offset":853,"length":18,"data":""},{"type":"bold","offset":1211,"length":36,"data":""},{"type":"bold","offset":1415,"length":14,"data":""},{"type":"bold","offset":1907,"length":8,"data":""},{"type":"handle","offset":1916,"length":8,"data":"OlgaVzh"}],"date":"2020-04-08T16:03:48+00:00","link":"tg://resolve?domain=python_jobs&post=0","tags":[{"name":"python"},{"name":"django"},{"name":"reactjs"},{"name":"dotnet"},{"name":"elasticsearch"},{"name":"angularjs"},{"name":"docker"},{"name":"amazon-web-services"},{"name":"machine-learning"},{"name":"net-core"}],"cities":[],"allowsRemote":true}},{"node":{"id":"66273148928-1001054966032","title":"Mobile developer","text":"#вакансия #офис #fulltime #спб #senior #teamlead #kotlin\nЛокация: СПб, м. Спортивная/Василеостровская\nФормат работы: Office (удаленка  в период самоизоляции)\nЗанятость: Full-time\nЗарплатная вилка: 140 000 - 200 000 (net)\n\nО проекте: мобильная студия разработки полного цикла, реализующая приложения и Hyper Casual/Midcore игры, в поисках Senior Mobile developer/Team lead\n\nЗадачи:\n- Руководство командой мобильной разработки (Android и iOS);\n- Найм и развитие сотрудников;\n- Код-ревью;\n- Планирование работы и декомпозиция задач;\n- Оценка сроков и работа с продуктовой командой;\n- Оптимизация приложений;\n- Работа с командой бэкенда (постановка и принятие задач);\n- Участие в планировании проектов/спринтов, контроль за реализацией проектов\n\nДля разработки используется Kotlin;\nМинимальная target версия minSdkVersion 21;\nДля работы с network Kotlin Coroutines;\nВсе графические изображения используется SVG, PNG;\nЛогирование через Crashlytics;\nCI через Gitlab\n\nЧто можем предложить:\n- кикер в офисе, а также свой личный массажист;\n- Любое железо на выбор;\n- Оплачиваемое обучение, курсы, поездки на конференции\nи многое др.\n\nКритика, вопросы, резюме - всегда welcome!\nTelegram @ru_spiridonov","markup":[{"type":"hashtag","offset":0,"length":9,"data":"вакансия"},{"type":"hashtag","offset":10,"length":5,"data":"офис"},{"type":"hashtag","offset":16,"length":9,"data":"fulltime"},{"type":"hashtag","offset":26,"length":4,"data":"спб"},{"type":"hashtag","offset":31,"length":7,"data":"senior"},{"type":"hashtag","offset":39,"length":9,"data":"teamlead"},{"type":"hashtag","offset":49,"length":7,"data":"kotlin"},{"type":"bold","offset":338,"length":6,"data":""},{"type":"bold","offset":345,"length":28,"data":""},{"type":"handle","offset":1177,"length":14,"data":"ru_spiridonov"}],"date":"2020-04-08T13:36:29+00:00","link":"tg://resolve?domain=mobile_jobs&post=0","tags":[{"name":"mobile"},{"name":"android"},{"name":"ios"},{"name":"kotlin"},{"name":"dotnet"},{"name":"svg"},{"name":"gitlab"}],"cities":[],"allowsRemote":true}},{"node":{"id":"66254274560-1001054966032","title":"Android разработчик","text":"#вакансия #fulltime  #vacancy  #remote #ремоут  #Flutterdeveloper #Flutter \n\n💻 Flutter Developer\n🕐 Fulltime remote\n👩🏻‍💻1-1,5 year of commercial development on Flutter\n💰from 10 $/hour to 12 $/hour\n\nВсем привет!🙋🏻‍♀️\nAMS ищет разработчиков на долгосрочное сотрудничество на ремоут. Мы занимаемся разработкой мобильных приложений под Android и IOS.\n\nУсловия:\n-проектная занятость;\n-доступность в неделю 40 часов.\n\nТребования :\n-коммерческий опыт разработки от 1-1,5 года;\n-английский B1+.\n\n📝 За подробностями по вакансиям и по всем вопросам  пишите:\ndarya.matsyas@ams-apps.com\nDarya \nLinkedIn","markup":[{"type":"hashtag","offset":0,"length":9,"data":"вакансия"},{"type":"hashtag","offset":10,"length":9,"data":"fulltime"},{"type":"hashtag","offset":21,"length":8,"data":"vacancy"},{"type":"hashtag","offset":31,"length":7,"data":"remote"},{"type":"hashtag","offset":39,"length":7,"data":"ремоут"},{"type":"hashtag","offset":48,"length":17,"data":"Flutterdeveloper"},{"type":"hashtag","offset":66,"length":8,"data":"Flutter"},{"type":"link","offset":495,"length":2,"data":"http://darya.matsyas@ams-apps.com/"},{"type":"link","offset":556,"length":27,"data":"http://darya.matsyas@ams-apps.com/"},{"type":"link","offset":590,"length":8,"data":"https://www.linkedin.com/in/darya-matyas-12ba33158/"}],"date":"2020-04-08T11:46:12+00:00","link":"tg://resolve?domain=mobile_jobs&post=0","tags":[{"name":"mobile"},{"name":"android"},{"name":"ios"},{"name":"flutter"}],"cities":[],"allowsRemote":true}}]}},"context":{}}