{"hash":"f5f6bf98bd95e769321482904cbbd488f77922fd","data":{"records":{"id":"apache","name":"apache","belongsTo":{"totalCount":31,"pageInfo":{"totalPages":4,"currentPage":4},"edges":[{"node":{"__typename":"Job","id":"2199912448-1001134745498","title":"Devops инженер","text":"#вакансия #DevOps \nDevOps Engineer \nГород и адрес офиса: Москва, Сочи, Новосибирск \n\nФормат работы: удаленка\n\nЗанятость: полная\n\nЗарплатная вилка: от 40000 до 60000 USD в год \n\nОписание вакансии: Крупная международная компания по разработке игр ищет в свою команду DevOps инженера. \n\nТребования: \nDevOps/SRE, ключевые слова:\nTypeScrypt, Node.js, SRE, SDN, PoP, VPN, динамическая маршрутизация, инкапсуляция трафика, Kubernetes, Helm и что-нибудь из стораджа типа Lustre, CEPH и про Apache Spark, Hadoop и особенно HDFS\n\nБудет плюсом: \n• Опыт удаленной работы.\n\nP.S. Ищем супер ниндзю, который отвечает всем требованиям вакансии \n\nКонтакт для связи: @temnik_sofya\n\n—\n\n👉 Обсуждение вакансии в чате @devops_jobs","markup":[{"type":"hashtag","offset":0,"length":9,"data":"вакансия"},{"type":"hashtag","offset":10,"length":7,"data":"DevOps"},{"type":"handle","offset":649,"length":13,"data":"temnik_sofya"},{"type":"handle","offset":697,"length":12,"data":"devops_jobs"}],"date":"2020-06-12T08:26:02+00:00","link":"tg://resolve?domain=devops_jobs_feed&post=2098","tags":[{"name":"nodejs"},{"name":"kubernetes"},{"name":"apache"},{"name":"hadoop"},{"name":"hdfs"},{"name":"apache-spark"}],"cities":[{"code":"moscow"},{"code":"sochi"},{"code":"novosibirsk"}],"allowsRemote":true}}]}}},"context":{}}