{"hash":"f5f6bf98bd95e769321482904cbbd488f77922fd","data":{"records":{"id":"html","name":"html","belongsTo":{"totalCount":110,"pageInfo":{"totalPages":11,"currentPage":9},"edges":[{"node":{"__typename":"Job","id":"17042505728-1001110946746","title":"Js developer","text":"#вакансия  #frontend #angular #js #javascript \nПозиция: Frontend developer (Middle)\nФормат работы: удаленка\nЗанятость: полная\nЗарплатная вилка: 70 000-100 000 на руки\nЗадача: помогать автоматизировать бизнес-процессы наших клиентов.\nТребования:\n-уверенное знание базовых технологий JavaScript, Angular,Typescript, HTML, CSS;\nТочно надо будет использовать:\n-Нативный JS, ES6+\n-Angular\n-Typescript\n-Кроссбраузерная вёрстка\n-S-ass/SCSS, методология БЭМ\n-Git\nКонтакты: @hr_anya, почта:a.konovalovahr@gmail.com\n\n—\n\n👉 Обсуждение вакансии в чате @javascript_jobs","markup":[{"type":"hashtag","offset":0,"length":9,"data":"вакансия"},{"type":"hashtag","offset":11,"length":9,"data":"frontend"},{"type":"hashtag","offset":21,"length":8,"data":"angular"},{"type":"hashtag","offset":30,"length":3,"data":"js"},{"type":"hashtag","offset":34,"length":11,"data":"javascript"},{"type":"handle","offset":465,"length":8,"data":"hr_anya"},{"type":"link","offset":475,"length":30,"data":"http://почта:a.konovalovahr@gmail.com"},{"type":"handle","offset":540,"length":16,"data":"javascript_jobs"}],"date":"2020-06-18T20:57:43+00:00","link":"tg://resolve?domain=javascript_jobs_feed&post=0","tags":[{"name":"javascript"},{"name":"angularjs"},{"name":"typescript"},{"name":"html"},{"name":"css"},{"name":"git"}],"cities":[],"allowsRemote":true}},{"node":{"__typename":"Job","id":"17040408576-1001110946746","title":"Js разработчик","text":"#вакансия  #backend #nodejs #javascript #удаленка #js #remote\n\nПозиция: Backend developer (Middle)\nКомпания: paradigmfund.io - инвестиционный фонд с офисами в Москве и Токио.\nФормат работы: Удаленка \nЗанятость: Полная с графиком работы (в выходные отдыхаем, в будни работаем по графику, гибкое начало рабочего дня)\nЗарплатная вилка: 110 000-150 000 руб. на руки\nЗадача: Участвовать в разработке новых и текущих it продуктов компании (криптовалютный кошелек, торговая биржа, обменник валют). \n\nТребования:\n- Опыт программирования на чистом JS не менее 3-х лет\n- Опыт программирования под Node.js не менее года\n- Опыт работы с серверами на Ubuntu\n- Знание SQL и особенностей PostgreSQL\n- Умение оптимизировать тяжелые запросы к базе\n- Хороший навык чтения чужого кода и модернизации его\n- Навык анализа новых структур данных и чужих API\n- Навык работы с Git\n- Гибкость, отзывчивость и хорошие soft skills, мы ценим дружелюбную и продуктивную среду, которую мы создали в команде, и надеемся, что вы гармонично в нее впишетесь.\n\nЖелательно:\n- Знание html, css, vue.js\n- Навык работы с docker'ами\n- Умение настраивать NGINX\n- Навык написание unit тестов\n- Навык поиска утечек памяти\n\nПомимо всего вышесказанного, у нас вы получите:\n- Работа в дружной команде, как разработчиков так и управленцев. \n- Профессиональное развитие и новые знания касаемо blockchain технологий.\n- Возможность релокации в офис в Москве.\n- Понятные процессы разработки (Agile, двухнедельные спринты, работаем в Jira и Confluence). \n\nКонтакты:\nМы стремимся постоянно автоматизировать и улучшать наши процессы, поэтому отклик на вакансию просим оставлять через форму: https://forms.gle/L9hWmD18Zs9kMo2E8\nС подходящими кандидатами свяжемся в течение недели, если возникли какие то вопросы, с радостью отвечу на них в лс @grshabl\n\n—\n\n👉 Обсуждение вакансии в чате @javascript_jobs","markup":[{"type":"hashtag","offset":0,"length":9,"data":"вакансия"},{"type":"hashtag","offset":11,"length":8,"data":"backend"},{"type":"hashtag","offset":20,"length":7,"data":"nodejs"},{"type":"hashtag","offset":28,"length":11,"data":"javascript"},{"type":"hashtag","offset":40,"length":9,"data":"удаленка"},{"type":"hashtag","offset":50,"length":3,"data":"js"},{"type":"hashtag","offset":54,"length":7,"data":"remote"},{"type":"link","offset":109,"length":15,"data":"http://paradigmfund.io"},{"type":"link","offset":1636,"length":35,"data":"https://forms.gle/L9hWmD18Zs9kMo2E8"},{"type":"handle","offset":1787,"length":8,"data":"grshabl"},{"type":"handle","offset":1830,"length":16,"data":"javascript_jobs"}],"date":"2020-06-18T11:24:11+00:00","link":"tg://resolve?domain=javascript_jobs_feed&post=0","tags":[{"name":"javascript"},{"name":"nodejs"},{"name":"ubuntu"},{"name":"sql"},{"name":"postgresql"},{"name":"git"},{"name":"html"},{"name":"css"},{"name":"vuejs"},{"name":"docker"},{"name":"nginx"}],"cities":[{"code":"tokyo"}],"allowsRemote":true}},{"node":{"__typename":"Job","id":"26406289408-1001075660570","title":"Php разработчик","text":"#работа #вакансия #удаленка #job #РНР #Yii #Laravel #Symfony \n\nВсем привет! \n\nСейчас нахожусь в поисках РНР разработчика уровня senior в одну из крупнейших ecommerce компаний России - Bork/Technopark. \nНа текущий  момент внутри идет несколько проектов по поддержке и развитию интернет-площадки по продаже бытовой техники и электроники премиум-класса.\n\nПродукты реализуются на стеке: PHP (Yii2), MySql, JS (Vue), HTML, CSS, Gulp, Webpack, SVG, Canvas. \nЗадачи: разработка серверной части веб-проектов на всех этапах (от участия в проектировании архитектуры, до разработки сервисов), участие в митапах для обсуждения предстоящих задач, вносить вклад в планирование архитектуры и т.д.\n\nОсновные требования:\n\n- Опыт коммерческой разработки от 3 лет на PHP (7.1 или выше);\n\n- Хорошие знания современных фреймворков  (YII, Symfony);\n\n- Знание ООП, базовых алгоритмов, шаблонов проектирования, стандартов написания кода.\n\nУсловия: \n\n- ЗП до 250 000 net;\n\n- Полная УДАЛЁНКА; \n\n- Оформление через ИП или как самозанятый; \n\nКто заинтересовался - пишите в ЛС (@nastyaklassnaya),  буду рада пообщаться :)","markup":[{"type":"hashtag","offset":0,"length":7,"data":"работа"},{"type":"hashtag","offset":8,"length":9,"data":"вакансия"},{"type":"hashtag","offset":18,"length":9,"data":"удаленка"},{"type":"hashtag","offset":28,"length":4,"data":"job"},{"type":"hashtag","offset":33,"length":4,"data":"РНР"},{"type":"hashtag","offset":38,"length":4,"data":"Yii"},{"type":"hashtag","offset":43,"length":8,"data":"Laravel"},{"type":"hashtag","offset":52,"length":8,"data":"Symfony"},{"type":"handle","offset":1049,"length":16,"data":"nastyaklassnaya"}],"date":"2020-06-18T08:54:14+00:00","link":"tg://resolve?domain=php_jobs&post=25183","tags":[{"name":"php"},{"name":"yii"},{"name":"laravel"},{"name":"symfony"},{"name":"mysql"},{"name":"vuejs"},{"name":"html"},{"name":"css"},{"name":"gulp"},{"name":"webpack"},{"name":"svg"},{"name":"canvas"},{"name":"dotnet"}],"cities":[],"allowsRemote":true}},{"node":{"__typename":"Job","id":"17025728512-1001110946746","title":"Javascript разработчик","text":"#вакансия #Москва #React #Redux #TypeScript\nFrontend-разработчик\nЛокация: Москва, Москва-Сити\nФормат работы: офис, после ИС возможна удаленка\nЗанятость: полная\nЗП: от 150 000 до 200 000 рублей на руки\n\nЗадача: Работа над ERP-системой, развитие и поддержка. \n\nТребования:\n•опыт коммерческой разработки от 3 лет\n•уверенное знание React, Redux, хуки, опыт оптимизации производительности\n•покрытие кода тестами\n•хорошее знание HTML и CSS\n•опыт работы с TypeScript больше года\n•знание git и webpack\n\nУсловия:\n•Уютный офис в Москва-Сити\n•Медицинская страховка, включая стоматологию\n•Дотация на питание\n•Оплата изучения иностранного языка\n• Макбук для работы (или любая другая конфигурация по желанию)\n•Оплата профильных конференций и семинаров\n\nНазвание компании: GetIT\nПроект: компания - часть международного инвестиционного фонда.\nРазработка внутренней корпоративной ERP-системы, включающей логистику, документооборот, финансовый учет.\n\nРезюме можно направить сюда:  @Rita_RS\nemail: m.sinelnikova@getit.agency\n\n—\n\n👉 Обсуждение вакансии в чате @javascript_jobs","markup":[{"type":"hashtag","offset":0,"length":9,"data":"вакансия"},{"type":"hashtag","offset":10,"length":7,"data":"Москва"},{"type":"hashtag","offset":18,"length":6,"data":"React"},{"type":"hashtag","offset":25,"length":6,"data":"Redux"},{"type":"hashtag","offset":32,"length":11,"data":"TypeScript"},{"type":"handle","offset":963,"length":8,"data":"Rita_RS"},{"type":"link","offset":979,"length":26,"data":"mailto:m.sinelnikova@getit.agency"},{"type":"handle","offset":1040,"length":16,"data":"javascript_jobs"}],"date":"2020-06-17T15:36:09+00:00","link":"tg://resolve?domain=javascript_jobs_feed&post=0","tags":[{"name":"javascript"},{"name":"reactjs"},{"name":"redux"},{"name":"typescript"},{"name":"html"},{"name":"css"},{"name":"git"},{"name":"webpack"},{"name":"react-redux"}],"cities":[{"code":"moscow"}],"allowsRemote":true}},{"node":{"__typename":"Job","id":"17013145600-1001110946746","title":"Js разработчик","text":"#вакансия\nГород и адрес офиса: Москва \nФормат работы: удаленка\nЗанятость: полная\nЗарплатная вилка:  от 80 000 до 150 000руб net\nОписание вакансии: Требования - миддл, опыт от 3х лет\nCSS3, HTML5, JavaScript\nVue.js второй версии\nwebpack\nопыт в работе с REST или GraphQL\nумение верстать или писать JS код с учетом возможностей IE11\nуверенное использование Git\nНазвание компании: в платформу WikiVote\nКонтакты: @irensergeeva\n\n—\n\n👉 Обсуждение вакансии в чате @javascript_jobs","markup":[{"type":"hashtag","offset":0,"length":9,"data":"вакансия"},{"type":"handle","offset":407,"length":13,"data":"irensergeeva"},{"type":"handle","offset":455,"length":16,"data":"javascript_jobs"}],"date":"2020-06-17T15:23:09+00:00","link":"tg://resolve?domain=javascript_jobs_feed&post=0","tags":[{"name":"javascript"},{"name":"dotnet"},{"name":"css"},{"name":"html"},{"name":"vuejs"},{"name":"webpack"},{"name":"rest"},{"name":"graphql"},{"name":"git"}],"cities":[{"code":"moscow"}],"allowsRemote":true}},{"node":{"__typename":"Job","id":"17011048448-1001110946746","title":"Js developer","text":"#вакансия #fulltime #frontend #js #react \nReact developer\nГород: Москва\nФормат работы: удаленная работа \nЗанятость: полная\nДиапазон: от 250 до 700 руб./ч\n\nОписание вакансии: Проект связан с сферой обучения. Задачи будут связаны с версткой, написание логики, подключение api.\nСтек технологий: \n- React.js ;\n- Mobx;\n- HTML5, CSS3, SCSS.\n\nКомпания: Secreate\nКонтакты: telegram @karysha\n\n—\n\n👉 Обсуждение вакансии в чате @javascript_jobs","markup":[{"type":"hashtag","offset":0,"length":9,"data":"вакансия"},{"type":"hashtag","offset":10,"length":9,"data":"fulltime"},{"type":"hashtag","offset":20,"length":9,"data":"frontend"},{"type":"hashtag","offset":30,"length":3,"data":"js"},{"type":"hashtag","offset":34,"length":6,"data":"react"},{"type":"handle","offset":374,"length":8,"data":"karysha"},{"type":"handle","offset":417,"length":16,"data":"javascript_jobs"}],"date":"2020-06-17T15:21:34+00:00","link":"tg://resolve?domain=javascript_jobs_feed&post=0","tags":[{"name":"javascript"},{"name":"reactjs"},{"name":"html"},{"name":"css"}],"cities":[{"code":"moscow"}],"allowsRemote":true}},{"node":{"__typename":"Job","id":"17009999872-1001110946746","title":"Js разработчик","text":"#вакансия #удаленно #frontend #react\nКомпания - VMB\nГород - Москва \nМетро - Киевская\nФормат - удаленная работа \nГрафик - полный рабочий день \n\n📍Приглашаем middle/middle + frontend разработчика развивать социальный и известный проект \n📍Что нужно? \nзнание React и TypeScript;\nотличное владение чистым JS;\nхорошее знание Node.js и ES6;\nхорошее знание HTML и CSS;\nумение работать с Git;\nпонимание особенностей SPA-приложений.\n📍Плюсами будут:\nпонимание принципов разработки изоморфных приложений;\nопыт разработки под мобильные браузеры;\nзнакомство с Unix-системами;\nопыт написания тестов (юнит- или интеграционных);\nопыт работы с системами сборки (Webpack, Rollup, Gulp, Grunt и т. п.);\nопыт работы с системами непрерывной интеграции (TeamСity, Travis, Jenkins, Drone и т. п.).\n📍Что предлагаем?\nУдалённую занятость \nВозможность развиваться и развивать интересный проект\nЗП 150-200к рублей на руки \n\nКонтакты \n@nariarakel","markup":[{"type":"hashtag","offset":0,"length":9,"data":"вакансия"},{"type":"hashtag","offset":10,"length":9,"data":"удаленно"},{"type":"hashtag","offset":20,"length":9,"data":"frontend"},{"type":"hashtag","offset":30,"length":6,"data":"react"},{"type":"handle","offset":908,"length":11,"data":"nariarakel"}],"date":"2020-06-17T15:21:28+00:00","link":"tg://resolve?domain=javascript_jobs_feed&post=0","tags":[{"name":"javascript"},{"name":"reactjs"},{"name":"typescript"},{"name":"nodejs"},{"name":"html"},{"name":"css"},{"name":"git"},{"name":"unix"},{"name":"webpack"},{"name":"gulp"},{"name":"gruntjs"},{"name":"jenkins"}],"cities":[{"code":"moscow"},{"code":"kiev"}],"allowsRemote":true}},{"node":{"__typename":"Job","id":"17004756992-1001110946746","title":"Js разработчик","text":"MIDDLE FRONTEND DEVELOPER\n#вакансия #Москва #Vue.js #javascript #vanilla.js #frontend\nКомпания-резидент Сколково в поиске FRONTEND DEVELOPER (Middle). \nMedpoint24 (https://medpoint24.ru/#about) - бурно развивающаяся компания, предоставляющая программное обеспечение и оборудование для автоматизированного проведения медицинских осмотров водителей. \nОфис в г. Москва, 7 мин от м. Марьина Роща/м. Савёловская \nФормат: фулл-тайм (гибкое начало рабочего дня), в офисе, оформление полностью по ТК. \nЗ/П - от 130 000net - 160 000net \nКоманда из 20 человек: разработчики (фронт, бэк, фуллстак), техлид, тестировщики, системный аналитик, DevOps инженер. \nЧТО ДЕЛАТЬ: \n-Разработка клиентской части web-приложений\n-Поддержка и рефакторинг существующего front-end\n-Участие в разработке архитектуры web-приложений\n-Принятие участия в тестировании web-приложений\nТРЕБОВАНИЯ: \n- Опыт от 1,5-2 года по направлению Frontend\n-Знание Vanilla.js, Vue.js 2.0, html 5, css 3, Javascript ES6 и выше\n-Понимание принципов Клиент-серверной архитектуры, REST, СКВ (git), *NIX систем\nПишите смело по всем вопросам: \nТелега:@hr_orlik\nПочта: v.orlik@medpoint24.ru\n\n—\n\n👉 Обсуждение вакансии в чате @javascript_jobs","markup":[{"type":"hashtag","offset":26,"length":9,"data":"вакансия"},{"type":"hashtag","offset":36,"length":7,"data":"Москва"},{"type":"hashtag","offset":44,"length":4,"data":"Vue"},{"type":"hashtag","offset":52,"length":11,"data":"javascript"},{"type":"hashtag","offset":64,"length":8,"data":"vanilla"},{"type":"hashtag","offset":76,"length":9,"data":"frontend"},{"type":"link","offset":164,"length":28,"data":"https://medpoint24.ru/#about"},{"type":"handle","offset":1096,"length":9,"data":"hr_orlik"},{"type":"link","offset":1113,"length":21,"data":"mailto:v.orlik@medpoint24.ru"},{"type":"handle","offset":1169,"length":16,"data":"javascript_jobs"}],"date":"2020-06-17T15:15:44+00:00","link":"tg://resolve?domain=javascript_jobs_feed&post=0","tags":[{"name":"javascript"},{"name":"vuejs"},{"name":"dotnet"},{"name":"web"},{"name":"html"},{"name":"css"},{"name":"rest"},{"name":"git"}],"cities":[{"code":"moscow"}],"allowsRemote":false}},{"node":{"__typename":"Job","id":"16997416960-1001110946746","title":"Js разработчик","text":"#вакансия \"Front-end разработчик\" г.Нур-Султан (Астана)\nПредлагаемая заработная плата 300 000 – 500 000 KZT на руки.\n🔹Информация о Работодателе:\nКазахстанская IT компания. Инновационный продукт компании успешно существует на рынке более 4 лет и насчитывает более 500 пользователей по всему Казахстану.\nМы ищем человека, который будет вовлечен в разработку данной информационной системы на длительное время.\n🔹Обязанности:\n• Разработка frontend-части проекта; \n• Доработка существующих версий проектов; \n• Проектирование пользовательских интерфейсов; \n• Кроссбраузерная и адаптивная верстка HTML5/CSS3; \n• Полное понимание предметной области и консультированаие Back-end разработчиков; \n• Анализ существующих систем и разработка способов интеграции; \n• Оптимизация клиентского портала (#JS, #CSS);\n🔹Основные требования: \n• Свободное владение #HTML и CSS; \n• Понимание препроцессоров CSS (Sass (SCSS), #Less, #Stylus, CSS3); \n• Свободное владение #JavaScript (ES6+), Vue.js (2.x); \n• Знание и опыт работы с фреймворками и библиотеками: #Angular.JS, #React.JS; \n• Владение инструментами дебаггинга; \n• Владение инструментами контроля версий (#Git); \n• #Element, #Webpack; \n• Понимание принципов построения бекэнда и серверных технологий (Node.js, #PHP, #Ruby, .NET и т.д.\n 🔹Условия: \n• Стабильно высокую зарплату от 300 000 до 500 000 тг. на руки; \n• Пятидневная рабочая неделя с 9:00 до 18:00; \n• Дружный коллектив, оказывающий поддержку во всем; \n• Возможности внедрять идеи и инициативы; \n• Возможность обучения за счет организации; \n• Работа в офисе по адресу г. Нур-Султан (Астана), ул. Иманова.\n\n📩Эл. почта для резюме: ke@recrutoman.kz\n\n—\n\n👉 Обсуждение вакансии в чате @javascript_jobs","markup":[{"type":"hashtag","offset":0,"length":9,"data":"вакансия"},{"type":"hashtag","offset":786,"length":3,"data":"JS"},{"type":"hashtag","offset":791,"length":4,"data":"CSS"},{"type":"hashtag","offset":843,"length":5,"data":"HTML"},{"type":"hashtag","offset":902,"length":5,"data":"Less"},{"type":"hashtag","offset":909,"length":7,"data":"Stylus"},{"type":"hashtag","offset":947,"length":11,"data":"JavaScript"},{"type":"hashtag","offset":1036,"length":8,"data":"Angular"},{"type":"hashtag","offset":1049,"length":6,"data":"React"},{"type":"hashtag","offset":1141,"length":4,"data":"Git"},{"type":"hashtag","offset":1151,"length":8,"data":"Element"},{"type":"hashtag","offset":1161,"length":8,"data":"Webpack"},{"type":"hashtag","offset":1246,"length":4,"data":"PHP"},{"type":"hashtag","offset":1252,"length":5,"data":"Ruby"},{"type":"link","offset":1626,"length":16,"data":"mailto:ke@recrutoman.kz"},{"type":"handle","offset":1677,"length":16,"data":"javascript_jobs"}],"date":"2020-06-17T15:08:41+00:00","link":"tg://resolve?domain=javascript_jobs_feed&post=0","tags":[{"name":"javascript"},{"name":"html"},{"name":"css"},{"name":"sass"},{"name":"vuejs"},{"name":"angularjs"},{"name":"reactjs"},{"name":"git"},{"name":"webpack"},{"name":"nodejs"},{"name":"php"},{"name":"ruby"},{"name":"dotnet"}],"cities":[],"allowsRemote":false}},{"node":{"__typename":"Job","id":"16994271232-1001110946746","title":"Js разработчик","text":"#вакансия #удаленка #работа #js #javascript #разработчик\n\nГород и адрес офиса: Тель-Авив \nФормат работы: удаленка\nЗанятость: полная, гибкий график.\n\nЗарплатная вилка: 5500-6000$/мес. (Почасовая оплата 35$/час + ежемесячный бонус 250$)\n\nНалоги платите по месту жительства. ИП 6%. Если патент, то он зависит от места жительства. В Подмосковье 12 000 руб в год. В Москве 300 тыс. в год. Как сами оформите налоги, так и платите. \n\nИщу разработчика к нам в команду: израильский проект Luminati (https://luminati.io).  Full-Stack. Компания разрабатывает несколько продуктов, в том числе p2p vpn, видео cdn нового поколения http://holaspark.com/\nОфис в Тель-Авиве, работа удаленная! График свободный. Что нам нужно:\n\n • Knowledge in Node JS framework: ExpressJS, Promise - Experience with MongoDB \n- Creating RESTful web services/API’s using Node.js with or without framework assistance \n\n- JavaScript-based unit testing tools \n\n- Client-side browser technologies including JavaScript, CSS, and HTML \n\n- 1 year development experience in Node JS with a solid working knowledge of frameworks and architecture \n\n- 2+ year’s overall development experience using JavaScript and open web technologies \n\n- хороший английский язык, идеальная грамматика не обязательна \n\n • работа удаленная, 7-9 часов в день (по желанию)\n • зарплата от 35$/час (+фиксированный бонус 250$ ежемесячно), через полгода повышается\n • после того, как откроют границы и будут возможны перелёты - выезд в офис на заключение контракта (перед этим возможно заключение с электронной подписью), отель и перелет за счет компании, море под окном\n\nОтвечу на все вопросы:)\n\nИнстаграмм https://instagram.com/hola_better_internet\n\nРезюме сюда:  luda.hola@gmail.com\n\n—\n\n👉 Обсуждение вакансии в чате @javascript_jobs","markup":[{"type":"hashtag","offset":0,"length":9,"data":"вакансия"},{"type":"hashtag","offset":10,"length":9,"data":"удаленка"},{"type":"hashtag","offset":20,"length":7,"data":"работа"},{"type":"hashtag","offset":28,"length":3,"data":"js"},{"type":"hashtag","offset":32,"length":11,"data":"javascript"},{"type":"hashtag","offset":44,"length":12,"data":"разработчик"},{"type":"link","offset":490,"length":19,"data":"https://luminati.io"},{"type":"link","offset":617,"length":21,"data":"http://holaspark.com/"},{"type":"link","offset":1637,"length":42,"data":"https://instagram.com/hola_better_internet"},{"type":"link","offset":1695,"length":19,"data":"mailto:luda.hola@gmail.com"},{"type":"handle","offset":1749,"length":16,"data":"javascript_jobs"}],"date":"2020-06-17T15:04:21+00:00","link":"tg://resolve?domain=javascript_jobs_feed&post=0","tags":[{"name":"javascript"},{"name":"nodejs"},{"name":"mongodb"},{"name":"web"},{"name":"css"},{"name":"html"},{"name":"unit-testing"}],"cities":[],"allowsRemote":true}}]}}},"context":{}}