{"hash":"f5f6bf98bd95e769321482904cbbd488f77922fd","data":{"records":{"id":"scala","name":"scala","belongsTo":{"totalCount":13,"pageInfo":{"totalPages":2,"currentPage":2},"edges":[{"node":{"__typename":"Job","id":"344981504-1001352129329","title":"Go разработчик","text":"#вакансия #go #релокейт #fulltime #oфис\nНазвание компании: Toughbyte \nНазвание вакансии: Senior Go Developer\nЗарплатная вилка (до налогов): 3500-5000 EUR\nДоступна ли удалённая работа: Нет, офис, полный день.\nГород: Helsinki, Espoo\nСписок языков, которые необходимо знать: Английский \n\nСписок необходимых навыков: Go и по крайней мере, еще один надежный статически типизированный язык бэкэнда (например, Haskell, Rust, C#, Scala, Java, Elixir).\n- Опыт написания функционального кода\n- Опыт создания микросервисной архитектуры\n- Знание DevOps \n\n\nДано: Компания автоматизирует процесс проверки различных установок из воздуха с помощью дронов (например, линии электропередачи, ветрянные мельницы и тд). Они занимаются не производством самих дронов, а улучшением их производительности с помощью созданной командой компании самой развитой в мире системы воздушных датчиков. Благодаря этой технологии процесс сбора и анализа информации с помощью дронов стал намного быстрее, а затраты компаний на проверку и поддержание состояния своих установок значительно уменьшились. \n\nВ настоящий момент компания находится в поиске амбициозного Go разработчика, который бы присоединился к их команде в Хельсинки. Компания предлагает интересные и сложные задачи, связанные со сбором информации, геопривязки, анализом и обраткой 3D изображений практически в режиме реального времени, и последующая визуализация результатов с помощью современного веб интерфейса. \n\nПомимо возможности стать частью инновационного проекта, компания предлагает гибкие рабочие часы, а также возможность получить опыт с интересными технологиями в сфере дронов, географических информационных систем, интеграции датчиков - таких как LiDAR и тепловизионные камеры, ML / AI, DevOps.\nКонтактное лицо: Даша - @Daria_Shvec","markup":[{"type":"hashtag","offset":0,"length":9,"data":"вакансия"},{"type":"hashtag","offset":10,"length":3,"data":"go"},{"type":"hashtag","offset":14,"length":9,"data":"релокейт"},{"type":"hashtag","offset":24,"length":9,"data":"fulltime"},{"type":"hashtag","offset":34,"length":5,"data":"oфис"},{"type":"handle","offset":1759,"length":12,"data":"Daria_Shvec"}],"date":"2020-06-16T16:12:32+00:00","link":"tg://resolve?domain=gogetajobfeed&post=329","tags":[{"name":"go"},{"name":"haskell"},{"name":"rust"},{"name":"scala"},{"name":"java"},{"name":"elixir"}],"cities":[{"code":"helsinki"}],"allowsRemote":true}},{"node":{"__typename":"Job","id":"1684013056-1001091028994","title":"Java разработчик","text":"#java #java11 #tarantool #lua #redis #kotlin \n\nКомпания #Иннодата (ГК Ramax) - системный интегратор с офисами в #Москва, #Питер, #Воронеж, #Иннополис. \nФормат работы #офис, #fulltime #remote\nВилка: от 200 net на руки\nКонтакт для связи: pbokarev@innodata.ru \n\n📌Задача: Нам предстоит разработать один из центральных компонентов ИТ системы крупнейшей ритейл сети.\n\nГеораспределённую mission-critical платформу, работающую в режиме 24/7 365, объединяющую информацию из всех подразделений и IT-систем, связанных с клиентом, в единый профиль. К системе предъявляются жесткие требования ко времени отклика и rps. Ядром системы мы выбрали tarantool - одно из самых навороченных imdg решений на данный момент. Мы ищем человека, который не боится новых вызовов и готов развиваться, устал от бесконечный crud'ов и хочет попробовать себя в highload. Готовы рассмотреть кандидатов разного уровня!\n\n📌Наши плюсы:\nНикакого legacy, тк проект только начинается, есть возможность поучаствовать в выборе стека. Современные технологии, мощный кластер, после окончания проекта возможность работы на других проектах (scala, BIgData)\n\n📌Стек технологий:\nJava 11;\nTarantool (Lua);\nClickhouse;\nPostgreSQL;\n\n📌Требования:\nОпыт коммерческой разработки на Java более 2 лет. Будет плюсом умение писать на Kotlin;\nSQL, опыт проектирования реляционнных баз данных;\nОпыт использования Tarantool или Redis (Lua);\nПонимание разницы OLAP и OLTP;\n\n📌Будет плюсом:\nОпыт работы с распределёнными системами;\nОпыт разработки highload систем;\nОпыт разработки многопоточных приложений;\n\n📌Обязанности:\nУчастие в проектировании архитектуры и детализации работ;\nНепосредсвенно реализация задач;\nПокрытие нового функционала тестами (unit, регрессионные);","markup":[{"type":"hashtag","offset":0,"length":5,"data":"java"},{"type":"hashtag","offset":6,"length":7,"data":"java11"},{"type":"hashtag","offset":14,"length":10,"data":"tarantool"},{"type":"hashtag","offset":25,"length":4,"data":"lua"},{"type":"hashtag","offset":30,"length":6,"data":"redis"},{"type":"hashtag","offset":37,"length":7,"data":"kotlin"},{"type":"hashtag","offset":56,"length":9,"data":"Иннодата"},{"type":"hashtag","offset":112,"length":7,"data":"Москва"},{"type":"hashtag","offset":121,"length":6,"data":"Питер"},{"type":"hashtag","offset":129,"length":8,"data":"Воронеж"},{"type":"hashtag","offset":139,"length":10,"data":"Иннополис"},{"type":"hashtag","offset":166,"length":5,"data":"офис"},{"type":"hashtag","offset":173,"length":9,"data":"fulltime"},{"type":"hashtag","offset":183,"length":7,"data":"remote"},{"type":"link","offset":236,"length":20,"data":"mailto:pbokarev@innodata.ru"}],"date":"2020-06-16T07:13:08+00:00","link":"tg://resolve?domain=jvmjobs&post=1606","tags":[{"name":"java"},{"name":"jvm"},{"name":"lua"},{"name":"redis"},{"name":"kotlin"},{"name":"dotnet"},{"name":"scala"},{"name":"postgresql"},{"name":"sql"}],"cities":[{"code":"moscow"},{"code":"voronezh"}],"allowsRemote":true}},{"node":{"__typename":"Job","id":"16841179136-1001110946746","title":"Js developer","text":"#вакансия #remote #node #fullstack_developer #startup\nSenior Software Developer \nЛокация: г. Москва, м. Белорусская\nФормат работы: удаленка и офис, мы за свободу выбора.\nЗанятость: полная (возможно частичная в период onboarding’a)\nЗарплатная вилка: от 200 000 до 300 000 рублей net\n\nОписание вакансии:\n\nSegmentStream — это технологический стартап со штаб-квартирой в Лондоне и офисом в Москве, где в основном сосредоточена команда разработки. Также часть сотрудников работает удаленно из Кипра, Санкт-Петербурга и других городов. \n\nПродукт:\nПлатформа для построения продвинутой маркетинговой аналитики. \n\nМы используем технологии обработки больших данных и машинное обучение, чтобы помочь маркетологам точно оценивать эффективность рекламных кампаний, при этом не тратить время на подготовку подобной отчетности вручную.\n\nТак, платформа SegmentStream позволяет наладить сбор данных из всех рекламных кабинетов, сайта, CRM-систем и других источников данных, объединить их в полезные маркетинговые отчеты, и применить справедливую модель атрибуции для понимания реальной ценности каждого маркетингового канала и кампании.   \n\nЧто мы делаем:\n- Мы разрабатываем высоконагруженные data pipelines с использованием NodeJs\n- Мы строим UI на React\n- Мы разрабатываем наш API, используя NodeJS и TypeScript.\n- Мы деплоим наш код несколько раз в день. Мы любим эффективность, облачные решения, CI / CD, Spinnaker, Kubernetes и Terraform.\n\nСтек команды: JavaScript, Node.js, React, TypeScript, Kubernetes, Google Cloud, Rust, Scala.\n\n Пример будущих задач:\n\n- Создать масштабируемую и отказоустойчивую архитектуру микросервиса с балансировкой нагрузки и автоматическим обнаружением.\n- Параллельная обработка терабайтов данных в условиях жестких ограничений оперативной памяти.\n- Создание высокодоступных конвейеров обработки событий в реальном времени с неограниченной масштабируемостью.\n- Построение эффективных систем кэширования и проксирования.\n\nТребования:\n\n- Опыт разработки бекенда и фронтенда на  ES6 или TypeScript;\n- 4+ лет опыта разработки или наличия крутых проектов с открытым исходным кодом на GitHub.\n- Сильные теоретические знания и практический опыт в проектировании и реализации высокодоступных, высоконагруженных, отказоустойчивых распределенных систем.\n- Знание английского языка не ниже B1\nЖелательно:\nТехническое образование\n\nКонтакты: @bezelune ; nelya.bakhshibaeva@segmentstream.com; segmentstream.com","markup":[{"type":"hashtag","offset":0,"length":9,"data":"вакансия"},{"type":"hashtag","offset":10,"length":7,"data":"remote"},{"type":"hashtag","offset":18,"length":5,"data":"node"},{"type":"hashtag","offset":24,"length":20,"data":"fullstack_developer"},{"type":"hashtag","offset":45,"length":8,"data":"startup"},{"type":"handle","offset":2346,"length":9,"data":"bezelune"},{"type":"link","offset":2358,"length":36,"data":"mailto:nelya.bakhshibaeva@segmentstream.com"},{"type":"link","offset":2396,"length":17,"data":"http://segmentstream.com"}],"date":"2020-06-11T19:44:16+00:00","link":"tg://resolve?domain=javascript_jobs_feed&post=0","tags":[{"name":"javascript"},{"name":"nodejs"},{"name":"dotnet"},{"name":"reactjs"},{"name":"typescript"},{"name":"kubernetes"},{"name":"cloud"},{"name":"rust"},{"name":"scala"},{"name":"github"},{"name":"google-cloud-platform"}],"cities":[{"code":"moscow"}],"allowsRemote":true}}]}}},"context":{}}