{"hash":"f5f6bf98bd95e769321482904cbbd488f77922fd","data":{"records":{"id":"selenium","name":"selenium","belongsTo":{"totalCount":45,"pageInfo":{"totalPages":5,"currentPage":1},"edges":[{"node":{"__typename":"Job","id":"104366866432-1001089317451","title":"Qa engineer","text":"#вакансия #QA #Краснодар #Krasnodar #fulltime #java #sql #API #web #mobile #Functionaltesting\n\n✅Вакансия: QA engineer \n✅Город: Краснодар (релокация)\n✅Занятость: полная, офис\n✅ЗП вилка: 80 000 - 100 000р. gross (обсуждаема)\n✅КА: IT.Huntme\n\nИщем функционального тестировщика, но если у него есть еще и знания автотестирования, то это доп. бонус (и в этом случае смотрим требования ниже для такого опыта).\n\nЗадачи:\n· Обеспечение качества разработки ПО;\n· Проведение системного, интеграционно-функционального, регрессионного тестирования в рамках регулярных интеграционных релизов, приветствуется желание участвовать в автоматизации процесса тестирования;\n· Автоматизация процессов функционального тестирования, разработка автотестов, заглушек, поддержка framework (для автотестировщиков)\n· Активное взаимодействие внутри команды и за ее пределами (аналитики, разработчики, тестировщики интеграционных проектов, работа в Agile команде);\n· Анализ бизнес требований, функциональных требований и технических заданий;\n· Ведение BUG-трекера; контроль, тестирование исправления дефектов;\n· Выявление и эскалация проблем, подготовка заключений качества тестирования.\n\n🙌Наши ожидания:\n· Опыт работы в сфере тестирования и /или аналитики от 1 года;\n· Знание теоретических основ тестирования, практик и инструментов;\n· Опыт подготовки тестовых моделей для тестирования нового функционала;\n· Умение грамотно описывать тестовую модель и дефекты;\n· Знание техник тест-дизайна и умение применять их на практике;\n· Опыт работы с багтрекинговыми системами и системами управления тестированием (HP ALM, Atlassian Jira или аналогичными): разработка тестов, кроссировка требований с тестами и работа с дефектами);\n· Знание SQL (написание запросов средней сложности, на уровне join)\n· Представление о взаимодействии интеграционных решений (front-end);\n· Опыт или хорошее представление о тестировании SOAP/REST веб-сервисов, работа с XML;\n\nДополнительно для автоматизаторов:\n· Опыт программирования на Java или\\и Python - практический навык написания автотестов с использованием хотя бы одного языка\n\nБудет плюсом:\n· Опыт работы в сфере тестирования более 1 года;\n· Практический опыт тестирования интеграционных решений на уровне UI и API;\n· Опыт системного и интеграционного тестирования релизов, в том числе взаимодействие фронт-офисных и бэк-офисных систем;\n· Опыт анализа большого объема документации и подготовки тестовой модели;\n· Знание SQL на более продвинутых уровнях (составление запросов различной сложности, объединение нескольких таблиц – от 3-х и более, вложенные запросы, фильтрация по нескольким полям, умение работать с разным форматом дат, создание/удаление редактирование таблиц, создание процедур), опыт работы с СУБД Oracle/MS SQL Server;\n· Опыт работы с десктопными приложениями или WEB-приложениями;\n· Опыт работы с расчетами комиссий, налогов;\n· Опыт работы с Diasoft 5NT\n· Опыт разработки авто-тестов по методологии BDD (Java + Spring Framework + Cucumber);\n· Опыт разработки эмуляторов/заглушек;\n· Практический опыт автоматизации тестирования на одном из инструменте: Selenium, cucumber, Junit, TestNG, Espresso, Earl Grey;\n· Практический опыт внедрения инструментов и практик DevOps;\n\n👍Что мы готовы предложить:\n- Работу в крупной компании с возможностью поработать в распределенной команде на крупном проекте; \n- Работу с новейшими технологиями и участие в проектах из разных областей;\n- Полное соблюдение ТК РФ; \n- Белая зарплата, отпускные и больничный + Социальный пакет;\n- ДМС с первого дня работы в компании;\n- Курсы английского языка.\n✍️Контакты: @mary_itfox или it.huntme@gmail.com","markup":[{"type":"hashtag","offset":0,"length":9,"data":"вакансия"},{"type":"hashtag","offset":10,"length":3,"data":"QA"},{"type":"hashtag","offset":14,"length":10,"data":"Краснодар"},{"type":"hashtag","offset":25,"length":10,"data":"Krasnodar"},{"type":"hashtag","offset":36,"length":9,"data":"fulltime"},{"type":"hashtag","offset":46,"length":5,"data":"java"},{"type":"hashtag","offset":52,"length":4,"data":"sql"},{"type":"hashtag","offset":57,"length":4,"data":"API"},{"type":"hashtag","offset":62,"length":4,"data":"web"},{"type":"hashtag","offset":67,"length":7,"data":"mobile"},{"type":"hashtag","offset":75,"length":18,"data":"Functionaltesting"},{"type":"handle","offset":3565,"length":11,"data":"mary_itfox"},{"type":"link","offset":3581,"length":19,"data":"mailto:it.huntme@gmail.com"}],"date":"2020-07-03T11:30:48+00:00","link":"tg://resolve?domain=qa_jobs&post=99532","tags":[{"name":"qa"},{"name":"java"},{"name":"sql"},{"name":"web"},{"name":"mobile"},{"name":"soap"},{"name":"rest"},{"name":"xml"},{"name":"python"},{"name":"oracle"},{"name":"spring"},{"name":"cucumber"},{"name":"selenium"},{"name":"junit"},{"name":"sql-server"}],"cities":[{"code":"krasnodar"}],"allowsRemote":false}},{"node":{"__typename":"Job","id":"104346943488-1001089317451","title":"Qa инженер","text":"#вакансия #QA #automation #москва #fulltime \nКомпания: #KALABI\nЛокация: Мск, Сухаревская\nФормат работы: fulltime, офис, гибкий график\nЗ/П: 80 000 – 120 000 net.\n👉 Что потребуется от Вас:\n✔ Знание основ тестирования (жизненный цикл разработки ПО, цели тестирования, что такое качество, что такое ошибка и т.д.);\n✔ Практические знания различных видов и типов тестирования;\n✔ Знания разработки тестовой документации (сценарии, тест-кейсы, чек-листы);\n✔ Практические навыки написания автотестов на Selenium, навыки их интегрирования в Git или Jenkins;\n👉 Чем предстоит заниматься:\n✔ Проводить комплексное тестирование программного продукта (функциональное и нефункциональное);\n✔ Анализировать требования к программному продукту;\n✔ Разрабатывать автотесты и загружать их на сервер непрерывной интеграции;\n✔ Фиксировать дефекты в баг-трекер;\n✔ Обеспечивать контроль качества разрабатываемых продуктов.\n👉 Что мы предлагаем:\n✅прекрасный офис в центре Москвы, гибкий график (пару дней в неделю можно работать из дома);\n✅полностью белая зарплата, ДМС;\n✅обучение используемым технологиям, сложные и необычные задачи (некоторые из задач решаются всего в нескольких компаниях в мире).\n📞telegram:@faina_kleinman\n📮e-mail: fk@kalabi.ru","markup":[{"type":"hashtag","offset":0,"length":9,"data":"вакансия"},{"type":"hashtag","offset":10,"length":3,"data":"QA"},{"type":"hashtag","offset":14,"length":11,"data":"automation"},{"type":"hashtag","offset":26,"length":7,"data":"москва"},{"type":"hashtag","offset":34,"length":9,"data":"fulltime"},{"type":"hashtag","offset":55,"length":7,"data":"KALABI"},{"type":"handle","offset":1185,"length":15,"data":"faina_kleinman"},{"type":"link","offset":1211,"length":12,"data":"mailto:fk@kalabi.ru"}],"date":"2020-07-03T10:21:36+00:00","link":"tg://resolve?domain=qa_jobs&post=99513","tags":[{"name":"qa"},{"name":"dotnet"},{"name":"selenium"},{"name":"git"},{"name":"jenkins"}],"cities":[{"code":"moscow"}],"allowsRemote":false}},{"node":{"__typename":"Job","id":"104329117696-1001089317451","title":"Qa engineer","text":"#вакансия #QA #фуллстек #ФТ #АТ #удаленка \n\nВакансия: QA Engineer (АФТ на Java/Ruby/C#)\nГород: Москва или удаленка из городов РФ, стандартный график с Москвой\nЗарплата: от 140 000 рублей до 240 000 рублей на руки \nФормат: полный день, полная занятость\nКомпания Innovative People \n\n➡ Требования:\n• От 2х лет опыта тестирования веб- или мобильных приложений\n• Практический опыт применения практик тест-дизайна\n• Рабочие знания клиент-серверной архитектуры\n• Знание Java/Ruby/C#, опыт автоматизации от 1 года\n• Уверенный опыт разработки авто-тестов, работы с инструментами автоматизации\nДля удаленки нужен релевантный опыт удаленной работы.\n\n➡ Обязанности:\n• Автоматизированное тестирование (Selenium/Selenide+Cucumber)\n• Функциональное, интеграционное, регрессионное и приемочное тестирование\n\n➡ Предлагаем:\n• все по ТК РФ, белое и официальное\n• ДМС со стоматологией, программа лояльности\n• адекватное руководство\n• большое комьюнити, классные команды, карьерный рост\n• помогаем с релокацией в Москву/Питер/Екатеринбург (50 000 рублей)\nили есть возможность работы удаленно\n\nРезюме и вопросы @Priboch","markup":[{"type":"hashtag","offset":0,"length":9,"data":"вакансия"},{"type":"hashtag","offset":10,"length":3,"data":"QA"},{"type":"hashtag","offset":14,"length":9,"data":"фуллстек"},{"type":"hashtag","offset":24,"length":3,"data":"ФТ"},{"type":"hashtag","offset":28,"length":3,"data":"АТ"},{"type":"hashtag","offset":32,"length":9,"data":"удаленка"},{"type":"handle","offset":1089,"length":8,"data":"Priboch"}],"date":"2020-07-03T08:33:25+00:00","link":"tg://resolve?domain=qa_jobs&post=99496","tags":[{"name":"qa"},{"name":"java"},{"name":"ruby"},{"name":"selenium"},{"name":"cucumber"}],"cities":[{"code":"moscow"}],"allowsRemote":true}},{"node":{"__typename":"Job","id":"104322826240-1001089317451","title":"Qa engineer","text":"#вакансия #Москва #офис #fulltime #QA \n\nВсем привет! \nИщем QA Engineer ( web и мобилка)\n\nКомпания: банк \"Открытие\"\nМосква, м Динамо\n💰 до 135 тыс. гросс\n\nОсновные задачи:\nТестирование ДБО для юридических лиц, разработка собственного фреймворка\n\nТребования:\n- опыт выполнения простых задачах в автотестировании на Java;\n- хороший бэкграунд в других видах тестирования;\n- знание Java (Selenium, Selenide).\n\n\nУсловия:\n-Отсутствие дресс-кода;\n-Льготное кредитование;\n-ДМС;\n-Корпоративный спорт.\n\nПо всем вопросам пишите @VickyKS","markup":[{"type":"hashtag","offset":0,"length":9,"data":"вакансия"},{"type":"hashtag","offset":10,"length":7,"data":"Москва"},{"type":"hashtag","offset":18,"length":5,"data":"офис"},{"type":"hashtag","offset":24,"length":9,"data":"fulltime"},{"type":"hashtag","offset":34,"length":3,"data":"QA"},{"type":"bold","offset":154,"length":17,"data":""},{"type":"bold","offset":245,"length":12,"data":""},{"type":"bold","offset":406,"length":9,"data":""},{"type":"handle","offset":516,"length":8,"data":"VickyKS"}],"date":"2020-07-03T07:02:51+00:00","link":"tg://resolve?domain=qa_jobs&post=99490","tags":[{"name":"qa"},{"name":"web"},{"name":"java"},{"name":"selenium"}],"cities":[{"code":"moscow"}],"allowsRemote":false}},{"node":{"__typename":"Job","id":"104223211520-1001089317451","title":"Qa инженер","text":"#вакансия#QAAutomation#тестировщик #атоматизация #Тюмень #офис \n\n🏢Компания: Creative\n🏙Город: Тюмень, ул. Малыгина, 84/1\n💰Зп: от 85к (обсуждается по результатам собеседования)\n\nФормат работы: офис \nЗанятость: полная\nМы занимаемся веб и мобильной разработкой: помогаем нашим клиентам эффективно инвестировать деньги в цифровую среду и стремимся стать лидерами на российском рынке.\nСейчас у нас в работе флагманский проект с крупнейшим банком TOP-5 в России по разработке сервиса для поиска и заказа услуг самозанятых. Мы активно формируем команду разработчиков на долгосрочный проект.\n\nЗадачи: \n✔️ Написание и поддержка behat-тестов на API продукта (backend), \n✔️Написание и поддержка Java+Selenium-тестов на интерфейсную часть продукта (frontend). \n\nТребования:\n ✔️Знание behat фреймворка тестирования и умение его применять\n✔️ Знания в PHP на уровне, достаточном для поддержания behat-сценариев - написание бэкдоров\n✔️Знания в Java на уровне, достаточном для написания сценариев тестирования на связка Java+Selenium\n\nУсловия:\n✔️Конкурентная заработная плата;\n✔️работаем с 10:00 до 19:00. График индивидуально корректируемый. Иногда можно работать из дома. Обед можно смещать.\n✔️возможность пробовать новый стек;\n✔️пятничные встречи с интересными ребятами, английский прямо в офисе, поездки на конференции, обучение друг друга внутри компании;\n✔️современный офис в центре города;\n✔️программа релокации по переезду в г. Тюмень\nПодробнее о компании здесь https://crtweb.ru/career\n📲Контакты: m.zinoveva@rabota.ru или в лс (в телеге)","markup":[{"type":"hashtag","offset":35,"length":13,"data":"атоматизация"},{"type":"hashtag","offset":49,"length":7,"data":"Тюмень"},{"type":"hashtag","offset":57,"length":5,"data":"офис"},{"type":"link","offset":1455,"length":24,"data":"https://crtweb.ru/career"},{"type":"link","offset":1492,"length":20,"data":"mailto:m.zinoveva@rabota.ru"}],"date":"2020-07-02T13:15:47+00:00","link":"tg://resolve?domain=qa_jobs&post=99395","tags":[{"name":"qa"},{"name":"java"},{"name":"selenium"},{"name":"php"}],"cities":[{"code":"tyumen"}],"allowsRemote":false}},{"node":{"__typename":"Job","id":"104215871488-1001089317451","title":"Qa инженер","text":"#вакансия #qa #Москва #офис #fulltime \n🌀Если Вы - manual qa с опытом тестирования Web и mobile приложений от 2-х лет\n🌀Если Вы хотите профессионально развиваться в крутой команде\n\nПишите на avinogradova@corpteamo.com\n\n📝Кто мы?\n💟Teamo - ведущий сервис знакомств, www.teamo.ru \n\n📝Что нужно будет делать? \n- обеспечивать качества разрабатываемого ПО (web приложение + мобильные приложения);\n- выполнять различные виды ручного тестирования (функциональное, исследовательское, приемочное и др.);\n- находить и документировать дефекты;\n- взаимодействовать с другими участниками процесса разработки ПО (аналитики, разработчики, бизнес-пользователи) для быстрого и качественного устранения дефектов\n\n📝Что нужно уметь?\n- опыт тестирования web и мобильных приложений;\n- опыт тестирования без функциональной спецификации;\n- умение взаимодействовать с командой в целях улучшения конечного продукта;\n- опыт работы с баг-трекинговыми системами (Redmine, Jira и аналоги)\n- понимание принципов работы современных веб-приложений, понимание клиент-серверной архитектуры, взаимодействия API и его клиентов (web-сайт, ios/android-приложения);\n- умение локализовать дефект, грамотно описать его в task-трекере с последующим сопровождением процесса устранения;\n- понимание и поиск уязвимостей (sql injection, csrf, xss, etc); \n\n📝 Будет плюсом:\n- знакомство с инструментами автоматизированного тестирования (Selenium, Appium, etc);\n- опыт тестирования API, умение пользоваться инструментом для работы с HTTP-запросами Postman/Fiddler;\n  \n📝Что мы предлагаем?\n- возможность присоединиться к работе над успешным продуктом в нише Dating’a;\n- возможность повлиять на масштабную аудиторию пользователей и быстро увидеть результат своей работы;\n- дружную команду. Вы приносите свои идеи и методы для которых мы предоставим Вам требуемые ресурсы;\n- минимум бюрократии;\n- официальное оформление и \"белая\" заработная плата с компенсацией больничных. Вилка з/п 90-120т.р.net;\n- пятидневная рабочая неделя с возможностью выбрать удобное начало рабочего дня;\n- уютный офис в пешей доступности от ст.м. ул.1905 года;\n- плюшки, печеньки, фрукты;","markup":[{"type":"hashtag","offset":0,"length":9,"data":"вакансия"},{"type":"hashtag","offset":10,"length":3,"data":"qa"},{"type":"hashtag","offset":14,"length":7,"data":"Москва"},{"type":"hashtag","offset":22,"length":5,"data":"офис"},{"type":"hashtag","offset":28,"length":9,"data":"fulltime"},{"type":"link","offset":191,"length":26,"data":"mailto:avinogradova@corpteamo.com"},{"type":"bold","offset":231,"length":6,"data":""},{"type":"link","offset":265,"length":12,"data":"http://www.teamo.ru"},{"type":"link","offset":1933,"length":13,"data":"http://90-120т.р.net"}],"date":"2020-07-02T12:06:10+00:00","link":"tg://resolve?domain=qa_jobs&post=99388","tags":[{"name":"qa"},{"name":"web"},{"name":"mobile"},{"name":"ios"},{"name":"android"},{"name":"sql"},{"name":"selenium"},{"name":"dotnet"}],"cities":[{"code":"moscow"}],"allowsRemote":false}},{"node":{"__typename":"Job","id":"104201191424-1001089317451","title":"Qa инженер","text":"#вакансия #QA #Java #QAAutomation #Москва #офис \n\nВакансия: QA Lead (Тест-Менеджер)\nГород: Москва м. Технопарк \nЗарплата: от 250 000 рублей до 290 000 рублей на руки\nФормат: офис, полный день, полная занятость\nКомпания Innovative People \n\n🕘 Чем предстоит заниматься:\n• планирование тестирования;\n• выстраивание процессов тестирования среди 8 команд с упором на автоматизацию;\n• выстраивать CI/CD проекта;\n• налаживание взаимодействия QA инженеров в нескольких командах;\n• поддерживать и развивать разработанные решения по автоматизации;\n• исследовать новые технологии и внедрять их на проекте;\n• принятие решений о внедрении / обновлении программного обеспечения.\n\n🕒 От кандидата ожидаем:\n• опыт в тестировании от 4х лет\n• опыт в автотестировании от 3х лет\n• опыт руководства группой тестировщиков от 2х лет\n• практический опыт применения практик тест-дизайна\n• умение проектировать тест-кейсы и подготавливать тестовые данные для тестирования\n• хорошие знание Java, библиотек\n• уверенное использование и понимание как работает под капотом Selenium Webdriver (Selenide и Appium для мобильных платформ)\n• опыт написания собственного фреймворка\n• опыт работы в unix системах\n• опыт работы с API (Soap, Rest)\n• опыт использование git\n• опыт использование CI (желательно, но не обязательно Jenkins)\n• опыт работы с Docker\n• опыт составления запросов SQL\n• опыт управления непрямыми (функциональными) подчиненными\n• умение контролировать несколько проектов одновременно\n• умение мотивировать команду, опыт управления рисками, мониторинг эффективности процессов\n\n🕧 Предлагаем:\n• все по ТК РФ\n• ДМС со стоматологией, программа лояльности\n• Macbook \n• адекватное руководство и лояльные процессы\n• большое комьюнити, классные команды\n• помогаем с релокацией!\n\nРезюме и вопросы @Priboch","markup":[{"type":"hashtag","offset":0,"length":9,"data":"вакансия"},{"type":"hashtag","offset":10,"length":3,"data":"QA"},{"type":"hashtag","offset":14,"length":5,"data":"Java"},{"type":"hashtag","offset":20,"length":13,"data":"QAAutomation"},{"type":"hashtag","offset":34,"length":7,"data":"Москва"},{"type":"hashtag","offset":42,"length":5,"data":"офис"},{"type":"handle","offset":1771,"length":8,"data":"Priboch"}],"date":"2020-07-02T09:23:09+00:00","link":"tg://resolve?domain=qa_jobs&post=99374","tags":[{"name":"qa"},{"name":"java"},{"name":"selenium"},{"name":"unix"},{"name":"soap"},{"name":"rest"},{"name":"git"},{"name":"jenkins"},{"name":"docker"},{"name":"sql"}],"cities":[{"code":"moscow"}],"allowsRemote":false}},{"node":{"__typename":"Job","id":"104180219904-1001089317451","title":"Qa engineer","text":"#Москва  #QA  #вакансия #офис\nКомпания: Start.ru\n\nМы ищем коллег, которые смогут влиться в нашу команду и вместе с нами развивать и совершенствовать наш сервис!\nУ Вас есть возможность стать частью команды, развивающей первую в Восточной Европе студию с собственным международным VOD сервисом.\nВ данный момент мы усиляем нашу команду по тестированию и в поисках позиций Backend QA Engineer и QA Automation Engineer (python)\n\n———————————\nДолжность: Backend QA Engineer\nЗарплатная вилка: От 80.р. до 120т.р. по результатам собеседования\n\nКакие задачи вы будете решать:\n- Прогон описаных кейсов в TestRail и документация найденых дефектов;\n- Тестирование API (программного интерфейса платформы);\n- Разработка тестовых сценариев;\n- Взаимодействие с разработчиками и сопровождение дефектов до полного их решения;\n- Отладка и сбор логов в процессе воспроизведения проблем\n- Проведение регрессионного тестирования\n\nЧего мы хотим:\n- Вас не пугает работа с командной строкой чаще чем работа с графическим интерфейсом\n- Работа с chromedev tools и командной строкой (bash);\n- Знание и понимания клиент-серверной архитектуры приложений;\n- Понимание принципов работы веб-приложений;\n- Умение грамотно составлять свои мысли в предложения и описывать дефекты, чтобы понятно было разработчикам;\n- Навыки работы с технической документацией, анализ и вычленение требований;\n- Работали с программами-снифферами и проксями траффика (charles/wireshark/fiddler/mitmproxy etc)\n\nБудет плюсом:\n- Если знаете python на уровне, достаточном для автоматизации и сможете прочитать код который на нем написан\n- Знаете что такое DOM-дерево, локаторы и селекторы в контексте веб-приложения\n\n—————————\nДолжность: QA Automation Engineer\nЗарплатная вилка: От 130.р. до 170т.р. по результатам собеседования\n\nУ нас:\nВ нашем проекте есть автоматизация тестирования как API, так и WEB UI. \nНаш стек: Python3, PyTest, Requests, Selenium WebDriver, Selenoid, DB clients (MongoDB, PostgreSQL), JSON validation (jsonschema), TestRail API, Telegram API, GitLab CI. \nПомимо автотестов мы разрабатываем проект нагрузочного тестирования на Locust.\n\nВаши задачи:\n- Расширение покрытия автотестов API, WEB UI\n- Поддержка автотестов в актуальном состоянии\n- Анализ прохождения тестов с возможным заведением багов в Jira\n- Ревью кода\n- Ведение тестовой - документации\n- Написание сценариев нагрузочного тестирования\n\nТребования:\n- Хорошее знание теории тестирования\n- Опыт автоматизированного тестирования от 2х лет\n- Знание Python3, PyTest\n- Навыки написания и использования тестовой документации\n- Умение писать простые запросы на SQL и в MongoDB\n- Навыки работы с Git\n- Обсуждение проблем приложения с разработчиками\n\nБудет плюсом:\n- Опыт написания архитектуры проекта автотестов с нуля\n- Работа с Docker, Docker Compose\n- Опыт работы с Telegram API\n- Опыт описания JSON схем для валидации ответов API\n- Базовые знания в Linux\n\nОт нас:\n- На данный момент условия сотрудничества удаленные, но при нормализации ситуации мы выйдем в офис\n- Офис в районе Хамовники (территориально м.Киевская, м. Спортивная в 20.мин ходьбы)\n- График работы: 5/2 начинаем с 9  до 11 (в целом гибкий - главное результат);\n- Оформление в соответствии с ТК РФ (белая зарплата, отпускные, больничные);\n- Все возможности для прокачки имеющихся скиллов и получения новых;\n- Драйвовая и высокопрофессиональная команда единомышленников;\n- Возможность стать частью динамично развивающегося видеосервиса.\n\n\nВопросы и отклики по вакансии писать в tlgrm: @unambo OR emailto: v.selyanin@start.ru","markup":[{"type":"hashtag","offset":0,"length":7,"data":"Москва"},{"type":"hashtag","offset":9,"length":3,"data":"QA"},{"type":"hashtag","offset":14,"length":9,"data":"вакансия"},{"type":"hashtag","offset":24,"length":5,"data":"офис"},{"type":"link","offset":40,"length":8,"data":"http://Start.ru"},{"type":"handle","offset":3471,"length":7,"data":"unambo"},{"type":"link","offset":3491,"length":19,"data":"mailto:v.selyanin@start.ru"}],"date":"2020-07-02T07:33:55+00:00","link":"tg://resolve?domain=qa_jobs&post=99354","tags":[{"name":"qa"},{"name":"python"},{"name":"bash"},{"name":"web"},{"name":"selenium"},{"name":"mongodb"},{"name":"postgresql"},{"name":"json"},{"name":"gitlab"},{"name":"sql"},{"name":"git"},{"name":"docker"},{"name":"linux"},{"name":"docker-compose"}],"cities":[{"code":"moscow"},{"code":"kiev"}],"allowsRemote":false}},{"node":{"__typename":"Job","id":"104171831296-1001089317451","title":"Qa engineer","text":"#вакансия #Казань #Нижний_Новгород #Краснодар #офис #удаленно \n\n💻Компания «БАРС Груп» - ведущий российский разработчик решений для государственного и корпоративного секторов с 1992 года, входит в ТОП-15 крупнейших разработчиков России.\n\n👀Мы в поисках QA Auto Engineer на крупные государственные проекты.\n\nОт новых сотрудников мы ожидаем:\n•Знание базовых понятий и определений в тестировании;\n•Знание и уверенное владение методиками тестирования;\n•  Экспертное владение навыками составления тест-кейсов, чек-листов, баг-репортов;\n•Владение языком программирования С# / Python.\nБудет плюсом:\n•Владение инструментами тестирования Fiddler/Postman, Visual Studio, фрэймворк Nunit, restsharp, Selenium.webdriver;\n•Опыт работы с системами JIRA, git/stash.\n\n💰Уровень заработной платы: от 50000р до 150000р. \n\n⏰Рабочий день в офисе или полностью удаленно\n\n🔺Вместе мы будем работать над масштабными проектами, которые меняют к лучшему жизни людей!","markup":[{"type":"hashtag","offset":0,"length":9,"data":"вакансия"},{"type":"hashtag","offset":10,"length":7,"data":"Казань"},{"type":"hashtag","offset":18,"length":16,"data":"Нижний_Новгород"},{"type":"hashtag","offset":35,"length":10,"data":"Краснодар"},{"type":"hashtag","offset":46,"length":5,"data":"офис"},{"type":"hashtag","offset":52,"length":9,"data":"удаленно"}],"date":"2020-07-02T06:24:57+00:00","link":"tg://resolve?domain=qa_jobs&post=99346","tags":[{"name":"qa"},{"name":"python"},{"name":"selenium"},{"name":"git"},{"name":"visual-studio"}],"cities":[{"code":"kazan"},{"code":"krasnodar"},{"code":"nizhny-novgorod"}],"allowsRemote":true}},{"node":{"__typename":"Job","id":"104143519744-1001089317451","title":"Qa инженер","text":"#вакансия #QA #fulltime #офис #москва\nГород: Москва, ст. м. Автозаводская \nФормат работы: офис\nКомпания: Логистик Тайм\nЗанятость: полная\nЗ/п: от 130 000 р. на руки.\n\nПривет! Мы растем и активно развиваемся, поэтому ищем специалистов для работы в офисе нашей компании в Москве. Это отличная возможность реализовать свои навыки и прокачаться ещё больше в команде профессионалов. Подробности смотри в описании:\n\n🔷Основные обязанности: \n-Написание и поддержка автотестов;\n-Анализ отчетов прогонов;\n-Организация и поддержка тестового окружения;\n-Взаимодействие с группой разработки и тестирования.\n\n🔷Наши пожелания:\n-Понимание принципов разработки и тестирования;\n-Знание методов и технологий тестирования;\n-Опыт разработки/написания автотестов на Java\\Kotlin;\n-Опыт автоматизации на базе Selenium WebDriver+JUnit+Cucumber (+Gradle/Maven);\n-Опыт работы с баг-трекинговыми системами (Jira, Redmine, YouTrack или др.);\n-Навыки работы с системами контроля версия (Git).\n\n🔷Плюсы работы у нас:\n-Уровень заработной платы зависит от пожеланий и профессионально уровня кандидата;\n-Поездки на ИТ-конференции, митапы, учебные курсы за счет компании;\n-Гибкое начало рабочего дня;\n-Перспективы материального и профессионального роста;\n-Возможность релокации в Европу.\n\nБуду рада Вашим вопросам и резюме:\n✏️@hrkaterina\n✉️ekaterina.logistik@gmail.com","markup":[{"type":"hashtag","offset":0,"length":9,"data":"вакансия"},{"type":"hashtag","offset":10,"length":3,"data":"QA"},{"type":"hashtag","offset":14,"length":9,"data":"fulltime"},{"type":"hashtag","offset":24,"length":5,"data":"офис"},{"type":"hashtag","offset":30,"length":7,"data":"москва"},{"type":"italic","offset":166,"length":79,"data":""},{"type":"italic","offset":252,"length":15,"data":""},{"type":"bold","offset":267,"length":10,"data":""},{"type":"italic","offset":277,"length":98,"data":""},{"type":"italic","offset":377,"length":32,"data":""},{"type":"bold","offset":409,"length":25,"data":""},{"type":"bold","offset":595,"length":18,"data":""},{"type":"bold","offset":965,"length":22,"data":""},{"type":"bold","offset":1255,"length":37,"data":""},{"type":"handle","offset":1292,"length":11,"data":"hrkaterina"},{"type":"link","offset":1304,"length":30,"data":"http://✉️ekaterina.logistik@gmail.com"}],"date":"2020-07-01T14:52:07+00:00","link":"tg://resolve?domain=qa_jobs&post=99319","tags":[{"name":"qa"},{"name":"java"},{"name":"kotlin"},{"name":"selenium"},{"name":"junit"},{"name":"cucumber"},{"name":"gradle"},{"name":"maven"},{"name":"git"}],"cities":[{"code":"moscow"}],"allowsRemote":false}}]}}},"context":{}}