{"hash":"f5f6bf98bd95e769321482904cbbd488f77922fd","data":{"records":{"id":"css","name":"css","belongsTo":{"totalCount":116,"pageInfo":{"totalPages":12,"currentPage":8},"edges":[{"node":{"__typename":"Job","id":"17070817280-1001110946746","title":"Js developer","text":"#вакансия #js #frontend #react\n\nПозиция: Middle React Developer\n\nФормат работы: удаленно (дэйли митинги в начале дня)\n\nЗанятость: полная, проектная\n\nТребования:\n- уверенные знания ECMAScript\n- уверенные знания React/Redux \n- знания git и git-flow (squash, merge, etc)\n- инициативность и способность общаться с командой\n- умение писать чистый и поддерживаемый код\n- умение выполнять задачи\n\nНеплохо, если вы:\n- умеете работать с веб-сокетами (потребуется в дальнейшем)\n- знаете TypeScript (возможно потребуется в дальнейшем)\n- знаете CSS/Sass и умеете верстать\n\nОбязанности:\n- разработка приложения на React+Redux\n- коммуникация с командой, принятие решений в проектировании API\n\nРабочий график: 10:00 - 18:00 Пн-Пт\n\nОплата: 1500$ - 2000$ (на руки)\n\nКонтакты: @heavycharged\n\n—\n\n👉 Обсуждение вакансии в чате @javascript_jobs","markup":[{"type":"hashtag","offset":0,"length":9,"data":"вакансия"},{"type":"hashtag","offset":10,"length":3,"data":"js"},{"type":"hashtag","offset":14,"length":9,"data":"frontend"},{"type":"hashtag","offset":24,"length":6,"data":"react"},{"type":"handle","offset":759,"length":13,"data":"heavycharged"},{"type":"handle","offset":807,"length":16,"data":"javascript_jobs"}],"date":"2020-06-19T10:45:28+00:00","link":"tg://resolve?domain=javascript_jobs_feed&post=16280","tags":[{"name":"javascript"},{"name":"reactjs"},{"name":"redux"},{"name":"git"},{"name":"typescript"},{"name":"css"},{"name":"sass"},{"name":"react-redux"}],"cities":[],"allowsRemote":true}},{"node":{"__typename":"Job","id":"26450329600-1001075660570","title":"Php developer","text":"#вакансия #php #magento #magento2 #петербург #москва #нижнийновгород\n\n📎Вакансия: Senior PHP developer (Magento2)\n📎Компания: First Line Software\n📎Город: Санкт-Петербург/Москва/Нижний Новгород (работа в любом из наших центров разработки, до осени в удаленном режиме)\n\n📎Мы предлагаем присоединиться к проекту по миграции крупного американского интернет-портала с Magento 1 на Magento 2. Планируется использование headless-решения на Magento2 и WordPress и генерацией на Sapper. Коммуникация в проекте осуществляется на английском языке, поэтому необходимы навыки разговорного общения.\nТехнологический стек: PHP, Magento 2, Wordpress, Sapper, HTML, CSS, Svelte JS.\nМы ищем того, кто:\n•имеет опыт разработки на PHP от 3-х лет\n•работал с Magento 2 (сертификат будет являться преимуществом)\n•владеет английским языком на уровне Intermediate и выше.\n\n📎Мы предлагаем:\n•Участие в разработке высокотехнологичных продуктов, которые используются на всех континентах, кроме Антарктиды\n•Большую команду профессиональных и творческих инженеров, которые готовы делиться своим опытом и знаниями\n•Курсы английского языка с носителями и русскоязычными преподавателями в офисе (большое количество наших заказчиков находится за рубежом, мы всегда за то, чтобы вы прокачивали свои скиллы владения английским)\n•Компенсация оплаты успешно пройденной сертификации (напр., Microsoft, Oracle и пр.)\n•Официальная зарплата и оформление по ТК РФ\n•Полис ДМС, в том числе стоматология, гибкий график, удобные рабочие места\n•На каждом этаже офиса есть уютные кухни с плюшками, фруктами, вкусным кофе и какао;\n•Возможность стать частью нашей футбольной команды, принимать участие в турнирах по кикеру, теннису, ежедневная суставная зарядка и еще много корпоративных движух :)\n\nС радостью обсужу все детали в личке @MariiaDia","markup":[{"type":"hashtag","offset":0,"length":9,"data":"вакансия"},{"type":"hashtag","offset":10,"length":4,"data":"php"},{"type":"hashtag","offset":15,"length":8,"data":"magento"},{"type":"hashtag","offset":24,"length":9,"data":"magento2"},{"type":"hashtag","offset":34,"length":10,"data":"петербург"},{"type":"hashtag","offset":45,"length":7,"data":"москва"},{"type":"hashtag","offset":53,"length":15,"data":"нижнийновгород"},{"type":"handle","offset":1784,"length":10,"data":"MariiaDia"}],"date":"2020-06-19T08:23:34+00:00","link":"tg://resolve?domain=php_jobs&post=25225","tags":[{"name":"php"},{"name":"magento"},{"name":"wordpress"},{"name":"html"},{"name":"css"},{"name":"oracle"}],"cities":[{"code":"moscow"},{"code":"nizhny-novgorod"}],"allowsRemote":true}},{"node":{"__typename":"Job","id":"17062428672-1001110946746","title":"Js developer","text":"#вакансия #vue #js #frontend #html #css\n\nВакансия: Frontend / Vuejs Developer\nНазвание компании: Httplab, https://httplab.ru/\nГород и адрес офиса: Ростов-на-Дону, Будённовский 35\nЗанятость: полная\nЗарплатная вилка: от 90 000 до 130 000 руб. (нетто)\n\nОписание вакансии:\n\nТребования:\n• Опыт работы с VueJS и сопутствующими библиотеками. Опыт разработки сложных UI-компонентов.\n• Отличное понимание того, как работает современный веб. Мы ждем, что вы следите за событиями и трендами, но обладаете усточивостью к хайпу. :)\n• Навыки кроссброузерной и адаптивной верстки с использованием HTML5, SСSS.\n• Умение писать тесты для фронтенд-кода, понимать, как и что нужно тестировать.\n• Навыки рефакторинга плохого кода и последовательного превращения его в хороший.\n• Хорошие фундаментальные знания в области ИТ: алгоритмы и структуры данных, шаблоны проектирования.\n• Уверенное использование Linux и утилит командной строки.\n\nУсловия:\n• Профессиональное развитие в команде специалистов высокого уровня\n• Уютный офис в центре Ростова\n• Возможность удаленной работы\n\nКонтакты: info@httplab.ru, @flggg\n\n—\n\n👉 Обсуждение вакансии в чате @javascript_jobs","markup":[{"type":"hashtag","offset":0,"length":9,"data":"вакансия"},{"type":"hashtag","offset":10,"length":4,"data":"vue"},{"type":"hashtag","offset":15,"length":3,"data":"js"},{"type":"hashtag","offset":19,"length":9,"data":"frontend"},{"type":"hashtag","offset":29,"length":5,"data":"html"},{"type":"hashtag","offset":35,"length":4,"data":"css"},{"type":"link","offset":106,"length":19,"data":"https://httplab.ru/"},{"type":"link","offset":1067,"length":15,"data":"mailto:info@httplab.ru"},{"type":"handle","offset":1084,"length":6,"data":"flggg"},{"type":"handle","offset":1125,"length":16,"data":"javascript_jobs"}],"date":"2020-06-18T21:53:52+00:00","link":"tg://resolve?domain=javascript_jobs_feed&post=16272","tags":[{"name":"javascript"},{"name":"vuejs"},{"name":"html"},{"name":"css"},{"name":"linux"}],"cities":[{"code":"rostov"}],"allowsRemote":true}},{"node":{"__typename":"Job","id":"17057185792-1001110946746","title":"Js программист","text":"#вакансия #remote #Javascript #React #Node.js #middle #senior\n\nВсем привет!\n\nЯндекс.Практикум — сервис онлайн-образования. Мы помогаем людям расти — на работе и в жизни. Студенты могут освоить новую специальность, заговорить на иностранном языке и получать удовольствие от того, чем занимаются — каждый день.\n\nСейчас мы в поиске наставников на факультет Веб-разработки!\n\nКомпания: Яндекс.Практикум \nГрафик: частичная удаленная работа, 12 часов в неделю (з/п 50 тыс рублей в месяц). Можно легко совмещать с основной работой.\n\n🔹Что делает наставник?\nНаставник курирует группу из 60 студентов на протяжении всего процесса обучения (примерно 10 месяцев). Он отвечает на их вопросы, проводит групповые консультации и лайвкодинг-вебинары. \n\n🔹Вам подойдет роль, если у вас есть: опыт работы программистом больше трех лет;\nЗнаете HTML, CSS, JavaScript, React, NodeJs;\nПлюсом будет опыт преподавания и экспертной деятельности. \n\n🔹Все наставники перед работой проходят Школу наставников от Яндекс.Практикума. \n\nОткликаться можно здесь: https://praktikum.yandex.ru/job/vacancy-9 \nили пишите в личку @valerymis \nПочта: valeriamis@yandex-team.ru\n\n—\n\n👉 Обсуждение вакансии в чате @javascript_jobs","markup":[{"type":"hashtag","offset":0,"length":9,"data":"вакансия"},{"type":"hashtag","offset":10,"length":7,"data":"remote"},{"type":"hashtag","offset":18,"length":11,"data":"Javascript"},{"type":"hashtag","offset":30,"length":6,"data":"React"},{"type":"hashtag","offset":37,"length":5,"data":"Node"},{"type":"hashtag","offset":46,"length":7,"data":"middle"},{"type":"hashtag","offset":54,"length":7,"data":"senior"},{"type":"link","offset":1029,"length":41,"data":"https://praktikum.yandex.ru/job/vacancy-9"},{"type":"handle","offset":1091,"length":10,"data":"valerymis"},{"type":"link","offset":1110,"length":25,"data":"mailto:valeriamis@yandex-team.ru"},{"type":"handle","offset":1170,"length":16,"data":"javascript_jobs"}],"date":"2020-06-18T21:09:30+00:00","link":"tg://resolve?domain=javascript_jobs_feed&post=0","tags":[{"name":"javascript"},{"name":"reactjs"},{"name":"nodejs"},{"name":"html"},{"name":"css"}],"cities":[],"allowsRemote":true}},{"node":{"__typename":"Job","id":"17051942912-1001110946746","title":"Js разработчик","text":"#вакансия #удаленка #работа #js #javascript #разработчик\n\nГород и адрес офиса: Тель-Авив \nФормат работы: удаленка\nЗанятость: полная, гибкий график.\n\nЗарплатная вилка: 5500-6000$/мес. (Почасовая оплата 35$/час + ежемесячный бонус 250$)\n\nНалоги платите по месту жительства. ИП 6%. Если патент, то он зависит от места жительства. В Подмосковье 12 000 руб в год. В Москве 300 тыс. в год. Как сами оформите налоги, так и платите. \n\nИщу разработчика к нам в команду: израильский проект Luminati (https://luminati.io).  Full-Stack. Компания разрабатывает несколько продуктов, в том числе p2p vpn, видео cdn нового поколения http://holaspark.com/\nОфис в Тель-Авиве, работа удаленная! График свободный. Что нам нужно:\n\n • Knowledge in Node JS framework: ExpressJS, Promise - Experience with MongoDB \n- Creating RESTful web services/API’s using Node.js with or without framework assistance \n\n- JavaScript-based unit testing tools \n\n- Client-side browser technologies including JavaScript, CSS, and HTML \n\n- 1 year development experience in Node JS with a solid working knowledge of frameworks and architecture \n\n- 2+ year’s overall development experience using JavaScript and open web technologies \n\n- хороший английский язык, идеальная грамматика не обязательна \n\n • работа удаленная, 7-9 часов в день (по желанию)\n • зарплата от 35$/час (+фиксированный бонус 250$ ежемесячно), через полгода повышается\n • после того, как откроют границы и будут возможны перелёты - выезд в офис на заключение контракта (перед этим возможно заключение с электронной подписью), отель и перелет за счет компании, море под окном\n\nОтвечу на все вопросы:)\n\nИнстаграмм https://instagram.com/hola_better_internet\n\nРезюме сюда:  luda.hola@gmail.com\n\n—\n\n👉 Обсуждение вакансии в чате @javascript_jobs","markup":[{"type":"hashtag","offset":0,"length":9,"data":"вакансия"},{"type":"hashtag","offset":10,"length":9,"data":"удаленка"},{"type":"hashtag","offset":20,"length":7,"data":"работа"},{"type":"hashtag","offset":28,"length":3,"data":"js"},{"type":"hashtag","offset":32,"length":11,"data":"javascript"},{"type":"hashtag","offset":44,"length":12,"data":"разработчик"},{"type":"link","offset":490,"length":19,"data":"https://luminati.io"},{"type":"link","offset":617,"length":21,"data":"http://holaspark.com/"},{"type":"link","offset":1637,"length":42,"data":"https://instagram.com/hola_better_internet"},{"type":"link","offset":1695,"length":19,"data":"mailto:luda.hola@gmail.com"},{"type":"handle","offset":1749,"length":16,"data":"javascript_jobs"}],"date":"2020-06-18T21:04:51+00:00","link":"tg://resolve?domain=javascript_jobs_feed&post=0","tags":[{"name":"javascript"},{"name":"nodejs"},{"name":"mongodb"},{"name":"web"},{"name":"css"},{"name":"html"},{"name":"unit-testing"}],"cities":[],"allowsRemote":true}},{"node":{"__typename":"Job","id":"17050894336-1001110946746","title":"Javascript разработчик","text":"#вакансия #frontend #JavaScript #React #senior #middle #remote #офис #удаленка                                                              \n\nFrontend-разработчик (React)\nГород и адрес офиса: Москва,Пермь\nФормат работы: офис или удаленно, пятидневка\nЗанятость: полный день\nЗарплатная вилка: от 50 000 до 140 000 руб.                                                                                                                                                                       \n\nО компании: GreenData - компания разработчик уникального ПО для финансового сектора. За более чем десять лет автоматизации кредитных процессов, мы выработали оптимальные подходы к решению большого количества конкретных прикладных задач.                                                       \n\nЧто надо делать:                                                                                                                                                                                                    Участие в разработке платформы.\nПроведение code review.                                                                                                                                                                                                   Работа с контролем версий, управление сборками                                                                                                                                                  \n\nМы работаем с:\nReact\nJavaScript/TypeScript\nHTML, CSS\nGitLab\n\nОпыт работы от 1,5 лет React/JavaScript\nОфициальное трудоустройство\nБелая зарплата\n\nКонтакты:@AnastasyiaKustova\n\n—\n\n👉 Обсуждение вакансии в чате @javascript_jobs","markup":[{"type":"hashtag","offset":0,"length":9,"data":"вакансия"},{"type":"hashtag","offset":10,"length":9,"data":"frontend"},{"type":"hashtag","offset":20,"length":11,"data":"JavaScript"},{"type":"hashtag","offset":32,"length":6,"data":"React"},{"type":"hashtag","offset":39,"length":7,"data":"senior"},{"type":"hashtag","offset":47,"length":7,"data":"middle"},{"type":"hashtag","offset":55,"length":7,"data":"remote"},{"type":"hashtag","offset":63,"length":5,"data":"офис"},{"type":"hashtag","offset":69,"length":9,"data":"удаленка"},{"type":"handle","offset":1588,"length":18,"data":"AnastasyiaKustova"},{"type":"handle","offset":1641,"length":16,"data":"javascript_jobs"}],"date":"2020-06-18T21:04:37+00:00","link":"tg://resolve?domain=javascript_jobs_feed&post=0","tags":[{"name":"javascript"},{"name":"reactjs"},{"name":"typescript"},{"name":"html"},{"name":"css"},{"name":"gitlab"}],"cities":[{"code":"moscow"},{"code":"perm"}],"allowsRemote":true}},{"node":{"__typename":"Job","id":"17049845760-1001110946746","title":"Js разработчик","text":"#вакансия #frontend #vue #senior #middle #remote #офис #удаленка\n\nГород: Москва, м. Славянский бульвар\nФормат работы: офис, удаленное сотрудничество\nЗанятость: полная, гибкий график (обсуждаем)\nЗарплатная вилка: от 80 000 рублей до 240 000 рублей на руки\nНазвание компании: ФГБУ «ИАЦ МЧС России»\nКонтакты для связи: @mxrkin\n\nНа данный момент отдел разработки программного обеспечения формирует команду JS-разработчиков для поддержки существующих и реализации новых проектов.\n\nТребования для соискателей:\n— уверенные знания Javascript, знание стандартов ECMAScript;\n— знание и опыт применения фреймворка Vue.js и использование элементов экосистемы фреймворка (vuex, vue-router);\n— опыт использования систем сборки - webpack, gulp, parcel. Опыт написания конфигов для webpack;\n— владение препроцессорами CSS - SASS/LESS;\n— опыт использования Prettier, ESLint;\n— гражданство РФ (местонахождение так же РФ).\n\nПлюсом будет:\n— владение Node.js или знание других языков программирования;\n— активные профили в сообществах habrahabr, habr Q&A, участие в opensource проектах, активный профиль github;\n— опыт работы с библиотекой D3.js;\n— опыт работы с картографическими библиотеками.\n\nТрудоустройство официальное по ТК РФ, социальный пакет.\nНа территории имеется столовая для сотрудников, спортивные площадки, футбольное и баскетбольное поле.\nРабота не является государственной службой.\n\nСобеседование проходит в три этапа — общение с руководителем, выполнение тестового задания (простое задание на 15-30 минут), предложение сотрудничества. \n\nЕсли вас заинтересовала вакансия, обращайтесь в тг @mxrkin. Большим плюсом будет, если первым сообщением прикрепите резюме и поделитесь ссылками на проекты, в которых принимали активное участие, или ссылку на гитхаб с кодом, который, по-вашему мнению, сможет показать все ваши знания и навыки.\n\n—\n\n👉 Обсуждение вакансии в чате @javascript_jobs","markup":[{"type":"hashtag","offset":0,"length":9,"data":"вакансия"},{"type":"hashtag","offset":10,"length":9,"data":"frontend"},{"type":"hashtag","offset":20,"length":4,"data":"vue"},{"type":"hashtag","offset":25,"length":7,"data":"senior"},{"type":"hashtag","offset":33,"length":7,"data":"middle"},{"type":"hashtag","offset":41,"length":7,"data":"remote"},{"type":"hashtag","offset":49,"length":5,"data":"офис"},{"type":"hashtag","offset":55,"length":9,"data":"удаленка"},{"type":"handle","offset":316,"length":7,"data":"mxrkin"},{"type":"handle","offset":1584,"length":7,"data":"mxrkin"},{"type":"handle","offset":1861,"length":16,"data":"javascript_jobs"}],"date":"2020-06-18T21:02:31+00:00","link":"tg://resolve?domain=javascript_jobs_feed&post=0","tags":[{"name":"javascript"},{"name":"vuejs"},{"name":"webpack"},{"name":"gulp"},{"name":"css"},{"name":"sass"},{"name":"nodejs"},{"name":"github"}],"cities":[{"code":"moscow"}],"allowsRemote":true}},{"node":{"__typename":"Job","id":"17048797184-1001110946746","title":"Javascript разработчик","text":"#вакансия #JavaScript #React #jenkins #HTML #CSS #офис #удаленка\n\nMiddle Frontend-разработчик (React)\nГород и адрес офиса: Новосибирск, центр и Академгородок\nФормат работы: Офис или удаленно, пятидневка\nЗанятость: Полный день\nЗарплатная вилка: от 80 000 до 130 000 руб.\n\nО компании: Компания создает и продает софт для любительской обработки видео, музыки и изображений, сотрудничает с Intel, Amazon, Google и NVIDIA.\n\nЧем предстоит заниматься:\n– разработка онлайн-программ для обработки мультимедиа (фоторедактор)\n– проведение ревью кода\n– внедрение новых технологий и подходов в разработке\n\nВ своей работе мы используем:\n– React\n– JavaScript/TypeScript\n– Webpack\n– HTML, CSS\n– Git, GitLab\n– Jenkins\n\nДля успешного выполнения задач тебе потребуется:\n– опыт работы на позиции frontend-разработчика от 1,5 лет\n– опыт разработки на React от 1 года\n– опыт удаленной работы в команде от полугода (в случае удаленной работы)\n– знание JavaScript\n\nофициальное трудоустройство с 1-го дня, белая зп\n\nНазвание компании: HR-project\nКонтакты: @nicedream13\n\n—\n\n👉 Обсуждение вакансии в чате @javascript_jobs","markup":[{"type":"hashtag","offset":0,"length":9,"data":"вакансия"},{"type":"hashtag","offset":10,"length":11,"data":"JavaScript"},{"type":"hashtag","offset":22,"length":6,"data":"React"},{"type":"hashtag","offset":29,"length":8,"data":"jenkins"},{"type":"hashtag","offset":38,"length":5,"data":"HTML"},{"type":"hashtag","offset":44,"length":4,"data":"CSS"},{"type":"hashtag","offset":49,"length":5,"data":"офис"},{"type":"hashtag","offset":55,"length":9,"data":"удаленка"},{"type":"handle","offset":1031,"length":12,"data":"nicedream13"},{"type":"handle","offset":1078,"length":16,"data":"javascript_jobs"}],"date":"2020-06-18T21:02:05+00:00","link":"tg://resolve?domain=javascript_jobs_feed&post=0","tags":[{"name":"javascript"},{"name":"reactjs"},{"name":"jenkins"},{"name":"html"},{"name":"css"},{"name":"typescript"},{"name":"webpack"},{"name":"git"},{"name":"gitlab"}],"cities":[{"code":"novosibirsk"}],"allowsRemote":true}},{"node":{"__typename":"Job","id":"17047748608-1001110946746","title":"Js разработчик","text":"#вакансия #frontend #middle #JavaScript #SPB\n\nГород: Санкт-Петербург м.Чернышевская  \nФормат работы: офис (иногда можно удаленку)\nЗанятость: полная \nЗарплатная вилка: от 1300 USD до 2000 USD после уплаты налогов. Фиксируется в долларах.\n\nОписание вакансии: \n\n🟠 Обязанности:\nРазработка интерфейсов, приложений и сайтов\n\n🟢 Требования:\n\n- Уверенное знание JavaScript Уверенные знания в HTML-верстке (кроссбраузерная/адаптивная/мобильная/HTML5/CSS3/Less)/\n- Понимание основных принципов UI/UX Понимание принципов работы в системе контроля версий\n- Дополнительным плюсом будет: Опыт работы с Electron/Cordova/Node.js/Vue.js\n- Дополнительный плюс: опыт вёрстки приложений\n\n☝️В первую очередь ищем петербуржцев, готовых работать в офисе. Однако готовы рассмотреть и вариант удалённой работы.\n\n🔵 Условия:\n- Уютный офис в Питере (можно иногда удаленку)\n- 3 недели оплачиваемого отпуска\n- Фирма продаёт свой софт в США. Это не аутсорс, а интересная работа со своими динамичными продуктами!\n\nО компании: Компания Rixtrema Inc. находится в поиске frontend-разработчика уровня middle, который, также, как и мы, обожает программировать и разрабатывать интерфейсы.  Нам важно видеть у соискателя огонь в глазах и желание развиваться вместе с командой.\n\n🟣 Контакты: @foundook\n\n—\n\n👉 Обсуждение вакансии в чате @javascript_jobs","markup":[{"type":"hashtag","offset":0,"length":9,"data":"вакансия"},{"type":"hashtag","offset":10,"length":9,"data":"frontend"},{"type":"hashtag","offset":20,"length":7,"data":"middle"},{"type":"hashtag","offset":28,"length":11,"data":"JavaScript"},{"type":"hashtag","offset":40,"length":4,"data":"SPB"},{"type":"handle","offset":1254,"length":9,"data":"foundook"},{"type":"handle","offset":1298,"length":16,"data":"javascript_jobs"}],"date":"2020-06-18T21:01:17+00:00","link":"tg://resolve?domain=javascript_jobs_feed&post=0","tags":[{"name":"javascript"},{"name":"html"},{"name":"css"},{"name":"electron"},{"name":"cordova"},{"name":"nodejs"},{"name":"vuejs"}],"cities":[],"allowsRemote":true}},{"node":{"__typename":"Job","id":"17042505728-1001110946746","title":"Js developer","text":"#вакансия  #frontend #angular #js #javascript \nПозиция: Frontend developer (Middle)\nФормат работы: удаленка\nЗанятость: полная\nЗарплатная вилка: 70 000-100 000 на руки\nЗадача: помогать автоматизировать бизнес-процессы наших клиентов.\nТребования:\n-уверенное знание базовых технологий JavaScript, Angular,Typescript, HTML, CSS;\nТочно надо будет использовать:\n-Нативный JS, ES6+\n-Angular\n-Typescript\n-Кроссбраузерная вёрстка\n-S-ass/SCSS, методология БЭМ\n-Git\nКонтакты: @hr_anya, почта:a.konovalovahr@gmail.com\n\n—\n\n👉 Обсуждение вакансии в чате @javascript_jobs","markup":[{"type":"hashtag","offset":0,"length":9,"data":"вакансия"},{"type":"hashtag","offset":11,"length":9,"data":"frontend"},{"type":"hashtag","offset":21,"length":8,"data":"angular"},{"type":"hashtag","offset":30,"length":3,"data":"js"},{"type":"hashtag","offset":34,"length":11,"data":"javascript"},{"type":"handle","offset":465,"length":8,"data":"hr_anya"},{"type":"link","offset":475,"length":30,"data":"http://почта:a.konovalovahr@gmail.com"},{"type":"handle","offset":540,"length":16,"data":"javascript_jobs"}],"date":"2020-06-18T20:57:43+00:00","link":"tg://resolve?domain=javascript_jobs_feed&post=0","tags":[{"name":"javascript"},{"name":"angularjs"},{"name":"typescript"},{"name":"html"},{"name":"css"},{"name":"git"}],"cities":[],"allowsRemote":true}}]}}},"context":{}}