{"hash":"f34fd2c444a074f4e0e67d525015a008ef8e766f","data":{"records":{"id":"russia/moscow","belongsTo":{"totalCount":234,"pageInfo":{"totalPages":24,"currentPage":5},"edges":[{"node":{"__typename":"Job","id":"98265202688-1001089317451","title":"Qa инженер","text":"#вакансия #Москва #работаQA #Смоленская #офис полная занятость\n\n✅ Вакансия в МТС ИТ. Проект МТС-Торги: торговая он-лайн площадка для B2B и B2C клиентов. Автоматизированное тестирование frontend системы. Продуктовая команда 9 человек. Работа по Agile.\n\n✅ Заработная плата до 180 000 руб\n\n✅ Для нас важен опыт написания автотестов с использованием TypeScript.\n\n✅ Мы предлагаем:\nгибкое начало рабочего дня\nполугодовые премии\nДМС со стоматологией, страхование жизни, страхование при поездках за рубеж\n+ 3 календарных дня дополнительно к отпуску, скидки на путешествия от партнеров\n\nКонтакты:\ne-mail: erzhena.zhimbeeva@yandex.ru\ntelegram: @meowmurrr","markup":[{"type":"hashtag","offset":0,"length":9,"data":"вакансия"},{"type":"hashtag","offset":10,"length":7,"data":"Москва"},{"type":"hashtag","offset":18,"length":9,"data":"работаQA"},{"type":"hashtag","offset":28,"length":11,"data":"Смоленская"},{"type":"hashtag","offset":40,"length":5,"data":"офис"},{"type":"link","offset":596,"length":27,"data":"mailto:erzhena.zhimbeeva@yandex.ru"},{"type":"handle","offset":634,"length":10,"data":"meowmurrr"}],"date":"2020-04-09T07:55:20+00:00","link":"tg://resolve?domain=qa_jobs&post=93713","tags":[{"name":"qa"},{"name":"typescript"}],"cities":[{"code":"moscow"}],"allowsRemote":false}},{"node":{"__typename":"Job","id":"16231956480-1001110946746","title":"Js разработчик","text":"Greenatom.ru\n#вакансия #Москва #javascript #React #Typescript #Node.js #Middle #Senior #удаленка\n\n👨🏼‍💻 Middle/Senior Frontend Developer, Middle/Senior Backend Developer\nГород и адрес офиса: #Москва, 1-й Нагатинский проезд, 10с1, метро Нагатинская\n\nФормат работы: офис или частичная удаленка на выбор\n\n💻Занятость: полная, гибкое начало трудового дня.\n\nЗарплатная вилка: от 170 000 до 230 000 руб. на руки.\n\n🏢Компания: АО Гринатом\n\nПривет! Мы растём и активно развиваем ряд внутренних проектов: например, корпоративный портал, горячая линия. Мы формируем несколько команд и ищем классных:\n\n✅фронтенд разработчиков;\n\n✅бэкенд разработчиков. \n\nПроекты в стадии разработки пилота и у тебя есть возможность повлиять на дальнейшее развитие продукта. Если у тебя есть крутые идеи - ты сможешь их здесь реализовать! Откликайся сам и зови друзей! Вирус пройдёт, работа останется!\n\n✅Требуемые знания и навыки:\n- Опыт разработки от двух лет\n- Хорошее знание чистого JS\n- Опыт работы с TypeScript\n- React, MobX, Less/Sass\n- Опыт написания юнит-тестов с помощью Jest, Enzymе очень приветствуется\n\n💡Наш стек:\n      React, TypeScript, Node.js, MobX, Docker\n\nМы работаем по Scrum.\n\n✅Условия:\n- Официальное оформление по ТК, белая зп;\n- Возможности профессионального и карьерного роста;\n- Дополнительные 3 дня к отпуску;\n- Плавающее начало дня;\n- Удаленка после прохождения испытательного срока (3 месяца)\n- ДМС со стоматологией\n\n☎️Контакты:\nЮлия - YAnZueva@Greenatom.ru","markup":[{"type":"link","offset":0,"length":12,"data":"http://Greenatom.ru"},{"type":"hashtag","offset":13,"length":9,"data":"вакансия"},{"type":"hashtag","offset":23,"length":7,"data":"Москва"},{"type":"hashtag","offset":31,"length":11,"data":"javascript"},{"type":"hashtag","offset":43,"length":6,"data":"React"},{"type":"hashtag","offset":50,"length":11,"data":"Typescript"},{"type":"hashtag","offset":62,"length":5,"data":"Node"},{"type":"hashtag","offset":71,"length":7,"data":"Middle"},{"type":"hashtag","offset":79,"length":7,"data":"Senior"},{"type":"hashtag","offset":87,"length":9,"data":"удаленка"},{"type":"hashtag","offset":193,"length":7,"data":"Москва"},{"type":"link","offset":1436,"length":21,"data":"mailto:YAnZueva@Greenatom.ru"}],"date":"2020-04-09T06:41:15+00:00","link":"tg://resolve?domain=javascript_jobs_feed&post=15480","tags":[{"name":"javascript"},{"name":"reactjs"},{"name":"typescript"},{"name":"nodejs"},{"name":"sass"},{"name":"docker"}],"cities":[{"code":"moscow"}],"allowsRemote":true}},{"node":{"__typename":"Job","id":"16228810752-1001110946746","title":"Js разработчик","text":"#вакансия #javascript #nodejs #typescript #frontend #middle\n\nКомпания: #Mетрквадратный https://m2.ru\nЛокация: #москва м.Белорусская\nФормат работы: офис\nЗанятость: полная\nЗ/п: 200к - 260к руб. на руки\nКонтакты: @maxdmitrov\n\nЭто платформа, на которой физические лица смогут в режиме одного окна подобрать объект недвижимости, оформить на него ипотеку, произвести электронную регистрацию, сделать безопасный расчет не посещая банки и воспользоваться дополнительными услугами (страхование, дизайн, ремонт). \n\nЧем предстоит заниматься:\n\n•  разрабатывать один из продуктов жилищной экосистемы;\n•  прорабатывать задачи с начального этапа (декомпозиция, проработка архитектуры, демо с владельцем продукта);\n•  проводить код ревью;\n•  покрывать код unit тестами, помогать тестировщикам в написании e2e тестов;\n•  оптимизировать рендеринг и скорость загрузки страниц;\n•  разрабатывать продуктовые компоненты, используя общие UI библиотеки, и помогать в развитии этих библиотек.\n\nЧего мы ждем:\n\n• Javascript(ES6);\n• React + MobX/Redux;\n• HTML;\n• CSS;\n• Опыт кроссбраузерной верстки.\n\nБудет плюсом:\n\n• TypeScript;\n• Знание протокола HTTP/HTTPS, websockets, опыт работы с REST API;\n• Опыт работы с react native;\n• Опыт в бекэнде на различных языках программирования;\n• Опыт профилирования, оптимизации и рефакторинга кода;\n• Опыт написания тестов.\n\nМы используем: \n\n•  TypeScript + React + MobX + Gatsby;\n•  NestJS + gRPC + ProtoBuf (мидл-слой, управляющий UI и обращающийся к API бэк-энда);\n•  Micro Frontend Service;\n•  GitLab (CI/CD);\n•  Yarn + Lerna;\n•  Webpack/Rollup.\n\nМы предлагаем: \n\n•  Современный стек технологий;\n•  Возможность влиять на архитектуру и сразу видеть результат своей работы;\n•  Белая конкурентная ЗП, официальное оформление;\n•  Гибкий график работы, возможность выбора рабочего оборудования;\n•  ДМС, компенсация фитнеса, льготная ставка по ипотеке;\n•  Комфортный офис в БЦ «Белая площадь» (минута от метро): лаундж-зоны, бариста, фрукты.","markup":[{"type":"hashtag","offset":0,"length":9,"data":"вакансия"},{"type":"hashtag","offset":10,"length":11,"data":"javascript"},{"type":"hashtag","offset":22,"length":7,"data":"nodejs"},{"type":"hashtag","offset":30,"length":11,"data":"typescript"},{"type":"hashtag","offset":42,"length":9,"data":"frontend"},{"type":"hashtag","offset":52,"length":7,"data":"middle"},{"type":"hashtag","offset":71,"length":15,"data":"Mетрквадратный"},{"type":"link","offset":87,"length":13,"data":"https://m2.ru"},{"type":"hashtag","offset":110,"length":7,"data":"москва"},{"type":"handle","offset":210,"length":11,"data":"maxdmitrov"}],"date":"2020-04-09T06:40:27+00:00","link":"tg://resolve?domain=javascript_jobs_feed&post=15477","tags":[{"name":"javascript"},{"name":"nodejs"},{"name":"typescript"},{"name":"reactjs"},{"name":"redux"},{"name":"html"},{"name":"css"},{"name":"rest"},{"name":"gitlab"},{"name":"webpack"},{"name":"react-native"}],"cities":[{"code":"moscow"}],"allowsRemote":false}},{"node":{"__typename":"Job","id":"16227762176-1001110946746","title":"Javascript developer","text":"#вакансия #react #javascript #москва #офис\n\n🔭 Под задачи разработки платформы Web-решений ищем Frontend Developer (React) в крупную финансовую компанию. \n🎧 Все собеседования проводятся по скайпу из-за карантина. \nОфис: Москва, Лубянка\n🏠 Формат работы: в офисе после карантина (сейчас как у всех  удалёнка). В первый рабочий день оформляетесь и идете на удалёнку.\nЗанятость полная.\nГражданство: РФ\nПолный соцпакет.\n💰 Зарплата: от 165К до 175К net + квартальная премия 0,5 оклада. \nС премией средняя ЗП составит 205K рублей net \n\nFrontend Developer (React)\n🚀Область ответственности:\n• Участие в разработке фронт-офисных систем компании.\n💎 Требования:\n• Высшее / неоконченное высшее образование;\n• Опыт коммерческой разработки UI от 2,5 лет;\n• Необходимый стек: JavaScript, TypeScript, React (с использованием Redux/Mobx, Webpack, Babel), СУБД (PostgreSQL, MongoDB, Redis).\n• Кроссбраузерная и кроссплатформенная вёрстка.\n• Участие в высоконагруженных проектах.\n\nНазвание компании: КА \"Бизнес Крафт Консалт\" https://bcraft.ru/\n📪Контакты:\ntelegram: @oksanaalieva \nEmail: oksana@bcraft.ru \nБуду рада ответить на уточняющие вопросы. \nПодробности могу выслать в ЛС в ответ на присланное резюме.","markup":[{"type":"hashtag","offset":0,"length":9,"data":"вакансия"},{"type":"hashtag","offset":10,"length":6,"data":"react"},{"type":"hashtag","offset":17,"length":11,"data":"javascript"},{"type":"hashtag","offset":29,"length":7,"data":"москва"},{"type":"hashtag","offset":37,"length":5,"data":"офис"},{"type":"link","offset":1011,"length":18,"data":"https://bcraft.ru/"},{"type":"handle","offset":1052,"length":13,"data":"oksanaalieva"},{"type":"link","offset":1074,"length":16,"data":"mailto:oksana@bcraft.ru"}],"date":"2020-04-09T06:40:13+00:00","link":"tg://resolve?domain=javascript_jobs_feed&post=15476","tags":[{"name":"javascript"},{"name":"reactjs"},{"name":"web"},{"name":"dotnet"},{"name":"typescript"},{"name":"redux"},{"name":"webpack"},{"name":"postgresql"},{"name":"mongodb"},{"name":"redis"}],"cities":[{"code":"moscow"}],"allowsRemote":true}},{"node":{"__typename":"Job","id":"16223567872-1001110946746","title":"Javascript разработчик","text":"#вакансия #москва #офис #полнаязанятость #frontend #javascript #react #angular #vue\n\nFrontend-разработчик (JavaScript)\n\nГород и адрес офиса: Москва, метро Дубровка\nФормат работы: офис (в период самоизоляции работаем удалённо)\nЗанятость: полная\nЗарплатная вилка: от 140 000 до 170 000 рублей\n\nЗадачи:\n\n— Разработка frontend-интерфейса рекламной платформы\n— Перевод UI/UX макетов в верстку\n— Взаимодействие с backend-разработчиками, согласование протоколов обмена данными\n— Работа со сторонними frontend-решениями, в т.ч. внесение изменений в сторонний код\n— Разработка плеера, поддерживающего стандарты VAST/VPAID\n— Разработка и поддержка рекламных блоков (VPAID AdUnit)\n— Разработка автоматизированных тестов и тестовых сред\n\nТребования:\n\n— Опыт кроссбраузерной веб-разработки от трех лет (HTML 5, CSS)\n— Опыт программирования с использованием как чистого JavaScript, так и фреймворков (react, angular, vue), работа с npm\n— Опыт работы с REST API\n\nБудет плюсом:\n\n— Представление об асинхронной̆ обработке запросов, разработка single-page application\n— Опыт работы в AdTech, знание протоколов VAST/VPAID, представление о работе плееров с рекламными материалами\n— Знание о том, что такое CORS\n— Хорошее понимание работы HTTP протокола \n— Навыки работы с сетевыми инспекторами\n\nУсловия:\n\n— Заработная плата от 140 000 до 170 000 рублей (по результатам собеседования)\n— Полная занятость, полный день\n— Работа под руководством опытного CTO c хорошим чувством юмора :)\n— Современный комфортный офис в Москве (метро Дубровка)\n\nНазвание компании:\n\nUnion Media Group\n\nО компании:\n\nГруппа компаний на стыке агентского бизнеса и рекламных технологий.\n\nРазрабатываем ab ovo рекламную платформу, не отягощенную legacy-кодом и грузом обратной совместимости.\n\nВ качестве таск-трекера используем Jira.\n\nДля откликов: \n\nПройдите первичное собеседование в экспресс-формате прямо сейчас:\n\n👉 @yeshr_it_bot\n\nПо дополнительным вопросам:\n\n🖖 @asubc","markup":[{"type":"hashtag","offset":0,"length":9,"data":"вакансия"},{"type":"hashtag","offset":10,"length":7,"data":"москва"},{"type":"hashtag","offset":18,"length":5,"data":"офис"},{"type":"hashtag","offset":24,"length":16,"data":"полнаязанятость"},{"type":"hashtag","offset":41,"length":9,"data":"frontend"},{"type":"hashtag","offset":51,"length":11,"data":"javascript"},{"type":"hashtag","offset":63,"length":6,"data":"react"},{"type":"hashtag","offset":70,"length":8,"data":"angular"},{"type":"hashtag","offset":79,"length":4,"data":"vue"},{"type":"handle","offset":1875,"length":13,"data":"yeshr_it_bot"},{"type":"handle","offset":1922,"length":6,"data":"asubc"}],"date":"2020-04-09T06:38:06+00:00","link":"tg://resolve?domain=javascript_jobs_feed&post=15472","tags":[{"name":"javascript"},{"name":"reactjs"},{"name":"angularjs"},{"name":"vuejs"},{"name":"html"},{"name":"css"},{"name":"npm"},{"name":"rest"}],"cities":[{"code":"moscow"}],"allowsRemote":true}},{"node":{"__typename":"Job","id":"16220422144-1001110946746","title":"Js разработчик","text":"#вакансия #Москва #remote #Javascript #frontend #middle #react #vuejs\n\nЛокация: Москва\nФормат работы: удаленка\nЗанятость: полная, гибкое начало дня\nЗП: 150 000 - 180 000 рублей до вычета налогов \n\n🔹 Открыта вакансия Frontend developer (уровня миддл) в компании Агроплем.\nАгроплем - это инновационный лабораторный кластер, который трудится над задачами по изучению генетики животных, аналитики данных ферм, почв.\nКомпания является резидентом Сколково, MVP продукта планируется на конец 2020 года.\nСейчас работают над сложным комплексным проектом по автоматизации ферм, аналогов которых нет в мире. Проект идет на стыке с IoT технологиями,  в будущем будет BigData, цифровая модель ферм.\nБекенд проектов пишется на .Net. Сейчас ребята в поиске первого фронтенд разработчика для разработки системы управления фермой (фронтенд фреймворк пока не выбран). \n\n🔹 Требования:\n- коммерческий опыт разработки на Javascript от 2- ух лет;\n- коммерческий опыт разработки на vuejs/react от 1-ого года;\n- будет плюсом опыт разработки на Node.JS\n- будет плюсом, если кандидат не относится отрицательно к .Net cтеку\n\n🔹 Что интересного есть у ребят:\n- официальное трудоустройство и белая ЗП;\n- полностью удаленная работа;\n- компенсация техники;\nа главное, возможность присоединиться к отличной команде специалистов, которые действительно горят своим делом!\n\n🔹 Контакты:\ne-mail: daria@luckyhunter.io\ntelegram: @prudentdaria\nКА: luckyhunter\nПишите, буду рада ответить на все возможные вопросы в телеграме или по почте 😊","markup":[{"type":"hashtag","offset":0,"length":9,"data":"вакансия"},{"type":"hashtag","offset":10,"length":7,"data":"Москва"},{"type":"hashtag","offset":18,"length":7,"data":"remote"},{"type":"hashtag","offset":26,"length":11,"data":"Javascript"},{"type":"hashtag","offset":38,"length":9,"data":"frontend"},{"type":"hashtag","offset":48,"length":7,"data":"middle"},{"type":"hashtag","offset":56,"length":6,"data":"react"},{"type":"hashtag","offset":63,"length":6,"data":"vuejs"},{"type":"link","offset":1362,"length":20,"data":"mailto:daria@luckyhunter.io"},{"type":"handle","offset":1393,"length":13,"data":"prudentdaria"}],"date":"2020-04-09T06:37:00+00:00","link":"tg://resolve?domain=javascript_jobs_feed&post=15469","tags":[{"name":"javascript"},{"name":"reactjs"},{"name":"vuejs"},{"name":"dotnet"},{"name":"nodejs"}],"cities":[{"code":"moscow"}],"allowsRemote":true}},{"node":{"__typename":"Job","id":"16219373568-1001110946746","title":"Js разработчик","text":"#вакансия #удаленно #react #middle+\nКомпания - VMB\nГород - Москва \nФормат - удаленная работа \nГрафик - полный рабочий день \nВилка - 150-200к рублей на руки \n\n📍Проект - “Детский проект” для поискового приложения нужно сделать веб приложение, где дети могут тыкаться с любимыми персонажами \n📍Что нужно? \nзнание React и TypeScript;\nотличное владение чистым JS;\nхорошее знание Node.js и ES6;\nхорошее знание HTML и CSS;\nумение работать с Git;\nпонимание особенностей SPA-приложений.\n📍Плюсами будут:\nпонимание принципов разработки изоморфных приложений;\nопыт разработки под мобильные браузеры;\nзнакомство с Unix-системами;\nопыт написания тестов (юнит- или интеграционных);\nопыт работы с системами сборки (Webpack, Rollup, Gulp, Grunt и т. п.);\nопыт работы с системами непрерывной интеграции (TeamСity, Travis, Jenkins, Drone и т. п.).\n📍Что предлагаем?\nУдалённую занятость \nВозможность развиваться и развивать интересный проект\n\nКонтакты \n@nariarakel","markup":[{"type":"hashtag","offset":0,"length":9,"data":"вакансия"},{"type":"hashtag","offset":10,"length":9,"data":"удаленно"},{"type":"hashtag","offset":20,"length":6,"data":"react"},{"type":"hashtag","offset":27,"length":7,"data":"middle"},{"type":"handle","offset":935,"length":11,"data":"nariarakel"}],"date":"2020-04-09T06:36:49+00:00","link":"tg://resolve?domain=javascript_jobs_feed&post=15468","tags":[{"name":"javascript"},{"name":"reactjs"},{"name":"typescript"},{"name":"nodejs"},{"name":"html"},{"name":"css"},{"name":"git"},{"name":"unix"},{"name":"webpack"},{"name":"gulp"},{"name":"gruntjs"},{"name":"jenkins"}],"cities":[{"code":"moscow"}],"allowsRemote":true}},{"node":{"__typename":"Job","id":"16218324992-1001110946746","title":"Js разработчик","text":"#вакансия #front #react #typescript #москва #генетика #javascript #nodejs #геномэксперт #барсгруп\n\nГород и адрес офиса: Москва, ст.м.Павелецкая\nФормат работы: Офис\nЗанятость: Полная \nЗарплатная вилка: от 160 до 250 000 руб. на руки\nНазвание компании: Барс Груп\nhttps://bars.group/\nПроект Геном.Эксперт  - https://genome.expert/ \n\nТребуется senior/middle front-end разработчик в крупный медицинский проект.\n\nПредметная область: Генетика.\nТекущее состояние проекта: Проект запущен как стартап, поэтому есть уникальная возможность принять участие в создании с нуля единого пространства для врачей-генетиков, лабораторных генетиков, биоинформатиков.\n\nЧем придется заниматься:\n\n-Писать микроприложения и компоненты на React;\n-Изучать исходники на Polymer, чтобы переехать на React и микросервисную архитектуру;\n-Доделывать существующую систему с использованием самописного фрэймворка(пока переезжаем на реакт, это иногда нужно будет делать)\n\nТребования:\n\n-Front-end: React(Vue), typescript, Polymer, Redux/Mobx/Vuex;\n-Межсервисное взаимодействие и API: REST/GraphQL/gRPC;\n-Инструменты для работы: Git, bitbucket, JIRA, docker, docker-compose\n\nУсловия:\n-Оформление по ТК РФ;\n-Работа в комфортабельном офисе, ст.м.Павелецкая;\n-Белая зарплата, повышающаяся по системе аттестаций несколько раз в год;\n-ДМС;\n-Перспективы карьерного роста;\n-Корпоративное обучение (тренинги, мастер-классы);\n-Корпоративная библиотека;\n-Мы рассматриваем кандидатов с возможностью переезда в Москву;\n-Возможность предоставления бесплатного жилья на первый месяц\n- График 5/2. \n\nКонтакты для связи: \n\nemail: a.starchenko@bars.group \nTelegram: @alinavelcheva \n\nbars.group\nАО «БАРС Груп» - официальный сайт компании\nАО «БАРС Груп» - российский производитель ИТ-решений и экспертный центр в сфере государственной и корпоративной информатизации.","markup":[{"type":"hashtag","offset":0,"length":9,"data":"вакансия"},{"type":"hashtag","offset":10,"length":6,"data":"front"},{"type":"hashtag","offset":17,"length":6,"data":"react"},{"type":"hashtag","offset":24,"length":11,"data":"typescript"},{"type":"hashtag","offset":36,"length":7,"data":"москва"},{"type":"hashtag","offset":44,"length":9,"data":"генетика"},{"type":"hashtag","offset":54,"length":11,"data":"javascript"},{"type":"hashtag","offset":66,"length":7,"data":"nodejs"},{"type":"hashtag","offset":74,"length":13,"data":"геномэксперт"},{"type":"hashtag","offset":88,"length":9,"data":"барсгруп"},{"type":"link","offset":261,"length":19,"data":"https://bars.group/"},{"type":"link","offset":305,"length":22,"data":"https://genome.expert/"},{"type":"link","offset":1577,"length":23,"data":"mailto:a.starchenko@bars.group"},{"type":"handle","offset":1612,"length":14,"data":"alinavelcheva"},{"type":"link","offset":1629,"length":10,"data":"http://bars.group"}],"date":"2020-04-09T06:36:29+00:00","link":"tg://resolve?domain=javascript_jobs_feed&post=15467","tags":[{"name":"javascript"},{"name":"reactjs"},{"name":"typescript"},{"name":"nodejs"},{"name":"polymerjs"},{"name":"vuejs"},{"name":"redux"},{"name":"rest"},{"name":"graphql"},{"name":"git"},{"name":"docker"},{"name":"docker-compose"}],"cities":[{"code":"moscow"}],"allowsRemote":false}},{"node":{"__typename":"Job","id":"66293071872-1001054966032","title":"Android разработчик","text":"#вакансия #senior #middle #Сбербанк #android #kotlin #fulltime #офис #agile\nКомпания: ПАО «Сбербанк»\nЛокация: Москва, м. Кутузовская (Agile home)\nЗ/п: от 180-280К на руки (в зависимости от уровня) + достойные годовые премии\nКонтакты: @tdurnicina TVlDurnitsyna@sberbank.ru\n\nДрузья! Мы в поисках Android разработчиков уровня middle и senior в новое небанковское приложение для клиента. Это уникальная возможность присоединиться к разработке серьёзного продукта в командах с атмосферой стартапа🙂 Вас ждут интересные задачи, свежий стек: Kotlin, Mvvm, RxJava, многомодульность и никакого легаси🔥 \n!Также готовы рассмотреть кандидатов уровня junior при наличии опыта коммерческой разработки.\n\nНаш Agile home это: пин понг, пул, кикер, библиотека, кофемашины на этажах, бесплатный спорт зал и подземный паркинг.\nЕсть отличный корпоративный университет, программы обучения в т.ч. за рубежом, конференции, митапы.\n🔥 Льготная ипотека и ДМС. \n\nРассмотрим кандидатов из других городов и стран. И конечно гибкое начало рабочего дня, куда без него.","markup":[{"type":"hashtag","offset":0,"length":9,"data":"вакансия"},{"type":"hashtag","offset":10,"length":7,"data":"senior"},{"type":"hashtag","offset":18,"length":7,"data":"middle"},{"type":"hashtag","offset":26,"length":9,"data":"Сбербанк"},{"type":"hashtag","offset":36,"length":8,"data":"android"},{"type":"hashtag","offset":45,"length":7,"data":"kotlin"},{"type":"hashtag","offset":53,"length":9,"data":"fulltime"},{"type":"hashtag","offset":63,"length":5,"data":"офис"},{"type":"hashtag","offset":69,"length":6,"data":"agile"},{"type":"handle","offset":234,"length":11,"data":"tdurnicina"},{"type":"link","offset":246,"length":25,"data":"mailto:TVlDurnitsyna@sberbank.ru"}],"date":"2020-04-08T19:01:58+00:00","link":"tg://resolve?domain=mobile_jobs&post=0","tags":[{"name":"mobile"},{"name":"android"},{"name":"kotlin"},{"name":"mvvm"}],"cities":[{"code":"moscow"}],"allowsRemote":false}},{"node":{"__typename":"Job","id":"98248425472-1001089317451","title":"Qa engineer","text":"#вакансия #QA #Automation #офис #Москва \n\n➡️Позиция: QA Engineer \n🌏Город: Москва \n🏬Офис (Ближайшее метро: Проспект Мира, Рижская) \n🕟Полный день, полная занятость \n💰Зарплатная вилка: 90 000 - 150 000 рублей \n\nКомпания ЦТР является стартап. \nКомпания специализируется на создании инновационных продуктах в сфере ритейла. Мы занимаемся разработкой и внедрением высокотехнологичных цифровых сервисов для розничных торговых сетей.\n\nОт кандидата мы ждем: \n🔹Опыт в тестировании с автоматизацией от года. \n🔹Опыт работы в системах управления разработкой Jira или \nCon4uence. \n🔹Опыт работы c системами автоматизации тестовых заданий. \n🔹Знание Python. \n🔹Технический английский на уровне чтения документации. \n\nТвоими задачами будут: \n🔹Организация, сопровождение, доработка и обеспечение \nметодологии тестирования модулей, программ и компонентов. \n🔹Ручное и автоматическое тестирование модулей продукта. \n🔹Участие в определении стратегии тестирования. \n🔹Аудит и составление документации, описаний и требований, \nвключая тестовую. \n🔹Владение экспертизой по продукту тестирования. \nРазвитие и поддержание существующей тестовой базы. \n🔹Обеспечение тестирования ПО на различных конфигурациях и \nсредах. \n \nУсловия: \n🔹Условия обсуждаются индивидуально с успешным кандидатом. \n🔹Интересный и амбициозный проект как возможность \nпрофессионального роста и повышения квалификации. \n🔹Офис находится недалеко от станции метро «Проспект Мира».\n\n📲Резюме и вопросы: @NataLia0800","markup":[{"type":"hashtag","offset":0,"length":9,"data":"вакансия"},{"type":"hashtag","offset":10,"length":3,"data":"QA"},{"type":"hashtag","offset":14,"length":11,"data":"Automation"},{"type":"hashtag","offset":26,"length":5,"data":"офис"},{"type":"hashtag","offset":32,"length":7,"data":"Москва"},{"type":"handle","offset":1458,"length":12,"data":"NataLia0800"}],"date":"2020-04-08T17:58:42+00:00","link":"tg://resolve?domain=qa_jobs&post=93697","tags":[{"name":"qa"},{"name":"python"}],"cities":[{"code":"moscow"}],"allowsRemote":false}}]}}},"context":{}}