{"hash":"f34fd2c444a074f4e0e67d525015a008ef8e766f","data":{"records":{"id":"cloud","name":"cloud","belongsTo":{"totalCount":25,"pageInfo":{"totalPages":3,"currentPage":1},"edges":[{"node":{"__typename":"Job","id":"16263413760-1001110946746","title":"Js developer","text":"#вакансия #офис\n\nTeam Lead (Node.js/React)\n\nГород: Мюнхен, Германия\nФормат занятости: офис\nТип занятости: полная \nЗаплата: 6000-7000 евро в месяц.\nКалькулятор налогов:\nkaiser-estate.ru/raschet-nalogov-i-socialnih-otchisleniy-po-zarplate-v-germanii.html\nРелокейт пакет \n\nОписание компании: \nCHECK24\nCompany is the leading price comparison platform in Germany. The company employs over a 2000 employees in 7 offices around the Germany with HQ in Munich \n\nRequirements\nYou have extensive experience in backend development using following languages (Node.js, C#, Java, Python or similar). You have experience of leading a team or ready to develop your management skills. You have proficient English or German level.\nExperience as a Full Stack Web Developer\nNode.js, or other OOP languages (Java, .NET, PHP, etc)\nDocker or knowledge of other containers\nCloud providers (the client is using AWS)\nUnit Testing and precise tools\nDevOps tools\nFrameworks as React, Angular / general knowledge of JavaScript\nConsiderable knowledge of MongoDB and experience with other databases\nBenefits\nVisa sponsorship and relocation budget\nYou will also be part of a company that values teamwork and life balance\nYou will get the chance to immerse yourself in German culture fully, with language courses and the opportunity to live in Munich, one of the most cultural and international cities in Germany\nWhat is more, you will have the chance to work with cutting edge technologies in one of the largest tech companies in Germany\nКонтакты:\n\nКомпания КА Zero to One search \nzerotoonesearch.com\nНаталья natalya@zerotoonesearch.com\nSkype: na.yarkova\n\n—\n\n👉 Обсуждение вакансии в чате @javascript_jobs","markup":[{"type":"hashtag","offset":0,"length":9,"data":"вакансия"},{"type":"hashtag","offset":10,"length":5,"data":"офис"},{"type":"link","offset":168,"length":84,"data":"http://kaiser-estate.ru/raschet-nalogov-i-socialnih-otchisleniy-po-zarplate-v-germanii.html"},{"type":"link","offset":1548,"length":19,"data":"http://zerotoonesearch.com"},{"type":"link","offset":1576,"length":27,"data":"mailto:natalya@zerotoonesearch.com"},{"type":"handle","offset":1656,"length":16,"data":"javascript_jobs"}],"date":"2020-04-10T12:01:17+00:00","link":"tg://resolve?domain=javascript_jobs_feed&post=15510","tags":[{"name":"javascript"},{"name":"nodejs"},{"name":"reactjs"},{"name":"html"},{"name":"java"},{"name":"python"},{"name":"web"},{"name":"dotnet"},{"name":"php"},{"name":"docker"},{"name":"cloud"},{"name":"amazon-web-services"},{"name":"angularjs"},{"name":"mongodb"},{"name":"unit-testing"}],"cities":[{"code":"munich"}],"allowsRemote":false}},{"node":{"__typename":"Job","id":"1431306240-1001091028994","title":"Java разработчик","text":"#scala #teamlead #senior #офис #удаленно #fulltime #Москва\n\nПриглашаем Scala-разработчика уровня senior-teamlead, 220-270 тыс. на руки.\n\nТребования:\nлидировать и развивать команду разработчиков\nразвивать backend приложение на Akka HTTP\nпрорабатывать интеграции для сервисов на Java (Spring Cloud)\nинтегрироваться со стеком Kafka, MQ, Redis, Orcale SQL, Postgres\nfrontend разработка (React, Redux, Typescript, собственная библиотека компонентов)\nработать с витринами на Spark, Hadoop\nразработать web-scraper на Akka Streams\nподдерживать процесс сборки и тестирования (git, Ansible, Jenkins, Docker, OpenShift)\n\nСбербанк, Москва, Кутузовская\n\nКонтакты: @MikeTurchenkov","markup":[{"type":"hashtag","offset":0,"length":6,"data":"scala"},{"type":"hashtag","offset":7,"length":9,"data":"teamlead"},{"type":"hashtag","offset":17,"length":7,"data":"senior"},{"type":"hashtag","offset":25,"length":5,"data":"офис"},{"type":"hashtag","offset":31,"length":9,"data":"удаленно"},{"type":"hashtag","offset":41,"length":9,"data":"fulltime"},{"type":"hashtag","offset":51,"length":7,"data":"Москва"},{"type":"handle","offset":651,"length":15,"data":"MikeTurchenkov"}],"date":"2020-04-09T11:58:52+00:00","link":"tg://resolve?domain=jvmjobs&post=1365","tags":[{"name":"java"},{"name":"jvm"},{"name":"scala"},{"name":"akka"},{"name":"spring"},{"name":"cloud"},{"name":"kafka"},{"name":"redis"},{"name":"sql"},{"name":"postgresql"},{"name":"reactjs"},{"name":"redux"},{"name":"typescript"},{"name":"hadoop"},{"name":"web"},{"name":"git"},{"name":"ansible"},{"name":"jenkins"},{"name":"docker"},{"name":"react-redux"}],"cities":[{"code":"moscow"}],"allowsRemote":true}},{"node":{"__typename":"Job","id":"1988100096-1001134745498","title":"Devops engineer","text":"#вакансия \nУдаленно\nГ. Казань ул. Петербургская д. 52 офис 41\nЗанятость: проектная\nЗарплатная вилка: от 100 000 до 200 000\n\nОписание вакансии: Мы делаем курс для начинающих DevOPS и нам нужен блок по Google Cloud. Пример нашего курса по Linux тут: https://sipteco.ru/onboard_win_to_lin\n\nЕсть англоязычный курс: https://www.udemy.com/course/google-certified-associate-cloud-engineer/\nЯ куплю этот курс. От вас нужно сделать по нему курса в боте. Бот настраивается так: https://youtu.be/0Yz06diB6gw\n\nМне нужно чтобы вы сделали практические примеры, которые включают всю программу по ссылке.\n\nНазвание компании:  Sipteco.ru \n\nКонтакты:  +79872745052 Михаил @mezhirnov\n\n—\n\n👉 Обсуждение вакансии в чате @devops_jobs","markup":[{"type":"hashtag","offset":0,"length":9,"data":"вакансия"},{"type":"link","offset":248,"length":37,"data":"https://sipteco.ru/onboard_win_to_lin"},{"type":"link","offset":311,"length":71,"data":"https://www.udemy.com/course/google-certified-associate-cloud-engineer/"},{"type":"link","offset":468,"length":28,"data":"https://youtu.be/0Yz06diB6gw"},{"type":"link","offset":610,"length":10,"data":"http://Sipteco.ru"},{"type":"link","offset":634,"length":12,"data":"tel:+79872745052"},{"type":"handle","offset":654,"length":10,"data":"mezhirnov"},{"type":"handle","offset":699,"length":12,"data":"devops_jobs"}],"date":"2020-04-09T06:30:15+00:00","link":"tg://resolve?domain=devops_jobs_feed&post=1896","tags":[{"name":"cloud"},{"name":"linux"},{"name":"google-cloud-platform"}],"cities":[{"code":"kazan"}],"allowsRemote":false}},{"node":{"__typename":"Job","id":"1427111936-1001091028994","title":"Java developer","text":"#вакансия #java #backend #spring \nКомпания OpenDev\nЛокация #мск #москва \nЗП 170-230 gross\n\n🔵 Middle / Senior Java Developer\nТендеция  бесконтактных услуг и удаленных сервисов набирает обороты. Присоединийся к нам!\nПроект: SMARTBRANCH \nРазработка и поддержка ПО банковских терминалов нового поколения. Все услуги банка и интерактивное общение с менеджером  - в одном устройстве. Больше никаких очередей и \"возьмите талончик\" :) \n\nСтек:\n🔹 Java core, Java 8+\n🔹  Spring Framework, Spring boot, Spring Cloud\n🔹 Docker\n🔹 БД: NoSQL\n\nУсловия\n- Белая ЗП + ДМС\n- Продуктовые Scrum команды\n- Performance review\n- Релокация кандидатов из регионов ✈  \n\nЗадать вопрос / прислать CV / просто поздороваться @xenia_agv","markup":[{"type":"hashtag","offset":0,"length":9,"data":"вакансия"},{"type":"hashtag","offset":10,"length":5,"data":"java"},{"type":"hashtag","offset":16,"length":8,"data":"backend"},{"type":"hashtag","offset":25,"length":7,"data":"spring"},{"type":"hashtag","offset":59,"length":4,"data":"мск"},{"type":"hashtag","offset":64,"length":7,"data":"москва"},{"type":"handle","offset":695,"length":10,"data":"xenia_agv"}],"date":"2020-04-08T07:16:44+00:00","link":"tg://resolve?domain=jvmjobs&post=1361","tags":[{"name":"java"},{"name":"jvm"},{"name":"spring"},{"name":"cloud"},{"name":"docker"},{"name":"nosql"},{"name":"spring-boot"}],"cities":[{"code":"moscow"}],"allowsRemote":false}},{"node":{"__typename":"Job","id":"1418723328-1001091028994","title":"Java разработчик","text":"Вакансия: #java #spring #kotlin #middle #senior\nКомпания: #сбербанк\nЛокация: #москва\nЗ/п: от 160 до 250 net \nКонтакты: @Sooreyn\n \nВ команду разработки систем управления кредитными рисками и рисками на финансовых рынках ищем Java-разработчика. Мы — амбициозная и дружная команда. Ежедневно совершаем подвиги, являем чудеса инженерной мысли и покоряем новые технологические высоты. Выпускаем не имеющий аналогов в России «риск-менеджмент» продукт.\n \nИспользуем: Kotlin, Spring Cloud, Service Discovery (Eureka), API Gateway (Zuul), Feign client, Circuit breaker.\n \nМы предлагаем:\nГрафик работы с гибким подходом, в пятницу короткий день;\nОфис - метро Тульская; ДМС, фитнес;\nВозможность проходить обучение в лучшем Корпоративном Университете (Европы);\nИ еще много всего интересного и \"вкусного\".","markup":[{"type":"hashtag","offset":10,"length":5,"data":"java"},{"type":"hashtag","offset":16,"length":7,"data":"spring"},{"type":"hashtag","offset":24,"length":7,"data":"kotlin"},{"type":"hashtag","offset":32,"length":7,"data":"middle"},{"type":"hashtag","offset":40,"length":7,"data":"senior"},{"type":"hashtag","offset":58,"length":9,"data":"сбербанк"},{"type":"hashtag","offset":77,"length":7,"data":"москва"},{"type":"handle","offset":119,"length":8,"data":"Sooreyn"}],"date":"2020-04-06T09:17:30+00:00","link":"tg://resolve?domain=jvmjobs&post=1353","tags":[{"name":"java"},{"name":"jvm"},{"name":"spring"},{"name":"kotlin"},{"name":"dotnet"},{"name":"cloud"}],"cities":[{"code":"moscow"}],"allowsRemote":false}},{"node":{"__typename":"Job","id":"1968177152-1001134745498","title":"Devops engineer","text":"#вакансия #DevOps #fulltime #киев\n\nВакансия: DevOps engineer\nКомпания: Luxena\nГород: Киев, метро Черниговская\nФормат работы: офис, remote - возможен для отдельных дней.\nЗанятость: полная\nЗарплата : от $2500 до $5000 по уровню квалификации.\nПомощь в релокации.\n\nО компании:\n\nLuxena - продуктовая IT-компания полного цикла, предлагаем самореализацию на международных проектах Industry 4.0 в отличной профи-атмосфере с элементами гибкого графика. \n\nЭксперту в построении и управлении платформами разработки и внедрения ПО предлагаем должность DevOps Engineer. \n \nTechnology Stack: \n \nCloud Services \n  - Azure (in use) \n  - AWS \n  - Google \n  \nCI/CD \n  - Azure DevOps (in use) \n  - Jenkins \n  - GitLab \n  \nCluster Orchestration \n  - Docker Swarm (in use) \n  - Kubernetes \n  \nRDBMS \n  - PostgreSQL (in use) \n  - MS SQL \n  - Oracle \n  \nAnalytical Solutions \n  - Clickhouse (in use) \n  - Apache Spark (in use) \n  - Apache Flink \n  - Druid \n  - Pinot \n  - Presto \n  \nStreaming & Message Queues \n  - Apache Pulsar (in use) \n  - Apache Kafka \n  \nDeployment Automation \n  - Ansible \n  - Puppet \n  - Terraform \n  \nProxy & Load balancing \n  - HA proxy (in use) \n  - Nginx \n \nВ каждом виде необходимо иметь практический опыт в production не менее 2-х лет. Часть навыков может быть развита в ходе первого года работы.\n\nКонтакт: @special_forces_recruiter\n\n—\n\n👉 Обсуждение вакансии в чате @devops_jobs","markup":[{"type":"hashtag","offset":0,"length":9,"data":"вакансия"},{"type":"hashtag","offset":10,"length":7,"data":"DevOps"},{"type":"hashtag","offset":18,"length":9,"data":"fulltime"},{"type":"hashtag","offset":28,"length":5,"data":"киев"},{"type":"handle","offset":1314,"length":25,"data":"special_forces_recruiter"},{"type":"handle","offset":1374,"length":12,"data":"devops_jobs"}],"date":"2020-04-05T00:33:02+00:00","link":"tg://resolve?domain=devops_jobs_feed&post=1877","tags":[{"name":"cloud"},{"name":"azure"},{"name":"amazon-web-services"},{"name":"jenkins"},{"name":"gitlab"},{"name":"docker"},{"name":"kubernetes"},{"name":"postgresql"},{"name":"sql"},{"name":"oracle"},{"name":"apache"},{"name":"kafka"},{"name":"deployment"},{"name":"ansible"},{"name":"nginx"},{"name":"azure-devops"},{"name":"apache-spark"}],"cities":[{"code":"kiev"}],"allowsRemote":true}},{"node":{"__typename":"Job","id":"1963982848-1001134745498","title":"Devops инженер","text":"Сидим дома и держимся бодрячком!\nПятничная #вакансия для DevOps инженера в команду Cloud-based решений в компанию Аурига.\n#remote #fulltime\nЗарплатная вилка: 180 000 - 250 000\n\n😊 На проекте тебя ждут задачи:\nНаписание скриптов на bash/sh\nКонтейнеризация приложений\nРазвертывание и настройка ELK стека для анализа логов приложений\nCI/CD на базе Bamboo\nИнтеграция BlackDuck в Bamboo\nТакже предстоит заниматься автоматизированным анализом кода на Java и Node.JS, анализом и настройкой параметров безопасности при деплое. И все это в условиях глобального IT ландшафта, когда ты не можешь просто взять и остановить систему, в ней работают люди, всегда работают.\n\n👍 Можем работать удаленно, и после карантина тоже. Если удобнее из офиса, то у Ауриги центры разработки в 6 городах, велком.\n\n🤓 Заказчик – производитель профессионального промышленного оборудования для строительства с офисами во всех 24-х часовых поясах.\n\n💥 Одно из ключевых требований - английский, регулярно устно общаемся с заказчиком. Отличный шанс прокачать язык и начать говорить как на втором родном.\n\n⭐️ Аурига разрабатывает ПО на заказ уже почти 30 лет, у компании много проектов - у вас гарантия занятости и возможность выбора. Мы знаем и следуем ТК РФ, зарплата вовремя и радует, ДМС с прямым доступом и стоматологией компенсируем, чай-плюшки гарантируем.\n\nНам нужен инженер сейчас, оформляем по ТК РФ удаленно, обмениваемся документами с помощью курьера.\n\nС радостью поделюсь деталями и отвечу на вопросы.\n@Maria_Auriga\n\n—\n\n👉 Обсуждение вакансии в чате @devops_jobs","markup":[{"type":"hashtag","offset":43,"length":9,"data":"вакансия"},{"type":"hashtag","offset":122,"length":7,"data":"remote"},{"type":"hashtag","offset":130,"length":9,"data":"fulltime"},{"type":"handle","offset":1480,"length":13,"data":"Maria_Auriga"},{"type":"handle","offset":1528,"length":12,"data":"devops_jobs"}],"date":"2020-04-03T12:39:37+00:00","link":"tg://resolve?domain=devops_jobs_feed&post=1873","tags":[{"name":"cloud"},{"name":"bash"},{"name":"java"},{"name":"nodejs"}],"cities":[],"allowsRemote":true}},{"node":{"__typename":"Job","id":"1409286144-1001091028994","title":"Java разработчик","text":"#вакансия #москва #java #middle #senior\n\nКомпания Альфа Страхование в поисках Java-разработчика на внутренние проекты (Москва).\n\n💰Заработная вилка: 200 000 ₽ — 300 000 ₽ (в зависимости от опыта)\n\n🔸Проект «АльфаПартнерс»\nСистема для партнеров компании для продажи страховок. Некое B2B решение, которое используют сотрудники наших партнёров, чтобы продавать страховки.\n\nТехнологии:\n▪️Java 8\n▪️[legacy часть] — Java Core, Weblogic + Oracle (LiquidBase)\n▪️[новая часть] — Spring Boot , Tomcat + Mongo + Vaadin 14\n\n————-\n\n🔸Проект «Продуктовая фабрика»\nПишется с нуля.\n\nТехнологии:\n▪️Java 8\n▪️Vaadin\n▪️Spring Framework (IoC, Data, Security, Web)\n▪️Spring Boot\n▪️Spring Cloud REST, SOAP, Docker SQL (PostgreSQL)\n▪️[тестирование] — JUnit, Mockito, spring tests, test containers\n\n————-\n\n🔸Проект «РСА 2.0 (Шина)»\n\nТехнологии:\n▪️Java 8/11\n▪️Spring Boot\n▪️Rest API\n▪️JUnit\n▪️PostgreSQL\n▪️ActiveMQ\n▪️Redis\n\n————-\n\n🔸Проект «Альфа NEXT»\n\nТехнологии:\n▪️Java 8/11\n▪️Spring Boot\n▪️Camunda\n▪️JUnit\n▪️PostgreSQL\n▪️k8s\n▪️cloud-native\n\n========\n\n🔸🔸🔸\nУсловия\n▫️ График работы: 5/2 (гибкое начало дня)\n▫️ Работа в профессиональной команде разработчиков, которая готова делиться знаниями и опытом\n▫️ Удобное расположение офиса – м. Шаболовская (7 минут пешком от метро)\n▫️ Оформление по ТК РФ\n🔸🔸🔸\n\nКонтакты\n▪️Telegram: @ruslan_mart","markup":[{"type":"hashtag","offset":0,"length":9,"data":"вакансия"},{"type":"hashtag","offset":10,"length":7,"data":"москва"},{"type":"hashtag","offset":18,"length":5,"data":"java"},{"type":"hashtag","offset":24,"length":7,"data":"middle"},{"type":"hashtag","offset":32,"length":7,"data":"senior"},{"type":"bold","offset":50,"length":17,"data":""},{"type":"bold","offset":149,"length":21,"data":""},{"type":"bold","offset":207,"length":13,"data":""},{"type":"italic","offset":222,"length":148,"data":""},{"type":"bold","offset":370,"length":12,"data":""},{"type":"italic","offset":394,"length":12,"data":""},{"type":"italic","offset":455,"length":11,"data":""},{"type":"bold","offset":529,"length":19,"data":""},{"type":"italic","offset":550,"length":17,"data":""},{"type":"bold","offset":567,"length":12,"data":""},{"type":"italic","offset":711,"length":12,"data":""},{"type":"bold","offset":791,"length":14,"data":""},{"type":"bold","offset":808,"length":12,"data":""},{"type":"bold","offset":915,"length":10,"data":""},{"type":"bold","offset":928,"length":12,"data":""},{"type":"bold","offset":1036,"length":8,"data":""},{"type":"bold","offset":1284,"length":9,"data":""},{"type":"handle","offset":1305,"length":12,"data":"ruslan_mart"}],"date":"2020-04-02T12:23:30+00:00","link":"tg://resolve?domain=jvmjobs&post=1344","tags":[{"name":"java"},{"name":"jvm"},{"name":"oracle"},{"name":"spring"},{"name":"tomcat"},{"name":"web"},{"name":"cloud"},{"name":"rest"},{"name":"soap"},{"name":"docker"},{"name":"sql"},{"name":"postgresql"},{"name":"junit"},{"name":"redis"},{"name":"spring-boot"}],"cities":[{"code":"moscow"}],"allowsRemote":false}},{"node":{"__typename":"Job","id":"1956642816-1001134745498","title":"Devops инженер","text":"#вакансия #DevOps\nМосква, м.Ботанический сад\nФормат работы: офис\nЗанятость: полная\nЗаработная плата: 180 000р. на руки - фиксированный оклад\nЧто делать:\n- Разработка и поддержка инфраструктуры для dev/test/prod (On-Cloud и On-Premise);\n- Разработка и поддержка процессов CI/CD;\n- Выбор технологий для реализации проектов;\n- Разработка и поддержка систем мониторинга, регистрации инцидентов и оповещения;\n- Организация бесперебойной работы всех сервисов (на всех уровнях: от инфраструктуры до разрабатываемого ПО);\n- Развертывание и поддержка общей инфраструктуры (nginx, haproxy, dns, iptables, ssh, sssd & etc).\nЧто нужно знать и уметь:\n- Экспертное понимание Linux (Ubuntu/CentOS7);\n- Знание скриптовых языков;\n- Опыт работы с технологиями виртуализации (VMware) и контейнеризации (Docker);\n- Опыт развёртывания и эксплуатации CI/CD (GitLab-CI, Jenkins);\n- Навыки работы и администрирования GitLab, Jira, Confluence;\n- Опыт внедрения и эксплуатации систем мониторинга и сбора метрик (ELK, Prometheus, Grafana, Sentry);\n- Опыт развёртывания и эксплуатации Redis, MySQL, RabbitMQ, HAProxy, nginx, PostgreSQL, php-fpm);\n- Интеграция Jenkins, Jira, GitLab. \nКомпания: АСНА (www.asna.ru)\nКонтакты: 8(965)194-28-96 (WhatsApp), @mil0lika (Telegram)\n\n—\n\n👉 Обсуждение вакансии в чате @devops_jobs","markup":[{"type":"hashtag","offset":0,"length":9,"data":"вакансия"},{"type":"hashtag","offset":10,"length":7,"data":"DevOps"},{"type":"link","offset":1172,"length":11,"data":"http://www.asna.ru"},{"type":"link","offset":1195,"length":15,"data":"tel:8(965)194-28-96"},{"type":"handle","offset":1223,"length":9,"data":"mil0lika"},{"type":"handle","offset":1278,"length":12,"data":"devops_jobs"}],"date":"2020-04-02T06:33:16+00:00","link":"tg://resolve?domain=devops_jobs_feed&post=1866","tags":[{"name":"cloud"},{"name":"nginx"},{"name":"dns"},{"name":"ssh"},{"name":"linux"},{"name":"ubuntu"},{"name":"centos"},{"name":"docker"},{"name":"gitlab"},{"name":"jenkins"},{"name":"redis"},{"name":"mysql"},{"name":"rabbitmq"},{"name":"postgresql"},{"name":"php"}],"cities":[{"code":"moscow"}],"allowsRemote":false}},{"node":{"__typename":"Job","id":"1951399936-1001134745498","title":"Devops инженер","text":"#вакансия #DevOps\nМосква, м.Ботанический сад\nФормат работы: офис\nЗанятость: полная\nЗаработная плата: 180 000р. на руки - фиксированный оклад\nЧто делать:\n- Разработка и поддержка инфраструктуры для dev/test/prod (On-Cloud и On-Premise);\n- Разработка и поддержка процессов CI/CD;\n- Выбор технологий для реализации проектов;\n- Разработка и поддержка систем мониторинга, регистрации инцидентов и оповещения;\n- Организация бесперебойной работы всех сервисов (на всех уровнях: от инфраструктуры до разрабатываемого ПО);\n- Развертывание и поддержка общей инфраструктуры (nginx, haproxy, dns, iptables, ssh, sssd & etc).\nЧто нужно знать и уметь:\n- Экспертное понимание Linux (Ubuntu/CentOS7);\n- Знание скриптовых языков;\n- Опыт работы с технологиями виртуализации (VMware) и контейнеризации (Docker);\n- Опыт развёртывания и эксплуатации CI/CD (GitLab-CI, Jenkins);\n- Навыки работы и администрирования GitLab, Jira, Confluence;\n- Опыт внедрения и эксплуатации систем мониторинга и сбора метрик (ELK, Prometheus, Grafana, Sentry);\n- Опыт развёртывания и эксплуатации Redis, MySQL, RabbitMQ, HAProxy, nginx, PostgreSQL, php-fpm);\n- Интеграция Jenkins, Jira, GitLab. \nКомпания: АСНА (www.asna.ru)\nКонтакты: 8(965)194-28-96 (WhatsApp), @mil0lika (Telegram)\n\n—\n\n👉 Обсуждение вакансии в чате @devops_jobs","markup":[{"type":"hashtag","offset":0,"length":9,"data":"вакансия"},{"type":"hashtag","offset":10,"length":7,"data":"DevOps"},{"type":"link","offset":1172,"length":11,"data":"http://www.asna.ru"},{"type":"link","offset":1195,"length":15,"data":"tel:8(965)194-28-96"},{"type":"handle","offset":1223,"length":9,"data":"mil0lika"},{"type":"handle","offset":1278,"length":12,"data":"devops_jobs"}],"date":"2020-04-01T13:22:09+00:00","link":"tg://resolve?domain=devops_jobs_feed&post=1861","tags":[{"name":"cloud"},{"name":"nginx"},{"name":"dns"},{"name":"ssh"},{"name":"linux"},{"name":"ubuntu"},{"name":"centos"},{"name":"docker"},{"name":"gitlab"},{"name":"jenkins"},{"name":"redis"},{"name":"mysql"},{"name":"rabbitmq"},{"name":"postgresql"},{"name":"php"}],"cities":[{"code":"moscow"}],"allowsRemote":false}}]}}},"context":{}}