{"hash":"f34fd2c444a074f4e0e67d525015a008ef8e766f","data":{"records":{"id":"nginx","name":"nginx","belongsTo":{"totalCount":41,"pageInfo":{"totalPages":5,"currentPage":4},"edges":[{"node":{"__typename":"Job","id":"1897922560-1001134745498","title":"Devops инженер","text":"#вакансия #DevOps #Москва \n\nЛокация: Москва, ст. м. Дмитровская\nФормат работы: офис \nЗанятость: полная\nЗарплатная вилка: от 180 000 до 250 000 руб. на руки.\n\nМы — команда эксплуатации сервиса ivi .\n\nРазыскиваем коллегу в команду для участия в настройке процессов, технических (CI/CD) и в части взаимодействия с коллегами. \nАктивное участие в разворачивании и эксплуатации k8s. Помогаем командам разработки строить CI/CD-пайплайны . Некоторые из нас это делают в составе кросс-команд, другие помогают многим командам, оставшиеся обеспечивают всех нас необходимыми приложениями и инфраструктурой.\n\nУчим команды использовать контейнеры (docker) для подготовки разрабатываемых приложений, осваиваем использование k8s для оркестрации. Используем Ubuntu, Linux.\n\nХраним код и разрабатываем pipeline-ы с помощью gitlab+artifactory .\nДля мониторинга серверов и сервисов используем zabbix и statsd , заправляем grafana.\nНаши сервисы написаны на python, golang и немного php и java.\nЛюбим и активно используем jenkins для решения самых разнообразных задач.\nИспользуем много open source (и не только) приложений: nginx, redis, postgresql, mongodb, rabbitmq, clickhouse, openstack, gitlab, kafka, hdfs, jira , opennebula.\n\nЧто предстоит делать: \n- развитие и настройки процессов ci/cd;\n- планирование и участие в рефакторинге процессов, инфраструктуры, приложений;\n- сопровождение сервисов от разработки до эксплуатации, участие в эксплуатации;\n- доработка текущих и разработка новых сценариев конфигурирования серверов и приложений; \n- администрирование приложений по результатам выполненной работы подготовка документации, если необходимо. \n\nКак узнать что ты нам подходишь? \n- положительный и продолжительный опыт работы с CI/CD-системами (у нас gitlab и jenkins);\n- умение хорошо готовить docker; \n- опыт программирования на скриптовых языках (shell, python);\nопыт администрирования linux и приложение 5+;\n- понимание сетевых технологий TCP/IP; \n- опыт работы с системами управления версиями (git) и конфигурациями. \n\nСо своей стороны мы обещаем: \n1. Подписку на ivi;\n2. Трудоустройство по ТК РФ;\n3. ДМС после прохождения испытательного срока;\n4. Футбольная команда ivi.ru принимает новых игроков;\n5. Обучение и митапы внутри компании, а также профессиональные курсы, тренинги и участие в конференциях;\n6. Оснащенный зонами отдыха, кухнями и прочими необходимыми вещами для комфортного нахождения офис в 5 минутах от ст. м. Дмитровская. \n\nОнлайн-кинотеатр ivi \nhttps://www.ivi.tv/\n\nБуду рада рассказать подробности, пишите в личку @daria144 или на почту dsereda@ivi.ru\n\n—\n\n👉 Обсуждение вакансии в чате @devops_jobs","markup":[{"type":"hashtag","offset":0,"length":9,"data":"вакансия"},{"type":"hashtag","offset":10,"length":7,"data":"DevOps"},{"type":"hashtag","offset":18,"length":7,"data":"Москва"},{"type":"link","offset":2158,"length":6,"data":"http://ivi.ru"},{"type":"link","offset":2453,"length":19,"data":"https://www.ivi.tv/"},{"type":"handle","offset":2523,"length":9,"data":"daria144"},{"type":"link","offset":2546,"length":14,"data":"mailto:dsereda@ivi.ru"},{"type":"handle","offset":2595,"length":12,"data":"devops_jobs"}],"date":"2020-03-13T10:36:50+00:00","link":"tg://resolve?domain=devops_jobs_feed&post=1810","tags":[{"name":"docker"},{"name":"ubuntu"},{"name":"linux"},{"name":"gitlab"},{"name":"python"},{"name":"go"},{"name":"php"},{"name":"java"},{"name":"jenkins"},{"name":"nginx"},{"name":"redis"},{"name":"postgresql"},{"name":"mongodb"},{"name":"rabbitmq"},{"name":"kafka"},{"name":"hdfs"},{"name":"shell"},{"name":"git"}],"cities":[{"code":"moscow"}],"allowsRemote":false}},{"node":{"__typename":"Job","id":"1896873984-1001134745498","title":"Devops инженер","text":"#вакансия #DevOps\nМосква, м.Ботанический сад\nФормат работы: офис\nЗанятость: полная\nЗаработная плата: 180 000р. на руки - фиксированный оклад\n(в планах со 2/3 квартала - квартальные премии по итогам работы до 45 000р. на руки) \nЧто делать:\n- Разработка и поддержка инфраструктуры для dev/test/prod (On-Cloud и On-Premise);\n- Разработка и поддержка процессов CI/CD;\n- Выбор технологий для реализации проектов;\n- Разработка и поддержка систем мониторинга, регистрации инцидентов и оповещения;\n- Организация бесперебойной работы всех сервисов (на всех уровнях: от инфраструктуры до разрабатываемого ПО);\n- Развертывание и поддержка общей инфраструктуры (nginx, haproxy, dns, iptables, ssh, sssd & etc).\nЧто нужно знать и уметь:\n- Экспертное понимание Linux (Ubuntu/CentOS7);\n- Знание скриптовых языков;\n- Опыт работы с технологиями виртуализации (VMware) и контейнеризации (Docker);\n- Опыт развёртывания и эксплуатации CI/CD (GitLab-CI, Jenkins);\n- Навыки работы и администрирования GitLab, Jira, Confluence;\n- Опыт внедрения и эксплуатации систем мониторинга и сбора метрик (ELK, Prometheus, Grafana, Sentry);\n- Опыт развёртывания и эксплуатации Redis, MySQL, RabbitMQ, HAProxy, nginx, PostgreSQL, php-fpm);\n- Интеграция Jenkins, Jira, GitLab. \nКомпания: АСНА (www.asna.ru)\nКонтакты: 8(965)194-28-96 (WhatsApp), @mil0lika (Telegram)\n\n—\n\n👉 Обсуждение вакансии в чате @devops_jobs","markup":[{"type":"hashtag","offset":0,"length":9,"data":"вакансия"},{"type":"hashtag","offset":10,"length":7,"data":"DevOps"},{"type":"link","offset":1258,"length":11,"data":"http://www.asna.ru"},{"type":"link","offset":1281,"length":15,"data":"tel:8(965)194-28-96"},{"type":"handle","offset":1309,"length":9,"data":"mil0lika"},{"type":"handle","offset":1364,"length":12,"data":"devops_jobs"}],"date":"2020-03-13T09:43:31+00:00","link":"tg://resolve?domain=devops_jobs_feed&post=1809","tags":[{"name":"cloud"},{"name":"nginx"},{"name":"dns"},{"name":"ssh"},{"name":"linux"},{"name":"ubuntu"},{"name":"centos"},{"name":"docker"},{"name":"gitlab"},{"name":"jenkins"},{"name":"redis"},{"name":"mysql"},{"name":"rabbitmq"},{"name":"postgresql"},{"name":"php"}],"cities":[{"code":"moscow"}],"allowsRemote":false}},{"node":{"__typename":"Job","id":"1890582528-1001134745498","title":"Devops инженер","text":"#вакансия #москва #офис\nDevOps инженер\nВилка 200 - 230 т.р. на руки\nМосква, офис, полный рабочий день.\nКомпания занимается разработкой платежной системы.\nЗадачи:\n 1. Обеспечение бесперебойной работы серверов и приложений Компании (не менее 99.9% доступности);\n 2. Разработка и поддержка Docker-контейнеров приложений и оркестрация микросервисов с использованием Kubernetes;\n 3. CI/CD pipelining;\n 4. Развитие и поддержка мониторинга доступности сервисов Компании;\n 5. Автоматизация развертывания новых сервисов и управление конфигурациями;\nТребования:\n Linux(Debian-based, RedHat-based) – мы ждем администраторов;\n Nginx;\n Docker– разработка образов контейнеров;\n Bash,Python– написание скриптов автоматизации;\n Teamcity(GitlabCI, Jenkins) – реализация CI/CDpipeline;\n Git;\n Puppet (Chef, Ansible, Salt) – разработка своих модулей, модификация существующих;\n Kubernetes;\n Helm;\n Prometheus;\n vSphere (VCSA HA, advanced networking);\n Понимание Foreman;\n Использование регулярных выражений;\n Использование Hiera;\nУсловия:\n  Возможность выбрать время начала работы (с 8:00/9:00/10:00);\n Современный, просторный офис;\n Современный рабочий компьютер (16 GBRAM, SSD), удобное рабочее место;\n Комфортная кухонная зона для кофе-брейков, зона отдыха, PS4 PRO +VR;\n Возможность выбрать на чем работать: Windows/Linux\n ДМС по окончанию испытательного срока;\n Корпоративные курсы по изучению Английского языка;\n Компенсация расходов на питание по картам Obed.ru;\n Компенсация расходов на спорт, внутри БЦ World Trade Center\n\nКонтакты: @kristina_jobs\nКА RedCode\n\n—\n\n👉 Обсуждение вакансии в чате @devops_jobs","markup":[{"type":"hashtag","offset":0,"length":9,"data":"вакансия"},{"type":"hashtag","offset":10,"length":7,"data":"москва"},{"type":"hashtag","offset":18,"length":5,"data":"офис"},{"type":"link","offset":1442,"length":7,"data":"http://Obed.ru"},{"type":"handle","offset":1523,"length":14,"data":"kristina_jobs"},{"type":"handle","offset":1583,"length":12,"data":"devops_jobs"}],"date":"2020-03-12T13:17:33+00:00","link":"tg://resolve?domain=devops_jobs_feed&post=1803","tags":[{"name":"docker"},{"name":"kubernetes"},{"name":"linux"},{"name":"debian"},{"name":"nginx"},{"name":"bash"},{"name":"python"},{"name":"jenkins"},{"name":"git"},{"name":"ansible"},{"name":"windows"}],"cities":[{"code":"moscow"}],"allowsRemote":false}},{"node":{"__typename":"Job","id":"1888485376-1001134745498","title":"Devops инженер","text":"#вакансия #fulltime #devops #москва\nКомпания: Directadvert https://www.directadvert.ru/\nГород: Москва (м. Цветной бульвар)\nФормат работы: офис\nЗанятость: полная\nЗарплатная вилка: 150-170 тыс. руб.\n\nМы ищем действительно неравнодушного человека, которому небезразличен результат его работы, который радуется когда у него получилось хорошо и который задумывается когда у него получилось плохо. Это - главное требование для этой вакансии.\n\nМы занимаемся разработкой и эксплуатацией собственных рекламных сервисов. Мы показываем тысячи рекламных объявлений каждую секунду по всему миру, и это самый настоящий Highload. У нас успешно работают машинное обучение, технологии RTB, уникальные собственные алгоритмы для оптимального подбора рекламы пользователям. Нагрузки - огромные, серверов - много, проекты - разные, идей - миллион! Что ещё надо для быстрого и качественного развития инженера? Возможно, только команда. В нашей команде работают специалисты разных специализаций и разного уровня. Но ключевой момент - работают в команде, а не по отдельности. Стараемся соответствовать духу Devops и внедрять практики SRE.\n\nНам не нужен администратор, который просто умеет CI/CD от забора и до обеда. Нам нужен человек, готовый погрузиться во все нюансы проекта и принимать решения полезные для достижения общих целей.\n\n✳️ Требования:\n- Аккуратность и внимательность\n- Инициатива и проактивность\n- Ответственность\n- Разумный перфекицонизм\n- Незабывчивость\n\nЭто те основные качества, которые мы хотим видеть у людей в команде. Любые технологии можно выучить при наличии этих качеств, но при их отсутствии знание технологий - бесполезно для нас.\n\n✳️ Технологии с которыми мы работаем:\n- Debian\n- nginx\n- Postgresql\n- Python, Asyncio\n- PHP\n- Ansible\n- Prometheus\n- Grafana\n- ELK stack\n\nНет чего-то, что обязательно знать для данной вакансии. Но чем больше пересечение ваших знаний с этим списком - тем больше вероятность что мы подойдем друг другу.\n\n✳️ Обязанности:\n- Контроль и развитие всей инфраструктуры, максимально в строну IaC\n- Мониторинг сервисов, настройка алертов, работа с инцидентами\n- Создание и оптимизация CI/CD процессов\n- Автоматизация повторяющихся задач\n- Взаимодействие с разработчиками в духе Devops\n\n✳️ Условия:\n- Адекватный и грамотный менеджмент\n- Профессиональные и доброжелательные коллеги\n- Удобный офис в центре (м. Трубная/Цветной Бульвар)\n- Гибкий рабочий график\n\n\n☎️ Контакт: @andreyru\n\n—\n\n👉 Обсуждение вакансии в чате @devops_jobs","markup":[{"type":"hashtag","offset":0,"length":9,"data":"вакансия"},{"type":"hashtag","offset":10,"length":9,"data":"fulltime"},{"type":"hashtag","offset":20,"length":7,"data":"devops"},{"type":"hashtag","offset":28,"length":7,"data":"москва"},{"type":"link","offset":59,"length":28,"data":"https://www.directadvert.ru/"},{"type":"handle","offset":2397,"length":9,"data":"andreyru"},{"type":"handle","offset":2441,"length":12,"data":"devops_jobs"}],"date":"2020-03-12T11:36:49+00:00","link":"tg://resolve?domain=devops_jobs_feed&post=1801","tags":[{"name":"debian"},{"name":"nginx"},{"name":"postgresql"},{"name":"python"},{"name":"php"},{"name":"ansible"}],"cities":[{"code":"moscow"}],"allowsRemote":false}},{"node":{"__typename":"Job","id":"1887436800-1001134745498","title":"Devops инженер","text":"#вакансия #fulltime #teamlead #DevOps #СПБ \nПривет! \nTL Devops, 1 сотрудник в подчинении. Есть небольшая команда на стороне заказчиков. \nЛокация: Санкт-Петербург\nФормат работы: приоритет - офис, но удаленка тоже возможна. \nГрафик: 5/2 с гибким началом рабочего дня. \nЗанятость: полная\nЗарплатная вилка: от 180 до 220 на руки\n\n🧰Мы: 4xxi.com (разработка проектов-стартапов (веб, мобильные истории IOS/Android)). 90% проектов компании приходятся на зарубежный рынок (США, Англия основные страны).\n\n🍩 Плюшки: \n✔️оформление по ТК РФ (мы белые полностью);\n✔️уроки английского языка;\n✔️ДМС;\n✔️спортивные мероприятия;\n✔️обучение и развитие;\n✔️офис в центре города в стиле лофт, м.Горьковская;\n✔️кухня, забитая вкусняхами;\n\nТребования: \n☑️опыт работы на позиции системного администратора UNIX/Linux от 2х лет;\n☑️ОС: Linux/Unix (Ubuntu/Debian и CentOS/Redhat). Уровень ведущего системного администратора;\n☑️опыт автоматизации рутинных задач с помощью python/php/ruby/bash;\n☑️опыт практического использования Ansible/puppet/chef для управления конфигурациями;\n☑️опыт практического использования систем контейнеризации Docker/LXC/LXD;\n☑️администрирование серверов, сетевого оборудования;\n☑️знание сетевых протоколов, понимание протоколов маршрутизации;\n☑️опыт работы с такими сервисами AWS как SES, SNS, Container engine, Route53, S3, RDS;\n☑️Kubernetes/CoreOS.\n\n☑️список ПО, используемого компанией\n- Nginx\n- PHP(php-fpm)\n- Postgresql\n- MongoDB\n- Mysql/Percona Mysql\n- Nodejs\n- Zabbix\n- Redis\n- postfix/exim\n- bind\n\nПишите и присылайте свои резюме:  vyangurskaya@4xxi.com, @vyangurskaya\n\n—\n\n👉 Обсуждение вакансии в чате @devops_jobs","markup":[{"type":"hashtag","offset":0,"length":9,"data":"вакансия"},{"type":"hashtag","offset":10,"length":9,"data":"fulltime"},{"type":"hashtag","offset":20,"length":9,"data":"teamlead"},{"type":"hashtag","offset":30,"length":7,"data":"DevOps"},{"type":"hashtag","offset":38,"length":4,"data":"СПБ"},{"type":"link","offset":332,"length":8,"data":"http://4xxi.com"},{"type":"link","offset":1540,"length":21,"data":"mailto:vyangurskaya@4xxi.com"},{"type":"handle","offset":1563,"length":13,"data":"vyangurskaya"},{"type":"handle","offset":1611,"length":12,"data":"devops_jobs"}],"date":"2020-03-12T11:28:54+00:00","link":"tg://resolve?domain=devops_jobs_feed&post=1800","tags":[{"name":"ios"},{"name":"android"},{"name":"unix"},{"name":"linux"},{"name":"ubuntu"},{"name":"debian"},{"name":"centos"},{"name":"python"},{"name":"php"},{"name":"ruby"},{"name":"bash"},{"name":"ansible"},{"name":"docker"},{"name":"amazon-web-services"},{"name":"kubernetes"},{"name":"nginx"},{"name":"postgresql"},{"name":"mongodb"},{"name":"mysql"},{"name":"nodejs"},{"name":"redis"}],"cities":[],"allowsRemote":true}},{"node":{"__typename":"Job","id":"1886388224-1001134745498","title":"Devops инженер","text":"#вакансия \nВакансия: #devops  #fulltime #office\nКомпания: #нспк #псмир\nЛокация: #томск\nЗ/п: 100к-180к net (после вычета налогов)\n\n«Национальная система платежных карт» ищет DevOps-инженера.\n\nНСПК - развивающаяся компания, создающая финтех-сервисы, которыми пользуются миллионы людей. \n\nЗа 5 лет нашей истории мы разработали бизнес-продукты, аналоги которых в мире можно пересчитать по пальцам:\n✔️Платежная система \"Мир\";\n✔️Система быстрых платежей;\n✔️Программа лояльности \"Мир\";\n✔️Сервис мобильной оплаты MirPay;\n✔️Система аутентификации пользователей MirAccept.  \n\n⛏ Наш стек:  \nLinux, Docker, Git, Jenkins, Nexus, Ansible, Groovy, Python, Java, Spring, Gradle, MySql, Nginx, HAProxy, Kafka, Hazelcast, Prometheus, ELK, Atlassian stack. \n\n🧠 Какие у нас бывают задачи?\n- Написание конвейеров (CI/CD); \n- Автоматизация процессов создания окружений инфраструктуры разработки (репозитории, типовые job CI, RBAC, Ansible roles);\n- Автоматизация housekeeping. \n\n🎁 Мы предлагаем:\n- Работу в команде профессионалов;\n- Обучение за счет компании;\n- Развитую корпоративную культуру;\n- ДМС со стоматологией, официальное трудоустройство; \n- Комфортный офис в центре;\n- Чай, кофе, печеньки✌️\n\nХотите поучаствовать в масштабном и сложном проекте?\n\nМои контакты:\n📲 +7-916-051-20-63\n      @Ekaterina1915 \n\n📩 makarovaen@nspk.ru\n\n—\n\n👉 Обсуждение вакансии в чате @devops_jobs","markup":[{"type":"hashtag","offset":0,"length":9,"data":"вакансия"},{"type":"hashtag","offset":21,"length":7,"data":"devops"},{"type":"hashtag","offset":30,"length":9,"data":"fulltime"},{"type":"hashtag","offset":40,"length":7,"data":"office"},{"type":"hashtag","offset":58,"length":5,"data":"нспк"},{"type":"hashtag","offset":64,"length":6,"data":"псмир"},{"type":"hashtag","offset":80,"length":6,"data":"томск"},{"type":"link","offset":1253,"length":16,"data":"tel:+7-916-051-20-63"},{"type":"handle","offset":1276,"length":14,"data":"Ekaterina1915"},{"type":"link","offset":1296,"length":18,"data":"mailto:makarovaen@nspk.ru"},{"type":"handle","offset":1349,"length":12,"data":"devops_jobs"}],"date":"2020-03-12T08:17:51+00:00","link":"tg://resolve?domain=devops_jobs_feed&post=1799","tags":[{"name":"dotnet"},{"name":"linux"},{"name":"docker"},{"name":"git"},{"name":"jenkins"},{"name":"ansible"},{"name":"groovy"},{"name":"python"},{"name":"java"},{"name":"spring"},{"name":"gradle"},{"name":"mysql"},{"name":"nginx"},{"name":"kafka"}],"cities":[{"code":"tomsk"}],"allowsRemote":false}},{"node":{"__typename":"Job","id":"1885339648-1001134745498","title":"Devops инженер","text":"#вакансия #DevOps\nМосква, м.Ботанический сад\nФормат работы: офис\nЗанятость: полная\nЗаработная плата: 180 000р. на руки - фиксированный оклад\n(в планах со 2/3 квартала - квартальные премии по итогам работы до 45 000р. на руки) \nЧто делать:\n- Разработка и поддержка инфраструктуры для dev/test/prod (On-Cloud и On-Premise);\n- Разработка и поддержка процессов CI/CD;\n- Выбор технологий для реализации проектов;\n- Разработка и поддержка систем мониторинга, регистрации инцидентов и оповещения;\n- Организация бесперебойной работы всех сервисов (на всех уровнях: от инфраструктуры до разрабатываемого ПО);\n- Развертывание и поддержка общей инфраструктуры (nginx, haproxy, dns, iptables, ssh, sssd & etc).\nЧто нужно знать и уметь:\n- Экспертное понимание Linux (Ubuntu/CentOS7);\n- Знание скриптовых языков;\n- Опыт работы с технологиями виртуализации (VMware) и контейнеризации (Docker);\n- Опыт развёртывания и эксплуатации CI/CD (GitLab-CI, Jenkins);\n- Навыки работы и администрирования GitLab, Jira, Confluence;\n- Опыт внедрения и эксплуатации систем мониторинга и сбора метрик (ELK, Prometheus, Grafana, Sentry);\n- Опыт развёртывания и эксплуатации Redis, MySQL, RabbitMQ, HAProxy, nginx, PostgreSQL, php-fpm);\n- Интеграция Jenkins, Jira, GitLab. \nКомпания: АСНА (www.asna.ru)\nКонтакты: 8(965)194-28-96 (WhatsApp), @mil0lika (Telegram)\n\n—\n\n👉 Обсуждение вакансии в чате @devops_jobs","markup":[{"type":"hashtag","offset":0,"length":9,"data":"вакансия"},{"type":"hashtag","offset":10,"length":7,"data":"DevOps"},{"type":"link","offset":1258,"length":11,"data":"http://www.asna.ru"},{"type":"link","offset":1281,"length":15,"data":"tel:8(965)194-28-96"},{"type":"handle","offset":1309,"length":9,"data":"mil0lika"},{"type":"handle","offset":1364,"length":12,"data":"devops_jobs"}],"date":"2020-03-12T07:46:45+00:00","link":"tg://resolve?domain=devops_jobs_feed&post=1798","tags":[{"name":"cloud"},{"name":"nginx"},{"name":"dns"},{"name":"ssh"},{"name":"linux"},{"name":"ubuntu"},{"name":"centos"},{"name":"docker"},{"name":"gitlab"},{"name":"jenkins"},{"name":"redis"},{"name":"mysql"},{"name":"rabbitmq"},{"name":"postgresql"},{"name":"php"}],"cities":[{"code":"moscow"}],"allowsRemote":false}},{"node":{"__typename":"Job","id":"1882193920-1001134745498","title":"Devops инженер","text":"#вакансия #devops  #москва\n\nВакансия: DevOps\nКомпания: IBS https://www.ibs.ru/\nФормат работы: офис, возможна частичная удаленка\nГород: Москва (м. Дмитровская)\nЗП вилка: 150-230 тыс. руб. гросс\n\nОбязанности:\n•  Организация процесса непрерывной сборки приложений (CI) на базе TC\n•  Участие в разработке скриптов автоматизированного развёртывания приложений (ansible, bash)\n•  Участие в разработке/доработке технической архитектуры системы (совместно с архитектором системы), составление требований к серверам и системному ПО\n•  Сборка и развертывание приложений/разработок на разработческой, тестовой и продуктивных средах (участие, организация и настройка процесса)\n•  Мониторинг работы системы/компонентов системы, проработка принципов отказоустойчивости инфраструктуры\n•  Установка и настройка системного ПО, включая БД и прочего ПО\n•  Диагностика и устранение проблем с системным ПО и прочим ПО, решение проблем по производительности (в части системного ПО, настройки БД и прочего ПО)\n•  Организация и проведение автоматического тестирования, включая нагрузочное.\n•  Развертывание и сопровождение инструментов разработки: Gitlab, Confluence, Jira, TestRail\n•  Автоматизация деплоя стендов разработки и тестирования.\n\nТребования:\n•  Понимание и опыт поддержки, устранения проблем с сетевыми сервисами Linux\n•  Понимание принципов построения отказоустойчивых систем\n•  Опыт настройки или сопровождения CI/СD (TeamCity) и опыт автоматизации с использованием Ansible\n•  Владение Bash и/или Python\n•  Наличие опыта настройки и управления Nginx и HAProxy\n•  Знание принципов балансировки нагрузки (например, HAProxy и Citrix NetScaler)\n•  Умение работать с инструментами мониторинга Zabbix/Nagios или их аналогами.\n\nУсловия:\n•  Работа в лидирующей IT компании, профессиональное развитие\n•  Конкурентная заработная плата по результатам собеседования, ежегодный ее пересмотр\n•  Работа в команде с сильной экспертизой\n•  Обучение, участие в корпоративных тренингах/семинарах, наставничество\n•  Социальный пакет, оформление по ТК РФ\n•  Испытательный срок 3 месяца\n•  Офис Москва, м.Дмировская\n\nЕще больше о компании https://www.facebook.com/IBS.ru\n\nКонтакты: opankina@ibs.ru @itgig\n\n—\n\n👉 Обсуждение вакансии в чате @devops_jobs","markup":[{"type":"hashtag","offset":0,"length":9,"data":"вакансия"},{"type":"hashtag","offset":10,"length":7,"data":"devops"},{"type":"hashtag","offset":19,"length":7,"data":"москва"},{"type":"link","offset":59,"length":19,"data":"https://www.ibs.ru/"},{"type":"link","offset":2108,"length":31,"data":"https://www.facebook.com/IBS.ru"},{"type":"link","offset":2151,"length":15,"data":"mailto:opankina@ibs.ru"},{"type":"handle","offset":2167,"length":6,"data":"itgig"},{"type":"handle","offset":2208,"length":12,"data":"devops_jobs"}],"date":"2020-03-11T09:14:08+00:00","link":"tg://resolve?domain=devops_jobs_feed&post=1795","tags":[{"name":"ansible"},{"name":"bash"},{"name":"gitlab"},{"name":"linux"},{"name":"python"},{"name":"nginx"}],"cities":[{"code":"moscow"}],"allowsRemote":true}},{"node":{"__typename":"Job","id":"1881145344-1001134745498","title":"Devops engineer","text":"#вакансия #DevOps #fulltime #москва\n\nDevOps Engineer\nГород: Москва\nФормат работы: офис \nЗанятость: полная\nЗП вилка 160-220 тысяч\n\ninDriver - международный ride-hailing сервис:\n* 47 млн пользователей в 31 стране мира.\n* Входим в топ-5 мобильных сервисов для заказа поездки по итогам января 2020 года.\n* Офис возле м. Улица 1905 года.\n\nОбязанности:\n• Настройка и поддержка инфраструктуры для разработки (сервера, docker, kubernetes, helm)\n• Внедрение и поддержка Kubernetes в production\n• Создание Helm Charts\n• Настройка пайплайнов для процессов CI/CD (TeamCity)\n• Повышение отказоустойчивости работы сервисов\n\nТребования:\n• Опыт работы с операционными системами семейства Linux (CentOS/RHEL)\n• Опыт внедрения и использования Kubernetes в production\n• Опыт настройки и работы с nginx, MySQL, Redis, Prometheus, ClickHouse\n• Опыт работы с облачными провайдерами: GCP, AWS, Azure\n• Опыт использования Ansible и написания ролей и плейбуков\n• Опыт поддержки высоконагруженных сервисов на базе ОС Linux\n• Умение читать и разбираться в чужом коде: Go, PHP\n\nКонтакт для связи: @mariamolko\n\n—\n\n👉 Обсуждение вакансии в чате @devops_jobs","markup":[{"type":"hashtag","offset":0,"length":9,"data":"вакансия"},{"type":"hashtag","offset":10,"length":7,"data":"DevOps"},{"type":"hashtag","offset":18,"length":9,"data":"fulltime"},{"type":"hashtag","offset":28,"length":7,"data":"москва"},{"type":"handle","offset":1069,"length":11,"data":"mariamolko"},{"type":"handle","offset":1115,"length":12,"data":"devops_jobs"}],"date":"2020-03-11T09:14:00+00:00","link":"tg://resolve?domain=devops_jobs_feed&post=1794","tags":[{"name":"docker"},{"name":"kubernetes"},{"name":"linux"},{"name":"centos"},{"name":"nginx"},{"name":"mysql"},{"name":"redis"},{"name":"google-cloud-platform"},{"name":"amazon-web-services"},{"name":"azure"},{"name":"ansible"},{"name":"php"}],"cities":[{"code":"moscow"}],"allowsRemote":false}},{"node":{"__typename":"Job","id":"228589568-1001352129329","title":"Golang разработчик","text":"#вакансия #Москва #офис #Golang #fulltime\nГород и адрес офиса: Москва, м. Новокузнецкая/Павелецкая\nФормат работы: #офис\nЗанятость: #полная\nЗП: от 80к до 140к руб. нетт\n\nSports.ru – ведущий спортивный сайт в России. Мы строим сообщества людей, увлекающихся разными видами спорта, помогаем им развиваться и даем им площадку для общения.\nМы ищем к себе в команду backend-разработчика (golang), который будет разрабатывать новые решения и сервисы и сопровождать полный цикл жизни продукта от проработки архитектуры до деплоя и сопровождения продакшена.\n\nЧто предстоит делать:\n\n* Разрабатывать новые решения и сервисы для пользователей с наибольшим объемом данных.\n* Работать над CI/CD, инструментами деплоя, инфраструктурой: gitlab, docker, Kubernetes, nginx.\n* Работать с такими инструментами, как Jira, git.\n* Сопровождать полный цикл жизни продукта от проработки архитектуры до деплоя и сопровождения продакшена.\n\nЧто мы хотим от вас:\n\n* Опыт разработки на Go ~ от 1 года.\n* Понимание того, как работает HTTP.\n* Уверенные навыки работы с SQL.\n* Понимание микросервисной архитектуры.\n* Знание основных алгоритмов, структур данных и способов защиты информации.\nУ нас: \n* Просторный офис в 7-ми минутах ходьбы от м.Новокузнецкая/Павелецкая.\n* Всё, что вы любите в ИТ-индустрии: высокая белая зарплата, оплачиваемые отпуска и больничные, ДМС со стоматологией, кофе, фрукты и шоколадки.\n* Мы работаем по индивидуальному графику, иногда позволяя себе поработать и удаленно. \n* Мы играем в кикер, с удовольствием едим пряники, печеньки, фрукты и пьем вкусный кофе в офисе.\n* Мы играем в футбол и баскетбол на арендованных площадках, смотрим знаковые матчи на большом проекторе и вообще любим различные внутрикорпоративные активности.\n\nНазвание компании: Sports.ru (Tribuna Digital)\nКого заинтересовало, пишите мне в личку (@pbuyatova), рада буду поделиться подробностями🙂\n Автор @pbuyatova","markup":[{"type":"hashtag","offset":0,"length":9,"data":"вакансия"},{"type":"hashtag","offset":10,"length":7,"data":"Москва"},{"type":"hashtag","offset":18,"length":5,"data":"офис"},{"type":"hashtag","offset":24,"length":7,"data":"Golang"},{"type":"hashtag","offset":32,"length":9,"data":"fulltime"},{"type":"hashtag","offset":114,"length":5,"data":"офис"},{"type":"hashtag","offset":131,"length":7,"data":"полная"},{"type":"link","offset":169,"length":9,"data":"http://Sports.ru"},{"type":"link","offset":1746,"length":9,"data":"http://Sports.ru"},{"type":"handle","offset":1815,"length":10,"data":"pbuyatova"},{"type":"handle","offset":1872,"length":10,"data":"pbuyatova"}],"date":"2020-02-11T09:14:17+00:00","link":"tg://resolve?domain=gogetajobfeed&post=218","tags":[{"name":"go"},{"name":"gitlab"},{"name":"docker"},{"name":"kubernetes"},{"name":"nginx"},{"name":"git"},{"name":"sql"}],"cities":[{"code":"moscow"}],"allowsRemote":true}}]}}},"context":{}}