{"hash":"f5f6bf98bd95e769321482904cbbd488f77922fd","data":{"records":{"id":"mongodb","name":"mongodb","belongsTo":{"totalCount":63,"pageInfo":{"totalPages":7,"currentPage":3},"edges":[{"node":{"__typename":"Job","id":"1763704832-1001091028994","title":"Java разработчик","text":"#Java #developer #Сочи #fulltime #работа #офис \n\nВакансия: Java-разработчик\n\nГород: Сочи\n\nФормат работы: офис\n\nЗанятость: fulltimе\n\nЗарплатная вилка: от 130 000 до 150 000 рублей\n\nОписание вакансии:\nСоздание системы по управлению метаданными компании. Работа в кроссфункциональной команде в составе до 10 человек\n\nНазвание компании: ОЦРВ\n\nПримерный пул задач:\n•  Разработка системы по управлению метаданными\n•  Участие в построение архитектуры решения\n•  Разработка интеграционных сценариев с другими системами\n•  Подготовка инструкций и документации\n\n\nНаши требования к кандидату: \n•  Аналитическое мышление, понимание работы алгоритмов, структур данных и оптимизации работы приложений\n•  Понимание паттернов проектирования, умение писать чистый читаемый код\n•  Знание Java SE (Core, Servlets, Exceptions)\n•  Опыт работы с Spring Framework (Boot, MVC, Data, Security), Hibernate ORM\n•  Опыт работы с веб-сервисами (SOAP, REST)\n•  Опыт работы с микросервисной архитектурой\n•  Опыт работы и развертывания приложений под Linux\n•  Опыт работы с очередями и брокерами сообщений (Kafka, Rabbit, ActiveMQ)\n•  Знание SQL\n•  Опыт работы с инструментами сборки Maven, Gradle\n•  Опыт работы с GIT\n\nБудет плюсом\n•  Опыт написания скриптов автоматизации для CI/CD (bash, python, Java, Groovy)\n•  Опыт работы с базами данных NoSQL (Janus Graph, HBase, Cassandra)\n•  Навыки frontend-разработки (HTML, CSS, React/Vue.js)\n•  Опыт работы с системами BPM или СЭД (Spring Activity, Camunda)\n•  Опыт работы с Apache Atlas, ODPi Egeria\n\n\n\nНаш стек:\nБек: Java 8-11, Spring, PostgreSQL/HBase/MongoDB/JanusGraph, GIT, Docker, Kubernetes, Kafka\nФронт: Vue.js\n\nУсловия: \n•  Офис в Адлере в 10 минутах до моря\n•  Оклад: 130 000 - 150 000 руб. gross\n•  Компенсация проживания 20 000 руб. gross в месяц (для кандидатов из других регионов)\n•  Релокационный бонус в размере оклада (для кандидатов из других регионов)\n•  Премия до 30% годового оклада\n•  Работа в динамичной команде единомышленников\n•  Компенсация ДМС после прохождения испытательного срока\n•  Скидки на ДМС для родственников\n•  Компенсация мобильной связи\n•  Новейшее оборудование и просторный офис\n•  Лучшая экология и климат в России\n•  Море и горнолыжный курорт рядом\n\n\nКомпания: ОЦРВ\nСайт: http://www.ocrv.ru/\nКонтакты: @Mirovan","markup":[{"type":"hashtag","offset":0,"length":5,"data":"Java"},{"type":"hashtag","offset":6,"length":10,"data":"developer"},{"type":"hashtag","offset":17,"length":5,"data":"Сочи"},{"type":"hashtag","offset":23,"length":9,"data":"fulltime"},{"type":"hashtag","offset":33,"length":7,"data":"работа"},{"type":"hashtag","offset":41,"length":5,"data":"офис"},{"type":"link","offset":2229,"length":19,"data":"http://www.ocrv.ru/"},{"type":"handle","offset":2259,"length":8,"data":"Mirovan"}],"date":"2020-06-29T11:37:47+00:00","link":"tg://resolve?domain=jvmjobs&post=1682","tags":[{"name":"java"},{"name":"jvm"},{"name":"spring"},{"name":"hibernate"},{"name":"orm"},{"name":"soap"},{"name":"rest"},{"name":"linux"},{"name":"kafka"},{"name":"rabbitmq"},{"name":"sql"},{"name":"maven"},{"name":"gradle"},{"name":"git"},{"name":"bash"},{"name":"python"},{"name":"groovy"},{"name":"nosql"},{"name":"hbase"},{"name":"cassandra"},{"name":"html"},{"name":"css"},{"name":"reactjs"},{"name":"vuejs"},{"name":"apache"},{"name":"postgresql"},{"name":"mongodb"},{"name":"docker"},{"name":"kubernetes"}],"cities":[{"code":"sochi"}],"allowsRemote":false}},{"node":{"__typename":"Job","id":"103975747584-1001089317451","title":"Qa engineer","text":"#Москва  #QA  #вакансия #офис\nКомпания: Start.ru\n\nМы ищем коллег, которые смогут влиться в нашу команду и вместе с нами развивать и совершенствовать наш сервис!\nУ Вас есть возможность стать частью команды, развивающей первую в Восточной Европе студию с собственным международным VOD сервисом.\nВ данный момент мы усиляем нашу команду по тестированию и в поисках позиций Backend QA Engineer и QA Automation Engineer (python)\n\n———————————\nДолжность: Backend QA Engineer\nЗарплатная вилка: От 80.р. до 120т.р. по результатам собеседования\n\nКакие задачи вы будете решать:\n- Прогон описаных кейсов в TestRail и документация найденых дефектов;\n- Тестирование API (программного интерфейса платформы);\n- Разработка тестовых сценариев;\n- Взаимодействие с разработчиками и сопровождение дефектов до полного их решения;\n- Отладка и сбор логов в процессе воспроизведения проблем\n- Проведение регрессионного тестирования\n\nЧего мы хотим:\n- Вас не пугает работа с командной строкой чаще чем работа с графическим интерфейсом\n- Работа с chromedev tools и командной строкой (bash);\n- Знание и понимания клиент-серверной архитектуры приложений;\n- Понимание принципов работы веб-приложений;\n- Умение грамотно составлять свои мысли в предложения и описывать дефекты, чтобы понятно было разработчикам;\n- Навыки работы с технической документацией, анализ и вычленение требований;\n- Работали с программами-снифферами и проксями траффика (charles/wireshark/fiddler/mitmproxy etc)\n\nБудет плюсом:\n- Если знаете python на уровне, достаточном для автоматизации и сможете прочитать код который на нем написан\n- Знаете что такое DOM-дерево, локаторы и селекторы в контексте веб-приложения\n\n—————————\nДолжность: QA Automation Engineer\nЗарплатная вилка: От 130.р. до 170т.р. по результатам собеседования\n\nУ нас:\nВ нашем проекте есть автоматизация тестирования как API, так и WEB UI. \nНаш стек: Python3, PyTest, Requests, Selenium WebDriver, Selenoid, DB clients (MongoDB, PostgreSQL), JSON validation (jsonschema), TestRail API, Telegram API, GitLab CI. \nПомимо автотестов мы разрабатываем проект нагрузочного тестирования на Locust.\n\nВаши задачи:\n- Расширение покрытия автотестов API, WEB UI\n- Поддержка автотестов в актуальном состоянии\n- Анализ прохождения тестов с возможным заведением багов в Jira\n- Ревью кода\n- Ведение тестовой - документации\n- Написание сценариев нагрузочного тестирования\n\nТребования:\n- Хорошее знание теории тестирования\n- Опыт автоматизированного тестирования от 2х лет\n- Знание Python3, PyTest\n- Навыки написания и использования тестовой документации\n- Умение писать простые запросы на SQL и в MongoDB\n- Навыки работы с Git\n- Обсуждение проблем приложения с разработчиками\n\nБудет плюсом:\n- Опыт написания архитектуры проекта автотестов с нуля\n- Работа с Docker, Docker Compose\n- Опыт работы с Telegram API\n- Опыт описания JSON схем для валидации ответов API\n- Базовые знания в Linux\n\nОт нас:\n- На данный момент условия сотрудничества удаленные, но при нормализации ситуации мы выйдем в офис\n- Офис в районе Хамовники (территориально м.Киевская, м. Спортивная в 20.мин ходьбы)\n- График работы: 5/2 начинаем с 9  до 11 (в целом гибкий - главное результат);\n- Оформление в соответствии с ТК РФ (белая зарплата, отпускные, больничные);\n- Все возможности для прокачки имеющихся скиллов и получения новых;\n- Драйвовая и высокопрофессиональная команда единомышленников;\n- Возможность стать частью динамично развивающегося видеосервиса.\n\n\nВопросы и отклики по вакансии писать в tlgrm: @unambo OR emailto: v.selyanin@start.ru","markup":[{"type":"hashtag","offset":0,"length":7,"data":"Москва"},{"type":"hashtag","offset":9,"length":3,"data":"QA"},{"type":"hashtag","offset":14,"length":9,"data":"вакансия"},{"type":"hashtag","offset":24,"length":5,"data":"офис"},{"type":"link","offset":40,"length":8,"data":"http://Start.ru"},{"type":"handle","offset":3471,"length":7,"data":"unambo"},{"type":"link","offset":3491,"length":19,"data":"mailto:v.selyanin@start.ru"}],"date":"2020-06-29T11:07:45+00:00","link":"tg://resolve?domain=qa_jobs&post=99159","tags":[{"name":"qa"},{"name":"python"},{"name":"bash"},{"name":"web"},{"name":"selenium"},{"name":"mongodb"},{"name":"postgresql"},{"name":"json"},{"name":"gitlab"},{"name":"sql"},{"name":"git"},{"name":"docker"},{"name":"linux"},{"name":"docker-compose"}],"cities":[{"code":"moscow"},{"code":"kiev"}],"allowsRemote":false}},{"node":{"__typename":"Job","id":"357564416-1001352129329","title":"Golang разработчик","text":"#вакансия #golang #fulltime #office #junior #middle\n\nДобрый день.\nВакансия: Golang разработчик \nУровень: джун->мидл\nЗанятость: полная\nФормат работы: офис\nМесто работы: Москва, м. Сухаревская\nКомпания:  pharmaspace.ru\nПродукт: маркетплейс фармакологической тематики .\nЗП: от 130 000 до 150 000 net.\nОформление по ТК РФ\n\nМикросервисная архитектура.\n\nСтек\nGolang, NodeJS, Redis, RabbitMQ, ElasticSearch, MongoDB, ClickHouse, GitLab, Docker, Kubernetes, React\n\nЧто мы ждём от вас\n- опыт работы с GoLang \n- опыт работы с MongoDB\n- умеете пользоваться Git\n\nКонтакт: @irarudakova","markup":[{"type":"hashtag","offset":0,"length":9,"data":"вакансия"},{"type":"hashtag","offset":10,"length":7,"data":"golang"},{"type":"hashtag","offset":18,"length":9,"data":"fulltime"},{"type":"hashtag","offset":28,"length":7,"data":"office"},{"type":"hashtag","offset":36,"length":7,"data":"junior"},{"type":"hashtag","offset":44,"length":7,"data":"middle"},{"type":"link","offset":202,"length":14,"data":"http://pharmaspace.ru"},{"type":"handle","offset":560,"length":12,"data":"irarudakova"}],"date":"2020-06-29T09:00:25+00:00","link":"tg://resolve?domain=gogetajobfeed&post=341","tags":[{"name":"go"},{"name":"dotnet"},{"name":"nodejs"},{"name":"redis"},{"name":"rabbitmq"},{"name":"elasticsearch"},{"name":"mongodb"},{"name":"gitlab"},{"name":"docker"},{"name":"kubernetes"},{"name":"reactjs"},{"name":"git"}],"cities":[{"code":"moscow"}],"allowsRemote":false}},{"node":{"__typename":"Job","id":"17178820608-1001110946746","title":"Js developer","text":"#Вакансия #разыскивается #JS #Vue.js #Vue #developer #Сочи #fulltime #работа #офис \n\nГород: Сочи\n\nФормат работы: офис\n\nЗанятость: fulltimе\n\nЗарплатная вилка: от 130 000 до 150 000 рублей\n\nОписание вакансии: \nСоздание системы по управлению метаданными компании. Работа в кроссфункциональной команде в составе до 10 человек\n\nНазвание компании: ОЦРВ\n\nПримерный пул задач:\n•  Разработка системы по управлению метаданными\n•  Участие в построение архитектуры решения\n•  Разработка интеграционных сценариев с другими системами\n•  Подготовка инструкций и документации\n\n\nНаши требования к кандидату: \n•  Аналитическое мышление, понимание работы алгоритмов, структур данных и оптимизации работы приложений\n•  Опыт разработки на Vue.js, React (Redux или MobX, Webpack, SCSS)\n•  Отличные знания чистого Javascript\n•  Умение адаптивно и кроссбраузерно верстать\n•  Опыт работы с веб-сервисами (SOAP, REST)\n•  Опыт работы с микросервисной архитектурой\n•  Опыт работы с GIT\n\nБудет плюсом\n•  Опыт работы с популярными css-фреймворками (bootstrap, semantic, material-ui и т.д.)\n•  Опыт работы с Webpack, NPM\n•  Опыт работы с Docker\n•  Опыт работы с Selenium и/или другими средствами UI тестирования\n•  Использование Figma для работы с дизайнером\n\n\n\nНаш стек:\nJava 8-11, Spring, Vue.js, PostgreSQL/HBase/MongoDB/JanusGraph, GIT, Docker, Kubernetes, Kafka\n\nУсловия: \n•  Офис в Адлере в 10 минутах до моря\n•  Оклад: 130 000 - 150 000 руб. gross\n•  Компенсация проживания 20 000 руб. gross в месяц (для кандидатов из других регионов)\n•  Релокационный бонус в размере оклада (для кандидатов из других регионов)\n•  Премия до 30% годового оклада\n•  Работа в динамичной команде единомышленников\n•  Компенсация ДМС после прохождения испытательного срока\n•  Скидки на ДМС для родственников\n•  Компенсация мобильной связи\n•  Новейшее оборудование и просторный офис\n•  Лучшая экология и климат в России\n•  Море и горнолыжный курорт рядом\n\n\nКомпания: ОЦРВ\nСайт: http://www.ocrv.ru/\nКонтакты: @Mirovan","markup":[{"type":"hashtag","offset":0,"length":9,"data":"Вакансия"},{"type":"hashtag","offset":10,"length":14,"data":"разыскивается"},{"type":"hashtag","offset":25,"length":3,"data":"JS"},{"type":"hashtag","offset":29,"length":4,"data":"Vue"},{"type":"hashtag","offset":37,"length":4,"data":"Vue"},{"type":"hashtag","offset":42,"length":10,"data":"developer"},{"type":"hashtag","offset":53,"length":5,"data":"Сочи"},{"type":"hashtag","offset":59,"length":9,"data":"fulltime"},{"type":"hashtag","offset":69,"length":7,"data":"работа"},{"type":"hashtag","offset":77,"length":5,"data":"офис"},{"type":"link","offset":1931,"length":19,"data":"http://www.ocrv.ru/"},{"type":"handle","offset":1961,"length":8,"data":"Mirovan"}],"date":"2020-06-27T09:58:34+00:00","link":"tg://resolve?domain=javascript_jobs_feed&post=16383","tags":[{"name":"javascript"},{"name":"vuejs"},{"name":"reactjs"},{"name":"redux"},{"name":"webpack"},{"name":"soap"},{"name":"rest"},{"name":"git"},{"name":"css"},{"name":"bootstrap"},{"name":"npm"},{"name":"docker"},{"name":"selenium"},{"name":"java"},{"name":"spring"},{"name":"postgresql"},{"name":"hbase"},{"name":"mongodb"},{"name":"kubernetes"},{"name":"kafka"},{"name":"react-redux"}],"cities":[{"code":"sochi"}],"allowsRemote":false}},{"node":{"__typename":"Job","id":"1741684736-1001091028994","title":"Java разработчик","text":"#вакансия #java #teamlead #javateamlead #москва #мск\n\nTeam Lead Java\nКомпания: Srgroup\nЛокация: офис\nЗанятость: fulltime \nЗ/п: 280-350к net \nКонтакты: @observer69 \n\nНаши роботы не только полностью автоматически оценивают квартиры, но также помогают аналитикам работать с уникальными объектами на рынке, выявлять случаи мошенничества, оценивать коммерческую недвижимость.\n\nЗадачи\n1. Управлять  Java-командой;\n2. Детализировать и оценивать задачи на основе бизнес постановок;\n3. Участвовать в формировании спринта;\n4. Решать архитектурно и технически сложные задачи;\n5. Code review;\nСовершенствовать процессы разработки;\n6. Развивать скилы разработчиков.\n\nТребования\n● Более 3-х лет разрабатывать коммерческие продукты на Java;\n● Интерес к BigData;\n● Spring, Spring-boot, Spring data, Hibernate, Redis, плюсом MongoDB и RabbitMQ;\n● Пишете быстрые и красивые запросы к БД и понимаете в индексах;\n● Почему и когда нужно писать простой, расширяемый и производительный код;\n● Владеете Mercurial, Gradle, Jira, Jenkins\n\nУсловия\n● Все по ТК РФ;\n● Белая ЗП;\n● Комфортная рабочая среда;\n● Гибкое начало дня;\n● Офис БЦ \"Пальмира\", м. \n Бауманская/Электрозаводская","markup":[{"type":"hashtag","offset":0,"length":9,"data":"вакансия"},{"type":"hashtag","offset":10,"length":5,"data":"java"},{"type":"hashtag","offset":16,"length":9,"data":"teamlead"},{"type":"hashtag","offset":26,"length":13,"data":"javateamlead"},{"type":"hashtag","offset":40,"length":7,"data":"москва"},{"type":"hashtag","offset":48,"length":4,"data":"мск"},{"type":"bold","offset":54,"length":24,"data":""},{"type":"bold","offset":87,"length":8,"data":""},{"type":"bold","offset":101,"length":10,"data":""},{"type":"bold","offset":122,"length":4,"data":""},{"type":"bold","offset":141,"length":9,"data":""},{"type":"handle","offset":151,"length":11,"data":"observer69"},{"type":"bold","offset":372,"length":9,"data":""},{"type":"bold","offset":408,"length":2,"data":""},{"type":"bold","offset":474,"length":2,"data":""},{"type":"bold","offset":513,"length":2,"data":""},{"type":"bold","offset":565,"length":2,"data":""},{"type":"bold","offset":619,"length":3,"data":""},{"type":"bold","offset":654,"length":11,"data":""},{"type":"bold","offset":1013,"length":8,"data":""}],"date":"2020-06-26T06:42:50+00:00","link":"tg://resolve?domain=jvmjobs&post=1661","tags":[{"name":"java"},{"name":"jvm"},{"name":"dotnet"},{"name":"spring"},{"name":"hibernate"},{"name":"redis"},{"name":"mongodb"},{"name":"rabbitmq"},{"name":"mercurial"},{"name":"gradle"},{"name":"jenkins"},{"name":"spring-boot"},{"name":"spring-data"}],"cities":[{"code":"moscow"}],"allowsRemote":false}},{"node":{"__typename":"Job","id":"355467264-1001352129329","title":"Golang разработчик","text":"#вакансия\n\nВакансия: Golang Developer (Middle\\Senior)\n\nСписок необходимых навыков:\n● Опыт промышленной разработки на go от 2х лет\n● Опыт работы с реляционными базами данных (хотя бы с одной из популярных)\n● Опыт работы nosql базами данных (хотя бы одной из: mongodb/redis)\n● Понимание паттернов проектирование и понимание, в каких случаях ими можно\nпренебречь\n● Умение работать в команде: взаимодействие с продактами, тестировщиками и\nдругими разработчиками\n● Понимание 12factor app\n● Понимание процессов разработки и их устройства: code review, CI/CD, цикл жизни\nзадачи\n\nБудет плюсом:\n● Опыт работы с php\n● Опыт работы с kafka\n● Поинмание DDD\n● Понимание принципов масштабирования систем\n● Опыт работы с grpc\n● Понимание принципов event sourcing, cqrs\n\nЗарплатная вилка после налогов в стандартной валюте расчетов компании: 100 000 - 220 000 рублей\n\nДоступна ли удалённая работа: нет\n\nГород: Москва\n\nСписок языков, которые необходимо знать: Русский\n\nНазвание компании: Mafin\n\nДополнительное описание:\n\nНабираем команду разработчиков разного уровня. Работа в проектных группах по 7 человек.\n\n\nО компании: Mafin.ru - это онлайн-платформа персональных страховых сервисов. Insurtech стартап компании \"АбсолютТех\", получивший инвестирование в размере $50 млн\n\nЗадачи:\n● Полный цикл разработки: взаимодействие с продуктами/проджектами, декомпозиция\nфичей, написание кода(go) и тестов\n● Участие в проектировании микросервисной архитектуры\n● Использование helm для описания деплоя сервисов\n● Написание новых и дописывание текущих микросервисов на go\n\nУсловия: \n● НС с первого рабочего дня, ДМС по истечении испытательного срока (3 месяца);\n● Skyeng скидка 50% (в том числе занятия с носителями языка);\n● Новый красивый офис в тренде современных IT компаний с капсулами для сна и уютной кухней;\n● Бесплатное обучение; доступ к онлайн-библиотеке;\n● Огромное количество корпоративных мероприятий\n● Гибкое начало рабочего дня до 11-00\n● Agile, Scrum методология ведения проектов\n● Есть релокационный пакет\n● График работы 5\\2, офис 2 дня в неделю на время ограничительных мер\n\nКонтактное лицо: Илья @rudenko_telegram","markup":[{"type":"hashtag","offset":0,"length":9,"data":"вакансия"},{"type":"link","offset":1105,"length":8,"data":"http://Mafin.ru"},{"type":"handle","offset":2088,"length":17,"data":"rudenko_telegram"}],"date":"2020-06-25T11:42:38+00:00","link":"tg://resolve?domain=gogetajobfeed&post=339","tags":[{"name":"go"},{"name":"nosql"},{"name":"mongodb"},{"name":"redis"},{"name":"php"},{"name":"kafka"}],"cities":[{"code":"moscow"}],"allowsRemote":true}},{"node":{"__typename":"Job","id":"92279930880-1001067529236","title":"Python developer","text":"#вакансия #senior #upperintermediate #fullstack #remote\nкомпания s-o-services\nз\\п 2800-3800$, оформление по ип (компании в рф нет)\nзаказчик американское издательство\nконтакты @erzentd\n\nТребования:\n\n4+ years of demonstrated experience successfully launching complex projects on time\n2+ years of experience as a full-time developer for a web app, custom software product or organization web site\n3+ years of experience with most or all of the following: Python & Django, relational DBs, jQuery & JavaScript, HTML, CSS/LESS, Git\nExperience with the following technologies preferred but not required: MongoDB, PostgreSQL, Elasticsearch,\nWordPress, CDNs, uWSGI, Redis, Celery, Jenkins, Sentry, New Relic, Nginx, CentOS, RabbitMQ, React, \nSalesforce, Marketo, high availability systems, or graph databases\nOrganized, detail and deadline oriented, highly focused\nAbility to prioritize & manage multiple projects at one time; cool under pressure\nAnalytical thinker with strong/creative problem solving skills\nExperience with Agile development methodologies\nStrong written and verbal communication skills\nAn interest in government, elections, and associated datasets","markup":[{"type":"hashtag","offset":0,"length":9,"data":"вакансия"},{"type":"hashtag","offset":10,"length":7,"data":"senior"},{"type":"hashtag","offset":18,"length":18,"data":"upperintermediate"},{"type":"hashtag","offset":37,"length":10,"data":"fullstack"},{"type":"hashtag","offset":48,"length":7,"data":"remote"},{"type":"handle","offset":175,"length":8,"data":"erzentd"}],"date":"2020-06-25T10:25:16+00:00","link":"tg://resolve?domain=python_jobs&post=88005","tags":[{"name":"python"},{"name":"web"},{"name":"django"},{"name":"jquery"},{"name":"javascript"},{"name":"html"},{"name":"css"},{"name":"git"},{"name":"mongodb"},{"name":"postgresql"},{"name":"elasticsearch"},{"name":"wordpress"},{"name":"redis"},{"name":"jenkins"},{"name":"nginx"},{"name":"centos"},{"name":"rabbitmq"},{"name":"reactjs"}],"cities":[],"allowsRemote":true}},{"node":{"__typename":"Job","id":"17120100352-1001110946746","title":"Js разработчик","text":"#вакансия #удаленка #работа #js #javascript #разработчик\n\nГород и адрес офиса: Тель-Авив \nФормат работы: удаленка\nЗанятость: полная, гибкий график.\n\nЗарплатная вилка: 5500-6000$/мес. (Почасовая оплата 35$/час + ежемесячный бонус 250$)\n\nНалоги платите по месту жительства. ИП 6%. Если патент, то он зависит от места жительства. В Подмосковье 12 000 руб в год. В Москве 300 тыс. в год. Как сами оформите налоги, так и платите. \n\nИщу разработчика к нам в команду: израильский проект Luminati (https://luminati.io).  Full-Stack. Компания разрабатывает несколько продуктов, в том числе p2p vpn, видео cdn нового поколения http://holaspark.com/\nОфис в Тель-Авиве, работа удаленная! График свободный. Что нам нужно:\n\n • Knowledge in Node JS framework: ExpressJS, Promise - Experience with MongoDB \n- Creating RESTful web services/API’s using Node.js with or without framework assistance \n\n- JavaScript-based unit testing tools \n\n- Client-side browser technologies including JavaScript, CSS, and HTML \n\n- 1 year development experience in Node JS with a solid working knowledge of frameworks and architecture \n\n- 2+ year’s overall development experience using JavaScript and open web technologies \n\n- хороший английский язык, идеальная грамматика не обязательна \n\n • работа удаленная, 7-9 часов в день (по желанию)\n • зарплата от 35$/час (+фиксированный бонус 250$ ежемесячно), через полгода повышается\n • после того, как откроют границы и будут возможны перелёты - выезд в офис на заключение контракта (перед этим возможно заключение с электронной подписью), отель и перелет за счет компании, море под окном\n\nОтвечу на все вопросы:)\n\nИнстаграмм https://instagram.com/hola_better_internet\n\nРезюме сюда:  luda.hola@gmail.com","markup":[{"type":"hashtag","offset":0,"length":9,"data":"вакансия"},{"type":"hashtag","offset":10,"length":9,"data":"удаленка"},{"type":"hashtag","offset":20,"length":7,"data":"работа"},{"type":"hashtag","offset":28,"length":3,"data":"js"},{"type":"hashtag","offset":32,"length":11,"data":"javascript"},{"type":"hashtag","offset":44,"length":12,"data":"разработчик"},{"type":"link","offset":490,"length":19,"data":"https://luminati.io"},{"type":"link","offset":617,"length":21,"data":"http://holaspark.com/"},{"type":"link","offset":1637,"length":42,"data":"https://instagram.com/hola_better_internet"},{"type":"link","offset":1695,"length":19,"data":"mailto:luda.hola@gmail.com"}],"date":"2020-06-24T08:01:10+00:00","link":"tg://resolve?domain=javascript_jobs_feed&post=16327","tags":[{"name":"javascript"},{"name":"nodejs"},{"name":"mongodb"},{"name":"web"},{"name":"css"},{"name":"html"},{"name":"unit-testing"}],"cities":[],"allowsRemote":true}},{"node":{"__typename":"Job","id":"2248146944-1001134745498","title":"Devops engineer","text":"#вакансия #офис #Москва\nДолжность: Devops Engineer\nКомпания: Selecty IT – компания интегратор\nГород и адрес офиса: Москва, м.Технопарк\nФормат работы: офис\nЗанятость: постоянная\nЗарплатная вилка: от 200 000 до 300 000 net по итогам собеседования\n\n▪️Чем предстоит заниматься \n• Разработка и поддержка программно-определяемой инфраструктуры хранилищ данных,\n• Развертывание и непрерывная бесперебойная эксплуатация\n• Решение инцидентов в тестовых и промышленных средах\n• Проведение регламентных и профилактических работ\n\n▪️Наши пожелания к кандидатам:\n• Знание Linux на уровне администратора \n• Навыки использования инструментов управления конфигурациями\n• Владение скриптовыми языками программирования, aCI/CD инструментами\n• Понимание принципов и особенностей работы Kafka, Hazelcast, Infinispan, Elasticsearch, Mongodb, Minio\n• Знание Docker\n• Понимание Java, Python, JS\n• Создавать, развертывать, обновлять, оптимизировать и сопровождать отказоустойчивые кластеры различных БД и инфраструктурных элементов\n• Настраивать системы мониторинга и алертинга\n• Развивать практики инцидент-менеджмента и хаос-инжениринга\n\n▪️Контакты для связи: igor.bekbuzarov@selecty.ru ,+7 (999) 826-43-02, @IgorBekB\nБекбузаров Игорь\n\n—\n\n👉 Обсуждение вакансии в чате @devops_jobs","markup":[{"type":"hashtag","offset":0,"length":9,"data":"вакансия"},{"type":"hashtag","offset":10,"length":5,"data":"офис"},{"type":"hashtag","offset":16,"length":7,"data":"Москва"},{"type":"link","offset":1137,"length":26,"data":"mailto:igor.bekbuzarov@selecty.ru"},{"type":"link","offset":1165,"length":18,"data":"tel:+7 (999) 826-43-02"},{"type":"handle","offset":1185,"length":9,"data":"IgorBekB"},{"type":"handle","offset":1246,"length":12,"data":"devops_jobs"}],"date":"2020-06-23T16:21:30+00:00","link":"tg://resolve?domain=devops_jobs_feed&post=2144","tags":[{"name":"dotnet"},{"name":"linux"},{"name":"kafka"},{"name":"elasticsearch"},{"name":"mongodb"},{"name":"docker"},{"name":"java"},{"name":"python"}],"cities":[{"code":"moscow"}],"allowsRemote":false}},{"node":{"__typename":"Job","id":"91801780224-1001067529236","title":"Python developer","text":"#вакансия #remote #fulltime #python\n\nBack-end Python Developer\n\nФормат работы: #fulltime #remote\nЗарплата: от  $ 50 000 до $ 70 000  в год\n\nКоманда с большим опытом в компьютерном зрении и экспертами мирового уровня ищет в свои ряды Backend Python Developer. Продукт и его основатели базируются в Калифорнии, а почти вся команда — в России и Украине.\n\nЗадачи :\n• Оптимизация и улучшение качества алгоритмов трекинга людей;\n• Доработка основного кода клиентской стороны;\n• Разработка механизмов обновления клиентских приложений (Linux\\Docker);\n• Разработка системы сбора и разметки данных;\n• Доработка инфраструктурных сервисов и системы оценки качества.\n\nТребования:\n• Опыт промышленной работы от двух лет;\n• Опыт разработки оптимизационных алгоритмов разного назначения;\n• Опыт работы с AWS, Google Cloud, Azure, Docker.\n• Знание Python и\\или С++ и\\или Java;\n• Знание сетевых протоколов, их вариаций и особенностей;\n• Умение работать с многопоточной средой, понимание принципов работы сопрограмм;\n• Умение создавать сервера, способные выдерживать большие нагрузки.\n\nБудет плюсом:\n• Веб каркас Tornado, знания протокола HTTP;\n• Базы данных MongoDB, Redis, Aerospike, Cassandra;\n• Опыт работы с распределенной инфраструктурой;\n• Опыт использования нейронных сетей на TensorFlow / Keras / Caffe;\n• Понимание принципов работы различных архитектур нейронных сетей, знание алгоритмов машинного обучения.\n\nКонтакт для связи: @temnik_sofya","markup":[{"type":"hashtag","offset":0,"length":9,"data":"вакансия"},{"type":"hashtag","offset":10,"length":7,"data":"remote"},{"type":"hashtag","offset":18,"length":9,"data":"fulltime"},{"type":"hashtag","offset":28,"length":7,"data":"python"},{"type":"hashtag","offset":79,"length":9,"data":"fulltime"},{"type":"hashtag","offset":89,"length":7,"data":"remote"},{"type":"handle","offset":1419,"length":13,"data":"temnik_sofya"}],"date":"2020-06-23T10:09:17+00:00","link":"tg://resolve?domain=python_jobs&post=87549","tags":[{"name":"python"},{"name":"linux"},{"name":"docker"},{"name":"amazon-web-services"},{"name":"cloud"},{"name":"azure"},{"name":"java"},{"name":"mongodb"},{"name":"redis"},{"name":"cassandra"},{"name":"tensorflow"},{"name":"google-cloud-platform"}],"cities":[],"allowsRemote":true}}]}}},"context":{}}