{"hash":"f34fd2c444a074f4e0e67d525015a008ef8e766f","data":{"records":{"id":"java","name":"java","belongsTo":{"totalCount":123,"pageInfo":{"totalPages":13,"currentPage":9},"edges":[{"node":{"__typename":"Job","id":"1400897536-1001091028994","title":"Java developer","text":"Вакансия: Senior Backend Developer\nЛокация: Москва\nКомпания: МТС Банк\nФормат работы: Office\nЗанятость: Full-time\nЗарплатная вилка: 200000 - 260000 net\n\nМы - команда по запуску FinTech продуктов на базе МТС банка и МТС. Мы являемся отдельной структурой со своим финансированием, имеем карт-бланш на принятие технических решений, и перед нами стоит цель наладить быстрое и качественное создание новых финтех продуктов на рынке. Ищем бывалого инженера, готового помочь с реализацией, а также с созданием грамотных и эффективных процессов разработки.\n\nКакие навыки мы ожидаем:\n- 3+ года с Kotlin/Java/Go и желание в дальнейшем писать на Kotlin/Go. Github приветствуется!\n- Опыт работы с PostgreSQL, понимание реляционной структуры БД, уровней изоляции.\n- Понимание принципов CI/CD, Kubernetes, систем мониторинга и алертинга.\n- Навык Code Review.\n- Очень ценим опыт работы с банками/финтехами/платежными системами.\n\nЧем предстоит заниматься:\n- Анализ технических задачий и требований. Предложения по их реализации и архитектуре. Оценка сроков.\n- Написание кода, unit и интеграционных тестов, документации.\n- Участие в прототипировании, проверке гипотез, развитии внутренних инструментов и подходов.\n- Code review.\n\nЧто предлагаем:\n- Работа в молодом коллективе крутых специалистов.\n- Офис в минуте ходьбы от метро \"Технопарк\".\n- Оформление по ТК с первого дня.\n- ДМС со стоматологией в МЕДСИ после 3 месячного испытательного срока.\n- Корпоративный тариф связи \"Для своих\".\n- Надежная растущая компания, входящая в крупный холдинг.\n\nНаш Стек:\n- Kotlin, Go.\n- gRPC/Protobuf.\n- Kafka.\n- Graal Native Image, Docker Kubernetes.\n\nКонтакт: @aquatir","markup":[{"type":"handle","offset":1629,"length":8,"data":"aquatir"}],"date":"2020-03-31T08:47:43+00:00","link":"tg://resolve?domain=jvmjobs&post=1336","tags":[{"name":"java"},{"name":"jvm"},{"name":"dotnet"},{"name":"kotlin"},{"name":"github"},{"name":"postgresql"},{"name":"kubernetes"},{"name":"kafka"},{"name":"docker"}],"cities":[{"code":"moscow"}],"allowsRemote":false}},{"node":{"__typename":"Job","id":"1399848960-1001091028994","title":"Java разработчик","text":"Вакансия: #java #junior\nКомпания: #donam\nЛокация: #москва #офис #fulltime\nЗ/п: от 50000 до 80000 рублей в месяц\nКонтакты: @irarudakova\nФормат работы: офис м. Полежаевская. Иногда можно удаленно. По договоренности.\nЗанятость: полная\n\nОбязанности\n- разработка интеграционных компонентов на esb tibco\n- разработка веб сервисов\n- разработка элементов бизнес логики на Java\n\nТребования\n- математическое образование\n- базовые навыки программирования на java\n- базовое знание sql\n- знание форматов обмена : xml , json\n\nЧем занимаемся\nПроекты по разработке высоконагруженных гибкомасштабируемых систем.\nАрхитектура - микросевисы. Использование контейнеризации(кубер). \nРазработка crm, чат платформы, билинговые системы, документооборот.\n\nКонтакты: @irarudakova","markup":[{"type":"bold","offset":0,"length":9,"data":""},{"type":"hashtag","offset":10,"length":5,"data":"java"},{"type":"hashtag","offset":16,"length":7,"data":"junior"},{"type":"bold","offset":24,"length":10,"data":""},{"type":"hashtag","offset":34,"length":6,"data":"donam"},{"type":"bold","offset":41,"length":9,"data":""},{"type":"hashtag","offset":50,"length":7,"data":"москва"},{"type":"hashtag","offset":58,"length":5,"data":"офис"},{"type":"hashtag","offset":64,"length":9,"data":"fulltime"},{"type":"bold","offset":74,"length":5,"data":""},{"type":"bold","offset":112,"length":9,"data":""},{"type":"handle","offset":122,"length":12,"data":"irarudakova"},{"type":"bold","offset":135,"length":15,"data":""},{"type":"bold","offset":214,"length":11,"data":""},{"type":"bold","offset":233,"length":12,"data":""},{"type":"bold","offset":370,"length":11,"data":""},{"type":"bold","offset":512,"length":15,"data":""},{"type":"bold","offset":730,"length":10,"data":""},{"type":"handle","offset":740,"length":12,"data":"irarudakova"}],"date":"2020-03-31T08:02:09+00:00","link":"tg://resolve?domain=jvmjobs&post=1335","tags":[{"name":"java"},{"name":"jvm"},{"name":"sql"},{"name":"xml"},{"name":"json"}],"cities":[{"code":"moscow"}],"allowsRemote":true}},{"node":{"__typename":"Job","id":"1398800384-1001091028994","title":"Java developer","text":"Большой интергационный проект: разработка платформы финансового маркетплейса для физических лиц, проект  стартует в сентябре-декабре 2020 г. \n\nЗадачи на новый проект:\n\nНачать разработку и отладку BPM-слоя платформы, основанной на микросервисной архитектуре с использованием - Java 8; Spring Framework (Core, MVC, Boot); Camunda BPM; Apache Kafka; Hibernate; Docker; PostgreSQL. \n\nВзаимодействие со смежными командами и определение зон ответственности при реализации задач.\n\nПодготовка рекомендаций по внедрению новых технологии, решений, подходов.\n\nНастройка CI/CD процессов. \n\nТребования:\n\nГлубокие знание java core.\nОпыт в java от 3-х лет.\nЗнание подходов CI/CD. \nОтличные организационные и коммуникативные навыки. \n\nЛокация офиса: г. Москва, м. Арбатская/Библиотека им. Ленина/Боровицкая/Александровский сад. \nЗанятость: полная, официальное оформление в штат Компании. \nДМС: с первого рабочего дня. \nФормат работы: современный  офис возле кремля в шаговой доступности от метро (сейчас работаем из дома, возможно, после выхода в офисе многое поменяется))).\nКомпания: ПАО Московская биржа (Компания входящая в 500 - лучших работодателей мира по версии Forbes за 2019 год). \nУровень з/п:  230- 300 тыс.руб. + годовой бонус.\nФормат интервью: один этап интервью по Skype (60 минут). \nКоманда: абсолютно новая команда, почти (3 вакансии senior developer) сформирована за период февраль - март 2020 г. \n\n\nПишите в личку, отвечу на любые вопросы!\nКонтакты: @Sasha_P92","markup":[{"type":"handle","offset":1452,"length":10,"data":"Sasha_P92"}],"date":"2020-03-30T18:53:38+00:00","link":"tg://resolve?domain=jvmjobs&post=1334","tags":[{"name":"java"},{"name":"jvm"},{"name":"spring"},{"name":"apache"},{"name":"kafka"},{"name":"hibernate"},{"name":"docker"},{"name":"postgresql"}],"cities":[{"code":"moscow"}],"allowsRemote":false}},{"node":{"__typename":"Job","id":"1397751808-1001091028994","title":"Java разработчик","text":"Вакансия: #Java \nКомпания: #S-O-Services\nЛокация: #удаленнаяработа #remote #belarus #ukraine #balticstates\nЗ/п: 5000-6500$ gross\nКонтакты: @erzentd\nMust be able to translate business needs into effective technical solutions using core JAVA and common\nopensource libraries and frameworks.\n🔹 Must have practical implementation experience with Web Service RESTful API.\n🔹 Highly preferred with performance in encoding audio video in cloud platform.\n🔹 Experience with Java/J2EE technologies: Java, EJB3.0, JMS, JDBC, XML.\n🔹 Experience with application servers is a plus: Spring Boot, Jetty, Apache Tomcat, Wildfly.\n🔹 Experience with frameworks: Spring, Hibernate.\n🔹 Strong understanding of Java Multithreading and Daemons.\n🔹 Experience with the development tools a plus: Intellij, Git, JIRA\n🔹 Proven experience with interfacing to relational databases (particularly PostgreSQL, MySQL)\n🔹 Excellent troubleshooting skills with the ability to analyze and resolve difficult problems quickly\n🔹 Must have excellent written and verbal communication skills\n🔹 Familiarity with common branching strategies like Gitflow a plus\n🔹 Upper-intermediate English","markup":[{"type":"hashtag","offset":10,"length":5,"data":"Java"},{"type":"hashtag","offset":27,"length":2,"data":"S"},{"type":"hashtag","offset":50,"length":16,"data":"удаленнаяработа"},{"type":"hashtag","offset":67,"length":7,"data":"remote"},{"type":"hashtag","offset":75,"length":8,"data":"belarus"},{"type":"hashtag","offset":84,"length":8,"data":"ukraine"},{"type":"hashtag","offset":93,"length":13,"data":"balticstates"},{"type":"handle","offset":139,"length":8,"data":"erzentd"}],"date":"2020-03-30T18:44:36+00:00","link":"tg://resolve?domain=jvmjobs&post=1333","tags":[{"name":"java"},{"name":"jvm"},{"name":"web"},{"name":"cloud"},{"name":"jdbc"},{"name":"xml"},{"name":"spring"},{"name":"jetty"},{"name":"apache"},{"name":"tomcat"},{"name":"hibernate"},{"name":"git"},{"name":"postgresql"},{"name":"mysql"},{"name":"spring-boot"}],"cities":[],"allowsRemote":true}},{"node":{"__typename":"Job","id":"1946157056-1001134745498","title":"Devops engineer","text":"#вакансия #USA #Australia #senior #remote #DevOps #AWS \n\nЛокация: Атланта\nФормат работы: удаленка \nЗанятость: полная, гибкое начало дня\nЗП:  250 000 до 450 000 рублей на руки (заработная плата начисляется в долларах, вилка указана примерно, компания готова отталкиваться от пожеланий кандидатов)\n\n🔹 Открыта вакансия SR. Cloud Service Engineer в небольшой Американский стартап в области healthcare Lifetime Fluency.\nРебята существуют один год и разрабатывают инновационное VR решение для лечения пациентов, страдающих заиканием. Сейчас закончен прототип продукта и начинается этап активной разработки. Разработка идет с нуля, используются максимально современные технологии.\nПланируемвй стек проекта: Java,\nSpring Boot, AWS, Micro-services, RESTful API,\nKafka, Spring Data, Angular 2+, Node.js, JavaScript, HTML5, CSS3, Docker\n\nМы ищем первого SR. Cloud Service Engineer, который выстроит всю необходимую архитектуру, СI/СD процесс с нуля, выстроит работу в AWS. \nОчень желателен опыт в healthcare и знание HIPAA.\n\n🔹 Требования:\n- Свободный английский язык (разговорный и письменный)\n- Опыт работы с AWS в продакшн от 3-ех лет;\n- Опыт выстраивания CI/CD процесса с нуля;\n\n🔹 Контакты:\nКА: Lucky hunter\ne-mail: daria@luckyhunter.io\ntelegram: @prudentdaria\nПишите, буду рада ответить на все возможные вопросы в телеграм или по почте\n\n—\n\n👉 Обсуждение вакансии в чате @devops_jobs","markup":[{"type":"hashtag","offset":0,"length":9,"data":"вакансия"},{"type":"hashtag","offset":10,"length":4,"data":"USA"},{"type":"hashtag","offset":15,"length":10,"data":"Australia"},{"type":"hashtag","offset":26,"length":7,"data":"senior"},{"type":"hashtag","offset":34,"length":7,"data":"remote"},{"type":"hashtag","offset":42,"length":7,"data":"DevOps"},{"type":"hashtag","offset":50,"length":4,"data":"AWS"},{"type":"link","offset":1211,"length":20,"data":"mailto:daria@luckyhunter.io"},{"type":"handle","offset":1242,"length":13,"data":"prudentdaria"},{"type":"handle","offset":1366,"length":12,"data":"devops_jobs"}],"date":"2020-03-30T15:48:22+00:00","link":"tg://resolve?domain=devops_jobs_feed&post=1856","tags":[{"name":"amazon-web-services"},{"name":"cloud"},{"name":"java"},{"name":"spring"},{"name":"kafka"},{"name":"angularjs"},{"name":"nodejs"},{"name":"javascript"},{"name":"html"},{"name":"css"},{"name":"docker"},{"name":"spring-boot"},{"name":"spring-data"}],"cities":[{"code":"atlanta"}],"allowsRemote":true}},{"node":{"__typename":"Job","id":"1396703232-1001091028994","title":"Java разработчик","text":"#java #middle #москва #офис #fulltime \n\nКА: Lucky Hunter\nФормат работы: офис \nЗанятость: full time\nЛокация: Москва, Нижний Сусальный пер. \nЗ/п:  до 220к Net \n\n🌏Британский лидер глобального рынка информационных услуг в сфере финансов расширяет границы своего присутствия и открывает первый офис в России. \n\nВ связи с этим компания находится в поиске middle Java специалиста, который будет отвечать за кастомизацию продукта. \n\nДанный сервис позволяет частным лицам контролировать свои финансы, кредитным организациям давать кредиты с большей ответственностью, а также позволяет компаниям предотвращать кражу персональных данных и мошенничество.\nНа сегодняшний день в компании работает около 17 000 человек в 37 странах🌍\n\n🔸 Требования:\n— Опыт разработки на Java+Spring от 2 лет;\n— Опыт работы с PostgreSQL, MS SQL, Oracle; \n— Англ.яз. (интервью будет проходит с представителями Британского офиса); \n\nБольшим плюсом будет:\n— Опыт работы с кастомными продуктами;\n— Понимание особенностей фин.тех. сервисов;\n\n🔸 Что получите Вы:\n— Официальное трудоустройство;\n— Вы встанете у истоков первого российского филиала;\n— Большие перспективы роста и развития;\n— Работа в международной команде профессионалов;\n\nКонтакты: \ne-mail: maria@luckyhunter.io\ntelegram: @Maria_Rey","markup":[{"type":"hashtag","offset":0,"length":5,"data":"java"},{"type":"hashtag","offset":6,"length":7,"data":"middle"},{"type":"hashtag","offset":14,"length":7,"data":"москва"},{"type":"hashtag","offset":22,"length":5,"data":"офис"},{"type":"hashtag","offset":28,"length":9,"data":"fulltime"},{"type":"link","offset":1219,"length":20,"data":"mailto:maria@luckyhunter.io"},{"type":"handle","offset":1250,"length":10,"data":"Maria_Rey"}],"date":"2020-03-30T11:48:16+00:00","link":"tg://resolve?domain=jvmjobs&post=1332","tags":[{"name":"java"},{"name":"jvm"},{"name":"dotnet"},{"name":"spring"},{"name":"postgresql"},{"name":"sql"},{"name":"oracle"}],"cities":[{"code":"moscow"}],"allowsRemote":false}},{"node":{"__typename":"Job","id":"1395654656-1001091028994","title":"Java developer","text":"В инновационное подразделение крупнейшей российской авиакомпании\nищем #Junior #Java #Developer\nГород: #Москва\nФормат работы: #офис\nЗанятость: #fulltime, гибкий подход к рабочему времени\nВилка: до 100000 net.\n\nЗадача:\n\n • Проектирование и разработка хранилища данных о клиентах компании.\n\nЧто хотим видеть:\n\n • Опыт разработки на Java 1 год на коммерческом проекте,\n • Spring Framework, понимание концепции DI,\n • Опыт реализации REST-сервисов,\n • Понимание микросервисной архитектуры,\n   \nБудет плюсом:\n\n • вы знаете, что такое ETL\n • вы работали с:\n            Spark (SQL, Streaming);\n            Kafka;\n            Linux, Docker, Kubernetes;\n            реляционными БД (Oracle, MS SQL, PostgreSQL);\n            Spring Integration или аналогами (Camel)\n\nУсловия:\n\n • Интересные задачи, возможность влиять на прибыль компании;\n • Бессрочный трудовой договор;\n • Корпоративный тариф на перелеты;\n • ДМС;\n • Возможность обучаться за счет компании;\n • Участие в конференциях.\n\nКонтакт:  @morozovamary","markup":[{"type":"bold","offset":70,"length":13,"data":""},{"type":"hashtag","offset":70,"length":7,"data":"Junior"},{"type":"hashtag","offset":78,"length":5,"data":"Java"},{"type":"bold","offset":84,"length":17,"data":""},{"type":"hashtag","offset":84,"length":10,"data":"Developer"},{"type":"hashtag","offset":102,"length":7,"data":"Москва"},{"type":"bold","offset":110,"length":14,"data":""},{"type":"hashtag","offset":125,"length":5,"data":"офис"},{"type":"bold","offset":131,"length":10,"data":""},{"type":"hashtag","offset":142,"length":9,"data":"fulltime"},{"type":"bold","offset":186,"length":6,"data":""},{"type":"bold","offset":209,"length":9,"data":""},{"type":"code","offset":218,"length":3,"data":""},{"type":"bold","offset":288,"length":19,"data":""},{"type":"code","offset":307,"length":3,"data":""},{"type":"code","offset":365,"length":3,"data":""},{"type":"code","offset":410,"length":3,"data":""},{"type":"code","offset":444,"length":3,"data":""},{"type":"bold","offset":489,"length":15,"data":""},{"type":"code","offset":504,"length":3,"data":""},{"type":"code","offset":532,"length":3,"data":""},{"type":"bold","offset":756,"length":10,"data":""},{"type":"code","offset":766,"length":3,"data":""},{"type":"code","offset":828,"length":3,"data":""},{"type":"code","offset":860,"length":3,"data":""},{"type":"code","offset":896,"length":3,"data":""},{"type":"code","offset":904,"length":3,"data":""},{"type":"code","offset":947,"length":3,"data":""},{"type":"bold","offset":975,"length":8,"data":""},{"type":"handle","offset":985,"length":13,"data":"morozovamary"}],"date":"2020-03-30T09:30:22+00:00","link":"tg://resolve?domain=jvmjobs&post=1331","tags":[{"name":"java"},{"name":"jvm"},{"name":"dotnet"},{"name":"spring"},{"name":"rest"},{"name":"sql"},{"name":"kafka"},{"name":"linux"},{"name":"docker"},{"name":"kubernetes"},{"name":"oracle"},{"name":"postgresql"}],"cities":[{"code":"moscow"}],"allowsRemote":false}},{"node":{"__typename":"Job","id":"1394606080-1001091028994","title":"Java разработчик","text":"#вакансия #android #backend #java #kotlin #senior\n\nВакансия: Kotlin/Java Backend Software Engineer\nФормат работы: удаленка / #remote\nЗанятость: полная / частичная #fulltime #parttime\nЗарплатная вилка: от $2500 до $3500 по итогам собеседования\nИмя компании: Take it Personally B.V.\nАдрес компании: #Amsterdam\nОписание работы: https://takeitpersonally.me/kotlin-java-backend-software-engineer/\n\nBackend Software Engineer with experience with Java and Kotlin to join our remote team full-time within European time zone.\n\nRESPONSIBILITIES\n • Drive key technical decisions from the start of the project\n • Write unit tests and integrate into CI/CD\n • Own the Feature, Own the Code – feel responsible for what you create. This starts with bringing in your own feature ideas, goes over development, testing and ends in deploying your code and monitoring the feature\n • Design and develop systems based on product requirements or refactorings\n\nREQUIREMENTS\n • Curiosity about ethical / mindful / humane tech space\n • 3+ years of experience with Java or Kotlin\n • Familiar with the quirks of Spring\n • Keen about principles and practices of scalable web applications, such as RESTful APIs, dealing with transactions and resiliency\n • Deep knowledge of best practices, APIs and libraries needed for building web applications\n • Strong understanding of application architecture and object-oriented design\n • Passion for continuous learning and understanding\n • Ability to operate in fast-paced, deadline driven, collaborative and iterative programming environment\n • Proven tech documentation skills\n • Excellent verbal and written communication in English\n\nWHAT IS IN IT FOR YOU\n • No bureaucracy, flat organisational structure\n • Competitive salary and shares package\n • Be part of the team from the start and grow with the company\n • Business trips to Spain and the Netherlands\n\nContact: @takeitpersonally\nEmail: olga@mytip.app\nApplication form: https://takeitpersonally.me/kotlin-java-backend-software-engineer/","markup":[{"type":"hashtag","offset":0,"length":9,"data":"вакансия"},{"type":"hashtag","offset":10,"length":8,"data":"android"},{"type":"hashtag","offset":19,"length":8,"data":"backend"},{"type":"hashtag","offset":28,"length":5,"data":"java"},{"type":"hashtag","offset":34,"length":7,"data":"kotlin"},{"type":"hashtag","offset":42,"length":7,"data":"senior"},{"type":"hashtag","offset":125,"length":7,"data":"remote"},{"type":"hashtag","offset":163,"length":9,"data":"fulltime"},{"type":"hashtag","offset":173,"length":9,"data":"parttime"},{"type":"hashtag","offset":297,"length":10,"data":"Amsterdam"},{"type":"link","offset":325,"length":66,"data":"https://takeitpersonally.me/kotlin-java-backend-software-engineer/"},{"type":"handle","offset":1880,"length":17,"data":"takeitpersonally"},{"type":"link","offset":1905,"length":14,"data":"mailto:olga@mytip.app"},{"type":"link","offset":1938,"length":66,"data":"https://takeitpersonally.me/kotlin-java-backend-software-engineer/"}],"date":"2020-03-28T20:25:05+00:00","link":"tg://resolve?domain=jvmjobs&post=1330","tags":[{"name":"java"},{"name":"jvm"},{"name":"android"},{"name":"kotlin"},{"name":"spring"},{"name":"web"}],"cities":[{"code":"amsterdam"}],"allowsRemote":true}},{"node":{"__typename":"Job","id":"1393557504-1001091028994","title":"Java разработчик","text":"#вакансия #москва #офис #softwareengineer\n\nПродуктовая компания, разрабатывает платформы для создания распределённых приложений, которые хранят и быстро обрабатывают данные.\n Инструменты (compute grid, persistance store, распределенный sql, service grid).\n\n💥Вакансия: Software Engineer (Java)\n💥Город: Москва (м. Тульская)\n💥Занятость: полная (офис)\n💥ЗП: от 180 - 250 net \n💥Компания: GridGain (https://www.gridgain.com/)\n\n👆Чем предстоит заниматься:\n•Сопровождение внедрения продуктов компании у одного из ключевых клиентов.\n•Участие в прототипировании и проверке решений.\n•Развитие в сторону эксперта в области многопоточного программирования на Java.\n•Участие в Apache Ignite open source community.\n•Разработка дизайна решений и их самостоятельная реализация.\n•Проведение code review.\n•Внесение предложений по технической оптимизации для команд разработки, тестирования и эксплуатации на стороне клиента.\n•Взаимодействие и оказание технической помощи команде второй линии поддержки (Support Engineers / Application Administrators).\n•Работа над оптимизацией, оперативное устранение дефектов, внесение улучшений и иных доработок в продукты компании.\n\n👍Что готовы предложить:\n•Оформление в полном соответствии с ТК РФ с первого дня работы.\n•Полис ДМС за счет компании с услугами стоматологии \n•Ежегодный пересмотр заработной платы.\n•Занятия английским языком и спортом за счет компании \n•Работу в команде высококлассных профессионалов над одним из самых технологически передовых проектов в мире.\n•Возможность участвовать в разработке продукта, входящего в ТОП-5 Apache SF - Apache Ignite, которым пользуются десятки тысяч разработчиков по всему миру.\n•Stock options уже после успешного прохождения испытательного срока.\n•Гарантировано получение уникального опыта.\n•Работа с полным спектром новейших Java и grid / cloud технологий, интенсивное развитие в команде действительно крутых профессионалов, у которых есть, чему поучиться.\n•Мы приветствуем и требуем инициативу.\n•Мы приветствуем и всячески поддерживаем сотрудников в выступлениях на конференциях, вебинарах, митапах: у нас (по желанию) Вы сможете обучиться азам ораторского мастерства, попробовать (или продолжить прокачивать) себя в роли спикера и повысить своё visibility в профессиональных кругах.\n•В силу особенности проекта - сменный график: сутки через трое.\n\n👀Ожидания:\n•Отличные знания Java SE - collections, IO, etc.\n•Понимание принципов работы распределенных систем.\n•Наличие опыта работы с SQL СУБД и навыков оптимизации запросов и индексов SQL СУБД.\n•Английский язык на уровне чтения и написания технической документации.\n\nКонтакты: @prynik95","markup":[{"type":"hashtag","offset":0,"length":9,"data":"вакансия"},{"type":"hashtag","offset":10,"length":7,"data":"москва"},{"type":"hashtag","offset":18,"length":5,"data":"офис"},{"type":"hashtag","offset":24,"length":17,"data":"softwareengineer"},{"type":"link","offset":397,"length":25,"data":"https://www.gridgain.com/"},{"type":"handle","offset":2607,"length":9,"data":"prynik95"}],"date":"2020-03-27T12:46:54+00:00","link":"tg://resolve?domain=jvmjobs&post=1329","tags":[{"name":"java"},{"name":"jvm"},{"name":"sql"},{"name":"dotnet"},{"name":"apache"},{"name":"cloud"}],"cities":[{"code":"moscow"}],"allowsRemote":false}},{"node":{"__typename":"Job","id":"1392508928-1001091028994","title":"Java разработчик","text":"Вакансия: #java #developer #javadeveloper\nКомпания: #ivi\nЛокация: #москва #мск\nЗ/п: от 250 000 до 270 000 руб. на руки\nКонтакты: @daria144 \n\nКоманда Big Data онлайн-кинотеатра ivi ищет сильного Java разработчика, заинтересованного в работе с данными и разработке аналитических продуктов\n\nНаша задача - собирать, обогащать, хранить и доставлять данные, а также разрабатывать инструменты для извлечения из них максимального business value.\n\nДанные - важное звено в бизнесе ivi, мы придерживаемся data-driven культуры принятия решений. Мы обрабатываем 1 Тб в день с помощью Kafka, Flink и ClickHouse.\n\nРазрабатываем нагруженные (18k qps) сервисы на Spring Boot WebFlux и синхронизируем их через ZooKeeper. Разрабатываем многоуровневые кеши Caffeine + Redis и Flink коннекторы. Основные технологии: Java, Python; Kafka, Flink, Spring Boot, Spring WebFlux, ZooKeeper, Redis, ClickHouse, PostgreSQL.\n\nЕсли вы любите разбираться с новыми технологиями и решать нестандартные задачи - вам у нас будет интересно.\n\nЧто предстоит делать:\n- разработка модулей на основе streaming-processing (Apache Flink);\n- разработка web-сервисов для различных задач (реклама, аналитика и т.п.);\n- взаимодействовать с командой по вопросам архитектуры и разработки.\n\nКак узнать что ты нам подходишь?\n- есть опыт разработки на Java в коммерческих проектах от 5 лет;\n- у тебя отличное знание Java Core;\n- твердые архитектурные скилы;\n- общая культура разработки: декомпозиция задач, SOLID-принципы, DI, написание интеграционных и модульных тестов. \n\nСо своей стороны мы обещаем:\n- Офис в 5 минутах ходьбы от м. \"Дмитровская\";\n- У нас гибкий график, мы начинаем до 11 часов дня;\n- Трудоустройство по ТК РФ;\n- ДМС + стоматология после прохождения испытательного срока;\n- Подписка на ivi;\n- Пакет релокации для соискателей со всей России.","markup":[{"type":"bold","offset":0,"length":9,"data":""},{"type":"hashtag","offset":10,"length":5,"data":"java"},{"type":"hashtag","offset":16,"length":10,"data":"developer"},{"type":"hashtag","offset":27,"length":14,"data":"javadeveloper"},{"type":"bold","offset":42,"length":9,"data":""},{"type":"hashtag","offset":52,"length":4,"data":"ivi"},{"type":"bold","offset":57,"length":8,"data":""},{"type":"hashtag","offset":66,"length":7,"data":"москва"},{"type":"hashtag","offset":74,"length":4,"data":"мск"},{"type":"bold","offset":79,"length":4,"data":""},{"type":"bold","offset":119,"length":9,"data":""},{"type":"handle","offset":129,"length":9,"data":"daria144"},{"type":"bold","offset":1004,"length":22,"data":""},{"type":"bold","offset":1239,"length":33,"data":""},{"type":"bold","offset":1520,"length":29,"data":""}],"date":"2020-03-27T09:48:35+00:00","link":"tg://resolve?domain=jvmjobs&post=1328","tags":[{"name":"java"},{"name":"jvm"},{"name":"kafka"},{"name":"spring"},{"name":"redis"},{"name":"python"},{"name":"postgresql"},{"name":"apache"},{"name":"web"},{"name":"spring-boot"}],"cities":[{"code":"moscow"}],"allowsRemote":false}}]}}},"context":{}}