{"hash":"f5f6bf98bd95e769321482904cbbd488f77922fd","data":{"records":{"id":"github","name":"github","belongsTo":{"totalCount":37,"pageInfo":{"totalPages":4,"currentPage":1},"edges":[{"node":{"__typename":"Job","id":"17322475520-1001110946746","title":"Javascript разработчик","text":"#вакансия #frontend #react #typescript #middle #senior #москва #офис #fulltime\n\nПозиция – Frontend developer (Middle)\n\nКомпания – Quadcom\n\nЛокация – Москва, м. Ботанический сад\n\nЗанятость – полная, офис, гибкое время начала дня\n\nОплата: от 110 000 до 150 000 рублей на руки\n\n\n\nМы ищем талантливого фронтенд-разработчика в нашу не очень большую, но дружную команду. Если ты легко осваиваешь новые технологии, любишь чистый и красивый код, знаешь алгоритмы и готов развиваться, то мы очень хотим тебя к себе!\n\nМы разрабатываем различные сервисы и интерфейсы для внутреннего и внешнего использования. У нас есть как большие проекты, так и маленькие. Начиная с 2014 года с небольшой команды мы развились до довольно большой компании и развиваемся дальше\n\nБазируемся в уютном бизнес-центре Ультрамарин, недалеко от метро Ботанический сад и ВДНХ. У нас гибкий рабочий график, современный офис и отличное оборудование для работы.\n\n\n\n✅ Необходимые навыки:\n\n• Знание Javascript и ES6+, React + Redux\n\n• Уверенные знания HTML, CSS/SASS/LESS, опыт кроссбраузерной верстки\n\n• Опыт работы в команде с использованием Git и любого системой управления задачами\n\n\n\n✅ Плюсом будет:\n\n• Опыт работы с RestAPI\n\n• Знакомство с TypeScript\n\n• Знание алгоритмов и структур данных\n\n\n\n✅ Мы предлагаем:\n\nРаботу в успешной, растущей компании\n\nКарьерный и профессиональный рост\n\nУютный офис\n\nОтсутствие какого-либо дресс-кода\n\nСвободный график\n\nАдекватное руководство\n\n\n\nЗП от 110 000 до 150 000 рублей на руки\n\nпо итогам собеседования и испытательного срока\n\n\n\n☎️ Контакты для обсуждения вакансии:\n\ntelegram @codebor\n\ne-mail ybb@quadcom.ru\n\n\n\nДля желающих мы подготовили небольшое интересное задание\nhttps://github.com/walborn/test-backend-jwt/blob/master/task.md","markup":[{"type":"hashtag","offset":0,"length":9,"data":"вакансия"},{"type":"hashtag","offset":10,"length":9,"data":"frontend"},{"type":"hashtag","offset":20,"length":6,"data":"react"},{"type":"hashtag","offset":27,"length":11,"data":"typescript"},{"type":"hashtag","offset":39,"length":7,"data":"middle"},{"type":"hashtag","offset":47,"length":7,"data":"senior"},{"type":"hashtag","offset":55,"length":7,"data":"москва"},{"type":"hashtag","offset":63,"length":5,"data":"офис"},{"type":"hashtag","offset":69,"length":9,"data":"fulltime"},{"type":"handle","offset":1579,"length":8,"data":"codebor"},{"type":"link","offset":1596,"length":14,"data":"mailto:ybb@quadcom.ru"},{"type":"link","offset":1671,"length":63,"data":"https://github.com/walborn/test-backend-jwt/blob/master/task.md"}],"date":"2020-07-02T16:28:50+00:00","link":"tg://resolve?domain=javascript_jobs_feed&post=16520","tags":[{"name":"javascript"},{"name":"reactjs"},{"name":"typescript"},{"name":"redux"},{"name":"html"},{"name":"css"},{"name":"sass"},{"name":"git"},{"name":"github"},{"name":"jwt"},{"name":"react-redux"}],"cities":[{"code":"moscow"}],"allowsRemote":false}},{"node":{"__typename":"Job","id":"72517419008-1001054966032","title":"Ios разработчик","text":"#вакансия #IOS #senior #full-time #офис #удаленка \nГород: Санкт-Петербург\nФормат работы: офис и удаленка\nЗанятость: полная \nЗарплатная вилка (обязательно): от 230 000 до 300 000 на руки\n\nКомпания: VOIR - приложение реалистичного диджитал мейкапа с самым большим количеством качественно оцифрованной продукции реальных брендов.\nМы используем компьютерное зрение, нейронные сети и запатентованный 3D рендеринг, чтобы обеспечить реалистичную примерку в дополненной реальности. \nНаше приложение Voir уже имеет более 3 млн. загрузок по всему миру.\n\nАудитория приложения составляет сотни тысяч пользователей по всему миру, и компания уже заключила партнерства с такими брендами как Dior, Sephora, Guerlain. Подробнее о компании можно узнать в статье Forbes и на сайте, а еще лучше скачать приложение.\nВ данный момент мы ищеним Senior IOS Developer'а. \n\nЧто нужно делать:\n\n* Активно участвовать в развитие проекта, общаться с командой, вместе находить крутые решения;\n* Разработка мобильных приложений;\n* Участие в работе над архитектурой, SDK, API;\n* Работа с командой разработчиков, тестировщиков, дизайнеров и специалистов по machine learning.\n\nЧто нам важно:\n\n* Опыт iOS разработки от 3-х лет;\n* Опыт разработки от 5-х лет;\n* Отличное знание Swift, RxSwift;\n* Отличное знание API и фреймворков iOS;\n* Отличные знания Metal, OpenGL, SceneKit, ARkit, CoreML;\n* Фундаментальные знания ООП, архитектур и алгоритмов;\n* Умение проводить комплексный анализ и самостоятельно решать проблемы;\n* Опыт разработки клиент-серверных приложений и работы с сетевыми протоколами;\n* Английский не ниже Intermediate, свободное чтение любой технической документации;\n* Опубликованные приложения, которые создавались с вашим значительным участием;\n* Плюсом будет открытый актуальный код на GitHub или даже в zip-архиве, статьи, выступления на конференциях, пришлите ссылки на них в сопроводительном письме;\n* Любить IOS и понимать гайды и best-practice;\n* Умение аргументированно излагать свою точку зрения.\n\nЧто мы предлагаем: \n\n* Интересные задачи на активно развивающемся проекте с использованием технологий machine learning;\n* Возможность непосредственно влиять на продукт и видеть результат работы;\n* Работу в профессиональной, заряженной команде и драйвовую атмосферу;\n* Гибкий график работы;\n* Белую зарплату, которая зависит только от ваших навыков и опыта;\n* Комфортный офис в 10 минутах ходьбы, от метро Петроградская.\n\nКонтакты: @aartenyan","markup":[{"type":"hashtag","offset":0,"length":9,"data":"вакансия"},{"type":"hashtag","offset":10,"length":4,"data":"IOS"},{"type":"hashtag","offset":15,"length":7,"data":"senior"},{"type":"hashtag","offset":23,"length":5,"data":"full"},{"type":"hashtag","offset":34,"length":5,"data":"офис"},{"type":"hashtag","offset":40,"length":9,"data":"удаленка"},{"type":"link","offset":737,"length":15,"data":"https://www.forbes.ru/tehnologii/381845-didzhital-makiyazh-kak-natalya-vodyanova-podarila-vtoruyu-zhizn-startapu-iz"},{"type":"link","offset":756,"length":5,"data":"http://voir.me/"},{"type":"link","offset":775,"length":19,"data":"https://apps.apple.com/us/app/voir-makeup-selfie-camera/id1226417060"},{"type":"handle","offset":2416,"length":10,"data":"aartenyan"}],"date":"2020-07-02T08:25:43+00:00","link":"tg://resolve?domain=mobile_jobs&post=69158","tags":[{"name":"mobile"},{"name":"ios"},{"name":"swift"},{"name":"opengl"},{"name":"github"},{"name":"machine-learning"}],"cities":[],"allowsRemote":true}},{"node":{"__typename":"Job","id":"72516370432-1001054966032","title":"Android developer","text":"#вакансия #android #developer #androiddeveloper #москва #мск \n\nAndroid Developer\nКомпания: Азбука Вкуса\nЛокация: Москва, офис\nм. Парк Победы/Кутузовская\nЗанятость: fulltime\nЗ/п: 150-210k ₽ net  \nКонтакты: @observer69\n\nУсловия\n● Официальное оформление с соблюдением ТК РФ;\n● Организация внешнего обучения;\n● Участие в конференциях и хакатонах;\n● ДМС;\n● Возможность работать из дома пару раз в неделю;\n● Комфортный офис в шаговой доступности от м. Парк Победы / Кутузовская;\n● Большая команда IT - профессионалов;\n● Интересные задачи\n\nТребования\n● Опыт разработĸи под Android от 2х лет;\n● Опыт разработĸи ĸлиент-серверных приложений;\n● Уверенное знание Kotlin/Java и Android SDK;\n● Сможешь обьяснить разницу между процессом и потоĸом, знаешь ĸаĸ\nработает многопоточность;\n● Понимание принципов SOLID, и желание писать чистый ĸод;\n● Работал с git (терминал или приложение);\n● Опублиĸованные в Google Play приложения, в разработĸе ĸоторых\nпринимали участие.\n\nЖелательно\n● Опыт разработĸи e-commerce или retail приложений;\n● Умение писать тесты;\n● Наличие аĸĸаунта на Github/Gitlab/Bitbucket c отĸрытыми проеĸтами.\n\nЗадачи\n1. Развивать и поддерживать существующие приложения;\n2. Проводить code review;\n3. Развивать Android инфраструктуру в компании;\n4. Активно участвовать в жизни команды.","markup":[{"type":"hashtag","offset":0,"length":9,"data":"вакансия"},{"type":"hashtag","offset":10,"length":8,"data":"android"},{"type":"hashtag","offset":19,"length":10,"data":"developer"},{"type":"hashtag","offset":30,"length":17,"data":"androiddeveloper"},{"type":"hashtag","offset":48,"length":7,"data":"москва"},{"type":"hashtag","offset":56,"length":4,"data":"мск"},{"type":"bold","offset":63,"length":27,"data":""},{"type":"bold","offset":104,"length":8,"data":""},{"type":"bold","offset":153,"length":10,"data":""},{"type":"bold","offset":173,"length":5,"data":""},{"type":"bold","offset":195,"length":10,"data":""},{"type":"handle","offset":205,"length":11,"data":"observer69"},{"type":"bold","offset":218,"length":8,"data":""},{"type":"bold","offset":533,"length":11,"data":""},{"type":"bold","offset":955,"length":11,"data":""},{"type":"bold","offset":1111,"length":9,"data":""},{"type":"bold","offset":1171,"length":2,"data":""},{"type":"bold","offset":1197,"length":2,"data":""},{"type":"bold","offset":1245,"length":2,"data":""}],"date":"2020-07-02T08:09:06+00:00","link":"tg://resolve?domain=mobile_jobs&post=69157","tags":[{"name":"mobile"},{"name":"android"},{"name":"dotnet"},{"name":"kotlin"},{"name":"java"},{"name":"git"},{"name":"playframework"},{"name":"github"},{"name":"gitlab"}],"cities":[{"code":"moscow"}],"allowsRemote":false}},{"node":{"__typename":"Job","id":"72450310144-1001054966032","title":"Ios разработчик","text":"#вакансия #IOS #senior #full-time #офис #удаленка \nГород: Санкт-Петербург\nФормат работы: офис и удаленка\nЗанятость: полная \nЗарплатная вилка (обязательно): от 230 000 до 300 000 на руки\n\nКомпания: VOIR - приложение реалистичного диджитал мейкапа с самым большим количеством качественно оцифрованной продукции реальных брендов.\nМы используем компьютерное зрение, нейронные сети и запатентованный 3D рендеринг, чтобы обеспечить реалистичную примерку в дополненной реальности. \nНаше приложение Voir уже имеет более 3 млн. загрузок по всему миру.\n\nАудитория приложения составляет сотни тысяч пользователей по всему миру, и компания уже заключила партнерства с такими брендами как Dior, Sephora, Guerlain. Подробнее о компании можно узнать в статье Forbes и на сайте, а еще лучше скачать приложение.\nВ данный момент мы ищеним Senior IOS Developer'а. \n\nЧто нужно делать:\n\n* Активно участвовать в развитие проекта, общаться с командой, вместе находить крутые решения;\n* Разработка мобильных приложений;\n* Участие в работе над архитектурой, SDK, API;\n* Работа с командой разработчиков, тестировщиков, дизайнеров и специалистов по machine learning.\n\nЧто нам важно:\n\n* Опыт iOS разработки от 3-х лет;\n* Опыт разработки от 5-х лет;\n* Отличное знание Swift, RxSwift;\n* Отличное знание API и фреймворков iOS;\n* Отличные знания Metal, OpenGL, SceneKit, ARkit, CoreML;\n* Фундаментальные знания ООП, архитектур и алгоритмов;\n* Умение проводить комплексный анализ и самостоятельно решать проблемы;\n* Опыт разработки клиент-серверных приложений и работы с сетевыми протоколами;\n* Английский не ниже Intermediate, свободное чтение любой технической документации;\n* Опубликованные приложения, которые создавались с вашим значительным участием;\n* Плюсом будет открытый актуальный код на GitHub или даже в zip-архиве, статьи, выступления на конференциях, пришлите ссылки на них в сопроводительном письме;\n* Любить IOS и понимать гайды и best-practice;\n* Умение аргументированно излагать свою точку зрения.\n\nЧто мы предлагаем: \n\n* Интересные задачи на активно развивающемся проекте с использованием технологий machine learning;\n* Возможность непосредственно влиять на продукт и видеть результат работы;\n* Работу в профессиональной, заряженной команде и драйвовую атмосферу;\n* Гибкий график работы;\n* Белую зарплату, которая зависит только от ваших навыков и опыта;\n* Комфортный офис в 10 минутах ходьбы, от метро Петроградская.\n\nКонтакты: @aartenyan","markup":[{"type":"hashtag","offset":0,"length":9,"data":"вакансия"},{"type":"hashtag","offset":10,"length":4,"data":"IOS"},{"type":"hashtag","offset":15,"length":7,"data":"senior"},{"type":"hashtag","offset":23,"length":5,"data":"full"},{"type":"hashtag","offset":34,"length":5,"data":"офис"},{"type":"hashtag","offset":40,"length":9,"data":"удаленка"},{"type":"link","offset":737,"length":15,"data":"https://www.forbes.ru/tehnologii/381845-didzhital-makiyazh-kak-natalya-vodyanova-podarila-vtoruyu-zhizn-startapu-iz"},{"type":"link","offset":756,"length":5,"data":"http://voir.me/"},{"type":"link","offset":775,"length":19,"data":"https://apps.apple.com/us/app/voir-makeup-selfie-camera/id1226417060"},{"type":"handle","offset":2416,"length":10,"data":"aartenyan"}],"date":"2020-07-01T10:14:12+00:00","link":"tg://resolve?domain=mobile_jobs&post=69094","tags":[{"name":"mobile"},{"name":"ios"},{"name":"swift"},{"name":"opengl"},{"name":"github"},{"name":"machine-learning"}],"cities":[],"allowsRemote":true}},{"node":{"__typename":"Job","id":"17264803840-1001110946746","title":"Js developer","text":"#вакансия #frontend #javascript #senior #vacancy #remote #удаленка #fulltime \n\n📍Компания: Datagrok (https://datagrok.ai)\n📍Локация: USA, PA\n📍Формат: удаленная работа, фуллтайм\n📍Вилка: 1000$ - 2500$\n\nКонтакт: @alexaprm \n\nDatagrok.ai is looking for a qualified frontend developer to join our strong team of engineers and data scientists. We are a startup developing a next-generation, no-compromises data analytics platform that will revolutionize the industry. Our proprietary technology lets us efficiently process datasets with tens of millions of rows in the browser, and interactively visualize them. We take pride in platform’s UX and performance, and take advantage of the technologies such as WebAssembly, WebGL, and browser-based multithreaded computations. We have a very well established development process that includes unit tests, continuous integration system, stress tests, integration tests, automated UI testing system, and various deployment options. Our technology stack is primarily based on Dart and Postgres, but also has multiple extension points with components developed in JavaScript, TypeScript, Python, R, Java, and C++. Initially you will be involved in developing new plugins in JavaScript, and extending platform’s core capabilities to enable that.\n\nThere is a lot of room to grow, and there will be many opportunities to assume more responsibilities and learn new domains, such as machine learning, artificial intelligence, or high-performance computing.\n\nThis is a remote position.\nIt would be great if you could send us a project you have developed on your own (github repository is ok), or point to another project you have participated in. \n\nResponsibilities\n* Front-end and back-end web development\n* Maintain and improve developer-facing platform’s JS API\n* Help our clients write JS applications on top of the Datagrok platform\n* Develop proof-of-concept applications\n* Integrate third-party JS libraries into the platform\n\nRequirements\n* At least two years of professional experience\n* JavaScript or TypeScript\n* At least one of (Angular, React, Vue)\n* Good written English, ability to communicate directly with our clients\n* Strong verbal and written communication skills\n* Ability to learn and apply new technologies\n\nNice to have\n* One of (Python, R, Java, C#, C++)\n* WebGL\n* WebAssembly\n* Dart\n* Machine learning and statistics\n* Prior exposure to life sciences is a plus\n\n—\n\n👉 Обсуждение вакансии в чате @javascript_jobs","markup":[{"type":"hashtag","offset":0,"length":9,"data":"вакансия"},{"type":"hashtag","offset":10,"length":9,"data":"frontend"},{"type":"hashtag","offset":20,"length":11,"data":"javascript"},{"type":"hashtag","offset":32,"length":7,"data":"senior"},{"type":"hashtag","offset":40,"length":8,"data":"vacancy"},{"type":"hashtag","offset":49,"length":7,"data":"remote"},{"type":"hashtag","offset":57,"length":9,"data":"удаленка"},{"type":"hashtag","offset":67,"length":9,"data":"fulltime"},{"type":"link","offset":101,"length":19,"data":"https://datagrok.ai"},{"type":"handle","offset":211,"length":9,"data":"alexaprm"},{"type":"link","offset":223,"length":11,"data":"http://Datagrok.ai"},{"type":"handle","offset":2452,"length":16,"data":"javascript_jobs"}],"date":"2020-06-30T12:32:35+00:00","link":"tg://resolve?domain=javascript_jobs_feed&post=16465","tags":[{"name":"javascript"},{"name":"deployment"},{"name":"dart"},{"name":"postgresql"},{"name":"typescript"},{"name":"python"},{"name":"java"},{"name":"github"},{"name":"web"},{"name":"angularjs"},{"name":"reactjs"},{"name":"vuejs"},{"name":"continuous-integration"},{"name":"machine-learning"}],"cities":[{"code":"nice"}],"allowsRemote":true}},{"node":{"__typename":"Job","id":"17261658112-1001110946746","title":"Js разработчик","text":"#вакансия #remote #node.js #graphql #typescript\nГород и адрес офиса: Atlanta, GA, USA\nФормат работы: удаленка\nЗанятость: полная\nЗарплатная вилка: от $5'000 до $10'000/мес на руки + %\nНазвание компании: Kriasoft (https://github.com/kriasoft)\nКонтакты: @koistya\n \nИщем талантливого sr. level веб-разработчика в стартап ($1.5M посевных инвестиций) для разработки современного конструктора веб-сайтов похожий на Framer.com, который будет конкурировать с Webflow, Squarespace, Tilda.\n\n👉 Требования\n\n- Опыт работы с React.js, Node.js/GraphQL, PostgreSQL, TypeScript\n- Опыт разработки веб-приложений в роли основного контрибьютора\n- Умение писать грамотный, продуманный код и решать сложные задачи\n- Хороший разговорный английский","markup":[{"type":"hashtag","offset":0,"length":9,"data":"вакансия"},{"type":"hashtag","offset":10,"length":7,"data":"remote"},{"type":"hashtag","offset":18,"length":5,"data":"node"},{"type":"hashtag","offset":27,"length":8,"data":"graphql"},{"type":"hashtag","offset":36,"length":11,"data":"typescript"},{"type":"link","offset":212,"length":27,"data":"https://github.com/kriasoft"},{"type":"handle","offset":251,"length":8,"data":"koistya"},{"type":"link","offset":408,"length":10,"data":"http://Framer.com"}],"date":"2020-06-30T11:57:59+00:00","link":"tg://resolve?domain=javascript_jobs_feed&post=16462","tags":[{"name":"javascript"},{"name":"nodejs"},{"name":"graphql"},{"name":"typescript"},{"name":"github"},{"name":"reactjs"},{"name":"postgresql"}],"cities":[{"code":"atlanta"}],"allowsRemote":true}},{"node":{"__typename":"Job","id":"1757413376-1001091028994","title":"Java разработчик","text":"#Middle #Java #Developer\nЛокация: #удаленка #офис (Москва)\nЗ/п: 100 000 – 150 000 Net\nКонтакт: @Elena19_10Kom\n\nНаша компания занимается разработкой программного обеспечения в сфере аффилированного маркетинга, оказывает сервис, связанный с обслуживанием клиентов, генерирующих трафик для различных зарубежных проектов.\nМы запускаем очередной новый проект. Цель проекта - получить современный портал в области теннисного спорта. Это должна быть мощная платформа, которая превзойдет по удобству и современности все существующие на данный момент платформы этой тематики.\nПроект стартует с \"0\", поэтому предоставляется уникальная возможность начать \"все с самого начала\", а не разбираться и пилить Legacy код.\n\nОбязанности:\n•  разработка и сопровождение веб-проектов\n•  модульное и интеграционное тестирование\n•  системная интеграция и развертывание приложений\n•  обеспечение технической поддержки второго и третьего уровня\nТребования:\n•  опыт коммерческой разработки на java от 3-х лет\n•  знание Spring Framework (в т.ч. SpringBoot, SpringData, SpringSecurity)\n•  знание ORM (JPA или Hibernate)\n•  опыт работы с RDBMS, желательно PostgreSQL\n•  опыт работы по практикам Agile, DevOps, CI/CD\n•  знание Java Core, collections, multithreading, concurrency, generics, reflection\n•  знание и понимание основных принципов ООП\n•  знание паттернов проектирования\n•  умение писать качественный и понятный код\n•  английский – уровень Intermediate\nБудет плюсом:\n•  опыт разработки на Playframework, Akka, Akka-Persistence\n•  опыт работы Full-Stack разработчиком на React/Redux\n•  опыт работы в команде\n•  знание Apache Cassandra\n•  опыт работы с Docker и Kubernetes\n•  опыт работы с микросервисной архитектурой\n•  опыт работы c AWS или другими Cloud платформами\n•  понимание принципов работы HTTP, Websockets\n•  понимание принципов работы stream-processing, reactive, CQRS\n•  наличие примеров кода на GitHub\n•  опыт администрирования Linux\nУсловия:\n•  зарплату обсуждаем\n•  оформление по ТК РФ\n•  можно работать удаленно или в комфортном офисе, который находится в пешей доступности от м. Динамо, с панорамным видом на Москву, на 25 этаже бизнес-центра класса \"А\"\n•  гибкое начало рабочего дня\n•  работа на MacBook air\n•  выделение бюджета для каждого сотрудника на развитие как профессиональных навыков (английский язык, курсы повышения квалификации), так и физических возможностей (корпоративный фитнес)","markup":[{"type":"hashtag","offset":0,"length":7,"data":"Middle"},{"type":"hashtag","offset":8,"length":5,"data":"Java"},{"type":"hashtag","offset":14,"length":10,"data":"Developer"},{"type":"hashtag","offset":34,"length":9,"data":"удаленка"},{"type":"hashtag","offset":44,"length":5,"data":"офис"},{"type":"handle","offset":95,"length":14,"data":"Elena19_10Kom"}],"date":"2020-06-29T10:38:58+00:00","link":"tg://resolve?domain=jvmjobs&post=1676","tags":[{"name":"java"},{"name":"jvm"},{"name":"dotnet"},{"name":"spring"},{"name":"orm"},{"name":"jpa"},{"name":"hibernate"},{"name":"postgresql"},{"name":"playframework"},{"name":"akka"},{"name":"reactjs"},{"name":"redux"},{"name":"apache"},{"name":"cassandra"},{"name":"docker"},{"name":"kubernetes"},{"name":"amazon-web-services"},{"name":"cloud"},{"name":"github"},{"name":"linux"},{"name":"react-redux"}],"cities":[{"code":"moscow"}],"allowsRemote":true}},{"node":{"__typename":"Job","id":"72108474368-1001054966032","title":"Ios разработчик","text":"‼️Вакансия Senior IOS C++ Developer‼️\n#вакансия #IOS #developer #удаленка\nВ команде Mycelium Wallet (mycelium.com) открыта вакансия Senior IOS C++ Developer.\n💵З/П 3000-4000 USD по итогам собеседования.\nРабота удаленная 💻\n\nМы предлагаем:\n🔸Получить навыки и компетенции в одном из самых передовых и перспективных направлений финтех индустрии - blockchain;\n🔸Принять участие в разработке одного из самых популярных биткоин-стартапов;\n🔸Работать в международной команде бок о бок с ведущими специалистами в индустрии;\n🔸Возможность профессионального карьерного роста и участия в разнообразных проектах компании.\nЧем предстоит заниматься:\n🔸Разрабатывать мультивалютный крипто-валютный кошелек с кросс-платформенным ядром;\n🔸Проектировать и разрабатывать большие функциональные части приложения с привлечением других разработчиков;\n🔸Использовать cutting edge технологии, а также проверенные временем решения;\n🔸Находить решения для нестандартных задач.\nТребования:\n✔️Как минимум 3 года опыта разработки под IOS и опыта программирования на C++;\nЗнание C++ на уровне ведущего разработчика;\n✔️Знание шаблонов проектирования, опыт использования MVP и других архитектурных подходов;\n✔️Знание шаблонов проектирования пользовательских интерфейсов для iOS 9+ (Human Interface Guidelines);\n✔️Знание iOS SDK (UIKit, Foundation, CoreLocation и др.), общее понимание архитектуры iOS;\n✔️Знание особенностей UiKit: storyboards, autolayout, size classes;\n✔️Знание CocoaPods, FastLane, Xcode utils, code analyzers;\n✔️Опыт параллельного и многопоточного программирования, знание примитивов синхронизации (std::thread, std::mutex и тд);\n✔️Понимание циклов работы IOS-приложения и управления памятью;\n✔️Понимание принципов работы REST API, RPC, WS и клиент-серверных приложений;\n✔️Опыт работы с системами контроля версий (Git) и постановки задач (JIRA, TFS, Redmine);\n✔️Знание английского языка на уровне чтения документации и умения общаться в корпоративном чате.\n\nПлюсом будет:\n🔸Знание Objective-С и Swift;\n🔸Умение и понимание необходимости написания Unit tests;\n🔸Знание основ криптографии;\n🔸Опыт работы с bitcoin/etherium blockchain stack;\n🔸Наличие своих проектов на Github, в App Store и т.д.\n\n📲 Контакт : @valeritata","markup":[{"type":"hashtag","offset":38,"length":9,"data":"вакансия"},{"type":"hashtag","offset":48,"length":4,"data":"IOS"},{"type":"hashtag","offset":53,"length":10,"data":"developer"},{"type":"hashtag","offset":64,"length":9,"data":"удаленка"},{"type":"link","offset":101,"length":12,"data":"http://mycelium.com"},{"type":"handle","offset":2196,"length":11,"data":"valeritata"}],"date":"2020-06-26T15:40:14+00:00","link":"tg://resolve?domain=mobile_jobs&post=68768","tags":[{"name":"mobile"},{"name":"ios"},{"name":"uikit"},{"name":"cocoapods"},{"name":"xcode"},{"name":"rest"},{"name":"git"},{"name":"tfs"},{"name":"objective-c"},{"name":"swift"},{"name":"github"}],"cities":[],"allowsRemote":true}},{"node":{"__typename":"Job","id":"72082259968-1001054966032","title":"Android разработчик","text":"#вакансия: #android #middle\nГород : Томск\nФормат работы: офис, удаленно\nЗанятость : Полная\nЗарплатная вилка80 000- 180 000\n\nОписание компании\nМы Digital Nomads проектируем и разрабатываем мобильные приложения на  iOS, Android, так же открываем направление кроссплатформенной разработки на React Native и Flutter\n\nИщем android разработчика\n\nТребования:\n\n- Опыт разработки мобильных приложений от 1,5 лет.\n- Знание и понимание ООП и паттернов проектирования, СУБД;\n- Знание Java или Kotlin, Android SDK, API и Design Guidelines, SQLite;\n- Знание RxJava, Dagger2, Retrofit;\n- Уверенное знания Git / Bitbucket;\n- Android Framework;\n- Умение писать аккуратный читаемый код, а также разбираться в чужом коде;\n- Знание английского языка на уровне чтения технической документации;\n- Приветствуются завершенные проекты для ознакомления (Google Play + GitHub).\n- Сотрудничаем с разработчиками РФ.\n Условия\n- Возможность работать удаленно или в комфортном офисе.\n- У нас гибкий 8-часовой рабочий день, поэтому вы можете работать в наиболее продуктивное для себя время.\n- Оформление по ТК РФ.\n- Разнообразие задач, технологий, возможность участия в международных проектах и в проектах с крупными заказчиками, определяющими отрасль.\n- Еженедельные занятия английским языком в офисе.\n\nКонтакты: @Denis5726","markup":[{"type":"hashtag","offset":0,"length":9,"data":"вакансия"},{"type":"hashtag","offset":11,"length":8,"data":"android"},{"type":"hashtag","offset":20,"length":7,"data":"middle"},{"type":"handle","offset":1281,"length":10,"data":"Denis5726"}],"date":"2020-06-26T10:30:10+00:00","link":"tg://resolve?domain=mobile_jobs&post=68743","tags":[{"name":"mobile"},{"name":"android"},{"name":"ios"},{"name":"reactjs"},{"name":"flutter"},{"name":"java"},{"name":"kotlin"},{"name":"sqlite"},{"name":"git"},{"name":"playframework"},{"name":"github"},{"name":"react-native"}],"cities":[{"code":"tomsk"}],"allowsRemote":true}},{"node":{"__typename":"Job","id":"72048705536-1001054966032","title":"Android разработчик","text":"‼️Вакансия Senior Android⁢ Developer‼️\n#android #developer #вакансия #удаленка\nВ команде Mycelium Wallet (mycelium.com) открыта #вакансия Senior Android⁢ Developer.\n💵З/П 3000-4000 USD по итогам собеседования.\nРабота удаленная 💻\n\nМы предлагаем:\n🔸Получить навыки и компетенции в одном из самых передовых и перспективных направлений финтех индустрии - blockchain;\n🔸Принять участие в разработке одного из самых популярных биткоин-кошельков в Google Play Store;\n🔸Работать в международной команде бок о бок с ведущими специалистами в индустрии;\n🔸Возможность профессионального карьерного роста и участия в разнообразных проектах компании.\n\nЧем предстоит заниматься:\n🔹Разрабатывать новые и развивать существующие мобильные сервисы компании на платформе Android;\n🔹Проектировать и разрабатывать большие функциональные части приложения с привлечением других программистов;\n🔹Использовать cutting edge технологии, а также проверенные временем решения.\n\nТребования:\n✔️Как минимум 3 года опыта разработки на Android;\n✔️Знание Java/Kotlin на уровне ведущего разработчика;\n✔️Знание шаблонов проектирования, опыт использования MVP и других архитектурных подходов;\n✔️Опыт параллельного и многопоточного программирования;\n✔️Понимание циклов работы Android-приложения и управления памятью;\n✔️Опыт разработки пользовательских интерфейсов на платформе Android. \n✔️Знание Android Design Principles;\n✔️Знание и умение использовать различные механизмы взаимодействий между приложениями, предоставляемые в рамках Android SDK;\n✔️Понимание принципов работы REST API, WS, RPC и клиент-серверных приложений;\n✔️Знание английского языка на уровне чтения документации и умения общаться в корпоративном чате.\n\nПлюсом будет:\n➕Умение и понимание необходимости написания Unit tests;\n➕Знание основ криптографии;\n➕Опыт работы с bitcoin/etherium blockchain stack;\n➕Наличие своих проектов на Github, в Google Play и т.д.\n\n📲Контакт: @valeritata","markup":[{"type":"hashtag","offset":39,"length":8,"data":"android"},{"type":"hashtag","offset":48,"length":10,"data":"developer"},{"type":"hashtag","offset":59,"length":9,"data":"вакансия"},{"type":"hashtag","offset":69,"length":9,"data":"удаленка"},{"type":"link","offset":106,"length":12,"data":"http://mycelium.com"},{"type":"hashtag","offset":128,"length":9,"data":"вакансия"},{"type":"handle","offset":1900,"length":11,"data":"valeritata"}],"date":"2020-06-25T18:53:54+00:00","link":"tg://resolve?domain=mobile_jobs&post=68711","tags":[{"name":"mobile"},{"name":"android"},{"name":"playframework"},{"name":"java"},{"name":"kotlin"},{"name":"rest"},{"name":"github"}],"cities":[],"allowsRemote":true}}]}}},"context":{}}