{"hash":"f34fd2c444a074f4e0e67d525015a008ef8e766f","data":{"records":{"id":"kafka","name":"kafka","belongsTo":{"totalCount":55,"pageInfo":{"totalPages":6,"currentPage":2},"edges":[{"node":{"__typename":"Job","id":"1425014784-1001091028994","title":"Java разработчик","text":"#java #вакансия #Москва #fulltime #middle #senior \nГород и адрес офиса: Москва, между метро Нагатинская и Тульская, мцк Верхние котлы \nФормат работы: офис\nЗанятость: полная\nОплата: 180-300 тыс. рублей\n\nОписание вакансии:\nКоманда Sber Product Catalog  ищет сильного Java-разработчика!🙌\nПроект Product Catalog-это облачное решение, которое позволяет бизнесу вести все свои продукты (карты, вклады, продукты партнеров и и.п) в едином месте, гибко управлять всеми элементами 4P (product,price, promotion, place) и мгновенно выводить все изменения на рынок. Архитектура системы состоит из 11 модулей, половина из них в Production, другая половина требует проектирования и разработки. Продукт активно развивается, поэтому мы хотим усилить нашу команду. От нас вы получите опыт и развитие компетенций, амбициозные задачи, карьерный рост и открытость к инновациям!\nСтек: Spring core/Security/Batch/Rest/HateOAS, ABACUSES,BPM,Versioning, Hibernate Envers/ORM/OGM, Apache Kafka, Jasper reports, Oracle/PostgreeSQL.\nПроцесс разработки : Scrum, Jira, Gitflow,Devops до Production (переход на OpenShift)\n-Оформление ТК РФ;\n     -ДМС;\n     - Белая заработная плата (оклад + годовая премия);\n     -Возможность обучения за счет компании;\n     -   Льготное кредитование;\n      -Бесплатный тренажерный зал на территории офиса;\n       - корпоративная жизнь и спортивные мероприятия;\n       -возможность карьерного роста.\n\nЖдём Вас в нашей команде!\n@TaliaHR","markup":[{"type":"hashtag","offset":0,"length":5,"data":"java"},{"type":"hashtag","offset":6,"length":9,"data":"вакансия"},{"type":"hashtag","offset":16,"length":7,"data":"Москва"},{"type":"hashtag","offset":24,"length":9,"data":"fulltime"},{"type":"hashtag","offset":34,"length":7,"data":"middle"},{"type":"hashtag","offset":42,"length":7,"data":"senior"},{"type":"handle","offset":1430,"length":8,"data":"TaliaHR"}],"date":"2020-04-07T14:08:33+00:00","link":"tg://resolve?domain=jvmjobs&post=1359","tags":[{"name":"java"},{"name":"jvm"},{"name":"spring"},{"name":"batch"},{"name":"rest"},{"name":"hibernate"},{"name":"orm"},{"name":"apache"},{"name":"kafka"},{"name":"oracle"}],"cities":[{"code":"moscow"}],"allowsRemote":false}},{"node":{"__typename":"Job","id":"98126790656-1001089317451","title":"Qa engineer","text":"#вакансия #москва #полнаязанятость #qaengineer\nКомпания: #Mетрквадратный ( https://m2.ru )\nЛокация: м.Белорусская (в шаге от метро) \nЗ/п: от 120к - 230к на руки\nКонтакты: @maxdmitrov\n\nЭто платформа, на которой физические лица смогут в режиме одного окна подобрать объект недвижимости, оформить на него ипотеку, произвести электронную регистрацию, сделать безопасный расчет не посещая банки и воспользоваться дополнительными услугами (страхование, дизайн, ремонт). \n\nНаш стэк:\n• Java\n • Node.js\n • React, TypeScript\n • Kafka, ElasticSearch, gRPC\n • Docker\n\nЧем предстоит заниматься:\n • анализировать и тестировать требования к разрабатываемым приложениям;\n • писать приемочные критерии к пользовательским историям;\n • проводить функциональное, регрессионное и smoke тестирование;\n • заниматься задачами по автоматизации тестирования.\n\nЧего мы ждем:\n • глубокое понимание процессов тестирования и разработки ПО;\n • опыт интеграционного тестирования:\n    - системная интеграция;\n    - компонентная интеграция\n • опыт тестирования АРI;\n • опыт автоматизации тестирования на любом стеке.\n\nБудет плюсом\n • опыт исследовательского тестирования;\n • опыт тестирования ПО с микросервисной архитектурой.\n\nМы предлагаем:\n • белая конкурентная ЗП, официальное оформление;\n • гибкий график работы, возможность выбора рабочего оборудования;\n • ДМС, компенсация фитнеса, льготная ставка по ипотеке;\n • комфортный офис в БЦ «Белая площадь» (минута от метро): лаундж-зоны, бариста, фрукты.","markup":[{"type":"hashtag","offset":0,"length":9,"data":"вакансия"},{"type":"hashtag","offset":10,"length":7,"data":"москва"},{"type":"hashtag","offset":18,"length":16,"data":"полнаязанятость"},{"type":"hashtag","offset":35,"length":11,"data":"qaengineer"},{"type":"hashtag","offset":57,"length":15,"data":"Mетрквадратный"},{"type":"link","offset":75,"length":13,"data":"https://m2.ru"},{"type":"handle","offset":171,"length":11,"data":"maxdmitrov"},{"type":"bold","offset":465,"length":11,"data":""},{"type":"bold","offset":556,"length":26,"data":""},{"type":"bold","offset":833,"length":15,"data":""},{"type":"bold","offset":1083,"length":14,"data":""},{"type":"bold","offset":1192,"length":16,"data":""}],"date":"2020-04-07T11:57:25+00:00","link":"tg://resolve?domain=qa_jobs&post=93581","tags":[{"name":"qa"},{"name":"java"},{"name":"nodejs"},{"name":"reactjs"},{"name":"typescript"},{"name":"kafka"},{"name":"elasticsearch"},{"name":"docker"}],"cities":[{"code":"moscow"}],"allowsRemote":false}},{"node":{"__typename":"Job","id":"1974468608-1001134745498","title":"Devops engineer","text":"#вакансия #fulltime #Москва #devops\nSenior devops engineer\nМосква, м. Павелецкая. Работа в офисе. Полная занятость.\nЗарплатная вилка: от 200 до 300 тр net, все официально, по ТК РФ.\nОтличный соц пакет. \n \nИщем опытного специалиста devops. Нужен опыт с ansible, kubernetes, debian, mysql, docker, nginх, python. Желательно: kafka, clickhouse и опыт в финтех 🙂\nЭто будет работа в команде.\n \nКомпания: Криптовалютная биржа Exmo (https://exmo.me) зарегистрирована в Великобритании, офисы компании находятся в Лондоне, Москве, Курске, Киеве и Стамбуле. \nКонтакты: @Sofiyka\n\n—\n\n👉 Обсуждение вакансии в чате @devops_jobs","markup":[{"type":"hashtag","offset":0,"length":9,"data":"вакансия"},{"type":"hashtag","offset":10,"length":9,"data":"fulltime"},{"type":"hashtag","offset":20,"length":7,"data":"Москва"},{"type":"hashtag","offset":28,"length":7,"data":"devops"},{"type":"link","offset":427,"length":15,"data":"https://exmo.me"},{"type":"handle","offset":560,"length":8,"data":"Sofiyka"},{"type":"handle","offset":603,"length":12,"data":"devops_jobs"}],"date":"2020-04-07T05:05:17+00:00","link":"tg://resolve?domain=devops_jobs_feed&post=1883","tags":[{"name":"dotnet"},{"name":"ansible"},{"name":"kubernetes"},{"name":"debian"},{"name":"mysql"},{"name":"docker"},{"name":"python"},{"name":"kafka"}],"cities":[{"code":"moscow"}],"allowsRemote":false}},{"node":{"__typename":"Job","id":"1420820480-1001091028994","title":"Java разработчик","text":"Вакансия: #Java #TeamLead                                           \nКомпания: #Утконос                                                                  \nЛокация: #Москва                                                                         \nЗ/п: 320 000 Net                                                                             \nКонтакт: @RecruiterTatianaK                                                   \nJava TeamLead в Утконос Онлайн\n📍Наш проект:\nВ компании разрабатывается комплексная система по управлению складом. Систему пишем сами «с нуля», на микросервисной архитектуре\n📍Что нужно делать?   \nУправление командой разработки   \nРазработка алгоритмов по оптимизации хранения и комплектации                                                                                       \nУчастие в проработке архитектурных решений                   \n📍Наш стек:\n Java 11, Spring 5, Kubernetes, ELK, Grafana, Prometheus, Kafka                                                                                               \n📍Что предлагаем?                                                                        \nОформление по ТК РФ, ДМС   \nГибкий график                                                                     \nКорпоративные скидки на utkonos.ru, tui.ru, фитнес, кино и др.                                                                                      \nОфис - 10 минут  от м. Краснопресненская/ м.Улица 1905 года","markup":[{"type":"hashtag","offset":10,"length":5,"data":"Java"},{"type":"hashtag","offset":16,"length":9,"data":"TeamLead"},{"type":"hashtag","offset":79,"length":8,"data":"Утконос"},{"type":"hashtag","offset":163,"length":7,"data":"Москва"},{"type":"handle","offset":347,"length":18,"data":"RecruiterTatianaK"},{"type":"link","offset":1254,"length":10,"data":"http://utkonos.ru"},{"type":"link","offset":1266,"length":6,"data":"http://tui.ru"}],"date":"2020-04-06T14:27:06+00:00","link":"tg://resolve?domain=jvmjobs&post=1355","tags":[{"name":"java"},{"name":"jvm"},{"name":"dotnet"},{"name":"spring"},{"name":"kubernetes"},{"name":"kafka"}],"cities":[{"code":"moscow"}],"allowsRemote":false}},{"node":{"__typename":"Job","id":"1973420032-1001134745498","title":"Devops инженер","text":"#вакансия #devops #НижнийНовгород \nВакансия: DevOps \nГород: Нижний Новгород \nФормат работы: офис, но можно и на удаленке \nЗанятость: полная, можно частично. Готовы обсуждать \nЗарплатная вилка: от 110 до 170 (можно обсуждать)  \n\nЗадачи:\nСоздание и поддержка CI/CD инфраструктуры доставки кода проектов на тестовые и прод окружения;\nУчастие в поиске и внедрении новых технологий, необходимых для стабильной работы и развития инфраструктуры проектов;\nРазвертывание, масштабирование и поддержка инфраструктуры окружений;\nНаписание ролей, playbook, модулей ansible для обеспечения повторяемости инфраструктуры на разных окружениях.\n\nОжидаем:\nОпыт работы с конфигурацией (ansible);\nОпыт работы с docker;\nАдминистрирование Linux на уровне решения сложных задач (Bonding, VLAN, system tuning, etc.);\nОпыт работы с базами данных (PostgreSQL, noSQL);\nПонимание работы систем виртуализации (qemu+KVM);\nПонимание работы сетей передачи данных и модели OSI;\nОпыт администрирования open source приложений (Nginx, PostgreSQL, Redis, etc.);\nБудет плюсом:\nОпыт работы со стеком Hadoop (Spark, HBase, Kafka, Zookeeper)\nОпыт работы с mesos\n\nЕсть: \nУникальные проекты\nДМС, новый офис, обучение за счет компании, по ТК, белая ЗП. \n\nКоманда: Первый ОФД \n\nКонтакты: @IT_HR_OFD, askorobogatov@energocomm.ru\n\n—\n\n👉 Обсуждение вакансии в чате @devops_jobs","markup":[{"type":"hashtag","offset":0,"length":9,"data":"вакансия"},{"type":"hashtag","offset":10,"length":7,"data":"devops"},{"type":"hashtag","offset":18,"length":15,"data":"НижнийНовгород"},{"type":"handle","offset":1242,"length":10,"data":"IT_HR_OFD"},{"type":"link","offset":1254,"length":27,"data":"mailto:askorobogatov@energocomm.ru"},{"type":"handle","offset":1316,"length":12,"data":"devops_jobs"}],"date":"2020-04-06T14:06:59+00:00","link":"tg://resolve?domain=devops_jobs_feed&post=1882","tags":[{"name":"ansible"},{"name":"docker"},{"name":"linux"},{"name":"postgresql"},{"name":"nosql"},{"name":"nginx"},{"name":"redis"},{"name":"hadoop"},{"name":"hbase"},{"name":"kafka"}],"cities":[{"code":"nizhny-novgorod"}],"allowsRemote":false}},{"node":{"__typename":"Job","id":"1972371456-1001134745498","title":"Devops инженер","text":"#вакансия #сбербанк #DevOps Заработная плата 180-220 net. \nЗаинтересованным прошу писать в личку @nas_vas\n\nКто мы?\n\nМы новая группа Agile команд, которая развивает риск-продукты экосистемы Сбербанка. Через API и фронт системы мы предоставляем партнерам и клиентам Банка рейтинги физических и юридических лиц, отчеты и уведомления по кредитной истории.\nМы приглашаем амбициозного инженера, который готов оперативно выстроить DevOps pipeline по нашим новым продуктам в соответствии с лучшими практиками и стандартами.\n\n\nDevOps инженер\n\n Чем предстоит заниматься:\n• Организация DevOps pipeline (CI\\CD) для новых продуктов\n• Настройка, диагностика и использование инструментов автоматизации:\nсборка дистрибутива, Unit-тесты, публикация дистрибутива, доставка и развертывание дистрибутива на среды, работа с результатами анализа кода на качество и безопасность\n• Чтение и понимание реализованных job’ов и pipeline\n• Сопровождение непромышленных стендов приложений (Dev, Test): анализ доступности, мониторинг, применение инструментов обезличивания, разбор дефектов и их локализация/устранение совместно с командами разработки\n• Консультация разработчиков и администраторов по лучшим практикам DevOps\nЧто ожидаем от тебя:\n• Высшее техническое образование\n• Хорошие коммуникационные навыки. Умение работать в команде\n• Опыт работы от 1 года\n• Опыт построения CI\\CD pipeline\n• Опыт работы с инструментами DevOps (Jenkins, Nexus, BitBucket, Ansible);\n• Знание Groovy;\n• Владение SQL, понимание принципов работы RDBMS (PostgreSQL);\n• Опыт поддержки серверных ОС семейства Linux (RHEL);\n\nДополнительным плюсом будет:\n• Опыт работы c Docker контейнерами\n• Опыт работы с SonarQube, Kafka, GridGain, Oracle, Nginx, JBoss/WildFly, Jira, Confluence\n• Знание Java.\n\n—\n\n👉 Обсуждение вакансии в чате @devops_jobs","markup":[{"type":"hashtag","offset":0,"length":9,"data":"вакансия"},{"type":"hashtag","offset":10,"length":9,"data":"сбербанк"},{"type":"hashtag","offset":20,"length":7,"data":"DevOps"},{"type":"handle","offset":97,"length":8,"data":"nas_vas"},{"type":"handle","offset":1781,"length":12,"data":"devops_jobs"}],"date":"2020-04-06T13:26:30+00:00","link":"tg://resolve?domain=devops_jobs_feed&post=1881","tags":[{"name":"dotnet"},{"name":"jenkins"},{"name":"ansible"},{"name":"groovy"},{"name":"sql"},{"name":"postgresql"},{"name":"linux"},{"name":"docker"},{"name":"sonarqube"},{"name":"kafka"},{"name":"oracle"},{"name":"nginx"},{"name":"jboss"},{"name":"java"}],"cities":[],"allowsRemote":false}},{"node":{"__typename":"Job","id":"1968177152-1001134745498","title":"Devops engineer","text":"#вакансия #DevOps #fulltime #киев\n\nВакансия: DevOps engineer\nКомпания: Luxena\nГород: Киев, метро Черниговская\nФормат работы: офис, remote - возможен для отдельных дней.\nЗанятость: полная\nЗарплата : от $2500 до $5000 по уровню квалификации.\nПомощь в релокации.\n\nО компании:\n\nLuxena - продуктовая IT-компания полного цикла, предлагаем самореализацию на международных проектах Industry 4.0 в отличной профи-атмосфере с элементами гибкого графика. \n\nЭксперту в построении и управлении платформами разработки и внедрения ПО предлагаем должность DevOps Engineer. \n \nTechnology Stack: \n \nCloud Services \n  - Azure (in use) \n  - AWS \n  - Google \n  \nCI/CD \n  - Azure DevOps (in use) \n  - Jenkins \n  - GitLab \n  \nCluster Orchestration \n  - Docker Swarm (in use) \n  - Kubernetes \n  \nRDBMS \n  - PostgreSQL (in use) \n  - MS SQL \n  - Oracle \n  \nAnalytical Solutions \n  - Clickhouse (in use) \n  - Apache Spark (in use) \n  - Apache Flink \n  - Druid \n  - Pinot \n  - Presto \n  \nStreaming & Message Queues \n  - Apache Pulsar (in use) \n  - Apache Kafka \n  \nDeployment Automation \n  - Ansible \n  - Puppet \n  - Terraform \n  \nProxy & Load balancing \n  - HA proxy (in use) \n  - Nginx \n \nВ каждом виде необходимо иметь практический опыт в production не менее 2-х лет. Часть навыков может быть развита в ходе первого года работы.\n\nКонтакт: @special_forces_recruiter\n\n—\n\n👉 Обсуждение вакансии в чате @devops_jobs","markup":[{"type":"hashtag","offset":0,"length":9,"data":"вакансия"},{"type":"hashtag","offset":10,"length":7,"data":"DevOps"},{"type":"hashtag","offset":18,"length":9,"data":"fulltime"},{"type":"hashtag","offset":28,"length":5,"data":"киев"},{"type":"handle","offset":1314,"length":25,"data":"special_forces_recruiter"},{"type":"handle","offset":1374,"length":12,"data":"devops_jobs"}],"date":"2020-04-05T00:33:02+00:00","link":"tg://resolve?domain=devops_jobs_feed&post=1877","tags":[{"name":"cloud"},{"name":"azure"},{"name":"amazon-web-services"},{"name":"jenkins"},{"name":"gitlab"},{"name":"docker"},{"name":"kubernetes"},{"name":"postgresql"},{"name":"sql"},{"name":"oracle"},{"name":"apache"},{"name":"kafka"},{"name":"deployment"},{"name":"ansible"},{"name":"nginx"},{"name":"azure-devops"},{"name":"apache-spark"}],"cities":[{"code":"kiev"}],"allowsRemote":true}},{"node":{"__typename":"Job","id":"1417674752-1001091028994","title":"Java разработчик","text":"#java #middle #москва #офис #fulltime частично #remote \n\nКомпания: BPC, проект \"Рунет Бизнес Системы\"\nформат работы: офис\nзанятость: full time, есть возможность частично работать remote \nлокация: Москва, (м. Курская/Чкаловская) \nЗ/п: 150 - 200к Net \n\n🌏Компания \"Рунет Бизнес Системы\" входит в группу компаний BPC Банковские Технологии и специализируется на предоставлении услуг интернет-эквайринга.  \nКлиенты РБС - это крупнейшие банки и компании России: Сбербанк РФ, Альфа-Банк, Аэрофлот, Открытие, группа ВТБ и многие другие. На текущий момент у РБС полтора десятка экземпляров платёжного шлюза для банков, где топовые инстансы дают в среднем 250 транзакций в секунду. \n\nРебята постоянно развивают внутренние процессы, сохраняя гибкость в управлении растущим числом проектов. Код-ревью всех изменений, agile-подход к разработке (примерно Scrumban), continuous integration и автоматизация тестирования помогают им контролировать и синхронизировать работу команд разработки, тестирования и внедрения.\n\nВ данный момент команды в поисках Middle Java разработчиков, коллеги готов гибко рассматривать кандидатов с опытом от 2 лет. \n\n🔸Технологический стэк команды:\nJava 11 (Stream API), java.util.concurrent, Stream REST API, Spring (boot, MVC, JDBC), Hibernate, Gradle, Kafka, Git, Maven. \n\n🔹Взамен компания готова предоставить:\n- оформление трудовых отношений в соответствии с ТК РФ: \"белую\" конкурентоспособную зарплату, оплату больничных и отпусков;\n- ДМС, включая стоматологию, участие в программах корпоративного кредитования и страхования;\n- возможность карьерного роста, обучения в корпоративном Университете и посещения внешних тренингов;\n- гибкое начало рабочего дня и крутые корпоративные мероприятия;\n- комфортный офис в шаговой доступности от метро Курская/Чкаловская. Бонусом - красивый вид из окна, тишина, чай и сэндвичи, пятница – фруктовый день 🙂 \n\nКонтакты: \ne-mail: valeriya@luckyhunter.io\ntelegram: @sobolevavalery\nБуду рада ответить на все вопросы и рассказать подробнее о компании 😊","markup":[{"type":"hashtag","offset":0,"length":5,"data":"java"},{"type":"hashtag","offset":6,"length":7,"data":"middle"},{"type":"hashtag","offset":14,"length":7,"data":"москва"},{"type":"hashtag","offset":22,"length":5,"data":"офис"},{"type":"hashtag","offset":28,"length":9,"data":"fulltime"},{"type":"hashtag","offset":47,"length":7,"data":"remote"},{"type":"link","offset":1885,"length":23,"data":"mailto:valeriya@luckyhunter.io"},{"type":"handle","offset":1919,"length":15,"data":"sobolevavalery"}],"date":"2020-04-03T15:11:11+00:00","link":"tg://resolve?domain=jvmjobs&post=1352","tags":[{"name":"java"},{"name":"jvm"},{"name":"dotnet"},{"name":"rest"},{"name":"spring"},{"name":"jdbc"},{"name":"hibernate"},{"name":"gradle"},{"name":"kafka"},{"name":"git"},{"name":"maven"},{"name":"continuous-integration"},{"name":"spring-boot"}],"cities":[{"code":"moscow"}],"allowsRemote":true}},{"node":{"__typename":"Job","id":"1962934272-1001134745498","title":"Devops инженер","text":"#вакансия #DevOps #Москва #ivi\n\nЛокация: Москва, ст. м. Дмитровская\nФормат работы: офис (на время карантина - удаленка) \nЗанятость: полная\nЗарплатная вилка: от 180 000 до 250 000 руб. на руки.\n\nМы — команда эксплуатации сервиса ivi .\n\nРазыскиваем коллегу в команду для участия в настойке процессов, технических (CI/CD) и в части взаимодействия с коллегами. Активное участие в разворачивании и эксплуатации k8s .Помогаем командам разработки строить CI/CD-пайплайны . Некоторые из нас это делают в составе кросс-команд, другие помогают многим командам, оставшиеся обеспечивают всех нас необходимыми приложениями и инфраструктурой.\n\nУчим команды использовать контейнеры (docker) для подготовки разрабатываемых приложений, осваиваем использование k8s для оркестрации. Используем Ubuntu, Linux.\n\nХраним код и разрабатываем pipeline-ы с помощью gitlab+artifactory .\nДля мониторинга серверов и сервисов используем zabbix и statsd , заправляем grafana.\nНаши сервисы написаны на python, golang и немного php и java.\nЛюбим и активно используем jenkins для решения самых разнообразных задач.\nИспользуем много open source (и не только) приложений: nginx, redis, postgresql, mongodb, rabbitmq, clickhouse, openstack, gitlab, kafka, hdfs, jira , opennebula.\n\nЧто предстоит делать: \n- развитие и настройки процессов ci/cd;\n- планирование и участие в рефакторинге процессов, инфраструктуры, приложений;\n- сопровождение сервисов от разработки до эксплуатации, участие в эксплуатации;\n- доработка текущих и разработка новых сценариев конфигурирования серверов и приложений; \n- администрирование приложений по результатам выполненной работы подготовка документации, если необходимо. \n\nКак узнать что ты нам подходишь? \n- положительный и продолжительный опыт работы с CI/CD-системами (у нас gitlab и jenkins);\n- умение хорошо готовить docker; \n- опыт программирования на скриптовых языках (shell, python);\nопыт администрирования linux и приложение 5+;\n- понимание сетевых технологий TCP/IP; \n- опыт работы с системами управления версиями (git) и конфигурациями. \n\nСо своей стороны мы обещаем: \n- Офис в 5 минутах ходьбы от м. \"Дмитровская\";\n- У нас гибкий график, мы начинаем до 11 часов дня;\n- Трудоустройство по ТК РФ;\n- ДМС + стоматология после прохождения испытательного срока;\n- Подписка на ivi;\n- Пакет релокации для соискателей со всей России.\n\nОнлайн-кинотеатр ivi \nhttps://www.ivi.tv/\n\nБуду рада рассказать подробности, пишите в личку @daria144 или на почту dsereda@ivi.ru\n\n—\n\n👉 Обсуждение вакансии в чате @devops_jobs","markup":[{"type":"hashtag","offset":0,"length":9,"data":"вакансия"},{"type":"hashtag","offset":10,"length":7,"data":"DevOps"},{"type":"hashtag","offset":18,"length":7,"data":"Москва"},{"type":"hashtag","offset":26,"length":4,"data":"ivi"},{"type":"link","offset":2354,"length":19,"data":"https://www.ivi.tv/"},{"type":"handle","offset":2424,"length":9,"data":"daria144"},{"type":"link","offset":2447,"length":14,"data":"mailto:dsereda@ivi.ru"},{"type":"handle","offset":2496,"length":12,"data":"devops_jobs"}],"date":"2020-04-03T12:38:12+00:00","link":"tg://resolve?domain=devops_jobs_feed&post=1872","tags":[{"name":"docker"},{"name":"ubuntu"},{"name":"linux"},{"name":"gitlab"},{"name":"python"},{"name":"go"},{"name":"php"},{"name":"java"},{"name":"jenkins"},{"name":"nginx"},{"name":"redis"},{"name":"postgresql"},{"name":"mongodb"},{"name":"rabbitmq"},{"name":"kafka"},{"name":"hdfs"},{"name":"shell"},{"name":"git"}],"cities":[{"code":"moscow"}],"allowsRemote":true}},{"node":{"__typename":"Job","id":"1414529024-1001091028994","title":"Java разработчик","text":"#senior #java #architect #москва \nГород: Москва\nФормат работы: офис\nЗанятость: Полная\nЗарплатная вилка: от 220 000 до 260 000\nКомпания «Performance Lab» — одна из лидирующих ИТ-компаний в России ищет в свою команду Архитектора Java на направление custom development. Нам нужен эксперт, которому интересно заниматься проектированием и разработкой, быть ответственным за результаты работы.\n❗️Обязанности:\n-Проводить анализ функциональных и нефункциональных требований заказчика совместно с группой аналитики.\n-Разрабатывать концепции, архитектурные решения и подходы к реализации.\n-Взаимодействовать с заказчиком, представлять и защищать свои архитектурные решения.\n-Быть лидером в проектной команде (планировать работу команды, проводить декомпозицию задач, отслеживать прогресс по выполнению задач, поддерживать рабочую атмосферу в команде).\n-Полностью отвечать за техническую составляющую и качество проекта.\n-Обеспечивать прозрачность и прогнозируемость работы проектной команды, отвечать за своевременный выпуск релизов.\n-Самому участвовать в разработке back-end’а, проводить code-review.\n-Принимать участие в согласовании и разработке технической документации.\n❗️Требования:\n-Обладает большим опытом backend-разработки на Java, уверенно владеет Java 8 и выше.\n-Отлично знает Spring (Core, Boot, MVC, JPA, Security) и Hibernate.\n-Отлично знает SQL и хотя бы одну реляционную СУБД.\n-Разбирается в технологиях: REST, gRPC, GraphQL, SOAP, XML, JSON, JWT, OAuth.\n-Имеет опыт разработки на микросервисной архитектуре, понимает ее плюсы и минусы, понимает как организовать взаимодействия микросервисов.\n-Работал с Apache Kafka, Rabbit MQ.\n-Уверенно владеет Git.\n-Уже управлял командой разработки от 3-х человек.\n-Может быть лидером в команде, вести за собой людей.\n❗️Будет плюсом:\n-Немного умеет в devops (построить CI/CD пайплайн, оптимизировать сборку docker-контейнеров, настроить nginx и тд).\n-Знает JavaScript и знаком с современными Frontend-фреймворками (если знаком с React, то совсем хорошо).\n-Умеет налаживать отношения с бизнес-заказчиками, умеет договариваться и искать компромиссы.\n❗️Условия:\n-Официальное трудоустройство по ТК, дополнительные выходные.\n-Белая зарплата.\n-Место работы: отличный офис на м. Парк победы, БЦ «Барклай плаза».\n 📩Контакты: @polinakokina","markup":[{"type":"hashtag","offset":0,"length":7,"data":"senior"},{"type":"hashtag","offset":8,"length":5,"data":"java"},{"type":"hashtag","offset":14,"length":10,"data":"architect"},{"type":"hashtag","offset":25,"length":7,"data":"москва"},{"type":"handle","offset":2262,"length":13,"data":"polinakokina"}],"date":"2020-04-02T14:38:38+00:00","link":"tg://resolve?domain=jvmjobs&post=1349","tags":[{"name":"java"},{"name":"jvm"},{"name":"spring"},{"name":"jpa"},{"name":"hibernate"},{"name":"sql"},{"name":"rest"},{"name":"graphql"},{"name":"soap"},{"name":"xml"},{"name":"json"},{"name":"jwt"},{"name":"oauth"},{"name":"apache"},{"name":"kafka"},{"name":"rabbitmq"},{"name":"git"},{"name":"docker"},{"name":"nginx"},{"name":"javascript"},{"name":"reactjs"}],"cities":[{"code":"moscow"}],"allowsRemote":false}}]}}},"context":{}}