{"hash":"f34fd2c444a074f4e0e67d525015a008ef8e766f","data":{"records":{"id":"soap","name":"soap","belongsTo":{"totalCount":20,"pageInfo":{"totalPages":2,"currentPage":1},"edges":[{"node":{"__typename":"Job","id":"24359469056-1001075660570","title":"Php разработчик","text":"Ищем!\nPHP-разработчик fullstack удаленно\n\n#вакансия #удаленка #штат #PHP #fullstack\n\nЗАДАЧИ:\n🔹 разработка графических интерфейсов к информационным системам и сервисам компании;\n🔹 разработка микросервисов обработки сообщений и сбор статистики в БД;\n🔹 участие в проектировании программных решений и обсуждении архитектурных решений;\n🔹 работы по интеграции и разработке API взаимодействия сервисов как внутри компании, так и с партнерами.\n\nТРЕБОВАНИЯ:\n 🔹 Самостоятельный разработчик с отличным знанием: PHP, js, Ajax, jQuery, HTML, CSS;\n 🔹 MySQL, PostgreSQL, ClickHouse, Redis, MongoDB;\n 🔹 Linux;\n 🔹XML, JSON, SOAP, RabbitMQ;\n 🔹Symfony, Yuii, Laravel, Zend;\n 🔹 Bootstrap;\n 🔹 Средства визуализации данных, например, d3.js.\n\nБыло бы неплохо: \n🔹знание Nodejs, Python, LUA.\n🔹 опыт разработки мобильных приложений Android, IOS\n\nУСЛОВИЯ:\n🔹 работа в штате компании (основной профиль – разработка высокотехнологичных маркетинговых рассылок и чат-ботов);\n🔹 удаленная работа 5/2 с 10 до 19 (MSK);\n🔹ЗП 70-90k (обсуждается с успешными кандидатами).\n\nПишите сюда: @abezpalova","markup":[{"type":"bold","offset":6,"length":36,"data":""},{"type":"hashtag","offset":42,"length":9,"data":"вакансия"},{"type":"hashtag","offset":52,"length":9,"data":"удаленка"},{"type":"hashtag","offset":62,"length":5,"data":"штат"},{"type":"hashtag","offset":68,"length":4,"data":"PHP"},{"type":"hashtag","offset":73,"length":10,"data":"fullstack"},{"type":"bold","offset":85,"length":8,"data":""},{"type":"bold","offset":441,"length":12,"data":""},{"type":"bold","offset":833,"length":9,"data":""},{"type":"handle","offset":1064,"length":11,"data":"abezpalova"}],"date":"2020-04-10T09:33:14+00:00","link":"tg://resolve?domain=php_jobs&post=23231","tags":[{"name":"php"},{"name":"ajax"},{"name":"jquery"},{"name":"html"},{"name":"css"},{"name":"mysql"},{"name":"postgresql"},{"name":"redis"},{"name":"mongodb"},{"name":"linux"},{"name":"xml"},{"name":"json"},{"name":"soap"},{"name":"rabbitmq"},{"name":"symfony"},{"name":"laravel"},{"name":"zend-framework"},{"name":"bootstrap"},{"name":"nodejs"},{"name":"python"},{"name":"lua"},{"name":"android"},{"name":"ios"}],"cities":[],"allowsRemote":true}},{"node":{"__typename":"Job","id":"98349088768-1001089317451","title":"Qa engineer","text":"#вакансия #QA #ручное #ФТ #Москва #офис \n\nВакансия: QA Engineer (функциональное)\nГород: Москва м. Технопарк \nЗарплата: от 100 000 рублей до 170 000 рублей на руки \nФормат: офис, полный день, полная занятость\nКомпания Innovative People \n\nПроекты в крупном банке с классной корпоративной культурой, гибким началом дня, крутыми продактами и лидами.\n\n🚀 Требования:\n• опыт в тестировании от 1,5 лет (понимать процесс тестирования, уметь писать тест-кейсы, используя техники тест дизайна)\n• нужна здоровая самостоятельность - каждую задачу вряд ли кто-то будет ставить, зачастую нужно самому понимать - что, как и когда тестировать, много договариваться, искать инфу, спрашивать\n\nУ идеального кандидата есть еще:\n• знание REST, опыт тестирования API\n• знание SOAP\n• знания SQL, опыт составления запросов средней сложности\n• опыт интеграционного тестирования от 3+ систем в интеграции\n• опыт работы по Scrum\n\n🚀 Надо будет:\n• разрабатывать планы тестирования\n• писать тест-кейсы\n• искать дефекты и описывать их в баг-трекинговой системе\n• взаимодействовать с разработчиками\n• контролировать устранение ошибок;\n•  анализировать и оптимизировать процесс тестирования\n•  составлять отчетность\n\n🚀 Предлагаем:\n• все по ТК РФ\n• ДМС со стоматологией, программа лояльности\n• Macbook \n• гибкое начало дня, адекватное руководство\n(да, сейчас мы на удаленке)\n• большое комьюнити, классные команды\n• помогаем с релокацией\n\nРезюме и вопросы @Priboch","markup":[{"type":"hashtag","offset":0,"length":9,"data":"вакансия"},{"type":"hashtag","offset":10,"length":3,"data":"QA"},{"type":"hashtag","offset":14,"length":7,"data":"ручное"},{"type":"hashtag","offset":22,"length":3,"data":"ФТ"},{"type":"hashtag","offset":26,"length":7,"data":"Москва"},{"type":"hashtag","offset":34,"length":5,"data":"офис"},{"type":"bold","offset":350,"length":11,"data":""},{"type":"bold","offset":675,"length":32,"data":""},{"type":"bold","offset":906,"length":11,"data":""},{"type":"bold","offset":1188,"length":11,"data":""},{"type":"handle","offset":1423,"length":8,"data":"Priboch"}],"date":"2020-04-10T08:59:36+00:00","link":"tg://resolve?domain=qa_jobs&post=93793","tags":[{"name":"qa"},{"name":"rest"},{"name":"soap"},{"name":"sql"}],"cities":[{"code":"moscow"}],"allowsRemote":false}},{"node":{"__typename":"Job","id":"66367520768-1001054966032","title":"Ios developer","text":"#вакансия #ios #swift \n\nВсем привет! \n\nОткрыта позиция на должность: \n🔥Middle IOS developer🔥 \n\nКрупнейший европейский банк\n\nАдрес: м. Войковская\n\nФормат работы: офис\nЗанятость: полня\n\nЗарплатная вилка от 150000 до 250000\n\nТебе предстоит:\n\n• Разрабатывать мобильное приложение; \n• Разрабатывать нативные iOS приложения (Swift); \n• Разработка интеграции с серверным APls (REST, SOAP); \n\nЖдем от тебя:\n• Опыт работы от 2х лет;\n• Опыт работы от 1 года на Swift;\n• Уверенное знание IOS SDK, XCode;\n\nМожешь рассчитывать на:\n• Реализацию своего профессионального потенциала в крупном современном Банке;\n• Привлекательные финансовые условия;\n• Дополнительные интересные бенефиты;\n\nКонтакт @vika_nkl","markup":[{"type":"hashtag","offset":0,"length":9,"data":"вакансия"},{"type":"hashtag","offset":10,"length":4,"data":"ios"},{"type":"hashtag","offset":15,"length":6,"data":"swift"},{"type":"handle","offset":683,"length":9,"data":"vika_nkl"}],"date":"2020-04-09T14:19:50+00:00","link":"tg://resolve?domain=mobile_jobs&post=63293","tags":[{"name":"mobile"},{"name":"ios"},{"name":"swift"},{"name":"rest"},{"name":"soap"},{"name":"xcode"}],"cities":[],"allowsRemote":false}},{"node":{"__typename":"Job","id":"98270445568-1001089317451","title":"Qa инженер","text":"#вакансия #Москва #QA #работа\n❗️Команда Тинькофф ищет талантливых тестировщиков❗️\nА у нас есть позиции в команде, которая разрабатывает продукты для бизнеса, команде, которая разрабатывает мобильное приложение для физ.лиц (он же SuperApp) , а еще есть вакансии в Тинькофф Инвестиции, в Тинькофф Мобайл – все они ищут тестировщика мобильных приложений. \n\n 📍Основные задачи:\n-Проведение функционального, регрессионного, smoke тестирования мобильных приложений на 3-х платформах (iOS, Android, Windows)\n-Использование инструментов разработчиков (Android Studio, Xcode, ITools)\n-Участие в процессе автоматизации: составление тест-кейсов и оценка результатов запуска автокейсов, их актуализация\n-Поддержка/развитие решений автоматизированного тестирования мобильного банка Тинькофф на платформе iOS (swift, xCode, XCTest) / Android (Java, JUnit, Espresso, UIAutomator)\n-Автоматизация регресса мобильного банка Тинькофф                                                                                                                                                                 \n📍Наши ожидания от кандидата:\n-Опыт работы в качестве мобильного тестировщика от 1 года\n-Понимание рынка мобильных технологий (ОС, оболочки и т.д.)\n-Понимание процесса интеграционного тестирования;принципа работы REST и SOAP API\n-Опыт использования сниффера трафика (Charles, Fiddler)\n-Знание SQL на уровне простых запросов\n\n✅Мы предлагаем:\n•Профессиональное развитие: проводим митапы, тренинги и мастер-классы; огромная tech-библиотека\n•Бесплатные и вкусные обеды в уютном Tinkoff.Сafe; чай, кофе и фрукты в кухнях на каждом этаже офиса\n•Заботу о здоровье: полис ДМС и страховку от несчастных случаев, льготные условия страхования для близких\n•Занятия в бесплатном фитнес-зале «Tinkoff.Sport»: есть тренажеры, групповые программы с крутыми тренерами, сауна. Устраиваем турниры по футболу, волейболу и хоккею\n•Работу в комфортном офисе с современной техникой и панорамным видом на город в 5 минутах пешком от м. Водный стадион. Для тех, кто за рулем, есть удобная парковка\n•Заработная плата от 130K, обсуждаем с каждым индивидуально\n\n📌Резюме и вопросы можете присылать на почту a.a.sklyarova@tinkoff.ru","markup":[{"type":"hashtag","offset":0,"length":9,"data":"вакансия"},{"type":"hashtag","offset":10,"length":7,"data":"Москва"},{"type":"hashtag","offset":18,"length":3,"data":"QA"},{"type":"hashtag","offset":22,"length":7,"data":"работа"},{"type":"link","offset":2155,"length":24,"data":"mailto:a.a.sklyarova@tinkoff.ru"}],"date":"2020-04-09T08:36:28+00:00","link":"tg://resolve?domain=qa_jobs&post=93718","tags":[{"name":"qa"},{"name":"ios"},{"name":"android"},{"name":"windows"},{"name":"xcode"},{"name":"swift"},{"name":"java"},{"name":"junit"},{"name":"rest"},{"name":"soap"},{"name":"sql"},{"name":"android-studio"}],"cities":[{"code":"moscow"}],"allowsRemote":false}},{"node":{"__typename":"Job","id":"98267299840-1001089317451","title":"Qa инженер","text":"#вакансия #москва #fulltime #фуллтайм #офис #тестировщик #qa \n\nОнлайн-кинотеатр ivi\nСпециалист по тестированию клиентских приложений\nот 70 т.р. на руки \n\nОбязанности:\n• Тестировать приложения (веб, iOS, Android, Smart TV);\n• Дополнять и обновлять сценарии тестирования;\n• Функционально тестировать продукт по написанным сценариям;\n• Составлять отчеты о найденных ошибках в баг-трекере.\n\nТребования:\n• Наличие опыта в тестировании, интерес к работе тестировщика; \n• Понимание процессов dev и qa;\n• Понимание принципов работы web-сервисов (REST/SOAP);\n• Знание форматов обмена данными JSON/XML;\n• Умение понимать описания требований к функциям системы;\n• Умение составлять тест-кейсы по функционалу приложения;\n• Умение находить и документировать ошибки (опыт работы с системами баг-трекинга, системами управления требованиями).\n• Опыт работы в командной строке *nix и с Charles/Fiddler будут плюсом.\n\nУсловия:\n• Офис в 5 минутах ходьбы от м. \"Дмитровская\";\n• У нас гибкий график, мы начинаем до 11 часов дня;\n• Трудоустройство по ТК РФ;\n• ДМС + стоматология после прохождения испытательного срока;\n• Подписка на ivi;\n• Пакет релокации для соискателей со всей России.\n\nПишите @daria144, на почту dsereda@ivi.ru или откликайтесь здесь https://hh.ru/vacancy/35358938","markup":[{"type":"hashtag","offset":0,"length":9,"data":"вакансия"},{"type":"hashtag","offset":10,"length":7,"data":"москва"},{"type":"hashtag","offset":18,"length":9,"data":"fulltime"},{"type":"hashtag","offset":28,"length":9,"data":"фуллтайм"},{"type":"hashtag","offset":38,"length":5,"data":"офис"},{"type":"hashtag","offset":44,"length":12,"data":"тестировщик"},{"type":"hashtag","offset":57,"length":3,"data":"qa"},{"type":"bold","offset":62,"length":22,"data":""},{"type":"bold","offset":154,"length":13,"data":""},{"type":"bold","offset":387,"length":12,"data":""},{"type":"bold","offset":900,"length":9,"data":""},{"type":"handle","offset":1174,"length":9,"data":"daria144"},{"type":"link","offset":1194,"length":14,"data":"mailto:dsereda@ivi.ru"},{"type":"link","offset":1232,"length":30,"data":"https://hh.ru/vacancy/35358938"}],"date":"2020-04-09T08:22:45+00:00","link":"tg://resolve?domain=qa_jobs&post=93715","tags":[{"name":"qa"},{"name":"ios"},{"name":"android"},{"name":"web"},{"name":"rest"},{"name":"soap"},{"name":"json"},{"name":"xml"}],"cities":[{"code":"moscow"}],"allowsRemote":false}},{"node":{"__typename":"Job","id":"98244231168-1001089317451","title":"Qa engineer","text":"#вакансия #QA #ручное #ФТ #Москва #офис \n\nВакансия: QA Engineer (функциональное)\nГород: Москва м. Технопарк \nЗарплата: от 100 000 рублей до 140 000 рублей на руки \nФормат: офис, полный день, полная занятость\nКомпания Innovative People \n\nПроекты в крупном банке с классной корпоративной культурой, гибким началом дня, адекватными продактами и лидами.\n\n✅ Требования:\n• опыт в тестировании от 1,5 лет (понимать процесс тестирования, уметь писать тест-кейсы, используя техники тест дизайна)\n• нужна здоровая самостоятельность - каждую задачу вряд ли кто-то будет ставить, зачастую нужно самому понимать - что, как и когда тестировать, много договариваться нужно ещё, искать инфу, спрашивать\n\nБудет плюсом:\n• знание REST, опыт тестирования API\n• знание SOAP\n• знания SQL, опыт составления запросов средней сложности\n• опыт интеграционного тестирования от 3+ систем в интеграции\n• опыт работы по Scrum\n\n✅ Надо будет:\n• разрабатывать планы тестирования\n• писать тест-кейсы\n• искать дефекты и описывать их в баг-трекинговой системе\n• взаимодействовать с разработчиками\n• контролировать устранение ошибок;\n•  анализировать и оптимизировать процесс тестирования\n•  составлять отчетность\n\n✅ Предлагаем:\n• все по ТК РФ\n• ДМС со стоматологией, программа лояльности\n• Macbook \n• гибкое начало дня, адекватное руководство\n(да, сейчас мы на удаленке)\n• большое комьюнити, классные команды\n• помогаем с релокацией\n\nРезюме и вопросы @Priboch","markup":[{"type":"hashtag","offset":0,"length":9,"data":"вакансия"},{"type":"hashtag","offset":10,"length":3,"data":"QA"},{"type":"hashtag","offset":14,"length":7,"data":"ручное"},{"type":"hashtag","offset":22,"length":3,"data":"ФТ"},{"type":"hashtag","offset":26,"length":7,"data":"Москва"},{"type":"hashtag","offset":34,"length":5,"data":"офис"},{"type":"bold","offset":353,"length":11,"data":""},{"type":"bold","offset":688,"length":13,"data":""},{"type":"bold","offset":899,"length":11,"data":""},{"type":"bold","offset":1180,"length":11,"data":""},{"type":"handle","offset":1415,"length":8,"data":"Priboch"}],"date":"2020-04-08T15:12:47+00:00","link":"tg://resolve?domain=qa_jobs&post=93693","tags":[{"name":"qa"},{"name":"rest"},{"name":"soap"},{"name":"sql"}],"cities":[{"code":"moscow"}],"allowsRemote":false}},{"node":{"__typename":"Job","id":"1422917632-1001091028994","title":"Java разработчик","text":"#java #spring \nКомпания: #техносервконсалтинг #тск\nЛокация: #москва\nЗ/п: 130 - 250\nКонтакты: @Alenhr, akarmakulova@tsconsulting.ru\n\nМы создаём ипотечную экосистему для Банка Топ - 3 \"с нуля\". \nРазрабатываем новую высоконагруженную систему кредитования с использованием современного стека и микросервисной архитектуры на основе Kubernetes. \nСтек: Java 8, Spring Boot, Spring Data, Spring Security, PostgreSQL, Kubernetes, Docker, Git, Jira, Confluence, Zeplin, REST, SOAP, MQ. \n\nЧто нужно делать:\nРазрабатывать северную часть на Java\nУчаствовать в развитии проекта и сервисов\nРегулярно проводить code-review\nРасти и развиваться в рамках команды\n\nЧто важно для нас:\nОпыт программирования на Java от 3 лет\nЗнание и понимание принципов Spring\nОпыт работы с базами данных, знание SQL\n\nМы предлагаем: \nAgile команду, общий штат разработки 50+ человек\nСоциальный пакет (ДМС, фитнес)\nОфис в центре Москвы (Чистые пруды/ Тургеневская / Сретенский бульвар) \nГибкое начало и окончание рабочего дня","markup":[{"type":"hashtag","offset":0,"length":5,"data":"java"},{"type":"hashtag","offset":6,"length":7,"data":"spring"},{"type":"hashtag","offset":25,"length":20,"data":"техносервконсалтинг"},{"type":"hashtag","offset":46,"length":4,"data":"тск"},{"type":"hashtag","offset":60,"length":7,"data":"москва"},{"type":"handle","offset":93,"length":7,"data":"Alenhr"},{"type":"link","offset":102,"length":28,"data":"mailto:akarmakulova@tsconsulting.ru"}],"date":"2020-04-06T14:51:47+00:00","link":"tg://resolve?domain=jvmjobs&post=1357","tags":[{"name":"java"},{"name":"jvm"},{"name":"spring"},{"name":"kubernetes"},{"name":"postgresql"},{"name":"docker"},{"name":"git"},{"name":"rest"},{"name":"soap"},{"name":"sql"},{"name":"spring-boot"},{"name":"spring-data"},{"name":"spring-security"}],"cities":[{"code":"moscow"}],"allowsRemote":false}},{"node":{"__typename":"Job","id":"1415577600-1001091028994","title":"Java developer","text":"#java #москва #spring\n\nПРОТЕК — крупнейший российский фармацевтический холдинг, занимающий лидирующие позиции во всех сегментах фармотрасли – производстве, дистрибуции, рознице. В компанию ищут Java Developer реализовывать различные проекты, связанные, к примеру, с поставкой лекарств, онлайн сервисом по их заказу и организацией учебной среды для фармацевтов. \n\nНужно будет разрабатывать серверные решения J2EE для интеграции различных систем в единое информационное пространство, причём вы можете менять проекты и получать новый опыт. Для тех, кому важна социальная мотивация: здесь вы будете помогать системе здравоохранения справляться с резко возросшими нагрузками.\n\nВ ваши обязанности будет входить реализация серверных решений уровня представления данных (SOAP-сервер, REST-API) и пользовательского интерфейса (Ext GWT), а также архитектура и оптимизация. \n\nОт вас ждут:\n - Знание Java 7+ \n - Опыт разработки асинхронных процессов\n - Spring, Hibernate\n - Опыт работы с системами контроля версий, Maven\n - Знакомство с CI/CD\n\n - Плюсом будет опыт работы с командной строкой Linux и с базами данных Oracle.\n\nВам предоставят ДМС, спортзал, профессиональное обучение и приятный коллектив, в котором прислушиваются к вашим идеям и можно влиять на процесс.\n\nОфис (после карантина) в Москве на Медведково; график обычно с 9 до 18, но гибкость обсуждаема, зарплата 120-200к на руки.\n\nПишите за подробностями @sonya_ofthejungle","markup":[{"type":"hashtag","offset":0,"length":5,"data":"java"},{"type":"hashtag","offset":6,"length":7,"data":"москва"},{"type":"hashtag","offset":14,"length":7,"data":"spring"},{"type":"handle","offset":1407,"length":18,"data":"sonya_ofthejungle"}],"date":"2020-04-02T15:08:23+00:00","link":"tg://resolve?domain=jvmjobs&post=1350","tags":[{"name":"java"},{"name":"jvm"},{"name":"spring"},{"name":"soap"},{"name":"rest"},{"name":"gwt"},{"name":"hibernate"},{"name":"maven"},{"name":"linux"},{"name":"oracle"}],"cities":[{"code":"moscow"}],"allowsRemote":false}},{"node":{"__typename":"Job","id":"1414529024-1001091028994","title":"Java разработчик","text":"#senior #java #architect #москва \nГород: Москва\nФормат работы: офис\nЗанятость: Полная\nЗарплатная вилка: от 220 000 до 260 000\nКомпания «Performance Lab» — одна из лидирующих ИТ-компаний в России ищет в свою команду Архитектора Java на направление custom development. Нам нужен эксперт, которому интересно заниматься проектированием и разработкой, быть ответственным за результаты работы.\n❗️Обязанности:\n-Проводить анализ функциональных и нефункциональных требований заказчика совместно с группой аналитики.\n-Разрабатывать концепции, архитектурные решения и подходы к реализации.\n-Взаимодействовать с заказчиком, представлять и защищать свои архитектурные решения.\n-Быть лидером в проектной команде (планировать работу команды, проводить декомпозицию задач, отслеживать прогресс по выполнению задач, поддерживать рабочую атмосферу в команде).\n-Полностью отвечать за техническую составляющую и качество проекта.\n-Обеспечивать прозрачность и прогнозируемость работы проектной команды, отвечать за своевременный выпуск релизов.\n-Самому участвовать в разработке back-end’а, проводить code-review.\n-Принимать участие в согласовании и разработке технической документации.\n❗️Требования:\n-Обладает большим опытом backend-разработки на Java, уверенно владеет Java 8 и выше.\n-Отлично знает Spring (Core, Boot, MVC, JPA, Security) и Hibernate.\n-Отлично знает SQL и хотя бы одну реляционную СУБД.\n-Разбирается в технологиях: REST, gRPC, GraphQL, SOAP, XML, JSON, JWT, OAuth.\n-Имеет опыт разработки на микросервисной архитектуре, понимает ее плюсы и минусы, понимает как организовать взаимодействия микросервисов.\n-Работал с Apache Kafka, Rabbit MQ.\n-Уверенно владеет Git.\n-Уже управлял командой разработки от 3-х человек.\n-Может быть лидером в команде, вести за собой людей.\n❗️Будет плюсом:\n-Немного умеет в devops (построить CI/CD пайплайн, оптимизировать сборку docker-контейнеров, настроить nginx и тд).\n-Знает JavaScript и знаком с современными Frontend-фреймворками (если знаком с React, то совсем хорошо).\n-Умеет налаживать отношения с бизнес-заказчиками, умеет договариваться и искать компромиссы.\n❗️Условия:\n-Официальное трудоустройство по ТК, дополнительные выходные.\n-Белая зарплата.\n-Место работы: отличный офис на м. Парк победы, БЦ «Барклай плаза».\n 📩Контакты: @polinakokina","markup":[{"type":"hashtag","offset":0,"length":7,"data":"senior"},{"type":"hashtag","offset":8,"length":5,"data":"java"},{"type":"hashtag","offset":14,"length":10,"data":"architect"},{"type":"hashtag","offset":25,"length":7,"data":"москва"},{"type":"handle","offset":2262,"length":13,"data":"polinakokina"}],"date":"2020-04-02T14:38:38+00:00","link":"tg://resolve?domain=jvmjobs&post=1349","tags":[{"name":"java"},{"name":"jvm"},{"name":"spring"},{"name":"jpa"},{"name":"hibernate"},{"name":"sql"},{"name":"rest"},{"name":"graphql"},{"name":"soap"},{"name":"xml"},{"name":"json"},{"name":"jwt"},{"name":"oauth"},{"name":"apache"},{"name":"kafka"},{"name":"rabbitmq"},{"name":"git"},{"name":"docker"},{"name":"nginx"},{"name":"javascript"},{"name":"reactjs"}],"cities":[{"code":"moscow"}],"allowsRemote":false}},{"node":{"__typename":"Job","id":"1410334720-1001091028994","title":"Java разработчик","text":"#работа #Москва #вакансия #Java\n\nСейчас ищу Senior Java-разработчика и Team Lead в компанию, которая является платиновым партнером SAP. Активно развиваются новые перспективные проекты, а именно направления SAP Hybris - платформа для e-commerce проектов.\n\nУсловия:\n\n- работа в команде профессионалов над амбициозными проектами с инновационными технологиями\n\n- внутреннее и внешнее обучение за счёт компании\n\n- Офис в одной минуте от м. Нагатинская\n\n- полное соблюдение ТК РФ\n\n- белая заработная плата от 150 до 300 т.р. (в зависимости от бекграунда и скиллов)\n\n- комфортабельный офис с кухней, комнатой отдыха\n\nТребования:\n\n- Уверенное знание Java, J2EE: Spring Framework (Spring MVC, Spring Webservices, Spring Security, Spring Integration), Servlets/JSP\n\n- Уверенное знание SQL, СУБД Oracle/MySQL\n\n- Понимание принципов интеграции приложений, знание интеграционных технологий и стандартов: SOAP/Web Services, RESTful, SOA\n\n- Знание и опыт применения шаблонов проектирования, enterprise integration patterns;\n\n- Знание основ UML и объектно-ориентированного анализа и проектирования.\n\n- Знание типовых архитектур информационных систем для обеспечения надежности и производительности (построение кластеров, балансировщики и т.д.)\n\n- Опыт интеграции систем\n\n- Опыт работы в качестве J2EE-разработчика от 4-х лет\n\nНазвание компании: Teamidea\n\nпишите в Телегу @julie_ignatova","markup":[{"type":"hashtag","offset":0,"length":7,"data":"работа"},{"type":"hashtag","offset":8,"length":7,"data":"Москва"},{"type":"hashtag","offset":16,"length":9,"data":"вакансия"},{"type":"hashtag","offset":26,"length":5,"data":"Java"},{"type":"handle","offset":1355,"length":15,"data":"julie_ignatova"}],"date":"2020-04-02T12:24:13+00:00","link":"tg://resolve?domain=jvmjobs&post=1345","tags":[{"name":"java"},{"name":"jvm"},{"name":"spring"},{"name":"jsp"},{"name":"sql"},{"name":"oracle"},{"name":"mysql"},{"name":"soap"},{"name":"web"},{"name":"spring-mvc"},{"name":"spring-security"}],"cities":[{"code":"moscow"}],"allowsRemote":false}}]}}},"context":{}}