{"hash":"f5f6bf98bd95e769321482904cbbd488f77922fd","data":{"records":{"id":"soap","name":"soap","belongsTo":{"totalCount":38,"pageInfo":{"totalPages":4,"currentPage":4},"edges":[{"node":{"__typename":"Job","id":"103051952128-1001089317451","title":"Qa инженер","text":"#вакансия #спб #fulltime #qa #удаленно\n\nКомпания: Smart Design (smddev.com) \n\nДолжность: Инженер по ручному и автоматизированному тестированию (QA & Automation Engineer)\n\nИщем инженера по тестированию BSS сотового оператора.\nБольшая распределенная команда (~30 человек).\nНужно хорошо уметь тестировать вручную и, когда это выгодно, суметь автоматизировать.\n\n\nНаши пожелания к кандидатам:\n✔️Опыт работы с Java или любым другим высокоуровневым языком программирования на уровне, достаточном для самостоятельного написания игры \"Сапёр\"\n✔️Опыт работы в консоли linux на уровне, достаточном для для решения задач:\nпоиск и изменение строк в файле\nуправление системными процессами\n✔️Опыт взаимодействия с REST API на уровне, достаточном для того, чтобы получить из ВКонтакте имя и фамилию своего аккаунта, не используя браузер\n\nПлюсом будет:\n✔️Опыт работы с протоколом SOAP\n✔️Профессиональный опыт функционального тестирования\n✔️Опыт работы с JUnit, Gradle, Oracle\n\nУсловия:\n✔️\"Белая\" зарплата до 110K gross\n✔️ДМС\n✔️ Работа в удаленном режиме на данный момент, далее в уютном офисе.\n\nhttps://spb.hh.ru/vacancy/37540632\n\nМои контакты: @romanovaya iyliia.romanova@smddev.com","markup":[{"type":"hashtag","offset":0,"length":9,"data":"вакансия"},{"type":"hashtag","offset":10,"length":4,"data":"спб"},{"type":"hashtag","offset":15,"length":9,"data":"fulltime"},{"type":"hashtag","offset":25,"length":3,"data":"qa"},{"type":"hashtag","offset":29,"length":9,"data":"удаленно"},{"type":"link","offset":64,"length":10,"data":"http://smddev.com"},{"type":"link","offset":1077,"length":34,"data":"https://spb.hh.ru/vacancy/37540632"},{"type":"handle","offset":1127,"length":11,"data":"romanovaya"},{"type":"link","offset":1139,"length":26,"data":"mailto:iyliia.romanova@smddev.com"}],"date":"2020-06-17T11:29:10+00:00","link":"tg://resolve?domain=qa_jobs&post=0","tags":[{"name":"qa"},{"name":"java"},{"name":"linux"},{"name":"rest"},{"name":"soap"},{"name":"junit"},{"name":"gradle"},{"name":"oracle"}],"cities":[],"allowsRemote":true}},{"node":{"__typename":"Job","id":"26368540672-1001075660570","title":"Php разработчик","text":"#вакансия #php #Москва #разработчик\nВакансия: Fullstack Developer\nЛокация: Москва\nКомпания: Bliss Finance\nФормат работы: офис/удаленная работа\nЗанятость: Full-time\nЗарплатная вилка: от 150 000 на руки (обсуждается)\n\n🚀 О проекте\n\nМы создаем финансовую платформу, объединяющую интернет-магазины с банками и даем возможность покупателям приобретать товары в рассрочку или кредит\n\n👨‍💻 Наш будущий коллега имеет\n\n- опыт работы с PHP от 3 лет\n- опыт работы с Phalcon\n- опыт проведния интеграций с финансовыми системами\n- опыт работы с HTML, JS, CSS \n- опыт работы с базами данных SQL на уровне сложных запросов (MySQL)\n- опыт работы с CircleCI, PHPUnit\n- опыт работы с GIT\n- опыт работы с REST, SOAP\n- опыт проведения code review\n- опыт проектирования и разработки архитектуры систем\n- понимает основы DevOps\n\n🍩 Условия\n\n- работа в офисе м. Калужская\n- стабильная зарплата\n- оформление по ТК РФ\n- гибкое начало рабочего дня\n- участие в конференциях\n- перспективы профессионального и карьерного роста\n\nКонтакт: @ave_mariy","markup":[{"type":"hashtag","offset":0,"length":9,"data":"вакансия"},{"type":"hashtag","offset":10,"length":4,"data":"php"},{"type":"hashtag","offset":15,"length":7,"data":"Москва"},{"type":"hashtag","offset":23,"length":12,"data":"разработчик"},{"type":"handle","offset":1008,"length":10,"data":"ave_mariy"}],"date":"2020-06-17T10:06:56+00:00","link":"tg://resolve?domain=php_jobs&post=25147","tags":[{"name":"php"},{"name":"html"},{"name":"css"},{"name":"sql"},{"name":"mysql"},{"name":"phpunit"},{"name":"git"},{"name":"rest"},{"name":"soap"}],"cities":[{"code":"moscow"}],"allowsRemote":true}},{"node":{"__typename":"Job","id":"1701838848-1001091028994","title":"Java developer","text":"#вакансия  #удаленка #Java #Spring #senior #middle #backend\nЛокация: #регион \nФормат работы: #fulltime #удаленка\nЗ/п: 80-160 NET\nВакансия: Java developer (senior,middle)\nКомпания: X5 Retail Group\nКонтакты: @CatProgramist\nТребования:\n- отличное понимание Java Core, Collections, Multithreading, transaction API\n- Spring\n- Hibernate, JDBC\n- SOAP\n- REST\n- Maven, Gradle\n- ActiveMQ\n- Git\n- *nix\nНаш целевой стек: Java 11+, Spring Boot, Spring Cloud, Netflix, PostgreSQL.  \nРаботаем в окружении CI/CD на GitLab, Apache Maven, Jira, Confluence (сейчас переписывают на этом стеке)\nСтарый стек проекта: Java 8, Spring Core, Spring Security, TBI (ORM), PostgreSQL, SQL, Jasper, Swing, XML, Jetty Embedded, Junit, Mockito, PowerMock, JBehave, maven, gradle, Jenkins, Gitlab, Sonar, REST, RMI, Git, CI/CD\nУсловия:\nУдаленка\nОфициальное трудоустройство и оформление полностью согласно ТК РФ\nДополнительная медицинская страховка (ДМС) – после испытательного срока","markup":[{"type":"hashtag","offset":0,"length":9,"data":"вакансия"},{"type":"hashtag","offset":11,"length":9,"data":"удаленка"},{"type":"hashtag","offset":21,"length":5,"data":"Java"},{"type":"hashtag","offset":27,"length":7,"data":"Spring"},{"type":"hashtag","offset":35,"length":7,"data":"senior"},{"type":"hashtag","offset":43,"length":7,"data":"middle"},{"type":"hashtag","offset":51,"length":8,"data":"backend"},{"type":"hashtag","offset":69,"length":7,"data":"регион"},{"type":"hashtag","offset":93,"length":9,"data":"fulltime"},{"type":"hashtag","offset":103,"length":9,"data":"удаленка"},{"type":"handle","offset":206,"length":14,"data":"CatProgramist"}],"date":"2020-06-17T08:02:57+00:00","link":"tg://resolve?domain=jvmjobs&post=1623","tags":[{"name":"java"},{"name":"jvm"},{"name":"spring"},{"name":"dotnet"},{"name":"hibernate"},{"name":"jdbc"},{"name":"soap"},{"name":"rest"},{"name":"maven"},{"name":"gradle"},{"name":"git"},{"name":"cloud"},{"name":"postgresql"},{"name":"gitlab"},{"name":"apache"},{"name":"orm"},{"name":"sql"},{"name":"swing"},{"name":"xml"},{"name":"jetty"},{"name":"junit"},{"name":"jenkins"},{"name":"spring-boot"},{"name":"spring-security"}],"cities":[],"allowsRemote":true}},{"node":{"__typename":"Job","id":"102971211776-1001089317451","title":"Qa engineer","text":"#вакансия #QA #Java #Python #HighLoad #backend #СанктПетербург #Спб #fulltime #Bercut\n\nПривет! Мы команда компании Bercut.\nУже 25 лет разрабатываем высоконагруженное ПО для ведущих игроков на рынке операторов сотовой связи.\nНашими решениями, реально, пользуется каждый 5 человек в мире! \nОчень ждем в команду гениев тестирования #QA Engineer\nКто испытывает страсть к высоконагруженному backend – welcome!!!\nУмеешь тестить руками – отлично! Автоматизировать – огонь! Не умеешь, но хочешь - научим!)\n\nMust Have:\n- Базы данных: Oracle/Postgre\n- ОС Linux/Solaris\n- Sql/PL/Sql\n- SOAP\n- Python/Java\n\nНаходимся в Санкт-Петербурге, рядом с метро Пионерская.\nЖдем, как в офис, так и на удаленку.\nЗарплата: от 100 000 до 150 000net + годовой бонус до 2х окладов.\n\nЧто в проекте:\n•  тестирование многокомпонентной OLTP систему 24/7 (API);\n•  нагрузка;\n•  регрессия;\n•  настройка CD;\n•  тест-планы, тест-кейсы, чек-листы и тд.\n\nПиши мне в личку, отправляй письмо, звони – буду рада рассказать все  подробности!\n\nhttps://www.bercut.com/\nКонтакты @Mari_Kupaeva или почта maria.kupaeva@bercut.co","markup":[{"type":"hashtag","offset":0,"length":9,"data":"вакансия"},{"type":"hashtag","offset":10,"length":3,"data":"QA"},{"type":"hashtag","offset":14,"length":5,"data":"Java"},{"type":"hashtag","offset":20,"length":7,"data":"Python"},{"type":"hashtag","offset":28,"length":9,"data":"HighLoad"},{"type":"hashtag","offset":38,"length":8,"data":"backend"},{"type":"hashtag","offset":47,"length":15,"data":"СанктПетербург"},{"type":"hashtag","offset":63,"length":4,"data":"Спб"},{"type":"hashtag","offset":68,"length":9,"data":"fulltime"},{"type":"hashtag","offset":78,"length":7,"data":"Bercut"},{"type":"hashtag","offset":329,"length":3,"data":"QA"},{"type":"link","offset":1000,"length":23,"data":"https://www.bercut.com/"},{"type":"handle","offset":1033,"length":13,"data":"Mari_Kupaeva"},{"type":"link","offset":1057,"length":23,"data":"mailto:maria.kupaeva@bercut.co"}],"date":"2020-06-16T17:01:11+00:00","link":"tg://resolve?domain=qa_jobs&post=0","tags":[{"name":"qa"},{"name":"java"},{"name":"python"},{"name":"oracle"},{"name":"linux"},{"name":"sql"},{"name":"soap"},{"name":"dotnet"}],"cities":[],"allowsRemote":false}},{"node":{"__typename":"Job","id":"102963871744-1001089317451","title":"Qa engineer","text":"#Москва #вакансия #QA #fulltime #test #office\n\n💻Компания: СберТех.\n🧰Вакансия: QA Engineer.\n🏢Офис: Москва, м. Нагатинская/м. Тульская/ м. Верхние Котлы.\n💰ЗП: от 150 000 Net.\n\n📂Проект: Разработка платформы для управления бизнес-процессами Банка и Цифровой Платформы Sber.\n\n🗓Задачи:\n• Работа в роли тестировщика в scrum команде.\n• Написание, актуализация тестовых сценариев и их прохождение (API, UI).\n• Проведение функционального, регрессионного, интеграционного и других видов тестирования.\n• Регистрация, отслеживание и верификация дефектов.\n• Участие в развитии команды и процессов тестирования.\n\n📌Требования: \n• Опыт написания тестовых сценариев, чек-листов, составления сложных интеграционных сценариев.\n• Знание теории тестирования, понимание видов тестирования и необходимости их применения на различных этапах реализации проекта.\n• Опыт анализа и тестирования требований.\n• Опыт тестирования rest/soap сервисов.\n• Опыт работы с BPM системами, понимание нотации BPMN 2.0.\n\n📎Cтек: REST, XML, XSD, JSON, SQL, BPMN 2.0, Docker, Kubernetes, Openshift, Kafka.\n\n🔰Условия:\n• Оформление ТК РФ.\n• ДМС для сотрудников и скидки на медицинскую страховку для родственников;\n• Высокая белая заработная плата (оклад + годовая премия).\n• Возможность обучения за счет компании, посещения IT-конференций.\n• Бесплатный тренажерный зал на территории офиса.\n• Корпоративная жизнь и спортивные мероприятия.\n\n📩Готов ответить на интересующие вопросы - @Dmiryy","markup":[{"type":"hashtag","offset":0,"length":7,"data":"Москва"},{"type":"hashtag","offset":8,"length":9,"data":"вакансия"},{"type":"hashtag","offset":18,"length":3,"data":"QA"},{"type":"hashtag","offset":22,"length":9,"data":"fulltime"},{"type":"hashtag","offset":32,"length":5,"data":"test"},{"type":"hashtag","offset":38,"length":7,"data":"office"},{"type":"handle","offset":1443,"length":7,"data":"Dmiryy"}],"date":"2020-06-16T16:02:50+00:00","link":"tg://resolve?domain=qa_jobs&post=0","tags":[{"name":"qa"},{"name":"dotnet"},{"name":"rest"},{"name":"soap"},{"name":"xml"},{"name":"xsd"},{"name":"json"},{"name":"sql"},{"name":"docker"},{"name":"kubernetes"},{"name":"kafka"}],"cities":[{"code":"moscow"}],"allowsRemote":false}},{"node":{"__typename":"Job","id":"1686110208-1001091028994","title":"Java разработчик","text":"#вакансия #java #senior #middle \nЛокация: Саратов, Самара, Кемерово \nЗП: 80.000-170.000 на руки\nИщем в команду Java dev  уровня middle/senior в связи с большим количеством интересных проектов и расширения команды.\nКратко по стеку: \n[ Java 11+, Maven, Spring Boot 2+, Hibernate 5+, PostgreSQL 12, RabbitMQ ]\nТребования:\n - Java SE 8 и выше \n- Spring / Spring Boot \n- Hibernate или MyBatis\n- SQL (PostgreSQL) \n- Apache Tomcat или Eclipse Jetty или другой app server\n- Принципы ООП\n- Web сервисы (REST или SOAP).\n Будет плюсом: опыт работы с одним из актуальных frontend фреймворков - Angular, React, Vue; понимание принципов работы протоколов HTTP, HTTPS; работа с очередями (ActiveMQ, RabbitMQ) и опыт работы с Docker.\nЧто предлагаем:\n- белая з/п и оформление в штат;\n- интересные проекты и адекватное руководство; \n- возможность профессионального и карьерного роста;\n- формат интервью 1 этап по Skype или Zoom\nДля связи и резюме @KaterinaHR","markup":[{"type":"hashtag","offset":0,"length":9,"data":"вакансия"},{"type":"hashtag","offset":10,"length":5,"data":"java"},{"type":"hashtag","offset":16,"length":7,"data":"senior"},{"type":"hashtag","offset":24,"length":7,"data":"middle"},{"type":"handle","offset":929,"length":11,"data":"KaterinaHR"}],"date":"2020-06-16T07:55:35+00:00","link":"tg://resolve?domain=jvmjobs&post=1608","tags":[{"name":"java"},{"name":"jvm"},{"name":"maven"},{"name":"spring"},{"name":"hibernate"},{"name":"postgresql"},{"name":"rabbitmq"},{"name":"sql"},{"name":"apache"},{"name":"tomcat"},{"name":"eclipse"},{"name":"jetty"},{"name":"web"},{"name":"rest"},{"name":"soap"},{"name":"angularjs"},{"name":"reactjs"},{"name":"vuejs"},{"name":"docker"},{"name":"spring-boot"}],"cities":[{"code":"saratov"},{"code":"samara"},{"code":"kemerovo"}],"allowsRemote":false}},{"node":{"__typename":"Job","id":"102911442944-1001089317451","title":"Qa engineer","text":"#Москва #вакансия #QA #fulltime #test #office\n\n💻Компания: СберТех.\n🧰Вакансия: QA Engineer.\n🏢Офис: Москва, м. Нагатинская/м. Тульская/ м. Верхние Котлы.\n💰ЗП: от 150 000 Net.\n\n📂Проект: Разработка платформы для управления бизнес-процессами Банка и Цифровой Платформы Sber.\n\n🗓Задачи:\n• Работа в роли тестировщика в scrum команде.\n• Написание, актуализация тестовых сценариев и их прохождение (API, UI).\n• Проведение функционального, регрессионного, интеграционного и других видов тестирования.\n• Регистрация, отслеживание и верификация дефектов.\n• Участие в развитии команды и процессов тестирования.\n\n📌Требования: \n• Опыт написания тестовых сценариев, чек-листов, составления сложных интеграционных сценариев.\n• Знание теории тестирования, понимание видов тестирования и необходимости их применения на различных этапах реализации проекта.\n• Опыт анализа и тестирования требований.\n• Опыт тестирования rest/soap сервисов.\n• Опыт работы с BPM системами, понимание нотации BPMN 2.0.\n\n📎Cтек: REST, XML, XSD, JSON, SQL, BPMN 2.0, Docker, Kubernetes, Openshift, Kafka.\n\n🔰Условия:\n• Оформление ТК РФ.\n• ДМС для сотрудников и скидки на медицинскую страховку для родственников;\n• Высокая белая заработная плата (оклад + годовая премия).\n• Возможность обучения за счет компании, посещения IT-конференций.\n• Бесплатный тренажерный зал на территории офиса.\n• Корпоративная жизнь и спортивные мероприятия.\n\n📩Готов ответить на интересующие вопросы - @Dmiryy","markup":[{"type":"hashtag","offset":0,"length":7,"data":"Москва"},{"type":"hashtag","offset":8,"length":9,"data":"вакансия"},{"type":"hashtag","offset":18,"length":3,"data":"QA"},{"type":"hashtag","offset":22,"length":9,"data":"fulltime"},{"type":"hashtag","offset":32,"length":5,"data":"test"},{"type":"hashtag","offset":38,"length":7,"data":"office"},{"type":"handle","offset":1443,"length":7,"data":"Dmiryy"}],"date":"2020-06-15T19:05:56+00:00","link":"tg://resolve?domain=qa_jobs&post=0","tags":[{"name":"qa"},{"name":"dotnet"},{"name":"rest"},{"name":"soap"},{"name":"xml"},{"name":"xsd"},{"name":"json"},{"name":"sql"},{"name":"docker"},{"name":"kubernetes"},{"name":"kafka"}],"cities":[{"code":"moscow"}],"allowsRemote":false}},{"node":{"__typename":"Job","id":"102802391040-1001089317451","title":"Qa инженер","text":"#вакансия #QA #Java #QAAutomation #Москва #офис \n\nВакансия: QA Lead (Тест-Менеджер)\nГород: Москва м. Технопарк \nЗарплата: от 220 000 рублей до 260 000 рублей на руки\nФормат: офис, полный день, полная занятость\nКомпания Innovative People \n\n🚀 Чем предстоит заниматься:\n• планирование тестирования;\n• выстраивание процессов тестирования среди 8 команд с упором на автоматизацию;\n• автоматизировать процессы разработки и тестирования;\n• выстраивать CI/CD проекта;\n• налаживание взаимодействия QA инженеров в нескольких командах;\n• поддерживать и развивать разработанные решения по автоматизации;\n• разрабатывать фреймворк автоматизации;\n• исследовать новые технологии и внедрять их на проекте;\n• подготовка метрик автоматизированных тестов;\n• принятие решений о внедрении / обновлении программного обеспечения.\n\n🚀 От кандидата ожидаем:\n• опыт в тестировании от 4х лет\n• опыт в автотестировании от 3х лет\n• опыт руководства группой тестировщиков от 2х лет\n• практический опыт применения практик тест-дизайна\n• умение проектировать тест-кейсы и подготавливать тестовые данные для тестирования\n• хорошие знание Java, библиотек\n• уверенное использование и понимание как работает под капотом Selenium Webdriver (Selenide и Appium для мобильных платформ)\n• опыт написания собственного фреймворка\n• опыт работы в unix системах\n• опыт работы с API (Soap, Rest)\n• опыт использование git\n• опыт использование CI (желательно, но не обязательно Jenkins)\n• опыт работы с Docker\n• опыт составления запросов SQL\n• опыт управления непрямыми (функциональными) подчиненными\n• умение контролировать несколько проектов одновременно\n• умение мотивировать команду, опыт управления рисками, мониторинг эффективности процессов\n\n🚀 Предлагаем:\n• все по ТК РФ\n• ДМС со стоматологией, программа лояльности\n• Macbook \n• адекватное руководство и лояльные процессы\n• большое комьюнити, классные команды\n• помогаем с релокацией!\n\nРезюме и вопросы @Priboch","markup":[{"type":"hashtag","offset":0,"length":9,"data":"вакансия"},{"type":"hashtag","offset":10,"length":3,"data":"QA"},{"type":"hashtag","offset":14,"length":5,"data":"Java"},{"type":"hashtag","offset":20,"length":13,"data":"QAAutomation"},{"type":"hashtag","offset":34,"length":7,"data":"Москва"},{"type":"hashtag","offset":42,"length":5,"data":"офис"},{"type":"handle","offset":1914,"length":8,"data":"Priboch"}],"date":"2020-06-15T04:41:09+00:00","link":"tg://resolve?domain=qa_jobs&post=0","tags":[{"name":"qa"},{"name":"java"},{"name":"selenium"},{"name":"unix"},{"name":"soap"},{"name":"rest"},{"name":"git"},{"name":"jenkins"},{"name":"docker"},{"name":"sql"}],"cities":[{"code":"moscow"}],"allowsRemote":false}}]}}},"context":{}}