{"hash":"f34fd2c444a074f4e0e67d525015a008ef8e766f","data":{"records":{"id":"spring-boot","name":"spring-boot","belongsTo":{"totalCount":20,"pageInfo":{"totalPages":2,"currentPage":2},"edges":[{"node":{"__typename":"Job","id":"1946157056-1001134745498","title":"Devops engineer","text":"#вакансия #USA #Australia #senior #remote #DevOps #AWS \n\nЛокация: Атланта\nФормат работы: удаленка \nЗанятость: полная, гибкое начало дня\nЗП:  250 000 до 450 000 рублей на руки (заработная плата начисляется в долларах, вилка указана примерно, компания готова отталкиваться от пожеланий кандидатов)\n\n🔹 Открыта вакансия SR. Cloud Service Engineer в небольшой Американский стартап в области healthcare Lifetime Fluency.\nРебята существуют один год и разрабатывают инновационное VR решение для лечения пациентов, страдающих заиканием. Сейчас закончен прототип продукта и начинается этап активной разработки. Разработка идет с нуля, используются максимально современные технологии.\nПланируемвй стек проекта: Java,\nSpring Boot, AWS, Micro-services, RESTful API,\nKafka, Spring Data, Angular 2+, Node.js, JavaScript, HTML5, CSS3, Docker\n\nМы ищем первого SR. Cloud Service Engineer, который выстроит всю необходимую архитектуру, СI/СD процесс с нуля, выстроит работу в AWS. \nОчень желателен опыт в healthcare и знание HIPAA.\n\n🔹 Требования:\n- Свободный английский язык (разговорный и письменный)\n- Опыт работы с AWS в продакшн от 3-ех лет;\n- Опыт выстраивания CI/CD процесса с нуля;\n\n🔹 Контакты:\nКА: Lucky hunter\ne-mail: daria@luckyhunter.io\ntelegram: @prudentdaria\nПишите, буду рада ответить на все возможные вопросы в телеграм или по почте\n\n—\n\n👉 Обсуждение вакансии в чате @devops_jobs","markup":[{"type":"hashtag","offset":0,"length":9,"data":"вакансия"},{"type":"hashtag","offset":10,"length":4,"data":"USA"},{"type":"hashtag","offset":15,"length":10,"data":"Australia"},{"type":"hashtag","offset":26,"length":7,"data":"senior"},{"type":"hashtag","offset":34,"length":7,"data":"remote"},{"type":"hashtag","offset":42,"length":7,"data":"DevOps"},{"type":"hashtag","offset":50,"length":4,"data":"AWS"},{"type":"link","offset":1211,"length":20,"data":"mailto:daria@luckyhunter.io"},{"type":"handle","offset":1242,"length":13,"data":"prudentdaria"},{"type":"handle","offset":1366,"length":12,"data":"devops_jobs"}],"date":"2020-03-30T15:48:22+00:00","link":"tg://resolve?domain=devops_jobs_feed&post=1856","tags":[{"name":"amazon-web-services"},{"name":"cloud"},{"name":"java"},{"name":"spring"},{"name":"kafka"},{"name":"angularjs"},{"name":"nodejs"},{"name":"javascript"},{"name":"html"},{"name":"css"},{"name":"docker"},{"name":"spring-boot"},{"name":"spring-data"}],"cities":[{"code":"atlanta"}],"allowsRemote":true}},{"node":{"__typename":"Job","id":"1392508928-1001091028994","title":"Java разработчик","text":"Вакансия: #java #developer #javadeveloper\nКомпания: #ivi\nЛокация: #москва #мск\nЗ/п: от 250 000 до 270 000 руб. на руки\nКонтакты: @daria144 \n\nКоманда Big Data онлайн-кинотеатра ivi ищет сильного Java разработчика, заинтересованного в работе с данными и разработке аналитических продуктов\n\nНаша задача - собирать, обогащать, хранить и доставлять данные, а также разрабатывать инструменты для извлечения из них максимального business value.\n\nДанные - важное звено в бизнесе ivi, мы придерживаемся data-driven культуры принятия решений. Мы обрабатываем 1 Тб в день с помощью Kafka, Flink и ClickHouse.\n\nРазрабатываем нагруженные (18k qps) сервисы на Spring Boot WebFlux и синхронизируем их через ZooKeeper. Разрабатываем многоуровневые кеши Caffeine + Redis и Flink коннекторы. Основные технологии: Java, Python; Kafka, Flink, Spring Boot, Spring WebFlux, ZooKeeper, Redis, ClickHouse, PostgreSQL.\n\nЕсли вы любите разбираться с новыми технологиями и решать нестандартные задачи - вам у нас будет интересно.\n\nЧто предстоит делать:\n- разработка модулей на основе streaming-processing (Apache Flink);\n- разработка web-сервисов для различных задач (реклама, аналитика и т.п.);\n- взаимодействовать с командой по вопросам архитектуры и разработки.\n\nКак узнать что ты нам подходишь?\n- есть опыт разработки на Java в коммерческих проектах от 5 лет;\n- у тебя отличное знание Java Core;\n- твердые архитектурные скилы;\n- общая культура разработки: декомпозиция задач, SOLID-принципы, DI, написание интеграционных и модульных тестов. \n\nСо своей стороны мы обещаем:\n- Офис в 5 минутах ходьбы от м. \"Дмитровская\";\n- У нас гибкий график, мы начинаем до 11 часов дня;\n- Трудоустройство по ТК РФ;\n- ДМС + стоматология после прохождения испытательного срока;\n- Подписка на ivi;\n- Пакет релокации для соискателей со всей России.","markup":[{"type":"bold","offset":0,"length":9,"data":""},{"type":"hashtag","offset":10,"length":5,"data":"java"},{"type":"hashtag","offset":16,"length":10,"data":"developer"},{"type":"hashtag","offset":27,"length":14,"data":"javadeveloper"},{"type":"bold","offset":42,"length":9,"data":""},{"type":"hashtag","offset":52,"length":4,"data":"ivi"},{"type":"bold","offset":57,"length":8,"data":""},{"type":"hashtag","offset":66,"length":7,"data":"москва"},{"type":"hashtag","offset":74,"length":4,"data":"мск"},{"type":"bold","offset":79,"length":4,"data":""},{"type":"bold","offset":119,"length":9,"data":""},{"type":"handle","offset":129,"length":9,"data":"daria144"},{"type":"bold","offset":1004,"length":22,"data":""},{"type":"bold","offset":1239,"length":33,"data":""},{"type":"bold","offset":1520,"length":29,"data":""}],"date":"2020-03-27T09:48:35+00:00","link":"tg://resolve?domain=jvmjobs&post=1328","tags":[{"name":"java"},{"name":"jvm"},{"name":"kafka"},{"name":"spring"},{"name":"redis"},{"name":"python"},{"name":"postgresql"},{"name":"apache"},{"name":"web"},{"name":"spring-boot"}],"cities":[{"code":"moscow"}],"allowsRemote":false}},{"node":{"__typename":"Job","id":"1391460352-1001091028994","title":"Java разработчик","text":"#вакансия #java #javadeveloper #spring #kotlin\n\nГород и адрес офиса: Москва, Преображенская площадь\nФормат работы: в офисе\nЗанятость: фулл тайм\nЗарплатная вилка: 3000$ - 4000$/month\nНазвание компании: крупный банк\n\nРазрабатываем платформу мобильного и интернет-банка (дистанционный банкинг) на основе микросервисов в современном стеке технологий, которые мы выбираем сами. \n\nТЕХНОЛОГИЧЕСКИЙ СТЕК:\n ⁃ ЯП и фреймворки: Java 8/11, Kotlin (по желанию), Spring Boot, Apache Camel.\n ⁃ Хранилища и очереди: Redis, Apache Cassandra, Oracle 12, ActiveMQ, IBM WS MQ.\n ⁃ DevOps & CI: Apache Maven, Jenkins, GitLab, Docker + Kubernetes (внедряем сейчас).\n ⁃ Мониторинг: Elasticsearch, Logstash, Kibana, Sentry (внедряем сейчас), Zabbix.\n\nЧТО ВЫ БУДЕТ ДЕЛАТЬ:\n ⁃ Разрабатывать микросервисы платформы дистанционного банкинга.\n ⁃ Разрабатывать интеграцию мобильного приложения и веб- приложения с сервисами платформы и другими системами Банка.\n ⁃ Разрабатывать архитектурные схемы сервисов и выбирать технологии для решения новых и нетривиальных задач (вместе с архитектором и аналитиком).\n ⁃ Выполнять ревью кода, написанного другими разработчиками, и обучать начинающих разработчиков. \n\nЧТО ПРЕДЛАГАЕМ:\n ⁃ Удобный график работы (плавающее начало рабочего дня);\n ⁃ Комфортный офис класса «А» в 1-й минуте от метро (офис доступен 24/7; open-space, в котором сидят только команды разработки);\n ⁃ Привлекательная система оплаты труда - оклад + ежеквартальные премии + годовой бонус;\n ⁃ Работа в scrum-командах по 6-8 человек, 2-х недельные спринты, демократия и самоорганизация + наличие удаленного доступа;\n ⁃ Обучение внутреннее и внешнее, регулярно проходят митаппы. Мы посещаем ключевые отраслевые конференции;\n ⁃ Профессиональное развитие и карьерный рост;\n ⁃ ДМС и многочисленные скидки и бонусы от партнеров (от каршеринга до ипотеки).\nРезюме можно отправить на почту: a.dorogavtseva@gmail.com, @Dorogavtseva","markup":[{"type":"hashtag","offset":0,"length":9,"data":"вакансия"},{"type":"hashtag","offset":10,"length":5,"data":"java"},{"type":"hashtag","offset":16,"length":14,"data":"javadeveloper"},{"type":"hashtag","offset":31,"length":7,"data":"spring"},{"type":"hashtag","offset":39,"length":7,"data":"kotlin"},{"type":"link","offset":1859,"length":24,"data":"mailto:a.dorogavtseva@gmail.com"},{"type":"handle","offset":1885,"length":13,"data":"Dorogavtseva"}],"date":"2020-03-27T09:07:26+00:00","link":"tg://resolve?domain=jvmjobs&post=1327","tags":[{"name":"java"},{"name":"jvm"},{"name":"spring"},{"name":"kotlin"},{"name":"apache"},{"name":"redis"},{"name":"cassandra"},{"name":"oracle"},{"name":"maven"},{"name":"jenkins"},{"name":"gitlab"},{"name":"docker"},{"name":"kubernetes"},{"name":"elasticsearch"},{"name":"logstash"},{"name":"spring-boot"},{"name":"apache-camel"}],"cities":[{"code":"moscow"}],"allowsRemote":true}},{"node":{"__typename":"Job","id":"1388314624-1001091028994","title":"Java разработчик","text":"Вакансия: #java #developer #javadeveloper\nКомпания: #Эльдорадо \nЛокация: #москва #мск \nЗ/п: 170 - 190к net\nКонтакты: @observer69\n\nВ целях усиления команды разработки поискового сервиса интернет-магазина «Эльдорадо», ищем профессионального java-разработчика.\n\nЧем интересна наша вакансия:\n- ТК РФ;\n- Офис м. Красносельская/м. Бауманская;\n- Корпоративные скидки на продукцию компании;\n- Оформление ДМС после прохождения испытательного срока;\n- Опция для сотрудников \"система гибких льгот\", скидки сотрудникам от наших партнеров;\n- Конкурентоспособная, “белая” заработная плата (компенсационный пакет обсуждается индивидуально).\n\nВам предстоит:\n- Разработка поискового сервиса интернет-магазина «Эльдорадо», не UI;\n- Проектирование и реализация API;\n- Оценка разработки, проведение код-ревью;\n- Определение векторов развития/оптимизации сервиса;\n- Интеграция с внешними сервисами и системами.\n\nТехнологический стек:\n- java;\n- spring framework, spring boot, spring - cloud, spring batch;\n- git, gitlab, maven, teamcity;\n- hibernate, mysql;\n- elasticsearch;\n- mesos/marathon;\n- rabbitmq;\n- open API;\n- docker, k8s.\n\nТребования: \n- java 8 – уверенные знания, ООП, паттерны;\n- Понимание REST подхода к разработке API;\n- Опыт работы с Spring (Ioc, Data JPA, Boot, Cloud);\nhibernate;\n- Опыт профилирования и оптимизации производительности;\n- Опыт использования системы контроля версий git, а ткже понимание принципов её работы;\n- Английский на уровне чтения технической документации;\n- Базовые знания linux.\n\nБудет плюсом:\n- maven;\n- elasticsearch;\n- mesos/marathon\n- docker, k8s\n- groovy/spock","markup":[{"type":"bold","offset":0,"length":8,"data":""},{"type":"hashtag","offset":10,"length":5,"data":"java"},{"type":"hashtag","offset":16,"length":10,"data":"developer"},{"type":"hashtag","offset":27,"length":14,"data":"javadeveloper"},{"type":"bold","offset":42,"length":9,"data":""},{"type":"hashtag","offset":52,"length":10,"data":"Эльдорадо"},{"type":"bold","offset":64,"length":8,"data":""},{"type":"hashtag","offset":73,"length":7,"data":"москва"},{"type":"hashtag","offset":81,"length":4,"data":"мск"},{"type":"bold","offset":107,"length":9,"data":""},{"type":"handle","offset":117,"length":11,"data":"observer69"},{"type":"bold","offset":259,"length":29,"data":""},{"type":"bold","offset":627,"length":15,"data":""},{"type":"bold","offset":891,"length":22,"data":""},{"type":"bold","offset":1111,"length":13,"data":""},{"type":"bold","offset":1500,"length":14,"data":""}],"date":"2020-03-26T09:02:49+00:00","link":"tg://resolve?domain=jvmjobs&post=1324","tags":[{"name":"java"},{"name":"jvm"},{"name":"dotnet"},{"name":"spring"},{"name":"cloud"},{"name":"batch"},{"name":"git"},{"name":"gitlab"},{"name":"maven"},{"name":"hibernate"},{"name":"mysql"},{"name":"elasticsearch"},{"name":"rabbitmq"},{"name":"docker"},{"name":"rest"},{"name":"jpa"},{"name":"linux"},{"name":"groovy"},{"name":"spring-boot"}],"cities":[{"code":"moscow"}],"allowsRemote":false}},{"node":{"__typename":"Job","id":"1384120320-1001091028994","title":"Java разработчик","text":"#java #офис # Москва \nГород: Москва\nФормат работы: офис\nЗанятость: полная занятость, постоянная работа\nЗарплата:  от 200 до 280 на руки (+ есть годовой бонус)\nМы молодая команда внутри Сбербанка, занимаемся разработкой и внедрением нового мобильного приложения Сбербанк Инвестор, которое должно вывести из эксплуатации текущее решение для инвестиций от Сбербанка.\n\nОбязанности:\n\n- Проектирование архитектуры приложения;\n- Проектирование интерфейсов взаимодействия между компонентами системы и внешними системами;\n- Проектирование хранилища данных;\n- Разработка и поддержка приложений на Java;\n- Написание unit-тестов, проведение code review;\n- Подготовка документации.\n\nТребования:\n\n- Широкий технический кругозор в современных информационных технологиях;\n- Знание технологий и методов интеграции информационных систем;\n- Знание и опыт применения средств масштабирования и отказоустойчивости;\n- Опыт разработки приложений на Java от трех лет;\n- Опыт разработки приложений с использованием Spring / Spring Boot;\n- Опыт работы с DevOps инструментами (jenkins, ansible, maven, gradle, git, etc.);\n- Знание PL/pgSQL или PL/SQL.\n\nКомпания: Сбербанк\nВопросы можно задать тут @vsevkosmo","markup":[{"type":"hashtag","offset":0,"length":5,"data":"java"},{"type":"hashtag","offset":6,"length":5,"data":"офис"},{"type":"handle","offset":1169,"length":10,"data":"vsevkosmo"}],"date":"2020-03-25T15:00:25+00:00","link":"tg://resolve?domain=jvmjobs&post=1320","tags":[{"name":"java"},{"name":"jvm"},{"name":"spring"},{"name":"jenkins"},{"name":"ansible"},{"name":"maven"},{"name":"gradle"},{"name":"git"},{"name":"sql"},{"name":"spring-boot"}],"cities":[{"code":"moscow"}],"allowsRemote":false}},{"node":{"__typename":"Job","id":"1379926016-1001091028994","title":"Java developer","text":"#team #lead #java #developer\nкомпания:#сбербанк\nлокация: #ростовнадону #рнд\nЗ/п: 160- 220 к. \nконтакты: @Natalyatur\n\n\nМы ожидаем, что Вы: \n· Имееете опыт разработки в Java.\n· Умение проектировать сложные решения для отказоустойчивых и высоконагруженных систем.\n· Умение управлять группой разработки.\n· Глубокие знания в Collections API, Stream API, Fork/Join Framework, Reflection API и Java Generics.· Глубокие знания в Spring Boot, Spring Data, Spring Jpa, Spring Security.\n· Глубокие знание SQL.\n· Знание REST-сервисов\n· Написание кода с поддержкой unit-тестов.\n· Знание GIT\n\nВам предстоит: \n· Выполнять задачи по разработке.\n· Обеспечивать оптимальный процесс взаимодействия внутри команды и со смежными подразделениями.\n· Выполнять планирование спринтов и следить за ходом выполнения.\n· Управлять группой разработки.\n· Проектировать техническую архитектуру решений.\n· Управлять архитектурой проекта.\n· Выполнение code review.\n· Развивать «младших» коллег и обучать новых членов команды.\n· Участвовать в приемочных испытаниях и проводить встречи с заказчиком на техническом уровне.\n· Разрабатывать техническую документацию.\n\nРабота у нас — это:\n\n• Команда профессионалов, готовых поддержать ваши инициативы;\n• Мощное железо, дополнительные мониторы и всё, что нужно для продуктивной работы;\n• Возможность работы с новыми технологиями;\n• Обучение за счёт компании;\n• ДМС;\n• Прозрачная система бонусов и премий, достойная зарплата — размер обсудим на собеседовании","markup":[{"type":"hashtag","offset":0,"length":5,"data":"team"},{"type":"hashtag","offset":6,"length":5,"data":"lead"},{"type":"hashtag","offset":12,"length":5,"data":"java"},{"type":"hashtag","offset":18,"length":10,"data":"developer"},{"type":"hashtag","offset":38,"length":9,"data":"сбербанк"},{"type":"hashtag","offset":57,"length":13,"data":"ростовнадону"},{"type":"hashtag","offset":71,"length":4,"data":"рнд"},{"type":"handle","offset":104,"length":11,"data":"Natalyatur"}],"date":"2020-03-24T12:19:16+00:00","link":"tg://resolve?domain=jvmjobs&post=1316","tags":[{"name":"java"},{"name":"jvm"},{"name":"spring"},{"name":"jpa"},{"name":"sql"},{"name":"rest"},{"name":"git"},{"name":"spring-boot"},{"name":"spring-data"},{"name":"spring-security"}],"cities":[],"allowsRemote":false}},{"node":{"__typename":"Job","id":"1378877440-1001091028994","title":"Java developer","text":"#вакансия #backend #javadeveloper #java #spb\nЛокация: Санкт-Петербург, станция метро Петроградская\nЗанятость: полная/ офис / гибкое начало рабочего дня\nЗарплата: от 180 000 net\nКомпания: ТетраСофт\nКонтакты: @dproto (Telegram), darya.protopopova@tetra-soft.ru\n\nКомпания ТетраСофт разрабатывает крутые информационные системы для сопровождения строительства нефтяных и газовых скважин (удаленный мониторинг различных параметров, аналитика на основе полученных данных, сбор и формирование отчётов).\nВ данный момент мы разрабатываем новый функционал платформы (SSO + modules).\nДля этого мы хотим усилить команду и приглашаем вас стать её частью.\n\nТехнологический стек разработки:\nJava 8, Spring, Hibernate, Elasticsearch, NATS, JUnit, MySQL, OAuth 2.0.\n\nЧто нужно будет делать:\n• Реализовывать алгоритмы работы с данными\n• Прорабатывать функциональные блоки бекенд части от проектирования до реализации\n• Участвовать в code review\n• Проектировать API\n\nЖдем от вас:\n• Опыт коммерческой разработки от 3-х лет\n• Хорошее знание Java core\n• Spring Boot (Security, MVC, REST Docs)\n• Hibernate 4+\n• Знание какого-либо SQL сервера\n• Знание алгоритмов и структур данных\n• Умение писать junit тесты\n• Понимание уязвимостей от OWASP Top 10\n• Умение работать с системой контроля версия (git)\n• Знание минимум одной системы сборки (ant, maven, gradle)\n\nБудет плюсом:\n• NoSQL\n• Docker\n• Знание коммуникационных протоколов (в том числе промышленных)\n• Опыт работы в Linux системах\n• Elasticsearch\n• Опыт работы с message broker\n• Знание других языков программирования\n• Понимание SOLID-принципов\n\nОт нас:\n• Гибкое начало рабочего дня (с 9:00 до 11:00);\n• Интересные проекты с возможностью карьерного роста;\n• Ежегодная премия по итогам работы;\n• Ежегодный пересмотр заработной платы по результатам работы;\n• ДМС после успешного прохождение ИС (включая стоматологию);\n• Компенсация питания;\n• Бесплатные курсы английского языка на территории офиса;\n• Возможность профильного обучения за счёт компании (оплата конференций, курсов);\n• Кикер, настолки, турник, XBox, корпоративные мероприятия;\n• Корпоративный волейбол на песке;\n• Иногородним соискателям помощь в релокации.","markup":[{"type":"hashtag","offset":0,"length":9,"data":"вакансия"},{"type":"hashtag","offset":10,"length":8,"data":"backend"},{"type":"hashtag","offset":19,"length":14,"data":"javadeveloper"},{"type":"hashtag","offset":34,"length":5,"data":"java"},{"type":"hashtag","offset":40,"length":4,"data":"spb"},{"type":"bold","offset":45,"length":8,"data":""},{"type":"bold","offset":99,"length":10,"data":""},{"type":"bold","offset":152,"length":9,"data":""},{"type":"bold","offset":177,"length":9,"data":""},{"type":"bold","offset":197,"length":9,"data":""},{"type":"handle","offset":207,"length":7,"data":"dproto"},{"type":"link","offset":227,"length":31,"data":"mailto:darya.protopopova@tetra-soft.ru"},{"type":"bold","offset":642,"length":31,"data":""},{"type":"bold","offset":749,"length":23,"data":""},{"type":"bold","offset":947,"length":12,"data":""},{"type":"bold","offset":1335,"length":13,"data":""},{"type":"bold","offset":1577,"length":7,"data":""}],"date":"2020-03-24T10:39:20+00:00","link":"tg://resolve?domain=jvmjobs&post=1315","tags":[{"name":"java"},{"name":"jvm"},{"name":"dotnet"},{"name":"spring"},{"name":"hibernate"},{"name":"elasticsearch"},{"name":"junit"},{"name":"mysql"},{"name":"oauth"},{"name":"rest"},{"name":"sql"},{"name":"git"},{"name":"ant"},{"name":"maven"},{"name":"gradle"},{"name":"nosql"},{"name":"docker"},{"name":"linux"},{"name":"spring-boot"}],"cities":[],"allowsRemote":true}},{"node":{"__typename":"Job","id":"1377828864-1001091028994","title":"Java разработчик","text":"Вакансия: #java #spring #hibernate \nКонцепция: #IoT\nКомпания: #MTS\nЛокация: #Москва #Комсомольская #Красныеворота\nФормат работы: #работавофисе + иногда возможно удаленно работать\nЗП: 150-200 net (в замисимости от знаний и опыта)\nКонтакт: @alina_katkova почта: avkatko2@mts.ru\n\nВ команду IoT, трайба отраслевых решений требуется java-разработчик. Трайб отраслевых решений – направление внутри МТС, которое осуществляет разработку полного цикла инновационных продуктов в B2B и B2C сегментах. Основное направление – инновационные продукты в сфере интернета вещей, медицины, видео аналитики.\n\nЧто нужно делать: \n-участвовать в командной работе над решениями;\n-принимать участие в code-review;\n-участвовать в принятии архитектурных и технических решений;\n-писать качественный код;\nНаш стек:\n-Java1.8+;\n-Spring: Spring Security, Spring Data, Spring Boot и т.д.;\n-Реляционные базы (в основном Postgres) и NoSQL (InfluxDB, Mongo);\n-Restful-сервисы, JSON, клиент-серверное взаимодействие;\n-ORM Hibernate;\n-MQ: RabbitMQ.\nУсловия:\n-штат, все по ТК РФ\n-премия 20% от годового оклада сверху\n-соц.пакет\n-удаленка на время карантина :)","markup":[{"type":"hashtag","offset":10,"length":5,"data":"java"},{"type":"hashtag","offset":16,"length":7,"data":"spring"},{"type":"hashtag","offset":24,"length":10,"data":"hibernate"},{"type":"hashtag","offset":47,"length":4,"data":"IoT"},{"type":"hashtag","offset":62,"length":4,"data":"MTS"},{"type":"hashtag","offset":76,"length":7,"data":"Москва"},{"type":"hashtag","offset":84,"length":14,"data":"Комсомольская"},{"type":"hashtag","offset":99,"length":14,"data":"Красныеворота"},{"type":"hashtag","offset":129,"length":13,"data":"работавофисе"},{"type":"handle","offset":238,"length":14,"data":"alina_katkova"},{"type":"link","offset":260,"length":15,"data":"mailto:avkatko2@mts.ru"},{"type":"bold","offset":589,"length":18,"data":""},{"type":"bold","offset":776,"length":9,"data":""},{"type":"bold","offset":1011,"length":8,"data":""}],"date":"2020-03-24T09:58:43+00:00","link":"tg://resolve?domain=jvmjobs&post=1314","tags":[{"name":"java"},{"name":"jvm"},{"name":"spring"},{"name":"hibernate"},{"name":"dotnet"},{"name":"postgresql"},{"name":"nosql"},{"name":"json"},{"name":"orm"},{"name":"rabbitmq"},{"name":"spring-security"},{"name":"spring-data"},{"name":"spring-boot"}],"cities":[{"code":"moscow"}],"allowsRemote":true}},{"node":{"__typename":"Job","id":"1376780288-1001091028994","title":"Java разработчик","text":"Вакансия: #Middle #Java #SQL #Spring #JavaCore\nКомпания: #Rubbles\nЛокация: #Москва #МСК #Moscow\nЗ/П: 180-200кР NET\nКонтакты: @Julia_Nikolova\n\nВедущая российская IT-компания, занимающаяся разработкой решений для крупного бизнеса. Офисы в России и по всей Европе\n\nОпыт разработки на Java от 2х лет\n\nОбязанности:\n· Проектирование и написание кода\n· Участие в разработке продуктов, и в новых проектах\n· Устранение критических ошибок в системах\n\nТребования\n· Опыт работы со Spring стеком (Spring Boot, Spring Data, Spring MVC)\n· Уверенное знание Java Core\n· Умение работать с любой SQL базой данных\n\nУсловия: \n- Регулярные пересмотры заработной платы\n- Уютный офис в центре Москвы (кикер, пинг-понг, разные вкусности)\n- ДМС\n- Корпоративное обучение","markup":[{"type":"hashtag","offset":10,"length":7,"data":"Middle"},{"type":"hashtag","offset":18,"length":5,"data":"Java"},{"type":"hashtag","offset":24,"length":4,"data":"SQL"},{"type":"hashtag","offset":29,"length":7,"data":"Spring"},{"type":"hashtag","offset":37,"length":9,"data":"JavaCore"},{"type":"hashtag","offset":57,"length":8,"data":"Rubbles"},{"type":"hashtag","offset":75,"length":7,"data":"Москва"},{"type":"hashtag","offset":83,"length":4,"data":"МСК"},{"type":"hashtag","offset":88,"length":7,"data":"Moscow"},{"type":"handle","offset":125,"length":15,"data":"Julia_Nikolova"}],"date":"2020-03-24T09:40:32+00:00","link":"tg://resolve?domain=jvmjobs&post=1313","tags":[{"name":"java"},{"name":"jvm"},{"name":"sql"},{"name":"spring"},{"name":"dotnet"},{"name":"spring-boot"},{"name":"spring-data"},{"name":"spring-mvc"}],"cities":[{"code":"moscow"}],"allowsRemote":false}},{"node":{"__typename":"Job","id":"1373634560-1001091028994","title":"Java разработчик","text":"Вакансия: #java #spring #JPA #JEE7 #JSF #Apache #CXF #JUnit\nКомпания: #DigitalZone \nЛокация: #удаленнаяработа\nЗ/п: ставка 1200 руб/час\nКонтакты: @JuliaVlad\n\nКомпания Digital Zone — разработчик информационных систем полного цикла. \n\n‼️Сейчас мы ищем сильного Java специалиста для одного из ведущих поставщиков электронных платежных систем для мировой финансовой индустрии. Продукт - система SmartVista представляет собой единую технологическую платформу для процессинга пластиковых карт, обработки электронных платежей и поддержки операций розничного бизнеса.\n\nНеобходимо будет:\n🔹Разработка серверной и клиентской части приложений на Java с использованием технологий: Java, Spring, JPA, JEE7, JSF, Apache CXF, JUnit;\n🔹 Анализ и оптимизация существующего кода;\n🔹 Участие в архитектурных советах;\n🔹 Взаимодействие с сотрудниками других структурных подразделений компании для решения интеграционных задач;\n🔹 Взаимодействие с клиентами компании на уровне технических специалистов.\n\nТребуется:\n🔹 Программирование на Java от 5-ти лет;\n🔹 Spring MVC, Spring Boot и прочий Spring, JPA, глубокое знание Java Core, в т.ч. Java Concurrency, Collections;\n🔹 Опыт написания и развития больших приложений с высокой нагрузкой;\n🔹 Опыт решения проблем в enterprise-инфраструктуре;\n🔹 Отладка Java-приложений;\n🔹 Опыт работы с реляционными БД (базовый SQL, оптимизация планов выполнений SQL-запросов в Oracle);\n🔹 Умение работать с Maven, Git; \n🔹 Знания JUnit 4 / Mockito;\n🔹 Построение CI/CD-процессов;\n🔹 Взаимодействие с отделами тестирования, сопровождения, внедрения.\n\nМы предлагаем: \n🔹Оформление по ТК РФ с первого рабочего дня;\n🔹Ставка 1200 руб/час, полная занятость;\n🔹Компенсация занятий спортом, английским языком и проф.обучения;\n🔹Гибкий график работы и возможность работать удаленно;\n🔹Дружная команда;\n🔹Пересмотр заработной платы по итогам аттестации 2 раза в год;\n🔹Day-off - до 3 -х дней оплачиваемого больничного без предоставления больничного листа.","markup":[{"type":"hashtag","offset":10,"length":5,"data":"java"},{"type":"hashtag","offset":16,"length":7,"data":"spring"},{"type":"hashtag","offset":24,"length":4,"data":"JPA"},{"type":"hashtag","offset":29,"length":5,"data":"JEE7"},{"type":"hashtag","offset":35,"length":4,"data":"JSF"},{"type":"hashtag","offset":40,"length":7,"data":"Apache"},{"type":"hashtag","offset":48,"length":4,"data":"CXF"},{"type":"hashtag","offset":53,"length":6,"data":"JUnit"},{"type":"hashtag","offset":70,"length":12,"data":"DigitalZone"},{"type":"hashtag","offset":93,"length":16,"data":"удаленнаяработа"},{"type":"handle","offset":145,"length":10,"data":"JuliaVlad"}],"date":"2020-03-23T15:33:02+00:00","link":"tg://resolve?domain=jvmjobs&post=1310","tags":[{"name":"java"},{"name":"jvm"},{"name":"spring"},{"name":"jpa"},{"name":"jsf"},{"name":"apache"},{"name":"junit"},{"name":"sql"},{"name":"oracle"},{"name":"maven"},{"name":"git"},{"name":"spring-mvc"},{"name":"spring-boot"}],"cities":[],"allowsRemote":true}}]}}},"context":{}}