{"hash":"f34fd2c444a074f4e0e67d525015a008ef8e766f","data":{"records":{"id":"linux","name":"linux","belongsTo":{"totalCount":103,"pageInfo":{"totalPages":11,"currentPage":11},"edges":[{"node":{"__typename":"Job","id":"201326592-1001352129329","title":"Go разработчик","text":"#вакансия #backend  #backenddeveloper #Go #php #fulltime #moscow #senior #middle\n\n\ninDriver - международный ride-hailing сервис:\n* 35 млн пользователей. \n* Мы в 29 странах мира.\n* Входим в топ-5 мобильных сервисов для заказа поездки по итогам июля 2019 года.\n* Офис возле м. 1905 года.\n\nНаша команда разработчиков создает глобальный высокотехнологичный продукт, который меняет жизнь миллионов людей к лучшему. Ежедневно каждый из нас решает очень сложные, интересные задачи и делает это в максимально комфортных условиях - без дресскода, строгой иерархии и бюрократии.\n\nОбязанности:\n\n* Разработка и поддержка backend сервисов на Go/PHP\n* Прототипирование новых решений\n* Проведение код-ревью, написание юнит, компонентных тестов, профилирование\n* Развитие микро-сервисного подхода\n* Troubleshooting в среде Linux/Kubernetes, консультирование команды\n\nТребования:\n\n* Знание микро-сервисных, high load архитектур\n* Опыт работы в высоконагруженных проектах от 2-х лет\n* Знание на уровне администрирования Linux и платформы Kubernetes\n* Опыт работы с СУБД (MySQL, mariadb, Postgres одна из них)\n\nБудет плюсом:\n\n* Развитие микро-сервисного подхода\n* Знакомство с системами очередей сообщений (RabbitMQ, Nats или другие)\n* Опыт работы с системами CI/CD, Kubernetes\n\nЗП от 160 тыс.руб.\nГород Москва, только офис фуллтайм\nЯзыки русский, английский\n\nПисать @mariamolko\n Автор @mariamolko","markup":[{"type":"hashtag","offset":0,"length":9,"data":"вакансия"},{"type":"hashtag","offset":10,"length":8,"data":"backend"},{"type":"hashtag","offset":20,"length":17,"data":"backenddeveloper"},{"type":"hashtag","offset":38,"length":3,"data":"Go"},{"type":"hashtag","offset":42,"length":4,"data":"php"},{"type":"hashtag","offset":47,"length":9,"data":"fulltime"},{"type":"hashtag","offset":57,"length":7,"data":"moscow"},{"type":"hashtag","offset":65,"length":7,"data":"senior"},{"type":"hashtag","offset":73,"length":7,"data":"middle"},{"type":"handle","offset":1348,"length":11,"data":"mariamolko"},{"type":"handle","offset":1367,"length":11,"data":"mariamolko"}],"date":"2020-01-14T11:18:34+00:00","link":"tg://resolve?domain=gogetajobfeed&post=192","tags":[{"name":"go"},{"name":"php"},{"name":"linux"},{"name":"kubernetes"},{"name":"mysql"},{"name":"mariadb"},{"name":"postgresql"},{"name":"rabbitmq"}],"cities":[{"code":"moscow"}],"allowsRemote":false}},{"node":{"__typename":"Job","id":"197132288-1001352129329","title":"Golang developer","text":"#вакансия #Golang developer #офис #Москва #fulltime #метро Павелецкая #зп 150 000руб на руки. \n\nВсем привет! ❄️ \nНадежда - it рекрутер 😌 ищу Go developerа в компанию rubetek, которая занимается реализацией систем «умный дом».\nДержит свой интернет-магазин. В поисках коллеги, который сможет влиться в команду, чтобы совместно развивать серверную часть экосистемы и сопутствующие сервисы, поможет построить лучший в IoT отказоустойчивый сервис 24/7.\nЧто нужно будет делать:\n ⁃ Разрабатывать новый и поддерживать существующий функционал серверной части\n ⁃ Проектировать и реализовывать API для устройств IoT и публичное API экосистемы\n ⁃ Разрабатывать инструменты управления и мониторинга, сбора и анализа статистики\n ⁃ Анализировать и оптимизировать производительность сервисов\n ⁃ Писать модульные, функциональные и интеграционные тесты\n ⁃ Участвовать в совершенствовании архитектуры платформы\nМы ожидаем от Вас:\n • Уверенные знания языка Go (Golang), опыт коммерческих проектов на нем порядка двух лет\n • Нам важно! чтобы было стремление доводить дела до конца, а также несмотря на опыт и хорошую теоретическую подготовку была тяга к постоянному развитию.\n • Далее стек: SQL (у нас MariaDB)/NoSQL, Опыт работы с SQL/NoSQL\n • API, API Design ( REST, RPC)\n • Хорошие знания Git\n • Написание тестов, CI\n • Уверенное использование Linux\nКомпания предлагает в замен:\n • Интересная работа в инновационном проекте в сфере IoT.\n • Официальное трудоустройство по ТК РФ с 1-го рабочего дня и полностью белая зарплата.\n • Оплачиваемые отпуск и больничный.\n • Благоприятные условия работы и очень дружный коллектив.\n • Комфортный и современный офис в стиле лофт в Бизнес квартале Новоспасский двор, в шаговой доступности от м. Павелецкая.\n • Заработная плата до 150 000 руб по итогу собеседования.\n\nПишите @NadiSmile или скидывайте информацию о себе n.ivanova@witrec.com\n Автор @NadiSmile","markup":[{"type":"hashtag","offset":0,"length":9,"data":"вакансия"},{"type":"hashtag","offset":10,"length":7,"data":"Golang"},{"type":"hashtag","offset":28,"length":5,"data":"офис"},{"type":"hashtag","offset":34,"length":7,"data":"Москва"},{"type":"hashtag","offset":42,"length":9,"data":"fulltime"},{"type":"hashtag","offset":52,"length":6,"data":"метро"},{"type":"hashtag","offset":70,"length":3,"data":"зп"},{"type":"handle","offset":1794,"length":10,"data":"NadiSmile"},{"type":"link","offset":1838,"length":20,"data":"mailto:n.ivanova@witrec.com"},{"type":"handle","offset":1866,"length":10,"data":"NadiSmile"}],"date":"2019-12-25T13:40:49+00:00","link":"tg://resolve?domain=gogetajobfeed&post=188","tags":[{"name":"go"},{"name":"sql"},{"name":"mariadb"},{"name":"nosql"},{"name":"rest"},{"name":"git"},{"name":"linux"}],"cities":[{"code":"moscow"}],"allowsRemote":false}},{"node":{"__typename":"Job","id":"44040192-1001375797688","title":".net разработчик","text":"#вакансия #москва #офис Мидл разработчик ЗП:100-140 руб белая на карточку сбера пилим свою платформу с сервисной архитектурой, а на ней два продукта. Стек ASP .NET Core + голый TypeScript + MSSQL/PostgreSQL (windows/Linux) детальное описание вакансии тут https://hh.ru/vacancy/33744101 примеры реализации можно посмотреть тут https://youtu.be/TpHSMOcZ4qM","markup":[{"type":"hashtag","offset":0,"length":9,"data":"вакансия"},{"type":"hashtag","offset":10,"length":7,"data":"москва"},{"type":"hashtag","offset":18,"length":5,"data":"офис"},{"type":"link","offset":255,"length":30,"data":"https://hh.ru/vacancy/33744101"},{"type":"link","offset":326,"length":28,"data":"https://youtu.be/TpHSMOcZ4qM"}],"date":"2019-11-06T23:56:08+00:00","link":"tg://resolve?domain=DotNetRuJobsFeed&post=42","tags":[{"name":"dotnet"},{"name":"csharp"},{"name":"typescript"},{"name":"sql-server"},{"name":"postgresql"},{"name":"windows"},{"name":"linux"},{"name":"asp-net"},{"name":"net-core"},{"name":"asp-net-core"}],"cities":[{"code":"moscow"}],"allowsRemote":false}}]}}},"context":{}}