{"hash":"f5f6bf98bd95e769321482904cbbd488f77922fd","data":{"records":{"id":"unix","name":"unix","belongsTo":{"totalCount":31,"pageInfo":{"totalPages":4,"currentPage":3},"edges":[{"node":{"__typename":"Job","id":"103309901824-1001089317451","title":"Qa engineer","text":"#Москва #вакансия #QA #manual  #python\n\nДолжность: QA Engineer \nКомпания: Andromeda Lab\nЗП: до 120 000 \nФормат работы: офис, гибкое начало дня\nЗанятость: полная\n\n\nКого мы ищем:\nЧеловека который готов заниматься ручным тестированием 80% времени и 20% времени - автоматизацией.Со временем доля автоматизации вырастет до 50%\n\nЗадачи:\n- Тестирование ERP-системы;\n- Введение документации для тестирования (Создание тест-кейсов, чек-листов и т.д.)\n- Тестирование мобильного приложения \n- Участие в автоматизации тестирования продуктов компании\n\nОбязанности:\n- Понимание жизненного цикла разработки продукта\n- Знание теории и видов тестирования,  умение вести тестовую документацию;\n- Умение локализовать баги и оформлять баг репорты\n- Понимание и умение применять техники тест-дизайна\n- Тестирование API\n- Опыт использование Postman\n- Понимание мобильного тестирования \n- Знание и умение пользования командной строкой UNIX\n- Знание SQL (простые запросы), Git\n- Умение использовать снифферы (Charles,Fiddler и т.д.)\n- Умение работать с Docker\n- Начальные знания Python либо желание выучить в ближайшее время\n\nПредлагаем:\n- белая зп (до 120 000, зависит от опыта);\n- уютный офис в Moscow City (сладости, печенки,кофе\\чай,PS4 и т.д.);\n- ДМС,  курсы английского, участие в конференциях. \n\nРезюме скидывать в лс.","markup":[{"type":"hashtag","offset":0,"length":7,"data":"Москва"},{"type":"hashtag","offset":8,"length":9,"data":"вакансия"},{"type":"hashtag","offset":18,"length":3,"data":"QA"},{"type":"hashtag","offset":22,"length":7,"data":"manual"},{"type":"hashtag","offset":31,"length":7,"data":"python"}],"date":"2020-06-19T15:36:21+00:00","link":"tg://resolve?domain=qa_jobs&post=98524","tags":[{"name":"qa"},{"name":"python"},{"name":"unix"},{"name":"sql"},{"name":"git"},{"name":"docker"}],"cities":[{"code":"moscow"}],"allowsRemote":false}},{"node":{"__typename":"Job","id":"349175808-1001352129329","title":"Golang разработчик","text":"Ребят, всем привет! \nПростыню сюда флудить не хочется поэтому постараюсь кратко, а подробности в ЛС, заранее напишу, что это Москва (Фултайм в офис), компания Lofty. Ищем в команду как Midle так и один Senior нужен.\n Вообщем если хочется в highload, добро пожаловать!)\n\nО проекте:\nЭто высоконагруженное backend приложение для рассылки web push-уведомлений, обслуживающее на данный момент более 100млн показов в сутки. \nЧем у нас предстоит заниматься:\nПрофилировать и оптимизировать существующие сервисы;\nПроводить доработки и интеграцию их в действующий код и инфраструктуру;\nРеализовывать новые бизнес-требования внутри сервиса;\nУстранять возникающие баги в сервисе.\n\nЧто мы ждем от кандидата:\nНавыки работы с Git;\nУверенное знание Golang;\nПонимание технологий HTTP, REST;\nОпыт работы в Unix-окружении.\n\nБудет совсем круто, если вы:\nРаботали с highload-проектами;\nПонимаете и уважаете концепцию CI/CD.\nНаш стек технологий: Golang, Gitlab, MySQL, JS, RabbitMQ, Docker, Ansible, Clickhouse\n\nУсловия: \nЗаработная плата от 130 000 до 300 000 руб. на руки, естественно зависит от уровня, преимущественно смотрим \"мидов\", но и \"джуны\" нам тоже интересны.\n\n#вакансия#golang","markup":[],"date":"2020-06-19T10:03:46+00:00","link":"tg://resolve?domain=gogetajobfeed&post=333","tags":[{"name":"go"},{"name":"web"},{"name":"git"},{"name":"rest"},{"name":"unix"},{"name":"gitlab"},{"name":"mysql"},{"name":"rabbitmq"},{"name":"docker"},{"name":"ansible"}],"cities":[{"code":"moscow"}],"allowsRemote":false}},{"node":{"__typename":"Job","id":"2228224000-1001134745498","title":"Devops инженер","text":"#вакансия #офис #Москва #DevSecOps \n\nИщу любителя безопасной инфраструктуры в компанию Swordfish Security.\n\nРебята интересные, команда адекватная, практикуют создание защищенных приложений, адаптируя и тиражируя практики SSDL.\n\nИх применение гарантирует премиальный уровень защищенности ПО, а максимальная автоматизация процессов при помощи инструментального стека DevSecOps обеспечивает эффективность инженерного процесса разработки. (с)\n\nВилка: 120-180+\nПожелания к опыту: 1-3 года\n\nЧто надо уметь:\n- кодить на Java или Python, уметь разбираться в чужом коде\n- знать, зачем вообще нужны DevOps-практики\n\n- Опыт работы с инструментами безопасности:\nSAST (Checkmarx, Fortify, Solar Incode) - в приоритете;\nБудет плюсом - DAST (NetSparker, Acunetix, HP WebInspect, Burp Enterprise, Wallarm FAST);\nБудет плюсом - OSA / SCA (Nexus IQ, WhiteSource, BlackDuck, Dependency Checker);\nУверенная работа с Unix системами;\nУмение находить и эксплуатировать уязвимости;\n\nБудет плюсом опыт работы с широким инструментальным стеком разработки:\n* Teamcity/Jenkins/Gitlab CI,\n* Bitbucket/GitLab,\n* Jira/Confluence,\n* Nexus Repo/Jfrog Artifactory,\n* Docker/Kubernetes;\n\nУсловия:\nОфис, Москва ст. м. ЗИЛ, Тульская, Новоданиловская набережная, 6к1\nгибкий график, плюшки \"спорт+ДМС\" :)\n\nКонтакты:\nПолина @polinathin\n\n—\n\n👉 Обсуждение вакансии в чате @devops_jobs","markup":[{"type":"hashtag","offset":0,"length":9,"data":"вакансия"},{"type":"hashtag","offset":10,"length":5,"data":"офис"},{"type":"hashtag","offset":16,"length":7,"data":"Москва"},{"type":"hashtag","offset":24,"length":10,"data":"DevSecOps"},{"type":"handle","offset":1284,"length":11,"data":"polinathin"},{"type":"handle","offset":1330,"length":12,"data":"devops_jobs"}],"date":"2020-06-19T09:38:47+00:00","link":"tg://resolve?domain=devops_jobs_feed&post=2125","tags":[{"name":"java"},{"name":"python"},{"name":"unix"},{"name":"jenkins"},{"name":"gitlab"},{"name":"docker"},{"name":"kubernetes"}],"cities":[{"code":"moscow"}],"allowsRemote":false}},{"node":{"__typename":"Job","id":"17009999872-1001110946746","title":"Js разработчик","text":"#вакансия #удаленно #frontend #react\nКомпания - VMB\nГород - Москва \nМетро - Киевская\nФормат - удаленная работа \nГрафик - полный рабочий день \n\n📍Приглашаем middle/middle + frontend разработчика развивать социальный и известный проект \n📍Что нужно? \nзнание React и TypeScript;\nотличное владение чистым JS;\nхорошее знание Node.js и ES6;\nхорошее знание HTML и CSS;\nумение работать с Git;\nпонимание особенностей SPA-приложений.\n📍Плюсами будут:\nпонимание принципов разработки изоморфных приложений;\nопыт разработки под мобильные браузеры;\nзнакомство с Unix-системами;\nопыт написания тестов (юнит- или интеграционных);\nопыт работы с системами сборки (Webpack, Rollup, Gulp, Grunt и т. п.);\nопыт работы с системами непрерывной интеграции (TeamСity, Travis, Jenkins, Drone и т. п.).\n📍Что предлагаем?\nУдалённую занятость \nВозможность развиваться и развивать интересный проект\nЗП 150-200к рублей на руки \n\nКонтакты \n@nariarakel","markup":[{"type":"hashtag","offset":0,"length":9,"data":"вакансия"},{"type":"hashtag","offset":10,"length":9,"data":"удаленно"},{"type":"hashtag","offset":20,"length":9,"data":"frontend"},{"type":"hashtag","offset":30,"length":6,"data":"react"},{"type":"handle","offset":908,"length":11,"data":"nariarakel"}],"date":"2020-06-17T15:21:28+00:00","link":"tg://resolve?domain=javascript_jobs_feed&post=0","tags":[{"name":"javascript"},{"name":"reactjs"},{"name":"typescript"},{"name":"nodejs"},{"name":"html"},{"name":"css"},{"name":"git"},{"name":"unix"},{"name":"webpack"},{"name":"gulp"},{"name":"gruntjs"},{"name":"jenkins"}],"cities":[{"code":"moscow"},{"code":"kiev"}],"allowsRemote":true}},{"node":{"__typename":"Job","id":"103049854976-1001089317451","title":"Qa инженер","text":"#вакансия  #qa #senior #remote #удаленно #fulltime #blockchain \n\nСрочно ищем Инженера по тестированию смарт контрактов \n\nФормат работы: #удаленка\nЗанятость: #полная\nОпыт: 5+лет\nЗарплатная вилка: $2000-$4000\n\nTON Labs - независимая международная IT-компания, которая занимается  разработкой решений на основе блокчейн-платформы TON, с командой из более 50 разработчиков, инженеров и профессионалов со всего мира.  Проект реализуется с нуля.\n\nIn a blockchain environment, a single mistake could cost you all of your funds — or, even worse, your users' funds. Testing of smart contracts according to the specification is a task of paramount importance.\n\nResponsibilities\n    Lead the efforts around shipping quality product\n    Work with smart contract specification authors to assess specification feasibility   \n    Develop test scenarios according to smart contract specification\n    Create, develop and manage a unified expandable test automation framework \n    Create automated tests for existing and new smart contracts\n    Develop test plans and perform multiple types of testing including functional, system, end to end, load, performance, data integrity, smoke, regression, and ad hoc\n    Submit comprehensive defects using our bug tracking system\n    Regress and verify defects as needed, record test results, and provide metrics\n    Lead and implement plans for improving testing and release processes\n\nJob requirements:\n    3+ years of experience in Software Engineering, Test, or Deployment\n    Good understanding of an asynchronous messaging model\n    Some experience with Python/Unix shell scripting\n    Strong analytical skills to work with developers for troubleshooting and peer review\n    Effective written and verbal communication skills\n\nThe following qualifications are a plus:\n    Understanding of basic principles and concepts of the TON Blockchain is a strong advantage\n    BS degree or equivalent work experience in Computer Science or related field\n    Experience with testing of asynchronous systems is an advantage\n    Experience with Scrum and other Agile methodologies\n\nНазвание компании: Ton Labs\nКонтакты: @Marina0733\nДля резюме: marina.k@tonlabs.io","markup":[{"type":"hashtag","offset":0,"length":9,"data":"вакансия"},{"type":"hashtag","offset":11,"length":3,"data":"qa"},{"type":"hashtag","offset":15,"length":7,"data":"senior"},{"type":"hashtag","offset":23,"length":7,"data":"remote"},{"type":"hashtag","offset":31,"length":9,"data":"удаленно"},{"type":"hashtag","offset":41,"length":9,"data":"fulltime"},{"type":"hashtag","offset":51,"length":11,"data":"blockchain"},{"type":"hashtag","offset":136,"length":9,"data":"удаленка"},{"type":"hashtag","offset":157,"length":7,"data":"полная"},{"type":"handle","offset":2136,"length":11,"data":"Marina0733"},{"type":"link","offset":2160,"length":19,"data":"mailto:marina.k@tonlabs.io"}],"date":"2020-06-17T11:02:39+00:00","link":"tg://resolve?domain=qa_jobs&post=0","tags":[{"name":"qa"},{"name":"deployment"},{"name":"python"},{"name":"unix"},{"name":"shell"}],"cities":[],"allowsRemote":true}},{"node":{"__typename":"Job","id":"91038416896-1001067529236","title":"Python разработчик","text":"#вакансия #python #Казань\n\nНаш основной проект Матур:мастера маникюра. \n\nВаши задачи:\n• Участие в продуктовой разработке с высоким уровнем свободы и ответственности.\n• Изучение и реализация новых требований, анализ и устранение неисправностей в написанном коде.\n• Применение современных подходов и технологий разработки.\n\nТехнологии и требования:\n• ​​​​Знание Python (версии 3+)\n• Знание Python-фреймворков (DRF и Django)\n• Знание Channels под Django\n• Навыки построения REST API на Python\n• Опыт использования ORM\n• Умение работать с системой контроля версий (Git)\n• Опыт работы с Unix-образными системами\n• Опыт работы с базами (postgresql, redis)\n• Опыт работы с Docker, docker-compose\n\nУсловия:\n• Полная занятость; пн-пт; 8 часовой рабочий день. \n• Плавающее начало рабочего дня; возможность несколько раз в неделю работать из дома.\n• Современный и комфортный офис; Бесплатные обеды в офис.\n• Работа в небольшом и дружном коллективе, сплоченной команде профессионалов с отзывчивым руководство.\n• Профессиональное развитие с возможностью посещения ИТ конференций,семинаров, митапов.\n• Заработная плата от 60.000 рублей по результатам собеседования.\n\nПервый контакт: @rkrts","markup":[{"type":"hashtag","offset":0,"length":9,"data":"вакансия"},{"type":"hashtag","offset":10,"length":7,"data":"python"},{"type":"hashtag","offset":18,"length":7,"data":"Казань"},{"type":"bold","offset":73,"length":12,"data":""},{"type":"bold","offset":322,"length":24,"data":""},{"type":"bold","offset":690,"length":8,"data":""},{"type":"handle","offset":1169,"length":6,"data":"rkrts"}],"date":"2020-06-16T18:49:54+00:00","link":"tg://resolve?domain=python_jobs&post=0","tags":[{"name":"python"},{"name":"django"},{"name":"rest"},{"name":"orm"},{"name":"git"},{"name":"unix"},{"name":"postgresql"},{"name":"redis"},{"name":"docker"},{"name":"docker-compose"}],"cities":[{"code":"kazan"}],"allowsRemote":false}},{"node":{"__typename":"Job","id":"102969114624-1001089317451","title":"Qa engineer","text":"#Москва #вакансия #QA #ручное тестирование #тестировщик #manual  #python\n\nДолжность: QA Engineer \nКомпания: Get IT, Москва\nЗП: до 120 000 \nФормат работы: офис, гибкое начало дня\nЗанятость: полная\n\n☘️Задачи:\n- Тестирование ERP-системы;\n- Создание тест-кейсов, чек-листов и т.д. \n\n☘️Ожидания:\n- Понимание жизненного цикла разработки продукта\n- Знание теории и видов тестирования,  умение вести тестовую документацию;\n- Умение локализовать баги и оформлять баг репорты\n- Понимание и умение применять техники тест-дизайна\n- Тестирование API\n- Опыт использование Postman\n- Понимание мобильного тестирования \n- Знание и умение пользования командной строкой UNIX\n- Знание SQL (простые запросы), Git\n- Умение использовать снифферы (Charles,Fiddler и т.д.)\n- Опыт работы 1-3 года\nЖелательно:\n- Умение работать с Docker\n- Python\n\n☘️Предлагаем:\n- белая зп (до 120 000, зависит от опыта);\n- офис в центре Москвы;\n- ДМС,  курсы английского, участие в конференциях. \n\nКонтакт: @Olga11019","markup":[{"type":"hashtag","offset":0,"length":7,"data":"Москва"},{"type":"hashtag","offset":8,"length":9,"data":"вакансия"},{"type":"hashtag","offset":18,"length":3,"data":"QA"},{"type":"hashtag","offset":22,"length":7,"data":"ручное"},{"type":"hashtag","offset":43,"length":12,"data":"тестировщик"},{"type":"hashtag","offset":56,"length":7,"data":"manual"},{"type":"hashtag","offset":65,"length":7,"data":"python"},{"type":"handle","offset":963,"length":10,"data":"Olga11019"}],"date":"2020-06-16T16:53:06+00:00","link":"tg://resolve?domain=qa_jobs&post=0","tags":[{"name":"qa"},{"name":"python"},{"name":"unix"},{"name":"sql"},{"name":"git"},{"name":"docker"}],"cities":[{"code":"moscow"}],"allowsRemote":false}},{"node":{"__typename":"Job","id":"1697644544-1001091028994","title":"Java разработчик","text":"#java #javascript #middle #senior\nКомпания: #kode \nЛокация: #калининград\nЗ/п: от 100К руб\nКонтакты: @Nadia_Rudometova\n \nKODE – компания мобильной разработки, которая закрепилась в ТОП-10 лучших студий и постоянно улучшает свои позиции. Мы выступаем технологическими партнёрами бизнеса, помогая заказчику развивать их digital-сервисы. \n\nЧто нужно делать?\n-Декомпозировать, планировать и оценивать задачи;\nУчаствовать в проектировании сложных систем с чистого листа;\n-Проектировать архитектуру веб-сервисов и REST API;\n-Реализовывать сложные интеграции с различными системами (GDS, банкинг, ритейл, биллинг и т.д.);\n-Покрывать свой код тестами;\n-Сопровождать и документировать архитектурные решения по своим проектам;\n-Взаимодействовать с участниками проектной команды для реализации лучших решений\n\nЧто нужно уметь?\n-Отличные знания Java;\n-Знания Spring и Spring Boot, Groovy;\n-Опыт работы c Kafka;\n-Умение использовать различные инструменты для тестирования кода и приложений различной сложности: JUnit, Spock, Testcontainers, Mockito, Hamcrest;\n-Опыт работы с SQL и NoSQL СУБД;\nЗнание принципов и шаблонов проектирования;\n-Уверенные знания о работе unix-систем. Любовь к ним и умение с ними работать;\n-Умение работать с Docker, docker-compose;\n\nЧто предлагаем?\n-Официальное оформление по ТК;\n-Работа в продуктовой команде, используя современный стек разработки;\n-Возможность влиять на развитие проекта и компании;\n-Корпоративы в Европе","markup":[{"type":"hashtag","offset":0,"length":5,"data":"java"},{"type":"hashtag","offset":6,"length":11,"data":"javascript"},{"type":"hashtag","offset":18,"length":7,"data":"middle"},{"type":"hashtag","offset":26,"length":7,"data":"senior"},{"type":"hashtag","offset":44,"length":5,"data":"kode"},{"type":"hashtag","offset":60,"length":12,"data":"калининград"},{"type":"handle","offset":100,"length":17,"data":"Nadia_Rudometova"}],"date":"2020-06-16T14:47:56+00:00","link":"tg://resolve?domain=jvmjobs&post=1619","tags":[{"name":"java"},{"name":"jvm"},{"name":"javascript"},{"name":"rest"},{"name":"spring"},{"name":"groovy"},{"name":"kafka"},{"name":"junit"},{"name":"sql"},{"name":"nosql"},{"name":"unix"},{"name":"docker"},{"name":"spring-boot"},{"name":"docker-compose"}],"cities":[{"code":"kaliningrad"}],"allowsRemote":false}},{"node":{"__typename":"Job","id":"340787200-1001352129329","title":"Golang разработчик","text":"#вакансия #Москва #senior #Go #fulltime #офис #удаленка  \nВакансия: Lead or Senior Golang Developer \nКомпания: Skytech Solutions\nГород: Moscow/Malta\nФормат работы: офис или удаленка (на выбор кандидата)\nЗанятость: полная\nВилка заработной платы: от 180 000 - 230 000 р на руки\n\nТребуемый опыт работы: 3–6 лет.\nПолная занятость, полный день\n\nОбязанности:\nСоздание высоконагруженных сервисов / микро-сервисов;\nРазработка интеграции с внешними сервисами;\nРазработка платформы для Betting / Gambling;\nРазработка надежной, безопасной и безотказной экосистемы;\nРешение сложных и интересных задач;\n\nТребования:\nИметь опыт коммерческой разработки ПО на Go не менее 3-х лет, отличное знание языка и экосистемы;\nПонимание многопоточности, параллельных вычислений и широко используемых структур данных и алгоритмов;\nПонимание основных паттернов проектирования;\nУмение работать с контролем версий Git;\nУверенно знаете стек TCP / IP;\nЗнаете RFC стандартны HTTP / WebSockets;\nРаботаете с REST / GraphQL;\nЗнание лучших практик разработки микро-сервисных архитектур, Docker и опыт production релизов совместно с девопс инженерами;\nИмеете опыт написания высоконагруженных систем;\nРаботаете unix-подобными системами;\nОтличное знание SQL и одной из реляционных СУБД.\nСильные навыки решения проблем, желание работать в команде;\n\nБудет плюсом:\nПрофильное высшее образование (математическое или техническое);\nИмеете опыт разработки подобных решений (Ставки на спорт/Gambling/Poker/Trade)\nЗнание Алгоритмов\nОпыт работы с Графовыми базами данных;\n\nSoft skills:\nРешать поставленные задачи максимально эффективно в поставленный срок;\nЯвляться командным разработчиком, слышать других и учитывать чужое мнение;\nПонимать, что не надо делать overhead там, где это не надо;\nБыть самостоятельным и уметь брать на себя ответственность за свои решения;\nСчитать тестирование неотъемлемой частью разработки;\nСпокойно относиться к техническому долгу, так как это нормальный этап в развитии проекта;\n\nНемного о проекте:\nВ связи с расширением нашего портфеля проектов, мы находится в поисках квалифицированных разработчиков ПО.\nМы разрабатываем  высоконагруженный проект, связанный со ставками на sport/e-sport , фактически - это биржа ставок со своими сопутствующими сервисами, в нашем случае упор идет на Algo-trading, bot platform, AI и алгоритмы. Проект очень сложный и интересный, нет Legacy кода, все разрабатывается с 0. Будем рады видеть тебя в своих рядах.\nНаш стек :\nLinux, Go, PostgreSQL, Git, ArangoDB, Tarantool, Kafka, Redis.\n\nМы предлагаем:\nВозможность карьерного и профессионального роста в международной компании;\nРабота по контракту с зарубежной компанией (Мальта);\nВысокий уровень заработной платы;\nБонусы и премии по итогам выполненных задач;\nРазработка ведется по гибким методологиям;\nВозможна удаленная работа;\nГибкий график работы, но без фанатизма (главное - это качественное выполнение задач в сжатые сроки);\nПК - MacBook;\nМолодой профессиональный коллектив.\n\nКонтакты: telegram @FreddyNigma","markup":[{"type":"hashtag","offset":0,"length":9,"data":"вакансия"},{"type":"hashtag","offset":10,"length":7,"data":"Москва"},{"type":"hashtag","offset":18,"length":7,"data":"senior"},{"type":"hashtag","offset":26,"length":3,"data":"Go"},{"type":"hashtag","offset":30,"length":9,"data":"fulltime"},{"type":"hashtag","offset":40,"length":5,"data":"офис"},{"type":"hashtag","offset":46,"length":9,"data":"удаленка"},{"type":"handle","offset":2968,"length":12,"data":"FreddyNigma"}],"date":"2020-06-15T19:50:50+00:00","link":"tg://resolve?domain=gogetajobfeed&post=325","tags":[{"name":"go"},{"name":"git"},{"name":"rest"},{"name":"graphql"},{"name":"docker"},{"name":"unix"},{"name":"sql"},{"name":"linux"},{"name":"postgresql"},{"name":"kafka"},{"name":"redis"}],"cities":[{"code":"moscow"}],"allowsRemote":true}},{"node":{"__typename":"Job","id":"102836994048-1001089317451","title":"Qa инженер","text":"#вакансия  #qa #senior #remote #удаленно #fulltime #blockchain \n\nСрочно ищем Инженера по тестированию смарт контрактов \n\nФормат работы: #удаленка\nЗанятость: #полная\nОпыт: 5+лет\nЗарплатная вилка: $2000-$4000\n\nTON Labs - независимая международная IT-компания, которая занимается  разработкой решений на основе блокчейн-платформы TON, с командой из более 50 разработчиков, инженеров и профессионалов со всего мира.  Проект реализуется с нуля.\n\nIn a blockchain environment, a single mistake could cost you all of your funds — or, even worse, your users' funds. Testing of smart contracts according to the specification is a task of paramount importance.\n\nResponsibilities\n    Lead the efforts around shipping quality product\n    Work with smart contract specification authors to assess specification feasibility   \n    Develop test scenarios according to smart contract specification\n    Create, develop and manage a unified expandable test automation framework \n    Create automated tests for existing and new smart contracts\n    Develop test plans and perform multiple types of testing including functional, system, end to end, load, performance, data integrity, smoke, regression, and ad hoc\n    Submit comprehensive defects using our bug tracking system\n    Regress and verify defects as needed, record test results, and provide metrics\n    Lead and implement plans for improving testing and release processes\n\nJob requirements:\n    3+ years of experience in Software Engineering, Test, or Deployment\n    Good understanding of an asynchronous messaging model\n    Some experience with Python/Unix shell scripting\n    Strong analytical skills to work with developers for troubleshooting and peer review\n    Effective written and verbal communication skills\n\nThe following qualifications are a plus:\n    Understanding of basic principles and concepts of the TON Blockchain is a strong advantage\n    BS degree or equivalent work experience in Computer Science or related field\n    Experience with testing of asynchronous systems is an advantage\n    Experience with Scrum and other Agile methodologies\n\nНазвание компании: Ton Labs\nКонтакты: @Marina0733\nДля резюме: marina.k@tonlabs.io","markup":[{"type":"hashtag","offset":0,"length":9,"data":"вакансия"},{"type":"hashtag","offset":11,"length":3,"data":"qa"},{"type":"hashtag","offset":15,"length":7,"data":"senior"},{"type":"hashtag","offset":23,"length":7,"data":"remote"},{"type":"hashtag","offset":31,"length":9,"data":"удаленно"},{"type":"hashtag","offset":41,"length":9,"data":"fulltime"},{"type":"hashtag","offset":51,"length":11,"data":"blockchain"},{"type":"hashtag","offset":136,"length":9,"data":"удаленка"},{"type":"hashtag","offset":157,"length":7,"data":"полная"},{"type":"handle","offset":2136,"length":11,"data":"Marina0733"},{"type":"link","offset":2160,"length":19,"data":"mailto:marina.k@tonlabs.io"}],"date":"2020-06-15T09:10:32+00:00","link":"tg://resolve?domain=qa_jobs&post=0","tags":[{"name":"qa"},{"name":"deployment"},{"name":"python"},{"name":"unix"},{"name":"shell"}],"cities":[],"allowsRemote":true}}]}}},"context":{}}