{"hash":"f5f6bf98bd95e769321482904cbbd488f77922fd","data":{"records":{"id":"scala","name":"scala","belongsTo":{"totalCount":13,"pageInfo":{"totalPages":2,"currentPage":1},"edges":[{"node":{"__typename":"Job","id":"104309194752-1001089317451","title":"Qa инженер","text":"#moscow #москва #вакансия\n\nИщем QA инженера в британский стартап с российскими корнями copper.co. \n\nНам нужен человек, которому до всего будет дело :)\n\nВилка - от 1500 до 2200 usd\n\nЗадачи:\n — создание и поддержка функциональных и регрессионных тестов на JS на новый и существующий код.\n — проведение ручного тестирование web, мобильных и desktop приложений\n \n — контроль задачи на каждом этапе производственного цикла\n — релиз менеджмент: сбор и анализ требований, контроль качества реализации, управление процессом CI/CD\n — организация и поддержка процессов тестирования\n — поддержка account managers по техническим вопросам\n\nНеобходимые навыки:\n — опыт ручного тестирования web приложений\n — опыт автоматизированного тестирования\n — понимание процесса разработки\n — умение читать код\n — уметь пользоваться логами\n\nБудет плюсом:\n — разговорный и письменный английский \n — базовые навыки и желание развиваться в построении серверной инфраструктуры\n — опыт промышленной разработки\n\nО проекте:\n — Сервисно-ориентированная архитектура (SOA)\n — Backend на Scala/Java, фронтенд: ReactJS, нативные мобильные приложения, desktop на ElectronJS\n — AWS, CI/CD\n — Блокчейн, криптовалюты, финансовые инструменты\n\nПлюшки:\nВозможны командировки, совместные выезды с командой в Европу (мы , конечно, верим в то, что границы будут открыты :));\nДМС – депозит в клинике Медси;\nВ такое непростое время платим зарплату в $$;\nЛамповый офис с кухней в лофте на Тульской;\nНаш стартап – двухлетний продакшн, который имеет выручку от клиентов.\n\n Пишите в ЛС :)","markup":[{"type":"hashtag","offset":0,"length":7,"data":"moscow"},{"type":"hashtag","offset":8,"length":7,"data":"москва"},{"type":"hashtag","offset":16,"length":9,"data":"вакансия"},{"type":"link","offset":87,"length":9,"data":"http://copper.co"}],"date":"2020-07-02T21:43:14+00:00","link":"tg://resolve?domain=qa_jobs&post=99477","tags":[{"name":"qa"},{"name":"web"},{"name":"scala"},{"name":"java"},{"name":"reactjs"},{"name":"amazon-web-services"}],"cities":[{"code":"moscow"}],"allowsRemote":false}},{"node":{"__typename":"Job","id":"2261778432-1001134745498","title":"Devops инженер","text":"#вакансия #разыскивается #devops #Java #developer #Сочи #fulltime #работа #офис \n\nDevOps-инженер\n\nГород: Сочи\n\nФормат работы: офис\n\nЗанятость: полная\n\nЗарплатная вилка: от 130 000 до 150 000 рублей\n\nОписание вакансии:\nСоздание системы по управлению метаданными компании. Работа в кроссфункциональной команде в составе до 10 человек\n\nНазвание компании: ОЦРВ\n\nПримерный пул задач:\n•  Участие в построение архитектуры решения\n•  Развертывание и сопровождение тестовых и производственных сред экосистемы Hadoop (для R&D проектов)\n•  Настройка, оптимизация параметров кластера, траблшутинг проблем пользователей\n•  Построение CI/CD\n•  Управление мониторингом сервиса (метрики, мониторинг, алертинг, лучшие практики) со стороны эксплуатации\n•  Проведение инсталляций, апгрейдов, наката патчей и настройки дистрибутивов: ODPi Egeria, Cloudera, Hortonworks и др\n•  Подготовка инструкций для администраторов промышленных систем\n•  Обеспечение информационной безопасности на уровне инфраструктуры\n•  Управления мощностью сервиса со стороны эксплуатации\n•  Автоматизация интеграционных и функциональных тестов\n\n\nНаши требования к кандидату: \n•  Не менее 2х лет релевантного (администратор *nix) опыта работы\n•  Сильные навыки в администрировании Linux (package management, user management, shell scripting)\n•  Опыт написания скриптов автоматизации (perl, bash, powershell, python, Java, Groovy)\n•  Опыт работы с системами конфигурационного менеджмента (Puppet, Chef, Ansible, SaltStack)\n•  Опыт работы с ELK, Graylog\n•  Опыт работы с JVM-related технологиями: Java, Scala, Maven, Gradle\n•  Опыт подготовки технической документации (User Guides, Tutorials…)\n•  Опыт администрирования open source решений (трабшутинг, установка обновлений, развертывание, доступы, настройка мониторинга, диагностика узких мест, в т.ч. и производительность)\n\nБудет плюсом\n•  Опыт администрирования экосистемы Hadoop (трабшутинг, установка обновлений, развертывание, доступы, настройка мониторинга, диагностика узких мест, в т.ч. и производительность)\n•  Опыт администрирования MPP СУБД (в т.ч. backup/restore)\n•  Опыт поиска узких мест в производительности приложений со стороны оборудования (диски, cpu, gpu, сеть)\n•  Опыт построения CI/CD\n\n\n\nНаш стек:\nБек: Java 8-11, Spring, PostgreSQL/HBase/MongoDB/JanusGraph, GIT, Docker, Kubernetes, Kafka\nФронт: Vue.js\n\nУсловия: \n•  Офис в Адлере в 10 минутах до моря\n•  Оклад: 130 000 - 150 000 руб. gross\n•  Компенсация проживания 20 000 руб. gross в месяц (для кандидатов из других регионов)\n•  Релокационный бонус в размере оклада (для кандидатов из других регионов)\n•  Премия до 30% годового оклада\n•  Работа в динамичной команде единомышленников\n•  Компенсация ДМС после прохождения испытательного срока\n•  Скидки на ДМС для родственников\n•  Компенсация мобильной связи\n•  Новейшее оборудование и просторный офис\n•  Лучшая экология и климат в России\n•  Море и горнолыжный курорт рядом\n\n\nКомпания: ОЦРВ\nСайт: http://www.ocrv.ru/\nКонтакты: @Mirovan\n\n—\n\n👉 Обсуждение вакансии в чате @devops_jobs","markup":[{"type":"hashtag","offset":0,"length":9,"data":"вакансия"},{"type":"hashtag","offset":10,"length":14,"data":"разыскивается"},{"type":"hashtag","offset":25,"length":7,"data":"devops"},{"type":"hashtag","offset":33,"length":5,"data":"Java"},{"type":"hashtag","offset":39,"length":10,"data":"developer"},{"type":"hashtag","offset":50,"length":5,"data":"Сочи"},{"type":"hashtag","offset":56,"length":9,"data":"fulltime"},{"type":"hashtag","offset":66,"length":7,"data":"работа"},{"type":"hashtag","offset":74,"length":5,"data":"офис"},{"type":"link","offset":2924,"length":19,"data":"http://www.ocrv.ru/"},{"type":"handle","offset":2954,"length":8,"data":"Mirovan"},{"type":"handle","offset":2997,"length":12,"data":"devops_jobs"}],"date":"2020-06-29T14:20:07+00:00","link":"tg://resolve?domain=devops_jobs_feed&post=2157","tags":[{"name":"java"},{"name":"hadoop"},{"name":"linux"},{"name":"shell"},{"name":"perl"},{"name":"bash"},{"name":"powershell"},{"name":"python"},{"name":"groovy"},{"name":"ansible"},{"name":"jvm"},{"name":"scala"},{"name":"maven"},{"name":"gradle"},{"name":"spring"},{"name":"postgresql"},{"name":"hbase"},{"name":"mongodb"},{"name":"git"},{"name":"docker"},{"name":"kubernetes"},{"name":"kafka"},{"name":"vuejs"}],"cities":[{"code":"sochi"}],"allowsRemote":false}},{"node":{"__typename":"Job","id":"1756364800-1001091028994","title":"Java разработчик","text":"#java#fulltime \nЛокация: #Москва ст.м.Петровско-Разумовская, мцк/мжд Окружная \nФормат работы: 5/2 с гибким началом дня, 1 день в неделю можно работать удаленно,остальные в офисе #fulltime  \nЗ/п:  300-400 000 руб. gross (опыт от 5 лет) \nКомпания: ПАО «Детский Мир» \nОснования появления: Расширяем команду, много новых задач. Если ты устал/а от бюрократии и не стабильности- приходи в нашу команду! \nКрупнейший ритейлер на рынке детских товаров (до 130000 заказов в сутки, более 30 000 одновременных пользователей на сайте, 2000-3000 rps на базовые сервисы) ищет Java разработчика для разработки бэкенда в сфере e-commerce. \n \n  Что мы используем : \nJava 14/Scala 2.13, Spring, SpringBoot , Sbt/Maven, MySQL, Kafka, JUnit, Jenkins, GitLab, Docker, Kubernetes, Jira/Confluence, Scrum, Kanban \n \n   Что нужно делать? \n⁃    Писать качественный код для распределенной системы, стек: Java 14/Kafka/Redis/Solr/MySQL \n⁃    Проводить code review кода коллег по команде \n⁃    Разбираться в сложных вопросах интеграции со смежными системами \n⁃    Участвовать в создании архитектурных решений и проектировании высоконагруженных отказоустойчивых систем \n \n    Наши ожидания: \n• Хорошие знания J2SE, в частности - Java Concurrency, Collections \n• Опыт работы с Spring \n• Опыт работы и проектирования REST API \n• Знания SQL и оптимизации запросов \n• Понимание принципов работы сетей: TCP/IP, HTTP, Websockets, etc. \n• Владение git \n• Базовое знание архитектурных паттернов и типичных вариантов решения проблем с производительностью \n \n    Желательно: \n• Базовые знания Docker/Kubernetes \n• Опыт разработки распределенных систем \n• Опыт работы c lucene (Apache Solr, ElasticSearch, Kibana) \n \nМы предлагаем: \n• Официальное оформление в соответствии с ТК РФ в том числе возможно онлайн оформление (или оффлайн в офисе) \n• Отсутствие бюрократии и плоская организационная структура \n• Лояльный бизнес, постоянные коммуникации, возможность на равных обсуждать бизнес-фичи на стадии формирования \n• Хорошая техническая оснащенность: MacBook pro 2019, 27 дюймовые мониторы(4к/5к) \n• до 20% скидка на продукцию компании, расширенный полис ДМС \n• Внешнее обучение, оплата участия в конференциях(JPoint, Highload, Joker etc) \n• Годовые бонусы по итогам работы, ежегодная индексация дохода \n \nСейчас пока работаем частично удаленно, 2 интервью в формате скайпа, не выходя из дома (в офис ехать не обязательно). По любым вопросам отвечу в:  \ntelegram:  @HR_aleshina почта: EAleshina@detmir.ru","markup":[{"type":"hashtag","offset":25,"length":7,"data":"Москва"},{"type":"hashtag","offset":178,"length":9,"data":"fulltime"},{"type":"handle","offset":2425,"length":12,"data":"HR_aleshina"},{"type":"link","offset":2445,"length":19,"data":"mailto:EAleshina@detmir.ru"}],"date":"2020-06-29T09:43:28+00:00","link":"tg://resolve?domain=jvmjobs&post=1675","tags":[{"name":"java"},{"name":"jvm"},{"name":"scala"},{"name":"spring"},{"name":"sbt"},{"name":"maven"},{"name":"mysql"},{"name":"kafka"},{"name":"junit"},{"name":"jenkins"},{"name":"gitlab"},{"name":"docker"},{"name":"kubernetes"},{"name":"redis"},{"name":"solr"},{"name":"rest"},{"name":"sql"},{"name":"git"},{"name":"lucene"},{"name":"apache"},{"name":"elasticsearch"}],"cities":[{"code":"moscow"}],"allowsRemote":true}},{"node":{"__typename":"Job","id":"1749024768-1001091028994","title":"Java developer","text":"Вакансия: Java developer \n\nПроект: Риск менеджмент (бэкофисная система) позволяет отслеживать рыночные риски (финансовые риски) на платформе Московской бирже.\n\nТехнологический стек на проекте: Java , Scala, Spring Framework, Apache Kafka.\n\nЧто предлагаем:\n• Разработка сервисов анализа и контроля рисков на базе внутренней интеграционной платформы (микросервисная архитектура);\n• Разработка модульных (Unit) тестов (TestNG + mocks);\n• Диагностика и исправление ошибок, выявленных на стадии эксплуатации (3-я линия поддержки);\n• Ведение технической (неформальной) документации в confluence.\n\nЧто ожидаем от Вас:\n• Опыт промышленной разработки (от 3 лет);\n• Фундаментальные знания принципов построения распределенных систем;\n• Уверенные знания core Java;\n• Знание паттернов проектирования;\n• Приветствуется знание финансовых рынков и опыт работы в сфере финансов.\n\nНаши условия работы:\n• Офис в центре: г. Москва, м. Арбатская/Библиотека им. Ленина/Боровицкая/Александровский сад;\n• Занятость: полная, официальное оформление в штат компании;\n• ДМС: с первого рабочего дня;\n• Свой «корпоративный университет», собственный лекторий, широкие возможности обучения – как внутри, так и вне компании;\n• Формат работы: современный  офис возле Кремля в шаговой доступности от метро (на данный момент работаем удаленно из дома);\n• Компания: ПАО Московская биржа (Компания, входящая в 500 - лучших работодателей мира по версии Forbes за 2019 год);\n• Уровень з/п:  230 - 290 тыс.руб. (gross) + годовой бонус;\n• Формат интервью: 1 этап онлайн интервью (60-90 минут). \n\nПишите в личку, отвечу на любые вопросы!\nКонтакты: @Sasha_P92","markup":[{"type":"handle","offset":1605,"length":10,"data":"Sasha_P92"}],"date":"2020-06-26T17:13:47+00:00","link":"tg://resolve?domain=jvmjobs&post=1668","tags":[{"name":"java"},{"name":"jvm"},{"name":"scala"},{"name":"spring"},{"name":"apache"},{"name":"kafka"}],"cities":[{"code":"moscow"}],"allowsRemote":true}},{"node":{"__typename":"Job","id":"2253389824-1001134745498","title":"Devops инженер","text":"#вакансия #Москва #офис #DevOps\n\n▫️ВАКАНСИЯ: Devops engineer\nКомпания: Северсталь-Диджитал\nФормат работы: удаленно на пандемии, далее офис  \nЛокация: Москва Офис на м. Войковская или МЦК Балтийская\nЗанятость: полная \nЗарплатная вилка: до 140-180к gross middle, 180-230к gross senior  + 30% годовой бонус\n\nКомпания занимается внедрением моделей машинного обучение в производстве. Мы ищем devops инженера для поддержки и развития платформы k8s, Kafka, Hadoop, Gitlab. Работа в небольшой команде, где ваши идеи будут быстро находить реализацию.\n\n▫️Обязанности:\n • Настройка, обновление, GitLab, GitlabCI, Nexus/Artifactory; \n • Организация сбора логов с компонентов IoT платформы Северстали (GrayLog); \n • Организация сбора метрик, описывающих состояние IoT платформы; \n • Создание дашбордов и алертов в Grafana; \n • Автоматизированный выпуск релизов. \n\n▫️Требования:\n• Опыт работы в роли DevOps инженера или аналогичной позиции от 1-го года;  \n• Опыт работы с Linux в роли администратора, навыки работы с Docker; \n• Опыт работы с Hadoop, Kafka, Kubernetes. \n\n▫️Желательно:\n• Умение быстро изучать англоязычные технические ресурсы; \n• Экспертные навыки работы с ОС семейства Linux; \n• Навыки работы на языках программирования Bash, Python, Java, Scala.\n• Опыт работы с Prometeus, Zabbix, ELK\n\n▫️Условия:\n•  Гибкое начало рабочего дня\n•  Официальное оформление\n•  Корпоративную мобильную связь, медицинскую страховку и страхование жизни\n•  Участие в профессиональных конференциях\n•  Современное рабочее пространство и уютные зоны отдыха\n\nКонтакты @DaynekoRoman, @ikart\n\n—\n\n👉 Обсуждение вакансии в чате @devops_jobs","markup":[{"type":"hashtag","offset":0,"length":9,"data":"вакансия"},{"type":"hashtag","offset":10,"length":7,"data":"Москва"},{"type":"hashtag","offset":18,"length":5,"data":"офис"},{"type":"hashtag","offset":24,"length":7,"data":"DevOps"},{"type":"handle","offset":1543,"length":13,"data":"DaynekoRoman"},{"type":"handle","offset":1558,"length":6,"data":"ikart"},{"type":"handle","offset":1599,"length":12,"data":"devops_jobs"}],"date":"2020-06-25T07:26:49+00:00","link":"tg://resolve?domain=devops_jobs_feed&post=2149","tags":[{"name":"kafka"},{"name":"hadoop"},{"name":"gitlab"},{"name":"linux"},{"name":"docker"},{"name":"kubernetes"},{"name":"bash"},{"name":"python"},{"name":"java"},{"name":"scala"}],"cities":[{"code":"moscow"}],"allowsRemote":true}},{"node":{"__typename":"Job","id":"1730150400-1001091028994","title":"Java разработчик","text":"#вакансия #москва #офис #fulltime #clojure \nИщу разработчика, желающего переехать на Clojure или уже имеет опыт с ним.\n\nПроект - saas платформа для digital маркетинга. Собираем и обрабатываем большие данные о покупателях всего крупного e-commerce. \n\nУ нас:\n- Clojure, FP;\n- Kafka, Spark;\n- Docker, Docker Compose, Terraform, Kubernetes, AWS;\n- Highload (15k - 20k rps), терабайты данных;\n- Postgresql, Vertica, DynamoDB, Redis, Tarantool, Memcached, Clickhouse.\n\nУ вас:\n- Опыт в промышленном программировании (Java, Scala, Python, Ruby, Clojure, etc) от 2-х лет; \n- Опыт в высоконагруженных проектах с микросервисной архитектурой;\n- Любовь к FP.\n\nУсловия:\n- Москва, офис м.Тверская, фуллтайм;\n- Белая з/п до 300к net;\n- ДМС, хороший офис и техника;\n\nЗа подробностями —-> @nat_kirisova","markup":[{"type":"hashtag","offset":0,"length":9,"data":"вакансия"},{"type":"hashtag","offset":10,"length":7,"data":"москва"},{"type":"hashtag","offset":18,"length":5,"data":"офис"},{"type":"hashtag","offset":24,"length":9,"data":"fulltime"},{"type":"hashtag","offset":34,"length":8,"data":"clojure"},{"type":"handle","offset":771,"length":13,"data":"nat_kirisova"}],"date":"2020-06-23T15:25:30+00:00","link":"tg://resolve?domain=jvmjobs&post=1650","tags":[{"name":"java"},{"name":"jvm"},{"name":"clojure"},{"name":"kafka"},{"name":"docker"},{"name":"kubernetes"},{"name":"amazon-web-services"},{"name":"postgresql"},{"name":"dynamodb"},{"name":"redis"},{"name":"scala"},{"name":"python"},{"name":"ruby"},{"name":"dotnet"},{"name":"docker-compose"}],"cities":[{"code":"moscow"}],"allowsRemote":false}},{"node":{"__typename":"Job","id":"2245001216-1001134745498","title":"Devops инженер","text":"#вакансия #Москва #офис #DevOps\n\n▫️ВАКАНСИЯ: Devops engineer\nКомпания: Северсталь-Диджитал\nФормат работы: удаленно на пандемии, далее офис  \nЛокация: Москва, Офис на м. Войковская или МЦК Балтийская\nЗанятость: полная \nЗарплатная вилка: до 140-180к gross middle, 180-230к gross senior  + 30% годовой бонус\n\nКомпания занимается внедрением моделей машинного обучение в производстве. Мы ищем devops инженера для поддержки и развития платформы k8s, Kafka, Hadoop, Gitlab. Работа в небольшой команде, где ваши идеи будут быстро находить реализацию.\n\n▫️Обязанности:\n • Настройка, обновление, GitLab, GitlabCI, Nexus/Artifactory; \n • Организация сбора логов с компонентов IoT платформы Северстали (GrayLog); \n • Организация сбора метрик, описывающих состояние IoT платформы; \n • Создание дашбордов и алертов в Grafana; \n • Автоматизированный выпуск релизов. \n\n▫️Требования:\n• Опыт работы в роли DevOps инженера или аналогичной позиции от 1-го года;  \n• Опыт работы с Linux в роли администратора, навыки работы с Docker; \n• Опыт работы с Hadoop, Kafka, Kubernetes. \n\n▫️Желательно:\n• Умение быстро изучать англоязычные технические ресурсы; \n• Экспертные навыки работы с ОС семейства Linux; \n• Навыки работы на языках программирования Bash, Python, Java, Scala.\n• Опыт работы с Prometeus, Zabbix, ELK\n\n▫️Условия:\n•  Гибкое начало рабочего дня\n•  Официальное оформление\n•  Корпоративную мобильную связь, медицинскую страховку и страхование жизни\n•  Участие в профессиональных конференциях\n•  Современное рабочее пространство и уютные зоны отдыха\n\nКонтакты @DaynekoRoman, @ikart\n\n—\n\n👉 Обсуждение вакансии в чате @devops_jobs","markup":[{"type":"hashtag","offset":0,"length":9,"data":"вакансия"},{"type":"hashtag","offset":10,"length":7,"data":"Москва"},{"type":"hashtag","offset":18,"length":5,"data":"офис"},{"type":"hashtag","offset":24,"length":7,"data":"DevOps"},{"type":"handle","offset":1544,"length":13,"data":"DaynekoRoman"},{"type":"handle","offset":1559,"length":6,"data":"ikart"},{"type":"handle","offset":1600,"length":12,"data":"devops_jobs"}],"date":"2020-06-23T09:00:51+00:00","link":"tg://resolve?domain=devops_jobs_feed&post=2141","tags":[{"name":"kafka"},{"name":"hadoop"},{"name":"gitlab"},{"name":"linux"},{"name":"docker"},{"name":"kubernetes"},{"name":"bash"},{"name":"python"},{"name":"java"},{"name":"scala"}],"cities":[{"code":"moscow"}],"allowsRemote":true}},{"node":{"__typename":"Job","id":"1721761792-1001091028994","title":"Java разработчик","text":"#java #java11 #tarantool #lua #redis #kotlin \n\nКомпания #Иннодата (ГК Ramax) - системный интегратор с офисами в #Москва, #Питер, #Воронеж, #Иннополис. \nФормат работы #офис, #fulltime #remote\nВилка: 270 net на руки\nКонтакт для связи: pbokarev@innodata.ru \n\n📌Задача: Нам предстоит разработать один из центральных компонентов ИТ системы крупнейшей ритейл сети.\n\nГеораспределённую mission-critical платформу, работающую в режиме 24/7 365, объединяющую информацию из всех подразделений и IT-систем, связанных с клиентом, в единый профиль. К системе предъявляются жесткие требования ко времени отклика и rps. Ядром системы мы выбрали tarantool - одно из самых навороченных imdg решений на данный момент. Мы ищем человека, который не боится новых вызовов и готов развиваться, устал от бесконечный crud'ов и хочет попробовать себя в highload. Готовы рассмотреть кандидатов разного уровня!\n\n📌Наши плюсы:\nНикакого legacy, тк проект только начинается, есть возможность поучаствовать в выборе стека. Современные технологии, мощный кластер, после окончания проекта возможность работы на других проектах (scala, BIgData)\n\n📌Стек технологий:\nJava 11;\nTarantool (Lua);\nClickhouse;\nPostgreSQL;\n\n📌Требования:\nОпыт коммерческой разработки на Java более 2 лет. Будет плюсом умение писать на Kotlin;\nSQL, опыт проектирования реляционнных баз данных;\nОпыт использования Tarantool или Redis (Lua);\nПонимание разницы OLAP и OLTP;\n\n📌Будет плюсом:\nОпыт работы с распределёнными системами;\nОпыт разработки highload систем;\nОпыт разработки многопоточных приложений;\n\n📌Обязанности:\nУчастие в проектировании архитектуры и детализации работ;\nНепосредсвенно реализация задач;\nПокрытие нового функционала тестами (unit, регрессионные);","markup":[{"type":"hashtag","offset":0,"length":5,"data":"java"},{"type":"hashtag","offset":6,"length":7,"data":"java11"},{"type":"hashtag","offset":14,"length":10,"data":"tarantool"},{"type":"hashtag","offset":25,"length":4,"data":"lua"},{"type":"hashtag","offset":30,"length":6,"data":"redis"},{"type":"hashtag","offset":37,"length":7,"data":"kotlin"},{"type":"hashtag","offset":56,"length":9,"data":"Иннодата"},{"type":"hashtag","offset":112,"length":7,"data":"Москва"},{"type":"hashtag","offset":121,"length":6,"data":"Питер"},{"type":"hashtag","offset":129,"length":8,"data":"Воронеж"},{"type":"hashtag","offset":139,"length":10,"data":"Иннополис"},{"type":"hashtag","offset":166,"length":5,"data":"офис"},{"type":"hashtag","offset":173,"length":9,"data":"fulltime"},{"type":"hashtag","offset":183,"length":7,"data":"remote"},{"type":"link","offset":233,"length":20,"data":"mailto:pbokarev@innodata.ru"}],"date":"2020-06-23T06:39:41+00:00","link":"tg://resolve?domain=jvmjobs&post=1642","tags":[{"name":"java"},{"name":"jvm"},{"name":"lua"},{"name":"redis"},{"name":"kotlin"},{"name":"dotnet"},{"name":"scala"},{"name":"postgresql"},{"name":"sql"}],"cities":[{"code":"moscow"},{"code":"voronezh"}],"allowsRemote":true}},{"node":{"__typename":"Job","id":"103155761152-1001089317451","title":"Qa инженер","text":"#вакансия #москва #полнаязанятость #мегафон #bigdata #покаработаемиздомапотомвофис\n\nМы ищем QA-инженера в команду для тестирования внутренних и внешних сервисов.\n\nЧем предстоит заниматься:\n\n- Разработка модулей интеграционных тестов для наших сервисов;\n- Подготовка тестовых данных (работа с hive/oracle);\nРабота с SQL/HiveQL (Oracle/Hive);\n- Написание алгоритмов работы с данными, в рамках тестирования;\n- Взаимодействие с разработчиками и аналитиками в процессе проектирования и развития;\n- Выявление, фиксация и контроль багов в баг-трекере (Jira);\n- Ведение документации по тестированию (confluence);\n\nИспользуемые технологии:\nДля разработки – Play, Spring, Flask, Scala, Java (8+), Python(3+);\nДля тестирования: Java/Scala & Maven + TestNG + Google Guice;\nДля работы сервисов – Docker;\nДля работы с кодом – GitLab;\nДля работы с задачами – Jira.\n\nМы ожидаем от вас:\n- Опыт работы в автоматизации тестирования от 1 года;\n- Знание структур данных и алгоритмов;\n- Уверенное знание Java;\n- Уверенное знание фреймворков TestNG/JUnit;\n- Опыт работы в автоматизации тестирования;\n- Опыт работы с реляционными СУБД (Oracle/PostgreSQL);\n- Умение писать хорошо читаемый код;\n- Умение работать с VCS (Git) и сборщиками (maven).\n\nБудет плюсом:\n- Опыт в области тестирования приложений по работе с большими данными;\n- Опыт в нагрузочном тестировании;\n- Опыт работы с Spring/Google Guice;\n- Опыт конфигурирования CI/CD (GitLab);\n- Умение писать код на Scala;\n- Опыт работы с Hadoop/Spark.\n\nЧто мы предлагаем:\n- Внутреннее и внешнее обучение в России (Coursera, New Prolab, Geek Brains и др.);\n- Новый офис в центре: 7 минут пешком от м. Маяковская/Новослободская;\n- Компенсация затрат на мобильную связь;\nДМС (включая стоматологию);\n- Частичная компенсация спорта;\n- Возможность участия в корпоративных спортивных командах: футбол, волейбол, баскетбол, хоккей и бег\n- Регулярные митапы в офисе с внешними спикерами из разных областей.\n\n#мегафон #bigdata\nКонтакты: Svetlana.stakanova@megafon.ru или @svetastakanova","markup":[{"type":"hashtag","offset":0,"length":9,"data":"вакансия"},{"type":"hashtag","offset":10,"length":7,"data":"москва"},{"type":"hashtag","offset":18,"length":16,"data":"полнаязанятость"},{"type":"hashtag","offset":35,"length":8,"data":"мегафон"},{"type":"hashtag","offset":44,"length":8,"data":"bigdata"},{"type":"hashtag","offset":53,"length":29,"data":"покаработаемиздомапотомвофис"},{"type":"hashtag","offset":1926,"length":8,"data":"мегафон"},{"type":"hashtag","offset":1935,"length":8,"data":"bigdata"},{"type":"link","offset":1954,"length":29,"data":"mailto:Svetlana.stakanova@megafon.ru"},{"type":"handle","offset":1988,"length":15,"data":"svetastakanova"}],"date":"2020-06-18T09:58:49+00:00","link":"tg://resolve?domain=qa_jobs&post=0","tags":[{"name":"qa"},{"name":"hive"},{"name":"oracle"},{"name":"sql"},{"name":"playframework"},{"name":"spring"},{"name":"flask"},{"name":"scala"},{"name":"java"},{"name":"python"},{"name":"maven"},{"name":"docker"},{"name":"gitlab"},{"name":"junit"},{"name":"postgresql"},{"name":"git"},{"name":"hadoop"}],"cities":[{"code":"moscow"}],"allowsRemote":false}},{"node":{"__typename":"Job","id":"91264909312-1001067529236","title":"Python разработчик","text":"#вакансия #python  #sql #офис #москва\nм.Бауманская, полная занятость\nБелая з/п до 160.000 руб. на руки \nData Scientist\n\nМы — команда разработки Level.Travel, сложного продукта в сфере путешествий. За последние 8 лет мы с нуля создали и продолжаем развивать решение для онлайн-продажи путешествий. Нашу платформу используют лидеры рынка – Тинькофф Банк, OneTwoTrip, Сбербанк, TripAdvisor, Kayak, АК Барс Банк, Евросеть и многие другие. Компания Level.Travel является резидентом Инновационного центра «Сколково».\n\nОбязанности:\n🔸Работа над проектами, решаемыми с использованием машинного обучения: участие в постановке задачи, исследование, подбор алгоритма и оптимизация модели, подготовка к использованию модели бизнесом.\n🔸Решение задач требующих умения работать с данными, продвинутое знание SQL, Python, статистики\n\nОт Вас:\n🔸Уметь программировать на Python\n🔸Использовать популярные библиотеки: scikit-learn, Pandas, numpy, scipy\n🔸Уверенно писать SQL-запросы (MySQL, PostgreSQL, Clickhouse)\n🔸Знать основных методов и алгоритмов Machine Learning\n🔸Иметь знания в области мат. статистики, теории вероятности\n\nЖелательно:\n🔸Иметь завершенный проект с применением машинного обучения\n🔸Уметь работать с временными рядами, анализировать их свойства\n🔸Опыт разработки на языке программирования Scala/Java с использованием Spark\n\nОт нас: белая зп, официальное трудоустройство, больничные, отпуска. Скидки на изучение английского языка, техника MacBook Pro. Регулярная обратная связь и аттестации. Геймификация процессов и несколько раз в год релокейты поработать в другую страну. Клевый молодой коллектив, интересные ивенты, насыщенная корпоративная жизнь. Пинг-понг, бильярд, кальян и другие развлечения в офисе. Скидки на путешествия)\n\nСвязь по почте : vos@level.travel\nИли тут @Alyask_a","markup":[{"type":"hashtag","offset":0,"length":9,"data":"вакансия"},{"type":"hashtag","offset":10,"length":7,"data":"python"},{"type":"hashtag","offset":19,"length":4,"data":"sql"},{"type":"hashtag","offset":24,"length":5,"data":"офис"},{"type":"hashtag","offset":30,"length":7,"data":"москва"},{"type":"bold","offset":69,"length":33,"data":""},{"type":"bold","offset":104,"length":14,"data":""},{"type":"bold","offset":120,"length":76,"data":""},{"type":"bold","offset":513,"length":12,"data":""},{"type":"bold","offset":820,"length":7,"data":""},{"type":"bold","offset":1114,"length":11,"data":""},{"type":"bold","offset":1329,"length":7,"data":""},{"type":"bold","offset":1737,"length":33,"data":""},{"type":"link","offset":1754,"length":16,"data":"mailto:vos@level.travel"},{"type":"bold","offset":1771,"length":17,"data":""},{"type":"handle","offset":1779,"length":9,"data":"Alyask_a"}],"date":"2020-06-18T09:21:55+00:00","link":"tg://resolve?domain=python_jobs&post=0","tags":[{"name":"python"},{"name":"sql"},{"name":"scikit-learn"},{"name":"pandas"},{"name":"numpy"},{"name":"mysql"},{"name":"postgresql"},{"name":"scala"},{"name":"java"},{"name":"machine-learning"}],"cities":[{"code":"moscow"}],"allowsRemote":false}}]}}},"context":{}}