{"hash":"f5f6bf98bd95e769321482904cbbd488f77922fd","data":{"records":{"id":"dotnet","name":"dotnet","belongsTo":{"totalCount":172,"pageInfo":{"totalPages":18,"currentPage":17},"edges":[{"node":{"__typename":"Job","id":"90985988096-1001067529236","title":"Python разработчик","text":"#вакансия #москва #удаленка #backend #python #SQL #REST #Agile #Developer #PythonDeveloper #ORM\n\nВакансия:  Python Developer\nГород: Москва|СПб|Нижний Новгород\nЗП: 120 - 200к net\nЗанятость: полная, УДАЛЕНКА\n\nВсем привет! Ищу Python-разработчика!\n\nУсловия:\n✅ Безобразно интересные проекты\n✅ Удаленка (мы идейные удалёнщики)\n✅ Работу с межд. проектом с клиентами в >40 странах мира\n✅ Перспективу роста в профессионала глобального уровня\n✅ Оформление по ИП\n✅ 120 - 200к net\n✅ График свободный\n✅ Возмещение оплаты подключения ПО и оформления ИП\n\nТребования:\n❇️ Владение Python и любимыми его фреймворками\n❇️ Опыт руководства командой 1-5чел\n❇️ Релевантный опыт от 3х лет\n❇️ Опыт проектирования и разработки масштабируемых бекендов и REST APIs\n❇️ Опыт работы с реляционными БД, знание SQL\n❇️ Опыт работы с распределенными очередями\n❇️ Английский язык - уровень от B1\n❇️ Профильное высшее образование\n\nЗадачи:\n\nМного. Очень много)\nв лс, а то длинный текст 😄\n\nРабота со стеком технологий: Python 3.6, Pyramid, PostgreSQL, SQLAlchemy, Celery, Rabbitmq, Redis, Buildout, Rest API, немного JS (тех админка), Socket.io, Docker\n\nПодробности в лс😏\nКонтакты: @nutella_n","markup":[{"type":"hashtag","offset":0,"length":9,"data":"вакансия"},{"type":"hashtag","offset":10,"length":7,"data":"москва"},{"type":"hashtag","offset":18,"length":9,"data":"удаленка"},{"type":"hashtag","offset":28,"length":8,"data":"backend"},{"type":"hashtag","offset":37,"length":7,"data":"python"},{"type":"hashtag","offset":45,"length":4,"data":"SQL"},{"type":"hashtag","offset":50,"length":5,"data":"REST"},{"type":"hashtag","offset":56,"length":6,"data":"Agile"},{"type":"hashtag","offset":63,"length":10,"data":"Developer"},{"type":"hashtag","offset":74,"length":16,"data":"PythonDeveloper"},{"type":"hashtag","offset":91,"length":4,"data":"ORM"},{"type":"bold","offset":108,"length":17,"data":""},{"type":"bold","offset":163,"length":10,"data":""},{"type":"bold","offset":174,"length":4,"data":""},{"type":"bold","offset":189,"length":34,"data":""},{"type":"bold","offset":224,"length":31,"data":""},{"type":"bold","offset":541,"length":12,"data":""},{"type":"bold","offset":895,"length":14,"data":""},{"type":"bold","offset":953,"length":28,"data":""},{"type":"link","offset":1098,"length":9,"data":"http://Socket.io"},{"type":"bold","offset":1136,"length":20,"data":""},{"type":"handle","offset":1146,"length":10,"data":"nutella_n"}],"date":"2020-06-15T11:51:07+00:00","link":"tg://resolve?domain=python_jobs&post=0","tags":[{"name":"python"},{"name":"sql"},{"name":"rest"},{"name":"orm"},{"name":"dotnet"},{"name":"postgresql"},{"name":"sqlalchemy"},{"name":"rabbitmq"},{"name":"redis"},{"name":"docker"}],"cities":[{"code":"moscow"},{"code":"nizhny-novgorod"}],"allowsRemote":true}},{"node":{"__typename":"Job","id":"71294779392-1001054966032","title":"Android developer","text":"#вакансия #Middle #Android developer #kotlin #удаленно                                                                                                         Уровень дохода:💵 130 000-150 000  рублей net                                                                                                                                                                                 Требуемый опыт работы: 2-4 года\nПолная занятость, дистанционно, гибкое начало рабочего дня\n \n📌Требования:\n- Нативная Android разработка (Kotlin)\n- Умение писать поддерживаемый и тестируемый код\n- Умение работать с Dagger 2\n- Умение работать с git\n- Желание развиваться и изучать новое в разработке\n- Опыт разработки приложений от 2 лет\n -Знание английского языка от уровня Intermediate\n \n📌Будет плюсом:\n- Опыт работы с JNI\n- Опыт использования tensorflow\n- Опыт работы с аудио и видео\n\n📌Условия:\n- Отсутствие бюрократии\n- Время начала рабочего дня обговариваем индивидуально\n- Крутой инновационный проект - возможность самореализации и профессионального роста\n- Стабильное зарубежное финансирование\n- Десятки миллионов установок и множество глобальных партнёров\n📞Контакты @SvetikS_hr +7(963)-632-12-36 Cветлана","markup":[{"type":"hashtag","offset":0,"length":9,"data":"вакансия"},{"type":"hashtag","offset":10,"length":7,"data":"Middle"},{"type":"hashtag","offset":18,"length":8,"data":"Android"},{"type":"hashtag","offset":37,"length":7,"data":"kotlin"},{"type":"hashtag","offset":45,"length":9,"data":"удаленно"},{"type":"handle","offset":1157,"length":11,"data":"SvetikS_hr"},{"type":"link","offset":1169,"length":17,"data":"tel:+7(963)-632-12-36"}],"date":"2020-06-15T11:42:47+00:00","link":"tg://resolve?domain=mobile_jobs&post=0","tags":[{"name":"mobile"},{"name":"android"},{"name":"kotlin"},{"name":"dotnet"},{"name":"git"},{"name":"tensorflow"}],"cities":[],"allowsRemote":true}},{"node":{"__typename":"Job","id":"2205155328-1001134745498","title":"Devops инженер","text":"#Москва #вакансия #офис #devops\n✅ www.onelya.ru - на рынке с 2002 года (E-travel и интернет-эквайринг), подразделение - команда эксплуатации ЦОД  \n✅ оформление по ТК РФ, з/п 170-200net, ДМС, территориально - ст.м.ЦСКА/Аэропорт, БЦ Линкор\n✅ Обязанности:\n- выстраивание процессов CI/CD;\n- мониторинг, автоматизация и дальнейшее улучшение существующей инфраструктуры;\n- обеспечение бесперебойной работы инфраструктуры и сервисов;\n- анализ инцидентов, оценка архитектурных решений, ввод изменений с целью минимизации рисков отказов в обслуживании;\n- тесное взаимодействие с командами разработки и тестирования;\n- ведение документации по администрируемым сервисам и решениям.\n✅ Требования:\n- понимание принципов devops-культуры и опыт построения devops-инфраструктуры;\n- релевантный опыт работы от 2-х лет;\n- обязательно знаниe kubernetes;\n- понимание важности принципов Infrastructure as a Code; Prometheus;\n- практический опыт автоматизации управления средами с применением Jenkins, Docker, Kubernetes, автоматизации развертывания средствами Ansible, опыт работы со средствами мониторинга , сбора и анализа метрик Zabbix, Graphite, Grafana, Kibana;\n- опыт администрирования, миграции данных и настройки резервного копирования для БД PostgreSQL, MongoDB, Redis, Elasticsearch;\n- опыт работы с ELK стеком;\n- опыт написания Python и bash скриптов;\n- готовность работать с legacy-системами.\n\n✅Ждем резюме на a.vinogradova@gateline.ru\n\n—\n\n👉 Обсуждение вакансии в чате @devops_jobs","markup":[{"type":"hashtag","offset":0,"length":7,"data":"Москва"},{"type":"hashtag","offset":8,"length":9,"data":"вакансия"},{"type":"hashtag","offset":18,"length":5,"data":"офис"},{"type":"hashtag","offset":24,"length":7,"data":"devops"},{"type":"link","offset":34,"length":13,"data":"http://www.onelya.ru"},{"type":"link","offset":1401,"length":25,"data":"mailto:a.vinogradova@gateline.ru"},{"type":"handle","offset":1461,"length":12,"data":"devops_jobs"}],"date":"2020-06-15T10:56:00+00:00","link":"tg://resolve?domain=devops_jobs_feed&post=2103","tags":[{"name":"dotnet"},{"name":"kubernetes"},{"name":"jenkins"},{"name":"docker"},{"name":"ansible"},{"name":"postgresql"},{"name":"mongodb"},{"name":"redis"},{"name":"elasticsearch"},{"name":"python"},{"name":"bash"}],"cities":[{"code":"moscow"}],"allowsRemote":false}},{"node":{"__typename":"Job","id":"71269613568-1001054966032","title":"Mobile разработчик","text":"#вакансия #reactnative\nГород и адрес офиса: #Екатеринбург\nФормат работы: #удаленка\nЗанятость: полная\nКомпания: Just Search (https://just-search.net/)\nЗарплатная вилка: 120 - 140к (на руки)\n\nВсем привет! Меня зовут Валентина, я IT-рекрутер.  \nИщу разработчика на React Native \nМой клиент - компания из Екатеринбурга. Команда разрабатывает в основном стартапы для России, Европы и Америки.\nНа данный момент у компании более 50 выполненных проектов в России, Канаде, Европе, Израиле, Сингапуре и США.\nОснователи компании сами разработчики, поэтому никакой бюрократии и странных решений, процессы максимально простые и понятные\nСтек технологии: react-native, typescript, react native cli (не expo)\n\nТребования:\n- опыт разработки на react native с использованием react native cli (не expo) от 2 лет;\n- владение typescript;\n- опыт создания pixel-perfect верстки по макетам из figma (или аналогичных платформ) от 2 лет.\n\nЗадачи, которые предстоит решать:\n- интеграция со списком контактов;\n- интеграция с календарем;\n- отправка сообщений в установленные на смартфоне мессенджеры;\n- интеграция с фотокамерой;\n- отправка фотографий в популярные соцсети;\n- отправка почты через email-клиент смартфона;\n- совершение вызова с помощью смартфона;\n- реализация механизма автоматического уведомления о выходе новых версий приложения;\n- реализация поддержки нескольких языков (русский, английский);\n- реализация интерактивной карты.\n\nКонтакты: \nТелеграм @justsearchagency \nEmail: v.kazantseva@just-search.net","markup":[{"type":"hashtag","offset":0,"length":9,"data":"вакансия"},{"type":"hashtag","offset":10,"length":12,"data":"reactnative"},{"type":"hashtag","offset":44,"length":13,"data":"Екатеринбург"},{"type":"hashtag","offset":73,"length":9,"data":"удаленка"},{"type":"link","offset":124,"length":24,"data":"https://just-search.net/"},{"type":"handle","offset":1437,"length":17,"data":"justsearchagency"},{"type":"link","offset":1463,"length":28,"data":"mailto:v.kazantseva@just-search.net"}],"date":"2020-06-14T15:33:36+00:00","link":"tg://resolve?domain=mobile_jobs&post=0","tags":[{"name":"mobile"},{"name":"dotnet"},{"name":"reactjs"},{"name":"typescript"},{"name":"react-native"}],"cities":[],"allowsRemote":true}},{"node":{"__typename":"Job","id":"102775128064-1001089317451","title":"Qa инженер","text":"#вакансия #qa #c# #Москва #офис \n‼️Очень ищем Senior QA automation (C#)\n❗️Оформление белое, вознаграждение достойное (до 250т.р.net), компания стабильная, с 2002 года: www.onelya.ru (E-travel)\n❗️От вас - опыт в автоматизации тестирования (на C#) web-приложений не менее 3-х лет и желание развиваться и дальше в этом направлении \n\n❗️Резюме ждём на a.vinogradova@gateline.ru\n‼️Ссылка на вакансию на hh: https://hh.ru/vacancy/37462221","markup":[{"type":"hashtag","offset":0,"length":9,"data":"вакансия"},{"type":"hashtag","offset":10,"length":3,"data":"qa"},{"type":"hashtag","offset":18,"length":7,"data":"Москва"},{"type":"hashtag","offset":26,"length":5,"data":"офис"},{"type":"link","offset":121,"length":10,"data":"http://250т.р.net"},{"type":"link","offset":168,"length":13,"data":"http://www.onelya.ru"},{"type":"link","offset":347,"length":25,"data":"mailto:a.vinogradova@gateline.ru"},{"type":"link","offset":401,"length":30,"data":"https://hh.ru/vacancy/37462221"}],"date":"2020-06-14T13:19:44+00:00","link":"tg://resolve?domain=qa_jobs&post=0","tags":[{"name":"qa"},{"name":"dotnet"},{"name":"web"}],"cities":[{"code":"moscow"}],"allowsRemote":false}},{"node":{"__typename":"Job","id":"71194116096-1001054966032","title":"Android developer","text":"#вакансия #Android #Java #middle #офис #Москва\n📣Разыскиваем Middle Android developer в новый проект от Сбербанка.\n\n💵Уровень ЗП: 220К-310К net (в зависимости от типа оформления).\n\n📝Оформление: ИП или штат компании партнера.\n\n📍Локация: офис в г.Москва, Кутузовский проспект.\n\n🧑‍💻О проекте: Разработка чата и видеозвонка с целью реализовать единое рабочее место оператора для дополнительного канала обслуживания. С помощью чатов клиент сможет переписываться со своим дистанционным клиентским менеджером по премиальному каналу в МП СБОЛ, с возможностью передачи файлов. Видеозвонок позволит установить визуальный контакт клиентом со своим менеджером с возможностью показа презентаций. На базе удаленных каналов обслуживания планируется реализовать возможность удаленного предоставления клиенту всего спектра продуктов банка.\n\n🎯Наш стек: Java, ООП, потоки и синхронизация, SOLID, clean architecture, LinkedList и ArrayList, recyclerView, виды Layout, паттерны MVP, MMVM,unit tests, коллекции, жизненному циклу активити и фрагмента.\n\nЖду Ваши резюме и буду рада ответить на все вопросы☺️\nКонтакты для связи: telegram @anisimovaane4ka","markup":[{"type":"hashtag","offset":0,"length":9,"data":"вакансия"},{"type":"hashtag","offset":10,"length":8,"data":"Android"},{"type":"hashtag","offset":19,"length":5,"data":"Java"},{"type":"hashtag","offset":25,"length":7,"data":"middle"},{"type":"hashtag","offset":33,"length":5,"data":"офис"},{"type":"hashtag","offset":39,"length":7,"data":"Москва"},{"type":"handle","offset":1118,"length":16,"data":"anisimovaane4ka"}],"date":"2020-06-12T21:20:16+00:00","link":"tg://resolve?domain=mobile_jobs&post=0","tags":[{"name":"mobile"},{"name":"android"},{"name":"java"},{"name":"dotnet"}],"cities":[{"code":"moscow"}],"allowsRemote":true}},{"node":{"__typename":"Job","id":"71180484608-1001054966032","title":"Ios developer","text":"#вакансия #IOS #Swift #Objective-C #middle #офис #Москва\n👋Приглашаем Middle IOS Developer в новый проект от Сбербанка.\n\n💸Уровень ЗП: 220К-310К net (в зависимости от типа оформления).\n\n📝Оформление: ИП или штат компании партнера.\n\n📍Локация: офис в г.Москва, Кутузовский проспект.\n\n🧑‍💻О проекте: Разработка чата и видеозвонка с целью реализовать единое рабочее место оператора для дополнительного канала обслуживания. С помощью чатов клиент сможет переписываться со своим дистанционным клиентским менеджером по премиальному каналу в МП СБОЛ, с возможностью передачи файлов. Видеозвонок позволит установить визуальный контакт клиентом со своим менеджером с возможностью показа презентаций. На базе удаленных каналов обслуживания планируется реализовать возможность удаленного предоставления клиенту всего спектра продуктов банка.\n\n🎯Мы ожидаем от вас:\n· знание Objective-C;\n· знание Swift;\n· опыт коммерческой разработки iOS-приложений не менее года;\n· опыт параллельного и многопоточного программирования;\n· опыт разработки сетевых приложений как на уровне сокетов, так и на уровне HTTP;\n· опыт работы с Core Data, Core Graphics, XML-парсером в iOS SDK;\n· умение разбираться и работать с чужим кодом.\n\nЖду Ваши резюме и буду рада ответить на все вопросы☺️\nКонтакты для связи: telegram @anisimovaane4ka","markup":[{"type":"hashtag","offset":0,"length":9,"data":"вакансия"},{"type":"hashtag","offset":10,"length":4,"data":"IOS"},{"type":"hashtag","offset":15,"length":6,"data":"Swift"},{"type":"hashtag","offset":22,"length":10,"data":"Objective"},{"type":"hashtag","offset":35,"length":7,"data":"middle"},{"type":"hashtag","offset":43,"length":5,"data":"офис"},{"type":"hashtag","offset":49,"length":7,"data":"Москва"},{"type":"handle","offset":1288,"length":16,"data":"anisimovaane4ka"}],"date":"2020-06-12T14:57:02+00:00","link":"tg://resolve?domain=mobile_jobs&post=0","tags":[{"name":"mobile"},{"name":"ios"},{"name":"swift"},{"name":"objective-c"},{"name":"dotnet"},{"name":"xml"},{"name":"core-data"}],"cities":[{"code":"moscow"}],"allowsRemote":true}},{"node":{"__typename":"Job","id":"71165804544-1001054966032","title":"Android разработчик","text":"#вакансия #android #relocate\nГород: Франкфурт-на-Майне, Германия\nФормат работы: офис \nЗанятость: полная, официально \nЗарплатная вилка: около 2600 евро нетт (50000 евро в год гросс)\nкалькулятор: https://www.brutto-netto-rechner.info/gehalt/gross_net_calculator_germany.php\n\nОписание вакансии: \nОсновные сферы деятельности компании: Finance & Telecommunication. Компания работает с клиентами на месте в их офисах и интегрируется с командами. Кроме этого у них партнерский договор со вторым по величине частным банком Германии. Вместе с некоторыми отделами банка Excelsior реализует разного рода проекты. Многие из которых ведет полностью самостоятельно, начиная с идеи, дизайна, разработки, релиза и менеджмента и заканчивая тех обслуживанием.\nСейчас они ищут человека на новый проект - мобильное приложение для банка.\nНа нем будет работать 8 человек, 4 из них разработчика.\nДетальней: https://skillers.tech/jobs/android-engineer\nТребования:\nСтепень бакалавра/магистра (Computer Science)\n3+ года опыта Java\n1+ год с Kotlin\nХороший разговорный английский (В2)\nНазвание компании: Excelsior https://www.excelsior-solutions.de/en/\n\nКонтакты: @whoismcflurykkkkk","markup":[{"type":"hashtag","offset":0,"length":9,"data":"вакансия"},{"type":"hashtag","offset":10,"length":8,"data":"android"},{"type":"hashtag","offset":19,"length":9,"data":"relocate"},{"type":"link","offset":194,"length":77,"data":"https://www.brutto-netto-rechner.info/gehalt/gross_net_calculator_germany.php"},{"type":"link","offset":884,"length":43,"data":"https://skillers.tech/jobs/android-engineer"},{"type":"link","offset":1086,"length":38,"data":"https://www.excelsior-solutions.de/en/"},{"type":"handle","offset":1136,"length":18,"data":"whoismcflurykkkkk"}],"date":"2020-06-12T10:56:39+00:00","link":"tg://resolve?domain=mobile_jobs&post=0","tags":[{"name":"mobile"},{"name":"android"},{"name":"dotnet"},{"name":"php"},{"name":"java"},{"name":"kotlin"}],"cities":[],"allowsRemote":false}},{"node":{"__typename":"Job","id":"16849567744-1001110946746","title":"Js разработчик","text":"#вакансия #frontend_developer #js #react #stream #lead\nLead frontend developer (React JS)\nЛокация: г. Казань, Спартаковская, 6 \nФормат работы: удаленка (на карантине), офис с большими окнами (в обычной жизни)\nЗанятость: полная \nЗарплатная вилка: от 150 000 до 200 000 рублей net\n\nОписание вакансии:\nStream  - 100% дочерняя компания МТС. Ищем ведущего React JS разработчика в группу frontend-разработки из 4 человек для участия в проекте Виртуальная АТС.\nО проекте:\nВАТС - платформа для сборки бизнес-инструментов и «умная» телефонная связь через интернет, которая доступна в любом месте и для разных типов устройств. \nЧто предстоит?\n- проектирование архитектуры и участие в разработке frontend продукта;\n- проведение code review;\n- участие в оптимизации процессов разработки в компании.\nМы ожидаем от Вас:\n- опыт работы с React от 2-3 лет\n- опыт разработки SPA\n- знание TypeScript, NextJS, SCSS, Styled Components, HTML5, CSS\n- умение писать Unit-тесты (будет плюсом)\nЧто предлагаем?\n- \"белую\" заработную плату + полугодовые бонусы;\n- гибкий график работы;\n- ДМС со стоматологией, страхование жизни после испытательного срока;\n- корпоративную мобильную связь;\n- льготное кредитование для участников зарплатного проекта МТС Банк.\nНазвание компании: Stream https://stream.ru/\n\n📲 Контакты для резюме и вопросов: @askamasaska, AMorozova@stream.ru","markup":[{"type":"hashtag","offset":0,"length":9,"data":"вакансия"},{"type":"hashtag","offset":10,"length":19,"data":"frontend_developer"},{"type":"hashtag","offset":30,"length":3,"data":"js"},{"type":"hashtag","offset":34,"length":6,"data":"react"},{"type":"hashtag","offset":41,"length":7,"data":"stream"},{"type":"hashtag","offset":49,"length":5,"data":"lead"},{"type":"link","offset":1255,"length":18,"data":"https://stream.ru/"},{"type":"handle","offset":1310,"length":12,"data":"askamasaska"},{"type":"link","offset":1324,"length":19,"data":"mailto:AMorozova@stream.ru"}],"date":"2020-06-11T20:02:29+00:00","link":"tg://resolve?domain=javascript_jobs_feed&post=0","tags":[{"name":"javascript"},{"name":"reactjs"},{"name":"dotnet"},{"name":"typescript"},{"name":"html"},{"name":"css"}],"cities":[{"code":"kazan"}],"allowsRemote":true}},{"node":{"__typename":"Job","id":"16844324864-1001110946746","title":"Js разработчик","text":"#вакансия #удаленка #работа \n\nГород и адрес офиса: любой\nФормат работы: удаленка\nЗанятость: полная\nЗарплатная вилка:  от 120 до 160 net\n\nHigh-Middle/Senior Front-End Developer\nМы стартап, у вас будет возможность стать нашим главным Front-End разработчиком и определять архитектуру и стек веб-приложений над которыми мы работаем.\n • интересные задачи \n • начальство адекват \n • стек крутой ) \n • сильная команда с опытом успешного развития подобных проектов \n • деньги есть \n\nТехнические требования:\n • Опыт прототипирования архитектуры современного высоко оптимизированного веб-приложения с нуля \n • HTML5, CSS preprocessors, JavaScript (ES6) \n • Опыт сборки CSS Grid, UI Components Kit библиотек, Style Guide ( Storybook.js / … ) \n • Понимание методологии Atomic Design, ее плюсов и минусов. Cпособность писать модульный и хорошо проверенный код \n • Работа с Webpack, управление NPM зависимостями, владение GIT, основы CLI \n • Responsive / mobile-first development \n • Анимация Javascript / CSS, ее оптимизация \n • Работа с SVG и оптимизация \n • Взаимодействие с внешними API и интеграция сторонних сервисов, оптимизация их работы \n • Использование современных стандартов семантики и применение их для технической SEO оптимизации \n • Понимание как добиться высоких результатов в Page Speed Insights \n • Разработка и покрытие кода тестами \n • Работа с Google Analytics, event tracking и альтернативы \n\nБонусом будет наличие опыта с:\n • Wordpress Stack: Trellis / Bedrock / Sage или альтернативы \n • основы PHP \n • Конфигурирование и запуск A/B тестов Optimizely / VWO / альтернативы \n • Опыт с JAMstack проектами \n • Опыт работы с Segment \n • Ссылка на Github проект которым есть желание гордиться \n • Ссылка на вклад в open-source проекты / участие в сообществах / конференциях \n\nОбщие требования: \nАнглийский\n Адекватность \n Возможность работы в пределах 15:00-23:00 по Москве (может плавать - типа 13:00-21:00, но так или иначе это вторая половина дня)  \nГотовность открыть ИП \nБонусы: \nДостойная заработная плата\n Атмосфера работы в стартапе \nОплачиваемый отпуск \nОплата книг и софта для работы\n Оплата профессиональных конференций\nРаз в год мы проводим встречи в разных городах И всякие другие плюшки\nДополнительные инструкции: Пожалуйста, присылайте ссылки на ваше CV, ссылки на LinkedIn / Habr страничку, ссылку на гитхаб и по возможности портфолио на sergey@waltbury.com","markup":[{"type":"hashtag","offset":0,"length":9,"data":"вакансия"},{"type":"hashtag","offset":10,"length":9,"data":"удаленка"},{"type":"hashtag","offset":20,"length":7,"data":"работа"},{"type":"link","offset":2359,"length":19,"data":"mailto:sergey@waltbury.com"}],"date":"2020-06-11T19:56:30+00:00","link":"tg://resolve?domain=javascript_jobs_feed&post=0","tags":[{"name":"javascript"},{"name":"dotnet"},{"name":"html"},{"name":"css"},{"name":"webpack"},{"name":"npm"},{"name":"git"},{"name":"mobile"},{"name":"svg"},{"name":"seo"},{"name":"wordpress"},{"name":"php"},{"name":"github"},{"name":"google-analytics"}],"cities":[],"allowsRemote":true}}]}}},"context":{}}