{"hash":"f5f6bf98bd95e769321482904cbbd488f77922fd","data":{"records":{"id":"gradle","name":"gradle","belongsTo":{"totalCount":33,"pageInfo":{"totalPages":4,"currentPage":2},"edges":[{"node":{"__typename":"Job","id":"1763704832-1001091028994","title":"Java разработчик","text":"#Java #developer #Сочи #fulltime #работа #офис \n\nВакансия: Java-разработчик\n\nГород: Сочи\n\nФормат работы: офис\n\nЗанятость: fulltimе\n\nЗарплатная вилка: от 130 000 до 150 000 рублей\n\nОписание вакансии:\nСоздание системы по управлению метаданными компании. Работа в кроссфункциональной команде в составе до 10 человек\n\nНазвание компании: ОЦРВ\n\nПримерный пул задач:\n•  Разработка системы по управлению метаданными\n•  Участие в построение архитектуры решения\n•  Разработка интеграционных сценариев с другими системами\n•  Подготовка инструкций и документации\n\n\nНаши требования к кандидату: \n•  Аналитическое мышление, понимание работы алгоритмов, структур данных и оптимизации работы приложений\n•  Понимание паттернов проектирования, умение писать чистый читаемый код\n•  Знание Java SE (Core, Servlets, Exceptions)\n•  Опыт работы с Spring Framework (Boot, MVC, Data, Security), Hibernate ORM\n•  Опыт работы с веб-сервисами (SOAP, REST)\n•  Опыт работы с микросервисной архитектурой\n•  Опыт работы и развертывания приложений под Linux\n•  Опыт работы с очередями и брокерами сообщений (Kafka, Rabbit, ActiveMQ)\n•  Знание SQL\n•  Опыт работы с инструментами сборки Maven, Gradle\n•  Опыт работы с GIT\n\nБудет плюсом\n•  Опыт написания скриптов автоматизации для CI/CD (bash, python, Java, Groovy)\n•  Опыт работы с базами данных NoSQL (Janus Graph, HBase, Cassandra)\n•  Навыки frontend-разработки (HTML, CSS, React/Vue.js)\n•  Опыт работы с системами BPM или СЭД (Spring Activity, Camunda)\n•  Опыт работы с Apache Atlas, ODPi Egeria\n\n\n\nНаш стек:\nБек: Java 8-11, Spring, PostgreSQL/HBase/MongoDB/JanusGraph, GIT, Docker, Kubernetes, Kafka\nФронт: Vue.js\n\nУсловия: \n•  Офис в Адлере в 10 минутах до моря\n•  Оклад: 130 000 - 150 000 руб. gross\n•  Компенсация проживания 20 000 руб. gross в месяц (для кандидатов из других регионов)\n•  Релокационный бонус в размере оклада (для кандидатов из других регионов)\n•  Премия до 30% годового оклада\n•  Работа в динамичной команде единомышленников\n•  Компенсация ДМС после прохождения испытательного срока\n•  Скидки на ДМС для родственников\n•  Компенсация мобильной связи\n•  Новейшее оборудование и просторный офис\n•  Лучшая экология и климат в России\n•  Море и горнолыжный курорт рядом\n\n\nКомпания: ОЦРВ\nСайт: http://www.ocrv.ru/\nКонтакты: @Mirovan","markup":[{"type":"hashtag","offset":0,"length":5,"data":"Java"},{"type":"hashtag","offset":6,"length":10,"data":"developer"},{"type":"hashtag","offset":17,"length":5,"data":"Сочи"},{"type":"hashtag","offset":23,"length":9,"data":"fulltime"},{"type":"hashtag","offset":33,"length":7,"data":"работа"},{"type":"hashtag","offset":41,"length":5,"data":"офис"},{"type":"link","offset":2229,"length":19,"data":"http://www.ocrv.ru/"},{"type":"handle","offset":2259,"length":8,"data":"Mirovan"}],"date":"2020-06-29T11:37:47+00:00","link":"tg://resolve?domain=jvmjobs&post=1682","tags":[{"name":"java"},{"name":"jvm"},{"name":"spring"},{"name":"hibernate"},{"name":"orm"},{"name":"soap"},{"name":"rest"},{"name":"linux"},{"name":"kafka"},{"name":"rabbitmq"},{"name":"sql"},{"name":"maven"},{"name":"gradle"},{"name":"git"},{"name":"bash"},{"name":"python"},{"name":"groovy"},{"name":"nosql"},{"name":"hbase"},{"name":"cassandra"},{"name":"html"},{"name":"css"},{"name":"reactjs"},{"name":"vuejs"},{"name":"apache"},{"name":"postgresql"},{"name":"mongodb"},{"name":"docker"},{"name":"kubernetes"}],"cities":[{"code":"sochi"}],"allowsRemote":false}},{"node":{"__typename":"Job","id":"72234303488-1001054966032","title":"Android разработчик","text":"#вакансия #москва #офис #senior\n\nгород: Москва\nформат работы: офис\nзанятость: полная\nзарплатная вилка: 150-200\nвакансия: Ищу Android-разработчика  middle+, готового возглавить развитие  и поддержку приложения.\n\nо компании: Электронное издательство «Юрайт» Мы работаем со всеми вузами страны и считаем своей главной целью повышение образовательного уровня в России.\nwww.urait.ru\n\nо проекте: Над проектом работает 20 человек. Приложение заказывали на стороне в 2019 г. Теперь решили собрать свою команду для рефакторинга и выведения на новый уровень.\n\nЧто ждет от тебя будущее нашего образования:\nПоддержку и развитие нашего приложения;\nПеренос функционала из web;\nВзаимодействие с командой - аналитиками и тестировщиками;\nУчастие в развитии проекта.\n\nСкажем тебе уверенное “да”, если ты:\nИмеешь успешный опыт разработки и поддержки под Android  (Android Studio, Gradle);\nИмеешь опыт разработки на Kotlin;\nИмеешь успешный опыт разработки клиент-серверных приложений (REST, JSON);\nТрогал архитектуру (MVP, Clean architecture);\nЗнаешь  Android application architecture, Android SDK, Gradle;\nВладеешь паттернами UI;\nЗнаешь, зачем нужен Git, без контроля версий никуда, правда?\nМожешь писать тесты;\nГотов ин-хаус исправлять код от аутсорса. Уверен в том, что ты сделаешь круче, чем исполнители на стороне =)\n\nКак и что по условиям\nОфис с плюшками в 5 минутах от м. Шоссе Энтузиастов, Мск\nГибкое начало дня:  с 8 до 11 \nВсе по ТК РФ + соц.пакет \nАдекватные коллеги и руководство!!!\n\n\nЗаинтересовало?\nДмитрий @tankograin","markup":[{"type":"hashtag","offset":0,"length":9,"data":"вакансия"},{"type":"hashtag","offset":10,"length":7,"data":"москва"},{"type":"hashtag","offset":18,"length":5,"data":"офис"},{"type":"hashtag","offset":24,"length":7,"data":"senior"},{"type":"bold","offset":223,"length":32,"data":""},{"type":"bold","offset":268,"length":22,"data":""},{"type":"bold","offset":321,"length":42,"data":""},{"type":"link","offset":365,"length":12,"data":"http://www.urait.ru"},{"type":"bold","offset":550,"length":45,"data":""},{"type":"bold","offset":750,"length":37,"data":""},{"type":"bold","offset":1303,"length":22,"data":""},{"type":"handle","offset":1501,"length":11,"data":"tankograin"}],"date":"2020-06-29T09:19:13+00:00","link":"tg://resolve?domain=mobile_jobs&post=68888","tags":[{"name":"mobile"},{"name":"android"},{"name":"web"},{"name":"gradle"},{"name":"kotlin"},{"name":"rest"},{"name":"json"},{"name":"git"},{"name":"android-studio"}],"cities":[{"code":"moscow"}],"allowsRemote":false}},{"node":{"__typename":"Job","id":"103942193152-1001089317451","title":"Qa инженер","text":"Юлия Романова, [17.06.20 14:29]\n#вакансия #спб #fulltime #qa #удаленно\n\nКомпания: Smart Design (smddev.com) \n\nДолжность: Инженер по ручному и автоматизированному тестированию (QA & Automation Engineer)\n\nИщем инженера по тестированию BSS сотового оператора.\nБольшая распределенная команда (~30 человек).\nНужно хорошо уметь тестировать вручную и, когда это выгодно, суметь автоматизировать.\n\n\nНаши пожелания к кандидатам:\n✔️Опыт работы с Java или любым другим высокоуровневым языком программирования на уровне, достаточном для самостоятельного написания игры \"Сапёр\"\n✔️Опыт работы в консоли linux на уровне, достаточном для для решения задач:\nпоиск и изменение строк в файле\nуправление системными процессами\n✔️Опыт взаимодействия с REST API на уровне, достаточном для того, чтобы получить из ВКонтакте имя и фамилию своего аккаунта, не используя браузер\n\nПлюсом будет:\n✔️Опыт работы с протоколом SOAP\n✔️Профессиональный опыт функционального тестирования\n✔️Опыт работы с JUnit, Gradle, Oracle\n\nУсловия:\n✔️\"Белая\" зарплата до 110K gross\n✔️ДМС\n✔️ Работа в удаленном режиме на данный момент, далее в уютном офисе.\n\nhttps://spb.hh.ru/vacancy/37540632\n\nМои контакты: @romanovaya iyliia.romanova@smddev.com","markup":[{"type":"hashtag","offset":32,"length":9,"data":"вакансия"},{"type":"hashtag","offset":42,"length":4,"data":"спб"},{"type":"hashtag","offset":47,"length":9,"data":"fulltime"},{"type":"hashtag","offset":57,"length":3,"data":"qa"},{"type":"hashtag","offset":61,"length":9,"data":"удаленно"},{"type":"link","offset":96,"length":10,"data":"http://smddev.com"},{"type":"link","offset":1109,"length":34,"data":"https://spb.hh.ru/vacancy/37540632"},{"type":"handle","offset":1159,"length":11,"data":"romanovaya"},{"type":"link","offset":1171,"length":26,"data":"mailto:iyliia.romanova@smddev.com"}],"date":"2020-06-29T05:55:45+00:00","link":"tg://resolve?domain=qa_jobs&post=99127","tags":[{"name":"qa"},{"name":"java"},{"name":"linux"},{"name":"rest"},{"name":"soap"},{"name":"junit"},{"name":"gradle"},{"name":"oracle"}],"cities":[],"allowsRemote":true}},{"node":{"__typename":"Job","id":"72075968512-1001054966032","title":"Android разработчик","text":"#вакансия #москва #офис #android \n\nгород: Москва\nформат работы: офис\nзанятость: полная\nзарплатная вилка: 150-200\nвакансия: Ищу Android-разработчика  middle+, готового возглавить развитие  и поддержку приложения.\n\nо компании: Электронное издательство «Юрайт» Мы работаем со всеми вузами страны и считаем своей главной целью повышение образовательного уровня в России.\nwww.urait.ru\n\nо проекте: Над проектом работает 20 человек. Приложение заказывали на стороне в 2019 г. Теперь решили собрать свою команду для рефакторинга и выведения на новый уровень.\n\nЧто ждет от тебя будущее нашего образования:\nПоддержку и развитие нашего приложения;\nПеренос функционала из web;\nВзаимодействие с командой - аналитиками и тестировщиками;\nУчастие в развитии проекта.\n\nСкажем тебе уверенное “да”, если ты:\nИмеешь успешный опыт разработки и поддержки под Android  (Android Studio, Gradle);\nИмеешь опыт разработки на Kotlin;\nИмеешь успешный опыт разработки клиент-серверных приложений (REST, JSON);\nТрогал архитектуру (MVP, Clean architecture);\nЗнаешь  Android application architecture, Android SDK, Gradle;\nВладеешь паттернами UI;\nЗнаешь, зачем нужен Git, без контроля версий никуда, правда?\nМожешь писать тесты;\nГотов ин-хаус исправлять код от аутсорса. Уверен в том, что ты сделаешь круче, чем исполнители на стороне =)\n\nКак и что по условиям\nОфис с плюшками в 5 минутах от м. Шоссе Энтузиастов, Мск\nГибкое начало дня:  с 8 до 11 \nВсе по ТК РФ + соц.пакет \nАдекватные коллеги и руководство!!!\n\n\nЗаинтересовало?\nДмитрий @tankograin","markup":[{"type":"hashtag","offset":0,"length":9,"data":"вакансия"},{"type":"hashtag","offset":10,"length":7,"data":"москва"},{"type":"hashtag","offset":18,"length":5,"data":"офис"},{"type":"hashtag","offset":24,"length":8,"data":"android"},{"type":"bold","offset":225,"length":32,"data":""},{"type":"bold","offset":270,"length":22,"data":""},{"type":"bold","offset":323,"length":42,"data":""},{"type":"link","offset":367,"length":12,"data":"http://www.urait.ru"},{"type":"bold","offset":552,"length":45,"data":""},{"type":"bold","offset":752,"length":37,"data":""},{"type":"bold","offset":1305,"length":22,"data":""},{"type":"handle","offset":1503,"length":11,"data":"tankograin"}],"date":"2020-06-26T09:32:59+00:00","link":"tg://resolve?domain=mobile_jobs&post=68737","tags":[{"name":"mobile"},{"name":"android"},{"name":"web"},{"name":"gradle"},{"name":"kotlin"},{"name":"rest"},{"name":"json"},{"name":"git"},{"name":"android-studio"}],"cities":[{"code":"moscow"}],"allowsRemote":false}},{"node":{"__typename":"Job","id":"1743781888-1001091028994","title":"Java разработчик","text":"#вакансия #java # Senior #middle #Москва \nГород: Москва, метро Тульская\nФормат работы: full-time, офис ( сейчас удаленно)\nЗарплатная вилка: 180 -300к рублей на руки ( + годовой бонус) – в зависимости от вашего опыта\nКонтакты: @vsevkosmo\nКомпания: Сбербанк\nSenior Java Разработчик\nРазвитие функциональности брокерского обслуживания для физических и юридических лиц.\nТехнические требования:\nХорошие знания Java Core\nОпыт работы с ORM(Hibernate/Jooq)\nУмение писать и оптимизировать SQL-запросы\nУверенное знание Spring Framework\nОпыт работы с системой контроля версий: Git/Mercurial\nХорошее понимание принципов ООП\nТехнический английский\n\nПреимуществом будет:\nОпыт работы с Docker/Openshift\nОпыт работы с Spring Boot\nОпыт работы с Istio\nОпыт работы с Kafka\nНавыки работы в Linux системах.\nОпыт разработки высоконагруженных сервисов;\nЗнание Gradle\n\nОбязанности:\nРазработка серверных приложений на Java\nРазработка новой функциональности\nРазработка архитектуры \nНаписание unit-тестов\nОптимизация и рефакторинг кода\nРевью кода","markup":[{"type":"hashtag","offset":0,"length":9,"data":"вакансия"},{"type":"hashtag","offset":10,"length":5,"data":"java"},{"type":"hashtag","offset":25,"length":7,"data":"middle"},{"type":"hashtag","offset":33,"length":7,"data":"Москва"},{"type":"handle","offset":226,"length":10,"data":"vsevkosmo"}],"date":"2020-06-26T06:49:08+00:00","link":"tg://resolve?domain=jvmjobs&post=1663","tags":[{"name":"java"},{"name":"jvm"},{"name":"orm"},{"name":"hibernate"},{"name":"sql"},{"name":"spring"},{"name":"git"},{"name":"mercurial"},{"name":"docker"},{"name":"kafka"},{"name":"linux"},{"name":"gradle"},{"name":"spring-boot"}],"cities":[{"code":"moscow"}],"allowsRemote":true}},{"node":{"__typename":"Job","id":"1741684736-1001091028994","title":"Java разработчик","text":"#вакансия #java #teamlead #javateamlead #москва #мск\n\nTeam Lead Java\nКомпания: Srgroup\nЛокация: офис\nЗанятость: fulltime \nЗ/п: 280-350к net \nКонтакты: @observer69 \n\nНаши роботы не только полностью автоматически оценивают квартиры, но также помогают аналитикам работать с уникальными объектами на рынке, выявлять случаи мошенничества, оценивать коммерческую недвижимость.\n\nЗадачи\n1. Управлять  Java-командой;\n2. Детализировать и оценивать задачи на основе бизнес постановок;\n3. Участвовать в формировании спринта;\n4. Решать архитектурно и технически сложные задачи;\n5. Code review;\nСовершенствовать процессы разработки;\n6. Развивать скилы разработчиков.\n\nТребования\n● Более 3-х лет разрабатывать коммерческие продукты на Java;\n● Интерес к BigData;\n● Spring, Spring-boot, Spring data, Hibernate, Redis, плюсом MongoDB и RabbitMQ;\n● Пишете быстрые и красивые запросы к БД и понимаете в индексах;\n● Почему и когда нужно писать простой, расширяемый и производительный код;\n● Владеете Mercurial, Gradle, Jira, Jenkins\n\nУсловия\n● Все по ТК РФ;\n● Белая ЗП;\n● Комфортная рабочая среда;\n● Гибкое начало дня;\n● Офис БЦ \"Пальмира\", м. \n Бауманская/Электрозаводская","markup":[{"type":"hashtag","offset":0,"length":9,"data":"вакансия"},{"type":"hashtag","offset":10,"length":5,"data":"java"},{"type":"hashtag","offset":16,"length":9,"data":"teamlead"},{"type":"hashtag","offset":26,"length":13,"data":"javateamlead"},{"type":"hashtag","offset":40,"length":7,"data":"москва"},{"type":"hashtag","offset":48,"length":4,"data":"мск"},{"type":"bold","offset":54,"length":24,"data":""},{"type":"bold","offset":87,"length":8,"data":""},{"type":"bold","offset":101,"length":10,"data":""},{"type":"bold","offset":122,"length":4,"data":""},{"type":"bold","offset":141,"length":9,"data":""},{"type":"handle","offset":151,"length":11,"data":"observer69"},{"type":"bold","offset":372,"length":9,"data":""},{"type":"bold","offset":408,"length":2,"data":""},{"type":"bold","offset":474,"length":2,"data":""},{"type":"bold","offset":513,"length":2,"data":""},{"type":"bold","offset":565,"length":2,"data":""},{"type":"bold","offset":619,"length":3,"data":""},{"type":"bold","offset":654,"length":11,"data":""},{"type":"bold","offset":1013,"length":8,"data":""}],"date":"2020-06-26T06:42:50+00:00","link":"tg://resolve?domain=jvmjobs&post=1661","tags":[{"name":"java"},{"name":"jvm"},{"name":"dotnet"},{"name":"spring"},{"name":"hibernate"},{"name":"redis"},{"name":"mongodb"},{"name":"rabbitmq"},{"name":"mercurial"},{"name":"gradle"},{"name":"jenkins"},{"name":"spring-boot"},{"name":"spring-data"}],"cities":[{"code":"moscow"}],"allowsRemote":false}},{"node":{"__typename":"Job","id":"1737490432-1001091028994","title":"Java developer","text":"#Вакансия #Java #Spring #Москва\n\nВсем привет! \nИщу Middle Java Backend Developer в Национальную Систему Платёжных Карт на проект \"Клиринг\".\n\nЭто Core-платформа, которая обрабатывает все транзакции внутри нашей страны по всем основным платежным системам. Обработка каждой системы уникальна, имеет свои интересные особенности. \n\nСтек: CentOS, Java Core, Spring, Akka Actors, MySql, MyBatis, Swagger, Gradle, Groovy и Kotlin скрипты.\n\nНам интересны кандидаты от уровня Middle и выше: от 160 000 rub. \nФинансовый вопрос обсуждается индивидуально и зависит от опыта, знаний и навыков кандидата.\n\nЧто предстоит делать:\n- разрабатывать и поддерживать  backend проекта в тесном взаимодействии с командой;\n- обеспечивать полный цикл разработки от анализа требований до внедрения продукта;\n- участвовать в построении новых систем и в развитии существующих.\n\nЧто требуется:\n- отличные знания Core Java;\n- опыт работы со стеком Spring, в том числе SpringBoot;\n- хорошие знания SQL, опыт работы с JUnit, использования git, вариантов gitflow;\n- понимание принципов построения CI/CD (методология, инструменты);\nумение декомпозировать задачи.\n\nМы предлагаем:\n- работу в команде профессионалов;\n- обучение за счет компании;\n- развитую корпоративную культуру;\n- комфортный офис в центре (тренажерный зал, спортивный зал, лаунж-зона, кухни с чаем и кофе на каждом этаже);\n- ДМС со стоматологией с первого месяца работы, официальное трудоустройство.\n\n@arinakulova","markup":[{"type":"hashtag","offset":0,"length":9,"data":"Вакансия"},{"type":"hashtag","offset":10,"length":5,"data":"Java"},{"type":"hashtag","offset":16,"length":7,"data":"Spring"},{"type":"hashtag","offset":24,"length":7,"data":"Москва"},{"type":"handle","offset":1431,"length":12,"data":"arinakulova"}],"date":"2020-06-25T10:47:20+00:00","link":"tg://resolve?domain=jvmjobs&post=1657","tags":[{"name":"java"},{"name":"jvm"},{"name":"spring"},{"name":"centos"},{"name":"akka"},{"name":"mysql"},{"name":"swagger"},{"name":"gradle"},{"name":"groovy"},{"name":"kotlin"},{"name":"sql"},{"name":"junit"},{"name":"git"}],"cities":[{"code":"moscow"}],"allowsRemote":false}},{"node":{"__typename":"Job","id":"1723858944-1001091028994","title":"Java разработчик","text":"#backend #java #middle  \nКомпания: #ОООСервисхаб \nЛокация: #удаленка \nЗ/п: 80 000-120 000 \nКонтакты:👉 @ANASTASIAHRServicehub  \n\nВ команду, которая производит и внедряет ПО для банков, нужен Разработчик Java (удаленно или в офис во Владимир).   \n\nМы предлагаем Вам:\n  \nФедеральный ИТ проект.  \n Бесплатное обучение английскому языку и возможность выбора обучающего курса по интересующей тематике. \nСоциальный пакет, официальное трудоустройство.  \n\n\nВ проекте используется следующий стек :  \n\n✔️Java с использованием spring-boot \n✔️Axon Framework в качестве каркасных фрейворков.  \n✔️А так же JOOQ, MapStruct, Jackson для работы с внешними источниками данных.  \n✔️Для тестирования используется JUnit + Mockito.  \n✔️Для решения задач безопасности(ЭЦП) используется BouncyCastle. \n✔️CI/CD организуется средствами Gradle, Docker, Jenkins, Rancher 2, Kubernetes, Helm.  \n✔️Для хранения данных используется СУБД PostgreSQL,для организации асинхронной коммуникации применяется RabbitMQ.  \n\nЧто требуется от Вас:  \n\nЗнание языков/фреймворков, Spring, SQL, Core Java S, серверов очередей, неряляционных баз данных, web-технологий приветствуется;  \nУверенное знание Core Java, Spring IoC, SQL  \n\n❕Приветствуются экспертизы в следующих областях: сервера очередей, неряляционные базы данных, CQRS, Event Sourcing, Web-технологии \n \nБуду также благодарна за контакты и рекомендации😊 \n✍️@ANASTASIAHRServicehu hr@srvhub.ru","markup":[{"type":"hashtag","offset":0,"length":8,"data":"backend"},{"type":"hashtag","offset":9,"length":5,"data":"java"},{"type":"hashtag","offset":15,"length":7,"data":"middle"},{"type":"hashtag","offset":35,"length":13,"data":"ОООСервисхаб"},{"type":"hashtag","offset":59,"length":9,"data":"удаленка"},{"type":"handle","offset":103,"length":22,"data":"ANASTASIAHRServicehub"},{"type":"handle","offset":1374,"length":21,"data":"ANASTASIAHRServicehu"},{"type":"link","offset":1396,"length":12,"data":"mailto:hr@srvhub.ru"}],"date":"2020-06-23T09:46:47+00:00","link":"tg://resolve?domain=jvmjobs&post=1644","tags":[{"name":"java"},{"name":"jvm"},{"name":"spring"},{"name":"jackson"},{"name":"junit"},{"name":"gradle"},{"name":"docker"},{"name":"jenkins"},{"name":"kubernetes"},{"name":"postgresql"},{"name":"rabbitmq"},{"name":"sql"},{"name":"web"},{"name":"spring-boot"}],"cities":[{"code":"vladimir"}],"allowsRemote":true}},{"node":{"__typename":"Job","id":"2240806912-1001134745498","title":"Devops инженер","text":"#вакансия #fulltime #devops #middleDevops #seniorDevOps #офис #казань #нижнийновгород \n \nDevOps инженеру предлагаем full time позицию в компании MERA. Мы работаем с крупнейшими мировыми заказчиками, лидерами в своих отраслях. В одном из наших проектов открыта вакансия devops инженера.\n\nВладеть английским достаточно для чтения и переписки. \n \nРассмотрим уровень от Middle до Senior. Зарплату предлагаем, соответственно, в зависимости от уровня. Смотрите вилку, описание офисов и контакты в конце поста. \n \nС какими технологиями мы работаем? \n! CMake\nJenkins \nGitLab CI \nPython\nGrafana \nGradle \nTerraform \nAnsible \nKubernetes \nDocker \nZabbix \nLinux \n \nМы создаём высоконагруженные системы, которыми пользуются сотни тысяч людей. \n\nОблачная телефония. Данный продукт объединяет в себе возможности телефонии, видеосвязи, организации встреч и обмен сообщениями в одном надежном, простом в использовании решении, что позволяет клиентам снижать стоимость корпоративной связи. \nЕсть архитектурные команды, есть команды разработки, swat-команда которая занимается эмерженси вещами в частности билд-системами, команды автоматизаторов. На текущий момент необходим человек, который будет заниматься билд инфраструктурой, настройкой и улучшением CI/CD. \n \nПодробнее о вакансии по теме DevOps на career.mera.ru. \n \nФормат работы: офис. \n \nГде находятся офисы: Нижний Новгород, Дзержинск и Казань. \nХороший бонус при релокации. \n \nЗанятость: полная. \n \nЗарплата: 100 на руки фикс (это средняя зарплата, предложение зависит от уровня экспертизы). \n \nНазвание компании: \nMERA, career.mera.ru \n \nКонтакты: \n@sonyadremucheva \nsonya.dremucheva@mera.com\n\n—\n\n👉 Обсуждение вакансии в чате @devops_jobs","markup":[{"type":"hashtag","offset":0,"length":9,"data":"вакансия"},{"type":"hashtag","offset":10,"length":9,"data":"fulltime"},{"type":"hashtag","offset":20,"length":7,"data":"devops"},{"type":"hashtag","offset":28,"length":13,"data":"middleDevops"},{"type":"hashtag","offset":42,"length":13,"data":"seniorDevOps"},{"type":"hashtag","offset":56,"length":5,"data":"офис"},{"type":"hashtag","offset":62,"length":7,"data":"казань"},{"type":"hashtag","offset":70,"length":15,"data":"нижнийновгород"},{"type":"link","offset":1284,"length":14,"data":"http://career.mera.ru"},{"type":"link","offset":1562,"length":14,"data":"http://career.mera.ru"},{"type":"handle","offset":1591,"length":16,"data":"sonyadremucheva"},{"type":"link","offset":1609,"length":25,"data":"mailto:sonya.dremucheva@mera.com"},{"type":"handle","offset":1669,"length":12,"data":"devops_jobs"}],"date":"2020-06-22T18:03:00+00:00","link":"tg://resolve?domain=devops_jobs_feed&post=2137","tags":[{"name":"cmake"},{"name":"jenkins"},{"name":"gitlab"},{"name":"python"},{"name":"gradle"},{"name":"ansible"},{"name":"kubernetes"},{"name":"docker"},{"name":"linux"}],"cities":[{"code":"kazan"},{"code":"dzerzhinsk"},{"code":"nizhny-novgorod"}],"allowsRemote":false}},{"node":{"__typename":"Job","id":"1719664640-1001091028994","title":"Java разработчик","text":"#java #middle #москва #офис #fulltime\nJava-разработчик (CDP)\nКомпания: Эвотор\nЛокация: Москва, м. Парк Культуры\nЗп: 150 - 200К net\nКонтакты: @viktori_may, v.plotnikova@evotor.ru\n\nНаша команда занимается созданием Customer Data Platform (CDP) - система, которая идентифицирует пользователя через любой канал взаимодействия и собирает информацию о нем в одном профиле, позволяет сегментировать пользователей и коммуницировать с ними на основании сформированных правил. \n\nЗадачи:\n- Проектирование и реализация отказоустойчивых и готовых к масштабированию сервисов\n- Обширный круг задач по проектированию архитектуры и API системы\n- Участие в выборе используемых технологий\n\nКого ищем:\n• Знание основных алгоритмов и шаблонов проектирования ПО;\n• Знание фреймворков Spring Boot, Spring Cloud, Spring Cloud Stream, Kafka, Hibernate, веб-стека;\n• Знание технологий контейнеризации (Docker, Kubernetes);\n• Опыт работы c SQL и NoSQL базами данных(PostgreSQL, Aerospike, ClickHouse);\n• Опыт работы с инструментами Gradle, Git, Jira, Jenkins.\n\nСтек:\nJava12, Spring, Hibernate,Git, PostgreSQL, Kafka, Kubernetes, Docker\n\nУсловия:\n- Полностью официальная заработная плата\n- Офис в шаговой доступности от м. Парк Культуры со своей кухней и террасой\n- ДМС после прохождения испытательного срока","markup":[{"type":"hashtag","offset":0,"length":5,"data":"java"},{"type":"hashtag","offset":6,"length":7,"data":"middle"},{"type":"hashtag","offset":14,"length":7,"data":"москва"},{"type":"hashtag","offset":22,"length":5,"data":"офис"},{"type":"hashtag","offset":28,"length":9,"data":"fulltime"},{"type":"handle","offset":141,"length":12,"data":"viktori_may"},{"type":"link","offset":155,"length":22,"data":"mailto:v.plotnikova@evotor.ru"},{"type":"bold","offset":469,"length":6,"data":""},{"type":"bold","offset":671,"length":10,"data":""},{"type":"bold","offset":1034,"length":4,"data":""}],"date":"2020-06-22T11:44:13+00:00","link":"tg://resolve?domain=jvmjobs&post=1640","tags":[{"name":"java"},{"name":"jvm"},{"name":"dotnet"},{"name":"spring"},{"name":"cloud"},{"name":"kafka"},{"name":"hibernate"},{"name":"docker"},{"name":"kubernetes"},{"name":"sql"},{"name":"nosql"},{"name":"postgresql"},{"name":"gradle"},{"name":"git"},{"name":"jenkins"},{"name":"spring-boot"}],"cities":[{"code":"moscow"}],"allowsRemote":false}}]}}},"context":{}}