{"hash":"f5f6bf98bd95e769321482904cbbd488f77922fd","data":{"records":{"id":"web","name":"web","belongsTo":{"totalCount":155,"pageInfo":{"totalPages":16,"currentPage":6},"edges":[{"node":{"__typename":"Job","id":"17234395136-1001110946746","title":"Js разработчик","text":"#вакансия\n\nSenior NodeJS Software Engineer\n\nГород и адрес офиса: Москва, м.Китай-Город\nФормат работы: удаленка \nЗанятость: полная \nЗарплата: $ 50 000 - 60 000 в год\n\nМеждународный сервис по подбору стипендиальных программ ищет в свою команду опытного NodeJS разработчика. Главный офис компании находится в Тель-Авиве, куда предусмотрены поездки раз в полгода, команда рассредоточена по миру.\n\nМы предлагаем интересные задачи на высоконагруженных web-проектах, зарплату, привязанную к курсу доллара; возможность профессионального обучения и полноценного участия в жизни IT сообщества (тренинги, конференции) и возможность работать по гибкому графику.\n\n\nТребования: \n- Отличные знания Javascript, Node JS; \n- Будет плюсом опыт работы с Golang; \n- Опыт работы с высокими нагрузками; \n- Хорошее понимание архитектуры и проектирования; \n- Опыт работы с RabbitMQ/Kafka; \n- Опыт работы с NoSQL DB (MongoDB, Redis); \n- Разработка или взаимодействие с REST API; \n- Написание юнит и интеграционных тестов; \n- Понимание цикла CI/CD, поддержка его конфигурации; \n- Отличные коммуникативные навыки и уровень английского не ниже В2.\n\nЧтобы откликнуться, необходимо пройти короткий отбор по ссылке https://6nomads.com/\n\nНазвание компании: 6nomads.com\nКонтакт: @temnik_sofya","markup":[{"type":"hashtag","offset":0,"length":9,"data":"вакансия"},{"type":"link","offset":143,"length":15,"data":"tel:50 000 - 60 000"},{"type":"link","offset":1183,"length":20,"data":"https://6nomads.com/"},{"type":"link","offset":1224,"length":11,"data":"http://6nomads.com"},{"type":"handle","offset":1245,"length":13,"data":"temnik_sofya"}],"date":"2020-06-29T17:50:20+00:00","link":"tg://resolve?domain=javascript_jobs_feed&post=16436","tags":[{"name":"javascript"},{"name":"nodejs"},{"name":"web"},{"name":"go"},{"name":"rabbitmq"},{"name":"kafka"},{"name":"nosql"},{"name":"mongodb"},{"name":"redis"},{"name":"rest"}],"cities":[{"code":"moscow"}],"allowsRemote":true}},{"node":{"__typename":"Job","id":"26814185472-1001075660570","title":"Php developer","text":"#вакансия #PHP #remote #fulltime #Zend #MySQL \nМы в JivoSite разрабатываем полезный продукт: бизнес-мессенджер для общения c клиентами в различных каналах (соц. сети, мессенджеры, почта, чат на сайте) через одно приложение, CRM систему и телефонию. Сейчас он-лайн продажи все более и более актуальны, а значит все больше компаний нуждаются в наших продуктах.\n\nМы ищем  Middle PHP developer'а для разработки внутреннего портала управления нашими продуктами. Не только нашим клиентам, но и сотрудникам должно быть комфортно, приятно и удобно работать.\n\nМы ожидаем, что вы:\n\n-Знаете PHP - сильные и слабые стороны языка\n-Понимаете MySQL (сложные запросы, оптимизация)\n-Понимаете базовые принципы верстки\n-Работали с системами контроля версий\n-Обладаете успешным опытом разработки web-приложений\nБудет отлично если: \n-Есть опыт работы с Symfony, Zend, AWS, Yandex.Cloud\n-Есть опыт разработки cli-скриптов и cron-задач\n-Есть опыт удаленной работы\n\nМы предлагаем:\n✔ Минимум бюрократии, максимум самостоятельности\n✔ Белую заработную плату, оформление по ТК РФ\n✔ДМС, предоставляем и для региональных сотрудников\n✔Удаленную фулл-тайм работу в стабильной компании\nПишите в личку @onvtt или на почту opaleva@jivosite.com","markup":[{"type":"hashtag","offset":0,"length":9,"data":"вакансия"},{"type":"hashtag","offset":10,"length":4,"data":"PHP"},{"type":"hashtag","offset":15,"length":7,"data":"remote"},{"type":"hashtag","offset":23,"length":9,"data":"fulltime"},{"type":"hashtag","offset":33,"length":5,"data":"Zend"},{"type":"hashtag","offset":39,"length":6,"data":"MySQL"},{"type":"handle","offset":1169,"length":6,"data":"onvtt"},{"type":"link","offset":1189,"length":20,"data":"mailto:opaleva@jivosite.com"}],"date":"2020-06-29T15:43:00+00:00","link":"tg://resolve?domain=php_jobs&post=25572","tags":[{"name":"php"},{"name":"zend-framework"},{"name":"mysql"},{"name":"web"},{"name":"symfony"},{"name":"amazon-web-services"},{"name":"cloud"},{"name":"cron"}],"cities":[],"allowsRemote":true}},{"node":{"__typename":"Job","id":"358612992-1001352129329","title":"Golang разработчик","text":"#вакансия #Москва #офис #удаленка #Golang #fulltime\n\nГород и адрес офиса: Москва, м. Новокузнецкая/Павелецкая\nФормат работы: #офис, #удаленка\nЗанятость: #полная\nЗП: от 120к до 200к руб. нетт\n\nSports.ru – ведущий спортивный сайт в России. Мы строим сообщества людей, увлекающихся разными видами спорта, помогаем им развиваться и даем им площадку для общения. Сейчас мы ищем Backend-разработчика (Golang/PHP) в команду нашего проекта Betting Insider.\n\nBetting Insider — социальная сеть для любителей ставок. Мы верим, что ставки — неотъемлемая часть рынка спортивных развлечений, и стремимся сделать этот рынок прозрачнее и интереснее для пользователей. Мы не принимаем ставок на реальные деньги, но даем пользователям множество вспомогательных сервисов, которые делают их игру проще, безопаснее и интереснее.\n\nО задачах:\nВы будете участвовать в продуктовой разработке на всех стадиях: от обсуждения фич и проработки архитектуры до деплоя и мониторинга работы.\nРазрабатывать микросервисы на Go, перевода на них наш монолит на PHP. Поддержкой монолита тоже нужно будет заниматься. Разрабатывать GraphQL API для web-версии и приложений iOS и Android.\nОптимизировать работу приложений, искать проблемы с производительностью и надежностью. Покрывать код тестами и проводить код ревью.\nЕще сможете принять участие в разработке core сервисов для sports.ru и других наших проектов с MAU больше 20 млн.\n\nО технологиях:\nGo как основной язык. PHP сервис для поддержки и переписывания на Go.\nGraphQL для клиентов. gRPC и JSON over HTTP для межсервисного взаимодействия.\nРазвертывание docker контейнеров в kubernetes. Деплой через gitlab CI и helm чарты.\nМониторинг, трейсинг и алертинг c помощью Grafana и Prometheus, Kibana, Sentry, Elasticsearch APM.\nPostgres 12 и MySQL 8.0.\nNsq и RabbitMQ в качестве очереди событий. Redis для Pub/Sub.\n\nО наших ожиданиях:\nМы ожидаем, что вы имеете опыт разработки микросервисов на Go. Имеете опыт работы с PHP и все еще можете и хотите с ним взаимодействовать. Имеете навыки построения производительных и отказоустойчивых систем.\nЗнаете основы используемых технологий и понимаете, как их использовать: SQL, Go, PHP, message queue, сетевое взаимодействие, кеширование, системы мониторинга и т.д.\nУ вас есть опыт написания тестов равного уровня: Unit, Integration, E2E.\nОпыт взаимодействия с GraphQL и gRPC будет плюсом.\nКлассно, если вы любите спорт. Еще лучше, если вы интересуетесь ставками.\n\nОб условиях: \nПросторный стильный офис возле м. Новокузнецкая/Третьяковская.\n“Белая” заработная плата.\nБесплатная медстраховка со стоматологией после испытательного срока.\nГибкий график работы с возможностью день-два в неделю работать удаленно,\nФрукты, снеки, чай, кофе, какао 24/7.\nКорпоративная скидка в спортзал и на занятия английским языком.\nКорпоративный футбол с тренером.\nФинансовая помощь при переезде из другого города.\nВозможности для профессионального развития.\n\nНазвание компании: Sports.ru (Tribuna Digital)\nКому интересно, пишите в личку (@pbuyatova), поделюсь подробностями)","markup":[{"type":"hashtag","offset":0,"length":9,"data":"вакансия"},{"type":"hashtag","offset":10,"length":7,"data":"Москва"},{"type":"hashtag","offset":18,"length":5,"data":"офис"},{"type":"hashtag","offset":24,"length":9,"data":"удаленка"},{"type":"hashtag","offset":34,"length":7,"data":"Golang"},{"type":"hashtag","offset":42,"length":9,"data":"fulltime"},{"type":"hashtag","offset":125,"length":5,"data":"офис"},{"type":"hashtag","offset":132,"length":9,"data":"удаленка"},{"type":"hashtag","offset":153,"length":7,"data":"полная"},{"type":"link","offset":192,"length":9,"data":"http://Sports.ru"},{"type":"link","offset":1338,"length":9,"data":"http://sports.ru"},{"type":"link","offset":2913,"length":9,"data":"http://Sports.ru"},{"type":"handle","offset":2973,"length":10,"data":"pbuyatova"}],"date":"2020-06-29T15:38:06+00:00","link":"tg://resolve?domain=gogetajobfeed&post=342","tags":[{"name":"go"},{"name":"php"},{"name":"graphql"},{"name":"web"},{"name":"ios"},{"name":"android"},{"name":"json"},{"name":"docker"},{"name":"kubernetes"},{"name":"gitlab"},{"name":"elasticsearch"},{"name":"postgresql"},{"name":"mysql"},{"name":"rabbitmq"},{"name":"redis"},{"name":"sql"}],"cities":[{"code":"moscow"}],"allowsRemote":true}},{"node":{"__typename":"Job","id":"17226006528-1001110946746","title":"Js разработчик","text":"#вакансия #frontend  #React #офис #remote #Спб #senior \n\nКомпания: DBeaver\nЗ/п: 180 000 - 300 000 рублей на руки \nГород и адрес офиса: г. Санкт-Петербург (м. Площадь Ленина/Новочеркасская)\nФормат работы: офис или удаленка \nЗанятость: полная, fulltime\n\n🌏DВeaver  - это международный open source проект, бесплатный многоплатформенный инструмент для работы с базами данных. Поддерживает все популярные базы данных: MySQL, PostgreSQL, MariaDB, SQLite, Oracle, DB2, SQL Server, Sybase, MS Access, Teradata, Firebird, Derby и т. д. Платформа интегрируется с Amazon сервисами и нацелена на облачные решения. \n\nCейчас ребята разрабатывают web решение DВeaver, первый релиз состоялся в начале года и компания активно продолжает развитие. \n\n💠Какой опыт и знания ожидают увидеть ребята:\n- опыт работы с TypeScript и React;\n- опыт участия в многокомпонентных проектах со сложной бизнес-логикой;\n- опыт проектирования и рефакторинга;\n- готовность возглавить разработку интерфейсной части продукта, принимать ключевые архитектурные решения;\n- английский язык от уровня intermediate (письменный и на уровне чтения).\n\nСтек технологий: TypeScript, React, GraphQL, MobX, RxJS, Docker. \n\n💎Что получите вы:\n- комфортный офис в БЦ Бенуа;\n- возможность частично или полностью удаленной работы; \n- официальное оформление;\n- возможность поработать над крутым международным продуктом в сплоченной команде энтузиастов;\n- профессиональные командировки и конференции в США и Европу.\n\nКонтакты:\ne-mail: valeriya@luckyhunter.io\ntelegram: @sobolevavalery\nКА: http://luckyhunter.io\nБуду рада ответить на все вопросы и рассказать подробнее о компании 😊","markup":[{"type":"hashtag","offset":0,"length":9,"data":"вакансия"},{"type":"hashtag","offset":10,"length":9,"data":"frontend"},{"type":"hashtag","offset":21,"length":6,"data":"React"},{"type":"hashtag","offset":28,"length":5,"data":"офис"},{"type":"hashtag","offset":34,"length":7,"data":"remote"},{"type":"hashtag","offset":42,"length":4,"data":"Спб"},{"type":"hashtag","offset":47,"length":7,"data":"senior"},{"type":"link","offset":1477,"length":23,"data":"mailto:valeriya@luckyhunter.io"},{"type":"handle","offset":1511,"length":15,"data":"sobolevavalery"},{"type":"link","offset":1531,"length":21,"data":"http://luckyhunter.io"}],"date":"2020-06-29T15:33:08+00:00","link":"tg://resolve?domain=javascript_jobs_feed&post=16428","tags":[{"name":"javascript"},{"name":"reactjs"},{"name":"mysql"},{"name":"postgresql"},{"name":"mariadb"},{"name":"sqlite"},{"name":"oracle"},{"name":"sql"},{"name":"ms-access"},{"name":"web"},{"name":"typescript"},{"name":"graphql"},{"name":"rxjs"},{"name":"docker"},{"name":"sql-server"}],"cities":[],"allowsRemote":true}},{"node":{"__typename":"Job","id":"108252889088-1001119539411","title":".net разработчик","text":"#вакансия #fulltime #офис #remote \n\nЛокация: Казань, ст. м. Козья Слобода; Иннополис;\nФормат работы: офис или remote, фуллтайм \nЗанятость: полная, гибкое начало дня\nЗП: до 160 000 Net \n\n🚀Компания Ак Барс Цифровые Технологии запускает новый большой проект по трансформации архитектуры розничного бизнеса (физические лица) и переезд всех процессов на новую технологическую платформу. В рамках проекта будет сформировано 8 команд, занимающихся разными задачами по платежным решениям, каталогам продуктов, работой с электронными досье клиента, операционному обслуживанию и др.\n\nВ связи с чем компания в поисках Middle .Net разработчиков с коммерческим опытом работы от 2 лет. \n\nСтек технологий: C#, ASP.NET MVC / Core, Web API, MS SQLServer / PostgreSql, Entity Framework, JS /React, RabbitMQ\n\n✅Ребята ищут специалиста с опытом разработки веб-платформ, которому знаком .NET, ASP.NET Core, MS SQL Server. Команды гибко рассматривают кандидатов, готовы обучать и делиться опытом. \n\n✅АК Барс Цифровые технологии предлагают отличные условия:\n- официальное оформление и полностью белую зп;\n- гибкий график работы, позитивная атмосфера, дружный молодой коллектив;\n- возможность работать удаленно или в комфортном офисе в Казани;\n- помощь с релокацией, если вы из другого города; \n- возможность быстро «прокачаться» в скиллах на интересных проектах и другие приятные плюшки и бонусы.\n\nКонтакты:\ne-mail: valeriya@luckyhunter.io\ntelegram: @sobolevavalery\nБуду рада ответить на все вопросы и комментарии! 😊","markup":[{"type":"hashtag","offset":0,"length":9,"data":"вакансия"},{"type":"hashtag","offset":10,"length":9,"data":"fulltime"},{"type":"hashtag","offset":20,"length":5,"data":"офис"},{"type":"hashtag","offset":26,"length":7,"data":"remote"},{"type":"bold","offset":675,"length":15,"data":""},{"type":"link","offset":696,"length":7,"data":"http://ASP.NET"},{"type":"link","offset":872,"length":7,"data":"http://ASP.NET"},{"type":"link","offset":1393,"length":23,"data":"mailto:valeriya@luckyhunter.io"},{"type":"handle","offset":1427,"length":15,"data":"sobolevavalery"}],"date":"2020-06-29T15:13:52+00:00","link":"tg://resolve?domain=microsoftstackjobs&post=103238","tags":[{"name":"dotnet"},{"name":"csharp"},{"name":"web"},{"name":"sql-server"},{"name":"postgresql"},{"name":"reactjs"},{"name":"rabbitmq"},{"name":"sql"},{"name":"asp-net"},{"name":"entity-framework"},{"name":"net-core"},{"name":"asp-net-mvc"},{"name":"asp-net-core"}],"cities":[{"code":"kazan"}],"allowsRemote":true}},{"node":{"__typename":"Job","id":"103975747584-1001089317451","title":"Qa engineer","text":"#Москва  #QA  #вакансия #офис\nКомпания: Start.ru\n\nМы ищем коллег, которые смогут влиться в нашу команду и вместе с нами развивать и совершенствовать наш сервис!\nУ Вас есть возможность стать частью команды, развивающей первую в Восточной Европе студию с собственным международным VOD сервисом.\nВ данный момент мы усиляем нашу команду по тестированию и в поисках позиций Backend QA Engineer и QA Automation Engineer (python)\n\n———————————\nДолжность: Backend QA Engineer\nЗарплатная вилка: От 80.р. до 120т.р. по результатам собеседования\n\nКакие задачи вы будете решать:\n- Прогон описаных кейсов в TestRail и документация найденых дефектов;\n- Тестирование API (программного интерфейса платформы);\n- Разработка тестовых сценариев;\n- Взаимодействие с разработчиками и сопровождение дефектов до полного их решения;\n- Отладка и сбор логов в процессе воспроизведения проблем\n- Проведение регрессионного тестирования\n\nЧего мы хотим:\n- Вас не пугает работа с командной строкой чаще чем работа с графическим интерфейсом\n- Работа с chromedev tools и командной строкой (bash);\n- Знание и понимания клиент-серверной архитектуры приложений;\n- Понимание принципов работы веб-приложений;\n- Умение грамотно составлять свои мысли в предложения и описывать дефекты, чтобы понятно было разработчикам;\n- Навыки работы с технической документацией, анализ и вычленение требований;\n- Работали с программами-снифферами и проксями траффика (charles/wireshark/fiddler/mitmproxy etc)\n\nБудет плюсом:\n- Если знаете python на уровне, достаточном для автоматизации и сможете прочитать код который на нем написан\n- Знаете что такое DOM-дерево, локаторы и селекторы в контексте веб-приложения\n\n—————————\nДолжность: QA Automation Engineer\nЗарплатная вилка: От 130.р. до 170т.р. по результатам собеседования\n\nУ нас:\nВ нашем проекте есть автоматизация тестирования как API, так и WEB UI. \nНаш стек: Python3, PyTest, Requests, Selenium WebDriver, Selenoid, DB clients (MongoDB, PostgreSQL), JSON validation (jsonschema), TestRail API, Telegram API, GitLab CI. \nПомимо автотестов мы разрабатываем проект нагрузочного тестирования на Locust.\n\nВаши задачи:\n- Расширение покрытия автотестов API, WEB UI\n- Поддержка автотестов в актуальном состоянии\n- Анализ прохождения тестов с возможным заведением багов в Jira\n- Ревью кода\n- Ведение тестовой - документации\n- Написание сценариев нагрузочного тестирования\n\nТребования:\n- Хорошее знание теории тестирования\n- Опыт автоматизированного тестирования от 2х лет\n- Знание Python3, PyTest\n- Навыки написания и использования тестовой документации\n- Умение писать простые запросы на SQL и в MongoDB\n- Навыки работы с Git\n- Обсуждение проблем приложения с разработчиками\n\nБудет плюсом:\n- Опыт написания архитектуры проекта автотестов с нуля\n- Работа с Docker, Docker Compose\n- Опыт работы с Telegram API\n- Опыт описания JSON схем для валидации ответов API\n- Базовые знания в Linux\n\nОт нас:\n- На данный момент условия сотрудничества удаленные, но при нормализации ситуации мы выйдем в офис\n- Офис в районе Хамовники (территориально м.Киевская, м. Спортивная в 20.мин ходьбы)\n- График работы: 5/2 начинаем с 9  до 11 (в целом гибкий - главное результат);\n- Оформление в соответствии с ТК РФ (белая зарплата, отпускные, больничные);\n- Все возможности для прокачки имеющихся скиллов и получения новых;\n- Драйвовая и высокопрофессиональная команда единомышленников;\n- Возможность стать частью динамично развивающегося видеосервиса.\n\n\nВопросы и отклики по вакансии писать в tlgrm: @unambo OR emailto: v.selyanin@start.ru","markup":[{"type":"hashtag","offset":0,"length":7,"data":"Москва"},{"type":"hashtag","offset":9,"length":3,"data":"QA"},{"type":"hashtag","offset":14,"length":9,"data":"вакансия"},{"type":"hashtag","offset":24,"length":5,"data":"офис"},{"type":"link","offset":40,"length":8,"data":"http://Start.ru"},{"type":"handle","offset":3471,"length":7,"data":"unambo"},{"type":"link","offset":3491,"length":19,"data":"mailto:v.selyanin@start.ru"}],"date":"2020-06-29T11:07:45+00:00","link":"tg://resolve?domain=qa_jobs&post=99159","tags":[{"name":"qa"},{"name":"python"},{"name":"bash"},{"name":"web"},{"name":"selenium"},{"name":"mongodb"},{"name":"postgresql"},{"name":"json"},{"name":"gitlab"},{"name":"sql"},{"name":"git"},{"name":"docker"},{"name":"linux"},{"name":"docker-compose"}],"cities":[{"code":"moscow"},{"code":"kiev"}],"allowsRemote":false}},{"node":{"__typename":"Job","id":"103973650432-1001089317451","title":"Qa engineer","text":"#вакансия #QA #ФТ #Москва #офис \n\nВакансия: QA Engineer\nГород: Москва м. Полежаевская\nЗарплата: от 100 000 до 150 000 рублей на руки \nФормат: офис, полный день, полная занятость\nКомпания Innovative People \n\nПроект \"Жизненный цикл клиента\" в банке, agile-команда.\n\n➡ Задачи и требования:\n\n• Ручное тестирование Web приложения/IOS/Android;\n• Проектировать и поддерживать актуальную тестовую документацию;\n• Разбор, детализация и заведение дефектов;\n\n• Опыт в тестирования от 2-х лет (от черновиков ТЗ до отчетности по текущему состоянию системы и потенциальным рискам);\n• Понимание принципов работы современных веб-сервисов: REST, SOAP;\n• Умение работать с Jira, Confluence;\n• Умение составлять чек-листы и тест-кейсы;\n\n• Желательно умение работать со сниффером (Charles/Fiddler/etc);\n• Желательно умение работать с инструментами тестирования\\отладки web-сервисов (SoapUI, Postman, Swagger UI);\"\n\n➡ Предлагаем:\n• все по ТК РФ, белое и официальное\n• ДМС со стоматологией, программа лояльности\n• адекватное руководство \n• большое комьюнити \n• ноутбук\n\nРезюме и вопросы @Priboch","markup":[{"type":"hashtag","offset":0,"length":9,"data":"вакансия"},{"type":"hashtag","offset":10,"length":3,"data":"QA"},{"type":"hashtag","offset":14,"length":3,"data":"ФТ"},{"type":"hashtag","offset":18,"length":7,"data":"Москва"},{"type":"hashtag","offset":26,"length":5,"data":"офис"},{"type":"handle","offset":1065,"length":8,"data":"Priboch"}],"date":"2020-06-29T11:02:48+00:00","link":"tg://resolve?domain=qa_jobs&post=99157","tags":[{"name":"qa"},{"name":"web"},{"name":"ios"},{"name":"android"},{"name":"rest"},{"name":"soap"},{"name":"swagger"}],"cities":[{"code":"moscow"}],"allowsRemote":false}},{"node":{"__typename":"Job","id":"103971553280-1001089317451","title":"Qa engineer","text":"#вакансия #QA #manual #fulltime #remote #офис\n\nФормат работы: офис или удаленно\nРасположение: Санкт-Петербург \nЗанятость: полная, гибкое начало дня\nЗП: до 200k gross\n\n🔹 Компания OCS Labs более 25 лет на рынке IT и является ведущим дистрибьютером по всем продуктовым направлениям IT рынка. \nРегиональная сеть офисов OCS включает 27 городов в России, компания работает с более чем 8500 партнеров, среди которых 500 продуктовых линеек от ведущих мировых вендеров. \n\n🔸Сейчас команда находится в поиске Senior Manual QA Engineer, который будет готов в дальнейшем вырасти в teamlead’a, и в перспективе возглавить направление тестирования в R&D отделе.\nНа текущий момент в команде уже есть 1 ручной тестировщик и 1 автотестировщик (python).\nПредстоит заниматься тестированием сервиса взаимодествия вендоров; \n\n🔹  Требования:\n— Опыт тестирования Web от 2 лет;\n— Умение оценивать и распределять задачи в команде;\n— Опыт менторства/руководства командой;\n— Опыт тестирования API;\n\nБольшим плюсом будет:\n— Понимание b2b сервисов;\n— Навыки автотестирования, будет возможность расти и развиваться в этом направлении; \n\n🔹  Условия:\n— Официальное трудоустройство, белая заработная плата;\n— Комфортный офис на Б.Сампсониевском (Петербург), также для московских специалистов есть возможность работать в московском офисе: Румянцево, офисный парк «Комсити» или удаленно; \n— Техника предоставляется в соответствии с пожеланиями специалиста;\n— Внутреннее обучение;\n— Годовая дотация;\n— Дружественная рабочая среда с возможностью карьерного и профессионального роста;\n\n🔹 Контакты:\ne-mail: maria@luckyhunter.io\ntelegram: @Maria_Rey","markup":[{"type":"hashtag","offset":0,"length":9,"data":"вакансия"},{"type":"hashtag","offset":10,"length":3,"data":"QA"},{"type":"hashtag","offset":14,"length":7,"data":"manual"},{"type":"hashtag","offset":22,"length":9,"data":"fulltime"},{"type":"hashtag","offset":32,"length":7,"data":"remote"},{"type":"hashtag","offset":40,"length":5,"data":"офис"},{"type":"bold","offset":500,"length":6,"data":""},{"type":"bold","offset":507,"length":18,"data":""},{"type":"bold","offset":570,"length":10,"data":""},{"type":"link","offset":1571,"length":20,"data":"mailto:maria@luckyhunter.io"},{"type":"handle","offset":1602,"length":10,"data":"Maria_Rey"}],"date":"2020-06-29T10:55:49+00:00","link":"tg://resolve?domain=qa_jobs&post=0","tags":[{"name":"qa"},{"name":"python"},{"name":"web"}],"cities":[],"allowsRemote":true}},{"node":{"__typename":"Job","id":"103967358976-1001089317451","title":"Qa инженер","text":"#вакансия #QA  #fulltime  #офис #Москва\nИщу ВЕДУЩЕГО ТЕСТИРОВЩИКА  в HOLODILNIK.RU, это  один из ведущих игроков на рынке электронной торговли. Компания приглашает в свою команду профессионала, кто своими знаниями в тестировании программного обеспечения поможет в проектах развития информационных систем интернет-магазина, CRM, интеграции партнерами.\n\n✅Обязанности:\n\n· Построение и поддержка процессов тестирования (ручного и автоматизированного UI тестирования).\n\n· Осуществление процесса тестирования: декомпозиция и оценка задач QA, распределение задач, ревью результатов работы.\n\n· Непосредственное участие в процессе функционального и регрессионного тестирования web-приложений; анализа и тестирования требований.\n\n· Составление тестовой документации (тест-планы, тест-кейсы, чек- листы) и поддержка уже существующей в актуальном состоянии.\n\n· Планирование тестовых сценариев для автоматизации.\n\n✅Требования:\n\n· Опыт работы в качестве QA инженера веб-приложений (от 3-х лет)\n\n· Опыт построения и поддержания процесса обеспечения качества\n\n· Опыт автоматизации тестирования (желательно - Selenium WebDriver);\n\n· Опыт работы с инструментами CI (Jenkins)\n\n· Знание методологий и инструментов тестирования\n\n· Навыки тест-дизайна (тест-кейсы, чек-листы), опыт создания комплексных тест-кейсов;\n\n· Опыт участия в сессиях исследовательского тестирования\n\n· Знание REST, опыт тестирования API (Postman, SoapUI);\n\n· Знание SQL, опыт написания SQL-скриптов и запросов\n\n· Понимание процессов разработки ПО\n\n· Знания XML, CSS, Html;\n\n· Опыт работы с баг-трекинговыми системами (желательно - Jira).\n\n\n✅Условия:\nЗП от 140 000 до 170 000 на руки\n\n· Место работы: Москва, м.Краснопресненская\n\n· При необходимости удаленная работа.\n\n· График работы: 5/2 с 9:00 до 18:00.\n\nКонтакты 🖊\ne-mail: anna-recruitment@mail.ru\nTelegram: @anna_recruitment","markup":[{"type":"hashtag","offset":0,"length":9,"data":"вакансия"},{"type":"hashtag","offset":10,"length":3,"data":"QA"},{"type":"hashtag","offset":15,"length":9,"data":"fulltime"},{"type":"hashtag","offset":26,"length":5,"data":"офис"},{"type":"hashtag","offset":32,"length":7,"data":"Москва"},{"type":"link","offset":69,"length":13,"data":"http://HOLODILNIK.RU"},{"type":"link","offset":1780,"length":24,"data":"mailto:anna-recruitment@mail.ru"},{"type":"handle","offset":1815,"length":17,"data":"anna_recruitment"}],"date":"2020-06-29T10:25:38+00:00","link":"tg://resolve?domain=qa_jobs&post=99151","tags":[{"name":"qa"},{"name":"web"},{"name":"selenium"},{"name":"jenkins"},{"name":"rest"},{"name":"sql"},{"name":"xml"},{"name":"css"},{"name":"html"}],"cities":[{"code":"moscow"}],"allowsRemote":true}},{"node":{"__typename":"Job","id":"72234303488-1001054966032","title":"Android разработчик","text":"#вакансия #москва #офис #senior\n\nгород: Москва\nформат работы: офис\nзанятость: полная\nзарплатная вилка: 150-200\nвакансия: Ищу Android-разработчика  middle+, готового возглавить развитие  и поддержку приложения.\n\nо компании: Электронное издательство «Юрайт» Мы работаем со всеми вузами страны и считаем своей главной целью повышение образовательного уровня в России.\nwww.urait.ru\n\nо проекте: Над проектом работает 20 человек. Приложение заказывали на стороне в 2019 г. Теперь решили собрать свою команду для рефакторинга и выведения на новый уровень.\n\nЧто ждет от тебя будущее нашего образования:\nПоддержку и развитие нашего приложения;\nПеренос функционала из web;\nВзаимодействие с командой - аналитиками и тестировщиками;\nУчастие в развитии проекта.\n\nСкажем тебе уверенное “да”, если ты:\nИмеешь успешный опыт разработки и поддержки под Android  (Android Studio, Gradle);\nИмеешь опыт разработки на Kotlin;\nИмеешь успешный опыт разработки клиент-серверных приложений (REST, JSON);\nТрогал архитектуру (MVP, Clean architecture);\nЗнаешь  Android application architecture, Android SDK, Gradle;\nВладеешь паттернами UI;\nЗнаешь, зачем нужен Git, без контроля версий никуда, правда?\nМожешь писать тесты;\nГотов ин-хаус исправлять код от аутсорса. Уверен в том, что ты сделаешь круче, чем исполнители на стороне =)\n\nКак и что по условиям\nОфис с плюшками в 5 минутах от м. Шоссе Энтузиастов, Мск\nГибкое начало дня:  с 8 до 11 \nВсе по ТК РФ + соц.пакет \nАдекватные коллеги и руководство!!!\n\n\nЗаинтересовало?\nДмитрий @tankograin","markup":[{"type":"hashtag","offset":0,"length":9,"data":"вакансия"},{"type":"hashtag","offset":10,"length":7,"data":"москва"},{"type":"hashtag","offset":18,"length":5,"data":"офис"},{"type":"hashtag","offset":24,"length":7,"data":"senior"},{"type":"bold","offset":223,"length":32,"data":""},{"type":"bold","offset":268,"length":22,"data":""},{"type":"bold","offset":321,"length":42,"data":""},{"type":"link","offset":365,"length":12,"data":"http://www.urait.ru"},{"type":"bold","offset":550,"length":45,"data":""},{"type":"bold","offset":750,"length":37,"data":""},{"type":"bold","offset":1303,"length":22,"data":""},{"type":"handle","offset":1501,"length":11,"data":"tankograin"}],"date":"2020-06-29T09:19:13+00:00","link":"tg://resolve?domain=mobile_jobs&post=68888","tags":[{"name":"mobile"},{"name":"android"},{"name":"web"},{"name":"gradle"},{"name":"kotlin"},{"name":"rest"},{"name":"json"},{"name":"git"},{"name":"android-studio"}],"cities":[{"code":"moscow"}],"allowsRemote":false}}]}}},"context":{}}