{"hash":"f5f6bf98bd95e769321482904cbbd488f77922fd","data":{"records":{"id":"docker","name":"docker","belongsTo":{"totalCount":182,"pageInfo":{"totalPages":19,"currentPage":10},"edges":[{"node":{"__typename":"Job","id":"2240806912-1001134745498","title":"Devops инженер","text":"#вакансия #fulltime #devops #middleDevops #seniorDevOps #офис #казань #нижнийновгород \n \nDevOps инженеру предлагаем full time позицию в компании MERA. Мы работаем с крупнейшими мировыми заказчиками, лидерами в своих отраслях. В одном из наших проектов открыта вакансия devops инженера.\n\nВладеть английским достаточно для чтения и переписки. \n \nРассмотрим уровень от Middle до Senior. Зарплату предлагаем, соответственно, в зависимости от уровня. Смотрите вилку, описание офисов и контакты в конце поста. \n \nС какими технологиями мы работаем? \n! CMake\nJenkins \nGitLab CI \nPython\nGrafana \nGradle \nTerraform \nAnsible \nKubernetes \nDocker \nZabbix \nLinux \n \nМы создаём высоконагруженные системы, которыми пользуются сотни тысяч людей. \n\nОблачная телефония. Данный продукт объединяет в себе возможности телефонии, видеосвязи, организации встреч и обмен сообщениями в одном надежном, простом в использовании решении, что позволяет клиентам снижать стоимость корпоративной связи. \nЕсть архитектурные команды, есть команды разработки, swat-команда которая занимается эмерженси вещами в частности билд-системами, команды автоматизаторов. На текущий момент необходим человек, который будет заниматься билд инфраструктурой, настройкой и улучшением CI/CD. \n \nПодробнее о вакансии по теме DevOps на career.mera.ru. \n \nФормат работы: офис. \n \nГде находятся офисы: Нижний Новгород, Дзержинск и Казань. \nХороший бонус при релокации. \n \nЗанятость: полная. \n \nЗарплата: 100 на руки фикс (это средняя зарплата, предложение зависит от уровня экспертизы). \n \nНазвание компании: \nMERA, career.mera.ru \n \nКонтакты: \n@sonyadremucheva \nsonya.dremucheva@mera.com\n\n—\n\n👉 Обсуждение вакансии в чате @devops_jobs","markup":[{"type":"hashtag","offset":0,"length":9,"data":"вакансия"},{"type":"hashtag","offset":10,"length":9,"data":"fulltime"},{"type":"hashtag","offset":20,"length":7,"data":"devops"},{"type":"hashtag","offset":28,"length":13,"data":"middleDevops"},{"type":"hashtag","offset":42,"length":13,"data":"seniorDevOps"},{"type":"hashtag","offset":56,"length":5,"data":"офис"},{"type":"hashtag","offset":62,"length":7,"data":"казань"},{"type":"hashtag","offset":70,"length":15,"data":"нижнийновгород"},{"type":"link","offset":1284,"length":14,"data":"http://career.mera.ru"},{"type":"link","offset":1562,"length":14,"data":"http://career.mera.ru"},{"type":"handle","offset":1591,"length":16,"data":"sonyadremucheva"},{"type":"link","offset":1609,"length":25,"data":"mailto:sonya.dremucheva@mera.com"},{"type":"handle","offset":1669,"length":12,"data":"devops_jobs"}],"date":"2020-06-22T18:03:00+00:00","link":"tg://resolve?domain=devops_jobs_feed&post=2137","tags":[{"name":"cmake"},{"name":"jenkins"},{"name":"gitlab"},{"name":"python"},{"name":"gradle"},{"name":"ansible"},{"name":"kubernetes"},{"name":"docker"},{"name":"linux"}],"cities":[{"code":"kazan"},{"code":"dzerzhinsk"},{"code":"nizhny-novgorod"}],"allowsRemote":false}},{"node":{"__typename":"Job","id":"26537361408-1001075660570","title":"Php разработчик","text":"#вакансия #drupal #php #backend #fullstack #middle\n\nГород: Санкт-Петербург\nФормат работы: Удалённая\nЗанятость: частичная, проектная\nЗарплатная вилка: от 30 до 50 тыс. руб чистыми\n\nВ рамках работы над большим проектром требуется Drupal разработчик для поддержки работы сайта, внедрения нового функционала и исправления багов, как на backend стороне, так и на frontend стороне (редко, но такое возможно).\n\nВесь геморрой общения с заказчиком будет на нас, внутри нашего небольшого коллектива атмосфера максимально положительная и не токсичная.\n\nТребования:\n\n- Опыт работы с Drupal от 2 лет\n- Умение использовать Docker и не бояться его\n- Опыт деплоя сайта и настройки серверного окружения\n- Занятость частичная, on-demand, но вы должны быть на связи в рабочее время, чтобы дать нам знать, когда сможете взять задачу в работу\n\nБонусы:\n\n- Возможность работать из любой точки мира, но предпочтение локации - Санкт-Петербург\n- Различные варианты трудоустройства\n- Отсутствие бюрократической волокиты\n\nНазвание компании: Growire Solutions (growire.org)\n\nКонтакты:\n@wavemeup\nhello@growire.org","markup":[{"type":"hashtag","offset":0,"length":9,"data":"вакансия"},{"type":"hashtag","offset":10,"length":7,"data":"drupal"},{"type":"hashtag","offset":18,"length":4,"data":"php"},{"type":"hashtag","offset":23,"length":8,"data":"backend"},{"type":"hashtag","offset":32,"length":10,"data":"fullstack"},{"type":"hashtag","offset":43,"length":7,"data":"middle"},{"type":"link","offset":1032,"length":11,"data":"http://growire.org"},{"type":"handle","offset":1056,"length":9,"data":"wavemeup"},{"type":"link","offset":1066,"length":17,"data":"mailto:hello@growire.org"}],"date":"2020-06-22T15:40:19+00:00","link":"tg://resolve?domain=php_jobs&post=25308","tags":[{"name":"php"},{"name":"drupal"},{"name":"docker"}],"cities":[],"allowsRemote":false}},{"node":{"__typename":"Job","id":"103458799616-1001089317451","title":"Qa engineer","text":"#Москва #вакансия #QA #fulltime #test #office\n\n💻Компания: СберТех.\n🧰Вакансия: QA Engineer.\n🏢Офис: Москва, м. Нагатинская/м. Тульская/ м. Верхние Котлы.\n💰ЗП: от 150 000 Net.\n\n📂Проект: Разработка платформы для управления бизнес-процессами Банка и Цифровой Платформы Sber.\n\n🗓Задачи:\n• Работа в роли тестировщика в scrum команде.\n• Написание, актуализация тестовых сценариев и их прохождение (API, UI).\n• Проведение функционального, регрессионного, интеграционного и других видов тестирования.\n• Регистрация, отслеживание и верификация дефектов.\n• Участие в развитии команды и процессов тестирования.\n\n📌Требования: \n• Опыт написания тестовых сценариев, чек-листов, составления сложных интеграционных сценариев.\n• Знание теории тестирования, понимание видов тестирования и необходимости их применения на различных этапах реализации проекта.\n• Опыт анализа и тестирования требований.\n• Опыт тестирования rest/soap сервисов.\n• Опыт работы с BPM системами, понимание нотации BPMN 2.0.\n\n📎Cтек: REST, XML, XSD, JSON, SQL, BPMN 2.0, Docker, Kubernetes, Openshift, Kafka.\n\n🔰Условия:\n• Оформление ТК РФ.\n• ДМС для сотрудников и скидки на медицинскую страховку для родственников;\n• Высокая белая заработная плата (оклад + годовая премия).\n• Возможность обучения за счет компании, посещения IT-конференций.\n• Бесплатный тренажерный зал на территории офиса.\n• Корпоративная жизнь и спортивные мероприятия.\n\n📩Готов ответить на интересующие вопросы - @Dmiryy","markup":[{"type":"hashtag","offset":0,"length":7,"data":"Москва"},{"type":"hashtag","offset":8,"length":9,"data":"вакансия"},{"type":"hashtag","offset":18,"length":3,"data":"QA"},{"type":"hashtag","offset":22,"length":9,"data":"fulltime"},{"type":"hashtag","offset":32,"length":5,"data":"test"},{"type":"hashtag","offset":38,"length":7,"data":"office"},{"type":"handle","offset":1443,"length":7,"data":"Dmiryy"}],"date":"2020-06-22T15:07:24+00:00","link":"tg://resolve?domain=qa_jobs&post=98666","tags":[{"name":"qa"},{"name":"dotnet"},{"name":"rest"},{"name":"soap"},{"name":"xml"},{"name":"xsd"},{"name":"json"},{"name":"sql"},{"name":"docker"},{"name":"kubernetes"},{"name":"kafka"}],"cities":[{"code":"moscow"}],"allowsRemote":false}},{"node":{"__typename":"Job","id":"2239758336-1001134745498","title":"Devops инженер","text":"#вакансия #DevOps#Москва#удаленка #полнаязанятость\n180000-220000\nПривет!\nМы команда Crypterium!\nМы международный финтех стартап.\nМы строим банк будущего, который поддерживает криптофиатные операции.\nНаша цель – создание сервиса, который фактически займёт место традиционных банков, по всем возможным банковским операциям!\nУ нас сложные, но интересные задачи по созданию крутого и по-настоящему полезного продукта для людей из разных стран по всему миру. Работа у нас реальная возможность приложить руку к крутому продукту, которым будет пользоваться большое количество людей.\nНа данный момент наша компания активно растет и развивается, в связи с этим мы ищем DevOps инженера Нам нужен по-настоящему про активный и ответственный сотрудник. Задач много, они разные и крайне интересны\nЧто предстоит делать?\n•  Поддержка инфраструктуры проекта на AWS;\n•  Улучшение существующей инфраструктуры, включая масштабирование и отказоустойчивость;\n•  Мониторинг системы, анализ быстродействия и тонкая настройка;\n•  Администрирование AWS. Предоставления безопасного доступа к ресурсам хостинга;\n•  Обеспечение бесперебойной работы сервисов компании;\n•  Выбор и внедрение DevOps практик и инструментов на всех этапах работы проекта;\n•  Развертывание, мониторинг и поддержка работы облачных и dedicated сервисов компании;\n•  Оперативное реагирование и устранение инцидентов;\n•  Поддержка процесса разработки;\n•  Автоматизация рутинных задач\nКакие skils мы хотим видеть в нашем будущем коллеге?\n•  Не менее 3 лет работы с linux системами в роли системного администратора/devops инженера;\n•  Уверенное знание инфраструктуры/сервисов AWS и DO;\n•  Опыт работы (настройка и конфигурирование) с CI/CD системами (у нас TeamCity и Code Pipeline/Code Deploy с миграцией на GitLab);\n•  Умение конфигурировать Nginx (ssl, request limits, cache, headers manipulation);\n•  Опыт работы с Docker.\n•  Опыт создания отказоустойчивых распределенных серверных архитектур с высоким уровнем доступности;\n•  Навыки администрирования и оптимизации СУБД: PostgeSQL;\n•  Преимущества:\n•  Опыт работы с системами управления конфигурацией Chef, Puppet, Ansible\n•  Понимание принципов CI/CD;\n•  Понимание, как работают основные сервисы AWS.\n•  Знание Java/Kotlin;\nЧто мы можем предложить для Вас?\n•  По настоящему заряженная команда профессионалов\n•  Гибкое начало рабочего дня\n•  Возможности профессионально развиваться и расти\n\nПисать в ЛС @borisovaem\n\n—\n\n👉 Обсуждение вакансии в чате @devops_jobs","markup":[{"type":"hashtag","offset":0,"length":9,"data":"вакансия"},{"type":"hashtag","offset":34,"length":16,"data":"полнаязанятость"},{"type":"handle","offset":2400,"length":11,"data":"borisovaem"},{"type":"handle","offset":2446,"length":12,"data":"devops_jobs"}],"date":"2020-06-22T13:16:02+00:00","link":"tg://resolve?domain=devops_jobs_feed&post=2136","tags":[{"name":"amazon-web-services"},{"name":"linux"},{"name":"gitlab"},{"name":"nginx"},{"name":"ssl"},{"name":"docker"},{"name":"ansible"},{"name":"java"},{"name":"kotlin"}],"cities":[{"code":"moscow"}],"allowsRemote":true}},{"node":{"__typename":"Job","id":"26532118528-1001075660570","title":"Php developer","text":"#вакансия #офис #спб #senior\nЛокация: СПб, ул. Рубинштейна\nФормат работы: Office\nЗанятость: Full-time\nЗарплатная вилка: 150 000 - 250 000 (net)\nПозиция: Senior Developer\n\nПроект:\nOndoc.me — современный медицинский сервис для пользователей, интегрированный с клиниками.\nМы разработали платформу, которая объединяет клиники, врачей, пациентов в цифровом пространстве и помогает более эффективно решать задачи заботы о здоровье.\n\nКакие задачи нужно решать:\n- Разработка и развитие бизнес логики проекта и RESTful API\n- Участие в развитии архитектуры проекта\n- Повышение отказоустойчивости и улучшение масштабируемости проекта\n- Написание тестов\n- Работа в команде по agile-методологии\n\nОжидания:\n- Не менее 4 лет коммерческой разработки\n- Уверенное владение PHP (>=7.2)\n- Опыт написания тестов\n- Знание стандартов PSR\n- Знание паттернов проектирования и принципов ООП\n- Опыт разработки API\n- Необходимы базовые навыки JavaScript, HTML, CSS, Git, Bash, SQL\n- Желание писать хороший код, проводить код ревью\n- Умение работать в команде\n\nНаш stack: PHP 7.2, Symfony 3.4, Doctrine, PHPunit 6, Behat 3, GitHub Flow, Ansible, Vagrant, Docker, Redis\n\nМы предлагаем:\n- Полностью белая зарплата;\n- У нас плавающее начало рабочего дня (10-12 утра) и иногда можно работать удаленно;\n- Для нас важно качество продукта, поэтому мы очень много работаем в течение всего года и стремимся обеспечить лучший сервис нашим клиентам. Такой интенсивный ритм сформировал у нас традицию устраивать длинные новогодние каникулы (около 3-4 недель)\nи пр.\n\nКритика, вопросы, резюме - всегда welcome!\nTelegram @ru_spiridonov","markup":[{"type":"hashtag","offset":0,"length":9,"data":"вакансия"},{"type":"hashtag","offset":10,"length":5,"data":"офис"},{"type":"hashtag","offset":16,"length":4,"data":"спб"},{"type":"hashtag","offset":21,"length":7,"data":"senior"},{"type":"bold","offset":153,"length":18,"data":""},{"type":"link","offset":179,"length":8,"data":"http://Ondoc.me"},{"type":"handle","offset":1577,"length":14,"data":"ru_spiridonov"}],"date":"2020-06-22T12:01:32+00:00","link":"tg://resolve?domain=php_jobs&post=25303","tags":[{"name":"php"},{"name":"dotnet"},{"name":"javascript"},{"name":"html"},{"name":"css"},{"name":"git"},{"name":"bash"},{"name":"sql"},{"name":"symfony"},{"name":"doctrine"},{"name":"phpunit"},{"name":"github"},{"name":"ansible"},{"name":"vagrant"},{"name":"docker"},{"name":"redis"}],"cities":[],"allowsRemote":true}},{"node":{"__typename":"Job","id":"1719664640-1001091028994","title":"Java разработчик","text":"#java #middle #москва #офис #fulltime\nJava-разработчик (CDP)\nКомпания: Эвотор\nЛокация: Москва, м. Парк Культуры\nЗп: 150 - 200К net\nКонтакты: @viktori_may, v.plotnikova@evotor.ru\n\nНаша команда занимается созданием Customer Data Platform (CDP) - система, которая идентифицирует пользователя через любой канал взаимодействия и собирает информацию о нем в одном профиле, позволяет сегментировать пользователей и коммуницировать с ними на основании сформированных правил. \n\nЗадачи:\n- Проектирование и реализация отказоустойчивых и готовых к масштабированию сервисов\n- Обширный круг задач по проектированию архитектуры и API системы\n- Участие в выборе используемых технологий\n\nКого ищем:\n• Знание основных алгоритмов и шаблонов проектирования ПО;\n• Знание фреймворков Spring Boot, Spring Cloud, Spring Cloud Stream, Kafka, Hibernate, веб-стека;\n• Знание технологий контейнеризации (Docker, Kubernetes);\n• Опыт работы c SQL и NoSQL базами данных(PostgreSQL, Aerospike, ClickHouse);\n• Опыт работы с инструментами Gradle, Git, Jira, Jenkins.\n\nСтек:\nJava12, Spring, Hibernate,Git, PostgreSQL, Kafka, Kubernetes, Docker\n\nУсловия:\n- Полностью официальная заработная плата\n- Офис в шаговой доступности от м. Парк Культуры со своей кухней и террасой\n- ДМС после прохождения испытательного срока","markup":[{"type":"hashtag","offset":0,"length":5,"data":"java"},{"type":"hashtag","offset":6,"length":7,"data":"middle"},{"type":"hashtag","offset":14,"length":7,"data":"москва"},{"type":"hashtag","offset":22,"length":5,"data":"офис"},{"type":"hashtag","offset":28,"length":9,"data":"fulltime"},{"type":"handle","offset":141,"length":12,"data":"viktori_may"},{"type":"link","offset":155,"length":22,"data":"mailto:v.plotnikova@evotor.ru"},{"type":"bold","offset":469,"length":6,"data":""},{"type":"bold","offset":671,"length":10,"data":""},{"type":"bold","offset":1034,"length":4,"data":""}],"date":"2020-06-22T11:44:13+00:00","link":"tg://resolve?domain=jvmjobs&post=1640","tags":[{"name":"java"},{"name":"jvm"},{"name":"dotnet"},{"name":"spring"},{"name":"cloud"},{"name":"kafka"},{"name":"hibernate"},{"name":"docker"},{"name":"kubernetes"},{"name":"sql"},{"name":"nosql"},{"name":"postgresql"},{"name":"gradle"},{"name":"git"},{"name":"jenkins"},{"name":"spring-boot"}],"cities":[{"code":"moscow"}],"allowsRemote":false}},{"node":{"__typename":"Job","id":"17109614592-1001110946746","title":"Js разработчик","text":"#вакансия #удаленно #fullstack #JavaScript #NodeJS #Vue #middle #senior\n\nГород: г. Москва, Сколково, б-р Большой\nФорма работы: удаленка\nЗанятость: полная\nЗарплатная вилка: от 120000 до 200000 рублей\nНазвание компании: ADMON\n\nВ связи с расширением штата, компания ADMON приглашает Middle/Senior Full-stack JavaScript-разработчиков, готовых стать полноценными членами нашей команды на удаленной основе или в Новосибирском офисе. ADMON – одна из ведущих российских компаний по предотвращению и расследованию мошенничества в сфере рекламы в Интернете и на мобильных устройствах с использованием высоких технологий. Основные направления деятельности компании: мониторинг и предотвращение мошенничества, аудит рекламных кампаний, разработка инновационных программных продуктов по мониторингу, обнаружению и предотвращению возникающих видов мошенничества.\n\nСтек технологий:\nNode.JS, Vue, GraphQl, Jest, Redis, Clickhouse, PostgreSQL, Docker.\n\nЧто используем в работе:\n    - Jira (Kanban), Confluence;\n   - Храним код в Gitlab, тут же CI/CD;\n    -Практикуем code review, политику частых релизов, гибкие методологии разработки;\n    -Мониторим состояние приложений с помощью: Zabbix, Grafana.\n\nВ задачи будет входить:\n    - Улучшать имеющийся функционал и разрабатывать новый (Система нотификаций, Обработка платежей, Алгоритмы атрибуции, Ads Crawler и т.д.);\n    - Писать тесты и рефакторить кодовую базу;\n    - Участвовать в принятии архитектурных решений;\n    - Работать как в составе команды, так и в одного над небольшими проектами;\n    - Участвовать в коммуникации с командой;\n    - Быть инициативным и предлагать свои идеи, в том числе, если это касается использования новых технологий — проводить code review.\n\nЧто мы предлагаем:\n    - Удаленная работа;\n    - Оформление по ТК РФ;\n    - Полностью белая ЗП;\n    -  График работы 5/2;\n    - Можно выбрать свой график работы;\n    - Наставничество по предметной области и на равной позиции;\n    - Возможность работать как в составе команды, так и возглавить со временем свое направление — мы готовы обсуждать любые ваши идеи. \n\n Контакты:@juliajudina2810\n Резюме можно присылать на почту: hr@resurs-hr.ru\n\n—\n\n👉 Обсуждение вакансии в чате @javascript_jobs","markup":[{"type":"hashtag","offset":0,"length":9,"data":"вакансия"},{"type":"hashtag","offset":10,"length":9,"data":"удаленно"},{"type":"hashtag","offset":20,"length":10,"data":"fullstack"},{"type":"hashtag","offset":31,"length":11,"data":"JavaScript"},{"type":"hashtag","offset":43,"length":7,"data":"NodeJS"},{"type":"hashtag","offset":51,"length":4,"data":"Vue"},{"type":"hashtag","offset":56,"length":7,"data":"middle"},{"type":"hashtag","offset":64,"length":7,"data":"senior"},{"type":"handle","offset":2091,"length":16,"data":"juliajudina2810"},{"type":"link","offset":2142,"length":15,"data":"mailto:hr@resurs-hr.ru"},{"type":"handle","offset":2192,"length":16,"data":"javascript_jobs"}],"date":"2020-06-22T11:12:30+00:00","link":"tg://resolve?domain=javascript_jobs_feed&post=16317","tags":[{"name":"javascript"},{"name":"nodejs"},{"name":"vuejs"},{"name":"graphql"},{"name":"redis"},{"name":"postgresql"},{"name":"docker"},{"name":"gitlab"}],"cities":[{"code":"moscow"}],"allowsRemote":true}},{"node":{"__typename":"Job","id":"91576336384-1001067529236","title":"Python разработчик","text":"#вакансия #москва #офис #fulltime #backed #developer #python #вакансия\n \nКомпания: MillionAgents\nГород: Москва (м. Новослободская)\nФормат работы: офис\nЗанятость: полная, гибкое начало дня, пару дней в неделю удаленно\nЗП: от 100.000 до 120.000 руб. на руки.\n \nО компании: \nНаша компания проводит маркетинговые исследования для крупных торговых сетей: собираем, обрабатываем и структурируем данные. Для этого мы разработали онлайн-платформу, с помощью которой управляем массовым персоналом по всей стране в режиме 24/7, а это сотни тысяч пользователей и десятки внутренних сервисов.\nВ проект Retail Intelligence входит:\n- Ценовой мониторинг крупных ритейлеров, работающих на территории РФ;\n- Обработка данных, связанных с товарными единицами (SKU) по фотографиям из торговых точек;\n- Розничные исследования - аналитика динамики цен, отсутствия товарного запаса (out of stock);\n- Получение и обработка данных розничной торговли из открытых источников, предоставление аналитических отчётов на основе этих данных\n\nСейчас мы в поиске  Python разработчика со знанием Django.\n \nОсновная задача: \nСоздавать и поддерживать сервисы в стеке технологий Python/Django и, в меньшей степени, Golang. Также в дальнейшем будет задача по рефактору приложения на Ruby on Rails. Взаимодействие предстоит с одним старшим разработчиком, который и будет ставить задачи. Первоначально будет строгое код-ревью.                                                                                                                                                                                                                                                      Взаимодействие: jira, git.                                                                                                                                                                                                                                                    Что нужно знать и уметь: \n- Знание одной из следующих технологий/языков программирования на уровне джун+/middle: Python/Django, Ruby/Rails;\n- Опыт работы с PostgreSQL;\n- Опыт написания интеграционных тестов;\n- Базовое знание UNIX-систем.Круто, если: \n- Есть опыт администрирования БД (создание таблиц/индексов, дамп таблиц, оптимизация);\n- Есть базовое знание JS-фреймворков, вроде Angular или React;\n- Есть базовое знание одного из следующих языков программирования: Golang, Java/Kotlin, Elixir;\n- Есть понимание работы хранилищ данных в памяти, вроде Redis;\n- Есть опыт работы с менеджерами очередей, вроде RabbitMQ или Apache Kafka;\n- Есть опыт работы с Docker и Jenkins\n                                                                                                                                                                                                                                                                                     Почему именно мы:\n-  Светлый офис с большими окнами у метро Новослободская;\n-  График 5/2, начало рабочего дня с 10:00 - 12:00 часов;\n-  Возможность работать пару дней в неделю удаленно;\n-  Никакой бюрократии;\n-  Очередь технических задач;\n-  Технически грамотное руководство;\n-  Официальное трудоустройство                                                                                                                                                                                                                                 По всем вопросам можно писать в личные сообщения @svetafeeva","markup":[{"type":"hashtag","offset":0,"length":9,"data":"вакансия"},{"type":"hashtag","offset":10,"length":7,"data":"москва"},{"type":"hashtag","offset":18,"length":5,"data":"офис"},{"type":"hashtag","offset":24,"length":9,"data":"fulltime"},{"type":"hashtag","offset":34,"length":7,"data":"backed"},{"type":"hashtag","offset":42,"length":10,"data":"developer"},{"type":"hashtag","offset":53,"length":7,"data":"python"},{"type":"hashtag","offset":61,"length":9,"data":"вакансия"},{"type":"handle","offset":3432,"length":11,"data":"svetafeeva"}],"date":"2020-06-22T10:19:47+00:00","link":"tg://resolve?domain=python_jobs&post=0","tags":[{"name":"python"},{"name":"django"},{"name":"go"},{"name":"ruby"},{"name":"ruby-on-rails"},{"name":"git"},{"name":"postgresql"},{"name":"unix"},{"name":"angularjs"},{"name":"reactjs"},{"name":"java"},{"name":"kotlin"},{"name":"elixir"},{"name":"redis"},{"name":"rabbitmq"},{"name":"apache"},{"name":"kafka"},{"name":"docker"},{"name":"jenkins"}],"cities":[{"code":"moscow"}],"allowsRemote":true}},{"node":{"__typename":"Job","id":"103423148032-1001089317451","title":"Qa инженер","text":"#вакансия #QA #Java #QAAutomation #Москва #офис \n\nВакансия: QA Lead (Тест-Менеджер)\nГород: Москва м. Технопарк \nЗарплата: от 250 000 рублей до 290 000 рублей на руки\nФормат: офис, полный день, полная занятость\nКомпания Innovative People \n\n🔝 Проект единого окна сотрудника отделения - оптимизация и автоматизация операций, которые сотрудник проводит для ЮЛ в отделении авторизуемся в приложении через SFA.\n9 модулей. Суть проекта - высадить всех сотрудников отделений в одно приложение, которое максимально автоматизирует их деятельность и избавит от необходимости использовать до 29 различных программ для проведения сервисного обслуживания клиентов в отделении.\n\n🕘 Чем предстоит заниматься:\n• планирование тестирования;\n• выстраивание процессов тестирования среди 8 команд с упором на автоматизацию;\n• выстраивать CI/CD проекта;\n• налаживание взаимодействия QA инженеров в нескольких командах;\n• поддерживать и развивать разработанные решения по автоматизации;\n• исследовать новые технологии и внедрять их на проекте;\n• принятие решений о внедрении / обновлении программного обеспечения.\n\n🕒 От кандидата ожидаем:\n• опыт в тестировании от 4х лет\n• опыт в автотестировании от 3х лет\n• опыт руководства группой тестировщиков от 2х лет\n• практический опыт применения практик тест-дизайна\n• умение проектировать тест-кейсы и подготавливать тестовые данные для тестирования\n• хорошие знание Java, библиотек\n• уверенное использование и понимание как работает под капотом Selenium Webdriver (Selenide и Appium для мобильных платформ)\n• опыт написания собственного фреймворка\n• опыт работы в unix системах\n• опыт работы с API (Soap, Rest)\n• опыт использование git\n• опыт использование CI (желательно, но не обязательно Jenkins)\n• опыт работы с Docker\n• опыт составления запросов SQL\n• опыт управления непрямыми (функциональными) подчиненными\n• умение контролировать несколько проектов одновременно\n• умение мотивировать команду, опыт управления рисками, мониторинг эффективности процессов\n\n🕧 Предлагаем:\n• все по ТК РФ\n• ДМС со стоматологией, программа лояльности\n• Macbook \n• адекватное руководство и лояльные процессы\n• большое комьюнити, классные команды\n• помогаем с релокацией!\n\nРезюме и вопросы @Priboch","markup":[{"type":"hashtag","offset":0,"length":9,"data":"вакансия"},{"type":"hashtag","offset":10,"length":3,"data":"QA"},{"type":"hashtag","offset":14,"length":5,"data":"Java"},{"type":"hashtag","offset":20,"length":13,"data":"QAAutomation"},{"type":"hashtag","offset":34,"length":7,"data":"Москва"},{"type":"hashtag","offset":42,"length":5,"data":"офис"},{"type":"handle","offset":2197,"length":8,"data":"Priboch"}],"date":"2020-06-22T10:08:51+00:00","link":"tg://resolve?domain=qa_jobs&post=98632","tags":[{"name":"qa"},{"name":"java"},{"name":"selenium"},{"name":"unix"},{"name":"soap"},{"name":"rest"},{"name":"git"},{"name":"jenkins"},{"name":"docker"},{"name":"sql"}],"cities":[{"code":"moscow"}],"allowsRemote":false}},{"node":{"__typename":"Job","id":"2235564032-1001134745498","title":"Devops инженер","text":"#вакансия #офис #Москва #DevOps #Kubernetes #фуллтайм \n \nГород и адрес офиса: Москва \nФормат работы: офис, фуллтайм\nЗанятость: полная\nЗарплатная вилка: 250-350 т.р\n\nУважаемые господа, инженеры-DevOps!\nпредстоит разворачивать кубер на голом железе.\nРазработка плейбуков Ansible для конфигурирования серверов на CentOS 7 и 8.\nРазработка манифестов для развертывания приложений в кластерах Kubernetes.\nУправление и мониторинг кластеров Kubernetes.\nНастройка CI/CD конвейеров на базе Gitlab и Nexus.\nТребования:\n\nОпыт администрирования CentOS 7 и/или RedHat Enterprise Linux 7.\nОпыт работы с Ansible, в частности - разработка плейбуков и ролей Ansible.\nОпыт работы с Docker на Linux.\nЗнание принципов построения безопасных, высокодоступных и масштабируемых приложений.\nЖелательно:\n\nОпыт управления кластером Kubernetes, написания манифестов, разворачивание приложений в кластере Kubernetes.\nОпыт использования Helm и разработки Helm charts.\nОпыт развертывания кластера Kubernetes при помощи Kubespray.\nОпыт работы с Gitlab и Gitlab CI (Runner).\nОпыт работы с Nexus Repository Manager и Gitlab Repository.\nОпыт работы со стеком Elastic (ELK или EFK) для логирования.\nОпыт работы с Prometheus и Alert Manager для мониторинга.\nОпыт работы с PostgreSQL и Patroni.\nОпыт работы с Nginx, HAProxy и Keepalived.\nОпыт работы с HashiCorp Vault.\nОпыт работы с Istio.\n\nвсе подробности в ЛС : @yusta2011\n\n—\n\n👉 Обсуждение вакансии в чате @devops_jobs","markup":[{"type":"hashtag","offset":0,"length":9,"data":"вакансия"},{"type":"hashtag","offset":10,"length":5,"data":"офис"},{"type":"hashtag","offset":16,"length":7,"data":"Москва"},{"type":"hashtag","offset":24,"length":7,"data":"DevOps"},{"type":"hashtag","offset":32,"length":11,"data":"Kubernetes"},{"type":"hashtag","offset":44,"length":9,"data":"фуллтайм"},{"type":"handle","offset":1375,"length":10,"data":"yusta2011"},{"type":"handle","offset":1420,"length":12,"data":"devops_jobs"}],"date":"2020-06-22T09:26:58+00:00","link":"tg://resolve?domain=devops_jobs_feed&post=2132","tags":[{"name":"kubernetes"},{"name":"ansible"},{"name":"centos"},{"name":"gitlab"},{"name":"linux"},{"name":"docker"},{"name":"elasticsearch"},{"name":"postgresql"},{"name":"nginx"}],"cities":[{"code":"moscow"}],"allowsRemote":false}}]}}},"context":{}}