{"hash":"f5f6bf98bd95e769321482904cbbd488f77922fd","data":{"records":{"id":"python","name":"python","belongsTo":{"totalCount":130,"pageInfo":{"totalPages":13,"currentPage":10},"edges":[{"node":{"__typename":"Job","id":"91179974656-1001067529236","title":"Python разработчик","text":"#job #вакансия  #dataengineer #remote\n\nВсем привет! Мы - PeakData AG ищем Data Engineer.\n\nPosition: Data Engineer\nCompany: Peakdata (http://peakdata.ch/)\nLocation: remote.\nSalary range in USD: 2,500 - 3,200 USD/month (gross)\nSalary range in RUB: 180 000 – 230 000 Rub/month (na ruki)\nContact: mfeldman@peakdata.ch\n\nWe are young and ambitious startup in the field of AI and Data Science looking for a  join our team. We are active in the area of web mining and Language Processing. Are you up for the challenge? \n\nResponsibilities: \n • Be able to process and integrate disparate data from different data sources\n • Be able to think with creativity, propose and lead development of data crunching software modules (mostly text analysis. NLP big plus)\n • Be able to work with version control system (Git)\n • Be able to understand software architecture and the existing workflow\n • Be able to clearly communicate in English\n • Be able to work independently in the remote work setting\n • Be able to overlap with our business hours for a great collaboration. \n\nRequirements:\n • At least 1 year of professional experience in data engineering/machine learning\n • Experienced in the relevant Python and its libraries; Especially appreciated is the knowledge of the following libraries: pandas, request, beatifulsoup, lxml, scrappy, selenium, joblib\n • Experience with backend development in Python - BIG PLUS\n • Bachelor degree in computer science –PLUS\n • Good knowledge of Docker - PLUS\n • Good documentation skills\n • Good written and spoken English\n • Strong sense of ownership and responsibility for code quality that follows best practices\n • Strong coding, problem-solving, and debugging skills\n • Awesome communication, collaboration, and self-management skills. \n\nWhat we offer:\n • Very interesting and innovative data product which includes real-world web data at scale (Tera to Petabytes)\n • Competitive salary\n • Highly professional and innovative team (most of our team members have either Masters or PhD)\n • Flexible work environment with opportunity to work remotely at  pajamas from your kitchen and still be part of interesting and innovative project 🙂 If you feel like you might be a good fit please drop us a message at mfeldman@peakdata.ch","markup":[{"type":"hashtag","offset":0,"length":4,"data":"job"},{"type":"hashtag","offset":5,"length":9,"data":"вакансия"},{"type":"hashtag","offset":16,"length":13,"data":"dataengineer"},{"type":"hashtag","offset":30,"length":7,"data":"remote"},{"type":"link","offset":133,"length":19,"data":"http://peakdata.ch/"},{"type":"link","offset":293,"length":20,"data":"mailto:mfeldman@peakdata.ch"},{"type":"link","offset":2231,"length":20,"data":"mailto:mfeldman@peakdata.ch"}],"date":"2020-06-18T08:10:06+00:00","link":"tg://resolve?domain=python_jobs&post=0","tags":[{"name":"python"},{"name":"web"},{"name":"nlp"},{"name":"git"},{"name":"pandas"},{"name":"selenium"},{"name":"docker"},{"name":"machine-learning"}],"cities":[],"allowsRemote":true}},{"node":{"__typename":"Job","id":"71542243328-1001054966032","title":"Ios разработчик","text":"#вакансия #москва #офис #senior #ios #developer #gamedev #swift \nГород и адрес офиса: Москва, м.Автозаводская \nФормат работы: офис \nЗанятость: полная \nЗарплатная вилка: от 250 000 до 300 000 на руки \n\n\n✅ Senior iOS Developer \n\nОписание вакансии: \n\nМы - успешная команда из 120 человек, которая занимается: \n• разработкой собственных мобильных игр и приложений \n• паблишингом мобильных игр \n• рекламой и маркетингом мобильных приложений (реклама на Facebook, Google и т.д.) \nЗа последние 3 года мы привлекли более 100 млн пользователей в наши собственные мобильные приложения и приложения наших клиентов и партнеров, потратив на это более $80 млн. \n\nУ нас есть все составляющие чтобы делать готовые продукты известными и популярными. Мы ищем сильного и талантливого разработчика для усиления нашей текущей слаженно работающей команды и выведения нашего Fitness & Health iOS приложения Fitingo на лидирующие позиции в мире (уже сейчас приложение занимало позиции ТОП 13 в США и ТОП 6 в Великобритании с более чем 400,000 установок и более чем 45,000 совершенных покупок).\n\n✅Задачи: \n\n•  Разрабатывать новый функционал\n•  Рефакторить и оптимизировать код\n•  Писать код. Больше логики, меньше UI. Например - хранить историю и прогресс; сделать leaderboard по странам; добавить чат, аналитику и a/b тесты; Apple Health, Watch, Music и TV\n•  Участвовать в Code Review\n\nТекущий стек: Swift 5.1, MVPC, AVFoundation, UserNotifications, Realm, StoreKit, Firebase, PushWoosh, Facebook, Python.\n\n✅Требования: \n\n•  Опыт работы разработчиком iOS приложений от 3х лет\n•  Отличное знание Swift\n•  Уверенное знание SOLID и паттернов проектирования\n•  Умение профилировать приложение (Батарейка, утечки и вот это все)\n•  Опыт работы с системой контроля версий\n•  Наличие выпущенных проектов на Swift\n•  Желание делать красивые, интересные и популярные приложения\n\n✅Будет плюсом: \n\n•  Умение/желание писать небольшие серверные скрипты (например на Python)\n•  Умение автоматизировать рутинные процессы\n•  Умение рефакторить код итеративно\n•  Адекватный перфекционизм\n\n\n✅Для вас: \n\n•  Конкурентная заработная плата, выплачивается 2 раза в месяц\n•  Необходимое оборудование для работы\n•  Возможность набрать команду и выстроить всю работу под себя в краткосрочной перспективе\n•  Оформление по ТК РФ, оплачиваемые больничные, 28 дней оплачиваемого отпуска в год\n•  Возможны регулярные бонусы по результатам работы проектов\n•  Собеседование с лицом принимающим решение\n•  Возможность коммуницировать с людьми, которые принимают продуктовые решения\n\n✅О нас: \n\n•  Просторный офис 600 метров на м. Автозаводская (3 минуты от метро и от ТТК на машине) с ультра современным дизайном и кучей ништяков (кухня с вкусняшками, кальяны каждый вечер в дружной кампании, PS4 Pro + 4K TV, аркадные автоматы с Pac-Man, Metal Slug и другими хитами геймдизайна, просторная зона отдыха, 5 переговорных комнат и т д)\n•  Команда из 100 человек занимающаяся паблишингом и маркетингом, готовая сделать продукт успешным после его готовности\n•  Возможность обучаться английскому языку с носителями каждый будний день по утрам\n•  Менторы и инвесторы, создавшие большое количество успешных IT компаний (оборот в 2018 году более 140 млн долларов)\n\nНазвание компании: AppQuantum \n\nКонтакты: \ne-mail: vika@adquantum.com\ntelegram: @wikki13","markup":[{"type":"hashtag","offset":0,"length":9,"data":"вакансия"},{"type":"hashtag","offset":10,"length":7,"data":"москва"},{"type":"hashtag","offset":18,"length":5,"data":"офис"},{"type":"hashtag","offset":24,"length":7,"data":"senior"},{"type":"hashtag","offset":32,"length":4,"data":"ios"},{"type":"hashtag","offset":37,"length":10,"data":"developer"},{"type":"hashtag","offset":48,"length":8,"data":"gamedev"},{"type":"hashtag","offset":57,"length":6,"data":"swift"},{"type":"link","offset":3248,"length":18,"data":"mailto:vika@adquantum.com"},{"type":"handle","offset":3277,"length":8,"data":"wikki13"}],"date":"2020-06-18T07:34:45+00:00","link":"tg://resolve?domain=mobile_jobs&post=0","tags":[{"name":"mobile"},{"name":"ios"},{"name":"swift"},{"name":"realm"},{"name":"firebase"},{"name":"python"}],"cities":[{"code":"moscow"}],"allowsRemote":false}},{"node":{"__typename":"Job","id":"91154808832-1001067529236","title":"Python разработчик","text":"#вакансия #python #django #middle #senior #фултайм #Кипр #remote                                                                                                                                                                         Компания: Exness\nФормат работы: удаленная или релокация на Кипр (по желанию кандидата)\nЗанятость: полная\nЗарплатная вилка: от 3000 EUR (обсуждаем с кандидатами по итогам интервью)                                                                               \n🌟Кто мы?\nМы финтех компания, разрабатывающая B2B и B2C решения, с более чем 100 тысячами активных клиентов. Мы развиваемся и быстро движемся, ориентируясь на данные, мы всегда узнаем что-то новое о наших клиентах и находим новые способы сделать наш продукт более полезным и удобным для них. У нас есть 3 офиса: на Кипре, в Малайзии и Великобритании, более 600 сотрудников и 50 национальностей среди сотрудников.\n\n🤩Кого мы ищем?\nК нам в команду Identity & Access Management (IAM) нужен инженер, любящий backend, имеющий опыт разработки на Python и стремящийся к простым решениям сложных задач. Будет классно, наличие опыта построения микросервисной архитектуры, знание SQL, любовь к написанию unit тестов. \n\n🤗Чем предстоит заниматься?\nРазрабатывать новые и поддерживать старые сервисы, связанные с аутентификацией, авторизацией, верификацией и процедурами KYC. Участвовать в код ревью и командных активностях. Покрывать свой код unit тестами. \n\n🛠Наш стек технологий:\n -Python 3.x\n -Django, FastAPI, aiohttp\n -PostgreSQL, Redis\n -Kafka\n -Docker, Kubernetes, Rancher\n\n🔥Мы предлагаем:\nПри удаленном сотрудничестве:\n-Медицинское страхование для сотрудника и членов их семей;\n-Компенсация спорта;\n-Путешествие на Кипр, чтобы познакомиться со своей командой (раз в год).\nПри желании релокации на Кипр:\n-Релокационный пакет для нового сотрудника и его семьи (билеты, визы, разрешение на работу, корпоративная квартира на первый месяц и т. д.);\n-Корпоративный автомобиль Мини Купер S и парковка возле офиса или автобусные билеты;\n-Медицинское страхование для сотрудника и членов их семей;\n-Корпоративный фитнес-центр для сотрудников и их супругов;\n-Программа компенсации детского сада / школы;\n-Непрерывное профессиональное развитие, много интересных задач;\n-Отличный офис со свежевыжатыми соками, печеньем и лучшим видом на море из нашего собственного бара на крыше. \n\nНемного больше об Exness - https://clck.ru/N7aRd.\n\nЕсли тебе интересно, пишите в Telegram @sofia_tomashevich или на почту sofia.tomashevich@exness.com","markup":[{"type":"hashtag","offset":0,"length":9,"data":"вакансия"},{"type":"hashtag","offset":10,"length":7,"data":"python"},{"type":"hashtag","offset":18,"length":7,"data":"django"},{"type":"hashtag","offset":26,"length":7,"data":"middle"},{"type":"hashtag","offset":34,"length":7,"data":"senior"},{"type":"hashtag","offset":42,"length":8,"data":"фултайм"},{"type":"hashtag","offset":51,"length":5,"data":"Кипр"},{"type":"hashtag","offset":57,"length":7,"data":"remote"},{"type":"link","offset":2385,"length":21,"data":"https://clck.ru/N7aRd"},{"type":"handle","offset":2448,"length":18,"data":"sofia_tomashevich"},{"type":"link","offset":2480,"length":28,"data":"mailto:sofia.tomashevich@exness.com"}],"date":"2020-06-18T06:16:03+00:00","link":"tg://resolve?domain=python_jobs&post=0","tags":[{"name":"python"},{"name":"django"},{"name":"ms-access"},{"name":"sql"},{"name":"postgresql"},{"name":"redis"},{"name":"kafka"},{"name":"docker"},{"name":"kubernetes"}],"cities":[{"code":"sofia"}],"allowsRemote":true}},{"node":{"__typename":"Job","id":"17029922816-1001110946746","title":"Js разработчик","text":"#вакансия #frontend #javascript #react  #senior #remote #удаленка\nКомпания: Maxiru\nЛокация: anywhere/fully remote\nФормат работы: удаленка\nЗанятость: Полная\nГрафик: гибкий (с захватом дня по NY time)\nЗ/п вилка: $2,400-$2,900\nКонтакт: @elenamat\n\nТребуется помощь со стороны React.js в нашем новом проекте - приложения для отдыхающих на круизном судне. \nКлиент: Virgin Voyages.\n\nЗагрузка Фул Тайм. Работа частично по дневному графику EST.\n\nНесколько фактов о вас:\n- вы прекрасно знаете JavaScript (5 лет опыта) и уже активно используете в своих проектах возможности ES6;\n- у вас есть хороший опыт работы с React или Vue. Вы уже знаете, когда следует использовать Redux, и знаете, когда его использованием лучше пренебречь;\n- будет плюсом, если имеете опыт работы с React native\n- у вас неплохой разговорный и письменный английский;\n- вы способны самостоятельно принимать архитектурные решения и работать без внешнего контроля;\n- вы достаточно дисциплинированы для эффективной удаленной работы.\n- вы не боитесь брать на себя ответственность за свою работу и работу своих младших коллег.\n\nНесколько фактов о нас:\n- мы небольшая IT компания, расположенная на юге США, работаем уже более 6 лет;\n-  нашим фокусом является cruise industry technology, apps ranging from IOT to Algorithms and 3D simulations;\n- среди наших клиентов есть как огромные корпорации вроде Virgin Voyages, так и небольшие стартапы;\n- сейчас наша команда состоит из 46 человек, проживающих в 39 разных городах мира;\n- наш основной технологический стек выглядит следующим образом: Python, React, Redux, ES6, Webpack, SASS, Jenkins, Docker, Kubernetes, Google Cloud, Unreal engine;\n- работы у нас имеется много, хватит на годы вперед.\n\nЕсли вас заинтересовала наша вакансия, заполните, пожалуйста, анкету: https://forms.gle/ssxr69BwJwEDQ89h6 и мы свяжемся в течении 24-48 часов.\n\n—\n\n👉 Обсуждение вакансии в чате @javascript_jobs","markup":[{"type":"hashtag","offset":0,"length":9,"data":"вакансия"},{"type":"hashtag","offset":10,"length":9,"data":"frontend"},{"type":"hashtag","offset":20,"length":11,"data":"javascript"},{"type":"hashtag","offset":32,"length":6,"data":"react"},{"type":"hashtag","offset":40,"length":7,"data":"senior"},{"type":"hashtag","offset":48,"length":7,"data":"remote"},{"type":"hashtag","offset":56,"length":9,"data":"удаленка"},{"type":"handle","offset":233,"length":9,"data":"elenamat"},{"type":"link","offset":1769,"length":35,"data":"https://forms.gle/ssxr69BwJwEDQ89h6"},{"type":"handle","offset":1876,"length":16,"data":"javascript_jobs"}],"date":"2020-06-17T21:23:01+00:00","link":"tg://resolve?domain=javascript_jobs_feed&post=0","tags":[{"name":"javascript"},{"name":"reactjs"},{"name":"vuejs"},{"name":"redux"},{"name":"python"},{"name":"webpack"},{"name":"sass"},{"name":"jenkins"},{"name":"docker"},{"name":"kubernetes"},{"name":"cloud"},{"name":"react-native"},{"name":"react-redux"},{"name":"google-cloud-platform"}],"cities":[],"allowsRemote":true}},{"node":{"__typename":"Job","id":"91050999808-1001067529236","title":"Python разработчик","text":"#fullstack_dev #вакансия #удаленка #Python \n\nПривет! Меня зовут Виолетта, ищу Python разработчика в компанию SIMKOMAT.\n\nМесто работы: удаленка \nРабочий день: полный рабочий день\nТвои умения: \nPython, asyncio, flask\nОпыт программирования многопоточных приложений;\nЗнание операционной системы Linux;\nЗнание Docker/Docker-compose\nУмение работы с системой контроля версий Git, gitlab, CI/CD\nОпыт работы с базами данных Mongodb, PostgreSQL или MySQL\nПонимание принципов виртуализации;\nОпыт администрирования ОС семейства Linux, localhost, умение работать с ssh\nМы общаемся в: Trello, Atlassian, Telegram, Viber, GitLab Issues\nО компании: создаем программные аппараты для выдачи сим-карт без участия человека. В основном сотрудничаем с иностраннными компаниями. Нашему коллективу кажется, что мы веселые и приятные люди. \nОткликаться на вакансию: пиши мне в телеграм @violker или на почту yo@simkomat.com\n\nЗа внимание спасибо. Сайт SIMKOMAT - тебе. https://simkomat.com/ru/","markup":[{"type":"hashtag","offset":0,"length":14,"data":"fullstack_dev"},{"type":"hashtag","offset":15,"length":9,"data":"вакансия"},{"type":"hashtag","offset":25,"length":9,"data":"удаленка"},{"type":"hashtag","offset":35,"length":7,"data":"Python"},{"type":"bold","offset":120,"length":13,"data":""},{"type":"bold","offset":144,"length":13,"data":""},{"type":"bold","offset":178,"length":14,"data":""},{"type":"bold","offset":556,"length":15,"data":""},{"type":"bold","offset":621,"length":11,"data":""},{"type":"bold","offset":816,"length":24,"data":""},{"type":"handle","offset":861,"length":8,"data":"violker"},{"type":"link","offset":883,"length":15,"data":"mailto:yo@simkomat.com"},{"type":"link","offset":943,"length":24,"data":"https://simkomat.com/ru/"},{"type":"bold","offset":943,"length":24,"data":""}],"date":"2020-06-17T14:10:22+00:00","link":"tg://resolve?domain=python_jobs&post=0","tags":[{"name":"python"},{"name":"flask"},{"name":"linux"},{"name":"docker"},{"name":"git"},{"name":"gitlab"},{"name":"mongodb"},{"name":"postgresql"},{"name":"mysql"},{"name":"ssh"},{"name":"docker-compose"}],"cities":[],"allowsRemote":true}},{"node":{"__typename":"Job","id":"91048902656-1001067529236","title":"Python разработчик","text":"#вакансия #python #django #middle #senior #фултайм #москва #remote\n\nКомпания: РБК\nГород: Москва\nУсловия: фуллтайм удаленка/офис, м. Калужская\nдо 200000 руб.+ДМС, скидки на англ.яз. и фитнес\n\nВ команду медиахолдинга РБК  ищем Python-разработчика в проект «РБК Pro»: платформа с платным бизнес-контентом по подписке и миллионной аудиторией.\n\nПри работе над продуктом предстоит решать множество интересных технических и архитектурных задач: обеспечивать устойчивость системы к высоким нагрузкам, полностью персонализировать представление данных для каждого пользователя, реализовывать гибкую модель тарификации и подписок.\n\nВ работе используем следующие инструменты: Python3, Django REST Framework (DRF), Aiohttp, кластеры Postgresql, Elasticsearch. Деплоим в кластер Kubernetes \n\nНаши пожелания:\n- опыт разработки приложений на Python3 от 2-х лет\n- уверенное знание фреймворка Django\n- опыт разработки на aiohttp;\n\nДетали можно посмотреть тут \ncall/text me: @marie_clair","markup":[{"type":"hashtag","offset":0,"length":9,"data":"вакансия"},{"type":"hashtag","offset":10,"length":7,"data":"python"},{"type":"hashtag","offset":18,"length":7,"data":"django"},{"type":"hashtag","offset":26,"length":7,"data":"middle"},{"type":"hashtag","offset":34,"length":7,"data":"senior"},{"type":"hashtag","offset":42,"length":8,"data":"фултайм"},{"type":"hashtag","offset":51,"length":7,"data":"москва"},{"type":"hashtag","offset":59,"length":7,"data":"remote"},{"type":"link","offset":937,"length":3,"data":"https://hh.ru/vacancy/36806782"},{"type":"handle","offset":956,"length":12,"data":"marie_clair"}],"date":"2020-06-17T14:00:30+00:00","link":"tg://resolve?domain=python_jobs&post=0","tags":[{"name":"python"},{"name":"django"},{"name":"rest"},{"name":"postgresql"},{"name":"elasticsearch"},{"name":"kubernetes"}],"cities":[{"code":"moscow"}],"allowsRemote":true}},{"node":{"__typename":"Job","id":"103049854976-1001089317451","title":"Qa инженер","text":"#вакансия  #qa #senior #remote #удаленно #fulltime #blockchain \n\nСрочно ищем Инженера по тестированию смарт контрактов \n\nФормат работы: #удаленка\nЗанятость: #полная\nОпыт: 5+лет\nЗарплатная вилка: $2000-$4000\n\nTON Labs - независимая международная IT-компания, которая занимается  разработкой решений на основе блокчейн-платформы TON, с командой из более 50 разработчиков, инженеров и профессионалов со всего мира.  Проект реализуется с нуля.\n\nIn a blockchain environment, a single mistake could cost you all of your funds — or, even worse, your users' funds. Testing of smart contracts according to the specification is a task of paramount importance.\n\nResponsibilities\n    Lead the efforts around shipping quality product\n    Work with smart contract specification authors to assess specification feasibility   \n    Develop test scenarios according to smart contract specification\n    Create, develop and manage a unified expandable test automation framework \n    Create automated tests for existing and new smart contracts\n    Develop test plans and perform multiple types of testing including functional, system, end to end, load, performance, data integrity, smoke, regression, and ad hoc\n    Submit comprehensive defects using our bug tracking system\n    Regress and verify defects as needed, record test results, and provide metrics\n    Lead and implement plans for improving testing and release processes\n\nJob requirements:\n    3+ years of experience in Software Engineering, Test, or Deployment\n    Good understanding of an asynchronous messaging model\n    Some experience with Python/Unix shell scripting\n    Strong analytical skills to work with developers for troubleshooting and peer review\n    Effective written and verbal communication skills\n\nThe following qualifications are a plus:\n    Understanding of basic principles and concepts of the TON Blockchain is a strong advantage\n    BS degree or equivalent work experience in Computer Science or related field\n    Experience with testing of asynchronous systems is an advantage\n    Experience with Scrum and other Agile methodologies\n\nНазвание компании: Ton Labs\nКонтакты: @Marina0733\nДля резюме: marina.k@tonlabs.io","markup":[{"type":"hashtag","offset":0,"length":9,"data":"вакансия"},{"type":"hashtag","offset":11,"length":3,"data":"qa"},{"type":"hashtag","offset":15,"length":7,"data":"senior"},{"type":"hashtag","offset":23,"length":7,"data":"remote"},{"type":"hashtag","offset":31,"length":9,"data":"удаленно"},{"type":"hashtag","offset":41,"length":9,"data":"fulltime"},{"type":"hashtag","offset":51,"length":11,"data":"blockchain"},{"type":"hashtag","offset":136,"length":9,"data":"удаленка"},{"type":"hashtag","offset":157,"length":7,"data":"полная"},{"type":"handle","offset":2136,"length":11,"data":"Marina0733"},{"type":"link","offset":2160,"length":19,"data":"mailto:marina.k@tonlabs.io"}],"date":"2020-06-17T11:02:39+00:00","link":"tg://resolve?domain=qa_jobs&post=0","tags":[{"name":"qa"},{"name":"deployment"},{"name":"python"},{"name":"unix"},{"name":"shell"}],"cities":[],"allowsRemote":true}},{"node":{"__typename":"Job","id":"103043563520-1001089317451","title":"Qa engineer","text":"#СПб #СанктПетербург #вакансия #QA #fulltime #office #automation\n🏙Компания: Actimind\n📣Вакансия: QA Automation Engineer\n🌎Проект: Evernote – один из самых популярных сервисов для заметок и для предоставления единой рабочей среды.\n💰Зп: до 130 000 net\n\n🇺🇸В составе распределенной международной команды предстоит: \n🔸Разрабатывать и поддерживать автотесты на Java;\n🔸Оптимизировать Performance; \n🔸Поддерживать и развивать существующий фреймворк;\n🔸Предлагать улучшения в процессе тестирования;\n🔸Иногда тестировать вручную (не более 10% времени).\nИспользуемый стек: Java , JBehave, Selenium, немного python\n\nMust have:\n🔸Опыт автоматизации на Java, Selenium и знание ООП\n🔸Английский для работы с документацией и участия в общих митингах (intermediate)\n🔸Приветствуется владение Python, JBehave.\n\nУсловия:\n📚Возможность участвовать в обучающих конференциях от Evernote;\n🎓Экспертная команда;\n💎Спорт, медицинские компенсации, оплата обучений\nОфис рядом с м. Старая Деревня\n\nПишите в телеграм: @actimind_jobs, на почту ksenia.dryukova@actimind.com\nИли звоните +7(921)1847150","markup":[{"type":"hashtag","offset":0,"length":4,"data":"СПб"},{"type":"hashtag","offset":5,"length":15,"data":"СанктПетербург"},{"type":"hashtag","offset":21,"length":9,"data":"вакансия"},{"type":"hashtag","offset":31,"length":3,"data":"QA"},{"type":"hashtag","offset":35,"length":9,"data":"fulltime"},{"type":"hashtag","offset":45,"length":7,"data":"office"},{"type":"hashtag","offset":53,"length":11,"data":"automation"},{"type":"bold","offset":610,"length":11,"data":""},{"type":"bold","offset":799,"length":9,"data":""},{"type":"handle","offset":995,"length":14,"data":"actimind_jobs"},{"type":"link","offset":1020,"length":28,"data":"mailto:ksenia.dryukova@actimind.com"},{"type":"link","offset":1061,"length":14,"data":"tel:+7(921)1847150"}],"date":"2020-06-17T10:37:11+00:00","link":"tg://resolve?domain=qa_jobs&post=0","tags":[{"name":"qa"},{"name":"dotnet"},{"name":"java"},{"name":"selenium"},{"name":"python"}],"cities":[],"allowsRemote":false}},{"node":{"__typename":"Job","id":"103042514944-1001089317451","title":"Qa engineer","text":"#вакансия #Москва #офис\nДолжность: QA automation engineer\nКомпания: Открытая мобильная платформа\nГород: Москва, м.Парк Победы\nЗП: до 160к\nСтек: Python, Pytest, requests + cattrs, selenium\n\nУсловия:\n•ЗП до 160 000 гросс (в зависимости от ваших тех скиллов)\n•Участие в конференциях\n•ДМС\n•Гибкое начало рабочего дня \n\nЗадачи:\n•Разработка автоматизированных тестов (web + api), стремимся к 100% покрытию автотестами  (не unit)\n•Участие в развитии тестового framework'а\n•Командная работа с разработчиками и аналитиками (Scrum Dev Team)\n\nРассмотрим кандидатов с опытом в QA automation (Python) от полугода\n\nРезюме можно направить сюда: @Rita_RS \nили на почту: m.sinelnikova@getit.agency","markup":[{"type":"hashtag","offset":0,"length":9,"data":"вакансия"},{"type":"hashtag","offset":10,"length":7,"data":"Москва"},{"type":"hashtag","offset":18,"length":5,"data":"офис"},{"type":"bold","offset":35,"length":23,"data":""},{"type":"bold","offset":133,"length":5,"data":""},{"type":"bold","offset":189,"length":9,"data":""},{"type":"bold","offset":315,"length":8,"data":""},{"type":"bold","offset":565,"length":13,"data":""},{"type":"bold","offset":601,"length":6,"data":""},{"type":"handle","offset":630,"length":8,"data":"Rita_RS"},{"type":"link","offset":654,"length":26,"data":"mailto:m.sinelnikova@getit.agency"}],"date":"2020-06-17T10:28:06+00:00","link":"tg://resolve?domain=qa_jobs&post=0","tags":[{"name":"qa"},{"name":"python"},{"name":"selenium"},{"name":"web"}],"cities":[{"code":"moscow"}],"allowsRemote":false}},{"node":{"__typename":"Job","id":"91047854080-1001067529236","title":"Python разработчик","text":"#вакансия #удаленка #remote #системныйаналитик \nВсем привет!\nВакансия: Python developer\nФормат работы: УДАЛЕННО\nЗАнятость: полная, гибкое начало дня\nЗаработная плата: до 120.000 на руки\n\n👾 Компания АК Барс Цифровые технологии находится в поиске Python разработчика на удаленный формат работы. Это современная продуктовая компания и команда крутых профессионалов, которые разрабатывают новейшие продукты в финтех индустрии. Сейчас они работают над совершенно новым масштабным проектом, основной задачей которого является трансформация архитектуры розничного бизнеса - продукта, которым пользуются абсолютно все. В компании чистый Agile - гибкие подходы и процессы, максимум свободы и инициативности. \n\n✅Требования: \nКоманды ищут специалиста с коммерческим опытом разработки на Python от 1,5 лет.\nОт вас ожидается отличное знание Python, SQL, Git и REST.\n\n🚀В свою очередь ребята предлагают отличные условия:\n🔹Официальное оформление, полностью белую З/П\n🔹Льготные условия кредитования\n🔹Молодой и дружный коллектив, гибкий график работы, комфортная и позитивная атмосфера \n🔹Участие в уникальных инновационных  проектах в команде настоящих профессионалов\n\n✅Контакты:\nLucky Hunter\nE-mail: maria.yurkanskaya@luckyhunter.io\nTelegram: @mashaselina\n\nПишите, буду рада рассказать подробнее о вакансии и ответить на вопросы😊","markup":[{"type":"hashtag","offset":0,"length":9,"data":"вакансия"},{"type":"hashtag","offset":10,"length":9,"data":"удаленка"},{"type":"hashtag","offset":20,"length":7,"data":"remote"},{"type":"hashtag","offset":28,"length":18,"data":"системныйаналитик"},{"type":"link","offset":1189,"length":32,"data":"mailto:maria.yurkanskaya@luckyhunter.io"},{"type":"handle","offset":1232,"length":12,"data":"mashaselina"}],"date":"2020-06-17T10:18:56+00:00","link":"tg://resolve?domain=python_jobs&post=0","tags":[{"name":"python"},{"name":"sql"},{"name":"git"},{"name":"rest"}],"cities":[],"allowsRemote":true}}]}}},"context":{}}