{"hash":"f5f6bf98bd95e769321482904cbbd488f77922fd","data":{"records":{"id":"web","name":"web","belongsTo":{"totalCount":155,"pageInfo":{"totalPages":16,"currentPage":16},"edges":[{"node":{"__typename":"Job","id":"26285703168-1001075660570","title":"Php разработчик","text":"#вакансия #vacancy #fulltime #remote #fullstack #senior #middle\n\nПозиция: PHP Developer (Full-Stack)\nКомпания: SO Services Ltd\nФормат работы: удаленная работа\nЗанятость: полная\nОплата: от 2500 до 4000 USD в месяц\nКонтакт: Марк, @mark_soservices\n\nДобрый день! Мы ищем PHP разработчика для нашего клиента из США. Требуется разговорный английский. Оформление контракта через ИП - с этим проконсультируем.\n\nWhat will you do?\nWe are looking for a Software Engineer (Full Stack) who will have a voice in our product with the desire to mentor, motivate, and deliver exceptional code. \nYou will work on projects that will allow you to wear many hats and flex both technical development and collaborative, communication skills. Your main responsibility will be the development and implementation of web applications to create a process for innovation.\n\nResponsibilities\n- Collaborate with Product teams to implement robust, high performance, data-driven web applications\n- Architect web applications from the ground up, with a focus on extensibility and scalability\n- Provide insight into upgrading legacy platforms to the latest and relevant technologies\n- Solve complex problems with innovative and elegant design and delivery\n- Develop and maintain internal components and libraries\n- Integrate third party technologies\n- Enforce coding standards and set a high standard for code quality\n- Mentor and guide junior engineers\n- Participate in hiring process of new engineers\n\nRequirements\n- 6+ years professional experience building front and back-end web applications\n- Solid understanding of web standards, CSS-based design, cross-browser compatibility\n- Expert knowledge of PHP frameworks (Yii preferred)\n- Expert knowledge of SQL\n- Expert knowledge of modern Javascript frameworks (React preferred)\n- Experience with Git\n- Knowledgeable with software development lifecycles (Agile, Kanban, etc.)\n- Familiar with test driven development processes\n- Strong technical programming skills utilizing a variety of different coding languages and tools\n- Comfortable with taking ownership of projects and showcasing key accomplishments\n- Striving for continued learning opportunities to build upon craft\n- Excellent organisational skills and attention to detail\n- Ability to work quickly and independently with minimal oversight\n- Ability to accept feedback and constructive criticism positively\n- Extremely strong and demonstrable work ethic\n\nTechnology Stack\n- PHP, Yii, Apache\n- MySQL, MS SQL, Solr, Elastic Search\n- CSS and Sass\n- React, Marionette.js, Backbone\n- Git","markup":[{"type":"hashtag","offset":0,"length":9,"data":"вакансия"},{"type":"hashtag","offset":10,"length":8,"data":"vacancy"},{"type":"hashtag","offset":19,"length":9,"data":"fulltime"},{"type":"hashtag","offset":29,"length":7,"data":"remote"},{"type":"hashtag","offset":37,"length":10,"data":"fullstack"},{"type":"hashtag","offset":48,"length":7,"data":"senior"},{"type":"hashtag","offset":56,"length":7,"data":"middle"},{"type":"handle","offset":228,"length":16,"data":"mark_soservices"},{"type":"bold","offset":403,"length":17,"data":""},{"type":"bold","offset":844,"length":16,"data":""},{"type":"bold","offset":1468,"length":12,"data":""},{"type":"bold","offset":2431,"length":16,"data":""}],"date":"2020-06-13T13:31:17+00:00","link":"tg://resolve?domain=php_jobs&post=0","tags":[{"name":"php"},{"name":"web"},{"name":"css"},{"name":"yii"},{"name":"sql"},{"name":"javascript"},{"name":"reactjs"},{"name":"git"},{"name":"apache"},{"name":"mysql"},{"name":"solr"},{"name":"elasticsearch"},{"name":"sass"},{"name":"backbonejs"},{"name":"cross-browser"}],"cities":[],"allowsRemote":true}},{"node":{"__typename":"Job","id":"16874733568-1001110946746","title":"Javascript developer","text":"#вакансия #angular #javascript #html #css #frontend #офис\n\n🍴Вакансия: Middle Frontend Developer в web-компанию под задачи разработки для социальных сетей, авиакомпаний, ERP-систем, а также ресторанной сети Нью-Йорка.\nГород: Ростов-на-Дону, Газетный переулок, 47Б\nФормат работы: Офис\nЗанятость: полная\nГражданство: Не имеет значение\nЗарплата: 60.000-100.000 рублей по результатам собеседования\n\n🏹Fronted Developer (Angular)\nТочное попадание, если:\n• Адаптивно верстаешь в angular (7 или 8 версия)\n• Имеешь в стеке ещё JavaScript, TypeScript, HTML, CSS\n• Полный фарш, если ты в курсе про автоматическую генерация клиентского кода по документации Swagger\n\nКомпания: GrowApp Solutions\n\n☎️Контакты:\ntelegram: @np_shirinkin\nEmail: npshirinkin@gmail.com\nБуду рад ответить на уточняющие вопросы.\n\n—\n\n👉 Обсуждение вакансии в чате @javascript_jobs","markup":[{"type":"hashtag","offset":0,"length":9,"data":"вакансия"},{"type":"hashtag","offset":10,"length":8,"data":"angular"},{"type":"hashtag","offset":19,"length":11,"data":"javascript"},{"type":"hashtag","offset":31,"length":5,"data":"html"},{"type":"hashtag","offset":37,"length":4,"data":"css"},{"type":"hashtag","offset":42,"length":9,"data":"frontend"},{"type":"hashtag","offset":52,"length":5,"data":"офис"},{"type":"handle","offset":706,"length":13,"data":"np_shirinkin"},{"type":"link","offset":727,"length":21,"data":"mailto:npshirinkin@gmail.com"},{"type":"handle","offset":824,"length":16,"data":"javascript_jobs"}],"date":"2020-06-13T08:42:17+00:00","link":"tg://resolve?domain=javascript_jobs_feed&post=16093","tags":[{"name":"javascript"},{"name":"angularjs"},{"name":"html"},{"name":"css"},{"name":"web"},{"name":"typescript"},{"name":"swagger"}],"cities":[{"code":"rostov"}],"allowsRemote":false}},{"node":{"__typename":"Job","id":"16871587840-1001110946746","title":"Javascript developer","text":"#вакансия #angular #javascript #html #css #frontend #офис\n\n🍴Вакансия: Middle Frontend Developer в web-компанию под задачи разработки для социальных сетей, авиакомпаний, ERP-систем, а также ресторанной сети Нью-Йорка.\nГород: Ростов-на-Дону, Газетный переулок, 47Б\nФормат работы: Офис\nЗанятость: полная\nГражданство: Не имеет значение\nЗарплата: 60.000-100.000 рублей по результатам собеседования\n\n🏹Fronted Developer (Angular)\nТочное попадание, если:\n• Адаптивно верстаешь в angular (7 или 8 версия)\n• Имеешь в стеке ещё JavaScript, TypeScript, HTML, CSS\n• Полный фарш, если ты в курсе про автоматическую генерация клиентского кода по документации Swagger\n\nКомпания: GrowApp Solutions\n\n☎️Контакты:\ntelegram: @np_shirinkin\nEmail: npshirinkin@gmail.com\nБуду рад ответить на уточняющие вопросы.\n\n—\n\n👉 Обсуждение вакансии в чате @javascript_jobs","markup":[{"type":"hashtag","offset":0,"length":9,"data":"вакансия"},{"type":"hashtag","offset":10,"length":8,"data":"angular"},{"type":"hashtag","offset":19,"length":11,"data":"javascript"},{"type":"hashtag","offset":31,"length":5,"data":"html"},{"type":"hashtag","offset":37,"length":4,"data":"css"},{"type":"hashtag","offset":42,"length":9,"data":"frontend"},{"type":"hashtag","offset":52,"length":5,"data":"офис"},{"type":"handle","offset":706,"length":13,"data":"np_shirinkin"},{"type":"link","offset":727,"length":21,"data":"mailto:npshirinkin@gmail.com"},{"type":"handle","offset":824,"length":16,"data":"javascript_jobs"}],"date":"2020-06-12T16:09:02+00:00","link":"tg://resolve?domain=javascript_jobs_feed&post=16090","tags":[{"name":"javascript"},{"name":"angularjs"},{"name":"html"},{"name":"css"},{"name":"web"},{"name":"typescript"},{"name":"swagger"}],"cities":[{"code":"rostov"}],"allowsRemote":false}},{"node":{"__typename":"Job","id":"102713262080-1001089317451","title":"Qa engineer","text":"#vacancy #fulltime #relocate #вакансия  #работаQA \n\nQA Engineer - relocation to Germany -  company Excelsior \n\nThe role: testing web and mobile applications in the banking area.\n\nWhat you should have:\n\n📍BS degree (it's a must-have for getting a work permit).\n📍3+ years of experience in testing web and mobile applications.\n📍Experience with UI Automation.\n📍Selenium, Appium and Kotlin/Java skills.\n📍Knowledge of SDLC.\n📍Upper-Intermediate English and willing to learn German.\n\nCompany offers:\n\n✅Good salary - 2600 EUR/month - and bonus system .\n✅Relocation Support.\n✅Temporary apartment for the first 3 months.\n✅Tickets compensation.\n✅Official employment and medical insurance.\n✅Drinks and snacks at the office.\n\nPlease send any expressions of interest/CV's to \ne: nadiia@skillers.tech\ns: tixayaya\nt: @nadia_tykha","markup":[{"type":"hashtag","offset":0,"length":8,"data":"vacancy"},{"type":"hashtag","offset":9,"length":9,"data":"fulltime"},{"type":"hashtag","offset":19,"length":9,"data":"relocate"},{"type":"hashtag","offset":29,"length":9,"data":"вакансия"},{"type":"hashtag","offset":40,"length":9,"data":"работаQA"},{"type":"bold","offset":66,"length":21,"data":""},{"type":"bold","offset":99,"length":9,"data":""},{"type":"italic","offset":111,"length":10,"data":""},{"type":"italic","offset":179,"length":23,"data":""},{"type":"italic","offset":296,"length":27,"data":""},{"type":"italic","offset":481,"length":17,"data":""},{"type":"link","offset":769,"length":20,"data":"mailto:nadiia@skillers.tech"},{"type":"handle","offset":805,"length":12,"data":"nadia_tykha"}],"date":"2020-06-12T12:08:21+00:00","link":"tg://resolve?domain=qa_jobs&post=0","tags":[{"name":"qa"},{"name":"web"},{"name":"mobile"},{"name":"selenium"},{"name":"kotlin"},{"name":"java"}],"cities":[],"allowsRemote":false}},{"node":{"__typename":"Job","id":"16843276288-1001110946746","title":"Js разработчик","text":"#вакансия #удаленка #работа #node #команда_разработчиков \n\nГород и адрес офиса: любой\nФормат работы: удаленка\nЗанятость: полная\nЗарплатная вилка: для middle от 160 до 180 net\nдля teamlead от 200 до 230 net\n\nОписание вакансии: \nНужна сработанная команда node.js разработчиков с тимлидом для разработки облачных сервисов.\n\nЗадачи:\n1. Разработка и развитие системы управления биллингом облачных сервисов.\n- Front-end - личные кабинеты, различные графики, настройки использования и отчёты сервиса.\n- Back-end - реализация функционала, необходимого фронту, плюс реализация непосредственного взаимодействия с облачными сервисами.\n- Интеграция других бизнес-процессов в систему.\n- Постепенное превращение системы из внутреннего продукта компании в продукт для клиентов, с соответствующими требованиями.\n\n2. Разработка сервиса регистрации и классификации обращений с использованием машинного обучения.\n- Создание среды для работы моделей, созданных нашими дата-сайентистами.\n- Интеграция с другими сервисами.\n\n3. Создание продуктов или MVP совместно с другими подразделениями в рамках автоматизации деятельности организации или в рамках проверки гипотез;\n\n4. Закрытые проекты для заказчиков федерального уровня.\n\nИспользуемые технологии: \nBack end: node.js\nFront end: Vue + typescript (текущая версия), React with hooks + redux + typescript (новые версии).\nСоотношение задач back/front примерно 80/20, поэтому знание фреймворков на front end не критично, если есть готовность их освоить.\n\nТакже важны знания:\n- PostgreSQL.\n- Умение работать в Linux.\n- Знание React.Js и Redux.\n\nИ будет плюсом:\n- Опыт разработки систем в микросервисной архитектуре и работы с геоинформационными системами.\n- Опыт работы с mongoDB.\n- Знания по настройке web-серверов.\n- Знания инструментария devops. \n\nУсловия: возможна полностью удаленная работа (не в Москве), оформление по ТК РФ, ежеквартальные премии, ДМС после испытательного + есть программы лояльности с партнерами (подробнее на интервью).\n\nНазвание компании: КА Star-Staff\n\nКонтакты: @aazaitseva azaitseva@star-staff.ru","markup":[{"type":"hashtag","offset":0,"length":9,"data":"вакансия"},{"type":"hashtag","offset":10,"length":9,"data":"удаленка"},{"type":"hashtag","offset":20,"length":7,"data":"работа"},{"type":"hashtag","offset":28,"length":5,"data":"node"},{"type":"hashtag","offset":34,"length":22,"data":"команда_разработчиков"},{"type":"handle","offset":2016,"length":11,"data":"aazaitseva"},{"type":"link","offset":2028,"length":23,"data":"mailto:azaitseva@star-staff.ru"}],"date":"2020-06-11T19:55:18+00:00","link":"tg://resolve?domain=javascript_jobs_feed&post=0","tags":[{"name":"javascript"},{"name":"nodejs"},{"name":"dotnet"},{"name":"vuejs"},{"name":"typescript"},{"name":"reactjs"},{"name":"redux"},{"name":"postgresql"},{"name":"linux"},{"name":"mongodb"},{"name":"web"},{"name":"react-redux"}],"cities":[],"allowsRemote":true}}]}}},"context":{}}