{"hash":"f5f6bf98bd95e769321482904cbbd488f77922fd","data":{"records":{"id":"kotlin","name":"kotlin","belongsTo":{"totalCount":116,"pageInfo":{"totalPages":12,"currentPage":5},"edges":[{"node":{"__typename":"Job","id":"1752170496-1001091028994","title":"Java разработчик","text":"#вакансия #java #spring #mysql #kotlin #remote\nKotlin- web разработчик\nГород и адрес офиса: remote\nФормат работы: #remote\nЗанятость: фулл тайм\nЗарплатная вилка: 25-35$/h \nНазвание компании: Axell Solutions\n\nВы будете заниматься интеграцией внешних платежных систем, в нашу платформу, разработкой платформы и поддержкой существующих решений.\n\nЯзыки бэк:\n- kotlin\n\nБазы/всякое:\n- mysql\n- spring\n- protobuf\n\nАдминистрирование:\n- базовые навыки администрирования линукса\n- docker\n- способность понимать где проблема\n\nОбщее:\n- опыт разработки веб-приложений не менее 5 лет\n- приветствуется опыт с высокой нагрузкой\n- опыт в больших проектах\n- любовь к ФП\n- нацеленность на результат\n\nСтучитесь сюда: @NAA482","markup":[{"type":"hashtag","offset":0,"length":9,"data":"вакансия"},{"type":"hashtag","offset":10,"length":5,"data":"java"},{"type":"hashtag","offset":16,"length":7,"data":"spring"},{"type":"hashtag","offset":24,"length":6,"data":"mysql"},{"type":"hashtag","offset":31,"length":7,"data":"kotlin"},{"type":"hashtag","offset":39,"length":7,"data":"remote"},{"type":"hashtag","offset":114,"length":7,"data":"remote"},{"type":"handle","offset":695,"length":7,"data":"NAA482"}],"date":"2020-06-29T08:52:48+00:00","link":"tg://resolve?domain=jvmjobs&post=1671","tags":[{"name":"java"},{"name":"jvm"},{"name":"spring"},{"name":"mysql"},{"name":"kotlin"},{"name":"web"},{"name":"docker"}],"cities":[],"allowsRemote":true}},{"node":{"__typename":"Job","id":"72229060608-1001054966032","title":"Android разработчик","text":"#вакансия #работа #Android #удалёнка \n\nГород: Москва, Преображенская площадь;\nФормат работы: фулл тайм удаленно \n\nЗарплатная вилка: от 150 000 до 230 000;\nКомпания: АО «Почта банк»\n\nМы занимаем лидирующие позиции в рейтингах Интернет-банков, и не останавливаемся на достигнутом. Приглашаем к себе в команду разработчика Android.\n\nВАША ГЛАВНАЯ ЗАДАЧА:\n⚡️Разработка систем дистанционного банковского обслуживания (мобильный банк) на Android.\n\nНАШИ ТРЕБОВАНИЯ:\n✅ Опыт разработки для платформы Android от 3-х лет;\n✅ Знание Android SDK, Java, Kotlin, Rest/SOAP, Google Maps API, SQLite;\n\nВАШИМ ДОПОЛНИТЕЛЬНЫМ ПРЕИМУЩЕСТВОМ БУДЕТ:\n✅ Наличие высшего технического образования;\n✅ Знание стандартов проектирования и разработки мобильных приложений;\n✅ Знание архитектуры мобильных приложений и реализации серверного взаимодействия для мобильных приложений;\n✅ Навыки работы с многопоточностью;\n✅Опыт работы в банковской сфере.\n\nГОТОВЫ ВАМ ПРЕДЛОЖИТЬ:\n🔹 Удобный график («плавающее» начало рабочего дня);\n🔹 Удаленный формат работы;\n🔹 Оклад + квартальное премирование + годовой бонус;\n🔹 Agile. Scrum (двухнедельные спринты, работа в командах по 6-8 человек: 2 backend, 3 frontend, системный аналитик, 2 тестировщика) Демократия и самоорганизация + наличие удаленного доступа;\n🔹 Обучение - доступное внутреннее и внешнее обучение. В Банке есть корпоративная академия. Регулярно проходят внутренние митаппы, tech. chapters и ретроспективы. Мы посещаем ключевые отраслевые конференции;\n🔹 Профессиональное развитие - мы используем современный стэк, поддерживаем разумные инициативы по внедрению новшеств, совершенствуем архитектуру и кодовую базу;\n🔹 Карьерный рост- команда постоянно растет. В зависимости от вклада, каждый сотрудник может претендовать на повышение дохода, новый функционал и дополнительные задачи. Мы держимся за наших сотрудников;\n🔹 ДМС. Многочисленные скидки и бонусы от партнеров (от каршеринга до ипотеки).\n\nКонтакты: @dorogavtseva","markup":[{"type":"hashtag","offset":0,"length":9,"data":"вакансия"},{"type":"hashtag","offset":10,"length":7,"data":"работа"},{"type":"hashtag","offset":18,"length":8,"data":"Android"},{"type":"hashtag","offset":27,"length":9,"data":"удалёнка"},{"type":"handle","offset":1929,"length":13,"data":"dorogavtseva"}],"date":"2020-06-29T08:50:42+00:00","link":"tg://resolve?domain=mobile_jobs&post=68883","tags":[{"name":"mobile"},{"name":"android"},{"name":"java"},{"name":"kotlin"},{"name":"rest"},{"name":"soap"},{"name":"sqlite"},{"name":"google-maps"}],"cities":[{"code":"moscow"}],"allowsRemote":true}},{"node":{"__typename":"Job","id":"72161951744-1001054966032","title":"Android разработчик","text":"#remote #вакансия #android #kotlin #fulltime\nПозиция: Android Разработчик (удаленно)\nФормат работы: #удаленка\nЗанятость: полная\nЗарплатная вилка: от 80 000 руб. до 130 000 руб.\n\n🔥Описание вакансии:\nМы ищем Android разработчика с опытом создания Android приложений от прототипа заказчика и до непосредственной публикации в Google Play.\n\n👨🏻‍💻Требования:\n* опыт разработки Android приложений (ожидается, что кандидат продемонстрирует хотя бы 1 приложение в Google Play, разработанного с его/ее участием)\n* знание Kotlin\n* знание стандартных фреймворков и SDK\n* самое важное – умение и желание получать новые знания необходимые для работы\n\nTelegram – https://t.me/AlexeyBalchunas\n🏢Компания: https://4spaces.company\n🌍Вакансия: https://hh.ru/vacancy/37448182\n💌Email: jobs@4spaces.company\n💬Skype: https://join.skype.com/invite/e0SoJ9M6dn8W","markup":[{"type":"hashtag","offset":0,"length":7,"data":"remote"},{"type":"hashtag","offset":8,"length":9,"data":"вакансия"},{"type":"hashtag","offset":18,"length":8,"data":"android"},{"type":"hashtag","offset":27,"length":7,"data":"kotlin"},{"type":"hashtag","offset":35,"length":9,"data":"fulltime"},{"type":"hashtag","offset":100,"length":9,"data":"удаленка"},{"type":"link","offset":651,"length":28,"data":"https://t.me/AlexeyBalchunas"},{"type":"link","offset":692,"length":23,"data":"https://4spaces.company"},{"type":"link","offset":728,"length":30,"data":"https://hh.ru/vacancy/37448182"},{"type":"link","offset":768,"length":21,"data":"http://jobs@4spaces.company/"},{"type":"link","offset":798,"length":42,"data":"https://join.skype.com/invite/e0SoJ9M6dn8W"}],"date":"2020-06-28T05:09:22+00:00","link":"tg://resolve?domain=mobile_jobs&post=68819","tags":[{"name":"mobile"},{"name":"android"},{"name":"kotlin"},{"name":"playframework"}],"cities":[],"allowsRemote":true}},{"node":{"__typename":"Job","id":"72091697152-1001054966032","title":"Android разработчик","text":"#вакансия #android #office #Москва #fulltime #developer #Kotlin #разработчик \nКомпания: Мидлэнд ритейл Груп                                                                                                                  Город и адрес офиса: Москва, м. Парк Культуры\nФормат работы: офис \nЗанятость: полная \nЗарплатная вилка: от 190 000 до 240 000 на руки \n                                                                                                                                                         👉Задачи:\nПоддержка существующего Android проекта на Kotlin;\nРазвитие нового функционала;\nУчастие в проектирование продукта (API и внутренняя архитектура);\nВзаимодействие с дизайнерами и тестировщиками;\nПроведение code-review.                                                                                                   \n                                                                                                                                                                             👉Мы ожидаем от тебя:\nОпыт в разработке Android от 3-х лет;\nСвободное владение Java и Android SDK;\nЗнание шаблонов проектирования MVP, MVVP, набор компонентов Android Jetpack, умение их применять;\nПоддерживаемый и тестируемый код;\nУмение работать в команде, находить убедительные аргументы, конструктивно реагировать на аргументы коллег;\nЖелание непрерывно совершенствовать свои навыки.\n                                                                                                                                                          👉Мы приветствуем:\nОпыт работы с гибкими методологиями (Scrum, Kanban);\nОпыт работы с картами (google maps);\nУмение работать в команде, находите убедительные аргументы, конструктивно реагируете на аргументы коллег.               \n                                                                                                                                                                                                                                               👉Что мы предлагаем:                                                                                                                                               Оформление по ТК РФ                                                                                                                             Дружный коллектив профессионалов. В команде 3 высококлассных разработчика Android.                                                                                                                         Супер интересные задачи в международной социальной сети.                                                                                              Чай, кофе и вкусняшки.\nПо вакансии написать: tatia B. (+79776905011)","markup":[{"type":"hashtag","offset":0,"length":9,"data":"вакансия"},{"type":"hashtag","offset":10,"length":8,"data":"android"},{"type":"hashtag","offset":19,"length":7,"data":"office"},{"type":"hashtag","offset":27,"length":7,"data":"Москва"},{"type":"hashtag","offset":35,"length":9,"data":"fulltime"},{"type":"hashtag","offset":45,"length":10,"data":"developer"},{"type":"hashtag","offset":56,"length":7,"data":"Kotlin"},{"type":"hashtag","offset":64,"length":12,"data":"разработчик"},{"type":"bold","offset":78,"length":29,"data":""},{"type":"bold","offset":108,"length":246,"data":""},{"type":"bold","offset":511,"length":8,"data":""},{"type":"bold","offset":1010,"length":20,"data":""},{"type":"bold","offset":1551,"length":17,"data":""},{"type":"bold","offset":2020,"length":160,"data":""},{"type":"link","offset":2733,"length":12,"data":"tel:+79776905011"}],"date":"2020-06-26T12:19:06+00:00","link":"tg://resolve?domain=mobile_jobs&post=68752","tags":[{"name":"mobile"},{"name":"android"},{"name":"kotlin"},{"name":"java"},{"name":"google-maps"}],"cities":[{"code":"moscow"}],"allowsRemote":false}},{"node":{"__typename":"Job","id":"72082259968-1001054966032","title":"Android разработчик","text":"#вакансия: #android #middle\nГород : Томск\nФормат работы: офис, удаленно\nЗанятость : Полная\nЗарплатная вилка80 000- 180 000\n\nОписание компании\nМы Digital Nomads проектируем и разрабатываем мобильные приложения на  iOS, Android, так же открываем направление кроссплатформенной разработки на React Native и Flutter\n\nИщем android разработчика\n\nТребования:\n\n- Опыт разработки мобильных приложений от 1,5 лет.\n- Знание и понимание ООП и паттернов проектирования, СУБД;\n- Знание Java или Kotlin, Android SDK, API и Design Guidelines, SQLite;\n- Знание RxJava, Dagger2, Retrofit;\n- Уверенное знания Git / Bitbucket;\n- Android Framework;\n- Умение писать аккуратный читаемый код, а также разбираться в чужом коде;\n- Знание английского языка на уровне чтения технической документации;\n- Приветствуются завершенные проекты для ознакомления (Google Play + GitHub).\n- Сотрудничаем с разработчиками РФ.\n Условия\n- Возможность работать удаленно или в комфортном офисе.\n- У нас гибкий 8-часовой рабочий день, поэтому вы можете работать в наиболее продуктивное для себя время.\n- Оформление по ТК РФ.\n- Разнообразие задач, технологий, возможность участия в международных проектах и в проектах с крупными заказчиками, определяющими отрасль.\n- Еженедельные занятия английским языком в офисе.\n\nКонтакты: @Denis5726","markup":[{"type":"hashtag","offset":0,"length":9,"data":"вакансия"},{"type":"hashtag","offset":11,"length":8,"data":"android"},{"type":"hashtag","offset":20,"length":7,"data":"middle"},{"type":"handle","offset":1281,"length":10,"data":"Denis5726"}],"date":"2020-06-26T10:30:10+00:00","link":"tg://resolve?domain=mobile_jobs&post=68743","tags":[{"name":"mobile"},{"name":"android"},{"name":"ios"},{"name":"reactjs"},{"name":"flutter"},{"name":"java"},{"name":"kotlin"},{"name":"sqlite"},{"name":"git"},{"name":"playframework"},{"name":"github"},{"name":"react-native"}],"cities":[{"code":"tomsk"}],"allowsRemote":true}},{"node":{"__typename":"Job","id":"72075968512-1001054966032","title":"Android разработчик","text":"#вакансия #москва #офис #android \n\nгород: Москва\nформат работы: офис\nзанятость: полная\nзарплатная вилка: 150-200\nвакансия: Ищу Android-разработчика  middle+, готового возглавить развитие  и поддержку приложения.\n\nо компании: Электронное издательство «Юрайт» Мы работаем со всеми вузами страны и считаем своей главной целью повышение образовательного уровня в России.\nwww.urait.ru\n\nо проекте: Над проектом работает 20 человек. Приложение заказывали на стороне в 2019 г. Теперь решили собрать свою команду для рефакторинга и выведения на новый уровень.\n\nЧто ждет от тебя будущее нашего образования:\nПоддержку и развитие нашего приложения;\nПеренос функционала из web;\nВзаимодействие с командой - аналитиками и тестировщиками;\nУчастие в развитии проекта.\n\nСкажем тебе уверенное “да”, если ты:\nИмеешь успешный опыт разработки и поддержки под Android  (Android Studio, Gradle);\nИмеешь опыт разработки на Kotlin;\nИмеешь успешный опыт разработки клиент-серверных приложений (REST, JSON);\nТрогал архитектуру (MVP, Clean architecture);\nЗнаешь  Android application architecture, Android SDK, Gradle;\nВладеешь паттернами UI;\nЗнаешь, зачем нужен Git, без контроля версий никуда, правда?\nМожешь писать тесты;\nГотов ин-хаус исправлять код от аутсорса. Уверен в том, что ты сделаешь круче, чем исполнители на стороне =)\n\nКак и что по условиям\nОфис с плюшками в 5 минутах от м. Шоссе Энтузиастов, Мск\nГибкое начало дня:  с 8 до 11 \nВсе по ТК РФ + соц.пакет \nАдекватные коллеги и руководство!!!\n\n\nЗаинтересовало?\nДмитрий @tankograin","markup":[{"type":"hashtag","offset":0,"length":9,"data":"вакансия"},{"type":"hashtag","offset":10,"length":7,"data":"москва"},{"type":"hashtag","offset":18,"length":5,"data":"офис"},{"type":"hashtag","offset":24,"length":8,"data":"android"},{"type":"bold","offset":225,"length":32,"data":""},{"type":"bold","offset":270,"length":22,"data":""},{"type":"bold","offset":323,"length":42,"data":""},{"type":"link","offset":367,"length":12,"data":"http://www.urait.ru"},{"type":"bold","offset":552,"length":45,"data":""},{"type":"bold","offset":752,"length":37,"data":""},{"type":"bold","offset":1305,"length":22,"data":""},{"type":"handle","offset":1503,"length":11,"data":"tankograin"}],"date":"2020-06-26T09:32:59+00:00","link":"tg://resolve?domain=mobile_jobs&post=68737","tags":[{"name":"mobile"},{"name":"android"},{"name":"web"},{"name":"gradle"},{"name":"kotlin"},{"name":"rest"},{"name":"json"},{"name":"git"},{"name":"android-studio"}],"cities":[{"code":"moscow"}],"allowsRemote":false}},{"node":{"__typename":"Job","id":"72071774208-1001054966032","title":"Android developer","text":"#вакансия #Juniorandroid #Android developer #kotlin #удаленно                                                                                                         Уровень дохода:💵 50 000-60 000  рублей net                                                                                                                                                                                 Требуемый опыт работы: от 1 года\nПолная занятость, дистанционно, гибкое начало рабочего дня\n \n📌Требования:\n- Нативная Android разработка (Kotlin)\n- Умение писать поддерживаемый и тестируемый код\n- Умение работать с Dagger 2\n- Умение работать с git\n- Желание развиваться и изучать новое в разработке\n- Опыт разработки приложений от 1 года\n -Знание английского языка от уровня Intermediate\n \n📌Будет плюсом:\n- Опыт работы с JNI\n- Опыт использования tensorflow\n- Опыт работы с аудио и видео\n\n📌Условия:\n- Отсутствие бюрократии\n- Время начала рабочего дня обговариваем индивидуально\n- Крутой инновационный проект - возможность самореализации и профессионального роста\n- Стабильное зарубежное финансирование\n- Десятки миллионов установок и множество глобальных партнёров\n📞Контакты @SvetikS_hr +7(963)-632-12-36 Cветлана","markup":[{"type":"hashtag","offset":0,"length":9,"data":"вакансия"},{"type":"hashtag","offset":10,"length":14,"data":"Juniorandroid"},{"type":"hashtag","offset":25,"length":8,"data":"Android"},{"type":"hashtag","offset":44,"length":7,"data":"kotlin"},{"type":"hashtag","offset":52,"length":9,"data":"удаленно"},{"type":"link","offset":184,"length":13,"data":"tel:50 000-60 000"},{"type":"handle","offset":1164,"length":11,"data":"SvetikS_hr"},{"type":"link","offset":1176,"length":17,"data":"tel:+7(963)-632-12-36"}],"date":"2020-06-26T09:01:09+00:00","link":"tg://resolve?domain=mobile_jobs&post=68733","tags":[{"name":"mobile"},{"name":"android"},{"name":"kotlin"},{"name":"dotnet"},{"name":"git"},{"name":"tensorflow"}],"cities":[],"allowsRemote":true}},{"node":{"__typename":"Job","id":"72062337024-1001054966032","title":"Android разработчик","text":"#вакансия #android #java #kotlin #офис #спб\nИщем Android разработчика в проект #МойОфис. Предстоит много работы: новые фичи, полировка UI и анимации, рефакторинг существующего кода с написанием тестов. С нас – зп от 150 до 220 (зависит от уровня), удобный офис в центре Питера, интересная команда и поддержка участия в жизни профессионального сообщества. Подробнее - по ссылке https://spb.hh.ru/vacancy/32700779\nСвязь по почте : anna.galaktionova@myoffice.team\nИли тут @Galaktionova","markup":[{"type":"hashtag","offset":0,"length":9,"data":"вакансия"},{"type":"hashtag","offset":10,"length":8,"data":"android"},{"type":"hashtag","offset":19,"length":5,"data":"java"},{"type":"hashtag","offset":25,"length":7,"data":"kotlin"},{"type":"hashtag","offset":33,"length":5,"data":"офис"},{"type":"hashtag","offset":39,"length":4,"data":"спб"},{"type":"hashtag","offset":79,"length":8,"data":"МойОфис"},{"type":"link","offset":377,"length":34,"data":"https://spb.hh.ru/vacancy/32700779"},{"type":"link","offset":429,"length":31,"data":"mailto:anna.galaktionova@myoffice.team"},{"type":"handle","offset":469,"length":13,"data":"Galaktionova"}],"date":"2020-06-26T07:08:07+00:00","link":"tg://resolve?domain=mobile_jobs&post=68724","tags":[{"name":"mobile"},{"name":"android"},{"name":"java"},{"name":"kotlin"}],"cities":[],"allowsRemote":false}},{"node":{"__typename":"Job","id":"72048705536-1001054966032","title":"Android разработчик","text":"‼️Вакансия Senior Android⁢ Developer‼️\n#android #developer #вакансия #удаленка\nВ команде Mycelium Wallet (mycelium.com) открыта #вакансия Senior Android⁢ Developer.\n💵З/П 3000-4000 USD по итогам собеседования.\nРабота удаленная 💻\n\nМы предлагаем:\n🔸Получить навыки и компетенции в одном из самых передовых и перспективных направлений финтех индустрии - blockchain;\n🔸Принять участие в разработке одного из самых популярных биткоин-кошельков в Google Play Store;\n🔸Работать в международной команде бок о бок с ведущими специалистами в индустрии;\n🔸Возможность профессионального карьерного роста и участия в разнообразных проектах компании.\n\nЧем предстоит заниматься:\n🔹Разрабатывать новые и развивать существующие мобильные сервисы компании на платформе Android;\n🔹Проектировать и разрабатывать большие функциональные части приложения с привлечением других программистов;\n🔹Использовать cutting edge технологии, а также проверенные временем решения.\n\nТребования:\n✔️Как минимум 3 года опыта разработки на Android;\n✔️Знание Java/Kotlin на уровне ведущего разработчика;\n✔️Знание шаблонов проектирования, опыт использования MVP и других архитектурных подходов;\n✔️Опыт параллельного и многопоточного программирования;\n✔️Понимание циклов работы Android-приложения и управления памятью;\n✔️Опыт разработки пользовательских интерфейсов на платформе Android. \n✔️Знание Android Design Principles;\n✔️Знание и умение использовать различные механизмы взаимодействий между приложениями, предоставляемые в рамках Android SDK;\n✔️Понимание принципов работы REST API, WS, RPC и клиент-серверных приложений;\n✔️Знание английского языка на уровне чтения документации и умения общаться в корпоративном чате.\n\nПлюсом будет:\n➕Умение и понимание необходимости написания Unit tests;\n➕Знание основ криптографии;\n➕Опыт работы с bitcoin/etherium blockchain stack;\n➕Наличие своих проектов на Github, в Google Play и т.д.\n\n📲Контакт: @valeritata","markup":[{"type":"hashtag","offset":39,"length":8,"data":"android"},{"type":"hashtag","offset":48,"length":10,"data":"developer"},{"type":"hashtag","offset":59,"length":9,"data":"вакансия"},{"type":"hashtag","offset":69,"length":9,"data":"удаленка"},{"type":"link","offset":106,"length":12,"data":"http://mycelium.com"},{"type":"hashtag","offset":128,"length":9,"data":"вакансия"},{"type":"handle","offset":1900,"length":11,"data":"valeritata"}],"date":"2020-06-25T18:53:54+00:00","link":"tg://resolve?domain=mobile_jobs&post=68711","tags":[{"name":"mobile"},{"name":"android"},{"name":"playframework"},{"name":"java"},{"name":"kotlin"},{"name":"rest"},{"name":"github"}],"cities":[],"allowsRemote":true}},{"node":{"__typename":"Job","id":"72040316928-1001054966032","title":"Android разработчик","text":"#вакансия #android #москва #удаленка #senior #middle\n\nГород: Москва\nФормат работы: удаленка\nЗанятость: полная\nВилка:120-150 на руки\n\nОписание вакансии: Я ищу опытного Android-разработчика для удаленной работы в международной компании Раксел Телематикс.\n\nО компании: Raxel Telematics - это технологический стартап, разрабатывающий IoT платформу для обогащения, анализа и монетизации данных.\nwww.raxeltelematics.com\n\nФункционал:\n\n• Осуществлять разработку основных модулей и интерфейсов в мобильных приложениях в соответствии с заданиями от руководителя команды разработки;\n• Осуществлять разработку внутренних модулей и библиотек по сбору данных пользователя и передаче статистики;\n• Вести документацию разрабатываемого программного обеспечения;\n• Вести список задач и поддерживать актуальным статус задач в системе Jira;\n• Формировать задания группе тестирования в проверке работоспособности мобильного программного обеспечения.\n\nОт тебя хотят:\n\n✔️Знание Android SDK, Java Core, Kotlin\n✔️Понимание принципы ООП и классических алгоритмов\n✔️Опыт работы с REST API\n✔️Понимание принципов Material Design и Android Clean Architecture, MVP, DI;\n✔️Опыт работы с SQL/SQLite\n✔️Использование в работе rxjava/rxjava2, retrofit2, dagger2, picasso, otto и др.\n✔️Умение писать качественный код и использование принципов SOLID.\n\nКонтакты: @reanimawka","markup":[{"type":"hashtag","offset":0,"length":9,"data":"вакансия"},{"type":"hashtag","offset":10,"length":8,"data":"android"},{"type":"hashtag","offset":19,"length":7,"data":"москва"},{"type":"hashtag","offset":27,"length":9,"data":"удаленка"},{"type":"hashtag","offset":37,"length":7,"data":"senior"},{"type":"hashtag","offset":45,"length":7,"data":"middle"},{"type":"bold","offset":266,"length":16,"data":""},{"type":"link","offset":390,"length":23,"data":"http://www.raxeltelematics.com"},{"type":"bold","offset":415,"length":11,"data":""},{"type":"bold","offset":930,"length":14,"data":""},{"type":"handle","offset":1324,"length":11,"data":"reanimawka"}],"date":"2020-06-25T16:17:35+00:00","link":"tg://resolve?domain=mobile_jobs&post=68703","tags":[{"name":"mobile"},{"name":"android"},{"name":"java"},{"name":"kotlin"},{"name":"rest"},{"name":"sql"},{"name":"sqlite"}],"cities":[{"code":"moscow"}],"allowsRemote":true}}]}}},"context":{}}