{"hash":"f34fd2c444a074f4e0e67d525015a008ef8e766f","data":{"records":{"id":"dotnet","name":"dotnet","belongsTo":{"totalCount":129,"pageInfo":{"totalPages":13,"currentPage":4},"edges":[{"node":{"__typename":"Job","id":"16198402048-1001110946746","title":"Js developer","text":"#вакансия #Nodejs #Москва #удалёнка #офис\n\nПозиция: Backend-developer \nФормат: #удалёнка или #Москва офис\nЗанятость: #fulltime \nЗарплатная вилка: от 120 000  до 190 000 руб. net\nКомпания: Paradigmfund https://paradigmfund.io/\n\n Задачи\n\n •  Разработка и поддержка проектов компании (Блокчейн эксплорер);\n • Работа с различными БД (основная: PostgreSQL, периодически: leveldb, yandex clickhouse)\n • Работа в команде\n\nТребования:\n\n • Опыт работы с JS и NodeJS от 3 лет;\n • Большой опыт работы с различными базами данных, в частности PostgreSQL\n • Желание увеличивать этот опыт ^, много работы с БД, быть к этому готовым. \n • Умение работать с git;\n • Плюсом будет опыт работы с python и golang на уровне чтения чужого кода. \n\nУсловия:\n \n • Работа по Agile, используем Jira/Confluence\n • Полная удаленка с графиком или офис в центре Москвы\n • Командировки в Токио\n • Премии и ежегодный рост\n\nПишите в личку, желательно сразу с резюме: @grshabl","markup":[{"type":"hashtag","offset":0,"length":9,"data":"вакансия"},{"type":"hashtag","offset":10,"length":7,"data":"Nodejs"},{"type":"hashtag","offset":18,"length":7,"data":"Москва"},{"type":"hashtag","offset":26,"length":9,"data":"удалёнка"},{"type":"hashtag","offset":36,"length":5,"data":"офис"},{"type":"hashtag","offset":79,"length":9,"data":"удалёнка"},{"type":"hashtag","offset":93,"length":7,"data":"Москва"},{"type":"hashtag","offset":117,"length":9,"data":"fulltime"},{"type":"link","offset":201,"length":24,"data":"https://paradigmfund.io/"},{"type":"handle","offset":931,"length":8,"data":"grshabl"}],"date":"2020-04-06T14:42:38+00:00","link":"tg://resolve?domain=javascript_jobs_feed&post=15448","tags":[{"name":"javascript"},{"name":"nodejs"},{"name":"dotnet"},{"name":"postgresql"},{"name":"git"},{"name":"python"},{"name":"go"}],"cities":[{"code":"moscow"},{"code":"tokyo"}],"allowsRemote":true}},{"node":{"__typename":"Job","id":"1421869056-1001091028994","title":"Java разработчик","text":"#backend #java #spring #hibernate #docker #git #linix #moscow #office #fulltime #москва #фуллтайм #офис\n\nКомпания: #АОДанные\nВилка 250-280тр Net\n\nНаша работа — обеспечение безопасности и функционирования сетей операторов связи и крупных корпораций\n\n♦️Spring, Hibernate, Docker\n♦️Знать требования к SOLID, DRY, WET, ACID\n♦️Git, linix-подобныe консоли\nПлюсом будет:\n♦️Angular, JavaScript, html, css\n\n Наша команда - это веселые и целеустремлённые ребята, настоящие профессионалы своего дела. У нас очень дружная команда👍🏽\n\n   Присоединяясь к нашей команде вы:\n🔹Получаете поддержку в профессиональном развитии и росте\n🔹Становитесь частью большого и важного дела - безопасности каждого из нас\n\nИ это только 10% всей информации, пишите, буду рада рассказать подробнее о условиях работы, проекте и бонусах @Julia_Nikolovag","markup":[{"type":"hashtag","offset":0,"length":8,"data":"backend"},{"type":"hashtag","offset":9,"length":5,"data":"java"},{"type":"hashtag","offset":15,"length":7,"data":"spring"},{"type":"hashtag","offset":23,"length":10,"data":"hibernate"},{"type":"hashtag","offset":34,"length":7,"data":"docker"},{"type":"hashtag","offset":42,"length":4,"data":"git"},{"type":"hashtag","offset":47,"length":6,"data":"linix"},{"type":"hashtag","offset":54,"length":7,"data":"moscow"},{"type":"hashtag","offset":62,"length":7,"data":"office"},{"type":"hashtag","offset":70,"length":9,"data":"fulltime"},{"type":"hashtag","offset":80,"length":7,"data":"москва"},{"type":"hashtag","offset":88,"length":9,"data":"фуллтайм"},{"type":"hashtag","offset":98,"length":5,"data":"офис"},{"type":"hashtag","offset":115,"length":9,"data":"АОДанные"},{"type":"link","offset":805,"length":15,"data":"https://t.me/Julia_Nikolova"}],"date":"2020-04-06T14:28:08+00:00","link":"tg://resolve?domain=jvmjobs&post=1356","tags":[{"name":"java"},{"name":"jvm"},{"name":"spring"},{"name":"hibernate"},{"name":"docker"},{"name":"git"},{"name":"dotnet"},{"name":"angularjs"},{"name":"javascript"},{"name":"html"},{"name":"css"}],"cities":[{"code":"moscow"}],"allowsRemote":false}},{"node":{"__typename":"Job","id":"1420820480-1001091028994","title":"Java разработчик","text":"Вакансия: #Java #TeamLead                                           \nКомпания: #Утконос                                                                  \nЛокация: #Москва                                                                         \nЗ/п: 320 000 Net                                                                             \nКонтакт: @RecruiterTatianaK                                                   \nJava TeamLead в Утконос Онлайн\n📍Наш проект:\nВ компании разрабатывается комплексная система по управлению складом. Систему пишем сами «с нуля», на микросервисной архитектуре\n📍Что нужно делать?   \nУправление командой разработки   \nРазработка алгоритмов по оптимизации хранения и комплектации                                                                                       \nУчастие в проработке архитектурных решений                   \n📍Наш стек:\n Java 11, Spring 5, Kubernetes, ELK, Grafana, Prometheus, Kafka                                                                                               \n📍Что предлагаем?                                                                        \nОформление по ТК РФ, ДМС   \nГибкий график                                                                     \nКорпоративные скидки на utkonos.ru, tui.ru, фитнес, кино и др.                                                                                      \nОфис - 10 минут  от м. Краснопресненская/ м.Улица 1905 года","markup":[{"type":"hashtag","offset":10,"length":5,"data":"Java"},{"type":"hashtag","offset":16,"length":9,"data":"TeamLead"},{"type":"hashtag","offset":79,"length":8,"data":"Утконос"},{"type":"hashtag","offset":163,"length":7,"data":"Москва"},{"type":"handle","offset":347,"length":18,"data":"RecruiterTatianaK"},{"type":"link","offset":1254,"length":10,"data":"http://utkonos.ru"},{"type":"link","offset":1266,"length":6,"data":"http://tui.ru"}],"date":"2020-04-06T14:27:06+00:00","link":"tg://resolve?domain=jvmjobs&post=1355","tags":[{"name":"java"},{"name":"jvm"},{"name":"dotnet"},{"name":"spring"},{"name":"kubernetes"},{"name":"kafka"}],"cities":[{"code":"moscow"}],"allowsRemote":false}},{"node":{"__typename":"Job","id":"1972371456-1001134745498","title":"Devops инженер","text":"#вакансия #сбербанк #DevOps Заработная плата 180-220 net. \nЗаинтересованным прошу писать в личку @nas_vas\n\nКто мы?\n\nМы новая группа Agile команд, которая развивает риск-продукты экосистемы Сбербанка. Через API и фронт системы мы предоставляем партнерам и клиентам Банка рейтинги физических и юридических лиц, отчеты и уведомления по кредитной истории.\nМы приглашаем амбициозного инженера, который готов оперативно выстроить DevOps pipeline по нашим новым продуктам в соответствии с лучшими практиками и стандартами.\n\n\nDevOps инженер\n\n Чем предстоит заниматься:\n• Организация DevOps pipeline (CI\\CD) для новых продуктов\n• Настройка, диагностика и использование инструментов автоматизации:\nсборка дистрибутива, Unit-тесты, публикация дистрибутива, доставка и развертывание дистрибутива на среды, работа с результатами анализа кода на качество и безопасность\n• Чтение и понимание реализованных job’ов и pipeline\n• Сопровождение непромышленных стендов приложений (Dev, Test): анализ доступности, мониторинг, применение инструментов обезличивания, разбор дефектов и их локализация/устранение совместно с командами разработки\n• Консультация разработчиков и администраторов по лучшим практикам DevOps\nЧто ожидаем от тебя:\n• Высшее техническое образование\n• Хорошие коммуникационные навыки. Умение работать в команде\n• Опыт работы от 1 года\n• Опыт построения CI\\CD pipeline\n• Опыт работы с инструментами DevOps (Jenkins, Nexus, BitBucket, Ansible);\n• Знание Groovy;\n• Владение SQL, понимание принципов работы RDBMS (PostgreSQL);\n• Опыт поддержки серверных ОС семейства Linux (RHEL);\n\nДополнительным плюсом будет:\n• Опыт работы c Docker контейнерами\n• Опыт работы с SonarQube, Kafka, GridGain, Oracle, Nginx, JBoss/WildFly, Jira, Confluence\n• Знание Java.\n\n—\n\n👉 Обсуждение вакансии в чате @devops_jobs","markup":[{"type":"hashtag","offset":0,"length":9,"data":"вакансия"},{"type":"hashtag","offset":10,"length":9,"data":"сбербанк"},{"type":"hashtag","offset":20,"length":7,"data":"DevOps"},{"type":"handle","offset":97,"length":8,"data":"nas_vas"},{"type":"handle","offset":1781,"length":12,"data":"devops_jobs"}],"date":"2020-04-06T13:26:30+00:00","link":"tg://resolve?domain=devops_jobs_feed&post=1881","tags":[{"name":"dotnet"},{"name":"jenkins"},{"name":"ansible"},{"name":"groovy"},{"name":"sql"},{"name":"postgresql"},{"name":"linux"},{"name":"docker"},{"name":"sonarqube"},{"name":"kafka"},{"name":"oracle"},{"name":"nginx"},{"name":"jboss"},{"name":"java"}],"cities":[],"allowsRemote":false}},{"node":{"__typename":"Job","id":"1419771904-1001091028994","title":"Java разработчик","text":"#fulltime #офис #СПб\n#backend #высоконагруженные_сервисы\n#вакансия\n\nВилка: 150.000 - 280.000 NET\nПозиция: middle-senior\n\nПривет всем, ищу к себе в команду CardPay Java-разработчика. Занимаемся разработкой сервиса онлайн платежей. Головной офис в Лондоне, в кризисной лодке не пострадали, продолжаем расширяться, выглядим достаточно надежно.\n\nСайт: https://www.cardpay.com/home\n\nУсловия:\n— Техника заказывается на выбор сотрудника (новый офис, можно повыбирать);\n— Компенсация занятий спортом и английским языком после испытательного срока;\n— Организовываем удаленную работу сейчас и онлайн онбординг;\n— Офис класса А++, созданный дизайнерами, которые делали офис ВКонтакте. \n\nСтек технологий:\nJavaEE, SpringFramework, Maven, SQL, SpringBoot.\n\nИщем разработчиков с опытом от  2-х лет.\n\nЗадачи: \n— Анализировать техническое задание на разработку;\n— Разработка корпоративных приложений и доработка их функционала;\n— Разработка backend части приложений;\n— Анализ и устранение ошибок;\n— Подготовка технической документации.\n\nВсего 2 этапа интервью.\n\nКонтактное лицо: @kitanamda","markup":[{"type":"hashtag","offset":0,"length":9,"data":"fulltime"},{"type":"hashtag","offset":10,"length":5,"data":"офис"},{"type":"hashtag","offset":16,"length":4,"data":"СПб"},{"type":"hashtag","offset":21,"length":8,"data":"backend"},{"type":"hashtag","offset":30,"length":26,"data":"высоконагруженные_сервисы"},{"type":"hashtag","offset":57,"length":9,"data":"вакансия"},{"type":"bold","offset":68,"length":53,"data":""},{"type":"link","offset":348,"length":28,"data":"https://www.cardpay.com/home"},{"type":"bold","offset":378,"length":9,"data":""},{"type":"bold","offset":676,"length":17,"data":""},{"type":"bold","offset":774,"length":18,"data":""},{"type":"bold","offset":1020,"length":25,"data":""},{"type":"handle","offset":1062,"length":10,"data":"kitanamda"}],"date":"2020-04-06T12:34:54+00:00","link":"tg://resolve?domain=jvmjobs&post=1354","tags":[{"name":"java"},{"name":"jvm"},{"name":"dotnet"},{"name":"maven"},{"name":"sql"}],"cities":[],"allowsRemote":false}},{"node":{"__typename":"Job","id":"16187916288-1001110946746","title":"Javascript разработчик","text":"#вакансия #blockchain #senior #moscow #inhouse #typescript\nМосква, Павелецкая (5 мин пешком), офис\nКомпания DAO Group\nПолная занятость\n🏆От 200 до 300к net\nИщем Senior #Frontend || #React разработчика\nУ компании несколько уже работающих продуктов (я про них расскажу).\n\nСейчас занимаемся разработкой b2b crypto-payment решения. Проекту 2 месяца, релиз намечен на конец апреля.\nОсновное — разработка нового функционала SPA. В команде 7 чел, есть Senior Front+верстальщик. \n\nДля тебя:\n— Продукт с 0, поэтому важно использовать новые и свежие решения.\n— Офис с мягким началом дня. Мы делаем продукт в команде, а без личного общения сделать все быстро и качественно довольно сложно. Удаленки нет.\n— Деньги — это важно, и мы готовы обсуждать твои ожидания (и даже в $).\n\nПодробнее о вакансии: https://hh.ru/vacancy/36489938\nПиши мне: @isaevakristi, почта shukarek92@gmail.com","markup":[{"type":"hashtag","offset":0,"length":9,"data":"вакансия"},{"type":"hashtag","offset":10,"length":11,"data":"blockchain"},{"type":"hashtag","offset":22,"length":7,"data":"senior"},{"type":"hashtag","offset":30,"length":7,"data":"moscow"},{"type":"hashtag","offset":38,"length":8,"data":"inhouse"},{"type":"hashtag","offset":47,"length":11,"data":"typescript"},{"type":"hashtag","offset":168,"length":9,"data":"Frontend"},{"type":"hashtag","offset":181,"length":6,"data":"React"},{"type":"link","offset":788,"length":30,"data":"https://hh.ru/vacancy/36489938"},{"type":"handle","offset":829,"length":13,"data":"isaevakristi"},{"type":"link","offset":850,"length":20,"data":"mailto:shukarek92@gmail.com"}],"date":"2020-04-06T09:47:12+00:00","link":"tg://resolve?domain=javascript_jobs_feed&post=15438","tags":[{"name":"javascript"},{"name":"typescript"},{"name":"dotnet"},{"name":"reactjs"}],"cities":[{"code":"moscow"}],"allowsRemote":false}},{"node":{"__typename":"Job","id":"16186867712-1001110946746","title":"Js разработчик","text":"#frontend #вакансия #Москва #fulltime #middle #senior #react #работа\nГород и адрес офиса: Москва, между метро Нагатинская и Тульская, мцк Верхние котлы \nФормат работы: офис\nЗанятость:полная\nОплата: 150- 250 Net\nОписание вакансии:\n💥Команда Product Catalog  ищет сильного Frontend-разработчика!🙌\n💥Проект Product Catalog-это облачное решение, которое позволяет бизнесу вести все свои продукты (карты, вклады, продукты партнеров и и.п) в едином месте, гибко управлять всеми элементами 4P (product,price, promotion, place) и мгновенно выводить все изменения на рынок. Архитектура системы состоит из 11 модулей, половина из них в Production, другая половина требует проектирования и разработки. Продукт активно развивается, поэтому мы хотим усилить нашу команду. От нас вы получите опыт и развитие компетенций, амбициозные задачи, карьерный рост и открытость к инновациям!\n💥Стек: React JS, react-redux, webPack, CSS, HTML, Java, Spring, Git, Maven.\n💥 Процесс разработки : Scrum, Jira, Gitfliw, Devops до Production (переход на OpenShift)\n💥-Оформление ТК РФ;\n     -ДМС;\n     - Белая заработная плата (оклад + годовая премия);\n     -Возможность обучения за счет компании;\n     -   Льготное кредитование;\n      -Бесплатный тренажерный зал на территории офиса;\n       - корпоративная жизнь и спортивные мероприятия;\n       -возможность карьерного роста.\nКомпания: СберТех\nКонтакты: @TaliaHR\n\n—","markup":[{"type":"hashtag","offset":0,"length":9,"data":"frontend"},{"type":"hashtag","offset":10,"length":9,"data":"вакансия"},{"type":"hashtag","offset":20,"length":7,"data":"Москва"},{"type":"hashtag","offset":28,"length":9,"data":"fulltime"},{"type":"hashtag","offset":38,"length":7,"data":"middle"},{"type":"hashtag","offset":46,"length":7,"data":"senior"},{"type":"hashtag","offset":54,"length":6,"data":"react"},{"type":"hashtag","offset":61,"length":7,"data":"работа"},{"type":"handle","offset":1378,"length":8,"data":"TaliaHR"}],"date":"2020-04-06T09:46:48+00:00","link":"tg://resolve?domain=javascript_jobs_feed&post=15437","tags":[{"name":"javascript"},{"name":"reactjs"},{"name":"dotnet"},{"name":"redux"},{"name":"webpack"},{"name":"css"},{"name":"html"},{"name":"java"},{"name":"spring"},{"name":"git"},{"name":"maven"},{"name":"react-redux"}],"cities":[{"code":"moscow"}],"allowsRemote":false}},{"node":{"__typename":"Job","id":"1418723328-1001091028994","title":"Java разработчик","text":"Вакансия: #java #spring #kotlin #middle #senior\nКомпания: #сбербанк\nЛокация: #москва\nЗ/п: от 160 до 250 net \nКонтакты: @Sooreyn\n \nВ команду разработки систем управления кредитными рисками и рисками на финансовых рынках ищем Java-разработчика. Мы — амбициозная и дружная команда. Ежедневно совершаем подвиги, являем чудеса инженерной мысли и покоряем новые технологические высоты. Выпускаем не имеющий аналогов в России «риск-менеджмент» продукт.\n \nИспользуем: Kotlin, Spring Cloud, Service Discovery (Eureka), API Gateway (Zuul), Feign client, Circuit breaker.\n \nМы предлагаем:\nГрафик работы с гибким подходом, в пятницу короткий день;\nОфис - метро Тульская; ДМС, фитнес;\nВозможность проходить обучение в лучшем Корпоративном Университете (Европы);\nИ еще много всего интересного и \"вкусного\".","markup":[{"type":"hashtag","offset":10,"length":5,"data":"java"},{"type":"hashtag","offset":16,"length":7,"data":"spring"},{"type":"hashtag","offset":24,"length":7,"data":"kotlin"},{"type":"hashtag","offset":32,"length":7,"data":"middle"},{"type":"hashtag","offset":40,"length":7,"data":"senior"},{"type":"hashtag","offset":58,"length":9,"data":"сбербанк"},{"type":"hashtag","offset":77,"length":7,"data":"москва"},{"type":"handle","offset":119,"length":8,"data":"Sooreyn"}],"date":"2020-04-06T09:17:30+00:00","link":"tg://resolve?domain=jvmjobs&post=1353","tags":[{"name":"java"},{"name":"jvm"},{"name":"spring"},{"name":"kotlin"},{"name":"dotnet"},{"name":"cloud"}],"cities":[{"code":"moscow"}],"allowsRemote":false}},{"node":{"__typename":"Job","id":"16184770560-1001110946746","title":"Js разработчик","text":"#вакансия #удаленка #react #frontend                                                                                                                                                       Локация: удаленка                                                                                                                                                                                Занятость: полная                                                                                                                                                                     Зарплата: от 150 тыс. до 300 тыс. рублей (net).                                                                                                          Компания Skybonds.                                                                                                                          Мы — команда Skybonds. Используя современные технологии и стандарты мы создаем продукт для анализа рынка ценных бумаг и эффективного управления портфелем.\nМы стремимся ежедневно добавлять в наш продукт значимый функционал, выполняя строгие требования к его качеству и быстродействию.\n\nСейчас в нашу команду нужен сильный  FRONTEND-РАЗРАБОТЧИК уровня middle +   и выше, который будет:\n•  брать на себя ответственность за часть продукта, в рамках общих приоритетов команды;\n•  привносить в продукт ценный для клиента результат;\n•  в достижении результата, понимать как техническое решение, так и пользовательские сценарии;\n•  планировать свою работу и прозрачно отчитываться по ней;\n•  взаимодействовать с командой дизайнеров и серверных разработчиков;\n•  уметь разбираться в чужом коде;\n•  решать проблемы, о которых сообщили наши клиенты;\n•  изучать новые технологии и внедрять их в проект с целью его улучшения;\n•  принимать совместные командой решения сложных проблем.\nМинимальные требования:\n•  понимание принципов функционального программирования и ООП;\n•  опыт разработки на JS (React)  от 3-х лет;\n•  знание возможностей и синтаксиса последних версий ECMAScript;\n•  глубокое понимание React.js и его основных принципов;\n•  понимание SPA на основе React/Redux;\n•  понимание методов и знание инструментов тестирования (unit, e2e tests);\n•  опыт работы с системой контроля версий Git;\n•  опыт работы с средствами разработки, такими как Babel, Webpack, ESlint, npm;\n•  отличные навыки в адаптивной верстке.\nПлюсом будет:\n•  опыт создания интерактивных визуализаций при помощи D3.js;\n•  опыт создания высоконагруженных веб-приложений и оптимизации производительности;\n•  практика тестирования собственного кода и применения TDD и/или BDD;\n•  опыт проектирования и дизайна интерфейсов;\n•  стремление соблюдать принципы SOLID, KISS и YAGNI.\nМы предлагаем:\n•  интересные задачи, новые знания;\n•  работу в неравнодушной команде;\n•  полностью \"белую\" заработную плату, официальное трудоустройство;\n•  оклад от 150 тыс. рублей (net) (сильно зависит от квалификации, потолка нет);\n•  ДМС;\n•  график работы 5/2, полностью удаленную работу.\n89131105342 (telegram)\npolina_hr@mail.ru","markup":[{"type":"hashtag","offset":0,"length":9,"data":"вакансия"},{"type":"hashtag","offset":10,"length":9,"data":"удаленка"},{"type":"hashtag","offset":20,"length":6,"data":"react"},{"type":"hashtag","offset":27,"length":9,"data":"frontend"},{"type":"link","offset":2988,"length":11,"data":"tel:89131105342"},{"type":"link","offset":3011,"length":17,"data":"mailto:polina_hr@mail.ru"}],"date":"2020-04-05T14:32:50+00:00","link":"tg://resolve?domain=javascript_jobs_feed&post=15435","tags":[{"name":"javascript"},{"name":"reactjs"},{"name":"dotnet"},{"name":"redux"},{"name":"git"},{"name":"webpack"},{"name":"npm"},{"name":"react-redux"}],"cities":[],"allowsRemote":true}},{"node":{"__typename":"Job","id":"1417674752-1001091028994","title":"Java разработчик","text":"#java #middle #москва #офис #fulltime частично #remote \n\nКомпания: BPC, проект \"Рунет Бизнес Системы\"\nформат работы: офис\nзанятость: full time, есть возможность частично работать remote \nлокация: Москва, (м. Курская/Чкаловская) \nЗ/п: 150 - 200к Net \n\n🌏Компания \"Рунет Бизнес Системы\" входит в группу компаний BPC Банковские Технологии и специализируется на предоставлении услуг интернет-эквайринга.  \nКлиенты РБС - это крупнейшие банки и компании России: Сбербанк РФ, Альфа-Банк, Аэрофлот, Открытие, группа ВТБ и многие другие. На текущий момент у РБС полтора десятка экземпляров платёжного шлюза для банков, где топовые инстансы дают в среднем 250 транзакций в секунду. \n\nРебята постоянно развивают внутренние процессы, сохраняя гибкость в управлении растущим числом проектов. Код-ревью всех изменений, agile-подход к разработке (примерно Scrumban), continuous integration и автоматизация тестирования помогают им контролировать и синхронизировать работу команд разработки, тестирования и внедрения.\n\nВ данный момент команды в поисках Middle Java разработчиков, коллеги готов гибко рассматривать кандидатов с опытом от 2 лет. \n\n🔸Технологический стэк команды:\nJava 11 (Stream API), java.util.concurrent, Stream REST API, Spring (boot, MVC, JDBC), Hibernate, Gradle, Kafka, Git, Maven. \n\n🔹Взамен компания готова предоставить:\n- оформление трудовых отношений в соответствии с ТК РФ: \"белую\" конкурентоспособную зарплату, оплату больничных и отпусков;\n- ДМС, включая стоматологию, участие в программах корпоративного кредитования и страхования;\n- возможность карьерного роста, обучения в корпоративном Университете и посещения внешних тренингов;\n- гибкое начало рабочего дня и крутые корпоративные мероприятия;\n- комфортный офис в шаговой доступности от метро Курская/Чкаловская. Бонусом - красивый вид из окна, тишина, чай и сэндвичи, пятница – фруктовый день 🙂 \n\nКонтакты: \ne-mail: valeriya@luckyhunter.io\ntelegram: @sobolevavalery\nБуду рада ответить на все вопросы и рассказать подробнее о компании 😊","markup":[{"type":"hashtag","offset":0,"length":5,"data":"java"},{"type":"hashtag","offset":6,"length":7,"data":"middle"},{"type":"hashtag","offset":14,"length":7,"data":"москва"},{"type":"hashtag","offset":22,"length":5,"data":"офис"},{"type":"hashtag","offset":28,"length":9,"data":"fulltime"},{"type":"hashtag","offset":47,"length":7,"data":"remote"},{"type":"link","offset":1885,"length":23,"data":"mailto:valeriya@luckyhunter.io"},{"type":"handle","offset":1919,"length":15,"data":"sobolevavalery"}],"date":"2020-04-03T15:11:11+00:00","link":"tg://resolve?domain=jvmjobs&post=1352","tags":[{"name":"java"},{"name":"jvm"},{"name":"dotnet"},{"name":"rest"},{"name":"spring"},{"name":"jdbc"},{"name":"hibernate"},{"name":"gradle"},{"name":"kafka"},{"name":"git"},{"name":"maven"},{"name":"continuous-integration"},{"name":"spring-boot"}],"cities":[{"code":"moscow"}],"allowsRemote":true}}]}}},"context":{}}