{"hash":"f5f6bf98bd95e769321482904cbbd488f77922fd","data":{"records":{"id":"git","name":"git","belongsTo":{"totalCount":273,"pageInfo":{"totalPages":28,"currentPage":14},"edges":[{"node":{"__typename":"Job","id":"103550025728-1001089317451","title":"Qa инженер","text":"Специалист по тестированию в Instories \nhttps://instoriesapp.com/\nмобильное приложение для маркетологов, SMM-специалистов и блогеров. \n\n     Тебе предстоит:\nТестировать новые версии продуктов (Android и iOS); \nПроверять качество исправления дефектов;\nПроводить функциональные/smoke/регрессионные тесты;\nПринимать билды перед релизами;\nПроверять дефекты от пользователей на актуальность;\nМониторить отчеты об ошибках и сбоях;\nРаботать над тестовой документацией;\nПредусмотрено активное взаимодействие с командой: разработка, дизайн, продакт-менеджмент, поддержка пользователей.\n\n       Мы ожидаем от успешного кандидата: \n\nОпыт тестирования нативных мобильных приложений от 6 месяцев; \nУмения составлять тестовую документацию;\nПонимание Git-Flow и умение пользоваться git;\nПонимание принципов клиент-серверного взаимодействия;\nРабота с ПО:  Firebase Crashlytics, Android Studio, Xcode, Figma.\n\nЗП от 35к/мес\n#удаленка #вакансия #тестирование #фултайм\n@Instories","markup":[{"type":"link","offset":40,"length":25,"data":"https://instoriesapp.com/"},{"type":"hashtag","offset":907,"length":9,"data":"удаленка"},{"type":"hashtag","offset":917,"length":9,"data":"вакансия"},{"type":"hashtag","offset":927,"length":13,"data":"тестирование"},{"type":"hashtag","offset":941,"length":8,"data":"фултайм"},{"type":"handle","offset":950,"length":10,"data":"Instories"}],"date":"2020-06-23T15:18:30+00:00","link":"tg://resolve?domain=qa_jobs&post=98753","tags":[{"name":"qa"},{"name":"android"},{"name":"ios"},{"name":"git"},{"name":"firebase"},{"name":"xcode"},{"name":"android-studio"}],"cities":[],"allowsRemote":true}},{"node":{"__typename":"Job","id":"71877787648-1001054966032","title":"Ios разработчик","text":"#вакансия #IOS разработчик #ObjectiveC\n\nРабота в офисе или УД\nЗП от 120 000 до 240 000 руб. на руки\nг. Москва\n\nМы ищем коллегу iOS-разработчика в команду, основными задачами которой является разработка приложений для ведущих операторов сотовой связи, компаний в сфере финансов и телекоммуникаций. \n \nДолжностные обязанности: \n∙ Разработка и поддержка новых приложений;\n∙ Поддержка имеющихся приложений;\n∙ Создание библиотек;\n∙ Верстка по макетам с нарезкой. \n \nНеобходимые навыки: \n∙ Опыт работы от 2-х лет;\n∙ Наличие законченных проектов; \n∙ Уверенное знание iOS SDK 7+;\n∙ Опыт разработки кастомных UI; \n∙ Опыт работы с анимацией;\n∙ Опыт работы с push-нотификациями, сетью, базами данных, структурами данных;\n∙ Опыт работы с Git;\n∙ Хорошее знание ООП и паттернов проектирования;\n∙ Умение разбираться в чужом коде. \n \nБудет плюсом: \n∙ Опыт работы с другими языками программирования;\n∙ Опыт работы с MVVM;\n∙ Опыт публикации приложений в App Store;\n∙ Знание классических алгоритмов и структур данных. \n \nМы предлагаем: \n∙ Достойную заработную плату;\n∙ График работы понедельник-пятница 9.00-18.00;\n∙ Дружный коллектив, творческая самостоятельность в работе.\n\nКомпания ИММО – VAS-интегратор, ведущий поставщик сервисов для операторов связи. \nМы сотрудничаем с более чем 60 операторами сотовой связи в 14 странах.\nМы разрабатываем, внедряем и развиваем высокотехнологичные сервисы «под ключ».\nНаши партнеры – операторы мобильной и фиксированной связи, производители мобильных и сетевых устройств нового поколения, ведущие социальные сети, поставщики и производители технологических VAS-решений, Правообладатели (Universal, Sony, Warner, EMI, Disney).\n\ntel: +7(985)896-83-99\nhr@immo.ru","markup":[{"type":"hashtag","offset":0,"length":9,"data":"вакансия"},{"type":"hashtag","offset":10,"length":4,"data":"IOS"},{"type":"hashtag","offset":27,"length":11,"data":"ObjectiveC"},{"type":"link","offset":1653,"length":16,"data":"tel:+7(985)896-83-99"},{"type":"link","offset":1670,"length":10,"data":"mailto:hr@immo.ru"}],"date":"2020-06-23T14:08:24+00:00","link":"tg://resolve?domain=mobile_jobs&post=68548","tags":[{"name":"mobile"},{"name":"ios"},{"name":"git"},{"name":"mvvm"}],"cities":[{"code":"moscow"}],"allowsRemote":false}},{"node":{"__typename":"Job","id":"103540588544-1001089317451","title":"Qa инженер","text":"#вакансия #fulltime #Middle #Manual #Auto #Functional #Regression #RoR #Vue\n\nО компании:\nhttplab.ru\nРазработка и консалтинг Ruby on Rails проектов.\nМы — небольшая команда Rails–разработчиков. Не любим бюрократию и предпочитаем работать маленьким коллективом, где каждый человек незаменим.\n\nВ основном работаем с проектами, автоматизирующими интернет-маркетинг B2B (зарубежный рынок).\n\nЗарплатная вилка:\nот 60 000 RUB до 110 000\n\nТип работы:\nПолный рабочий день\n\nТип занятости:\nОфис, Ростов-на-Дону\nМожно удаленно\n\nОписание вакансии:\nРазрабатываем веб-приложения для автоматизации рутинных задач бизнеса, например, колл-центр, CRM для рекламных агентств, аналитические системы. Нам приходится работать с очень сложной бизнес–логикой, и ее сложными настройками, отображать разнородные данные и формировать отчеты.\n\nОбязанности:\n• Налаживание процесса тестирования продукта;\n• Проведение функционального, регрессионного и интеграционного тестирования;\n• Обнаружение, описание и отслеживание дефектов в работе приложения;\n• Контроль исправления ошибок.\n\nНаш стек:\nRuby on Rails, Vue\n\nТребования:\n• English (взаимодействие с разработчиками и менеджером);\n• Linux;\n• Git;\n• SQL;\n• Ruby on Rails;\n• Vue.\n\nБудут плюсом:\n• Docker;\n• Понимание принципов работы CI/CD;\n• Разработка скриптов тестирования для типовых задач.\n\nУсловия работы:\n• Уютный офис в самом центре;\n• Полный 9–часовой рабочий день;\n• Гибкий график (с 7.00 до 16.00, с 12.00 до 21.00, ...);\n• Дружная команда, демократичная атмосфера;\n• Участие в разработке систем федерального масштаба.\n\nДополнительные инструкции:\nПрислать CV, сообщить удобное время для собеседования\nУдобнее всего, если оставите отклик тут: https://career.habr.com/vacancies/1000058890\n\nКонтакты:\ninfo@httplab.ru, @flggg","markup":[{"type":"hashtag","offset":0,"length":9,"data":"вакансия"},{"type":"hashtag","offset":10,"length":9,"data":"fulltime"},{"type":"hashtag","offset":20,"length":7,"data":"Middle"},{"type":"hashtag","offset":28,"length":7,"data":"Manual"},{"type":"hashtag","offset":36,"length":5,"data":"Auto"},{"type":"hashtag","offset":42,"length":11,"data":"Functional"},{"type":"hashtag","offset":54,"length":11,"data":"Regression"},{"type":"hashtag","offset":66,"length":4,"data":"RoR"},{"type":"hashtag","offset":71,"length":4,"data":"Vue"},{"type":"bold","offset":77,"length":19,"data":""},{"type":"link","offset":89,"length":7,"data":"http://httplab.ru/"},{"type":"link","offset":96,"length":3,"data":"http://httplab.ru/"},{"type":"bold","offset":385,"length":18,"data":""},{"type":"bold","offset":429,"length":12,"data":""},{"type":"bold","offset":462,"length":15,"data":""},{"type":"bold","offset":514,"length":19,"data":""},{"type":"bold","offset":813,"length":12,"data":""},{"type":"bold","offset":1050,"length":10,"data":""},{"type":"bold","offset":1080,"length":12,"data":""},{"type":"bold","offset":1198,"length":14,"data":""},{"type":"bold","offset":1313,"length":16,"data":""},{"type":"bold","offset":1548,"length":27,"data":""},{"type":"link","offset":1670,"length":44,"data":"https://career.habr.com/vacancies/1000058890"},{"type":"bold","offset":1716,"length":9,"data":""},{"type":"link","offset":1726,"length":15,"data":"mailto:info@httplab.ru"},{"type":"handle","offset":1743,"length":6,"data":"flggg"}],"date":"2020-06-23T14:01:57+00:00","link":"tg://resolve?domain=qa_jobs&post=98744","tags":[{"name":"qa"},{"name":"ruby-on-rails"},{"name":"vuejs"},{"name":"ruby"},{"name":"linux"},{"name":"git"},{"name":"sql"},{"name":"docker"}],"cities":[{"code":"rostov"}],"allowsRemote":true}},{"node":{"__typename":"Job","id":"71875690496-1001054966032","title":"Ios разработчик","text":"❗️Вакансия IOS разработчик❗️\n#вакансия     #IOS   #офис\n\nГород: Санкт-Петербург\nФормат работы: офис\nЗанятость: полная\n💰ЗП: от 180 до 210\nКомпания: ООО Липтсофт\n\nОбязанности:\n✔️Разработка нативных iOS приложений (МБ для физ.лиц)\n✔️Обсуждение функционала и требований с разработчиками, дизайнерами, менеджерами проектов\n\nОпыт и навыки:\n- Swift от 1 года коммерческой разработки\n- REST, TCP, HTTPS(handshake, certificate, MITM understanding)\n- IB, Autolayout, Верстка из кода, SwiftUI + Combine\n- MVC, MVVM\n- ООП, SOLID, Design Patterns.\n- Multithreading (GCD, NSOperationQueue)\n- Git\n\nНаше предложение:\n✅белая заработная плата, премии и индексации;\n✅ДМС (включая стоматологию)\n✅компенсация занятий спортом;\n✅корпоративный английский в офисе;\n✅оплата курсов и участия в конференциях;\n✅гибкое начало рабочего дня с 9.00 до 11.00;\n✅комфортный офис в БЦ \"Санкт-Петербург Плаза\", м. Новочеркасская\";\n✅отсутствие дресс-кода;\n✅теннисный стол, снеки в офисе\n\nРезюме и любые вопросы присылайте @e_zharova или на почту e.zharova@lipt-soft.ru","markup":[{"type":"hashtag","offset":29,"length":9,"data":"вакансия"},{"type":"hashtag","offset":43,"length":4,"data":"IOS"},{"type":"hashtag","offset":50,"length":5,"data":"офис"},{"type":"handle","offset":984,"length":10,"data":"e_zharova"},{"type":"link","offset":1008,"length":22,"data":"mailto:e.zharova@lipt-soft.ru"}],"date":"2020-06-23T13:29:40+00:00","link":"tg://resolve?domain=mobile_jobs&post=68546","tags":[{"name":"mobile"},{"name":"ios"},{"name":"swift"},{"name":"rest"},{"name":"mvvm"},{"name":"git"}],"cities":[],"allowsRemote":false}},{"node":{"__typename":"Job","id":"1724907520-1001091028994","title":"Java разработчик","text":"#вакансия #java #Spring #middle #senior #офиc #backend #Москва #СПБ, #Екатеринбург #Ростов-на Дону #удаленно\n👋Приглашаем middle/senior Java Developer в новый проект от Сбербанка.\n\n💸Уровень ЗП: от 220 000 до 280 000 руб. net. (обсуждается!).\n\n✍🏻Оформление: штат компании партнера или ИП.\n\n📍Локация: офис (Москва Кутузовский пр-т 32/1). Или удалено с возможностью посещать офис: СПБ, Екатеринбург, Ростов-на Дону.\n\n🏢О проекте: В рамках стратегической программы «Создание платформы поддержки развития бизнеса» наша команда разрабатывает линейку продуктов Cash Management. Продукта корпоративного блока, предоставляющий функции управления финансовыми потоками для предприятий и корпораций с развитой филиальной сетью. Линейка продуктов содержит порядка 10 продуктов, направленных на управление всеми счетами холдинга единым казначейством. Основная задача – перевод линейки продуктов из Legacy АС на целевые платформы банка и перевод управления продуктами в удаленные каналы обслуживания.\n\n🎯Ваши будущие задачи :\n- проектирование решения, в том числе разработка детальной внутренней архитектуры сервиса, включая интеграционные сценарии;\n- детальное проектирование интеграции со смежными сервисами (в том числе API);\n- разработка программного продукта, внесение изменений в код;\n- разработка автоматических модульных тестов, автоматических скриптов и тестов развертывания.\n\n🤝Мы ожидаем от вас:\n• знание принципов ООП, методологий разработки, шаблонов проектирования;\n• уверенное владение Java 7+, Spring;\n• опыт работы с СУБД, опыт проектирования модели данных;\n• проактивная позиция, хорошие коммуникативные навыки;\n• умение работать с чужим кодом.\n• желательно опыт работы с react-js, Java Script.\n\nЖду Ваши резюме и буду рада ответить на все вопросы. Прекрасного дня!☺️\nКонтакты для связи: telegram @anisimovaane4ka\n\n#вакансия #java #Spring #middle #офиc #backend #Москва #удаленно\n📣Приглашаем Middle Java Developer в новый проект от Сбербанка.\n\n💸Уровень ЗП: от 180 000 до 270 000 руб. net. (обсуждается!).\n\n✍🏻Оформление: штат компании партнера или ИП.\n\n📌Локация: Удаленно или офис (Москва Кутузовский пр-т 32/1).\n\n🏢О проекте: Транзакционные кредитные продукты. Наша команда состоит из профессионалов и создает лучшие Кредитные карты на рынке. На платформе ППРБ мы разрабатываем принципиально новую back-office систему, которая позволит запускать продукты и сервисы с минимальным time-to-market. Технологический стек позволяет поддерживать высокую производительность, надежность и безопасность работы пользователей. Хранение данных в БД Oracle. Критичность системы – 24/7, обеспечение которой также заслуга раздельной кластеризации решений на всех уровнях: хранение данных, очереди сообщений, кластеры прикладных модулей.\n\n🎯Задачи разработчика:\n- разработка backend продукта процессинга кредитных карт (функционал кредитного продукта);\n- разработка обновлений, миграций данных и решение других backend задача.\n\n✅Наш стек:∙ Java 1.8; Spring 5 (Core, Boot, JMS, MVC, JdbcTemplate, REST); Hibernate; JUnit (Mockito); MQ (IM WS MQ, Kafka + ZooKeeper); Linux (RedHat); Application Server - Wildfly; Git, Bitbucket, Nexus, Jira, Confluence; CI: Maven, Jenkins, SonarQube, CheckMarx; IntelliJ IDEA.\n\n🤝Мы ожидаем от вас:\n- глубокие знания JavaSE 1.8;\n- понимание принципов OOP, принципов проектирования классов, шаблонов проектирования;\n- понимание принципов разработки REST сервисов;\n- желательно знания SQL и опыт работы с Oracle DB 12.2.\n\nЖду Ваши резюме и буду рада ответить на все вопросы. Прекрасного дня!☺️\nКонтакты для связи: telegram @anisimovaane4ka","markup":[{"type":"hashtag","offset":0,"length":9,"data":"вакансия"},{"type":"hashtag","offset":10,"length":5,"data":"java"},{"type":"hashtag","offset":16,"length":7,"data":"Spring"},{"type":"hashtag","offset":24,"length":7,"data":"middle"},{"type":"hashtag","offset":32,"length":7,"data":"senior"},{"type":"hashtag","offset":40,"length":5,"data":"офиc"},{"type":"hashtag","offset":46,"length":8,"data":"backend"},{"type":"hashtag","offset":55,"length":7,"data":"Москва"},{"type":"hashtag","offset":63,"length":4,"data":"СПБ"},{"type":"hashtag","offset":69,"length":13,"data":"Екатеринбург"},{"type":"hashtag","offset":83,"length":7,"data":"Ростов"},{"type":"hashtag","offset":99,"length":9,"data":"удаленно"},{"type":"handle","offset":1803,"length":16,"data":"anisimovaane4ka"},{"type":"hashtag","offset":1821,"length":9,"data":"вакансия"},{"type":"hashtag","offset":1831,"length":5,"data":"java"},{"type":"hashtag","offset":1837,"length":7,"data":"Spring"},{"type":"hashtag","offset":1845,"length":7,"data":"middle"},{"type":"hashtag","offset":1853,"length":5,"data":"офиc"},{"type":"hashtag","offset":1859,"length":8,"data":"backend"},{"type":"hashtag","offset":1868,"length":7,"data":"Москва"},{"type":"hashtag","offset":1876,"length":9,"data":"удаленно"},{"type":"handle","offset":3546,"length":16,"data":"anisimovaane4ka"}],"date":"2020-06-23T13:23:27+00:00","link":"tg://resolve?domain=jvmjobs&post=1645","tags":[{"name":"java"},{"name":"jvm"},{"name":"spring"},{"name":"dotnet"},{"name":"reactjs"},{"name":"oracle"},{"name":"rest"},{"name":"hibernate"},{"name":"junit"},{"name":"kafka"},{"name":"linux"},{"name":"git"},{"name":"maven"},{"name":"jenkins"},{"name":"sonarqube"},{"name":"sql"},{"name":"intellij-idea"}],"cities":[{"code":"moscow"},{"code":"rostov"}],"allowsRemote":true}},{"node":{"__typename":"Job","id":"103520665600-1001089317451","title":"Qa engineer","text":"#Москва #вакансия #QA #manual  #python\n\nДолжность: QA Engineer \nКомпания: Andromeda Lab\nЗП: до 120 000 \nФормат работы: офис, гибкое начало дня\nЗанятость: полная\n\n\nКого мы ищем:\nЧеловека который готов заниматься ручным тестированием 80% времени и 20% времени - автоматизацией. Со временем доля автоматизации вырастет до 50%. \nЕсли у вас не хватает каких-то скиллов - готовы учить и помогать развиваться. Мы очень ценим проактивность и готовность менять все вокруг себя. \n\nЗадачи:\n- Тестирование ERP-системы (состоит из более чем 40 приложений, объединенные в одну экосистему)\n- Введение документации для тестирования (Создание тест-кейсов, чек-листов и т.д.)\n- Тестирование мобильного приложения \n- Тестирование API\n- Участие в автоматизации тестирования продуктов компании\n\nОбязанности:\n- Понимание жизненного цикла разработки продукта\n- Знание теории и видов тестирования,  умение вести тестовую документацию;\n- Умение локализовать баги и оформлять баг репорты\n- Понимание и умение применять техники тест-дизайна\n- Тестирование API\n- Опыт использование Postman\n- Понимание мобильного тестирования \n- Знание и умение пользования командной строкой UNIX\n- Знание SQL (простые запросы), Git\n- Умение использовать снифферы (Charles,Fiddler и т.д.)\n- Понимание как работать с Docker\n- Начальные знания Python либо желание выучить в ближайшее время\n\nПредлагаем:\n- белая зп (до 120 000, зависит от опыта);\n- уютный офис в Moscow City (сладости, печенки,кофе\\чай,PS4 и т.д.);\n- ДМС,  курсы английского, участие в конференциях. \n\nРезюме скидывать в лс.","markup":[{"type":"hashtag","offset":0,"length":7,"data":"Москва"},{"type":"hashtag","offset":8,"length":9,"data":"вакансия"},{"type":"hashtag","offset":18,"length":3,"data":"QA"},{"type":"hashtag","offset":22,"length":7,"data":"manual"},{"type":"hashtag","offset":31,"length":7,"data":"python"}],"date":"2020-06-23T11:23:15+00:00","link":"tg://resolve?domain=qa_jobs&post=98725","tags":[{"name":"qa"},{"name":"python"},{"name":"unix"},{"name":"sql"},{"name":"git"},{"name":"docker"}],"cities":[{"code":"moscow"}],"allowsRemote":false}},{"node":{"__typename":"Job","id":"103514374144-1001089317451","title":"Qa engineer","text":"#вакансия #работа #удалёнка #fulltime #qa\n\nДолжность : QA Engineer\nКомпания : 6nomads.com\nФормат работы: #fulltime #remote\nЗарплата: 100-140 тыс рублей\n\nКто? \nБританский сервис с русскими корнями. Банковский помощник, который своей гибридной моделью автоматизации меняет скучный английский рынок платежных сервисов, лишает его бумажной составляющей и бюрократии, а заодно оставляет без работы бухгалтеров.\n\nЧто предлагают?\n- Заработная плата в фунтах (100-140 тыс рублей);\n- Командировки в Лондон и Кардифф;\n- Возможность релокации в Великобританию;\n- Работа в одном из офисов (Москва, Екатеринбург, Лондон и Кардифф) или удаленно;\n- Обучение и рост внутри компании, помощь в смене профиля на бэкенд, датасайнс или мобильную разработку при желании. \n\nЧто делать?    \n- Проектирование новых фич вместе с командой;\n- Написание тестовых сценариев;\n- Ручное тестирование (+немного автоматизации Python, appium);\n- Проведение регрессионного тестирования перед релизом;      \n- Создание отчетов по ошибкам и контроль их исправления;\n\nТребования:\n- Противобаговый иммунитет\n- Опыт поиска UI/UX дефектов \n- Английский не ниже Intermediate\n\nЧто тестировать?\ni​OS app, Android App, backend, web.                \nСтек: ​\nKaiten, Testrail, Git, TeamCity, Miro, Zeplin.\n\nКонтакт для связи: @temnik_sofya","markup":[{"type":"hashtag","offset":0,"length":9,"data":"вакансия"},{"type":"hashtag","offset":10,"length":7,"data":"работа"},{"type":"hashtag","offset":18,"length":9,"data":"удалёнка"},{"type":"hashtag","offset":28,"length":9,"data":"fulltime"},{"type":"hashtag","offset":38,"length":3,"data":"qa"},{"type":"link","offset":78,"length":11,"data":"http://6nomads.com"},{"type":"hashtag","offset":105,"length":9,"data":"fulltime"},{"type":"hashtag","offset":115,"length":7,"data":"remote"},{"type":"handle","offset":1280,"length":13,"data":"temnik_sofya"}],"date":"2020-06-23T10:26:42+00:00","link":"tg://resolve?domain=qa_jobs&post=98719","tags":[{"name":"qa"},{"name":"python"},{"name":"android"},{"name":"web"},{"name":"git"}],"cities":[{"code":"london"},{"code":"moscow"}],"allowsRemote":true}},{"node":{"__typename":"Job","id":"103513325568-1001089317451","title":"Qa инженер","text":"#вакансия #спб #питер #fulltime #QALead\n\n🚀Старший тестировщик/ QA Lead (в офис)\n120-160k\n\nО компании:\nНаПоправку.Ру - медицинский онлайн-сервис: поиск врача по отзывам и real time запись на приём в частные и государственные клиники. Именно мы партнеры суперприложения Тинькофф в блоке «Здоровье». Мы помогаем более 1 млн. пользователей в месяц. Сайт + сейчас создаём первое приложение (нативное).\n\nЦель должности:\n🔸Настроить процесс тестирования, предлагать и внедрять инструменты чтобы повышать эффективность тестов;\n🔸Запустить автотесты;\n🔸Формировать и развивать команду (сейчас 4 тестировщика и 15 разработчиков);\n🔸Тестировать сайт и мобильное приложение;\n🔸Не позволять багам просачиваться на прод и расстраивать пользователей.\n\nПочему точно стоит идти к нам:\n🔸Возможность выстроить и наладить процесс, сделать «как надо»;\n🔸 Социально-значимый проект, его пользователи - простые люди как ты и я;\n🔸Гибкое начало рабочего дня (с 8 до 11);\n🔸Официальное оформление и «белая» зарплата;\n🔸ДМС;\n🔸У нас есть софинансирование командных активностей;\n🔸Программа опционов для ключевых сотрудников;\n🔸Офис (в нем снеки и прочее) на ВО;\nЗарплата:\n🔸Гибко обсуждаем, вилка 120-160k\n\nЧего мы ждём от тебя:\n🔸Высшее техническое образование, курсы по тестированию;\n🔸Более 2х лет работал/а в IT-компаниях с хорошо выстроенным процессом тестирования, есть опыт автоматизации;\n🔸Работал/а с Git, Docker, SSH, Selenium, Jenkins;\n🔸Внимателен/а к деталям, требователен/а к себе и окружающим.\n\nВопросы и резюме к @Vasilisa_bu","markup":[{"type":"hashtag","offset":0,"length":9,"data":"вакансия"},{"type":"hashtag","offset":10,"length":4,"data":"спб"},{"type":"hashtag","offset":15,"length":6,"data":"питер"},{"type":"hashtag","offset":22,"length":9,"data":"fulltime"},{"type":"hashtag","offset":32,"length":7,"data":"QALead"},{"type":"bold","offset":43,"length":46,"data":""},{"type":"bold","offset":91,"length":10,"data":""},{"type":"bold","offset":103,"length":14,"data":""},{"type":"bold","offset":398,"length":15,"data":""},{"type":"bold","offset":737,"length":31,"data":""},{"type":"bold","offset":1138,"length":8,"data":""},{"type":"bold","offset":1182,"length":21,"data":""},{"type":"bold","offset":1485,"length":19,"data":""},{"type":"handle","offset":1505,"length":12,"data":"Vasilisa_bu"}],"date":"2020-06-23T10:10:12+00:00","link":"tg://resolve?domain=qa_jobs&post=98718","tags":[{"name":"qa"},{"name":"git"},{"name":"docker"},{"name":"ssh"},{"name":"selenium"},{"name":"jenkins"}],"cities":[],"allowsRemote":false}},{"node":{"__typename":"Job","id":"71850524672-1001054966032","title":"Ios developer","text":"#вакансия #Москва #офис #релокация #ios #swift\n\n\nВакансия: iOS Developer (Junior/Middle/Senior) в компанию Mafin\n\nО компании: Mafin.ru - это онлайн-платформа персональных страховых сервисов. Insurtech старап компании \"АбсолютТех\", получивний инвестирование в размере $50 млн.\nГео: Москва\nФормат: Офис\nВилка: 60 000 - 240 000 Р/мес\n\nТребования: \n● Опыт разработки приложений под iOS от 1 года\n● Отличное знание Objective-C или Swift\n● Проектирование интерфейса без Xib и StoryBoard\n● Опыт разработки клиент-серверных приложений\n● Опыт разработки многопоточных приложений\n● Опыт работы с Core Data - инструмент для БД\n● Умение работать с CocoaPods (библиотеки для реализации задач)\n● Знание Git\n● Знание HTTP/S, REST API, JSON\n\nДополнительные навыки:\n● Понимание принципов UX/UI и Human Interface Guidelines\n● Опыт работы с Figma\n\nБудет плюсом:\n● Опыт C/С++/Python\n● Наличие приложений, опубликованных в AppStore\n● Опыт написания тестов\n\nУсловия: \n● НС с первого рабочего дня, ДМС по истечении испытательного срока (3 месяца);\n● Skyeng скидка 50% (в том числе занятия с носителями языка);\n● Новый красивый офис в тренде современных IT компаний с капсулами для сна и уютной кухней;\n● Бесплатное обучение; доступ к онлайн-библиотеке;\n● Работа по методологии Agile, scrum\n● Огромное количество корпоративных мероприятий\n● Гибкое начало рабочего дня до 11-00\n● Есть релокационный пакет\n● График работы 5\\2, офис 2 дня в неделю на время ограничительных мер \n\nДля оперативной связи пишите: @rudenko_telegram","markup":[{"type":"hashtag","offset":0,"length":9,"data":"вакансия"},{"type":"hashtag","offset":10,"length":7,"data":"Москва"},{"type":"hashtag","offset":18,"length":5,"data":"офис"},{"type":"hashtag","offset":24,"length":10,"data":"релокация"},{"type":"hashtag","offset":35,"length":4,"data":"ios"},{"type":"hashtag","offset":40,"length":6,"data":"swift"},{"type":"bold","offset":49,"length":9,"data":""},{"type":"bold","offset":114,"length":12,"data":""},{"type":"link","offset":126,"length":8,"data":"http://Mafin.ru"},{"type":"bold","offset":276,"length":4,"data":""},{"type":"bold","offset":288,"length":8,"data":""},{"type":"bold","offset":301,"length":7,"data":""},{"type":"bold","offset":332,"length":13,"data":""},{"type":"bold","offset":726,"length":23,"data":""},{"type":"bold","offset":829,"length":14,"data":""},{"type":"bold","offset":936,"length":7,"data":""},{"type":"handle","offset":1482,"length":17,"data":"rudenko_telegram"}],"date":"2020-06-23T09:25:42+00:00","link":"tg://resolve?domain=mobile_jobs&post=68522","tags":[{"name":"mobile"},{"name":"ios"},{"name":"swift"},{"name":"objective-c"},{"name":"cocoapods"},{"name":"git"},{"name":"rest"},{"name":"json"},{"name":"python"},{"name":"core-data"}],"cities":[{"code":"moscow"}],"allowsRemote":false}},{"node":{"__typename":"Job","id":"2241855488-1001134745498","title":"Devops engineer","text":"#вакансия #Москва #infrastructure #lead #офис #DevOps\n\nЛокация: Москва\nФормат работы: офис \nЗанятость: полная \nЗП: 250 000 до 350 000 рублей на руки (компания готова отталкиваться от пожеланий кандидатов) \nВакансия: Lead Infrastructure Engineer\n\n🔹 Avotel существует на российском рынке уже почти 5 лет, сначала возникла лишь идея о том, как создать решение, которое позволит решить проблемы связи для транспорта и объектов, которые сложно подключить обычными технологиями. На сегодняшний день Avotel стала партнером крупнейших представителей в сфере телекома и транспорта, что делает необходимым рост команды. \n\nНа текущий момент команда ищет специалиста, который займет ключевую роль в сетевой/программной инфраструктуре для телеком операторов и больших интернет соединений.\n\nСтек: Linux, Ansible, KVM, Docker, BGP, IP tunnel, Git.\n\n🔹Обязанности:\n— Сопровождение серверной и сетевой инфраструктуры проекта;\n— Расширение и формирование команды;\n\n🔹 Требования:\n—Обширный опыт в качестве Infrastructure Engineer от 6 лет;\n— Опыт работы на Lead позиции от 2 лет; \n— Уверенное владение инструментами динамической и статической маршрутизации;\n— Опыт проектирования сетей на базе Linux и обслуживания сетевой инфраструктуры от 100 серверов;\n— Большим плюсом будет наличие опыта сопровождения “железа”, как, например, в сегментах телекома, транспорта или IoT;\n\n🔹 Контакты:\ne-mail: maria@luckyhunter.io\ntelegram: @Maria_Rey\n\n—\n\n👉 Обсуждение вакансии в чате @devops_jobs","markup":[{"type":"hashtag","offset":0,"length":9,"data":"вакансия"},{"type":"hashtag","offset":10,"length":7,"data":"Москва"},{"type":"hashtag","offset":18,"length":15,"data":"infrastructure"},{"type":"hashtag","offset":34,"length":5,"data":"lead"},{"type":"hashtag","offset":40,"length":5,"data":"офис"},{"type":"hashtag","offset":46,"length":7,"data":"DevOps"},{"type":"link","offset":1378,"length":20,"data":"mailto:maria@luckyhunter.io"},{"type":"handle","offset":1409,"length":10,"data":"Maria_Rey"},{"type":"handle","offset":1454,"length":12,"data":"devops_jobs"}],"date":"2020-06-23T07:45:23+00:00","link":"tg://resolve?domain=devops_jobs_feed&post=2138","tags":[{"name":"linux"},{"name":"ansible"},{"name":"docker"},{"name":"git"}],"cities":[{"code":"moscow"}],"allowsRemote":false}}]}}},"context":{}}