{"hash":"f34fd2c444a074f4e0e67d525015a008ef8e766f","data":{"records":{"id":"redis","name":"redis","belongsTo":{"totalCount":66,"pageInfo":{"totalPages":7,"currentPage":7},"edges":[{"node":{"__typename":"Job","id":"204472320-1001352129329","title":"Go разработчик","text":"#вакансия #СПБ #fulltime \nНазвание компании: Devim \nНазвание вакансии: Tech Lead \nЗарплатная вилка (после налогов в стандартной валюте расчетов компании): 250 000-380 000 RUB\nДоступна ли удалённая работа: Нет, офис, полный день.\nГород: Санкт-Петербург \nСписок языков, которые необходимо знать: Русский, Английский \n\nTechStack: PHP, Go, PostgreSQL, RabbitMQ, GRPC, Consul, Docker, Redis, Prometheus, Gitlab-CI, Kubernetes.\n • умение работать в условиях постоянных изменений, быстрая реакция на них и коммуникация с командой;\n\n • менторство;\n\n • умение понятно ставить задачи внутри разработки, четко отслеживать процесс их выполнения;\n\n • умеете писать чистый, понятный и поддерживаемый код на PHP и Go, чтобы оценивать код, который пишет команда;\n\n • опытом работы с транспортами (от SOAP до MQ);\n\n • проектирование распределенных систем.\n\nДано: 6 бэкендеров (Go+PHP), техдолг, лёгкая франкенштейнщина на бэке, бизнес хочет всё вчера, команда хочет рефачить, CTO хочет жить.\nНадо: команда х2 в течение полугода, roadmap работы с техдолгом, единый архитектурный подход для разработки нового функционала, баланс между “срочно в релиз” и “ну давайте мы еще полгодика порефачим, а там посмотрим”, счастье, мир и дружбомагия. Тех Лиду кодить не нужно, но нужно понимать, что кодят ребята, и может ли это отхлебнуть в будущем. А вот лидить, менторить и структурировать команду очень нужно.\nКонтактное лицо: Полина - @polina_vel\n Автор @polina_vel","markup":[{"type":"hashtag","offset":0,"length":9,"data":"вакансия"},{"type":"hashtag","offset":10,"length":4,"data":"СПБ"},{"type":"hashtag","offset":15,"length":9,"data":"fulltime"},{"type":"handle","offset":1410,"length":11,"data":"polina_vel"},{"type":"handle","offset":1429,"length":11,"data":"polina_vel"}],"date":"2020-01-14T19:17:01+00:00","link":"tg://resolve?domain=gogetajobfeed&post=195","tags":[{"name":"go"},{"name":"php"},{"name":"postgresql"},{"name":"rabbitmq"},{"name":"docker"},{"name":"redis"},{"name":"gitlab"},{"name":"kubernetes"},{"name":"soap"}],"cities":[],"allowsRemote":true}},{"node":{"__typename":"Job","id":"202375168-1001352129329","title":"Golang разработчик","text":"#вакансия #godeveloper #golang #backend #fulltime #офис #middle #москва\n\nВсем привет! Разыскиваю Go разработчиков, так как появились новые проекты. \n\nСписок необходимых навыков:\n- Golang\n- Docker\n- SQL (В основном Postgres)\n- NoSQL (Redis/Elastic/Couchbase/Mongo/etc.. - зависит от задач)\n- REST/gRPC \n- Kubernetes\n\nЗ/П: 170 000- 230 000 net (обсуждаемо)\nУдаленка: да\nЛокация: Москва, м. Смоленская\nКомпания: МТС ИТ\nКонтакты: @horthekifo \n\nЧто нужно делать?\nРазрабатывать бекенд web-приложения и участвовать в проектировании архитектуры, проводить code review.\n\nНа данный момент есть несколько проектов, куда нужно по одному человеку. Трайб занимается автоматизацией внутренних бизнес-процессов. \n\nЧто мы предлагаем:\n- Белая ЗП, премия 20% от годового оклада;\n- ДМС со стоматологией;\n- Хакатоны, митапы;\n- Гибкое начало рабочего дня;\n- Корпоративная связь, доп. дни ежегодного отпуска;\n- Офис у м. Смоленская (7 мин. пешком).\n\nТут про проекты не пишу, т.к будет много текста, если вы по деньгам ок и по уровню middle/senior - welcome, расскажу про проекты, выберите наиболее интересный.\n Автор @Horthekifo","markup":[{"type":"hashtag","offset":0,"length":9,"data":"вакансия"},{"type":"hashtag","offset":10,"length":12,"data":"godeveloper"},{"type":"hashtag","offset":23,"length":7,"data":"golang"},{"type":"hashtag","offset":31,"length":8,"data":"backend"},{"type":"hashtag","offset":40,"length":9,"data":"fulltime"},{"type":"hashtag","offset":50,"length":5,"data":"офис"},{"type":"hashtag","offset":56,"length":7,"data":"middle"},{"type":"hashtag","offset":64,"length":7,"data":"москва"},{"type":"handle","offset":426,"length":11,"data":"horthekifo"},{"type":"handle","offset":1094,"length":11,"data":"Horthekifo"}],"date":"2020-01-14T11:23:01+00:00","link":"tg://resolve?domain=gogetajobfeed&post=193","tags":[{"name":"go"},{"name":"docker"},{"name":"sql"},{"name":"postgresql"},{"name":"nosql"},{"name":"redis"},{"name":"elasticsearch"},{"name":"rest"},{"name":"kubernetes"},{"name":"dotnet"},{"name":"web"}],"cities":[{"code":"moscow"}],"allowsRemote":false}},{"node":{"__typename":"Job","id":"199229440-1001352129329","title":"Golang developer","text":"#вакансия\n\nGolang backend developer в питерский офис компании Cryptopay (СПб).\n\nУже больше 5 лет Cryptopay помогает людям со всего мира распоряжаться своими криптоактивами. Мы - сильная, слаженная команда, но внезапно потеряли golang-бойца.\n\nЧто нужно будет делать:\n🔸Разработка сервисов для использования их в основном приложении\n🔸Поддержка существующих продуктов на Golang\n🔸Сопровождение проекта от оценки до поддержки\n\nНаши ожидания:\n🔸Отличные знания Golang\n🔸Хорошие знания PostgreSQL\n🔸Опыт работы с: Redis, RabbitMQ, ELK\n🔸Опыт работы с: Docker\n🔸Умение работать с чужим кодом\n🔸Отличная самоорганизация\n\nБудет плюсом:\n🔸Знание/Умение читать код Ruby и Ruby on Rails\n🔸Опыт работы с gRPC\n🔸Опыт работы с NATS\n🔸Опыт профилирования Golang приложений\n🔸Наличие опыта работы с криптовалютами\nОпыт работы с Ansible\n🔸Английский язык, чтобы было комфортней общаться с европейским офисом\n\nТехническая составляющая проекта:\n\nНаш кошелек сейчас проходит этап роста - мы разделяем монолитный проект на микросервисы, переходим на SPA, оптимизируем AWS инфраструктуру. \n\nНаш стэк - #Ruby #RoR #GoLang #PostgreSQL #Sidekiq #Redis #Elasticsearch #gRPC #NATS.\n\nОчень большим плюс будет наличие опыта в финтехе / крипто индустрии.\n\nЗарплата: от 200к на руки (смотрим кандидатов разного уровня, потолка нет) Пусть будут условные 300.\nВозможна удаленная работа после прохождения испытательного срока.\n\nКонтакты: @gonzogirl\n Автор @gonzogirl","markup":[{"type":"hashtag","offset":0,"length":9,"data":"вакансия"},{"type":"hashtag","offset":1080,"length":5,"data":"Ruby"},{"type":"hashtag","offset":1086,"length":4,"data":"RoR"},{"type":"hashtag","offset":1091,"length":7,"data":"GoLang"},{"type":"hashtag","offset":1099,"length":11,"data":"PostgreSQL"},{"type":"hashtag","offset":1111,"length":8,"data":"Sidekiq"},{"type":"hashtag","offset":1120,"length":6,"data":"Redis"},{"type":"hashtag","offset":1127,"length":14,"data":"Elasticsearch"},{"type":"hashtag","offset":1142,"length":5,"data":"gRPC"},{"type":"hashtag","offset":1148,"length":5,"data":"NATS"},{"type":"handle","offset":1404,"length":10,"data":"gonzogirl"},{"type":"handle","offset":1422,"length":10,"data":"gonzogirl"}],"date":"2020-01-10T08:50:26+00:00","link":"tg://resolve?domain=gogetajobfeed&post=190","tags":[{"name":"go"},{"name":"postgresql"},{"name":"redis"},{"name":"rabbitmq"},{"name":"docker"},{"name":"ruby"},{"name":"ruby-on-rails"},{"name":"ansible"},{"name":"amazon-web-services"},{"name":"elasticsearch"}],"cities":[],"allowsRemote":true}},{"node":{"__typename":"Job","id":"198180864-1001352129329","title":"Golang разработчик","text":"#вакансия #СПб #fulltime #Golang #Go  \n\nВакансия: Golang developer\nКомпания: IQ Option\nГород: Санкт-Петербург (ст. метро Новочеркасская)\nФормат работы: #офис\nЗанятость: #полная\nЗарплата (полностью белая): 150 000 - 230 000 ₽ на руки\n\nМы ищем Golang разработчика в команду Client Services. Команда создает и поддерживает жизненно-важные компоненты платформы, среди которых:\n• Системы оповещения пользователей (push, sms, email);\n• Стриминг на клиентские приложения состояния всех сделок пользователя (АКА Портфель);\n• Авторизация на платформе;\n• Механизм, позволяющий проводить AB тестирование новых фич.\n\nТебе предстоит:\n• Разрабатывать новые микросервисы и писать сценарии для их развертывания;\n• Портировать уже существующие микросервисы во внутреннее облако на Kubernetes;\n• Участвовать в написании драйверов для внутренних транспортных систем.\n\nСтек технологий:\n• Kubernetes, Docker, Gitlab CI/CD;\n• Postgres, Redis, Consul;\n• RabbitMQ, GRPC.\n\nМинимальные технические требования:\n• опыт разработки на Golang более двух лет;\n• опыт работы с PostgreSQL.\n\nБудет преимуществом:\n• опыт разработки финансовых сервисов;\n• английский язык на уровне intermediate.\n\nПочему именно мы:\n• трудоустройство согласно ТК РФ;\n• 5/2, гибкое начало рабочего дня;\n• офис класса А+ в 10 мин ходьбы от ст.м. Новочеркасская;\n• отсутствие дресс-кода, бюрократии и т.д.;\n• компенсация питания (оплата обедов, ежедневные завтраки в офисе + кухни на каждом этаже с разнообразной едой);\n• интересные задачи;\n• обширные возможности для профессионального и карьерного роста;\n• ДМС со стоматологией;\n• техническая библиотека;\n• корпоративный фитнес-клуб и массажист на территории БЦ и многое другое.\n\nДополнительные условия для иногородних и иностранных кандидатов: \n• предоставление места проживания за счет компании в первый месяц работы;\n• компенсация переезда;\n• помощь в оформлении документов (для иностранных граждан).\n\nПишите и присылайте резюме: \nEmail: galina.krapivina@iqoption.com\nTelegram: @gala_kr\n Автор @gala_kr","markup":[{"type":"hashtag","offset":0,"length":9,"data":"вакансия"},{"type":"hashtag","offset":10,"length":4,"data":"СПб"},{"type":"hashtag","offset":15,"length":9,"data":"fulltime"},{"type":"hashtag","offset":25,"length":7,"data":"Golang"},{"type":"hashtag","offset":33,"length":3,"data":"Go"},{"type":"hashtag","offset":152,"length":5,"data":"офис"},{"type":"hashtag","offset":169,"length":7,"data":"полная"},{"type":"link","offset":1934,"length":29,"data":"mailto:galina.krapivina@iqoption.com"},{"type":"handle","offset":1974,"length":8,"data":"gala_kr"},{"type":"handle","offset":1990,"length":8,"data":"gala_kr"}],"date":"2020-01-10T08:50:22+00:00","link":"tg://resolve?domain=gogetajobfeed&post=189","tags":[{"name":"go"},{"name":"kubernetes"},{"name":"docker"},{"name":"gitlab"},{"name":"postgresql"},{"name":"redis"},{"name":"rabbitmq"}],"cities":[],"allowsRemote":false}},{"node":{"__typename":"Job","id":"195035136-1001352129329","title":"Golang developer","text":"#вакансия #godeveloper #golang #backtend #fulltime #офис #middle #москва\n\nСписок необходимых навыков:\n- Golang\n- Docker\n- SQL (В основном Postgres)\n- NoSQL (Redis/Elastic/Couchbase/Mongo/etc.. - зависит от задач)\n- REST/gRPC \n- Kubernetes\n\nЗ/П: 170 000- 230 000 net (обсуждаемо)\nУдаленка: нет\nЛокация: Москва, м. Смоленская\nКомпания: МТС ИТ\nКонтакты: @horthekifo \n\nЧто нужно делать?\nРазрабатывать бекенд web-приложения и участвовать в проектировании архитектуры, проводить code review.\n\nНа данный момент есть два проекта, куда нужно по одному человеку. Трайб занимается автоматизацией внутренних бизнес-процессов. \n\nЧто мы предлагаем:\n- Белая ЗП, премия 20% от годового оклада;\n- ДМС со стоматологией;\n- Хакатоны, митапы;\n- Гибкое начало рабочего дня;\n- Корпоративная связь, доп. дни ежегодного отпуска;\n- Офис у м. Смоленская (7 мин. пешком).\n\nТут про проекты не пишу, т.к будет много текста, если вы по деньгам ок и по уровню middle/senior - welcome, расскажу про проекты, выберите наиболее интересный.\n Автор @Horthekifo","markup":[{"type":"hashtag","offset":0,"length":9,"data":"вакансия"},{"type":"hashtag","offset":10,"length":12,"data":"godeveloper"},{"type":"hashtag","offset":23,"length":7,"data":"golang"},{"type":"hashtag","offset":31,"length":9,"data":"backtend"},{"type":"hashtag","offset":41,"length":9,"data":"fulltime"},{"type":"hashtag","offset":51,"length":5,"data":"офис"},{"type":"hashtag","offset":57,"length":7,"data":"middle"},{"type":"hashtag","offset":65,"length":7,"data":"москва"},{"type":"handle","offset":351,"length":11,"data":"horthekifo"},{"type":"handle","offset":1012,"length":11,"data":"Horthekifo"}],"date":"2019-12-23T13:23:38+00:00","link":"tg://resolve?domain=gogetajobfeed&post=186","tags":[{"name":"go"},{"name":"docker"},{"name":"sql"},{"name":"postgresql"},{"name":"nosql"},{"name":"redis"},{"name":"elasticsearch"},{"name":"rest"},{"name":"kubernetes"},{"name":"dotnet"},{"name":"web"}],"cities":[{"code":"moscow"}],"allowsRemote":false}},{"node":{"__typename":"Job","id":"193986560-1001352129329","title":"Golang разработчик","text":"#вакансия #Go #Golang #backend #spb #Спб #fulltime #Python #офис\n\nGo-developer\nКомпания: #Noveo\nЛокация: Санкт-Петербург\nФормат работы: офис\nЗанятость: полная\nВилка: 130.000 – 250.000 рублей net\n\nМы - международная IT компания Noveo, которая занимается заказными разработками софта для крупных европейских компаний. Сейчас мы рады пригласить в команду Go разработчика для работы над проектом одного из наших зарубежных партнеров. Технологии проекта: Golang, Python, PostgreSQL, машинное обучение. \n\n👍Смело откликайся, если:\n\n- ты знаешь Golang и имеешь опыт разработки на нем;\n- можешь поддержать беседу на технические темы на английском языке\n\nТакже здорово, если ты:\n- понимаешь как устроена инфраструктура и используешь Docker в своих проектах;\n- знаешь Python или другие серверные языки программирования;\n- имеешь опыт работы с MongoDB, Redis, RabbitMQ, PostgreSQL;\n\n☕️Что мы предлагаем:\n\n- Достойный уровень заработной платы и ее пересмотр по результатам performance review\n- Официальное трудоустройство, оплачиваемый отпуск и больничные\n- Гибкий график, комфортабельный офис рядом со ст. м. Площадь Ленина (БЦ Петровский форт)\n- Внутреннее обучение, митапы, code-review и прокачка твоих технических навыков\n- Мощный комп для работы + любое количество мониторов по запросу)\n- Курсы английского и французского языков в офисе\n- И другие приятные бонусы (чай/кофе/печеньки, оборудованная офисная кухня, кикер, PS и др.)\n\n📩Отправляй резюме мне @stasya_sot или просто пиши в личку - все обсудим😉\n Автор @stasya_sot","markup":[{"type":"hashtag","offset":0,"length":9,"data":"вакансия"},{"type":"hashtag","offset":10,"length":3,"data":"Go"},{"type":"hashtag","offset":14,"length":7,"data":"Golang"},{"type":"hashtag","offset":22,"length":8,"data":"backend"},{"type":"hashtag","offset":31,"length":4,"data":"spb"},{"type":"hashtag","offset":36,"length":4,"data":"Спб"},{"type":"hashtag","offset":41,"length":9,"data":"fulltime"},{"type":"hashtag","offset":51,"length":7,"data":"Python"},{"type":"hashtag","offset":59,"length":5,"data":"офис"},{"type":"hashtag","offset":89,"length":6,"data":"Noveo"},{"type":"handle","offset":1447,"length":11,"data":"stasya_sot"},{"type":"handle","offset":1506,"length":11,"data":"stasya_sot"}],"date":"2019-12-20T12:27:29+00:00","link":"tg://resolve?domain=gogetajobfeed&post=185","tags":[{"name":"go"},{"name":"python"},{"name":"dotnet"},{"name":"postgresql"},{"name":"docker"},{"name":"mongodb"},{"name":"redis"},{"name":"rabbitmq"}],"cities":[],"allowsRemote":false}}]}}},"context":{}}