{"hash":"f5f6bf98bd95e769321482904cbbd488f77922fd","data":{"records":{"id":"qa","name":"qa","belongsTo":{"totalCount":208,"pageInfo":{"totalPages":21,"currentPage":16},"edges":[{"node":{"__typename":"Job","id":"103199801344-1001089317451","title":"Qa инженер","text":"#вакансия #релокация #Кипр #Лимассол #fulltime \n✔️Developer in Test\n✔️Spotware Systems Ltd (fintech)\n✔️от 2700 евро на руки\n✔️релокация по окончанию карантина и после открытия границ обязательна\n\nТребуется человек который будет заниматься автоматизированным тестированием форекс веб приложения, написанного на  React/ Redux / TypeScript.\n\nОбязанности:\nПрогон автотестов, анализ результатов, заведение / контроль дефектов\nПоддержка и расширение функциональных тестов написанных на TestCafe / Typescript\nПоддержка и расширение перфоманс тестов написанных на Puppeteer / Typescript\nВедение и оптимизация тестовой документации совместно с QA командой в TestRail\nОптимизация процессов тестирования\n\nТребования:\nОтличное знание JS (ES6+), желательно TypeScript\nУмение составлять сложные локаторы на CSS / XPath\nПонимание принципов работы  React/ Redux приложения\nПонимание и опыт работы с Git\nЗнание фундаментальных основ программирования и клиент-серверной архитектуры\n\nБудет плюсом:\n\nОпыт разработки на TypeScript\nОпыт разработки на React + Redux\nЗнание и опыт использования паттернов проектирования\nПонимание методологий тестирования \n\nЗа подробностями в личку 🙂","markup":[{"type":"hashtag","offset":0,"length":9,"data":"вакансия"},{"type":"hashtag","offset":10,"length":10,"data":"релокация"},{"type":"hashtag","offset":21,"length":5,"data":"Кипр"},{"type":"hashtag","offset":27,"length":9,"data":"Лимассол"},{"type":"hashtag","offset":37,"length":9,"data":"fulltime"},{"type":"bold","offset":339,"length":11,"data":""},{"type":"bold","offset":694,"length":10,"data":""},{"type":"bold","offset":965,"length":12,"data":""}],"date":"2020-06-18T14:49:56+00:00","link":"tg://resolve?domain=qa_jobs&post=0","tags":[{"name":"qa"},{"name":"reactjs"},{"name":"redux"},{"name":"typescript"},{"name":"css"},{"name":"git"},{"name":"react-redux"}],"cities":[],"allowsRemote":false}},{"node":{"__typename":"Job","id":"103185121280-1001089317451","title":"Qa инженер","text":"#вакансия #fulltime #офис #москва\n\nНаша компания (ООО Солид Дев) находится в поиске ручного тестировщика (но с желанием развиваться в автоматизации), который будет помогать нам совершенствовать наши продукты и сервисы! \n\nЕсли ты:\n- Тестишь web-приложения уже больше 1 года\n- Имеешь базовые знания SQL и опыт написания автотестов на python\n- Хочешь работать в команде профессионалов и развиваться\n\nТо пиши мне в личку или присылай резюме на почту - soliddevhr@gmail.ru расскажу подробнее про функционал и про наши плюшки)\n\nСтанция м.Бабушкинская\nВилка: от 120 на руки","markup":[{"type":"hashtag","offset":0,"length":9,"data":"вакансия"},{"type":"hashtag","offset":10,"length":9,"data":"fulltime"},{"type":"hashtag","offset":20,"length":5,"data":"офис"},{"type":"hashtag","offset":26,"length":7,"data":"москва"},{"type":"bold","offset":221,"length":8,"data":""},{"type":"bold","offset":397,"length":19,"data":""},{"type":"link","offset":448,"length":19,"data":"mailto:soliddevhr@gmail.ru"},{"type":"bold","offset":522,"length":7,"data":""},{"type":"bold","offset":545,"length":5,"data":""}],"date":"2020-06-18T14:07:39+00:00","link":"tg://resolve?domain=qa_jobs&post=0","tags":[{"name":"qa"},{"name":"web"},{"name":"sql"},{"name":"python"}],"cities":[{"code":"moscow"}],"allowsRemote":false}},{"node":{"__typename":"Job","id":"103178829824-1001089317451","title":"Qa инженер","text":"#вакансия #fulltime #офис #москва\n Ищу ведущего тестировщика  в крупный  интернет- магазин, один из ведущих  в ствоей отрасли. Проекты по развитию информационных систем интернет-магазина, CRM, интеграция с различными маркетплейсами.   \nНужен опыт работы в качестве QA инженера веб-приложений от трех лет.\n Территориально:Москва, м.Кропоткинская.\nВилка: от 140 до 170 000 на руки\n\nРезюме можно присылать на anna-recruitment@mail.ru.","markup":[{"type":"hashtag","offset":0,"length":9,"data":"вакансия"},{"type":"hashtag","offset":10,"length":9,"data":"fulltime"},{"type":"hashtag","offset":20,"length":5,"data":"офис"},{"type":"hashtag","offset":26,"length":7,"data":"москва"},{"type":"link","offset":406,"length":24,"data":"mailto:anna-recruitment@mail.ru"}],"date":"2020-06-18T13:04:08+00:00","link":"tg://resolve?domain=qa_jobs&post=0","tags":[{"name":"qa"}],"cities":[{"code":"moscow"}],"allowsRemote":false}},{"node":{"__typename":"Job","id":"103177781248-1001089317451","title":"Qa engineer","text":"#вакансия #job #QA #QAEngineer #Кипр #Cyprus #Limassol #relocate #fulltime #wisebits\n\nВ нашем холдинге открыты 2 вакансии Senior Automation QA Engineer. В текущей ситуации начинаем сотрудничать удаленно и как только границы будут открыты,🛬 welcome to Cyprus!\n\nКомпания: Wisebits \nГород: Лимассол, Кипр \nЗ.п.: до 4 000€ net\n\n📎1 проект-Автоматизация тестов для UI с использованием PHP, Selenium WebDriver, Codeception\n📎 2 проект- Автоматизация UI с использованием Java, Selenium WebDriver\n\nНам важен опыт:\n✔ Автоматизации  тестирования web-приложений, используя Selenium WebDriver\n✔ Тестирования веб приложений от 4 лет:\n\n\nМы предлагаем:\nПолностью белый оклад: на старте до 4000€ в месяц после вычета всех налогов, официальное оформление (рабочая виза);\nМедицинская страховка;\nРелокационый пакет;\nПрограмма компенсации детского сада/школы\n\n\nДетали @YaMy04","markup":[{"type":"hashtag","offset":0,"length":9,"data":"вакансия"},{"type":"hashtag","offset":10,"length":4,"data":"job"},{"type":"hashtag","offset":15,"length":3,"data":"QA"},{"type":"hashtag","offset":19,"length":11,"data":"QAEngineer"},{"type":"hashtag","offset":31,"length":5,"data":"Кипр"},{"type":"hashtag","offset":37,"length":7,"data":"Cyprus"},{"type":"hashtag","offset":45,"length":9,"data":"Limassol"},{"type":"hashtag","offset":55,"length":9,"data":"relocate"},{"type":"hashtag","offset":65,"length":9,"data":"fulltime"},{"type":"hashtag","offset":75,"length":9,"data":"wisebits"},{"type":"handle","offset":849,"length":7,"data":"YaMy04"}],"date":"2020-06-18T13:03:46+00:00","link":"tg://resolve?domain=qa_jobs&post=0","tags":[{"name":"qa"},{"name":"dotnet"},{"name":"php"},{"name":"selenium"},{"name":"java"},{"name":"web"}],"cities":[],"allowsRemote":true}},{"node":{"__typename":"Job","id":"103174635520-1001089317451","title":"Qa engineer","text":"#вакансия #москва #офис #qaengineer #qa \nГород и адрес офиса: Москва, м.Автозаводская \nФормат работы: офис \nЗанятость: полная \nЗарплатная вилка: от 60 000 на руки \n\n✅QA Engineer (gamedev)\n\nОписание вакансии: \n\nКрупный мобильный проект в жанре фентези - Dragon Champions - ищет своего QA! Вы сможете работать над интересной игрой на стыке мидкорных и хардкорных механик, в окружении команды больших профессионалов с многолетним опытом.\n\n✅Что делать:\n\n•  Тестирование мобильной игры: функциональное тестирование, юзабилити тестирование, регрессионное тестирование\n•  Составление документации для тестирования: тест-кейсы, тест-план, чек-листы\n•  Тесное обсуждение функциональности игры с командой разработки\n•  Заведение всех найденных багов в трекере (Jira)\n\n✅Требования:\n\n•  Опыт работы в тестировании от одного года\n•  Понимание основ тестирования ПО, тест-планов, чек-листов, регрессионного и функционального тестирования\n•  Огромным плюсом будет наличие опыта в тестировании игр, в особенности, мобильных игр на Unity\n•  Умение работать с Jira, Confluence и Unity также будет большим плюсом\n\n✅Для вас:\n\n•  Конкурентная заработная плата, выплачивается 2 раза в месяц\n•  Необходимое оборудование для работы\n•  Коллектив творческих и позитивных людей\n\n✅О нас:\n\n•  Просторный офис 600 метров на м. Автозаводская (3 минуты от метро и от ТТК на машине) с ультра современным дизайном и кучей ништяков (кухня с вкусняшками, кальяны каждый вечер в дружной кампании, PS4 Pro + 4K TV, аркадные автоматы с Pac-Man, Metal Slug и другими хитами геймдизайна, просторная зона отдыха, 6 переговорных комнат и т д)\n•  Команда из 120 человек занимающаяся паблишингом и маркетингом, которая готова сделать продукт успешным после его готовности\n•  Возможность бесплатно обучаться английскому языку с носителями каждый будний день\n\nНазвание компании: AppQuantum\n\nКонтакты: \ne-mail: bm@adquantum.com\ntelegram: @MishaBarinov","markup":[{"type":"hashtag","offset":0,"length":9,"data":"вакансия"},{"type":"hashtag","offset":10,"length":7,"data":"москва"},{"type":"hashtag","offset":18,"length":5,"data":"офис"},{"type":"hashtag","offset":24,"length":11,"data":"qaengineer"},{"type":"hashtag","offset":36,"length":3,"data":"qa"},{"type":"bold","offset":166,"length":21,"data":""},{"type":"bold","offset":437,"length":11,"data":""},{"type":"bold","offset":759,"length":11,"data":""},{"type":"bold","offset":1096,"length":8,"data":""},{"type":"bold","offset":1253,"length":6,"data":""},{"type":"link","offset":1863,"length":16,"data":"mailto:bm@adquantum.com"},{"type":"handle","offset":1890,"length":13,"data":"MishaBarinov"}],"date":"2020-06-18T12:41:38+00:00","link":"tg://resolve?domain=qa_jobs&post=0","tags":[{"name":"qa"},{"name":"unity3d"}],"cities":[{"code":"moscow"}],"allowsRemote":false}},{"node":{"__typename":"Job","id":"103155761152-1001089317451","title":"Qa инженер","text":"#вакансия #москва #полнаязанятость #мегафон #bigdata #покаработаемиздомапотомвофис\n\nМы ищем QA-инженера в команду для тестирования внутренних и внешних сервисов.\n\nЧем предстоит заниматься:\n\n- Разработка модулей интеграционных тестов для наших сервисов;\n- Подготовка тестовых данных (работа с hive/oracle);\nРабота с SQL/HiveQL (Oracle/Hive);\n- Написание алгоритмов работы с данными, в рамках тестирования;\n- Взаимодействие с разработчиками и аналитиками в процессе проектирования и развития;\n- Выявление, фиксация и контроль багов в баг-трекере (Jira);\n- Ведение документации по тестированию (confluence);\n\nИспользуемые технологии:\nДля разработки – Play, Spring, Flask, Scala, Java (8+), Python(3+);\nДля тестирования: Java/Scala & Maven + TestNG + Google Guice;\nДля работы сервисов – Docker;\nДля работы с кодом – GitLab;\nДля работы с задачами – Jira.\n\nМы ожидаем от вас:\n- Опыт работы в автоматизации тестирования от 1 года;\n- Знание структур данных и алгоритмов;\n- Уверенное знание Java;\n- Уверенное знание фреймворков TestNG/JUnit;\n- Опыт работы в автоматизации тестирования;\n- Опыт работы с реляционными СУБД (Oracle/PostgreSQL);\n- Умение писать хорошо читаемый код;\n- Умение работать с VCS (Git) и сборщиками (maven).\n\nБудет плюсом:\n- Опыт в области тестирования приложений по работе с большими данными;\n- Опыт в нагрузочном тестировании;\n- Опыт работы с Spring/Google Guice;\n- Опыт конфигурирования CI/CD (GitLab);\n- Умение писать код на Scala;\n- Опыт работы с Hadoop/Spark.\n\nЧто мы предлагаем:\n- Внутреннее и внешнее обучение в России (Coursera, New Prolab, Geek Brains и др.);\n- Новый офис в центре: 7 минут пешком от м. Маяковская/Новослободская;\n- Компенсация затрат на мобильную связь;\nДМС (включая стоматологию);\n- Частичная компенсация спорта;\n- Возможность участия в корпоративных спортивных командах: футбол, волейбол, баскетбол, хоккей и бег\n- Регулярные митапы в офисе с внешними спикерами из разных областей.\n\n#мегафон #bigdata\nКонтакты: Svetlana.stakanova@megafon.ru или @svetastakanova","markup":[{"type":"hashtag","offset":0,"length":9,"data":"вакансия"},{"type":"hashtag","offset":10,"length":7,"data":"москва"},{"type":"hashtag","offset":18,"length":16,"data":"полнаязанятость"},{"type":"hashtag","offset":35,"length":8,"data":"мегафон"},{"type":"hashtag","offset":44,"length":8,"data":"bigdata"},{"type":"hashtag","offset":53,"length":29,"data":"покаработаемиздомапотомвофис"},{"type":"hashtag","offset":1926,"length":8,"data":"мегафон"},{"type":"hashtag","offset":1935,"length":8,"data":"bigdata"},{"type":"link","offset":1954,"length":29,"data":"mailto:Svetlana.stakanova@megafon.ru"},{"type":"handle","offset":1988,"length":15,"data":"svetastakanova"}],"date":"2020-06-18T09:58:49+00:00","link":"tg://resolve?domain=qa_jobs&post=0","tags":[{"name":"qa"},{"name":"hive"},{"name":"oracle"},{"name":"sql"},{"name":"playframework"},{"name":"spring"},{"name":"flask"},{"name":"scala"},{"name":"java"},{"name":"python"},{"name":"maven"},{"name":"docker"},{"name":"gitlab"},{"name":"junit"},{"name":"postgresql"},{"name":"git"},{"name":"hadoop"}],"cities":[{"code":"moscow"}],"allowsRemote":false}},{"node":{"__typename":"Job","id":"103149469696-1001089317451","title":"Qa инженер","text":"Юлия Романова, [17.06.20 14:29]\n#вакансия #спб #fulltime #qa #удаленно\n\nКомпания: Smart Design (smddev.com) \n\nДолжность: Инженер по ручному и автоматизированному тестированию (QA & Automation Engineer)\n\nИщем инженера по тестированию BSS сотового оператора.\nБольшая распределенная команда (~30 человек).\nНужно хорошо уметь тестировать вручную и, когда это выгодно, суметь автоматизировать.\n\n\nНаши пожелания к кандидатам:\n✔️Опыт работы с Java или любым другим высокоуровневым языком программирования на уровне, достаточном для самостоятельного написания игры \"Сапёр\"\n✔️Опыт работы в консоли linux на уровне, достаточном для для решения задач:\nпоиск и изменение строк в файле\nуправление системными процессами\n✔️Опыт взаимодействия с REST API на уровне, достаточном для того, чтобы получить из ВКонтакте имя и фамилию своего аккаунта, не используя браузер\n\nПлюсом будет:\n✔️Опыт работы с протоколом SOAP\n✔️Профессиональный опыт функционального тестирования\n✔️Опыт работы с JUnit, Gradle, Oracle\n\nУсловия:\n✔️\"Белая\" зарплата до 110K gross\n✔️ДМС\n✔️ Работа в удаленном режиме на данный момент, далее в уютном офисе.\n\nhttps://spb.hh.ru/vacancy/37540632\n\nМои контакты: @romanovaya iyliia.romanova@smddev.com","markup":[{"type":"hashtag","offset":32,"length":9,"data":"вакансия"},{"type":"hashtag","offset":42,"length":4,"data":"спб"},{"type":"hashtag","offset":47,"length":9,"data":"fulltime"},{"type":"hashtag","offset":57,"length":3,"data":"qa"},{"type":"hashtag","offset":61,"length":9,"data":"удаленно"},{"type":"link","offset":96,"length":10,"data":"http://smddev.com"},{"type":"link","offset":1109,"length":34,"data":"https://spb.hh.ru/vacancy/37540632"},{"type":"handle","offset":1159,"length":11,"data":"romanovaya"},{"type":"link","offset":1171,"length":26,"data":"mailto:iyliia.romanova@smddev.com"}],"date":"2020-06-18T09:08:47+00:00","link":"tg://resolve?domain=qa_jobs&post=0","tags":[{"name":"qa"},{"name":"java"},{"name":"linux"},{"name":"rest"},{"name":"soap"},{"name":"junit"},{"name":"gradle"},{"name":"oracle"}],"cities":[],"allowsRemote":true}},{"node":{"__typename":"Job","id":"103148421120-1001089317451","title":"Qa engineer","text":"#вакансия #удаленка\n\nДолжность : Senior QA Engineer\nКомпания : https://www.bitorb.com/\nФормат работы: удаленная, на полный рабочий день\nЗарплата: 4-5k USD\n\nКто мы?\nBitOrb - биржа на азиатском рынке на стадии бета-тестирования.\n\nЧто делать?\n- Взять на себя тестирование и QA;\n- Написание тестовых сценариев;\n- Самостоятельно выбирать, как их тестировать - автоматизировать или покрывать ручным тестирование;\n- Вместе с командой разработчиков искать возможные проблемы/риски;     \n- Желательно: перфоманс-тестирование;\n- Желательно: security testing.\n\nЧто нужно в обязательном порядке? \n- Разговорный английский;\n- Опыт написания автоматизированных тестов.\n\nПочему это может быть интересно? \n- Свобода в выборе пути достижения результата;\n- Удаленная работа и гибкий график;\n- Сложная система, требовательная к перфомансу, корректности;\n- Можно брать задачи и развиваться в соседних областях;\n- Дружная и многонациональная команда;\n- Опыт работы в международной компании;\n- С течением времени - возможность стать тим лидом команды QA.","markup":[{"type":"hashtag","offset":0,"length":9,"data":"вакансия"},{"type":"hashtag","offset":10,"length":9,"data":"удаленка"},{"type":"link","offset":63,"length":23,"data":"https://www.bitorb.com/"}],"date":"2020-06-18T08:56:19+00:00","link":"tg://resolve?domain=qa_jobs&post=0","tags":[{"name":"qa"}],"cities":[],"allowsRemote":true}},{"node":{"__typename":"Job","id":"103138983936-1001089317451","title":"Qa engineer","text":"#вакансия #москва #полнаязанятость #qaengineer #auto #manual\nКомпания: #Mетрквадратный www.m2.ru\nЛокация: м.Белорусская \nФормат работы: офис (удаленная до сентября)  \nЗ/п: от 120к - 180к на руки\nКонтакты: @maxdmitrov\n\nЭто экосистема недвижимости, которая помогает клиентам решать любые жилищные вопросы: от поиска вариантов и оформления сделки до организации ремонта и переезда в новую квартиру. Мы также создаем решения для партнёров и профессиональных участников рынка недвижимости.\n\nНаш стэк:\n• Java\n • Node.js\n • React, TypeScript\n • Kafka, ElasticSearch, gRPC\n • Docker\n\nЧем предстоит заниматься:\n • анализировать и тестировать требования к разрабатываемым приложениям;\n • писать приемочные критерии к пользовательским историям;\n • проводить функциональное, регрессионное и smoke тестирование;\n • заниматься задачами по автоматизации тестирования.\n\nЧего мы ждем:\n • глубокое понимание процессов тестирования и разработки ПО;\n • опыт интеграционного тестирования:\n    - системная интеграция;\n    - компонентная интеграция\n • опыт тестирования АРI;\n • опыт автоматизации тестирования на любом стеке.\n\nБудет плюсом\n • опыт исследовательского тестирования;\n • опыт тестирования ПО с микросервисной архитектурой.\n\nМы предлагаем:\n • белая конкурентная ЗП, официальное оформление;\n • гибкий график работы;\n • ДМС, компенсация фитнеса, льготная ставка по ипотеке;\n • комфортный офис в БЦ «Белая площадь» (минута от метро): лаундж-зоны, бариста, фрукты.","markup":[{"type":"hashtag","offset":0,"length":9,"data":"вакансия"},{"type":"hashtag","offset":10,"length":7,"data":"москва"},{"type":"hashtag","offset":18,"length":16,"data":"полнаязанятость"},{"type":"hashtag","offset":35,"length":11,"data":"qaengineer"},{"type":"hashtag","offset":47,"length":5,"data":"auto"},{"type":"hashtag","offset":53,"length":7,"data":"manual"},{"type":"hashtag","offset":71,"length":15,"data":"Mетрквадратный"},{"type":"link","offset":87,"length":9,"data":"http://www.m2.ru"},{"type":"handle","offset":205,"length":11,"data":"maxdmitrov"},{"type":"bold","offset":485,"length":11,"data":""},{"type":"bold","offset":576,"length":26,"data":""},{"type":"bold","offset":853,"length":15,"data":""},{"type":"bold","offset":1103,"length":14,"data":""},{"type":"bold","offset":1212,"length":16,"data":""}],"date":"2020-06-18T07:20:58+00:00","link":"tg://resolve?domain=qa_jobs&post=0","tags":[{"name":"qa"},{"name":"java"},{"name":"nodejs"},{"name":"reactjs"},{"name":"typescript"},{"name":"kafka"},{"name":"elasticsearch"},{"name":"docker"}],"cities":[{"code":"moscow"}],"allowsRemote":true}},{"node":{"__typename":"Job","id":"103124303872-1001089317451","title":"Qa инженер","text":"QA\n\n#QA #тестировщик #россия #APi\n#ручноетестирование #middle #senior #тестирование #вакансия\nВ нашей молодой концептуальной IT-компании ООО \"Сколопендра\" (www.skolopendra.com) на данный момент открыта позиция QA тестировщика.\nВид деятельности  нашей Компании: ИТ-разработка полного цикла. \nСпециализация: высоконагруженные промышленные системы, процессинги данных, СППР, AI, запуск стартап-идей под ключ, электротехника.\nНаправление деятельности: технологический партнер для внешних заказчиков/собственные Hard&Soft Продукты.\n\nТребуемые знания, навыки, опыт\n• Знание основных технологий и методов тестирования\n• Понимание процесса разработки и тестирования ПО\n• Хорошие знания в области тест-дизайна\n• Опыт работы с баг-трекинговыми системами (jira)\n• Понимание основных принципов REST API\n• Опыт работы в тестировании от 1,5 лет\n• Высшее образование (предпочтительно техническое)\n\nБудет плюсом:\n• Базовые знания Java будут плюсом\n• Опыт автоматизации тестирования будет плюсом\n• Базовые знания технологии блокчейн и принципов работы бирж будут плюсом\nТакже мы ждем от кандидатов:\n• Умение работать в команде\n• Ответственность, самостоятельность, инициативность\n• Умение работать в условиях большого количества задач, оперативная реакция на задачи\n• Внимание к деталям, способность анализировать информацию\n• Стремление к саморазвитию, обучению, повышению технических компетенций\nФункциональные обязанности:\n• Проведение ручного функционального и регрессионного тестирования\n• Локализация, документирование, проверка дефектов\n• Разработка и актуализация тестовых планов, тестовых сценариев\n• Оценка трудоемкости задач\n• Работа с требованиями и документацией\nЗанятость : фултайм 5/2 на удалёнке \n#iOS\n#Android\n#mobiledevelopment \n#crossplatform #flutter #kotlinnative\n#мобильнаяразработка #вакансия\n\nКомпания ООО “СКОЛОПЕНДРА” (www.skolopendra.com) приглашает целеустремленных и одаренных в наш дружный коллектив. \nДавай вместе делать интересные проекты в современных стеках технологий. А мы предоставим возможности для скорейшего профессионального и личностного роста.\n\nВид деятельности Компании: ИТ-разработка полного цикла. \nСпециализация: высоконагруженные промышленные системы, процессинги данных, СППР, AI, запуск стартап-идей под ключ, электротехника.\nНаправление деятельности: технологический партнер для внешних заказчиков/собственные Hard&Soft Продукты.\n\nОфис: Москва, м.Павелецкая, Космодамианская наб., 52/10\nФормат работы: в офисе/удаленно\nЗанятость: full-time (целевой формат) /part-time (возможный старт)\nЗП: по итогам собеседования от 600-800 рублей в час на руки , 3-х месячный цикл пересмотра grade\nОформление: по ТК\n\nДолжность: Mid/Mid+/Sen\nКонтакты: team@skolopendra.com\nТелеграмм : @Tufelka1","markup":[{"type":"hashtag","offset":4,"length":3,"data":"QA"},{"type":"hashtag","offset":8,"length":12,"data":"тестировщик"},{"type":"hashtag","offset":21,"length":7,"data":"россия"},{"type":"hashtag","offset":29,"length":4,"data":"APi"},{"type":"hashtag","offset":34,"length":19,"data":"ручноетестирование"},{"type":"hashtag","offset":54,"length":7,"data":"middle"},{"type":"hashtag","offset":62,"length":7,"data":"senior"},{"type":"hashtag","offset":70,"length":13,"data":"тестирование"},{"type":"hashtag","offset":84,"length":9,"data":"вакансия"},{"type":"link","offset":156,"length":19,"data":"http://www.skolopendra.com"},{"type":"hashtag","offset":1696,"length":4,"data":"iOS"},{"type":"hashtag","offset":1701,"length":8,"data":"Android"},{"type":"hashtag","offset":1710,"length":18,"data":"mobiledevelopment"},{"type":"hashtag","offset":1730,"length":14,"data":"crossplatform"},{"type":"hashtag","offset":1745,"length":8,"data":"flutter"},{"type":"hashtag","offset":1754,"length":13,"data":"kotlinnative"},{"type":"hashtag","offset":1768,"length":20,"data":"мобильнаяразработка"},{"type":"hashtag","offset":1789,"length":9,"data":"вакансия"},{"type":"link","offset":1828,"length":19,"data":"http://www.skolopendra.com"},{"type":"link","offset":2670,"length":20,"data":"mailto:team@skolopendra.com"},{"type":"handle","offset":2703,"length":9,"data":"Tufelka1"}],"date":"2020-06-17T22:40:04+00:00","link":"tg://resolve?domain=qa_jobs&post=0","tags":[{"name":"qa"},{"name":"rest"},{"name":"java"},{"name":"ios"},{"name":"android"},{"name":"flutter"}],"cities":[{"code":"moscow"}],"allowsRemote":true}}]}}},"context":{}}