{"hash":"f5f6bf98bd95e769321482904cbbd488f77922fd","data":{"records":{"id":"mysql","name":"mysql","belongsTo":{"totalCount":78,"pageInfo":{"totalPages":8,"currentPage":1},"edges":[{"node":{"__typename":"Job","id":"367001600-1001352129329","title":"Golang разработчик","text":"Ребят, всем привет! \nПостараюсь кратко, подробности в ЛС. Заранее напишу, что это Москва (фултайм/офис), компания Lofty. Ищем в команду как Midle так и Senior Go разработчиков.\nВообщем если хочется в highload, добро пожаловать!)\n\nО проекте:\nЭто высоконагруженное backend приложение для рассылки web push-уведомлений, обслуживающее на данный момент более 100млн показов в сутки. \nЧем у нас предстоит заниматься:\nПрофилировать и оптимизировать существующие сервисы;\nПроводить доработки и интеграцию их в действующий код и инфраструктуру;\nРеализовывать новые бизнес-требования внутри сервиса;\nУстранять возникающие баги в сервисе.\n\nЧто мы ждем от кандидата:\nНавыки работы с Git;\nУверенное знание Golang;\nПонимание технологий HTTP, REST;\nОпыт работы в Unix-окружении.\n\nБудет совсем круто, если вы:\nРаботали с highload-проектами;\nПонимаете и уважаете концепцию CI/CD.\nНаш стек технологий: Golang, Gitlab, MySQL, JS, RabbitMQ, Docker, Ansible, Clickhouse\n\nУсловия: \nЗаработная плата от 130 000 до 300 000 руб. на руки, естественно зависит от уровня, преимущественно смотрим \"мидов\", но и \"джуны\" нам тоже интересны.\n\nНаш сайт: `https://www.lofty.today/\n#вакансия#golang","markup":[{"type":"link","offset":1122,"length":24,"data":"https://www.lofty.today/"}],"date":"2020-07-02T10:02:20+00:00","link":"tg://resolve?domain=gogetajobfeed&post=350","tags":[{"name":"go"},{"name":"web"},{"name":"git"},{"name":"rest"},{"name":"unix"},{"name":"gitlab"},{"name":"mysql"},{"name":"rabbitmq"},{"name":"docker"},{"name":"ansible"}],"cities":[{"code":"moscow"}],"allowsRemote":false}},{"node":{"__typename":"Job","id":"26957840384-1001075660570","title":"Php developer","text":"#вакансия #php #senior #middle #laravel #москва #fulltime \nКомпания skillbox.ru ищет в команду Middle/Senior PHP Developer (Laravel).\n\nЧем предстоит заниматься:\n •  Нужно будет продолжать развивать сервис авторизации;\n •  Поддерживать текущие проекты на Laravel + Vue;\n •  Участвовать в Code Review;\n •  Писать Unit-тесты;\n •  Ведение документации своего кода;\n •  Принимать активное участие в проектировании микросервисов и БД.\n\nЧто мы ждем от вас:\n •  Уверенные знания PHP7, MySQL, Laravel;\n •  Умение разбираться в Legacy code;\n •  Опыт работы с Redis, WebSockets;\n •  Опыт работы с системами контроля версий – git;\n •  Опыт интеграции с внешними системами по API;\n •  Хорошее знание системы Linux (Ubuntu);\n •  Ответственность и инициативность;\n •  Умение внятно выражать свои мысли устно и письменно;\n •  Умение адекватно оценивать сроки на реализацию той или иной задачи.\n\nМы предлагаем отличные условия:\n •  Белую зарплату от 150.000 net (оклад обсудим индивидуально)\n •  Возможность прохождения любых дистанционных курсов Skillbox бесплатно, а еще корпоративную скидку на изучение английского языка в Skyeng и фитнес.\n •  Рост внутри компании не ограничен, всегда найдется то, что будет интересно тебе;\n •  Корпоративные активности (волейбол, футбол, квесты, квизы, шахматы, Skillbox.fm и др.);\n •  Наша команда творит в новом и стильном офисе на м.Октябрьская;\n •  Гибкий график работы (время прихода на работу в интервале с 8 до 12) и отсутствие дресс-кода;\n\nКонтакты: mariya.reshetova@skillbox.ru      @marieresh","markup":[{"type":"hashtag","offset":0,"length":9,"data":"вакансия"},{"type":"hashtag","offset":10,"length":4,"data":"php"},{"type":"hashtag","offset":15,"length":7,"data":"senior"},{"type":"hashtag","offset":23,"length":7,"data":"middle"},{"type":"hashtag","offset":31,"length":8,"data":"laravel"},{"type":"hashtag","offset":40,"length":7,"data":"москва"},{"type":"hashtag","offset":48,"length":9,"data":"fulltime"},{"type":"link","offset":68,"length":11,"data":"http://skillbox.ru"},{"type":"bold","offset":95,"length":38,"data":""},{"type":"bold","offset":135,"length":25,"data":""},{"type":"bold","offset":430,"length":19,"data":""},{"type":"bold","offset":879,"length":31,"data":""},{"type":"link","offset":1283,"length":11,"data":"http://Skillbox.fm"},{"type":"link","offset":1479,"length":28,"data":"mailto:mariya.reshetova@skillbox.ru"},{"type":"handle","offset":1513,"length":10,"data":"marieresh"}],"date":"2020-07-02T09:30:52+00:00","link":"tg://resolve?domain=php_jobs&post=25709","tags":[{"name":"php"},{"name":"laravel"},{"name":"vuejs"},{"name":"mysql"},{"name":"redis"},{"name":"git"},{"name":"linux"},{"name":"ubuntu"},{"name":"dotnet"}],"cities":[{"code":"moscow"}],"allowsRemote":false}},{"node":{"__typename":"Job","id":"26951548928-1001075660570","title":"Php разработчик","text":"#вакансия #москва #офис #fulltime #yii2 #php #job\n\nВсем привет!\nСейчас нахожусь в поиске крутого разработчика :)\n\n Позиция: Senior PHP Developer\nЗанятость: полная\nКомпания: ТД ЦУМ \nЛокация: Москва\nЗ/П: до 280 000\n\n   Основные цели и задачи:\n- Разработка программных модулей продуктов компании;\n- Глубокое погружение в процессы работы интернет-магазина;\n- Участие в разработке сервис-ориентированной архитектуре приложения.\n\n   Основные обязанности:\n- Разработка и поддержка инфраструктуры интернет-проекта, мобильного приложения и внутренних сервисов компании;\n- Разработка программных модулей продуктов интернет магазина ЦУМ;\n- Оптимизация приложения под высокую нагрузку, масштабирование, поиск узких мест;\n- Интеграция со сторонними сервисами;\n- Предложение и внедрение высокотехнологичных, инновационных решений.\n\nТребования:\n- Отличное знание и опыт работы с PHP 7 от 3 лет;\n- Понимание как устроен HTTP, REST;\n- Знание и понимание MVC архитектуры;\n- Знание и опыт работы фреймворком YII;\n- Опыт работы с одной или несколькими БД: MySQL, Redis, Mongo;\n- Опыт мониторинга и оптимизации SQL-запросов;\n\n   Условия работы:\n- Полный рабочий день  (гибкое утро - возможность начала рабочего дня с 9:00 до 12:00)\n- Официальное оформление по трудовому договору.\n- Офис в центре Москвы.\n- ДМС.\n- Корпоративное обучение.\n- Скидки от партнеров компании.\n\nЕсли остались вопросы, с радостью отвечу:\n @nastyaklassnaya","markup":[{"type":"hashtag","offset":0,"length":9,"data":"вакансия"},{"type":"hashtag","offset":10,"length":7,"data":"москва"},{"type":"hashtag","offset":18,"length":5,"data":"офис"},{"type":"hashtag","offset":24,"length":9,"data":"fulltime"},{"type":"hashtag","offset":34,"length":5,"data":"yii2"},{"type":"hashtag","offset":40,"length":4,"data":"php"},{"type":"hashtag","offset":45,"length":4,"data":"job"},{"type":"handle","offset":1392,"length":16,"data":"nastyaklassnaya"}],"date":"2020-07-02T09:26:49+00:00","link":"tg://resolve?domain=php_jobs&post=25703","tags":[{"name":"php"},{"name":"yii"},{"name":"rest"},{"name":"mysql"},{"name":"redis"},{"name":"sql"}],"cities":[{"code":"moscow"}],"allowsRemote":false}},{"node":{"__typename":"Job","id":"1772093440-1001091028994","title":"Java разработчик","text":"#вакансия #backend #java #java8 #spring #офис #remote #Мск #Пермь #senior #middle \n\nкомпания: КА: http://luckyhunter.io\nЗ/п: 120 000 - 200 000 рублей на руки (+премии) \nГород и адрес офиса: \nг. Москва (Павелецкая),\nг. Пермь\nФормат работы: офис или удаленка \nЗанятость: полная, fulltime\n\n*У компании нет формальной возможности к трудоустройству иностранных граждан.\n\n🚀Ищем backend разработчиков уровня Middle/Middle+ в крупную продуктовую компанию с возможностью удаленной работы!\n\nРебята разрабатывают интеллектуальную low-code платформу для создания бизнес-приложений и информационных систем в области управления рисками и оптимизации бизнес-процессов любой сложности. Компания не разрабатывает решения для одного заказчика или «под проект», они продвигают собственную продуктовую разработку и реализуют весь новый функционал в удобных инструментах, которые сразу же становятся доступными для всех заказчиков.\n\n❇️Всего в компании трудится около 200 человек, разработчики поделены на 3 группы разработки и работают в scrum командах по 5-6 человек. Коллеги ценят инициативность и активный вклад в общее дело, также поддерживают разумные инициативы по внедрению новых технологий и подходов в разработку.\n\nСтэк технологий: \nJava 8, Spring, React, TypeScript, Webpack, Maven, MobX, HighchartsJS, Gitlab. \n\n✅Какой опыт необходим: \n- опыт коммерческой разработки на Java от 2 лет и больше; \n- опыт работы с БД (у ребят их 3: PostgreSQL, MySQL, Oracle; \n- опыт работы в финтехе будет плюсом☺️ \n\n✅Какие бонусы и перспективы получите вы: \n- возможность работать удаленно или в офисе (Москва, Пермь);\n- официальное оформление и полностью белую зп, которая зависит от ваших компетенций и ожиданий;\n- гибкое начало рабочего дня, отсутствие бюрократии;\n- работу в молодой и развивающейся команде, которая разрабатывает быстроразвивающийся, востребованный продукт;\n- релокационный пакет для переезжающих из других городов.\n\nКонтакты:\ne-mail: daria@luckyhunter.io\ntelegram: @prudentdaria\nБуду рада ответить на все вопросы и комментарии по вакансии 😊 \n\n\n\n\n#вакансия #backend #java #Java8 #senior  \nЛокация: Нижний-Новгород (есть хороший релокационный пакет)\nЗанятость: полная, гибкое начало дня\n*до окончания пандемии работа удаленная (и трудоустройство) далее работа в офисе\nЗП: до 220 000 NET \n\n🔹 Крупная немецкая компания ищет Java разработчиков senior уровня.\nКомпания более 20 лет, является лидером рынка в Европе поставляющем инновационные IT-решения по управлению кредитными рисками и по процессному консультированию. Кроме того в компании есть направления по разработке ПО для анализа финансовой отчетности и сегментации рынка. Продуктом компании пользуется многие известные бренды: Toshiba, Volvo, Росбанк и более 290 других компаний по всему миру.\n\n🔹 Требования:\n- коммерческий опыт разработки на Java от 3-ех лет;\n- знания Java 8 SE;\n- уровень английского языка, позволяющий вести диалог с коллегами из Германии (главное- не бояться говорить ☺️.). Это обязательное требование\n\n🔹 Условия:\n- Расширенный релокационный пакет;\n- Оформление официальное, белая заработная плата и премиальная система;\n- ДМС;\n- Компенсация обучения английскому языку;\n-Широкие возможности профессионального и карьерного роста и разные другие плюшки и бонусы.\n\nКонтакты:\ne-mail: daria@luckyhunter.io\ntelegram: @prudentdaria\nПишите, буду рада ответить на все возможные вопросы здесь или по почте :)","markup":[{"type":"hashtag","offset":0,"length":9,"data":"вакансия"},{"type":"hashtag","offset":10,"length":8,"data":"backend"},{"type":"hashtag","offset":19,"length":5,"data":"java"},{"type":"hashtag","offset":25,"length":6,"data":"java8"},{"type":"hashtag","offset":32,"length":7,"data":"spring"},{"type":"hashtag","offset":40,"length":5,"data":"офис"},{"type":"hashtag","offset":46,"length":7,"data":"remote"},{"type":"hashtag","offset":54,"length":4,"data":"Мск"},{"type":"hashtag","offset":59,"length":6,"data":"Пермь"},{"type":"hashtag","offset":66,"length":7,"data":"senior"},{"type":"hashtag","offset":74,"length":7,"data":"middle"},{"type":"link","offset":98,"length":21,"data":"http://luckyhunter.io"},{"type":"link","offset":1929,"length":20,"data":"mailto:daria@luckyhunter.io"},{"type":"handle","offset":1960,"length":13,"data":"prudentdaria"},{"type":"hashtag","offset":2042,"length":9,"data":"вакансия"},{"type":"hashtag","offset":2052,"length":8,"data":"backend"},{"type":"hashtag","offset":2061,"length":5,"data":"java"},{"type":"hashtag","offset":2067,"length":6,"data":"Java8"},{"type":"hashtag","offset":2074,"length":7,"data":"senior"},{"type":"link","offset":3254,"length":20,"data":"mailto:daria@luckyhunter.io"},{"type":"handle","offset":3285,"length":13,"data":"prudentdaria"}],"date":"2020-07-02T09:10:30+00:00","link":"tg://resolve?domain=jvmjobs&post=1690","tags":[{"name":"java"},{"name":"jvm"},{"name":"spring"},{"name":"reactjs"},{"name":"typescript"},{"name":"webpack"},{"name":"maven"},{"name":"gitlab"},{"name":"postgresql"},{"name":"mysql"},{"name":"oracle"},{"name":"dotnet"}],"cities":[{"code":"perm"},{"code":"moscow"},{"code":"nizhny-novgorod"}],"allowsRemote":true}},{"node":{"__typename":"Job","id":"26927431680-1001075660570","title":"Php разработчик","text":"#php #вакансия #удалёнка \n\nPHP Engineer\nФормат работы: #fulltime #remote\nЗарплата: $ 40 000 - 50 000 в год\nГород: удаленно\n\nНебольшая, но быстро растущая студия разработки из Лондона ищет PHP-ниндзю. На нашем счету много успешных проектов, большая часть которых — британские. \n\nТребования:\n— Опыт в разработке не менее 3 лет;\n— Знание PHP как родного,\n— Знание SQL, особенно MySQL или PostgreSQL \n— Понимание HTML/CSS;\n— Быть знакомым с PHP MVC Framework, JavaScript (and jQuery);\n— Опыт в Version Control (Git);\n— Опыт с Bash and Unix (обычно мы используем Ubuntu 16.04) \n— Уровень английского С2;\n— Опыт с алгоритмами приветствуется;\n— Большим плюсом будет знание Laravel (или хотя бы Symfony), фреймворки CakePHP, Zend, CodeIgniter тоже ок, но все равно потребуется освоить Laravel.\n\nЧтобы откликнуться, необходимо пройти короткий отбор по ссылке https://6nomads.com/ (обязательное условие найма🤷‍♀️)\n\nКонтакт для связи @temnik_sofya","markup":[{"type":"hashtag","offset":0,"length":4,"data":"php"},{"type":"hashtag","offset":5,"length":9,"data":"вакансия"},{"type":"hashtag","offset":15,"length":9,"data":"удалёнка"},{"type":"hashtag","offset":55,"length":9,"data":"fulltime"},{"type":"hashtag","offset":65,"length":7,"data":"remote"},{"type":"link","offset":85,"length":15,"data":"tel:40 000 - 50 000"},{"type":"link","offset":850,"length":20,"data":"https://6nomads.com/"},{"type":"handle","offset":924,"length":13,"data":"temnik_sofya"}],"date":"2020-07-01T17:36:31+00:00","link":"tg://resolve?domain=php_jobs&post=25680","tags":[{"name":"php"},{"name":"sql"},{"name":"mysql"},{"name":"postgresql"},{"name":"html"},{"name":"css"},{"name":"javascript"},{"name":"jquery"},{"name":"git"},{"name":"bash"},{"name":"unix"},{"name":"ubuntu"},{"name":"laravel"},{"name":"symfony"},{"name":"cakephp"},{"name":"zend-framework"},{"name":"codeigniter"}],"cities":[],"allowsRemote":true}},{"node":{"__typename":"Job","id":"26920091648-1001075660570","title":"Php developer","text":"#вакансия #удаленно #php\n\nСтабильная растущая IT компания (не стартап) ищет в свою ламповую команду Middle/Senior Backend PHP Developer (или Fullstack с уклоном в Backend) на fulltime.\n\nКлючевые навыки:\n– SQL (PostgreSQL),\n– PHP 7,\n– Symfony 2,\n– умение ориентироваться в базах данных и их проектировании,\n– умение преобразовывать техническое задание в план работ.\n\nБудет плюсом:\n– MySQL,\n– MSSQL,\n– PHP 5,\n– опыт оценки временных затрат на выполнение задач.\n\nСтек технологий:\n– PHP 7.2,\n– PostgreSQL,\n– JS,\n– Bootstrap,\n– Symfony 2.\n\nОт нас:\n– удалённая работа,\n– свободный график,\n– гибкость в профессиональном росте,\n– ламповое общение внутри команды,\n– возможность переключения между проектами,\n– сложные и интересные задачи,\n– поддержка в развитии профессиональных навыков и обучении перспективным для проектов технологиям,\n– возможность влиять на стек технологий проектов,\n– зарплатная вилка в зависимости от прохождения собеседования $12 - $15 в час,\n– полная занятость.\n\nКратко о нас:\n– компания с выстроенным процессом управления, коммуникацией и delivery,\n– специализация: бизнес анализ, развитие, модернизация и поддержка авторских приложений,\n– мы более 10 лет на рынке IT США и Европы,\n– проекты с надёжными заказчиками,\n– русскоязычная команда, которая любит своё дело,\n– основное направление работы – развитие, модернизация и поддержка авторского web-приложения.\n\nЖдём твоего резюме на career@tomita.pro!","markup":[{"type":"hashtag","offset":0,"length":9,"data":"вакансия"},{"type":"hashtag","offset":10,"length":9,"data":"удаленно"},{"type":"hashtag","offset":20,"length":4,"data":"php"},{"type":"link","offset":1401,"length":17,"data":"mailto:career@tomita.pro"}],"date":"2020-07-01T15:47:46+00:00","link":"tg://resolve?domain=php_jobs&post=25673","tags":[{"name":"php"},{"name":"sql"},{"name":"postgresql"},{"name":"symfony"},{"name":"mysql"},{"name":"sql-server"},{"name":"bootstrap"},{"name":"web"}],"cities":[],"allowsRemote":true}},{"node":{"__typename":"Job","id":"104125693952-1001089317451","title":"Qa engineer","text":"#вакансия #QA #Xельсинки #fulltime #relocation \n\nWho? Senior Software Engineer in Test \nWhere? Toughbyte (recruitment agency), Helsinki, Finland 🇫🇮\nSalary: up to 5000 EUR gross/month\n\nOur client is a cloud technology startup launched in January 2016, developing Database-as-a-Service. They run and manage Open Source database and backend messaging systems for the business customers around the world. They take the pain away from running databases and allow the customers to focus on building their own products without worrying about database management. \nRight now the company is looking for a self-driven Senior Software Engineer in Testing to join their team in Helsinki. You’ll be part of a team working on the cloud platform, further extending the test automation and test infrastructure and focusing on more complicated scenarios, like performance testing and upgrade tests. Depending on your interests, you can also take ownership not just of the test automation vision but also of the overall quality and risk levels of the service.\n\n🔹Must-have skills:\n•Strong background in software engineering and test automation\n•Excellent development skills in Python (pytest)\n•Keen interest in test automation\n•Experience on using Linux in development\n•Fluency in English, verbal and written\n\n🔹Nice-to-have skills:\n•Hands-on experience with some of the following systems: Apache Kafka, Apache Cassandra, PostgreSQL, MySQL and Elasticsearch\n•Experience and interest on infrastructure as code\n•Good understanding of security (software, networking)\n\nInterested? 🔹Apply here: https://www.toughbyte.com/positions/finland/helsinki/senior-software-engineer-in-testing-803\nor alina.tagirova@toughbyte.com","markup":[{"type":"hashtag","offset":0,"length":9,"data":"вакансия"},{"type":"hashtag","offset":10,"length":3,"data":"QA"},{"type":"hashtag","offset":14,"length":10,"data":"Xельсинки"},{"type":"hashtag","offset":25,"length":9,"data":"fulltime"},{"type":"hashtag","offset":35,"length":11,"data":"relocation"},{"type":"link","offset":1575,"length":92,"data":"https://www.toughbyte.com/positions/finland/helsinki/senior-software-engineer-in-testing-803"},{"type":"link","offset":1671,"length":28,"data":"mailto:alina.tagirova@toughbyte.com"}],"date":"2020-07-01T10:39:30+00:00","link":"tg://resolve?domain=qa_jobs&post=99302","tags":[{"name":"qa"},{"name":"cloud"},{"name":"python"},{"name":"linux"},{"name":"apache"},{"name":"kafka"},{"name":"cassandra"},{"name":"postgresql"},{"name":"mysql"},{"name":"elasticsearch"}],"cities":[{"code":"helsinki"},{"code":"nice"}],"allowsRemote":false}},{"node":{"__typename":"Job","id":"26903314432-1001075660570","title":"Php разработчик","text":"#вакансия  #fulltime #backend #мск #москва\nВакансия: backend-разработчик\nКомпания: Логистик Тайм\nГород: Москва\nФормат работы: #офис\nЗанятость: #полная\nЗарплата : от 160 000 до 250 000 ₽.                                                                                                                                                                                                                    \n\nПривет! Мы растем и активно развиваемся, поэтому ищем специалистов для работы в офисе нашей компании в Москве. Это отличная возможность реализовать свои навыки и прокачаться ещё больше в команде профессионалов. \n\n💡Основные обязанности:\n-Разработка новых сервисов компании.\n-Оптимизация и поддержка текущих продуктов.\n-Наш стек: PHP7, MySQL (Percona), Redis, MongoDB, RabbitMQ, YouTrack.\n\n💪Добро пожаловать в нашу команду если вы:\n-Имеете опыт разработки на PHP.\n-Умеете использовать Git.\n-Знаете ООП, умеете применять на практике паттерны проектирования.\n-Работали с MVC-фреймворками на базе PHP.\n\n🏆Мы предлагаем:\n-Уровень заработной платы зависит от пожеланий и профессионально уровня кандидата.\n-Поездки на ИТ-конференции, митапы, учебные курсы за счет компании.\n-Гибкое начало рабочего дня.\n-Возможность релокации в Европу.\n\nБуду рада Вашим вопросам и резюме:\n✍️  @hrkaterina \n📨 ekaterina.logistik@gmail.com","markup":[{"type":"hashtag","offset":0,"length":9,"data":"вакансия"},{"type":"hashtag","offset":11,"length":9,"data":"fulltime"},{"type":"hashtag","offset":21,"length":8,"data":"backend"},{"type":"hashtag","offset":30,"length":4,"data":"мск"},{"type":"hashtag","offset":35,"length":7,"data":"москва"},{"type":"hashtag","offset":126,"length":5,"data":"офис"},{"type":"hashtag","offset":143,"length":7,"data":"полная"},{"type":"italic","offset":400,"length":79,"data":""},{"type":"italic","offset":480,"length":5,"data":""},{"type":"italic","offset":486,"length":127,"data":""},{"type":"underline","offset":613,"length":2,"data":""},{"type":"bold","offset":615,"length":22,"data":""},{"type":"underline","offset":789,"length":2,"data":""},{"type":"bold","offset":791,"length":41,"data":""},{"type":"underline","offset":1000,"length":2,"data":""},{"type":"bold","offset":1002,"length":15,"data":""},{"type":"bold","offset":1231,"length":35,"data":""},{"type":"handle","offset":1270,"length":11,"data":"hrkaterina"},{"type":"link","offset":1286,"length":28,"data":"mailto:ekaterina.logistik@gmail.com"}],"date":"2020-07-01T09:31:33+00:00","link":"tg://resolve?domain=php_jobs&post=25657","tags":[{"name":"php"},{"name":"mysql"},{"name":"redis"},{"name":"mongodb"},{"name":"rabbitmq"},{"name":"git"}],"cities":[{"code":"moscow"}],"allowsRemote":false}},{"node":{"__typename":"Job","id":"17271095296-1001110946746","title":"Js разработчик","text":"#вакансия #vacancy #удаленка #fullstack #nodejs #javascript #remote #remotly #удаленнаяработа #удалённая работа\n\nГород и адрес офиса:Санкт-Петербург,Москва,Ульяновск,Обнинск,Калуга,Казань,Харьков,Минск,Гомель-центр города+удалённое сотрудничество\nФормат работы:офис или удалёнка\nЗанятость: полная\nЗарплатная вилка:$1500-$2000\nОписание вакансии:\n\nИщем опытного и талантливого Full Stack девелопера в команду разработки ERP системы по продаже авиа запчастей и поддержания летной годности.\n\nСсылка на описание системы: http://www.erp.aero/\n\nЧто будет входить в задачи:\n\n🚀Бэкенд-разработка;\n🚀Фронт-енд-разработка;\n🚀Разработка архитектуры модулей приложения;\n🚀Написание документации.\n\nЧто мы ожидаем от кандидата:\n\n⚓️Опыт разработки с использованием Node.js;\n✈️Опыт разработки с использованием Vue.js;\n🚁Знание RabbitMQ;\n⛵️JavaScript (ES6);\n🛥БД MySQL;\n🛳Знание протокола WebSocket и принципов его работы;\n🚢Технический английский.\n\nБольшим плюсом будет:\n\n🛸Фреймворк Express.js;\n🏍Понимание работы с Amazon Web Services;\n🛵Оптимизация проекта под высокие нагрузки;\n🚠Понимание работы «облачных» приложений SaaS.\n\nЧто мы предлагаем:\n🇺🇸Работу в Американской компании\n🔥Возможность удалённой работы\n💵Официальное оформление- заключается договор с нашей ШК в Сан-Франциско по ИП\n☀️Гибкое начало рабочего дня\n💊ДМС\n🏖Оплачиваемый отпуск\n🎓75% компенсация стоимости курсов английского языка\nНазвание компании:  XIM, Ink. https://ximxim.com/\n\nОтклики и рекомендации направляйте, пожалуйста, сюда 👉 @veronikaborisovahr","markup":[{"type":"hashtag","offset":0,"length":9,"data":"вакансия"},{"type":"hashtag","offset":10,"length":8,"data":"vacancy"},{"type":"hashtag","offset":19,"length":9,"data":"удаленка"},{"type":"hashtag","offset":29,"length":10,"data":"fullstack"},{"type":"hashtag","offset":40,"length":7,"data":"nodejs"},{"type":"hashtag","offset":48,"length":11,"data":"javascript"},{"type":"hashtag","offset":60,"length":7,"data":"remote"},{"type":"hashtag","offset":68,"length":8,"data":"remotly"},{"type":"hashtag","offset":77,"length":16,"data":"удаленнаяработа"},{"type":"hashtag","offset":94,"length":10,"data":"удалённая"},{"type":"link","offset":516,"length":20,"data":"http://www.erp.aero/"},{"type":"link","offset":1417,"length":19,"data":"https://ximxim.com/"},{"type":"handle","offset":1494,"length":19,"data":"veronikaborisovahr"}],"date":"2020-06-30T16:10:03+00:00","link":"tg://resolve?domain=javascript_jobs_feed&post=16471","tags":[{"name":"javascript"},{"name":"nodejs"},{"name":"vuejs"},{"name":"rabbitmq"},{"name":"mysql"},{"name":"websocket"},{"name":"express"},{"name":"web"},{"name":"amazon-web-services"}],"cities":[{"code":"moscow"},{"code":"ulyanovsk"},{"code":"obninsk"},{"code":"kaluga"},{"code":"kazan"},{"code":"minsk"},{"code":"gomel"}],"allowsRemote":true}},{"node":{"__typename":"Job","id":"26877100032-1001075660570","title":"Php разработчик","text":"#вакансия #Москва #офис #fulltime #middle #php #yii2 #ecommerce\n\nТехнический стeк 💪\n#PHP #Yii2 #Postgres #Mysql #Sphinx #GIT #Redis #Yandex.Clickhouse #RabbitMQ #Elasticsearch #Docker\n\nг. Москва Офис: м. Тульская (10 минут от метро)\n\n💰120 000 - 160 000 рублей\n\nПартнерская сеть Money4leads-  международная компания с отделениями не только в России, но и в странах СНГ и Европы.\nМы производим продукты под собственной торговой маркой, постоянно следим за их качеством. Огромным плюсом сотрудничества с нами, является то, что Money4leads обладает мощностями собственного колл-центра и развивает свою логистическую сеть: весь процесс от приема заявки до доставки товара конечному потребителю осуществляется сотрудниками нашей компании. Благодаря этому, партнерская сеть Money4leads - гарант качественного обслуживания.\n\nЗАДАЧКИ:\n\n🔸Проектирование и разработка новых сервисов Компании (CRM, биллинг, личный кабинет)\n🔸Оптимизация существующего проекта (оптимизация запросов, архитектурные решения)\n🔸Проектирование и разработка REST API\n\nНАВЫКИ: \n\n🔸Знание PHP (у нас PHP 7.2) + знание PosgreSQL \n🔸GIT на уровне использования через консоль и gui интерфейс;\n🔸Знание паттернов проектирования, а также умение их применять и не применять; ;\n🔸Опыт использования одного из современных PHP фреймворков и навык его практического применения (мы используем Yii 2);\n🔸Желателен опыт работы в коммерческой разработке\n🔸Самостоятельность, ориентация на результат.\n\nПлюсом будет еще Redis, Yandex.ClickHouse 😉\n\nПРЕДЛОЖЕНИЕ:\n\n🔸Работа над крупным международным проектом в дружной команде разработчиков;\n🔸Интересные, амбициозные задачи;\nСоблюдение ТК РФ;\n🔸Финансовая мотивация (оклад ) обсуждается с каждым кандидатов индивидуально, в зависимости от опыта и навыков;\n🔸Заработная плата без задержек 2 раза в месяц, индексация по результатам работы;\n🔸Работа в офисе (м. Тульская) график работы – 5/2 (гибкое начало рабочего дня).\n\nСВЯЗЬ:\n\n◾️  Telegram: - @darya_hr\n▪️ e-mail: - d.omelchenko@m4leads.com","markup":[{"type":"hashtag","offset":0,"length":9,"data":"вакансия"},{"type":"hashtag","offset":10,"length":7,"data":"Москва"},{"type":"hashtag","offset":18,"length":5,"data":"офис"},{"type":"hashtag","offset":24,"length":9,"data":"fulltime"},{"type":"hashtag","offset":34,"length":7,"data":"middle"},{"type":"hashtag","offset":42,"length":4,"data":"php"},{"type":"hashtag","offset":47,"length":5,"data":"yii2"},{"type":"hashtag","offset":53,"length":10,"data":"ecommerce"},{"type":"hashtag","offset":85,"length":4,"data":"PHP"},{"type":"hashtag","offset":90,"length":5,"data":"Yii2"},{"type":"hashtag","offset":96,"length":9,"data":"Postgres"},{"type":"hashtag","offset":106,"length":6,"data":"Mysql"},{"type":"hashtag","offset":113,"length":7,"data":"Sphinx"},{"type":"hashtag","offset":121,"length":4,"data":"GIT"},{"type":"hashtag","offset":126,"length":6,"data":"Redis"},{"type":"hashtag","offset":133,"length":7,"data":"Yandex"},{"type":"hashtag","offset":152,"length":9,"data":"RabbitMQ"},{"type":"hashtag","offset":162,"length":14,"data":"Elasticsearch"},{"type":"hashtag","offset":177,"length":7,"data":"Docker"},{"type":"handle","offset":1943,"length":9,"data":"darya_hr"},{"type":"link","offset":1966,"length":24,"data":"mailto:d.omelchenko@m4leads.com"}],"date":"2020-06-30T14:29:45+00:00","link":"tg://resolve?domain=php_jobs&post=25632","tags":[{"name":"php"},{"name":"yii"},{"name":"postgresql"},{"name":"mysql"},{"name":"git"},{"name":"redis"},{"name":"rabbitmq"},{"name":"elasticsearch"},{"name":"docker"},{"name":"rest"}],"cities":[{"code":"moscow"}],"allowsRemote":false}}]}}},"context":{}}