{"hash":"f34fd2c444a074f4e0e67d525015a008ef8e766f","data":{"records":{"id":"bash","name":"bash","belongsTo":{"totalCount":30,"pageInfo":{"totalPages":3,"currentPage":3},"edges":[{"node":{"__typename":"Job","id":"1924136960-1001134745498","title":"Devops инженер","text":"#devops  #middle  #senior #вакансия\n\nВсем добрый вечер\n\nЯ ищу Ведущего devops / системного инженера в компанию,  которая занимается разработкой системного интегратора ПО в области виртуализации и облачных технологий.\n\nЧто хотят:\nЖелательно - высшее профильное образование и соответствующий опыт работы от 3-5 лет\nОС: Linux, Unix\nCI/CD: Jenkins, Teamcity, Travis и аналоги\nКонтейнеры: Docker\nВеб-сервисы: Ngnix, UWSGI\nМониторинг/алертинг: AppDynamics, Nagios, Zabbix etc.\nОпыт администрирования реплицированных СУБД (PostgreSQL или MariaDB, MongoDB)\nОпыт работы с elasticsearch/logstash/kibana\nAnsible, Salt\nОпыт администрирования облачных серверов (например - под платформами Amazon EC2, GoogleCloud, VmWare vSphere, OpenStack или прочих)\n\nПлюсами будут:\nустановка/обслуживание - Reverse Proxy (Nginx …), caсhing\nserver (Squid, Nginx etc.)\nустановка/обслуживание - load balancer (HAProxy, Nginx, etc.)\nBash Scripts.\nProcess Monitoring: ps, top, htop, atop, .. etc\nSystem Performance: nmon, iostat, sar, vmstat etc\nNetworking: nmap, tcpdump, ping, traceroute, airmon, etc.\nkubernetes/docker swarm\n\nОсновные обязанности:\nРазвертка контуров (dev, qas, prod)\nPerformance тестирование, нагрузочное тестирование\nСборка и обновление из репозиториев\nПоиск и устранение проблем\n\nЧто дают:\nХорошая ЗП. от 120 000 руб. до 200.000 по результатам собеседования.\nВозможна удаленная работа \nТак же есть возможность работы в офисе.\nг. Москва Сколково, возможна работа из офиса в г. Санкт-Петербурге и г Нижний Новогород (ул Грузинская).\n\nКомпания: http://asdtech.co/\n\nКонтакты: @mayke_kin\n\n—\n\n👉 Обсуждение вакансии в чате @devops_jobs","markup":[{"type":"hashtag","offset":0,"length":7,"data":"devops"},{"type":"hashtag","offset":9,"length":7,"data":"middle"},{"type":"hashtag","offset":18,"length":7,"data":"senior"},{"type":"hashtag","offset":26,"length":9,"data":"вакансия"},{"type":"link","offset":1532,"length":18,"data":"http://asdtech.co/"},{"type":"handle","offset":1562,"length":10,"data":"mayke_kin"},{"type":"handle","offset":1607,"length":12,"data":"devops_jobs"}],"date":"2020-03-21T19:32:19+00:00","link":"tg://resolve?domain=devops_jobs_feed&post=1835","tags":[{"name":"linux"},{"name":"unix"},{"name":"jenkins"},{"name":"docker"},{"name":"postgresql"},{"name":"mariadb"},{"name":"mongodb"},{"name":"elasticsearch"},{"name":"logstash"},{"name":"ansible"},{"name":"nginx"},{"name":"bash"},{"name":"kubernetes"}],"cities":[{"code":"moscow"}],"allowsRemote":true}},{"node":{"__typename":"Job","id":"1920991232-1001134745498","title":"Devops инженер","text":"#вакансия #МСК #работаDevOps #seniorDevOps \n\nГород и адрес офиса: Москва; м.Арбатская\nФормат работы: офисная\nЗанятость: полная\nЗарплатная вилка: 100-200 gross + 25% бонус \nОписание вакансии:  \n\nПроект: платформа для финансовых услуг . \nДанный проект является новым продуктом компании. Поэтому одним из преимуществ является отсутсвие легасикода.Полностью новая разработка с нуля. \n\nЗадачи:  \n- Поддержка CI/CD инфраструктуры для разработки, тестирования (Jenkins, Kubernetes и др.)\n- Автоматизация задач (Bash / Python / Groovy)\n- Настройка ОС Linux и необходимого системного ПО под созданную архитектуру\n- Обновление и установка нового ПО на сервера Linux \n- Мониторинг работы сервиса и серверов (Zabbix, Prometheus, ELK Stack) снятие логов, оптимизация \n- Взаимодействие с командой разработчиков и совместное решение задач \n- Ведение технической документации по администрируемым сервисам и решениям \n\nТребования:  \n- Знание Linux, опыт работы с Linux от 3 лет \n- Опыт работы с CentOS (RHEL) от года \n- Опыт работы с Kubernetes и docker \n- Опыт работы с Kafka \n- Опыт работы с Zabbix, умение добавить дополнительные метрики для мониторинга  \n- Умение писать скрипты на bash \n- Умение локализовать проблему до точки отказа и объяснить это профильному специалисту для её решения \n- Опыт автоматизации на основе configuration managers: ansible, saltstack будет дополнительным преимуществом \n\nУсловия:  \n- Оформление по ТК  \n\nНазвание компании:https://ru.globalcareer.eu/  (Global Career)\n\nКонтакты: @EkaterinaHRecruiter\n\n—\n\n👉 Обсуждение вакансии в чате @devops_jobs","markup":[{"type":"hashtag","offset":0,"length":9,"data":"вакансия"},{"type":"hashtag","offset":10,"length":4,"data":"МСК"},{"type":"hashtag","offset":15,"length":13,"data":"работаDevOps"},{"type":"hashtag","offset":29,"length":13,"data":"seniorDevOps"},{"type":"link","offset":1440,"length":27,"data":"https://ru.globalcareer.eu/"},{"type":"handle","offset":1496,"length":20,"data":"EkaterinaHRecruiter"},{"type":"handle","offset":1551,"length":12,"data":"devops_jobs"}],"date":"2020-03-19T10:09:11+00:00","link":"tg://resolve?domain=devops_jobs_feed&post=1832","tags":[{"name":"jenkins"},{"name":"kubernetes"},{"name":"bash"},{"name":"python"},{"name":"groovy"},{"name":"linux"},{"name":"centos"},{"name":"docker"},{"name":"kafka"},{"name":"ansible"}],"cities":[{"code":"moscow"}],"allowsRemote":false}},{"node":{"__typename":"Job","id":"1908408320-1001134745498","title":"Devops инженер","text":"#вакансия #Москва #Калиниград #Linux  #DevOps\n#remote #удалёнка #офис \nГород: Москва, Калиниград\nЗанятость: полная\nФормат работы: офис или удаленка\nЗарплатная вилка: от 100 000 до 150 000\nОписание вакансии:\nЧто нужно делать?\n\n-Автоматизация рутинных процессов;\n-Поддержка и развитие CI/CD\n-Настройка систем непрерывного мониторинга, сбора логов и т.д.\n-Развертывание окружений (dev, test, prod)\n-Разбор критических ситуаций, оперативное устранение выявленных неисправностей\n-Активное участие при прорабатывании новой архитектуры продукта, внедрение новейших сервисов и технологий\nТребования:\n\n-Опыт работы с Docker и (желательно) с системами оркестрации (swarm/kubernetes/openshift)\n-Опыт работы с Web-стеком PHP/NGINX/PostgreSQL\n-Опыт настройки, кластеризации rabbitMQ, PostgreSQL, ElasticSearch будет большим плюсом\n-Опыт работы с SCM (Ansible, Puppet) будет большим плюсом\n-Опыт работы с continuous integration, build&release management\n-Знание систем контроля версий. У нас Git (Gitlab)\n-Scripting (PowerShell, bash/python)\nНазвание компании: Cognitive Technologies \nКонтакты:  @codefather_ru можно в https://kaliningrad.hh.ru/vacancy/36234203\nhttps://kaliningrad.hh.ru/vacancy/36234204\n\n—\n\n👉 Обсуждение вакансии в чате @devops_jobs","markup":[{"type":"hashtag","offset":0,"length":9,"data":"вакансия"},{"type":"hashtag","offset":10,"length":7,"data":"Москва"},{"type":"hashtag","offset":18,"length":11,"data":"Калиниград"},{"type":"hashtag","offset":30,"length":6,"data":"Linux"},{"type":"hashtag","offset":38,"length":7,"data":"DevOps"},{"type":"hashtag","offset":46,"length":7,"data":"remote"},{"type":"hashtag","offset":54,"length":9,"data":"удалёнка"},{"type":"hashtag","offset":64,"length":5,"data":"офис"},{"type":"handle","offset":1082,"length":14,"data":"codefather_ru"},{"type":"link","offset":1105,"length":42,"data":"https://kaliningrad.hh.ru/vacancy/36234203"},{"type":"link","offset":1148,"length":42,"data":"https://kaliningrad.hh.ru/vacancy/36234204"},{"type":"handle","offset":1225,"length":12,"data":"devops_jobs"}],"date":"2020-03-16T14:58:57+00:00","link":"tg://resolve?domain=devops_jobs_feed&post=1820","tags":[{"name":"linux"},{"name":"docker"},{"name":"kubernetes"},{"name":"web"},{"name":"php"},{"name":"nginx"},{"name":"postgresql"},{"name":"rabbitmq"},{"name":"elasticsearch"},{"name":"ansible"},{"name":"git"},{"name":"gitlab"},{"name":"powershell"},{"name":"bash"},{"name":"python"},{"name":"continuous-integration"}],"cities":[{"code":"moscow"},{"code":"kaliningrad"}],"allowsRemote":true}},{"node":{"__typename":"Job","id":"1905262592-1001134745498","title":"Devops инженер","text":"#вакансия #devops\nОфис: Москва (м. Ленинский проспект), Санкт-Петербург (м. Петроградская), Рязань, Ижевск\nФормат работы: офис\nЗанятость: полная\nЗарплатная вилка: от 180 000 до 200 000 рублей на руки\nВ связи с расширением предлагаем рассмотреть нашу вакансию. \nОбязанности\n- настраивать и поддерживать инфраструктуру текущих и новых проектов \n- поддерживать CI/CD на основе Gerrit/Jenkins/Nexus\n- администрировать парк серверов \nRND - находить и внедрять новые решения\nТребования\n- уверенное администрирование Linux (CentOS)\n- опыт работы с Docker, Elasticsearch, Logstash и Kibana\n- уверенное владение инструментами CI/CD (Jenkis, TeamCity)\n- автоматизация с помощью Ansible\nвладение языками (bash и/или python)\n- опыт работы с системами сбора метрик и мониторинга \nжелательно: Kubernetes\nнавыки администрирования БД (Oracle, PostgreSQL)\nМы предлагаем\n- конкурентная заработная плата по результатам общения\n- соблюдение TK РФ\n- гибкий рабочий график с началом работы с 8:00 до 11:00\n- ДМС с расширенным набором услуг\n- интересные и нетривиальные задачи \n- возможность посещать семинары, тренинги, конференции\n\nКомпания: https://jtc.ooo/\nНа рынке ИТ с 2007.\nСпециализация: разработка систем ДБО и построение информационных экосистем. \n\nКонтакты: @irarudakova\n\n—\n\n👉 Обсуждение вакансии в чате @devops_jobs","markup":[{"type":"hashtag","offset":0,"length":9,"data":"вакансия"},{"type":"hashtag","offset":10,"length":7,"data":"devops"},{"type":"link","offset":1121,"length":16,"data":"https://jtc.ooo/"},{"type":"handle","offset":1246,"length":12,"data":"irarudakova"},{"type":"handle","offset":1293,"length":12,"data":"devops_jobs"}],"date":"2020-03-16T10:22:37+00:00","link":"tg://resolve?domain=devops_jobs_feed&post=1817","tags":[{"name":"jenkins"},{"name":"linux"},{"name":"centos"},{"name":"docker"},{"name":"elasticsearch"},{"name":"logstash"},{"name":"ansible"},{"name":"bash"},{"name":"python"},{"name":"kubernetes"},{"name":"oracle"},{"name":"postgresql"}],"cities":[{"code":"moscow"},{"code":"ryazan"},{"code":"izhevsk"}],"allowsRemote":false}},{"node":{"__typename":"Job","id":"1900019712-1001134745498","title":"Devops инженер","text":"#вакансия #linux #sberdevices \nВакансия: Linux инженер \nКомпания: Сбербанк\nГород и адрес: Москва, Кутузовский пр-т, 32\nФормат работы: офис \nЗанятость: полная \nЗарплатная вилка: от 100 000 до 250 000\n\nКоманда эксплуатации SberDevices ищет коллег в дружный коллектив.\nМы создаем отказоустойчивую инфраструктуру для умных устройств и высоконагруженных систем.\nХочешь создавать инфраструктуру с 0?\nПосле выполнения пары однотипных задач автоматизируешь процесс?\nЛюбишь нарушать правило «Работает - не трогай!»?\nТогда мы ждём тебя на собеседование! :)\n\nЧем предстоит заниматься:\n• Прорабатывать базовую архитектуру и реализовывать её;\n• Строить и поддерживать отказоустойчивые системы;\n• Мониторинг инфраструктуры (сбор и анализ метрик, логирование, проактивный мониторинг);\n• Troubleshooting проблем на уровне операционной системы/сети (strace, tcpdump, etc);\n• Автоматизация рутинных задач.\n\nТребования:\n• Уверенные знания Linux;\n• Понимание принципов работы сети (TCP/IP);\n• Опыт работы с системами управления конфигурациями (Ansible, Puppet, etc);\n• Опыт работы с системами виртуализации (Proxmox, VmWare, etc);\n• Опыт работы с системами контроля версий (git);\n• Опыт программирования (Bash, Python).\n\nБудет плюсом опыт работы со следующими продуктами:\n• ELK stack, Zabbix, Prometheus, Grafana;\n• Ceph (radosgw);\n• Базами данных (PostgreSQL, Oracle);\n• Nginx.\n\nЧто мы предлагаем?\n• Возможность принять участие в разработке продуктов от идеи до реализации;\n• Гибкий график;\n• Возможность обучения за счет компании;\n• Страхование (от несчастных случаев, ДМС (включая поездки за рубеж));\n• Оздоровительные программы для детей сотрудников;\n• Дисконт-программы от компаний партнеров (фитнес, страхование, туризм);\n• Льготное кредитование;\n• Столовая, бесплатный тренажерный зал на территории офиса, бесплатная парковка;\n• Место работы - ст.м. Кутузовская.\n\nКонтакты:\nhttps://hh.ru/vacancy/36070450 (отклик на Headhunter) \n@Nastik8 (telegram)\n\n—\n\n👉 Обсуждение вакансии в чате @devops_jobs","markup":[{"type":"hashtag","offset":0,"length":9,"data":"вакансия"},{"type":"hashtag","offset":10,"length":6,"data":"linux"},{"type":"hashtag","offset":17,"length":12,"data":"sberdevices"},{"type":"link","offset":1861,"length":30,"data":"https://hh.ru/vacancy/36070450"},{"type":"handle","offset":1916,"length":8,"data":"Nastik8"},{"type":"handle","offset":1970,"length":12,"data":"devops_jobs"}],"date":"2020-03-13T11:01:06+00:00","link":"tg://resolve?domain=devops_jobs_feed&post=1812","tags":[{"name":"linux"},{"name":"ansible"},{"name":"git"},{"name":"bash"},{"name":"python"},{"name":"postgresql"},{"name":"oracle"},{"name":"nginx"}],"cities":[{"code":"moscow"}],"allowsRemote":false}},{"node":{"__typename":"Job","id":"1891631104-1001134745498","title":"Devops engineer","text":"#вакансия #fulltime #devops #удалёнка\n\n💫Компания: i-techlabs\n\nЯ ищу опытного DevOps Engineer на проект по созданию Playtech Open Platform (POP) и игровой платформы как услуги (GPAS). \nОбе платформы построены с использованием архитектуры реактивных микроуслуг и написаны на языке программирования Scala.\nОни используют базу данных No-SQL Couchbase для сохранения и хранения данных.\n\n☕️Условия:\n\n• Вилка по зп 150 000 р.-200 000+р.\n• Удалённая работа\n• Полный день\n• Гибкий график\n\n💻Требования:\n\n• Более 3 лет опыта в DevOps или администрировании Linux\n• Хороший набор навыков Linux\n• Опыт работы с контейнерами Docker (сборка и развертывание)\n• Навыки программирования на Python / Bash\n• Jenkins\n• Управление Java-приложениями\n• Intermediate English \n\n☎️ Контакт: @coderhunt\n\n—\n\n👉 Обсуждение вакансии в чате @devops_jobs","markup":[{"type":"hashtag","offset":0,"length":9,"data":"вакансия"},{"type":"hashtag","offset":10,"length":9,"data":"fulltime"},{"type":"hashtag","offset":20,"length":7,"data":"devops"},{"type":"hashtag","offset":28,"length":9,"data":"удалёнка"},{"type":"handle","offset":765,"length":10,"data":"coderhunt"},{"type":"handle","offset":810,"length":12,"data":"devops_jobs"}],"date":"2020-03-12T15:07:40+00:00","link":"tg://resolve?domain=devops_jobs_feed&post=1804","tags":[{"name":"scala"},{"name":"sql"},{"name":"linux"},{"name":"docker"},{"name":"python"},{"name":"bash"},{"name":"jenkins"},{"name":"java"}],"cities":[],"allowsRemote":true}},{"node":{"__typename":"Job","id":"1890582528-1001134745498","title":"Devops инженер","text":"#вакансия #москва #офис\nDevOps инженер\nВилка 200 - 230 т.р. на руки\nМосква, офис, полный рабочий день.\nКомпания занимается разработкой платежной системы.\nЗадачи:\n 1. Обеспечение бесперебойной работы серверов и приложений Компании (не менее 99.9% доступности);\n 2. Разработка и поддержка Docker-контейнеров приложений и оркестрация микросервисов с использованием Kubernetes;\n 3. CI/CD pipelining;\n 4. Развитие и поддержка мониторинга доступности сервисов Компании;\n 5. Автоматизация развертывания новых сервисов и управление конфигурациями;\nТребования:\n Linux(Debian-based, RedHat-based) – мы ждем администраторов;\n Nginx;\n Docker– разработка образов контейнеров;\n Bash,Python– написание скриптов автоматизации;\n Teamcity(GitlabCI, Jenkins) – реализация CI/CDpipeline;\n Git;\n Puppet (Chef, Ansible, Salt) – разработка своих модулей, модификация существующих;\n Kubernetes;\n Helm;\n Prometheus;\n vSphere (VCSA HA, advanced networking);\n Понимание Foreman;\n Использование регулярных выражений;\n Использование Hiera;\nУсловия:\n  Возможность выбрать время начала работы (с 8:00/9:00/10:00);\n Современный, просторный офис;\n Современный рабочий компьютер (16 GBRAM, SSD), удобное рабочее место;\n Комфортная кухонная зона для кофе-брейков, зона отдыха, PS4 PRO +VR;\n Возможность выбрать на чем работать: Windows/Linux\n ДМС по окончанию испытательного срока;\n Корпоративные курсы по изучению Английского языка;\n Компенсация расходов на питание по картам Obed.ru;\n Компенсация расходов на спорт, внутри БЦ World Trade Center\n\nКонтакты: @kristina_jobs\nКА RedCode\n\n—\n\n👉 Обсуждение вакансии в чате @devops_jobs","markup":[{"type":"hashtag","offset":0,"length":9,"data":"вакансия"},{"type":"hashtag","offset":10,"length":7,"data":"москва"},{"type":"hashtag","offset":18,"length":5,"data":"офис"},{"type":"link","offset":1442,"length":7,"data":"http://Obed.ru"},{"type":"handle","offset":1523,"length":14,"data":"kristina_jobs"},{"type":"handle","offset":1583,"length":12,"data":"devops_jobs"}],"date":"2020-03-12T13:17:33+00:00","link":"tg://resolve?domain=devops_jobs_feed&post=1803","tags":[{"name":"docker"},{"name":"kubernetes"},{"name":"linux"},{"name":"debian"},{"name":"nginx"},{"name":"bash"},{"name":"python"},{"name":"jenkins"},{"name":"git"},{"name":"ansible"},{"name":"windows"}],"cities":[{"code":"moscow"}],"allowsRemote":false}},{"node":{"__typename":"Job","id":"1887436800-1001134745498","title":"Devops инженер","text":"#вакансия #fulltime #teamlead #DevOps #СПБ \nПривет! \nTL Devops, 1 сотрудник в подчинении. Есть небольшая команда на стороне заказчиков. \nЛокация: Санкт-Петербург\nФормат работы: приоритет - офис, но удаленка тоже возможна. \nГрафик: 5/2 с гибким началом рабочего дня. \nЗанятость: полная\nЗарплатная вилка: от 180 до 220 на руки\n\n🧰Мы: 4xxi.com (разработка проектов-стартапов (веб, мобильные истории IOS/Android)). 90% проектов компании приходятся на зарубежный рынок (США, Англия основные страны).\n\n🍩 Плюшки: \n✔️оформление по ТК РФ (мы белые полностью);\n✔️уроки английского языка;\n✔️ДМС;\n✔️спортивные мероприятия;\n✔️обучение и развитие;\n✔️офис в центре города в стиле лофт, м.Горьковская;\n✔️кухня, забитая вкусняхами;\n\nТребования: \n☑️опыт работы на позиции системного администратора UNIX/Linux от 2х лет;\n☑️ОС: Linux/Unix (Ubuntu/Debian и CentOS/Redhat). Уровень ведущего системного администратора;\n☑️опыт автоматизации рутинных задач с помощью python/php/ruby/bash;\n☑️опыт практического использования Ansible/puppet/chef для управления конфигурациями;\n☑️опыт практического использования систем контейнеризации Docker/LXC/LXD;\n☑️администрирование серверов, сетевого оборудования;\n☑️знание сетевых протоколов, понимание протоколов маршрутизации;\n☑️опыт работы с такими сервисами AWS как SES, SNS, Container engine, Route53, S3, RDS;\n☑️Kubernetes/CoreOS.\n\n☑️список ПО, используемого компанией\n- Nginx\n- PHP(php-fpm)\n- Postgresql\n- MongoDB\n- Mysql/Percona Mysql\n- Nodejs\n- Zabbix\n- Redis\n- postfix/exim\n- bind\n\nПишите и присылайте свои резюме:  vyangurskaya@4xxi.com, @vyangurskaya\n\n—\n\n👉 Обсуждение вакансии в чате @devops_jobs","markup":[{"type":"hashtag","offset":0,"length":9,"data":"вакансия"},{"type":"hashtag","offset":10,"length":9,"data":"fulltime"},{"type":"hashtag","offset":20,"length":9,"data":"teamlead"},{"type":"hashtag","offset":30,"length":7,"data":"DevOps"},{"type":"hashtag","offset":38,"length":4,"data":"СПБ"},{"type":"link","offset":332,"length":8,"data":"http://4xxi.com"},{"type":"link","offset":1540,"length":21,"data":"mailto:vyangurskaya@4xxi.com"},{"type":"handle","offset":1563,"length":13,"data":"vyangurskaya"},{"type":"handle","offset":1611,"length":12,"data":"devops_jobs"}],"date":"2020-03-12T11:28:54+00:00","link":"tg://resolve?domain=devops_jobs_feed&post=1800","tags":[{"name":"ios"},{"name":"android"},{"name":"unix"},{"name":"linux"},{"name":"ubuntu"},{"name":"debian"},{"name":"centos"},{"name":"python"},{"name":"php"},{"name":"ruby"},{"name":"bash"},{"name":"ansible"},{"name":"docker"},{"name":"amazon-web-services"},{"name":"kubernetes"},{"name":"nginx"},{"name":"postgresql"},{"name":"mongodb"},{"name":"mysql"},{"name":"nodejs"},{"name":"redis"}],"cities":[],"allowsRemote":true}},{"node":{"__typename":"Job","id":"1882193920-1001134745498","title":"Devops инженер","text":"#вакансия #devops  #москва\n\nВакансия: DevOps\nКомпания: IBS https://www.ibs.ru/\nФормат работы: офис, возможна частичная удаленка\nГород: Москва (м. Дмитровская)\nЗП вилка: 150-230 тыс. руб. гросс\n\nОбязанности:\n•  Организация процесса непрерывной сборки приложений (CI) на базе TC\n•  Участие в разработке скриптов автоматизированного развёртывания приложений (ansible, bash)\n•  Участие в разработке/доработке технической архитектуры системы (совместно с архитектором системы), составление требований к серверам и системному ПО\n•  Сборка и развертывание приложений/разработок на разработческой, тестовой и продуктивных средах (участие, организация и настройка процесса)\n•  Мониторинг работы системы/компонентов системы, проработка принципов отказоустойчивости инфраструктуры\n•  Установка и настройка системного ПО, включая БД и прочего ПО\n•  Диагностика и устранение проблем с системным ПО и прочим ПО, решение проблем по производительности (в части системного ПО, настройки БД и прочего ПО)\n•  Организация и проведение автоматического тестирования, включая нагрузочное.\n•  Развертывание и сопровождение инструментов разработки: Gitlab, Confluence, Jira, TestRail\n•  Автоматизация деплоя стендов разработки и тестирования.\n\nТребования:\n•  Понимание и опыт поддержки, устранения проблем с сетевыми сервисами Linux\n•  Понимание принципов построения отказоустойчивых систем\n•  Опыт настройки или сопровождения CI/СD (TeamCity) и опыт автоматизации с использованием Ansible\n•  Владение Bash и/или Python\n•  Наличие опыта настройки и управления Nginx и HAProxy\n•  Знание принципов балансировки нагрузки (например, HAProxy и Citrix NetScaler)\n•  Умение работать с инструментами мониторинга Zabbix/Nagios или их аналогами.\n\nУсловия:\n•  Работа в лидирующей IT компании, профессиональное развитие\n•  Конкурентная заработная плата по результатам собеседования, ежегодный ее пересмотр\n•  Работа в команде с сильной экспертизой\n•  Обучение, участие в корпоративных тренингах/семинарах, наставничество\n•  Социальный пакет, оформление по ТК РФ\n•  Испытательный срок 3 месяца\n•  Офис Москва, м.Дмировская\n\nЕще больше о компании https://www.facebook.com/IBS.ru\n\nКонтакты: opankina@ibs.ru @itgig\n\n—\n\n👉 Обсуждение вакансии в чате @devops_jobs","markup":[{"type":"hashtag","offset":0,"length":9,"data":"вакансия"},{"type":"hashtag","offset":10,"length":7,"data":"devops"},{"type":"hashtag","offset":19,"length":7,"data":"москва"},{"type":"link","offset":59,"length":19,"data":"https://www.ibs.ru/"},{"type":"link","offset":2108,"length":31,"data":"https://www.facebook.com/IBS.ru"},{"type":"link","offset":2151,"length":15,"data":"mailto:opankina@ibs.ru"},{"type":"handle","offset":2167,"length":6,"data":"itgig"},{"type":"handle","offset":2208,"length":12,"data":"devops_jobs"}],"date":"2020-03-11T09:14:08+00:00","link":"tg://resolve?domain=devops_jobs_feed&post=1795","tags":[{"name":"ansible"},{"name":"bash"},{"name":"gitlab"},{"name":"linux"},{"name":"python"},{"name":"nginx"}],"cities":[{"code":"moscow"}],"allowsRemote":true}},{"node":{"__typename":"Job","id":"1879048192-1001134745498","title":"Devops инженер","text":"#вакансия #МСК #работаDevOps #seniorDevOps \n\nГород и адрес офиса: Москва; м.Арбатская\nФормат работы: офисная\nЗанятость: полная\nЗарплатная вилка: 100-200 gross + 25% бонус \nОписание вакансии:  \n\nПроект: платформа для финансовых услуг . \nДанный проект является новым продуктом компании. Поэтому одним из преимуществ является отсутсвие легасикода.Полностью новая разработка с нуля. \n\nЗадачи:  \n- Поддержка CI/CD инфраструктуры для разработки, тестирования (Jenkins, Kubernetes и др.)\n- Автоматизация задач (Bash / Python / Groovy)\n- Настройка ОС Linux и необходимого системного ПО под созданную архитектуру\n- Обновление и установка нового ПО на сервера Linux \n- Мониторинг работы сервиса и серверов (Zabbix, Prometheus, ELK Stack) снятие логов, оптимизация \n- Взаимодействие с командой разработчиков и совместное решение задач \n- Ведение технической документации по администрируемым сервисам и решениям \n\nТребования:  \n- Знание Linux, опыт работы с Linux от 3 лет \n- Опыт работы с CentOS (RHEL) от года \n- Опыт работы с Kubernetes и docker \n- Опыт работы с Kafka \n- Опыт работы с Zabbix, умение добавить дополнительные метрики для мониторинга  \n- Умение писать скрипты на bash \n- Умение локализовать проблему до точки отказа и объяснить это профильному специалисту для её решения \n- Опыт автоматизации на основе configuration managers: ansible, saltstack будет дополнительным преимуществом \n\nУсловия:  \n- Оформление по ТК  \n\nНазвание компании:https://ru.globalcareer.eu/  (Global Career)\n\nКонтакты: @EkaterinaHRecruiter\n\n—\n\n👉 Обсуждение вакансии в чате @devops_jobs","markup":[{"type":"hashtag","offset":0,"length":9,"data":"вакансия"},{"type":"hashtag","offset":10,"length":4,"data":"МСК"},{"type":"hashtag","offset":15,"length":13,"data":"работаDevOps"},{"type":"hashtag","offset":29,"length":13,"data":"seniorDevOps"},{"type":"link","offset":1440,"length":27,"data":"https://ru.globalcareer.eu/"},{"type":"handle","offset":1496,"length":20,"data":"EkaterinaHRecruiter"},{"type":"handle","offset":1551,"length":12,"data":"devops_jobs"}],"date":"2020-03-11T05:08:14+00:00","link":"tg://resolve?domain=devops_jobs_feed&post=1792","tags":[{"name":"jenkins"},{"name":"kubernetes"},{"name":"bash"},{"name":"python"},{"name":"groovy"},{"name":"linux"},{"name":"centos"},{"name":"docker"},{"name":"kafka"},{"name":"ansible"}],"cities":[{"code":"moscow"}],"allowsRemote":false}}]}}},"context":{}}