{"hash":"f34fd2c444a074f4e0e67d525015a008ef8e766f","data":{"records":{"id":"sql","name":"sql","belongsTo":{"totalCount":108,"pageInfo":{"totalPages":11,"currentPage":1},"edges":[{"node":{"__typename":"Job","id":"98356428800-1001089317451","title":"Qa engineer","text":"#вакансия #fulltime #тестировщик  #полнаязанятость #офис #qa #job #qajob #qaengineer #test #testing   #manual #тестер #тест #тестирование #офис #полнаязанятость #вакансия #работа #Москва #МСК \n▪️  Город:  Москва\n▪️  Компания:  Инновационный Центр Айтеко\n▪️  Позиция:   Тестировщик РФТ ( ручное функциональное тестирование\n▪️  Опыт:  от 1 года и выше\n▪️  Формат работы:   офис    \n▪️  Занятость:   полный день                                  \n▪️  Заработная  плата:  💰 от 100 000 до 160 000 (в зависимости от опыта)\n\nАй-Теко - ведущий российский системный интегратор и поставщик информационных технологий для корпоративных заказчиков. ТОП-10 крупнейших IT-компаний России.\n\nЧто хотим видеть в кандидате:\n• Опыт функционального или интеграционного тестирования web-приложений (frontend & backend)\n• Опыт по написанию тест-кейсов \n• Опыт работы с требованиями\n• Опыт работы с таск и баг-трекинговыми системами (Jira)\n• Опыт тестирования API\n• Знание SQL на уровне join-ов и работы с вложенными подзапросами\n• Познания в теории тестирования, процессов разработки ПО и методологий разработки \n\nБудет плюсом:\n• Знание и опыт разработки автотестов на Selenium (Java), web-driver, cucumber\n• Знание и опыт работы с HP QuickTest Professional;\n• Понимание одного из языков программирования (Java, C++).\n\nЧто предлагаем:\n• Полностью белое официальное оформление\n• Бонусы обсуждаются индивидуально\n• ДМС включая стоматологию\n• Скидки на фитнес\n• Обучение\n• Возможность участвовать в масштабных проектах, создавать то, чем будут пользоваться миллионы людей.\n\nПишите:\n @Taisia_Feo   Анастасия","markup":[{"type":"hashtag","offset":0,"length":9,"data":"вакансия"},{"type":"hashtag","offset":10,"length":9,"data":"fulltime"},{"type":"hashtag","offset":20,"length":12,"data":"тестировщик"},{"type":"hashtag","offset":34,"length":16,"data":"полнаязанятость"},{"type":"hashtag","offset":51,"length":5,"data":"офис"},{"type":"hashtag","offset":57,"length":3,"data":"qa"},{"type":"hashtag","offset":61,"length":4,"data":"job"},{"type":"hashtag","offset":66,"length":6,"data":"qajob"},{"type":"hashtag","offset":73,"length":11,"data":"qaengineer"},{"type":"hashtag","offset":85,"length":5,"data":"test"},{"type":"hashtag","offset":91,"length":8,"data":"testing"},{"type":"hashtag","offset":102,"length":7,"data":"manual"},{"type":"hashtag","offset":110,"length":7,"data":"тестер"},{"type":"hashtag","offset":118,"length":5,"data":"тест"},{"type":"hashtag","offset":124,"length":13,"data":"тестирование"},{"type":"hashtag","offset":138,"length":5,"data":"офис"},{"type":"hashtag","offset":144,"length":16,"data":"полнаязанятость"},{"type":"hashtag","offset":161,"length":9,"data":"вакансия"},{"type":"hashtag","offset":171,"length":7,"data":"работа"},{"type":"hashtag","offset":179,"length":7,"data":"Москва"},{"type":"hashtag","offset":187,"length":4,"data":"МСК"},{"type":"bold","offset":197,"length":6,"data":""},{"type":"bold","offset":216,"length":9,"data":""},{"type":"bold","offset":258,"length":8,"data":""},{"type":"bold","offset":326,"length":5,"data":""},{"type":"bold","offset":354,"length":14,"data":""},{"type":"bold","offset":384,"length":10,"data":""},{"type":"bold","offset":447,"length":18,"data":""},{"type":"bold","offset":518,"length":7,"data":""},{"type":"bold","offset":675,"length":29,"data":""},{"type":"bold","offset":1091,"length":13,"data":""},{"type":"bold","offset":1296,"length":15,"data":""},{"type":"bold","offset":1548,"length":7,"data":""},{"type":"handle","offset":1557,"length":11,"data":"Taisia_Feo"}],"date":"2020-04-10T11:07:06+00:00","link":"tg://resolve?domain=qa_jobs&post=93800","tags":[{"name":"qa"},{"name":"web"},{"name":"sql"},{"name":"selenium"},{"name":"java"},{"name":"cucumber"}],"cities":[{"code":"moscow"}],"allowsRemote":false}},{"node":{"__typename":"Job","id":"85166391296-1001067529236","title":"Python developer","text":"#job #вакансия #russia #python #Django #vacancy #IT #CV #remote\n\nДрузья, всем привет! \nНовая вакансия -  #SeniorPythonDeveloper\nЛокация - Россия, Томск\nПолный рабочий день, работа в офисе или remote\nОплата: 2400$\nSkills:\nRequirements:\nSoftware development experience (5+ years);\nAdvanced knowledge of Python 3+ / Python Core (language structures, standard libraries, regular expressions, etc.);\nExperience with Django (Django ORM, Django Rest Framework (1+years);\nExperience with AWS services: Lambda, API Gateway, SNS, SQS, SES, S3, RDS, VPC, EC2, CloudWatch, etc.\nExperience writing API and working / integration with API of third-party services;\nKnowledge of ​​the GraphQL API (Graphene will be a plus)\nKnowledge of SQL (knowledge of PostgreSQL relational DBMS will be a plus)\nKnowledge of CloudFormation in AWS and Terraform;\nAbility to read code and understand it at the level of business logic;\nAbility to work with general abstract tasks;\nWritten and spoken English is a MUST (B2+)\n\nЗа дополнительной информацией, пишите в ЛС\nTelegram: @Zalvovskaya","markup":[{"type":"hashtag","offset":0,"length":4,"data":"job"},{"type":"hashtag","offset":5,"length":9,"data":"вакансия"},{"type":"hashtag","offset":15,"length":7,"data":"russia"},{"type":"hashtag","offset":23,"length":7,"data":"python"},{"type":"hashtag","offset":31,"length":7,"data":"Django"},{"type":"hashtag","offset":39,"length":8,"data":"vacancy"},{"type":"hashtag","offset":48,"length":3,"data":"IT"},{"type":"hashtag","offset":52,"length":3,"data":"CV"},{"type":"hashtag","offset":56,"length":7,"data":"remote"},{"type":"hashtag","offset":105,"length":22,"data":"SeniorPythonDeveloper"},{"type":"handle","offset":1043,"length":12,"data":"Zalvovskaya"}],"date":"2020-04-10T10:24:35+00:00","link":"tg://resolve?domain=python_jobs&post=81221","tags":[{"name":"python"},{"name":"django"},{"name":"orm"},{"name":"rest"},{"name":"amazon-web-services"},{"name":"aws-lambda"},{"name":"graphql"},{"name":"sql"},{"name":"postgresql"}],"cities":[{"code":"tomsk"}],"allowsRemote":true}},{"node":{"__typename":"Job","id":"98349088768-1001089317451","title":"Qa engineer","text":"#вакансия #QA #ручное #ФТ #Москва #офис \n\nВакансия: QA Engineer (функциональное)\nГород: Москва м. Технопарк \nЗарплата: от 100 000 рублей до 170 000 рублей на руки \nФормат: офис, полный день, полная занятость\nКомпания Innovative People \n\nПроекты в крупном банке с классной корпоративной культурой, гибким началом дня, крутыми продактами и лидами.\n\n🚀 Требования:\n• опыт в тестировании от 1,5 лет (понимать процесс тестирования, уметь писать тест-кейсы, используя техники тест дизайна)\n• нужна здоровая самостоятельность - каждую задачу вряд ли кто-то будет ставить, зачастую нужно самому понимать - что, как и когда тестировать, много договариваться, искать инфу, спрашивать\n\nУ идеального кандидата есть еще:\n• знание REST, опыт тестирования API\n• знание SOAP\n• знания SQL, опыт составления запросов средней сложности\n• опыт интеграционного тестирования от 3+ систем в интеграции\n• опыт работы по Scrum\n\n🚀 Надо будет:\n• разрабатывать планы тестирования\n• писать тест-кейсы\n• искать дефекты и описывать их в баг-трекинговой системе\n• взаимодействовать с разработчиками\n• контролировать устранение ошибок;\n•  анализировать и оптимизировать процесс тестирования\n•  составлять отчетность\n\n🚀 Предлагаем:\n• все по ТК РФ\n• ДМС со стоматологией, программа лояльности\n• Macbook \n• гибкое начало дня, адекватное руководство\n(да, сейчас мы на удаленке)\n• большое комьюнити, классные команды\n• помогаем с релокацией\n\nРезюме и вопросы @Priboch","markup":[{"type":"hashtag","offset":0,"length":9,"data":"вакансия"},{"type":"hashtag","offset":10,"length":3,"data":"QA"},{"type":"hashtag","offset":14,"length":7,"data":"ручное"},{"type":"hashtag","offset":22,"length":3,"data":"ФТ"},{"type":"hashtag","offset":26,"length":7,"data":"Москва"},{"type":"hashtag","offset":34,"length":5,"data":"офис"},{"type":"bold","offset":350,"length":11,"data":""},{"type":"bold","offset":675,"length":32,"data":""},{"type":"bold","offset":906,"length":11,"data":""},{"type":"bold","offset":1188,"length":11,"data":""},{"type":"handle","offset":1423,"length":8,"data":"Priboch"}],"date":"2020-04-10T08:59:36+00:00","link":"tg://resolve?domain=qa_jobs&post=93793","tags":[{"name":"qa"},{"name":"rest"},{"name":"soap"},{"name":"sql"}],"cities":[{"code":"moscow"}],"allowsRemote":false}},{"node":{"__typename":"Job","id":"98345943040-1001089317451","title":"Qa engineer","text":"#Москва #офис #вакансия\n\nВакансия: QA Engineer\nКомпания: Самозанятые(самозанятые.рф)\nГород: Москва\nЗ/п: от 70.000\n\n\nОсновные задачи:\n• Проверка работоспособности и отказоустойчивости всей системы\n• Тестирование работы API модулей системы по документации\n• Проверка корректности отображения и доставки уведомлений, рассылок\n \nОт вас:\n• Опыт в позиции QA Engineer более 1 года;\n• Опыт работы с web-приложениями и мобильными приложениями.\n• Вести QA документацию.\n• Знания методологии и подходы тестирования, способность применять различные техники тестирования в зависимости от задач;\n• Внимательность к деталям, способность работать как в команде, так и самостоятельно.\n \nНаш стек:\n• SQL, NoSQL\n• JS\n• Java\n• И многое другое, которое под NDA","markup":[{"type":"hashtag","offset":0,"length":7,"data":"Москва"},{"type":"hashtag","offset":8,"length":5,"data":"офис"},{"type":"hashtag","offset":14,"length":9,"data":"вакансия"},{"type":"link","offset":69,"length":14,"data":"http://самозанятые.рф"}],"date":"2020-04-10T08:33:26+00:00","link":"tg://resolve?domain=qa_jobs&post=93790","tags":[{"name":"qa"},{"name":"web"},{"name":"sql"},{"name":"nosql"},{"name":"java"}],"cities":[{"code":"moscow"}],"allowsRemote":false}},{"node":{"__typename":"Job","id":"1433403392-1001091028994","title":"Java developer","text":"#java #middle+ #senoir #fulltime #Москва #Ярославль\nJava Developer\nКомпания: Solit Clouds\nЛокация: Москва/Ярославль\nЗп: от 180к до 250к \nКонтакты: @IrinaTishkina\n\nНаша сфера деятельности – это создание уникальных решений в области информатизации медицины, банковской сферы, финансовых организаций, складских систем и других, существенно влияющих на жизнь и здоровье, областей.\n✅Проекты:\n•  Разработка собственной Big Data / BI платформы\n•  Разработка решений в одном из самых масштабных проектов Москвы\n✅Во что предстоит погрузиться:\n•  Участие в проектировании и разработке высоконагруженных облачных решений;\n•  Предложение архитектурных и технических решений;\n•  Коммуникация с аналитиками: необходимо понимать бизнес задачу и предлагать оптимальное техническое решение;\n•  Проектирование интерфейсов и сервисов внутреннего обмена данными;\n•  Контроль качества технических решений, разрабатываемых командой.\n✅Какой опыт может быть интересен:\n•  Умение читать иностранную документацию;\n•  Способность и желание развиваться и изучать новые технологии;\n•  Знание и умение применять паттерны проектирования;\n•  Отличные знания Java и опыт создания приложений с нуля;\n•  Опыт работы с реляционными БД;\n•  Отличные знание SQL, навыки оптимизации планов запросов;\n✅Знание технологий:\n•  Java (Java SE, JEE);\n•  Spring Framework;\n•  Hibernate;\n•  Maven/Gradle;\n•  Oracle, PostgreSQL;\n•  Git/SVN/Mercurial;\n•  TomCat/Undertow/WildFly/GlassFish;\n•  SОAP, REST, WebSockets, JMS.\n✅Мы предлагаем:\n•  Участие в интересных масштабных проектах федерального уровня;\n•  Продуктовые команды, обмен опытом и наставничество;\n•  Конкурентная заработная плата и официальное оформление по ТК;\n•  Работа по гибким методологиям;\n•  Ежегодная оценка и пересмотр условий труда;\n•  Гибкое начало рабочего дня и социальный пакет.","markup":[{"type":"hashtag","offset":0,"length":5,"data":"java"},{"type":"hashtag","offset":6,"length":7,"data":"middle"},{"type":"hashtag","offset":15,"length":7,"data":"senoir"},{"type":"hashtag","offset":23,"length":9,"data":"fulltime"},{"type":"hashtag","offset":33,"length":7,"data":"Москва"},{"type":"hashtag","offset":41,"length":10,"data":"Ярославль"},{"type":"handle","offset":147,"length":14,"data":"IrinaTishkina"}],"date":"2020-04-10T07:57:38+00:00","link":"tg://resolve?domain=jvmjobs&post=1367","tags":[{"name":"java"},{"name":"jvm"},{"name":"sql"},{"name":"spring"},{"name":"hibernate"},{"name":"maven"},{"name":"gradle"},{"name":"oracle"},{"name":"postgresql"},{"name":"git"},{"name":"svn"},{"name":"mercurial"},{"name":"tomcat"},{"name":"rest"}],"cities":[{"code":"moscow"},{"code":"yaroslavl"}],"allowsRemote":false}},{"node":{"__typename":"Job","id":"98337554432-1001089317451","title":"Qa инженер","text":"#вакансия #QA #Москва #fulltime #офис #тестировщик\n\nКомпания: \"Zetta страхование\".\nzettains.ru\nЛокация: м.Преображенская площадь ( 5 мин.от метро)\n\nТестировщик ПО:\n\nВилка по зп в зависимости от уровня опыта.\n\nMiddle - от 90 000 и выше ( по результатам собеседования);\n\nОпыт работы:\nОт 1 года\n\nОбязанности:\n\n- написание тестовых сценариев\n- оценка задач на тестирование\n- разработка и актуализация тест-кейсов\n- ручное,интеграционное тестирование\n- регистрация дефектов в Jira\n- регистрация тестовых сценариев в TestRail\n\nНеобходимые навыки:\n\n- знание основных практик тестирования\n- понимание жизненного цикла разработки ПО\n- опыт написания тестовых сценариев\n- знание sql на уровне написания простых запросов SELECT ( выборка из нескольких таблиц)\n- опыт работы с системами управления тестированием: трассировка требований с тестами,работа с дефектами\n\nУсловия:\n- офис в 5 мин.от м.Преображенская площадь\n- официальное трудоустройство\n- соц.пакет: ДМС,страхование выезжающих за рубеж,скидки на другие виды страхования для сотрудников и семьи\n- график : 9.00 - 18.00 ( можно сдвинуться на час),пятница сокращенный день до 16.45\n\nКонтакты: Жду Ваши CV на почту aleksandra.dodaykina@zettains.ru\nИли в личку","markup":[{"type":"hashtag","offset":0,"length":9,"data":"вакансия"},{"type":"hashtag","offset":10,"length":3,"data":"QA"},{"type":"hashtag","offset":14,"length":7,"data":"Москва"},{"type":"hashtag","offset":22,"length":9,"data":"fulltime"},{"type":"hashtag","offset":32,"length":5,"data":"офис"},{"type":"hashtag","offset":38,"length":12,"data":"тестировщик"},{"type":"link","offset":83,"length":11,"data":"http://zettains.ru"},{"type":"link","offset":1160,"length":32,"data":"mailto:aleksandra.dodaykina@zettains.ru"}],"date":"2020-04-10T07:47:28+00:00","link":"tg://resolve?domain=qa_jobs&post=93782","tags":[{"name":"qa"},{"name":"sql"}],"cities":[{"code":"moscow"}],"allowsRemote":false}},{"node":{"__typename":"Job","id":"98307145728-1001089317451","title":"Qa engineer","text":"#qa #job #qajob #qaengineer #test #testing #fulltime  #manual #тестировщик #тестер #тест #тестирование #офис #полнаязанятость #вакансия #работа #Москва #МСК #аутсорс\n\n📌Должность: QA engineer\n📌ЗП: от 120k net \n📌Компания: Альфа-Банк\n\nВ команду Альфа-Банка требуются тестировщики senior/middle уровня.\nСейчас активно развиваются несколько проектов компании, в числе которых:\nОдна из команд разрабатывает веб-приложение, которое является частью интернет-банка\nДругой проект представляет собой поддержку Jira и Confluence для реализации проектов по автоматизации процессов.\nЕще один проект - Развитие платформы Поточного кредитования клиентов SME\nЗадачи:\n▪️тестирование доработок формата запроса/ответа системы кредитного скоринга/мониторинга ЮЛ по требованию бизнес-заказчика;\n▪️тестирование реализации новых интеграций с внутренними и внешними сервисами;\n▪️тестирование доработок компонент шины данных по взаимодействию с риск-системами Банка;\n▪️тестирование Hot-Fix (ошибок промышленной эксплуатации);\n\nТребования:\n▪️понимание ИТ-инфраструктуры;\n▪️понимание построения системных интеграций;\n▪️знание SQL-запросов на среднем уровне;\n▪️умение разрабатывать проектную документацию: тест-план, тест-кейс, тест-дизайн;\n▪️знание подходов к тестированию: регрессионное, функциональное, unit-тестирование;\n\nУсловия:\n▪️Интересные и нетривиальные задачи;\n▪️Отличный офис в стиле супергероев с множеством пуфиков, релакс-зоной, пингпонгом, а пар можно выпустить на груше и турнике;\n▪️Гибкий график работы;\n▪️Возможность влиять на всё то, что тебе не нравится;\n▪️Достойное вознаграждение и отсутствие кризиса;\n▪️Офис: Альфа-Банк - Москва м. Технопарк\n▪️Оформление на компанию-интегратора \n\nКонтакты:  @a_liisha (буду рада вашим резюме и рекомендациям😇)","markup":[{"type":"hashtag","offset":0,"length":3,"data":"qa"},{"type":"hashtag","offset":4,"length":4,"data":"job"},{"type":"hashtag","offset":9,"length":6,"data":"qajob"},{"type":"hashtag","offset":16,"length":11,"data":"qaengineer"},{"type":"hashtag","offset":28,"length":5,"data":"test"},{"type":"hashtag","offset":34,"length":8,"data":"testing"},{"type":"hashtag","offset":43,"length":9,"data":"fulltime"},{"type":"hashtag","offset":54,"length":7,"data":"manual"},{"type":"hashtag","offset":62,"length":12,"data":"тестировщик"},{"type":"hashtag","offset":75,"length":7,"data":"тестер"},{"type":"hashtag","offset":83,"length":5,"data":"тест"},{"type":"hashtag","offset":89,"length":13,"data":"тестирование"},{"type":"hashtag","offset":103,"length":5,"data":"офис"},{"type":"hashtag","offset":109,"length":16,"data":"полнаязанятость"},{"type":"hashtag","offset":126,"length":9,"data":"вакансия"},{"type":"hashtag","offset":136,"length":7,"data":"работа"},{"type":"hashtag","offset":144,"length":7,"data":"Москва"},{"type":"hashtag","offset":152,"length":4,"data":"МСК"},{"type":"hashtag","offset":157,"length":8,"data":"аутсорс"},{"type":"bold","offset":180,"length":12,"data":""},{"type":"bold","offset":375,"length":14,"data":""},{"type":"bold","offset":459,"length":13,"data":""},{"type":"bold","offset":572,"length":15,"data":""},{"type":"bold","offset":645,"length":8,"data":""},{"type":"bold","offset":1004,"length":12,"data":""},{"type":"bold","offset":1300,"length":9,"data":""},{"type":"bold","offset":1679,"length":8,"data":""},{"type":"handle","offset":1690,"length":9,"data":"a_liisha"}],"date":"2020-04-09T14:31:29+00:00","link":"tg://resolve?domain=qa_jobs&post=93753","tags":[{"name":"qa"},{"name":"dotnet"},{"name":"sql"}],"cities":[{"code":"moscow"}],"allowsRemote":false}},{"node":{"__typename":"Job","id":"98304000000-1001089317451","title":"Qa инженер","text":"Вакансия: #вакансия #qa  #тестировщик  #manual #automation \nКомпания: #infotechgroup https://infotech.group/ru\nЛокация: #казань #москва (М. Кутузовская)\nFulltime, office (релокейт), частично удаленно (для Москвы/Казани)\nЗ/п: 40 - 170 к (на руки) \nКонтакты: @alina_faskhutdinova\na.faskhutdinova@infotechcorp.com\n\nОбязанности:\nРучное тестирование; \nУпрощение работы ручных тестировщиков; \nРазработка и поддержка интеграционных тестов;\nПроповедование качества во всей организации;\n\nТребования:\nПонимание жизненного цикла разработки приложений, CI;\nОпыт автоматизации тестирования API;\nИнтеграционное тестирование веб-приложений;\nОпыт программирования на Java(Kotlin) / JavaScript;\nОценка необходимого объема и автоматизация UI-тестирования;\nАвтоматизация тестирования мобильных приложений;\nОпыт работы в Agile среде;\nОпыт работы с SQL;\n\nМы предлагаем:\nYепрерывное развитие, возможность участвовать в глобальных проектах. Занимаемся цифровизацией энергетики и предприятий в сфере безопасности.","markup":[{"type":"hashtag","offset":10,"length":9,"data":"вакансия"},{"type":"hashtag","offset":20,"length":3,"data":"qa"},{"type":"hashtag","offset":25,"length":12,"data":"тестировщик"},{"type":"hashtag","offset":39,"length":7,"data":"manual"},{"type":"hashtag","offset":47,"length":11,"data":"automation"},{"type":"hashtag","offset":70,"length":14,"data":"infotechgroup"},{"type":"link","offset":85,"length":25,"data":"https://infotech.group/ru"},{"type":"hashtag","offset":120,"length":7,"data":"казань"},{"type":"hashtag","offset":128,"length":7,"data":"москва"},{"type":"handle","offset":257,"length":20,"data":"alina_faskhutdinova"},{"type":"link","offset":278,"length":32,"data":"mailto:a.faskhutdinova@infotechcorp.com"}],"date":"2020-04-09T14:18:07+00:00","link":"tg://resolve?domain=qa_jobs&post=93750","tags":[{"name":"qa"},{"name":"java"},{"name":"kotlin"},{"name":"javascript"},{"name":"sql"}],"cities":[{"code":"kazan"},{"code":"moscow"}],"allowsRemote":true}},{"node":{"__typename":"Job","id":"66359132160-1001054966032","title":"Mobile разработчик","text":"#вакансия #минск #fulltime #reactnative #moblie\nГород: Минск, Немига\nФормат работы: Пока #удаленно, потом #офис\nЗанятость: #Полная\nВилка ЗП: От $500 до $3000. Надо знакомиться и смотреть навыки.\n\nПривет,\nМы NeatTech.io– команда амбициозных профессионалов, создающих веб и мобильные приложения.\n\nСердце нашей компании – Продукт. Мы стремимся создавать продукты так же круто, как это делают мировые лидеры: Яндекс, Google, Airbnb. Начиная с процессов и заканчивая результатом.\n\nЧтобы к этому прийти, нам приходится каждый день оттачивать свой профессионализм, искать новые подходы и учиться у лучших.\n\nПриглашаем стать частью нас.\n\nЧто предстоит\n\n- Создавать мобильные-приложения на Typescript + React Native\n- Работать напрямую с клиентами и учиться грамотно защищать и принимать лучшие технические решения основываясь на краткосрочных и долгосрочных целях бизнеса\n- Создавать и поддерживать переиспользуемые библиотеки для решения повторяющихся технических проблем\n- Менторить начинающих разработчиков\n- Тесно взаимодействовать с командой и участвовать в продуктовых митингах\n\nИдеальный кандидат\n\n- Умный, обладает математическим складом ума\n- Имеет больше года коммерческой разработки на React Native\n- Обладает хорошим продуктовым мышлением\n- Понимает весь SDLC\n- Разбирается в протоколах (например, REST или HTTP/2), SQL / NoSQL базах данных, основных NPM / React Native библиотеках\n- Умеет приоритезировать и всегда думает о том, какую пользу приносит работа. Не ставит целью написать \"крутой алгоритм\", а рационально находит баланс между качеством, скоростью и усилиями\n- Считает самосовершенствование важной частью жизни и работы\n- Бонус: без трудностей разговаривает, пишет и читает на английском\n\nБолее подробная информация по вакансии. \n\nСтать частью нас\nОткликнуться на вакансию можно по этой ссылке.","markup":[{"type":"hashtag","offset":0,"length":9,"data":"вакансия"},{"type":"hashtag","offset":10,"length":6,"data":"минск"},{"type":"hashtag","offset":17,"length":9,"data":"fulltime"},{"type":"hashtag","offset":27,"length":12,"data":"reactnative"},{"type":"hashtag","offset":40,"length":7,"data":"moblie"},{"type":"bold","offset":48,"length":5,"data":""},{"type":"bold","offset":69,"length":14,"data":""},{"type":"hashtag","offset":89,"length":9,"data":"удаленно"},{"type":"hashtag","offset":106,"length":5,"data":"офис"},{"type":"bold","offset":112,"length":10,"data":""},{"type":"hashtag","offset":123,"length":7,"data":"Полная"},{"type":"bold","offset":131,"length":9,"data":""},{"type":"bold","offset":630,"length":15,"data":""},{"type":"bold","offset":1077,"length":20,"data":""},{"type":"link","offset":1705,"length":42,"data":"https://www.notion.so/Middle-React-Native-a27e4a31628a48dbb3c79956bbe9ab61"},{"type":"bold","offset":1747,"length":17,"data":""},{"type":"link","offset":1798,"length":11,"data":"https://forms.gle/aqDbYcbXTSvxR29r5"}],"date":"2020-04-09T13:46:42+00:00","link":"tg://resolve?domain=mobile_jobs&post=63285","tags":[{"name":"mobile"},{"name":"typescript"},{"name":"reactjs"},{"name":"rest"},{"name":"sql"},{"name":"nosql"},{"name":"npm"},{"name":"react-native"}],"cities":[{"code":"minsk"}],"allowsRemote":true}},{"node":{"__typename":"Job","id":"1431306240-1001091028994","title":"Java разработчик","text":"#scala #teamlead #senior #офис #удаленно #fulltime #Москва\n\nПриглашаем Scala-разработчика уровня senior-teamlead, 220-270 тыс. на руки.\n\nТребования:\nлидировать и развивать команду разработчиков\nразвивать backend приложение на Akka HTTP\nпрорабатывать интеграции для сервисов на Java (Spring Cloud)\nинтегрироваться со стеком Kafka, MQ, Redis, Orcale SQL, Postgres\nfrontend разработка (React, Redux, Typescript, собственная библиотека компонентов)\nработать с витринами на Spark, Hadoop\nразработать web-scraper на Akka Streams\nподдерживать процесс сборки и тестирования (git, Ansible, Jenkins, Docker, OpenShift)\n\nСбербанк, Москва, Кутузовская\n\nКонтакты: @MikeTurchenkov","markup":[{"type":"hashtag","offset":0,"length":6,"data":"scala"},{"type":"hashtag","offset":7,"length":9,"data":"teamlead"},{"type":"hashtag","offset":17,"length":7,"data":"senior"},{"type":"hashtag","offset":25,"length":5,"data":"офис"},{"type":"hashtag","offset":31,"length":9,"data":"удаленно"},{"type":"hashtag","offset":41,"length":9,"data":"fulltime"},{"type":"hashtag","offset":51,"length":7,"data":"Москва"},{"type":"handle","offset":651,"length":15,"data":"MikeTurchenkov"}],"date":"2020-04-09T11:58:52+00:00","link":"tg://resolve?domain=jvmjobs&post=1365","tags":[{"name":"java"},{"name":"jvm"},{"name":"scala"},{"name":"akka"},{"name":"spring"},{"name":"cloud"},{"name":"kafka"},{"name":"redis"},{"name":"sql"},{"name":"postgresql"},{"name":"reactjs"},{"name":"redux"},{"name":"typescript"},{"name":"hadoop"},{"name":"web"},{"name":"git"},{"name":"ansible"},{"name":"jenkins"},{"name":"docker"},{"name":"react-redux"}],"cities":[{"code":"moscow"}],"allowsRemote":true}}]}}},"context":{}}