{"hash":"f5f6bf98bd95e769321482904cbbd488f77922fd","data":{"records":{"id":"realm","name":"realm","belongsTo":{"totalCount":23,"pageInfo":{"totalPages":3,"currentPage":3},"edges":[{"node":{"__typename":"Job","id":"71542243328-1001054966032","title":"Ios разработчик","text":"#вакансия #москва #офис #senior #ios #developer #gamedev #swift \nГород и адрес офиса: Москва, м.Автозаводская \nФормат работы: офис \nЗанятость: полная \nЗарплатная вилка: от 250 000 до 300 000 на руки \n\n\n✅ Senior iOS Developer \n\nОписание вакансии: \n\nМы - успешная команда из 120 человек, которая занимается: \n• разработкой собственных мобильных игр и приложений \n• паблишингом мобильных игр \n• рекламой и маркетингом мобильных приложений (реклама на Facebook, Google и т.д.) \nЗа последние 3 года мы привлекли более 100 млн пользователей в наши собственные мобильные приложения и приложения наших клиентов и партнеров, потратив на это более $80 млн. \n\nУ нас есть все составляющие чтобы делать готовые продукты известными и популярными. Мы ищем сильного и талантливого разработчика для усиления нашей текущей слаженно работающей команды и выведения нашего Fitness & Health iOS приложения Fitingo на лидирующие позиции в мире (уже сейчас приложение занимало позиции ТОП 13 в США и ТОП 6 в Великобритании с более чем 400,000 установок и более чем 45,000 совершенных покупок).\n\n✅Задачи: \n\n•  Разрабатывать новый функционал\n•  Рефакторить и оптимизировать код\n•  Писать код. Больше логики, меньше UI. Например - хранить историю и прогресс; сделать leaderboard по странам; добавить чат, аналитику и a/b тесты; Apple Health, Watch, Music и TV\n•  Участвовать в Code Review\n\nТекущий стек: Swift 5.1, MVPC, AVFoundation, UserNotifications, Realm, StoreKit, Firebase, PushWoosh, Facebook, Python.\n\n✅Требования: \n\n•  Опыт работы разработчиком iOS приложений от 3х лет\n•  Отличное знание Swift\n•  Уверенное знание SOLID и паттернов проектирования\n•  Умение профилировать приложение (Батарейка, утечки и вот это все)\n•  Опыт работы с системой контроля версий\n•  Наличие выпущенных проектов на Swift\n•  Желание делать красивые, интересные и популярные приложения\n\n✅Будет плюсом: \n\n•  Умение/желание писать небольшие серверные скрипты (например на Python)\n•  Умение автоматизировать рутинные процессы\n•  Умение рефакторить код итеративно\n•  Адекватный перфекционизм\n\n\n✅Для вас: \n\n•  Конкурентная заработная плата, выплачивается 2 раза в месяц\n•  Необходимое оборудование для работы\n•  Возможность набрать команду и выстроить всю работу под себя в краткосрочной перспективе\n•  Оформление по ТК РФ, оплачиваемые больничные, 28 дней оплачиваемого отпуска в год\n•  Возможны регулярные бонусы по результатам работы проектов\n•  Собеседование с лицом принимающим решение\n•  Возможность коммуницировать с людьми, которые принимают продуктовые решения\n\n✅О нас: \n\n•  Просторный офис 600 метров на м. Автозаводская (3 минуты от метро и от ТТК на машине) с ультра современным дизайном и кучей ништяков (кухня с вкусняшками, кальяны каждый вечер в дружной кампании, PS4 Pro + 4K TV, аркадные автоматы с Pac-Man, Metal Slug и другими хитами геймдизайна, просторная зона отдыха, 5 переговорных комнат и т д)\n•  Команда из 100 человек занимающаяся паблишингом и маркетингом, готовая сделать продукт успешным после его готовности\n•  Возможность обучаться английскому языку с носителями каждый будний день по утрам\n•  Менторы и инвесторы, создавшие большое количество успешных IT компаний (оборот в 2018 году более 140 млн долларов)\n\nНазвание компании: AppQuantum \n\nКонтакты: \ne-mail: vika@adquantum.com\ntelegram: @wikki13","markup":[{"type":"hashtag","offset":0,"length":9,"data":"вакансия"},{"type":"hashtag","offset":10,"length":7,"data":"москва"},{"type":"hashtag","offset":18,"length":5,"data":"офис"},{"type":"hashtag","offset":24,"length":7,"data":"senior"},{"type":"hashtag","offset":32,"length":4,"data":"ios"},{"type":"hashtag","offset":37,"length":10,"data":"developer"},{"type":"hashtag","offset":48,"length":8,"data":"gamedev"},{"type":"hashtag","offset":57,"length":6,"data":"swift"},{"type":"link","offset":3248,"length":18,"data":"mailto:vika@adquantum.com"},{"type":"handle","offset":3277,"length":8,"data":"wikki13"}],"date":"2020-06-18T07:34:45+00:00","link":"tg://resolve?domain=mobile_jobs&post=0","tags":[{"name":"mobile"},{"name":"ios"},{"name":"swift"},{"name":"realm"},{"name":"firebase"},{"name":"python"}],"cities":[{"code":"moscow"}],"allowsRemote":false}},{"node":{"__typename":"Job","id":"71402782720-1001054966032","title":"Ios разработчик","text":"#вакансия #iOS #удалёнка #fulltime #swift \n\nКомпания: \"Доктор на работе\" - социальная сеть для врачей. Самая стабильная отрасль сейчас:  Фарма+ Digital.\nМесто работы: удалённая работа\nЗП:  от 165к до 180к рублей на руки, белая\n\nИщем еще одного iOS разработчика.  \n\n🤟Особенности: новый проект, без легаси. Технологии: Swift, MVVM, Alamofire, Codable, Realm, RxSwift, SignalR, WebSockets.\n\n🔥Задача: создание новой Ленты врача с нуля, доработка существующего мессенджера для наших пользователей.\n\n🔥 Условия:\n* зп от 165к до 180к рублей на руки, белая;\n* удалённая работа.\n\n\n👉Вакансию можно посмотреть здесь: https://dev.doktornarabote.ru/ios\n👉 Отклики ждем здесь:  hr@doktornarabote.ru или в Telegram: @KseniaRyakhovskaya","markup":[{"type":"hashtag","offset":0,"length":9,"data":"вакансия"},{"type":"hashtag","offset":10,"length":4,"data":"iOS"},{"type":"hashtag","offset":15,"length":9,"data":"удалёнка"},{"type":"hashtag","offset":25,"length":9,"data":"fulltime"},{"type":"hashtag","offset":35,"length":6,"data":"swift"},{"type":"bold","offset":244,"length":16,"data":""},{"type":"bold","offset":510,"length":40,"data":""},{"type":"link","offset":609,"length":33,"data":"https://dev.doktornarabote.ru/ios"},{"type":"link","offset":667,"length":20,"data":"mailto:hr@doktornarabote.ru"},{"type":"handle","offset":704,"length":19,"data":"KseniaRyakhovskaya"}],"date":"2020-06-16T13:51:52+00:00","link":"tg://resolve?domain=mobile_jobs&post=0","tags":[{"name":"mobile"},{"name":"ios"},{"name":"swift"},{"name":"mvvm"},{"name":"realm"},{"name":"signalr"}],"cities":[],"allowsRemote":true}},{"node":{"__typename":"Job","id":"71359791104-1001054966032","title":"Ios разработчик","text":"#вакансия #ios #swift #офис #москва\nм.Бауманская, полная занятость\nБелая з/п от 130.000 до 200.000 руб. на руки (рассматриваем уровень Middle/Senior)\niOS developer\nНа время изоляции работаем удаленно, после вновь вернемся в офис!\nПолностью удаленной работы у нас нет!\n\n Мы — команда разработки Level.Travel, сложного продукта в сфере путешествий.  За последние 8 лет мы с нуля создали и продолжаем развивать решение для онлайн-продажи путешествий. Нашу платформу используют лидеры рынка – Тинькофф Банк, OneTwoTrip, Сбербанк, TripAdvisor, Kayak, АК Барс Банк, Евросеть и многие другие. Компания Level.Travel является резидентом Инновационного центра «Сколково».\n\nОбязанности:\n🔸Разработка проекта на Swift\n🔸Разработка новых модулей приложения\n🔸Проведение code review\n🔸Пишем на VIPER, используем Realm, Swinject, SnapKit\n🔸Сбор требований и фидбэка от других команд разработчиков и дизайнеров для улучшения и развития нашего продукта\n🔸Проводить оценку и корректировать требования для развития и улучшения приложения\n\nОт Вас:\n🔸Разработка на iOS от 2х лет\n🔸Умеете писать поддерживаемый и тестируемый код и понимаете, что DRY, KISS и 🔸SOLID — не просто аббревиатуры\n🔸Умение разрабатывать многопоточные приложения\n🔸Способность планировать и приоритезировать работу\n🔸Умение находить аргументы и конструктивно реагировать на комментарии коллег\n🔸Готовность много общаться с другими командами\n\nОт нас: белая зп, официальное трудоустройство, больничные, отпуска. Скидки на изучение английского языка, техника MacBook Pro. Регулярная обратная связь и аттестации. Геймификация процессов и несколько раз в год релокейты поработать в другую страну. Клевый молодой коллектив, интересные ивенты, насыщенная корпоративная жизнь. Пинг-понг, бильярд, кальян и другие развлечения в офисе. Скидки на путешествия)\n\nСвязь по почте: vos@level.travel\nИли тут @Alyask_a","markup":[{"type":"hashtag","offset":0,"length":9,"data":"вакансия"},{"type":"hashtag","offset":10,"length":4,"data":"ios"},{"type":"hashtag","offset":15,"length":6,"data":"swift"},{"type":"hashtag","offset":22,"length":5,"data":"офис"},{"type":"hashtag","offset":28,"length":7,"data":"москва"},{"type":"bold","offset":67,"length":44,"data":""},{"type":"bold","offset":150,"length":13,"data":""},{"type":"bold","offset":164,"length":65,"data":""},{"type":"bold","offset":270,"length":76,"data":""},{"type":"bold","offset":664,"length":12,"data":""},{"type":"bold","offset":1021,"length":7,"data":""},{"type":"bold","offset":1397,"length":7,"data":""},{"type":"bold","offset":1805,"length":32,"data":""},{"type":"link","offset":1821,"length":16,"data":"mailto:vos@level.travel"},{"type":"bold","offset":1838,"length":17,"data":""},{"type":"handle","offset":1846,"length":9,"data":"Alyask_a"}],"date":"2020-06-16T08:56:51+00:00","link":"tg://resolve?domain=mobile_jobs&post=0","tags":[{"name":"mobile"},{"name":"ios"},{"name":"swift"},{"name":"realm"}],"cities":[{"code":"moscow"}],"allowsRemote":true}}]}}},"context":{}}