{"hash":"f5f6bf98bd95e769321482904cbbd488f77922fd","data":{"records":{"id":"ios","name":"ios","belongsTo":{"totalCount":194,"pageInfo":{"totalPages":20,"currentPage":9},"edges":[{"node":{"__typename":"Job","id":"103733526528-1001089317451","title":"Qa инженер","text":"#вакансия #qa #москва #удаленная работа\n\nКомпания VMB - Мы создаём веб/мобильные приложения и сложные информационные системы: продумываем концепцию, проектируем, разрабатываем, тестируем, поддерживаем и развиваем.                                               \n\nМы ищем тестировщика веб и мобильных приложений на платформах Android и IOS. \n\nЗадачи:\n- ручное тестирование веб/мобильных приложений\n- функциональное, интеграционное, регрессивное, нагрузочное тестирование\n- регистрация обнаруженных дефектов в багтрекинг-системе, отслеживание исправления дефектов и их повторное тестирование.\n\nЧто ждём от вас?\n- опыт тестирования мобильных приложений от года\n- умение писать понятные и работающие тест-кейсы\n- опыт работы с багтрекинговыми системами\n- умение поддерживать конструктивный диалог с другими членами команды.\n\nМы предлагаем:\n- возможность работать удаленно \n- ЗП вилка 60к - 100к рублей на руки\n- участие в интересных и известных проектах\n- возможность карьерного роста и профессионального развития\n- гибкое начало рабочего дня\n\nКонтакты\n@nariarakel","markup":[{"type":"hashtag","offset":0,"length":9,"data":"вакансия"},{"type":"hashtag","offset":10,"length":3,"data":"qa"},{"type":"hashtag","offset":14,"length":7,"data":"москва"},{"type":"hashtag","offset":22,"length":10,"data":"удаленная"},{"type":"handle","offset":1048,"length":11,"data":"nariarakel"}],"date":"2020-06-25T15:33:49+00:00","link":"tg://resolve?domain=qa_jobs&post=98928","tags":[{"name":"qa"},{"name":"android"},{"name":"ios"}],"cities":[{"code":"moscow"}],"allowsRemote":true}},{"node":{"__typename":"Job","id":"72028782592-1001054966032","title":"Ios разработчик","text":"#вакансия #работа #iOS #Developer #fulltime #удаленно\n\nВсем привет!\n\nМы в applicatura.com опять выросли и ищем middle iOS-разработчика. \nЗП 60 000 - 100 000 руб. после налогов. \n\n\nМы создаем и поддерживаем мобильные приложения для крупных известных брендов , SimpleWine, Перекресток, Абсолют Банк и др. \nВ команде - дизайнеры, мобильные разработчики, бэкенд разработчики, проджект менеджеры, qa-инженеры.\nУ нас налаженные процессы разработки и никакого чайка-менеджмента. \n\nЧто вам придется делать:\n - разрабатывать новые приложений \n - поддерживать имеющиеся приложения клиентов\n - создание библиотек и SDK\n - верстать по макетам дизайнеров\n - проходить технические аудиты от заказчиков\n\n\nТребования:\n- Опыт коммерческой разработки от 0,5 года;\n - Знание Swift\n - Знание особенностей и тонкостей разработки под iOS (UIKit, Foundation, CoreData и др.)\n - Знание git и уверенное использование подходов и инструментов командной разработки и ревью кода - ревьювить будем вас )\n - Имеющееся представление о том, как выстроить архитектуру большого и сложного приложения\n - Знания последних технологий, фреймворков, инструментов и вообще желание разумно следовать прогрессу\n - Понимание аспектов и этапов разработки мобильного приложения полного цикла (от настройки окружения до релиза в сторы)\n - Знание библиотек и стека мобильной разработки\n\nУсловия:\n\n - белая ЗП, соблюдаем и чтим Трудовой Кодекс РФ\n - возможность иметь нестандартный рабочий график\n - предоставляем возможности для карьерного и профессионального роста\n - работа в крупных публичных проектах, которые можно положить себе в портфолио\n \nВАЖНО! Вакансия для граждан РФ/РБ. \n\nПисать в телеграм @k_kononov, CV присылать на почту kononov@applicatura.com","markup":[{"type":"hashtag","offset":0,"length":9,"data":"вакансия"},{"type":"hashtag","offset":10,"length":7,"data":"работа"},{"type":"hashtag","offset":18,"length":4,"data":"iOS"},{"type":"hashtag","offset":23,"length":10,"data":"Developer"},{"type":"hashtag","offset":34,"length":9,"data":"fulltime"},{"type":"hashtag","offset":44,"length":9,"data":"удаленно"},{"type":"link","offset":74,"length":15,"data":"http://applicatura.com"},{"type":"handle","offset":1655,"length":10,"data":"k_kononov"},{"type":"link","offset":1689,"length":23,"data":"mailto:kononov@applicatura.com"}],"date":"2020-06-25T15:06:42+00:00","link":"tg://resolve?domain=mobile_jobs&post=68692","tags":[{"name":"mobile"},{"name":"ios"},{"name":"swift"},{"name":"uikit"},{"name":"git"}],"cities":[],"allowsRemote":true}},{"node":{"__typename":"Job","id":"72025636864-1001054966032","title":"Ios developer","text":"#вакансия #IOS #Senior #Objective-C #Swift #удаленно\n🔥Приглашаем Senior IOS Developer в новый проект от Сбербанка.\n💸Уровень ЗП: 250К-330К net (в зависимости от типа оформления).\n📝Оформление: ИП или штат компании партнера.\n📍Локация: удаленно❗️\n\n🧑‍💻О проекте: фронтальная SDK биометрической платформы. Данный проект занимается разработкой продукта «Фронтальная биометрическая компонента» (Фронтальная БиоSDK) для биометрической идентификации личности на различных ОС и устройствах. Первоочередная задача сейчас – забрать текущие версии SDK у непрофильных подразделений и на их основе разработать Фронтальной БиоSDK для мобильных приложений (iOS). Банку, как высокотехнологичной организации необходима биометрическая идентификация личности. Это позволит перейти к системам без документов, паролей, смс, пинкодов.\n\n🎯Ваши будущие задачи:\n· разработка (с «нуля») и поддержка собственной компоненты фронтального Био SDK по работе с камерами устройств и нейросетями собственной лаборатории (Machine Learning, Data Scientist, Computer Vision) и решений вендоров;\n· интеграция Био SDK с каналами/продуктами Банка мобильных решений\n(iOS), а также прочих систем банка (Linux, Windows, Web, SmartDevices);\n· постоянное повышение качества продукта на фоне постоянно обучающихся нейросетей.\n\n🤝Мы ожидаем от Вас:\n- сильный Swift (опыт от 2 лет), понимание Objective-C (желательно опыт от 2 лет);\n- знание следующих тем: CALayer, viewDidLoad в UIViewController, ARC, CoreData, Корневые классы, Retain-циклы и утечка памяти MRC, Atomic, SOLID, Отрисовка UI, Мультипоточность.\n\nОткликнуться на вакансию и задать вопросы: telegram @anisimovaane4ka","markup":[{"type":"hashtag","offset":0,"length":9,"data":"вакансия"},{"type":"hashtag","offset":10,"length":4,"data":"IOS"},{"type":"hashtag","offset":15,"length":7,"data":"Senior"},{"type":"hashtag","offset":23,"length":10,"data":"Objective"},{"type":"hashtag","offset":36,"length":6,"data":"Swift"},{"type":"hashtag","offset":43,"length":9,"data":"удаленно"},{"type":"handle","offset":1619,"length":16,"data":"anisimovaane4ka"}],"date":"2020-06-25T14:24:48+00:00","link":"tg://resolve?domain=mobile_jobs&post=68689","tags":[{"name":"mobile"},{"name":"ios"},{"name":"objective-c"},{"name":"swift"},{"name":"dotnet"},{"name":"linux"},{"name":"windows"},{"name":"web"},{"name":"machine-learning"}],"cities":[],"allowsRemote":true}},{"node":{"__typename":"Job","id":"17150509056-1001110946746","title":"Javascript разработчик","text":"#react #typescript #middle #вакансия #Москва\n\nГород и адрес офиса: Москва, Проспект Мира 69/1\n\nФормат работы: офис\n\nЗанятость: полная\n\nЗарплатная вилка: от 180 000 до 230 000 рублей\n\nНазвание компании: ООО «Компания БКС»\n\nЧем предстоит заниматься: \n\n- Разрабатывать один из самых важных микросервисов компании - Дистанционное открытие брокерского счета (ДОБС). Каждый наш новый клиент создается с помощью этого сервиса;\n\n- Работать в кросс-функциональной команде - Backend(4 чел), Web, IOS, Android, QA по Scrum;\n\n- Принимать участие в развитии микро-фронтенд архитектуре.\n\nЧто для этого потребуется:\n\n- Опыт разработки на Javascript от 3-х лет;\n- Опыт работы с React и любым state management'ом (redux, mobx, effector и др.) от 2-х лет;\n- Опыт работы с Typescript;\n- Опыт в кроссбраузерной и адаптивной верстке;\n- Опыт в написании тестов: Unit, интеграционные;\n- Опыт работы с Docker;\n- Опыт работы по Scrum;\n\nЗа что предложим справедливую компенсацию:\n\n- Оформление в соответствии с ТК РФ, все по правилам порядочных работодателей;\n- Комфортный, современный офис в центре города (7 мин. от м. Проспект Мира);\n- Гибкой график;\n- 3 day-off в течение года;\n- Более чем конкурентную заработную плату;\n- Минимум бюрократии (особенно по меркам банковского сектора) и отсутствие дресс-кода;\n- ДМС по льготным условиям;\n- Спортивные команды по футболу, волейболу, баскетболу, настольному теннису;\n- Обучение английскому языку со скидкой прямо в офисе и дистанционно;\n- Льготное приобретение фитнеса в компании World Class;\n- Уютная недорогая столовая на территории Компании (завтраки, обеды).\n\nКонтакты:\nEmail: tupalovdd@bcs.msk.ru\nТелеграм: @dtupalov","markup":[{"type":"hashtag","offset":0,"length":6,"data":"react"},{"type":"hashtag","offset":7,"length":11,"data":"typescript"},{"type":"hashtag","offset":19,"length":7,"data":"middle"},{"type":"hashtag","offset":27,"length":9,"data":"вакансия"},{"type":"hashtag","offset":37,"length":7,"data":"Москва"},{"type":"link","offset":1605,"length":20,"data":"mailto:tupalovdd@bcs.msk.ru"},{"type":"handle","offset":1636,"length":9,"data":"dtupalov"}],"date":"2020-06-25T11:30:26+00:00","link":"tg://resolve?domain=javascript_jobs_feed&post=16356","tags":[{"name":"javascript"},{"name":"reactjs"},{"name":"typescript"},{"name":"web"},{"name":"ios"},{"name":"android"},{"name":"redux"},{"name":"docker"}],"cities":[{"code":"moscow"}],"allowsRemote":false}},{"node":{"__typename":"Job","id":"72014102528-1001054966032","title":"Ios developer","text":"#вакансия #работа #ios #senior #spb \n\nSenior iOS developer\n\nЛокация: Санкт-Петербург, м. Петроградская (БЦ \"Толстой сквер\")\n\nРабота в офисе с возможностью работы из дома, полная занятость;\n\nВилка от 150 до 300к;\n\nАмериканская компания, занимающаяся разработкой фичи по работе с голосом, в поиске классного Senior iOS developer. \n\nНеобходим опыт работы 4-6+ лет, опыт разработки и запуска iOS-приложений с 0.\n\nПредлагаем компенсацию питания, ДМС, комфортный офис, участие в разработке интересного и перспективного проекта,  предоставляем всю необходимую технику.\n\nКонтакты для связи: tg @AliceHaull, почта  an@mynalabs.ai","markup":[{"type":"hashtag","offset":0,"length":9,"data":"вакансия"},{"type":"hashtag","offset":10,"length":7,"data":"работа"},{"type":"hashtag","offset":18,"length":4,"data":"ios"},{"type":"hashtag","offset":23,"length":7,"data":"senior"},{"type":"hashtag","offset":31,"length":4,"data":"spb"},{"type":"handle","offset":586,"length":11,"data":"AliceHaull"},{"type":"link","offset":606,"length":14,"data":"mailto:an@mynalabs.ai"}],"date":"2020-06-25T11:24:59+00:00","link":"tg://resolve?domain=mobile_jobs&post=68678","tags":[{"name":"mobile"},{"name":"ios"}],"cities":[],"allowsRemote":false}},{"node":{"__typename":"Job","id":"72013053952-1001054966032","title":"Ios developer","text":"#вакансия #ios #swift #fulltime #spb\n\niOS developer (Senior/Middle), в офис, Санкт-Петербург\n\nЗ/п: 2000-3500$\n\nLifestyle Production Group - американская компания, лидер в индустрии видеомаркетинга элитного сегмента \nhttps://lifestyleproduction.com\n\nЧто нужно делать:\n🔹Разработка внутреннего продукта компании в сфере видеоредактирования\n🔹Тесное сотрудничество с Product Owner — человеком, досконально знающим все технические детали проекта\n🔹Участие в работе над продуктом компании с самых первых этапов формирования команды\n\nДля нас важно: \n ✔️Опыт коммерческой разработки\n ✔️Практический опыт работы с многопоточностью и autolayout\n ✔️Наличие примеров кода\n\nЧто предлагаем:\n 🔸Работа над быстро развивающимся, востребованным продуктом в перспективной индустрии\n🔸Работа на иностранный рынок\n🔸Общение с единомышленниками, обмен опытом и идеями с профессионалами в своем деле, изучение новых навыков в позитивной, комфортной среде\n🔸Отсутствие бюрократии, гибкий, слаженный внутренний процесс с эффективным менеджментом\n🔸Корпоративное оборудование, индивидуальная комплектация рабочего места\n🔸Good energy vibes\n\nКонтакты: @nadipakhomova\nnadya@lifestyleproduction.com","markup":[{"type":"hashtag","offset":0,"length":9,"data":"вакансия"},{"type":"hashtag","offset":10,"length":4,"data":"ios"},{"type":"hashtag","offset":15,"length":6,"data":"swift"},{"type":"hashtag","offset":22,"length":9,"data":"fulltime"},{"type":"hashtag","offset":32,"length":4,"data":"spb"},{"type":"bold","offset":38,"length":29,"data":""},{"type":"bold","offset":94,"length":16,"data":""},{"type":"link","offset":216,"length":31,"data":"https://lifestyleproduction.com"},{"type":"bold","offset":249,"length":20,"data":""},{"type":"bold","offset":528,"length":16,"data":""},{"type":"bold","offset":662,"length":16,"data":""},{"type":"handle","offset":1127,"length":14,"data":"nadipakhomova"},{"type":"link","offset":1142,"length":29,"data":"mailto:nadya@lifestyleproduction.com"}],"date":"2020-06-25T11:02:17+00:00","link":"tg://resolve?domain=mobile_jobs&post=68677","tags":[{"name":"mobile"},{"name":"ios"},{"name":"swift"}],"cities":[],"allowsRemote":false}},{"node":{"__typename":"Job","id":"103702069248-1001089317451","title":"Qa инженер","text":"#вакансия #fulltime #QA  #mobile #automation #СПБ \nВсем привет! \nИщем QA mobile.\nЛокация: Санкт-Петербург\nФормат работы: офис (пока карантин - работа удаленно)\nГрафик: 5/2 с гибким началом рабочего дня. \nЗанятость: полная\n💶 Зарплатная вилка: от 160К до 200К на руки (суммы в рублях/месяц). Если ожидания выше - пишите, обсудим. \n\n🧰Мы: 4xxi.com (разработка разных сложных  технологических проектов (веб, мобильные истории IOS/Android, чаще всего стартапов). 90% проектов приходится на зарубежный рынок (США, Англия).\n\n🏠3 офиса: Лондон, Санкт-Петербург, Саранск. \nВся разработка в России. \n\n🍩 Плюшки: \n✔️оформление по ТК РФ (мы белые полностью);\n✔️уроки английского языка;\n✔️ДМС;\n✔️спортивные мероприятия;\n✔️обучение и развитие;\n✔️офис в центре города в стиле лофт, м.Горьковская;\n✔️кухня, забитая вкусняшками;\n\nНаши ожидания: \n✔️опыт автоматизации клиент-серверных приложений (Web и/или Mobile - преимущественно) более 2 лет\n✔️знание англ на уровне чтения тех. документации и выше (все доки на англ)\n✔️Flutter driver, Dart или желание быстро изучить и применять\n\nБольшим плюсом будет опыт работы с:\n✔️Приложения с микро-сервисной архитектурой\n\n\nПишите и присылайте свои резюме:  vyangurskaya@4xxi.com, @vyangurskaya","markup":[{"type":"hashtag","offset":0,"length":9,"data":"вакансия"},{"type":"hashtag","offset":10,"length":9,"data":"fulltime"},{"type":"hashtag","offset":20,"length":3,"data":"QA"},{"type":"hashtag","offset":25,"length":7,"data":"mobile"},{"type":"hashtag","offset":33,"length":11,"data":"automation"},{"type":"hashtag","offset":45,"length":4,"data":"СПБ"},{"type":"link","offset":337,"length":8,"data":"http://4xxi.com"},{"type":"link","offset":1182,"length":21,"data":"mailto:vyangurskaya@4xxi.com"},{"type":"handle","offset":1205,"length":13,"data":"vyangurskaya"}],"date":"2020-06-25T10:49:23+00:00","link":"tg://resolve?domain=qa_jobs&post=98898","tags":[{"name":"qa"},{"name":"mobile"},{"name":"ios"},{"name":"android"},{"name":"web"},{"name":"flutter"},{"name":"dart"}],"cities":[{"code":"london"},{"code":"saransk"}],"allowsRemote":true}},{"node":{"__typename":"Job","id":"72002568192-1001054966032","title":"Android разработчик","text":"#вакансия #москва #офис #unity #developer #gamedev #csharp c#\n\nГород и адрес офиса: Москва, м.Автозаводская \nФормат работы: офис \nЗанятость: полная \nЗарплатная вилка: от 160 000 до 200 000 на руки \n\n📣 Unity Developer (gamedev)\n\n✅ Описание вакансии:\n\nAppQuantum - это успешная команда из 120 человек, которая занимается мобильным маркетингом, разработкой и паблишингом мобильных игр. Один из наших самых успешных проектов Idle Evil Clicker набрал за пол года 5 млн пользователей на iOS и Android и мы не планируем останавливаться на достигнутом.\nМы ищем сильного Unity разработчика для работы над проектами в жанре Idle / Clicker / Tycoon. У нас три запущенных проекта, сейчас работаем над четвертым.\n\n\n✅ Задачи:\n\n• Разработка клиентской части игры\n• Интеграция в проект готового контента (модели, анимации, звуки)\n• Интеграция в проект готовых VFX, написание логики их управления\n• Вёрстка UI по макетам от художников\n• Интеграция различных сторонних SDK\n\n\n✅ Требования:\n\n• Опыт работы на Unity3D (С#) от 3х лет\n• Отличное знание Unity и всех её подсистем\n• Отличное знание C#, умение писать чёткий, понятный, структурированный код\n• Отличное знание паттернов проектирования\n• Умение верстать адаптивные интерфесы в uGUI\n• Умение отлаживать и оптимизировать проекты под мобильные платформы iOS/Android\n• Понимание Рендер пайплайна Unity3D, его тонких мест и принципов оптимизации\n• Уверенные знания по работе с системой контроля версий git\n• Умение разбираться в чужом коде, проводить рефакторинг\n• Дисциплинированность и ответственность\n\n\n✅ Плюсом будет:\n\n• Участие в разработке выпущенных игр под мобильные платформы на аналогичной должности\n• Умение работать с шейдерами\n• Опыт работы с нативными плагинами (In-Apps, PUSH notifications, аналитика, реклама, социальное взаимодействие)\n• Опыт работы с ecs (Unity DOTS, Entitas)\n• Умение разрабатывать и поддерживать стабильную архитектуру\n• Коммуникабельность, yмение чётко доносить свою точку зрения и принимать точку зрения остальных участников команды\n\n\n✅ Для вас:\n\n• Конкурентная заработная плата по результатам собеседования, выплачивается 2 раза в месяц без задержек\n• Необходимое оборудование заказываем под вас\n• Возможность обучаться английскому языку с носителями каждый будний день по утрам\n• Собеседование сразу же с руководителем, который принимает решение о найме\n\nНазвание компании: AppQuantum\n\nhttps://appquantum.com/\n\nКонтакты: \ne-mail: vika@adquantum.com\ntelegram: @wikki13","markup":[{"type":"hashtag","offset":0,"length":9,"data":"вакансия"},{"type":"hashtag","offset":10,"length":7,"data":"москва"},{"type":"hashtag","offset":18,"length":5,"data":"офис"},{"type":"hashtag","offset":24,"length":6,"data":"unity"},{"type":"hashtag","offset":31,"length":10,"data":"developer"},{"type":"hashtag","offset":42,"length":8,"data":"gamedev"},{"type":"hashtag","offset":51,"length":7,"data":"csharp"},{"type":"bold","offset":231,"length":18,"data":""},{"type":"bold","offset":705,"length":7,"data":""},{"type":"bold","offset":960,"length":11,"data":""},{"type":"bold","offset":1543,"length":13,"data":""},{"type":"bold","offset":2011,"length":8,"data":""},{"type":"link","offset":2362,"length":23,"data":"https://appquantum.com/"},{"type":"link","offset":2406,"length":18,"data":"mailto:vika@adquantum.com"},{"type":"handle","offset":2435,"length":8,"data":"wikki13"}],"date":"2020-06-25T10:07:53+00:00","link":"tg://resolve?domain=mobile_jobs&post=68667","tags":[{"name":"mobile"},{"name":"android"},{"name":"ios"},{"name":"unity3d"},{"name":"csharp"},{"name":"git"}],"cities":[{"code":"moscow"}],"allowsRemote":false}},{"node":{"__typename":"Job","id":"71999422464-1001054966032","title":"Ios разработчик","text":"#вакансия #Москва #fulltime #swift #middle \nКомпания: Trinity Monsters\nПозиция: middle iOS developer\nЛокация: Россия, Москва, офис в самом центре, у метро Охотный Ряд\nЗанятость: полная \n\nЗП: от 150.000 до 200.000 руб. на руки\n\nНа новый проект (с нуля), нужен разработчик в команду. Мы занимаемся разработкой с 2013 года и входим в ТОП-10 лучших разработчиков Москвы. У нас небольшой коллектив, с которым мы реализуем амбициозные проекты (Nespresso, Азбука Вкуса, Газпром-Нефть, ВТБ, несколько внутренних проектов-стартапов).\n\nИщем разработчиков уровня middle и выше.  \n\nПочему мы:\n⁃ гибкий график\n⁃ отлаженный менеджмент\n⁃ большие проекты \n⁃ работа с разнообразными интересными и амбициозными проектами\n⁃ сложные технические задачи, возможность развития и роста\n⁃ просторный комфортный офис в 2-х минутах от метро Охотный ряд с кухней, чаем, кофе и т.д.\n⁃ возможность влиять на продукт и вносить свои идеи\n⁃ оформление по ТК РФ\n\nДля связи @vicemik","markup":[{"type":"hashtag","offset":0,"length":9,"data":"вакансия"},{"type":"hashtag","offset":10,"length":7,"data":"Москва"},{"type":"hashtag","offset":18,"length":9,"data":"fulltime"},{"type":"hashtag","offset":28,"length":6,"data":"swift"},{"type":"hashtag","offset":35,"length":7,"data":"middle"},{"type":"handle","offset":939,"length":8,"data":"vicemik"}],"date":"2020-06-25T10:02:27+00:00","link":"tg://resolve?domain=mobile_jobs&post=68664","tags":[{"name":"mobile"},{"name":"ios"},{"name":"swift"}],"cities":[{"code":"moscow"}],"allowsRemote":false}},{"node":{"__typename":"Job","id":"71998373888-1001054966032","title":"Ios developer","text":"#вакансия #спб #ios #middle #senior #spb #офис #IoT #умныйдом \nMiddle/Senior iOS developer \nReady for Sky 🚀 \nhttps://readyforsky.com/ru/career/ \n📍 полный день, удаленно/офис (сейчас вся компания работает удаленно) \nМы ищем iOS developer, который будет разрабатывать приложение, использующее данные с IoT-устройств для предоставления пользователям нужных товаров и услуг \n💡 Используем: Swift, Objective-C; Jenkins; GraphQL; RxSwift; MVC, MVVM и Viper \nВ команде: разрабатываем новый функционал приложения, внутренние фреймворки (Private pods), фреймворки для общего доступа; пишем Unit тесты; принимаем участие в создании протоколов работы с умными устройствами; Refactoring и Code-review. \nПредлагаем: \nРаботу в профессиональной команде (team lead, senior, middle), более 300 000 активных пользователей приложения. \nПолностью белую ЗП от 130 до 250 тыс. руб. на руки \nПосле исп.срока корпоративный английский \n📬 Пиши: @Rupeka_Natali","markup":[{"type":"hashtag","offset":0,"length":9,"data":"вакансия"},{"type":"hashtag","offset":10,"length":4,"data":"спб"},{"type":"hashtag","offset":15,"length":4,"data":"ios"},{"type":"hashtag","offset":20,"length":7,"data":"middle"},{"type":"hashtag","offset":28,"length":7,"data":"senior"},{"type":"hashtag","offset":36,"length":4,"data":"spb"},{"type":"hashtag","offset":41,"length":5,"data":"офис"},{"type":"hashtag","offset":47,"length":4,"data":"IoT"},{"type":"hashtag","offset":52,"length":9,"data":"умныйдом"},{"type":"bold","offset":63,"length":27,"data":""},{"type":"bold","offset":92,"length":13,"data":""},{"type":"link","offset":110,"length":34,"data":"https://readyforsky.com/ru/career/"},{"type":"bold","offset":225,"length":13,"data":""},{"type":"bold","offset":376,"length":11,"data":""},{"type":"bold","offset":454,"length":10,"data":""},{"type":"bold","offset":693,"length":11,"data":""},{"type":"bold","offset":916,"length":5,"data":""},{"type":"handle","offset":922,"length":14,"data":"Rupeka_Natali"}],"date":"2020-06-25T10:01:03+00:00","link":"tg://resolve?domain=mobile_jobs&post=68663","tags":[{"name":"mobile"},{"name":"ios"},{"name":"swift"},{"name":"objective-c"},{"name":"jenkins"},{"name":"graphql"},{"name":"mvvm"}],"cities":[],"allowsRemote":true}}]}}},"context":{}}