{"hash":"f5f6bf98bd95e769321482904cbbd488f77922fd","data":{"records":{"id":"mvvm","name":"mvvm","belongsTo":{"totalCount":54,"pageInfo":{"totalPages":6,"currentPage":2},"edges":[{"node":{"__typename":"Job","id":"72383201280-1001054966032","title":"Ios developer","text":"#вакансия #спб #ios #middle #senior #spb #офис #IoT #умныйдом \nMiddle/Senior iOS developer \nReady for Sky 🚀 \nhttps://readyforsky.com/ru/career/ \n📍 полный день, удаленно в СПб/офис м. Нарвская \nМы серьезно занимаемся сферой iot, создаем умные приборы.\nИщем iOS developer, который будет разрабатывать приложение, использующее данные с IoT-устройств для предоставления пользователям нужных товаров и услуг \n💡 Используем: Swift, Objective-C; Jenkins; GraphQL; RxSwift; MVC, MVVM и Viper \nВ команде: разрабатываем новый функционал приложения, внутренние фреймворки (Private pods), фреймворки для общего доступа; пишем Unit тесты; принимаем участие в создании протоколов работы с умными устройствами; Refactoring и Code-review. \nПредлагаем: \nРаботу в профессиональной команде, более 300 000 активных пользователей приложения. \nЗП от 130 до 250 тыс. руб. на руки  \nПосле исп.срока корпоративный английский \n📬 Пиши: @Rupeka_Natali","markup":[{"type":"hashtag","offset":0,"length":9,"data":"вакансия"},{"type":"hashtag","offset":10,"length":4,"data":"спб"},{"type":"hashtag","offset":15,"length":4,"data":"ios"},{"type":"hashtag","offset":20,"length":7,"data":"middle"},{"type":"hashtag","offset":28,"length":7,"data":"senior"},{"type":"hashtag","offset":36,"length":4,"data":"spb"},{"type":"hashtag","offset":41,"length":5,"data":"офис"},{"type":"hashtag","offset":47,"length":4,"data":"IoT"},{"type":"hashtag","offset":52,"length":9,"data":"умныйдом"},{"type":"bold","offset":63,"length":27,"data":""},{"type":"bold","offset":92,"length":13,"data":""},{"type":"link","offset":110,"length":34,"data":"https://readyforsky.com/ru/career/"},{"type":"bold","offset":258,"length":13,"data":""},{"type":"bold","offset":409,"length":11,"data":""},{"type":"bold","offset":487,"length":10,"data":""},{"type":"bold","offset":726,"length":11,"data":""},{"type":"bold","offset":906,"length":5,"data":""},{"type":"handle","offset":912,"length":14,"data":"Rupeka_Natali"}],"date":"2020-06-30T15:50:02+00:00","link":"tg://resolve?domain=mobile_jobs&post=69030","tags":[{"name":"mobile"},{"name":"ios"},{"name":"swift"},{"name":"objective-c"},{"name":"jenkins"},{"name":"graphql"},{"name":"mvvm"}],"cities":[],"allowsRemote":true}},{"node":{"__typename":"Job","id":"72331821056-1001054966032","title":"Android developer","text":"#вакансия #Android #удаленка #remote #Senior \n\nSenior\\Lead Android developer at Quality Wolves (remote)\n\nГород и адрес офиса: Новосибирск, Академгородок \nФормат работы: удаленка\nЗанятость: проектная/частичная (оплата по часам)\nЗарплатная вилка: 20-25$ в час\nОписание:\nЧто хотим: \nЧтобы ты был опытным и самостоятельным ИПшником из России. \nА также:\nJava, Kotlin, \nAndroid Architecture Components,\nRxJava2, Coroutines DI (Kodein, Dagger2) \nRealm, Room, etc. \nMVVM, MVP, etc. \nАнглийский язык уровня Intermediate\nУмение развивать существующий код \nНавыки многопоточного программирования\nУровень не ниже senior\nОпыт коммерческой разработки для Android от 5 лет. \nАдекватную оценку своих профессиональных компетенций\n\nЧто даем:\nГибкий график работы, удаленка, прозрачный и лояльный менеджмент, 20-25$ в час, с потенциальным ростом оплаты, команда квалифицированных и адекватных профессионалов, существующие, интересные, крупные рабочие проекты и постоянный приток новых. Мы не делаем trash for cash и тебя не попросим. \n\nКомпания: Quality Wolves подробнее про вакансию и компанию - https://www.quality-wolves.com/senior_android_dev\n\nКонтакты: @punfush anna@quality-wolves.com (резюме, портфолио)\nАутсаф и кадровые не беспокоить","markup":[{"type":"hashtag","offset":0,"length":9,"data":"вакансия"},{"type":"hashtag","offset":10,"length":8,"data":"Android"},{"type":"hashtag","offset":19,"length":9,"data":"удаленка"},{"type":"hashtag","offset":29,"length":7,"data":"remote"},{"type":"hashtag","offset":37,"length":7,"data":"Senior"},{"type":"link","offset":1078,"length":49,"data":"https://www.quality-wolves.com/senior_android_dev"},{"type":"handle","offset":1139,"length":8,"data":"punfush"},{"type":"link","offset":1148,"length":23,"data":"mailto:anna@quality-wolves.com"}],"date":"2020-06-30T09:21:46+00:00","link":"tg://resolve?domain=mobile_jobs&post=68981","tags":[{"name":"mobile"},{"name":"android"},{"name":"java"},{"name":"kotlin"},{"name":"realm"},{"name":"mvvm"}],"cities":[{"code":"novosibirsk"}],"allowsRemote":true}},{"node":{"__typename":"Job","id":"72327626752-1001054966032","title":"Mobile программист","text":"#вакансия #ios #swift #middle\nФормат работы: удаленная\nГород: Киев/Харьков\nЗанятость: полная\nз/п: 2000-3000$\n\nMiddle Ios Swift +RXSwift Developer (Mobile Apps)\n🔥🔥🔥\n\nИщем опытного Ios Swift программиста в продуктовую компанию.\nТребования:\n- 2+ лет в ios разработке (Swift);\n- Солидный бекграунд в OOP и нативной разработке;\n- Понимание всего цикла разработки мобильного приложения;\n- Опыт работы с алгоритмами, базами данных и комплексным анализом ;\n- MVP, MVVM;\n- Опыт работы с реактивным кодом (RXSwift);\n- Интеграция REST API;\n- Опыт с GIT, BitBucket, JIRA;\n\nБудет плюсом:\n- Опыт работы с Firebase, FCM;\n- Знание гайдлайнов и екосистемы ios ;\n- Опыт работы с CocoaPods (Alamofire, PromiseKit, Starscream, - Kingsfisher, RxSwift, DifferenceKit).\n\nЧто мы предлагаем:\n- Дружный коллектив;\n- Удаленный формат работы (на период карантина);\n- Гибгий график;\n- Конкурентную з/п;\n- Личностное и профессиональное развитие.\n📍Писать сюда: @vortex007","markup":[{"type":"hashtag","offset":0,"length":9,"data":"вакансия"},{"type":"hashtag","offset":10,"length":4,"data":"ios"},{"type":"hashtag","offset":15,"length":6,"data":"swift"},{"type":"hashtag","offset":22,"length":7,"data":"middle"},{"type":"bold","offset":110,"length":49,"data":""},{"type":"handle","offset":934,"length":10,"data":"vortex007"}],"date":"2020-06-30T08:51:50+00:00","link":"tg://resolve?domain=mobile_jobs&post=68977","tags":[{"name":"mobile"},{"name":"ios"},{"name":"swift"},{"name":"mvvm"},{"name":"rest"},{"name":"git"},{"name":"firebase"},{"name":"cocoapods"}],"cities":[{"code":"kiev"}],"allowsRemote":true}},{"node":{"__typename":"Job","id":"72308752384-1001054966032","title":"Android разработчик","text":"#вакансия #android #офис #штат #тюмень\n\nИщу Android разработчика (Тюмень) на фултайм в офис.\nКомпания Строительный двор.\n\nЗарплатная вилка 70 000 - 100 000 р./мес. на руки, полностью \"белые\" выплаты, гибкий график, можно периодически работать удаленно, 39-часовая рабочая неделя.\n\nНа текущий момент у нас в работе несколько интересных проектов, один из них – мобильное приложение для формата Дистрибуции. Оно позволяет торговым представителям работать в дистанционном формате, оформляя заказы и выставляя счета.\nСейчас есть большой объем задач по доработке и усовершенствованию этого приложения, а также по добавлению новых функций.\n\nВ первую очередь важно:\nопыт разработки под Android от 2-х лет\nзнание Java (Kotlin будет плюсом);\nпонимание архитектурных паттернов MVP, MVVM, Clean Architecture;\nопыт работы с SQLite, Realm;\nпонимание REST API;\nопыт работы с Git, RxJava 2, Retrofit, FireBase, Dagger2.\n\nБуду рада Вашей обратной связи здесь, по почте oegorova@sdvor.com или в телеграм @ov_egorova","markup":[{"type":"hashtag","offset":0,"length":9,"data":"вакансия"},{"type":"hashtag","offset":10,"length":8,"data":"android"},{"type":"hashtag","offset":19,"length":5,"data":"офис"},{"type":"hashtag","offset":25,"length":5,"data":"штат"},{"type":"hashtag","offset":31,"length":7,"data":"тюмень"},{"type":"link","offset":952,"length":18,"data":"mailto:oegorova@sdvor.com"},{"type":"handle","offset":986,"length":11,"data":"ov_egorova"}],"date":"2020-06-30T06:20:52+00:00","link":"tg://resolve?domain=mobile_jobs&post=68959","tags":[{"name":"mobile"},{"name":"android"},{"name":"java"},{"name":"kotlin"},{"name":"mvvm"},{"name":"sqlite"},{"name":"realm"},{"name":"rest"},{"name":"git"},{"name":"firebase"}],"cities":[{"code":"tyumen"}],"allowsRemote":true}},{"node":{"__typename":"Job","id":"72284635136-1001054966032","title":"Ios developer","text":"#вакансия #спб #ios #middle #senior #spb #офис #IoT #умныйдом \nMiddle/Senior iOS developer \nReady for Sky 🚀 \nhttps://readyforsky.com/ru/career/ \n📍 полный день, удаленно/офис (сейчас вся компания работает удаленно) \nМы ищем iOS developer, который будет разрабатывать приложение, использующее данные с IoT-устройств для предоставления пользователям нужных товаров и услуг \n💡 Используем: Swift, Objective-C; Jenkins; GraphQL; RxSwift; MVC, MVVM и Viper \nВ команде: разрабатываем новый функционал приложения, внутренние фреймворки (Private pods), фреймворки для общего доступа; пишем Unit тесты; принимаем участие в создании протоколов работы с умными устройствами; Refactoring и Code-review. \nПредлагаем: \nРаботу в профессиональной команде (team lead, senior, middle), более 300 000 активных пользователей приложения. \nЗП от 130 до 250 тыс. руб. на руки \nПосле исп.срока корпоративный английский \n📬 Пиши: @Rupeka_Natali","markup":[{"type":"hashtag","offset":0,"length":9,"data":"вакансия"},{"type":"hashtag","offset":10,"length":4,"data":"спб"},{"type":"hashtag","offset":15,"length":4,"data":"ios"},{"type":"hashtag","offset":20,"length":7,"data":"middle"},{"type":"hashtag","offset":28,"length":7,"data":"senior"},{"type":"hashtag","offset":36,"length":4,"data":"spb"},{"type":"hashtag","offset":41,"length":5,"data":"офис"},{"type":"hashtag","offset":47,"length":4,"data":"IoT"},{"type":"hashtag","offset":52,"length":9,"data":"умныйдом"},{"type":"bold","offset":63,"length":27,"data":""},{"type":"bold","offset":92,"length":13,"data":""},{"type":"link","offset":110,"length":34,"data":"https://readyforsky.com/ru/career/"},{"type":"bold","offset":225,"length":13,"data":""},{"type":"bold","offset":376,"length":11,"data":""},{"type":"bold","offset":454,"length":10,"data":""},{"type":"bold","offset":693,"length":11,"data":""},{"type":"bold","offset":900,"length":5,"data":""},{"type":"handle","offset":906,"length":14,"data":"Rupeka_Natali"}],"date":"2020-06-29T15:34:19+00:00","link":"tg://resolve?domain=mobile_jobs&post=68936","tags":[{"name":"mobile"},{"name":"ios"},{"name":"swift"},{"name":"objective-c"},{"name":"jenkins"},{"name":"graphql"},{"name":"mvvm"}],"cities":[],"allowsRemote":true}},{"node":{"__typename":"Job","id":"72253177856-1001054966032","title":"Android разработчик","text":"#вакансия #Android #Kotlin #Москва #офис \n\nВакансия: Android разработчик\nГород: Москва м. Чистые пруды\nЗарплата: от 180 000 рублей до 260 000 рублей на руки \nФормат: офис, полный день, полная занятость (гибкое начало)\nКомпания Innovative People\n\nВ команду «Страховых продуктов» ищу разработчика. Проект новый, agile-команда. \n\n⚓ Обязанности\n• Разработка функционала мобильного приложения\n• Разработка unit-тестов, рефакторинг, code review\n• Соблюдение принципов командной разработки\n• Работа в офисе с командой\n\n ⚓ Требования \n• Опыт разработки мобильных приложений от 2-х лет\n• Отличные знания ООП, классических алгоритмов и структур данных\n• Отличные знания платформы Android, языков Java и Kotlin (преимущественно)\n• Опыт применения паттернов: MVP, MVVM, CLEAN\n• Опыт работы с внешними библиотеками Dagger2, RxJava2\n• Опыт работы json и xml для мобильных и серверных решений\n• Опыт интеграции со сторонними системами по API\n• Опыт написания unit-тестов\n• Опыт работы с TFS, JIRA, GIT\n• Опыт поддержки чужого кода\n• Опыт обеспечения регулярных релизов и написания документации\n\n⚓ Условия:\n• Новая команда\n• ДМС со стоматологией, всё белое\n, ноутбук \n• Возможность предлагать собственные идеи\n, карьерный рост\n• Позже планируется переезд в Москва Сити\n\n📩Резюме и вопросы @Priboch","markup":[{"type":"hashtag","offset":0,"length":9,"data":"вакансия"},{"type":"hashtag","offset":10,"length":8,"data":"Android"},{"type":"hashtag","offset":19,"length":7,"data":"Kotlin"},{"type":"hashtag","offset":27,"length":7,"data":"Москва"},{"type":"hashtag","offset":35,"length":5,"data":"офис"},{"type":"handle","offset":1273,"length":8,"data":"Priboch"}],"date":"2020-06-29T10:59:51+00:00","link":"tg://resolve?domain=mobile_jobs&post=68906","tags":[{"name":"mobile"},{"name":"android"},{"name":"kotlin"},{"name":"java"},{"name":"mvvm"},{"name":"json"},{"name":"xml"},{"name":"tfs"},{"name":"git"}],"cities":[{"code":"moscow"}],"allowsRemote":false}},{"node":{"__typename":"Job","id":"72243740672-1001054966032","title":"Android разработчик","text":"#вакансия #Москва #fulltime #android \nКомпания: Trinity Monsters\nПозиция: Android разработчик\nЛокация: Россия, Москва, офис в самом центре, у метро Охотный Ряд\nЗанятость: полная \n\nЗП: от 150.000 до 250.000 руб. на руки\n\nОт вас мы ждём:\n\n- отличные знания Kotlin\n- опыт работы с git\n- понимание принципов ООП\n- понимание принципы проектирования SOLID\n-MVP/MVVM, Clean Architecture; понимание DI;\n- умение расставлять приоритеты и эффективно планировать рабочее время\n\nПочему мы:\n⁃ гибкий график\n⁃ отлаженный менеджмент\n⁃ большие проекты \n⁃ работа с разнообразными интересными и амбициозными проектами\n⁃ сложные технические задачи, возможность развития и роста\n⁃ просторный комфортный офис в 2-х минутах от метро Охотный ряд с кухней, чаем, кофе и т.д.\n⁃ возможность влиять на продукт и вносить свои идеи\n⁃ оформление по ТК РФ\n\nДля связи @vicemik","markup":[{"type":"hashtag","offset":0,"length":9,"data":"вакансия"},{"type":"hashtag","offset":10,"length":7,"data":"Москва"},{"type":"hashtag","offset":18,"length":9,"data":"fulltime"},{"type":"hashtag","offset":28,"length":8,"data":"android"},{"type":"handle","offset":836,"length":8,"data":"vicemik"}],"date":"2020-06-29T10:39:59+00:00","link":"tg://resolve?domain=mobile_jobs&post=68897","tags":[{"name":"mobile"},{"name":"android"},{"name":"kotlin"},{"name":"git"},{"name":"mvvm"}],"cities":[{"code":"moscow"}],"allowsRemote":false}},{"node":{"__typename":"Job","id":"72218574848-1001054966032","title":"Ios разработчик","text":"#вакансия #IOS разработчик #ObjectiveC\n\nРабота в офисе или УД\nЗП от 120 000 до 240 000 руб. на руки\nг. Москва\n\nМы ищем коллегу iOS-разработчика в команду, основными задачами которой является разработка приложений для ведущих операторов сотовой связи, компаний в сфере финансов и телекоммуникаций. \n \nДолжностные обязанности: \n∙ Разработка и поддержка новых приложений;\n∙ Поддержка имеющихся приложений;\n∙ Создание библиотек;\n∙ Верстка по макетам с нарезкой. \n \nНеобходимые навыки: \n∙ Опыт работы от 2-х лет;\n∙ Наличие законченных проектов; \n∙ Уверенное знание iOS SDK 7+;\n∙ Опыт разработки кастомных UI; \n∙ Опыт работы с анимацией;\n∙ Опыт работы с push-нотификациями, сетью, базами данных, структурами данных;\n∙ Опыт работы с Git;\n∙ Хорошее знание ООП и паттернов проектирования;\n∙ Умение разбираться в чужом коде. \n \nБудет плюсом: \n∙ Опыт работы с другими языками программирования;\n∙ Опыт работы с MVVM;\n∙ Опыт публикации приложений в App Store;\n∙ Знание классических алгоритмов и структур данных. \n \nМы предлагаем: \n∙ Достойную заработную плату;\n∙ График работы понедельник-пятница 9.00-18.00;\n∙ Дружный коллектив, творческая самостоятельность в работе.\n\nКомпания ИММО – VAS-интегратор, ведущий поставщик сервисов для операторов связи. \nМы сотрудничаем с более чем 60 операторами сотовой связи в 14 странах.\nМы разрабатываем, внедряем и развиваем высокотехнологичные сервисы «под ключ».\nНаши партнеры – операторы мобильной и фиксированной связи, производители мобильных и сетевых устройств нового поколения, ведущие социальные сети, поставщики и производители технологических VAS-решений, Правообладатели (Universal, Sony, Warner, EMI, Disney).\n\ntel: +7(985)896-83-99\nhr@immo.ru","markup":[{"type":"hashtag","offset":0,"length":9,"data":"вакансия"},{"type":"hashtag","offset":10,"length":4,"data":"IOS"},{"type":"hashtag","offset":27,"length":11,"data":"ObjectiveC"},{"type":"link","offset":1653,"length":16,"data":"tel:+7(985)896-83-99"},{"type":"link","offset":1670,"length":10,"data":"mailto:hr@immo.ru"}],"date":"2020-06-29T05:59:01+00:00","link":"tg://resolve?domain=mobile_jobs&post=68873","tags":[{"name":"mobile"},{"name":"ios"},{"name":"git"},{"name":"mvvm"}],"cities":[{"code":"moscow"}],"allowsRemote":false}},{"node":{"__typename":"Job","id":"72094842880-1001054966032","title":"Android разработчик","text":"#вакансия #iOS #android #developer #remote #InStat \n\nГород и адрес офиса: Москва, ст.м. Автозаводская\nФормат работы: удаленка\nЗанятость: полная/проектная\nЗарплатная вилка: от 80 до 130 net\nОписание вакансии:\n\nВсем привет. Ищем разработчиков приложений для Apple TV и Android TV(Box). Мы занимаемся сложными задачами, а также хотим разработать с нуля приложения, а у вас есть возможность поработать в спортивном стартапе и сделать лучшее приложение на рынке.\nЧто главное:\nОпыт разработки приложений Apple TV/Android box обязательно;\nОпыт по созданию продукта для просмотра видео-контента\nЗадачи:\nРазработка OTT приложения для Apple TV/Android box, анализ и оценка задач;\nпроведение code review, участие в SCRUM активностях\nТребования:\nзнание основных паттернов проектирования, REST API; SOLID, GCD, MVP/MVVM, опыт разработки по Apple TV/Android TV, box, знание Android Studio \nМы предлагаем:\nофициальное трудоустройство, полный соц. пакет;удаленное сотрудничество\nПодробнее о вакансиях тут: \nhttps://hh.ru/vacancy/37544424\nhttps://hh.ru/vacancy/37520710\n\nНазвание компании: InStat (https://instatsport.com/)\n\nКонтакты: yana.gurinovich@instatsport.com\n @Yana_Gurinovich","markup":[{"type":"hashtag","offset":0,"length":9,"data":"вакансия"},{"type":"hashtag","offset":10,"length":4,"data":"iOS"},{"type":"hashtag","offset":15,"length":8,"data":"android"},{"type":"hashtag","offset":24,"length":10,"data":"developer"},{"type":"hashtag","offset":35,"length":7,"data":"remote"},{"type":"hashtag","offset":43,"length":7,"data":"InStat"},{"type":"link","offset":991,"length":30,"data":"https://hh.ru/vacancy/37544424"},{"type":"link","offset":1022,"length":30,"data":"https://hh.ru/vacancy/37520710"},{"type":"link","offset":1081,"length":24,"data":"https://instatsport.com/"},{"type":"link","offset":1118,"length":31,"data":"mailto:yana.gurinovich@instatsport.com"},{"type":"handle","offset":1151,"length":16,"data":"Yana_Gurinovich"}],"date":"2020-06-26T13:27:24+00:00","link":"tg://resolve?domain=mobile_jobs&post=68755","tags":[{"name":"mobile"},{"name":"android"},{"name":"ios"},{"name":"dotnet"},{"name":"rest"},{"name":"mvvm"},{"name":"android-studio"}],"cities":[{"code":"moscow"}],"allowsRemote":true}},{"node":{"__typename":"Job","id":"72085405696-1001054966032","title":"Ios developer","text":"#вакансия #спб #ios #middle #senior #spb #офис #IoT #умныйдом \nMiddle/Senior iOS developer \nReady for Sky 🚀 \nhttps://readyforsky.com/ru/career/ \n📍 полный день, удаленно/офис (сейчас вся компания работает удаленно) \nМы ищем iOS developer, который будет разрабатывать приложение, использующее данные с IoT-устройств для предоставления пользователям нужных товаров и услуг \n💡 Используем: Swift, Objective-C; Jenkins; GraphQL; RxSwift; MVC, MVVM и Viper \nВ команде: разрабатываем новый функционал приложения, внутренние фреймворки (Private pods), фреймворки для общего доступа; пишем Unit тесты; принимаем участие в создании протоколов работы с умными устройствами; Refactoring и Code-review. \nПредлагаем: \nРаботу в профессиональной команде (team lead, senior, middle), более 300 000 активных пользователей приложения. \nПолностью белую ЗП от 130 до 250 тыс. руб. на руки \nПосле исп.срока корпоративный английский \n📬 Пиши: @Rupeka_Natali","markup":[{"type":"hashtag","offset":0,"length":9,"data":"вакансия"},{"type":"hashtag","offset":10,"length":4,"data":"спб"},{"type":"hashtag","offset":15,"length":4,"data":"ios"},{"type":"hashtag","offset":20,"length":7,"data":"middle"},{"type":"hashtag","offset":28,"length":7,"data":"senior"},{"type":"hashtag","offset":36,"length":4,"data":"spb"},{"type":"hashtag","offset":41,"length":5,"data":"офис"},{"type":"hashtag","offset":47,"length":4,"data":"IoT"},{"type":"hashtag","offset":52,"length":9,"data":"умныйдом"},{"type":"bold","offset":63,"length":27,"data":""},{"type":"bold","offset":92,"length":13,"data":""},{"type":"link","offset":110,"length":34,"data":"https://readyforsky.com/ru/career/"},{"type":"bold","offset":225,"length":13,"data":""},{"type":"bold","offset":376,"length":11,"data":""},{"type":"bold","offset":454,"length":10,"data":""},{"type":"bold","offset":693,"length":11,"data":""},{"type":"bold","offset":916,"length":5,"data":""},{"type":"handle","offset":922,"length":14,"data":"Rupeka_Natali"}],"date":"2020-06-26T10:40:49+00:00","link":"tg://resolve?domain=mobile_jobs&post=68746","tags":[{"name":"mobile"},{"name":"ios"},{"name":"swift"},{"name":"objective-c"},{"name":"jenkins"},{"name":"graphql"},{"name":"mvvm"}],"cities":[],"allowsRemote":true}}]}}},"context":{}}