{"hash":"f34fd2c444a074f4e0e67d525015a008ef8e766f","data":{"records":{"id":"dotnet","name":"dotnet","belongsTo":{"totalCount":129,"pageInfo":{"totalPages":13,"currentPage":12},"edges":[{"node":{"__typename":"Job","id":"66060288-1001375797688","title":"Dotnet разработчик","text":"Эксперт по направлению Terrasoft (Москва) ЗП от 100 000 до 150 000 тыс. рублей на руки.\nРоссийский разработчик ПО и системный интегратор в одном лице. Основные направления деятельности: порталы и системы совместной работы, CRM системы, автоматизация бизнес-процессов и интеграционные решения.\n\nВАМ ПРЕДСТОИТ:\n• Анализ требований и существующих процессов заказчика;\n• Описание контура автоматизации, целей и задач проекта внедрения, ожидаемого эффекта от автоматизации;\n• Постановка задач разработчикам;\n• Участие в разработке технической части проектной, эксплуатационной документации. \n\nОТ ВАС:\n• Опыт работы: 1–3 года;\n• Опыт внедрения одной из систем Terrasoft bpm’online;\n• Знание принципов работы web-приложений (взаимодействие клиент-сервер, DOM, Events);\n• Понимание основ ООП, принципов и технологий системной интеграции;\nМЫ ПРЕДЛАГАЕМ:\n• Оформление по ТК, гибкое начало рабочего дня, м. Автозаводская;\n• Интересные задачи, команда профессионалов.\n#вакансия #москва #terrasoft #офис","markup":[{"type":"hashtag","offset":956,"length":9,"data":"вакансия"},{"type":"hashtag","offset":966,"length":7,"data":"москва"},{"type":"hashtag","offset":974,"length":10,"data":"terrasoft"},{"type":"hashtag","offset":985,"length":5,"data":"офис"}],"date":"2019-12-16T13:57:56+00:00","link":"tg://resolve?domain=DotNetRuJobsFeed&post=63","tags":[{"name":"dotnet"},{"name":"csharp"},{"name":"web"}],"cities":[{"code":"moscow"}],"allowsRemote":false}},{"node":{"__typename":"Job","id":"65011712-1001375797688","title":".net разработчик","text":"#вакансия #vbnet #net #backend\n#Москва, м. Белорусская, #fulltime, #офис\n#Вознаграждение: 150-200 тыс. руб net + премии (+20% к окладу), соц. пакет.\n\n🎯Back-end разработчик / Back-end Developer (VB.NET, .NET)\n\nКоллеги, добрый день! \n\nНаходимся в поисках разработчика/архитектора для поддержки и развития функциональности финансово-биллинговой системы Elite 3E, путем доработок программного продукта (на базе VB.NET, .NET), и участия в проектах по внедрению новых модулей, интеграции с прочими системами компании (DMS, CRM).\n\nТекущий язык программирования нашей системы на 90% похож на VB.NET (но работает вне рамок .NET среды разработки т.к. среда разработки от вендора системы).\nВ среднесрочной перспективе систему полностью переведут на .NET и в обязанности будет входить работа именно с .NET и его фрейморками, средой разработки и т.д.\n\n#Требования: \n🧩Отличные знания и практический опыт VB.NET, VBA, .NET, MS SQL, WEB API (REST, SOAP);\n🧩Хорошие знания и практический опыт XML и XSLT-преобразований;\n🧩Хороший практический опыт работы с Entity Framework (или иными современными ORM);\n🧩Умение продумывать и проектировать архитектуру программных приложений, знание принципов ООП, популярных паттернов проектирования, принципов SOLID\n\nБуду рад ответить на вопросы и пояснить детали вакансии. Хорошего дня!\n\nПолное описание по ссылкам:\nhttps://lnkd.in/dPE_Trc\nhttps://lnkd.in/dxfVQRz\n\nКонтакты для связи:\nabelov@alrud.com\n+7 (926) 470-97-21 (telegram, whatsapp)","markup":[{"type":"bold","offset":0,"length":16,"data":""},{"type":"hashtag","offset":0,"length":9,"data":"вакансия"},{"type":"hashtag","offset":10,"length":6,"data":"vbnet"},{"type":"hashtag","offset":17,"length":4,"data":"net"},{"type":"bold","offset":17,"length":4,"data":""},{"type":"bold","offset":22,"length":16,"data":""},{"type":"hashtag","offset":22,"length":8,"data":"backend"},{"type":"hashtag","offset":31,"length":7,"data":"Москва"},{"type":"hashtag","offset":56,"length":9,"data":"fulltime"},{"type":"bold","offset":56,"length":9,"data":""},{"type":"bold","offset":67,"length":21,"data":""},{"type":"hashtag","offset":67,"length":5,"data":"офис"},{"type":"hashtag","offset":73,"length":15,"data":"Вознаграждение"},{"type":"bold","offset":152,"length":58,"data":""},{"type":"link","offset":195,"length":6,"data":"http://VB.NET"},{"type":"link","offset":408,"length":6,"data":"http://VB.NET"},{"type":"link","offset":585,"length":6,"data":"http://VB.NET"},{"type":"hashtag","offset":840,"length":11,"data":"Требования"},{"type":"link","offset":892,"length":6,"data":"http://VB.NET"},{"type":"link","offset":1338,"length":23,"data":"https://lnkd.in/dPE_Trc"},{"type":"link","offset":1362,"length":23,"data":"https://lnkd.in/dxfVQRz"},{"type":"link","offset":1407,"length":16,"data":"mailto:abelov@alrud.com"},{"type":"link","offset":1424,"length":18,"data":"tel:+7 (926) 470-97-21"}],"date":"2019-12-14T19:59:03+00:00","link":"tg://resolve?domain=DotNetRuJobsFeed&post=62","tags":[{"name":"dotnet"},{"name":"csharp"},{"name":"vba"},{"name":"sql"},{"name":"web"},{"name":"rest"},{"name":"soap"},{"name":"xml"},{"name":"xslt"},{"name":"orm"},{"name":"entity-framework"}],"cities":[{"code":"moscow"}],"allowsRemote":false}},{"node":{"__typename":"Job","id":"62914560-1001375797688","title":".net разработчик","text":"#вакансия #csharp #Core #sql\n#офис #москва #сокольники\n\nПромсвязьбанк\n\nЗП 160-250 на руки\nДМС, релокационный пакет.\n\nЧем предстоит заниматься:\n\nДоработка и оптимизация сложной высоконагруженной банковской системы в рамках проектов развития розничного и цифрового бизнеса.\n\nСтек технологий: C# .Net  Framework 4.7.2, .Net Сore, MS SQL\n\nОжидания от нового сотрудника:\n\n• Отличное знание C#\n• Опыт работы с MS SQL Server (T-SQL)\n• Понимание принципов CI/CD\n• Опыт работы с Git\n\nКонтакты:\n@olga_filatova1","markup":[{"type":"hashtag","offset":0,"length":9,"data":"вакансия"},{"type":"hashtag","offset":10,"length":7,"data":"csharp"},{"type":"hashtag","offset":18,"length":5,"data":"Core"},{"type":"hashtag","offset":24,"length":4,"data":"sql"},{"type":"hashtag","offset":29,"length":5,"data":"офис"},{"type":"hashtag","offset":35,"length":7,"data":"москва"},{"type":"hashtag","offset":43,"length":11,"data":"сокольники"},{"type":"bold","offset":117,"length":27,"data":""},{"type":"bold","offset":273,"length":16,"data":""},{"type":"bold","offset":335,"length":30,"data":""},{"type":"handle","offset":485,"length":15,"data":"olga_filatova1"}],"date":"2019-12-10T05:29:17+00:00","link":"tg://resolve?domain=DotNetRuJobsFeed&post=60","tags":[{"name":"dotnet"},{"name":"csharp"},{"name":"sql"},{"name":"git"},{"name":"sql-server"}],"cities":[{"code":"moscow"}],"allowsRemote":false}},{"node":{"__typename":"Job","id":"60817408-1001375797688","title":".net разработчик","text":"#вакансия #спб #удалённо #upper-intermediate\nз\\р 3500-4000$\nResponsibilities:\n- Working within an Agile team to develop, test, and maintain SharePoint business applications built on Microsoft technologies.  \n- Participating with the team in the collection and documentation of user's requirements, development of user stories, and estimates.  \n- Design, develop, and unit test applications in accordance with established standards - Involved in High Level and Low Lever estimation process \n- Participating in reviews of other Agile team’s applications and code - Participating in application system and integration testing. \n- Package and support deployment of releases.  \n- Adhering to high-quality development principles while delivering solutions on-time and on budget.  \n- Providing third-level support to Business users. \n- Analyzing and resolving technical and application problems.  \n- Preparing reports, manuals and other documentation  \n- Work with Architect to develop best practices for solution development.\nMinimum Requirements \n - College or University degree in Computer Science or a related discipline  \n- Motivated with a strong desire to learn  \n- Clearly articulate ideas and thoughts verbally\nCore Competency Requirements  \n- Experience of Angular Framework, Typescript, SharePoint Framework, JavaScript, HTML, CSS, Bootstrap, SharePoint Online out of the box components (Workflow, Web Parts, Lists, Libraries), relational database, Microsoft Azure, C#, .NET (OOPs Concepts)\nPreferred Competency Requirements  \n- 6 or more years of experience with Microsoft .NET development using C#  \n- 6 or more years of experience with SQL Server database design and development. \n- 2 or more years of experience with Office 365. SPFX development \n- 6 or more years of experience with web development using HTML5, CSS and JavaScript, Angular Framework, Typescript \n- 3 or more years of experience with agile development methodologies  \n- 6 or more years of experience with unit testing, system testing, integration testing.\nконтакт @erzentd","markup":[{"type":"hashtag","offset":0,"length":9,"data":"вакансия"},{"type":"hashtag","offset":10,"length":4,"data":"спб"},{"type":"hashtag","offset":15,"length":9,"data":"удалённо"},{"type":"hashtag","offset":25,"length":6,"data":"upper"},{"type":"pre","offset":60,"length":1970,"data":""},{"type":"handle","offset":2039,"length":8,"data":"erzentd"}],"date":"2019-12-04T15:35:31+00:00","link":"tg://resolve?domain=DotNetRuJobsFeed&post=58","tags":[{"name":"dotnet"},{"name":"csharp"},{"name":"sharepoint"},{"name":"deployment"},{"name":"angularjs"},{"name":"typescript"},{"name":"javascript"},{"name":"html"},{"name":"css"},{"name":"bootstrap"},{"name":"web"},{"name":"azure"},{"name":"sql"},{"name":"sql-server"},{"name":"unit-testing"}],"cities":[],"allowsRemote":true}},{"node":{"__typename":"Job","id":"58720256-1001375797688","title":".net developer","text":"#Москва #вакансия #офис #net #developer #fullstack #backend\n\nВ настоящее время мы ищем коллегу в нашу команду разработки. C 2014 года мы разрабатываем облачное решение для автоматизации процессов перевода, наш продукт работает в 200 странах.\n\nЧто предлагаем:\nОфициальное оформление по ТК РФ с первого дня.\nПолностью \"белая\" заработная плата 150-200К на руки.\nРабота в офисе или удаленно.\nГибкий график работы.\n\nПожелания:\nОпыт создания и продакшн-эксплуатации веб-приложений в .Net стеке.\nПонимание и осознанное применение принципов ООП и паттернов проектирования.\nХорошее знание C# и понимание его особенностей.\nОпыт разработки приложений с конкурентным доступом к ресурсам в БД.\nОпыт разработки фронтэнда для нетривиальных web-приложений на любом из современных фреймворков: Vue.js, AngularJS, Angular 2+, ReactJS.\nЗнание JavaScript, TypeScript, HTML 5, CSS 3.\nОпыт работы с NoSQL.\n\nКакие задачи будут стоять:\nПроектирование, разработка и рефакторинг высоконагруженных веб-приложений с высокими требованиями к производительности и доступности.\nРабота на общий результат в кросс-функциональной скрам-команде, активное взаимодействие с коллегами, участие в решении широкого спектра задач.\nТесное взаимодействие с менеджерами по продукту.\nПроведение код-ревью, участие в выработке архитектурных и проектных решений.\n\nЕсли позиция full stack'а - это не совсем подходящая роль, то мы можем обсудить и другие возможности и варианты.\n\nЕсли вы тот человек, которого мы ищем, напишите в ЛС - @dnotna","markup":[{"type":"hashtag","offset":0,"length":7,"data":"Москва"},{"type":"hashtag","offset":8,"length":9,"data":"вакансия"},{"type":"hashtag","offset":18,"length":5,"data":"офис"},{"type":"hashtag","offset":24,"length":4,"data":"net"},{"type":"hashtag","offset":29,"length":10,"data":"developer"},{"type":"hashtag","offset":40,"length":10,"data":"fullstack"},{"type":"hashtag","offset":51,"length":8,"data":"backend"},{"type":"handle","offset":1485,"length":7,"data":"dnotna"}],"date":"2019-11-27T14:39:20+00:00","link":"tg://resolve?domain=DotNetRuJobsFeed&post=56","tags":[{"name":"dotnet"},{"name":"csharp"},{"name":"web"},{"name":"vuejs"},{"name":"angularjs"},{"name":"reactjs"},{"name":"javascript"},{"name":"typescript"},{"name":"html"},{"name":"css"},{"name":"nosql"}],"cities":[{"code":"moscow"}],"allowsRemote":true}},{"node":{"__typename":"Job","id":"54525952-1001375797688","title":".net разработчик","text":"Ребята, #вакансия прилетела: \n\nДля усиления текущей команды разыскиваю .NET разработчика уровня #middle/#senior с опытом работы на .NET Core. Будет очень хорошо, если разработчик найдется в Ульяновске, но и удаленных сотрудников тоже рассматриваем. Запускаем проект для ведущего сервиса доставки еды в Москве и Петербурге, нагрузка примерно 1 000 000 пользователей, сейчас идет стадия закладывания архитектуры, так что будет возможность влиять на решения. Фронт будет написан на реакте, так что фулстэки тоже приветствуются) А еще есть проект в стадии разработки - плагин, который будет помогать искать ошибки программистам и писать чистый код.\n\nТребования:\nГлубокое знание технологического стека Microsoft, включая C#, MS SQL, ASP.NET, MVC/ASP.NET Core и тд.;\nОпыт работы с реляционными базами данных MS-SQL/PostgreSQL;\nЗнание и практический опыт использования правильных инженерных практик (юнит тестирование, автотесты, рефакторинг, CI, DevOps и др)\n\nУдалённая работа, офис, если живете в Ульяновске, полный день. \n\nРезюме присылать сюда: @VladislavAg\n\nВилка: 60 000 - 180 000 рублей до вычета налога","markup":[{"type":"hashtag","offset":8,"length":9,"data":"вакансия"},{"type":"hashtag","offset":96,"length":7,"data":"middle"},{"type":"hashtag","offset":104,"length":7,"data":"senior"},{"type":"link","offset":728,"length":7,"data":"http://ASP.NET"},{"type":"link","offset":741,"length":7,"data":"http://ASP.NET"},{"type":"handle","offset":1042,"length":12,"data":"VladislavAg"}],"date":"2019-11-18T13:44:42+00:00","link":"tg://resolve?domain=DotNetRuJobsFeed&post=52","tags":[{"name":"dotnet"},{"name":"csharp"},{"name":"sql"},{"name":"postgresql"},{"name":"net-core"},{"name":"asp-net"},{"name":"asp-net-mvc"},{"name":"asp-net-core"}],"cities":[],"allowsRemote":false}},{"node":{"__typename":"Job","id":"52428800-1001375797688","title":".net программист","text":"Всем добрый день, у нас в агентстве  есть #вакансия Программист С#\n, #вилка от 140 000р до 200 000р в зависимости от опыта и тех.собеседования.\n\nЛокация: #Москва, офис в #«Москва-Сити»,\n\nОбязанности: \n\n- Проектирование и разработка приложений для ритейла \n- Проектирование БД, написание запросов и хранимых процедур MSSQL\n- Доработка, поддержка существующих бизнес приложений компании\n\nТребования: \n\nОпыт коммерческой разработки на C#, ASP.NET от 1 года \nОпыт с БД: MSSQL, T-SQL, \nЗнание шаблонов и паттернов проектирования\nVue.js, JavaScript\n\n\nУсловия:\n\nОфициальное оформление, хороший компенсационный пакет при переезде. \nГрафик: 8:00-17:00\nКорпоративное питание\nКорпоративные мероприятия\nСпортивные секции в рамках корпоративного отдыха\n\nЕсли наше предложение заинтересовало Вас, пишите мне)","markup":[{"type":"hashtag","offset":42,"length":9,"data":"вакансия"},{"type":"hashtag","offset":69,"length":6,"data":"вилка"},{"type":"hashtag","offset":154,"length":7,"data":"Москва"},{"type":"link","offset":436,"length":7,"data":"http://ASP.NET"}],"date":"2019-11-18T13:33:50+00:00","link":"tg://resolve?domain=DotNetRuJobsFeed&post=50","tags":[{"name":"dotnet"},{"name":"csharp"},{"name":"sql-server"},{"name":"sql"},{"name":"vuejs"},{"name":"javascript"},{"name":"asp-net"}],"cities":[{"code":"moscow"}],"allowsRemote":false}},{"node":{"__typename":"Job","id":"50331648-1001375797688","title":".net developer","text":"#вакансия #минск #офис #minsk #fulltime #csharp #core #middle #senior\n\nВакансия: Middle/Senior .NET Developer\nКомпания: Amaryllis Solutions\nЛокация: Минск \nФормат: #офис #фуллтайм\nВилка з/п: 2000-3200 USD net в зависимости от уровня\n\nПроект: Amaryllis Payment Solutions (инновационная платежная платформа).\n\nТребования:\n- практический опыт в .NET, .NET Core, ASP.NET Web API, MS SQL Server, JavaScript, Angular 2+;\n- не менее чем 3-летний стаж бэкенд либо фуллстек разработки.\n\nПредлагаем:\n- конкурентную компенсацию за ваш труд;\n- специальные учебные программы (тренинги и семинары в области передового опыта в области разработки программного обеспечения, управления проектами, управления);\n- индивидуальный план профессионального развития каждого сотрудника;\n- социальный пакет (курсы английского языка и спорт для сотрудников);\n- гибкий график работы;\n- 100% белую заработную плату – компания резидент ПВТ\n- помощь с релокацией для иногородних.\n\nКонтакты: @steelRunner","markup":[{"type":"hashtag","offset":0,"length":9,"data":"вакансия"},{"type":"hashtag","offset":10,"length":6,"data":"минск"},{"type":"hashtag","offset":17,"length":5,"data":"офис"},{"type":"hashtag","offset":23,"length":6,"data":"minsk"},{"type":"hashtag","offset":30,"length":9,"data":"fulltime"},{"type":"hashtag","offset":40,"length":7,"data":"csharp"},{"type":"hashtag","offset":48,"length":5,"data":"core"},{"type":"hashtag","offset":54,"length":7,"data":"middle"},{"type":"hashtag","offset":62,"length":7,"data":"senior"},{"type":"hashtag","offset":164,"length":5,"data":"офис"},{"type":"hashtag","offset":170,"length":9,"data":"фуллтайм"},{"type":"link","offset":359,"length":7,"data":"http://ASP.NET"},{"type":"handle","offset":959,"length":12,"data":"steelRunner"}],"date":"2019-11-15T17:17:33+00:00","link":"tg://resolve?domain=DotNetRuJobsFeed&post=48","tags":[{"name":"dotnet"},{"name":"csharp"},{"name":"web"},{"name":"sql"},{"name":"javascript"},{"name":"angularjs"},{"name":"net-core"},{"name":"asp-net"},{"name":"sql-server"}],"cities":[{"code":"minsk"}],"allowsRemote":false}},{"node":{"__typename":"Job","id":"48234496-1001375797688","title":".net разработчик","text":"#вакансия #москва #офис  150-180 ₽ (fullstack)\nНаш основной стэк технологий: .Net (часть проектов Core), SQL 2017, EF, ServiceStack OrmLite. Основной фронт работ будет на бэкэнде, но необходимо знание фронта (Angular/AngularJS).\nВас ждут интересные задачи в очень атмосферной компании!\nНаши ожидания\n • Опыт разработки на C#, понимание паттернов и принципов проектирования.\n • Знание Angular/AngularJS.\n • Умение разбираться в чужом коде;\n • Навыки работы в команде;\n • Чтение технической литературы на английском языке.\nБудут плюсом:\n • Понимание HTML5\n • Опыт разработки на .Net Core\n • Знание MS SQL, опыт написания и оптимизации запросов.\nМы рассматриваем кандидатов с частичным совпадением наших ожиданий и ваших умений, а также с опытом более 2-х лет.\nОсновные задачи нового сотрудника\n • Участие в разработке новых проектов в компании (сервисы, webApp, интернет-магазин, CRM система).\n • Поддержка и развитие существующих приложений и сервисов.\n • Контроль качества реализованных решений.\n • Активно следить за актуальными технологиями!","markup":[{"type":"hashtag","offset":0,"length":9,"data":"вакансия"},{"type":"hashtag","offset":10,"length":7,"data":"москва"},{"type":"hashtag","offset":18,"length":5,"data":"офис"},{"type":"bold","offset":286,"length":13,"data":""},{"type":"bold","offset":521,"length":13,"data":""},{"type":"bold","offset":758,"length":33,"data":""}],"date":"2019-11-15T11:05:13+00:00","link":"tg://resolve?domain=DotNetRuJobsFeed&post=46","tags":[{"name":"dotnet"},{"name":"csharp"},{"name":"sql"},{"name":"angularjs"},{"name":"html"},{"name":"net-core"}],"cities":[{"code":"moscow"}],"allowsRemote":false}},{"node":{"__typename":"Job","id":"49283072-1001375797688","title":".net разработчик","text":"#вакансия #москва #офис Разработчика C#\nНаш основной стэк технологий: .Net (часть проектов Core), WCF, SQL 2017, EF, ServiceStack OrmLite, разработка на современном железе.\nВас ждут интересные задачи в очень атмосферной компании!\nНаши ожидания\n • Знание С#, .Net , WCF, понимание паттернов и принципов проектирования.\n • Знание MS SQL Server, T-SQL, оптимизация запросов, stored procedure;\n • Опыт разработки на WPF;\n • Умение разбираться в чужом коде;\n • Навыки работы в команде;\n • Чтение технической литературы на английском языке.\nБудут плюсом:\n • Желательно знание .net Core.\n • Знакомство с OrmLite\n • Знакомство с DevExpress\nМы рассматриваем кандидатов с частичным совпадением наших ожиданий и ваших умений, а также продвинутых профессионалов с опытом более 2-х лет.\nОсновные задачи нового сотрудника, это ..\n • Участие в разработке новых проектов в компании (приложений, сервисов, webApp).\n • Поддержка и развитие существующих приложений и сервисов.\n • Контроль качества реализованных решений.\n • Активно следить за актуальными технологиями!\nМы предлагаем:\n • Современные технологии и подходы к разработке, спринты Agile (на Jetbrains YouTrack)\n • Позитивную атмосферу и дружный коллектив, демократичную обстановку\n • График работы 5/2, часы работы обсуждаются\n • Оформление и соц. пакет в соответствии с Трудовым Кодексом\n • Корпоративные скидки на весь портфель брендов\n • Корпоративные подарки на праздники\n • Ароматный кофе и чай в неограниченном количестве\n • Уютный Open space на 7-8 человек\n • Офис в 10 мин. от м. Спортивная и МЦК Лужники","markup":[{"type":"hashtag","offset":0,"length":9,"data":"вакансия"},{"type":"hashtag","offset":10,"length":7,"data":"москва"},{"type":"hashtag","offset":18,"length":5,"data":"офис"},{"type":"bold","offset":24,"length":15,"data":""},{"type":"bold","offset":230,"length":13,"data":""},{"type":"bold","offset":535,"length":13,"data":""},{"type":"bold","offset":774,"length":41,"data":""},{"type":"bold","offset":1050,"length":14,"data":""}],"date":"2019-11-15T11:05:13+00:00","link":"tg://resolve?domain=DotNetRuJobsFeed&post=47","tags":[{"name":"dotnet"},{"name":"csharp"},{"name":"wcf"},{"name":"sql"},{"name":"wpf"},{"name":"sql-server"},{"name":"net-core"}],"cities":[{"code":"moscow"}],"allowsRemote":false}}]}}},"context":{}}