{"hash":"f5f6bf98bd95e769321482904cbbd488f77922fd","data":{"records":{"id":"jquery","name":"jquery","belongsTo":{"totalCount":21,"pageInfo":{"totalPages":3,"currentPage":1},"edges":[{"node":{"__typename":"Job","id":"17346592768-1001110946746","title":"Js разработчик","text":"#вакансия #москва #middle #remote #angular #fulltime #офис\n\nИщем frontend разработчика для работы над основным сайтом и новыми разделами.\nГород и адрес офиса: Москва, м. Авиамоторная\nФормат работы: Офис\nЗанятость: полная\nЗарплатная вилка: 130 000 — 150 000 на руки по результатам технического собеседования\n\nAutospot.ru — онлайн гипермаркет автомобилей. 🚘\n\nВ 2018 году Mitsubishi Corporation и Mail.ru. оценили нас в $19,1 млн.\n\nВ технической команде 17 человек: СТО, 9 PHP разработчиков, 2 frontend разработчика, 3 тестировщика, DevOps.\n\nЧеловек нужен в Москве или готовый в эту самую Москву переехать.\n\n📍Обязанности:\n▫️Разработка компонентов и адаптация/интеграция сторонних библиотек и плагинов;\n▫️ Верстка новых разделов, кроссбраузерная, адаптивная, валидная;\n▫️ Развитие библиотеки UI компонентов;\n▫️ Оперативное исправление багов на проде (IE 11+);\n▫️ Помощь в оптимизации работы сайта (скорость загрузки, оптимизация DOM).\n\n📍Требования:\n▪️ Опыт разработки от 2 лет;\n▪️ Знание JavaScript (jQuery в разумных пределах);\n▪️ Уверенное знание html семантическая верстка, БЭМ, SCSS;\n▪️ Знание работы GIT & NPM;\n▪️ Опыт работы с gulp/webpack;\n▪️ Опыт работы с Figma/Zeplin;\n▪️ Опыт работы с векторной графикой (svg и svg-спрайты).\n\n📍Желательно:\n◾️ Хорошее знание Vue.js и/или Angular 5+. Работать надо будет и с тем и с другим. Angular 5+ в приоритете, планируется переход полностью на него;\n◾️ Знание инструментов организации разработки Jira;\n◾️ Знание нюансов работы браузеров на разных устройствах и ОС;\n◾️ Опыт сео оптимизации;\n◾️ Понимание, что такое доступные интерфейсы;\n\n📍Условия:\n▫️ Комфортабельный офис, БЦ Light Tower, бесплатный шаттл от м. Площадь Ильича;\n▫️ Оформление по ТК РФ с первого рабочего дня;\n▫️ Гибкое начало рабочего дня, с 9 до 11;\n▫️ Возможность работать 1-2 дня удалённо;\n▫️ Полностью белая заработная плата;\n▫️ Неформальная атмосфера и дружный, амбициозный коллектив;\n▫️ Корпоративная скидка на изучение английского языка.\n\n📌 Контакт: @dianadoma","markup":[{"type":"hashtag","offset":0,"length":9,"data":"вакансия"},{"type":"hashtag","offset":10,"length":7,"data":"москва"},{"type":"hashtag","offset":18,"length":7,"data":"middle"},{"type":"hashtag","offset":26,"length":7,"data":"remote"},{"type":"hashtag","offset":34,"length":8,"data":"angular"},{"type":"hashtag","offset":43,"length":9,"data":"fulltime"},{"type":"hashtag","offset":53,"length":5,"data":"офис"},{"type":"link","offset":308,"length":11,"data":"http://Autospot.ru"},{"type":"link","offset":395,"length":7,"data":"http://Mail.ru"},{"type":"handle","offset":1970,"length":10,"data":"dianadoma"}],"date":"2020-07-03T07:39:26+00:00","link":"tg://resolve?domain=javascript_jobs_feed&post=16543","tags":[{"name":"javascript"},{"name":"angularjs"},{"name":"php"},{"name":"jquery"},{"name":"html"},{"name":"git"},{"name":"npm"},{"name":"gulp"},{"name":"webpack"},{"name":"svg"},{"name":"vuejs"}],"cities":[{"code":"moscow"}],"allowsRemote":true}},{"node":{"__typename":"Job","id":"17311989760-1001110946746","title":"Js разработчик","text":"#вакансия #екб #react #fulltime #Fullstack #NodeJS #middle\n\nПозиция: FULLSTACK разработчик (node.js, react)\nКомпания: SoftMediaLab \nЛокация: Екатеринбург \nФормат работы: #удаленка\nЗанятость: #фултайм\nЗП 110 00 - 140 000 рублей на руки (пересмотр з/п раз в год)\n\nSoftMediaLab —основана в 2015 году в городе Екатеринбурге. Основатели компании - разработчики, поэтому никакой бюрократии и странных решений, процессы максимально простые и понятные, среда дружественная. На данный момент более 50 выполненных проектов в России, Канаде, Европе, Израиле, Сингапуре и США.\n\nТребования:\n- Обязателен опыт работы с Node.js и React (не менее 2х лет)\n- Опыт работы с базой данных PostgreSQL\n- Опыт работы с системами контроля версий.\n- Владение английским языком на уровне чтения документации. Плюсом будет владение разговорным английским для международных проектов.\n- Опыт написания unit-тестов.\n\nСтек: node.js, react, typescript, express.js, socket.io, PostgreSQL , bootstrap, material-ui, JQuery, sass, less\n\nКонтакты: @Ekaterina_Mitroshkina или @iamanastasie","markup":[{"type":"hashtag","offset":0,"length":9,"data":"вакансия"},{"type":"hashtag","offset":10,"length":4,"data":"екб"},{"type":"hashtag","offset":15,"length":6,"data":"react"},{"type":"hashtag","offset":22,"length":9,"data":"fulltime"},{"type":"hashtag","offset":32,"length":10,"data":"Fullstack"},{"type":"hashtag","offset":43,"length":7,"data":"NodeJS"},{"type":"hashtag","offset":51,"length":7,"data":"middle"},{"type":"hashtag","offset":170,"length":9,"data":"удаленка"},{"type":"hashtag","offset":191,"length":8,"data":"фултайм"},{"type":"link","offset":933,"length":9,"data":"http://socket.io"},{"type":"handle","offset":1011,"length":22,"data":"Ekaterina_Mitroshkina"},{"type":"handle","offset":1038,"length":13,"data":"iamanastasie"}],"date":"2020-07-02T09:21:42+00:00","link":"tg://resolve?domain=javascript_jobs_feed&post=16510","tags":[{"name":"javascript"},{"name":"reactjs"},{"name":"nodejs"},{"name":"postgresql"},{"name":"typescript"},{"name":"express"},{"name":"bootstrap"},{"name":"jquery"},{"name":"sass"}],"cities":[],"allowsRemote":true}},{"node":{"__typename":"Job","id":"17309892608-1001110946746","title":"Js разработчик","text":"#удаленка #fullstack #middle #вакансия\nПривет! ✌ Мы ищем full stack специалиста для постоянной работы. \nФормат работы: Удалёнка. Занятость:полная.\nЗП: от 80 до 100 к\n\nУровень middle\n\nКомпания:https://arkonsa.ru/\n💁 Описание компании: Мы работаем в двух направлениях: 1) Своя CRM система (oko сrm), которую планируем продавать на внешний рынок + запускать мобильное приложение для IOS и Android;\n2) Свой учебный центр (продажи).\n\nОт тебя мы ждем:\n\n- Уверенное знание: HTML4/5, CSS2/3, JavaScript ES5(ES6), HTML, JQuery, Ajax, React, VUE.js, Laravel\n\n💡 Требования:\nопыт разработки по данному стеку от 2+лет.\n\n📠 За подробностями по вакансии и по всем вопросам:\n@elena_hr_tmn \n89129125591 Viber\n\n—\n\n👉 Обсуждение вакансии в чате @javascript_jobs","markup":[{"type":"hashtag","offset":0,"length":9,"data":"удаленка"},{"type":"hashtag","offset":10,"length":10,"data":"fullstack"},{"type":"hashtag","offset":21,"length":7,"data":"middle"},{"type":"hashtag","offset":29,"length":9,"data":"вакансия"},{"type":"link","offset":192,"length":19,"data":"https://arkonsa.ru/"},{"type":"handle","offset":660,"length":13,"data":"elena_hr_tmn"},{"type":"link","offset":675,"length":11,"data":"tel:89129125591"},{"type":"handle","offset":727,"length":16,"data":"javascript_jobs"}],"date":"2020-07-02T07:31:15+00:00","link":"tg://resolve?domain=javascript_jobs_feed&post=16508","tags":[{"name":"javascript"},{"name":"ios"},{"name":"android"},{"name":"html"},{"name":"css"},{"name":"jquery"},{"name":"ajax"},{"name":"reactjs"},{"name":"vuejs"},{"name":"laravel"}],"cities":[],"allowsRemote":true}},{"node":{"__typename":"Job","id":"17307795456-1001110946746","title":"Js разработчик","text":"#вакансия #москва #middle #remote #angular #fulltime #офис\n\nИщем frontend разработчика для работы над основным сайтом и новыми разделами.\nГород и адрес офиса: Москва, м. Авиамоторная\nФормат работы: Офис\nЗанятость: полная\nЗарплатная вилка: 130 000 — 150 000 на руки по результатам технического собеседования\n\nAutospot.ru — онлайн гипермаркет автомобилей. 🚘\n\nВ 2018 году Mitsubishi Corporation и Mail.ru. оценили нас в $19,1 млн.\n\nВ технической команде 17 человек: СТО, 9 PHP разработчиков, 2 frontend разработчика, 3 тестировщика, DevOps.\n\nЧеловек нужен в Москве или готовый в эту самую Москву переехать.\n\n📍Обязанности:\n▫️Разработка компонентов и адаптация/интеграция сторонних библиотек и плагинов;\n▫️ Верстка новых разделов, кроссбраузерная, адаптивная, валидная;\n▫️ Развитие библиотеки UI компонентов;\n▫️ Оперативное исправление багов на проде (IE 11+);\n▫️ Помощь в оптимизации работы сайта (скорость загрузки, оптимизация DOM).\n\n📍Требования:\n▪️ Опыт разработки от 2 лет;\n▪️ Знание JavaScript (jQuery в разумных пределах);\n▪️ Уверенное знание html семантическая верстка, БЭМ, SCSS;\n▪️ Знание работы GIT & NPM;\n▪️ Опыт работы с gulp/webpack;\n▪️ Опыт работы с Figma/Zeplin;\n▪️ Опыт работы с векторной графикой (svg и svg-спрайты).\n\n📍Желательно:\n◾️ Хорошее знание Vue.js и/или Angular 5+. Работать надо будет и с тем и с другим. Angular 5+ в приоритете, планируется переход полностью на него;\n◾️ Знание инструментов организации разработки Jira;\n◾️ Знание нюансов работы браузеров на разных устройствах и ОС;\n◾️ Опыт сео оптимизации;\n◾️ Понимание, что такое доступные интерфейсы;\n\n📍Условия:\n▫️ Комфортабельный офис, БЦ Light Tower, бесплатный шаттл от м. Площадь Ильича;\n▫️ Оформление по ТК РФ с первого рабочего дня;\n▫️ Гибкое начало рабочего дня, с 9 до 11;\n▫️ Возможность работать 1-2 дня удалённо;\n▫️ Полностью белая заработная плата;\n▫️ Неформальная атмосфера и дружный, амбициозный коллектив;\n▫️ Корпоративная скидка на изучение английского языка.\n\n📌 Контакт: @dianadoma","markup":[{"type":"hashtag","offset":0,"length":9,"data":"вакансия"},{"type":"hashtag","offset":10,"length":7,"data":"москва"},{"type":"hashtag","offset":18,"length":7,"data":"middle"},{"type":"hashtag","offset":26,"length":7,"data":"remote"},{"type":"hashtag","offset":34,"length":8,"data":"angular"},{"type":"hashtag","offset":43,"length":9,"data":"fulltime"},{"type":"hashtag","offset":53,"length":5,"data":"офис"},{"type":"link","offset":308,"length":11,"data":"http://Autospot.ru"},{"type":"link","offset":395,"length":7,"data":"http://Mail.ru"},{"type":"handle","offset":1970,"length":10,"data":"dianadoma"}],"date":"2020-07-02T07:28:49+00:00","link":"tg://resolve?domain=javascript_jobs_feed&post=16506","tags":[{"name":"javascript"},{"name":"angularjs"},{"name":"php"},{"name":"jquery"},{"name":"html"},{"name":"git"},{"name":"npm"},{"name":"gulp"},{"name":"webpack"},{"name":"svg"},{"name":"vuejs"}],"cities":[{"code":"moscow"}],"allowsRemote":true}},{"node":{"__typename":"Job","id":"26927431680-1001075660570","title":"Php разработчик","text":"#php #вакансия #удалёнка \n\nPHP Engineer\nФормат работы: #fulltime #remote\nЗарплата: $ 40 000 - 50 000 в год\nГород: удаленно\n\nНебольшая, но быстро растущая студия разработки из Лондона ищет PHP-ниндзю. На нашем счету много успешных проектов, большая часть которых — британские. \n\nТребования:\n— Опыт в разработке не менее 3 лет;\n— Знание PHP как родного,\n— Знание SQL, особенно MySQL или PostgreSQL \n— Понимание HTML/CSS;\n— Быть знакомым с PHP MVC Framework, JavaScript (and jQuery);\n— Опыт в Version Control (Git);\n— Опыт с Bash and Unix (обычно мы используем Ubuntu 16.04) \n— Уровень английского С2;\n— Опыт с алгоритмами приветствуется;\n— Большим плюсом будет знание Laravel (или хотя бы Symfony), фреймворки CakePHP, Zend, CodeIgniter тоже ок, но все равно потребуется освоить Laravel.\n\nЧтобы откликнуться, необходимо пройти короткий отбор по ссылке https://6nomads.com/ (обязательное условие найма🤷‍♀️)\n\nКонтакт для связи @temnik_sofya","markup":[{"type":"hashtag","offset":0,"length":4,"data":"php"},{"type":"hashtag","offset":5,"length":9,"data":"вакансия"},{"type":"hashtag","offset":15,"length":9,"data":"удалёнка"},{"type":"hashtag","offset":55,"length":9,"data":"fulltime"},{"type":"hashtag","offset":65,"length":7,"data":"remote"},{"type":"link","offset":85,"length":15,"data":"tel:40 000 - 50 000"},{"type":"link","offset":850,"length":20,"data":"https://6nomads.com/"},{"type":"handle","offset":924,"length":13,"data":"temnik_sofya"}],"date":"2020-07-01T17:36:31+00:00","link":"tg://resolve?domain=php_jobs&post=25680","tags":[{"name":"php"},{"name":"sql"},{"name":"mysql"},{"name":"postgresql"},{"name":"html"},{"name":"css"},{"name":"javascript"},{"name":"jquery"},{"name":"git"},{"name":"bash"},{"name":"unix"},{"name":"ubuntu"},{"name":"laravel"},{"name":"symfony"},{"name":"cakephp"},{"name":"zend-framework"},{"name":"codeigniter"}],"cities":[],"allowsRemote":true}},{"node":{"__typename":"Job","id":"17224957952-1001110946746","title":"Js разработчик","text":"#вакансия #москва #middle #remote #angular #fulltime #офис\n\nИщем frontend разработчика для работы над основным сайтом и новыми разделами.\nГород и адрес офиса: Москва, м. Авиамоторная\nФормат работы: Офис\nЗанятость: полная\nЗарплатная вилка: 130 000 — 150 000 на руки по результатам технического собеседования\n\nAutospot.ru — онлайн гипермаркет автомобилей. \n\nВ 2018 году Mitsubishi Corporation и Mail.ru. оценили нас в $19,1 млн.\n\nВ технической команде 17 человек: СТО, 9 PHP разработчиков, 2 frontend разработчика, 3 тестировщика, DevOps.\n\nЧеловек нужен в Москве или готовый в эту самую Москву переехать.\n\nОбязанности:\n▫️Разработка компонентов и адаптация/интеграция сторонних библиотек и плагинов;\n▫️ Верстка новых разделов, кроссбраузерная, адаптивная, валидная;\n▫️ Развитие библиотеки UI компонентов;\n▫️ Оперативное исправление багов на проде (IE 11+);\n▫️ Помощь в оптимизации работы сайта (скорость загрузки, оптимизация DOM).\n\nТребования:\n▪️ Опыт разработки от 2 лет;\n▪️ Знание JavaScript (jQuery в разумных пределах);\n▪️ Уверенное знание html семантическая верстка, БЭМ, SCSS;\n▪️ Знание работы GIT & NPM;\n▪️ Опыт работы с gulp/webpack;\n▪️ Опыт работы с Figma/Zeplin;\n▪️ Опыт работы с векторной графикой (svg и svg-спрайты).\n\nЖелательно:\n◾️ Хорошее знание Vue.js и/или Angular 5+. Работать надо будет и с тем и с другим. Angular 5+ в приоритете, планируется переход полностью на него;\n◾️ Знание инструментов организации разработки Jira;\n◾️ Знание нюансов работы браузеров на разных устройствах и ОС;\n◾️ Опыт сео оптимизации;\n◾️ Понимание, что такое доступные интерфейсы;\n\nУсловия:\n▫️ Комфортабельный офис, БЦ Light Tower, бесплатный шаттл от м. Площадь Ильича;\n▫️ Оформление по ТК РФ с первого рабочего дня;\n▫️ Гибкое начало рабочего дня, с 9 до 11;\n▫️ Возможность работать 1-2 дня удалённо;\n▫️ Полностью белая заработная плата;\n▫️ Неформальная атмосфера и дружный, амбициозный коллектив;\n▫️ Корпоративная скидка на изучение английского языка.\n\nКонтакт: @dianadoma","markup":[{"type":"hashtag","offset":0,"length":9,"data":"вакансия"},{"type":"hashtag","offset":10,"length":7,"data":"москва"},{"type":"hashtag","offset":18,"length":7,"data":"middle"},{"type":"hashtag","offset":26,"length":7,"data":"remote"},{"type":"hashtag","offset":34,"length":8,"data":"angular"},{"type":"hashtag","offset":43,"length":9,"data":"fulltime"},{"type":"hashtag","offset":53,"length":5,"data":"офис"},{"type":"link","offset":308,"length":11,"data":"http://Autospot.ru"},{"type":"link","offset":393,"length":7,"data":"http://Mail.ru"},{"type":"handle","offset":1957,"length":10,"data":"dianadoma"}],"date":"2020-06-29T15:32:23+00:00","link":"tg://resolve?domain=javascript_jobs_feed&post=16427","tags":[{"name":"javascript"},{"name":"angularjs"},{"name":"php"},{"name":"jquery"},{"name":"html"},{"name":"git"},{"name":"npm"},{"name":"gulp"},{"name":"webpack"},{"name":"svg"},{"name":"vuejs"}],"cities":[{"code":"moscow"}],"allowsRemote":true}},{"node":{"__typename":"Job","id":"26800553984-1001075660570","title":"Php разработчик","text":"#разработчикБитрикс #Битрикс #PHPразработчик #ProgressiveMedia #вакансия \n\nProgressive Media приглашает в штат разработчиков PHP/ 1С-Битрикс (удаленно, полная занятость). Работа в проектных группах. Чистый бэкэнд-кодинг, интересные формализованные задачи. \n\n✅Обязанности: \n- Создание бэкенда на PHP на базе Bitrix framework \n- Интеграция фронтенда \n- Разработка сервисов интеграции с различными ERP и CRM-системами \n\n✅Требуется: \n- PHP, MySQL \n- Знание принципов ООП (PHP7) \n- HTML5, CSS3, JavaScript, JQuery, SQL для интеграции фронтенда \n- знание Bitrix framework \n- Знание ядра Bitrix D7 \n\n✅Предлагаем: \n- Удаленная работа \n- Белая ЗП \n- Используем GIT и сервис деплоймента \n\n📩📩📩Для резюме: shevchenko@progressivemedia.ru","markup":[{"type":"hashtag","offset":0,"length":19,"data":"разработчикБитрикс"},{"type":"hashtag","offset":20,"length":8,"data":"Битрикс"},{"type":"hashtag","offset":29,"length":15,"data":"PHPразработчик"},{"type":"hashtag","offset":45,"length":17,"data":"ProgressiveMedia"},{"type":"hashtag","offset":63,"length":9,"data":"вакансия"},{"type":"bold","offset":111,"length":17,"data":""},{"type":"bold","offset":142,"length":26,"data":""},{"type":"link","offset":697,"length":30,"data":"mailto:shevchenko@progressivemedia.ru"}],"date":"2020-06-29T14:45:14+00:00","link":"tg://resolve?domain=php_jobs&post=25559","tags":[{"name":"php"},{"name":"mysql"},{"name":"html"},{"name":"css"},{"name":"javascript"},{"name":"jquery"},{"name":"sql"},{"name":"git"}],"cities":[],"allowsRemote":true}},{"node":{"__typename":"Job","id":"72272052224-1001054966032","title":"Ios разработчик","text":"#вакансия #ios #senior #swift #Спб\n\nГород: Санкт-Петербург\nФормат работы: офис\nЗанятость: полная\nЗарплатная вилка: 180-220 k net (готовы по потолку двигаться в зависимости от опыта)\nВакансия: ищу ведущего iOS-разработчика в развитие молодого приложения.\nО компании: НаПоправку.ру — медицинский онлайн-сервис. Команда реализовала real-time запись на медицинскую диагностику и услуги. Компании 6 лет, ежемесячно она помогает более чем 1 000 000 пользователей решать свои проблемы со здоровьем, и этот факт по-настоящему драйвит команду.\n\nГлавные задачи:\n✔️ Развивать архитектуру приложения и решать \"как делать\"\n✔️ Участвовать в планировании спринтов\n✔️ Менторство для младшего разработчика\n✔️ Наши технологии: Мы строим работу по SCRUM, для организации flow используем Jira и Slack.\n✔️ Основной стек команды веб-разработки (для полноты картины): PHP 7.3, MySQL / PostgreSQL / Redis, Zend / Laravel, Vue / jQuery.\n\nТребования:\n✔️ Имеете опыт коммерческой разработки на Swift более 3-х лет\n✔️ Понимаете как устроен жизненный цикл разработки мобильного приложения от концепции и первой строчки кода до релиза на маркетплейс\n✔️ Имеете опыт взаимодействия с REST API\n✔️ Уверенно владеете iOS SDK\n✔️ Пишете SOLID’ный код, знаете и применяете паттерны проектирования\n✔️ Настроены на решение реальных задач бизнеса\n✔️ Мы ищем в команду специалиста, мыслящего в терминах time-to-market, то есть, чтобы новые фичи доходили до прода, как можно быстрее, а не застревали в тестировании.\n\nПриятные мелочи:\n✔️ Белая зарплата, размер обсуждается с успешным кандидатом\n✔️ Мы поощряем развитие коллег, поэтому оплачиваем курсы, конференции и создаем корпоративную библиотеку\n✔️ Программа опционов для сотрудников\n✔️ Фрукты, снеки, чай и кофе\n✔️ Гибкое начало рабочего дня (с 8 до 11)\n\n📩 @ulyana_rol","markup":[{"type":"hashtag","offset":0,"length":9,"data":"вакансия"},{"type":"hashtag","offset":10,"length":4,"data":"ios"},{"type":"hashtag","offset":15,"length":7,"data":"senior"},{"type":"hashtag","offset":23,"length":6,"data":"swift"},{"type":"hashtag","offset":30,"length":4,"data":"Спб"},{"type":"bold","offset":36,"length":7,"data":""},{"type":"bold","offset":59,"length":14,"data":""},{"type":"bold","offset":79,"length":11,"data":""},{"type":"bold","offset":97,"length":17,"data":""},{"type":"bold","offset":182,"length":9,"data":""},{"type":"bold","offset":254,"length":11,"data":""},{"type":"bold","offset":536,"length":15,"data":""},{"type":"bold","offset":913,"length":11,"data":""},{"type":"bold","offset":1474,"length":16,"data":""},{"type":"handle","offset":1769,"length":11,"data":"ulyana_rol"}],"date":"2020-06-29T13:47:15+00:00","link":"tg://resolve?domain=mobile_jobs&post=68924","tags":[{"name":"mobile"},{"name":"ios"},{"name":"swift"},{"name":"dotnet"},{"name":"php"},{"name":"mysql"},{"name":"postgresql"},{"name":"redis"},{"name":"zend-framework"},{"name":"laravel"},{"name":"vuejs"},{"name":"jquery"},{"name":"rest"}],"cities":[],"allowsRemote":false}},{"node":{"__typename":"Job","id":"17190354944-1001110946746","title":"Js разработчик","text":"#вакансия #frontend  #офис #fulltime #спб #петербург  #fulltime #middle #vue #JavaScript #lodash #middle #petersburg #jquery #sass #less \n\nГород: Санкт-Петербург м.Чернышевская\n\nЗанятость: fulltime\n\nКомпания Rixtrema Inc. находится в поиске frontend-разработчика уровня middle, который, также, как и мы, обожает программировать и разрабатывать интерфейсы.  Нам важно видеть у соискателя огонь в глазах и желание развиваться вместе с командой. \nШтаб-квартира компании находится в Нью-Йорке. Мы обслуживаем одни из крупнейших инвестиционных домов и управляющих активами в США. \nМы продаёт свой софт в США. Это не аутсорс, а интересная работа со своими динамичными продуктами. Именно поэтому ищем кандидата, способного продемонстрировать  креативность.\n\nОбязанности:\n\n - Разработка интерфейсов, приложений и сайтов\n-  Поддержание проектов в продакшне\n- Участие в разработке новых приложений\n- Постоянное, непрерывное развитие и обучение (это как и условие, так и обязанность)\n\nТребования:\n\n Уверенное знание JavaScript (само собой, HTML5, CSS3 ) Понимание основных паттернов проектирования\nПонимание основных принципов UI/UX, умение верстать без макетов\nНе так важна углубленная работа с конкретным фреймворком, важно понимание их работы в целом (Angular, React, Vue и пр.). Тем не менее, новые проекты пишутся на Vue и кандидат должен быть готов на кратчайшие сроки сориентироваться. \nДополнительным плюсом будет работа с jquery, lodash (в т.ч. шаблонизаторами), cordova, electron, nodejs, less, sass.\n\n\nВ первую очередь ищем петербуржцев, готовых работать в офисе. Однако готовы рассмотреть и вариант удалённой работы.\n\nУсловия:\n\n    Удалённая работа (если в Питере, то можно в офисе)\n    Зарплата от 1300 USD до 2000 USD после уплаты налогов. Фиксируется в долларах. \n    3 недели оплачиваемого отпуска\nпрактически отсутствует бюрократия, все предельно прозрачно\nвозможность разработчику непросто кодить по ТЗ, а принимать в том числе стратегические решения по проекту.\n    Фирма продаёт свой софт в США. Это не аутсорс, а интересная работа со своими динамичными продуктами. \n\nЕсли Вы подходите под требования и готовы решать нестандартные задачи вместе с нами - смело записывайтесь на собеседование!  Не забывайте прилагать пример кода и ссылки на проекты в продакшне, особенно на самые нетривиальные на Ваш взгляд. \n\nКонтакты:\n@sanyanx\n\n—\n\n👉 Обсуждение вакансии в чате @javascript_jobs","markup":[{"type":"hashtag","offset":0,"length":9,"data":"вакансия"},{"type":"hashtag","offset":10,"length":9,"data":"frontend"},{"type":"hashtag","offset":21,"length":5,"data":"офис"},{"type":"hashtag","offset":27,"length":9,"data":"fulltime"},{"type":"hashtag","offset":37,"length":4,"data":"спб"},{"type":"hashtag","offset":42,"length":10,"data":"петербург"},{"type":"hashtag","offset":54,"length":9,"data":"fulltime"},{"type":"hashtag","offset":64,"length":7,"data":"middle"},{"type":"hashtag","offset":72,"length":4,"data":"vue"},{"type":"hashtag","offset":77,"length":11,"data":"JavaScript"},{"type":"hashtag","offset":89,"length":7,"data":"lodash"},{"type":"hashtag","offset":97,"length":7,"data":"middle"},{"type":"hashtag","offset":105,"length":11,"data":"petersburg"},{"type":"hashtag","offset":117,"length":7,"data":"jquery"},{"type":"hashtag","offset":125,"length":5,"data":"sass"},{"type":"hashtag","offset":131,"length":5,"data":"less"},{"type":"handle","offset":2329,"length":8,"data":"sanyanx"},{"type":"handle","offset":2372,"length":16,"data":"javascript_jobs"}],"date":"2020-06-28T15:15:36+00:00","link":"tg://resolve?domain=javascript_jobs_feed&post=16394","tags":[{"name":"javascript"},{"name":"vuejs"},{"name":"jquery"},{"name":"sass"},{"name":"html"},{"name":"css"},{"name":"angularjs"},{"name":"reactjs"},{"name":"cordova"},{"name":"electron"},{"name":"nodejs"}],"cities":[],"allowsRemote":true}},{"node":{"__typename":"Job","id":"26658996224-1001075660570","title":"Php developer","text":"#вакансия #JavaScript #PHP #React #Senior #офис #Москва #Балашиха\n📣Крупнейший в России поставщик автомобильных шин и колесных дисков ведущих мировых производителей (входящих в Forbs 500) приглашает Senior PHP/JavaScript Developer для участия в новом интернет-проекте в сфере B2B и B2C.\n\n✅Мы предлагаем:\nУровень ЗП: 170-200 net (обсуждается!)\nЛокация: офис г. Балашиха или м. Таганская\nОформление по ТК РФ, полный соц.пакет.\nКомпенсация аренды жилья при переезде❗️\nГрафик работы 5/2 с 9:00 до 18:00, корпоративное питание, частично удаленно❗️\n\n🧑‍💻Ваши будущие задачи:\n- участие в разработке новых больших интернет-проектов в сфере B2B и B2C;\n- участие в разработке внутренних проектов Компании;\n- развитие и оптимизация существующих проектов.\n\n🤝Мы ожидаем от Вас:\nОпыт работы и уверенное владение PHP, Javascript (React), jQuery от 3 лет\nХорошее понимание ООП, MVC, SQL, CSS3\nОпыт комплексной разработки web-проектов, наличие готовых проектов\nЖелательно: использование grunt, browserify, методологии BEM, препроцессоров SASS/LESS; опыт работы Oracle DB, Docker, умение верстать на flexbox.\n\n👉Откликнуться на вакансию и задать вопросы: telegram @anisimovaane4ka","markup":[{"type":"hashtag","offset":0,"length":9,"data":"вакансия"},{"type":"hashtag","offset":10,"length":11,"data":"JavaScript"},{"type":"hashtag","offset":22,"length":4,"data":"PHP"},{"type":"hashtag","offset":27,"length":6,"data":"React"},{"type":"hashtag","offset":34,"length":7,"data":"Senior"},{"type":"hashtag","offset":42,"length":5,"data":"офис"},{"type":"hashtag","offset":48,"length":7,"data":"Москва"},{"type":"hashtag","offset":56,"length":9,"data":"Балашиха"},{"type":"handle","offset":1148,"length":16,"data":"anisimovaane4ka"}],"date":"2020-06-28T11:35:43+00:00","link":"tg://resolve?domain=php_jobs&post=25424","tags":[{"name":"php"},{"name":"javascript"},{"name":"reactjs"},{"name":"dotnet"},{"name":"jquery"},{"name":"sql"},{"name":"css"},{"name":"web"},{"name":"gruntjs"},{"name":"sass"},{"name":"oracle"},{"name":"docker"}],"cities":[{"code":"moscow"},{"code":"balashikha"}],"allowsRemote":true}}]}}},"context":{}}