{"hash":"f5f6bf98bd95e769321482904cbbd488f77922fd","data":{"records":{"id":"web","name":"web","belongsTo":{"totalCount":155,"pageInfo":{"totalPages":16,"currentPage":5},"edges":[{"node":{"__typename":"Job","id":"17266900992-1001110946746","title":"Js разработчик","text":"Добрый день\n\n#вакансия #работа #parttime #JavaScript #vuejs #Frontend #Web\n\nГород и адрес офиса: Москва\nКомпания: Enlighted\nФормат работы: удаленка\nЗанятость: частичная, не менее 20-30 часов в неделю\nЗарплатная вилка: от 7-10$ в час либо сдельная\n\n\nМакеты в Sketch, задачи в Трекере\n\nСтек:\nVue2 + Vuex\n\nТребования:\nУмение верстать по макетам из Sketch/Figma\nПонимание принципа работы Vuex, уметь рассказать зачем он вообще нужен.\nvue+vuex, es6, vue-cli\nЗнание html, css3, BEM-методологии\nУмение работать с git, знание процесса git flow будет плюсом.\nОпыт интеграции Google/OSM maps будет плюсом.\nОпыт настройки CI/CD или хотя бы понимание как устроен процесс сборки Vue проекта.\n\nВам предстоит:\nРазрабатывать фронтенд-часть проекта по предоставленным макетам, никакого legacy, проект начинается с нуля.\nКомандная работа, утренние стендапы и еженедельные релизы.\n\nПисать мне в личку @westarakagrek или на почту ra@enlighted.ru","markup":[{"type":"hashtag","offset":13,"length":9,"data":"вакансия"},{"type":"hashtag","offset":23,"length":7,"data":"работа"},{"type":"hashtag","offset":31,"length":9,"data":"parttime"},{"type":"hashtag","offset":41,"length":11,"data":"JavaScript"},{"type":"hashtag","offset":53,"length":6,"data":"vuejs"},{"type":"hashtag","offset":60,"length":9,"data":"Frontend"},{"type":"hashtag","offset":70,"length":4,"data":"Web"},{"type":"handle","offset":882,"length":14,"data":"westarakagrek"},{"type":"link","offset":910,"length":15,"data":"mailto:ra@enlighted.ru"}],"date":"2020-06-30T16:06:01+00:00","link":"tg://resolve?domain=javascript_jobs_feed&post=16467","tags":[{"name":"javascript"},{"name":"vuejs"},{"name":"web"},{"name":"html"},{"name":"css"},{"name":"git"}],"cities":[{"code":"moscow"}],"allowsRemote":true}},{"node":{"__typename":"Job","id":"104078508032-1001089317451","title":"Qa engineer","text":"#вакансия #QA  #QAEngineer # relocation #Praha\nВакансия: Manual QA Engineer\nГород:  #Прага \nЗарплата: 💸45 000-65 000 czk gross\nФормат: #удаленно  #офис\nКомпания: Slotegrator\n\nЗадачи:\n•  Разработка и проведение ручного, функционального, регрессионного тестирования\n•  Анализ и уточнение требований, разработка и ведение тест кейсов в рамках назначенных проектов.\n•  Разработка и поддержка тестовой документации;\n•  Документирование процессов тестирования, контроль актуальности тест-кейсов\n•  Тестирование назначенных проектов или функционала (область ответственности - этап разработки и согласования требований, этап разработки и проведения тестов)\n•  Отладка программных продуктов с использованием систематических тестов\n•  Работать в тесном сотрудничестве с командой разработчиков\n\nТребования:\n•  2+ года опыта в ручных тестовых случаях, разработке сценариев тестирования, написание тестовых сценариев\n•  Знание основных критериев качества требований к ПО\n•  Знания в области тестирования и работа на веб / клиент-сервер / мобильные приложения\n•  Хорошее знание процессов тестирования, знания тестовой документации\n•  Хороший опыт анализа, устранения неполадок и решения проблем\n\nБудут преимуществом:\n•  Опыт тестирования API / веб-сервисов (Web API) и мобильных устройств\n•  Знания SQL\n\nЧто мы предлагаем?🍩\n•  Работу на различных интересных международных проектах \n•  Визовая поддержка и частичная компенсации расходов на переезд в Чехию\n•  Уроки английского и чешского языков каждую неделю \n•  Гибкое начало рабочего дня \n•  Бизнес коуч\n•  Карта MultiSport\n•  Бесплатные обеды по средам и вкусные снэки каждый день\n\nБудь частью крутых проектов!🤝\n\nКонтакты: recruiting@slotegrator.com / tlg @DarinaRecruitment","markup":[{"type":"hashtag","offset":0,"length":9,"data":"вакансия"},{"type":"hashtag","offset":10,"length":3,"data":"QA"},{"type":"hashtag","offset":15,"length":11,"data":"QAEngineer"},{"type":"hashtag","offset":40,"length":6,"data":"Praha"},{"type":"hashtag","offset":84,"length":6,"data":"Прага"},{"type":"hashtag","offset":136,"length":9,"data":"удаленно"},{"type":"hashtag","offset":147,"length":5,"data":"офис"},{"type":"link","offset":1664,"length":26,"data":"mailto:recruiting@slotegrator.com"},{"type":"handle","offset":1697,"length":18,"data":"DarinaRecruitment"}],"date":"2020-06-30T13:34:11+00:00","link":"tg://resolve?domain=qa_jobs&post=99257","tags":[{"name":"qa"},{"name":"web"},{"name":"sql"}],"cities":[{"code":"prague"}],"allowsRemote":true}},{"node":{"__typename":"Job","id":"17264803840-1001110946746","title":"Js developer","text":"#вакансия #frontend #javascript #senior #vacancy #remote #удаленка #fulltime \n\n📍Компания: Datagrok (https://datagrok.ai)\n📍Локация: USA, PA\n📍Формат: удаленная работа, фуллтайм\n📍Вилка: 1000$ - 2500$\n\nКонтакт: @alexaprm \n\nDatagrok.ai is looking for a qualified frontend developer to join our strong team of engineers and data scientists. We are a startup developing a next-generation, no-compromises data analytics platform that will revolutionize the industry. Our proprietary technology lets us efficiently process datasets with tens of millions of rows in the browser, and interactively visualize them. We take pride in platform’s UX and performance, and take advantage of the technologies such as WebAssembly, WebGL, and browser-based multithreaded computations. We have a very well established development process that includes unit tests, continuous integration system, stress tests, integration tests, automated UI testing system, and various deployment options. Our technology stack is primarily based on Dart and Postgres, but also has multiple extension points with components developed in JavaScript, TypeScript, Python, R, Java, and C++. Initially you will be involved in developing new plugins in JavaScript, and extending platform’s core capabilities to enable that.\n\nThere is a lot of room to grow, and there will be many opportunities to assume more responsibilities and learn new domains, such as machine learning, artificial intelligence, or high-performance computing.\n\nThis is a remote position.\nIt would be great if you could send us a project you have developed on your own (github repository is ok), or point to another project you have participated in. \n\nResponsibilities\n* Front-end and back-end web development\n* Maintain and improve developer-facing platform’s JS API\n* Help our clients write JS applications on top of the Datagrok platform\n* Develop proof-of-concept applications\n* Integrate third-party JS libraries into the platform\n\nRequirements\n* At least two years of professional experience\n* JavaScript or TypeScript\n* At least one of (Angular, React, Vue)\n* Good written English, ability to communicate directly with our clients\n* Strong verbal and written communication skills\n* Ability to learn and apply new technologies\n\nNice to have\n* One of (Python, R, Java, C#, C++)\n* WebGL\n* WebAssembly\n* Dart\n* Machine learning and statistics\n* Prior exposure to life sciences is a plus\n\n—\n\n👉 Обсуждение вакансии в чате @javascript_jobs","markup":[{"type":"hashtag","offset":0,"length":9,"data":"вакансия"},{"type":"hashtag","offset":10,"length":9,"data":"frontend"},{"type":"hashtag","offset":20,"length":11,"data":"javascript"},{"type":"hashtag","offset":32,"length":7,"data":"senior"},{"type":"hashtag","offset":40,"length":8,"data":"vacancy"},{"type":"hashtag","offset":49,"length":7,"data":"remote"},{"type":"hashtag","offset":57,"length":9,"data":"удаленка"},{"type":"hashtag","offset":67,"length":9,"data":"fulltime"},{"type":"link","offset":101,"length":19,"data":"https://datagrok.ai"},{"type":"handle","offset":211,"length":9,"data":"alexaprm"},{"type":"link","offset":223,"length":11,"data":"http://Datagrok.ai"},{"type":"handle","offset":2452,"length":16,"data":"javascript_jobs"}],"date":"2020-06-30T12:32:35+00:00","link":"tg://resolve?domain=javascript_jobs_feed&post=16465","tags":[{"name":"javascript"},{"name":"deployment"},{"name":"dart"},{"name":"postgresql"},{"name":"typescript"},{"name":"python"},{"name":"java"},{"name":"github"},{"name":"web"},{"name":"angularjs"},{"name":"reactjs"},{"name":"vuejs"},{"name":"continuous-integration"},{"name":"machine-learning"}],"cities":[{"code":"nice"}],"allowsRemote":true}},{"node":{"__typename":"Job","id":"104071168000-1001089317451","title":"Qa engineer","text":"#вакансия #qaautomation #fulltime #удаленка #москва #криптериум\n\nQA automation engineer/QA engineer (100.000-250.000)\n\n\n\nПривет!\n\nМы команда Crypterium!\n\nМы международный финтех стартап.\n\nМы строим банк будущего, который поддерживает криптофиатные операции.\n\nНаша цель – создание сервиса, который фактически займёт место традиционных банков, по всем возможным банковским операциям!\n\nУ нас сложные, но интересные задачи по созданию крутого и по-настоящему полезного продукта для людей из разных стран по всему миру. Работа у нас-реальная возможность приложить руку к крутому продукту, которым будет пользоваться большое количество людей.\n\nНа данный момент наша компания активно растет и развивается, в связи с этим мы ищем QA autimation enginer .Нам нужен по-настоящему проактивный и ответственный сотрудник. Задач много, они разные и крайне интересные\n\n🟢Что предстоит делать?\n\n-Тестировать веб и мобильную версию нашего продукта (РФТ)\n\n-Фиксировать ошибки и писать отчёты по результатам тест-кейсов\n\n-Писать автотесты по тест-кейсам\n\n-Осуществлять исследовательское тестирование\n\n-Взаимодействовать с командой разработки\n\n🟢Какие skill’s мы хотим видеть в нашем будущем коллеге?\n\n-Опыт функционального тестирования web и mobile приложений от 1 года\n-Английский язык на уровне чтения документации\n-Опыт работы в Jira, Confluence\n-Написание автотестов на Java+JUnit\n-Опыт работы с Rest API\n-Знакомство с Postman, Fiddler, Swagger\n-Опыт работы в PostgreSQL\n-Понимание принципов CI/CD\n-Минимальные навыки программирования\n-Опыт написание автоматизированных тестов (Java+JUnit, Postman, Fiddler, Swagger, понимание Rest API)\n\n\n🟢Как преимущество:\n\n-Опыт проведения нагрузочного тестирования\n-Понимание, как работают основные сервисы AWS\n-Знание Kotlin/.Net\n-Опыт работы с TeamCity/GitLab\n\n\n🟢Что мы готовы предложить будущему коллеге?\n\n-По настоящему заряженная команда профессионалов\n-Офис в Москва Сити с видом на Москва реку\n-Удаленная работа, с возможностью приезжать в офис, гибкое начало рабочего дня (c 9 до 12)\n-Возможности профессионально развиваться и расти\n\nКонтакты: \nКристина +79161262306 (WhatsApp)\n@kriskrisych telegram\nИли пишите в ЛС.","markup":[{"type":"hashtag","offset":0,"length":9,"data":"вакансия"},{"type":"hashtag","offset":10,"length":13,"data":"qaautomation"},{"type":"hashtag","offset":24,"length":9,"data":"fulltime"},{"type":"hashtag","offset":34,"length":9,"data":"удаленка"},{"type":"hashtag","offset":44,"length":7,"data":"москва"},{"type":"hashtag","offset":52,"length":11,"data":"криптериум"},{"type":"link","offset":2085,"length":12,"data":"tel:+79161262306"},{"type":"handle","offset":2109,"length":12,"data":"kriskrisych"}],"date":"2020-06-30T12:31:02+00:00","link":"tg://resolve?domain=qa_jobs&post=99250","tags":[{"name":"qa"},{"name":"web"},{"name":"mobile"},{"name":"java"},{"name":"junit"},{"name":"rest"},{"name":"swagger"},{"name":"postgresql"},{"name":"amazon-web-services"},{"name":"kotlin"},{"name":"dotnet"},{"name":"gitlab"}],"cities":[{"code":"moscow"}],"allowsRemote":true}},{"node":{"__typename":"Job","id":"17263755264-1001110946746","title":"Javascript разработчик","text":"#react #typescript #middle #вакансия #Москва\n\nГород и адрес офиса: Москва, Проспект Мира 69/1\n\nФормат работы: офис\n\nЗанятость: полная\n\nЗарплатная вилка: от 180 000 до 230 000 рублей\n\nНазвание компании: ООО «Компания БКС»\n\nЧем предстоит заниматься: \n\n- Разрабатывать один из самых важных микросервисов компании - Дистанционное открытие брокерского счета (ДОБС). Каждый наш новый клиент создается с помощью этого сервиса;\n\n- Работать в кросс-функциональной команде - Backend(4 чел), Web, IOS, Android, QA по Scrum;\n\n- Принимать участие в развитии микро-фронтенд архитектуре.\n\nЧто для этого потребуется:\n\n- Опыт разработки на Javascript от 3-х лет;\n- Опыт работы с React и любым state management'ом (redux, mobx, effector и др.) от 2-х лет;\n- Опыт работы с Typescript;\n- Опыт в кроссбраузерной и адаптивной верстке;\n- Опыт в написании тестов: Unit, интеграционные;\n- Опыт работы с Docker;\n- Опыт работы по Scrum;\n\nЗа что предложим справедливую компенсацию:\n\n- Оформление в соответствии с ТК РФ, все по правилам порядочных работодателей;\n- Комфортный, современный офис в центре города (7 мин. от м. Проспект Мира);\n- Гибкой график;\n- 3 day-off в течение года;\n- Более чем конкурентную заработную плату;\n- Минимум бюрократии (особенно по меркам банковского сектора) и отсутствие дресс-кода;\n- ДМС по льготным условиям;\n- Спортивные команды по футболу, волейболу, баскетболу, настольному теннису;\n- Обучение английскому языку со скидкой прямо в офисе и дистанционно;\n- Льготное приобретение фитнеса в компании World Class;\n- Уютная недорогая столовая на территории Компании (завтраки, обеды).\n\nКонтакты:\nEmail: tupalovdd@bcs.msk.ru\nТелеграм: @dtupalov","markup":[{"type":"hashtag","offset":0,"length":6,"data":"react"},{"type":"hashtag","offset":7,"length":11,"data":"typescript"},{"type":"hashtag","offset":19,"length":7,"data":"middle"},{"type":"hashtag","offset":27,"length":9,"data":"вакансия"},{"type":"hashtag","offset":37,"length":7,"data":"Москва"},{"type":"link","offset":1605,"length":20,"data":"mailto:tupalovdd@bcs.msk.ru"},{"type":"handle","offset":1636,"length":9,"data":"dtupalov"}],"date":"2020-06-30T12:10:15+00:00","link":"tg://resolve?domain=javascript_jobs_feed&post=16464","tags":[{"name":"javascript"},{"name":"reactjs"},{"name":"typescript"},{"name":"web"},{"name":"ios"},{"name":"android"},{"name":"redux"},{"name":"docker"}],"cities":[{"code":"moscow"}],"allowsRemote":false}},{"node":{"__typename":"Job","id":"17254318080-1001110946746","title":"Js developer","text":"#вакансия #FrontendDeveloper #AngularJS #JavaScript #HTML5 #CSS3 #Senior #Middle \nГород: Минск \nФормат работы: офис \nЗанятость: полная занятость, полный день\nЗарплатная вилка: 2000 - 4000$\nОписание вакансии: Front-end Developer (AngularJS)\nПроект - Web-сайт\nНеобходимый стек:\n- Глубокие знания JavaScript, AngularJS (1) и принципов работы современных браузеров\n- Отличный уровень знаний HTML5/CSS3\n- Опыт работы с пре- и пост-процессорами (SCSS/LESS/Stylus/PostCSS)\n- Очень желателен опыт работы с React\n- Понимание особенностей кроссбраузерности и адаптивности, умение создавать сложные адаптивные интерфейсы без использования фреймворков.\nНазвание компании: WakeApp (https://wakeapp.ru)\nКонтакты: Telegram - @Katherine_Faleichik","markup":[{"type":"hashtag","offset":0,"length":9,"data":"вакансия"},{"type":"hashtag","offset":10,"length":18,"data":"FrontendDeveloper"},{"type":"hashtag","offset":29,"length":10,"data":"AngularJS"},{"type":"hashtag","offset":40,"length":11,"data":"JavaScript"},{"type":"hashtag","offset":52,"length":6,"data":"HTML5"},{"type":"hashtag","offset":59,"length":5,"data":"CSS3"},{"type":"hashtag","offset":65,"length":7,"data":"Senior"},{"type":"hashtag","offset":73,"length":7,"data":"Middle"},{"type":"link","offset":669,"length":18,"data":"https://wakeapp.ru"},{"type":"handle","offset":710,"length":20,"data":"Katherine_Faleichik"}],"date":"2020-06-30T11:54:45+00:00","link":"tg://resolve?domain=javascript_jobs_feed&post=16455","tags":[{"name":"javascript"},{"name":"angularjs"},{"name":"html"},{"name":"css"},{"name":"web"},{"name":"reactjs"}],"cities":[{"code":"minsk"}],"allowsRemote":false}},{"node":{"__typename":"Job","id":"1768947712-1001091028994","title":"Java разработчик","text":"#backend #java #middle  \nКомпания: #ОООСервисхаб \nЛокация: #удаленка \nЗ/п: 80 000-120 000 \nКонтакты:👉 @ANASTASIAHRServicehub  \n\nВ команду, которая производит и внедряет ПО для банков, нужен Разработчик Java (удаленно или в офис во Владимир).   \n\nМы предлагаем Вам:\n  \nФедеральный ИТ проект.  \n Бесплатное обучение английскому языку и возможность выбора обучающего курса по интересующей тематике. \nСоциальный пакет, официальное трудоустройство.  \n\n\nВ проекте используется следующий стек :  \n\n✔️Java с использованием spring-boot \n✔️Axon Framework в качестве каркасных фрейворков.  \n✔️А так же JOOQ, MapStruct, Jackson для работы с внешними источниками данных.  \n✔️Для тестирования используется JUnit + Mockito.  \n✔️Для решения задач безопасности(ЭЦП) используется BouncyCastle. \n✔️CI/CD организуется средствами Gradle, Docker, Jenkins, Rancher 2, Kubernetes, Helm.  \n✔️Для хранения данных используется СУБД PostgreSQL,для организации асинхронной коммуникации применяется RabbitMQ.  \n\nЧто требуется от Вас:  \n\nЗнание языков/фреймворков, Spring, SQL, Core Java S, серверов очередей, неряляционных баз данных, web-технологий приветствуется;  \nУверенное знание Core Java, Spring IoC, SQL  \n\n❕Приветствуются экспертизы в следующих областях: сервера очередей, неряляционные базы данных, CQRS, Event Sourcing, Web-технологии \n \nБуду также благодарна за контакты и рекомендации😊 \n✍️@ANASTASIAHRServicehub hr@srvhub.ru","markup":[{"type":"hashtag","offset":0,"length":8,"data":"backend"},{"type":"hashtag","offset":9,"length":5,"data":"java"},{"type":"hashtag","offset":15,"length":7,"data":"middle"},{"type":"hashtag","offset":35,"length":13,"data":"ОООСервисхаб"},{"type":"hashtag","offset":59,"length":9,"data":"удаленка"},{"type":"handle","offset":103,"length":22,"data":"ANASTASIAHRServicehub"},{"type":"handle","offset":1374,"length":22,"data":"ANASTASIAHRServicehub"},{"type":"link","offset":1397,"length":12,"data":"mailto:hr@srvhub.ru"}],"date":"2020-06-30T08:39:05+00:00","link":"tg://resolve?domain=jvmjobs&post=1687","tags":[{"name":"java"},{"name":"jvm"},{"name":"spring"},{"name":"jackson"},{"name":"junit"},{"name":"gradle"},{"name":"docker"},{"name":"jenkins"},{"name":"kubernetes"},{"name":"postgresql"},{"name":"rabbitmq"},{"name":"sql"},{"name":"web"},{"name":"spring-boot"}],"cities":[{"code":"vladimir"}],"allowsRemote":true}},{"node":{"__typename":"Job","id":"17240686592-1001110946746","title":"Js разработчик","text":"#вакансия #удаленка #работа #js #javascript #разработчик\n\nГород и адрес офиса: Тель-Авив \nФормат работы: удаленка\nЗанятость: полная, гибкий график.\n\nЗарплатная вилка: 5500-6000$/мес. (Почасовая оплата 35$/час + ежемесячный бонус 250$)\n\nНалоги платите по месту жительства. ИП 6%. Если патент, то он зависит от места жительства. В Подмосковье 12 000 руб в год. В Москве 300 тыс. в год. Как сами оформите налоги, так и платите. \n\nИщу разработчика к нам в команду: израильский проект Luminati (https://luminati.io).  Full-Stack. Компания разрабатывает несколько продуктов, в том числе p2p vpn, видео cdn нового поколения http://holaspark.com/\nОфис в Тель-Авиве, работа удаленная! График свободный. Что нам нужно:\n\n • Knowledge in Node JS framework: ExpressJS, Promise - Experience with MongoDB \n- Creating RESTful web services/API’s using Node.js with or without framework assistance \n\n- JavaScript-based unit testing tools \n\n- Client-side browser technologies including JavaScript, CSS, and HTML \n\n- 1 year development experience in Node JS with a solid working knowledge of frameworks and architecture \n\n- 2+ year’s overall development experience using JavaScript and open web technologies \n\n- хороший английский язык, идеальная грамматика не обязательна \n\n • работа удаленная, 7-9 часов в день (по желанию)\n • зарплата от 35$/час (+фиксированный бонус 250$ ежемесячно), через полгода повышается\n • после того, как откроют границы и будут возможны перелёты - выезд в офис на заключение контракта (перед этим возможно заключение с электронной подписью), отель и перелет за счет компании, море под окном\n\nОтвечу на все вопросы:)\n\nИнстаграмм https://instagram.com/hola_better_internet\n\nРезюме сюда:  luda.hola@gmail.com","markup":[{"type":"hashtag","offset":0,"length":9,"data":"вакансия"},{"type":"hashtag","offset":10,"length":9,"data":"удаленка"},{"type":"hashtag","offset":20,"length":7,"data":"работа"},{"type":"hashtag","offset":28,"length":3,"data":"js"},{"type":"hashtag","offset":32,"length":11,"data":"javascript"},{"type":"hashtag","offset":44,"length":12,"data":"разработчик"},{"type":"link","offset":490,"length":19,"data":"https://luminati.io"},{"type":"link","offset":617,"length":21,"data":"http://holaspark.com/"},{"type":"link","offset":1637,"length":42,"data":"https://instagram.com/hola_better_internet"},{"type":"link","offset":1695,"length":19,"data":"mailto:luda.hola@gmail.com"}],"date":"2020-06-30T08:30:05+00:00","link":"tg://resolve?domain=javascript_jobs_feed&post=16442","tags":[{"name":"javascript"},{"name":"nodejs"},{"name":"mongodb"},{"name":"web"},{"name":"css"},{"name":"html"},{"name":"unit-testing"}],"cities":[],"allowsRemote":true}},{"node":{"__typename":"Job","id":"362807296-1001352129329","title":"Golang разработчик","text":"Ребят, всем привет! \nПостараюсь кратко, подробности в ЛС. Заранее напишу, что это Москва (фултайм/офис), компания Lofty. Ищем в команду как Midle так и Senior Go разработчиков.\nВообщем если хочется в highload, добро пожаловать!)\n\nО проекте:\nЭто высоконагруженное backend приложение для рассылки web push-уведомлений, обслуживающее на данный момент более 100млн показов в сутки. \nЧем у нас предстоит заниматься:\nПрофилировать и оптимизировать существующие сервисы;\nПроводить доработки и интеграцию их в действующий код и инфраструктуру;\nРеализовывать новые бизнес-требования внутри сервиса;\nУстранять возникающие баги в сервисе.\n\nЧто мы ждем от кандидата:\nНавыки работы с Git;\nУверенное знание Golang;\nПонимание технологий HTTP, REST;\nОпыт работы в Unix-окружении.\n\nБудет совсем круто, если вы:\nРаботали с highload-проектами;\nПонимаете и уважаете концепцию CI/CD.\nНаш стек технологий: Golang, Gitlab, MySQL, JS, RabbitMQ, Docker, Ansible, Clickhouse\n\nУсловия: \nЗаработная плата от 130 000 до 300 000 руб. на руки, естественно зависит от уровня, преимущественно смотрим \"мидов\", но и \"джуны\" нам тоже интересны.\n\nНаш сайт: `https://www.lofty.today/\n#вакансия#golang","markup":[{"type":"link","offset":1122,"length":24,"data":"https://www.lofty.today/"}],"date":"2020-06-30T08:24:57+00:00","link":"tg://resolve?domain=gogetajobfeed&post=346","tags":[{"name":"go"},{"name":"web"},{"name":"git"},{"name":"rest"},{"name":"unix"},{"name":"gitlab"},{"name":"mysql"},{"name":"rabbitmq"},{"name":"docker"},{"name":"ansible"}],"cities":[{"code":"moscow"}],"allowsRemote":false}},{"node":{"__typename":"Job","id":"104039710720-1001089317451","title":"Qa engineer","text":"#Москва  #QA  #вакансия #офис\nКомпания: Start.ru\n\nМы ищем коллег, которые смогут влиться в нашу команду и вместе с нами развивать и совершенствовать наш сервис!\nУ Вас есть возможность стать частью команды, развивающей первую в Восточной Европе студию с собственным международным VOD сервисом.\nВ данный момент мы усиляем нашу команду по тестированию и в поисках позиций Backend QA Engineer и QA Automation Engineer (python)\n\n———————————\nДолжность: Backend QA Engineer\nЗарплатная вилка: От 80.р. до 120т.р. по результатам собеседования\n\nКакие задачи вы будете решать:\n- Прогон описаных кейсов в TestRail и документация найденых дефектов;\n- Тестирование API (программного интерфейса платформы);\n- Разработка тестовых сценариев;\n- Взаимодействие с разработчиками и сопровождение дефектов до полного их решения;\n- Отладка и сбор логов в процессе воспроизведения проблем\n- Проведение регрессионного тестирования\n\nЧего мы хотим:\n- Вас не пугает работа с командной строкой чаще чем работа с графическим интерфейсом\n- Работа с chromedev tools и командной строкой (bash);\n- Знание и понимания клиент-серверной архитектуры приложений;\n- Понимание принципов работы веб-приложений;\n- Умение грамотно составлять свои мысли в предложения и описывать дефекты, чтобы понятно было разработчикам;\n- Навыки работы с технической документацией, анализ и вычленение требований;\n- Работали с программами-снифферами и проксями траффика (charles/wireshark/fiddler/mitmproxy etc)\n\nБудет плюсом:\n- Если знаете python на уровне, достаточном для автоматизации и сможете прочитать код который на нем написан\n- Знаете что такое DOM-дерево, локаторы и селекторы в контексте веб-приложения\n\n—————————\nДолжность: QA Automation Engineer\nЗарплатная вилка: От 130.р. до 170т.р. по результатам собеседования\n\nУ нас:\nВ нашем проекте есть автоматизация тестирования как API, так и WEB UI. \nНаш стек: Python3, PyTest, Requests, Selenium WebDriver, Selenoid, DB clients (MongoDB, PostgreSQL), JSON validation (jsonschema), TestRail API, Telegram API, GitLab CI. \nПомимо автотестов мы разрабатываем проект нагрузочного тестирования на Locust.\n\nВаши задачи:\n- Расширение покрытия автотестов API, WEB UI\n- Поддержка автотестов в актуальном состоянии\n- Анализ прохождения тестов с возможным заведением багов в Jira\n- Ревью кода\n- Ведение тестовой - документации\n- Написание сценариев нагрузочного тестирования\n\nТребования:\n- Хорошее знание теории тестирования\n- Опыт автоматизированного тестирования от 2х лет\n- Знание Python3, PyTest\n- Навыки написания и использования тестовой документации\n- Умение писать простые запросы на SQL и в MongoDB\n- Навыки работы с Git\n- Обсуждение проблем приложения с разработчиками\n\nБудет плюсом:\n- Опыт написания архитектуры проекта автотестов с нуля\n- Работа с Docker, Docker Compose\n- Опыт работы с Telegram API\n- Опыт описания JSON схем для валидации ответов API\n- Базовые знания в Linux\n\nОт нас:\n- На данный момент условия сотрудничества удаленные, но при нормализации ситуации мы выйдем в офис\n- Офис в районе Хамовники (территориально м.Киевская, м. Спортивная в 20.мин ходьбы)\n- График работы: 5/2 начинаем с 9  до 11 (в целом гибкий - главное результат);\n- Оформление в соответствии с ТК РФ (белая зарплата, отпускные, больничные);\n- Все возможности для прокачки имеющихся скиллов и получения новых;\n- Драйвовая и высокопрофессиональная команда единомышленников;\n- Возможность стать частью динамично развивающегося видеосервиса.\n\n\nВопросы и отклики по вакансии писать в tlgrm: @unambo OR emailto: v.selyanin@start.ru","markup":[{"type":"hashtag","offset":0,"length":7,"data":"Москва"},{"type":"hashtag","offset":9,"length":3,"data":"QA"},{"type":"hashtag","offset":14,"length":9,"data":"вакансия"},{"type":"hashtag","offset":24,"length":5,"data":"офис"},{"type":"link","offset":40,"length":8,"data":"http://Start.ru"},{"type":"handle","offset":3471,"length":7,"data":"unambo"},{"type":"link","offset":3491,"length":19,"data":"mailto:v.selyanin@start.ru"}],"date":"2020-06-30T08:06:32+00:00","link":"tg://resolve?domain=qa_jobs&post=99220","tags":[{"name":"qa"},{"name":"python"},{"name":"bash"},{"name":"web"},{"name":"selenium"},{"name":"mongodb"},{"name":"postgresql"},{"name":"json"},{"name":"gitlab"},{"name":"sql"},{"name":"git"},{"name":"docker"},{"name":"linux"},{"name":"docker-compose"}],"cities":[{"code":"moscow"},{"code":"kiev"}],"allowsRemote":false}}]}}},"context":{}}