{"hash":"f34fd2c444a074f4e0e67d525015a008ef8e766f","data":{"records":{"id":"web","name":"web","belongsTo":{"totalCount":68,"pageInfo":{"totalPages":7,"currentPage":3},"edges":[{"node":{"__typename":"Job","id":"98158247936-1001089317451","title":"Qa инженер","text":"#вакансия #fulltime #тестировщик #QA #Manual #полнаязанятость #офис\nГород: #Москва\nКомпания: Инновационный Центр Айтеко\nПозиция: Тестировщик РФТ ( ручное функциональное тестирование)\nОпыт: от 1 года и выше\nФормат работы: офис\nЗанятость: полный день\n💰 Заработная плата: от 100 000 до 150 000 (в зависимости от опыта)\n\nАй-Теко - ведущий российский системный интегратор и поставщик информационных технологий для корпоративных заказчиков. ТОП-10 крупнейших IT-компаний России.\n\nЧто хотим видеть в кандидате:\n• Опыт функционального или интеграционного тестирования web-приложений (frontend & backend)\n• Опыт по написанию тест-кейсов \n• Опыт работы с требованиями\n• Опыт работы с таск и баг-трекинговыми системами (Jira)\n• Опыт тестирования API\n• Знание SQL на уровне join-ов и работы с вложенными подзапросами\n• Познания в теории тестирования, процессов и методологий разработки ПО\n\nБудет плюсом:\n• Знание и опыт разработки автотестов на Selenium (Java) или web-driver или  cucumber\n• Знание и опыт работы с HP QuickTest Professional;\n• Понимание одного из языков программирования (Java, C++).\n\nЧто предлагаем:\n• Полностью белое официальное оформление\n• Бонусы обсуждаются индивидуально\n• ДМС включая стоматологию\n• Скидки на фитнес\n• Обучение\n• Возможность участвовать в масштабных проектах, создавать то, чем будут пользоваться миллионы людей.\n\nПишите:\n @Taisia_Feo   Анастасия","markup":[{"type":"hashtag","offset":0,"length":9,"data":"вакансия"},{"type":"hashtag","offset":10,"length":9,"data":"fulltime"},{"type":"hashtag","offset":20,"length":12,"data":"тестировщик"},{"type":"hashtag","offset":33,"length":3,"data":"QA"},{"type":"hashtag","offset":37,"length":7,"data":"Manual"},{"type":"hashtag","offset":45,"length":16,"data":"полнаязанятость"},{"type":"hashtag","offset":62,"length":5,"data":"офис"},{"type":"hashtag","offset":75,"length":7,"data":"Москва"},{"type":"handle","offset":1352,"length":11,"data":"Taisia_Feo"}],"date":"2020-04-07T15:49:52+00:00","link":"tg://resolve?domain=qa_jobs&post=93611","tags":[{"name":"qa"},{"name":"web"},{"name":"sql"},{"name":"selenium"},{"name":"java"},{"name":"cucumber"}],"cities":[{"code":"moscow"}],"allowsRemote":false}},{"node":{"__typename":"Job","id":"98143567872-1001089317451","title":"Qa инженер","text":"#вакансия #спб #job #fulltime #saintpetersburg #office #QA #mobileqa  #manual #automation #Android #iOS\n\nQA middle и выше\n\nКомпания: e-Legion\nЛокация: Санкт-Петербург, м. Старая деревня\nФормат работы: офис (гибкое начало дня) \nЗанятость: полная\nЗарплатная вилка: 80-120 т.р\n\nПривет! Ищем в команду тестировщика мобильных приложений. Ты будешь влиять на качество продукта крупных компаний. QA участвует во всех этапах создания продукта и взаимодействует со всеми отделами.\n\n🔴Чем будем заниматься:\n-тестировать мобильные приложения на платформах iOS и Android,\nна части проектов еще тестируем WEB\n-проводить тест-анализ и писать тестовую документацию\n-анализировать и тестировать требования\n-оформлять задачи в трекере Redmine или Jira\n\n🔴Необходимые навыки:\n-опыт тестирования мобильных приложений\n-знание техник тест–дизайна и умение их применять\n-умение работать с сетевыми снифферами — Fiddler, Charles\n-умение снимать и анализировать логи\n-знание гайдлайнов iOS и Android\n\n🔴Мы предлагаем:\n-гибкий график работы\n-офис в 7 минутах ходьбы от м. Старая Деревня\n-компенсацию спорта, обучения и медицины\n-обучение и систему наставничества, которые помогут быстро расти и получать новые грейды\n-возможность писать статьи для отраслевых медиа и выступать на конференциях и митапах\n\nСсылка на вакансию: https://www.e-legion.ru/vacancies/spb/qa/\nОтклики, резюме, вопросы пишите:\n@AlexandraShirokina или на почту hr@e-legion.com","markup":[{"type":"hashtag","offset":0,"length":9,"data":"вакансия"},{"type":"hashtag","offset":10,"length":4,"data":"спб"},{"type":"hashtag","offset":15,"length":4,"data":"job"},{"type":"hashtag","offset":20,"length":9,"data":"fulltime"},{"type":"hashtag","offset":30,"length":16,"data":"saintpetersburg"},{"type":"hashtag","offset":47,"length":7,"data":"office"},{"type":"hashtag","offset":55,"length":3,"data":"QA"},{"type":"hashtag","offset":59,"length":9,"data":"mobileqa"},{"type":"hashtag","offset":70,"length":7,"data":"manual"},{"type":"hashtag","offset":78,"length":11,"data":"automation"},{"type":"hashtag","offset":90,"length":8,"data":"Android"},{"type":"hashtag","offset":99,"length":4,"data":"iOS"},{"type":"link","offset":1299,"length":41,"data":"https://www.e-legion.ru/vacancies/spb/qa/"},{"type":"handle","offset":1374,"length":19,"data":"AlexandraShirokina"},{"type":"link","offset":1407,"length":15,"data":"mailto:hr@e-legion.com"}],"date":"2020-04-07T14:33:21+00:00","link":"tg://resolve?domain=qa_jobs&post=93597","tags":[{"name":"qa"},{"name":"android"},{"name":"ios"},{"name":"web"}],"cities":[],"allowsRemote":false}},{"node":{"__typename":"Job","id":"98141470720-1001089317451","title":"Qa engineer","text":"#вакансия #QA #fulltime #офис #Кипр\nВсем привет!  В нашу команду высоконагруженного проекта разыскивается Automation QA Engineer Web с переездом на Кипр! \nГород: Лимассол\nФормат работы: офис\nКомпания: Marikit Holdings LTD \nЗанятость: полная\nЗарплатная вилка: от 2500 EUR на руки (обсуждается индивидуально).\n\n💡Основные обязанности: \n-Написание и поддержка автотестов;\n-Анализ отчетов прогонов;\n-Организация и поддержка тестового окружения. \n📌Наши пожелания:\n- Аналогичный опыт работы от 3-х лет;\n- Высшее образование в IT сфере;\n-Понимание принципов разработки и тестирования;\n-Знание методов и технологий тестирования;\n-Опыт разработки\\написания автотестов на Java\\Kotlin;\n-Опыт автоматизации на базе Selenium WebDriver+JUnit+Cucumber (+Gradle/Maven);\n-Опыт работы с баг-трекинговыми системами (Jira, Redmine, YouTrack или др.);\n-Навыки работы с системами контроля версия (Git).\n🏆Плюсы работы у нас:\n- Интересные проекты и отсутствие бюрократии;\n- Возможность гибкого начала рабочего дня;\n- Бесплатные корпоративные обеды;\n- Спортзал в офисе;\n- Помощь при переезде.\n\nБуду рада Вашим вопросам и резюме @hrkaterina","markup":[{"type":"hashtag","offset":0,"length":9,"data":"вакансия"},{"type":"hashtag","offset":10,"length":3,"data":"QA"},{"type":"hashtag","offset":14,"length":9,"data":"fulltime"},{"type":"hashtag","offset":24,"length":5,"data":"офис"},{"type":"hashtag","offset":30,"length":5,"data":"Кипр"},{"type":"underline","offset":309,"length":2,"data":""},{"type":"bold","offset":311,"length":23,"data":""},{"type":"underline","offset":442,"length":2,"data":""},{"type":"bold","offset":444,"length":16,"data":""},{"type":"underline","offset":882,"length":2,"data":""},{"type":"bold","offset":884,"length":20,"data":""},{"type":"handle","offset":1105,"length":11,"data":"hrkaterina"}],"date":"2020-04-07T14:14:37+00:00","link":"tg://resolve?domain=qa_jobs&post=93595","tags":[{"name":"qa"},{"name":"web"},{"name":"java"},{"name":"kotlin"},{"name":"selenium"},{"name":"junit"},{"name":"cucumber"},{"name":"gradle"},{"name":"maven"},{"name":"git"}],"cities":[],"allowsRemote":false}},{"node":{"__typename":"Job","id":"24333254656-1001075660570","title":"Php разработчик","text":"#вакансия  #fulltime #Fullstack #Кипр\nВсем привет!  В нашу команду высоконагруженного проекта разыскивается Fullstack Web-разработчик с переездом на Кипр!\n Город: Лимассол\nФормат работы: офис\nКомпания: Marikit Holdings LTD \nЗанятость: полная\nЗарплатная вилка: от 2500 до 4000 EUR на руки (обсуждается индивидуально).\n\nОсновные обязанности:\n-Разработка новых сервисов компании;\n-Оптимизация и поддержка текущих продуктов;\n-Мы используем: PHP7, JavaScript, VueJS, MySQL (Percona), Redis, MongoDB, RabbitMQ, YouTrack.\nНаши пожелания:\n- Опыт коммерческой разработки от 3-х лет;\n- Высшее образование в IT сфере;\n-Имеете опыт разработки на PHP;\n-Знаете ООП, умеете применять на практике основные паттерны;\n-Любите рефакторинг;\n-Знакомы с JS фреймворками, мы предпочитаем VueJS;\n-Работали с MVC-фреймворками на базе PHP.\nПлюсы работы у нас:\n- Интересные проекты и отсутствие бюрократии;\n- Возможность гибкого начала рабочего дня;\n- Бесплатные корпоративные обеды;\n- Спортзал в офисе;\n- Помощь при переезде.\n\nБуду рада Вашим вопросам и резюме @alinatalybova12","markup":[{"type":"hashtag","offset":0,"length":9,"data":"вакансия"},{"type":"hashtag","offset":11,"length":9,"data":"fulltime"},{"type":"hashtag","offset":21,"length":10,"data":"Fullstack"},{"type":"hashtag","offset":32,"length":5,"data":"Кипр"},{"type":"bold","offset":318,"length":22,"data":""},{"type":"bold","offset":515,"length":16,"data":""},{"type":"bold","offset":814,"length":20,"data":""},{"type":"handle","offset":1035,"length":16,"data":"alinatalybova12"}],"date":"2020-04-07T13:34:52+00:00","link":"tg://resolve?domain=php_jobs&post=23206","tags":[{"name":"php"},{"name":"web"},{"name":"javascript"},{"name":"vuejs"},{"name":"mysql"},{"name":"redis"},{"name":"mongodb"},{"name":"rabbitmq"}],"cities":[],"allowsRemote":false}},{"node":{"__typename":"Job","id":"98124693504-1001089317451","title":"Qa engineer","text":"#вакансия #QAAutomation #Python #Москва \nДолжность: QA Automation Engineer\nЛокация: Москва\nКомпания:  GetIT\nПроект: платформа управления корпоративными парками мобильных устройств.\nЗадачи:\n•Разработка автоматизированных тестов (web + api), стремимся к 100% покрытию автотестами  (не unit)\n•Участие в развитии тестового framework'а\n•Командная работа с разработчиками и аналитиками (Scrum Dev Team)\nСтек: Python, Pytest, requests + cattrs, selenium\nУсловия:\n•ЗП до 190 000 гросс (в зависимости от ваших тех скиллов и уровня мидл/синьор)\n•Участие в конференциях\n•ДМС\nРезюме можно направить сюда:\nтг: @RitaRS \nпочта: m.sinelnikova@getit.agency","markup":[{"type":"hashtag","offset":0,"length":9,"data":"вакансия"},{"type":"hashtag","offset":10,"length":13,"data":"QAAutomation"},{"type":"hashtag","offset":24,"length":7,"data":"Python"},{"type":"hashtag","offset":32,"length":7,"data":"Москва"},{"type":"bold","offset":41,"length":10,"data":""},{"type":"bold","offset":75,"length":7,"data":""},{"type":"bold","offset":91,"length":9,"data":""},{"type":"bold","offset":108,"length":7,"data":""},{"type":"bold","offset":181,"length":8,"data":""},{"type":"bold","offset":397,"length":5,"data":""},{"type":"bold","offset":447,"length":9,"data":""},{"type":"bold","offset":457,"length":19,"data":""},{"type":"bold","offset":564,"length":29,"data":""},{"type":"handle","offset":597,"length":7,"data":"RitaRS"},{"type":"link","offset":613,"length":26,"data":"mailto:m.sinelnikova@getit.agency"}],"date":"2020-04-07T10:24:33+00:00","link":"tg://resolve?domain=qa_jobs&post=93579","tags":[{"name":"qa"},{"name":"python"},{"name":"web"},{"name":"selenium"}],"cities":[{"code":"moscow"}],"allowsRemote":false}},{"node":{"__typename":"Job","id":"98118402048-1001089317451","title":"Qa engineer","text":"#вакансия #СПБ #fulltime #office\n\nГород: Санкт-Петербург\nПозиция: Senior QA Engineer\nКомпания: Antal Russia\nФормат работы: офис, полная занятость \nЗарплатная вилка: до 150k gross + ежемесячные и квартальные бонусы (З/П обсуждаем индивидуально)\n\nО проекте:\nНужен Senior QA Engineer в команду, разрабатывающую интерфейсы сервиса обновления, сервиса метаданных и VOD-контента. \nМы используем микросервисную архитектуру, применяем на backend как основной язык Python, а на frontend - стандартный web-стек (JS, CSS, HTML).\n\nКого мы ищем?\n- Опыт тестирования от 3-х лет;\n- Опыт тестирования веб сервисов (UI+backend);\n- Знание реляционных СУБД (Postgres);\n- Умение работать с ОС Linux в консоли;\n- Знание Python, JavaScript, опыт программирования приветствуется;\n- Опыт автоматизации Selenium;\n- Опыт наставничества/управления небольшой командой.\n\nМы предлагаем:\n- Современный офис в Петербурге\n- Иногда можно работать удалённо;\n- ДМС и врач в офисе;\n- Оплата спорта и проф. курсов;\n- Помощь с переездом семьи из любого региона России.\n\nКонтакты куда слать СV резюме: kristina.shaburova@antalrussia.com\ntelegram @hello_intelligence","markup":[{"type":"hashtag","offset":0,"length":9,"data":"вакансия"},{"type":"hashtag","offset":10,"length":4,"data":"СПБ"},{"type":"hashtag","offset":15,"length":9,"data":"fulltime"},{"type":"hashtag","offset":25,"length":7,"data":"office"},{"type":"italic","offset":34,"length":6,"data":""},{"type":"italic","offset":57,"length":8,"data":""},{"type":"bold","offset":66,"length":19,"data":""},{"type":"italic","offset":85,"length":9,"data":""},{"type":"italic","offset":108,"length":14,"data":""},{"type":"italic","offset":147,"length":17,"data":""},{"type":"bold","offset":245,"length":11,"data":""},{"type":"bold","offset":519,"length":14,"data":""},{"type":"bold","offset":842,"length":15,"data":""},{"type":"bold","offset":1062,"length":63,"data":""},{"type":"link","offset":1062,"length":34,"data":"mailto:kristina.shaburova@antalrussia.com"},{"type":"handle","offset":1106,"length":19,"data":"hello_intelligence"}],"date":"2020-04-07T09:10:42+00:00","link":"tg://resolve?domain=qa_jobs&post=93573","tags":[{"name":"qa"},{"name":"python"},{"name":"web"},{"name":"css"},{"name":"html"},{"name":"postgresql"},{"name":"linux"},{"name":"javascript"},{"name":"selenium"}],"cities":[],"allowsRemote":true}},{"node":{"__typename":"Job","id":"98105819136-1001089317451","title":"Qa инженер","text":"Web – тестировщик \n\nВсем привет!\n\n#вакансия #sbercloud #тестировщик #web #manual #ручноетестирование #ручное #сайт #москва #офис #мск \n\n🏢Компания: SberCloud\n🏙Город: Москва, м. Боровицкая, м. Библиотека им Ленина, м. Александровский сад\n💰Зп: от 100к (обсуждается по результатам собеседования)\n\nФормат работы: офис \nЗанятость: полная\n\nSberCloud – облачный провайдер Группы Сбербанк, предоставляющий услуги для бизнес-клиентов на базе технологий Группы Сбербанк, одной из крупнейших технологических экосистем в России. Предоставляя клиентам передовые облачные технологии, совместимые с привычной для их бизнеса архитектурой ИТ-приложений, мы делаем возможным технологический прорыв. Мы создаем облачную платформу SberCloud, используя многолетний опыт развития ИТ-инфраструктуры Группы Сбербанк, обеспечения ее надежности, безопасности и эффективности в условиях стремительно растущих нагрузок и темпа изменений.\n\nОбязанности:\n✔️ Проводить ручное тестирование\n✔️ Разрабатывать и поддерживать в актуальном состоянии тестовую документацию\n✔️ Работать с дефектами (обнаружение, анализ, контроль исправления)\n✔️ Взаимодействовать с другими отделами и членами команды для решения поставленных задач\n\nТребования:\n✔️Понимание теории тестирования\n✔️Опыт работы инженером по тестированию от 2 лет\n✔️Опыт тестирования WEB-приложений\n✔️Понимание технологий представления данных: HTML, JSON, XML\n\nБудет плюсом:\n✔️Понимание протоколов: HTTP/HTTPS\n✔️Знание языков программирования и фреймворков для автотестирования\n✔️Понимание основ информационной безопасности\n\nУсловия:\n✔️ Офис у м. Арбатская, Библиотека им Ленина, Боровицкая, Александровский сад;\n✔️ ДМС + стоматология;\n✔️ Корпоративные скидки для сотрудников Группы Сбербанк;\n✔️ Льготные условия для кредитования;\n✔️ Гибкое начало рабочего дня.\n\n📲Контакты: aosamarov@sbercloud.ru или в лс (в телеге)","markup":[{"type":"hashtag","offset":34,"length":9,"data":"вакансия"},{"type":"hashtag","offset":44,"length":10,"data":"sbercloud"},{"type":"hashtag","offset":55,"length":12,"data":"тестировщик"},{"type":"hashtag","offset":68,"length":4,"data":"web"},{"type":"hashtag","offset":73,"length":7,"data":"manual"},{"type":"hashtag","offset":81,"length":19,"data":"ручноетестирование"},{"type":"hashtag","offset":101,"length":7,"data":"ручное"},{"type":"hashtag","offset":109,"length":5,"data":"сайт"},{"type":"hashtag","offset":115,"length":7,"data":"москва"},{"type":"hashtag","offset":123,"length":5,"data":"офис"},{"type":"hashtag","offset":129,"length":4,"data":"мск"},{"type":"link","offset":1798,"length":22,"data":"mailto:aosamarov@sbercloud.ru"}],"date":"2020-04-07T07:02:42+00:00","link":"tg://resolve?domain=qa_jobs&post=0","tags":[{"name":"qa"},{"name":"web"},{"name":"html"},{"name":"json"},{"name":"xml"}],"cities":[{"code":"moscow"}],"allowsRemote":false}},{"node":{"__typename":"Job","id":"98081701888-1001089317451","title":"Qa engineer","text":"#вакансия #москва #fulltime #qaengineer #manual #офис\n\nДолжность: QA Engineer\nКомпания: DAOGroup\nГород: Москва, м. Павелецкая\nТип занятости: фулл-тайм, офис (удалённо на период всеобщей борьбы с вирусом)\nЗ/п: 80-120К на руки\n\nКомпания занимается разработкой собственного b2b crypto-payment решения, которое помогает покупать и оплачивать товары и услуги, выводить средства как в крипте, так и в фиате. Компания создает экосистему для гемблинговой индустрии на собственном блокчейне. \n\nЗа что нужно будет отвечать:\nИзучение проекта - бизнес value, архитектурные особенности, знакомство с подходами + изучение существующих тест-кейсов\nНачало тестирования под руководством Lead QA\n\nОт вас:\nОпыт работы от 2 лет в области тестирования web и мобильных приложений\nНавыки создания документации по тестированию (тест-планы, тест-кейсы, чек-листы)\nОпыт работы с баг-трекинговыми системами (например, JIRA или Redmine)\nОпыт работы хотя бы с одной из систем контроля версий (mercurial/git/svn)\n\nОт нас:\nКомфортный офис и рабочее пространство\nВозможность обучения и сертификации за счет компании, посещение профессиональных конференций\nГибкий график 5/2, гибкое начало рабочего дня\nПостоянный рост и развитие\nМинимум бюрократии и адекватное руководство\n\ncv и вопросы можно в лс - @dnotna","markup":[{"type":"hashtag","offset":0,"length":9,"data":"вакансия"},{"type":"hashtag","offset":10,"length":7,"data":"москва"},{"type":"hashtag","offset":18,"length":9,"data":"fulltime"},{"type":"hashtag","offset":28,"length":11,"data":"qaengineer"},{"type":"hashtag","offset":40,"length":7,"data":"manual"},{"type":"hashtag","offset":48,"length":5,"data":"офис"},{"type":"handle","offset":1271,"length":7,"data":"dnotna"}],"date":"2020-04-06T16:19:02+00:00","link":"tg://resolve?domain=qa_jobs&post=0","tags":[{"name":"qa"},{"name":"web"},{"name":"mercurial"},{"name":"git"},{"name":"svn"}],"cities":[{"code":"moscow"}],"allowsRemote":true}},{"node":{"__typename":"Job","id":"24298651648-1001075660570","title":"Php разработчик","text":"#вакансия #php #javascript #удаленка #удаленно\nВакансия: PHP/Web разработчик\nГород и адрес офиса: Москва, м. Сокол\nФормат: удаленка\nЗанятось: полная/частичная\nЗП: сдельная, по факту\n\nСтек: PHP5/PHP7, MySQL, JavaScript, jQuery, Smarty.\n\nРазвивающийся интернет-магазин мебели ищет PHP/Web разработчика со сдельной оплатой труда по выполненным задачам.\n\nОбязанности: Выполнение доработок по бэк- и фронтенду существующего интернет-магазина, разработка нового функционала.\n\nТребования:\n- Опыт web-разработки от 3 лет.\n- Опыт работы с legacy кодом.\n- Опыт работы с шаблонизатором “Smarty”.\n- Опыт работы с JQuery.\n- Опыт работы со сторонними API.\n- Концентрация, ответственность и исполнительность.\n- Самостоятельность, ориентация на результат.\n- Пунктуальность и системный подход к работе.\n- Соблюдение сроков и качества выполнения задач.\n- Отличные знание PHP, MySQL, Git.\n- Базовые знания работы с консолью (SSH).\n\nУсловия:\n- Удаленная работа.\n- Сдельная оплата по выполненным задачам.\n\ne-mail: kseniya.m@mnogosna.ru\ntelegram: @kseniya_mns","markup":[{"type":"hashtag","offset":0,"length":9,"data":"вакансия"},{"type":"hashtag","offset":10,"length":4,"data":"php"},{"type":"hashtag","offset":15,"length":11,"data":"javascript"},{"type":"hashtag","offset":27,"length":9,"data":"удаленка"},{"type":"hashtag","offset":37,"length":9,"data":"удаленно"},{"type":"bold","offset":351,"length":13,"data":""},{"type":"bold","offset":470,"length":12,"data":""},{"type":"bold","offset":913,"length":9,"data":""},{"type":"link","offset":993,"length":21,"data":"mailto:kseniya.m@mnogosna.ru"},{"type":"handle","offset":1025,"length":12,"data":"kseniya_mns"}],"date":"2020-04-06T07:16:31+00:00","link":"tg://resolve?domain=php_jobs&post=23173","tags":[{"name":"php"},{"name":"javascript"},{"name":"web"},{"name":"mysql"},{"name":"jquery"},{"name":"git"},{"name":"ssh"}],"cities":[{"code":"moscow"}],"allowsRemote":true}},{"node":{"__typename":"Job","id":"1410334720-1001091028994","title":"Java разработчик","text":"#работа #Москва #вакансия #Java\n\nСейчас ищу Senior Java-разработчика и Team Lead в компанию, которая является платиновым партнером SAP. Активно развиваются новые перспективные проекты, а именно направления SAP Hybris - платформа для e-commerce проектов.\n\nУсловия:\n\n- работа в команде профессионалов над амбициозными проектами с инновационными технологиями\n\n- внутреннее и внешнее обучение за счёт компании\n\n- Офис в одной минуте от м. Нагатинская\n\n- полное соблюдение ТК РФ\n\n- белая заработная плата от 150 до 300 т.р. (в зависимости от бекграунда и скиллов)\n\n- комфортабельный офис с кухней, комнатой отдыха\n\nТребования:\n\n- Уверенное знание Java, J2EE: Spring Framework (Spring MVC, Spring Webservices, Spring Security, Spring Integration), Servlets/JSP\n\n- Уверенное знание SQL, СУБД Oracle/MySQL\n\n- Понимание принципов интеграции приложений, знание интеграционных технологий и стандартов: SOAP/Web Services, RESTful, SOA\n\n- Знание и опыт применения шаблонов проектирования, enterprise integration patterns;\n\n- Знание основ UML и объектно-ориентированного анализа и проектирования.\n\n- Знание типовых архитектур информационных систем для обеспечения надежности и производительности (построение кластеров, балансировщики и т.д.)\n\n- Опыт интеграции систем\n\n- Опыт работы в качестве J2EE-разработчика от 4-х лет\n\nНазвание компании: Teamidea\n\nпишите в Телегу @julie_ignatova","markup":[{"type":"hashtag","offset":0,"length":7,"data":"работа"},{"type":"hashtag","offset":8,"length":7,"data":"Москва"},{"type":"hashtag","offset":16,"length":9,"data":"вакансия"},{"type":"hashtag","offset":26,"length":5,"data":"Java"},{"type":"handle","offset":1355,"length":15,"data":"julie_ignatova"}],"date":"2020-04-02T12:24:13+00:00","link":"tg://resolve?domain=jvmjobs&post=1345","tags":[{"name":"java"},{"name":"jvm"},{"name":"spring"},{"name":"jsp"},{"name":"sql"},{"name":"oracle"},{"name":"mysql"},{"name":"soap"},{"name":"web"},{"name":"spring-mvc"},{"name":"spring-security"}],"cities":[{"code":"moscow"}],"allowsRemote":false}}]}}},"context":{}}