{"hash":"f5f6bf98bd95e769321482904cbbd488f77922fd","data":{"records":{"id":"qa","name":"qa","belongsTo":{"totalCount":208,"pageInfo":{"totalPages":21,"currentPage":14},"edges":[{"node":{"__typename":"Job","id":"103396933632-1001089317451","title":"Qa инженер","text":"🐞🐞🐞#вакансия #QA #Ульяновск #Саранск #Казань #Самара #Уфа #Краснодар #офис #удаленная_работа\n\n🔍Middle QA-специалист🔎\n\n⚡️Компания: Simbirsoft (более 19 лет на рынке, более 700 сотрудников в штате)\n\nОчень ждем тебя, наш будущий коллега и борец за качественное ПО! :)\n\n📌Твои будущие задачи:\n• тестирование ПО (frontend, backend, API);\n• локализация и документирование найденных дефектов;\n• ведение и оптимизация тестовой документации;\n• контроль качества на всех этапах разработки ПО;\n• выстраивание и оптимизация процессов тестирования ПО.\n\n📌Что мы ждем от тебя:\n• наличие опыта от 2 лет в направлениях QA или тестирования ПО;\n• понимание разницы между QA и тестированием ПО;\n• понимание особенностей гибких методологий;\n• уверенное владение техниками тест-дизайна;\n• знание клиент-серверной архитектуры;\n• понимание особенностей тестирования web, mobile и desktop приложений;\n• навык тестирования API;\n• написание запросов SQL;\n• опыт работы с системами контроля версий (git);\n• знание основных команд работы с консолью (Windows/Linux).\n\n📌Что мы предлагаем:\n• Полностью белая ЗП два раза в месяц;\n• Оформление по ТК РФ;\n• Высокий уровень экспертности внутри компании, которым мы делимся друг с другом;\n• Перспективы вертикального и горизонтального роста;\n• Работа на российских и международных проектах;\n• Оборудованное рабочее место и парк тестовых устройств;\n• Возможность сертификации за счет компании;\n• Внутренние и внешние курсы, доклады, конференции;\n• Бесплатные чай, кофе, печеньки в офисе;\n• Корпоративная спортивная программа (оплата тематических секций, частичная компенсация абонемента);\n• Проведение летних и зимних корпоративов, дня именинника, совместные походы и т.д.\n\n📌Зарплата:\n• от 50 000 (Договорная, по итогу собеседования)\n\n☎️Контакты:\n@julia_kli","markup":[{"type":"hashtag","offset":6,"length":9,"data":"вакансия"},{"type":"hashtag","offset":16,"length":3,"data":"QA"},{"type":"hashtag","offset":20,"length":10,"data":"Ульяновск"},{"type":"hashtag","offset":31,"length":8,"data":"Саранск"},{"type":"hashtag","offset":40,"length":7,"data":"Казань"},{"type":"hashtag","offset":48,"length":7,"data":"Самара"},{"type":"hashtag","offset":56,"length":4,"data":"Уфа"},{"type":"hashtag","offset":61,"length":10,"data":"Краснодар"},{"type":"hashtag","offset":72,"length":5,"data":"офис"},{"type":"hashtag","offset":78,"length":17,"data":"удаленная_работа"},{"type":"handle","offset":1767,"length":10,"data":"julia_kli"}],"date":"2020-06-22T07:56:46+00:00","link":"tg://resolve?domain=qa_jobs&post=98607","tags":[{"name":"qa"},{"name":"web"},{"name":"mobile"},{"name":"sql"},{"name":"git"},{"name":"windows"},{"name":"linux"}],"cities":[{"code":"ulyanovsk"},{"code":"saransk"},{"code":"kazan"},{"code":"samara"},{"code":"ufa"},{"code":"krasnodar"}],"allowsRemote":true}},{"node":{"__typename":"Job","id":"103395885056-1001089317451","title":"Qa engineer","text":"#вакансия #москва #полнаязанятость #qaengineer #auto #manual\nКомпания: #Mетрквадратный www.m2.ru\nЛокация: м.Белорусская \nФормат работы: офис (удаленная до сентября)  \nЗ/п: от 120к - 180к на руки\nКонтакты: @maxdmitrov\n\nЭто экосистема недвижимости, которая помогает клиентам решать любые жилищные вопросы: от поиска вариантов и оформления сделки до организации ремонта и переезда в новую квартиру. Мы также создаем решения для партнёров и профессиональных участников рынка недвижимости.\n\nНаш стэк:\n• Java\n • Node.js\n • React, TypeScript\n • Kafka, ElasticSearch, gRPC\n • Docker\n\nЧем предстоит заниматься:\n • анализировать и тестировать требования к разрабатываемым приложениям;\n • писать приемочные критерии к пользовательским историям;\n • проводить функциональное, регрессионное и smoke тестирование;\n • заниматься задачами по автоматизации тестирования.\n\nЧего мы ждем:\n • глубокое понимание процессов тестирования и разработки ПО;\n • опыт интеграционного тестирования:\n    - системная интеграция;\n    - компонентная интеграция\n • опыт тестирования АРI;\n • опыт автоматизации тестирования на любом стеке.\n\nБудет плюсом\n • опыт исследовательского тестирования;\n • опыт тестирования ПО с микросервисной архитектурой.\n\nМы предлагаем:\n • белая конкурентная ЗП, официальное оформление;\n • гибкий график работы;\n • ДМС, компенсация фитнеса, льготная ставка по ипотеке;\n • комфортный офис в БЦ «Белая площадь» (минута от метро): лаундж-зоны, бариста, фрукты.","markup":[{"type":"hashtag","offset":0,"length":9,"data":"вакансия"},{"type":"hashtag","offset":10,"length":7,"data":"москва"},{"type":"hashtag","offset":18,"length":16,"data":"полнаязанятость"},{"type":"hashtag","offset":35,"length":11,"data":"qaengineer"},{"type":"hashtag","offset":47,"length":5,"data":"auto"},{"type":"hashtag","offset":53,"length":7,"data":"manual"},{"type":"hashtag","offset":71,"length":15,"data":"Mетрквадратный"},{"type":"link","offset":87,"length":9,"data":"http://www.m2.ru"},{"type":"handle","offset":205,"length":11,"data":"maxdmitrov"},{"type":"bold","offset":485,"length":11,"data":""},{"type":"bold","offset":576,"length":26,"data":""},{"type":"bold","offset":853,"length":15,"data":""},{"type":"bold","offset":1103,"length":14,"data":""},{"type":"bold","offset":1212,"length":16,"data":""}],"date":"2020-06-22T07:52:58+00:00","link":"tg://resolve?domain=qa_jobs&post=98606","tags":[{"name":"qa"},{"name":"java"},{"name":"nodejs"},{"name":"reactjs"},{"name":"typescript"},{"name":"kafka"},{"name":"elasticsearch"},{"name":"docker"}],"cities":[{"code":"moscow"}],"allowsRemote":true}},{"node":{"__typename":"Job","id":"103394836480-1001089317451","title":"Qa engineer","text":"#вакансия #TestAutomation #Java #JS #НижнийНовгород #Казань #MERA\n💼  Java and JS Test Automation Engineers\n🔹 Формат работы: office (до конца лета 2020 remote)\n🔹 Локация офисов: НН, Казань (бонус при релокации)\n🔹 Занятость: full-time\n🔹 Опыт: от 2х лет (Test Automation)\n🔹 Английский язык:  Чтение и написание документации не ниже pre-intermediate\n🏢 О компании: MERA (крупная международная компания) сейчас быстро растет. В связи со стартом масштабного проекта наш крупный Заказчик, ведущий поставщик глобальных корпоративных облачных коммуникаций и решений для бизнеса, расширяет команду Test Automation Engineers. Открыто более 10 вакансий на Java and JS Test Automation.\n📁 О проекте:\nПроект по разработке высоконагруженных сервисов облачной телефонии для физических лиц и глобальных корпораций. Продукт объединяет в себе возможности телефонии, видеосвязи, организации встреч и обмен сообщениями в одном надежном, простом в использовании решении.\n👉🏻Подробнее о компании и проекте: https://www.youtube.com/watch?v=V9l0TkZWHfI\n✔ Обязанности: \n- Разработка и поддержка тест-планов и сценариев.\n- Автоматизация тестовых сценариев, сопровождение библиотеки автотестов.\n- Участие в разработке тестового фреймворка.\n- Запуск тестовых скриптов, анализ результатов прогона на разных окружениях, поддержка CI.\n🔹 Гибкая метология: Scrum/Agile\n👋  Команда: Работаем в рамках распределённой (Вильнюс, НН, Казань, Дзержинск), совмещённой с заказчиком команды.  80% - Test Automation Engineers, 20% - Software Developers.\n🙌 Мы предлагаем:\n• Официальное трудоустройство, полностью белая зарплата + премиальная система\n• Участие в перспективных масштабных международных проектах. Заказчики: Северная Америка, Западная Европа.\n• ДМС после прохождения испытательного срока (3 месяца).\n• Широкие возможности профессионального развития (участие в митапах, конференциях, корпоративные программы обучения) и карьерного роста.\n\n💵Бонус за рекомендацию: 60 000 рублей за Middle и 80 000 рублей за Senior.\nЗП стартуем от 70000\nКонтакты:  telegram: @nazahvat, natalya.zakhvatova@orioninc.com","markup":[{"type":"hashtag","offset":0,"length":9,"data":"вакансия"},{"type":"hashtag","offset":10,"length":15,"data":"TestAutomation"},{"type":"hashtag","offset":26,"length":5,"data":"Java"},{"type":"hashtag","offset":32,"length":3,"data":"JS"},{"type":"hashtag","offset":36,"length":15,"data":"НижнийНовгород"},{"type":"hashtag","offset":52,"length":7,"data":"Казань"},{"type":"hashtag","offset":60,"length":5,"data":"MERA"},{"type":"link","offset":991,"length":43,"data":"https://www.youtube.com/watch?v=V9l0TkZWHfI"},{"type":"handle","offset":2034,"length":9,"data":"nazahvat"},{"type":"link","offset":2045,"length":31,"data":"mailto:natalya.zakhvatova@orioninc.com"}],"date":"2020-06-22T07:23:05+00:00","link":"tg://resolve?domain=qa_jobs&post=98605","tags":[{"name":"qa"},{"name":"java"}],"cities":[{"code":"kazan"},{"code":"vilnius"},{"code":"dzerzhinsk"}],"allowsRemote":true}},{"node":{"__typename":"Job","id":"103389593600-1001089317451","title":"Qa инженер","text":"#вакансия #QA #Волгоград #fulltime #офис\n💸ЗП вилка: от 70к до 95к NET\n👨🏻‍💻Опыт работы: от 1 года \n\nРазыскивается тестировщик в MODESCO\nПривет!\nУ нас в Волгограде три крупных интернет-сервиса, на которые мы ищем специалиста в сфере автоматического тестирования ПО.\n\n🎯 Какие будут задачи?\n-Разработка тест-кейсов и составление тестовой документации (на основе технического задания и в ходе анализа поведения пользователей);\n-тестирование веб-сервисов Text.ru (https://text.ru/), Telderi (https://www.telderi.ru/ru) и Socpublic (https://socpublic.com/): функциональное, регрессионное и на наличие известных уязвимостей;\n-написание скриптов для автоматизации тестирования;\n-ручное тестирование релизов там, где автоматизация невозможна.\n\n💪🏼 Наш идеальный кандидат:\n-знаком с современными концепциями тестирования;\n-работает с инструментами для автоматического тестирования веб-приложений (JMeter/Selenium/SoapUI или аналоги), пишет автотесты;\n-знает что такое http-протокол, минимально знаком с HTML, CSS и JavaScript;\n-умеет понятно описывать ошибки.\n\n🍩 Что предлагаем?\n-Оформление по ТК РФ и зарплату всегда вовремя;\n-уютный офис рядом с Ворошиловским ТРЦ с кофе и печеньками;\n-7-ми часовой рабочий день с возможностью выбора времени его начала;\n-бонусную систему: оплачиваемые переработки, 50% компенсация внешнего обучения за счет компании, бонус для сотрудников, занимающихся спортом;\n-интересную корпоративную жизнь: кикер, дартс, вечера настолок и крутые корпоративы.\n\n☎️ Контакты: @MarinaModesco, job@modesco.ru","markup":[{"type":"hashtag","offset":0,"length":9,"data":"вакансия"},{"type":"hashtag","offset":10,"length":3,"data":"QA"},{"type":"hashtag","offset":14,"length":10,"data":"Волгоград"},{"type":"hashtag","offset":25,"length":9,"data":"fulltime"},{"type":"hashtag","offset":35,"length":5,"data":"офис"},{"type":"bold","offset":103,"length":36,"data":""},{"type":"italic","offset":139,"length":127,"data":""},{"type":"bold","offset":269,"length":23,"data":""},{"type":"link","offset":454,"length":7,"data":"http://Text.ru"},{"type":"link","offset":463,"length":16,"data":"https://text.ru/"},{"type":"link","offset":491,"length":25,"data":"https://www.telderi.ru/ru"},{"type":"link","offset":531,"length":22,"data":"https://socpublic.com/"},{"type":"bold","offset":739,"length":29,"data":""},{"type":"bold","offset":1056,"length":19,"data":""},{"type":"bold","offset":1480,"length":12,"data":""},{"type":"handle","offset":1493,"length":14,"data":"MarinaModesco"},{"type":"link","offset":1509,"length":14,"data":"mailto:job@modesco.ru"}],"date":"2020-06-22T06:46:27+00:00","link":"tg://resolve?domain=qa_jobs&post=98600","tags":[{"name":"qa"},{"name":"dotnet"},{"name":"jmeter"},{"name":"selenium"},{"name":"html"},{"name":"css"},{"name":"javascript"}],"cities":[{"code":"volgograd"}],"allowsRemote":false}},{"node":{"__typename":"Job","id":"103373864960-1001089317451","title":"Qa инженер","text":"#вакансия #ручное_тестирование #функциональное_тестирование\n\n‼️Внимание! Вакансия закрыта. Специалист найден.\n\nВакансия: QA инженер\nПолный рабочий день / частичная занятость от 5 часов в день\nМожно удаленно\nЗарплата: 500р/час\n\nКомпания «МВС Медиа» — мы команда разработчиков технических решений в сфере доставки медиа контента, а также создания тематических сервисов и цифровых платформ.\n\n\nОбязанности:\n— составление чек-листов и тест-кейсов, баг-листов,\n— ручное функциональное тестирование веб платформы, веб версии мессенджера,\n— тестирование мобильных приложений (пока в стадии проектирования),\n— тестирование API,\n— тестирование верстки и дизайна,\n— поддержка и генерация тестовых данных,\n— описание ошибок в различных трекерах.\n— Написание технической документации по проекту, в свободное от тестов время\n— Обрабатывать обращения пользователей на 2й линии техподдержки (выяснить проблему, протестировать и завести тикет для разработчиков на устранение)\n\n\nЧто предлагаем:\n— Стабильные выплаты заработной платы 2 раза в месяц,\n— работа удаленно или в офисе (г. Москва, 10 минут от метро Павелецкая), \n— гибкий график,\n— профессиональный коллектив\n\nДополнительные инструкции:\n— Соискателю необходимо будет выполнить тестовое задание, которое оплатим в случае успешного прохождения.\n— опыт работы от 1 года,\n— знания в области теории и практики тестирования ПО,\n— понимание современных тенденций веб-дизайна, адаптивной верстки и подходов к тестированию веб и мобильных приложений,\n— умение работать с консолью браузера, отслеживать http запросы,\n— Желательно наличие iphone 8+ для тестирования веб версии сайта в ios safari\n— грамотная устная и письменная русская речь.\n— Соискатели с ИП или самозанятые рассматриваются в приоритете\n\nОтклики ждем в личные сообщения @recomp","markup":[{"type":"hashtag","offset":0,"length":9,"data":"вакансия"},{"type":"hashtag","offset":10,"length":20,"data":"ручное_тестирование"},{"type":"hashtag","offset":31,"length":28,"data":"функциональное_тестирование"},{"type":"bold","offset":61,"length":50,"data":""},{"type":"handle","offset":1769,"length":7,"data":"recomp"}],"date":"2020-06-21T19:01:49+00:00","link":"tg://resolve?domain=qa_jobs&post=98585","tags":[{"name":"qa"},{"name":"ios"},{"name":"safari"}],"cities":[{"code":"moscow"}],"allowsRemote":true}},{"node":{"__typename":"Job","id":"103362330624-1001089317451","title":"Qa инженер","text":"#вакансия #qa #офис #москва #вднх\n\nВакансия: Middle/Senior QA для автоматизированного и ручного тестирования web-приложения (сначала 50/50, затем автоматизация 70+%), ,\nКомпания: Webinar.ru\nЗП: до 180 000 руб. на руки\nФормат работы: офис, гибкое начало дня\nЗанятость: полная\n\nЗадачи: Ручное и автоматизированное тестирование нового функционала web-приложения, регрессионное, ui/ux, тестирование требований. Улучшение процесса тестирования. \nАвтоматизация на java+selenide\n\nЧто ожидаем:\n- Понимаешь, как устроены веб-сервисы, имеешь опыт их ручного и автоматизированного тестирования не менее одного года\n- Есть понимание клиент-серверной архитектуры;\n-Умеешь развернуто описывать шаги, приведшие к обнаруженной проблеме\n- Понимаешь принципы SCRUM’a;\n- Хочешь прокачаться в автоматизированном тестировании и научиться программировать (если уже умеешь - ещё круче)- \n-Есть понимание значений слов: HTTP, REST API, JSON, Git, SQL, HTML/CSS\n\nЧто предлагаем:\n- Официально оформим, з/п белая,\n- Гибкий график (чаще всего работаем с 10/11);\n- Отлаженные процессы без бюрократии;\n- Работа в современном лофтовом офисе в шаговой доступности от м. ВДНХ со своей парковкой;\n- Комфортное рабочее место, удобное кресло, все необходимое для работы оборудование и ПО (ноутбук DELL, 2 монитора);\n- 50% компенсация ДМС после испытательного срока, обучение за счёт компании;\n- Вкусные бесплатные завтраки, кофе-поинты;\nЕсли нужна помощь в релокации в Москву, расходы берем на себя ;)\n\nОтклики, вопросы, рекомендации: @dariavvk (telegram, FB) или на d.vovk@webinar.ru","markup":[{"type":"hashtag","offset":0,"length":9,"data":"вакансия"},{"type":"hashtag","offset":10,"length":3,"data":"qa"},{"type":"hashtag","offset":14,"length":5,"data":"офис"},{"type":"hashtag","offset":20,"length":7,"data":"москва"},{"type":"hashtag","offset":28,"length":5,"data":"вднх"},{"type":"link","offset":179,"length":10,"data":"http://Webinar.ru"},{"type":"handle","offset":1499,"length":9,"data":"dariavvk"},{"type":"link","offset":1531,"length":17,"data":"mailto:d.vovk@webinar.ru"}],"date":"2020-06-21T12:04:32+00:00","link":"tg://resolve?domain=qa_jobs&post=98574","tags":[{"name":"qa"},{"name":"web"},{"name":"java"},{"name":"rest"},{"name":"json"},{"name":"git"},{"name":"sql"},{"name":"html"},{"name":"css"}],"cities":[{"code":"moscow"}],"allowsRemote":false}},{"node":{"__typename":"Job","id":"103360233472-1001089317451","title":"Qa инженер","text":"#вакансия #Автоматизация #QA #fulltime #Bercut #удаленная_работа\n #удаленка\nФормат работы: удаленная\nЗанятость: полная занятость.\nЗарплата: от 120 000 до 180 000 net (белый доход) + годовой бонус.\n\nКомпания Bercut находит в поисках столпа инициативности и изменений! Здесь разрешено всё, что не запрещено. Мы создали среду возможностей, где каждое достижение поощряется. Хардкорные проекты, жесткие коллеги, и отряд аналитиков в комплекте (что бы ты не возился с кучей legacy кода). \n\nРассматриваем кандидатов на новые и текущие проекты BSS, преимущественно - биллинг, и проект RnD (ядро биллинга).\n\n\nТребования\n• Опыт в тестировании от 3-х лет;\n• Опыт в сфере BSS/Биллинга от года (обязательно);\n• Опыт в автоматизации тестирования от 1 года (Python, Java);\n• Опыт работы с CI инструментами (Jenkins/TeamCity);\n• Знание SQL на уровне написания сложных запросов, будет плюсом Oracle PL/SQL;\n• Знание различных методологий тестирования, техник тест-дизайна;\n• Желание развиваться в сфере тестирования.\n\nЧто делать?\n• Составлять тест-планы и тестовые сценарии;\n• Разрабатывать и поддерживать сценарии автоматизированного тестирования;\n• Участвовать в организации и развитии окружения для запуска тестов и тестовой инфраструктуры;\n• Взаимодействовать с разработчиками и аналитиками;\n• Работать над улучшением процесса тестирования, внедрять новые подходы по обеспечению качества.\n\nМы предлагаем:\n•  высокий \"белый\" доход, годовой бонус, ДМС, кафетерий льгот, интересные задачи.\n\n\nКомпания: https://www.bercut.com/\nКонтакты @Double2k или почта Ilya.Kuteinikov@bercut.com","markup":[{"type":"hashtag","offset":0,"length":9,"data":"вакансия"},{"type":"hashtag","offset":10,"length":14,"data":"Автоматизация"},{"type":"hashtag","offset":25,"length":3,"data":"QA"},{"type":"hashtag","offset":29,"length":9,"data":"fulltime"},{"type":"hashtag","offset":39,"length":7,"data":"Bercut"},{"type":"hashtag","offset":47,"length":17,"data":"удаленная_работа"},{"type":"hashtag","offset":66,"length":9,"data":"удаленка"},{"type":"link","offset":1487,"length":23,"data":"https://www.bercut.com/"},{"type":"handle","offset":1520,"length":9,"data":"Double2k"},{"type":"link","offset":1540,"length":26,"data":"mailto:Ilya.Kuteinikov@bercut.com"}],"date":"2020-06-21T10:18:13+00:00","link":"tg://resolve?domain=qa_jobs&post=98572","tags":[{"name":"qa"},{"name":"dotnet"},{"name":"python"},{"name":"java"},{"name":"jenkins"},{"name":"sql"},{"name":"oracle"}],"cities":[],"allowsRemote":true}},{"node":{"__typename":"Job","id":"103347650560-1001089317451","title":"Qa инженер","text":"Всем привет! \n\nТребуется Middle QA или Senior QA\nдля ручного тестирования мобильных приложений.\n\nРабота удаленно. \nОплата – часовая ставка с занятостью ~6-8 часов в день, от 500\\час. \nЗанятость по московскому времени, в рабочие часы. \n\nТребования к соискателю:\n1. Опыт ручного тестирование мобильных приложений от 1 года;\n2. Знание особенностей версий OS;\n3. Знание инструментов разработчика под Android;\n4. Понимание различий тестирования веб \\ мобайл;\n5. Опыт тестирования api;\n6. Опыт работы с БД;\n7. Высокий уровень самоорганизации и коммуникативных навыков.\n\nВ процессе работы возможно обучение автоматизации тестирования. \n\nЖду резюме и информацию о себе – личным сообщением, с пометкой «mobile qa». \nКаждому из соискателей я отвечу до 22 июня. \n\n\n🎱QA\n🎱Devquality\n🎱Тестирование бэкенда, фронта, автоматизация\n🎱 Часовой рейт, удаленное сотрудничество. #россия #москва #подмосковье #удаленное #вакансия #работавит #работаврегионах\n\nЕще одна вакансия ниже.\n\n***\n\nТребуется Middle QA для ручного тестирования банковского ПО.\nРабота удаленно. \nОплата – часовая ставка с занятостью ~6-8 часов в день, от 500\\час. \nЗанятость по московскому времени, в рабочие часы. \n\nТребования к соискателю:\n1. Опыт ручного тестирования от года;\n2. Опыт тестирования UI;\n3. Опыт интеграционного тестирования;\n4. Знание SQL;\n5. Опыт работы по Agile;\n6. Высокий уровень самоорганизации и коммуникативных навыков;\n7. Опыт написания тест-кейсов.\n\nЖду резюме и информацию о себе – личным сообщением, с пометкой «Банковское ПО». Каждому из соискателей я отвечу до 22 июня. \n\n\n🎱QA\n🎱Devquality\n🎱Тестирование бэкенда, фронта, автоматизация\n🎱 Часовой рейт, удаленное сотрудничество. #россия #москва #подмосковье #удаленное #вакансия #работавит #работаврегионах\n\nБлагодарю.","markup":[{"type":"hashtag","offset":861,"length":7,"data":"россия"},{"type":"hashtag","offset":869,"length":7,"data":"москва"},{"type":"hashtag","offset":877,"length":12,"data":"подмосковье"},{"type":"hashtag","offset":890,"length":10,"data":"удаленное"},{"type":"hashtag","offset":901,"length":9,"data":"вакансия"},{"type":"hashtag","offset":911,"length":10,"data":"работавит"},{"type":"hashtag","offset":922,"length":16,"data":"работаврегионах"},{"type":"bold","offset":963,"length":5,"data":""},{"type":"hashtag","offset":1664,"length":7,"data":"россия"},{"type":"hashtag","offset":1672,"length":7,"data":"москва"},{"type":"hashtag","offset":1680,"length":12,"data":"подмосковье"},{"type":"hashtag","offset":1693,"length":10,"data":"удаленное"},{"type":"hashtag","offset":1704,"length":9,"data":"вакансия"},{"type":"hashtag","offset":1714,"length":10,"data":"работавит"},{"type":"hashtag","offset":1725,"length":16,"data":"работаврегионах"}],"date":"2020-06-20T15:58:13+00:00","link":"tg://resolve?domain=qa_jobs&post=0","tags":[{"name":"qa"},{"name":"android"},{"name":"mobile"},{"name":"sql"}],"cities":[{"code":"moscow"}],"allowsRemote":true}},{"node":{"__typename":"Job","id":"103309901824-1001089317451","title":"Qa engineer","text":"#Москва #вакансия #QA #manual  #python\n\nДолжность: QA Engineer \nКомпания: Andromeda Lab\nЗП: до 120 000 \nФормат работы: офис, гибкое начало дня\nЗанятость: полная\n\n\nКого мы ищем:\nЧеловека который готов заниматься ручным тестированием 80% времени и 20% времени - автоматизацией.Со временем доля автоматизации вырастет до 50%\n\nЗадачи:\n- Тестирование ERP-системы;\n- Введение документации для тестирования (Создание тест-кейсов, чек-листов и т.д.)\n- Тестирование мобильного приложения \n- Участие в автоматизации тестирования продуктов компании\n\nОбязанности:\n- Понимание жизненного цикла разработки продукта\n- Знание теории и видов тестирования,  умение вести тестовую документацию;\n- Умение локализовать баги и оформлять баг репорты\n- Понимание и умение применять техники тест-дизайна\n- Тестирование API\n- Опыт использование Postman\n- Понимание мобильного тестирования \n- Знание и умение пользования командной строкой UNIX\n- Знание SQL (простые запросы), Git\n- Умение использовать снифферы (Charles,Fiddler и т.д.)\n- Умение работать с Docker\n- Начальные знания Python либо желание выучить в ближайшее время\n\nПредлагаем:\n- белая зп (до 120 000, зависит от опыта);\n- уютный офис в Moscow City (сладости, печенки,кофе\\чай,PS4 и т.д.);\n- ДМС,  курсы английского, участие в конференциях. \n\nРезюме скидывать в лс.","markup":[{"type":"hashtag","offset":0,"length":7,"data":"Москва"},{"type":"hashtag","offset":8,"length":9,"data":"вакансия"},{"type":"hashtag","offset":18,"length":3,"data":"QA"},{"type":"hashtag","offset":22,"length":7,"data":"manual"},{"type":"hashtag","offset":31,"length":7,"data":"python"}],"date":"2020-06-19T15:36:21+00:00","link":"tg://resolve?domain=qa_jobs&post=98524","tags":[{"name":"qa"},{"name":"python"},{"name":"unix"},{"name":"sql"},{"name":"git"},{"name":"docker"}],"cities":[{"code":"moscow"}],"allowsRemote":false}},{"node":{"__typename":"Job","id":"103293124608-1001089317451","title":"Qa инженер","text":"#вакансия #офис #fulltime #Минск\n👌 Без чего не бывает отличных сервисов? Без ответственных за качество! Ищем самых внимательных, дотошных и коммуникабельных QA инженеров в нашу минскую команду. \n\nКомпания:  BSL (bsl.dev)\nПозиция: Jun/Mid QA Engineer\nФормат и форма работы: фулл-тайм, офис Минск (м. Грушевка)\nЗП: 450-1000$\n\n💫 Задачи:\nФункциональное ручное тестирование приложений (iOS, Android, Web); \nРазработка и поддержка тестовых случаев (тест-кейсы/чек-листы);\nУчастие в ревью требований, UI/UX и всех типов проектной документации;\nЛокализация, документирование и поддержка дефектов в Jira;\n\n💫Требования:\nОпыт работы в функциональном тестировании; \nЗнание методологий тестирования;\nЗнание особенностей тестирования и архитектуры приложений на платформах iOS & Android и WEB;\nПонимание принципов REST API;\nОпыт работы в багтрекинговой системе Jira;\nОпыт работы с системами тест менеджмента (Test Rail, MTM, Zephyr for Jira);\nОтветственность, коммуникабельность, настойчивость, грамотность, внимание к мелочам и готовность к постоянной коммуникации с командой проекта;\nСпособность быстро переключаться между задачами.\n\n💫Что даем взамен:\n• Возможность прокачки hard skills на проектах разного уровня сложности; \n• Команду с сильными разработчиками, product-менеджерами, QA, UX/UI дизайнерами и налаженными процессами;\n• График работы: с пересечением по часам 11:00–19:00 по Москве (отдыхать в выходные и праздники будем по российскому календарю — а значит + неделя на новый год и длинные майские каникулы);\n• Самореализацию и профессиональный рост, посещение конференций и курсов за счет компании. Расскажите нам о своей профессиональной мечте, возможно мы поможем вам воплотить ее в жизнь;\n• Уютный новый офис на м. Грушевка — с чаем и кофе. \n\n✅Жду ваши резюме и, если есть, вопросы.\nМои контакты: @viktoriya_gw \nhr@bsl.dev","markup":[{"type":"hashtag","offset":0,"length":9,"data":"вакансия"},{"type":"hashtag","offset":10,"length":5,"data":"офис"},{"type":"hashtag","offset":16,"length":9,"data":"fulltime"},{"type":"hashtag","offset":26,"length":6,"data":"Минск"},{"type":"link","offset":213,"length":7,"data":"http://bsl.dev"},{"type":"handle","offset":1805,"length":13,"data":"viktoriya_gw"},{"type":"link","offset":1820,"length":10,"data":"mailto:hr@bsl.dev"}],"date":"2020-06-19T13:10:22+00:00","link":"tg://resolve?domain=qa_jobs&post=98508","tags":[{"name":"qa"},{"name":"ios"},{"name":"android"},{"name":"web"},{"name":"rest"}],"cities":[{"code":"minsk"}],"allowsRemote":false}}]}}},"context":{}}