{"hash":"f34fd2c444a074f4e0e67d525015a008ef8e766f","data":{"records":{"id":"typescript","name":"typescript","belongsTo":{"totalCount":29,"pageInfo":{"totalPages":3,"currentPage":2},"edges":[{"node":{"__typename":"Job","id":"16218324992-1001110946746","title":"Js разработчик","text":"#вакансия #front #react #typescript #москва #генетика #javascript #nodejs #геномэксперт #барсгруп\n\nГород и адрес офиса: Москва, ст.м.Павелецкая\nФормат работы: Офис\nЗанятость: Полная \nЗарплатная вилка: от 160 до 250 000 руб. на руки\nНазвание компании: Барс Груп\nhttps://bars.group/\nПроект Геном.Эксперт  - https://genome.expert/ \n\nТребуется senior/middle front-end разработчик в крупный медицинский проект.\n\nПредметная область: Генетика.\nТекущее состояние проекта: Проект запущен как стартап, поэтому есть уникальная возможность принять участие в создании с нуля единого пространства для врачей-генетиков, лабораторных генетиков, биоинформатиков.\n\nЧем придется заниматься:\n\n-Писать микроприложения и компоненты на React;\n-Изучать исходники на Polymer, чтобы переехать на React и микросервисную архитектуру;\n-Доделывать существующую систему с использованием самописного фрэймворка(пока переезжаем на реакт, это иногда нужно будет делать)\n\nТребования:\n\n-Front-end: React(Vue), typescript, Polymer, Redux/Mobx/Vuex;\n-Межсервисное взаимодействие и API: REST/GraphQL/gRPC;\n-Инструменты для работы: Git, bitbucket, JIRA, docker, docker-compose\n\nУсловия:\n-Оформление по ТК РФ;\n-Работа в комфортабельном офисе, ст.м.Павелецкая;\n-Белая зарплата, повышающаяся по системе аттестаций несколько раз в год;\n-ДМС;\n-Перспективы карьерного роста;\n-Корпоративное обучение (тренинги, мастер-классы);\n-Корпоративная библиотека;\n-Мы рассматриваем кандидатов с возможностью переезда в Москву;\n-Возможность предоставления бесплатного жилья на первый месяц\n- График 5/2. \n\nКонтакты для связи: \n\nemail: a.starchenko@bars.group \nTelegram: @alinavelcheva \n\nbars.group\nАО «БАРС Груп» - официальный сайт компании\nАО «БАРС Груп» - российский производитель ИТ-решений и экспертный центр в сфере государственной и корпоративной информатизации.","markup":[{"type":"hashtag","offset":0,"length":9,"data":"вакансия"},{"type":"hashtag","offset":10,"length":6,"data":"front"},{"type":"hashtag","offset":17,"length":6,"data":"react"},{"type":"hashtag","offset":24,"length":11,"data":"typescript"},{"type":"hashtag","offset":36,"length":7,"data":"москва"},{"type":"hashtag","offset":44,"length":9,"data":"генетика"},{"type":"hashtag","offset":54,"length":11,"data":"javascript"},{"type":"hashtag","offset":66,"length":7,"data":"nodejs"},{"type":"hashtag","offset":74,"length":13,"data":"геномэксперт"},{"type":"hashtag","offset":88,"length":9,"data":"барсгруп"},{"type":"link","offset":261,"length":19,"data":"https://bars.group/"},{"type":"link","offset":305,"length":22,"data":"https://genome.expert/"},{"type":"link","offset":1577,"length":23,"data":"mailto:a.starchenko@bars.group"},{"type":"handle","offset":1612,"length":14,"data":"alinavelcheva"},{"type":"link","offset":1629,"length":10,"data":"http://bars.group"}],"date":"2020-04-09T06:36:29+00:00","link":"tg://resolve?domain=javascript_jobs_feed&post=15467","tags":[{"name":"javascript"},{"name":"reactjs"},{"name":"typescript"},{"name":"nodejs"},{"name":"polymerjs"},{"name":"vuejs"},{"name":"redux"},{"name":"rest"},{"name":"graphql"},{"name":"git"},{"name":"docker"},{"name":"docker-compose"}],"cities":[{"code":"moscow"}],"allowsRemote":false}},{"node":{"__typename":"Job","id":"98214871040-1001089317451","title":"Qa engineer","text":"#вакансия #москва #полнаязанятость #qaengineer\nКомпания: #Mетрквадратный ( https://m2.ru )\nЛокация: м.Белорусская (в шаге от метро) \nЗ/п: от 120к - 230к на руки\nКонтакты: @maxdmitrov\n\nЭто платформа, на которой физические лица смогут в режиме одного окна подобрать объект недвижимости, оформить на него ипотеку, произвести электронную регистрацию, сделать безопасный расчет не посещая банки и воспользоваться дополнительными услугами (страхование, дизайн, ремонт). \n\nНаш стэк:\n• Java\n • Node.js\n • React, TypeScript\n • Kafka, ElasticSearch, gRPC\n • Docker\n\nЧем предстоит заниматься:\n • анализировать и тестировать требования к разрабатываемым приложениям;\n • писать приемочные критерии к пользовательским историям;\n • проводить функциональное, регрессионное и smoke тестирование;\n • заниматься задачами по автоматизации тестирования.\n\nЧего мы ждем:\n • глубокое понимание процессов тестирования и разработки ПО;\n • опыт интеграционного тестирования:\n    - системная интеграция;\n    - компонентная интеграция\n • опыт тестирования АРI;\n • опыт автоматизации тестирования на любом стеке.\n\nБудет плюсом\n • опыт исследовательского тестирования;\n • опыт тестирования ПО с микросервисной архитектурой.\n\nМы предлагаем:\n • белая конкурентная ЗП, официальное оформление;\n • гибкий график работы, возможность выбора рабочего оборудования;\n • ДМС, компенсация фитнеса, льготная ставка по ипотеке;\n • комфортный офис в БЦ «Белая площадь» (минута от метро): лаундж-зоны, бариста, фрукты.","markup":[{"type":"hashtag","offset":0,"length":9,"data":"вакансия"},{"type":"hashtag","offset":10,"length":7,"data":"москва"},{"type":"hashtag","offset":18,"length":16,"data":"полнаязанятость"},{"type":"hashtag","offset":35,"length":11,"data":"qaengineer"},{"type":"hashtag","offset":57,"length":15,"data":"Mетрквадратный"},{"type":"link","offset":75,"length":13,"data":"https://m2.ru"},{"type":"handle","offset":171,"length":11,"data":"maxdmitrov"},{"type":"bold","offset":465,"length":11,"data":""},{"type":"bold","offset":556,"length":26,"data":""},{"type":"bold","offset":833,"length":15,"data":""},{"type":"bold","offset":1083,"length":14,"data":""},{"type":"bold","offset":1192,"length":16,"data":""}],"date":"2020-04-08T08:59:45+00:00","link":"tg://resolve?domain=qa_jobs&post=93665","tags":[{"name":"qa"},{"name":"java"},{"name":"nodejs"},{"name":"reactjs"},{"name":"typescript"},{"name":"kafka"},{"name":"elasticsearch"},{"name":"docker"}],"cities":[{"code":"moscow"}],"allowsRemote":false}},{"node":{"__typename":"Job","id":"98202288128-1001089317451","title":"Qa инженер","text":"#вакансия #qa #manual #manualqa  #remote #удаленно #офис #севастополь #fulltime\n\nManual QA\nКомпания: ИП Хорьков Э.В.\nЛокация: Севастополь (офис/удаленно) \nЗанятость: полный день\nЗ/п: 50-70К net\nКонтакты: @observer69\n\nНаш проект – IoT инфраструктура сбора и анализа данных, запущена на базе компании, которая занимается морскими грузоперевозками (более 100 судов). Мы делаем реальный проект, который будет работать и генерировать добавленную стоимость для логистических компаний.\nОсновные технологии, которые мы используем – TypeScript, React, CouchDB. Клиент-серверное взаимодействие через GraphQL и RabbitMQ. Уже запущена и протестирована первая бета-версия. Сейчас разрабатываем продакшен-версию для запуска в середине 2020.\nМы ищем опытного ручного тестировщика. Вам предстоит заниматься ручным тестирование продукта, взаимодействовать командой разработки. Дизайн, ключевая техническая команда, продуктовая команда работают распределенно (команда интернациональная).\n\nУсловия\n● Официальное оформление по ТК РФ, трудовой договор, 100 % белая зарплата с оплатой всех налогов и страховых взносов, отпуск 28 календарных дней\n● Оплачиваемые онлайн-курсы английского языка\n● Работа удаленно или в офисе в Севастополе\n\nТребования\n● Не менее 2 лет опыта ручного тестирование ПО\n● Понимание принципов клиент-серверного взаимодействия\n● Опыт работы с системами менеджмента текст-кейсов (Zephyr)\n● Знание английского (нужно будет читать и писать)\n● Будет плюсом: знание Python/TypeScript, знание NoSQL\n\nЗадачи\n1. Ручное тестирование нашего продукта\n2. Написание тестовой документации: тест-планов, тест-кейсов, отчетов\n3. Коммуникация с командой разработки и командой автоматизации","markup":[{"type":"hashtag","offset":0,"length":9,"data":"вакансия"},{"type":"hashtag","offset":10,"length":3,"data":"qa"},{"type":"hashtag","offset":14,"length":7,"data":"manual"},{"type":"hashtag","offset":22,"length":9,"data":"manualqa"},{"type":"hashtag","offset":33,"length":7,"data":"remote"},{"type":"hashtag","offset":41,"length":9,"data":"удаленно"},{"type":"hashtag","offset":51,"length":5,"data":"офис"},{"type":"hashtag","offset":57,"length":12,"data":"севастополь"},{"type":"hashtag","offset":70,"length":9,"data":"fulltime"},{"type":"bold","offset":81,"length":19,"data":""},{"type":"bold","offset":117,"length":9,"data":""},{"type":"bold","offset":155,"length":10,"data":""},{"type":"bold","offset":178,"length":5,"data":""},{"type":"bold","offset":194,"length":9,"data":""},{"type":"handle","offset":204,"length":11,"data":"observer69"},{"type":"bold","offset":971,"length":8,"data":""},{"type":"bold","offset":1215,"length":11,"data":""},{"type":"bold","offset":1495,"length":7,"data":""}],"date":"2020-04-08T07:26:35+00:00","link":"tg://resolve?domain=qa_jobs&post=0","tags":[{"name":"qa"},{"name":"dotnet"},{"name":"typescript"},{"name":"reactjs"},{"name":"graphql"},{"name":"rabbitmq"},{"name":"python"},{"name":"nosql"}],"cities":[{"code":"sevastopol"}],"allowsRemote":true}},{"node":{"__typename":"Job","id":"16210984960-1001110946746","title":"Js разработчик","text":"#вакансия #fulltime #node #typescript #kubernetes #graphQL #Remote \nStrong Middle Node engineer\n\nГород: Любой(HQ в Miami, Florida)\nФормат работы: удаленно\nЗанятость: полная\nЗарплатная вилка: от $3000 - $5000\n\nКомпания StartupCraft Inc - больше инфы тут - https://startupcraft.io\n\nРабота в команде профи, полный стек ролей и четко настроенные процессы. Позиция на продукт связанный с управлением Kubernetes инфраструктурами\n\n\nТребования:\n- At least 3 years of experience with Node.js\n- At least 1 year with TypeScript\n- At least 1 year with GraphQL\n- Conversational level of English\n\nУсловия:\n- Top Salary rates\n- Company internal positive culture. We are not all about just a work\n- Personal development and professional growth. You will grow with one of the best engineers in class\n\nДля того чтоб зааплаиться - нужно выслать CV на info@startupcraft.io и указать проекты на которых вы работали, с указанием технологий и периода (от, до).  Можно так же указать референс на предыдущих местах - это плюс\n\n\nКомпания: StartupCraft Inc\nКонтакты: info@startupcraft.io","markup":[{"type":"hashtag","offset":0,"length":9,"data":"вакансия"},{"type":"hashtag","offset":10,"length":9,"data":"fulltime"},{"type":"hashtag","offset":20,"length":5,"data":"node"},{"type":"hashtag","offset":26,"length":11,"data":"typescript"},{"type":"hashtag","offset":38,"length":11,"data":"kubernetes"},{"type":"hashtag","offset":50,"length":8,"data":"graphQL"},{"type":"hashtag","offset":59,"length":7,"data":"Remote"},{"type":"link","offset":255,"length":23,"data":"https://startupcraft.io"},{"type":"link","offset":832,"length":20,"data":"mailto:info@startupcraft.io"},{"type":"link","offset":1040,"length":20,"data":"mailto:info@startupcraft.io"}],"date":"2020-04-07T18:37:12+00:00","link":"tg://resolve?domain=javascript_jobs_feed&post=15460","tags":[{"name":"javascript"},{"name":"nodejs"},{"name":"typescript"},{"name":"kubernetes"},{"name":"graphql"}],"cities":[{"code":"miami"}],"allowsRemote":true}},{"node":{"__typename":"Job","id":"16209936384-1001110946746","title":"Js разработчик","text":"#вакансия #javascript #nodejs #typescript #frontend #middle\n\nКомпания: #Mетрквадратный https://m2.ru\nЛокация: #москва м.Белорусская\nФормат работы: офис\nЗанятость: полная\nЗ/п: 200к - 260к руб. на руки\nКонтакты: @maxdmitrov\n\nЭто платформа, на которой физические лица смогут в режиме одного окна подобрать объект недвижимости, оформить на него ипотеку, произвести электронную регистрацию, сделать безопасный расчет не посещая банки и воспользоваться дополнительными услугами (страхование, дизайн, ремонт). \n\nЧем предстоит заниматься:\n\n•  разрабатывать один из продуктов жилищной экосистемы;\n•  прорабатывать задачи с начального этапа (декомпозиция, проработка архитектуры, демо с владельцем продукта);\n•  проводить код ревью;\n•  покрывать код unit тестами, помогать тестировщикам в написании e2e тестов;\n•  оптимизировать рендеринг и скорость загрузки страниц;\n•  разрабатывать продуктовые компоненты, используя общие UI библиотеки, и помогать в развитии этих библиотек.\n\nЧего мы ждем:\n\n• Javascript(ES6);\n• React + MobX/Redux;\n• HTML;\n• CSS;\n• Опыт кроссбраузерной верстки.\n\nБудет плюсом:\n\n• TypeScript;\n• Знание протокола HTTP/HTTPS, websockets, опыт работы с REST API;\n• Опыт работы с react native;\n• Опыт в бекэнде на различных языках программирования;\n• Опыт профилирования, оптимизации и рефакторинга кода;\n• Опыт написания тестов.\n\nМы используем: \n\n•  TypeScript + React + MobX + Gatsby;\n•  NestJS + gRPC + ProtoBuf (мидл-слой, управляющий UI и обращающийся к API бэк-энда);\n•  Micro Frontend Service;\n•  GitLab (CI/CD);\n•  Yarn + Lerna;\n•  Webpack/Rollup.\n\nМы предлагаем: \n\n•  Современный стек технологий;\n•  Возможность влиять на архитектуру и сразу видеть результат своей работы;\n•  Белая конкурентная ЗП, официальное оформление;\n•  Гибкий график работы, возможность выбора рабочего оборудования;\n•  ДМС, компенсация фитнеса, льготная ставка по ипотеке;\n•  Комфортный офис в БЦ «Белая площадь» (минута от метро): лаундж-зоны, бариста, фрукты.","markup":[{"type":"hashtag","offset":0,"length":9,"data":"вакансия"},{"type":"hashtag","offset":10,"length":11,"data":"javascript"},{"type":"hashtag","offset":22,"length":7,"data":"nodejs"},{"type":"hashtag","offset":30,"length":11,"data":"typescript"},{"type":"hashtag","offset":42,"length":9,"data":"frontend"},{"type":"hashtag","offset":52,"length":7,"data":"middle"},{"type":"hashtag","offset":71,"length":15,"data":"Mетрквадратный"},{"type":"link","offset":87,"length":13,"data":"https://m2.ru"},{"type":"hashtag","offset":110,"length":7,"data":"москва"},{"type":"handle","offset":210,"length":11,"data":"maxdmitrov"}],"date":"2020-04-07T18:36:46+00:00","link":"tg://resolve?domain=javascript_jobs_feed&post=15459","tags":[{"name":"javascript"},{"name":"nodejs"},{"name":"typescript"},{"name":"reactjs"},{"name":"redux"},{"name":"html"},{"name":"css"},{"name":"rest"},{"name":"gitlab"},{"name":"webpack"},{"name":"react-native"}],"cities":[{"code":"moscow"}],"allowsRemote":false}},{"node":{"__typename":"Job","id":"16205742080-1001110946746","title":"Js разработчик","text":"#вакансия #vue #vuejs #typescript #удалёнка #удаленка\n\nГород и адрес офиса: удалёнка (костяк команды в Санкт-Петербурге)\n\nФормат работы: удалёнка\n\nЗанятость: полная, фултайм\n\nЗарплатная вилка: от 110 000₽ до 180 000₽\n\nОписание вакансии: \nИщем разработчика для усиления команды в нашем стартапе. Мы делаем продукт для предпринимателей и топ-менеджеров и их сообществ, который помогает им налаживать связи и профессионально развиваться.\n\nНам очень не хватает фронтенд-специалиста с опытом, который поможет закрывать в том числе и архитектурные задачи. Не архитектурой единой — код тоже писать нужно, а также проводить код ревью. В команде есть тимлид, который поможет во всём разобраться.\n\nНаш идеальный кандидат сделал на Vue несколько проектов, которые работают в продакшене. Среди этих проектов — один или несколько больших. Опыт работы с Javascript в целом — от 3 лет.\n\nНазвание компании: Yodvisor\n\nКонтакты: @arutyunov или +7-951-657-01-10","markup":[{"type":"hashtag","offset":0,"length":9,"data":"вакансия"},{"type":"hashtag","offset":10,"length":4,"data":"vue"},{"type":"hashtag","offset":15,"length":6,"data":"vuejs"},{"type":"hashtag","offset":22,"length":11,"data":"typescript"},{"type":"hashtag","offset":34,"length":9,"data":"удалёнка"},{"type":"hashtag","offset":44,"length":9,"data":"удаленка"},{"type":"handle","offset":911,"length":10,"data":"arutyunov"},{"type":"link","offset":926,"length":16,"data":"tel:+7-951-657-01-10"}],"date":"2020-04-07T18:35:19+00:00","link":"tg://resolve?domain=javascript_jobs_feed&post=15455","tags":[{"name":"javascript"},{"name":"vuejs"},{"name":"typescript"}],"cities":[],"allowsRemote":true}},{"node":{"__typename":"Job","id":"98126790656-1001089317451","title":"Qa engineer","text":"#вакансия #москва #полнаязанятость #qaengineer\nКомпания: #Mетрквадратный ( https://m2.ru )\nЛокация: м.Белорусская (в шаге от метро) \nЗ/п: от 120к - 230к на руки\nКонтакты: @maxdmitrov\n\nЭто платформа, на которой физические лица смогут в режиме одного окна подобрать объект недвижимости, оформить на него ипотеку, произвести электронную регистрацию, сделать безопасный расчет не посещая банки и воспользоваться дополнительными услугами (страхование, дизайн, ремонт). \n\nНаш стэк:\n• Java\n • Node.js\n • React, TypeScript\n • Kafka, ElasticSearch, gRPC\n • Docker\n\nЧем предстоит заниматься:\n • анализировать и тестировать требования к разрабатываемым приложениям;\n • писать приемочные критерии к пользовательским историям;\n • проводить функциональное, регрессионное и smoke тестирование;\n • заниматься задачами по автоматизации тестирования.\n\nЧего мы ждем:\n • глубокое понимание процессов тестирования и разработки ПО;\n • опыт интеграционного тестирования:\n    - системная интеграция;\n    - компонентная интеграция\n • опыт тестирования АРI;\n • опыт автоматизации тестирования на любом стеке.\n\nБудет плюсом\n • опыт исследовательского тестирования;\n • опыт тестирования ПО с микросервисной архитектурой.\n\nМы предлагаем:\n • белая конкурентная ЗП, официальное оформление;\n • гибкий график работы, возможность выбора рабочего оборудования;\n • ДМС, компенсация фитнеса, льготная ставка по ипотеке;\n • комфортный офис в БЦ «Белая площадь» (минута от метро): лаундж-зоны, бариста, фрукты.","markup":[{"type":"hashtag","offset":0,"length":9,"data":"вакансия"},{"type":"hashtag","offset":10,"length":7,"data":"москва"},{"type":"hashtag","offset":18,"length":16,"data":"полнаязанятость"},{"type":"hashtag","offset":35,"length":11,"data":"qaengineer"},{"type":"hashtag","offset":57,"length":15,"data":"Mетрквадратный"},{"type":"link","offset":75,"length":13,"data":"https://m2.ru"},{"type":"handle","offset":171,"length":11,"data":"maxdmitrov"},{"type":"bold","offset":465,"length":11,"data":""},{"type":"bold","offset":556,"length":26,"data":""},{"type":"bold","offset":833,"length":15,"data":""},{"type":"bold","offset":1083,"length":14,"data":""},{"type":"bold","offset":1192,"length":16,"data":""}],"date":"2020-04-07T11:57:25+00:00","link":"tg://resolve?domain=qa_jobs&post=93581","tags":[{"name":"qa"},{"name":"java"},{"name":"nodejs"},{"name":"reactjs"},{"name":"typescript"},{"name":"kafka"},{"name":"elasticsearch"},{"name":"docker"}],"cities":[{"code":"moscow"}],"allowsRemote":false}},{"node":{"__typename":"Job","id":"16197353472-1001110946746","title":"Javascript разработчик","text":"#вакансия #angular #react #москва #релокация\n\nГород: Москва (Сокольники или Павелецкая), есть релокационный пакет\n\nФормат работы: офис, возможна удаленка после шести месяцев работы\n\nЗанятость: полная\n\nВилка: 180-250 т.р. на руки\n\nИщем коллегу для создания и развития современного сервиса дистанционных банковских услуг.\n\n• SPA на Angular 8\n\n• Пишем на TypeScript, ES6 Modules, SASS\n\n• Собираем в Webpack\n\n• Храним в Git\n\nМы также готовы рассмотреть кандидатов, которые имеют опыт работы на React, но хотели бы перейти на Angular.\n\nНазвание компании: ПСБ\nhttps://www.psbank.ru/\nhttps://hh.ru/vacancy/33110730\n\nКонтакты: @max_gusev\ngusevms@psbank.ru","markup":[{"type":"hashtag","offset":0,"length":9,"data":"вакансия"},{"type":"hashtag","offset":10,"length":8,"data":"angular"},{"type":"hashtag","offset":19,"length":6,"data":"react"},{"type":"hashtag","offset":26,"length":7,"data":"москва"},{"type":"hashtag","offset":34,"length":10,"data":"релокация"},{"type":"link","offset":554,"length":22,"data":"https://www.psbank.ru/"},{"type":"link","offset":577,"length":30,"data":"https://hh.ru/vacancy/33110730"},{"type":"handle","offset":619,"length":10,"data":"max_gusev"},{"type":"link","offset":630,"length":17,"data":"mailto:gusevms@psbank.ru"}],"date":"2020-04-06T14:42:01+00:00","link":"tg://resolve?domain=javascript_jobs_feed&post=15447","tags":[{"name":"javascript"},{"name":"angularjs"},{"name":"reactjs"},{"name":"typescript"},{"name":"sass"},{"name":"webpack"},{"name":"git"}],"cities":[{"code":"moscow"}],"allowsRemote":true}},{"node":{"__typename":"Job","id":"16196304896-1001110946746","title":"Js разработчик","text":"#вакансия #front #react #typescript #москва #генетика #javascript #nodejs #геномэксперт #барсгруп\n\nГород и адрес офиса: Москва, ст.м.Павелецкая\nФормат работы: Офис\nЗанятость: Полная \nЗарплатная вилка: от 160 до 250 000 руб. на руки\nНазвание компании: Барс Груп\nhttps://bars.group/\nПроект Геном.Эксперт  - https://genome.expert/ \n\nТребуется senior/middle front-end разработчик в крупный медицинский проект.\n\nПредметная область: Генетика.\nТекущее состояние проекта: Проект запущен как стартап, поэтому есть уникальная возможность принять участие в создании с нуля единого пространства для врачей-генетиков, лабораторных генетиков, биоинформатиков.\n\nЧем придется заниматься:\n\n-Писать микроприложения и компоненты на React;\n-Изучать исходники на Polymer, чтобы переехать на React и микросервисную архитектуру;\n-Доделывать существующую систему с использованием самописного фрэймворка(пока переезжаем на реакт, это иногда нужно будет делать)\n\nТребования:\n\n-Front-end: React(Vue), typescript, Polymer, Redux/Mobx/Vuex;\n-Межсервисное взаимодействие и API: REST/GraphQL/gRPC;\n-Инструменты для работы: Git, bitbucket, JIRA, docker, docker-compose\n\nУсловия:\n-Оформление по ТК РФ;\n-Работа в комфортабельном офисе, ст.м.Павелецкая;\n-Белая зарплата, повышающаяся по системе аттестаций несколько раз в год;\n-ДМС;\n-Перспективы карьерного роста;\n-Корпоративное обучение (тренинги, мастер-классы);\n-Корпоративная библиотека;\n-Мы рассматриваем кандидатов с возможностью переезда в Москву;\n-Возможность предоставления бесплатного жилья на первый месяц\n- График 5/2. \n\nКонтакты для связи: \n\nemail: a.starchenko@bars.group \nTelegram: @alinavelcheva \n\nbars.group\nАО «БАРС Груп» - официальный сайт компании\nАО «БАРС Груп» - российский производитель ИТ-решений и экспертный центр в сфере государственной и корпоративной информатизации.","markup":[{"type":"hashtag","offset":0,"length":9,"data":"вакансия"},{"type":"hashtag","offset":10,"length":6,"data":"front"},{"type":"hashtag","offset":17,"length":6,"data":"react"},{"type":"hashtag","offset":24,"length":11,"data":"typescript"},{"type":"hashtag","offset":36,"length":7,"data":"москва"},{"type":"hashtag","offset":44,"length":9,"data":"генетика"},{"type":"hashtag","offset":54,"length":11,"data":"javascript"},{"type":"hashtag","offset":66,"length":7,"data":"nodejs"},{"type":"hashtag","offset":74,"length":13,"data":"геномэксперт"},{"type":"hashtag","offset":88,"length":9,"data":"барсгруп"},{"type":"link","offset":261,"length":19,"data":"https://bars.group/"},{"type":"link","offset":305,"length":22,"data":"https://genome.expert/"},{"type":"link","offset":1577,"length":23,"data":"mailto:a.starchenko@bars.group"},{"type":"handle","offset":1612,"length":14,"data":"alinavelcheva"},{"type":"link","offset":1629,"length":10,"data":"http://bars.group"}],"date":"2020-04-06T14:41:46+00:00","link":"tg://resolve?domain=javascript_jobs_feed&post=15446","tags":[{"name":"javascript"},{"name":"reactjs"},{"name":"typescript"},{"name":"nodejs"},{"name":"polymerjs"},{"name":"vuejs"},{"name":"redux"},{"name":"rest"},{"name":"graphql"},{"name":"git"},{"name":"docker"},{"name":"docker-compose"}],"cities":[{"code":"moscow"}],"allowsRemote":false}},{"node":{"__typename":"Job","id":"16193159168-1001110946746","title":"Js разработчик","text":"#вакансия #javascript #nodejs #typescript #frontend #middle\n\nКомпания: #Mетрквадратный https://m2.ru\nЛокация: #москва м.Белорусская\nФормат работы: офис\nЗанятость: полная\nЗ/п: 200к - 260к руб. на руки\nКонтакты: @maxdmitrov\n\nЭто платформа, на которой физические лица смогут в режиме одного окна подобрать объект недвижимости, оформить на него ипотеку, произвести электронную регистрацию, сделать безопасный расчет не посещая банки и воспользоваться дополнительными услугами (страхование, дизайн, ремонт). \n\nЧем предстоит заниматься:\n\n•  разрабатывать один из инновационных продуктов жилищной экосистемы;\n•  прорабатывать задачи с начального этапа (декомпозиция, проработка архитектуры, демо с владельцем продукта);\n•  проводить код ревью;\n•  покрывать код unit тестами, помогать тестировщикам в написании e2e тестов;\n•  оптимизировать рендеринг и скорость загрузки страниц;\n•  разрабатывать продуктовые компоненты, используя общие UI библиотеки, и помогать в развитии этих библиотек.\n\nЧего мы ждем:\n\n• Javascript(ES6);\n• React + MobX/Redux;\n• HTML;\n• CSS;\n• Опыт кроссбраузерной верстки.\n\nБудет плюсом:\n\n• TypeScript;\n• Знание протокола HTTP/HTTPS, websockets, опыт работы с REST API;\n• Опыт работы с react native;\n• Опыт в бекэнде на различных языках программирования;\n• Опыт профилирования, оптимизации и рефакторинга кода;\n• Опыт написания тестов.\n\nМы используем: \n\n•  TypeScript + React + MobX + Gatsby;\n•  NestJS + gRPC + ProtoBuf (мидл-слой, управляющий UI и обращающийся к API бэк-энда);\n•  Micro Frontend Service;\n•  GitLab (CI/CD);\n•  Yarn + Lerna;\n•  Webpack/Rollup.\n\nМы предлагаем: \n\n•  Современный стек технологий;\n•  Возможность влиять на архитектуру и сразу видеть результат своей работы;\n•  Белая конкурентная ЗП, официальное оформление;\n•  Гибкий график работы, возможность выбора рабочего оборудования;\n•  ДМС, компенсация фитнеса, льготная ставка по ипотеке;\n•  Комфортный офис в БЦ «Белая площадь» (минута от метро): лаундж-зоны, бариста, фрукты.\n\n—\n\n👉 Обсуждение вакансии в чате @javascript_jobs","markup":[{"type":"hashtag","offset":0,"length":9,"data":"вакансия"},{"type":"hashtag","offset":10,"length":11,"data":"javascript"},{"type":"hashtag","offset":22,"length":7,"data":"nodejs"},{"type":"hashtag","offset":30,"length":11,"data":"typescript"},{"type":"hashtag","offset":42,"length":9,"data":"frontend"},{"type":"hashtag","offset":52,"length":7,"data":"middle"},{"type":"hashtag","offset":71,"length":15,"data":"Mетрквадратный"},{"type":"link","offset":87,"length":13,"data":"https://m2.ru"},{"type":"hashtag","offset":110,"length":7,"data":"москва"},{"type":"handle","offset":210,"length":11,"data":"maxdmitrov"},{"type":"handle","offset":1998,"length":16,"data":"javascript_jobs"}],"date":"2020-04-06T12:22:15+00:00","link":"tg://resolve?domain=javascript_jobs_feed&post=15443","tags":[{"name":"javascript"},{"name":"nodejs"},{"name":"typescript"},{"name":"reactjs"},{"name":"redux"},{"name":"html"},{"name":"css"},{"name":"rest"},{"name":"gitlab"},{"name":"webpack"},{"name":"react-native"}],"cities":[{"code":"moscow"}],"allowsRemote":false}}]}}},"context":{}}