{"hash":"f5f6bf98bd95e769321482904cbbd488f77922fd","data":{"records":{"id":"reactjs","name":"reactjs","belongsTo":{"totalCount":182,"pageInfo":{"totalPages":19,"currentPage":15},"edges":[{"node":{"__typename":"Job","id":"16981688320-1001110946746","title":"Js разработчик","text":"#вакансия #frontend  #React #офис #remote #Спб #senior \n\nКомпания: DBeaver\nЗ/п: 180 000 - 300 000 рублей на руки \nГород и адрес офиса: г. Санкт-Петербург (м. Площадь Ленина/Новочеркасская)\nФормат работы: офис или удаленка (приоритет кандидатам из Санкт-Петербурга)\nЗанятость: полная, fulltime\n\n🌏DВeaver  - это международный open source проект, бесплатный многоплатформенный инструмент для работы с базами данных. Поддерживает все популярные базы данных: MySQL, PostgreSQL, MariaDB, SQLite, Oracle, DB2, SQL Server, Sybase, MS Access, Teradata, Firebird, Derby и т. д. Платформа интегрируется с Amazon сервисами и нацелена на облачные решения. \n\nCейчас ребята разрабатывают web решение DВeaver, первый релиз состоялся в начале года и компания активно продолжает развитие. \n\n💠Какой опыт и знания ожидают увидеть ребята:\n- опыт работы с TypeScript и React;\n- опыт участия в многокомпонентных проектах со сложной бизнес-логикой;\n- опыт проектирования и рефакторинга;\n- готовность возглавить разработку интерфейсной части продукта, принимать ключевые архитектурные решения;\n- английский язык от уровня intermediate (письменный и на уровне чтения).\n\nСтек технологий: TypeScript, React, GraphQL, MobX, RxJS, Docker. \n\n💎Что получите вы:\n- комфортный офис в БЦ Бенуа;\n- возможность частично или полностью удаленной работы; \n- официальное оформление;\n- возможность поработать над крутым международным продуктом в сплоченной команде энтузиастов;\n- профессиональные командировки и конференции в США и Европу.\n\nКонтакты:\ne-mail: valeriya@luckyhunter.io\ntelegram: @sobolevavalery\nКА: http://luckyhunter.io\nБуду рада ответить на все вопросы и рассказать подробнее о компании 😊\n\n—\n\n👉 Обсуждение вакансии в чате @javascript_jobs","markup":[{"type":"hashtag","offset":0,"length":9,"data":"вакансия"},{"type":"hashtag","offset":10,"length":9,"data":"frontend"},{"type":"hashtag","offset":21,"length":6,"data":"React"},{"type":"hashtag","offset":28,"length":5,"data":"офис"},{"type":"hashtag","offset":34,"length":7,"data":"remote"},{"type":"hashtag","offset":42,"length":4,"data":"Спб"},{"type":"hashtag","offset":47,"length":7,"data":"senior"},{"type":"link","offset":1519,"length":23,"data":"mailto:valeriya@luckyhunter.io"},{"type":"handle","offset":1553,"length":15,"data":"sobolevavalery"},{"type":"link","offset":1573,"length":21,"data":"http://luckyhunter.io"},{"type":"handle","offset":1700,"length":16,"data":"javascript_jobs"}],"date":"2020-06-16T12:56:30+00:00","link":"tg://resolve?domain=javascript_jobs_feed&post=0","tags":[{"name":"javascript"},{"name":"reactjs"},{"name":"mysql"},{"name":"postgresql"},{"name":"mariadb"},{"name":"sqlite"},{"name":"oracle"},{"name":"sql"},{"name":"ms-access"},{"name":"web"},{"name":"typescript"},{"name":"graphql"},{"name":"rxjs"},{"name":"docker"},{"name":"sql-server"}],"cities":[],"allowsRemote":true}},{"node":{"__typename":"Job","id":"71383908352-1001054966032","title":"Mobile разработчик","text":"#вакансия #офис #краснодар #krasnodar #fulltime #react #native\n\n✅Вакансия: React developer \n✅Город: Краснодар\n✅Занятость: полная, офис\n✅ЗП вилка: 40 000 - 100 000р. \n✅Компания: WILIX\n\nПривет!\nМы создаём веб и мобильные приложения, помогаем большим и маленьким компаниям, разбросанным по всему Миру, создать надежные и быстрые программные решения.\nИщем React разработчика в свою команду!\n🙌Наши ожидания:\nJS, TypeScript,\nReact\nRedux (Redux-toolkit), \nReact Router (React Navigation), \nRedux Thunk, \nWebpack,\nHTML+CSS,\nBootstrap/material\n\nБудет плюсом:\nReact Native\nreselect, normalizr\nstyle-components, css-modules, css-in-js\n\n👍Что мы готовы предложить:\n- Работу в офисе (40 часов в неделю), возможна частичная удаленка \n- Комфортное рабочее место \n- Дружный и отзывчивый коллектив, выезды на природу и разного рода мероприятия \n- Mac или PC \n- Классика: Чай/Кофе/Печеньки/Тенис/XBox\n\nКонтакты: @Aleen_ku","markup":[{"type":"hashtag","offset":0,"length":9,"data":"вакансия"},{"type":"hashtag","offset":10,"length":5,"data":"офис"},{"type":"hashtag","offset":16,"length":10,"data":"краснодар"},{"type":"hashtag","offset":27,"length":10,"data":"krasnodar"},{"type":"hashtag","offset":38,"length":9,"data":"fulltime"},{"type":"hashtag","offset":48,"length":6,"data":"react"},{"type":"hashtag","offset":55,"length":7,"data":"native"},{"type":"handle","offset":895,"length":9,"data":"Aleen_ku"}],"date":"2020-06-16T11:49:43+00:00","link":"tg://resolve?domain=mobile_jobs&post=0","tags":[{"name":"mobile"},{"name":"reactjs"},{"name":"typescript"},{"name":"redux"},{"name":"webpack"},{"name":"html"},{"name":"css"},{"name":"bootstrap"},{"name":"react-native"},{"name":"react-redux"},{"name":"react-router"}],"cities":[{"code":"krasnodar"}],"allowsRemote":true}},{"node":{"__typename":"Job","id":"16977494016-1001110946746","title":"Js разработчик","text":"Всем привет.\nИщу Тимлид/Техлид команды в компанию bianca.\nС опытом TypeScript от 2-х лет, NodeJS от 3-х лет и Angular или React от 2-х лет.\n\nСеть химчисток Bianca-city это крупная сеть.\nУ нас предстоит развитие нескольких продуктов:  - собственной логистической платформы на Yandex.Routing - производственного модуля - CRM - клиентского мобильного приложения.\n\nЧто предстоит делать\n1) Технический аудит текущих проектов (инхаус + аутсорс), выработка первичной стратегии разработки, с учетом пожеланий бизнеса\n2) Обсуждение с СЕО и декомпозиция задач для текущей команды\n3) Контроль качества аутсорс-проектов\n4) Расширение инхаус-команды и аккумуляция задач на внутренних ресурсах\n\nФункционал: \n-управление командой 3 чел\n-контроль разработки от 2 аутсорсеров (мобайл+розничный блок)\n-интерес к продуктовой аналитике и улучшениям продукта\n\nЧто нужно уметь\nЗнания Node.js на уровне Senior\nFrontend –React/TypeScript/Angular и др.\nопыт постановки задач, код-ревью\nПожелания: развитые софт-скиллы для общения с собственником\n\nУсловия и преимущества \nБесплатные (неограниченно) услуги химчистки \nГрафик 5/2 с 10 до 19, возможно подвигать, возможно часть удаленно \n\n\nФормат работы: Работа в офисе у метро Электрозаводская (200 метров от метро). \nЗанятость: Полная. оформление по ТК РФ (возможность оформления через ИП)\nЗарплатная вилка: 200 000–300 000 ₽ / мес\n\n#вакансия #Frontend #Backend #TypeScript #NodeJS #Angular #МСК #офис #js #javascript #Fullstack\n\n—\n\n👉 Обсуждение вакансии в чате @javascript_jobs","markup":[{"type":"hashtag","offset":1356,"length":9,"data":"вакансия"},{"type":"hashtag","offset":1366,"length":9,"data":"Frontend"},{"type":"hashtag","offset":1376,"length":8,"data":"Backend"},{"type":"hashtag","offset":1385,"length":11,"data":"TypeScript"},{"type":"hashtag","offset":1397,"length":7,"data":"NodeJS"},{"type":"hashtag","offset":1405,"length":8,"data":"Angular"},{"type":"hashtag","offset":1414,"length":4,"data":"МСК"},{"type":"hashtag","offset":1419,"length":5,"data":"офис"},{"type":"hashtag","offset":1425,"length":3,"data":"js"},{"type":"hashtag","offset":1429,"length":11,"data":"javascript"},{"type":"hashtag","offset":1441,"length":10,"data":"Fullstack"},{"type":"handle","offset":1486,"length":16,"data":"javascript_jobs"}],"date":"2020-06-16T11:45:58+00:00","link":"tg://resolve?domain=javascript_jobs_feed&post=0","tags":[{"name":"javascript"},{"name":"typescript"},{"name":"nodejs"},{"name":"angularjs"},{"name":"reactjs"}],"cities":[],"allowsRemote":true}},{"node":{"__typename":"Job","id":"16973299712-1001110946746","title":"Javascript разработчик","text":"#вакансия # react #офис #москва #мск \nГород и адрес офиса:  #москва #мск  #арбатская\nФормат работы: офис, фултайм, гибкий график, можно удаленно (с редкими встречами в мск, поэтому важно, чтобы вы жили не очень далеко от мск)\nЗанятость: полная\nЗарплатная вилка: 170-250 т.р. net в зависимости от опыта\nОписание вакансии: \nИщу сейчас React разработчика в финтех проект (Openbanking, psd2) -  это новый продукт в онлайн покупках на европейском рынке, со своей «платежкой», которое сделает эту сферу более технологичной и еще проще и доступнее для пользователей:\n- новое удобное решение для b2c клиентов (мобильное приложение+web)\n- выгодные условия для b2b партнеров (низкие комиссии за транзакции) - web\n\nОформление белое, проект полностью с нуля, только собираем команду, есть возможность максимального влияния на продукт, на выбор технологий и построение процессов.\n\nНазвание компании:  Star-Staff\nКонтакты: пишите на этот тг @yuliaataman\n\n—\n\n👉 Обсуждение вакансии в чате @javascript_jobs","markup":[{"type":"hashtag","offset":0,"length":9,"data":"вакансия"},{"type":"hashtag","offset":18,"length":5,"data":"офис"},{"type":"hashtag","offset":24,"length":7,"data":"москва"},{"type":"hashtag","offset":32,"length":4,"data":"мск"},{"type":"hashtag","offset":60,"length":7,"data":"москва"},{"type":"hashtag","offset":68,"length":4,"data":"мск"},{"type":"hashtag","offset":74,"length":10,"data":"арбатская"},{"type":"handle","offset":927,"length":12,"data":"yuliaataman"},{"type":"handle","offset":974,"length":16,"data":"javascript_jobs"}],"date":"2020-06-16T11:39:23+00:00","link":"tg://resolve?domain=javascript_jobs_feed&post=0","tags":[{"name":"javascript"},{"name":"reactjs"},{"name":"dotnet"},{"name":"web"}],"cities":[{"code":"moscow"}],"allowsRemote":true}},{"node":{"__typename":"Job","id":"16970153984-1001110946746","title":"Js разработчик","text":"#вакансия #удаленка #fulltime #frontend #vue #nuxt #react\n\nКомпания: webland.design\nПозиция: frontend разарботчик\nФормат работы: удалённый, fulltime\n\nЗарплатная вилка: от 70 до 100 т.р на руки \n\nЗадачи:\n• Разработка веб-интерфейсов на vue.js/React\n• Активное участие в обсуждении задач.\n• Разработка нового функционала.\n• Доработка/Оптимизация существующего функционала.\n\nТребования:\n• Уверенное знание Javascript (ES6+)\n• Обязательное понимание экосистемы Vue/VueRouter/Vuex\n• Понимание принципов построения архитектуры большого приложения и принципов компонентного подхода.\n• Умение делать качественную кросс-браузерную адаптивную верстку (SCSS).\n• Опыт работы с Webpack и Babel.\n• Опыт работы с REST API\n\nБудет супер, если:\n•  Есть понимание принципов pixel perfect\n• Опыт использования серверного рендеринга (SSR) с использованием Nuxt.js.\n• Коммерческий опыт работы c React (Redux or Mobx)\n• Есть ИП или статус самозанятого\n\nСтек: \n• HTML5/JS/SCSS\n• Vue.js и/или React\n• Webpack/Babel\n• php или node.js REST API\n\nКонтакт: @alex_project\n\n—\n\n👉 Обсуждение вакансии в чате @javascript_jobs","markup":[{"type":"hashtag","offset":0,"length":9,"data":"вакансия"},{"type":"hashtag","offset":10,"length":9,"data":"удаленка"},{"type":"hashtag","offset":20,"length":9,"data":"fulltime"},{"type":"hashtag","offset":30,"length":9,"data":"frontend"},{"type":"hashtag","offset":40,"length":4,"data":"vue"},{"type":"hashtag","offset":45,"length":5,"data":"nuxt"},{"type":"hashtag","offset":51,"length":6,"data":"react"},{"type":"link","offset":69,"length":14,"data":"http://webland.design"},{"type":"handle","offset":1027,"length":13,"data":"alex_project"},{"type":"handle","offset":1075,"length":16,"data":"javascript_jobs"}],"date":"2020-06-16T10:19:35+00:00","link":"tg://resolve?domain=javascript_jobs_feed&post=0","tags":[{"name":"javascript"},{"name":"vuejs"},{"name":"reactjs"},{"name":"webpack"},{"name":"rest"},{"name":"redux"},{"name":"html"},{"name":"php"},{"name":"nodejs"},{"name":"react-redux"}],"cities":[],"allowsRemote":true}},{"node":{"__typename":"Job","id":"16968056832-1001110946746","title":"Js разработчик","text":"#вакансия #fulltime #frontend #vue #react\n\n⚫️ Junior frontend-разработчик\nФормат работы: удаленка\nЗанятость: полная\nТребуемый опыт работы: от 1 года.\nНазвание компании: Blackmagic, blackmagic.digital\nЗарплатная вилка: от 60 000 до 90 000 рублей. \n\nОписание вакансии: \n\nМы ищем Веб-программиста с опытом работы над реальными проектами. \n\nОсновная наша специализация SPA. Задачи бывают различной сложности. От поддержки проекта и выполенния разовых задач, до разработки c нуля. \n\nМы ищем ответственного человека, умеющего здраво оценивать свои силы и сроки. \n\nТребования к кандидату: \n— знания js, css, html \n— знание основ использования Git \n— знание адаптивной/резиновой верстки \n— опыт работы с любым веб-фреймворком (React/Vue) \n\nБудет большим плюсом: \n— знание Vue.js \n— знание препроцессоров (мы предпочитаем SCSS) \n— понимание Dоcker и CI/CD \n— GitLab Flow \n\nМы работает по недельным спринтам, используем GitLab. Есть ежедневные созвоны по статусу.\n\n🤙 Контакты:\nАлександр Силин\nTelegram @pushdatempo, alexander@blackmagic.digital\n\n—\n\n👉 Обсуждение вакансии в чате @javascript_jobs","markup":[{"type":"hashtag","offset":0,"length":9,"data":"вакансия"},{"type":"hashtag","offset":10,"length":9,"data":"fulltime"},{"type":"hashtag","offset":20,"length":9,"data":"frontend"},{"type":"hashtag","offset":30,"length":4,"data":"vue"},{"type":"hashtag","offset":35,"length":6,"data":"react"},{"type":"link","offset":181,"length":18,"data":"http://blackmagic.digital"},{"type":"handle","offset":993,"length":12,"data":"pushdatempo"},{"type":"link","offset":1007,"length":28,"data":"http://alexander@blackmagic.digital"},{"type":"handle","offset":1070,"length":16,"data":"javascript_jobs"}],"date":"2020-06-16T09:53:28+00:00","link":"tg://resolve?domain=javascript_jobs_feed&post=0","tags":[{"name":"javascript"},{"name":"vuejs"},{"name":"reactjs"},{"name":"css"},{"name":"html"},{"name":"git"},{"name":"gitlab"}],"cities":[],"allowsRemote":true}},{"node":{"__typename":"Job","id":"16960716800-1001110946746","title":"Js разработчик","text":"#вакансия #middle #спб #react #redux #emotion\n\nГород: Сантк-Петербург, ул. Рубинштейна (5 углов)\nФормат работы: офис\nЗанятость: полная\nЗарплатная вилка: от 80к до 130к рублей (на руки, больше по согласованию)\nИспользуемый стек: react 16 (hooks), redux, emotion\n\nОписание вакансии:\n\nПривет всем, мы разрабатываем крутые проекты, связанные прежде всего с физическим здоровьем людей, которые тратят его, зарабатывая себе на хлеб. Эти люди работают на складах, перенося коробки с места на место, в сортировочных центрах, доставляя вам посылки, на стройках, и в остальных местах, где требуется ручной труд.\nНаши решения помогают компаниям за границей измерять и управлять (с помощью носимых устройств) рисками возникновения травмы для своих сотрудников (подробнее можете ознакомиться по ссылке: https://soteranalytics.com/ ). Я сооснователь проекта и нам в сентябре исполнится 4 года. С помощью этого канала мы уже нашли двух сотрудников, которые успешно у нас работают, но сейчас такие времена, что чем быстрее мы сможем разработать новые фичи в наших продуктах, тем больше рынка сможем захватить.\n\nЧто нужно делать: нужно разрабатывать дэшборды и прочие веб интерфейсы для наших клиентов, так и для наших внутренних нужд.\n\nЧто требуется от вас: мы ценим самоорганизованность и очень не любим микроменеджмент. Также мы любим когда наши сотрудники развиваются у нас на глазах и всячески стараемся этому помочь. У нас также сформирована команда из опытных сотрудников, которые имеют экспертизы почти в каждой теме.\nТакже мы ценим, когда человек умеет решать проблемы, а не создавать их другим.\n\nКонтакты: писать мне в личку @pavko_a. В сообщении пишите что вы уже сделали на reactjs, чем вы гордитесь в своей работе, а также пару строк о себе и чем вы занимались на последнем проекте.\n\nЗабыл упомянуть: в команде очень много общения на английском, так как коммерческая команда находится в Лондоне и являются носителями языка. #doyourhomework","markup":[{"type":"hashtag","offset":0,"length":9,"data":"вакансия"},{"type":"hashtag","offset":10,"length":7,"data":"middle"},{"type":"hashtag","offset":18,"length":4,"data":"спб"},{"type":"hashtag","offset":23,"length":6,"data":"react"},{"type":"hashtag","offset":30,"length":6,"data":"redux"},{"type":"hashtag","offset":37,"length":8,"data":"emotion"},{"type":"link","offset":790,"length":27,"data":"https://soteranalytics.com/"},{"type":"handle","offset":1618,"length":8,"data":"pavko_a"},{"type":"hashtag","offset":1920,"length":15,"data":"doyourhomework"}],"date":"2020-06-16T09:16:21+00:00","link":"tg://resolve?domain=javascript_jobs_feed&post=0","tags":[{"name":"javascript"},{"name":"reactjs"},{"name":"redux"},{"name":"react-redux"}],"cities":[],"allowsRemote":false}},{"node":{"__typename":"Job","id":"2213543936-1001134745498","title":"Devops инженер","text":"#вакансия #fulltime #devops #удалёнка\n\nГород и адрес офиса: г. Москва, метро Динамо, 12 минут пешком через Петровский парк\n\nФормат работы: офис и/или удалёнка\n\nЗанятость: полная\n\nЗарплатная вилка:  150 000 фикс на руки\n\nОписание вакансии: \n\nДрузья!\n\nИщем DevOps в образовательный онлайн-проект https://edu.sirius.online \nНас сейчас 15 человек. \nЗанимаемся бесплатным дополнительным образованием. \nДелаем его доступным и качественным.\n\nЧем надо заниматься:\n– осваивать и развивать существующую инфраструктуру\n– совершенствовать процессы CI/CD\n– автоматизировать и оптимизировать\n– внедрять новые технологии и идеи\n– заниматься поддержкой и обслуживанием сервисов\n\nЧто надо уметь:\n– быть активным и ответственным \n– учиться и развиваться самостоятельно\n\nНаши технологии одним списком:\nReact, Haskell, GoLang, PostgreSQL, Redis, MINIO, Янлекс.Облако, Kubernetes, Rancher, EFK, Grafana, Prometheus, GitLab CI/CD, HELM.\n\nВ начале поможем, научим, подскажем.\n\nНазвание компании: \nФонд «Талант и успех» (Образовательный центр «Сириус»), г. Сочи\n\nКонтакты:\n@szemskov\nszemskov@sirius.online\n\n—\n\n👉 Обсуждение вакансии в чате @devops_jobs","markup":[{"type":"hashtag","offset":0,"length":9,"data":"вакансия"},{"type":"hashtag","offset":10,"length":9,"data":"fulltime"},{"type":"hashtag","offset":20,"length":7,"data":"devops"},{"type":"hashtag","offset":28,"length":9,"data":"удалёнка"},{"type":"link","offset":294,"length":25,"data":"https://edu.sirius.online"},{"type":"handle","offset":1049,"length":9,"data":"szemskov"},{"type":"link","offset":1059,"length":22,"data":"mailto:szemskov@sirius.online"},{"type":"handle","offset":1116,"length":12,"data":"devops_jobs"}],"date":"2020-06-16T07:58:20+00:00","link":"tg://resolve?domain=devops_jobs_feed&post=2111","tags":[{"name":"reactjs"},{"name":"haskell"},{"name":"go"},{"name":"postgresql"},{"name":"redis"},{"name":"kubernetes"},{"name":"gitlab"}],"cities":[{"code":"moscow"},{"code":"sochi"}],"allowsRemote":true}},{"node":{"__typename":"Job","id":"1686110208-1001091028994","title":"Java разработчик","text":"#вакансия #java #senior #middle \nЛокация: Саратов, Самара, Кемерово \nЗП: 80.000-170.000 на руки\nИщем в команду Java dev  уровня middle/senior в связи с большим количеством интересных проектов и расширения команды.\nКратко по стеку: \n[ Java 11+, Maven, Spring Boot 2+, Hibernate 5+, PostgreSQL 12, RabbitMQ ]\nТребования:\n - Java SE 8 и выше \n- Spring / Spring Boot \n- Hibernate или MyBatis\n- SQL (PostgreSQL) \n- Apache Tomcat или Eclipse Jetty или другой app server\n- Принципы ООП\n- Web сервисы (REST или SOAP).\n Будет плюсом: опыт работы с одним из актуальных frontend фреймворков - Angular, React, Vue; понимание принципов работы протоколов HTTP, HTTPS; работа с очередями (ActiveMQ, RabbitMQ) и опыт работы с Docker.\nЧто предлагаем:\n- белая з/п и оформление в штат;\n- интересные проекты и адекватное руководство; \n- возможность профессионального и карьерного роста;\n- формат интервью 1 этап по Skype или Zoom\nДля связи и резюме @KaterinaHR","markup":[{"type":"hashtag","offset":0,"length":9,"data":"вакансия"},{"type":"hashtag","offset":10,"length":5,"data":"java"},{"type":"hashtag","offset":16,"length":7,"data":"senior"},{"type":"hashtag","offset":24,"length":7,"data":"middle"},{"type":"handle","offset":929,"length":11,"data":"KaterinaHR"}],"date":"2020-06-16T07:55:35+00:00","link":"tg://resolve?domain=jvmjobs&post=1608","tags":[{"name":"java"},{"name":"jvm"},{"name":"maven"},{"name":"spring"},{"name":"hibernate"},{"name":"postgresql"},{"name":"rabbitmq"},{"name":"sql"},{"name":"apache"},{"name":"tomcat"},{"name":"eclipse"},{"name":"jetty"},{"name":"web"},{"name":"rest"},{"name":"soap"},{"name":"angularjs"},{"name":"reactjs"},{"name":"vuejs"},{"name":"docker"},{"name":"spring-boot"}],"cities":[{"code":"saratov"},{"code":"samara"},{"code":"kemerovo"}],"allowsRemote":false}},{"node":{"__typename":"Job","id":"16952328192-1001110946746","title":"Javascript разработчик","text":"#вакансия #frontend #react #typescript #middle #senior #москва #офис #fulltime\n\nПозиция – Frontend developer\nКомпания – Quadcom\nЛокация – Москва, м. Ботанический сад\nЗанятость – полная, офис, гибкое время начала дня\nОплата: от 150 000 до 200 000 рублей на руки\n\nМы ищем талантливого фронтенд-разработчика в нашу не очень большую, но дружную команду.\nЕсли ты легко осваиваешь новые технологии, любишь чистый и красивый код, знаешь алгоритмы и готов развиваться, то мы очень хотим тебя к себе!\n\nМы разрабатываем различные сервисы и интерфейсы для внутреннего и внешнего использования. У нас есть как большие проекты, так и маленькие. Начиная с 2014 года с небольшой команды мы развились до довольно большой компании и развиваемся дальше\n\nБазируемся в уютном бизнес-центре недалеко от метро Ботанический сад и ВДНХ. У нас гибкий рабочий график, современный офис и отличное оборудование для работы.\n\n✅ Необходимые навыки:\n\n• Знание Javascript и ES6+, React + Redux\n• Уверенные знания HTML, CSS/SASS/LESS\n• Опыт работы в команде с использованием Git и системой управления задачами\n\n✅ Плюсом будет:\n\n• Опыт написания собственного REST API\n• Знакомство с TypeScript\n• Знание алгоритмов и структур данных\n\n✅ Мы предлагаем:\n\n• Работу в успешной, растущей компании\n• Карьерный и профессиональный рост\n• Уютный офис\n• Отсутствие какого-либо дресс-кода\n• Свободный график\n• Адекватное руководство\n\nЗП от 150 000 до 200 000 рублей на руки\nпо итогам собеседования и испытательного срока\n\n☎️ Контакты для обсуждения вакансии:\n\ntelegram @codebor\ne-mail ybb@quadcom.ru\n\n💡Для желающих мы подготовили небольшое задание [~4 часа]\nhttps://github.com/walborn/test-backend-jwt/blob/master/task.md","markup":[{"type":"hashtag","offset":0,"length":9,"data":"вакансия"},{"type":"hashtag","offset":10,"length":9,"data":"frontend"},{"type":"hashtag","offset":20,"length":6,"data":"react"},{"type":"hashtag","offset":27,"length":11,"data":"typescript"},{"type":"hashtag","offset":39,"length":7,"data":"middle"},{"type":"hashtag","offset":47,"length":7,"data":"senior"},{"type":"hashtag","offset":55,"length":7,"data":"москва"},{"type":"hashtag","offset":63,"length":5,"data":"офис"},{"type":"hashtag","offset":69,"length":9,"data":"fulltime"},{"type":"handle","offset":1521,"length":8,"data":"codebor"},{"type":"link","offset":1537,"length":14,"data":"mailto:ybb@quadcom.ru"},{"type":"link","offset":1611,"length":63,"data":"https://github.com/walborn/test-backend-jwt/blob/master/task.md"}],"date":"2020-06-15T21:32:03+00:00","link":"tg://resolve?domain=javascript_jobs_feed&post=0","tags":[{"name":"javascript"},{"name":"reactjs"},{"name":"typescript"},{"name":"redux"},{"name":"html"},{"name":"css"},{"name":"sass"},{"name":"git"},{"name":"rest"},{"name":"github"},{"name":"jwt"},{"name":"react-redux"}],"cities":[{"code":"moscow"}],"allowsRemote":false}}]}}},"context":{}}