{"hash":"f5f6bf98bd95e769321482904cbbd488f77922fd","data":{"records":{"totalCount":669,"pageInfo":{"totalPages":67,"currentPage":58},"edges":[{"node":{"id":"1696595968-1001091028994","title":"Java разработчик","text":"#вакансия  #офис #удаленка #регионы #Москва #Java #Spring #senior #middle #backend\nЛокация: #регион #Москва\nФормат работы: #офис #fulltime #удаленка\nЗ/п: 150-250 NET\nКомпания: МД-IT\nВедущий разработчик/Разработчик JAVA  \nВсем привет!\n\n✅Нужны классные разработчики Java уровня Middle, Senior, Lead\n\n👉Немного о нас: \nЦентр разработки МД-IT реализует проекты федерального масштаба под ключ. Наши специалисты работают с крупнейшими системными интеграторами, выполняя задачи по проектированию, разработке, тестированию, сопровождению и эксплуатации внедренных решений. \nНаши офисы расположены в Москве, Ростове-на –Дону, Нижнем Новгороде. \n\n👉Что ждем от Вас:\n* Уверенные знания java 8+, spring boot, будет плюсом знание Kotlin. \n Глубокие знания и практический опыт использования Java в нагруженных многопоточных приложениях Hibernate, Spring, Maven3, ХML\n\n* Опыт проектирования версионнированных REST-API, знание grpc будет плюсом\n\n* Понимание принципов асинхронного программирования, знание одного из: netty, nio, r2dbc\n\n* Желателен опыт использования библиотек реактивного программирования (rxjava, reactor) или опыт работы с vert.x, ratpack или http4\n\n*Приветствуется опыт работы с современными архитектурами, Apache Ignite, Apache Kafka\n\n👉Что мы можем предложить Вам:\n\n* Работа: удаленка\n\n*График работы 5/2, команда работает с 9(10) до 18(19) ч. по МСК\n\n*Заработную плату белую, конкурентоспособную (рассмотрим ваши предложения).\n\n* Работа в команде сообразительных, открытых, стремящихся к развитию единомышленников.\n\n* Крупные и долгосрочные проекты, увеличивающие профессиональный кругозор и опыт работы. \n* Плюшки к чаю и кофе, оплачиваемая мобильная связь, оплачиваемые тренинги и курсы для повышения квалификации. \n\n🖍 Вопросы, резюме прошу писать в личку Елене @Elenazlh","markup":[{"type":"hashtag","offset":0,"length":9,"data":"вакансия"},{"type":"hashtag","offset":11,"length":5,"data":"офис"},{"type":"hashtag","offset":17,"length":9,"data":"удаленка"},{"type":"hashtag","offset":27,"length":8,"data":"регионы"},{"type":"hashtag","offset":36,"length":7,"data":"Москва"},{"type":"hashtag","offset":44,"length":5,"data":"Java"},{"type":"hashtag","offset":50,"length":7,"data":"Spring"},{"type":"hashtag","offset":58,"length":7,"data":"senior"},{"type":"hashtag","offset":66,"length":7,"data":"middle"},{"type":"hashtag","offset":74,"length":8,"data":"backend"},{"type":"hashtag","offset":92,"length":7,"data":"регион"},{"type":"hashtag","offset":100,"length":7,"data":"Москва"},{"type":"hashtag","offset":123,"length":5,"data":"офис"},{"type":"hashtag","offset":129,"length":9,"data":"fulltime"},{"type":"hashtag","offset":139,"length":9,"data":"удаленка"},{"type":"handle","offset":1772,"length":9,"data":"Elenazlh"}],"date":"2020-06-16T11:17:46+00:00","link":"tg://resolve?domain=jvmjobs&post=1618","tags":[{"name":"java"},{"name":"jvm"},{"name":"spring"},{"name":"dotnet"},{"name":"kotlin"},{"name":"hibernate"},{"name":"maven"},{"name":"rest"},{"name":"apache"},{"name":"kafka"},{"name":"spring-boot"}],"cities":[{"code":"moscow"}],"allowsRemote":true}},{"node":{"id":"71377616896-1001054966032","title":"Mobile разработчик","text":"#вакансия #RN #reactnative #офис #москва #мск #remote #удаленка \nГород и адрес офиса:  #москва #мск  #арбатская\nФормат работы: офис, фултайм, гибкий график, можно удаленно (с редкими встречами в мск, поэтому важно, чтобы вы жили не очень далеко от мск)\nЗанятость: полная\nЗарплатная вилка: 180-250 т.р. net готовы обсуждать\nОписание вакансии: \nИщу сейчас RN разработчика в финтех проект (Openbanking, psd2) -  это новый продукт в онлайн покупках на европейском рынке, со своей «платежкой», которое сделает эту сферу более технологичной и еще проще и доступнее для пользователей:\n- новое удобное решение для b2c клиентов (мобильное приложение)\n- выгодные условия для b2b партнеров (низкие комиссии за транзакции)\n\nОформление белое, проект полностью с нуля, только собираем команду, есть возможность максимального влияния на продукт, на выбор технологий и построение процессов.\n\nНазвание компании:  Star-Staff\nКонтакты: пишите на этот тг @yuliaataman","markup":[{"type":"hashtag","offset":0,"length":9,"data":"вакансия"},{"type":"hashtag","offset":10,"length":3,"data":"RN"},{"type":"hashtag","offset":14,"length":12,"data":"reactnative"},{"type":"hashtag","offset":27,"length":5,"data":"офис"},{"type":"hashtag","offset":33,"length":7,"data":"москва"},{"type":"hashtag","offset":41,"length":4,"data":"мск"},{"type":"hashtag","offset":46,"length":7,"data":"remote"},{"type":"hashtag","offset":54,"length":9,"data":"удаленка"},{"type":"hashtag","offset":87,"length":7,"data":"москва"},{"type":"hashtag","offset":95,"length":4,"data":"мск"},{"type":"hashtag","offset":101,"length":10,"data":"арбатская"},{"type":"handle","offset":935,"length":12,"data":"yuliaataman"}],"date":"2020-06-16T11:07:38+00:00","link":"tg://resolve?domain=mobile_jobs&post=0","tags":[{"name":"mobile"},{"name":"dotnet"}],"cities":[{"code":"moscow"}],"allowsRemote":true}},{"node":{"id":"71376568320-1001054966032","title":"Ios разработчик","text":"#вакансия #ios #swift #middle #senior #удаленка #remote #fulltime\n\niOS-разработчик удаленно от 200 тыс. руб.\n\nГород: Москва\nФормат работы: удаленно\nЗанятость: полная\nЗарплатная вилка: от 200 000 руб. до 250 000 руб. после налогообложения\nКомпания: CORE https://core.company\nОписание вакансии:\n\nМы команда разработчиков мобильных приложений и сейчас мы ищем iOS-разработчика для одного из наших финтех-проектов.\n\nОсновные требования:\n— Опыт работы от 2-х лет;\n— Знание Objective-C и Swift;\n— Опыт работы с Rx;\n— Знание шаблонов проектирования и умение их применять;\n— Понимание принципов SOLID;\n— Знание основных алгоритмов и структур данных;\n— Умение писать поддерживаемый и тестируемый код.\n\nУсловия:\n— Полный день, гибкий график;\n— Оформление по договору ГПХ.\n\nПрисылайте ваше резюме на @tv_corecompany","markup":[{"type":"hashtag","offset":0,"length":9,"data":"вакансия"},{"type":"hashtag","offset":10,"length":4,"data":"ios"},{"type":"hashtag","offset":15,"length":6,"data":"swift"},{"type":"hashtag","offset":22,"length":7,"data":"middle"},{"type":"hashtag","offset":30,"length":7,"data":"senior"},{"type":"hashtag","offset":38,"length":9,"data":"удаленка"},{"type":"hashtag","offset":48,"length":7,"data":"remote"},{"type":"hashtag","offset":56,"length":9,"data":"fulltime"},{"type":"link","offset":253,"length":20,"data":"https://core.company"},{"type":"handle","offset":789,"length":15,"data":"tv_corecompany"}],"date":"2020-06-16T10:59:05+00:00","link":"tg://resolve?domain=mobile_jobs&post=0","tags":[{"name":"mobile"},{"name":"ios"},{"name":"swift"},{"name":"objective-c"}],"cities":[{"code":"moscow"}],"allowsRemote":true}},{"node":{"id":"1694498816-1001091028994","title":"Java developer","text":"Senior Java/Kotlin Developer \nКомпания: Sage Seller (https://sageseller.com/)\n#удаленнаяработа #java #kotlin\n\nСтек: Java, Kotlin, Postgres, Hibernate, Spring Boot 2\n\nЧто делать: разрабатывать новый функционал, участвовать в проектировании модулей и компонент-системы, улучшать производительность и оптимизировать существующие решения, писать юнит и интеграционные тесты.\n\nЧто требуется: опыт разработки решений на Java, знание шаблонов проектирования, опыт улучшения производительности Java решений. Плюсом будет опыт работы с Kotlin и сервисами Amazon (Marketplace API и AWS).\n\nУсловия: комфортная удалёнка, интересные задачи, уровень дохода до 200К. \n\n✏️ Откликаться: @lanakononenko\n\nМы делаем сервисы для продавцов маркетплейса Amazon, в том числе финансовую и рекламную аналитику, много данных.\n\nПроект только запустился, сейчас в стадии общения с клиентами и получения обратной связи. \n\nТак что у нас отсутствие бюрократии, небольшая команда, вместе обсуждаем задачи и пути их реализации. \n\nВпереди масштабирование и сложные задачи, для которых надо находить простые решения","markup":[{"type":"bold","offset":0,"length":30,"data":""},{"type":"link","offset":53,"length":23,"data":"https://sageseller.com/"},{"type":"hashtag","offset":78,"length":16,"data":"удаленнаяработа"},{"type":"hashtag","offset":95,"length":5,"data":"java"},{"type":"hashtag","offset":101,"length":7,"data":"kotlin"},{"type":"bold","offset":110,"length":5,"data":""},{"type":"bold","offset":166,"length":12,"data":""},{"type":"bold","offset":372,"length":14,"data":""},{"type":"bold","offset":579,"length":8,"data":""},{"type":"bold","offset":657,"length":12,"data":""},{"type":"handle","offset":670,"length":14,"data":"lanakononenko"}],"date":"2020-06-16T10:54:55+00:00","link":"tg://resolve?domain=jvmjobs&post=1616","tags":[{"name":"java"},{"name":"jvm"},{"name":"kotlin"},{"name":"postgresql"},{"name":"hibernate"},{"name":"spring"},{"name":"amazon-web-services"},{"name":"spring-boot"}],"cities":[],"allowsRemote":true}},{"node":{"id":"1693450240-1001091028994","title":"Java разработчик","text":"Всем привет! \nИщу java-разработчиков для работы над высоконагруженными системами в финтех, в компанию с успешным опытом разработки опытом более 10 лет (расскажу в личке) , полностью распределенная команда – коллеги по всему миру и очень эффективны! \n#удаленка #java #remote #spring\nТех.требования: \n- java 7, 11;\n- Spring Framework;\n- Опыт коммерческой разработки от 3 лет;\n- Наличие проектов, вышедших в релиз ,если это финтех – супер! \n\nОчень важны: \n- Самоорганизация\n- Готовность работать удаленно и наличие опыта работы удаленно\n\nУсловия: \n- Официальное трудоустройство по ТК РФ ( для граждан стран СНГ – по договору ГПХ);\n- Понятная система грейдов, которая позволяет определить достижения и результаты сотрудника, скорректировать текущие цели и направление дальнейшего развития;\n-  Занятость фултайм 9-18 часов по Мск с возможным люфтом в 1-2 часа для  комфорта и продуктивности;\n- Работаем по agile, все четко, выстроенный процесс;\n- Вилка до 200 000р (индивидуально в зависимости от бэкграунда)\nИнтересно, есть вопросы – пиши мне, Алена @Lavelina","markup":[{"type":"hashtag","offset":250,"length":9,"data":"удаленка"},{"type":"hashtag","offset":260,"length":5,"data":"java"},{"type":"hashtag","offset":266,"length":7,"data":"remote"},{"type":"hashtag","offset":274,"length":7,"data":"spring"},{"type":"handle","offset":1046,"length":9,"data":"Lavelina"}],"date":"2020-06-16T10:52:42+00:00","link":"tg://resolve?domain=jvmjobs&post=1615","tags":[{"name":"java"},{"name":"jvm"},{"name":"spring"}],"cities":[],"allowsRemote":true}},{"node":{"id":"1692401664-1001091028994","title":"Java разработчик","text":"#remote #java #backend #удаленка\nНаш заказчик - Компания, которая предоставляет услуги по разработке программного обеспечения полного цикла для бизнеса по всему миру.\nКомпания постоянно прокачивает скиллы и предоставляет возможности для карьерного роста своих работников, как вертикального, так и горизонтального\"\nИщем в сильную команду разработчиков Java уровня middle, senior\nГород: Калининград, но вообще удаленно.                                                                                                                                                                                 Занятость: Полная                                                                                                                                                                                                                                          Вилка: 150 000- 200 000                                                                                                                                                                                                                         Задачи:\n•  Заниматься разработкой server-side, web back-end (J2EE);\n•  Успешно реализовывать и применять современные подходы, технологии и новейшие практики на реальных проектах (TDD, BDD, DDD);\n•  Вносить собственные предложения по архитектуре проекта;\n•  Декомпозировать пользовательские истории (User story) на задачи (в т.ч. для junior-разработчиков);\nКого мы хотим видеть в команде:\n•  Обладает опытом реализации собственных или коммерческих проектов;\n•  Имеет опыт разработки микросервесов на java;\n•  Имеет опыт работы с многопоточными приложениями;\n•  Имеет опыт работы с Docker;\n•  Умеет проектировать базы данных и работать с NoSQL базами данных;\n•  Умеет применять на практике Solid, Dry, Kiss, Yagni;\n•  Имеет опыт настройки CI/CD;\n•  Хорошо знает java core, java collections, multithreading;\n•  Имеет опыт работы с java frameworks (Spring/Spring Boot);\nБудет плюсом:\n•  Разговорный уровень английского языка будет плюсом;\nУсловия работы:\n•  Работать можно удаленно или в офисе в г. Калининград (предусмотрел релокационный пакет);\n•  Гибкий график работы;\n•  Официальное трудоустойство;\nЕсли вакансия заинтересовала или есть вопросы - пишите! @lavelina желательно сразу с резюме ☺️","markup":[{"type":"hashtag","offset":0,"length":7,"data":"remote"},{"type":"hashtag","offset":8,"length":5,"data":"java"},{"type":"hashtag","offset":14,"length":8,"data":"backend"},{"type":"hashtag","offset":23,"length":9,"data":"удаленка"},{"type":"handle","offset":2240,"length":9,"data":"lavelina"}],"date":"2020-06-16T10:51:59+00:00","link":"tg://resolve?domain=jvmjobs&post=1614","tags":[{"name":"java"},{"name":"jvm"},{"name":"web"},{"name":"docker"},{"name":"nosql"},{"name":"spring"},{"name":"spring-boot"}],"cities":[{"code":"kaliningrad"}],"allowsRemote":true}},{"node":{"id":"2215641088-1001134745498","title":"Devops engineer","text":"#вакансия #devops #fulltime #релокация #казань #удаленка \n\nВакансия: DevOps Engineer\nКомпания: Ак Барс Цифровые Технологии.\nЛокация: Казань, возможна релокация.\nФормат работы: офис и удаленный формат.\nЗанятость: полная.\nКонтакт:@aabilova\n\nВсем привет! Мы разрабатываем цифровые продукты в сфере финтех и находимся в поисках DevOps Engineer.\n\nЗадачи:\n•Сопровождение и развитие текущей инфраструктуры проекта, поддержка тестового окружения и переноса данных между тестовыми серверами.\n•Разработка инструментов и автоматизация процессов развертывания систем, проектов и окружений, организация стабильного процесса выпуска версий продуктов.\n•Планирование архитектуры, прогноз по нагрузке.\n•Взаимодействие с разработчиками и сисадминами, координация команд по смежным областям.\n•Решение возникающих в процессе развёртывания проблем.\n\nЖелателен опыт с:\n•ОС Linux (серверные и клиентские).\n•Системы контейнеризации (мы используем RedHat OpenShift).\n•Уверенные навыки Shell-скриптинга (Bash).\n•Continious Integration (Teamcity) \\ Continious Delivery (Octopus).\n•Системы мониторинга (SCOM \\ Zabbix).\n•NoSQL СУБД (MongoDB, Redis).\n•Системы контроля версий (GIT).\n•Веб-серверы и балансировщики нагрузки (Apache \\ nginx \\ haproxy).\n•Навыки использования аналогичных по функциональности инструментов вполне допустимы, инструменты - не главное, важно понимание.\n\nБазовая экспертиза в областях:\n•ОС Windows (серверные).\n•Системы виртуализации (Vmware), системы управления (Vcenter \\ Openstack).\n•Системы управления конфигурацией (Ansible \\ Chef \\ Puppet \\ SaltStack).\n•Реляционные СУБД (SQL Server \\ Postgre \\ Mysql).\n•Agile-разработка.\n•Информационная безопасность.\n•Архитектура информационных систем.\n\nЧто предлагаем:\n•Работа в команде профессионалов из разных городов с общими интересами и разными взглядами.\n•Официальное трудоустройство, белая зарплата.\n•Программа релокации для иногородних.\n•ДМС.\n•Комфортный офис (кухня, зоны отдыха, X-box, бесплатные парковочные места, фрукты).\n•Профессиональное развитие и обучение (внутренние и внешние профильные мероприятия).\n•Физическое развитие (спортивная комната, скидки на занятия в фитнес-центре, футбол).\n•Зарплата -  вилка 100-150 тыс.руб., обсуждается индивидуально на интервью.\n\nКонтакт:@aabilova\n\n—\n\n👉 Обсуждение вакансии в чате @devops_jobs","markup":[{"type":"hashtag","offset":0,"length":9,"data":"вакансия"},{"type":"hashtag","offset":10,"length":7,"data":"devops"},{"type":"hashtag","offset":18,"length":9,"data":"fulltime"},{"type":"hashtag","offset":28,"length":10,"data":"релокация"},{"type":"hashtag","offset":39,"length":7,"data":"казань"},{"type":"hashtag","offset":47,"length":9,"data":"удаленка"},{"type":"handle","offset":228,"length":9,"data":"aabilova"},{"type":"handle","offset":2227,"length":9,"data":"aabilova"},{"type":"handle","offset":2271,"length":12,"data":"devops_jobs"}],"date":"2020-06-16T10:19:49+00:00","link":"tg://resolve?domain=devops_jobs_feed&post=2113","tags":[{"name":"linux"},{"name":"shell"},{"name":"bash"},{"name":"nosql"},{"name":"mongodb"},{"name":"redis"},{"name":"git"},{"name":"apache"},{"name":"nginx"},{"name":"windows"},{"name":"ansible"},{"name":"sql"},{"name":"mysql"},{"name":"sql-server"}],"cities":[{"code":"kazan"}],"allowsRemote":true}},{"node":{"id":"16970153984-1001110946746","title":"Js разработчик","text":"#вакансия #удаленка #fulltime #frontend #vue #nuxt #react\n\nКомпания: webland.design\nПозиция: frontend разарботчик\nФормат работы: удалённый, fulltime\n\nЗарплатная вилка: от 70 до 100 т.р на руки \n\nЗадачи:\n• Разработка веб-интерфейсов на vue.js/React\n• Активное участие в обсуждении задач.\n• Разработка нового функционала.\n• Доработка/Оптимизация существующего функционала.\n\nТребования:\n• Уверенное знание Javascript (ES6+)\n• Обязательное понимание экосистемы Vue/VueRouter/Vuex\n• Понимание принципов построения архитектуры большого приложения и принципов компонентного подхода.\n• Умение делать качественную кросс-браузерную адаптивную верстку (SCSS).\n• Опыт работы с Webpack и Babel.\n• Опыт работы с REST API\n\nБудет супер, если:\n•  Есть понимание принципов pixel perfect\n• Опыт использования серверного рендеринга (SSR) с использованием Nuxt.js.\n• Коммерческий опыт работы c React (Redux or Mobx)\n• Есть ИП или статус самозанятого\n\nСтек: \n• HTML5/JS/SCSS\n• Vue.js и/или React\n• Webpack/Babel\n• php или node.js REST API\n\nКонтакт: @alex_project\n\n—\n\n👉 Обсуждение вакансии в чате @javascript_jobs","markup":[{"type":"hashtag","offset":0,"length":9,"data":"вакансия"},{"type":"hashtag","offset":10,"length":9,"data":"удаленка"},{"type":"hashtag","offset":20,"length":9,"data":"fulltime"},{"type":"hashtag","offset":30,"length":9,"data":"frontend"},{"type":"hashtag","offset":40,"length":4,"data":"vue"},{"type":"hashtag","offset":45,"length":5,"data":"nuxt"},{"type":"hashtag","offset":51,"length":6,"data":"react"},{"type":"link","offset":69,"length":14,"data":"http://webland.design"},{"type":"handle","offset":1027,"length":13,"data":"alex_project"},{"type":"handle","offset":1075,"length":16,"data":"javascript_jobs"}],"date":"2020-06-16T10:19:35+00:00","link":"tg://resolve?domain=javascript_jobs_feed&post=0","tags":[{"name":"javascript"},{"name":"vuejs"},{"name":"reactjs"},{"name":"webpack"},{"name":"rest"},{"name":"redux"},{"name":"html"},{"name":"php"},{"name":"nodejs"},{"name":"react-redux"}],"cities":[],"allowsRemote":true}},{"node":{"id":"16968056832-1001110946746","title":"Js разработчик","text":"#вакансия #fulltime #frontend #vue #react\n\n⚫️ Junior frontend-разработчик\nФормат работы: удаленка\nЗанятость: полная\nТребуемый опыт работы: от 1 года.\nНазвание компании: Blackmagic, blackmagic.digital\nЗарплатная вилка: от 60 000 до 90 000 рублей. \n\nОписание вакансии: \n\nМы ищем Веб-программиста с опытом работы над реальными проектами. \n\nОсновная наша специализация SPA. Задачи бывают различной сложности. От поддержки проекта и выполенния разовых задач, до разработки c нуля. \n\nМы ищем ответственного человека, умеющего здраво оценивать свои силы и сроки. \n\nТребования к кандидату: \n— знания js, css, html \n— знание основ использования Git \n— знание адаптивной/резиновой верстки \n— опыт работы с любым веб-фреймворком (React/Vue) \n\nБудет большим плюсом: \n— знание Vue.js \n— знание препроцессоров (мы предпочитаем SCSS) \n— понимание Dоcker и CI/CD \n— GitLab Flow \n\nМы работает по недельным спринтам, используем GitLab. Есть ежедневные созвоны по статусу.\n\n🤙 Контакты:\nАлександр Силин\nTelegram @pushdatempo, alexander@blackmagic.digital\n\n—\n\n👉 Обсуждение вакансии в чате @javascript_jobs","markup":[{"type":"hashtag","offset":0,"length":9,"data":"вакансия"},{"type":"hashtag","offset":10,"length":9,"data":"fulltime"},{"type":"hashtag","offset":20,"length":9,"data":"frontend"},{"type":"hashtag","offset":30,"length":4,"data":"vue"},{"type":"hashtag","offset":35,"length":6,"data":"react"},{"type":"link","offset":181,"length":18,"data":"http://blackmagic.digital"},{"type":"handle","offset":993,"length":12,"data":"pushdatempo"},{"type":"link","offset":1007,"length":28,"data":"http://alexander@blackmagic.digital"},{"type":"handle","offset":1070,"length":16,"data":"javascript_jobs"}],"date":"2020-06-16T09:53:28+00:00","link":"tg://resolve?domain=javascript_jobs_feed&post=0","tags":[{"name":"javascript"},{"name":"vuejs"},{"name":"reactjs"},{"name":"css"},{"name":"html"},{"name":"git"},{"name":"gitlab"}],"cities":[],"allowsRemote":true}},{"node":{"id":"102944997376-1001089317451","title":"Qa инженер","text":"#вакансия #remote #fulltime #qa #python#autotest#aurgajob\n\nКомпания: Auriga\nВакансия:  Инженер по автотестированию (Python) \nОпыт работы: от 1 года (нужны специалисты от junior до senior)\nЗарплата: до 130 000 р. на руки\nМесторасположение: Возможна полностью удаленная работа или любая из локаций Ауриги (Москва, Санкт-Петербург, Нижний Новгород, Ростов-на-Дону, Новосибирск)\nЗанятость: fulltime\n\n✅Задача команды – разработка и рефакторинг автотестов на Python для десктопных Windows приложений, которые работают с 3D моделями и позволяют врачам-ортодонтам создавать и отслеживать планы лечения пациентов.\n✅Наша цель - переработать текущий устоявшийся подход к автотестам, обеспечить масштабируемость и включить все тесты в автоматический процесс CI/CD.\n✅У нас гибкий график + адекватный руководитель = баланс работы и личной жизни, получится решать проектные задачи и проводить время с семьей, ходить на тренировки или заниматься хобби. \n✅Да-да,  на проекте можно работать из дома, даже после завершения самоизоляции, а если хочется общества - велком в любой из наших офисов (Москва, Питер, Нижний, Ростов, Новосибирск)\n✅Аурига разрабатывает ПО на заказ уже 30 лет, у компании много проектов - у вас гарантия занятости и возможность выбора. \n✅Будем радовать белой з/п, щедрой ДМС с прямым доступом и стоматологией за счет компании, дружескими посиделками на занятиях английского.\n\nРасскажу о вакансии и познакомлю с менеджером, пишите maria.babushkina@auriga.com или в телеграм @Maria_Auriga","markup":[{"type":"hashtag","offset":0,"length":9,"data":"вакансия"},{"type":"hashtag","offset":10,"length":7,"data":"remote"},{"type":"hashtag","offset":18,"length":9,"data":"fulltime"},{"type":"hashtag","offset":28,"length":3,"data":"qa"},{"type":"bold","offset":59,"length":10,"data":""},{"type":"bold","offset":76,"length":11,"data":""},{"type":"bold","offset":125,"length":13,"data":""},{"type":"bold","offset":188,"length":10,"data":""},{"type":"bold","offset":220,"length":18,"data":""},{"type":"bold","offset":375,"length":11,"data":""},{"type":"link","offset":1435,"length":27,"data":"mailto:maria.babushkina@auriga.com"},{"type":"handle","offset":1478,"length":13,"data":"Maria_Auriga"}],"date":"2020-06-16T09:46:43+00:00","link":"tg://resolve?domain=qa_jobs&post=0","tags":[{"name":"qa"},{"name":"python"},{"name":"windows"}],"cities":[{"code":"moscow"},{"code":"rostov"},{"code":"novosibirsk"},{"code":"nizhny-novgorod"}],"allowsRemote":true}}]}},"context":{}}