{"hash":"f34fd2c444a074f4e0e67d525015a008ef8e766f","data":{"records":{"id":"typescript","name":"typescript","belongsTo":{"totalCount":29,"pageInfo":{"totalPages":3,"currentPage":3},"edges":[{"node":{"__typename":"Job","id":"16187916288-1001110946746","title":"Javascript разработчик","text":"#вакансия #blockchain #senior #moscow #inhouse #typescript\nМосква, Павелецкая (5 мин пешком), офис\nКомпания DAO Group\nПолная занятость\n🏆От 200 до 300к net\nИщем Senior #Frontend || #React разработчика\nУ компании несколько уже работающих продуктов (я про них расскажу).\n\nСейчас занимаемся разработкой b2b crypto-payment решения. Проекту 2 месяца, релиз намечен на конец апреля.\nОсновное — разработка нового функционала SPA. В команде 7 чел, есть Senior Front+верстальщик. \n\nДля тебя:\n— Продукт с 0, поэтому важно использовать новые и свежие решения.\n— Офис с мягким началом дня. Мы делаем продукт в команде, а без личного общения сделать все быстро и качественно довольно сложно. Удаленки нет.\n— Деньги — это важно, и мы готовы обсуждать твои ожидания (и даже в $).\n\nПодробнее о вакансии: https://hh.ru/vacancy/36489938\nПиши мне: @isaevakristi, почта shukarek92@gmail.com","markup":[{"type":"hashtag","offset":0,"length":9,"data":"вакансия"},{"type":"hashtag","offset":10,"length":11,"data":"blockchain"},{"type":"hashtag","offset":22,"length":7,"data":"senior"},{"type":"hashtag","offset":30,"length":7,"data":"moscow"},{"type":"hashtag","offset":38,"length":8,"data":"inhouse"},{"type":"hashtag","offset":47,"length":11,"data":"typescript"},{"type":"hashtag","offset":168,"length":9,"data":"Frontend"},{"type":"hashtag","offset":181,"length":6,"data":"React"},{"type":"link","offset":788,"length":30,"data":"https://hh.ru/vacancy/36489938"},{"type":"handle","offset":829,"length":13,"data":"isaevakristi"},{"type":"link","offset":850,"length":20,"data":"mailto:shukarek92@gmail.com"}],"date":"2020-04-06T09:47:12+00:00","link":"tg://resolve?domain=javascript_jobs_feed&post=15438","tags":[{"name":"javascript"},{"name":"typescript"},{"name":"dotnet"},{"name":"reactjs"}],"cities":[{"code":"moscow"}],"allowsRemote":false}},{"node":{"__typename":"Job","id":"16185819136-1001110946746","title":"Js разработчик","text":"#вакансия #react #typescript #node #postgresql\n\nФормат: #офис #удаленка (временно)\nЗанятость: #полная\nЛокации: #Москва #Киевская #ПаркКультуры\nЗарплата: 80000 - 160000 руб\nВакансия: 💻fullstack, уровень от junior.\n\n‼️ Мы ищем typescript react разработчика с уклоном в fullstack на nodejs, которому помимо программирования был бы интересен и сам продукт, который умеет отстаивать свою точку зрения и предлагать новые идеи. Если у вас нет опыта по каким то пунктам - это не причина не пообщаться. Мы готовы рассмотреть кандидатов с разным уровнем и в случае успеха научим всему сами.\n\nМы предлагаем:\n🔸Дух \"гаражного\" стартапа (компания появилась совсем недавно);\n🔸Множество интересных и сложных задач;\n🔸Высокая степень влияния на конечный продукт;\n🔸Конкурентная заработная плата;\n🔸Гибкий график;\n🔸Участие в опционной программе в будущем.\n\nЧем предстоит заниматься:\n🔸Проектирование архитектуры проекта с нуля;\n🔸Разработки интерфейсов на antd для бэкоффиса;\n🔸Разработка api (#nodejs, #typescript, #graphql, #postgres);\n🔸Улучшение процессов автоматизации.\n\nТребования:\n🔸Уверенные знания #nodejs и #javascript / #typescript;\n🔸Знание веб фреимворков (#express);\n🔸Уверенные знания фронтенда (#react);\n🔸Опыт работы с #git.\n\nБудет плюсом:\n🔸Опыт работы с реляционными базами данных (#postgresql);\n🔸Опыт работы с #docker, #graphql.\n\n🛠 Название компании: cтартап, у нас еще нет официального названия.\n\n📱 Контакты: Сергей tel:+79167248788, mailto:ser.alexeev@gmail.com, tg:@seralexeev","markup":[{"type":"hashtag","offset":0,"length":9,"data":"вакансия"},{"type":"hashtag","offset":10,"length":6,"data":"react"},{"type":"hashtag","offset":17,"length":11,"data":"typescript"},{"type":"hashtag","offset":29,"length":5,"data":"node"},{"type":"hashtag","offset":35,"length":11,"data":"postgresql"},{"type":"hashtag","offset":56,"length":5,"data":"офис"},{"type":"hashtag","offset":62,"length":9,"data":"удаленка"},{"type":"hashtag","offset":94,"length":7,"data":"полная"},{"type":"hashtag","offset":111,"length":7,"data":"Москва"},{"type":"hashtag","offset":119,"length":9,"data":"Киевская"},{"type":"hashtag","offset":129,"length":13,"data":"ПаркКультуры"},{"type":"hashtag","offset":980,"length":7,"data":"nodejs"},{"type":"hashtag","offset":989,"length":11,"data":"typescript"},{"type":"hashtag","offset":1002,"length":8,"data":"graphql"},{"type":"hashtag","offset":1012,"length":9,"data":"postgres"},{"type":"hashtag","offset":1093,"length":7,"data":"nodejs"},{"type":"hashtag","offset":1103,"length":11,"data":"javascript"},{"type":"hashtag","offset":1117,"length":11,"data":"typescript"},{"type":"hashtag","offset":1156,"length":8,"data":"express"},{"type":"hashtag","offset":1197,"length":6,"data":"react"},{"type":"hashtag","offset":1222,"length":4,"data":"git"},{"type":"hashtag","offset":1287,"length":11,"data":"postgresql"},{"type":"hashtag","offset":1317,"length":7,"data":"docker"},{"type":"hashtag","offset":1326,"length":8,"data":"graphql"},{"type":"link","offset":1430,"length":12,"data":"tel:+79167248788"},{"type":"link","offset":1451,"length":21,"data":"mailto:ser.alexeev@gmail.com"},{"type":"handle","offset":1477,"length":11,"data":"seralexeev"}],"date":"2020-04-06T07:40:09+00:00","link":"tg://resolve?domain=javascript_jobs_feed&post=15436","tags":[{"name":"javascript"},{"name":"reactjs"},{"name":"typescript"},{"name":"nodejs"},{"name":"postgresql"},{"name":"graphql"},{"name":"express"},{"name":"git"},{"name":"docker"}],"cities":[{"code":"moscow"},{"code":"kiev"}],"allowsRemote":true}},{"node":{"__typename":"Job","id":"16183721984-1001110946746","title":"Js разработчик","text":"Greenatom.ru\n#вакансия #Москва #javascript #React #Typescript #Node.js #Middle #Senior #удаленка\n\n👨🏼‍💻 Middle/Senior Frontend Developer, Middle/Senior Backend Developer\nГород и адрес офиса: #Москва, 1-й Нагатинский проезд, 10с1, метро Нагатинская\n\nФормат работы: офис или частичная удаленка на выбор\n\n💻Занятость: полная, гибкое начало трудового дня.\n\nЗарплатная вилка: от 170 000 до 230 000 руб. на руки.\n\n🏢Компания: АО Гринатом\n\nПривет! Мы растём и активно развиваем ряд внутренних проектов: например, корпоративный портал, горячая линия. Мы формируем несколько команд и ищем классных:\n\n✅фронтенд разработчиков;\n\n✅бэкенд разработчиков. \n\nПроекты в стадии разработки пилота и у тебя есть возможность повлиять на дальнейшее развитие продукта. Если у тебя есть крутые идеи - ты сможешь их здесь реализовать! Откликайся сам и зови друзей! Вирус пройдёт, работа останется!\n\n✅Требуемые знания и навыки:\n- Опыт разработки от двух лет\n- Хорошее знание чистого JS\n- Опыт работы с TypeScript\n- React, MobX, Less/Sass\n- Опыт написания юнит-тестов с помощью Jest, Enzymе очень приветствуется\n\n💡Наш стек:\n      React, TypeScript, Node.js, MobX, Docker\n\nМы работаем по Scrum.\n\n✅Условия:\n- Официальное оформление по ТК, белая зп;\n- Возможности профессионального и карьерного роста;\n- Дополнительные 3 дня к отпуску;\n- Плавающее начало дня;\n- Удаленка после прохождения испытательного срока (3 месяца)\n- ДМС со стоматологией\n\n☎️Контакты:\nЮлия - YAnZueva@Greenatom.ru","markup":[{"type":"link","offset":0,"length":12,"data":"http://Greenatom.ru"},{"type":"hashtag","offset":13,"length":9,"data":"вакансия"},{"type":"hashtag","offset":23,"length":7,"data":"Москва"},{"type":"hashtag","offset":31,"length":11,"data":"javascript"},{"type":"hashtag","offset":43,"length":6,"data":"React"},{"type":"hashtag","offset":50,"length":11,"data":"Typescript"},{"type":"hashtag","offset":62,"length":5,"data":"Node"},{"type":"hashtag","offset":71,"length":7,"data":"Middle"},{"type":"hashtag","offset":79,"length":7,"data":"Senior"},{"type":"hashtag","offset":87,"length":9,"data":"удаленка"},{"type":"hashtag","offset":193,"length":7,"data":"Москва"},{"type":"link","offset":1436,"length":21,"data":"mailto:YAnZueva@Greenatom.ru"}],"date":"2020-04-05T14:32:33+00:00","link":"tg://resolve?domain=javascript_jobs_feed&post=15434","tags":[{"name":"javascript"},{"name":"reactjs"},{"name":"typescript"},{"name":"nodejs"},{"name":"sass"},{"name":"docker"}],"cities":[{"code":"moscow"}],"allowsRemote":true}},{"node":{"__typename":"Job","id":"16182673408-1001110946746","title":"Javascript разработчик","text":"#вакансия #екб #екатеринбург #react #frontend #middle\n\nПозиция: Разработчик React \nКомпания: SoftMediaLab \nЛокация: Екатеринбург \nФормат работы: #удаленка или  #офис\nЗанятость: #фултайм \nЗП 110 000 - 140 000 рублей на руки\nКонтакты: @iamanastasie  или @Ekaterina_Mitroshkina \n\nSoftMediaLab – была основана в 2015 году в городе Екатеринбурге. Основатели компании – разработчики, поэтому никакой бюрократии и странных решений, процессы максимально простые и понятные, среда дружественная. \nРазрабатываем в основном стартапы для России, Европы и Америки. На данный момент более 50 выполненных проектов в России, Канаде, Европе, Израиле, Сингапуре и США. \n\nЗадачи: \n- улучшать имеющийся функционал и разрабатывать новый \n- участвовать в принятии архитектурных решений \nСтек: react, redux, typescript, bootstrap, material-ui, JQuery, sass, less\n\nДля связи @Ekaterina_Mitroshkina  или @iamanastasie","markup":[{"type":"hashtag","offset":0,"length":9,"data":"вакансия"},{"type":"hashtag","offset":10,"length":4,"data":"екб"},{"type":"hashtag","offset":15,"length":13,"data":"екатеринбург"},{"type":"hashtag","offset":29,"length":6,"data":"react"},{"type":"hashtag","offset":36,"length":9,"data":"frontend"},{"type":"hashtag","offset":46,"length":7,"data":"middle"},{"type":"hashtag","offset":145,"length":9,"data":"удаленка"},{"type":"hashtag","offset":160,"length":5,"data":"офис"},{"type":"hashtag","offset":177,"length":8,"data":"фултайм"},{"type":"handle","offset":233,"length":13,"data":"iamanastasie"},{"type":"handle","offset":252,"length":22,"data":"Ekaterina_Mitroshkina"},{"type":"handle","offset":851,"length":22,"data":"Ekaterina_Mitroshkina"},{"type":"handle","offset":879,"length":13,"data":"iamanastasie"}],"date":"2020-04-05T14:31:46+00:00","link":"tg://resolve?domain=javascript_jobs_feed&post=0","tags":[{"name":"javascript"},{"name":"reactjs"},{"name":"redux"},{"name":"typescript"},{"name":"bootstrap"},{"name":"jquery"},{"name":"sass"},{"name":"react-redux"}],"cities":[],"allowsRemote":true}},{"node":{"__typename":"Job","id":"24239931392-1001075660570","title":"Php разработчик","text":"#вакансия #php \nВакансия: PHP-разработчик\nФормат работы: удаленка\nЗанятость: полная\nЗарплата: 1500 EUR/месяц\n\nВ IT компанию приглашается PHP-разработчик.\n\nОбязанности:\n- проектирование, разработка, тестирование и поддержка кода на PHP;\n- проектирование структур баз данных;\n- разработка модулей к существующим проектам;\n- улучшение существующего кода и решений;\n- поддержание целостности архитектуры проекта.\n\nТребования:\n- опыт работы PHP программистом более 1 года; \n- уверенное владение PHP, HTML, CSS, JavaScript, MySQL;\n- опыт и понимание принципов проектирования структур баз данных;\n- понимание принципов объектно-ориентированного дизайна программ;\n- умение использовать операционные системы типа *nix;\n- владение Git и понимание принципов Git Flow;\n- приветствуется понимание TDD, BDD, опыт автоматизированного тестирования;\n- приветствуется опыт работы с технологиями Memcached, Redis, RabbitMQ, MongoDB, Cassandra, Kafka;\n- приветствуется опыт работы с другими языками Python, Ruby, TypeScript, Go, Rust;\n- умение работать в команде, желание перенимать опыт коллег и делиться собственным опытом;\n- умение и желание докапываться до сути;\n- умение поддерживать порядок и быть педантом в вопросах качества;\n- умение читать и понимать техническую литературу на английском языке;\n- терпеливое отношение к чужому коду и к критике собственного;\n- наличие широкого Интернет-канала и настроенной программы Skype, позволяющих поддерживать качественную видеосвязь.\n\nУсловия и основные принципы:\n- удаленная работа (не фриланс);\n- полная занятость (5 дней в неделю, 8/6/4 часов в день по выбору);\n- ставка заработной платы 1500 EUR (8 часов), 1125 EUR (6 часов) или 750 EUR (4 часа) в месяц;\n- возможен переезд за границу.\n\nПодробности @trlogic","markup":[{"type":"hashtag","offset":0,"length":9,"data":"вакансия"},{"type":"hashtag","offset":10,"length":4,"data":"php"},{"type":"handle","offset":1734,"length":8,"data":"trlogic"}],"date":"2020-04-01T20:18:09+00:00","link":"tg://resolve?domain=php_jobs&post=23117","tags":[{"name":"php"},{"name":"html"},{"name":"css"},{"name":"javascript"},{"name":"mysql"},{"name":"git"},{"name":"redis"},{"name":"rabbitmq"},{"name":"mongodb"},{"name":"cassandra"},{"name":"kafka"},{"name":"python"},{"name":"ruby"},{"name":"typescript"},{"name":"rust"}],"cities":[],"allowsRemote":true}},{"node":{"__typename":"Job","id":"211812352-1001352129329","title":"Go разработчик","text":"#вакансия #Ижевск #fulltime\n\nКомпания: Ростелеком БПМ (коллаборация ELMA + Ростелеком)\nНазвание вакансии: go-разработчик\nЗарплатная вилка: 90 000 - 180 000 RUB\nУдаленка: нет, офис\nГород: Ижевск\nНеобходимость знания языков: русский\n\nСписок необходимых навыков: \nЯзыки: go, angular+typescript. \nБД: postgres, mongodb, redis, rabbitmq. \nИнфраструктура: kubernetes, docker.\n+ отсутствие предубеждений против написания логики на фронтенде (многие компоненты готовы и конструирование интерфейса чаще сводится к сборке конструктора, но логику сложных валидаций и обмена данными необходимо будет писать);\n+ опыт работы в команде.\n\nО компании и проекте:\nКомпания Ростелеком БПМ — это коллаборация двух лидеров ИТ-рынка в своей области- ELMA и Ростелеком с целью создания новой BPM-платформы, которая позволит автоматизировать процессы, связанные с оказанием государственных и муниципальн.ых услуг\nНаш продукт — это самый масштабный государственный ИТ-проект в России, с соответствующим бюджетом. И делаться он будет здесь, в Удмуртии! \nМы ищем профессионалов, которые готовы вложить весь свой опыт разработки в создание мощной bpm-платформы.\n\nКонтактное лицо:  @ohhcheese\n Автор @ohhcheese","markup":[{"type":"hashtag","offset":0,"length":9,"data":"вакансия"},{"type":"hashtag","offset":10,"length":7,"data":"Ижевск"},{"type":"hashtag","offset":18,"length":9,"data":"fulltime"},{"type":"handle","offset":1152,"length":10,"data":"ohhcheese"},{"type":"handle","offset":1170,"length":10,"data":"ohhcheese"}],"date":"2020-01-28T09:50:05+00:00","link":"tg://resolve?domain=gogetajobfeed&post=202","tags":[{"name":"go"},{"name":"angularjs"},{"name":"typescript"},{"name":"postgresql"},{"name":"mongodb"},{"name":"redis"},{"name":"rabbitmq"},{"name":"kubernetes"},{"name":"docker"}],"cities":[{"code":"izhevsk"}],"allowsRemote":false}},{"node":{"__typename":"Job","id":"60817408-1001375797688","title":".net разработчик","text":"#вакансия #спб #удалённо #upper-intermediate\nз\\р 3500-4000$\nResponsibilities:\n- Working within an Agile team to develop, test, and maintain SharePoint business applications built on Microsoft technologies.  \n- Participating with the team in the collection and documentation of user's requirements, development of user stories, and estimates.  \n- Design, develop, and unit test applications in accordance with established standards - Involved in High Level and Low Lever estimation process \n- Participating in reviews of other Agile team’s applications and code - Participating in application system and integration testing. \n- Package and support deployment of releases.  \n- Adhering to high-quality development principles while delivering solutions on-time and on budget.  \n- Providing third-level support to Business users. \n- Analyzing and resolving technical and application problems.  \n- Preparing reports, manuals and other documentation  \n- Work with Architect to develop best practices for solution development.\nMinimum Requirements \n - College or University degree in Computer Science or a related discipline  \n- Motivated with a strong desire to learn  \n- Clearly articulate ideas and thoughts verbally\nCore Competency Requirements  \n- Experience of Angular Framework, Typescript, SharePoint Framework, JavaScript, HTML, CSS, Bootstrap, SharePoint Online out of the box components (Workflow, Web Parts, Lists, Libraries), relational database, Microsoft Azure, C#, .NET (OOPs Concepts)\nPreferred Competency Requirements  \n- 6 or more years of experience with Microsoft .NET development using C#  \n- 6 or more years of experience with SQL Server database design and development. \n- 2 or more years of experience with Office 365. SPFX development \n- 6 or more years of experience with web development using HTML5, CSS and JavaScript, Angular Framework, Typescript \n- 3 or more years of experience with agile development methodologies  \n- 6 or more years of experience with unit testing, system testing, integration testing.\nконтакт @erzentd","markup":[{"type":"hashtag","offset":0,"length":9,"data":"вакансия"},{"type":"hashtag","offset":10,"length":4,"data":"спб"},{"type":"hashtag","offset":15,"length":9,"data":"удалённо"},{"type":"hashtag","offset":25,"length":6,"data":"upper"},{"type":"pre","offset":60,"length":1970,"data":""},{"type":"handle","offset":2039,"length":8,"data":"erzentd"}],"date":"2019-12-04T15:35:31+00:00","link":"tg://resolve?domain=DotNetRuJobsFeed&post=58","tags":[{"name":"dotnet"},{"name":"csharp"},{"name":"sharepoint"},{"name":"deployment"},{"name":"angularjs"},{"name":"typescript"},{"name":"javascript"},{"name":"html"},{"name":"css"},{"name":"bootstrap"},{"name":"web"},{"name":"azure"},{"name":"sql"},{"name":"sql-server"},{"name":"unit-testing"}],"cities":[],"allowsRemote":true}},{"node":{"__typename":"Job","id":"58720256-1001375797688","title":".net developer","text":"#Москва #вакансия #офис #net #developer #fullstack #backend\n\nВ настоящее время мы ищем коллегу в нашу команду разработки. C 2014 года мы разрабатываем облачное решение для автоматизации процессов перевода, наш продукт работает в 200 странах.\n\nЧто предлагаем:\nОфициальное оформление по ТК РФ с первого дня.\nПолностью \"белая\" заработная плата 150-200К на руки.\nРабота в офисе или удаленно.\nГибкий график работы.\n\nПожелания:\nОпыт создания и продакшн-эксплуатации веб-приложений в .Net стеке.\nПонимание и осознанное применение принципов ООП и паттернов проектирования.\nХорошее знание C# и понимание его особенностей.\nОпыт разработки приложений с конкурентным доступом к ресурсам в БД.\nОпыт разработки фронтэнда для нетривиальных web-приложений на любом из современных фреймворков: Vue.js, AngularJS, Angular 2+, ReactJS.\nЗнание JavaScript, TypeScript, HTML 5, CSS 3.\nОпыт работы с NoSQL.\n\nКакие задачи будут стоять:\nПроектирование, разработка и рефакторинг высоконагруженных веб-приложений с высокими требованиями к производительности и доступности.\nРабота на общий результат в кросс-функциональной скрам-команде, активное взаимодействие с коллегами, участие в решении широкого спектра задач.\nТесное взаимодействие с менеджерами по продукту.\nПроведение код-ревью, участие в выработке архитектурных и проектных решений.\n\nЕсли позиция full stack'а - это не совсем подходящая роль, то мы можем обсудить и другие возможности и варианты.\n\nЕсли вы тот человек, которого мы ищем, напишите в ЛС - @dnotna","markup":[{"type":"hashtag","offset":0,"length":7,"data":"Москва"},{"type":"hashtag","offset":8,"length":9,"data":"вакансия"},{"type":"hashtag","offset":18,"length":5,"data":"офис"},{"type":"hashtag","offset":24,"length":4,"data":"net"},{"type":"hashtag","offset":29,"length":10,"data":"developer"},{"type":"hashtag","offset":40,"length":10,"data":"fullstack"},{"type":"hashtag","offset":51,"length":8,"data":"backend"},{"type":"handle","offset":1485,"length":7,"data":"dnotna"}],"date":"2019-11-27T14:39:20+00:00","link":"tg://resolve?domain=DotNetRuJobsFeed&post=56","tags":[{"name":"dotnet"},{"name":"csharp"},{"name":"web"},{"name":"vuejs"},{"name":"angularjs"},{"name":"reactjs"},{"name":"javascript"},{"name":"typescript"},{"name":"html"},{"name":"css"},{"name":"nosql"}],"cities":[{"code":"moscow"}],"allowsRemote":true}},{"node":{"__typename":"Job","id":"44040192-1001375797688","title":".net разработчик","text":"#вакансия #москва #офис Мидл разработчик ЗП:100-140 руб белая на карточку сбера пилим свою платформу с сервисной архитектурой, а на ней два продукта. Стек ASP .NET Core + голый TypeScript + MSSQL/PostgreSQL (windows/Linux) детальное описание вакансии тут https://hh.ru/vacancy/33744101 примеры реализации можно посмотреть тут https://youtu.be/TpHSMOcZ4qM","markup":[{"type":"hashtag","offset":0,"length":9,"data":"вакансия"},{"type":"hashtag","offset":10,"length":7,"data":"москва"},{"type":"hashtag","offset":18,"length":5,"data":"офис"},{"type":"link","offset":255,"length":30,"data":"https://hh.ru/vacancy/33744101"},{"type":"link","offset":326,"length":28,"data":"https://youtu.be/TpHSMOcZ4qM"}],"date":"2019-11-06T23:56:08+00:00","link":"tg://resolve?domain=DotNetRuJobsFeed&post=42","tags":[{"name":"dotnet"},{"name":"csharp"},{"name":"typescript"},{"name":"sql-server"},{"name":"postgresql"},{"name":"windows"},{"name":"linux"},{"name":"asp-net"},{"name":"net-core"},{"name":"asp-net-core"}],"cities":[{"code":"moscow"}],"allowsRemote":false}}]}}},"context":{}}