{"hash":"f5f6bf98bd95e769321482904cbbd488f77922fd","data":{"records":{"id":"russia/kazan","country":{"code":"russia","ruName":"Россия","enName":"Russia"},"city":{"code":"kazan","ruName":"Казань","enName":"Kazan"},"belongsTo":{"totalCount":42,"pageInfo":{"totalPages":5,"currentPage":2},"edges":[{"node":{"__typename":"Job","id":"3592421376-1001121589364","title":"Dotnet разработчик","text":"#вакансия #Казань #Kzn #офис #fulltime #релокация #ios #Developer #разработчик\n\nMiddle IOS-разработчик\n\nКазань \nКомпания ArtStation Labs\nРоссийское подразделение ArtStation\nГоловной офис компании находится в Канаде. \nРаботая в ArtStation Labs вы каждый день будете плотно взаимодействовать с канадскими коллегами и обмениваться опытом.\n❗️Поэтому важен разговорный английский.\n\nФормат: Офис, фулл тайм. \n\nВилка: 100к-160к рублей / месяц\n\n✅ Что нужно будет делать:\n\n- Разрабатывать приложение Artstation под iOS\n\n- Взаимодействовать с командой для описания, разработки и релиза новых функций\n\n- Исправлять ошибки и повышать скорость работы приложения\n\n- Постоянно изучать, оценивать и внедрять новые технологии и быть в курсе изменений в экосистеме Apple\n\n✅ Пожелания к кандидату:\n\n- Реальный опыт работы разработчиком приложений под iOS. У вас должно быть как минимум одно приложение в AppStore.\n\n- Глубокое понимание экосистемы Apple и принципов работы социального приложения. Вы способны справиться со всеми специфичными для эппловской продукции проблемами и знаете, как их можно проработать/обойти. \n\n- Вы знакомы с принципами работы всех крупных социальных приложений.\n\n- Знание английского. Наша команда мультинациональная и мы все общаемся (каждый день!) на английском, устно и письменно.\n\n- Понимание принципов Agile/Scrum. Мы работаем по скраму. \n\n- Готовность работать в офисе. Наше российское подразделение работает в центре офиса в Казани, удаленная работа невозможна. Мы поможем с переездом, если вы в другом городе. Канадское подразделение работает в основном из Монреаля. Вам должно быть комфортно работать как с коллегами бок о бок, так и с удаленными сотрудниками.\n\n- Изобретательность и проактивность. Не на все вопросы есть готовые ответы и зачастую придется искать собственные работающие решения.\n\n✅От нас:\n\n- Все официальное и белое;\n- Помощь с релокацией, подъемные;\n- Комфортный офис в центре города;\n- Гибкое начало дня \n- Возможность предлагать собственные идеи и реализовывать их;\n - ДМС со стоматологией;\n - Оплачиваемое обучение, командировки на конференции;\n - Ежегодная переиндексация заработной платы\n- Оплачиваемые уроки англиского\n\nВопросы и портфолио направлять по адресу: \nhr_ru@artstation.com\n\nUPD. Уважаемые кандидаты, обратите внимание — удаленных сотрудников мы не рассматриваем. Пишите, пожалуйста, только если вы готовы переехать в Казань или уже в ней живете.","markup":[{"type":"hashtag","offset":0,"length":9,"data":"вакансия"},{"type":"hashtag","offset":10,"length":7,"data":"Казань"},{"type":"hashtag","offset":18,"length":4,"data":"Kzn"},{"type":"hashtag","offset":23,"length":5,"data":"офис"},{"type":"hashtag","offset":29,"length":9,"data":"fulltime"},{"type":"hashtag","offset":39,"length":10,"data":"релокация"},{"type":"hashtag","offset":50,"length":4,"data":"ios"},{"type":"hashtag","offset":55,"length":10,"data":"Developer"},{"type":"hashtag","offset":66,"length":12,"data":"разработчик"},{"type":"link","offset":2206,"length":20,"data":"mailto:hr_ru@artstation.com"}],"date":"2020-06-30T13:31:00+00:00","link":"tg://resolve?domain=xamarin_jobs&post=3426","tags":[{"name":"dotnet"},{"name":"csharp"},{"name":"mobile"},{"name":"ios"}],"cities":[{"code":"kazan"}],"allowsRemote":true}},{"node":{"__typename":"Job","id":"72346501120-1001054966032","title":"Ios разработчик","text":"#вакансия #Казань #Kzn #офис #fulltime #релокация #ios #Developer #разработчик\n\nMiddle IOS-разработчик\n\nКазань \nКомпания ArtStation Labs\nРоссийское подразделение ArtStation\nГоловной офис компании находится в Канаде. \nРаботая в ArtStation Labs вы каждый день будете плотно взаимодействовать с канадскими коллегами и обмениваться опытом.\n❗️Поэтому важен разговорный английский.\n\nФормат: Офис, фулл тайм. \n\nВилка: 100к-160к рублей / месяц\n\n✅ Что нужно будет делать:\n\n- Разрабатывать приложение Artstation под iOS\n\n- Взаимодействовать с командой для описания, разработки и релиза новых функций\n\n- Исправлять ошибки и повышать скорость работы приложения\n\n- Постоянно изучать, оценивать и внедрять новые технологии и быть в курсе изменений в экосистеме Apple\n\n✅ Пожелания к кандидату:\n\n- Реальный опыт работы разработчиком приложений под iOS. У вас должно быть как минимум одно приложение в AppStore.\n\n- Глубокое понимание экосистемы Apple и принципов работы социального приложения. Вы способны справиться со всеми специфичными для эппловской продукции проблемами и знаете, как их можно проработать/обойти. \n\n- Вы знакомы с принципами работы всех крупных социальных приложений.\n\n- Знание английского. Наша команда мультинациональная и мы все общаемся (каждый день!) на английском, устно и письменно.\n\n- Понимание принципов Agile/Scrum. Мы работаем по скраму. \n\n- Готовность работать в офисе. Наше российское подразделение работает в центре офиса в Казани, удаленная работа невозможна. Мы поможем с переездом, если вы в другом городе. Канадское подразделение работает в основном из Монреаля. Вам должно быть комфортно работать как с коллегами бок о бок, так и с удаленными сотрудниками.\n\n- Изобретательность и проактивность. Не на все вопросы есть готовые ответы и зачастую придется искать собственные работающие решения.\n\n✅От нас:\n\n- Все официальное и белое;\n- Помощь с релокацией, подъемные;\n- Комфортный офис в центре города;\n- Гибкое начало дня \n- Возможность предлагать собственные идеи и реализовывать их;\n - ДМС со стоматологией;\n - Оплачиваемое обучение, командировки на конференции;\n - Ежегодная переиндексация заработной платы\n- Оплачиваемые уроки англиского\n\nВопросы и портфолио направлять по адресу: \nhr_ru@artstation.com\n\nUPD. Уважаемые кандидаты, обратите внимание — удаленных сотрудников мы не рассматриваем. Пишите, пожалуйста, только если вы готовы переехать в Казань или уже в ней живете.","markup":[{"type":"hashtag","offset":0,"length":9,"data":"вакансия"},{"type":"hashtag","offset":10,"length":7,"data":"Казань"},{"type":"hashtag","offset":18,"length":4,"data":"Kzn"},{"type":"hashtag","offset":23,"length":5,"data":"офис"},{"type":"hashtag","offset":29,"length":9,"data":"fulltime"},{"type":"hashtag","offset":39,"length":10,"data":"релокация"},{"type":"hashtag","offset":50,"length":4,"data":"ios"},{"type":"hashtag","offset":55,"length":10,"data":"Developer"},{"type":"hashtag","offset":66,"length":12,"data":"разработчик"},{"type":"link","offset":2206,"length":20,"data":"mailto:hr_ru@artstation.com"}],"date":"2020-06-30T12:26:26+00:00","link":"tg://resolve?domain=mobile_jobs&post=68995","tags":[{"name":"mobile"},{"name":"ios"}],"cities":[{"code":"kazan"}],"allowsRemote":true}},{"node":{"__typename":"Job","id":"72329723904-1001054966032","title":"Android разработчик","text":"#вакансия #работа #Санкт_Петербург #Пермь #Казань  #middle #Android #Kotlin #RxJava\nГород: Санкт-Петербург, Казань, Пермь\nФормат работы: Офис (пока удаленка)\nЗанятость: Полная\nЗарплатная вилка от 120 net до 200 net  (зависит от уровня)\nКомпания: https://stream.ru/\nКонтакты: @Ntsama_IT\n\nМы Stream - делаем классные и реально удобные продукты для людей. 📣Сейчас находимся в поиске Android разработчика.📱\n\nСейчас у нас есть несколько проектов, куда мы ищем разработчиков. Подробнее по вакансиям здесь:\nhttps://spb.hh.ru/vacancy/37445336\nhttps://spb.hh.ru/vacancy/37365465\n\nМы ждём: \n🔹опыт разработки как на Kotlin, так и на Java;\n🔹опыт в работе с RxJava;\n\nУсловия:\n✅Гибкий график\n✅ДМС со стоматологией\n✅Компенсация мобильной связи\n✅Официальное оформление и \"белая\" зарплата + премии сверху оклада\n✅Возможность дополнительного обучения\nКонтакты: telegram - @Ntsama_IT \nпочта: eivanova@stream.ru","markup":[{"type":"hashtag","offset":0,"length":9,"data":"вакансия"},{"type":"hashtag","offset":10,"length":7,"data":"работа"},{"type":"hashtag","offset":18,"length":16,"data":"Санкт_Петербург"},{"type":"hashtag","offset":35,"length":6,"data":"Пермь"},{"type":"hashtag","offset":42,"length":7,"data":"Казань"},{"type":"hashtag","offset":51,"length":7,"data":"middle"},{"type":"hashtag","offset":59,"length":8,"data":"Android"},{"type":"hashtag","offset":68,"length":7,"data":"Kotlin"},{"type":"hashtag","offset":76,"length":7,"data":"RxJava"},{"type":"link","offset":246,"length":18,"data":"https://stream.ru/"},{"type":"handle","offset":275,"length":10,"data":"Ntsama_IT"},{"type":"link","offset":502,"length":34,"data":"https://spb.hh.ru/vacancy/37445336"},{"type":"link","offset":537,"length":34,"data":"https://spb.hh.ru/vacancy/37365465"},{"type":"handle","offset":858,"length":10,"data":"Ntsama_IT"},{"type":"link","offset":877,"length":18,"data":"mailto:eivanova@stream.ru"}],"date":"2020-06-30T09:03:06+00:00","link":"tg://resolve?domain=mobile_jobs&post=68979","tags":[{"name":"mobile"},{"name":"android"},{"name":"kotlin"},{"name":"dotnet"},{"name":"java"}],"cities":[{"code":"perm"},{"code":"kazan"}],"allowsRemote":true}},{"node":{"__typename":"Job","id":"108252889088-1001119539411","title":".net разработчик","text":"#вакансия #fulltime #офис #remote \n\nЛокация: Казань, ст. м. Козья Слобода; Иннополис;\nФормат работы: офис или remote, фуллтайм \nЗанятость: полная, гибкое начало дня\nЗП: до 160 000 Net \n\n🚀Компания Ак Барс Цифровые Технологии запускает новый большой проект по трансформации архитектуры розничного бизнеса (физические лица) и переезд всех процессов на новую технологическую платформу. В рамках проекта будет сформировано 8 команд, занимающихся разными задачами по платежным решениям, каталогам продуктов, работой с электронными досье клиента, операционному обслуживанию и др.\n\nВ связи с чем компания в поисках Middle .Net разработчиков с коммерческим опытом работы от 2 лет. \n\nСтек технологий: C#, ASP.NET MVC / Core, Web API, MS SQLServer / PostgreSql, Entity Framework, JS /React, RabbitMQ\n\n✅Ребята ищут специалиста с опытом разработки веб-платформ, которому знаком .NET, ASP.NET Core, MS SQL Server. Команды гибко рассматривают кандидатов, готовы обучать и делиться опытом. \n\n✅АК Барс Цифровые технологии предлагают отличные условия:\n- официальное оформление и полностью белую зп;\n- гибкий график работы, позитивная атмосфера, дружный молодой коллектив;\n- возможность работать удаленно или в комфортном офисе в Казани;\n- помощь с релокацией, если вы из другого города; \n- возможность быстро «прокачаться» в скиллах на интересных проектах и другие приятные плюшки и бонусы.\n\nКонтакты:\ne-mail: valeriya@luckyhunter.io\ntelegram: @sobolevavalery\nБуду рада ответить на все вопросы и комментарии! 😊","markup":[{"type":"hashtag","offset":0,"length":9,"data":"вакансия"},{"type":"hashtag","offset":10,"length":9,"data":"fulltime"},{"type":"hashtag","offset":20,"length":5,"data":"офис"},{"type":"hashtag","offset":26,"length":7,"data":"remote"},{"type":"bold","offset":675,"length":15,"data":""},{"type":"link","offset":696,"length":7,"data":"http://ASP.NET"},{"type":"link","offset":872,"length":7,"data":"http://ASP.NET"},{"type":"link","offset":1393,"length":23,"data":"mailto:valeriya@luckyhunter.io"},{"type":"handle","offset":1427,"length":15,"data":"sobolevavalery"}],"date":"2020-06-29T15:13:52+00:00","link":"tg://resolve?domain=microsoftstackjobs&post=103238","tags":[{"name":"dotnet"},{"name":"csharp"},{"name":"web"},{"name":"sql-server"},{"name":"postgresql"},{"name":"reactjs"},{"name":"rabbitmq"},{"name":"sql"},{"name":"asp-net"},{"name":"entity-framework"},{"name":"net-core"},{"name":"asp-net-mvc"},{"name":"asp-net-core"}],"cities":[{"code":"kazan"}],"allowsRemote":true}},{"node":{"__typename":"Job","id":"103833141248-1001089317451","title":"Qa инженер","text":"🐞🐞🐞#вакансия #QA #Ульяновск #Саранск #Казань #Самара #Уфа #Краснодар #офис #удаленная_работа\n\n🔍Middle QA-специалист🔎\n\n⚡️Компания: Simbirsoft (более 19 лет на рынке, более 700 сотрудников в штате)\n\nОчень ждем тебя, наш будущий коллега и борец за качественное ПО! :)\n\n📌Твои будущие задачи:\n• тестирование ПО (frontend, backend, API);\n• локализация и документирование найденных дефектов;\n• ведение и оптимизация тестовой документации;\n• контроль качества на всех этапах разработки ПО;\n• выстраивание и оптимизация процессов тестирования ПО.\n\n📌Что мы ждем от тебя:\n• наличие опыта от 2 лет в направлениях QA или тестирования ПО;\n• понимание разницы между QA и тестированием ПО;\n• понимание особенностей гибких методологий;\n• уверенное владение техниками тест-дизайна;\n• знание клиент-серверной архитектуры;\n• понимание особенностей тестирования web, mobile и desktop приложений;\n• навык тестирования API;\n• написание запросов SQL;\n• опыт работы с системами контроля версий (git);\n• знание основных команд работы с консолью (Windows/Linux).\n\n📌Что мы предлагаем:\n• Полностью белая ЗП два раза в месяц;\n• Оформление по ТК РФ;\n• Высокий уровень экспертности внутри компании, которым мы делимся друг с другом;\n• Перспективы вертикального и горизонтального роста;\n• Работа на российских и международных проектах;\n• Оборудованное рабочее место и парк тестовых устройств;\n• Подготовка и прохождение сертификации ISTQB бесплатно;\n• Внутренние и внешние курсы, доклады, конференции;\n• Бесплатные чай, кофе, печеньки в офисе;\n• Корпоративная спортивная программа (оплата тематических секций, частичная компенсация абонемента);\n• Проведение летних и зимних корпоративов, дня именинника, совместные походы и т.д.\n\n📌Зарплата:\n• от 50 000 (Договорная, по итогу собеседования)\n\n☎️Контакты:\n@nataly_max","markup":[{"type":"hashtag","offset":6,"length":9,"data":"вакансия"},{"type":"hashtag","offset":16,"length":3,"data":"QA"},{"type":"hashtag","offset":20,"length":10,"data":"Ульяновск"},{"type":"hashtag","offset":31,"length":8,"data":"Саранск"},{"type":"hashtag","offset":40,"length":7,"data":"Казань"},{"type":"hashtag","offset":48,"length":7,"data":"Самара"},{"type":"hashtag","offset":56,"length":4,"data":"Уфа"},{"type":"hashtag","offset":61,"length":10,"data":"Краснодар"},{"type":"hashtag","offset":72,"length":5,"data":"офис"},{"type":"hashtag","offset":78,"length":17,"data":"удаленная_работа"},{"type":"handle","offset":1779,"length":11,"data":"nataly_max"}],"date":"2020-06-26T14:16:52+00:00","link":"tg://resolve?domain=qa_jobs&post=99023","tags":[{"name":"qa"},{"name":"web"},{"name":"mobile"},{"name":"sql"},{"name":"git"},{"name":"windows"},{"name":"linux"}],"cities":[{"code":"ulyanovsk"},{"code":"saransk"},{"code":"kazan"},{"code":"samara"},{"code":"ufa"},{"code":"krasnodar"}],"allowsRemote":true}},{"node":{"__typename":"Job","id":"17162043392-1001110946746","title":"Js разработчик","text":"#вакансия #frontend_developer #js #react #stream \nMiddle/ Senior frontend developer (React JS)\nЛокация: г. Казань, Спартаковская, 6 \nФормат работы: удаленная работа (возможен формат коворкинга)\nЗанятость: полная \nЗарплатная вилка: от 130 000 до 200 000 рублей net\n\nОписание вакансии:\nStream  - 100% дочерняя компания МТС. Ищем опытного React JS разработчика для участия в проекте Виртуальная АТС.\nО проекте:\nВАТС - платформа для сборки бизнес-инструментов и «умная» телефонная связь через интернет, которая доступна в любом месте и для разных типов устройств.\nЧто предстоит?\n- проектирование архитектуры и участие в разработке frontend продукта;\n- проведение code review;\n- участие в оптимизации процессов разработки в компании.\nМы ожидаем от Вас:\n- опыт работы с React от 2 лет\n- опыт разработки SPA\n- знание TypeScript, NextJS, SCSS, Styled Components, HTML5, CSS\n- умение писать Unit-тесты (будет плюсом)\nЧто предлагаем?\n- \"белую\" заработную плату + полугодовые бонусы;\n- гибкий график работы;\n- ДМС со стоматологией, страхование жизни после испытательного срока;\n- корпоративную мобильную связь;\n- льготное кредитование для участников зарплатного проекта МТС Банк.\nНазвание компании: Stream https://stream.ru/\n\n📲 Контакты для резюме и вопросов: @askamasaska, AMorozova@stream.ru\n\n—\n\n👉 Обсуждение вакансии в чате @javascript_jobs","markup":[{"type":"hashtag","offset":0,"length":9,"data":"вакансия"},{"type":"hashtag","offset":10,"length":19,"data":"frontend_developer"},{"type":"hashtag","offset":30,"length":3,"data":"js"},{"type":"hashtag","offset":34,"length":6,"data":"react"},{"type":"hashtag","offset":41,"length":7,"data":"stream"},{"type":"link","offset":1195,"length":18,"data":"https://stream.ru/"},{"type":"handle","offset":1250,"length":12,"data":"askamasaska"},{"type":"link","offset":1264,"length":19,"data":"mailto:AMorozova@stream.ru"},{"type":"handle","offset":1318,"length":16,"data":"javascript_jobs"}],"date":"2020-06-26T07:25:03+00:00","link":"tg://resolve?domain=javascript_jobs_feed&post=16367","tags":[{"name":"javascript"},{"name":"reactjs"},{"name":"dotnet"},{"name":"typescript"},{"name":"html"},{"name":"css"}],"cities":[{"code":"kazan"}],"allowsRemote":true}},{"node":{"__typename":"Job","id":"1738539008-1001091028994","title":"Java программист","text":"#вакансия #Java #Sofware #Kazan\n\n❗️В команду CloudALly ищем Java Инженера-программиста (Middle). \nГород: Казань\nЗарплатная вилка: до 150.000 руб.\nФормат работы: офис/удаленно\nЗанятость: полная\nПроект: резервное копирование данных CloudALly.com. \n\nЧем предстоит заниматься:\n• проектирование, разработка и оптимизация многопоточной высоконагруженной системы;\n• code review коллег;\n• разработка серверной части системы.\n\nМы ждём от вас:\n• опыт разработки на Java 2+ года;\n• опыт работы в Linux-окружении;\n• знание REST/SOAP API;\n• опыт написания Unit тестирования;\n• знакомство с Agile методологией разработки. \n\nМы предлагаем:\n• официальное трудоустройство по ТК РФ;\n• дружный коллектив;\n• гибкий график;\n• ДМС (на сотрудников и членов семьи);\n• компенсация курсов английского языка.\n\nКонтакты: \nТелеграм: @NailyaKhanipova\ne-mail: nhanipova@cloudally.com","markup":[{"type":"hashtag","offset":0,"length":9,"data":"вакансия"},{"type":"hashtag","offset":10,"length":5,"data":"Java"},{"type":"hashtag","offset":16,"length":8,"data":"Sofware"},{"type":"hashtag","offset":25,"length":6,"data":"Kazan"},{"type":"link","offset":230,"length":13,"data":"http://CloudALly.com"},{"type":"handle","offset":804,"length":16,"data":"NailyaKhanipova"},{"type":"link","offset":829,"length":23,"data":"mailto:nhanipova@cloudally.com"}],"date":"2020-06-25T13:47:09+00:00","link":"tg://resolve?domain=jvmjobs&post=1658","tags":[{"name":"java"},{"name":"jvm"},{"name":"linux"},{"name":"rest"},{"name":"soap"}],"cities":[{"code":"kazan"}],"allowsRemote":true}},{"node":{"__typename":"Job","id":"17151557632-1001110946746","title":"Js разработчик","text":"#вакансия #работа #frontend #react #redux #js #typescript #ульяновск #крснодар #нижнийновгород #самара #тольятти #ижевск #воронеж #казань #fulltime #удаленно #офис \n\nMiddle/Senior frontend разработчик React/Redux\nКомпания: Норд Клан\nГород: Ульяновск\nФормат: в офисе, удаленно, если живете не в Ульяновске\nЗарплатная вилка: от 70 до 150k на руки\n\n\nМы ищем разработчика в нашу команду NORD CLAN.  \nМы разрабатываем системы для бизнеса в области финтеха, медицины и фудтеха. Так же разрабатываем собственные продукты связанные с машинным обучением, распознаванием образов и компьютерным зрением. \n\nПо задачам:\n\nРазработка пользовательских интерфейсов в стеке React + Redux\nПроектирование, выбор и доработка архитектурных и технологических решений\nПроведение code-review Frontend-команды\nРазработка прототипов для отработки новых идей\n\nПо тербованиям:\nРеальный опыт работы с React;\nУверенные знания в HTML, CSS;\nНавыки работы с Git.\n\nБудет плюсом:\nОпыт работы на других языках (например, Java);\nАнглийский язык уровня Upper Intermediate.\n\n\nУ нас нет бюрократии, четко выстроены процессы разработки, мы любим и чтим ТК РФ и белую зп\n\n\nПисать в Telegram: @Dinovikova1477","markup":[{"type":"hashtag","offset":0,"length":9,"data":"вакансия"},{"type":"hashtag","offset":10,"length":7,"data":"работа"},{"type":"hashtag","offset":18,"length":9,"data":"frontend"},{"type":"hashtag","offset":28,"length":6,"data":"react"},{"type":"hashtag","offset":35,"length":6,"data":"redux"},{"type":"hashtag","offset":42,"length":3,"data":"js"},{"type":"hashtag","offset":46,"length":11,"data":"typescript"},{"type":"hashtag","offset":58,"length":10,"data":"ульяновск"},{"type":"hashtag","offset":69,"length":9,"data":"крснодар"},{"type":"hashtag","offset":79,"length":15,"data":"нижнийновгород"},{"type":"hashtag","offset":95,"length":7,"data":"самара"},{"type":"hashtag","offset":103,"length":9,"data":"тольятти"},{"type":"hashtag","offset":113,"length":7,"data":"ижевск"},{"type":"hashtag","offset":121,"length":8,"data":"воронеж"},{"type":"hashtag","offset":130,"length":7,"data":"казань"},{"type":"hashtag","offset":138,"length":9,"data":"fulltime"},{"type":"hashtag","offset":148,"length":9,"data":"удаленно"},{"type":"hashtag","offset":158,"length":5,"data":"офис"},{"type":"handle","offset":1149,"length":15,"data":"Dinovikova1477"}],"date":"2020-06-25T11:31:56+00:00","link":"tg://resolve?domain=javascript_jobs_feed&post=16357","tags":[{"name":"javascript"},{"name":"reactjs"},{"name":"redux"},{"name":"typescript"},{"name":"html"},{"name":"css"},{"name":"git"},{"name":"java"},{"name":"react-redux"}],"cities":[{"code":"ulyanovsk"},{"code":"samara"},{"code":"izhevsk"},{"code":"voronezh"},{"code":"kazan"}],"allowsRemote":true}},{"node":{"__typename":"Job","id":"72004665344-1001054966032","title":"Android разработчик","text":"#вакансия #работа #Санкт_Петербург #Пермь #Казань  #middle #Android #Kotlin #RxJava\nГород: Санкт-Петербург, Казань, Пермь\nФормат работы: Офис (пока удаленка)\nЗанятость: Полная\nЗарплатная вилка от 120 net до 200 net  (зависит от уровня)\nКомпания: https://stream.ru/\nКонтакты: @Ntsama_IT\n\nМы Stream - делаем классные и реально удобные продукты для людей. 📣Сейчас находимся в поиске Android разработчика.📱\n\nСейчас у нас есть несколько проектов, куда мы ищем разработчиков. Подробнее по вакансиям здесь:\nhttps://spb.hh.ru/vacancy/37445336\nhttps://spb.hh.ru/vacancy/37365465\n\nМы ждём: \n🔹опыт разработки как на Kotlin, так и на Java;\n🔹опыт в работе с RxJava;\n\nУсловия:\n✅Гибкий график\n✅ДМС со стоматологией\n✅Компенсация мобильной связи\n✅Официальное оформление и \"белая\" зарплата + премии сверху оклада\n✅Возможность дополнительного обучения\nКонтакты: telegram - @Ntsama_IT \nпочта: eivanova@stream.ru","markup":[{"type":"hashtag","offset":0,"length":9,"data":"вакансия"},{"type":"hashtag","offset":10,"length":7,"data":"работа"},{"type":"hashtag","offset":18,"length":16,"data":"Санкт_Петербург"},{"type":"hashtag","offset":35,"length":6,"data":"Пермь"},{"type":"hashtag","offset":42,"length":7,"data":"Казань"},{"type":"hashtag","offset":51,"length":7,"data":"middle"},{"type":"hashtag","offset":59,"length":8,"data":"Android"},{"type":"hashtag","offset":68,"length":7,"data":"Kotlin"},{"type":"hashtag","offset":76,"length":7,"data":"RxJava"},{"type":"link","offset":246,"length":18,"data":"https://stream.ru/"},{"type":"handle","offset":275,"length":10,"data":"Ntsama_IT"},{"type":"link","offset":502,"length":34,"data":"https://spb.hh.ru/vacancy/37445336"},{"type":"link","offset":537,"length":34,"data":"https://spb.hh.ru/vacancy/37365465"},{"type":"handle","offset":858,"length":10,"data":"Ntsama_IT"},{"type":"link","offset":877,"length":18,"data":"mailto:eivanova@stream.ru"}],"date":"2020-06-25T10:20:10+00:00","link":"tg://resolve?domain=mobile_jobs&post=68669","tags":[{"name":"mobile"},{"name":"android"},{"name":"kotlin"},{"name":"dotnet"},{"name":"java"}],"cities":[{"code":"perm"},{"code":"kazan"}],"allowsRemote":true}},{"node":{"__typename":"Job","id":"108047368192-1001119539411","title":".net разработчик","text":"#вакансия #fulltime #офис #remote \n\nЛокация: Казань, ст. м. Козья Слобода; Иннополис;\nФормат работы: офис или remote, фуллтайм \nЗанятость: полная, гибкое начало дня\nЗП: до 160 000 Net \n\n🚀Компания Ак Барс Цифровые Технологии запускает новый большой проект по трансформации архитектуры розничного бизнеса (физические лица) и переезд всех процессов на новую технологическую платформу. В рамках проекта будет сформировано 8 команд, занимающихся разными задачами по платежным решениям, каталогам продуктов, работой с электронными досье клиента, операционному обслуживанию и др.\n\nВ связи с чем компания в поисках Middle .Net разработчиков с коммерческим опытом работы от 2 лет. \n\nСтек технологий: C#, ASP.NET MVC / Core, Web API, MS SQLServer / PostgreSql, Entity Framework, JS /React, RabbitMQ\n\n✅Ребята ищут специалиста с опытом разработки веб-платформ, которому знаком .NET, ASP.NET Core, MS SQL Server. Команды гибко рассматривают кандидатов, готовы обучать и делиться опытом. \n\n✅АК Барс Цифровые технологии предлагают отличные условия:\n- официальное оформление и полностью белую зп;\n- гибкий график работы, позитивная атмосфера, дружный молодой коллектив;\n- возможность работать удаленно или в комфортном офисе в Казани;\n- помощь с релокацией, если вы из другого города; \n- возможность быстро «прокачаться» в скиллах на интересных проектах и другие приятные плюшки и бонусы.\n\nКонтакты:\ne-mail: valeriya@luckyhunter.io\ntelegram: @sobolevavalery\nБуду рада ответить на все вопросы и комментарии! 😊","markup":[{"type":"hashtag","offset":0,"length":9,"data":"вакансия"},{"type":"hashtag","offset":10,"length":9,"data":"fulltime"},{"type":"hashtag","offset":20,"length":5,"data":"офис"},{"type":"hashtag","offset":26,"length":7,"data":"remote"},{"type":"bold","offset":675,"length":15,"data":""},{"type":"link","offset":696,"length":7,"data":"http://ASP.NET"},{"type":"link","offset":872,"length":7,"data":"http://ASP.NET"},{"type":"link","offset":1393,"length":23,"data":"mailto:valeriya@luckyhunter.io"},{"type":"handle","offset":1427,"length":15,"data":"sobolevavalery"}],"date":"2020-06-24T10:23:42+00:00","link":"tg://resolve?domain=microsoftstackjobs&post=103042","tags":[{"name":"dotnet"},{"name":"csharp"},{"name":"web"},{"name":"sql-server"},{"name":"postgresql"},{"name":"reactjs"},{"name":"rabbitmq"},{"name":"sql"},{"name":"asp-net"},{"name":"entity-framework"},{"name":"net-core"},{"name":"asp-net-mvc"},{"name":"asp-net-core"}],"cities":[{"code":"kazan"}],"allowsRemote":true}}]}}},"context":{}}