{"hash":"f5f6bf98bd95e769321482904cbbd488f77922fd","data":{"records":{"id":"qa","name":"qa","belongsTo":{"totalCount":208,"pageInfo":{"totalPages":21,"currentPage":17},"edges":[{"node":{"__typename":"Job","id":"103121158144-1001089317451","title":"Qa инженер","text":"Всем привет! \n\nТребуется Middle QA или Senior QA\nдля ручного тестирования мобильных приложений.\n\nРабота удаленно. \nОплата – часовая ставка с занятостью ~6-8 часов в день, от 500\\час. \nЗанятость по московскому времени, в рабочие часы. \n\nТребования к соискателю:\n1. Опыт ручного тестирование мобильных приложений от 1 года;\n2. Знание особенностей версий OS;\n3. Знание инструментов разработчика под Android;\n4. Понимание различий тестирования веб \\ мобайл;\n5. Опыт тестирования api;\n6. Опыт работы с БД;\n7. Высокий уровень самоорганизации и коммуникативных навыков.\n\nВ процессе работы возможно обучение автоматизации тестирования. \n\nЖду резюме и информацию о себе – личным сообщением. Каждому из соискателей я отвечу до 19 июня. \n\n\n🎱QA\n🎱Devquality\n🎱Тестирование бэкенда, фронта, автоматизация\n🎱 Часовой рейт, удаленное сотрудничество. #россия #москва #подмосковье #удаленное #вакансия #работавит #работаврегионах\n\nБлагодарю.","markup":[{"type":"hashtag","offset":836,"length":7,"data":"россия"},{"type":"hashtag","offset":844,"length":7,"data":"москва"},{"type":"hashtag","offset":852,"length":12,"data":"подмосковье"},{"type":"hashtag","offset":865,"length":10,"data":"удаленное"},{"type":"hashtag","offset":876,"length":9,"data":"вакансия"},{"type":"hashtag","offset":886,"length":10,"data":"работавит"},{"type":"hashtag","offset":897,"length":16,"data":"работаврегионах"}],"date":"2020-06-17T20:52:03+00:00","link":"tg://resolve?domain=qa_jobs&post=0","tags":[{"name":"qa"},{"name":"android"}],"cities":[{"code":"moscow"}],"allowsRemote":true}},{"node":{"__typename":"Job","id":"103088652288-1001089317451","title":"Qa инженер","text":"#Иннополис #fulltime  #manualqa #manual #тестировщик  #офис #вакансия\nКомпания:X5 Retail Group («Х5»)\nВакансия : QA manual\nГород: Иннополис (офис, удаленки нет) \nВилка: 70т.р.-100т.р. на руки\nТребования\nОпыт в тестировании от 2-х лет\nХорошие навыки тест-дизайна\nОпыт работы с инструментами ИТ (SoapUI, Postman, и т.д)\nОпыт работы с базами данных (Oracle, PostgreSQL, FireBird)\nХорошие коммуникативные навыки\nЗнание SQL на уровне написания простых запросов\nЗнание методологий тестирования\nЖелателен\nОпыт работы c Linux системами\nОпыт работы с распределенной командой\nОпыт работы с HP ALM\nОпыт работы с Jira, Confluence\nОпыт работы с инструментами/фреймворками автоматизации\nОпыт тестирования оборудования\nПонимание процессов ритейла\nУсловия\nРабота в современном офисе в г. Иннополис\nСкидки на спорт\nСофинансирование обучения\n5-10% скидки в магазинах «Пятерочка», «Перекресток», «Карусель», «Перекресток-экспресс»\nОформление по ТК РФ, белая зп, премия по итогам года.\nО проекте:\nIT-отдел X5 в Иннополисе занимается разработкой комплекса программного обеспечения, используемого для автоматизации процессов магазинов таких торговых сетей как «Пятерочка», «Перекресток», «Карусель».\nНа данный момент команда находится на стадии трансформации процессов разработки. Уходим от Waterfall в сторону гибких методологий.\nОсновными задачами команды тестирования являются:\nТестирование бэк-офиса\nТестирование мобильного приложения\nТестирование рассчетно-кассового оборудования\nПосле ознакомления с основным функционалом, тестировщик определяется в конкретную команду.\nХотелось бы выделить несколько основных моментов:\nКаждая команда пользуется своей методологией, в зависимости от поставленных задач. На каких-то проектах еще сохраняется Waterfall, на других - Agile.\nВсе кейсы тестировщики трекают и проходят в HP ALM\nКоманды разработки расположены в разных городах России. Команда Иннополиса собирается с нуля и постепенно интегрируется в рабочие процессы\nСтэк технологий для тестировщика включает в себя SQL и Java","markup":[{"type":"hashtag","offset":0,"length":10,"data":"Иннополис"},{"type":"hashtag","offset":11,"length":9,"data":"fulltime"},{"type":"hashtag","offset":22,"length":9,"data":"manualqa"},{"type":"hashtag","offset":32,"length":7,"data":"manual"},{"type":"hashtag","offset":40,"length":12,"data":"тестировщик"},{"type":"hashtag","offset":54,"length":5,"data":"офис"},{"type":"hashtag","offset":60,"length":9,"data":"вакансия"}],"date":"2020-06-17T16:43:43+00:00","link":"tg://resolve?domain=qa_jobs&post=0","tags":[{"name":"qa"},{"name":"oracle"},{"name":"postgresql"},{"name":"sql"},{"name":"linux"}],"cities":[],"allowsRemote":false}},{"node":{"__typename":"Job","id":"103060340736-1001089317451","title":"Qa инженер","text":"#вакансия #ВТБ #нагрузочное_тестирование #Москва#HP_ LoadRunner \n\nДолжность: Тест-менеджер по нагрузочному тестированию Город: Москва \nФормат работы: офис \nЗанятость: полная занятость. \nЗарплата: от 170 000 \n\n📍 Чем предстоит заниматься:   \n• управлять и участвовать в процессе нагрузочного тестирования; \n• анализировать требования и сопутствующей проектной документации; \n• отвечать за успешное прохождение нагрузочного тестирование ПО; \n• планировать и организовывать работу по нагрузочному ПО (HP LoadRunner); \n• взаимодействовать с заказчиками, аналитиками и разработчиками; \n• совершенствовать процессы тестирования будущих этапов проекта. \n\n📍 Ищем человека, который имеет: \n• опыт в нагрузочном тестирование от 2х лет; \n• опыт работы с HP LoadRunner; \n• понимание принципов построения тестовых сред; \n• знания серверного оборудования, систем хранилищ данных, сетей, серверных операционных систем и систем виртуализации; \n• опыт подготовки и анализа документации. \n\nРада буду ответить на вопросы, контакты: \n📲  tg: @NChugreeva \n📧 chugreeva@vtb.ru","markup":[{"type":"hashtag","offset":0,"length":9,"data":"вакансия"},{"type":"hashtag","offset":10,"length":4,"data":"ВТБ"},{"type":"hashtag","offset":15,"length":25,"data":"нагрузочное_тестирование"},{"type":"handle","offset":1023,"length":11,"data":"NChugreeva"},{"type":"link","offset":1039,"length":16,"data":"mailto:chugreeva@vtb.ru"}],"date":"2020-06-17T13:27:29+00:00","link":"tg://resolve?domain=qa_jobs&post=0","tags":[{"name":"qa"}],"cities":[{"code":"moscow"}],"allowsRemote":false}},{"node":{"__typename":"Job","id":"103051952128-1001089317451","title":"Qa инженер","text":"#вакансия #спб #fulltime #qa #удаленно\n\nКомпания: Smart Design (smddev.com) \n\nДолжность: Инженер по ручному и автоматизированному тестированию (QA & Automation Engineer)\n\nИщем инженера по тестированию BSS сотового оператора.\nБольшая распределенная команда (~30 человек).\nНужно хорошо уметь тестировать вручную и, когда это выгодно, суметь автоматизировать.\n\n\nНаши пожелания к кандидатам:\n✔️Опыт работы с Java или любым другим высокоуровневым языком программирования на уровне, достаточном для самостоятельного написания игры \"Сапёр\"\n✔️Опыт работы в консоли linux на уровне, достаточном для для решения задач:\nпоиск и изменение строк в файле\nуправление системными процессами\n✔️Опыт взаимодействия с REST API на уровне, достаточном для того, чтобы получить из ВКонтакте имя и фамилию своего аккаунта, не используя браузер\n\nПлюсом будет:\n✔️Опыт работы с протоколом SOAP\n✔️Профессиональный опыт функционального тестирования\n✔️Опыт работы с JUnit, Gradle, Oracle\n\nУсловия:\n✔️\"Белая\" зарплата до 110K gross\n✔️ДМС\n✔️ Работа в удаленном режиме на данный момент, далее в уютном офисе.\n\nhttps://spb.hh.ru/vacancy/37540632\n\nМои контакты: @romanovaya iyliia.romanova@smddev.com","markup":[{"type":"hashtag","offset":0,"length":9,"data":"вакансия"},{"type":"hashtag","offset":10,"length":4,"data":"спб"},{"type":"hashtag","offset":15,"length":9,"data":"fulltime"},{"type":"hashtag","offset":25,"length":3,"data":"qa"},{"type":"hashtag","offset":29,"length":9,"data":"удаленно"},{"type":"link","offset":64,"length":10,"data":"http://smddev.com"},{"type":"link","offset":1077,"length":34,"data":"https://spb.hh.ru/vacancy/37540632"},{"type":"handle","offset":1127,"length":11,"data":"romanovaya"},{"type":"link","offset":1139,"length":26,"data":"mailto:iyliia.romanova@smddev.com"}],"date":"2020-06-17T11:29:10+00:00","link":"tg://resolve?domain=qa_jobs&post=0","tags":[{"name":"qa"},{"name":"java"},{"name":"linux"},{"name":"rest"},{"name":"soap"},{"name":"junit"},{"name":"gradle"},{"name":"oracle"}],"cities":[],"allowsRemote":true}},{"node":{"__typename":"Job","id":"103049854976-1001089317451","title":"Qa инженер","text":"#вакансия  #qa #senior #remote #удаленно #fulltime #blockchain \n\nСрочно ищем Инженера по тестированию смарт контрактов \n\nФормат работы: #удаленка\nЗанятость: #полная\nОпыт: 5+лет\nЗарплатная вилка: $2000-$4000\n\nTON Labs - независимая международная IT-компания, которая занимается  разработкой решений на основе блокчейн-платформы TON, с командой из более 50 разработчиков, инженеров и профессионалов со всего мира.  Проект реализуется с нуля.\n\nIn a blockchain environment, a single mistake could cost you all of your funds — or, even worse, your users' funds. Testing of smart contracts according to the specification is a task of paramount importance.\n\nResponsibilities\n    Lead the efforts around shipping quality product\n    Work with smart contract specification authors to assess specification feasibility   \n    Develop test scenarios according to smart contract specification\n    Create, develop and manage a unified expandable test automation framework \n    Create automated tests for existing and new smart contracts\n    Develop test plans and perform multiple types of testing including functional, system, end to end, load, performance, data integrity, smoke, regression, and ad hoc\n    Submit comprehensive defects using our bug tracking system\n    Regress and verify defects as needed, record test results, and provide metrics\n    Lead and implement plans for improving testing and release processes\n\nJob requirements:\n    3+ years of experience in Software Engineering, Test, or Deployment\n    Good understanding of an asynchronous messaging model\n    Some experience with Python/Unix shell scripting\n    Strong analytical skills to work with developers for troubleshooting and peer review\n    Effective written and verbal communication skills\n\nThe following qualifications are a plus:\n    Understanding of basic principles and concepts of the TON Blockchain is a strong advantage\n    BS degree or equivalent work experience in Computer Science or related field\n    Experience with testing of asynchronous systems is an advantage\n    Experience with Scrum and other Agile methodologies\n\nНазвание компании: Ton Labs\nКонтакты: @Marina0733\nДля резюме: marina.k@tonlabs.io","markup":[{"type":"hashtag","offset":0,"length":9,"data":"вакансия"},{"type":"hashtag","offset":11,"length":3,"data":"qa"},{"type":"hashtag","offset":15,"length":7,"data":"senior"},{"type":"hashtag","offset":23,"length":7,"data":"remote"},{"type":"hashtag","offset":31,"length":9,"data":"удаленно"},{"type":"hashtag","offset":41,"length":9,"data":"fulltime"},{"type":"hashtag","offset":51,"length":11,"data":"blockchain"},{"type":"hashtag","offset":136,"length":9,"data":"удаленка"},{"type":"hashtag","offset":157,"length":7,"data":"полная"},{"type":"handle","offset":2136,"length":11,"data":"Marina0733"},{"type":"link","offset":2160,"length":19,"data":"mailto:marina.k@tonlabs.io"}],"date":"2020-06-17T11:02:39+00:00","link":"tg://resolve?domain=qa_jobs&post=0","tags":[{"name":"qa"},{"name":"deployment"},{"name":"python"},{"name":"unix"},{"name":"shell"}],"cities":[],"allowsRemote":true}},{"node":{"__typename":"Job","id":"103047757824-1001089317451","title":"Qa инженер","text":"#вакансия #homeoffice #upper-intermediate\nЗ\\п 2500-3500$ в месяц(по результатам собеседования)\nФорма занятости – фулл тайм, home-office\nТребования:\n- английский не ниже upper-intermediate, всё общение на английском\n- умение использовать GitLab (артефакты, логи сборок, логи прогона тестов и т.п., ci\\cd настроен)\n- уверенные знания JS (обязательное требование)\n- тестирование api и функционала\n- end to end tests на headless Chrome\n- Demonstrate ability to automate test plan using Webdriver.io\n\nhome-office\nтолько иностранные заказчики\nконтакты \nerzentd@gmail.com\nкомпания s-o-services\n@erzentd","markup":[{"type":"hashtag","offset":0,"length":9,"data":"вакансия"},{"type":"hashtag","offset":10,"length":11,"data":"homeoffice"},{"type":"hashtag","offset":22,"length":6,"data":"upper"},{"type":"link","offset":482,"length":12,"data":"http://Webdriver.io"},{"type":"link","offset":547,"length":17,"data":"mailto:erzentd@gmail.com"},{"type":"handle","offset":587,"length":8,"data":"erzentd"}],"date":"2020-06-17T10:53:52+00:00","link":"tg://resolve?domain=qa_jobs&post=0","tags":[{"name":"qa"},{"name":"gitlab"}],"cities":[],"allowsRemote":false}},{"node":{"__typename":"Job","id":"103044612096-1001089317451","title":"Qa engineer","text":"#вакансия #QA #фуллстек #ФТ #АТ #удаленка \n\nВакансия: QA Engineer (АФТ на Java)\nГород: удаленка из городов РФ, стандартный график с Москвой\nЗарплата: от 150 000 рублей до 210 000 рублей на руки \nФормат: полный день, полная занятость\nКомпания Innovative People \n\n➡ Требования:\n• От 2х лет опыта тестирования веб- или мобильных приложений\n• Практический опыт применения практик тест-дизайна\n• Рабочие знания клиент-серверной архитектуры\n• Знание Java\n• Уверенный опыт разработки авто-тестов, работы с инструментами автоматизации\nДля удаленки нужен релевантный опыт удаленной работы.\n\n➡ Предлагаем:\n• все по ТК РФ, белое и официальное\n• ДМС со стоматологией, программа лояльности\n• адекватное руководство (сейчас мы на удаленке и собеседования по скайпу)\n• большое комьюнити, классные команды, карьерный рост\n• помогаем с релокацией в Москву/Питер/Екатеринбург(50 000 рублей)\n или есть возможность работы удаленно\n\nРезюме и вопросы @Priboch","markup":[{"type":"hashtag","offset":0,"length":9,"data":"вакансия"},{"type":"hashtag","offset":10,"length":3,"data":"QA"},{"type":"hashtag","offset":14,"length":9,"data":"фуллстек"},{"type":"hashtag","offset":24,"length":3,"data":"ФТ"},{"type":"hashtag","offset":28,"length":3,"data":"АТ"},{"type":"hashtag","offset":32,"length":9,"data":"удаленка"},{"type":"handle","offset":929,"length":8,"data":"Priboch"}],"date":"2020-06-17T10:42:47+00:00","link":"tg://resolve?domain=qa_jobs&post=0","tags":[{"name":"qa"},{"name":"java"}],"cities":[],"allowsRemote":true}},{"node":{"__typename":"Job","id":"103043563520-1001089317451","title":"Qa engineer","text":"#СПб #СанктПетербург #вакансия #QA #fulltime #office #automation\n🏙Компания: Actimind\n📣Вакансия: QA Automation Engineer\n🌎Проект: Evernote – один из самых популярных сервисов для заметок и для предоставления единой рабочей среды.\n💰Зп: до 130 000 net\n\n🇺🇸В составе распределенной международной команды предстоит: \n🔸Разрабатывать и поддерживать автотесты на Java;\n🔸Оптимизировать Performance; \n🔸Поддерживать и развивать существующий фреймворк;\n🔸Предлагать улучшения в процессе тестирования;\n🔸Иногда тестировать вручную (не более 10% времени).\nИспользуемый стек: Java , JBehave, Selenium, немного python\n\nMust have:\n🔸Опыт автоматизации на Java, Selenium и знание ООП\n🔸Английский для работы с документацией и участия в общих митингах (intermediate)\n🔸Приветствуется владение Python, JBehave.\n\nУсловия:\n📚Возможность участвовать в обучающих конференциях от Evernote;\n🎓Экспертная команда;\n💎Спорт, медицинские компенсации, оплата обучений\nОфис рядом с м. Старая Деревня\n\nПишите в телеграм: @actimind_jobs, на почту ksenia.dryukova@actimind.com\nИли звоните +7(921)1847150","markup":[{"type":"hashtag","offset":0,"length":4,"data":"СПб"},{"type":"hashtag","offset":5,"length":15,"data":"СанктПетербург"},{"type":"hashtag","offset":21,"length":9,"data":"вакансия"},{"type":"hashtag","offset":31,"length":3,"data":"QA"},{"type":"hashtag","offset":35,"length":9,"data":"fulltime"},{"type":"hashtag","offset":45,"length":7,"data":"office"},{"type":"hashtag","offset":53,"length":11,"data":"automation"},{"type":"bold","offset":610,"length":11,"data":""},{"type":"bold","offset":799,"length":9,"data":""},{"type":"handle","offset":995,"length":14,"data":"actimind_jobs"},{"type":"link","offset":1020,"length":28,"data":"mailto:ksenia.dryukova@actimind.com"},{"type":"link","offset":1061,"length":14,"data":"tel:+7(921)1847150"}],"date":"2020-06-17T10:37:11+00:00","link":"tg://resolve?domain=qa_jobs&post=0","tags":[{"name":"qa"},{"name":"dotnet"},{"name":"java"},{"name":"selenium"},{"name":"python"}],"cities":[],"allowsRemote":false}},{"node":{"__typename":"Job","id":"103042514944-1001089317451","title":"Qa engineer","text":"#вакансия #Москва #офис\nДолжность: QA automation engineer\nКомпания: Открытая мобильная платформа\nГород: Москва, м.Парк Победы\nЗП: до 160к\nСтек: Python, Pytest, requests + cattrs, selenium\n\nУсловия:\n•ЗП до 160 000 гросс (в зависимости от ваших тех скиллов)\n•Участие в конференциях\n•ДМС\n•Гибкое начало рабочего дня \n\nЗадачи:\n•Разработка автоматизированных тестов (web + api), стремимся к 100% покрытию автотестами  (не unit)\n•Участие в развитии тестового framework'а\n•Командная работа с разработчиками и аналитиками (Scrum Dev Team)\n\nРассмотрим кандидатов с опытом в QA automation (Python) от полугода\n\nРезюме можно направить сюда: @Rita_RS \nили на почту: m.sinelnikova@getit.agency","markup":[{"type":"hashtag","offset":0,"length":9,"data":"вакансия"},{"type":"hashtag","offset":10,"length":7,"data":"Москва"},{"type":"hashtag","offset":18,"length":5,"data":"офис"},{"type":"bold","offset":35,"length":23,"data":""},{"type":"bold","offset":133,"length":5,"data":""},{"type":"bold","offset":189,"length":9,"data":""},{"type":"bold","offset":315,"length":8,"data":""},{"type":"bold","offset":565,"length":13,"data":""},{"type":"bold","offset":601,"length":6,"data":""},{"type":"handle","offset":630,"length":8,"data":"Rita_RS"},{"type":"link","offset":654,"length":26,"data":"mailto:m.sinelnikova@getit.agency"}],"date":"2020-06-17T10:28:06+00:00","link":"tg://resolve?domain=qa_jobs&post=0","tags":[{"name":"qa"},{"name":"python"},{"name":"selenium"},{"name":"web"}],"cities":[{"code":"moscow"}],"allowsRemote":false}},{"node":{"__typename":"Job","id":"103039369216-1001089317451","title":"Qa engineer","text":"#вакансия #QA #ФТ #СПб #офис \n\nВакансия: QA Engineer (ручное с переходом в АТ), Middle/Senior\nГород: Санкт-Петербург \nЗарплата: от 100 000 до 150 000 рублей на руки \nФормат: офис, полный день, полная занятость\nКомпания Wert\n\nКоманда Wert занимается разработкой финтех-решений на базе blockchain. В данным момент мы ищем Senior QA Engineer, готового трудиться над созданием и развитием нового продукта.\n\nЧто нужно будет делать:\n • Анализ задач для разработки\n • Написание тестовой документации\n • Анализ и решение технических проблем, связанных с конфигурацией сервисов\n • Работать в тесном контакте с разработчиками.\n\nОгромным плюсом будут:\n • Опыт работы в финансовом секторе/процессинге\n • Понимание технологии blockchain\n\nВ работе мы используем:\n• Golang\n• Amazon\n• Kubernetes\n• PostgreSQL\n• Redis\n\nЧто мы ожидаем от вас:\n • Опыт в тестировании как backend, так и frontend от 2-х лет\n • Умение составлять план тестирования.\n • Базовое понимание вопросов безопастности (SQL Injection, XSS, OWASP - хоть одно слово должно вызвать отклик)\n • Знание видов тестирование и понимание разницы между ними.\n • Наличие опыта работы с баг-трекинговыми и кейс-трекинговыми системами (например, с JIRA и TestRail)\n • Способность аргументированно выбирать оптимальные инструменты и решения\n • Умение работать в команде и самостоятельно\n\nЧто мы можем предложить:\n • участие в интересном проекте с “нуля”;\n • адекватную команду;\n • плоскую структуру компании без бюрократии.\n\n\nРезюме и вопросы @gonzogirl","markup":[{"type":"hashtag","offset":0,"length":9,"data":"вакансия"},{"type":"hashtag","offset":10,"length":3,"data":"QA"},{"type":"hashtag","offset":14,"length":3,"data":"ФТ"},{"type":"hashtag","offset":18,"length":4,"data":"СПб"},{"type":"hashtag","offset":23,"length":5,"data":"офис"},{"type":"handle","offset":1480,"length":10,"data":"gonzogirl"}],"date":"2020-06-17T09:47:25+00:00","link":"tg://resolve?domain=qa_jobs&post=0","tags":[{"name":"qa"},{"name":"go"},{"name":"kubernetes"},{"name":"postgresql"},{"name":"redis"},{"name":"sql"}],"cities":[],"allowsRemote":false}}]}}},"context":{}}