{"hash":"f5f6bf98bd95e769321482904cbbd488f77922fd","data":{"records":{"id":"swift","name":"swift","belongsTo":{"totalCount":133,"pageInfo":{"totalPages":14,"currentPage":9},"edges":[{"node":{"__typename":"Job","id":"71777124352-1001054966032","title":"Ios разработчик","text":"#вакансия #ios \n\n📱Ищется в распределенную команду Разработчик IOS (Swift). \n\n✅ Формат работы:  удаленка/ meetup в СПб\n\n✅ Занятость: частичная, проектная\n\nПриглашаем Junior/Intermediate разработчика в команду для совместной работы над мобильным приложением (аналог системы охраны AJAX) управление умным домом, аналитика, оповещения и т.п. \n\n👨‍💻Мы - небольшая дружелюбная и веселая команда профессионалов, работаем в сфере автоматизации бизнеса различных направлений. С нами интересно и есть куда вырасти в части навыков, опыта и компетенций. \n\n✅ Условия: \n\n- Выплаты по этапам выполнения проекта \n- Новые задачи и проекты по мере роста компетенций и опыта.\n- Вилка 15000 - 60000р\n\n✅ Контакты:\n\n@vseoto","markup":[{"type":"hashtag","offset":0,"length":9,"data":"вакансия"},{"type":"hashtag","offset":10,"length":4,"data":"ios"},{"type":"link","offset":667,"length":13,"data":"tel:15000 - 60000"},{"type":"handle","offset":696,"length":7,"data":"vseoto"}],"date":"2020-06-22T11:48:13+00:00","link":"tg://resolve?domain=mobile_jobs&post=68452","tags":[{"name":"mobile"},{"name":"ios"},{"name":"swift"},{"name":"ajax"}],"cities":[],"allowsRemote":true}},{"node":{"__typename":"Job","id":"71765590016-1001054966032","title":"Ios разработчик","text":"#вакансия #ios #swift #офис #москва\nм.Бауманская, полная занятость\nБелая з/п от 150.000 до 200.000 руб. на руки\niOS developer\n\nМы — команда разработки Level.Travel, сложного продукта в сфере путешествий.  За последние 8 лет мы с нуля создали и продолжаем развивать решение для онлайн-продажи путешествий. Нашу платформу используют лидеры рынка – Тинькофф Банк, OneTwoTrip, Сбербанк, TripAdvisor, Kayak, АК Барс Банк, Евросеть и многие другие. Компания Level.Travel является резидентом Инновационного центра «Сколково».\n\nОбязанности:\n🔸Разработка проекта на Swift\n🔸Разработка новых модулей приложения\n🔸Проведение code review\n🔸Пишем на VIPER, используем Realm, Swinject, SnapKit\n🔸Сбор требований и фидбэка от других команд разработчиков и дизайнеров для улучшения и развития нашего продукта\n🔸Проводить оценку и корректировать требования для развития и улучшения приложения\n\nОт Вас:\n🔸Разработка на iOS от 2х лет\n🔸Умеете писать поддерживаемый и тестируемый код и понимаете, что DRY, KISS и 🔸SOLID — не просто аббревиатуры\n🔸Умение разрабатывать многопоточные приложения\n🔸Способность планировать и приоритезировать работу\n🔸Умение находить аргументы и конструктивно реагировать на комментарии коллег\n🔸Готовность много общаться с другими командами\n\nОт нас: белая зп, официальное трудоустройство, больничные, отпуска. Скидки на изучение английского языка, техника MacBook Pro. Регулярная обратная связь и аттестации. Геймификация процессов и несколько раз в год релокейты поработать в другую страну. Клевый молодой коллектив, интересные ивенты, насыщенная корпоративная жизнь. Пинг-понг, бильярд, кальян и другие развлечения в офисе. Скидки на путешествия)\n\nСвязь по почте: vos@level.travel\nИли тут @Alyask_a","markup":[{"type":"hashtag","offset":0,"length":9,"data":"вакансия"},{"type":"hashtag","offset":10,"length":4,"data":"ios"},{"type":"hashtag","offset":15,"length":6,"data":"swift"},{"type":"hashtag","offset":22,"length":5,"data":"офис"},{"type":"hashtag","offset":28,"length":7,"data":"москва"},{"type":"bold","offset":67,"length":44,"data":""},{"type":"bold","offset":112,"length":13,"data":""},{"type":"bold","offset":127,"length":76,"data":""},{"type":"bold","offset":521,"length":12,"data":""},{"type":"bold","offset":878,"length":7,"data":""},{"type":"bold","offset":1254,"length":7,"data":""},{"type":"bold","offset":1662,"length":32,"data":""},{"type":"link","offset":1678,"length":16,"data":"mailto:vos@level.travel"},{"type":"bold","offset":1695,"length":17,"data":""},{"type":"handle","offset":1703,"length":9,"data":"Alyask_a"}],"date":"2020-06-22T10:35:56+00:00","link":"tg://resolve?domain=mobile_jobs&post=68441","tags":[{"name":"mobile"},{"name":"ios"},{"name":"swift"},{"name":"realm"}],"cities":[{"code":"moscow"}],"allowsRemote":false}},{"node":{"__typename":"Job","id":"71763492864-1001054966032","title":"Ios developer","text":"#вакансия #IOS #Swift #middle\n\nMiddle+ IOS developer \nКомпания WebAnt I Ростов-на-Дону (Кировский р-н)\n\nФормат работы: удаленно или в офисе, если ты из Ростова-на-Дону\nЗанятость: full-time \nЗП от 80 тыс. руб. до 100 тыс. руб. на руки \n\nЖдем тебя, если ты: \n\nУверенно знаешь Swift; realm, alamofire\nЕсть опыт написания клиент-серверных приложений от 2 лет\nОпыт работы с серверным API, JSON;\nРаботаешь с Git;\nПонимаешь ООП и шаблоны проектирования;\nЗнаешь базовые алгоритмы и структуры данных;\nРаботаешь с rest API;\nТестируешь собственный код;\nРаботаешь с ffmpeg либо другими библиотеками по обработке видео\nЗнаешь английский язык на уровне чтения технической документации\nЕсть свои приложения в продакшете\n\nКсения: @sladkiy_pirozhok","markup":[{"type":"hashtag","offset":0,"length":9,"data":"вакансия"},{"type":"hashtag","offset":10,"length":4,"data":"IOS"},{"type":"hashtag","offset":15,"length":6,"data":"Swift"},{"type":"hashtag","offset":22,"length":7,"data":"middle"},{"type":"handle","offset":714,"length":17,"data":"sladkiy_pirozhok"}],"date":"2020-06-22T10:11:27+00:00","link":"tg://resolve?domain=mobile_jobs&post=68439","tags":[{"name":"mobile"},{"name":"ios"},{"name":"swift"},{"name":"realm"},{"name":"json"},{"name":"git"},{"name":"rest"}],"cities":[{"code":"rostov"},{"code":"kirov"}],"allowsRemote":true}},{"node":{"__typename":"Job","id":"71750909952-1001054966032","title":"Ios разработчик","text":"‼️Вакансия Senior IOS C++ Developer‼️\n#вакансия #IOS #developer #удаленка\nВ команде Mycelium Wallet (mycelium.com) открыта вакансия Senior IOS C++ Developer.\n💵З/П 3000-4000 USD по итогам собеседования.\nРабота удаленная 💻\n\nМы предлагаем:\n🔸Получить навыки и компетенции в одном из самых передовых и перспективных направлений финтех индустрии - blockchain;\n🔸Принять участие в разработке одного из самых популярных биткоин-стартапов;\n🔸Работать в международной команде бок о бок с ведущими специалистами в индустрии;\n🔸Возможность профессионального карьерного роста и участия в разнообразных проектах компании.\nЧем предстоит заниматься:\n🔸Разрабатывать мультивалютный крипто-валютный кошелек с кросс-платформенным ядром;\n🔸Проектировать и разрабатывать большие функциональные части приложения с привлечением других разработчиков;\n🔸Использовать cutting edge технологии, а также проверенные временем решения;\n🔸Находить решения для нестандартных задач.\nТребования:\n✔️Как минимум 3 года опыта разработки под IOS и опыта программирования на C++;\nЗнание C++ на уровне ведущего разработчика;\n✔️Знание шаблонов проектирования, опыт использования MVP и других архитектурных подходов;\n✔️Знание шаблонов проектирования пользовательских интерфейсов для iOS 9+ (Human Interface Guidelines);\n✔️Знание iOS SDK (UIKit, Foundation, CoreLocation и др.), общее понимание архитектуры iOS;\n✔️Знание особенностей UiKit: storyboards, autolayout, size classes;\n✔️Знание CocoaPods, FastLane, Xcode utils, code analyzers;\n✔️Опыт параллельного и многопоточного программирования, знание примитивов синхронизации (std::thread, std::mutex и тд);\n✔️Понимание циклов работы IOS-приложения и управления памятью;\n✔️Понимание принципов работы REST API, RPC, WS и клиент-серверных приложений;\n✔️Опыт работы с системами контроля версий (Git) и постановки задач (JIRA, TFS, Redmine);\n✔️Знание английского языка на уровне чтения документации и умения общаться в корпоративном чате.\n\nПлюсом будет:\n🔸Знание Objective-С и Swift;\n🔸Умение и понимание необходимости написания Unit tests;\n🔸Знание основ криптографии;\n🔸Опыт работы с bitcoin/etherium blockchain stack;\n🔸Наличие своих проектов на Github, в App Store и т.д.\n\n📲 Контакт : @valeritata","markup":[{"type":"hashtag","offset":38,"length":9,"data":"вакансия"},{"type":"hashtag","offset":48,"length":4,"data":"IOS"},{"type":"hashtag","offset":53,"length":10,"data":"developer"},{"type":"hashtag","offset":64,"length":9,"data":"удаленка"},{"type":"link","offset":101,"length":12,"data":"http://mycelium.com"},{"type":"handle","offset":2196,"length":11,"data":"valeritata"}],"date":"2020-06-22T07:22:15+00:00","link":"tg://resolve?domain=mobile_jobs&post=0","tags":[{"name":"mobile"},{"name":"ios"},{"name":"uikit"},{"name":"cocoapods"},{"name":"xcode"},{"name":"rest"},{"name":"git"},{"name":"tfs"},{"name":"objective-c"},{"name":"swift"},{"name":"github"}],"cities":[],"allowsRemote":true}},{"node":{"__typename":"Job","id":"71726792704-1001054966032","title":"Ios разработчик","text":"#вакансия #Москва #fulltime #swift #middle \nКомпания: Trinity Monsters\nПозиция: middle iOS developer\nЛокация: Россия, Москва, офис в самом центре, у метро Охотный Ряд\nЗанятость: полная \n\nЗП: от 150.000 до 200.000 руб. на руки\n\nНа новый проект (с нуля), нужен разработчик в команду. Мы занимаемся разработкой с 2013 года и входим в ТОП-10 лучших разработчиков Москвы. У нас небольшой коллектив, с которым мы реализуем амбициозные проекты (Nespresso, Азбука Вкуса, Газпром-Нефть, ВТБ, несколько внутренних проектов-стартапов).\n\nИщем разработчиков уровня middle и выше.  \n\nПочему мы:\n⁃ гибкий график\n⁃ отлаженный менеджмент\n⁃ большие проекты \n⁃ работа с разнообразными интересными и амбициозными проектами\n⁃ сложные технические задачи, возможность развития и роста\n⁃ просторный комфортный офис в 2-х минутах от метро Охотный ряд с кухней, чаем, кофе и т.д.\n⁃ возможность влиять на продукт и вносить свои идеи\n⁃ оформление по ТК РФ\n\nДля связи @vicemik","markup":[{"type":"hashtag","offset":0,"length":9,"data":"вакансия"},{"type":"hashtag","offset":10,"length":7,"data":"Москва"},{"type":"hashtag","offset":18,"length":9,"data":"fulltime"},{"type":"hashtag","offset":28,"length":6,"data":"swift"},{"type":"hashtag","offset":35,"length":7,"data":"middle"},{"type":"handle","offset":939,"length":8,"data":"vicemik"}],"date":"2020-06-21T09:05:49+00:00","link":"tg://resolve?domain=mobile_jobs&post=0","tags":[{"name":"mobile"},{"name":"ios"},{"name":"swift"}],"cities":[{"code":"moscow"}],"allowsRemote":false}},{"node":{"__typename":"Job","id":"71724695552-1001054966032","title":"Ios разработчик","text":"#вакансия #swift #objective-C #ios\n\nГород : Санкт-Петербург\nФормат работы: офис или удаленно\nЗанятость: Полная\nЗарплатная вилка:  90 000 - 300 000 руб\n\nОписание компании:\nВ Blogman мы занимаемся разработкой собственного приложения – платформа для блогеров и рекламодателей. В нашей команде уже более 50 разработчиков и мы продолжаем расти. Сейчас мы ищем инженера с опытом коммерческой разработки под iOS.\nОсновной стек технологий — Swift, Realm, Alamofire. Сейчас мы разрабатываем бизнес-функционал и будем рады новому специалисту в нашей команде, вместе с которым мы будем делать быстрое приложение с отзывчивым и плавным интерфейсом.\n\nМы ожидаем, что у вас есть:\n— Опыт коммерческой разработки мобильных приложений под iOS;\n— Хорошие знания Swift, UIKit;\n— Опыт работы с мобильными БД;\n— Умение работать с Git, Cocoapods.\n\nБудет плюсом, если вы:\n— Разрабатывали клиент-серверные приложения;\n— Умеете работать с WebSocket;\n— Знаете и понимаете архитектуру VIPER;\n— Командный игрок без яркого эгоцентризма;\n— Готовы активно принимать участие в жизни компании и продукта.\n\nРады предложить:\n– Удаленное сотрудничество или комфортный офис на Невском проспекте в 5 минутах ходьбы от ст. м. Маяковская и Владимирская;\n– Желаемый оклад по результатам собеседования;\n– Понятную систему роста зарплаты каждые 6 месяцев, в которой все зависит только от вас;\n– Все необходимые офисные блага вроде вкусного кофе и т.д.\nВас будут окружать адекватные люди, с которыми комфортно решать поставленные задачи. У сотрудников есть общие ценности, такие как стремление к качественному результату, забота о продукте и желание двигаться вперед. Также у нас нет “Начальства”, а есть коллеги. Все взаимодействуют горизонтально и в команде равенство между инженерами, стейкхолдером, продактом и т.д. Все работают бок о бок и делают одно общее дело.\nНазвание компании: Blogman","markup":[{"type":"hashtag","offset":0,"length":9,"data":"вакансия"},{"type":"hashtag","offset":10,"length":6,"data":"swift"},{"type":"hashtag","offset":17,"length":10,"data":"objective"},{"type":"hashtag","offset":30,"length":4,"data":"ios"},{"type":"bold","offset":173,"length":8,"data":""},{"type":"bold","offset":438,"length":2,"data":""},{"type":"bold","offset":445,"length":2,"data":""},{"type":"bold","offset":638,"length":27,"data":""},{"type":"bold","offset":826,"length":22,"data":""},{"type":"bold","offset":1073,"length":16,"data":""}],"date":"2020-06-21T08:50:59+00:00","link":"tg://resolve?domain=mobile_jobs&post=0","tags":[{"name":"mobile"},{"name":"ios"},{"name":"swift"},{"name":"objective-c"},{"name":"realm"},{"name":"uikit"},{"name":"git"},{"name":"cocoapods"},{"name":"websocket"}],"cities":[],"allowsRemote":true}},{"node":{"__typename":"Job","id":"71703724032-1001054966032","title":"Ios developer","text":"#вакансия #ios #swift #senior #middle #петербург #fulltime \n\niOS Developer (Senior, Middle)\nЗ/п: 2000-3500$\n\nLifestyle Production Group - американская компания, лидер в индустрии видеомаркетинга элитного сегмента \nhttps://lifestyleproduction.com\n\nЧто нужно делать:\nРазработка внутреннего продукта компании в сфере видеоредактирования\n\nДля нас важно: \n 1. Опыт коммерческой разработки\n 2. Практический опыт работы с многопоточностью и autolayout\n 3. Наличие примеров кода\n\nЧто предлагаем:\n 1. Работа над быстро развивающимся, востребованным продуктом в перспективной индустрии\n 2. Работа на иностранный рынок\n 3. Корпоративное оборудование, индивидуальная комплектация рабочего места\n 4. Good energy vibe\n\nКонтакты: @nadipakhomova, nadya@lifestyleproduction.com","markup":[{"type":"hashtag","offset":0,"length":9,"data":"вакансия"},{"type":"hashtag","offset":10,"length":4,"data":"ios"},{"type":"hashtag","offset":15,"length":6,"data":"swift"},{"type":"hashtag","offset":22,"length":7,"data":"senior"},{"type":"hashtag","offset":30,"length":7,"data":"middle"},{"type":"hashtag","offset":38,"length":10,"data":"петербург"},{"type":"hashtag","offset":49,"length":9,"data":"fulltime"},{"type":"bold","offset":61,"length":30,"data":""},{"type":"bold","offset":92,"length":16,"data":""},{"type":"link","offset":214,"length":31,"data":"https://lifestyleproduction.com"},{"type":"bold","offset":247,"length":18,"data":""},{"type":"bold","offset":335,"length":16,"data":""},{"type":"bold","offset":472,"length":16,"data":""},{"type":"handle","offset":715,"length":14,"data":"nadipakhomova"},{"type":"link","offset":731,"length":29,"data":"mailto:nadya@lifestyleproduction.com"}],"date":"2020-06-20T14:21:37+00:00","link":"tg://resolve?domain=mobile_jobs&post=0","tags":[{"name":"mobile"},{"name":"ios"},{"name":"swift"}],"cities":[],"allowsRemote":false}},{"node":{"__typename":"Job","id":"71696384000-1001054966032","title":"Ios разработчик","text":"#вакансия #iOS #москва\n\nНа проект от крупного российского банка требуется Middle iOS разработчик\n\nФормат: офис\n\nВилка ЗП: 160-200К\n\nЛокация: Москва\n\nТребования:\n- Гражданство РФ\n- Опыт разработки под IOS (Objective-C или Swift) от 2 лет\n- Уверенное знание iOS SDK, Xcode\n- Опыт использования одной из архитектур: MVP, MVVM, VIPER\n- Знание особенностей: Collections, Optionals, Protocol Oriented, Generics\n- Понимание, как происходит управление памятью в iOS\n- Понимание принципов проектирования SOLID и желание придерживаться их\n- Наличие опыта работы с REST API, HTTP, JSON, APNs\n- Опыт работы с Git, знание git flow\n\nБудет плюсом:\n\n- Умение писать UI тесты\n- Опыт работы в команде\n\nКонтакт: @mxm_at","markup":[{"type":"hashtag","offset":0,"length":9,"data":"вакансия"},{"type":"hashtag","offset":10,"length":4,"data":"iOS"},{"type":"hashtag","offset":15,"length":7,"data":"москва"},{"type":"bold","offset":73,"length":23,"data":""},{"type":"bold","offset":98,"length":7,"data":""},{"type":"bold","offset":112,"length":9,"data":""},{"type":"bold","offset":132,"length":8,"data":""},{"type":"bold","offset":149,"length":11,"data":""},{"type":"bold","offset":619,"length":13,"data":""},{"type":"bold","offset":684,"length":8,"data":""},{"type":"handle","offset":693,"length":7,"data":"mxm_at"}],"date":"2020-06-20T13:14:08+00:00","link":"tg://resolve?domain=mobile_jobs&post=0","tags":[{"name":"mobile"},{"name":"ios"},{"name":"objective-c"},{"name":"swift"},{"name":"xcode"},{"name":"mvvm"},{"name":"rest"},{"name":"json"},{"name":"git"}],"cities":[{"code":"moscow"}],"allowsRemote":false}},{"node":{"__typename":"Job","id":"71664926720-1001054966032","title":"Ios разработчик","text":"#вакансия #работа #iOS #Developer #fulltime #удаленно\n\nВсем привет!\n\nМы в applicatura.com опять выросли и ищем Junior/middle iOS-разработчика. \nЗП 60 000 - 100 000 руб. после налогов. \n\n\nМы создаем и поддерживаем мобильные приложения для крупных известных брендов , SimpleWine, Перекресток, Абсолют Банк и др. \nВ команде - дизайнеры, мобильные разработчики, бэкенд разработчики, проджект менеджеры, qa-инженеры.\nУ нас налаженные процессы разработки и никакого чайка-менеджмента. \n\nЧто вам придется делать:\n - разрабатывать новые приложений \n - поддерживать имеющиеся приложения клиентов\n - создание библиотек и SDK\n - верстать по макетам дизайнеров\n - проходить технические аудиты от заказчиков\n\n\nТребования:\n- Опыт коммерческой разработки от 0,5 года;\n - Знание Swift\n - Знание особенностей и тонкостей разработки под iOS (UIKit, Foundation, CoreData и др.)\n - Знание git и уверенное использование подходов и инструментов командной разработки и ревью кода - ревьювить будем вас )\n - Имеющееся представление о том, как выстроить архитектуру большого и сложного приложения\n - Знания последних технологий, фреймворков, инструментов и вообще желание разумно следовать прогрессу\n - Понимание аспектов и этапов разработки мобильного приложения полного цикла (от настройки окружения до релиза в сторы)\n - Знание библиотек и стека мобильной разработки\n\nУсловия:\n\n - белая ЗП, соблюдаем и чтим Трудовой Кодекс РФ\n - возможность иметь нестандартный рабочий график\n - предоставляем возможности для карьерного и профессионального роста\n - работа в крупных публичных проектах, которые можно положить себе в портфолио\n \nВАЖНО! Вакансия для граждан РФ/РБ. \n\nПисать в телеграм @k_kononov, CV присылать на почту kononov@applicatura.com","markup":[{"type":"hashtag","offset":0,"length":9,"data":"вакансия"},{"type":"hashtag","offset":10,"length":7,"data":"работа"},{"type":"hashtag","offset":18,"length":4,"data":"iOS"},{"type":"hashtag","offset":23,"length":10,"data":"Developer"},{"type":"hashtag","offset":34,"length":9,"data":"fulltime"},{"type":"hashtag","offset":44,"length":9,"data":"удаленно"},{"type":"link","offset":74,"length":15,"data":"http://applicatura.com"},{"type":"handle","offset":1662,"length":10,"data":"k_kononov"},{"type":"link","offset":1696,"length":23,"data":"mailto:kononov@applicatura.com"}],"date":"2020-06-19T15:13:09+00:00","link":"tg://resolve?domain=mobile_jobs&post=0","tags":[{"name":"mobile"},{"name":"ios"},{"name":"swift"},{"name":"uikit"},{"name":"git"}],"cities":[],"allowsRemote":true}},{"node":{"__typename":"Job","id":"71658635264-1001054966032","title":"Ios разработчик","text":"#вакансия #Иннополис #Казань #IOS #swift #fulltime #remote\n\nВакансия: IOS разработчик\nКомпания: UFS.travel (https://www.ufs-online.ru/)\nЛокация: Иннополис\nФормат работы: удаленно или совмещение офиса и дистанционной работы\nЗ/п: от 100 000 до 150 000 руб (финальную цифру обсуждаем с успешным кандидатом) \n\n📌Что нужно будет делать?\nРазработка мобильных приложений по продаже ЖД билетов на платформе iOS.\n\n💪🏻Какие нужны компетенции?\n•Знание платформы iOS и стандартных библиотек;\n•Опыт работы: от 1 года разработки мобильных приложений ios;\n•Понимание принципов ООП, особенностей построения и разработки клиент-серверных приложений;\n•Уверенные знания Swift, понимание Objective-C.\n\n🏆Бонусы?\n•У нас полностью заполненный беклог на ближайший год: много внедрения нового функционала, в том числе оплата по карте, авторизация через AppleId и соцсети и многое другое. Все требования прорабатываются аналитиком;\n•Оформление по ТК РФ, официальная заработная плата, соц. пакет;\n•Возможность совмещения офиса и дистанционной работы или полностью удаленная работа;\n•Дружная и профессиональная команда, в которую входят аналитик, тестировщик мобильных сервисов, менеджер продукта;\n•ДМС со стоматологией после испытательного срока;\n•Возможность посещения конференций, семинаров, курсов за счет компании;\n•Комфортабельный современный офис в IT-городе Иннополис.\n\nКонтакты:\n✉️ euhabina@ufs.travel\n✍🏻 ЛС","markup":[{"type":"hashtag","offset":0,"length":9,"data":"вакансия"},{"type":"hashtag","offset":10,"length":10,"data":"Иннополис"},{"type":"hashtag","offset":21,"length":7,"data":"Казань"},{"type":"hashtag","offset":29,"length":4,"data":"IOS"},{"type":"hashtag","offset":34,"length":6,"data":"swift"},{"type":"hashtag","offset":41,"length":9,"data":"fulltime"},{"type":"hashtag","offset":51,"length":7,"data":"remote"},{"type":"link","offset":96,"length":10,"data":"http://UFS.travel"},{"type":"link","offset":108,"length":26,"data":"https://www.ufs-online.ru/"},{"type":"link","offset":1365,"length":19,"data":"mailto:euhabina@ufs.travel"}],"date":"2020-06-19T13:53:15+00:00","link":"tg://resolve?domain=mobile_jobs&post=0","tags":[{"name":"mobile"},{"name":"ios"},{"name":"swift"},{"name":"objective-c"}],"cities":[{"code":"kazan"}],"allowsRemote":true}}]}}},"context":{}}