{"hash":"f5f6bf98bd95e769321482904cbbd488f77922fd","data":{"records":{"id":"vuejs","name":"vuejs","belongsTo":{"totalCount":82,"pageInfo":{"totalPages":9,"currentPage":1},"edges":[{"node":{"__typename":"Job","id":"17358127104-1001110946746","title":"Js разработчик","text":"#вакансия #работа #fulltime #parttime #JavaScript #vuejs #Frontend #Web\n\nГород и адрес офиса: Москва\nФормат работы: удаленка\nЗанятость: частичная, не менее 20-30 часов в неделю или полная 40 часов в неделю\nЗарплатная вилка: от 7$ до 20$ в час, либо сдельная\n\n\nО проекте:\nМы разрабатываем MVP нового сервиса для доставки и предзаказа еды. Также разрабатываем MVP для управления персоналом в сфере ЖКХ\n\nМакеты в Sketch, задачи в Трекере\n\nСтек:\nVue2 + Vuex\n\nОписание вакансии\nТребования:\nУмение верстать по макетам из Sketch/Figma\nПонимание принципа работы Vuex, уметь рассказать зачем он вообще нужен.\nvue+vuex, es6, vue-cli\nЗнание html, css3, BEM-методологии\nУмение работать с git, знание процесса git flow будет плюсом.\nОпыт интеграции Google/OSM maps будет плюсом.\nОпыт настройки CI/CD или хотя бы понимание как устроен процесс сборки Vue проекта.\n\nВам предстоит:\nРазрабатывать фронтенд-часть проекта по предоставленным макетам, никакого legacy, проект начинается с нуля.\nКомандная работа, утренние стендапы и еженедельные релизы.\n\nКомпания: Enlighted\n\nКонтакты:\nПисать мне в личку @westarakagrek или на почту ra@enlighted.ru\n\n—\n\n👉 Обсуждение вакансии в чате @javascript_jobs","markup":[{"type":"hashtag","offset":0,"length":9,"data":"вакансия"},{"type":"hashtag","offset":10,"length":7,"data":"работа"},{"type":"hashtag","offset":18,"length":9,"data":"fulltime"},{"type":"hashtag","offset":28,"length":9,"data":"parttime"},{"type":"hashtag","offset":38,"length":11,"data":"JavaScript"},{"type":"hashtag","offset":50,"length":6,"data":"vuejs"},{"type":"hashtag","offset":57,"length":9,"data":"Frontend"},{"type":"hashtag","offset":67,"length":4,"data":"Web"},{"type":"handle","offset":1083,"length":14,"data":"westarakagrek"},{"type":"link","offset":1111,"length":15,"data":"mailto:ra@enlighted.ru"},{"type":"handle","offset":1161,"length":16,"data":"javascript_jobs"}],"date":"2020-07-03T10:19:14+00:00","link":"tg://resolve?domain=javascript_jobs_feed&post=16554","tags":[{"name":"javascript"},{"name":"vuejs"},{"name":"web"},{"name":"html"},{"name":"css"},{"name":"git"}],"cities":[{"code":"moscow"}],"allowsRemote":true}},{"node":{"__typename":"Job","id":"17346592768-1001110946746","title":"Js разработчик","text":"#вакансия #москва #middle #remote #angular #fulltime #офис\n\nИщем frontend разработчика для работы над основным сайтом и новыми разделами.\nГород и адрес офиса: Москва, м. Авиамоторная\nФормат работы: Офис\nЗанятость: полная\nЗарплатная вилка: 130 000 — 150 000 на руки по результатам технического собеседования\n\nAutospot.ru — онлайн гипермаркет автомобилей. 🚘\n\nВ 2018 году Mitsubishi Corporation и Mail.ru. оценили нас в $19,1 млн.\n\nВ технической команде 17 человек: СТО, 9 PHP разработчиков, 2 frontend разработчика, 3 тестировщика, DevOps.\n\nЧеловек нужен в Москве или готовый в эту самую Москву переехать.\n\n📍Обязанности:\n▫️Разработка компонентов и адаптация/интеграция сторонних библиотек и плагинов;\n▫️ Верстка новых разделов, кроссбраузерная, адаптивная, валидная;\n▫️ Развитие библиотеки UI компонентов;\n▫️ Оперативное исправление багов на проде (IE 11+);\n▫️ Помощь в оптимизации работы сайта (скорость загрузки, оптимизация DOM).\n\n📍Требования:\n▪️ Опыт разработки от 2 лет;\n▪️ Знание JavaScript (jQuery в разумных пределах);\n▪️ Уверенное знание html семантическая верстка, БЭМ, SCSS;\n▪️ Знание работы GIT & NPM;\n▪️ Опыт работы с gulp/webpack;\n▪️ Опыт работы с Figma/Zeplin;\n▪️ Опыт работы с векторной графикой (svg и svg-спрайты).\n\n📍Желательно:\n◾️ Хорошее знание Vue.js и/или Angular 5+. Работать надо будет и с тем и с другим. Angular 5+ в приоритете, планируется переход полностью на него;\n◾️ Знание инструментов организации разработки Jira;\n◾️ Знание нюансов работы браузеров на разных устройствах и ОС;\n◾️ Опыт сео оптимизации;\n◾️ Понимание, что такое доступные интерфейсы;\n\n📍Условия:\n▫️ Комфортабельный офис, БЦ Light Tower, бесплатный шаттл от м. Площадь Ильича;\n▫️ Оформление по ТК РФ с первого рабочего дня;\n▫️ Гибкое начало рабочего дня, с 9 до 11;\n▫️ Возможность работать 1-2 дня удалённо;\n▫️ Полностью белая заработная плата;\n▫️ Неформальная атмосфера и дружный, амбициозный коллектив;\n▫️ Корпоративная скидка на изучение английского языка.\n\n📌 Контакт: @dianadoma","markup":[{"type":"hashtag","offset":0,"length":9,"data":"вакансия"},{"type":"hashtag","offset":10,"length":7,"data":"москва"},{"type":"hashtag","offset":18,"length":7,"data":"middle"},{"type":"hashtag","offset":26,"length":7,"data":"remote"},{"type":"hashtag","offset":34,"length":8,"data":"angular"},{"type":"hashtag","offset":43,"length":9,"data":"fulltime"},{"type":"hashtag","offset":53,"length":5,"data":"офис"},{"type":"link","offset":308,"length":11,"data":"http://Autospot.ru"},{"type":"link","offset":395,"length":7,"data":"http://Mail.ru"},{"type":"handle","offset":1970,"length":10,"data":"dianadoma"}],"date":"2020-07-03T07:39:26+00:00","link":"tg://resolve?domain=javascript_jobs_feed&post=16543","tags":[{"name":"javascript"},{"name":"angularjs"},{"name":"php"},{"name":"jquery"},{"name":"html"},{"name":"git"},{"name":"npm"},{"name":"gulp"},{"name":"webpack"},{"name":"svg"},{"name":"vuejs"}],"cities":[{"code":"moscow"}],"allowsRemote":true}},{"node":{"__typename":"Job","id":"17344495616-1001110946746","title":"Javascript разработчик","text":"#вакансия #frontend #vue #москва #fulltime #офис\n\nГород: Москва м. Парк культуры(5 минут)\nФормат: в офисе\nЗанятость: полная\nЗарплатная вилка: 180 000 - 220 000 рублей в месяц net (на руки)\n\nВсякие преимущества:\nВ нашей команде крутые ребята создатели и топы: \nKupiVip, Avito и других лидеров рынка.\nМы работаем в одной из самых быстрорастущих отраслей - FoodTech.\nРабота в современном офисе - WeWork. Кофе, печеньки, бесплатное пиво по вечерам.\nВозможность учиться, развиваться и много работать. \nДМС + стоматология.\n\nЧем занимаемся:\nРазрабатываем систему для сборки и доставки продуктов для сети Пятерочка, микросервисная архитектура, большое кол-во фронтовых (админка, рабочее приложение, операторская).\n\nВаши задачи: \nРазработка архитектуры сложного SPA приложения\nПроект новый - можно влиять участвовать и предлагать новые решения.\nРазработка ведется по спринтам.\n\nНам очень важно:\nАктивность, ответственность и прочие лучшие человеческие качества. Верим, что компанию делают люди.\nА также опыт на Vue от 1 года.\nОпыт на фронте от 3-х лет.  \n\nКомпания: X5 Retail Group (подразделение X5FoodTech)\n\nКонтакты: \nДарья\n@Daryanepevnaya\n+7 925 175 175 2 \ndarya.nepevnaya@x5.ru","markup":[{"type":"hashtag","offset":0,"length":9,"data":"вакансия"},{"type":"hashtag","offset":10,"length":9,"data":"frontend"},{"type":"hashtag","offset":20,"length":4,"data":"vue"},{"type":"hashtag","offset":25,"length":7,"data":"москва"},{"type":"hashtag","offset":33,"length":9,"data":"fulltime"},{"type":"hashtag","offset":43,"length":5,"data":"офис"},{"type":"handle","offset":1118,"length":15,"data":"Daryanepevnaya"},{"type":"link","offset":1134,"length":16,"data":"tel:+7 925 175 175 2"},{"type":"link","offset":1152,"length":21,"data":"mailto:darya.nepevnaya@x5.ru"}],"date":"2020-07-03T07:36:36+00:00","link":"tg://resolve?domain=javascript_jobs_feed&post=16541","tags":[{"name":"javascript"},{"name":"vuejs"},{"name":"dotnet"}],"cities":[{"code":"moscow"}],"allowsRemote":false}},{"node":{"__typename":"Job","id":"17329815552-1001110946746","title":"Js разработчик","text":"#вакансия #vue #vuex #frontend\nМосква, м. Цветной бульвар (2 мин до офиса), фулл тайм в офис на полную занятость\nЗарплатная вилка: от 90 до 180 т.р.\nJETSTAT \n\nОписание вакансии: \nМы делаем инструмент (ETL), который помогает упростить работу пользователей с отчетами.\nМы подключаемся к различным сервисам: рекламным, аналитическим, базам данных и тд, чтобы с помощью автоматизации решать задачи для аналитики и маркетинга.\n\nИщем frontend разработчика для нашей аналитической платформы. У тебя будет самостоятельность в принятии решений, например построение архитектуры.\nПроцессы не строго регламентированы и мы прислушиваемся ко мнению каждого при планировании спринтов.\n\nТебе предстоит:\n\n- разрабатывать сложные интерактивных интерфейсы на JS с использованием Vue;\n- разрабатывать архитектуру проекта со стороны frontend.\n\nМы ожидаем:\n\n- знание JS (ES5 / ES6);\n- знание Vue.js, Vuex Webpack;\n- знание и понимание клиент-серверного взаимодействия;\n- умение работать с REST-API; \n- HTML5, CSS3.\n\nБудет плюсом:\n\n- опыт тестирования кода (мы используем mocha, chai и sinon);\n- WebSockets (используем socket-io).\n\nhttps://jetstat.io/workflow \n\nКонтакты: @diana131313","markup":[{"type":"hashtag","offset":0,"length":9,"data":"вакансия"},{"type":"hashtag","offset":10,"length":4,"data":"vue"},{"type":"hashtag","offset":15,"length":5,"data":"vuex"},{"type":"hashtag","offset":21,"length":9,"data":"frontend"},{"type":"link","offset":1110,"length":27,"data":"https://jetstat.io/workflow"},{"type":"handle","offset":1150,"length":12,"data":"diana131313"}],"date":"2020-07-02T16:33:11+00:00","link":"tg://resolve?domain=javascript_jobs_feed&post=16527","tags":[{"name":"javascript"},{"name":"vuejs"},{"name":"webpack"},{"name":"rest"},{"name":"html"},{"name":"css"},{"name":"mocha"}],"cities":[{"code":"moscow"}],"allowsRemote":false}},{"node":{"__typename":"Job","id":"17313038336-1001110946746","title":"Js разработчик","text":"#вакансия #frontEnd  #удаленка\nИщем frontend developer в компанию Датурум - разработчик и поставщик платформы WikiVote, которую мы внедряем в крупные организации. Платформа создает среду, в которой сотрудники делятся идеями по совершенствованию своей компании, улучшению рабочих процессов, а руководство прислушивается к идеям и внедряет их. \n\n🚩Заработная плата: от 80 000 до 150 000 руб\nЛокация: РФ, удаленно\nРежим работы: полная занятость, 8 часовой рабочий день\n\n🚩Требования: опыт от 2х лет\nCSS3, HTML5, JavaScript\nVue.js второй версии, webpack\nопыт в работе с REST или GraphQL\nумение верстать или писать JS код с учетом возможностей IE11\nуверенное использование Git\n\n🚩Чем заниматься: внедрением платформы в гос и частные крупные учреждения, исследовательские штуки типа разработки всяких умных алгоритмов для платформы.\nТакже примерно раз в год мы делаем крупный проект по заказной разработке ПО, у нас в портфолио: Windows-приложение рабочий блокнот УИК для помощи участковым избирательным комиссиям, чтобы лучше проводить выборы,  MVP банка на блокчейне, и тд.\n\n🚩Что предлагаем: Испытательный срок 3 месяца, белое оформление в штат, своевременную оплату\n\nРезюме @irensergeeva","markup":[{"type":"hashtag","offset":0,"length":9,"data":"вакансия"},{"type":"hashtag","offset":10,"length":9,"data":"frontEnd"},{"type":"hashtag","offset":21,"length":9,"data":"удаленка"},{"type":"handle","offset":1172,"length":13,"data":"irensergeeva"}],"date":"2020-07-02T09:44:12+00:00","link":"tg://resolve?domain=javascript_jobs_feed&post=16511","tags":[{"name":"javascript"},{"name":"css"},{"name":"html"},{"name":"vuejs"},{"name":"webpack"},{"name":"rest"},{"name":"graphql"},{"name":"git"},{"name":"windows"}],"cities":[],"allowsRemote":true}},{"node":{"__typename":"Job","id":"26957840384-1001075660570","title":"Php developer","text":"#вакансия #php #senior #middle #laravel #москва #fulltime \nКомпания skillbox.ru ищет в команду Middle/Senior PHP Developer (Laravel).\n\nЧем предстоит заниматься:\n •  Нужно будет продолжать развивать сервис авторизации;\n •  Поддерживать текущие проекты на Laravel + Vue;\n •  Участвовать в Code Review;\n •  Писать Unit-тесты;\n •  Ведение документации своего кода;\n •  Принимать активное участие в проектировании микросервисов и БД.\n\nЧто мы ждем от вас:\n •  Уверенные знания PHP7, MySQL, Laravel;\n •  Умение разбираться в Legacy code;\n •  Опыт работы с Redis, WebSockets;\n •  Опыт работы с системами контроля версий – git;\n •  Опыт интеграции с внешними системами по API;\n •  Хорошее знание системы Linux (Ubuntu);\n •  Ответственность и инициативность;\n •  Умение внятно выражать свои мысли устно и письменно;\n •  Умение адекватно оценивать сроки на реализацию той или иной задачи.\n\nМы предлагаем отличные условия:\n •  Белую зарплату от 150.000 net (оклад обсудим индивидуально)\n •  Возможность прохождения любых дистанционных курсов Skillbox бесплатно, а еще корпоративную скидку на изучение английского языка в Skyeng и фитнес.\n •  Рост внутри компании не ограничен, всегда найдется то, что будет интересно тебе;\n •  Корпоративные активности (волейбол, футбол, квесты, квизы, шахматы, Skillbox.fm и др.);\n •  Наша команда творит в новом и стильном офисе на м.Октябрьская;\n •  Гибкий график работы (время прихода на работу в интервале с 8 до 12) и отсутствие дресс-кода;\n\nКонтакты: mariya.reshetova@skillbox.ru      @marieresh","markup":[{"type":"hashtag","offset":0,"length":9,"data":"вакансия"},{"type":"hashtag","offset":10,"length":4,"data":"php"},{"type":"hashtag","offset":15,"length":7,"data":"senior"},{"type":"hashtag","offset":23,"length":7,"data":"middle"},{"type":"hashtag","offset":31,"length":8,"data":"laravel"},{"type":"hashtag","offset":40,"length":7,"data":"москва"},{"type":"hashtag","offset":48,"length":9,"data":"fulltime"},{"type":"link","offset":68,"length":11,"data":"http://skillbox.ru"},{"type":"bold","offset":95,"length":38,"data":""},{"type":"bold","offset":135,"length":25,"data":""},{"type":"bold","offset":430,"length":19,"data":""},{"type":"bold","offset":879,"length":31,"data":""},{"type":"link","offset":1283,"length":11,"data":"http://Skillbox.fm"},{"type":"link","offset":1479,"length":28,"data":"mailto:mariya.reshetova@skillbox.ru"},{"type":"handle","offset":1513,"length":10,"data":"marieresh"}],"date":"2020-07-02T09:30:52+00:00","link":"tg://resolve?domain=php_jobs&post=25709","tags":[{"name":"php"},{"name":"laravel"},{"name":"vuejs"},{"name":"mysql"},{"name":"redis"},{"name":"git"},{"name":"linux"},{"name":"ubuntu"},{"name":"dotnet"}],"cities":[{"code":"moscow"}],"allowsRemote":false}},{"node":{"__typename":"Job","id":"364904448-1001352129329","title":"Golang разработчик","text":"#вакансия #Golang #middle #Senior #Moscow \n\nНазвание компании: Loft\nНазвание вакансии: Golang разработчик \nЗарплатная вилка 100-180 тыс/мес\nГород: Москва\nСписок языков, которые необходимо знать: Русский, Английский (на уровне чтения тех. документации)\nФотрмат работы: офис\n\nПриложение для знакомств LOFT (https://loft-app.com/) - это простой и безопасный способ расширить свой круг общения. Можно встречаться с мужчинами и девушками, которые находятся рядом с вами, или знакомиться с людьми по всему миру.\n\nИдея LOFT - адекватная аудитория, которая открыта к диалогу. Вы знаете тех, с кем общаетесь. \nКому подходит LOFT? Адекватной, современной, молодой аудитории, которая любит технологичные фишки и хочет узнавать людей ближе. \n\nМы - команда LOFT, и мы тоже современные, молодые и классные.\n\nЧто предстоит делать\nРабота над интересным проектом в небольшой компании (штат 28 человек).\nРазработка и поддержка backend для нового дейтинг-проекта.\nНаписание API для веб и мобильных приложений\nСоздание нагруженных сервисов с нуля.\n\n\nСтек технологий, которые мы используем:\n·      Backend: GO / MongoDB / Redis / WebSockets\n·      Frontend: Angular / Vue / Flutter / Swift \n·      PM: Git / Jira / Gitlab\n\nЧто нужно уметь\nОпыт программирования backend от 1 года\nУверенное владение Golang \nОбщее представление о том, как работать с очередями сообщений \nОпыт работы с базами данных разных типов\nУмение и желание покрывать код тестами\nОпыт оценки проектов и задач\nСпособность укладываться в оценки с разумной погрешностью\nЗнания английского языка на уровне чтения тех. документации\n\nУсловия и преимущества\nСложный и интересный проект\nПотенциал для роста, как специалиста\nКомандная работа\nКорпоративные мероприятия\nВ офисе без ограничений чай/кофе, печенье\nPlayStation\n\nКонтакты @Sandevl","markup":[{"type":"hashtag","offset":0,"length":9,"data":"вакансия"},{"type":"hashtag","offset":10,"length":7,"data":"Golang"},{"type":"hashtag","offset":18,"length":7,"data":"middle"},{"type":"hashtag","offset":26,"length":7,"data":"Senior"},{"type":"hashtag","offset":34,"length":7,"data":"Moscow"},{"type":"link","offset":305,"length":21,"data":"https://loft-app.com/"},{"type":"handle","offset":1771,"length":8,"data":"Sandevl"}],"date":"2020-07-02T08:22:20+00:00","link":"tg://resolve?domain=gogetajobfeed&post=348","tags":[{"name":"go"},{"name":"mongodb"},{"name":"redis"},{"name":"angularjs"},{"name":"vuejs"},{"name":"flutter"},{"name":"swift"},{"name":"git"},{"name":"gitlab"}],"cities":[{"code":"moscow"}],"allowsRemote":false}},{"node":{"__typename":"Job","id":"17309892608-1001110946746","title":"Js разработчик","text":"#удаленка #fullstack #middle #вакансия\nПривет! ✌ Мы ищем full stack специалиста для постоянной работы. \nФормат работы: Удалёнка. Занятость:полная.\nЗП: от 80 до 100 к\n\nУровень middle\n\nКомпания:https://arkonsa.ru/\n💁 Описание компании: Мы работаем в двух направлениях: 1) Своя CRM система (oko сrm), которую планируем продавать на внешний рынок + запускать мобильное приложение для IOS и Android;\n2) Свой учебный центр (продажи).\n\nОт тебя мы ждем:\n\n- Уверенное знание: HTML4/5, CSS2/3, JavaScript ES5(ES6), HTML, JQuery, Ajax, React, VUE.js, Laravel\n\n💡 Требования:\nопыт разработки по данному стеку от 2+лет.\n\n📠 За подробностями по вакансии и по всем вопросам:\n@elena_hr_tmn \n89129125591 Viber\n\n—\n\n👉 Обсуждение вакансии в чате @javascript_jobs","markup":[{"type":"hashtag","offset":0,"length":9,"data":"удаленка"},{"type":"hashtag","offset":10,"length":10,"data":"fullstack"},{"type":"hashtag","offset":21,"length":7,"data":"middle"},{"type":"hashtag","offset":29,"length":9,"data":"вакансия"},{"type":"link","offset":192,"length":19,"data":"https://arkonsa.ru/"},{"type":"handle","offset":660,"length":13,"data":"elena_hr_tmn"},{"type":"link","offset":675,"length":11,"data":"tel:89129125591"},{"type":"handle","offset":727,"length":16,"data":"javascript_jobs"}],"date":"2020-07-02T07:31:15+00:00","link":"tg://resolve?domain=javascript_jobs_feed&post=16508","tags":[{"name":"javascript"},{"name":"ios"},{"name":"android"},{"name":"html"},{"name":"css"},{"name":"jquery"},{"name":"ajax"},{"name":"reactjs"},{"name":"vuejs"},{"name":"laravel"}],"cities":[],"allowsRemote":true}},{"node":{"__typename":"Job","id":"17307795456-1001110946746","title":"Js разработчик","text":"#вакансия #москва #middle #remote #angular #fulltime #офис\n\nИщем frontend разработчика для работы над основным сайтом и новыми разделами.\nГород и адрес офиса: Москва, м. Авиамоторная\nФормат работы: Офис\nЗанятость: полная\nЗарплатная вилка: 130 000 — 150 000 на руки по результатам технического собеседования\n\nAutospot.ru — онлайн гипермаркет автомобилей. 🚘\n\nВ 2018 году Mitsubishi Corporation и Mail.ru. оценили нас в $19,1 млн.\n\nВ технической команде 17 человек: СТО, 9 PHP разработчиков, 2 frontend разработчика, 3 тестировщика, DevOps.\n\nЧеловек нужен в Москве или готовый в эту самую Москву переехать.\n\n📍Обязанности:\n▫️Разработка компонентов и адаптация/интеграция сторонних библиотек и плагинов;\n▫️ Верстка новых разделов, кроссбраузерная, адаптивная, валидная;\n▫️ Развитие библиотеки UI компонентов;\n▫️ Оперативное исправление багов на проде (IE 11+);\n▫️ Помощь в оптимизации работы сайта (скорость загрузки, оптимизация DOM).\n\n📍Требования:\n▪️ Опыт разработки от 2 лет;\n▪️ Знание JavaScript (jQuery в разумных пределах);\n▪️ Уверенное знание html семантическая верстка, БЭМ, SCSS;\n▪️ Знание работы GIT & NPM;\n▪️ Опыт работы с gulp/webpack;\n▪️ Опыт работы с Figma/Zeplin;\n▪️ Опыт работы с векторной графикой (svg и svg-спрайты).\n\n📍Желательно:\n◾️ Хорошее знание Vue.js и/или Angular 5+. Работать надо будет и с тем и с другим. Angular 5+ в приоритете, планируется переход полностью на него;\n◾️ Знание инструментов организации разработки Jira;\n◾️ Знание нюансов работы браузеров на разных устройствах и ОС;\n◾️ Опыт сео оптимизации;\n◾️ Понимание, что такое доступные интерфейсы;\n\n📍Условия:\n▫️ Комфортабельный офис, БЦ Light Tower, бесплатный шаттл от м. Площадь Ильича;\n▫️ Оформление по ТК РФ с первого рабочего дня;\n▫️ Гибкое начало рабочего дня, с 9 до 11;\n▫️ Возможность работать 1-2 дня удалённо;\n▫️ Полностью белая заработная плата;\n▫️ Неформальная атмосфера и дружный, амбициозный коллектив;\n▫️ Корпоративная скидка на изучение английского языка.\n\n📌 Контакт: @dianadoma","markup":[{"type":"hashtag","offset":0,"length":9,"data":"вакансия"},{"type":"hashtag","offset":10,"length":7,"data":"москва"},{"type":"hashtag","offset":18,"length":7,"data":"middle"},{"type":"hashtag","offset":26,"length":7,"data":"remote"},{"type":"hashtag","offset":34,"length":8,"data":"angular"},{"type":"hashtag","offset":43,"length":9,"data":"fulltime"},{"type":"hashtag","offset":53,"length":5,"data":"офис"},{"type":"link","offset":308,"length":11,"data":"http://Autospot.ru"},{"type":"link","offset":395,"length":7,"data":"http://Mail.ru"},{"type":"handle","offset":1970,"length":10,"data":"dianadoma"}],"date":"2020-07-02T07:28:49+00:00","link":"tg://resolve?domain=javascript_jobs_feed&post=16506","tags":[{"name":"javascript"},{"name":"angularjs"},{"name":"php"},{"name":"jquery"},{"name":"html"},{"name":"git"},{"name":"npm"},{"name":"gulp"},{"name":"webpack"},{"name":"svg"},{"name":"vuejs"}],"cities":[{"code":"moscow"}],"allowsRemote":true}},{"node":{"__typename":"Job","id":"104146665472-1001089317451","title":"Qa engineer","text":"#вакансия #Москва #офис #QA #тестировщик #fulltime\n\nГород и адрес офиса: Москва, м. Новокузнецкая/Павелецкая\nФормат работы: #офис\nЗанятость: #полная\nЗП: от 90к до 120к руб. нетт\n\nSports.ru - провайдер развлечений для любителей спорта.\nЕсть спорт. Есть болельщики. Мы заполняем среду между ними, оживляем ее, наполняем общением и другими развлечениями. Мы делаем не «сайты» или «приложения», а мультиплатформенные продукты, с учетом актуальной технологической парадигмы.\n\nМы ищем QA Engineer'а в наш флагманский проект Sports.ru.\nЭто главное медиа о спорте на русском языке с аудиторией 18 млн пользователей в месяц. Highload-проект с десятками тысяч RPS, состоящий из самых разных продуктов – сайтов, мобильных приложений, email-рассылок, чат-ботов и многого другого.\n\nВ данный момент мы заняты активным внедрением процесса тестирования. Под капотом - нативный js на фронте, php+perl на бэке. Все новые сервисы разрабатываем на новом стеке: vue.js+ssr+golang+graphql. Да, легаси есть - иногда попадается, но в тестирование всё же большинство задач идут на новом стеке.\n\nО задачах\nВы будете заниматься приёмкой фич и проведением регресса, написанием тестовой документации, разработкой автотестов и регистрацией ошибок в баг-трекере.\n\nО наших ожиданиях\nМы ждем, что вы уже пару лет как в профессии и имеете хороший опыт ручного тестирования. Знаете различные инструменты и подходы к тестированию, обладаете навыками тест-дизайна и умеете их применять.\nПонимаете процессы разработки и тестирования, а также, что процессы не могут быть идеальными, но к этому необходимо стремиться.\nМы также ждем, что вы уже попробовали свои силы в автоматизации тестирования и хотите дальше развиваться в этом направлении (у нас автоматизация на JavaScript).\n\nБудет плюсом\nЕсли вы уже пробовали себя в нагрузочном тестировании и автоматизации мобильных устройств.\n\nОб условиях:\nПросторный стильный офис возле м. Новокузнецкая/Третьяковская.\n“Белая” заработная плата.\nБесплатная медстраховка со стоматологией после испытательного срока.\nГибкий график работы с возможностью день-два в неделю работать удаленно,\nФрукты, снеки, чай, кофе, какао 24/7.\nКорпоративная скидка в спортзал и на занятия английским языком.\nКорпоративный футбол с тренером.\nФинансовая помощь при переезде из другого города.\nВозможности для профессионального развития.\n\nНазвание компании: Sports.ru (Tribuna Digital)\nЕсли заинтересовало, пишите мне в личку (@pbuyatova), рада буду поделиться подробностями 😌","markup":[{"type":"hashtag","offset":0,"length":9,"data":"вакансия"},{"type":"hashtag","offset":10,"length":7,"data":"Москва"},{"type":"hashtag","offset":18,"length":5,"data":"офис"},{"type":"hashtag","offset":24,"length":3,"data":"QA"},{"type":"hashtag","offset":28,"length":12,"data":"тестировщик"},{"type":"hashtag","offset":41,"length":9,"data":"fulltime"},{"type":"hashtag","offset":124,"length":5,"data":"офис"},{"type":"hashtag","offset":141,"length":7,"data":"полная"},{"type":"link","offset":179,"length":9,"data":"http://Sports.ru"},{"type":"bold","offset":179,"length":9,"data":""},{"type":"bold","offset":479,"length":13,"data":""},{"type":"link","offset":518,"length":9,"data":"http://Sports.ru"},{"type":"bold","offset":1070,"length":10,"data":""},{"type":"bold","offset":1233,"length":18,"data":""},{"type":"bold","offset":1740,"length":13,"data":""},{"type":"bold","offset":1845,"length":13,"data":""},{"type":"link","offset":2338,"length":9,"data":"http://Sports.ru"},{"type":"handle","offset":2407,"length":10,"data":"pbuyatova"}],"date":"2020-07-01T15:51:57+00:00","link":"tg://resolve?domain=qa_jobs&post=99322","tags":[{"name":"qa"},{"name":"php"},{"name":"perl"},{"name":"vuejs"},{"name":"go"},{"name":"graphql"},{"name":"javascript"}],"cities":[{"code":"moscow"}],"allowsRemote":true}}]}}},"context":{}}