{"hash":"f34fd2c444a074f4e0e67d525015a008ef8e766f","data":{"records":{"id":"android","name":"android","belongsTo":{"totalCount":34,"pageInfo":{"totalPages":4,"currentPage":1},"edges":[{"node":{"__typename":"Job","id":"98372157440-1001089317451","title":"Qa инженер","text":"#вакансия #manual #москва #офис #mobile \n\nКомпания: Huawei\nЛокация: Москва, м. Крылатское\nЗанятость: полная/ офис \nЗарплата: 70 000 - 140 000руб. на руки  в зависимости от результатов технического собеседования.\n\nВсем привет)\n\nЯ сейчас в поиске тестировщика мобильных приложений на платформе AppGallery.\n\nЗадачи:\n ● Проводить ручное тестирование мобильных приложений\n● Анализировать результаты выполнения тестов\n● Работать с дефектами (обнаружение, анализ, контроль исправления)\n● Взаимодействовать с другими отделами и членами команды для решения поставленных задач\n\nЧто важно: \n● Опыт тестирования мобильных приложений на платформах IOS, Android от года\n● Уровень английского языка - Upper-Intermediate+ \n\nУсловия:\n● работа из офиса 5/2\n● ДМС, корпоративная связь, скидка на фитнес и английский, продукцию Huawei\n● квартальные премии\n\n\nКонтакты для связи:\n@melissa_topuz\ne-mail: melissa.topuz@hays.ru","markup":[{"type":"hashtag","offset":0,"length":9,"data":"вакансия"},{"type":"hashtag","offset":10,"length":7,"data":"manual"},{"type":"hashtag","offset":18,"length":7,"data":"москва"},{"type":"hashtag","offset":26,"length":5,"data":"офис"},{"type":"hashtag","offset":32,"length":7,"data":"mobile"},{"type":"handle","offset":858,"length":14,"data":"melissa_topuz"},{"type":"link","offset":881,"length":21,"data":"mailto:melissa.topuz@hays.ru"}],"date":"2020-04-10T14:33:24+00:00","link":"tg://resolve?domain=qa_jobs&post=93815","tags":[{"name":"qa"},{"name":"mobile"},{"name":"ios"},{"name":"android"}],"cities":[{"code":"moscow"}],"allowsRemote":false}},{"node":{"__typename":"Job","id":"66423095296-1001054966032","title":"Android разработчик","text":"#вакансия #android #java #kotlin #удаленка #remote\n\n🔸Мы компания Ok Pixel, занимаемся заказной разработкой сайтов и приложений.\n🔸Наш веб сайт: http://www.okpixels.ru\n🔸Ищем Android разработчика уровня Senior на проект (8-12 месяцев)\n\n🔹Формат работы: удалёнка, #fulltime\n🔹Локация: не имеет значения\n🔹Зарплата: от 180 000 до 220 000 рублей в месяц\n🔹Основной стэк: Java, Kotlin\n\n▫️КОРОТКО О ПРОЕКТЕ\nЭлектронный путевой лист, контроль выхода на линию автотранспорта, наблюдения за выходом на линию машины.\n\n💡Контакты: @ruslan_work","markup":[{"type":"hashtag","offset":0,"length":9,"data":"вакансия"},{"type":"hashtag","offset":10,"length":8,"data":"android"},{"type":"hashtag","offset":19,"length":5,"data":"java"},{"type":"hashtag","offset":25,"length":7,"data":"kotlin"},{"type":"hashtag","offset":33,"length":9,"data":"удаленка"},{"type":"hashtag","offset":43,"length":7,"data":"remote"},{"type":"bold","offset":66,"length":8,"data":""},{"type":"bold","offset":131,"length":12,"data":""},{"type":"link","offset":145,"length":22,"data":"http://www.okpixels.ru"},{"type":"bold","offset":175,"length":7,"data":""},{"type":"bold","offset":236,"length":15,"data":""},{"type":"hashtag","offset":263,"length":9,"data":"fulltime"},{"type":"bold","offset":275,"length":7,"data":""},{"type":"bold","offset":304,"length":8,"data":""},{"type":"bold","offset":353,"length":13,"data":""},{"type":"bold","offset":382,"length":20,"data":""},{"type":"italic","offset":402,"length":107,"data":""},{"type":"bold","offset":509,"length":10,"data":""},{"type":"handle","offset":521,"length":12,"data":"ruslan_work"}],"date":"2020-04-10T12:18:36+00:00","link":"tg://resolve?domain=mobile_jobs&post=63346","tags":[{"name":"mobile"},{"name":"android"},{"name":"java"},{"name":"kotlin"}],"cities":[],"allowsRemote":true}},{"node":{"__typename":"Job","id":"98358525952-1001089317451","title":"Qa инженер","text":"#вакансия #мтс #стартап #manual #automate #москва #офис #мск #mobile\n🏢Компания: MTC\n🏙Город: Москва, м. Комсомольская\n💰Зп: от 90к (обсуждается по результатам собеседования)\n\nМы отдельный проект новой стриминговой платформы в МТС - WASD.tv. Мы разрабатываем инновационную платформу для стриминга и монетизации для стримеров на территории СНГ, и в скором времени планируем покорять другие страны Европы, Азии и Америки!\nРаботаем преимущественно c REST API, пишем на js и go, полноценные стенды (stage, qa, dev) в kubernetes. Активно внедряем BDD. Команда QA развивает свой инновационный фреймворк автотестирования на Java для всех платформ проекта! На данный момент, нужен в мобильную команду QA Automation/ QA Mobile.\n\nОбязанности\n✔️ проведение ручного тестирования мобильных приложений (iOS, Android);\n✔️ локализация и документирование найденных дефектов;\n✔️написание и поддержка имеющейся документации;\n✔️взаимодействие с разработчиками;\n✔️поддержание и развитие мобильного фреймворка;\n✔️разработка BDD сценариев и их автоматизация.\n\nТребования:\n✔️опыт ручного тестирования мобильных приложений от 2 лет;\n✔️опыт автоматизированного тестирования на Java (Appium+Сucumber) от 1 года;\n✔️знание методологий тестирования;\n✔️опыт работы с системами CI (Jenkins, Teamcity);\n✔️опыт работы с  Charles, Appium, Postman, Chrome DevTools, Kibana.\n\nУсловия:\n✅ работа из офиса 5/2;\n✅ гибкое начало рабочего дня;\n✅ различные спец. предложения для сотрудников МТС;\n✅ полугодовые премии;\n✅ все белое, оформление по ТК РФ.\n\n📲Контакты: daordynt@mts.ru или в лс (в телеге)","markup":[{"type":"hashtag","offset":0,"length":9,"data":"вакансия"},{"type":"hashtag","offset":10,"length":4,"data":"мтс"},{"type":"hashtag","offset":15,"length":8,"data":"стартап"},{"type":"hashtag","offset":24,"length":7,"data":"manual"},{"type":"hashtag","offset":32,"length":9,"data":"automate"},{"type":"hashtag","offset":42,"length":7,"data":"москва"},{"type":"hashtag","offset":50,"length":5,"data":"офис"},{"type":"hashtag","offset":56,"length":4,"data":"мск"},{"type":"hashtag","offset":61,"length":7,"data":"mobile"},{"type":"link","offset":233,"length":7,"data":"http://wasd.tv/"},{"type":"bold","offset":720,"length":12,"data":""},{"type":"bold","offset":1037,"length":12,"data":""},{"type":"bold","offset":1339,"length":9,"data":""},{"type":"link","offset":1521,"length":15,"data":"mailto:daordynt@mts.ru"}],"date":"2020-04-10T11:23:43+00:00","link":"tg://resolve?domain=qa_jobs&post=93802","tags":[{"name":"qa"},{"name":"mobile"},{"name":"rest"},{"name":"kubernetes"},{"name":"java"},{"name":"ios"},{"name":"android"},{"name":"jenkins"}],"cities":[{"code":"moscow"}],"allowsRemote":false}},{"node":{"__typename":"Job","id":"66416803840-1001054966032","title":"Android разработчик","text":"#вакансия #Moscow #fulltime #react #reactnative #senior\n\n✅Вакансия: React Native Senior dev\n✅Город: Москва \n✅ЗП: 200К - 250K net (рассмотрим ваши ожидания)\n✅Занятость: полная/ офис \n✅Компания: Нью Мед Солюшнс_ibolit.pro\n\n💥ibolit.pro– российская телемедицинская платформа, помогающая врачам и пациентам оставаться на связи в любой точке мира. Если вы хотите развиваться в перспективном направлении телемедицины, заниматься настоящими делами и сутью (никакой бюрократии и лишних согласований) и хотите получить разносторонний опыт – мы ждем Вас! \n❗️Сейчас мы ищем ведущего разработчика мобильных приложений, построенных на базе фреймворка React Native.\n\n👆Задачи:\nВам предстоит развивать мобильные приложения для докторов и пациентов, предоставляющих коммуникационные телемедицинские сервисы (чаты, видеоконференции), функционал работы с медицинской картой, записью на приемы и другие медицинские сервисы.\n\n👍Что мы готовы предложить:\n• «белоснежные» условия по оформлению;\n• достойная заработная плата;\n• ДМС;\n• бюджет на обучение и посещение конференций;\n• гибкий график;\n• комфортный офис в центре Москвы;\n• мы всегда приветствуем инициативу!\n\n👀Наши ожидания:\n• отличные знания React-стека;\n• отличное знание фреймворка React Native;\n• обязательным является наличие навыков нативной разработки мобильных приложений хотя бы для одной из плафторм - iOS(Swift) или Android(Kotlin).\n\n🤝Контакты: @Kate_Guseva","markup":[{"type":"hashtag","offset":0,"length":9,"data":"вакансия"},{"type":"hashtag","offset":10,"length":7,"data":"Moscow"},{"type":"hashtag","offset":18,"length":9,"data":"fulltime"},{"type":"hashtag","offset":28,"length":6,"data":"react"},{"type":"hashtag","offset":35,"length":12,"data":"reactnative"},{"type":"hashtag","offset":48,"length":7,"data":"senior"},{"type":"handle","offset":1395,"length":12,"data":"Kate_Guseva"}],"date":"2020-04-10T11:15:40+00:00","link":"tg://resolve?domain=mobile_jobs&post=63340","tags":[{"name":"mobile"},{"name":"android"},{"name":"ios"},{"name":"reactjs"},{"name":"dotnet"},{"name":"swift"},{"name":"kotlin"},{"name":"react-native"}],"cities":[{"code":"moscow"}],"allowsRemote":false}},{"node":{"__typename":"Job","id":"66410512384-1001054966032","title":"Mobile developer","text":"#вакансия  #iOS  #developer  #swift  #middle  #senior  #иннополис  #казань\n\nMobile Frontend Developer – iOS\n\nCompany: NNG\nVacancy: Middle/Senior iOS Developer\nLocation: Innopolis, Kazan\nWork format: office\nEmployment: full time\nS/p: from 180 to 250 k net\n\nAt NNG we develop the next generation of navigation and infotainment technology to improve driving experience, working with 7 of the top 10 car manufacturers worldwide. Headquartered in Hungary, we have a global footprint with coverage in almost 200 countries and 12 company offices worldwide. We have recently established a new development center in Kazan, tasked with delivering customized cutting-edge solutions to Russian vehicle manufacturers. In addition, the Kazan office will also develop independent, reusable software components for the global market, primarily frontend software (JavaScript, iOS and Android) and Java backend microservices.\n\nWhat would be your job? \n♦️ Work on mobile and automotive navigation software development\n🔹Work on various projects with international clients from all parts of the world\n♦️ Work in close cooperation with project managers and development teams both locally and in the Budapest office\n🔹Design, develop, code, test and debug; own your code\n\nIf you have... \n♦️Experience developing, testing, and releasing iOS apps\n🔹Knowledge of Objective-C and Swift, UIKit\n♦️Experience collaborating with designers on usability and aesthetics of apps\n🔹Strong experience in writing and maintaining testable code and unit tests\n♦️Experience with git-based version control systems\n🔹Strong written and verbal communication skills in English\n♦️ Experience working with global teams\nmoreover, you have any of the following: \n🔹Familiarity with JavaScript\n♦️Familiarity with Flutter\n🔹Experience in Agile development, especially SaFE and SCRUM\n♦️Willingness to get familiar with new technologies\n🔹Experience in working as a team player\nWhat can we give you in return? \n♦️ A job at a successful global company in Innopolis, where you can learn from the best\n🔹Serious professional challenges\n♦️A secure and well-paid job\n🔹The opportunity to develop the navigation software of the future in the present\n♦️A youthful team\n🔹The opportunity of working abroad for several weeks\n\nContacts: ✒️hr.vkulneva@gmail.com, @viktoriyakulneva","markup":[{"type":"hashtag","offset":0,"length":9,"data":"вакансия"},{"type":"hashtag","offset":11,"length":4,"data":"iOS"},{"type":"hashtag","offset":17,"length":10,"data":"developer"},{"type":"hashtag","offset":29,"length":6,"data":"swift"},{"type":"hashtag","offset":37,"length":7,"data":"middle"},{"type":"hashtag","offset":46,"length":7,"data":"senior"},{"type":"hashtag","offset":55,"length":10,"data":"иннополис"},{"type":"hashtag","offset":67,"length":7,"data":"казань"},{"type":"link","offset":2275,"length":23,"data":"http://✒️hr.vkulneva@gmail.com"},{"type":"handle","offset":2300,"length":17,"data":"viktoriyakulneva"}],"date":"2020-04-10T09:54:55+00:00","link":"tg://resolve?domain=mobile_jobs&post=63334","tags":[{"name":"mobile"},{"name":"android"},{"name":"ios"},{"name":"swift"},{"name":"dotnet"},{"name":"javascript"},{"name":"java"},{"name":"objective-c"},{"name":"uikit"},{"name":"git"},{"name":"flutter"}],"cities":[{"code":"kazan"},{"code":"budapest"}],"allowsRemote":false}},{"node":{"__typename":"Job","id":"66406318080-1001054966032","title":"Android разработчик","text":"#вакансия #fulltime  #vacancy  #remote #ремоут  #Flutterdeveloper #Flutter \n\n💻 Flutter Developer\n🕐 Fulltime remote\n👩🏻‍💻1-1,5 year of commercial development on Flutter\n💰from 10 $/hour to 12 $/hour\n\nВсем привет!🙋🏻‍♀️\nAMS ищет разработчиков на долгосрочное сотрудничество на ремоут. Мы занимаемся разработкой мобильных приложений под Android и IOS.\n\nУсловия:\n-проектная занятость;\n-доступность в неделю 40 часов.\n\nТребования :\n-коммерческий опыт разработки от 1-1,5 года;\n-английский B1+.\n\n📝 За подробностями по вакансиям и по всем вопросам  пишите:\ndarya.matsyas@ams-apps.com\nDarya \nLinkedIn","markup":[{"type":"hashtag","offset":0,"length":9,"data":"вакансия"},{"type":"hashtag","offset":10,"length":9,"data":"fulltime"},{"type":"hashtag","offset":21,"length":8,"data":"vacancy"},{"type":"hashtag","offset":31,"length":7,"data":"remote"},{"type":"hashtag","offset":39,"length":7,"data":"ремоут"},{"type":"hashtag","offset":48,"length":17,"data":"Flutterdeveloper"},{"type":"hashtag","offset":66,"length":8,"data":"Flutter"},{"type":"link","offset":495,"length":2,"data":"http://darya.matsyas@ams-apps.com/"},{"type":"link","offset":556,"length":27,"data":"http://darya.matsyas@ams-apps.com/"},{"type":"link","offset":590,"length":8,"data":"https://www.linkedin.com/in/darya-matyas-12ba33158/"}],"date":"2020-04-10T09:43:27+00:00","link":"tg://resolve?domain=mobile_jobs&post=63330","tags":[{"name":"mobile"},{"name":"android"},{"name":"ios"},{"name":"flutter"}],"cities":[],"allowsRemote":true}},{"node":{"__typename":"Job","id":"24359469056-1001075660570","title":"Php разработчик","text":"Ищем!\nPHP-разработчик fullstack удаленно\n\n#вакансия #удаленка #штат #PHP #fullstack\n\nЗАДАЧИ:\n🔹 разработка графических интерфейсов к информационным системам и сервисам компании;\n🔹 разработка микросервисов обработки сообщений и сбор статистики в БД;\n🔹 участие в проектировании программных решений и обсуждении архитектурных решений;\n🔹 работы по интеграции и разработке API взаимодействия сервисов как внутри компании, так и с партнерами.\n\nТРЕБОВАНИЯ:\n 🔹 Самостоятельный разработчик с отличным знанием: PHP, js, Ajax, jQuery, HTML, CSS;\n 🔹 MySQL, PostgreSQL, ClickHouse, Redis, MongoDB;\n 🔹 Linux;\n 🔹XML, JSON, SOAP, RabbitMQ;\n 🔹Symfony, Yuii, Laravel, Zend;\n 🔹 Bootstrap;\n 🔹 Средства визуализации данных, например, d3.js.\n\nБыло бы неплохо: \n🔹знание Nodejs, Python, LUA.\n🔹 опыт разработки мобильных приложений Android, IOS\n\nУСЛОВИЯ:\n🔹 работа в штате компании (основной профиль – разработка высокотехнологичных маркетинговых рассылок и чат-ботов);\n🔹 удаленная работа 5/2 с 10 до 19 (MSK);\n🔹ЗП 70-90k (обсуждается с успешными кандидатами).\n\nПишите сюда: @abezpalova","markup":[{"type":"bold","offset":6,"length":36,"data":""},{"type":"hashtag","offset":42,"length":9,"data":"вакансия"},{"type":"hashtag","offset":52,"length":9,"data":"удаленка"},{"type":"hashtag","offset":62,"length":5,"data":"штат"},{"type":"hashtag","offset":68,"length":4,"data":"PHP"},{"type":"hashtag","offset":73,"length":10,"data":"fullstack"},{"type":"bold","offset":85,"length":8,"data":""},{"type":"bold","offset":441,"length":12,"data":""},{"type":"bold","offset":833,"length":9,"data":""},{"type":"handle","offset":1064,"length":11,"data":"abezpalova"}],"date":"2020-04-10T09:33:14+00:00","link":"tg://resolve?domain=php_jobs&post=23231","tags":[{"name":"php"},{"name":"ajax"},{"name":"jquery"},{"name":"html"},{"name":"css"},{"name":"mysql"},{"name":"postgresql"},{"name":"redis"},{"name":"mongodb"},{"name":"linux"},{"name":"xml"},{"name":"json"},{"name":"soap"},{"name":"rabbitmq"},{"name":"symfony"},{"name":"laravel"},{"name":"zend-framework"},{"name":"bootstrap"},{"name":"nodejs"},{"name":"python"},{"name":"lua"},{"name":"android"},{"name":"ios"}],"cities":[],"allowsRemote":true}},{"node":{"__typename":"Job","id":"66398978048-1001054966032","title":"Mobile разработчик","text":"#вакансия #москва #офис #senior #unity #developer #gamedev #csharp\n\nГород и адрес офиса: Москва, м.Автозаводская \nФормат работы: офис \nЗанятость: полная \nЗарплатная вилка: от 200 000 до 250 000 на руки \n\n📣 Senior Unity 3D Developer (mobile game)\n\n\n✅ Описание вакансии: \n\nМы - успешная команда из 100 человек, которая занимается: \n• разработкой собственных мобильных игр и приложений \n• паблишингом мобильных игр \n• рекламой и маркетингом мобильных приложений (реклама на Facebook, Google и т.д.) \nЗа последние 3 года мы привлекли более 100 млн пользователей в наши собственные мобильные приложения и приложения наших клиентов и партнеров, потратив на это более $80 млн. \nУ нас есть все составляющие чтобы делать готовые продукты известными и популярными. Мы ищем сильного Unity разработчика уровня Senior, для работы над нашим главным тайтлом Dragon Champions (крупным хардкорным проектом в жанре Фэнтези, с тактической боевой системой).\n\n\n✅ Задачи: \n\n-Разработка клиентской части игры\n-Разработка клиент-серверного взаимодействия и общей игровой логики\n-Вёрстка UI по макетам от художников\n-Интеграция различных сторонних SDK\n\n\n✅ Требования: \n\n-Опыт работы на Unity3D (С#) от 3х лет\n-Отличное знание Unity и всех её подсистем\n-Отличное знание C#, умение писать чёткий, понятный, структурированный код\n-Отличное знание паттернов проектирования\n-Умение отлаживать и оптимизировать проекты под мобильные платформы iOS/Android\n-Умение верстать адаптивные интерфесы в uGUI\n-Умение разбираться в чужом коде, проводить рефакторинг\n-Уверенные знания по работе с системой контроля версий git\n-Дисциплинированность и ответственность\n\n\n✅ Плюсом будет:\n\n-Участие в разработке выпущенных игр под мобильные платформы на аналогичной должности\n-Умение работать с шейдерами\n-Опыт работы с нативными плагинами (In-Apps, PUSH notifications, аналитика, реклама, социальное взаимодействие)\n-Умение разрабатывать и поддерживать стабильную архитектуру\n-Коммуникабельность, умение чётко доносить свою точку зрения и принимать точку зрения остальных участников команды\n\n\n✅ Для вас: \n\n•  Конкурентная заработная плата, выплачивается 2 раза в месяц\n•  Необходимое оборудование для работы\n•  Бонусы по итогам выполнения KPI и запуска проектов\n•  Коллектив творческих и позитивных людей\n\n\n✅ О нас: \n\n• Просторный офис 600 метров на м. Автозаводская (3 минуты от метро и от ТТК на машине) с ультра современным дизайном и кучей ништяков (кухня с вкусняшками, кальяны каждый вечер в дружной кампании, PS4 Pro + 4K TV, аркадные автоматы с Pac-Man, Metal Slug и другими хитами геймдизайна, просторная зона отдыха, 5 переговорных комнат и т д) \n• Команда из 80 человек занимающаяся паблишингом и маркетингом, готовая сделать продукт успешным после его готовности \n• Возможность обучаться английскому языку с носителями каждый будний день по утрам \n• Менторы и инвесторы, создавшие большое количество успешных IT компаний \nПрисоединяйтесь к нашей команде уже сегодня! \n\nНазвание компании: AppQuantum \n\nКонтакты: \ne-mail: bm@adquantum.com\ntelegram: @MishaBarinov","markup":[{"type":"hashtag","offset":0,"length":9,"data":"вакансия"},{"type":"hashtag","offset":10,"length":7,"data":"москва"},{"type":"hashtag","offset":18,"length":5,"data":"офис"},{"type":"hashtag","offset":24,"length":7,"data":"senior"},{"type":"hashtag","offset":32,"length":6,"data":"unity"},{"type":"hashtag","offset":39,"length":10,"data":"developer"},{"type":"hashtag","offset":50,"length":8,"data":"gamedev"},{"type":"hashtag","offset":59,"length":7,"data":"csharp"},{"type":"link","offset":2987,"length":16,"data":"mailto:bm@adquantum.com"},{"type":"handle","offset":3014,"length":13,"data":"MishaBarinov"}],"date":"2020-04-10T07:59:54+00:00","link":"tg://resolve?domain=mobile_jobs&post=63323","tags":[{"name":"mobile"},{"name":"android"},{"name":"ios"},{"name":"unity3d"},{"name":"csharp"},{"name":"git"}],"cities":[{"code":"moscow"}],"allowsRemote":false}},{"node":{"__typename":"Job","id":"98338603008-1001089317451","title":"Qa инженер","text":"#вакансия #москва #fulltime #фуллтайм #офис #тестировщик #qa \n\nОнлайн-кинотеатр ivi\n\nИнженер по автоматизации тестирования Android\nот 140 т.р. на руки \nНаш основной стек python+pytest (готовы рассматривать с другим стеком технологий) \n\nОбязанности:\n• Автоматизация функциональных и интеграционных тестов Android-приложений (ivi, Kids, приложение для Android TV);\n• Поддержка и доработка существующих фреймворков клиентского тестирования;\n• Разработка архитектурных тестовых решений.\n\nТребования:\n• Умение тестировать (составление тест-кейсов, структурный подход к планированию тестирования);\n• Опыт работы с *nix системами (Linux);\n• Знание bash/zsh на уровне пользователя (cd, mkdir, vim, grep, tail и т.п.);\n• Опыт программирования на любом из объектно-ориентированных языков программирования (Python, Java, Kotlin, C#, Swift);\n• Общее понятие о том, как работает клиент-серверные мобильные приложения: что такое DNS, HTTP(S), JSON, RESTful-сервисы;\n• Опыт работы с Appium, UI Automator или Espresso.\n\nУсловия:\n• Офис в 5 минутах ходьбы от м. \"Дмитровская\";\n• У нас гибкий график, мы начинаем до 11 часов дня;\n• Трудоустройство по ТК РФ;\n• ДМС + стоматология после прохождения испытательного срока;\n• Подписка на ivi;\n• Пакет релокации для соискателей со всей России.\n\nПишите @daria144, на почту dsereda@ivi.ru или откликайтесь здесь https://hh.ru/vacancy/35897596","markup":[{"type":"hashtag","offset":0,"length":9,"data":"вакансия"},{"type":"hashtag","offset":10,"length":7,"data":"москва"},{"type":"hashtag","offset":18,"length":9,"data":"fulltime"},{"type":"hashtag","offset":28,"length":9,"data":"фуллтайм"},{"type":"hashtag","offset":38,"length":5,"data":"офис"},{"type":"hashtag","offset":44,"length":12,"data":"тестировщик"},{"type":"hashtag","offset":57,"length":3,"data":"qa"},{"type":"bold","offset":63,"length":21,"data":""},{"type":"bold","offset":236,"length":13,"data":""},{"type":"bold","offset":484,"length":12,"data":""},{"type":"bold","offset":1004,"length":9,"data":""},{"type":"handle","offset":1278,"length":9,"data":"daria144"},{"type":"link","offset":1298,"length":14,"data":"mailto:dsereda@ivi.ru"},{"type":"link","offset":1336,"length":30,"data":"https://hh.ru/vacancy/35897596"}],"date":"2020-04-10T07:56:02+00:00","link":"tg://resolve?domain=qa_jobs&post=93783","tags":[{"name":"qa"},{"name":"android"},{"name":"python"},{"name":"linux"},{"name":"bash"},{"name":"vim"},{"name":"grep"},{"name":"java"},{"name":"kotlin"},{"name":"swift"},{"name":"dns"},{"name":"json"}],"cities":[{"code":"moscow"}],"allowsRemote":false}},{"node":{"__typename":"Job","id":"66391638016-1001054966032","title":"Android разработчик","text":"#вакансия #Android #москва #офис #fulltime #Kotlin \n\nКомпания: \"IVA Technologies\" - разработка. Самая стабильная отрасль сейчас: ВКС\nМесто работы: Сейчас удалёнка, потом Москва, м. Текстильщики, 3 минуты от метро\nЗП:  от 180к до 240к рублей на руки, белая\n\nИщем Android разработчика.  \n\n🤟Особенности: Технологии: Java и Kotlin, Android SDK; Опыт работы с Dagger 2, Kotlin Coroutines, Room\n\n🔥Задача: Корпоративный мессенджер с видео- и аудио-звонками (в большей степени);\nКлиент видеоконференций (в меньшей степени).\n\n🔥 Условия:\n* зп от 180к до 240к рублей на руки, белая;\n* ДМС, страховка от несчастных случаев, выходной в честь Дня рождения, спорт и т.д.\n\n\n👉Вакансию можно посмотреть здесь: https://iva-tech.ru/about/vacancies/vedushchiy-android-razrabotchik/\n👉 Отклики ждем здесь: p.semenyuk@iva-tech.ru или в Telegram: @polinahr","markup":[{"type":"hashtag","offset":0,"length":9,"data":"вакансия"},{"type":"hashtag","offset":10,"length":8,"data":"Android"},{"type":"hashtag","offset":19,"length":7,"data":"москва"},{"type":"hashtag","offset":27,"length":5,"data":"офис"},{"type":"hashtag","offset":33,"length":9,"data":"fulltime"},{"type":"hashtag","offset":43,"length":7,"data":"Kotlin"},{"type":"bold","offset":53,"length":10,"data":""},{"type":"bold","offset":289,"length":13,"data":""},{"type":"bold","offset":393,"length":8,"data":""},{"type":"bold","offset":522,"length":9,"data":""},{"type":"bold","offset":663,"length":32,"data":""},{"type":"link","offset":696,"length":68,"data":"https://iva-tech.ru/about/vacancies/vedushchiy-android-razrabotchik/"},{"type":"bold","offset":768,"length":20,"data":""},{"type":"link","offset":788,"length":22,"data":"mailto:p.semenyuk@iva-tech.ru"},{"type":"handle","offset":827,"length":9,"data":"polinahr"}],"date":"2020-04-10T06:32:20+00:00","link":"tg://resolve?domain=mobile_jobs&post=63316","tags":[{"name":"mobile"},{"name":"android"},{"name":"kotlin"},{"name":"java"}],"cities":[{"code":"moscow"}],"allowsRemote":true}}]}}},"context":{}}