{"hash":"f5f6bf98bd95e769321482904cbbd488f77922fd","data":{"records":{"totalCount":669,"pageInfo":{"totalPages":67,"currentPage":34},"edges":[{"node":{"id":"1725956096-1001091028994","title":"Java разработчик","text":"#вакансия #удаленно #частичная #java #backend #нетология\nКомпания: #нетология \nЛокация: #москва #удаленная #частичная\nЗ/п: 10-100к\nКонтакты:  a.ogarkowa@netology.ru @aogarkova\n\n«Нетология» ищет Java-разработчиков уровня middle и выше для преподавания на курсах.\nРабота частичная/удаленная.\n\nВ чем можно участвовать:\n-Участвовать в создании новых образовательных программ, быть автором курса\n-Проводить лекции для студентов, быть для них тренером, помогать делать дипломный проект\n\nЧто мы предлагаем:\n-Удаленную работу, которую можно совмещать с основной (объем, занятость обсуждаются индивидуально)\n-Личный PR как эксперта\n-Возможность прокачивать спикерские навыки и быть частью сообщества экспертов одной из лучших IT-компаний\n-З/п в зависимости от объема занятости ( до 100 тыс. руб.)","markup":[{"type":"hashtag","offset":0,"length":9,"data":"вакансия"},{"type":"hashtag","offset":10,"length":9,"data":"удаленно"},{"type":"hashtag","offset":20,"length":10,"data":"частичная"},{"type":"hashtag","offset":31,"length":5,"data":"java"},{"type":"hashtag","offset":37,"length":8,"data":"backend"},{"type":"hashtag","offset":46,"length":10,"data":"нетология"},{"type":"hashtag","offset":67,"length":10,"data":"нетология"},{"type":"hashtag","offset":88,"length":7,"data":"москва"},{"type":"hashtag","offset":96,"length":10,"data":"удаленная"},{"type":"hashtag","offset":107,"length":10,"data":"частичная"},{"type":"link","offset":142,"length":22,"data":"mailto:a.ogarkowa@netology.ru"},{"type":"handle","offset":165,"length":10,"data":"aogarkova"}],"date":"2020-06-23T13:24:09+00:00","link":"tg://resolve?domain=jvmjobs&post=1646","tags":[{"name":"java"},{"name":"jvm"}],"cities":[{"code":"moscow"}],"allowsRemote":true}},{"node":{"id":"1724907520-1001091028994","title":"Java разработчик","text":"#вакансия #java #Spring #middle #senior #офиc #backend #Москва #СПБ, #Екатеринбург #Ростов-на Дону #удаленно\n👋Приглашаем middle/senior Java Developer в новый проект от Сбербанка.\n\n💸Уровень ЗП: от 220 000 до 280 000 руб. net. (обсуждается!).\n\n✍🏻Оформление: штат компании партнера или ИП.\n\n📍Локация: офис (Москва Кутузовский пр-т 32/1). Или удалено с возможностью посещать офис: СПБ, Екатеринбург, Ростов-на Дону.\n\n🏢О проекте: В рамках стратегической программы «Создание платформы поддержки развития бизнеса» наша команда разрабатывает линейку продуктов Cash Management. Продукта корпоративного блока, предоставляющий функции управления финансовыми потоками для предприятий и корпораций с развитой филиальной сетью. Линейка продуктов содержит порядка 10 продуктов, направленных на управление всеми счетами холдинга единым казначейством. Основная задача – перевод линейки продуктов из Legacy АС на целевые платформы банка и перевод управления продуктами в удаленные каналы обслуживания.\n\n🎯Ваши будущие задачи :\n- проектирование решения, в том числе разработка детальной внутренней архитектуры сервиса, включая интеграционные сценарии;\n- детальное проектирование интеграции со смежными сервисами (в том числе API);\n- разработка программного продукта, внесение изменений в код;\n- разработка автоматических модульных тестов, автоматических скриптов и тестов развертывания.\n\n🤝Мы ожидаем от вас:\n• знание принципов ООП, методологий разработки, шаблонов проектирования;\n• уверенное владение Java 7+, Spring;\n• опыт работы с СУБД, опыт проектирования модели данных;\n• проактивная позиция, хорошие коммуникативные навыки;\n• умение работать с чужим кодом.\n• желательно опыт работы с react-js, Java Script.\n\nЖду Ваши резюме и буду рада ответить на все вопросы. Прекрасного дня!☺️\nКонтакты для связи: telegram @anisimovaane4ka\n\n#вакансия #java #Spring #middle #офиc #backend #Москва #удаленно\n📣Приглашаем Middle Java Developer в новый проект от Сбербанка.\n\n💸Уровень ЗП: от 180 000 до 270 000 руб. net. (обсуждается!).\n\n✍🏻Оформление: штат компании партнера или ИП.\n\n📌Локация: Удаленно или офис (Москва Кутузовский пр-т 32/1).\n\n🏢О проекте: Транзакционные кредитные продукты. Наша команда состоит из профессионалов и создает лучшие Кредитные карты на рынке. На платформе ППРБ мы разрабатываем принципиально новую back-office систему, которая позволит запускать продукты и сервисы с минимальным time-to-market. Технологический стек позволяет поддерживать высокую производительность, надежность и безопасность работы пользователей. Хранение данных в БД Oracle. Критичность системы – 24/7, обеспечение которой также заслуга раздельной кластеризации решений на всех уровнях: хранение данных, очереди сообщений, кластеры прикладных модулей.\n\n🎯Задачи разработчика:\n- разработка backend продукта процессинга кредитных карт (функционал кредитного продукта);\n- разработка обновлений, миграций данных и решение других backend задача.\n\n✅Наш стек:∙ Java 1.8; Spring 5 (Core, Boot, JMS, MVC, JdbcTemplate, REST); Hibernate; JUnit (Mockito); MQ (IM WS MQ, Kafka + ZooKeeper); Linux (RedHat); Application Server - Wildfly; Git, Bitbucket, Nexus, Jira, Confluence; CI: Maven, Jenkins, SonarQube, CheckMarx; IntelliJ IDEA.\n\n🤝Мы ожидаем от вас:\n- глубокие знания JavaSE 1.8;\n- понимание принципов OOP, принципов проектирования классов, шаблонов проектирования;\n- понимание принципов разработки REST сервисов;\n- желательно знания SQL и опыт работы с Oracle DB 12.2.\n\nЖду Ваши резюме и буду рада ответить на все вопросы. Прекрасного дня!☺️\nКонтакты для связи: telegram @anisimovaane4ka","markup":[{"type":"hashtag","offset":0,"length":9,"data":"вакансия"},{"type":"hashtag","offset":10,"length":5,"data":"java"},{"type":"hashtag","offset":16,"length":7,"data":"Spring"},{"type":"hashtag","offset":24,"length":7,"data":"middle"},{"type":"hashtag","offset":32,"length":7,"data":"senior"},{"type":"hashtag","offset":40,"length":5,"data":"офиc"},{"type":"hashtag","offset":46,"length":8,"data":"backend"},{"type":"hashtag","offset":55,"length":7,"data":"Москва"},{"type":"hashtag","offset":63,"length":4,"data":"СПБ"},{"type":"hashtag","offset":69,"length":13,"data":"Екатеринбург"},{"type":"hashtag","offset":83,"length":7,"data":"Ростов"},{"type":"hashtag","offset":99,"length":9,"data":"удаленно"},{"type":"handle","offset":1803,"length":16,"data":"anisimovaane4ka"},{"type":"hashtag","offset":1821,"length":9,"data":"вакансия"},{"type":"hashtag","offset":1831,"length":5,"data":"java"},{"type":"hashtag","offset":1837,"length":7,"data":"Spring"},{"type":"hashtag","offset":1845,"length":7,"data":"middle"},{"type":"hashtag","offset":1853,"length":5,"data":"офиc"},{"type":"hashtag","offset":1859,"length":8,"data":"backend"},{"type":"hashtag","offset":1868,"length":7,"data":"Москва"},{"type":"hashtag","offset":1876,"length":9,"data":"удаленно"},{"type":"handle","offset":3546,"length":16,"data":"anisimovaane4ka"}],"date":"2020-06-23T13:23:27+00:00","link":"tg://resolve?domain=jvmjobs&post=1645","tags":[{"name":"java"},{"name":"jvm"},{"name":"spring"},{"name":"dotnet"},{"name":"reactjs"},{"name":"oracle"},{"name":"rest"},{"name":"hibernate"},{"name":"junit"},{"name":"kafka"},{"name":"linux"},{"name":"git"},{"name":"maven"},{"name":"jenkins"},{"name":"sonarqube"},{"name":"sql"},{"name":"intellij-idea"}],"cities":[{"code":"moscow"},{"code":"rostov"}],"allowsRemote":true}},{"node":{"id":"91907686400-1001067529236","title":"Python разработчик","text":"#вакансия #удаленка #python #part-time\n\nОчереди в Хекслет на наставников все больше и больше с каждым днем. Курс по Python - не исключение.\nНаставник привязывается к студенту на модуль (часть профессии, состоящая из набора курсов + проект). \nОдин студент получает доступ к 5 часам работы (голосом и текстом) с наставником в месяц + ревью проекта. Наставники обычно берут в работу 5 студентов. Это около 5-7 часов в неделю.\nЧто мы предлагаем\n🙌Удаленную работу со свободным графиком.\n🤝Полный доступ к материалам Хекслета.\n👍Персональную прокачку от команды Хекслета.\nНаши ожидания:\n❗️Опыт production (web-разработка) от года, использование TDD в повседневной практике\n❗️Желание делиться знаниями и помогать расти другим\n❗️Умение объяснять простыми словами сложные вещи\n❗️Спокойное отношение к чужим ошибкам\n\nКонтакты: job@hexlet.io или в tg @LyudmilaSemenova","markup":[{"type":"hashtag","offset":0,"length":9,"data":"вакансия"},{"type":"hashtag","offset":10,"length":9,"data":"удаленка"},{"type":"hashtag","offset":20,"length":7,"data":"python"},{"type":"hashtag","offset":28,"length":5,"data":"part"},{"type":"link","offset":818,"length":13,"data":"mailto:job@hexlet.io"},{"type":"handle","offset":841,"length":17,"data":"LyudmilaSemenova"}],"date":"2020-06-23T13:06:47+00:00","link":"tg://resolve?domain=python_jobs&post=87650","tags":[{"name":"python"},{"name":"web"}],"cities":[],"allowsRemote":true}},{"node":{"id":"2246049792-1001134745498","title":"Devops инженер","text":"#вакансия #МСК #DevOps #удаленно\nГород : Москва \nГрафик работы: 5/2\nЗанятость: полная\nЗ/п: от 100 т.р до 250 т.р. на руки 💥\nКомпания: wavesenterprise.com\n\nПозиция открыта в очень крутую команду, которая занимается разработкой и внедрением кастомизированных решений на технологии блокчейн внешним заказчикам (b2b, b2g).\n\nЗадачи:\n- подготовка инфраструктуры для сборки, развертывания и тестирования программного обеспечения;\n- построение и сопровождение конвейера непрерывной интеграции\\поставки программного обеспечения;\n- администрирование и обеспечение работоспособности ИТ-инфраструктуры разработки.\n\nТребования:\n- Опыт администрирования linux;\n- Опыт работы с Jenkins, Kubernetes, Ansible, public cloud engines.\n- Умение писать на bash/python и желательно groovy.\n\nПо вакансии прошу писать мне в tg @v_soloveva\n\n—\n\n👉 Обсуждение вакансии в чате @devops_jobs","markup":[{"type":"hashtag","offset":0,"length":9,"data":"вакансия"},{"type":"hashtag","offset":10,"length":4,"data":"МСК"},{"type":"hashtag","offset":15,"length":7,"data":"DevOps"},{"type":"hashtag","offset":23,"length":9,"data":"удаленно"},{"type":"link","offset":135,"length":19,"data":"http://wavesenterprise.com"},{"type":"handle","offset":803,"length":11,"data":"v_soloveva"},{"type":"handle","offset":849,"length":12,"data":"devops_jobs"}],"date":"2020-06-23T12:50:03+00:00","link":"tg://resolve?domain=devops_jobs_feed&post=2142","tags":[{"name":"linux"},{"name":"jenkins"},{"name":"kubernetes"},{"name":"ansible"},{"name":"cloud"},{"name":"bash"},{"name":"python"},{"name":"groovy"}],"cities":[{"code":"moscow"}],"allowsRemote":true}},{"node":{"id":"71872544768-1001054966032","title":"Ios developer","text":"‼️Вакансия Senior iOS Developer в MNFST‼️\n\n#вакансия #ios #удалённо \nФормат работы: #удалённо\nЗанятость: полная\n💶 З/п: от 200 000 до 230 000 руб. на руки\n\n🏢 Компания: MNFST (mnfst.com)\n\nЧем предстоит заниматься: \n🔸 Разработка и доработка нового функционала iOS-приложения MNFST\n🔸 Поддержка и развитие AR и face tracker\n🔸 Работа над оптимизацией и стабильностью приложения\n\nТребования:\n✔️ Отличное владение языком Swift (не менее двух лет)\n✔️ Опыт коммерческой разработки iOS-приложений (не менее трех лет)\n✔️ Хорошее владение Objective-C\n✔️ Уверенное знание GCD и понимание ARC\n\nПлюсом будет:\n➕ Знание Objective-C Runtime\n➕ Опыт работы с AVFoundation, Vision, ARKit и CoreML\n➕ Опыт разработки Cocoa Touch Frameworks\n\n📨 Резюме и вопросы по вакансии присылайте на talent@mnfst.com или @aderyabin","markup":[{"type":"hashtag","offset":43,"length":9,"data":"вакансия"},{"type":"hashtag","offset":53,"length":4,"data":"ios"},{"type":"hashtag","offset":58,"length":9,"data":"удалённо"},{"type":"bold","offset":69,"length":14,"data":""},{"type":"hashtag","offset":84,"length":9,"data":"удалённо"},{"type":"bold","offset":94,"length":11,"data":""},{"type":"bold","offset":115,"length":5,"data":""},{"type":"bold","offset":159,"length":10,"data":""},{"type":"link","offset":176,"length":9,"data":"http://mnfst.com"},{"type":"bold","offset":188,"length":25,"data":""},{"type":"bold","offset":378,"length":11,"data":""},{"type":"bold","offset":584,"length":14,"data":""},{"type":"link","offset":768,"length":16,"data":"mailto:talent@mnfst.com"},{"type":"handle","offset":789,"length":10,"data":"aderyabin"}],"date":"2020-06-23T12:48:08+00:00","link":"tg://resolve?domain=mobile_jobs&post=68543","tags":[{"name":"mobile"},{"name":"ios"},{"name":"swift"},{"name":"objective-c"},{"name":"cocoa"},{"name":"cocoa-touch"}],"cities":[],"allowsRemote":true}},{"node":{"id":"71867301888-1001054966032","title":"Mobile разработчик","text":"#вакансия #работа #Москва #fulltime#IOS #Swift #ObjectiveC\n \nВсем привет:)\nИщем iOS разработчика с опытом работы от 1 года.\nЛокация: Москва, м. Бауманская/удаленка\nЗанятость: полный день\nВилка: до 150 000 на руки.\n \nMobile Dimension – продуктовая компания-разработчик В2В и В2С решений. В нашем действующем портфеле продуктов четыре решения, которые успешно реализуются на рынке. \n \nPregnancy Tracker  - это площадка для будущих мам, с активной аудиторией по всему миру (2 млн). Мы работаем в странах СНГ, Америке и выходим на рынок Китая. \nРазвитие проекта предполагает создание экосистемы приложений, а также внедрение внутренней криптовалюты.\n \nЗадачи:\n•Разработка нового функционала \n•Участие в полном цикле жизни продукта\n•Тесное взаимодействие с командами разработки и тестирования\n \nОжидания:\n•Опыт разработки под iOS от 1 года\n•Умение читать Оbjective-С\n•RxSwift, RxCocoa, RxFeedback, MagicalRecor, Moya\n•AutoLayout из кода\n•База данных Realm\n \nУсловия:\n•Достойная заработная плата по итогам собеседования\n•Оформление по ТК\n•Корпоративное обучение, профессиональный рост\n•Удобный график работы\n•Молодая и сплоченная команда, комфортная атмосфера и современный офис рядом с метро Бауманская. \n \nПо всем вопросам пишите в телеграм - Jenya_sll 😊","markup":[{"type":"hashtag","offset":0,"length":9,"data":"вакансия"},{"type":"hashtag","offset":10,"length":7,"data":"работа"},{"type":"hashtag","offset":18,"length":7,"data":"Москва"},{"type":"hashtag","offset":40,"length":6,"data":"Swift"},{"type":"hashtag","offset":47,"length":11,"data":"ObjectiveC"},{"type":"link","offset":216,"length":17,"data":"https://mobiledimension.ru/"},{"type":"bold","offset":216,"length":17,"data":""},{"type":"link","offset":383,"length":18,"data":"https://pregnancytracker.app/ru/"},{"type":"bold","offset":383,"length":18,"data":""},{"type":"bold","offset":648,"length":7,"data":""},{"type":"bold","offset":790,"length":9,"data":""},{"type":"bold","offset":953,"length":8,"data":""}],"date":"2020-06-23T12:37:33+00:00","link":"tg://resolve?domain=mobile_jobs&post=68538","tags":[{"name":"mobile"},{"name":"ios"},{"name":"swift"},{"name":"realm"}],"cities":[{"code":"moscow"}],"allowsRemote":true}},{"node":{"id":"71856816128-1001054966032","title":"Android разработчик","text":"‼️Вакансия Senior Android⁢ Developer‼️\n#android #developer #вакансия #удаленка\nВ команде Mycelium Wallet (mycelium.com) открыта #вакансия Senior Android⁢ Developer.\n💵З/П 3000-4000 USD по итогам собеседования.\nРабота удаленная 💻\n\nМы предлагаем:\n🔸Получить навыки и компетенции в одном из самых передовых и перспективных направлений финтех индустрии - blockchain;\n🔸Принять участие в разработке одного из самых популярных биткоин-кошельков в Google Play Store;\n🔸Работать в международной команде бок о бок с ведущими специалистами в индустрии;\n🔸Возможность профессионального карьерного роста и участия в разнообразных проектах компании.\n\nЧем предстоит заниматься:\n🔹Разрабатывать новые и развивать существующие мобильные сервисы компании на платформе Android;\n🔹Проектировать и разрабатывать большие функциональные части приложения с привлечением других программистов;\n🔹Использовать cutting edge технологии, а также проверенные временем решения.\n\nТребования:\n✔️Как минимум 3 года опыта разработки на Android;\n✔️Знание Java/Kotlin на уровне ведущего разработчика;\n✔️Знание шаблонов проектирования, опыт использования MVP и других архитектурных подходов;\n✔️Опыт параллельного и многопоточного программирования;\n✔️Понимание циклов работы Android-приложения и управления памятью;\n✔️Опыт разработки пользовательских интерфейсов на платформе Android. \n✔️Знание Android Design Principles;\n✔️Знание и умение использовать различные механизмы взаимодействий между приложениями, предоставляемые в рамках Android SDK;\n✔️Понимание принципов работы REST API, WS, RPC и клиент-серверных приложений;\n✔️Знание английского языка на уровне чтения документации и умения общаться в корпоративном чате.\n\nПлюсом будет:\n➕Умение и понимание необходимости написания Unit tests;\n➕Знание основ криптографии;\n➕Опыт работы с bitcoin/etherium blockchain stack;\n➕Наличие своих проектов на Github, в Google Play и т.д.\n\n📲Контакт: @valeritata","markup":[{"type":"hashtag","offset":39,"length":8,"data":"android"},{"type":"hashtag","offset":48,"length":10,"data":"developer"},{"type":"hashtag","offset":59,"length":9,"data":"вакансия"},{"type":"hashtag","offset":69,"length":9,"data":"удаленка"},{"type":"link","offset":106,"length":12,"data":"http://mycelium.com"},{"type":"hashtag","offset":128,"length":9,"data":"вакансия"},{"type":"handle","offset":1900,"length":11,"data":"valeritata"}],"date":"2020-06-23T11:07:04+00:00","link":"tg://resolve?domain=mobile_jobs&post=68528","tags":[{"name":"mobile"},{"name":"android"},{"name":"playframework"},{"name":"java"},{"name":"kotlin"},{"name":"rest"},{"name":"github"}],"cities":[],"allowsRemote":true}},{"node":{"id":"351272960-1001352129329","title":"Golang разработчик","text":"#вакансия #golang #go\n\nВакансия: Golang разработчик\nФормат работы: удаленная работа\nКомпания: Спутник\nВилка заработной платы: 100 000 - 170 000\n\nНемного о нас\nСпутник – это IT компания, прочно занявшая лидирующие позиции в своей отрасли. Мы являемся одним из самых титулованных проектов и работаем на рынках России, Европы и СНГ. Компания является резидентом Сколково и резидентом особой экономической зоны Иннополис.\n\nЧем мы отличаемся?\nМы проходим все этапы с нашим продуктом совместно - начиная от проектирования железа, заканчивая технической поддержкой непосредственно пользователей.\n\nТакже мы избавились от иерархии, строгих рабочих обязанностей и централизации власти, отдавая предпочтение свободному принятию решений командой.\n\nКого мы ждем?\nМы находимся в поисках двух разработчиков, которые:\n• имеют коммерческий опыт работы с GoLang (от 1 года);\n• владеют знанием любого другого языка программирования;\n• имеют опыт работы с Linux, терминалом;\n• как преимущество - имеют опыт серверного программирования (Web, облака);\n• будет плюсом, если ты знаешь С - в одном из проектов мы активно используем CGO.\n\nС каких задач начнём?\n\n❗Мы переписываем наше REST API платформы по управлению домофонами на GraphQL API. По данному проекту на практике можно будет поработать с GraphQL, изучить концепцию цифровых двойников, обработать большое количество запросов с API, работа с контейнерами, микросервисным взаимодействием.\n\nЕсли этот проект тебе не интересен, возможно, тебя заинтересует следующий проект:\n\n❗Мы хотим усилить команду по проекту real-time взаимодействия домофонов с платформой. Будут задачи по VoIP, обработке звука(в том числе при помощи методов машинного обучения), обработке огромного количества данных, микросервисного взаимодействия, работы в k8s.\n\nКонтактное лицо\nЛиля Афанасьева\ne-mail: lily@sputnik.direct\ntelegram: lilia_afanaseva","markup":[{"type":"hashtag","offset":0,"length":9,"data":"вакансия"},{"type":"hashtag","offset":10,"length":7,"data":"golang"},{"type":"hashtag","offset":18,"length":3,"data":"go"},{"type":"link","offset":1808,"length":19,"data":"mailto:lily@sputnik.direct"}],"date":"2020-06-23T10:36:25+00:00","link":"tg://resolve?domain=gogetajobfeed&post=335","tags":[{"name":"go"},{"name":"linux"},{"name":"web"},{"name":"rest"},{"name":"graphql"}],"cities":[],"allowsRemote":true}},{"node":{"id":"103514374144-1001089317451","title":"Qa engineer","text":"#вакансия #работа #удалёнка #fulltime #qa\n\nДолжность : QA Engineer\nКомпания : 6nomads.com\nФормат работы: #fulltime #remote\nЗарплата: 100-140 тыс рублей\n\nКто? \nБританский сервис с русскими корнями. Банковский помощник, который своей гибридной моделью автоматизации меняет скучный английский рынок платежных сервисов, лишает его бумажной составляющей и бюрократии, а заодно оставляет без работы бухгалтеров.\n\nЧто предлагают?\n- Заработная плата в фунтах (100-140 тыс рублей);\n- Командировки в Лондон и Кардифф;\n- Возможность релокации в Великобританию;\n- Работа в одном из офисов (Москва, Екатеринбург, Лондон и Кардифф) или удаленно;\n- Обучение и рост внутри компании, помощь в смене профиля на бэкенд, датасайнс или мобильную разработку при желании. \n\nЧто делать?    \n- Проектирование новых фич вместе с командой;\n- Написание тестовых сценариев;\n- Ручное тестирование (+немного автоматизации Python, appium);\n- Проведение регрессионного тестирования перед релизом;      \n- Создание отчетов по ошибкам и контроль их исправления;\n\nТребования:\n- Противобаговый иммунитет\n- Опыт поиска UI/UX дефектов \n- Английский не ниже Intermediate\n\nЧто тестировать?\ni​OS app, Android App, backend, web.                \nСтек: ​\nKaiten, Testrail, Git, TeamCity, Miro, Zeplin.\n\nКонтакт для связи: @temnik_sofya","markup":[{"type":"hashtag","offset":0,"length":9,"data":"вакансия"},{"type":"hashtag","offset":10,"length":7,"data":"работа"},{"type":"hashtag","offset":18,"length":9,"data":"удалёнка"},{"type":"hashtag","offset":28,"length":9,"data":"fulltime"},{"type":"hashtag","offset":38,"length":3,"data":"qa"},{"type":"link","offset":78,"length":11,"data":"http://6nomads.com"},{"type":"hashtag","offset":105,"length":9,"data":"fulltime"},{"type":"hashtag","offset":115,"length":7,"data":"remote"},{"type":"handle","offset":1280,"length":13,"data":"temnik_sofya"}],"date":"2020-06-23T10:26:42+00:00","link":"tg://resolve?domain=qa_jobs&post=98719","tags":[{"name":"qa"},{"name":"python"},{"name":"android"},{"name":"web"},{"name":"git"}],"cities":[{"code":"london"},{"code":"moscow"}],"allowsRemote":true}},{"node":{"id":"26555187200-1001075660570","title":"Php разработчик","text":"#вакансия #фуллтайм #php #удаленка\n\nУважаемые разработчики PHP!\nНужен специалист\nофис в Москве, м.Менделеевская,  но работать можно откуда угодно(удаленный формат)\nЗП 120-160 т.р. по итогам собеседования\nСтек технологий: \nphp7\nlaravel 5\nmysql\n\nЗнаниие базовых технологий стека\nПонимание ООП, знакомство с принципами проектирования и конструирования кода\n\nГрафик: 5 дней в неделю с 10 до 19 плюс-минус 1-2 часа в любую сторону.\nТолько фултайм. Оформление по ТК\nна все вопросы отвечу в ЛС: @yusta2011","markup":[{"type":"hashtag","offset":0,"length":9,"data":"вакансия"},{"type":"hashtag","offset":10,"length":9,"data":"фуллтайм"},{"type":"hashtag","offset":20,"length":4,"data":"php"},{"type":"hashtag","offset":25,"length":9,"data":"удаленка"},{"type":"bold","offset":36,"length":28,"data":""},{"type":"handle","offset":488,"length":10,"data":"yusta2011"}],"date":"2020-06-23T10:18:32+00:00","link":"tg://resolve?domain=php_jobs&post=25325","tags":[{"name":"php"},{"name":"laravel"},{"name":"mysql"}],"cities":[],"allowsRemote":true}}]}},"context":{}}