{"hash":"f5f6bf98bd95e769321482904cbbd488f77922fd","data":{"records":{"id":"redux","name":"redux","belongsTo":{"totalCount":56,"pageInfo":{"totalPages":6,"currentPage":3},"edges":[{"node":{"__typename":"Job","id":"17151557632-1001110946746","title":"Js разработчик","text":"#вакансия #работа #frontend #react #redux #js #typescript #ульяновск #крснодар #нижнийновгород #самара #тольятти #ижевск #воронеж #казань #fulltime #удаленно #офис \n\nMiddle/Senior frontend разработчик React/Redux\nКомпания: Норд Клан\nГород: Ульяновск\nФормат: в офисе, удаленно, если живете не в Ульяновске\nЗарплатная вилка: от 70 до 150k на руки\n\n\nМы ищем разработчика в нашу команду NORD CLAN.  \nМы разрабатываем системы для бизнеса в области финтеха, медицины и фудтеха. Так же разрабатываем собственные продукты связанные с машинным обучением, распознаванием образов и компьютерным зрением. \n\nПо задачам:\n\nРазработка пользовательских интерфейсов в стеке React + Redux\nПроектирование, выбор и доработка архитектурных и технологических решений\nПроведение code-review Frontend-команды\nРазработка прототипов для отработки новых идей\n\nПо тербованиям:\nРеальный опыт работы с React;\nУверенные знания в HTML, CSS;\nНавыки работы с Git.\n\nБудет плюсом:\nОпыт работы на других языках (например, Java);\nАнглийский язык уровня Upper Intermediate.\n\n\nУ нас нет бюрократии, четко выстроены процессы разработки, мы любим и чтим ТК РФ и белую зп\n\n\nПисать в Telegram: @Dinovikova1477","markup":[{"type":"hashtag","offset":0,"length":9,"data":"вакансия"},{"type":"hashtag","offset":10,"length":7,"data":"работа"},{"type":"hashtag","offset":18,"length":9,"data":"frontend"},{"type":"hashtag","offset":28,"length":6,"data":"react"},{"type":"hashtag","offset":35,"length":6,"data":"redux"},{"type":"hashtag","offset":42,"length":3,"data":"js"},{"type":"hashtag","offset":46,"length":11,"data":"typescript"},{"type":"hashtag","offset":58,"length":10,"data":"ульяновск"},{"type":"hashtag","offset":69,"length":9,"data":"крснодар"},{"type":"hashtag","offset":79,"length":15,"data":"нижнийновгород"},{"type":"hashtag","offset":95,"length":7,"data":"самара"},{"type":"hashtag","offset":103,"length":9,"data":"тольятти"},{"type":"hashtag","offset":113,"length":7,"data":"ижевск"},{"type":"hashtag","offset":121,"length":8,"data":"воронеж"},{"type":"hashtag","offset":130,"length":7,"data":"казань"},{"type":"hashtag","offset":138,"length":9,"data":"fulltime"},{"type":"hashtag","offset":148,"length":9,"data":"удаленно"},{"type":"hashtag","offset":158,"length":5,"data":"офис"},{"type":"handle","offset":1149,"length":15,"data":"Dinovikova1477"}],"date":"2020-06-25T11:31:56+00:00","link":"tg://resolve?domain=javascript_jobs_feed&post=16357","tags":[{"name":"javascript"},{"name":"reactjs"},{"name":"redux"},{"name":"typescript"},{"name":"html"},{"name":"css"},{"name":"git"},{"name":"java"},{"name":"react-redux"}],"cities":[{"code":"ulyanovsk"},{"code":"samara"},{"code":"izhevsk"},{"code":"voronezh"},{"code":"kazan"}],"allowsRemote":true}},{"node":{"__typename":"Job","id":"17150509056-1001110946746","title":"Javascript разработчик","text":"#react #typescript #middle #вакансия #Москва\n\nГород и адрес офиса: Москва, Проспект Мира 69/1\n\nФормат работы: офис\n\nЗанятость: полная\n\nЗарплатная вилка: от 180 000 до 230 000 рублей\n\nНазвание компании: ООО «Компания БКС»\n\nЧем предстоит заниматься: \n\n- Разрабатывать один из самых важных микросервисов компании - Дистанционное открытие брокерского счета (ДОБС). Каждый наш новый клиент создается с помощью этого сервиса;\n\n- Работать в кросс-функциональной команде - Backend(4 чел), Web, IOS, Android, QA по Scrum;\n\n- Принимать участие в развитии микро-фронтенд архитектуре.\n\nЧто для этого потребуется:\n\n- Опыт разработки на Javascript от 3-х лет;\n- Опыт работы с React и любым state management'ом (redux, mobx, effector и др.) от 2-х лет;\n- Опыт работы с Typescript;\n- Опыт в кроссбраузерной и адаптивной верстке;\n- Опыт в написании тестов: Unit, интеграционные;\n- Опыт работы с Docker;\n- Опыт работы по Scrum;\n\nЗа что предложим справедливую компенсацию:\n\n- Оформление в соответствии с ТК РФ, все по правилам порядочных работодателей;\n- Комфортный, современный офис в центре города (7 мин. от м. Проспект Мира);\n- Гибкой график;\n- 3 day-off в течение года;\n- Более чем конкурентную заработную плату;\n- Минимум бюрократии (особенно по меркам банковского сектора) и отсутствие дресс-кода;\n- ДМС по льготным условиям;\n- Спортивные команды по футболу, волейболу, баскетболу, настольному теннису;\n- Обучение английскому языку со скидкой прямо в офисе и дистанционно;\n- Льготное приобретение фитнеса в компании World Class;\n- Уютная недорогая столовая на территории Компании (завтраки, обеды).\n\nКонтакты:\nEmail: tupalovdd@bcs.msk.ru\nТелеграм: @dtupalov","markup":[{"type":"hashtag","offset":0,"length":6,"data":"react"},{"type":"hashtag","offset":7,"length":11,"data":"typescript"},{"type":"hashtag","offset":19,"length":7,"data":"middle"},{"type":"hashtag","offset":27,"length":9,"data":"вакансия"},{"type":"hashtag","offset":37,"length":7,"data":"Москва"},{"type":"link","offset":1605,"length":20,"data":"mailto:tupalovdd@bcs.msk.ru"},{"type":"handle","offset":1636,"length":9,"data":"dtupalov"}],"date":"2020-06-25T11:30:26+00:00","link":"tg://resolve?domain=javascript_jobs_feed&post=16356","tags":[{"name":"javascript"},{"name":"reactjs"},{"name":"typescript"},{"name":"web"},{"name":"ios"},{"name":"android"},{"name":"redux"},{"name":"docker"}],"cities":[{"code":"moscow"}],"allowsRemote":false}},{"node":{"__typename":"Job","id":"17146314752-1001110946746","title":"Js разработчик","text":"#вакансия #екб #екатеринбург #react #frontend #middle\n\nПозиция: Разработчик React \nКомпания: SoftMediaLab \nЛокация: Екатеринбург \nФормат работы: #удаленка или  #офис\nЗанятость: #фултайм \nЗП 110 000 - 140 000 рублей на руки\n\nSoftMediaLab – была основана в 2015 году в городе Екатеринбурге. Основатели компании – разработчики, поэтому никакой бюрократии и странных решений, процессы максимально простые и понятные, среда дружественная. \nРазрабатываем в основном стартапы для России, Европы и Америки. \n\nЗадачи: \n- улучшать имеющийся функционал и разрабатывать новый \n- участвовать в принятии архитектурных решений \n\nСтек: react, redux, typescript, bootstrap, material-ui, JQuery, sass, less\n\nРассматриваем также кандидатов, которые  ранее писали на vue.js или angular (от 2х лет), но хотели бы перейти на react\n\nДля связи @Ekaterina_Mitroshkina  или @iamanastasie","markup":[{"type":"hashtag","offset":0,"length":9,"data":"вакансия"},{"type":"hashtag","offset":10,"length":4,"data":"екб"},{"type":"hashtag","offset":15,"length":13,"data":"екатеринбург"},{"type":"hashtag","offset":29,"length":6,"data":"react"},{"type":"hashtag","offset":36,"length":9,"data":"frontend"},{"type":"hashtag","offset":46,"length":7,"data":"middle"},{"type":"hashtag","offset":145,"length":9,"data":"удаленка"},{"type":"hashtag","offset":160,"length":5,"data":"офис"},{"type":"hashtag","offset":177,"length":8,"data":"фултайм"},{"type":"handle","offset":820,"length":22,"data":"Ekaterina_Mitroshkina"},{"type":"handle","offset":848,"length":13,"data":"iamanastasie"}],"date":"2020-06-25T08:48:37+00:00","link":"tg://resolve?domain=javascript_jobs_feed&post=16352","tags":[{"name":"javascript"},{"name":"reactjs"},{"name":"redux"},{"name":"typescript"},{"name":"bootstrap"},{"name":"jquery"},{"name":"sass"},{"name":"vuejs"},{"name":"angularjs"},{"name":"react-redux"}],"cities":[],"allowsRemote":true}},{"node":{"__typename":"Job","id":"17133731840-1001110946746","title":"Js developer","text":"#вакансия #frontenddeveloper #frontend\n\nГород и адрес офиса: Москва\n\nФормат работы: удаленна\n\nЗанятость: проектная, далее возможно заключение долгосрочного контракта с бонусами за развитие компании (испытательный срок - 2 месяца)\n\nЗарплатная вилка: от 90 000 до 130 000 руб.\n\nОписание вакансии: РАЗРАБОТКА ИНТЕРНЕТ  ПЛАТФОРМЫ ДЛЯ СОЗДАНИЯ КОМПЬЮТЕРНОЙ ГРАФИКИ ДЛЯ ИГР И СПЕЦЭФФЕКТОВ В КИНО (cg-doo.com)\n\nТребуемый опыт работы: 2–5 лет\n\nНеобходимые навыки:\n- уверенное знание JavaScript, React / Redux, HTML5, CSS3\n- опыт коммерческой разработки с использованием React.JS, Redux от года\n- опыт работы с ES6\n- знание английского на уровне чтения документации\n\nБудет плюсом:\n- опыт работы с Docker, Git\n\nСтек проекта:\n- SPA-приложение JS / React / Redux;\n- бэкэнд на Django/Postgresql/Redis/Celery/RabbitMQ; \n- NginX, kubernetes\n\nНазвание компании: Argunov Studio (https://argunov.studio)\n\nПодробнее ознакомиться с компанией и вакансией можно здесь: https://help.cg-doo.com/work-in-cg-doo/vacancies/frontend-developer\n\nКонтакты: телеграм @victoriashrv и/или на почту vicsukhareva@yandex.ru (пожалуйста, прикладывайте резюме или сопроводительное письмо)\n\n—\n\n👉 Обсуждение вакансии в чате @javascript_jobs","markup":[{"type":"hashtag","offset":0,"length":9,"data":"вакансия"},{"type":"hashtag","offset":10,"length":18,"data":"frontenddeveloper"},{"type":"hashtag","offset":29,"length":9,"data":"frontend"},{"type":"link","offset":391,"length":10,"data":"http://cg-doo.com"},{"type":"link","offset":862,"length":22,"data":"https://argunov.studio"},{"type":"link","offset":947,"length":67,"data":"https://help.cg-doo.com/work-in-cg-doo/vacancies/frontend-developer"},{"type":"handle","offset":1035,"length":13,"data":"victoriashrv"},{"type":"link","offset":1064,"length":22,"data":"mailto:vicsukhareva@yandex.ru"},{"type":"handle","offset":1184,"length":16,"data":"javascript_jobs"}],"date":"2020-06-24T13:37:13+00:00","link":"tg://resolve?domain=javascript_jobs_feed&post=16340","tags":[{"name":"javascript"},{"name":"reactjs"},{"name":"redux"},{"name":"html"},{"name":"css"},{"name":"docker"},{"name":"git"},{"name":"django"},{"name":"postgresql"},{"name":"redis"},{"name":"rabbitmq"},{"name":"nginx"},{"name":"kubernetes"},{"name":"react-redux"}],"cities":[{"code":"moscow"}],"allowsRemote":false}},{"node":{"__typename":"Job","id":"17108566016-1001110946746","title":"Js разработчик","text":"#вакансия #javascript #react #typescript #nodejs #frontend #middle #senior\n\nКомпания: #Mетрквадратный www.m2.ru\nЛокация: #москва м.Белорусская\nФормат работы: офис (удаленная до сентября) \nЗанятость: полная\nЗ/п: 200к - 260к руб. на руки\nКонтакты: @maxdmitrov\n\nЭто экосистема недвижимости, которая помогает клиентам решать любые жилищные вопросы: от поиска вариантов и оформления сделки до организации ремонта и переезда в новую квартиру. Мы также создаем решения для партнёров и профессиональных участников рынка недвижимости.\n\nЧем предстоит заниматься:\n\n•  разрабатывать один из продуктов жилищной экосистемы;\n•  прорабатывать задачи с начального этапа (декомпозиция, проработка архитектуры, демо с владельцем продукта);\n•  проводить код ревью;\n•  покрывать код unit тестами, помогать тестировщикам в написании e2e тестов;\n•  оптимизировать рендеринг и скорость загрузки страниц;\n•  разрабатывать продуктовые компоненты, используя общие UI библиотеки, и помогать в развитии этих библиотек.\n\nЧего мы ждем:\n\n• Javascript(ES6);\n• React + MobX/Redux;\n• HTML;\n• CSS;\n• Опыт кроссбраузерной верстки.\n\nБудет плюсом:\n\n• TypeScript;\n• знание протокола HTTP/HTTPS, websockets, опыт работы с REST API;\n• опыт работы с react native;\n• опыт в бекэнде на различных языках программирования;\n• опыт профилирования, оптимизации и рефакторинга кода;\n• опыт написания тестов.\n\nМы используем: \n\n•  TypeScript + React + MobX + Gatsby;\n•  NestJS + gRPC + ProtoBuf (мидл-слой, управляющий UI и обращающийся к API бэк-энда);\n•  Micro Frontend Service;\n•  GitLab (CI/CD);\n•  Yarn + Lerna;\n•  Webpack/Rollup.\n\nМы предлагаем: \n\n•  современный стек технологий;\n•  возможность влиять на архитектуру и сразу видеть результат своей работы;\n•  белая конкурентная ЗП, официальное оформление;\n•  гибкий график работы;\n•  ДМС, компенсация фитнеса, льготная ставка по ипотеке;\n•  комфортный офис в БЦ «Белая площадь» (минута от метро): лаундж-зоны, бариста, фрукты.\n\n—\n\n👉 Обсуждение вакансии в чате @javascript_jobs","markup":[{"type":"hashtag","offset":0,"length":9,"data":"вакансия"},{"type":"hashtag","offset":10,"length":11,"data":"javascript"},{"type":"hashtag","offset":22,"length":6,"data":"react"},{"type":"hashtag","offset":29,"length":11,"data":"typescript"},{"type":"hashtag","offset":41,"length":7,"data":"nodejs"},{"type":"hashtag","offset":49,"length":9,"data":"frontend"},{"type":"hashtag","offset":59,"length":7,"data":"middle"},{"type":"hashtag","offset":67,"length":7,"data":"senior"},{"type":"hashtag","offset":86,"length":15,"data":"Mетрквадратный"},{"type":"link","offset":102,"length":9,"data":"http://www.m2.ru"},{"type":"hashtag","offset":121,"length":7,"data":"москва"},{"type":"handle","offset":246,"length":11,"data":"maxdmitrov"},{"type":"handle","offset":1964,"length":16,"data":"javascript_jobs"}],"date":"2020-06-22T11:08:34+00:00","link":"tg://resolve?domain=javascript_jobs_feed&post=16316","tags":[{"name":"javascript"},{"name":"reactjs"},{"name":"typescript"},{"name":"nodejs"},{"name":"redux"},{"name":"html"},{"name":"css"},{"name":"rest"},{"name":"gitlab"},{"name":"webpack"},{"name":"react-native"}],"cities":[{"code":"moscow"}],"allowsRemote":true}},{"node":{"__typename":"Job","id":"17105420288-1001110946746","title":"Js программист","text":"#вакансия #frontend #удаленка #fulltime #js #ts \n\n В финтех стартап YouHodler.com требуется талантливый frontend программист \n\n- 5/2 круглый год, без официальный праздников РФ, но отпуск 6 недель - даты выбираешь сам по договоренности с командой\n- зарплата в $\n- полностью удаленная работа (с коммандировками за счет компании)\n- основное рабочее время с 9:00 до 18:00 CET с понедельника по пятницу\n- несколько раз в год общий слет за счет компании в красивых местах нашей планеты\n\nФормат работы: удаленка\n\nЗанятость: полная\n\nЗарплатная вилка: от 2500 до 3000 USD\n\nОписание вакансии:\nК нам в компанию требует таланливый фронтенд программист для работы над следующей версией app.youhodler.com и https://apps.apple.com/app/id1469351696\nМного интересных и сложных задач задач на любой вкус: от работы с потоком real-time данных до анимирования графиков для работы с 60fps на всех плафмах (web, react-native), оптимизации статического web сайта, настройки pwa и так далее\n\nТребуется:\n- typescript;\n- react;\n- state-management (redux / mobx);\n\nБудет плюсом:\n- react-native;\n- styled-components / styled-system;\n\nhttps://www.youhodler.com/\nКонтакты: @acusticdemon, renat@youhodler.com","markup":[{"type":"hashtag","offset":0,"length":9,"data":"вакансия"},{"type":"hashtag","offset":10,"length":9,"data":"frontend"},{"type":"hashtag","offset":20,"length":9,"data":"удаленка"},{"type":"hashtag","offset":30,"length":9,"data":"fulltime"},{"type":"hashtag","offset":40,"length":3,"data":"js"},{"type":"hashtag","offset":44,"length":3,"data":"ts"},{"type":"link","offset":68,"length":13,"data":"http://YouHodler.com"},{"type":"link","offset":673,"length":17,"data":"http://app.youhodler.com"},{"type":"link","offset":693,"length":39,"data":"https://apps.apple.com/app/id1469351696"},{"type":"link","offset":1106,"length":26,"data":"https://www.youhodler.com/"},{"type":"handle","offset":1143,"length":13,"data":"acusticdemon"},{"type":"link","offset":1158,"length":19,"data":"mailto:renat@youhodler.com"}],"date":"2020-06-22T11:05:05+00:00","link":"tg://resolve?domain=javascript_jobs_feed&post=16313","tags":[{"name":"javascript"},{"name":"web"},{"name":"reactjs"},{"name":"typescript"},{"name":"redux"},{"name":"react-native"}],"cities":[],"allowsRemote":true}},{"node":{"__typename":"Job","id":"17082351616-1001110946746","title":"Javascript разработчик","text":"#вакансия #front #react #typescript #москва #генетика #javascript #геномэксперт #барсгруп\n\nГород и адрес офиса: Москва, ст.м.Павелецкая\nФормат работы: Офис\nЗанятость: полная.\nЗарплатная вилка: от 200.000 до 300.000 рублей на руки. \nНазвание компании: Барс Груп\nhttps://bars.group/\nПроект Геном.Эксперт  - https://genome.expert/ \n\nТребуется senior/middle front-end разработчик в крупный медицинский проект.\n\nПредметная область: Генетика. \nТекущее состояние проекта: \nПроект запущен с прошлого года, сейчас добираем команду по потребностям проекта и новым направлениям, есть уникальная возможность принять участие в создании единого пространства для врачей-генетиков, лабораторных генетиков и биоинформатиков.\n\n✅Чем придется заниматься:\n\n- Писать микроприложения и компоненты на React (В данный момент есть большое приложение, его разбиваем на небольшие)\n- Пилить компоненты для ui-kit\n- Менять legacy components(polymer) на react components\n\n\n✔️Требования:\n\n-Front-end: React(Vue), typescript, Redux/Mobx/Vuex;\n-Межсервисное взаимодействие и API: REST/GraphQL/gRPC. \n\n✔️Инструменты для работы: \n\nGit, bitbucket, JIRA, docker, docker-compose. \n\n✔️Условия:\n\n-Оформление по ТК РФ;\n-Работа в офисе в пешей доступности от ст.м.Павелецкая (на данный момент удаленка);\n-График 5/2, гибкое начало рабочего дня ;\n-Белая зарплата, повышающаяся по системе аттестаций несколько раз в год;\n-ДМС;\n-Перспективы карьерного роста;\n-Корпоративное обучение (тренинги, мастер-классы);\n-Корпоративная библиотека;\n-Мы рассматриваем кандидатов с возможностью переезда в Москву;\n-Возможность предоставления бесплатного жилья на первый месяц. \n\nКонтакты для связи: \n\nemail: a.starchenko@bars.group \nTelegram: @alinavelcheva \n\nbars.group\nАО «БАРС Груп» - официальный сайт компании\nАО «БАРС Груп» - российский производитель ИТ-решений и экспертный центр в сфере государственной и корпоративной информатизации.\n\n—\n\n👉 Обсуждение вакансии в чате @javascript_jobs","markup":[{"type":"hashtag","offset":0,"length":9,"data":"вакансия"},{"type":"hashtag","offset":10,"length":6,"data":"front"},{"type":"hashtag","offset":17,"length":6,"data":"react"},{"type":"hashtag","offset":24,"length":11,"data":"typescript"},{"type":"hashtag","offset":36,"length":7,"data":"москва"},{"type":"hashtag","offset":44,"length":9,"data":"генетика"},{"type":"hashtag","offset":54,"length":11,"data":"javascript"},{"type":"hashtag","offset":66,"length":13,"data":"геномэксперт"},{"type":"hashtag","offset":80,"length":9,"data":"барсгруп"},{"type":"link","offset":261,"length":19,"data":"https://bars.group/"},{"type":"link","offset":305,"length":22,"data":"https://genome.expert/"},{"type":"link","offset":1648,"length":23,"data":"mailto:a.starchenko@bars.group"},{"type":"handle","offset":1683,"length":14,"data":"alinavelcheva"},{"type":"link","offset":1700,"length":10,"data":"http://bars.group"},{"type":"handle","offset":1916,"length":16,"data":"javascript_jobs"}],"date":"2020-06-19T18:52:18+00:00","link":"tg://resolve?domain=javascript_jobs_feed&post=16291","tags":[{"name":"javascript"},{"name":"reactjs"},{"name":"typescript"},{"name":"polymerjs"},{"name":"vuejs"},{"name":"redux"},{"name":"rest"},{"name":"graphql"},{"name":"git"},{"name":"docker"},{"name":"docker-compose"}],"cities":[{"code":"moscow"}],"allowsRemote":true}},{"node":{"__typename":"Job","id":"17070817280-1001110946746","title":"Js developer","text":"#вакансия #js #frontend #react\n\nПозиция: Middle React Developer\n\nФормат работы: удаленно (дэйли митинги в начале дня)\n\nЗанятость: полная, проектная\n\nТребования:\n- уверенные знания ECMAScript\n- уверенные знания React/Redux \n- знания git и git-flow (squash, merge, etc)\n- инициативность и способность общаться с командой\n- умение писать чистый и поддерживаемый код\n- умение выполнять задачи\n\nНеплохо, если вы:\n- умеете работать с веб-сокетами (потребуется в дальнейшем)\n- знаете TypeScript (возможно потребуется в дальнейшем)\n- знаете CSS/Sass и умеете верстать\n\nОбязанности:\n- разработка приложения на React+Redux\n- коммуникация с командой, принятие решений в проектировании API\n\nРабочий график: 10:00 - 18:00 Пн-Пт\n\nОплата: 1500$ - 2000$ (на руки)\n\nКонтакты: @heavycharged\n\n—\n\n👉 Обсуждение вакансии в чате @javascript_jobs","markup":[{"type":"hashtag","offset":0,"length":9,"data":"вакансия"},{"type":"hashtag","offset":10,"length":3,"data":"js"},{"type":"hashtag","offset":14,"length":9,"data":"frontend"},{"type":"hashtag","offset":24,"length":6,"data":"react"},{"type":"handle","offset":759,"length":13,"data":"heavycharged"},{"type":"handle","offset":807,"length":16,"data":"javascript_jobs"}],"date":"2020-06-19T10:45:28+00:00","link":"tg://resolve?domain=javascript_jobs_feed&post=16280","tags":[{"name":"javascript"},{"name":"reactjs"},{"name":"redux"},{"name":"git"},{"name":"typescript"},{"name":"css"},{"name":"sass"},{"name":"react-redux"}],"cities":[],"allowsRemote":true}},{"node":{"__typename":"Job","id":"17056137216-1001110946746","title":"Js разработчик","text":"#вакансия #middle #спб #react #redux #emotion\n\nГород: Сантк-Петербург, ул. Рубинштейна (5 углов)\nФормат работы: офис или удаленка\nЗанятость: полная\nЗарплатная вилка: от 80к до 130к рублей (на руки, больше по согласованию)\nИспользуемый стек: react 16 (hooks), redux, emotion\n\nОписание вакансии:\n\nПривет всем, мы разрабатываем крутые проекты, связанные прежде всего с физическим здоровьем людей, которые тратят его, зарабатывая себе на хлеб. Эти люди работают на складах, перенося коробки с места на место, в сортировочных центрах, доставляя вам посылки, на стройках, и в остальных местах, где требуется ручной труд.\nНаши решения помогают компаниям за границей измерять и управлять (с помощью носимых устройств) рисками возникновения травмы для своих сотрудников (подробнее можете ознакомиться по ссылке: https://soteranalytics.com/ ). Я сооснователь проекта и нам в сентябре исполнится 4 года. С помощью этого канала мы уже нашли двух сотрудников, которые успешно у нас работают, но сейчас такие времена, что чем быстрее мы сможем разработать новые фичи в наших продуктах, тем больше рынка сможем захватить.\n\nЧто нужно делать: нужно разрабатывать дэшборды и прочие веб интерфейсы для наших клиентов, так и для наших внутренних нужд.\n\nЧто требуется от вас: мы ценим самоорганизованность и очень не любим микроменеджмент. Также мы любим когда наши сотрудники развиваются у нас на глазах и всячески стараемся этому помочь. У нас также сформирована команда из опытных сотрудников, которые имеют экспертизы почти в каждой теме.\nТакже мы ценим, когда человек умеет решать проблемы, а не создавать их другим.\n\nКонтакты: писать мне в личку @pavko_a. В сообщении пишите что вы уже сделали на reactjs, чем вы гордитесь в своей работе, а также пару строк о себе и чем вы занимались на последнем проекте.\n\nЗабыл упомянуть: в команде очень много общения на английском, так как коммерческая команда находится в Лондоне и являются носителями языка. #doyourhomework\n\n—\n\n👉 Обсуждение вакансии в чате @javascript_jobs","markup":[{"type":"hashtag","offset":0,"length":9,"data":"вакансия"},{"type":"hashtag","offset":10,"length":7,"data":"middle"},{"type":"hashtag","offset":18,"length":4,"data":"спб"},{"type":"hashtag","offset":23,"length":6,"data":"react"},{"type":"hashtag","offset":30,"length":6,"data":"redux"},{"type":"hashtag","offset":37,"length":8,"data":"emotion"},{"type":"link","offset":803,"length":27,"data":"https://soteranalytics.com/"},{"type":"handle","offset":1631,"length":8,"data":"pavko_a"},{"type":"hashtag","offset":1933,"length":15,"data":"doyourhomework"},{"type":"handle","offset":1983,"length":16,"data":"javascript_jobs"}],"date":"2020-06-18T21:08:30+00:00","link":"tg://resolve?domain=javascript_jobs_feed&post=0","tags":[{"name":"javascript"},{"name":"reactjs"},{"name":"redux"},{"name":"react-redux"}],"cities":[],"allowsRemote":true}},{"node":{"__typename":"Job","id":"103199801344-1001089317451","title":"Qa инженер","text":"#вакансия #релокация #Кипр #Лимассол #fulltime \n✔️Developer in Test\n✔️Spotware Systems Ltd (fintech)\n✔️от 2700 евро на руки\n✔️релокация по окончанию карантина и после открытия границ обязательна\n\nТребуется человек который будет заниматься автоматизированным тестированием форекс веб приложения, написанного на  React/ Redux / TypeScript.\n\nОбязанности:\nПрогон автотестов, анализ результатов, заведение / контроль дефектов\nПоддержка и расширение функциональных тестов написанных на TestCafe / Typescript\nПоддержка и расширение перфоманс тестов написанных на Puppeteer / Typescript\nВедение и оптимизация тестовой документации совместно с QA командой в TestRail\nОптимизация процессов тестирования\n\nТребования:\nОтличное знание JS (ES6+), желательно TypeScript\nУмение составлять сложные локаторы на CSS / XPath\nПонимание принципов работы  React/ Redux приложения\nПонимание и опыт работы с Git\nЗнание фундаментальных основ программирования и клиент-серверной архитектуры\n\nБудет плюсом:\n\nОпыт разработки на TypeScript\nОпыт разработки на React + Redux\nЗнание и опыт использования паттернов проектирования\nПонимание методологий тестирования \n\nЗа подробностями в личку 🙂","markup":[{"type":"hashtag","offset":0,"length":9,"data":"вакансия"},{"type":"hashtag","offset":10,"length":10,"data":"релокация"},{"type":"hashtag","offset":21,"length":5,"data":"Кипр"},{"type":"hashtag","offset":27,"length":9,"data":"Лимассол"},{"type":"hashtag","offset":37,"length":9,"data":"fulltime"},{"type":"bold","offset":339,"length":11,"data":""},{"type":"bold","offset":694,"length":10,"data":""},{"type":"bold","offset":965,"length":12,"data":""}],"date":"2020-06-18T14:49:56+00:00","link":"tg://resolve?domain=qa_jobs&post=0","tags":[{"name":"qa"},{"name":"reactjs"},{"name":"redux"},{"name":"typescript"},{"name":"css"},{"name":"git"},{"name":"react-redux"}],"cities":[],"allowsRemote":false}}]}}},"context":{}}