{"hash":"f34fd2c444a074f4e0e67d525015a008ef8e766f","data":{"records":{"id":"nodejs","name":"nodejs","belongsTo":{"totalCount":37,"pageInfo":{"totalPages":4,"currentPage":3},"edges":[{"node":{"__typename":"Job","id":"98126790656-1001089317451","title":"Qa engineer","text":"#вакансия #москва #полнаязанятость #qaengineer\nКомпания: #Mетрквадратный ( https://m2.ru )\nЛокация: м.Белорусская (в шаге от метро) \nЗ/п: от 120к - 230к на руки\nКонтакты: @maxdmitrov\n\nЭто платформа, на которой физические лица смогут в режиме одного окна подобрать объект недвижимости, оформить на него ипотеку, произвести электронную регистрацию, сделать безопасный расчет не посещая банки и воспользоваться дополнительными услугами (страхование, дизайн, ремонт). \n\nНаш стэк:\n• Java\n • Node.js\n • React, TypeScript\n • Kafka, ElasticSearch, gRPC\n • Docker\n\nЧем предстоит заниматься:\n • анализировать и тестировать требования к разрабатываемым приложениям;\n • писать приемочные критерии к пользовательским историям;\n • проводить функциональное, регрессионное и smoke тестирование;\n • заниматься задачами по автоматизации тестирования.\n\nЧего мы ждем:\n • глубокое понимание процессов тестирования и разработки ПО;\n • опыт интеграционного тестирования:\n    - системная интеграция;\n    - компонентная интеграция\n • опыт тестирования АРI;\n • опыт автоматизации тестирования на любом стеке.\n\nБудет плюсом\n • опыт исследовательского тестирования;\n • опыт тестирования ПО с микросервисной архитектурой.\n\nМы предлагаем:\n • белая конкурентная ЗП, официальное оформление;\n • гибкий график работы, возможность выбора рабочего оборудования;\n • ДМС, компенсация фитнеса, льготная ставка по ипотеке;\n • комфортный офис в БЦ «Белая площадь» (минута от метро): лаундж-зоны, бариста, фрукты.","markup":[{"type":"hashtag","offset":0,"length":9,"data":"вакансия"},{"type":"hashtag","offset":10,"length":7,"data":"москва"},{"type":"hashtag","offset":18,"length":16,"data":"полнаязанятость"},{"type":"hashtag","offset":35,"length":11,"data":"qaengineer"},{"type":"hashtag","offset":57,"length":15,"data":"Mетрквадратный"},{"type":"link","offset":75,"length":13,"data":"https://m2.ru"},{"type":"handle","offset":171,"length":11,"data":"maxdmitrov"},{"type":"bold","offset":465,"length":11,"data":""},{"type":"bold","offset":556,"length":26,"data":""},{"type":"bold","offset":833,"length":15,"data":""},{"type":"bold","offset":1083,"length":14,"data":""},{"type":"bold","offset":1192,"length":16,"data":""}],"date":"2020-04-07T11:57:25+00:00","link":"tg://resolve?domain=qa_jobs&post=93581","tags":[{"name":"qa"},{"name":"java"},{"name":"nodejs"},{"name":"reactjs"},{"name":"typescript"},{"name":"kafka"},{"name":"elasticsearch"},{"name":"docker"}],"cities":[{"code":"moscow"}],"allowsRemote":false}},{"node":{"__typename":"Job","id":"16198402048-1001110946746","title":"Js developer","text":"#вакансия #Nodejs #Москва #удалёнка #офис\n\nПозиция: Backend-developer \nФормат: #удалёнка или #Москва офис\nЗанятость: #fulltime \nЗарплатная вилка: от 120 000  до 190 000 руб. net\nКомпания: Paradigmfund https://paradigmfund.io/\n\n Задачи\n\n •  Разработка и поддержка проектов компании (Блокчейн эксплорер);\n • Работа с различными БД (основная: PostgreSQL, периодически: leveldb, yandex clickhouse)\n • Работа в команде\n\nТребования:\n\n • Опыт работы с JS и NodeJS от 3 лет;\n • Большой опыт работы с различными базами данных, в частности PostgreSQL\n • Желание увеличивать этот опыт ^, много работы с БД, быть к этому готовым. \n • Умение работать с git;\n • Плюсом будет опыт работы с python и golang на уровне чтения чужого кода. \n\nУсловия:\n \n • Работа по Agile, используем Jira/Confluence\n • Полная удаленка с графиком или офис в центре Москвы\n • Командировки в Токио\n • Премии и ежегодный рост\n\nПишите в личку, желательно сразу с резюме: @grshabl","markup":[{"type":"hashtag","offset":0,"length":9,"data":"вакансия"},{"type":"hashtag","offset":10,"length":7,"data":"Nodejs"},{"type":"hashtag","offset":18,"length":7,"data":"Москва"},{"type":"hashtag","offset":26,"length":9,"data":"удалёнка"},{"type":"hashtag","offset":36,"length":5,"data":"офис"},{"type":"hashtag","offset":79,"length":9,"data":"удалёнка"},{"type":"hashtag","offset":93,"length":7,"data":"Москва"},{"type":"hashtag","offset":117,"length":9,"data":"fulltime"},{"type":"link","offset":201,"length":24,"data":"https://paradigmfund.io/"},{"type":"handle","offset":931,"length":8,"data":"grshabl"}],"date":"2020-04-06T14:42:38+00:00","link":"tg://resolve?domain=javascript_jobs_feed&post=15448","tags":[{"name":"javascript"},{"name":"nodejs"},{"name":"dotnet"},{"name":"postgresql"},{"name":"git"},{"name":"python"},{"name":"go"}],"cities":[{"code":"moscow"},{"code":"tokyo"}],"allowsRemote":true}},{"node":{"__typename":"Job","id":"16196304896-1001110946746","title":"Js разработчик","text":"#вакансия #front #react #typescript #москва #генетика #javascript #nodejs #геномэксперт #барсгруп\n\nГород и адрес офиса: Москва, ст.м.Павелецкая\nФормат работы: Офис\nЗанятость: Полная \nЗарплатная вилка: от 160 до 250 000 руб. на руки\nНазвание компании: Барс Груп\nhttps://bars.group/\nПроект Геном.Эксперт  - https://genome.expert/ \n\nТребуется senior/middle front-end разработчик в крупный медицинский проект.\n\nПредметная область: Генетика.\nТекущее состояние проекта: Проект запущен как стартап, поэтому есть уникальная возможность принять участие в создании с нуля единого пространства для врачей-генетиков, лабораторных генетиков, биоинформатиков.\n\nЧем придется заниматься:\n\n-Писать микроприложения и компоненты на React;\n-Изучать исходники на Polymer, чтобы переехать на React и микросервисную архитектуру;\n-Доделывать существующую систему с использованием самописного фрэймворка(пока переезжаем на реакт, это иногда нужно будет делать)\n\nТребования:\n\n-Front-end: React(Vue), typescript, Polymer, Redux/Mobx/Vuex;\n-Межсервисное взаимодействие и API: REST/GraphQL/gRPC;\n-Инструменты для работы: Git, bitbucket, JIRA, docker, docker-compose\n\nУсловия:\n-Оформление по ТК РФ;\n-Работа в комфортабельном офисе, ст.м.Павелецкая;\n-Белая зарплата, повышающаяся по системе аттестаций несколько раз в год;\n-ДМС;\n-Перспективы карьерного роста;\n-Корпоративное обучение (тренинги, мастер-классы);\n-Корпоративная библиотека;\n-Мы рассматриваем кандидатов с возможностью переезда в Москву;\n-Возможность предоставления бесплатного жилья на первый месяц\n- График 5/2. \n\nКонтакты для связи: \n\nemail: a.starchenko@bars.group \nTelegram: @alinavelcheva \n\nbars.group\nАО «БАРС Груп» - официальный сайт компании\nАО «БАРС Груп» - российский производитель ИТ-решений и экспертный центр в сфере государственной и корпоративной информатизации.","markup":[{"type":"hashtag","offset":0,"length":9,"data":"вакансия"},{"type":"hashtag","offset":10,"length":6,"data":"front"},{"type":"hashtag","offset":17,"length":6,"data":"react"},{"type":"hashtag","offset":24,"length":11,"data":"typescript"},{"type":"hashtag","offset":36,"length":7,"data":"москва"},{"type":"hashtag","offset":44,"length":9,"data":"генетика"},{"type":"hashtag","offset":54,"length":11,"data":"javascript"},{"type":"hashtag","offset":66,"length":7,"data":"nodejs"},{"type":"hashtag","offset":74,"length":13,"data":"геномэксперт"},{"type":"hashtag","offset":88,"length":9,"data":"барсгруп"},{"type":"link","offset":261,"length":19,"data":"https://bars.group/"},{"type":"link","offset":305,"length":22,"data":"https://genome.expert/"},{"type":"link","offset":1577,"length":23,"data":"mailto:a.starchenko@bars.group"},{"type":"handle","offset":1612,"length":14,"data":"alinavelcheva"},{"type":"link","offset":1629,"length":10,"data":"http://bars.group"}],"date":"2020-04-06T14:41:46+00:00","link":"tg://resolve?domain=javascript_jobs_feed&post=15446","tags":[{"name":"javascript"},{"name":"reactjs"},{"name":"typescript"},{"name":"nodejs"},{"name":"polymerjs"},{"name":"vuejs"},{"name":"redux"},{"name":"rest"},{"name":"graphql"},{"name":"git"},{"name":"docker"},{"name":"docker-compose"}],"cities":[{"code":"moscow"}],"allowsRemote":false}},{"node":{"__typename":"Job","id":"16193159168-1001110946746","title":"Js разработчик","text":"#вакансия #javascript #nodejs #typescript #frontend #middle\n\nКомпания: #Mетрквадратный https://m2.ru\nЛокация: #москва м.Белорусская\nФормат работы: офис\nЗанятость: полная\nЗ/п: 200к - 260к руб. на руки\nКонтакты: @maxdmitrov\n\nЭто платформа, на которой физические лица смогут в режиме одного окна подобрать объект недвижимости, оформить на него ипотеку, произвести электронную регистрацию, сделать безопасный расчет не посещая банки и воспользоваться дополнительными услугами (страхование, дизайн, ремонт). \n\nЧем предстоит заниматься:\n\n•  разрабатывать один из инновационных продуктов жилищной экосистемы;\n•  прорабатывать задачи с начального этапа (декомпозиция, проработка архитектуры, демо с владельцем продукта);\n•  проводить код ревью;\n•  покрывать код unit тестами, помогать тестировщикам в написании e2e тестов;\n•  оптимизировать рендеринг и скорость загрузки страниц;\n•  разрабатывать продуктовые компоненты, используя общие UI библиотеки, и помогать в развитии этих библиотек.\n\nЧего мы ждем:\n\n• Javascript(ES6);\n• React + MobX/Redux;\n• HTML;\n• CSS;\n• Опыт кроссбраузерной верстки.\n\nБудет плюсом:\n\n• TypeScript;\n• Знание протокола HTTP/HTTPS, websockets, опыт работы с REST API;\n• Опыт работы с react native;\n• Опыт в бекэнде на различных языках программирования;\n• Опыт профилирования, оптимизации и рефакторинга кода;\n• Опыт написания тестов.\n\nМы используем: \n\n•  TypeScript + React + MobX + Gatsby;\n•  NestJS + gRPC + ProtoBuf (мидл-слой, управляющий UI и обращающийся к API бэк-энда);\n•  Micro Frontend Service;\n•  GitLab (CI/CD);\n•  Yarn + Lerna;\n•  Webpack/Rollup.\n\nМы предлагаем: \n\n•  Современный стек технологий;\n•  Возможность влиять на архитектуру и сразу видеть результат своей работы;\n•  Белая конкурентная ЗП, официальное оформление;\n•  Гибкий график работы, возможность выбора рабочего оборудования;\n•  ДМС, компенсация фитнеса, льготная ставка по ипотеке;\n•  Комфортный офис в БЦ «Белая площадь» (минута от метро): лаундж-зоны, бариста, фрукты.\n\n—\n\n👉 Обсуждение вакансии в чате @javascript_jobs","markup":[{"type":"hashtag","offset":0,"length":9,"data":"вакансия"},{"type":"hashtag","offset":10,"length":11,"data":"javascript"},{"type":"hashtag","offset":22,"length":7,"data":"nodejs"},{"type":"hashtag","offset":30,"length":11,"data":"typescript"},{"type":"hashtag","offset":42,"length":9,"data":"frontend"},{"type":"hashtag","offset":52,"length":7,"data":"middle"},{"type":"hashtag","offset":71,"length":15,"data":"Mетрквадратный"},{"type":"link","offset":87,"length":13,"data":"https://m2.ru"},{"type":"hashtag","offset":110,"length":7,"data":"москва"},{"type":"handle","offset":210,"length":11,"data":"maxdmitrov"},{"type":"handle","offset":1998,"length":16,"data":"javascript_jobs"}],"date":"2020-04-06T12:22:15+00:00","link":"tg://resolve?domain=javascript_jobs_feed&post=15443","tags":[{"name":"javascript"},{"name":"nodejs"},{"name":"typescript"},{"name":"reactjs"},{"name":"redux"},{"name":"html"},{"name":"css"},{"name":"rest"},{"name":"gitlab"},{"name":"webpack"},{"name":"react-native"}],"cities":[{"code":"moscow"}],"allowsRemote":false}},{"node":{"__typename":"Job","id":"16185819136-1001110946746","title":"Js разработчик","text":"#вакансия #react #typescript #node #postgresql\n\nФормат: #офис #удаленка (временно)\nЗанятость: #полная\nЛокации: #Москва #Киевская #ПаркКультуры\nЗарплата: 80000 - 160000 руб\nВакансия: 💻fullstack, уровень от junior.\n\n‼️ Мы ищем typescript react разработчика с уклоном в fullstack на nodejs, которому помимо программирования был бы интересен и сам продукт, который умеет отстаивать свою точку зрения и предлагать новые идеи. Если у вас нет опыта по каким то пунктам - это не причина не пообщаться. Мы готовы рассмотреть кандидатов с разным уровнем и в случае успеха научим всему сами.\n\nМы предлагаем:\n🔸Дух \"гаражного\" стартапа (компания появилась совсем недавно);\n🔸Множество интересных и сложных задач;\n🔸Высокая степень влияния на конечный продукт;\n🔸Конкурентная заработная плата;\n🔸Гибкий график;\n🔸Участие в опционной программе в будущем.\n\nЧем предстоит заниматься:\n🔸Проектирование архитектуры проекта с нуля;\n🔸Разработки интерфейсов на antd для бэкоффиса;\n🔸Разработка api (#nodejs, #typescript, #graphql, #postgres);\n🔸Улучшение процессов автоматизации.\n\nТребования:\n🔸Уверенные знания #nodejs и #javascript / #typescript;\n🔸Знание веб фреимворков (#express);\n🔸Уверенные знания фронтенда (#react);\n🔸Опыт работы с #git.\n\nБудет плюсом:\n🔸Опыт работы с реляционными базами данных (#postgresql);\n🔸Опыт работы с #docker, #graphql.\n\n🛠 Название компании: cтартап, у нас еще нет официального названия.\n\n📱 Контакты: Сергей tel:+79167248788, mailto:ser.alexeev@gmail.com, tg:@seralexeev","markup":[{"type":"hashtag","offset":0,"length":9,"data":"вакансия"},{"type":"hashtag","offset":10,"length":6,"data":"react"},{"type":"hashtag","offset":17,"length":11,"data":"typescript"},{"type":"hashtag","offset":29,"length":5,"data":"node"},{"type":"hashtag","offset":35,"length":11,"data":"postgresql"},{"type":"hashtag","offset":56,"length":5,"data":"офис"},{"type":"hashtag","offset":62,"length":9,"data":"удаленка"},{"type":"hashtag","offset":94,"length":7,"data":"полная"},{"type":"hashtag","offset":111,"length":7,"data":"Москва"},{"type":"hashtag","offset":119,"length":9,"data":"Киевская"},{"type":"hashtag","offset":129,"length":13,"data":"ПаркКультуры"},{"type":"hashtag","offset":980,"length":7,"data":"nodejs"},{"type":"hashtag","offset":989,"length":11,"data":"typescript"},{"type":"hashtag","offset":1002,"length":8,"data":"graphql"},{"type":"hashtag","offset":1012,"length":9,"data":"postgres"},{"type":"hashtag","offset":1093,"length":7,"data":"nodejs"},{"type":"hashtag","offset":1103,"length":11,"data":"javascript"},{"type":"hashtag","offset":1117,"length":11,"data":"typescript"},{"type":"hashtag","offset":1156,"length":8,"data":"express"},{"type":"hashtag","offset":1197,"length":6,"data":"react"},{"type":"hashtag","offset":1222,"length":4,"data":"git"},{"type":"hashtag","offset":1287,"length":11,"data":"postgresql"},{"type":"hashtag","offset":1317,"length":7,"data":"docker"},{"type":"hashtag","offset":1326,"length":8,"data":"graphql"},{"type":"link","offset":1430,"length":12,"data":"tel:+79167248788"},{"type":"link","offset":1451,"length":21,"data":"mailto:ser.alexeev@gmail.com"},{"type":"handle","offset":1477,"length":11,"data":"seralexeev"}],"date":"2020-04-06T07:40:09+00:00","link":"tg://resolve?domain=javascript_jobs_feed&post=15436","tags":[{"name":"javascript"},{"name":"reactjs"},{"name":"typescript"},{"name":"nodejs"},{"name":"postgresql"},{"name":"graphql"},{"name":"express"},{"name":"git"},{"name":"docker"}],"cities":[{"code":"moscow"},{"code":"kiev"}],"allowsRemote":true}},{"node":{"__typename":"Job","id":"16183721984-1001110946746","title":"Js разработчик","text":"Greenatom.ru\n#вакансия #Москва #javascript #React #Typescript #Node.js #Middle #Senior #удаленка\n\n👨🏼‍💻 Middle/Senior Frontend Developer, Middle/Senior Backend Developer\nГород и адрес офиса: #Москва, 1-й Нагатинский проезд, 10с1, метро Нагатинская\n\nФормат работы: офис или частичная удаленка на выбор\n\n💻Занятость: полная, гибкое начало трудового дня.\n\nЗарплатная вилка: от 170 000 до 230 000 руб. на руки.\n\n🏢Компания: АО Гринатом\n\nПривет! Мы растём и активно развиваем ряд внутренних проектов: например, корпоративный портал, горячая линия. Мы формируем несколько команд и ищем классных:\n\n✅фронтенд разработчиков;\n\n✅бэкенд разработчиков. \n\nПроекты в стадии разработки пилота и у тебя есть возможность повлиять на дальнейшее развитие продукта. Если у тебя есть крутые идеи - ты сможешь их здесь реализовать! Откликайся сам и зови друзей! Вирус пройдёт, работа останется!\n\n✅Требуемые знания и навыки:\n- Опыт разработки от двух лет\n- Хорошее знание чистого JS\n- Опыт работы с TypeScript\n- React, MobX, Less/Sass\n- Опыт написания юнит-тестов с помощью Jest, Enzymе очень приветствуется\n\n💡Наш стек:\n      React, TypeScript, Node.js, MobX, Docker\n\nМы работаем по Scrum.\n\n✅Условия:\n- Официальное оформление по ТК, белая зп;\n- Возможности профессионального и карьерного роста;\n- Дополнительные 3 дня к отпуску;\n- Плавающее начало дня;\n- Удаленка после прохождения испытательного срока (3 месяца)\n- ДМС со стоматологией\n\n☎️Контакты:\nЮлия - YAnZueva@Greenatom.ru","markup":[{"type":"link","offset":0,"length":12,"data":"http://Greenatom.ru"},{"type":"hashtag","offset":13,"length":9,"data":"вакансия"},{"type":"hashtag","offset":23,"length":7,"data":"Москва"},{"type":"hashtag","offset":31,"length":11,"data":"javascript"},{"type":"hashtag","offset":43,"length":6,"data":"React"},{"type":"hashtag","offset":50,"length":11,"data":"Typescript"},{"type":"hashtag","offset":62,"length":5,"data":"Node"},{"type":"hashtag","offset":71,"length":7,"data":"Middle"},{"type":"hashtag","offset":79,"length":7,"data":"Senior"},{"type":"hashtag","offset":87,"length":9,"data":"удаленка"},{"type":"hashtag","offset":193,"length":7,"data":"Москва"},{"type":"link","offset":1436,"length":21,"data":"mailto:YAnZueva@Greenatom.ru"}],"date":"2020-04-05T14:32:33+00:00","link":"tg://resolve?domain=javascript_jobs_feed&post=15434","tags":[{"name":"javascript"},{"name":"reactjs"},{"name":"typescript"},{"name":"nodejs"},{"name":"sass"},{"name":"docker"}],"cities":[{"code":"moscow"}],"allowsRemote":true}},{"node":{"__typename":"Job","id":"1963982848-1001134745498","title":"Devops инженер","text":"Сидим дома и держимся бодрячком!\nПятничная #вакансия для DevOps инженера в команду Cloud-based решений в компанию Аурига.\n#remote #fulltime\nЗарплатная вилка: 180 000 - 250 000\n\n😊 На проекте тебя ждут задачи:\nНаписание скриптов на bash/sh\nКонтейнеризация приложений\nРазвертывание и настройка ELK стека для анализа логов приложений\nCI/CD на базе Bamboo\nИнтеграция BlackDuck в Bamboo\nТакже предстоит заниматься автоматизированным анализом кода на Java и Node.JS, анализом и настройкой параметров безопасности при деплое. И все это в условиях глобального IT ландшафта, когда ты не можешь просто взять и остановить систему, в ней работают люди, всегда работают.\n\n👍 Можем работать удаленно, и после карантина тоже. Если удобнее из офиса, то у Ауриги центры разработки в 6 городах, велком.\n\n🤓 Заказчик – производитель профессионального промышленного оборудования для строительства с офисами во всех 24-х часовых поясах.\n\n💥 Одно из ключевых требований - английский, регулярно устно общаемся с заказчиком. Отличный шанс прокачать язык и начать говорить как на втором родном.\n\n⭐️ Аурига разрабатывает ПО на заказ уже почти 30 лет, у компании много проектов - у вас гарантия занятости и возможность выбора. Мы знаем и следуем ТК РФ, зарплата вовремя и радует, ДМС с прямым доступом и стоматологией компенсируем, чай-плюшки гарантируем.\n\nНам нужен инженер сейчас, оформляем по ТК РФ удаленно, обмениваемся документами с помощью курьера.\n\nС радостью поделюсь деталями и отвечу на вопросы.\n@Maria_Auriga\n\n—\n\n👉 Обсуждение вакансии в чате @devops_jobs","markup":[{"type":"hashtag","offset":43,"length":9,"data":"вакансия"},{"type":"hashtag","offset":122,"length":7,"data":"remote"},{"type":"hashtag","offset":130,"length":9,"data":"fulltime"},{"type":"handle","offset":1480,"length":13,"data":"Maria_Auriga"},{"type":"handle","offset":1528,"length":12,"data":"devops_jobs"}],"date":"2020-04-03T12:39:37+00:00","link":"tg://resolve?domain=devops_jobs_feed&post=1873","tags":[{"name":"cloud"},{"name":"bash"},{"name":"java"},{"name":"nodejs"}],"cities":[],"allowsRemote":true}},{"node":{"__typename":"Job","id":"1958739968-1001134745498","title":"Devops инженер","text":"#вакансия #DevOps #Москва #каршеринг #удалёнка\n\nПозиция: DevOps-инженер\nФормат: #удалёнка #Москва\nЗанятость: #fulltime \nЗарплатная вилка: от 120 000  до 150 000 руб. \"на руки\" \nКомпания: YouDrive https://youdrive.today/\n\n🔶 Чем придется заниматься в компании:\n\n• Разработка и поддержка технических систем на этапе от тестирования до выкладки в боевое окружение;\n• Автоматизация процесса развертывания информационных систем по принципу CI/CD и Zero Downtime;\n• Мониторинг логов ошибок и производительности информационных систем;\n• Оптимизация настроек, обновление ОС и системного ПО;\n• Контроль прав доступа и взаимодействие со специалистами кибербезопасности;\n• Контроль работоспособности систем резервирования и анализ уровня отказоустойчивости информационных систем.\n\n🔷 Требования:\n\n• Опыт администрирования Linux;\n• Опыт работы с GitLab CI/CD.\n\n🔷 Будет преимуществом:\n\n• Знание NodeJS.\n\n🔷 Условия:\n\n• официальное оформление и белая ЗП;\n• гибкий график.\n\nПишите в личку: \n☎️telegram: @EvgenyLightmans\n\n—\n\n👉 Обсуждение вакансии в чате @devops_jobs","markup":[{"type":"hashtag","offset":0,"length":9,"data":"вакансия"},{"type":"hashtag","offset":10,"length":7,"data":"DevOps"},{"type":"hashtag","offset":18,"length":7,"data":"Москва"},{"type":"hashtag","offset":26,"length":10,"data":"каршеринг"},{"type":"hashtag","offset":37,"length":9,"data":"удалёнка"},{"type":"hashtag","offset":80,"length":9,"data":"удалёнка"},{"type":"hashtag","offset":90,"length":7,"data":"Москва"},{"type":"hashtag","offset":109,"length":9,"data":"fulltime"},{"type":"link","offset":196,"length":23,"data":"https://youdrive.today/"},{"type":"handle","offset":989,"length":16,"data":"EvgenyLightmans"},{"type":"handle","offset":1040,"length":12,"data":"devops_jobs"}],"date":"2020-04-02T07:54:09+00:00","link":"tg://resolve?domain=devops_jobs_feed&post=1868","tags":[{"name":"linux"},{"name":"gitlab"},{"name":"nodejs"}],"cities":[{"code":"moscow"}],"allowsRemote":true}},{"node":{"__typename":"Job","id":"1946157056-1001134745498","title":"Devops engineer","text":"#вакансия #USA #Australia #senior #remote #DevOps #AWS \n\nЛокация: Атланта\nФормат работы: удаленка \nЗанятость: полная, гибкое начало дня\nЗП:  250 000 до 450 000 рублей на руки (заработная плата начисляется в долларах, вилка указана примерно, компания готова отталкиваться от пожеланий кандидатов)\n\n🔹 Открыта вакансия SR. Cloud Service Engineer в небольшой Американский стартап в области healthcare Lifetime Fluency.\nРебята существуют один год и разрабатывают инновационное VR решение для лечения пациентов, страдающих заиканием. Сейчас закончен прототип продукта и начинается этап активной разработки. Разработка идет с нуля, используются максимально современные технологии.\nПланируемвй стек проекта: Java,\nSpring Boot, AWS, Micro-services, RESTful API,\nKafka, Spring Data, Angular 2+, Node.js, JavaScript, HTML5, CSS3, Docker\n\nМы ищем первого SR. Cloud Service Engineer, который выстроит всю необходимую архитектуру, СI/СD процесс с нуля, выстроит работу в AWS. \nОчень желателен опыт в healthcare и знание HIPAA.\n\n🔹 Требования:\n- Свободный английский язык (разговорный и письменный)\n- Опыт работы с AWS в продакшн от 3-ех лет;\n- Опыт выстраивания CI/CD процесса с нуля;\n\n🔹 Контакты:\nКА: Lucky hunter\ne-mail: daria@luckyhunter.io\ntelegram: @prudentdaria\nПишите, буду рада ответить на все возможные вопросы в телеграм или по почте\n\n—\n\n👉 Обсуждение вакансии в чате @devops_jobs","markup":[{"type":"hashtag","offset":0,"length":9,"data":"вакансия"},{"type":"hashtag","offset":10,"length":4,"data":"USA"},{"type":"hashtag","offset":15,"length":10,"data":"Australia"},{"type":"hashtag","offset":26,"length":7,"data":"senior"},{"type":"hashtag","offset":34,"length":7,"data":"remote"},{"type":"hashtag","offset":42,"length":7,"data":"DevOps"},{"type":"hashtag","offset":50,"length":4,"data":"AWS"},{"type":"link","offset":1211,"length":20,"data":"mailto:daria@luckyhunter.io"},{"type":"handle","offset":1242,"length":13,"data":"prudentdaria"},{"type":"handle","offset":1366,"length":12,"data":"devops_jobs"}],"date":"2020-03-30T15:48:22+00:00","link":"tg://resolve?domain=devops_jobs_feed&post=1856","tags":[{"name":"amazon-web-services"},{"name":"cloud"},{"name":"java"},{"name":"spring"},{"name":"kafka"},{"name":"angularjs"},{"name":"nodejs"},{"name":"javascript"},{"name":"html"},{"name":"css"},{"name":"docker"},{"name":"spring-boot"},{"name":"spring-data"}],"cities":[{"code":"atlanta"}],"allowsRemote":true}},{"node":{"__typename":"Job","id":"24152899584-1001075660570","title":"Php developer","text":"#вакансия #php #lead #fulltime #удалёнка \nГород и адрес офиса: Москва (м.Курская)\nНазвание компании: КА\nФормат работы: удаленно/офис \nЗанятость: полная\nЗарплатная вилка: от 150к до 220к net\n\nПривет я ищу Tech lead/Senior php developer. Проект -- платформа для чатботов и воронок продаж. Сейчас у платформы более 1000 пользователей, растет на 20% ежемесячно, в следующем году планируется запуск на глобальном рынке, срочно нужно усиление 🙂 \n\nЗадачи:\n- разработка архитектуры новой части проекта;\n- разработка backend на php;\n- code review, тесты.\n\nТребования:\n- опыт разработки на php от 3х лет;\n- опыт работы с SQL;\n- опыт с брокерами очередей, например RabbitMQ.\n\nБудет плюсом:\n- знание node.js и других языков программирования;\n- noSQL (у нас Cassandra).\n\nУсловия:\n- Белая з/п;\n- Офис в Москве (м.Курская), есть возможность работать удаленно;\n- Крутой продукт, которым ежедневно пользуются тысячи людей;\n- Классная команда;\n- Возможность быстрого карьерного роста и профессионального развития.\n\nКонтакты: @nat_kirisova","markup":[{"type":"hashtag","offset":0,"length":9,"data":"вакансия"},{"type":"hashtag","offset":10,"length":4,"data":"php"},{"type":"hashtag","offset":15,"length":5,"data":"lead"},{"type":"hashtag","offset":21,"length":9,"data":"fulltime"},{"type":"hashtag","offset":31,"length":9,"data":"удалёнка"},{"type":"handle","offset":1008,"length":13,"data":"nat_kirisova"}],"date":"2020-03-30T10:00:00+00:00","link":"tg://resolve?domain=php_jobs&post=23034","tags":[{"name":"php"},{"name":"dotnet"},{"name":"sql"},{"name":"rabbitmq"},{"name":"nodejs"},{"name":"nosql"},{"name":"cassandra"}],"cities":[{"code":"moscow"}],"allowsRemote":true}}]}}},"context":{}}