{"hash":"f34fd2c444a074f4e0e67d525015a008ef8e766f","data":{"records":{"totalCount":178,"pageInfo":{"totalPages":18,"currentPage":11},"edges":[{"node":{"id":"1965031424-1001134745498","title":"Devops инженер","text":"#вакансия \nГород: Amsterdam\nФормат работы: удаленка / remote\nЗанятость: проектная\nЗарплатная вилка: от 15 до 25 USD в час\n\nОписание вакансии: \nПредоставить инструкцию и/или скрипты по разворачиванию Kubernetes с Istio поверх, на котором необходимо :\n- задеплоить docker с Spring Java REST приложением (имеющим доступ извне кластера, для того чтобы внешнии клиенты могли к нему подключаться)\n- задеплоить docker с MongoDB (не имеющим доступ извне  кластера, но иметь доступ с других инстанций кластера, в частности с Spring Java REST приложения\n- подключить Keycloak к Istio для авторизации через JWT token в Spring Java REST приложении\n- подключить TLS в Istio и допускать только SSL трафик в кластер\nУсловия:\n* уже имеется конфигурация Keycloak с помощью которой есть Spring Java REST приложение осуществляет регистрацию  пользователей и получение JWT token, необходимо использовать эту конфигурацию для доступа к Spring Java REST приложению\n* не все методы в Spring Java REST приложении необходимо обезопасить JWT токеном\n\nНазвание компании: Take it Personally BV\nКонтакт: @takeitpersonally\nEmail: konstantin@mytip.app\n\n—\n\n👉 Обсуждение вакансии в чате @devops_jobs","markup":[{"type":"hashtag","offset":0,"length":9,"data":"вакансия"},{"type":"handle","offset":1075,"length":17,"data":"takeitpersonally"},{"type":"link","offset":1100,"length":20,"data":"mailto:konstantin@mytip.app"},{"type":"handle","offset":1155,"length":12,"data":"devops_jobs"}],"date":"2020-04-03T15:05:06+00:00","link":"tg://resolve?domain=devops_jobs_feed&post=1874","tags":[{"name":"kubernetes"},{"name":"docker"},{"name":"spring"},{"name":"java"},{"name":"rest"},{"name":"mongodb"},{"name":"jwt"},{"name":"ssl"}],"cities":[{"code":"amsterdam"}],"allowsRemote":true}},{"node":{"id":"1963982848-1001134745498","title":"Devops инженер","text":"Сидим дома и держимся бодрячком!\nПятничная #вакансия для DevOps инженера в команду Cloud-based решений в компанию Аурига.\n#remote #fulltime\nЗарплатная вилка: 180 000 - 250 000\n\n😊 На проекте тебя ждут задачи:\nНаписание скриптов на bash/sh\nКонтейнеризация приложений\nРазвертывание и настройка ELK стека для анализа логов приложений\nCI/CD на базе Bamboo\nИнтеграция BlackDuck в Bamboo\nТакже предстоит заниматься автоматизированным анализом кода на Java и Node.JS, анализом и настройкой параметров безопасности при деплое. И все это в условиях глобального IT ландшафта, когда ты не можешь просто взять и остановить систему, в ней работают люди, всегда работают.\n\n👍 Можем работать удаленно, и после карантина тоже. Если удобнее из офиса, то у Ауриги центры разработки в 6 городах, велком.\n\n🤓 Заказчик – производитель профессионального промышленного оборудования для строительства с офисами во всех 24-х часовых поясах.\n\n💥 Одно из ключевых требований - английский, регулярно устно общаемся с заказчиком. Отличный шанс прокачать язык и начать говорить как на втором родном.\n\n⭐️ Аурига разрабатывает ПО на заказ уже почти 30 лет, у компании много проектов - у вас гарантия занятости и возможность выбора. Мы знаем и следуем ТК РФ, зарплата вовремя и радует, ДМС с прямым доступом и стоматологией компенсируем, чай-плюшки гарантируем.\n\nНам нужен инженер сейчас, оформляем по ТК РФ удаленно, обмениваемся документами с помощью курьера.\n\nС радостью поделюсь деталями и отвечу на вопросы.\n@Maria_Auriga\n\n—\n\n👉 Обсуждение вакансии в чате @devops_jobs","markup":[{"type":"hashtag","offset":43,"length":9,"data":"вакансия"},{"type":"hashtag","offset":122,"length":7,"data":"remote"},{"type":"hashtag","offset":130,"length":9,"data":"fulltime"},{"type":"handle","offset":1480,"length":13,"data":"Maria_Auriga"},{"type":"handle","offset":1528,"length":12,"data":"devops_jobs"}],"date":"2020-04-03T12:39:37+00:00","link":"tg://resolve?domain=devops_jobs_feed&post=1873","tags":[{"name":"cloud"},{"name":"bash"},{"name":"java"},{"name":"nodejs"}],"cities":[],"allowsRemote":true}},{"node":{"id":"1962934272-1001134745498","title":"Devops инженер","text":"#вакансия #DevOps #Москва #ivi\n\nЛокация: Москва, ст. м. Дмитровская\nФормат работы: офис (на время карантина - удаленка) \nЗанятость: полная\nЗарплатная вилка: от 180 000 до 250 000 руб. на руки.\n\nМы — команда эксплуатации сервиса ivi .\n\nРазыскиваем коллегу в команду для участия в настойке процессов, технических (CI/CD) и в части взаимодействия с коллегами. Активное участие в разворачивании и эксплуатации k8s .Помогаем командам разработки строить CI/CD-пайплайны . Некоторые из нас это делают в составе кросс-команд, другие помогают многим командам, оставшиеся обеспечивают всех нас необходимыми приложениями и инфраструктурой.\n\nУчим команды использовать контейнеры (docker) для подготовки разрабатываемых приложений, осваиваем использование k8s для оркестрации. Используем Ubuntu, Linux.\n\nХраним код и разрабатываем pipeline-ы с помощью gitlab+artifactory .\nДля мониторинга серверов и сервисов используем zabbix и statsd , заправляем grafana.\nНаши сервисы написаны на python, golang и немного php и java.\nЛюбим и активно используем jenkins для решения самых разнообразных задач.\nИспользуем много open source (и не только) приложений: nginx, redis, postgresql, mongodb, rabbitmq, clickhouse, openstack, gitlab, kafka, hdfs, jira , opennebula.\n\nЧто предстоит делать: \n- развитие и настройки процессов ci/cd;\n- планирование и участие в рефакторинге процессов, инфраструктуры, приложений;\n- сопровождение сервисов от разработки до эксплуатации, участие в эксплуатации;\n- доработка текущих и разработка новых сценариев конфигурирования серверов и приложений; \n- администрирование приложений по результатам выполненной работы подготовка документации, если необходимо. \n\nКак узнать что ты нам подходишь? \n- положительный и продолжительный опыт работы с CI/CD-системами (у нас gitlab и jenkins);\n- умение хорошо готовить docker; \n- опыт программирования на скриптовых языках (shell, python);\nопыт администрирования linux и приложение 5+;\n- понимание сетевых технологий TCP/IP; \n- опыт работы с системами управления версиями (git) и конфигурациями. \n\nСо своей стороны мы обещаем: \n- Офис в 5 минутах ходьбы от м. \"Дмитровская\";\n- У нас гибкий график, мы начинаем до 11 часов дня;\n- Трудоустройство по ТК РФ;\n- ДМС + стоматология после прохождения испытательного срока;\n- Подписка на ivi;\n- Пакет релокации для соискателей со всей России.\n\nОнлайн-кинотеатр ivi \nhttps://www.ivi.tv/\n\nБуду рада рассказать подробности, пишите в личку @daria144 или на почту dsereda@ivi.ru\n\n—\n\n👉 Обсуждение вакансии в чате @devops_jobs","markup":[{"type":"hashtag","offset":0,"length":9,"data":"вакансия"},{"type":"hashtag","offset":10,"length":7,"data":"DevOps"},{"type":"hashtag","offset":18,"length":7,"data":"Москва"},{"type":"hashtag","offset":26,"length":4,"data":"ivi"},{"type":"link","offset":2354,"length":19,"data":"https://www.ivi.tv/"},{"type":"handle","offset":2424,"length":9,"data":"daria144"},{"type":"link","offset":2447,"length":14,"data":"mailto:dsereda@ivi.ru"},{"type":"handle","offset":2496,"length":12,"data":"devops_jobs"}],"date":"2020-04-03T12:38:12+00:00","link":"tg://resolve?domain=devops_jobs_feed&post=1872","tags":[{"name":"docker"},{"name":"ubuntu"},{"name":"linux"},{"name":"gitlab"},{"name":"python"},{"name":"go"},{"name":"php"},{"name":"java"},{"name":"jenkins"},{"name":"nginx"},{"name":"redis"},{"name":"postgresql"},{"name":"mongodb"},{"name":"rabbitmq"},{"name":"kafka"},{"name":"hdfs"},{"name":"shell"},{"name":"git"}],"cities":[{"code":"moscow"}],"allowsRemote":true}},{"node":{"id":"1961885696-1001134745498","title":"Devops инженер","text":"#вакансия #remote #удаленка #kubernetes #kuber #k8s #puppet\n\nИ еще в другой команде в PulsePoint вакансия SRE (Site Reliability Engineer / можно DevOps, как угодно).\n\nРабота удаленная, фуллтайм, ЗП 5-8k USD/месяц.\n\nОбычно оплата на ИП, если есть какие-то альтернативы - они готовы обсудить, но юрлица в РФ у них нет.\nРазрабатывают различные продукты в области интернет рекламы, keywords: programmatic, SSP, RTB.\n\nГрафик работы: график с 17 до 02:00 по Мск (с 9 до 18 по NY). Час на обед.\n\nВыходные и отпуски: 21 день оплачиваемого отпуска. Не работают на американских выходных.\n\nДежурств нет. Все инциденты в нерабочее время на себя берет менеджер команды.\n\nКлючевое: Kubernetes (работает на bare metal, у них свои датацентры), Puppet (версия 4+. Чем сложнее и больше опыта, тем лучше), Linux (у них CentOS).\nОстальное: Postgres/MySQL/аналогичное, какой-нть NoSQL. Супер, если был опыт с Cassandra. Мониторинг,  ELK.\n\nВ команде много инженеров из РФ, но язык общения английский, нужно бегло говорить без проблем. Все-таки основной костяк в NY и там русскоязычные далеко не все. \n\nЕсли заинтересует или какие вопросы - @pskuzin / pk@4cv.io\n\n—\n\n👉 Обсуждение вакансии в чате @devops_jobs","markup":[{"type":"hashtag","offset":0,"length":9,"data":"вакансия"},{"type":"hashtag","offset":10,"length":7,"data":"remote"},{"type":"hashtag","offset":18,"length":9,"data":"удаленка"},{"type":"hashtag","offset":28,"length":11,"data":"kubernetes"},{"type":"hashtag","offset":40,"length":6,"data":"kuber"},{"type":"hashtag","offset":47,"length":4,"data":"k8s"},{"type":"hashtag","offset":52,"length":7,"data":"puppet"},{"type":"handle","offset":1118,"length":8,"data":"pskuzin"},{"type":"link","offset":1129,"length":9,"data":"mailto:pk@4cv.io"},{"type":"handle","offset":1173,"length":12,"data":"devops_jobs"}],"date":"2020-04-02T14:05:36+00:00","link":"tg://resolve?domain=devops_jobs_feed&post=1871","tags":[{"name":"kubernetes"},{"name":"linux"},{"name":"centos"},{"name":"postgresql"},{"name":"mysql"},{"name":"nosql"},{"name":"cassandra"}],"cities":[],"allowsRemote":true}},{"node":{"id":"1960837120-1001134745498","title":"Devops инженер","text":"#вакансия #sre #hadoop #kafka #devops #remote\n\nА я все еще ищу SRE (Site Reliability Engineer, ну или DevOps, как угодно, только без холиваров) в BigData команду для американской компании PulsePoint. \n\nРабота удаленная, фуллтайм, ЗП 6-8k USD/месяц.\n\nОбычно оплата на ИП, если есть какие-то альтернативы - они готовы обсудить, но юрлица в РФ у них нет.\nРазрабатывают различные продукты в области интернет рекламы, keywords: programmatic, SSP, RTB.\n\nГрафик работы: график с 16 до 01:00 по Мск (с 9 до 18 по NY). Час на обед. Рабочая неделя 5/2.\n\nВыходные и отпуски: 21 день оплачиваемого отпуска. Не работают по американским выходным.\n\nДежурств нет. Все инциденты в нерабочее время на себя берет менеджер команды.\n\nКлючевое: администрирование Hadoop (HDFS, Hive, Impala), Kafka.\nБудет плюсом: Kubernetes, Postgres/MySQL/аналогичное, какой-нть NoSQL. Супер, если был опыт с Cassandra. А еще с Presto + Alluxio.\n\nВ команде много инженеров из РФ, но язык общения английский, нужно бегло говорить без проблем. Все-таки основной костяк в NY и там русскоязычные далеко не все. \n\nЕсли заинтересует или какие вопросы - @pskuzin / pk@4cv.io\n\n—\n\n👉 Обсуждение вакансии в чате @devops_jobs","markup":[{"type":"hashtag","offset":0,"length":9,"data":"вакансия"},{"type":"hashtag","offset":10,"length":4,"data":"sre"},{"type":"hashtag","offset":15,"length":7,"data":"hadoop"},{"type":"hashtag","offset":23,"length":6,"data":"kafka"},{"type":"hashtag","offset":30,"length":7,"data":"devops"},{"type":"hashtag","offset":38,"length":7,"data":"remote"},{"type":"handle","offset":1109,"length":8,"data":"pskuzin"},{"type":"link","offset":1120,"length":9,"data":"mailto:pk@4cv.io"},{"type":"handle","offset":1164,"length":12,"data":"devops_jobs"}],"date":"2020-04-02T14:04:21+00:00","link":"tg://resolve?domain=devops_jobs_feed&post=1870","tags":[{"name":"hadoop"},{"name":"kafka"},{"name":"hdfs"},{"name":"hive"},{"name":"kubernetes"},{"name":"postgresql"},{"name":"mysql"},{"name":"nosql"},{"name":"cassandra"}],"cities":[],"allowsRemote":true}},{"node":{"id":"1413480448-1001091028994","title":"Java разработчик","text":"#java #backend #middle #senior #питер #удаленка\nВакансия: Java-разработчик (middle/senior)\nКомпания: https://loyaltyplant.com\nг. Санкт-Петербург\nЗ/П: Middle 130-160k, Senior 180-240k\nФормат работы: офис/удаленка\nЗанятость: полная \nСпециализация компании: мобильное маркетинговое решение с программой лояльности и доставкой для ресторанов, чтобы гости получали лучший сервис, а бизнес – большие выручки и возможность выжить в каратнин. Работаем не только в России, но и в США, Европе и Азии. Нашими решениями пользуются Subway Russia, Black Star Burgers, Greenbox, Papa Johns UAE, и еще 500 брендов в 20 странах, и более 10 миллионов конечных пользователей. Мы ищем не просто сотрудников, но настоящих партнеров, которые готовы предлагать прорывные решения и разделять с нами ценности открытости, честности и личной инициативы.\n\nТебе предстоит:\n • Заниматься рефакторингом legacy-блоков, распиливанием монолита на микросервисы;\n • Развивать функционал системы;\n • Готовить систему к повышению нагрузки;\n • Осуществлять техподдержку третьего уровня;\n • Проводить code review;\n • Делиться опытом с другими разработчиками.\n • Для Senior также – определять и воплощать архитектурные и технические решения.\n\nЧто нам важно?\n • Опыт backend-разработки на Java от 3 лет (Senior – от 5);\n • Хорошее знание Java Core;\n • Опыт работы с микросервисами;\n • Знания и опыт: Spring, БД (MySQL, PostgreSQL, Redis), Kafka, ELK;\n • Как +: Linux, Docker, Cassandra;\n • Самостоятельность;\n • Умение видеть и исправлять плохой код.\n\nМы предлагаем:\n • Интересные задачи и возможности для развития;\n • Возможность реально влиять на решения;\n • Гибкий график;\n • Дружественную атмосферу стартапа, офис-не-open-space, заказ еды, массаж, кикер, английский и тд.\n\nКонтакты: @orehmthfcka","markup":[{"type":"hashtag","offset":0,"length":5,"data":"java"},{"type":"hashtag","offset":6,"length":8,"data":"backend"},{"type":"hashtag","offset":15,"length":7,"data":"middle"},{"type":"hashtag","offset":23,"length":7,"data":"senior"},{"type":"hashtag","offset":31,"length":6,"data":"питер"},{"type":"hashtag","offset":38,"length":9,"data":"удаленка"},{"type":"link","offset":101,"length":24,"data":"https://loyaltyplant.com"},{"type":"handle","offset":1745,"length":12,"data":"orehmthfcka"}],"date":"2020-04-02T13:36:43+00:00","link":"tg://resolve?domain=jvmjobs&post=1348","tags":[{"name":"java"},{"name":"jvm"},{"name":"spring"},{"name":"mysql"},{"name":"postgresql"},{"name":"redis"},{"name":"kafka"},{"name":"linux"},{"name":"docker"},{"name":"cassandra"}],"cities":[],"allowsRemote":true}},{"node":{"id":"1412431872-1001091028994","title":"Java разработчик","text":"#java #middle #fulltime #удалённо #job #вакансия #remote #фуллтайм #fulltime #удаленно #удаленка #удаленно #spring\n #москва \n✔️ Вакансия: Java developer\nЗП: до 190k net\nФормат работы: полная/удаленно\nКомпания: МТС\n\nКрупная российская телекоммуникационная компания приглашает присоединиться Middle Java разработчика к проекту разработки IoT решений.\n\n ✔️ Задачи:\n• Разработка бэкенда проекта;\n• Code-review;\n• Участие в принятии архитектурных и технических решений;\n• Интеграция решений с мобильными приложениями.\n\n✔️ Предлагаем: \n• Официальное трудоустройство;\n• Повышение квалификации;\n•  Удаленная работа из дома.\n\n✔️ Пожелания к Вашему опыту:\n• Опыт работы от 3-х лет;\n• Высшее образование;\n• Работа с БД: PostgreSQL и NoSQL;\n• Опыт работы с Spring, Kafka.\nКонтактное лицо: @OlgaVzh","markup":[{"type":"hashtag","offset":0,"length":5,"data":"java"},{"type":"hashtag","offset":6,"length":7,"data":"middle"},{"type":"hashtag","offset":14,"length":9,"data":"fulltime"},{"type":"hashtag","offset":24,"length":9,"data":"удалённо"},{"type":"hashtag","offset":34,"length":4,"data":"job"},{"type":"hashtag","offset":39,"length":9,"data":"вакансия"},{"type":"hashtag","offset":49,"length":7,"data":"remote"},{"type":"hashtag","offset":57,"length":9,"data":"фуллтайм"},{"type":"hashtag","offset":67,"length":9,"data":"fulltime"},{"type":"hashtag","offset":77,"length":9,"data":"удаленно"},{"type":"hashtag","offset":87,"length":9,"data":"удаленка"},{"type":"hashtag","offset":97,"length":9,"data":"удаленно"},{"type":"hashtag","offset":107,"length":7,"data":"spring"},{"type":"hashtag","offset":116,"length":7,"data":"москва"},{"type":"bold","offset":169,"length":31,"data":""},{"type":"bold","offset":290,"length":24,"data":""},{"type":"bold","offset":354,"length":8,"data":""},{"type":"bold","offset":517,"length":13,"data":""},{"type":"bold","offset":620,"length":26,"data":""},{"type":"handle","offset":777,"length":8,"data":"OlgaVzh"}],"date":"2020-04-02T13:19:28+00:00","link":"tg://resolve?domain=jvmjobs&post=1347","tags":[{"name":"java"},{"name":"jvm"},{"name":"spring"},{"name":"dotnet"},{"name":"postgresql"},{"name":"nosql"},{"name":"kafka"}],"cities":[{"code":"moscow"}],"allowsRemote":true}},{"node":{"id":"1959788544-1001134745498","title":"Devops инженер","text":"#вакансия#Москва#AWS\n\nDataArt (https://www.dataart.ru/) ищет DevOps с опытом AWS в один из наших IoT-проектов.\n\nГород: Москва (м. Белорусская).\nФормат работы: в офисе, но сейчас, по понятным причинам, удалённый.\nЗанятость: Full-time.\n\nЗарплатная вилка: \nот 2200$ до $5000 net. \nСтартовый бонус – $1000\n\nТребуемый опыт:\n• развертывание, управление и использование масштабируемой и отказоустойчивой инфраструктуры Linux/JVM в AWS (или других общедоступных облаках).\n• Разговорный английский.\n• Linux, сетевые технологии и концепции баз данных.\n• Cassandra (или другой NoSQL).\n• Amazon Web Services.\n• Chef или Puppet.\n• Ruby или Python.\n\nБольше подробностей о позиции у нас на сайте: \nhttps://www.dataart.ru/vacancy/cfm337\n\nЕсли у вас появятся вопросы - буду рада на них ответить!\n\nTelegram: @kluhpluh\nПочта: darya.matskevich@dataart.com\n\n—\n\n👉 Обсуждение вакансии в чате @devops_jobs","markup":[{"type":"link","offset":31,"length":23,"data":"https://www.dataart.ru/"},{"type":"link","offset":683,"length":37,"data":"https://www.dataart.ru/vacancy/cfm337"},{"type":"handle","offset":790,"length":9,"data":"kluhpluh"},{"type":"link","offset":807,"length":28,"data":"mailto:darya.matskevich@dataart.com"},{"type":"handle","offset":870,"length":12,"data":"devops_jobs"}],"date":"2020-04-02T09:23:39+00:00","link":"tg://resolve?domain=devops_jobs_feed&post=1869","tags":[{"name":"amazon-web-services"},{"name":"dotnet"},{"name":"linux"},{"name":"jvm"},{"name":"cassandra"},{"name":"nosql"},{"name":"web"},{"name":"ruby"},{"name":"python"}],"cities":[{"code":"moscow"}],"allowsRemote":true}},{"node":{"id":"24242028544-1001075660570","title":"Php разработчик","text":"#php #developer #middle #senior #fulltime #удалённо #job #вакансия #remote #фуллтайм #fulltime #удаленно #удаленка #удалёнка #удаленно \n #москва \n✔️ Вакансия: PHP developer\nЗП: до 160k net\nФормат работы: полная/удаленно\nКомпания: МТС \n\nКрупная российская телекоммуникационная компания приглашает присоединиться PHP разработчика к проекту доработки приложения, позволяющее абонентам эффективно и комфортно управлять финансами абонентского счета.\n\n ✔️ Задачи:\n• Доработка CMS бэкенда проекта;\n• Доработка бэкенда проекта;\n• Интеграции решений с внешними системами;\n• Интеграция решения с мобильными приложениями;\n• Разработка веб-приложений с использованием PHP 5.3, 5.6, 7.3.\n\n✔️ Предлагаем: \n• Официальное трудоустройство;\n• Повышение квалификации;\n•  Удаленная работа из дома.\n\n✔️ Пожелания к Вашему опыту:\n• Знание отличий версий PHP 5.3, 5.6, 7.3;\n• Понимание принципов ООП, MVP;\n• Опыт работы с #Yii2, #Laravel;\n• Работа с БД: PL/SQL, MySQL, MS SQL;\n• Опыт работы с JavaScript, jQuery, Bootstrap, CSS, HTML;\n• Опыт работы с Yii2, Laravel;\n• Работа с БД: PL/SQL, MySQL, MS SQL;\n• Знание команд Unix/Windows;\n• Опыт разработки пользовательских интерфейсов;\n• Опыт работы с системами контроля версий: TFS/SVN/GIT.\n\nКонтактное лицо: @OlgaVzh","markup":[{"type":"hashtag","offset":0,"length":4,"data":"php"},{"type":"hashtag","offset":5,"length":10,"data":"developer"},{"type":"hashtag","offset":16,"length":7,"data":"middle"},{"type":"hashtag","offset":24,"length":7,"data":"senior"},{"type":"hashtag","offset":32,"length":9,"data":"fulltime"},{"type":"hashtag","offset":42,"length":9,"data":"удалённо"},{"type":"hashtag","offset":52,"length":4,"data":"job"},{"type":"hashtag","offset":57,"length":9,"data":"вакансия"},{"type":"hashtag","offset":67,"length":7,"data":"remote"},{"type":"hashtag","offset":75,"length":9,"data":"фуллтайм"},{"type":"hashtag","offset":85,"length":9,"data":"fulltime"},{"type":"hashtag","offset":95,"length":9,"data":"удаленно"},{"type":"hashtag","offset":105,"length":9,"data":"удаленка"},{"type":"hashtag","offset":115,"length":9,"data":"удалёнка"},{"type":"hashtag","offset":125,"length":9,"data":"удаленно"},{"type":"hashtag","offset":137,"length":7,"data":"москва"},{"type":"bold","offset":158,"length":15,"data":""},{"type":"bold","offset":204,"length":16,"data":""},{"type":"bold","offset":447,"length":11,"data":""},{"type":"bold","offset":676,"length":16,"data":""},{"type":"bold","offset":779,"length":29,"data":""},{"type":"hashtag","offset":899,"length":5,"data":"Yii2"},{"type":"hashtag","offset":906,"length":8,"data":"Laravel"},{"type":"handle","offset":1233,"length":8,"data":"OlgaVzh"}],"date":"2020-04-02T08:52:06+00:00","link":"tg://resolve?domain=php_jobs&post=23119","tags":[{"name":"php"},{"name":"dotnet"},{"name":"yii"},{"name":"laravel"},{"name":"sql"},{"name":"mysql"},{"name":"javascript"},{"name":"jquery"},{"name":"bootstrap"},{"name":"css"},{"name":"html"},{"name":"unix"},{"name":"windows"},{"name":"tfs"},{"name":"svn"},{"name":"git"}],"cities":[{"code":"moscow"}],"allowsRemote":true}},{"node":{"id":"1958739968-1001134745498","title":"Devops инженер","text":"#вакансия #DevOps #Москва #каршеринг #удалёнка\n\nПозиция: DevOps-инженер\nФормат: #удалёнка #Москва\nЗанятость: #fulltime \nЗарплатная вилка: от 120 000  до 150 000 руб. \"на руки\" \nКомпания: YouDrive https://youdrive.today/\n\n🔶 Чем придется заниматься в компании:\n\n• Разработка и поддержка технических систем на этапе от тестирования до выкладки в боевое окружение;\n• Автоматизация процесса развертывания информационных систем по принципу CI/CD и Zero Downtime;\n• Мониторинг логов ошибок и производительности информационных систем;\n• Оптимизация настроек, обновление ОС и системного ПО;\n• Контроль прав доступа и взаимодействие со специалистами кибербезопасности;\n• Контроль работоспособности систем резервирования и анализ уровня отказоустойчивости информационных систем.\n\n🔷 Требования:\n\n• Опыт администрирования Linux;\n• Опыт работы с GitLab CI/CD.\n\n🔷 Будет преимуществом:\n\n• Знание NodeJS.\n\n🔷 Условия:\n\n• официальное оформление и белая ЗП;\n• гибкий график.\n\nПишите в личку: \n☎️telegram: @EvgenyLightmans\n\n—\n\n👉 Обсуждение вакансии в чате @devops_jobs","markup":[{"type":"hashtag","offset":0,"length":9,"data":"вакансия"},{"type":"hashtag","offset":10,"length":7,"data":"DevOps"},{"type":"hashtag","offset":18,"length":7,"data":"Москва"},{"type":"hashtag","offset":26,"length":10,"data":"каршеринг"},{"type":"hashtag","offset":37,"length":9,"data":"удалёнка"},{"type":"hashtag","offset":80,"length":9,"data":"удалёнка"},{"type":"hashtag","offset":90,"length":7,"data":"Москва"},{"type":"hashtag","offset":109,"length":9,"data":"fulltime"},{"type":"link","offset":196,"length":23,"data":"https://youdrive.today/"},{"type":"handle","offset":989,"length":16,"data":"EvgenyLightmans"},{"type":"handle","offset":1040,"length":12,"data":"devops_jobs"}],"date":"2020-04-02T07:54:09+00:00","link":"tg://resolve?domain=devops_jobs_feed&post=1868","tags":[{"name":"linux"},{"name":"gitlab"},{"name":"nodejs"}],"cities":[{"code":"moscow"}],"allowsRemote":true}}]}},"context":{}}