{"hash":"f5f6bf98bd95e769321482904cbbd488f77922fd","data":{"records":{"id":"linux","name":"linux","belongsTo":{"totalCount":109,"pageInfo":{"totalPages":11,"currentPage":6},"edges":[{"node":{"__typename":"Job","id":"351272960-1001352129329","title":"Golang разработчик","text":"#вакансия #golang #go\n\nВакансия: Golang разработчик\nФормат работы: удаленная работа\nКомпания: Спутник\nВилка заработной платы: 100 000 - 170 000\n\nНемного о нас\nСпутник – это IT компания, прочно занявшая лидирующие позиции в своей отрасли. Мы являемся одним из самых титулованных проектов и работаем на рынках России, Европы и СНГ. Компания является резидентом Сколково и резидентом особой экономической зоны Иннополис.\n\nЧем мы отличаемся?\nМы проходим все этапы с нашим продуктом совместно - начиная от проектирования железа, заканчивая технической поддержкой непосредственно пользователей.\n\nТакже мы избавились от иерархии, строгих рабочих обязанностей и централизации власти, отдавая предпочтение свободному принятию решений командой.\n\nКого мы ждем?\nМы находимся в поисках двух разработчиков, которые:\n• имеют коммерческий опыт работы с GoLang (от 1 года);\n• владеют знанием любого другого языка программирования;\n• имеют опыт работы с Linux, терминалом;\n• как преимущество - имеют опыт серверного программирования (Web, облака);\n• будет плюсом, если ты знаешь С - в одном из проектов мы активно используем CGO.\n\nС каких задач начнём?\n\n❗Мы переписываем наше REST API платформы по управлению домофонами на GraphQL API. По данному проекту на практике можно будет поработать с GraphQL, изучить концепцию цифровых двойников, обработать большое количество запросов с API, работа с контейнерами, микросервисным взаимодействием.\n\nЕсли этот проект тебе не интересен, возможно, тебя заинтересует следующий проект:\n\n❗Мы хотим усилить команду по проекту real-time взаимодействия домофонов с платформой. Будут задачи по VoIP, обработке звука(в том числе при помощи методов машинного обучения), обработке огромного количества данных, микросервисного взаимодействия, работы в k8s.\n\nКонтактное лицо\nЛиля Афанасьева\ne-mail: lily@sputnik.direct\ntelegram: lilia_afanaseva","markup":[{"type":"hashtag","offset":0,"length":9,"data":"вакансия"},{"type":"hashtag","offset":10,"length":7,"data":"golang"},{"type":"hashtag","offset":18,"length":3,"data":"go"},{"type":"link","offset":1808,"length":19,"data":"mailto:lily@sputnik.direct"}],"date":"2020-06-23T10:36:25+00:00","link":"tg://resolve?domain=gogetajobfeed&post=335","tags":[{"name":"go"},{"name":"linux"},{"name":"web"},{"name":"rest"},{"name":"graphql"}],"cities":[],"allowsRemote":true}},{"node":{"__typename":"Job","id":"91801780224-1001067529236","title":"Python developer","text":"#вакансия #remote #fulltime #python\n\nBack-end Python Developer\n\nФормат работы: #fulltime #remote\nЗарплата: от  $ 50 000 до $ 70 000  в год\n\nКоманда с большим опытом в компьютерном зрении и экспертами мирового уровня ищет в свои ряды Backend Python Developer. Продукт и его основатели базируются в Калифорнии, а почти вся команда — в России и Украине.\n\nЗадачи :\n• Оптимизация и улучшение качества алгоритмов трекинга людей;\n• Доработка основного кода клиентской стороны;\n• Разработка механизмов обновления клиентских приложений (Linux\\Docker);\n• Разработка системы сбора и разметки данных;\n• Доработка инфраструктурных сервисов и системы оценки качества.\n\nТребования:\n• Опыт промышленной работы от двух лет;\n• Опыт разработки оптимизационных алгоритмов разного назначения;\n• Опыт работы с AWS, Google Cloud, Azure, Docker.\n• Знание Python и\\или С++ и\\или Java;\n• Знание сетевых протоколов, их вариаций и особенностей;\n• Умение работать с многопоточной средой, понимание принципов работы сопрограмм;\n• Умение создавать сервера, способные выдерживать большие нагрузки.\n\nБудет плюсом:\n• Веб каркас Tornado, знания протокола HTTP;\n• Базы данных MongoDB, Redis, Aerospike, Cassandra;\n• Опыт работы с распределенной инфраструктурой;\n• Опыт использования нейронных сетей на TensorFlow / Keras / Caffe;\n• Понимание принципов работы различных архитектур нейронных сетей, знание алгоритмов машинного обучения.\n\nКонтакт для связи: @temnik_sofya","markup":[{"type":"hashtag","offset":0,"length":9,"data":"вакансия"},{"type":"hashtag","offset":10,"length":7,"data":"remote"},{"type":"hashtag","offset":18,"length":9,"data":"fulltime"},{"type":"hashtag","offset":28,"length":7,"data":"python"},{"type":"hashtag","offset":79,"length":9,"data":"fulltime"},{"type":"hashtag","offset":89,"length":7,"data":"remote"},{"type":"handle","offset":1419,"length":13,"data":"temnik_sofya"}],"date":"2020-06-23T10:09:17+00:00","link":"tg://resolve?domain=python_jobs&post=87549","tags":[{"name":"python"},{"name":"linux"},{"name":"docker"},{"name":"amazon-web-services"},{"name":"cloud"},{"name":"azure"},{"name":"java"},{"name":"mongodb"},{"name":"redis"},{"name":"cassandra"},{"name":"tensorflow"},{"name":"google-cloud-platform"}],"cities":[],"allowsRemote":true}},{"node":{"__typename":"Job","id":"2245001216-1001134745498","title":"Devops инженер","text":"#вакансия #Москва #офис #DevOps\n\n▫️ВАКАНСИЯ: Devops engineer\nКомпания: Северсталь-Диджитал\nФормат работы: удаленно на пандемии, далее офис  \nЛокация: Москва, Офис на м. Войковская или МЦК Балтийская\nЗанятость: полная \nЗарплатная вилка: до 140-180к gross middle, 180-230к gross senior  + 30% годовой бонус\n\nКомпания занимается внедрением моделей машинного обучение в производстве. Мы ищем devops инженера для поддержки и развития платформы k8s, Kafka, Hadoop, Gitlab. Работа в небольшой команде, где ваши идеи будут быстро находить реализацию.\n\n▫️Обязанности:\n • Настройка, обновление, GitLab, GitlabCI, Nexus/Artifactory; \n • Организация сбора логов с компонентов IoT платформы Северстали (GrayLog); \n • Организация сбора метрик, описывающих состояние IoT платформы; \n • Создание дашбордов и алертов в Grafana; \n • Автоматизированный выпуск релизов. \n\n▫️Требования:\n• Опыт работы в роли DevOps инженера или аналогичной позиции от 1-го года;  \n• Опыт работы с Linux в роли администратора, навыки работы с Docker; \n• Опыт работы с Hadoop, Kafka, Kubernetes. \n\n▫️Желательно:\n• Умение быстро изучать англоязычные технические ресурсы; \n• Экспертные навыки работы с ОС семейства Linux; \n• Навыки работы на языках программирования Bash, Python, Java, Scala.\n• Опыт работы с Prometeus, Zabbix, ELK\n\n▫️Условия:\n•  Гибкое начало рабочего дня\n•  Официальное оформление\n•  Корпоративную мобильную связь, медицинскую страховку и страхование жизни\n•  Участие в профессиональных конференциях\n•  Современное рабочее пространство и уютные зоны отдыха\n\nКонтакты @DaynekoRoman, @ikart\n\n—\n\n👉 Обсуждение вакансии в чате @devops_jobs","markup":[{"type":"hashtag","offset":0,"length":9,"data":"вакансия"},{"type":"hashtag","offset":10,"length":7,"data":"Москва"},{"type":"hashtag","offset":18,"length":5,"data":"офис"},{"type":"hashtag","offset":24,"length":7,"data":"DevOps"},{"type":"handle","offset":1544,"length":13,"data":"DaynekoRoman"},{"type":"handle","offset":1559,"length":6,"data":"ikart"},{"type":"handle","offset":1600,"length":12,"data":"devops_jobs"}],"date":"2020-06-23T09:00:51+00:00","link":"tg://resolve?domain=devops_jobs_feed&post=2141","tags":[{"name":"kafka"},{"name":"hadoop"},{"name":"gitlab"},{"name":"linux"},{"name":"docker"},{"name":"kubernetes"},{"name":"bash"},{"name":"python"},{"name":"java"},{"name":"scala"}],"cities":[{"code":"moscow"}],"allowsRemote":true}},{"node":{"__typename":"Job","id":"2242904064-1001134745498","title":"Devops инженер","text":"#вакансия #devops\nФормат работы: удаленно\nЗанятость: полная\nЗарплатная вилка: 140 000 - 150 000р/м\n\nТребования:\n- опыт работы системным администратором от 5 лет (Linux)\n- знание Bash\n- опыт внедрения CI процессов\n- настройка и работа с Jenkins и/или TeamCity\n- использование систем управления конфигурациями\n- контейнеризация и виртуализация на стадиях сборки и тестирования\n- понимание систем оркестрации контейнеров (k8s, swarm, nomad)\n\nОбязанности:\n- поддерживать и автоматизировать CI/CD\n- анализировать изменение кода и результаты тестирования (прием релиза)\n- настраивать и поддерживать серверы непрерывной интеграции\n- развертывать, управлять серверами и БД на тестовых и продуктовых площадках, настраивать репликации различной степени сложности\n\nУсловия:\n- оформление по ТК РФ\n- полностью белая ЗП\n\nКомпания: tracepharm.ru\nКонтакты: @irarudakova\n\nС уважением, Ирина\n\n—\n\n👉 Обсуждение вакансии в чате @devops_jobs","markup":[{"type":"hashtag","offset":0,"length":9,"data":"вакансия"},{"type":"hashtag","offset":10,"length":7,"data":"devops"},{"type":"link","offset":817,"length":13,"data":"http://tracepharm.ru"},{"type":"handle","offset":841,"length":12,"data":"irarudakova"},{"type":"handle","offset":908,"length":12,"data":"devops_jobs"}],"date":"2020-06-23T08:20:45+00:00","link":"tg://resolve?domain=devops_jobs_feed&post=2139","tags":[{"name":"linux"},{"name":"bash"},{"name":"jenkins"}],"cities":[],"allowsRemote":true}},{"node":{"__typename":"Job","id":"2241855488-1001134745498","title":"Devops engineer","text":"#вакансия #Москва #infrastructure #lead #офис #DevOps\n\nЛокация: Москва\nФормат работы: офис \nЗанятость: полная \nЗП: 250 000 до 350 000 рублей на руки (компания готова отталкиваться от пожеланий кандидатов) \nВакансия: Lead Infrastructure Engineer\n\n🔹 Avotel существует на российском рынке уже почти 5 лет, сначала возникла лишь идея о том, как создать решение, которое позволит решить проблемы связи для транспорта и объектов, которые сложно подключить обычными технологиями. На сегодняшний день Avotel стала партнером крупнейших представителей в сфере телекома и транспорта, что делает необходимым рост команды. \n\nНа текущий момент команда ищет специалиста, который займет ключевую роль в сетевой/программной инфраструктуре для телеком операторов и больших интернет соединений.\n\nСтек: Linux, Ansible, KVM, Docker, BGP, IP tunnel, Git.\n\n🔹Обязанности:\n— Сопровождение серверной и сетевой инфраструктуры проекта;\n— Расширение и формирование команды;\n\n🔹 Требования:\n—Обширный опыт в качестве Infrastructure Engineer от 6 лет;\n— Опыт работы на Lead позиции от 2 лет; \n— Уверенное владение инструментами динамической и статической маршрутизации;\n— Опыт проектирования сетей на базе Linux и обслуживания сетевой инфраструктуры от 100 серверов;\n— Большим плюсом будет наличие опыта сопровождения “железа”, как, например, в сегментах телекома, транспорта или IoT;\n\n🔹 Контакты:\ne-mail: maria@luckyhunter.io\ntelegram: @Maria_Rey\n\n—\n\n👉 Обсуждение вакансии в чате @devops_jobs","markup":[{"type":"hashtag","offset":0,"length":9,"data":"вакансия"},{"type":"hashtag","offset":10,"length":7,"data":"Москва"},{"type":"hashtag","offset":18,"length":15,"data":"infrastructure"},{"type":"hashtag","offset":34,"length":5,"data":"lead"},{"type":"hashtag","offset":40,"length":5,"data":"офис"},{"type":"hashtag","offset":46,"length":7,"data":"DevOps"},{"type":"link","offset":1378,"length":20,"data":"mailto:maria@luckyhunter.io"},{"type":"handle","offset":1409,"length":10,"data":"Maria_Rey"},{"type":"handle","offset":1454,"length":12,"data":"devops_jobs"}],"date":"2020-06-23T07:45:23+00:00","link":"tg://resolve?domain=devops_jobs_feed&post=2138","tags":[{"name":"linux"},{"name":"ansible"},{"name":"docker"},{"name":"git"}],"cities":[{"code":"moscow"}],"allowsRemote":false}},{"node":{"__typename":"Job","id":"91666513920-1001067529236","title":"Python разработчик","text":"#fullstack_dev #вакансия #удаленка #Python \n\nПривет! Меня зовут Виолетта, ищу Python разработчика в компанию SIMKOMAT.\n\nМесто работы: удаленка \nРабочий день: полный рабочий день\nТвои умения: \nPython, asyncio, flask\nОпыт программирования многопоточных приложений;\nЗнание операционной системы Linux;\nЗнание Docker/Docker-compose\nУмение работы с системой контроля версий Git, gitlab, CI/CD\nОпыт работы с базами данных Mongodb, PostgreSQL или MySQL\nПонимание принципов виртуализации;\nОпыт администрирования ОС семейства Linux, localhost, умение работать с ssh\nМы общаемся в: Trello, Atlassian, Telegram, Viber, GitLab Issues\nО компании: создаем программные аппараты для выдачи сим-карт без участия человека. В основном сотрудничаем с иностраннными компаниями. Нашему коллективу кажется, что мы веселые и приятные люди. \nОткликаться на вакансию: пиши мне в телеграм @violker или на почту yo@simkomat.com\n\nЗа внимание спасибо. Сайт SIMKOMAT - тебе. https://simkomat.com/ru/","markup":[{"type":"hashtag","offset":0,"length":14,"data":"fullstack_dev"},{"type":"hashtag","offset":15,"length":9,"data":"вакансия"},{"type":"hashtag","offset":25,"length":9,"data":"удаленка"},{"type":"hashtag","offset":35,"length":7,"data":"Python"},{"type":"bold","offset":120,"length":13,"data":""},{"type":"bold","offset":144,"length":13,"data":""},{"type":"bold","offset":178,"length":14,"data":""},{"type":"bold","offset":556,"length":15,"data":""},{"type":"bold","offset":621,"length":11,"data":""},{"type":"bold","offset":816,"length":24,"data":""},{"type":"handle","offset":861,"length":8,"data":"violker"},{"type":"link","offset":883,"length":15,"data":"mailto:yo@simkomat.com"},{"type":"link","offset":943,"length":24,"data":"https://simkomat.com/ru/"},{"type":"bold","offset":943,"length":24,"data":""}],"date":"2020-06-23T06:31:18+00:00","link":"tg://resolve?domain=python_jobs&post=0","tags":[{"name":"python"},{"name":"flask"},{"name":"linux"},{"name":"docker"},{"name":"git"},{"name":"gitlab"},{"name":"mongodb"},{"name":"postgresql"},{"name":"mysql"},{"name":"ssh"},{"name":"docker-compose"}],"cities":[],"allowsRemote":true}},{"node":{"__typename":"Job","id":"103487111168-1001089317451","title":"Qa инженер","text":"#Москва #офис #qa #вакансия #middle #senior\nКРИПТО-ПРО\nот 120 000 руб. до вычета НДФЛ\n\nОбязанности:\n\nРучное тестирование ПО по кейсам и без;\n\nНастраивание, развертывание тестовых сред на разнообразных ОС (MS Windows, Unix, Linux и т.д.), проверка работы нашего ПО с сетевыми и доменными службами и в интеграции с продуктами других компаний;\n\nВедение тестовой документации, описание тестирования, своевременное предоставление информации о состоянии ПО.\n\nПо вопросам, связанным с технологией продуктов, мы готовы обучать. Хотим видеть в команде внимательного, придирчивого, технически грамотного человека, не стесняющегося спросить, когда что-то не ясно, но и не делающего свою задачу задачей всех, кто его окружает. Если вы умеете планировать своё тестирование и рассказывать о текущем состоянии подукта - вы нам нужны. \n\nЕсли при этом вы умеете работать с операционными системами на уровне администратора и не боитесь командной строки - вы нам тоже нужны.\n\nУ нас есть и веб, и десктоп, и фронтенд, и бэкэнд, у нас есть облачные продукты и SDK, есть даже сетевой шлюз, и мы с вами можем подобрать то, что вам будет ближе, рутины не бывает и мы с пониманием и одобрением относимся к желанию поучиться чему-то новенькому.\n\nАвтоматизация  многих продуктов у нас уже развита и теперь мы ищем ручных тестировщиков, которые мудрее, хитрее и круче каких-то там скриптов.\n\nМы предлагаем:\n\nРаботу в современном офисе (в пешей доступности от м. Савёловская и м. Марьина роща) на полный рабочий день с гибким началом рабочего дня;\nОфициальную заработную плату по результатам собеседования;\nЗамечательных коллег и порой нетривиальные задачи;\nОтносительную свободу выбора инструментов тестирования;\nВозможность дополнительного обучения и участия в профильных конференциях;\nСокращение испытательного срока при демонстрации хорошего профессионального уровня;\nЕжегодную премию по результатам работы;\nЕщё у нас есть кухня с запасом кофе, и даже маленький спортивный зал.\nmasterica@cryptopro.ru\nhttps://hh.ru/vacancy/37244242","markup":[{"type":"hashtag","offset":0,"length":7,"data":"Москва"},{"type":"hashtag","offset":8,"length":5,"data":"офис"},{"type":"hashtag","offset":14,"length":3,"data":"qa"},{"type":"hashtag","offset":18,"length":9,"data":"вакансия"},{"type":"hashtag","offset":28,"length":7,"data":"middle"},{"type":"hashtag","offset":36,"length":7,"data":"senior"},{"type":"link","offset":1953,"length":22,"data":"mailto:masterica@cryptopro.ru"},{"type":"link","offset":1976,"length":30,"data":"https://hh.ru/vacancy/37244242"}],"date":"2020-06-23T04:34:31+00:00","link":"tg://resolve?domain=qa_jobs&post=98693","tags":[{"name":"qa"},{"name":"windows"},{"name":"unix"},{"name":"linux"}],"cities":[{"code":"moscow"}],"allowsRemote":false}},{"node":{"__typename":"Job","id":"2240806912-1001134745498","title":"Devops инженер","text":"#вакансия #fulltime #devops #middleDevops #seniorDevOps #офис #казань #нижнийновгород \n \nDevOps инженеру предлагаем full time позицию в компании MERA. Мы работаем с крупнейшими мировыми заказчиками, лидерами в своих отраслях. В одном из наших проектов открыта вакансия devops инженера.\n\nВладеть английским достаточно для чтения и переписки. \n \nРассмотрим уровень от Middle до Senior. Зарплату предлагаем, соответственно, в зависимости от уровня. Смотрите вилку, описание офисов и контакты в конце поста. \n \nС какими технологиями мы работаем? \n! CMake\nJenkins \nGitLab CI \nPython\nGrafana \nGradle \nTerraform \nAnsible \nKubernetes \nDocker \nZabbix \nLinux \n \nМы создаём высоконагруженные системы, которыми пользуются сотни тысяч людей. \n\nОблачная телефония. Данный продукт объединяет в себе возможности телефонии, видеосвязи, организации встреч и обмен сообщениями в одном надежном, простом в использовании решении, что позволяет клиентам снижать стоимость корпоративной связи. \nЕсть архитектурные команды, есть команды разработки, swat-команда которая занимается эмерженси вещами в частности билд-системами, команды автоматизаторов. На текущий момент необходим человек, который будет заниматься билд инфраструктурой, настройкой и улучшением CI/CD. \n \nПодробнее о вакансии по теме DevOps на career.mera.ru. \n \nФормат работы: офис. \n \nГде находятся офисы: Нижний Новгород, Дзержинск и Казань. \nХороший бонус при релокации. \n \nЗанятость: полная. \n \nЗарплата: 100 на руки фикс (это средняя зарплата, предложение зависит от уровня экспертизы). \n \nНазвание компании: \nMERA, career.mera.ru \n \nКонтакты: \n@sonyadremucheva \nsonya.dremucheva@mera.com\n\n—\n\n👉 Обсуждение вакансии в чате @devops_jobs","markup":[{"type":"hashtag","offset":0,"length":9,"data":"вакансия"},{"type":"hashtag","offset":10,"length":9,"data":"fulltime"},{"type":"hashtag","offset":20,"length":7,"data":"devops"},{"type":"hashtag","offset":28,"length":13,"data":"middleDevops"},{"type":"hashtag","offset":42,"length":13,"data":"seniorDevOps"},{"type":"hashtag","offset":56,"length":5,"data":"офис"},{"type":"hashtag","offset":62,"length":7,"data":"казань"},{"type":"hashtag","offset":70,"length":15,"data":"нижнийновгород"},{"type":"link","offset":1284,"length":14,"data":"http://career.mera.ru"},{"type":"link","offset":1562,"length":14,"data":"http://career.mera.ru"},{"type":"handle","offset":1591,"length":16,"data":"sonyadremucheva"},{"type":"link","offset":1609,"length":25,"data":"mailto:sonya.dremucheva@mera.com"},{"type":"handle","offset":1669,"length":12,"data":"devops_jobs"}],"date":"2020-06-22T18:03:00+00:00","link":"tg://resolve?domain=devops_jobs_feed&post=2137","tags":[{"name":"cmake"},{"name":"jenkins"},{"name":"gitlab"},{"name":"python"},{"name":"gradle"},{"name":"ansible"},{"name":"kubernetes"},{"name":"docker"},{"name":"linux"}],"cities":[{"code":"kazan"},{"code":"dzerzhinsk"},{"code":"nizhny-novgorod"}],"allowsRemote":false}},{"node":{"__typename":"Job","id":"103450411008-1001089317451","title":"Qa инженер","text":"#тестировщик #QA #manual #СПб #fulltime #вакансия \nИнженер по тестированию middle/senior\nКомпания: Yota \nСанкт-Петербург, м. Беговая (БЦ Атлантик Сити) \nСредняя ЗП: **120 000**/на руки\nПолная занятость, офис (сейчас работаем удаленно)\n\nВсем привет! Я Олеся – HR компании Yota. В развивающуюся команду биллинга и тарификации ищем внимательного QA инженера. \nОднозначно пиши, если НЕТ опыта в автотестах, но очень хочешь расти в этом направлении. БОльшая часть времени-ручные тесты, + развитие в авто.\nТесная работа с БД (Oracle).\nИнтересные задачи: \n• Проведение приёмочного тестирования новой функциональности биллинговой системы;\n• Тестирование новых бизнес продуктов;\n• Тестирование-исследование на предмет реализуемости функционала.\n*остальное в вакансии на НН\n\nОбязательные требования: \n• Опыт работы в тестировании ПО от 2 лет; \n• Базовые знания REST API;\n• Базовые знания Linux;\n• Понимание QA как процесса обеспечения качества, знание процессов и методологий разработки ПО\n• Знания ORACLE (SQL, PL/SQL на уровне написания запросов/простых процедур).\n\nУсловия:\nДМС \nЗП полностью белая\nКофетерий: спорт, иностранные языки, корпоративные активности (футбол, теннис), клуб аналитиков и много других приятных мелочей.\nУютный новый офис в Атлантик-Сити (м.Беговая)\n\nВакансия: https://spb.hh.ru/vacancy/36958391\nОС: @olesyaromanova01","markup":[{"type":"hashtag","offset":0,"length":12,"data":"тестировщик"},{"type":"hashtag","offset":13,"length":3,"data":"QA"},{"type":"hashtag","offset":17,"length":7,"data":"manual"},{"type":"hashtag","offset":25,"length":4,"data":"СПб"},{"type":"hashtag","offset":30,"length":9,"data":"fulltime"},{"type":"hashtag","offset":40,"length":9,"data":"вакансия"},{"type":"bold","offset":75,"length":13,"data":""},{"type":"bold","offset":99,"length":4,"data":""},{"type":"bold","offset":153,"length":7,"data":""},{"type":"bold","offset":185,"length":22,"data":""},{"type":"bold","offset":301,"length":8,"data":""},{"type":"bold","offset":500,"length":18,"data":""},{"type":"bold","offset":540,"length":6,"data":""},{"type":"bold","offset":778,"length":10,"data":""},{"type":"bold","offset":1058,"length":7,"data":""},{"type":"link","offset":1277,"length":34,"data":"https://spb.hh.ru/vacancy/36958391"},{"type":"handle","offset":1316,"length":17,"data":"olesyaromanova01"}],"date":"2020-06-22T13:52:39+00:00","link":"tg://resolve?domain=qa_jobs&post=98658","tags":[{"name":"qa"},{"name":"oracle"},{"name":"rest"},{"name":"linux"},{"name":"sql"}],"cities":[],"allowsRemote":true}},{"node":{"__typename":"Job","id":"2239758336-1001134745498","title":"Devops инженер","text":"#вакансия #DevOps#Москва#удаленка #полнаязанятость\n180000-220000\nПривет!\nМы команда Crypterium!\nМы международный финтех стартап.\nМы строим банк будущего, который поддерживает криптофиатные операции.\nНаша цель – создание сервиса, который фактически займёт место традиционных банков, по всем возможным банковским операциям!\nУ нас сложные, но интересные задачи по созданию крутого и по-настоящему полезного продукта для людей из разных стран по всему миру. Работа у нас реальная возможность приложить руку к крутому продукту, которым будет пользоваться большое количество людей.\nНа данный момент наша компания активно растет и развивается, в связи с этим мы ищем DevOps инженера Нам нужен по-настоящему про активный и ответственный сотрудник. Задач много, они разные и крайне интересны\nЧто предстоит делать?\n•  Поддержка инфраструктуры проекта на AWS;\n•  Улучшение существующей инфраструктуры, включая масштабирование и отказоустойчивость;\n•  Мониторинг системы, анализ быстродействия и тонкая настройка;\n•  Администрирование AWS. Предоставления безопасного доступа к ресурсам хостинга;\n•  Обеспечение бесперебойной работы сервисов компании;\n•  Выбор и внедрение DevOps практик и инструментов на всех этапах работы проекта;\n•  Развертывание, мониторинг и поддержка работы облачных и dedicated сервисов компании;\n•  Оперативное реагирование и устранение инцидентов;\n•  Поддержка процесса разработки;\n•  Автоматизация рутинных задач\nКакие skils мы хотим видеть в нашем будущем коллеге?\n•  Не менее 3 лет работы с linux системами в роли системного администратора/devops инженера;\n•  Уверенное знание инфраструктуры/сервисов AWS и DO;\n•  Опыт работы (настройка и конфигурирование) с CI/CD системами (у нас TeamCity и Code Pipeline/Code Deploy с миграцией на GitLab);\n•  Умение конфигурировать Nginx (ssl, request limits, cache, headers manipulation);\n•  Опыт работы с Docker.\n•  Опыт создания отказоустойчивых распределенных серверных архитектур с высоким уровнем доступности;\n•  Навыки администрирования и оптимизации СУБД: PostgeSQL;\n•  Преимущества:\n•  Опыт работы с системами управления конфигурацией Chef, Puppet, Ansible\n•  Понимание принципов CI/CD;\n•  Понимание, как работают основные сервисы AWS.\n•  Знание Java/Kotlin;\nЧто мы можем предложить для Вас?\n•  По настоящему заряженная команда профессионалов\n•  Гибкое начало рабочего дня\n•  Возможности профессионально развиваться и расти\n\nПисать в ЛС @borisovaem\n\n—\n\n👉 Обсуждение вакансии в чате @devops_jobs","markup":[{"type":"hashtag","offset":0,"length":9,"data":"вакансия"},{"type":"hashtag","offset":34,"length":16,"data":"полнаязанятость"},{"type":"handle","offset":2400,"length":11,"data":"borisovaem"},{"type":"handle","offset":2446,"length":12,"data":"devops_jobs"}],"date":"2020-06-22T13:16:02+00:00","link":"tg://resolve?domain=devops_jobs_feed&post=2136","tags":[{"name":"amazon-web-services"},{"name":"linux"},{"name":"gitlab"},{"name":"nginx"},{"name":"ssl"},{"name":"docker"},{"name":"ansible"},{"name":"java"},{"name":"kotlin"}],"cities":[{"code":"moscow"}],"allowsRemote":true}}]}}},"context":{}}