{"hash":"f5f6bf98bd95e769321482904cbbd488f77922fd","data":{"records":{"id":"php","name":"php","belongsTo":{"totalCount":88,"pageInfo":{"totalPages":9,"currentPage":1},"edges":[{"node":{"__typename":"Job","id":"26997686272-1001075660570","title":"Php программист","text":"#вакансия #работа #fulltime #parttime #laravel #php #backend #Web\nГород и адрес офиса: Москва\nФормат работы: удаленка\nЗанятость: частичная, не менее 20-30 часов в неделю или полная 40 часов в неделю Зарплатная вилка: от 7$ до 20$ в час, либо сдельная\n\nПривет! Мы ищем человека который вольется в нашу команду для развития платформы EdaPort. Вам предстоит полностью взять на себя развитие бекенд-части.\nТребования:\nЗнание Laravel 5.x\nPHP 7.0 +\nЗнание для чего нужен REST-API и как его готовить\nРазбираться в чужом коде (наша платформа уже в продакшене)\nПисать понятные любому программисту Swagger-аннотации\nИметь представления о хорошей архитектуре, сейчас все не идеально, мы хотим чтобы становилось лучше с каждой итерацией.\nЛюбить или хотя бы не бояться писать тесты, понимать зачем они вообще нужны.\nИметь представление как работает CI\nОпыт работы по подключению платежных систем будет плюсом.\nУмение работать в команде, доступность с 10 до 19 по Москве (большую часть этого промежутка) для коммуникаций с командой.\nОпыт работы с таск-менеджерами будет плюсом.\n\nРабота удаленная, перед началом сотрудничества нужно будет пройти небольшое телефонное интервью с командой.\n\nКомпания: Enlighted\nКонтакты: Писать мне в личку @westarakagrek или на почту ra@enlighted.ru","markup":[{"type":"hashtag","offset":0,"length":9,"data":"вакансия"},{"type":"hashtag","offset":10,"length":7,"data":"работа"},{"type":"hashtag","offset":18,"length":9,"data":"fulltime"},{"type":"hashtag","offset":28,"length":9,"data":"parttime"},{"type":"hashtag","offset":38,"length":8,"data":"laravel"},{"type":"hashtag","offset":47,"length":4,"data":"php"},{"type":"hashtag","offset":52,"length":8,"data":"backend"},{"type":"hashtag","offset":61,"length":4,"data":"Web"},{"type":"handle","offset":1223,"length":14,"data":"westarakagrek"},{"type":"link","offset":1251,"length":15,"data":"mailto:ra@enlighted.ru"}],"date":"2020-07-03T11:31:03+00:00","link":"tg://resolve?domain=php_jobs&post=25747","tags":[{"name":"php"},{"name":"laravel"},{"name":"web"},{"name":"rest"},{"name":"swagger"}],"cities":[{"code":"moscow"}],"allowsRemote":true}},{"node":{"__typename":"Job","id":"26990346240-1001075660570","title":"Php разработчик","text":"#вакансия #php #symfony #удаленка  #fulltime #parttime\n\nPHP-разработчик (middle, senior), Symfony 3.4+\n\nДля работы нужно: \n- опыт работы с Symfony 3.4+ и понимание DI, Doctrine\n- владение PostgreSQL\n\nБудет плюсом: \n- опыт работы с брокерами сообщений: Kafka, RabbitMQ\n- понимание принципов работы микросервисных систем\n- опыт автоматизированного тестирования (PHPUnit, Codeception)\n\nУсловия: 120-180к в зависимости от уровня, оформление ТК\n- Разработка web-сервисов и digital-решений. \nКомпания: grapheme.ru \n\nКонтакты: @AnastasiaTum","markup":[{"type":"hashtag","offset":0,"length":9,"data":"вакансия"},{"type":"hashtag","offset":10,"length":4,"data":"php"},{"type":"hashtag","offset":15,"length":8,"data":"symfony"},{"type":"hashtag","offset":24,"length":9,"data":"удаленка"},{"type":"hashtag","offset":35,"length":9,"data":"fulltime"},{"type":"hashtag","offset":45,"length":9,"data":"parttime"},{"type":"link","offset":496,"length":11,"data":"http://grapheme.ru"},{"type":"handle","offset":520,"length":13,"data":"AnastasiaTum"}],"date":"2020-07-03T10:35:12+00:00","link":"tg://resolve?domain=php_jobs&post=25740","tags":[{"name":"php"},{"name":"symfony"},{"name":"doctrine"},{"name":"postgresql"},{"name":"kafka"},{"name":"rabbitmq"},{"name":"phpunit"},{"name":"web"}],"cities":[],"allowsRemote":true}},{"node":{"__typename":"Job","id":"17346592768-1001110946746","title":"Js разработчик","text":"#вакансия #москва #middle #remote #angular #fulltime #офис\n\nИщем frontend разработчика для работы над основным сайтом и новыми разделами.\nГород и адрес офиса: Москва, м. Авиамоторная\nФормат работы: Офис\nЗанятость: полная\nЗарплатная вилка: 130 000 — 150 000 на руки по результатам технического собеседования\n\nAutospot.ru — онлайн гипермаркет автомобилей. 🚘\n\nВ 2018 году Mitsubishi Corporation и Mail.ru. оценили нас в $19,1 млн.\n\nВ технической команде 17 человек: СТО, 9 PHP разработчиков, 2 frontend разработчика, 3 тестировщика, DevOps.\n\nЧеловек нужен в Москве или готовый в эту самую Москву переехать.\n\n📍Обязанности:\n▫️Разработка компонентов и адаптация/интеграция сторонних библиотек и плагинов;\n▫️ Верстка новых разделов, кроссбраузерная, адаптивная, валидная;\n▫️ Развитие библиотеки UI компонентов;\n▫️ Оперативное исправление багов на проде (IE 11+);\n▫️ Помощь в оптимизации работы сайта (скорость загрузки, оптимизация DOM).\n\n📍Требования:\n▪️ Опыт разработки от 2 лет;\n▪️ Знание JavaScript (jQuery в разумных пределах);\n▪️ Уверенное знание html семантическая верстка, БЭМ, SCSS;\n▪️ Знание работы GIT & NPM;\n▪️ Опыт работы с gulp/webpack;\n▪️ Опыт работы с Figma/Zeplin;\n▪️ Опыт работы с векторной графикой (svg и svg-спрайты).\n\n📍Желательно:\n◾️ Хорошее знание Vue.js и/или Angular 5+. Работать надо будет и с тем и с другим. Angular 5+ в приоритете, планируется переход полностью на него;\n◾️ Знание инструментов организации разработки Jira;\n◾️ Знание нюансов работы браузеров на разных устройствах и ОС;\n◾️ Опыт сео оптимизации;\n◾️ Понимание, что такое доступные интерфейсы;\n\n📍Условия:\n▫️ Комфортабельный офис, БЦ Light Tower, бесплатный шаттл от м. Площадь Ильича;\n▫️ Оформление по ТК РФ с первого рабочего дня;\n▫️ Гибкое начало рабочего дня, с 9 до 11;\n▫️ Возможность работать 1-2 дня удалённо;\n▫️ Полностью белая заработная плата;\n▫️ Неформальная атмосфера и дружный, амбициозный коллектив;\n▫️ Корпоративная скидка на изучение английского языка.\n\n📌 Контакт: @dianadoma","markup":[{"type":"hashtag","offset":0,"length":9,"data":"вакансия"},{"type":"hashtag","offset":10,"length":7,"data":"москва"},{"type":"hashtag","offset":18,"length":7,"data":"middle"},{"type":"hashtag","offset":26,"length":7,"data":"remote"},{"type":"hashtag","offset":34,"length":8,"data":"angular"},{"type":"hashtag","offset":43,"length":9,"data":"fulltime"},{"type":"hashtag","offset":53,"length":5,"data":"офис"},{"type":"link","offset":308,"length":11,"data":"http://Autospot.ru"},{"type":"link","offset":395,"length":7,"data":"http://Mail.ru"},{"type":"handle","offset":1970,"length":10,"data":"dianadoma"}],"date":"2020-07-03T07:39:26+00:00","link":"tg://resolve?domain=javascript_jobs_feed&post=16543","tags":[{"name":"javascript"},{"name":"angularjs"},{"name":"php"},{"name":"jquery"},{"name":"html"},{"name":"git"},{"name":"npm"},{"name":"gulp"},{"name":"webpack"},{"name":"svg"},{"name":"vuejs"}],"cities":[{"code":"moscow"}],"allowsRemote":true}},{"node":{"__typename":"Job","id":"26983006208-1001075660570","title":"Php разработчик","text":"#вакансия #удаленно #офис #ростов #senior\nКомпания «E.Mi» - производитель материалов для салонов красоты, дистрибуция, профессиональное образование, сеть салонов красоты.\nКомпания входит в ТОП-5 лидеров nail-рынка РФ и СНГ по объёму реализации.\nВ штат компании требуется Ведущий WEB-разработчик Bitrix\nЛокация: головной офис РФ - Ростов-на-Дону\nРассматриваем кандидатов как для удаленной работы, так и на офисную\n\nОбязанности:\n-Доработка функционала и исправление ошибок на сайтах;\n-Администрирование хостинга VPS, CentOS7;\n-Поддержка обмена данных Битрикс с 1С;\n-Настройка синхронизации с 1С, Битрикс24, данных между сайтами.\n\nУсловия:\n-Работа в крупной развивающейся компании;\n-Креативная и молодая команда;\n-В подчинении Web-разработчик и Web-мастер;\n-Оформление по ТК РФ.\n\nЗарплату готовы обсуждать от ваших ожиданий (от 70.000 руб)\nСвязь в лс, по телефону или почта bondarenko@emi-school.ru","markup":[{"type":"hashtag","offset":0,"length":9,"data":"вакансия"},{"type":"hashtag","offset":10,"length":9,"data":"удаленно"},{"type":"hashtag","offset":20,"length":5,"data":"офис"},{"type":"hashtag","offset":26,"length":7,"data":"ростов"},{"type":"hashtag","offset":34,"length":7,"data":"senior"},{"type":"bold","offset":279,"length":23,"data":""},{"type":"underline","offset":345,"length":69,"data":""},{"type":"bold","offset":414,"length":13,"data":""},{"type":"bold","offset":628,"length":9,"data":""},{"type":"link","offset":871,"length":24,"data":"mailto:bondarenko@emi-school.ru"}],"date":"2020-07-03T05:54:45+00:00","link":"tg://resolve?domain=php_jobs&post=25733","tags":[{"name":"php"},{"name":"web"},{"name":"centos"}],"cities":[{"code":"rostov"}],"allowsRemote":true}},{"node":{"__typename":"Job","id":"104223211520-1001089317451","title":"Qa инженер","text":"#вакансия#QAAutomation#тестировщик #атоматизация #Тюмень #офис \n\n🏢Компания: Creative\n🏙Город: Тюмень, ул. Малыгина, 84/1\n💰Зп: от 85к (обсуждается по результатам собеседования)\n\nФормат работы: офис \nЗанятость: полная\nМы занимаемся веб и мобильной разработкой: помогаем нашим клиентам эффективно инвестировать деньги в цифровую среду и стремимся стать лидерами на российском рынке.\nСейчас у нас в работе флагманский проект с крупнейшим банком TOP-5 в России по разработке сервиса для поиска и заказа услуг самозанятых. Мы активно формируем команду разработчиков на долгосрочный проект.\n\nЗадачи: \n✔️ Написание и поддержка behat-тестов на API продукта (backend), \n✔️Написание и поддержка Java+Selenium-тестов на интерфейсную часть продукта (frontend). \n\nТребования:\n ✔️Знание behat фреймворка тестирования и умение его применять\n✔️ Знания в PHP на уровне, достаточном для поддержания behat-сценариев - написание бэкдоров\n✔️Знания в Java на уровне, достаточном для написания сценариев тестирования на связка Java+Selenium\n\nУсловия:\n✔️Конкурентная заработная плата;\n✔️работаем с 10:00 до 19:00. График индивидуально корректируемый. Иногда можно работать из дома. Обед можно смещать.\n✔️возможность пробовать новый стек;\n✔️пятничные встречи с интересными ребятами, английский прямо в офисе, поездки на конференции, обучение друг друга внутри компании;\n✔️современный офис в центре города;\n✔️программа релокации по переезду в г. Тюмень\nПодробнее о компании здесь https://crtweb.ru/career\n📲Контакты: m.zinoveva@rabota.ru или в лс (в телеге)","markup":[{"type":"hashtag","offset":35,"length":13,"data":"атоматизация"},{"type":"hashtag","offset":49,"length":7,"data":"Тюмень"},{"type":"hashtag","offset":57,"length":5,"data":"офис"},{"type":"link","offset":1455,"length":24,"data":"https://crtweb.ru/career"},{"type":"link","offset":1492,"length":20,"data":"mailto:m.zinoveva@rabota.ru"}],"date":"2020-07-02T13:15:47+00:00","link":"tg://resolve?domain=qa_jobs&post=99395","tags":[{"name":"qa"},{"name":"java"},{"name":"selenium"},{"name":"php"}],"cities":[{"code":"tyumen"}],"allowsRemote":false}},{"node":{"__typename":"Job","id":"26959937536-1001075660570","title":"Php разработчик","text":"#вакансия #удаленка #part\nFinland, Espoo, удаленка\nЗанятость: частичная\n🔴Наставник онлайн-курсов по программированию на PHP, Laravel\n❗️Оплата: от 12500 до 20 000 рублей в месяц\n\n▶️Что мы предлагаем:\nУдаленную работу со свободным графиком.\nПолный доступ к материалам Хекслета.\nПерсональную прокачку от команды Хекслета.\n▶️Ожидания:\n✔️Опыт командной работы, понимание гибких процессов разработки\n✔️Знакомство с минимум двумя языками программирования\n✔️Базовые знания алгоритмов и структур данных\n✔️Автоматизированное тестирование собственного кода\n✔️Знание веб-технологий: http, dns\n✔️Опыт профилирования и оптимизации кода\n✔️Понимание функциональной парадигмы\n🟢Название компании: Hexlet\n\nКонтакты: job@hexlet.io или @LyudmilaSemenova","markup":[{"type":"hashtag","offset":0,"length":9,"data":"вакансия"},{"type":"hashtag","offset":10,"length":9,"data":"удаленка"},{"type":"hashtag","offset":20,"length":5,"data":"part"},{"type":"link","offset":699,"length":13,"data":"mailto:job@hexlet.io"},{"type":"handle","offset":717,"length":17,"data":"LyudmilaSemenova"}],"date":"2020-07-02T13:02:41+00:00","link":"tg://resolve?domain=php_jobs&post=25711","tags":[{"name":"php"},{"name":"laravel"},{"name":"dns"}],"cities":[],"allowsRemote":true}},{"node":{"__typename":"Job","id":"26958888960-1001075660570","title":"Php разработчик","text":"#Удаленка #вакансия #php #fulltime #Senior #middle\nФормат работы: Удаленка \nЗанятость: полная\nЗарплатная вилка: от 80 т.р. до 150 т.р.\n\nMobidoo - AdTech компания, занимаемся рекламой в мобильном сегменте интернета.Мы работаем в области анализа и генерации трафика, с данными пользователей. Мы ищем Backend разработчика, который хотел бы реализовывать нетривиальные задачи и работать с продуктами, нацеленными на большие аудитории. (Возможна удаленная работа)\n\nС чем предстоит работать:\n\nРабота над внутренними проектами компании для аналитики и маркетинга;\nРабота над сервисами по интеграции с third-party партнерами (Facebook, Google, Apple и другие);\nРазработка API для мобильных приложений с DAU 500к+\nВзаимодействие с командой мобильной разработки\n\nТребования:\n\nPHP 7.1-7.4, ООП, паттерны\nPostgreSql (понимать плюсы и минусы БД, уметь работать со сложными запросами и выборками данных)\nОпыт работы с Redis/Memcache/Tarantool\nОпыт работы с Silex, Symfony2, Yii, Laravel\nИнициативность.\n\nПриветствуется:\n\nСильно приветствуется если на предыдущем месте работы занимались геймдевом, BI, трекерами, системами аналитики трафика, а так же имеется опыт работы с google и facebook api.\n\nНазвание компании: Mobidoo http://mobidoo.io\nКонтакты: @ohmytraff","markup":[{"type":"hashtag","offset":0,"length":9,"data":"Удаленка"},{"type":"hashtag","offset":10,"length":9,"data":"вакансия"},{"type":"hashtag","offset":20,"length":4,"data":"php"},{"type":"hashtag","offset":25,"length":9,"data":"fulltime"},{"type":"hashtag","offset":35,"length":7,"data":"Senior"},{"type":"hashtag","offset":43,"length":7,"data":"middle"},{"type":"link","offset":1209,"length":17,"data":"http://mobidoo.io"},{"type":"handle","offset":1237,"length":10,"data":"ohmytraff"}],"date":"2020-07-02T12:17:47+00:00","link":"tg://resolve?domain=php_jobs&post=25710","tags":[{"name":"php"},{"name":"postgresql"},{"name":"redis"},{"name":"symfony"},{"name":"yii"},{"name":"laravel"}],"cities":[],"allowsRemote":true}},{"node":{"__typename":"Job","id":"26957840384-1001075660570","title":"Php developer","text":"#вакансия #php #senior #middle #laravel #москва #fulltime \nКомпания skillbox.ru ищет в команду Middle/Senior PHP Developer (Laravel).\n\nЧем предстоит заниматься:\n •  Нужно будет продолжать развивать сервис авторизации;\n •  Поддерживать текущие проекты на Laravel + Vue;\n •  Участвовать в Code Review;\n •  Писать Unit-тесты;\n •  Ведение документации своего кода;\n •  Принимать активное участие в проектировании микросервисов и БД.\n\nЧто мы ждем от вас:\n •  Уверенные знания PHP7, MySQL, Laravel;\n •  Умение разбираться в Legacy code;\n •  Опыт работы с Redis, WebSockets;\n •  Опыт работы с системами контроля версий – git;\n •  Опыт интеграции с внешними системами по API;\n •  Хорошее знание системы Linux (Ubuntu);\n •  Ответственность и инициативность;\n •  Умение внятно выражать свои мысли устно и письменно;\n •  Умение адекватно оценивать сроки на реализацию той или иной задачи.\n\nМы предлагаем отличные условия:\n •  Белую зарплату от 150.000 net (оклад обсудим индивидуально)\n •  Возможность прохождения любых дистанционных курсов Skillbox бесплатно, а еще корпоративную скидку на изучение английского языка в Skyeng и фитнес.\n •  Рост внутри компании не ограничен, всегда найдется то, что будет интересно тебе;\n •  Корпоративные активности (волейбол, футбол, квесты, квизы, шахматы, Skillbox.fm и др.);\n •  Наша команда творит в новом и стильном офисе на м.Октябрьская;\n •  Гибкий график работы (время прихода на работу в интервале с 8 до 12) и отсутствие дресс-кода;\n\nКонтакты: mariya.reshetova@skillbox.ru      @marieresh","markup":[{"type":"hashtag","offset":0,"length":9,"data":"вакансия"},{"type":"hashtag","offset":10,"length":4,"data":"php"},{"type":"hashtag","offset":15,"length":7,"data":"senior"},{"type":"hashtag","offset":23,"length":7,"data":"middle"},{"type":"hashtag","offset":31,"length":8,"data":"laravel"},{"type":"hashtag","offset":40,"length":7,"data":"москва"},{"type":"hashtag","offset":48,"length":9,"data":"fulltime"},{"type":"link","offset":68,"length":11,"data":"http://skillbox.ru"},{"type":"bold","offset":95,"length":38,"data":""},{"type":"bold","offset":135,"length":25,"data":""},{"type":"bold","offset":430,"length":19,"data":""},{"type":"bold","offset":879,"length":31,"data":""},{"type":"link","offset":1283,"length":11,"data":"http://Skillbox.fm"},{"type":"link","offset":1479,"length":28,"data":"mailto:mariya.reshetova@skillbox.ru"},{"type":"handle","offset":1513,"length":10,"data":"marieresh"}],"date":"2020-07-02T09:30:52+00:00","link":"tg://resolve?domain=php_jobs&post=25709","tags":[{"name":"php"},{"name":"laravel"},{"name":"vuejs"},{"name":"mysql"},{"name":"redis"},{"name":"git"},{"name":"linux"},{"name":"ubuntu"},{"name":"dotnet"}],"cities":[{"code":"moscow"}],"allowsRemote":false}},{"node":{"__typename":"Job","id":"26951548928-1001075660570","title":"Php разработчик","text":"#вакансия #москва #офис #fulltime #yii2 #php #job\n\nВсем привет!\nСейчас нахожусь в поиске крутого разработчика :)\n\n Позиция: Senior PHP Developer\nЗанятость: полная\nКомпания: ТД ЦУМ \nЛокация: Москва\nЗ/П: до 280 000\n\n   Основные цели и задачи:\n- Разработка программных модулей продуктов компании;\n- Глубокое погружение в процессы работы интернет-магазина;\n- Участие в разработке сервис-ориентированной архитектуре приложения.\n\n   Основные обязанности:\n- Разработка и поддержка инфраструктуры интернет-проекта, мобильного приложения и внутренних сервисов компании;\n- Разработка программных модулей продуктов интернет магазина ЦУМ;\n- Оптимизация приложения под высокую нагрузку, масштабирование, поиск узких мест;\n- Интеграция со сторонними сервисами;\n- Предложение и внедрение высокотехнологичных, инновационных решений.\n\nТребования:\n- Отличное знание и опыт работы с PHP 7 от 3 лет;\n- Понимание как устроен HTTP, REST;\n- Знание и понимание MVC архитектуры;\n- Знание и опыт работы фреймворком YII;\n- Опыт работы с одной или несколькими БД: MySQL, Redis, Mongo;\n- Опыт мониторинга и оптимизации SQL-запросов;\n\n   Условия работы:\n- Полный рабочий день  (гибкое утро - возможность начала рабочего дня с 9:00 до 12:00)\n- Официальное оформление по трудовому договору.\n- Офис в центре Москвы.\n- ДМС.\n- Корпоративное обучение.\n- Скидки от партнеров компании.\n\nЕсли остались вопросы, с радостью отвечу:\n @nastyaklassnaya","markup":[{"type":"hashtag","offset":0,"length":9,"data":"вакансия"},{"type":"hashtag","offset":10,"length":7,"data":"москва"},{"type":"hashtag","offset":18,"length":5,"data":"офис"},{"type":"hashtag","offset":24,"length":9,"data":"fulltime"},{"type":"hashtag","offset":34,"length":5,"data":"yii2"},{"type":"hashtag","offset":40,"length":4,"data":"php"},{"type":"hashtag","offset":45,"length":4,"data":"job"},{"type":"handle","offset":1392,"length":16,"data":"nastyaklassnaya"}],"date":"2020-07-02T09:26:49+00:00","link":"tg://resolve?domain=php_jobs&post=25703","tags":[{"name":"php"},{"name":"yii"},{"name":"rest"},{"name":"mysql"},{"name":"redis"},{"name":"sql"}],"cities":[{"code":"moscow"}],"allowsRemote":false}},{"node":{"__typename":"Job","id":"17307795456-1001110946746","title":"Js разработчик","text":"#вакансия #москва #middle #remote #angular #fulltime #офис\n\nИщем frontend разработчика для работы над основным сайтом и новыми разделами.\nГород и адрес офиса: Москва, м. Авиамоторная\nФормат работы: Офис\nЗанятость: полная\nЗарплатная вилка: 130 000 — 150 000 на руки по результатам технического собеседования\n\nAutospot.ru — онлайн гипермаркет автомобилей. 🚘\n\nВ 2018 году Mitsubishi Corporation и Mail.ru. оценили нас в $19,1 млн.\n\nВ технической команде 17 человек: СТО, 9 PHP разработчиков, 2 frontend разработчика, 3 тестировщика, DevOps.\n\nЧеловек нужен в Москве или готовый в эту самую Москву переехать.\n\n📍Обязанности:\n▫️Разработка компонентов и адаптация/интеграция сторонних библиотек и плагинов;\n▫️ Верстка новых разделов, кроссбраузерная, адаптивная, валидная;\n▫️ Развитие библиотеки UI компонентов;\n▫️ Оперативное исправление багов на проде (IE 11+);\n▫️ Помощь в оптимизации работы сайта (скорость загрузки, оптимизация DOM).\n\n📍Требования:\n▪️ Опыт разработки от 2 лет;\n▪️ Знание JavaScript (jQuery в разумных пределах);\n▪️ Уверенное знание html семантическая верстка, БЭМ, SCSS;\n▪️ Знание работы GIT & NPM;\n▪️ Опыт работы с gulp/webpack;\n▪️ Опыт работы с Figma/Zeplin;\n▪️ Опыт работы с векторной графикой (svg и svg-спрайты).\n\n📍Желательно:\n◾️ Хорошее знание Vue.js и/или Angular 5+. Работать надо будет и с тем и с другим. Angular 5+ в приоритете, планируется переход полностью на него;\n◾️ Знание инструментов организации разработки Jira;\n◾️ Знание нюансов работы браузеров на разных устройствах и ОС;\n◾️ Опыт сео оптимизации;\n◾️ Понимание, что такое доступные интерфейсы;\n\n📍Условия:\n▫️ Комфортабельный офис, БЦ Light Tower, бесплатный шаттл от м. Площадь Ильича;\n▫️ Оформление по ТК РФ с первого рабочего дня;\n▫️ Гибкое начало рабочего дня, с 9 до 11;\n▫️ Возможность работать 1-2 дня удалённо;\n▫️ Полностью белая заработная плата;\n▫️ Неформальная атмосфера и дружный, амбициозный коллектив;\n▫️ Корпоративная скидка на изучение английского языка.\n\n📌 Контакт: @dianadoma","markup":[{"type":"hashtag","offset":0,"length":9,"data":"вакансия"},{"type":"hashtag","offset":10,"length":7,"data":"москва"},{"type":"hashtag","offset":18,"length":7,"data":"middle"},{"type":"hashtag","offset":26,"length":7,"data":"remote"},{"type":"hashtag","offset":34,"length":8,"data":"angular"},{"type":"hashtag","offset":43,"length":9,"data":"fulltime"},{"type":"hashtag","offset":53,"length":5,"data":"офис"},{"type":"link","offset":308,"length":11,"data":"http://Autospot.ru"},{"type":"link","offset":395,"length":7,"data":"http://Mail.ru"},{"type":"handle","offset":1970,"length":10,"data":"dianadoma"}],"date":"2020-07-02T07:28:49+00:00","link":"tg://resolve?domain=javascript_jobs_feed&post=16506","tags":[{"name":"javascript"},{"name":"angularjs"},{"name":"php"},{"name":"jquery"},{"name":"html"},{"name":"git"},{"name":"npm"},{"name":"gulp"},{"name":"webpack"},{"name":"svg"},{"name":"vuejs"}],"cities":[{"code":"moscow"}],"allowsRemote":true}}]}}},"context":{}}