{"hash":"f5f6bf98bd95e769321482904cbbd488f77922fd","data":{"records":{"id":"rabbitmq","name":"rabbitmq","belongsTo":{"totalCount":48,"pageInfo":{"totalPages":5,"currentPage":2},"edges":[{"node":{"__typename":"Job","id":"1767899136-1001091028994","title":"Java разработчик","text":"#Вакансия #Java #Spring #Москва #Middle #Senior\nЛокация #москва #динамо\nЗанятость #fulltime\nФормат #офис\n (временно удаленка до сентября)\nЗарплата 150 000 – 200 000 net\nВ компанию Информзащита. Мы ищем опытного Java-разработчика в высоконагруженный проект для крупного государственного заказчика. Аудитория проекта - вся Россия. 1,5 млн. пользователей, плановая нагрузка до 100 тыс. запросов в секунду.\nТехнический стек: Java 8, Spring Boot 2, PostgreSQL 9.6, RabbitMQ, Redis, микросервисная архитектура.\nСобеседование проводится в один этап (руководитель отдела + ведущий разработчик). Решение принимается за 1-2 дня.\nОбязанности:\n- Разработка компонентов микросервисной архитектуры для высоконагруженного проекта\n- Участие в проектировании архитектуры\nТребования:\n• Хорошие знания Java/Spring, PostgreSQL, ООП\nУсловия:\n- Работа в сильной, стабильной компании (ТОП 3 компаний России в сфере защиты информации по оценке CNews Analytics (2017г.);\n- Интересные задачи. Работа с крупными интересными проектами;\n- Зрелые процессы разработки, четкие роли в команде, методология agile;\n- Оформление в соответствии с ТК РФ (все выплаты в \"белую\");\n- Развитая система премирования;\n- Расширенный социальный пакет (ДМС через 6 месяцев работы, 100% оплачиваемый больничный);\n- Возможность гибкого начала/окончания рабочего дня (начало с 8 до 11, окно присутствия с 12 до 17);\n- Разнообразные программы обучения сотрудников;\n- Возможности для повышения квалификации и сертификации;\n- Дружный коллектив профессионалов, вся команда работает In-house;\n- Удобный современный офис класса А;\n- Полный рабочий инструментарий;\n- Кофе, чай;\n- Шаговая доступность от метро - м. Динамо (2 мин.) или м.Петровский Парк (1 мин.)\na.romanovsky@infosec.ru\nwww.infosec.ru","markup":[{"type":"hashtag","offset":0,"length":9,"data":"Вакансия"},{"type":"hashtag","offset":10,"length":5,"data":"Java"},{"type":"hashtag","offset":16,"length":7,"data":"Spring"},{"type":"hashtag","offset":24,"length":7,"data":"Москва"},{"type":"hashtag","offset":32,"length":7,"data":"Middle"},{"type":"hashtag","offset":40,"length":7,"data":"Senior"},{"type":"hashtag","offset":56,"length":7,"data":"москва"},{"type":"hashtag","offset":64,"length":7,"data":"динамо"},{"type":"hashtag","offset":82,"length":9,"data":"fulltime"},{"type":"hashtag","offset":99,"length":5,"data":"офис"},{"type":"link","offset":1704,"length":23,"data":"mailto:a.romanovsky@infosec.ru"},{"type":"link","offset":1728,"length":14,"data":"http://www.infosec.ru"}],"date":"2020-06-30T06:48:55+00:00","link":"tg://resolve?domain=jvmjobs&post=1686","tags":[{"name":"java"},{"name":"jvm"},{"name":"spring"},{"name":"dotnet"},{"name":"postgresql"},{"name":"rabbitmq"},{"name":"redis"},{"name":"spring-boot"}],"cities":[{"code":"moscow"}],"allowsRemote":true}},{"node":{"__typename":"Job","id":"17234395136-1001110946746","title":"Js разработчик","text":"#вакансия\n\nSenior NodeJS Software Engineer\n\nГород и адрес офиса: Москва, м.Китай-Город\nФормат работы: удаленка \nЗанятость: полная \nЗарплата: $ 50 000 - 60 000 в год\n\nМеждународный сервис по подбору стипендиальных программ ищет в свою команду опытного NodeJS разработчика. Главный офис компании находится в Тель-Авиве, куда предусмотрены поездки раз в полгода, команда рассредоточена по миру.\n\nМы предлагаем интересные задачи на высоконагруженных web-проектах, зарплату, привязанную к курсу доллара; возможность профессионального обучения и полноценного участия в жизни IT сообщества (тренинги, конференции) и возможность работать по гибкому графику.\n\n\nТребования: \n- Отличные знания Javascript, Node JS; \n- Будет плюсом опыт работы с Golang; \n- Опыт работы с высокими нагрузками; \n- Хорошее понимание архитектуры и проектирования; \n- Опыт работы с RabbitMQ/Kafka; \n- Опыт работы с NoSQL DB (MongoDB, Redis); \n- Разработка или взаимодействие с REST API; \n- Написание юнит и интеграционных тестов; \n- Понимание цикла CI/CD, поддержка его конфигурации; \n- Отличные коммуникативные навыки и уровень английского не ниже В2.\n\nЧтобы откликнуться, необходимо пройти короткий отбор по ссылке https://6nomads.com/\n\nНазвание компании: 6nomads.com\nКонтакт: @temnik_sofya","markup":[{"type":"hashtag","offset":0,"length":9,"data":"вакансия"},{"type":"link","offset":143,"length":15,"data":"tel:50 000 - 60 000"},{"type":"link","offset":1183,"length":20,"data":"https://6nomads.com/"},{"type":"link","offset":1224,"length":11,"data":"http://6nomads.com"},{"type":"handle","offset":1245,"length":13,"data":"temnik_sofya"}],"date":"2020-06-29T17:50:20+00:00","link":"tg://resolve?domain=javascript_jobs_feed&post=16436","tags":[{"name":"javascript"},{"name":"nodejs"},{"name":"web"},{"name":"go"},{"name":"rabbitmq"},{"name":"kafka"},{"name":"nosql"},{"name":"mongodb"},{"name":"redis"},{"name":"rest"}],"cities":[{"code":"moscow"}],"allowsRemote":true}},{"node":{"__typename":"Job","id":"358612992-1001352129329","title":"Golang разработчик","text":"#вакансия #Москва #офис #удаленка #Golang #fulltime\n\nГород и адрес офиса: Москва, м. Новокузнецкая/Павелецкая\nФормат работы: #офис, #удаленка\nЗанятость: #полная\nЗП: от 120к до 200к руб. нетт\n\nSports.ru – ведущий спортивный сайт в России. Мы строим сообщества людей, увлекающихся разными видами спорта, помогаем им развиваться и даем им площадку для общения. Сейчас мы ищем Backend-разработчика (Golang/PHP) в команду нашего проекта Betting Insider.\n\nBetting Insider — социальная сеть для любителей ставок. Мы верим, что ставки — неотъемлемая часть рынка спортивных развлечений, и стремимся сделать этот рынок прозрачнее и интереснее для пользователей. Мы не принимаем ставок на реальные деньги, но даем пользователям множество вспомогательных сервисов, которые делают их игру проще, безопаснее и интереснее.\n\nО задачах:\nВы будете участвовать в продуктовой разработке на всех стадиях: от обсуждения фич и проработки архитектуры до деплоя и мониторинга работы.\nРазрабатывать микросервисы на Go, перевода на них наш монолит на PHP. Поддержкой монолита тоже нужно будет заниматься. Разрабатывать GraphQL API для web-версии и приложений iOS и Android.\nОптимизировать работу приложений, искать проблемы с производительностью и надежностью. Покрывать код тестами и проводить код ревью.\nЕще сможете принять участие в разработке core сервисов для sports.ru и других наших проектов с MAU больше 20 млн.\n\nО технологиях:\nGo как основной язык. PHP сервис для поддержки и переписывания на Go.\nGraphQL для клиентов. gRPC и JSON over HTTP для межсервисного взаимодействия.\nРазвертывание docker контейнеров в kubernetes. Деплой через gitlab CI и helm чарты.\nМониторинг, трейсинг и алертинг c помощью Grafana и Prometheus, Kibana, Sentry, Elasticsearch APM.\nPostgres 12 и MySQL 8.0.\nNsq и RabbitMQ в качестве очереди событий. Redis для Pub/Sub.\n\nО наших ожиданиях:\nМы ожидаем, что вы имеете опыт разработки микросервисов на Go. Имеете опыт работы с PHP и все еще можете и хотите с ним взаимодействовать. Имеете навыки построения производительных и отказоустойчивых систем.\nЗнаете основы используемых технологий и понимаете, как их использовать: SQL, Go, PHP, message queue, сетевое взаимодействие, кеширование, системы мониторинга и т.д.\nУ вас есть опыт написания тестов равного уровня: Unit, Integration, E2E.\nОпыт взаимодействия с GraphQL и gRPC будет плюсом.\nКлассно, если вы любите спорт. Еще лучше, если вы интересуетесь ставками.\n\nОб условиях: \nПросторный стильный офис возле м. Новокузнецкая/Третьяковская.\n“Белая” заработная плата.\nБесплатная медстраховка со стоматологией после испытательного срока.\nГибкий график работы с возможностью день-два в неделю работать удаленно,\nФрукты, снеки, чай, кофе, какао 24/7.\nКорпоративная скидка в спортзал и на занятия английским языком.\nКорпоративный футбол с тренером.\nФинансовая помощь при переезде из другого города.\nВозможности для профессионального развития.\n\nНазвание компании: Sports.ru (Tribuna Digital)\nКому интересно, пишите в личку (@pbuyatova), поделюсь подробностями)","markup":[{"type":"hashtag","offset":0,"length":9,"data":"вакансия"},{"type":"hashtag","offset":10,"length":7,"data":"Москва"},{"type":"hashtag","offset":18,"length":5,"data":"офис"},{"type":"hashtag","offset":24,"length":9,"data":"удаленка"},{"type":"hashtag","offset":34,"length":7,"data":"Golang"},{"type":"hashtag","offset":42,"length":9,"data":"fulltime"},{"type":"hashtag","offset":125,"length":5,"data":"офис"},{"type":"hashtag","offset":132,"length":9,"data":"удаленка"},{"type":"hashtag","offset":153,"length":7,"data":"полная"},{"type":"link","offset":192,"length":9,"data":"http://Sports.ru"},{"type":"link","offset":1338,"length":9,"data":"http://sports.ru"},{"type":"link","offset":2913,"length":9,"data":"http://Sports.ru"},{"type":"handle","offset":2973,"length":10,"data":"pbuyatova"}],"date":"2020-06-29T15:38:06+00:00","link":"tg://resolve?domain=gogetajobfeed&post=342","tags":[{"name":"go"},{"name":"php"},{"name":"graphql"},{"name":"web"},{"name":"ios"},{"name":"android"},{"name":"json"},{"name":"docker"},{"name":"kubernetes"},{"name":"gitlab"},{"name":"elasticsearch"},{"name":"postgresql"},{"name":"mysql"},{"name":"rabbitmq"},{"name":"redis"},{"name":"sql"}],"cities":[{"code":"moscow"}],"allowsRemote":true}},{"node":{"__typename":"Job","id":"108252889088-1001119539411","title":".net разработчик","text":"#вакансия #fulltime #офис #remote \n\nЛокация: Казань, ст. м. Козья Слобода; Иннополис;\nФормат работы: офис или remote, фуллтайм \nЗанятость: полная, гибкое начало дня\nЗП: до 160 000 Net \n\n🚀Компания Ак Барс Цифровые Технологии запускает новый большой проект по трансформации архитектуры розничного бизнеса (физические лица) и переезд всех процессов на новую технологическую платформу. В рамках проекта будет сформировано 8 команд, занимающихся разными задачами по платежным решениям, каталогам продуктов, работой с электронными досье клиента, операционному обслуживанию и др.\n\nВ связи с чем компания в поисках Middle .Net разработчиков с коммерческим опытом работы от 2 лет. \n\nСтек технологий: C#, ASP.NET MVC / Core, Web API, MS SQLServer / PostgreSql, Entity Framework, JS /React, RabbitMQ\n\n✅Ребята ищут специалиста с опытом разработки веб-платформ, которому знаком .NET, ASP.NET Core, MS SQL Server. Команды гибко рассматривают кандидатов, готовы обучать и делиться опытом. \n\n✅АК Барс Цифровые технологии предлагают отличные условия:\n- официальное оформление и полностью белую зп;\n- гибкий график работы, позитивная атмосфера, дружный молодой коллектив;\n- возможность работать удаленно или в комфортном офисе в Казани;\n- помощь с релокацией, если вы из другого города; \n- возможность быстро «прокачаться» в скиллах на интересных проектах и другие приятные плюшки и бонусы.\n\nКонтакты:\ne-mail: valeriya@luckyhunter.io\ntelegram: @sobolevavalery\nБуду рада ответить на все вопросы и комментарии! 😊","markup":[{"type":"hashtag","offset":0,"length":9,"data":"вакансия"},{"type":"hashtag","offset":10,"length":9,"data":"fulltime"},{"type":"hashtag","offset":20,"length":5,"data":"офис"},{"type":"hashtag","offset":26,"length":7,"data":"remote"},{"type":"bold","offset":675,"length":15,"data":""},{"type":"link","offset":696,"length":7,"data":"http://ASP.NET"},{"type":"link","offset":872,"length":7,"data":"http://ASP.NET"},{"type":"link","offset":1393,"length":23,"data":"mailto:valeriya@luckyhunter.io"},{"type":"handle","offset":1427,"length":15,"data":"sobolevavalery"}],"date":"2020-06-29T15:13:52+00:00","link":"tg://resolve?domain=microsoftstackjobs&post=103238","tags":[{"name":"dotnet"},{"name":"csharp"},{"name":"web"},{"name":"sql-server"},{"name":"postgresql"},{"name":"reactjs"},{"name":"rabbitmq"},{"name":"sql"},{"name":"asp-net"},{"name":"entity-framework"},{"name":"net-core"},{"name":"asp-net-mvc"},{"name":"asp-net-core"}],"cities":[{"code":"kazan"}],"allowsRemote":true}},{"node":{"__typename":"Job","id":"1763704832-1001091028994","title":"Java разработчик","text":"#Java #developer #Сочи #fulltime #работа #офис \n\nВакансия: Java-разработчик\n\nГород: Сочи\n\nФормат работы: офис\n\nЗанятость: fulltimе\n\nЗарплатная вилка: от 130 000 до 150 000 рублей\n\nОписание вакансии:\nСоздание системы по управлению метаданными компании. Работа в кроссфункциональной команде в составе до 10 человек\n\nНазвание компании: ОЦРВ\n\nПримерный пул задач:\n•  Разработка системы по управлению метаданными\n•  Участие в построение архитектуры решения\n•  Разработка интеграционных сценариев с другими системами\n•  Подготовка инструкций и документации\n\n\nНаши требования к кандидату: \n•  Аналитическое мышление, понимание работы алгоритмов, структур данных и оптимизации работы приложений\n•  Понимание паттернов проектирования, умение писать чистый читаемый код\n•  Знание Java SE (Core, Servlets, Exceptions)\n•  Опыт работы с Spring Framework (Boot, MVC, Data, Security), Hibernate ORM\n•  Опыт работы с веб-сервисами (SOAP, REST)\n•  Опыт работы с микросервисной архитектурой\n•  Опыт работы и развертывания приложений под Linux\n•  Опыт работы с очередями и брокерами сообщений (Kafka, Rabbit, ActiveMQ)\n•  Знание SQL\n•  Опыт работы с инструментами сборки Maven, Gradle\n•  Опыт работы с GIT\n\nБудет плюсом\n•  Опыт написания скриптов автоматизации для CI/CD (bash, python, Java, Groovy)\n•  Опыт работы с базами данных NoSQL (Janus Graph, HBase, Cassandra)\n•  Навыки frontend-разработки (HTML, CSS, React/Vue.js)\n•  Опыт работы с системами BPM или СЭД (Spring Activity, Camunda)\n•  Опыт работы с Apache Atlas, ODPi Egeria\n\n\n\nНаш стек:\nБек: Java 8-11, Spring, PostgreSQL/HBase/MongoDB/JanusGraph, GIT, Docker, Kubernetes, Kafka\nФронт: Vue.js\n\nУсловия: \n•  Офис в Адлере в 10 минутах до моря\n•  Оклад: 130 000 - 150 000 руб. gross\n•  Компенсация проживания 20 000 руб. gross в месяц (для кандидатов из других регионов)\n•  Релокационный бонус в размере оклада (для кандидатов из других регионов)\n•  Премия до 30% годового оклада\n•  Работа в динамичной команде единомышленников\n•  Компенсация ДМС после прохождения испытательного срока\n•  Скидки на ДМС для родственников\n•  Компенсация мобильной связи\n•  Новейшее оборудование и просторный офис\n•  Лучшая экология и климат в России\n•  Море и горнолыжный курорт рядом\n\n\nКомпания: ОЦРВ\nСайт: http://www.ocrv.ru/\nКонтакты: @Mirovan","markup":[{"type":"hashtag","offset":0,"length":5,"data":"Java"},{"type":"hashtag","offset":6,"length":10,"data":"developer"},{"type":"hashtag","offset":17,"length":5,"data":"Сочи"},{"type":"hashtag","offset":23,"length":9,"data":"fulltime"},{"type":"hashtag","offset":33,"length":7,"data":"работа"},{"type":"hashtag","offset":41,"length":5,"data":"офис"},{"type":"link","offset":2229,"length":19,"data":"http://www.ocrv.ru/"},{"type":"handle","offset":2259,"length":8,"data":"Mirovan"}],"date":"2020-06-29T11:37:47+00:00","link":"tg://resolve?domain=jvmjobs&post=1682","tags":[{"name":"java"},{"name":"jvm"},{"name":"spring"},{"name":"hibernate"},{"name":"orm"},{"name":"soap"},{"name":"rest"},{"name":"linux"},{"name":"kafka"},{"name":"rabbitmq"},{"name":"sql"},{"name":"maven"},{"name":"gradle"},{"name":"git"},{"name":"bash"},{"name":"python"},{"name":"groovy"},{"name":"nosql"},{"name":"hbase"},{"name":"cassandra"},{"name":"html"},{"name":"css"},{"name":"reactjs"},{"name":"vuejs"},{"name":"apache"},{"name":"postgresql"},{"name":"mongodb"},{"name":"docker"},{"name":"kubernetes"}],"cities":[{"code":"sochi"}],"allowsRemote":false}},{"node":{"__typename":"Job","id":"1760559104-1001091028994","title":"Java разработчик","text":"#вакансия #удаленка #Java\n\nВакансия: Backend Java разработчик (middle, senior)\n\nЛокация: #Москва #удаленка\nВилка по ЗП: middle до 170 000 net, senior до 200 000 net)\nКонтакт: @Hr_Dina\nОсновной проект: Разработка подсистемы обеспечения юридической значимости электронного документооборота.\nСтек технологий: Java 11, Spring (Core, Boot, Security, Data), JPA (Hibernate), PostgreSQL, Angular, Ant-design, Docker.\n\nЧто нужно делать:\nBack-end - разработка проектов разных масштабов и направленности, в том числе проектов с \"нуля\"\nРефакторинг, оптимизация и модернизация кода существующих проектов\nУчастие в разработке архитектуры проекта\nРабота с разными проектными командами архитекторов, разработчиков и тестировщиков\n\nЧто мы ждем от вас:\nОпыт работы (обязательный):\nОпыт коммерческой разработки на Java от 3х лет.\nОпыт работы (желательный):\nОпыт разработки высоконагруженных приложений на Java от 1го года.\n\nНавыки (обязательные):\n- Java SE 8+ (Core, Collections, Multithreading);\n- Spring (Core, Boot, Security, Data);\n- ORM: Hibernate/JOOQ;\n- Кеши (Ehcache/Redis/Hazelcast/Ignite/GridGain/etc);\n- Очереди (Kafka/RabbitMQ/ActiveMQ/etc);\n- Проектирование REST API (Swagger);\n- БазыданныхPostgre/Oracle\n- Maven, Git\n\nНавыки (желательные):\n- OAuth, OpenId, SSO/SAML, WS-Security, PKI, Kerberos;\n- Docker\n- GitLab, Sonar","markup":[{"type":"hashtag","offset":0,"length":9,"data":"вакансия"},{"type":"hashtag","offset":10,"length":9,"data":"удаленка"},{"type":"hashtag","offset":20,"length":5,"data":"Java"},{"type":"bold","offset":27,"length":9,"data":""},{"type":"bold","offset":80,"length":8,"data":""},{"type":"hashtag","offset":89,"length":7,"data":"Москва"},{"type":"hashtag","offset":97,"length":9,"data":"удаленка"},{"type":"bold","offset":107,"length":12,"data":""},{"type":"bold","offset":166,"length":8,"data":""},{"type":"handle","offset":175,"length":8,"data":"Hr_Dina"},{"type":"bold","offset":184,"length":16,"data":""},{"type":"bold","offset":289,"length":16,"data":""},{"type":"bold","offset":411,"length":18,"data":""},{"type":"bold","offset":716,"length":20,"data":""},{"type":"bold","offset":906,"length":23,"data":""},{"type":"bold","offset":1214,"length":22,"data":""}],"date":"2020-06-29T11:03:15+00:00","link":"tg://resolve?domain=jvmjobs&post=1679","tags":[{"name":"java"},{"name":"jvm"},{"name":"dotnet"},{"name":"spring"},{"name":"jpa"},{"name":"hibernate"},{"name":"postgresql"},{"name":"angularjs"},{"name":"ant"},{"name":"docker"},{"name":"orm"},{"name":"redis"},{"name":"kafka"},{"name":"rabbitmq"},{"name":"rest"},{"name":"swagger"},{"name":"oracle"},{"name":"maven"},{"name":"git"},{"name":"oauth"},{"name":"gitlab"}],"cities":[{"code":"moscow"}],"allowsRemote":true}},{"node":{"__typename":"Job","id":"357564416-1001352129329","title":"Golang разработчик","text":"#вакансия #golang #fulltime #office #junior #middle\n\nДобрый день.\nВакансия: Golang разработчик \nУровень: джун->мидл\nЗанятость: полная\nФормат работы: офис\nМесто работы: Москва, м. Сухаревская\nКомпания:  pharmaspace.ru\nПродукт: маркетплейс фармакологической тематики .\nЗП: от 130 000 до 150 000 net.\nОформление по ТК РФ\n\nМикросервисная архитектура.\n\nСтек\nGolang, NodeJS, Redis, RabbitMQ, ElasticSearch, MongoDB, ClickHouse, GitLab, Docker, Kubernetes, React\n\nЧто мы ждём от вас\n- опыт работы с GoLang \n- опыт работы с MongoDB\n- умеете пользоваться Git\n\nКонтакт: @irarudakova","markup":[{"type":"hashtag","offset":0,"length":9,"data":"вакансия"},{"type":"hashtag","offset":10,"length":7,"data":"golang"},{"type":"hashtag","offset":18,"length":9,"data":"fulltime"},{"type":"hashtag","offset":28,"length":7,"data":"office"},{"type":"hashtag","offset":36,"length":7,"data":"junior"},{"type":"hashtag","offset":44,"length":7,"data":"middle"},{"type":"link","offset":202,"length":14,"data":"http://pharmaspace.ru"},{"type":"handle","offset":560,"length":12,"data":"irarudakova"}],"date":"2020-06-29T09:00:25+00:00","link":"tg://resolve?domain=gogetajobfeed&post=341","tags":[{"name":"go"},{"name":"dotnet"},{"name":"nodejs"},{"name":"redis"},{"name":"rabbitmq"},{"name":"elasticsearch"},{"name":"mongodb"},{"name":"gitlab"},{"name":"docker"},{"name":"kubernetes"},{"name":"reactjs"},{"name":"git"}],"cities":[{"code":"moscow"}],"allowsRemote":false}},{"node":{"__typename":"Job","id":"1747976192-1001091028994","title":"Java разработчик","text":"Вакансия: Архитектор системы\n \nПроект: Разрабатываем единый веб-терминал MOEX Treasury, который позволит получить быстрый и удобный доступ ко всем рынкам Московской Биржи, а также сервисам по управлению обеспечением и внебиржевым операциям. Это не просто веб-интерфейс к уже существующим торговым системам, а новая платформа, которая взаимодействует со всеми основными торговыми и бэк-офисными системами Биржи, которая сейчас начинает активно развиваться.\n \nТехнологический стек: Java 8, Spring (Spring Boot, Spring MVC), Hazelcast, WebSocket, RabbitMQ, Firebird (с переходом на PostgreSQL), в интеграционных решения REST API и JMS.\n\nЗадачи на проекте:\nРазработка стратегии технического развития платформы, объединяющей основные рынки и инструменты Московской Биржи;\nПроектирование сервисов и интерфейсов взаимодействия с учетом нефункциональных требований, надежности обратной совмести и т.д.;\nВзаимодействие с внутренними и внешними разработчиками для контроля реализации архитектурных решений;\nВзаимодействие с аналитиками и заказчиками для выработки оптимальных технологических решений.\n \nЧто мы ожидаем:\nЗнание теоретических основ и опыт проектирования и эксплуатации отказоустойчивых систем;\nЗнание принципов ООП и понимание паттернов проектирования;\nУмение создавать техническую документацию;\nТехнологии: HTTP, REST, WebSocket OpenAPI/Swagger, XML, XSD, JAVA, JSON, Apache Tomcat, RabbitMQ, Hazelcast, rdms;\nДополнительным плюсом является: знание протоколов FIX и FAST, работа в финансовой сфере, опыт проектирования брокерских систем.\n\nНаши условия работы:\n• Компания: ПАО Московская биржа (Компания, входящая в 500 - лучших работодателей мира по версии Forbes за 2019 год);\n• Офис в центре: г. Москва, м. Арбатская/Библиотека им. Ленина/Боровицкая/Александровский сад;\n• Занятость: полная, официальное оформление в штат компании (оформление онлайн);\n• Формат работы: современный  офис возле Кремля в шаговой доступности от метро (на данный момент работаем удаленно из дома);\n• ДМС: с первого рабочего дня;\n• Свой «корпоративный университет», собственный лекторий, широкие возможности обучения – как внутри, так и вне компании;\n• Уровень з/п:  300 - 350 тыс.руб. (gross) + годовой бонус (32% годового дохода);\n• Формат интервью: 1 -2 этапа онлайн интервью (60 минут).\n\nПишите в личку, отвечу на любые вопросы!\nКонтакты: @Sasha_P92\nAlexander.Panin@moex.com","markup":[{"type":"bold","offset":0,"length":28,"data":""},{"type":"bold","offset":31,"length":8,"data":""},{"type":"bold","offset":458,"length":22,"data":""},{"type":"bold","offset":634,"length":18,"data":""},{"type":"bold","offset":1093,"length":15,"data":""},{"type":"bold","offset":1544,"length":20,"data":""},{"type":"bold","offset":1838,"length":19,"data":""},{"type":"handle","offset":2328,"length":10,"data":"Sasha_P92"},{"type":"link","offset":2339,"length":24,"data":"mailto:Alexander.Panin@moex.com"}],"date":"2020-06-26T17:13:34+00:00","link":"tg://resolve?domain=jvmjobs&post=1667","tags":[{"name":"java"},{"name":"jvm"},{"name":"spring"},{"name":"websocket"},{"name":"rabbitmq"},{"name":"postgresql"},{"name":"rest"},{"name":"swagger"},{"name":"xml"},{"name":"xsd"},{"name":"json"},{"name":"apache"},{"name":"tomcat"},{"name":"spring-boot"},{"name":"spring-mvc"}],"cities":[{"code":"moscow"}],"allowsRemote":true}},{"node":{"__typename":"Job","id":"1746927616-1001091028994","title":"Java developer","text":"Вакансия: Java developer \n \nПроект: Разрабатываем единый веб-терминал MOEX Treasury, который позволит получить быстрый и удобный доступ ко всем рынкам Московской Биржи, а также сервисам по управлению обеспечением и внебиржевым операциям. Это не просто веб-интерфейс к уже существующим торговым системам, а новая платформа, которая взаимодействует со всеми основными торговыми и бэк-офисными системами Биржи, которая сейчас начинает активно развиваться.\n \nТехнологический стек на проекте: Java 8, Spring (Spring Boot, Spring MVC), Hazelcast, WebSocket, RabbitMQ, Firebird (с переходом на PostgreSQL), в интеграционных решения REST API и JMS.\n \nЗадачи на проекте:\n Участие в проекте по разработке платформы, объединяющей основные рынки и инструменты Московской Биржи;\n Разработка и отладка модулей платформы;\n Интеграция приложения с внешними и внутренними сервисами;\n Написание понятного и стабильно работающего кода;\n Активное взаимодействие со специалистами из смежных подразделений;\n Поиск и аргументация технически эффективных путей решения бизнес задач;\n Умение и желание писать чистый и понятный код;\n Навык написания unit и интеграционных тестов на Java;\n Паттерны проектирования.\n\nЧто ожидаем от Вас:\n Опыт промышленной разработки (от 3 лет);\n\nФундаментальные знания принципов построения распределенных систем;\n Уверенные знания core Java;\n Опыт разработки веб-сервисов;\n Знание паттернов проектирования;\n Применение практик TDD, DDD, CI/CD.\n\nНаши условия работы:\n• Компания: ПАО Московская биржа (Компания, входящая в 500 - лучших работодателей мира по версии Forbes за 2019 год);\n• Офис в центре: г. Москва, м. Арбатская/Библиотека им. Ленина/Боровицкая/Александровский сад;\n• Занятость: полная, официальное оформление в штат компании (оформление онлайн);\n• Формат работы: современный  офис возле Кремля в шаговой доступности от метро (на данный момент работаем удаленно из дома);\n• ДМС: с первого рабочего дня;\n• Свой «корпоративный университет», собственный лекторий, широкие возможности обучения – как внутри, так и вне компании;\n• Уровень з/п:  230 - 290 тыс.руб. (gross) + годовой бонус (25% от годового дохода);\n• Формат интервью: 1 этап онлайн интервью (60 минут).\n\nПишите в личку, отвечу на любые вопросы!\nКонтакты: @Sasha_P92\nAlexander.Panin@moex.com","markup":[{"type":"bold","offset":0,"length":25,"data":""},{"type":"bold","offset":28,"length":8,"data":""},{"type":"bold","offset":455,"length":33,"data":""},{"type":"bold","offset":643,"length":18,"data":""},{"type":"bold","offset":1188,"length":19,"data":""},{"type":"bold","offset":1450,"length":20,"data":""},{"type":"bold","offset":1744,"length":19,"data":""},{"type":"handle","offset":2233,"length":10,"data":"Sasha_P92"},{"type":"link","offset":2244,"length":24,"data":"mailto:Alexander.Panin@moex.com"}],"date":"2020-06-26T17:13:07+00:00","link":"tg://resolve?domain=jvmjobs&post=1666","tags":[{"name":"java"},{"name":"jvm"},{"name":"spring"},{"name":"websocket"},{"name":"rabbitmq"},{"name":"postgresql"},{"name":"rest"},{"name":"spring-boot"},{"name":"spring-mvc"}],"cities":[{"code":"moscow"}],"allowsRemote":true}},{"node":{"__typename":"Job","id":"1741684736-1001091028994","title":"Java разработчик","text":"#вакансия #java #teamlead #javateamlead #москва #мск\n\nTeam Lead Java\nКомпания: Srgroup\nЛокация: офис\nЗанятость: fulltime \nЗ/п: 280-350к net \nКонтакты: @observer69 \n\nНаши роботы не только полностью автоматически оценивают квартиры, но также помогают аналитикам работать с уникальными объектами на рынке, выявлять случаи мошенничества, оценивать коммерческую недвижимость.\n\nЗадачи\n1. Управлять  Java-командой;\n2. Детализировать и оценивать задачи на основе бизнес постановок;\n3. Участвовать в формировании спринта;\n4. Решать архитектурно и технически сложные задачи;\n5. Code review;\nСовершенствовать процессы разработки;\n6. Развивать скилы разработчиков.\n\nТребования\n● Более 3-х лет разрабатывать коммерческие продукты на Java;\n● Интерес к BigData;\n● Spring, Spring-boot, Spring data, Hibernate, Redis, плюсом MongoDB и RabbitMQ;\n● Пишете быстрые и красивые запросы к БД и понимаете в индексах;\n● Почему и когда нужно писать простой, расширяемый и производительный код;\n● Владеете Mercurial, Gradle, Jira, Jenkins\n\nУсловия\n● Все по ТК РФ;\n● Белая ЗП;\n● Комфортная рабочая среда;\n● Гибкое начало дня;\n● Офис БЦ \"Пальмира\", м. \n Бауманская/Электрозаводская","markup":[{"type":"hashtag","offset":0,"length":9,"data":"вакансия"},{"type":"hashtag","offset":10,"length":5,"data":"java"},{"type":"hashtag","offset":16,"length":9,"data":"teamlead"},{"type":"hashtag","offset":26,"length":13,"data":"javateamlead"},{"type":"hashtag","offset":40,"length":7,"data":"москва"},{"type":"hashtag","offset":48,"length":4,"data":"мск"},{"type":"bold","offset":54,"length":24,"data":""},{"type":"bold","offset":87,"length":8,"data":""},{"type":"bold","offset":101,"length":10,"data":""},{"type":"bold","offset":122,"length":4,"data":""},{"type":"bold","offset":141,"length":9,"data":""},{"type":"handle","offset":151,"length":11,"data":"observer69"},{"type":"bold","offset":372,"length":9,"data":""},{"type":"bold","offset":408,"length":2,"data":""},{"type":"bold","offset":474,"length":2,"data":""},{"type":"bold","offset":513,"length":2,"data":""},{"type":"bold","offset":565,"length":2,"data":""},{"type":"bold","offset":619,"length":3,"data":""},{"type":"bold","offset":654,"length":11,"data":""},{"type":"bold","offset":1013,"length":8,"data":""}],"date":"2020-06-26T06:42:50+00:00","link":"tg://resolve?domain=jvmjobs&post=1661","tags":[{"name":"java"},{"name":"jvm"},{"name":"dotnet"},{"name":"spring"},{"name":"hibernate"},{"name":"redis"},{"name":"mongodb"},{"name":"rabbitmq"},{"name":"mercurial"},{"name":"gradle"},{"name":"jenkins"},{"name":"spring-boot"},{"name":"spring-data"}],"cities":[{"code":"moscow"}],"allowsRemote":false}}]}}},"context":{}}