{"hash":"f34fd2c444a074f4e0e67d525015a008ef8e766f","data":{"records":{"id":"sql","name":"sql","belongsTo":{"totalCount":108,"pageInfo":{"totalPages":11,"currentPage":7},"edges":[{"node":{"__typename":"Job","id":"23910678528-1001075660570","title":"Php developer","text":"#вакансия #удаленка #webdeveloper\nМы интернет-агентство https://zelo.agency/\nОсновные задачи для решения которых нам нужен коллега на долгосрочное сотрудничество:\n\nСоздание от лендингов до корпоративных сайтов на стеке технологий\nВнесение изменений на сайты клиентов согласно заданиям SЕО-специалиста\nТехническая оптимизация сайтов и устранение ошибок\nУчастие в процессе улучшения юзабилити.\n\nТребования:\nХорошее знание PHP, JS\nОпыт работы с современными CMS.\nБазовые знания SQL.\nЗнание HTML/CSS.\nУмение оценивать сложность‚ соблюдать сроки.\nНесомненными плюсами будут:\nОпыт работы с Git.\nЗнание фреймворков\n\nДостойный фикс + премия до 40.000\nКонтакт @nefertiti_ru","markup":[{"type":"hashtag","offset":0,"length":9,"data":"вакансия"},{"type":"hashtag","offset":10,"length":9,"data":"удаленка"},{"type":"hashtag","offset":20,"length":13,"data":"webdeveloper"},{"type":"link","offset":56,"length":20,"data":"https://zelo.agency/"},{"type":"handle","offset":651,"length":13,"data":"nefertiti_ru"}],"date":"2020-03-24T07:58:19+00:00","link":"tg://resolve?domain=php_jobs&post=22803","tags":[{"name":"php"},{"name":"sql"},{"name":"html"},{"name":"css"},{"name":"git"}],"cities":[],"allowsRemote":true}},{"node":{"__typename":"Job","id":"1375731712-1001091028994","title":"Java разработчик","text":"#Москва #java #еса #senior #middle\nГород и адрес офиса: Москва, м. Тульская, Новоданиловская наб, д.10\nФормат работы: офис (хотя в связи с последними событиями может быть и удалённо :)\nЗанятость: фулл тайм\nЗарплатная вилка: 150к-300к (в зависимости от навыков и знаний)\n\nЕдиный сервис аутентификации - это система, которая принимает решение о допуске клиентов через различные каналы обслуживания (веб, мобильное приложение, банкомат) к сервисам экосистемы Сбербанка. Система является высоконагруженной, так как одновременно может обслуживать более 10к операций в секунду.\n\nЗадачи:\n • разработка back-end web-приложения; \n • участие разработки архитектуры продукта;\n • участие в code review. \n\nОбязательно:\n· Опыт работы с Java от 2ух лет (хорошее знание core, Collections, jdbc, IO, Exceptions)\n· Опыт работы с системами сборки: maven или gradle\n· Опыт работы с БД, знание языка запросов SQL\n· Знакомство с ORM Hibernate\n\nБудет плюсом:\n· понимание многопоточности в Java;\n· знакомство со Spring Framework\n\nБонусы: \n • гибкое начало дня, отсутствие микроменеджмента и дресс-кода\n • отличная атмосфера в команде, способность слышать мнение каждого\n • современное железо (можно выбрать ноут MacOS или Windows) \n • возможность сменить проект\n • ДМС, спортзал, корпоративные мероприятия\n\nКонтакт: @hralexandra 📲","markup":[{"type":"hashtag","offset":0,"length":7,"data":"Москва"},{"type":"hashtag","offset":8,"length":5,"data":"java"},{"type":"hashtag","offset":14,"length":4,"data":"еса"},{"type":"hashtag","offset":19,"length":7,"data":"senior"},{"type":"hashtag","offset":27,"length":7,"data":"middle"},{"type":"handle","offset":1292,"length":12,"data":"hralexandra"}],"date":"2020-03-24T07:57:32+00:00","link":"tg://resolve?domain=jvmjobs&post=1312","tags":[{"name":"java"},{"name":"jvm"},{"name":"web"},{"name":"jdbc"},{"name":"maven"},{"name":"gradle"},{"name":"sql"},{"name":"orm"},{"name":"hibernate"},{"name":"spring"},{"name":"macos"},{"name":"windows"}],"cities":[{"code":"moscow"}],"allowsRemote":true}},{"node":{"__typename":"Job","id":"23908581376-1001075660570","title":"Php разработчик","text":"#вакансия #backend #москва #офис #fulltime #php #senior #lead\n\nМой дружище из Aorti.ru собирает группу разработчиков на PHP. Большой концерн, компания работает с гос заказчиком. Деньги есть, кризис не помеха. Да, в офис, но в небольшой. Не коронизируем :)\n\nИщем: \n1. Одного могучего Lead Backend Developer\n2. Двух крутых Senior Backend Developer\n3. Сурового (одного) Middle Backend Developer\n\nДанное боевое подразделение будет заниматься разработкой интерфейсов управления всяких интересных штук.\n\nКомпания: АО “РТИ”: https://hh.ru/employer/103944\nАдрес: Москва, М Динамо\nЗанятость: полная\nРежим работы: с 9-11 до 18-20, пятница -1 час\nЗарплатная вилка: 120 - 180 т.р. на руки (уже после вычета налогов)\nПлюс: чай, кофе, санитайзер и безлимитная туалетная бумага :-D\n\nОбщие требования / пожелания:\n- PHP 7 + опыт от 3-х лет\n- SQL (PostgreSQL и PL/pgSQL) от 3х лет \n- Опыт с ОС Linux. Умение работать в Unix-окружении\n- Нет страха перех унаследованным кодом\n- Удалось поработать с Jira, Confluence, GitLab\n- Приходилось писать документацию по своему коду\n- Английский уровня чтения тех документации\n- Опыт разработки Web Services, REST, Web API\n- Было время поработать с GIS и OGC-протоколами\n- Code review удается без истерик\n- Есть смелость общаться с Заказчиком\n- Плюсуют карту: Python 3.5.6,  Django, C++ 2011 и новее\n- Удалось посмотреть на Astra Linux\n- Сложилась картина мира как написать UNIT и интеграционные тесты\n- Не пугают слова “отладка и оптимизация”\n\n→ Контакт: @dspv1\n\nПрошу сразу: резюме, о себе, ссылка на git","markup":[{"type":"hashtag","offset":0,"length":9,"data":"вакансия"},{"type":"hashtag","offset":10,"length":8,"data":"backend"},{"type":"hashtag","offset":19,"length":7,"data":"москва"},{"type":"hashtag","offset":27,"length":5,"data":"офис"},{"type":"hashtag","offset":33,"length":9,"data":"fulltime"},{"type":"hashtag","offset":43,"length":4,"data":"php"},{"type":"hashtag","offset":48,"length":7,"data":"senior"},{"type":"hashtag","offset":56,"length":5,"data":"lead"},{"type":"link","offset":78,"length":8,"data":"https://hh.ru/employer/103944"},{"type":"bold","offset":257,"length":7,"data":""},{"type":"link","offset":518,"length":29,"data":"https://hh.ru/employer/103944"},{"type":"underline","offset":721,"length":10,"data":""},{"type":"underline","offset":734,"length":28,"data":""},{"type":"bold","offset":768,"length":30,"data":""},{"type":"handle","offset":1477,"length":6,"data":"dspv1"}],"date":"2020-03-24T03:41:58+00:00","link":"tg://resolve?domain=php_jobs&post=22801","tags":[{"name":"php"},{"name":"sql"},{"name":"postgresql"},{"name":"linux"},{"name":"unix"},{"name":"gitlab"},{"name":"web"},{"name":"rest"},{"name":"python"},{"name":"django"}],"cities":[{"code":"moscow"}],"allowsRemote":false}},{"node":{"__typename":"Job","id":"1373634560-1001091028994","title":"Java разработчик","text":"Вакансия: #java #spring #JPA #JEE7 #JSF #Apache #CXF #JUnit\nКомпания: #DigitalZone \nЛокация: #удаленнаяработа\nЗ/п: ставка 1200 руб/час\nКонтакты: @JuliaVlad\n\nКомпания Digital Zone — разработчик информационных систем полного цикла. \n\n‼️Сейчас мы ищем сильного Java специалиста для одного из ведущих поставщиков электронных платежных систем для мировой финансовой индустрии. Продукт - система SmartVista представляет собой единую технологическую платформу для процессинга пластиковых карт, обработки электронных платежей и поддержки операций розничного бизнеса.\n\nНеобходимо будет:\n🔹Разработка серверной и клиентской части приложений на Java с использованием технологий: Java, Spring, JPA, JEE7, JSF, Apache CXF, JUnit;\n🔹 Анализ и оптимизация существующего кода;\n🔹 Участие в архитектурных советах;\n🔹 Взаимодействие с сотрудниками других структурных подразделений компании для решения интеграционных задач;\n🔹 Взаимодействие с клиентами компании на уровне технических специалистов.\n\nТребуется:\n🔹 Программирование на Java от 5-ти лет;\n🔹 Spring MVC, Spring Boot и прочий Spring, JPA, глубокое знание Java Core, в т.ч. Java Concurrency, Collections;\n🔹 Опыт написания и развития больших приложений с высокой нагрузкой;\n🔹 Опыт решения проблем в enterprise-инфраструктуре;\n🔹 Отладка Java-приложений;\n🔹 Опыт работы с реляционными БД (базовый SQL, оптимизация планов выполнений SQL-запросов в Oracle);\n🔹 Умение работать с Maven, Git; \n🔹 Знания JUnit 4 / Mockito;\n🔹 Построение CI/CD-процессов;\n🔹 Взаимодействие с отделами тестирования, сопровождения, внедрения.\n\nМы предлагаем: \n🔹Оформление по ТК РФ с первого рабочего дня;\n🔹Ставка 1200 руб/час, полная занятость;\n🔹Компенсация занятий спортом, английским языком и проф.обучения;\n🔹Гибкий график работы и возможность работать удаленно;\n🔹Дружная команда;\n🔹Пересмотр заработной платы по итогам аттестации 2 раза в год;\n🔹Day-off - до 3 -х дней оплачиваемого больничного без предоставления больничного листа.","markup":[{"type":"hashtag","offset":10,"length":5,"data":"java"},{"type":"hashtag","offset":16,"length":7,"data":"spring"},{"type":"hashtag","offset":24,"length":4,"data":"JPA"},{"type":"hashtag","offset":29,"length":5,"data":"JEE7"},{"type":"hashtag","offset":35,"length":4,"data":"JSF"},{"type":"hashtag","offset":40,"length":7,"data":"Apache"},{"type":"hashtag","offset":48,"length":4,"data":"CXF"},{"type":"hashtag","offset":53,"length":6,"data":"JUnit"},{"type":"hashtag","offset":70,"length":12,"data":"DigitalZone"},{"type":"hashtag","offset":93,"length":16,"data":"удаленнаяработа"},{"type":"handle","offset":145,"length":10,"data":"JuliaVlad"}],"date":"2020-03-23T15:33:02+00:00","link":"tg://resolve?domain=jvmjobs&post=1310","tags":[{"name":"java"},{"name":"jvm"},{"name":"spring"},{"name":"jpa"},{"name":"jsf"},{"name":"apache"},{"name":"junit"},{"name":"sql"},{"name":"oracle"},{"name":"maven"},{"name":"git"},{"name":"spring-mvc"},{"name":"spring-boot"}],"cities":[],"allowsRemote":true}},{"node":{"__typename":"Job","id":"23900192768-1001075660570","title":"Php developer","text":"#вакансия #php #lead #fulltime #удалёнка \nГород и адрес офиса: Москва (м.Курская)\nНазвание компании: КА\nФормат работы: удаленно/офис \nЗанятость: полная\nЗарплатная вилка: от 150к до 220к net\n\nПривет я ищу Tech lead/Senior php developer. Проект -- платформа для чатботов и воронок продаж. Сейчас у платформы более 1000 пользователей, растет на 20% ежемесячно, в следующем году планируется запуск на глобальном рынке, срочно нужно усиление 🙂 \n\nЗадачи:\n- разработка архитектуры новой части проекта;\n- разработка backend на php;\n- code review, тесты.\n\nТребования:\n- опыт разработки на php от 3х лет;\n- опыт работы с SQL;\n- опыт с брокерами очередей, например RabbitMQ.\n\nБудет плюсом:\n- знание node.js и других языков программирования;\n- noSQL (у нас Cassandra).\n\nУсловия:\n- Белая з/п;\n- Офис в Москве (м.Курская), есть возможность работать удаленно;\n- Крутой продукт, которым ежедневно пользуются тысячи людей;\n- Классная команда;\n- Возможность быстрого карьерного роста и профессионального развития.\n\nКонтакты: @nat_kirisova","markup":[{"type":"hashtag","offset":0,"length":9,"data":"вакансия"},{"type":"hashtag","offset":10,"length":4,"data":"php"},{"type":"hashtag","offset":15,"length":5,"data":"lead"},{"type":"hashtag","offset":21,"length":9,"data":"fulltime"},{"type":"hashtag","offset":31,"length":9,"data":"удалёнка"},{"type":"handle","offset":1008,"length":13,"data":"nat_kirisova"}],"date":"2020-03-23T13:28:18+00:00","link":"tg://resolve?domain=php_jobs&post=22793","tags":[{"name":"php"},{"name":"dotnet"},{"name":"sql"},{"name":"rabbitmq"},{"name":"nodejs"},{"name":"nosql"},{"name":"cassandra"}],"cities":[{"code":"moscow"}],"allowsRemote":true}},{"node":{"__typename":"Job","id":"23898095616-1001075660570","title":"Php developer","text":"#вакансия #fullstack #PHP #senior #middle #fulltime #офис\n\nФормат работы: офис\nРасположение: Москва, м. Воробьевы горы\nЗанятость: полная, гибкое начало дня\nЗП: 2500 - 3500 евро на руки \n\n🔹 Кипрская компания Tradernet в поиске Fullstack developer (уровня от middle и выше). \n\nTradernet - это высоконагруженная трейдинговая онлайн платформа. Ежедневно на сервис поступает более 1,5 миллионов запросов. Ребята постоянно улучшают ядро платформы, делают все, чтобы все процессы были максимально производительными и быстрыми. Сейчас в команде 26 технических специалистов, каждый день они сталкиваются с действительно сложными алгоритмами и задачами. \n\nСтек проекта: PHP 7.3, Javascript, SQL (PostgreSQL, MySQL), apache, nginx, php-fpm. Задач на бек и фронт будет примерно 50 на 50.\n\n🔹 Требования:\n- Опыт разработки на PHP, Javascript от 2-ех лет;\n- Желателен опыт с высоконагруженными системами.\n\n🔹 Условия:\n- заработная плата в Евро;\n- компенсация занятий английским языком и частичная компенсация ДМС;\n- возможность принять участие в создании мирового продукта;\n- дружественная рабочая среда с возможностью карьерного и профессионального роста;\n- работать предстоит в уютном офисе в самом центре города (Нескучный сад). \n\n🔹 Контакты:\ne-mail: valeriya@luckyhunter.io\ntelegram: @sobolevavalery\nБуду рада ответить на все вопросы и комментарии 😊","markup":[{"type":"hashtag","offset":0,"length":9,"data":"вакансия"},{"type":"hashtag","offset":10,"length":10,"data":"fullstack"},{"type":"hashtag","offset":21,"length":4,"data":"PHP"},{"type":"hashtag","offset":26,"length":7,"data":"senior"},{"type":"hashtag","offset":34,"length":7,"data":"middle"},{"type":"hashtag","offset":42,"length":9,"data":"fulltime"},{"type":"hashtag","offset":52,"length":5,"data":"офис"},{"type":"link","offset":1242,"length":23,"data":"mailto:valeriya@luckyhunter.io"},{"type":"handle","offset":1276,"length":15,"data":"sobolevavalery"}],"date":"2020-03-23T12:26:03+00:00","link":"tg://resolve?domain=php_jobs&post=22791","tags":[{"name":"php"},{"name":"javascript"},{"name":"sql"},{"name":"postgresql"},{"name":"mysql"},{"name":"apache"},{"name":"nginx"}],"cities":[{"code":"moscow"}],"allowsRemote":false}},{"node":{"__typename":"Job","id":"1925185536-1001134745498","title":"Devops инженер","text":"#вакансия\nСистемный архитектор \nГород и адрес офиса:  г. Москва, по адресу ул. Гиляровского\nФормат работы: Офис/ удаленка\nЗанятость: полная \nЗарплатная вилка: от 280 000 рублей до 300 000 рублей (можно обсудить) \nОпыт работы: от 3-ех лет \nКомпания ЦТР, занимающаяся созданием инновационных продуктов и высокотехнологичных цифровых сервисов в сфере ритейла, ищет системного архитектора в свою команду. \nhttps://e-tag.pro/# \nЧто нужно делать: \n1. Проектировать архитектуру системы, организовать и проводить R&D. \n2. Построение архитектуры, включая: \n-Анализ требований к информационной системе. \n-Разработку концепций интеграции данных. \n-Взаимодействие компонентов и микросервисов. \n-Разработку технической и проектной документации. \n-Описание работы отдельных модулей и всей системы. \n-Разработку ключевых технических сценариев взаимодействия компонентов и микросервисов. \n-Выбор протоколов взаимодействия компонентов (проектирование технических интерфейсов). \nТребования к кандидату: \n-опыт работы *nix-системы от 5 лет (Linux, FreeBSD, Ubuntu, Debian); \n-масштабировании сложных систем потоковой обработки данных со стеком Spark, Python, Apache Kafka, PostgreSQL версии 11.00 или другой SQL Database. \n-опыт работы с микросервисной архитектурой, RESTfull API, контейнерной виртуализацией, асинхронными сообщениями и облачными технологиями, unit- и интеграционными тестами, многопоточностью; \nнавыки проектирования баз данных; \n-опыт работы в Jira, Confluence и так далее. \nУсловия: \n-официально оформление по ТК РФ \n-белая ЗП, от 280 000 рублей (можно обсудить) \n-работа в офисе или удаленно.\nКонтакт: @Galina_Ekimova\n\n—\n\n👉 Обсуждение вакансии в чате @devops_jobs","markup":[{"type":"hashtag","offset":0,"length":9,"data":"вакансия"},{"type":"link","offset":402,"length":19,"data":"https://e-tag.pro/#"},{"type":"handle","offset":1604,"length":15,"data":"Galina_Ekimova"},{"type":"handle","offset":1654,"length":12,"data":"devops_jobs"}],"date":"2020-03-23T07:48:13+00:00","link":"tg://resolve?domain=devops_jobs_feed&post=1836","tags":[{"name":"linux"},{"name":"ubuntu"},{"name":"debian"},{"name":"python"},{"name":"apache"},{"name":"kafka"},{"name":"postgresql"},{"name":"sql"}],"cities":[{"code":"moscow"}],"allowsRemote":true}},{"node":{"__typename":"Job","id":"1912602624-1001134745498","title":"Devops инженер","text":"Всем добрый день! Приглашаем в команду:\n\n#вакансия\n#DevOPS\n#backend #Москва #мТаганская\n#fulltime #офис\n#Зарплатная вилка от 165-210 net\n#высоконагруженные_сервисы\n\nпозиция DevOPS\nО проекте:\n • Надежность, стабильность,  скорость внедрения -  зависит от Вас.\n • Высоконагруженные сервисы\n • Разработка виртуальной мобильной связи\nЗадачи:\n • Обеспечение плановых задач администрирования\n • Взаимодействие  с командами разработки и эксплуатации\n • Обеспечение внедрения релизов\n • Совершенствование процессов внедрения\nУ Вас:\n • Опыт администрирования Unix/Linux\n • Опыт разворачивания и администрирования Java приложений\n • Опыт работы с SQL и/или noSQL БД\n • Умение написать запрос в БД\n • Знания сетевых технологий TCP/IP\n • Опыт программирования на скриптовых языках (shell, python, perl)\nМЫ ПРЕДЛАГАЕМ:\n •  Сильная команда разработчиков\n •  Официальное оформление (ДМС, английский, спорт)\n •  Офис в центре Москвы\n •  Профессиональное развитие и участие в разработке серьезного продукта.\n\n\nКонтакты @BetterCallOl\n\n—\n\n👉 Обсуждение вакансии в чате @devops_jobs","markup":[{"type":"hashtag","offset":41,"length":9,"data":"вакансия"},{"type":"hashtag","offset":51,"length":7,"data":"DevOPS"},{"type":"hashtag","offset":59,"length":8,"data":"backend"},{"type":"hashtag","offset":68,"length":7,"data":"Москва"},{"type":"hashtag","offset":76,"length":11,"data":"мТаганская"},{"type":"hashtag","offset":88,"length":9,"data":"fulltime"},{"type":"hashtag","offset":98,"length":5,"data":"офис"},{"type":"hashtag","offset":104,"length":11,"data":"Зарплатная"},{"type":"hashtag","offset":137,"length":26,"data":"высоконагруженные_сервисы"},{"type":"handle","offset":1002,"length":13,"data":"BetterCallOl"},{"type":"handle","offset":1050,"length":12,"data":"devops_jobs"}],"date":"2020-03-18T10:43:16+00:00","link":"tg://resolve?domain=devops_jobs_feed&post=1824","tags":[{"name":"dotnet"},{"name":"unix"},{"name":"linux"},{"name":"java"},{"name":"sql"},{"name":"nosql"},{"name":"shell"},{"name":"python"},{"name":"perl"}],"cities":[{"code":"moscow"}],"allowsRemote":false}},{"node":{"__typename":"Job","id":"1891631104-1001134745498","title":"Devops engineer","text":"#вакансия #fulltime #devops #удалёнка\n\n💫Компания: i-techlabs\n\nЯ ищу опытного DevOps Engineer на проект по созданию Playtech Open Platform (POP) и игровой платформы как услуги (GPAS). \nОбе платформы построены с использованием архитектуры реактивных микроуслуг и написаны на языке программирования Scala.\nОни используют базу данных No-SQL Couchbase для сохранения и хранения данных.\n\n☕️Условия:\n\n• Вилка по зп 150 000 р.-200 000+р.\n• Удалённая работа\n• Полный день\n• Гибкий график\n\n💻Требования:\n\n• Более 3 лет опыта в DevOps или администрировании Linux\n• Хороший набор навыков Linux\n• Опыт работы с контейнерами Docker (сборка и развертывание)\n• Навыки программирования на Python / Bash\n• Jenkins\n• Управление Java-приложениями\n• Intermediate English \n\n☎️ Контакт: @coderhunt\n\n—\n\n👉 Обсуждение вакансии в чате @devops_jobs","markup":[{"type":"hashtag","offset":0,"length":9,"data":"вакансия"},{"type":"hashtag","offset":10,"length":9,"data":"fulltime"},{"type":"hashtag","offset":20,"length":7,"data":"devops"},{"type":"hashtag","offset":28,"length":9,"data":"удалёнка"},{"type":"handle","offset":765,"length":10,"data":"coderhunt"},{"type":"handle","offset":810,"length":12,"data":"devops_jobs"}],"date":"2020-03-12T15:07:40+00:00","link":"tg://resolve?domain=devops_jobs_feed&post=1804","tags":[{"name":"scala"},{"name":"sql"},{"name":"linux"},{"name":"docker"},{"name":"python"},{"name":"bash"},{"name":"jenkins"},{"name":"java"}],"cities":[],"allowsRemote":true}},{"node":{"__typename":"Job","id":"244318208-1001352129329","title":"Golang developer","text":"#вакансия Golang developer \n#вакансия #работа #кипр #cyprus #fulltime #relocate #релокация #golang #developer \n \nКомпания: TrafficStars \nГород: Лимасcол, Кипр \nФормат работы: офис \nЗанятость: полная \nЗарплатная вилка: от 2500 до 3500 евро на руки \nЯзыки: русский, английский на уровне свободного чтения технической документации, митинги на русском \n \nОбязанности: Разработка серверной части высоконагруженной рекламной сети на Golang. \n \nТребования: \n•Опыт веб-разработки не менее 3 лет; \n•Знание паттернов программирования MVC, ООП; \n•Отличное знание Go; \n•Отличное знание сетевых протоколов; \n•Опыт работы с реляционными базами данных, хорошее знание SQL; \n•Опыт работы с NoSQL; \n•Опыт командной работы (трекеры, знание Git, понимание Git Flow); \n•Умение разбираться в чужом коде. \n   \nМы приветствуем: \n•Знание языков C/C++, Python, Java, Erlang, NodeJs; \n•Опыт работы с высокими нагрузками; \n•Любовь к деталям и желание делать хорошо свою работу, а не так чтобы “просто работало“; \n•Умение отстаивать свою позицию, при этом прислушиваться к другим мнениям и сообща находить компромисс; \n•Желание развиваться и постигать новое; \n•Ориентацию на результат. \n   \nМы предлагаем: \n•Релокационный пакет: \n - покупаем билеты до Кипра тебе и твоей  семье; \n - встречаем в аэропорту; \n - оформляем рабочую визу; \n - оплачиваем жильё на первый месяц; \n•Медицинская страховка для тебя и твоей семьи; \n•50% компенсация затрат на детский сад и школу; \n•Оплачиваемая мобильная связь; \n•Бесплатные и вкусные завтраки, обеды и напитки; \n•Фрукты, снэки и другие вкусняшки в офисе; \n•Рабочий компьютер/ноутбук на выбор: Mac или PC; \n•Корпоративные скидки (кафе, магазины и др); \n•Бесплатные абонементы в спортзал и занятия йогой; \n•Уроки английского и греческого языка; \n•Корпоративные вечеринки, тимбилдинги; \n•Корпоративные митапы и конференции; \n•Интересные проекты; \n•Приятная рабочая атмосфера. \n  \nПрисоединяйся к нашей молодой и талантливой команде! \n \nКонтакты: +35795588440 \ntelegram: sofia_tomashevich \ne-mail: sofia@trafficstars.com\n Автор @sofia_tomashevich","markup":[{"type":"hashtag","offset":0,"length":9,"data":"вакансия"},{"type":"hashtag","offset":28,"length":9,"data":"вакансия"},{"type":"hashtag","offset":38,"length":7,"data":"работа"},{"type":"hashtag","offset":46,"length":5,"data":"кипр"},{"type":"hashtag","offset":52,"length":7,"data":"cyprus"},{"type":"hashtag","offset":60,"length":9,"data":"fulltime"},{"type":"hashtag","offset":70,"length":9,"data":"relocate"},{"type":"hashtag","offset":80,"length":10,"data":"релокация"},{"type":"hashtag","offset":91,"length":7,"data":"golang"},{"type":"hashtag","offset":99,"length":10,"data":"developer"},{"type":"link","offset":1958,"length":12,"data":"tel:+35795588440"},{"type":"link","offset":2009,"length":22,"data":"mailto:sofia@trafficstars.com"},{"type":"handle","offset":2039,"length":18,"data":"sofia_tomashevich"}],"date":"2020-03-05T10:01:01+00:00","link":"tg://resolve?domain=gogetajobfeed&post=233","tags":[{"name":"go"},{"name":"sql"},{"name":"nosql"},{"name":"git"},{"name":"python"},{"name":"java"},{"name":"erlang"},{"name":"nodejs"}],"cities":[{"code":"sofia"}],"allowsRemote":false}}]}}},"context":{}}