{"hash":"f5f6bf98bd95e769321482904cbbd488f77922fd","data":{"records":{"id":"gulp","name":"gulp","belongsTo":{"totalCount":19,"pageInfo":{"totalPages":2,"currentPage":2},"edges":[{"node":{"__typename":"Job","id":"17103323136-1001110946746","title":"Js разработчик","text":"#вакансия #удаленно #удаленка #vue                                                                                                                                     Удаленная работа\nПолная занятость \nЗп От 100 000 до 200 000 ₽\n\nFrontend developer (VUE)\n\nКомпания «Averia Electronics» \n\nМы занимаемся разработкой потребительской носимой электроники (IoT, wearable), мобильных приложений и собственной ERP системы. \nВсе наши проекты так или иначе связаны с домашними питомцами и многие наши сотрудники, даже не вовлечённые в эту тему и не разделявшие наши интересы изначально, со временем заводят своих домашних любимцев. Общность наших с вами интересов будет ощутимым плюсом.                                                                                                                                                                                       \n                                                                                                                                                                                                                  Нам нужен  сильный  frontend  разработчик, умеющий решать нестандартные задачи. \n                                                                                                                                                                                                                 Наши продукты: \nI. CRM (ERP) для ветеринарных клиник и зоомагазинов. Мы строим свою сеть и чем стремительнее мы развиваем наш софт, тем стремительнее растёт наш бизнес. С нашей crm работает и медицинское оборудование через кроссплатформенную программу на Electron, благодаря чему вы сможете получить уникальный опыт по взаимодействию с медицинским оборудованием и его интеграции в единую экосистему.\nII. Averia.Collar – умный ошейник для собак, работающий по принципу Apple Watch через Bluetooth Low Energy. \nIII. Аверия.поиск — сервис помощи в поиске потерянных питомцев. \n                                                                                                                                                                                                       Обязательными навыками являются:\n•  JS (ES6, современный яваскрипт);\n•  Уверенное владение фрейворком  Vue.js;\n•  CSS / твердое знание одного из CSS-препроцессоров (SASS, LESS, Stylus). Мы предпочитаем SAS;\n•  Опыт работы с системами сборки проектов (webpack, gulp);\n•  Знание шаблонизоторов. Мы предпочитаем pug;\n•  GIT, git-flow;\n•  English (на уровне чтения документации и написания комментариев);\n•  Командная работа и умение оценивать трудозатраты.\nБольшим плюсом будет:\n•  advanced навыки в верстке, mobile\n•  Опыт автоматического тестирования\n•  Опыт backend разработки.\nУсловия работы: \n•  Удаленная работа;\n•  Полная занятость;\n•  Уровень заработной платы устанавливается индивидуально по итогам собеседования. \nКонтакты: Полина Храмцова, polina_hr@mail.ru, @polina_hr\n\n—\n\n👉 Обсуждение вакансии в чате @javascript_jobs","markup":[{"type":"hashtag","offset":0,"length":9,"data":"вакансия"},{"type":"hashtag","offset":10,"length":9,"data":"удаленно"},{"type":"hashtag","offset":20,"length":9,"data":"удаленка"},{"type":"hashtag","offset":30,"length":4,"data":"vue"},{"type":"link","offset":2881,"length":17,"data":"mailto:polina_hr@mail.ru"},{"type":"handle","offset":2900,"length":10,"data":"polina_hr"},{"type":"handle","offset":2945,"length":16,"data":"javascript_jobs"}],"date":"2020-06-22T11:04:20+00:00","link":"tg://resolve?domain=javascript_jobs_feed&post=16311","tags":[{"name":"javascript"},{"name":"vuejs"},{"name":"electron"},{"name":"css"},{"name":"sass"},{"name":"sas"},{"name":"webpack"},{"name":"gulp"},{"name":"git"},{"name":"mobile"}],"cities":[],"allowsRemote":true}},{"node":{"__typename":"Job","id":"26460815360-1001075660570","title":"Php разработчик","text":"#работа #вакансия #удаленка #job #РНР #Yii #Laravel #Symfony \n\nВсем привет! \n\nСейчас нахожусь в поисках РНР разработчика уровня senior в одну из крупнейших ecommerce компаний России - Bork/Technopark. \nНа текущий  момент внутри идет несколько проектов по поддержке и развитию интернет-площадки по продаже бытовой техники и электроники премиум-класса.\n\nПродукты реализуются на стеке: PHP (Yii2), MySql, JS (Vue), HTML, CSS, Gulp, Webpack, SVG, Canvas. \nЗадачи: разработка серверной части веб-проектов на всех этапах (от участия в проектировании архитектуры, до разработки сервисов), участие в митапах для обсуждения предстоящих задач, вносить вклад в планирование архитектуры и т.д.\n\nОсновные требования:\n\n- Опыт коммерческой разработки от 3 лет на PHP (7.1 или выше);\n\n- Хорошие знания современных фреймворков  (YII, Symfony);\n\n- Знание ООП, базовых алгоритмов, шаблонов проектирования, стандартов написания кода.\n\nУсловия: \n\n- ЗП до 250 000 net;\n\n- Полная УДАЛЁНКА; \n\n- Оформление через ИП или как самозанятый; \n\nКто заинтересовался - пишите в ЛС (@nastyaklassnaya),  буду рада пообщаться :)","markup":[{"type":"hashtag","offset":0,"length":7,"data":"работа"},{"type":"hashtag","offset":8,"length":9,"data":"вакансия"},{"type":"hashtag","offset":18,"length":9,"data":"удаленка"},{"type":"hashtag","offset":28,"length":4,"data":"job"},{"type":"hashtag","offset":33,"length":4,"data":"РНР"},{"type":"hashtag","offset":38,"length":4,"data":"Yii"},{"type":"hashtag","offset":43,"length":8,"data":"Laravel"},{"type":"hashtag","offset":52,"length":8,"data":"Symfony"},{"type":"handle","offset":1049,"length":16,"data":"nastyaklassnaya"}],"date":"2020-06-19T13:34:08+00:00","link":"tg://resolve?domain=php_jobs&post=25235","tags":[{"name":"php"},{"name":"yii"},{"name":"laravel"},{"name":"symfony"},{"name":"mysql"},{"name":"vuejs"},{"name":"html"},{"name":"css"},{"name":"gulp"},{"name":"webpack"},{"name":"svg"},{"name":"canvas"},{"name":"dotnet"}],"cities":[],"allowsRemote":true}},{"node":{"__typename":"Job","id":"17049845760-1001110946746","title":"Js разработчик","text":"#вакансия #frontend #vue #senior #middle #remote #офис #удаленка\n\nГород: Москва, м. Славянский бульвар\nФормат работы: офис, удаленное сотрудничество\nЗанятость: полная, гибкий график (обсуждаем)\nЗарплатная вилка: от 80 000 рублей до 240 000 рублей на руки\nНазвание компании: ФГБУ «ИАЦ МЧС России»\nКонтакты для связи: @mxrkin\n\nНа данный момент отдел разработки программного обеспечения формирует команду JS-разработчиков для поддержки существующих и реализации новых проектов.\n\nТребования для соискателей:\n— уверенные знания Javascript, знание стандартов ECMAScript;\n— знание и опыт применения фреймворка Vue.js и использование элементов экосистемы фреймворка (vuex, vue-router);\n— опыт использования систем сборки - webpack, gulp, parcel. Опыт написания конфигов для webpack;\n— владение препроцессорами CSS - SASS/LESS;\n— опыт использования Prettier, ESLint;\n— гражданство РФ (местонахождение так же РФ).\n\nПлюсом будет:\n— владение Node.js или знание других языков программирования;\n— активные профили в сообществах habrahabr, habr Q&A, участие в opensource проектах, активный профиль github;\n— опыт работы с библиотекой D3.js;\n— опыт работы с картографическими библиотеками.\n\nТрудоустройство официальное по ТК РФ, социальный пакет.\nНа территории имеется столовая для сотрудников, спортивные площадки, футбольное и баскетбольное поле.\nРабота не является государственной службой.\n\nСобеседование проходит в три этапа — общение с руководителем, выполнение тестового задания (простое задание на 15-30 минут), предложение сотрудничества. \n\nЕсли вас заинтересовала вакансия, обращайтесь в тг @mxrkin. Большим плюсом будет, если первым сообщением прикрепите резюме и поделитесь ссылками на проекты, в которых принимали активное участие, или ссылку на гитхаб с кодом, который, по-вашему мнению, сможет показать все ваши знания и навыки.\n\n—\n\n👉 Обсуждение вакансии в чате @javascript_jobs","markup":[{"type":"hashtag","offset":0,"length":9,"data":"вакансия"},{"type":"hashtag","offset":10,"length":9,"data":"frontend"},{"type":"hashtag","offset":20,"length":4,"data":"vue"},{"type":"hashtag","offset":25,"length":7,"data":"senior"},{"type":"hashtag","offset":33,"length":7,"data":"middle"},{"type":"hashtag","offset":41,"length":7,"data":"remote"},{"type":"hashtag","offset":49,"length":5,"data":"офис"},{"type":"hashtag","offset":55,"length":9,"data":"удаленка"},{"type":"handle","offset":316,"length":7,"data":"mxrkin"},{"type":"handle","offset":1584,"length":7,"data":"mxrkin"},{"type":"handle","offset":1861,"length":16,"data":"javascript_jobs"}],"date":"2020-06-18T21:02:31+00:00","link":"tg://resolve?domain=javascript_jobs_feed&post=0","tags":[{"name":"javascript"},{"name":"vuejs"},{"name":"webpack"},{"name":"gulp"},{"name":"css"},{"name":"sass"},{"name":"nodejs"},{"name":"github"}],"cities":[{"code":"moscow"}],"allowsRemote":true}},{"node":{"__typename":"Job","id":"26406289408-1001075660570","title":"Php разработчик","text":"#работа #вакансия #удаленка #job #РНР #Yii #Laravel #Symfony \n\nВсем привет! \n\nСейчас нахожусь в поисках РНР разработчика уровня senior в одну из крупнейших ecommerce компаний России - Bork/Technopark. \nНа текущий  момент внутри идет несколько проектов по поддержке и развитию интернет-площадки по продаже бытовой техники и электроники премиум-класса.\n\nПродукты реализуются на стеке: PHP (Yii2), MySql, JS (Vue), HTML, CSS, Gulp, Webpack, SVG, Canvas. \nЗадачи: разработка серверной части веб-проектов на всех этапах (от участия в проектировании архитектуры, до разработки сервисов), участие в митапах для обсуждения предстоящих задач, вносить вклад в планирование архитектуры и т.д.\n\nОсновные требования:\n\n- Опыт коммерческой разработки от 3 лет на PHP (7.1 или выше);\n\n- Хорошие знания современных фреймворков  (YII, Symfony);\n\n- Знание ООП, базовых алгоритмов, шаблонов проектирования, стандартов написания кода.\n\nУсловия: \n\n- ЗП до 250 000 net;\n\n- Полная УДАЛЁНКА; \n\n- Оформление через ИП или как самозанятый; \n\nКто заинтересовался - пишите в ЛС (@nastyaklassnaya),  буду рада пообщаться :)","markup":[{"type":"hashtag","offset":0,"length":7,"data":"работа"},{"type":"hashtag","offset":8,"length":9,"data":"вакансия"},{"type":"hashtag","offset":18,"length":9,"data":"удаленка"},{"type":"hashtag","offset":28,"length":4,"data":"job"},{"type":"hashtag","offset":33,"length":4,"data":"РНР"},{"type":"hashtag","offset":38,"length":4,"data":"Yii"},{"type":"hashtag","offset":43,"length":8,"data":"Laravel"},{"type":"hashtag","offset":52,"length":8,"data":"Symfony"},{"type":"handle","offset":1049,"length":16,"data":"nastyaklassnaya"}],"date":"2020-06-18T08:54:14+00:00","link":"tg://resolve?domain=php_jobs&post=25183","tags":[{"name":"php"},{"name":"yii"},{"name":"laravel"},{"name":"symfony"},{"name":"mysql"},{"name":"vuejs"},{"name":"html"},{"name":"css"},{"name":"gulp"},{"name":"webpack"},{"name":"svg"},{"name":"canvas"},{"name":"dotnet"}],"cities":[],"allowsRemote":true}},{"node":{"__typename":"Job","id":"17009999872-1001110946746","title":"Js разработчик","text":"#вакансия #удаленно #frontend #react\nКомпания - VMB\nГород - Москва \nМетро - Киевская\nФормат - удаленная работа \nГрафик - полный рабочий день \n\n📍Приглашаем middle/middle + frontend разработчика развивать социальный и известный проект \n📍Что нужно? \nзнание React и TypeScript;\nотличное владение чистым JS;\nхорошее знание Node.js и ES6;\nхорошее знание HTML и CSS;\nумение работать с Git;\nпонимание особенностей SPA-приложений.\n📍Плюсами будут:\nпонимание принципов разработки изоморфных приложений;\nопыт разработки под мобильные браузеры;\nзнакомство с Unix-системами;\nопыт написания тестов (юнит- или интеграционных);\nопыт работы с системами сборки (Webpack, Rollup, Gulp, Grunt и т. п.);\nопыт работы с системами непрерывной интеграции (TeamСity, Travis, Jenkins, Drone и т. п.).\n📍Что предлагаем?\nУдалённую занятость \nВозможность развиваться и развивать интересный проект\nЗП 150-200к рублей на руки \n\nКонтакты \n@nariarakel","markup":[{"type":"hashtag","offset":0,"length":9,"data":"вакансия"},{"type":"hashtag","offset":10,"length":9,"data":"удаленно"},{"type":"hashtag","offset":20,"length":9,"data":"frontend"},{"type":"hashtag","offset":30,"length":6,"data":"react"},{"type":"handle","offset":908,"length":11,"data":"nariarakel"}],"date":"2020-06-17T15:21:28+00:00","link":"tg://resolve?domain=javascript_jobs_feed&post=0","tags":[{"name":"javascript"},{"name":"reactjs"},{"name":"typescript"},{"name":"nodejs"},{"name":"html"},{"name":"css"},{"name":"git"},{"name":"unix"},{"name":"webpack"},{"name":"gulp"},{"name":"gruntjs"},{"name":"jenkins"}],"cities":[{"code":"moscow"},{"code":"kiev"}],"allowsRemote":true}},{"node":{"__typename":"Job","id":"16918773760-1001110946746","title":"Javascript разработчик","text":"#вакансия #midle #удаленно #parttime \nКомпания: AvtoTO.ru\nГород офиса: Ростов-на-Дону\nФормат работы: удаленно\nЗанятость: частичная, почасовка\nЗП: 40-80к руб. на руки\n\nКто: ищем уверенного мидла с перспективой фултайма для несложной работы, которую нужно выполнять в срок. Исполнительность и инициативность обязательное условие. Если ты уже не мидл, но не боишься простых задач - нам будет что обсудить.\n\nЧто: проект простой, gulp, scss, jquery, адаптив, docker, git Много планов на рефакторинг и новые подпроекты на реакте / вью.\n\nКонтакт: @eekos","markup":[{"type":"hashtag","offset":0,"length":9,"data":"вакансия"},{"type":"hashtag","offset":10,"length":6,"data":"midle"},{"type":"hashtag","offset":17,"length":9,"data":"удаленно"},{"type":"hashtag","offset":27,"length":9,"data":"parttime"},{"type":"link","offset":48,"length":9,"data":"http://AvtoTO.ru"},{"type":"handle","offset":540,"length":6,"data":"eekos"}],"date":"2020-06-15T09:15:01+00:00","link":"tg://resolve?domain=javascript_jobs_feed&post=0","tags":[{"name":"javascript"},{"name":"gulp"},{"name":"jquery"},{"name":"docker"},{"name":"git"}],"cities":[{"code":"rostov"}],"allowsRemote":true}},{"node":{"__typename":"Job","id":"26294091776-1001075660570","title":"Php разработчик","text":"#вакансия #удалённо #фронтенд #javascript #AngularJs #Symfony\n\nКомпания: Промрукав\nО компании: Компания «Промрукав» — это торгово-производственная организация, с 1999 года динамично развивающаяся на рынке кабеленесущих систем. \nФормат работы: удалённая работа, график работы 5/2, частичная занятость (<5 ч/день), по желанию возможна работа в офисе\nПроект: B2B Ecommerce\nЗаработная плата: от 50 000 и выше (на руки)\nЗадачи/Обязанности: \nПоддержка и развитие e-commerce проектов компании: b2b-платформа, сайт: \n- разработка новых сервисов компании\n- оптимизация и поддержка текущих продуктов\n- улучшать имеющийся функционал и разрабатывать новый \n- участвовать в принятии архитектурных решений\n- способного к эффективному взаимодействию удалённо или в офисе\n- чёткое следование установленным Вами же срокам \n- оперативное решение проблем   \nСтек: \n  LAMP/LEMP для оптовой онлайн торговли.\n  PHP 7, MySQL, Nginx, Nodejs\n  Фреймворки: Symfony (Symfony console component, Symfony process component, Swift Mailer)\n  Модульная сетка и внешний вид: gentelella\n  Фреймворки: bootstrap, AngularJs\n\nТребования:\n•  Опыт работы от 3х лет\n•  Уверенное знание , MySQL, OOP, Composer, Design patterns в целом, Git.  PHP 7 \n•  Навыки работы в Linux, Apache/nginx, Bootstrap (Gentelella), AngularJs, Nodejs (сборщик js -> gulp на nodejs работает + различные js компоненты). \n•  Приветствуются знания в области интеграции сайта с 1С (использование Web- и HTTP-сервисов) \n\nЧто предлагаем: \nМы не web-студия и не зарабатываем, продавая Ваши способности третьим лицам, поэтому для разработчика наши проекты — это возможность заниматься одним интересным делом без необходимости каждый раз вникать в новый проект и тонкости его работы. Преимущества работы у нас это:\n • стабильный ежемесячный заработок в формате удалённой работы с оформление по ТК; \n • небольшой, но очень дружный коллектив (ИТ-отдел);\n • один руководитель;  \n • возможность посещения всероссийских и международных IT-конференций;\n • возможность принимать участие в корпоративных мероприятиях (проезд оплачивается)\n\nКонтакт для связи: \nTelegram: @dnmit","markup":[{"type":"hashtag","offset":0,"length":9,"data":"вакансия"},{"type":"hashtag","offset":10,"length":9,"data":"удалённо"},{"type":"hashtag","offset":20,"length":9,"data":"фронтенд"},{"type":"hashtag","offset":30,"length":11,"data":"javascript"},{"type":"hashtag","offset":42,"length":10,"data":"AngularJs"},{"type":"hashtag","offset":53,"length":8,"data":"Symfony"},{"type":"handle","offset":2095,"length":6,"data":"dnmit"}],"date":"2020-06-14T14:06:14+00:00","link":"tg://resolve?domain=php_jobs&post=25076","tags":[{"name":"php"},{"name":"javascript"},{"name":"angularjs"},{"name":"symfony"},{"name":"mysql"},{"name":"nginx"},{"name":"nodejs"},{"name":"swift"},{"name":"bootstrap"},{"name":"git"},{"name":"linux"},{"name":"apache"},{"name":"gulp"},{"name":"web"}],"cities":[],"allowsRemote":true}},{"node":{"__typename":"Job","id":"16866344960-1001110946746","title":"Js программист","text":"#вакансия #middle #WordPress #fullstack\n\nГород и адрес офиса: Запорожье (Украина)\nФормат работы: удаленная работа\nЗанятость: полная\nЗарплатная вилка: от 600 до 1300 usd\n\nО нас:\nНебольшая команда, сконцентрирована на WordPress разработке и ищет в команду хорошего программиста на длительное время для работы с различными проектами.\n\nСпецифика:\n● Поддержка постоянных проектов, плюс разработка новых сайтов.      \n● Общение с клиентами, как направления, так и опосредованно.\n\nУровень задач:\nОт очень простых (добавить код /   пофиксить элемент) для полного цикла разработки.\nТипичная задача - преобразование готовой верстки (возможно, с поправками) на WP тему, написанные JS и PHP кода.\n\nПрофессиональные качества соискателя:\n● Страсть к разработке, хороший самоменеджмент, желание всегда писать лучший код, а не код, просто решает задачи; Умение быстро осваивать новую технологию или предметной области;      \n● Английский на уровне не менее B2;      \n● Уметь уверенно работать с git;      \n● Хорошее знание API WP - умение перенести верстку с нуля и минимумом плагинов; написать плагин с нуля, получать данные со стороннего API; Знание ACF; Умение настроить кэширование на различных уровнях; Знание базовых принципов обеспечения безопасности проекта;      \n● Хорошее знание Node.js и npm;      \n● Умение семантической станки без CSS-фреймворков. Уверенное знание flexbox, знание основных проблем кросс-браузерную верстки; Навыки работы с Less, Scss;      \n● Умение писать JS (ES-2015 +) без jQuery;      \n● Понимание принципов работы webpack, gulp; Умение писать и изменять их конфигурацию;      \n● Навыки работы с VPS через SSH;      \n● Понимание показателей, влияющих на PageSpeed и SEO;      \n\nБыло бы плюсом:\n● Понимание принципов a11y;      \n● Подтвержденный open source contribution, выступления на конференциях, митапах;      \n● Опыт работы с Ruby, Python / Vue.js, React.js, Angular;      \n● Хорошие навыки работы с PHPStorm;      \n\nПлюшки:\n● Удаленная работа.      \n● Реальные возможности карьерного роста.      \n● Зарплата по результатам собеседования с быстрой возможностью по пересмотру по результатам работы. \n\nНазвание компании: MaximumStart\n\nКонтакты: \n- Телеграм @polinasvetlaya\n- Email polina.dubovik@gmail.com\n\n—\n\n👉 Обсуждение вакансии в чате @javascript_jobs","markup":[{"type":"hashtag","offset":0,"length":9,"data":"вакансия"},{"type":"hashtag","offset":10,"length":7,"data":"middle"},{"type":"hashtag","offset":18,"length":10,"data":"WordPress"},{"type":"hashtag","offset":29,"length":10,"data":"fullstack"},{"type":"handle","offset":2179,"length":15,"data":"polinasvetlaya"},{"type":"link","offset":2203,"length":24,"data":"mailto:polina.dubovik@gmail.com"},{"type":"handle","offset":2262,"length":16,"data":"javascript_jobs"}],"date":"2020-06-12T10:38:58+00:00","link":"tg://resolve?domain=javascript_jobs_feed&post=16085","tags":[{"name":"javascript"},{"name":"wordpress"},{"name":"php"},{"name":"git"},{"name":"nodejs"},{"name":"npm"},{"name":"css"},{"name":"jquery"},{"name":"webpack"},{"name":"gulp"},{"name":"ssh"},{"name":"seo"},{"name":"ruby"},{"name":"python"},{"name":"vuejs"},{"name":"reactjs"},{"name":"angularjs"}],"cities":[],"allowsRemote":true}},{"node":{"__typename":"Job","id":"16859004928-1001110946746","title":"Js разработчик","text":"#вакансия #frontend #vue #senior #middle #remote #офис #удаленка\n\nГород: Москва, м. Славянский бульвар\nФормат работы: офис, удаленное сотрудничество\nЗанятость: полная, гибкий график (обсуждаем)\nЗарплатная вилка: от 80 000 рублей до 240 000 рублей на руки\nНазвание компании: ФГБУ «ИАЦ МЧС России»\nКонтакты для связи: @mxrkin\n\nНа данный момент отдел разработки программного обеспечения формирует команду JS-разработчиков для поддержки существующих и реализации новых проектов.\n\nТребования для соискателей:\n— уверенные знания Javascript, знание стандартов ECMAScript;\n— знание и опыт применения фреймворка Vue.js и использование элементов экосистемы фреймворка (vuex, vue-router);\n— опыт использования систем сборки - webpack, gulp, parcel. Опыт написания конфигов для webpack;\n— владение препроцессорами CSS - SASS/LESS;\n— опыт использования Prettier, ESLint;\n— гражданство РФ (местонахождение так же РФ).\n\nПлюсом будет:\n— владение Node.js или знание других языков программирования;\n— активные профили в сообществах habrahabr, habr Q&A, участие в opensource проектах, активный профиль github;\n— опыт работы с библиотекой D3.js;\n— опыт работы с картографическими библиотеками.\n\nТрудоустройство официальное по ТК РФ, социальный пакет.\nНа территории имеется столовая для сотрудников, спортивные площадки, футбольное и баскетбольное поле.\nРабота не является государственной службой.\n\nСобеседование проходит в три этапа — общение с руководителем, выполнение тестового задания (простое задание на 15-30 минут), предложение сотрудничества. \n\nЕсли вас заинтересовала вакансия, обращайтесь в тг @mxrkin. Большим плюсом будет, если первым сообщением прикрепите резюме и поделитесь ссылками на проекты, в которых принимали активное участие, или ссылку на гитхаб с кодом, который, по-вашему мнению, сможет показать все ваши знания и навыки.","markup":[{"type":"hashtag","offset":0,"length":9,"data":"вакансия"},{"type":"hashtag","offset":10,"length":9,"data":"frontend"},{"type":"hashtag","offset":20,"length":4,"data":"vue"},{"type":"hashtag","offset":25,"length":7,"data":"senior"},{"type":"hashtag","offset":33,"length":7,"data":"middle"},{"type":"hashtag","offset":41,"length":7,"data":"remote"},{"type":"hashtag","offset":49,"length":5,"data":"офис"},{"type":"hashtag","offset":55,"length":9,"data":"удаленка"},{"type":"handle","offset":316,"length":7,"data":"mxrkin"},{"type":"handle","offset":1584,"length":7,"data":"mxrkin"}],"date":"2020-06-11T20:24:35+00:00","link":"tg://resolve?domain=javascript_jobs_feed&post=16078","tags":[{"name":"javascript"},{"name":"vuejs"},{"name":"webpack"},{"name":"gulp"},{"name":"css"},{"name":"sass"},{"name":"nodejs"},{"name":"github"}],"cities":[{"code":"moscow"}],"allowsRemote":true}}]}}},"context":{}}