{"hash":"f34fd2c444a074f4e0e67d525015a008ef8e766f","data":{"records":{"id":"xml","name":"xml","belongsTo":{"totalCount":18,"pageInfo":{"totalPages":2,"currentPage":1},"edges":[{"node":{"__typename":"Job","id":"24359469056-1001075660570","title":"Php разработчик","text":"Ищем!\nPHP-разработчик fullstack удаленно\n\n#вакансия #удаленка #штат #PHP #fullstack\n\nЗАДАЧИ:\n🔹 разработка графических интерфейсов к информационным системам и сервисам компании;\n🔹 разработка микросервисов обработки сообщений и сбор статистики в БД;\n🔹 участие в проектировании программных решений и обсуждении архитектурных решений;\n🔹 работы по интеграции и разработке API взаимодействия сервисов как внутри компании, так и с партнерами.\n\nТРЕБОВАНИЯ:\n 🔹 Самостоятельный разработчик с отличным знанием: PHP, js, Ajax, jQuery, HTML, CSS;\n 🔹 MySQL, PostgreSQL, ClickHouse, Redis, MongoDB;\n 🔹 Linux;\n 🔹XML, JSON, SOAP, RabbitMQ;\n 🔹Symfony, Yuii, Laravel, Zend;\n 🔹 Bootstrap;\n 🔹 Средства визуализации данных, например, d3.js.\n\nБыло бы неплохо: \n🔹знание Nodejs, Python, LUA.\n🔹 опыт разработки мобильных приложений Android, IOS\n\nУСЛОВИЯ:\n🔹 работа в штате компании (основной профиль – разработка высокотехнологичных маркетинговых рассылок и чат-ботов);\n🔹 удаленная работа 5/2 с 10 до 19 (MSK);\n🔹ЗП 70-90k (обсуждается с успешными кандидатами).\n\nПишите сюда: @abezpalova","markup":[{"type":"bold","offset":6,"length":36,"data":""},{"type":"hashtag","offset":42,"length":9,"data":"вакансия"},{"type":"hashtag","offset":52,"length":9,"data":"удаленка"},{"type":"hashtag","offset":62,"length":5,"data":"штат"},{"type":"hashtag","offset":68,"length":4,"data":"PHP"},{"type":"hashtag","offset":73,"length":10,"data":"fullstack"},{"type":"bold","offset":85,"length":8,"data":""},{"type":"bold","offset":441,"length":12,"data":""},{"type":"bold","offset":833,"length":9,"data":""},{"type":"handle","offset":1064,"length":11,"data":"abezpalova"}],"date":"2020-04-10T09:33:14+00:00","link":"tg://resolve?domain=php_jobs&post=23231","tags":[{"name":"php"},{"name":"ajax"},{"name":"jquery"},{"name":"html"},{"name":"css"},{"name":"mysql"},{"name":"postgresql"},{"name":"redis"},{"name":"mongodb"},{"name":"linux"},{"name":"xml"},{"name":"json"},{"name":"soap"},{"name":"rabbitmq"},{"name":"symfony"},{"name":"laravel"},{"name":"zend-framework"},{"name":"bootstrap"},{"name":"nodejs"},{"name":"python"},{"name":"lua"},{"name":"android"},{"name":"ios"}],"cities":[],"allowsRemote":true}},{"node":{"__typename":"Job","id":"98267299840-1001089317451","title":"Qa инженер","text":"#вакансия #москва #fulltime #фуллтайм #офис #тестировщик #qa \n\nОнлайн-кинотеатр ivi\nСпециалист по тестированию клиентских приложений\nот 70 т.р. на руки \n\nОбязанности:\n• Тестировать приложения (веб, iOS, Android, Smart TV);\n• Дополнять и обновлять сценарии тестирования;\n• Функционально тестировать продукт по написанным сценариям;\n• Составлять отчеты о найденных ошибках в баг-трекере.\n\nТребования:\n• Наличие опыта в тестировании, интерес к работе тестировщика; \n• Понимание процессов dev и qa;\n• Понимание принципов работы web-сервисов (REST/SOAP);\n• Знание форматов обмена данными JSON/XML;\n• Умение понимать описания требований к функциям системы;\n• Умение составлять тест-кейсы по функционалу приложения;\n• Умение находить и документировать ошибки (опыт работы с системами баг-трекинга, системами управления требованиями).\n• Опыт работы в командной строке *nix и с Charles/Fiddler будут плюсом.\n\nУсловия:\n• Офис в 5 минутах ходьбы от м. \"Дмитровская\";\n• У нас гибкий график, мы начинаем до 11 часов дня;\n• Трудоустройство по ТК РФ;\n• ДМС + стоматология после прохождения испытательного срока;\n• Подписка на ivi;\n• Пакет релокации для соискателей со всей России.\n\nПишите @daria144, на почту dsereda@ivi.ru или откликайтесь здесь https://hh.ru/vacancy/35358938","markup":[{"type":"hashtag","offset":0,"length":9,"data":"вакансия"},{"type":"hashtag","offset":10,"length":7,"data":"москва"},{"type":"hashtag","offset":18,"length":9,"data":"fulltime"},{"type":"hashtag","offset":28,"length":9,"data":"фуллтайм"},{"type":"hashtag","offset":38,"length":5,"data":"офис"},{"type":"hashtag","offset":44,"length":12,"data":"тестировщик"},{"type":"hashtag","offset":57,"length":3,"data":"qa"},{"type":"bold","offset":62,"length":22,"data":""},{"type":"bold","offset":154,"length":13,"data":""},{"type":"bold","offset":387,"length":12,"data":""},{"type":"bold","offset":900,"length":9,"data":""},{"type":"handle","offset":1174,"length":9,"data":"daria144"},{"type":"link","offset":1194,"length":14,"data":"mailto:dsereda@ivi.ru"},{"type":"link","offset":1232,"length":30,"data":"https://hh.ru/vacancy/35358938"}],"date":"2020-04-09T08:22:45+00:00","link":"tg://resolve?domain=qa_jobs&post=93715","tags":[{"name":"qa"},{"name":"ios"},{"name":"android"},{"name":"web"},{"name":"rest"},{"name":"soap"},{"name":"json"},{"name":"xml"}],"cities":[{"code":"moscow"}],"allowsRemote":false}},{"node":{"__typename":"Job","id":"98105819136-1001089317451","title":"Qa инженер","text":"Web – тестировщик \n\nВсем привет!\n\n#вакансия #sbercloud #тестировщик #web #manual #ручноетестирование #ручное #сайт #москва #офис #мск \n\n🏢Компания: SberCloud\n🏙Город: Москва, м. Боровицкая, м. Библиотека им Ленина, м. Александровский сад\n💰Зп: от 100к (обсуждается по результатам собеседования)\n\nФормат работы: офис \nЗанятость: полная\n\nSberCloud – облачный провайдер Группы Сбербанк, предоставляющий услуги для бизнес-клиентов на базе технологий Группы Сбербанк, одной из крупнейших технологических экосистем в России. Предоставляя клиентам передовые облачные технологии, совместимые с привычной для их бизнеса архитектурой ИТ-приложений, мы делаем возможным технологический прорыв. Мы создаем облачную платформу SberCloud, используя многолетний опыт развития ИТ-инфраструктуры Группы Сбербанк, обеспечения ее надежности, безопасности и эффективности в условиях стремительно растущих нагрузок и темпа изменений.\n\nОбязанности:\n✔️ Проводить ручное тестирование\n✔️ Разрабатывать и поддерживать в актуальном состоянии тестовую документацию\n✔️ Работать с дефектами (обнаружение, анализ, контроль исправления)\n✔️ Взаимодействовать с другими отделами и членами команды для решения поставленных задач\n\nТребования:\n✔️Понимание теории тестирования\n✔️Опыт работы инженером по тестированию от 2 лет\n✔️Опыт тестирования WEB-приложений\n✔️Понимание технологий представления данных: HTML, JSON, XML\n\nБудет плюсом:\n✔️Понимание протоколов: HTTP/HTTPS\n✔️Знание языков программирования и фреймворков для автотестирования\n✔️Понимание основ информационной безопасности\n\nУсловия:\n✔️ Офис у м. Арбатская, Библиотека им Ленина, Боровицкая, Александровский сад;\n✔️ ДМС + стоматология;\n✔️ Корпоративные скидки для сотрудников Группы Сбербанк;\n✔️ Льготные условия для кредитования;\n✔️ Гибкое начало рабочего дня.\n\n📲Контакты: aosamarov@sbercloud.ru или в лс (в телеге)","markup":[{"type":"hashtag","offset":34,"length":9,"data":"вакансия"},{"type":"hashtag","offset":44,"length":10,"data":"sbercloud"},{"type":"hashtag","offset":55,"length":12,"data":"тестировщик"},{"type":"hashtag","offset":68,"length":4,"data":"web"},{"type":"hashtag","offset":73,"length":7,"data":"manual"},{"type":"hashtag","offset":81,"length":19,"data":"ручноетестирование"},{"type":"hashtag","offset":101,"length":7,"data":"ручное"},{"type":"hashtag","offset":109,"length":5,"data":"сайт"},{"type":"hashtag","offset":115,"length":7,"data":"москва"},{"type":"hashtag","offset":123,"length":5,"data":"офис"},{"type":"hashtag","offset":129,"length":4,"data":"мск"},{"type":"link","offset":1798,"length":22,"data":"mailto:aosamarov@sbercloud.ru"}],"date":"2020-04-07T07:02:42+00:00","link":"tg://resolve?domain=qa_jobs&post=0","tags":[{"name":"qa"},{"name":"web"},{"name":"html"},{"name":"json"},{"name":"xml"}],"cities":[{"code":"moscow"}],"allowsRemote":false}},{"node":{"__typename":"Job","id":"1414529024-1001091028994","title":"Java разработчик","text":"#senior #java #architect #москва \nГород: Москва\nФормат работы: офис\nЗанятость: Полная\nЗарплатная вилка: от 220 000 до 260 000\nКомпания «Performance Lab» — одна из лидирующих ИТ-компаний в России ищет в свою команду Архитектора Java на направление custom development. Нам нужен эксперт, которому интересно заниматься проектированием и разработкой, быть ответственным за результаты работы.\n❗️Обязанности:\n-Проводить анализ функциональных и нефункциональных требований заказчика совместно с группой аналитики.\n-Разрабатывать концепции, архитектурные решения и подходы к реализации.\n-Взаимодействовать с заказчиком, представлять и защищать свои архитектурные решения.\n-Быть лидером в проектной команде (планировать работу команды, проводить декомпозицию задач, отслеживать прогресс по выполнению задач, поддерживать рабочую атмосферу в команде).\n-Полностью отвечать за техническую составляющую и качество проекта.\n-Обеспечивать прозрачность и прогнозируемость работы проектной команды, отвечать за своевременный выпуск релизов.\n-Самому участвовать в разработке back-end’а, проводить code-review.\n-Принимать участие в согласовании и разработке технической документации.\n❗️Требования:\n-Обладает большим опытом backend-разработки на Java, уверенно владеет Java 8 и выше.\n-Отлично знает Spring (Core, Boot, MVC, JPA, Security) и Hibernate.\n-Отлично знает SQL и хотя бы одну реляционную СУБД.\n-Разбирается в технологиях: REST, gRPC, GraphQL, SOAP, XML, JSON, JWT, OAuth.\n-Имеет опыт разработки на микросервисной архитектуре, понимает ее плюсы и минусы, понимает как организовать взаимодействия микросервисов.\n-Работал с Apache Kafka, Rabbit MQ.\n-Уверенно владеет Git.\n-Уже управлял командой разработки от 3-х человек.\n-Может быть лидером в команде, вести за собой людей.\n❗️Будет плюсом:\n-Немного умеет в devops (построить CI/CD пайплайн, оптимизировать сборку docker-контейнеров, настроить nginx и тд).\n-Знает JavaScript и знаком с современными Frontend-фреймворками (если знаком с React, то совсем хорошо).\n-Умеет налаживать отношения с бизнес-заказчиками, умеет договариваться и искать компромиссы.\n❗️Условия:\n-Официальное трудоустройство по ТК, дополнительные выходные.\n-Белая зарплата.\n-Место работы: отличный офис на м. Парк победы, БЦ «Барклай плаза».\n 📩Контакты: @polinakokina","markup":[{"type":"hashtag","offset":0,"length":7,"data":"senior"},{"type":"hashtag","offset":8,"length":5,"data":"java"},{"type":"hashtag","offset":14,"length":10,"data":"architect"},{"type":"hashtag","offset":25,"length":7,"data":"москва"},{"type":"handle","offset":2262,"length":13,"data":"polinakokina"}],"date":"2020-04-02T14:38:38+00:00","link":"tg://resolve?domain=jvmjobs&post=1349","tags":[{"name":"java"},{"name":"jvm"},{"name":"spring"},{"name":"jpa"},{"name":"hibernate"},{"name":"sql"},{"name":"rest"},{"name":"graphql"},{"name":"soap"},{"name":"xml"},{"name":"json"},{"name":"jwt"},{"name":"oauth"},{"name":"apache"},{"name":"kafka"},{"name":"rabbitmq"},{"name":"git"},{"name":"docker"},{"name":"nginx"},{"name":"javascript"},{"name":"reactjs"}],"cities":[{"code":"moscow"}],"allowsRemote":false}},{"node":{"__typename":"Job","id":"1411383296-1001091028994","title":"Java разработчик","text":"Вакансия: #java #developer #senior #seniorjavadeveloper #офис\nКомпания: Fisgroup\nЛокация: #новосибирск #новосиб\nЗанятость: гибкий график\nЗ/п: 150 - 200К net\nКонтакты: @observer69\n\nCase Platform.\nОсновные продукты - кредитный фронт, управление рисками, системы по работе с просроченной задолженностью, системы принятия решений по кредитам, CRM-системы.\n\nЧем интересна наша вакансия:\n- достойный уровень заработной платы, обсудим ваши пожелания;\n- рост заработной платы вместе с ростом квалификации;\n- офис в Академпарке;\n- корпоративный транспорт\n- профессиональное развитие;\n- гибкий график;\n- доброжелательный коллектив;\n- веселые корпоративы в кругу коллег;\n\nВам предстоит:\n- анализ и уточнение требований к реализуемым задачам.\n- участие в разработке технических решений.\n- разработка и тестирование java-кода системы.\n- участие в документировании разработанной функциональности\n- анализ нетривиальных проблем возникающих у пользователей системы.\n- взаимодействие с другими участниками команды( java- и веб- разработчиками, тестировщиками) для обеспечения согласованности и качества разработки.\n- учет собственного рабочего времени.\n\nТребования: \n- понимание основ computer science (алгоритмы и структуры данных, вычислительная сложность, производительность, надежность...).\n- знание и умение применять шаблоны проектирования.\n- понимание принципов объектно-ориентированного программирования и дизайна.\n- понимание проблем параллельного программирования и способов их решения.\n- понимание основ криптографии и обеспечения безопасности данных.\n- умение диагностировать и решать проблемы производительности.\n- системное мышление.\n- знание платформы Java EE 6 и выше, опыт программирования на языке Java.\n- опыт работы с XML, JSON, ORM (JPA, Hibernate).\n- знание SQL (Oracle, PostgreSQL или любой другой диалект).\n- опыт командной работы.\n- опыт работы с системами контроля версий и автоматизации процесса разработки.\n\nБудет плюсом:\n-участие в разработке архитектуры систем;\n- профильное образование;\n- опыт участия в разработке сложных разнородных систем;\n- знание теории формальных языков и принципов построения трансляторов;\n- использование программных продуктов и инструментов для построения распределенных систем (кластеризация, микросервисы)\nПрофильное образование;\nОпыт участия в разработке сложных разнородных систем;\nЗнание теории формальных языков и принципов построения трансляторов;\nИспользование программных продуктов и инструментов для построения распределенных систем (кластеризация, микросервисы)","markup":[{"type":"hashtag","offset":10,"length":5,"data":"java"},{"type":"hashtag","offset":16,"length":10,"data":"developer"},{"type":"hashtag","offset":27,"length":7,"data":"senior"},{"type":"hashtag","offset":35,"length":20,"data":"seniorjavadeveloper"},{"type":"hashtag","offset":56,"length":5,"data":"офис"},{"type":"hashtag","offset":90,"length":12,"data":"новосибирск"},{"type":"hashtag","offset":103,"length":8,"data":"новосиб"},{"type":"handle","offset":167,"length":11,"data":"observer69"}],"date":"2020-04-02T12:26:58+00:00","link":"tg://resolve?domain=jvmjobs&post=1346","tags":[{"name":"java"},{"name":"jvm"},{"name":"dotnet"},{"name":"xml"},{"name":"json"},{"name":"orm"},{"name":"jpa"},{"name":"hibernate"},{"name":"sql"},{"name":"oracle"},{"name":"postgresql"}],"cities":[{"code":"novosibirsk"}],"allowsRemote":false}},{"node":{"__typename":"Job","id":"1399848960-1001091028994","title":"Java разработчик","text":"Вакансия: #java #junior\nКомпания: #donam\nЛокация: #москва #офис #fulltime\nЗ/п: от 50000 до 80000 рублей в месяц\nКонтакты: @irarudakova\nФормат работы: офис м. Полежаевская. Иногда можно удаленно. По договоренности.\nЗанятость: полная\n\nОбязанности\n- разработка интеграционных компонентов на esb tibco\n- разработка веб сервисов\n- разработка элементов бизнес логики на Java\n\nТребования\n- математическое образование\n- базовые навыки программирования на java\n- базовое знание sql\n- знание форматов обмена : xml , json\n\nЧем занимаемся\nПроекты по разработке высоконагруженных гибкомасштабируемых систем.\nАрхитектура - микросевисы. Использование контейнеризации(кубер). \nРазработка crm, чат платформы, билинговые системы, документооборот.\n\nКонтакты: @irarudakova","markup":[{"type":"bold","offset":0,"length":9,"data":""},{"type":"hashtag","offset":10,"length":5,"data":"java"},{"type":"hashtag","offset":16,"length":7,"data":"junior"},{"type":"bold","offset":24,"length":10,"data":""},{"type":"hashtag","offset":34,"length":6,"data":"donam"},{"type":"bold","offset":41,"length":9,"data":""},{"type":"hashtag","offset":50,"length":7,"data":"москва"},{"type":"hashtag","offset":58,"length":5,"data":"офис"},{"type":"hashtag","offset":64,"length":9,"data":"fulltime"},{"type":"bold","offset":74,"length":5,"data":""},{"type":"bold","offset":112,"length":9,"data":""},{"type":"handle","offset":122,"length":12,"data":"irarudakova"},{"type":"bold","offset":135,"length":15,"data":""},{"type":"bold","offset":214,"length":11,"data":""},{"type":"bold","offset":233,"length":12,"data":""},{"type":"bold","offset":370,"length":11,"data":""},{"type":"bold","offset":512,"length":15,"data":""},{"type":"bold","offset":730,"length":10,"data":""},{"type":"handle","offset":740,"length":12,"data":"irarudakova"}],"date":"2020-03-31T08:02:09+00:00","link":"tg://resolve?domain=jvmjobs&post=1335","tags":[{"name":"java"},{"name":"jvm"},{"name":"sql"},{"name":"xml"},{"name":"json"}],"cities":[{"code":"moscow"}],"allowsRemote":true}},{"node":{"__typename":"Job","id":"1397751808-1001091028994","title":"Java разработчик","text":"Вакансия: #Java \nКомпания: #S-O-Services\nЛокация: #удаленнаяработа #remote #belarus #ukraine #balticstates\nЗ/п: 5000-6500$ gross\nКонтакты: @erzentd\nMust be able to translate business needs into effective technical solutions using core JAVA and common\nopensource libraries and frameworks.\n🔹 Must have practical implementation experience with Web Service RESTful API.\n🔹 Highly preferred with performance in encoding audio video in cloud platform.\n🔹 Experience with Java/J2EE technologies: Java, EJB3.0, JMS, JDBC, XML.\n🔹 Experience with application servers is a plus: Spring Boot, Jetty, Apache Tomcat, Wildfly.\n🔹 Experience with frameworks: Spring, Hibernate.\n🔹 Strong understanding of Java Multithreading and Daemons.\n🔹 Experience with the development tools a plus: Intellij, Git, JIRA\n🔹 Proven experience with interfacing to relational databases (particularly PostgreSQL, MySQL)\n🔹 Excellent troubleshooting skills with the ability to analyze and resolve difficult problems quickly\n🔹 Must have excellent written and verbal communication skills\n🔹 Familiarity with common branching strategies like Gitflow a plus\n🔹 Upper-intermediate English","markup":[{"type":"hashtag","offset":10,"length":5,"data":"Java"},{"type":"hashtag","offset":27,"length":2,"data":"S"},{"type":"hashtag","offset":50,"length":16,"data":"удаленнаяработа"},{"type":"hashtag","offset":67,"length":7,"data":"remote"},{"type":"hashtag","offset":75,"length":8,"data":"belarus"},{"type":"hashtag","offset":84,"length":8,"data":"ukraine"},{"type":"hashtag","offset":93,"length":13,"data":"balticstates"},{"type":"handle","offset":139,"length":8,"data":"erzentd"}],"date":"2020-03-30T18:44:36+00:00","link":"tg://resolve?domain=jvmjobs&post=1333","tags":[{"name":"java"},{"name":"jvm"},{"name":"web"},{"name":"cloud"},{"name":"jdbc"},{"name":"xml"},{"name":"spring"},{"name":"jetty"},{"name":"apache"},{"name":"tomcat"},{"name":"hibernate"},{"name":"git"},{"name":"postgresql"},{"name":"mysql"},{"name":"spring-boot"}],"cities":[],"allowsRemote":true}},{"node":{"__typename":"Job","id":"1387266048-1001091028994","title":"Java разработчик","text":"Вакансия: #java #developer #senior #seniorjavadeveloper #офис\nКомпания: Fisgroup\nЛокация: #новосибирск #новосиб\nЗанятость: гибкий график\nЗ/п: 150 - 200К net\nКонтакты: @observer69\n\nCase Platform.\nОсновные продукты - кредитный фронт, управление рисками, системы по работе с просроченной задолженностью, системы принятия решений по кредитам, CRM-системы.\n\nЧем интересна наша вакансия:\n- достойный уровень заработной платы, обсудим ваши пожелания;\n- рост заработной платы вместе с ростом квалификации;\n- офис в Академпарке;\n- корпоративный транспорт\n- профессиональное развитие;\n- гибкий график;\n- доброжелательный коллектив;\n- веселые корпоративы в кругу коллег;\n\nВам предстоит:\n- анализ и уточнение требований к реализуемым задачам.\n- участие в разработке технических решений.\n- разработка и тестирование java-кода системы.\n- участие в документировании разработанной функциональности\n- анализ нетривиальных проблем возникающих у пользователей системы.\n- взаимодействие с другими участниками команды( java- и веб- разработчиками, тестировщиками) для обеспечения согласованности и качества разработки.\n- учет собственного рабочего времени.\n\nТребования: \n- понимание основ computer science (алгоритмы и структуры данных, вычислительная сложность, производительность, надежность...).\n- знание и умение применять шаблоны проектирования.\n- понимание принципов объектно-ориентированного программирования и дизайна.\n- понимание проблем параллельного программирования и способов их решения.\n- понимание основ криптографии и обеспечения безопасности данных.\n- умение диагностировать и решать проблемы производительности.\n- системное мышление.\n- знание платформы Java EE 6 и выше, опыт программирования на языке Java.\n- опыт работы с XML, JSON, ORM (JPA, Hibernate).\n- знание SQL (Oracle, PostgreSQL или любой другой диалект).\n- опыт командной работы.\n- опыт работы с системами контроля версий и автоматизации процесса разработки.\n\nБудет плюсом:\n-участие в разработке архитектуры систем;\n- профильное образование;\n- опыт участия в разработке сложных разнородных систем;\n- знание теории формальных языков и принципов построения трансляторов;\n- использование программных продуктов и инструментов для построения распределенных систем (кластеризация, микросервисы)\nПрофильное образование;\nОпыт участия в разработке сложных разнородных систем;\nЗнание теории формальных языков и принципов построения трансляторов;\nИспользование программных продуктов и инструментов для построения распределенных систем (кластеризация, микросервисы)","markup":[{"type":"bold","offset":0,"length":8,"data":""},{"type":"hashtag","offset":10,"length":5,"data":"java"},{"type":"hashtag","offset":16,"length":10,"data":"developer"},{"type":"hashtag","offset":27,"length":7,"data":"senior"},{"type":"hashtag","offset":35,"length":20,"data":"seniorjavadeveloper"},{"type":"hashtag","offset":56,"length":5,"data":"офис"},{"type":"bold","offset":62,"length":9,"data":""},{"type":"bold","offset":81,"length":8,"data":""},{"type":"hashtag","offset":90,"length":12,"data":"новосибирск"},{"type":"hashtag","offset":103,"length":8,"data":"новосиб"},{"type":"bold","offset":112,"length":9,"data":""},{"type":"bold","offset":157,"length":9,"data":""},{"type":"handle","offset":167,"length":11,"data":"observer69"},{"type":"bold","offset":353,"length":29,"data":""},{"type":"bold","offset":661,"length":15,"data":""},{"type":"bold","offset":1137,"length":13,"data":""},{"type":"bold","offset":1919,"length":14,"data":""}],"date":"2020-03-26T09:02:32+00:00","link":"tg://resolve?domain=jvmjobs&post=1323","tags":[{"name":"java"},{"name":"jvm"},{"name":"dotnet"},{"name":"xml"},{"name":"json"},{"name":"orm"},{"name":"jpa"},{"name":"hibernate"},{"name":"sql"},{"name":"oracle"},{"name":"postgresql"}],"cities":[{"code":"novosibirsk"}],"allowsRemote":false}},{"node":{"__typename":"Job","id":"1383071744-1001091028994","title":"Java developer","text":"#вакансия #java #офис #королев \n\nJava Developer (Middle / Senior)\n\nГород: Королёв, Московская область. \nФормат работы: офис. \nЗанятость: полная, постоянная работа.\nЗарплата: от 150 000 до 260 000 руб. (на руки) + премии.\n\nТребования:\n- опыт коммерческой разработки на Java от двух лет\n- английский язык (чтение документации, переписка)\n- готовность работать полный рабочий день, в офисе\n\nПроекты: \n• CMH (Content Management Hub) - призван автоматизировать работы по подготовке контента (XML, HTML5) к публикации и повысить прозрачность процесса в целом. \nПроект реализовывается на Java, Spring, с использованием в качестве базы Open Source продукта Alfresco (Java, Spring) и ряда нативных технологий Amazon Cloud (где он и будет размещаться в дальнейшем). \nСистема CMH будет внедрена у партнёров компании Wiley в США и странах Азии.\nКоманда проекта - более 20 человек.\n\n• REX (REsearch Exchange) - связан с разработкой системы цифровой обработки и хранения научных статей, поступающих от сотен тысяч авторов (в том числе нобелевских лауреатов), публикующих свои работы в журналах нашей компании. Система разрабатывается на базе Amazon Cloud Solution, с использованием всех имеющихся средств облачной архитектуры. Основным языком серверной части приложения является Java. Основным языком клиентской - JavaScript. \nВ нашей команде широко используются средства автоматизированного тестирования, continuous integration & delivery, гибкие методологии разработки. \n\nМы предлагаем: \n- оформление по ТК РФ;\n- белую заработную плату, премирование по результатам работы за полугодие, ежегодную индексацию заработной платы;\n- карьерный рост; \n- стабильность; \n- современный офис и благоприятное офисное пространство;\n- дружный коллектив; \n- корпоративные курсы английского языка;\n- иногородним кандидатам оказывается материальная помощь в связи с переездом;\n- участие в спортивно-оздоровительных мероприятиях (футбол, волейбол, баскетбол, йога);\n- рядом с офисом стадион, бассейн, фитнес центр; национальный парк \"Лосиный остров\" в шаговой доступности.\n\n\nКомпания: российский офис американской издательской компании Wiley (www.wiley.com).\n\nВопросы можно задать тут: @telelera","markup":[{"type":"hashtag","offset":0,"length":9,"data":"вакансия"},{"type":"bold","offset":0,"length":9,"data":""},{"type":"bold","offset":10,"length":22,"data":""},{"type":"hashtag","offset":10,"length":5,"data":"java"},{"type":"hashtag","offset":16,"length":5,"data":"офис"},{"type":"hashtag","offset":22,"length":8,"data":"королев"},{"type":"bold","offset":33,"length":14,"data":""},{"type":"bold","offset":222,"length":10,"data":""},{"type":"bold","offset":388,"length":7,"data":""},{"type":"bold","offset":1460,"length":13,"data":""},{"type":"link","offset":2112,"length":13,"data":"http://www.wiley.com"},{"type":"handle","offset":2155,"length":9,"data":"telelera"}],"date":"2020-03-25T11:00:44+00:00","link":"tg://resolve?domain=jvmjobs&post=1319","tags":[{"name":"java"},{"name":"jvm"},{"name":"xml"},{"name":"html"},{"name":"spring"},{"name":"cloud"},{"name":"javascript"},{"name":"continuous-integration"}],"cities":[],"allowsRemote":false}},{"node":{"__typename":"Job","id":"23929552896-1001075660570","title":"Php developer","text":"#вакансия #Moscow #php #laravel #fulltime #office \n\n📌Вакансия: #PHP Middle developer\n📌Город: #Москва (м. Ботанический сад)\n📌ЗП: 150К net (готовы рассмотреть ваши ожидания)\n📌Занятость: полная / офис \n📌Компания: АСНА (https://www.asna.ru/)\n\n✅АСНА - крупнейшее объединение аптечных сетей в России и странах СНГ. Это экосистема сервисов и продуктов, нацеленная на улучшение и развитие фармацевтического рынка России.\n\n👆Задачи:\n• создание и развитие b2c и b2b web-проектов компании;\n• участие в командной работе по разработке крупных\n• создание новых проектов компании с нуля;\n• оптимизация существующего PHP-кода и SQL-запросов.\n\n👍Что мы готовы предложить:\n• официальная (белая) заработная плата и мы соблюдаем ТК РФ.\n• переход на удаленку через 6 месяцев работы в компании; \n• мы обеспечим Вам комфортное рабочее место, мощное железо и два монитора J.\n• у нас нет бюрократии, плюс Вы сможете сами выбрать удобное время начала дня.\n• мы профессионально развиваем наших сотрудников – отправляем на курсы и профильные конференции.\n• мы следим за питанием наших сотрудников и компенсируем обеды.\n• мы даем возможность вносить свои идеи!\n• до нашего офиса можно дойти пешком от м. «Ботанический сад».\n\n🔥Наши ожидания:\n• опыт разработки на PHP от 1 года;\n• обязательно знание фреймворка Laravel;\n• опыт создания интеграционных решений с обменом информацией (JSON, XML, SOAP);\n• опыт проектирования БД и оптимизации SQL-запросов;\n• написание кода с комментариями в стиле phpDoc;\n• написание Unit тестов;\n• умение писать отказоустойчивые надежные автоматизированные системы;\n• навыки работы с *nix-системами;\n• опыт командной разработки с использованием системы контроля версий Git или Mercurial.\n\nКонтакты:\n@prynik95 \npatokova.nastya95@mail.ru","markup":[{"type":"hashtag","offset":0,"length":9,"data":"вакансия"},{"type":"hashtag","offset":10,"length":7,"data":"Moscow"},{"type":"hashtag","offset":18,"length":4,"data":"php"},{"type":"hashtag","offset":23,"length":8,"data":"laravel"},{"type":"hashtag","offset":32,"length":9,"data":"fulltime"},{"type":"hashtag","offset":42,"length":7,"data":"office"},{"type":"hashtag","offset":64,"length":4,"data":"PHP"},{"type":"hashtag","offset":95,"length":7,"data":"Москва"},{"type":"link","offset":221,"length":20,"data":"https://www.asna.ru/"},{"type":"handle","offset":1705,"length":9,"data":"prynik95"},{"type":"link","offset":1716,"length":25,"data":"mailto:patokova.nastya95@mail.ru"}],"date":"2020-03-25T07:00:53+00:00","link":"tg://resolve?domain=php_jobs&post=22821","tags":[{"name":"php"},{"name":"laravel"},{"name":"dotnet"},{"name":"web"},{"name":"sql"},{"name":"json"},{"name":"xml"},{"name":"soap"},{"name":"git"},{"name":"mercurial"}],"cities":[{"code":"moscow"}],"allowsRemote":false}}]}}},"context":{}}