{"hash":"f34fd2c444a074f4e0e67d525015a008ef8e766f","data":{"records":{"id":"reactjs","name":"reactjs","belongsTo":{"totalCount":46,"pageInfo":{"totalPages":5,"currentPage":1},"edges":[{"node":{"__typename":"Job","id":"16263413760-1001110946746","title":"Js developer","text":"#вакансия #офис\n\nTeam Lead (Node.js/React)\n\nГород: Мюнхен, Германия\nФормат занятости: офис\nТип занятости: полная \nЗаплата: 6000-7000 евро в месяц.\nКалькулятор налогов:\nkaiser-estate.ru/raschet-nalogov-i-socialnih-otchisleniy-po-zarplate-v-germanii.html\nРелокейт пакет \n\nОписание компании: \nCHECK24\nCompany is the leading price comparison platform in Germany. The company employs over a 2000 employees in 7 offices around the Germany with HQ in Munich \n\nRequirements\nYou have extensive experience in backend development using following languages (Node.js, C#, Java, Python or similar). You have experience of leading a team or ready to develop your management skills. You have proficient English or German level.\nExperience as a Full Stack Web Developer\nNode.js, or other OOP languages (Java, .NET, PHP, etc)\nDocker or knowledge of other containers\nCloud providers (the client is using AWS)\nUnit Testing and precise tools\nDevOps tools\nFrameworks as React, Angular / general knowledge of JavaScript\nConsiderable knowledge of MongoDB and experience with other databases\nBenefits\nVisa sponsorship and relocation budget\nYou will also be part of a company that values teamwork and life balance\nYou will get the chance to immerse yourself in German culture fully, with language courses and the opportunity to live in Munich, one of the most cultural and international cities in Germany\nWhat is more, you will have the chance to work with cutting edge technologies in one of the largest tech companies in Germany\nКонтакты:\n\nКомпания КА Zero to One search \nzerotoonesearch.com\nНаталья natalya@zerotoonesearch.com\nSkype: na.yarkova\n\n—\n\n👉 Обсуждение вакансии в чате @javascript_jobs","markup":[{"type":"hashtag","offset":0,"length":9,"data":"вакансия"},{"type":"hashtag","offset":10,"length":5,"data":"офис"},{"type":"link","offset":168,"length":84,"data":"http://kaiser-estate.ru/raschet-nalogov-i-socialnih-otchisleniy-po-zarplate-v-germanii.html"},{"type":"link","offset":1548,"length":19,"data":"http://zerotoonesearch.com"},{"type":"link","offset":1576,"length":27,"data":"mailto:natalya@zerotoonesearch.com"},{"type":"handle","offset":1656,"length":16,"data":"javascript_jobs"}],"date":"2020-04-10T12:01:17+00:00","link":"tg://resolve?domain=javascript_jobs_feed&post=15510","tags":[{"name":"javascript"},{"name":"nodejs"},{"name":"reactjs"},{"name":"html"},{"name":"java"},{"name":"python"},{"name":"web"},{"name":"dotnet"},{"name":"php"},{"name":"docker"},{"name":"cloud"},{"name":"amazon-web-services"},{"name":"angularjs"},{"name":"mongodb"},{"name":"unit-testing"}],"cities":[{"code":"munich"}],"allowsRemote":false}},{"node":{"__typename":"Job","id":"16260268032-1001110946746","title":"Javascript разработчик","text":"#вакансия #react #javascript #teamlead #москва #офис \n\n🔭 Ищем Team Lead (React) в финансовую компанию под задачи разработки с «нуля» платформы Web-решений. \n🎧 Все собеседования проводятся по скайпу из-за карантина. \nОфис: Москва, Лубянка\n🏠 Формат работы: в офисе после карантина (сейчас как у всех  удалёнка). В первый рабочий день оформляетесь и идете на удалёнку.\nЗанятость полная.\nГражданство: РФ\nПолный соцпакет.\n💰 Зарплата: оклад от 200К до 210К net (на руки) + квартальная премия 0,5 оклада. \nС премией средняя ЗП составит 245K рублей net \n\nTeam Lead (React)\n🚀Область ответственности:\n• Разработка фронт-офисных систем компании.\n• Руководство 1-2 разработчиками.\n💎 Требования:\n• Высшее образование;\n• Опыт коммерческой разработки UI 3-5 лет;\n• Необходимый стек: JavaScript, TypeScript, React (с использованием Redux/Mobx, Webpack, Babel), СУБД (PostgreSQL, MongoDB, Redis).\n• Кроссбраузерная и кроссплатформенная вёрстка.\n• Участие в высоконагруженных проектах.\n• Опыт управления распределённой командой.\n\nНазвание компании: КА Бизнес Крафт Консалт https://bcraft.ru/\n📪Контакты:\ntelegram: @oksanaalieva \nEmail: oksana@bcraft.ru \nБуду рада ответить на уточняющие вопросы. \nПодробности могу выслать в ЛС в ответ на присланное резюме.\n\n—\n\n👉 Обсуждение вакансии в чате @javascript_jobs","markup":[{"type":"hashtag","offset":0,"length":9,"data":"вакансия"},{"type":"hashtag","offset":10,"length":6,"data":"react"},{"type":"hashtag","offset":17,"length":11,"data":"javascript"},{"type":"hashtag","offset":29,"length":9,"data":"teamlead"},{"type":"hashtag","offset":39,"length":7,"data":"москва"},{"type":"hashtag","offset":47,"length":5,"data":"офис"},{"type":"link","offset":1061,"length":18,"data":"https://bcraft.ru/"},{"type":"handle","offset":1102,"length":13,"data":"oksanaalieva"},{"type":"link","offset":1124,"length":16,"data":"mailto:oksana@bcraft.ru"},{"type":"handle","offset":1279,"length":16,"data":"javascript_jobs"}],"date":"2020-04-10T12:00:27+00:00","link":"tg://resolve?domain=javascript_jobs_feed&post=15507","tags":[{"name":"javascript"},{"name":"reactjs"},{"name":"web"},{"name":"dotnet"},{"name":"typescript"},{"name":"redux"},{"name":"webpack"},{"name":"postgresql"},{"name":"mongodb"},{"name":"redis"}],"cities":[{"code":"moscow"}],"allowsRemote":true}},{"node":{"__typename":"Job","id":"66416803840-1001054966032","title":"Android разработчик","text":"#вакансия #Moscow #fulltime #react #reactnative #senior\n\n✅Вакансия: React Native Senior dev\n✅Город: Москва \n✅ЗП: 200К - 250K net (рассмотрим ваши ожидания)\n✅Занятость: полная/ офис \n✅Компания: Нью Мед Солюшнс_ibolit.pro\n\n💥ibolit.pro– российская телемедицинская платформа, помогающая врачам и пациентам оставаться на связи в любой точке мира. Если вы хотите развиваться в перспективном направлении телемедицины, заниматься настоящими делами и сутью (никакой бюрократии и лишних согласований) и хотите получить разносторонний опыт – мы ждем Вас! \n❗️Сейчас мы ищем ведущего разработчика мобильных приложений, построенных на базе фреймворка React Native.\n\n👆Задачи:\nВам предстоит развивать мобильные приложения для докторов и пациентов, предоставляющих коммуникационные телемедицинские сервисы (чаты, видеоконференции), функционал работы с медицинской картой, записью на приемы и другие медицинские сервисы.\n\n👍Что мы готовы предложить:\n• «белоснежные» условия по оформлению;\n• достойная заработная плата;\n• ДМС;\n• бюджет на обучение и посещение конференций;\n• гибкий график;\n• комфортный офис в центре Москвы;\n• мы всегда приветствуем инициативу!\n\n👀Наши ожидания:\n• отличные знания React-стека;\n• отличное знание фреймворка React Native;\n• обязательным является наличие навыков нативной разработки мобильных приложений хотя бы для одной из плафторм - iOS(Swift) или Android(Kotlin).\n\n🤝Контакты: @Kate_Guseva","markup":[{"type":"hashtag","offset":0,"length":9,"data":"вакансия"},{"type":"hashtag","offset":10,"length":7,"data":"Moscow"},{"type":"hashtag","offset":18,"length":9,"data":"fulltime"},{"type":"hashtag","offset":28,"length":6,"data":"react"},{"type":"hashtag","offset":35,"length":12,"data":"reactnative"},{"type":"hashtag","offset":48,"length":7,"data":"senior"},{"type":"handle","offset":1395,"length":12,"data":"Kate_Guseva"}],"date":"2020-04-10T11:15:40+00:00","link":"tg://resolve?domain=mobile_jobs&post=63340","tags":[{"name":"mobile"},{"name":"android"},{"name":"ios"},{"name":"reactjs"},{"name":"dotnet"},{"name":"swift"},{"name":"kotlin"},{"name":"react-native"}],"cities":[{"code":"moscow"}],"allowsRemote":false}},{"node":{"__typename":"Job","id":"16259219456-1001110946746","title":"Js developer","text":"#вакансия #office #helsinki #finland #frontend #Javascript #react #vac0001\nSenior Frontend Developer (Team lead)\n🇫🇮Хельсинки, центр\n⌚️ Полная занятость\n🏫В офис (удаленка до открытия границ)\n💰Зп от 3500-4500 евро гросс (калькулятор)\n✈️ помощь с переездом\nАгенство @itfinland OOO Nerdsbay OY\n\n📍О компании:\nПродуктовая компания, основной продукт - платформа по content delivery. Aтмосфета стартапа, но при этом продукт уже запущен и  успешен у крупных компаний.\n\n📍Требования:\nБольшой опыт Frontend разрабоки. Знание JavaScript, HTML5/SCSS и React. Без аллергии на AngularJS так как проект находится в стадии миграции на React. \nЗнания UI/UX и опыт в дизайне будут плюсом.\n\n📍Обязанности: \nРабота в команде молодых и смелых, использование новых технологий для реализации задач проекта. Работа по Scrum, где задачи распределяют внутри команды без участия менеджера.\n\nПо всем вопросам к @julia_zhukova\n \nРезюме отправлять по ссылке http://itfinland.com/registration\n\n—\n\n👉 Обсуждение вакансии в чате @javascript_jobs","markup":[{"type":"hashtag","offset":0,"length":9,"data":"вакансия"},{"type":"hashtag","offset":10,"length":7,"data":"office"},{"type":"hashtag","offset":18,"length":9,"data":"helsinki"},{"type":"hashtag","offset":28,"length":8,"data":"finland"},{"type":"hashtag","offset":37,"length":9,"data":"frontend"},{"type":"hashtag","offset":47,"length":11,"data":"Javascript"},{"type":"hashtag","offset":59,"length":6,"data":"react"},{"type":"hashtag","offset":66,"length":8,"data":"vac0001"},{"type":"handle","offset":267,"length":10,"data":"itfinland"},{"type":"handle","offset":887,"length":14,"data":"julia_zhukova"},{"type":"link","offset":932,"length":33,"data":"http://itfinland.com/registration"},{"type":"handle","offset":1000,"length":16,"data":"javascript_jobs"}],"date":"2020-04-10T09:31:59+00:00","link":"tg://resolve?domain=javascript_jobs_feed&post=15506","tags":[{"name":"javascript"},{"name":"reactjs"},{"name":"html"},{"name":"angularjs"}],"cities":[{"code":"helsinki"}],"allowsRemote":true}},{"node":{"__typename":"Job","id":"16258170880-1001110946746","title":"Js разработчик","text":"#Вакансия #Удаленка #Fulltime #JS #React #Redux #job \n\nВсем привет 👋\n\nНахожусь в поиске Frontend разработчика на React.JS для компании «Binance».\n\nО компании: binance.com\nНазвание компании: Binance Exchange - ведущая крипто-биржа по объему торгов и количеству пользователей, с клиентами в более чем 180 странах и регионах.\n\nФормат работы: fulltime, remote\nЗарплатная вилка: от 3000 до 3500$ (выдаётся в криптовалюте).\n\nЗадачи:\n• Внедрение новых функций, ориентированных на пользователя, в продуктах Binance, которые ежедневно используют огромное количество PV;\n• Написание клиентского кода для создания сверхбыстрых, простых в использовании веб-приложений, которые включают веб-сайт для настольных и мобильных браузеров и гибридные страницы в приложениях;\n• Оптимизация веб-приложений для максимизации скорости и масштабирования;\n• Создание библиотек и сред, поддерживающих сложные веб-приложения, ускоряющих эффективность разработки и улучшающих качество кода.\n\nОт вас:\n• 3-5+ лет на разработку производственного кода JavaScript и глубокое знание React.JS;\n• Понимание шаблонов управления состоянием, таких как Redux, Flux или аналогичных;\n• Опыт разработки адаптивных веб-сайтов для различных клиентов, от мощных desktop компьютеров до небольших мобильных устройств;\n• Опыт работы с интерфейсными технологиями (styled system, webpack, etc);\n• Cвободное владение английским языком.\n\nОт нас: \n• График работы желательно с 9:00 (нужно будет общаться с командой из Сингапура);\n• Большие возможности карьерного роста в растущей компании;\n• Возможность переезда и международных переводов;\n• Делать что-то значимое. Станьте частью будущего финансовых технологий и первой в отрасли компании.\n\nБолее подробно готов ответить в ЛС: @dobrkakbobr8\n\n—\n\n👉 Обсуждение вакансии в чате @javascript_jobs","markup":[{"type":"hashtag","offset":0,"length":9,"data":"Вакансия"},{"type":"hashtag","offset":10,"length":9,"data":"Удаленка"},{"type":"hashtag","offset":20,"length":9,"data":"Fulltime"},{"type":"hashtag","offset":30,"length":3,"data":"JS"},{"type":"hashtag","offset":34,"length":6,"data":"React"},{"type":"hashtag","offset":41,"length":6,"data":"Redux"},{"type":"hashtag","offset":48,"length":4,"data":"job"},{"type":"link","offset":160,"length":11,"data":"http://binance.com"},{"type":"handle","offset":1724,"length":13,"data":"dobrkakbobr8"},{"type":"handle","offset":1772,"length":16,"data":"javascript_jobs"}],"date":"2020-04-10T09:31:53+00:00","link":"tg://resolve?domain=javascript_jobs_feed&post=15505","tags":[{"name":"javascript"},{"name":"reactjs"},{"name":"redux"},{"name":"webpack"},{"name":"react-redux"}],"cities":[],"allowsRemote":true}},{"node":{"__typename":"Job","id":"16251879424-1001110946746","title":"Javascript разработчик","text":"#вакансия #javascript #typescript #react #удаленка\n\nГород и адрес офиса: любой\nФормат работы: удаленка\nЗанятость: полная\nЗарплатная вилка: от 130 000 до 160 000 рублей (на руки)\n\nОписание вакансии: Senior Frontend-разработчик на проект из банковской сферы. Нам нужен человек, который не боится решать задачи любой сложности и может научить этому (и не только этому) свою команду.\n\nСтек технологий:\n– JavaScript, TypeScript;\n– React, Redux, Redux-Saga;\n– Babel (ES 2016+), Webpack или Gulp, Git, БЭМ.\n\nНазвание компании: CSSSR\nКонтакты: @lena_bezbatchenko\n\n—\n\n👉 Обсуждение вакансии в чате @javascript_jobs","markup":[{"type":"hashtag","offset":0,"length":9,"data":"вакансия"},{"type":"hashtag","offset":10,"length":11,"data":"javascript"},{"type":"hashtag","offset":22,"length":11,"data":"typescript"},{"type":"hashtag","offset":34,"length":6,"data":"react"},{"type":"hashtag","offset":41,"length":9,"data":"удаленка"},{"type":"handle","offset":536,"length":18,"data":"lena_bezbatchenko"},{"type":"handle","offset":589,"length":16,"data":"javascript_jobs"}],"date":"2020-04-10T09:27:39+00:00","link":"tg://resolve?domain=javascript_jobs_feed&post=15499","tags":[{"name":"javascript"},{"name":"typescript"},{"name":"reactjs"},{"name":"redux"},{"name":"webpack"},{"name":"gulp"},{"name":"git"},{"name":"react-redux"}],"cities":[],"allowsRemote":true}},{"node":{"__typename":"Job","id":"16249782272-1001110946746","title":"Js разработчик","text":"#вакансия #javascript #react\n\nГород: Москва\nФормат работы: офис (но на время карантина удаленка)\nЗанятость: полная\nЗарплатная вилка: от 180 000 до 220 000 рублей (на руки)\n\nОписание вакансии: ищем senior frontend разработчика, который:\n\n✅ Очень хорошо знает JavaScript и React. Понимает на что нужно обращать внимание при разработке страниц;\n✅ Командный игрок и хочет обсуждать как технические, так и продуктовые идеи;\n✅ Умеет в проектирование архитектуры frontend для сложных интернет-проектов;\n✅ Имеет опыт в формировании требований к api;\n✅ Любит и понимает необходимость функциональных и unit-тестов.\n\nНаш идеальный кандидат:\n\nЗнает на отлично:\n\n✅ HTML5;\n✅ Browser API;\nособенности кроссбраузерной и адаптивной верстки;\n✅ CSS3/CSS;\n✅ JavaScript (ES6);\n✅ React, Redux, Redux-Saga, Reselect, Styled Components, SSR.\n✅ Умеет в работать с Git;\n✅ Умеет работать в Unix-окружении;\n✅ Имеет опыт работы с системами сборки Webpack, Gulp, настройка Babel.\n\nХорошим плюсом будет:\n\n✅ Знание NodeJS;\n✅ Опыт разработки SPA на React;\n✅ Опыт работы с Vue, Vuex;\n✅ Опыт использования препроцессоров (SASS, Less).\n\nМы предлагаем участие в разработке новых проектов:\n\n✅ Продуктовая разработка проработка задачи с первых этапов, декомпозиция, кодинг, отслеживание результатов;\n✅Построение команды: найм, обучение и мотивация разработчиков;\n✅ Интересные и сложные задачи;\n✅ Обязательное ревью кода;\n✅ Итеративная разработка большие проекты дробим на небольшие задачи и выпускаем постепенно;\n✅ Регулярные демо владельцам продуктов и взаимодействие с ними напрямую.\n\nНаши условия:\n\n✅ Современный процесс разработки, командная работа, молодой дружный коллектив, помощь и поддержка. Мы используем git, GitLab CI\\CD и др. современные средства разработки;\n✅ Белая зарплата и полное соблюдение ТК РФ;\n✅ Гибкий график работы;\n✅ Крутой офис в стиле фьюжн, в котором можно поиграть в VR, настольный теннис, видеоигры и даже поспать! Находится рядом со ст. м. Дмитровская, около «Флакона» и «Хлебозавода»;\n✅ Бесплатный фитнес с бассейном;\n✅ Корпоративные завтраки в офисе, любые напитки и фрукты круглый год;\n✅ДМС после прохождения испытательного срока;\n✅ Возможность быстрого профессионального роста, адекватное руководство и прекрасных коллег.\n\nНазвание компании: Admitad/Projects (https://admitad.pro/)\n\nКонтакты: @nadezhda_elizbarovna или n.isaeva@admitad.com\n\n—\n\n👉 Обсуждение вакансии в чате @javascript_jobs","markup":[{"type":"hashtag","offset":0,"length":9,"data":"вакансия"},{"type":"hashtag","offset":10,"length":11,"data":"javascript"},{"type":"hashtag","offset":22,"length":6,"data":"react"},{"type":"link","offset":2256,"length":20,"data":"https://admitad.pro/"},{"type":"handle","offset":2289,"length":21,"data":"nadezhda_elizbarovna"},{"type":"link","offset":2315,"length":20,"data":"mailto:n.isaeva@admitad.com"},{"type":"handle","offset":2370,"length":16,"data":"javascript_jobs"}],"date":"2020-04-10T09:26:19+00:00","link":"tg://resolve?domain=javascript_jobs_feed&post=15497","tags":[{"name":"javascript"},{"name":"reactjs"},{"name":"html"},{"name":"css"},{"name":"redux"},{"name":"git"},{"name":"unix"},{"name":"webpack"},{"name":"gulp"},{"name":"nodejs"},{"name":"vuejs"},{"name":"sass"},{"name":"gitlab"},{"name":"react-redux"}],"cities":[{"code":"moscow"}],"allowsRemote":true}},{"node":{"__typename":"Job","id":"16247685120-1001110946746","title":"Javascript разработчик","text":"#вакансия #remote #project #удаленка #Москва\nГород и адрес офиса: Москва\nФормат работы: удаленка\nЗанятость: проектная\nЗарплатная вилка: от 120тр до 200тр (в месяц, закладываем пока 3 месяца)\nОписание вакансии: На проект по раздаче видеоконтента требуется middle+ frontend разработчик для разработки двух схожих проектов на единой базе. В команде тим-лид. Стек: React, Effector, Ant. Большая просьба скидывайте сразу резюме.\nНазвание компании: Руформ (https://ruform.ru/)\nКонтакты: @z0mb1ek\n\n—\n\n👉 Обсуждение вакансии в чате @javascript_jobs","markup":[{"type":"hashtag","offset":0,"length":9,"data":"вакансия"},{"type":"hashtag","offset":10,"length":7,"data":"remote"},{"type":"hashtag","offset":18,"length":8,"data":"project"},{"type":"hashtag","offset":27,"length":9,"data":"удаленка"},{"type":"hashtag","offset":37,"length":7,"data":"Москва"},{"type":"link","offset":451,"length":18,"data":"https://ruform.ru/"},{"type":"handle","offset":481,"length":8,"data":"z0mb1ek"},{"type":"handle","offset":524,"length":16,"data":"javascript_jobs"}],"date":"2020-04-10T09:25:04+00:00","link":"tg://resolve?domain=javascript_jobs_feed&post=15495","tags":[{"name":"javascript"},{"name":"reactjs"},{"name":"ant"}],"cities":[{"code":"moscow"}],"allowsRemote":true}},{"node":{"__typename":"Job","id":"66359132160-1001054966032","title":"Mobile разработчик","text":"#вакансия #минск #fulltime #reactnative #moblie\nГород: Минск, Немига\nФормат работы: Пока #удаленно, потом #офис\nЗанятость: #Полная\nВилка ЗП: От $500 до $3000. Надо знакомиться и смотреть навыки.\n\nПривет,\nМы NeatTech.io– команда амбициозных профессионалов, создающих веб и мобильные приложения.\n\nСердце нашей компании – Продукт. Мы стремимся создавать продукты так же круто, как это делают мировые лидеры: Яндекс, Google, Airbnb. Начиная с процессов и заканчивая результатом.\n\nЧтобы к этому прийти, нам приходится каждый день оттачивать свой профессионализм, искать новые подходы и учиться у лучших.\n\nПриглашаем стать частью нас.\n\nЧто предстоит\n\n- Создавать мобильные-приложения на Typescript + React Native\n- Работать напрямую с клиентами и учиться грамотно защищать и принимать лучшие технические решения основываясь на краткосрочных и долгосрочных целях бизнеса\n- Создавать и поддерживать переиспользуемые библиотеки для решения повторяющихся технических проблем\n- Менторить начинающих разработчиков\n- Тесно взаимодействовать с командой и участвовать в продуктовых митингах\n\nИдеальный кандидат\n\n- Умный, обладает математическим складом ума\n- Имеет больше года коммерческой разработки на React Native\n- Обладает хорошим продуктовым мышлением\n- Понимает весь SDLC\n- Разбирается в протоколах (например, REST или HTTP/2), SQL / NoSQL базах данных, основных NPM / React Native библиотеках\n- Умеет приоритезировать и всегда думает о том, какую пользу приносит работа. Не ставит целью написать \"крутой алгоритм\", а рационально находит баланс между качеством, скоростью и усилиями\n- Считает самосовершенствование важной частью жизни и работы\n- Бонус: без трудностей разговаривает, пишет и читает на английском\n\nБолее подробная информация по вакансии. \n\nСтать частью нас\nОткликнуться на вакансию можно по этой ссылке.","markup":[{"type":"hashtag","offset":0,"length":9,"data":"вакансия"},{"type":"hashtag","offset":10,"length":6,"data":"минск"},{"type":"hashtag","offset":17,"length":9,"data":"fulltime"},{"type":"hashtag","offset":27,"length":12,"data":"reactnative"},{"type":"hashtag","offset":40,"length":7,"data":"moblie"},{"type":"bold","offset":48,"length":5,"data":""},{"type":"bold","offset":69,"length":14,"data":""},{"type":"hashtag","offset":89,"length":9,"data":"удаленно"},{"type":"hashtag","offset":106,"length":5,"data":"офис"},{"type":"bold","offset":112,"length":10,"data":""},{"type":"hashtag","offset":123,"length":7,"data":"Полная"},{"type":"bold","offset":131,"length":9,"data":""},{"type":"bold","offset":630,"length":15,"data":""},{"type":"bold","offset":1077,"length":20,"data":""},{"type":"link","offset":1705,"length":42,"data":"https://www.notion.so/Middle-React-Native-a27e4a31628a48dbb3c79956bbe9ab61"},{"type":"bold","offset":1747,"length":17,"data":""},{"type":"link","offset":1798,"length":11,"data":"https://forms.gle/aqDbYcbXTSvxR29r5"}],"date":"2020-04-09T13:46:42+00:00","link":"tg://resolve?domain=mobile_jobs&post=63285","tags":[{"name":"mobile"},{"name":"typescript"},{"name":"reactjs"},{"name":"rest"},{"name":"sql"},{"name":"nosql"},{"name":"npm"},{"name":"react-native"}],"cities":[{"code":"minsk"}],"allowsRemote":true}},{"node":{"__typename":"Job","id":"1431306240-1001091028994","title":"Java разработчик","text":"#scala #teamlead #senior #офис #удаленно #fulltime #Москва\n\nПриглашаем Scala-разработчика уровня senior-teamlead, 220-270 тыс. на руки.\n\nТребования:\nлидировать и развивать команду разработчиков\nразвивать backend приложение на Akka HTTP\nпрорабатывать интеграции для сервисов на Java (Spring Cloud)\nинтегрироваться со стеком Kafka, MQ, Redis, Orcale SQL, Postgres\nfrontend разработка (React, Redux, Typescript, собственная библиотека компонентов)\nработать с витринами на Spark, Hadoop\nразработать web-scraper на Akka Streams\nподдерживать процесс сборки и тестирования (git, Ansible, Jenkins, Docker, OpenShift)\n\nСбербанк, Москва, Кутузовская\n\nКонтакты: @MikeTurchenkov","markup":[{"type":"hashtag","offset":0,"length":6,"data":"scala"},{"type":"hashtag","offset":7,"length":9,"data":"teamlead"},{"type":"hashtag","offset":17,"length":7,"data":"senior"},{"type":"hashtag","offset":25,"length":5,"data":"офис"},{"type":"hashtag","offset":31,"length":9,"data":"удаленно"},{"type":"hashtag","offset":41,"length":9,"data":"fulltime"},{"type":"hashtag","offset":51,"length":7,"data":"Москва"},{"type":"handle","offset":651,"length":15,"data":"MikeTurchenkov"}],"date":"2020-04-09T11:58:52+00:00","link":"tg://resolve?domain=jvmjobs&post=1365","tags":[{"name":"java"},{"name":"jvm"},{"name":"scala"},{"name":"akka"},{"name":"spring"},{"name":"cloud"},{"name":"kafka"},{"name":"redis"},{"name":"sql"},{"name":"postgresql"},{"name":"reactjs"},{"name":"redux"},{"name":"typescript"},{"name":"hadoop"},{"name":"web"},{"name":"git"},{"name":"ansible"},{"name":"jenkins"},{"name":"docker"},{"name":"react-redux"}],"cities":[{"code":"moscow"}],"allowsRemote":true}}]}}},"context":{}}