{"hash":"f5f6bf98bd95e769321482904cbbd488f77922fd","data":{"records":{"id":"russia/moscow","country":{"code":"russia","ruName":"Россия","enName":"Russia"},"city":{"code":"moscow","ruName":"Москва","enName":"Moscow"},"belongsTo":{"totalCount":476,"pageInfo":{"totalPages":48,"currentPage":46},"edges":[{"node":{"__typename":"Job","id":"2203058176-1001134745498","title":"Devops инженер","text":"#вакансия #Москва #удаленка #remote\n#kubernetes\nКомпания, стартап в области информационной безопасности, ищет DevOps инженера\n🎱 Город и адрес офиса: Москва\n🎱 Формат работы: удаленка или офис \n🎱 Занятость: полная \n🎱 Условия: зп от 130 до 180К (в зависимости от опыта и формата работы)\n\n🎱 Задачи:\nОбеспечение отказоустойчивости и развитие инфраструктуры в Европе и РФ.\nРабота с командой разработки по совершенствованию микросервисов.\nМониторинг работы инфраструктуры и приложений, реакция на инциденты.\nОбщение с заказчиками на этапе интеграции и при возникновении проблем.\n\n🎱 Ожидания:\nОпыт администрирования Linux\nопыт работы с Amazon Web Services, Terraform, Ansible.\nхорошие знания Kubernetes и Docker.\nопыт работы с nginx, ELK, GitLab CI/CD.\n\n\n🎱 Будет преимуществом:\nЗнание Python и/или Golang\nопыт прохождения PCI DSS\nзнание MongoDB, Redis, Kafka, Clickhouse,\nопыт эксплуатации JVM,\nопыт эксплуатации Dask, AirFlow.\n\n🎱 Контакты: @kornet_croft\n\n—\n\n👉 Обсуждение вакансии в чате @devops_jobs","markup":[{"type":"hashtag","offset":0,"length":9,"data":"вакансия"},{"type":"hashtag","offset":10,"length":7,"data":"Москва"},{"type":"hashtag","offset":18,"length":9,"data":"удаленка"},{"type":"hashtag","offset":28,"length":7,"data":"remote"},{"type":"hashtag","offset":36,"length":11,"data":"kubernetes"},{"type":"handle","offset":941,"length":13,"data":"kornet_croft"},{"type":"handle","offset":989,"length":12,"data":"devops_jobs"}],"date":"2020-06-15T08:42:51+00:00","link":"tg://resolve?domain=devops_jobs_feed&post=2101","tags":[{"name":"kubernetes"},{"name":"linux"},{"name":"web"},{"name":"ansible"},{"name":"docker"},{"name":"nginx"},{"name":"gitlab"},{"name":"python"},{"name":"go"},{"name":"mongodb"},{"name":"redis"},{"name":"kafka"},{"name":"jvm"},{"name":"amazon-web-services"}],"cities":[{"code":"moscow"}],"allowsRemote":true}},{"node":{"__typename":"Job","id":"102821265408-1001089317451","title":"Qa engineer","text":"#вакансия #москва #полнаязанятость #qaengineer #auto #manual\nКомпания: #Mетрквадратный www.m2.ru\nЛокация: м.Белорусская \nФормат работы: офис (удаленная до сентября)  \nЗ/п: от 120к - 180к на руки\nКонтакты: @maxdmitrov\n\nЭто экосистема недвижимости, которая помогает клиентам решать любые жилищные вопросы: от поиска вариантов и оформления сделки до организации ремонта и переезда в новую квартиру. Мы также создаем решения для партнёров и профессиональных участников рынка недвижимости.\n\nНаш стэк:\n• Java\n • Node.js\n • React, TypeScript\n • Kafka, ElasticSearch, gRPC\n • Docker\n\nЧем предстоит заниматься:\n • анализировать и тестировать требования к разрабатываемым приложениям;\n • писать приемочные критерии к пользовательским историям;\n • проводить функциональное, регрессионное и smoke тестирование;\n • заниматься задачами по автоматизации тестирования.\n\nЧего мы ждем:\n • глубокое понимание процессов тестирования и разработки ПО;\n • опыт интеграционного тестирования:\n    - системная интеграция;\n    - компонентная интеграция\n • опыт тестирования АРI;\n • опыт автоматизации тестирования на любом стеке.\n\nБудет плюсом\n • опыт исследовательского тестирования;\n • опыт тестирования ПО с микросервисной архитектурой.\n\nМы предлагаем:\n • белая конкурентная ЗП, официальное оформление;\n • гибкий график работы;\n • ДМС, компенсация фитнеса, льготная ставка по ипотеке;\n • комфортный офис в БЦ «Белая площадь» (минута от метро): лаундж-зоны, бариста, фрукты.","markup":[{"type":"hashtag","offset":0,"length":9,"data":"вакансия"},{"type":"hashtag","offset":10,"length":7,"data":"москва"},{"type":"hashtag","offset":18,"length":16,"data":"полнаязанятость"},{"type":"hashtag","offset":35,"length":11,"data":"qaengineer"},{"type":"hashtag","offset":47,"length":5,"data":"auto"},{"type":"hashtag","offset":53,"length":7,"data":"manual"},{"type":"hashtag","offset":71,"length":15,"data":"Mетрквадратный"},{"type":"link","offset":87,"length":9,"data":"http://www.m2.ru"},{"type":"handle","offset":205,"length":11,"data":"maxdmitrov"},{"type":"bold","offset":485,"length":11,"data":""},{"type":"bold","offset":576,"length":26,"data":""},{"type":"bold","offset":853,"length":15,"data":""},{"type":"bold","offset":1103,"length":14,"data":""},{"type":"bold","offset":1212,"length":16,"data":""}],"date":"2020-06-15T07:59:01+00:00","link":"tg://resolve?domain=qa_jobs&post=0","tags":[{"name":"qa"},{"name":"java"},{"name":"nodejs"},{"name":"reactjs"},{"name":"typescript"},{"name":"kafka"},{"name":"elasticsearch"},{"name":"docker"}],"cities":[{"code":"moscow"}],"allowsRemote":true}},{"node":{"__typename":"Job","id":"1678770176-1001091028994","title":"Java разработчик","text":"#вакансия #java #senior #middle\nКомпания: #сбербанктехнологии #сбертех\nЛокация: #москва\nЗП: 180-270 + премии\nКонтакты: @okashchenko, kashchenko.o.bor@sberbank.ru\n\nМы - современная инженерная компания, продолжаем расти и развиваться. Активно ищем Java разработчиков уровня middle и senior в связи с расширением команды для Образовательной платформы - SaaS решения для автоматизации обучения в средних школах. Разработка началась марте 2019, сейчас дорабатываем функционал и создаём фичи.\n\n  Требования:\n· Знание Java 8+ (хорошее знание core, collections), Spring IoC 4-5, от 2х лет\n· Системы сборки maven или gradle\n· Опыт использования jUnit/TestNG\n· БД: jdbc, SQL(лучше PostgresQL) на уровне написания средних запросов\n· VCS: опыт работы с git в команде\n· Опыт командной разработки\n\n  Очень желательно:\n· Умение работать с linux command line, писать минимальные bash-скрипты.\n· Понимание оптимизации SQL-запросов\n· Опыт разработки промышленных микросервисных приложений\n· Опыт работы со SpringBoot, MongoDB, Docker/Kubernetes\n\n  Наши условия:\n· Конкурентная «белая» заработная плата (оклад + премии)\n· Профессиональный и зарплатный рост\n· Интересные, сложные, амбициозные задачи, молодая и сильная команда профессионалов\n· Обучение за счет компании в Корпоративном университете\n· Льготная ипотека от Сбербанка, ДМС\n· Страхование от несчастных случаев\n· Тренажерный зал\n\nБуду рада обсудить вакансию и ответить на ваши вопросы!","markup":[{"type":"hashtag","offset":0,"length":9,"data":"вакансия"},{"type":"hashtag","offset":10,"length":5,"data":"java"},{"type":"hashtag","offset":16,"length":7,"data":"senior"},{"type":"hashtag","offset":24,"length":7,"data":"middle"},{"type":"hashtag","offset":42,"length":19,"data":"сбербанктехнологии"},{"type":"hashtag","offset":62,"length":8,"data":"сбертех"},{"type":"hashtag","offset":80,"length":7,"data":"москва"},{"type":"handle","offset":119,"length":12,"data":"okashchenko"},{"type":"link","offset":133,"length":28,"data":"mailto:kashchenko.o.bor@sberbank.ru"}],"date":"2020-06-15T07:12:16+00:00","link":"tg://resolve?domain=jvmjobs&post=1601","tags":[{"name":"java"},{"name":"jvm"},{"name":"spring"},{"name":"maven"},{"name":"gradle"},{"name":"junit"},{"name":"jdbc"},{"name":"sql"},{"name":"postgresql"},{"name":"git"},{"name":"linux"},{"name":"bash"},{"name":"mongodb"},{"name":"docker"},{"name":"kubernetes"}],"cities":[{"code":"moscow"}],"allowsRemote":false}},{"node":{"__typename":"Job","id":"16909336576-1001110946746","title":"Javascript разработчик","text":"#вакансия #front #react #typescript #москва #генетика #javascript #геномэксперт #барсгруп\n\nГород и адрес офиса: Москва, ст.м.Павелецкая\nФормат работы: Офис\nЗанятость: полная.\nЗарплатная вилка: от 200.000 до 300.000 рублей на руки. \nНазвание компании: Барс Груп\nhttps://bars.group/\nПроект Геном.Эксперт  - https://genome.expert/ \n\nТребуется senior front-end разработчик в крупный медицинский проект.\n\nПредметная область: Генетика. \nТекущее состояние проекта: Проект запущен с прошлого года, сейчас добираем команду по потребностям проекта, есть уникальная возможность принять участие в создании единого пространства для врачей-генетиков, лабораторных генетиков, биоинформатиков.\n\n✅Чем придется заниматься:\n\n-Писать микроприложения и компоненты на React;\n-Изучать исходники на Polymer, чтобы переехать на React (не допиливаем старый фреймворк, а выпиливаем) и микросервисную архитектуру;\n\n✔️Требования:\n\n-Front-end: React(Vue), typescript, Redux/Mobx/Vuex;\n-Межсервисное взаимодействие и API: REST/GraphQL/gRPC. \n\n✔️Инструменты для работы: \n\nGit, bitbucket, JIRA, docker, docker-compose. \n\n✔️Условия:\n\n-Оформление по ТК РФ;\n-Работа в офисе в пешей доступности от ст.м.Павелецкая (на данный момент удаленка);\n-График 5/2, гибкое начало рабочего дня ;\n-Белая зарплата, повышающаяся по системе аттестаций несколько раз в год;\n-ДМС;\n-Перспективы карьерного роста;\n-Корпоративное обучение (тренинги, мастер-классы);\n-Корпоративная библиотека;\n-Мы рассматриваем кандидатов с возможностью переезда в Москву;\n-Возможность предоставления бесплатного жилья на первый месяц. \n\nКонтакты для связи: \n\nemail: a.starchenko@bars.group \nTelegram: @alinavelcheva \n\nbars.group\nАО «БАРС Груп» - официальный сайт компании\nАО «БАРС Груп» - российский производитель ИТ-решений и экспертный центр в сфере государственной и корпоративной информатизации.\n\n—\n\n👉 Обсуждение вакансии в чате @javascript_jobs","markup":[{"type":"hashtag","offset":0,"length":9,"data":"вакансия"},{"type":"hashtag","offset":10,"length":6,"data":"front"},{"type":"hashtag","offset":17,"length":6,"data":"react"},{"type":"hashtag","offset":24,"length":11,"data":"typescript"},{"type":"hashtag","offset":36,"length":7,"data":"москва"},{"type":"hashtag","offset":44,"length":9,"data":"генетика"},{"type":"hashtag","offset":54,"length":11,"data":"javascript"},{"type":"hashtag","offset":66,"length":13,"data":"геномэксперт"},{"type":"hashtag","offset":80,"length":9,"data":"барсгруп"},{"type":"link","offset":261,"length":19,"data":"https://bars.group/"},{"type":"link","offset":305,"length":22,"data":"https://genome.expert/"},{"type":"link","offset":1593,"length":23,"data":"mailto:a.starchenko@bars.group"},{"type":"handle","offset":1628,"length":14,"data":"alinavelcheva"},{"type":"link","offset":1645,"length":10,"data":"http://bars.group"},{"type":"handle","offset":1861,"length":16,"data":"javascript_jobs"}],"date":"2020-06-15T07:06:51+00:00","link":"tg://resolve?domain=javascript_jobs_feed&post=16126","tags":[{"name":"javascript"},{"name":"reactjs"},{"name":"typescript"},{"name":"polymerjs"},{"name":"vuejs"},{"name":"redux"},{"name":"rest"},{"name":"graphql"},{"name":"git"},{"name":"docker"},{"name":"docker-compose"}],"cities":[{"code":"moscow"}],"allowsRemote":true}},{"node":{"__typename":"Job","id":"71281147904-1001054966032","title":"Mobile разработчик","text":"#вакансия #аналитик #продуктовый аналитик #мобильные приложения #Москва #удаленка\n🔸РосШтрафы\n▫️Москва\n▫️офис на Проспекте мира или удаленка\n▫️Fulltime\n▫️от 140К до 250К на руки\n\"РосШтрафы\" – сервис для проверки и оплаты штрафов ГИБДД и налогов, который постепенно превращается в маркетплейс для автомобилистов. Аудитория – несколько миллионов человек.\nНаш отдел маркетинга открывает вакансию 📣Аналитика мобильных приложений (продуктового аналитика)! 📣\n✔️Основные требования:\nОпыт работы на аналогичной должности от 2-х лет;\nЖелательно знание МОБИЛЬНОЙ аналитики (Firebase, AppМетрика, Appsflyer);\nПонимание принципов клиентской аналитики и сегментирования клиентского ядра;\nПонимание когортного анализа, основным метрик цифровых бизнесов, APRU, Retention, LTV, CPA, CPI;\nОпыт работы с регулярным точечным сбором данных;\nВладение SQL на уверенном уровне;\nОтличное знание SQL в диалекте MySQL/PgSQL и ClickHouse.\n✔️Задачи:\nПодготовка данных и настройка их сбора из различных источников;\nРазработка методики оценки окупаемости маркетинговых каналов;\nСоздание и улучшение аналитических инструментов;\nИсследования и поиск инсайтов в данных;\nПовышение эффективности работы менеджеров отдела маркетинга за счет получения достоверных, актуальных данных;\nГрамотное выстраивание системы аналитики с нуля.\n✔️Предлагаем:\nДостойная оплата труда;\nМинимум бюрократии;\nНикакого скрин-трекинга или почасового журнала работ -- всё на совести и доверии;\nГибкое начало рабочего дня;\nПлюшки на домашнюю технику, подарки на ДР;\nНеформальное адекватное общение по всей вертикали компании ;\nПринимаются во внимание любые идеи и инициатива;\nКомпенсация профессиональных курсов и конференций до 60%;\nВозможность 100% удалёнки с опциональным посещением офиса для работы и тимбилдинга.\n◽️@grabulya","markup":[{"type":"hashtag","offset":0,"length":9,"data":"вакансия"},{"type":"hashtag","offset":10,"length":9,"data":"аналитик"},{"type":"hashtag","offset":20,"length":12,"data":"продуктовый"},{"type":"hashtag","offset":42,"length":10,"data":"мобильные"},{"type":"hashtag","offset":64,"length":7,"data":"Москва"},{"type":"hashtag","offset":72,"length":9,"data":"удаленка"},{"type":"handle","offset":1763,"length":9,"data":"grabulya"}],"date":"2020-06-15T06:07:20+00:00","link":"tg://resolve?domain=mobile_jobs&post=0","tags":[{"name":"mobile"},{"name":"firebase"},{"name":"sql"},{"name":"mysql"}],"cities":[{"code":"moscow"}],"allowsRemote":true}},{"node":{"__typename":"Job","id":"102802391040-1001089317451","title":"Qa инженер","text":"#вакансия #QA #Java #QAAutomation #Москва #офис \n\nВакансия: QA Lead (Тест-Менеджер)\nГород: Москва м. Технопарк \nЗарплата: от 220 000 рублей до 260 000 рублей на руки\nФормат: офис, полный день, полная занятость\nКомпания Innovative People \n\n🚀 Чем предстоит заниматься:\n• планирование тестирования;\n• выстраивание процессов тестирования среди 8 команд с упором на автоматизацию;\n• автоматизировать процессы разработки и тестирования;\n• выстраивать CI/CD проекта;\n• налаживание взаимодействия QA инженеров в нескольких командах;\n• поддерживать и развивать разработанные решения по автоматизации;\n• разрабатывать фреймворк автоматизации;\n• исследовать новые технологии и внедрять их на проекте;\n• подготовка метрик автоматизированных тестов;\n• принятие решений о внедрении / обновлении программного обеспечения.\n\n🚀 От кандидата ожидаем:\n• опыт в тестировании от 4х лет\n• опыт в автотестировании от 3х лет\n• опыт руководства группой тестировщиков от 2х лет\n• практический опыт применения практик тест-дизайна\n• умение проектировать тест-кейсы и подготавливать тестовые данные для тестирования\n• хорошие знание Java, библиотек\n• уверенное использование и понимание как работает под капотом Selenium Webdriver (Selenide и Appium для мобильных платформ)\n• опыт написания собственного фреймворка\n• опыт работы в unix системах\n• опыт работы с API (Soap, Rest)\n• опыт использование git\n• опыт использование CI (желательно, но не обязательно Jenkins)\n• опыт работы с Docker\n• опыт составления запросов SQL\n• опыт управления непрямыми (функциональными) подчиненными\n• умение контролировать несколько проектов одновременно\n• умение мотивировать команду, опыт управления рисками, мониторинг эффективности процессов\n\n🚀 Предлагаем:\n• все по ТК РФ\n• ДМС со стоматологией, программа лояльности\n• Macbook \n• адекватное руководство и лояльные процессы\n• большое комьюнити, классные команды\n• помогаем с релокацией!\n\nРезюме и вопросы @Priboch","markup":[{"type":"hashtag","offset":0,"length":9,"data":"вакансия"},{"type":"hashtag","offset":10,"length":3,"data":"QA"},{"type":"hashtag","offset":14,"length":5,"data":"Java"},{"type":"hashtag","offset":20,"length":13,"data":"QAAutomation"},{"type":"hashtag","offset":34,"length":7,"data":"Москва"},{"type":"hashtag","offset":42,"length":5,"data":"офис"},{"type":"handle","offset":1914,"length":8,"data":"Priboch"}],"date":"2020-06-15T04:41:09+00:00","link":"tg://resolve?domain=qa_jobs&post=0","tags":[{"name":"qa"},{"name":"java"},{"name":"selenium"},{"name":"unix"},{"name":"soap"},{"name":"rest"},{"name":"git"},{"name":"jenkins"},{"name":"docker"},{"name":"sql"}],"cities":[{"code":"moscow"}],"allowsRemote":false}},{"node":{"__typename":"Job","id":"16907239424-1001110946746","title":"Javascript разработчик","text":"#вакансия #front #react #typescript #москва #генетика #javascript #геномэксперт #барсгруп\n\nГород и адрес офиса: Москва, ст.м.Павелецкая\nФормат работы: Офис\nЗанятость: полная.\nЗарплатная вилка: от 200 до 300 на руки. \nНазвание компании: Барс Груп\nhttps://bars.group/\nПроект Геном.Эксперт  - https://genome.expert/ \n\nТребуется senior front-end разработчик в крупный медицинский проект.\n\nПредметная область: Генетика.\nТекущее состояние проекта: Проект запущен с прошлого года, сейчас добираем команду по потребностям проекта, есть уникальная возможность принять участие в создании единого пространства для врачей-генетиков, лабораторных генетиков, биоинформатиков.\n\nЧем придется заниматься:\n\n-Писать микроприложения и компоненты на React;\n-Изучать исходники на Polymer, чтобы переехать на React и микросервисную архитектуру;\n\nТребования:\n\n-Front-end: React(Vue), typescript, Redux/Mobx/Vuex;\n-Межсервисное взаимодействие и API: REST/GraphQL/gRPC. \n\nИнструменты для работы: \n\nGit, bitbucket, JIRA, docker, docker-compose. \n\nУсловия:\n\n-Оформление по ТК РФ;\n-Работа в офисе в пешей доступности от ст.м.Павелецкая (на данный момент удаленка);\n-График 5/2, гибкое начало рабочего дня ;\n-Белая зарплата, повышающаяся по системе аттестаций несколько раз в год;\n-ДМС;\n-Перспективы карьерного роста;\n-Корпоративное обучение (тренинги, мастер-классы);\n-Корпоративная библиотека;\n-Мы рассматриваем кандидатов с возможностью переезда в Москву;\n-Возможность предоставления бесплатного жилья на первый месяц. \n\nКонтакты для связи: \n\nemail: a.starchenko@bars.group \nTelegram: @alinavelcheva \n\nbars.group\nАО «БАРС Груп» - официальный сайт компании\nАО «БАРС Груп» - российский производитель ИТ-решений и экспертный центр в сфере государственной и корпоративной информатизации.","markup":[{"type":"hashtag","offset":0,"length":9,"data":"вакансия"},{"type":"hashtag","offset":10,"length":6,"data":"front"},{"type":"hashtag","offset":17,"length":6,"data":"react"},{"type":"hashtag","offset":24,"length":11,"data":"typescript"},{"type":"hashtag","offset":36,"length":7,"data":"москва"},{"type":"hashtag","offset":44,"length":9,"data":"генетика"},{"type":"hashtag","offset":54,"length":11,"data":"javascript"},{"type":"hashtag","offset":66,"length":13,"data":"геномэксперт"},{"type":"hashtag","offset":80,"length":9,"data":"барсгруп"},{"type":"link","offset":246,"length":19,"data":"https://bars.group/"},{"type":"link","offset":290,"length":22,"data":"https://genome.expert/"},{"type":"link","offset":1523,"length":23,"data":"mailto:a.starchenko@bars.group"},{"type":"handle","offset":1558,"length":14,"data":"alinavelcheva"},{"type":"link","offset":1575,"length":10,"data":"http://bars.group"}],"date":"2020-06-14T19:01:43+00:00","link":"tg://resolve?domain=javascript_jobs_feed&post=16124","tags":[{"name":"javascript"},{"name":"reactjs"},{"name":"typescript"},{"name":"polymerjs"},{"name":"vuejs"},{"name":"redux"},{"name":"rest"},{"name":"graphql"},{"name":"git"},{"name":"docker"},{"name":"docker-compose"}],"cities":[{"code":"moscow"}],"allowsRemote":true}},{"node":{"__typename":"Job","id":"102775128064-1001089317451","title":"Qa инженер","text":"#вакансия #qa #c# #Москва #офис \n‼️Очень ищем Senior QA automation (C#)\n❗️Оформление белое, вознаграждение достойное (до 250т.р.net), компания стабильная, с 2002 года: www.onelya.ru (E-travel)\n❗️От вас - опыт в автоматизации тестирования (на C#) web-приложений не менее 3-х лет и желание развиваться и дальше в этом направлении \n\n❗️Резюме ждём на a.vinogradova@gateline.ru\n‼️Ссылка на вакансию на hh: https://hh.ru/vacancy/37462221","markup":[{"type":"hashtag","offset":0,"length":9,"data":"вакансия"},{"type":"hashtag","offset":10,"length":3,"data":"qa"},{"type":"hashtag","offset":18,"length":7,"data":"Москва"},{"type":"hashtag","offset":26,"length":5,"data":"офис"},{"type":"link","offset":121,"length":10,"data":"http://250т.р.net"},{"type":"link","offset":168,"length":13,"data":"http://www.onelya.ru"},{"type":"link","offset":347,"length":25,"data":"mailto:a.vinogradova@gateline.ru"},{"type":"link","offset":401,"length":30,"data":"https://hh.ru/vacancy/37462221"}],"date":"2020-06-14T13:19:44+00:00","link":"tg://resolve?domain=qa_jobs&post=0","tags":[{"name":"qa"},{"name":"dotnet"},{"name":"web"}],"cities":[{"code":"moscow"}],"allowsRemote":false}},{"node":{"__typename":"Job","id":"16893607936-1001110946746","title":"Js разработчик","text":"Greenatom.ru\n#вакансия #Москва #javascript #React #Typescript #Node.js #Middle #Senior #удаленка #удаленная работа \n\n👨🏼‍💻 Middle/Senior Frontend Developer, Middle/Senior Backend Developer\nГород и адрес офиса: #Москва, 1-й Нагатинский проезд, 10с1, метро Нагатинская\n\n✅Формат работы: \nУДАЛЕННАЯ РАБОТА\n\n💻Занятость: полная, гибкое начало трудового дня.\n\nЗарплатная вилка: от 170 000 до 230 000 руб. на руки.\n\n🏢Компания: АО Гринатом\n\nПривет! Мы растём и активно развиваем ряд внутренних проектов: например, корпоративный портал, горячая линия, собственная кадровая система. Мы формируем НЕСКОЛЬКО КОМАНД и ищем классных:\n\n✅фронтенд разработчиков;\n\n✅бэкенд разработчиков. \n\nПроекты в стадии разработки пилота и у тебя есть возможность повлиять на дальнейшее развитие продукта. Если у тебя есть крутые идеи - ты сможешь их здесь реализовать! Откликайся сам и зови друзей! Вирус пройдёт, работа останется!\n\n✅Требуемые знания и навыки:\n- Опыт разработки от двух лет\n- Хорошее знание чистого JS\n- Опыт работы с TypeScript\n- React, MobX, Less/Sass\n- Опыт написания юнит-тестов с помощью Jest, Enzymе очень приветствуется\n\n💡Наш стек:\n      React, TypeScript, Node.js, MobX, Docker\n\nМы работаем по Scrum.\n\n✅Условия:\n- Официальное оформление по ТК, белая зп;\n- Возможности профессионального и карьерного роста;\n- Дополнительные 3 дня к отпуску;\n- Плавающее начало дня;\n- ДМС со стоматологией\n\n☎️Контакты:\nЮлия - YAnZueva@Greenatom.ru","markup":[{"type":"link","offset":0,"length":12,"data":"http://Greenatom.ru"},{"type":"hashtag","offset":13,"length":9,"data":"вакансия"},{"type":"hashtag","offset":23,"length":7,"data":"Москва"},{"type":"hashtag","offset":31,"length":11,"data":"javascript"},{"type":"hashtag","offset":43,"length":6,"data":"React"},{"type":"hashtag","offset":50,"length":11,"data":"Typescript"},{"type":"hashtag","offset":62,"length":5,"data":"Node"},{"type":"hashtag","offset":71,"length":7,"data":"Middle"},{"type":"hashtag","offset":79,"length":7,"data":"Senior"},{"type":"hashtag","offset":87,"length":9,"data":"удаленка"},{"type":"hashtag","offset":97,"length":10,"data":"удаленная"},{"type":"hashtag","offset":212,"length":7,"data":"Москва"},{"type":"link","offset":1406,"length":21,"data":"mailto:YAnZueva@Greenatom.ru"}],"date":"2020-06-13T18:05:31+00:00","link":"tg://resolve?domain=javascript_jobs_feed&post=16111","tags":[{"name":"javascript"},{"name":"reactjs"},{"name":"typescript"},{"name":"nodejs"},{"name":"sass"},{"name":"docker"}],"cities":[{"code":"moscow"}],"allowsRemote":true}},{"node":{"__typename":"Job","id":"16891510784-1001110946746","title":"Js разработчик","text":"#вакансия #удалённо #фронтенд #javascript #ExtJS\n\nНазвание компании: R-vision\nНазвание вакансии: Frontend developer Ext JS (Sencha)\nФормат работы: удаленка, можно офис (Москва, м. Римская).\nЗанятость: полная\nЗарплатная вилка: от 80 000 – 200 000 руб.\nОписание вакансии: \n«Ищем опытного фронтенд разработчика, который вместе с нами будет создавать инновационные решения, которые позволяют нашим клиентам автоматизировать мониторинг, регистрацию и реагирование на инциденты информационной безопасности и значительно повысить возможности по отражению кибер-атак.\nНаши ожидания от кандидата:\nзнание JavaScript (опыт работы от 2х лет)\nопыт работы с Ext JS (версия не ниже 4-ой, в идеале 6-я)\nопыт работы с PostgreSQL или MySQL\nопыт работы с системами контроля версий\nБудет плюсом:\nзнание D3, Node.js, Highcharts\nопыт работы с Linux\nОбязанности:\nработа над фронтэндом (Ext JS) системы R-Vision (централизованной системы мониторинга и управления информационной безопасностью)\nрешение нестандартных / сложных технических задач, используя весь свой творческий и девелоперский потенциал\nпри желании возможна работа fullstack в связке Node.js + Ext JS.»\nКонтакты: @katrinfek","markup":[{"type":"hashtag","offset":0,"length":9,"data":"вакансия"},{"type":"hashtag","offset":10,"length":9,"data":"удалённо"},{"type":"hashtag","offset":20,"length":9,"data":"фронтенд"},{"type":"hashtag","offset":30,"length":11,"data":"javascript"},{"type":"hashtag","offset":42,"length":6,"data":"ExtJS"},{"type":"handle","offset":1153,"length":10,"data":"katrinfek"}],"date":"2020-06-13T15:05:27+00:00","link":"tg://resolve?domain=javascript_jobs_feed&post=16109","tags":[{"name":"javascript"},{"name":"extjs"},{"name":"postgresql"},{"name":"mysql"},{"name":"nodejs"},{"name":"highcharts"},{"name":"linux"}],"cities":[{"code":"moscow"}],"allowsRemote":true}}]}}},"context":{}}