{"hash":"f5f6bf98bd95e769321482904cbbd488f77922fd","data":{"records":{"id":"objective-c","name":"objective-c","belongsTo":{"totalCount":60,"pageInfo":{"totalPages":6,"currentPage":5},"edges":[{"node":{"__typename":"Job","id":"71583137792-1001054966032","title":"Ios разработчик","text":"‼️Вакансия Senior IOS C++ Developer‼️\n#вакансия #IOS #developer #удаленка\nВ команде Mycelium Wallet (mycelium.com) открыта вакансия Senior IOS C++ Developer.\n💵З/П 3000-4000 USD по итогам собеседования.\nРабота удаленная 💻\n\nМы предлагаем:\n🔸Получить навыки и компетенции в одном из самых передовых и перспективных направлений финтех индустрии - blockchain;\n🔸Принять участие в разработке одного из самых популярных биткоин-стартапов;\n🔸Работать в международной команде бок о бок с ведущими специалистами в индустрии;\n🔸Возможность профессионального карьерного роста и участия в разнообразных проектах компании.\nЧем предстоит заниматься:\n🔸Разрабатывать мультивалютный крипто-валютный кошелек с кросс-платформенным ядром;\n🔸Проектировать и разрабатывать большие функциональные части приложения с привлечением других разработчиков;\n🔸Использовать cutting edge технологии, а также проверенные временем решения;\n🔸Находить решения для нестандартных задач.\nТребования:\n✔️Как минимум 3 года опыта разработки под IOS и опыта программирования на C++;\nЗнание C++ на уровне ведущего разработчика;\n✔️Знание шаблонов проектирования, опыт использования MVP и других архитектурных подходов;\n✔️Знание шаблонов проектирования пользовательских интерфейсов для iOS 9+ (Human Interface Guidelines);\n✔️Знание iOS SDK (UIKit, Foundation, CoreLocation и др.), общее понимание архитектуры iOS;\n✔️Знание особенностей UiKit: storyboards, autolayout, size classes;\n✔️Знание CocoaPods, FastLane, Xcode utils, code analyzers;\n✔️Опыт параллельного и многопоточного программирования, знание примитивов синхронизации (std::thread, std::mutex и тд);\n✔️Понимание циклов работы IOS-приложения и управления памятью;\n✔️Понимание принципов работы REST API, RPC, WS и клиент-серверных приложений;\n✔️Опыт работы с системами контроля версий (Git) и постановки задач (JIRA, TFS, Redmine);\n✔️Знание английского языка на уровне чтения документации и умения общаться в корпоративном чате.\n\nПлюсом будет:\n🔸Знание Objective-С и Swift;\n🔸Умение и понимание необходимости написания Unit tests;\n🔸Знание основ криптографии;\n🔸Опыт работы с bitcoin/etherium blockchain stack;\n🔸Наличие своих проектов на Github, в App Store и т.д.\n\n📲 Контакт : @valeritata","markup":[{"type":"hashtag","offset":38,"length":9,"data":"вакансия"},{"type":"hashtag","offset":48,"length":4,"data":"IOS"},{"type":"hashtag","offset":53,"length":10,"data":"developer"},{"type":"hashtag","offset":64,"length":9,"data":"удаленка"},{"type":"link","offset":101,"length":12,"data":"http://mycelium.com"},{"type":"handle","offset":2196,"length":11,"data":"valeritata"}],"date":"2020-06-18T14:51:09+00:00","link":"tg://resolve?domain=mobile_jobs&post=0","tags":[{"name":"mobile"},{"name":"ios"},{"name":"uikit"},{"name":"cocoapods"},{"name":"xcode"},{"name":"rest"},{"name":"git"},{"name":"tfs"},{"name":"objective-c"},{"name":"swift"},{"name":"github"}],"cities":[],"allowsRemote":true}},{"node":{"__typename":"Job","id":"71577894912-1001054966032","title":"Ios разработчик","text":"#вакансия #iOS #developer #moscow #офис #fulltime\n\n🔸Адрес: Москва, Новокузнецкая\n🔸Формат работы: офис \n🔸Занятость: полная \n🔸ЗП: 180 000-250 000\n\n📣Middle/Senior iOS Разработчик\n\nна один из наших проектов-социальная сеть нового поколения на базе блокчейн-технологий.\n\n🔶Компания Freedom Group International \n\nЧем придётся заниматься:\n🔶Разработка нового функционала в рамках существующего приложения;\n🔶Рефакторинг и апгрейд ранее сделанного функционала\n\nЧто для этого потребуется:\n🔶Опыт разработки мобильных приложений от трех лет;\n🔶Отличные знания ООП, алгоритмов и структур данных;\n🔶Отличное знание Swift;\n🔶Знание Objective-C для правки старого кода;\n🔶Понимание REST API, взаимодействие с backend;\n🔶Опыт работы с GIT\n\nЖелательно знание следующих библиотек:\n   • RxSwift\n   • AFNetworking\n\nМы готовы предложить:\n🔷Уютный, современный офис;\n🔷Гибкий график;\n🔷Дружный коллектив и лояльное руководство;\n🔷Все плюсы работы в «белой» компании\n\n🔶Контакт для связи: @AnutaF","markup":[{"type":"hashtag","offset":0,"length":9,"data":"вакансия"},{"type":"hashtag","offset":10,"length":4,"data":"iOS"},{"type":"hashtag","offset":15,"length":10,"data":"developer"},{"type":"hashtag","offset":26,"length":7,"data":"moscow"},{"type":"hashtag","offset":34,"length":5,"data":"офис"},{"type":"hashtag","offset":40,"length":9,"data":"fulltime"},{"type":"bold","offset":312,"length":24,"data":""},{"type":"bold","offset":458,"length":26,"data":""},{"type":"bold","offset":730,"length":38,"data":""},{"type":"bold","offset":801,"length":21,"data":""},{"type":"handle","offset":972,"length":7,"data":"AnutaF"}],"date":"2020-06-18T13:33:21+00:00","link":"tg://resolve?domain=mobile_jobs&post=0","tags":[{"name":"mobile"},{"name":"ios"},{"name":"swift"},{"name":"objective-c"},{"name":"rest"},{"name":"git"}],"cities":[{"code":"moscow"}],"allowsRemote":false}},{"node":{"__typename":"Job","id":"71571603456-1001054966032","title":"Ios разработчик","text":"#вакансия IOS developer\n\n🏙Город:  в г. Москве (м. Сокольники) или в г. Санкт-Петербурге (м. Адмиралтейская)\n\n🧰Формат: офис\n\n⏳Занятость: полная\n\n💸Зарплатная вилка: 170 000- 190 000 руб.\n\n🔺Описание вакансии: \nВ один из крупнейших банков РФ ищем IOS разработчика. \n\n🔺Мы ждём от вас:\n➖Разработка мобильного приложения для платформы iOS\n➖Два проекта на выбор: мобильный банк для физических лиц и для юридических лиц;\n➖Разработка unit-тестов, рефакторинг, code review;\n➖Формирование принципов командной разработки.\n\n 🔺Для нас важно:\n➖Опыт разработки мобильных приложений от двух лет;\n➖Отличные знания платформы iOS и Swift;\n➖Опыт применения архитектурных паттернов: MV*, VIPER;\n➖Опыт разработки клиент-серверных приложений (HTTP(S), XML, JSON);\n➖Опыт написания unit-тестов;\n➖Опыт работы с GIT.\n\n🔺Будет Вашим преимуществом: \n      \n➖Отличные знания ООП, алгоритмов и структур данных;\n➖Знание Objective-C.   \n\n🔺Мы предлагаем:\n\n➖Официальное оформление по ТК РФ;\n➖График 5/2, гибкое начало и окончание рабочего дня;\n➖Конкурентный уровень дохода: оклад+премии (по итогам собеседования)\n➖Медицинская страховка для себя и членов семьи на особых условиях, страховка для выезжающих за рубеж.\n➖Большое количество льгот\n\n‼️Для переезжающих в Москву или Санкт-Петербург компания предоставляет \n“Релокационный пакет” (компенсация затрат на переезд и съем жилья первые 3 месяца).              \n  \nHR компания: Unicorn Search\n\nПо вакансии обращаться: @olgapivneva","markup":[{"type":"hashtag","offset":0,"length":9,"data":"вакансия"},{"type":"bold","offset":9,"length":14,"data":""},{"type":"bold","offset":27,"length":6,"data":""},{"type":"bold","offset":112,"length":6,"data":""},{"type":"bold","offset":127,"length":9,"data":""},{"type":"bold","offset":148,"length":16,"data":""},{"type":"bold","offset":191,"length":17,"data":""},{"type":"bold","offset":266,"length":17,"data":""},{"type":"bold","offset":518,"length":13,"data":""},{"type":"bold","offset":794,"length":28,"data":""},{"type":"bold","offset":908,"length":16,"data":""},{"type":"bold","offset":1214,"length":45,"data":""},{"type":"bold","offset":1284,"length":21,"data":""},{"type":"bold","offset":1382,"length":14,"data":""},{"type":"handle","offset":1438,"length":12,"data":"olgapivneva"}],"date":"2020-06-18T12:34:40+00:00","link":"tg://resolve?domain=mobile_jobs&post=0","tags":[{"name":"mobile"},{"name":"ios"},{"name":"swift"},{"name":"xml"},{"name":"json"},{"name":"git"},{"name":"objective-c"}],"cities":[],"allowsRemote":false}},{"node":{"__typename":"Job","id":"71570554880-1001054966032","title":"Ios разработчик","text":"#вакансия #swift #objective-C #ios\n\nГород : Санкт-Петербург\nФормат работы: офис или удаленно\nЗанятость: Полная\nЗарплатная вилка:  90 000 - 300 000 руб\n\nОписание компании:\nВ Blogman мы занимаемся разработкой собственного приложения – платформа для блогеров и рекламодателей. В нашей команде уже более 50 разработчиков и мы продолжаем расти. Сейчас мы ищем инженера с опытом коммерческой разработки под iOS.\nОсновной стек технологий — Swift, Realm, Alamofire. Сейчас мы разрабатываем бизнес-функционал и будем рады новому специалисту в нашей команде, вместе с которым мы будем делать быстрое приложение с отзывчивым и плавным интерфейсом.\n\nМы ожидаем, что у вас есть:\n— Опыт коммерческой разработки мобильных приложений под iOS;\n— Хорошие знания Swift, UIKit;\n— Опыт работы с мобильными БД;\n— Умение работать с Git, Cocoapods.\n\nБудет плюсом, если вы:\n— Разрабатывали клиент-серверные приложения;\n— Умеете работать с WebSocket;\n— Знаете и понимаете архитектуру VIPER;\n— Командный игрок без яркого эгоцентризма;\n— Готовы активно принимать участие в жизни компании и продукта.\n\nРады предложить:\n– Удаленное сотрудничество или комфортный офис на Невском проспекте в 5 минутах ходьбы от ст. м. Маяковская и Владимирская;\n– Желаемый оклад по результатам собеседования;\n– Понятную систему роста зарплаты каждые 6 месяцев, в которой все зависит только от вас;\n– Все необходимые офисные блага вроде вкусного кофе и т.д.\nВас будут окружать адекватные люди, с которыми комфортно решать поставленные задачи. У сотрудников есть общие ценности, такие как стремление к качественному результату, забота о продукте и желание двигаться вперед. Также у нас нет “Начальства”, а есть коллеги. Все взаимодействуют горизонтально и в команде равенство между инженерами, стейкхолдером, продактом и т.д. Все работают бок о бок и делают одно общее дело.\nНазвание компании: Blogman\nКонтакты: @maria_golovina","markup":[{"type":"hashtag","offset":0,"length":9,"data":"вакансия"},{"type":"hashtag","offset":10,"length":6,"data":"swift"},{"type":"hashtag","offset":17,"length":10,"data":"objective"},{"type":"hashtag","offset":30,"length":4,"data":"ios"},{"type":"bold","offset":173,"length":8,"data":""},{"type":"bold","offset":438,"length":2,"data":""},{"type":"bold","offset":445,"length":2,"data":""},{"type":"bold","offset":638,"length":27,"data":""},{"type":"bold","offset":826,"length":22,"data":""},{"type":"bold","offset":1073,"length":16,"data":""},{"type":"handle","offset":1862,"length":15,"data":"maria_golovina"}],"date":"2020-06-18T12:32:34+00:00","link":"tg://resolve?domain=mobile_jobs&post=0","tags":[{"name":"mobile"},{"name":"ios"},{"name":"swift"},{"name":"objective-c"},{"name":"realm"},{"name":"uikit"},{"name":"git"},{"name":"cocoapods"},{"name":"websocket"}],"cities":[],"allowsRemote":true}},{"node":{"__typename":"Job","id":"71565312000-1001054966032","title":"Ios разработчик","text":"#вакансия #iOS #москва\n\nНа проект от крупного российского банка требуется Middle iOS разработчик\n\nФормат: офис\n\nВилка ЗП: 150-180К\n\nЛокация: Москва\n\nТребования:\n\n- Опыт разработки под IOS (Objective-C или Swift) от 2 лет\n- Уверенное знание iOS SDK, Xcode\n- Опыт использования одной из архитектур: MVP, MVVM, VIPER\n- Знание особенностей: Collections, Optionals, Protocol Oriented, Generics\n- Понимание, как происходит управление памятью в iOS\n- Понимание принципов проектирования SOLID и желание придерживаться их\n- Наличие опыта работы с REST API, HTTP, JSON, APNs\n- Опыт работы с Git, знание git flow\n\nБудет плюсом:\n\n- Умение писать UI тесты\n- Опыт работы в команде\n\nКонтакт: @mxm_at","markup":[{"type":"hashtag","offset":0,"length":9,"data":"вакансия"},{"type":"hashtag","offset":10,"length":4,"data":"iOS"},{"type":"hashtag","offset":15,"length":7,"data":"москва"},{"type":"bold","offset":73,"length":23,"data":""},{"type":"bold","offset":98,"length":7,"data":""},{"type":"bold","offset":112,"length":9,"data":""},{"type":"bold","offset":132,"length":8,"data":""},{"type":"bold","offset":149,"length":11,"data":""},{"type":"bold","offset":603,"length":13,"data":""},{"type":"bold","offset":668,"length":8,"data":""},{"type":"handle","offset":677,"length":7,"data":"mxm_at"}],"date":"2020-06-18T11:11:25+00:00","link":"tg://resolve?domain=mobile_jobs&post=0","tags":[{"name":"mobile"},{"name":"ios"},{"name":"objective-c"},{"name":"swift"},{"name":"xcode"},{"name":"mvvm"},{"name":"rest"},{"name":"json"},{"name":"git"}],"cities":[{"code":"moscow"}],"allowsRemote":false}},{"node":{"__typename":"Job","id":"71563214848-1001054966032","title":"Ios разработчик","text":"#вакансия #ios #офис #удаленка\n\nГород: Москва (Сокольники или Павелецкая), есть релокационный пакет\n\nФормат работы: офис, но также возможна удаленка из Москвы, Питера, Самары\n\nЗанятость: полная\n\nВилка: 180-250 т.р. на руки\n\nКоманда iOS разработчиков ищет коллегу для создания и развития функционала мобильного банка.\n\nСтек: Swift (99%), Objective-C (1%), VIPER/VIP, Alamofire, Gitlab CI\n\nЧто потребуется:\n\n• Отличные знания платформы iOS\n• Опыт применения VIPER/VIP\n• Опыт разработки клиент-серверных приложений\n\nБудет плюсом:\n\nЗнание ООП, алгоритмов и структур данных, Objective-C\n\nНазвание компании: ПСБ\nhttps://www.psbank.ru/\nhttps://hh.ru/vacancy/33110376\n\nКонтакты: @max_gusev\ngusevms@psbank.ru","markup":[{"type":"hashtag","offset":0,"length":9,"data":"вакансия"},{"type":"hashtag","offset":10,"length":4,"data":"ios"},{"type":"hashtag","offset":15,"length":5,"data":"офис"},{"type":"hashtag","offset":21,"length":9,"data":"удаленка"},{"type":"bold","offset":32,"length":6,"data":""},{"type":"bold","offset":101,"length":14,"data":""},{"type":"bold","offset":176,"length":10,"data":""},{"type":"bold","offset":195,"length":7,"data":""},{"type":"bold","offset":388,"length":16,"data":""},{"type":"bold","offset":513,"length":13,"data":""},{"type":"bold","offset":583,"length":18,"data":""},{"type":"link","offset":606,"length":21,"data":"https://www.psbank.ru/"},{"type":"link","offset":629,"length":30,"data":"https://hh.ru/vacancy/33110376"},{"type":"bold","offset":661,"length":9,"data":""},{"type":"handle","offset":671,"length":10,"data":"max_gusev"},{"type":"link","offset":682,"length":17,"data":"mailto:gusevms@psbank.ru"}],"date":"2020-06-18T11:08:38+00:00","link":"tg://resolve?domain=mobile_jobs&post=0","tags":[{"name":"mobile"},{"name":"ios"},{"name":"swift"},{"name":"objective-c"},{"name":"gitlab"}],"cities":[{"code":"moscow"}],"allowsRemote":true}},{"node":{"__typename":"Job","id":"71531757568-1001054966032","title":"Ios разработчик","text":"#вакансия #шымкент #офис #fulltime #фултайм #ios #swift\nВсем привет!\nВ компанию \"SmartIdeaGroup\" требуется мобильный iOS разработчик на проект \"Pillikan\". \n\nОбязанности:\n- Техническая поддержка текущего приложения;\n- Разработка новых фич.\n\nТребования:\n- Опыт работы от 2-х лет;\n- Верстка UI;\n- Знание паттернов: MVC, MVP, MVVM.\n- Владение Swift, Objective-C;\n- Принципы построения и работы с API.\n\n\nУсловия:\n- Дружный коллектив;\n- Заработная плата 150к - 500к kzt;\n- Полная занятость, полный день;\n- 5-дневная рабочая неделя, пн-пт с 9:00 до 19:00.\n\nг. Шымкент\n+7 (701) 169 21 89 (whatsapp, telegram) Бекарыс","markup":[{"type":"hashtag","offset":0,"length":9,"data":"вакансия"},{"type":"hashtag","offset":10,"length":8,"data":"шымкент"},{"type":"hashtag","offset":19,"length":5,"data":"офис"},{"type":"hashtag","offset":25,"length":9,"data":"fulltime"},{"type":"hashtag","offset":35,"length":8,"data":"фултайм"},{"type":"hashtag","offset":44,"length":4,"data":"ios"},{"type":"hashtag","offset":49,"length":6,"data":"swift"},{"type":"bold","offset":157,"length":13,"data":""},{"type":"bold","offset":240,"length":12,"data":""},{"type":"bold","offset":399,"length":9,"data":""},{"type":"link","offset":561,"length":18,"data":"tel:+7 (701) 169 21 89"}],"date":"2020-06-18T06:16:58+00:00","link":"tg://resolve?domain=mobile_jobs&post=0","tags":[{"name":"mobile"},{"name":"ios"},{"name":"swift"},{"name":"mvvm"},{"name":"objective-c"}],"cities":[],"allowsRemote":false}},{"node":{"__typename":"Job","id":"71492960256-1001054966032","title":"Ios разработчик","text":"#вакансия #удаленнаяработа #senior #ios\n\nКомпания - VMB\nПозиция - middle+ / senior iOS разработчик\nФормат - удаленная работа\nГрафик - полный день\n \nЧто нужно делать?\n ⁃ Разработка мобильных приложений для iPhone и iPad \n ⁃ Анализ предметной области, требований, участие в экспертной оценке\n ⁃ Разработка нового функционала, исправление ошибок, оптимизация \n ⁃ Рефакторинг и code review\n\nЧто ждём от вас?\n ⁃ знание Objective -C, опыт разработки под IOS от 3-х лет \n ⁃ Наличие завершенных проектов\n ⁃ Наличие портфолио успешно реализованных проектов \n ⁃ Знание классических алгоритмов и структур данных\n ⁃ Знание CoreData, использование CocoaPods или Carthage, понимание Stroeyboards и Autolayout\n\nУсловия:\n ⁃ зп: 150к-200к рублей\n ⁃ гибкое начало рабочего дня\n ⁃ возможность развиваться и развивать социальный и известный проект \n\nКонтакты:\n@nariarakel","markup":[{"type":"hashtag","offset":0,"length":9,"data":"вакансия"},{"type":"hashtag","offset":10,"length":16,"data":"удаленнаяработа"},{"type":"hashtag","offset":27,"length":7,"data":"senior"},{"type":"hashtag","offset":35,"length":4,"data":"ios"},{"type":"handle","offset":840,"length":11,"data":"nariarakel"}],"date":"2020-06-17T15:05:53+00:00","link":"tg://resolve?domain=mobile_jobs&post=0","tags":[{"name":"mobile"},{"name":"ios"},{"name":"objective-c"},{"name":"cocoapods"}],"cities":[],"allowsRemote":true}},{"node":{"__typename":"Job","id":"71420608512-1001054966032","title":"Ios разработчик","text":"#вакансия #iOS #москва\n\nНа проект от крупного российского банка требуется Middle iOS разработчик\n\nФормат: офис\n\nВилка ЗП: 150-180К\n\nЛокация: Москва\n\nТребования:\nОпыт разработки под IOS (Objective-C или Swift) от 2 лет\nУверенное знание iOS SDK, Xcode\nОпыт использования одной из архитектур: MVP, MVVM, VIPER\nЗнание особенностей: Collections, Optionals, Protocol Oriented, Generics\nПонимание, как происходит управление памятью в iOS\nПонимание принципов проектирования SOLID и желание придерживаться их\nНаличие опыта работы с REST API, HTTP, JSON, APNs\nОпыт работы с Git, знание git flow\nЖелательно уметь писать UI тесты\nЖелателен опыт в команде\n\nКонтакт: @mxm_at","markup":[{"type":"hashtag","offset":0,"length":9,"data":"вакансия"},{"type":"hashtag","offset":10,"length":4,"data":"iOS"},{"type":"hashtag","offset":15,"length":7,"data":"москва"},{"type":"handle","offset":653,"length":7,"data":"mxm_at"}],"date":"2020-06-16T17:18:18+00:00","link":"tg://resolve?domain=mobile_jobs&post=0","tags":[{"name":"mobile"},{"name":"ios"},{"name":"objective-c"},{"name":"swift"},{"name":"xcode"},{"name":"mvvm"},{"name":"rest"},{"name":"json"},{"name":"git"}],"cities":[{"code":"moscow"}],"allowsRemote":false}},{"node":{"__typename":"Job","id":"71412219904-1001054966032","title":"Ios developer","text":"#УДАЛЕНКА #вакансия #Москва #reactnative #senior #iOS #гибкийграфик #GBP  #vacancy #startup #Sweatcoin \n☀️Всем привет! Ищу к нам в команду Senior iOS Developer в #Sweatcoin - №1 in Appstore среди Health&Fitness приложений \nГород Москва, м Чистые пруды/Тургеневская, возможна удаленка \nФормат работы: удаленка/офис, все как вы захотите (вы можете находиться, где угодно, главное быть на связи с 10 до 16 по Лондону) \nЗанятость: полная, гибкий график\n💷Зарплатная вилка: от 180 до 250 K RUR Net, ЗП зафиксированная в фунтах (GBP); Также оплачиваем участие в отраслевых международных конференциях, бывают командировки в Лондон и 3-х месячные вылазки зимой в Португалию всем офисом 🌅 Также в перспективе возможна релокация в Европу \nОписание вакансии: Задачи сложные и интересные, на любой вкус — космический и сложный UI, борьба с батарейкой, GPS/Sensors, защита от фрода и безопасность, ML/AI, аналитика и рост, a/b тестирование, Apple Watch и различные wearables - в общем, разнообразно. Часть проекта реализована на React Native.\n\nОт вас требуется\n* Наличие завершенного приложения, доступного в AppStore\n* Английский не ниже intermediate\n* Опыт коммерческой разработки от 3-ти лет\n* Отличное и глубокое понимание Swift, Objective-C и платформы в целом.\n* Уметь писать поддерживаемый и читабельный код, знать паттерны проектирования\n* Прекрасно владеть git, не бояться rebase, делать code review и пул реквесты\n* Будет большим плюсом, если вы знакомы с React Native или JS, а также участвуете в open-source проектах или помогаете остальным на stackoverflow\n\nНаше приложение уверенно занимает первое место в AppStore и Google Play в категории Health&Fitness в Америке и Англии, а также входит в Top 10 Overall. Количество пользователей постоянно растет (порядка 70 000 загрузок в день, за последний год выросли с 8 млн до 30 млн), сейчас приложением пользуются порядка 30 млн человек в 40 странах. Присоединяйся к глобальному проекту! \nДетали по ссылке: https://sweatco.in/team\nКонтакты: @ElenaZangeeva","markup":[{"type":"hashtag","offset":0,"length":9,"data":"УДАЛЕНКА"},{"type":"hashtag","offset":10,"length":9,"data":"вакансия"},{"type":"hashtag","offset":20,"length":7,"data":"Москва"},{"type":"hashtag","offset":28,"length":12,"data":"reactnative"},{"type":"hashtag","offset":41,"length":7,"data":"senior"},{"type":"hashtag","offset":49,"length":4,"data":"iOS"},{"type":"hashtag","offset":54,"length":13,"data":"гибкийграфик"},{"type":"hashtag","offset":68,"length":4,"data":"GBP"},{"type":"hashtag","offset":74,"length":8,"data":"vacancy"},{"type":"hashtag","offset":83,"length":8,"data":"startup"},{"type":"hashtag","offset":92,"length":10,"data":"Sweatcoin"},{"type":"hashtag","offset":162,"length":10,"data":"Sweatcoin"},{"type":"link","offset":1954,"length":23,"data":"https://sweatco.in/team"},{"type":"handle","offset":1988,"length":14,"data":"ElenaZangeeva"}],"date":"2020-06-16T14:55:34+00:00","link":"tg://resolve?domain=mobile_jobs&post=0","tags":[{"name":"mobile"},{"name":"ios"},{"name":"dotnet"},{"name":"reactjs"},{"name":"swift"},{"name":"objective-c"},{"name":"git"},{"name":"playframework"},{"name":"react-native"}],"cities":[{"code":"moscow"},{"code":"london"}],"allowsRemote":true}}]}}},"context":{}}