{"hash":"f5f6bf98bd95e769321482904cbbd488f77922fd","data":{"records":{"id":"nodejs","name":"nodejs","belongsTo":{"totalCount":122,"pageInfo":{"totalPages":13,"currentPage":1},"edges":[{"node":{"__typename":"Job","id":"17361272832-1001110946746","title":"Js разработчик","text":"#вакансия #node.js #typescript #офис #москва #мск #частичноудаленка \nГород и адрес офиса:  #москва #мск  #калужская\nФормат работы: офис, фултайм, гибкий график, можно несколько дней в неделю удаленно\nЗанятость: полная\nЗарплатная вилка: 160-230 т.р. net \nОписание вакансии: \nИщу сейчас Node.js разработчика в компанию, разрабатывающую собственную платформу для бесконтактных заказов: QR приложение (облачный киоск), мобильные приложения и терминалы самообслуживания для сетей ресторанов и кофеен. Продукт позволяет автоматизировать процесс заказа, сбора, оплаты и выдачи заказа - и сделать эти шаги бесконтактными.\n\nОформление белое, сейчас сильно масштабируем наш продукт и есть все возможные перспективы роста 😊\nНазвание компании:  Star-Staff\nКонтакты: пишите на этот тг @yuliaataman","markup":[{"type":"hashtag","offset":0,"length":9,"data":"вакансия"},{"type":"hashtag","offset":10,"length":5,"data":"node"},{"type":"hashtag","offset":19,"length":11,"data":"typescript"},{"type":"hashtag","offset":31,"length":5,"data":"офис"},{"type":"hashtag","offset":37,"length":7,"data":"москва"},{"type":"hashtag","offset":45,"length":4,"data":"мск"},{"type":"hashtag","offset":50,"length":17,"data":"частичноудаленка"},{"type":"hashtag","offset":91,"length":7,"data":"москва"},{"type":"hashtag","offset":99,"length":4,"data":"мск"},{"type":"hashtag","offset":105,"length":10,"data":"калужская"},{"type":"handle","offset":773,"length":12,"data":"yuliaataman"}],"date":"2020-07-03T11:24:50+00:00","link":"tg://resolve?domain=javascript_jobs_feed&post=16557","tags":[{"name":"javascript"},{"name":"nodejs"},{"name":"typescript"},{"name":"dotnet"}],"cities":[{"code":"moscow"}],"allowsRemote":true}},{"node":{"__typename":"Job","id":"17354981376-1001110946746","title":"Js developer","text":"#вакансия #ReactNative #NodeJS #Remote \n\n✅Вакансия: React Native  Developer\n✅Занятость: full-time, remote\n✅ЗП вилка:180000- 250 000 rub\nКА: IT.HuntMe\n\nCurrently we are looking for a Senior React Native Software Engineer to work on solutions for enterprise-level clients with our best-in-class engineering and design teams. \n❇️Responsibilities:\n* Build New ReactNative app\n* Integrate with our Cloud-based video editing API\n* Implement new UI to expose new editing features\n* Convert product requirements into actionable and tangible items for all stakeholders\n* Overall Design - code, performance, security\n* Release estimation, planning and timely integration with other stakeholders (product, app, backend, ui/ux etc)\n* Performance fixes and optimization\n* JSON API design and finalization\n* Continuously discover, evaluate, and implement new best practices to maximize development quality efficiency\n* Code review\n* Build modular, efficient, testable, and reusable React components\n\n❇️Basic qualifications:\n* Experienced, ReactNative Lead\n* Comfortable with modern JS frameworks (NodeJS, ReactJS/AngularJS), MongoDB, HTML5 and SASS\n* Have experience building and running production-ready API’s\n* 2+ years of React Native/full-stack work experience\n* Influence which tools, programming languages, and technologies you work with\n* Help ensure we have a smooth software pipeline for continuous and fast delivery\n* Balance discovery phases with implementation work\n* Be excellent at working both independently and in a team\n* Passion for software development, scalable architecture and product build\n\n♻️Preferred qualifications:\n* Native Android or iPhone development experience, or experience developing in Ionic\n* Experience building a SaaS service\n* User interface and visual design skills\n* Experience with Azure/AWS\n\n👍 WE OFFER:  \n* Competitive compensation depending on experience and skills  \n* Work in enterprise-level projects on a long-term basis  \n* Full-time remote work (you can work from anywhere you are)  \n* Unlimited access to learning courses \n* Community of 36,700+ industry’s top professionals  \n\n✍️Контакты: @mary_itfox или it.huntme@gmail.com","markup":[{"type":"hashtag","offset":0,"length":9,"data":"вакансия"},{"type":"hashtag","offset":10,"length":12,"data":"ReactNative"},{"type":"hashtag","offset":23,"length":7,"data":"NodeJS"},{"type":"hashtag","offset":31,"length":7,"data":"Remote"},{"type":"handle","offset":2129,"length":11,"data":"mary_itfox"},{"type":"link","offset":2145,"length":19,"data":"mailto:it.huntme@gmail.com"}],"date":"2020-07-03T09:55:06+00:00","link":"tg://resolve?domain=javascript_jobs_feed&post=16551","tags":[{"name":"javascript"},{"name":"nodejs"},{"name":"reactjs"},{"name":"cloud"},{"name":"json"},{"name":"angularjs"},{"name":"mongodb"},{"name":"html"},{"name":"sass"},{"name":"android"},{"name":"azure"},{"name":"amazon-web-services"},{"name":"ms-access"},{"name":"react-native"},{"name":"user-interface"}],"cities":[],"allowsRemote":true}},{"node":{"__typename":"Job","id":"368050176-1001352129329","title":"Golang developer","text":"#вакансия #golang \nФормат работы: г. Нижний Новгород, Ереван, также готовы рассмотреть на удаленную работу\nПолный день, полная занятость\nТребуемый опыт работы: от 3-х лет\nЗаработная плата: 180 000 - 250 000 рублей на руки (сумма обсуждается индивидуально по итогам собеседования)\n\nКаждый день ты сидишь за компьютером или держишь смартфон в руках, листаешь разные сайты с вакансиями, но ничего не можешь найти. Казалось бы, такое огромное разнообразие работы, но все не твоё. В какой-то момент ты уже теряешь надежду на поиск, закрываешь свое резюме и в этот момент появляется вакансия, которую ты так долго искал... та-дам!!!!\nКомпания all.me открывает вакансию «Senior Golang developer».\nВ этот момент ты вскакиваешь с дивана и немного пританцовывая начинаешь читать вакансию и понимаешь, что те требования, которые выдвигает компания у тебя есть.\n\n- Опыт работы с Golang более 3 лет;\n- Опыт работы с MongoDb, Redis;\n- Опыт работы с Node.JS;\n- Опыт написания unit-тестов;\n- Хорошее понимание микросервисной архитектуры;\n- Опыт работы с docker;\n- Опыт работы с графовыми базами.\n\nНо и это еще не все, далее ты начинаешь читать условия и понимаешь, что это не просто компания, а компания твоей мечты.\n\n- Международная команда профессионалов;\n- Конкурентная заработная плата, по результатам собеседования;\n- Карьерный рост, профессиональное развитие;\n- Отличный старт для начинающих специалистов;\n- Уникальные мотивационные программы;\n- Программа ДМС “Премиум”;\n- Корпоративная онлайн-библиотека;\n- Активная корпоративная жизнь;\n- Новейшее оборудование на выбор;\n- Комфортабельный офис с современным дизайном.\n\nЗатем ты листаешь вакансию уже с еще наибольшим интересом, потому что впереди тебя ждет главное, это задачи.\n\n- Разработка сервисов на Golang;\n- Написание unit-тестов;\n- Создание качественного, легко поддерживаемого кода;\n- Разработка новых и доработка существующих сервисов в backend.\n\nПрочитав всю вакансию «Senior Golang developer» в компании all.me ты уверено нажимаешь на «Откликнуться» и составляешь сопроводительное письмо и, как назло, именно в этот момент начинает играть будильник и тут ты понимаешь, что это был всего лишь сон...\nТакой грустный финал, что даже один гофер, стоящий в углу, немного прослезился.\nНо компания all.me – это не сон, это реальность и у тебя еще есть время заявить о себе.\nКак это сделать, да очень просто, видишь контакты снизу, выбирай любой и направляй свое резюме в компанию мечты и возможно совсем скоро эта мечта станет для тебя реальностью.\nmail: Oleg.Oltybaev@all.me\ntelegram: @oltybaevmus\ntelephone: +7 (996) 009-06-82 – Олег","markup":[{"type":"hashtag","offset":0,"length":9,"data":"вакансия"},{"type":"hashtag","offset":10,"length":7,"data":"golang"},{"type":"link","offset":637,"length":6,"data":"http://all.me"},{"type":"link","offset":1956,"length":6,"data":"http://all.me"},{"type":"link","offset":2243,"length":6,"data":"http://all.me"},{"type":"link","offset":2500,"length":20,"data":"mailto:Oleg.Oltybaev@all.me"},{"type":"handle","offset":2531,"length":12,"data":"oltybaevmus"},{"type":"link","offset":2555,"length":18,"data":"tel:+7 (996) 009-06-82"}],"date":"2020-07-03T09:28:42+00:00","link":"tg://resolve?domain=gogetajobfeed&post=351","tags":[{"name":"go"},{"name":"mongodb"},{"name":"redis"},{"name":"nodejs"},{"name":"docker"}],"cities":[{"code":"yerevan"},{"code":"nizhny-novgorod"}],"allowsRemote":false}},{"node":{"__typename":"Job","id":"17353932800-1001110946746","title":"Js разработчик","text":"#вакансия #удаленка #москва #developer #frontend #react #node #middle\n\n🔹Город и адрес офиса:  \n • Москва, удаленная \n\n🔹Требования:\n • В  US  компанию , требуется разработчик, на полную   занятость, статус Independent Contractor, удаленная работа, slack,  jira.\n\n🔹Формат работы: \n • Ближайшее время преимущественно удаленно, есть идея сделать в Мск штаб и будут встречи-гибкая офисная работа после окончания карантинов\n\n🔹Зарплатная вилка: \n • 2000-3000 $ , контракт\n\n🔹Ищу:\n•  Подбираю фулстек мидл инженера со знанием бэкенда, но c приоритетом на веб фронтенд - развиваем web app, в том числе потребуется верстка панели администратора.\n•  Стек : Node.js, Express, MongoDB, React, HTTP, Soсket, Асинхронные запросы, Знание паттернов, Bootstrap.\n\n\n🔹Контакты: \n•  Cтучитесь в лк (@kotenkov)","markup":[{"type":"hashtag","offset":0,"length":9,"data":"вакансия"},{"type":"hashtag","offset":10,"length":9,"data":"удаленка"},{"type":"hashtag","offset":20,"length":7,"data":"москва"},{"type":"hashtag","offset":28,"length":10,"data":"developer"},{"type":"hashtag","offset":39,"length":9,"data":"frontend"},{"type":"hashtag","offset":49,"length":6,"data":"react"},{"type":"hashtag","offset":56,"length":5,"data":"node"},{"type":"hashtag","offset":62,"length":7,"data":"middle"},{"type":"handle","offset":782,"length":9,"data":"kotenkov"}],"date":"2020-07-03T09:01:00+00:00","link":"tg://resolve?domain=javascript_jobs_feed&post=16550","tags":[{"name":"javascript"},{"name":"reactjs"},{"name":"nodejs"},{"name":"web"},{"name":"express"},{"name":"mongodb"},{"name":"bootstrap"}],"cities":[{"code":"moscow"}],"allowsRemote":true}},{"node":{"__typename":"Job","id":"17347641344-1001110946746","title":"Js разработчик","text":"#вакансия #JavaScript #React #ReactNative #Node #офис #Москва\nГород и адрес офиса: Москва, м.Дмитровская\nФормат работы: Офис на испытательный срок, далее - возможна удаленка, пятидневка\nЗанятость: Полный день\nЗарплатная вилка: от 150 000 до 200 000 руб.; с опытным кандидатом готовы обсуждать уровень выше.\n\nО компании: проект из Амстердама, занимающийся созданием приложений для веб - / мобильных / настольных компьютеров и разрабатывает решения для масштабируемого бизнеса в Европе и за ее пределами.\nОт Вас:\n- сильные навыки JavaScript, качественный опыт на React;\n- опыт в интеграции облачных сервисов RESTful APIs, GraphQL;\n- знание методологии Agile/Scrum\n- навыки разработки Node.js applications (API servers, SSR, Tooling)\n- опыт работы с React Native или нативной мобильной разработкой;\n- опыт публичных выступлений будет преимуществом;\n- беглый разговорный английский.\nНазвание компании: Sirotina Personnel\nКонтакты: @nicedream13","markup":[{"type":"hashtag","offset":0,"length":9,"data":"вакансия"},{"type":"hashtag","offset":10,"length":11,"data":"JavaScript"},{"type":"hashtag","offset":22,"length":6,"data":"React"},{"type":"hashtag","offset":29,"length":12,"data":"ReactNative"},{"type":"hashtag","offset":42,"length":5,"data":"Node"},{"type":"hashtag","offset":48,"length":5,"data":"офис"},{"type":"hashtag","offset":54,"length":7,"data":"Москва"},{"type":"handle","offset":927,"length":12,"data":"nicedream13"}],"date":"2020-07-03T07:39:55+00:00","link":"tg://resolve?domain=javascript_jobs_feed&post=16544","tags":[{"name":"javascript"},{"name":"reactjs"},{"name":"nodejs"},{"name":"graphql"},{"name":"react-native"}],"cities":[{"code":"moscow"}],"allowsRemote":true}},{"node":{"__typename":"Job","id":"17342398464-1001110946746","title":"Js разработчик","text":"#вакансия #remote #frontend #fullstack #Angular #Node #middle #senior #remote\n\nФормат работы: remote \nЗанятость: fulltime\nВилка: 120 - 220k net \n\nНа протяжении 14 лет наша команда создает кастомные веб/мобильные приложения и дизайн. \nПриглашаем к сотрудничеству на удаленной постоянной основе опытного fullstack разработчика со знанием Angular 9 и Node.js\n\nПроект:  сервис для разработчиков\n\nЗадачи: fullstack разработка front-end и back-end на Angular 9 и Node.js \n\nНазвание компании: Softlight \n\nТребования: \nОпыт в разработке front-end на Angular от 2-х лет \nОпыт в разработке back-end на Node.js от 2-х лет \nработа в команде\nРазговорный английский - Intermediate и выше \n\nМы предлагаем:\n- Полностью удаленную работу\n- Интересный зарубежный сервис для разработчиков (USA)\n- Пятидневная рабочая неделя ( с 9-10 до 18-19 МСК), госпраздники - выходные\n- Оформление ИП\n- Оплачиваемый отпуск и больничный \n- Работу в слаженной опытной команде\n\nКонтакты: @MikeHR или mzaharov@softlightllc.com","markup":[{"type":"hashtag","offset":0,"length":9,"data":"вакансия"},{"type":"hashtag","offset":10,"length":7,"data":"remote"},{"type":"hashtag","offset":18,"length":9,"data":"frontend"},{"type":"hashtag","offset":28,"length":10,"data":"fullstack"},{"type":"hashtag","offset":39,"length":8,"data":"Angular"},{"type":"hashtag","offset":48,"length":5,"data":"Node"},{"type":"hashtag","offset":54,"length":7,"data":"middle"},{"type":"hashtag","offset":62,"length":7,"data":"senior"},{"type":"hashtag","offset":70,"length":7,"data":"remote"},{"type":"handle","offset":952,"length":7,"data":"MikeHR"},{"type":"link","offset":964,"length":25,"data":"mailto:mzaharov@softlightllc.com"}],"date":"2020-07-03T06:42:56+00:00","link":"tg://resolve?domain=javascript_jobs_feed&post=16539","tags":[{"name":"javascript"},{"name":"angularjs"},{"name":"nodejs"},{"name":"dotnet"}],"cities":[],"allowsRemote":true}},{"node":{"__typename":"Job","id":"17338204160-1001110946746","title":"Js developer","text":"#вакансия \n\nГород и адрес офиса: Москва (Калужская) или remote\nФормат работы: удаленка\nЗанятость: проектная\nЗарплатная вилка: от 90000 до 140000 руб / мес, для опытных возможен part-time (4 часа в день)\nОписание вакансии: JavaScript Node.js Developer\n\n📲 Кто мы?\n\n→ Компания Axept занимается консалтингом и заказной разработкой программных продуктов.\n→ Наши клиенты – Интернет-компании, профессиональные стартапы и крупные корпорации (Россия, Европа, Сингапур, Японии, США).\n→ Текущий портфель проектов – Личные кабинеты, ERP, Поисковые системы, CRM, Dashboards, Социальные сети, мобильные приложения.\n→ Центр разработки находится в Москве. Но 70% сотрудников работают удалённо по всему миру.\n→ Ключевой момент — мы относимся к проектам наших клиентов ❤️, как к своим собственным, с любовью и максимальной ответственностью.\n→ Много лет команнда Axept развивает сообщества Node.js, React.js и Kubernetes в России.\n→ Мы искренне любим то, что делаем и постоянно улучшаемся. Более подробно здесь – www.axept.com/ru-ru/jobs\n\n🎸 Задачи:\n\n1. Разработка Backend для ERP-платформы (Node.js, TypeScript, PostgreSQL, Redis, Express.js, Knex.js, Passport)\n2. Реализация REST API по модели www.jsonapi.org\n3. Документирование разрабатываемого REST API на Swagger или Apiary \n4. Разработка WebSockets-интерфейса\n\n🏆 Для этого вам потребуется:\n\n1. Опыт работы с PostgreSQL и Redis на уровне прямых коннекторов и knex (включая миграции)\n2. Понимание базовых принципов построения отказоустойчивой архитектуры\n3. Взаимодействие с файловой системой\n4. Свободное владение TypeScript\n5. Опыт работы с Express.js, Sentry и логгерами (Bunyan)\n6. Ваши будущие коллеги на Front-end используют React.js, поэтому понимае React.js и Redux будет плюсом\n7. Желание и готовность активно развиваться 🙂\n\n🎁 Что мы предлагаем?\n\n1. Полнностью удаленная работа (remote).\n2. Сильная команда коллег.\n3. Проекты и задачи, которые реально развивают.\n4. Оформление по ТК РФ. ЗП два раза в месяц.\n5. Опционально – ДМС, конференции, тренинги.\n6. Возможность присоединниться в офисе в БЦ НеоГео (Калужская) – самом стильном и награждаемом БЦ Москвы. В офисе новая техника от iMac до Dell, завтраки, M&Ms и прочие радости.\n7. Быстрая прокачка и гордость за результаты достигнутые вместе.\n8. Админка в @nodejs_ru (шутка).\n\n📩 Напишите краткий рассказ о себе и приложение резюме, отправьте сообщение @DenisIzmaylov или на @AxeptJobs или jobs@ru.axept.com","markup":[{"type":"hashtag","offset":0,"length":9,"data":"вакансия"},{"type":"link","offset":995,"length":24,"data":"http://www.axept.com/ru-ru/jobs"},{"type":"link","offset":1178,"length":15,"data":"http://www.jsonapi.org"},{"type":"handle","offset":2258,"length":10,"data":"nodejs_ru"},{"type":"handle","offset":2355,"length":14,"data":"DenisIzmaylov"},{"type":"handle","offset":2377,"length":10,"data":"AxeptJobs"},{"type":"link","offset":2392,"length":17,"data":"mailto:jobs@ru.axept.com"}],"date":"2020-07-02T18:48:53+00:00","link":"tg://resolve?domain=javascript_jobs_feed&post=16535","tags":[{"name":"javascript"},{"name":"nodejs"},{"name":"reactjs"},{"name":"kubernetes"},{"name":"typescript"},{"name":"postgresql"},{"name":"redis"},{"name":"express"},{"name":"rest"},{"name":"swagger"},{"name":"redux"},{"name":"react-redux"}],"cities":[{"code":"moscow"},{"code":"singapore"}],"allowsRemote":true}},{"node":{"__typename":"Job","id":"17337155584-1001110946746","title":"Js разработчик","text":"#вакансия #node.js #typescript #офис #москва #мск #remote #удаленка \nГород и адрес офиса:  #москва #мск  #арбатская\nФормат работы: офис, фултайм, гибкий график, можно удаленно (с редкими встречами в мск, поэтому важно, чтобы вы жили не очень далеко от мск)\nЗанятость: полная\nЗарплатная вилка: 180-250 т.р. net \nОписание вакансии: \nИщу сейчас Node.js разработчика в финтех проект (Openbanking, psd2) -  это новый продукт в онлайн покупках на европейском рынке, со своей «платежкой», которое сделает эту сферу более технологичной и еще проще и доступнее для пользователей:\n- новое удобное решение для b2c клиентов (мобильное приложение)\n- выгодные условия для b2b партнеров (низкие комиссии за транзакции)\n\nОформление белое, проект полностью с нуля, только собираем команду, есть возможность максимального влияния на продукт, на выбор технологий и построение процессов.\n\nНазвание компании:  Star-Staff\nКонтакты: пишите на этот тг @yuliaataman","markup":[{"type":"hashtag","offset":0,"length":9,"data":"вакансия"},{"type":"hashtag","offset":10,"length":5,"data":"node"},{"type":"hashtag","offset":19,"length":11,"data":"typescript"},{"type":"hashtag","offset":31,"length":5,"data":"офис"},{"type":"hashtag","offset":37,"length":7,"data":"москва"},{"type":"hashtag","offset":45,"length":4,"data":"мск"},{"type":"hashtag","offset":50,"length":7,"data":"remote"},{"type":"hashtag","offset":58,"length":9,"data":"удаленка"},{"type":"hashtag","offset":91,"length":7,"data":"москва"},{"type":"hashtag","offset":99,"length":4,"data":"мск"},{"type":"hashtag","offset":105,"length":10,"data":"арбатская"},{"type":"handle","offset":928,"length":12,"data":"yuliaataman"}],"date":"2020-07-02T17:44:34+00:00","link":"tg://resolve?domain=javascript_jobs_feed&post=16534","tags":[{"name":"javascript"},{"name":"nodejs"},{"name":"typescript"},{"name":"dotnet"}],"cities":[{"code":"moscow"}],"allowsRemote":true}},{"node":{"__typename":"Job","id":"17334009856-1001110946746","title":"Js developer","text":"#вакансия #fulltime #backend #js #node\nBackend developer\nГород: Москва\nФормат работы: удаленная работа \nЗанятость: полная\nДиапазон: от 250 до 700 руб./ч\n\nОписание вакансии: Проект связан с сферой обучения. Задачи разработкa rest api и базы данных.\nСтек технологий: \n-node.js;\n- express.js;\n- sockets.\n\nКомпания: Secreate\nКонтакты: telegram @karysha","markup":[{"type":"hashtag","offset":0,"length":9,"data":"вакансия"},{"type":"hashtag","offset":10,"length":9,"data":"fulltime"},{"type":"hashtag","offset":20,"length":8,"data":"backend"},{"type":"hashtag","offset":29,"length":3,"data":"js"},{"type":"hashtag","offset":33,"length":5,"data":"node"},{"type":"handle","offset":340,"length":8,"data":"karysha"}],"date":"2020-07-02T16:35:35+00:00","link":"tg://resolve?domain=javascript_jobs_feed&post=16531","tags":[{"name":"javascript"},{"name":"nodejs"},{"name":"rest"},{"name":"express"}],"cities":[{"code":"moscow"}],"allowsRemote":true}},{"node":{"__typename":"Job","id":"17331912704-1001110946746","title":"Js разработчик","text":"Greenatom.ru\n#вакансия #Москва #javascript #React #Typescript #Node.js #Middle #Senior #удаленка #удаленная работа \n\n👨🏼‍💻 Middle/Senior Frontend Developer, Middle/Senior Backend Developer\nГород и адрес офиса: #Москва, БЦ Сириус Парк, метро Нагатинская\n\n✅Формат работы: \nУДАЛЕННАЯ РАБОТА\n\n💻Занятость: полная, гибкое начало трудового дня.\n\nЗарплатная вилка: от 170 000 до 230 000 руб. на руки.\n\n🏢Компания: АО Гринатом\n\nПривет! Мы растём и активно развиваем ряд внутренних проектов: например, корпоративный портал, горячая линия, собственная кадровая система для 400 предприятий! \nМы формируем НЕСКОЛЬКО КОМАНД, общей численностью более 60 человек и ищем классных:\n\n✅ФРОНТЕНД  разработчиков;\n\n✅БЭКЕНД разработчиков. \n\nПроекты в стадии разработки пилота и у тебя есть возможность повлиять на дальнейшее развитие продукта. Если у тебя есть крутые идеи - ты сможешь их здесь реализовать! Откликайся сам и зови друзей! Вирус пройдёт, работа останется!\n\n✅Требуемые знания и навыки:\n- Опыт разработки от двух лет\n- Хорошее знание чистого JS\n- Опыт работы с TypeScript\n- React, MobX, Less/Sass\n- Опыт написания юнит-тестов с помощью Jest, Enzymе очень приветствуется\n\n💡Наш стек:\n      React, TypeScript, Node.js, MobX, Docker\n\nМы работаем по Scrum.\n\n✅Условия:\n- Полная удаленка \n(Если тебе нравится работать в офисе, мы не против)\n- Официальное оформление в штат по ТК, белая зп;\n- Бессрочный трудовой договор; \n- Годовой бонус;\n- Возможности профессионального и карьерного роста;\n- Дополнительные 3 дня к отпуску;\n- Плавающее начало дня;\n- ДМС со стоматологией.\n\n☎️Контакты:\nЮлия - YAnZueva@Greenatom.ru","markup":[{"type":"link","offset":0,"length":12,"data":"http://Greenatom.ru"},{"type":"hashtag","offset":13,"length":9,"data":"вакансия"},{"type":"hashtag","offset":23,"length":7,"data":"Москва"},{"type":"hashtag","offset":31,"length":11,"data":"javascript"},{"type":"hashtag","offset":43,"length":6,"data":"React"},{"type":"hashtag","offset":50,"length":11,"data":"Typescript"},{"type":"hashtag","offset":62,"length":5,"data":"Node"},{"type":"hashtag","offset":71,"length":7,"data":"Middle"},{"type":"hashtag","offset":79,"length":7,"data":"Senior"},{"type":"hashtag","offset":87,"length":9,"data":"удаленка"},{"type":"hashtag","offset":97,"length":10,"data":"удаленная"},{"type":"hashtag","offset":212,"length":7,"data":"Москва"},{"type":"link","offset":1579,"length":21,"data":"mailto:YAnZueva@Greenatom.ru"}],"date":"2020-07-02T16:34:22+00:00","link":"tg://resolve?domain=javascript_jobs_feed&post=16529","tags":[{"name":"javascript"},{"name":"reactjs"},{"name":"typescript"},{"name":"nodejs"},{"name":"sass"},{"name":"docker"}],"cities":[{"code":"moscow"}],"allowsRemote":true}}]}}},"context":{}}