{"hash":"f5f6bf98bd95e769321482904cbbd488f77922fd","data":{"records":{"id":"json","name":"json","belongsTo":{"totalCount":48,"pageInfo":{"totalPages":5,"currentPage":3},"edges":[{"node":{"__typename":"Job","id":"72068628480-1001054966032","title":"Android разработчик","text":"#вакансия #москва #офис #ios #senior\n\nгород: Москва\nформат работы: офис\nзанятость: полная\nзарплатная вилка: 150-200\nвакансия: Ищу iOS-разработчика не ниже middle+, готового возглавить развитие  и поддержку приложения.\n\nо компании: Электронное издательство «Юрайт» Мы работаем со всеми вузами страны и считаем своей главной целью повышение образовательного уровня в России.\nwww.urait.ru\n\nо проекте: Над проектом работает 20 человек. Приложение заказывали на стороне в 2019 г. Теперь решили собрать свою команду для рефакторинга и выведения на новый уровень.\n\n🧑🏻‍💻Чем будешь заниматься:\n✔️Доработка текущего мобильного приложения компании под iOS/Android;\n✔️Интеграция с внешними сервисами;\n✔️Взаимодействовать с командой (аналитики, тестировщики);\n✔️Участие в проектной деятельности.\n\n\nЧто хотят видеть в тебе:\n • Имеешь успешный опыт разработки и поддержки iOS-приложений\n • Любишь iOS SDK, Xcode, Objective-C и Swift\n • Трогал архитектуру MVP или MVVM\n • Имеешь успешный опыт разработки клиент-серверных приложений (REST, JSON)\n • Владеешь паттернами UI\n • Знаешь, зачем нужен Git\n • Можешь писать тесты\n\nНемного о печеньках:\nОфис с плюшками в 5 минутах от м. Шоссе Энтузиастов, Мск\nГибкое начало дня: для жаворонков с 8, сова может начать в 11 =)\nВсе по ТК РФ + соц.пакет \nАдекватные коллеги и руководство, интересные таски, много позитива :)\n\n\nЗаинтересовало?\nНапиши:)\nМарьяна @reanimawka\n+79151474789","markup":[{"type":"hashtag","offset":0,"length":9,"data":"вакансия"},{"type":"hashtag","offset":10,"length":7,"data":"москва"},{"type":"hashtag","offset":18,"length":5,"data":"офис"},{"type":"hashtag","offset":24,"length":4,"data":"ios"},{"type":"hashtag","offset":29,"length":7,"data":"senior"},{"type":"bold","offset":231,"length":32,"data":""},{"type":"bold","offset":276,"length":22,"data":""},{"type":"bold","offset":329,"length":42,"data":""},{"type":"link","offset":373,"length":12,"data":"http://www.urait.ru"},{"type":"bold","offset":558,"length":29,"data":""},{"type":"bold","offset":788,"length":24,"data":""},{"type":"code","offset":813,"length":3,"data":""},{"type":"code","offset":875,"length":3,"data":""},{"type":"code","offset":921,"length":3,"data":""},{"type":"code","offset":956,"length":3,"data":""},{"type":"code","offset":1032,"length":3,"data":""},{"type":"code","offset":1058,"length":3,"data":""},{"type":"code","offset":1085,"length":3,"data":""},{"type":"bold","offset":1109,"length":20,"data":""},{"type":"handle","offset":1383,"length":11,"data":"reanimawka"},{"type":"link","offset":1395,"length":12,"data":"tel:+79151474789"}],"date":"2020-06-26T08:08:19+00:00","link":"tg://resolve?domain=mobile_jobs&post=68730","tags":[{"name":"mobile"},{"name":"android"},{"name":"ios"},{"name":"xcode"},{"name":"objective-c"},{"name":"swift"},{"name":"mvvm"},{"name":"rest"},{"name":"json"},{"name":"git"}],"cities":[{"code":"moscow"}],"allowsRemote":false}},{"node":{"__typename":"Job","id":"72038219776-1001054966032","title":"Ios разработчик","text":"#вакансия #ios #swift #москва #офис #objective\n\nГород: Москва (ст.м. Аэропорт).\n\nФормат работы: full-time.\n\nЗанятость: полная. \n\nВилка: 100-200 т.р. на руки.\n\nФункционал:\n\n• Разработка мобильных приложений под платформу iOS.\n\n• Участие в командной разработке, тестировании, оптимизации существующих мобильных приложений на платформе iOS \n\nПрофессиональные знания: \n\nОтличное знание Objective-C/Swift, iOS SDK 10+;\nОпыт разработки мобильных приложений - от 2 лет;\nЗнание шаблонов проектирования, принципы SOLID, умение их применять;\nЗнакомы с основными алгоритмами и структурами данных;\nУмение работать со Storyboard и Autolayout;\nОпыт разработки клиент-серверных приложений, понимание принципов и устройства сетевого взаимодействия (HTTPS, JSON, REST);\nУмение разбираться и работать с чужим кодом;\nЗнание распределенных систем контроля версий (Git). \n\nНазвание компании: Локо-Банк\nhttps://www.lockobank.ru//\nhttps://hh.ru/vacancy/37545592\n\nКонтакты: @hrlocko","markup":[{"type":"hashtag","offset":0,"length":9,"data":"вакансия"},{"type":"hashtag","offset":10,"length":4,"data":"ios"},{"type":"hashtag","offset":15,"length":6,"data":"swift"},{"type":"hashtag","offset":22,"length":7,"data":"москва"},{"type":"hashtag","offset":30,"length":5,"data":"офис"},{"type":"hashtag","offset":36,"length":10,"data":"objective"},{"type":"link","offset":881,"length":26,"data":"https://www.lockobank.ru//"},{"type":"link","offset":908,"length":30,"data":"https://hh.ru/vacancy/37545592"},{"type":"handle","offset":950,"length":8,"data":"hrlocko"}],"date":"2020-06-25T16:04:39+00:00","link":"tg://resolve?domain=mobile_jobs&post=68701","tags":[{"name":"mobile"},{"name":"ios"},{"name":"swift"},{"name":"objective-c"},{"name":"json"},{"name":"rest"},{"name":"git"}],"cities":[{"code":"moscow"}],"allowsRemote":false}},{"node":{"__typename":"Job","id":"71850524672-1001054966032","title":"Ios developer","text":"#вакансия #Москва #офис #релокация #ios #swift\n\n\nВакансия: iOS Developer (Junior/Middle/Senior) в компанию Mafin\n\nО компании: Mafin.ru - это онлайн-платформа персональных страховых сервисов. Insurtech старап компании \"АбсолютТех\", получивний инвестирование в размере $50 млн.\nГео: Москва\nФормат: Офис\nВилка: 60 000 - 240 000 Р/мес\n\nТребования: \n● Опыт разработки приложений под iOS от 1 года\n● Отличное знание Objective-C или Swift\n● Проектирование интерфейса без Xib и StoryBoard\n● Опыт разработки клиент-серверных приложений\n● Опыт разработки многопоточных приложений\n● Опыт работы с Core Data - инструмент для БД\n● Умение работать с CocoaPods (библиотеки для реализации задач)\n● Знание Git\n● Знание HTTP/S, REST API, JSON\n\nДополнительные навыки:\n● Понимание принципов UX/UI и Human Interface Guidelines\n● Опыт работы с Figma\n\nБудет плюсом:\n● Опыт C/С++/Python\n● Наличие приложений, опубликованных в AppStore\n● Опыт написания тестов\n\nУсловия: \n● НС с первого рабочего дня, ДМС по истечении испытательного срока (3 месяца);\n● Skyeng скидка 50% (в том числе занятия с носителями языка);\n● Новый красивый офис в тренде современных IT компаний с капсулами для сна и уютной кухней;\n● Бесплатное обучение; доступ к онлайн-библиотеке;\n● Работа по методологии Agile, scrum\n● Огромное количество корпоративных мероприятий\n● Гибкое начало рабочего дня до 11-00\n● Есть релокационный пакет\n● График работы 5\\2, офис 2 дня в неделю на время ограничительных мер \n\nДля оперативной связи пишите: @rudenko_telegram","markup":[{"type":"hashtag","offset":0,"length":9,"data":"вакансия"},{"type":"hashtag","offset":10,"length":7,"data":"Москва"},{"type":"hashtag","offset":18,"length":5,"data":"офис"},{"type":"hashtag","offset":24,"length":10,"data":"релокация"},{"type":"hashtag","offset":35,"length":4,"data":"ios"},{"type":"hashtag","offset":40,"length":6,"data":"swift"},{"type":"bold","offset":49,"length":9,"data":""},{"type":"bold","offset":114,"length":12,"data":""},{"type":"link","offset":126,"length":8,"data":"http://Mafin.ru"},{"type":"bold","offset":276,"length":4,"data":""},{"type":"bold","offset":288,"length":8,"data":""},{"type":"bold","offset":301,"length":7,"data":""},{"type":"bold","offset":332,"length":13,"data":""},{"type":"bold","offset":726,"length":23,"data":""},{"type":"bold","offset":829,"length":14,"data":""},{"type":"bold","offset":936,"length":7,"data":""},{"type":"handle","offset":1482,"length":17,"data":"rudenko_telegram"}],"date":"2020-06-23T09:25:42+00:00","link":"tg://resolve?domain=mobile_jobs&post=68522","tags":[{"name":"mobile"},{"name":"ios"},{"name":"swift"},{"name":"objective-c"},{"name":"cocoapods"},{"name":"git"},{"name":"rest"},{"name":"json"},{"name":"python"},{"name":"core-data"}],"cities":[{"code":"moscow"}],"allowsRemote":false}},{"node":{"__typename":"Job","id":"71833747456-1001054966032","title":"Ios разработчик","text":"💪#вакансия #удалёнка #iOS #fulltime  #Middle+/#Senior    \n💵З/П 2200-2400 $/месяц по итогам собеседования\nРабота: удалёнка\n\nЧеловек в среднем больше сотни раз взаимодействует с клавиатурой своего мобильного устройства. Для большинства пользователей нашего приложения мы делаем этот процесс  интереснее и выгодней. Мы также оцениваем эмоциональное состояние пользователя, в процессе его взаимодействия с клавиатурой. Руководство компании из топ-менеджмента крупнейших глобальных игроков мобильного рынка. В данный момент открыта вакансия Middle+/Senior IOS разработчика, в подчинении 2 сотрудника                                                                                                               \n\n📌Обязанности:\n- Разработка кастомной клавиатуры iOS\n- Подключение ML-алгоритмов (TensorFlow) распознавания эмоций к iOS-клавиатуре\n- Разработка кода обработки данных камеры, микрофона\n\n📌Требования:\n- Уверенное знание Swift;\n- Хорошее знание платформы iOS, инструментов разработки, работы UI;\n- Опыт работы с REST API, HTTP, JSON, APNs;\n- Знакомство с библиотеками CoreData, AVFoundation, CoreML и CreateML\n- Желание развиваться и развивать свои знания            \n-Знание английского на уровне от Intermediate желательно                                                                                                               \n\n📌Будет плюсом:\n- Опыт работы c TensorFlow на iOS\n- Опыт работы с OpenCV на iOS\n- Опыт работы с фреймворком SwiftUI\n\n📌Условия:\n- Отсутствие бюрократии\n- Время начала рабочего дня обговариваем индивидуально\n- Come to the Dark Side, we have тёплая ламповая атмосфера стартапа, чай, кофе и печеньки!\n- Крутой инновационный проект - возможность самореализации и профессионального роста\n- Стабильное зарубежное финансирование\n- Десятки миллионов установок и множество глобальных партнёров\n📞 Контакты @SvetikS_hr +7(963)-632-12-36 Cветлана","markup":[{"type":"hashtag","offset":2,"length":9,"data":"вакансия"},{"type":"hashtag","offset":12,"length":9,"data":"удалёнка"},{"type":"hashtag","offset":22,"length":4,"data":"iOS"},{"type":"hashtag","offset":27,"length":9,"data":"fulltime"},{"type":"hashtag","offset":38,"length":7,"data":"Middle"},{"type":"hashtag","offset":47,"length":7,"data":"Senior"},{"type":"handle","offset":1841,"length":11,"data":"SvetikS_hr"},{"type":"link","offset":1853,"length":17,"data":"tel:+7(963)-632-12-36"}],"date":"2020-06-23T07:31:00+00:00","link":"tg://resolve?domain=mobile_jobs&post=68506","tags":[{"name":"mobile"},{"name":"ios"},{"name":"tensorflow"},{"name":"swift"},{"name":"rest"},{"name":"json"},{"name":"opencv"}],"cities":[],"allowsRemote":true}},{"node":{"__typename":"Job","id":"103458799616-1001089317451","title":"Qa engineer","text":"#Москва #вакансия #QA #fulltime #test #office\n\n💻Компания: СберТех.\n🧰Вакансия: QA Engineer.\n🏢Офис: Москва, м. Нагатинская/м. Тульская/ м. Верхние Котлы.\n💰ЗП: от 150 000 Net.\n\n📂Проект: Разработка платформы для управления бизнес-процессами Банка и Цифровой Платформы Sber.\n\n🗓Задачи:\n• Работа в роли тестировщика в scrum команде.\n• Написание, актуализация тестовых сценариев и их прохождение (API, UI).\n• Проведение функционального, регрессионного, интеграционного и других видов тестирования.\n• Регистрация, отслеживание и верификация дефектов.\n• Участие в развитии команды и процессов тестирования.\n\n📌Требования: \n• Опыт написания тестовых сценариев, чек-листов, составления сложных интеграционных сценариев.\n• Знание теории тестирования, понимание видов тестирования и необходимости их применения на различных этапах реализации проекта.\n• Опыт анализа и тестирования требований.\n• Опыт тестирования rest/soap сервисов.\n• Опыт работы с BPM системами, понимание нотации BPMN 2.0.\n\n📎Cтек: REST, XML, XSD, JSON, SQL, BPMN 2.0, Docker, Kubernetes, Openshift, Kafka.\n\n🔰Условия:\n• Оформление ТК РФ.\n• ДМС для сотрудников и скидки на медицинскую страховку для родственников;\n• Высокая белая заработная плата (оклад + годовая премия).\n• Возможность обучения за счет компании, посещения IT-конференций.\n• Бесплатный тренажерный зал на территории офиса.\n• Корпоративная жизнь и спортивные мероприятия.\n\n📩Готов ответить на интересующие вопросы - @Dmiryy","markup":[{"type":"hashtag","offset":0,"length":7,"data":"Москва"},{"type":"hashtag","offset":8,"length":9,"data":"вакансия"},{"type":"hashtag","offset":18,"length":3,"data":"QA"},{"type":"hashtag","offset":22,"length":9,"data":"fulltime"},{"type":"hashtag","offset":32,"length":5,"data":"test"},{"type":"hashtag","offset":38,"length":7,"data":"office"},{"type":"handle","offset":1443,"length":7,"data":"Dmiryy"}],"date":"2020-06-22T15:07:24+00:00","link":"tg://resolve?domain=qa_jobs&post=98666","tags":[{"name":"qa"},{"name":"dotnet"},{"name":"rest"},{"name":"soap"},{"name":"xml"},{"name":"xsd"},{"name":"json"},{"name":"sql"},{"name":"docker"},{"name":"kubernetes"},{"name":"kafka"}],"cities":[{"code":"moscow"}],"allowsRemote":false}},{"node":{"__typename":"Job","id":"71763492864-1001054966032","title":"Ios developer","text":"#вакансия #IOS #Swift #middle\n\nMiddle+ IOS developer \nКомпания WebAnt I Ростов-на-Дону (Кировский р-н)\n\nФормат работы: удаленно или в офисе, если ты из Ростова-на-Дону\nЗанятость: full-time \nЗП от 80 тыс. руб. до 100 тыс. руб. на руки \n\nЖдем тебя, если ты: \n\nУверенно знаешь Swift; realm, alamofire\nЕсть опыт написания клиент-серверных приложений от 2 лет\nОпыт работы с серверным API, JSON;\nРаботаешь с Git;\nПонимаешь ООП и шаблоны проектирования;\nЗнаешь базовые алгоритмы и структуры данных;\nРаботаешь с rest API;\nТестируешь собственный код;\nРаботаешь с ffmpeg либо другими библиотеками по обработке видео\nЗнаешь английский язык на уровне чтения технической документации\nЕсть свои приложения в продакшете\n\nКсения: @sladkiy_pirozhok","markup":[{"type":"hashtag","offset":0,"length":9,"data":"вакансия"},{"type":"hashtag","offset":10,"length":4,"data":"IOS"},{"type":"hashtag","offset":15,"length":6,"data":"Swift"},{"type":"hashtag","offset":22,"length":7,"data":"middle"},{"type":"handle","offset":714,"length":17,"data":"sladkiy_pirozhok"}],"date":"2020-06-22T10:11:27+00:00","link":"tg://resolve?domain=mobile_jobs&post=68439","tags":[{"name":"mobile"},{"name":"ios"},{"name":"swift"},{"name":"realm"},{"name":"json"},{"name":"git"},{"name":"rest"}],"cities":[{"code":"rostov"},{"code":"kirov"}],"allowsRemote":true}},{"node":{"__typename":"Job","id":"103362330624-1001089317451","title":"Qa инженер","text":"#вакансия #qa #офис #москва #вднх\n\nВакансия: Middle/Senior QA для автоматизированного и ручного тестирования web-приложения (сначала 50/50, затем автоматизация 70+%), ,\nКомпания: Webinar.ru\nЗП: до 180 000 руб. на руки\nФормат работы: офис, гибкое начало дня\nЗанятость: полная\n\nЗадачи: Ручное и автоматизированное тестирование нового функционала web-приложения, регрессионное, ui/ux, тестирование требований. Улучшение процесса тестирования. \nАвтоматизация на java+selenide\n\nЧто ожидаем:\n- Понимаешь, как устроены веб-сервисы, имеешь опыт их ручного и автоматизированного тестирования не менее одного года\n- Есть понимание клиент-серверной архитектуры;\n-Умеешь развернуто описывать шаги, приведшие к обнаруженной проблеме\n- Понимаешь принципы SCRUM’a;\n- Хочешь прокачаться в автоматизированном тестировании и научиться программировать (если уже умеешь - ещё круче)- \n-Есть понимание значений слов: HTTP, REST API, JSON, Git, SQL, HTML/CSS\n\nЧто предлагаем:\n- Официально оформим, з/п белая,\n- Гибкий график (чаще всего работаем с 10/11);\n- Отлаженные процессы без бюрократии;\n- Работа в современном лофтовом офисе в шаговой доступности от м. ВДНХ со своей парковкой;\n- Комфортное рабочее место, удобное кресло, все необходимое для работы оборудование и ПО (ноутбук DELL, 2 монитора);\n- 50% компенсация ДМС после испытательного срока, обучение за счёт компании;\n- Вкусные бесплатные завтраки, кофе-поинты;\nЕсли нужна помощь в релокации в Москву, расходы берем на себя ;)\n\nОтклики, вопросы, рекомендации: @dariavvk (telegram, FB) или на d.vovk@webinar.ru","markup":[{"type":"hashtag","offset":0,"length":9,"data":"вакансия"},{"type":"hashtag","offset":10,"length":3,"data":"qa"},{"type":"hashtag","offset":14,"length":5,"data":"офис"},{"type":"hashtag","offset":20,"length":7,"data":"москва"},{"type":"hashtag","offset":28,"length":5,"data":"вднх"},{"type":"link","offset":179,"length":10,"data":"http://Webinar.ru"},{"type":"handle","offset":1499,"length":9,"data":"dariavvk"},{"type":"link","offset":1531,"length":17,"data":"mailto:d.vovk@webinar.ru"}],"date":"2020-06-21T12:04:32+00:00","link":"tg://resolve?domain=qa_jobs&post=98574","tags":[{"name":"qa"},{"name":"web"},{"name":"java"},{"name":"rest"},{"name":"json"},{"name":"git"},{"name":"sql"},{"name":"html"},{"name":"css"}],"cities":[{"code":"moscow"}],"allowsRemote":false}},{"node":{"__typename":"Job","id":"71696384000-1001054966032","title":"Ios разработчик","text":"#вакансия #iOS #москва\n\nНа проект от крупного российского банка требуется Middle iOS разработчик\n\nФормат: офис\n\nВилка ЗП: 160-200К\n\nЛокация: Москва\n\nТребования:\n- Гражданство РФ\n- Опыт разработки под IOS (Objective-C или Swift) от 2 лет\n- Уверенное знание iOS SDK, Xcode\n- Опыт использования одной из архитектур: MVP, MVVM, VIPER\n- Знание особенностей: Collections, Optionals, Protocol Oriented, Generics\n- Понимание, как происходит управление памятью в iOS\n- Понимание принципов проектирования SOLID и желание придерживаться их\n- Наличие опыта работы с REST API, HTTP, JSON, APNs\n- Опыт работы с Git, знание git flow\n\nБудет плюсом:\n\n- Умение писать UI тесты\n- Опыт работы в команде\n\nКонтакт: @mxm_at","markup":[{"type":"hashtag","offset":0,"length":9,"data":"вакансия"},{"type":"hashtag","offset":10,"length":4,"data":"iOS"},{"type":"hashtag","offset":15,"length":7,"data":"москва"},{"type":"bold","offset":73,"length":23,"data":""},{"type":"bold","offset":98,"length":7,"data":""},{"type":"bold","offset":112,"length":9,"data":""},{"type":"bold","offset":132,"length":8,"data":""},{"type":"bold","offset":149,"length":11,"data":""},{"type":"bold","offset":619,"length":13,"data":""},{"type":"bold","offset":684,"length":8,"data":""},{"type":"handle","offset":693,"length":7,"data":"mxm_at"}],"date":"2020-06-20T13:14:08+00:00","link":"tg://resolve?domain=mobile_jobs&post=0","tags":[{"name":"mobile"},{"name":"ios"},{"name":"objective-c"},{"name":"swift"},{"name":"xcode"},{"name":"mvvm"},{"name":"rest"},{"name":"json"},{"name":"git"}],"cities":[{"code":"moscow"}],"allowsRemote":false}},{"node":{"__typename":"Job","id":"71637663744-1001054966032","title":"Mobile разработчик","text":"#вакансия #mobile #ios #swift #fulltime\nГород и адрес офиса: Москва, м. Нахимовский проспект, офис класса А\nФормат работы: офис + возможно частично удаленная работа \nЗанятость: полная, 5/2\nЗП: от 150к до 250к, готовы рассмотреть и выше\n\nКомпания X4Apps специализируется на разработке собственных мобильных приложений и открывает вакансию мобильного разработчика уровня Middle+/Senior, который будет работать над созданием приложений для платформы iOS.\n\nМы практикуем быструю проверку гипотез, быстро создаем приложения, запускаем первых пользователей, смотрим на обратную связь и наращиваем функционал либо переключаемся на разработку новых приложений/новых идей.\n\nОт Вас мы ждем:\n- Способность разработать приложение с нуля и выпустить его в AppStore\n- Знание Objective-C и Swift\n- Суммарный опыт программирования от 3-х лет\n- Умение работать с системой контроля версий git - console, IDE, web (Stash);\n- Понимание принципов ООП и шаблонов проектирования\n- Опыт использования JSON, REST API\n- Опыт написания клиент-серверных приложений\n- Наличие опубликованных приложений в AppStore\n\nБудет плюсом:\n- Желание постоянно учиться и применять новые технологии в своей работе\n- Понимание в разработке пользовательского интерфейса\n- Понимание работы бэкэнда\n\nКонтакт @bambaleeyo","markup":[{"type":"hashtag","offset":0,"length":9,"data":"вакансия"},{"type":"hashtag","offset":10,"length":7,"data":"mobile"},{"type":"hashtag","offset":18,"length":4,"data":"ios"},{"type":"hashtag","offset":23,"length":6,"data":"swift"},{"type":"hashtag","offset":30,"length":9,"data":"fulltime"},{"type":"bold","offset":40,"length":19,"data":""},{"type":"bold","offset":108,"length":13,"data":""},{"type":"bold","offset":166,"length":9,"data":""},{"type":"bold","offset":189,"length":2,"data":""},{"type":"bold","offset":665,"length":14,"data":""},{"type":"bold","offset":1085,"length":12,"data":""},{"type":"bold","offset":1253,"length":7,"data":""},{"type":"handle","offset":1261,"length":11,"data":"bambaleeyo"}],"date":"2020-06-19T11:04:23+00:00","link":"tg://resolve?domain=mobile_jobs&post=0","tags":[{"name":"mobile"},{"name":"ios"},{"name":"swift"},{"name":"objective-c"},{"name":"git"},{"name":"web"},{"name":"json"},{"name":"rest"}],"cities":[{"code":"moscow"}],"allowsRemote":true}},{"node":{"__typename":"Job","id":"103250132992-1001089317451","title":"Qa инженер","text":"#вакансия #Москва #работаQA #ручное тестирование #офис/удаленная #от года\nУ нас открыта вакансия в штат правообладателя, команда разработки – работает у подрядчика. \nЗанятость: полная в офисе \nЗаработная плата от 70 000 - 90 000 с налогами в зависимости от опыта кандидата\nКомпания https://agregatoreat.ru/  \nЗанятость: полная 50/50 офис и удаленно \nКонтакт: @OlesyaE \nОбязанности:\n•  Тестирование высоконагруженного web-сервиса (в том числе, во время его обновления в нерабочее время - 2 раза в месяц); только ручное тестирование front и back\n•  Ручное тестирование ПО (функциональное, нагрузочное, интеграционное и др.);\n•  Разработка тестовой документации;\n•  написание Unit тестов\n•  Оценка времени на проверку задач;\n•  Создание баг-репортов;\n•  Взаимодействие с разработчиками, аналитиками, службой технической поддержки;\nТребования:\n•  Опыт работы в области тестирования ПО от 1 года;\n•  Знание жизненного цикла ПО, тест-кейсов, багов и т.д.\n•  Знание различных методов тестирования;\n•  Опыт разработки тестовой документации;\n•  Базовые знания языка SQL;\n•  Приветствуется опыт работы с файлами *.xml, *.json;\n•  Опыт работы с баг-трекинговыми системами (Jira, TFS и т.д.);\n•  Внимательность, ответственность, умение работать в команде;\n•  Самостоятельность, стремление к профессиональному и карьерному росту.\nдля этой вакансии","markup":[{"type":"hashtag","offset":0,"length":9,"data":"вакансия"},{"type":"hashtag","offset":10,"length":7,"data":"Москва"},{"type":"hashtag","offset":18,"length":9,"data":"работаQA"},{"type":"hashtag","offset":28,"length":7,"data":"ручное"},{"type":"hashtag","offset":49,"length":5,"data":"офис"},{"type":"hashtag","offset":65,"length":3,"data":"от"},{"type":"link","offset":213,"length":15,"data":"tel:70 000 - 90 000"},{"type":"link","offset":282,"length":24,"data":"https://agregatoreat.ru/"},{"type":"handle","offset":359,"length":8,"data":"OlesyaE"}],"date":"2020-06-19T07:26:36+00:00","link":"tg://resolve?domain=qa_jobs&post=0","tags":[{"name":"qa"},{"name":"web"},{"name":"sql"},{"name":"xml"},{"name":"json"},{"name":"tfs"}],"cities":[{"code":"moscow"}],"allowsRemote":true}}]}}},"context":{}}