{"hash":"f5f6bf98bd95e769321482904cbbd488f77922fd","data":{"records":{"id":"swift","name":"swift","belongsTo":{"totalCount":133,"pageInfo":{"totalPages":14,"currentPage":4},"edges":[{"node":{"__typename":"Job","id":"72425144320-1001054966032","title":"Mobile программист","text":"#вакансия #middle #senior #iOS #developer #Minsk #Moscow #удаленка #fulltime\n\nГород - Минск или Москва\nФормат работы: #офис или #удаленно\nЗанятость: полная \nЗарплатная вилка: от 2.000$ до 6.000$\n\nКоманда BP Mobile в поисках опытных iOS программистов, для работы над мобильными продуктами!\n\nЖдем в команду людей, у которых:\n-3+ лет опыта в разработке мобильных приложений;\n-Глубокие знания Objective-C и Swift;\n-Уверенные знания Core Data, Rest API, iOS SDK и паттернов MVC/MVVM, знания Realm - плюс;\n-Дополнительно будет плюсом знание С++ и других языков программирования.\n\n У нас: \n-Свобода выбора технологий;\n-Только собственные и разнообразные проекты (одновременно в разработке более 20 продуктов);\n-Курсы английского языка на базе офиса;\n-Медицинская страховка (включает стоматологию);\n-Скидка на паркинг возле офиса;\n-Корпоративы несколько раз в год;\n-5 Sick days в году;\n-Скидка в тренажерный зал и другие бонусы.\nКонтакты: \nemail - nadezhda.kostenevich@bpmobile.com\ntelegram - @nadzzzeya","markup":[{"type":"hashtag","offset":0,"length":9,"data":"вакансия"},{"type":"hashtag","offset":10,"length":7,"data":"middle"},{"type":"hashtag","offset":18,"length":7,"data":"senior"},{"type":"hashtag","offset":26,"length":4,"data":"iOS"},{"type":"hashtag","offset":31,"length":10,"data":"developer"},{"type":"hashtag","offset":42,"length":6,"data":"Minsk"},{"type":"hashtag","offset":49,"length":7,"data":"Moscow"},{"type":"hashtag","offset":57,"length":9,"data":"удаленка"},{"type":"hashtag","offset":67,"length":9,"data":"fulltime"},{"type":"hashtag","offset":118,"length":5,"data":"офис"},{"type":"hashtag","offset":128,"length":9,"data":"удаленно"},{"type":"link","offset":940,"length":33,"data":"mailto:nadezhda.kostenevich@bpmobile.com"},{"type":"handle","offset":985,"length":10,"data":"nadzzzeya"}],"date":"2020-07-01T06:59:55+00:00","link":"tg://resolve?domain=mobile_jobs&post=69070","tags":[{"name":"mobile"},{"name":"ios"},{"name":"objective-c"},{"name":"swift"},{"name":"rest"},{"name":"mvvm"},{"name":"realm"},{"name":"core-data"}],"cities":[{"code":"minsk"},{"code":"moscow"}],"allowsRemote":true}},{"node":{"__typename":"Job","id":"72389492736-1001054966032","title":"Ios разработчик","text":"#вакансия #москва #офис #senior #ios #developer #gamedev #swift \nГород и адрес офиса: Москва, м.Автозаводская \nФормат работы: офис \nЗанятость: полная \nЗарплатная вилка: от 250 000 до 300 000 на руки \n\n\n✅ Senior iOS Developer \n\nОписание вакансии: \n\nМы - успешная команда из 120 человек, которая занимается: \n• разработкой собственных мобильных игр и приложений \n• паблишингом мобильных игр \n• рекламой и маркетингом мобильных приложений (реклама на Facebook, Google и т.д.) \nЗа последние 3 года мы привлекли более 100 млн пользователей в наши собственные мобильные приложения и приложения наших клиентов и партнеров, потратив на это более $80 млн. \n\nУ нас есть все составляющие чтобы делать готовые продукты известными и популярными. Мы ищем сильного и талантливого разработчика для усиления нашей текущей слаженно работающей команды и выведения нашего Fitness & Health iOS приложения Fitingo на лидирующие позиции в мире (уже сейчас приложение занимало позиции ТОП 13 в США и ТОП 6 в Великобритании с более чем 400,000 установок и более чем 45,000 совершенных покупок).\n\n✅Задачи: \n\n•  Разрабатывать новый функционал\n•  Рефакторить и оптимизировать код\n•  Писать код. Больше логики, меньше UI. Например - хранить историю и прогресс; сделать leaderboard по странам; добавить чат, аналитику и a/b тесты; Apple Health, Watch, Music и TV\n•  Участвовать в Code Review\n\nТекущий стек: Swift 5.1, MVPC, AVFoundation, UserNotifications, Realm, StoreKit, Firebase, PushWoosh, Facebook, Python.\n\n✅Требования: \n\n•  Опыт работы разработчиком iOS приложений от 3х лет\n•  Отличное знание Swift\n•  Уверенное знание SOLID и паттернов проектирования\n•  Умение профилировать приложение (Батарейка, утечки и вот это все)\n•  Опыт работы с системой контроля версий\n•  Наличие выпущенных проектов на Swift\n•  Желание делать красивые, интересные и популярные приложения\n\n✅Будет плюсом: \n\n•  Умение/желание писать небольшие серверные скрипты (например на Python)\n•  Умение автоматизировать рутинные процессы\n•  Умение рефакторить код итеративно\n•  Адекватный перфекционизм\n\n\n✅Для вас: \n\n•  Конкурентная заработная плата, выплачивается 2 раза в месяц\n•  Необходимое оборудование для работы\n•  Возможность набрать команду и выстроить всю работу под себя в краткосрочной перспективе\n•  Оформление по ТК РФ, оплачиваемые больничные, 28 дней оплачиваемого отпуска в год\n•  Возможны регулярные бонусы по результатам работы проектов\n•  Собеседование с лицом принимающим решение\n•  Возможность коммуницировать с людьми, которые принимают продуктовые решения\n\n✅О нас: \n\n•  Просторный офис 600 метров на м. Автозаводская (3 минуты от метро и от ТТК на машине) с ультра современным дизайном и кучей ништяков (кухня с вкусняшками, кальяны каждый вечер в дружной кампании, PS4 Pro + 4K TV, аркадные автоматы с Pac-Man, Metal Slug и другими хитами геймдизайна, просторная зона отдыха, 5 переговорных комнат и т д)\n•  Команда из 100 человек занимающаяся паблишингом и маркетингом, готовая сделать продукт успешным после его готовности\n•  Возможность обучаться английскому языку с носителями каждый будний день по утрам\n•  Менторы и инвесторы, создавшие большое количество успешных IT компаний (оборот в 2018 году более 140 млн долларов)\n\nНазвание компании: AppQuantum \n\nКонтакты: \ne-mail: vika@adquantum.com\ntelegram: @wikki13","markup":[{"type":"hashtag","offset":0,"length":9,"data":"вакансия"},{"type":"hashtag","offset":10,"length":7,"data":"москва"},{"type":"hashtag","offset":18,"length":5,"data":"офис"},{"type":"hashtag","offset":24,"length":7,"data":"senior"},{"type":"hashtag","offset":32,"length":4,"data":"ios"},{"type":"hashtag","offset":37,"length":10,"data":"developer"},{"type":"hashtag","offset":48,"length":8,"data":"gamedev"},{"type":"hashtag","offset":57,"length":6,"data":"swift"},{"type":"link","offset":3248,"length":18,"data":"mailto:vika@adquantum.com"},{"type":"handle","offset":3277,"length":8,"data":"wikki13"}],"date":"2020-06-30T16:30:31+00:00","link":"tg://resolve?domain=mobile_jobs&post=69036","tags":[{"name":"mobile"},{"name":"ios"},{"name":"swift"},{"name":"realm"},{"name":"firebase"},{"name":"python"}],"cities":[{"code":"moscow"}],"allowsRemote":false}},{"node":{"__typename":"Job","id":"72383201280-1001054966032","title":"Ios developer","text":"#вакансия #спб #ios #middle #senior #spb #офис #IoT #умныйдом \nMiddle/Senior iOS developer \nReady for Sky 🚀 \nhttps://readyforsky.com/ru/career/ \n📍 полный день, удаленно в СПб/офис м. Нарвская \nМы серьезно занимаемся сферой iot, создаем умные приборы.\nИщем iOS developer, который будет разрабатывать приложение, использующее данные с IoT-устройств для предоставления пользователям нужных товаров и услуг \n💡 Используем: Swift, Objective-C; Jenkins; GraphQL; RxSwift; MVC, MVVM и Viper \nВ команде: разрабатываем новый функционал приложения, внутренние фреймворки (Private pods), фреймворки для общего доступа; пишем Unit тесты; принимаем участие в создании протоколов работы с умными устройствами; Refactoring и Code-review. \nПредлагаем: \nРаботу в профессиональной команде, более 300 000 активных пользователей приложения. \nЗП от 130 до 250 тыс. руб. на руки  \nПосле исп.срока корпоративный английский \n📬 Пиши: @Rupeka_Natali","markup":[{"type":"hashtag","offset":0,"length":9,"data":"вакансия"},{"type":"hashtag","offset":10,"length":4,"data":"спб"},{"type":"hashtag","offset":15,"length":4,"data":"ios"},{"type":"hashtag","offset":20,"length":7,"data":"middle"},{"type":"hashtag","offset":28,"length":7,"data":"senior"},{"type":"hashtag","offset":36,"length":4,"data":"spb"},{"type":"hashtag","offset":41,"length":5,"data":"офис"},{"type":"hashtag","offset":47,"length":4,"data":"IoT"},{"type":"hashtag","offset":52,"length":9,"data":"умныйдом"},{"type":"bold","offset":63,"length":27,"data":""},{"type":"bold","offset":92,"length":13,"data":""},{"type":"link","offset":110,"length":34,"data":"https://readyforsky.com/ru/career/"},{"type":"bold","offset":258,"length":13,"data":""},{"type":"bold","offset":409,"length":11,"data":""},{"type":"bold","offset":487,"length":10,"data":""},{"type":"bold","offset":726,"length":11,"data":""},{"type":"bold","offset":906,"length":5,"data":""},{"type":"handle","offset":912,"length":14,"data":"Rupeka_Natali"}],"date":"2020-06-30T15:50:02+00:00","link":"tg://resolve?domain=mobile_jobs&post=69030","tags":[{"name":"mobile"},{"name":"ios"},{"name":"swift"},{"name":"objective-c"},{"name":"jenkins"},{"name":"graphql"},{"name":"mvvm"}],"cities":[],"allowsRemote":true}},{"node":{"__typename":"Job","id":"72334966784-1001054966032","title":"Ios разработчик","text":"#вакансия #iOS \n\nНа проект от Сбербанка требуется Middle iOS разработчик\n\nФормат: офис\n\nВилка ЗП: 160 000 - 200 000 рублей (net)\n\nЛокация: Москва\n\nТребования:\n- Опыт разработки под iOS (Objective-C или Swift) от 2 лет\n- Знание особенностей: Collections, Optionals, Protocol Oriented, Generics\n- Понимание, как происходит управление памятью в iOS\n- Понимание принципов проектирования SOLID\n- REST API, HTTP, JSON, APNs\n- Git, git flow\n\nБудет плюсом:\n- Умение писать UI тесты\n- Опыт в команде\n\nКонтакт: @mxm_at","markup":[{"type":"hashtag","offset":0,"length":9,"data":"вакансия"},{"type":"hashtag","offset":10,"length":4,"data":"iOS"},{"type":"bold","offset":30,"length":9,"data":""},{"type":"bold","offset":50,"length":22,"data":""},{"type":"bold","offset":74,"length":7,"data":""},{"type":"bold","offset":88,"length":9,"data":""},{"type":"bold","offset":130,"length":8,"data":""},{"type":"bold","offset":147,"length":11,"data":""},{"type":"bold","offset":435,"length":14,"data":""},{"type":"handle","offset":501,"length":7,"data":"mxm_at"}],"date":"2020-06-30T09:47:00+00:00","link":"tg://resolve?domain=mobile_jobs&post=68984","tags":[{"name":"mobile"},{"name":"ios"},{"name":"dotnet"},{"name":"objective-c"},{"name":"swift"},{"name":"rest"},{"name":"json"},{"name":"git"}],"cities":[{"code":"moscow"}],"allowsRemote":false}},{"node":{"__typename":"Job","id":"72327626752-1001054966032","title":"Mobile программист","text":"#вакансия #ios #swift #middle\nФормат работы: удаленная\nГород: Киев/Харьков\nЗанятость: полная\nз/п: 2000-3000$\n\nMiddle Ios Swift +RXSwift Developer (Mobile Apps)\n🔥🔥🔥\n\nИщем опытного Ios Swift программиста в продуктовую компанию.\nТребования:\n- 2+ лет в ios разработке (Swift);\n- Солидный бекграунд в OOP и нативной разработке;\n- Понимание всего цикла разработки мобильного приложения;\n- Опыт работы с алгоритмами, базами данных и комплексным анализом ;\n- MVP, MVVM;\n- Опыт работы с реактивным кодом (RXSwift);\n- Интеграция REST API;\n- Опыт с GIT, BitBucket, JIRA;\n\nБудет плюсом:\n- Опыт работы с Firebase, FCM;\n- Знание гайдлайнов и екосистемы ios ;\n- Опыт работы с CocoaPods (Alamofire, PromiseKit, Starscream, - Kingsfisher, RxSwift, DifferenceKit).\n\nЧто мы предлагаем:\n- Дружный коллектив;\n- Удаленный формат работы (на период карантина);\n- Гибгий график;\n- Конкурентную з/п;\n- Личностное и профессиональное развитие.\n📍Писать сюда: @vortex007","markup":[{"type":"hashtag","offset":0,"length":9,"data":"вакансия"},{"type":"hashtag","offset":10,"length":4,"data":"ios"},{"type":"hashtag","offset":15,"length":6,"data":"swift"},{"type":"hashtag","offset":22,"length":7,"data":"middle"},{"type":"bold","offset":110,"length":49,"data":""},{"type":"handle","offset":934,"length":10,"data":"vortex007"}],"date":"2020-06-30T08:51:50+00:00","link":"tg://resolve?domain=mobile_jobs&post=68977","tags":[{"name":"mobile"},{"name":"ios"},{"name":"swift"},{"name":"mvvm"},{"name":"rest"},{"name":"git"},{"name":"firebase"},{"name":"cocoapods"}],"cities":[{"code":"kiev"}],"allowsRemote":true}},{"node":{"__typename":"Job","id":"72324481024-1001054966032","title":"Ios разработчик","text":"#вакансия #работа #Санкт_Петербург #middle #IOS #Swift #Scrum\n\nФормат работы: Удаленный\nЗанятость: Полная\nЗарплатная вилка: от 120 000 до 200 000.\n\nМы Stream - делаем классные и реально удобные продукты для людей. 📣Сейчас находимся в поиске IOS разработчика.📱\n\nЖдём от вас: \n🔹Опыт разработки приложений на IOS (желательно от 2-х лет).\n🔹Знание ООП, структур данных, архитектурных паттернов;\n🔹Опыт применения RxSwift;\n🔹Опыт написания unit-тестов;\n🔹Наличие готовых приложений в AppStore будет преимуществом;\n🔹Коммуникабельность, желание работать в команде единомышленников.\nПредлагаем:\n✅Сильная команда\n✅Гибкий график\n✅ДМС со стоматологией\n✅Компенсация мобильной связи\n✅Официальное оформление и \"белая\" зарплата + премии сверху оклада\n✅Возможность дополнительного обучения.\n\nКонтакты: telegram - @YanaKuzn\nпочта: ykuznetsova@stream.ru","markup":[{"type":"hashtag","offset":0,"length":9,"data":"вакансия"},{"type":"hashtag","offset":10,"length":7,"data":"работа"},{"type":"hashtag","offset":18,"length":16,"data":"Санкт_Петербург"},{"type":"hashtag","offset":35,"length":7,"data":"middle"},{"type":"hashtag","offset":43,"length":4,"data":"IOS"},{"type":"hashtag","offset":48,"length":6,"data":"Swift"},{"type":"hashtag","offset":55,"length":6,"data":"Scrum"},{"type":"handle","offset":801,"length":9,"data":"YanaKuzn"},{"type":"link","offset":818,"length":21,"data":"mailto:ykuznetsova@stream.ru"}],"date":"2020-06-30T08:35:09+00:00","link":"tg://resolve?domain=mobile_jobs&post=68974","tags":[{"name":"mobile"},{"name":"ios"},{"name":"swift"}],"cities":[],"allowsRemote":false}},{"node":{"__typename":"Job","id":"72318189568-1001054966032","title":"Ios разработчик","text":"#вакансия #swift #objective-C #ios\n\niOS разработчик удаленно по России \nmiddle/senior\n\nГород : Санкт-Петербург\nФормат работы: офис или удаленно\nЗанятость: Полная\nЗарплатная вилка:  90 000 - 200 000 руб\nОписание компании:\nВ Blogman мы занимаемся разработкой собственного приложения – платформа для блогеров и рекламодателей. В нашей команде уже более 50 разработчиков и мы продолжаем расти. Сейчас мы ищем инженера с опытом коммерческой разработки под iOS\n\nМы ожидаем, что у вас есть:\n— Опыт коммерческой разработки мобильных приложений под iOS;\n— Хорошие знания Swift, UIKit;\n— Опыт работы с мобильными БД;\n— Умение работать с Git, Cocoapods.\n\nБудет плюсом, если вы:\n— Разрабатывали клиент-серверные приложения;\n— Умеете работать с WebSocket;\n— Знаете и понимаете архитектуру VIPER;\n— Командный игрок без яркого эгоцентризма;\n— Готовы активно принимать участие в жизни компании и продукта.\n\nРады предложить:\n– Удаленное сотрудничество или комфортный офис на Невском проспекте в 5 минутах ходьбы от ст. м. Маяковская и Владимирская;\n– Желаемый оклад по результатам собеседования;\n– Понятную систему роста зарплаты каждые 6 месяцев, в которой все зависит только от вас;\n– Все необходимые офисные блага вроде вкусного кофе и т.д.\nВас будут окружать адекватные люди, с которыми комфортно решать поставленные задачи. У сотрудников есть общие ценности, такие как стремление к качественному результату, забота о продукте и желание двигаться вперед. Также у нас нет “Начальства”, а есть коллеги. Все взаимодействуют горизонтально и в команде равенство между инженерами, стейкхолдером, продактом и т.д. Все работают бок о бок и делают одно общее дело.\nНазвание компании: Blogman\nКонтакты: @maria_golovina","markup":[{"type":"hashtag","offset":0,"length":9,"data":"вакансия"},{"type":"hashtag","offset":10,"length":6,"data":"swift"},{"type":"hashtag","offset":17,"length":10,"data":"objective"},{"type":"hashtag","offset":30,"length":4,"data":"ios"},{"type":"bold","offset":223,"length":8,"data":""},{"type":"bold","offset":456,"length":27,"data":""},{"type":"bold","offset":644,"length":22,"data":""},{"type":"bold","offset":891,"length":16,"data":""},{"type":"handle","offset":1680,"length":15,"data":"maria_golovina"}],"date":"2020-06-30T07:56:16+00:00","link":"tg://resolve?domain=mobile_jobs&post=68968","tags":[{"name":"mobile"},{"name":"ios"},{"name":"swift"},{"name":"objective-c"},{"name":"uikit"},{"name":"git"},{"name":"cocoapods"},{"name":"websocket"}],"cities":[],"allowsRemote":true}},{"node":{"__typename":"Job","id":"72296169472-1001054966032","title":"Ios разработчик","text":"#вакансия #ios #swift #junior #джун\n\nГород и адрес офиса: Санкт-Петербург, м. Петроградская (но команда работает удалённо)\n\nФормат работы: удалёнка\n\nЗанятость: проектная\n\nЗарплатная вилка (за проект): 200 000–500 000₽\n\nОписание вакансии: \nИщем джуниор-iOS разработчиков для разработки приложения под руководством сильного тимлида. Все подробности про приложение — в личку. \n\nФормат работы — проектный, с фиксированной оплатой за проект. После запуска приложения есть вероятность перехода на фултайм в команду (зависит от успеха запуска приложения). \n\nЕсли хочешь работать на международном рынке, тебе интересны стартапы, хочешь быть частью команды, которая работает над классными продуктами — пиши и присоединяйся к нам!\n\nВ отклике укажи портфолио/проекты/ссылки на приложения, резюме, ссылку на гитхаб. Вкратце расскажи, почему тебя заинтересовала наша вакансия. \n\nНазвание компании: Mooza.ru (пилим внутренний проект, не заказной)\n\nКонтакты: tg — @arutyunov","markup":[{"type":"hashtag","offset":0,"length":9,"data":"вакансия"},{"type":"hashtag","offset":10,"length":4,"data":"ios"},{"type":"hashtag","offset":15,"length":6,"data":"swift"},{"type":"hashtag","offset":22,"length":7,"data":"junior"},{"type":"hashtag","offset":30,"length":5,"data":"джун"},{"type":"bold","offset":37,"length":20,"data":""},{"type":"bold","offset":124,"length":14,"data":""},{"type":"bold","offset":149,"length":11,"data":""},{"type":"bold","offset":171,"length":30,"data":""},{"type":"bold","offset":219,"length":19,"data":""},{"type":"bold","offset":866,"length":18,"data":""},{"type":"link","offset":885,"length":8,"data":"http://mooza.ru/"},{"type":"bold","offset":934,"length":9,"data":""},{"type":"handle","offset":949,"length":10,"data":"arutyunov"}],"date":"2020-06-29T17:31:17+00:00","link":"tg://resolve?domain=mobile_jobs&post=68947","tags":[{"name":"mobile"},{"name":"ios"},{"name":"swift"}],"cities":[],"allowsRemote":true}},{"node":{"__typename":"Job","id":"72286732288-1001054966032","title":"Ios разработчик","text":"#вакансия #ios #офис #удаленка #Москва #fulltime\n\nГород: Москва\nФормат работы: офис/удаленная работа\nЗанятость: полная\nЗарплатная вилка: от 130 000 до 200 000\n\nКомпания: Лига Цифровой Экономики \n\nЛига Цифровой Экономики — это 3 500 человек и  1 000 проектов цифровой трансформации каждый год!\n\nНаши клиенты — лидеры рынка в ключевых отраслях экономики и государственного сектора. Мы гордимся нашей экспертизой и знаковыми проектами.\n\n🟢Мы пишем iOS-приложение для крупного ритейлера по продаже электроники и уже прошли довольно большой путь. Как ты уже понял, останавливаться мы не собираемся.\n\nМы постоянно растём и прямо сейчас ищем в команду хорошего iOS-разработчика, который будет с нами и в горе, и в радости.\n\nМы разрабатываем на последней версии Swift, используем VIPER. А также, пишем unit-тесты, используем моднейший CI/CD, ратуем за чистую архитектуру и не боимся экспериментировать.\n\n🔹Чего тебя ждёт на нашем проекте:\n\nРазработка нового функционала приложения – на горизонте маячит большое количество интересных фич, включая геймификацию.\nПоддержка и сопровождение существующего функционала – приложение уже довольно большое и за ним нужно ухаживать: не давать зарастать багами и следить за unit-тестами;\nУчастие в обсуждениях по развитию приложения и его архитектуры;\nРефакторинг устаревших модулей проекта;\n\n🔹Кого мы ищем:\n\nУверенное знание языка Swift, UIKit, Foundation и среды разработки в целом;\nПонимание архитектуры VIPER;\nОпыт написания Unit-тестов приветствуется;\nПонимание принципов SOLID;\nОпыт работы с системами контроля версий (Git);\nКоммуникабельность;\nЖелание обучаться и развиваться;\nУмение разбираться в чужом коде без приступов тошноты.\n\nПо всем вопросам пишите в ЛС: @Bogdan_Ln","markup":[{"type":"hashtag","offset":0,"length":9,"data":"вакансия"},{"type":"hashtag","offset":10,"length":4,"data":"ios"},{"type":"hashtag","offset":15,"length":5,"data":"офис"},{"type":"hashtag","offset":21,"length":9,"data":"удаленка"},{"type":"hashtag","offset":31,"length":7,"data":"Москва"},{"type":"hashtag","offset":39,"length":9,"data":"fulltime"},{"type":"handle","offset":1701,"length":10,"data":"Bogdan_Ln"}],"date":"2020-06-29T15:45:55+00:00","link":"tg://resolve?domain=mobile_jobs&post=68938","tags":[{"name":"mobile"},{"name":"ios"},{"name":"swift"},{"name":"uikit"},{"name":"git"}],"cities":[{"code":"moscow"}],"allowsRemote":true}},{"node":{"__typename":"Job","id":"72284635136-1001054966032","title":"Ios developer","text":"#вакансия #спб #ios #middle #senior #spb #офис #IoT #умныйдом \nMiddle/Senior iOS developer \nReady for Sky 🚀 \nhttps://readyforsky.com/ru/career/ \n📍 полный день, удаленно/офис (сейчас вся компания работает удаленно) \nМы ищем iOS developer, который будет разрабатывать приложение, использующее данные с IoT-устройств для предоставления пользователям нужных товаров и услуг \n💡 Используем: Swift, Objective-C; Jenkins; GraphQL; RxSwift; MVC, MVVM и Viper \nВ команде: разрабатываем новый функционал приложения, внутренние фреймворки (Private pods), фреймворки для общего доступа; пишем Unit тесты; принимаем участие в создании протоколов работы с умными устройствами; Refactoring и Code-review. \nПредлагаем: \nРаботу в профессиональной команде (team lead, senior, middle), более 300 000 активных пользователей приложения. \nЗП от 130 до 250 тыс. руб. на руки \nПосле исп.срока корпоративный английский \n📬 Пиши: @Rupeka_Natali","markup":[{"type":"hashtag","offset":0,"length":9,"data":"вакансия"},{"type":"hashtag","offset":10,"length":4,"data":"спб"},{"type":"hashtag","offset":15,"length":4,"data":"ios"},{"type":"hashtag","offset":20,"length":7,"data":"middle"},{"type":"hashtag","offset":28,"length":7,"data":"senior"},{"type":"hashtag","offset":36,"length":4,"data":"spb"},{"type":"hashtag","offset":41,"length":5,"data":"офис"},{"type":"hashtag","offset":47,"length":4,"data":"IoT"},{"type":"hashtag","offset":52,"length":9,"data":"умныйдом"},{"type":"bold","offset":63,"length":27,"data":""},{"type":"bold","offset":92,"length":13,"data":""},{"type":"link","offset":110,"length":34,"data":"https://readyforsky.com/ru/career/"},{"type":"bold","offset":225,"length":13,"data":""},{"type":"bold","offset":376,"length":11,"data":""},{"type":"bold","offset":454,"length":10,"data":""},{"type":"bold","offset":693,"length":11,"data":""},{"type":"bold","offset":900,"length":5,"data":""},{"type":"handle","offset":906,"length":14,"data":"Rupeka_Natali"}],"date":"2020-06-29T15:34:19+00:00","link":"tg://resolve?domain=mobile_jobs&post=68936","tags":[{"name":"mobile"},{"name":"ios"},{"name":"swift"},{"name":"objective-c"},{"name":"jenkins"},{"name":"graphql"},{"name":"mvvm"}],"cities":[],"allowsRemote":true}}]}}},"context":{}}