{"hash":"f5f6bf98bd95e769321482904cbbd488f77922fd","data":{"records":{"id":"rest","name":"rest","belongsTo":{"totalCount":192,"pageInfo":{"totalPages":20,"currentPage":17},"edges":[{"node":{"__typename":"Job","id":"1697644544-1001091028994","title":"Java разработчик","text":"#java #javascript #middle #senior\nКомпания: #kode \nЛокация: #калининград\nЗ/п: от 100К руб\nКонтакты: @Nadia_Rudometova\n \nKODE – компания мобильной разработки, которая закрепилась в ТОП-10 лучших студий и постоянно улучшает свои позиции. Мы выступаем технологическими партнёрами бизнеса, помогая заказчику развивать их digital-сервисы. \n\nЧто нужно делать?\n-Декомпозировать, планировать и оценивать задачи;\nУчаствовать в проектировании сложных систем с чистого листа;\n-Проектировать архитектуру веб-сервисов и REST API;\n-Реализовывать сложные интеграции с различными системами (GDS, банкинг, ритейл, биллинг и т.д.);\n-Покрывать свой код тестами;\n-Сопровождать и документировать архитектурные решения по своим проектам;\n-Взаимодействовать с участниками проектной команды для реализации лучших решений\n\nЧто нужно уметь?\n-Отличные знания Java;\n-Знания Spring и Spring Boot, Groovy;\n-Опыт работы c Kafka;\n-Умение использовать различные инструменты для тестирования кода и приложений различной сложности: JUnit, Spock, Testcontainers, Mockito, Hamcrest;\n-Опыт работы с SQL и NoSQL СУБД;\nЗнание принципов и шаблонов проектирования;\n-Уверенные знания о работе unix-систем. Любовь к ним и умение с ними работать;\n-Умение работать с Docker, docker-compose;\n\nЧто предлагаем?\n-Официальное оформление по ТК;\n-Работа в продуктовой команде, используя современный стек разработки;\n-Возможность влиять на развитие проекта и компании;\n-Корпоративы в Европе","markup":[{"type":"hashtag","offset":0,"length":5,"data":"java"},{"type":"hashtag","offset":6,"length":11,"data":"javascript"},{"type":"hashtag","offset":18,"length":7,"data":"middle"},{"type":"hashtag","offset":26,"length":7,"data":"senior"},{"type":"hashtag","offset":44,"length":5,"data":"kode"},{"type":"hashtag","offset":60,"length":12,"data":"калининград"},{"type":"handle","offset":100,"length":17,"data":"Nadia_Rudometova"}],"date":"2020-06-16T14:47:56+00:00","link":"tg://resolve?domain=jvmjobs&post=1619","tags":[{"name":"java"},{"name":"jvm"},{"name":"javascript"},{"name":"rest"},{"name":"spring"},{"name":"groovy"},{"name":"kafka"},{"name":"junit"},{"name":"sql"},{"name":"nosql"},{"name":"unix"},{"name":"docker"},{"name":"spring-boot"},{"name":"docker-compose"}],"cities":[{"code":"kaliningrad"}],"allowsRemote":false}},{"node":{"__typename":"Job","id":"71411171328-1001054966032","title":"Android разработчик","text":"‼️Вакансия Senior Android⁢ Developer‼️\n#android #developer #вакансия #удаленка\nВ команде Mycelium Wallet (mycelium.com) открыта #вакансия Senior Android⁢ Developer.\n💵З/П 3000-4000 USD по итогам собеседования.\nРабота удаленная 💻\n\nМы предлагаем:\n🔸Получить навыки и компетенции в одном из самых передовых и перспективных направлений финтех индустрии - blockchain;\n🔸Принять участие в разработке одного из самых популярных биткоин-кошельков в Google Play Store;\n🔸Работать в международной команде бок о бок с ведущими специалистами в индустрии;\n🔸Возможность профессионального карьерного роста и участия в разнообразных проектах компании.\n\nЧем предстоит заниматься:\n🔹Разрабатывать новые и развивать существующие мобильные сервисы компании на платформе Android;\n🔹Проектировать и разрабатывать большие функциональные части приложения с привлечением других программистов;\n🔹Использовать cutting edge технологии, а также проверенные временем решения.\n\nТребования:\n✔️Как минимум 3 года опыта разработки на Android;\n✔️Знание Java/Kotlin на уровне ведущего разработчика;\n✔️Знание шаблонов проектирования, опыт использования MVP и других архитектурных подходов;\n✔️Опыт параллельного и многопоточного программирования;\n✔️Понимание циклов работы Android-приложения и управления памятью;\n✔️Опыт разработки пользовательских интерфейсов на платформе Android. \n✔️Знание Android Design Principles;\n✔️Знание и умение использовать различные механизмы взаимодействий между приложениями, предоставляемые в рамках Android SDK;\n✔️Понимание принципов работы REST API, WS, RPC и клиент-серверных приложений;\n✔️Знание английского языка на уровне чтения документации и умения общаться в корпоративном чате.\n\nПлюсом будет:\n➕Умение и понимание необходимости написания Unit tests;\n➕Знание основ криптографии;\n➕Опыт работы с bitcoin/etherium blockchain stack;\n➕Наличие своих проектов на Github, в Google Play и т.д.\n\n📲Контакт: @valeritata","markup":[{"type":"hashtag","offset":39,"length":8,"data":"android"},{"type":"hashtag","offset":48,"length":10,"data":"developer"},{"type":"hashtag","offset":59,"length":9,"data":"вакансия"},{"type":"hashtag","offset":69,"length":9,"data":"удаленка"},{"type":"link","offset":106,"length":12,"data":"http://mycelium.com"},{"type":"hashtag","offset":128,"length":9,"data":"вакансия"},{"type":"handle","offset":1900,"length":11,"data":"valeritata"}],"date":"2020-06-16T14:37:41+00:00","link":"tg://resolve?domain=mobile_jobs&post=0","tags":[{"name":"mobile"},{"name":"android"},{"name":"playframework"},{"name":"java"},{"name":"kotlin"},{"name":"rest"},{"name":"github"}],"cities":[],"allowsRemote":true}},{"node":{"__typename":"Job","id":"71388102656-1001054966032","title":"Ios разработчик","text":"#вакансия #iOS #developer #moscow #офис #fulltime\n\n🔸Адрес: Москва, Новокузнецкая\n🔸Формат работы: офис \n🔸Занятость: полная \n🔸ЗП: 180 000-250 000\n\n📣Middle/Senior iOS Разработчик\n\nна один из наших проектов-социальная сеть нового поколения на базе блокчейн-технологий.\n\n🔶Компания Freedom Group International \n\nЧем придётся заниматься:\n🔶Разработка нового функционала в рамках существующего приложения;\n🔶Рефакторинг и апгрейд ранее сделанного функционала\n\nЧто для этого потребуется:\n🔶Опыт разработки мобильных приложений от трех лет;\n🔶Отличные знания ООП, алгоритмов и структур данных;\n🔶Отличное знание Swift;\n🔶Знание Objective-C для правки старого кода;\n🔶Понимание REST API, взаимодействие с backend;\n🔶Опыт работы с GIT\n\nЖелательно знание следующих библиотек:\n   • RxSwift\n   • AFNetworking\n\nМы готовы предложить:\n🔷Уютный, современный офис;\n🔷Гибкий график;\n🔷Дружный коллектив и лояльное руководство;\n🔷Все плюсы работы в «белой» компании\n\n🔶Контакт для связи: @AnutaF","markup":[{"type":"hashtag","offset":0,"length":9,"data":"вакансия"},{"type":"hashtag","offset":10,"length":4,"data":"iOS"},{"type":"hashtag","offset":15,"length":10,"data":"developer"},{"type":"hashtag","offset":26,"length":7,"data":"moscow"},{"type":"hashtag","offset":34,"length":5,"data":"офис"},{"type":"hashtag","offset":40,"length":9,"data":"fulltime"},{"type":"bold","offset":312,"length":24,"data":""},{"type":"bold","offset":458,"length":26,"data":""},{"type":"bold","offset":730,"length":38,"data":""},{"type":"bold","offset":801,"length":21,"data":""},{"type":"handle","offset":972,"length":7,"data":"AnutaF"}],"date":"2020-06-16T12:00:18+00:00","link":"tg://resolve?domain=mobile_jobs&post=0","tags":[{"name":"mobile"},{"name":"ios"},{"name":"swift"},{"name":"objective-c"},{"name":"rest"},{"name":"git"}],"cities":[{"code":"moscow"}],"allowsRemote":false}},{"node":{"__typename":"Job","id":"1696595968-1001091028994","title":"Java разработчик","text":"#вакансия  #офис #удаленка #регионы #Москва #Java #Spring #senior #middle #backend\nЛокация: #регион #Москва\nФормат работы: #офис #fulltime #удаленка\nЗ/п: 150-250 NET\nКомпания: МД-IT\nВедущий разработчик/Разработчик JAVA  \nВсем привет!\n\n✅Нужны классные разработчики Java уровня Middle, Senior, Lead\n\n👉Немного о нас: \nЦентр разработки МД-IT реализует проекты федерального масштаба под ключ. Наши специалисты работают с крупнейшими системными интеграторами, выполняя задачи по проектированию, разработке, тестированию, сопровождению и эксплуатации внедренных решений. \nНаши офисы расположены в Москве, Ростове-на –Дону, Нижнем Новгороде. \n\n👉Что ждем от Вас:\n* Уверенные знания java 8+, spring boot, будет плюсом знание Kotlin. \n Глубокие знания и практический опыт использования Java в нагруженных многопоточных приложениях Hibernate, Spring, Maven3, ХML\n\n* Опыт проектирования версионнированных REST-API, знание grpc будет плюсом\n\n* Понимание принципов асинхронного программирования, знание одного из: netty, nio, r2dbc\n\n* Желателен опыт использования библиотек реактивного программирования (rxjava, reactor) или опыт работы с vert.x, ratpack или http4\n\n*Приветствуется опыт работы с современными архитектурами, Apache Ignite, Apache Kafka\n\n👉Что мы можем предложить Вам:\n\n* Работа: удаленка\n\n*График работы 5/2, команда работает с 9(10) до 18(19) ч. по МСК\n\n*Заработную плату белую, конкурентоспособную (рассмотрим ваши предложения).\n\n* Работа в команде сообразительных, открытых, стремящихся к развитию единомышленников.\n\n* Крупные и долгосрочные проекты, увеличивающие профессиональный кругозор и опыт работы. \n* Плюшки к чаю и кофе, оплачиваемая мобильная связь, оплачиваемые тренинги и курсы для повышения квалификации. \n\n🖍 Вопросы, резюме прошу писать в личку Елене @Elenazlh","markup":[{"type":"hashtag","offset":0,"length":9,"data":"вакансия"},{"type":"hashtag","offset":11,"length":5,"data":"офис"},{"type":"hashtag","offset":17,"length":9,"data":"удаленка"},{"type":"hashtag","offset":27,"length":8,"data":"регионы"},{"type":"hashtag","offset":36,"length":7,"data":"Москва"},{"type":"hashtag","offset":44,"length":5,"data":"Java"},{"type":"hashtag","offset":50,"length":7,"data":"Spring"},{"type":"hashtag","offset":58,"length":7,"data":"senior"},{"type":"hashtag","offset":66,"length":7,"data":"middle"},{"type":"hashtag","offset":74,"length":8,"data":"backend"},{"type":"hashtag","offset":92,"length":7,"data":"регион"},{"type":"hashtag","offset":100,"length":7,"data":"Москва"},{"type":"hashtag","offset":123,"length":5,"data":"офис"},{"type":"hashtag","offset":129,"length":9,"data":"fulltime"},{"type":"hashtag","offset":139,"length":9,"data":"удаленка"},{"type":"handle","offset":1772,"length":9,"data":"Elenazlh"}],"date":"2020-06-16T11:17:46+00:00","link":"tg://resolve?domain=jvmjobs&post=1618","tags":[{"name":"java"},{"name":"jvm"},{"name":"spring"},{"name":"dotnet"},{"name":"kotlin"},{"name":"hibernate"},{"name":"maven"},{"name":"rest"},{"name":"apache"},{"name":"kafka"},{"name":"spring-boot"}],"cities":[{"code":"moscow"}],"allowsRemote":true}},{"node":{"__typename":"Job","id":"16970153984-1001110946746","title":"Js разработчик","text":"#вакансия #удаленка #fulltime #frontend #vue #nuxt #react\n\nКомпания: webland.design\nПозиция: frontend разарботчик\nФормат работы: удалённый, fulltime\n\nЗарплатная вилка: от 70 до 100 т.р на руки \n\nЗадачи:\n• Разработка веб-интерфейсов на vue.js/React\n• Активное участие в обсуждении задач.\n• Разработка нового функционала.\n• Доработка/Оптимизация существующего функционала.\n\nТребования:\n• Уверенное знание Javascript (ES6+)\n• Обязательное понимание экосистемы Vue/VueRouter/Vuex\n• Понимание принципов построения архитектуры большого приложения и принципов компонентного подхода.\n• Умение делать качественную кросс-браузерную адаптивную верстку (SCSS).\n• Опыт работы с Webpack и Babel.\n• Опыт работы с REST API\n\nБудет супер, если:\n•  Есть понимание принципов pixel perfect\n• Опыт использования серверного рендеринга (SSR) с использованием Nuxt.js.\n• Коммерческий опыт работы c React (Redux or Mobx)\n• Есть ИП или статус самозанятого\n\nСтек: \n• HTML5/JS/SCSS\n• Vue.js и/или React\n• Webpack/Babel\n• php или node.js REST API\n\nКонтакт: @alex_project\n\n—\n\n👉 Обсуждение вакансии в чате @javascript_jobs","markup":[{"type":"hashtag","offset":0,"length":9,"data":"вакансия"},{"type":"hashtag","offset":10,"length":9,"data":"удаленка"},{"type":"hashtag","offset":20,"length":9,"data":"fulltime"},{"type":"hashtag","offset":30,"length":9,"data":"frontend"},{"type":"hashtag","offset":40,"length":4,"data":"vue"},{"type":"hashtag","offset":45,"length":5,"data":"nuxt"},{"type":"hashtag","offset":51,"length":6,"data":"react"},{"type":"link","offset":69,"length":14,"data":"http://webland.design"},{"type":"handle","offset":1027,"length":13,"data":"alex_project"},{"type":"handle","offset":1075,"length":16,"data":"javascript_jobs"}],"date":"2020-06-16T10:19:35+00:00","link":"tg://resolve?domain=javascript_jobs_feed&post=0","tags":[{"name":"javascript"},{"name":"vuejs"},{"name":"reactjs"},{"name":"webpack"},{"name":"rest"},{"name":"redux"},{"name":"html"},{"name":"php"},{"name":"nodejs"},{"name":"react-redux"}],"cities":[],"allowsRemote":true}},{"node":{"__typename":"Job","id":"1690304512-1001091028994","title":"Java developer","text":"Вакансия: Java developer \n \nПроект: Разрабатываем единый веб-терминал MOEX Treasury, который позволит получить быстрый и удобный доступ ко всем рынкам Московской Биржи, а также сервисам по управлению обеспечением и внебиржевым операциям. Это не просто веб-интерфейс к уже существующим торговым системам, а новая платформа, которая взаимодействует со всеми основными торговыми и бэк-офисными системами Биржи, которая сейчас начинает активно развиваться.\n \nТехнологический стек на проекте: Java 8, Spring (Spring Boot, Spring MVC), Hazelcast, WebSocket, RabbitMQ, Firebird (с переходом на PostgreSQL), в интеграционных решения REST API и JMS.\n \nЗадачи на проекте:\n Участие в проекте по разработке платформы, объединяющей основные рынки и инструменты Московской Биржи;\n Разработка и отладка модулей платформы;\n Интеграция приложения с внешними и внутренними сервисами;\n Написание понятного и стабильно работающего кода;\n Активное взаимодействие со специалистами из смежных подразделений;\n Поиск и аргументация технически эффективных путей решения бизнес задач;\n Умение и желание писать чистый и понятный код;\n Навык написания unit и интеграционных тестов на Java;\n Паттерны проектирования.\n\nЧто ожидаем от Вас:\n Опыт промышленной разработки (от 3 лет);\n\nФундаментальные знания принципов построения распределенных систем;\n Уверенные знания core Java;\n Опыт разработки веб-сервисов;\n Знание паттернов проектирования;\n Применение практик TDD, DDD, CI/CD.\n\nНаши условия работы:\n• Компания: ПАО Московская биржа (Компания, входящая в 500 - лучших работодателей мира по версии Forbes за 2019 год);\n• Офис в центре: г. Москва, м. Арбатская/Библиотека им. Ленина/Боровицкая/Александровский сад;\n• Занятость: полная, официальное оформление в штат компании (оформление онлайн);\n• Формат работы: современный  офис возле Кремля в шаговой доступности от метро (на данный момент работаем удаленно из дома);\n• ДМС: с первого рабочего дня;\n• Свой «корпоративный университет», собственный лекторий, широкие возможности обучения – как внутри, так и вне компании;\n• Уровень з/п:  230 - 290 тыс.руб. (gross) + годовой бонус (25% от годового дохода);\n• Формат интервью: 1 этап онлайн интервью (60 минут).\n\nПишите в личку, отвечу на любые вопросы!\nКонтакты: @Sasha_P92\nAlexander.Panin@moex.com","markup":[{"type":"bold","offset":0,"length":26,"data":""},{"type":"bold","offset":28,"length":8,"data":""},{"type":"bold","offset":455,"length":33,"data":""},{"type":"bold","offset":643,"length":19,"data":""},{"type":"bold","offset":1188,"length":20,"data":""},{"type":"bold","offset":1450,"length":21,"data":""},{"type":"bold","offset":1744,"length":19,"data":""},{"type":"handle","offset":2233,"length":10,"data":"Sasha_P92"},{"type":"link","offset":2244,"length":24,"data":"mailto:Alexander.Panin@moex.com"}],"date":"2020-06-16T08:53:26+00:00","link":"tg://resolve?domain=jvmjobs&post=1612","tags":[{"name":"java"},{"name":"jvm"},{"name":"spring"},{"name":"websocket"},{"name":"rabbitmq"},{"name":"postgresql"},{"name":"rest"},{"name":"spring-boot"},{"name":"spring-mvc"}],"cities":[{"code":"moscow"}],"allowsRemote":true}},{"node":{"__typename":"Job","id":"1689255936-1001091028994","title":"Java разработчик","text":"Вакансия Team Lead Java \n\nПроект: Разрабатываем единый веб-терминал MOEX Treasury, который позволит получить быстрый и удобный доступ ко всем рынкам Московской Биржи, а также сервисам по управлению обеспечением и внебиржевым операциям. Это не просто веб-интерфейс к уже существующим торговым системам, а новая платформа, которая взаимодействует со всеми основными торговыми и бэк-офисными системами Биржи, которая сейчас начинает активно развиваться.\n \nТехнологический стек: Java 8, Spring (Spring Boot, Spring MVC), Hazelcast, WebSocket, RabbitMQ, Firebird (с переходом на PostgreSQL), в интеграционных решения REST API и JMS.\n \n Задачи на проекте:\n Участие в проекте по разработке платформы, объединяющей основные рынки и инструменты Московской Биржи;\n Подбор команды java-разработчиков (3 человека);\n Решение всех эскалаций по сотрудникам направления – качество и производительность работы, мотивация и пр.;\n Обеспечение качества работы членов команды;\n Накопление экспертизы по направлению;\n Организация и поддержание в актуальном состоянии базы знаний, проведение внутренних мероприятий по обмену знаниями и пр.;\n Проработка подхода к организации работ и его документирование в регламентах;\n Информирование всех заинтересованных сторон о процессе и его изменениях, контроль следования установленному процессу;\n Оценка задач в итерацию, оценка скоупа входящих работ;\n Ревью оценок от команды, отчетность план/факт по задачам команды;\n Разработка и контроль стандартов проектирования и качества кода для внешнего подрядчика.\n \nЧто мы ожидаем от Вас:\n Глубокое знание Java core;\n Знание принципов ООП и понимание паттернов проектирования;\n Уверенное знание JEE, Spring, Spring Boot, Spring MVC;\n Опыт разработки высоконагруженных систем;\n Уверенное знание, опыт проектирования и разработки RESTful API и WebSocket;\n Уверенное знание и опыт работы с данными в формате xml,json;\n Опыт работы с jaxb;\n Уверенное знание rdms. умение отлаживать, оптимизировать sql запросы;\n Опыт работы с Postgres приветствуется.\n\nНаши условия работы:\n• Компания: ПАО Московская биржа (Компания, входящая в 500 - лучших работодателей мира по версии Forbes за 2019 год);\n• Офис в центре: г. Москва, м. Арбатская/Библиотека им. Ленина/Боровицкая/Александровский сад;\n• Занятость: полная, официальное оформление в штат компании (оформление онлайн);\n• Формат работы: современный  офис возле Кремля в шаговой доступности от метро (на данный момент работаем удаленно из дома);\n• ДМС: с первого рабочего дня;\n• Свой «корпоративный университет», собственный лекторий, широкие возможности обучения – как внутри, так и вне компании;\n• Уровень з/п:  300 - 350 тыс.руб. (gross) + годовой бонус (32% от годового дохода);\n• Формат интервью: 1 этап онлайн интервью (60 минут).\n\nПишите в личку, отвечу на любые вопросы!\nКонтакты: @Sasha_P92\nAlexander.Panin@moex.com","markup":[{"type":"bold","offset":0,"length":34,"data":""},{"type":"bold","offset":453,"length":22,"data":""},{"type":"bold","offset":631,"length":19,"data":""},{"type":"bold","offset":1530,"length":23,"data":""},{"type":"bold","offset":2012,"length":21,"data":""},{"type":"bold","offset":2306,"length":19,"data":""},{"type":"handle","offset":2795,"length":10,"data":"Sasha_P92"},{"type":"link","offset":2806,"length":24,"data":"mailto:Alexander.Panin@moex.com"}],"date":"2020-06-16T08:53:10+00:00","link":"tg://resolve?domain=jvmjobs&post=1611","tags":[{"name":"java"},{"name":"jvm"},{"name":"spring"},{"name":"websocket"},{"name":"rabbitmq"},{"name":"postgresql"},{"name":"rest"},{"name":"xml"},{"name":"json"},{"name":"jaxb"},{"name":"sql"},{"name":"spring-boot"},{"name":"spring-mvc"}],"cities":[{"code":"moscow"}],"allowsRemote":true}},{"node":{"__typename":"Job","id":"1687158784-1001091028994","title":"Java разработчик","text":"#java #senior #backend #js #Москва #fulltime #офис #angular\nЛокация: Москва, м. Шаболовская\nФормат работы: Office\nЗанятость: Fulltime\nЗарплата от 100 к до 240 к\nОписание вакансии:\nРазработчик JAVA (senior\\middle)\nНаш клиент - международная компания, в связи с расширением деятельности в России - приглашает опытных Java-разработчиков. \nРазработка собственного продукта - коммерческого приложения на основе Angular front + Java backend.\nОбязанности:\n- разработка новых компонентов системы\n- доработка и оптимизация существующих компонентов\n- поддержка качества кода (code review, использование систем автоматизированного контроля кода)\n- Написание юнит-тестов и функциональных тестов\n- Взаимодействие с бизнес-аналитиками для выполнения техзадания\nТребования:\n- Высшее образование\n- Командность, гибкость подходов и мышления\n- опыт разработки на java от 3 лет\nТехнические требования:\n- знание java 8, Spring-*(Boot, Data, Rest), Hibernate\n- опыт работы с SQL (SQL Server, Oracle или postgresql)\n- понимание основ микросервисной архитектуры\n- Git\n-если ты умеешь работать с Docker и понимаешь практики DevOps ты тот, кто нам нужен.\nАдекватных руководителей, сильную команду и офисные плюшки гарантируем\nКА Wit recruitment\nКонтакты m.buldenko@witrec.com\n@marinabuldenko","markup":[{"type":"hashtag","offset":0,"length":5,"data":"java"},{"type":"hashtag","offset":6,"length":7,"data":"senior"},{"type":"hashtag","offset":14,"length":8,"data":"backend"},{"type":"hashtag","offset":23,"length":3,"data":"js"},{"type":"hashtag","offset":27,"length":7,"data":"Москва"},{"type":"hashtag","offset":35,"length":9,"data":"fulltime"},{"type":"hashtag","offset":45,"length":5,"data":"офис"},{"type":"hashtag","offset":51,"length":8,"data":"angular"},{"type":"link","offset":1229,"length":21,"data":"mailto:m.buldenko@witrec.com"},{"type":"handle","offset":1251,"length":15,"data":"marinabuldenko"}],"date":"2020-06-16T08:20:47+00:00","link":"tg://resolve?domain=jvmjobs&post=1609","tags":[{"name":"java"},{"name":"jvm"},{"name":"angularjs"},{"name":"spring"},{"name":"rest"},{"name":"hibernate"},{"name":"sql"},{"name":"oracle"},{"name":"postgresql"},{"name":"git"},{"name":"docker"},{"name":"spring-boot"},{"name":"sql-server"}],"cities":[{"code":"moscow"}],"allowsRemote":false}},{"node":{"__typename":"Job","id":"1686110208-1001091028994","title":"Java разработчик","text":"#вакансия #java #senior #middle \nЛокация: Саратов, Самара, Кемерово \nЗП: 80.000-170.000 на руки\nИщем в команду Java dev  уровня middle/senior в связи с большим количеством интересных проектов и расширения команды.\nКратко по стеку: \n[ Java 11+, Maven, Spring Boot 2+, Hibernate 5+, PostgreSQL 12, RabbitMQ ]\nТребования:\n - Java SE 8 и выше \n- Spring / Spring Boot \n- Hibernate или MyBatis\n- SQL (PostgreSQL) \n- Apache Tomcat или Eclipse Jetty или другой app server\n- Принципы ООП\n- Web сервисы (REST или SOAP).\n Будет плюсом: опыт работы с одним из актуальных frontend фреймворков - Angular, React, Vue; понимание принципов работы протоколов HTTP, HTTPS; работа с очередями (ActiveMQ, RabbitMQ) и опыт работы с Docker.\nЧто предлагаем:\n- белая з/п и оформление в штат;\n- интересные проекты и адекватное руководство; \n- возможность профессионального и карьерного роста;\n- формат интервью 1 этап по Skype или Zoom\nДля связи и резюме @KaterinaHR","markup":[{"type":"hashtag","offset":0,"length":9,"data":"вакансия"},{"type":"hashtag","offset":10,"length":5,"data":"java"},{"type":"hashtag","offset":16,"length":7,"data":"senior"},{"type":"hashtag","offset":24,"length":7,"data":"middle"},{"type":"handle","offset":929,"length":11,"data":"KaterinaHR"}],"date":"2020-06-16T07:55:35+00:00","link":"tg://resolve?domain=jvmjobs&post=1608","tags":[{"name":"java"},{"name":"jvm"},{"name":"maven"},{"name":"spring"},{"name":"hibernate"},{"name":"postgresql"},{"name":"rabbitmq"},{"name":"sql"},{"name":"apache"},{"name":"tomcat"},{"name":"eclipse"},{"name":"jetty"},{"name":"web"},{"name":"rest"},{"name":"soap"},{"name":"angularjs"},{"name":"reactjs"},{"name":"vuejs"},{"name":"docker"},{"name":"spring-boot"}],"cities":[{"code":"saratov"},{"code":"samara"},{"code":"kemerovo"}],"allowsRemote":false}},{"node":{"__typename":"Job","id":"16954425344-1001110946746","title":"Js разработчик","text":"#вакансия #удалённо #nestjs #nest #fullstack #typescript \n\nFullstack TypeScript Developer\n\nhttps://edm-ghost-production.com ищет в команду разработчика для создания музыкальной платформы. \n\n⭐Стек: \nNode.Js, TypeScript, Express, NestJS, TypeOrm, PostgreSQL, Redis, Vue \n\n🔻 Требования:\n- Опыт работы с NestJS (не менее 6 месяцев), TypeOrm;\n- Опыт работы с Vue (vue-class-component, vue-property-decorator) не менее года\n- Знания ES6/ES7/ES8;\n- REST APIs, на основе Express и NestJS;\n- Опыт работы с PostgreSQL; \n- Typescript (не менее года)\n- ESLint;\n- Знание основ систем контроля версий (Git);\n- Умение работать в команде и писать чистый код;\n\n💥Будет плюсом:\n- AWS S3;\n- Интеграция с Helpdesk (Zendesk/Intercom/Helpcrunch etc.)\n\n🙋♂Обязанности:\n- Разработка бэкенда и фронтэнда нового приложения \n- Взаимодействие с другими разработчиками\n\n🔹Условия:\n- Удалённая работа\n- Полная занятость \n- Гибкий график работы (важно что бы все задачи были выполнены)\n- Зарплатная вилка 120 000 - 200 000 рублей (в зависимости от уровня кандидата middle/senior)\n\nПрисылайте CV в ЛС @alexlarichev","markup":[{"type":"hashtag","offset":0,"length":9,"data":"вакансия"},{"type":"hashtag","offset":10,"length":9,"data":"удалённо"},{"type":"hashtag","offset":20,"length":7,"data":"nestjs"},{"type":"hashtag","offset":28,"length":5,"data":"nest"},{"type":"hashtag","offset":34,"length":10,"data":"fullstack"},{"type":"hashtag","offset":45,"length":11,"data":"typescript"},{"type":"link","offset":91,"length":32,"data":"https://edm-ghost-production.com"},{"type":"handle","offset":1070,"length":13,"data":"alexlarichev"}],"date":"2020-06-16T06:34:02+00:00","link":"tg://resolve?domain=javascript_jobs_feed&post=0","tags":[{"name":"javascript"},{"name":"typescript"},{"name":"nodejs"},{"name":"express"},{"name":"postgresql"},{"name":"redis"},{"name":"vuejs"},{"name":"rest"},{"name":"git"},{"name":"amazon-web-services"}],"cities":[],"allowsRemote":true}}]}}},"context":{}}