{"hash":"f34fd2c444a074f4e0e67d525015a008ef8e766f","data":{"records":{"id":"dotnet","name":"dotnet","belongsTo":{"totalCount":129,"pageInfo":{"totalPages":13,"currentPage":2},"edges":[{"node":{"__typename":"Job","id":"1990197248-1001134745498","title":"Devops инженер","text":"#вакансия  #Мск #Москва #офис #devops #fulltime\nГород: Москва \nФормат работы: офис\nЗанятость: полная\n\nПозиция: DevOps \nЗарплатная вилка: от 170 000 до 200 000 net. (после налогов) \n\nОписание вакансии: \nИщу DevOps инженера в европейскую компанию, которая открыла офис в Москве.\n\nОсновные задачи - поддержка сред разработки, прода, администрирование.\n\nТочно нужно: \nразговорный английский – обязательно,\nLinux (CentOS), Ansible, Jenkins, CI/CD, Docker\nKubernetes как плюс\n\nПредлагаем: интересный проект, медицинское страхование, обучение, комфортный офис.\n\nНазвание компании: SPICE IT\nРезюме отправлять: achistyakova@spice-agency.ru или @AlinaChist\n\n—\n\n👉 Обсуждение вакансии в чате @devops_jobs","markup":[{"type":"hashtag","offset":0,"length":9,"data":"вакансия"},{"type":"hashtag","offset":11,"length":4,"data":"Мск"},{"type":"hashtag","offset":16,"length":7,"data":"Москва"},{"type":"hashtag","offset":24,"length":5,"data":"офис"},{"type":"hashtag","offset":30,"length":7,"data":"devops"},{"type":"hashtag","offset":38,"length":9,"data":"fulltime"},{"type":"link","offset":602,"length":28,"data":"mailto:achistyakova@spice-agency.ru"},{"type":"handle","offset":635,"length":11,"data":"AlinaChist"},{"type":"handle","offset":681,"length":12,"data":"devops_jobs"}],"date":"2020-04-09T10:02:31+00:00","link":"tg://resolve?domain=devops_jobs_feed&post=1898","tags":[{"name":"dotnet"},{"name":"linux"},{"name":"centos"},{"name":"ansible"},{"name":"jenkins"},{"name":"docker"},{"name":"kubernetes"}],"cities":[{"code":"moscow"}],"allowsRemote":false}},{"node":{"__typename":"Job","id":"66329772032-1001054966032","title":"Ios разработчик","text":"#вакансия #iOS #middle #swift #спб #фуллтайм\n\nКомпания: РБК\nФормат работы: офис, гибкое начало дня, фуллтайм\nУсловия: 140000 – 170000 руб. net. + ДМС, скидки на англ.яз., фитнес \n📍Санкт-Петербург (м.Чернышевская)\n\nВ команду мобильной разработки ищем iOS-разработчика. Мы разрабатываем приложения РБК Главное, РБК Лента новостей и конвертер валют + запускаем ряд новых проектов.\n\nЧем предстоит заниматься: разработкой новых приложений для деловых и бизнес проектов РБК, рефакторингом и усовершенствованием функционала существующих. \nНаш стек: swift 5\nВ работе используем MVC + Clean\n\nПодробности можно посмотреть тут \ncall/text me: @marie_clair","markup":[{"type":"hashtag","offset":0,"length":9,"data":"вакансия"},{"type":"hashtag","offset":10,"length":4,"data":"iOS"},{"type":"hashtag","offset":15,"length":7,"data":"middle"},{"type":"hashtag","offset":23,"length":6,"data":"swift"},{"type":"hashtag","offset":30,"length":4,"data":"спб"},{"type":"hashtag","offset":35,"length":9,"data":"фуллтайм"},{"type":"link","offset":613,"length":3,"data":"https://hh.ru/vacancy/35591392"},{"type":"handle","offset":632,"length":12,"data":"marie_clair"}],"date":"2020-04-09T08:33:16+00:00","link":"tg://resolve?domain=mobile_jobs&post=63257","tags":[{"name":"mobile"},{"name":"ios"},{"name":"swift"},{"name":"dotnet"}],"cities":[],"allowsRemote":false}},{"node":{"__typename":"Job","id":"1430257664-1001091028994","title":"Java разработчик","text":"#вакансия #fullstack #fullstackdeveloper #java  #javascript #jquery #remote #fulltime #удаленно\n\nFullstack Developer\nКомпания: Fplay\nЛокация: remote\nЗанятость: fulltime\nЗ/п: 130-140К net\nКонтакты: @observer69\n\nНаша команда состоит из криптотрейдеров с большим опытом торговли. Деятельность проекта - трейдинг на криптобиржах посредством использования торгового робота. На данный момент уже создан и используется прибыльный торговый робот. В планах проекта расширение возможностей робота путем подключения бОльшего количества криптобирж. Для реализации этих целей мы расширяем штат, ищем разработчика. Мы не создаем продукт для продажи, только для собственного использования.\n\nУсловия\n● Удаленная работа, полная занятость. Территориальные границы часовых поясов: от UTC+2 до UTC+6.\n● Работа в небольшом коллективе криптоэнтузиастов. На данный момент команда состоит из 4-х человек. Все работают на удаленке.\n● Режим работы 8 часов в день + 1 час перерыв на обед. Все выходные и праздничные дни, отпуска предоставляются и оплачиваются в соответствии с трудовым законодательством страны проживания.\n● Выплата заработной платы 2 раза в месяц.\n\nТребования\n● Java 8+, Spring, JavaScript, jQuery;\n● Опыт Java от 3-х лет, опыт JavaScript от 1 года;\n● Опыт разработки многопоточных систем;\n● Знание баз данных PostgreSQL либо MariaDB;\n● Опыт самостоятельной работы (удаленка на дому или ко-воркинг, другие формы работы не по найму).\n \nПриветствуется\n● Опыт работы с API классических или криптобирж;\n● Опыт работы с REST API, WebSocket API.\n● Опыт разработки систем реального времени;\n● Опыт в создании архитектур программ;\n● DevOps навыки;\n● Хорошее знание английского языка.\n● Приверженность open source идеологии.\n\nЗадачи\n1. Сопровождение и улучшение имеющегося торгового робота;\n2. Разработка архитектуры универсального ядра, к которому будут подключаться новые криптобиржи;\n3. Разработка серверной и интерфейсной частей торгового робота;\n4. Реализация автоматического тестирования серверной части;\n5. Администрирование серверной части в Debian/Ubuntu server OS","markup":[{"type":"hashtag","offset":0,"length":9,"data":"вакансия"},{"type":"hashtag","offset":10,"length":10,"data":"fullstack"},{"type":"hashtag","offset":21,"length":19,"data":"fullstackdeveloper"},{"type":"hashtag","offset":41,"length":5,"data":"java"},{"type":"hashtag","offset":48,"length":11,"data":"javascript"},{"type":"hashtag","offset":60,"length":7,"data":"jquery"},{"type":"hashtag","offset":68,"length":7,"data":"remote"},{"type":"hashtag","offset":76,"length":9,"data":"fulltime"},{"type":"hashtag","offset":86,"length":9,"data":"удаленно"},{"type":"bold","offset":97,"length":29,"data":""},{"type":"bold","offset":133,"length":8,"data":""},{"type":"bold","offset":149,"length":10,"data":""},{"type":"bold","offset":169,"length":4,"data":""},{"type":"bold","offset":187,"length":9,"data":""},{"type":"handle","offset":197,"length":11,"data":"observer69"},{"type":"bold","offset":676,"length":8,"data":""},{"type":"bold","offset":722,"length":59,"data":""},{"type":"bold","offset":1140,"length":11,"data":""},{"type":"bold","offset":1426,"length":15,"data":""},{"type":"bold","offset":1708,"length":9,"data":""},{"type":"bold","offset":1773,"length":2,"data":""},{"type":"bold","offset":1869,"length":2,"data":""},{"type":"bold","offset":1933,"length":2,"data":""},{"type":"bold","offset":1993,"length":2,"data":""}],"date":"2020-04-09T08:01:38+00:00","link":"tg://resolve?domain=jvmjobs&post=1364","tags":[{"name":"java"},{"name":"jvm"},{"name":"javascript"},{"name":"jquery"},{"name":"dotnet"},{"name":"spring"},{"name":"postgresql"},{"name":"mariadb"},{"name":"rest"},{"name":"websocket"},{"name":"debian"},{"name":"ubuntu"}],"cities":[],"allowsRemote":true}},{"node":{"__typename":"Job","id":"16227762176-1001110946746","title":"Javascript developer","text":"#вакансия #react #javascript #москва #офис\n\n🔭 Под задачи разработки платформы Web-решений ищем Frontend Developer (React) в крупную финансовую компанию. \n🎧 Все собеседования проводятся по скайпу из-за карантина. \nОфис: Москва, Лубянка\n🏠 Формат работы: в офисе после карантина (сейчас как у всех  удалёнка). В первый рабочий день оформляетесь и идете на удалёнку.\nЗанятость полная.\nГражданство: РФ\nПолный соцпакет.\n💰 Зарплата: от 165К до 175К net + квартальная премия 0,5 оклада. \nС премией средняя ЗП составит 205K рублей net \n\nFrontend Developer (React)\n🚀Область ответственности:\n• Участие в разработке фронт-офисных систем компании.\n💎 Требования:\n• Высшее / неоконченное высшее образование;\n• Опыт коммерческой разработки UI от 2,5 лет;\n• Необходимый стек: JavaScript, TypeScript, React (с использованием Redux/Mobx, Webpack, Babel), СУБД (PostgreSQL, MongoDB, Redis).\n• Кроссбраузерная и кроссплатформенная вёрстка.\n• Участие в высоконагруженных проектах.\n\nНазвание компании: КА \"Бизнес Крафт Консалт\" https://bcraft.ru/\n📪Контакты:\ntelegram: @oksanaalieva \nEmail: oksana@bcraft.ru \nБуду рада ответить на уточняющие вопросы. \nПодробности могу выслать в ЛС в ответ на присланное резюме.","markup":[{"type":"hashtag","offset":0,"length":9,"data":"вакансия"},{"type":"hashtag","offset":10,"length":6,"data":"react"},{"type":"hashtag","offset":17,"length":11,"data":"javascript"},{"type":"hashtag","offset":29,"length":7,"data":"москва"},{"type":"hashtag","offset":37,"length":5,"data":"офис"},{"type":"link","offset":1011,"length":18,"data":"https://bcraft.ru/"},{"type":"handle","offset":1052,"length":13,"data":"oksanaalieva"},{"type":"link","offset":1074,"length":16,"data":"mailto:oksana@bcraft.ru"}],"date":"2020-04-09T06:40:13+00:00","link":"tg://resolve?domain=javascript_jobs_feed&post=15476","tags":[{"name":"javascript"},{"name":"reactjs"},{"name":"web"},{"name":"dotnet"},{"name":"typescript"},{"name":"redux"},{"name":"webpack"},{"name":"postgresql"},{"name":"mongodb"},{"name":"redis"}],"cities":[{"code":"moscow"}],"allowsRemote":true}},{"node":{"__typename":"Job","id":"16224616448-1001110946746","title":"Js разработчик","text":"#вакансия #frontend #developer #senior  #javascript #typescript #angular #fulltime #офис #питер\n\nSenior Frontend Developer\nКомпания: CM.Expert\nЛокация: Санкт-Петербург\nЗанятость: fulltime\nЗ/п: 150-250К net\nКонтакты: @observer69\n\nCM.Expert — единственная в России платформа, предназначенная для интеллектуального анализа рынка и автоматизированного управления продажами и складом автомобилей с пробегом.\n\nУсловия\n● Гибкий график рабочего времени (полный день, о начале и окончании рабочего дня можно договориться)\n● Профессиональная команда, Agile-процесс с плоской структурой управления проектом, работа по ТЗ, всё белое, офис в 15 минутах от метро Балтийская в БЦ “Балтийский Порт\n● Бессрочный трудовой договор\n\nТребования\n● Продолжительный специализированный опыт работы с FrontEnd-приложениями\n● Высокое качество кода\n● Навыки работы с Git\n● Хорошее знание JavaScript / TypeScript\n● Знание HTML5 / DOM / SCSS\n● Навыки верстки, внимательность, хороший “глазомер”\n● Уверенные знания и навыки работы с ReactiveX\n● Умение работать с “состоянием” приложения; эрудиция в “Best Practices”\n● Хорошее знание фреймворка Angular (2-6) — в том числе, “под капотом”\n● Опыт создания типовых решений (npm-пакетов, плагинов, библиотек и т.д.)\n● Хорошее понимание принципов ООП, функционального программирования\n● Понимание принципов поддерживаемости\n● Хорошее знание сборщиков: WebPack, Gulp; способность создавать кастомные решения любой сложности\n● Опыт работы с базами данных и хранением информации\n● Умение работать с документацией (читать и писать)\n● Навыки работы с JSON Schema, OpenAPI/Swagger\n\nЗадачи\n1. Развитие и поддержание функциональности CM.Expert\n2. Участие в проектировании архитектуры приложения и API.        \n3. Взаимодействие с BE разработчиками, дизайнером, продукт-менеджером.","markup":[{"type":"hashtag","offset":0,"length":9,"data":"вакансия"},{"type":"hashtag","offset":10,"length":9,"data":"frontend"},{"type":"hashtag","offset":20,"length":10,"data":"developer"},{"type":"hashtag","offset":31,"length":7,"data":"senior"},{"type":"hashtag","offset":40,"length":11,"data":"javascript"},{"type":"hashtag","offset":52,"length":11,"data":"typescript"},{"type":"hashtag","offset":64,"length":8,"data":"angular"},{"type":"hashtag","offset":73,"length":9,"data":"fulltime"},{"type":"hashtag","offset":83,"length":5,"data":"офис"},{"type":"hashtag","offset":89,"length":6,"data":"питер"},{"type":"handle","offset":216,"length":11,"data":"observer69"}],"date":"2020-04-09T06:38:20+00:00","link":"tg://resolve?domain=javascript_jobs_feed&post=15473","tags":[{"name":"javascript"},{"name":"typescript"},{"name":"angularjs"},{"name":"dotnet"},{"name":"git"},{"name":"html"},{"name":"npm"},{"name":"webpack"},{"name":"gulp"},{"name":"json"},{"name":"swagger"}],"cities":[],"allowsRemote":false}},{"node":{"__typename":"Job","id":"16220422144-1001110946746","title":"Js разработчик","text":"#вакансия #Москва #remote #Javascript #frontend #middle #react #vuejs\n\nЛокация: Москва\nФормат работы: удаленка\nЗанятость: полная, гибкое начало дня\nЗП: 150 000 - 180 000 рублей до вычета налогов \n\n🔹 Открыта вакансия Frontend developer (уровня миддл) в компании Агроплем.\nАгроплем - это инновационный лабораторный кластер, который трудится над задачами по изучению генетики животных, аналитики данных ферм, почв.\nКомпания является резидентом Сколково, MVP продукта планируется на конец 2020 года.\nСейчас работают над сложным комплексным проектом по автоматизации ферм, аналогов которых нет в мире. Проект идет на стыке с IoT технологиями,  в будущем будет BigData, цифровая модель ферм.\nБекенд проектов пишется на .Net. Сейчас ребята в поиске первого фронтенд разработчика для разработки системы управления фермой (фронтенд фреймворк пока не выбран). \n\n🔹 Требования:\n- коммерческий опыт разработки на Javascript от 2- ух лет;\n- коммерческий опыт разработки на vuejs/react от 1-ого года;\n- будет плюсом опыт разработки на Node.JS\n- будет плюсом, если кандидат не относится отрицательно к .Net cтеку\n\n🔹 Что интересного есть у ребят:\n- официальное трудоустройство и белая ЗП;\n- полностью удаленная работа;\n- компенсация техники;\nа главное, возможность присоединиться к отличной команде специалистов, которые действительно горят своим делом!\n\n🔹 Контакты:\ne-mail: daria@luckyhunter.io\ntelegram: @prudentdaria\nКА: luckyhunter\nПишите, буду рада ответить на все возможные вопросы в телеграме или по почте 😊","markup":[{"type":"hashtag","offset":0,"length":9,"data":"вакансия"},{"type":"hashtag","offset":10,"length":7,"data":"Москва"},{"type":"hashtag","offset":18,"length":7,"data":"remote"},{"type":"hashtag","offset":26,"length":11,"data":"Javascript"},{"type":"hashtag","offset":38,"length":9,"data":"frontend"},{"type":"hashtag","offset":48,"length":7,"data":"middle"},{"type":"hashtag","offset":56,"length":6,"data":"react"},{"type":"hashtag","offset":63,"length":6,"data":"vuejs"},{"type":"link","offset":1362,"length":20,"data":"mailto:daria@luckyhunter.io"},{"type":"handle","offset":1393,"length":13,"data":"prudentdaria"}],"date":"2020-04-09T06:37:00+00:00","link":"tg://resolve?domain=javascript_jobs_feed&post=15469","tags":[{"name":"javascript"},{"name":"reactjs"},{"name":"vuejs"},{"name":"dotnet"},{"name":"nodejs"}],"cities":[{"code":"moscow"}],"allowsRemote":true}},{"node":{"__typename":"Job","id":"98258911232-1001089317451","title":"Qa engineer","text":"#qa #automation #java #testng #remote #fulltime #job #jobs #backend #вакансия #remotework #sdet\nVacancy: Test Automation Engineer/SDET\nCompany: Libertex Group\nEmployment: Full-time remote\nSalary: 2,5k$ – 3,5k$ net\nDescription\nOur perfect automation engineer applies appropriate automation technologies to meet the short- and long-term goals of IT development. They are able to fulfill key activities of an Agile QA Tester.\n\nThe automation engineer strive to Automate as much of the testing effort as possible with a minimum set of code/scripts.\n\nThe Automation Engineer focuses on test effort not testing coverage, reducing expensive manual overheads at all times. The Automation engineer is aligned with services teams but is flexible when required to assist with projects.\n\nRequirements\nExperience with test automation frameworks & tools (Essential: Java, TestNG; optional: Cucumber/Gherkin)\nPerformance testing (Gatling)\nDemonstrable experience creating and maintaining automated test suites\nExperience with object-oriented programming language (Java)\nExperience with functional UI testing (Selenium WebDriver)\nExperience with RESTful web services testing\nExperience with Continuous Integration / Continuous Delivery\nPractical experience working with Agile methodologies, Scrum / Kanban\nExperience working in an Agile Scrum team\nExperience with Python and Golang would be a plus\nExperience with Message Brokers (e.g. Kafka, ActiveMQ) would be a plus\nGit basics\nUpper Intermediate is a minimal level, ability to pass an interview in English\nContact: @OlgaVzh","markup":[{"type":"hashtag","offset":0,"length":3,"data":"qa"},{"type":"hashtag","offset":4,"length":11,"data":"automation"},{"type":"hashtag","offset":16,"length":5,"data":"java"},{"type":"hashtag","offset":22,"length":7,"data":"testng"},{"type":"hashtag","offset":30,"length":7,"data":"remote"},{"type":"hashtag","offset":38,"length":9,"data":"fulltime"},{"type":"hashtag","offset":48,"length":4,"data":"job"},{"type":"hashtag","offset":53,"length":5,"data":"jobs"},{"type":"hashtag","offset":59,"length":8,"data":"backend"},{"type":"hashtag","offset":68,"length":9,"data":"вакансия"},{"type":"hashtag","offset":78,"length":11,"data":"remotework"},{"type":"hashtag","offset":90,"length":5,"data":"sdet"},{"type":"bold","offset":96,"length":47,"data":""},{"type":"bold","offset":159,"length":11,"data":""},{"type":"bold","offset":188,"length":6,"data":""},{"type":"bold","offset":214,"length":12,"data":""},{"type":"bold","offset":776,"length":13,"data":""},{"type":"underline","offset":1039,"length":8,"data":""},{"type":"bold","offset":1047,"length":8,"data":""},{"type":"bold","offset":1464,"length":87,"data":""},{"type":"handle","offset":1552,"length":8,"data":"OlgaVzh"}],"date":"2020-04-08T22:34:06+00:00","link":"tg://resolve?domain=qa_jobs&post=93707","tags":[{"name":"qa"},{"name":"java"},{"name":"dotnet"},{"name":"cucumber"},{"name":"selenium"},{"name":"web"},{"name":"python"},{"name":"go"},{"name":"kafka"},{"name":"git"},{"name":"continuous-integration"}],"cities":[],"allowsRemote":true}},{"node":{"__typename":"Job","id":"85082505216-1001067529236","title":"Python developer","text":"#developer #python #django #reactjs #remote #part_time #parttime #lead #greatbritain #job #jobs #python #backend #вакансия #remotework #ml #urgently\nVacancy: Lead Python developer\nCountry: Great Britain\nEmployment: Full-time remote/ Part-Time (20 h a week)\nSalary:  2500$+ - net\nOur client, a unique mass media project (platform) is looking for a Lead Developer/CTO to further develop the product and team while creating a culture of positivity & problem solving with a sense of fun.\nIncome level depends on your previous experience & knowledge.\nIt’s an exciting and pivotal time for the product and business - we have a solid platform and foundation of clients asking for features that no one in the market yet offers.\nSo, as well as servicing the current offering, there is a greenfield opportunity to further develop the platform using smart tech.\n✅ Responsibilities:\n- Co-creating and delivering the strategy.\n- Managing and building the team, as well as being hands on with the code.\nThere are many technical challenges, core of which are based around using machine learning to surface how clients can make content more readable and enticing, as well as where and when to deliver it to maximise results.\n✅ The current tech stack is based on: Python, Django, ReactJS, Elasticsearch, .NET Core, AngularJS, Docker + AWS Infrastructure.\nWe expect you to take the lead on how to evolve the stack in a smart way.\n🎬 Requirements:\nYou’ve been around the block and are now hungry to become more commercial, take ownership, and although you don’t want to stop coding, you’re keen to manage and build teams or develop existing skills in these areas.\nA strong interest in data science and machine learning.\nYou’ve been a lead developer or CTO before.\nYou’ve built and scaled a SaaS platform.\nWould be great if you have a background in news publishing or analytics.\nYou’ve managed teams or are now ready to do so.\nContact: @OlgaVzh","markup":[{"type":"hashtag","offset":0,"length":10,"data":"developer"},{"type":"hashtag","offset":11,"length":7,"data":"python"},{"type":"hashtag","offset":19,"length":7,"data":"django"},{"type":"hashtag","offset":27,"length":8,"data":"reactjs"},{"type":"hashtag","offset":36,"length":7,"data":"remote"},{"type":"hashtag","offset":44,"length":10,"data":"part_time"},{"type":"hashtag","offset":55,"length":9,"data":"parttime"},{"type":"hashtag","offset":65,"length":5,"data":"lead"},{"type":"hashtag","offset":71,"length":13,"data":"greatbritain"},{"type":"hashtag","offset":85,"length":4,"data":"job"},{"type":"hashtag","offset":90,"length":5,"data":"jobs"},{"type":"hashtag","offset":96,"length":7,"data":"python"},{"type":"hashtag","offset":104,"length":8,"data":"backend"},{"type":"hashtag","offset":113,"length":9,"data":"вакансия"},{"type":"hashtag","offset":123,"length":11,"data":"remotework"},{"type":"hashtag","offset":135,"length":3,"data":"ml"},{"type":"hashtag","offset":139,"length":9,"data":"urgently"},{"type":"bold","offset":149,"length":8,"data":""},{"type":"bold","offset":180,"length":8,"data":""},{"type":"bold","offset":215,"length":42,"data":""},{"type":"bold","offset":853,"length":18,"data":""},{"type":"bold","offset":1211,"length":36,"data":""},{"type":"bold","offset":1415,"length":14,"data":""},{"type":"bold","offset":1907,"length":8,"data":""},{"type":"handle","offset":1916,"length":8,"data":"OlgaVzh"}],"date":"2020-04-08T16:03:48+00:00","link":"tg://resolve?domain=python_jobs&post=0","tags":[{"name":"python"},{"name":"django"},{"name":"reactjs"},{"name":"dotnet"},{"name":"elasticsearch"},{"name":"angularjs"},{"name":"docker"},{"name":"amazon-web-services"},{"name":"machine-learning"},{"name":"net-core"}],"cities":[],"allowsRemote":true}},{"node":{"__typename":"Job","id":"66273148928-1001054966032","title":"Mobile developer","text":"#вакансия #офис #fulltime #спб #senior #teamlead #kotlin\nЛокация: СПб, м. Спортивная/Василеостровская\nФормат работы: Office (удаленка  в период самоизоляции)\nЗанятость: Full-time\nЗарплатная вилка: 140 000 - 200 000 (net)\n\nО проекте: мобильная студия разработки полного цикла, реализующая приложения и Hyper Casual/Midcore игры, в поисках Senior Mobile developer/Team lead\n\nЗадачи:\n- Руководство командой мобильной разработки (Android и iOS);\n- Найм и развитие сотрудников;\n- Код-ревью;\n- Планирование работы и декомпозиция задач;\n- Оценка сроков и работа с продуктовой командой;\n- Оптимизация приложений;\n- Работа с командой бэкенда (постановка и принятие задач);\n- Участие в планировании проектов/спринтов, контроль за реализацией проектов\n\nДля разработки используется Kotlin;\nМинимальная target версия minSdkVersion 21;\nДля работы с network Kotlin Coroutines;\nВсе графические изображения используется SVG, PNG;\nЛогирование через Crashlytics;\nCI через Gitlab\n\nЧто можем предложить:\n- кикер в офисе, а также свой личный массажист;\n- Любое железо на выбор;\n- Оплачиваемое обучение, курсы, поездки на конференции\nи многое др.\n\nКритика, вопросы, резюме - всегда welcome!\nTelegram @ru_spiridonov","markup":[{"type":"hashtag","offset":0,"length":9,"data":"вакансия"},{"type":"hashtag","offset":10,"length":5,"data":"офис"},{"type":"hashtag","offset":16,"length":9,"data":"fulltime"},{"type":"hashtag","offset":26,"length":4,"data":"спб"},{"type":"hashtag","offset":31,"length":7,"data":"senior"},{"type":"hashtag","offset":39,"length":9,"data":"teamlead"},{"type":"hashtag","offset":49,"length":7,"data":"kotlin"},{"type":"bold","offset":338,"length":6,"data":""},{"type":"bold","offset":345,"length":28,"data":""},{"type":"handle","offset":1177,"length":14,"data":"ru_spiridonov"}],"date":"2020-04-08T13:36:29+00:00","link":"tg://resolve?domain=mobile_jobs&post=0","tags":[{"name":"mobile"},{"name":"android"},{"name":"ios"},{"name":"kotlin"},{"name":"dotnet"},{"name":"svg"},{"name":"gitlab"}],"cities":[],"allowsRemote":true}},{"node":{"__typename":"Job","id":"98229551104-1001089317451","title":"Qa engineer","text":"#вакансия \nВакансия: #sdet #QA #automation #fulltime\nКомпания: #нспк #псмир\nЛокация: #томск\nЗ/п: 100к-180к net (после вычета налогов)\n\n«Национальная система платежных карт» ищет QA Automation Engineer.\n\nНСПК - развивающаяся компания, создающая финтех-сервисы, которыми пользуются миллионы людей. \n\nЗа 5 лет нашей истории мы разработали бизнес-продукты, аналоги которых в мире можно пересчитать по пальцам:\n✔️Платежная система \"Мир\";\n✔️Система быстрых платежей;\n✔️Программа лояльности \"Мир\";\n✔️Сервис мобильной оплаты MirPay;\n✔️Система аутентификации пользователей MirAccept.  \n\n⛏ Наш стек: Java, Spring, MySql, Linux, Git, Jenkins, Nexus, Ansible, Groovy, Gradle, Nginx, HAProxy, Kafka, Hazelcast, Prometheus, ELK, Atlassian stack. \n\n🧠 Что нужно будет делать?\n- Разрабатывать автоматизированные тесты;\n- Проводить интеграционное тестирование;\n- Разрабатывать тест-кейсы и регистрировать баги;\n- Разрабатывать собственные платформы для автоматизации тестирования.\n\nВ общем, контролировать качество разрабатываемого решения. \n\n🎁 Мы предлагаем:\n- Работу в команде профессионалов;\n- Обучение за счет компании;\n- Развитую корпоративную культуру;\n- ДМС со стоматологией, официальное трудоустройство; \n- Комфортный офис в центре;\n- Чай, кофе, печеньки. ✌️\n\nХотите поучаствовать в масштабном и сложном проекте?\n\nМои контакты:\n📲 +7-916-051-20-63\n      @Ekaterina1915 \n\n📩 makarovaen@nspk.ru","markup":[{"type":"hashtag","offset":0,"length":9,"data":"вакансия"},{"type":"hashtag","offset":21,"length":5,"data":"sdet"},{"type":"hashtag","offset":27,"length":3,"data":"QA"},{"type":"hashtag","offset":31,"length":11,"data":"automation"},{"type":"hashtag","offset":43,"length":9,"data":"fulltime"},{"type":"hashtag","offset":63,"length":5,"data":"нспк"},{"type":"hashtag","offset":69,"length":6,"data":"псмир"},{"type":"hashtag","offset":85,"length":6,"data":"томск"},{"type":"link","offset":1323,"length":16,"data":"tel:+7-916-051-20-63"},{"type":"handle","offset":1346,"length":14,"data":"Ekaterina1915"},{"type":"link","offset":1366,"length":18,"data":"mailto:makarovaen@nspk.ru"}],"date":"2020-04-08T11:49:39+00:00","link":"tg://resolve?domain=qa_jobs&post=93679","tags":[{"name":"qa"},{"name":"dotnet"},{"name":"java"},{"name":"spring"},{"name":"mysql"},{"name":"linux"},{"name":"git"},{"name":"jenkins"},{"name":"ansible"},{"name":"groovy"},{"name":"gradle"},{"name":"nginx"},{"name":"kafka"}],"cities":[{"code":"tomsk"}],"allowsRemote":false}}]}}},"context":{}}