{"hash":"f5f6bf98bd95e769321482904cbbd488f77922fd","data":{"records":{"id":"russia/moscow","country":{"code":"russia","ruName":"Россия","enName":"Russia"},"city":{"code":"moscow","ruName":"Москва","enName":"Moscow"},"belongsTo":{"totalCount":476,"pageInfo":{"totalPages":48,"currentPage":2},"edges":[{"node":{"__typename":"Job","id":"72612839424-1001054966032","title":"Mobile разработчик","text":"#вакансия #ios #senior #middle #objective_c \n\nОчень важен опыт работы с Core Data\n\nГород: #Москва, м. Павелецкая или удалённо\nФормат работы: #офис, #удалёнка, #гибкие_часы \n\nЗанятость: полная  \nЗарплатная вилка: от 200к до 250к руб. net \nОписание вакансии: \n\nМы разрабатываем облачные CRM решения с широким использованием мобильных устройств.   \nСейчас мы ищем middle  и senior iOS разработчиков в команду, которая внедряет приложение CT Mobile в архитектуру CRM наших клиентов в Европе.\n\nhttps://apps.apple.com/us/app/ct-mobile-for-salesforce/id1234947996\n\nНазвание компании: Customertimes.com\nКонтакты: mikhail.zinoviev@ctconsult.ru","markup":[{"type":"hashtag","offset":0,"length":9,"data":"вакансия"},{"type":"hashtag","offset":10,"length":4,"data":"ios"},{"type":"hashtag","offset":15,"length":7,"data":"senior"},{"type":"hashtag","offset":23,"length":7,"data":"middle"},{"type":"hashtag","offset":31,"length":12,"data":"objective_c"},{"type":"hashtag","offset":90,"length":7,"data":"Москва"},{"type":"hashtag","offset":141,"length":5,"data":"офис"},{"type":"hashtag","offset":148,"length":9,"data":"удалёнка"},{"type":"hashtag","offset":159,"length":12,"data":"гибкие_часы"},{"type":"link","offset":489,"length":67,"data":"https://apps.apple.com/us/app/ct-mobile-for-salesforce/id1234947996"},{"type":"link","offset":577,"length":17,"data":"http://Customertimes.com"},{"type":"link","offset":605,"length":29,"data":"mailto:mikhail.zinoviev@ctconsult.ru"}],"date":"2020-07-03T09:46:34+00:00","link":"tg://resolve?domain=mobile_jobs&post=69249","tags":[{"name":"mobile"},{"name":"ios"},{"name":"objective-c"},{"name":"dotnet"},{"name":"core-data"}],"cities":[{"code":"moscow"}],"allowsRemote":true}},{"node":{"__typename":"Job","id":"72611790848-1001054966032","title":"Android разработчик","text":"#вакансия #работа #Android #Kotlin #удаленнаяработа\n\nГород: Москва\nФормат работы: фулл тайм удаленно \n\nЗарплатная вилка: от 150 000 до 230 000;\nКомпания: АО «Почта банк»\n\nМы занимаем лидирующие позиции в рейтингах Интернет-банков, и не останавливаемся на достигнутом. Приглашаем к себе в команду разработчика Android.\n\nВАША ГЛАВНАЯ ЗАДАЧА:\n⚡️Разработка систем дистанционного банковского обслуживания (мобильный банк) на Android.\n\nНАШИ ТРЕБОВАНИЯ:\n✅ Опыт разработки для платформы Android от 3-х лет;\n✅ Знание Android SDK, Java, Kotlin, Rest/SOAP, Google Maps API, SQLite;\n\nВАШИМ ДОПОЛНИТЕЛЬНЫМ ПРЕИМУЩЕСТВОМ БУДЕТ:\n✅ Наличие высшего технического образования;\n✅ Знание стандартов проектирования и разработки мобильных приложений;\n✅ Знание архитектуры мобильных приложений и реализации серверного взаимодействия для мобильных приложений;\n✅ Навыки работы с многопоточностью;\n✅Опыт работы в банковской сфере.\n\nГОТОВЫ ВАМ ПРЕДЛОЖИТЬ:\n🔹 Удобный график («плавающее» начало рабочего дня);\n🔹 Удаленный формат работы;\n🔹 Оклад + квартальное премирование + годовой бонус;\n🔹 Agile. Scrum (двухнедельные спринты, работа в командах по 6-8 человек: 2 backend, 3 frontend, системный аналитик, 2 тестировщика) Демократия и самоорганизация + наличие удаленного доступа;\n🔹 Обучение - доступное внутреннее и внешнее обучение. В Банке есть корпоративная академия. Регулярно проходят внутренние митаппы, tech. chapters и ретроспективы. Мы посещаем ключевые отраслевые конференции;\n🔹 Профессиональное развитие - мы используем современный стэк, поддерживаем разумные инициативы по внедрению новшеств, совершенствуем архитектуру и кодовую базу;\n🔹 Карьерный рост- команда постоянно растет. В зависимости от вклада, каждый сотрудник может претендовать на повышение дохода, новый функционал и дополнительные задачи. Мы держимся за наших сотрудников;\n🔹 ДМС. Многочисленные скидки и бонусы от партнеров (от каршеринга до ипотеки).\n\n📩 Контакты: @dorogavtseva","markup":[{"type":"hashtag","offset":0,"length":9,"data":"вакансия"},{"type":"hashtag","offset":10,"length":7,"data":"работа"},{"type":"hashtag","offset":18,"length":8,"data":"Android"},{"type":"hashtag","offset":27,"length":7,"data":"Kotlin"},{"type":"hashtag","offset":35,"length":16,"data":"удаленнаяработа"},{"type":"handle","offset":1921,"length":13,"data":"dorogavtseva"}],"date":"2020-07-03T09:38:54+00:00","link":"tg://resolve?domain=mobile_jobs&post=69248","tags":[{"name":"mobile"},{"name":"android"},{"name":"kotlin"},{"name":"java"},{"name":"rest"},{"name":"soap"},{"name":"sqlite"},{"name":"google-maps"}],"cities":[{"code":"moscow"}],"allowsRemote":true}},{"node":{"__typename":"Job","id":"104336457728-1001089317451","title":"Qa инженер","text":"#вакансия #москва #fulltime #middle #automation\n🏢Город: Москва, м. Павелецкая\n💻Формат: Офис\n💰З/п: от 180 до 250 т.р net\n\nИщем тестировщика в команду мобильного тестирования, на один из наших крупнейших проектов. Коротко о проекте: крупный американский заказчик (входит в топ 3 фарм компании США) .\nПроекту больше года, приложение вышло в прод, есть реальные пользователи, работаем над новыми релизами, добавляем новый функционал\nИщем специалиста, с опытом автоматизации тестирования мобильных приложений (желательно Android)\n\nCustomertimes – это международный системный интегратор, который работает  в США, России и более чем 50 странах мира. Мы работаем с крупнейшими мировыми поставщиками программного обеспечения, такими как Salesforce, Pega, SAP, а также предоставляем собственные разработки для крупных и средних компаний. \nНаши офисы расположены в Москве, Нью-Йорке, Киеве, Минске, Риге, Лондоне, Торонто\n📌Задачи: \n • Анализ технической документации и требований к системе\n•Написание, отладка и поддержание в актуальном состоянии автоматизированных скриптов \n•Проведение автоматизированного тестирования\n•Настройка, управление и поддержание тестового фреймворка для автоматизации. Участие в создании нового фреймворка для автоматизированного тестирования, если это требуется на проекте.\n•Внедрение и настройка инструментов и утилит необходимых для проведения автоматизированного тестирования \n•Фиксация обнаруженных во время автоматизированного тестирования дефектов в Jira, согласно внутренним инструкциям и регламентам принятым на проекте\n•Взаимодействие с командой ручного тестирования и командой разработки с целью локализации и исправления обнаруженных дефектов\n•Разработка инструкций и документации  \n📌Требования: \n • Ясное понимание проектного подхода к работе, знакомство с различными методологиями управления проектами. \n • Опыт работы в  автоматизированном  тестировании от 2х лет. \n • Опыт проведения  автоматизированного тестирования (mobile/Web)\n • Уверенные знание ООП (Java) \n • Английский язык на уровне Intermediate и выше\n • Самостоятельность, высокий уровень личной дисциплины \n  \n  \nМы предлагаем: \n • Работу в дружном и быстроразвивающемся международном коллективе.\n•Решение сложных задач;\n•Возможность повысить уровень своего профессионализма и познакомиться с лучшими мировыми практиками наших клиентов;\n•Возможность поучаствовать в строительстве международного бизнеса             в области ИТ и занять достойное место в команде.\n•Принять участие в построении эффективных бизнес-процессов компании, их автоматизации.\n•Обучение по курсам компании: Tester, Salesforce Specialist\n•Подготовку и оплату сдачи экзамена Salesforce Administrator\n•Возможность сертификации по ISTQB в качестве KPI на первый год работы\nTelegram: @Surkofff\nТелефон: +7 916 824 11 34","markup":[{"type":"hashtag","offset":0,"length":9,"data":"вакансия"},{"type":"hashtag","offset":10,"length":7,"data":"москва"},{"type":"hashtag","offset":18,"length":9,"data":"fulltime"},{"type":"hashtag","offset":28,"length":7,"data":"middle"},{"type":"hashtag","offset":36,"length":11,"data":"automation"},{"type":"handle","offset":2754,"length":9,"data":"Surkofff"},{"type":"link","offset":2773,"length":16,"data":"tel:+7 916 824 11 34"}],"date":"2020-07-03T09:33:49+00:00","link":"tg://resolve?domain=qa_jobs&post=99503","tags":[{"name":"qa"},{"name":"dotnet"},{"name":"android"},{"name":"mobile"},{"name":"web"},{"name":"java"}],"cities":[{"code":"moscow"},{"code":"toronto"}],"allowsRemote":false}},{"node":{"__typename":"Job","id":"17353932800-1001110946746","title":"Js разработчик","text":"#вакансия #удаленка #москва #developer #frontend #react #node #middle\n\n🔹Город и адрес офиса:  \n • Москва, удаленная \n\n🔹Требования:\n • В  US  компанию , требуется разработчик, на полную   занятость, статус Independent Contractor, удаленная работа, slack,  jira.\n\n🔹Формат работы: \n • Ближайшее время преимущественно удаленно, есть идея сделать в Мск штаб и будут встречи-гибкая офисная работа после окончания карантинов\n\n🔹Зарплатная вилка: \n • 2000-3000 $ , контракт\n\n🔹Ищу:\n•  Подбираю фулстек мидл инженера со знанием бэкенда, но c приоритетом на веб фронтенд - развиваем web app, в том числе потребуется верстка панели администратора.\n•  Стек : Node.js, Express, MongoDB, React, HTTP, Soсket, Асинхронные запросы, Знание паттернов, Bootstrap.\n\n\n🔹Контакты: \n•  Cтучитесь в лк (@kotenkov)","markup":[{"type":"hashtag","offset":0,"length":9,"data":"вакансия"},{"type":"hashtag","offset":10,"length":9,"data":"удаленка"},{"type":"hashtag","offset":20,"length":7,"data":"москва"},{"type":"hashtag","offset":28,"length":10,"data":"developer"},{"type":"hashtag","offset":39,"length":9,"data":"frontend"},{"type":"hashtag","offset":49,"length":6,"data":"react"},{"type":"hashtag","offset":56,"length":5,"data":"node"},{"type":"hashtag","offset":62,"length":7,"data":"middle"},{"type":"handle","offset":782,"length":9,"data":"kotenkov"}],"date":"2020-07-03T09:01:00+00:00","link":"tg://resolve?domain=javascript_jobs_feed&post=16550","tags":[{"name":"javascript"},{"name":"reactjs"},{"name":"nodejs"},{"name":"web"},{"name":"express"},{"name":"mongodb"},{"name":"bootstrap"}],"cities":[{"code":"moscow"}],"allowsRemote":true}},{"node":{"__typename":"Job","id":"1776287744-1001091028994","title":"Java разработчик","text":"#вакансия #senior #middle #Сбербанк #java #spring #fulltime #офис #agile #backend\nКомпания: ПАО «Сбербанк»\nЛокация: Москва, м. Кутузовская (Agile home)\nЗ/п: от 180-280К на руки (в зависимости от уровня) + достойные годовые премии\nКонтакты: @tdurnicina TVlDurnitsyna@sberbank.ru\n\nДрузья! Мы в поисках Java разработчиков уровня middle и senior в новое небанковское приложение для клиента. Это уникальная возможность присоединиться к разработке серьёзного продукта в командах с атмосферой стартапа🙂 Вас ждут интересные задачи, свежий стек: Java 11, Spring, Hibernate, многомодульность и никакого легаси🔥 \n!Также готовы рассмотреть кандидатов уровня junior+ при наличии опыта коммерческой разработки.\n\nНаш Agile home это: пин понг, пул, кикер, библиотека, кофемашины на этажах, бесплатный спорт зал и подземный паркинг.\nЕсть отличный корпоративный университет, программы обучения в т.ч. за рубежом, конференции, митапы.\n🔥 Льготная ипотека и ДМС. \n\nРассмотрим кандидатов из других городов и стран. И конечно гибкое начало рабочего дня, куда без него.","markup":[{"type":"hashtag","offset":0,"length":9,"data":"вакансия"},{"type":"hashtag","offset":10,"length":7,"data":"senior"},{"type":"hashtag","offset":18,"length":7,"data":"middle"},{"type":"hashtag","offset":26,"length":9,"data":"Сбербанк"},{"type":"hashtag","offset":36,"length":5,"data":"java"},{"type":"hashtag","offset":42,"length":7,"data":"spring"},{"type":"hashtag","offset":50,"length":9,"data":"fulltime"},{"type":"hashtag","offset":60,"length":5,"data":"офис"},{"type":"hashtag","offset":66,"length":6,"data":"agile"},{"type":"hashtag","offset":73,"length":8,"data":"backend"},{"type":"handle","offset":240,"length":11,"data":"tdurnicina"},{"type":"link","offset":252,"length":25,"data":"mailto:TVlDurnitsyna@sberbank.ru"}],"date":"2020-07-03T08:36:26+00:00","link":"tg://resolve?domain=jvmjobs&post=1694","tags":[{"name":"java"},{"name":"jvm"},{"name":"spring"},{"name":"hibernate"}],"cities":[{"code":"moscow"}],"allowsRemote":false}},{"node":{"__typename":"Job","id":"104329117696-1001089317451","title":"Qa engineer","text":"#вакансия #QA #фуллстек #ФТ #АТ #удаленка \n\nВакансия: QA Engineer (АФТ на Java/Ruby/C#)\nГород: Москва или удаленка из городов РФ, стандартный график с Москвой\nЗарплата: от 140 000 рублей до 240 000 рублей на руки \nФормат: полный день, полная занятость\nКомпания Innovative People \n\n➡ Требования:\n• От 2х лет опыта тестирования веб- или мобильных приложений\n• Практический опыт применения практик тест-дизайна\n• Рабочие знания клиент-серверной архитектуры\n• Знание Java/Ruby/C#, опыт автоматизации от 1 года\n• Уверенный опыт разработки авто-тестов, работы с инструментами автоматизации\nДля удаленки нужен релевантный опыт удаленной работы.\n\n➡ Обязанности:\n• Автоматизированное тестирование (Selenium/Selenide+Cucumber)\n• Функциональное, интеграционное, регрессионное и приемочное тестирование\n\n➡ Предлагаем:\n• все по ТК РФ, белое и официальное\n• ДМС со стоматологией, программа лояльности\n• адекватное руководство\n• большое комьюнити, классные команды, карьерный рост\n• помогаем с релокацией в Москву/Питер/Екатеринбург (50 000 рублей)\nили есть возможность работы удаленно\n\nРезюме и вопросы @Priboch","markup":[{"type":"hashtag","offset":0,"length":9,"data":"вакансия"},{"type":"hashtag","offset":10,"length":3,"data":"QA"},{"type":"hashtag","offset":14,"length":9,"data":"фуллстек"},{"type":"hashtag","offset":24,"length":3,"data":"ФТ"},{"type":"hashtag","offset":28,"length":3,"data":"АТ"},{"type":"hashtag","offset":32,"length":9,"data":"удаленка"},{"type":"handle","offset":1089,"length":8,"data":"Priboch"}],"date":"2020-07-03T08:33:25+00:00","link":"tg://resolve?domain=qa_jobs&post=99496","tags":[{"name":"qa"},{"name":"java"},{"name":"ruby"},{"name":"selenium"},{"name":"cucumber"}],"cities":[{"code":"moscow"}],"allowsRemote":true}},{"node":{"__typename":"Job","id":"17347641344-1001110946746","title":"Js разработчик","text":"#вакансия #JavaScript #React #ReactNative #Node #офис #Москва\nГород и адрес офиса: Москва, м.Дмитровская\nФормат работы: Офис на испытательный срок, далее - возможна удаленка, пятидневка\nЗанятость: Полный день\nЗарплатная вилка: от 150 000 до 200 000 руб.; с опытным кандидатом готовы обсуждать уровень выше.\n\nО компании: проект из Амстердама, занимающийся созданием приложений для веб - / мобильных / настольных компьютеров и разрабатывает решения для масштабируемого бизнеса в Европе и за ее пределами.\nОт Вас:\n- сильные навыки JavaScript, качественный опыт на React;\n- опыт в интеграции облачных сервисов RESTful APIs, GraphQL;\n- знание методологии Agile/Scrum\n- навыки разработки Node.js applications (API servers, SSR, Tooling)\n- опыт работы с React Native или нативной мобильной разработкой;\n- опыт публичных выступлений будет преимуществом;\n- беглый разговорный английский.\nНазвание компании: Sirotina Personnel\nКонтакты: @nicedream13","markup":[{"type":"hashtag","offset":0,"length":9,"data":"вакансия"},{"type":"hashtag","offset":10,"length":11,"data":"JavaScript"},{"type":"hashtag","offset":22,"length":6,"data":"React"},{"type":"hashtag","offset":29,"length":12,"data":"ReactNative"},{"type":"hashtag","offset":42,"length":5,"data":"Node"},{"type":"hashtag","offset":48,"length":5,"data":"офис"},{"type":"hashtag","offset":54,"length":7,"data":"Москва"},{"type":"handle","offset":927,"length":12,"data":"nicedream13"}],"date":"2020-07-03T07:39:55+00:00","link":"tg://resolve?domain=javascript_jobs_feed&post=16544","tags":[{"name":"javascript"},{"name":"reactjs"},{"name":"nodejs"},{"name":"graphql"},{"name":"react-native"}],"cities":[{"code":"moscow"}],"allowsRemote":true}},{"node":{"__typename":"Job","id":"17346592768-1001110946746","title":"Js разработчик","text":"#вакансия #москва #middle #remote #angular #fulltime #офис\n\nИщем frontend разработчика для работы над основным сайтом и новыми разделами.\nГород и адрес офиса: Москва, м. Авиамоторная\nФормат работы: Офис\nЗанятость: полная\nЗарплатная вилка: 130 000 — 150 000 на руки по результатам технического собеседования\n\nAutospot.ru — онлайн гипермаркет автомобилей. 🚘\n\nВ 2018 году Mitsubishi Corporation и Mail.ru. оценили нас в $19,1 млн.\n\nВ технической команде 17 человек: СТО, 9 PHP разработчиков, 2 frontend разработчика, 3 тестировщика, DevOps.\n\nЧеловек нужен в Москве или готовый в эту самую Москву переехать.\n\n📍Обязанности:\n▫️Разработка компонентов и адаптация/интеграция сторонних библиотек и плагинов;\n▫️ Верстка новых разделов, кроссбраузерная, адаптивная, валидная;\n▫️ Развитие библиотеки UI компонентов;\n▫️ Оперативное исправление багов на проде (IE 11+);\n▫️ Помощь в оптимизации работы сайта (скорость загрузки, оптимизация DOM).\n\n📍Требования:\n▪️ Опыт разработки от 2 лет;\n▪️ Знание JavaScript (jQuery в разумных пределах);\n▪️ Уверенное знание html семантическая верстка, БЭМ, SCSS;\n▪️ Знание работы GIT & NPM;\n▪️ Опыт работы с gulp/webpack;\n▪️ Опыт работы с Figma/Zeplin;\n▪️ Опыт работы с векторной графикой (svg и svg-спрайты).\n\n📍Желательно:\n◾️ Хорошее знание Vue.js и/или Angular 5+. Работать надо будет и с тем и с другим. Angular 5+ в приоритете, планируется переход полностью на него;\n◾️ Знание инструментов организации разработки Jira;\n◾️ Знание нюансов работы браузеров на разных устройствах и ОС;\n◾️ Опыт сео оптимизации;\n◾️ Понимание, что такое доступные интерфейсы;\n\n📍Условия:\n▫️ Комфортабельный офис, БЦ Light Tower, бесплатный шаттл от м. Площадь Ильича;\n▫️ Оформление по ТК РФ с первого рабочего дня;\n▫️ Гибкое начало рабочего дня, с 9 до 11;\n▫️ Возможность работать 1-2 дня удалённо;\n▫️ Полностью белая заработная плата;\n▫️ Неформальная атмосфера и дружный, амбициозный коллектив;\n▫️ Корпоративная скидка на изучение английского языка.\n\n📌 Контакт: @dianadoma","markup":[{"type":"hashtag","offset":0,"length":9,"data":"вакансия"},{"type":"hashtag","offset":10,"length":7,"data":"москва"},{"type":"hashtag","offset":18,"length":7,"data":"middle"},{"type":"hashtag","offset":26,"length":7,"data":"remote"},{"type":"hashtag","offset":34,"length":8,"data":"angular"},{"type":"hashtag","offset":43,"length":9,"data":"fulltime"},{"type":"hashtag","offset":53,"length":5,"data":"офис"},{"type":"link","offset":308,"length":11,"data":"http://Autospot.ru"},{"type":"link","offset":395,"length":7,"data":"http://Mail.ru"},{"type":"handle","offset":1970,"length":10,"data":"dianadoma"}],"date":"2020-07-03T07:39:26+00:00","link":"tg://resolve?domain=javascript_jobs_feed&post=16543","tags":[{"name":"javascript"},{"name":"angularjs"},{"name":"php"},{"name":"jquery"},{"name":"html"},{"name":"git"},{"name":"npm"},{"name":"gulp"},{"name":"webpack"},{"name":"svg"},{"name":"vuejs"}],"cities":[{"code":"moscow"}],"allowsRemote":true}},{"node":{"__typename":"Job","id":"17344495616-1001110946746","title":"Javascript разработчик","text":"#вакансия #frontend #vue #москва #fulltime #офис\n\nГород: Москва м. Парк культуры(5 минут)\nФормат: в офисе\nЗанятость: полная\nЗарплатная вилка: 180 000 - 220 000 рублей в месяц net (на руки)\n\nВсякие преимущества:\nВ нашей команде крутые ребята создатели и топы: \nKupiVip, Avito и других лидеров рынка.\nМы работаем в одной из самых быстрорастущих отраслей - FoodTech.\nРабота в современном офисе - WeWork. Кофе, печеньки, бесплатное пиво по вечерам.\nВозможность учиться, развиваться и много работать. \nДМС + стоматология.\n\nЧем занимаемся:\nРазрабатываем систему для сборки и доставки продуктов для сети Пятерочка, микросервисная архитектура, большое кол-во фронтовых (админка, рабочее приложение, операторская).\n\nВаши задачи: \nРазработка архитектуры сложного SPA приложения\nПроект новый - можно влиять участвовать и предлагать новые решения.\nРазработка ведется по спринтам.\n\nНам очень важно:\nАктивность, ответственность и прочие лучшие человеческие качества. Верим, что компанию делают люди.\nА также опыт на Vue от 1 года.\nОпыт на фронте от 3-х лет.  \n\nКомпания: X5 Retail Group (подразделение X5FoodTech)\n\nКонтакты: \nДарья\n@Daryanepevnaya\n+7 925 175 175 2 \ndarya.nepevnaya@x5.ru","markup":[{"type":"hashtag","offset":0,"length":9,"data":"вакансия"},{"type":"hashtag","offset":10,"length":9,"data":"frontend"},{"type":"hashtag","offset":20,"length":4,"data":"vue"},{"type":"hashtag","offset":25,"length":7,"data":"москва"},{"type":"hashtag","offset":33,"length":9,"data":"fulltime"},{"type":"hashtag","offset":43,"length":5,"data":"офис"},{"type":"handle","offset":1118,"length":15,"data":"Daryanepevnaya"},{"type":"link","offset":1134,"length":16,"data":"tel:+7 925 175 175 2"},{"type":"link","offset":1152,"length":21,"data":"mailto:darya.nepevnaya@x5.ru"}],"date":"2020-07-03T07:36:36+00:00","link":"tg://resolve?domain=javascript_jobs_feed&post=16541","tags":[{"name":"javascript"},{"name":"vuejs"},{"name":"dotnet"}],"cities":[{"code":"moscow"}],"allowsRemote":false}},{"node":{"__typename":"Job","id":"104324923392-1001089317451","title":"Qa инженер","text":"#вакансия #работа #QA  #ручное #москва #fulltime #офис\n\nКомпания: X5FoodTech\n\nQA ручное тестирование\n\nГород: Москва м. Парк культуры(5 минут)\nФормат: в офисе\nЗанятость: полная\nЗарплатная вилка: до 100 000  рублей в месяц net (на руки)\n\nВсякие преимущества:\nВ нашей команде крутые ребята создатели и топы: \nKupiVip, Avito и других лидеров рынка.\nМы работаем в одной из самых быстрорастущих отраслей - FoodTech.\nРабота в современном офисе - WeWork. Кофе, печеньки, бесплатное пиво по вечерам.\nВозможность учиться, развиваться и много работать. \nДМС + стоматология.\n\nПродукт, который нужно тестировать:\nСсылка на мобильное приложение: http://app.5-delivery.ru/\n\nЗадачи:\nРучное тестирование мобильных приложений,\nЗаведение дефектов в системе баг-трекинга;\nСоставление тестовых сценариев и поддержка их в актуальном состоянии;\nПодготовка отчетов о тестировании;\nВзаимодействие с разработчиками, продакт-менеджером;\n\nПожелания к твоему опыту:\nЗнание методов и методик тестирования;\nОпыт работы с REST API, HTTP/HTTPS, JSON;\nОпыт тестирования с помощью Chrome DevTools\n\nБудет плюсом:\nПонимание как работают мобильные приложения и опыт их тестирования;\nРабота с базами данных. \n\nКонтакты: \nДарья\n@Daryanepevnaya\n+7 925 175 175 2 \ndarya.nepevnaya@x5.ru","markup":[{"type":"hashtag","offset":0,"length":9,"data":"вакансия"},{"type":"hashtag","offset":10,"length":7,"data":"работа"},{"type":"hashtag","offset":18,"length":3,"data":"QA"},{"type":"hashtag","offset":23,"length":7,"data":"ручное"},{"type":"hashtag","offset":31,"length":7,"data":"москва"},{"type":"hashtag","offset":39,"length":9,"data":"fulltime"},{"type":"hashtag","offset":49,"length":5,"data":"офис"},{"type":"link","offset":632,"length":25,"data":"http://app.5-delivery.ru/"},{"type":"handle","offset":1188,"length":15,"data":"Daryanepevnaya"},{"type":"link","offset":1204,"length":16,"data":"tel:+7 925 175 175 2"},{"type":"link","offset":1222,"length":21,"data":"mailto:darya.nepevnaya@x5.ru"}],"date":"2020-07-03T07:23:09+00:00","link":"tg://resolve?domain=qa_jobs&post=99492","tags":[{"name":"qa"},{"name":"dotnet"},{"name":"rest"},{"name":"json"}],"cities":[{"code":"moscow"}],"allowsRemote":false}}]}}},"context":{}}