{"hash":"f5f6bf98bd95e769321482904cbbd488f77922fd","data":{"records":{"id":"russia/moscow","country":{"code":"russia","ruName":"Россия","enName":"Russia"},"city":{"code":"moscow","ruName":"Москва","enName":"Moscow"},"belongsTo":{"totalCount":476,"pageInfo":{"totalPages":48,"currentPage":14},"edges":[{"node":{"__typename":"Job","id":"17216569344-1001110946746","title":"Js разработчик","text":"#вакансия #Frontend #Vue\n #JS\n🔸 Формат работы: удаленка/возможен офис\n🔸 Город: г. Москва (м. Дмитровская), г. Минск (м. Грушевка)\n🔸 Занятость: проектная/полная\n🔸 З/п: от 900$ до 2000$\nМы уже запустили несколько собственных успешных проектов в сфере авиаобслуживания, логистики, такси и др, и теперь помогаем другим компаниям в создании самых разных сервисов — от веб-сайтов до сложных highload проектов. \n\nСейчас ищем Frontend разработчика, готового работать на Vue.JS и разрабатывать с нуля сервис по оформлению и обслуживанию страхового продукта.\nКроме этого, для поддержки есть внутренние проекты из сферы логистики и доставки.\n📌 Задачи:\nРазработка новых сервисов, как в рамках новых проектов, так и для уже существующих;\nРабота с инфраструктурой Vue.JS;\nПроведение Code Review. \n📌 Что нужно уметь:\nОпыт работы на JavaScript, знание стандартов ECMAScript;\nУмение создавать интерфейсы с использованием Vue;\nХорошее понимание принципов ФП, ООП и паттернов проектирования;\nЗнание и понимание Git.\n📌 Что будет полезно:\nЗнание плагинов Vue (Vuex, Vue Router, axios);\nОпыт работы с NuxtJS и element-ui;\nУмение работать с ТЗ заказчика, доводить бизнес-идею до продакшн/\n📌 Что мы даем взамен: \nВозможность прокачки hard skills на проектах разного уровня сложности;\nКоманду с сильными разработчиками, QA, UX/UI дизайнерами, менеджерами и налаженными внутренними процессами;\nСамореализацию и профессиональный рост, посещение конференций и курсов за счет компании;\nГрафик работы: удаленный с пересечением по часам 11:00–19:00 по Москве; или можно работать в офисах и участвовать во всех наших активностях;\n🔸 Компания: BSL (bsl.dev)\n🔸 Контакты: hr@bsl.dev или телеграм: @viktoriya_gw","markup":[{"type":"hashtag","offset":0,"length":9,"data":"вакансия"},{"type":"hashtag","offset":10,"length":9,"data":"Frontend"},{"type":"hashtag","offset":20,"length":4,"data":"Vue"},{"type":"hashtag","offset":26,"length":3,"data":"JS"},{"type":"link","offset":1624,"length":7,"data":"http://bsl.dev"},{"type":"link","offset":1646,"length":10,"data":"mailto:hr@bsl.dev"},{"type":"handle","offset":1671,"length":13,"data":"viktoriya_gw"}],"date":"2020-06-29T13:31:53+00:00","link":"tg://resolve?domain=javascript_jobs_feed&post=16419","tags":[{"name":"javascript"},{"name":"vuejs"},{"name":"git"},{"name":"axios"}],"cities":[{"code":"moscow"},{"code":"minsk"}],"allowsRemote":true}},{"node":{"__typename":"Job","id":"1764753408-1001091028994","title":"Java разработчик","text":"#вакансия #офис #Java #москва #senior #fulltime\nВакансия: Senior Java-разработчик в Райффайзенбанк\nВилка по ЗП: senior 265-345 gross\nМы ищем старшего Java-разработчика в команду разработки внутренних инструментов для продуктовых команд. Наша цель – быстрая, надежная и эффективная разработка продуктов и для этого нам нужны крутые инструменты и мощная инфраструктура. Если тебе интересно делать работу большого количества инженеров проще и удобней, то мы тебя ждем.\nСтек технологий: Java 11, Spring (Core, Boot, Security, Data), PostgreSQL, React, Docker, Python\nОсновные задачи:\n•  участие в разработке инструментов и инфраструктуры для продуктовых команд;\n•  написание юнит-тестов;\n•  написание документации;\n•  участие в разработке стандартов разработки и проектирования программного обеспечения.\n\nЧто мы ждем от вас:\n\n•  опыт промышленной разработки на Java не менее 3х лет;\n•  опыт применения основных паттернов проектирования;\n•  опыт разработки распределенных систем, микросервисной архитектуры;\n•  опыт работы с SQL/NoSQL-решениями;\n•  знание Maven или Gradle, опыт использования инструментов и практик CI/CD.\n•  опыт написания юнит и интеграционных тестов;\n•  понимание принципов работы по методологии Agile (Scrum, Kanban, etc.).\nПро нас:\n•  у нас очень комфортная культура и отзывчивые люди;\n•  мы вкладываемся в развитие сотрудников: отправляем на курсы, проводим митапы, делимся опытом;\n•  боремся с бюрократией, костюмы не носим.\nА еще:\n•  приятная заработная плата;\n•  1-2 раза в неделю можно работать из дома после карантина (сейчас мы полностью на удаленке);\n•  наш офис находится всего в двух минутах пешком от метро Технопарк;\n•  бесплатный спортзал на первом этаже;\n•  социальный пакет, включая ДМС с первого дня, страхование выезжающих за рубеж и от несчастных случаев;\n•  доплата по больничным, выгодный отпуск в январе и мае, корпоративный пенсионный план;\n•  льготное кредитование, программа корпоративных скидок от множества партнеров.\nКонтакт: @ZamyslovaN","markup":[{"type":"hashtag","offset":0,"length":9,"data":"вакансия"},{"type":"hashtag","offset":10,"length":5,"data":"офис"},{"type":"hashtag","offset":16,"length":5,"data":"Java"},{"type":"hashtag","offset":22,"length":7,"data":"москва"},{"type":"hashtag","offset":30,"length":7,"data":"senior"},{"type":"hashtag","offset":38,"length":9,"data":"fulltime"},{"type":"handle","offset":1970,"length":11,"data":"ZamyslovaN"}],"date":"2020-06-29T12:17:59+00:00","link":"tg://resolve?domain=jvmjobs&post=1683","tags":[{"name":"java"},{"name":"jvm"},{"name":"spring"},{"name":"postgresql"},{"name":"reactjs"},{"name":"docker"},{"name":"python"},{"name":"sql"},{"name":"nosql"},{"name":"maven"},{"name":"gradle"}],"cities":[{"code":"moscow"}],"allowsRemote":false}},{"node":{"__typename":"Job","id":"1762656256-1001091028994","title":"Java разработчик","text":"#вакансия #java #backend\nКомпания Opendev\nЛокация #москва #мск\nЗП 140-210 гросс\nСобираем продуктовую команду для развития финтех сервисов. Делаем внутрибанковское ПО и веб-сервисы, которыми пользуемся сами и хвастаемся друзьями)\nПриглашаем на проект Java разработчика\n\nСтек\n• Java 8+\n• Spring Framework, Spring boot, Spring Cloud\n• Docker\n• БД - NoSQL\n• микросервисы естестественно 🙂\n\nУсловия\n• Оформление по ТК (белая ЗП и ДМС)\n• Perfomance review\n• Продуктовые Scrum команды\n• Гибкий старт рабочего дня\n\nОбсудить вакансию --- > @xenia_agv\nksenia.ageeva@opendev.com","markup":[{"type":"hashtag","offset":0,"length":9,"data":"вакансия"},{"type":"hashtag","offset":10,"length":5,"data":"java"},{"type":"hashtag","offset":16,"length":8,"data":"backend"},{"type":"hashtag","offset":50,"length":7,"data":"москва"},{"type":"hashtag","offset":58,"length":4,"data":"мск"},{"type":"handle","offset":531,"length":10,"data":"xenia_agv"},{"type":"link","offset":542,"length":25,"data":"mailto:ksenia.ageeva@opendev.com"}],"date":"2020-06-29T11:27:21+00:00","link":"tg://resolve?domain=jvmjobs&post=1681","tags":[{"name":"java"},{"name":"jvm"},{"name":"spring"},{"name":"cloud"},{"name":"docker"},{"name":"nosql"},{"name":"spring-boot"}],"cities":[{"code":"moscow"}],"allowsRemote":false}},{"node":{"__typename":"Job","id":"72254226432-1001054966032","title":"Mobile разработчик","text":"#вакансия #ios #senior #middle #objective_c \n\nОчень важен опыт работы с Core Data\n\nГород: #Москва, м. Павелецкая (удалённо на период всеобщей борьбы с вирусами)\nФормат работы: #офис, #удалёнка, #гибкие_часы \n\nЗанятость: полная  \nЗарплатная вилка: от 200к до 250к руб. net \nОписание вакансии: \n\nМы разрабатываем облачные CRM решения с широким использованием мобильных устройств.   \nСейчас мы ищем middle  и senior iOS разработчиков в команду, которая внедряет приложение CT Mobile в архитектуру CRM наших клиентов в Европе.\n\nhttps://apps.apple.com/us/app/ct-mobile-for-salesforce/id1234947996\n\nНазвание компании: Customertimes.com\nКонтакты: mikhail.zinoviev@ctconsult.ru","markup":[{"type":"hashtag","offset":0,"length":9,"data":"вакансия"},{"type":"hashtag","offset":10,"length":4,"data":"ios"},{"type":"hashtag","offset":15,"length":7,"data":"senior"},{"type":"hashtag","offset":23,"length":7,"data":"middle"},{"type":"hashtag","offset":31,"length":12,"data":"objective_c"},{"type":"hashtag","offset":90,"length":7,"data":"Москва"},{"type":"hashtag","offset":176,"length":5,"data":"офис"},{"type":"hashtag","offset":183,"length":9,"data":"удалёнка"},{"type":"hashtag","offset":194,"length":12,"data":"гибкие_часы"},{"type":"link","offset":524,"length":67,"data":"https://apps.apple.com/us/app/ct-mobile-for-salesforce/id1234947996"},{"type":"link","offset":612,"length":17,"data":"http://Customertimes.com"},{"type":"link","offset":640,"length":29,"data":"mailto:mikhail.zinoviev@ctconsult.ru"}],"date":"2020-06-29T11:15:18+00:00","link":"tg://resolve?domain=mobile_jobs&post=68907","tags":[{"name":"mobile"},{"name":"ios"},{"name":"objective-c"},{"name":"dotnet"},{"name":"core-data"}],"cities":[{"code":"moscow"}],"allowsRemote":true}},{"node":{"__typename":"Job","id":"1761607680-1001091028994","title":"Java разработчик","text":"#javaвакансия #javaspring #senior #middle #полнаязанятость\nДобрый день!\nВ настоящий момент нахожусь в поисках ведущего разработчика Java (backend) для международной аутсорсинговой компании (проекты банковского направления).\n160-300 K, Москва, ст.м. Динамо\nСтэк: Java 8, Spring, Spring (Boot, Cloud), Hibernate, SQL, Микросервисы, DevOps, REST-сервисы. \nУсловия: 160 – 300.000 рублей, полностью «белая» заработная плата. В компании регулярно проводится корпоративное обучение, сертификация в технических и бизнес-областях. Помощь в релокации.\nБуду рада ответить на Ваши вопросы: @LyKatrin, ekaterina706712@mail.ru","markup":[{"type":"hashtag","offset":0,"length":13,"data":"javaвакансия"},{"type":"hashtag","offset":14,"length":11,"data":"javaspring"},{"type":"hashtag","offset":26,"length":7,"data":"senior"},{"type":"hashtag","offset":34,"length":7,"data":"middle"},{"type":"hashtag","offset":42,"length":16,"data":"полнаязанятость"},{"type":"handle","offset":578,"length":9,"data":"LyKatrin"},{"type":"link","offset":589,"length":23,"data":"mailto:ekaterina706712@mail.ru"}],"date":"2020-06-29T11:14:55+00:00","link":"tg://resolve?domain=jvmjobs&post=1680","tags":[{"name":"java"},{"name":"jvm"},{"name":"spring"},{"name":"cloud"},{"name":"hibernate"},{"name":"sql"},{"name":"rest"},{"name":"spring-boot"}],"cities":[{"code":"moscow"}],"allowsRemote":false}},{"node":{"__typename":"Job","id":"103975747584-1001089317451","title":"Qa engineer","text":"#Москва  #QA  #вакансия #офис\nКомпания: Start.ru\n\nМы ищем коллег, которые смогут влиться в нашу команду и вместе с нами развивать и совершенствовать наш сервис!\nУ Вас есть возможность стать частью команды, развивающей первую в Восточной Европе студию с собственным международным VOD сервисом.\nВ данный момент мы усиляем нашу команду по тестированию и в поисках позиций Backend QA Engineer и QA Automation Engineer (python)\n\n———————————\nДолжность: Backend QA Engineer\nЗарплатная вилка: От 80.р. до 120т.р. по результатам собеседования\n\nКакие задачи вы будете решать:\n- Прогон описаных кейсов в TestRail и документация найденых дефектов;\n- Тестирование API (программного интерфейса платформы);\n- Разработка тестовых сценариев;\n- Взаимодействие с разработчиками и сопровождение дефектов до полного их решения;\n- Отладка и сбор логов в процессе воспроизведения проблем\n- Проведение регрессионного тестирования\n\nЧего мы хотим:\n- Вас не пугает работа с командной строкой чаще чем работа с графическим интерфейсом\n- Работа с chromedev tools и командной строкой (bash);\n- Знание и понимания клиент-серверной архитектуры приложений;\n- Понимание принципов работы веб-приложений;\n- Умение грамотно составлять свои мысли в предложения и описывать дефекты, чтобы понятно было разработчикам;\n- Навыки работы с технической документацией, анализ и вычленение требований;\n- Работали с программами-снифферами и проксями траффика (charles/wireshark/fiddler/mitmproxy etc)\n\nБудет плюсом:\n- Если знаете python на уровне, достаточном для автоматизации и сможете прочитать код который на нем написан\n- Знаете что такое DOM-дерево, локаторы и селекторы в контексте веб-приложения\n\n—————————\nДолжность: QA Automation Engineer\nЗарплатная вилка: От 130.р. до 170т.р. по результатам собеседования\n\nУ нас:\nВ нашем проекте есть автоматизация тестирования как API, так и WEB UI. \nНаш стек: Python3, PyTest, Requests, Selenium WebDriver, Selenoid, DB clients (MongoDB, PostgreSQL), JSON validation (jsonschema), TestRail API, Telegram API, GitLab CI. \nПомимо автотестов мы разрабатываем проект нагрузочного тестирования на Locust.\n\nВаши задачи:\n- Расширение покрытия автотестов API, WEB UI\n- Поддержка автотестов в актуальном состоянии\n- Анализ прохождения тестов с возможным заведением багов в Jira\n- Ревью кода\n- Ведение тестовой - документации\n- Написание сценариев нагрузочного тестирования\n\nТребования:\n- Хорошее знание теории тестирования\n- Опыт автоматизированного тестирования от 2х лет\n- Знание Python3, PyTest\n- Навыки написания и использования тестовой документации\n- Умение писать простые запросы на SQL и в MongoDB\n- Навыки работы с Git\n- Обсуждение проблем приложения с разработчиками\n\nБудет плюсом:\n- Опыт написания архитектуры проекта автотестов с нуля\n- Работа с Docker, Docker Compose\n- Опыт работы с Telegram API\n- Опыт описания JSON схем для валидации ответов API\n- Базовые знания в Linux\n\nОт нас:\n- На данный момент условия сотрудничества удаленные, но при нормализации ситуации мы выйдем в офис\n- Офис в районе Хамовники (территориально м.Киевская, м. Спортивная в 20.мин ходьбы)\n- График работы: 5/2 начинаем с 9  до 11 (в целом гибкий - главное результат);\n- Оформление в соответствии с ТК РФ (белая зарплата, отпускные, больничные);\n- Все возможности для прокачки имеющихся скиллов и получения новых;\n- Драйвовая и высокопрофессиональная команда единомышленников;\n- Возможность стать частью динамично развивающегося видеосервиса.\n\n\nВопросы и отклики по вакансии писать в tlgrm: @unambo OR emailto: v.selyanin@start.ru","markup":[{"type":"hashtag","offset":0,"length":7,"data":"Москва"},{"type":"hashtag","offset":9,"length":3,"data":"QA"},{"type":"hashtag","offset":14,"length":9,"data":"вакансия"},{"type":"hashtag","offset":24,"length":5,"data":"офис"},{"type":"link","offset":40,"length":8,"data":"http://Start.ru"},{"type":"handle","offset":3471,"length":7,"data":"unambo"},{"type":"link","offset":3491,"length":19,"data":"mailto:v.selyanin@start.ru"}],"date":"2020-06-29T11:07:45+00:00","link":"tg://resolve?domain=qa_jobs&post=99159","tags":[{"name":"qa"},{"name":"python"},{"name":"bash"},{"name":"web"},{"name":"selenium"},{"name":"mongodb"},{"name":"postgresql"},{"name":"json"},{"name":"gitlab"},{"name":"sql"},{"name":"git"},{"name":"docker"},{"name":"linux"},{"name":"docker-compose"}],"cities":[{"code":"moscow"},{"code":"kiev"}],"allowsRemote":false}},{"node":{"__typename":"Job","id":"103974699008-1001089317451","title":"Qa инженер","text":"#вакансия #QA #офис #fulltime #Москва #Jira \n\nQA инженер\n⠀\nТребуемый опыт работы: 1–3 года\nФормат: офис / fulltime (сейчас удалённо, далее офис)\nЗарплата до 170 gross + 20 % годовой бонус + ДМС\nКомпания: 5POST (подразделение X5 Retail Group)\n\nЛокация: г.Москва  / МЦК Калитники 4 мин. пешком / м. Волгоградский проспект\nСсылка на компанию: https://fivepost.ru/\n\n5POST - новое логистическое подразделение X5 Retail Group, которое развивает услуги доставки заказов для e-commerce в пункты выдачи и автоматизированные пункты выдачи (постаматы) \n\nПроект находится в стадии активного роста и развития, наши амбициозные цели позволяют в своей работе использовать только новые и надежные технологии.\n⠀\nДля удобства наших клиентов мы интегрированы с AliExpress, Ozon, Беру и другими интернет-магазинами. \n⠀\nНаша цель - доставлять 1 000 000 посылок в сутки.\n⠀\nДля обеспечения такой производительности мы развернули несколько десятков микросервисов, отмасштабировали между ними нагрузку и продолжаем работать над оптимизациями.\n\nОбязанности:\n- обеспечение качественного и своевременного исполнения работ по тестированию;\n- минимизация дефектов, выявленных в системе, после переноса протестированного релиза в продуктивную эксплуатацию;\n- осуществление анализа функциональных и бизнес - требований;\n- написание и актуализация тестовых сценариев;\n- осуществление контроля за устранением дефектов в установленные сроки (SLA);\n- проведение тестирования (функциональное, регрессионное, интеграционное);\n- взаимодействие с разработчиками и аналитиками по вопросам тестирования;\n- подготовка отчетов о ходе тестирования.\n⠀\nТребования:\n- опыт тестирования (глубокое и системное понимание тестирование и его методов);\n- опыт создания тестовой документации;\n- разработка автотестов для основных сценариев;\n- опыт разработки скриптов для автоматизации повседневных задач;\n- развертывание и настройка тестовых сред;\n- понимание принципов работы клиент - сервисных приложений;\n- Jira;\n⠀\nУсловия:\n- работа в динамично развивающемся бизнесе 5Post;\n- офис в районе м. Волгоградский проспект;\nСкидки в наших магазинах (Пятерочка, Перекресток, Карусель);\n- ДМС (после прохождения испытательного срока);\n- корпоративное обучение;\n- корпоративная йога в офисе;\n- обширная партнерская программа лояльности;\n- бесплатная парковка;\n- возможность развития и карьерного роста.\n⠀\nКонтакты: @ValeryBurkina","markup":[{"type":"hashtag","offset":0,"length":9,"data":"вакансия"},{"type":"hashtag","offset":10,"length":3,"data":"QA"},{"type":"hashtag","offset":14,"length":5,"data":"офис"},{"type":"hashtag","offset":20,"length":9,"data":"fulltime"},{"type":"hashtag","offset":30,"length":7,"data":"Москва"},{"type":"hashtag","offset":38,"length":5,"data":"Jira"},{"type":"bold","offset":46,"length":10,"data":""},{"type":"bold","offset":145,"length":98,"data":""},{"type":"link","offset":340,"length":20,"data":"https://fivepost.ru/"},{"type":"handle","offset":2354,"length":14,"data":"ValeryBurkina"}],"date":"2020-06-29T11:06:31+00:00","link":"tg://resolve?domain=qa_jobs&post=99158","tags":[{"name":"qa"}],"cities":[{"code":"moscow"}],"allowsRemote":true}},{"node":{"__typename":"Job","id":"1760559104-1001091028994","title":"Java разработчик","text":"#вакансия #удаленка #Java\n\nВакансия: Backend Java разработчик (middle, senior)\n\nЛокация: #Москва #удаленка\nВилка по ЗП: middle до 170 000 net, senior до 200 000 net)\nКонтакт: @Hr_Dina\nОсновной проект: Разработка подсистемы обеспечения юридической значимости электронного документооборота.\nСтек технологий: Java 11, Spring (Core, Boot, Security, Data), JPA (Hibernate), PostgreSQL, Angular, Ant-design, Docker.\n\nЧто нужно делать:\nBack-end - разработка проектов разных масштабов и направленности, в том числе проектов с \"нуля\"\nРефакторинг, оптимизация и модернизация кода существующих проектов\nУчастие в разработке архитектуры проекта\nРабота с разными проектными командами архитекторов, разработчиков и тестировщиков\n\nЧто мы ждем от вас:\nОпыт работы (обязательный):\nОпыт коммерческой разработки на Java от 3х лет.\nОпыт работы (желательный):\nОпыт разработки высоконагруженных приложений на Java от 1го года.\n\nНавыки (обязательные):\n- Java SE 8+ (Core, Collections, Multithreading);\n- Spring (Core, Boot, Security, Data);\n- ORM: Hibernate/JOOQ;\n- Кеши (Ehcache/Redis/Hazelcast/Ignite/GridGain/etc);\n- Очереди (Kafka/RabbitMQ/ActiveMQ/etc);\n- Проектирование REST API (Swagger);\n- БазыданныхPostgre/Oracle\n- Maven, Git\n\nНавыки (желательные):\n- OAuth, OpenId, SSO/SAML, WS-Security, PKI, Kerberos;\n- Docker\n- GitLab, Sonar","markup":[{"type":"hashtag","offset":0,"length":9,"data":"вакансия"},{"type":"hashtag","offset":10,"length":9,"data":"удаленка"},{"type":"hashtag","offset":20,"length":5,"data":"Java"},{"type":"bold","offset":27,"length":9,"data":""},{"type":"bold","offset":80,"length":8,"data":""},{"type":"hashtag","offset":89,"length":7,"data":"Москва"},{"type":"hashtag","offset":97,"length":9,"data":"удаленка"},{"type":"bold","offset":107,"length":12,"data":""},{"type":"bold","offset":166,"length":8,"data":""},{"type":"handle","offset":175,"length":8,"data":"Hr_Dina"},{"type":"bold","offset":184,"length":16,"data":""},{"type":"bold","offset":289,"length":16,"data":""},{"type":"bold","offset":411,"length":18,"data":""},{"type":"bold","offset":716,"length":20,"data":""},{"type":"bold","offset":906,"length":23,"data":""},{"type":"bold","offset":1214,"length":22,"data":""}],"date":"2020-06-29T11:03:15+00:00","link":"tg://resolve?domain=jvmjobs&post=1679","tags":[{"name":"java"},{"name":"jvm"},{"name":"dotnet"},{"name":"spring"},{"name":"jpa"},{"name":"hibernate"},{"name":"postgresql"},{"name":"angularjs"},{"name":"ant"},{"name":"docker"},{"name":"orm"},{"name":"redis"},{"name":"kafka"},{"name":"rabbitmq"},{"name":"rest"},{"name":"swagger"},{"name":"oracle"},{"name":"maven"},{"name":"git"},{"name":"oauth"},{"name":"gitlab"}],"cities":[{"code":"moscow"}],"allowsRemote":true}},{"node":{"__typename":"Job","id":"103973650432-1001089317451","title":"Qa engineer","text":"#вакансия #QA #ФТ #Москва #офис \n\nВакансия: QA Engineer\nГород: Москва м. Полежаевская\nЗарплата: от 100 000 до 150 000 рублей на руки \nФормат: офис, полный день, полная занятость\nКомпания Innovative People \n\nПроект \"Жизненный цикл клиента\" в банке, agile-команда.\n\n➡ Задачи и требования:\n\n• Ручное тестирование Web приложения/IOS/Android;\n• Проектировать и поддерживать актуальную тестовую документацию;\n• Разбор, детализация и заведение дефектов;\n\n• Опыт в тестирования от 2-х лет (от черновиков ТЗ до отчетности по текущему состоянию системы и потенциальным рискам);\n• Понимание принципов работы современных веб-сервисов: REST, SOAP;\n• Умение работать с Jira, Confluence;\n• Умение составлять чек-листы и тест-кейсы;\n\n• Желательно умение работать со сниффером (Charles/Fiddler/etc);\n• Желательно умение работать с инструментами тестирования\\отладки web-сервисов (SoapUI, Postman, Swagger UI);\"\n\n➡ Предлагаем:\n• все по ТК РФ, белое и официальное\n• ДМС со стоматологией, программа лояльности\n• адекватное руководство \n• большое комьюнити \n• ноутбук\n\nРезюме и вопросы @Priboch","markup":[{"type":"hashtag","offset":0,"length":9,"data":"вакансия"},{"type":"hashtag","offset":10,"length":3,"data":"QA"},{"type":"hashtag","offset":14,"length":3,"data":"ФТ"},{"type":"hashtag","offset":18,"length":7,"data":"Москва"},{"type":"hashtag","offset":26,"length":5,"data":"офис"},{"type":"handle","offset":1065,"length":8,"data":"Priboch"}],"date":"2020-06-29T11:02:48+00:00","link":"tg://resolve?domain=qa_jobs&post=99157","tags":[{"name":"qa"},{"name":"web"},{"name":"ios"},{"name":"android"},{"name":"rest"},{"name":"soap"},{"name":"swagger"}],"cities":[{"code":"moscow"}],"allowsRemote":false}},{"node":{"__typename":"Job","id":"72253177856-1001054966032","title":"Android разработчик","text":"#вакансия #Android #Kotlin #Москва #офис \n\nВакансия: Android разработчик\nГород: Москва м. Чистые пруды\nЗарплата: от 180 000 рублей до 260 000 рублей на руки \nФормат: офис, полный день, полная занятость (гибкое начало)\nКомпания Innovative People\n\nВ команду «Страховых продуктов» ищу разработчика. Проект новый, agile-команда. \n\n⚓ Обязанности\n• Разработка функционала мобильного приложения\n• Разработка unit-тестов, рефакторинг, code review\n• Соблюдение принципов командной разработки\n• Работа в офисе с командой\n\n ⚓ Требования \n• Опыт разработки мобильных приложений от 2-х лет\n• Отличные знания ООП, классических алгоритмов и структур данных\n• Отличные знания платформы Android, языков Java и Kotlin (преимущественно)\n• Опыт применения паттернов: MVP, MVVM, CLEAN\n• Опыт работы с внешними библиотеками Dagger2, RxJava2\n• Опыт работы json и xml для мобильных и серверных решений\n• Опыт интеграции со сторонними системами по API\n• Опыт написания unit-тестов\n• Опыт работы с TFS, JIRA, GIT\n• Опыт поддержки чужого кода\n• Опыт обеспечения регулярных релизов и написания документации\n\n⚓ Условия:\n• Новая команда\n• ДМС со стоматологией, всё белое\n, ноутбук \n• Возможность предлагать собственные идеи\n, карьерный рост\n• Позже планируется переезд в Москва Сити\n\n📩Резюме и вопросы @Priboch","markup":[{"type":"hashtag","offset":0,"length":9,"data":"вакансия"},{"type":"hashtag","offset":10,"length":8,"data":"Android"},{"type":"hashtag","offset":19,"length":7,"data":"Kotlin"},{"type":"hashtag","offset":27,"length":7,"data":"Москва"},{"type":"hashtag","offset":35,"length":5,"data":"офис"},{"type":"handle","offset":1273,"length":8,"data":"Priboch"}],"date":"2020-06-29T10:59:51+00:00","link":"tg://resolve?domain=mobile_jobs&post=68906","tags":[{"name":"mobile"},{"name":"android"},{"name":"kotlin"},{"name":"java"},{"name":"mvvm"},{"name":"json"},{"name":"xml"},{"name":"tfs"},{"name":"git"}],"cities":[{"code":"moscow"}],"allowsRemote":false}}]}}},"context":{}}