{"hash":"f5f6bf98bd95e769321482904cbbd488f77922fd","data":{"records":{"id":"xml","name":"xml","belongsTo":{"totalCount":23,"pageInfo":{"totalPages":3,"currentPage":3},"edges":[{"node":{"__typename":"Job","id":"2209349632-1001134745498","title":"Devops инженер","text":"#вакансия #офис #Москва #devops #teamlead\n\nDevOps Engineer\nОписание проекта:\nНа текущий момент мы формируем ключевую команду по трансформации интеграционной архитектуры одного из крупнейших\nБанков.\nОдной из ключевых задач трансформации стоит построить принципиально новую платформу управления трафиком между\nприложениями,\nпозволяющую объединить все существующие системы Банка как монолитные, так и контейнеризированные, виртуализировать\nбазовые\nсервисы и инструменты обеспечения ключевых атрибутов масштабирования, надежности, безопасности и сопровождаемости.\nВ результате этой трансформации должны быть реализованы комплексные сервисы платформы для ИТ Банка и партнеров.\nПрофит для участника:\nВозможность трансформировать ИТ-ландшафт одного из крупнейшего Банка своими силами от начала до конца;\nВозможность развить компетенции и получить опыт применения современных технологий и подходов к DevOps;\n\nКлючевые задачи:\nУлучшение инструментов и автоматизация производственных процессов, уменьшение time to market\nПостроение и сопровождение конвейера CI/CD\nАвтоматизация процесса подготовки окружений, тестовых сред, сборки и развертывания приложений\nВнедрение, поддержка и развитие системы мониторинга\nУчастие в подготовке и настройке инфраструктуры проектов банка\nИнтеграция тестов в скрипты развертывания\n\nОсновные требования:\nОпыт конфигурации и уверенное владение Linux (RHEL/CentOS)\nУмение писать сценарии автоматизации (bash, python)\nПонимание языков разметки данных (xml, json, yaml)\nУверенное владение одним из языков: Python, Java, Kotlin, Groovy\nОпыт работы с Git.\nОпыт автоматизации CI/CD процессов. Активное взаимодействие с командами разработки, тестирования, поддержки.\nОпыт работы с CI-Системами (Gitlab CI/Jenkins/TeamCity). Разработка и отладка исходного кода Pipeline, умение\nкастомизировать сборку.\nУверенное владение средством управления конфигурациями – Ansible, написание скриптов. Большим плюсом будет\nявляется опыт разработки модулей и отладки.\nОпыт развертывание и использования Docker: Создание образов, сборка и доставка контейнеров. Развертывание\nприложений в кластере Kubernetes, OpenShift\nОпыт настройки инструментов мониторинга (zabbix, Prometheus, grafana, ELK/EFK)\nОпыт работы с базами данных: Oracle, PostgreSQL, NoSQL DB (Tarantool, Casandra, Redis, RocksDB, etcd, ...)\nОпыт работы с IBM WebSphere MQ\nИнженерные практики (code review, тестирование скриптов и прочее).\nОпыт работы с высокодоступными и высокопроизводительными решениями\nПонимание принципа infrastructure as code\nИнженерное мышление, умение локализовать проблему и предложить оптимальное решение\nРазвитый технический кругозор и желание постоянно развиваться.\n\nЧто предлагаем:\nОформление через интегратора T4u\nЗ.п белая, 200-250 к\nДМС, курсы, сертификация за счет компании\nРабочее место в одном из офисов банка: м. Деловой центр, м. Пролетарская, м. ВДНХ\nКонтакты: @Anastasia202011\n\n—\n\n👉 Обсуждение вакансии в чате @devops_jobs","markup":[{"type":"hashtag","offset":0,"length":9,"data":"вакансия"},{"type":"hashtag","offset":10,"length":5,"data":"офис"},{"type":"hashtag","offset":16,"length":7,"data":"Москва"},{"type":"hashtag","offset":24,"length":7,"data":"devops"},{"type":"hashtag","offset":32,"length":9,"data":"teamlead"},{"type":"handle","offset":2861,"length":16,"data":"Anastasia202011"},{"type":"handle","offset":2912,"length":12,"data":"devops_jobs"}],"date":"2020-06-15T11:01:14+00:00","link":"tg://resolve?domain=devops_jobs_feed&post=2107","tags":[{"name":"linux"},{"name":"centos"},{"name":"bash"},{"name":"python"},{"name":"xml"},{"name":"json"},{"name":"yaml"},{"name":"java"},{"name":"kotlin"},{"name":"groovy"},{"name":"git"},{"name":"gitlab"},{"name":"jenkins"},{"name":"ansible"},{"name":"docker"},{"name":"kubernetes"},{"name":"oracle"},{"name":"postgresql"},{"name":"nosql"},{"name":"redis"}],"cities":[{"code":"moscow"}],"allowsRemote":false}},{"node":{"__typename":"Job","id":"71292682240-1001054966032","title":"Android разработчик","text":"#вакансия #Android #Kotlin #Москва #офис \n\nВакансия: Android разработчик\nГород: Москва м. Выставочная/Арбатская\nЗарплата: от 190 000 рублей до 270 000 рублей на руки \nФормат: офис, полный день, полная занятость (гибкое начало)\nКомпания Innovative People\n\nВ команду «Средний и малый бизнес» ищу разработчика. Проект новый, agile-команда. \n\n📲 Обязанности\n• Разработка функционала мобильного приложения\n• Разработка unit-тестов, рефакторинг, code review\n• Соблюдение принципов командной разработки\n• Работа в офисе с командой\n\n📲 Требования \nОпыт разработки мобильных приложений от 2-х лет; \nОтличные знания ООП, классических алгоритмов и структур данных; \nОтличные знания платформы Android, языков Java и Kotlin; \nОпыт применения паттернов: MVP, MVVM, CLEAN; \nОпыт работы с библиотеками json и xml для мобильных и серверных решений опыт интеграции со сторонними системами по API опыт написания unit-тестов; \nОпыт работы с TFS, JIRA, GIT.\n\n📲 Условия:\n• Хорошую команду\n• ДМС со стоматологией, всё белое\n• Возможность предлагать собственные идеи\n• ноутбук, адекватное руководство\n\n📩Резюме и вопросы @Priboch","markup":[{"type":"hashtag","offset":0,"length":9,"data":"вакансия"},{"type":"hashtag","offset":10,"length":8,"data":"Android"},{"type":"hashtag","offset":19,"length":7,"data":"Kotlin"},{"type":"hashtag","offset":27,"length":7,"data":"Москва"},{"type":"hashtag","offset":35,"length":5,"data":"офис"},{"type":"handle","offset":1098,"length":8,"data":"Priboch"}],"date":"2020-06-15T10:44:21+00:00","link":"tg://resolve?domain=mobile_jobs&post=0","tags":[{"name":"mobile"},{"name":"android"},{"name":"kotlin"},{"name":"java"},{"name":"mvvm"},{"name":"json"},{"name":"xml"},{"name":"tfs"},{"name":"git"}],"cities":[{"code":"moscow"}],"allowsRemote":false}},{"node":{"__typename":"Job","id":"71180484608-1001054966032","title":"Ios developer","text":"#вакансия #IOS #Swift #Objective-C #middle #офис #Москва\n👋Приглашаем Middle IOS Developer в новый проект от Сбербанка.\n\n💸Уровень ЗП: 220К-310К net (в зависимости от типа оформления).\n\n📝Оформление: ИП или штат компании партнера.\n\n📍Локация: офис в г.Москва, Кутузовский проспект.\n\n🧑‍💻О проекте: Разработка чата и видеозвонка с целью реализовать единое рабочее место оператора для дополнительного канала обслуживания. С помощью чатов клиент сможет переписываться со своим дистанционным клиентским менеджером по премиальному каналу в МП СБОЛ, с возможностью передачи файлов. Видеозвонок позволит установить визуальный контакт клиентом со своим менеджером с возможностью показа презентаций. На базе удаленных каналов обслуживания планируется реализовать возможность удаленного предоставления клиенту всего спектра продуктов банка.\n\n🎯Мы ожидаем от вас:\n· знание Objective-C;\n· знание Swift;\n· опыт коммерческой разработки iOS-приложений не менее года;\n· опыт параллельного и многопоточного программирования;\n· опыт разработки сетевых приложений как на уровне сокетов, так и на уровне HTTP;\n· опыт работы с Core Data, Core Graphics, XML-парсером в iOS SDK;\n· умение разбираться и работать с чужим кодом.\n\nЖду Ваши резюме и буду рада ответить на все вопросы☺️\nКонтакты для связи: telegram @anisimovaane4ka","markup":[{"type":"hashtag","offset":0,"length":9,"data":"вакансия"},{"type":"hashtag","offset":10,"length":4,"data":"IOS"},{"type":"hashtag","offset":15,"length":6,"data":"Swift"},{"type":"hashtag","offset":22,"length":10,"data":"Objective"},{"type":"hashtag","offset":35,"length":7,"data":"middle"},{"type":"hashtag","offset":43,"length":5,"data":"офис"},{"type":"hashtag","offset":49,"length":7,"data":"Москва"},{"type":"handle","offset":1288,"length":16,"data":"anisimovaane4ka"}],"date":"2020-06-12T14:57:02+00:00","link":"tg://resolve?domain=mobile_jobs&post=0","tags":[{"name":"mobile"},{"name":"ios"},{"name":"swift"},{"name":"objective-c"},{"name":"dotnet"},{"name":"xml"},{"name":"core-data"}],"cities":[{"code":"moscow"}],"allowsRemote":true}}]}}},"context":{}}