{"hash":"f34fd2c444a074f4e0e67d525015a008ef8e766f","data":{"records":{"id":"jenkins","name":"jenkins","belongsTo":{"totalCount":56,"pageInfo":{"totalPages":6,"currentPage":4},"edges":[{"node":{"__typename":"Job","id":"1391460352-1001091028994","title":"Java разработчик","text":"#вакансия #java #javadeveloper #spring #kotlin\n\nГород и адрес офиса: Москва, Преображенская площадь\nФормат работы: в офисе\nЗанятость: фулл тайм\nЗарплатная вилка: 3000$ - 4000$/month\nНазвание компании: крупный банк\n\nРазрабатываем платформу мобильного и интернет-банка (дистанционный банкинг) на основе микросервисов в современном стеке технологий, которые мы выбираем сами. \n\nТЕХНОЛОГИЧЕСКИЙ СТЕК:\n ⁃ ЯП и фреймворки: Java 8/11, Kotlin (по желанию), Spring Boot, Apache Camel.\n ⁃ Хранилища и очереди: Redis, Apache Cassandra, Oracle 12, ActiveMQ, IBM WS MQ.\n ⁃ DevOps & CI: Apache Maven, Jenkins, GitLab, Docker + Kubernetes (внедряем сейчас).\n ⁃ Мониторинг: Elasticsearch, Logstash, Kibana, Sentry (внедряем сейчас), Zabbix.\n\nЧТО ВЫ БУДЕТ ДЕЛАТЬ:\n ⁃ Разрабатывать микросервисы платформы дистанционного банкинга.\n ⁃ Разрабатывать интеграцию мобильного приложения и веб- приложения с сервисами платформы и другими системами Банка.\n ⁃ Разрабатывать архитектурные схемы сервисов и выбирать технологии для решения новых и нетривиальных задач (вместе с архитектором и аналитиком).\n ⁃ Выполнять ревью кода, написанного другими разработчиками, и обучать начинающих разработчиков. \n\nЧТО ПРЕДЛАГАЕМ:\n ⁃ Удобный график работы (плавающее начало рабочего дня);\n ⁃ Комфортный офис класса «А» в 1-й минуте от метро (офис доступен 24/7; open-space, в котором сидят только команды разработки);\n ⁃ Привлекательная система оплаты труда - оклад + ежеквартальные премии + годовой бонус;\n ⁃ Работа в scrum-командах по 6-8 человек, 2-х недельные спринты, демократия и самоорганизация + наличие удаленного доступа;\n ⁃ Обучение внутреннее и внешнее, регулярно проходят митаппы. Мы посещаем ключевые отраслевые конференции;\n ⁃ Профессиональное развитие и карьерный рост;\n ⁃ ДМС и многочисленные скидки и бонусы от партнеров (от каршеринга до ипотеки).\nРезюме можно отправить на почту: a.dorogavtseva@gmail.com, @Dorogavtseva","markup":[{"type":"hashtag","offset":0,"length":9,"data":"вакансия"},{"type":"hashtag","offset":10,"length":5,"data":"java"},{"type":"hashtag","offset":16,"length":14,"data":"javadeveloper"},{"type":"hashtag","offset":31,"length":7,"data":"spring"},{"type":"hashtag","offset":39,"length":7,"data":"kotlin"},{"type":"link","offset":1859,"length":24,"data":"mailto:a.dorogavtseva@gmail.com"},{"type":"handle","offset":1885,"length":13,"data":"Dorogavtseva"}],"date":"2020-03-27T09:07:26+00:00","link":"tg://resolve?domain=jvmjobs&post=1327","tags":[{"name":"java"},{"name":"jvm"},{"name":"spring"},{"name":"kotlin"},{"name":"apache"},{"name":"redis"},{"name":"cassandra"},{"name":"oracle"},{"name":"maven"},{"name":"jenkins"},{"name":"gitlab"},{"name":"docker"},{"name":"kubernetes"},{"name":"elasticsearch"},{"name":"logstash"},{"name":"spring-boot"},{"name":"apache-camel"}],"cities":[{"code":"moscow"}],"allowsRemote":true}},{"node":{"__typename":"Job","id":"1385168896-1001091028994","title":"Java разработчик","text":"#backend #java #senior #middle #javaEE\nКомпания: #Сбербанк\nЛокация: #Москва #бцчайка\nЗ/п: 220 000 - 270 000 net + бонус \nКонтакты: @nas_vas , +79234620351\n\nМы разрабатываем  новую систему Argus – это фронт-система для работы банковских сотрудников, участвующих в процессах корпоративного кредитования, предоставляющая сервисы по риск-инструментам, и являющаяся мастер-системой по хранению риск-метрик корпоративного сектора. У нас 8 продуктовых команд, порядка 5000 пользователей, 30-50 тысяч расчетов в неделю.\nНаш тех.стек: ОС - Centos , Red Hat; СП – IBM Websphere AppServer , Wildfly; СУБД Oracle, PostgreSQL\nУправление требованиями: Jira, Confluenсe + Jenkins, Ansible, Git (Bitbucket). \nТехнологии и инструменты разработки:\n• Сервер приложения - WS\n• СУБД Оракл\n• Java 8, \n• Управление требованиями: Jira, Confluenсe\n• DevOps: Jenkins, Nexus \n\nКлючевые навыки:\n• Опыт работы с ОС Linux, СУБД Oracle;\n• Языки программирования Java EE, sql;\n• Опыт работы с многопоточностью\n• Опыт написания unit-тестов.","markup":[{"type":"hashtag","offset":0,"length":8,"data":"backend"},{"type":"hashtag","offset":9,"length":5,"data":"java"},{"type":"hashtag","offset":15,"length":7,"data":"senior"},{"type":"hashtag","offset":23,"length":7,"data":"middle"},{"type":"hashtag","offset":31,"length":7,"data":"javaEE"},{"type":"hashtag","offset":49,"length":9,"data":"Сбербанк"},{"type":"hashtag","offset":68,"length":7,"data":"Москва"},{"type":"hashtag","offset":76,"length":8,"data":"бцчайка"},{"type":"handle","offset":131,"length":8,"data":"nas_vas"},{"type":"link","offset":142,"length":12,"data":"tel:+79234620351"}],"date":"2020-03-25T15:11:49+00:00","link":"tg://resolve?domain=jvmjobs&post=1321","tags":[{"name":"java"},{"name":"jvm"},{"name":"dotnet"},{"name":"centos"},{"name":"oracle"},{"name":"postgresql"},{"name":"jenkins"},{"name":"ansible"},{"name":"git"},{"name":"linux"},{"name":"sql"}],"cities":[{"code":"moscow"}],"allowsRemote":false}},{"node":{"__typename":"Job","id":"1384120320-1001091028994","title":"Java разработчик","text":"#java #офис # Москва \nГород: Москва\nФормат работы: офис\nЗанятость: полная занятость, постоянная работа\nЗарплата:  от 200 до 280 на руки (+ есть годовой бонус)\nМы молодая команда внутри Сбербанка, занимаемся разработкой и внедрением нового мобильного приложения Сбербанк Инвестор, которое должно вывести из эксплуатации текущее решение для инвестиций от Сбербанка.\n\nОбязанности:\n\n- Проектирование архитектуры приложения;\n- Проектирование интерфейсов взаимодействия между компонентами системы и внешними системами;\n- Проектирование хранилища данных;\n- Разработка и поддержка приложений на Java;\n- Написание unit-тестов, проведение code review;\n- Подготовка документации.\n\nТребования:\n\n- Широкий технический кругозор в современных информационных технологиях;\n- Знание технологий и методов интеграции информационных систем;\n- Знание и опыт применения средств масштабирования и отказоустойчивости;\n- Опыт разработки приложений на Java от трех лет;\n- Опыт разработки приложений с использованием Spring / Spring Boot;\n- Опыт работы с DevOps инструментами (jenkins, ansible, maven, gradle, git, etc.);\n- Знание PL/pgSQL или PL/SQL.\n\nКомпания: Сбербанк\nВопросы можно задать тут @vsevkosmo","markup":[{"type":"hashtag","offset":0,"length":5,"data":"java"},{"type":"hashtag","offset":6,"length":5,"data":"офис"},{"type":"handle","offset":1169,"length":10,"data":"vsevkosmo"}],"date":"2020-03-25T15:00:25+00:00","link":"tg://resolve?domain=jvmjobs&post=1320","tags":[{"name":"java"},{"name":"jvm"},{"name":"spring"},{"name":"jenkins"},{"name":"ansible"},{"name":"maven"},{"name":"gradle"},{"name":"git"},{"name":"sql"},{"name":"spring-boot"}],"cities":[{"code":"moscow"}],"allowsRemote":false}},{"node":{"__typename":"Job","id":"1935671296-1001134745498","title":"Devops инженер","text":"#вакансия #fulltime #офис #kotlin #android #питер\n\nВсем привет!\n\nИщем Инженера Android инфраструктуры в офис, в Питер.\n\nВилка: 150к - 200к руб (но можно обсуждать исходя из опыта)\n\nМы пролуктовая финтех компания. Наши партнеры — крупные торговые сети и банки страны: Спортмастер, X5 Retail Group, Adidas Group, О’КЕЙ, Альфа банк, МТС банк, Тинькофф банк и многие другие.\n\nМы ищем мобильного инженера в инфраструктурную часть core команды. Данная позиция подходит для специалиста с опытом в мобильном девопсе. Основная часть работы будет связана с тем, чтобы помогать остальной мобильной команде повышать автоматизацию, для ускорения скорости создания и тестирования новых фич. Дополнительно в работу будет входить всё что связано с мониторингом, автоматическими проверками и автоматизацией в целом. Ищем изначально любознательного человека, который на определенном этапе сможет помогать в сборе бэклога для инфраструктурной команде и активно предлагать идеи.\n\nЧем предстоит заниматься:\n\n- На первых этапах есть описанный бэклог требований, что необходимо реализовать для развития инфраструктуры - CI/CD, интеграций с JIRA/Slack, и т.д. В дальнейшем предстоит помогать формировать данный бэклог, помогая остальной команде и решая их запросы;\n- Создавать автоматические проверки и подключать системы мониторинга;\n- Создавать CI/CD и отвечать за инфраструктуру;\n- Улучшать время сборки и стабильность билдов;\n- Администрировать Google Developer Console + Firebase;\n- Автоматизировать ручные задачи.\n\nТребования:\n\n- Опыт работы Android разработчиком;\n- Опыт работы с Gradle;\n- Опыт работы с CI/CD такими как Jenkins/TeamCity/Bitrise/Gitlab;\n- Опыт работы с Fastlane;\n- Опыт работы и интеграции с системами контроля версий (у нас Gitlab);\n- Опыт публикации приложений. Опыт администрирования Google Developer Console + Firebase.\n\nБудет плюсом:\n\n- Опыт работы с Upsource - используется для code review;\n- Опыт работы с Docker;\n- Опыт интеграции таких тулзов как SonarQube;\n- Опыт работы над платформенными задачами или в core команде;\n- Опыт работы с UI тестами;\n- Опыт работы с *nix консолью использования и скриптовых языков.\n\nМы предлагаем:\n\n- Участие в развитии полезного и популярного приложения, возможность сделать мир лучше;\n- Оформление по ТК РФ с первого дня работы, конкурентная белая зарплата, ДМС;\n- Оплату мобильной связи, частичную компенсацию оплаты питания;\n- Гибкий график работы;\n- Помощь с переездом для кандидатов из других городов (welcome бонус);\n- Оплата профильных курсов и конференций;\n- Два раза в неделю в офисе занятия йогой;\n- Командные мероприятия и приятные коллеги;\n- Комфортный офис в центре города (5 минут от станции метро Чкаловская). \n\nВопросы и отклики: @Alex_Korm\n\n—\n\n👉 Обсуждение вакансии в чате @devops_jobs","markup":[{"type":"hashtag","offset":0,"length":9,"data":"вакансия"},{"type":"hashtag","offset":10,"length":9,"data":"fulltime"},{"type":"hashtag","offset":20,"length":5,"data":"офис"},{"type":"hashtag","offset":26,"length":7,"data":"kotlin"},{"type":"hashtag","offset":34,"length":8,"data":"android"},{"type":"hashtag","offset":43,"length":6,"data":"питер"},{"type":"handle","offset":2687,"length":10,"data":"Alex_Korm"},{"type":"handle","offset":2732,"length":12,"data":"devops_jobs"}],"date":"2020-03-24T11:27:13+00:00","link":"tg://resolve?domain=devops_jobs_feed&post=1846","tags":[{"name":"kotlin"},{"name":"android"},{"name":"firebase"},{"name":"gradle"},{"name":"jenkins"},{"name":"gitlab"},{"name":"docker"},{"name":"sonarqube"}],"cities":[],"allowsRemote":false}},{"node":{"__typename":"Job","id":"1933574144-1001134745498","title":"Devops инженер","text":"#devops  #middle  #senior #вакансия\n\nВсем добрый вечер\n\nЯ ищу Ведущего devops / системного инженера в компанию,  которая занимается разработкой системного интегратора ПО в области виртуализации и облачных технологий.\n\nЧто хотят:\nЖелательно - высшее профильное образование и соответствующий опыт работы от 3-5 лет\nОС: Linux, Unix\nCI/CD: Jenkins, Teamcity, Travis и аналоги\nКонтейнеры: Docker\nВеб-сервисы: Ngnix, UWSGI\nМониторинг/алертинг: AppDynamics, Nagios, Zabbix etc.\nОпыт администрирования реплицированных СУБД (PostgreSQL или MariaDB, MongoDB)\nОпыт работы с elasticsearch/logstash/kibana\nAnsible, Salt\nОпыт администрирования облачных серверов (например - под платформами Amazon EC2, GoogleCloud, VmWare vSphere, OpenStack или прочих)\n\nПлюсами будут:\nустановка/обслуживание - Reverse Proxy (Nginx …), caсhing\nserver (Squid, Nginx etc.)\nустановка/обслуживание - load balancer (HAProxy, Nginx, etc.)\nBash Scripts.\nProcess Monitoring: ps, top, htop, atop, .. etc\nSystem Performance: nmon, iostat, sar, vmstat etc\nNetworking: nmap, tcpdump, ping, traceroute, airmon, etc.\nkubernetes/docker swarm\n\nОсновные обязанности:\nРазвертка контуров (dev, qas, prod)\nPerformance тестирование, нагрузочное тестирование\nСборка и обновление из репозиториев\nПоиск и устранение проблем\n\nЧто дают:\nХорошая ЗП. от 120 000 руб. до 200.000 по результатам собеседования.\nВозможна удаленная работа \nТак же есть возможность работы в офисе.\nг. Москва Сколково, возможна работа из офиса в г. Санкт-Петербурге и г Нижний Новогород (ул Грузинская).\n\nКомпания: http://asdtech.co/\n\nКонтакты: @mayke_kin\n\n—\n\n👉 Обсуждение вакансии в чате @devops_jobs","markup":[{"type":"hashtag","offset":0,"length":7,"data":"devops"},{"type":"hashtag","offset":9,"length":7,"data":"middle"},{"type":"hashtag","offset":18,"length":7,"data":"senior"},{"type":"hashtag","offset":26,"length":9,"data":"вакансия"},{"type":"link","offset":1532,"length":18,"data":"http://asdtech.co/"},{"type":"handle","offset":1562,"length":10,"data":"mayke_kin"},{"type":"handle","offset":1607,"length":12,"data":"devops_jobs"}],"date":"2020-03-24T04:12:20+00:00","link":"tg://resolve?domain=devops_jobs_feed&post=1844","tags":[{"name":"linux"},{"name":"unix"},{"name":"jenkins"},{"name":"docker"},{"name":"postgresql"},{"name":"mariadb"},{"name":"mongodb"},{"name":"elasticsearch"},{"name":"logstash"},{"name":"ansible"},{"name":"nginx"},{"name":"bash"},{"name":"kubernetes"}],"cities":[{"code":"moscow"}],"allowsRemote":true}},{"node":{"__typename":"Job","id":"1932525568-1001134745498","title":"Devops инженер","text":"#вакансия #jenkins #aws #украина #беларусь #прибалтика #remote #удалёнка\nкомпания s-o-services\nФормат - remote\nз\\п 5к-6к$ gross\nУвы гражданам России, живущим в РФ - вакансия недоступна.\nHere's some of the tech we use in DevOps.\n\n- jenkins экспертное знание\n- ansible\n- gradle (some maven) понимане логов сборок и умение чётко рассказать программисту что пошло не так\n- java тюнинг, хорошее понимание работы gc(чем отличается cms от g1 и от zgc, и когда лучше взять zulu? а когда openjdk?), что и когда тюнить в jvm, настройка логов и их тюнинг\n- groovy обязателен\n- HashiCorp vault\n- AWS infrastructure, понимание ценообразования, трафика и днс, стоимости i\\o и особенностей rds\n- drone\n- cri-o/containerd\n- prometheus, grafana, elk, datadog\n- upper-intermediate English обязателен\nконтакты @erzentd\n\n—\n\n👉 Обсуждение вакансии в чате @devops_jobs","markup":[{"type":"hashtag","offset":0,"length":9,"data":"вакансия"},{"type":"hashtag","offset":10,"length":8,"data":"jenkins"},{"type":"hashtag","offset":19,"length":4,"data":"aws"},{"type":"hashtag","offset":24,"length":8,"data":"украина"},{"type":"hashtag","offset":33,"length":9,"data":"беларусь"},{"type":"hashtag","offset":43,"length":11,"data":"прибалтика"},{"type":"hashtag","offset":55,"length":7,"data":"remote"},{"type":"hashtag","offset":63,"length":9,"data":"удалёнка"},{"type":"handle","offset":791,"length":8,"data":"erzentd"},{"type":"handle","offset":834,"length":12,"data":"devops_jobs"}],"date":"2020-03-23T14:06:57+00:00","link":"tg://resolve?domain=devops_jobs_feed&post=1843","tags":[{"name":"jenkins"},{"name":"amazon-web-services"},{"name":"ansible"},{"name":"gradle"},{"name":"maven"},{"name":"java"},{"name":"jvm"},{"name":"groovy"}],"cities":[],"allowsRemote":true}},{"node":{"__typename":"Job","id":"1931476992-1001134745498","title":"Devops инженер","text":"#вакансия #Москва #фултайм #Экспресс42 #инженер\nГород: Москва\nКомпания: Экспресс 42\nФормат работы: офис\nЗанятость: полная\nЗарплата: от 120 000 до 200 000 рублей на руки\n\nМы небольшая команда, которая легко проводит эксперименты и быстро принимает решения. Мы делаем проекты по постановке практик DevOps, обучению DevOps практикам в технологических компаниях и корпоративном секторе.\nВ составе нашей команды тебя ждут разнообразные задачи по созданию и улучшению решений, обеспечивающих процессы разработки и эксплуатации цифровых продуктов наших клиентов. \nМы строим высокодоступную и удобную инфраструктуру, изучаем новые подходы и помогаем нашим клиентом с внедрением и адаптацией инженерных практик, таких как Непрерывная поставка, Инфраструктура как код, Централизованное логирование. \nИнструменты выбираем под задачу и потребности клиентов, среди основных, которые точно нужно знать: Kubernetes и его экосистема, Ansible, Terraform, CI-сервисы, системы контроля версий, облачные решения от разных провайдеров.\n\nМы ожидаем от тебя:\n— знание практик и инструментов логирования и мониторинга;\n— опыт описания инфраструктуры в виде кода (Ansible, Terraform, etc);\n— понимание процесса CI/CD;\n— слова Kubernetes, Prometheus, Jenkins, Gitlab, ELK, AWS, GCP не вызывают изумления, а заставляют трепетать нежное сердце инженера\n\nКлассно, если у тебя есть опыт эксплуатации веб-проектов в продакшене. И если при этом ты можешь похвастаться опытом применения нескольких перечисленных инструментов, то тебе точно нужно в Экспресс.\n\nУ нас действительно огненная команда. Мы вместе работаем, общаемся, ходим в бары, посещаем ивенты, организовываем внутренние хакатоны, готовим друг друга к выступлениям на конференциях, поддерживаем и болеем за наше общее дело.\nУ нас классно! Присоединяйся!\n\nКонтакты: Рушана @razrushana и rushana@express42.com\n\n—\n\n👉 Обсуждение вакансии в чате @devops_jobs","markup":[{"type":"hashtag","offset":0,"length":9,"data":"вакансия"},{"type":"hashtag","offset":10,"length":7,"data":"Москва"},{"type":"hashtag","offset":18,"length":8,"data":"фултайм"},{"type":"hashtag","offset":27,"length":11,"data":"Экспресс42"},{"type":"hashtag","offset":39,"length":8,"data":"инженер"},{"type":"handle","offset":1802,"length":11,"data":"razrushana"},{"type":"link","offset":1816,"length":21,"data":"mailto:rushana@express42.com"},{"type":"handle","offset":1872,"length":12,"data":"devops_jobs"}],"date":"2020-03-23T13:34:20+00:00","link":"tg://resolve?domain=devops_jobs_feed&post=1842","tags":[{"name":"kubernetes"},{"name":"ansible"},{"name":"jenkins"},{"name":"gitlab"},{"name":"amazon-web-services"},{"name":"google-cloud-platform"},{"name":"express"}],"cities":[{"code":"moscow"}],"allowsRemote":false}},{"node":{"__typename":"Job","id":"1930428416-1001134745498","title":"Devops инженер","text":"#вакансия #Москва #офис #полная занятость\nБанк ВТБ (ПАО) ищет DevOps инженера в отдел внедрения\nФормат работы: #офис #полнаязанятость\n\nЗадачи: \n👉разработка скриптов автоматизированного развертывания ПО на контурах банка;\n👉автоматизации процессов администрирования;\n👉владение новых подходов разработки автоматизации. \n\nТребования:\n👉опыт работы DevOps инженером от 2х лет;\n👉опыт работы с Git, Bitbucket;\n👉выстраивание процессов CI/CD с помощью Jenkins, Gitlab CI и TeamCity;\n👉экспертные навыки написания скриптов bash, powershell, python;\n👉 администрирование linux/unix, windows;\n👉  владение Ansible и Groovy;\n👉  опыт работа с Rest API, SOAP;\n👉 опыт работы с MsSQL Oracle, PostrgeSQL;\n👉 наличие опыта автоматизации бизнес-процессов и рутинных операций;\n👉  знание инструментов микросервисной архитектуры.\n \nУсловия:\n👉офис м.Алексеевская;\n👉заработная плата от 180 000 до 240 000;\n👉ДМС, спортивная жизнь;\n👉проффесиональное обучение и развитие.\n\nБолее подробно о вакансиях можно узнать у меня. Мои контакты @Nchugreeva\n+7 9264549707\nChugreeva@vtb.ru\n\n—\n\n👉 Обсуждение вакансии в чате @devops_jobs","markup":[{"type":"hashtag","offset":0,"length":9,"data":"вакансия"},{"type":"hashtag","offset":10,"length":7,"data":"Москва"},{"type":"hashtag","offset":18,"length":5,"data":"офис"},{"type":"hashtag","offset":24,"length":7,"data":"полная"},{"type":"hashtag","offset":111,"length":5,"data":"офис"},{"type":"hashtag","offset":117,"length":16,"data":"полнаязанятость"},{"type":"handle","offset":1018,"length":11,"data":"Nchugreeva"},{"type":"link","offset":1030,"length":13,"data":"tel:+7 9264549707"},{"type":"link","offset":1044,"length":16,"data":"mailto:Chugreeva@vtb.ru"},{"type":"handle","offset":1095,"length":12,"data":"devops_jobs"}],"date":"2020-03-23T13:20:40+00:00","link":"tg://resolve?domain=devops_jobs_feed&post=1841","tags":[{"name":"git"},{"name":"jenkins"},{"name":"gitlab"},{"name":"bash"},{"name":"powershell"},{"name":"python"},{"name":"linux"},{"name":"unix"},{"name":"windows"},{"name":"ansible"},{"name":"groovy"},{"name":"rest"},{"name":"soap"},{"name":"sql-server"},{"name":"oracle"}],"cities":[{"code":"moscow"}],"allowsRemote":false}},{"node":{"__typename":"Job","id":"1926234112-1001134745498","title":"Devops инженер","text":"#вакансия #Москва #devops #полнаязанятость \n\nИщем DevOps в команду по разработке платежной системы\n\nЗп: до 150-200 т.р.(обсуждаемо)\nТребуемый опыт работы: 3–6 лет\nПолная занятость, полный день\n\nЕсли тебе интересны задачи по контейнерам и автоматизации, и для тебя такие аббревиатуры как DevOps, IaaC, SCM, PaaS, AWS, K8S, VCS, RegExp - не пустой звук, то тебе к нам!\n\nМы занимаемся разработкой платежной системы.\nМы совместили технические инновации и надежность классических финансовых институтов чтобы создавать удобные и полезные цифровые финансовые продукты для жизни, работы и бизнеса.\nМы создаем высокотехнологичные, надежные инструменты по управлению финансами, полностью регламентированы законами ЕС, а значит средства наших клиентов и персональные данные находятся в безопасности.\n\nС нами работают уже более 80-ти молодых, талантливых и амбициозных специалистов, которые каждый день создают передовые технологии вместе с нами!\n\nЗадачи:\n 1-Обеспечение бесперебойной работы серверов и приложений Компании (не менее 99.9% доступности);\n 2-Разработка и поддержка Docker-контейнеров приложений и оркестрация микросервисов с использованием Kubernetes;\n 3-CI/CD pipelining;\n 4-Развитие и поддержка мониторинга доступности сервисов Компании;\n 5-Автоматизация развертывания новых сервисов и управление конфигурациями;\n\nТочно нужно:\n 1-Знание Linux(Debian-based, RedHat-based) – мы ждем администраторов;\n 2-Nginx;\n 3-Docker– разработка образов контейнеров;\n 4-Bash,Python– написание скриптов автоматизации;\n 5-Teamcity(GitlabCI, Jenkins) – реализация CI/CDpipeline;\n 6-Git;\n 7-Puppet (Chef, Ansible, Salt) – разработка своих модулей, модификация существующих;\n\nДополнительным преимуществом будет:\n 1-Если Вы создавали кластеры на Kubernetes и настраивали в них сетевую подсистему;\n 2-Если Вы знакомы с Helm;\n 3-Работали с Prometheus;\n 4-Готовили vSphere (VCSA HA, advanced networking);\n 5-Слышали о Foreman;\n 6-Использовали регулярные выражения;\n 7-Использовали Hiera;\nУсловия:\n 1-Возможность выбрать время начала работы (с 8:00/9:00/10:00);\n 2-Современный, просторный офис;\n 3-Современный рабочий компьютер (16 GBRAM, SSD), удобное рабочее место;\n 4-Комфортная кухонная зона для кофе-брейков, зона отдыха, PS4 PRO +VR;\n 5-Возможность выбрать на чем работать: Windows/Linux\nА еще:\n 1-ДМС по окончанию испытательного срока;\n 2-Корпоративные курсы по изучению Английского языка;\n 3-Компенсация расходов на питание по картам Obed.ru;\n 4-Компенсация расходов на спорт, внутри БЦ World Trade Center;\n\nKA RedCode\nКонтакты: @dmitry_demyanov\n\n—\n\n👉 Обсуждение вакансии в чате @devops_jobs","markup":[{"type":"hashtag","offset":0,"length":9,"data":"вакансия"},{"type":"hashtag","offset":10,"length":7,"data":"Москва"},{"type":"hashtag","offset":18,"length":7,"data":"devops"},{"type":"hashtag","offset":26,"length":16,"data":"полнаязанятость"},{"type":"link","offset":2420,"length":7,"data":"http://Obed.ru"},{"type":"handle","offset":2515,"length":16,"data":"dmitry_demyanov"},{"type":"handle","offset":2566,"length":12,"data":"devops_jobs"}],"date":"2020-03-23T07:48:35+00:00","link":"tg://resolve?domain=devops_jobs_feed&post=1837","tags":[{"name":"amazon-web-services"},{"name":"docker"},{"name":"kubernetes"},{"name":"linux"},{"name":"debian"},{"name":"nginx"},{"name":"bash"},{"name":"python"},{"name":"jenkins"},{"name":"git"},{"name":"ansible"},{"name":"windows"}],"cities":[{"code":"moscow"}],"allowsRemote":false}},{"node":{"__typename":"Job","id":"1924136960-1001134745498","title":"Devops инженер","text":"#devops  #middle  #senior #вакансия\n\nВсем добрый вечер\n\nЯ ищу Ведущего devops / системного инженера в компанию,  которая занимается разработкой системного интегратора ПО в области виртуализации и облачных технологий.\n\nЧто хотят:\nЖелательно - высшее профильное образование и соответствующий опыт работы от 3-5 лет\nОС: Linux, Unix\nCI/CD: Jenkins, Teamcity, Travis и аналоги\nКонтейнеры: Docker\nВеб-сервисы: Ngnix, UWSGI\nМониторинг/алертинг: AppDynamics, Nagios, Zabbix etc.\nОпыт администрирования реплицированных СУБД (PostgreSQL или MariaDB, MongoDB)\nОпыт работы с elasticsearch/logstash/kibana\nAnsible, Salt\nОпыт администрирования облачных серверов (например - под платформами Amazon EC2, GoogleCloud, VmWare vSphere, OpenStack или прочих)\n\nПлюсами будут:\nустановка/обслуживание - Reverse Proxy (Nginx …), caсhing\nserver (Squid, Nginx etc.)\nустановка/обслуживание - load balancer (HAProxy, Nginx, etc.)\nBash Scripts.\nProcess Monitoring: ps, top, htop, atop, .. etc\nSystem Performance: nmon, iostat, sar, vmstat etc\nNetworking: nmap, tcpdump, ping, traceroute, airmon, etc.\nkubernetes/docker swarm\n\nОсновные обязанности:\nРазвертка контуров (dev, qas, prod)\nPerformance тестирование, нагрузочное тестирование\nСборка и обновление из репозиториев\nПоиск и устранение проблем\n\nЧто дают:\nХорошая ЗП. от 120 000 руб. до 200.000 по результатам собеседования.\nВозможна удаленная работа \nТак же есть возможность работы в офисе.\nг. Москва Сколково, возможна работа из офиса в г. Санкт-Петербурге и г Нижний Новогород (ул Грузинская).\n\nКомпания: http://asdtech.co/\n\nКонтакты: @mayke_kin\n\n—\n\n👉 Обсуждение вакансии в чате @devops_jobs","markup":[{"type":"hashtag","offset":0,"length":7,"data":"devops"},{"type":"hashtag","offset":9,"length":7,"data":"middle"},{"type":"hashtag","offset":18,"length":7,"data":"senior"},{"type":"hashtag","offset":26,"length":9,"data":"вакансия"},{"type":"link","offset":1532,"length":18,"data":"http://asdtech.co/"},{"type":"handle","offset":1562,"length":10,"data":"mayke_kin"},{"type":"handle","offset":1607,"length":12,"data":"devops_jobs"}],"date":"2020-03-21T19:32:19+00:00","link":"tg://resolve?domain=devops_jobs_feed&post=1835","tags":[{"name":"linux"},{"name":"unix"},{"name":"jenkins"},{"name":"docker"},{"name":"postgresql"},{"name":"mariadb"},{"name":"mongodb"},{"name":"elasticsearch"},{"name":"logstash"},{"name":"ansible"},{"name":"nginx"},{"name":"bash"},{"name":"kubernetes"}],"cities":[{"code":"moscow"}],"allowsRemote":true}}]}}},"context":{}}