{"hash":"f5f6bf98bd95e769321482904cbbd488f77922fd","data":{"records":{"id":"git","name":"git","belongsTo":{"totalCount":273,"pageInfo":{"totalPages":28,"currentPage":23},"edges":[{"node":{"__typename":"Job","id":"102969114624-1001089317451","title":"Qa engineer","text":"#Москва #вакансия #QA #ручное тестирование #тестировщик #manual  #python\n\nДолжность: QA Engineer \nКомпания: Get IT, Москва\nЗП: до 120 000 \nФормат работы: офис, гибкое начало дня\nЗанятость: полная\n\n☘️Задачи:\n- Тестирование ERP-системы;\n- Создание тест-кейсов, чек-листов и т.д. \n\n☘️Ожидания:\n- Понимание жизненного цикла разработки продукта\n- Знание теории и видов тестирования,  умение вести тестовую документацию;\n- Умение локализовать баги и оформлять баг репорты\n- Понимание и умение применять техники тест-дизайна\n- Тестирование API\n- Опыт использование Postman\n- Понимание мобильного тестирования \n- Знание и умение пользования командной строкой UNIX\n- Знание SQL (простые запросы), Git\n- Умение использовать снифферы (Charles,Fiddler и т.д.)\n- Опыт работы 1-3 года\nЖелательно:\n- Умение работать с Docker\n- Python\n\n☘️Предлагаем:\n- белая зп (до 120 000, зависит от опыта);\n- офис в центре Москвы;\n- ДМС,  курсы английского, участие в конференциях. \n\nКонтакт: @Olga11019","markup":[{"type":"hashtag","offset":0,"length":7,"data":"Москва"},{"type":"hashtag","offset":8,"length":9,"data":"вакансия"},{"type":"hashtag","offset":18,"length":3,"data":"QA"},{"type":"hashtag","offset":22,"length":7,"data":"ручное"},{"type":"hashtag","offset":43,"length":12,"data":"тестировщик"},{"type":"hashtag","offset":56,"length":7,"data":"manual"},{"type":"hashtag","offset":65,"length":7,"data":"python"},{"type":"handle","offset":963,"length":10,"data":"Olga11019"}],"date":"2020-06-16T16:53:06+00:00","link":"tg://resolve?domain=qa_jobs&post=0","tags":[{"name":"qa"},{"name":"python"},{"name":"unix"},{"name":"sql"},{"name":"git"},{"name":"docker"}],"cities":[{"code":"moscow"}],"allowsRemote":false}},{"node":{"__typename":"Job","id":"91035271168-1001067529236","title":"Python разработчик","text":"#вакансия #python\n\nНазвание компании: Appello, appello.com.au\nОписание вакансии: Ищем в команду Python разработчика, Django/Flask. Удаленно, на долгий срок.\n\n-Опыт работы с Python 3, Django REST Framework (DRF);\n-Знание MySQL/PostgreSQL;\n-Конечно же Git;\n-Знание других технологий будет плюсом (NodeJS, RoR, Symfony или другое);\n-Круто если вы участвовали в open-source проектах;\n-Ссылки на выполненные проекты и примеры вашего кода;\n-Возможность работать 30+ часов в неделю;\n\nУсловия работы: \nУдаленно, фуллтайм 30-40 часов в неделю.\nРабота происходит с таймтрекером. Выплаты на основе отработанного времени 2 раза в месяц.\nТехнологии: #python, #django\nОфис или удаленка: #удаленка\nЗанятость: #полная\n\nЗарплатная вилка: 1100-1900$\nКонтакты: jobs@appello.com.au @stpa3k","markup":[{"type":"hashtag","offset":0,"length":9,"data":"вакансия"},{"type":"hashtag","offset":10,"length":7,"data":"python"},{"type":"link","offset":47,"length":14,"data":"http://appello.com.au"},{"type":"hashtag","offset":637,"length":7,"data":"python"},{"type":"hashtag","offset":646,"length":7,"data":"django"},{"type":"hashtag","offset":673,"length":9,"data":"удаленка"},{"type":"hashtag","offset":694,"length":7,"data":"полная"},{"type":"link","offset":742,"length":19,"data":"mailto:jobs@appello.com.au"},{"type":"handle","offset":762,"length":7,"data":"stpa3k"}],"date":"2020-06-16T16:26:20+00:00","link":"tg://resolve?domain=python_jobs&post=0","tags":[{"name":"python"},{"name":"django"},{"name":"flask"},{"name":"rest"},{"name":"mysql"},{"name":"postgresql"},{"name":"git"},{"name":"nodejs"},{"name":"ruby-on-rails"},{"name":"symfony"}],"cities":[],"allowsRemote":true}},{"node":{"__typename":"Job","id":"71412219904-1001054966032","title":"Ios developer","text":"#УДАЛЕНКА #вакансия #Москва #reactnative #senior #iOS #гибкийграфик #GBP  #vacancy #startup #Sweatcoin \n☀️Всем привет! Ищу к нам в команду Senior iOS Developer в #Sweatcoin - №1 in Appstore среди Health&Fitness приложений \nГород Москва, м Чистые пруды/Тургеневская, возможна удаленка \nФормат работы: удаленка/офис, все как вы захотите (вы можете находиться, где угодно, главное быть на связи с 10 до 16 по Лондону) \nЗанятость: полная, гибкий график\n💷Зарплатная вилка: от 180 до 250 K RUR Net, ЗП зафиксированная в фунтах (GBP); Также оплачиваем участие в отраслевых международных конференциях, бывают командировки в Лондон и 3-х месячные вылазки зимой в Португалию всем офисом 🌅 Также в перспективе возможна релокация в Европу \nОписание вакансии: Задачи сложные и интересные, на любой вкус — космический и сложный UI, борьба с батарейкой, GPS/Sensors, защита от фрода и безопасность, ML/AI, аналитика и рост, a/b тестирование, Apple Watch и различные wearables - в общем, разнообразно. Часть проекта реализована на React Native.\n\nОт вас требуется\n* Наличие завершенного приложения, доступного в AppStore\n* Английский не ниже intermediate\n* Опыт коммерческой разработки от 3-ти лет\n* Отличное и глубокое понимание Swift, Objective-C и платформы в целом.\n* Уметь писать поддерживаемый и читабельный код, знать паттерны проектирования\n* Прекрасно владеть git, не бояться rebase, делать code review и пул реквесты\n* Будет большим плюсом, если вы знакомы с React Native или JS, а также участвуете в open-source проектах или помогаете остальным на stackoverflow\n\nНаше приложение уверенно занимает первое место в AppStore и Google Play в категории Health&Fitness в Америке и Англии, а также входит в Top 10 Overall. Количество пользователей постоянно растет (порядка 70 000 загрузок в день, за последний год выросли с 8 млн до 30 млн), сейчас приложением пользуются порядка 30 млн человек в 40 странах. Присоединяйся к глобальному проекту! \nДетали по ссылке: https://sweatco.in/team\nКонтакты: @ElenaZangeeva","markup":[{"type":"hashtag","offset":0,"length":9,"data":"УДАЛЕНКА"},{"type":"hashtag","offset":10,"length":9,"data":"вакансия"},{"type":"hashtag","offset":20,"length":7,"data":"Москва"},{"type":"hashtag","offset":28,"length":12,"data":"reactnative"},{"type":"hashtag","offset":41,"length":7,"data":"senior"},{"type":"hashtag","offset":49,"length":4,"data":"iOS"},{"type":"hashtag","offset":54,"length":13,"data":"гибкийграфик"},{"type":"hashtag","offset":68,"length":4,"data":"GBP"},{"type":"hashtag","offset":74,"length":8,"data":"vacancy"},{"type":"hashtag","offset":83,"length":8,"data":"startup"},{"type":"hashtag","offset":92,"length":10,"data":"Sweatcoin"},{"type":"hashtag","offset":162,"length":10,"data":"Sweatcoin"},{"type":"link","offset":1954,"length":23,"data":"https://sweatco.in/team"},{"type":"handle","offset":1988,"length":14,"data":"ElenaZangeeva"}],"date":"2020-06-16T14:55:34+00:00","link":"tg://resolve?domain=mobile_jobs&post=0","tags":[{"name":"mobile"},{"name":"ios"},{"name":"dotnet"},{"name":"reactjs"},{"name":"swift"},{"name":"objective-c"},{"name":"git"},{"name":"playframework"},{"name":"react-native"}],"cities":[{"code":"moscow"},{"code":"london"}],"allowsRemote":true}},{"node":{"__typename":"Job","id":"71405928448-1001054966032","title":"Android developer","text":"#вакансия #job #Android #kotlin #developer #Новосибирск #Калининград #Кострома #Екатеринбург #Питер \n\nВсем привет! \nОткрыта позиция на должность \n🔥Android Developer🔥\n\nКомпания: ТЕНЗОР (https://tensor.ru)\nЦентры мобильной разработки:\n📱Новосибирск, \n📱Калининград, \n📱Кострома, \n📱Екатеринбург,\n📱Санкт-Петербург,\n📱Севастополь\nOffice, full-time\n🔸Оформление по ТК РФ 🔸ДМС со стоматологией🔸курсы иностранных языков🔸корпоративные праздники🔸комфортный офис \nЗП: \nMiddle 110 000-180 000\nSenior 180 000-300 000 на руки\n\nЕсли ты :\n✅ знаешь Kotlin/Java и Android SDK;\n✅ понимаешь паттерны архитектуры MVP и MVVM;\n✅ имеешь опыт работы с Git, Dagger 2, RxJava;\n✅ готов совершенствовать свои умения и обучаться новому, \nто пиши нам!!!\nЖдём вопросы и резюме! \n✍️ @kseniyahr\n📨 ke.pomigueva@tensor.ru","markup":[{"type":"hashtag","offset":0,"length":9,"data":"вакансия"},{"type":"hashtag","offset":10,"length":4,"data":"job"},{"type":"hashtag","offset":15,"length":8,"data":"Android"},{"type":"hashtag","offset":24,"length":7,"data":"kotlin"},{"type":"hashtag","offset":32,"length":10,"data":"developer"},{"type":"hashtag","offset":43,"length":12,"data":"Новосибирск"},{"type":"hashtag","offset":56,"length":12,"data":"Калининград"},{"type":"hashtag","offset":69,"length":9,"data":"Кострома"},{"type":"hashtag","offset":79,"length":13,"data":"Екатеринбург"},{"type":"hashtag","offset":93,"length":6,"data":"Питер"},{"type":"link","offset":187,"length":17,"data":"https://tensor.ru"},{"type":"handle","offset":758,"length":10,"data":"kseniyahr"},{"type":"link","offset":772,"length":22,"data":"mailto:ke.pomigueva@tensor.ru"}],"date":"2020-06-16T14:17:24+00:00","link":"tg://resolve?domain=mobile_jobs&post=0","tags":[{"name":"mobile"},{"name":"android"},{"name":"kotlin"},{"name":"java"},{"name":"mvvm"},{"name":"git"}],"cities":[{"code":"novosibirsk"},{"code":"kaliningrad"},{"code":"kostroma"},{"code":"sevastopol"}],"allowsRemote":false}},{"node":{"__typename":"Job","id":"71388102656-1001054966032","title":"Ios разработчик","text":"#вакансия #iOS #developer #moscow #офис #fulltime\n\n🔸Адрес: Москва, Новокузнецкая\n🔸Формат работы: офис \n🔸Занятость: полная \n🔸ЗП: 180 000-250 000\n\n📣Middle/Senior iOS Разработчик\n\nна один из наших проектов-социальная сеть нового поколения на базе блокчейн-технологий.\n\n🔶Компания Freedom Group International \n\nЧем придётся заниматься:\n🔶Разработка нового функционала в рамках существующего приложения;\n🔶Рефакторинг и апгрейд ранее сделанного функционала\n\nЧто для этого потребуется:\n🔶Опыт разработки мобильных приложений от трех лет;\n🔶Отличные знания ООП, алгоритмов и структур данных;\n🔶Отличное знание Swift;\n🔶Знание Objective-C для правки старого кода;\n🔶Понимание REST API, взаимодействие с backend;\n🔶Опыт работы с GIT\n\nЖелательно знание следующих библиотек:\n   • RxSwift\n   • AFNetworking\n\nМы готовы предложить:\n🔷Уютный, современный офис;\n🔷Гибкий график;\n🔷Дружный коллектив и лояльное руководство;\n🔷Все плюсы работы в «белой» компании\n\n🔶Контакт для связи: @AnutaF","markup":[{"type":"hashtag","offset":0,"length":9,"data":"вакансия"},{"type":"hashtag","offset":10,"length":4,"data":"iOS"},{"type":"hashtag","offset":15,"length":10,"data":"developer"},{"type":"hashtag","offset":26,"length":7,"data":"moscow"},{"type":"hashtag","offset":34,"length":5,"data":"офис"},{"type":"hashtag","offset":40,"length":9,"data":"fulltime"},{"type":"bold","offset":312,"length":24,"data":""},{"type":"bold","offset":458,"length":26,"data":""},{"type":"bold","offset":730,"length":38,"data":""},{"type":"bold","offset":801,"length":21,"data":""},{"type":"handle","offset":972,"length":7,"data":"AnutaF"}],"date":"2020-06-16T12:00:18+00:00","link":"tg://resolve?domain=mobile_jobs&post=0","tags":[{"name":"mobile"},{"name":"ios"},{"name":"swift"},{"name":"objective-c"},{"name":"rest"},{"name":"git"}],"cities":[{"code":"moscow"}],"allowsRemote":false}},{"node":{"__typename":"Job","id":"71381811200-1001054966032","title":"Mobile разработчик","text":"Всем добрый день!\nИщем iOS разработчика (возможна удаленная работа).\n#вакансия\n#iOS developer\n#Казань #Иннополис\n#fulltime # офис или #remote\nЗанятость: полная \nЗарплатная вилка от 180-250+ net (зависит от уровня)\nКомпания: NNG\nКонтакты: @BetterCallOl\n\nWe are a world leader in the development of navigation equipment. Head office in Budapest.\nWhat would be your job? \n  •  Mobile and automotive navigation software development;\n  •  Various projects with international clients from all parts of the world;\n  •  Сooperation with PM and development teams both locally and in the Budapest office;\n  •  Design, develop, code, test and debug; own your code.\n If you have\n  •  Experience developing, testing, and releasing iOS apps;\n  •  Knowledge of Objective-C and Swift, UIKit;\n  •  Experience collaborating with designers on usability and aesthetics of apps;\n  •  Strong experience in writing and maintaining testable code and unit tests;\n  •  Experience with git-based version control systems;\n  •  Strong written and verbal communication skills in English;\nmoreover, you have any of the following: \n  •  Familiarity with JavaScript;\n  •  Familiarity with Flutter;\n  •  Experience in Agile development, especially SaFE and SCRUM;\n  You will make quite an impression on us! \nWhat can we give you in return? \n  •  A job at a successful global company;\n  •  Serious professional challenges;\n  •  A secure and well-paid job;\n  •  The opportunity to develop the navigation software of the future in the present;\n  •  Сompensation for rental flat;\n  •  The opportunity of working abroad for several weeks.\n\nКонтакты: @BetterCallOl","markup":[{"type":"hashtag","offset":69,"length":9,"data":"вакансия"},{"type":"hashtag","offset":79,"length":4,"data":"iOS"},{"type":"hashtag","offset":94,"length":7,"data":"Казань"},{"type":"hashtag","offset":102,"length":10,"data":"Иннополис"},{"type":"hashtag","offset":113,"length":9,"data":"fulltime"},{"type":"hashtag","offset":134,"length":7,"data":"remote"},{"type":"handle","offset":238,"length":13,"data":"BetterCallOl"},{"type":"handle","offset":1611,"length":13,"data":"BetterCallOl"}],"date":"2020-06-16T11:39:43+00:00","link":"tg://resolve?domain=mobile_jobs&post=0","tags":[{"name":"mobile"},{"name":"ios"},{"name":"dotnet"},{"name":"objective-c"},{"name":"swift"},{"name":"uikit"},{"name":"git"},{"name":"javascript"},{"name":"flutter"}],"cities":[{"code":"kazan"},{"code":"budapest"}],"allowsRemote":true}},{"node":{"__typename":"Job","id":"2215641088-1001134745498","title":"Devops engineer","text":"#вакансия #devops #fulltime #релокация #казань #удаленка \n\nВакансия: DevOps Engineer\nКомпания: Ак Барс Цифровые Технологии.\nЛокация: Казань, возможна релокация.\nФормат работы: офис и удаленный формат.\nЗанятость: полная.\nКонтакт:@aabilova\n\nВсем привет! Мы разрабатываем цифровые продукты в сфере финтех и находимся в поисках DevOps Engineer.\n\nЗадачи:\n•Сопровождение и развитие текущей инфраструктуры проекта, поддержка тестового окружения и переноса данных между тестовыми серверами.\n•Разработка инструментов и автоматизация процессов развертывания систем, проектов и окружений, организация стабильного процесса выпуска версий продуктов.\n•Планирование архитектуры, прогноз по нагрузке.\n•Взаимодействие с разработчиками и сисадминами, координация команд по смежным областям.\n•Решение возникающих в процессе развёртывания проблем.\n\nЖелателен опыт с:\n•ОС Linux (серверные и клиентские).\n•Системы контейнеризации (мы используем RedHat OpenShift).\n•Уверенные навыки Shell-скриптинга (Bash).\n•Continious Integration (Teamcity) \\ Continious Delivery (Octopus).\n•Системы мониторинга (SCOM \\ Zabbix).\n•NoSQL СУБД (MongoDB, Redis).\n•Системы контроля версий (GIT).\n•Веб-серверы и балансировщики нагрузки (Apache \\ nginx \\ haproxy).\n•Навыки использования аналогичных по функциональности инструментов вполне допустимы, инструменты - не главное, важно понимание.\n\nБазовая экспертиза в областях:\n•ОС Windows (серверные).\n•Системы виртуализации (Vmware), системы управления (Vcenter \\ Openstack).\n•Системы управления конфигурацией (Ansible \\ Chef \\ Puppet \\ SaltStack).\n•Реляционные СУБД (SQL Server \\ Postgre \\ Mysql).\n•Agile-разработка.\n•Информационная безопасность.\n•Архитектура информационных систем.\n\nЧто предлагаем:\n•Работа в команде профессионалов из разных городов с общими интересами и разными взглядами.\n•Официальное трудоустройство, белая зарплата.\n•Программа релокации для иногородних.\n•ДМС.\n•Комфортный офис (кухня, зоны отдыха, X-box, бесплатные парковочные места, фрукты).\n•Профессиональное развитие и обучение (внутренние и внешние профильные мероприятия).\n•Физическое развитие (спортивная комната, скидки на занятия в фитнес-центре, футбол).\n•Зарплата -  вилка 100-150 тыс.руб., обсуждается индивидуально на интервью.\n\nКонтакт:@aabilova\n\n—\n\n👉 Обсуждение вакансии в чате @devops_jobs","markup":[{"type":"hashtag","offset":0,"length":9,"data":"вакансия"},{"type":"hashtag","offset":10,"length":7,"data":"devops"},{"type":"hashtag","offset":18,"length":9,"data":"fulltime"},{"type":"hashtag","offset":28,"length":10,"data":"релокация"},{"type":"hashtag","offset":39,"length":7,"data":"казань"},{"type":"hashtag","offset":47,"length":9,"data":"удаленка"},{"type":"handle","offset":228,"length":9,"data":"aabilova"},{"type":"handle","offset":2227,"length":9,"data":"aabilova"},{"type":"handle","offset":2271,"length":12,"data":"devops_jobs"}],"date":"2020-06-16T10:19:49+00:00","link":"tg://resolve?domain=devops_jobs_feed&post=2113","tags":[{"name":"linux"},{"name":"shell"},{"name":"bash"},{"name":"nosql"},{"name":"mongodb"},{"name":"redis"},{"name":"git"},{"name":"apache"},{"name":"nginx"},{"name":"windows"},{"name":"ansible"},{"name":"sql"},{"name":"mysql"},{"name":"sql-server"}],"cities":[{"code":"kazan"}],"allowsRemote":true}},{"node":{"__typename":"Job","id":"16968056832-1001110946746","title":"Js разработчик","text":"#вакансия #fulltime #frontend #vue #react\n\n⚫️ Junior frontend-разработчик\nФормат работы: удаленка\nЗанятость: полная\nТребуемый опыт работы: от 1 года.\nНазвание компании: Blackmagic, blackmagic.digital\nЗарплатная вилка: от 60 000 до 90 000 рублей. \n\nОписание вакансии: \n\nМы ищем Веб-программиста с опытом работы над реальными проектами. \n\nОсновная наша специализация SPA. Задачи бывают различной сложности. От поддержки проекта и выполенния разовых задач, до разработки c нуля. \n\nМы ищем ответственного человека, умеющего здраво оценивать свои силы и сроки. \n\nТребования к кандидату: \n— знания js, css, html \n— знание основ использования Git \n— знание адаптивной/резиновой верстки \n— опыт работы с любым веб-фреймворком (React/Vue) \n\nБудет большим плюсом: \n— знание Vue.js \n— знание препроцессоров (мы предпочитаем SCSS) \n— понимание Dоcker и CI/CD \n— GitLab Flow \n\nМы работает по недельным спринтам, используем GitLab. Есть ежедневные созвоны по статусу.\n\n🤙 Контакты:\nАлександр Силин\nTelegram @pushdatempo, alexander@blackmagic.digital\n\n—\n\n👉 Обсуждение вакансии в чате @javascript_jobs","markup":[{"type":"hashtag","offset":0,"length":9,"data":"вакансия"},{"type":"hashtag","offset":10,"length":9,"data":"fulltime"},{"type":"hashtag","offset":20,"length":9,"data":"frontend"},{"type":"hashtag","offset":30,"length":4,"data":"vue"},{"type":"hashtag","offset":35,"length":6,"data":"react"},{"type":"link","offset":181,"length":18,"data":"http://blackmagic.digital"},{"type":"handle","offset":993,"length":12,"data":"pushdatempo"},{"type":"link","offset":1007,"length":28,"data":"http://alexander@blackmagic.digital"},{"type":"handle","offset":1070,"length":16,"data":"javascript_jobs"}],"date":"2020-06-16T09:53:28+00:00","link":"tg://resolve?domain=javascript_jobs_feed&post=0","tags":[{"name":"javascript"},{"name":"vuejs"},{"name":"reactjs"},{"name":"css"},{"name":"html"},{"name":"git"},{"name":"gitlab"}],"cities":[],"allowsRemote":true}},{"node":{"__typename":"Job","id":"102940803072-1001089317451","title":"Qa инженер","text":"#QAинженервакансия #QAjava #автотестыjava #QAМосква #вакансияМосква #middle \nДобрый день! В настоящий момент нахожусь в поисках QА-инженера для международной аутсорсинговой компании на проект банковской сферы.\nМестоположение: Москва, м. Кутузовская, либо Нагатинская\nОплата труда: 130-160.000 рублей\nФункциональные задачи;\n•  Анализ требований\n•  Разработка автотестов на Java + Selenium\n•  Актуализация автотестов\n•  Анализ ошибок\n•  Формирование отчетов\nТребования:\n•  Опыт разработки на Java + Selenium от 2-х лет\n•  Знание инструмента Maven\n•  Знание Junit и Allure\n•  Знание XML\n•  Знание SQL (MS SQL, Oracle)\n•  Опыт работы с Git, JenkinS\n•  Опыт работы с Bug Tracking Systems (Jira, Redmine)\n•  Опыт работы с линейкой HP ALM\n•  Знание BDD (Cucumber)\nУсловия:\n•  Конкурентная заработная плата\n•  Оформление в соответствии с ТК РФ, соц. пакет\n•  Работа в команде профессионалов\n•  Обучение, наставничество в процессе работы\nБуду рада ответить на Ваши вопросы: @LyKatrin, ekaterina706712@mail.ru\n\n•","markup":[{"type":"hashtag","offset":0,"length":18,"data":"QAинженервакансия"},{"type":"hashtag","offset":19,"length":7,"data":"QAjava"},{"type":"hashtag","offset":27,"length":14,"data":"автотестыjava"},{"type":"hashtag","offset":42,"length":9,"data":"QAМосква"},{"type":"hashtag","offset":52,"length":15,"data":"вакансияМосква"},{"type":"hashtag","offset":68,"length":7,"data":"middle"},{"type":"handle","offset":965,"length":9,"data":"LyKatrin"},{"type":"link","offset":976,"length":23,"data":"mailto:ekaterina706712@mail.ru"}],"date":"2020-06-16T09:14:53+00:00","link":"tg://resolve?domain=qa_jobs&post=0","tags":[{"name":"qa"},{"name":"java"},{"name":"selenium"},{"name":"maven"},{"name":"junit"},{"name":"xml"},{"name":"sql"},{"name":"oracle"},{"name":"git"},{"name":"jenkins"},{"name":"cucumber"}],"cities":[{"code":"moscow"}],"allowsRemote":false}},{"node":{"__typename":"Job","id":"1688207360-1001091028994","title":"Java разработчик","text":"#вакансия #офис #Самара #Java\n\nДобрый день!\n🧐 Очень срочно разыскивается Senior или прошаренный Middle Java developer в компанию Open Code.\n\n👨‍👩‍👧‍👦В компании 200 разработчиков, штат постоянно растет.\n\n👩🏻‍🏫Каждый год стартуют новые проекты, под проекты обновляют стек, используют новые технологии.\n\n👫Команды внутри собирают по 5-8, максимум 12 человек, к разработчикам присоединяются тестировщики и аналитики, команды участвуют в совещаниях и формировании ТЗ\n\n👓У компании есть свой учебный центр. http://open-distance.ru/\nOpen Code является партнером Санкт-Петербургского университета ИТМО. На базе компании открыта  кафедра магистратуры этого ВУЗа. \nСотрудники имеют возможность получить на бюджетной основе образование степени магистра, обучаясь в офисе компании и на основе своих рабочих проектов. \nВыдаются дипломы гос. образца Санкт-Петербургского университета ИТМО об окончании магистратуры.\n\n🤝Тебе скажут уверенное \"да\", протянут руку и пригласят в команду если:\n- ты больше 3-х лет восхищен Java 8+, особенно любишь Spring;\n- тебе нравится, как звучит слово Hibernate;\n- знаешь, что в кишочках одной из СУБД: PostgreSQL, Oracle, MS SQL Server;\n- Git. Ну, ты понимаешь, что надо =) ;\n- ActiveMQ, Hadoop, Lucene, Elasticsearch, Gradle, Maven - вот это вот все.\n\n🧑🏻‍💻Чем заняться вместо работы:\n- Разрабатывать новый функционал серверной части\n- Участвовать в проектировании отдельных модулей системы\n- Разработывать интеграцию с внешними системами\n- Рефакторить поддерживать существующий код\n- Покрывать код юнит-тестами\n\n🧁А теперь о плюшках, кроме обучения в ИТМО:\n- ЗП 150-170 в руки\n- Занятия английским языком в офисе компании\n- Бассейн, фитнес-центр\n- Футбол/волейбол\n- Дружная команда\n- Посещение культурных мероприятий за счет компании\n- Перспектива карьерного роста\n- И другие заслуженные ништяки от компании\n\n\n🏄🏻Отличая возможность научиться чему-то новому с комфортом!\n\nЗаинтересовало?\n\n📲Пиши мне. @reanimatsiya","markup":[{"type":"hashtag","offset":0,"length":9,"data":"вакансия"},{"type":"hashtag","offset":10,"length":5,"data":"офис"},{"type":"hashtag","offset":16,"length":7,"data":"Самара"},{"type":"hashtag","offset":24,"length":5,"data":"Java"},{"type":"bold","offset":103,"length":15,"data":""},{"type":"bold","offset":130,"length":9,"data":""},{"type":"link","offset":507,"length":24,"data":"http://open-distance.ru/"},{"type":"bold","offset":911,"length":70,"data":""},{"type":"bold","offset":1286,"length":28,"data":""},{"type":"bold","offset":1544,"length":43,"data":""},{"type":"bold","offset":1844,"length":59,"data":""},{"type":"handle","offset":1932,"length":13,"data":"reanimatsiya"}],"date":"2020-06-16T08:52:54+00:00","link":"tg://resolve?domain=jvmjobs&post=1610","tags":[{"name":"java"},{"name":"jvm"},{"name":"spring"},{"name":"hibernate"},{"name":"postgresql"},{"name":"oracle"},{"name":"sql"},{"name":"git"},{"name":"hadoop"},{"name":"lucene"},{"name":"elasticsearch"},{"name":"gradle"},{"name":"maven"},{"name":"sql-server"}],"cities":[{"code":"samara"}],"allowsRemote":false}}]}}},"context":{}}