{"hash":"f5f6bf98bd95e769321482904cbbd488f77922fd","data":{"records":{"id":"russia/kazan","country":{"code":"russia","ruName":"Россия","enName":"Russia"},"city":{"code":"kazan","ruName":"Казань","enName":"Kazan"},"belongsTo":{"totalCount":42,"pageInfo":{"totalPages":5,"currentPage":4},"edges":[{"node":{"__typename":"Job","id":"103006863360-1001089317451","title":"Qa инженер","text":"🐞🐞🐞#вакансия #QA #Ульяновск #Саранск #Казань #Самара #Уфа #Краснодар #офис #удаленная_работа\n\n🔍Middle QA-специалист🔎\n\n⚡️Компания: Simbirsoft (более 19 лет на рынке, более 700 сотрудников в штате)\n\nОчень ждем тебя, наш будущий коллега и борец за качественное ПО! :)\n\n📌Твои будущие задачи:\n• тестирование ПО (frontend, backend, API);\n• локализация и документирование найденных дефектов;\n• ведение и оптимизация тестовой документации;\n• контроль качества на всех этапах разработки ПО;\n• выстраивание и оптимизация процессов тестирования ПО.\n\n📌Что мы ждем от тебя:\n• наличие опыта от 2 лет в направлениях QA или тестирования ПО;\n• понимание разницы между QA и тестированием ПО;\n• понимание особенностей гибких методологий;\n• уверенное владение техниками тест-дизайна;\n• знание клиент-серверной архитектуры;\n• понимание особенностей тестирования web, mobile и desktop приложений;\n• навык тестирования API;\n• написание запросов SQL;\n• опыт работы с системами контроля версий (git);\n• знание основных команд работы с консолью (Windows/Linux).\n\n📌Что мы предлагаем:\n• Полностью белая ЗП два раза в месяц;\n• Оформление по ТК РФ;\n• Высокий уровень экспертности внутри компании, которым мы делимся друг с другом;\n• Перспективы вертикального и горизонтального роста;\n• Работа на российских и международных проектах;\n• Оборудованное рабочее место и парк тестовых устройств;\n• Подготовка и прохождение сертификации ISTQB бесплатно;\n• Внутренние и внешние курсы, доклады, конференции;\n• Бесплатные чай, кофе, печеньки в офисе;\n• Корпоративная спортивная программа (оплата тематических секций, частичная компенсация абонемента);\n• Проведение летних и зимних корпоративов, дня именинника, совместные походы и т.д.\n\n📌Зарплата:\n• от 50 000 (Договорная, по итогу собеседования)\n\n☎️Контакты: @nataly_max","markup":[{"type":"hashtag","offset":6,"length":9,"data":"вакансия"},{"type":"hashtag","offset":16,"length":3,"data":"QA"},{"type":"hashtag","offset":20,"length":10,"data":"Ульяновск"},{"type":"hashtag","offset":31,"length":8,"data":"Саранск"},{"type":"hashtag","offset":40,"length":7,"data":"Казань"},{"type":"hashtag","offset":48,"length":7,"data":"Самара"},{"type":"hashtag","offset":56,"length":4,"data":"Уфа"},{"type":"hashtag","offset":61,"length":10,"data":"Краснодар"},{"type":"hashtag","offset":72,"length":5,"data":"офис"},{"type":"hashtag","offset":78,"length":17,"data":"удаленная_работа"},{"type":"handle","offset":1779,"length":11,"data":"nataly_max"}],"date":"2020-06-17T05:07:15+00:00","link":"tg://resolve?domain=qa_jobs&post=0","tags":[{"name":"qa"},{"name":"web"},{"name":"mobile"},{"name":"sql"},{"name":"git"},{"name":"windows"},{"name":"linux"}],"cities":[{"code":"ulyanovsk"},{"code":"saransk"},{"code":"kazan"},{"code":"samara"},{"code":"ufa"},{"code":"krasnodar"}],"allowsRemote":true}},{"node":{"__typename":"Job","id":"91038416896-1001067529236","title":"Python разработчик","text":"#вакансия #python #Казань\n\nНаш основной проект Матур:мастера маникюра. \n\nВаши задачи:\n• Участие в продуктовой разработке с высоким уровнем свободы и ответственности.\n• Изучение и реализация новых требований, анализ и устранение неисправностей в написанном коде.\n• Применение современных подходов и технологий разработки.\n\nТехнологии и требования:\n• ​​​​Знание Python (версии 3+)\n• Знание Python-фреймворков (DRF и Django)\n• Знание Channels под Django\n• Навыки построения REST API на Python\n• Опыт использования ORM\n• Умение работать с системой контроля версий (Git)\n• Опыт работы с Unix-образными системами\n• Опыт работы с базами (postgresql, redis)\n• Опыт работы с Docker, docker-compose\n\nУсловия:\n• Полная занятость; пн-пт; 8 часовой рабочий день. \n• Плавающее начало рабочего дня; возможность несколько раз в неделю работать из дома.\n• Современный и комфортный офис; Бесплатные обеды в офис.\n• Работа в небольшом и дружном коллективе, сплоченной команде профессионалов с отзывчивым руководство.\n• Профессиональное развитие с возможностью посещения ИТ конференций,семинаров, митапов.\n• Заработная плата от 60.000 рублей по результатам собеседования.\n\nПервый контакт: @rkrts","markup":[{"type":"hashtag","offset":0,"length":9,"data":"вакансия"},{"type":"hashtag","offset":10,"length":7,"data":"python"},{"type":"hashtag","offset":18,"length":7,"data":"Казань"},{"type":"bold","offset":73,"length":12,"data":""},{"type":"bold","offset":322,"length":24,"data":""},{"type":"bold","offset":690,"length":8,"data":""},{"type":"handle","offset":1169,"length":6,"data":"rkrts"}],"date":"2020-06-16T18:49:54+00:00","link":"tg://resolve?domain=python_jobs&post=0","tags":[{"name":"python"},{"name":"django"},{"name":"rest"},{"name":"orm"},{"name":"git"},{"name":"unix"},{"name":"postgresql"},{"name":"redis"},{"name":"docker"},{"name":"docker-compose"}],"cities":[{"code":"kazan"}],"allowsRemote":false}},{"node":{"__typename":"Job","id":"107603820544-1001119539411","title":".net разработчик","text":"#вакансия #fulltime #офис #remote \n\nЛокация: Казань, ст. м. Козья Слобода; Иннополис;\nФормат работы: офис или remote, фуллтайм \nЗанятость: полная, гибкое начало дня\nЗП: до 160 000 Net \n\n🚀Компания Ак Барс Цифровые Технологии запускает новый большой проект по трансформации архитектуры розничного бизнеса (физические лица) и переезд всех процессов на новую технологическую платформу. В рамках проекта будет сформировано 8 команд, занимающихся разными задачами по платежным решениям, каталогам продуктов, работой с электронными досье клиента, операционному обслуживанию и др.\n\nВ связи с чем компания в поисках Middle .Net разработчиков с коммерческим опытом работы от 2 лет. \n\nСтек технологий: C#, ASP.NET MVC / Core, Web API, MS SQLServer / PostgreSql, Entity Framework, JS /React, RabbitMQ\n\n✅Ребята ищут специалиста с опытом разработки веб-платформ, которому знаком .NET, ASP.NET Core, MS SQL Server. Команды гибко рассматривают кандидатов, готовы обучать и делиться опытом. \n\n✅АК Барс Цифровые технологии предлагают отличные условия:\n- официальное оформление и полностью белую зп;\n- гибкий график работы, позитивная атмосфера, дружный молодой коллектив;\n- возможность работать удаленно или в комфортном офисе в Казани;\n- помощь с релокацией, если вы из другого города; \n- возможность быстро «прокачаться» в скиллах на интересных проектах и другие приятные плюшки и бонусы.\n\nКонтакты:\ne-mail: valeriya@luckyhunter.io\ntelegram: @sobolevavalery\nБуду рада ответить на все вопросы и комментарии! 😊","markup":[{"type":"hashtag","offset":0,"length":9,"data":"вакансия"},{"type":"hashtag","offset":10,"length":9,"data":"fulltime"},{"type":"hashtag","offset":20,"length":5,"data":"офис"},{"type":"hashtag","offset":26,"length":7,"data":"remote"},{"type":"bold","offset":675,"length":15,"data":""},{"type":"link","offset":696,"length":7,"data":"http://ASP.NET"},{"type":"link","offset":872,"length":7,"data":"http://ASP.NET"},{"type":"link","offset":1393,"length":23,"data":"mailto:valeriya@luckyhunter.io"},{"type":"handle","offset":1427,"length":15,"data":"sobolevavalery"}],"date":"2020-06-16T13:12:05+00:00","link":"tg://resolve?domain=microsoftstackjobs&post=0","tags":[{"name":"dotnet"},{"name":"csharp"},{"name":"web"},{"name":"sql-server"},{"name":"postgresql"},{"name":"reactjs"},{"name":"rabbitmq"},{"name":"sql"},{"name":"asp-net"},{"name":"entity-framework"},{"name":"net-core"},{"name":"asp-net-mvc"},{"name":"asp-net-core"}],"cities":[{"code":"kazan"}],"allowsRemote":true}},{"node":{"__typename":"Job","id":"71381811200-1001054966032","title":"Mobile разработчик","text":"Всем добрый день!\nИщем iOS разработчика (возможна удаленная работа).\n#вакансия\n#iOS developer\n#Казань #Иннополис\n#fulltime # офис или #remote\nЗанятость: полная \nЗарплатная вилка от 180-250+ net (зависит от уровня)\nКомпания: NNG\nКонтакты: @BetterCallOl\n\nWe are a world leader in the development of navigation equipment. Head office in Budapest.\nWhat would be your job? \n  •  Mobile and automotive navigation software development;\n  •  Various projects with international clients from all parts of the world;\n  •  Сooperation with PM and development teams both locally and in the Budapest office;\n  •  Design, develop, code, test and debug; own your code.\n If you have\n  •  Experience developing, testing, and releasing iOS apps;\n  •  Knowledge of Objective-C and Swift, UIKit;\n  •  Experience collaborating with designers on usability and aesthetics of apps;\n  •  Strong experience in writing and maintaining testable code and unit tests;\n  •  Experience with git-based version control systems;\n  •  Strong written and verbal communication skills in English;\nmoreover, you have any of the following: \n  •  Familiarity with JavaScript;\n  •  Familiarity with Flutter;\n  •  Experience in Agile development, especially SaFE and SCRUM;\n  You will make quite an impression on us! \nWhat can we give you in return? \n  •  A job at a successful global company;\n  •  Serious professional challenges;\n  •  A secure and well-paid job;\n  •  The opportunity to develop the navigation software of the future in the present;\n  •  Сompensation for rental flat;\n  •  The opportunity of working abroad for several weeks.\n\nКонтакты: @BetterCallOl","markup":[{"type":"hashtag","offset":69,"length":9,"data":"вакансия"},{"type":"hashtag","offset":79,"length":4,"data":"iOS"},{"type":"hashtag","offset":94,"length":7,"data":"Казань"},{"type":"hashtag","offset":102,"length":10,"data":"Иннополис"},{"type":"hashtag","offset":113,"length":9,"data":"fulltime"},{"type":"hashtag","offset":134,"length":7,"data":"remote"},{"type":"handle","offset":238,"length":13,"data":"BetterCallOl"},{"type":"handle","offset":1611,"length":13,"data":"BetterCallOl"}],"date":"2020-06-16T11:39:43+00:00","link":"tg://resolve?domain=mobile_jobs&post=0","tags":[{"name":"mobile"},{"name":"ios"},{"name":"dotnet"},{"name":"objective-c"},{"name":"swift"},{"name":"uikit"},{"name":"git"},{"name":"javascript"},{"name":"flutter"}],"cities":[{"code":"kazan"},{"code":"budapest"}],"allowsRemote":true}},{"node":{"__typename":"Job","id":"2215641088-1001134745498","title":"Devops engineer","text":"#вакансия #devops #fulltime #релокация #казань #удаленка \n\nВакансия: DevOps Engineer\nКомпания: Ак Барс Цифровые Технологии.\nЛокация: Казань, возможна релокация.\nФормат работы: офис и удаленный формат.\nЗанятость: полная.\nКонтакт:@aabilova\n\nВсем привет! Мы разрабатываем цифровые продукты в сфере финтех и находимся в поисках DevOps Engineer.\n\nЗадачи:\n•Сопровождение и развитие текущей инфраструктуры проекта, поддержка тестового окружения и переноса данных между тестовыми серверами.\n•Разработка инструментов и автоматизация процессов развертывания систем, проектов и окружений, организация стабильного процесса выпуска версий продуктов.\n•Планирование архитектуры, прогноз по нагрузке.\n•Взаимодействие с разработчиками и сисадминами, координация команд по смежным областям.\n•Решение возникающих в процессе развёртывания проблем.\n\nЖелателен опыт с:\n•ОС Linux (серверные и клиентские).\n•Системы контейнеризации (мы используем RedHat OpenShift).\n•Уверенные навыки Shell-скриптинга (Bash).\n•Continious Integration (Teamcity) \\ Continious Delivery (Octopus).\n•Системы мониторинга (SCOM \\ Zabbix).\n•NoSQL СУБД (MongoDB, Redis).\n•Системы контроля версий (GIT).\n•Веб-серверы и балансировщики нагрузки (Apache \\ nginx \\ haproxy).\n•Навыки использования аналогичных по функциональности инструментов вполне допустимы, инструменты - не главное, важно понимание.\n\nБазовая экспертиза в областях:\n•ОС Windows (серверные).\n•Системы виртуализации (Vmware), системы управления (Vcenter \\ Openstack).\n•Системы управления конфигурацией (Ansible \\ Chef \\ Puppet \\ SaltStack).\n•Реляционные СУБД (SQL Server \\ Postgre \\ Mysql).\n•Agile-разработка.\n•Информационная безопасность.\n•Архитектура информационных систем.\n\nЧто предлагаем:\n•Работа в команде профессионалов из разных городов с общими интересами и разными взглядами.\n•Официальное трудоустройство, белая зарплата.\n•Программа релокации для иногородних.\n•ДМС.\n•Комфортный офис (кухня, зоны отдыха, X-box, бесплатные парковочные места, фрукты).\n•Профессиональное развитие и обучение (внутренние и внешние профильные мероприятия).\n•Физическое развитие (спортивная комната, скидки на занятия в фитнес-центре, футбол).\n•Зарплата -  вилка 100-150 тыс.руб., обсуждается индивидуально на интервью.\n\nКонтакт:@aabilova\n\n—\n\n👉 Обсуждение вакансии в чате @devops_jobs","markup":[{"type":"hashtag","offset":0,"length":9,"data":"вакансия"},{"type":"hashtag","offset":10,"length":7,"data":"devops"},{"type":"hashtag","offset":18,"length":9,"data":"fulltime"},{"type":"hashtag","offset":28,"length":10,"data":"релокация"},{"type":"hashtag","offset":39,"length":7,"data":"казань"},{"type":"hashtag","offset":47,"length":9,"data":"удаленка"},{"type":"handle","offset":228,"length":9,"data":"aabilova"},{"type":"handle","offset":2227,"length":9,"data":"aabilova"},{"type":"handle","offset":2271,"length":12,"data":"devops_jobs"}],"date":"2020-06-16T10:19:49+00:00","link":"tg://resolve?domain=devops_jobs_feed&post=2113","tags":[{"name":"linux"},{"name":"shell"},{"name":"bash"},{"name":"nosql"},{"name":"mongodb"},{"name":"redis"},{"name":"git"},{"name":"apache"},{"name":"nginx"},{"name":"windows"},{"name":"ansible"},{"name":"sql"},{"name":"mysql"},{"name":"sql-server"}],"cities":[{"code":"kazan"}],"allowsRemote":true}},{"node":{"__typename":"Job","id":"1691353088-1001091028994","title":"Java developer","text":"Senior Java/Kotlin developer в Группу компаний FIX 📍\n#удаленно #Казань #Java #Kotlin \n\nЧем предстоит заниматься:\n- разрабатывать высоконагруженную платежную платформу\n- участвовать в проектировании модулей и компонентов\n- улучшать производительность создаваемого решения\n- реализовывать решения по обработке платежей\n- решать задачи резервирования и отказоустойчивости подсистем\n \nЧто для этого нужно:\n- опыт разработки высоконагруженных решений на Java/Kotlin.\n- глубокое знание Java SE.\n- опыт создания Web-приложений, понимание соответствующего стека технологий Java/Kotlin, знание протоколов TCP/IP, HTTP/HTTPS).\n- знание устройства и правил функционирования JVM.\n- опыт разработки многопоточных высоконагруженных приложений.\n- опыт улучшения производительности Java/Kotlin решений;\n\n\nМы предлагаем: \n- ЗП 150- 250 000\n- достойный уровень дохода (обсуждается индивидуально)\n- уютный офис в центре Казани\n- интересные задачи и открытая идеям команда\n- насыщенная корпоративная жизнь (праздники и активности, футбол, волейбол, йога)\n- релокационный пакет для специалистов из других городов, ДМС\n\n✏️ Откликаться: @rsharafutdinova","markup":[{"type":"hashtag","offset":54,"length":9,"data":"удаленно"},{"type":"hashtag","offset":64,"length":7,"data":"Казань"},{"type":"hashtag","offset":72,"length":5,"data":"Java"},{"type":"hashtag","offset":78,"length":7,"data":"Kotlin"},{"type":"handle","offset":1115,"length":16,"data":"rsharafutdinova"}],"date":"2020-06-16T09:17:52+00:00","link":"tg://resolve?domain=jvmjobs&post=1613","tags":[{"name":"java"},{"name":"jvm"},{"name":"kotlin"},{"name":"web"}],"cities":[{"code":"kazan"}],"allowsRemote":true}},{"node":{"__typename":"Job","id":"71338819584-1001054966032","title":"Android разработчик","text":"#казань #вакансия #работа #android #fудаленка                                                                                                                                                              Город: Казань \nФорма работы: удаленка; проектная занятость на 2-3 месяца                                                                                                             Зарплатная вилка: 60 000 - 80 000 \nНаш стек: Kotlin/Java, Moxy, Cicerone, Retrofit, Dagger2, RxJava2, Room, FCM, Gitlab CI, Mockito                                                                                    Обязанности:\n- Участие в командной разработке, тестировании, оптимизации существующих мобильных приложений на платформе Android;\n- Проектирование архитектуры приложений;\n\nТребования:\n- Опыт коммерческой разработки под Android от 1 года (Java/Kotlin);\n- Опыт создания клиент-серверных приложений;\n- Уверенное знание Java Core, Android SDK;\n- Знание основных технологий и протоколов передачи данных;\n- Знание ООП и паттернов проектирования;\n- Опыт работы с системами контроля версий Git;\n- Английский язык на уровне понимания технической литературы.\n\nБудет плюсом:\n- Наличие завершённых проектов в магазинах приложений;\n- Понимание принципов Clean Architecture;\n- Опыт написания unit и UI-тестов;\n- Умение организовать CI/CD в проекте;\n- Опыт работы с DI.                                                                                                                                                                                                                             Контакты: @daryahr","markup":[{"type":"hashtag","offset":0,"length":7,"data":"казань"},{"type":"hashtag","offset":8,"length":9,"data":"вакансия"},{"type":"hashtag","offset":18,"length":7,"data":"работа"},{"type":"hashtag","offset":26,"length":8,"data":"android"},{"type":"hashtag","offset":35,"length":10,"data":"fудаленка"},{"type":"link","offset":402,"length":15,"data":"tel:60 000 - 80 000"},{"type":"handle","offset":1583,"length":8,"data":"daryahr"}],"date":"2020-06-16T06:01:14+00:00","link":"tg://resolve?domain=mobile_jobs&post=0","tags":[{"name":"mobile"},{"name":"android"},{"name":"kotlin"},{"name":"java"},{"name":"gitlab"},{"name":"git"}],"cities":[{"code":"kazan"}],"allowsRemote":true}},{"node":{"__typename":"Job","id":"339738624-1001352129329","title":"Golang разработчик","text":"#вакансия #Казань #Lead #Go #fulltime #офис #удаленка  \nВакансия: Lead or Senior Golang Developer \nКомпания: SoftConsulting\nГород: Казань\nФормат работы: офис или удаленка \nЗанятость: полная\nВилка заработной платы: 2000-3000$\n\nИдея проекта – создать революционную крауд-сорсинговую платформу для размещения/выполнение заказов на фотографию. Это возможность работать напрямую с CTO и в дальнейшем собрать команду под себя.\nТребования:\n- Коммерческий опыт разработки на Go\n- Опыт руководства командой будет плюсом\n- Знание AWS, MySQL, Redis \n- Разговорный английский\n- Высокие коммуникативные навыки\n- Желание работать в динамичной стартап-среде, быть готовым самостоятельно решать задачи и архитектора, и разработчика, предлагать решения\n\nУсловия:\n- Комфортабельный офис в Казани или удаленная работа из любой точки мира\n- ДМС\n- Компенсация расходов на занятия спортом, английским языком\n- Гибкий рабочий график\n\nКонтакты: telegram @It_recruiter_Nadezhda","markup":[{"type":"hashtag","offset":0,"length":9,"data":"вакансия"},{"type":"hashtag","offset":10,"length":7,"data":"Казань"},{"type":"hashtag","offset":18,"length":5,"data":"Lead"},{"type":"hashtag","offset":24,"length":3,"data":"Go"},{"type":"hashtag","offset":28,"length":9,"data":"fulltime"},{"type":"hashtag","offset":38,"length":5,"data":"офис"},{"type":"hashtag","offset":44,"length":9,"data":"удаленка"},{"type":"handle","offset":930,"length":22,"data":"It_recruiter_Nadezhda"}],"date":"2020-06-15T13:49:00+00:00","link":"tg://resolve?domain=gogetajobfeed&post=324","tags":[{"name":"go"},{"name":"amazon-web-services"},{"name":"mysql"},{"name":"redis"}],"cities":[{"code":"kazan"}],"allowsRemote":true}},{"node":{"__typename":"Job","id":"102842236928-1001089317451","title":"Qa engineer","text":"#вакансия #Казань #Нижний_Новгород #Краснодар #офис #удаленно \n\n💻Компания «БАРС Груп» - ведущий российский разработчик решений для государственного и корпоративного секторов с 1992 года, входит в ТОП-15 крупнейших разработчиков России.\n\n👀Мы в поисках QA Auto Engineer на крупные государственные проекты.\n\nОт новых сотрудников мы ожидаем:\n•Знание базовых понятий и определений в тестировании;\n•Знание и уверенное владение методиками тестирования;\n•  Экспертное владение навыками составления тест-кейсов, чек-листов, баг-репортов;\n•Владение языком программирования С# / Python.\nБудет плюсом:\n•Владение инструментами тестирования Fiddler/Postman, Visual Studio, фрэймворками Nunit, restsharp, Selenium.webdriver;\n•Опыт работы с системами JIRA, git/stash.\n\n💰Уровень заработной платы: от 50000р до 150000р. \n\n⏰Рабочий день в офисе или полностью удаленно\n\n🔺Вместе мы будем работать над масштабными проектами, которые меняют к лучшему жизни людей!","markup":[{"type":"hashtag","offset":0,"length":9,"data":"вакансия"},{"type":"hashtag","offset":10,"length":7,"data":"Казань"},{"type":"hashtag","offset":18,"length":16,"data":"Нижний_Новгород"},{"type":"hashtag","offset":35,"length":10,"data":"Краснодар"},{"type":"hashtag","offset":46,"length":5,"data":"офис"},{"type":"hashtag","offset":52,"length":9,"data":"удаленно"}],"date":"2020-06-15T10:44:00+00:00","link":"tg://resolve?domain=qa_jobs&post=0","tags":[{"name":"qa"},{"name":"python"},{"name":"selenium"},{"name":"git"},{"name":"visual-studio"}],"cities":[{"code":"kazan"},{"code":"krasnodar"},{"code":"nizhny-novgorod"}],"allowsRemote":true}},{"node":{"__typename":"Job","id":"338690048-1001352129329","title":"Golang разработчик","text":"#вакансия #golang #go\n\nВакансия: Golang разработчик\nГород: Казань\nФормат работы: удаленная работа/офис\nКомпания: Спутник\nВилка заработной платы: 70 000 - 150 000\n\nКто мы?\nКомпания Спутник занимается обеспечением безопасности людей более чем в 100 городах России и 7 странах мира. Наши продукты позволяют сделать из обычного многоквартирного дома - умный дом. Мы являемся резидентами Сколково и Иннополиса, а также входим в тройку лидеров отрасли. \nВместо классической управленческой иерархии мы предпочитаем придерживаться принципов холакратии.\n\nКого мы ожидаем?\nТалантливых разработчиков, которые:\n• имеют коммерческий опыт работы с GoLang (от 1 года);\n• владеют знанием любого другого языка программирования;\n• имеют опыт работы с Linux, терминалом;\n• как примущество - имеют опыт серверного программирования (Web, облака)\n\nЧто мы предлагаем?\n• увлекательный опыт в режиме равенства и без бюрократии;\n• возможность гибкого графика работы/удаленной работы;\n• перспективу динамичного пересмотра заработной платы в зависимости от способностей и достижений\n\nКонтактное лицо\nЛиля Афанасьева\ne-mail: lily@sputnik.direct\ntelegram: lilia_afanaseva","markup":[{"type":"hashtag","offset":0,"length":9,"data":"вакансия"},{"type":"hashtag","offset":10,"length":7,"data":"golang"},{"type":"hashtag","offset":18,"length":3,"data":"go"},{"type":"link","offset":1096,"length":19,"data":"mailto:lily@sputnik.direct"}],"date":"2020-06-15T10:06:29+00:00","link":"tg://resolve?domain=gogetajobfeed&post=323","tags":[{"name":"go"},{"name":"linux"},{"name":"web"}],"cities":[{"code":"kazan"}],"allowsRemote":true}}]}}},"context":{}}