{"hash":"f5f6bf98bd95e769321482904cbbd488f77922fd","data":{"records":{"id":"web","name":"web","belongsTo":{"totalCount":155,"pageInfo":{"totalPages":16,"currentPage":11},"edges":[{"node":{"__typename":"Job","id":"103362330624-1001089317451","title":"Qa инженер","text":"#вакансия #qa #офис #москва #вднх\n\nВакансия: Middle/Senior QA для автоматизированного и ручного тестирования web-приложения (сначала 50/50, затем автоматизация 70+%), ,\nКомпания: Webinar.ru\nЗП: до 180 000 руб. на руки\nФормат работы: офис, гибкое начало дня\nЗанятость: полная\n\nЗадачи: Ручное и автоматизированное тестирование нового функционала web-приложения, регрессионное, ui/ux, тестирование требований. Улучшение процесса тестирования. \nАвтоматизация на java+selenide\n\nЧто ожидаем:\n- Понимаешь, как устроены веб-сервисы, имеешь опыт их ручного и автоматизированного тестирования не менее одного года\n- Есть понимание клиент-серверной архитектуры;\n-Умеешь развернуто описывать шаги, приведшие к обнаруженной проблеме\n- Понимаешь принципы SCRUM’a;\n- Хочешь прокачаться в автоматизированном тестировании и научиться программировать (если уже умеешь - ещё круче)- \n-Есть понимание значений слов: HTTP, REST API, JSON, Git, SQL, HTML/CSS\n\nЧто предлагаем:\n- Официально оформим, з/п белая,\n- Гибкий график (чаще всего работаем с 10/11);\n- Отлаженные процессы без бюрократии;\n- Работа в современном лофтовом офисе в шаговой доступности от м. ВДНХ со своей парковкой;\n- Комфортное рабочее место, удобное кресло, все необходимое для работы оборудование и ПО (ноутбук DELL, 2 монитора);\n- 50% компенсация ДМС после испытательного срока, обучение за счёт компании;\n- Вкусные бесплатные завтраки, кофе-поинты;\nЕсли нужна помощь в релокации в Москву, расходы берем на себя ;)\n\nОтклики, вопросы, рекомендации: @dariavvk (telegram, FB) или на d.vovk@webinar.ru","markup":[{"type":"hashtag","offset":0,"length":9,"data":"вакансия"},{"type":"hashtag","offset":10,"length":3,"data":"qa"},{"type":"hashtag","offset":14,"length":5,"data":"офис"},{"type":"hashtag","offset":20,"length":7,"data":"москва"},{"type":"hashtag","offset":28,"length":5,"data":"вднх"},{"type":"link","offset":179,"length":10,"data":"http://Webinar.ru"},{"type":"handle","offset":1499,"length":9,"data":"dariavvk"},{"type":"link","offset":1531,"length":17,"data":"mailto:d.vovk@webinar.ru"}],"date":"2020-06-21T12:04:32+00:00","link":"tg://resolve?domain=qa_jobs&post=98574","tags":[{"name":"qa"},{"name":"web"},{"name":"java"},{"name":"rest"},{"name":"json"},{"name":"git"},{"name":"sql"},{"name":"html"},{"name":"css"}],"cities":[{"code":"moscow"}],"allowsRemote":false}},{"node":{"__typename":"Job","id":"103293124608-1001089317451","title":"Qa инженер","text":"#вакансия #офис #fulltime #Минск\n👌 Без чего не бывает отличных сервисов? Без ответственных за качество! Ищем самых внимательных, дотошных и коммуникабельных QA инженеров в нашу минскую команду. \n\nКомпания:  BSL (bsl.dev)\nПозиция: Jun/Mid QA Engineer\nФормат и форма работы: фулл-тайм, офис Минск (м. Грушевка)\nЗП: 450-1000$\n\n💫 Задачи:\nФункциональное ручное тестирование приложений (iOS, Android, Web); \nРазработка и поддержка тестовых случаев (тест-кейсы/чек-листы);\nУчастие в ревью требований, UI/UX и всех типов проектной документации;\nЛокализация, документирование и поддержка дефектов в Jira;\n\n💫Требования:\nОпыт работы в функциональном тестировании; \nЗнание методологий тестирования;\nЗнание особенностей тестирования и архитектуры приложений на платформах iOS & Android и WEB;\nПонимание принципов REST API;\nОпыт работы в багтрекинговой системе Jira;\nОпыт работы с системами тест менеджмента (Test Rail, MTM, Zephyr for Jira);\nОтветственность, коммуникабельность, настойчивость, грамотность, внимание к мелочам и готовность к постоянной коммуникации с командой проекта;\nСпособность быстро переключаться между задачами.\n\n💫Что даем взамен:\n• Возможность прокачки hard skills на проектах разного уровня сложности; \n• Команду с сильными разработчиками, product-менеджерами, QA, UX/UI дизайнерами и налаженными процессами;\n• График работы: с пересечением по часам 11:00–19:00 по Москве (отдыхать в выходные и праздники будем по российскому календарю — а значит + неделя на новый год и длинные майские каникулы);\n• Самореализацию и профессиональный рост, посещение конференций и курсов за счет компании. Расскажите нам о своей профессиональной мечте, возможно мы поможем вам воплотить ее в жизнь;\n• Уютный новый офис на м. Грушевка — с чаем и кофе. \n\n✅Жду ваши резюме и, если есть, вопросы.\nМои контакты: @viktoriya_gw \nhr@bsl.dev","markup":[{"type":"hashtag","offset":0,"length":9,"data":"вакансия"},{"type":"hashtag","offset":10,"length":5,"data":"офис"},{"type":"hashtag","offset":16,"length":9,"data":"fulltime"},{"type":"hashtag","offset":26,"length":6,"data":"Минск"},{"type":"link","offset":213,"length":7,"data":"http://bsl.dev"},{"type":"handle","offset":1805,"length":13,"data":"viktoriya_gw"},{"type":"link","offset":1820,"length":10,"data":"mailto:hr@bsl.dev"}],"date":"2020-06-19T13:10:22+00:00","link":"tg://resolve?domain=qa_jobs&post=98508","tags":[{"name":"qa"},{"name":"ios"},{"name":"android"},{"name":"web"},{"name":"rest"}],"cities":[{"code":"minsk"}],"allowsRemote":false}},{"node":{"__typename":"Job","id":"103279493120-1001089317451","title":"Qa инженер","text":"🐞🐞🐞#вакансия #QA #Ульяновск #Саранск #Казань #Самара #Уфа #Краснодар #офис #удаленная_работа\n\n🔍Middle QA-специалист🔎\n\n⚡️Компания: Simbirsoft (более 19 лет на рынке, более 700 сотрудников в штате)\n\nОчень ждем тебя, наш будущий коллега и борец за качественное ПО! 🙂\n\n📌Твои будущие задачи:\n• тестирование ПО (frontend, backend, API);\n• локализация и документирование найденных дефектов;\n• ведение и оптимизация тестовой документации;\n• контроль качества на всех этапах разработки ПО;\n• выстраивание и оптимизация процессов тестирования ПО.\n\n📌Что мы ждем от тебя:\n• наличие опыта от 2 лет в направлениях QA или тестирования ПО;\n• понимание разницы между QA и тестированием ПО;\n• понимание особенностей гибких методологий;\n• уверенное владение техниками тест-дизайна;\n• знание клиент-серверной архитектуры;\n• понимание особенностей тестирования web, mobile и desktop приложений;\n• навык тестирования API;\n• написание запросов SQL;\n• опыт работы с системами контроля версий (git);\n• знание основных команд работы с консолью (Windows/Linux).\n\n\n📌Что мы предлагаем:\n• Полностью белая ЗП два раза в месяц;\n• Оформление по ТК РФ;\n• Высокий уровень экспертности внутри компании, которым мы делимся друг с другом;\n• Перспективы вертикального и горизонтального роста;\n• Работа на российских и международных проектах;\n• Оборудованное рабочее место и парк тестовых устройств;\n• Подготовка и прохождение сертификации ISTQB бесплатно;\n• Внутренние и внешние курсы, доклады, конференции;\n• Бесплатные чай, кофе, печеньки в офисе;\n• Корпоративная спортивная программа (оплата тематических секций, частичная компенсация абонемента);\n• Проведение летних и зимних корпоративов, дня именинника, совместные походы и т.д.\n\n📌Зарплата:\n• от 50 000 (Договорная, по итогу собеседования)\n\n\n☎️Контакты:\n@abrmova","markup":[{"type":"hashtag","offset":6,"length":9,"data":"вакансия"},{"type":"hashtag","offset":16,"length":3,"data":"QA"},{"type":"hashtag","offset":20,"length":10,"data":"Ульяновск"},{"type":"hashtag","offset":31,"length":8,"data":"Саранск"},{"type":"hashtag","offset":40,"length":7,"data":"Казань"},{"type":"hashtag","offset":48,"length":7,"data":"Самара"},{"type":"hashtag","offset":56,"length":4,"data":"Уфа"},{"type":"hashtag","offset":61,"length":10,"data":"Краснодар"},{"type":"hashtag","offset":72,"length":5,"data":"офис"},{"type":"hashtag","offset":78,"length":17,"data":"удаленная_работа"},{"type":"handle","offset":1781,"length":8,"data":"abrmova"}],"date":"2020-06-19T11:12:51+00:00","link":"tg://resolve?domain=qa_jobs&post=0","tags":[{"name":"qa"},{"name":"web"},{"name":"mobile"},{"name":"sql"},{"name":"git"},{"name":"windows"},{"name":"linux"}],"cities":[{"code":"ulyanovsk"},{"code":"saransk"},{"code":"kazan"},{"code":"samara"},{"code":"ufa"},{"code":"krasnodar"}],"allowsRemote":true}},{"node":{"__typename":"Job","id":"71637663744-1001054966032","title":"Mobile разработчик","text":"#вакансия #mobile #ios #swift #fulltime\nГород и адрес офиса: Москва, м. Нахимовский проспект, офис класса А\nФормат работы: офис + возможно частично удаленная работа \nЗанятость: полная, 5/2\nЗП: от 150к до 250к, готовы рассмотреть и выше\n\nКомпания X4Apps специализируется на разработке собственных мобильных приложений и открывает вакансию мобильного разработчика уровня Middle+/Senior, который будет работать над созданием приложений для платформы iOS.\n\nМы практикуем быструю проверку гипотез, быстро создаем приложения, запускаем первых пользователей, смотрим на обратную связь и наращиваем функционал либо переключаемся на разработку новых приложений/новых идей.\n\nОт Вас мы ждем:\n- Способность разработать приложение с нуля и выпустить его в AppStore\n- Знание Objective-C и Swift\n- Суммарный опыт программирования от 3-х лет\n- Умение работать с системой контроля версий git - console, IDE, web (Stash);\n- Понимание принципов ООП и шаблонов проектирования\n- Опыт использования JSON, REST API\n- Опыт написания клиент-серверных приложений\n- Наличие опубликованных приложений в AppStore\n\nБудет плюсом:\n- Желание постоянно учиться и применять новые технологии в своей работе\n- Понимание в разработке пользовательского интерфейса\n- Понимание работы бэкэнда\n\nКонтакт @bambaleeyo","markup":[{"type":"hashtag","offset":0,"length":9,"data":"вакансия"},{"type":"hashtag","offset":10,"length":7,"data":"mobile"},{"type":"hashtag","offset":18,"length":4,"data":"ios"},{"type":"hashtag","offset":23,"length":6,"data":"swift"},{"type":"hashtag","offset":30,"length":9,"data":"fulltime"},{"type":"bold","offset":40,"length":19,"data":""},{"type":"bold","offset":108,"length":13,"data":""},{"type":"bold","offset":166,"length":9,"data":""},{"type":"bold","offset":189,"length":2,"data":""},{"type":"bold","offset":665,"length":14,"data":""},{"type":"bold","offset":1085,"length":12,"data":""},{"type":"bold","offset":1253,"length":7,"data":""},{"type":"handle","offset":1261,"length":11,"data":"bambaleeyo"}],"date":"2020-06-19T11:04:23+00:00","link":"tg://resolve?domain=mobile_jobs&post=0","tags":[{"name":"mobile"},{"name":"ios"},{"name":"swift"},{"name":"objective-c"},{"name":"git"},{"name":"web"},{"name":"json"},{"name":"rest"}],"cities":[{"code":"moscow"}],"allowsRemote":true}},{"node":{"__typename":"Job","id":"91441070080-1001067529236","title":"Python разработчик","text":"Всем привет!\nИщем Python разработчика с опытом работы от 3 лет.\n#Москва #fulltime #вакансия #python\nГород: Москва\nФормат работы: Офис\nЗанятость: Полная\nЗарплатная вилка: 160 000 - 220 000 рублей на руки\nUBEX — это глобальная рекламная RTB-платформа, где компании эффективно рекламируются, а издатели выгодно монетизируют места под рекламу на своих сайтах.\n\nФронт работы:\nУчаствовать в разработке международного рекламного проекта;\nПисать с нуля большую часть высоконагруженной рекламной RTB - платформы (DSP/ADEX/SSP, биллинг, интеграции, нейросеть / машинное обучение);\nРазрабатывать платформу по управлению данными (DMP);\nРазрабатывать API, сервисы, различные скрипты сборки, деплоя, импорта\\экспорта с внешними системам и пр.;\nОптимизировать существующие решения и алгоритмы под высоконагруженные системы;\n\nОт тебя:\nPython 3.6 на отлично;\nОпыт работы с Django;\nОпыт работы с SQL;\nУверенная работа в Linux;\nОпыт работы с Docker;\n\nПлюсом будет:\nОпыт работы с сервисами AWS (ECS, EC2, Kinesis) через web-консоль, cli и с помощью Terraform;\nОпыт создания data pipelines;\nОпыт программирование на Golang;\nПонимание принципов высоконагруженных системы (Highload);\n\nОт нас:\nГрафик 5/2, гибкое начало рабочего дня с 9 до 11 утра;\nРабота в уютном офисе Москва-сити;\nОпыт работы в крутом международном проекте.\nЕсли интересно, пиши 🙂\n@Irina_Irkhina или на почту irinairh@gmail.com","markup":[{"type":"hashtag","offset":64,"length":7,"data":"Москва"},{"type":"hashtag","offset":72,"length":9,"data":"fulltime"},{"type":"hashtag","offset":82,"length":9,"data":"вакансия"},{"type":"hashtag","offset":92,"length":7,"data":"python"},{"type":"handle","offset":1328,"length":14,"data":"Irina_Irkhina"},{"type":"link","offset":1356,"length":18,"data":"mailto:irinairh@gmail.com"}],"date":"2020-06-19T10:48:06+00:00","link":"tg://resolve?domain=python_jobs&post=0","tags":[{"name":"python"},{"name":"django"},{"name":"sql"},{"name":"linux"},{"name":"docker"},{"name":"amazon-web-services"},{"name":"web"},{"name":"go"}],"cities":[{"code":"moscow"}],"allowsRemote":false}},{"node":{"__typename":"Job","id":"349175808-1001352129329","title":"Golang разработчик","text":"Ребят, всем привет! \nПростыню сюда флудить не хочется поэтому постараюсь кратко, а подробности в ЛС, заранее напишу, что это Москва (Фултайм в офис), компания Lofty. Ищем в команду как Midle так и один Senior нужен.\n Вообщем если хочется в highload, добро пожаловать!)\n\nО проекте:\nЭто высоконагруженное backend приложение для рассылки web push-уведомлений, обслуживающее на данный момент более 100млн показов в сутки. \nЧем у нас предстоит заниматься:\nПрофилировать и оптимизировать существующие сервисы;\nПроводить доработки и интеграцию их в действующий код и инфраструктуру;\nРеализовывать новые бизнес-требования внутри сервиса;\nУстранять возникающие баги в сервисе.\n\nЧто мы ждем от кандидата:\nНавыки работы с Git;\nУверенное знание Golang;\nПонимание технологий HTTP, REST;\nОпыт работы в Unix-окружении.\n\nБудет совсем круто, если вы:\nРаботали с highload-проектами;\nПонимаете и уважаете концепцию CI/CD.\nНаш стек технологий: Golang, Gitlab, MySQL, JS, RabbitMQ, Docker, Ansible, Clickhouse\n\nУсловия: \nЗаработная плата от 130 000 до 300 000 руб. на руки, естественно зависит от уровня, преимущественно смотрим \"мидов\", но и \"джуны\" нам тоже интересны.\n\n#вакансия#golang","markup":[],"date":"2020-06-19T10:03:46+00:00","link":"tg://resolve?domain=gogetajobfeed&post=333","tags":[{"name":"go"},{"name":"web"},{"name":"git"},{"name":"rest"},{"name":"unix"},{"name":"gitlab"},{"name":"mysql"},{"name":"rabbitmq"},{"name":"docker"},{"name":"ansible"}],"cities":[{"code":"moscow"}],"allowsRemote":false}},{"node":{"__typename":"Job","id":"2229272576-1001134745498","title":"Devops инженер","text":"#вакансия #офис #Москва #DevOps \n\nВакансия для азартных энтузиастов:\n\nСтартапу AVVYLAND нужен девопс, строить все с нуля )) Милейшие чуваки, очень адекватный тех.дир. Денежка на проекте есть, релиз был, инвестиции привлечены. \n\nМоя личная рекомендация к вакухе: очень хороший шанс проявить себя за вполне нормальные деньги, ребята классные! \n\nКубер, облачка, линукс - технологии на выбор\n\nВилка: 180-250, нужно будет ИП\n\nО команде:\n•  7 человек, есть фронты, бекендеры, тестировщики\n•  Создаем приложения для различных платформ. От web до AR/VR;\n•  Работаем по недельным спринтам с ежедневными стендапами;\n•  Используем Jira, Confluence, Notion, Gitlab, Docker.\nО компании:\n•  Пишем на C#, Python, JS, Golang.\n•  Работаем с современным стэком Unity3D, React, Redis, aiohttp.\n\nДля тебя подготовили:\n•  Технику, на которой приятно работать.\n•  Оплату профессиональных конференций и курсов.\n• офис с плюшками в Москве (Большая Татарская)\n• адекватное руководство и понимающую команду =)\n\nКонтакты:\nМарьяна @reanimatsiya\n\n—\n\n👉 Обсуждение вакансии в чате @devops_jobs","markup":[{"type":"hashtag","offset":0,"length":9,"data":"вакансия"},{"type":"hashtag","offset":10,"length":5,"data":"офис"},{"type":"hashtag","offset":16,"length":7,"data":"Москва"},{"type":"hashtag","offset":24,"length":7,"data":"DevOps"},{"type":"handle","offset":1003,"length":13,"data":"reanimatsiya"},{"type":"handle","offset":1051,"length":12,"data":"devops_jobs"}],"date":"2020-06-19T09:46:43+00:00","link":"tg://resolve?domain=devops_jobs_feed&post=2126","tags":[{"name":"web"},{"name":"gitlab"},{"name":"docker"},{"name":"python"},{"name":"go"},{"name":"unity3d"},{"name":"reactjs"},{"name":"redis"}],"cities":[{"code":"moscow"}],"allowsRemote":false}},{"node":{"__typename":"Job","id":"103250132992-1001089317451","title":"Qa инженер","text":"#вакансия #Москва #работаQA #ручное тестирование #офис/удаленная #от года\nУ нас открыта вакансия в штат правообладателя, команда разработки – работает у подрядчика. \nЗанятость: полная в офисе \nЗаработная плата от 70 000 - 90 000 с налогами в зависимости от опыта кандидата\nКомпания https://agregatoreat.ru/  \nЗанятость: полная 50/50 офис и удаленно \nКонтакт: @OlesyaE \nОбязанности:\n•  Тестирование высоконагруженного web-сервиса (в том числе, во время его обновления в нерабочее время - 2 раза в месяц); только ручное тестирование front и back\n•  Ручное тестирование ПО (функциональное, нагрузочное, интеграционное и др.);\n•  Разработка тестовой документации;\n•  написание Unit тестов\n•  Оценка времени на проверку задач;\n•  Создание баг-репортов;\n•  Взаимодействие с разработчиками, аналитиками, службой технической поддержки;\nТребования:\n•  Опыт работы в области тестирования ПО от 1 года;\n•  Знание жизненного цикла ПО, тест-кейсов, багов и т.д.\n•  Знание различных методов тестирования;\n•  Опыт разработки тестовой документации;\n•  Базовые знания языка SQL;\n•  Приветствуется опыт работы с файлами *.xml, *.json;\n•  Опыт работы с баг-трекинговыми системами (Jira, TFS и т.д.);\n•  Внимательность, ответственность, умение работать в команде;\n•  Самостоятельность, стремление к профессиональному и карьерному росту.\nдля этой вакансии","markup":[{"type":"hashtag","offset":0,"length":9,"data":"вакансия"},{"type":"hashtag","offset":10,"length":7,"data":"Москва"},{"type":"hashtag","offset":18,"length":9,"data":"работаQA"},{"type":"hashtag","offset":28,"length":7,"data":"ручное"},{"type":"hashtag","offset":49,"length":5,"data":"офис"},{"type":"hashtag","offset":65,"length":3,"data":"от"},{"type":"link","offset":213,"length":15,"data":"tel:70 000 - 90 000"},{"type":"link","offset":282,"length":24,"data":"https://agregatoreat.ru/"},{"type":"handle","offset":359,"length":8,"data":"OlesyaE"}],"date":"2020-06-19T07:26:36+00:00","link":"tg://resolve?domain=qa_jobs&post=0","tags":[{"name":"qa"},{"name":"web"},{"name":"sql"},{"name":"xml"},{"name":"json"},{"name":"tfs"}],"cities":[{"code":"moscow"}],"allowsRemote":true}},{"node":{"__typename":"Job","id":"17051942912-1001110946746","title":"Js разработчик","text":"#вакансия #удаленка #работа #js #javascript #разработчик\n\nГород и адрес офиса: Тель-Авив \nФормат работы: удаленка\nЗанятость: полная, гибкий график.\n\nЗарплатная вилка: 5500-6000$/мес. (Почасовая оплата 35$/час + ежемесячный бонус 250$)\n\nНалоги платите по месту жительства. ИП 6%. Если патент, то он зависит от места жительства. В Подмосковье 12 000 руб в год. В Москве 300 тыс. в год. Как сами оформите налоги, так и платите. \n\nИщу разработчика к нам в команду: израильский проект Luminati (https://luminati.io).  Full-Stack. Компания разрабатывает несколько продуктов, в том числе p2p vpn, видео cdn нового поколения http://holaspark.com/\nОфис в Тель-Авиве, работа удаленная! График свободный. Что нам нужно:\n\n • Knowledge in Node JS framework: ExpressJS, Promise - Experience with MongoDB \n- Creating RESTful web services/API’s using Node.js with or without framework assistance \n\n- JavaScript-based unit testing tools \n\n- Client-side browser technologies including JavaScript, CSS, and HTML \n\n- 1 year development experience in Node JS with a solid working knowledge of frameworks and architecture \n\n- 2+ year’s overall development experience using JavaScript and open web technologies \n\n- хороший английский язык, идеальная грамматика не обязательна \n\n • работа удаленная, 7-9 часов в день (по желанию)\n • зарплата от 35$/час (+фиксированный бонус 250$ ежемесячно), через полгода повышается\n • после того, как откроют границы и будут возможны перелёты - выезд в офис на заключение контракта (перед этим возможно заключение с электронной подписью), отель и перелет за счет компании, море под окном\n\nОтвечу на все вопросы:)\n\nИнстаграмм https://instagram.com/hola_better_internet\n\nРезюме сюда:  luda.hola@gmail.com\n\n—\n\n👉 Обсуждение вакансии в чате @javascript_jobs","markup":[{"type":"hashtag","offset":0,"length":9,"data":"вакансия"},{"type":"hashtag","offset":10,"length":9,"data":"удаленка"},{"type":"hashtag","offset":20,"length":7,"data":"работа"},{"type":"hashtag","offset":28,"length":3,"data":"js"},{"type":"hashtag","offset":32,"length":11,"data":"javascript"},{"type":"hashtag","offset":44,"length":12,"data":"разработчик"},{"type":"link","offset":490,"length":19,"data":"https://luminati.io"},{"type":"link","offset":617,"length":21,"data":"http://holaspark.com/"},{"type":"link","offset":1637,"length":42,"data":"https://instagram.com/hola_better_internet"},{"type":"link","offset":1695,"length":19,"data":"mailto:luda.hola@gmail.com"},{"type":"handle","offset":1749,"length":16,"data":"javascript_jobs"}],"date":"2020-06-18T21:04:51+00:00","link":"tg://resolve?domain=javascript_jobs_feed&post=0","tags":[{"name":"javascript"},{"name":"nodejs"},{"name":"mongodb"},{"name":"web"},{"name":"css"},{"name":"html"},{"name":"unit-testing"}],"cities":[],"allowsRemote":true}},{"node":{"__typename":"Job","id":"103207141376-1001089317451","title":"Qa engineer","text":"#вакансия #удаленка #Москва #fulltime #qa \nКомпания: «Intelligence Retail» (https://intrtl.com/).\nQA manual engineer\nФормат: удаленно, 5/2\nВилка: до 120 000 т.р\nЖелающим поможем вырасти в автоматизации на python.\n\nКто мы?\nIntelligence Retail входит в число 30 крупнейших поставщиков AI в России (по версии Rusbase). Мы работаем с такими глобальными компаниями по производству CPG, как Danone, Heineken, P & G, Perfetti Van Melle, Red Bull и другими. www.intrtl.com\nIntelligence Retail — молодой стартап в области ИИ. Мы помогаем компаниям в ритейле и FMCG повысить эффективность труда своих сотрудников. Наш продукт это система контроля товаров, использующая передовые алгоритмы компьютерного зрения на базе нейронных сетей.\n\nПожелания к кандидату:\n• Опыт тестирования сложных web программ, включая разработку тестов, тестовых данных, и сценариев тестирования;\n• Опыт тестирования API (Postman, SoapUI)\n• Способность выявлять уязвимые места систем, способность к поиску дефектов;\n• Опыт работы с системами багтрекинга;\n• Базовые знания SQL (на уровне простых запросов);\n• Технический английский.\nПлюсом будет:\n• опыт в автоматизации тестирования;\n• знание Python.\n\nЗадачи:\n• Мы разрабатываем SaaS решение которое содержит следующие компоненты:\n- мобильное приложение под iOS и Android;\n- аналитический web-портал;\n- REST API на python и php;\n- бекенд распознавания с использованием нейронных сетей.\n\nВот что нужно будет делать:\n• Ручное тестирование нового и существующего функционала ПО (Web, API, Mobile);\n• Проведение регрессионного тестирования перед поставкой;\n• Составление тестовых сценариев и поддержка их в актуальном состоянии;\n• Взаимодействие с командой разработки;\n• Обработка ошибок от технической поддержки пользователей;\n• Фиксация дефектов в трекере задач и последующий контроль их исправления.\n\nУсловия работы:\n• Достойная белая ЗП и полное соблюдение трудового законодательства РФ;\n• Удаленная работа с гибким графиком 5/2;\n• Команда крутых разработчиков и учёных, интересные задачи и перспективные продукты.\nИ ещё:\n• Тестировщик является частью скрам-команды, которая работает с 2-х недельными спринтами;\n• Ежедневные стендапы примерно в 11:30;\n• Задачи ведем в youtrack;\n• Мы — один из немногих Российских стартапов, который работает сразу на международном рынке, у нас уже есть зарубежные клиенты;\nВ компании работает порядка 40 человек, тех команда примерно 25.\n\nКонтакты: @DariaYugova","markup":[{"type":"hashtag","offset":0,"length":9,"data":"вакансия"},{"type":"hashtag","offset":10,"length":9,"data":"удаленка"},{"type":"hashtag","offset":20,"length":7,"data":"Москва"},{"type":"hashtag","offset":28,"length":9,"data":"fulltime"},{"type":"hashtag","offset":38,"length":3,"data":"qa"},{"type":"link","offset":76,"length":19,"data":"https://intrtl.com/"},{"type":"bold","offset":98,"length":18,"data":""},{"type":"link","offset":450,"length":14,"data":"http://www.intrtl.com"},{"type":"bold","offset":726,"length":22,"data":""},{"type":"bold","offset":1165,"length":7,"data":""},{"type":"bold","offset":1400,"length":27,"data":""},{"type":"bold","offset":1813,"length":15,"data":""},{"type":"handle","offset":2396,"length":12,"data":"DariaYugova"}],"date":"2020-06-18T16:31:41+00:00","link":"tg://resolve?domain=qa_jobs&post=0","tags":[{"name":"qa"},{"name":"python"},{"name":"web"},{"name":"sql"},{"name":"ios"},{"name":"android"},{"name":"rest"},{"name":"php"},{"name":"mobile"}],"cities":[{"code":"moscow"}],"allowsRemote":true}}]}}},"context":{}}