{"hash":"f34fd2c444a074f4e0e67d525015a008ef8e766f","data":{"records":{"id":"java","name":"java","belongsTo":{"totalCount":123,"pageInfo":{"totalPages":13,"currentPage":12},"edges":[{"node":{"__typename":"Job","id":"1901068288-1001134745498","title":"Devops инженер","text":"#вакансия #jenkins #aws #украина #беларусь #прибалтика #remote #удалёнка\nкомпания s-o-services\nФормат - remote\nз\\п 5к-6к$ gross\nУвы гражданам России, живущим в РФ - вакансия недоступна.\nHere's some of the tech we use in DevOps.\n\n- jenkins экспертное знание\n- ansible\n- gradle (some maven) понимане логов сборок и умение чётко рассказать программисту что пошло не так\n- java тюнинг, хорошее понимание работы gc(чем отличается cms от g1 и от zgc, и когда лучше взять zulu? а когда openjdk?), что и когда тюнить в jvm, настройка логов и их тюнинг\n- groovy обязателен\n- HashiCorp vault\n- AWS infrastructure, понимание ценообразования, трафика и днс, стоимости i\\o и особенностей rds\n- drone\n- cri-o/containerd\n- prometheus, grafana, elk, datadog\n- upper-intermediate English обязателен\nконтакты @erzentd\n\n—\n\n👉 Обсуждение вакансии в чате @devops_jobs","markup":[{"type":"hashtag","offset":0,"length":9,"data":"вакансия"},{"type":"hashtag","offset":10,"length":8,"data":"jenkins"},{"type":"hashtag","offset":19,"length":4,"data":"aws"},{"type":"hashtag","offset":24,"length":8,"data":"украина"},{"type":"hashtag","offset":33,"length":9,"data":"беларусь"},{"type":"hashtag","offset":43,"length":11,"data":"прибалтика"},{"type":"hashtag","offset":55,"length":7,"data":"remote"},{"type":"hashtag","offset":63,"length":9,"data":"удалёнка"},{"type":"handle","offset":791,"length":8,"data":"erzentd"},{"type":"handle","offset":834,"length":12,"data":"devops_jobs"}],"date":"2020-03-14T10:23:43+00:00","link":"tg://resolve?domain=devops_jobs_feed&post=1813","tags":[{"name":"jenkins"},{"name":"amazon-web-services"},{"name":"ansible"},{"name":"gradle"},{"name":"maven"},{"name":"java"},{"name":"jvm"},{"name":"groovy"}],"cities":[],"allowsRemote":true}},{"node":{"__typename":"Job","id":"1898971136-1001134745498","title":"Devops инженер","text":"#вакансия #москва #мск #devops #fulltime\n\nГород и адрес: Москва, м. Тульская\nФормат: офис, гибкий график\nВилка: от 100 000 до 170 000 руб. на руки\n\nПриглашаем инженера по внедрению в команду SmartDec. Наш герой будет доставлять анализатор безопасности Solar appScreener до заказчиков: устанавливать и настраивать приложение, обсуждать интеграцию, заниматься CI/CD. \n\nТребуются знания методов администрирования на уровне операционной системы, CI/CD-процессов, опыт разработки на Java, C++ или Python и навыки технической коммуникации. Будут плюсом знания в области безопасности приложений, опыт внедрения инструментов SAST и хороший английский. \n\nСреди клиентов Яндекс.Деньги, МТС, S7, РЖД и даже Сингапурские Авиалинии💫\n\nПрислать резюме: @alzhukovskaia\n\n—\n\n👉 Обсуждение вакансии в чате @devops_jobs","markup":[{"type":"hashtag","offset":0,"length":9,"data":"вакансия"},{"type":"hashtag","offset":10,"length":7,"data":"москва"},{"type":"hashtag","offset":18,"length":4,"data":"мск"},{"type":"hashtag","offset":23,"length":7,"data":"devops"},{"type":"hashtag","offset":31,"length":9,"data":"fulltime"},{"type":"handle","offset":739,"length":14,"data":"alzhukovskaia"},{"type":"handle","offset":788,"length":12,"data":"devops_jobs"}],"date":"2020-03-13T11:00:54+00:00","link":"tg://resolve?domain=devops_jobs_feed&post=1811","tags":[{"name":"java"},{"name":"python"}],"cities":[{"code":"moscow"}],"allowsRemote":false}},{"node":{"__typename":"Job","id":"1897922560-1001134745498","title":"Devops инженер","text":"#вакансия #DevOps #Москва \n\nЛокация: Москва, ст. м. Дмитровская\nФормат работы: офис \nЗанятость: полная\nЗарплатная вилка: от 180 000 до 250 000 руб. на руки.\n\nМы — команда эксплуатации сервиса ivi .\n\nРазыскиваем коллегу в команду для участия в настройке процессов, технических (CI/CD) и в части взаимодействия с коллегами. \nАктивное участие в разворачивании и эксплуатации k8s. Помогаем командам разработки строить CI/CD-пайплайны . Некоторые из нас это делают в составе кросс-команд, другие помогают многим командам, оставшиеся обеспечивают всех нас необходимыми приложениями и инфраструктурой.\n\nУчим команды использовать контейнеры (docker) для подготовки разрабатываемых приложений, осваиваем использование k8s для оркестрации. Используем Ubuntu, Linux.\n\nХраним код и разрабатываем pipeline-ы с помощью gitlab+artifactory .\nДля мониторинга серверов и сервисов используем zabbix и statsd , заправляем grafana.\nНаши сервисы написаны на python, golang и немного php и java.\nЛюбим и активно используем jenkins для решения самых разнообразных задач.\nИспользуем много open source (и не только) приложений: nginx, redis, postgresql, mongodb, rabbitmq, clickhouse, openstack, gitlab, kafka, hdfs, jira , opennebula.\n\nЧто предстоит делать: \n- развитие и настройки процессов ci/cd;\n- планирование и участие в рефакторинге процессов, инфраструктуры, приложений;\n- сопровождение сервисов от разработки до эксплуатации, участие в эксплуатации;\n- доработка текущих и разработка новых сценариев конфигурирования серверов и приложений; \n- администрирование приложений по результатам выполненной работы подготовка документации, если необходимо. \n\nКак узнать что ты нам подходишь? \n- положительный и продолжительный опыт работы с CI/CD-системами (у нас gitlab и jenkins);\n- умение хорошо готовить docker; \n- опыт программирования на скриптовых языках (shell, python);\nопыт администрирования linux и приложение 5+;\n- понимание сетевых технологий TCP/IP; \n- опыт работы с системами управления версиями (git) и конфигурациями. \n\nСо своей стороны мы обещаем: \n1. Подписку на ivi;\n2. Трудоустройство по ТК РФ;\n3. ДМС после прохождения испытательного срока;\n4. Футбольная команда ivi.ru принимает новых игроков;\n5. Обучение и митапы внутри компании, а также профессиональные курсы, тренинги и участие в конференциях;\n6. Оснащенный зонами отдыха, кухнями и прочими необходимыми вещами для комфортного нахождения офис в 5 минутах от ст. м. Дмитровская. \n\nОнлайн-кинотеатр ivi \nhttps://www.ivi.tv/\n\nБуду рада рассказать подробности, пишите в личку @daria144 или на почту dsereda@ivi.ru\n\n—\n\n👉 Обсуждение вакансии в чате @devops_jobs","markup":[{"type":"hashtag","offset":0,"length":9,"data":"вакансия"},{"type":"hashtag","offset":10,"length":7,"data":"DevOps"},{"type":"hashtag","offset":18,"length":7,"data":"Москва"},{"type":"link","offset":2158,"length":6,"data":"http://ivi.ru"},{"type":"link","offset":2453,"length":19,"data":"https://www.ivi.tv/"},{"type":"handle","offset":2523,"length":9,"data":"daria144"},{"type":"link","offset":2546,"length":14,"data":"mailto:dsereda@ivi.ru"},{"type":"handle","offset":2595,"length":12,"data":"devops_jobs"}],"date":"2020-03-13T10:36:50+00:00","link":"tg://resolve?domain=devops_jobs_feed&post=1810","tags":[{"name":"docker"},{"name":"ubuntu"},{"name":"linux"},{"name":"gitlab"},{"name":"python"},{"name":"go"},{"name":"php"},{"name":"java"},{"name":"jenkins"},{"name":"nginx"},{"name":"redis"},{"name":"postgresql"},{"name":"mongodb"},{"name":"rabbitmq"},{"name":"kafka"},{"name":"hdfs"},{"name":"shell"},{"name":"git"}],"cities":[{"code":"moscow"}],"allowsRemote":false}},{"node":{"__typename":"Job","id":"1895825408-1001134745498","title":"Devops инженер","text":"#вакансия #jenkins #aws #украина #беларусь #прибалтика #remote #удалёнка\nкомпания s-o-services\nФормат - remote\nз\\п 5-6$ gross\nУвы гражданам России, живущим в РФ - вакансия недоступна.\nHere's some of the tech we use in DevOps.\n\n- jenkins экспертное знание\n- ansible\n- gradle (some maven) погимане логов сборок и умение чётко рассказать программисту что пошло не так\n- java тюнинг, хорошее понимание работы gc(чем отличается cms от g1 и от zgc, и когда лучше взять zulu? а когда openjdk?), что и когда тюнить в jvm, настройка логов и их тюнинг\n- groovy обязателен\n- HashiCorp vault\n- AWS infrastructure, понимание ценообразования, трафика и днс, стоимости i\\o и особенностей rds\n- drone\n- cri-o/containerd\n- prometheus, grafana, elk, datadog\n- upper-intermediate обязателен\nконтакты @erzentd\n\n—\n\n👉 Обсуждение вакансии в чате @devops_jobs","markup":[{"type":"hashtag","offset":0,"length":9,"data":"вакансия"},{"type":"hashtag","offset":10,"length":8,"data":"jenkins"},{"type":"hashtag","offset":19,"length":4,"data":"aws"},{"type":"hashtag","offset":24,"length":8,"data":"украина"},{"type":"hashtag","offset":33,"length":9,"data":"беларусь"},{"type":"hashtag","offset":43,"length":11,"data":"прибалтика"},{"type":"hashtag","offset":55,"length":7,"data":"remote"},{"type":"hashtag","offset":63,"length":9,"data":"удалёнка"},{"type":"handle","offset":781,"length":8,"data":"erzentd"},{"type":"handle","offset":824,"length":12,"data":"devops_jobs"}],"date":"2020-03-13T06:47:09+00:00","link":"tg://resolve?domain=devops_jobs_feed&post=1808","tags":[{"name":"jenkins"},{"name":"amazon-web-services"},{"name":"ansible"},{"name":"gradle"},{"name":"maven"},{"name":"java"},{"name":"jvm"},{"name":"groovy"}],"cities":[],"allowsRemote":true}},{"node":{"__typename":"Job","id":"1891631104-1001134745498","title":"Devops engineer","text":"#вакансия #fulltime #devops #удалёнка\n\n💫Компания: i-techlabs\n\nЯ ищу опытного DevOps Engineer на проект по созданию Playtech Open Platform (POP) и игровой платформы как услуги (GPAS). \nОбе платформы построены с использованием архитектуры реактивных микроуслуг и написаны на языке программирования Scala.\nОни используют базу данных No-SQL Couchbase для сохранения и хранения данных.\n\n☕️Условия:\n\n• Вилка по зп 150 000 р.-200 000+р.\n• Удалённая работа\n• Полный день\n• Гибкий график\n\n💻Требования:\n\n• Более 3 лет опыта в DevOps или администрировании Linux\n• Хороший набор навыков Linux\n• Опыт работы с контейнерами Docker (сборка и развертывание)\n• Навыки программирования на Python / Bash\n• Jenkins\n• Управление Java-приложениями\n• Intermediate English \n\n☎️ Контакт: @coderhunt\n\n—\n\n👉 Обсуждение вакансии в чате @devops_jobs","markup":[{"type":"hashtag","offset":0,"length":9,"data":"вакансия"},{"type":"hashtag","offset":10,"length":9,"data":"fulltime"},{"type":"hashtag","offset":20,"length":7,"data":"devops"},{"type":"hashtag","offset":28,"length":9,"data":"удалёнка"},{"type":"handle","offset":765,"length":10,"data":"coderhunt"},{"type":"handle","offset":810,"length":12,"data":"devops_jobs"}],"date":"2020-03-12T15:07:40+00:00","link":"tg://resolve?domain=devops_jobs_feed&post=1804","tags":[{"name":"scala"},{"name":"sql"},{"name":"linux"},{"name":"docker"},{"name":"python"},{"name":"bash"},{"name":"jenkins"},{"name":"java"}],"cities":[],"allowsRemote":true}},{"node":{"__typename":"Job","id":"1886388224-1001134745498","title":"Devops инженер","text":"#вакансия \nВакансия: #devops  #fulltime #office\nКомпания: #нспк #псмир\nЛокация: #томск\nЗ/п: 100к-180к net (после вычета налогов)\n\n«Национальная система платежных карт» ищет DevOps-инженера.\n\nНСПК - развивающаяся компания, создающая финтех-сервисы, которыми пользуются миллионы людей. \n\nЗа 5 лет нашей истории мы разработали бизнес-продукты, аналоги которых в мире можно пересчитать по пальцам:\n✔️Платежная система \"Мир\";\n✔️Система быстрых платежей;\n✔️Программа лояльности \"Мир\";\n✔️Сервис мобильной оплаты MirPay;\n✔️Система аутентификации пользователей MirAccept.  \n\n⛏ Наш стек:  \nLinux, Docker, Git, Jenkins, Nexus, Ansible, Groovy, Python, Java, Spring, Gradle, MySql, Nginx, HAProxy, Kafka, Hazelcast, Prometheus, ELK, Atlassian stack. \n\n🧠 Какие у нас бывают задачи?\n- Написание конвейеров (CI/CD); \n- Автоматизация процессов создания окружений инфраструктуры разработки (репозитории, типовые job CI, RBAC, Ansible roles);\n- Автоматизация housekeeping. \n\n🎁 Мы предлагаем:\n- Работу в команде профессионалов;\n- Обучение за счет компании;\n- Развитую корпоративную культуру;\n- ДМС со стоматологией, официальное трудоустройство; \n- Комфортный офис в центре;\n- Чай, кофе, печеньки✌️\n\nХотите поучаствовать в масштабном и сложном проекте?\n\nМои контакты:\n📲 +7-916-051-20-63\n      @Ekaterina1915 \n\n📩 makarovaen@nspk.ru\n\n—\n\n👉 Обсуждение вакансии в чате @devops_jobs","markup":[{"type":"hashtag","offset":0,"length":9,"data":"вакансия"},{"type":"hashtag","offset":21,"length":7,"data":"devops"},{"type":"hashtag","offset":30,"length":9,"data":"fulltime"},{"type":"hashtag","offset":40,"length":7,"data":"office"},{"type":"hashtag","offset":58,"length":5,"data":"нспк"},{"type":"hashtag","offset":64,"length":6,"data":"псмир"},{"type":"hashtag","offset":80,"length":6,"data":"томск"},{"type":"link","offset":1253,"length":16,"data":"tel:+7-916-051-20-63"},{"type":"handle","offset":1276,"length":14,"data":"Ekaterina1915"},{"type":"link","offset":1296,"length":18,"data":"mailto:makarovaen@nspk.ru"},{"type":"handle","offset":1349,"length":12,"data":"devops_jobs"}],"date":"2020-03-12T08:17:51+00:00","link":"tg://resolve?domain=devops_jobs_feed&post=1799","tags":[{"name":"dotnet"},{"name":"linux"},{"name":"docker"},{"name":"git"},{"name":"jenkins"},{"name":"ansible"},{"name":"groovy"},{"name":"python"},{"name":"java"},{"name":"spring"},{"name":"gradle"},{"name":"mysql"},{"name":"nginx"},{"name":"kafka"}],"cities":[{"code":"tomsk"}],"allowsRemote":false}},{"node":{"__typename":"Job","id":"244318208-1001352129329","title":"Golang developer","text":"#вакансия Golang developer \n#вакансия #работа #кипр #cyprus #fulltime #relocate #релокация #golang #developer \n \nКомпания: TrafficStars \nГород: Лимасcол, Кипр \nФормат работы: офис \nЗанятость: полная \nЗарплатная вилка: от 2500 до 3500 евро на руки \nЯзыки: русский, английский на уровне свободного чтения технической документации, митинги на русском \n \nОбязанности: Разработка серверной части высоконагруженной рекламной сети на Golang. \n \nТребования: \n•Опыт веб-разработки не менее 3 лет; \n•Знание паттернов программирования MVC, ООП; \n•Отличное знание Go; \n•Отличное знание сетевых протоколов; \n•Опыт работы с реляционными базами данных, хорошее знание SQL; \n•Опыт работы с NoSQL; \n•Опыт командной работы (трекеры, знание Git, понимание Git Flow); \n•Умение разбираться в чужом коде. \n   \nМы приветствуем: \n•Знание языков C/C++, Python, Java, Erlang, NodeJs; \n•Опыт работы с высокими нагрузками; \n•Любовь к деталям и желание делать хорошо свою работу, а не так чтобы “просто работало“; \n•Умение отстаивать свою позицию, при этом прислушиваться к другим мнениям и сообща находить компромисс; \n•Желание развиваться и постигать новое; \n•Ориентацию на результат. \n   \nМы предлагаем: \n•Релокационный пакет: \n - покупаем билеты до Кипра тебе и твоей  семье; \n - встречаем в аэропорту; \n - оформляем рабочую визу; \n - оплачиваем жильё на первый месяц; \n•Медицинская страховка для тебя и твоей семьи; \n•50% компенсация затрат на детский сад и школу; \n•Оплачиваемая мобильная связь; \n•Бесплатные и вкусные завтраки, обеды и напитки; \n•Фрукты, снэки и другие вкусняшки в офисе; \n•Рабочий компьютер/ноутбук на выбор: Mac или PC; \n•Корпоративные скидки (кафе, магазины и др); \n•Бесплатные абонементы в спортзал и занятия йогой; \n•Уроки английского и греческого языка; \n•Корпоративные вечеринки, тимбилдинги; \n•Корпоративные митапы и конференции; \n•Интересные проекты; \n•Приятная рабочая атмосфера. \n  \nПрисоединяйся к нашей молодой и талантливой команде! \n \nКонтакты: +35795588440 \ntelegram: sofia_tomashevich \ne-mail: sofia@trafficstars.com\n Автор @sofia_tomashevich","markup":[{"type":"hashtag","offset":0,"length":9,"data":"вакансия"},{"type":"hashtag","offset":28,"length":9,"data":"вакансия"},{"type":"hashtag","offset":38,"length":7,"data":"работа"},{"type":"hashtag","offset":46,"length":5,"data":"кипр"},{"type":"hashtag","offset":52,"length":7,"data":"cyprus"},{"type":"hashtag","offset":60,"length":9,"data":"fulltime"},{"type":"hashtag","offset":70,"length":9,"data":"relocate"},{"type":"hashtag","offset":80,"length":10,"data":"релокация"},{"type":"hashtag","offset":91,"length":7,"data":"golang"},{"type":"hashtag","offset":99,"length":10,"data":"developer"},{"type":"link","offset":1958,"length":12,"data":"tel:+35795588440"},{"type":"link","offset":2009,"length":22,"data":"mailto:sofia@trafficstars.com"},{"type":"handle","offset":2039,"length":18,"data":"sofia_tomashevich"}],"date":"2020-03-05T10:01:01+00:00","link":"tg://resolve?domain=gogetajobfeed&post=233","tags":[{"name":"go"},{"name":"sql"},{"name":"nosql"},{"name":"git"},{"name":"python"},{"name":"java"},{"name":"erlang"},{"name":"nodejs"}],"cities":[{"code":"sofia"}],"allowsRemote":false}},{"node":{"__typename":"Job","id":"234881024-1001352129329","title":"Go разработчик","text":"#вакансия #go #lead #senior #blockchain #crypto #fulltime #офис #Москва #выставочная\n\nKICKICO https://www.kickico.com/ru/  — это международная платформа для безопасного и легкого сбора средств для ICO, preICO, краудфандинга и краудинвестинга.\n\nМы ищем Senior Go разработчика (с перспективой роста до лида, если это интересно). Сейчас формируется Go команда на проект по разработке крипто кошелька.На данный момень - есть один Go разработчик, нагнанный трафик, хорошие наработки по криптокошельку (одна из первых задач). После релиза кошелька будете заниматься нашим собственным блокчейном для обслуживания экосистемы (токены, смартконтракты, взаиморасчеты и т.д.) До конца 2020 года соберется команда из 4-5 человек. Предстоит много активной разработки, будет интересно - гарантируем:) \n\n\n## Наш стек: Go gRPC ProtoBuf flash rtmp PostgreSQL Redis Tarantool Prometheus Docker  \n\n\n##Задачи:\nактивная бекенд разработка и проектирование архитектуры;\nоценка и декомпозиция задач;\nкод ревью, тесты, документация.\n\nДа, мы - очередной блокчейн и стартап :) Но есть кое что, что выделяет нас на фоне остальных: самая прибыльная на рынке реферальная программа ref.kickex.com; максимально простой процесс связи сотрудников с руководством – вы сможете предложить свои идеи,озвучить потребности и вас услышат. У нас сплоченная команда разработки, есть возможность делится опытом, расти вертикально и при желании перейти из проекта в проект а также получить навыки в работе с БД и высокими нагрузками.\n\n## От вас:\nОпыт на Go от 2х лет;\nУмение писать unit / feature / integration тесты;\nЗнание основных компонентов и принципов работы Docker (Kubernetes);\nЧтение тех. документации;\nОпыт работы с OS Linux.\n\nБудет БОЛЬШИМ преимуществом опыт работы с блокчейн и знание других языков программирования (в идеале - Java или C++)\n\n## Условия:\nЗП 180-250 тыс на руки \nГибкое начало рабочего дня\nОфис класса А в шаговой доступности от метро Выставочная\nМы предоставляем рабочую машину MacBook или DELL (по вашим предпочтениям)\n\nЗа подробностями - @gablb\n Автор @gablb","markup":[{"type":"hashtag","offset":0,"length":9,"data":"вакансия"},{"type":"hashtag","offset":10,"length":3,"data":"go"},{"type":"hashtag","offset":14,"length":5,"data":"lead"},{"type":"hashtag","offset":20,"length":7,"data":"senior"},{"type":"hashtag","offset":28,"length":11,"data":"blockchain"},{"type":"hashtag","offset":40,"length":7,"data":"crypto"},{"type":"hashtag","offset":48,"length":9,"data":"fulltime"},{"type":"hashtag","offset":58,"length":5,"data":"офис"},{"type":"hashtag","offset":64,"length":7,"data":"Москва"},{"type":"hashtag","offset":72,"length":12,"data":"выставочная"},{"type":"link","offset":94,"length":27,"data":"https://www.kickico.com/ru/"},{"type":"hashtag","offset":880,"length":7,"data":"Задачи"},{"type":"link","offset":1150,"length":14,"data":"http://ref.kickex.com"},{"type":"handle","offset":2023,"length":6,"data":"gablb"},{"type":"handle","offset":2037,"length":6,"data":"gablb"}],"date":"2020-02-20T08:37:44+00:00","link":"tg://resolve?domain=gogetajobfeed&post=224","tags":[{"name":"go"},{"name":"flash"},{"name":"postgresql"},{"name":"redis"},{"name":"docker"},{"name":"kubernetes"},{"name":"linux"},{"name":"java"}],"cities":[{"code":"moscow"},{"code":"lida"}],"allowsRemote":false}},{"node":{"__typename":"Job","id":"229638144-1001352129329","title":"Go разработчик","text":"#вакансия #Москва #fulltime \n\nКомпания: Марксман\nЗарплатные вилка: от 140.000 до 230.000 на руки\nГород: Москва\nРабота в офисе \n\nУровень позиции: несколько вакансий от Junior до уверенного Senior. Для Junior Go-разработчиков важен бэкграунд в любом из перечисленных языков (Java, JS, Python, PHP, C++ и т.д) - готовы помогать с обучением!\n\nКоманда занимается разработкой собственного продукта (B2B и B2G) - облачного инфраструктурного решения. \n\nЗадачи: Проектирование архитектуры, разработка микросервисов на языке Go, code review. Мы активно работаем над созданием условий для развития программной экосистемы. Совершенствуется набор средств разработки (SDK) и интерфейс прикладного программирования (API). \n\nТребования: знание и опыт использования шаблонов проектирования, опыт многопоточного программирования, опыт разработки высокопроизводительных серверов или веб-приложений, опыт работы с базами данных, умение разбираться в чужом коде. Желательно - участие в Open Source проектах.  \n\nЗа деталями в личку - @very_ann\n Автор @very_ann","markup":[{"type":"hashtag","offset":0,"length":9,"data":"вакансия"},{"type":"hashtag","offset":10,"length":7,"data":"Москва"},{"type":"hashtag","offset":18,"length":9,"data":"fulltime"},{"type":"handle","offset":1012,"length":9,"data":"very_ann"},{"type":"handle","offset":1029,"length":9,"data":"very_ann"}],"date":"2020-02-11T09:14:30+00:00","link":"tg://resolve?domain=gogetajobfeed&post=219","tags":[{"name":"go"},{"name":"java"},{"name":"python"},{"name":"php"}],"cities":[{"code":"moscow"}],"allowsRemote":false}},{"node":{"__typename":"Job","id":"225443840-1001352129329","title":"Golang разработчик","text":"#вакансия #офис #москва\n#job #fulltime #office #moscow\n#Go #Golang\n\nВ команду разработки IAM (Identity and Access Management) облака Mail.ru Cloud Solutions ищу сильного разработчика. Мы разрабатываем распределенную высокопроизводиетльную систему, позволяющую обрабатывать сотни тысяч авторизационных запросов в секунду и объединяющую все сервисы облака Mail.ru\n\n\nКомпания: Mail.ru\nЗ/П: оклад 150к - 250к руб. после налогов в месяц + ежегодные премии\nРасположение: Москва, станция метро Аэропорт\nФормат работы: офис, фулл-тайм\n\nСтэк:  \n- Go, Lua, Tarantool\n\nТребования:\n- опыт работы не менее 3-х лет в высоконагруженных проектах на любом языке высокого уровня (Perl, Python, Java, C/C++, etc)\n- опыт разработки на Go не менее 2-х лет \n- алгоритмы, оценка сложности, структуры данных\n\nБудет плюсом:\n- опыт разработки и/или внедрения систем федеративного доступа на базе SAML, OAuth, OpenID\n- понимание систем управления каталогами LDAP и Active Directory\n\nКонтакты:\n@mkebich\n Автор @mkebich","markup":[{"type":"hashtag","offset":0,"length":9,"data":"вакансия"},{"type":"hashtag","offset":10,"length":5,"data":"офис"},{"type":"hashtag","offset":16,"length":7,"data":"москва"},{"type":"hashtag","offset":24,"length":4,"data":"job"},{"type":"hashtag","offset":29,"length":9,"data":"fulltime"},{"type":"hashtag","offset":39,"length":7,"data":"office"},{"type":"hashtag","offset":47,"length":7,"data":"moscow"},{"type":"hashtag","offset":55,"length":3,"data":"Go"},{"type":"hashtag","offset":59,"length":7,"data":"Golang"},{"type":"link","offset":133,"length":7,"data":"http://Mail.ru"},{"type":"link","offset":354,"length":7,"data":"http://Mail.ru"},{"type":"link","offset":374,"length":7,"data":"http://Mail.ru"},{"type":"handle","offset":966,"length":8,"data":"mkebich"},{"type":"handle","offset":982,"length":8,"data":"mkebich"}],"date":"2020-02-10T11:22:24+00:00","link":"tg://resolve?domain=gogetajobfeed&post=215","tags":[{"name":"go"},{"name":"ms-access"},{"name":"cloud"},{"name":"lua"},{"name":"perl"},{"name":"python"},{"name":"java"},{"name":"oauth"},{"name":"ldap"},{"name":"active-directory"}],"cities":[{"code":"moscow"}],"allowsRemote":false}}]}}},"context":{}}