{"hash":"f5f6bf98bd95e769321482904cbbd488f77922fd","data":{"records":{"id":"sass","name":"sass","belongsTo":{"totalCount":31,"pageInfo":{"totalPages":4,"currentPage":1},"edges":[{"node":{"__typename":"Job","id":"17354981376-1001110946746","title":"Js developer","text":"#вакансия #ReactNative #NodeJS #Remote \n\n✅Вакансия: React Native  Developer\n✅Занятость: full-time, remote\n✅ЗП вилка:180000- 250 000 rub\nКА: IT.HuntMe\n\nCurrently we are looking for a Senior React Native Software Engineer to work on solutions for enterprise-level clients with our best-in-class engineering and design teams. \n❇️Responsibilities:\n* Build New ReactNative app\n* Integrate with our Cloud-based video editing API\n* Implement new UI to expose new editing features\n* Convert product requirements into actionable and tangible items for all stakeholders\n* Overall Design - code, performance, security\n* Release estimation, planning and timely integration with other stakeholders (product, app, backend, ui/ux etc)\n* Performance fixes and optimization\n* JSON API design and finalization\n* Continuously discover, evaluate, and implement new best practices to maximize development quality efficiency\n* Code review\n* Build modular, efficient, testable, and reusable React components\n\n❇️Basic qualifications:\n* Experienced, ReactNative Lead\n* Comfortable with modern JS frameworks (NodeJS, ReactJS/AngularJS), MongoDB, HTML5 and SASS\n* Have experience building and running production-ready API’s\n* 2+ years of React Native/full-stack work experience\n* Influence which tools, programming languages, and technologies you work with\n* Help ensure we have a smooth software pipeline for continuous and fast delivery\n* Balance discovery phases with implementation work\n* Be excellent at working both independently and in a team\n* Passion for software development, scalable architecture and product build\n\n♻️Preferred qualifications:\n* Native Android or iPhone development experience, or experience developing in Ionic\n* Experience building a SaaS service\n* User interface and visual design skills\n* Experience with Azure/AWS\n\n👍 WE OFFER:  \n* Competitive compensation depending on experience and skills  \n* Work in enterprise-level projects on a long-term basis  \n* Full-time remote work (you can work from anywhere you are)  \n* Unlimited access to learning courses \n* Community of 36,700+ industry’s top professionals  \n\n✍️Контакты: @mary_itfox или it.huntme@gmail.com","markup":[{"type":"hashtag","offset":0,"length":9,"data":"вакансия"},{"type":"hashtag","offset":10,"length":12,"data":"ReactNative"},{"type":"hashtag","offset":23,"length":7,"data":"NodeJS"},{"type":"hashtag","offset":31,"length":7,"data":"Remote"},{"type":"handle","offset":2129,"length":11,"data":"mary_itfox"},{"type":"link","offset":2145,"length":19,"data":"mailto:it.huntme@gmail.com"}],"date":"2020-07-03T09:55:06+00:00","link":"tg://resolve?domain=javascript_jobs_feed&post=16551","tags":[{"name":"javascript"},{"name":"nodejs"},{"name":"reactjs"},{"name":"cloud"},{"name":"json"},{"name":"angularjs"},{"name":"mongodb"},{"name":"html"},{"name":"sass"},{"name":"android"},{"name":"azure"},{"name":"amazon-web-services"},{"name":"ms-access"},{"name":"react-native"},{"name":"user-interface"}],"cities":[],"allowsRemote":true}},{"node":{"__typename":"Job","id":"17331912704-1001110946746","title":"Js разработчик","text":"Greenatom.ru\n#вакансия #Москва #javascript #React #Typescript #Node.js #Middle #Senior #удаленка #удаленная работа \n\n👨🏼‍💻 Middle/Senior Frontend Developer, Middle/Senior Backend Developer\nГород и адрес офиса: #Москва, БЦ Сириус Парк, метро Нагатинская\n\n✅Формат работы: \nУДАЛЕННАЯ РАБОТА\n\n💻Занятость: полная, гибкое начало трудового дня.\n\nЗарплатная вилка: от 170 000 до 230 000 руб. на руки.\n\n🏢Компания: АО Гринатом\n\nПривет! Мы растём и активно развиваем ряд внутренних проектов: например, корпоративный портал, горячая линия, собственная кадровая система для 400 предприятий! \nМы формируем НЕСКОЛЬКО КОМАНД, общей численностью более 60 человек и ищем классных:\n\n✅ФРОНТЕНД  разработчиков;\n\n✅БЭКЕНД разработчиков. \n\nПроекты в стадии разработки пилота и у тебя есть возможность повлиять на дальнейшее развитие продукта. Если у тебя есть крутые идеи - ты сможешь их здесь реализовать! Откликайся сам и зови друзей! Вирус пройдёт, работа останется!\n\n✅Требуемые знания и навыки:\n- Опыт разработки от двух лет\n- Хорошее знание чистого JS\n- Опыт работы с TypeScript\n- React, MobX, Less/Sass\n- Опыт написания юнит-тестов с помощью Jest, Enzymе очень приветствуется\n\n💡Наш стек:\n      React, TypeScript, Node.js, MobX, Docker\n\nМы работаем по Scrum.\n\n✅Условия:\n- Полная удаленка \n(Если тебе нравится работать в офисе, мы не против)\n- Официальное оформление в штат по ТК, белая зп;\n- Бессрочный трудовой договор; \n- Годовой бонус;\n- Возможности профессионального и карьерного роста;\n- Дополнительные 3 дня к отпуску;\n- Плавающее начало дня;\n- ДМС со стоматологией.\n\n☎️Контакты:\nЮлия - YAnZueva@Greenatom.ru","markup":[{"type":"link","offset":0,"length":12,"data":"http://Greenatom.ru"},{"type":"hashtag","offset":13,"length":9,"data":"вакансия"},{"type":"hashtag","offset":23,"length":7,"data":"Москва"},{"type":"hashtag","offset":31,"length":11,"data":"javascript"},{"type":"hashtag","offset":43,"length":6,"data":"React"},{"type":"hashtag","offset":50,"length":11,"data":"Typescript"},{"type":"hashtag","offset":62,"length":5,"data":"Node"},{"type":"hashtag","offset":71,"length":7,"data":"Middle"},{"type":"hashtag","offset":79,"length":7,"data":"Senior"},{"type":"hashtag","offset":87,"length":9,"data":"удаленка"},{"type":"hashtag","offset":97,"length":10,"data":"удаленная"},{"type":"hashtag","offset":212,"length":7,"data":"Москва"},{"type":"link","offset":1579,"length":21,"data":"mailto:YAnZueva@Greenatom.ru"}],"date":"2020-07-02T16:34:22+00:00","link":"tg://resolve?domain=javascript_jobs_feed&post=16529","tags":[{"name":"javascript"},{"name":"reactjs"},{"name":"typescript"},{"name":"nodejs"},{"name":"sass"},{"name":"docker"}],"cities":[{"code":"moscow"}],"allowsRemote":true}},{"node":{"__typename":"Job","id":"17328766976-1001110946746","title":"Js разработчик","text":"#вакансия #angularjs #react #москва #javascript #typescript\n\nГород: Москва (ст.м. Аэропорт).\n\nФормат работы: remote.\n\nЗанятость: полная. \n\nВилка: 100-200 т.р. на руки.\n\nПрофессиональные знания:\nУверенное знание HTML, CSS, JavaScript\nОпыт работы с Angular 2+, будет плюсом опыт работы с react, redux\nОтличное знание JavaScript (ES5, ES6+) и TypeScript\nОпыт верстки (css, stylus, sass) \n\nФункционал:\n\n• Проектирование, разработка клиентской части систем дистанционного банковского обслуживания, тестирование и выпуск обновлений.\n\n• Рефакторинг Legacy кода;\n\n• Участие в оценке сроков, трудоёмкости и проектирование приложений.\n\n\nНазвание компании: Локо-Банк\nhttps://www.lockobank.ru//\nhttps://hh.ru/vacancy/37795548\n\nКонтакты: @hrlocko","markup":[{"type":"hashtag","offset":0,"length":9,"data":"вакансия"},{"type":"hashtag","offset":10,"length":10,"data":"angularjs"},{"type":"hashtag","offset":21,"length":6,"data":"react"},{"type":"hashtag","offset":28,"length":7,"data":"москва"},{"type":"hashtag","offset":36,"length":11,"data":"javascript"},{"type":"hashtag","offset":48,"length":11,"data":"typescript"},{"type":"link","offset":656,"length":26,"data":"https://www.lockobank.ru//"},{"type":"link","offset":683,"length":30,"data":"https://hh.ru/vacancy/37795548"},{"type":"handle","offset":725,"length":8,"data":"hrlocko"}],"date":"2020-07-02T16:32:21+00:00","link":"tg://resolve?domain=javascript_jobs_feed&post=16526","tags":[{"name":"javascript"},{"name":"angularjs"},{"name":"reactjs"},{"name":"typescript"},{"name":"html"},{"name":"css"},{"name":"redux"},{"name":"sass"},{"name":"react-redux"}],"cities":[{"code":"moscow"}],"allowsRemote":true}},{"node":{"__typename":"Job","id":"17322475520-1001110946746","title":"Javascript разработчик","text":"#вакансия #frontend #react #typescript #middle #senior #москва #офис #fulltime\n\nПозиция – Frontend developer (Middle)\n\nКомпания – Quadcom\n\nЛокация – Москва, м. Ботанический сад\n\nЗанятость – полная, офис, гибкое время начала дня\n\nОплата: от 110 000 до 150 000 рублей на руки\n\n\n\nМы ищем талантливого фронтенд-разработчика в нашу не очень большую, но дружную команду. Если ты легко осваиваешь новые технологии, любишь чистый и красивый код, знаешь алгоритмы и готов развиваться, то мы очень хотим тебя к себе!\n\nМы разрабатываем различные сервисы и интерфейсы для внутреннего и внешнего использования. У нас есть как большие проекты, так и маленькие. Начиная с 2014 года с небольшой команды мы развились до довольно большой компании и развиваемся дальше\n\nБазируемся в уютном бизнес-центре Ультрамарин, недалеко от метро Ботанический сад и ВДНХ. У нас гибкий рабочий график, современный офис и отличное оборудование для работы.\n\n\n\n✅ Необходимые навыки:\n\n• Знание Javascript и ES6+, React + Redux\n\n• Уверенные знания HTML, CSS/SASS/LESS, опыт кроссбраузерной верстки\n\n• Опыт работы в команде с использованием Git и любого системой управления задачами\n\n\n\n✅ Плюсом будет:\n\n• Опыт работы с RestAPI\n\n• Знакомство с TypeScript\n\n• Знание алгоритмов и структур данных\n\n\n\n✅ Мы предлагаем:\n\nРаботу в успешной, растущей компании\n\nКарьерный и профессиональный рост\n\nУютный офис\n\nОтсутствие какого-либо дресс-кода\n\nСвободный график\n\nАдекватное руководство\n\n\n\nЗП от 110 000 до 150 000 рублей на руки\n\nпо итогам собеседования и испытательного срока\n\n\n\n☎️ Контакты для обсуждения вакансии:\n\ntelegram @codebor\n\ne-mail ybb@quadcom.ru\n\n\n\nДля желающих мы подготовили небольшое интересное задание\nhttps://github.com/walborn/test-backend-jwt/blob/master/task.md","markup":[{"type":"hashtag","offset":0,"length":9,"data":"вакансия"},{"type":"hashtag","offset":10,"length":9,"data":"frontend"},{"type":"hashtag","offset":20,"length":6,"data":"react"},{"type":"hashtag","offset":27,"length":11,"data":"typescript"},{"type":"hashtag","offset":39,"length":7,"data":"middle"},{"type":"hashtag","offset":47,"length":7,"data":"senior"},{"type":"hashtag","offset":55,"length":7,"data":"москва"},{"type":"hashtag","offset":63,"length":5,"data":"офис"},{"type":"hashtag","offset":69,"length":9,"data":"fulltime"},{"type":"handle","offset":1579,"length":8,"data":"codebor"},{"type":"link","offset":1596,"length":14,"data":"mailto:ybb@quadcom.ru"},{"type":"link","offset":1671,"length":63,"data":"https://github.com/walborn/test-backend-jwt/blob/master/task.md"}],"date":"2020-07-02T16:28:50+00:00","link":"tg://resolve?domain=javascript_jobs_feed&post=16520","tags":[{"name":"javascript"},{"name":"reactjs"},{"name":"typescript"},{"name":"redux"},{"name":"html"},{"name":"css"},{"name":"sass"},{"name":"git"},{"name":"github"},{"name":"jwt"},{"name":"react-redux"}],"cities":[{"code":"moscow"}],"allowsRemote":false}},{"node":{"__typename":"Job","id":"17311989760-1001110946746","title":"Js разработчик","text":"#вакансия #екб #react #fulltime #Fullstack #NodeJS #middle\n\nПозиция: FULLSTACK разработчик (node.js, react)\nКомпания: SoftMediaLab \nЛокация: Екатеринбург \nФормат работы: #удаленка\nЗанятость: #фултайм\nЗП 110 00 - 140 000 рублей на руки (пересмотр з/п раз в год)\n\nSoftMediaLab —основана в 2015 году в городе Екатеринбурге. Основатели компании - разработчики, поэтому никакой бюрократии и странных решений, процессы максимально простые и понятные, среда дружественная. На данный момент более 50 выполненных проектов в России, Канаде, Европе, Израиле, Сингапуре и США.\n\nТребования:\n- Обязателен опыт работы с Node.js и React (не менее 2х лет)\n- Опыт работы с базой данных PostgreSQL\n- Опыт работы с системами контроля версий.\n- Владение английским языком на уровне чтения документации. Плюсом будет владение разговорным английским для международных проектов.\n- Опыт написания unit-тестов.\n\nСтек: node.js, react, typescript, express.js, socket.io, PostgreSQL , bootstrap, material-ui, JQuery, sass, less\n\nКонтакты: @Ekaterina_Mitroshkina или @iamanastasie","markup":[{"type":"hashtag","offset":0,"length":9,"data":"вакансия"},{"type":"hashtag","offset":10,"length":4,"data":"екб"},{"type":"hashtag","offset":15,"length":6,"data":"react"},{"type":"hashtag","offset":22,"length":9,"data":"fulltime"},{"type":"hashtag","offset":32,"length":10,"data":"Fullstack"},{"type":"hashtag","offset":43,"length":7,"data":"NodeJS"},{"type":"hashtag","offset":51,"length":7,"data":"middle"},{"type":"hashtag","offset":170,"length":9,"data":"удаленка"},{"type":"hashtag","offset":191,"length":8,"data":"фултайм"},{"type":"link","offset":933,"length":9,"data":"http://socket.io"},{"type":"handle","offset":1011,"length":22,"data":"Ekaterina_Mitroshkina"},{"type":"handle","offset":1038,"length":13,"data":"iamanastasie"}],"date":"2020-07-02T09:21:42+00:00","link":"tg://resolve?domain=javascript_jobs_feed&post=16510","tags":[{"name":"javascript"},{"name":"reactjs"},{"name":"nodejs"},{"name":"postgresql"},{"name":"typescript"},{"name":"express"},{"name":"bootstrap"},{"name":"jquery"},{"name":"sass"}],"cities":[],"allowsRemote":true}},{"node":{"__typename":"Job","id":"17232297984-1001110946746","title":"Js разработчик","text":"Greenatom.ru\n#вакансия #Москва #javascript #React #Typescript #Node.js #Middle #Senior #удаленка #удаленная работа \n\n👨🏼‍💻 Middle/Senior Frontend Developer, Middle/Senior Backend Developer\nГород и адрес офиса: #Москва, БЦ Сириус Парк, метро Нагатинская\n\n✅Формат работы: \nУДАЛЕННАЯ РАБОТА\n\n💻Занятость: полная, гибкое начало трудового дня.\n\nЗарплатная вилка: от 170 000 до 230 000 руб. на руки.\n\n🏢Компания: АО Гринатом\n\nПривет! Мы растём и активно развиваем ряд внутренних проектов: например, корпоративный портал, горячая линия, собственная кадровая система для 400 предприятий! \nМы формируем НЕСКОЛЬКО КОМАНД, общей численностью более 60 человек и ищем классных:\n\n✅ФРОНТЕНД  разработчиков;\n\n✅БЭКЕНД разработчиков. \n\nПроекты в стадии разработки пилота и у тебя есть возможность повлиять на дальнейшее развитие продукта. Если у тебя есть крутые идеи - ты сможешь их здесь реализовать! Откликайся сам и зови друзей! Вирус пройдёт, работа останется!\n\n✅Требуемые знания и навыки:\n- Опыт разработки от двух лет\n- Хорошее знание чистого JS\n- Опыт работы с TypeScript\n- React, MobX, Less/Sass\n- Опыт написания юнит-тестов с помощью Jest, Enzymе очень приветствуется\n\n💡Наш стек:\n      React, TypeScript, Node.js, MobX, Docker\n\nМы работаем по Scrum.\n\n✅Условия:\n- Официальное оформление в штат по ТК, белая зп;\n- Бессрочный трудовой договор; \n- Годовой бонус;\n- Возможности профессионального и карьерного роста;\n- Дополнительные 3 дня к отпуску;\n- Плавающее начало дня;\n- ДМС со стоматологией;\n- Полная удаленка \n(Если тебе нравится работать в офисе, мы не против)\n\n☎️Контакты:\nЮлия - YAnZueva@Greenatom.ru","markup":[{"type":"link","offset":0,"length":12,"data":"http://Greenatom.ru"},{"type":"hashtag","offset":13,"length":9,"data":"вакансия"},{"type":"hashtag","offset":23,"length":7,"data":"Москва"},{"type":"hashtag","offset":31,"length":11,"data":"javascript"},{"type":"hashtag","offset":43,"length":6,"data":"React"},{"type":"hashtag","offset":50,"length":11,"data":"Typescript"},{"type":"hashtag","offset":62,"length":5,"data":"Node"},{"type":"hashtag","offset":71,"length":7,"data":"Middle"},{"type":"hashtag","offset":79,"length":7,"data":"Senior"},{"type":"hashtag","offset":87,"length":9,"data":"удаленка"},{"type":"hashtag","offset":97,"length":10,"data":"удаленная"},{"type":"hashtag","offset":212,"length":7,"data":"Москва"},{"type":"link","offset":1579,"length":21,"data":"mailto:YAnZueva@Greenatom.ru"}],"date":"2020-06-29T17:49:45+00:00","link":"tg://resolve?domain=javascript_jobs_feed&post=16434","tags":[{"name":"javascript"},{"name":"reactjs"},{"name":"typescript"},{"name":"nodejs"},{"name":"sass"},{"name":"docker"}],"cities":[{"code":"moscow"}],"allowsRemote":true}},{"node":{"__typename":"Job","id":"17229152256-1001110946746","title":"Javascript разработчик","text":"#вакансия #middledev #frontend #javascript #react #fulltime \n\nЛокация: Казахстан, город Алматы\nФормат работы: офис или удаленка\nЗанятость: полная\nЗарплатная вилка: 70к – 100к рублей (350К - 600К тенге)\n\nОписание вакансии:\n\nMiddle React Frontend Developer\n\nОбязанности:\n • Проектирование и разработка удобных и практичных интерфейсов веб-приложений;\n • Кроссбраузерная и адаптивная верстка компонентов системы;\n • Интеграция с серверной частью через API;\n • Поддержка и развитие существующих проектов;\n • Тестирование и оптимизация написанного кода;\n • Участие в проектировании архитектуры систем;\n • Планирование работы и оценка задач;\n • Взаимодействие с backend-разработчиками, менеджером проекта и архитектором  системы;\n\nТребования:\n • Уверенное владение и реальный опыт работы с React;\n • Знание библиотек Redux/Next, TypeScript;\n • Уверенное знание Javascript (ES6+);\n • Владение HTML5 и CSS3 (адаптивная, кроссбраузерная, семантическая верстка);\n • Умение работать с системой контроля версий (Git);\n • Знание современных парадигм программирования, умение писать чистый и быстрый код;\n • Знание архитектуры веб приложения и принципов клиент-серверного взаимодействия;\n • Знание английского языка на уровне чтения технической документации и зарубежных ресурсов;\n • Знание препроцессоров (SASS, SCSS, Stylus, Pug);\n • Хорошие навыки работы со сборщиками (Webpack, Gulp);\n • Postman / Swagger UI;\n\nНазвание компании: KIT SYSTEMS (разработка CRM / ERP / BMP систем управления)\n\nКонтакты: Писать @askhhh или звонить по номеру +77010999936","markup":[{"type":"hashtag","offset":0,"length":9,"data":"вакансия"},{"type":"hashtag","offset":10,"length":10,"data":"middledev"},{"type":"hashtag","offset":21,"length":9,"data":"frontend"},{"type":"hashtag","offset":31,"length":11,"data":"javascript"},{"type":"hashtag","offset":43,"length":6,"data":"react"},{"type":"hashtag","offset":50,"length":9,"data":"fulltime"},{"type":"handle","offset":1497,"length":7,"data":"askhhh"},{"type":"link","offset":1527,"length":12,"data":"tel:+77010999936"}],"date":"2020-06-29T16:13:31+00:00","link":"tg://resolve?domain=javascript_jobs_feed&post=16431","tags":[{"name":"javascript"},{"name":"reactjs"},{"name":"redux"},{"name":"typescript"},{"name":"html"},{"name":"css"},{"name":"git"},{"name":"sass"},{"name":"webpack"},{"name":"gulp"},{"name":"swagger"}],"cities":[{"code":"almaty"}],"allowsRemote":true}},{"node":{"__typename":"Job","id":"17218666496-1001110946746","title":"Javascript разработчик","text":"#вакансия #удаленка #работа #html #css #javascript \n\nГород и адрес офиса: любой\nФормат работы: удаленка\nЗанятость: полная\nЗарплатная вилка:  2000$ - 2400$\n\nИщем крутого верстальщика, фултайм, американский стартап (крутая стартап-корпоративная культура, адекватное начальство, зарплата по курсу в долларах), свой продукт, рост по знаниям и деньгам! \nТребования: \n • Уметь в верстку на 10 из 5 (responsive / adaptive, Pixel Perfect, SASS, HTML5, SEO Optimized, дружить с Figma) \n • Быть адекватным - четко соблюдать оговоренные условия (если вы не придете на пару интервью вовремя или любите проспать гибкое начало рабочего дня - не пишите нам) \n • Мочь в письменный английский (а если можете говорить - это +100 к нашей совместимости) \n\nПолная вакансия по ссылке: https://career.habr.com/vacancies/1000059669\n \nКомпания: Waltbury\n\nКонтакты: Пожалуйста, присылайте ссылки на ваше CV, ссылки на LinkedIn / Habr страничку, ссылку на гитхаб и по возможности портфолио на sergey@waltbury.com\n\n—\n\n👉 Обсуждение вакансии в чате @javascript_jobs","markup":[{"type":"hashtag","offset":0,"length":9,"data":"вакансия"},{"type":"hashtag","offset":10,"length":9,"data":"удаленка"},{"type":"hashtag","offset":20,"length":7,"data":"работа"},{"type":"hashtag","offset":28,"length":5,"data":"html"},{"type":"hashtag","offset":34,"length":4,"data":"css"},{"type":"hashtag","offset":39,"length":11,"data":"javascript"},{"type":"link","offset":763,"length":44,"data":"https://career.habr.com/vacancies/1000059669"},{"type":"link","offset":966,"length":19,"data":"mailto:sergey@waltbury.com"},{"type":"handle","offset":1020,"length":16,"data":"javascript_jobs"}],"date":"2020-06-29T13:35:59+00:00","link":"tg://resolve?domain=javascript_jobs_feed&post=16421","tags":[{"name":"javascript"},{"name":"html"},{"name":"css"},{"name":"sass"},{"name":"seo"}],"cities":[],"allowsRemote":true}},{"node":{"__typename":"Job","id":"17201889280-1001110946746","title":"Js разработчик","text":"#вакансия #remote #удаленка #Angular9 #SASS #Fulstack #Frontend #Backend #Bulma #Node.js #JavaScript\n\nФормат: Удаленка\nЗанятость: Проектная\nУровень: Middle/Senior\nЗп: 500 USD -> 2000 USD или проектная после собеседования.\n\nО компании: БиКинг (https://beking.co) - разработка приложений и сервисов на основе web-технологий. Мы ищем к себе в команду ответственного человека, который хочет и готов активно расти как разработчик и специалист. Компания молодая. Пока в компании програмистов нету.\n\nОбязанности:\n- Разработка Web приложений на Angular, Reakt с применением современных framework-ов\n- Исследование и внедрение новых тенденций и технологий\n\nТребования:\n- Хорошее знание JavaScript (ES5, ES6), HTML, SASS, CSS, Typescript\n- Знание Адаптивной Вёрстки\n- Опыт работы с современными фреймворками (Angular/React, Bulma)\n- Умение работать с REST\n- Хорошее умение пользоваться Git\n- Навыки работы в интернациональной команде\n\nБудет плюсом:\n- Разговорный английский, испаский язык\n- Знание Node.js и опыт работы с Express.js/Nest.js/Next.js\n- Умение верстать дизайн из Adobe XD.\n\nМы предлагаем:\n- Гибкий график работы\n- Постоянное обучение, развитие скиллов\n- Возможность получить опыт в разных проектах и изучить новые технологии\n\nКонтакты: @yuribkng","markup":[{"type":"hashtag","offset":0,"length":9,"data":"вакансия"},{"type":"hashtag","offset":10,"length":7,"data":"remote"},{"type":"hashtag","offset":18,"length":9,"data":"удаленка"},{"type":"hashtag","offset":28,"length":9,"data":"Angular9"},{"type":"hashtag","offset":38,"length":5,"data":"SASS"},{"type":"hashtag","offset":44,"length":9,"data":"Fulstack"},{"type":"hashtag","offset":54,"length":9,"data":"Frontend"},{"type":"hashtag","offset":64,"length":8,"data":"Backend"},{"type":"hashtag","offset":73,"length":6,"data":"Bulma"},{"type":"hashtag","offset":80,"length":5,"data":"Node"},{"type":"hashtag","offset":89,"length":11,"data":"JavaScript"},{"type":"link","offset":243,"length":17,"data":"https://beking.co"},{"type":"handle","offset":1240,"length":9,"data":"yuribkng"}],"date":"2020-06-29T06:52:19+00:00","link":"tg://resolve?domain=javascript_jobs_feed&post=16405","tags":[{"name":"javascript"},{"name":"angularjs"},{"name":"sass"},{"name":"nodejs"},{"name":"web"},{"name":"html"},{"name":"css"},{"name":"typescript"},{"name":"reactjs"},{"name":"rest"},{"name":"git"},{"name":"express"}],"cities":[],"allowsRemote":true}},{"node":{"__typename":"Job","id":"17191403520-1001110946746","title":"Js разработчик","text":"Greenatom.ru\n#вакансия #Москва #javascript #React #Typescript #Node.js #Middle #Senior #удаленка #удаленная работа \n\n👨🏼‍💻 Middle/Senior Frontend Developer, Middle/Senior Backend Developer\nГород и адрес офиса: #Москва, БЦ Сириус Парк, метро Нагатинская\n\n✅Формат работы: \nУДАЛЕННАЯ РАБОТА\n\n💻Занятость: полная, гибкое начало трудового дня.\n\nЗарплатная вилка: от 170 000 до 230 000 руб. на руки.\n\n🏢Компания: АО Гринатом\n\nПривет! Мы растём и активно развиваем ряд внутренних проектов: например, корпоративный портал, горячая линия, собственная кадровая система для 400 предприятий! \nМы формируем НЕСКОЛЬКО КОМАНД, общей численностью более 60 человек и ищем классных:\n\n✅ФРОНТЕНД  разработчиков;\n\n✅БЭКЕНД разработчиков. \n\nПроекты в стадии разработки пилота и у тебя есть возможность повлиять на дальнейшее развитие продукта. Если у тебя есть крутые идеи - ты сможешь их здесь реализовать! Откликайся сам и зови друзей! Вирус пройдёт, работа останется!\n\n✅Требуемые знания и навыки:\n- Опыт разработки от двух лет\n- Хорошее знание чистого JS\n- Опыт работы с TypeScript\n- React, MobX, Less/Sass\n- Опыт написания юнит-тестов с помощью Jest, Enzymе очень приветствуется\n\n💡Наш стек:\n      React, TypeScript, Node.js, MobX, Docker\n\nМы работаем по Scrum.\n\n✅Условия:\n- Официальное оформление в штат по ТК, белая зп;\n- Бессрочный трудовой договор; \n- Годовой бонус;\n- Возможности профессионального и карьерного роста;\n- Дополнительные 3 дня к отпуску;\n- Плавающее начало дня;\n- ДМС со стоматологией;\n- Полная удаленка \n(Если тебе нравится работать в офисе, мы не против)\n\n☎️Контакты:\nЮлия - YAnZueva@Greenatom.ru","markup":[{"type":"link","offset":0,"length":12,"data":"http://Greenatom.ru"},{"type":"hashtag","offset":13,"length":9,"data":"вакансия"},{"type":"hashtag","offset":23,"length":7,"data":"Москва"},{"type":"hashtag","offset":31,"length":11,"data":"javascript"},{"type":"hashtag","offset":43,"length":6,"data":"React"},{"type":"hashtag","offset":50,"length":11,"data":"Typescript"},{"type":"hashtag","offset":62,"length":5,"data":"Node"},{"type":"hashtag","offset":71,"length":7,"data":"Middle"},{"type":"hashtag","offset":79,"length":7,"data":"Senior"},{"type":"hashtag","offset":87,"length":9,"data":"удаленка"},{"type":"hashtag","offset":97,"length":10,"data":"удаленная"},{"type":"hashtag","offset":212,"length":7,"data":"Москва"},{"type":"link","offset":1579,"length":21,"data":"mailto:YAnZueva@Greenatom.ru"}],"date":"2020-06-28T17:42:12+00:00","link":"tg://resolve?domain=javascript_jobs_feed&post=16395","tags":[{"name":"javascript"},{"name":"reactjs"},{"name":"typescript"},{"name":"nodejs"},{"name":"sass"},{"name":"docker"}],"cities":[{"code":"moscow"}],"allowsRemote":true}}]}}},"context":{}}