{"hash":"f5f6bf98bd95e769321482904cbbd488f77922fd","data":{"records":{"id":"webpack","name":"webpack","belongsTo":{"totalCount":48,"pageInfo":{"totalPages":5,"currentPage":5},"edges":[{"node":{"__typename":"Job","id":"16939745280-1001110946746","title":"Js developer","text":"#вакансия #JavaScript #Angular \n\nЛокация: Москва м.Достоевская/Новослободская/Менделеевская\nФормат работы: Удаленный формат работы на время карантина/далее офис\nЗанятость: полная\nЗаработная плата: от 140 000 до 240 000 после вычета налогов\nВакансия: Middle/Senior Front Developer\nКомпания: YCLIENTS\nКонтакты: @chernoglazau\n\n⭐️YCLIENTS -облачная ERP система - предоставляет сервисы онлайн-записи, складского учета, расчета зарплат сотрудников, управления уведомлениями и программой лояльности. \nПроекту 10 лет. На сегодняшний день клиентами YCLIENTS являются более 19 тысяч компаний в 400 городах России и стран СНГ. Ежемесячно на платформе совершается более 9 миллионов записей к 160 000 специалистов.\n\n💥Требования:\n    • Отличные знания JavaScript (es.next), TypeScript\n    • Обширный опыт работы с angular (4+) и angularjs, опыт работы с большими проектами\n    • Качественно верстать по mobile-first (Edge и нормальные браузеры)\n    • Опыт работы с cordova/phonegap\n    • Хорошо знаешь как работает git, комфортно себя чувствует в *nix-консоли\n    • Знает, как настраивать webpack\n     \n     💥 Мы работаем командой, и мнение каждого члена для нас имеет значение\n    • Работаем по Agile, в команде есть Scrum-мастер\n    • Отличный Work/Life баланс\n    • Гарантируем, что каждый получит технический буст на этом проекте. Научим, расскажем, главное чтобы Вы были открыты к новым знаниям.\n\nЕсли ты готов к переменам, пиши сразу мне, буду рада пообщаться!","markup":[{"type":"hashtag","offset":0,"length":9,"data":"вакансия"},{"type":"hashtag","offset":10,"length":11,"data":"JavaScript"},{"type":"hashtag","offset":22,"length":8,"data":"Angular"},{"type":"handle","offset":309,"length":13,"data":"chernoglazau"},{"type":"link","offset":751,"length":7,"data":"http://es.next"}],"date":"2020-06-15T18:34:34+00:00","link":"tg://resolve?domain=javascript_jobs_feed&post=0","tags":[{"name":"javascript"},{"name":"angularjs"},{"name":"typescript"},{"name":"mobile"},{"name":"cordova"},{"name":"git"},{"name":"webpack"}],"cities":[{"code":"moscow"}],"allowsRemote":false}},{"node":{"__typename":"Job","id":"16933453824-1001110946746","title":"Js разработчик","text":"#вакансия #офис #fulltime #frontend  #react #teamlead\n\nКомпания: Алгоритмика \nПозиция: Frontend Team Lead (React)\nФормат работы: офис, fulltime\nГород: Москва\n\nЗарплатная вилка: от 200 до 300 т.р на руки \n\nЗадачи:\n•  Разработка веб-интерфейсов на React\\Redux\n•  Построить комфортную и эффективную жизнь в команде разработки: нанимать новых сотрудников, помогать развиваться существующим;\n•  Внедрять и развивать инструментарий и процессы разработки;\n•  Контролировать процесс разработка крупного образовательного приложения на React + Redux и собственной платформы онлайн-конференций (WebRTC);\n\nТребования:\n•  Опыт в разработке не менее 3 лет;\n•  Опыт работы старшим разработчиком / архитектором / лидом frontend-команды от 1 года;\n•  Опыт разработки под React + Redux от 1 года;\n•  Опыт разработки библиотек UI компонентов (мы используем Storybook);\n•  Любовь к статической типизации JavaScript (TypeScript);\n•  Опыт работы по гибким методологиям (Scrum, Kanban и т.д.);\n\nБудет плюсом:\n•  Опыт работы с unit-тестами;\n•  Понимание основ работы WebRTC;\n•  Опыт в использовании и настройке систем сборки (webpack);\n•  Опыт работы по гибким методологиям (Scrum, Kanban и т.д.);\n\nСтек: \n•  React/Redux + redux-observable (RxJs)\n•  Styled Components\n•  ES6\n•  Storybook\n•  WebRTC (ilb-jitsi-meet)\n\nКонтакт: @Lykovpsy","markup":[{"type":"hashtag","offset":0,"length":9,"data":"вакансия"},{"type":"hashtag","offset":10,"length":5,"data":"офис"},{"type":"hashtag","offset":16,"length":9,"data":"fulltime"},{"type":"hashtag","offset":26,"length":9,"data":"frontend"},{"type":"hashtag","offset":37,"length":6,"data":"react"},{"type":"hashtag","offset":44,"length":9,"data":"teamlead"},{"type":"handle","offset":1301,"length":9,"data":"Lykovpsy"}],"date":"2020-06-15T14:05:29+00:00","link":"tg://resolve?domain=javascript_jobs_feed&post=0","tags":[{"name":"javascript"},{"name":"reactjs"},{"name":"redux"},{"name":"typescript"},{"name":"webpack"},{"name":"rxjs"},{"name":"react-redux"}],"cities":[{"code":"moscow"}],"allowsRemote":false}},{"node":{"__typename":"Job","id":"16922968064-1001110946746","title":"Js разработчик","text":"#вакансия #javascript #react #typescript #nodejs #frontend #middle #senior\n\nКомпания: #Mетрквадратный www.m2.ru\nЛокация: #москва м.Белорусская\nФормат работы: офис (удаленная до сентября) \nЗанятость: полная\nЗ/п: 200к - 260к руб. на руки\nКонтакты: @maxdmitrov\n\nЭто экосистема недвижимости, которая помогает клиентам решать любые жилищные вопросы: от поиска вариантов и оформления сделки до организации ремонта и переезда в новую квартиру. Мы также создаем решения для партнёров и профессиональных участников рынка недвижимости.\n\nЧем предстоит заниматься:\n\n•  разрабатывать один из продуктов жилищной экосистемы;\n•  прорабатывать задачи с начального этапа (декомпозиция, проработка архитектуры, демо с владельцем продукта);\n•  проводить код ревью;\n•  покрывать код unit тестами, помогать тестировщикам в написании e2e тестов;\n•  оптимизировать рендеринг и скорость загрузки страниц;\n•  разрабатывать продуктовые компоненты, используя общие UI библиотеки, и помогать в развитии этих библиотек.\n\nЧего мы ждем:\n\n• Javascript(ES6);\n• React + MobX/Redux;\n• HTML;\n• CSS;\n• Опыт кроссбраузерной верстки.\n\nБудет плюсом:\n\n• TypeScript;\n• знание протокола HTTP/HTTPS, websockets, опыт работы с REST API;\n• опыт работы с react native;\n• опыт в бекэнде на различных языках программирования;\n• опыт профилирования, оптимизации и рефакторинга кода;\n• опыт написания тестов.\n\nМы используем: \n\n•  TypeScript + React + MobX + Gatsby;\n•  NestJS + gRPC + ProtoBuf (мидл-слой, управляющий UI и обращающийся к API бэк-энда);\n•  Micro Frontend Service;\n•  GitLab (CI/CD);\n•  Yarn + Lerna;\n•  Webpack/Rollup.\n\nМы предлагаем: \n\n•  современный стек технологий;\n•  возможность влиять на архитектуру и сразу видеть результат своей работы;\n•  белая конкурентная ЗП, официальное оформление;\n•  гибкий график работы;\n•  ДМС, компенсация фитнеса, льготная ставка по ипотеке;\n•  комфортный офис в БЦ «Белая площадь» (минута от метро): лаундж-зоны, бариста, фрукты.","markup":[{"type":"hashtag","offset":0,"length":9,"data":"вакансия"},{"type":"hashtag","offset":10,"length":11,"data":"javascript"},{"type":"hashtag","offset":22,"length":6,"data":"react"},{"type":"hashtag","offset":29,"length":11,"data":"typescript"},{"type":"hashtag","offset":41,"length":7,"data":"nodejs"},{"type":"hashtag","offset":49,"length":9,"data":"frontend"},{"type":"hashtag","offset":59,"length":7,"data":"middle"},{"type":"hashtag","offset":67,"length":7,"data":"senior"},{"type":"hashtag","offset":86,"length":15,"data":"Mетрквадратный"},{"type":"link","offset":102,"length":9,"data":"http://www.m2.ru"},{"type":"hashtag","offset":121,"length":7,"data":"москва"},{"type":"handle","offset":246,"length":11,"data":"maxdmitrov"}],"date":"2020-06-15T09:19:53+00:00","link":"tg://resolve?domain=javascript_jobs_feed&post=0","tags":[{"name":"javascript"},{"name":"reactjs"},{"name":"typescript"},{"name":"nodejs"},{"name":"redux"},{"name":"html"},{"name":"css"},{"name":"rest"},{"name":"gitlab"},{"name":"webpack"},{"name":"react-native"}],"cities":[{"code":"moscow"}],"allowsRemote":true}},{"node":{"__typename":"Job","id":"16890462208-1001110946746","title":"Js разработчик","text":"#remote #вакансия #typescript #node #nodejs #express #expressjs #fulltime #fullstack #москва #санктпетербург #новосибирск #екатеринбург #нижний #новгород #нижнийновгород #пермь #уфа #ульяновск\nНазвание компании: 4spaces\nПозиция: Full Stack JavaScript/TypeScript/Node.js Разработчик\nФормат работы: #удаленка\nЗанятость: полная\nЗарплатная вилка: от 80 000 руб. до 200 000 руб.\n\nОписание вакансии:\nМы ищем талантливого fullstack разработчика с коммерческим опытом создания сложных/высоконагруженных сервисов. Львиная доля разработки приходится на бэкэнд, поэтому значние frontend технологий опционально при условии высокого уровня разработки на стороне backend.\n\nДанная позиция предполагает полную занятость (минимум 40 часовая рабочая неделя).\n\nРассматриваем Senior и Middle кандидатов.\n\nТребования:\n* опыт работы с NodeJS\n* опыт работы с Typescript или JavaScript\n* опыт автоматизации процессов разработки: CI/CD, PR Checks, и т.д.\n* знанение git, gitflow, github flow, и т.д.\n* знание стандартных фреймворков и SDK\n* самое важное – умение и желание получать новые знания необходимые для работы\n\nБудет плюсом:\n* опыт разработки RESTful API\n* опыт работы c ExpressJS\n* опыт работы с ReactJS, webpack, rollup, parcel, jest\n* опыт работы или хотя бы понимание архитектуры Serverless\n* опыт работы в создании/поддержки инфраструктуры на AWS\n* опыт работы с алгоритмами Machine Learning, в частности, для рекомендательных систем.\n* опыт работы c Typescript\n* опыт работы c frontend frameworks, например React, Angular, JQuery\n* опыт работы с SQL и NoSQL базами данных, например MySQL, Postgres, Elasticsearch, Cassandra, AWS DynamoDB, Mongo, Redis etc.\n* опыт работы с масштабируемыми технологиями кэширования, например memchached, Coherence, Infinispan etc.\n* опыт работы с Linux\n* понимание современных процессов и лучших практик разработки: TDD, DDD, CQRS, Eventsourcing, и так далее\n* опыт контрибуции в Open Source (приложите ссылку на github, если есть на что посмотреть)\n\nКонтакты:\nВакансия – https://hh.ru/vacancy/37464232\nEmail – abalchunas@4spaces.company\nSkype – alexey.balchunas\nTelegram – https://t.me/AlexeyBalchunas","markup":[{"type":"hashtag","offset":0,"length":7,"data":"remote"},{"type":"hashtag","offset":8,"length":9,"data":"вакансия"},{"type":"hashtag","offset":18,"length":11,"data":"typescript"},{"type":"hashtag","offset":30,"length":5,"data":"node"},{"type":"hashtag","offset":36,"length":7,"data":"nodejs"},{"type":"hashtag","offset":44,"length":8,"data":"express"},{"type":"hashtag","offset":53,"length":10,"data":"expressjs"},{"type":"hashtag","offset":64,"length":9,"data":"fulltime"},{"type":"hashtag","offset":74,"length":10,"data":"fullstack"},{"type":"hashtag","offset":85,"length":7,"data":"москва"},{"type":"hashtag","offset":93,"length":15,"data":"санктпетербург"},{"type":"hashtag","offset":109,"length":12,"data":"новосибирск"},{"type":"hashtag","offset":122,"length":13,"data":"екатеринбург"},{"type":"hashtag","offset":136,"length":7,"data":"нижний"},{"type":"hashtag","offset":144,"length":9,"data":"новгород"},{"type":"hashtag","offset":154,"length":15,"data":"нижнийновгород"},{"type":"hashtag","offset":170,"length":6,"data":"пермь"},{"type":"hashtag","offset":177,"length":4,"data":"уфа"},{"type":"hashtag","offset":182,"length":10,"data":"ульяновск"},{"type":"hashtag","offset":297,"length":9,"data":"удаленка"},{"type":"link","offset":1993,"length":30,"data":"https://hh.ru/vacancy/37464232"},{"type":"link","offset":2032,"length":26,"data":"http://abalchunas@4spaces.company"},{"type":"link","offset":2095,"length":28,"data":"https://t.me/AlexeyBalchunas"}],"date":"2020-06-13T15:02:56+00:00","link":"tg://resolve?domain=javascript_jobs_feed&post=16108","tags":[{"name":"javascript"},{"name":"typescript"},{"name":"nodejs"},{"name":"express"},{"name":"git"},{"name":"github"},{"name":"reactjs"},{"name":"webpack"},{"name":"amazon-web-services"},{"name":"angularjs"},{"name":"jquery"},{"name":"sql"},{"name":"nosql"},{"name":"mysql"},{"name":"postgresql"},{"name":"elasticsearch"},{"name":"cassandra"},{"name":"dynamodb"},{"name":"redis"},{"name":"linux"},{"name":"machine-learning"}],"cities":[{"code":"moscow"},{"code":"novosibirsk"},{"code":"perm"},{"code":"ufa"},{"code":"ulyanovsk"},{"code":"nizhny-novgorod"}],"allowsRemote":true}},{"node":{"__typename":"Job","id":"16886267904-1001110946746","title":"Js разработчик","text":"#remote #вакансия #typescript #node #nodejs #express #expressjs #fulltime #fullstack #москва #санктпетербург #новосибирск #екатеринбург #нижний #новгород #нижнийновгород #пермь #уфа #ульяновск\nНазвание компании: 4spaces\nПозиция: Full Stack JavaScript/TypeScript/Node.js Разработчик\nФормат работы: #удаленка\nЗанятость: полная\nЗарплатная вилка: от 80 000 руб. до 200 000 руб.\n\nОписание вакансии:\nМы ищем талантливого fullstack разработчика с коммерческим опытом создания сложных/высоконагруженных сервисов. Львиная доля разработки приходится на бэкэнд, поэтому значние frontend технологий опционально при условии высокого уровня разработки на стороне backend.\n\nДанная позиция предполагает полную занятость (минимум 40 часовая рабочая неделя).\n\nРассматриваем Senior и Middle кандидатов.\n\nТребования:\n* опыт работы с NodeJS\n* опыт работы с Typescript или JavaScript\n* опыт автоматизации процессов разработки: CI/CD, PR Checks, и т.д.\n* знанение git, gitflow, github flow, и т.д.\n* знание стандартных фреймворков и SDK\n* самое важное – умение и желание получать новые знания необходимые для работы\n\nБудет плюсом:\n* опыт разработки RESTful API\n* опыт работы c ExpressJS\n* опыт работы с ReactJS, webpack, rollup, parcel, jest\n* опыт работы или хотя бы понимание архитектуры Serverless\n* опыт работы в создании/поддержки инфраструктуры на AWS\n* опыт работы с алгоритмами Machine Learning, в частности, для рекомендательных систем.\n* опыт работы c Typescript\n* опыт работы c frontend frameworks, например React, Angular, JQuery\n* опыт работы с SQL и NoSQL базами данных, например MySQL, Postgres, Elasticsearch, Cassandra, AWS DynamoDB, Mongo, Redis etc.\n* опыт работы с масштабируемыми технологиями кэширования, например memchached, Coherence, Infinispan etc.\n* опыт работы с Linux\n* понимание современных процессов и лучших практик разработки: TDD, DDD, CQRS, Eventsourcing, и так далее\n* опыт контрибуции в Open Source (приложите ссылку на github, если есть на что посмотреть)\n\nКонтакты:\nВакансия – https://hh.ru/vacancy/37464232\nEmail – abalchunas@4spaces.company\nSkype – alexey.balchunas\nTelegram – https://t.me/AlexeyBalchunas\n\n—\n\n👉 Обсуждение вакансии в чате @javascript_jobs","markup":[{"type":"hashtag","offset":0,"length":7,"data":"remote"},{"type":"hashtag","offset":8,"length":9,"data":"вакансия"},{"type":"hashtag","offset":18,"length":11,"data":"typescript"},{"type":"hashtag","offset":30,"length":5,"data":"node"},{"type":"hashtag","offset":36,"length":7,"data":"nodejs"},{"type":"hashtag","offset":44,"length":8,"data":"express"},{"type":"hashtag","offset":53,"length":10,"data":"expressjs"},{"type":"hashtag","offset":64,"length":9,"data":"fulltime"},{"type":"hashtag","offset":74,"length":10,"data":"fullstack"},{"type":"hashtag","offset":85,"length":7,"data":"москва"},{"type":"hashtag","offset":93,"length":15,"data":"санктпетербург"},{"type":"hashtag","offset":109,"length":12,"data":"новосибирск"},{"type":"hashtag","offset":122,"length":13,"data":"екатеринбург"},{"type":"hashtag","offset":136,"length":7,"data":"нижний"},{"type":"hashtag","offset":144,"length":9,"data":"новгород"},{"type":"hashtag","offset":154,"length":15,"data":"нижнийновгород"},{"type":"hashtag","offset":170,"length":6,"data":"пермь"},{"type":"hashtag","offset":177,"length":4,"data":"уфа"},{"type":"hashtag","offset":182,"length":10,"data":"ульяновск"},{"type":"hashtag","offset":297,"length":9,"data":"удаленка"},{"type":"link","offset":1993,"length":30,"data":"https://hh.ru/vacancy/37464232"},{"type":"link","offset":2032,"length":26,"data":"http://abalchunas@4spaces.company"},{"type":"link","offset":2095,"length":28,"data":"https://t.me/AlexeyBalchunas"},{"type":"handle","offset":2158,"length":16,"data":"javascript_jobs"}],"date":"2020-06-13T13:50:55+00:00","link":"tg://resolve?domain=javascript_jobs_feed&post=16104","tags":[{"name":"javascript"},{"name":"typescript"},{"name":"nodejs"},{"name":"express"},{"name":"git"},{"name":"github"},{"name":"reactjs"},{"name":"webpack"},{"name":"amazon-web-services"},{"name":"angularjs"},{"name":"jquery"},{"name":"sql"},{"name":"nosql"},{"name":"mysql"},{"name":"postgresql"},{"name":"elasticsearch"},{"name":"cassandra"},{"name":"dynamodb"},{"name":"redis"},{"name":"linux"},{"name":"machine-learning"}],"cities":[{"code":"moscow"},{"code":"novosibirsk"},{"code":"perm"},{"code":"ufa"},{"code":"ulyanovsk"},{"code":"nizhny-novgorod"}],"allowsRemote":true}},{"node":{"__typename":"Job","id":"16866344960-1001110946746","title":"Js программист","text":"#вакансия #middle #WordPress #fullstack\n\nГород и адрес офиса: Запорожье (Украина)\nФормат работы: удаленная работа\nЗанятость: полная\nЗарплатная вилка: от 600 до 1300 usd\n\nО нас:\nНебольшая команда, сконцентрирована на WordPress разработке и ищет в команду хорошего программиста на длительное время для работы с различными проектами.\n\nСпецифика:\n● Поддержка постоянных проектов, плюс разработка новых сайтов.      \n● Общение с клиентами, как направления, так и опосредованно.\n\nУровень задач:\nОт очень простых (добавить код /   пофиксить элемент) для полного цикла разработки.\nТипичная задача - преобразование готовой верстки (возможно, с поправками) на WP тему, написанные JS и PHP кода.\n\nПрофессиональные качества соискателя:\n● Страсть к разработке, хороший самоменеджмент, желание всегда писать лучший код, а не код, просто решает задачи; Умение быстро осваивать новую технологию или предметной области;      \n● Английский на уровне не менее B2;      \n● Уметь уверенно работать с git;      \n● Хорошее знание API WP - умение перенести верстку с нуля и минимумом плагинов; написать плагин с нуля, получать данные со стороннего API; Знание ACF; Умение настроить кэширование на различных уровнях; Знание базовых принципов обеспечения безопасности проекта;      \n● Хорошее знание Node.js и npm;      \n● Умение семантической станки без CSS-фреймворков. Уверенное знание flexbox, знание основных проблем кросс-браузерную верстки; Навыки работы с Less, Scss;      \n● Умение писать JS (ES-2015 +) без jQuery;      \n● Понимание принципов работы webpack, gulp; Умение писать и изменять их конфигурацию;      \n● Навыки работы с VPS через SSH;      \n● Понимание показателей, влияющих на PageSpeed и SEO;      \n\nБыло бы плюсом:\n● Понимание принципов a11y;      \n● Подтвержденный open source contribution, выступления на конференциях, митапах;      \n● Опыт работы с Ruby, Python / Vue.js, React.js, Angular;      \n● Хорошие навыки работы с PHPStorm;      \n\nПлюшки:\n● Удаленная работа.      \n● Реальные возможности карьерного роста.      \n● Зарплата по результатам собеседования с быстрой возможностью по пересмотру по результатам работы. \n\nНазвание компании: MaximumStart\n\nКонтакты: \n- Телеграм @polinasvetlaya\n- Email polina.dubovik@gmail.com\n\n—\n\n👉 Обсуждение вакансии в чате @javascript_jobs","markup":[{"type":"hashtag","offset":0,"length":9,"data":"вакансия"},{"type":"hashtag","offset":10,"length":7,"data":"middle"},{"type":"hashtag","offset":18,"length":10,"data":"WordPress"},{"type":"hashtag","offset":29,"length":10,"data":"fullstack"},{"type":"handle","offset":2179,"length":15,"data":"polinasvetlaya"},{"type":"link","offset":2203,"length":24,"data":"mailto:polina.dubovik@gmail.com"},{"type":"handle","offset":2262,"length":16,"data":"javascript_jobs"}],"date":"2020-06-12T10:38:58+00:00","link":"tg://resolve?domain=javascript_jobs_feed&post=16085","tags":[{"name":"javascript"},{"name":"wordpress"},{"name":"php"},{"name":"git"},{"name":"nodejs"},{"name":"npm"},{"name":"css"},{"name":"jquery"},{"name":"webpack"},{"name":"gulp"},{"name":"ssh"},{"name":"seo"},{"name":"ruby"},{"name":"python"},{"name":"vuejs"},{"name":"reactjs"},{"name":"angularjs"}],"cities":[],"allowsRemote":true}},{"node":{"__typename":"Job","id":"16859004928-1001110946746","title":"Js разработчик","text":"#вакансия #frontend #vue #senior #middle #remote #офис #удаленка\n\nГород: Москва, м. Славянский бульвар\nФормат работы: офис, удаленное сотрудничество\nЗанятость: полная, гибкий график (обсуждаем)\nЗарплатная вилка: от 80 000 рублей до 240 000 рублей на руки\nНазвание компании: ФГБУ «ИАЦ МЧС России»\nКонтакты для связи: @mxrkin\n\nНа данный момент отдел разработки программного обеспечения формирует команду JS-разработчиков для поддержки существующих и реализации новых проектов.\n\nТребования для соискателей:\n— уверенные знания Javascript, знание стандартов ECMAScript;\n— знание и опыт применения фреймворка Vue.js и использование элементов экосистемы фреймворка (vuex, vue-router);\n— опыт использования систем сборки - webpack, gulp, parcel. Опыт написания конфигов для webpack;\n— владение препроцессорами CSS - SASS/LESS;\n— опыт использования Prettier, ESLint;\n— гражданство РФ (местонахождение так же РФ).\n\nПлюсом будет:\n— владение Node.js или знание других языков программирования;\n— активные профили в сообществах habrahabr, habr Q&A, участие в opensource проектах, активный профиль github;\n— опыт работы с библиотекой D3.js;\n— опыт работы с картографическими библиотеками.\n\nТрудоустройство официальное по ТК РФ, социальный пакет.\nНа территории имеется столовая для сотрудников, спортивные площадки, футбольное и баскетбольное поле.\nРабота не является государственной службой.\n\nСобеседование проходит в три этапа — общение с руководителем, выполнение тестового задания (простое задание на 15-30 минут), предложение сотрудничества. \n\nЕсли вас заинтересовала вакансия, обращайтесь в тг @mxrkin. Большим плюсом будет, если первым сообщением прикрепите резюме и поделитесь ссылками на проекты, в которых принимали активное участие, или ссылку на гитхаб с кодом, который, по-вашему мнению, сможет показать все ваши знания и навыки.","markup":[{"type":"hashtag","offset":0,"length":9,"data":"вакансия"},{"type":"hashtag","offset":10,"length":9,"data":"frontend"},{"type":"hashtag","offset":20,"length":4,"data":"vue"},{"type":"hashtag","offset":25,"length":7,"data":"senior"},{"type":"hashtag","offset":33,"length":7,"data":"middle"},{"type":"hashtag","offset":41,"length":7,"data":"remote"},{"type":"hashtag","offset":49,"length":5,"data":"офис"},{"type":"hashtag","offset":55,"length":9,"data":"удаленка"},{"type":"handle","offset":316,"length":7,"data":"mxrkin"},{"type":"handle","offset":1584,"length":7,"data":"mxrkin"}],"date":"2020-06-11T20:24:35+00:00","link":"tg://resolve?domain=javascript_jobs_feed&post=16078","tags":[{"name":"javascript"},{"name":"vuejs"},{"name":"webpack"},{"name":"gulp"},{"name":"css"},{"name":"sass"},{"name":"nodejs"},{"name":"github"}],"cities":[{"code":"moscow"}],"allowsRemote":true}},{"node":{"__typename":"Job","id":"16844324864-1001110946746","title":"Js разработчик","text":"#вакансия #удаленка #работа \n\nГород и адрес офиса: любой\nФормат работы: удаленка\nЗанятость: полная\nЗарплатная вилка:  от 120 до 160 net\n\nHigh-Middle/Senior Front-End Developer\nМы стартап, у вас будет возможность стать нашим главным Front-End разработчиком и определять архитектуру и стек веб-приложений над которыми мы работаем.\n • интересные задачи \n • начальство адекват \n • стек крутой ) \n • сильная команда с опытом успешного развития подобных проектов \n • деньги есть \n\nТехнические требования:\n • Опыт прототипирования архитектуры современного высоко оптимизированного веб-приложения с нуля \n • HTML5, CSS preprocessors, JavaScript (ES6) \n • Опыт сборки CSS Grid, UI Components Kit библиотек, Style Guide ( Storybook.js / … ) \n • Понимание методологии Atomic Design, ее плюсов и минусов. Cпособность писать модульный и хорошо проверенный код \n • Работа с Webpack, управление NPM зависимостями, владение GIT, основы CLI \n • Responsive / mobile-first development \n • Анимация Javascript / CSS, ее оптимизация \n • Работа с SVG и оптимизация \n • Взаимодействие с внешними API и интеграция сторонних сервисов, оптимизация их работы \n • Использование современных стандартов семантики и применение их для технической SEO оптимизации \n • Понимание как добиться высоких результатов в Page Speed Insights \n • Разработка и покрытие кода тестами \n • Работа с Google Analytics, event tracking и альтернативы \n\nБонусом будет наличие опыта с:\n • Wordpress Stack: Trellis / Bedrock / Sage или альтернативы \n • основы PHP \n • Конфигурирование и запуск A/B тестов Optimizely / VWO / альтернативы \n • Опыт с JAMstack проектами \n • Опыт работы с Segment \n • Ссылка на Github проект которым есть желание гордиться \n • Ссылка на вклад в open-source проекты / участие в сообществах / конференциях \n\nОбщие требования: \nАнглийский\n Адекватность \n Возможность работы в пределах 15:00-23:00 по Москве (может плавать - типа 13:00-21:00, но так или иначе это вторая половина дня)  \nГотовность открыть ИП \nБонусы: \nДостойная заработная плата\n Атмосфера работы в стартапе \nОплачиваемый отпуск \nОплата книг и софта для работы\n Оплата профессиональных конференций\nРаз в год мы проводим встречи в разных городах И всякие другие плюшки\nДополнительные инструкции: Пожалуйста, присылайте ссылки на ваше CV, ссылки на LinkedIn / Habr страничку, ссылку на гитхаб и по возможности портфолио на sergey@waltbury.com","markup":[{"type":"hashtag","offset":0,"length":9,"data":"вакансия"},{"type":"hashtag","offset":10,"length":9,"data":"удаленка"},{"type":"hashtag","offset":20,"length":7,"data":"работа"},{"type":"link","offset":2359,"length":19,"data":"mailto:sergey@waltbury.com"}],"date":"2020-06-11T19:56:30+00:00","link":"tg://resolve?domain=javascript_jobs_feed&post=0","tags":[{"name":"javascript"},{"name":"dotnet"},{"name":"html"},{"name":"css"},{"name":"webpack"},{"name":"npm"},{"name":"git"},{"name":"mobile"},{"name":"svg"},{"name":"seo"},{"name":"wordpress"},{"name":"php"},{"name":"github"},{"name":"google-analytics"}],"cities":[],"allowsRemote":true}}]}}},"context":{}}