{"hash":"f34fd2c444a074f4e0e67d525015a008ef8e766f","data":{"records":{"id":"amazon-web-services","name":"amazon-web-services","belongsTo":{"totalCount":29,"pageInfo":{"totalPages":3,"currentPage":2},"edges":[{"node":{"__typename":"Job","id":"1946157056-1001134745498","title":"Devops engineer","text":"#вакансия #USA #Australia #senior #remote #DevOps #AWS \n\nЛокация: Атланта\nФормат работы: удаленка \nЗанятость: полная, гибкое начало дня\nЗП:  250 000 до 450 000 рублей на руки (заработная плата начисляется в долларах, вилка указана примерно, компания готова отталкиваться от пожеланий кандидатов)\n\n🔹 Открыта вакансия SR. Cloud Service Engineer в небольшой Американский стартап в области healthcare Lifetime Fluency.\nРебята существуют один год и разрабатывают инновационное VR решение для лечения пациентов, страдающих заиканием. Сейчас закончен прототип продукта и начинается этап активной разработки. Разработка идет с нуля, используются максимально современные технологии.\nПланируемвй стек проекта: Java,\nSpring Boot, AWS, Micro-services, RESTful API,\nKafka, Spring Data, Angular 2+, Node.js, JavaScript, HTML5, CSS3, Docker\n\nМы ищем первого SR. Cloud Service Engineer, который выстроит всю необходимую архитектуру, СI/СD процесс с нуля, выстроит работу в AWS. \nОчень желателен опыт в healthcare и знание HIPAA.\n\n🔹 Требования:\n- Свободный английский язык (разговорный и письменный)\n- Опыт работы с AWS в продакшн от 3-ех лет;\n- Опыт выстраивания CI/CD процесса с нуля;\n\n🔹 Контакты:\nКА: Lucky hunter\ne-mail: daria@luckyhunter.io\ntelegram: @prudentdaria\nПишите, буду рада ответить на все возможные вопросы в телеграм или по почте\n\n—\n\n👉 Обсуждение вакансии в чате @devops_jobs","markup":[{"type":"hashtag","offset":0,"length":9,"data":"вакансия"},{"type":"hashtag","offset":10,"length":4,"data":"USA"},{"type":"hashtag","offset":15,"length":10,"data":"Australia"},{"type":"hashtag","offset":26,"length":7,"data":"senior"},{"type":"hashtag","offset":34,"length":7,"data":"remote"},{"type":"hashtag","offset":42,"length":7,"data":"DevOps"},{"type":"hashtag","offset":50,"length":4,"data":"AWS"},{"type":"link","offset":1211,"length":20,"data":"mailto:daria@luckyhunter.io"},{"type":"handle","offset":1242,"length":13,"data":"prudentdaria"},{"type":"handle","offset":1366,"length":12,"data":"devops_jobs"}],"date":"2020-03-30T15:48:22+00:00","link":"tg://resolve?domain=devops_jobs_feed&post=1856","tags":[{"name":"amazon-web-services"},{"name":"cloud"},{"name":"java"},{"name":"spring"},{"name":"kafka"},{"name":"angularjs"},{"name":"nodejs"},{"name":"javascript"},{"name":"html"},{"name":"css"},{"name":"docker"},{"name":"spring-boot"},{"name":"spring-data"}],"cities":[{"code":"atlanta"}],"allowsRemote":true}},{"node":{"__typename":"Job","id":"23963107328-1001075660570","title":"Php developer","text":"#вакансия #Питер #Казань #Пенза  #fulltime #middle #laravel #react\n\n📌О компании:\nAndersen (www.andersenlab.com) - международная аутсорсинговая компания. Занимаемся разработкой ПО и тестированием на заказ для зарубежных и русскоязычных заказчиков. Мы быстрорастущая компания, основана в 2007 и на сегодняшний день у нас имеется 15 центров разработки со штатом сотрудников +1300. Проекты в нашей компании ты сможешь увидеть абсолютно разнообразные по своему направлению.\n\n📌Тип работы\nПолный рабочий день\n\n📌Тип занятости\nОфис\n\n📌ЗП: от 200 000 net ( в зависимости от уровня соискателя)\n\n📌Описание вакансии:\nМы в поисках middle Full Stack(Laravel+React) developer в нашу команду для работы над проектом нашего европейского партнера - пиринговой платформы для торговли биткоинами.  Аккаунт на платформе - это своего рода финансовый паспорт. С его помощью можно отправлять деньги и покупать вещи по всему миру.\n\n📌Чем предстоит заниматься:\nпланируется перевод некоторых модулей на микросервисы;\nреализация новых задач;\nнаписание юнит-тестов.\n\n📌Стек технологий: PHP7+, Laravel5.5+, React, PostgreSQL, MongoDB, AWS, Docker\n\n📌 Что мы ждем от кандидата:\nопыт коммерческой разработки на PHP7+Laravel5.5+ от 2-х лет;\nжелателен опыт работы с микросервисами;\nопыт работы с Docker;\nуровень английского от intermediate.\n\nЕсли интересно, пиши мне ✉️, расскажу детали вакансии. Контакты: @natalia_ivanova \nSkype: live:ivanatasha0211","markup":[{"type":"hashtag","offset":0,"length":9,"data":"вакансия"},{"type":"hashtag","offset":10,"length":6,"data":"Питер"},{"type":"hashtag","offset":17,"length":7,"data":"Казань"},{"type":"hashtag","offset":25,"length":6,"data":"Пенза"},{"type":"hashtag","offset":33,"length":9,"data":"fulltime"},{"type":"hashtag","offset":43,"length":7,"data":"middle"},{"type":"hashtag","offset":51,"length":8,"data":"laravel"},{"type":"hashtag","offset":60,"length":6,"data":"react"},{"type":"bold","offset":68,"length":14,"data":""},{"type":"link","offset":92,"length":19,"data":"http://www.andersenlab.com"},{"type":"bold","offset":471,"length":13,"data":""},{"type":"bold","offset":505,"length":16,"data":""},{"type":"bold","offset":529,"length":3,"data":""},{"type":"bold","offset":587,"length":21,"data":""},{"type":"bold","offset":912,"length":26,"data":""},{"type":"bold","offset":1041,"length":18,"data":""},{"type":"bold","offset":1124,"length":26,"data":""},{"type":"handle","offset":1376,"length":16,"data":"natalia_ivanova"}],"date":"2020-03-27T09:25:16+00:00","link":"tg://resolve?domain=php_jobs&post=22853","tags":[{"name":"php"},{"name":"laravel"},{"name":"reactjs"},{"name":"dotnet"},{"name":"postgresql"},{"name":"mongodb"},{"name":"amazon-web-services"},{"name":"docker"}],"cities":[{"code":"kazan"},{"code":"penza"}],"allowsRemote":false}},{"node":{"__typename":"Job","id":"1940914176-1001134745498","title":"Devops инженер","text":"#вакансия #DevOps #fulltime \nСанкт-Петербург, м. Чкаловская\nОфис, полная занятость \nЗарплата от 150 000 до 200 000\nЧто предстоит делать:\n-Настройка и поддержание в работоспособном состоянии продуктовых бизнес систем\n-Работа с инфраструктурой в DigitalOcean, AWS\n-Автоматизация разворачивания сервисов\n-Миграция, а также поддержка проектов на Kubernetes\n-Интеграция новых сервисов в существующую инфраструктуру\n-Администрирование операционных систем: RHEL/CentOS, Ubuntu\nЧто нам нужно от Вас:\n-Обязателен production опыт эксплуатации кластера kubernetes\n-Опыт работы с Linux системами\n-Понимание работы сетевых протоколов\n-Docker\n-git\n-Написание и поддержка Ansible playbooks\n-CI/CD (мы используем Drone CI, CircleCI)\n-Знакомство с одним из языков: Go, Python, Bash\n-Знания хотя бы об одном из продуктов: nginx, haproxy, tomcat\n-Опыт работы с PostgreSQL/MySQL, MongoDB\n-Глубокое понимание Terraform\n-Amazon Web Services\n-Знакомство с Prometheus\nNice to have:\n-Базовые знания DigitalOcean\n-Опыт работы с Kafka, Redis\n-Знакомство с ElasticSearch\nКомпания Snowball Gaming https://www.linkedin.com/company/snowball-gaming/about/\nКонтакт: maria.yudina@snowball.dev, TG @maria_you\n\n—\n\n👉 Обсуждение вакансии в чате @devops_jobs","markup":[{"type":"hashtag","offset":0,"length":9,"data":"вакансия"},{"type":"hashtag","offset":10,"length":7,"data":"DevOps"},{"type":"hashtag","offset":18,"length":9,"data":"fulltime"},{"type":"link","offset":1068,"length":55,"data":"https://www.linkedin.com/company/snowball-gaming/about/"},{"type":"link","offset":1133,"length":25,"data":"mailto:maria.yudina@snowball.dev"},{"type":"handle","offset":1163,"length":10,"data":"maria_you"},{"type":"handle","offset":1208,"length":12,"data":"devops_jobs"}],"date":"2020-03-26T12:56:42+00:00","link":"tg://resolve?domain=devops_jobs_feed&post=1851","tags":[{"name":"amazon-web-services"},{"name":"kubernetes"},{"name":"centos"},{"name":"ubuntu"},{"name":"linux"},{"name":"docker"},{"name":"git"},{"name":"ansible"},{"name":"python"},{"name":"bash"},{"name":"nginx"},{"name":"tomcat"},{"name":"postgresql"},{"name":"mysql"},{"name":"mongodb"},{"name":"web"},{"name":"kafka"},{"name":"redis"},{"name":"elasticsearch"}],"cities":[{"code":"nice"}],"allowsRemote":false}},{"node":{"__typename":"Job","id":"1932525568-1001134745498","title":"Devops инженер","text":"#вакансия #jenkins #aws #украина #беларусь #прибалтика #remote #удалёнка\nкомпания s-o-services\nФормат - remote\nз\\п 5к-6к$ gross\nУвы гражданам России, живущим в РФ - вакансия недоступна.\nHere's some of the tech we use in DevOps.\n\n- jenkins экспертное знание\n- ansible\n- gradle (some maven) понимане логов сборок и умение чётко рассказать программисту что пошло не так\n- java тюнинг, хорошее понимание работы gc(чем отличается cms от g1 и от zgc, и когда лучше взять zulu? а когда openjdk?), что и когда тюнить в jvm, настройка логов и их тюнинг\n- groovy обязателен\n- HashiCorp vault\n- AWS infrastructure, понимание ценообразования, трафика и днс, стоимости i\\o и особенностей rds\n- drone\n- cri-o/containerd\n- prometheus, grafana, elk, datadog\n- upper-intermediate English обязателен\nконтакты @erzentd\n\n—\n\n👉 Обсуждение вакансии в чате @devops_jobs","markup":[{"type":"hashtag","offset":0,"length":9,"data":"вакансия"},{"type":"hashtag","offset":10,"length":8,"data":"jenkins"},{"type":"hashtag","offset":19,"length":4,"data":"aws"},{"type":"hashtag","offset":24,"length":8,"data":"украина"},{"type":"hashtag","offset":33,"length":9,"data":"беларусь"},{"type":"hashtag","offset":43,"length":11,"data":"прибалтика"},{"type":"hashtag","offset":55,"length":7,"data":"remote"},{"type":"hashtag","offset":63,"length":9,"data":"удалёнка"},{"type":"handle","offset":791,"length":8,"data":"erzentd"},{"type":"handle","offset":834,"length":12,"data":"devops_jobs"}],"date":"2020-03-23T14:06:57+00:00","link":"tg://resolve?domain=devops_jobs_feed&post=1843","tags":[{"name":"jenkins"},{"name":"amazon-web-services"},{"name":"ansible"},{"name":"gradle"},{"name":"maven"},{"name":"java"},{"name":"jvm"},{"name":"groovy"}],"cities":[],"allowsRemote":true}},{"node":{"__typename":"Job","id":"1931476992-1001134745498","title":"Devops инженер","text":"#вакансия #Москва #фултайм #Экспресс42 #инженер\nГород: Москва\nКомпания: Экспресс 42\nФормат работы: офис\nЗанятость: полная\nЗарплата: от 120 000 до 200 000 рублей на руки\n\nМы небольшая команда, которая легко проводит эксперименты и быстро принимает решения. Мы делаем проекты по постановке практик DevOps, обучению DevOps практикам в технологических компаниях и корпоративном секторе.\nВ составе нашей команды тебя ждут разнообразные задачи по созданию и улучшению решений, обеспечивающих процессы разработки и эксплуатации цифровых продуктов наших клиентов. \nМы строим высокодоступную и удобную инфраструктуру, изучаем новые подходы и помогаем нашим клиентом с внедрением и адаптацией инженерных практик, таких как Непрерывная поставка, Инфраструктура как код, Централизованное логирование. \nИнструменты выбираем под задачу и потребности клиентов, среди основных, которые точно нужно знать: Kubernetes и его экосистема, Ansible, Terraform, CI-сервисы, системы контроля версий, облачные решения от разных провайдеров.\n\nМы ожидаем от тебя:\n— знание практик и инструментов логирования и мониторинга;\n— опыт описания инфраструктуры в виде кода (Ansible, Terraform, etc);\n— понимание процесса CI/CD;\n— слова Kubernetes, Prometheus, Jenkins, Gitlab, ELK, AWS, GCP не вызывают изумления, а заставляют трепетать нежное сердце инженера\n\nКлассно, если у тебя есть опыт эксплуатации веб-проектов в продакшене. И если при этом ты можешь похвастаться опытом применения нескольких перечисленных инструментов, то тебе точно нужно в Экспресс.\n\nУ нас действительно огненная команда. Мы вместе работаем, общаемся, ходим в бары, посещаем ивенты, организовываем внутренние хакатоны, готовим друг друга к выступлениям на конференциях, поддерживаем и болеем за наше общее дело.\nУ нас классно! Присоединяйся!\n\nКонтакты: Рушана @razrushana и rushana@express42.com\n\n—\n\n👉 Обсуждение вакансии в чате @devops_jobs","markup":[{"type":"hashtag","offset":0,"length":9,"data":"вакансия"},{"type":"hashtag","offset":10,"length":7,"data":"Москва"},{"type":"hashtag","offset":18,"length":8,"data":"фултайм"},{"type":"hashtag","offset":27,"length":11,"data":"Экспресс42"},{"type":"hashtag","offset":39,"length":8,"data":"инженер"},{"type":"handle","offset":1802,"length":11,"data":"razrushana"},{"type":"link","offset":1816,"length":21,"data":"mailto:rushana@express42.com"},{"type":"handle","offset":1872,"length":12,"data":"devops_jobs"}],"date":"2020-03-23T13:34:20+00:00","link":"tg://resolve?domain=devops_jobs_feed&post=1842","tags":[{"name":"kubernetes"},{"name":"ansible"},{"name":"jenkins"},{"name":"gitlab"},{"name":"amazon-web-services"},{"name":"google-cloud-platform"},{"name":"express"}],"cities":[{"code":"moscow"}],"allowsRemote":false}},{"node":{"__typename":"Job","id":"1926234112-1001134745498","title":"Devops инженер","text":"#вакансия #Москва #devops #полнаязанятость \n\nИщем DevOps в команду по разработке платежной системы\n\nЗп: до 150-200 т.р.(обсуждаемо)\nТребуемый опыт работы: 3–6 лет\nПолная занятость, полный день\n\nЕсли тебе интересны задачи по контейнерам и автоматизации, и для тебя такие аббревиатуры как DevOps, IaaC, SCM, PaaS, AWS, K8S, VCS, RegExp - не пустой звук, то тебе к нам!\n\nМы занимаемся разработкой платежной системы.\nМы совместили технические инновации и надежность классических финансовых институтов чтобы создавать удобные и полезные цифровые финансовые продукты для жизни, работы и бизнеса.\nМы создаем высокотехнологичные, надежные инструменты по управлению финансами, полностью регламентированы законами ЕС, а значит средства наших клиентов и персональные данные находятся в безопасности.\n\nС нами работают уже более 80-ти молодых, талантливых и амбициозных специалистов, которые каждый день создают передовые технологии вместе с нами!\n\nЗадачи:\n 1-Обеспечение бесперебойной работы серверов и приложений Компании (не менее 99.9% доступности);\n 2-Разработка и поддержка Docker-контейнеров приложений и оркестрация микросервисов с использованием Kubernetes;\n 3-CI/CD pipelining;\n 4-Развитие и поддержка мониторинга доступности сервисов Компании;\n 5-Автоматизация развертывания новых сервисов и управление конфигурациями;\n\nТочно нужно:\n 1-Знание Linux(Debian-based, RedHat-based) – мы ждем администраторов;\n 2-Nginx;\n 3-Docker– разработка образов контейнеров;\n 4-Bash,Python– написание скриптов автоматизации;\n 5-Teamcity(GitlabCI, Jenkins) – реализация CI/CDpipeline;\n 6-Git;\n 7-Puppet (Chef, Ansible, Salt) – разработка своих модулей, модификация существующих;\n\nДополнительным преимуществом будет:\n 1-Если Вы создавали кластеры на Kubernetes и настраивали в них сетевую подсистему;\n 2-Если Вы знакомы с Helm;\n 3-Работали с Prometheus;\n 4-Готовили vSphere (VCSA HA, advanced networking);\n 5-Слышали о Foreman;\n 6-Использовали регулярные выражения;\n 7-Использовали Hiera;\nУсловия:\n 1-Возможность выбрать время начала работы (с 8:00/9:00/10:00);\n 2-Современный, просторный офис;\n 3-Современный рабочий компьютер (16 GBRAM, SSD), удобное рабочее место;\n 4-Комфортная кухонная зона для кофе-брейков, зона отдыха, PS4 PRO +VR;\n 5-Возможность выбрать на чем работать: Windows/Linux\nА еще:\n 1-ДМС по окончанию испытательного срока;\n 2-Корпоративные курсы по изучению Английского языка;\n 3-Компенсация расходов на питание по картам Obed.ru;\n 4-Компенсация расходов на спорт, внутри БЦ World Trade Center;\n\nKA RedCode\nКонтакты: @dmitry_demyanov\n\n—\n\n👉 Обсуждение вакансии в чате @devops_jobs","markup":[{"type":"hashtag","offset":0,"length":9,"data":"вакансия"},{"type":"hashtag","offset":10,"length":7,"data":"Москва"},{"type":"hashtag","offset":18,"length":7,"data":"devops"},{"type":"hashtag","offset":26,"length":16,"data":"полнаязанятость"},{"type":"link","offset":2420,"length":7,"data":"http://Obed.ru"},{"type":"handle","offset":2515,"length":16,"data":"dmitry_demyanov"},{"type":"handle","offset":2566,"length":12,"data":"devops_jobs"}],"date":"2020-03-23T07:48:35+00:00","link":"tg://resolve?domain=devops_jobs_feed&post=1837","tags":[{"name":"amazon-web-services"},{"name":"docker"},{"name":"kubernetes"},{"name":"linux"},{"name":"debian"},{"name":"nginx"},{"name":"bash"},{"name":"python"},{"name":"jenkins"},{"name":"git"},{"name":"ansible"},{"name":"windows"}],"cities":[{"code":"moscow"}],"allowsRemote":false}},{"node":{"__typename":"Job","id":"675282944-1001089319619","title":"Ruby разработчик","text":"#работа #Full-stack #RoR #React  #офис #полный_день_после_каратнтина #Минск #OTS\n\n📌Full-stack Engineer at LunaLabs \nLuna Labs разрабатывает инструменты для создания HTML5 игр и интерактивных реклам на основе Unity. Помимо собственного JS движка мы занимаемся разработкой и поддержкой платформы Luna Playground, в которой разработчики могут управлять своими приложениями, собирать билды для разных вендоров, анализировать статистику, проводить A/B тестирование и многое другое.\nМы ищем Full-stack разработчика, который поможет нам быстрее развивать Luna Playground, а именно: добавлять новые фичи, организовывать деплоймент и поддерживать качество продукта на должном уровне.\n\n📌Задачи:\n- Разработка и поддержка фронтэнда и бэкэнда Luna Playground;\n- Проектирование и разработка новых сервисов и интеграция в Luna Playground;\n- Поддержка, постоянный рефакторинг и улучшение кода;\n\n📌Мы ожидаем, что у Вас будет:\n- От 3 лет опыта коммерческой разработки JavaScript;\n- От 3 лет опыта коммерческой разработки на Ruby on Rails и React;\n- Уверенное знание React;\n- Опыт работы с реляционными СУБДж\n- Базовые знания HTML/CSS;\n- Отличное знание ООП, принципов SOLID, методологий ТDD, BDD;\n- Опыт написания юнит-тестов и интеграционных тестов;\n- Опыт использования продуктов от Atlassian: Jira, Bitbucket, Confluence и др.;\n- Высокий уровень самостоятельности, ответственности и инициативы;\n- Английский язык от уровня B2+.\n\n📌Будет плюсом:\n- Знание AWS (преимущественно EC2, Lambda);\n- Опыт работы с Docker (docker-compose, docker swarm);\n- Опыт работы с высоконагруженными приложениям;\n- Опыт работы с Clickhouse.\n\n📌Мы предлагаем взамен:\n- Работу в высокопрофессиональной команде. Неформальную и дружную атмосферу в коллективе;\n- Официальное оформление по контракту, оплачиваемый отпуск - 25 календарных дней, \n- 100% оплата больничных листов;\n- 5 sick days в год без подтверждающих документов;\n- Заработную плату, защищенную от инфляции с регулярным пересмотром условий компенсации;\n- Гибкий рабочий график и свобода действий;\n- Возможность частичной удаленной работы по согласованному с заказчиком графику;\n- Курсы английского языка 2 раза в неделю в офисе за счет компании;\n- Релокационный бонус на случай переезда из другой страны;\n- Удобное месторасположение в центре Минска в 2-х минутах от ст.м. Молодежная по адресу: ул. Пинская 28а;\n- Комфортабельный и благоустроенный оупен-спейс с организованной кухней по домашнему типу со свежими фруктами, йогуртами, кофемашиной, сладостями и печеньем;\n- Комфортное рабочее место, топовое железо и оборудование для работы по запросу сотрудника (по умолчанию Mac);\n- Яркую и запоминающуюся корпоративную жизнь: корпоративы 2 раза в год, подарки сотрудникам в честь жизненных событий, еженедельные pizza-fridays с настольными играми.\n\nЗ/П: $3500-4000\n\nПрисоединяйтесь - будет круто!\nПо всем вопросам и за дополнительной информацией обращайтесь к Ксюше Павловой @ksusha_psy","markup":[{"type":"hashtag","offset":0,"length":7,"data":"работа"},{"type":"hashtag","offset":8,"length":5,"data":"Full"},{"type":"hashtag","offset":20,"length":4,"data":"RoR"},{"type":"hashtag","offset":25,"length":6,"data":"React"},{"type":"hashtag","offset":33,"length":5,"data":"офис"},{"type":"hashtag","offset":39,"length":29,"data":"полный_день_после_каратнтина"},{"type":"hashtag","offset":69,"length":6,"data":"Минск"},{"type":"hashtag","offset":76,"length":4,"data":"OTS"},{"type":"handle","offset":2901,"length":11,"data":"ksusha_psy"}],"date":"2020-03-21T16:17:24+00:00","link":"tg://resolve?domain=rubyjob&post=644","tags":[{"name":"ruby"},{"name":"ruby-on-rails"},{"name":"reactjs"},{"name":"html"},{"name":"unity3d"},{"name":"javascript"},{"name":"css"},{"name":"amazon-web-services"},{"name":"aws-lambda"},{"name":"docker"},{"name":"docker-compose"}],"cities":[{"code":"minsk"}],"allowsRemote":true}},{"node":{"__typename":"Job","id":"674234368-1001089319619","title":"Ruby разработчик","text":"#работа #RoR #офис #полный_день_после_каратнтина #Минск #OTS\n\n📌Ruby Engineer at Tripledot Studios \n\nOn The Spot Development в поисках Ruby Engineer для работы над проектом от британского заказчика-разработчика и издателя казуальных игр Tripledot Studios https://tripledotstudios.com/\nTripledot Studios была основана в 2017 году в Лондоне. В 2018 году привлекла 8 млн. долларов инвестиций и за короткий промежуток времени вышла на уровень самоокупаемости. В белорусском центре разработки на данный момент команда работает 6 играми и разрабатывает серверные решения для маркетинга и аналитики, а также планирует запускать новые игры.\nМы ищем творчески настроенного Ruby-разработчика, который пополнит наш серверный коллектив.\n📌Задачи:\n- Написание высококачественного кода, работа с задачами, связанными с проектированием серверной части;\n- Поддержка и развертывание облачной инфраструктуры;\n- Написание автотестов;\n- Для нас очень важно умение слушать и выражать свои мысли на английском языке, каждый день, в устной и письменной формах.\n\n📌Пожелание к кандидату:\n- Высокий технический уровень в области сервер-сайд разработки, опыт работы и четкое понимание стека Ruby & Ruby on Rails;\n- Уверенная работа с базами данных (MySQL/Postgresql);\n- Опыт построения и развертывания продакшн API;\n- Опыт работы с docker и оркестраторами (kubernetis, swarm, mesos, ...);\n- Знание компонентов AWS таких, как EC2, S3, Lambda;\n- Базовые знания по работе в Linux среде;\n- Redis/memcache.\n\n📌Мы предлагаем взамен:\n- Работу в высокопрофессиональной команде. Неформальную и дружную атмосферу в коллективе;\n- Официальное оформление по контракту, оплачиваемый отпуск - 25 календарных дней, \n- 100% оплата больничных листов;\n- 5 sick days в год без подтверждающих документов;\n- Заработную плату, защищенную от инфляции с регулярным пересмотром условий компенсации;\n- Гибкий рабочий график и свобода действий;\n- Возможность частичной удаленной работы по согласованному с заказчиком графику;\n- Курсы английского языка 2 раза в неделю в офисе за счет компании;\n- Релокационный бонус на случай переезда из другой страны;\n- Удобное месторасположение в центре Минска в 2-х минутах от ст.м. Молодежная по адресу: ул. Пинская 28а;\n- Комфортабельный и благоустроенный оупен-спейс с организованной кухней по домашнему типу со свежими фруктами, йогуртами, кофемашиной, сладостями и печеньем;\n- Комфортное рабочее место, топовое железо и оборудование для работы по запросу сотрудника (по умолчанию Mac);\n- Яркую и запоминающуюся корпоративную жизнь: корпоративы 2 раза в год, подарки сотрудникам в честь жизненных событий, еженедельные pizza-fridays с настольными играми.\n\nЗ/П: $1500-2500 \n\nПрисоединяйтесь - будет круто!\nПо всем вопросам и за дополнительной информацией обращайтесь к Ксюше Павловой @ksusha_psy","markup":[{"type":"hashtag","offset":0,"length":7,"data":"работа"},{"type":"hashtag","offset":8,"length":4,"data":"RoR"},{"type":"hashtag","offset":13,"length":5,"data":"офис"},{"type":"hashtag","offset":19,"length":29,"data":"полный_день_после_каратнтина"},{"type":"hashtag","offset":49,"length":6,"data":"Минск"},{"type":"hashtag","offset":56,"length":4,"data":"OTS"},{"type":"link","offset":255,"length":29,"data":"https://tripledotstudios.com/"},{"type":"handle","offset":2770,"length":11,"data":"ksusha_psy"}],"date":"2020-03-19T17:07:17+00:00","link":"tg://resolve?domain=rubyjob&post=643","tags":[{"name":"ruby"},{"name":"ruby-on-rails"},{"name":"mysql"},{"name":"postgresql"},{"name":"docker"},{"name":"amazon-web-services"},{"name":"aws-lambda"},{"name":"linux"},{"name":"redis"}],"cities":[{"code":"minsk"}],"allowsRemote":true}},{"node":{"__typename":"Job","id":"1901068288-1001134745498","title":"Devops инженер","text":"#вакансия #jenkins #aws #украина #беларусь #прибалтика #remote #удалёнка\nкомпания s-o-services\nФормат - remote\nз\\п 5к-6к$ gross\nУвы гражданам России, живущим в РФ - вакансия недоступна.\nHere's some of the tech we use in DevOps.\n\n- jenkins экспертное знание\n- ansible\n- gradle (some maven) понимане логов сборок и умение чётко рассказать программисту что пошло не так\n- java тюнинг, хорошее понимание работы gc(чем отличается cms от g1 и от zgc, и когда лучше взять zulu? а когда openjdk?), что и когда тюнить в jvm, настройка логов и их тюнинг\n- groovy обязателен\n- HashiCorp vault\n- AWS infrastructure, понимание ценообразования, трафика и днс, стоимости i\\o и особенностей rds\n- drone\n- cri-o/containerd\n- prometheus, grafana, elk, datadog\n- upper-intermediate English обязателен\nконтакты @erzentd\n\n—\n\n👉 Обсуждение вакансии в чате @devops_jobs","markup":[{"type":"hashtag","offset":0,"length":9,"data":"вакансия"},{"type":"hashtag","offset":10,"length":8,"data":"jenkins"},{"type":"hashtag","offset":19,"length":4,"data":"aws"},{"type":"hashtag","offset":24,"length":8,"data":"украина"},{"type":"hashtag","offset":33,"length":9,"data":"беларусь"},{"type":"hashtag","offset":43,"length":11,"data":"прибалтика"},{"type":"hashtag","offset":55,"length":7,"data":"remote"},{"type":"hashtag","offset":63,"length":9,"data":"удалёнка"},{"type":"handle","offset":791,"length":8,"data":"erzentd"},{"type":"handle","offset":834,"length":12,"data":"devops_jobs"}],"date":"2020-03-14T10:23:43+00:00","link":"tg://resolve?domain=devops_jobs_feed&post=1813","tags":[{"name":"jenkins"},{"name":"amazon-web-services"},{"name":"ansible"},{"name":"gradle"},{"name":"maven"},{"name":"java"},{"name":"jvm"},{"name":"groovy"}],"cities":[],"allowsRemote":true}},{"node":{"__typename":"Job","id":"1895825408-1001134745498","title":"Devops инженер","text":"#вакансия #jenkins #aws #украина #беларусь #прибалтика #remote #удалёнка\nкомпания s-o-services\nФормат - remote\nз\\п 5-6$ gross\nУвы гражданам России, живущим в РФ - вакансия недоступна.\nHere's some of the tech we use in DevOps.\n\n- jenkins экспертное знание\n- ansible\n- gradle (some maven) погимане логов сборок и умение чётко рассказать программисту что пошло не так\n- java тюнинг, хорошее понимание работы gc(чем отличается cms от g1 и от zgc, и когда лучше взять zulu? а когда openjdk?), что и когда тюнить в jvm, настройка логов и их тюнинг\n- groovy обязателен\n- HashiCorp vault\n- AWS infrastructure, понимание ценообразования, трафика и днс, стоимости i\\o и особенностей rds\n- drone\n- cri-o/containerd\n- prometheus, grafana, elk, datadog\n- upper-intermediate обязателен\nконтакты @erzentd\n\n—\n\n👉 Обсуждение вакансии в чате @devops_jobs","markup":[{"type":"hashtag","offset":0,"length":9,"data":"вакансия"},{"type":"hashtag","offset":10,"length":8,"data":"jenkins"},{"type":"hashtag","offset":19,"length":4,"data":"aws"},{"type":"hashtag","offset":24,"length":8,"data":"украина"},{"type":"hashtag","offset":33,"length":9,"data":"беларусь"},{"type":"hashtag","offset":43,"length":11,"data":"прибалтика"},{"type":"hashtag","offset":55,"length":7,"data":"remote"},{"type":"hashtag","offset":63,"length":9,"data":"удалёнка"},{"type":"handle","offset":781,"length":8,"data":"erzentd"},{"type":"handle","offset":824,"length":12,"data":"devops_jobs"}],"date":"2020-03-13T06:47:09+00:00","link":"tg://resolve?domain=devops_jobs_feed&post=1808","tags":[{"name":"jenkins"},{"name":"amazon-web-services"},{"name":"ansible"},{"name":"gradle"},{"name":"maven"},{"name":"java"},{"name":"jvm"},{"name":"groovy"}],"cities":[],"allowsRemote":true}}]}}},"context":{}}