{"hash":"f5f6bf98bd95e769321482904cbbd488f77922fd","data":{"records":{"id":"qa","name":"qa","belongsTo":{"totalCount":208,"pageInfo":{"totalPages":21,"currentPage":8},"edges":[{"node":{"__typename":"Job","id":"103850967040-1001089317451","title":"Qa инженер","text":"#remote #вакансия #удаленка #manual #qa\n\nВсем привет! ✌🏻\n\nКоманда Dostavista.global ищет в свои ряды талантливого QA Инженера 🤓\n\n💥Немного о нас💥\nDostavista основана в 2012 году. Аналог Uber в курьерской доставке. Курьеры работают через приложения для iOS и Android, доставляют десятки тысяч отправлений ежедневно. Достависта — крупнейшая в Европе служба доставки «день в день». Работаем в 10 странах (Россия, Южная Корея, Индия, Турция, Бразилия, Мексика, Индонезия, Вьетнам, Филиппины, Таиланд, Малайзия) под собственными локальными брендами.\n\n💥Твои задачи💥\n\n- Тестирование различных модулей системы (большинство из них не имеют пользовательского интерфейса);\n- Тестирование различных алгоритмов (маршрутизация, динамическое ценообразование, динамическое изменение видимости ордеров и т.д.);\n- Интеграционное тестирование;\n- Ведение тестовой документации: чек-листы, тест-кейсы, планы тестирования, отчеты об ошибках;\n- Подготовка тестовой среды и тестовых данных, разработка простейших инструментов для автоматизации этого процесса;\n- Анализ больших объемов данных (логи, MySQL, ClickHouse).\n\n\n💥Наши пожелания💥\n\n- Отличные аналитические навыки, уверенное знание SQL, желателен опыт работы с ClickHouse;\n- Умение работать с логами;\n- Базовые навыки программирования (умение самостоятельно писать простые автотесты на любом языке программирования).\n- Базовые навыки работы с Linux;\n- Уровень английского от intermediate и выше.\n\n💥Мы предлагаем💥\n\n- Удаленная работа;\n- Осенью откроется московский офис после ремонта, при желании можно будет работать там вместо удалёнки;\n - Офисы в 9 других странах, и туда тоже можно ездить работать;\n- Гибкий график, отпуска и болезни без бюрократии;\n- Неформальная обстановка внутри команды;\n- Полностью белая заработная плата, оформление по ТК;\n- Ежегодная индексация заработной платы;\n- Скидка на изучение английского в онлайн-школе Skyeng;\n- Оплата отпусков, больничных, курсов и конференций, корпоративная библиотека;\n- ДМС (включая стоматологию и массаж).\n\n💰По зарплате готовы обсуждать от 120 000 на руки и выше💰\n\nОткрыты к диалогу!\n\nПо всем вопросам пишите:\n@annfilimonova\nafi@dostavista.ru","markup":[{"type":"hashtag","offset":0,"length":7,"data":"remote"},{"type":"hashtag","offset":8,"length":9,"data":"вакансия"},{"type":"hashtag","offset":18,"length":9,"data":"удаленка"},{"type":"hashtag","offset":28,"length":7,"data":"manual"},{"type":"hashtag","offset":36,"length":3,"data":"qa"},{"type":"link","offset":67,"length":17,"data":"http://Dostavista.global"},{"type":"bold","offset":131,"length":15,"data":""},{"type":"bold","offset":549,"length":13,"data":""},{"type":"bold","offset":1102,"length":20,"data":""},{"type":"bold","offset":1439,"length":13,"data":""},{"type":"bold","offset":2009,"length":54,"data":""},{"type":"handle","offset":2112,"length":14,"data":"annfilimonova"},{"type":"link","offset":2127,"length":17,"data":"mailto:afi@dostavista.ru"}],"date":"2020-06-26T16:42:56+00:00","link":"tg://resolve?domain=qa_jobs&post=99040","tags":[{"name":"qa"},{"name":"ios"},{"name":"android"},{"name":"mysql"},{"name":"sql"},{"name":"linux"}],"cities":[{"code":"moscow"}],"allowsRemote":true}},{"node":{"__typename":"Job","id":"103833141248-1001089317451","title":"Qa инженер","text":"🐞🐞🐞#вакансия #QA #Ульяновск #Саранск #Казань #Самара #Уфа #Краснодар #офис #удаленная_работа\n\n🔍Middle QA-специалист🔎\n\n⚡️Компания: Simbirsoft (более 19 лет на рынке, более 700 сотрудников в штате)\n\nОчень ждем тебя, наш будущий коллега и борец за качественное ПО! :)\n\n📌Твои будущие задачи:\n• тестирование ПО (frontend, backend, API);\n• локализация и документирование найденных дефектов;\n• ведение и оптимизация тестовой документации;\n• контроль качества на всех этапах разработки ПО;\n• выстраивание и оптимизация процессов тестирования ПО.\n\n📌Что мы ждем от тебя:\n• наличие опыта от 2 лет в направлениях QA или тестирования ПО;\n• понимание разницы между QA и тестированием ПО;\n• понимание особенностей гибких методологий;\n• уверенное владение техниками тест-дизайна;\n• знание клиент-серверной архитектуры;\n• понимание особенностей тестирования web, mobile и desktop приложений;\n• навык тестирования API;\n• написание запросов SQL;\n• опыт работы с системами контроля версий (git);\n• знание основных команд работы с консолью (Windows/Linux).\n\n📌Что мы предлагаем:\n• Полностью белая ЗП два раза в месяц;\n• Оформление по ТК РФ;\n• Высокий уровень экспертности внутри компании, которым мы делимся друг с другом;\n• Перспективы вертикального и горизонтального роста;\n• Работа на российских и международных проектах;\n• Оборудованное рабочее место и парк тестовых устройств;\n• Подготовка и прохождение сертификации ISTQB бесплатно;\n• Внутренние и внешние курсы, доклады, конференции;\n• Бесплатные чай, кофе, печеньки в офисе;\n• Корпоративная спортивная программа (оплата тематических секций, частичная компенсация абонемента);\n• Проведение летних и зимних корпоративов, дня именинника, совместные походы и т.д.\n\n📌Зарплата:\n• от 50 000 (Договорная, по итогу собеседования)\n\n☎️Контакты:\n@nataly_max","markup":[{"type":"hashtag","offset":6,"length":9,"data":"вакансия"},{"type":"hashtag","offset":16,"length":3,"data":"QA"},{"type":"hashtag","offset":20,"length":10,"data":"Ульяновск"},{"type":"hashtag","offset":31,"length":8,"data":"Саранск"},{"type":"hashtag","offset":40,"length":7,"data":"Казань"},{"type":"hashtag","offset":48,"length":7,"data":"Самара"},{"type":"hashtag","offset":56,"length":4,"data":"Уфа"},{"type":"hashtag","offset":61,"length":10,"data":"Краснодар"},{"type":"hashtag","offset":72,"length":5,"data":"офис"},{"type":"hashtag","offset":78,"length":17,"data":"удаленная_работа"},{"type":"handle","offset":1779,"length":11,"data":"nataly_max"}],"date":"2020-06-26T14:16:52+00:00","link":"tg://resolve?domain=qa_jobs&post=99023","tags":[{"name":"qa"},{"name":"web"},{"name":"mobile"},{"name":"sql"},{"name":"git"},{"name":"windows"},{"name":"linux"}],"cities":[{"code":"ulyanovsk"},{"code":"saransk"},{"code":"kazan"},{"code":"samara"},{"code":"ufa"},{"code":"krasnodar"}],"allowsRemote":true}},{"node":{"__typename":"Job","id":"103831044096-1001089317451","title":"Qa инженер","text":"#qa #вакансия #fulltime #удаленно\nКомпания: КлаудФэктори (cloudfactory.ru) \n\nCloudfactory  –компания разработчик мобильных приложений. Наша специализация это создание инвестиционных для финансовых компаний и банков на основе собственной платформы. Наши приложения входят в ТОП-100 App Store и Google Play.\n\n\nДолжность: Инженер по ручному и автоматизированному тестированию (QA & Automation Engineer)\n\nПриглашаем  инженера по тестированию в распределенную команда (~50 человек) на интенсивное выполнение задач.\n\nЗП от  100к и по результатам собеседования\nОформление по ТК или возможны иные варианты сотрудничества\n\nОбязанности\n•  Тестирование мобильного приложения (приемочное, регрессионное, исследовательское)\n•  Разбор дефектов, полученных от поддержки\n•  Ведение тестовой документации\n•  Подготовка тестовой среды (формирование данных, локальные изменения хранимых процедур)\n\nТребуемые навыки\n•  Понимание принципов работы мобильного приложения\n•  Знания методов и техник тестирования\n•  Умение работать с Postman / Swagger или аналогами\n•  Умение работать с Fiddler / Charles / Mitmproxy или аналогами\n•  Базовые знания SQL\n•  Самостоятельность и самоорганизованность\n•  Опыт работы от 1 года\nЛичные качества:\n•  Аналитические способности;\n•  Системное мышление;\n•  Ответственность.\n•  Умение работать в команде.\n•  Целеустремленность.\nУсловия работы:\n•  Удаленная работа на полный рабочий день\n•  Работа в стабильной компании\n•  ЗП без задержек.\n•  Оформление по ТК РФ\n•  График работы: 5/2\n\nУ нас интересная команда и хорошие проекты (топ 100 в google play и app store)\nЕсли вас заинтересовало наше предложение, ждем ваши отклики на e-mail: guskov@cloudfactory.ru  или в Телеграмм  @ConstG","markup":[{"type":"hashtag","offset":0,"length":3,"data":"qa"},{"type":"hashtag","offset":4,"length":9,"data":"вакансия"},{"type":"hashtag","offset":14,"length":9,"data":"fulltime"},{"type":"hashtag","offset":24,"length":9,"data":"удаленно"},{"type":"link","offset":58,"length":15,"data":"http://cloudfactory.ru"},{"type":"link","offset":1647,"length":22,"data":"mailto:guskov@cloudfactory.ru"},{"type":"handle","offset":1688,"length":7,"data":"ConstG"}],"date":"2020-06-26T14:07:29+00:00","link":"tg://resolve?domain=qa_jobs&post=99021","tags":[{"name":"qa"},{"name":"playframework"},{"name":"swagger"},{"name":"sql"}],"cities":[],"allowsRemote":true}},{"node":{"__typename":"Job","id":"103810072576-1001089317451","title":"Qa инженер","text":"#вакансия #qa #automation #автоматизация #python #selenium\nГород и адрес офиса:  Москва, м. Новокузнецкая\nФормат работы: офис, пока работаем удаленно\nЗанятость: полная\nЗарплатная вилка: до 140-150к на руки\nОписание вакансии: \nИщу сейчас Специалиста по автоматизированному тестированию в It-компанию, разрабатывающую сервисы для e-commerce по оптимизации финансов и логистики. Ребята строят качественную автоматизированную систему финансирования с точной оценкой рисков и целую экосистему взаиморасчётов на рынке e-commerce. \nНа данный момент открыто новое направление - реализация современной платежной системы внутри данной платформы.\n\nИщем автоматизатора, с опытом работы с Python, Selenium от 1,5 лет.\nПредлагаем: белое оформление, финансирование обучения, офис рядом с м.Новокузнецкая.\nКомпания: pimpey\nКонтакты: Юля, @yuliaataman","markup":[{"type":"hashtag","offset":0,"length":9,"data":"вакансия"},{"type":"hashtag","offset":10,"length":3,"data":"qa"},{"type":"hashtag","offset":14,"length":11,"data":"automation"},{"type":"hashtag","offset":26,"length":14,"data":"автоматизация"},{"type":"hashtag","offset":41,"length":7,"data":"python"},{"type":"hashtag","offset":49,"length":9,"data":"selenium"},{"type":"handle","offset":822,"length":12,"data":"yuliaataman"}],"date":"2020-06-26T11:25:40+00:00","link":"tg://resolve?domain=qa_jobs&post=99001","tags":[{"name":"qa"},{"name":"python"},{"name":"selenium"}],"cities":[{"code":"moscow"}],"allowsRemote":true}},{"node":{"__typename":"Job","id":"103807975424-1001089317451","title":"Qa engineer","text":"#вакансия #москва #санкт-петербург #банк # офис #fulltime\n\nБанк ВТБ, аутстаффинг.  \n\nЗарплата 180-210 тысяч рублей на руки.\n\nПриглашаем Ведущего QA Engineer/Руководитель группы.\n\nДля реализации масштабного проекта по перестроению ИТ-ландшафта в одном из банков ТОП-10.\n\nОбязанности:\n- Разрабатывать тестовую документацию (составление и актуализация тест-планов, тест-кейсов, отчетов по тестированию);\n- Проводить интеграционное тестирование взаимодействующих между собой внешних сервисов, партнёрских систем и смежных проектов;\n- Проводить функциональное тестирование front-end /backend;\n- Управлять процессом QA в рамках команды (сбор и поддержка метрик качеств);\n- Управлять планом автоматизации регрессионного тестирования.\n \nТребования:\n- Опыт работы в качестве QA Engineer от 4 лет;\n- Понимание процессов разработки ПО;\n- Навыки тест-дизайна (тест-кейсы, чек-листы);\n- Опыт работы с инструментами дефект-менеджмента;\n- Опыт тестирования SOAP, REST;\n- Понимание XML и JSON;\n- Базовые знания SQL;\n- Высшее образование;\n- Внимание к деталям, командная работа.\n\nЖелательно:\n- Опыт управления небольшой командой тестирования или желание роста до Руководителя группы приветствуется.\n \nУсловия:\n• Варианты гибкого графика;\n• Оформление по ТК, белая заработная плата. Полис ДМС в том числе стоматология;\n• Бесплатные курсы английского языка с опытным преподавателем в офисе;\n• Офис: м. Тверская, Маяковская, Чистые пруды.\n\n\nЖдем резюме на @lanuginosa","markup":[{"type":"hashtag","offset":0,"length":9,"data":"вакансия"},{"type":"hashtag","offset":10,"length":7,"data":"москва"},{"type":"hashtag","offset":18,"length":6,"data":"санкт"},{"type":"hashtag","offset":35,"length":5,"data":"банк"},{"type":"hashtag","offset":48,"length":9,"data":"fulltime"},{"type":"handle","offset":1436,"length":11,"data":"lanuginosa"}],"date":"2020-06-26T11:08:31+00:00","link":"tg://resolve?domain=qa_jobs&post=98999","tags":[{"name":"qa"},{"name":"soap"},{"name":"rest"},{"name":"xml"},{"name":"json"},{"name":"sql"}],"cities":[{"code":"moscow"}],"allowsRemote":false}},{"node":{"__typename":"Job","id":"103801683968-1001089317451","title":"Qa engineer","text":"#qa #тестировщик #вакансия #Москва #офис\n \nПозиция: QA Engineer \nКомпания: Noomeera\nЛокация:  Москва \nФормат работы: #офис  \nЗанятость: полная \nЗ/п:  от 150 000 руб. \nКонтакт: 8(927)5053122 @sasha_ermilova \n \n🔍Ищем в команду крутого QA Engineer!🔎 \n \n✅В твои задачи будет входить: \n• Функциональное тестирование; \n• Тестирование клиент-серверного API; \n• Формирование тестовых сценариев на основании ТЗ или данных от команды разработчиков; \n• Общение с командой разработчиков; \n• Постановка задач на исправление ошибок разработчикам; \n• Проведение ручного тестирования с фиксированием результатов в проектном задачнике, регистрация и контроль исправления дефектов; \n• Анализ, тестирование и поддержка мобильных приложений iOS и Android. \n \n✅Мы ожидаем от тебя: \n• Создание сценариев для тестирования (тест-кейсы, чек-листы); \n• Опыт тестирования Web, Аndroid, iOS версий ПО; \n• Опыт в автоматизации тестирования; \n• Опыт работы с баг-трекинговыми системами (желательно Jira); \n• Навыки коммуникаций с разработчиками. \n \n✅Мы приветствуем: \n• Опыт работы с гибкими методологиями (Scrum, Kanban); \n• Знание и понимание методологий тестирования. \n \n✅Наши крутые условия: \n• Офис в пешей доступности от Метро “Парк Культуры“; \n• Гибкий график. Начало работы с 8 до 11; \n• Все необходимое для продуктивной работы: кофе, чай, и др.; \n• Молодой, дружный коллектив; \n• График работы: 5/2; \n \nЖду от вас активных откликов, для вас всегда на связи🙂","markup":[{"type":"hashtag","offset":0,"length":3,"data":"qa"},{"type":"hashtag","offset":4,"length":12,"data":"тестировщик"},{"type":"hashtag","offset":17,"length":9,"data":"вакансия"},{"type":"hashtag","offset":27,"length":7,"data":"Москва"},{"type":"hashtag","offset":35,"length":5,"data":"офис"},{"type":"hashtag","offset":117,"length":5,"data":"офис"},{"type":"link","offset":176,"length":13,"data":"tel:8(927)5053122"},{"type":"handle","offset":190,"length":15,"data":"sasha_ermilova"}],"date":"2020-06-26T10:09:38+00:00","link":"tg://resolve?domain=qa_jobs&post=98993","tags":[{"name":"qa"},{"name":"ios"},{"name":"android"},{"name":"web"}],"cities":[{"code":"moscow"}],"allowsRemote":false}},{"node":{"__typename":"Job","id":"103798538240-1001089317451","title":"Qa engineer","text":"#вакансия #Москва #офис #QA #тестировщик #fulltime\n\nГород и адрес офиса: Москва, м. Новокузнецкая/Павелецкая\nФормат работы: #офис\nЗанятость: #полная\nЗП: от 90к до 120к руб. нетт\n\nSports.ru - провайдер развлечений для любителей спорта.\nЕсть спорт. Есть болельщики. Мы заполняем среду между ними, оживляем ее, наполняем общением и другими развлечениями. Мы делаем не «сайты» или «приложения», а мультиплатформенные продукты, с учетом актуальной технологической парадигмы.\n\nМы ищем Middle QA Engineer'а в наш флагманский проект Sports.ru.\nЭто главное медиа о спорте на русском языке с аудиторией 18 млн пользователей в месяц. Highload-проект с десятками тысяч RPS, состоящий из самых разных продуктов – сайтов, мобильных приложений, email-рассылок, чат-ботов и многого другого.\n\nВ данный момент мы заняты активным внедрением процесса тестирования. Под капотом - нативный js на фронте, php+perl на бэке. Все новые сервисы разрабатываем на новом стеке: vue.js+ssr+golang+graphql. Да, легаси есть - иногда попадается, но в тестирование всё же большинство задач идут на новом стеке.\n\nО задачах\nВы будете заниматься приёмкой фич и проведением регресса, написанием тестовой документации, разработкой автотестов и регистрацией ошибок в баг-трекере.\n\nО наших ожиданиях\nМы ждем, что вы уже минимум пару лет как в профессии и имеете хороший опыт ручного тестирования. Знаете различные инструменты и подходы к тестированию, обладаете навыками тест-дизайна и умеете их применять.\nПонимаете процессы разработки и тестирования, а также, что процессы не могут быть идеальными, но к этому необходимо стремиться.\nМы также ждем, что вы уже имеете навыки автоматизации и не ограничились одним инструментом.\n\nБудет плюсом\nЕсли вы уже пробовали себя в нагрузочном тестировании и автоматизации мобильных устройств.\n\nОб условиях:\nПросторный стильный офис возле м. Новокузнецкая/Третьяковская.\n“Белая” заработная плата.\nБесплатная медстраховка со стоматологией после испытательного срока.\nГибкий график работы с возможностью день-два в неделю работать удаленно,\nФрукты, снеки, чай, кофе, какао 24/7.\nКорпоративная скидка в спортзал и на занятия английским языком.\nКорпоративный футбол с тренером.\nФинансовая помощь при переезде из другого города.\nВозможности для профессионального развития.\n\nНазвание компании: Sports.ru (Tribuna Digital)\nКого заинтересовало, пишите мне в личку (@pbuyatova), рада буду поделиться подробностями:)","markup":[{"type":"hashtag","offset":0,"length":9,"data":"вакансия"},{"type":"hashtag","offset":10,"length":7,"data":"Москва"},{"type":"hashtag","offset":18,"length":5,"data":"офис"},{"type":"hashtag","offset":24,"length":3,"data":"QA"},{"type":"hashtag","offset":28,"length":12,"data":"тестировщик"},{"type":"hashtag","offset":41,"length":9,"data":"fulltime"},{"type":"hashtag","offset":124,"length":5,"data":"офис"},{"type":"hashtag","offset":141,"length":7,"data":"полная"},{"type":"link","offset":179,"length":9,"data":"http://Sports.ru"},{"type":"bold","offset":179,"length":9,"data":""},{"type":"bold","offset":479,"length":20,"data":""},{"type":"link","offset":525,"length":9,"data":"http://Sports.ru"},{"type":"bold","offset":1077,"length":10,"data":""},{"type":"bold","offset":1240,"length":18,"data":""},{"type":"bold","offset":1686,"length":13,"data":""},{"type":"bold","offset":1791,"length":13,"data":""},{"type":"link","offset":2284,"length":9,"data":"http://Sports.ru"},{"type":"handle","offset":2353,"length":10,"data":"pbuyatova"}],"date":"2020-06-26T10:04:13+00:00","link":"tg://resolve?domain=qa_jobs&post=98990","tags":[{"name":"qa"},{"name":"php"},{"name":"perl"},{"name":"vuejs"},{"name":"go"},{"name":"graphql"}],"cities":[{"code":"moscow"}],"allowsRemote":true}},{"node":{"__typename":"Job","id":"103795392512-1001089317451","title":"Qa инженер","text":"#QA #вакансия #Москва #fulltime #java #тестирование\n💥Команда СберТеха  ищет амбициозного и готового обучаться QA-инженера!🙌\n💥Проект: тестирование сервисов безопасности технологической платформы Сбербанка.\n💥Задачи: тестирование API сервисов ( CRUD системы); автоматизация тестирования с использованием существующих средств или разработка собственного фреймворка на Java;подготовка тест-кейсов; регистрация и отслеживание дефектов.\n💥Стек: Java,cucumber, Maven,Junit, Jenkins, Allure reports, Docker, BPM\n💥Москва, м.Нагатинская/Тульская\n💥зп: 90- 120тыс.руб.\n💥-Оформление ТК РФ;\n     -ДМС;\n     - Белая заработная плата (оклад + годовая премия);\n     -Возможность обучения за счет компании;\n     -   Льготное кредитование;\n      -Бесплатный тренажерный зал на территории офиса;\n       - корпоративная жизнь и спортивные мероприятия;\n       -возможность карьерного роста.\n\nГотовы обучать! Ждём Вас в нашей команде!\n@TaliaHR","markup":[{"type":"hashtag","offset":0,"length":3,"data":"QA"},{"type":"hashtag","offset":4,"length":9,"data":"вакансия"},{"type":"hashtag","offset":14,"length":7,"data":"Москва"},{"type":"hashtag","offset":22,"length":9,"data":"fulltime"},{"type":"hashtag","offset":32,"length":5,"data":"java"},{"type":"hashtag","offset":38,"length":13,"data":"тестирование"},{"type":"handle","offset":918,"length":8,"data":"TaliaHR"}],"date":"2020-06-26T08:52:58+00:00","link":"tg://resolve?domain=qa_jobs&post=98987","tags":[{"name":"qa"},{"name":"java"},{"name":"cucumber"},{"name":"maven"},{"name":"junit"},{"name":"jenkins"},{"name":"docker"}],"cities":[{"code":"moscow"}],"allowsRemote":false}},{"node":{"__typename":"Job","id":"103778615296-1001089317451","title":"Qa engineer","text":"#вакансия #QA #фуллстек #ФТ #АТ #удаленка \n\nВакансия: QA Engineer (АФТ на Java/Ruby/C#)\nГород: Москва или удаленка из городов РФ, стандартный график с Москвой\nЗарплата: от 130 000 рублей до 210 000 рублей на руки \nФормат: полный день, полная занятость\nКомпания Innovative People \n\n➡ Требования:\n• От 2х лет опыта тестирования веб- или мобильных приложений\n• Практический опыт применения практик тест-дизайна\n• Рабочие знания клиент-серверной архитектуры\n• Знание Java/Ruby/C#, опыт автоматизации от 1 года\n• Уверенный опыт разработки авто-тестов, работы с инструментами автоматизации\nДля удаленки нужен релевантный опыт удаленной работы.\n\n➡ Обязанности:\n• Автоматизированное тестирование (Selenium+Cucumber)\n• Функциональное, интеграционное, регрессионное и приемочное тестирование\n\n➡ Предлагаем:\n• все по ТК РФ, белое и официальное\n• ДМС со стоматологией, программа лояльности\n• адекватное руководство (сейчас мы на удаленке и собеседования по скайпу)\n• большое комьюнити, классные команды, карьерный рост\n• помогаем с релокацией в Москву/Питер/Екатеринбург(50 000 рублей)\nили есть возможность работы удаленно\n\nРезюме и вопросы @Priboch","markup":[{"type":"hashtag","offset":0,"length":9,"data":"вакансия"},{"type":"hashtag","offset":10,"length":3,"data":"QA"},{"type":"hashtag","offset":14,"length":9,"data":"фуллстек"},{"type":"hashtag","offset":24,"length":3,"data":"ФТ"},{"type":"hashtag","offset":28,"length":3,"data":"АТ"},{"type":"hashtag","offset":32,"length":9,"data":"удаленка"},{"type":"handle","offset":1129,"length":8,"data":"Priboch"}],"date":"2020-06-26T07:57:06+00:00","link":"tg://resolve?domain=qa_jobs&post=98971","tags":[{"name":"qa"},{"name":"java"},{"name":"ruby"},{"name":"selenium"},{"name":"cucumber"}],"cities":[{"code":"moscow"}],"allowsRemote":true}},{"node":{"__typename":"Job","id":"103771275264-1001089317451","title":"Qa engineer","text":"#вакансия #Ульяновск #QA #fulltime #офис #manual #relocate\n\n🔸 manual QA engineer \n🔸 Ульяновск, офис, remote не рассматриваем (но пока удаленно из-за covid)\n🔸 Dualboot Partners (NC, USA)\n🔸 вилка $1000-$3000\n\nОт вас:\n\n- нужно очень хорошо тестировать web- и mobile-приложения, API, нужны уверенные скиллы в этом\n- эрудиция в web-технологиях\n- опыт работы с различными инструментами для тестирования\n- умение работать самостоятельно и ответственно\n- вся документация и общение с клиентом на английском, соответственно, уровень хотя бы базовый необходим\n- есть проекты, покрываемые автотестами, поэтому умение их разрабатывать может быть плюсом и пригодиться в будущем\n\nОт нас:\n\n- ноль лишней бюрократии\n- з/п в $ официально\n- уроки английского от компании\n- MacBook Pro для работы (через 1 год работы он переходит во владение сотруднику)\n- очень крутой офис-коттедж в центре города (да, Ульяновск) с кучей вкусностей и прочими радостями\n- команда - молодые, разносторонние и очень скилловые люди\n- гибкий график и вообще всевозможные свободы, не мешающие эффективно работать\n- помощь при переезде в Ульяновск\n\nБуду рада ответить на любые вопросы,  @alina_fatkhutdinova","markup":[{"type":"hashtag","offset":0,"length":9,"data":"вакансия"},{"type":"hashtag","offset":10,"length":10,"data":"Ульяновск"},{"type":"hashtag","offset":21,"length":3,"data":"QA"},{"type":"hashtag","offset":25,"length":9,"data":"fulltime"},{"type":"hashtag","offset":35,"length":5,"data":"офис"},{"type":"hashtag","offset":41,"length":7,"data":"manual"},{"type":"hashtag","offset":49,"length":9,"data":"relocate"},{"type":"handle","offset":1149,"length":20,"data":"alina_fatkhutdinova"}],"date":"2020-06-26T06:52:36+00:00","link":"tg://resolve?domain=qa_jobs&post=98964","tags":[{"name":"qa"},{"name":"web"},{"name":"mobile"}],"cities":[{"code":"ulyanovsk"}],"allowsRemote":true}}]}}},"context":{}}