{"hash":"f5f6bf98bd95e769321482904cbbd488f77922fd","data":{"records":{"id":"spring-boot","name":"spring-boot","belongsTo":{"totalCount":38,"pageInfo":{"totalPages":4,"currentPage":1},"edges":[{"node":{"__typename":"Job","id":"1773142016-1001091028994","title":"Java разработчик","text":"#спб #офис #java #middle #senior\n\nМесто работы: Санкт-Петербург, м. Лиговский проспект\nКомпания: Санкт-Петербургский Информационно аналитический центр\nФормат работы: офис ( на текущий момент удаленно)\nЗанятость: полная, гибкое начало дня\nЗарплатная вилка: до 200 на руки, 100% белая\n\n«Санкт-Петербургский Информационно-аналитический центр» с 1980 года улучшает качество жизни петербуржцев, автоматизируя городские процессы и государственные органы. В портфолио компании - 50 действующих проектов в Санкт-Петербурге и других регионах. Наши проекты побеждают в общероссийских и международных конкурсах.\n\nСодержание работы:\n- Требуется Java разработчик в Agile команду разработки государственных информационных систем.\n\nОбязанности:\n- Проектирование, разработка и развитие информационных систем с использованием технологий: Java, Postgres/Oracle, ElasticSearch, Spring Boot, Kafka, React, Ansible, Docker, Kubernetes, Jenkins и других\n\nТребования:\n- опыт веб-разработки на Java от 3-х лет;\n- знание ООП, SQL;\n- опыт разработки моделей БД;\n- умение думать и желание развиваться;\n- умение и желание решать сложные технические задачи;\n- высшее техническое образование;\n- знание английского языка (уровень чтения профессиональной литературы);\n\nЖелательно:\n- опыт работы со Spring Boot\n- опыт работы с React\n- опыт работы с СУБД Postgres или другой\n- опыт работы с Gradle\n- опыт работы с брокерами сообщений (Kafka, RabbitMQ);\n- знакомство с оркестраторами (Kubernetes, Swarm);\n- знание современных инженерных практик и инструментов (XP, TDD, Continuous delivery и т.п.).\n\nО команде:\n- мы работаем в компактных командах;\n- избегаем бюрократии и фокусируемся на реальных потребностях граждан нашего города;\n- осуществляем полный цикл разработки от выявления требований, до внедрения и сопровождения;\n- проводим ежедневные митинги, совместные обсуждения возле доски и регулярные ретроспективы;\n- стремимся к постоянному персональному и командному росту и развитию!\n\nВ портфолио команды информационные системы, функционирующие в СПб, других регионах РФ и на международном уровне:\n- Аналитическая платформа поддержки принятия решений по управлению городом;\n- Культура Петербурга\n- Общедоступные библиотеки Санкт-Петербурга\n- Государственные архивы Санкт-Петербурга\n- Приграничный электронный архив\n\nМы готовы предложить успешным кандидатам :\n- влиться в большой дружный коллектив, стать частью команды увлеченных, целеустремленных людей;\n- конкурентоспособный уровень заработной платы, который мы готовы обсудить с успешными кандидатами на собеседовании;\n- бонусы и премии по результатам работы;\n- оплачиваемые отпуска и больничные, полностью «белая» заработная плата дважды в месяц;\n- оплата обучения (тренинги, семинары, конференции);\n- широкие возможности для повышения личного мастерства и профессионального роста;\n- рабочий график – пятидневка с 9 до 18 часов, по пятницам до 17;\n- офис около ст. метро «Лиговский проспект»;\n- возможность внести свой значимый вклад в развитие городской автоматизации!\n\nБуду рад ответить на ваши вопросы о команде и проектах @akozhin","markup":[{"type":"hashtag","offset":0,"length":4,"data":"спб"},{"type":"hashtag","offset":5,"length":5,"data":"офис"},{"type":"hashtag","offset":11,"length":5,"data":"java"},{"type":"hashtag","offset":17,"length":7,"data":"middle"},{"type":"hashtag","offset":25,"length":7,"data":"senior"},{"type":"handle","offset":3051,"length":8,"data":"akozhin"}],"date":"2020-07-02T15:01:55+00:00","link":"tg://resolve?domain=jvmjobs&post=1691","tags":[{"name":"java"},{"name":"jvm"},{"name":"postgresql"},{"name":"oracle"},{"name":"elasticsearch"},{"name":"spring"},{"name":"kafka"},{"name":"reactjs"},{"name":"ansible"},{"name":"docker"},{"name":"kubernetes"},{"name":"jenkins"},{"name":"sql"},{"name":"gradle"},{"name":"rabbitmq"},{"name":"spring-boot"}],"cities":[],"allowsRemote":true}},{"node":{"__typename":"Job","id":"1768947712-1001091028994","title":"Java разработчик","text":"#backend #java #middle  \nКомпания: #ОООСервисхаб \nЛокация: #удаленка \nЗ/п: 80 000-120 000 \nКонтакты:👉 @ANASTASIAHRServicehub  \n\nВ команду, которая производит и внедряет ПО для банков, нужен Разработчик Java (удаленно или в офис во Владимир).   \n\nМы предлагаем Вам:\n  \nФедеральный ИТ проект.  \n Бесплатное обучение английскому языку и возможность выбора обучающего курса по интересующей тематике. \nСоциальный пакет, официальное трудоустройство.  \n\n\nВ проекте используется следующий стек :  \n\n✔️Java с использованием spring-boot \n✔️Axon Framework в качестве каркасных фрейворков.  \n✔️А так же JOOQ, MapStruct, Jackson для работы с внешними источниками данных.  \n✔️Для тестирования используется JUnit + Mockito.  \n✔️Для решения задач безопасности(ЭЦП) используется BouncyCastle. \n✔️CI/CD организуется средствами Gradle, Docker, Jenkins, Rancher 2, Kubernetes, Helm.  \n✔️Для хранения данных используется СУБД PostgreSQL,для организации асинхронной коммуникации применяется RabbitMQ.  \n\nЧто требуется от Вас:  \n\nЗнание языков/фреймворков, Spring, SQL, Core Java S, серверов очередей, неряляционных баз данных, web-технологий приветствуется;  \nУверенное знание Core Java, Spring IoC, SQL  \n\n❕Приветствуются экспертизы в следующих областях: сервера очередей, неряляционные базы данных, CQRS, Event Sourcing, Web-технологии \n \nБуду также благодарна за контакты и рекомендации😊 \n✍️@ANASTASIAHRServicehub hr@srvhub.ru","markup":[{"type":"hashtag","offset":0,"length":8,"data":"backend"},{"type":"hashtag","offset":9,"length":5,"data":"java"},{"type":"hashtag","offset":15,"length":7,"data":"middle"},{"type":"hashtag","offset":35,"length":13,"data":"ОООСервисхаб"},{"type":"hashtag","offset":59,"length":9,"data":"удаленка"},{"type":"handle","offset":103,"length":22,"data":"ANASTASIAHRServicehub"},{"type":"handle","offset":1374,"length":22,"data":"ANASTASIAHRServicehub"},{"type":"link","offset":1397,"length":12,"data":"mailto:hr@srvhub.ru"}],"date":"2020-06-30T08:39:05+00:00","link":"tg://resolve?domain=jvmjobs&post=1687","tags":[{"name":"java"},{"name":"jvm"},{"name":"spring"},{"name":"jackson"},{"name":"junit"},{"name":"gradle"},{"name":"docker"},{"name":"jenkins"},{"name":"kubernetes"},{"name":"postgresql"},{"name":"rabbitmq"},{"name":"sql"},{"name":"web"},{"name":"spring-boot"}],"cities":[{"code":"vladimir"}],"allowsRemote":true}},{"node":{"__typename":"Job","id":"1767899136-1001091028994","title":"Java разработчик","text":"#Вакансия #Java #Spring #Москва #Middle #Senior\nЛокация #москва #динамо\nЗанятость #fulltime\nФормат #офис\n (временно удаленка до сентября)\nЗарплата 150 000 – 200 000 net\nВ компанию Информзащита. Мы ищем опытного Java-разработчика в высоконагруженный проект для крупного государственного заказчика. Аудитория проекта - вся Россия. 1,5 млн. пользователей, плановая нагрузка до 100 тыс. запросов в секунду.\nТехнический стек: Java 8, Spring Boot 2, PostgreSQL 9.6, RabbitMQ, Redis, микросервисная архитектура.\nСобеседование проводится в один этап (руководитель отдела + ведущий разработчик). Решение принимается за 1-2 дня.\nОбязанности:\n- Разработка компонентов микросервисной архитектуры для высоконагруженного проекта\n- Участие в проектировании архитектуры\nТребования:\n• Хорошие знания Java/Spring, PostgreSQL, ООП\nУсловия:\n- Работа в сильной, стабильной компании (ТОП 3 компаний России в сфере защиты информации по оценке CNews Analytics (2017г.);\n- Интересные задачи. Работа с крупными интересными проектами;\n- Зрелые процессы разработки, четкие роли в команде, методология agile;\n- Оформление в соответствии с ТК РФ (все выплаты в \"белую\");\n- Развитая система премирования;\n- Расширенный социальный пакет (ДМС через 6 месяцев работы, 100% оплачиваемый больничный);\n- Возможность гибкого начала/окончания рабочего дня (начало с 8 до 11, окно присутствия с 12 до 17);\n- Разнообразные программы обучения сотрудников;\n- Возможности для повышения квалификации и сертификации;\n- Дружный коллектив профессионалов, вся команда работает In-house;\n- Удобный современный офис класса А;\n- Полный рабочий инструментарий;\n- Кофе, чай;\n- Шаговая доступность от метро - м. Динамо (2 мин.) или м.Петровский Парк (1 мин.)\na.romanovsky@infosec.ru\nwww.infosec.ru","markup":[{"type":"hashtag","offset":0,"length":9,"data":"Вакансия"},{"type":"hashtag","offset":10,"length":5,"data":"Java"},{"type":"hashtag","offset":16,"length":7,"data":"Spring"},{"type":"hashtag","offset":24,"length":7,"data":"Москва"},{"type":"hashtag","offset":32,"length":7,"data":"Middle"},{"type":"hashtag","offset":40,"length":7,"data":"Senior"},{"type":"hashtag","offset":56,"length":7,"data":"москва"},{"type":"hashtag","offset":64,"length":7,"data":"динамо"},{"type":"hashtag","offset":82,"length":9,"data":"fulltime"},{"type":"hashtag","offset":99,"length":5,"data":"офис"},{"type":"link","offset":1704,"length":23,"data":"mailto:a.romanovsky@infosec.ru"},{"type":"link","offset":1728,"length":14,"data":"http://www.infosec.ru"}],"date":"2020-06-30T06:48:55+00:00","link":"tg://resolve?domain=jvmjobs&post=1686","tags":[{"name":"java"},{"name":"jvm"},{"name":"spring"},{"name":"dotnet"},{"name":"postgresql"},{"name":"rabbitmq"},{"name":"redis"},{"name":"spring-boot"}],"cities":[{"code":"moscow"}],"allowsRemote":true}},{"node":{"__typename":"Job","id":"1766850560-1001091028994","title":"Java разработчик","text":"#Java #developer #job #офис\n\nВакансия: Java-разработчик \n\nКомпания: Selecty\n\nГород: Москва, Санкт-Петербург, Новосибирск, Самара\n\nФормат работы: Офис\n\nЗанятость: full timе\n\nЗарплатная вилка: 320k net \n\nОписание вакансии:\n\nРазработка ПО для одного из крупнейших российских банков.\n\nОбязанности:\n• Разработка под Java, фреймворк: Spring boot\n• Разработка в рамках микросервисной архитектуры\n• Проектирование интерфейсов взаимодействия с другими системами.\n• Работа в тесном сотрудничестве со специалистами фронтенд разработки, тестирования и аналитиками.\n• Работа по гибким методологиям разработки.\n\nCтек технологий:\n• Java 8-11, Kotlin.\n• Spring/Springboot.\n• PostgreSQL/Oracle, Kafka, Redis\n• Maven/Gradle\n• Docker/Kubernetes(или OpenShift).\n\nНаши ожидания от кандидата:\n• уверенное владение Java, понимание принципов работы JVM. Знание основных библиотек и шаблонов проектирования.\n• опыт использования Spring Framework (boot, mvc, data, secutity...)\n• опыт работы с многопоточностью и асинхронностью.\n• опыт работы с базами данных, умение писать и оптимизировать запросы.\n• опыт работы с распределёнными хранилищами и системами.\n• знание HTTP, REST, SOAP.\n• опыт работы с фреймворками и инструментами автоматического тестирования (junit, postman, jmeter).\n\nМы предлагаем:\n•  Оформление согласно ТК РФ.\n•  Заработная плата полностью \"белая\".\n•  ДМС.\n•  Оплата корпоративной мобильной связи.\n•  Внутреннее, внешнее обучение (сертификаты).\n•  Льготные программы от компаний – партнеров.\n\nКонтакты: @lelya01\nolga.afonina@selecty.ru","markup":[{"type":"hashtag","offset":0,"length":5,"data":"Java"},{"type":"hashtag","offset":6,"length":10,"data":"developer"},{"type":"hashtag","offset":17,"length":4,"data":"job"},{"type":"hashtag","offset":22,"length":5,"data":"офис"},{"type":"handle","offset":1497,"length":8,"data":"lelya01"},{"type":"link","offset":1506,"length":23,"data":"mailto:olga.afonina@selecty.ru"}],"date":"2020-06-29T16:07:55+00:00","link":"tg://resolve?domain=jvmjobs&post=1685","tags":[{"name":"java"},{"name":"jvm"},{"name":"dotnet"},{"name":"spring"},{"name":"kotlin"},{"name":"postgresql"},{"name":"oracle"},{"name":"kafka"},{"name":"redis"},{"name":"maven"},{"name":"gradle"},{"name":"docker"},{"name":"kubernetes"},{"name":"rest"},{"name":"soap"},{"name":"junit"},{"name":"jmeter"},{"name":"spring-boot"}],"cities":[{"code":"moscow"},{"code":"novosibirsk"},{"code":"samara"}],"allowsRemote":false}},{"node":{"__typename":"Job","id":"1762656256-1001091028994","title":"Java разработчик","text":"#вакансия #java #backend\nКомпания Opendev\nЛокация #москва #мск\nЗП 140-210 гросс\nСобираем продуктовую команду для развития финтех сервисов. Делаем внутрибанковское ПО и веб-сервисы, которыми пользуемся сами и хвастаемся друзьями)\nПриглашаем на проект Java разработчика\n\nСтек\n• Java 8+\n• Spring Framework, Spring boot, Spring Cloud\n• Docker\n• БД - NoSQL\n• микросервисы естестественно 🙂\n\nУсловия\n• Оформление по ТК (белая ЗП и ДМС)\n• Perfomance review\n• Продуктовые Scrum команды\n• Гибкий старт рабочего дня\n\nОбсудить вакансию --- > @xenia_agv\nksenia.ageeva@opendev.com","markup":[{"type":"hashtag","offset":0,"length":9,"data":"вакансия"},{"type":"hashtag","offset":10,"length":5,"data":"java"},{"type":"hashtag","offset":16,"length":8,"data":"backend"},{"type":"hashtag","offset":50,"length":7,"data":"москва"},{"type":"hashtag","offset":58,"length":4,"data":"мск"},{"type":"handle","offset":531,"length":10,"data":"xenia_agv"},{"type":"link","offset":542,"length":25,"data":"mailto:ksenia.ageeva@opendev.com"}],"date":"2020-06-29T11:27:21+00:00","link":"tg://resolve?domain=jvmjobs&post=1681","tags":[{"name":"java"},{"name":"jvm"},{"name":"spring"},{"name":"cloud"},{"name":"docker"},{"name":"nosql"},{"name":"spring-boot"}],"cities":[{"code":"moscow"}],"allowsRemote":false}},{"node":{"__typename":"Job","id":"1761607680-1001091028994","title":"Java разработчик","text":"#javaвакансия #javaspring #senior #middle #полнаязанятость\nДобрый день!\nВ настоящий момент нахожусь в поисках ведущего разработчика Java (backend) для международной аутсорсинговой компании (проекты банковского направления).\n160-300 K, Москва, ст.м. Динамо\nСтэк: Java 8, Spring, Spring (Boot, Cloud), Hibernate, SQL, Микросервисы, DevOps, REST-сервисы. \nУсловия: 160 – 300.000 рублей, полностью «белая» заработная плата. В компании регулярно проводится корпоративное обучение, сертификация в технических и бизнес-областях. Помощь в релокации.\nБуду рада ответить на Ваши вопросы: @LyKatrin, ekaterina706712@mail.ru","markup":[{"type":"hashtag","offset":0,"length":13,"data":"javaвакансия"},{"type":"hashtag","offset":14,"length":11,"data":"javaspring"},{"type":"hashtag","offset":26,"length":7,"data":"senior"},{"type":"hashtag","offset":34,"length":7,"data":"middle"},{"type":"hashtag","offset":42,"length":16,"data":"полнаязанятость"},{"type":"handle","offset":578,"length":9,"data":"LyKatrin"},{"type":"link","offset":589,"length":23,"data":"mailto:ekaterina706712@mail.ru"}],"date":"2020-06-29T11:14:55+00:00","link":"tg://resolve?domain=jvmjobs&post=1680","tags":[{"name":"java"},{"name":"jvm"},{"name":"spring"},{"name":"cloud"},{"name":"hibernate"},{"name":"sql"},{"name":"rest"},{"name":"spring-boot"}],"cities":[{"code":"moscow"}],"allowsRemote":false}},{"node":{"__typename":"Job","id":"1758461952-1001091028994","title":"Java разработчик","text":"#Java\nИщy Java разработчика в ВТБ Банк, в команду SCRUM на автоматизацию банковских продуктов для Юр лиц.\nКоманда занимается открытием онлайн счетов для юридических лиц.\n\nЗадачи будут связаны с развитием бекенда, с использованием микросервисной архитектуры, приложение на java 8 (spring boot 2.1, mvc, data jpa, ehcache, oracle DB). \n\nВ команде:\n-3 системных аналитика, \n-2 frontend-разработчика,\n-4 backend -разработчика,\n-2 тестировщика, \n-1 DevOps, \n-2 бизнес-аналитика.\n\nУсловия обсуждаются в зависимости от опыта: до 250 000 руб. net («белая» з/п).\n\nРабота постоянная, удаленная, с оформлением в штат компании. \n\nПисать в лс @dvoretskayaEk или edvoreckaya@vtb.ru","markup":[{"type":"hashtag","offset":0,"length":5,"data":"Java"},{"type":"handle","offset":630,"length":14,"data":"dvoretskayaEk"},{"type":"link","offset":649,"length":18,"data":"mailto:edvoreckaya@vtb.ru"}],"date":"2020-06-29T10:40:50+00:00","link":"tg://resolve?domain=jvmjobs&post=1677","tags":[{"name":"java"},{"name":"jvm"},{"name":"spring"},{"name":"jpa"},{"name":"oracle"},{"name":"dotnet"},{"name":"spring-boot"}],"cities":[],"allowsRemote":true}},{"node":{"__typename":"Job","id":"1755316224-1001091028994","title":"Java developer","text":"#Senior #Java #Developer\nКомпания: #Утконос\nЛокация: #Москва\nЗ/п: до 320 000 Net\nКонтакт: @RecruiterTatianaK\nSenior Java Developer в Утконос Онлайн\n📍Наш проект:\nВ компании разрабатывается комплексная система по управлению складом (WMS). Систему пишем сами «с нуля» на микросервисной архитектуре. \nСистема является ключевой для бизнеса и проектируется под высокие нагрузки.\n📍Что нужно делать?\nАвтоматизировать бизнес процессы на складе в одной из scrum команд в количестве 10 человек, прорабатывать архитектурные решения, замещать тим лида при необходимости.\n📍Наш стек:\nJava 11/Kotlin, Spring Boot 2.3.0, Camunda BPM, Kafka, Kubernetes, ELK, Grafana, Prometheus\n📍Что предлагаем?\nОформление по ТК РФ, ДМС\nГибкий график\nВозможность работы удаленно\nСплоченный и профессиональный коллектив\nКорпоративные скидки на utkonos.ru, tui.ru, фитнес, кино и др.\nОфис - 10 минут  от м. Краснопресненская/ м.Улица 1905 года","markup":[{"type":"hashtag","offset":0,"length":7,"data":"Senior"},{"type":"hashtag","offset":8,"length":5,"data":"Java"},{"type":"hashtag","offset":14,"length":10,"data":"Developer"},{"type":"hashtag","offset":35,"length":8,"data":"Утконос"},{"type":"hashtag","offset":53,"length":7,"data":"Москва"},{"type":"handle","offset":90,"length":18,"data":"RecruiterTatianaK"},{"type":"link","offset":813,"length":10,"data":"http://utkonos.ru"},{"type":"link","offset":825,"length":6,"data":"http://tui.ru"}],"date":"2020-06-29T09:38:10+00:00","link":"tg://resolve?domain=jvmjobs&post=1674","tags":[{"name":"java"},{"name":"jvm"},{"name":"dotnet"},{"name":"kotlin"},{"name":"spring"},{"name":"kafka"},{"name":"kubernetes"},{"name":"spring-boot"}],"cities":[{"code":"moscow"},{"code":"lida"}],"allowsRemote":true}},{"node":{"__typename":"Job","id":"1754267648-1001091028994","title":"Java developer","text":"#Junior #Middle #Java #Developer\nКомпания: #Утконос\nЛокация: #Москва\nЗ/п: до 180 000 Net\nКонтакт: @RecruiterTatianaK\nJunior/Middle Java Developer в Утконос Онлайн\n📍Наш проект:\nВ компании разрабатывается комплексная система по управлению складом (WMS). Систему пишем сами «с нуля» на микросервисной архитектуре. \nСистема является ключевой для бизнеса и проектируется под высокие нагрузки.\n📍Что нужно делать?\nРазрабатывать сервисы WMS, закрепленные за одной из scrum команд и покрывать их end-to-end тестами.\n📍Наш стек:\nJava 11/Kotlin, Spring Boot 2.3.0, Camunda BPM, Kafka, Kubernetes, ELK, Grafana, Prometheus\n📍Что предлагаем?\nОформление по ТК РФ, ДМС\nГибкий график\nВозможность работы из дома\nСплоченный и профессиональный коллектив\nКорпоративные скидки на utkonos.ru, tui.ru, фитнес, кино и др.\nОфис - 10 минут  от м. Краснопресненская/ м.Улица 1905 года","markup":[{"type":"hashtag","offset":0,"length":7,"data":"Junior"},{"type":"hashtag","offset":8,"length":7,"data":"Middle"},{"type":"hashtag","offset":16,"length":5,"data":"Java"},{"type":"hashtag","offset":22,"length":10,"data":"Developer"},{"type":"hashtag","offset":43,"length":8,"data":"Утконос"},{"type":"hashtag","offset":61,"length":7,"data":"Москва"},{"type":"handle","offset":98,"length":18,"data":"RecruiterTatianaK"},{"type":"link","offset":761,"length":10,"data":"http://utkonos.ru"},{"type":"link","offset":773,"length":6,"data":"http://tui.ru"}],"date":"2020-06-29T09:37:29+00:00","link":"tg://resolve?domain=jvmjobs&post=1673","tags":[{"name":"java"},{"name":"jvm"},{"name":"dotnet"},{"name":"kotlin"},{"name":"spring"},{"name":"kafka"},{"name":"kubernetes"},{"name":"spring-boot"}],"cities":[{"code":"moscow"}],"allowsRemote":false}},{"node":{"__typename":"Job","id":"1747976192-1001091028994","title":"Java разработчик","text":"Вакансия: Архитектор системы\n \nПроект: Разрабатываем единый веб-терминал MOEX Treasury, который позволит получить быстрый и удобный доступ ко всем рынкам Московской Биржи, а также сервисам по управлению обеспечением и внебиржевым операциям. Это не просто веб-интерфейс к уже существующим торговым системам, а новая платформа, которая взаимодействует со всеми основными торговыми и бэк-офисными системами Биржи, которая сейчас начинает активно развиваться.\n \nТехнологический стек: Java 8, Spring (Spring Boot, Spring MVC), Hazelcast, WebSocket, RabbitMQ, Firebird (с переходом на PostgreSQL), в интеграционных решения REST API и JMS.\n\nЗадачи на проекте:\nРазработка стратегии технического развития платформы, объединяющей основные рынки и инструменты Московской Биржи;\nПроектирование сервисов и интерфейсов взаимодействия с учетом нефункциональных требований, надежности обратной совмести и т.д.;\nВзаимодействие с внутренними и внешними разработчиками для контроля реализации архитектурных решений;\nВзаимодействие с аналитиками и заказчиками для выработки оптимальных технологических решений.\n \nЧто мы ожидаем:\nЗнание теоретических основ и опыт проектирования и эксплуатации отказоустойчивых систем;\nЗнание принципов ООП и понимание паттернов проектирования;\nУмение создавать техническую документацию;\nТехнологии: HTTP, REST, WebSocket OpenAPI/Swagger, XML, XSD, JAVA, JSON, Apache Tomcat, RabbitMQ, Hazelcast, rdms;\nДополнительным плюсом является: знание протоколов FIX и FAST, работа в финансовой сфере, опыт проектирования брокерских систем.\n\nНаши условия работы:\n• Компания: ПАО Московская биржа (Компания, входящая в 500 - лучших работодателей мира по версии Forbes за 2019 год);\n• Офис в центре: г. Москва, м. Арбатская/Библиотека им. Ленина/Боровицкая/Александровский сад;\n• Занятость: полная, официальное оформление в штат компании (оформление онлайн);\n• Формат работы: современный  офис возле Кремля в шаговой доступности от метро (на данный момент работаем удаленно из дома);\n• ДМС: с первого рабочего дня;\n• Свой «корпоративный университет», собственный лекторий, широкие возможности обучения – как внутри, так и вне компании;\n• Уровень з/п:  300 - 350 тыс.руб. (gross) + годовой бонус (32% годового дохода);\n• Формат интервью: 1 -2 этапа онлайн интервью (60 минут).\n\nПишите в личку, отвечу на любые вопросы!\nКонтакты: @Sasha_P92\nAlexander.Panin@moex.com","markup":[{"type":"bold","offset":0,"length":28,"data":""},{"type":"bold","offset":31,"length":8,"data":""},{"type":"bold","offset":458,"length":22,"data":""},{"type":"bold","offset":634,"length":18,"data":""},{"type":"bold","offset":1093,"length":15,"data":""},{"type":"bold","offset":1544,"length":20,"data":""},{"type":"bold","offset":1838,"length":19,"data":""},{"type":"handle","offset":2328,"length":10,"data":"Sasha_P92"},{"type":"link","offset":2339,"length":24,"data":"mailto:Alexander.Panin@moex.com"}],"date":"2020-06-26T17:13:34+00:00","link":"tg://resolve?domain=jvmjobs&post=1667","tags":[{"name":"java"},{"name":"jvm"},{"name":"spring"},{"name":"websocket"},{"name":"rabbitmq"},{"name":"postgresql"},{"name":"rest"},{"name":"swagger"},{"name":"xml"},{"name":"xsd"},{"name":"json"},{"name":"apache"},{"name":"tomcat"},{"name":"spring-boot"},{"name":"spring-mvc"}],"cities":[{"code":"moscow"}],"allowsRemote":true}}]}}},"context":{}}