{"hash":"f34fd2c444a074f4e0e67d525015a008ef8e766f","data":{"records":{"id":"docker","name":"docker","belongsTo":{"totalCount":130,"pageInfo":{"totalPages":13,"currentPage":12},"edges":[{"node":{"__typename":"Job","id":"227540992-1001352129329","title":"Golang разработчик","text":"#вакансия\nНеобходимые навыки: \n ⁃ опыт коммерческой разработки от 3-х лет;\n ⁃ опыт проектирования архитектуры приложений;\n ⁃ опыт организации работы в команде.\nНеобходимые технологии:\n ⁃ Golang with dep. Cobra + Viper;\n ⁃ RESTful API;\n ⁃ Go test;\n ⁃ MongoDB, SQL;\n ⁃ Git/Gitlab Flow;\n ⁃ Уверенная работа в Linux-консоли;\n ⁃ Docker, docker-compose.\nЗарплатная вилка (на руки): 180 тр - 220 тр (по результатам общения)\nРабота только в офисе с 9 до 18 (м. Парк Победы)\nГород: Москва\nЯзыки: русский, английский (для работы)\nНазвание компании: ООО «Спора» (разработка собственной интеллектуальной системы для медицинских организаций)\nКонтактное лицо: Марина \nm.n.katsenya@nefrosovet.ru\n@m_katsenya\n Автор @m_katsenya","markup":[{"type":"hashtag","offset":0,"length":9,"data":"вакансия"},{"type":"link","offset":654,"length":26,"data":"mailto:m.n.katsenya@nefrosovet.ru"},{"type":"handle","offset":681,"length":11,"data":"m_katsenya"},{"type":"handle","offset":700,"length":11,"data":"m_katsenya"}],"date":"2020-02-11T07:20:55+00:00","link":"tg://resolve?domain=gogetajobfeed&post=217","tags":[{"name":"go"},{"name":"mongodb"},{"name":"sql"},{"name":"git"},{"name":"gitlab"},{"name":"linux"},{"name":"docker"},{"name":"docker-compose"}],"cities":[{"code":"moscow"}],"allowsRemote":false}},{"node":{"__typename":"Job","id":"226492416-1001352129329","title":"Golang разработчик","text":"#вакансия #Москва #fulltime\nКомпания: Фонд новых форм развития образования\nЗП: от 130 до 180 в руки\nГород: Москва\nПривет! Мы - молодая команда разработчиков Фонда новых форм развития образования. Сейчас мы занимаемся разработкой и курированием информационных систем национального проекта \"Образование\" и активно развиваемся, поэтому нам срочно нужен Golang разработчик (Junior / Middle), который готов принять участие в реализации образовательных проектов федерального уровня. У нас Вы сможете поработать над совершенно разными проектами, реализовать свои идеи, попробовать новые и самые современные подходы к разработке в действии, в том числе и при создании новых проектов.\n\nМы ожидаем, что Вы:\n- Знаете основы Git\n- Имеете опыт разработки на Go\n- Понимаете принципы луковичной архитектуры (clean architecture, onion architecture)\n- Unix shell\n- Имеете опыт работы с Docker (написание Dockerfile, docker-compose.yml)\n- Имеете базовое понимание гибких методологий разработки\n- Умеете писать тесты\n- Имеете опыт выявления и оптимизации тяжеловесных SQL-запросов\n- Знакомы с базовым пониманием ACID и MVCC\n- Понимаете транзакционную модель\n- Имеете высшее образование\n\nЧто предлагаем мы:\n- Оформление в соответствие с ТК РФ\n- Интересные задачи, опыт работы с лучшими современными практиками\n- Отсутствие легаси\n- Кофе и печеньки в офисе\n- PlayStation 4 🙂\n- Премирование по результатам работы\n- Молодой, амбициозный и очень дружный коллектив\n- Место работы: ст.м. Цветной Бульвар, в шаговой доступности от метро\n\nПодробнее о вакансии тут: https://career.habr.com/vacancies/1000056457\nЗа деталями можно в личку ( @privetDmitry ) или откликнуться на вакансию в Хабре 🙂\n Автор @privetDmitry","markup":[{"type":"hashtag","offset":0,"length":9,"data":"вакансия"},{"type":"hashtag","offset":10,"length":7,"data":"Москва"},{"type":"hashtag","offset":18,"length":9,"data":"fulltime"},{"type":"link","offset":1538,"length":44,"data":"https://career.habr.com/vacancies/1000056457"},{"type":"handle","offset":1611,"length":13,"data":"privetDmitry"},{"type":"handle","offset":1674,"length":13,"data":"privetDmitry"}],"date":"2020-02-10T11:22:26+00:00","link":"tg://resolve?domain=gogetajobfeed&post=216","tags":[{"name":"go"},{"name":"git"},{"name":"unix"},{"name":"shell"},{"name":"docker"},{"name":"sql"},{"name":"docker-compose"}],"cities":[{"code":"moscow"}],"allowsRemote":false}},{"node":{"__typename":"Job","id":"224395264-1001352129329","title":"Golang разработчик","text":"#вакансия #office #golang #fulltime \nВакансия: Golang разработчик\nФормат работы: fulltime, офис\nМесто работы: Москва, м. Сухаревская, Проспект мира 3с3 (100 метров от метро)\nЗП: от 180 000 до 200 000 net.\n\nЧто мы ждём от вас\nопыт работы с GoLang\nопыт работы с MongoDB\nумеете пользоваться Git\n\nВ проекте мы используем Docker, RabbitMQ, Redis, ElasticSearch - будет плюсом, если вы имели опыт работы с чем-то из этого списка. Если нет - приходите и мы научим\n\nЧто у нас есть\nминимум формальностей и множество возможностей проявить себя, стать лидером команды\nпогружение в изучение и использование различных практик и инструментов современной разработки\nполностью «белая» зарплата\nгибкий график работы\n\nСтек\n- Golang, NodeJS, Redis, RabbitMQ, ElasticSearch, MongoDB, ClickHouse\n- для ведения задач и хранения кода мы используем GitLab\n- используем практики CI & CD - наши проекты автоматически разворачиваются на серверах, а некоторые из них «гоняются» автотестами\n- Docker в наших сердцах - все продакшны работают на Docker внутри Kubernetes\n- вся инфраструктура находится внутри AWS\n- собираем метрики и организуем мониторинг наших проектов с помощью CloudWatch\n\nКомпания: Фармспейс\nСайт: https://pharmaspace.ru\nПродукт: маркетплейс фармакологической тематики.\n\nКонтакты @irarudakova\n Автор @irarudakova","markup":[{"type":"hashtag","offset":0,"length":9,"data":"вакансия"},{"type":"hashtag","offset":10,"length":7,"data":"office"},{"type":"hashtag","offset":18,"length":7,"data":"golang"},{"type":"hashtag","offset":26,"length":9,"data":"fulltime"},{"type":"link","offset":1188,"length":22,"data":"https://pharmaspace.ru"},{"type":"handle","offset":1270,"length":12,"data":"irarudakova"},{"type":"handle","offset":1290,"length":12,"data":"irarudakova"}],"date":"2020-02-10T08:23:12+00:00","link":"tg://resolve?domain=gogetajobfeed&post=214","tags":[{"name":"go"},{"name":"dotnet"},{"name":"mongodb"},{"name":"git"},{"name":"docker"},{"name":"rabbitmq"},{"name":"redis"},{"name":"elasticsearch"},{"name":"nodejs"},{"name":"gitlab"},{"name":"kubernetes"},{"name":"amazon-web-services"}],"cities":[{"code":"moscow"}],"allowsRemote":false}},{"node":{"__typename":"Job","id":"637534208-1001089319619","title":"Ruby разработчик","text":"#вакансия #бэкенд #офис #RoR #Ruby #Rails #Москва #фултайм\n\nВакансия: Middle Ruby on Rails backend developer\nКомпания: Revo.ru\nЛокация: Москва, м. Тульская\nФормат работы: офис\nЗанятость: полная, иногда можно работать из дома\nЗарплатная вилка: 170 000 - 190 000 руб net по ТК РФ + оплата конференций и ивентов\n\nРево — финтех компания, на рынке РФ сервис работает с 2012 года, с 2018 запустились в Польше. Поначалу разработку для нас вели команды ДжетРокетса и Эврона, а с выходом в окупаемость мы начали собирать внутреннюю разработку. И за последние несколько лет собрали крутую команду внутренней разработки.\n\nИщу 2-х Middle RoR-разработчиков: \n1 - на разработку&тимлидство B2C-командой (без опыта в тимлидстве, вакансия для тех, кто хочет прокачаться в лида);\n2 - на разработку в B2C-команду.\n\nЧто предлагаем:\n• ЗП до 190 000 руб net, оформление по ТК РФ;\n• место в CoreTeam команды B2C-разработки (4 млн B2C пользователей);\n• оплачиваемые конференции и ивенты;\n• иногородним оказываем помощь с переездом;\n• «железо» на выбор;\n• гибкое начало рабочего дня (8.00-11.00), возможность иногда работать удаленно;\n• турники, «шведская стенка» в 10 метрах от офиса;\n• офис в стиле Loft в Даниловской Мануфактуре, рядом метро Тульская;\n• возможность быстрого роста в тимлида команды B2C-разработки (текущий лид переходит в B2B-\nкоманду);\n• чай, кофе, печенье, снеки, фрукты, оборудованная комфортабельная кухня;\n• тусовки каждую последнюю пятницу месяца;\n\nКоманда B2C-разработки: 2 RoR-разработчика, 3 React-разработчика, 5 mobile-разработчиков, qa. \nСмежники: DevOps, qa, продуктологи, финансисты, рисковики, команда интеграции.\n\nЗадачи:\n• возможность работать и учиться на живом крупном международном проекте;\n• в составе продуктовой Scrum-команды участвовать в полном цикле разработки новых фич для конечных пользователей;\n• разработка новых и поддержка работоспособности существующих облачных сервисов;\n• участие в проектировании и разработке архитектур веб приложений;\n• разработка структур баз данных, хранимых процедур, представлений;\n• декомпозиция и оценка задач, выполнение планов 2-х недельных спринтов;\n• соблюдать баланс между скоростью разработки и перфекционизмом;\n• учиться новому и делиться знаниями с коллегами;\n\nТехнологический стек:\n• Ruby on Rails от 5.2 до 6;\n• PostgreSQL/MySQL;\n• Git, Sidekiq/DelayedJob, Airbrake, ActiveAdmin, Devise, Rspec, FactoryGirl;\n• Обмен между бэком (микросервисы) и фронтом по JSON API (на фронте React + Redux);\n • Nice to have (понимание, как работает): Docker, Kubernetes. \n\nНаши ожидания от кандидата:\n• понимание ООП, MVC, шаблонов проектирования;\n• коммерческий опыт разработки от 3-х лет;\n• понимание принципов RESTful API;\n• умение различать business critical и MVP участки проекта;\n• умение оценивать и выдерживать сроки разработки;\n• опыт работы с PostgreSQL, умение составлять сложные запросы, оптимизировать существующие на уровне чистого SQL;\n• опыт работы с системами кеширования;\n• следование стандартам разработки: стайлгайды, тесты, code review;\n\nДополнительным плюсом будет:\n• опыт работы в финтехе или продуктовой разработке;\n• опыт смены языка разработки и/или предметной области;\n• опыт разработки на функциональных языках.\n\nКонтакты: @akssld","markup":[{"type":"hashtag","offset":0,"length":9,"data":"вакансия"},{"type":"hashtag","offset":10,"length":7,"data":"бэкенд"},{"type":"hashtag","offset":18,"length":5,"data":"офис"},{"type":"hashtag","offset":24,"length":4,"data":"RoR"},{"type":"hashtag","offset":29,"length":5,"data":"Ruby"},{"type":"hashtag","offset":35,"length":6,"data":"Rails"},{"type":"hashtag","offset":42,"length":7,"data":"Москва"},{"type":"hashtag","offset":50,"length":8,"data":"фултайм"},{"type":"bold","offset":60,"length":9,"data":""},{"type":"bold","offset":109,"length":9,"data":""},{"type":"link","offset":119,"length":7,"data":"http://Revo.ru"},{"type":"bold","offset":127,"length":9,"data":""},{"type":"bold","offset":156,"length":14,"data":""},{"type":"bold","offset":176,"length":10,"data":""},{"type":"bold","offset":225,"length":17,"data":""},{"type":"bold","offset":310,"length":4,"data":""},{"type":"bold","offset":611,"length":35,"data":""},{"type":"bold","offset":796,"length":16,"data":""},{"type":"bold","offset":1450,"length":23,"data":""},{"type":"bold","offset":1545,"length":9,"data":""},{"type":"bold","offset":1625,"length":8,"data":""},{"type":"bold","offset":2225,"length":22,"data":""},{"type":"bold","offset":2523,"length":28,"data":""},{"type":"bold","offset":3009,"length":29,"data":""},{"type":"bold","offset":3191,"length":9,"data":""},{"type":"handle","offset":3201,"length":7,"data":"akssld"}],"date":"2020-02-04T13:31:23+00:00","link":"tg://resolve?domain=rubyjob&post=608","tags":[{"name":"ruby"},{"name":"ruby-on-rails"},{"name":"dotnet"},{"name":"reactjs"},{"name":"mobile"},{"name":"postgresql"},{"name":"mysql"},{"name":"git"},{"name":"devise"},{"name":"json"},{"name":"redux"},{"name":"docker"},{"name":"kubernetes"},{"name":"sql"},{"name":"react-redux"}],"cities":[{"code":"moscow"},{"code":"lida"},{"code":"nice"}],"allowsRemote":true}},{"node":{"__typename":"Job","id":"217055232-1001352129329","title":"Golang разработчик","text":"#вакансия #office #golang #fulltime \nВакансия: Golang разработчик\nФормат работы: fulltime, офис\nМесто работы: Москва, м. Сухаревская, Проспект мира 3с3\nПродукт: маркетплейс фармакологической тематики совместно с X5 Retail group.\nЗП: от 150 000 до 200 000 net.\n\nЧто мы ждём от вас\n- опыт работы с GoLang\n- опыт работы с MongoDB\n- умеете пользоваться Git\n- желание работать в команде, вносить идеи и предложение по совершенствованию продукта\nВ проекте мы используем Docker, RabbitMQ, Redis, ElasticSearch - будет плюсом, если вы имели опыт работы с чем-то из этого списка. Если нет - приходите и мы научим\n\nЧто у нас есть\n- минимум формальностей и множество возможностей проявить себя\n- погружение в изучение и использование различных практик и инструментов\nсовременной разработки\n- молодую, дружную и целеустремленную команду профессионалов\n- работу над интересными и востребованными сервисами\n- полностью «белая» зарплата\n- гибкий график работы\n- современный удобный офис в минуте ходьбы от станций метро Сухоревская\n\nСтек\n- у нас большой стек современных технологий - Golang, NodeJS, Redis, RabbitMQ, ElasticSearch, MongoDB, ClickHouse\n- для ведения задач и хранения кода мы используем GitLab\n- используем практики CI & CD - наши проекты автоматически разворачиваются на серверах, а некоторые из них - «гоняются» автотестами\n- Docker в наших сердцах - все продакшны работают на Docker внутри Kubernetes\n- вся инфраструктура находится внутри AWS\n- собираем метрики и организуем мониторинг наших проектов с помощью CloudWatch\n\nКомпания: Фармспейс\nСайт: https://pharmaspace.ru\nПродукт: маркетплейс фармакологической тематики совместно с X5 Retail group.\n\nПо всем вопросам в личку или в телегу @irarudakova\n Автор @irarudakova","markup":[{"type":"hashtag","offset":0,"length":9,"data":"вакансия"},{"type":"hashtag","offset":10,"length":7,"data":"office"},{"type":"hashtag","offset":18,"length":7,"data":"golang"},{"type":"hashtag","offset":26,"length":9,"data":"fulltime"},{"type":"link","offset":1552,"length":22,"data":"https://pharmaspace.ru"},{"type":"handle","offset":1691,"length":12,"data":"irarudakova"},{"type":"handle","offset":1711,"length":12,"data":"irarudakova"}],"date":"2020-02-03T19:00:39+00:00","link":"tg://resolve?domain=gogetajobfeed&post=207","tags":[{"name":"go"},{"name":"dotnet"},{"name":"mongodb"},{"name":"git"},{"name":"docker"},{"name":"rabbitmq"},{"name":"redis"},{"name":"elasticsearch"},{"name":"nodejs"},{"name":"gitlab"},{"name":"kubernetes"},{"name":"amazon-web-services"}],"cities":[{"code":"moscow"}],"allowsRemote":false}},{"node":{"__typename":"Job","id":"216006656-1001352129329","title":"Golang разработчик","text":"и ещё одна golang-вакансия от нас\n#вакансия\n\nGolang backend developer в питерский офис компании Cryptopay (СПб).\n\nОдин из наших продуктов - Buy Now, сервис по продаже криптовалют с оплатой по банковской карте. В наших планах превращение данного продукта в полноценный платежный шлюз для приема фиатных платежей и их обмена на криптовалюту, способный к интеграции со сторонними сервисами. Для BuyNow мы ищем Golang-разработчика, готового улучшать и поддерживать продукт, а так же расти и развивать команду.\n\nЧто нужно будет делать:\n🔸Проектировать и создавать сервисную архитектуру приложения\n🔸Переработать существующие модули системы\n🔸Разрабатывать новую функциональность\n🔸Проводить code review\n🔸Развивать инструменты мониторинга и обработки нештатных ситуаций\n🔸Разрабатывать высоконагруженные API\n🔸Анализировать поступающие задачи и находить оптимальные пути реализации\n\nПридется погрузиться в:\n🔸Распределенные системы;\n🔸Криптографию и работу с конфиденциальными данными;\n🔸Финтех и математику.\n\nВ работе мы используем:\n🔸Golang\n🔸Vue\n🔸PostgreSQL;\n🔸Redis;\n🔸Docker;\n\nТакже не помешает:\n🔸Опыт работы с Prometheus;\n🔸Опыт профилирования Golang-приложений;\n🔸Наличие опыта работы с криптовалютами;\n🔸Опыт работы с Ansible;\n\nЧто мы можем предложить:\n🔸Сплоченную и дружную команду, работающую на результат\n🔸Минимум бюрократии и микроменеджмента\n🔸Максимум поддержки и открытости\n🔸Индивидуальный подход к распределению задач и определению зон ответственности\n🔸Непростые задачи и интересные проекты\n🔸Возможность влиять на процессы и результат\n🔸Гибкий график\n🔸Возможность периодической удаленной работы\n🔸Конкурентную зарплату\n🔸Трудоустройство по ТК РФ\n\nЗарплата: от 200к на руки (смотрим кандидатов разного уровня, потолка нет) Пусть будут условные 300.\nВозможна удаленная работа после прохождения испытательного срока.\n\nКонтакты: @gonzogirl\n Автор @gonzogirl","markup":[{"type":"hashtag","offset":34,"length":9,"data":"вакансия"},{"type":"handle","offset":1844,"length":10,"data":"gonzogirl"},{"type":"handle","offset":1862,"length":10,"data":"gonzogirl"}],"date":"2020-01-31T11:21:55+00:00","link":"tg://resolve?domain=gogetajobfeed&post=206","tags":[{"name":"go"},{"name":"vuejs"},{"name":"postgresql"},{"name":"redis"},{"name":"docker"},{"name":"ansible"}],"cities":[],"allowsRemote":true}},{"node":{"__typename":"Job","id":"214958080-1001352129329","title":"Go developer","text":"#вакансия #fulltime #remote #office #relocate #Amsterdam\n\nSenior Software Engineer - Kickstox (Amsterdam, The Netherlands)\n€48.000 - €58.000 / year (gross)\n\nAt Kickstox we have the modest goal of reinventing fantasy football and transforming it into a 24/7, real time game that allows football fans to meet, greet and compete. For this we have created the Kickstox exchange where users can trade fictional stocks of their favourite football players, check how they perform in real-time, compete in different competition formats and challenge their friends to prove them they know best about football, every day – every play!\nWe need you to be the best of both worlds; a manager who takes complete control of the Tech team and also a creative, senior back-end developer that is not afraid to get his or her hands dirty. The foundations have been laid but the quest to expand and improve is never ending and for that we look to you. You are in charge of reaching the milestones, building responsive and elegant web applications, improve usability and customer experience and find solutions to the everyday challenges that come up.\nYou will have a small team of different skill sets to manage with a high probability of expansion in the near future. \n\nYour skills:\nA great sense of ownership and responsibility\nInsightfulness and a hawk’s eye for detail\nConstant drive to grow fast and improve yourself\nA problem-solving mindset that thinks in solutions\nResourcefulness, thinking creatively and optimistically \nProven experience with managing multi-talented and multi-national teams\nProject management with teams of varying technical skills using scrum protocols\nFull professional command of English\n\nProfound working knowledge with:\n▪ Go \n▪ Postgres(TimescaleDB)\n▪ Redis\n▪ RabbitMQ\n▪ MQTT/Websocket\n\nOur infrastructure runs over Google Cloud Platform using Docker, Kubernetes and Gitlab. And is provisioned by Ansible.\n\nAnd a love for the beautiful game is definitely a pro!\n\nWhat can we offer\nAs a key part of the technical heart of the company you get the freedom to think and work out new functions. Ideas and suggestions are greatly appreciated and more importantly, they are listened to. We want to expand and rapidly conquer this market in the coming years. This offers opportunity for you to become included in the success of the company.\n\nContact @cra3y\n Автор @cra3y","markup":[{"type":"hashtag","offset":0,"length":9,"data":"вакансия"},{"type":"hashtag","offset":10,"length":9,"data":"fulltime"},{"type":"hashtag","offset":20,"length":7,"data":"remote"},{"type":"hashtag","offset":28,"length":7,"data":"office"},{"type":"hashtag","offset":36,"length":9,"data":"relocate"},{"type":"hashtag","offset":46,"length":10,"data":"Amsterdam"},{"type":"handle","offset":2353,"length":6,"data":"cra3y"},{"type":"handle","offset":2367,"length":6,"data":"cra3y"}],"date":"2020-01-31T11:21:41+00:00","link":"tg://resolve?domain=gogetajobfeed&post=205","tags":[{"name":"go"},{"name":"playframework"},{"name":"web"},{"name":"postgresql"},{"name":"redis"},{"name":"rabbitmq"},{"name":"websocket"},{"name":"cloud"},{"name":"docker"},{"name":"kubernetes"},{"name":"gitlab"},{"name":"ansible"},{"name":"google-cloud-platform"}],"cities":[{"code":"amsterdam"}],"allowsRemote":true}},{"node":{"__typename":"Job","id":"211812352-1001352129329","title":"Go разработчик","text":"#вакансия #Ижевск #fulltime\n\nКомпания: Ростелеком БПМ (коллаборация ELMA + Ростелеком)\nНазвание вакансии: go-разработчик\nЗарплатная вилка: 90 000 - 180 000 RUB\nУдаленка: нет, офис\nГород: Ижевск\nНеобходимость знания языков: русский\n\nСписок необходимых навыков: \nЯзыки: go, angular+typescript. \nБД: postgres, mongodb, redis, rabbitmq. \nИнфраструктура: kubernetes, docker.\n+ отсутствие предубеждений против написания логики на фронтенде (многие компоненты готовы и конструирование интерфейса чаще сводится к сборке конструктора, но логику сложных валидаций и обмена данными необходимо будет писать);\n+ опыт работы в команде.\n\nО компании и проекте:\nКомпания Ростелеком БПМ — это коллаборация двух лидеров ИТ-рынка в своей области- ELMA и Ростелеком с целью создания новой BPM-платформы, которая позволит автоматизировать процессы, связанные с оказанием государственных и муниципальн.ых услуг\nНаш продукт — это самый масштабный государственный ИТ-проект в России, с соответствующим бюджетом. И делаться он будет здесь, в Удмуртии! \nМы ищем профессионалов, которые готовы вложить весь свой опыт разработки в создание мощной bpm-платформы.\n\nКонтактное лицо:  @ohhcheese\n Автор @ohhcheese","markup":[{"type":"hashtag","offset":0,"length":9,"data":"вакансия"},{"type":"hashtag","offset":10,"length":7,"data":"Ижевск"},{"type":"hashtag","offset":18,"length":9,"data":"fulltime"},{"type":"handle","offset":1152,"length":10,"data":"ohhcheese"},{"type":"handle","offset":1170,"length":10,"data":"ohhcheese"}],"date":"2020-01-28T09:50:05+00:00","link":"tg://resolve?domain=gogetajobfeed&post=202","tags":[{"name":"go"},{"name":"angularjs"},{"name":"typescript"},{"name":"postgresql"},{"name":"mongodb"},{"name":"redis"},{"name":"rabbitmq"},{"name":"kubernetes"},{"name":"docker"}],"cities":[{"code":"izhevsk"}],"allowsRemote":false}},{"node":{"__typename":"Job","id":"208666624-1001352129329","title":"Golang разработчик","text":"#вакансия #godeveloper #golang #backend #fulltime #офис #senior #techlead\n\nВсем привет! В поиске талантливого и клёвого техлида. \nЕсли вы были ведущим разработчиком, если вы сеньор или техлид, и вилка вам подходит, то welcome. \nДаже если опыта менеджера не было, но вы сеньор/ведущий разработчик - welcome. \nА ещё если у вас немного опыта на Go, но есть хороший опыт на java - welcome. \nПро проект напишу в лс, если вам подходит вилка по зп (больше 250net, к сожалению, не рассматриваем). \n\nСписок необходимых навыков:\n- Golang/Java\n- Docker\n- SQL (В основном Postgres)\n- NoSQL (Redis/Elastic/Couchbase/Mongo/etc.. - зависит от задач)\n- REST/gRPC \n- Kubernetes\n\nЗ/П: 180 000 - 250 000 net (обсуждаемо)\nУдаленка: нет\nЛокация: Москва, м. Смоленская\nКомпания: МТС ИТ\nКонтакты: @horthekifo \n\nЧто нужно делать?\nРазрабатывать бекенд web-приложения и участвовать в проектировании архитектуры, проводить code review. \n\nЧто мы предлагаем:\n- Белая ЗП, премия 20% от годового оклада;\n- ДМС со стоматологией;\n- Хакатоны, митапы, конференции;\n- Гибкое начало рабочего дня;\n- Корпоративная связь, доп. дни ежегодного отпуска;\n- Офис у м. Смоленская (7 мин. пешком).\n Автор @Horthekifo","markup":[{"type":"hashtag","offset":0,"length":9,"data":"вакансия"},{"type":"hashtag","offset":10,"length":12,"data":"godeveloper"},{"type":"hashtag","offset":23,"length":7,"data":"golang"},{"type":"hashtag","offset":31,"length":8,"data":"backend"},{"type":"hashtag","offset":40,"length":9,"data":"fulltime"},{"type":"hashtag","offset":50,"length":5,"data":"офис"},{"type":"hashtag","offset":56,"length":7,"data":"senior"},{"type":"hashtag","offset":64,"length":9,"data":"techlead"},{"type":"handle","offset":774,"length":11,"data":"horthekifo"},{"type":"handle","offset":1159,"length":11,"data":"Horthekifo"}],"date":"2020-01-21T09:10:55+00:00","link":"tg://resolve?domain=gogetajobfeed&post=199","tags":[{"name":"go"},{"name":"java"},{"name":"dotnet"},{"name":"docker"},{"name":"sql"},{"name":"postgresql"},{"name":"nosql"},{"name":"redis"},{"name":"elasticsearch"},{"name":"rest"},{"name":"kubernetes"},{"name":"web"}],"cities":[{"code":"moscow"}],"allowsRemote":false}},{"node":{"__typename":"Job","id":"207618048-1001352129329","title":"Golang разработчик","text":"#вакансия #godeveloper #golang #backend #fulltime #офис #senior #techlead\n\nВсем привет! В поиске талантливого и клёвого техлида. \nЕсли вы были ведущим разработчиком, если вы сеньор или техлид, и вилка вам подходит, то welcome. \nДаже если опыта менеджера не было, но вы сеньор/ведущий разработчик - welcome. \nА ещё если у вас немного опыта на Go, но есть хороший опыт на java - welcome. \nПро проект напишу в лс, если вам подходит вилка по зп (больше 250net, к сожалению, не рассматриваем). \n\nСписок необходимых навыков:\n- Golang/Java\n- Docker\n- SQL (В основном Postgres)\n- NoSQL (Redis/Elastic/Couchbase/Mongo/etc.. - зависит от задач)\n- REST/gRPC \n- Kubernetes\n\nЗ/П: 180 000 - 250 000 net (обсуждаемо)\nУдаленка: нет\nЛокация: Москва, м. Смоленская\nКомпания: МТС ИТ\nКонтакты: @horthekifo \n\nЧто нужно делать?\nРазрабатывать бекенд web-приложения и участвовать в проектировании архитектуры, проводить code review. \n\nЧто мы предлагаем:\n- Белая ЗП, премия 20% от годового оклада;\n- ДМС со стоматологией;\n- Хакатоны, митапы, конференции;\n- Гибкое начало рабочего дня;\n- Корпоративная связь, доп. дни ежегодного отпуска;\n- Офис у м. Смоленская (7 мин. пешком).\n Автор @Horthekifo","markup":[{"type":"hashtag","offset":0,"length":9,"data":"вакансия"},{"type":"hashtag","offset":10,"length":12,"data":"godeveloper"},{"type":"hashtag","offset":23,"length":7,"data":"golang"},{"type":"hashtag","offset":31,"length":8,"data":"backend"},{"type":"hashtag","offset":40,"length":9,"data":"fulltime"},{"type":"hashtag","offset":50,"length":5,"data":"офис"},{"type":"hashtag","offset":56,"length":7,"data":"senior"},{"type":"hashtag","offset":64,"length":9,"data":"techlead"},{"type":"handle","offset":774,"length":11,"data":"horthekifo"},{"type":"handle","offset":1159,"length":11,"data":"Horthekifo"}],"date":"2020-01-21T09:10:53+00:00","link":"tg://resolve?domain=gogetajobfeed&post=198","tags":[{"name":"go"},{"name":"java"},{"name":"dotnet"},{"name":"docker"},{"name":"sql"},{"name":"postgresql"},{"name":"nosql"},{"name":"redis"},{"name":"elasticsearch"},{"name":"rest"},{"name":"kubernetes"},{"name":"web"}],"cities":[{"code":"moscow"}],"allowsRemote":false}}]}}},"context":{}}