{"hash":"f5f6bf98bd95e769321482904cbbd488f77922fd","data":{"records":{"id":"css","name":"css","belongsTo":{"totalCount":116,"pageInfo":{"totalPages":12,"currentPage":6},"edges":[{"node":{"__typename":"Job","id":"17151557632-1001110946746","title":"Js разработчик","text":"#вакансия #работа #frontend #react #redux #js #typescript #ульяновск #крснодар #нижнийновгород #самара #тольятти #ижевск #воронеж #казань #fulltime #удаленно #офис \n\nMiddle/Senior frontend разработчик React/Redux\nКомпания: Норд Клан\nГород: Ульяновск\nФормат: в офисе, удаленно, если живете не в Ульяновске\nЗарплатная вилка: от 70 до 150k на руки\n\n\nМы ищем разработчика в нашу команду NORD CLAN.  \nМы разрабатываем системы для бизнеса в области финтеха, медицины и фудтеха. Так же разрабатываем собственные продукты связанные с машинным обучением, распознаванием образов и компьютерным зрением. \n\nПо задачам:\n\nРазработка пользовательских интерфейсов в стеке React + Redux\nПроектирование, выбор и доработка архитектурных и технологических решений\nПроведение code-review Frontend-команды\nРазработка прототипов для отработки новых идей\n\nПо тербованиям:\nРеальный опыт работы с React;\nУверенные знания в HTML, CSS;\nНавыки работы с Git.\n\nБудет плюсом:\nОпыт работы на других языках (например, Java);\nАнглийский язык уровня Upper Intermediate.\n\n\nУ нас нет бюрократии, четко выстроены процессы разработки, мы любим и чтим ТК РФ и белую зп\n\n\nПисать в Telegram: @Dinovikova1477","markup":[{"type":"hashtag","offset":0,"length":9,"data":"вакансия"},{"type":"hashtag","offset":10,"length":7,"data":"работа"},{"type":"hashtag","offset":18,"length":9,"data":"frontend"},{"type":"hashtag","offset":28,"length":6,"data":"react"},{"type":"hashtag","offset":35,"length":6,"data":"redux"},{"type":"hashtag","offset":42,"length":3,"data":"js"},{"type":"hashtag","offset":46,"length":11,"data":"typescript"},{"type":"hashtag","offset":58,"length":10,"data":"ульяновск"},{"type":"hashtag","offset":69,"length":9,"data":"крснодар"},{"type":"hashtag","offset":79,"length":15,"data":"нижнийновгород"},{"type":"hashtag","offset":95,"length":7,"data":"самара"},{"type":"hashtag","offset":103,"length":9,"data":"тольятти"},{"type":"hashtag","offset":113,"length":7,"data":"ижевск"},{"type":"hashtag","offset":121,"length":8,"data":"воронеж"},{"type":"hashtag","offset":130,"length":7,"data":"казань"},{"type":"hashtag","offset":138,"length":9,"data":"fulltime"},{"type":"hashtag","offset":148,"length":9,"data":"удаленно"},{"type":"hashtag","offset":158,"length":5,"data":"офис"},{"type":"handle","offset":1149,"length":15,"data":"Dinovikova1477"}],"date":"2020-06-25T11:31:56+00:00","link":"tg://resolve?domain=javascript_jobs_feed&post=16357","tags":[{"name":"javascript"},{"name":"reactjs"},{"name":"redux"},{"name":"typescript"},{"name":"html"},{"name":"css"},{"name":"git"},{"name":"java"},{"name":"react-redux"}],"cities":[{"code":"ulyanovsk"},{"code":"samara"},{"code":"izhevsk"},{"code":"voronezh"},{"code":"kazan"}],"allowsRemote":true}},{"node":{"__typename":"Job","id":"92279930880-1001067529236","title":"Python developer","text":"#вакансия #senior #upperintermediate #fullstack #remote\nкомпания s-o-services\nз\\п 2800-3800$, оформление по ип (компании в рф нет)\nзаказчик американское издательство\nконтакты @erzentd\n\nТребования:\n\n4+ years of demonstrated experience successfully launching complex projects on time\n2+ years of experience as a full-time developer for a web app, custom software product or organization web site\n3+ years of experience with most or all of the following: Python & Django, relational DBs, jQuery & JavaScript, HTML, CSS/LESS, Git\nExperience with the following technologies preferred but not required: MongoDB, PostgreSQL, Elasticsearch,\nWordPress, CDNs, uWSGI, Redis, Celery, Jenkins, Sentry, New Relic, Nginx, CentOS, RabbitMQ, React, \nSalesforce, Marketo, high availability systems, or graph databases\nOrganized, detail and deadline oriented, highly focused\nAbility to prioritize & manage multiple projects at one time; cool under pressure\nAnalytical thinker with strong/creative problem solving skills\nExperience with Agile development methodologies\nStrong written and verbal communication skills\nAn interest in government, elections, and associated datasets","markup":[{"type":"hashtag","offset":0,"length":9,"data":"вакансия"},{"type":"hashtag","offset":10,"length":7,"data":"senior"},{"type":"hashtag","offset":18,"length":18,"data":"upperintermediate"},{"type":"hashtag","offset":37,"length":10,"data":"fullstack"},{"type":"hashtag","offset":48,"length":7,"data":"remote"},{"type":"handle","offset":175,"length":8,"data":"erzentd"}],"date":"2020-06-25T10:25:16+00:00","link":"tg://resolve?domain=python_jobs&post=88005","tags":[{"name":"python"},{"name":"web"},{"name":"django"},{"name":"jquery"},{"name":"javascript"},{"name":"html"},{"name":"css"},{"name":"git"},{"name":"mongodb"},{"name":"postgresql"},{"name":"elasticsearch"},{"name":"wordpress"},{"name":"redis"},{"name":"jenkins"},{"name":"nginx"},{"name":"centos"},{"name":"rabbitmq"},{"name":"reactjs"}],"cities":[],"allowsRemote":true}},{"node":{"__typename":"Job","id":"1736441856-1001091028994","title":"Java разработчик","text":"Город: #москва, м. Кутузовская \nКомпания: Лига Цифровой Экономики \nПозиция:  #fullstack #java #senior разработчик  \nФормат работы: #офис #fulltime\nЗарплатная вилка: 220 000 – 230 000 \n\nВсем привет! \nИщу senior java разработчика с желанием развиваться во fullstack (js+React).\nКоманда занимается разработкой продукта, реализующего инструменты анализа данных и методик расчета метрик, он-лайн и офф-лайн отчетности (Grafana, QlikView, Qlik Sense)\n\nКроме желания мы ожидаем от вас:\n- опыт коммерческой разработки на java от 3 лет;\n- опыт использования Spring;\n- знание JavaScript/HTML/CSS;\n- умение оценивать объем работ по поставляемым бизнес-требованиям и выдерживать обозначенные сроки.\n \nВ нашей команде вы будете:\n- участвовать в развитии текущего функционал оперативной отчетности (фронт: Grafana, JS+React; бэк: Java);\n- лидировать команду разработки, распределять и контролировать задачи на junior-разработчиков; \n- участвовать в выстраивании процессов и требований к аналитическим материалам, передачи функционала в тестирование;\n- участвовать в приемочных испытаниях и помогать в установке/настройке функционала в промышленном контуре, а также консультировать и bug-fix в случае выявления дефектов.\n\nМы, в свою очередь, предлагаем: \n- удобное для вас время начала работы (с 9 до 11);\n- первое время удаленная работа, далее - офис 5/2;\n- развитую систему внутренних тренингов и возможность обучатся на внешних курсах;\n- расширенный ДМС, скидки на фитнес и обучение английскому языку, оплачиваемая мобильная связь и многое другое.\n\nЖдем ваши резюме!\n@hr_ushka\nosalina@digitalleague.ru","markup":[{"type":"bold","offset":0,"length":6,"data":""},{"type":"hashtag","offset":7,"length":7,"data":"москва"},{"type":"bold","offset":32,"length":9,"data":""},{"type":"bold","offset":67,"length":8,"data":""},{"type":"hashtag","offset":77,"length":10,"data":"fullstack"},{"type":"hashtag","offset":88,"length":5,"data":"java"},{"type":"hashtag","offset":94,"length":7,"data":"senior"},{"type":"bold","offset":116,"length":14,"data":""},{"type":"hashtag","offset":131,"length":5,"data":"офис"},{"type":"hashtag","offset":137,"length":9,"data":"fulltime"},{"type":"bold","offset":147,"length":17,"data":""},{"type":"bold","offset":446,"length":33,"data":""},{"type":"bold","offset":689,"length":27,"data":""},{"type":"bold","offset":1207,"length":31,"data":""},{"type":"bold","offset":1537,"length":18,"data":""},{"type":"handle","offset":1555,"length":9,"data":"hr_ushka"},{"type":"link","offset":1565,"length":24,"data":"mailto:osalina@digitalleague.ru"}],"date":"2020-06-25T09:37:50+00:00","link":"tg://resolve?domain=jvmjobs&post=1656","tags":[{"name":"java"},{"name":"jvm"},{"name":"reactjs"},{"name":"spring"},{"name":"javascript"},{"name":"html"},{"name":"css"}],"cities":[{"code":"moscow"}],"allowsRemote":true}},{"node":{"__typename":"Job","id":"17143169024-1001110946746","title":"Js разработчик","text":"#вакансия #remote #frontend #Angularjs #Angular #middle #senior #удаленка \n\nГород: Краснодар\nФормат работы: remote \nЗанятость: fulltime\nВилка: 120-180k net \n\nНемного о нас: \nНа протяжении 14 лет наша команда создает кастомные веб/мобильные приложения и дизайн. \nПриглашаем к сотрудничеству на удаленной постоянно основе опытного разработчика front-end со знанием старой и новой версии Angular (Angular.js/Angular 9). \nПроект:  продукт для крупного бизнеса (USA) \n\nЗадачи: разработка front-end части на Anagular. \n\nНазвание компании: Softlight \n\nТребования: \nОпыт в разработке front-end на Angular от 3-х лет;\nОбязательный опыт работы со старой версией Angular 1.x и новой (Angular 9)\n JavaScript, HTML5/CSS3 \nработа в распределенной команде \n\nМы предлагаем:\n- Полностью удаленную работу\n- Участие в разработке зарубежных продуктов (USA)\n- Пятидневная рабочая неделя ( с 9-10 до 18-19 МСК), госпраздники - выходные\n- Оформление ИП\n- Оплачиваемый отпуск и больничный \n- Работу в слаженной опытной команде \n\nКонтакты: @MikeHR или mzaharov@softlightllc.com","markup":[{"type":"hashtag","offset":0,"length":9,"data":"вакансия"},{"type":"hashtag","offset":10,"length":7,"data":"remote"},{"type":"hashtag","offset":18,"length":9,"data":"frontend"},{"type":"hashtag","offset":28,"length":10,"data":"Angularjs"},{"type":"hashtag","offset":39,"length":8,"data":"Angular"},{"type":"hashtag","offset":48,"length":7,"data":"middle"},{"type":"hashtag","offset":56,"length":7,"data":"senior"},{"type":"hashtag","offset":64,"length":9,"data":"удаленка"},{"type":"handle","offset":1015,"length":7,"data":"MikeHR"},{"type":"link","offset":1027,"length":25,"data":"mailto:mzaharov@softlightllc.com"}],"date":"2020-06-25T08:30:01+00:00","link":"tg://resolve?domain=javascript_jobs_feed&post=16349","tags":[{"name":"javascript"},{"name":"angularjs"},{"name":"dotnet"},{"name":"html"},{"name":"css"}],"cities":[{"code":"krasnodar"}],"allowsRemote":true}},{"node":{"__typename":"Job","id":"17133731840-1001110946746","title":"Js developer","text":"#вакансия #frontenddeveloper #frontend\n\nГород и адрес офиса: Москва\n\nФормат работы: удаленна\n\nЗанятость: проектная, далее возможно заключение долгосрочного контракта с бонусами за развитие компании (испытательный срок - 2 месяца)\n\nЗарплатная вилка: от 90 000 до 130 000 руб.\n\nОписание вакансии: РАЗРАБОТКА ИНТЕРНЕТ  ПЛАТФОРМЫ ДЛЯ СОЗДАНИЯ КОМПЬЮТЕРНОЙ ГРАФИКИ ДЛЯ ИГР И СПЕЦЭФФЕКТОВ В КИНО (cg-doo.com)\n\nТребуемый опыт работы: 2–5 лет\n\nНеобходимые навыки:\n- уверенное знание JavaScript, React / Redux, HTML5, CSS3\n- опыт коммерческой разработки с использованием React.JS, Redux от года\n- опыт работы с ES6\n- знание английского на уровне чтения документации\n\nБудет плюсом:\n- опыт работы с Docker, Git\n\nСтек проекта:\n- SPA-приложение JS / React / Redux;\n- бэкэнд на Django/Postgresql/Redis/Celery/RabbitMQ; \n- NginX, kubernetes\n\nНазвание компании: Argunov Studio (https://argunov.studio)\n\nПодробнее ознакомиться с компанией и вакансией можно здесь: https://help.cg-doo.com/work-in-cg-doo/vacancies/frontend-developer\n\nКонтакты: телеграм @victoriashrv и/или на почту vicsukhareva@yandex.ru (пожалуйста, прикладывайте резюме или сопроводительное письмо)\n\n—\n\n👉 Обсуждение вакансии в чате @javascript_jobs","markup":[{"type":"hashtag","offset":0,"length":9,"data":"вакансия"},{"type":"hashtag","offset":10,"length":18,"data":"frontenddeveloper"},{"type":"hashtag","offset":29,"length":9,"data":"frontend"},{"type":"link","offset":391,"length":10,"data":"http://cg-doo.com"},{"type":"link","offset":862,"length":22,"data":"https://argunov.studio"},{"type":"link","offset":947,"length":67,"data":"https://help.cg-doo.com/work-in-cg-doo/vacancies/frontend-developer"},{"type":"handle","offset":1035,"length":13,"data":"victoriashrv"},{"type":"link","offset":1064,"length":22,"data":"mailto:vicsukhareva@yandex.ru"},{"type":"handle","offset":1184,"length":16,"data":"javascript_jobs"}],"date":"2020-06-24T13:37:13+00:00","link":"tg://resolve?domain=javascript_jobs_feed&post=16340","tags":[{"name":"javascript"},{"name":"reactjs"},{"name":"redux"},{"name":"html"},{"name":"css"},{"name":"docker"},{"name":"git"},{"name":"django"},{"name":"postgresql"},{"name":"redis"},{"name":"rabbitmq"},{"name":"nginx"},{"name":"kubernetes"},{"name":"react-redux"}],"cities":[{"code":"moscow"}],"allowsRemote":false}},{"node":{"__typename":"Job","id":"17130586112-1001110946746","title":"Javascript разработчик","text":"#вакансия #javascript #typescript \n\nFrontend-разработчик (удаленно или в офисе)\n\nГород и адрес офиса: Санкт-Петербург\nФормат работы: офис в Санкт-Петербурге или удаленка по России / full time\nЗанятость: полная\nЗарплатная вилка: от 80 000 до 280 000 рублей\n\nОписание вакансии: \n\nОсновной стек технологий — JavaScript, TypeScript, HTML/CSS. Сейчас мы разрабатываем бизнес-функционал приложения и будем рады новому специалисту в нашей команде, который вольется в проект и мы вместе будем делать frontend с нативным кодом и отзывчивым интерфейсом.\n\nМы ожидаем, что у вас есть:\n\n🔹Хорошее знание JavaScript, TypeScript, HTML/CSS;\n\n🔹Умение пользоваться отладчиком в браузере;\n\n🔹Навыки уверенной работы с Git.\n\nРады предложить:\n\n🔹Возможность работать удаленно;\n\n🔹Желаемый оклад по результатам собеседования;\n\n🔹Понятную систему роста зарплаты каждые 6 месяцев, в которой все зависит только от вас;\n\nУ нас есть общие ценности, такие как стремление к качественному результату, забота о продукте и желание двигаться вперед. Также у нас нет “Начальства”, а есть коллеги. Все взаимодействуют горизонтально, работают бок о бок и делают одно общее дело.\n\nБлагодарим за внимание к нашей вакансии, будем рады познакомиться и ответить на ваши вопросы ツ\n\nНазвание компании: Blogman https://orenburg.hh.ru/employer/3069197\nКонтакты: @alinablogman\n\n—\n\n👉 Обсуждение вакансии в чате @javascript_jobs","markup":[{"type":"hashtag","offset":0,"length":9,"data":"вакансия"},{"type":"hashtag","offset":10,"length":11,"data":"javascript"},{"type":"hashtag","offset":22,"length":11,"data":"typescript"},{"type":"link","offset":1268,"length":39,"data":"https://orenburg.hh.ru/employer/3069197"},{"type":"handle","offset":1318,"length":13,"data":"alinablogman"},{"type":"handle","offset":1366,"length":16,"data":"javascript_jobs"}],"date":"2020-06-24T13:06:56+00:00","link":"tg://resolve?domain=javascript_jobs_feed&post=16337","tags":[{"name":"javascript"},{"name":"typescript"},{"name":"html"},{"name":"css"},{"name":"git"}],"cities":[{"code":"orenburg"}],"allowsRemote":true}},{"node":{"__typename":"Job","id":"17127440384-1001110946746","title":"Js developer","text":"#вакансия #js #extjs #frontend\nГород: Москва (М. Киевская)\nФормат работы: удаленная работа\nЗанятость: полная\nЗ.п.: 90 - 150 т.р. net\n\nFrontend developer Doczilla\nСкиллы: JavaScript, HTML5, CSS3 (будет плюсом: C/С++/Java).\n\nПроект Doczilla Pro - платформа для подготовки документов и совместной работы с ними.\n- Клиентская часть разрабатывается на \"чистом\" JavaScript без использования сторонних фреймворков. \n- Подход к разработке клиентской части похож на фреймворк Sencha ExtJS с его объектно-ориентированным стилем описания JavaScript-классов, однако избавлен от всего лишнего.\n- Серверная часть Doczilla Pro разрабатывается на Java, использование сторонних библиотек минимально.\n- Для решения задач интеграции с внешними сервисами применяется язык программирования BL из состава фреймворка Z8 (https://github.com/zenframework/z8).\n- Для понимания специфики проекта мы предлагаем выполнить тестовое задание.\n\nИнтереснейший и очень перспективный проект от команды профессиональных юристов. Присоединяйся!\n\nНазвание компании: Лекс Борелис\nLexborealis.com\nDoczilla.ru\n\nСтрельченко Дмитрий \n+7-960-869-03-03\nstrelchenko@doczilla.ru \ntelegram @d_strelchenko","markup":[{"type":"hashtag","offset":0,"length":9,"data":"вакансия"},{"type":"hashtag","offset":10,"length":3,"data":"js"},{"type":"hashtag","offset":14,"length":6,"data":"extjs"},{"type":"hashtag","offset":21,"length":9,"data":"frontend"},{"type":"link","offset":798,"length":34,"data":"https://github.com/zenframework/z8"},{"type":"link","offset":1040,"length":15,"data":"http://Lexborealis.com"},{"type":"link","offset":1056,"length":11,"data":"http://Doczilla.ru"},{"type":"link","offset":1090,"length":16,"data":"tel:+7-960-869-03-03"},{"type":"link","offset":1107,"length":23,"data":"mailto:strelchenko@doczilla.ru"},{"type":"handle","offset":1141,"length":14,"data":"d_strelchenko"}],"date":"2020-06-24T09:54:00+00:00","link":"tg://resolve?domain=javascript_jobs_feed&post=16334","tags":[{"name":"javascript"},{"name":"extjs"},{"name":"dotnet"},{"name":"html"},{"name":"css"},{"name":"java"},{"name":"github"}],"cities":[{"code":"moscow"},{"code":"kiev"}],"allowsRemote":true}},{"node":{"__typename":"Job","id":"17120100352-1001110946746","title":"Js разработчик","text":"#вакансия #удаленка #работа #js #javascript #разработчик\n\nГород и адрес офиса: Тель-Авив \nФормат работы: удаленка\nЗанятость: полная, гибкий график.\n\nЗарплатная вилка: 5500-6000$/мес. (Почасовая оплата 35$/час + ежемесячный бонус 250$)\n\nНалоги платите по месту жительства. ИП 6%. Если патент, то он зависит от места жительства. В Подмосковье 12 000 руб в год. В Москве 300 тыс. в год. Как сами оформите налоги, так и платите. \n\nИщу разработчика к нам в команду: израильский проект Luminati (https://luminati.io).  Full-Stack. Компания разрабатывает несколько продуктов, в том числе p2p vpn, видео cdn нового поколения http://holaspark.com/\nОфис в Тель-Авиве, работа удаленная! График свободный. Что нам нужно:\n\n • Knowledge in Node JS framework: ExpressJS, Promise - Experience with MongoDB \n- Creating RESTful web services/API’s using Node.js with or without framework assistance \n\n- JavaScript-based unit testing tools \n\n- Client-side browser technologies including JavaScript, CSS, and HTML \n\n- 1 year development experience in Node JS with a solid working knowledge of frameworks and architecture \n\n- 2+ year’s overall development experience using JavaScript and open web technologies \n\n- хороший английский язык, идеальная грамматика не обязательна \n\n • работа удаленная, 7-9 часов в день (по желанию)\n • зарплата от 35$/час (+фиксированный бонус 250$ ежемесячно), через полгода повышается\n • после того, как откроют границы и будут возможны перелёты - выезд в офис на заключение контракта (перед этим возможно заключение с электронной подписью), отель и перелет за счет компании, море под окном\n\nОтвечу на все вопросы:)\n\nИнстаграмм https://instagram.com/hola_better_internet\n\nРезюме сюда:  luda.hola@gmail.com","markup":[{"type":"hashtag","offset":0,"length":9,"data":"вакансия"},{"type":"hashtag","offset":10,"length":9,"data":"удаленка"},{"type":"hashtag","offset":20,"length":7,"data":"работа"},{"type":"hashtag","offset":28,"length":3,"data":"js"},{"type":"hashtag","offset":32,"length":11,"data":"javascript"},{"type":"hashtag","offset":44,"length":12,"data":"разработчик"},{"type":"link","offset":490,"length":19,"data":"https://luminati.io"},{"type":"link","offset":617,"length":21,"data":"http://holaspark.com/"},{"type":"link","offset":1637,"length":42,"data":"https://instagram.com/hola_better_internet"},{"type":"link","offset":1695,"length":19,"data":"mailto:luda.hola@gmail.com"}],"date":"2020-06-24T08:01:10+00:00","link":"tg://resolve?domain=javascript_jobs_feed&post=16327","tags":[{"name":"javascript"},{"name":"nodejs"},{"name":"mongodb"},{"name":"web"},{"name":"css"},{"name":"html"},{"name":"unit-testing"}],"cities":[],"allowsRemote":true}},{"node":{"__typename":"Job","id":"91669659648-1001067529236","title":"Python developer","text":"#вакансия #senior #upperintermediate #fullstack #remote\nкомпания s-o-services\nз\\п 2800-3800$, оформление по ип (компании в рф нет)\nзаказчик американское издательство\nконтакты @erzentd\n\nТребования:\n\n4+ years of demonstrated experience successfully launching complex projects on time\n2+ years of experience as a full-time developer for a web app, custom software product or organization web site\n3+ years of experience with most or all of the following: Python & Django, relational DBs, jQuery & JavaScript, HTML, CSS/LESS, Git\nExperience with the following technologies preferred but not required: MongoDB, PostgreSQL, Elasticsearch,\nWordPress, CDNs, uWSGI, Redis, Celery, Jenkins, Sentry, New Relic, Nginx, CentOS, RabbitMQ, React, \nSalesforce, Marketo, high availability systems, or graph databases\nOrganized, detail and deadline oriented, highly focused\nAbility to prioritize & manage multiple projects at one time; cool under pressure\nAnalytical thinker with strong/creative problem solving skills\nExperience with Agile development methodologies\nStrong written and verbal communication skills\nAn interest in government, elections, and associated datasets","markup":[{"type":"hashtag","offset":0,"length":9,"data":"вакансия"},{"type":"hashtag","offset":10,"length":7,"data":"senior"},{"type":"hashtag","offset":18,"length":18,"data":"upperintermediate"},{"type":"hashtag","offset":37,"length":10,"data":"fullstack"},{"type":"hashtag","offset":48,"length":7,"data":"remote"},{"type":"handle","offset":175,"length":8,"data":"erzentd"}],"date":"2020-06-23T07:27:31+00:00","link":"tg://resolve?domain=python_jobs&post=87423","tags":[{"name":"python"},{"name":"web"},{"name":"django"},{"name":"jquery"},{"name":"javascript"},{"name":"html"},{"name":"css"},{"name":"git"},{"name":"mongodb"},{"name":"postgresql"},{"name":"elasticsearch"},{"name":"wordpress"},{"name":"redis"},{"name":"jenkins"},{"name":"nginx"},{"name":"centos"},{"name":"rabbitmq"},{"name":"reactjs"}],"cities":[],"allowsRemote":true}},{"node":{"__typename":"Job","id":"26532118528-1001075660570","title":"Php developer","text":"#вакансия #офис #спб #senior\nЛокация: СПб, ул. Рубинштейна\nФормат работы: Office\nЗанятость: Full-time\nЗарплатная вилка: 150 000 - 250 000 (net)\nПозиция: Senior Developer\n\nПроект:\nOndoc.me — современный медицинский сервис для пользователей, интегрированный с клиниками.\nМы разработали платформу, которая объединяет клиники, врачей, пациентов в цифровом пространстве и помогает более эффективно решать задачи заботы о здоровье.\n\nКакие задачи нужно решать:\n- Разработка и развитие бизнес логики проекта и RESTful API\n- Участие в развитии архитектуры проекта\n- Повышение отказоустойчивости и улучшение масштабируемости проекта\n- Написание тестов\n- Работа в команде по agile-методологии\n\nОжидания:\n- Не менее 4 лет коммерческой разработки\n- Уверенное владение PHP (>=7.2)\n- Опыт написания тестов\n- Знание стандартов PSR\n- Знание паттернов проектирования и принципов ООП\n- Опыт разработки API\n- Необходимы базовые навыки JavaScript, HTML, CSS, Git, Bash, SQL\n- Желание писать хороший код, проводить код ревью\n- Умение работать в команде\n\nНаш stack: PHP 7.2, Symfony 3.4, Doctrine, PHPunit 6, Behat 3, GitHub Flow, Ansible, Vagrant, Docker, Redis\n\nМы предлагаем:\n- Полностью белая зарплата;\n- У нас плавающее начало рабочего дня (10-12 утра) и иногда можно работать удаленно;\n- Для нас важно качество продукта, поэтому мы очень много работаем в течение всего года и стремимся обеспечить лучший сервис нашим клиентам. Такой интенсивный ритм сформировал у нас традицию устраивать длинные новогодние каникулы (около 3-4 недель)\nи пр.\n\nКритика, вопросы, резюме - всегда welcome!\nTelegram @ru_spiridonov","markup":[{"type":"hashtag","offset":0,"length":9,"data":"вакансия"},{"type":"hashtag","offset":10,"length":5,"data":"офис"},{"type":"hashtag","offset":16,"length":4,"data":"спб"},{"type":"hashtag","offset":21,"length":7,"data":"senior"},{"type":"bold","offset":153,"length":18,"data":""},{"type":"link","offset":179,"length":8,"data":"http://Ondoc.me"},{"type":"handle","offset":1577,"length":14,"data":"ru_spiridonov"}],"date":"2020-06-22T12:01:32+00:00","link":"tg://resolve?domain=php_jobs&post=25303","tags":[{"name":"php"},{"name":"dotnet"},{"name":"javascript"},{"name":"html"},{"name":"css"},{"name":"git"},{"name":"bash"},{"name":"sql"},{"name":"symfony"},{"name":"doctrine"},{"name":"phpunit"},{"name":"github"},{"name":"ansible"},{"name":"vagrant"},{"name":"docker"},{"name":"redis"}],"cities":[],"allowsRemote":true}}]}}},"context":{}}