{"hash":"f5f6bf98bd95e769321482904cbbd488f77922fd","data":{"records":{"id":"kafka","name":"kafka","belongsTo":{"totalCount":58,"pageInfo":{"totalPages":6,"currentPage":5},"edges":[{"node":{"__typename":"Job","id":"1704984576-1001091028994","title":"Java разработчик","text":"#вакансия  #офис #удалёнка #DevOps #Java\n\nкомпания: #JTSOFT\nгород: #Москва\nвилка: 200-260+ на рук\nконтакты: @reanimatsiya\n\n\n🧑🏻‍💻Я ищу ведущего Java-разработчика со знанием Spring Boot и DevOps практик в компанию JTSOFT.\n\nJTSOFT - это аутсорсинговая IT компания, которая уже 7 лет специализируемся на разработке программных решений в сферах b2b, b2g. \n\nКомпания имеет статус IBM Premier Business Partner и работает практически со всей линейкой IBM. \nКоманды JTSOFT внедряли Универсальную Электронную Карту, разрабатывали приложения и формы для банка «Возрождение», а также реализовали проект по визуализации и контролю системы БД IBM Tivoli.\n\n🤝Вам будут рады при:\n\n✔️Опыте работы не менее 5 лет на Java Core, Java 8+\n✔️Уверенном знании фреймворков Spring\n✔️Знании принципов и шаблонов проектирования\n✔️Опыте профилирования, оптимизации и решения performance-проблем Java-приложений\n✔️Опыте проектирования API (REST, GRPC и т.д.)\n✔️Опыте работы с разными системами оркестрации (Kubernetes, OpenShift, Mesos/Marathon);\n✔️Знании Apache Kafka, MongoDB, Elasticsearch, Docker\n✔️Опыте написания инфраструктурных скриптов на Ansible\n\n\n➕Огромным плюсом будет:\n\n▪️Опыт работы с реляционными БД;\n▪️Опыт работы с SOAP;\n▪️Знакомство с методологией Agile, Scrum.\n\n\n🍪 Компания предоставляет все необходимое:\n\n👌🏻ТК РФ\n👌🏻Ваш вклад в разработку всегда будет учтен, так как работа происходит в небольших автономных группах, обеспечивающих полный цикл разработки.\n👌🏻Компания предоставляет современное и удобное оборудование\n👌🏻Комфортный офис в бизнес-центре \"Технопарк\", в двух минутах ходьбы от м. Технопарк или удаленно при согласовании с командой","markup":[{"type":"hashtag","offset":0,"length":9,"data":"вакансия"},{"type":"hashtag","offset":11,"length":5,"data":"офис"},{"type":"hashtag","offset":17,"length":9,"data":"удалёнка"},{"type":"hashtag","offset":27,"length":7,"data":"DevOps"},{"type":"hashtag","offset":35,"length":5,"data":"Java"},{"type":"hashtag","offset":52,"length":7,"data":"JTSOFT"},{"type":"hashtag","offset":67,"length":7,"data":"Москва"},{"type":"handle","offset":108,"length":13,"data":"reanimatsiya"}],"date":"2020-06-18T08:57:14+00:00","link":"tg://resolve?domain=jvmjobs&post=1626","tags":[{"name":"java"},{"name":"jvm"},{"name":"spring"},{"name":"rest"},{"name":"kubernetes"},{"name":"apache"},{"name":"kafka"},{"name":"mongodb"},{"name":"elasticsearch"},{"name":"docker"},{"name":"ansible"},{"name":"soap"},{"name":"spring-boot"}],"cities":[{"code":"moscow"}],"allowsRemote":true}},{"node":{"__typename":"Job","id":"103138983936-1001089317451","title":"Qa engineer","text":"#вакансия #москва #полнаязанятость #qaengineer #auto #manual\nКомпания: #Mетрквадратный www.m2.ru\nЛокация: м.Белорусская \nФормат работы: офис (удаленная до сентября)  \nЗ/п: от 120к - 180к на руки\nКонтакты: @maxdmitrov\n\nЭто экосистема недвижимости, которая помогает клиентам решать любые жилищные вопросы: от поиска вариантов и оформления сделки до организации ремонта и переезда в новую квартиру. Мы также создаем решения для партнёров и профессиональных участников рынка недвижимости.\n\nНаш стэк:\n• Java\n • Node.js\n • React, TypeScript\n • Kafka, ElasticSearch, gRPC\n • Docker\n\nЧем предстоит заниматься:\n • анализировать и тестировать требования к разрабатываемым приложениям;\n • писать приемочные критерии к пользовательским историям;\n • проводить функциональное, регрессионное и smoke тестирование;\n • заниматься задачами по автоматизации тестирования.\n\nЧего мы ждем:\n • глубокое понимание процессов тестирования и разработки ПО;\n • опыт интеграционного тестирования:\n    - системная интеграция;\n    - компонентная интеграция\n • опыт тестирования АРI;\n • опыт автоматизации тестирования на любом стеке.\n\nБудет плюсом\n • опыт исследовательского тестирования;\n • опыт тестирования ПО с микросервисной архитектурой.\n\nМы предлагаем:\n • белая конкурентная ЗП, официальное оформление;\n • гибкий график работы;\n • ДМС, компенсация фитнеса, льготная ставка по ипотеке;\n • комфортный офис в БЦ «Белая площадь» (минута от метро): лаундж-зоны, бариста, фрукты.","markup":[{"type":"hashtag","offset":0,"length":9,"data":"вакансия"},{"type":"hashtag","offset":10,"length":7,"data":"москва"},{"type":"hashtag","offset":18,"length":16,"data":"полнаязанятость"},{"type":"hashtag","offset":35,"length":11,"data":"qaengineer"},{"type":"hashtag","offset":47,"length":5,"data":"auto"},{"type":"hashtag","offset":53,"length":7,"data":"manual"},{"type":"hashtag","offset":71,"length":15,"data":"Mетрквадратный"},{"type":"link","offset":87,"length":9,"data":"http://www.m2.ru"},{"type":"handle","offset":205,"length":11,"data":"maxdmitrov"},{"type":"bold","offset":485,"length":11,"data":""},{"type":"bold","offset":576,"length":26,"data":""},{"type":"bold","offset":853,"length":15,"data":""},{"type":"bold","offset":1103,"length":14,"data":""},{"type":"bold","offset":1212,"length":16,"data":""}],"date":"2020-06-18T07:20:58+00:00","link":"tg://resolve?domain=qa_jobs&post=0","tags":[{"name":"qa"},{"name":"java"},{"name":"nodejs"},{"name":"reactjs"},{"name":"typescript"},{"name":"kafka"},{"name":"elasticsearch"},{"name":"docker"}],"cities":[{"code":"moscow"}],"allowsRemote":true}},{"node":{"__typename":"Job","id":"91154808832-1001067529236","title":"Python разработчик","text":"#вакансия #python #django #middle #senior #фултайм #Кипр #remote                                                                                                                                                                         Компания: Exness\nФормат работы: удаленная или релокация на Кипр (по желанию кандидата)\nЗанятость: полная\nЗарплатная вилка: от 3000 EUR (обсуждаем с кандидатами по итогам интервью)                                                                               \n🌟Кто мы?\nМы финтех компания, разрабатывающая B2B и B2C решения, с более чем 100 тысячами активных клиентов. Мы развиваемся и быстро движемся, ориентируясь на данные, мы всегда узнаем что-то новое о наших клиентах и находим новые способы сделать наш продукт более полезным и удобным для них. У нас есть 3 офиса: на Кипре, в Малайзии и Великобритании, более 600 сотрудников и 50 национальностей среди сотрудников.\n\n🤩Кого мы ищем?\nК нам в команду Identity & Access Management (IAM) нужен инженер, любящий backend, имеющий опыт разработки на Python и стремящийся к простым решениям сложных задач. Будет классно, наличие опыта построения микросервисной архитектуры, знание SQL, любовь к написанию unit тестов. \n\n🤗Чем предстоит заниматься?\nРазрабатывать новые и поддерживать старые сервисы, связанные с аутентификацией, авторизацией, верификацией и процедурами KYC. Участвовать в код ревью и командных активностях. Покрывать свой код unit тестами. \n\n🛠Наш стек технологий:\n -Python 3.x\n -Django, FastAPI, aiohttp\n -PostgreSQL, Redis\n -Kafka\n -Docker, Kubernetes, Rancher\n\n🔥Мы предлагаем:\nПри удаленном сотрудничестве:\n-Медицинское страхование для сотрудника и членов их семей;\n-Компенсация спорта;\n-Путешествие на Кипр, чтобы познакомиться со своей командой (раз в год).\nПри желании релокации на Кипр:\n-Релокационный пакет для нового сотрудника и его семьи (билеты, визы, разрешение на работу, корпоративная квартира на первый месяц и т. д.);\n-Корпоративный автомобиль Мини Купер S и парковка возле офиса или автобусные билеты;\n-Медицинское страхование для сотрудника и членов их семей;\n-Корпоративный фитнес-центр для сотрудников и их супругов;\n-Программа компенсации детского сада / школы;\n-Непрерывное профессиональное развитие, много интересных задач;\n-Отличный офис со свежевыжатыми соками, печеньем и лучшим видом на море из нашего собственного бара на крыше. \n\nНемного больше об Exness - https://clck.ru/N7aRd.\n\nЕсли тебе интересно, пишите в Telegram @sofia_tomashevich или на почту sofia.tomashevich@exness.com","markup":[{"type":"hashtag","offset":0,"length":9,"data":"вакансия"},{"type":"hashtag","offset":10,"length":7,"data":"python"},{"type":"hashtag","offset":18,"length":7,"data":"django"},{"type":"hashtag","offset":26,"length":7,"data":"middle"},{"type":"hashtag","offset":34,"length":7,"data":"senior"},{"type":"hashtag","offset":42,"length":8,"data":"фултайм"},{"type":"hashtag","offset":51,"length":5,"data":"Кипр"},{"type":"hashtag","offset":57,"length":7,"data":"remote"},{"type":"link","offset":2385,"length":21,"data":"https://clck.ru/N7aRd"},{"type":"handle","offset":2448,"length":18,"data":"sofia_tomashevich"},{"type":"link","offset":2480,"length":28,"data":"mailto:sofia.tomashevich@exness.com"}],"date":"2020-06-18T06:16:03+00:00","link":"tg://resolve?domain=python_jobs&post=0","tags":[{"name":"python"},{"name":"django"},{"name":"ms-access"},{"name":"sql"},{"name":"postgresql"},{"name":"redis"},{"name":"kafka"},{"name":"docker"},{"name":"kubernetes"}],"cities":[{"code":"sofia"}],"allowsRemote":true}},{"node":{"__typename":"Job","id":"26397900800-1001075660570","title":"Php developer","text":"#вакансия #PHP #Symfony #fulltime  #удаленка  #middle #senior\nВакансия:PHP Developer (Symfony )\nНазвание компании: Farset \nФормат работы: удаленная работа, проект от 6 месяцев.\nЗанятость: 168 часов в месяц.\nЗарплатная вилка от 800-1300 рубл/час, готовы также платить и по фиксу.\nО нас: Занимаемся в основном backend разработкой, сейчас ищем таланты для работы с нашими партнерами,обычно это известные бренды, которые имеют инхаус разработку, но усиливают команду людьми с аутстаффинга.\n\nТребования \n· Опыт работы от 2х лет \n· Понимание паттернов проектирования \n· Обязателен опыт работы с Symfony 3.4+, знаний основных компонентов фреймворка \n· Понимание принципов работы клиент-серверных систем \n· Уверенная работа с реляционными СУБД (предпочтительно PostgreSQL ): join, \nsubquery, агрегирующие функции, группировки, транзакции, индексы \n· Уверенный пользователь Linux \n· Английский язык на уровне чтения и понимания технической документации \n\nЖелательно: \n· Понимание принципов SOLID, KISS, DRY \n· Понимание того, как работают DI, Doctrine \n· Опыт работы с брокерами сообщений: Kafka, RabbitMQ \n· Опыт оптимизации SQL запросов \n· Понимание того, как подготавливается backend под высокие нагрузки\n\nКонтакты для связи: @Pantera131 ( пишите постараюсь ответить на все вопросы)","markup":[{"type":"hashtag","offset":0,"length":9,"data":"вакансия"},{"type":"hashtag","offset":10,"length":4,"data":"PHP"},{"type":"hashtag","offset":15,"length":8,"data":"Symfony"},{"type":"hashtag","offset":24,"length":9,"data":"fulltime"},{"type":"hashtag","offset":35,"length":9,"data":"удаленка"},{"type":"hashtag","offset":46,"length":7,"data":"middle"},{"type":"hashtag","offset":54,"length":7,"data":"senior"},{"type":"handle","offset":1220,"length":11,"data":"Pantera131"}],"date":"2020-06-17T19:24:54+00:00","link":"tg://resolve?domain=php_jobs&post=25175","tags":[{"name":"php"},{"name":"symfony"},{"name":"postgresql"},{"name":"linux"},{"name":"doctrine"},{"name":"kafka"},{"name":"rabbitmq"},{"name":"sql"}],"cities":[],"allowsRemote":true}},{"node":{"__typename":"Job","id":"102963871744-1001089317451","title":"Qa engineer","text":"#Москва #вакансия #QA #fulltime #test #office\n\n💻Компания: СберТех.\n🧰Вакансия: QA Engineer.\n🏢Офис: Москва, м. Нагатинская/м. Тульская/ м. Верхние Котлы.\n💰ЗП: от 150 000 Net.\n\n📂Проект: Разработка платформы для управления бизнес-процессами Банка и Цифровой Платформы Sber.\n\n🗓Задачи:\n• Работа в роли тестировщика в scrum команде.\n• Написание, актуализация тестовых сценариев и их прохождение (API, UI).\n• Проведение функционального, регрессионного, интеграционного и других видов тестирования.\n• Регистрация, отслеживание и верификация дефектов.\n• Участие в развитии команды и процессов тестирования.\n\n📌Требования: \n• Опыт написания тестовых сценариев, чек-листов, составления сложных интеграционных сценариев.\n• Знание теории тестирования, понимание видов тестирования и необходимости их применения на различных этапах реализации проекта.\n• Опыт анализа и тестирования требований.\n• Опыт тестирования rest/soap сервисов.\n• Опыт работы с BPM системами, понимание нотации BPMN 2.0.\n\n📎Cтек: REST, XML, XSD, JSON, SQL, BPMN 2.0, Docker, Kubernetes, Openshift, Kafka.\n\n🔰Условия:\n• Оформление ТК РФ.\n• ДМС для сотрудников и скидки на медицинскую страховку для родственников;\n• Высокая белая заработная плата (оклад + годовая премия).\n• Возможность обучения за счет компании, посещения IT-конференций.\n• Бесплатный тренажерный зал на территории офиса.\n• Корпоративная жизнь и спортивные мероприятия.\n\n📩Готов ответить на интересующие вопросы - @Dmiryy","markup":[{"type":"hashtag","offset":0,"length":7,"data":"Москва"},{"type":"hashtag","offset":8,"length":9,"data":"вакансия"},{"type":"hashtag","offset":18,"length":3,"data":"QA"},{"type":"hashtag","offset":22,"length":9,"data":"fulltime"},{"type":"hashtag","offset":32,"length":5,"data":"test"},{"type":"hashtag","offset":38,"length":7,"data":"office"},{"type":"handle","offset":1443,"length":7,"data":"Dmiryy"}],"date":"2020-06-16T16:02:50+00:00","link":"tg://resolve?domain=qa_jobs&post=0","tags":[{"name":"qa"},{"name":"dotnet"},{"name":"rest"},{"name":"soap"},{"name":"xml"},{"name":"xsd"},{"name":"json"},{"name":"sql"},{"name":"docker"},{"name":"kubernetes"},{"name":"kafka"}],"cities":[{"code":"moscow"}],"allowsRemote":false}},{"node":{"__typename":"Job","id":"1697644544-1001091028994","title":"Java разработчик","text":"#java #javascript #middle #senior\nКомпания: #kode \nЛокация: #калининград\nЗ/п: от 100К руб\nКонтакты: @Nadia_Rudometova\n \nKODE – компания мобильной разработки, которая закрепилась в ТОП-10 лучших студий и постоянно улучшает свои позиции. Мы выступаем технологическими партнёрами бизнеса, помогая заказчику развивать их digital-сервисы. \n\nЧто нужно делать?\n-Декомпозировать, планировать и оценивать задачи;\nУчаствовать в проектировании сложных систем с чистого листа;\n-Проектировать архитектуру веб-сервисов и REST API;\n-Реализовывать сложные интеграции с различными системами (GDS, банкинг, ритейл, биллинг и т.д.);\n-Покрывать свой код тестами;\n-Сопровождать и документировать архитектурные решения по своим проектам;\n-Взаимодействовать с участниками проектной команды для реализации лучших решений\n\nЧто нужно уметь?\n-Отличные знания Java;\n-Знания Spring и Spring Boot, Groovy;\n-Опыт работы c Kafka;\n-Умение использовать различные инструменты для тестирования кода и приложений различной сложности: JUnit, Spock, Testcontainers, Mockito, Hamcrest;\n-Опыт работы с SQL и NoSQL СУБД;\nЗнание принципов и шаблонов проектирования;\n-Уверенные знания о работе unix-систем. Любовь к ним и умение с ними работать;\n-Умение работать с Docker, docker-compose;\n\nЧто предлагаем?\n-Официальное оформление по ТК;\n-Работа в продуктовой команде, используя современный стек разработки;\n-Возможность влиять на развитие проекта и компании;\n-Корпоративы в Европе","markup":[{"type":"hashtag","offset":0,"length":5,"data":"java"},{"type":"hashtag","offset":6,"length":11,"data":"javascript"},{"type":"hashtag","offset":18,"length":7,"data":"middle"},{"type":"hashtag","offset":26,"length":7,"data":"senior"},{"type":"hashtag","offset":44,"length":5,"data":"kode"},{"type":"hashtag","offset":60,"length":12,"data":"калининград"},{"type":"handle","offset":100,"length":17,"data":"Nadia_Rudometova"}],"date":"2020-06-16T14:47:56+00:00","link":"tg://resolve?domain=jvmjobs&post=1619","tags":[{"name":"java"},{"name":"jvm"},{"name":"javascript"},{"name":"rest"},{"name":"spring"},{"name":"groovy"},{"name":"kafka"},{"name":"junit"},{"name":"sql"},{"name":"nosql"},{"name":"unix"},{"name":"docker"},{"name":"spring-boot"},{"name":"docker-compose"}],"cities":[{"code":"kaliningrad"}],"allowsRemote":false}},{"node":{"__typename":"Job","id":"343932928-1001352129329","title":"Go developer","text":"Всем привет.\nЯ ищу Senior Go developer в компанию Xpate\nС опытом Go от 3-х лет, PostgreSQL от 1 года и SQL.\n\nXpate-это финтех-стартап, который создает финансовые услуги, используя дизайн-ориентированный подход, делающий процесс оплаты проще, быстрее и доступным для всех.\nXpate - это система электронных кошельков, ориентированная на розничных и бизнес-клиентов, которые стремятся сделать финансовую сферу своей жизни комфортной и легкой.\nМы пишем своё собственное решение банковского ядра и платёжный шлюз, который интегрируется с различными эквайринг-системами.\n\nЧто предстоит делать\n- Разработка и проектирование ядра банковской системы;\n- Разработка и проектирование сервиса интернет-эквайринга в рамках банковской системы.\n\nЧто нужно уметь\n- Понимание принципов работы с распределёнными брокерами сообщений (Kafka / RabbitMQ);\n- Опыт работы и понимание принципов построения мультипоточных систем;\n- Понимание и применение принципов разработки программного обеспечения: SOA, SOLID, KISS, DRY;\n- Опыт разработки микросервисной архитектуры;\n- Готовность предлагать архитектурные решения, активное участие в проектировании архитектуры продукта.\n- Чистый код (очень ВАЖНО)\n\nФормат работы:  Удаленно или Офис (Рига или МСК)\nЗанятость: Полная. оформление по ТК РФ (либо контрактная работа для иностранных граждан)\nЗарплатная вилка: 2 500–3 000 € / мес (возможна в любой валюте)\nПо всем вопросам пишите: @alex_brus\n\n#работа #удаленнка #вакансия #Go #Backend","markup":[{"type":"handle","offset":1401,"length":10,"data":"alex_brus"},{"type":"hashtag","offset":1413,"length":7,"data":"работа"},{"type":"hashtag","offset":1421,"length":10,"data":"удаленнка"},{"type":"hashtag","offset":1432,"length":9,"data":"вакансия"},{"type":"hashtag","offset":1442,"length":3,"data":"Go"},{"type":"hashtag","offset":1446,"length":8,"data":"Backend"}],"date":"2020-06-16T13:59:22+00:00","link":"tg://resolve?domain=gogetajobfeed&post=328","tags":[{"name":"go"},{"name":"postgresql"},{"name":"sql"},{"name":"kafka"},{"name":"rabbitmq"}],"cities":[{"code":"riga"}],"allowsRemote":false}},{"node":{"__typename":"Job","id":"2216689664-1001134745498","title":"Devops инженер","text":"#вакансия #Москва #офис\n\nВсем привет!\n\nКомпания Сбербанк-Технологии ищет DevOps-инженера в команду развития event-сегмента облачной интеграционной платформы Synapse. Проект находится в активной фазе развития и востребован как со стороны бизнеса, так и со стороны платформ Банка.\n\n➡️Адрес офиса: Новоданиловская наб. 10 (10-15 мин. от м. Тульская и МЦК Верхние котлы)\n➡️Зарплатная вилка: от 150 до 220k net + премии\n➡️Занятость: полная\n\nПо стеку — #Ansible, #Jenkins, #Shell, #Kubernetes, #OpenShift, #Docker\n\nНемного о проекте:\n\n— работаем на open source стеке технологий (Apache Kafka, Apache Flink);\n— разрабатываем высоконагруженные (более 100 000 TPS) и отказоустойчивые (99,99%) технологии обмена и потоковой обработки событий;\n— работаем с событийными архитектурами (EDA), консультируем по проектированию и обеспечиваем технологический бэкграунд для решений в областях event sourcing, CQRS и др.;\n— у нас приветствуется open source contribution;\n— работаем с ведущими тех. стандартами для построения облачных приложений и микросервисных архитектур: Kubernetes, Istio Service Mesh, OpenShift, Docker.\n\nПару слов о команде:\n\nНаша команда работает по гибкой методологии и отвечает за полный цикл разработки продуктов. Внутри команды поддерживается атмосфера стартапа – мы сами взаимодействуем с заказчиками, сами проектируем, разрабатываем и тестируем наши продукты. У нас нет многоэтажной иерархии и случайных людей. Все члены команды являются инженерами и пишут код. Мы также постоянно усиливаем команду, приобретая новые навыки и компетенции. Вклад каждого сотрудника виден всем и честно оценивается с возможностью повышения должности и дохода.\n\nВот ссылка вакансию на hh.ru – https://hh.ru/vacancy/36723242, там подробнее о том, чего мы ждем и что предлагаем взамен.\n\n📌Контакты: @darya_laika, dppostolaki@sberbank.ru\n\n—\n\n👉 Обсуждение вакансии в чате @devops_jobs","markup":[{"type":"hashtag","offset":0,"length":9,"data":"вакансия"},{"type":"hashtag","offset":10,"length":7,"data":"Москва"},{"type":"hashtag","offset":18,"length":5,"data":"офис"},{"type":"hashtag","offset":447,"length":8,"data":"Ansible"},{"type":"hashtag","offset":457,"length":8,"data":"Jenkins"},{"type":"hashtag","offset":467,"length":6,"data":"Shell"},{"type":"hashtag","offset":475,"length":11,"data":"Kubernetes"},{"type":"hashtag","offset":488,"length":10,"data":"OpenShift"},{"type":"hashtag","offset":500,"length":7,"data":"Docker"},{"type":"link","offset":1675,"length":5,"data":"http://hh.ru"},{"type":"link","offset":1683,"length":30,"data":"https://hh.ru/vacancy/36723242"},{"type":"handle","offset":1787,"length":12,"data":"darya_laika"},{"type":"link","offset":1801,"length":23,"data":"mailto:dppostolaki@sberbank.ru"},{"type":"handle","offset":1859,"length":12,"data":"devops_jobs"}],"date":"2020-06-16T11:51:46+00:00","link":"tg://resolve?domain=devops_jobs_feed&post=2114","tags":[{"name":"dotnet"},{"name":"ansible"},{"name":"jenkins"},{"name":"shell"},{"name":"kubernetes"},{"name":"docker"},{"name":"apache"},{"name":"kafka"}],"cities":[{"code":"moscow"}],"allowsRemote":false}},{"node":{"__typename":"Job","id":"1696595968-1001091028994","title":"Java разработчик","text":"#вакансия  #офис #удаленка #регионы #Москва #Java #Spring #senior #middle #backend\nЛокация: #регион #Москва\nФормат работы: #офис #fulltime #удаленка\nЗ/п: 150-250 NET\nКомпания: МД-IT\nВедущий разработчик/Разработчик JAVA  \nВсем привет!\n\n✅Нужны классные разработчики Java уровня Middle, Senior, Lead\n\n👉Немного о нас: \nЦентр разработки МД-IT реализует проекты федерального масштаба под ключ. Наши специалисты работают с крупнейшими системными интеграторами, выполняя задачи по проектированию, разработке, тестированию, сопровождению и эксплуатации внедренных решений. \nНаши офисы расположены в Москве, Ростове-на –Дону, Нижнем Новгороде. \n\n👉Что ждем от Вас:\n* Уверенные знания java 8+, spring boot, будет плюсом знание Kotlin. \n Глубокие знания и практический опыт использования Java в нагруженных многопоточных приложениях Hibernate, Spring, Maven3, ХML\n\n* Опыт проектирования версионнированных REST-API, знание grpc будет плюсом\n\n* Понимание принципов асинхронного программирования, знание одного из: netty, nio, r2dbc\n\n* Желателен опыт использования библиотек реактивного программирования (rxjava, reactor) или опыт работы с vert.x, ratpack или http4\n\n*Приветствуется опыт работы с современными архитектурами, Apache Ignite, Apache Kafka\n\n👉Что мы можем предложить Вам:\n\n* Работа: удаленка\n\n*График работы 5/2, команда работает с 9(10) до 18(19) ч. по МСК\n\n*Заработную плату белую, конкурентоспособную (рассмотрим ваши предложения).\n\n* Работа в команде сообразительных, открытых, стремящихся к развитию единомышленников.\n\n* Крупные и долгосрочные проекты, увеличивающие профессиональный кругозор и опыт работы. \n* Плюшки к чаю и кофе, оплачиваемая мобильная связь, оплачиваемые тренинги и курсы для повышения квалификации. \n\n🖍 Вопросы, резюме прошу писать в личку Елене @Elenazlh","markup":[{"type":"hashtag","offset":0,"length":9,"data":"вакансия"},{"type":"hashtag","offset":11,"length":5,"data":"офис"},{"type":"hashtag","offset":17,"length":9,"data":"удаленка"},{"type":"hashtag","offset":27,"length":8,"data":"регионы"},{"type":"hashtag","offset":36,"length":7,"data":"Москва"},{"type":"hashtag","offset":44,"length":5,"data":"Java"},{"type":"hashtag","offset":50,"length":7,"data":"Spring"},{"type":"hashtag","offset":58,"length":7,"data":"senior"},{"type":"hashtag","offset":66,"length":7,"data":"middle"},{"type":"hashtag","offset":74,"length":8,"data":"backend"},{"type":"hashtag","offset":92,"length":7,"data":"регион"},{"type":"hashtag","offset":100,"length":7,"data":"Москва"},{"type":"hashtag","offset":123,"length":5,"data":"офис"},{"type":"hashtag","offset":129,"length":9,"data":"fulltime"},{"type":"hashtag","offset":139,"length":9,"data":"удаленка"},{"type":"handle","offset":1772,"length":9,"data":"Elenazlh"}],"date":"2020-06-16T11:17:46+00:00","link":"tg://resolve?domain=jvmjobs&post=1618","tags":[{"name":"java"},{"name":"jvm"},{"name":"spring"},{"name":"dotnet"},{"name":"kotlin"},{"name":"hibernate"},{"name":"maven"},{"name":"rest"},{"name":"apache"},{"name":"kafka"},{"name":"spring-boot"}],"cities":[{"code":"moscow"}],"allowsRemote":true}},{"node":{"__typename":"Job","id":"1682964480-1001091028994","title":"Java developer","text":"#Junior #Middle #Java #Developer\nКомпания: #Утконос\nЛокация: #Москва\nЗ/п: до 180 000 Net\nКонтакт: @RecruiterTatianaK\nJunior/Middle Java Developer в Утконос Онлайн\n📍Наш проект:\nВ компании разрабатывается комплексная система по управлению складом (WMS). Систему пишем сами «с нуля» на микросервисной архитектуре. \nСистема является ключевой для бизнеса и проектируется под высокие нагрузки.\n📍Что нужно делать?\n25% времени:\nАвтоматизировать бизнес процессы на складе в одной из scrum команд в количестве 10 человек.\n75% времени:\nРазрабатывать E2E и нагрузочные тесты.\n📍Наш стек:\nJava 11/Kotlin, Spring Boot 2.3.0, Camunda BPM, Kafka, Kubernetes, ELK, Grafana, Prometheus\n📍Что предлагаем?\nОформление по ТК РФ, ДМС\nГибкий график\nВозможность работы из дома\nСплоченный и профессиональный коллектив\nКорпоративные скидки на utkonos.ru, tui.ru, фитнес, кино и др.\nОфис - 10 минут  от м. Краснопресненская/ м.Улица 1905 года","markup":[{"type":"hashtag","offset":0,"length":7,"data":"Junior"},{"type":"hashtag","offset":8,"length":7,"data":"Middle"},{"type":"hashtag","offset":16,"length":5,"data":"Java"},{"type":"hashtag","offset":22,"length":10,"data":"Developer"},{"type":"hashtag","offset":43,"length":8,"data":"Утконос"},{"type":"hashtag","offset":61,"length":7,"data":"Москва"},{"type":"handle","offset":98,"length":18,"data":"RecruiterTatianaK"},{"type":"link","offset":818,"length":10,"data":"http://utkonos.ru"},{"type":"link","offset":830,"length":6,"data":"http://tui.ru"}],"date":"2020-06-15T20:10:30+00:00","link":"tg://resolve?domain=jvmjobs&post=1605","tags":[{"name":"java"},{"name":"jvm"},{"name":"dotnet"},{"name":"kotlin"},{"name":"spring"},{"name":"kafka"},{"name":"kubernetes"},{"name":"spring-boot"}],"cities":[{"code":"moscow"}],"allowsRemote":false}}]}}},"context":{}}