{"hash":"f5f6bf98bd95e769321482904cbbd488f77922fd","data":{"records":{"id":"ios","name":"ios","belongsTo":{"totalCount":194,"pageInfo":{"totalPages":20,"currentPage":3},"edges":[{"node":{"__typename":"Job","id":"72544681984-1001054966032","title":"Ios разработчик","text":"#вакансия #работа #Санкт_Петербург #middle #IOS #Swift #Scrum\n\nФормат работы: Удаленный\nЗанятость: Полная\nЗарплатная вилка: от 120 000 до 200 000.\n\nМы Stream - делаем классные и реально удобные продукты для людей. 📣Сейчас находимся в поиске IOS разработчика.📱\n\nЖдём от вас: \n🔹Опыт разработки приложений на IOS (желательно от 2-х лет).\n🔹Знание ООП, структур данных, архитектурных паттернов;\n🔹Опыт применения RxSwift;\n🔹Опыт написания unit-тестов;\n🔹Наличие готовых приложений в AppStore будет преимуществом;\n🔹Коммуникабельность, желание работать в команде единомышленников.\nПредлагаем:\n✅Сильная команда\n✅Гибкий график\n✅ДМС со стоматологией\n✅Компенсация мобильной связи\n✅Официальное оформление и \"белая\" зарплата + премии сверху оклада\n✅Возможность дополнительного обучения.\n\nКонтакты: telegram - @YanaKuzn\nпочта: ykuznetsova@stream.ru","markup":[{"type":"hashtag","offset":0,"length":9,"data":"вакансия"},{"type":"hashtag","offset":10,"length":7,"data":"работа"},{"type":"hashtag","offset":18,"length":16,"data":"Санкт_Петербург"},{"type":"hashtag","offset":35,"length":7,"data":"middle"},{"type":"hashtag","offset":43,"length":4,"data":"IOS"},{"type":"hashtag","offset":48,"length":6,"data":"Swift"},{"type":"hashtag","offset":55,"length":6,"data":"Scrum"},{"type":"handle","offset":801,"length":9,"data":"YanaKuzn"},{"type":"link","offset":818,"length":21,"data":"mailto:ykuznetsova@stream.ru"}],"date":"2020-07-02T12:39:13+00:00","link":"tg://resolve?domain=mobile_jobs&post=69184","tags":[{"name":"mobile"},{"name":"ios"},{"name":"swift"}],"cities":[],"allowsRemote":false}},{"node":{"__typename":"Job","id":"104215871488-1001089317451","title":"Qa инженер","text":"#вакансия #qa #Москва #офис #fulltime \n🌀Если Вы - manual qa с опытом тестирования Web и mobile приложений от 2-х лет\n🌀Если Вы хотите профессионально развиваться в крутой команде\n\nПишите на avinogradova@corpteamo.com\n\n📝Кто мы?\n💟Teamo - ведущий сервис знакомств, www.teamo.ru \n\n📝Что нужно будет делать? \n- обеспечивать качества разрабатываемого ПО (web приложение + мобильные приложения);\n- выполнять различные виды ручного тестирования (функциональное, исследовательское, приемочное и др.);\n- находить и документировать дефекты;\n- взаимодействовать с другими участниками процесса разработки ПО (аналитики, разработчики, бизнес-пользователи) для быстрого и качественного устранения дефектов\n\n📝Что нужно уметь?\n- опыт тестирования web и мобильных приложений;\n- опыт тестирования без функциональной спецификации;\n- умение взаимодействовать с командой в целях улучшения конечного продукта;\n- опыт работы с баг-трекинговыми системами (Redmine, Jira и аналоги)\n- понимание принципов работы современных веб-приложений, понимание клиент-серверной архитектуры, взаимодействия API и его клиентов (web-сайт, ios/android-приложения);\n- умение локализовать дефект, грамотно описать его в task-трекере с последующим сопровождением процесса устранения;\n- понимание и поиск уязвимостей (sql injection, csrf, xss, etc); \n\n📝 Будет плюсом:\n- знакомство с инструментами автоматизированного тестирования (Selenium, Appium, etc);\n- опыт тестирования API, умение пользоваться инструментом для работы с HTTP-запросами Postman/Fiddler;\n  \n📝Что мы предлагаем?\n- возможность присоединиться к работе над успешным продуктом в нише Dating’a;\n- возможность повлиять на масштабную аудиторию пользователей и быстро увидеть результат своей работы;\n- дружную команду. Вы приносите свои идеи и методы для которых мы предоставим Вам требуемые ресурсы;\n- минимум бюрократии;\n- официальное оформление и \"белая\" заработная плата с компенсацией больничных. Вилка з/п 90-120т.р.net;\n- пятидневная рабочая неделя с возможностью выбрать удобное начало рабочего дня;\n- уютный офис в пешей доступности от ст.м. ул.1905 года;\n- плюшки, печеньки, фрукты;","markup":[{"type":"hashtag","offset":0,"length":9,"data":"вакансия"},{"type":"hashtag","offset":10,"length":3,"data":"qa"},{"type":"hashtag","offset":14,"length":7,"data":"Москва"},{"type":"hashtag","offset":22,"length":5,"data":"офис"},{"type":"hashtag","offset":28,"length":9,"data":"fulltime"},{"type":"link","offset":191,"length":26,"data":"mailto:avinogradova@corpteamo.com"},{"type":"bold","offset":231,"length":6,"data":""},{"type":"link","offset":265,"length":12,"data":"http://www.teamo.ru"},{"type":"link","offset":1933,"length":13,"data":"http://90-120т.р.net"}],"date":"2020-07-02T12:06:10+00:00","link":"tg://resolve?domain=qa_jobs&post=99388","tags":[{"name":"qa"},{"name":"web"},{"name":"mobile"},{"name":"ios"},{"name":"android"},{"name":"sql"},{"name":"selenium"},{"name":"dotnet"}],"cities":[{"code":"moscow"}],"allowsRemote":false}},{"node":{"__typename":"Job","id":"17317232640-1001110946746","title":"Javascript developer","text":"#вакансия #ReactNative #Одесса\n🔹Локация: Одесса,  #Odessa, р-н Пересыпи\n🔹Формат работы: #Офис / #удаленка\n🔹Занятость: Полная занятость, #Fulltime\n🔹Вилка 1700-2500 уе, дважды в год Performance Review.\n\n☀Вакансия Middle React Native developer\n🔹Описание вакансии:\n- 4+ years of experience in software development and JavaScript (ES6+).\n- 2+ years of experience with React Native.\n- Experience with commercial native applications development (IOS/Android).\n- Understanding and experience with building the full mobile application’s lifecycle.\n- Knowledge of architecture design and experience working knowledge of SOAP and RESTful integrations.\n- Intermediate written and spoken English.\nБудет плюсом:\n- Experience with native SDKs for Android (Kotlin/Java) and/or iOS (Swift).\n\n\n🔹Компания Attract Group.\n🔹Контакты:\n✏️телеграм @Niedova_Olga,\n✏️почта hr@attractgroup.com.\n\n—\n\n👉 Обсуждение вакансии в чате @javascript_jobs","markup":[{"type":"hashtag","offset":0,"length":9,"data":"вакансия"},{"type":"hashtag","offset":10,"length":12,"data":"ReactNative"},{"type":"hashtag","offset":23,"length":7,"data":"Одесса"},{"type":"hashtag","offset":51,"length":7,"data":"Odessa"},{"type":"hashtag","offset":90,"length":5,"data":"Офис"},{"type":"hashtag","offset":98,"length":9,"data":"удаленка"},{"type":"hashtag","offset":139,"length":9,"data":"Fulltime"},{"type":"handle","offset":830,"length":13,"data":"Niedova_Olga"},{"type":"link","offset":853,"length":19,"data":"mailto:hr@attractgroup.com"},{"type":"handle","offset":908,"length":16,"data":"javascript_jobs"}],"date":"2020-07-02T11:06:21+00:00","link":"tg://resolve?domain=javascript_jobs_feed&post=16515","tags":[{"name":"javascript"},{"name":"reactjs"},{"name":"ios"},{"name":"android"},{"name":"mobile"},{"name":"soap"},{"name":"kotlin"},{"name":"java"},{"name":"swift"},{"name":"react-native"}],"cities":[{"code":"odessa"}],"allowsRemote":true}},{"node":{"__typename":"Job","id":"72534196224-1001054966032","title":"Mobile разработчик","text":"#вакансия #работа #ios #android #Swift #kotlin #Москва #удаленка #remote #офис #mobile\nГород: Москва\nФормат работы: офис или удаленка\nЗанятость: полная, частичная, проектная, обсуждаем все варианты\nЗарплатная вилка: от 150 000 до 300 000 рублей\nКонтакты: 📲 @d_aleshina\n📧d.aleshina@ancor.ru\n\nТребования: Коммерческий опыт разработки на iOS или Android от 2-х лет\n\nОписание вакансии: Ищем мобильных разработчиков на несколько крупных FinTech-проектов (всегда есть возможность выбрать наиболее вам интересный), текущих или со стартом через 1-2 месяца и далее. \n\nУсловия:\n🔸У нас 100% белая зп (фиксированный оклад), ДМС со стоматологией, международной страховкой, оплачиваемая мобильная связь.  \n🔸По доходу и условиям мы гибкие, готовы договариваться с вами, отталкиваемся от пожеланий.  \n🔸Есть возможности роста по уровню дохода, по роли в проектах, а также возможность выбрать альтернативный проект, перейти в новую команду. \n\nКомпания: ANCOR FinTech https://ancor.ru\nЗа подробностями пишите 📲@d_aleshina","markup":[{"type":"hashtag","offset":0,"length":9,"data":"вакансия"},{"type":"hashtag","offset":10,"length":7,"data":"работа"},{"type":"hashtag","offset":18,"length":4,"data":"ios"},{"type":"hashtag","offset":23,"length":8,"data":"android"},{"type":"hashtag","offset":32,"length":6,"data":"Swift"},{"type":"hashtag","offset":39,"length":7,"data":"kotlin"},{"type":"hashtag","offset":47,"length":7,"data":"Москва"},{"type":"hashtag","offset":55,"length":9,"data":"удаленка"},{"type":"hashtag","offset":65,"length":7,"data":"remote"},{"type":"hashtag","offset":73,"length":5,"data":"офис"},{"type":"hashtag","offset":79,"length":7,"data":"mobile"},{"type":"bold","offset":87,"length":5,"data":""},{"type":"bold","offset":101,"length":13,"data":""},{"type":"bold","offset":134,"length":11,"data":""},{"type":"bold","offset":198,"length":17,"data":""},{"type":"bold","offset":245,"length":9,"data":""},{"type":"handle","offset":258,"length":11,"data":"d_aleshina"},{"type":"link","offset":270,"length":23,"data":"http://%F0%9F%93%A7d.aleshina@ancor.ru/"},{"type":"bold","offset":293,"length":12,"data":""},{"type":"bold","offset":365,"length":19,"data":""},{"type":"bold","offset":561,"length":9,"data":""},{"type":"bold","offset":930,"length":10,"data":""},{"type":"link","offset":954,"length":16,"data":"https://ancor.ru"},{"type":"handle","offset":997,"length":11,"data":"d_aleshina"}],"date":"2020-07-02T10:55:01+00:00","link":"tg://resolve?domain=mobile_jobs&post=69174","tags":[{"name":"mobile"},{"name":"android"},{"name":"ios"},{"name":"swift"},{"name":"kotlin"}],"cities":[{"code":"moscow"}],"allowsRemote":true}},{"node":{"__typename":"Job","id":"104207482880-1001089317451","title":"Qa engineer","text":"#вакансия #москва #fulltime  #qaengineer \nКомпания: #MentalGrowth https://mentalgrowth.app\nЛокация: #Москва #Бауманская \nФормат работы: офис (удаленная до сентября)  \nЗ/п: от 100к - 120к на руки\nКонтакты: @elentarasova\n\nМы - Mental Growth - команда профессионалов-разработчиков мобильных iOS-приложений в области health/fitness/wellness/well-being. \nУ нас 4 приложения и каждое из них нуждается в постоянном тестировании, мы ищем человека, который сможет поставить этот процесс на поток, а также качественно улучшить нашу команду.\n\nЧем нужно делать:\n- Организовать процесс тестирования;\n- Тестировать мобильные приложения (UI/UX/functional/performance testing);\n- Проводить smoke/регрессионные тесты;\n- Вести тестовую документацию;\n- Выявлять и анализировать проблемы пользователей;\n- Анализовать продуктовые требования и декомпозировать технические задачи на предмет увеличения покрытия тестами;\n- Взаимодействовать с разработчиками для улучшения качества выпускаемых продуктов.\n\nЧто мы ждем от тебя:\n- Опыт тестирования мобильных приложений;\n- Хорошее понимание принципов клиент-серверного взаимодействия, знание HTTP, REST API.\n- Знание Apple’s Human Interface Guidelines, Material Design;\n- Практические навыки тест-дизайна;\n- Самостоятельность и желание все время развиваться.\n\nЧто мы можем предложить тебе:\n- Официальное трудоустройство;\n- Конкурентную заработную плату, растущую с повышением квалификации;\n- Гибкий график начала рабочего дня с 9 до 11;\n- Полное отсутствие бюрократии, молодой коллектив единомышленников и лояльное руководство;\n- Возможность посещения конференций, курсов по повышению квалификации за счет работодателя;\n- Комфортное рабочее место с макбуком и офис с кофе, снеками, диванами и PS4.","markup":[{"type":"bold","offset":0,"length":17,"data":""},{"type":"hashtag","offset":0,"length":9,"data":"вакансия"},{"type":"hashtag","offset":10,"length":7,"data":"москва"},{"type":"bold","offset":18,"length":11,"data":""},{"type":"hashtag","offset":18,"length":9,"data":"fulltime"},{"type":"hashtag","offset":29,"length":11,"data":"qaengineer"},{"type":"bold","offset":30,"length":10,"data":""},{"type":"hashtag","offset":52,"length":13,"data":"MentalGrowth"},{"type":"bold","offset":53,"length":12,"data":""},{"type":"bold","offset":65,"length":25,"data":""},{"type":"link","offset":66,"length":24,"data":"https://mentalgrowth.app/"},{"type":"hashtag","offset":100,"length":7,"data":"Москва"},{"type":"hashtag","offset":108,"length":11,"data":"Бауманская"},{"type":"handle","offset":205,"length":13,"data":"elentarasova"},{"type":"bold","offset":532,"length":17,"data":""},{"type":"bold","offset":981,"length":20,"data":""},{"type":"bold","offset":1283,"length":29,"data":""}],"date":"2020-07-02T10:50:07+00:00","link":"tg://resolve?domain=qa_jobs&post=99380","tags":[{"name":"qa"},{"name":"ios"},{"name":"rest"}],"cities":[{"code":"moscow"}],"allowsRemote":true}},{"node":{"__typename":"Job","id":"72530001920-1001054966032","title":"Ios developer","text":"#вакансия #ios #developer #iosdeveloper #москва #мск \n\nIOS Developer\nКомпания: Азбука Вкуса\nЛокация: Москва, офис\nм. Парк Победы/Кутузовская\nЗанятость: fulltime\nЗ/п: 150-210k ₽ net  \nКонтакты: @observer69\n\nУсловия\n● Официальное оформление с соблюдением ТК РФ;\n● Организация внешнего обучения;\n● Участие в конференциях и хакатонах;\n● ДМС;\n● Возможность работать из дома пару раз в неделю;\n● Комфортный офис в шаговой доступности от м. Парк Победы / Кутузовская;\n● Большая команда IT - профессионалов;\n● Интересные задачи\n\nТребования\n● Имеешь опыт iOS-разработки от 3-х лет;\n● Знаешь и любишь Swift, без вопросов можешь разобраться с кодом на Objective-C;\n● Имеешь опыт интеграции различных социальных сетей в проект;\n● Умеешь работать в AppStoreConnect и developer.apple.com, понимаешь зачем нужны сертификаты;\n● Знаешь принципы SOLID, структуры данных, паттерны проектирования и программирования;\n● Знаешь что таĸое MVC, MVVM, MVP etc. понимаешь их плюсы и\nминуты;\n● Работал с Realm;\nУверенно делаешь сложный UI, знаешь и понимаешь Autolayout, понимаешь когда лучше отказаться от него;\n● Сможешь обьяснить разницу между процессом и потоĸом, знаешь ĸаĸ\nработает многопоточность;\n● Знаком с HTTP, REST, Websocket, JSON и т.д.;\n● Работал с git (терминал или приложение);\n● Умеешь \"гуглить\" и воспринимать информацию на английском;\n● Терпимо относишься ĸ чужому ĸоду, даже если сильно не нравится;\n● Умеешь аргументировано и последовательно отстаивать свою\nпозицию;\n● Сможешь оценить задачу, и выполнить ее в сроĸ;\n● Интересуешься “а ĸаĸ это устроено внутри?”\n\nЗадачи\n1. Развивать и поддерживать существующие приложения;\n2. Проводить code review;\n3. Развивать IOS инфраструктуру в компании;\n4. Активно участвовать в жизни команды.","markup":[{"type":"hashtag","offset":0,"length":9,"data":"вакансия"},{"type":"hashtag","offset":10,"length":4,"data":"ios"},{"type":"hashtag","offset":15,"length":10,"data":"developer"},{"type":"hashtag","offset":26,"length":13,"data":"iosdeveloper"},{"type":"hashtag","offset":40,"length":7,"data":"москва"},{"type":"hashtag","offset":48,"length":4,"data":"мск"},{"type":"bold","offset":55,"length":23,"data":""},{"type":"bold","offset":92,"length":8,"data":""},{"type":"bold","offset":141,"length":10,"data":""},{"type":"bold","offset":161,"length":5,"data":""},{"type":"bold","offset":183,"length":10,"data":""},{"type":"handle","offset":193,"length":11,"data":"observer69"},{"type":"bold","offset":206,"length":8,"data":""},{"type":"bold","offset":521,"length":11,"data":""},{"type":"link","offset":754,"length":19,"data":"http://developer.apple.com"},{"type":"bold","offset":1557,"length":9,"data":""},{"type":"bold","offset":1617,"length":2,"data":""},{"type":"bold","offset":1643,"length":2,"data":""},{"type":"bold","offset":1687,"length":2,"data":""}],"date":"2020-07-02T10:23:24+00:00","link":"tg://resolve?domain=mobile_jobs&post=69170","tags":[{"name":"mobile"},{"name":"ios"},{"name":"dotnet"},{"name":"swift"},{"name":"objective-c"},{"name":"mvvm"},{"name":"realm"},{"name":"rest"},{"name":"websocket"},{"name":"json"},{"name":"git"}],"cities":[{"code":"moscow"}],"allowsRemote":false}},{"node":{"__typename":"Job","id":"72527904768-1001054966032","title":"Ios разработчик","text":"#вакансия #ios #удаленка\nФормат работы: удаленка\n\nЗанятость: частичная, проектная (возможно оформление в штат)\n\nЗарплатная вилка (обязательно): от 1000 до 2000р/час\n\nОписание вакансии: Ищем исполнителей iOS-разработчиков или команды для работы над небольшими функциональными приложениями (сканеры, хранилки паролей, таймеры итд). Приложения несложные, в среднем срок разработки составляет 1 месяц.\n\nSwift.\n Уровень разработчика: как минимум Middle\n\nНазвание компании: Rich Peach Media\n\nКонтакты: @mekirile","markup":[{"type":"hashtag","offset":0,"length":9,"data":"вакансия"},{"type":"hashtag","offset":10,"length":4,"data":"ios"},{"type":"hashtag","offset":15,"length":9,"data":"удаленка"},{"type":"handle","offset":496,"length":9,"data":"mekirile"}],"date":"2020-07-02T09:59:05+00:00","link":"tg://resolve?domain=mobile_jobs&post=69168","tags":[{"name":"mobile"},{"name":"ios"},{"name":"swift"}],"cities":[],"allowsRemote":true}},{"node":{"__typename":"Job","id":"72525807616-1001054966032","title":"Mobile developer","text":"#вакансия #ReactNative #Одесса\n🔹Локация: Одесса,  #Odessa, р-н Пересыпи\n🔹Формат работы: #Офис / #удаленка\n🔹Занятость: Полная занятость, #Fulltime\n🔹Вилка $1700-$2500, дважды в год Performance Review.\n\n☀Вакансия Middle React Native developer\n🔹Описание вакансии:\n- 4+ years of experience in software development and JavaScript (ES6+).\n- 2+ years of experience with React Native.\n- Experience with commercial native applications development (IOS/Android).\n- Understanding and experience with building the full mobile application’s lifecycle.\n- Knowledge of architecture design and experience working knowledge of SOAP and RESTful integrations.\n- Experience with native SDKs for Android (Kotlin/Java) and/or iOS (Swift).\n- Intermediate written and spoken English.\n\n🔹Компания Attract Group.\n🔹Контакты:\n✏️телеграм @Niedova_Olga,\n✏️почта hr@attractgroup.com.","markup":[{"type":"hashtag","offset":0,"length":9,"data":"вакансия"},{"type":"hashtag","offset":10,"length":12,"data":"ReactNative"},{"type":"hashtag","offset":23,"length":7,"data":"Одесса"},{"type":"hashtag","offset":51,"length":7,"data":"Odessa"},{"type":"hashtag","offset":90,"length":5,"data":"Офис"},{"type":"hashtag","offset":98,"length":9,"data":"удаленка"},{"type":"hashtag","offset":139,"length":9,"data":"Fulltime"},{"type":"handle","offset":814,"length":13,"data":"Niedova_Olga"},{"type":"link","offset":837,"length":19,"data":"mailto:hr@attractgroup.com"}],"date":"2020-07-02T09:41:39+00:00","link":"tg://resolve?domain=mobile_jobs&post=69166","tags":[{"name":"mobile"},{"name":"android"},{"name":"ios"},{"name":"reactjs"},{"name":"javascript"},{"name":"soap"},{"name":"kotlin"},{"name":"java"},{"name":"swift"},{"name":"react-native"}],"cities":[{"code":"odessa"}],"allowsRemote":true}},{"node":{"__typename":"Job","id":"72517419008-1001054966032","title":"Ios разработчик","text":"#вакансия #IOS #senior #full-time #офис #удаленка \nГород: Санкт-Петербург\nФормат работы: офис и удаленка\nЗанятость: полная \nЗарплатная вилка (обязательно): от 230 000 до 300 000 на руки\n\nКомпания: VOIR - приложение реалистичного диджитал мейкапа с самым большим количеством качественно оцифрованной продукции реальных брендов.\nМы используем компьютерное зрение, нейронные сети и запатентованный 3D рендеринг, чтобы обеспечить реалистичную примерку в дополненной реальности. \nНаше приложение Voir уже имеет более 3 млн. загрузок по всему миру.\n\nАудитория приложения составляет сотни тысяч пользователей по всему миру, и компания уже заключила партнерства с такими брендами как Dior, Sephora, Guerlain. Подробнее о компании можно узнать в статье Forbes и на сайте, а еще лучше скачать приложение.\nВ данный момент мы ищеним Senior IOS Developer'а. \n\nЧто нужно делать:\n\n* Активно участвовать в развитие проекта, общаться с командой, вместе находить крутые решения;\n* Разработка мобильных приложений;\n* Участие в работе над архитектурой, SDK, API;\n* Работа с командой разработчиков, тестировщиков, дизайнеров и специалистов по machine learning.\n\nЧто нам важно:\n\n* Опыт iOS разработки от 3-х лет;\n* Опыт разработки от 5-х лет;\n* Отличное знание Swift, RxSwift;\n* Отличное знание API и фреймворков iOS;\n* Отличные знания Metal, OpenGL, SceneKit, ARkit, CoreML;\n* Фундаментальные знания ООП, архитектур и алгоритмов;\n* Умение проводить комплексный анализ и самостоятельно решать проблемы;\n* Опыт разработки клиент-серверных приложений и работы с сетевыми протоколами;\n* Английский не ниже Intermediate, свободное чтение любой технической документации;\n* Опубликованные приложения, которые создавались с вашим значительным участием;\n* Плюсом будет открытый актуальный код на GitHub или даже в zip-архиве, статьи, выступления на конференциях, пришлите ссылки на них в сопроводительном письме;\n* Любить IOS и понимать гайды и best-practice;\n* Умение аргументированно излагать свою точку зрения.\n\nЧто мы предлагаем: \n\n* Интересные задачи на активно развивающемся проекте с использованием технологий machine learning;\n* Возможность непосредственно влиять на продукт и видеть результат работы;\n* Работу в профессиональной, заряженной команде и драйвовую атмосферу;\n* Гибкий график работы;\n* Белую зарплату, которая зависит только от ваших навыков и опыта;\n* Комфортный офис в 10 минутах ходьбы, от метро Петроградская.\n\nКонтакты: @aartenyan","markup":[{"type":"hashtag","offset":0,"length":9,"data":"вакансия"},{"type":"hashtag","offset":10,"length":4,"data":"IOS"},{"type":"hashtag","offset":15,"length":7,"data":"senior"},{"type":"hashtag","offset":23,"length":5,"data":"full"},{"type":"hashtag","offset":34,"length":5,"data":"офис"},{"type":"hashtag","offset":40,"length":9,"data":"удаленка"},{"type":"link","offset":737,"length":15,"data":"https://www.forbes.ru/tehnologii/381845-didzhital-makiyazh-kak-natalya-vodyanova-podarila-vtoruyu-zhizn-startapu-iz"},{"type":"link","offset":756,"length":5,"data":"http://voir.me/"},{"type":"link","offset":775,"length":19,"data":"https://apps.apple.com/us/app/voir-makeup-selfie-camera/id1226417060"},{"type":"handle","offset":2416,"length":10,"data":"aartenyan"}],"date":"2020-07-02T08:25:43+00:00","link":"tg://resolve?domain=mobile_jobs&post=69158","tags":[{"name":"mobile"},{"name":"ios"},{"name":"swift"},{"name":"opengl"},{"name":"github"},{"name":"machine-learning"}],"cities":[],"allowsRemote":true}},{"node":{"__typename":"Job","id":"17309892608-1001110946746","title":"Js разработчик","text":"#удаленка #fullstack #middle #вакансия\nПривет! ✌ Мы ищем full stack специалиста для постоянной работы. \nФормат работы: Удалёнка. Занятость:полная.\nЗП: от 80 до 100 к\n\nУровень middle\n\nКомпания:https://arkonsa.ru/\n💁 Описание компании: Мы работаем в двух направлениях: 1) Своя CRM система (oko сrm), которую планируем продавать на внешний рынок + запускать мобильное приложение для IOS и Android;\n2) Свой учебный центр (продажи).\n\nОт тебя мы ждем:\n\n- Уверенное знание: HTML4/5, CSS2/3, JavaScript ES5(ES6), HTML, JQuery, Ajax, React, VUE.js, Laravel\n\n💡 Требования:\nопыт разработки по данному стеку от 2+лет.\n\n📠 За подробностями по вакансии и по всем вопросам:\n@elena_hr_tmn \n89129125591 Viber\n\n—\n\n👉 Обсуждение вакансии в чате @javascript_jobs","markup":[{"type":"hashtag","offset":0,"length":9,"data":"удаленка"},{"type":"hashtag","offset":10,"length":10,"data":"fullstack"},{"type":"hashtag","offset":21,"length":7,"data":"middle"},{"type":"hashtag","offset":29,"length":9,"data":"вакансия"},{"type":"link","offset":192,"length":19,"data":"https://arkonsa.ru/"},{"type":"handle","offset":660,"length":13,"data":"elena_hr_tmn"},{"type":"link","offset":675,"length":11,"data":"tel:89129125591"},{"type":"handle","offset":727,"length":16,"data":"javascript_jobs"}],"date":"2020-07-02T07:31:15+00:00","link":"tg://resolve?domain=javascript_jobs_feed&post=16508","tags":[{"name":"javascript"},{"name":"ios"},{"name":"android"},{"name":"html"},{"name":"css"},{"name":"jquery"},{"name":"ajax"},{"name":"reactjs"},{"name":"vuejs"},{"name":"laravel"}],"cities":[],"allowsRemote":true}}]}}},"context":{}}