{"hash":"f34fd2c444a074f4e0e67d525015a008ef8e766f","data":{"records":{"id":"nginx","name":"nginx","belongsTo":{"totalCount":41,"pageInfo":{"totalPages":5,"currentPage":5},"edges":[{"node":{"__typename":"Job","id":"34603008-1001375797688","title":".net разработчик","text":"#вакансия #dotNET #dotnetcore #офис #backend #SQL #docker #middle #senior #воронеж\n\nМы - компания \"Терра Ассистанс\" - ищем в свою команду человека, который любит свою работу и готов к самореализации.\nНаша команда растет, поэтому мы открыли новый офис по адресу: \nгород Воронеж\nул. Спортивная набережная д. 23б\nФормат: офис\n#удалёнка возможна после стажа работы в компании\nЗанятость: полная\nЗарплатная вилка от 80К до 95К\n\nНаша компания с 2013 года создаёт для пользователей автомобилей ассистанс-сервис.\nКто с нами работает?\nКрупнейшие мировые бренды, автомобильные дилеры, ведущие сервисные компании — каждый наш заказчик уникален, поэтому мы разрабатываем и предлагаем индивидуальные решения.\nВ чем наше отличие?\nВ нашей работе мы имеем дело с нестандартными ситуациями и в нашей отрасли каждая ситуация, каждый новый проект уникален. \n\nВ задачи будет входить проектирование и разработка серверной части приложений, тестирование приложений, проектирование, анализ работы баз данных, доработка, поддержка существующих приложений. \n\nПо мимо молодого и дружного коллектива, мы предлагаем:\n- бонусы по результатам работы;\n- возможности профессионального развития и роста;\n- работа в комфортабельном офисном помещении на набережной Воронежского водохранилища: обеденная зона (чай, кофе за счет компании), релакс-зона, душевая, уютный интерьер;\n- оформление по ТК с первого рабочего дня\n\nДля нас очень важно:\n- знание и опыт работы с MSSQL, T-SQL\nC#\nEntity framework, ASP .NET MVC, ASP .NET Core\nDocker\nNginx\n- знание технического английского языка\n- знание MongoDB желательно, но не критично  \n- ответственность, умение работать в команде\n\nhttps://terra-assistance.ru/\n\nКонтакты\n@I_Kristale","markup":[{"type":"hashtag","offset":0,"length":9,"data":"вакансия"},{"type":"hashtag","offset":10,"length":7,"data":"dotNET"},{"type":"hashtag","offset":18,"length":11,"data":"dotnetcore"},{"type":"hashtag","offset":30,"length":5,"data":"офис"},{"type":"hashtag","offset":36,"length":8,"data":"backend"},{"type":"hashtag","offset":45,"length":4,"data":"SQL"},{"type":"hashtag","offset":50,"length":7,"data":"docker"},{"type":"hashtag","offset":58,"length":7,"data":"middle"},{"type":"hashtag","offset":66,"length":7,"data":"senior"},{"type":"hashtag","offset":74,"length":8,"data":"воронеж"},{"type":"hashtag","offset":323,"length":9,"data":"удалёнка"},{"type":"link","offset":1637,"length":28,"data":"https://terra-assistance.ru/"},{"type":"handle","offset":1676,"length":11,"data":"I_Kristale"}],"date":"2019-10-31T11:53:40+00:00","link":"tg://resolve?domain=DotNetRuJobsFeed&post=33","tags":[{"name":"dotnet"},{"name":"csharp"},{"name":"sql"},{"name":"docker"},{"name":"sql-server"},{"name":"nginx"},{"name":"mongodb"},{"name":"entity-framework"},{"name":"asp-net"},{"name":"net-core"},{"name":"asp-net-mvc"},{"name":"asp-net-core"}],"cities":[{"code":"voronezh"}],"allowsRemote":true}}]}}},"context":{}}