{"hash":"f5f6bf98bd95e769321482904cbbd488f77922fd","data":{"records":{"id":"russia/moscow","country":{"code":"russia","ruName":"Россия","enName":"Russia"},"city":{"code":"moscow","ruName":"Москва","enName":"Moscow"},"belongsTo":{"totalCount":476,"pageInfo":{"totalPages":48,"currentPage":43},"edges":[{"node":{"__typename":"Job","id":"16952328192-1001110946746","title":"Javascript разработчик","text":"#вакансия #frontend #react #typescript #middle #senior #москва #офис #fulltime\n\nПозиция – Frontend developer\nКомпания – Quadcom\nЛокация – Москва, м. Ботанический сад\nЗанятость – полная, офис, гибкое время начала дня\nОплата: от 150 000 до 200 000 рублей на руки\n\nМы ищем талантливого фронтенд-разработчика в нашу не очень большую, но дружную команду.\nЕсли ты легко осваиваешь новые технологии, любишь чистый и красивый код, знаешь алгоритмы и готов развиваться, то мы очень хотим тебя к себе!\n\nМы разрабатываем различные сервисы и интерфейсы для внутреннего и внешнего использования. У нас есть как большие проекты, так и маленькие. Начиная с 2014 года с небольшой команды мы развились до довольно большой компании и развиваемся дальше\n\nБазируемся в уютном бизнес-центре недалеко от метро Ботанический сад и ВДНХ. У нас гибкий рабочий график, современный офис и отличное оборудование для работы.\n\n✅ Необходимые навыки:\n\n• Знание Javascript и ES6+, React + Redux\n• Уверенные знания HTML, CSS/SASS/LESS\n• Опыт работы в команде с использованием Git и системой управления задачами\n\n✅ Плюсом будет:\n\n• Опыт написания собственного REST API\n• Знакомство с TypeScript\n• Знание алгоритмов и структур данных\n\n✅ Мы предлагаем:\n\n• Работу в успешной, растущей компании\n• Карьерный и профессиональный рост\n• Уютный офис\n• Отсутствие какого-либо дресс-кода\n• Свободный график\n• Адекватное руководство\n\nЗП от 150 000 до 200 000 рублей на руки\nпо итогам собеседования и испытательного срока\n\n☎️ Контакты для обсуждения вакансии:\n\ntelegram @codebor\ne-mail ybb@quadcom.ru\n\n💡Для желающих мы подготовили небольшое задание [~4 часа]\nhttps://github.com/walborn/test-backend-jwt/blob/master/task.md","markup":[{"type":"hashtag","offset":0,"length":9,"data":"вакансия"},{"type":"hashtag","offset":10,"length":9,"data":"frontend"},{"type":"hashtag","offset":20,"length":6,"data":"react"},{"type":"hashtag","offset":27,"length":11,"data":"typescript"},{"type":"hashtag","offset":39,"length":7,"data":"middle"},{"type":"hashtag","offset":47,"length":7,"data":"senior"},{"type":"hashtag","offset":55,"length":7,"data":"москва"},{"type":"hashtag","offset":63,"length":5,"data":"офис"},{"type":"hashtag","offset":69,"length":9,"data":"fulltime"},{"type":"handle","offset":1521,"length":8,"data":"codebor"},{"type":"link","offset":1537,"length":14,"data":"mailto:ybb@quadcom.ru"},{"type":"link","offset":1611,"length":63,"data":"https://github.com/walborn/test-backend-jwt/blob/master/task.md"}],"date":"2020-06-15T21:32:03+00:00","link":"tg://resolve?domain=javascript_jobs_feed&post=0","tags":[{"name":"javascript"},{"name":"reactjs"},{"name":"typescript"},{"name":"redux"},{"name":"html"},{"name":"css"},{"name":"sass"},{"name":"git"},{"name":"rest"},{"name":"github"},{"name":"jwt"},{"name":"react-redux"}],"cities":[{"code":"moscow"}],"allowsRemote":false}},{"node":{"__typename":"Job","id":"1682964480-1001091028994","title":"Java developer","text":"#Junior #Middle #Java #Developer\nКомпания: #Утконос\nЛокация: #Москва\nЗ/п: до 180 000 Net\nКонтакт: @RecruiterTatianaK\nJunior/Middle Java Developer в Утконос Онлайн\n📍Наш проект:\nВ компании разрабатывается комплексная система по управлению складом (WMS). Систему пишем сами «с нуля» на микросервисной архитектуре. \nСистема является ключевой для бизнеса и проектируется под высокие нагрузки.\n📍Что нужно делать?\n25% времени:\nАвтоматизировать бизнес процессы на складе в одной из scrum команд в количестве 10 человек.\n75% времени:\nРазрабатывать E2E и нагрузочные тесты.\n📍Наш стек:\nJava 11/Kotlin, Spring Boot 2.3.0, Camunda BPM, Kafka, Kubernetes, ELK, Grafana, Prometheus\n📍Что предлагаем?\nОформление по ТК РФ, ДМС\nГибкий график\nВозможность работы из дома\nСплоченный и профессиональный коллектив\nКорпоративные скидки на utkonos.ru, tui.ru, фитнес, кино и др.\nОфис - 10 минут  от м. Краснопресненская/ м.Улица 1905 года","markup":[{"type":"hashtag","offset":0,"length":7,"data":"Junior"},{"type":"hashtag","offset":8,"length":7,"data":"Middle"},{"type":"hashtag","offset":16,"length":5,"data":"Java"},{"type":"hashtag","offset":22,"length":10,"data":"Developer"},{"type":"hashtag","offset":43,"length":8,"data":"Утконос"},{"type":"hashtag","offset":61,"length":7,"data":"Москва"},{"type":"handle","offset":98,"length":18,"data":"RecruiterTatianaK"},{"type":"link","offset":818,"length":10,"data":"http://utkonos.ru"},{"type":"link","offset":830,"length":6,"data":"http://tui.ru"}],"date":"2020-06-15T20:10:30+00:00","link":"tg://resolve?domain=jvmjobs&post=1605","tags":[{"name":"java"},{"name":"jvm"},{"name":"dotnet"},{"name":"kotlin"},{"name":"spring"},{"name":"kafka"},{"name":"kubernetes"},{"name":"spring-boot"}],"cities":[{"code":"moscow"}],"allowsRemote":false}},{"node":{"__typename":"Job","id":"340787200-1001352129329","title":"Golang разработчик","text":"#вакансия #Москва #senior #Go #fulltime #офис #удаленка  \nВакансия: Lead or Senior Golang Developer \nКомпания: Skytech Solutions\nГород: Moscow/Malta\nФормат работы: офис или удаленка (на выбор кандидата)\nЗанятость: полная\nВилка заработной платы: от 180 000 - 230 000 р на руки\n\nТребуемый опыт работы: 3–6 лет.\nПолная занятость, полный день\n\nОбязанности:\nСоздание высоконагруженных сервисов / микро-сервисов;\nРазработка интеграции с внешними сервисами;\nРазработка платформы для Betting / Gambling;\nРазработка надежной, безопасной и безотказной экосистемы;\nРешение сложных и интересных задач;\n\nТребования:\nИметь опыт коммерческой разработки ПО на Go не менее 3-х лет, отличное знание языка и экосистемы;\nПонимание многопоточности, параллельных вычислений и широко используемых структур данных и алгоритмов;\nПонимание основных паттернов проектирования;\nУмение работать с контролем версий Git;\nУверенно знаете стек TCP / IP;\nЗнаете RFC стандартны HTTP / WebSockets;\nРаботаете с REST / GraphQL;\nЗнание лучших практик разработки микро-сервисных архитектур, Docker и опыт production релизов совместно с девопс инженерами;\nИмеете опыт написания высоконагруженных систем;\nРаботаете unix-подобными системами;\nОтличное знание SQL и одной из реляционных СУБД.\nСильные навыки решения проблем, желание работать в команде;\n\nБудет плюсом:\nПрофильное высшее образование (математическое или техническое);\nИмеете опыт разработки подобных решений (Ставки на спорт/Gambling/Poker/Trade)\nЗнание Алгоритмов\nОпыт работы с Графовыми базами данных;\n\nSoft skills:\nРешать поставленные задачи максимально эффективно в поставленный срок;\nЯвляться командным разработчиком, слышать других и учитывать чужое мнение;\nПонимать, что не надо делать overhead там, где это не надо;\nБыть самостоятельным и уметь брать на себя ответственность за свои решения;\nСчитать тестирование неотъемлемой частью разработки;\nСпокойно относиться к техническому долгу, так как это нормальный этап в развитии проекта;\n\nНемного о проекте:\nВ связи с расширением нашего портфеля проектов, мы находится в поисках квалифицированных разработчиков ПО.\nМы разрабатываем  высоконагруженный проект, связанный со ставками на sport/e-sport , фактически - это биржа ставок со своими сопутствующими сервисами, в нашем случае упор идет на Algo-trading, bot platform, AI и алгоритмы. Проект очень сложный и интересный, нет Legacy кода, все разрабатывается с 0. Будем рады видеть тебя в своих рядах.\nНаш стек :\nLinux, Go, PostgreSQL, Git, ArangoDB, Tarantool, Kafka, Redis.\n\nМы предлагаем:\nВозможность карьерного и профессионального роста в международной компании;\nРабота по контракту с зарубежной компанией (Мальта);\nВысокий уровень заработной платы;\nБонусы и премии по итогам выполненных задач;\nРазработка ведется по гибким методологиям;\nВозможна удаленная работа;\nГибкий график работы, но без фанатизма (главное - это качественное выполнение задач в сжатые сроки);\nПК - MacBook;\nМолодой профессиональный коллектив.\n\nКонтакты: telegram @FreddyNigma","markup":[{"type":"hashtag","offset":0,"length":9,"data":"вакансия"},{"type":"hashtag","offset":10,"length":7,"data":"Москва"},{"type":"hashtag","offset":18,"length":7,"data":"senior"},{"type":"hashtag","offset":26,"length":3,"data":"Go"},{"type":"hashtag","offset":30,"length":9,"data":"fulltime"},{"type":"hashtag","offset":40,"length":5,"data":"офис"},{"type":"hashtag","offset":46,"length":9,"data":"удаленка"},{"type":"handle","offset":2968,"length":12,"data":"FreddyNigma"}],"date":"2020-06-15T19:50:50+00:00","link":"tg://resolve?domain=gogetajobfeed&post=325","tags":[{"name":"go"},{"name":"git"},{"name":"rest"},{"name":"graphql"},{"name":"docker"},{"name":"unix"},{"name":"sql"},{"name":"linux"},{"name":"postgresql"},{"name":"kafka"},{"name":"redis"}],"cities":[{"code":"moscow"}],"allowsRemote":true}},{"node":{"__typename":"Job","id":"102911442944-1001089317451","title":"Qa engineer","text":"#Москва #вакансия #QA #fulltime #test #office\n\n💻Компания: СберТех.\n🧰Вакансия: QA Engineer.\n🏢Офис: Москва, м. Нагатинская/м. Тульская/ м. Верхние Котлы.\n💰ЗП: от 150 000 Net.\n\n📂Проект: Разработка платформы для управления бизнес-процессами Банка и Цифровой Платформы Sber.\n\n🗓Задачи:\n• Работа в роли тестировщика в scrum команде.\n• Написание, актуализация тестовых сценариев и их прохождение (API, UI).\n• Проведение функционального, регрессионного, интеграционного и других видов тестирования.\n• Регистрация, отслеживание и верификация дефектов.\n• Участие в развитии команды и процессов тестирования.\n\n📌Требования: \n• Опыт написания тестовых сценариев, чек-листов, составления сложных интеграционных сценариев.\n• Знание теории тестирования, понимание видов тестирования и необходимости их применения на различных этапах реализации проекта.\n• Опыт анализа и тестирования требований.\n• Опыт тестирования rest/soap сервисов.\n• Опыт работы с BPM системами, понимание нотации BPMN 2.0.\n\n📎Cтек: REST, XML, XSD, JSON, SQL, BPMN 2.0, Docker, Kubernetes, Openshift, Kafka.\n\n🔰Условия:\n• Оформление ТК РФ.\n• ДМС для сотрудников и скидки на медицинскую страховку для родственников;\n• Высокая белая заработная плата (оклад + годовая премия).\n• Возможность обучения за счет компании, посещения IT-конференций.\n• Бесплатный тренажерный зал на территории офиса.\n• Корпоративная жизнь и спортивные мероприятия.\n\n📩Готов ответить на интересующие вопросы - @Dmiryy","markup":[{"type":"hashtag","offset":0,"length":7,"data":"Москва"},{"type":"hashtag","offset":8,"length":9,"data":"вакансия"},{"type":"hashtag","offset":18,"length":3,"data":"QA"},{"type":"hashtag","offset":22,"length":9,"data":"fulltime"},{"type":"hashtag","offset":32,"length":5,"data":"test"},{"type":"hashtag","offset":38,"length":7,"data":"office"},{"type":"handle","offset":1443,"length":7,"data":"Dmiryy"}],"date":"2020-06-15T19:05:56+00:00","link":"tg://resolve?domain=qa_jobs&post=0","tags":[{"name":"qa"},{"name":"dotnet"},{"name":"rest"},{"name":"soap"},{"name":"xml"},{"name":"xsd"},{"name":"json"},{"name":"sql"},{"name":"docker"},{"name":"kubernetes"},{"name":"kafka"}],"cities":[{"code":"moscow"}],"allowsRemote":false}},{"node":{"__typename":"Job","id":"16948133888-1001110946746","title":"Js разработчик","text":"#вакансия #удаленка #gamedev #геймдев #job #работа #JavaScript #WebGL #AR #8thwall #React #JS  #ReactNative #WebAR \n\n🔹 Название компании: https://twin3d.ru\n🔹 Город и адрес офиса: Москва\n🔹 Формат работы: Удаленка, проектная работа\n🔹 Занятость: На полный рабочий день (2 месяца)\n🔹 Зарплатная вилка: 100 000 - 150 000 руб\n\n🔥 Описание вакансии: React Native + JavaScript Frontend или Fullstack разработчик на игровой WebAR проект на iOS и Android (safari, chrome, opera).\nУдаленно, полный рабочий день, проектно на 2+ месяца.\n\n🛎 Требования:\n- JavaScript, а именно three.js, ar.js, node.js\n- React Native\n- Опыт c AR и мобильными игровыми проектами будет огромным плюсом\n- Опыт работы с Web проектами\n- Опыт сборки в приложение 3D моделей и анимаций\n- Уровень Middle или Senior\n- Опыт коммерческой разработки +3 года\n- Наличие портфолио - ссылок на успешно реализованные проекты\n\n💻 Обязанности:\n- Разработать архитектуру приложения\n- Коммуникация с беком на стороне заказчика\n- Верстка/сборка дизайна приложения (адаптивная)\n- Настройка логики\n- Интеграция в приложение и настройка 3D моделей, анимаций\n- Сопровождение проекта после релиза, до завершения промо кампании (+4 месяца) без активной разработки (будем оплачивать почасово или по задачам)\n\n☎️ Контакты: присылайте ссылки на реализованные проекты и финансовые ожидания в телеграм: @shemetvlad","markup":[{"type":"hashtag","offset":0,"length":9,"data":"вакансия"},{"type":"hashtag","offset":10,"length":9,"data":"удаленка"},{"type":"hashtag","offset":20,"length":8,"data":"gamedev"},{"type":"hashtag","offset":29,"length":8,"data":"геймдев"},{"type":"hashtag","offset":38,"length":4,"data":"job"},{"type":"hashtag","offset":43,"length":7,"data":"работа"},{"type":"hashtag","offset":51,"length":11,"data":"JavaScript"},{"type":"hashtag","offset":63,"length":6,"data":"WebGL"},{"type":"hashtag","offset":70,"length":3,"data":"AR"},{"type":"hashtag","offset":74,"length":8,"data":"8thwall"},{"type":"hashtag","offset":83,"length":6,"data":"React"},{"type":"hashtag","offset":90,"length":3,"data":"JS"},{"type":"hashtag","offset":95,"length":12,"data":"ReactNative"},{"type":"hashtag","offset":108,"length":6,"data":"WebAR"},{"type":"link","offset":139,"length":17,"data":"https://twin3d.ru"},{"type":"handle","offset":1343,"length":11,"data":"shemetvlad"}],"date":"2020-06-15T18:52:35+00:00","link":"tg://resolve?domain=javascript_jobs_feed&post=0","tags":[{"name":"javascript"},{"name":"reactjs"},{"name":"ios"},{"name":"android"},{"name":"safari"},{"name":"nodejs"},{"name":"web"},{"name":"react-native"}],"cities":[{"code":"moscow"}],"allowsRemote":true}},{"node":{"__typename":"Job","id":"16942891008-1001110946746","title":"Js разработчик","text":"Greenatom.ru\n#вакансия #Москва #javascript #React #Typescript #Node.js #Middle #Senior #удаленка #удаленная работа \n\n👨🏼‍💻 Middle/Senior Frontend Developer, Middle/Senior Backend Developer\nГород и адрес офиса: #Москва, БЦ Сириус Парк, метро Нагатинская\n\n✅Формат работы: \nУДАЛЕННАЯ РАБОТА\n\n💻Занятость: полная, гибкое начало трудового дня.\n\nЗарплатная вилка: от 170 000 до 230 000 руб. на руки.\n\n🏢Компания: АО Гринатом\n\nПривет! Мы растём и активно развиваем ряд внутренних проектов: например, корпоративный портал, горячая линия, собственная кадровая система. Мы формируем НЕСКОЛЬКО КОМАНД и ищем классных:\n\n✅фронтенд разработчиков;\n\n✅бэкенд разработчиков. \n\nПроекты в стадии разработки пилота и у тебя есть возможность повлиять на дальнейшее развитие продукта. Если у тебя есть крутые идеи - ты сможешь их здесь реализовать! Откликайся сам и зови друзей! Вирус пройдёт, работа останется!\n\n✅Требуемые знания и навыки:\n- Опыт разработки от двух лет\n- Хорошее знание чистого JS\n- Опыт работы с TypeScript\n- React, MobX, Less/Sass\n- Опыт написания юнит-тестов с помощью Jest, Enzymе очень приветствуется\n\n💡Наш стек:\n      React, TypeScript, Node.js, MobX, Docker\n\nМы работаем по Scrum.\n\n✅Условия:\n- Официальное оформление по ТК, белая зп;\n- Возможности профессионального и карьерного роста;\n- Дополнительные 3 дня к отпуску;\n- Плавающее начало дня;\n- ДМС со стоматологией\n\n☎️Контакты:\nЮлия - YAnZueva@Greenatom.ru","markup":[{"type":"link","offset":0,"length":12,"data":"http://Greenatom.ru"},{"type":"hashtag","offset":13,"length":9,"data":"вакансия"},{"type":"hashtag","offset":23,"length":7,"data":"Москва"},{"type":"hashtag","offset":31,"length":11,"data":"javascript"},{"type":"hashtag","offset":43,"length":6,"data":"React"},{"type":"hashtag","offset":50,"length":11,"data":"Typescript"},{"type":"hashtag","offset":62,"length":5,"data":"Node"},{"type":"hashtag","offset":71,"length":7,"data":"Middle"},{"type":"hashtag","offset":79,"length":7,"data":"Senior"},{"type":"hashtag","offset":87,"length":9,"data":"удаленка"},{"type":"hashtag","offset":97,"length":10,"data":"удаленная"},{"type":"hashtag","offset":212,"length":7,"data":"Москва"},{"type":"link","offset":1392,"length":21,"data":"mailto:YAnZueva@Greenatom.ru"}],"date":"2020-06-15T18:41:43+00:00","link":"tg://resolve?domain=javascript_jobs_feed&post=0","tags":[{"name":"javascript"},{"name":"reactjs"},{"name":"typescript"},{"name":"nodejs"},{"name":"sass"},{"name":"docker"}],"cities":[{"code":"moscow"}],"allowsRemote":true}},{"node":{"__typename":"Job","id":"16939745280-1001110946746","title":"Js developer","text":"#вакансия #JavaScript #Angular \n\nЛокация: Москва м.Достоевская/Новослободская/Менделеевская\nФормат работы: Удаленный формат работы на время карантина/далее офис\nЗанятость: полная\nЗаработная плата: от 140 000 до 240 000 после вычета налогов\nВакансия: Middle/Senior Front Developer\nКомпания: YCLIENTS\nКонтакты: @chernoglazau\n\n⭐️YCLIENTS -облачная ERP система - предоставляет сервисы онлайн-записи, складского учета, расчета зарплат сотрудников, управления уведомлениями и программой лояльности. \nПроекту 10 лет. На сегодняшний день клиентами YCLIENTS являются более 19 тысяч компаний в 400 городах России и стран СНГ. Ежемесячно на платформе совершается более 9 миллионов записей к 160 000 специалистов.\n\n💥Требования:\n    • Отличные знания JavaScript (es.next), TypeScript\n    • Обширный опыт работы с angular (4+) и angularjs, опыт работы с большими проектами\n    • Качественно верстать по mobile-first (Edge и нормальные браузеры)\n    • Опыт работы с cordova/phonegap\n    • Хорошо знаешь как работает git, комфортно себя чувствует в *nix-консоли\n    • Знает, как настраивать webpack\n     \n     💥 Мы работаем командой, и мнение каждого члена для нас имеет значение\n    • Работаем по Agile, в команде есть Scrum-мастер\n    • Отличный Work/Life баланс\n    • Гарантируем, что каждый получит технический буст на этом проекте. Научим, расскажем, главное чтобы Вы были открыты к новым знаниям.\n\nЕсли ты готов к переменам, пиши сразу мне, буду рада пообщаться!","markup":[{"type":"hashtag","offset":0,"length":9,"data":"вакансия"},{"type":"hashtag","offset":10,"length":11,"data":"JavaScript"},{"type":"hashtag","offset":22,"length":8,"data":"Angular"},{"type":"handle","offset":309,"length":13,"data":"chernoglazau"},{"type":"link","offset":751,"length":7,"data":"http://es.next"}],"date":"2020-06-15T18:34:34+00:00","link":"tg://resolve?domain=javascript_jobs_feed&post=0","tags":[{"name":"javascript"},{"name":"angularjs"},{"name":"typescript"},{"name":"mobile"},{"name":"cordova"},{"name":"git"},{"name":"webpack"}],"cities":[{"code":"moscow"}],"allowsRemote":false}},{"node":{"__typename":"Job","id":"71322042368-1001054966032","title":"Ios разработчик","text":"#вакансия #Москва #офис #fulltime #IOS #Middle #Senior \nформат работы: полный день\nлокация: Павелецкая\nЗ.п: от 120 до 260K на руки\nКонтакты: @Mironov_Boris \n\nПРЕДСТОИТ:\n• Разработка нового функционала приложения Rubetek Умный Дом и доработка имеющегося;\n• Участвовать в обсуждении новых задач и давать оценки своим задачам;\n• Участие в процессе архитектурного проектирования;\n• Разработка принципиально нового функционала приложения.\n \nОЖИДАЕМ:\n• Опыт программирования на Swift и Obj C от 2-х лет;\n• Опыт параллельного и многопоточного программирования;\n• Опыт разработки сетевых приложений;\n• Понимание принципов ООП и шаблонов проектирования;\n• Умение разбираться и работать с чужим кодом.\nПлюсом будет опыт работы с веб сокетами, IoT, EspTouch, опыт проектирования клиент-серверного взаимодействия с требованиями к серверной стороне, опыт рефакторинга Obj C и разделения приложения на модули\n \nПРЕДЛАГАЕМ:\n• Современный офис в стиле Loft в шаговой доступности от м. Павелецкая (7–10 минут), БЦ «Симонов Плаза»;\n• Официальное оформление и соблюдение ТК РФ;\n• График работы: понедельник – пятница с гибким началом рабочего дня (приход на работу до 11-00)","markup":[{"type":"hashtag","offset":0,"length":9,"data":"вакансия"},{"type":"hashtag","offset":10,"length":7,"data":"Москва"},{"type":"hashtag","offset":18,"length":5,"data":"офис"},{"type":"hashtag","offset":24,"length":9,"data":"fulltime"},{"type":"hashtag","offset":34,"length":4,"data":"IOS"},{"type":"hashtag","offset":39,"length":7,"data":"Middle"},{"type":"hashtag","offset":47,"length":7,"data":"Senior"},{"type":"bold","offset":71,"length":12,"data":""},{"type":"bold","offset":118,"length":4,"data":""},{"type":"handle","offset":141,"length":14,"data":"Mironov_Boris"},{"type":"bold","offset":158,"length":11,"data":""},{"type":"bold","offset":436,"length":9,"data":""},{"type":"bold","offset":897,"length":12,"data":""}],"date":"2020-06-15T18:26:09+00:00","link":"tg://resolve?domain=mobile_jobs&post=0","tags":[{"name":"mobile"},{"name":"ios"},{"name":"swift"}],"cities":[{"code":"moscow"}],"allowsRemote":false}},{"node":{"__typename":"Job","id":"71319945216-1001054966032","title":"Ios разработчик","text":"#вакансия #Москва #fulltime #swift #middle \nКомпания: Trinity Monsters\nПозиция: middle iOS developer\nЛокация: Россия, Москва, офис в самом центре, у метро Охотный Ряд\nЗанятость: полная \n\nЗП: от 150.000 до 200.000 руб. на руки\n\nНа новый проект (с нуля), нужен разработчик в команду. Мы занимаемся разработкой с 2013 года и входим в ТОП-10 лучших разработчиков Москвы. У нас небольшой коллектив, с которым мы реализуем амбициозные проекты (Nespresso, Азбука Вкуса, Газпром-Нефть, ВТБ, несколько внутренних проектов-стартапов).\n\nИщем разработчиков уровня middle и выше.  \n\nПочему мы:\n⁃ гибкий график\n⁃ отлаженный менеджмент\n⁃ большие проекты \n⁃ работа с разнообразными интересными и амбициозными проектами\n⁃ сложные технические задачи, возможность развития и роста\n⁃ просторный комфортный офис в 2-х минутах от метро Охотный ряд с кухней, чаем, кофе и т.д.\n⁃ возможность влиять на продукт и вносить свои идеи\n⁃ оформление по ТК РФ\n\nДля связи @vicemik","markup":[{"type":"hashtag","offset":0,"length":9,"data":"вакансия"},{"type":"hashtag","offset":10,"length":7,"data":"Москва"},{"type":"hashtag","offset":18,"length":9,"data":"fulltime"},{"type":"hashtag","offset":28,"length":6,"data":"swift"},{"type":"hashtag","offset":35,"length":7,"data":"middle"},{"type":"handle","offset":939,"length":8,"data":"vicemik"}],"date":"2020-06-15T17:52:46+00:00","link":"tg://resolve?domain=mobile_jobs&post=0","tags":[{"name":"mobile"},{"name":"ios"},{"name":"swift"}],"cities":[{"code":"moscow"}],"allowsRemote":false}},{"node":{"__typename":"Job","id":"102896762880-1001089317451","title":"Qa инженер","text":"#вакансия #Москва #работаQA #Выставочная #офис/удаленная\nЗаработная плата от 70 000 - 90 000 с налогами в зависимости от опыта кандидата\nКомпания https://agregatoreat.ru/  \nЗанятость: полная (50/50 офис и удаленно) \nКонтакт: @OlesyaE \nОбязанности:\n•  Тестирование высоконагруженного web-сервиса (в том числе, во время его обновления в нерабочее время - 2 раза в месяц);\n•  Ручное тестирование ПО (функциональное, нагрузочное, интеграционное и др.);\n•  Разработка тестовой документации;\n•  написание Unit тестов\n•  Оценка времени на проверку задач;\n•  Создание баг-репортов;\n•  Взаимодействие с разработчиками, аналитиками, службой технической поддержки;\nТребования:\n•  Опыт работы в области тестирования ПО от 1 года;\n•  Знание жизненного цикла ПО, тест-кейсов, багов и т.д.\n•  Знание различных методов тестирования;\n•  Опыт разработки тестовой документации;\n•  Базовые знания языка SQL;\n•  Приветствуется опыт работы с файлами *.xml, *.json;\n•  Опыт работы с баг-трекинговыми системами (Jira, TFS и т.д.);\n•  Внимательность, ответственность, умение работать в команде;\n•  Самостоятельность, стремление к профессиональному и карьерному росту.","markup":[{"type":"hashtag","offset":0,"length":9,"data":"вакансия"},{"type":"hashtag","offset":10,"length":7,"data":"Москва"},{"type":"hashtag","offset":18,"length":9,"data":"работаQA"},{"type":"hashtag","offset":28,"length":12,"data":"Выставочная"},{"type":"hashtag","offset":41,"length":5,"data":"офис"},{"type":"link","offset":77,"length":15,"data":"tel:70 000 - 90 000"},{"type":"link","offset":146,"length":24,"data":"https://agregatoreat.ru/"},{"type":"handle","offset":225,"length":8,"data":"OlesyaE"}],"date":"2020-06-15T15:21:59+00:00","link":"tg://resolve?domain=qa_jobs&post=0","tags":[{"name":"qa"},{"name":"web"},{"name":"sql"},{"name":"xml"},{"name":"json"},{"name":"tfs"}],"cities":[{"code":"moscow"}],"allowsRemote":true}}]}}},"context":{}}