{"hash":"f5f6bf98bd95e769321482904cbbd488f77922fd","data":{"records":{"totalCount":669,"pageInfo":{"totalPages":67,"currentPage":38},"edges":[{"node":{"id":"26532118528-1001075660570","title":"Php developer","text":"#вакансия #офис #спб #senior\nЛокация: СПб, ул. Рубинштейна\nФормат работы: Office\nЗанятость: Full-time\nЗарплатная вилка: 150 000 - 250 000 (net)\nПозиция: Senior Developer\n\nПроект:\nOndoc.me — современный медицинский сервис для пользователей, интегрированный с клиниками.\nМы разработали платформу, которая объединяет клиники, врачей, пациентов в цифровом пространстве и помогает более эффективно решать задачи заботы о здоровье.\n\nКакие задачи нужно решать:\n- Разработка и развитие бизнес логики проекта и RESTful API\n- Участие в развитии архитектуры проекта\n- Повышение отказоустойчивости и улучшение масштабируемости проекта\n- Написание тестов\n- Работа в команде по agile-методологии\n\nОжидания:\n- Не менее 4 лет коммерческой разработки\n- Уверенное владение PHP (>=7.2)\n- Опыт написания тестов\n- Знание стандартов PSR\n- Знание паттернов проектирования и принципов ООП\n- Опыт разработки API\n- Необходимы базовые навыки JavaScript, HTML, CSS, Git, Bash, SQL\n- Желание писать хороший код, проводить код ревью\n- Умение работать в команде\n\nНаш stack: PHP 7.2, Symfony 3.4, Doctrine, PHPunit 6, Behat 3, GitHub Flow, Ansible, Vagrant, Docker, Redis\n\nМы предлагаем:\n- Полностью белая зарплата;\n- У нас плавающее начало рабочего дня (10-12 утра) и иногда можно работать удаленно;\n- Для нас важно качество продукта, поэтому мы очень много работаем в течение всего года и стремимся обеспечить лучший сервис нашим клиентам. Такой интенсивный ритм сформировал у нас традицию устраивать длинные новогодние каникулы (около 3-4 недель)\nи пр.\n\nКритика, вопросы, резюме - всегда welcome!\nTelegram @ru_spiridonov","markup":[{"type":"hashtag","offset":0,"length":9,"data":"вакансия"},{"type":"hashtag","offset":10,"length":5,"data":"офис"},{"type":"hashtag","offset":16,"length":4,"data":"спб"},{"type":"hashtag","offset":21,"length":7,"data":"senior"},{"type":"bold","offset":153,"length":18,"data":""},{"type":"link","offset":179,"length":8,"data":"http://Ondoc.me"},{"type":"handle","offset":1577,"length":14,"data":"ru_spiridonov"}],"date":"2020-06-22T12:01:32+00:00","link":"tg://resolve?domain=php_jobs&post=25303","tags":[{"name":"php"},{"name":"dotnet"},{"name":"javascript"},{"name":"html"},{"name":"css"},{"name":"git"},{"name":"bash"},{"name":"sql"},{"name":"symfony"},{"name":"doctrine"},{"name":"phpunit"},{"name":"github"},{"name":"ansible"},{"name":"vagrant"},{"name":"docker"},{"name":"redis"}],"cities":[],"allowsRemote":true}},{"node":{"id":"71777124352-1001054966032","title":"Ios разработчик","text":"#вакансия #ios \n\n📱Ищется в распределенную команду Разработчик IOS (Swift). \n\n✅ Формат работы:  удаленка/ meetup в СПб\n\n✅ Занятость: частичная, проектная\n\nПриглашаем Junior/Intermediate разработчика в команду для совместной работы над мобильным приложением (аналог системы охраны AJAX) управление умным домом, аналитика, оповещения и т.п. \n\n👨‍💻Мы - небольшая дружелюбная и веселая команда профессионалов, работаем в сфере автоматизации бизнеса различных направлений. С нами интересно и есть куда вырасти в части навыков, опыта и компетенций. \n\n✅ Условия: \n\n- Выплаты по этапам выполнения проекта \n- Новые задачи и проекты по мере роста компетенций и опыта.\n- Вилка 15000 - 60000р\n\n✅ Контакты:\n\n@vseoto","markup":[{"type":"hashtag","offset":0,"length":9,"data":"вакансия"},{"type":"hashtag","offset":10,"length":4,"data":"ios"},{"type":"link","offset":667,"length":13,"data":"tel:15000 - 60000"},{"type":"handle","offset":696,"length":7,"data":"vseoto"}],"date":"2020-06-22T11:48:13+00:00","link":"tg://resolve?domain=mobile_jobs&post=68452","tags":[{"name":"mobile"},{"name":"ios"},{"name":"swift"},{"name":"ajax"}],"cities":[],"allowsRemote":true}},{"node":{"id":"2238709760-1001134745498","title":"Devops engineer","text":"#вакансия #devops #удаленка #fulltime #remote \n\nВакансия: DevOps Engineer\nЛокация: Казань\nФормат работы: офис или удаленка\nЗП: от 100к до 170к\n\n🔸Современная IT-компания, работающая на стыке банковской, страховой, инвестиционной и страховой сфер, сейчас находится в поиске DevOps Engineer.\n\nОфисы компании расположены в Казани и Иннополисе, также есть возможность работать удаленно.\n\nКомпания занимается изучением перспективных направлений в области финансовых продуктов и сервисов, и проверяет их на практике.\n\n🔸На текущий момент компания запускает очень крупный проект, задачей которого является трансформация архитектуры бизнеса и переезд всех процессов на новую технологическую платформу.\n\nКомпания может рассматривать лишь граждан РФ.\n\n🔹Требования\n— Опыт работы с ОС Linux;\n— Опыт работы в роли DevOps Engineer не менее 2 лет;\n— Знание скриптовых языков (Bash);\n— CI (Teamcity), CD (Octopus);\n— Опыт работы с системами мониторинга (SCOM \\ Zabbix).\n— Опыт работы с NoSQL СУБД;\n— Веб-серверы и балансировщики нагрузки (Apache/nginx haproxy).\n\n🔹**Контакты:**  \nКА: Lucky hunter\ne-mail: maria@luckyhunter.io\ntelegram: @Maria_Rey\n\n—\n\n👉 Обсуждение вакансии в чате @devops_jobs","markup":[{"type":"hashtag","offset":0,"length":9,"data":"вакансия"},{"type":"hashtag","offset":10,"length":7,"data":"devops"},{"type":"hashtag","offset":18,"length":9,"data":"удаленка"},{"type":"hashtag","offset":28,"length":9,"data":"fulltime"},{"type":"hashtag","offset":38,"length":7,"data":"remote"},{"type":"link","offset":1091,"length":20,"data":"mailto:maria@luckyhunter.io"},{"type":"handle","offset":1122,"length":10,"data":"Maria_Rey"},{"type":"handle","offset":1167,"length":12,"data":"devops_jobs"}],"date":"2020-06-22T11:45:33+00:00","link":"tg://resolve?domain=devops_jobs_feed&post=2135","tags":[{"name":"linux"},{"name":"bash"},{"name":"nosql"},{"name":"apache"},{"name":"nginx"}],"cities":[{"code":"kazan"}],"allowsRemote":true}},{"node":{"id":"71776075776-1001054966032","title":"Mobile разработчик","text":"#вакансия #ReactNative #JavaScript #Краснодар #Ижевск #Екатеринбург #fulltime                                                                                                                                                                                                                                                                                                                                                                                                                                                                                                                                                                                                                                                                                                                                                                                                                                                                                                                                                                                                                                                                        \n\nГотовы обсудить удаленное сотрудничество, помощь при релокации, работу в любом из наших офисов.\n\n🔊Fastdev – шведская аутсорсинговая компания, помогает заказчикам с 2007 г.                                                                                                                                                                                                         Портфель проектов – интересный и разнообразный, как и экспертиза сотрудников, которую мы каждый день стремимся увеличить.\nНаша дружная сильная команда работает в Ижевске, Екатеринбурге и Краснодаре, головной офис компании - в Стокгольме.\nСейчас мы в поиске классного разработчика React Native на один из наших проектов.\n\n📝 Какой проект?\nРазработка для крупнейшего международной производителя швейных машин в Европе. Эти устройства – маленькие роботы, с приложениями для автоматизации всего процесса изготовления изделия, начиная от создания эскиза.\nУстройства ориентированы на широкого пользователя, в разработку активно внедряются вычислительные сети (TiO).\n\nВ поиске классного разработчика React Native на один из наших проектов для крупнейшего международной производителя швейных машин в Европе. \n                                                                                                                                                                                                              \nХорошо вольется в проект middle+ разработчик на React Native, c хорошим пониманием кросплатформенной разработки.\n\n💥  Что получает наш будущий сотрудник? \nО наших проектах и только зарубежных заказчиках можно рассказывать много - приходите в гости и приятно пообщайтесь с командой за чашкой кофе.\nЕсть все условия для развития: бесплатные занятия английским языком в офисе компании, конференции два раза в год для каждого, Performance review.\nДоход 100-150К net (для ориентира), каждый квартал 15% прибыли Fastdev делится между сотрудниками.\nУ нас гибкий график в комфортном офисе в центре, с отличным видом из окна.\nКомандировки за рубеж и возможность релокации в Европу – без этого никак, ведь компания европейская. \nОформляем в штат, все прозрачно, ДМС и компенсация спорта.\nКаждый год проводим выездной тимбилдинг всей компанией (РФ, Азия, Европа) – воспоминаний хватает до следующей встречи!                                                                                                                                                                                                                                                                                                                                                                                                                                                                                             \n\nПо вопросам и резюме пишите @Lizhen0305 или elizaveta.yakimova@fastdev.se","markup":[{"type":"hashtag","offset":0,"length":9,"data":"вакансия"},{"type":"hashtag","offset":10,"length":12,"data":"ReactNative"},{"type":"hashtag","offset":23,"length":11,"data":"JavaScript"},{"type":"hashtag","offset":35,"length":10,"data":"Краснодар"},{"type":"hashtag","offset":46,"length":7,"data":"Ижевск"},{"type":"hashtag","offset":54,"length":13,"data":"Екатеринбург"},{"type":"hashtag","offset":68,"length":9,"data":"fulltime"},{"type":"handle","offset":3895,"length":11,"data":"Lizhen0305"},{"type":"link","offset":3911,"length":29,"data":"mailto:elizaveta.yakimova@fastdev.se"}],"date":"2020-06-22T11:39:29+00:00","link":"tg://resolve?domain=mobile_jobs&post=68451","tags":[{"name":"mobile"},{"name":"javascript"},{"name":"reactjs"},{"name":"dotnet"},{"name":"react-native"}],"cities":[{"code":"krasnodar"},{"code":"izhevsk"}],"allowsRemote":true}},{"node":{"id":"103429439488-1001089317451","title":"Qa engineer","text":"#вакансия #удалённо #QAEngineer #QA \n\n🌈Классная компания ищет в команду QA Engineer для тестирования мобильного приложения ^-^\n\n\n💻Формат работы: удалённо\n🏢Компания: #Magic\n⌛️Занятость: полный день \n💰ЗП вилка: до 200 000\n\n💼Требования:)\n-опыт от 3-х лет;\n- опыт мануального тестирования мобильных приложений;\n- опыт тестирования браузерных бизнес-приложений\n- опыт тестирования приложений со сложными use-case’ами параллельно на нескольких девайсах\n- уверенное знание iOS/Android-систем\n- базовый, но уверенный, уровень английского языка для чтения технической/продуктовой документации\n- умение работать без документации\n\nРассматриваем кандидатов со своей фермой девайсов)\n\n🧜🏼‍♀️Telegram: @Gleaming_Darkness","markup":[{"type":"hashtag","offset":0,"length":9,"data":"вакансия"},{"type":"hashtag","offset":10,"length":9,"data":"удалённо"},{"type":"hashtag","offset":20,"length":11,"data":"QAEngineer"},{"type":"hashtag","offset":32,"length":3,"data":"QA"},{"type":"bold","offset":132,"length":14,"data":""},{"type":"hashtag","offset":168,"length":6,"data":"Magic"},{"type":"bold","offset":177,"length":10,"data":""},{"type":"bold","offset":203,"length":9,"data":""},{"type":"handle","offset":694,"length":18,"data":"Gleaming_Darkness"}],"date":"2020-06-22T11:32:25+00:00","link":"tg://resolve?domain=qa_jobs&post=0","tags":[{"name":"qa"},{"name":"ios"},{"name":"android"}],"cities":[],"allowsRemote":true}},{"node":{"id":"17109614592-1001110946746","title":"Js разработчик","text":"#вакансия #удаленно #fullstack #JavaScript #NodeJS #Vue #middle #senior\n\nГород: г. Москва, Сколково, б-р Большой\nФорма работы: удаленка\nЗанятость: полная\nЗарплатная вилка: от 120000 до 200000 рублей\nНазвание компании: ADMON\n\nВ связи с расширением штата, компания ADMON приглашает Middle/Senior Full-stack JavaScript-разработчиков, готовых стать полноценными членами нашей команды на удаленной основе или в Новосибирском офисе. ADMON – одна из ведущих российских компаний по предотвращению и расследованию мошенничества в сфере рекламы в Интернете и на мобильных устройствах с использованием высоких технологий. Основные направления деятельности компании: мониторинг и предотвращение мошенничества, аудит рекламных кампаний, разработка инновационных программных продуктов по мониторингу, обнаружению и предотвращению возникающих видов мошенничества.\n\nСтек технологий:\nNode.JS, Vue, GraphQl, Jest, Redis, Clickhouse, PostgreSQL, Docker.\n\nЧто используем в работе:\n    - Jira (Kanban), Confluence;\n   - Храним код в Gitlab, тут же CI/CD;\n    -Практикуем code review, политику частых релизов, гибкие методологии разработки;\n    -Мониторим состояние приложений с помощью: Zabbix, Grafana.\n\nВ задачи будет входить:\n    - Улучшать имеющийся функционал и разрабатывать новый (Система нотификаций, Обработка платежей, Алгоритмы атрибуции, Ads Crawler и т.д.);\n    - Писать тесты и рефакторить кодовую базу;\n    - Участвовать в принятии архитектурных решений;\n    - Работать как в составе команды, так и в одного над небольшими проектами;\n    - Участвовать в коммуникации с командой;\n    - Быть инициативным и предлагать свои идеи, в том числе, если это касается использования новых технологий — проводить code review.\n\nЧто мы предлагаем:\n    - Удаленная работа;\n    - Оформление по ТК РФ;\n    - Полностью белая ЗП;\n    -  График работы 5/2;\n    - Можно выбрать свой график работы;\n    - Наставничество по предметной области и на равной позиции;\n    - Возможность работать как в составе команды, так и возглавить со временем свое направление — мы готовы обсуждать любые ваши идеи. \n\n Контакты:@juliajudina2810\n Резюме можно присылать на почту: hr@resurs-hr.ru\n\n—\n\n👉 Обсуждение вакансии в чате @javascript_jobs","markup":[{"type":"hashtag","offset":0,"length":9,"data":"вакансия"},{"type":"hashtag","offset":10,"length":9,"data":"удаленно"},{"type":"hashtag","offset":20,"length":10,"data":"fullstack"},{"type":"hashtag","offset":31,"length":11,"data":"JavaScript"},{"type":"hashtag","offset":43,"length":7,"data":"NodeJS"},{"type":"hashtag","offset":51,"length":4,"data":"Vue"},{"type":"hashtag","offset":56,"length":7,"data":"middle"},{"type":"hashtag","offset":64,"length":7,"data":"senior"},{"type":"handle","offset":2091,"length":16,"data":"juliajudina2810"},{"type":"link","offset":2142,"length":15,"data":"mailto:hr@resurs-hr.ru"},{"type":"handle","offset":2192,"length":16,"data":"javascript_jobs"}],"date":"2020-06-22T11:12:30+00:00","link":"tg://resolve?domain=javascript_jobs_feed&post=16317","tags":[{"name":"javascript"},{"name":"nodejs"},{"name":"vuejs"},{"name":"graphql"},{"name":"redis"},{"name":"postgresql"},{"name":"docker"},{"name":"gitlab"}],"cities":[{"code":"moscow"}],"allowsRemote":true}},{"node":{"id":"71772930048-1001054966032","title":"Mobile разработчик","text":"#вакансия #mobile #Москва #android #kotlin \nГород и адрес офиса: Москва, м. Технопарк\nФормат работы: офис (пока удаленно)\nЗанятость: полная, гибкий график\nЗП:  от 180к до 250к\n\nМы - Stream, дочка МТС, IT департамент для продуктов МТС. Делаем классные и реально удобные продукты для пользователей. \n\nCейчас ищем Senior Android в продукт:\n\nМТС Live - Сервис, который позволит посетителям мероприятий получать эксклюзивный пользовательский опыт во время концертов и фестивалей, получать привилегии от МТС, быстрее и проще получать доступ к услугам на площадке.\n\nПроект новый, написание будет с 0. Выбор технологий уже за новым сотрудником. \n \nОт нас:\n- \"белая\" заработная плата с полугодовыми премиями;\n- ДМС со стоматологией + страховка;\n- корпоративная мобильная связь;\n- обучение и посещение профильных конференций.\n\nПрисоединяйся к команде, будет интересно!\n\nО компании: stream.ru\nПодробности в личке (@tanya2332)","markup":[{"type":"hashtag","offset":0,"length":9,"data":"вакансия"},{"type":"hashtag","offset":10,"length":7,"data":"mobile"},{"type":"hashtag","offset":18,"length":7,"data":"Москва"},{"type":"hashtag","offset":26,"length":8,"data":"android"},{"type":"hashtag","offset":35,"length":7,"data":"kotlin"},{"type":"bold","offset":182,"length":6,"data":""},{"type":"bold","offset":311,"length":14,"data":""},{"type":"bold","offset":338,"length":8,"data":""},{"type":"link","offset":872,"length":9,"data":"http://stream.ru"},{"type":"handle","offset":903,"length":10,"data":"tanya2332"}],"date":"2020-06-22T11:11:16+00:00","link":"tg://resolve?domain=mobile_jobs&post=68448","tags":[{"name":"mobile"},{"name":"android"},{"name":"kotlin"}],"cities":[{"code":"moscow"}],"allowsRemote":true}},{"node":{"id":"17108566016-1001110946746","title":"Js разработчик","text":"#вакансия #javascript #react #typescript #nodejs #frontend #middle #senior\n\nКомпания: #Mетрквадратный www.m2.ru\nЛокация: #москва м.Белорусская\nФормат работы: офис (удаленная до сентября) \nЗанятость: полная\nЗ/п: 200к - 260к руб. на руки\nКонтакты: @maxdmitrov\n\nЭто экосистема недвижимости, которая помогает клиентам решать любые жилищные вопросы: от поиска вариантов и оформления сделки до организации ремонта и переезда в новую квартиру. Мы также создаем решения для партнёров и профессиональных участников рынка недвижимости.\n\nЧем предстоит заниматься:\n\n•  разрабатывать один из продуктов жилищной экосистемы;\n•  прорабатывать задачи с начального этапа (декомпозиция, проработка архитектуры, демо с владельцем продукта);\n•  проводить код ревью;\n•  покрывать код unit тестами, помогать тестировщикам в написании e2e тестов;\n•  оптимизировать рендеринг и скорость загрузки страниц;\n•  разрабатывать продуктовые компоненты, используя общие UI библиотеки, и помогать в развитии этих библиотек.\n\nЧего мы ждем:\n\n• Javascript(ES6);\n• React + MobX/Redux;\n• HTML;\n• CSS;\n• Опыт кроссбраузерной верстки.\n\nБудет плюсом:\n\n• TypeScript;\n• знание протокола HTTP/HTTPS, websockets, опыт работы с REST API;\n• опыт работы с react native;\n• опыт в бекэнде на различных языках программирования;\n• опыт профилирования, оптимизации и рефакторинга кода;\n• опыт написания тестов.\n\nМы используем: \n\n•  TypeScript + React + MobX + Gatsby;\n•  NestJS + gRPC + ProtoBuf (мидл-слой, управляющий UI и обращающийся к API бэк-энда);\n•  Micro Frontend Service;\n•  GitLab (CI/CD);\n•  Yarn + Lerna;\n•  Webpack/Rollup.\n\nМы предлагаем: \n\n•  современный стек технологий;\n•  возможность влиять на архитектуру и сразу видеть результат своей работы;\n•  белая конкурентная ЗП, официальное оформление;\n•  гибкий график работы;\n•  ДМС, компенсация фитнеса, льготная ставка по ипотеке;\n•  комфортный офис в БЦ «Белая площадь» (минута от метро): лаундж-зоны, бариста, фрукты.\n\n—\n\n👉 Обсуждение вакансии в чате @javascript_jobs","markup":[{"type":"hashtag","offset":0,"length":9,"data":"вакансия"},{"type":"hashtag","offset":10,"length":11,"data":"javascript"},{"type":"hashtag","offset":22,"length":6,"data":"react"},{"type":"hashtag","offset":29,"length":11,"data":"typescript"},{"type":"hashtag","offset":41,"length":7,"data":"nodejs"},{"type":"hashtag","offset":49,"length":9,"data":"frontend"},{"type":"hashtag","offset":59,"length":7,"data":"middle"},{"type":"hashtag","offset":67,"length":7,"data":"senior"},{"type":"hashtag","offset":86,"length":15,"data":"Mетрквадратный"},{"type":"link","offset":102,"length":9,"data":"http://www.m2.ru"},{"type":"hashtag","offset":121,"length":7,"data":"москва"},{"type":"handle","offset":246,"length":11,"data":"maxdmitrov"},{"type":"handle","offset":1964,"length":16,"data":"javascript_jobs"}],"date":"2020-06-22T11:08:34+00:00","link":"tg://resolve?domain=javascript_jobs_feed&post=16316","tags":[{"name":"javascript"},{"name":"reactjs"},{"name":"typescript"},{"name":"nodejs"},{"name":"redux"},{"name":"html"},{"name":"css"},{"name":"rest"},{"name":"gitlab"},{"name":"webpack"},{"name":"react-native"}],"cities":[{"code":"moscow"}],"allowsRemote":true}},{"node":{"id":"17107517440-1001110946746","title":"Js разработчик","text":"#вакансия #работа #удаленка #backend #node #nodejs #remote\nГород и адрес офиса: Москва, Савеловская\nФормат работы: удаленка\nЗанятость: полная || проектная\nЗарплатная вилка: 100-160 т.р.\n\nОписание вакансии: \nИщем опытного backend-разработчика node.js для разработки высоконадежных транзакционных сервисов интеграции с различными системами\n\nТребования:\n• Опыт работы с унаследованными системами\n• Знание PHP на уровне понимания и чтения кода будет плюсом\n• Знание и понимание работы сетевых протоколов TCP/IP, HTTP, SMTP, IMAP\n• Знание и понимание языка JavaScript и связанных с ним технологий и фреймворков\n• Опыт разработки серверных приложений\n• Понимание основных процессов разработки, умение работать в команде\n• Понимание принципов ООП, подходов в программировании и требований к транзакционным системам\n\nЗадачи:\n• Разработка высоконадежных транзакционных сервисов интеграции с различными системами\n• Поддержка и модернизация существующих систем\n\nНазвание компании: TechPlatforms (https://techpl.net)\nКонтакты:@desych79","markup":[{"type":"hashtag","offset":0,"length":9,"data":"вакансия"},{"type":"hashtag","offset":10,"length":7,"data":"работа"},{"type":"hashtag","offset":18,"length":9,"data":"удаленка"},{"type":"hashtag","offset":28,"length":8,"data":"backend"},{"type":"hashtag","offset":37,"length":5,"data":"node"},{"type":"hashtag","offset":43,"length":7,"data":"nodejs"},{"type":"hashtag","offset":51,"length":7,"data":"remote"},{"type":"link","offset":985,"length":18,"data":"https://techpl.net"},{"type":"handle","offset":1014,"length":9,"data":"desych79"}],"date":"2020-06-22T11:06:17+00:00","link":"tg://resolve?domain=javascript_jobs_feed&post=16315","tags":[{"name":"javascript"},{"name":"nodejs"},{"name":"php"},{"name":"smtp"},{"name":"dotnet"}],"cities":[{"code":"moscow"}],"allowsRemote":true}},{"node":{"id":"17105420288-1001110946746","title":"Js программист","text":"#вакансия #frontend #удаленка #fulltime #js #ts \n\n В финтех стартап YouHodler.com требуется талантливый frontend программист \n\n- 5/2 круглый год, без официальный праздников РФ, но отпуск 6 недель - даты выбираешь сам по договоренности с командой\n- зарплата в $\n- полностью удаленная работа (с коммандировками за счет компании)\n- основное рабочее время с 9:00 до 18:00 CET с понедельника по пятницу\n- несколько раз в год общий слет за счет компании в красивых местах нашей планеты\n\nФормат работы: удаленка\n\nЗанятость: полная\n\nЗарплатная вилка: от 2500 до 3000 USD\n\nОписание вакансии:\nК нам в компанию требует таланливый фронтенд программист для работы над следующей версией app.youhodler.com и https://apps.apple.com/app/id1469351696\nМного интересных и сложных задач задач на любой вкус: от работы с потоком real-time данных до анимирования графиков для работы с 60fps на всех плафмах (web, react-native), оптимизации статического web сайта, настройки pwa и так далее\n\nТребуется:\n- typescript;\n- react;\n- state-management (redux / mobx);\n\nБудет плюсом:\n- react-native;\n- styled-components / styled-system;\n\nhttps://www.youhodler.com/\nКонтакты: @acusticdemon, renat@youhodler.com","markup":[{"type":"hashtag","offset":0,"length":9,"data":"вакансия"},{"type":"hashtag","offset":10,"length":9,"data":"frontend"},{"type":"hashtag","offset":20,"length":9,"data":"удаленка"},{"type":"hashtag","offset":30,"length":9,"data":"fulltime"},{"type":"hashtag","offset":40,"length":3,"data":"js"},{"type":"hashtag","offset":44,"length":3,"data":"ts"},{"type":"link","offset":68,"length":13,"data":"http://YouHodler.com"},{"type":"link","offset":673,"length":17,"data":"http://app.youhodler.com"},{"type":"link","offset":693,"length":39,"data":"https://apps.apple.com/app/id1469351696"},{"type":"link","offset":1106,"length":26,"data":"https://www.youhodler.com/"},{"type":"handle","offset":1143,"length":13,"data":"acusticdemon"},{"type":"link","offset":1158,"length":19,"data":"mailto:renat@youhodler.com"}],"date":"2020-06-22T11:05:05+00:00","link":"tg://resolve?domain=javascript_jobs_feed&post=16313","tags":[{"name":"javascript"},{"name":"web"},{"name":"reactjs"},{"name":"typescript"},{"name":"redux"},{"name":"react-native"}],"cities":[],"allowsRemote":true}}]}},"context":{}}