{"hash":"f34fd2c444a074f4e0e67d525015a008ef8e766f","data":{"records":{"id":"postgresql","name":"postgresql","belongsTo":{"totalCount":132,"pageInfo":{"totalPages":14,"currentPage":10},"edges":[{"node":{"__typename":"Job","id":"1910505472-1001134745498","title":"Devops engineer","text":"#вакансия DevOps Engineer \n#vacancy #job #вакансия #работа #кипр #cyprus #fulltime #relocate #релокация #DevOps #linux #golang #ClickHouse #PostgreSQL #Kafka \n \nКомпания: TrafficStars \nГород: Лимасcол, Кипр \nФормат работы: офис \nЗанятость: полная \nЗарплатная вилка: от 2500 до 3500 евро на руки \n \nОписание вакансии:  \nDevOps Engineer в кипрскую ad-network компанию TrafficStars, релокация в г. Лимасcол \n \nНаш базовый стек: \n•Linux; \n•Golang, Python; \n•PostgreSQL, ClickHouse, Kafka, ELK, Redis; \n•Consul. \n \nЗадачи: \n•Развертывание и поддержка IT-инфраструктуры проекта в ЦОДах Европы, США и Азии; \n•Сопровождение кластеров PostgreSQL, ClickHouse и Kafka; \n•Автоматизация процессов деплоя конфигурации (Ansible); \n•Настройка дев процессов CI на Atlassian стеке (JIRA, Bitbucket, Bamboo) или аналоге; \n•Взаимодействие с хостинг-провайдерами (админы в саппорте, тикеты, постановка и контроль задач по серверам). \n \nБольшой плюс в опыте: \n•Настройка и мониторинг БД и разрабатываемых сервисов; \n•Репликация, бекапы, шардинг; \n•Установка и настройка среды разработки, тестирования и деплоя; \n•Оптимизация всех сервисов под highload (каждые сутки сохраняем более 4 млрд. новых событий); \n•Настройка и поддержка DNS, CDN, monitoring и прочих сервисов; \n•Опыт работы с контейнеризацией (Docker/LXC/Kubernetes); \n•Опыт работы с системами контроля версий. \n \nМы предлагаем: \n•Релокационный пакет: \n- покупаем билеты до Кипра тебе и твоей семье; \n- встречаем в аэропорту; \n- оформляем рабочую визу; \n- оплачиваем жильё на первый месяц; \n•Медицинскую страховку для тебя и твоей семьи; \n•50% компенсация затрат на детский сад и школу; \n•Оплачиваемую мобильную связь; \n•Бесплатные и вкусные завтраки, обеды и напитки; \n•Фрукты, снэки и другие вкусняшки в офисе; \n•Рабочий компьютер/ноутбук на выбор: Mac или PC; \n•Корпоративные скидки (кафе, магазины и др); \n•Бесплатные абонементы в спортзал и занятия йогой; \n•Уроки английского и греческого языка; \n•Корпоративные вечеринки, тимбилдинги; \n•Корпоративные митапы и конференции; \n•Интересные проекты; \n•Приятную рабочую атмосферу. \n  \nПрисоединяйся к нашей молодой и талантливой команде! \n \nКонтакты: +35795588440 \ntelegram: sofia_tomashevich \ne-mail: sofia@trafficstars.com\n\n—\n\n👉 Обсуждение вакансии в чате @devops_jobs","markup":[{"type":"hashtag","offset":0,"length":9,"data":"вакансия"},{"type":"hashtag","offset":27,"length":8,"data":"vacancy"},{"type":"hashtag","offset":36,"length":4,"data":"job"},{"type":"hashtag","offset":41,"length":9,"data":"вакансия"},{"type":"hashtag","offset":51,"length":7,"data":"работа"},{"type":"hashtag","offset":59,"length":5,"data":"кипр"},{"type":"hashtag","offset":65,"length":7,"data":"cyprus"},{"type":"hashtag","offset":73,"length":9,"data":"fulltime"},{"type":"hashtag","offset":83,"length":9,"data":"relocate"},{"type":"hashtag","offset":93,"length":10,"data":"релокация"},{"type":"hashtag","offset":104,"length":7,"data":"DevOps"},{"type":"hashtag","offset":112,"length":6,"data":"linux"},{"type":"hashtag","offset":119,"length":7,"data":"golang"},{"type":"hashtag","offset":127,"length":11,"data":"ClickHouse"},{"type":"hashtag","offset":139,"length":11,"data":"PostgreSQL"},{"type":"hashtag","offset":151,"length":6,"data":"Kafka"},{"type":"link","offset":2142,"length":12,"data":"tel:+35795588440"},{"type":"link","offset":2193,"length":22,"data":"mailto:sofia@trafficstars.com"},{"type":"handle","offset":2250,"length":12,"data":"devops_jobs"}],"date":"2020-03-16T16:17:55+00:00","link":"tg://resolve?domain=devops_jobs_feed&post=1822","tags":[{"name":"linux"},{"name":"go"},{"name":"postgresql"},{"name":"kafka"},{"name":"python"},{"name":"redis"},{"name":"ansible"},{"name":"dns"},{"name":"docker"},{"name":"kubernetes"}],"cities":[{"code":"sofia"}],"allowsRemote":false}},{"node":{"__typename":"Job","id":"1909456896-1001134745498","title":"Devops инженер","text":"Всем привет\nПопробуем снова)\n\n#вакансия\nМосква, Бауманская\nРабота в офисе (Классный, современный)\nПолная занятость\nот 150.000 (На руки, после налогов) до 170.000\nМы ищем крутого DevOps в нашу команду. HomeApp быстро растёт, и нам необходим человек, который будет следить за тем, чтобы всё не рухнуло в один момент. \n\nМы ожидаем, что ты:\n\nумеешь администрировать linux-системы;\nзнаешь как работают облачные системы;\nхорошо разбираешься в Docker и Kubernetes;\nзнаком с Google Cloud;\nзнаешь как разграничивать права доступа к инфраструктуре для разных ролей в системе;\nпонимаешь как настраивать интеграцию Jira/GitHub/Teamcity и других частей CI/CD;\nзнаешь Python, GO или PHP на базовом уровне;\nможешь развернуть VPN для доступа ко внутренним сервисам;\nхорошо разбираешься в настройке PostgreSQL, RabbitMQ, nginx.\nЧто у нас внутри:\nмы пишем на PHP7 и Symfony 4;\n•  храним данные в PostgreSQL, Google Cloud Storage;\n•  используем Docker как основу для сборки релизов;\n•  запускаем релизы в Google Kubernetes Engine;\n•  пишем unit-тесты и функциональные тесты в Codeception;\n•  придерживаемся scrum;\n•  планируем задачи в Jira;\n•  держим код на GitHub;\n\n\nПодробнее можно ознакомиться здесь:\n\nhttps://career.habr.com/vacancies/1000056382\n\nHomeApp\nhomeapp.ru\n\nПисать можно в телеграмм: \n@SugarLeps\n\nИли на почту: \nEvgeniy.kozlov@homeapp.ru\n\n—\n\n👉 Обсуждение вакансии в чате @devops_jobs","markup":[{"type":"hashtag","offset":30,"length":9,"data":"вакансия"},{"type":"link","offset":1187,"length":44,"data":"https://career.habr.com/vacancies/1000056382"},{"type":"link","offset":1241,"length":10,"data":"http://homeapp.ru"},{"type":"handle","offset":1280,"length":10,"data":"SugarLeps"},{"type":"link","offset":1307,"length":25,"data":"mailto:Evgeniy.kozlov@homeapp.ru"},{"type":"handle","offset":1367,"length":12,"data":"devops_jobs"}],"date":"2020-03-16T15:00:41+00:00","link":"tg://resolve?domain=devops_jobs_feed&post=1821","tags":[{"name":"linux"},{"name":"docker"},{"name":"kubernetes"},{"name":"cloud"},{"name":"github"},{"name":"python"},{"name":"php"},{"name":"postgresql"},{"name":"rabbitmq"},{"name":"nginx"},{"name":"symfony"},{"name":"google-cloud-platform"},{"name":"google-cloud-storage"}],"cities":[{"code":"moscow"}],"allowsRemote":false}},{"node":{"__typename":"Job","id":"1908408320-1001134745498","title":"Devops инженер","text":"#вакансия #Москва #Калиниград #Linux  #DevOps\n#remote #удалёнка #офис \nГород: Москва, Калиниград\nЗанятость: полная\nФормат работы: офис или удаленка\nЗарплатная вилка: от 100 000 до 150 000\nОписание вакансии:\nЧто нужно делать?\n\n-Автоматизация рутинных процессов;\n-Поддержка и развитие CI/CD\n-Настройка систем непрерывного мониторинга, сбора логов и т.д.\n-Развертывание окружений (dev, test, prod)\n-Разбор критических ситуаций, оперативное устранение выявленных неисправностей\n-Активное участие при прорабатывании новой архитектуры продукта, внедрение новейших сервисов и технологий\nТребования:\n\n-Опыт работы с Docker и (желательно) с системами оркестрации (swarm/kubernetes/openshift)\n-Опыт работы с Web-стеком PHP/NGINX/PostgreSQL\n-Опыт настройки, кластеризации rabbitMQ, PostgreSQL, ElasticSearch будет большим плюсом\n-Опыт работы с SCM (Ansible, Puppet) будет большим плюсом\n-Опыт работы с continuous integration, build&release management\n-Знание систем контроля версий. У нас Git (Gitlab)\n-Scripting (PowerShell, bash/python)\nНазвание компании: Cognitive Technologies \nКонтакты:  @codefather_ru можно в https://kaliningrad.hh.ru/vacancy/36234203\nhttps://kaliningrad.hh.ru/vacancy/36234204\n\n—\n\n👉 Обсуждение вакансии в чате @devops_jobs","markup":[{"type":"hashtag","offset":0,"length":9,"data":"вакансия"},{"type":"hashtag","offset":10,"length":7,"data":"Москва"},{"type":"hashtag","offset":18,"length":11,"data":"Калиниград"},{"type":"hashtag","offset":30,"length":6,"data":"Linux"},{"type":"hashtag","offset":38,"length":7,"data":"DevOps"},{"type":"hashtag","offset":46,"length":7,"data":"remote"},{"type":"hashtag","offset":54,"length":9,"data":"удалёнка"},{"type":"hashtag","offset":64,"length":5,"data":"офис"},{"type":"handle","offset":1082,"length":14,"data":"codefather_ru"},{"type":"link","offset":1105,"length":42,"data":"https://kaliningrad.hh.ru/vacancy/36234203"},{"type":"link","offset":1148,"length":42,"data":"https://kaliningrad.hh.ru/vacancy/36234204"},{"type":"handle","offset":1225,"length":12,"data":"devops_jobs"}],"date":"2020-03-16T14:58:57+00:00","link":"tg://resolve?domain=devops_jobs_feed&post=1820","tags":[{"name":"linux"},{"name":"docker"},{"name":"kubernetes"},{"name":"web"},{"name":"php"},{"name":"nginx"},{"name":"postgresql"},{"name":"rabbitmq"},{"name":"elasticsearch"},{"name":"ansible"},{"name":"git"},{"name":"gitlab"},{"name":"powershell"},{"name":"bash"},{"name":"python"},{"name":"continuous-integration"}],"cities":[{"code":"moscow"},{"code":"kaliningrad"}],"allowsRemote":true}},{"node":{"__typename":"Job","id":"1907359744-1001134745498","title":"Devops инженер","text":"#вакансия #Москва #офис #Linux #Unix #DevOps\nВ крупный банк ищем DevOps инженера\n🎱 Город и адрес офиса: Москва\n🎱 Формат работы: офис, fulltime\n🎱 Занятость: полная \n🎱 Условия: зп от 170 до 250К. ДМС, фитнес, английский язык. \n\n🎱 Задачи:\nCопровождение проектов на микросервисной архитектуре.\n\n🎱 Ожидания:\nОпыт работы инженером DEVOPS или ведущим системным инженером/администратором;\nЗнание Linux-подобных систем, умение настраивать Nginx , Apache HTTPD, HAProxy;\nЗнание сетевых технологий(TCP/IP, HTTP(S), TLS… );\nПонимание технологии виртуализации серверов;\nЗнание Docker на продвинутом уровне;\nБазовое знакомство с: Prometheus-Grafana/Zabbix,Elasticsearch-Logstash-Kibana(ELK);\nОпыт администрирования в production средах оркестраторов микросервисов: Kubernetes или OpenShift;\nОпыт построения процессов CI/CD для микросервисов с использованием GitLab CI;\nОпыт использования Helm для деплоя микросервисов, способность читать, понимать и при необходимости написать свои Helm-чарты;\nОпыт работы с базами данных PostgreSQL,MongoDB.\n\n🎱 Контакты: @kornet_croft\n\n—\n\n👉 Обсуждение вакансии в чате @devops_jobs","markup":[{"type":"hashtag","offset":0,"length":9,"data":"вакансия"},{"type":"hashtag","offset":10,"length":7,"data":"Москва"},{"type":"hashtag","offset":18,"length":5,"data":"офис"},{"type":"hashtag","offset":24,"length":6,"data":"Linux"},{"type":"hashtag","offset":31,"length":5,"data":"Unix"},{"type":"hashtag","offset":37,"length":7,"data":"DevOps"},{"type":"handle","offset":1047,"length":13,"data":"kornet_croft"},{"type":"handle","offset":1095,"length":12,"data":"devops_jobs"}],"date":"2020-03-16T11:10:02+00:00","link":"tg://resolve?domain=devops_jobs_feed&post=1819","tags":[{"name":"linux"},{"name":"unix"},{"name":"nginx"},{"name":"apache"},{"name":"docker"},{"name":"elasticsearch"},{"name":"logstash"},{"name":"kubernetes"},{"name":"gitlab"},{"name":"postgresql"},{"name":"mongodb"}],"cities":[{"code":"moscow"}],"allowsRemote":false}},{"node":{"__typename":"Job","id":"1905262592-1001134745498","title":"Devops инженер","text":"#вакансия #devops\nОфис: Москва (м. Ленинский проспект), Санкт-Петербург (м. Петроградская), Рязань, Ижевск\nФормат работы: офис\nЗанятость: полная\nЗарплатная вилка: от 180 000 до 200 000 рублей на руки\nВ связи с расширением предлагаем рассмотреть нашу вакансию. \nОбязанности\n- настраивать и поддерживать инфраструктуру текущих и новых проектов \n- поддерживать CI/CD на основе Gerrit/Jenkins/Nexus\n- администрировать парк серверов \nRND - находить и внедрять новые решения\nТребования\n- уверенное администрирование Linux (CentOS)\n- опыт работы с Docker, Elasticsearch, Logstash и Kibana\n- уверенное владение инструментами CI/CD (Jenkis, TeamCity)\n- автоматизация с помощью Ansible\nвладение языками (bash и/или python)\n- опыт работы с системами сбора метрик и мониторинга \nжелательно: Kubernetes\nнавыки администрирования БД (Oracle, PostgreSQL)\nМы предлагаем\n- конкурентная заработная плата по результатам общения\n- соблюдение TK РФ\n- гибкий рабочий график с началом работы с 8:00 до 11:00\n- ДМС с расширенным набором услуг\n- интересные и нетривиальные задачи \n- возможность посещать семинары, тренинги, конференции\n\nКомпания: https://jtc.ooo/\nНа рынке ИТ с 2007.\nСпециализация: разработка систем ДБО и построение информационных экосистем. \n\nКонтакты: @irarudakova\n\n—\n\n👉 Обсуждение вакансии в чате @devops_jobs","markup":[{"type":"hashtag","offset":0,"length":9,"data":"вакансия"},{"type":"hashtag","offset":10,"length":7,"data":"devops"},{"type":"link","offset":1121,"length":16,"data":"https://jtc.ooo/"},{"type":"handle","offset":1246,"length":12,"data":"irarudakova"},{"type":"handle","offset":1293,"length":12,"data":"devops_jobs"}],"date":"2020-03-16T10:22:37+00:00","link":"tg://resolve?domain=devops_jobs_feed&post=1817","tags":[{"name":"jenkins"},{"name":"linux"},{"name":"centos"},{"name":"docker"},{"name":"elasticsearch"},{"name":"logstash"},{"name":"ansible"},{"name":"bash"},{"name":"python"},{"name":"kubernetes"},{"name":"oracle"},{"name":"postgresql"}],"cities":[{"code":"moscow"},{"code":"ryazan"},{"code":"izhevsk"}],"allowsRemote":false}},{"node":{"__typename":"Job","id":"1903165440-1001134745498","title":"Devops инженер","text":"#вакансия #Москва #devops #офис \n\nВакансия: devops\nОфис: Москва, Москва Сити, башня Империя \nКомпания: Диджитал Агро\nФормат работы: офис\nОпыт: 2-3 года \nЗарплатная вилка: 150 000 до 280 000 руб. (Обсуждается на собеседовании)\n\nТребования:\n- Создавать CI/CD продукты \n- Сопровождать продуктовую разработку в команде \n- Выяснять места происхождения ошибок \n- Создавать систему мониторинга ошибок \n- Поддерживать it инфраструктуру разработки.\n\nСтек,который мы ждём:\n- Ansible,Docker,PostgreSQL/MySQL,Zabbix/Grafana/Prometheus,Linux, Git, Gitlab, python, shell.\n\nУсловия:\n- Комфортабельный офис\n- Квартальные + годовые бонусы \n- Белый доход\n- Обучение за счёт компании \n\nКонтакты: tg: @LubaKovalenko\n\n—\n\n👉 Обсуждение вакансии в чате @devops_jobs","markup":[{"type":"hashtag","offset":0,"length":9,"data":"вакансия"},{"type":"hashtag","offset":10,"length":7,"data":"Москва"},{"type":"hashtag","offset":18,"length":7,"data":"devops"},{"type":"hashtag","offset":26,"length":5,"data":"офис"},{"type":"handle","offset":681,"length":14,"data":"LubaKovalenko"},{"type":"handle","offset":730,"length":12,"data":"devops_jobs"}],"date":"2020-03-16T07:52:36+00:00","link":"tg://resolve?domain=devops_jobs_feed&post=1815","tags":[{"name":"ansible"},{"name":"docker"},{"name":"postgresql"},{"name":"mysql"},{"name":"linux"},{"name":"git"},{"name":"gitlab"},{"name":"python"},{"name":"shell"}],"cities":[{"code":"moscow"}],"allowsRemote":false}},{"node":{"__typename":"Job","id":"1900019712-1001134745498","title":"Devops инженер","text":"#вакансия #linux #sberdevices \nВакансия: Linux инженер \nКомпания: Сбербанк\nГород и адрес: Москва, Кутузовский пр-т, 32\nФормат работы: офис \nЗанятость: полная \nЗарплатная вилка: от 100 000 до 250 000\n\nКоманда эксплуатации SberDevices ищет коллег в дружный коллектив.\nМы создаем отказоустойчивую инфраструктуру для умных устройств и высоконагруженных систем.\nХочешь создавать инфраструктуру с 0?\nПосле выполнения пары однотипных задач автоматизируешь процесс?\nЛюбишь нарушать правило «Работает - не трогай!»?\nТогда мы ждём тебя на собеседование! :)\n\nЧем предстоит заниматься:\n• Прорабатывать базовую архитектуру и реализовывать её;\n• Строить и поддерживать отказоустойчивые системы;\n• Мониторинг инфраструктуры (сбор и анализ метрик, логирование, проактивный мониторинг);\n• Troubleshooting проблем на уровне операционной системы/сети (strace, tcpdump, etc);\n• Автоматизация рутинных задач.\n\nТребования:\n• Уверенные знания Linux;\n• Понимание принципов работы сети (TCP/IP);\n• Опыт работы с системами управления конфигурациями (Ansible, Puppet, etc);\n• Опыт работы с системами виртуализации (Proxmox, VmWare, etc);\n• Опыт работы с системами контроля версий (git);\n• Опыт программирования (Bash, Python).\n\nБудет плюсом опыт работы со следующими продуктами:\n• ELK stack, Zabbix, Prometheus, Grafana;\n• Ceph (radosgw);\n• Базами данных (PostgreSQL, Oracle);\n• Nginx.\n\nЧто мы предлагаем?\n• Возможность принять участие в разработке продуктов от идеи до реализации;\n• Гибкий график;\n• Возможность обучения за счет компании;\n• Страхование (от несчастных случаев, ДМС (включая поездки за рубеж));\n• Оздоровительные программы для детей сотрудников;\n• Дисконт-программы от компаний партнеров (фитнес, страхование, туризм);\n• Льготное кредитование;\n• Столовая, бесплатный тренажерный зал на территории офиса, бесплатная парковка;\n• Место работы - ст.м. Кутузовская.\n\nКонтакты:\nhttps://hh.ru/vacancy/36070450 (отклик на Headhunter) \n@Nastik8 (telegram)\n\n—\n\n👉 Обсуждение вакансии в чате @devops_jobs","markup":[{"type":"hashtag","offset":0,"length":9,"data":"вакансия"},{"type":"hashtag","offset":10,"length":6,"data":"linux"},{"type":"hashtag","offset":17,"length":12,"data":"sberdevices"},{"type":"link","offset":1861,"length":30,"data":"https://hh.ru/vacancy/36070450"},{"type":"handle","offset":1916,"length":8,"data":"Nastik8"},{"type":"handle","offset":1970,"length":12,"data":"devops_jobs"}],"date":"2020-03-13T11:01:06+00:00","link":"tg://resolve?domain=devops_jobs_feed&post=1812","tags":[{"name":"linux"},{"name":"ansible"},{"name":"git"},{"name":"bash"},{"name":"python"},{"name":"postgresql"},{"name":"oracle"},{"name":"nginx"}],"cities":[{"code":"moscow"}],"allowsRemote":false}},{"node":{"__typename":"Job","id":"1897922560-1001134745498","title":"Devops инженер","text":"#вакансия #DevOps #Москва \n\nЛокация: Москва, ст. м. Дмитровская\nФормат работы: офис \nЗанятость: полная\nЗарплатная вилка: от 180 000 до 250 000 руб. на руки.\n\nМы — команда эксплуатации сервиса ivi .\n\nРазыскиваем коллегу в команду для участия в настройке процессов, технических (CI/CD) и в части взаимодействия с коллегами. \nАктивное участие в разворачивании и эксплуатации k8s. Помогаем командам разработки строить CI/CD-пайплайны . Некоторые из нас это делают в составе кросс-команд, другие помогают многим командам, оставшиеся обеспечивают всех нас необходимыми приложениями и инфраструктурой.\n\nУчим команды использовать контейнеры (docker) для подготовки разрабатываемых приложений, осваиваем использование k8s для оркестрации. Используем Ubuntu, Linux.\n\nХраним код и разрабатываем pipeline-ы с помощью gitlab+artifactory .\nДля мониторинга серверов и сервисов используем zabbix и statsd , заправляем grafana.\nНаши сервисы написаны на python, golang и немного php и java.\nЛюбим и активно используем jenkins для решения самых разнообразных задач.\nИспользуем много open source (и не только) приложений: nginx, redis, postgresql, mongodb, rabbitmq, clickhouse, openstack, gitlab, kafka, hdfs, jira , opennebula.\n\nЧто предстоит делать: \n- развитие и настройки процессов ci/cd;\n- планирование и участие в рефакторинге процессов, инфраструктуры, приложений;\n- сопровождение сервисов от разработки до эксплуатации, участие в эксплуатации;\n- доработка текущих и разработка новых сценариев конфигурирования серверов и приложений; \n- администрирование приложений по результатам выполненной работы подготовка документации, если необходимо. \n\nКак узнать что ты нам подходишь? \n- положительный и продолжительный опыт работы с CI/CD-системами (у нас gitlab и jenkins);\n- умение хорошо готовить docker; \n- опыт программирования на скриптовых языках (shell, python);\nопыт администрирования linux и приложение 5+;\n- понимание сетевых технологий TCP/IP; \n- опыт работы с системами управления версиями (git) и конфигурациями. \n\nСо своей стороны мы обещаем: \n1. Подписку на ivi;\n2. Трудоустройство по ТК РФ;\n3. ДМС после прохождения испытательного срока;\n4. Футбольная команда ivi.ru принимает новых игроков;\n5. Обучение и митапы внутри компании, а также профессиональные курсы, тренинги и участие в конференциях;\n6. Оснащенный зонами отдыха, кухнями и прочими необходимыми вещами для комфортного нахождения офис в 5 минутах от ст. м. Дмитровская. \n\nОнлайн-кинотеатр ivi \nhttps://www.ivi.tv/\n\nБуду рада рассказать подробности, пишите в личку @daria144 или на почту dsereda@ivi.ru\n\n—\n\n👉 Обсуждение вакансии в чате @devops_jobs","markup":[{"type":"hashtag","offset":0,"length":9,"data":"вакансия"},{"type":"hashtag","offset":10,"length":7,"data":"DevOps"},{"type":"hashtag","offset":18,"length":7,"data":"Москва"},{"type":"link","offset":2158,"length":6,"data":"http://ivi.ru"},{"type":"link","offset":2453,"length":19,"data":"https://www.ivi.tv/"},{"type":"handle","offset":2523,"length":9,"data":"daria144"},{"type":"link","offset":2546,"length":14,"data":"mailto:dsereda@ivi.ru"},{"type":"handle","offset":2595,"length":12,"data":"devops_jobs"}],"date":"2020-03-13T10:36:50+00:00","link":"tg://resolve?domain=devops_jobs_feed&post=1810","tags":[{"name":"docker"},{"name":"ubuntu"},{"name":"linux"},{"name":"gitlab"},{"name":"python"},{"name":"go"},{"name":"php"},{"name":"java"},{"name":"jenkins"},{"name":"nginx"},{"name":"redis"},{"name":"postgresql"},{"name":"mongodb"},{"name":"rabbitmq"},{"name":"kafka"},{"name":"hdfs"},{"name":"shell"},{"name":"git"}],"cities":[{"code":"moscow"}],"allowsRemote":false}},{"node":{"__typename":"Job","id":"1896873984-1001134745498","title":"Devops инженер","text":"#вакансия #DevOps\nМосква, м.Ботанический сад\nФормат работы: офис\nЗанятость: полная\nЗаработная плата: 180 000р. на руки - фиксированный оклад\n(в планах со 2/3 квартала - квартальные премии по итогам работы до 45 000р. на руки) \nЧто делать:\n- Разработка и поддержка инфраструктуры для dev/test/prod (On-Cloud и On-Premise);\n- Разработка и поддержка процессов CI/CD;\n- Выбор технологий для реализации проектов;\n- Разработка и поддержка систем мониторинга, регистрации инцидентов и оповещения;\n- Организация бесперебойной работы всех сервисов (на всех уровнях: от инфраструктуры до разрабатываемого ПО);\n- Развертывание и поддержка общей инфраструктуры (nginx, haproxy, dns, iptables, ssh, sssd & etc).\nЧто нужно знать и уметь:\n- Экспертное понимание Linux (Ubuntu/CentOS7);\n- Знание скриптовых языков;\n- Опыт работы с технологиями виртуализации (VMware) и контейнеризации (Docker);\n- Опыт развёртывания и эксплуатации CI/CD (GitLab-CI, Jenkins);\n- Навыки работы и администрирования GitLab, Jira, Confluence;\n- Опыт внедрения и эксплуатации систем мониторинга и сбора метрик (ELK, Prometheus, Grafana, Sentry);\n- Опыт развёртывания и эксплуатации Redis, MySQL, RabbitMQ, HAProxy, nginx, PostgreSQL, php-fpm);\n- Интеграция Jenkins, Jira, GitLab. \nКомпания: АСНА (www.asna.ru)\nКонтакты: 8(965)194-28-96 (WhatsApp), @mil0lika (Telegram)\n\n—\n\n👉 Обсуждение вакансии в чате @devops_jobs","markup":[{"type":"hashtag","offset":0,"length":9,"data":"вакансия"},{"type":"hashtag","offset":10,"length":7,"data":"DevOps"},{"type":"link","offset":1258,"length":11,"data":"http://www.asna.ru"},{"type":"link","offset":1281,"length":15,"data":"tel:8(965)194-28-96"},{"type":"handle","offset":1309,"length":9,"data":"mil0lika"},{"type":"handle","offset":1364,"length":12,"data":"devops_jobs"}],"date":"2020-03-13T09:43:31+00:00","link":"tg://resolve?domain=devops_jobs_feed&post=1809","tags":[{"name":"cloud"},{"name":"nginx"},{"name":"dns"},{"name":"ssh"},{"name":"linux"},{"name":"ubuntu"},{"name":"centos"},{"name":"docker"},{"name":"gitlab"},{"name":"jenkins"},{"name":"redis"},{"name":"mysql"},{"name":"rabbitmq"},{"name":"postgresql"},{"name":"php"}],"cities":[{"code":"moscow"}],"allowsRemote":false}},{"node":{"__typename":"Job","id":"1888485376-1001134745498","title":"Devops инженер","text":"#вакансия #fulltime #devops #москва\nКомпания: Directadvert https://www.directadvert.ru/\nГород: Москва (м. Цветной бульвар)\nФормат работы: офис\nЗанятость: полная\nЗарплатная вилка: 150-170 тыс. руб.\n\nМы ищем действительно неравнодушного человека, которому небезразличен результат его работы, который радуется когда у него получилось хорошо и который задумывается когда у него получилось плохо. Это - главное требование для этой вакансии.\n\nМы занимаемся разработкой и эксплуатацией собственных рекламных сервисов. Мы показываем тысячи рекламных объявлений каждую секунду по всему миру, и это самый настоящий Highload. У нас успешно работают машинное обучение, технологии RTB, уникальные собственные алгоритмы для оптимального подбора рекламы пользователям. Нагрузки - огромные, серверов - много, проекты - разные, идей - миллион! Что ещё надо для быстрого и качественного развития инженера? Возможно, только команда. В нашей команде работают специалисты разных специализаций и разного уровня. Но ключевой момент - работают в команде, а не по отдельности. Стараемся соответствовать духу Devops и внедрять практики SRE.\n\nНам не нужен администратор, который просто умеет CI/CD от забора и до обеда. Нам нужен человек, готовый погрузиться во все нюансы проекта и принимать решения полезные для достижения общих целей.\n\n✳️ Требования:\n- Аккуратность и внимательность\n- Инициатива и проактивность\n- Ответственность\n- Разумный перфекицонизм\n- Незабывчивость\n\nЭто те основные качества, которые мы хотим видеть у людей в команде. Любые технологии можно выучить при наличии этих качеств, но при их отсутствии знание технологий - бесполезно для нас.\n\n✳️ Технологии с которыми мы работаем:\n- Debian\n- nginx\n- Postgresql\n- Python, Asyncio\n- PHP\n- Ansible\n- Prometheus\n- Grafana\n- ELK stack\n\nНет чего-то, что обязательно знать для данной вакансии. Но чем больше пересечение ваших знаний с этим списком - тем больше вероятность что мы подойдем друг другу.\n\n✳️ Обязанности:\n- Контроль и развитие всей инфраструктуры, максимально в строну IaC\n- Мониторинг сервисов, настройка алертов, работа с инцидентами\n- Создание и оптимизация CI/CD процессов\n- Автоматизация повторяющихся задач\n- Взаимодействие с разработчиками в духе Devops\n\n✳️ Условия:\n- Адекватный и грамотный менеджмент\n- Профессиональные и доброжелательные коллеги\n- Удобный офис в центре (м. Трубная/Цветной Бульвар)\n- Гибкий рабочий график\n\n\n☎️ Контакт: @andreyru\n\n—\n\n👉 Обсуждение вакансии в чате @devops_jobs","markup":[{"type":"hashtag","offset":0,"length":9,"data":"вакансия"},{"type":"hashtag","offset":10,"length":9,"data":"fulltime"},{"type":"hashtag","offset":20,"length":7,"data":"devops"},{"type":"hashtag","offset":28,"length":7,"data":"москва"},{"type":"link","offset":59,"length":28,"data":"https://www.directadvert.ru/"},{"type":"handle","offset":2397,"length":9,"data":"andreyru"},{"type":"handle","offset":2441,"length":12,"data":"devops_jobs"}],"date":"2020-03-12T11:36:49+00:00","link":"tg://resolve?domain=devops_jobs_feed&post=1801","tags":[{"name":"debian"},{"name":"nginx"},{"name":"postgresql"},{"name":"python"},{"name":"php"},{"name":"ansible"}],"cities":[{"code":"moscow"}],"allowsRemote":false}}]}}},"context":{}}