{"hash":"f5f6bf98bd95e769321482904cbbd488f77922fd","data":{"records":{"id":"php","name":"php","belongsTo":{"totalCount":88,"pageInfo":{"totalPages":9,"currentPage":7},"edges":[{"node":{"__typename":"Job","id":"17076060160-1001110946746","title":"Js разработчик","text":"#вакансия #работа #удаленка #backend #node #nodejs #remote\nГород и адрес офиса: Москва, Савеловская\nФормат работы: удаленка\nЗанятость: полная || проектная\nЗарплатная вилка: 100-160 т.р. net\n\nОписание вакансии: \nИщем опытного backend-разработчика node.js для разработки высоконадежных транзакционных сервисов интеграции с различными системами\n\nТребования:\n• Опыт работы с унаследованными системами\n• Знание PHP на уровне понимания и чтения кода будет плюсом\n• Знание и понимание работы сетевых протоколов TCP/IP, HTTP, SMTP, IMAP\n• Знание и понимание языка JavaScript и связанных с ним технологий и фреймворков\n• Опыт разработки серверных приложений\n• Понимание основных процессов разработки, умение работать в команде\n• Понимание принципов ООП, подходов в программировании и требований к транзакционным системам\n\nЗадачи:\n• Разработка высоконадежных транзакционных сервисов интеграции с различными системами\n• Поддержка и модернизация существующих систем\n\nНазвание компании: TechPlatforms (https://techpl.net)\nКонтакты:@desych79\n\n—\n\n👉 Обсуждение вакансии в чате @javascript_jobs","markup":[{"type":"hashtag","offset":0,"length":9,"data":"вакансия"},{"type":"hashtag","offset":10,"length":7,"data":"работа"},{"type":"hashtag","offset":18,"length":9,"data":"удаленка"},{"type":"hashtag","offset":28,"length":8,"data":"backend"},{"type":"hashtag","offset":37,"length":5,"data":"node"},{"type":"hashtag","offset":43,"length":7,"data":"nodejs"},{"type":"hashtag","offset":51,"length":7,"data":"remote"},{"type":"link","offset":989,"length":18,"data":"https://techpl.net"},{"type":"handle","offset":1018,"length":9,"data":"desych79"},{"type":"handle","offset":1062,"length":16,"data":"javascript_jobs"}],"date":"2020-06-19T10:52:00+00:00","link":"tg://resolve?domain=javascript_jobs_feed&post=16285","tags":[{"name":"javascript"},{"name":"nodejs"},{"name":"dotnet"},{"name":"php"},{"name":"smtp"}],"cities":[{"code":"moscow"}],"allowsRemote":true}},{"node":{"__typename":"Job","id":"26450329600-1001075660570","title":"Php developer","text":"#вакансия #php #magento #magento2 #петербург #москва #нижнийновгород\n\n📎Вакансия: Senior PHP developer (Magento2)\n📎Компания: First Line Software\n📎Город: Санкт-Петербург/Москва/Нижний Новгород (работа в любом из наших центров разработки, до осени в удаленном режиме)\n\n📎Мы предлагаем присоединиться к проекту по миграции крупного американского интернет-портала с Magento 1 на Magento 2. Планируется использование headless-решения на Magento2 и WordPress и генерацией на Sapper. Коммуникация в проекте осуществляется на английском языке, поэтому необходимы навыки разговорного общения.\nТехнологический стек: PHP, Magento 2, Wordpress, Sapper, HTML, CSS, Svelte JS.\nМы ищем того, кто:\n•имеет опыт разработки на PHP от 3-х лет\n•работал с Magento 2 (сертификат будет являться преимуществом)\n•владеет английским языком на уровне Intermediate и выше.\n\n📎Мы предлагаем:\n•Участие в разработке высокотехнологичных продуктов, которые используются на всех континентах, кроме Антарктиды\n•Большую команду профессиональных и творческих инженеров, которые готовы делиться своим опытом и знаниями\n•Курсы английского языка с носителями и русскоязычными преподавателями в офисе (большое количество наших заказчиков находится за рубежом, мы всегда за то, чтобы вы прокачивали свои скиллы владения английским)\n•Компенсация оплаты успешно пройденной сертификации (напр., Microsoft, Oracle и пр.)\n•Официальная зарплата и оформление по ТК РФ\n•Полис ДМС, в том числе стоматология, гибкий график, удобные рабочие места\n•На каждом этаже офиса есть уютные кухни с плюшками, фруктами, вкусным кофе и какао;\n•Возможность стать частью нашей футбольной команды, принимать участие в турнирах по кикеру, теннису, ежедневная суставная зарядка и еще много корпоративных движух :)\n\nС радостью обсужу все детали в личке @MariiaDia","markup":[{"type":"hashtag","offset":0,"length":9,"data":"вакансия"},{"type":"hashtag","offset":10,"length":4,"data":"php"},{"type":"hashtag","offset":15,"length":8,"data":"magento"},{"type":"hashtag","offset":24,"length":9,"data":"magento2"},{"type":"hashtag","offset":34,"length":10,"data":"петербург"},{"type":"hashtag","offset":45,"length":7,"data":"москва"},{"type":"hashtag","offset":53,"length":15,"data":"нижнийновгород"},{"type":"handle","offset":1784,"length":10,"data":"MariiaDia"}],"date":"2020-06-19T08:23:34+00:00","link":"tg://resolve?domain=php_jobs&post=25225","tags":[{"name":"php"},{"name":"magento"},{"name":"wordpress"},{"name":"html"},{"name":"css"},{"name":"oracle"}],"cities":[{"code":"moscow"},{"code":"nizhny-novgorod"}],"allowsRemote":true}},{"node":{"__typename":"Job","id":"91367669760-1001067529236","title":"Python developer","text":"#вакансия #Москва #fulltime #офис #python #machinelearning\nКомпания: FunCorp\nВакансия: Senior Python Backend Developer (Machine Learning)\nОпыт работы: от 3-х лет\nЗарплата: от 250 000 р. на руки\nМесторасположение: Москва, м. Белорусская\nЗанятость: fulltime, офис.\nNB! Удаленный вариант работы после выхода из карантина, к сожалению, не рассматриваем\nКонтактные данные: @chrschredinger или kristina@fun.co\n\nFunCorp — международная компания, которая занимается разработкой развлекательных UGC-сервисов и игр. В работе наших приложений мы активно используем сервисы, построенные на машинном обучении. Значительная часть этих сервисов построена на базе ML-фреймворков и пакетов на Python. \n\nТребования:\n- знание Python 3, фреймворков Flask или Django, а также иметь опыт написания асинхронного кода с использованием AsyncIO;\n- опыт построения и поддержки высоконагруженных систем и сервисов;\n- интерес к Machine Learning как отрасли и быть готовым изучать фреймворки (PyTorch, TensorFlow).\n\nСтек используемых технологий: Docker, Redis, MongoDB, ClickHouse.\n\nОбязанности:\n- создание и поддержка Highload-сервисы на базе обученных моделей;\n- интегрирование ML-сервисов с бизнес-логикой PHP-монолита и Java/Kotlin-сервисов;\n- участие в обучении и доработке существующих моделей, получении и консолидации данных, построении тестовых выборок.\n\nУсловия:\n- ДМС, включая стоматологию;\n- бонусная система;\n- обеды и ужины в офисе;\n- бюджет на обучение и на фитнес;\n- оплата участия в российских и зарубежных конференциях;\n- отличный офис на м. Белорусская (БЦ «Белая площадь).","markup":[{"type":"hashtag","offset":0,"length":9,"data":"вакансия"},{"type":"hashtag","offset":10,"length":7,"data":"Москва"},{"type":"hashtag","offset":18,"length":9,"data":"fulltime"},{"type":"hashtag","offset":28,"length":5,"data":"офис"},{"type":"hashtag","offset":34,"length":7,"data":"python"},{"type":"hashtag","offset":42,"length":16,"data":"machinelearning"},{"type":"bold","offset":59,"length":10,"data":""},{"type":"bold","offset":77,"length":10,"data":""},{"type":"bold","offset":138,"length":13,"data":""},{"type":"bold","offset":162,"length":10,"data":""},{"type":"bold","offset":194,"length":19,"data":""},{"type":"bold","offset":236,"length":11,"data":""},{"type":"underline","offset":263,"length":86,"data":""},{"type":"bold","offset":349,"length":19,"data":""},{"type":"handle","offset":368,"length":15,"data":"chrschredinger"},{"type":"link","offset":388,"length":15,"data":"mailto:kristina@fun.co"},{"type":"bold","offset":686,"length":12,"data":""},{"type":"italic","offset":986,"length":67,"data":""},{"type":"bold","offset":1053,"length":13,"data":""},{"type":"bold","offset":1334,"length":9,"data":""}],"date":"2020-06-19T07:10:14+00:00","link":"tg://resolve?domain=python_jobs&post=0","tags":[{"name":"python"},{"name":"flask"},{"name":"django"},{"name":"tensorflow"},{"name":"docker"},{"name":"redis"},{"name":"mongodb"},{"name":"php"},{"name":"java"},{"name":"kotlin"},{"name":"machine-learning"}],"cities":[{"code":"moscow"}],"allowsRemote":false}},{"node":{"__typename":"Job","id":"103207141376-1001089317451","title":"Qa engineer","text":"#вакансия #удаленка #Москва #fulltime #qa \nКомпания: «Intelligence Retail» (https://intrtl.com/).\nQA manual engineer\nФормат: удаленно, 5/2\nВилка: до 120 000 т.р\nЖелающим поможем вырасти в автоматизации на python.\n\nКто мы?\nIntelligence Retail входит в число 30 крупнейших поставщиков AI в России (по версии Rusbase). Мы работаем с такими глобальными компаниями по производству CPG, как Danone, Heineken, P & G, Perfetti Van Melle, Red Bull и другими. www.intrtl.com\nIntelligence Retail — молодой стартап в области ИИ. Мы помогаем компаниям в ритейле и FMCG повысить эффективность труда своих сотрудников. Наш продукт это система контроля товаров, использующая передовые алгоритмы компьютерного зрения на базе нейронных сетей.\n\nПожелания к кандидату:\n• Опыт тестирования сложных web программ, включая разработку тестов, тестовых данных, и сценариев тестирования;\n• Опыт тестирования API (Postman, SoapUI)\n• Способность выявлять уязвимые места систем, способность к поиску дефектов;\n• Опыт работы с системами багтрекинга;\n• Базовые знания SQL (на уровне простых запросов);\n• Технический английский.\nПлюсом будет:\n• опыт в автоматизации тестирования;\n• знание Python.\n\nЗадачи:\n• Мы разрабатываем SaaS решение которое содержит следующие компоненты:\n- мобильное приложение под iOS и Android;\n- аналитический web-портал;\n- REST API на python и php;\n- бекенд распознавания с использованием нейронных сетей.\n\nВот что нужно будет делать:\n• Ручное тестирование нового и существующего функционала ПО (Web, API, Mobile);\n• Проведение регрессионного тестирования перед поставкой;\n• Составление тестовых сценариев и поддержка их в актуальном состоянии;\n• Взаимодействие с командой разработки;\n• Обработка ошибок от технической поддержки пользователей;\n• Фиксация дефектов в трекере задач и последующий контроль их исправления.\n\nУсловия работы:\n• Достойная белая ЗП и полное соблюдение трудового законодательства РФ;\n• Удаленная работа с гибким графиком 5/2;\n• Команда крутых разработчиков и учёных, интересные задачи и перспективные продукты.\nИ ещё:\n• Тестировщик является частью скрам-команды, которая работает с 2-х недельными спринтами;\n• Ежедневные стендапы примерно в 11:30;\n• Задачи ведем в youtrack;\n• Мы — один из немногих Российских стартапов, который работает сразу на международном рынке, у нас уже есть зарубежные клиенты;\nВ компании работает порядка 40 человек, тех команда примерно 25.\n\nКонтакты: @DariaYugova","markup":[{"type":"hashtag","offset":0,"length":9,"data":"вакансия"},{"type":"hashtag","offset":10,"length":9,"data":"удаленка"},{"type":"hashtag","offset":20,"length":7,"data":"Москва"},{"type":"hashtag","offset":28,"length":9,"data":"fulltime"},{"type":"hashtag","offset":38,"length":3,"data":"qa"},{"type":"link","offset":76,"length":19,"data":"https://intrtl.com/"},{"type":"bold","offset":98,"length":18,"data":""},{"type":"link","offset":450,"length":14,"data":"http://www.intrtl.com"},{"type":"bold","offset":726,"length":22,"data":""},{"type":"bold","offset":1165,"length":7,"data":""},{"type":"bold","offset":1400,"length":27,"data":""},{"type":"bold","offset":1813,"length":15,"data":""},{"type":"handle","offset":2396,"length":12,"data":"DariaYugova"}],"date":"2020-06-18T16:31:41+00:00","link":"tg://resolve?domain=qa_jobs&post=0","tags":[{"name":"qa"},{"name":"python"},{"name":"web"},{"name":"sql"},{"name":"ios"},{"name":"android"},{"name":"rest"},{"name":"php"},{"name":"mobile"}],"cities":[{"code":"moscow"}],"allowsRemote":true}},{"node":{"__typename":"Job","id":"26426212352-1001075660570","title":"Php разработчик","text":"#вакансия  #fulltime #Fullstack #спб #санкт_петербург\nВакансия: Fullstack-разработчик\nКомпания: 4people\nГород: Санкт-Петербург. ст.м. Обводный канал\nФормат работы: #офис\nЗанятость: #полная\nЗ/п: от 140 000 до 250 000 р. \n\n🔎В нашу команду в связи с расширением срочно разыскивается Fullstack Web-программист!\n\n🔷Основные обязанности:\n- Разработка новых сервисов.\n- Оптимизация и поддержка текущих проектов.\n- Мы используем: PHP7, JavaScript, Redis, MongoDB, YouTrack.\n\n🔷Добро пожаловать, в нашу команду если вы:\n- Имеете опыт разработки на PHP.\n- Знаете ООП, умеете применять на практике основные паттерны.\n- Знакомы с JS фреймворками.\n- Работали с MVC-фреймворками на базе PHP.\n- Разбираетесь и умеете использовать разные хранилища данных там где они необходимы.\n\n🔷Мы предлагаем:\n- Достойный уровень заработной платы (зависит от пожеланий и профессионально уровня кандидата).\n- Поездки на ИТ-конференции, митапы, учебные курсы за счет компании.\n- Возможность гибкого начала рабочего дня.\n- Бесплатные корпоративные обеды.\n- Абонемент в спорт зал за счет компании.\n\nЖдем вопросы и резюме: \n✍️ @hrkaterina \n✉️ ekaterina.4people@gmail.com","markup":[{"type":"hashtag","offset":0,"length":9,"data":"вакансия"},{"type":"hashtag","offset":11,"length":9,"data":"fulltime"},{"type":"hashtag","offset":21,"length":10,"data":"Fullstack"},{"type":"hashtag","offset":32,"length":4,"data":"спб"},{"type":"hashtag","offset":37,"length":16,"data":"санкт_петербург"},{"type":"hashtag","offset":164,"length":5,"data":"офис"},{"type":"hashtag","offset":181,"length":7,"data":"полная"},{"type":"bold","offset":281,"length":25,"data":""},{"type":"bold","offset":309,"length":24,"data":""},{"type":"bold","offset":468,"length":44,"data":""},{"type":"bold","offset":765,"length":17,"data":""},{"type":"bold","offset":1067,"length":24,"data":""},{"type":"handle","offset":1094,"length":11,"data":"hrkaterina"},{"type":"link","offset":1110,"length":27,"data":"mailto:ekaterina.4people@gmail.com"}],"date":"2020-06-18T13:31:12+00:00","link":"tg://resolve?domain=php_jobs&post=25202","tags":[{"name":"php"},{"name":"web"},{"name":"javascript"},{"name":"redis"},{"name":"mongodb"}],"cities":[],"allowsRemote":false}},{"node":{"__typename":"Job","id":"103177781248-1001089317451","title":"Qa engineer","text":"#вакансия #job #QA #QAEngineer #Кипр #Cyprus #Limassol #relocate #fulltime #wisebits\n\nВ нашем холдинге открыты 2 вакансии Senior Automation QA Engineer. В текущей ситуации начинаем сотрудничать удаленно и как только границы будут открыты,🛬 welcome to Cyprus!\n\nКомпания: Wisebits \nГород: Лимассол, Кипр \nЗ.п.: до 4 000€ net\n\n📎1 проект-Автоматизация тестов для UI с использованием PHP, Selenium WebDriver, Codeception\n📎 2 проект- Автоматизация UI с использованием Java, Selenium WebDriver\n\nНам важен опыт:\n✔ Автоматизации  тестирования web-приложений, используя Selenium WebDriver\n✔ Тестирования веб приложений от 4 лет:\n\n\nМы предлагаем:\nПолностью белый оклад: на старте до 4000€ в месяц после вычета всех налогов, официальное оформление (рабочая виза);\nМедицинская страховка;\nРелокационый пакет;\nПрограмма компенсации детского сада/школы\n\n\nДетали @YaMy04","markup":[{"type":"hashtag","offset":0,"length":9,"data":"вакансия"},{"type":"hashtag","offset":10,"length":4,"data":"job"},{"type":"hashtag","offset":15,"length":3,"data":"QA"},{"type":"hashtag","offset":19,"length":11,"data":"QAEngineer"},{"type":"hashtag","offset":31,"length":5,"data":"Кипр"},{"type":"hashtag","offset":37,"length":7,"data":"Cyprus"},{"type":"hashtag","offset":45,"length":9,"data":"Limassol"},{"type":"hashtag","offset":55,"length":9,"data":"relocate"},{"type":"hashtag","offset":65,"length":9,"data":"fulltime"},{"type":"hashtag","offset":75,"length":9,"data":"wisebits"},{"type":"handle","offset":849,"length":7,"data":"YaMy04"}],"date":"2020-06-18T13:03:46+00:00","link":"tg://resolve?domain=qa_jobs&post=0","tags":[{"name":"qa"},{"name":"dotnet"},{"name":"php"},{"name":"selenium"},{"name":"java"},{"name":"web"}],"cities":[],"allowsRemote":true}},{"node":{"__typename":"Job","id":"26422018048-1001075660570","title":"Php разработчик","text":"#job #remote #senior #symfony #highload\n\n\n✅Вакансия: Senior PHP\n✅Занятость: полный день, удаленно\n✅Компания: Холдинг «Монастырёв» \n\n✅Задачи:\n\n- разработка микросервисной архитектуры\n- доработка системы поиска на сайте\n- разработка системы скоринга\n- разработка блока рекламы и рекомендаций на сайте\n\n✅помимо этого:\n\nВыбор стэка технологий и разработка архитектуры проекта.\nПроведение код-ревью и ревью дизайна проектов на соответствие архитектурным стандартам.\n\n✅Требования:\nОпыт в разработке архитектуры, выборе стэка технологий и проектировании сайтов и веб-сервисов.\nОпыт работы с PostgreSQL/MySQL/NoSQL\nОпыт работы Redis.\nОпыт работы с одним из PHP фреймворков Symfony/Yii/Laravel.\n\n✅Текущий стек:\nPHP, Symphony, React.js, Vue.js\nPostreSQL/MariaDb/Redis/ActiveMQ/ElasticSaerch\n\n ✅Преимущества работы в нашей команде:\n\nработаем в белую: 28 дней отпуска, полностью официальная зарплата;\nудобный рабочий график + в пятницу уходим с работы на час раньше;\nкомпенсация 100% внешнего обучения и бесплатное участие во внутренних корпоративных тренингах;\nактивная корпоративная жизнь: спортивные мероприятия, тимбилдинги, праздники и участие в благотворительных акциях;\nинтересные и амбициозные задач\n\nПишите в личку: @sundeevaa","markup":[{"type":"hashtag","offset":0,"length":4,"data":"job"},{"type":"hashtag","offset":5,"length":7,"data":"remote"},{"type":"hashtag","offset":13,"length":7,"data":"senior"},{"type":"hashtag","offset":21,"length":8,"data":"symfony"},{"type":"hashtag","offset":30,"length":9,"data":"highload"},{"type":"handle","offset":1213,"length":10,"data":"sundeevaa"}],"date":"2020-06-18T10:09:17+00:00","link":"tg://resolve?domain=php_jobs&post=25198","tags":[{"name":"php"},{"name":"symfony"},{"name":"postgresql"},{"name":"mysql"},{"name":"nosql"},{"name":"redis"},{"name":"yii"},{"name":"laravel"},{"name":"reactjs"},{"name":"vuejs"},{"name":"mariadb"}],"cities":[],"allowsRemote":true}},{"node":{"__typename":"Job","id":"26406289408-1001075660570","title":"Php разработчик","text":"#работа #вакансия #удаленка #job #РНР #Yii #Laravel #Symfony \n\nВсем привет! \n\nСейчас нахожусь в поисках РНР разработчика уровня senior в одну из крупнейших ecommerce компаний России - Bork/Technopark. \nНа текущий  момент внутри идет несколько проектов по поддержке и развитию интернет-площадки по продаже бытовой техники и электроники премиум-класса.\n\nПродукты реализуются на стеке: PHP (Yii2), MySql, JS (Vue), HTML, CSS, Gulp, Webpack, SVG, Canvas. \nЗадачи: разработка серверной части веб-проектов на всех этапах (от участия в проектировании архитектуры, до разработки сервисов), участие в митапах для обсуждения предстоящих задач, вносить вклад в планирование архитектуры и т.д.\n\nОсновные требования:\n\n- Опыт коммерческой разработки от 3 лет на PHP (7.1 или выше);\n\n- Хорошие знания современных фреймворков  (YII, Symfony);\n\n- Знание ООП, базовых алгоритмов, шаблонов проектирования, стандартов написания кода.\n\nУсловия: \n\n- ЗП до 250 000 net;\n\n- Полная УДАЛЁНКА; \n\n- Оформление через ИП или как самозанятый; \n\nКто заинтересовался - пишите в ЛС (@nastyaklassnaya),  буду рада пообщаться :)","markup":[{"type":"hashtag","offset":0,"length":7,"data":"работа"},{"type":"hashtag","offset":8,"length":9,"data":"вакансия"},{"type":"hashtag","offset":18,"length":9,"data":"удаленка"},{"type":"hashtag","offset":28,"length":4,"data":"job"},{"type":"hashtag","offset":33,"length":4,"data":"РНР"},{"type":"hashtag","offset":38,"length":4,"data":"Yii"},{"type":"hashtag","offset":43,"length":8,"data":"Laravel"},{"type":"hashtag","offset":52,"length":8,"data":"Symfony"},{"type":"handle","offset":1049,"length":16,"data":"nastyaklassnaya"}],"date":"2020-06-18T08:54:14+00:00","link":"tg://resolve?domain=php_jobs&post=25183","tags":[{"name":"php"},{"name":"yii"},{"name":"laravel"},{"name":"symfony"},{"name":"mysql"},{"name":"vuejs"},{"name":"html"},{"name":"css"},{"name":"gulp"},{"name":"webpack"},{"name":"svg"},{"name":"canvas"},{"name":"dotnet"}],"cities":[],"allowsRemote":true}},{"node":{"__typename":"Job","id":"17038311424-1001110946746","title":"Js разработчик","text":"#вакансия #работа #удаленка #backend #node #nodejs #remote\nГород и адрес офиса: Москва, Савеловская\nФормат работы: удаленка\nЗанятость: полная || проектная\nЗарплатная вилка: 100-160 т.р.\n\nОписание вакансии: \nИщем опытного backend-разработчика node.js для разработки высоконадежных транзакционных сервисов интеграции с различными системами\n\nТребования:\n• Опыт работы с унаследованными системами\n• Знание PHP на уровне понимания и чтения кода будет плюсом\n• Знание и понимание работы сетевых протоколов TCP/IP, HTTP, SMTP, IMAP\n• Знание и понимание языка JavaScript и связанных с ним технологий и фреймворков\n• Опыт разработки серверных приложений\n• Понимание основных процессов разработки, умение работать в команде\n• Понимание принципов ООП, подходов в программировании и требований к транзакционным системам\n\nЗадачи:\n• Разработка высоконадежных транзакционных сервисов интеграции с различными системами\n• Поддержка и модернизация существующих систем\n\nНазвание компании: TechPlatforms (https://techpl.net)\nКонтакты:@desych79\n\n—\n\n👉 Обсуждение вакансии в чате @javascript_jobs","markup":[{"type":"hashtag","offset":0,"length":9,"data":"вакансия"},{"type":"hashtag","offset":10,"length":7,"data":"работа"},{"type":"hashtag","offset":18,"length":9,"data":"удаленка"},{"type":"hashtag","offset":28,"length":8,"data":"backend"},{"type":"hashtag","offset":37,"length":5,"data":"node"},{"type":"hashtag","offset":43,"length":7,"data":"nodejs"},{"type":"hashtag","offset":51,"length":7,"data":"remote"},{"type":"link","offset":985,"length":18,"data":"https://techpl.net"},{"type":"handle","offset":1014,"length":9,"data":"desych79"},{"type":"handle","offset":1058,"length":16,"data":"javascript_jobs"}],"date":"2020-06-18T08:18:05+00:00","link":"tg://resolve?domain=javascript_jobs_feed&post=0","tags":[{"name":"javascript"},{"name":"nodejs"},{"name":"php"},{"name":"smtp"},{"name":"dotnet"}],"cities":[{"code":"moscow"}],"allowsRemote":true}},{"node":{"__typename":"Job","id":"26397900800-1001075660570","title":"Php developer","text":"#вакансия #PHP #Symfony #fulltime  #удаленка  #middle #senior\nВакансия:PHP Developer (Symfony )\nНазвание компании: Farset \nФормат работы: удаленная работа, проект от 6 месяцев.\nЗанятость: 168 часов в месяц.\nЗарплатная вилка от 800-1300 рубл/час, готовы также платить и по фиксу.\nО нас: Занимаемся в основном backend разработкой, сейчас ищем таланты для работы с нашими партнерами,обычно это известные бренды, которые имеют инхаус разработку, но усиливают команду людьми с аутстаффинга.\n\nТребования \n· Опыт работы от 2х лет \n· Понимание паттернов проектирования \n· Обязателен опыт работы с Symfony 3.4+, знаний основных компонентов фреймворка \n· Понимание принципов работы клиент-серверных систем \n· Уверенная работа с реляционными СУБД (предпочтительно PostgreSQL ): join, \nsubquery, агрегирующие функции, группировки, транзакции, индексы \n· Уверенный пользователь Linux \n· Английский язык на уровне чтения и понимания технической документации \n\nЖелательно: \n· Понимание принципов SOLID, KISS, DRY \n· Понимание того, как работают DI, Doctrine \n· Опыт работы с брокерами сообщений: Kafka, RabbitMQ \n· Опыт оптимизации SQL запросов \n· Понимание того, как подготавливается backend под высокие нагрузки\n\nКонтакты для связи: @Pantera131 ( пишите постараюсь ответить на все вопросы)","markup":[{"type":"hashtag","offset":0,"length":9,"data":"вакансия"},{"type":"hashtag","offset":10,"length":4,"data":"PHP"},{"type":"hashtag","offset":15,"length":8,"data":"Symfony"},{"type":"hashtag","offset":24,"length":9,"data":"fulltime"},{"type":"hashtag","offset":35,"length":9,"data":"удаленка"},{"type":"hashtag","offset":46,"length":7,"data":"middle"},{"type":"hashtag","offset":54,"length":7,"data":"senior"},{"type":"handle","offset":1220,"length":11,"data":"Pantera131"}],"date":"2020-06-17T19:24:54+00:00","link":"tg://resolve?domain=php_jobs&post=25175","tags":[{"name":"php"},{"name":"symfony"},{"name":"postgresql"},{"name":"linux"},{"name":"doctrine"},{"name":"kafka"},{"name":"rabbitmq"},{"name":"sql"}],"cities":[],"allowsRemote":true}}]}}},"context":{}}