{"hash":"f5f6bf98bd95e769321482904cbbd488f77922fd","data":{"records":{"id":"dotnet","name":"dotnet","belongsTo":{"totalCount":172,"pageInfo":{"totalPages":18,"currentPage":5},"edges":[{"node":{"__typename":"Job","id":"1766850560-1001091028994","title":"Java разработчик","text":"#Java #developer #job #офис\n\nВакансия: Java-разработчик \n\nКомпания: Selecty\n\nГород: Москва, Санкт-Петербург, Новосибирск, Самара\n\nФормат работы: Офис\n\nЗанятость: full timе\n\nЗарплатная вилка: 320k net \n\nОписание вакансии:\n\nРазработка ПО для одного из крупнейших российских банков.\n\nОбязанности:\n• Разработка под Java, фреймворк: Spring boot\n• Разработка в рамках микросервисной архитектуры\n• Проектирование интерфейсов взаимодействия с другими системами.\n• Работа в тесном сотрудничестве со специалистами фронтенд разработки, тестирования и аналитиками.\n• Работа по гибким методологиям разработки.\n\nCтек технологий:\n• Java 8-11, Kotlin.\n• Spring/Springboot.\n• PostgreSQL/Oracle, Kafka, Redis\n• Maven/Gradle\n• Docker/Kubernetes(или OpenShift).\n\nНаши ожидания от кандидата:\n• уверенное владение Java, понимание принципов работы JVM. Знание основных библиотек и шаблонов проектирования.\n• опыт использования Spring Framework (boot, mvc, data, secutity...)\n• опыт работы с многопоточностью и асинхронностью.\n• опыт работы с базами данных, умение писать и оптимизировать запросы.\n• опыт работы с распределёнными хранилищами и системами.\n• знание HTTP, REST, SOAP.\n• опыт работы с фреймворками и инструментами автоматического тестирования (junit, postman, jmeter).\n\nМы предлагаем:\n•  Оформление согласно ТК РФ.\n•  Заработная плата полностью \"белая\".\n•  ДМС.\n•  Оплата корпоративной мобильной связи.\n•  Внутреннее, внешнее обучение (сертификаты).\n•  Льготные программы от компаний – партнеров.\n\nКонтакты: @lelya01\nolga.afonina@selecty.ru","markup":[{"type":"hashtag","offset":0,"length":5,"data":"Java"},{"type":"hashtag","offset":6,"length":10,"data":"developer"},{"type":"hashtag","offset":17,"length":4,"data":"job"},{"type":"hashtag","offset":22,"length":5,"data":"офис"},{"type":"handle","offset":1497,"length":8,"data":"lelya01"},{"type":"link","offset":1506,"length":23,"data":"mailto:olga.afonina@selecty.ru"}],"date":"2020-06-29T16:07:55+00:00","link":"tg://resolve?domain=jvmjobs&post=1685","tags":[{"name":"java"},{"name":"jvm"},{"name":"dotnet"},{"name":"spring"},{"name":"kotlin"},{"name":"postgresql"},{"name":"oracle"},{"name":"kafka"},{"name":"redis"},{"name":"maven"},{"name":"gradle"},{"name":"docker"},{"name":"kubernetes"},{"name":"rest"},{"name":"soap"},{"name":"junit"},{"name":"jmeter"},{"name":"spring-boot"}],"cities":[{"code":"moscow"},{"code":"novosibirsk"},{"code":"samara"}],"allowsRemote":false}},{"node":{"__typename":"Job","id":"17221812224-1001110946746","title":"Js developer","text":"#вакансия #Frontend #React\n #JS #Lead \n🔸 Формат работы: full time офис\n🔸 Город: г. Москва 1905 года с сентября Кутузовский проспект\n🔸 З/п: от 260 000 руб. net до 300 000 net, готовы обсудить.\n🔸Мы -  международный сервис пассажирских перевозок. Создаем глобальный высокотехнологичный продукт, который меняет жизнь миллионов людей к лучшему.\nВходим в топ-5 мобильных сервисов для заказа поездок.\n\nСейчас ищем Lead frontend developer в Московский офис разработки.\n\nИспользуемые технологии:\n- React;\n- PHP и Go в качестве языков для бекенда;\n- Kubernetes + Teamcity для CI/CD.\n\n📌 Чем придется заниматься:\n- разработкой фронтовых проектов на React;\n- нанимать, проводить Code review и обучать младших коллег;\n- интегрироваться с Backend, отстаивать свою точку зрения почему так и как сделать лучше;\n- проектирование архитектуры приложения.\n📌Мы ожидаем, что вы:\n- отлично владеете базовыми технологиями — HTML, CSS, JavaScript (ES6), DOM, браузерные API;\n- имеете опыт разработки сложных продуктов с использованием React;\n- ответственны, умеете работать в команде и самостоятельно восполнять недостающие навыки и знания;\n\n🔹Будет здорово, если вы:\n- интересуетесь новыми технологиями во фронтенде;\n- обладаете навыками в автоматизации сборки и тестирования фронтенда.\n\n🔸 Компания: inDriver\n🔸 Контакты: @molly_doll","markup":[{"type":"hashtag","offset":0,"length":9,"data":"вакансия"},{"type":"hashtag","offset":10,"length":9,"data":"Frontend"},{"type":"hashtag","offset":20,"length":6,"data":"React"},{"type":"hashtag","offset":28,"length":3,"data":"JS"},{"type":"hashtag","offset":32,"length":5,"data":"Lead"},{"type":"handle","offset":1304,"length":11,"data":"molly_doll"}],"date":"2020-06-29T15:29:20+00:00","link":"tg://resolve?domain=javascript_jobs_feed&post=16424","tags":[{"name":"javascript"},{"name":"reactjs"},{"name":"dotnet"},{"name":"php"},{"name":"kubernetes"},{"name":"html"},{"name":"css"}],"cities":[{"code":"moscow"}],"allowsRemote":false}},{"node":{"__typename":"Job","id":"108252889088-1001119539411","title":".net разработчик","text":"#вакансия #fulltime #офис #remote \n\nЛокация: Казань, ст. м. Козья Слобода; Иннополис;\nФормат работы: офис или remote, фуллтайм \nЗанятость: полная, гибкое начало дня\nЗП: до 160 000 Net \n\n🚀Компания Ак Барс Цифровые Технологии запускает новый большой проект по трансформации архитектуры розничного бизнеса (физические лица) и переезд всех процессов на новую технологическую платформу. В рамках проекта будет сформировано 8 команд, занимающихся разными задачами по платежным решениям, каталогам продуктов, работой с электронными досье клиента, операционному обслуживанию и др.\n\nВ связи с чем компания в поисках Middle .Net разработчиков с коммерческим опытом работы от 2 лет. \n\nСтек технологий: C#, ASP.NET MVC / Core, Web API, MS SQLServer / PostgreSql, Entity Framework, JS /React, RabbitMQ\n\n✅Ребята ищут специалиста с опытом разработки веб-платформ, которому знаком .NET, ASP.NET Core, MS SQL Server. Команды гибко рассматривают кандидатов, готовы обучать и делиться опытом. \n\n✅АК Барс Цифровые технологии предлагают отличные условия:\n- официальное оформление и полностью белую зп;\n- гибкий график работы, позитивная атмосфера, дружный молодой коллектив;\n- возможность работать удаленно или в комфортном офисе в Казани;\n- помощь с релокацией, если вы из другого города; \n- возможность быстро «прокачаться» в скиллах на интересных проектах и другие приятные плюшки и бонусы.\n\nКонтакты:\ne-mail: valeriya@luckyhunter.io\ntelegram: @sobolevavalery\nБуду рада ответить на все вопросы и комментарии! 😊","markup":[{"type":"hashtag","offset":0,"length":9,"data":"вакансия"},{"type":"hashtag","offset":10,"length":9,"data":"fulltime"},{"type":"hashtag","offset":20,"length":5,"data":"офис"},{"type":"hashtag","offset":26,"length":7,"data":"remote"},{"type":"bold","offset":675,"length":15,"data":""},{"type":"link","offset":696,"length":7,"data":"http://ASP.NET"},{"type":"link","offset":872,"length":7,"data":"http://ASP.NET"},{"type":"link","offset":1393,"length":23,"data":"mailto:valeriya@luckyhunter.io"},{"type":"handle","offset":1427,"length":15,"data":"sobolevavalery"}],"date":"2020-06-29T15:13:52+00:00","link":"tg://resolve?domain=microsoftstackjobs&post=103238","tags":[{"name":"dotnet"},{"name":"csharp"},{"name":"web"},{"name":"sql-server"},{"name":"postgresql"},{"name":"reactjs"},{"name":"rabbitmq"},{"name":"sql"},{"name":"asp-net"},{"name":"entity-framework"},{"name":"net-core"},{"name":"asp-net-mvc"},{"name":"asp-net-core"}],"cities":[{"code":"kazan"}],"allowsRemote":true}},{"node":{"__typename":"Job","id":"72272052224-1001054966032","title":"Ios разработчик","text":"#вакансия #ios #senior #swift #Спб\n\nГород: Санкт-Петербург\nФормат работы: офис\nЗанятость: полная\nЗарплатная вилка: 180-220 k net (готовы по потолку двигаться в зависимости от опыта)\nВакансия: ищу ведущего iOS-разработчика в развитие молодого приложения.\nО компании: НаПоправку.ру — медицинский онлайн-сервис. Команда реализовала real-time запись на медицинскую диагностику и услуги. Компании 6 лет, ежемесячно она помогает более чем 1 000 000 пользователей решать свои проблемы со здоровьем, и этот факт по-настоящему драйвит команду.\n\nГлавные задачи:\n✔️ Развивать архитектуру приложения и решать \"как делать\"\n✔️ Участвовать в планировании спринтов\n✔️ Менторство для младшего разработчика\n✔️ Наши технологии: Мы строим работу по SCRUM, для организации flow используем Jira и Slack.\n✔️ Основной стек команды веб-разработки (для полноты картины): PHP 7.3, MySQL / PostgreSQL / Redis, Zend / Laravel, Vue / jQuery.\n\nТребования:\n✔️ Имеете опыт коммерческой разработки на Swift более 3-х лет\n✔️ Понимаете как устроен жизненный цикл разработки мобильного приложения от концепции и первой строчки кода до релиза на маркетплейс\n✔️ Имеете опыт взаимодействия с REST API\n✔️ Уверенно владеете iOS SDK\n✔️ Пишете SOLID’ный код, знаете и применяете паттерны проектирования\n✔️ Настроены на решение реальных задач бизнеса\n✔️ Мы ищем в команду специалиста, мыслящего в терминах time-to-market, то есть, чтобы новые фичи доходили до прода, как можно быстрее, а не застревали в тестировании.\n\nПриятные мелочи:\n✔️ Белая зарплата, размер обсуждается с успешным кандидатом\n✔️ Мы поощряем развитие коллег, поэтому оплачиваем курсы, конференции и создаем корпоративную библиотеку\n✔️ Программа опционов для сотрудников\n✔️ Фрукты, снеки, чай и кофе\n✔️ Гибкое начало рабочего дня (с 8 до 11)\n\n📩 @ulyana_rol","markup":[{"type":"hashtag","offset":0,"length":9,"data":"вакансия"},{"type":"hashtag","offset":10,"length":4,"data":"ios"},{"type":"hashtag","offset":15,"length":7,"data":"senior"},{"type":"hashtag","offset":23,"length":6,"data":"swift"},{"type":"hashtag","offset":30,"length":4,"data":"Спб"},{"type":"bold","offset":36,"length":7,"data":""},{"type":"bold","offset":59,"length":14,"data":""},{"type":"bold","offset":79,"length":11,"data":""},{"type":"bold","offset":97,"length":17,"data":""},{"type":"bold","offset":182,"length":9,"data":""},{"type":"bold","offset":254,"length":11,"data":""},{"type":"bold","offset":536,"length":15,"data":""},{"type":"bold","offset":913,"length":11,"data":""},{"type":"bold","offset":1474,"length":16,"data":""},{"type":"handle","offset":1769,"length":11,"data":"ulyana_rol"}],"date":"2020-06-29T13:47:15+00:00","link":"tg://resolve?domain=mobile_jobs&post=68924","tags":[{"name":"mobile"},{"name":"ios"},{"name":"swift"},{"name":"dotnet"},{"name":"php"},{"name":"mysql"},{"name":"postgresql"},{"name":"redis"},{"name":"zend-framework"},{"name":"laravel"},{"name":"vuejs"},{"name":"jquery"},{"name":"rest"}],"cities":[],"allowsRemote":false}},{"node":{"__typename":"Job","id":"72254226432-1001054966032","title":"Mobile разработчик","text":"#вакансия #ios #senior #middle #objective_c \n\nОчень важен опыт работы с Core Data\n\nГород: #Москва, м. Павелецкая (удалённо на период всеобщей борьбы с вирусами)\nФормат работы: #офис, #удалёнка, #гибкие_часы \n\nЗанятость: полная  \nЗарплатная вилка: от 200к до 250к руб. net \nОписание вакансии: \n\nМы разрабатываем облачные CRM решения с широким использованием мобильных устройств.   \nСейчас мы ищем middle  и senior iOS разработчиков в команду, которая внедряет приложение CT Mobile в архитектуру CRM наших клиентов в Европе.\n\nhttps://apps.apple.com/us/app/ct-mobile-for-salesforce/id1234947996\n\nНазвание компании: Customertimes.com\nКонтакты: mikhail.zinoviev@ctconsult.ru","markup":[{"type":"hashtag","offset":0,"length":9,"data":"вакансия"},{"type":"hashtag","offset":10,"length":4,"data":"ios"},{"type":"hashtag","offset":15,"length":7,"data":"senior"},{"type":"hashtag","offset":23,"length":7,"data":"middle"},{"type":"hashtag","offset":31,"length":12,"data":"objective_c"},{"type":"hashtag","offset":90,"length":7,"data":"Москва"},{"type":"hashtag","offset":176,"length":5,"data":"офис"},{"type":"hashtag","offset":183,"length":9,"data":"удалёнка"},{"type":"hashtag","offset":194,"length":12,"data":"гибкие_часы"},{"type":"link","offset":524,"length":67,"data":"https://apps.apple.com/us/app/ct-mobile-for-salesforce/id1234947996"},{"type":"link","offset":612,"length":17,"data":"http://Customertimes.com"},{"type":"link","offset":640,"length":29,"data":"mailto:mikhail.zinoviev@ctconsult.ru"}],"date":"2020-06-29T11:15:18+00:00","link":"tg://resolve?domain=mobile_jobs&post=68907","tags":[{"name":"mobile"},{"name":"ios"},{"name":"objective-c"},{"name":"dotnet"},{"name":"core-data"}],"cities":[{"code":"moscow"}],"allowsRemote":true}},{"node":{"__typename":"Job","id":"1760559104-1001091028994","title":"Java разработчик","text":"#вакансия #удаленка #Java\n\nВакансия: Backend Java разработчик (middle, senior)\n\nЛокация: #Москва #удаленка\nВилка по ЗП: middle до 170 000 net, senior до 200 000 net)\nКонтакт: @Hr_Dina\nОсновной проект: Разработка подсистемы обеспечения юридической значимости электронного документооборота.\nСтек технологий: Java 11, Spring (Core, Boot, Security, Data), JPA (Hibernate), PostgreSQL, Angular, Ant-design, Docker.\n\nЧто нужно делать:\nBack-end - разработка проектов разных масштабов и направленности, в том числе проектов с \"нуля\"\nРефакторинг, оптимизация и модернизация кода существующих проектов\nУчастие в разработке архитектуры проекта\nРабота с разными проектными командами архитекторов, разработчиков и тестировщиков\n\nЧто мы ждем от вас:\nОпыт работы (обязательный):\nОпыт коммерческой разработки на Java от 3х лет.\nОпыт работы (желательный):\nОпыт разработки высоконагруженных приложений на Java от 1го года.\n\nНавыки (обязательные):\n- Java SE 8+ (Core, Collections, Multithreading);\n- Spring (Core, Boot, Security, Data);\n- ORM: Hibernate/JOOQ;\n- Кеши (Ehcache/Redis/Hazelcast/Ignite/GridGain/etc);\n- Очереди (Kafka/RabbitMQ/ActiveMQ/etc);\n- Проектирование REST API (Swagger);\n- БазыданныхPostgre/Oracle\n- Maven, Git\n\nНавыки (желательные):\n- OAuth, OpenId, SSO/SAML, WS-Security, PKI, Kerberos;\n- Docker\n- GitLab, Sonar","markup":[{"type":"hashtag","offset":0,"length":9,"data":"вакансия"},{"type":"hashtag","offset":10,"length":9,"data":"удаленка"},{"type":"hashtag","offset":20,"length":5,"data":"Java"},{"type":"bold","offset":27,"length":9,"data":""},{"type":"bold","offset":80,"length":8,"data":""},{"type":"hashtag","offset":89,"length":7,"data":"Москва"},{"type":"hashtag","offset":97,"length":9,"data":"удаленка"},{"type":"bold","offset":107,"length":12,"data":""},{"type":"bold","offset":166,"length":8,"data":""},{"type":"handle","offset":175,"length":8,"data":"Hr_Dina"},{"type":"bold","offset":184,"length":16,"data":""},{"type":"bold","offset":289,"length":16,"data":""},{"type":"bold","offset":411,"length":18,"data":""},{"type":"bold","offset":716,"length":20,"data":""},{"type":"bold","offset":906,"length":23,"data":""},{"type":"bold","offset":1214,"length":22,"data":""}],"date":"2020-06-29T11:03:15+00:00","link":"tg://resolve?domain=jvmjobs&post=1679","tags":[{"name":"java"},{"name":"jvm"},{"name":"dotnet"},{"name":"spring"},{"name":"jpa"},{"name":"hibernate"},{"name":"postgresql"},{"name":"angularjs"},{"name":"ant"},{"name":"docker"},{"name":"orm"},{"name":"redis"},{"name":"kafka"},{"name":"rabbitmq"},{"name":"rest"},{"name":"swagger"},{"name":"oracle"},{"name":"maven"},{"name":"git"},{"name":"oauth"},{"name":"gitlab"}],"cities":[{"code":"moscow"}],"allowsRemote":true}},{"node":{"__typename":"Job","id":"1758461952-1001091028994","title":"Java разработчик","text":"#Java\nИщy Java разработчика в ВТБ Банк, в команду SCRUM на автоматизацию банковских продуктов для Юр лиц.\nКоманда занимается открытием онлайн счетов для юридических лиц.\n\nЗадачи будут связаны с развитием бекенда, с использованием микросервисной архитектуры, приложение на java 8 (spring boot 2.1, mvc, data jpa, ehcache, oracle DB). \n\nВ команде:\n-3 системных аналитика, \n-2 frontend-разработчика,\n-4 backend -разработчика,\n-2 тестировщика, \n-1 DevOps, \n-2 бизнес-аналитика.\n\nУсловия обсуждаются в зависимости от опыта: до 250 000 руб. net («белая» з/п).\n\nРабота постоянная, удаленная, с оформлением в штат компании. \n\nПисать в лс @dvoretskayaEk или edvoreckaya@vtb.ru","markup":[{"type":"hashtag","offset":0,"length":5,"data":"Java"},{"type":"handle","offset":630,"length":14,"data":"dvoretskayaEk"},{"type":"link","offset":649,"length":18,"data":"mailto:edvoreckaya@vtb.ru"}],"date":"2020-06-29T10:40:50+00:00","link":"tg://resolve?domain=jvmjobs&post=1677","tags":[{"name":"java"},{"name":"jvm"},{"name":"spring"},{"name":"jpa"},{"name":"oracle"},{"name":"dotnet"},{"name":"spring-boot"}],"cities":[],"allowsRemote":true}},{"node":{"__typename":"Job","id":"1757413376-1001091028994","title":"Java разработчик","text":"#Middle #Java #Developer\nЛокация: #удаленка #офис (Москва)\nЗ/п: 100 000 – 150 000 Net\nКонтакт: @Elena19_10Kom\n\nНаша компания занимается разработкой программного обеспечения в сфере аффилированного маркетинга, оказывает сервис, связанный с обслуживанием клиентов, генерирующих трафик для различных зарубежных проектов.\nМы запускаем очередной новый проект. Цель проекта - получить современный портал в области теннисного спорта. Это должна быть мощная платформа, которая превзойдет по удобству и современности все существующие на данный момент платформы этой тематики.\nПроект стартует с \"0\", поэтому предоставляется уникальная возможность начать \"все с самого начала\", а не разбираться и пилить Legacy код.\n\nОбязанности:\n•  разработка и сопровождение веб-проектов\n•  модульное и интеграционное тестирование\n•  системная интеграция и развертывание приложений\n•  обеспечение технической поддержки второго и третьего уровня\nТребования:\n•  опыт коммерческой разработки на java от 3-х лет\n•  знание Spring Framework (в т.ч. SpringBoot, SpringData, SpringSecurity)\n•  знание ORM (JPA или Hibernate)\n•  опыт работы с RDBMS, желательно PostgreSQL\n•  опыт работы по практикам Agile, DevOps, CI/CD\n•  знание Java Core, collections, multithreading, concurrency, generics, reflection\n•  знание и понимание основных принципов ООП\n•  знание паттернов проектирования\n•  умение писать качественный и понятный код\n•  английский – уровень Intermediate\nБудет плюсом:\n•  опыт разработки на Playframework, Akka, Akka-Persistence\n•  опыт работы Full-Stack разработчиком на React/Redux\n•  опыт работы в команде\n•  знание Apache Cassandra\n•  опыт работы с Docker и Kubernetes\n•  опыт работы с микросервисной архитектурой\n•  опыт работы c AWS или другими Cloud платформами\n•  понимание принципов работы HTTP, Websockets\n•  понимание принципов работы stream-processing, reactive, CQRS\n•  наличие примеров кода на GitHub\n•  опыт администрирования Linux\nУсловия:\n•  зарплату обсуждаем\n•  оформление по ТК РФ\n•  можно работать удаленно или в комфортном офисе, который находится в пешей доступности от м. Динамо, с панорамным видом на Москву, на 25 этаже бизнес-центра класса \"А\"\n•  гибкое начало рабочего дня\n•  работа на MacBook air\n•  выделение бюджета для каждого сотрудника на развитие как профессиональных навыков (английский язык, курсы повышения квалификации), так и физических возможностей (корпоративный фитнес)","markup":[{"type":"hashtag","offset":0,"length":7,"data":"Middle"},{"type":"hashtag","offset":8,"length":5,"data":"Java"},{"type":"hashtag","offset":14,"length":10,"data":"Developer"},{"type":"hashtag","offset":34,"length":9,"data":"удаленка"},{"type":"hashtag","offset":44,"length":5,"data":"офис"},{"type":"handle","offset":95,"length":14,"data":"Elena19_10Kom"}],"date":"2020-06-29T10:38:58+00:00","link":"tg://resolve?domain=jvmjobs&post=1676","tags":[{"name":"java"},{"name":"jvm"},{"name":"dotnet"},{"name":"spring"},{"name":"orm"},{"name":"jpa"},{"name":"hibernate"},{"name":"postgresql"},{"name":"playframework"},{"name":"akka"},{"name":"reactjs"},{"name":"redux"},{"name":"apache"},{"name":"cassandra"},{"name":"docker"},{"name":"kubernetes"},{"name":"amazon-web-services"},{"name":"cloud"},{"name":"github"},{"name":"linux"},{"name":"react-redux"}],"cities":[{"code":"moscow"}],"allowsRemote":true}},{"node":{"__typename":"Job","id":"1755316224-1001091028994","title":"Java developer","text":"#Senior #Java #Developer\nКомпания: #Утконос\nЛокация: #Москва\nЗ/п: до 320 000 Net\nКонтакт: @RecruiterTatianaK\nSenior Java Developer в Утконос Онлайн\n📍Наш проект:\nВ компании разрабатывается комплексная система по управлению складом (WMS). Систему пишем сами «с нуля» на микросервисной архитектуре. \nСистема является ключевой для бизнеса и проектируется под высокие нагрузки.\n📍Что нужно делать?\nАвтоматизировать бизнес процессы на складе в одной из scrum команд в количестве 10 человек, прорабатывать архитектурные решения, замещать тим лида при необходимости.\n📍Наш стек:\nJava 11/Kotlin, Spring Boot 2.3.0, Camunda BPM, Kafka, Kubernetes, ELK, Grafana, Prometheus\n📍Что предлагаем?\nОформление по ТК РФ, ДМС\nГибкий график\nВозможность работы удаленно\nСплоченный и профессиональный коллектив\nКорпоративные скидки на utkonos.ru, tui.ru, фитнес, кино и др.\nОфис - 10 минут  от м. Краснопресненская/ м.Улица 1905 года","markup":[{"type":"hashtag","offset":0,"length":7,"data":"Senior"},{"type":"hashtag","offset":8,"length":5,"data":"Java"},{"type":"hashtag","offset":14,"length":10,"data":"Developer"},{"type":"hashtag","offset":35,"length":8,"data":"Утконос"},{"type":"hashtag","offset":53,"length":7,"data":"Москва"},{"type":"handle","offset":90,"length":18,"data":"RecruiterTatianaK"},{"type":"link","offset":813,"length":10,"data":"http://utkonos.ru"},{"type":"link","offset":825,"length":6,"data":"http://tui.ru"}],"date":"2020-06-29T09:38:10+00:00","link":"tg://resolve?domain=jvmjobs&post=1674","tags":[{"name":"java"},{"name":"jvm"},{"name":"dotnet"},{"name":"kotlin"},{"name":"spring"},{"name":"kafka"},{"name":"kubernetes"},{"name":"spring-boot"}],"cities":[{"code":"moscow"},{"code":"lida"}],"allowsRemote":true}},{"node":{"__typename":"Job","id":"1754267648-1001091028994","title":"Java developer","text":"#Junior #Middle #Java #Developer\nКомпания: #Утконос\nЛокация: #Москва\nЗ/п: до 180 000 Net\nКонтакт: @RecruiterTatianaK\nJunior/Middle Java Developer в Утконос Онлайн\n📍Наш проект:\nВ компании разрабатывается комплексная система по управлению складом (WMS). Систему пишем сами «с нуля» на микросервисной архитектуре. \nСистема является ключевой для бизнеса и проектируется под высокие нагрузки.\n📍Что нужно делать?\nРазрабатывать сервисы WMS, закрепленные за одной из scrum команд и покрывать их end-to-end тестами.\n📍Наш стек:\nJava 11/Kotlin, Spring Boot 2.3.0, Camunda BPM, Kafka, Kubernetes, ELK, Grafana, Prometheus\n📍Что предлагаем?\nОформление по ТК РФ, ДМС\nГибкий график\nВозможность работы из дома\nСплоченный и профессиональный коллектив\nКорпоративные скидки на utkonos.ru, tui.ru, фитнес, кино и др.\nОфис - 10 минут  от м. Краснопресненская/ м.Улица 1905 года","markup":[{"type":"hashtag","offset":0,"length":7,"data":"Junior"},{"type":"hashtag","offset":8,"length":7,"data":"Middle"},{"type":"hashtag","offset":16,"length":5,"data":"Java"},{"type":"hashtag","offset":22,"length":10,"data":"Developer"},{"type":"hashtag","offset":43,"length":8,"data":"Утконос"},{"type":"hashtag","offset":61,"length":7,"data":"Москва"},{"type":"handle","offset":98,"length":18,"data":"RecruiterTatianaK"},{"type":"link","offset":761,"length":10,"data":"http://utkonos.ru"},{"type":"link","offset":773,"length":6,"data":"http://tui.ru"}],"date":"2020-06-29T09:37:29+00:00","link":"tg://resolve?domain=jvmjobs&post=1673","tags":[{"name":"java"},{"name":"jvm"},{"name":"dotnet"},{"name":"kotlin"},{"name":"spring"},{"name":"kafka"},{"name":"kubernetes"},{"name":"spring-boot"}],"cities":[{"code":"moscow"}],"allowsRemote":false}}]}}},"context":{}}