{"hash":"f5f6bf98bd95e769321482904cbbd488f77922fd","data":{"records":{"id":"php","name":"php","belongsTo":{"totalCount":88,"pageInfo":{"totalPages":9,"currentPage":3},"edges":[{"node":{"__typename":"Job","id":"26847739904-1001075660570","title":"Php разработчик","text":"#работа #вакансия #удаленка #job #РНР #Yii #Laravel #Symfony \n\nСейчас нахожусь в поисках РНР разработчика уровня senior в одну из крупнейших ecommerce компаний России - Bork/Technopark. \nНа текущий  момент внутри идет несколько проектов по поддержке и развитию интернет-площадки по продаже бытовой техники и электроники премиум-класса.\n\nПродукты реализуются на стеке: PHP (Yii2), MySql, JS (Vue), HTML, CSS, Gulp, Webpack, SVG, Canvas. \nЗадачи: разработка серверной части веб-проектов на всех этапах (от участия в проектировании архитектуры, до разработки сервисов), участие в митапах для обсуждения предстоящих задач, вносить вклад в планирование архитектуры и т.д.\n\nОсновные требования:\n\n- Опыт коммерческой разработки от 3 лет на PHP (7.1 или выше);\n\n- Хорошие знания современных фреймворков  (YII, Symfony);\n\n- Знание ООП, базовых алгоритмов, шаблонов проектирования, стандартов написания кода.\n\nУсловия: \n\n- ЗП до 220 000 net;\n\n- Полная УДАЛЁНКА; \n\n- Оформление через ИП или как самозанятый; \n\nКто заинтересовался - пишите в ЛС (@nastyaklassnaya),  буду рада пообщаться :)","markup":[{"type":"hashtag","offset":0,"length":7,"data":"работа"},{"type":"hashtag","offset":8,"length":9,"data":"вакансия"},{"type":"hashtag","offset":18,"length":9,"data":"удаленка"},{"type":"hashtag","offset":28,"length":4,"data":"job"},{"type":"hashtag","offset":33,"length":4,"data":"РНР"},{"type":"hashtag","offset":38,"length":4,"data":"Yii"},{"type":"hashtag","offset":43,"length":8,"data":"Laravel"},{"type":"hashtag","offset":52,"length":8,"data":"Symfony"},{"type":"handle","offset":1034,"length":16,"data":"nastyaklassnaya"}],"date":"2020-06-30T07:37:17+00:00","link":"tg://resolve?domain=php_jobs&post=25604","tags":[{"name":"php"},{"name":"yii"},{"name":"laravel"},{"name":"symfony"},{"name":"mysql"},{"name":"vuejs"},{"name":"html"},{"name":"css"},{"name":"gulp"},{"name":"webpack"},{"name":"svg"},{"name":"canvas"},{"name":"dotnet"}],"cities":[],"allowsRemote":true}},{"node":{"__typename":"Job","id":"26846691328-1001075660570","title":"Php разработчик","text":"#вакансия #москва #офис #fulltime #yii2 #php #job\n\nВсем привет!\nСейчас нахожусь в поиске крутого разработчика :)\n\n Позиция: Senior PHP Developer\nЗанятость: полная\nКомпания: ТД ЦУМ \nЛокация: Москва\nЗ/П: до 280 000\n\n   Основные цели и задачи:\n- Разработка программных модулей продуктов компании;\n- Глубокое погружение в процессы работы интернет-магазина;\n- Участие в разработке сервис-ориентированной архитектуре приложения.\n\n   Основные обязанности:\n- Разработка и поддержка инфраструктуры интернет-проекта, мобильного приложения и внутренних сервисов компании;\n- Разработка программных модулей продуктов интернет магазина ЦУМ;\n- Оптимизация приложения под высокую нагрузку, масштабирование, поиск узких мест;\n- Интеграция со сторонними сервисами;\n- Предложение и внедрение высокотехнологичных, инновационных решений.\n\nТребования:\n- Отличное знание и опыт работы с PHP 7 от 3 лет;\n- Понимание как устроен HTTP, REST;\n- Знание и понимание MVC архитектуры;\n- Знание и опыт работы фреймворком YII;\n- Опыт работы с одной или несколькими БД: MySQL, Redis, Mongo;\n- Опыт мониторинга и оптимизации SQL-запросов;\n\n   Условия работы:\n- Полный рабочий день  (гибкое утро - возможность начала рабочего дня с 9:00 до 12:00)\n- Официальное оформление по трудовому договору.\n- Офис в центре Москвы.\n- ДМС.\n- Корпоративное обучение.\n- Скидки от партнеров компании.\n\nЕсли остались вопросы, с радостью отвечу:\n @nastyaklassnaya","markup":[{"type":"hashtag","offset":0,"length":9,"data":"вакансия"},{"type":"hashtag","offset":10,"length":7,"data":"москва"},{"type":"hashtag","offset":18,"length":5,"data":"офис"},{"type":"hashtag","offset":24,"length":9,"data":"fulltime"},{"type":"hashtag","offset":34,"length":5,"data":"yii2"},{"type":"hashtag","offset":40,"length":4,"data":"php"},{"type":"hashtag","offset":45,"length":4,"data":"job"},{"type":"handle","offset":1392,"length":16,"data":"nastyaklassnaya"}],"date":"2020-06-30T07:36:11+00:00","link":"tg://resolve?domain=php_jobs&post=25603","tags":[{"name":"php"},{"name":"yii"},{"name":"rest"},{"name":"mysql"},{"name":"redis"},{"name":"sql"}],"cities":[{"code":"moscow"}],"allowsRemote":false}},{"node":{"__typename":"Job","id":"26814185472-1001075660570","title":"Php developer","text":"#вакансия #PHP #remote #fulltime #Zend #MySQL \nМы в JivoSite разрабатываем полезный продукт: бизнес-мессенджер для общения c клиентами в различных каналах (соц. сети, мессенджеры, почта, чат на сайте) через одно приложение, CRM систему и телефонию. Сейчас он-лайн продажи все более и более актуальны, а значит все больше компаний нуждаются в наших продуктах.\n\nМы ищем  Middle PHP developer'а для разработки внутреннего портала управления нашими продуктами. Не только нашим клиентам, но и сотрудникам должно быть комфортно, приятно и удобно работать.\n\nМы ожидаем, что вы:\n\n-Знаете PHP - сильные и слабые стороны языка\n-Понимаете MySQL (сложные запросы, оптимизация)\n-Понимаете базовые принципы верстки\n-Работали с системами контроля версий\n-Обладаете успешным опытом разработки web-приложений\nБудет отлично если: \n-Есть опыт работы с Symfony, Zend, AWS, Yandex.Cloud\n-Есть опыт разработки cli-скриптов и cron-задач\n-Есть опыт удаленной работы\n\nМы предлагаем:\n✔ Минимум бюрократии, максимум самостоятельности\n✔ Белую заработную плату, оформление по ТК РФ\n✔ДМС, предоставляем и для региональных сотрудников\n✔Удаленную фулл-тайм работу в стабильной компании\nПишите в личку @onvtt или на почту opaleva@jivosite.com","markup":[{"type":"hashtag","offset":0,"length":9,"data":"вакансия"},{"type":"hashtag","offset":10,"length":4,"data":"PHP"},{"type":"hashtag","offset":15,"length":7,"data":"remote"},{"type":"hashtag","offset":23,"length":9,"data":"fulltime"},{"type":"hashtag","offset":33,"length":5,"data":"Zend"},{"type":"hashtag","offset":39,"length":6,"data":"MySQL"},{"type":"handle","offset":1169,"length":6,"data":"onvtt"},{"type":"link","offset":1189,"length":20,"data":"mailto:opaleva@jivosite.com"}],"date":"2020-06-29T15:43:00+00:00","link":"tg://resolve?domain=php_jobs&post=25572","tags":[{"name":"php"},{"name":"zend-framework"},{"name":"mysql"},{"name":"web"},{"name":"symfony"},{"name":"amazon-web-services"},{"name":"cloud"},{"name":"cron"}],"cities":[],"allowsRemote":true}},{"node":{"__typename":"Job","id":"358612992-1001352129329","title":"Golang разработчик","text":"#вакансия #Москва #офис #удаленка #Golang #fulltime\n\nГород и адрес офиса: Москва, м. Новокузнецкая/Павелецкая\nФормат работы: #офис, #удаленка\nЗанятость: #полная\nЗП: от 120к до 200к руб. нетт\n\nSports.ru – ведущий спортивный сайт в России. Мы строим сообщества людей, увлекающихся разными видами спорта, помогаем им развиваться и даем им площадку для общения. Сейчас мы ищем Backend-разработчика (Golang/PHP) в команду нашего проекта Betting Insider.\n\nBetting Insider — социальная сеть для любителей ставок. Мы верим, что ставки — неотъемлемая часть рынка спортивных развлечений, и стремимся сделать этот рынок прозрачнее и интереснее для пользователей. Мы не принимаем ставок на реальные деньги, но даем пользователям множество вспомогательных сервисов, которые делают их игру проще, безопаснее и интереснее.\n\nО задачах:\nВы будете участвовать в продуктовой разработке на всех стадиях: от обсуждения фич и проработки архитектуры до деплоя и мониторинга работы.\nРазрабатывать микросервисы на Go, перевода на них наш монолит на PHP. Поддержкой монолита тоже нужно будет заниматься. Разрабатывать GraphQL API для web-версии и приложений iOS и Android.\nОптимизировать работу приложений, искать проблемы с производительностью и надежностью. Покрывать код тестами и проводить код ревью.\nЕще сможете принять участие в разработке core сервисов для sports.ru и других наших проектов с MAU больше 20 млн.\n\nО технологиях:\nGo как основной язык. PHP сервис для поддержки и переписывания на Go.\nGraphQL для клиентов. gRPC и JSON over HTTP для межсервисного взаимодействия.\nРазвертывание docker контейнеров в kubernetes. Деплой через gitlab CI и helm чарты.\nМониторинг, трейсинг и алертинг c помощью Grafana и Prometheus, Kibana, Sentry, Elasticsearch APM.\nPostgres 12 и MySQL 8.0.\nNsq и RabbitMQ в качестве очереди событий. Redis для Pub/Sub.\n\nО наших ожиданиях:\nМы ожидаем, что вы имеете опыт разработки микросервисов на Go. Имеете опыт работы с PHP и все еще можете и хотите с ним взаимодействовать. Имеете навыки построения производительных и отказоустойчивых систем.\nЗнаете основы используемых технологий и понимаете, как их использовать: SQL, Go, PHP, message queue, сетевое взаимодействие, кеширование, системы мониторинга и т.д.\nУ вас есть опыт написания тестов равного уровня: Unit, Integration, E2E.\nОпыт взаимодействия с GraphQL и gRPC будет плюсом.\nКлассно, если вы любите спорт. Еще лучше, если вы интересуетесь ставками.\n\nОб условиях: \nПросторный стильный офис возле м. Новокузнецкая/Третьяковская.\n“Белая” заработная плата.\nБесплатная медстраховка со стоматологией после испытательного срока.\nГибкий график работы с возможностью день-два в неделю работать удаленно,\nФрукты, снеки, чай, кофе, какао 24/7.\nКорпоративная скидка в спортзал и на занятия английским языком.\nКорпоративный футбол с тренером.\nФинансовая помощь при переезде из другого города.\nВозможности для профессионального развития.\n\nНазвание компании: Sports.ru (Tribuna Digital)\nКому интересно, пишите в личку (@pbuyatova), поделюсь подробностями)","markup":[{"type":"hashtag","offset":0,"length":9,"data":"вакансия"},{"type":"hashtag","offset":10,"length":7,"data":"Москва"},{"type":"hashtag","offset":18,"length":5,"data":"офис"},{"type":"hashtag","offset":24,"length":9,"data":"удаленка"},{"type":"hashtag","offset":34,"length":7,"data":"Golang"},{"type":"hashtag","offset":42,"length":9,"data":"fulltime"},{"type":"hashtag","offset":125,"length":5,"data":"офис"},{"type":"hashtag","offset":132,"length":9,"data":"удаленка"},{"type":"hashtag","offset":153,"length":7,"data":"полная"},{"type":"link","offset":192,"length":9,"data":"http://Sports.ru"},{"type":"link","offset":1338,"length":9,"data":"http://sports.ru"},{"type":"link","offset":2913,"length":9,"data":"http://Sports.ru"},{"type":"handle","offset":2973,"length":10,"data":"pbuyatova"}],"date":"2020-06-29T15:38:06+00:00","link":"tg://resolve?domain=gogetajobfeed&post=342","tags":[{"name":"go"},{"name":"php"},{"name":"graphql"},{"name":"web"},{"name":"ios"},{"name":"android"},{"name":"json"},{"name":"docker"},{"name":"kubernetes"},{"name":"gitlab"},{"name":"elasticsearch"},{"name":"postgresql"},{"name":"mysql"},{"name":"rabbitmq"},{"name":"redis"},{"name":"sql"}],"cities":[{"code":"moscow"}],"allowsRemote":true}},{"node":{"__typename":"Job","id":"17224957952-1001110946746","title":"Js разработчик","text":"#вакансия #москва #middle #remote #angular #fulltime #офис\n\nИщем frontend разработчика для работы над основным сайтом и новыми разделами.\nГород и адрес офиса: Москва, м. Авиамоторная\nФормат работы: Офис\nЗанятость: полная\nЗарплатная вилка: 130 000 — 150 000 на руки по результатам технического собеседования\n\nAutospot.ru — онлайн гипермаркет автомобилей. \n\nВ 2018 году Mitsubishi Corporation и Mail.ru. оценили нас в $19,1 млн.\n\nВ технической команде 17 человек: СТО, 9 PHP разработчиков, 2 frontend разработчика, 3 тестировщика, DevOps.\n\nЧеловек нужен в Москве или готовый в эту самую Москву переехать.\n\nОбязанности:\n▫️Разработка компонентов и адаптация/интеграция сторонних библиотек и плагинов;\n▫️ Верстка новых разделов, кроссбраузерная, адаптивная, валидная;\n▫️ Развитие библиотеки UI компонентов;\n▫️ Оперативное исправление багов на проде (IE 11+);\n▫️ Помощь в оптимизации работы сайта (скорость загрузки, оптимизация DOM).\n\nТребования:\n▪️ Опыт разработки от 2 лет;\n▪️ Знание JavaScript (jQuery в разумных пределах);\n▪️ Уверенное знание html семантическая верстка, БЭМ, SCSS;\n▪️ Знание работы GIT & NPM;\n▪️ Опыт работы с gulp/webpack;\n▪️ Опыт работы с Figma/Zeplin;\n▪️ Опыт работы с векторной графикой (svg и svg-спрайты).\n\nЖелательно:\n◾️ Хорошее знание Vue.js и/или Angular 5+. Работать надо будет и с тем и с другим. Angular 5+ в приоритете, планируется переход полностью на него;\n◾️ Знание инструментов организации разработки Jira;\n◾️ Знание нюансов работы браузеров на разных устройствах и ОС;\n◾️ Опыт сео оптимизации;\n◾️ Понимание, что такое доступные интерфейсы;\n\nУсловия:\n▫️ Комфортабельный офис, БЦ Light Tower, бесплатный шаттл от м. Площадь Ильича;\n▫️ Оформление по ТК РФ с первого рабочего дня;\n▫️ Гибкое начало рабочего дня, с 9 до 11;\n▫️ Возможность работать 1-2 дня удалённо;\n▫️ Полностью белая заработная плата;\n▫️ Неформальная атмосфера и дружный, амбициозный коллектив;\n▫️ Корпоративная скидка на изучение английского языка.\n\nКонтакт: @dianadoma","markup":[{"type":"hashtag","offset":0,"length":9,"data":"вакансия"},{"type":"hashtag","offset":10,"length":7,"data":"москва"},{"type":"hashtag","offset":18,"length":7,"data":"middle"},{"type":"hashtag","offset":26,"length":7,"data":"remote"},{"type":"hashtag","offset":34,"length":8,"data":"angular"},{"type":"hashtag","offset":43,"length":9,"data":"fulltime"},{"type":"hashtag","offset":53,"length":5,"data":"офис"},{"type":"link","offset":308,"length":11,"data":"http://Autospot.ru"},{"type":"link","offset":393,"length":7,"data":"http://Mail.ru"},{"type":"handle","offset":1957,"length":10,"data":"dianadoma"}],"date":"2020-06-29T15:32:23+00:00","link":"tg://resolve?domain=javascript_jobs_feed&post=16427","tags":[{"name":"javascript"},{"name":"angularjs"},{"name":"php"},{"name":"jquery"},{"name":"html"},{"name":"git"},{"name":"npm"},{"name":"gulp"},{"name":"webpack"},{"name":"svg"},{"name":"vuejs"}],"cities":[{"code":"moscow"}],"allowsRemote":true}},{"node":{"__typename":"Job","id":"17221812224-1001110946746","title":"Js developer","text":"#вакансия #Frontend #React\n #JS #Lead \n🔸 Формат работы: full time офис\n🔸 Город: г. Москва 1905 года с сентября Кутузовский проспект\n🔸 З/п: от 260 000 руб. net до 300 000 net, готовы обсудить.\n🔸Мы -  международный сервис пассажирских перевозок. Создаем глобальный высокотехнологичный продукт, который меняет жизнь миллионов людей к лучшему.\nВходим в топ-5 мобильных сервисов для заказа поездок.\n\nСейчас ищем Lead frontend developer в Московский офис разработки.\n\nИспользуемые технологии:\n- React;\n- PHP и Go в качестве языков для бекенда;\n- Kubernetes + Teamcity для CI/CD.\n\n📌 Чем придется заниматься:\n- разработкой фронтовых проектов на React;\n- нанимать, проводить Code review и обучать младших коллег;\n- интегрироваться с Backend, отстаивать свою точку зрения почему так и как сделать лучше;\n- проектирование архитектуры приложения.\n📌Мы ожидаем, что вы:\n- отлично владеете базовыми технологиями — HTML, CSS, JavaScript (ES6), DOM, браузерные API;\n- имеете опыт разработки сложных продуктов с использованием React;\n- ответственны, умеете работать в команде и самостоятельно восполнять недостающие навыки и знания;\n\n🔹Будет здорово, если вы:\n- интересуетесь новыми технологиями во фронтенде;\n- обладаете навыками в автоматизации сборки и тестирования фронтенда.\n\n🔸 Компания: inDriver\n🔸 Контакты: @molly_doll","markup":[{"type":"hashtag","offset":0,"length":9,"data":"вакансия"},{"type":"hashtag","offset":10,"length":9,"data":"Frontend"},{"type":"hashtag","offset":20,"length":6,"data":"React"},{"type":"hashtag","offset":28,"length":3,"data":"JS"},{"type":"hashtag","offset":32,"length":5,"data":"Lead"},{"type":"handle","offset":1304,"length":11,"data":"molly_doll"}],"date":"2020-06-29T15:29:20+00:00","link":"tg://resolve?domain=javascript_jobs_feed&post=16424","tags":[{"name":"javascript"},{"name":"reactjs"},{"name":"dotnet"},{"name":"php"},{"name":"kubernetes"},{"name":"html"},{"name":"css"}],"cities":[{"code":"moscow"}],"allowsRemote":false}},{"node":{"__typename":"Job","id":"26800553984-1001075660570","title":"Php разработчик","text":"#разработчикБитрикс #Битрикс #PHPразработчик #ProgressiveMedia #вакансия \n\nProgressive Media приглашает в штат разработчиков PHP/ 1С-Битрикс (удаленно, полная занятость). Работа в проектных группах. Чистый бэкэнд-кодинг, интересные формализованные задачи. \n\n✅Обязанности: \n- Создание бэкенда на PHP на базе Bitrix framework \n- Интеграция фронтенда \n- Разработка сервисов интеграции с различными ERP и CRM-системами \n\n✅Требуется: \n- PHP, MySQL \n- Знание принципов ООП (PHP7) \n- HTML5, CSS3, JavaScript, JQuery, SQL для интеграции фронтенда \n- знание Bitrix framework \n- Знание ядра Bitrix D7 \n\n✅Предлагаем: \n- Удаленная работа \n- Белая ЗП \n- Используем GIT и сервис деплоймента \n\n📩📩📩Для резюме: shevchenko@progressivemedia.ru","markup":[{"type":"hashtag","offset":0,"length":19,"data":"разработчикБитрикс"},{"type":"hashtag","offset":20,"length":8,"data":"Битрикс"},{"type":"hashtag","offset":29,"length":15,"data":"PHPразработчик"},{"type":"hashtag","offset":45,"length":17,"data":"ProgressiveMedia"},{"type":"hashtag","offset":63,"length":9,"data":"вакансия"},{"type":"bold","offset":111,"length":17,"data":""},{"type":"bold","offset":142,"length":26,"data":""},{"type":"link","offset":697,"length":30,"data":"mailto:shevchenko@progressivemedia.ru"}],"date":"2020-06-29T14:45:14+00:00","link":"tg://resolve?domain=php_jobs&post=25559","tags":[{"name":"php"},{"name":"mysql"},{"name":"html"},{"name":"css"},{"name":"javascript"},{"name":"jquery"},{"name":"sql"},{"name":"git"}],"cities":[],"allowsRemote":true}},{"node":{"__typename":"Job","id":"72272052224-1001054966032","title":"Ios разработчик","text":"#вакансия #ios #senior #swift #Спб\n\nГород: Санкт-Петербург\nФормат работы: офис\nЗанятость: полная\nЗарплатная вилка: 180-220 k net (готовы по потолку двигаться в зависимости от опыта)\nВакансия: ищу ведущего iOS-разработчика в развитие молодого приложения.\nО компании: НаПоправку.ру — медицинский онлайн-сервис. Команда реализовала real-time запись на медицинскую диагностику и услуги. Компании 6 лет, ежемесячно она помогает более чем 1 000 000 пользователей решать свои проблемы со здоровьем, и этот факт по-настоящему драйвит команду.\n\nГлавные задачи:\n✔️ Развивать архитектуру приложения и решать \"как делать\"\n✔️ Участвовать в планировании спринтов\n✔️ Менторство для младшего разработчика\n✔️ Наши технологии: Мы строим работу по SCRUM, для организации flow используем Jira и Slack.\n✔️ Основной стек команды веб-разработки (для полноты картины): PHP 7.3, MySQL / PostgreSQL / Redis, Zend / Laravel, Vue / jQuery.\n\nТребования:\n✔️ Имеете опыт коммерческой разработки на Swift более 3-х лет\n✔️ Понимаете как устроен жизненный цикл разработки мобильного приложения от концепции и первой строчки кода до релиза на маркетплейс\n✔️ Имеете опыт взаимодействия с REST API\n✔️ Уверенно владеете iOS SDK\n✔️ Пишете SOLID’ный код, знаете и применяете паттерны проектирования\n✔️ Настроены на решение реальных задач бизнеса\n✔️ Мы ищем в команду специалиста, мыслящего в терминах time-to-market, то есть, чтобы новые фичи доходили до прода, как можно быстрее, а не застревали в тестировании.\n\nПриятные мелочи:\n✔️ Белая зарплата, размер обсуждается с успешным кандидатом\n✔️ Мы поощряем развитие коллег, поэтому оплачиваем курсы, конференции и создаем корпоративную библиотеку\n✔️ Программа опционов для сотрудников\n✔️ Фрукты, снеки, чай и кофе\n✔️ Гибкое начало рабочего дня (с 8 до 11)\n\n📩 @ulyana_rol","markup":[{"type":"hashtag","offset":0,"length":9,"data":"вакансия"},{"type":"hashtag","offset":10,"length":4,"data":"ios"},{"type":"hashtag","offset":15,"length":7,"data":"senior"},{"type":"hashtag","offset":23,"length":6,"data":"swift"},{"type":"hashtag","offset":30,"length":4,"data":"Спб"},{"type":"bold","offset":36,"length":7,"data":""},{"type":"bold","offset":59,"length":14,"data":""},{"type":"bold","offset":79,"length":11,"data":""},{"type":"bold","offset":97,"length":17,"data":""},{"type":"bold","offset":182,"length":9,"data":""},{"type":"bold","offset":254,"length":11,"data":""},{"type":"bold","offset":536,"length":15,"data":""},{"type":"bold","offset":913,"length":11,"data":""},{"type":"bold","offset":1474,"length":16,"data":""},{"type":"handle","offset":1769,"length":11,"data":"ulyana_rol"}],"date":"2020-06-29T13:47:15+00:00","link":"tg://resolve?domain=mobile_jobs&post=68924","tags":[{"name":"mobile"},{"name":"ios"},{"name":"swift"},{"name":"dotnet"},{"name":"php"},{"name":"mysql"},{"name":"postgresql"},{"name":"redis"},{"name":"zend-framework"},{"name":"laravel"},{"name":"vuejs"},{"name":"jquery"},{"name":"rest"}],"cities":[],"allowsRemote":false}},{"node":{"__typename":"Job","id":"103982039040-1001089317451","title":"Qa инженер","text":"#вакансия#QAAutomation#тестировщик #атоматизация #Тюмень #офис \n\n🏢Компания: Creative\n🏙Город: Тюмень, ул. Малыгина, 84/1\n💰Зп: от 85к (обсуждается по результатам собеседования)\n\nФормат работы: офис \nЗанятость: полная\nМы занимаемся веб и мобильной разработкой: помогаем нашим клиентам эффективно инвестировать деньги в цифровую среду и стремимся стать лидерами на российском рынке.\nСейчас у нас в работе флагманский проект с крупнейшим банком TOP-5 в России по разработке сервиса для поиска и заказа услуг самозанятых. Мы активно формируем команду разработчиков на долгосрочный проект.\n\nЗадачи: \n✔️ Написание и поддержка behat-тестов на API продукта (backend), \n✔️Написание и поддержка Java+Selenium-тестов на интерфейсную часть продукта (frontend). \n\nТребования:\n ✔️Знание behat фреймворка тестирования и умение его применять\n✔️ Знания в PHP на уровне, достаточном для поддержания behat-сценариев - написание бэкдоров\n✔️Знания в Java на уровне, достаточном для написания сценариев тестирования на связка Java+Selenium\n\nУсловия:\n✔️Конкурентная заработная плата;\n✔️работаем с 10:00 до 19:00. График индивидуально корректируемый. Иногда можно работать из дома. Обед можно смещать.\n✔️возможность пробовать новый стек;\n✔️пятничные встречи с интересными ребятами, английский прямо в офисе, поездки на конференции, обучение друг друга внутри компании;\n✔️современный офис в центре города;\n✔️программа релокации по переезду в г. Тюмень\n\n📲Контакты: m.zinoveva@rabota.ru или в лс (в телеге)","markup":[{"type":"hashtag","offset":35,"length":13,"data":"атоматизация"},{"type":"hashtag","offset":49,"length":7,"data":"Тюмень"},{"type":"hashtag","offset":57,"length":5,"data":"офис"},{"type":"link","offset":1441,"length":20,"data":"mailto:m.zinoveva@rabota.ru"}],"date":"2020-06-29T13:23:17+00:00","link":"tg://resolve?domain=qa_jobs&post=99165","tags":[{"name":"qa"},{"name":"java"},{"name":"selenium"},{"name":"php"}],"cities":[{"code":"tyumen"}],"allowsRemote":false}},{"node":{"__typename":"Job","id":"26779582464-1001075660570","title":"Php developer","text":"#backend #вакансия #офис #удаленка #PHP #remote\n\nВилка: 80к - 250k руб.\nЛокация: Удаленная работа или офис в Новосибе\nЗанятость: #полная\n\nМы — Legionfarm.com.\nМы помогаем игрокам по всему миру нанимать крутых киберспортсменов для помощи в освоении end-game контента, получении топ шмота и титулов, повышении рейтингов. Основные игровые дисциплины - Destiny 2, WoW, Division 2.\n\nТысячи игроков по всему миру пользуются сервисом ежедневно, мы растем, поэтому сейчас ищем в одну из команд PHP Developer (#middle и #senior)\n\n😱Что будем делать?\n• Будем ходить в API игр Bungie, Blizzard, анализировать игровые профили наших клиентов, строить рекомендательные системы.\n• Автоматическая отправка сообщений через API в мессенджеры: discord, telegram, fb, будем сводить общение наших клиентов через мессенджеры в единую систему intercom.com.\n• Автоматизация процессов в нашей команде (полуавтоматизированные инструменты для работы с сайтом).\n\n👍Что ты должен знать/уметь?\n• Знание PHP, Linux на хорошем уровне.\n• Умение работать в системах контроля версий.\n• Знание mysql, redis.\n• Опыт работы с различными API.\n\n⭐️Будет плюсом\n• Сильный математический бэкграунд.\n• Базовое знание html, CSS, JavaScript.\n• Опыт работы с фронтенд фреймворками (React one love).\n\n✅Вопросы прошу направлять в личку @isaevakristi","markup":[{"type":"hashtag","offset":0,"length":8,"data":"backend"},{"type":"hashtag","offset":9,"length":9,"data":"вакансия"},{"type":"hashtag","offset":19,"length":5,"data":"офис"},{"type":"hashtag","offset":25,"length":9,"data":"удаленка"},{"type":"hashtag","offset":35,"length":4,"data":"PHP"},{"type":"hashtag","offset":40,"length":7,"data":"remote"},{"type":"bold","offset":49,"length":6,"data":""},{"type":"bold","offset":72,"length":9,"data":""},{"type":"bold","offset":118,"length":9,"data":""},{"type":"hashtag","offset":129,"length":7,"data":"полная"},{"type":"link","offset":143,"length":14,"data":"http://Legionfarm.com"},{"type":"bold","offset":143,"length":14,"data":""},{"type":"bold","offset":464,"length":77,"data":""},{"type":"hashtag","offset":501,"length":7,"data":"middle"},{"type":"hashtag","offset":511,"length":7,"data":"senior"},{"type":"link","offset":820,"length":12,"data":"http://intercom.com"},{"type":"bold","offset":935,"length":29,"data":""},{"type":"bold","offset":1105,"length":15,"data":""},{"type":"handle","offset":1287,"length":13,"data":"isaevakristi"}],"date":"2020-06-29T12:07:04+00:00","link":"tg://resolve?domain=php_jobs&post=25539","tags":[{"name":"php"},{"name":"linux"},{"name":"mysql"},{"name":"redis"},{"name":"html"},{"name":"css"},{"name":"javascript"},{"name":"reactjs"}],"cities":[],"allowsRemote":true}}]}}},"context":{}}