{"hash":"f5f6bf98bd95e769321482904cbbd488f77922fd","data":{"records":{"id":"russia/moscow","country":{"code":"russia","ruName":"Россия","enName":"Russia"},"city":{"code":"moscow","ruName":"Москва","enName":"Moscow"},"belongsTo":{"totalCount":476,"pageInfo":{"totalPages":48,"currentPage":31},"edges":[{"node":{"__typename":"Job","id":"103309901824-1001089317451","title":"Qa engineer","text":"#Москва #вакансия #QA #manual  #python\n\nДолжность: QA Engineer \nКомпания: Andromeda Lab\nЗП: до 120 000 \nФормат работы: офис, гибкое начало дня\nЗанятость: полная\n\n\nКого мы ищем:\nЧеловека который готов заниматься ручным тестированием 80% времени и 20% времени - автоматизацией.Со временем доля автоматизации вырастет до 50%\n\nЗадачи:\n- Тестирование ERP-системы;\n- Введение документации для тестирования (Создание тест-кейсов, чек-листов и т.д.)\n- Тестирование мобильного приложения \n- Участие в автоматизации тестирования продуктов компании\n\nОбязанности:\n- Понимание жизненного цикла разработки продукта\n- Знание теории и видов тестирования,  умение вести тестовую документацию;\n- Умение локализовать баги и оформлять баг репорты\n- Понимание и умение применять техники тест-дизайна\n- Тестирование API\n- Опыт использование Postman\n- Понимание мобильного тестирования \n- Знание и умение пользования командной строкой UNIX\n- Знание SQL (простые запросы), Git\n- Умение использовать снифферы (Charles,Fiddler и т.д.)\n- Умение работать с Docker\n- Начальные знания Python либо желание выучить в ближайшее время\n\nПредлагаем:\n- белая зп (до 120 000, зависит от опыта);\n- уютный офис в Moscow City (сладости, печенки,кофе\\чай,PS4 и т.д.);\n- ДМС,  курсы английского, участие в конференциях. \n\nРезюме скидывать в лс.","markup":[{"type":"hashtag","offset":0,"length":7,"data":"Москва"},{"type":"hashtag","offset":8,"length":9,"data":"вакансия"},{"type":"hashtag","offset":18,"length":3,"data":"QA"},{"type":"hashtag","offset":22,"length":7,"data":"manual"},{"type":"hashtag","offset":31,"length":7,"data":"python"}],"date":"2020-06-19T15:36:21+00:00","link":"tg://resolve?domain=qa_jobs&post=98524","tags":[{"name":"qa"},{"name":"python"},{"name":"unix"},{"name":"sql"},{"name":"git"},{"name":"docker"}],"cities":[{"code":"moscow"}],"allowsRemote":false}},{"node":{"__typename":"Job","id":"71662829568-1001054966032","title":"Android разработчик","text":"#вакансия #developer #android #москва #бауманская\nAndroid Developer\nГород: Москва\nФормат работы: офис\nЗанятость: полная\nЗарплатная вилка: от 100.000 до 250.000 тыс. руб. фикс\n\nИщем middle/senior разработчика в digital-агентство WakeApp для разработки приложений-утилит (forecast, vpn, safe kids etc) + приложение мотивированного траффика.\n\nСтек: Kotlin, RxJava2/RxAndroid, Dagger2, Android Architecture Components (LiveData, ViewModel, Room, Navigation);\n\nС Вас:\n🔸опыт разработки от 2-ух лет;\n🔸хорошие знания стека;\n🔸знание ООП, MVP, MVVM;\n🔸ориентирование в Android SDK, гайдлайнах, best practices;\n\nС нас:\n🔹достойный уровень заработной платы;\n🔹сложные и интересные задачи;\n🔹комфортный офис в пешей доступности от метро (кухня с запасом фруктов, йогуртов, мороженого);\n🔹технологическая свобода;\n🔹отличный коллектив и пятничные посиделки;\n\nКонтакты: @natereaver","markup":[{"type":"hashtag","offset":0,"length":9,"data":"вакансия"},{"type":"hashtag","offset":10,"length":10,"data":"developer"},{"type":"hashtag","offset":21,"length":8,"data":"android"},{"type":"hashtag","offset":30,"length":7,"data":"москва"},{"type":"hashtag","offset":38,"length":11,"data":"бауманская"},{"type":"bold","offset":50,"length":17,"data":""},{"type":"bold","offset":75,"length":6,"data":""},{"type":"bold","offset":97,"length":4,"data":""},{"type":"bold","offset":113,"length":6,"data":""},{"type":"bold","offset":138,"length":15,"data":""},{"type":"bold","offset":154,"length":20,"data":""},{"type":"bold","offset":228,"length":7,"data":""},{"type":"handle","offset":858,"length":11,"data":"natereaver"}],"date":"2020-06-19T14:40:59+00:00","link":"tg://resolve?domain=mobile_jobs&post=0","tags":[{"name":"mobile"},{"name":"android"},{"name":"kotlin"},{"name":"mvvm"}],"cities":[{"code":"moscow"}],"allowsRemote":false}},{"node":{"__typename":"Job","id":"26461863936-1001075660570","title":"Php developer","text":"#вакансия #москва #офис #fulltime #yii #php\n\n Позиция: Senior PHP Developer\nЗанятость: полная\nКомпания: ТД ЦУМ \nЛокация: Москва\nЗ/П: до 270.000\n\n   Основные цели и задачи:\n- Разработка программных модулей продуктов компании;\n- Глубокое погружение в процессы работы интернет-магазина;\n- Участие в разработке сервис-ориентированной архитектуре приложения.\n\n   Основные обязанности:\n- Разработка и поддержка инфраструктуры интернет-проекта, мобильного приложения и внутренних сервисов компании;\n- Разработка программных модулей продуктов интернет магазина ЦУМ;\n- Оптимизация приложения под высокую нагрузку, масштабирование, поиск узких мест;\n- Интеграция со сторонними сервисами;\n- Предложение и внедрение высокотехнологичных, инновационных решений.\n\nТребования:\n- Отличное знание и опыт работы с PHP 5.3 (желательно 7) от 3 лет;\n- Понимание как устроен HTTP, REST;\n- Знание и понимание MVC архитектуры;\n- Знание и опыт работы фреймворком YII;\n- Опыт работы с одной или несколькими БД: MySQL, Redis, Mongo;\n- Опыт мониторинга и оптимизации SQL-запросов;\n\n   Условия работы:\n- Полный рабочий день.\n- Официальное оформление по трудовому договору.\n- Офис в центре Москвы.\n- ДМС.\n\nЗа подробностями в личку - @nastyaklassnaya","markup":[{"type":"hashtag","offset":0,"length":9,"data":"вакансия"},{"type":"hashtag","offset":10,"length":7,"data":"москва"},{"type":"hashtag","offset":18,"length":5,"data":"офис"},{"type":"hashtag","offset":24,"length":9,"data":"fulltime"},{"type":"hashtag","offset":34,"length":4,"data":"yii"},{"type":"hashtag","offset":39,"length":4,"data":"php"},{"type":"handle","offset":1202,"length":16,"data":"nastyaklassnaya"}],"date":"2020-06-19T13:34:55+00:00","link":"tg://resolve?domain=php_jobs&post=25236","tags":[{"name":"php"},{"name":"yii"},{"name":"rest"},{"name":"mysql"},{"name":"redis"},{"name":"sql"}],"cities":[{"code":"moscow"}],"allowsRemote":false}},{"node":{"__typename":"Job","id":"1712324608-1001091028994","title":"Java разработчик","text":"#java #fulltime\n\nНа проект от одного из лидирующих российских банков требуется\nMiddle Java Developer (backend)\n\nЛокация: Москва, ул. Сретенка\nФормат работы: Офис\nЗанятость: полная\n\nВилка зп: 150 000 - 180 000 рублей/месяц нетто\n\nСтек: \nSpring, Hibernate, Maven, JMS, REST, SOAP, Git, Jenkins, UML, TestNG.\n\nТребования: \n- Опыт от 2х лет разработки высоко-нагруженных и отказоустойчивых фронтальных систем.\n- Знание основных методологий разработки программного обеспечения, включая гибкие методологии.\n- Опыт командной разработки.\n- Умение разбираться в чужом коде, писать чистый и понятный код для других разработчиков, опыт написания автотестов.\n- Уверенное знание Java Core (типы данных, Collections Framework, JMM...)\n- Знание парадигм ООП и их реализации в Java.\n- Знание структур данных и алгоритмов.\n- Знание шаблонов проектирования (GoF)\n\nКонтакт: @mxm_at","markup":[{"type":"hashtag","offset":0,"length":5,"data":"java"},{"type":"hashtag","offset":6,"length":9,"data":"fulltime"},{"type":"handle","offset":855,"length":7,"data":"mxm_at"}],"date":"2020-06-19T13:20:17+00:00","link":"tg://resolve?domain=jvmjobs&post=1633","tags":[{"name":"java"},{"name":"jvm"},{"name":"spring"},{"name":"hibernate"},{"name":"maven"},{"name":"rest"},{"name":"soap"},{"name":"git"},{"name":"jenkins"}],"cities":[{"code":"moscow"}],"allowsRemote":false}},{"node":{"__typename":"Job","id":"2230321152-1001134745498","title":"Devops инженер","text":"#вакансия #devops\nГород и адрес офиса: #Москва\nФормат работы: #офис возможна частичная удаленка\nЗанятость: #полная\nЗарплатная вилка: от 180 000 до 270 000 на руки\n\nОдним из направлений деятельности Перфоманс Лаб является внедрение практик и инструментов DevOps, позволяющих улучшить time-to-market и повысить эффективность процессов наших клиентов.\nМы ищем сильных инженеров DevOps, умеющих решать сложные задачи в части поставки и внедрения продуктов и готовых к самостоятельному принятию решений и консультированию представителей клиентов.\nНужно будет:\n💪 Помогать командам наших клиентов при внедрении DevOps решений, включающие такие области, как автоматизация процессов сборки и развертывания систем, автоматизированное тестирование, мониторинг и релиз продуктов.\n💪 Устанавливать и настраивать инструменты DevOps.\n💪 Взаимодействовать с разработчиками и системными администраторами, координировать команды из смежных областей при переходе на модель DevOps.\n💪 Подготавливать документацию по проектам и внедрению DevOps решений.\n💪 Разрабатывать скрипты.\nБез чего не обойтись:\n🌟 Опыт развертывания, автоматизация сборки, мониторинга, непрерывной интеграции.\n🌟 Опыт работы с инструментами управления конфигурациями (Ansible или Puppet, Chef).\n🌟 Опыт работы с системами контейнерной виртуализации (Docker, Docker Swarm).\n🌟 Опыт работы с оркестраторами Docker: Kubernetes/Openshift.\n🌟 Опыт работы с CI/CD (Jenkins/Gitlab CI/Bamboo/Teamcity), понимание плюсов и минусов таких инструментов.\n🌟 Знание идеологии и инструментов infrastructure as a code.\n🌟 Хорошее знание Git, Git-Flow.\n🌟 Готовность постоянно самообучаться и помогать другим в освоении современных ИТ-технологий и инструментов.\nЧто мы предлагаем:\n🔥 Возможность попробовать разнообразные системы и технологии на практике.\n🔥 Огромное количество возможностей для обучения и саморазвития.\n🔥 Работа в успешной компании — резиденте Сколково.\n🔥 Официальное трудоустройство по ТК и белая зарплата.\n🔥 3 оплачиваемых отгула в год в дополнение к отпуску.\n🔥 Скидка на изучение английского языка и частичная компенсация ДМС.\n🔥 Курсы, сертификации за счет компании.\n🔥 Индивидуальный план профессионального развития.\n\nНазвание компании: Перфоманс Лаб \nКонтакты: @bystrova_ak / a.bystrova@pflb.ru\n\n—\n\n👉 Обсуждение вакансии в чате @devops_jobs","markup":[{"type":"hashtag","offset":0,"length":9,"data":"вакансия"},{"type":"hashtag","offset":10,"length":7,"data":"devops"},{"type":"hashtag","offset":39,"length":7,"data":"Москва"},{"type":"hashtag","offset":62,"length":5,"data":"офис"},{"type":"hashtag","offset":107,"length":7,"data":"полная"},{"type":"handle","offset":2226,"length":12,"data":"bystrova_ak"},{"type":"link","offset":2241,"length":18,"data":"mailto:a.bystrova@pflb.ru"},{"type":"handle","offset":2294,"length":12,"data":"devops_jobs"}],"date":"2020-06-19T12:25:14+00:00","link":"tg://resolve?domain=devops_jobs_feed&post=2127","tags":[{"name":"ansible"},{"name":"docker"},{"name":"kubernetes"},{"name":"jenkins"},{"name":"gitlab"},{"name":"git"}],"cities":[{"code":"moscow"}],"allowsRemote":true}},{"node":{"__typename":"Job","id":"71643955200-1001054966032","title":"Android разработчик","text":"#вакансия #android #java #kotlin #middle #senior #удаленка #remote #fulltime\n\nAndroid-разработчик удаленно от 200 тыс. руб.\n\nГород: Москва\nФормат работы: удаленно\nЗанятость: полная\nЗарплатная вилка: от 200 000 руб. до 250 000 руб. после налогообложения\nКомпания: CORE https://core.company\n\nМы команда разработчиков мобильных приложений и сейчас мы ищем Android-разработчика для одного из наших финтех-проектов.\n\nОсновные требования:\n— Опыт работы от 2-х лет;\n— Знание Java и Kotlin;\n— Опыт работы с Rx;\n— Знание шаблонов проектирования и умение их применять;\n— Понимание принципов SOLID;\n— Знание основных алгоритмов и структур данных;\n— Умение писать поддерживаемый и тестируемый код.\n\nУсловия:\n— Полный день, гибкий график;\n— Оформление по договору ГПХ.\n\nПрисылайте ваше резюме на @tv_corecompany","markup":[{"type":"hashtag","offset":0,"length":9,"data":"вакансия"},{"type":"hashtag","offset":10,"length":8,"data":"android"},{"type":"hashtag","offset":19,"length":5,"data":"java"},{"type":"hashtag","offset":25,"length":7,"data":"kotlin"},{"type":"hashtag","offset":33,"length":7,"data":"middle"},{"type":"hashtag","offset":41,"length":7,"data":"senior"},{"type":"hashtag","offset":49,"length":9,"data":"удаленка"},{"type":"hashtag","offset":59,"length":7,"data":"remote"},{"type":"hashtag","offset":67,"length":9,"data":"fulltime"},{"type":"link","offset":268,"length":20,"data":"https://core.company"},{"type":"handle","offset":783,"length":15,"data":"tv_corecompany"}],"date":"2020-06-19T11:49:24+00:00","link":"tg://resolve?domain=mobile_jobs&post=0","tags":[{"name":"mobile"},{"name":"android"},{"name":"java"},{"name":"kotlin"}],"cities":[{"code":"moscow"}],"allowsRemote":true}},{"node":{"__typename":"Job","id":"71639760896-1001054966032","title":"Android разработчик","text":"#вакансия #senior #Москва #Android #СПБ\nГород: Москва, м. Кутузовская / Санкт-Петербург, Невский проспект, д. 19\nПозиция: Senior Android Developer\nФормат работы: офис\nЗанятость: полная\nВилка: от 200 т.р до 270 т.р.\nКомпания: Dialog (экосистема Сбербанка) - делаем конкурента Slack\n\nИщем в команду senior Android разработчикa для разработки платформы нашего мессенджера и доработки ее новым функционалом для крупных партнеров.\n\nНужен самостоятельный разработчик, способный работать в команде и готовый участвовать в разработке MVP решений.\n\nЧто нужно будет делать:\n- разработка dialog platform (коммуникационная платформа) для Android;\n- документирование, проектирование модулей, принятие архитектурных решений;\n- проведение код-ревью, формирование стайл гайдов;\n- обеспечение качества продукта (написание unit тестов).\n\n\nИспользуемый стек: RxJava / Kotlin \nЧто предлагаем мы:\n• белая ЗП и премии, гибкий график;\n• участие в разработке open-source проектов;\n• ДМС, спортзал;\n• супер-адекватная и профессиональная, дружная команда;\n\n\n\nПо вакансии написать: @avnaum","markup":[{"type":"hashtag","offset":0,"length":9,"data":"вакансия"},{"type":"hashtag","offset":10,"length":7,"data":"senior"},{"type":"hashtag","offset":18,"length":7,"data":"Москва"},{"type":"hashtag","offset":26,"length":8,"data":"Android"},{"type":"hashtag","offset":35,"length":4,"data":"СПБ"},{"type":"handle","offset":1055,"length":7,"data":"avnaum"}],"date":"2020-06-19T11:17:23+00:00","link":"tg://resolve?domain=mobile_jobs&post=0","tags":[{"name":"mobile"},{"name":"android"},{"name":"kotlin"}],"cities":[{"code":"moscow"}],"allowsRemote":false}},{"node":{"__typename":"Job","id":"71637663744-1001054966032","title":"Mobile разработчик","text":"#вакансия #mobile #ios #swift #fulltime\nГород и адрес офиса: Москва, м. Нахимовский проспект, офис класса А\nФормат работы: офис + возможно частично удаленная работа \nЗанятость: полная, 5/2\nЗП: от 150к до 250к, готовы рассмотреть и выше\n\nКомпания X4Apps специализируется на разработке собственных мобильных приложений и открывает вакансию мобильного разработчика уровня Middle+/Senior, который будет работать над созданием приложений для платформы iOS.\n\nМы практикуем быструю проверку гипотез, быстро создаем приложения, запускаем первых пользователей, смотрим на обратную связь и наращиваем функционал либо переключаемся на разработку новых приложений/новых идей.\n\nОт Вас мы ждем:\n- Способность разработать приложение с нуля и выпустить его в AppStore\n- Знание Objective-C и Swift\n- Суммарный опыт программирования от 3-х лет\n- Умение работать с системой контроля версий git - console, IDE, web (Stash);\n- Понимание принципов ООП и шаблонов проектирования\n- Опыт использования JSON, REST API\n- Опыт написания клиент-серверных приложений\n- Наличие опубликованных приложений в AppStore\n\nБудет плюсом:\n- Желание постоянно учиться и применять новые технологии в своей работе\n- Понимание в разработке пользовательского интерфейса\n- Понимание работы бэкэнда\n\nКонтакт @bambaleeyo","markup":[{"type":"hashtag","offset":0,"length":9,"data":"вакансия"},{"type":"hashtag","offset":10,"length":7,"data":"mobile"},{"type":"hashtag","offset":18,"length":4,"data":"ios"},{"type":"hashtag","offset":23,"length":6,"data":"swift"},{"type":"hashtag","offset":30,"length":9,"data":"fulltime"},{"type":"bold","offset":40,"length":19,"data":""},{"type":"bold","offset":108,"length":13,"data":""},{"type":"bold","offset":166,"length":9,"data":""},{"type":"bold","offset":189,"length":2,"data":""},{"type":"bold","offset":665,"length":14,"data":""},{"type":"bold","offset":1085,"length":12,"data":""},{"type":"bold","offset":1253,"length":7,"data":""},{"type":"handle","offset":1261,"length":11,"data":"bambaleeyo"}],"date":"2020-06-19T11:04:23+00:00","link":"tg://resolve?domain=mobile_jobs&post=0","tags":[{"name":"mobile"},{"name":"ios"},{"name":"swift"},{"name":"objective-c"},{"name":"git"},{"name":"web"},{"name":"json"},{"name":"rest"}],"cities":[{"code":"moscow"}],"allowsRemote":true}},{"node":{"__typename":"Job","id":"17076060160-1001110946746","title":"Js разработчик","text":"#вакансия #работа #удаленка #backend #node #nodejs #remote\nГород и адрес офиса: Москва, Савеловская\nФормат работы: удаленка\nЗанятость: полная || проектная\nЗарплатная вилка: 100-160 т.р. net\n\nОписание вакансии: \nИщем опытного backend-разработчика node.js для разработки высоконадежных транзакционных сервисов интеграции с различными системами\n\nТребования:\n• Опыт работы с унаследованными системами\n• Знание PHP на уровне понимания и чтения кода будет плюсом\n• Знание и понимание работы сетевых протоколов TCP/IP, HTTP, SMTP, IMAP\n• Знание и понимание языка JavaScript и связанных с ним технологий и фреймворков\n• Опыт разработки серверных приложений\n• Понимание основных процессов разработки, умение работать в команде\n• Понимание принципов ООП, подходов в программировании и требований к транзакционным системам\n\nЗадачи:\n• Разработка высоконадежных транзакционных сервисов интеграции с различными системами\n• Поддержка и модернизация существующих систем\n\nНазвание компании: TechPlatforms (https://techpl.net)\nКонтакты:@desych79\n\n—\n\n👉 Обсуждение вакансии в чате @javascript_jobs","markup":[{"type":"hashtag","offset":0,"length":9,"data":"вакансия"},{"type":"hashtag","offset":10,"length":7,"data":"работа"},{"type":"hashtag","offset":18,"length":9,"data":"удаленка"},{"type":"hashtag","offset":28,"length":8,"data":"backend"},{"type":"hashtag","offset":37,"length":5,"data":"node"},{"type":"hashtag","offset":43,"length":7,"data":"nodejs"},{"type":"hashtag","offset":51,"length":7,"data":"remote"},{"type":"link","offset":989,"length":18,"data":"https://techpl.net"},{"type":"handle","offset":1018,"length":9,"data":"desych79"},{"type":"handle","offset":1062,"length":16,"data":"javascript_jobs"}],"date":"2020-06-19T10:52:00+00:00","link":"tg://resolve?domain=javascript_jobs_feed&post=16285","tags":[{"name":"javascript"},{"name":"nodejs"},{"name":"dotnet"},{"name":"php"},{"name":"smtp"}],"cities":[{"code":"moscow"}],"allowsRemote":true}},{"node":{"__typename":"Job","id":"91441070080-1001067529236","title":"Python разработчик","text":"Всем привет!\nИщем Python разработчика с опытом работы от 3 лет.\n#Москва #fulltime #вакансия #python\nГород: Москва\nФормат работы: Офис\nЗанятость: Полная\nЗарплатная вилка: 160 000 - 220 000 рублей на руки\nUBEX — это глобальная рекламная RTB-платформа, где компании эффективно рекламируются, а издатели выгодно монетизируют места под рекламу на своих сайтах.\n\nФронт работы:\nУчаствовать в разработке международного рекламного проекта;\nПисать с нуля большую часть высоконагруженной рекламной RTB - платформы (DSP/ADEX/SSP, биллинг, интеграции, нейросеть / машинное обучение);\nРазрабатывать платформу по управлению данными (DMP);\nРазрабатывать API, сервисы, различные скрипты сборки, деплоя, импорта\\экспорта с внешними системам и пр.;\nОптимизировать существующие решения и алгоритмы под высоконагруженные системы;\n\nОт тебя:\nPython 3.6 на отлично;\nОпыт работы с Django;\nОпыт работы с SQL;\nУверенная работа в Linux;\nОпыт работы с Docker;\n\nПлюсом будет:\nОпыт работы с сервисами AWS (ECS, EC2, Kinesis) через web-консоль, cli и с помощью Terraform;\nОпыт создания data pipelines;\nОпыт программирование на Golang;\nПонимание принципов высоконагруженных системы (Highload);\n\nОт нас:\nГрафик 5/2, гибкое начало рабочего дня с 9 до 11 утра;\nРабота в уютном офисе Москва-сити;\nОпыт работы в крутом международном проекте.\nЕсли интересно, пиши 🙂\n@Irina_Irkhina или на почту irinairh@gmail.com","markup":[{"type":"hashtag","offset":64,"length":7,"data":"Москва"},{"type":"hashtag","offset":72,"length":9,"data":"fulltime"},{"type":"hashtag","offset":82,"length":9,"data":"вакансия"},{"type":"hashtag","offset":92,"length":7,"data":"python"},{"type":"handle","offset":1328,"length":14,"data":"Irina_Irkhina"},{"type":"link","offset":1356,"length":18,"data":"mailto:irinairh@gmail.com"}],"date":"2020-06-19T10:48:06+00:00","link":"tg://resolve?domain=python_jobs&post=0","tags":[{"name":"python"},{"name":"django"},{"name":"sql"},{"name":"linux"},{"name":"docker"},{"name":"amazon-web-services"},{"name":"web"},{"name":"go"}],"cities":[{"code":"moscow"}],"allowsRemote":false}}]}}},"context":{}}