{"hash":"f5f6bf98bd95e769321482904cbbd488f77922fd","data":{"records":{"id":"bash","name":"bash","belongsTo":{"totalCount":32,"pageInfo":{"totalPages":4,"currentPage":4},"edges":[{"node":{"__typename":"Job","id":"2205155328-1001134745498","title":"Devops инженер","text":"#Москва #вакансия #офис #devops\n✅ www.onelya.ru - на рынке с 2002 года (E-travel и интернет-эквайринг), подразделение - команда эксплуатации ЦОД  \n✅ оформление по ТК РФ, з/п 170-200net, ДМС, территориально - ст.м.ЦСКА/Аэропорт, БЦ Линкор\n✅ Обязанности:\n- выстраивание процессов CI/CD;\n- мониторинг, автоматизация и дальнейшее улучшение существующей инфраструктуры;\n- обеспечение бесперебойной работы инфраструктуры и сервисов;\n- анализ инцидентов, оценка архитектурных решений, ввод изменений с целью минимизации рисков отказов в обслуживании;\n- тесное взаимодействие с командами разработки и тестирования;\n- ведение документации по администрируемым сервисам и решениям.\n✅ Требования:\n- понимание принципов devops-культуры и опыт построения devops-инфраструктуры;\n- релевантный опыт работы от 2-х лет;\n- обязательно знаниe kubernetes;\n- понимание важности принципов Infrastructure as a Code; Prometheus;\n- практический опыт автоматизации управления средами с применением Jenkins, Docker, Kubernetes, автоматизации развертывания средствами Ansible, опыт работы со средствами мониторинга , сбора и анализа метрик Zabbix, Graphite, Grafana, Kibana;\n- опыт администрирования, миграции данных и настройки резервного копирования для БД PostgreSQL, MongoDB, Redis, Elasticsearch;\n- опыт работы с ELK стеком;\n- опыт написания Python и bash скриптов;\n- готовность работать с legacy-системами.\n\n✅Ждем резюме на a.vinogradova@gateline.ru\n\n—\n\n👉 Обсуждение вакансии в чате @devops_jobs","markup":[{"type":"hashtag","offset":0,"length":7,"data":"Москва"},{"type":"hashtag","offset":8,"length":9,"data":"вакансия"},{"type":"hashtag","offset":18,"length":5,"data":"офис"},{"type":"hashtag","offset":24,"length":7,"data":"devops"},{"type":"link","offset":34,"length":13,"data":"http://www.onelya.ru"},{"type":"link","offset":1401,"length":25,"data":"mailto:a.vinogradova@gateline.ru"},{"type":"handle","offset":1461,"length":12,"data":"devops_jobs"}],"date":"2020-06-15T10:56:00+00:00","link":"tg://resolve?domain=devops_jobs_feed&post=2103","tags":[{"name":"dotnet"},{"name":"kubernetes"},{"name":"jenkins"},{"name":"docker"},{"name":"ansible"},{"name":"postgresql"},{"name":"mongodb"},{"name":"redis"},{"name":"elasticsearch"},{"name":"python"},{"name":"bash"}],"cities":[{"code":"moscow"}],"allowsRemote":false}},{"node":{"__typename":"Job","id":"1678770176-1001091028994","title":"Java разработчик","text":"#вакансия #java #senior #middle\nКомпания: #сбербанктехнологии #сбертех\nЛокация: #москва\nЗП: 180-270 + премии\nКонтакты: @okashchenko, kashchenko.o.bor@sberbank.ru\n\nМы - современная инженерная компания, продолжаем расти и развиваться. Активно ищем Java разработчиков уровня middle и senior в связи с расширением команды для Образовательной платформы - SaaS решения для автоматизации обучения в средних школах. Разработка началась марте 2019, сейчас дорабатываем функционал и создаём фичи.\n\n  Требования:\n· Знание Java 8+ (хорошее знание core, collections), Spring IoC 4-5, от 2х лет\n· Системы сборки maven или gradle\n· Опыт использования jUnit/TestNG\n· БД: jdbc, SQL(лучше PostgresQL) на уровне написания средних запросов\n· VCS: опыт работы с git в команде\n· Опыт командной разработки\n\n  Очень желательно:\n· Умение работать с linux command line, писать минимальные bash-скрипты.\n· Понимание оптимизации SQL-запросов\n· Опыт разработки промышленных микросервисных приложений\n· Опыт работы со SpringBoot, MongoDB, Docker/Kubernetes\n\n  Наши условия:\n· Конкурентная «белая» заработная плата (оклад + премии)\n· Профессиональный и зарплатный рост\n· Интересные, сложные, амбициозные задачи, молодая и сильная команда профессионалов\n· Обучение за счет компании в Корпоративном университете\n· Льготная ипотека от Сбербанка, ДМС\n· Страхование от несчастных случаев\n· Тренажерный зал\n\nБуду рада обсудить вакансию и ответить на ваши вопросы!","markup":[{"type":"hashtag","offset":0,"length":9,"data":"вакансия"},{"type":"hashtag","offset":10,"length":5,"data":"java"},{"type":"hashtag","offset":16,"length":7,"data":"senior"},{"type":"hashtag","offset":24,"length":7,"data":"middle"},{"type":"hashtag","offset":42,"length":19,"data":"сбербанктехнологии"},{"type":"hashtag","offset":62,"length":8,"data":"сбертех"},{"type":"hashtag","offset":80,"length":7,"data":"москва"},{"type":"handle","offset":119,"length":12,"data":"okashchenko"},{"type":"link","offset":133,"length":28,"data":"mailto:kashchenko.o.bor@sberbank.ru"}],"date":"2020-06-15T07:12:16+00:00","link":"tg://resolve?domain=jvmjobs&post=1601","tags":[{"name":"java"},{"name":"jvm"},{"name":"spring"},{"name":"maven"},{"name":"gradle"},{"name":"junit"},{"name":"jdbc"},{"name":"sql"},{"name":"postgresql"},{"name":"git"},{"name":"linux"},{"name":"bash"},{"name":"mongodb"},{"name":"docker"},{"name":"kubernetes"}],"cities":[{"code":"moscow"}],"allowsRemote":false}}]}}},"context":{}}