{"hash":"f34fd2c444a074f4e0e67d525015a008ef8e766f","data":{"records":{"id":"kubernetes","name":"kubernetes","belongsTo":{"totalCount":75,"pageInfo":{"totalPages":8,"currentPage":1},"edges":[{"node":{"__typename":"Job","id":"1992294400-1001134745498","title":"Devops engineer","text":"#вакансия #devops #linux #москва #senior\n\nКомпания OOMA (ooma.com) ищет  Senior Kubernetes/Java Engineer \n - Город и адрес офиса: Москва (Москва Сити, м. Деловой Центр)\n - Формат работы: в офисе (не удаленка), на время коронавируса удаленка\n - Занятость: полный день \n - Зарплатная вилка: от 220 000 руб до 280 000 руб. на руки\n\nОписание вакансии:\n - Стек: K8S, Docker, Java, Spring\nТребования: \n - Твердые познания в Kubernetes, Docker, etc.\n - Желателен опыт программирования на Java с использованием Spring, Hibernate\n - Опыт программирования на Java и/или C++ от 5 лет\n - Знание основных подходов к разработке архитектур микросервисных приложений\n - Знaние Linux, bash, etc.\n - Знание сетевых протоколов: TCP/IP\n - Знание сетей: Ethernet и Wi-Fi\n - Знание разговорного английского языка (предстоит много общения с американцами)\n\nОбязанности\n - Развертывать микросервисные приложения в Kubernetes\n - Писать и/или дорабатывать существующие Dockerfile'ы для микросервисов, разработанных на Java, C++, Python, Ruby\n - Разрабатывать микросервисные приложения, по большей части их дорабатывать с целью миграции в контейнеры\n - Разрешать проблемы совместимости между различными приложениями в OOMA инфраструктуре\n\nУсловия труда:\n - Белая ЗП от 220 000 руб до 280 000 руб. на руки\n - Годовой персональный бюджет $1500 на поездки на конференции\n - 1 день в неделю можно работать удаленно\n - Командировки в US\n - Работа в офисе в Москва Сити, м. Деловой Центр. Не удалёнка.  \n - Оплачиваются занятия английским языком\n - Решение интересных, зачастую нестандартных, задач\n - Apple техника (MacBook Pro + 4K монитор)\n - ДМС\n - Компенсация расходов на занятия спортом\n - Гибкий рабочий график\n - Фрукты, кофе, чай, шоколадки, печенье\n \nНазвание компании: OOMA \n\nКонтакты:\n@u35tpus\noleg.levchenko@ooma.com\n\n—\n\n👉 Обсуждение вакансии в чате @devops_jobs","markup":[{"type":"hashtag","offset":0,"length":9,"data":"вакансия"},{"type":"hashtag","offset":10,"length":7,"data":"devops"},{"type":"hashtag","offset":18,"length":6,"data":"linux"},{"type":"hashtag","offset":25,"length":7,"data":"москва"},{"type":"hashtag","offset":33,"length":7,"data":"senior"},{"type":"link","offset":57,"length":8,"data":"http://ooma.com"},{"type":"handle","offset":1763,"length":8,"data":"u35tpus"},{"type":"link","offset":1772,"length":23,"data":"mailto:oleg.levchenko@ooma.com"},{"type":"handle","offset":1830,"length":12,"data":"devops_jobs"}],"date":"2020-04-10T11:42:06+00:00","link":"tg://resolve?domain=devops_jobs_feed&post=1900","tags":[{"name":"linux"},{"name":"kubernetes"},{"name":"java"},{"name":"docker"},{"name":"spring"},{"name":"hibernate"},{"name":"bash"},{"name":"python"},{"name":"ruby"}],"cities":[{"code":"moscow"}],"allowsRemote":true}},{"node":{"__typename":"Job","id":"98358525952-1001089317451","title":"Qa инженер","text":"#вакансия #мтс #стартап #manual #automate #москва #офис #мск #mobile\n🏢Компания: MTC\n🏙Город: Москва, м. Комсомольская\n💰Зп: от 90к (обсуждается по результатам собеседования)\n\nМы отдельный проект новой стриминговой платформы в МТС - WASD.tv. Мы разрабатываем инновационную платформу для стриминга и монетизации для стримеров на территории СНГ, и в скором времени планируем покорять другие страны Европы, Азии и Америки!\nРаботаем преимущественно c REST API, пишем на js и go, полноценные стенды (stage, qa, dev) в kubernetes. Активно внедряем BDD. Команда QA развивает свой инновационный фреймворк автотестирования на Java для всех платформ проекта! На данный момент, нужен в мобильную команду QA Automation/ QA Mobile.\n\nОбязанности\n✔️ проведение ручного тестирования мобильных приложений (iOS, Android);\n✔️ локализация и документирование найденных дефектов;\n✔️написание и поддержка имеющейся документации;\n✔️взаимодействие с разработчиками;\n✔️поддержание и развитие мобильного фреймворка;\n✔️разработка BDD сценариев и их автоматизация.\n\nТребования:\n✔️опыт ручного тестирования мобильных приложений от 2 лет;\n✔️опыт автоматизированного тестирования на Java (Appium+Сucumber) от 1 года;\n✔️знание методологий тестирования;\n✔️опыт работы с системами CI (Jenkins, Teamcity);\n✔️опыт работы с  Charles, Appium, Postman, Chrome DevTools, Kibana.\n\nУсловия:\n✅ работа из офиса 5/2;\n✅ гибкое начало рабочего дня;\n✅ различные спец. предложения для сотрудников МТС;\n✅ полугодовые премии;\n✅ все белое, оформление по ТК РФ.\n\n📲Контакты: daordynt@mts.ru или в лс (в телеге)","markup":[{"type":"hashtag","offset":0,"length":9,"data":"вакансия"},{"type":"hashtag","offset":10,"length":4,"data":"мтс"},{"type":"hashtag","offset":15,"length":8,"data":"стартап"},{"type":"hashtag","offset":24,"length":7,"data":"manual"},{"type":"hashtag","offset":32,"length":9,"data":"automate"},{"type":"hashtag","offset":42,"length":7,"data":"москва"},{"type":"hashtag","offset":50,"length":5,"data":"офис"},{"type":"hashtag","offset":56,"length":4,"data":"мск"},{"type":"hashtag","offset":61,"length":7,"data":"mobile"},{"type":"link","offset":233,"length":7,"data":"http://wasd.tv/"},{"type":"bold","offset":720,"length":12,"data":""},{"type":"bold","offset":1037,"length":12,"data":""},{"type":"bold","offset":1339,"length":9,"data":""},{"type":"link","offset":1521,"length":15,"data":"mailto:daordynt@mts.ru"}],"date":"2020-04-10T11:23:43+00:00","link":"tg://resolve?domain=qa_jobs&post=93802","tags":[{"name":"qa"},{"name":"mobile"},{"name":"rest"},{"name":"kubernetes"},{"name":"java"},{"name":"ios"},{"name":"android"},{"name":"jenkins"}],"cities":[{"code":"moscow"}],"allowsRemote":false}},{"node":{"__typename":"Job","id":"1991245824-1001134745498","title":"Devops инженер","text":"#вакансия #devops #remote \nКомпания Imhio Ltd ищет инженера инфраструктуры, обладающего навыками конфигурирования и поддержки аппаратных и облачных платформ, организации работы отказоустойчивых систем, а также автоматизации доставки программного обеспечения. \nВ составе нашей инфраструктуры мы используем Digital Ocean и AWS, Oracle Linux, Νginx, Consul, RabbitMQ, ScyllaDB, Redis, PostgreSQL, GoLang, GoCD и Docker.\nАктуальная цель, которая стоит перед нами, переход к полностью автоматизированному конфигурированию и эксплуатации всех элементов нашей инфраструктуры.\n\nОбязанности:\n- автоматизация конфигурирования и обслуживания элементов инфраструктуры\n- участие в процессах CI/CD\n- мониторинг работоспособности\n- планирование использования ресурсов\n- оптимизация инфраструктуры\n- документирование инфраструктуры\n\nТребования:\n - Минимальный опыт работы по специальности от 3 лет.\n\nДля соответствия нашей команде, ваши личные качества должны включать:\n - коммуникабельность, умение находить точки соприкосновения\nцелеустремленность, ответственность, внимательность и аккуратность\n- умение и желание решать комплексные, нестандартные проблемы и задачи\n- понятное формулирование своих мыслей и идей\n- умение отстаивать свою позицию\n- понимание технической документации на английском языке\n- поддержка принципов DevOPS методологии\n\nДля соответствия нашим задачам, у вас должен быть опыт промышленной эксплуатации:\n- Linux \n- Digital Ocean или AWS\n- Terraform и Ansible\n- CI/CD инструментов\n- Docker или Kubernetes\n- Nginx, SQL, MQ, Redis, Consul\n- Prometheus и Grafana, Graylog или ELK\n- Python или Bash\nУ вас будет дополнительное преимущество при наличии\nопыта использования:\n- ScyllaDB или Cassandra\n- системы мониторинга DataDog\n- системы доставки GoCD\n- (микро)сервисов, разработанных с использованием Golang\n\nУсловия:\n- полностью удаленная работа\n- оплачиваемый отпуск и больничный\n- заработная плата в евро, определяется вашей компетенцией (1850-2900 Евро)\n- гибкий график и широкая автономия - мы оцениваем результаты работы\n- интересные задачи, способствующие профессиональному развитию\n- работа в команде профессионалов\n- отсутствие бюрократических процедур\nКонтакты: @yanalyakhova, jane@imhio.com\n\n—\n\n👉 Обсуждение вакансии в чате @devops_jobs","markup":[{"type":"hashtag","offset":0,"length":9,"data":"вакансия"},{"type":"hashtag","offset":10,"length":7,"data":"devops"},{"type":"hashtag","offset":18,"length":7,"data":"remote"},{"type":"handle","offset":2176,"length":13,"data":"yanalyakhova"},{"type":"link","offset":2191,"length":14,"data":"mailto:jane@imhio.com"},{"type":"handle","offset":2240,"length":12,"data":"devops_jobs"}],"date":"2020-04-09T11:57:04+00:00","link":"tg://resolve?domain=devops_jobs_feed&post=1899","tags":[{"name":"amazon-web-services"},{"name":"oracle"},{"name":"linux"},{"name":"rabbitmq"},{"name":"redis"},{"name":"postgresql"},{"name":"go"},{"name":"docker"},{"name":"ansible"},{"name":"kubernetes"},{"name":"nginx"},{"name":"sql"},{"name":"python"},{"name":"bash"},{"name":"cassandra"}],"cities":[],"allowsRemote":true}},{"node":{"__typename":"Job","id":"24342691840-1001075660570","title":"Php разработчик","text":"#вакансия #Новосибирск #офис #удаленно#FullStack#Middle #Senior#PHP#JavaScript\n\nГород: Новосибирск\nФормат работы: в офисе/удаленно\nЗанятость: полная\nЗарплатная вилка: от 100 000 до 200 000 руб. на руки\nНазвание компании: ВилайнТВ\n\nНужен FullStack разработчик для создания и развития нового проекта видео- тематики. Данная компания разрабатывает и поддерживает облачные хранилища. Проекту уже более 7 лет, в своей нише занимает второе место в мире, аналог на рынке России turbobit, аналог в мире rapidgator, основные рынки это США, Европа, сейчас выходят на Азию, в России не работают. \n\nСтек технологий: Хранилище - OpenStack Swift, BackEnd - Nodejs, PHP (Yii1, Yii2, Laravel), FrontEnd - React, BD - MySql, Postgres, Mongo, Elastic, Доставка - Jenkins, Docker, Kubernetes.\n\nЧто хотят:\n• программирование на JS хотя бы 1 год.\n• программирование на PHP хотя бы 2 года\n• решение любой front-задачи начинать с составления модели данных.\n• уметь работать со сложными SQL-запросами.\n• самостоятельно уметь планировать свою работу.\n• опыт создания сайтов «под ключ»\n• навыки работы с системами контроля версий\n• обязательное понимание валидной, кросс-браузерной и адаптивной верстки.\n\nЧто дают:\n• Работа в офисе или возможность работать удаленно на полный рабочий день;\n• Трудоустройство в соответствии с ТК РФ;\n• График работы с Пн по Пт;\n• Просторный офис в центре Новосибирска либо удаленно;\n• Гибкое начало рабочего дня.\n\nБудет плюсом, если работали с большими проектами.\n\nВопросы : @juliajudina2810\njuliajudina2810@gmail.com","markup":[{"type":"hashtag","offset":0,"length":9,"data":"вакансия"},{"type":"hashtag","offset":10,"length":12,"data":"Новосибирск"},{"type":"hashtag","offset":23,"length":5,"data":"офис"},{"type":"handle","offset":1481,"length":16,"data":"juliajudina2810"},{"type":"link","offset":1498,"length":25,"data":"mailto:juliajudina2810@gmail.com"}],"date":"2020-04-09T10:05:09+00:00","link":"tg://resolve?domain=php_jobs&post=23215","tags":[{"name":"php"},{"name":"javascript"},{"name":"swift"},{"name":"nodejs"},{"name":"yii"},{"name":"laravel"},{"name":"reactjs"},{"name":"mysql"},{"name":"postgresql"},{"name":"elasticsearch"},{"name":"jenkins"},{"name":"docker"},{"name":"kubernetes"},{"name":"sql"}],"cities":[{"code":"novosibirsk"}],"allowsRemote":true}},{"node":{"__typename":"Job","id":"1990197248-1001134745498","title":"Devops инженер","text":"#вакансия  #Мск #Москва #офис #devops #fulltime\nГород: Москва \nФормат работы: офис\nЗанятость: полная\n\nПозиция: DevOps \nЗарплатная вилка: от 170 000 до 200 000 net. (после налогов) \n\nОписание вакансии: \nИщу DevOps инженера в европейскую компанию, которая открыла офис в Москве.\n\nОсновные задачи - поддержка сред разработки, прода, администрирование.\n\nТочно нужно: \nразговорный английский – обязательно,\nLinux (CentOS), Ansible, Jenkins, CI/CD, Docker\nKubernetes как плюс\n\nПредлагаем: интересный проект, медицинское страхование, обучение, комфортный офис.\n\nНазвание компании: SPICE IT\nРезюме отправлять: achistyakova@spice-agency.ru или @AlinaChist\n\n—\n\n👉 Обсуждение вакансии в чате @devops_jobs","markup":[{"type":"hashtag","offset":0,"length":9,"data":"вакансия"},{"type":"hashtag","offset":11,"length":4,"data":"Мск"},{"type":"hashtag","offset":16,"length":7,"data":"Москва"},{"type":"hashtag","offset":24,"length":5,"data":"офис"},{"type":"hashtag","offset":30,"length":7,"data":"devops"},{"type":"hashtag","offset":38,"length":9,"data":"fulltime"},{"type":"link","offset":602,"length":28,"data":"mailto:achistyakova@spice-agency.ru"},{"type":"handle","offset":635,"length":11,"data":"AlinaChist"},{"type":"handle","offset":681,"length":12,"data":"devops_jobs"}],"date":"2020-04-09T10:02:31+00:00","link":"tg://resolve?domain=devops_jobs_feed&post=1898","tags":[{"name":"dotnet"},{"name":"linux"},{"name":"centos"},{"name":"ansible"},{"name":"jenkins"},{"name":"docker"},{"name":"kubernetes"}],"cities":[{"code":"moscow"}],"allowsRemote":false}},{"node":{"__typename":"Job","id":"98273591296-1001089317451","title":"Qa инженер","text":"#вакансия #мтс #стартап #manual #automate #москва #офис #мск #mobile\n🏢Компания: MTC\n🏙Город: Москва, м. Комсомольская\n💰Зп: от 90к (обсуждается по результатам собеседования)\n\nМы отдельный проект новой стриминговой платформы в МТС - WASD.tv. Мы разрабатываем инновационную платформу для стриминга и монетизации для стримеров на территории СНГ, и в скором времени планируем покорять другие страны Европы, Азии и Америки!\nРаботаем преимущественно c REST API, пишем на js и go, полноценные стенды (stage, qa, dev) в kubernetes. Активно внедряем BDD. Команда QA развивает свой инновационный фреймворк автотестирования на Java для всех платформ проекта! На данный момент, нужен в мобильную команду QA Automation/ QA Mobile.\n\nОбязанности\n✔️ проведение ручного тестирования мобильных приложений (iOS, Android);\n✔️ локализация и документирование найденных дефектов;\n✔️написание и поддержка имеющейся документации;\n✔️взаимодействие с разработчиками;\n✔️поддержание и развитие мобильного фреймворка;\n✔️разработка BDD сценариев и их автоматизация.\n\nТребования:\n✔️опыт ручного тестирования мобильных приложений от 2 лет;\n✔️опыт автоматизированного тестирования на Java (Appium+Сucumber) от 1 года;\n✔️знание методологий тестирования;\n✔️опыт работы с системами CI (Jenkins, Teamcity);\n✔️опыт работы с  Charles, Appium, Postman, Chrome DevTools, Kibana.\n\nУсловия:\n✅ работа из офиса 5/2;\n✅ гибкое начало рабочего дня;\n✅ различные спец. предложения для сотрудников МТС;\n✅ полугодовые премии;\n✅ все белое, оформление по ТК РФ.\n\n📲Контакты: daordynt@mts.ru или в лс (в телеге)","markup":[{"type":"hashtag","offset":0,"length":9,"data":"вакансия"},{"type":"hashtag","offset":10,"length":4,"data":"мтс"},{"type":"hashtag","offset":15,"length":8,"data":"стартап"},{"type":"hashtag","offset":24,"length":7,"data":"manual"},{"type":"hashtag","offset":32,"length":9,"data":"automate"},{"type":"hashtag","offset":42,"length":7,"data":"москва"},{"type":"hashtag","offset":50,"length":5,"data":"офис"},{"type":"hashtag","offset":56,"length":4,"data":"мск"},{"type":"hashtag","offset":61,"length":7,"data":"mobile"},{"type":"link","offset":233,"length":7,"data":"http://wasd.tv/"},{"type":"bold","offset":720,"length":12,"data":""},{"type":"bold","offset":1037,"length":12,"data":""},{"type":"bold","offset":1339,"length":9,"data":""},{"type":"link","offset":1521,"length":15,"data":"mailto:daordynt@mts.ru"}],"date":"2020-04-09T09:47:35+00:00","link":"tg://resolve?domain=qa_jobs&post=93721","tags":[{"name":"qa"},{"name":"mobile"},{"name":"rest"},{"name":"kubernetes"},{"name":"java"},{"name":"ios"},{"name":"android"},{"name":"jenkins"}],"cities":[{"code":"moscow"}],"allowsRemote":false}},{"node":{"__typename":"Job","id":"98262056960-1001089317451","title":"Qa engineer","text":"#вакансия #СПБ #fulltime #office\n\nГород: Санкт-Петербург\nПозиция: Senior QA Engineer\nКомпания: Antal Russia\nФормат работы: офис, полная занятость \nЗарплатная вилка: до 150k gross + ежемесячные и квартальные бонусы (З/П обсуждаем индивидуально)\n\nО проекте:\nРабота в команде разрабатывающей интерфейсы сервиса обновления, сервиса метаданных и VOD-контента (video-on-demand).\nНа проекте используется микросервисная архитектура.\n \nОсновной стек проекта:\nJIRA, Confluence, Python, JavaScript, Selenium, Linux, docker, kubernetes.\n\n\nКого мы ищем?\n- Опыт тестирования от 3-х лет;\n- Опыт тестирования веб сервисов (UI+backend);\n- Знание реляционных СУБД (Postgres);\n- Умение работать с ОС Linux в консоли;\n- Знание Python, JavaScript, опыт программирования приветствуется;\n- Опыт автоматизации Selenium;\n- Опыт наставничества/управления небольшой командой.\n\nМы предлагаем:\n- Современный офис в Петербурге\n- Иногда можно работать удалённо;\n- ДМС и врач в офисе;\n- Оплата спорта и проф. курсов;\n- Помощь с переездом семьи из любого региона России.\n\nКонтакты куда слать СV резюме: kristina.shaburova@antalrussia.com\ntelegram @hello_intelligence","markup":[{"type":"hashtag","offset":0,"length":9,"data":"вакансия"},{"type":"hashtag","offset":10,"length":4,"data":"СПБ"},{"type":"hashtag","offset":15,"length":9,"data":"fulltime"},{"type":"hashtag","offset":25,"length":7,"data":"office"},{"type":"italic","offset":34,"length":6,"data":""},{"type":"italic","offset":57,"length":8,"data":""},{"type":"bold","offset":66,"length":19,"data":""},{"type":"italic","offset":85,"length":9,"data":""},{"type":"italic","offset":108,"length":14,"data":""},{"type":"italic","offset":147,"length":17,"data":""},{"type":"bold","offset":245,"length":11,"data":""},{"type":"bold","offset":427,"length":23,"data":""},{"type":"bold","offset":527,"length":14,"data":""},{"type":"bold","offset":850,"length":15,"data":""},{"type":"bold","offset":1070,"length":63,"data":""},{"type":"link","offset":1070,"length":34,"data":"mailto:kristina.shaburova@antalrussia.com"},{"type":"handle","offset":1114,"length":19,"data":"hello_intelligence"}],"date":"2020-04-09T06:57:36+00:00","link":"tg://resolve?domain=qa_jobs&post=93710","tags":[{"name":"qa"},{"name":"python"},{"name":"javascript"},{"name":"selenium"},{"name":"linux"},{"name":"docker"},{"name":"kubernetes"},{"name":"postgresql"}],"cities":[],"allowsRemote":true}},{"node":{"__typename":"Job","id":"1984954368-1001134745498","title":"Devops инженер","text":"#вакансия #DevOps #docker #удалёнка\nГород: офис – Ростов-на-Дону, Ульяновск, распределенная команда\nФормат работы: удалённая \nЗанятость: полная, гибкий график\nЗарплатная вилка: от 100 000 до 120 000 р\nОписание вакансии:\nНаложка.рф – интернет сервис безопасных сделок . Мы призваны помочь незнакомым людям и молодым интернет-магазинам без опаски торговать товарами и оказывать услуги дистанционно.\nМы внедряем микросервисную архитектуру, заменяющую монолитное приложение. Используем контейнеризацию сервисов в Docker (Docker Swarm Mode оркестрацию, но не исключаем переход на Kubernetes). Сервера работают под управлением ОС Ubuntu Linux. Для сбора логов используем ElasticSearch+Fluentd+Kibana. Программный код микросервисов пишем на PHP7 и NodeJS. В качестве хранилищ данных - MySQL и Redis. В качестве механизма распространения событий и очередей задач используем RabbitMQ. HTTP-запросы принимаем через Nginx. Конфигурацию Docker Swarm пишем в формате Docker Compose, а скрипты автоматизации – на Bash. Код хостим в BitBucket, там же проводим code review. Сборки и деплоймент делаем при помощи Jenkins. Задачи ведем в JetBrains Youtrack. Для внутрикомандного взаимодействия используем Skype.\nИщем инициативного, привычного к командной работе специалиста для дистанционной работы (мы – географически распределенная команда), готового взять на себя ответственность за бесперебойную работу сервисов и контроль над развитием серверной архитектуры. У нас есть что улучшать и в процессах и в инструментах, и мы ждем от кандидата готовности вникнуть в потребности и предлагать улучшения.\nПомимо Наложка.рф, под нашим контролем находится несколько сайтов на CMS (LAMP стек), которые также необходимо поддерживать.\nВажные качества:\n• Критический взгляд с прицелом на улучшение имеющейся инфраструктуры (гипотеза, эксперимент, вывод);\n• Умение делать наглядными прогресс выполнения задач и результаты;\n• Малое время отклика (не можешь отреагировать сам, передай кому-то);\n• Умение объяснить свое решение;\n• Уважительное отношение к коллегам.\nОбязанности:\n• Поддержка системы мониторинга потребления ресурсов и живучести микросервисов. Определение новых метрик и нотификаций;\n• Поддержка системы непрерывной интеграции. Конфигурирование новых сборок совместно с разработчиками;\n• Поддержка конфигурации имеющихся микросервисов и развертывание новых;\n• Контроль работоспособности микросервисов и системы в целом;\n• Организация системных обновлений и обновления инструментов командной работы;\n• Совершенствование механизмов резервного копирования и восстановления;\n• Анализ проблем в production и staging окружениях. Поиск решений этих проблем совместно с разработчиками.\nМинимальные требования:\n• Прочные навыки работы с Linux;\n• Понимание принципов работы сетей, знание сетевых протоколов;\n• Понимание принципов контейнеризации приложений;\n• Знание возможностей Docker. Разнообразный опыт сборки образов. Опыт работы с Docker (swarm/kubernetes) в production;\n• Опыт мониторинга микросервисной системы;\n• Представления о рисках безопасности и возможных атаках на инфраструктуру приложений;\n• Умение читать и составлять скрипты автоматизации на Bash;\n• Чтение простых SQL запросов.\nЖелательные требования:\n• Понимание особенностей Swarm режима в Docker. Опыт работы со Swarm;\n• Опыт работы с Kubernetes. Понимание плюсов и минусов в сравнении со Swarm;\n• Опыт настройки и поддержки кластеров MySQL и Redis серверов;\n• Работа с MySQL на уровне, достаточном для выяснения причин ошибок выполнения запросов, а также причин медленной работы запросов;\n• Опыт отражения атак на инфраструктуру приложения;\n• Опыт проведения нагрузочного тестирования.\nЧто мы предлагаем:\n• Дистанционную работу с гибким графиком;\n• Трудоустройство согласно ТК РФ;\n• Взаимоотношения, построенные на честности и уважении.\nhttps://spb.hh.ru/vacancy/36523783\nКонтакты: @so_vasileva, Светлана Васильева\n\n—\n\n👉 Обсуждение вакансии в чате @devops_jobs","markup":[{"type":"hashtag","offset":0,"length":9,"data":"вакансия"},{"type":"hashtag","offset":10,"length":7,"data":"DevOps"},{"type":"hashtag","offset":18,"length":7,"data":"docker"},{"type":"hashtag","offset":26,"length":9,"data":"удалёнка"},{"type":"link","offset":220,"length":10,"data":"http://Наложка.рф"},{"type":"link","offset":1590,"length":10,"data":"http://Наложка.рф"},{"type":"link","offset":3784,"length":34,"data":"https://spb.hh.ru/vacancy/36523783"},{"type":"handle","offset":3829,"length":12,"data":"so_vasileva"},{"type":"handle","offset":3896,"length":12,"data":"devops_jobs"}],"date":"2020-04-08T09:52:00+00:00","link":"tg://resolve?domain=devops_jobs_feed&post=1893","tags":[{"name":"docker"},{"name":"kubernetes"},{"name":"ubuntu"},{"name":"linux"},{"name":"elasticsearch"},{"name":"php"},{"name":"nodejs"},{"name":"mysql"},{"name":"redis"},{"name":"rabbitmq"},{"name":"nginx"},{"name":"bash"},{"name":"jenkins"},{"name":"sql"},{"name":"docker-compose"}],"cities":[{"code":"rostov"},{"code":"ulyanovsk"}],"allowsRemote":true}},{"node":{"__typename":"Job","id":"98216968192-1001089317451","title":"Qa инженер","text":"#вакансия #fulltime #офис #Москва #Саратов #testautomation #middle #senior #TS\n\nКомпания: Техносерв https://technoserv.com/ \nВакансия: QA-ИНЖЕНЕР ПО АВТОМАТИЗАЦИИ ТЕСТИРОВАНИЯ\nДля работы на проектах в крупном банке (T&M)\nЗП: 60 000 - 220 000 (несколько позиций)\nГрафик работы: фултайм, 10:00-19:00 (по договоренности)\nМесто работы: офис, г. Москва или г. Саратов\n\nО проекте:\nСоздание системы, упрощающей работу операционистов в отделениях банка.\nРелизы выпускаются несколько раз в день\nQA активно участвуют в DevOps и CI/CD.\n\nКого мы ищем:\nИщем опытного QA-автоматизатора, разбирающегося в ключевых моментах автотестирования ПО. Основной его задачей будет увеличение покрытия автотестами существующего/нового функционала.\n\nЧем будете заниматься:\n• Разрабатывать автотесты на C# (Rest API / Rabbit MQ), поддерживать как новые, так и существующие тесты\n• Разрабатывать тестовые заглушки и сервисы (.net)\n• Конфигурировать сборки на CI-сервере (TeamCity)\n• Конфигурировать тестовые стенды (Helm, ArgoCD, Kubernetes, Docker)\n\nТребуемый опыт и знание технологий:\n• Опыт написания автотестов на C# (от года);\n• Опыт работы с NUnit / xUnit;\n• Умение разбираться с деплоймент-тулами и понимание принципов DevOps;\n• SQL на уровне написания запросов;\n• Знание методологий тестирования;\n• Умение написать чек-лист / тест-кейсы для функционала, покрываемого автотестами.\n\nБудет плюсом:\n• Работа с .net Core;\n• Опыт конфигурирования CI-серверов (мы используем TeamCity);\n• Знание PL-SQL и опыт работы c Oracle;\n• Навыки работы в консоли Linux (CentOS).\n\nРезюме сюда: QAResume@technoserv.com\n\nP.S. Если вы слабы в C#, но уверенно знаете java и Selenium, не стесняйтесь присылать резюме - варианты и возможности есть.","markup":[{"type":"hashtag","offset":0,"length":9,"data":"вакансия"},{"type":"hashtag","offset":10,"length":9,"data":"fulltime"},{"type":"hashtag","offset":20,"length":5,"data":"офис"},{"type":"hashtag","offset":26,"length":7,"data":"Москва"},{"type":"hashtag","offset":34,"length":8,"data":"Саратов"},{"type":"hashtag","offset":43,"length":15,"data":"testautomation"},{"type":"hashtag","offset":59,"length":7,"data":"middle"},{"type":"hashtag","offset":67,"length":7,"data":"senior"},{"type":"hashtag","offset":75,"length":3,"data":"TS"},{"type":"link","offset":100,"length":23,"data":"https://technoserv.com/"},{"type":"link","offset":1554,"length":23,"data":"mailto:QAResume@technoserv.com"}],"date":"2020-04-08T09:15:43+00:00","link":"tg://resolve?domain=qa_jobs&post=93667","tags":[{"name":"qa"},{"name":"rest"},{"name":"rabbitmq"},{"name":"dotnet"},{"name":"kubernetes"},{"name":"docker"},{"name":"sql"},{"name":"oracle"},{"name":"linux"},{"name":"centos"},{"name":"java"},{"name":"selenium"},{"name":"net-core"}],"cities":[{"code":"moscow"},{"code":"saratov"}],"allowsRemote":false}},{"node":{"__typename":"Job","id":"16210984960-1001110946746","title":"Js разработчик","text":"#вакансия #fulltime #node #typescript #kubernetes #graphQL #Remote \nStrong Middle Node engineer\n\nГород: Любой(HQ в Miami, Florida)\nФормат работы: удаленно\nЗанятость: полная\nЗарплатная вилка: от $3000 - $5000\n\nКомпания StartupCraft Inc - больше инфы тут - https://startupcraft.io\n\nРабота в команде профи, полный стек ролей и четко настроенные процессы. Позиция на продукт связанный с управлением Kubernetes инфраструктурами\n\n\nТребования:\n- At least 3 years of experience with Node.js\n- At least 1 year with TypeScript\n- At least 1 year with GraphQL\n- Conversational level of English\n\nУсловия:\n- Top Salary rates\n- Company internal positive culture. We are not all about just a work\n- Personal development and professional growth. You will grow with one of the best engineers in class\n\nДля того чтоб зааплаиться - нужно выслать CV на info@startupcraft.io и указать проекты на которых вы работали, с указанием технологий и периода (от, до).  Можно так же указать референс на предыдущих местах - это плюс\n\n\nКомпания: StartupCraft Inc\nКонтакты: info@startupcraft.io","markup":[{"type":"hashtag","offset":0,"length":9,"data":"вакансия"},{"type":"hashtag","offset":10,"length":9,"data":"fulltime"},{"type":"hashtag","offset":20,"length":5,"data":"node"},{"type":"hashtag","offset":26,"length":11,"data":"typescript"},{"type":"hashtag","offset":38,"length":11,"data":"kubernetes"},{"type":"hashtag","offset":50,"length":8,"data":"graphQL"},{"type":"hashtag","offset":59,"length":7,"data":"Remote"},{"type":"link","offset":255,"length":23,"data":"https://startupcraft.io"},{"type":"link","offset":832,"length":20,"data":"mailto:info@startupcraft.io"},{"type":"link","offset":1040,"length":20,"data":"mailto:info@startupcraft.io"}],"date":"2020-04-07T18:37:12+00:00","link":"tg://resolve?domain=javascript_jobs_feed&post=15460","tags":[{"name":"javascript"},{"name":"nodejs"},{"name":"typescript"},{"name":"kubernetes"},{"name":"graphql"}],"cities":[{"code":"miami"}],"allowsRemote":true}}]}}},"context":{}}