{"hash":"f34fd2c444a074f4e0e67d525015a008ef8e766f","data":{"records":{"id":"asp-net","name":"asp-net","belongsTo":{"totalCount":15,"pageInfo":{"totalPages":2,"currentPage":1},"edges":[{"node":{"__typename":"Job","id":"84934656-1001375797688","title":".net разработчик","text":"#вакансия #НижнийНовгород #офис #.net core #Middle#Senior\n\nГород: Нижний Новгород\nФормат работы: в офисе\nЗанятость: полная\nЗарплатная вилка: от 70 000 до 120 000 руб. на руки\nНазвание компании: Сезон\n\nСезон – это площадка с элементами социальной сети для продажи своей одежды и аксессуаров от известных брендов премиум-класса.\n\nЧто хотят:\n- Уверенное владение C#, .NET Framework, ASP.NET Core;\n- Знания и понимание принципов ООП, шаблонов проектирования;\n- Опыт работы и понимание асинхронного кода, блокировок и дедлоков;\n- Опыт работы с базами данных MS SQL и ORM;\n- Опыт разработки REST сервисов, работа с JSON и XML;\n- Опыт работы с Git\n\nЧто дают:\n- Современный офис в Нижнем Новгороде;\n- Официальное трудоустройство;\n- Частичная оплата личных образовательных мероприятий;\n- Любая профессиональная литература по заказу;\n- Гибкий график;\n- Дружный молодой коллектив;\n- Интересные неповторяющиеся задачи, никакой рутины.\n\nВопросы в любом  мессенджере +79297474161","markup":[{"type":"hashtag","offset":0,"length":9,"data":"вакансия"},{"type":"hashtag","offset":10,"length":15,"data":"НижнийНовгород"},{"type":"hashtag","offset":26,"length":5,"data":"офис"},{"type":"link","offset":380,"length":7,"data":"http://ASP.NET"},{"type":"link","offset":953,"length":12,"data":"tel:+79297474161"}],"date":"2020-01-31T15:41:51+00:00","link":"tg://resolve?domain=DotNetRuJobsFeed&post=81","tags":[{"name":"dotnet"},{"name":"csharp"},{"name":"sql"},{"name":"orm"},{"name":"rest"},{"name":"json"},{"name":"xml"},{"name":"git"},{"name":"net-core"},{"name":"asp-net"},{"name":"asp-net-core"}],"cities":[{"code":"nizhny-novgorod"}],"allowsRemote":false}},{"node":{"__typename":"Job","id":"80740352-1001375797688","title":".net разработчик","text":"#вакансия #НижнийНовгород #офис #.net core #Middle#Senior\n\nГород: Нижний Новгород\nФормат работы: в офисе\nЗанятость: полная\nЗарплатная вилка: от 70 000 до 120 000 руб. на руки\nНазвание компании: Сезон\n\nСезон – это площадка с элементами социальной сети для продажи своей одежды и аксессуаров от известных брендов премиум-класса.\n\nЧто хотят:\n- Уверенное владение C#, .NET Framework, ASP.NET Core;\n- Знания и понимание принципов ООП, шаблонов проектирования;\n- Опыт работы и понимание асинхронного кода, блокировок и дедлоков;\n- Опыт работы с базами данных MS SQL и ORM;\n- Опыт разработки REST сервисов, работа с JSON и XML;\n- Опыт работы с Git\n\nЧто дают:\n- Современный офис в Нижнем Новгороде;\n- Официальное трудоустройство;\n- Частичная оплата личных образовательных мероприятий;\n- Любая профессиональная литература по заказу;\n- Гибкий график;\n- Дружный молодой коллектив;\n- Интересные неповторяющиеся задачи, никакой рутины.\n\nВопросы в любом  мессенджере +79297474161","markup":[{"type":"hashtag","offset":0,"length":9,"data":"вакансия"},{"type":"hashtag","offset":10,"length":15,"data":"НижнийНовгород"},{"type":"hashtag","offset":26,"length":5,"data":"офис"},{"type":"link","offset":380,"length":7,"data":"http://ASP.NET"},{"type":"link","offset":953,"length":12,"data":"tel:+79297474161"}],"date":"2020-01-29T15:40:11+00:00","link":"tg://resolve?domain=DotNetRuJobsFeed&post=77","tags":[{"name":"dotnet"},{"name":"csharp"},{"name":"sql"},{"name":"orm"},{"name":"rest"},{"name":"json"},{"name":"xml"},{"name":"git"},{"name":"net-core"},{"name":"asp-net"},{"name":"asp-net-core"}],"cities":[{"code":"nizhny-novgorod"}],"allowsRemote":false}},{"node":{"__typename":"Job","id":"81788928-1001375797688","title":".net developer","text":"#job #vacancy #Minsk #.Net #dotnet #Net #Middle #Senior #fulltime \n#вакансия #Минск #офис\n\nПривет!!!\nЕсли вы давно хотели работать в game dev- этот пост для вас!\n\nЛокация: Минск, ст.м. Площадь Якуба Колоса\nРабота в офисе, фуллтайм\nЗП: до 4000$\n\nБыстро растущая компания, предоставляющая сервис по аутсорсной разработке программного обеспечения, находится в поисках Middle/Senior .Net Developer. \n\nЧто мы ожидаем:\n✔️ 2+года работы с ASP.Net  и Web API;\n✔ опыт работы MSSQL, PostgreSQL, а также MongoDB, DynamoDB;\n✔ опыт работы с Microservices;\n✔  опыт работы с SCRUM (Agile); \n✔ знание английского языка (от В1);\n\nПлюсом будет:\n⭕  опыт разработки на стороне клиента (JS и CSS);\n⭕ опыт работы с AWS, GC, Azure и т.д.;\n⭕ опыт работы в B2C;\n\nМы предлагаем:\n🔸  работу в дружном коллективе;\n🔸  медицинскую страховку;\n🔸  частичную оплату спорта;\n🔸 3 sick day's;\n🔸  стабильную и достойную заработную плату;\n🔸  гибкий график.\n\n⚡ Пишите в лс за подробной информацией. \ntg: @Ww_Darya","markup":[{"type":"hashtag","offset":0,"length":4,"data":"job"},{"type":"hashtag","offset":5,"length":8,"data":"vacancy"},{"type":"hashtag","offset":14,"length":6,"data":"Minsk"},{"type":"hashtag","offset":27,"length":7,"data":"dotnet"},{"type":"hashtag","offset":35,"length":4,"data":"Net"},{"type":"hashtag","offset":40,"length":7,"data":"Middle"},{"type":"hashtag","offset":48,"length":7,"data":"Senior"},{"type":"hashtag","offset":56,"length":9,"data":"fulltime"},{"type":"hashtag","offset":67,"length":9,"data":"вакансия"},{"type":"hashtag","offset":77,"length":6,"data":"Минск"},{"type":"hashtag","offset":84,"length":5,"data":"офис"},{"type":"handle","offset":969,"length":9,"data":"Ww_Darya"}],"date":"2020-01-29T15:40:11+00:00","link":"tg://resolve?domain=DotNetRuJobsFeed&post=78","tags":[{"name":"dotnet"},{"name":"csharp"},{"name":"web"},{"name":"sql-server"},{"name":"postgresql"},{"name":"mongodb"},{"name":"dynamodb"},{"name":"css"},{"name":"amazon-web-services"},{"name":"azure"},{"name":"asp-net"}],"cities":[{"code":"minsk"}],"allowsRemote":false}},{"node":{"__typename":"Job","id":"75497472-1001375797688","title":".net developer","text":"#вакансия #dotnet #aspnet #entityframework #remote\n\nFull-stack Developer\nFull-time, $60k-$80k annually, Remote\n\nAbout us\n* Our main product is practice management software system “Stage 4 MD”. It is designed specifically for and used by plastic surgeons\n* It is single-page multi-tenant application hosted in Azure cloud\n\nMain technologies we use:\n* ASP.Net MVC with DevExpress controls\n* Entity Framework 6 with SQL Server Azure in Azure cloud\n* DBUp is used for automatic database schema and data updates\n* A part of the system system uses ASP.Net Web API for back-end with Vue.js front-end\n* We boldly mix Vue.js with ASP.Net MVC by rendering MVC controls inside Vue.js components and visa versa\n* Vue Router is used for single-page application navigation\n* We recently moved code repository from Bitbucket to Github\n* Tasks are still in Jira\n* Teamcity builds generate binaries for development, and release branches. Binaries are deployed with one-click process\n* We use Trunk Based Development for releases. Release deployment to production is done once every three weeks. QA deployment happens several times a week\n* QA team runs automated browser tests as well as does some manual testing\n* Every developer works with their local development environment\n* Slack is used for communication\n\nYour personal skills\n* You have to be proficient with reading, writing and speaking English (expert level not required)\n* From picking the next task to writing a specific line of code you are expected to be keeping in mind the customer’s needs and the value that your contribution creates for them\n* You should be able to develop code that does its job, performs well, easy to read and maintain and doesn’t require additional explanations\n* You need to self-manage next tasks from backlog, consistently report your progress and escalate roadblocks timely\n* You are expected to be comfortable with asking questions, proposing better solutions and accepting suggestions from teammates, giving and taking feedback\n\nYour technical skills\nThings you’re expected to be well experienced with:\n* C# and .Net Framework\n* ASP.Net MVC and ASP.Net Web API\n* JavaScript, HTML, CSS\n* Entity Framework and SQL Server\n* Git\n\nOther things that are nice to know, but not required:\n* ASP.Net Core\n* Entity Framework Core\n* DevExpress Controls\n* Vue.js and Vuetify\n\nYour compensation package\n* You will operate as independent contractor (прим: ИП по официальному договору с американской компанией)\n* You will receive $60k-$80k annually in bi-weekly payments (до налогов, их вы платите сами как ИП)\n* You will have unlimited time off in accordance with our time-off policy\n* You can work from anywhere in the world, at hours of your convenience\n\nOur recruitment process\n* Skills test. Short online quiz to get a quick evaluation of your technical skills\n* Interview. Brief conversation for you to tell about your interests, learn about our company and the product\n* Test project. Review existing codebase, report fixes and improvements, and implement one or few of them\n* Test week. Five days of paid work with us on our real project\n\nReady to start?\nTake the test: https://apply.hire.toggl.com/966DPZE7RPE5Y9P8H27P?utm_source=dotnetrujobs","markup":[{"type":"hashtag","offset":0,"length":9,"data":"вакансия"},{"type":"hashtag","offset":10,"length":7,"data":"dotnet"},{"type":"hashtag","offset":18,"length":7,"data":"aspnet"},{"type":"hashtag","offset":26,"length":16,"data":"entityframework"},{"type":"hashtag","offset":43,"length":7,"data":"remote"},{"type":"bold","offset":52,"length":20,"data":""},{"type":"bold","offset":112,"length":8,"data":""},{"type":"bold","offset":1296,"length":20,"data":""},{"type":"bold","offset":2008,"length":21,"data":""},{"type":"italic","offset":2059,"length":16,"data":""},{"type":"italic","offset":2227,"length":12,"data":""},{"type":"bold","offset":2342,"length":25,"data":""},{"type":"bold","offset":2721,"length":23,"data":""},{"type":"bold","offset":3110,"length":15,"data":""},{"type":"link","offset":3141,"length":73,"data":"https://apply.hire.toggl.com/966DPZE7RPE5Y9P8H27P?utm_source=dotnetrujobs"}],"date":"2020-01-10T06:42:51+00:00","link":"tg://resolve?domain=DotNetRuJobsFeed&post=72","tags":[{"name":"dotnet"},{"name":"csharp"},{"name":"azure"},{"name":"cloud"},{"name":"sql"},{"name":"web"},{"name":"vuejs"},{"name":"github"},{"name":"deployment"},{"name":"javascript"},{"name":"html"},{"name":"css"},{"name":"git"},{"name":"asp-net"},{"name":"entity-framework"},{"name":"sql-server"},{"name":"net-core"},{"name":"asp-net-mvc"},{"name":"asp-net-core"},{"name":"entity-framework-core"}],"cities":[{"code":"nice"}],"allowsRemote":true}},{"node":{"__typename":"Job","id":"74448896-1001375797688","title":".net разработчик","text":"#вакансия #dotnet #csharp #remote #удаленка\n\nФормат: #удаленка\nЗанятость: полная\nЗарплата: от 2 000$ до 3 500$ (зп обсуждается с каждым лично и зависит от вашего уровня...)\nКомпания: IDG\n\n💡Задачи:\n- Разработка высоконагруженных систем на стороне заказчика;\n- Поддержка и сопровождения проектов;\n\n📍Требования:\n- опыт разработки коммерческих приложений на платформе .NET от 2 лет;\n- опыт и понимание ASP.Net MVC, Web API, опыт работы с клиентскими JS фреймворками;\n- опыт и понимание протокола передачи данных REST;\n- знание и опыт работы с MongoDB или другой NoSQL базой данных;\n- технический английский;\n\n🔗Будет плюсом:\n- опыт работы в финансовой индустрии, либо другой корпоративной среде, где важна защита данных и правильная организация контроля доступа к исполнению кода\n- опыт работы с зарубежными заказчиками\n- использование TDD в разработке\n- наличие сертификатов Microsoft\n- опыт работы с Datawarehouse/Big Data системами\n- Опыт работы с VSTS\n- Опыт работы с Kubernetes/Docker\n- Опыт работы с React\n\n📝Условия:\n- Интересные задачи и возможность реализовать свой потенциал в международных проектах компании и внутренних стартапах;\n- Гибкий график (начало и конец рабочего дня согласовываются с менеджером и командой проекта)\n- Полностью удаленная работа\n\nРезюме можно в личку или на почту.\n\nКонтакты:\n📧 seleznevaem@gmail.com\n🖌@EkaterinaSel\n\nТакже буду благодарна за рекомендации.","markup":[{"type":"hashtag","offset":0,"length":9,"data":"вакансия"},{"type":"hashtag","offset":10,"length":7,"data":"dotnet"},{"type":"hashtag","offset":18,"length":7,"data":"csharp"},{"type":"hashtag","offset":26,"length":7,"data":"remote"},{"type":"hashtag","offset":34,"length":9,"data":"удаленка"},{"type":"bold","offset":45,"length":8,"data":""},{"type":"hashtag","offset":53,"length":9,"data":"удаленка"},{"type":"bold","offset":63,"length":11,"data":""},{"type":"bold","offset":81,"length":10,"data":""},{"type":"bold","offset":173,"length":9,"data":""},{"type":"link","offset":1314,"length":21,"data":"mailto:seleznevaem@gmail.com"},{"type":"handle","offset":1338,"length":13,"data":"EkaterinaSel"}],"date":"2020-01-08T12:47:08+00:00","link":"tg://resolve?domain=DotNetRuJobsFeed&post=71","tags":[{"name":"dotnet"},{"name":"csharp"},{"name":"web"},{"name":"rest"},{"name":"mongodb"},{"name":"nosql"},{"name":"kubernetes"},{"name":"docker"},{"name":"reactjs"},{"name":"asp-net"},{"name":"asp-net-mvc"}],"cities":[],"allowsRemote":true}},{"node":{"__typename":"Job","id":"69206016-1001375797688","title":".net разработчик","text":"#вакансия #Москва #офис\nРазработчик С#\nЗ.п.: 80-140к\n\nОбязанности:\n\n1. Разработка прикладного ПО для внутренних нужд клиентских сервисов, в том числе:\n\n- реализация высоконагруженных серверных приложений\n- разработка архитектуры реализуемой программной системы\n- решение возникающих при реализации технических проблем\n\n2. Оптимизация текущего ПО (ускорение, снижение потребления ресурсов и т.п.)\n\nТребования:\n\n- высшее образование\n- опыт разработки на C# не менее 3-х лет\n- опыт разработки сложных корпоративных систем автоматизации\n\nБудет плюсом:\n- знание Python, JavaScript\n- знание языков разметки: CSS, HTML\n- опыт работы с ASP.NET Core, Keras, MongoDB\n- опыт написания модульных тестов\n- опыт работы с SVN, Git или Hg\n\nПисать в ЛС","markup":[{"type":"hashtag","offset":0,"length":9,"data":"вакансия"},{"type":"hashtag","offset":10,"length":7,"data":"Москва"},{"type":"hashtag","offset":18,"length":5,"data":"офис"},{"type":"link","offset":628,"length":7,"data":"http://ASP.NET"}],"date":"2019-12-17T16:05:01+00:00","link":"tg://resolve?domain=DotNetRuJobsFeed&post=66","tags":[{"name":"dotnet"},{"name":"csharp"},{"name":"python"},{"name":"javascript"},{"name":"css"},{"name":"html"},{"name":"mongodb"},{"name":"svn"},{"name":"git"},{"name":"asp-net"},{"name":"net-core"},{"name":"asp-net-core"}],"cities":[{"code":"moscow"}],"allowsRemote":false}},{"node":{"__typename":"Job","id":"54525952-1001375797688","title":".net разработчик","text":"Ребята, #вакансия прилетела: \n\nДля усиления текущей команды разыскиваю .NET разработчика уровня #middle/#senior с опытом работы на .NET Core. Будет очень хорошо, если разработчик найдется в Ульяновске, но и удаленных сотрудников тоже рассматриваем. Запускаем проект для ведущего сервиса доставки еды в Москве и Петербурге, нагрузка примерно 1 000 000 пользователей, сейчас идет стадия закладывания архитектуры, так что будет возможность влиять на решения. Фронт будет написан на реакте, так что фулстэки тоже приветствуются) А еще есть проект в стадии разработки - плагин, который будет помогать искать ошибки программистам и писать чистый код.\n\nТребования:\nГлубокое знание технологического стека Microsoft, включая C#, MS SQL, ASP.NET, MVC/ASP.NET Core и тд.;\nОпыт работы с реляционными базами данных MS-SQL/PostgreSQL;\nЗнание и практический опыт использования правильных инженерных практик (юнит тестирование, автотесты, рефакторинг, CI, DevOps и др)\n\nУдалённая работа, офис, если живете в Ульяновске, полный день. \n\nРезюме присылать сюда: @VladislavAg\n\nВилка: 60 000 - 180 000 рублей до вычета налога","markup":[{"type":"hashtag","offset":8,"length":9,"data":"вакансия"},{"type":"hashtag","offset":96,"length":7,"data":"middle"},{"type":"hashtag","offset":104,"length":7,"data":"senior"},{"type":"link","offset":728,"length":7,"data":"http://ASP.NET"},{"type":"link","offset":741,"length":7,"data":"http://ASP.NET"},{"type":"handle","offset":1042,"length":12,"data":"VladislavAg"}],"date":"2019-11-18T13:44:42+00:00","link":"tg://resolve?domain=DotNetRuJobsFeed&post=52","tags":[{"name":"dotnet"},{"name":"csharp"},{"name":"sql"},{"name":"postgresql"},{"name":"net-core"},{"name":"asp-net"},{"name":"asp-net-mvc"},{"name":"asp-net-core"}],"cities":[],"allowsRemote":false}},{"node":{"__typename":"Job","id":"52428800-1001375797688","title":".net программист","text":"Всем добрый день, у нас в агентстве  есть #вакансия Программист С#\n, #вилка от 140 000р до 200 000р в зависимости от опыта и тех.собеседования.\n\nЛокация: #Москва, офис в #«Москва-Сити»,\n\nОбязанности: \n\n- Проектирование и разработка приложений для ритейла \n- Проектирование БД, написание запросов и хранимых процедур MSSQL\n- Доработка, поддержка существующих бизнес приложений компании\n\nТребования: \n\nОпыт коммерческой разработки на C#, ASP.NET от 1 года \nОпыт с БД: MSSQL, T-SQL, \nЗнание шаблонов и паттернов проектирования\nVue.js, JavaScript\n\n\nУсловия:\n\nОфициальное оформление, хороший компенсационный пакет при переезде. \nГрафик: 8:00-17:00\nКорпоративное питание\nКорпоративные мероприятия\nСпортивные секции в рамках корпоративного отдыха\n\nЕсли наше предложение заинтересовало Вас, пишите мне)","markup":[{"type":"hashtag","offset":42,"length":9,"data":"вакансия"},{"type":"hashtag","offset":69,"length":6,"data":"вилка"},{"type":"hashtag","offset":154,"length":7,"data":"Москва"},{"type":"link","offset":436,"length":7,"data":"http://ASP.NET"}],"date":"2019-11-18T13:33:50+00:00","link":"tg://resolve?domain=DotNetRuJobsFeed&post=50","tags":[{"name":"dotnet"},{"name":"csharp"},{"name":"sql-server"},{"name":"sql"},{"name":"vuejs"},{"name":"javascript"},{"name":"asp-net"}],"cities":[{"code":"moscow"}],"allowsRemote":false}},{"node":{"__typename":"Job","id":"50331648-1001375797688","title":".net developer","text":"#вакансия #минск #офис #minsk #fulltime #csharp #core #middle #senior\n\nВакансия: Middle/Senior .NET Developer\nКомпания: Amaryllis Solutions\nЛокация: Минск \nФормат: #офис #фуллтайм\nВилка з/п: 2000-3200 USD net в зависимости от уровня\n\nПроект: Amaryllis Payment Solutions (инновационная платежная платформа).\n\nТребования:\n- практический опыт в .NET, .NET Core, ASP.NET Web API, MS SQL Server, JavaScript, Angular 2+;\n- не менее чем 3-летний стаж бэкенд либо фуллстек разработки.\n\nПредлагаем:\n- конкурентную компенсацию за ваш труд;\n- специальные учебные программы (тренинги и семинары в области передового опыта в области разработки программного обеспечения, управления проектами, управления);\n- индивидуальный план профессионального развития каждого сотрудника;\n- социальный пакет (курсы английского языка и спорт для сотрудников);\n- гибкий график работы;\n- 100% белую заработную плату – компания резидент ПВТ\n- помощь с релокацией для иногородних.\n\nКонтакты: @steelRunner","markup":[{"type":"hashtag","offset":0,"length":9,"data":"вакансия"},{"type":"hashtag","offset":10,"length":6,"data":"минск"},{"type":"hashtag","offset":17,"length":5,"data":"офис"},{"type":"hashtag","offset":23,"length":6,"data":"minsk"},{"type":"hashtag","offset":30,"length":9,"data":"fulltime"},{"type":"hashtag","offset":40,"length":7,"data":"csharp"},{"type":"hashtag","offset":48,"length":5,"data":"core"},{"type":"hashtag","offset":54,"length":7,"data":"middle"},{"type":"hashtag","offset":62,"length":7,"data":"senior"},{"type":"hashtag","offset":164,"length":5,"data":"офис"},{"type":"hashtag","offset":170,"length":9,"data":"фуллтайм"},{"type":"link","offset":359,"length":7,"data":"http://ASP.NET"},{"type":"handle","offset":959,"length":12,"data":"steelRunner"}],"date":"2019-11-15T17:17:33+00:00","link":"tg://resolve?domain=DotNetRuJobsFeed&post=48","tags":[{"name":"dotnet"},{"name":"csharp"},{"name":"web"},{"name":"sql"},{"name":"javascript"},{"name":"angularjs"},{"name":"net-core"},{"name":"asp-net"},{"name":"sql-server"}],"cities":[{"code":"minsk"}],"allowsRemote":false}},{"node":{"__typename":"Job","id":"45088768-1001375797688","title":".net разработчик","text":"#вакансия #с#  #.NET #офис #Минск\n\nВакансии Middle/Senior .net разработчики.\nГород и адрес офиса: Минск\nФормат работы: офис\nЗанятость: полная\nЗарплатная вилка: от 2300 до 3500\n\nAmaryllis Payment Solutions – это компания из списка «20 самых перспективных поставщиков платежных решений 2018 года», ищет .Net / C # разработчиков, готовых присоединиться к нашей профессиональной команде, чтобы участвовать в создании инновационной платежной платформы Amaryllis.\n\nТребования:\n\n* Практический опыт в .NET, .NET Core, ASP.NET Web API, MS SQL Server, JavaScript, Angular 2+;\n* 3+ летний опыт работы в ИТ-индустрии;\n\nМы готовы предложить вам:\n\n* Конкурентную компенсацию за ваш труд;\n* Специальные учебные программы (тренинги и семинары в области передового опыта в области разработки программного обеспечения, управления проектами, управления);\n* Индивидуальный план профессионального развития каждого сотрудника;\n* Социальный пакет (курсы английского языка и спорт для сотрудников);\n* Гибкий график работы.\n* 100% белая заработная плата – компания резидент ПВТ\n\n@veroneko","markup":[{"type":"hashtag","offset":0,"length":9,"data":"вакансия"},{"type":"hashtag","offset":21,"length":5,"data":"офис"},{"type":"hashtag","offset":27,"length":6,"data":"Минск"},{"type":"link","offset":511,"length":7,"data":"http://ASP.NET"},{"type":"handle","offset":1055,"length":9,"data":"veroneko"}],"date":"2019-11-07T10:08:54+00:00","link":"tg://resolve?domain=DotNetRuJobsFeed&post=43","tags":[{"name":"dotnet"},{"name":"csharp"},{"name":"web"},{"name":"sql"},{"name":"javascript"},{"name":"angularjs"},{"name":"net-core"},{"name":"asp-net"},{"name":"sql-server"}],"cities":[{"code":"minsk"}],"allowsRemote":false}}]}}},"context":{}}