{"hash":"f5f6bf98bd95e769321482904cbbd488f77922fd","data":{"records":{"id":"russia/moscow","country":{"code":"russia","ruName":"Россия","enName":"Russia"},"city":{"code":"moscow","ruName":"Москва","enName":"Moscow"},"belongsTo":{"totalCount":476,"pageInfo":{"totalPages":48,"currentPage":23},"edges":[{"node":{"__typename":"Job","id":"103633911808-1001089317451","title":"Qa инженер","text":"#москва #тестировщик  #удаленно #вакансия\n\nПривет, Я – Алёна из \"Сберлогистика\",  мы логистический оператор федерального масштаба, развиваем собственную складскую инфраструктуру, курьерскую доставку и сеть пунктов выдачи заказов во всех регионах РФ. Наш основной продукт это логистическая платформа (Back + разные клиентские приложения, которые общаются с ним), позволяющая нашим пользователям оформлять, отправлять, отслеживать различные отправления, а нашим сотрудникам осуществлять всю логистику. Есть проекты как web так и mob для внутренних нужд и отдельных клиентов.\nРасширяем команду, ищем Тестировщика (ручное тестирование)\n👍Формат работы: 5/2, удалёнка, официальное оформление в штат Компании\n💵Вилка до 160 к gross \n\n❗️Что для нас важно?\n-Опыт тестирования web приложений и API, написания тестовой документации\n-Знание техник тест-дизайна \n-Опыт работы с БД \n-Опыт работы с системами логирования \n-Опыт работы с очередями \n-Понимание принципов клиент-серверной архитектуры, сетевых протоколов, HTTP протокола\n-Опыт работы с HTTP-клиентами (postman, сurl и т.п.)\n\n✅ Задачи:\n-Участие в формировании методик и процессов тестирования на проекте\n-Составление тестовой документации, ревью документации составленной другими тестировщиками \n-Тестирование продуктов компании\n-Взаимодействие с командой автоматизации  \n\n💚Расскажу подробности в лс: @yagodaalena","markup":[{"type":"hashtag","offset":0,"length":7,"data":"москва"},{"type":"hashtag","offset":8,"length":12,"data":"тестировщик"},{"type":"hashtag","offset":22,"length":9,"data":"удаленно"},{"type":"hashtag","offset":32,"length":9,"data":"вакансия"},{"type":"handle","offset":1350,"length":12,"data":"yagodaalena"}],"date":"2020-06-24T13:11:36+00:00","link":"tg://resolve?domain=qa_jobs&post=98833","tags":[{"name":"qa"},{"name":"web"}],"cities":[{"code":"moscow"}],"allowsRemote":true}},{"node":{"__typename":"Job","id":"103630766080-1001089317451","title":"Qa engineer","text":"#hr #вакансия #QA #Москва #командасобранасамимбоженькой\n\n🔴 Xena Exchange - профессиональная торговая платформа для профессиональных трейдеров и институциональных инвесторов. \n🔍 Ищем QA Engineer\n\n✔️ Задачи: \n1- Создавать стратегии тестирования/тест-планы для верификации качества функциональности продукта;\n2- Выполнять ручное тестирование;\n3- Выполнять автоматизированное интеграционное тестирование;\n4- Проводить нагрузочное тестирование.\n\n✔️ Супер, если: \nИмеешь опыт тест-дизайна, планирования и управления тестированием;\nПонимаешь принципы работы веб-приложений и API, имеешь опыт автоматизированного тестирования REST и WebSocket API с применением любых языков и фреймворков;\nИмеешь опыт проведения нагрузочных тестов;\nСпособен анализировать логи и выяснять root-cause ошибок;\nЗнаком с микросервисной архитектурой;\nМожешь применять для автоматизации Bash, Python;\nИмеешь опыт работы с middleware - PostgreSQL, RabbitMQ, Kafka, Redis;\n\n✔️ Условия:\n- покупаем всю технику которая нужна вам для продуктивной работы; \n- у нас сплоченный коллектив профессионалов с серьезным бэкраундом\nгибкий график, время не трекаем, главное - результат\n- Интересные задачи, возможность применить и прокачать скилы в создании высоконагруженных сервисов\n\n✔️ Доп. информация: \nзарплатная вилка обсуждаема, от 170к до 240к 💸 (в зависимости от уровня)\n\nЗа подробной инфой го в личку @anastaysha163 или @anastaysha164","markup":[{"type":"hashtag","offset":0,"length":3,"data":"hr"},{"type":"hashtag","offset":4,"length":9,"data":"вакансия"},{"type":"hashtag","offset":14,"length":3,"data":"QA"},{"type":"hashtag","offset":18,"length":7,"data":"Москва"},{"type":"hashtag","offset":26,"length":29,"data":"командасобранасамимбоженькой"},{"type":"handle","offset":1367,"length":14,"data":"anastaysha163"},{"type":"handle","offset":1386,"length":14,"data":"anastaysha164"}],"date":"2020-06-24T12:47:34+00:00","link":"tg://resolve?domain=qa_jobs&post=98830","tags":[{"name":"qa"},{"name":"rest"},{"name":"websocket"},{"name":"bash"},{"name":"python"},{"name":"postgresql"},{"name":"rabbitmq"},{"name":"kafka"},{"name":"redis"}],"cities":[{"code":"moscow"}],"allowsRemote":false}},{"node":{"__typename":"Job","id":"1734344704-1001091028994","title":"Java developer","text":"#java#spring#сбербанк#москва\nКомпания: Сбербанк\nПозиция: Java backend-developer (Москва)\nЗп: от 250 тыс. net + годовой бонус\n \nЗадачи:\nРазработка backend-части высоконагруженной инновационной аналитической системы на Java; разработка интеграционных сервисов и микросервисных компонентов на Java (стандарты JMS, REST API); написание Unit-тестов; рефакторинг и оптимизация кода; участие в принятии архитектурных решений и исследовательские задачи.\n\nМы ожидаем:\nОпыт коммерческой разработки на Java от 2-х лет; понимание принципов ООП; уверенное знание Java SE (желательно, Java SE 8), Collection, JDBC, Multithreading; знания и опыт использования: Spring Framework/ Boot (Spring MVC, Spring Security, SpringJDBC); опыт написания Unit-тестов (Junit, TestNG); уверенное знание SQL; опыт работы с Git, Maven.\n\nКонтакт: Екатерина (+79250716855, @katyavarlygina)","markup":[{"type":"link","offset":825,"length":12,"data":"tel:+79250716855"},{"type":"handle","offset":839,"length":15,"data":"katyavarlygina"}],"date":"2020-06-24T11:21:18+00:00","link":"tg://resolve?domain=jvmjobs&post=1654","tags":[{"name":"java"},{"name":"jvm"},{"name":"spring"},{"name":"dotnet"},{"name":"rest"},{"name":"jdbc"},{"name":"junit"},{"name":"sql"},{"name":"git"},{"name":"maven"},{"name":"spring-mvc"},{"name":"spring-security"}],"cities":[{"code":"moscow"}],"allowsRemote":false}},{"node":{"__typename":"Job","id":"17129537536-1001110946746","title":"Js developer","text":"#вакансия  #Москва  #fulltime #офис   #nodejs #sql #backend\n\nМосква, м. Пролетарская\nФормат работы: офис\nЗанятость: полная, гибкое начало дня\nЗарплатная вилка: 150000 - 200000 рублей после вычета налогов\nКомпания: Кадровое Агентство «HR ONLINE»\nКонтакты: @sorokinayuliyahr\n\n🧷Мы в поиске Backend developer Node.js в сервисную компанию (online-платформа, где все важные сервисы доступны 24/7: от налогового вычета до дизайна интерьеров)\n\n💎Какими навыками и знаниями необходимо обладать:\n* ответственность и желание сделать вместе с командой крутой продукт; \n* умение писать чистый, читабельный, поддерживаемый код;\n* уверенное знание JavaScript (NodeJS), опыт коммерческой разработки от 3 лет; \n* знание ООП и основных шаблонов проектирования; \n* хорошее знание RDMS и в целом SQL, опыт работы с MySQL/Postgres;\n* опыт написания автотестов. \n\n💎Какие задачи необходимо решать:\n* интеграция внутренней корпоративной системы с сайтом;\n* работа с «личным кабинетом» пользователей;\n* работа с продуктами компании.\n\n💎Что готовы предложить: \n* 5 мин от метро Пролетарская;\n* Работа в дружной слаженной команде;\n* Оформление по ТК РФ, белая ЗП;\n* Итоговая заработная плата зависит от ваших компетенций и определяется по результатам собеседования;\n* ДМС.","markup":[{"type":"hashtag","offset":0,"length":9,"data":"вакансия"},{"type":"hashtag","offset":11,"length":7,"data":"Москва"},{"type":"hashtag","offset":20,"length":9,"data":"fulltime"},{"type":"hashtag","offset":30,"length":5,"data":"офис"},{"type":"hashtag","offset":38,"length":7,"data":"nodejs"},{"type":"hashtag","offset":46,"length":4,"data":"sql"},{"type":"hashtag","offset":51,"length":8,"data":"backend"},{"type":"handle","offset":255,"length":17,"data":"sorokinayuliyahr"}],"date":"2020-06-24T10:46:25+00:00","link":"tg://resolve?domain=javascript_jobs_feed&post=16336","tags":[{"name":"javascript"},{"name":"nodejs"},{"name":"sql"},{"name":"mysql"},{"name":"postgresql"}],"cities":[{"code":"moscow"}],"allowsRemote":false}},{"node":{"__typename":"Job","id":"17127440384-1001110946746","title":"Js developer","text":"#вакансия #js #extjs #frontend\nГород: Москва (М. Киевская)\nФормат работы: удаленная работа\nЗанятость: полная\nЗ.п.: 90 - 150 т.р. net\n\nFrontend developer Doczilla\nСкиллы: JavaScript, HTML5, CSS3 (будет плюсом: C/С++/Java).\n\nПроект Doczilla Pro - платформа для подготовки документов и совместной работы с ними.\n- Клиентская часть разрабатывается на \"чистом\" JavaScript без использования сторонних фреймворков. \n- Подход к разработке клиентской части похож на фреймворк Sencha ExtJS с его объектно-ориентированным стилем описания JavaScript-классов, однако избавлен от всего лишнего.\n- Серверная часть Doczilla Pro разрабатывается на Java, использование сторонних библиотек минимально.\n- Для решения задач интеграции с внешними сервисами применяется язык программирования BL из состава фреймворка Z8 (https://github.com/zenframework/z8).\n- Для понимания специфики проекта мы предлагаем выполнить тестовое задание.\n\nИнтереснейший и очень перспективный проект от команды профессиональных юристов. Присоединяйся!\n\nНазвание компании: Лекс Борелис\nLexborealis.com\nDoczilla.ru\n\nСтрельченко Дмитрий \n+7-960-869-03-03\nstrelchenko@doczilla.ru \ntelegram @d_strelchenko","markup":[{"type":"hashtag","offset":0,"length":9,"data":"вакансия"},{"type":"hashtag","offset":10,"length":3,"data":"js"},{"type":"hashtag","offset":14,"length":6,"data":"extjs"},{"type":"hashtag","offset":21,"length":9,"data":"frontend"},{"type":"link","offset":798,"length":34,"data":"https://github.com/zenframework/z8"},{"type":"link","offset":1040,"length":15,"data":"http://Lexborealis.com"},{"type":"link","offset":1056,"length":11,"data":"http://Doczilla.ru"},{"type":"link","offset":1090,"length":16,"data":"tel:+7-960-869-03-03"},{"type":"link","offset":1107,"length":23,"data":"mailto:strelchenko@doczilla.ru"},{"type":"handle","offset":1141,"length":14,"data":"d_strelchenko"}],"date":"2020-06-24T09:54:00+00:00","link":"tg://resolve?domain=javascript_jobs_feed&post=16334","tags":[{"name":"javascript"},{"name":"extjs"},{"name":"dotnet"},{"name":"html"},{"name":"css"},{"name":"java"},{"name":"github"}],"cities":[{"code":"moscow"},{"code":"kiev"}],"allowsRemote":true}},{"node":{"__typename":"Job","id":"17123246080-1001110946746","title":"Js разработчик","text":"#вакансия #работа #удаленка #backend #node #nodejs #remote\nГород и адрес офиса: Москва, Савеловская\nФормат работы: удаленка\nЗанятость: полная || проектная\nЗарплатная вилка: 100-160 т.р.\n\nОписание вакансии: \nИщем опытного backend-разработчика node.js для разработки высоконадежных транзакционных сервисов интеграции с различными системами\n\nТребования:\n• Опыт работы с унаследованными системами\n• Знание PHP на уровне понимания и чтения кода будет плюсом\n• Знание и понимание работы сетевых протоколов TCP/IP, HTTP, SMTP, IMAP\n• Знание и понимание языка JavaScript и связанных с ним технологий и фреймворков\n• Опыт разработки серверных приложений\n• Понимание основных процессов разработки, умение работать в команде\n• Понимание принципов ООП, подходов в программировании и требований к транзакционным системам\n\nЗадачи:\n• Разработка высоконадежных транзакционных сервисов интеграции с различными системами\n• Поддержка и модернизация существующих систем\n\nНазвание компании: TechPlatforms (https://techpl.net)\nКонтакты:@desych79","markup":[{"type":"hashtag","offset":0,"length":9,"data":"вакансия"},{"type":"hashtag","offset":10,"length":7,"data":"работа"},{"type":"hashtag","offset":18,"length":9,"data":"удаленка"},{"type":"hashtag","offset":28,"length":8,"data":"backend"},{"type":"hashtag","offset":37,"length":5,"data":"node"},{"type":"hashtag","offset":43,"length":7,"data":"nodejs"},{"type":"hashtag","offset":51,"length":7,"data":"remote"},{"type":"link","offset":985,"length":18,"data":"https://techpl.net"},{"type":"handle","offset":1014,"length":9,"data":"desych79"}],"date":"2020-06-24T09:11:21+00:00","link":"tg://resolve?domain=javascript_jobs_feed&post=16330","tags":[{"name":"javascript"},{"name":"nodejs"},{"name":"php"},{"name":"smtp"},{"name":"dotnet"}],"cities":[{"code":"moscow"}],"allowsRemote":true}},{"node":{"__typename":"Job","id":"1732247552-1001091028994","title":"Java разработчик","text":"#Java #Spring #8bitgroup\n\nГород и адрес офиса: #Москва, ст.м. Тульская W-Плаза \nФормат работы: #офис или #remote\nЗанятость: #полная, #fulltime\nЗарплатная вилка: 200 000 – 300 000 руб.          \n\n8bitgroup в поиске #Java-разработчиков: Teamlead + 2 разработчика Mid или Senior\nРассмотрим по одному или переход командой. За каждый выход- бонус 50к\n\n Компания разрабатывает собственные продукты – партнёрские программы и рекламные системы CPA, RTB, CPI, mobile и игровые проекты с 2012г., владеет СРА-сетью Leadbit, и успешным игровым проектом - ссылку в личку.\nТут можно посмотреть офис и плюшки https://www.facebook.com/8bitgroup\n                                         \nНашим игровым проектам (БК с лицензией РУ, гэмблинг, игры) нужны явисты. У нас скилловая растущая команда. Все лето - свободное посещение офиса, далее по ситуации с Covid. Доставим железо и удобное кресло с трудовым договором на дом. \n\n Задачи: \n • Проектирование и разработка интеграционной платформы и ее инструментов ; ссылка на проект в личку.\n • Разработка решений с использованием открытого ПО;\n • Разработка модульных и интеграционных тестов;\n • Ревью кода;\n\nОпыт и навыки:\n • Опыт разработки промышленных (high load, low latency) приложений\n • Знание основных алгоритмов и структур данных;\n • Знание паттернов проектирования ПО;\n • Знание Java Сore\n • Опыт разработки веб-сервисов (REST, HTTP);\n • Опыт написания и оптимизации SQL запросов (MySQL);\n • Понимание требований ACID и уровней изолированности транзакций;\n • Уверенное знание фреймворка Spring\n • Знание системы управления версиями (Git); Jira желательно. \n \nМы предлагаем: \n• Оклад в указанной вилке от ожиданий и опыта\n• Соцпакет: футбол по вторникам, ДМС ВСК со стоматологией \n• Гибкий график - лояльное начало дня, 8 часов рабочий день, сейчас удаленка до сентября\n• Возможность выбрать машину (Мак или Линукс или др ПО) - доставим домой \n• Формат «работа на удаленке» по болезни  и карантину\n• Переиндексация ЗП и возможность пересмотра грейда и ЗП 1 раз в год \n• Офис с панорамой на Москву-реку и летняя веранда с шашлыками, гамаками и пиццой\n\nКонтакты: Мариэтта IT HR  @mari_et\nпочта hr@dats.team","markup":[{"type":"hashtag","offset":0,"length":5,"data":"Java"},{"type":"hashtag","offset":6,"length":7,"data":"Spring"},{"type":"hashtag","offset":14,"length":10,"data":"8bitgroup"},{"type":"hashtag","offset":47,"length":7,"data":"Москва"},{"type":"hashtag","offset":95,"length":5,"data":"офис"},{"type":"hashtag","offset":105,"length":7,"data":"remote"},{"type":"hashtag","offset":124,"length":7,"data":"полная"},{"type":"hashtag","offset":133,"length":9,"data":"fulltime"},{"type":"hashtag","offset":214,"length":5,"data":"Java"},{"type":"link","offset":594,"length":34,"data":"https://www.facebook.com/8bitgroup"},{"type":"handle","offset":2115,"length":8,"data":"mari_et"},{"type":"link","offset":2130,"length":12,"data":"mailto:hr@dats.team"}],"date":"2020-06-24T09:07:54+00:00","link":"tg://resolve?domain=jvmjobs&post=1652","tags":[{"name":"java"},{"name":"jvm"},{"name":"spring"},{"name":"mobile"},{"name":"rest"},{"name":"sql"},{"name":"mysql"},{"name":"git"}],"cities":[{"code":"moscow"}],"allowsRemote":true}},{"node":{"__typename":"Job","id":"1731198976-1001091028994","title":"Java разработчик","text":"#вакансия  #офис #удаленка #регионы #Москва #Java #Spring #senior #middle #backend\nЛокация: #регион #Москва\nФормат работы: #офис #fulltime #удаленка\nЗ/п: 150-250 NET\nКомпания: МД-IT\nВедущий разработчик/Разработчик JAVA  \nВсем привет!\n\n✅Нужны классные разработчики Java уровня Middle, Senior, Lead\n\n👉Немного о нас: \nЦентр разработки МД-IT реализует проекты федерального масштаба под ключ. Наши специалисты работают с крупнейшими системными интеграторами, выполняя задачи по проектированию, разработке, тестированию, сопровождению и эксплуатации внедренных решений. \nНаши офисы расположены в Москве, Ростове-на –Дону, Нижнем Новгороде. \n\n👉Что ждем от Вас:\n* Уверенные знания java 8+, spring boot, будет плюсом знание Kotlin. \n Глубокие знания и практический опыт использования Java в нагруженных многопоточных приложениях Hibernate, Spring, Maven3, ХML\n\n* Опыт проектирования версионнированных REST-API, знание grpc будет плюсом\n\n* Понимание принципов асинхронного программирования, знание одного из: netty, nio, r2dbc\n\n* Желателен опыт использования библиотек реактивного программирования (rxjava, reactor) или опыт работы с vert.x, ratpack или http4\n\n*Приветствуется опыт работы с современными архитектурами, Apache Ignite, Apache Kafka\n\n👉Что мы можем предложить Вам:\n\n* Работа: удаленка\n\n*График работы 5/2, команда работает с 9(10) до 18(19) ч. по МСК\n\n*Заработную плату белую, конкурентоспособную (рассмотрим ваши предложения).\n\n* Работа в команде сообразительных, открытых, стремящихся к развитию единомышленников.\n\n* Крупные и долгосрочные проекты, увеличивающие профессиональный кругозор и опыт работы. \n* Плюшки к чаю и кофе, оплачиваемая мобильная связь, оплачиваемые тренинги и курсы для повышения квалификации. \n\n🖍 Вопросы, резюме прошу писать в личку Елене @Elenazlh","markup":[{"type":"hashtag","offset":0,"length":9,"data":"вакансия"},{"type":"hashtag","offset":11,"length":5,"data":"офис"},{"type":"hashtag","offset":17,"length":9,"data":"удаленка"},{"type":"hashtag","offset":27,"length":8,"data":"регионы"},{"type":"hashtag","offset":36,"length":7,"data":"Москва"},{"type":"hashtag","offset":44,"length":5,"data":"Java"},{"type":"hashtag","offset":50,"length":7,"data":"Spring"},{"type":"hashtag","offset":58,"length":7,"data":"senior"},{"type":"hashtag","offset":66,"length":7,"data":"middle"},{"type":"hashtag","offset":74,"length":8,"data":"backend"},{"type":"hashtag","offset":92,"length":7,"data":"регион"},{"type":"hashtag","offset":100,"length":7,"data":"Москва"},{"type":"hashtag","offset":123,"length":5,"data":"офис"},{"type":"hashtag","offset":129,"length":9,"data":"fulltime"},{"type":"hashtag","offset":139,"length":9,"data":"удаленка"},{"type":"handle","offset":1772,"length":9,"data":"Elenazlh"}],"date":"2020-06-24T08:41:15+00:00","link":"tg://resolve?domain=jvmjobs&post=1651","tags":[{"name":"java"},{"name":"jvm"},{"name":"spring"},{"name":"dotnet"},{"name":"kotlin"},{"name":"hibernate"},{"name":"maven"},{"name":"rest"},{"name":"apache"},{"name":"kafka"},{"name":"spring-boot"}],"cities":[{"code":"moscow"}],"allowsRemote":true}},{"node":{"__typename":"Job","id":"353370112-1001352129329","title":"Golang developer","text":"#вакансия #backend  #Go #php #fulltime #moscow \n\ninDriver - международный ride-hailing сервис:\n* 47 млн пользователей в 31 стране мира.\n* Входим в топ-5 мобильных сервисов для заказа поездки по итогам января 2020 года.\n* Офис возле м. Улица 1905 года.\n\nBackend Developer (Golang/php)\nЗП вилка 160-250 тысяч\nГород Москва, только офис фуллтайм\n\nОбязанности:\n• Разработка и поддержка backend сервисов на Golang/PHP\n• Прототипирование новых решений\n• Проведение код-ревью\n• Развитие микро-сервисного подхода\n\nТребования:\n• Знание микро-сервисных, high load архитектур\n• Опыт работы в высоконагруженных проектах \n• Опыт работы с СУБД \n\nКонтакт для связи: почта lubov.iv@indriver.com или телеграм @Liuboushka888","markup":[{"type":"hashtag","offset":0,"length":9,"data":"вакансия"},{"type":"hashtag","offset":10,"length":8,"data":"backend"},{"type":"hashtag","offset":20,"length":3,"data":"Go"},{"type":"hashtag","offset":24,"length":4,"data":"php"},{"type":"hashtag","offset":29,"length":9,"data":"fulltime"},{"type":"hashtag","offset":39,"length":7,"data":"moscow"},{"type":"link","offset":656,"length":21,"data":"mailto:lubov.iv@indriver.com"},{"type":"handle","offset":691,"length":14,"data":"Liuboushka888"}],"date":"2020-06-24T07:15:26+00:00","link":"tg://resolve?domain=gogetajobfeed&post=337","tags":[{"name":"go"},{"name":"php"}],"cities":[{"code":"moscow"}],"allowsRemote":false}},{"node":{"__typename":"Job","id":"71914487808-1001054966032","title":"Ios developer","text":"#вакансия #developer #iOS #moscow  #fulltime \niOS Developer\nГород: Москва\nФормат работы: офис \nЗанятость: полная\nЗП вилка: 160-290 тысяч \n\ninDriver - международный ride-hailing сервис:\n* 47 млн пользователей в 31 стране мира.\n* Входим в топ-5 мобильных сервисов для заказа поездки по итогам января 2020 года.\n* Офис возле м. Улица 1905 года.\n* Релокация в Москву для иногородних.\n\nОбязанности:\n• Разработка нового функционала приложения\n• Поддержка уже существующего функционала приложения\n• Участие в проектировании архитектуры системы\n\nТребования:\n• Отличное знание Swift и Objective-C\n•Опыт коммерческой iOS-разработки\n• Уверенное знание различных архитектурных подходов\n\nКонтакт для связи: @Liuboushka888","markup":[{"type":"hashtag","offset":0,"length":9,"data":"вакансия"},{"type":"hashtag","offset":10,"length":10,"data":"developer"},{"type":"hashtag","offset":21,"length":4,"data":"iOS"},{"type":"hashtag","offset":26,"length":7,"data":"moscow"},{"type":"hashtag","offset":35,"length":9,"data":"fulltime"},{"type":"handle","offset":694,"length":14,"data":"Liuboushka888"}],"date":"2020-06-24T06:00:18+00:00","link":"tg://resolve?domain=mobile_jobs&post=68583","tags":[{"name":"mobile"},{"name":"ios"},{"name":"swift"},{"name":"objective-c"}],"cities":[{"code":"moscow"}],"allowsRemote":false}}]}}},"context":{}}