{"hash":"f34fd2c444a074f4e0e67d525015a008ef8e766f","data":{"records":{"id":"csharp","name":"csharp","belongsTo":{"totalCount":37,"pageInfo":{"totalPages":4,"currentPage":2},"edges":[{"node":{"__typename":"Job","id":"81788928-1001375797688","title":".net developer","text":"#job #vacancy #Minsk #.Net #dotnet #Net #Middle #Senior #fulltime \n#вакансия #Минск #офис\n\nПривет!!!\nЕсли вы давно хотели работать в game dev- этот пост для вас!\n\nЛокация: Минск, ст.м. Площадь Якуба Колоса\nРабота в офисе, фуллтайм\nЗП: до 4000$\n\nБыстро растущая компания, предоставляющая сервис по аутсорсной разработке программного обеспечения, находится в поисках Middle/Senior .Net Developer. \n\nЧто мы ожидаем:\n✔️ 2+года работы с ASP.Net  и Web API;\n✔ опыт работы MSSQL, PostgreSQL, а также MongoDB, DynamoDB;\n✔ опыт работы с Microservices;\n✔  опыт работы с SCRUM (Agile); \n✔ знание английского языка (от В1);\n\nПлюсом будет:\n⭕  опыт разработки на стороне клиента (JS и CSS);\n⭕ опыт работы с AWS, GC, Azure и т.д.;\n⭕ опыт работы в B2C;\n\nМы предлагаем:\n🔸  работу в дружном коллективе;\n🔸  медицинскую страховку;\n🔸  частичную оплату спорта;\n🔸 3 sick day's;\n🔸  стабильную и достойную заработную плату;\n🔸  гибкий график.\n\n⚡ Пишите в лс за подробной информацией. \ntg: @Ww_Darya","markup":[{"type":"hashtag","offset":0,"length":4,"data":"job"},{"type":"hashtag","offset":5,"length":8,"data":"vacancy"},{"type":"hashtag","offset":14,"length":6,"data":"Minsk"},{"type":"hashtag","offset":27,"length":7,"data":"dotnet"},{"type":"hashtag","offset":35,"length":4,"data":"Net"},{"type":"hashtag","offset":40,"length":7,"data":"Middle"},{"type":"hashtag","offset":48,"length":7,"data":"Senior"},{"type":"hashtag","offset":56,"length":9,"data":"fulltime"},{"type":"hashtag","offset":67,"length":9,"data":"вакансия"},{"type":"hashtag","offset":77,"length":6,"data":"Минск"},{"type":"hashtag","offset":84,"length":5,"data":"офис"},{"type":"handle","offset":969,"length":9,"data":"Ww_Darya"}],"date":"2020-01-29T15:40:11+00:00","link":"tg://resolve?domain=DotNetRuJobsFeed&post=78","tags":[{"name":"dotnet"},{"name":"csharp"},{"name":"web"},{"name":"sql-server"},{"name":"postgresql"},{"name":"mongodb"},{"name":"dynamodb"},{"name":"css"},{"name":"amazon-web-services"},{"name":"azure"},{"name":"asp-net"}],"cities":[{"code":"minsk"}],"allowsRemote":false}},{"node":{"__typename":"Job","id":"75497472-1001375797688","title":".net developer","text":"#вакансия #dotnet #aspnet #entityframework #remote\n\nFull-stack Developer\nFull-time, $60k-$80k annually, Remote\n\nAbout us\n* Our main product is practice management software system “Stage 4 MD”. It is designed specifically for and used by plastic surgeons\n* It is single-page multi-tenant application hosted in Azure cloud\n\nMain technologies we use:\n* ASP.Net MVC with DevExpress controls\n* Entity Framework 6 with SQL Server Azure in Azure cloud\n* DBUp is used for automatic database schema and data updates\n* A part of the system system uses ASP.Net Web API for back-end with Vue.js front-end\n* We boldly mix Vue.js with ASP.Net MVC by rendering MVC controls inside Vue.js components and visa versa\n* Vue Router is used for single-page application navigation\n* We recently moved code repository from Bitbucket to Github\n* Tasks are still in Jira\n* Teamcity builds generate binaries for development, and release branches. Binaries are deployed with one-click process\n* We use Trunk Based Development for releases. Release deployment to production is done once every three weeks. QA deployment happens several times a week\n* QA team runs automated browser tests as well as does some manual testing\n* Every developer works with their local development environment\n* Slack is used for communication\n\nYour personal skills\n* You have to be proficient with reading, writing and speaking English (expert level not required)\n* From picking the next task to writing a specific line of code you are expected to be keeping in mind the customer’s needs and the value that your contribution creates for them\n* You should be able to develop code that does its job, performs well, easy to read and maintain and doesn’t require additional explanations\n* You need to self-manage next tasks from backlog, consistently report your progress and escalate roadblocks timely\n* You are expected to be comfortable with asking questions, proposing better solutions and accepting suggestions from teammates, giving and taking feedback\n\nYour technical skills\nThings you’re expected to be well experienced with:\n* C# and .Net Framework\n* ASP.Net MVC and ASP.Net Web API\n* JavaScript, HTML, CSS\n* Entity Framework and SQL Server\n* Git\n\nOther things that are nice to know, but not required:\n* ASP.Net Core\n* Entity Framework Core\n* DevExpress Controls\n* Vue.js and Vuetify\n\nYour compensation package\n* You will operate as independent contractor (прим: ИП по официальному договору с американской компанией)\n* You will receive $60k-$80k annually in bi-weekly payments (до налогов, их вы платите сами как ИП)\n* You will have unlimited time off in accordance with our time-off policy\n* You can work from anywhere in the world, at hours of your convenience\n\nOur recruitment process\n* Skills test. Short online quiz to get a quick evaluation of your technical skills\n* Interview. Brief conversation for you to tell about your interests, learn about our company and the product\n* Test project. Review existing codebase, report fixes and improvements, and implement one or few of them\n* Test week. Five days of paid work with us on our real project\n\nReady to start?\nTake the test: https://apply.hire.toggl.com/966DPZE7RPE5Y9P8H27P?utm_source=dotnetrujobs","markup":[{"type":"hashtag","offset":0,"length":9,"data":"вакансия"},{"type":"hashtag","offset":10,"length":7,"data":"dotnet"},{"type":"hashtag","offset":18,"length":7,"data":"aspnet"},{"type":"hashtag","offset":26,"length":16,"data":"entityframework"},{"type":"hashtag","offset":43,"length":7,"data":"remote"},{"type":"bold","offset":52,"length":20,"data":""},{"type":"bold","offset":112,"length":8,"data":""},{"type":"bold","offset":1296,"length":20,"data":""},{"type":"bold","offset":2008,"length":21,"data":""},{"type":"italic","offset":2059,"length":16,"data":""},{"type":"italic","offset":2227,"length":12,"data":""},{"type":"bold","offset":2342,"length":25,"data":""},{"type":"bold","offset":2721,"length":23,"data":""},{"type":"bold","offset":3110,"length":15,"data":""},{"type":"link","offset":3141,"length":73,"data":"https://apply.hire.toggl.com/966DPZE7RPE5Y9P8H27P?utm_source=dotnetrujobs"}],"date":"2020-01-10T06:42:51+00:00","link":"tg://resolve?domain=DotNetRuJobsFeed&post=72","tags":[{"name":"dotnet"},{"name":"csharp"},{"name":"azure"},{"name":"cloud"},{"name":"sql"},{"name":"web"},{"name":"vuejs"},{"name":"github"},{"name":"deployment"},{"name":"javascript"},{"name":"html"},{"name":"css"},{"name":"git"},{"name":"asp-net"},{"name":"entity-framework"},{"name":"sql-server"},{"name":"net-core"},{"name":"asp-net-mvc"},{"name":"asp-net-core"},{"name":"entity-framework-core"}],"cities":[{"code":"nice"}],"allowsRemote":true}},{"node":{"__typename":"Job","id":"74448896-1001375797688","title":".net разработчик","text":"#вакансия #dotnet #csharp #remote #удаленка\n\nФормат: #удаленка\nЗанятость: полная\nЗарплата: от 2 000$ до 3 500$ (зп обсуждается с каждым лично и зависит от вашего уровня...)\nКомпания: IDG\n\n💡Задачи:\n- Разработка высоконагруженных систем на стороне заказчика;\n- Поддержка и сопровождения проектов;\n\n📍Требования:\n- опыт разработки коммерческих приложений на платформе .NET от 2 лет;\n- опыт и понимание ASP.Net MVC, Web API, опыт работы с клиентскими JS фреймворками;\n- опыт и понимание протокола передачи данных REST;\n- знание и опыт работы с MongoDB или другой NoSQL базой данных;\n- технический английский;\n\n🔗Будет плюсом:\n- опыт работы в финансовой индустрии, либо другой корпоративной среде, где важна защита данных и правильная организация контроля доступа к исполнению кода\n- опыт работы с зарубежными заказчиками\n- использование TDD в разработке\n- наличие сертификатов Microsoft\n- опыт работы с Datawarehouse/Big Data системами\n- Опыт работы с VSTS\n- Опыт работы с Kubernetes/Docker\n- Опыт работы с React\n\n📝Условия:\n- Интересные задачи и возможность реализовать свой потенциал в международных проектах компании и внутренних стартапах;\n- Гибкий график (начало и конец рабочего дня согласовываются с менеджером и командой проекта)\n- Полностью удаленная работа\n\nРезюме можно в личку или на почту.\n\nКонтакты:\n📧 seleznevaem@gmail.com\n🖌@EkaterinaSel\n\nТакже буду благодарна за рекомендации.","markup":[{"type":"hashtag","offset":0,"length":9,"data":"вакансия"},{"type":"hashtag","offset":10,"length":7,"data":"dotnet"},{"type":"hashtag","offset":18,"length":7,"data":"csharp"},{"type":"hashtag","offset":26,"length":7,"data":"remote"},{"type":"hashtag","offset":34,"length":9,"data":"удаленка"},{"type":"bold","offset":45,"length":8,"data":""},{"type":"hashtag","offset":53,"length":9,"data":"удаленка"},{"type":"bold","offset":63,"length":11,"data":""},{"type":"bold","offset":81,"length":10,"data":""},{"type":"bold","offset":173,"length":9,"data":""},{"type":"link","offset":1314,"length":21,"data":"mailto:seleznevaem@gmail.com"},{"type":"handle","offset":1338,"length":13,"data":"EkaterinaSel"}],"date":"2020-01-08T12:47:08+00:00","link":"tg://resolve?domain=DotNetRuJobsFeed&post=71","tags":[{"name":"dotnet"},{"name":"csharp"},{"name":"web"},{"name":"rest"},{"name":"mongodb"},{"name":"nosql"},{"name":"kubernetes"},{"name":"docker"},{"name":"reactjs"},{"name":"asp-net"},{"name":"asp-net-mvc"}],"cities":[],"allowsRemote":true}},{"node":{"__typename":"Job","id":"72351744-1001375797688","title":".net developer","text":"#вакансия # C# #Москва #fulltime#офис \nSoftware Engineer/Developer (C#)\nМеждународная ИТ компания приглашает к себе в команду С# Developer с опытом от года.\nResponsibilities:\nAbility to reproduce and analyze issue according requirements and design. Review similar behavioral and relation with other components in system.\nClarify scope of changes and review with Technical expert, Product Owner if needed.\nDevelop business software in according standard and work procedures.\nParticipate in review code process.\nSupport and create and review Unit Tests, Automated tests\nWork closely with Team, attend all Agile activities\n\nSkills:\nUnderstanding of object oriented development principles required, client-server architecture.\nGood knowledge of C#, .Net, WCF, XML, JSON, REST (required)\nKnowledge of SQL Server\nAngular or ASP (desired)\nJira, TFS, Git (desired)\nReading/writing English – intermediate\nУсловия: 130 000 RUR фикс до вычета налогов + ДМС (со стоматологией) + страхование жизни + изучение англ в офисе + бонус.\nКОНТАКТЫ:\nЮлия Вербицкая: @julia_bright или  julia@brightis.ru\n+7(926) 478-30-02","markup":[{"type":"hashtag","offset":0,"length":9,"data":"вакансия"},{"type":"hashtag","offset":15,"length":7,"data":"Москва"},{"type":"handle","offset":1044,"length":13,"data":"julia_bright"},{"type":"link","offset":1063,"length":17,"data":"mailto:julia@brightis.ru"},{"type":"link","offset":1081,"length":17,"data":"tel:+7(926) 478-30-02"}],"date":"2019-12-24T10:45:32+00:00","link":"tg://resolve?domain=DotNetRuJobsFeed&post=69","tags":[{"name":"dotnet"},{"name":"csharp"},{"name":"wcf"},{"name":"xml"},{"name":"json"},{"name":"rest"},{"name":"sql"},{"name":"angularjs"},{"name":"tfs"},{"name":"git"},{"name":"sql-server"}],"cities":[{"code":"moscow"}],"allowsRemote":false}},{"node":{"__typename":"Job","id":"71303168-1001375797688","title":".net developer","text":"#вакансия #удаленка #remote #fulltime\n\nBokaMera is an online booking tool used by about 4000 companies. We are looking for a strong middle / senior .NET developer to work on our backend written in ServiceStack.\n\nSalary: $2000 - $3000 gross.\n\nResponsibilities:\n\n- Write structured code and follow best practices\n- Write unit tests and maintain existing ones (about 700 tests)\n- Cooperate closely with frontend team\n- Localize the project to distribute it between several countries and timezones\n- Add support for Stripe payments\n- Rewrite to .NET core\n\nTechnologies used:\n\n- ServiceStack\n- FluentValidator\n- ORMLite\n- MSSQL\n- Swagger\n- .NET 4.7.1\n\nSend your CV to: kristian@bokamera.se","markup":[{"type":"hashtag","offset":0,"length":9,"data":"вакансия"},{"type":"hashtag","offset":10,"length":9,"data":"удаленка"},{"type":"hashtag","offset":20,"length":7,"data":"remote"},{"type":"hashtag","offset":28,"length":9,"data":"fulltime"},{"type":"link","offset":664,"length":20,"data":"mailto:kristian@bokamera.se"}],"date":"2019-12-19T10:51:03+00:00","link":"tg://resolve?domain=DotNetRuJobsFeed&post=68","tags":[{"name":"dotnet"},{"name":"csharp"},{"name":"sql-server"},{"name":"swagger"},{"name":"net-core"}],"cities":[],"allowsRemote":true}},{"node":{"__typename":"Job","id":"70254592-1001375797688","title":".net разработчик","text":"#вакансия\nНа данный момент занимаюсь поиском С# разработчика в один крупный торгово-производственный холдинг, который занимается производством климатической техники и оборудования. \n\nОбязанности:\n•Разработка online среды для подбора вентиляционного оборудования (внутренний проект компании);\n•Разработка систем взаимодействия с внешними сервисами, API;\n•Реализация и доработка собственных веб-сервисов;\n•Оптимизация скорости работы компонентов;\n•Участие в проработке архитектуры систем.\n\nТребования:\n•Опыт работы от 3-х лет.\n•Уверенное знание C#, TSQL, .NET Core, C#, MSSQL, MySQL.\n•Желателен опыт работы с Angular и/или AngularJS, GIT.\n•Умение и опыт работы с чужим кодом.\n•Проактивность в работе, нацеленность на результат, коммуникабельность, аналитическое мышление, математический склад ума, ответственность, стрессоустойчивость, умение работать в команде.\n\nГЕО - МОСКВА \n#москва\n\nУсловия: \n•Заработная плата (обсуждается индивидуально с каждым кандидатом); от 180 000 руб до 220 000 руб net\n•Бонусная система;\n•Соц.пакет: ДМС, скидки на фитнес и продукцию компании.\nДля резюме: zharov@4ssistance.com","markup":[{"type":"hashtag","offset":0,"length":9,"data":"вакансия"},{"type":"hashtag","offset":876,"length":7,"data":"москва"},{"type":"link","offset":1083,"length":21,"data":"mailto:zharov@4ssistance.com"}],"date":"2019-12-18T07:32:00+00:00","link":"tg://resolve?domain=DotNetRuJobsFeed&post=67","tags":[{"name":"dotnet"},{"name":"csharp"},{"name":"tsql"},{"name":"sql-server"},{"name":"mysql"},{"name":"angularjs"},{"name":"git"},{"name":"net-core"}],"cities":[{"code":"moscow"}],"allowsRemote":false}},{"node":{"__typename":"Job","id":"69206016-1001375797688","title":".net разработчик","text":"#вакансия #Москва #офис\nРазработчик С#\nЗ.п.: 80-140к\n\nОбязанности:\n\n1. Разработка прикладного ПО для внутренних нужд клиентских сервисов, в том числе:\n\n- реализация высоконагруженных серверных приложений\n- разработка архитектуры реализуемой программной системы\n- решение возникающих при реализации технических проблем\n\n2. Оптимизация текущего ПО (ускорение, снижение потребления ресурсов и т.п.)\n\nТребования:\n\n- высшее образование\n- опыт разработки на C# не менее 3-х лет\n- опыт разработки сложных корпоративных систем автоматизации\n\nБудет плюсом:\n- знание Python, JavaScript\n- знание языков разметки: CSS, HTML\n- опыт работы с ASP.NET Core, Keras, MongoDB\n- опыт написания модульных тестов\n- опыт работы с SVN, Git или Hg\n\nПисать в ЛС","markup":[{"type":"hashtag","offset":0,"length":9,"data":"вакансия"},{"type":"hashtag","offset":10,"length":7,"data":"Москва"},{"type":"hashtag","offset":18,"length":5,"data":"офис"},{"type":"link","offset":628,"length":7,"data":"http://ASP.NET"}],"date":"2019-12-17T16:05:01+00:00","link":"tg://resolve?domain=DotNetRuJobsFeed&post=66","tags":[{"name":"dotnet"},{"name":"csharp"},{"name":"python"},{"name":"javascript"},{"name":"css"},{"name":"html"},{"name":"mongodb"},{"name":"svn"},{"name":"git"},{"name":"asp-net"},{"name":"net-core"},{"name":"asp-net-core"}],"cities":[{"code":"moscow"}],"allowsRemote":false}},{"node":{"__typename":"Job","id":"68157440-1001375797688","title":".net разработчик","text":"Всем доброго дня!\n#вакансия #москва #remote#\nИщу .NET разработчика.\nПолная занятость#удаленка\nЗП 160-180 net оформление в штат по ТК РФ\nЧто ждем от опыта будущего сотрудника :\n∙ Уверенно знает основной стек технологий (Framework, ORM, СУБД)\n∙ Знает паттерны проектирования и умеет применять их на практике при решении задач\n∙ Знает, как устроена инфраструктура и архитектура проекта\n∙ В состоянии развернуть проект локально, настроить его и подготовить к работе.\n∙ Пишет unit тесты \n\n\nHard Skills\n∙ .Net framework\n∙ Git\n∙ СУБД, ORM, SQL\n∙ .Net Core\n∙ Контейниризация (docker)\n∙ Паттерны проектирования\n∙ SOLID\n∙ Unit тесты\n∙ Протоколы и форматы данных\n∙ Алгоритмы и их сложность\n∙ Работа с кешами\n\n\nРезюме и все вопросы по вакансии пожалуйста 👉🏼@VvElena или на e.vvedenskaya@h-h-i.ru .","markup":[{"type":"hashtag","offset":18,"length":9,"data":"вакансия"},{"type":"hashtag","offset":28,"length":7,"data":"москва"},{"type":"handle","offset":747,"length":8,"data":"VvElena"},{"type":"link","offset":763,"length":22,"data":"mailto:e.vvedenskaya@h-h-i.ru"}],"date":"2019-12-17T16:04:53+00:00","link":"tg://resolve?domain=DotNetRuJobsFeed&post=65","tags":[{"name":"dotnet"},{"name":"csharp"},{"name":"orm"},{"name":"git"},{"name":"sql"},{"name":"docker"},{"name":"net-core"}],"cities":[{"code":"moscow"}],"allowsRemote":true}},{"node":{"__typename":"Job","id":"66060288-1001375797688","title":"Dotnet разработчик","text":"Эксперт по направлению Terrasoft (Москва) ЗП от 100 000 до 150 000 тыс. рублей на руки.\nРоссийский разработчик ПО и системный интегратор в одном лице. Основные направления деятельности: порталы и системы совместной работы, CRM системы, автоматизация бизнес-процессов и интеграционные решения.\n\nВАМ ПРЕДСТОИТ:\n• Анализ требований и существующих процессов заказчика;\n• Описание контура автоматизации, целей и задач проекта внедрения, ожидаемого эффекта от автоматизации;\n• Постановка задач разработчикам;\n• Участие в разработке технической части проектной, эксплуатационной документации. \n\nОТ ВАС:\n• Опыт работы: 1–3 года;\n• Опыт внедрения одной из систем Terrasoft bpm’online;\n• Знание принципов работы web-приложений (взаимодействие клиент-сервер, DOM, Events);\n• Понимание основ ООП, принципов и технологий системной интеграции;\nМЫ ПРЕДЛАГАЕМ:\n• Оформление по ТК, гибкое начало рабочего дня, м. Автозаводская;\n• Интересные задачи, команда профессионалов.\n#вакансия #москва #terrasoft #офис","markup":[{"type":"hashtag","offset":956,"length":9,"data":"вакансия"},{"type":"hashtag","offset":966,"length":7,"data":"москва"},{"type":"hashtag","offset":974,"length":10,"data":"terrasoft"},{"type":"hashtag","offset":985,"length":5,"data":"офис"}],"date":"2019-12-16T13:57:56+00:00","link":"tg://resolve?domain=DotNetRuJobsFeed&post=63","tags":[{"name":"dotnet"},{"name":"csharp"},{"name":"web"}],"cities":[{"code":"moscow"}],"allowsRemote":false}},{"node":{"__typename":"Job","id":"65011712-1001375797688","title":".net разработчик","text":"#вакансия #vbnet #net #backend\n#Москва, м. Белорусская, #fulltime, #офис\n#Вознаграждение: 150-200 тыс. руб net + премии (+20% к окладу), соц. пакет.\n\n🎯Back-end разработчик / Back-end Developer (VB.NET, .NET)\n\nКоллеги, добрый день! \n\nНаходимся в поисках разработчика/архитектора для поддержки и развития функциональности финансово-биллинговой системы Elite 3E, путем доработок программного продукта (на базе VB.NET, .NET), и участия в проектах по внедрению новых модулей, интеграции с прочими системами компании (DMS, CRM).\n\nТекущий язык программирования нашей системы на 90% похож на VB.NET (но работает вне рамок .NET среды разработки т.к. среда разработки от вендора системы).\nВ среднесрочной перспективе систему полностью переведут на .NET и в обязанности будет входить работа именно с .NET и его фрейморками, средой разработки и т.д.\n\n#Требования: \n🧩Отличные знания и практический опыт VB.NET, VBA, .NET, MS SQL, WEB API (REST, SOAP);\n🧩Хорошие знания и практический опыт XML и XSLT-преобразований;\n🧩Хороший практический опыт работы с Entity Framework (или иными современными ORM);\n🧩Умение продумывать и проектировать архитектуру программных приложений, знание принципов ООП, популярных паттернов проектирования, принципов SOLID\n\nБуду рад ответить на вопросы и пояснить детали вакансии. Хорошего дня!\n\nПолное описание по ссылкам:\nhttps://lnkd.in/dPE_Trc\nhttps://lnkd.in/dxfVQRz\n\nКонтакты для связи:\nabelov@alrud.com\n+7 (926) 470-97-21 (telegram, whatsapp)","markup":[{"type":"bold","offset":0,"length":16,"data":""},{"type":"hashtag","offset":0,"length":9,"data":"вакансия"},{"type":"hashtag","offset":10,"length":6,"data":"vbnet"},{"type":"hashtag","offset":17,"length":4,"data":"net"},{"type":"bold","offset":17,"length":4,"data":""},{"type":"bold","offset":22,"length":16,"data":""},{"type":"hashtag","offset":22,"length":8,"data":"backend"},{"type":"hashtag","offset":31,"length":7,"data":"Москва"},{"type":"hashtag","offset":56,"length":9,"data":"fulltime"},{"type":"bold","offset":56,"length":9,"data":""},{"type":"bold","offset":67,"length":21,"data":""},{"type":"hashtag","offset":67,"length":5,"data":"офис"},{"type":"hashtag","offset":73,"length":15,"data":"Вознаграждение"},{"type":"bold","offset":152,"length":58,"data":""},{"type":"link","offset":195,"length":6,"data":"http://VB.NET"},{"type":"link","offset":408,"length":6,"data":"http://VB.NET"},{"type":"link","offset":585,"length":6,"data":"http://VB.NET"},{"type":"hashtag","offset":840,"length":11,"data":"Требования"},{"type":"link","offset":892,"length":6,"data":"http://VB.NET"},{"type":"link","offset":1338,"length":23,"data":"https://lnkd.in/dPE_Trc"},{"type":"link","offset":1362,"length":23,"data":"https://lnkd.in/dxfVQRz"},{"type":"link","offset":1407,"length":16,"data":"mailto:abelov@alrud.com"},{"type":"link","offset":1424,"length":18,"data":"tel:+7 (926) 470-97-21"}],"date":"2019-12-14T19:59:03+00:00","link":"tg://resolve?domain=DotNetRuJobsFeed&post=62","tags":[{"name":"dotnet"},{"name":"csharp"},{"name":"vba"},{"name":"sql"},{"name":"web"},{"name":"rest"},{"name":"soap"},{"name":"xml"},{"name":"xslt"},{"name":"orm"},{"name":"entity-framework"}],"cities":[{"code":"moscow"}],"allowsRemote":false}}]}}},"context":{}}