{"hash":"f5f6bf98bd95e769321482904cbbd488f77922fd","data":{"records":{"id":"javascript","name":"javascript","belongsTo":{"totalCount":272,"pageInfo":{"totalPages":28,"currentPage":26},"edges":[{"node":{"__typename":"Job","id":"16890462208-1001110946746","title":"Js разработчик","text":"#remote #вакансия #typescript #node #nodejs #express #expressjs #fulltime #fullstack #москва #санктпетербург #новосибирск #екатеринбург #нижний #новгород #нижнийновгород #пермь #уфа #ульяновск\nНазвание компании: 4spaces\nПозиция: Full Stack JavaScript/TypeScript/Node.js Разработчик\nФормат работы: #удаленка\nЗанятость: полная\nЗарплатная вилка: от 80 000 руб. до 200 000 руб.\n\nОписание вакансии:\nМы ищем талантливого fullstack разработчика с коммерческим опытом создания сложных/высоконагруженных сервисов. Львиная доля разработки приходится на бэкэнд, поэтому значние frontend технологий опционально при условии высокого уровня разработки на стороне backend.\n\nДанная позиция предполагает полную занятость (минимум 40 часовая рабочая неделя).\n\nРассматриваем Senior и Middle кандидатов.\n\nТребования:\n* опыт работы с NodeJS\n* опыт работы с Typescript или JavaScript\n* опыт автоматизации процессов разработки: CI/CD, PR Checks, и т.д.\n* знанение git, gitflow, github flow, и т.д.\n* знание стандартных фреймворков и SDK\n* самое важное – умение и желание получать новые знания необходимые для работы\n\nБудет плюсом:\n* опыт разработки RESTful API\n* опыт работы c ExpressJS\n* опыт работы с ReactJS, webpack, rollup, parcel, jest\n* опыт работы или хотя бы понимание архитектуры Serverless\n* опыт работы в создании/поддержки инфраструктуры на AWS\n* опыт работы с алгоритмами Machine Learning, в частности, для рекомендательных систем.\n* опыт работы c Typescript\n* опыт работы c frontend frameworks, например React, Angular, JQuery\n* опыт работы с SQL и NoSQL базами данных, например MySQL, Postgres, Elasticsearch, Cassandra, AWS DynamoDB, Mongo, Redis etc.\n* опыт работы с масштабируемыми технологиями кэширования, например memchached, Coherence, Infinispan etc.\n* опыт работы с Linux\n* понимание современных процессов и лучших практик разработки: TDD, DDD, CQRS, Eventsourcing, и так далее\n* опыт контрибуции в Open Source (приложите ссылку на github, если есть на что посмотреть)\n\nКонтакты:\nВакансия – https://hh.ru/vacancy/37464232\nEmail – abalchunas@4spaces.company\nSkype – alexey.balchunas\nTelegram – https://t.me/AlexeyBalchunas","markup":[{"type":"hashtag","offset":0,"length":7,"data":"remote"},{"type":"hashtag","offset":8,"length":9,"data":"вакансия"},{"type":"hashtag","offset":18,"length":11,"data":"typescript"},{"type":"hashtag","offset":30,"length":5,"data":"node"},{"type":"hashtag","offset":36,"length":7,"data":"nodejs"},{"type":"hashtag","offset":44,"length":8,"data":"express"},{"type":"hashtag","offset":53,"length":10,"data":"expressjs"},{"type":"hashtag","offset":64,"length":9,"data":"fulltime"},{"type":"hashtag","offset":74,"length":10,"data":"fullstack"},{"type":"hashtag","offset":85,"length":7,"data":"москва"},{"type":"hashtag","offset":93,"length":15,"data":"санктпетербург"},{"type":"hashtag","offset":109,"length":12,"data":"новосибирск"},{"type":"hashtag","offset":122,"length":13,"data":"екатеринбург"},{"type":"hashtag","offset":136,"length":7,"data":"нижний"},{"type":"hashtag","offset":144,"length":9,"data":"новгород"},{"type":"hashtag","offset":154,"length":15,"data":"нижнийновгород"},{"type":"hashtag","offset":170,"length":6,"data":"пермь"},{"type":"hashtag","offset":177,"length":4,"data":"уфа"},{"type":"hashtag","offset":182,"length":10,"data":"ульяновск"},{"type":"hashtag","offset":297,"length":9,"data":"удаленка"},{"type":"link","offset":1993,"length":30,"data":"https://hh.ru/vacancy/37464232"},{"type":"link","offset":2032,"length":26,"data":"http://abalchunas@4spaces.company"},{"type":"link","offset":2095,"length":28,"data":"https://t.me/AlexeyBalchunas"}],"date":"2020-06-13T15:02:56+00:00","link":"tg://resolve?domain=javascript_jobs_feed&post=16108","tags":[{"name":"javascript"},{"name":"typescript"},{"name":"nodejs"},{"name":"express"},{"name":"git"},{"name":"github"},{"name":"reactjs"},{"name":"webpack"},{"name":"amazon-web-services"},{"name":"angularjs"},{"name":"jquery"},{"name":"sql"},{"name":"nosql"},{"name":"mysql"},{"name":"postgresql"},{"name":"elasticsearch"},{"name":"cassandra"},{"name":"dynamodb"},{"name":"redis"},{"name":"linux"},{"name":"machine-learning"}],"cities":[{"code":"moscow"},{"code":"novosibirsk"},{"code":"perm"},{"code":"ufa"},{"code":"ulyanovsk"},{"code":"nizhny-novgorod"}],"allowsRemote":true}},{"node":{"__typename":"Job","id":"16886267904-1001110946746","title":"Js разработчик","text":"#remote #вакансия #typescript #node #nodejs #express #expressjs #fulltime #fullstack #москва #санктпетербург #новосибирск #екатеринбург #нижний #новгород #нижнийновгород #пермь #уфа #ульяновск\nНазвание компании: 4spaces\nПозиция: Full Stack JavaScript/TypeScript/Node.js Разработчик\nФормат работы: #удаленка\nЗанятость: полная\nЗарплатная вилка: от 80 000 руб. до 200 000 руб.\n\nОписание вакансии:\nМы ищем талантливого fullstack разработчика с коммерческим опытом создания сложных/высоконагруженных сервисов. Львиная доля разработки приходится на бэкэнд, поэтому значние frontend технологий опционально при условии высокого уровня разработки на стороне backend.\n\nДанная позиция предполагает полную занятость (минимум 40 часовая рабочая неделя).\n\nРассматриваем Senior и Middle кандидатов.\n\nТребования:\n* опыт работы с NodeJS\n* опыт работы с Typescript или JavaScript\n* опыт автоматизации процессов разработки: CI/CD, PR Checks, и т.д.\n* знанение git, gitflow, github flow, и т.д.\n* знание стандартных фреймворков и SDK\n* самое важное – умение и желание получать новые знания необходимые для работы\n\nБудет плюсом:\n* опыт разработки RESTful API\n* опыт работы c ExpressJS\n* опыт работы с ReactJS, webpack, rollup, parcel, jest\n* опыт работы или хотя бы понимание архитектуры Serverless\n* опыт работы в создании/поддержки инфраструктуры на AWS\n* опыт работы с алгоритмами Machine Learning, в частности, для рекомендательных систем.\n* опыт работы c Typescript\n* опыт работы c frontend frameworks, например React, Angular, JQuery\n* опыт работы с SQL и NoSQL базами данных, например MySQL, Postgres, Elasticsearch, Cassandra, AWS DynamoDB, Mongo, Redis etc.\n* опыт работы с масштабируемыми технологиями кэширования, например memchached, Coherence, Infinispan etc.\n* опыт работы с Linux\n* понимание современных процессов и лучших практик разработки: TDD, DDD, CQRS, Eventsourcing, и так далее\n* опыт контрибуции в Open Source (приложите ссылку на github, если есть на что посмотреть)\n\nКонтакты:\nВакансия – https://hh.ru/vacancy/37464232\nEmail – abalchunas@4spaces.company\nSkype – alexey.balchunas\nTelegram – https://t.me/AlexeyBalchunas\n\n—\n\n👉 Обсуждение вакансии в чате @javascript_jobs","markup":[{"type":"hashtag","offset":0,"length":7,"data":"remote"},{"type":"hashtag","offset":8,"length":9,"data":"вакансия"},{"type":"hashtag","offset":18,"length":11,"data":"typescript"},{"type":"hashtag","offset":30,"length":5,"data":"node"},{"type":"hashtag","offset":36,"length":7,"data":"nodejs"},{"type":"hashtag","offset":44,"length":8,"data":"express"},{"type":"hashtag","offset":53,"length":10,"data":"expressjs"},{"type":"hashtag","offset":64,"length":9,"data":"fulltime"},{"type":"hashtag","offset":74,"length":10,"data":"fullstack"},{"type":"hashtag","offset":85,"length":7,"data":"москва"},{"type":"hashtag","offset":93,"length":15,"data":"санктпетербург"},{"type":"hashtag","offset":109,"length":12,"data":"новосибирск"},{"type":"hashtag","offset":122,"length":13,"data":"екатеринбург"},{"type":"hashtag","offset":136,"length":7,"data":"нижний"},{"type":"hashtag","offset":144,"length":9,"data":"новгород"},{"type":"hashtag","offset":154,"length":15,"data":"нижнийновгород"},{"type":"hashtag","offset":170,"length":6,"data":"пермь"},{"type":"hashtag","offset":177,"length":4,"data":"уфа"},{"type":"hashtag","offset":182,"length":10,"data":"ульяновск"},{"type":"hashtag","offset":297,"length":9,"data":"удаленка"},{"type":"link","offset":1993,"length":30,"data":"https://hh.ru/vacancy/37464232"},{"type":"link","offset":2032,"length":26,"data":"http://abalchunas@4spaces.company"},{"type":"link","offset":2095,"length":28,"data":"https://t.me/AlexeyBalchunas"},{"type":"handle","offset":2158,"length":16,"data":"javascript_jobs"}],"date":"2020-06-13T13:50:55+00:00","link":"tg://resolve?domain=javascript_jobs_feed&post=16104","tags":[{"name":"javascript"},{"name":"typescript"},{"name":"nodejs"},{"name":"express"},{"name":"git"},{"name":"github"},{"name":"reactjs"},{"name":"webpack"},{"name":"amazon-web-services"},{"name":"angularjs"},{"name":"jquery"},{"name":"sql"},{"name":"nosql"},{"name":"mysql"},{"name":"postgresql"},{"name":"elasticsearch"},{"name":"cassandra"},{"name":"dynamodb"},{"name":"redis"},{"name":"linux"},{"name":"machine-learning"}],"cities":[{"code":"moscow"},{"code":"novosibirsk"},{"code":"perm"},{"code":"ufa"},{"code":"ulyanovsk"},{"code":"nizhny-novgorod"}],"allowsRemote":true}},{"node":{"__typename":"Job","id":"26285703168-1001075660570","title":"Php разработчик","text":"#вакансия #vacancy #fulltime #remote #fullstack #senior #middle\n\nПозиция: PHP Developer (Full-Stack)\nКомпания: SO Services Ltd\nФормат работы: удаленная работа\nЗанятость: полная\nОплата: от 2500 до 4000 USD в месяц\nКонтакт: Марк, @mark_soservices\n\nДобрый день! Мы ищем PHP разработчика для нашего клиента из США. Требуется разговорный английский. Оформление контракта через ИП - с этим проконсультируем.\n\nWhat will you do?\nWe are looking for a Software Engineer (Full Stack) who will have a voice in our product with the desire to mentor, motivate, and deliver exceptional code. \nYou will work on projects that will allow you to wear many hats and flex both technical development and collaborative, communication skills. Your main responsibility will be the development and implementation of web applications to create a process for innovation.\n\nResponsibilities\n- Collaborate with Product teams to implement robust, high performance, data-driven web applications\n- Architect web applications from the ground up, with a focus on extensibility and scalability\n- Provide insight into upgrading legacy platforms to the latest and relevant technologies\n- Solve complex problems with innovative and elegant design and delivery\n- Develop and maintain internal components and libraries\n- Integrate third party technologies\n- Enforce coding standards and set a high standard for code quality\n- Mentor and guide junior engineers\n- Participate in hiring process of new engineers\n\nRequirements\n- 6+ years professional experience building front and back-end web applications\n- Solid understanding of web standards, CSS-based design, cross-browser compatibility\n- Expert knowledge of PHP frameworks (Yii preferred)\n- Expert knowledge of SQL\n- Expert knowledge of modern Javascript frameworks (React preferred)\n- Experience with Git\n- Knowledgeable with software development lifecycles (Agile, Kanban, etc.)\n- Familiar with test driven development processes\n- Strong technical programming skills utilizing a variety of different coding languages and tools\n- Comfortable with taking ownership of projects and showcasing key accomplishments\n- Striving for continued learning opportunities to build upon craft\n- Excellent organisational skills and attention to detail\n- Ability to work quickly and independently with minimal oversight\n- Ability to accept feedback and constructive criticism positively\n- Extremely strong and demonstrable work ethic\n\nTechnology Stack\n- PHP, Yii, Apache\n- MySQL, MS SQL, Solr, Elastic Search\n- CSS and Sass\n- React, Marionette.js, Backbone\n- Git","markup":[{"type":"hashtag","offset":0,"length":9,"data":"вакансия"},{"type":"hashtag","offset":10,"length":8,"data":"vacancy"},{"type":"hashtag","offset":19,"length":9,"data":"fulltime"},{"type":"hashtag","offset":29,"length":7,"data":"remote"},{"type":"hashtag","offset":37,"length":10,"data":"fullstack"},{"type":"hashtag","offset":48,"length":7,"data":"senior"},{"type":"hashtag","offset":56,"length":7,"data":"middle"},{"type":"handle","offset":228,"length":16,"data":"mark_soservices"},{"type":"bold","offset":403,"length":17,"data":""},{"type":"bold","offset":844,"length":16,"data":""},{"type":"bold","offset":1468,"length":12,"data":""},{"type":"bold","offset":2431,"length":16,"data":""}],"date":"2020-06-13T13:31:17+00:00","link":"tg://resolve?domain=php_jobs&post=0","tags":[{"name":"php"},{"name":"web"},{"name":"css"},{"name":"yii"},{"name":"sql"},{"name":"javascript"},{"name":"reactjs"},{"name":"git"},{"name":"apache"},{"name":"mysql"},{"name":"solr"},{"name":"elasticsearch"},{"name":"sass"},{"name":"backbonejs"},{"name":"cross-browser"}],"cities":[],"allowsRemote":true}},{"node":{"__typename":"Job","id":"16885219328-1001110946746","title":"Js разработчик","text":"#вакансия #удалённо #фронтенд #javascript #ExtJS\n\nНазвание компании: R-vision\nНазвание вакансии: Frontend developer Ext JS (Sencha)\nФормат работы: удаленка, можно офис (Москва, м. Римская).\nЗанятость: полная\nЗарплатная вилка: от 80 000 – 200 000 руб.\nОписание вакансии: \n«Ищем опытного фронтенд разработчика, который вместе с нами будет создавать инновационные решения, которые позволяют нашим клиентам автоматизировать мониторинг, регистрацию и реагирование на инциденты информационной безопасности и значительно повысить возможности по отражению кибер-атак.\nНаши ожидания от кандидата:\nзнание JavaScript (опыт работы от 2х лет)\nопыт работы с Ext JS (версия не ниже 4-ой, в идеале 6-я)\nопыт работы с PostgreSQL или MySQL\nопыт работы с системами контроля версий\nБудет плюсом:\nзнание D3, Node.js, Highcharts\nопыт работы с Linux\nОбязанности:\nработа над фронтэндом (Ext JS) системы R-Vision (централизованной системы мониторинга и управления информационной безопасностью)\nрешение нестандартных / сложных технических задач, используя весь свой творческий и девелоперский потенциал\nпри желании возможна работа fullstack в связке Node.js + Ext JS.»\nКонтакты: @katrinfek\n\n—\n\n👉 Обсуждение вакансии в чате @javascript_jobs","markup":[{"type":"hashtag","offset":0,"length":9,"data":"вакансия"},{"type":"hashtag","offset":10,"length":9,"data":"удалённо"},{"type":"hashtag","offset":20,"length":9,"data":"фронтенд"},{"type":"hashtag","offset":30,"length":11,"data":"javascript"},{"type":"hashtag","offset":42,"length":6,"data":"ExtJS"},{"type":"handle","offset":1153,"length":10,"data":"katrinfek"},{"type":"handle","offset":1198,"length":16,"data":"javascript_jobs"}],"date":"2020-06-13T12:21:08+00:00","link":"tg://resolve?domain=javascript_jobs_feed&post=16103","tags":[{"name":"javascript"},{"name":"extjs"},{"name":"postgresql"},{"name":"mysql"},{"name":"nodejs"},{"name":"highcharts"},{"name":"linux"}],"cities":[{"code":"moscow"}],"allowsRemote":true}},{"node":{"__typename":"Job","id":"16883122176-1001110946746","title":"Js разработчик","text":"#вакансия #Москва #nodejs #офис\n\nКомпания Proscom ищет Middle/Senior Backend (Node.js) разработчика\n\nФормат занятости: Офис около м. Серпуховская/Павелецкая.\nЗанятость: полная \nЗарплатная вилка: 130 000 - 240 000 рублей/месяц (по результатам собеседования)\n\nО компании: \n\nС 2013 года создаем интерфейсы, веб-сайты,\nмобильные приложения для крупных\nправительственных организаций и\nкоммерческих предприятий\n\nЗадачи:\n\nВести разработку как новых проектов, так и поддерживать уже существующий код. \n\nСтек:\n\nNode.js, GraphQL, REST, Nest.js, TypeScript, CRDT, MySQL, PostreSQL, Git, Docker\n\nТребования:\n\nОт 1 года опыта работы с Node.js, от 2х лет опыта программирования\n\nКонтакт: @mxm_at\n\n—\n\n👉 Обсуждение вакансии в чате @javascript_jobs","markup":[{"type":"hashtag","offset":0,"length":9,"data":"вакансия"},{"type":"hashtag","offset":10,"length":7,"data":"Москва"},{"type":"hashtag","offset":18,"length":7,"data":"nodejs"},{"type":"hashtag","offset":26,"length":5,"data":"офис"},{"type":"handle","offset":674,"length":7,"data":"mxm_at"},{"type":"handle","offset":716,"length":16,"data":"javascript_jobs"}],"date":"2020-06-13T12:09:35+00:00","link":"tg://resolve?domain=javascript_jobs_feed&post=16101","tags":[{"name":"javascript"},{"name":"nodejs"},{"name":"graphql"},{"name":"rest"},{"name":"typescript"},{"name":"mysql"},{"name":"git"},{"name":"docker"}],"cities":[{"code":"moscow"}],"allowsRemote":false}},{"node":{"__typename":"Job","id":"16878927872-1001110946746","title":"Js разработчик","text":"#вакансия #middle #спб #react #redux #emotion\n\nГород: Сантк-Петербург, ул. Рубинштейна (5 углов)\nФормат работы: офис\nЗанятость: полная\nЗарплатная вилка: от 80к до 130к рублей (на руки, больше по согласованию)\nИспользуемый стек: react 16 (hooks), redux, emotion\n\nОписание вакансии:\n\nПривет всем, мы разрабатываем крутые проекты, связанные прежде всего с физическим здоровьем людей, которые тратят его, зарабатывая себе на хлеб. Эти люди работают на складах, перенося коробки с места на место, в сортировочных центрах, доставляя вам посылки, на стройках, и в остальных местах, где требуется ручной труд.\nНаши решения помогают компаниям за границей измерять и управлять (с помощью носимых устройств) рисками возникновения травмы для своих сотрудников (подробнее можете ознакомиться по ссылке: https://soteranalytics.com/ ). Я сооснователь проекта и нам в сентябре исполнится 4 года. С помощью этого канала мы уже нашли двух сотрудников, которые успешно у нас работают, но сейчас такие времена, что чем быстрее мы сможем разработать новые фичи в наших продуктах, тем больше рынка сможем захватить.\n\nЧто нужно делать: нужно разрабатывать дэшборды и прочие веб интерфейсы для наших клиентов, так и для наших внутренних нужд.\n\nЧто требуется от вас: мы ценим самоорганизованность и очень не любим микроменеджмент. Также мы любим когда наши сотрудники развиваются у нас на глазах и всячески стараемся этому помочь. У нас также сформирована команда из опытных сотрудников, которые имеют экспертизы почти в каждой теме.\nТакже мы ценим, когда человек умеет решать проблемы, а не создавать их другим.\n\nКонтакты: писать мне в личку @pavko_a. В сообщении пишите что вы уже сделали на reactjs, чем вы гордитесь в своей работе, а также пару строк о себе и чем вы занимались на последнем проекте.\n\nЗабыл упомянуть: в команде очень много общения на английском, так как коммерческая команда находится в Лондоне и являются носителями языка. #doyourhomework\n\n—\n\n👉 Обсуждение вакансии в чате @javascript_jobs","markup":[{"type":"hashtag","offset":0,"length":9,"data":"вакансия"},{"type":"hashtag","offset":10,"length":7,"data":"middle"},{"type":"hashtag","offset":18,"length":4,"data":"спб"},{"type":"hashtag","offset":23,"length":6,"data":"react"},{"type":"hashtag","offset":30,"length":6,"data":"redux"},{"type":"hashtag","offset":37,"length":8,"data":"emotion"},{"type":"link","offset":790,"length":27,"data":"https://soteranalytics.com/"},{"type":"handle","offset":1618,"length":8,"data":"pavko_a"},{"type":"hashtag","offset":1920,"length":15,"data":"doyourhomework"},{"type":"handle","offset":1970,"length":16,"data":"javascript_jobs"}],"date":"2020-06-13T10:07:55+00:00","link":"tg://resolve?domain=javascript_jobs_feed&post=16097","tags":[{"name":"javascript"},{"name":"reactjs"},{"name":"redux"},{"name":"react-redux"}],"cities":[],"allowsRemote":false}},{"node":{"__typename":"Job","id":"16874733568-1001110946746","title":"Javascript developer","text":"#вакансия #angular #javascript #html #css #frontend #офис\n\n🍴Вакансия: Middle Frontend Developer в web-компанию под задачи разработки для социальных сетей, авиакомпаний, ERP-систем, а также ресторанной сети Нью-Йорка.\nГород: Ростов-на-Дону, Газетный переулок, 47Б\nФормат работы: Офис\nЗанятость: полная\nГражданство: Не имеет значение\nЗарплата: 60.000-100.000 рублей по результатам собеседования\n\n🏹Fronted Developer (Angular)\nТочное попадание, если:\n• Адаптивно верстаешь в angular (7 или 8 версия)\n• Имеешь в стеке ещё JavaScript, TypeScript, HTML, CSS\n• Полный фарш, если ты в курсе про автоматическую генерация клиентского кода по документации Swagger\n\nКомпания: GrowApp Solutions\n\n☎️Контакты:\ntelegram: @np_shirinkin\nEmail: npshirinkin@gmail.com\nБуду рад ответить на уточняющие вопросы.\n\n—\n\n👉 Обсуждение вакансии в чате @javascript_jobs","markup":[{"type":"hashtag","offset":0,"length":9,"data":"вакансия"},{"type":"hashtag","offset":10,"length":8,"data":"angular"},{"type":"hashtag","offset":19,"length":11,"data":"javascript"},{"type":"hashtag","offset":31,"length":5,"data":"html"},{"type":"hashtag","offset":37,"length":4,"data":"css"},{"type":"hashtag","offset":42,"length":9,"data":"frontend"},{"type":"hashtag","offset":52,"length":5,"data":"офис"},{"type":"handle","offset":706,"length":13,"data":"np_shirinkin"},{"type":"link","offset":727,"length":21,"data":"mailto:npshirinkin@gmail.com"},{"type":"handle","offset":824,"length":16,"data":"javascript_jobs"}],"date":"2020-06-13T08:42:17+00:00","link":"tg://resolve?domain=javascript_jobs_feed&post=16093","tags":[{"name":"javascript"},{"name":"angularjs"},{"name":"html"},{"name":"css"},{"name":"web"},{"name":"typescript"},{"name":"swagger"}],"cities":[{"code":"rostov"}],"allowsRemote":false}},{"node":{"__typename":"Job","id":"16871587840-1001110946746","title":"Javascript developer","text":"#вакансия #angular #javascript #html #css #frontend #офис\n\n🍴Вакансия: Middle Frontend Developer в web-компанию под задачи разработки для социальных сетей, авиакомпаний, ERP-систем, а также ресторанной сети Нью-Йорка.\nГород: Ростов-на-Дону, Газетный переулок, 47Б\nФормат работы: Офис\nЗанятость: полная\nГражданство: Не имеет значение\nЗарплата: 60.000-100.000 рублей по результатам собеседования\n\n🏹Fronted Developer (Angular)\nТочное попадание, если:\n• Адаптивно верстаешь в angular (7 или 8 версия)\n• Имеешь в стеке ещё JavaScript, TypeScript, HTML, CSS\n• Полный фарш, если ты в курсе про автоматическую генерация клиентского кода по документации Swagger\n\nКомпания: GrowApp Solutions\n\n☎️Контакты:\ntelegram: @np_shirinkin\nEmail: npshirinkin@gmail.com\nБуду рад ответить на уточняющие вопросы.\n\n—\n\n👉 Обсуждение вакансии в чате @javascript_jobs","markup":[{"type":"hashtag","offset":0,"length":9,"data":"вакансия"},{"type":"hashtag","offset":10,"length":8,"data":"angular"},{"type":"hashtag","offset":19,"length":11,"data":"javascript"},{"type":"hashtag","offset":31,"length":5,"data":"html"},{"type":"hashtag","offset":37,"length":4,"data":"css"},{"type":"hashtag","offset":42,"length":9,"data":"frontend"},{"type":"hashtag","offset":52,"length":5,"data":"офис"},{"type":"handle","offset":706,"length":13,"data":"np_shirinkin"},{"type":"link","offset":727,"length":21,"data":"mailto:npshirinkin@gmail.com"},{"type":"handle","offset":824,"length":16,"data":"javascript_jobs"}],"date":"2020-06-12T16:09:02+00:00","link":"tg://resolve?domain=javascript_jobs_feed&post=16090","tags":[{"name":"javascript"},{"name":"angularjs"},{"name":"html"},{"name":"css"},{"name":"web"},{"name":"typescript"},{"name":"swagger"}],"cities":[{"code":"rostov"}],"allowsRemote":false}},{"node":{"__typename":"Job","id":"16869490688-1001110946746","title":"Js developer","text":"#вакансия #удаленнаяработа #react #js\n\nГород и адрес офиса: Москва (удаленно!!)\nФормат работы: удаленная работа \nЗанятость: полная \nЗарплатная вилка: 160-180 тыс. руб. в мес. на руки. \nОписание вакансии: В компанию Айтиквик в банковский проект требуется Senior React developer\nПо стеку UI5/Reat/JS\nС опытом работы от 5 лет \nУдаленно, фулл тайм\nРабота в команде по Agile \nЖдем резюме с примером кода на реакте.\nВалентина.\nНазвание компании: Айтиквик \nКонтакты: chekalina@itquick.ru, @valentine2511\n\n—\n\n👉 Обсуждение вакансии в чате @javascript_jobs","markup":[{"type":"hashtag","offset":0,"length":9,"data":"вакансия"},{"type":"hashtag","offset":10,"length":16,"data":"удаленнаяработа"},{"type":"hashtag","offset":27,"length":6,"data":"react"},{"type":"hashtag","offset":34,"length":3,"data":"js"},{"type":"link","offset":460,"length":20,"data":"mailto:chekalina@itquick.ru"},{"type":"handle","offset":482,"length":14,"data":"valentine2511"},{"type":"handle","offset":531,"length":16,"data":"javascript_jobs"}],"date":"2020-06-12T15:02:41+00:00","link":"tg://resolve?domain=javascript_jobs_feed&post=16088","tags":[{"name":"javascript"},{"name":"reactjs"}],"cities":[{"code":"moscow"}],"allowsRemote":true}},{"node":{"__typename":"Job","id":"16867393536-1001110946746","title":"Js разработчик","text":"#reactjs\n#вакансия #remote #middle  #frontend \n\nREMOTE!\nВакансия: Middle ReactJS разработчик\nФормат работы: удаленная работа\nЗанятость: полная\nЗарплатная вилка: от 2000 до 3000 usd\n\n- Над нашим продуктом - соцсеть для стартапов - работает распределенная команда.\n- Стэк проекта: React.js - на фронте почти стандартный, кроме GraphQL (Apollo).\n- Мы пишем 2 версии продукта, сейчас есть 2 вакансии для ReactJS разработчиков на одну из версий. \n- Компания Заказчик - Американский стартап.\n- Все технические детали по вакансии я расскажу в переписке.\n-✌️🏠🏡 Работа удаленная.\n\nОбратите внимание:  у нас нет требования к уровню английского языка (над проектом работает распределенная команда разработчиков, все ребята общаются по-русски)\n\nРезюме, отправленное на почту, упросит и ускорит общение.\nКонтакты : \nSkype ID: anna.soutskover | Telegram: @soutskover | anna.soutskover@gmail.com\n\n—\n\n👉 Обсуждение вакансии в чате @javascript_jobs","markup":[{"type":"hashtag","offset":0,"length":8,"data":"reactjs"},{"type":"hashtag","offset":9,"length":9,"data":"вакансия"},{"type":"hashtag","offset":19,"length":7,"data":"remote"},{"type":"hashtag","offset":27,"length":7,"data":"middle"},{"type":"hashtag","offset":36,"length":9,"data":"frontend"},{"type":"handle","offset":843,"length":11,"data":"soutskover"},{"type":"link","offset":857,"length":25,"data":"mailto:anna.soutskover@gmail.com"},{"type":"handle","offset":917,"length":16,"data":"javascript_jobs"}],"date":"2020-06-12T10:39:08+00:00","link":"tg://resolve?domain=javascript_jobs_feed&post=16086","tags":[{"name":"javascript"},{"name":"reactjs"},{"name":"graphql"}],"cities":[],"allowsRemote":true}}]}}},"context":{}}