{"hash":"f5f6bf98bd95e769321482904cbbd488f77922fd","data":{"records":{"id":"javascript","name":"javascript","belongsTo":{"totalCount":272,"pageInfo":{"totalPages":28,"currentPage":22},"edges":[{"node":{"__typename":"Job","id":"16981688320-1001110946746","title":"Js разработчик","text":"#вакансия #frontend  #React #офис #remote #Спб #senior \n\nКомпания: DBeaver\nЗ/п: 180 000 - 300 000 рублей на руки \nГород и адрес офиса: г. Санкт-Петербург (м. Площадь Ленина/Новочеркасская)\nФормат работы: офис или удаленка (приоритет кандидатам из Санкт-Петербурга)\nЗанятость: полная, fulltime\n\n🌏DВeaver  - это международный open source проект, бесплатный многоплатформенный инструмент для работы с базами данных. Поддерживает все популярные базы данных: MySQL, PostgreSQL, MariaDB, SQLite, Oracle, DB2, SQL Server, Sybase, MS Access, Teradata, Firebird, Derby и т. д. Платформа интегрируется с Amazon сервисами и нацелена на облачные решения. \n\nCейчас ребята разрабатывают web решение DВeaver, первый релиз состоялся в начале года и компания активно продолжает развитие. \n\n💠Какой опыт и знания ожидают увидеть ребята:\n- опыт работы с TypeScript и React;\n- опыт участия в многокомпонентных проектах со сложной бизнес-логикой;\n- опыт проектирования и рефакторинга;\n- готовность возглавить разработку интерфейсной части продукта, принимать ключевые архитектурные решения;\n- английский язык от уровня intermediate (письменный и на уровне чтения).\n\nСтек технологий: TypeScript, React, GraphQL, MobX, RxJS, Docker. \n\n💎Что получите вы:\n- комфортный офис в БЦ Бенуа;\n- возможность частично или полностью удаленной работы; \n- официальное оформление;\n- возможность поработать над крутым международным продуктом в сплоченной команде энтузиастов;\n- профессиональные командировки и конференции в США и Европу.\n\nКонтакты:\ne-mail: valeriya@luckyhunter.io\ntelegram: @sobolevavalery\nКА: http://luckyhunter.io\nБуду рада ответить на все вопросы и рассказать подробнее о компании 😊\n\n—\n\n👉 Обсуждение вакансии в чате @javascript_jobs","markup":[{"type":"hashtag","offset":0,"length":9,"data":"вакансия"},{"type":"hashtag","offset":10,"length":9,"data":"frontend"},{"type":"hashtag","offset":21,"length":6,"data":"React"},{"type":"hashtag","offset":28,"length":5,"data":"офис"},{"type":"hashtag","offset":34,"length":7,"data":"remote"},{"type":"hashtag","offset":42,"length":4,"data":"Спб"},{"type":"hashtag","offset":47,"length":7,"data":"senior"},{"type":"link","offset":1519,"length":23,"data":"mailto:valeriya@luckyhunter.io"},{"type":"handle","offset":1553,"length":15,"data":"sobolevavalery"},{"type":"link","offset":1573,"length":21,"data":"http://luckyhunter.io"},{"type":"handle","offset":1700,"length":16,"data":"javascript_jobs"}],"date":"2020-06-16T12:56:30+00:00","link":"tg://resolve?domain=javascript_jobs_feed&post=0","tags":[{"name":"javascript"},{"name":"reactjs"},{"name":"mysql"},{"name":"postgresql"},{"name":"mariadb"},{"name":"sqlite"},{"name":"oracle"},{"name":"sql"},{"name":"ms-access"},{"name":"web"},{"name":"typescript"},{"name":"graphql"},{"name":"rxjs"},{"name":"docker"},{"name":"sql-server"}],"cities":[],"allowsRemote":true}},{"node":{"__typename":"Job","id":"16977494016-1001110946746","title":"Js разработчик","text":"Всем привет.\nИщу Тимлид/Техлид команды в компанию bianca.\nС опытом TypeScript от 2-х лет, NodeJS от 3-х лет и Angular или React от 2-х лет.\n\nСеть химчисток Bianca-city это крупная сеть.\nУ нас предстоит развитие нескольких продуктов:  - собственной логистической платформы на Yandex.Routing - производственного модуля - CRM - клиентского мобильного приложения.\n\nЧто предстоит делать\n1) Технический аудит текущих проектов (инхаус + аутсорс), выработка первичной стратегии разработки, с учетом пожеланий бизнеса\n2) Обсуждение с СЕО и декомпозиция задач для текущей команды\n3) Контроль качества аутсорс-проектов\n4) Расширение инхаус-команды и аккумуляция задач на внутренних ресурсах\n\nФункционал: \n-управление командой 3 чел\n-контроль разработки от 2 аутсорсеров (мобайл+розничный блок)\n-интерес к продуктовой аналитике и улучшениям продукта\n\nЧто нужно уметь\nЗнания Node.js на уровне Senior\nFrontend –React/TypeScript/Angular и др.\nопыт постановки задач, код-ревью\nПожелания: развитые софт-скиллы для общения с собственником\n\nУсловия и преимущества \nБесплатные (неограниченно) услуги химчистки \nГрафик 5/2 с 10 до 19, возможно подвигать, возможно часть удаленно \n\n\nФормат работы: Работа в офисе у метро Электрозаводская (200 метров от метро). \nЗанятость: Полная. оформление по ТК РФ (возможность оформления через ИП)\nЗарплатная вилка: 200 000–300 000 ₽ / мес\n\n#вакансия #Frontend #Backend #TypeScript #NodeJS #Angular #МСК #офис #js #javascript #Fullstack\n\n—\n\n👉 Обсуждение вакансии в чате @javascript_jobs","markup":[{"type":"hashtag","offset":1356,"length":9,"data":"вакансия"},{"type":"hashtag","offset":1366,"length":9,"data":"Frontend"},{"type":"hashtag","offset":1376,"length":8,"data":"Backend"},{"type":"hashtag","offset":1385,"length":11,"data":"TypeScript"},{"type":"hashtag","offset":1397,"length":7,"data":"NodeJS"},{"type":"hashtag","offset":1405,"length":8,"data":"Angular"},{"type":"hashtag","offset":1414,"length":4,"data":"МСК"},{"type":"hashtag","offset":1419,"length":5,"data":"офис"},{"type":"hashtag","offset":1425,"length":3,"data":"js"},{"type":"hashtag","offset":1429,"length":11,"data":"javascript"},{"type":"hashtag","offset":1441,"length":10,"data":"Fullstack"},{"type":"handle","offset":1486,"length":16,"data":"javascript_jobs"}],"date":"2020-06-16T11:45:58+00:00","link":"tg://resolve?domain=javascript_jobs_feed&post=0","tags":[{"name":"javascript"},{"name":"typescript"},{"name":"nodejs"},{"name":"angularjs"},{"name":"reactjs"}],"cities":[],"allowsRemote":true}},{"node":{"__typename":"Job","id":"16975396864-1001110946746","title":"Javascript разработчик","text":"#вакансия #верстальщик\n\nФормат работы: удаленка\n\nЗанятость: полная, проектная\n\nЗарплатная вилка: 500-700 рублей час.\n\nОписание вакансии: Здравствуйте, ищу сильного верстальщика, необходимо сверстать сложный сайт, с большим количеством анимаций.\nВсе подробности при личном общении, макеты имеются.\n\np/s приступить нужно сразу же.\nОплата поэтапно.\n\nНазвание компании: SiP\n\nКонтакты: https://t.me/vladyslav_shubyn\n\n—\n\n👉 Обсуждение вакансии в чате @javascript_jobs","markup":[{"type":"hashtag","offset":0,"length":9,"data":"вакансия"},{"type":"hashtag","offset":10,"length":12,"data":"верстальщик"},{"type":"link","offset":381,"length":29,"data":"https://t.me/vladyslav_shubyn"},{"type":"handle","offset":445,"length":16,"data":"javascript_jobs"}],"date":"2020-06-16T11:40:03+00:00","link":"tg://resolve?domain=javascript_jobs_feed&post=0","tags":[{"name":"javascript"}],"cities":[],"allowsRemote":true}},{"node":{"__typename":"Job","id":"71381811200-1001054966032","title":"Mobile разработчик","text":"Всем добрый день!\nИщем iOS разработчика (возможна удаленная работа).\n#вакансия\n#iOS developer\n#Казань #Иннополис\n#fulltime # офис или #remote\nЗанятость: полная \nЗарплатная вилка от 180-250+ net (зависит от уровня)\nКомпания: NNG\nКонтакты: @BetterCallOl\n\nWe are a world leader in the development of navigation equipment. Head office in Budapest.\nWhat would be your job? \n  •  Mobile and automotive navigation software development;\n  •  Various projects with international clients from all parts of the world;\n  •  Сooperation with PM and development teams both locally and in the Budapest office;\n  •  Design, develop, code, test and debug; own your code.\n If you have\n  •  Experience developing, testing, and releasing iOS apps;\n  •  Knowledge of Objective-C and Swift, UIKit;\n  •  Experience collaborating with designers on usability and aesthetics of apps;\n  •  Strong experience in writing and maintaining testable code and unit tests;\n  •  Experience with git-based version control systems;\n  •  Strong written and verbal communication skills in English;\nmoreover, you have any of the following: \n  •  Familiarity with JavaScript;\n  •  Familiarity with Flutter;\n  •  Experience in Agile development, especially SaFE and SCRUM;\n  You will make quite an impression on us! \nWhat can we give you in return? \n  •  A job at a successful global company;\n  •  Serious professional challenges;\n  •  A secure and well-paid job;\n  •  The opportunity to develop the navigation software of the future in the present;\n  •  Сompensation for rental flat;\n  •  The opportunity of working abroad for several weeks.\n\nКонтакты: @BetterCallOl","markup":[{"type":"hashtag","offset":69,"length":9,"data":"вакансия"},{"type":"hashtag","offset":79,"length":4,"data":"iOS"},{"type":"hashtag","offset":94,"length":7,"data":"Казань"},{"type":"hashtag","offset":102,"length":10,"data":"Иннополис"},{"type":"hashtag","offset":113,"length":9,"data":"fulltime"},{"type":"hashtag","offset":134,"length":7,"data":"remote"},{"type":"handle","offset":238,"length":13,"data":"BetterCallOl"},{"type":"handle","offset":1611,"length":13,"data":"BetterCallOl"}],"date":"2020-06-16T11:39:43+00:00","link":"tg://resolve?domain=mobile_jobs&post=0","tags":[{"name":"mobile"},{"name":"ios"},{"name":"dotnet"},{"name":"objective-c"},{"name":"swift"},{"name":"uikit"},{"name":"git"},{"name":"javascript"},{"name":"flutter"}],"cities":[{"code":"kazan"},{"code":"budapest"}],"allowsRemote":true}},{"node":{"__typename":"Job","id":"16974348288-1001110946746","title":"Javascript разработчик","text":"#вакансия #RN #reactnative #офис #москва #мск #remote #удаленка \nГород и адрес офиса:  #москва #мск  #арбатская\nФормат работы: офис, фултайм, гибкий график, можно удаленно (с редкими встречами в мск, поэтому важно, чтобы вы жили не очень далеко от мск)\nЗанятость: полная\nЗарплатная вилка: 180-250 т.р. net готовы обсуждать\nОписание вакансии: \nИщу сейчас RN разработчика в финтех проект (Openbanking, psd2) -  это новый продукт в онлайн покупках на европейском рынке, со своей «платежкой», которое сделает эту сферу более технологичной и еще проще и доступнее для пользователей:\n- новое удобное решение для b2c клиентов (мобильное приложение)\n- выгодные условия для b2b партнеров (низкие комиссии за транзакции)\n\nОформление белое, проект полностью с нуля, только собираем команду, есть возможность максимального влияния на продукт, на выбор технологий и построение процессов.\n\nНазвание компании:  Star-Staff\nКонтакты: пишите на этот тг @yuliaataman\n\n—\n\n👉 Обсуждение вакансии в чате @javascript_jobs","markup":[{"type":"hashtag","offset":0,"length":9,"data":"вакансия"},{"type":"hashtag","offset":10,"length":3,"data":"RN"},{"type":"hashtag","offset":14,"length":12,"data":"reactnative"},{"type":"hashtag","offset":27,"length":5,"data":"офис"},{"type":"hashtag","offset":33,"length":7,"data":"москва"},{"type":"hashtag","offset":41,"length":4,"data":"мск"},{"type":"hashtag","offset":46,"length":7,"data":"remote"},{"type":"hashtag","offset":54,"length":9,"data":"удаленка"},{"type":"hashtag","offset":87,"length":7,"data":"москва"},{"type":"hashtag","offset":95,"length":4,"data":"мск"},{"type":"hashtag","offset":101,"length":10,"data":"арбатская"},{"type":"handle","offset":935,"length":12,"data":"yuliaataman"},{"type":"handle","offset":982,"length":16,"data":"javascript_jobs"}],"date":"2020-06-16T11:39:41+00:00","link":"tg://resolve?domain=javascript_jobs_feed&post=0","tags":[{"name":"javascript"},{"name":"dotnet"}],"cities":[{"code":"moscow"}],"allowsRemote":true}},{"node":{"__typename":"Job","id":"16973299712-1001110946746","title":"Javascript разработчик","text":"#вакансия # react #офис #москва #мск \nГород и адрес офиса:  #москва #мск  #арбатская\nФормат работы: офис, фултайм, гибкий график, можно удаленно (с редкими встречами в мск, поэтому важно, чтобы вы жили не очень далеко от мск)\nЗанятость: полная\nЗарплатная вилка: 170-250 т.р. net в зависимости от опыта\nОписание вакансии: \nИщу сейчас React разработчика в финтех проект (Openbanking, psd2) -  это новый продукт в онлайн покупках на европейском рынке, со своей «платежкой», которое сделает эту сферу более технологичной и еще проще и доступнее для пользователей:\n- новое удобное решение для b2c клиентов (мобильное приложение+web)\n- выгодные условия для b2b партнеров (низкие комиссии за транзакции) - web\n\nОформление белое, проект полностью с нуля, только собираем команду, есть возможность максимального влияния на продукт, на выбор технологий и построение процессов.\n\nНазвание компании:  Star-Staff\nКонтакты: пишите на этот тг @yuliaataman\n\n—\n\n👉 Обсуждение вакансии в чате @javascript_jobs","markup":[{"type":"hashtag","offset":0,"length":9,"data":"вакансия"},{"type":"hashtag","offset":18,"length":5,"data":"офис"},{"type":"hashtag","offset":24,"length":7,"data":"москва"},{"type":"hashtag","offset":32,"length":4,"data":"мск"},{"type":"hashtag","offset":60,"length":7,"data":"москва"},{"type":"hashtag","offset":68,"length":4,"data":"мск"},{"type":"hashtag","offset":74,"length":10,"data":"арбатская"},{"type":"handle","offset":927,"length":12,"data":"yuliaataman"},{"type":"handle","offset":974,"length":16,"data":"javascript_jobs"}],"date":"2020-06-16T11:39:23+00:00","link":"tg://resolve?domain=javascript_jobs_feed&post=0","tags":[{"name":"javascript"},{"name":"reactjs"},{"name":"dotnet"},{"name":"web"}],"cities":[{"code":"moscow"}],"allowsRemote":true}},{"node":{"__typename":"Job","id":"16972251136-1001110946746","title":"Js разработчик","text":"💥 💥 💥💣💣💣\n#вакансия #developer #Solidity #C++ #rust #senior #remote #удаленно #fulltime#blockchain#backend \n\nВ компании TON Labs открыта Вакансия Senior Backend developer \n\nФормат работы: #удаленка\nЗанятость: #полная\nОпыт: 5+лет\nЗарплатная вилка: $2000-$4000\n\nTON Labs - независимая международная IT-компания, которая занимается  разработкой решений на основе блокчейн-платформы TON, с командой из более 50 разработчиков, инженеров и профессионалов со всего мира.  Проект реализуется с нуля.\n\nWe are looking for all candidates to have:\n   Deep knowledge in one of the following languages: Node JS, Solidity, C++\n  Some experience in statically typed and/or purely functional programming languages\n  Experience working with document oriented or real time databases\n  Interest in blockchain development and crypto-currencies\n  Good level of technical English, ability to communicate in English\n\nОписание вакансии : https://hh.ru/vacancy/37280290\n\nНазвание компании: Ton Labs\nКонтакты: @Marina0733\nДля резюме: marina.k@tonlabs.io\n\n—\n\n👉 Обсуждение вакансии в чате @javascript_jobs","markup":[{"type":"hashtag","offset":15,"length":9,"data":"вакансия"},{"type":"hashtag","offset":25,"length":10,"data":"developer"},{"type":"hashtag","offset":36,"length":9,"data":"Solidity"},{"type":"hashtag","offset":46,"length":2,"data":"C"},{"type":"hashtag","offset":51,"length":5,"data":"rust"},{"type":"hashtag","offset":57,"length":7,"data":"senior"},{"type":"hashtag","offset":65,"length":7,"data":"remote"},{"type":"hashtag","offset":73,"length":9,"data":"удаленно"},{"type":"hashtag","offset":193,"length":9,"data":"удаленка"},{"type":"hashtag","offset":214,"length":7,"data":"полная"},{"type":"link","offset":918,"length":30,"data":"https://hh.ru/vacancy/37280290"},{"type":"handle","offset":988,"length":11,"data":"Marina0733"},{"type":"link","offset":1012,"length":19,"data":"mailto:marina.k@tonlabs.io"},{"type":"handle","offset":1066,"length":16,"data":"javascript_jobs"}],"date":"2020-06-16T11:38:06+00:00","link":"tg://resolve?domain=javascript_jobs_feed&post=0","tags":[{"name":"javascript"},{"name":"rust"},{"name":"nodejs"}],"cities":[],"allowsRemote":true}},{"node":{"__typename":"Job","id":"16971202560-1001110946746","title":"Js developer","text":"#вакансия\nГород и адрес офиса: Эйлат, Израиль\nФормат работы: удаленка\nЗанятость: полная\nЗарплатная вилка: (оба значения обязательны) от 1500$ до 3000$ net\nОписание вакансии:\n\nhttps://trucknet.io/en/open-positions/middle-senior-backend-typescript-developer/\n\nWho are we looking for\nWe are looking for a Backend Developer to join our R&D department in Eilat, Israel. Have you ever dreamed of working with a small and capable team in a coastal town on the southern edge of the Negev Desert? Are you interested in creating an eco-friendly product in a domain of logistics and transportation, solving mysteries problems and facing new challenges? If so, the Trucknet team is just the place for you!\nResponsibilities\n • Implementing new features and providing support for various microservices.\n • Proposing, brainstorming and carrying out refactoring to improve the internal structure of our software.\n • Improving the developer experience by constantly bettering our toolbox.\n • Advancing deployment/integration infrastructure.\nRequirements\n • 3+ years of professional experience with backend development.\n • Acquaintance with Typescript, OOP Javascript, NodeJS.\n • Acquaintance with MongoDB and experience with databases in general.\n • Practical skills in software architecture and software design.\nAdvantages\n • Knowledge of Docker and Kubernetes.\n • Understanding the concept of horizontal scaling and what limitations it does impose on the application.\n • Strong knowledge of MongoDB, PostgreSQL.\n • Experience with CI/CD (we use GitLab CI).\n • Experience with test-driven development.\n • Experience with AWS.\n\n\nНазвание компании: Trucknet (https://trucknet.io/)\nКонтакты: @g000seman alex@trucknet.io\n\n—\n\n👉 Обсуждение вакансии в чате @javascript_jobs","markup":[{"type":"hashtag","offset":0,"length":9,"data":"вакансия"},{"type":"link","offset":175,"length":81,"data":"https://trucknet.io/en/open-positions/middle-senior-backend-typescript-developer/"},{"type":"link","offset":1641,"length":20,"data":"https://trucknet.io/"},{"type":"handle","offset":1673,"length":10,"data":"g000seman"},{"type":"link","offset":1684,"length":16,"data":"mailto:alex@trucknet.io"},{"type":"handle","offset":1735,"length":16,"data":"javascript_jobs"}],"date":"2020-06-16T11:37:40+00:00","link":"tg://resolve?domain=javascript_jobs_feed&post=0","tags":[{"name":"javascript"},{"name":"dotnet"},{"name":"typescript"},{"name":"deployment"},{"name":"nodejs"},{"name":"mongodb"},{"name":"docker"},{"name":"kubernetes"},{"name":"postgresql"},{"name":"gitlab"},{"name":"amazon-web-services"}],"cities":[],"allowsRemote":true}},{"node":{"__typename":"Job","id":"16970153984-1001110946746","title":"Js разработчик","text":"#вакансия #удаленка #fulltime #frontend #vue #nuxt #react\n\nКомпания: webland.design\nПозиция: frontend разарботчик\nФормат работы: удалённый, fulltime\n\nЗарплатная вилка: от 70 до 100 т.р на руки \n\nЗадачи:\n• Разработка веб-интерфейсов на vue.js/React\n• Активное участие в обсуждении задач.\n• Разработка нового функционала.\n• Доработка/Оптимизация существующего функционала.\n\nТребования:\n• Уверенное знание Javascript (ES6+)\n• Обязательное понимание экосистемы Vue/VueRouter/Vuex\n• Понимание принципов построения архитектуры большого приложения и принципов компонентного подхода.\n• Умение делать качественную кросс-браузерную адаптивную верстку (SCSS).\n• Опыт работы с Webpack и Babel.\n• Опыт работы с REST API\n\nБудет супер, если:\n•  Есть понимание принципов pixel perfect\n• Опыт использования серверного рендеринга (SSR) с использованием Nuxt.js.\n• Коммерческий опыт работы c React (Redux or Mobx)\n• Есть ИП или статус самозанятого\n\nСтек: \n• HTML5/JS/SCSS\n• Vue.js и/или React\n• Webpack/Babel\n• php или node.js REST API\n\nКонтакт: @alex_project\n\n—\n\n👉 Обсуждение вакансии в чате @javascript_jobs","markup":[{"type":"hashtag","offset":0,"length":9,"data":"вакансия"},{"type":"hashtag","offset":10,"length":9,"data":"удаленка"},{"type":"hashtag","offset":20,"length":9,"data":"fulltime"},{"type":"hashtag","offset":30,"length":9,"data":"frontend"},{"type":"hashtag","offset":40,"length":4,"data":"vue"},{"type":"hashtag","offset":45,"length":5,"data":"nuxt"},{"type":"hashtag","offset":51,"length":6,"data":"react"},{"type":"link","offset":69,"length":14,"data":"http://webland.design"},{"type":"handle","offset":1027,"length":13,"data":"alex_project"},{"type":"handle","offset":1075,"length":16,"data":"javascript_jobs"}],"date":"2020-06-16T10:19:35+00:00","link":"tg://resolve?domain=javascript_jobs_feed&post=0","tags":[{"name":"javascript"},{"name":"vuejs"},{"name":"reactjs"},{"name":"webpack"},{"name":"rest"},{"name":"redux"},{"name":"html"},{"name":"php"},{"name":"nodejs"},{"name":"react-redux"}],"cities":[],"allowsRemote":true}},{"node":{"__typename":"Job","id":"16968056832-1001110946746","title":"Js разработчик","text":"#вакансия #fulltime #frontend #vue #react\n\n⚫️ Junior frontend-разработчик\nФормат работы: удаленка\nЗанятость: полная\nТребуемый опыт работы: от 1 года.\nНазвание компании: Blackmagic, blackmagic.digital\nЗарплатная вилка: от 60 000 до 90 000 рублей. \n\nОписание вакансии: \n\nМы ищем Веб-программиста с опытом работы над реальными проектами. \n\nОсновная наша специализация SPA. Задачи бывают различной сложности. От поддержки проекта и выполенния разовых задач, до разработки c нуля. \n\nМы ищем ответственного человека, умеющего здраво оценивать свои силы и сроки. \n\nТребования к кандидату: \n— знания js, css, html \n— знание основ использования Git \n— знание адаптивной/резиновой верстки \n— опыт работы с любым веб-фреймворком (React/Vue) \n\nБудет большим плюсом: \n— знание Vue.js \n— знание препроцессоров (мы предпочитаем SCSS) \n— понимание Dоcker и CI/CD \n— GitLab Flow \n\nМы работает по недельным спринтам, используем GitLab. Есть ежедневные созвоны по статусу.\n\n🤙 Контакты:\nАлександр Силин\nTelegram @pushdatempo, alexander@blackmagic.digital\n\n—\n\n👉 Обсуждение вакансии в чате @javascript_jobs","markup":[{"type":"hashtag","offset":0,"length":9,"data":"вакансия"},{"type":"hashtag","offset":10,"length":9,"data":"fulltime"},{"type":"hashtag","offset":20,"length":9,"data":"frontend"},{"type":"hashtag","offset":30,"length":4,"data":"vue"},{"type":"hashtag","offset":35,"length":6,"data":"react"},{"type":"link","offset":181,"length":18,"data":"http://blackmagic.digital"},{"type":"handle","offset":993,"length":12,"data":"pushdatempo"},{"type":"link","offset":1007,"length":28,"data":"http://alexander@blackmagic.digital"},{"type":"handle","offset":1070,"length":16,"data":"javascript_jobs"}],"date":"2020-06-16T09:53:28+00:00","link":"tg://resolve?domain=javascript_jobs_feed&post=0","tags":[{"name":"javascript"},{"name":"vuejs"},{"name":"reactjs"},{"name":"css"},{"name":"html"},{"name":"git"},{"name":"gitlab"}],"cities":[],"allowsRemote":true}}]}}},"context":{}}