{"hash":"f5f6bf98bd95e769321482904cbbd488f77922fd","data":{"records":{"id":"go","name":"go","belongsTo":{"totalCount":47,"pageInfo":{"totalPages":5,"currentPage":2},"edges":[{"node":{"__typename":"Job","id":"17234395136-1001110946746","title":"Js разработчик","text":"#вакансия\n\nSenior NodeJS Software Engineer\n\nГород и адрес офиса: Москва, м.Китай-Город\nФормат работы: удаленка \nЗанятость: полная \nЗарплата: $ 50 000 - 60 000 в год\n\nМеждународный сервис по подбору стипендиальных программ ищет в свою команду опытного NodeJS разработчика. Главный офис компании находится в Тель-Авиве, куда предусмотрены поездки раз в полгода, команда рассредоточена по миру.\n\nМы предлагаем интересные задачи на высоконагруженных web-проектах, зарплату, привязанную к курсу доллара; возможность профессионального обучения и полноценного участия в жизни IT сообщества (тренинги, конференции) и возможность работать по гибкому графику.\n\n\nТребования: \n- Отличные знания Javascript, Node JS; \n- Будет плюсом опыт работы с Golang; \n- Опыт работы с высокими нагрузками; \n- Хорошее понимание архитектуры и проектирования; \n- Опыт работы с RabbitMQ/Kafka; \n- Опыт работы с NoSQL DB (MongoDB, Redis); \n- Разработка или взаимодействие с REST API; \n- Написание юнит и интеграционных тестов; \n- Понимание цикла CI/CD, поддержка его конфигурации; \n- Отличные коммуникативные навыки и уровень английского не ниже В2.\n\nЧтобы откликнуться, необходимо пройти короткий отбор по ссылке https://6nomads.com/\n\nНазвание компании: 6nomads.com\nКонтакт: @temnik_sofya","markup":[{"type":"hashtag","offset":0,"length":9,"data":"вакансия"},{"type":"link","offset":143,"length":15,"data":"tel:50 000 - 60 000"},{"type":"link","offset":1183,"length":20,"data":"https://6nomads.com/"},{"type":"link","offset":1224,"length":11,"data":"http://6nomads.com"},{"type":"handle","offset":1245,"length":13,"data":"temnik_sofya"}],"date":"2020-06-29T17:50:20+00:00","link":"tg://resolve?domain=javascript_jobs_feed&post=16436","tags":[{"name":"javascript"},{"name":"nodejs"},{"name":"web"},{"name":"go"},{"name":"rabbitmq"},{"name":"kafka"},{"name":"nosql"},{"name":"mongodb"},{"name":"redis"},{"name":"rest"}],"cities":[{"code":"moscow"}],"allowsRemote":true}},{"node":{"__typename":"Job","id":"360710144-1001352129329","title":"Golang разработчик","text":"#вакансия #удаленка#Москва#Golang\n\nВсем привет!\n\nВакансия: Golang разработчик \nУровень: мидл- мидл\nЗанятость: полная\nФормат работы: удаленка\nМесто работы: офис в Мск \nКомпания:  ylab.io\nПродукт: банковский софт на микросервисах\nЗП: от 80 000 до 110 000 \n\nСтек:\nGoLang, Docker, gitlab, Kubernetes, PostgreSQL, MongoDB, REST API, gRPC\n\nКонтактное лицо:\n@hrylab","markup":[{"type":"hashtag","offset":0,"length":9,"data":"вакансия"},{"type":"link","offset":178,"length":7,"data":"http://ylab.io"},{"type":"handle","offset":351,"length":7,"data":"hrylab"}],"date":"2020-06-29T16:15:45+00:00","link":"tg://resolve?domain=gogetajobfeed&post=344","tags":[{"name":"go"},{"name":"docker"},{"name":"gitlab"},{"name":"kubernetes"},{"name":"postgresql"},{"name":"mongodb"},{"name":"rest"}],"cities":[{"code":"moscow"}],"allowsRemote":true}},{"node":{"__typename":"Job","id":"359661568-1001352129329","title":"Go developer","text":"#вакансия #go #fulltime #remote\n\nBack-end Engineer (Go)\nФормат работы: #fulltime #remote\nЗарплата: $ 40 000 - 60 000 в год\nНазвание компании: 6nomads\n\nКоманда с большим опытом в компьютерном зрении и экспертами мирового уровня ищет в свои ряды Back-end Go Developer. Стартап, создает продукт для домашней безопасности, привлек $6,9 млн инвестиций, и теперь активно расширяет команду. Продукт ориентирован на Штаты, его основатели базируются в Калифорнии, а почти вся команда — в России и Украине.\n\nТребования:\n• Опыт коммерческой разработки от 2х лет и разработки на Go — от 1 года;\n• Знание основ computer science;\n• Чистый и понятный код;\n• Опыт работы с микросервисной архитектурой;\n• Понимание устройства и принципов работы реляционных и нереляционных баз данных;\n• Письменный и устный английский не ниже В2;\n• Опыт удаленной работы будет плюсом.\n\nКонтакт для связи: @temnik_sofya","markup":[{"type":"hashtag","offset":0,"length":9,"data":"вакансия"},{"type":"hashtag","offset":10,"length":3,"data":"go"},{"type":"hashtag","offset":14,"length":9,"data":"fulltime"},{"type":"hashtag","offset":24,"length":7,"data":"remote"},{"type":"hashtag","offset":71,"length":9,"data":"fulltime"},{"type":"hashtag","offset":81,"length":7,"data":"remote"},{"type":"link","offset":101,"length":15,"data":"tel:40 000 - 60 000"},{"type":"handle","offset":871,"length":13,"data":"temnik_sofya"}],"date":"2020-06-29T15:38:15+00:00","link":"tg://resolve?domain=gogetajobfeed&post=343","tags":[{"name":"go"}],"cities":[],"allowsRemote":true}},{"node":{"__typename":"Job","id":"358612992-1001352129329","title":"Golang разработчик","text":"#вакансия #Москва #офис #удаленка #Golang #fulltime\n\nГород и адрес офиса: Москва, м. Новокузнецкая/Павелецкая\nФормат работы: #офис, #удаленка\nЗанятость: #полная\nЗП: от 120к до 200к руб. нетт\n\nSports.ru – ведущий спортивный сайт в России. Мы строим сообщества людей, увлекающихся разными видами спорта, помогаем им развиваться и даем им площадку для общения. Сейчас мы ищем Backend-разработчика (Golang/PHP) в команду нашего проекта Betting Insider.\n\nBetting Insider — социальная сеть для любителей ставок. Мы верим, что ставки — неотъемлемая часть рынка спортивных развлечений, и стремимся сделать этот рынок прозрачнее и интереснее для пользователей. Мы не принимаем ставок на реальные деньги, но даем пользователям множество вспомогательных сервисов, которые делают их игру проще, безопаснее и интереснее.\n\nО задачах:\nВы будете участвовать в продуктовой разработке на всех стадиях: от обсуждения фич и проработки архитектуры до деплоя и мониторинга работы.\nРазрабатывать микросервисы на Go, перевода на них наш монолит на PHP. Поддержкой монолита тоже нужно будет заниматься. Разрабатывать GraphQL API для web-версии и приложений iOS и Android.\nОптимизировать работу приложений, искать проблемы с производительностью и надежностью. Покрывать код тестами и проводить код ревью.\nЕще сможете принять участие в разработке core сервисов для sports.ru и других наших проектов с MAU больше 20 млн.\n\nО технологиях:\nGo как основной язык. PHP сервис для поддержки и переписывания на Go.\nGraphQL для клиентов. gRPC и JSON over HTTP для межсервисного взаимодействия.\nРазвертывание docker контейнеров в kubernetes. Деплой через gitlab CI и helm чарты.\nМониторинг, трейсинг и алертинг c помощью Grafana и Prometheus, Kibana, Sentry, Elasticsearch APM.\nPostgres 12 и MySQL 8.0.\nNsq и RabbitMQ в качестве очереди событий. Redis для Pub/Sub.\n\nО наших ожиданиях:\nМы ожидаем, что вы имеете опыт разработки микросервисов на Go. Имеете опыт работы с PHP и все еще можете и хотите с ним взаимодействовать. Имеете навыки построения производительных и отказоустойчивых систем.\nЗнаете основы используемых технологий и понимаете, как их использовать: SQL, Go, PHP, message queue, сетевое взаимодействие, кеширование, системы мониторинга и т.д.\nУ вас есть опыт написания тестов равного уровня: Unit, Integration, E2E.\nОпыт взаимодействия с GraphQL и gRPC будет плюсом.\nКлассно, если вы любите спорт. Еще лучше, если вы интересуетесь ставками.\n\nОб условиях: \nПросторный стильный офис возле м. Новокузнецкая/Третьяковская.\n“Белая” заработная плата.\nБесплатная медстраховка со стоматологией после испытательного срока.\nГибкий график работы с возможностью день-два в неделю работать удаленно,\nФрукты, снеки, чай, кофе, какао 24/7.\nКорпоративная скидка в спортзал и на занятия английским языком.\nКорпоративный футбол с тренером.\nФинансовая помощь при переезде из другого города.\nВозможности для профессионального развития.\n\nНазвание компании: Sports.ru (Tribuna Digital)\nКому интересно, пишите в личку (@pbuyatova), поделюсь подробностями)","markup":[{"type":"hashtag","offset":0,"length":9,"data":"вакансия"},{"type":"hashtag","offset":10,"length":7,"data":"Москва"},{"type":"hashtag","offset":18,"length":5,"data":"офис"},{"type":"hashtag","offset":24,"length":9,"data":"удаленка"},{"type":"hashtag","offset":34,"length":7,"data":"Golang"},{"type":"hashtag","offset":42,"length":9,"data":"fulltime"},{"type":"hashtag","offset":125,"length":5,"data":"офис"},{"type":"hashtag","offset":132,"length":9,"data":"удаленка"},{"type":"hashtag","offset":153,"length":7,"data":"полная"},{"type":"link","offset":192,"length":9,"data":"http://Sports.ru"},{"type":"link","offset":1338,"length":9,"data":"http://sports.ru"},{"type":"link","offset":2913,"length":9,"data":"http://Sports.ru"},{"type":"handle","offset":2973,"length":10,"data":"pbuyatova"}],"date":"2020-06-29T15:38:06+00:00","link":"tg://resolve?domain=gogetajobfeed&post=342","tags":[{"name":"go"},{"name":"php"},{"name":"graphql"},{"name":"web"},{"name":"ios"},{"name":"android"},{"name":"json"},{"name":"docker"},{"name":"kubernetes"},{"name":"gitlab"},{"name":"elasticsearch"},{"name":"postgresql"},{"name":"mysql"},{"name":"rabbitmq"},{"name":"redis"},{"name":"sql"}],"cities":[{"code":"moscow"}],"allowsRemote":true}},{"node":{"__typename":"Job","id":"357564416-1001352129329","title":"Golang разработчик","text":"#вакансия #golang #fulltime #office #junior #middle\n\nДобрый день.\nВакансия: Golang разработчик \nУровень: джун->мидл\nЗанятость: полная\nФормат работы: офис\nМесто работы: Москва, м. Сухаревская\nКомпания:  pharmaspace.ru\nПродукт: маркетплейс фармакологической тематики .\nЗП: от 130 000 до 150 000 net.\nОформление по ТК РФ\n\nМикросервисная архитектура.\n\nСтек\nGolang, NodeJS, Redis, RabbitMQ, ElasticSearch, MongoDB, ClickHouse, GitLab, Docker, Kubernetes, React\n\nЧто мы ждём от вас\n- опыт работы с GoLang \n- опыт работы с MongoDB\n- умеете пользоваться Git\n\nКонтакт: @irarudakova","markup":[{"type":"hashtag","offset":0,"length":9,"data":"вакансия"},{"type":"hashtag","offset":10,"length":7,"data":"golang"},{"type":"hashtag","offset":18,"length":9,"data":"fulltime"},{"type":"hashtag","offset":28,"length":7,"data":"office"},{"type":"hashtag","offset":36,"length":7,"data":"junior"},{"type":"hashtag","offset":44,"length":7,"data":"middle"},{"type":"link","offset":202,"length":14,"data":"http://pharmaspace.ru"},{"type":"handle","offset":560,"length":12,"data":"irarudakova"}],"date":"2020-06-29T09:00:25+00:00","link":"tg://resolve?domain=gogetajobfeed&post=341","tags":[{"name":"go"},{"name":"dotnet"},{"name":"nodejs"},{"name":"redis"},{"name":"rabbitmq"},{"name":"elasticsearch"},{"name":"mongodb"},{"name":"gitlab"},{"name":"docker"},{"name":"kubernetes"},{"name":"reactjs"},{"name":"git"}],"cities":[{"code":"moscow"}],"allowsRemote":false}},{"node":{"__typename":"Job","id":"103798538240-1001089317451","title":"Qa engineer","text":"#вакансия #Москва #офис #QA #тестировщик #fulltime\n\nГород и адрес офиса: Москва, м. Новокузнецкая/Павелецкая\nФормат работы: #офис\nЗанятость: #полная\nЗП: от 90к до 120к руб. нетт\n\nSports.ru - провайдер развлечений для любителей спорта.\nЕсть спорт. Есть болельщики. Мы заполняем среду между ними, оживляем ее, наполняем общением и другими развлечениями. Мы делаем не «сайты» или «приложения», а мультиплатформенные продукты, с учетом актуальной технологической парадигмы.\n\nМы ищем Middle QA Engineer'а в наш флагманский проект Sports.ru.\nЭто главное медиа о спорте на русском языке с аудиторией 18 млн пользователей в месяц. Highload-проект с десятками тысяч RPS, состоящий из самых разных продуктов – сайтов, мобильных приложений, email-рассылок, чат-ботов и многого другого.\n\nВ данный момент мы заняты активным внедрением процесса тестирования. Под капотом - нативный js на фронте, php+perl на бэке. Все новые сервисы разрабатываем на новом стеке: vue.js+ssr+golang+graphql. Да, легаси есть - иногда попадается, но в тестирование всё же большинство задач идут на новом стеке.\n\nО задачах\nВы будете заниматься приёмкой фич и проведением регресса, написанием тестовой документации, разработкой автотестов и регистрацией ошибок в баг-трекере.\n\nО наших ожиданиях\nМы ждем, что вы уже минимум пару лет как в профессии и имеете хороший опыт ручного тестирования. Знаете различные инструменты и подходы к тестированию, обладаете навыками тест-дизайна и умеете их применять.\nПонимаете процессы разработки и тестирования, а также, что процессы не могут быть идеальными, но к этому необходимо стремиться.\nМы также ждем, что вы уже имеете навыки автоматизации и не ограничились одним инструментом.\n\nБудет плюсом\nЕсли вы уже пробовали себя в нагрузочном тестировании и автоматизации мобильных устройств.\n\nОб условиях:\nПросторный стильный офис возле м. Новокузнецкая/Третьяковская.\n“Белая” заработная плата.\nБесплатная медстраховка со стоматологией после испытательного срока.\nГибкий график работы с возможностью день-два в неделю работать удаленно,\nФрукты, снеки, чай, кофе, какао 24/7.\nКорпоративная скидка в спортзал и на занятия английским языком.\nКорпоративный футбол с тренером.\nФинансовая помощь при переезде из другого города.\nВозможности для профессионального развития.\n\nНазвание компании: Sports.ru (Tribuna Digital)\nКого заинтересовало, пишите мне в личку (@pbuyatova), рада буду поделиться подробностями:)","markup":[{"type":"hashtag","offset":0,"length":9,"data":"вакансия"},{"type":"hashtag","offset":10,"length":7,"data":"Москва"},{"type":"hashtag","offset":18,"length":5,"data":"офис"},{"type":"hashtag","offset":24,"length":3,"data":"QA"},{"type":"hashtag","offset":28,"length":12,"data":"тестировщик"},{"type":"hashtag","offset":41,"length":9,"data":"fulltime"},{"type":"hashtag","offset":124,"length":5,"data":"офис"},{"type":"hashtag","offset":141,"length":7,"data":"полная"},{"type":"link","offset":179,"length":9,"data":"http://Sports.ru"},{"type":"bold","offset":179,"length":9,"data":""},{"type":"bold","offset":479,"length":20,"data":""},{"type":"link","offset":525,"length":9,"data":"http://Sports.ru"},{"type":"bold","offset":1077,"length":10,"data":""},{"type":"bold","offset":1240,"length":18,"data":""},{"type":"bold","offset":1686,"length":13,"data":""},{"type":"bold","offset":1791,"length":13,"data":""},{"type":"link","offset":2284,"length":9,"data":"http://Sports.ru"},{"type":"handle","offset":2353,"length":10,"data":"pbuyatova"}],"date":"2020-06-26T10:04:13+00:00","link":"tg://resolve?domain=qa_jobs&post=98990","tags":[{"name":"qa"},{"name":"php"},{"name":"perl"},{"name":"vuejs"},{"name":"go"},{"name":"graphql"}],"cities":[{"code":"moscow"}],"allowsRemote":true}},{"node":{"__typename":"Job","id":"356515840-1001352129329","title":"Go разработчик","text":"MT Group (mtgroupit.com) #go_вакансия #вакансия\n\nСписок необходимых навыков:\nGo-swagger, http/https, REST, gRPC, SQL, Docker\nЗарплатные вилка после налогов в стандартной валюте расчетов компании:\n100 - 200 рублей (в зависимости от уровня)\nЗарплатная вилка в долларах после налогов (необязательно, если основная валюта расчета компании - доллары):\nЖелательно договор с ИП\nДоступна ли удалённая работа:\nУдаленная\nГород:\nСПБ, Париж \nСписок языков, которые необходимо знать (русский/английский или какие-либо еще), а так же язык, на котором проходят митинги:\nРусский, желательно английский\nНазвание компании:\nРазработка ПО\nКонтактное лицо:\n@Lisss13, +7 921 976 84 15","markup":[{"type":"link","offset":10,"length":13,"data":"http://mtgroupit.com"},{"type":"hashtag","offset":25,"length":12,"data":"go_вакансия"},{"type":"hashtag","offset":38,"length":9,"data":"вакансия"},{"type":"handle","offset":636,"length":8,"data":"Lisss13"},{"type":"link","offset":646,"length":16,"data":"tel:+7 921 976 84 15"}],"date":"2020-06-25T12:11:48+00:00","link":"tg://resolve?domain=gogetajobfeed&post=340","tags":[{"name":"go"},{"name":"swagger"},{"name":"rest"},{"name":"sql"},{"name":"docker"}],"cities":[{"code":"paris"}],"allowsRemote":true}},{"node":{"__typename":"Job","id":"355467264-1001352129329","title":"Golang разработчик","text":"#вакансия\n\nВакансия: Golang Developer (Middle\\Senior)\n\nСписок необходимых навыков:\n● Опыт промышленной разработки на go от 2х лет\n● Опыт работы с реляционными базами данных (хотя бы с одной из популярных)\n● Опыт работы nosql базами данных (хотя бы одной из: mongodb/redis)\n● Понимание паттернов проектирование и понимание, в каких случаях ими можно\nпренебречь\n● Умение работать в команде: взаимодействие с продактами, тестировщиками и\nдругими разработчиками\n● Понимание 12factor app\n● Понимание процессов разработки и их устройства: code review, CI/CD, цикл жизни\nзадачи\n\nБудет плюсом:\n● Опыт работы с php\n● Опыт работы с kafka\n● Поинмание DDD\n● Понимание принципов масштабирования систем\n● Опыт работы с grpc\n● Понимание принципов event sourcing, cqrs\n\nЗарплатная вилка после налогов в стандартной валюте расчетов компании: 100 000 - 220 000 рублей\n\nДоступна ли удалённая работа: нет\n\nГород: Москва\n\nСписок языков, которые необходимо знать: Русский\n\nНазвание компании: Mafin\n\nДополнительное описание:\n\nНабираем команду разработчиков разного уровня. Работа в проектных группах по 7 человек.\n\n\nО компании: Mafin.ru - это онлайн-платформа персональных страховых сервисов. Insurtech стартап компании \"АбсолютТех\", получивший инвестирование в размере $50 млн\n\nЗадачи:\n● Полный цикл разработки: взаимодействие с продуктами/проджектами, декомпозиция\nфичей, написание кода(go) и тестов\n● Участие в проектировании микросервисной архитектуры\n● Использование helm для описания деплоя сервисов\n● Написание новых и дописывание текущих микросервисов на go\n\nУсловия: \n● НС с первого рабочего дня, ДМС по истечении испытательного срока (3 месяца);\n● Skyeng скидка 50% (в том числе занятия с носителями языка);\n● Новый красивый офис в тренде современных IT компаний с капсулами для сна и уютной кухней;\n● Бесплатное обучение; доступ к онлайн-библиотеке;\n● Огромное количество корпоративных мероприятий\n● Гибкое начало рабочего дня до 11-00\n● Agile, Scrum методология ведения проектов\n● Есть релокационный пакет\n● График работы 5\\2, офис 2 дня в неделю на время ограничительных мер\n\nКонтактное лицо: Илья @rudenko_telegram","markup":[{"type":"hashtag","offset":0,"length":9,"data":"вакансия"},{"type":"link","offset":1105,"length":8,"data":"http://Mafin.ru"},{"type":"handle","offset":2088,"length":17,"data":"rudenko_telegram"}],"date":"2020-06-25T11:42:38+00:00","link":"tg://resolve?domain=gogetajobfeed&post=339","tags":[{"name":"go"},{"name":"nosql"},{"name":"mongodb"},{"name":"redis"},{"name":"php"},{"name":"kafka"}],"cities":[{"code":"moscow"}],"allowsRemote":true}},{"node":{"__typename":"Job","id":"354418688-1001352129329","title":"Golang разработчик","text":"Ребят, всем привет! \nПостараюсь кратко, подробности в ЛС. Заранее напишу, что это Москва (фултайм/офис), компания Lofty. Ищем в команду как Midle так и Senior Go разработчиков.\nВообщем если хочется в highload, добро пожаловать!)\n\nО проекте:\nЭто высоконагруженное backend приложение для рассылки web push-уведомлений, обслуживающее на данный момент более 100млн показов в сутки. \nЧем у нас предстоит заниматься:\nПрофилировать и оптимизировать существующие сервисы;\nПроводить доработки и интеграцию их в действующий код и инфраструктуру;\nРеализовывать новые бизнес-требования внутри сервиса;\nУстранять возникающие баги в сервисе.\n\nЧто мы ждем от кандидата:\nНавыки работы с Git;\nУверенное знание Golang;\nПонимание технологий HTTP, REST;\nОпыт работы в Unix-окружении.\n\nБудет совсем круто, если вы:\nРаботали с highload-проектами;\nПонимаете и уважаете концепцию CI/CD.\nНаш стек технологий: Golang, Gitlab, MySQL, JS, RabbitMQ, Docker, Ansible, Clickhouse\n\nУсловия: \nЗаработная плата от 130 000 до 300 000 руб. на руки, естественно зависит от уровня, преимущественно смотрим \"мидов\", но и \"джуны\" нам тоже интересны.\n\nНаш сайт: `https://www.lofty.today/\n#вакансия#golang","markup":[{"type":"link","offset":1122,"length":24,"data":"https://www.lofty.today/"}],"date":"2020-06-24T17:53:47+00:00","link":"tg://resolve?domain=gogetajobfeed&post=338","tags":[{"name":"go"},{"name":"web"},{"name":"git"},{"name":"rest"},{"name":"unix"},{"name":"gitlab"},{"name":"mysql"},{"name":"rabbitmq"},{"name":"docker"},{"name":"ansible"}],"cities":[{"code":"moscow"}],"allowsRemote":false}},{"node":{"__typename":"Job","id":"103637057536-1001089317451","title":"Qa engineer","text":"#вакансия #remote #highload #QA\n\nДолжность: QA engineer (remote)\n\nГород: не принципиально, GMT +03:00\nКомпания: Wisebits, Лимассол, Кипр\nФормат работы: remote/удаленный\nЗанятость: полная занятость \nЗарплата: до 1500 EUR\n\n📍Что мы ждем от тебя:\n- навыки проектирования тест-дизайнов (тест-кейсов, тест-сценариев, ...)\n- навык написания качественных баг-репортов (да, это действительно отдельный и важный пункт)\n- навык работы с багтрекинг системами (Jira (у нас она), Redmine, Asana, YouTrack, ...)\n- умение работы с Linux (либо Unix)\nаналитическое мышление (команда взаимодействует с внешними партнерами. Очень часто причина ошибки в них и нужно это доказать)\n- английский язык на уровне intermediate\n \n \n📍Будет плюсом:\n- опыт работы с высоконагруженными сервисами\n- опыт написания автотестов (сейчас у нас есть автотесты на Python)\n- опыт работы с системами мониторинга и логирования (наш стек: ElasicSearch + Kibana, VictoriaMetrics + Grafana)\n- умение написания SQL-запросов\n- знание Docker\n- знание и понимание принципов Scrum\n\n📍Задачи:\n- тебе предстоит тестировать как backend, так и frontend, а также взаимодействовать с тестировщиками из других команд, потому что команда RTB является командой полного цикла и способна выполнить задачу от и до без привлечения внешних сил (мы называем это feature team)\n- также мы обязательно научим читать тебя код на языке golang, потому что это наш основной язык для разработки. Мы верим что тестировщик должен понимать как работает код и находить первые ошибки еще на этапе разработки. В команде RTB работают евангелисты языка, которые запустили сообщества в нескольких городах и активно развивают его, они обязательно помогут тебе с его освоением.\n\nРада буду ответить на вопросы, контакты: \n📲  tg: @lapteva_darja","markup":[{"type":"hashtag","offset":0,"length":9,"data":"вакансия"},{"type":"hashtag","offset":10,"length":7,"data":"remote"},{"type":"hashtag","offset":18,"length":9,"data":"highload"},{"type":"hashtag","offset":28,"length":3,"data":"QA"},{"type":"bold","offset":221,"length":23,"data":""},{"type":"bold","offset":705,"length":16,"data":""},{"type":"bold","offset":1033,"length":10,"data":""},{"type":"handle","offset":1746,"length":14,"data":"lapteva_darja"}],"date":"2020-06-24T14:11:31+00:00","link":"tg://resolve?domain=qa_jobs&post=98836","tags":[{"name":"qa"},{"name":"linux"},{"name":"unix"},{"name":"python"},{"name":"sql"},{"name":"docker"},{"name":"go"}],"cities":[],"allowsRemote":true}}]}}},"context":{}}