{"hash":"f5f6bf98bd95e769321482904cbbd488f77922fd","data":{"records":{"totalCount":669,"pageInfo":{"totalPages":67,"currentPage":33},"edges":[{"node":{"id":"92233793536-1001067529236","title":"Python разработчик","text":"#вакансия #python #Django #vacancy #IT  #remote\n\nДрузья, всем привет! \nНовая вакансия -  #Senior_PythonDeveloper\nЛокация - Россия,\nПолный рабочий день, #remote \n#Оплата: 3000$\n\nТребования:\n\n-Опыт работы в индустрии разработки ПО от 5-ти лет;\n-Уверенное знание Python 3+/Python Core (языковые структуры, стандартные библиотеки, регулярные выражения и т.д.);\n-Практический опыт работы с Django (Django ORM, Django Rest Framework);\n-Иметь представление о GraphQL APIs (Graphene будет плюсом);\n-Знание SQL (знание реляционной СУБД PostgreSQL будет плюсом) на уровне работы как прикладного разработчика;\n-Опыт написания API и работы/интеграции с API сторонних сервисов;\n-Опыт работы с рядом AWS-сервисов: Lambda, API Gateway, SNS, SQS, SES, S3, RDS, VPC, EC2, CloudWatch, etc;\n-The English language MUST HAVE (B2+ level) to work with the english speaking team.\n\n\nЗа дополнительной информацией, пишите в ЛС:  @Zalvovskaya","markup":[{"type":"hashtag","offset":0,"length":9,"data":"вакансия"},{"type":"hashtag","offset":10,"length":7,"data":"python"},{"type":"hashtag","offset":18,"length":7,"data":"Django"},{"type":"hashtag","offset":26,"length":8,"data":"vacancy"},{"type":"hashtag","offset":35,"length":3,"data":"IT"},{"type":"hashtag","offset":40,"length":7,"data":"remote"},{"type":"hashtag","offset":89,"length":23,"data":"Senior_PythonDeveloper"},{"type":"hashtag","offset":152,"length":7,"data":"remote"},{"type":"hashtag","offset":161,"length":7,"data":"Оплата"},{"type":"handle","offset":903,"length":12,"data":"Zalvovskaya"}],"date":"2020-06-23T21:10:23+00:00","link":"tg://resolve?domain=python_jobs&post=87961","tags":[{"name":"python"},{"name":"django"},{"name":"orm"},{"name":"rest"},{"name":"graphql"},{"name":"sql"},{"name":"postgresql"},{"name":"amazon-web-services"},{"name":"aws-lambda"}],"cities":[],"allowsRemote":true}},{"node":{"id":"71900856320-1001054966032","title":"Android разработчик","text":"#Android #Java #Kotlin #вакансия \n#НижнийНовгород #Ижевск #Владимир #Белгород \nВакансия: Android разработчик . Готовы принят в штат команды мобильной разработки. Локация: Нижний Новгород, Ижевск, Владимир или Белгород.\nРассмотрим кандидатов из любого из перечисленных регионов или готовых переехать туда.\nКомпания: разработчик ИТ, продукты \"под заказ\", 90% приложений для банковской сферы.\nФормат работы: Office/remote Занятость: Full-time Зарплатная вилка: 90.000-180.000 net (по итогам собеседования, есть индексация и рост з\\п)\n🏢Адреса офисов в указанных городах:г. Н.Новгород, ул.Керченская, д.13;\nг. Владимир, ул.Горького, д.56а, г. Ижевск, ул. Вадима Сивкова.д.290 и г.Белгород (возможен формат домашнего офиса или аренды офиса в доступности от кандидата).\n☕️Формат работы: офис,начало-конец рабочего дня гибкие,по договоренности,официальное оформление. Удаленный вариант есть,но для указанных регионов.\n🔆Занятость: полный день\n📋Описание вакансии: ищу с опытом программирования на Java и/или Kotlin.\n😍Гибкий подход к каждому специалисту, корпоративный английский; стремительно растущая компания;меняем жизнь к лучшему при помощи технологий IT;оплачиваемые конференции и внутренние тренинги/курсы;ежегодный пересмотр заработной платы по результатам работы. @ElenaTsatsenko","markup":[{"type":"hashtag","offset":0,"length":8,"data":"Android"},{"type":"hashtag","offset":9,"length":5,"data":"Java"},{"type":"hashtag","offset":15,"length":7,"data":"Kotlin"},{"type":"hashtag","offset":23,"length":9,"data":"вакансия"},{"type":"hashtag","offset":34,"length":15,"data":"НижнийНовгород"},{"type":"hashtag","offset":50,"length":7,"data":"Ижевск"},{"type":"hashtag","offset":58,"length":9,"data":"Владимир"},{"type":"hashtag","offset":68,"length":9,"data":"Белгород"},{"type":"handle","offset":1266,"length":15,"data":"ElenaTsatsenko"}],"date":"2020-06-23T20:07:25+00:00","link":"tg://resolve?domain=mobile_jobs&post=68570","tags":[{"name":"mobile"},{"name":"android"},{"name":"java"},{"name":"kotlin"},{"name":"dotnet"}],"cities":[{"code":"izhevsk"},{"code":"vladimir"},{"code":"belgorod"},{"code":"nizhny-novgorod"}],"allowsRemote":true}},{"node":{"id":"2249195520-1001134745498","title":"Devops engineer","text":"#вакансия #devops #azure #remote #спб #fulltime #релокация \n\nSenior DevOps Remote Engineer (Azure)\n\nCity: Saint-Petersburg, metro Mayakovskaya | Chernyshevskaya \nFormat: office or remote (both are possible)\nSalary: ₽220-300k\n\nProject: We are BeKitzur and now we are looking for a Senior DevOps Engineer to support and drive innovative collaboration software products used by dozens of thousands of clients across the world. \nThe platform is an Azure-hosted solution and offers you a great opportunity in driving state-of-the-art CI/CD, security, monitoring and DB management. This is a great position for an energetic and ambitious professional to get to the next career step and become a member of a stable and growing international company.\n\nResponsibilities:\n🔹Set up the best monitoring ever - unified, transparent and flexible\n🔹Improve our CI/CD process and automation to deliver faster, more frequent and reliable releases\n🔹Migrate databases to more secure and powerful clusters\n🔹Migrate applications to Kubernetes\n🔹Increase High-Availability and Reliability of applications and DB clusters\n🔹Optimize Azure costs and design more cost-effective DevOps solutions\n🔹Improve the existing DevOps processes and technologies, such as CI/CD, monitoring, logs aggregation, and security\n🔹Participate in all DevOps decisions together with Senior engineers and Tech leads\n🔹Define and implement the security architecture to ensure data security at rest and in transit, application security, key management, identity management, authentication, and authorization with OIDC and OAuth2, infrastructure security with Azure VNets, NSGs, UDR, etc.\n\nRequired Skills and Experience:\n🔹5 years of experience in IT with good knowledge in Linux\n🔹Experience in maintaining a production data processing system\n🔹Hands-on experience with git, Jenkins, Docker, and MySQL\n🔹Azure Networking - Azure Virtual Networks, ExpressRoute, NSG, App Service Environment\n🔹Azure PAAS Services Security and Provisioning\n🔹Cloud Security - Azure Key Vault, HSTS, SSL/TLS Ingress Control\n🔹Cloud monitoring - Experience with Azure Log Analytics, Azure Monitor, DataDog\n🔹Experience with any configuration management tool (Ansible, Saltstack, Chef, Puppet, etc), Ansible preferred\n🔹Hands-on experience with cloud technologies (Azure in our case)\n🔹Bash and Python scripting skills\n🔹Good written and spoken English\n\nBenefits:\n🔹Extremely interesting complex products\n🔹The most modern technology stack\n🔹Wonderful result-oriented team of senior professionals\n🔹Support for all your Cloud studies and certificates (you will have access and we will pay for exams)\n🔹Friendly atmosphere\n🔹Competitive salary\n🔹Medical insurance, sport, English classes in the office\n🔹Business trips to the US (Silicon Valley)\n🔹Relocation package to St.Petersburg\n🔹Opportunity to build a career in a growing branch of the stable US company\n🔹Professional growth in the international business environment\n\n📩\nОткликнуться: @Khabibulin_it\n\n—\n\n👉 Обсуждение вакансии в чате @devops_jobs","markup":[{"type":"hashtag","offset":0,"length":9,"data":"вакансия"},{"type":"hashtag","offset":10,"length":7,"data":"devops"},{"type":"hashtag","offset":18,"length":6,"data":"azure"},{"type":"hashtag","offset":25,"length":7,"data":"remote"},{"type":"hashtag","offset":33,"length":4,"data":"спб"},{"type":"hashtag","offset":38,"length":9,"data":"fulltime"},{"type":"hashtag","offset":48,"length":10,"data":"релокация"},{"type":"handle","offset":2975,"length":14,"data":"Khabibulin_it"},{"type":"handle","offset":3024,"length":12,"data":"devops_jobs"}],"date":"2020-06-23T16:22:03+00:00","link":"tg://resolve?domain=devops_jobs_feed&post=2145","tags":[{"name":"azure"},{"name":"kubernetes"},{"name":"rest"},{"name":"oauth"},{"name":"linux"},{"name":"git"},{"name":"jenkins"},{"name":"docker"},{"name":"mysql"},{"name":"cloud"},{"name":"ssl"},{"name":"ansible"},{"name":"bash"},{"name":"python"},{"name":"ms-access"}],"cities":[],"allowsRemote":true}},{"node":{"id":"71887224832-1001054966032","title":"Ios developer","text":"#вакансия #спб #ios #middle #senior #spb #офис #IoT #умныйдом \nMiddle/Senior iOS developer \nReady for Sky 🚀 \nhttps://readyforsky.com/ru/career/ \n📍 полный день, удаленно/офис (сейчас вся компания работает удаленно) \nМы ищем iOS developer, который будет разрабатывать приложение, использующее данные с IoT-устройств для предоставления пользователям нужных товаров и услуг \n💡 Используем: Swift, Objective-C; Jenkins; GraphQL; RxSwift; MVC, MVVM и Viper \nВ команде: разрабатываем новый функционал приложения, внутренние фреймворки (Private pods), фреймворки для общего доступа; пишем Unit тесты; принимаем участие в создании протоколов работы с умными устройствами; Refactoring и Code-review. \nПредлагаем: \nРаботу в профессиональной команде (team lead, senior, middle), более 300 000 активных пользователей приложения. \nПолностью белую ЗП от 130 до 250 тыс. руб. на руки \nПосле исп.срока корпоративный английский \n📬 Пиши: @Rupeka_Natali","markup":[{"type":"hashtag","offset":0,"length":9,"data":"вакансия"},{"type":"hashtag","offset":10,"length":4,"data":"спб"},{"type":"hashtag","offset":15,"length":4,"data":"ios"},{"type":"hashtag","offset":20,"length":7,"data":"middle"},{"type":"hashtag","offset":28,"length":7,"data":"senior"},{"type":"hashtag","offset":36,"length":4,"data":"spb"},{"type":"hashtag","offset":41,"length":5,"data":"офис"},{"type":"hashtag","offset":47,"length":4,"data":"IoT"},{"type":"hashtag","offset":52,"length":9,"data":"умныйдом"},{"type":"bold","offset":63,"length":27,"data":""},{"type":"bold","offset":92,"length":13,"data":""},{"type":"link","offset":110,"length":34,"data":"https://readyforsky.com/ru/career/"},{"type":"bold","offset":225,"length":13,"data":""},{"type":"bold","offset":376,"length":11,"data":""},{"type":"bold","offset":454,"length":10,"data":""},{"type":"bold","offset":693,"length":11,"data":""},{"type":"bold","offset":916,"length":5,"data":""},{"type":"handle","offset":922,"length":14,"data":"Rupeka_Natali"}],"date":"2020-06-23T16:01:18+00:00","link":"tg://resolve?domain=mobile_jobs&post=68557","tags":[{"name":"mobile"},{"name":"ios"},{"name":"swift"},{"name":"objective-c"},{"name":"jenkins"},{"name":"graphql"},{"name":"mvvm"}],"cities":[],"allowsRemote":true}},{"node":{"id":"103559462912-1001089317451","title":"Qa инженер","text":"#вакансия #удалёнка #testautomation #junior #middle #playwright #nightwatch #js #vue\n\nВ международную компанию, базирующуюся в США требуется разработчик е2е тестов. Есть тесты на Nightwatch, хотим мигрировать на Playwright.\n\nЗП от $9-15 в час, в зависимости от уровня. \n\nУдалёнка, график свободный. От 20 часов в неделю, но лучше фулл тайм.\n\nВакансия может рассматриваться как временный проект, но если есть знание JS фреймворков, особенно Vue, и желание развиваться в этом направлении, возможно дальнейшее сотрудничество.\n\nCrowley Marine\nwww.crowleymarine.com","markup":[{"type":"hashtag","offset":0,"length":9,"data":"вакансия"},{"type":"hashtag","offset":10,"length":9,"data":"удалёнка"},{"type":"hashtag","offset":20,"length":15,"data":"testautomation"},{"type":"hashtag","offset":36,"length":7,"data":"junior"},{"type":"hashtag","offset":44,"length":7,"data":"middle"},{"type":"hashtag","offset":52,"length":11,"data":"playwright"},{"type":"hashtag","offset":64,"length":11,"data":"nightwatch"},{"type":"hashtag","offset":76,"length":3,"data":"js"},{"type":"hashtag","offset":80,"length":4,"data":"vue"},{"type":"link","offset":539,"length":21,"data":"http://www.crowleymarine.com"}],"date":"2020-06-23T16:01:07+00:00","link":"tg://resolve?domain=qa_jobs&post=98762","tags":[{"name":"qa"},{"name":"vuejs"}],"cities":[],"allowsRemote":true}},{"node":{"id":"103550025728-1001089317451","title":"Qa инженер","text":"Специалист по тестированию в Instories \nhttps://instoriesapp.com/\nмобильное приложение для маркетологов, SMM-специалистов и блогеров. \n\n     Тебе предстоит:\nТестировать новые версии продуктов (Android и iOS); \nПроверять качество исправления дефектов;\nПроводить функциональные/smoke/регрессионные тесты;\nПринимать билды перед релизами;\nПроверять дефекты от пользователей на актуальность;\nМониторить отчеты об ошибках и сбоях;\nРаботать над тестовой документацией;\nПредусмотрено активное взаимодействие с командой: разработка, дизайн, продакт-менеджмент, поддержка пользователей.\n\n       Мы ожидаем от успешного кандидата: \n\nОпыт тестирования нативных мобильных приложений от 6 месяцев; \nУмения составлять тестовую документацию;\nПонимание Git-Flow и умение пользоваться git;\nПонимание принципов клиент-серверного взаимодействия;\nРабота с ПО:  Firebase Crashlytics, Android Studio, Xcode, Figma.\n\nЗП от 35к/мес\n#удаленка #вакансия #тестирование #фултайм\n@Instories","markup":[{"type":"link","offset":40,"length":25,"data":"https://instoriesapp.com/"},{"type":"hashtag","offset":907,"length":9,"data":"удаленка"},{"type":"hashtag","offset":917,"length":9,"data":"вакансия"},{"type":"hashtag","offset":927,"length":13,"data":"тестирование"},{"type":"hashtag","offset":941,"length":8,"data":"фултайм"},{"type":"handle","offset":950,"length":10,"data":"Instories"}],"date":"2020-06-23T15:18:30+00:00","link":"tg://resolve?domain=qa_jobs&post=98753","tags":[{"name":"qa"},{"name":"android"},{"name":"ios"},{"name":"git"},{"name":"firebase"},{"name":"xcode"},{"name":"android-studio"}],"cities":[],"allowsRemote":true}},{"node":{"id":"92012544000-1001067529236","title":"Python разработчик","text":"#вакансия #удалёнка #python #django #middle #djangorestframework\n\nФормат работы: #удалёнка\nЗанятость: частичная\nРейт: 20$/час\nОписание вакансии: Требуется Middle Python/Django разработчик\n\nКомпания:\nМеждународный стартап (интеграции в 11 странах) на стабильном финансировании, готовящийся выйти из stealth-mode.\n\nОбязанности:\n- Разработка API-сервисов для мобильных приложений\n- Интеграция с сервисами партнёров и клиентов\n- Отладка и оптимизация сервисов\n\nТребования:\n- знание Python (Python3)\n- знание Django\n- знание Django Rest Framework 3\n\nБудет плюсом:\n- опыт работы с AWS\n\nКонтакты и вопросы:\n@eugenebolotin","markup":[{"type":"hashtag","offset":0,"length":9,"data":"вакансия"},{"type":"hashtag","offset":10,"length":9,"data":"удалёнка"},{"type":"hashtag","offset":20,"length":7,"data":"python"},{"type":"hashtag","offset":28,"length":7,"data":"django"},{"type":"hashtag","offset":36,"length":7,"data":"middle"},{"type":"hashtag","offset":44,"length":20,"data":"djangorestframework"},{"type":"hashtag","offset":81,"length":9,"data":"удалёнка"},{"type":"handle","offset":600,"length":14,"data":"eugenebolotin"}],"date":"2020-06-23T14:10:14+00:00","link":"tg://resolve?domain=python_jobs&post=87750","tags":[{"name":"python"},{"name":"django"},{"name":"rest"},{"name":"amazon-web-services"}],"cities":[],"allowsRemote":true}},{"node":{"id":"26560430080-1001075660570","title":"Php разработчик","text":"#вакансия #Тюмень #офис   #PHP #Laravel #middle #senior\n\nГород: Тюмень\nФормат работы: офис, иногда можно удаленно\nЗанятость: полная\nЗарплатная вилка: от 85 000 до 145 000 руб. \nНазвание компании: Creative\n\nПривет! Мы - компания Creative, занимаемся веб и мобильной разработкой и стремимся стать лидерами на российском рынке.\n\nСитуация: cейчас у нас в работе флагманский проект с крупнейшим банком TOP-5 в России по разработке сервиса для поиска и заказа услуг самозанятых. Мы активно формируем команду разработчиков на долгосрочный проект.\n\nКто нужен: PHP-разработчик (middle/senior)\n-опыт разработки от 1 года;\n-опыт разработки высоконагруженных приложений;\n-глубокие знания PHP, фреймворка Laravel, PostgreSQL, индекс-серверов, Memcached и иных серверных технологий;\n-знание ООП;\n-умение применять шаблоны проектирования;\n-опыт работы со средствами CI/CD, \n-знание DevOps инструментов;\n-опыт написания тестов, покрывающих программный код, поведенческих тестов;\n-умение писать документацию к программному коду;\n-приветствуется знание английского языка.\n\nНад чем предстоит работать: разрабатывать сервис, на котором доступно создание или выполнение задач в 11 категориях: IT-услуги, обучение, ремонт и строительство, ремонт техники, мастер на час, ремонт смартфонов, уборка и химчистка, красота и здоровье, перевозка груза, уход за животными, курьеры. Заказчик может выбрать подходящего исполнителя, изучив предложенные профили, цены на услуги и отзывы других пользователей. \n\nКоманда проекта: более 10 человек (бэкенд, фронтенд, тестирование).\n\nОт нас: \n-конкурентная  заработная плата;\n-работаем с 10:00 до 19:00. График индивидуально корректируемый. Иногда можно работать из дома. Обед можно смещать.\n-возможность пробовать новые стеки или стать тимлидом;\n-пятничные встречи с интересными ребятами, английский прямо в офисе, поездки на конференции, обучение друг друга внутри компании;\n-современный офис в центре города;\n-программа релокации по переезду в г. Тюмень кандидатам из других городов.\n\nКонтакты: @ksate или hr@crtweb.ru","markup":[{"type":"hashtag","offset":0,"length":9,"data":"вакансия"},{"type":"hashtag","offset":10,"length":7,"data":"Тюмень"},{"type":"hashtag","offset":18,"length":5,"data":"офис"},{"type":"hashtag","offset":26,"length":4,"data":"PHP"},{"type":"hashtag","offset":31,"length":8,"data":"Laravel"},{"type":"hashtag","offset":40,"length":7,"data":"middle"},{"type":"hashtag","offset":48,"length":7,"data":"senior"},{"type":"link","offset":196,"length":8,"data":"http://crtweb.ru/"},{"type":"bold","offset":326,"length":9,"data":""},{"type":"bold","offset":541,"length":42,"data":""},{"type":"bold","offset":1055,"length":28,"data":""},{"type":"bold","offset":1477,"length":17,"data":""},{"type":"bold","offset":1546,"length":8,"data":""},{"type":"handle","offset":2010,"length":6,"data":"ksate"},{"type":"link","offset":2021,"length":12,"data":"mailto:hr@crtweb.ru"}],"date":"2020-06-23T14:06:04+00:00","link":"tg://resolve?domain=php_jobs&post=25330","tags":[{"name":"php"},{"name":"laravel"},{"name":"postgresql"}],"cities":[{"code":"tyumen"}],"allowsRemote":true}},{"node":{"id":"103540588544-1001089317451","title":"Qa инженер","text":"#вакансия #fulltime #Middle #Manual #Auto #Functional #Regression #RoR #Vue\n\nО компании:\nhttplab.ru\nРазработка и консалтинг Ruby on Rails проектов.\nМы — небольшая команда Rails–разработчиков. Не любим бюрократию и предпочитаем работать маленьким коллективом, где каждый человек незаменим.\n\nВ основном работаем с проектами, автоматизирующими интернет-маркетинг B2B (зарубежный рынок).\n\nЗарплатная вилка:\nот 60 000 RUB до 110 000\n\nТип работы:\nПолный рабочий день\n\nТип занятости:\nОфис, Ростов-на-Дону\nМожно удаленно\n\nОписание вакансии:\nРазрабатываем веб-приложения для автоматизации рутинных задач бизнеса, например, колл-центр, CRM для рекламных агентств, аналитические системы. Нам приходится работать с очень сложной бизнес–логикой, и ее сложными настройками, отображать разнородные данные и формировать отчеты.\n\nОбязанности:\n• Налаживание процесса тестирования продукта;\n• Проведение функционального, регрессионного и интеграционного тестирования;\n• Обнаружение, описание и отслеживание дефектов в работе приложения;\n• Контроль исправления ошибок.\n\nНаш стек:\nRuby on Rails, Vue\n\nТребования:\n• English (взаимодействие с разработчиками и менеджером);\n• Linux;\n• Git;\n• SQL;\n• Ruby on Rails;\n• Vue.\n\nБудут плюсом:\n• Docker;\n• Понимание принципов работы CI/CD;\n• Разработка скриптов тестирования для типовых задач.\n\nУсловия работы:\n• Уютный офис в самом центре;\n• Полный 9–часовой рабочий день;\n• Гибкий график (с 7.00 до 16.00, с 12.00 до 21.00, ...);\n• Дружная команда, демократичная атмосфера;\n• Участие в разработке систем федерального масштаба.\n\nДополнительные инструкции:\nПрислать CV, сообщить удобное время для собеседования\nУдобнее всего, если оставите отклик тут: https://career.habr.com/vacancies/1000058890\n\nКонтакты:\ninfo@httplab.ru, @flggg","markup":[{"type":"hashtag","offset":0,"length":9,"data":"вакансия"},{"type":"hashtag","offset":10,"length":9,"data":"fulltime"},{"type":"hashtag","offset":20,"length":7,"data":"Middle"},{"type":"hashtag","offset":28,"length":7,"data":"Manual"},{"type":"hashtag","offset":36,"length":5,"data":"Auto"},{"type":"hashtag","offset":42,"length":11,"data":"Functional"},{"type":"hashtag","offset":54,"length":11,"data":"Regression"},{"type":"hashtag","offset":66,"length":4,"data":"RoR"},{"type":"hashtag","offset":71,"length":4,"data":"Vue"},{"type":"bold","offset":77,"length":19,"data":""},{"type":"link","offset":89,"length":7,"data":"http://httplab.ru/"},{"type":"link","offset":96,"length":3,"data":"http://httplab.ru/"},{"type":"bold","offset":385,"length":18,"data":""},{"type":"bold","offset":429,"length":12,"data":""},{"type":"bold","offset":462,"length":15,"data":""},{"type":"bold","offset":514,"length":19,"data":""},{"type":"bold","offset":813,"length":12,"data":""},{"type":"bold","offset":1050,"length":10,"data":""},{"type":"bold","offset":1080,"length":12,"data":""},{"type":"bold","offset":1198,"length":14,"data":""},{"type":"bold","offset":1313,"length":16,"data":""},{"type":"bold","offset":1548,"length":27,"data":""},{"type":"link","offset":1670,"length":44,"data":"https://career.habr.com/vacancies/1000058890"},{"type":"bold","offset":1716,"length":9,"data":""},{"type":"link","offset":1726,"length":15,"data":"mailto:info@httplab.ru"},{"type":"handle","offset":1743,"length":6,"data":"flggg"}],"date":"2020-06-23T14:01:57+00:00","link":"tg://resolve?domain=qa_jobs&post=98744","tags":[{"name":"qa"},{"name":"ruby-on-rails"},{"name":"vuejs"},{"name":"ruby"},{"name":"linux"},{"name":"git"},{"name":"sql"},{"name":"docker"}],"cities":[{"code":"rostov"}],"allowsRemote":true}},{"node":{"id":"1729101824-1001091028994","title":"Java разработчик","text":"#remote #office #fulltime #lead #java\n\nКомпания: Quantori (https://quantori.com)\nЛокация: remote или офис в Санкт-Петербурге/Воронеже\nЗанятость: full-time\nЗП вилка: 2500-4000 USD\nКонтакты: @Ekaterina_Proskuriakova\n \nВсем привет!\n\nМеждународная компания Quantori ищет в команду Lead Java Engineer, описание позиции здесь https://career.quantori.com/lead-java-engineer\n\nМы занимаемся системной интеграцией и разработкой программного обеспечения в сфере Life Science и Healthcare.\nQuantori создает интеллектуальные решения, основанные на передовых научных достижениях, разработке алгоритмов и обработке данных. Такие решения помогают нашим клиентам более эффективно анализировать данные, разрабатывать новые лекарства и повышать качество заботы и ухода о пациентах.\nВ процессе работы вы будете использовать английский язык, так как наши заказчики - зарубежные компании.\n\nЕсли интересно, пишите, с удовольствием расскажу о вакансии и Quantori подробнее.\n@Ekaterina_Proskuriakova","markup":[{"type":"hashtag","offset":0,"length":7,"data":"remote"},{"type":"hashtag","offset":8,"length":7,"data":"office"},{"type":"hashtag","offset":16,"length":9,"data":"fulltime"},{"type":"hashtag","offset":26,"length":5,"data":"lead"},{"type":"hashtag","offset":32,"length":5,"data":"java"},{"type":"link","offset":59,"length":20,"data":"https://quantori.com"},{"type":"handle","offset":189,"length":24,"data":"Ekaterina_Proskuriakova"},{"type":"link","offset":320,"length":46,"data":"https://career.quantori.com/lead-java-engineer"},{"type":"handle","offset":950,"length":24,"data":"Ekaterina_Proskuriakova"}],"date":"2020-06-23T13:57:01+00:00","link":"tg://resolve?domain=jvmjobs&post=1649","tags":[{"name":"java"},{"name":"jvm"}],"cities":[],"allowsRemote":true}}]}},"context":{}}