{"hash":"f5f6bf98bd95e769321482904cbbd488f77922fd","data":{"records":{"id":"graphql","name":"graphql","belongsTo":{"totalCount":46,"pageInfo":{"totalPages":5,"currentPage":3},"edges":[{"node":{"__typename":"Job","id":"92278882304-1001067529236","title":"Python разработчик","text":"#вакансия #python #fulltime #office #remote #Senior #Lead #backend #офис #удаленка #работа\n\nЗп от 160 000 net \nКомпания в поисках Lead Python  удаленно.\nНеобходимые навыки:\n🔹Software development experience 5+, \n🔹Experience with Django (Django ORM, Django Rest Framework (1+years);\n🔹Experience with AWS services: Lambda, API Gateway, SNS, SQS, SES, S3, RDS, VPC, EC2, CloudWatch, etc.\n🔹Experience writing API and working / integration with API of third-party services;\n🔹Knowledge of the GraphQL API (Graphene will be a plus)\n🔹Knowledge of SQL (PostgreSQL relational DBMS will be a plus)\n🔹Knowledge of CloudFormation in AWS and Terraform;\n🔹Ability to read code and understand it at the level of business logic;\n🔹Ability to work with general abstract tasks;\n🔹Written and spoken English is a MUST (B2+)\n\nКонтакты: @Nataly_3 или на почту: n.mazepa@art2hires.com","markup":[{"type":"hashtag","offset":0,"length":9,"data":"вакансия"},{"type":"hashtag","offset":10,"length":7,"data":"python"},{"type":"hashtag","offset":18,"length":9,"data":"fulltime"},{"type":"hashtag","offset":28,"length":7,"data":"office"},{"type":"hashtag","offset":36,"length":7,"data":"remote"},{"type":"hashtag","offset":44,"length":7,"data":"Senior"},{"type":"hashtag","offset":52,"length":5,"data":"Lead"},{"type":"hashtag","offset":58,"length":8,"data":"backend"},{"type":"hashtag","offset":67,"length":5,"data":"офис"},{"type":"hashtag","offset":73,"length":9,"data":"удаленка"},{"type":"hashtag","offset":83,"length":7,"data":"работа"},{"type":"handle","offset":820,"length":9,"data":"Nataly_3"},{"type":"link","offset":844,"length":22,"data":"mailto:n.mazepa@art2hires.com"}],"date":"2020-06-25T10:24:20+00:00","link":"tg://resolve?domain=python_jobs&post=88004","tags":[{"name":"python"},{"name":"dotnet"},{"name":"django"},{"name":"orm"},{"name":"rest"},{"name":"amazon-web-services"},{"name":"aws-lambda"},{"name":"graphql"},{"name":"sql"},{"name":"postgresql"}],"cities":[],"allowsRemote":true}},{"node":{"__typename":"Job","id":"71998373888-1001054966032","title":"Ios developer","text":"#вакансия #спб #ios #middle #senior #spb #офис #IoT #умныйдом \nMiddle/Senior iOS developer \nReady for Sky 🚀 \nhttps://readyforsky.com/ru/career/ \n📍 полный день, удаленно/офис (сейчас вся компания работает удаленно) \nМы ищем iOS developer, который будет разрабатывать приложение, использующее данные с IoT-устройств для предоставления пользователям нужных товаров и услуг \n💡 Используем: Swift, Objective-C; Jenkins; GraphQL; RxSwift; MVC, MVVM и Viper \nВ команде: разрабатываем новый функционал приложения, внутренние фреймворки (Private pods), фреймворки для общего доступа; пишем Unit тесты; принимаем участие в создании протоколов работы с умными устройствами; Refactoring и Code-review. \nПредлагаем: \nРаботу в профессиональной команде (team lead, senior, middle), более 300 000 активных пользователей приложения. \nПолностью белую ЗП от 130 до 250 тыс. руб. на руки \nПосле исп.срока корпоративный английский \n📬 Пиши: @Rupeka_Natali","markup":[{"type":"hashtag","offset":0,"length":9,"data":"вакансия"},{"type":"hashtag","offset":10,"length":4,"data":"спб"},{"type":"hashtag","offset":15,"length":4,"data":"ios"},{"type":"hashtag","offset":20,"length":7,"data":"middle"},{"type":"hashtag","offset":28,"length":7,"data":"senior"},{"type":"hashtag","offset":36,"length":4,"data":"spb"},{"type":"hashtag","offset":41,"length":5,"data":"офис"},{"type":"hashtag","offset":47,"length":4,"data":"IoT"},{"type":"hashtag","offset":52,"length":9,"data":"умныйдом"},{"type":"bold","offset":63,"length":27,"data":""},{"type":"bold","offset":92,"length":13,"data":""},{"type":"link","offset":110,"length":34,"data":"https://readyforsky.com/ru/career/"},{"type":"bold","offset":225,"length":13,"data":""},{"type":"bold","offset":376,"length":11,"data":""},{"type":"bold","offset":454,"length":10,"data":""},{"type":"bold","offset":693,"length":11,"data":""},{"type":"bold","offset":916,"length":5,"data":""},{"type":"handle","offset":922,"length":14,"data":"Rupeka_Natali"}],"date":"2020-06-25T10:01:03+00:00","link":"tg://resolve?domain=mobile_jobs&post=68663","tags":[{"name":"mobile"},{"name":"ios"},{"name":"swift"},{"name":"objective-c"},{"name":"jenkins"},{"name":"graphql"},{"name":"mvvm"}],"cities":[],"allowsRemote":true}},{"node":{"__typename":"Job","id":"17141071872-1001110946746","title":"Js разработчик","text":"#вакансия #удаленно #fullstack #JavaScript #NodeJS #Vue #middle #senior\n\nГород: г. Москва, Сколково, б-р Большой\nФорма работы: удаленка\nЗанятость: полная\nЗарплатная вилка: от 120000 до 200000 рублей\nНазвание компании: ADMON\n\nВ связи с расширением штата, компания ADMON приглашает Middle/Senior Full-stack JavaScript-разработчиков, готовых стать полноценными членами нашей команды на удаленной основе. ADMON – одна из ведущих российских компаний по предотвращению и расследованию мошенничества в сфере рекламы в Интернете и на мобильных устройствах с использованием высоких технологий, являемся резидентами Сколково. Основные направления деятельности компании: мониторинг и предотвращение мошенничества, аудит рекламных кампаний, разработка инновационных программных продуктов по мониторингу, обнаружению и предотвращению возникающих видов мошенничества.\n\nСтек технологий:\nNode.JS, Vue, GraphQl, Jest, Redis, Clickhouse, PostgreSQL, Docker.\n\nЧто используем в работе:\n    ✔️ Jira (Kanban), Confluence;\n   ✔️Храним код в Gitlab, тут же CI/CD;\n    ✔️Практикуем code review, политику частых релизов, гибкие методологии разработки;\n    ✔️Мониторим состояние приложений с помощью: Zabbix, Grafana.\n\nВ задачи будет входить:\n    🔸 Улучшать имеющийся функционал и разрабатывать новый (Система нотификаций, Обработка платежей, Алгоритмы атрибуции, Ads Crawler и т.д.);\n    🔸Писать тесты и рефакторить кодовую базу;\n    🔸Участвовать в принятии архитектурных решений;\n    🔸 Работать как в составе команды, так и в одного над небольшими проектами;\n   🔸Участвовать в коммуникации с командой;\n    🔸Быть инициативным и предлагать свои идеи, в том числе, если это касается использования новых технологий — проводить code review.\n\nЧто мы предлагаем:\n    🚀 Удаленная работа;\n    🚀 Оформление по ТК РФ;\n    🚀 Полностью белая ЗП;\n    🚀График работы 5/2;\n    🚀 Можно выбрать свой график работы;\n    🚀Наставничество по предметной области и на равной позиции;\n    🚀 Возможность работать как в составе команды, так и возглавить со временем свое направление — мы готовы обсуждать любые ваши идеи. \n\n Контакты:@juliajudina2810\n Резюме можно присылать на почту: hr@resurs-hr.ru","markup":[{"type":"hashtag","offset":0,"length":9,"data":"вакансия"},{"type":"hashtag","offset":10,"length":9,"data":"удаленно"},{"type":"hashtag","offset":20,"length":10,"data":"fullstack"},{"type":"hashtag","offset":31,"length":11,"data":"JavaScript"},{"type":"hashtag","offset":43,"length":7,"data":"NodeJS"},{"type":"hashtag","offset":51,"length":4,"data":"Vue"},{"type":"hashtag","offset":56,"length":7,"data":"middle"},{"type":"hashtag","offset":64,"length":7,"data":"senior"},{"type":"handle","offset":2104,"length":16,"data":"juliajudina2810"},{"type":"link","offset":2155,"length":15,"data":"mailto:hr@resurs-hr.ru"}],"date":"2020-06-25T06:43:58+00:00","link":"tg://resolve?domain=javascript_jobs_feed&post=16347","tags":[{"name":"javascript"},{"name":"nodejs"},{"name":"vuejs"},{"name":"graphql"},{"name":"redis"},{"name":"postgresql"},{"name":"docker"},{"name":"gitlab"}],"cities":[{"code":"moscow"}],"allowsRemote":true}},{"node":{"__typename":"Job","id":"17128488960-1001110946746","title":"Js разработчик","text":"#вакансия #frontend  #React #офис #remote #Спб #senior \n\nКомпания: DBeaver\nЗ/п: 180 000 - 300 000 рублей на руки \nГород и адрес офиса: г. Санкт-Петербург (м. Площадь Ленина/Новочеркасская)\nФормат работы: офис или удаленка \nЗанятость: полная, fulltime\n\n🌏DВeaver  - это международный open source проект, бесплатный многоплатформенный инструмент для работы с базами данных. Поддерживает все популярные базы данных: MySQL, PostgreSQL, MariaDB, SQLite, Oracle, DB2, SQL Server, Sybase, MS Access, Teradata, Firebird, Derby и т. д. Платформа интегрируется с Amazon сервисами и нацелена на облачные решения. \n\nCейчас ребята разрабатывают web решение DВeaver, первый релиз состоялся в начале года и компания активно продолжает развитие. \n\n💠Какой опыт и знания ожидают увидеть ребята:\n- опыт работы с TypeScript и React;\n- опыт участия в многокомпонентных проектах со сложной бизнес-логикой;\n- опыт проектирования и рефакторинга;\n- готовность возглавить разработку интерфейсной части продукта, принимать ключевые архитектурные решения;\n- английский язык от уровня intermediate (письменный и на уровне чтения).\n\nСтек технологий: TypeScript, React, GraphQL, MobX, RxJS, Docker. \n\n💎Что получите вы:\n- комфортный офис в БЦ Бенуа;\n- возможность частично или полностью удаленной работы; \n- официальное оформление;\n- возможность поработать над крутым международным продуктом в сплоченной команде энтузиастов;\n- профессиональные командировки и конференции в США и Европу.\n\nКонтакты:\ne-mail: valeriya@luckyhunter.io\ntelegram: @sobolevavalery\nКА: http://luckyhunter.io\nБуду рада ответить на все вопросы и рассказать подробнее о компании 😊","markup":[{"type":"hashtag","offset":0,"length":9,"data":"вакансия"},{"type":"hashtag","offset":10,"length":9,"data":"frontend"},{"type":"hashtag","offset":21,"length":6,"data":"React"},{"type":"hashtag","offset":28,"length":5,"data":"офис"},{"type":"hashtag","offset":34,"length":7,"data":"remote"},{"type":"hashtag","offset":42,"length":4,"data":"Спб"},{"type":"hashtag","offset":47,"length":7,"data":"senior"},{"type":"link","offset":1477,"length":23,"data":"mailto:valeriya@luckyhunter.io"},{"type":"handle","offset":1511,"length":15,"data":"sobolevavalery"},{"type":"link","offset":1531,"length":21,"data":"http://luckyhunter.io"}],"date":"2020-06-24T10:45:59+00:00","link":"tg://resolve?domain=javascript_jobs_feed&post=16335","tags":[{"name":"javascript"},{"name":"reactjs"},{"name":"mysql"},{"name":"postgresql"},{"name":"mariadb"},{"name":"sqlite"},{"name":"oracle"},{"name":"sql"},{"name":"ms-access"},{"name":"web"},{"name":"typescript"},{"name":"graphql"},{"name":"rxjs"},{"name":"docker"},{"name":"sql-server"}],"cities":[],"allowsRemote":true}},{"node":{"__typename":"Job","id":"92233793536-1001067529236","title":"Python разработчик","text":"#вакансия #python #Django #vacancy #IT  #remote\n\nДрузья, всем привет! \nНовая вакансия -  #Senior_PythonDeveloper\nЛокация - Россия,\nПолный рабочий день, #remote \n#Оплата: 3000$\n\nТребования:\n\n-Опыт работы в индустрии разработки ПО от 5-ти лет;\n-Уверенное знание Python 3+/Python Core (языковые структуры, стандартные библиотеки, регулярные выражения и т.д.);\n-Практический опыт работы с Django (Django ORM, Django Rest Framework);\n-Иметь представление о GraphQL APIs (Graphene будет плюсом);\n-Знание SQL (знание реляционной СУБД PostgreSQL будет плюсом) на уровне работы как прикладного разработчика;\n-Опыт написания API и работы/интеграции с API сторонних сервисов;\n-Опыт работы с рядом AWS-сервисов: Lambda, API Gateway, SNS, SQS, SES, S3, RDS, VPC, EC2, CloudWatch, etc;\n-The English language MUST HAVE (B2+ level) to work with the english speaking team.\n\n\nЗа дополнительной информацией, пишите в ЛС:  @Zalvovskaya","markup":[{"type":"hashtag","offset":0,"length":9,"data":"вакансия"},{"type":"hashtag","offset":10,"length":7,"data":"python"},{"type":"hashtag","offset":18,"length":7,"data":"Django"},{"type":"hashtag","offset":26,"length":8,"data":"vacancy"},{"type":"hashtag","offset":35,"length":3,"data":"IT"},{"type":"hashtag","offset":40,"length":7,"data":"remote"},{"type":"hashtag","offset":89,"length":23,"data":"Senior_PythonDeveloper"},{"type":"hashtag","offset":152,"length":7,"data":"remote"},{"type":"hashtag","offset":161,"length":7,"data":"Оплата"},{"type":"handle","offset":903,"length":12,"data":"Zalvovskaya"}],"date":"2020-06-23T21:10:23+00:00","link":"tg://resolve?domain=python_jobs&post=87961","tags":[{"name":"python"},{"name":"django"},{"name":"orm"},{"name":"rest"},{"name":"graphql"},{"name":"sql"},{"name":"postgresql"},{"name":"amazon-web-services"},{"name":"aws-lambda"}],"cities":[],"allowsRemote":true}},{"node":{"__typename":"Job","id":"103569948672-1001089317451","title":"Qa инженер","text":"#вакансия #fulltime #офис #testautomation #Москва #middle #senior #TS\n\nКомпания: Техносерв https://technoserv.com/ \nВакансия: Middle/Senior QA\nДля работы на проектах в крупном банке (T&M)\nЗП: 70 000 - 220 000\nГрафик работы: фултайм, 10:00-19:00 (по договоренности)\nМесто работы: офис, г. Москва\n\nЗадачи:\n· Разработка и поддержка UI автотестов,  API автотестов, интеграционных автотестов. \n\nТребования:\n· Знание языка Java на уровне middle/senior. Опыт в автоматизации тестирования не менее 2 лет.\n· Опыт создания с нуля и развития фреймворка для UI и API автоматизированного  тестирования.\n· Отличное понимание работы Selenium Web Driver.\n· Знание html и xpath селекторов.\n· Умение работать с Базами данных.\n· Общее понимание технологий Docker, GraphQL, NodeJS, ReactJS.\n· Умение работать в Scrum команде.\n· Отличное знание теории тестирования, опыт в работе с документацией по тестированию. \n· Знание основ работы с Linux. \n· Будет плюсом опыт разработки мок-сервисов.\n\nЖдем резюме: QAResume@technoserv.com","markup":[{"type":"hashtag","offset":0,"length":9,"data":"вакансия"},{"type":"hashtag","offset":10,"length":9,"data":"fulltime"},{"type":"hashtag","offset":20,"length":5,"data":"офис"},{"type":"hashtag","offset":26,"length":15,"data":"testautomation"},{"type":"hashtag","offset":42,"length":7,"data":"Москва"},{"type":"hashtag","offset":50,"length":7,"data":"middle"},{"type":"hashtag","offset":58,"length":7,"data":"senior"},{"type":"hashtag","offset":66,"length":3,"data":"TS"},{"type":"link","offset":91,"length":23,"data":"https://technoserv.com/"},{"type":"link","offset":984,"length":23,"data":"mailto:QAResume@technoserv.com"}],"date":"2020-06-23T17:34:52+00:00","link":"tg://resolve?domain=qa_jobs&post=98772","tags":[{"name":"qa"},{"name":"java"},{"name":"selenium"},{"name":"web"},{"name":"html"},{"name":"docker"},{"name":"graphql"},{"name":"nodejs"},{"name":"reactjs"},{"name":"linux"}],"cities":[{"code":"moscow"}],"allowsRemote":false}},{"node":{"__typename":"Job","id":"71887224832-1001054966032","title":"Ios developer","text":"#вакансия #спб #ios #middle #senior #spb #офис #IoT #умныйдом \nMiddle/Senior iOS developer \nReady for Sky 🚀 \nhttps://readyforsky.com/ru/career/ \n📍 полный день, удаленно/офис (сейчас вся компания работает удаленно) \nМы ищем iOS developer, который будет разрабатывать приложение, использующее данные с IoT-устройств для предоставления пользователям нужных товаров и услуг \n💡 Используем: Swift, Objective-C; Jenkins; GraphQL; RxSwift; MVC, MVVM и Viper \nВ команде: разрабатываем новый функционал приложения, внутренние фреймворки (Private pods), фреймворки для общего доступа; пишем Unit тесты; принимаем участие в создании протоколов работы с умными устройствами; Refactoring и Code-review. \nПредлагаем: \nРаботу в профессиональной команде (team lead, senior, middle), более 300 000 активных пользователей приложения. \nПолностью белую ЗП от 130 до 250 тыс. руб. на руки \nПосле исп.срока корпоративный английский \n📬 Пиши: @Rupeka_Natali","markup":[{"type":"hashtag","offset":0,"length":9,"data":"вакансия"},{"type":"hashtag","offset":10,"length":4,"data":"спб"},{"type":"hashtag","offset":15,"length":4,"data":"ios"},{"type":"hashtag","offset":20,"length":7,"data":"middle"},{"type":"hashtag","offset":28,"length":7,"data":"senior"},{"type":"hashtag","offset":36,"length":4,"data":"spb"},{"type":"hashtag","offset":41,"length":5,"data":"офис"},{"type":"hashtag","offset":47,"length":4,"data":"IoT"},{"type":"hashtag","offset":52,"length":9,"data":"умныйдом"},{"type":"bold","offset":63,"length":27,"data":""},{"type":"bold","offset":92,"length":13,"data":""},{"type":"link","offset":110,"length":34,"data":"https://readyforsky.com/ru/career/"},{"type":"bold","offset":225,"length":13,"data":""},{"type":"bold","offset":376,"length":11,"data":""},{"type":"bold","offset":454,"length":10,"data":""},{"type":"bold","offset":693,"length":11,"data":""},{"type":"bold","offset":916,"length":5,"data":""},{"type":"handle","offset":922,"length":14,"data":"Rupeka_Natali"}],"date":"2020-06-23T16:01:18+00:00","link":"tg://resolve?domain=mobile_jobs&post=68557","tags":[{"name":"mobile"},{"name":"ios"},{"name":"swift"},{"name":"objective-c"},{"name":"jenkins"},{"name":"graphql"},{"name":"mvvm"}],"cities":[],"allowsRemote":true}},{"node":{"__typename":"Job","id":"351272960-1001352129329","title":"Golang разработчик","text":"#вакансия #golang #go\n\nВакансия: Golang разработчик\nФормат работы: удаленная работа\nКомпания: Спутник\nВилка заработной платы: 100 000 - 170 000\n\nНемного о нас\nСпутник – это IT компания, прочно занявшая лидирующие позиции в своей отрасли. Мы являемся одним из самых титулованных проектов и работаем на рынках России, Европы и СНГ. Компания является резидентом Сколково и резидентом особой экономической зоны Иннополис.\n\nЧем мы отличаемся?\nМы проходим все этапы с нашим продуктом совместно - начиная от проектирования железа, заканчивая технической поддержкой непосредственно пользователей.\n\nТакже мы избавились от иерархии, строгих рабочих обязанностей и централизации власти, отдавая предпочтение свободному принятию решений командой.\n\nКого мы ждем?\nМы находимся в поисках двух разработчиков, которые:\n• имеют коммерческий опыт работы с GoLang (от 1 года);\n• владеют знанием любого другого языка программирования;\n• имеют опыт работы с Linux, терминалом;\n• как преимущество - имеют опыт серверного программирования (Web, облака);\n• будет плюсом, если ты знаешь С - в одном из проектов мы активно используем CGO.\n\nС каких задач начнём?\n\n❗Мы переписываем наше REST API платформы по управлению домофонами на GraphQL API. По данному проекту на практике можно будет поработать с GraphQL, изучить концепцию цифровых двойников, обработать большое количество запросов с API, работа с контейнерами, микросервисным взаимодействием.\n\nЕсли этот проект тебе не интересен, возможно, тебя заинтересует следующий проект:\n\n❗Мы хотим усилить команду по проекту real-time взаимодействия домофонов с платформой. Будут задачи по VoIP, обработке звука(в том числе при помощи методов машинного обучения), обработке огромного количества данных, микросервисного взаимодействия, работы в k8s.\n\nКонтактное лицо\nЛиля Афанасьева\ne-mail: lily@sputnik.direct\ntelegram: lilia_afanaseva","markup":[{"type":"hashtag","offset":0,"length":9,"data":"вакансия"},{"type":"hashtag","offset":10,"length":7,"data":"golang"},{"type":"hashtag","offset":18,"length":3,"data":"go"},{"type":"link","offset":1808,"length":19,"data":"mailto:lily@sputnik.direct"}],"date":"2020-06-23T10:36:25+00:00","link":"tg://resolve?domain=gogetajobfeed&post=335","tags":[{"name":"go"},{"name":"linux"},{"name":"web"},{"name":"rest"},{"name":"graphql"}],"cities":[],"allowsRemote":true}},{"node":{"__typename":"Job","id":"91639250944-1001067529236","title":"Python developer","text":"#вакансия #python #fulltime #office #remote #Senior #Lead #backend #офис #удаленка #работа\nВсем привет!\nКомпания в поисках Lead Python в офис в Томск или удаленно\n 💸 Зп от 150 000 net \n\nНеобходимые навыки:\n🔸Software development experience 5+, \n🔸Experience with Django (Django ORM, Django Rest Framework (1+years);\n🔸Experience with AWS services: Lambda, API Gateway, SNS, SQS, SES, S3, RDS, VPC, EC2, CloudWatch, etc.\n🔸Experience writing API and working / integration with API of third-party services;\n🔸Knowledge of the GraphQL API (Graphene will be a plus)\n🔸Knowledge of SQL (PostgreSQL relational DBMS will be a plus)\n🔸Knowledge of CloudFormation in AWS and Terraform;\n🔸Ability to read code and understand it at the level of business logic;\n🔸Ability to work with general abstract tasks;\n🔸Written and spoken English is a MUST (B2+)\n\n📝🔍Описание вакансии: https://art2hire.catsone.com/careers/89104-General/jobs/13388214-Senior-Python-Developer/\n📥Контакты: @Nataly_3 или на почту: n.mazepa@art2hires.com","markup":[{"type":"hashtag","offset":0,"length":9,"data":"вакансия"},{"type":"hashtag","offset":10,"length":7,"data":"python"},{"type":"hashtag","offset":18,"length":9,"data":"fulltime"},{"type":"hashtag","offset":28,"length":7,"data":"office"},{"type":"hashtag","offset":36,"length":7,"data":"remote"},{"type":"hashtag","offset":44,"length":7,"data":"Senior"},{"type":"hashtag","offset":52,"length":5,"data":"Lead"},{"type":"hashtag","offset":58,"length":8,"data":"backend"},{"type":"hashtag","offset":67,"length":5,"data":"офис"},{"type":"hashtag","offset":73,"length":9,"data":"удаленка"},{"type":"hashtag","offset":83,"length":7,"data":"работа"},{"type":"link","offset":867,"length":89,"data":"https://art2hire.catsone.com/careers/89104-General/jobs/13388214-Senior-Python-Developer/"},{"type":"handle","offset":969,"length":9,"data":"Nataly_3"},{"type":"link","offset":993,"length":22,"data":"mailto:n.mazepa@art2hires.com"}],"date":"2020-06-22T13:31:31+00:00","link":"tg://resolve?domain=python_jobs&post=0","tags":[{"name":"python"},{"name":"dotnet"},{"name":"django"},{"name":"orm"},{"name":"rest"},{"name":"amazon-web-services"},{"name":"aws-lambda"},{"name":"graphql"},{"name":"sql"},{"name":"postgresql"}],"cities":[{"code":"tomsk"}],"allowsRemote":true}},{"node":{"__typename":"Job","id":"17109614592-1001110946746","title":"Js разработчик","text":"#вакансия #удаленно #fullstack #JavaScript #NodeJS #Vue #middle #senior\n\nГород: г. Москва, Сколково, б-р Большой\nФорма работы: удаленка\nЗанятость: полная\nЗарплатная вилка: от 120000 до 200000 рублей\nНазвание компании: ADMON\n\nВ связи с расширением штата, компания ADMON приглашает Middle/Senior Full-stack JavaScript-разработчиков, готовых стать полноценными членами нашей команды на удаленной основе или в Новосибирском офисе. ADMON – одна из ведущих российских компаний по предотвращению и расследованию мошенничества в сфере рекламы в Интернете и на мобильных устройствах с использованием высоких технологий. Основные направления деятельности компании: мониторинг и предотвращение мошенничества, аудит рекламных кампаний, разработка инновационных программных продуктов по мониторингу, обнаружению и предотвращению возникающих видов мошенничества.\n\nСтек технологий:\nNode.JS, Vue, GraphQl, Jest, Redis, Clickhouse, PostgreSQL, Docker.\n\nЧто используем в работе:\n    - Jira (Kanban), Confluence;\n   - Храним код в Gitlab, тут же CI/CD;\n    -Практикуем code review, политику частых релизов, гибкие методологии разработки;\n    -Мониторим состояние приложений с помощью: Zabbix, Grafana.\n\nВ задачи будет входить:\n    - Улучшать имеющийся функционал и разрабатывать новый (Система нотификаций, Обработка платежей, Алгоритмы атрибуции, Ads Crawler и т.д.);\n    - Писать тесты и рефакторить кодовую базу;\n    - Участвовать в принятии архитектурных решений;\n    - Работать как в составе команды, так и в одного над небольшими проектами;\n    - Участвовать в коммуникации с командой;\n    - Быть инициативным и предлагать свои идеи, в том числе, если это касается использования новых технологий — проводить code review.\n\nЧто мы предлагаем:\n    - Удаленная работа;\n    - Оформление по ТК РФ;\n    - Полностью белая ЗП;\n    -  График работы 5/2;\n    - Можно выбрать свой график работы;\n    - Наставничество по предметной области и на равной позиции;\n    - Возможность работать как в составе команды, так и возглавить со временем свое направление — мы готовы обсуждать любые ваши идеи. \n\n Контакты:@juliajudina2810\n Резюме можно присылать на почту: hr@resurs-hr.ru\n\n—\n\n👉 Обсуждение вакансии в чате @javascript_jobs","markup":[{"type":"hashtag","offset":0,"length":9,"data":"вакансия"},{"type":"hashtag","offset":10,"length":9,"data":"удаленно"},{"type":"hashtag","offset":20,"length":10,"data":"fullstack"},{"type":"hashtag","offset":31,"length":11,"data":"JavaScript"},{"type":"hashtag","offset":43,"length":7,"data":"NodeJS"},{"type":"hashtag","offset":51,"length":4,"data":"Vue"},{"type":"hashtag","offset":56,"length":7,"data":"middle"},{"type":"hashtag","offset":64,"length":7,"data":"senior"},{"type":"handle","offset":2091,"length":16,"data":"juliajudina2810"},{"type":"link","offset":2142,"length":15,"data":"mailto:hr@resurs-hr.ru"},{"type":"handle","offset":2192,"length":16,"data":"javascript_jobs"}],"date":"2020-06-22T11:12:30+00:00","link":"tg://resolve?domain=javascript_jobs_feed&post=16317","tags":[{"name":"javascript"},{"name":"nodejs"},{"name":"vuejs"},{"name":"graphql"},{"name":"redis"},{"name":"postgresql"},{"name":"docker"},{"name":"gitlab"}],"cities":[{"code":"moscow"}],"allowsRemote":true}}]}}},"context":{}}