{"hash":"f34fd2c444a074f4e0e67d525015a008ef8e766f","data":{"records":{"totalCount":178,"pageInfo":{"totalPages":18,"currentPage":17},"edges":[{"node":{"id":"228589568-1001352129329","title":"Golang разработчик","text":"#вакансия #Москва #офис #Golang #fulltime\nГород и адрес офиса: Москва, м. Новокузнецкая/Павелецкая\nФормат работы: #офис\nЗанятость: #полная\nЗП: от 80к до 140к руб. нетт\n\nSports.ru – ведущий спортивный сайт в России. Мы строим сообщества людей, увлекающихся разными видами спорта, помогаем им развиваться и даем им площадку для общения.\nМы ищем к себе в команду backend-разработчика (golang), который будет разрабатывать новые решения и сервисы и сопровождать полный цикл жизни продукта от проработки архитектуры до деплоя и сопровождения продакшена.\n\nЧто предстоит делать:\n\n* Разрабатывать новые решения и сервисы для пользователей с наибольшим объемом данных.\n* Работать над CI/CD, инструментами деплоя, инфраструктурой: gitlab, docker, Kubernetes, nginx.\n* Работать с такими инструментами, как Jira, git.\n* Сопровождать полный цикл жизни продукта от проработки архитектуры до деплоя и сопровождения продакшена.\n\nЧто мы хотим от вас:\n\n* Опыт разработки на Go ~ от 1 года.\n* Понимание того, как работает HTTP.\n* Уверенные навыки работы с SQL.\n* Понимание микросервисной архитектуры.\n* Знание основных алгоритмов, структур данных и способов защиты информации.\nУ нас: \n* Просторный офис в 7-ми минутах ходьбы от м.Новокузнецкая/Павелецкая.\n* Всё, что вы любите в ИТ-индустрии: высокая белая зарплата, оплачиваемые отпуска и больничные, ДМС со стоматологией, кофе, фрукты и шоколадки.\n* Мы работаем по индивидуальному графику, иногда позволяя себе поработать и удаленно. \n* Мы играем в кикер, с удовольствием едим пряники, печеньки, фрукты и пьем вкусный кофе в офисе.\n* Мы играем в футбол и баскетбол на арендованных площадках, смотрим знаковые матчи на большом проекторе и вообще любим различные внутрикорпоративные активности.\n\nНазвание компании: Sports.ru (Tribuna Digital)\nКого заинтересовало, пишите мне в личку (@pbuyatova), рада буду поделиться подробностями🙂\n Автор @pbuyatova","markup":[{"type":"hashtag","offset":0,"length":9,"data":"вакансия"},{"type":"hashtag","offset":10,"length":7,"data":"Москва"},{"type":"hashtag","offset":18,"length":5,"data":"офис"},{"type":"hashtag","offset":24,"length":7,"data":"Golang"},{"type":"hashtag","offset":32,"length":9,"data":"fulltime"},{"type":"hashtag","offset":114,"length":5,"data":"офис"},{"type":"hashtag","offset":131,"length":7,"data":"полная"},{"type":"link","offset":169,"length":9,"data":"http://Sports.ru"},{"type":"link","offset":1746,"length":9,"data":"http://Sports.ru"},{"type":"handle","offset":1815,"length":10,"data":"pbuyatova"},{"type":"handle","offset":1872,"length":10,"data":"pbuyatova"}],"date":"2020-02-11T09:14:17+00:00","link":"tg://resolve?domain=gogetajobfeed&post=218","tags":[{"name":"go"},{"name":"gitlab"},{"name":"docker"},{"name":"kubernetes"},{"name":"nginx"},{"name":"git"},{"name":"sql"}],"cities":[{"code":"moscow"}],"allowsRemote":true}},{"node":{"id":"637534208-1001089319619","title":"Ruby разработчик","text":"#вакансия #бэкенд #офис #RoR #Ruby #Rails #Москва #фултайм\n\nВакансия: Middle Ruby on Rails backend developer\nКомпания: Revo.ru\nЛокация: Москва, м. Тульская\nФормат работы: офис\nЗанятость: полная, иногда можно работать из дома\nЗарплатная вилка: 170 000 - 190 000 руб net по ТК РФ + оплата конференций и ивентов\n\nРево — финтех компания, на рынке РФ сервис работает с 2012 года, с 2018 запустились в Польше. Поначалу разработку для нас вели команды ДжетРокетса и Эврона, а с выходом в окупаемость мы начали собирать внутреннюю разработку. И за последние несколько лет собрали крутую команду внутренней разработки.\n\nИщу 2-х Middle RoR-разработчиков: \n1 - на разработку&тимлидство B2C-командой (без опыта в тимлидстве, вакансия для тех, кто хочет прокачаться в лида);\n2 - на разработку в B2C-команду.\n\nЧто предлагаем:\n• ЗП до 190 000 руб net, оформление по ТК РФ;\n• место в CoreTeam команды B2C-разработки (4 млн B2C пользователей);\n• оплачиваемые конференции и ивенты;\n• иногородним оказываем помощь с переездом;\n• «железо» на выбор;\n• гибкое начало рабочего дня (8.00-11.00), возможность иногда работать удаленно;\n• турники, «шведская стенка» в 10 метрах от офиса;\n• офис в стиле Loft в Даниловской Мануфактуре, рядом метро Тульская;\n• возможность быстрого роста в тимлида команды B2C-разработки (текущий лид переходит в B2B-\nкоманду);\n• чай, кофе, печенье, снеки, фрукты, оборудованная комфортабельная кухня;\n• тусовки каждую последнюю пятницу месяца;\n\nКоманда B2C-разработки: 2 RoR-разработчика, 3 React-разработчика, 5 mobile-разработчиков, qa. \nСмежники: DevOps, qa, продуктологи, финансисты, рисковики, команда интеграции.\n\nЗадачи:\n• возможность работать и учиться на живом крупном международном проекте;\n• в составе продуктовой Scrum-команды участвовать в полном цикле разработки новых фич для конечных пользователей;\n• разработка новых и поддержка работоспособности существующих облачных сервисов;\n• участие в проектировании и разработке архитектур веб приложений;\n• разработка структур баз данных, хранимых процедур, представлений;\n• декомпозиция и оценка задач, выполнение планов 2-х недельных спринтов;\n• соблюдать баланс между скоростью разработки и перфекционизмом;\n• учиться новому и делиться знаниями с коллегами;\n\nТехнологический стек:\n• Ruby on Rails от 5.2 до 6;\n• PostgreSQL/MySQL;\n• Git, Sidekiq/DelayedJob, Airbrake, ActiveAdmin, Devise, Rspec, FactoryGirl;\n• Обмен между бэком (микросервисы) и фронтом по JSON API (на фронте React + Redux);\n • Nice to have (понимание, как работает): Docker, Kubernetes. \n\nНаши ожидания от кандидата:\n• понимание ООП, MVC, шаблонов проектирования;\n• коммерческий опыт разработки от 3-х лет;\n• понимание принципов RESTful API;\n• умение различать business critical и MVP участки проекта;\n• умение оценивать и выдерживать сроки разработки;\n• опыт работы с PostgreSQL, умение составлять сложные запросы, оптимизировать существующие на уровне чистого SQL;\n• опыт работы с системами кеширования;\n• следование стандартам разработки: стайлгайды, тесты, code review;\n\nДополнительным плюсом будет:\n• опыт работы в финтехе или продуктовой разработке;\n• опыт смены языка разработки и/или предметной области;\n• опыт разработки на функциональных языках.\n\nКонтакты: @akssld","markup":[{"type":"hashtag","offset":0,"length":9,"data":"вакансия"},{"type":"hashtag","offset":10,"length":7,"data":"бэкенд"},{"type":"hashtag","offset":18,"length":5,"data":"офис"},{"type":"hashtag","offset":24,"length":4,"data":"RoR"},{"type":"hashtag","offset":29,"length":5,"data":"Ruby"},{"type":"hashtag","offset":35,"length":6,"data":"Rails"},{"type":"hashtag","offset":42,"length":7,"data":"Москва"},{"type":"hashtag","offset":50,"length":8,"data":"фултайм"},{"type":"bold","offset":60,"length":9,"data":""},{"type":"bold","offset":109,"length":9,"data":""},{"type":"link","offset":119,"length":7,"data":"http://Revo.ru"},{"type":"bold","offset":127,"length":9,"data":""},{"type":"bold","offset":156,"length":14,"data":""},{"type":"bold","offset":176,"length":10,"data":""},{"type":"bold","offset":225,"length":17,"data":""},{"type":"bold","offset":310,"length":4,"data":""},{"type":"bold","offset":611,"length":35,"data":""},{"type":"bold","offset":796,"length":16,"data":""},{"type":"bold","offset":1450,"length":23,"data":""},{"type":"bold","offset":1545,"length":9,"data":""},{"type":"bold","offset":1625,"length":8,"data":""},{"type":"bold","offset":2225,"length":22,"data":""},{"type":"bold","offset":2523,"length":28,"data":""},{"type":"bold","offset":3009,"length":29,"data":""},{"type":"bold","offset":3191,"length":9,"data":""},{"type":"handle","offset":3201,"length":7,"data":"akssld"}],"date":"2020-02-04T13:31:23+00:00","link":"tg://resolve?domain=rubyjob&post=608","tags":[{"name":"ruby"},{"name":"ruby-on-rails"},{"name":"dotnet"},{"name":"reactjs"},{"name":"mobile"},{"name":"postgresql"},{"name":"mysql"},{"name":"git"},{"name":"devise"},{"name":"json"},{"name":"redux"},{"name":"docker"},{"name":"kubernetes"},{"name":"sql"},{"name":"react-redux"}],"cities":[{"code":"moscow"},{"code":"lida"},{"code":"nice"}],"allowsRemote":true}},{"node":{"id":"634388480-1001089319619","title":"Ruby developer","text":"#ITиDigital #вакансия #backend #Senior #Middle #RubyonRails #RoR #developer\nГород: #Москва\nПозиция: Senior/Middle #Ruby developer / #Teamlead \nФормат работы: #офис или #удалёнка, полная занятость \nЗарплатная вилка: 200000 руб (обсуждаем индивидуально)\n\nВ IT-холдинг, быстрорастущий #стартап, онлайн-платформу, которая объединяет технологичные продукты в одну экосистему, требуется Senior или Middle Ruby developer.\n\n💥Чем предстоит заниматься:\n- Разрабатывать API для Frontend'a SPA-приложения;\n- Интеграции с внешними сервисами;\n- Оптимизация запросов к БД;\n- Писать качественный и поддерживаемый код.\n\n💡Что нам важно:\n- Умение работать в команде, желание обмениваться опытом с коллегами;\n- Знание ООП и паттернов;\n- Опыт написания REST API и RSpec;\n- Понимание RoR, ActiveRecord, PostgreSQL;\n- Готовность брать ответственность;\n- Желание учиться новым технологиям.\n\n💰Что мы предлагаем:\n- Работу в офисе м. Марьина Роща/Менделеевская или #удалённо.\n- Белая зарплата, #ДМС, скидки в компаниях нашего холдинга.\n- Слаженную команду, которая готова научить всему, что умеет;\n- Ноутбук (mac или linux) и монитор, дух стартапа и стабильность большой компании.\n\nРезюме на @tommyuber","markup":[{"type":"hashtag","offset":0,"length":11,"data":"ITиDigital"},{"type":"hashtag","offset":12,"length":9,"data":"вакансия"},{"type":"hashtag","offset":22,"length":8,"data":"backend"},{"type":"hashtag","offset":31,"length":7,"data":"Senior"},{"type":"hashtag","offset":39,"length":7,"data":"Middle"},{"type":"hashtag","offset":47,"length":12,"data":"RubyonRails"},{"type":"hashtag","offset":60,"length":4,"data":"RoR"},{"type":"hashtag","offset":65,"length":10,"data":"developer"},{"type":"hashtag","offset":83,"length":7,"data":"Москва"},{"type":"hashtag","offset":114,"length":5,"data":"Ruby"},{"type":"hashtag","offset":132,"length":9,"data":"Teamlead"},{"type":"hashtag","offset":158,"length":5,"data":"офис"},{"type":"hashtag","offset":168,"length":9,"data":"удалёнка"},{"type":"hashtag","offset":282,"length":8,"data":"стартап"},{"type":"hashtag","offset":941,"length":9,"data":"удалённо"},{"type":"hashtag","offset":970,"length":4,"data":"ДМС"},{"type":"handle","offset":1168,"length":10,"data":"tommyuber"}],"date":"2020-01-31T19:35:30+00:00","link":"tg://resolve?domain=rubyjob&post=605","tags":[{"name":"ruby"},{"name":"ruby-on-rails"},{"name":"rest"},{"name":"activerecord"},{"name":"postgresql"},{"name":"linux"}],"cities":[{"code":"moscow"}],"allowsRemote":true}},{"node":{"id":"85983232-1001375797688","title":".net developer","text":"#вакансия #Москва #senior #.NET #C# \n\n📌Локация: Москва\n📌Формат: офис/удаленка\n📌Уровень: senior\n📌Зп: 180 -220 тыс. рублей net\n\nКрупный российский ИТ- интегратор ищет кандидатов на вакансию Senior Developer .NET С# Backend для участия в масштабном проекте по разработке высоконагруженной билетной системы (до 10 млн. запросов в день). \n\n🖊Задачи:\n- разработка алгоритмов и структур данных;\n- написание исходных кодов и их отладка;\n- сопровождение программных продуктов.\n\n🖊Пожелания к кандидату:\n- опыт разработки многопоточных приложений с использованием Task и async / await;\n- опыт разработки API;\n- понимание и применение паттернов проектирования;\n- обязательное знание и понимание основ ООП;\n- знание теории баз данных;\n- знание протоколов передачи данных;\n- умение разбираться в чужом коде;\n- опыт работы с устройствами печати чеков, приема/выдачи купюр/монет как преимущество.\n\n🖊Условия:\n- использование современных средств организации разработки;\n- возможность обучения, самостоятельных R&D проектов, аксельратор стартапов;\n- компенсация оплаты проезда, сотовой связи, парковки, бензина и т.п. – по итогам аттестации;\n-ДМС,  терапевт в офисе;\n- корпоративные цены на фитнес (в здании б/ц) и уроки английского.\n📥Контакты: tk@everapeople.ru","markup":[{"type":"hashtag","offset":0,"length":9,"data":"вакансия"},{"type":"hashtag","offset":10,"length":7,"data":"Москва"},{"type":"hashtag","offset":18,"length":7,"data":"senior"},{"type":"link","offset":1233,"length":17,"data":"mailto:tk@everapeople.ru"}],"date":"2020-01-31T15:41:51+00:00","link":"tg://resolve?domain=DotNetRuJobsFeed&post=82","tags":[{"name":"dotnet"},{"name":"csharp"}],"cities":[{"code":"moscow"}],"allowsRemote":true}},{"node":{"id":"216006656-1001352129329","title":"Golang разработчик","text":"и ещё одна golang-вакансия от нас\n#вакансия\n\nGolang backend developer в питерский офис компании Cryptopay (СПб).\n\nОдин из наших продуктов - Buy Now, сервис по продаже криптовалют с оплатой по банковской карте. В наших планах превращение данного продукта в полноценный платежный шлюз для приема фиатных платежей и их обмена на криптовалюту, способный к интеграции со сторонними сервисами. Для BuyNow мы ищем Golang-разработчика, готового улучшать и поддерживать продукт, а так же расти и развивать команду.\n\nЧто нужно будет делать:\n🔸Проектировать и создавать сервисную архитектуру приложения\n🔸Переработать существующие модули системы\n🔸Разрабатывать новую функциональность\n🔸Проводить code review\n🔸Развивать инструменты мониторинга и обработки нештатных ситуаций\n🔸Разрабатывать высоконагруженные API\n🔸Анализировать поступающие задачи и находить оптимальные пути реализации\n\nПридется погрузиться в:\n🔸Распределенные системы;\n🔸Криптографию и работу с конфиденциальными данными;\n🔸Финтех и математику.\n\nВ работе мы используем:\n🔸Golang\n🔸Vue\n🔸PostgreSQL;\n🔸Redis;\n🔸Docker;\n\nТакже не помешает:\n🔸Опыт работы с Prometheus;\n🔸Опыт профилирования Golang-приложений;\n🔸Наличие опыта работы с криптовалютами;\n🔸Опыт работы с Ansible;\n\nЧто мы можем предложить:\n🔸Сплоченную и дружную команду, работающую на результат\n🔸Минимум бюрократии и микроменеджмента\n🔸Максимум поддержки и открытости\n🔸Индивидуальный подход к распределению задач и определению зон ответственности\n🔸Непростые задачи и интересные проекты\n🔸Возможность влиять на процессы и результат\n🔸Гибкий график\n🔸Возможность периодической удаленной работы\n🔸Конкурентную зарплату\n🔸Трудоустройство по ТК РФ\n\nЗарплата: от 200к на руки (смотрим кандидатов разного уровня, потолка нет) Пусть будут условные 300.\nВозможна удаленная работа после прохождения испытательного срока.\n\nКонтакты: @gonzogirl\n Автор @gonzogirl","markup":[{"type":"hashtag","offset":34,"length":9,"data":"вакансия"},{"type":"handle","offset":1844,"length":10,"data":"gonzogirl"},{"type":"handle","offset":1862,"length":10,"data":"gonzogirl"}],"date":"2020-01-31T11:21:55+00:00","link":"tg://resolve?domain=gogetajobfeed&post=206","tags":[{"name":"go"},{"name":"vuejs"},{"name":"postgresql"},{"name":"redis"},{"name":"docker"},{"name":"ansible"}],"cities":[],"allowsRemote":true}},{"node":{"id":"214958080-1001352129329","title":"Go developer","text":"#вакансия #fulltime #remote #office #relocate #Amsterdam\n\nSenior Software Engineer - Kickstox (Amsterdam, The Netherlands)\n€48.000 - €58.000 / year (gross)\n\nAt Kickstox we have the modest goal of reinventing fantasy football and transforming it into a 24/7, real time game that allows football fans to meet, greet and compete. For this we have created the Kickstox exchange where users can trade fictional stocks of their favourite football players, check how they perform in real-time, compete in different competition formats and challenge their friends to prove them they know best about football, every day – every play!\nWe need you to be the best of both worlds; a manager who takes complete control of the Tech team and also a creative, senior back-end developer that is not afraid to get his or her hands dirty. The foundations have been laid but the quest to expand and improve is never ending and for that we look to you. You are in charge of reaching the milestones, building responsive and elegant web applications, improve usability and customer experience and find solutions to the everyday challenges that come up.\nYou will have a small team of different skill sets to manage with a high probability of expansion in the near future. \n\nYour skills:\nA great sense of ownership and responsibility\nInsightfulness and a hawk’s eye for detail\nConstant drive to grow fast and improve yourself\nA problem-solving mindset that thinks in solutions\nResourcefulness, thinking creatively and optimistically \nProven experience with managing multi-talented and multi-national teams\nProject management with teams of varying technical skills using scrum protocols\nFull professional command of English\n\nProfound working knowledge with:\n▪ Go \n▪ Postgres(TimescaleDB)\n▪ Redis\n▪ RabbitMQ\n▪ MQTT/Websocket\n\nOur infrastructure runs over Google Cloud Platform using Docker, Kubernetes and Gitlab. And is provisioned by Ansible.\n\nAnd a love for the beautiful game is definitely a pro!\n\nWhat can we offer\nAs a key part of the technical heart of the company you get the freedom to think and work out new functions. Ideas and suggestions are greatly appreciated and more importantly, they are listened to. We want to expand and rapidly conquer this market in the coming years. This offers opportunity for you to become included in the success of the company.\n\nContact @cra3y\n Автор @cra3y","markup":[{"type":"hashtag","offset":0,"length":9,"data":"вакансия"},{"type":"hashtag","offset":10,"length":9,"data":"fulltime"},{"type":"hashtag","offset":20,"length":7,"data":"remote"},{"type":"hashtag","offset":28,"length":7,"data":"office"},{"type":"hashtag","offset":36,"length":9,"data":"relocate"},{"type":"hashtag","offset":46,"length":10,"data":"Amsterdam"},{"type":"handle","offset":2353,"length":6,"data":"cra3y"},{"type":"handle","offset":2367,"length":6,"data":"cra3y"}],"date":"2020-01-31T11:21:41+00:00","link":"tg://resolve?domain=gogetajobfeed&post=205","tags":[{"name":"go"},{"name":"playframework"},{"name":"web"},{"name":"postgresql"},{"name":"redis"},{"name":"rabbitmq"},{"name":"websocket"},{"name":"cloud"},{"name":"docker"},{"name":"kubernetes"},{"name":"gitlab"},{"name":"ansible"},{"name":"google-cloud-platform"}],"cities":[{"code":"amsterdam"}],"allowsRemote":true}},{"node":{"id":"205520896-1001352129329","title":"Golang developer","text":"Всем опять привет. Продолжаем искать того самого гошника 🙂\n\nМисс Кутёж, [9 Jan 2020, 16:09:20]:\n#вакансия\n\nGolang backend developer в питерский офис компании Cryptopay (СПб).\n\nУже больше 5 лет Cryptopay помогает людям со всего мира распоряжаться своими криптоактивами. Мы - сильная, слаженная команда, но внезапно потеряли golang-бойца.\n\nЧто нужно будет делать:\n🔸Разработка сервисов для использования их в основном приложении\n🔸Поддержка существующих продуктов на Golang\n🔸Сопровождение проекта от оценки до поддержки\n\nНаши ожидания:\n🔸Отличные знания Golang\n🔸Хорошие знания PostgreSQL\n🔸Опыт работы с: Redis, RabbitMQ, ELK\n🔸Опыт работы с: Docker\n🔸Умение работать с чужим кодом\n🔸Отличная самоорганизация\n\nБудет плюсом:\n🔸Знание/Умение читать код Ruby и Ruby on Rails\n🔸Опыт работы с gRPC\n🔸Опыт работы с NATS\n🔸Опыт профилирования Golang приложений\n🔸Наличие опыта работы с криптовалютами\nОпыт работы с Ansible\n🔸Английский язык, чтобы было комфортней общаться с европейским офисом\n\nТехническая составляющая проекта:\n\nНаш кошелек сейчас проходит этап роста - мы разделяем монолитный проект на микросервисы, переходим на SPA, оптимизируем AWS инфраструктуру. \n\nНаш стэк - #Ruby #RoR #GoLang #PostgreSQL #Sidekiq #Redis #Elasticsearch #gRPC #NATS.\n\nОчень большим плюс будет наличие опыта в финтехе / крипто индустрии.\n\nЗарплата: от 200к на руки (смотрим кандидатов разного уровня, потолка нет) Пусть будут условные 300.\nВозможна удаленная работа после прохождения испытательного срока.\n\nКонтакты: @gonzogirl\n\nIlya Kaznacheev🥤, [9 Jan 2020, 16:30:34 (09.01.2020, 16:30:41)]:\nЧто, все ещё никто не может пройти ваш тест?)))\n Автор @gonzogirl","markup":[{"type":"hashtag","offset":97,"length":9,"data":"вакансия"},{"type":"hashtag","offset":1177,"length":5,"data":"Ruby"},{"type":"hashtag","offset":1183,"length":4,"data":"RoR"},{"type":"hashtag","offset":1188,"length":7,"data":"GoLang"},{"type":"hashtag","offset":1196,"length":11,"data":"PostgreSQL"},{"type":"hashtag","offset":1208,"length":8,"data":"Sidekiq"},{"type":"hashtag","offset":1217,"length":6,"data":"Redis"},{"type":"hashtag","offset":1224,"length":14,"data":"Elasticsearch"},{"type":"hashtag","offset":1239,"length":5,"data":"gRPC"},{"type":"hashtag","offset":1245,"length":5,"data":"NATS"},{"type":"handle","offset":1501,"length":10,"data":"gonzogirl"},{"type":"handle","offset":1634,"length":10,"data":"gonzogirl"}],"date":"2020-01-17T14:02:05+00:00","link":"tg://resolve?domain=gogetajobfeed&post=196","tags":[{"name":"go"},{"name":"postgresql"},{"name":"redis"},{"name":"rabbitmq"},{"name":"docker"},{"name":"ruby"},{"name":"ruby-on-rails"},{"name":"ansible"},{"name":"amazon-web-services"},{"name":"elasticsearch"}],"cities":[],"allowsRemote":true}},{"node":{"id":"204472320-1001352129329","title":"Go разработчик","text":"#вакансия #СПБ #fulltime \nНазвание компании: Devim \nНазвание вакансии: Tech Lead \nЗарплатная вилка (после налогов в стандартной валюте расчетов компании): 250 000-380 000 RUB\nДоступна ли удалённая работа: Нет, офис, полный день.\nГород: Санкт-Петербург \nСписок языков, которые необходимо знать: Русский, Английский \n\nTechStack: PHP, Go, PostgreSQL, RabbitMQ, GRPC, Consul, Docker, Redis, Prometheus, Gitlab-CI, Kubernetes.\n • умение работать в условиях постоянных изменений, быстрая реакция на них и коммуникация с командой;\n\n • менторство;\n\n • умение понятно ставить задачи внутри разработки, четко отслеживать процесс их выполнения;\n\n • умеете писать чистый, понятный и поддерживаемый код на PHP и Go, чтобы оценивать код, который пишет команда;\n\n • опытом работы с транспортами (от SOAP до MQ);\n\n • проектирование распределенных систем.\n\nДано: 6 бэкендеров (Go+PHP), техдолг, лёгкая франкенштейнщина на бэке, бизнес хочет всё вчера, команда хочет рефачить, CTO хочет жить.\nНадо: команда х2 в течение полугода, roadmap работы с техдолгом, единый архитектурный подход для разработки нового функционала, баланс между “срочно в релиз” и “ну давайте мы еще полгодика порефачим, а там посмотрим”, счастье, мир и дружбомагия. Тех Лиду кодить не нужно, но нужно понимать, что кодят ребята, и может ли это отхлебнуть в будущем. А вот лидить, менторить и структурировать команду очень нужно.\nКонтактное лицо: Полина - @polina_vel\n Автор @polina_vel","markup":[{"type":"hashtag","offset":0,"length":9,"data":"вакансия"},{"type":"hashtag","offset":10,"length":4,"data":"СПБ"},{"type":"hashtag","offset":15,"length":9,"data":"fulltime"},{"type":"handle","offset":1410,"length":11,"data":"polina_vel"},{"type":"handle","offset":1429,"length":11,"data":"polina_vel"}],"date":"2020-01-14T19:17:01+00:00","link":"tg://resolve?domain=gogetajobfeed&post=195","tags":[{"name":"go"},{"name":"php"},{"name":"postgresql"},{"name":"rabbitmq"},{"name":"docker"},{"name":"redis"},{"name":"gitlab"},{"name":"kubernetes"},{"name":"soap"}],"cities":[],"allowsRemote":true}},{"node":{"id":"203423744-1001352129329","title":"Golang разработчик","text":"#вакансия #Москва #Орел #fulltime #golang #go\nПривет!\nИщу в команду Rubetek - ведущего российского разработчика в области IoT решений - Go-разработчика для создания новых и поддержки текущих веб-сервисов. \n🔸 Локация: Москва, м.Павелецкая или Орел (для героев)\n🔸 Формат работы: офис (1-2 дня в неделю можно удаленно)\n🔸 Занятость: полная\n🔸 Деньги: 120 000 - 160 000 на руки + премии/плюшки/бонусы\nВам предстоит:\n🔹 Разработка веб-сервисов работающих с большим количеством данных;\n🔹 Разработка системы управления распределенной инфраструктурой.\nОт вас:\n🔹 Отличное знание Go;\n🔹 Хорошее знание сетевых протоколов;\n🔹 Знание принципов построения высоконагруженных систем;\n🔹 Опыт написания асинхронных веб-приложений;\n🔹 Опыт работы с SQL базами данных: PostgreSQL/MySQL;\n🔹 Знание Git, понимание методологии Git Flow;\n🔹 Английский на уровне свободного чтения технической документации;\n🔹 Опыт работы с трекинговой системой (у нас Jira).\nОт нас:\n🔸 График 5/2 с плавающим началом рабочего дня с (9 до 11 часов);\n🔸 Испытательный срок – 3 месяца;\n🔸 Комфортабельный лофт;\n🔸 Деньги, любовь, почет и уважение.\n Автор @Mesmor","markup":[{"type":"hashtag","offset":0,"length":9,"data":"вакансия"},{"type":"hashtag","offset":10,"length":7,"data":"Москва"},{"type":"hashtag","offset":18,"length":5,"data":"Орел"},{"type":"hashtag","offset":24,"length":9,"data":"fulltime"},{"type":"hashtag","offset":34,"length":7,"data":"golang"},{"type":"hashtag","offset":42,"length":3,"data":"go"},{"type":"handle","offset":1117,"length":7,"data":"Mesmor"}],"date":"2020-01-14T11:23:12+00:00","link":"tg://resolve?domain=gogetajobfeed&post=194","tags":[{"name":"go"},{"name":"sql"},{"name":"postgresql"},{"name":"mysql"},{"name":"git"}],"cities":[{"code":"moscow"}],"allowsRemote":true}},{"node":{"id":"199229440-1001352129329","title":"Golang developer","text":"#вакансия\n\nGolang backend developer в питерский офис компании Cryptopay (СПб).\n\nУже больше 5 лет Cryptopay помогает людям со всего мира распоряжаться своими криптоактивами. Мы - сильная, слаженная команда, но внезапно потеряли golang-бойца.\n\nЧто нужно будет делать:\n🔸Разработка сервисов для использования их в основном приложении\n🔸Поддержка существующих продуктов на Golang\n🔸Сопровождение проекта от оценки до поддержки\n\nНаши ожидания:\n🔸Отличные знания Golang\n🔸Хорошие знания PostgreSQL\n🔸Опыт работы с: Redis, RabbitMQ, ELK\n🔸Опыт работы с: Docker\n🔸Умение работать с чужим кодом\n🔸Отличная самоорганизация\n\nБудет плюсом:\n🔸Знание/Умение читать код Ruby и Ruby on Rails\n🔸Опыт работы с gRPC\n🔸Опыт работы с NATS\n🔸Опыт профилирования Golang приложений\n🔸Наличие опыта работы с криптовалютами\nОпыт работы с Ansible\n🔸Английский язык, чтобы было комфортней общаться с европейским офисом\n\nТехническая составляющая проекта:\n\nНаш кошелек сейчас проходит этап роста - мы разделяем монолитный проект на микросервисы, переходим на SPA, оптимизируем AWS инфраструктуру. \n\nНаш стэк - #Ruby #RoR #GoLang #PostgreSQL #Sidekiq #Redis #Elasticsearch #gRPC #NATS.\n\nОчень большим плюс будет наличие опыта в финтехе / крипто индустрии.\n\nЗарплата: от 200к на руки (смотрим кандидатов разного уровня, потолка нет) Пусть будут условные 300.\nВозможна удаленная работа после прохождения испытательного срока.\n\nКонтакты: @gonzogirl\n Автор @gonzogirl","markup":[{"type":"hashtag","offset":0,"length":9,"data":"вакансия"},{"type":"hashtag","offset":1080,"length":5,"data":"Ruby"},{"type":"hashtag","offset":1086,"length":4,"data":"RoR"},{"type":"hashtag","offset":1091,"length":7,"data":"GoLang"},{"type":"hashtag","offset":1099,"length":11,"data":"PostgreSQL"},{"type":"hashtag","offset":1111,"length":8,"data":"Sidekiq"},{"type":"hashtag","offset":1120,"length":6,"data":"Redis"},{"type":"hashtag","offset":1127,"length":14,"data":"Elasticsearch"},{"type":"hashtag","offset":1142,"length":5,"data":"gRPC"},{"type":"hashtag","offset":1148,"length":5,"data":"NATS"},{"type":"handle","offset":1404,"length":10,"data":"gonzogirl"},{"type":"handle","offset":1422,"length":10,"data":"gonzogirl"}],"date":"2020-01-10T08:50:26+00:00","link":"tg://resolve?domain=gogetajobfeed&post=190","tags":[{"name":"go"},{"name":"postgresql"},{"name":"redis"},{"name":"rabbitmq"},{"name":"docker"},{"name":"ruby"},{"name":"ruby-on-rails"},{"name":"ansible"},{"name":"amazon-web-services"},{"name":"elasticsearch"}],"cities":[],"allowsRemote":true}}]}},"context":{}}