{"hash":"f5f6bf98bd95e769321482904cbbd488f77922fd","data":{"records":{"id":"mobile","name":"mobile","belongsTo":{"totalCount":307,"pageInfo":{"totalPages":31,"currentPage":16},"edges":[{"node":{"__typename":"Job","id":"71907147776-1001054966032","title":"Ios разработчик","text":"#вакансия #удаленно #частичная #IOS #Swift #нетология\n\n❗️«Нетология» ищет iOS—разработчиков на Swift уровня middle и выше для преподавания на курсах.\nРабота частичная/удаленная❗️\n\nВ чем можно участвовать: \n📌Проводить лекции и открытые занятия для студентов, быть для них тренером, помогать делать дипломный проект\n📌Участвовать в создании новых образовательных программ, быть автором курса\n\nЧто мы предлагаем: \n🔹Удаленную работу, которую можно совмещать с основной (объем, занятость обсуждаются индивидуально)\n🔹Личный PR как эксперта\n🔹Возможность прокачивать спикерские навыки и быть частью сообщества экспертов одной из лучших IT-компаний\n🔹З/п в зависимости от объема занятости ( до 100 тыс. руб.)\n\nУспешные специалисты, которые работают у нас, рассказывают о том, как это повлияло на их жизнь и карьеру ➡️//habr.com/ru/company/netologyru/blog/423023/\n\nУзнать подробнее о вакансии и отправить резюме: a.ogarkowa@netology.ru или сюда @mileyet","markup":[{"type":"hashtag","offset":0,"length":9,"data":"вакансия"},{"type":"hashtag","offset":10,"length":9,"data":"удаленно"},{"type":"hashtag","offset":20,"length":10,"data":"частичная"},{"type":"hashtag","offset":31,"length":4,"data":"IOS"},{"type":"hashtag","offset":36,"length":6,"data":"Swift"},{"type":"hashtag","offset":43,"length":10,"data":"нетология"},{"type":"link","offset":814,"length":43,"data":"http://habr.com/ru/company/netologyru/blog/423023/"},{"type":"link","offset":907,"length":22,"data":"mailto:a.ogarkowa@netology.ru"},{"type":"handle","offset":939,"length":8,"data":"mileyet"}],"date":"2020-06-23T22:46:53+00:00","link":"tg://resolve?domain=mobile_jobs&post=68576","tags":[{"name":"mobile"},{"name":"ios"},{"name":"swift"}],"cities":[],"allowsRemote":true}},{"node":{"__typename":"Job","id":"71900856320-1001054966032","title":"Android разработчик","text":"#Android #Java #Kotlin #вакансия \n#НижнийНовгород #Ижевск #Владимир #Белгород \nВакансия: Android разработчик . Готовы принят в штат команды мобильной разработки. Локация: Нижний Новгород, Ижевск, Владимир или Белгород.\nРассмотрим кандидатов из любого из перечисленных регионов или готовых переехать туда.\nКомпания: разработчик ИТ, продукты \"под заказ\", 90% приложений для банковской сферы.\nФормат работы: Office/remote Занятость: Full-time Зарплатная вилка: 90.000-180.000 net (по итогам собеседования, есть индексация и рост з\\п)\n🏢Адреса офисов в указанных городах:г. Н.Новгород, ул.Керченская, д.13;\nг. Владимир, ул.Горького, д.56а, г. Ижевск, ул. Вадима Сивкова.д.290 и г.Белгород (возможен формат домашнего офиса или аренды офиса в доступности от кандидата).\n☕️Формат работы: офис,начало-конец рабочего дня гибкие,по договоренности,официальное оформление. Удаленный вариант есть,но для указанных регионов.\n🔆Занятость: полный день\n📋Описание вакансии: ищу с опытом программирования на Java и/или Kotlin.\n😍Гибкий подход к каждому специалисту, корпоративный английский; стремительно растущая компания;меняем жизнь к лучшему при помощи технологий IT;оплачиваемые конференции и внутренние тренинги/курсы;ежегодный пересмотр заработной платы по результатам работы. @ElenaTsatsenko","markup":[{"type":"hashtag","offset":0,"length":8,"data":"Android"},{"type":"hashtag","offset":9,"length":5,"data":"Java"},{"type":"hashtag","offset":15,"length":7,"data":"Kotlin"},{"type":"hashtag","offset":23,"length":9,"data":"вакансия"},{"type":"hashtag","offset":34,"length":15,"data":"НижнийНовгород"},{"type":"hashtag","offset":50,"length":7,"data":"Ижевск"},{"type":"hashtag","offset":58,"length":9,"data":"Владимир"},{"type":"hashtag","offset":68,"length":9,"data":"Белгород"},{"type":"handle","offset":1266,"length":15,"data":"ElenaTsatsenko"}],"date":"2020-06-23T20:07:25+00:00","link":"tg://resolve?domain=mobile_jobs&post=68570","tags":[{"name":"mobile"},{"name":"android"},{"name":"java"},{"name":"kotlin"},{"name":"dotnet"}],"cities":[{"code":"izhevsk"},{"code":"vladimir"},{"code":"belgorod"},{"code":"nizhny-novgorod"}],"allowsRemote":true}},{"node":{"__typename":"Job","id":"71893516288-1001054966032","title":"Android разработчик","text":"#вакансия #Москва #fulltime #android \nКомпания: Trinity Monsters\nПозиция: Android разработчик\nЛокация: Россия, Москва, офис в самом центре, у метро Охотный Ряд\nЗанятость: полная \n\nЗП: от 150.000 до 250.000 руб. на руки\n\nОт вас мы ждём:\n\n- отличные знания Kotlin\n- опыт работы с git\n- понимание принципов ООП\n- понимание принципы проектирования SOLID\n-MVP/MVVM, Clean Architecture; понимание DI;\n- умение расставлять приоритеты и эффективно планировать рабочее время\n\nПочему мы:\n⁃ гибкий график\n⁃ отлаженный менеджмент\n⁃ большие проекты \n⁃ работа с разнообразными интересными и амбициозными проектами\n⁃ сложные технические задачи, возможность развития и роста\n⁃ просторный комфортный офис в 2-х минутах от метро Охотный ряд с кухней, чаем, кофе и т.д.\n⁃ возможность влиять на продукт и вносить свои идеи\n⁃ оформление по ТК РФ\n\nДля связи @vicemik","markup":[{"type":"hashtag","offset":0,"length":9,"data":"вакансия"},{"type":"hashtag","offset":10,"length":7,"data":"Москва"},{"type":"hashtag","offset":18,"length":9,"data":"fulltime"},{"type":"hashtag","offset":28,"length":8,"data":"android"},{"type":"handle","offset":836,"length":8,"data":"vicemik"}],"date":"2020-06-23T16:29:03+00:00","link":"tg://resolve?domain=mobile_jobs&post=68563","tags":[{"name":"mobile"},{"name":"android"},{"name":"kotlin"},{"name":"git"},{"name":"mvvm"}],"cities":[{"code":"moscow"}],"allowsRemote":false}},{"node":{"__typename":"Job","id":"71887224832-1001054966032","title":"Ios developer","text":"#вакансия #спб #ios #middle #senior #spb #офис #IoT #умныйдом \nMiddle/Senior iOS developer \nReady for Sky 🚀 \nhttps://readyforsky.com/ru/career/ \n📍 полный день, удаленно/офис (сейчас вся компания работает удаленно) \nМы ищем iOS developer, который будет разрабатывать приложение, использующее данные с IoT-устройств для предоставления пользователям нужных товаров и услуг \n💡 Используем: Swift, Objective-C; Jenkins; GraphQL; RxSwift; MVC, MVVM и Viper \nВ команде: разрабатываем новый функционал приложения, внутренние фреймворки (Private pods), фреймворки для общего доступа; пишем Unit тесты; принимаем участие в создании протоколов работы с умными устройствами; Refactoring и Code-review. \nПредлагаем: \nРаботу в профессиональной команде (team lead, senior, middle), более 300 000 активных пользователей приложения. \nПолностью белую ЗП от 130 до 250 тыс. руб. на руки \nПосле исп.срока корпоративный английский \n📬 Пиши: @Rupeka_Natali","markup":[{"type":"hashtag","offset":0,"length":9,"data":"вакансия"},{"type":"hashtag","offset":10,"length":4,"data":"спб"},{"type":"hashtag","offset":15,"length":4,"data":"ios"},{"type":"hashtag","offset":20,"length":7,"data":"middle"},{"type":"hashtag","offset":28,"length":7,"data":"senior"},{"type":"hashtag","offset":36,"length":4,"data":"spb"},{"type":"hashtag","offset":41,"length":5,"data":"офис"},{"type":"hashtag","offset":47,"length":4,"data":"IoT"},{"type":"hashtag","offset":52,"length":9,"data":"умныйдом"},{"type":"bold","offset":63,"length":27,"data":""},{"type":"bold","offset":92,"length":13,"data":""},{"type":"link","offset":110,"length":34,"data":"https://readyforsky.com/ru/career/"},{"type":"bold","offset":225,"length":13,"data":""},{"type":"bold","offset":376,"length":11,"data":""},{"type":"bold","offset":454,"length":10,"data":""},{"type":"bold","offset":693,"length":11,"data":""},{"type":"bold","offset":916,"length":5,"data":""},{"type":"handle","offset":922,"length":14,"data":"Rupeka_Natali"}],"date":"2020-06-23T16:01:18+00:00","link":"tg://resolve?domain=mobile_jobs&post=68557","tags":[{"name":"mobile"},{"name":"ios"},{"name":"swift"},{"name":"objective-c"},{"name":"jenkins"},{"name":"graphql"},{"name":"mvvm"}],"cities":[],"allowsRemote":true}},{"node":{"__typename":"Job","id":"71877787648-1001054966032","title":"Ios разработчик","text":"#вакансия #IOS разработчик #ObjectiveC\n\nРабота в офисе или УД\nЗП от 120 000 до 240 000 руб. на руки\nг. Москва\n\nМы ищем коллегу iOS-разработчика в команду, основными задачами которой является разработка приложений для ведущих операторов сотовой связи, компаний в сфере финансов и телекоммуникаций. \n \nДолжностные обязанности: \n∙ Разработка и поддержка новых приложений;\n∙ Поддержка имеющихся приложений;\n∙ Создание библиотек;\n∙ Верстка по макетам с нарезкой. \n \nНеобходимые навыки: \n∙ Опыт работы от 2-х лет;\n∙ Наличие законченных проектов; \n∙ Уверенное знание iOS SDK 7+;\n∙ Опыт разработки кастомных UI; \n∙ Опыт работы с анимацией;\n∙ Опыт работы с push-нотификациями, сетью, базами данных, структурами данных;\n∙ Опыт работы с Git;\n∙ Хорошее знание ООП и паттернов проектирования;\n∙ Умение разбираться в чужом коде. \n \nБудет плюсом: \n∙ Опыт работы с другими языками программирования;\n∙ Опыт работы с MVVM;\n∙ Опыт публикации приложений в App Store;\n∙ Знание классических алгоритмов и структур данных. \n \nМы предлагаем: \n∙ Достойную заработную плату;\n∙ График работы понедельник-пятница 9.00-18.00;\n∙ Дружный коллектив, творческая самостоятельность в работе.\n\nКомпания ИММО – VAS-интегратор, ведущий поставщик сервисов для операторов связи. \nМы сотрудничаем с более чем 60 операторами сотовой связи в 14 странах.\nМы разрабатываем, внедряем и развиваем высокотехнологичные сервисы «под ключ».\nНаши партнеры – операторы мобильной и фиксированной связи, производители мобильных и сетевых устройств нового поколения, ведущие социальные сети, поставщики и производители технологических VAS-решений, Правообладатели (Universal, Sony, Warner, EMI, Disney).\n\ntel: +7(985)896-83-99\nhr@immo.ru","markup":[{"type":"hashtag","offset":0,"length":9,"data":"вакансия"},{"type":"hashtag","offset":10,"length":4,"data":"IOS"},{"type":"hashtag","offset":27,"length":11,"data":"ObjectiveC"},{"type":"link","offset":1653,"length":16,"data":"tel:+7(985)896-83-99"},{"type":"link","offset":1670,"length":10,"data":"mailto:hr@immo.ru"}],"date":"2020-06-23T14:08:24+00:00","link":"tg://resolve?domain=mobile_jobs&post=68548","tags":[{"name":"mobile"},{"name":"ios"},{"name":"git"},{"name":"mvvm"}],"cities":[{"code":"moscow"}],"allowsRemote":false}},{"node":{"__typename":"Job","id":"71875690496-1001054966032","title":"Ios разработчик","text":"❗️Вакансия IOS разработчик❗️\n#вакансия     #IOS   #офис\n\nГород: Санкт-Петербург\nФормат работы: офис\nЗанятость: полная\n💰ЗП: от 180 до 210\nКомпания: ООО Липтсофт\n\nОбязанности:\n✔️Разработка нативных iOS приложений (МБ для физ.лиц)\n✔️Обсуждение функционала и требований с разработчиками, дизайнерами, менеджерами проектов\n\nОпыт и навыки:\n- Swift от 1 года коммерческой разработки\n- REST, TCP, HTTPS(handshake, certificate, MITM understanding)\n- IB, Autolayout, Верстка из кода, SwiftUI + Combine\n- MVC, MVVM\n- ООП, SOLID, Design Patterns.\n- Multithreading (GCD, NSOperationQueue)\n- Git\n\nНаше предложение:\n✅белая заработная плата, премии и индексации;\n✅ДМС (включая стоматологию)\n✅компенсация занятий спортом;\n✅корпоративный английский в офисе;\n✅оплата курсов и участия в конференциях;\n✅гибкое начало рабочего дня с 9.00 до 11.00;\n✅комфортный офис в БЦ \"Санкт-Петербург Плаза\", м. Новочеркасская\";\n✅отсутствие дресс-кода;\n✅теннисный стол, снеки в офисе\n\nРезюме и любые вопросы присылайте @e_zharova или на почту e.zharova@lipt-soft.ru","markup":[{"type":"hashtag","offset":29,"length":9,"data":"вакансия"},{"type":"hashtag","offset":43,"length":4,"data":"IOS"},{"type":"hashtag","offset":50,"length":5,"data":"офис"},{"type":"handle","offset":984,"length":10,"data":"e_zharova"},{"type":"link","offset":1008,"length":22,"data":"mailto:e.zharova@lipt-soft.ru"}],"date":"2020-06-23T13:29:40+00:00","link":"tg://resolve?domain=mobile_jobs&post=68546","tags":[{"name":"mobile"},{"name":"ios"},{"name":"swift"},{"name":"rest"},{"name":"mvvm"},{"name":"git"}],"cities":[],"allowsRemote":false}},{"node":{"__typename":"Job","id":"71872544768-1001054966032","title":"Ios developer","text":"‼️Вакансия Senior iOS Developer в MNFST‼️\n\n#вакансия #ios #удалённо \nФормат работы: #удалённо\nЗанятость: полная\n💶 З/п: от 200 000 до 230 000 руб. на руки\n\n🏢 Компания: MNFST (mnfst.com)\n\nЧем предстоит заниматься: \n🔸 Разработка и доработка нового функционала iOS-приложения MNFST\n🔸 Поддержка и развитие AR и face tracker\n🔸 Работа над оптимизацией и стабильностью приложения\n\nТребования:\n✔️ Отличное владение языком Swift (не менее двух лет)\n✔️ Опыт коммерческой разработки iOS-приложений (не менее трех лет)\n✔️ Хорошее владение Objective-C\n✔️ Уверенное знание GCD и понимание ARC\n\nПлюсом будет:\n➕ Знание Objective-C Runtime\n➕ Опыт работы с AVFoundation, Vision, ARKit и CoreML\n➕ Опыт разработки Cocoa Touch Frameworks\n\n📨 Резюме и вопросы по вакансии присылайте на talent@mnfst.com или @aderyabin","markup":[{"type":"hashtag","offset":43,"length":9,"data":"вакансия"},{"type":"hashtag","offset":53,"length":4,"data":"ios"},{"type":"hashtag","offset":58,"length":9,"data":"удалённо"},{"type":"bold","offset":69,"length":14,"data":""},{"type":"hashtag","offset":84,"length":9,"data":"удалённо"},{"type":"bold","offset":94,"length":11,"data":""},{"type":"bold","offset":115,"length":5,"data":""},{"type":"bold","offset":159,"length":10,"data":""},{"type":"link","offset":176,"length":9,"data":"http://mnfst.com"},{"type":"bold","offset":188,"length":25,"data":""},{"type":"bold","offset":378,"length":11,"data":""},{"type":"bold","offset":584,"length":14,"data":""},{"type":"link","offset":768,"length":16,"data":"mailto:talent@mnfst.com"},{"type":"handle","offset":789,"length":10,"data":"aderyabin"}],"date":"2020-06-23T12:48:08+00:00","link":"tg://resolve?domain=mobile_jobs&post=68543","tags":[{"name":"mobile"},{"name":"ios"},{"name":"swift"},{"name":"objective-c"},{"name":"cocoa"},{"name":"cocoa-touch"}],"cities":[],"allowsRemote":true}},{"node":{"__typename":"Job","id":"71867301888-1001054966032","title":"Mobile разработчик","text":"#вакансия #работа #Москва #fulltime#IOS #Swift #ObjectiveC\n \nВсем привет:)\nИщем iOS разработчика с опытом работы от 1 года.\nЛокация: Москва, м. Бауманская/удаленка\nЗанятость: полный день\nВилка: до 150 000 на руки.\n \nMobile Dimension – продуктовая компания-разработчик В2В и В2С решений. В нашем действующем портфеле продуктов четыре решения, которые успешно реализуются на рынке. \n \nPregnancy Tracker  - это площадка для будущих мам, с активной аудиторией по всему миру (2 млн). Мы работаем в странах СНГ, Америке и выходим на рынок Китая. \nРазвитие проекта предполагает создание экосистемы приложений, а также внедрение внутренней криптовалюты.\n \nЗадачи:\n•Разработка нового функционала \n•Участие в полном цикле жизни продукта\n•Тесное взаимодействие с командами разработки и тестирования\n \nОжидания:\n•Опыт разработки под iOS от 1 года\n•Умение читать Оbjective-С\n•RxSwift, RxCocoa, RxFeedback, MagicalRecor, Moya\n•AutoLayout из кода\n•База данных Realm\n \nУсловия:\n•Достойная заработная плата по итогам собеседования\n•Оформление по ТК\n•Корпоративное обучение, профессиональный рост\n•Удобный график работы\n•Молодая и сплоченная команда, комфортная атмосфера и современный офис рядом с метро Бауманская. \n \nПо всем вопросам пишите в телеграм - Jenya_sll 😊","markup":[{"type":"hashtag","offset":0,"length":9,"data":"вакансия"},{"type":"hashtag","offset":10,"length":7,"data":"работа"},{"type":"hashtag","offset":18,"length":7,"data":"Москва"},{"type":"hashtag","offset":40,"length":6,"data":"Swift"},{"type":"hashtag","offset":47,"length":11,"data":"ObjectiveC"},{"type":"link","offset":216,"length":17,"data":"https://mobiledimension.ru/"},{"type":"bold","offset":216,"length":17,"data":""},{"type":"link","offset":383,"length":18,"data":"https://pregnancytracker.app/ru/"},{"type":"bold","offset":383,"length":18,"data":""},{"type":"bold","offset":648,"length":7,"data":""},{"type":"bold","offset":790,"length":9,"data":""},{"type":"bold","offset":953,"length":8,"data":""}],"date":"2020-06-23T12:37:33+00:00","link":"tg://resolve?domain=mobile_jobs&post=68538","tags":[{"name":"mobile"},{"name":"ios"},{"name":"swift"},{"name":"realm"}],"cities":[{"code":"moscow"}],"allowsRemote":true}},{"node":{"__typename":"Job","id":"71856816128-1001054966032","title":"Android разработчик","text":"‼️Вакансия Senior Android⁢ Developer‼️\n#android #developer #вакансия #удаленка\nВ команде Mycelium Wallet (mycelium.com) открыта #вакансия Senior Android⁢ Developer.\n💵З/П 3000-4000 USD по итогам собеседования.\nРабота удаленная 💻\n\nМы предлагаем:\n🔸Получить навыки и компетенции в одном из самых передовых и перспективных направлений финтех индустрии - blockchain;\n🔸Принять участие в разработке одного из самых популярных биткоин-кошельков в Google Play Store;\n🔸Работать в международной команде бок о бок с ведущими специалистами в индустрии;\n🔸Возможность профессионального карьерного роста и участия в разнообразных проектах компании.\n\nЧем предстоит заниматься:\n🔹Разрабатывать новые и развивать существующие мобильные сервисы компании на платформе Android;\n🔹Проектировать и разрабатывать большие функциональные части приложения с привлечением других программистов;\n🔹Использовать cutting edge технологии, а также проверенные временем решения.\n\nТребования:\n✔️Как минимум 3 года опыта разработки на Android;\n✔️Знание Java/Kotlin на уровне ведущего разработчика;\n✔️Знание шаблонов проектирования, опыт использования MVP и других архитектурных подходов;\n✔️Опыт параллельного и многопоточного программирования;\n✔️Понимание циклов работы Android-приложения и управления памятью;\n✔️Опыт разработки пользовательских интерфейсов на платформе Android. \n✔️Знание Android Design Principles;\n✔️Знание и умение использовать различные механизмы взаимодействий между приложениями, предоставляемые в рамках Android SDK;\n✔️Понимание принципов работы REST API, WS, RPC и клиент-серверных приложений;\n✔️Знание английского языка на уровне чтения документации и умения общаться в корпоративном чате.\n\nПлюсом будет:\n➕Умение и понимание необходимости написания Unit tests;\n➕Знание основ криптографии;\n➕Опыт работы с bitcoin/etherium blockchain stack;\n➕Наличие своих проектов на Github, в Google Play и т.д.\n\n📲Контакт: @valeritata","markup":[{"type":"hashtag","offset":39,"length":8,"data":"android"},{"type":"hashtag","offset":48,"length":10,"data":"developer"},{"type":"hashtag","offset":59,"length":9,"data":"вакансия"},{"type":"hashtag","offset":69,"length":9,"data":"удаленка"},{"type":"link","offset":106,"length":12,"data":"http://mycelium.com"},{"type":"hashtag","offset":128,"length":9,"data":"вакансия"},{"type":"handle","offset":1900,"length":11,"data":"valeritata"}],"date":"2020-06-23T11:07:04+00:00","link":"tg://resolve?domain=mobile_jobs&post=68528","tags":[{"name":"mobile"},{"name":"android"},{"name":"playframework"},{"name":"java"},{"name":"kotlin"},{"name":"rest"},{"name":"github"}],"cities":[],"allowsRemote":true}},{"node":{"__typename":"Job","id":"71855767552-1001054966032","title":"Ios разработчик","text":"#вакансия #москва #офис #senior #ios #developer #gamedev #swift \nГород и адрес офиса: Москва, м.Автозаводская \nФормат работы: офис \nЗанятость: полная \nЗарплатная вилка: от 250 000 до 300 000 на руки \n\n\n✅ Senior iOS Developer \n\nОписание вакансии: \n\nМы - успешная команда из 120 человек, которая занимается: \n• разработкой собственных мобильных игр и приложений \n• паблишингом мобильных игр \n• рекламой и маркетингом мобильных приложений (реклама на Facebook, Google и т.д.) \nЗа последние 3 года мы привлекли более 100 млн пользователей в наши собственные мобильные приложения и приложения наших клиентов и партнеров, потратив на это более $80 млн. \n\nУ нас есть все составляющие чтобы делать готовые продукты известными и популярными. Мы ищем сильного и талантливого разработчика для усиления нашей текущей слаженно работающей команды и выведения нашего Fitness & Health iOS приложения Fitingo на лидирующие позиции в мире (уже сейчас приложение занимало позиции ТОП 13 в США и ТОП 6 в Великобритании с более чем 400,000 установок и более чем 45,000 совершенных покупок).\n\n✅Задачи: \n\n•  Разрабатывать новый функционал\n•  Рефакторить и оптимизировать код\n•  Писать код. Больше логики, меньше UI. Например - хранить историю и прогресс; сделать leaderboard по странам; добавить чат, аналитику и a/b тесты; Apple Health, Watch, Music и TV\n•  Участвовать в Code Review\n\nТекущий стек: Swift 5.1, MVPC, AVFoundation, UserNotifications, Realm, StoreKit, Firebase, PushWoosh, Facebook, Python.\n\n✅Требования: \n\n•  Опыт работы разработчиком iOS приложений от 3х лет\n•  Отличное знание Swift\n•  Уверенное знание SOLID и паттернов проектирования\n•  Умение профилировать приложение (Батарейка, утечки и вот это все)\n•  Опыт работы с системой контроля версий\n•  Наличие выпущенных проектов на Swift\n•  Желание делать красивые, интересные и популярные приложения\n\n✅Будет плюсом: \n\n•  Умение/желание писать небольшие серверные скрипты (например на Python)\n•  Умение автоматизировать рутинные процессы\n•  Умение рефакторить код итеративно\n•  Адекватный перфекционизм\n\n\n✅Для вас: \n\n•  Конкурентная заработная плата, выплачивается 2 раза в месяц\n•  Необходимое оборудование для работы\n•  Возможность набрать команду и выстроить всю работу под себя в краткосрочной перспективе\n•  Оформление по ТК РФ, оплачиваемые больничные, 28 дней оплачиваемого отпуска в год\n•  Возможны регулярные бонусы по результатам работы проектов\n•  Собеседование с лицом принимающим решение\n•  Возможность коммуницировать с людьми, которые принимают продуктовые решения\n\n✅О нас: \n\n•  Просторный офис 600 метров на м. Автозаводская (3 минуты от метро и от ТТК на машине) с ультра современным дизайном и кучей ништяков (кухня с вкусняшками, кальяны каждый вечер в дружной кампании, PS4 Pro + 4K TV, аркадные автоматы с Pac-Man, Metal Slug и другими хитами геймдизайна, просторная зона отдыха, 5 переговорных комнат и т д)\n•  Команда из 100 человек занимающаяся паблишингом и маркетингом, готовая сделать продукт успешным после его готовности\n•  Возможность обучаться английскому языку с носителями каждый будний день по утрам\n•  Менторы и инвесторы, создавшие большое количество успешных IT компаний (оборот в 2018 году более 140 млн долларов)\n\nНазвание компании: AppQuantum \n\nКонтакты: \ne-mail: vika@adquantum.com\ntelegram: @wikki13","markup":[{"type":"hashtag","offset":0,"length":9,"data":"вакансия"},{"type":"hashtag","offset":10,"length":7,"data":"москва"},{"type":"hashtag","offset":18,"length":5,"data":"офис"},{"type":"hashtag","offset":24,"length":7,"data":"senior"},{"type":"hashtag","offset":32,"length":4,"data":"ios"},{"type":"hashtag","offset":37,"length":10,"data":"developer"},{"type":"hashtag","offset":48,"length":8,"data":"gamedev"},{"type":"hashtag","offset":57,"length":6,"data":"swift"},{"type":"link","offset":3248,"length":18,"data":"mailto:vika@adquantum.com"},{"type":"handle","offset":3277,"length":8,"data":"wikki13"}],"date":"2020-06-23T10:28:34+00:00","link":"tg://resolve?domain=mobile_jobs&post=68527","tags":[{"name":"mobile"},{"name":"ios"},{"name":"swift"},{"name":"realm"},{"name":"firebase"},{"name":"python"}],"cities":[{"code":"moscow"}],"allowsRemote":false}}]}}},"context":{}}