{"hash":"f5f6bf98bd95e769321482904cbbd488f77922fd","data":{"records":{"id":"ios","name":"ios","belongsTo":{"totalCount":194,"pageInfo":{"totalPages":20,"currentPage":15},"edges":[{"node":{"__typename":"Job","id":"71637663744-1001054966032","title":"Mobile разработчик","text":"#вакансия #mobile #ios #swift #fulltime\nГород и адрес офиса: Москва, м. Нахимовский проспект, офис класса А\nФормат работы: офис + возможно частично удаленная работа \nЗанятость: полная, 5/2\nЗП: от 150к до 250к, готовы рассмотреть и выше\n\nКомпания X4Apps специализируется на разработке собственных мобильных приложений и открывает вакансию мобильного разработчика уровня Middle+/Senior, который будет работать над созданием приложений для платформы iOS.\n\nМы практикуем быструю проверку гипотез, быстро создаем приложения, запускаем первых пользователей, смотрим на обратную связь и наращиваем функционал либо переключаемся на разработку новых приложений/новых идей.\n\nОт Вас мы ждем:\n- Способность разработать приложение с нуля и выпустить его в AppStore\n- Знание Objective-C и Swift\n- Суммарный опыт программирования от 3-х лет\n- Умение работать с системой контроля версий git - console, IDE, web (Stash);\n- Понимание принципов ООП и шаблонов проектирования\n- Опыт использования JSON, REST API\n- Опыт написания клиент-серверных приложений\n- Наличие опубликованных приложений в AppStore\n\nБудет плюсом:\n- Желание постоянно учиться и применять новые технологии в своей работе\n- Понимание в разработке пользовательского интерфейса\n- Понимание работы бэкэнда\n\nКонтакт @bambaleeyo","markup":[{"type":"hashtag","offset":0,"length":9,"data":"вакансия"},{"type":"hashtag","offset":10,"length":7,"data":"mobile"},{"type":"hashtag","offset":18,"length":4,"data":"ios"},{"type":"hashtag","offset":23,"length":6,"data":"swift"},{"type":"hashtag","offset":30,"length":9,"data":"fulltime"},{"type":"bold","offset":40,"length":19,"data":""},{"type":"bold","offset":108,"length":13,"data":""},{"type":"bold","offset":166,"length":9,"data":""},{"type":"bold","offset":189,"length":2,"data":""},{"type":"bold","offset":665,"length":14,"data":""},{"type":"bold","offset":1085,"length":12,"data":""},{"type":"bold","offset":1253,"length":7,"data":""},{"type":"handle","offset":1261,"length":11,"data":"bambaleeyo"}],"date":"2020-06-19T11:04:23+00:00","link":"tg://resolve?domain=mobile_jobs&post=0","tags":[{"name":"mobile"},{"name":"ios"},{"name":"swift"},{"name":"objective-c"},{"name":"git"},{"name":"web"},{"name":"json"},{"name":"rest"}],"cities":[{"code":"moscow"}],"allowsRemote":true}},{"node":{"__typename":"Job","id":"71629275136-1001054966032","title":"Mobile разработчик","text":"#вакансия #mobile #ios #swift #remote #fulltime\nГород и адрес офиса: Москва, м. Технопарк\nФормат работы: удаленная \nЗанятость: полная, 5/2\nЗП:  от 140к до 200к\n\nМы - Stream, дочка МТС, IT департамент для продуктов МТС. Делаем классные и реально удобные продукты для пользователей.\n\nCейчас ищем Middle+ / Senior iOS  в проекты:\n\n1. МТС Поиск - Сервис по определению местоположения - poisk.mts.ru\nСтек: Swift, Realm, работа с локацией. Архитектура: VIP(CleanSwift).\n\n2. МТС Вторая память - Облачный сервис для хранения и обмена данными - 2memory2.mts.ru\nСтек: Swift 5.2, Cocoapods с публичными и приватными фреймворками, собственная реализация Rx, Moya, Xib & Storyboards, Realm. Архитектура MVVM.\n\nОт нас:\n- \"белая\" заработная плата с полугодовыми премиями;\n- ДМС со стоматологией + страховка;\n- корпоративная мобильная связь;\n- обучение и посещение профильных конференций. \n\nПрисоединяйся к команде, будет интересно!\n\nО компании: stream.ru\nПодробности в личке (@tanya2332)","markup":[{"type":"hashtag","offset":0,"length":9,"data":"вакансия"},{"type":"hashtag","offset":10,"length":7,"data":"mobile"},{"type":"hashtag","offset":18,"length":4,"data":"ios"},{"type":"hashtag","offset":23,"length":6,"data":"swift"},{"type":"hashtag","offset":30,"length":7,"data":"remote"},{"type":"hashtag","offset":38,"length":9,"data":"fulltime"},{"type":"bold","offset":166,"length":6,"data":""},{"type":"bold","offset":294,"length":20,"data":""},{"type":"bold","offset":331,"length":9,"data":""},{"type":"link","offset":382,"length":12,"data":"http://poisk.mts.ru"},{"type":"bold","offset":468,"length":17,"data":""},{"type":"link","offset":536,"length":15,"data":"http://2memory2.mts.ru"},{"type":"link","offset":930,"length":9,"data":"http://stream.ru"},{"type":"handle","offset":961,"length":10,"data":"tanya2332"}],"date":"2020-06-19T10:15:51+00:00","link":"tg://resolve?domain=mobile_jobs&post=0","tags":[{"name":"mobile"},{"name":"ios"},{"name":"swift"},{"name":"realm"},{"name":"cocoapods"},{"name":"mvvm"}],"cities":[{"code":"moscow"}],"allowsRemote":true}},{"node":{"__typename":"Job","id":"71627177984-1001054966032","title":"Ios разработчик","text":"#вакансия #ios #remote #fulltime #swift \n\nФормат работы: удаленно\nЗанятость: полная (140-160 часов в месяц)\nЗарплатная вилка: от 15 до 35 $/hr, оплата в USD \nНазвание компании: RichPeach Media\nОсновные задачи: разработка простых функционально ненагруженных приложений, соединение фронта с бэком, публикация приложений в AppStore. \nПодробное описание вакансии: https://docs.google.com/document/d/1XPuCWS6ke239cw9mHro8-Nyoc1mfn7SQX85o0Kom6PM/edit?usp=sharing \nКонтакты: @esmarina","markup":[{"type":"hashtag","offset":0,"length":9,"data":"вакансия"},{"type":"hashtag","offset":10,"length":4,"data":"ios"},{"type":"hashtag","offset":15,"length":7,"data":"remote"},{"type":"hashtag","offset":23,"length":9,"data":"fulltime"},{"type":"hashtag","offset":33,"length":6,"data":"swift"},{"type":"link","offset":360,"length":96,"data":"https://docs.google.com/document/d/1XPuCWS6ke239cw9mHro8-Nyoc1mfn7SQX85o0Kom6PM/edit?usp=sharing"},{"type":"handle","offset":468,"length":9,"data":"esmarina"}],"date":"2020-06-19T10:07:40+00:00","link":"tg://resolve?domain=mobile_jobs&post=0","tags":[{"name":"mobile"},{"name":"ios"},{"name":"swift"}],"cities":[],"allowsRemote":true}},{"node":{"__typename":"Job","id":"71624032256-1001054966032","title":"Ios разработчик","text":"#вакансия #swift #objective-C #ios\n\nГород : Санкт-Петербург\nФормат работы: офис или удаленно\nЗанятость: Полная\nЗарплатная вилка:  90 000 - 300 000 руб\n\nОписание компании:\nВ Blogman мы занимаемся разработкой собственного приложения – платформа для блогеров и рекламодателей. В нашей команде уже более 50 разработчиков и мы продолжаем расти. Сейчас мы ищем инженера с опытом коммерческой разработки под iOS.\nОсновной стек технологий — Swift, Realm, Alamofire. Сейчас мы разрабатываем бизнес-функционал и будем рады новому специалисту в нашей команде, вместе с которым мы будем делать быстрое приложение с отзывчивым и плавным интерфейсом.\n\nМы ожидаем, что у вас есть:\n— Опыт коммерческой разработки мобильных приложений под iOS;\n— Хорошие знания Swift, UIKit;\n— Опыт работы с мобильными БД;\n— Умение работать с Git, Cocoapods.\n\nБудет плюсом, если вы:\n— Разрабатывали клиент-серверные приложения;\n— Умеете работать с WebSocket;\n— Знаете и понимаете архитектуру VIPER;\n— Командный игрок без яркого эгоцентризма;\n— Готовы активно принимать участие в жизни компании и продукта.\n\nРады предложить:\n– Удаленное сотрудничество или комфортный офис на Невском проспекте в 5 минутах ходьбы от ст. м. Маяковская и Владимирская;\n– Желаемый оклад по результатам собеседования;\n– Понятную систему роста зарплаты каждые 6 месяцев, в которой все зависит только от вас;\n– Все необходимые офисные блага вроде вкусного кофе и т.д.\nВас будут окружать адекватные люди, с которыми комфортно решать поставленные задачи. У сотрудников есть общие ценности, такие как стремление к качественному результату, забота о продукте и желание двигаться вперед. Также у нас нет “Начальства”, а есть коллеги. Все взаимодействуют горизонтально и в команде равенство между инженерами, стейкхолдером, продактом и т.д. Все работают бок о бок и делают одно общее дело.\nНазвание компании: Blogman","markup":[{"type":"hashtag","offset":0,"length":9,"data":"вакансия"},{"type":"hashtag","offset":10,"length":6,"data":"swift"},{"type":"hashtag","offset":17,"length":10,"data":"objective"},{"type":"hashtag","offset":30,"length":4,"data":"ios"},{"type":"bold","offset":173,"length":8,"data":""},{"type":"bold","offset":438,"length":2,"data":""},{"type":"bold","offset":445,"length":2,"data":""},{"type":"bold","offset":638,"length":27,"data":""},{"type":"bold","offset":826,"length":22,"data":""},{"type":"bold","offset":1073,"length":16,"data":""}],"date":"2020-06-19T09:44:55+00:00","link":"tg://resolve?domain=mobile_jobs&post=0","tags":[{"name":"mobile"},{"name":"ios"},{"name":"swift"},{"name":"objective-c"},{"name":"realm"},{"name":"uikit"},{"name":"git"},{"name":"cocoapods"},{"name":"websocket"}],"cities":[],"allowsRemote":true}},{"node":{"__typename":"Job","id":"71619837952-1001054966032","title":"Mobile разработчик","text":"#вакансия #ios #senior #middle #objectivec \n\nОчень важен опыт работы с Core Data\n\nГород: #Москва, м. Павелецкая (удалённо на период всеобщей борьбы с вирусами)\nФормат работы: #офис, #удалёнка, #гибкие_часы \n\nЗанятость: полная  \nЗарплатная вилка: от 200к до 250к руб. net \nОписание вакансии: \n\nМы разрабатываем облачные CRM решения с широким использованием мобильных устройств.   \nСейчас мы ищем middle  и senior iOS разработчиков в команду, которая внедряет приложение CT Mobile в архитектуру CRM наших клиентов в Европе.\n\nhttps://apps.apple.com/us/app/ct-mobile-for-salesforce/id1234947996\n\nНазвание компании: Customertimes.com\nКонтакты: mikhail.zinoviev@ctconsult.ru","markup":[{"type":"hashtag","offset":0,"length":9,"data":"вакансия"},{"type":"hashtag","offset":10,"length":4,"data":"ios"},{"type":"hashtag","offset":15,"length":7,"data":"senior"},{"type":"hashtag","offset":23,"length":7,"data":"middle"},{"type":"hashtag","offset":31,"length":11,"data":"objectivec"},{"type":"hashtag","offset":89,"length":7,"data":"Москва"},{"type":"hashtag","offset":175,"length":5,"data":"офис"},{"type":"hashtag","offset":182,"length":9,"data":"удалёнка"},{"type":"hashtag","offset":193,"length":12,"data":"гибкие_часы"},{"type":"link","offset":523,"length":67,"data":"https://apps.apple.com/us/app/ct-mobile-for-salesforce/id1234947996"},{"type":"link","offset":611,"length":17,"data":"http://Customertimes.com"},{"type":"link","offset":639,"length":29,"data":"mailto:mikhail.zinoviev@ctconsult.ru"}],"date":"2020-06-19T09:28:35+00:00","link":"tg://resolve?domain=mobile_jobs&post=0","tags":[{"name":"mobile"},{"name":"ios"},{"name":"dotnet"},{"name":"core-data"}],"cities":[{"code":"moscow"}],"allowsRemote":true}},{"node":{"__typename":"Job","id":"103253278720-1001089317451","title":"Qa engineer","text":"#вакансия #Москва #fulltime #офис #qa #mobile\nКомпания: FunCorp\nВакансия:  QA mobile engineer\nОпыт работы: от 2-х лет\nЗарплата: 100 000 - 130 000 р. на руки\nМесторасположение: Москва, м. Белорусская\nЗанятость: fulltime, офис.\nNB! Удаленный вариант работы после выхода из карантина, к сожалению, не рассматриваем\nКонтактные данные: @chrschredinger или kristina@fun.co\n\nТребования\n- опыт тестирования мобильных приложений (iOS, Android) от года\n- опыт использования сниффера (Charles или Fiddler / Wireshark / Mitmproxy)\n- опыт работы с Android Studio / XCode\n- опыт работы с Firebase\n\nОбязанности\n- ручное тестирование (функциональное / регрессионное / исследовательское)\n- написание тестовых сценариев\n- тесная работа с менеджерами и разработчиками проекта\n\nУсловия\n- ДМС, включая стоматологию\n- бонусная система\n- обеды и ужины в офисе\n- бюджет на обучение и на фитнес\n- оплата участия в российских и зарубежных конференциях\n- отличный офис на м. Белорусская (БЦ «Белая площадь)","markup":[{"type":"hashtag","offset":0,"length":9,"data":"вакансия"},{"type":"hashtag","offset":10,"length":7,"data":"Москва"},{"type":"hashtag","offset":18,"length":9,"data":"fulltime"},{"type":"hashtag","offset":28,"length":5,"data":"офис"},{"type":"hashtag","offset":34,"length":3,"data":"qa"},{"type":"hashtag","offset":38,"length":7,"data":"mobile"},{"type":"bold","offset":46,"length":10,"data":""},{"type":"bold","offset":64,"length":10,"data":""},{"type":"bold","offset":94,"length":13,"data":""},{"type":"bold","offset":118,"length":10,"data":""},{"type":"bold","offset":157,"length":19,"data":""},{"type":"bold","offset":199,"length":10,"data":""},{"type":"underline","offset":226,"length":86,"data":""},{"type":"bold","offset":312,"length":19,"data":""},{"type":"handle","offset":331,"length":15,"data":"chrschredinger"},{"type":"link","offset":351,"length":15,"data":"mailto:kristina@fun.co"},{"type":"bold","offset":368,"length":11,"data":""},{"type":"bold","offset":584,"length":12,"data":""},{"type":"bold","offset":758,"length":8,"data":""}],"date":"2020-06-19T07:57:04+00:00","link":"tg://resolve?domain=qa_jobs&post=0","tags":[{"name":"qa"},{"name":"mobile"},{"name":"ios"},{"name":"android"},{"name":"xcode"},{"name":"firebase"},{"name":"android-studio"}],"cities":[{"code":"moscow"}],"allowsRemote":false}},{"node":{"__typename":"Job","id":"103207141376-1001089317451","title":"Qa engineer","text":"#вакансия #удаленка #Москва #fulltime #qa \nКомпания: «Intelligence Retail» (https://intrtl.com/).\nQA manual engineer\nФормат: удаленно, 5/2\nВилка: до 120 000 т.р\nЖелающим поможем вырасти в автоматизации на python.\n\nКто мы?\nIntelligence Retail входит в число 30 крупнейших поставщиков AI в России (по версии Rusbase). Мы работаем с такими глобальными компаниями по производству CPG, как Danone, Heineken, P & G, Perfetti Van Melle, Red Bull и другими. www.intrtl.com\nIntelligence Retail — молодой стартап в области ИИ. Мы помогаем компаниям в ритейле и FMCG повысить эффективность труда своих сотрудников. Наш продукт это система контроля товаров, использующая передовые алгоритмы компьютерного зрения на базе нейронных сетей.\n\nПожелания к кандидату:\n• Опыт тестирования сложных web программ, включая разработку тестов, тестовых данных, и сценариев тестирования;\n• Опыт тестирования API (Postman, SoapUI)\n• Способность выявлять уязвимые места систем, способность к поиску дефектов;\n• Опыт работы с системами багтрекинга;\n• Базовые знания SQL (на уровне простых запросов);\n• Технический английский.\nПлюсом будет:\n• опыт в автоматизации тестирования;\n• знание Python.\n\nЗадачи:\n• Мы разрабатываем SaaS решение которое содержит следующие компоненты:\n- мобильное приложение под iOS и Android;\n- аналитический web-портал;\n- REST API на python и php;\n- бекенд распознавания с использованием нейронных сетей.\n\nВот что нужно будет делать:\n• Ручное тестирование нового и существующего функционала ПО (Web, API, Mobile);\n• Проведение регрессионного тестирования перед поставкой;\n• Составление тестовых сценариев и поддержка их в актуальном состоянии;\n• Взаимодействие с командой разработки;\n• Обработка ошибок от технической поддержки пользователей;\n• Фиксация дефектов в трекере задач и последующий контроль их исправления.\n\nУсловия работы:\n• Достойная белая ЗП и полное соблюдение трудового законодательства РФ;\n• Удаленная работа с гибким графиком 5/2;\n• Команда крутых разработчиков и учёных, интересные задачи и перспективные продукты.\nИ ещё:\n• Тестировщик является частью скрам-команды, которая работает с 2-х недельными спринтами;\n• Ежедневные стендапы примерно в 11:30;\n• Задачи ведем в youtrack;\n• Мы — один из немногих Российских стартапов, который работает сразу на международном рынке, у нас уже есть зарубежные клиенты;\nВ компании работает порядка 40 человек, тех команда примерно 25.\n\nКонтакты: @DariaYugova","markup":[{"type":"hashtag","offset":0,"length":9,"data":"вакансия"},{"type":"hashtag","offset":10,"length":9,"data":"удаленка"},{"type":"hashtag","offset":20,"length":7,"data":"Москва"},{"type":"hashtag","offset":28,"length":9,"data":"fulltime"},{"type":"hashtag","offset":38,"length":3,"data":"qa"},{"type":"link","offset":76,"length":19,"data":"https://intrtl.com/"},{"type":"bold","offset":98,"length":18,"data":""},{"type":"link","offset":450,"length":14,"data":"http://www.intrtl.com"},{"type":"bold","offset":726,"length":22,"data":""},{"type":"bold","offset":1165,"length":7,"data":""},{"type":"bold","offset":1400,"length":27,"data":""},{"type":"bold","offset":1813,"length":15,"data":""},{"type":"handle","offset":2396,"length":12,"data":"DariaYugova"}],"date":"2020-06-18T16:31:41+00:00","link":"tg://resolve?domain=qa_jobs&post=0","tags":[{"name":"qa"},{"name":"python"},{"name":"web"},{"name":"sql"},{"name":"ios"},{"name":"android"},{"name":"rest"},{"name":"php"},{"name":"mobile"}],"cities":[{"code":"moscow"}],"allowsRemote":true}},{"node":{"__typename":"Job","id":"71583137792-1001054966032","title":"Ios разработчик","text":"‼️Вакансия Senior IOS C++ Developer‼️\n#вакансия #IOS #developer #удаленка\nВ команде Mycelium Wallet (mycelium.com) открыта вакансия Senior IOS C++ Developer.\n💵З/П 3000-4000 USD по итогам собеседования.\nРабота удаленная 💻\n\nМы предлагаем:\n🔸Получить навыки и компетенции в одном из самых передовых и перспективных направлений финтех индустрии - blockchain;\n🔸Принять участие в разработке одного из самых популярных биткоин-стартапов;\n🔸Работать в международной команде бок о бок с ведущими специалистами в индустрии;\n🔸Возможность профессионального карьерного роста и участия в разнообразных проектах компании.\nЧем предстоит заниматься:\n🔸Разрабатывать мультивалютный крипто-валютный кошелек с кросс-платформенным ядром;\n🔸Проектировать и разрабатывать большие функциональные части приложения с привлечением других разработчиков;\n🔸Использовать cutting edge технологии, а также проверенные временем решения;\n🔸Находить решения для нестандартных задач.\nТребования:\n✔️Как минимум 3 года опыта разработки под IOS и опыта программирования на C++;\nЗнание C++ на уровне ведущего разработчика;\n✔️Знание шаблонов проектирования, опыт использования MVP и других архитектурных подходов;\n✔️Знание шаблонов проектирования пользовательских интерфейсов для iOS 9+ (Human Interface Guidelines);\n✔️Знание iOS SDK (UIKit, Foundation, CoreLocation и др.), общее понимание архитектуры iOS;\n✔️Знание особенностей UiKit: storyboards, autolayout, size classes;\n✔️Знание CocoaPods, FastLane, Xcode utils, code analyzers;\n✔️Опыт параллельного и многопоточного программирования, знание примитивов синхронизации (std::thread, std::mutex и тд);\n✔️Понимание циклов работы IOS-приложения и управления памятью;\n✔️Понимание принципов работы REST API, RPC, WS и клиент-серверных приложений;\n✔️Опыт работы с системами контроля версий (Git) и постановки задач (JIRA, TFS, Redmine);\n✔️Знание английского языка на уровне чтения документации и умения общаться в корпоративном чате.\n\nПлюсом будет:\n🔸Знание Objective-С и Swift;\n🔸Умение и понимание необходимости написания Unit tests;\n🔸Знание основ криптографии;\n🔸Опыт работы с bitcoin/etherium blockchain stack;\n🔸Наличие своих проектов на Github, в App Store и т.д.\n\n📲 Контакт : @valeritata","markup":[{"type":"hashtag","offset":38,"length":9,"data":"вакансия"},{"type":"hashtag","offset":48,"length":4,"data":"IOS"},{"type":"hashtag","offset":53,"length":10,"data":"developer"},{"type":"hashtag","offset":64,"length":9,"data":"удаленка"},{"type":"link","offset":101,"length":12,"data":"http://mycelium.com"},{"type":"handle","offset":2196,"length":11,"data":"valeritata"}],"date":"2020-06-18T14:51:09+00:00","link":"tg://resolve?domain=mobile_jobs&post=0","tags":[{"name":"mobile"},{"name":"ios"},{"name":"uikit"},{"name":"cocoapods"},{"name":"xcode"},{"name":"rest"},{"name":"git"},{"name":"tfs"},{"name":"objective-c"},{"name":"swift"},{"name":"github"}],"cities":[],"allowsRemote":true}},{"node":{"__typename":"Job","id":"71581040640-1001054966032","title":"Android developer","text":"#xamarin #вакансия #релокация #кипр #relocation #vacancy #cyprus\n✔️Cyprus, Limassol\n✔️Spotware Systems Ltd\n✔️Relocation is a must after quarantine and borders opening\n✔️Full-time\n✔️4000-4500 Eur gross, 3100-3400 Eur net\n✔️Fintech\n\nRequirements:\n\nBSc in Computer Science\nSolid experience with unit testing\nMinimum 3+ years’ experience working in C# Developer position\nDeep knowledge in .NET and C#\nDesign patterns\n\nExperience in following fields will be an advantage:\n\nExperience with Xamarin.iOS or Xamarin.Android\nMVVM client architecture, MvvmCross experience\nS.O.L.I.D. principles of OOD\nExperience with ReSharper/other refactoring tools\nTest-driven development\nFinancial Instruments Trading /Trading Platforms development\nPerformance optimization\n\nBonuses: \n\nRelocation bonus\nHealth insurance\nVasa's support\nFriendly working environment\nCompany events\nOpportunities for personal growth\n\nContacts: telegram @katerina_fa","markup":[{"type":"hashtag","offset":0,"length":8,"data":"xamarin"},{"type":"hashtag","offset":9,"length":9,"data":"вакансия"},{"type":"hashtag","offset":19,"length":10,"data":"релокация"},{"type":"hashtag","offset":30,"length":5,"data":"кипр"},{"type":"hashtag","offset":36,"length":11,"data":"relocation"},{"type":"hashtag","offset":48,"length":8,"data":"vacancy"},{"type":"hashtag","offset":57,"length":7,"data":"cyprus"},{"type":"link","offset":202,"length":9,"data":"tel:3100-3400"},{"type":"bold","offset":231,"length":15,"data":""},{"type":"bold","offset":414,"length":54,"data":""},{"type":"bold","offset":752,"length":11,"data":""},{"type":"bold","offset":891,"length":9,"data":""},{"type":"handle","offset":910,"length":12,"data":"katerina_fa"}],"date":"2020-06-18T14:31:26+00:00","link":"tg://resolve?domain=mobile_jobs&post=0","tags":[{"name":"mobile"},{"name":"android"},{"name":"ios"},{"name":"xamarin"},{"name":"dotnet"},{"name":"mvvm"},{"name":"unit-testing"}],"cities":[],"allowsRemote":false}},{"node":{"__typename":"Job","id":"71579992064-1001054966032","title":"Ios разработчик","text":"💪#вакансия #удалёнка #iOS #fulltime  #Middle+/#Senior    \n💵З/П 2200-2400 $/месяц по итогам собеседования\nРабота: удалёнка\n\nЧеловек в среднем больше сотни раз взаимодействует с клавиатурой своего мобильного устройства. Для большинства пользователей нашего приложения мы делаем этот процесс  интереснее и выгодней. Мы также оцениваем эмоциональное состояние пользователя, в процессе его взаимодействия с клавиатурой. Руководство компании из топ-менеджмента крупнейших глобальных игроков мобильного рынка. В данный момент открыта вакансия Middle+/Senior IOS разработчика, в подчинении 2 сотрудника                                                                                                               \n\n📌Обязанности:\n- Разработка кастомной клавиатуры iOS\n- Подключение ML-алгоритмов (TensorFlow) распознавания эмоций к iOS-клавиатуре\n- Разработка кода обработки данных камеры, микрофона\n\n📌Требования:\n- Уверенное знание Swift;\n- Хорошее знание платформы iOS, инструментов разработки, работы UI;\n- Опыт работы с REST API, HTTP, JSON, APNs;\n- Знакомство с библиотеками CoreData, AVFoundation, CoreML и CreateML\n- Желание развиваться и развивать свои знания            \n-Знание английского на уровне от Intermediate желательно                                                                                                               \n\n📌Будет плюсом:\n- Опыт работы c TensorFlow на iOS\n- Опыт работы с OpenCV на iOS\n- Опыт работы с фреймворком SwiftUI\n\n📌Условия:\n- Отсутствие бюрократии\n- Время начала рабочего дня обговариваем индивидуально\n- Come to the Dark Side, we have тёплая ламповая атмосфера стартапа, чай, кофе и печеньки!\n- Крутой инновационный проект - возможность самореализации и профессионального роста\n- Стабильное зарубежное финансирование\n- Десятки миллионов установок и множество глобальных партнёров\n📞 Контакты @SvetikS_hr +7(963)-632-12-36 Cветлана","markup":[{"type":"hashtag","offset":2,"length":9,"data":"вакансия"},{"type":"hashtag","offset":12,"length":9,"data":"удалёнка"},{"type":"hashtag","offset":22,"length":4,"data":"iOS"},{"type":"hashtag","offset":27,"length":9,"data":"fulltime"},{"type":"hashtag","offset":38,"length":7,"data":"Middle"},{"type":"hashtag","offset":47,"length":7,"data":"Senior"},{"type":"handle","offset":1841,"length":11,"data":"SvetikS_hr"},{"type":"link","offset":1853,"length":17,"data":"tel:+7(963)-632-12-36"}],"date":"2020-06-18T14:11:13+00:00","link":"tg://resolve?domain=mobile_jobs&post=0","tags":[{"name":"mobile"},{"name":"ios"},{"name":"tensorflow"},{"name":"swift"},{"name":"rest"},{"name":"json"},{"name":"opencv"}],"cities":[],"allowsRemote":true}}]}}},"context":{}}