{"hash":"f34fd2c444a074f4e0e67d525015a008ef8e766f","data":{"records":{"id":"kafka","name":"kafka","belongsTo":{"totalCount":55,"pageInfo":{"totalPages":6,"currentPage":4},"edges":[{"node":{"__typename":"Job","id":"1398800384-1001091028994","title":"Java developer","text":"Большой интергационный проект: разработка платформы финансового маркетплейса для физических лиц, проект  стартует в сентябре-декабре 2020 г. \n\nЗадачи на новый проект:\n\nНачать разработку и отладку BPM-слоя платформы, основанной на микросервисной архитектуре с использованием - Java 8; Spring Framework (Core, MVC, Boot); Camunda BPM; Apache Kafka; Hibernate; Docker; PostgreSQL. \n\nВзаимодействие со смежными командами и определение зон ответственности при реализации задач.\n\nПодготовка рекомендаций по внедрению новых технологии, решений, подходов.\n\nНастройка CI/CD процессов. \n\nТребования:\n\nГлубокие знание java core.\nОпыт в java от 3-х лет.\nЗнание подходов CI/CD. \nОтличные организационные и коммуникативные навыки. \n\nЛокация офиса: г. Москва, м. Арбатская/Библиотека им. Ленина/Боровицкая/Александровский сад. \nЗанятость: полная, официальное оформление в штат Компании. \nДМС: с первого рабочего дня. \nФормат работы: современный  офис возле кремля в шаговой доступности от метро (сейчас работаем из дома, возможно, после выхода в офисе многое поменяется))).\nКомпания: ПАО Московская биржа (Компания входящая в 500 - лучших работодателей мира по версии Forbes за 2019 год). \nУровень з/п:  230- 300 тыс.руб. + годовой бонус.\nФормат интервью: один этап интервью по Skype (60 минут). \nКоманда: абсолютно новая команда, почти (3 вакансии senior developer) сформирована за период февраль - март 2020 г. \n\n\nПишите в личку, отвечу на любые вопросы!\nКонтакты: @Sasha_P92","markup":[{"type":"handle","offset":1452,"length":10,"data":"Sasha_P92"}],"date":"2020-03-30T18:53:38+00:00","link":"tg://resolve?domain=jvmjobs&post=1334","tags":[{"name":"java"},{"name":"jvm"},{"name":"spring"},{"name":"apache"},{"name":"kafka"},{"name":"hibernate"},{"name":"docker"},{"name":"postgresql"}],"cities":[{"code":"moscow"}],"allowsRemote":false}},{"node":{"__typename":"Job","id":"1946157056-1001134745498","title":"Devops engineer","text":"#вакансия #USA #Australia #senior #remote #DevOps #AWS \n\nЛокация: Атланта\nФормат работы: удаленка \nЗанятость: полная, гибкое начало дня\nЗП:  250 000 до 450 000 рублей на руки (заработная плата начисляется в долларах, вилка указана примерно, компания готова отталкиваться от пожеланий кандидатов)\n\n🔹 Открыта вакансия SR. Cloud Service Engineer в небольшой Американский стартап в области healthcare Lifetime Fluency.\nРебята существуют один год и разрабатывают инновационное VR решение для лечения пациентов, страдающих заиканием. Сейчас закончен прототип продукта и начинается этап активной разработки. Разработка идет с нуля, используются максимально современные технологии.\nПланируемвй стек проекта: Java,\nSpring Boot, AWS, Micro-services, RESTful API,\nKafka, Spring Data, Angular 2+, Node.js, JavaScript, HTML5, CSS3, Docker\n\nМы ищем первого SR. Cloud Service Engineer, который выстроит всю необходимую архитектуру, СI/СD процесс с нуля, выстроит работу в AWS. \nОчень желателен опыт в healthcare и знание HIPAA.\n\n🔹 Требования:\n- Свободный английский язык (разговорный и письменный)\n- Опыт работы с AWS в продакшн от 3-ех лет;\n- Опыт выстраивания CI/CD процесса с нуля;\n\n🔹 Контакты:\nКА: Lucky hunter\ne-mail: daria@luckyhunter.io\ntelegram: @prudentdaria\nПишите, буду рада ответить на все возможные вопросы в телеграм или по почте\n\n—\n\n👉 Обсуждение вакансии в чате @devops_jobs","markup":[{"type":"hashtag","offset":0,"length":9,"data":"вакансия"},{"type":"hashtag","offset":10,"length":4,"data":"USA"},{"type":"hashtag","offset":15,"length":10,"data":"Australia"},{"type":"hashtag","offset":26,"length":7,"data":"senior"},{"type":"hashtag","offset":34,"length":7,"data":"remote"},{"type":"hashtag","offset":42,"length":7,"data":"DevOps"},{"type":"hashtag","offset":50,"length":4,"data":"AWS"},{"type":"link","offset":1211,"length":20,"data":"mailto:daria@luckyhunter.io"},{"type":"handle","offset":1242,"length":13,"data":"prudentdaria"},{"type":"handle","offset":1366,"length":12,"data":"devops_jobs"}],"date":"2020-03-30T15:48:22+00:00","link":"tg://resolve?domain=devops_jobs_feed&post=1856","tags":[{"name":"amazon-web-services"},{"name":"cloud"},{"name":"java"},{"name":"spring"},{"name":"kafka"},{"name":"angularjs"},{"name":"nodejs"},{"name":"javascript"},{"name":"html"},{"name":"css"},{"name":"docker"},{"name":"spring-boot"},{"name":"spring-data"}],"cities":[{"code":"atlanta"}],"allowsRemote":true}},{"node":{"__typename":"Job","id":"1395654656-1001091028994","title":"Java developer","text":"В инновационное подразделение крупнейшей российской авиакомпании\nищем #Junior #Java #Developer\nГород: #Москва\nФормат работы: #офис\nЗанятость: #fulltime, гибкий подход к рабочему времени\nВилка: до 100000 net.\n\nЗадача:\n\n • Проектирование и разработка хранилища данных о клиентах компании.\n\nЧто хотим видеть:\n\n • Опыт разработки на Java 1 год на коммерческом проекте,\n • Spring Framework, понимание концепции DI,\n • Опыт реализации REST-сервисов,\n • Понимание микросервисной архитектуры,\n   \nБудет плюсом:\n\n • вы знаете, что такое ETL\n • вы работали с:\n            Spark (SQL, Streaming);\n            Kafka;\n            Linux, Docker, Kubernetes;\n            реляционными БД (Oracle, MS SQL, PostgreSQL);\n            Spring Integration или аналогами (Camel)\n\nУсловия:\n\n • Интересные задачи, возможность влиять на прибыль компании;\n • Бессрочный трудовой договор;\n • Корпоративный тариф на перелеты;\n • ДМС;\n • Возможность обучаться за счет компании;\n • Участие в конференциях.\n\nКонтакт:  @morozovamary","markup":[{"type":"bold","offset":70,"length":13,"data":""},{"type":"hashtag","offset":70,"length":7,"data":"Junior"},{"type":"hashtag","offset":78,"length":5,"data":"Java"},{"type":"bold","offset":84,"length":17,"data":""},{"type":"hashtag","offset":84,"length":10,"data":"Developer"},{"type":"hashtag","offset":102,"length":7,"data":"Москва"},{"type":"bold","offset":110,"length":14,"data":""},{"type":"hashtag","offset":125,"length":5,"data":"офис"},{"type":"bold","offset":131,"length":10,"data":""},{"type":"hashtag","offset":142,"length":9,"data":"fulltime"},{"type":"bold","offset":186,"length":6,"data":""},{"type":"bold","offset":209,"length":9,"data":""},{"type":"code","offset":218,"length":3,"data":""},{"type":"bold","offset":288,"length":19,"data":""},{"type":"code","offset":307,"length":3,"data":""},{"type":"code","offset":365,"length":3,"data":""},{"type":"code","offset":410,"length":3,"data":""},{"type":"code","offset":444,"length":3,"data":""},{"type":"bold","offset":489,"length":15,"data":""},{"type":"code","offset":504,"length":3,"data":""},{"type":"code","offset":532,"length":3,"data":""},{"type":"bold","offset":756,"length":10,"data":""},{"type":"code","offset":766,"length":3,"data":""},{"type":"code","offset":828,"length":3,"data":""},{"type":"code","offset":860,"length":3,"data":""},{"type":"code","offset":896,"length":3,"data":""},{"type":"code","offset":904,"length":3,"data":""},{"type":"code","offset":947,"length":3,"data":""},{"type":"bold","offset":975,"length":8,"data":""},{"type":"handle","offset":985,"length":13,"data":"morozovamary"}],"date":"2020-03-30T09:30:22+00:00","link":"tg://resolve?domain=jvmjobs&post=1331","tags":[{"name":"java"},{"name":"jvm"},{"name":"dotnet"},{"name":"spring"},{"name":"rest"},{"name":"sql"},{"name":"kafka"},{"name":"linux"},{"name":"docker"},{"name":"kubernetes"},{"name":"oracle"},{"name":"postgresql"}],"cities":[{"code":"moscow"}],"allowsRemote":false}},{"node":{"__typename":"Job","id":"1945108480-1001134745498","title":"Devops инженер","text":"#вакансия #devOps #hadoop \nПривет! Крупнейший медиа холдинг ищет крутого инженера DevOps! \n\nЛокация: Москва, м. Тульская или Сколково\nИщем сотрудника в офис на полный рабочий день.\nУсловия: зп от 220 000 до 250 000 (обсуждается на собеседовании), комфортабельный офис, ДМС и ВЗР после испытательного срока, дополнительные скидки на услуги партнеров\n\nПроект по консолидации данных активов холдинга и созданию DMP для профилирования аудитории\n\nОсновные задачи:\n• Установка, настройка, обновление программного обеспечения\n• Поддержание отказоустойчивости веб сервисов\n• Сопровождение процесса разработки, автоматизация релизов и тестирования.\n• Управление и поддержка тестового и продуктивного окружения\n• Настройка мониторинга и оповещения о событиях\n\nНаш стек: Hadoop, Spark, Kafka\n\nОжидаем от тебя:\n• Опыт работы в качестве Инженера DevOps по сопровождению систем распределенных вычислений на основе стека Hadoop+Kafka.\n• Оркестратор процессов – Airflow\n• Опыт настройки Nginx для высоконагруженных веб сервисов.\n• Опыт работы с Docker и Kubernetes, системами мониторинга Grafana+Prometheus или подобными\n• Опыт работы с Gitlab и системами CI/CD\n\nКомпания: Национальная медиа группа https://nm-g.ru/holding/\n\nГотова рассказать детали, я всегда на связи в telegram @AnnaSafarova\nТакже буду очень признательна за рекомендации \n\nВсем хорошего дня!\n\n—\n\n👉 Обсуждение вакансии в чате @devops_jobs","markup":[{"type":"hashtag","offset":0,"length":9,"data":"вакансия"},{"type":"hashtag","offset":10,"length":7,"data":"devOps"},{"type":"hashtag","offset":18,"length":7,"data":"hadoop"},{"type":"link","offset":1183,"length":24,"data":"https://nm-g.ru/holding/"},{"type":"handle","offset":1264,"length":13,"data":"AnnaSafarova"},{"type":"handle","offset":1379,"length":12,"data":"devops_jobs"}],"date":"2020-03-30T09:21:58+00:00","link":"tg://resolve?domain=devops_jobs_feed&post=1855","tags":[{"name":"hadoop"},{"name":"kafka"},{"name":"nginx"},{"name":"docker"},{"name":"kubernetes"},{"name":"gitlab"}],"cities":[{"code":"moscow"}],"allowsRemote":false}},{"node":{"__typename":"Job","id":"1392508928-1001091028994","title":"Java разработчик","text":"Вакансия: #java #developer #javadeveloper\nКомпания: #ivi\nЛокация: #москва #мск\nЗ/п: от 250 000 до 270 000 руб. на руки\nКонтакты: @daria144 \n\nКоманда Big Data онлайн-кинотеатра ivi ищет сильного Java разработчика, заинтересованного в работе с данными и разработке аналитических продуктов\n\nНаша задача - собирать, обогащать, хранить и доставлять данные, а также разрабатывать инструменты для извлечения из них максимального business value.\n\nДанные - важное звено в бизнесе ivi, мы придерживаемся data-driven культуры принятия решений. Мы обрабатываем 1 Тб в день с помощью Kafka, Flink и ClickHouse.\n\nРазрабатываем нагруженные (18k qps) сервисы на Spring Boot WebFlux и синхронизируем их через ZooKeeper. Разрабатываем многоуровневые кеши Caffeine + Redis и Flink коннекторы. Основные технологии: Java, Python; Kafka, Flink, Spring Boot, Spring WebFlux, ZooKeeper, Redis, ClickHouse, PostgreSQL.\n\nЕсли вы любите разбираться с новыми технологиями и решать нестандартные задачи - вам у нас будет интересно.\n\nЧто предстоит делать:\n- разработка модулей на основе streaming-processing (Apache Flink);\n- разработка web-сервисов для различных задач (реклама, аналитика и т.п.);\n- взаимодействовать с командой по вопросам архитектуры и разработки.\n\nКак узнать что ты нам подходишь?\n- есть опыт разработки на Java в коммерческих проектах от 5 лет;\n- у тебя отличное знание Java Core;\n- твердые архитектурные скилы;\n- общая культура разработки: декомпозиция задач, SOLID-принципы, DI, написание интеграционных и модульных тестов. \n\nСо своей стороны мы обещаем:\n- Офис в 5 минутах ходьбы от м. \"Дмитровская\";\n- У нас гибкий график, мы начинаем до 11 часов дня;\n- Трудоустройство по ТК РФ;\n- ДМС + стоматология после прохождения испытательного срока;\n- Подписка на ivi;\n- Пакет релокации для соискателей со всей России.","markup":[{"type":"bold","offset":0,"length":9,"data":""},{"type":"hashtag","offset":10,"length":5,"data":"java"},{"type":"hashtag","offset":16,"length":10,"data":"developer"},{"type":"hashtag","offset":27,"length":14,"data":"javadeveloper"},{"type":"bold","offset":42,"length":9,"data":""},{"type":"hashtag","offset":52,"length":4,"data":"ivi"},{"type":"bold","offset":57,"length":8,"data":""},{"type":"hashtag","offset":66,"length":7,"data":"москва"},{"type":"hashtag","offset":74,"length":4,"data":"мск"},{"type":"bold","offset":79,"length":4,"data":""},{"type":"bold","offset":119,"length":9,"data":""},{"type":"handle","offset":129,"length":9,"data":"daria144"},{"type":"bold","offset":1004,"length":22,"data":""},{"type":"bold","offset":1239,"length":33,"data":""},{"type":"bold","offset":1520,"length":29,"data":""}],"date":"2020-03-27T09:48:35+00:00","link":"tg://resolve?domain=jvmjobs&post=1328","tags":[{"name":"java"},{"name":"jvm"},{"name":"kafka"},{"name":"spring"},{"name":"redis"},{"name":"python"},{"name":"postgresql"},{"name":"apache"},{"name":"web"},{"name":"spring-boot"}],"cities":[{"code":"moscow"}],"allowsRemote":false}},{"node":{"__typename":"Job","id":"1943011328-1001134745498","title":"Devops инженер","text":"#вакансия #DevOps #Москва #ivi\n\nЛокация: Москва, ст. м. Дмитровская\nФормат работы: офис \nЗанятость: полная\nЗарплатная вилка: от 180 000 до 250 000 руб. на руки.\n\nМы — команда эксплуатации сервиса ivi .\n\nРазыскиваем коллегу в команду для участия в настойке процессов, технических (CI/CD) и в части взаимодействия с коллегами. Активное участие в разворачивании и эксплуатации k8s .Помогаем командам разработки строить CI/CD-пайплайны . Некоторые из нас это делают в составе кросс-команд, другие помогают многим командам, оставшиеся обеспечивают всех нас необходимыми приложениями и инфраструктурой.\n\nХраним код и разрабатываем pipeline-ы с помощью gitlab+artifactory .\nДля мониторинга серверов и сервисов используем zabbix и statsd , заправляем grafana.\nНаши сервисы написаны на python, golang и немного php и java.\nЛюбим и активно используем jenkins для решения самых разнообразных задач.\nИспользуем много open source (и не только) приложений: nginx, redis, postgresql, mongodb, rabbitmq, clickhouse, openstack, gitlab, kafka, hdfs, jira , opennebula.\n\nЧто предстоит делать: \n- развитие и настройки процессов ci/cd;\n- планирование и участие в рефакторинге процессов, инфраструктуры, приложений;\n- сопровождение сервисов от разработки до эксплуатации, участие в эксплуатации;\n- доработка текущих и разработка новых сценариев конфигурирования серверов и приложений; \n- администрирование приложений по результатам выполненной работы подготовка документации, если необходимо. \n\nКак узнать что ты нам подходишь? \n- положительный и продолжительный опыт работы с CI/CD-системами (у нас gitlab и jenkins);\n- умение хорошо готовить docker; \n- опыт программирования на скриптовых языках (shell, python);\nопыт администрирования linux и приложение 5+;\n- понимание сетевых технологий TCP/IP; \n- опыт работы с системами управления версиями (git) и конфигурациями. \n\nСо своей стороны мы обещаем: \n- Офис в 5 минутах ходьбы от м. \"Дмитровская\";\n- У нас гибкий график, мы начинаем до 11 часов дня;\n- Трудоустройство по ТК РФ;\n- ДМС + стоматология после прохождения испытательного срока;\n- Подписка на ivi;\n- Пакет релокации для соискателей со всей России.\n\nОнлайн-кинотеатр ivi \nhttps://www.ivi.tv/\n\nБуду рада рассказать подробности, пишите в личку @daria144 или на почту dsereda@ivi.ru\n\n—\n\n👉 Обсуждение вакансии в чате @devops_jobs","markup":[{"type":"hashtag","offset":0,"length":9,"data":"вакансия"},{"type":"hashtag","offset":10,"length":7,"data":"DevOps"},{"type":"hashtag","offset":18,"length":7,"data":"Москва"},{"type":"hashtag","offset":26,"length":4,"data":"ivi"},{"type":"link","offset":2161,"length":19,"data":"https://www.ivi.tv/"},{"type":"handle","offset":2231,"length":9,"data":"daria144"},{"type":"link","offset":2254,"length":14,"data":"mailto:dsereda@ivi.ru"},{"type":"handle","offset":2303,"length":12,"data":"devops_jobs"}],"date":"2020-03-27T09:21:44+00:00","link":"tg://resolve?domain=devops_jobs_feed&post=1853","tags":[{"name":"gitlab"},{"name":"python"},{"name":"go"},{"name":"php"},{"name":"java"},{"name":"jenkins"},{"name":"nginx"},{"name":"redis"},{"name":"postgresql"},{"name":"mongodb"},{"name":"rabbitmq"},{"name":"kafka"},{"name":"hdfs"},{"name":"docker"},{"name":"shell"},{"name":"linux"},{"name":"git"}],"cities":[{"code":"moscow"}],"allowsRemote":false}},{"node":{"__typename":"Job","id":"1390411776-1001091028994","title":"Java разработчик","text":"Вакансия: #вакансия #java #developer #офис #fulltime\nУровень: #middle\nКомпания: #cleverdata\nКонтакт: @szhemzhitsky, email: hr@cleverdata.ru\nЛокация: #москва #мск\nОфис: м. Автозаводская \nЗ/п: от 120 000 до 220 000 руб. на руки\n\n\nCleverDATA ищет Java-разработчика с желанием работать и видеть результаты своей работы, попутно развиваясь в областях по построению систем обработки данных и высоконагруженных сервисов.\n\nВам предстоит развивать экосистему обмена и активации аудиторных данных, состоящую из:\n\n- DMPkit (dmpkit.io) - набор компонент и сервисов для построения платформ по обработке и управлению аудиторными данными;\n- DMC (1dmc.io) - единственную независимую в РФ биржу аудиторных данных.\n\nОжидания:\n\n- Опыт работы с Java от 2-3 лет;\n- Хорошее знание Java Core, стандартной библиотеки и структур данных;\n- Владение SQL, умение использовать конструкции JOIN, GROUP BY и т.п.;\n- Опыт работы с Linux на уровне \"пользователь\";\n- Быть готовым к работе и изучению Scala (на нем разрабатываются Spark-задачи);\n- Умение работать в команде и писать читаемый код;\n- Умение и желание изучать те инструменты и технологии, с которыми не доводилось работать ранее;\n- Умение читать и понимать англоязычную профессиональную литературу и документацию;\n- Способность обучаться и находить решения самостоятельно, пользуясь доступными источниками информации.\n\nПросто отлично (но не обязательно), если у вас есть:\n\n- Опыт разработки, не обязательно коммерческой, чего-либо отличного от Spring RESTful сервисов;\n- Опыт работы с чем-либо из следующих технологий: Hadoop, Spark, Flink, Kafka;\n- Возможность предоставить на ознакомление какие-либо примеры своего кода;\n- Понимание того, что такое вычислительная сложность алгоритмов.\n\nТехнологии:\n\n- Java, Scala – языки программирования\n- Gradle – система сборки\n- TestNG, Mockito, Hamcrest, ScalaTest – библиотеки тестирования\n- Spring Cloud – микросервисы\n- Spark, Hadoop YARN, Oozie – пакетная обработка данных\n- Flink, Hadoop YARN, Kafka – потоковая обработка данных\n- PostgreSQL, Aerospike, Hadoop HDFS – хранение данных\n\nВозможности:\n\n- Интересные и сложные задачи по обработке данных в пакетном и потоковом режимах;\n- Разработка высоконагруженных и отказоустойчивых сервисов и систем;\n- Принятие самостоятельных решений в части реализации и их аргументация;\n- Работа в дружном и профессиональном коллективе;\n- Адекватный процесс разработки и доставки ПО (юнит- и функциональное тестирование, CI/CD, Code Review, Agile, и т.п.);\n- Участие в релевантных конференциях, в том числе за пределами РФ;\n- Гибкий рабочий график и возможность один день в неделю работать удаленно (на время карантина - постоянно);\n- Быстрый профессиональный и карьерный рост.\n\nУсловия:\n\n- Работа с передовыми технологиями;\n- Стабильная белая заработная плата;\n- Социальный пакет.\n\nПримеры некоторых из задач:\n\n- Скачивание каталогов с файлами из HDFS со склейкой файлов в один файл на лету;\n- Возврат атрибутов и идентификаторов профиля высоконагруженным сервисом по получению аудиторных данных, обслуживающим до 100K RPS;\n- Унифицировать способ предоставления метрик высоконагруженными сервисами (10K+ RPS);\n- Перевести обнаружение высоконагруженных сервисов на механизм Service Discovery;\n- Добавить возможность использования ML-моделей к пакетному и потоковому сегментаторам аудиторных данных;\n- Добавить возможность инкрементальной загрузки аудиторных данных в распределенную key-value БД Aerospike.","markup":[{"type":"bold","offset":0,"length":9,"data":""},{"type":"hashtag","offset":10,"length":9,"data":"вакансия"},{"type":"hashtag","offset":20,"length":5,"data":"java"},{"type":"hashtag","offset":26,"length":10,"data":"developer"},{"type":"hashtag","offset":37,"length":5,"data":"офис"},{"type":"hashtag","offset":43,"length":9,"data":"fulltime"},{"type":"bold","offset":53,"length":8,"data":""},{"type":"hashtag","offset":62,"length":7,"data":"middle"},{"type":"bold","offset":70,"length":9,"data":""},{"type":"hashtag","offset":80,"length":11,"data":"cleverdata"},{"type":"bold","offset":92,"length":8,"data":""},{"type":"handle","offset":101,"length":13,"data":"szhemzhitsky"},{"type":"link","offset":123,"length":16,"data":"mailto:hr@cleverdata.ru"},{"type":"bold","offset":140,"length":8,"data":""},{"type":"hashtag","offset":149,"length":7,"data":"москва"},{"type":"hashtag","offset":157,"length":4,"data":"мск"},{"type":"bold","offset":162,"length":5,"data":""},{"type":"bold","offset":186,"length":4,"data":""},{"type":"bold","offset":228,"length":10,"data":""},{"type":"bold","offset":415,"length":13,"data":""},{"type":"link","offset":513,"length":9,"data":"http://dmpkit.io"},{"type":"link","offset":631,"length":7,"data":"http://1dmc.io"},{"type":"bold","offset":698,"length":8,"data":""},{"type":"bold","offset":1348,"length":54,"data":""},{"type":"bold","offset":1718,"length":10,"data":""},{"type":"bold","offset":1747,"length":23,"data":""},{"type":"bold","offset":1781,"length":15,"data":""},{"type":"bold","offset":1837,"length":24,"data":""},{"type":"bold","offset":1878,"length":13,"data":""},{"type":"bold","offset":1921,"length":26,"data":""},{"type":"bold","offset":1977,"length":27,"data":""},{"type":"bold","offset":2043,"length":28,"data":""},{"type":"bold","offset":2690,"length":7,"data":""},{"type":"bold","offset":2794,"length":29,"data":""}],"date":"2020-03-26T13:48:17+00:00","link":"tg://resolve?domain=jvmjobs&post=1326","tags":[{"name":"java"},{"name":"jvm"},{"name":"sql"},{"name":"linux"},{"name":"scala"},{"name":"spring"},{"name":"hadoop"},{"name":"kafka"},{"name":"gradle"},{"name":"cloud"},{"name":"postgresql"},{"name":"hdfs"}],"cities":[{"code":"moscow"}],"allowsRemote":true}},{"node":{"__typename":"Job","id":"1940914176-1001134745498","title":"Devops инженер","text":"#вакансия #DevOps #fulltime \nСанкт-Петербург, м. Чкаловская\nОфис, полная занятость \nЗарплата от 150 000 до 200 000\nЧто предстоит делать:\n-Настройка и поддержание в работоспособном состоянии продуктовых бизнес систем\n-Работа с инфраструктурой в DigitalOcean, AWS\n-Автоматизация разворачивания сервисов\n-Миграция, а также поддержка проектов на Kubernetes\n-Интеграция новых сервисов в существующую инфраструктуру\n-Администрирование операционных систем: RHEL/CentOS, Ubuntu\nЧто нам нужно от Вас:\n-Обязателен production опыт эксплуатации кластера kubernetes\n-Опыт работы с Linux системами\n-Понимание работы сетевых протоколов\n-Docker\n-git\n-Написание и поддержка Ansible playbooks\n-CI/CD (мы используем Drone CI, CircleCI)\n-Знакомство с одним из языков: Go, Python, Bash\n-Знания хотя бы об одном из продуктов: nginx, haproxy, tomcat\n-Опыт работы с PostgreSQL/MySQL, MongoDB\n-Глубокое понимание Terraform\n-Amazon Web Services\n-Знакомство с Prometheus\nNice to have:\n-Базовые знания DigitalOcean\n-Опыт работы с Kafka, Redis\n-Знакомство с ElasticSearch\nКомпания Snowball Gaming https://www.linkedin.com/company/snowball-gaming/about/\nКонтакт: maria.yudina@snowball.dev, TG @maria_you\n\n—\n\n👉 Обсуждение вакансии в чате @devops_jobs","markup":[{"type":"hashtag","offset":0,"length":9,"data":"вакансия"},{"type":"hashtag","offset":10,"length":7,"data":"DevOps"},{"type":"hashtag","offset":18,"length":9,"data":"fulltime"},{"type":"link","offset":1068,"length":55,"data":"https://www.linkedin.com/company/snowball-gaming/about/"},{"type":"link","offset":1133,"length":25,"data":"mailto:maria.yudina@snowball.dev"},{"type":"handle","offset":1163,"length":10,"data":"maria_you"},{"type":"handle","offset":1208,"length":12,"data":"devops_jobs"}],"date":"2020-03-26T12:56:42+00:00","link":"tg://resolve?domain=devops_jobs_feed&post=1851","tags":[{"name":"amazon-web-services"},{"name":"kubernetes"},{"name":"centos"},{"name":"ubuntu"},{"name":"linux"},{"name":"docker"},{"name":"git"},{"name":"ansible"},{"name":"python"},{"name":"bash"},{"name":"nginx"},{"name":"tomcat"},{"name":"postgresql"},{"name":"mysql"},{"name":"mongodb"},{"name":"web"},{"name":"kafka"},{"name":"redis"},{"name":"elasticsearch"}],"cities":[{"code":"nice"}],"allowsRemote":false}},{"node":{"__typename":"Job","id":"23913824256-1001075660570","title":"Php developer","text":"#вакансия  #спб  #fulltime #офис #php7  #Yii # Go #senior\n📍Кого ищем: Senior PHP/Go Developer\n📍Город: Санкт-Петербург, м. Петроградская\n📍Формат работы: офис, полная занятость\n💰Заработная плата: до 200 К на руки (обсудим на собеседовании)\nПривет, мы компания Фотосклад/АВС.ru, TOP3 e-commerce Санкт-Петербурга.\n🔎Мы ищем ведущего backend-девелопера в группу архитектуры и микросервисов , который владеет стеком PHP7 + Go.\nМы работаем в стандартном пятидневном графике, с возможностью немного двигать начало и окончание рабочего дня. Территориально мы располагаемся в шаговой доступности от м.Петроградская. В нашем офисе есть все стандартные плюшки (как кофе и печеньки), а также кикер, плойка и настолки. \n📌Наш стек:\nPHP7, Go, ElasticSearch, Postgres, Kafka, ELK, gitlab CI\n📌Мы ждем, что наш кандидат:\n- Уверенно знает PHP7 и хорошо знает Go;\n- Интересуется  архитектурой информационных систем;\n- Понимает ООП, SOLID, шаблоны проектирования, гексагональную архитектуру;\n- Владеет одним из фреймворков Yii2, Laravel, Symfony;\n- Понимает микросервисную архитектуру, Event-Driven Architecture;\n- Отличное знание баз данных SQL, NoSQL;\n\nПо всем вопросам: @minataly","markup":[{"type":"hashtag","offset":0,"length":9,"data":"вакансия"},{"type":"hashtag","offset":11,"length":4,"data":"спб"},{"type":"hashtag","offset":17,"length":9,"data":"fulltime"},{"type":"hashtag","offset":27,"length":5,"data":"офис"},{"type":"hashtag","offset":33,"length":5,"data":"php7"},{"type":"hashtag","offset":40,"length":4,"data":"Yii"},{"type":"hashtag","offset":50,"length":7,"data":"senior"},{"type":"link","offset":272,"length":6,"data":"http://АВС.ru"},{"type":"handle","offset":1157,"length":9,"data":"minataly"}],"date":"2020-03-24T12:29:47+00:00","link":"tg://resolve?domain=php_jobs&post=22806","tags":[{"name":"php"},{"name":"yii"},{"name":"elasticsearch"},{"name":"postgresql"},{"name":"kafka"},{"name":"gitlab"},{"name":"laravel"},{"name":"symfony"},{"name":"sql"},{"name":"nosql"}],"cities":[],"allowsRemote":false}},{"node":{"__typename":"Job","id":"1934622720-1001134745498","title":"Devops инженер","text":"#вакансия #devOps\nПривет! Крупнейший медиа холдинг ищет крутого инженера DevOps! \nЛокация: Москва, м. Тульская или Сколково\nИщем сотрудника в офис на полный рабочий день.\nУсловия: зп от 170 000 до 200 000 (обсуждается на собеседовании), комфортабельный офис, ДМС и ВЗР после испытательного срока, дополнительные скидки на услуги партнеров\n\nПроект по консолидации данных активов холдинга и созданию DMP для профилирования аудитории\n\nОсновные задачи:\n• Установка, настройка, обновление программного обеспечения\n• Поддержание отказоустойчивости веб сервисов\n• Сопровождение процесса разработки, автоматизация релизов и тестирования.\n• Управление и поддержка тестового и продуктивного окружения\n• Настройка мониторинга и оповещения о событиях\n\nНаш стек: Hadoop, Spark, Kafka\n\nОжидаем от тебя:\n• Опыт работы в качестве Инженера DevOps по сопровождению систем распределенных вычислений на основе стека Hadoop+Kafka.\n• Оркестратор процессов – Airflow\n• Опыт настройки Nginx для высоконагруженных веб сервисов.\n• Опыт работы с Docker и Kubernetes, системами мониторинга Grafana+Prometheus или подобными\n• Опыт работы с Gitlab и системами CI/CD\n\nКомпания: Национальная медиа группа https://nm-g.ru/holding/\n\nГотова рассказать детали, я всегда на связи в telegram @AnnaSafarova\nТакже буду очень признательна за рекомендации \n\nВсем хорошего дня!\n\n—\n\n👉 Обсуждение вакансии в чате @devops_jobs","markup":[{"type":"hashtag","offset":0,"length":9,"data":"вакансия"},{"type":"hashtag","offset":10,"length":7,"data":"devOps"},{"type":"link","offset":1173,"length":24,"data":"https://nm-g.ru/holding/"},{"type":"handle","offset":1254,"length":13,"data":"AnnaSafarova"},{"type":"handle","offset":1369,"length":12,"data":"devops_jobs"}],"date":"2020-03-24T11:26:47+00:00","link":"tg://resolve?domain=devops_jobs_feed&post=1845","tags":[{"name":"hadoop"},{"name":"kafka"},{"name":"nginx"},{"name":"docker"},{"name":"kubernetes"},{"name":"gitlab"}],"cities":[{"code":"moscow"}],"allowsRemote":false}}]}}},"context":{}}