{"hash":"f5f6bf98bd95e769321482904cbbd488f77922fd","data":{"records":{"id":"uikit","name":"uikit","belongsTo":{"totalCount":21,"pageInfo":{"totalPages":3,"currentPage":2},"edges":[{"node":{"__typename":"Job","id":"71832698880-1001054966032","title":"Ios разработчик","text":"#вакансия #swift #objective-C #ios\n\niOS разработчик удаленно по России \nmiddle/senior/lead\n\nГород : Санкт-Петербург\nФормат работы: офис или удаленно\nЗанятость: Полная\nЗарплатная вилка:  90 000 - 300 000 руб\n\n\nОписание компании:\nВ Blogman мы занимаемся разработкой собственного приложения – платформа для блогеров и рекламодателей. В нашей команде уже более 50 разработчиков и мы продолжаем расти. Сейчас мы ищем инженера с опытом коммерческой разработки под iOS.\nОсновной стек технологий — Swift, Realm, Alamofire. Сейчас мы разрабатываем бизнес-функционал и будем рады новому специалисту в нашей команде, вместе с которым мы будем делать быстрое приложение с отзывчивым и плавным интерфейсом.\n\nМы ожидаем, что у вас есть:\n— Опыт коммерческой разработки мобильных приложений под iOS;\n— Хорошие знания Swift, UIKit;\n— Опыт работы с мобильными БД;\n— Умение работать с Git, Cocoapods.\n\nБудет плюсом, если вы:\n— Разрабатывали клиент-серверные приложения;\n— Умеете работать с WebSocket;\n— Знаете и понимаете архитектуру VIPER;\n— Командный игрок без яркого эгоцентризма;\n— Готовы активно принимать участие в жизни компании и продукта.\n\nРады предложить:\n– Удаленное сотрудничество или комфортный офис на Невском проспекте в 5 минутах ходьбы от ст. м. Маяковская и Владимирская;\n– Желаемый оклад по результатам собеседования;\n– Понятную систему роста зарплаты каждые 6 месяцев, в которой все зависит только от вас;\n– Все необходимые офисные блага вроде вкусного кофе и т.д.\nВас будут окружать адекватные люди, с которыми комфортно решать поставленные задачи. У сотрудников есть общие ценности, такие как стремление к качественному результату, забота о продукте и желание двигаться вперед. Также у нас нет “Начальства”, а есть коллеги. Все взаимодействуют горизонтально и в команде равенство между инженерами, стейкхолдером, продактом и т.д. Все работают бок о бок и делают одно общее дело.\n\n@maria_golovina","markup":[{"type":"hashtag","offset":0,"length":9,"data":"вакансия"},{"type":"hashtag","offset":10,"length":6,"data":"swift"},{"type":"hashtag","offset":17,"length":10,"data":"objective"},{"type":"hashtag","offset":30,"length":4,"data":"ios"},{"type":"bold","offset":230,"length":8,"data":""},{"type":"bold","offset":495,"length":2,"data":""},{"type":"bold","offset":502,"length":2,"data":""},{"type":"bold","offset":695,"length":27,"data":""},{"type":"bold","offset":883,"length":22,"data":""},{"type":"bold","offset":1130,"length":16,"data":""},{"type":"handle","offset":1883,"length":15,"data":"maria_golovina"}],"date":"2020-06-23T07:28:06+00:00","link":"tg://resolve?domain=mobile_jobs&post=68505","tags":[{"name":"mobile"},{"name":"ios"},{"name":"swift"},{"name":"objective-c"},{"name":"realm"},{"name":"uikit"},{"name":"git"},{"name":"cocoapods"},{"name":"websocket"}],"cities":[],"allowsRemote":true}},{"node":{"__typename":"Job","id":"71750909952-1001054966032","title":"Ios разработчик","text":"‼️Вакансия Senior IOS C++ Developer‼️\n#вакансия #IOS #developer #удаленка\nВ команде Mycelium Wallet (mycelium.com) открыта вакансия Senior IOS C++ Developer.\n💵З/П 3000-4000 USD по итогам собеседования.\nРабота удаленная 💻\n\nМы предлагаем:\n🔸Получить навыки и компетенции в одном из самых передовых и перспективных направлений финтех индустрии - blockchain;\n🔸Принять участие в разработке одного из самых популярных биткоин-стартапов;\n🔸Работать в международной команде бок о бок с ведущими специалистами в индустрии;\n🔸Возможность профессионального карьерного роста и участия в разнообразных проектах компании.\nЧем предстоит заниматься:\n🔸Разрабатывать мультивалютный крипто-валютный кошелек с кросс-платформенным ядром;\n🔸Проектировать и разрабатывать большие функциональные части приложения с привлечением других разработчиков;\n🔸Использовать cutting edge технологии, а также проверенные временем решения;\n🔸Находить решения для нестандартных задач.\nТребования:\n✔️Как минимум 3 года опыта разработки под IOS и опыта программирования на C++;\nЗнание C++ на уровне ведущего разработчика;\n✔️Знание шаблонов проектирования, опыт использования MVP и других архитектурных подходов;\n✔️Знание шаблонов проектирования пользовательских интерфейсов для iOS 9+ (Human Interface Guidelines);\n✔️Знание iOS SDK (UIKit, Foundation, CoreLocation и др.), общее понимание архитектуры iOS;\n✔️Знание особенностей UiKit: storyboards, autolayout, size classes;\n✔️Знание CocoaPods, FastLane, Xcode utils, code analyzers;\n✔️Опыт параллельного и многопоточного программирования, знание примитивов синхронизации (std::thread, std::mutex и тд);\n✔️Понимание циклов работы IOS-приложения и управления памятью;\n✔️Понимание принципов работы REST API, RPC, WS и клиент-серверных приложений;\n✔️Опыт работы с системами контроля версий (Git) и постановки задач (JIRA, TFS, Redmine);\n✔️Знание английского языка на уровне чтения документации и умения общаться в корпоративном чате.\n\nПлюсом будет:\n🔸Знание Objective-С и Swift;\n🔸Умение и понимание необходимости написания Unit tests;\n🔸Знание основ криптографии;\n🔸Опыт работы с bitcoin/etherium blockchain stack;\n🔸Наличие своих проектов на Github, в App Store и т.д.\n\n📲 Контакт : @valeritata","markup":[{"type":"hashtag","offset":38,"length":9,"data":"вакансия"},{"type":"hashtag","offset":48,"length":4,"data":"IOS"},{"type":"hashtag","offset":53,"length":10,"data":"developer"},{"type":"hashtag","offset":64,"length":9,"data":"удаленка"},{"type":"link","offset":101,"length":12,"data":"http://mycelium.com"},{"type":"handle","offset":2196,"length":11,"data":"valeritata"}],"date":"2020-06-22T07:22:15+00:00","link":"tg://resolve?domain=mobile_jobs&post=0","tags":[{"name":"mobile"},{"name":"ios"},{"name":"uikit"},{"name":"cocoapods"},{"name":"xcode"},{"name":"rest"},{"name":"git"},{"name":"tfs"},{"name":"objective-c"},{"name":"swift"},{"name":"github"}],"cities":[],"allowsRemote":true}},{"node":{"__typename":"Job","id":"71724695552-1001054966032","title":"Ios разработчик","text":"#вакансия #swift #objective-C #ios\n\nГород : Санкт-Петербург\nФормат работы: офис или удаленно\nЗанятость: Полная\nЗарплатная вилка:  90 000 - 300 000 руб\n\nОписание компании:\nВ Blogman мы занимаемся разработкой собственного приложения – платформа для блогеров и рекламодателей. В нашей команде уже более 50 разработчиков и мы продолжаем расти. Сейчас мы ищем инженера с опытом коммерческой разработки под iOS.\nОсновной стек технологий — Swift, Realm, Alamofire. Сейчас мы разрабатываем бизнес-функционал и будем рады новому специалисту в нашей команде, вместе с которым мы будем делать быстрое приложение с отзывчивым и плавным интерфейсом.\n\nМы ожидаем, что у вас есть:\n— Опыт коммерческой разработки мобильных приложений под iOS;\n— Хорошие знания Swift, UIKit;\n— Опыт работы с мобильными БД;\n— Умение работать с Git, Cocoapods.\n\nБудет плюсом, если вы:\n— Разрабатывали клиент-серверные приложения;\n— Умеете работать с WebSocket;\n— Знаете и понимаете архитектуру VIPER;\n— Командный игрок без яркого эгоцентризма;\n— Готовы активно принимать участие в жизни компании и продукта.\n\nРады предложить:\n– Удаленное сотрудничество или комфортный офис на Невском проспекте в 5 минутах ходьбы от ст. м. Маяковская и Владимирская;\n– Желаемый оклад по результатам собеседования;\n– Понятную систему роста зарплаты каждые 6 месяцев, в которой все зависит только от вас;\n– Все необходимые офисные блага вроде вкусного кофе и т.д.\nВас будут окружать адекватные люди, с которыми комфортно решать поставленные задачи. У сотрудников есть общие ценности, такие как стремление к качественному результату, забота о продукте и желание двигаться вперед. Также у нас нет “Начальства”, а есть коллеги. Все взаимодействуют горизонтально и в команде равенство между инженерами, стейкхолдером, продактом и т.д. Все работают бок о бок и делают одно общее дело.\nНазвание компании: Blogman","markup":[{"type":"hashtag","offset":0,"length":9,"data":"вакансия"},{"type":"hashtag","offset":10,"length":6,"data":"swift"},{"type":"hashtag","offset":17,"length":10,"data":"objective"},{"type":"hashtag","offset":30,"length":4,"data":"ios"},{"type":"bold","offset":173,"length":8,"data":""},{"type":"bold","offset":438,"length":2,"data":""},{"type":"bold","offset":445,"length":2,"data":""},{"type":"bold","offset":638,"length":27,"data":""},{"type":"bold","offset":826,"length":22,"data":""},{"type":"bold","offset":1073,"length":16,"data":""}],"date":"2020-06-21T08:50:59+00:00","link":"tg://resolve?domain=mobile_jobs&post=0","tags":[{"name":"mobile"},{"name":"ios"},{"name":"swift"},{"name":"objective-c"},{"name":"realm"},{"name":"uikit"},{"name":"git"},{"name":"cocoapods"},{"name":"websocket"}],"cities":[],"allowsRemote":true}},{"node":{"__typename":"Job","id":"71664926720-1001054966032","title":"Ios разработчик","text":"#вакансия #работа #iOS #Developer #fulltime #удаленно\n\nВсем привет!\n\nМы в applicatura.com опять выросли и ищем Junior/middle iOS-разработчика. \nЗП 60 000 - 100 000 руб. после налогов. \n\n\nМы создаем и поддерживаем мобильные приложения для крупных известных брендов , SimpleWine, Перекресток, Абсолют Банк и др. \nВ команде - дизайнеры, мобильные разработчики, бэкенд разработчики, проджект менеджеры, qa-инженеры.\nУ нас налаженные процессы разработки и никакого чайка-менеджмента. \n\nЧто вам придется делать:\n - разрабатывать новые приложений \n - поддерживать имеющиеся приложения клиентов\n - создание библиотек и SDK\n - верстать по макетам дизайнеров\n - проходить технические аудиты от заказчиков\n\n\nТребования:\n- Опыт коммерческой разработки от 0,5 года;\n - Знание Swift\n - Знание особенностей и тонкостей разработки под iOS (UIKit, Foundation, CoreData и др.)\n - Знание git и уверенное использование подходов и инструментов командной разработки и ревью кода - ревьювить будем вас )\n - Имеющееся представление о том, как выстроить архитектуру большого и сложного приложения\n - Знания последних технологий, фреймворков, инструментов и вообще желание разумно следовать прогрессу\n - Понимание аспектов и этапов разработки мобильного приложения полного цикла (от настройки окружения до релиза в сторы)\n - Знание библиотек и стека мобильной разработки\n\nУсловия:\n\n - белая ЗП, соблюдаем и чтим Трудовой Кодекс РФ\n - возможность иметь нестандартный рабочий график\n - предоставляем возможности для карьерного и профессионального роста\n - работа в крупных публичных проектах, которые можно положить себе в портфолио\n \nВАЖНО! Вакансия для граждан РФ/РБ. \n\nПисать в телеграм @k_kononov, CV присылать на почту kononov@applicatura.com","markup":[{"type":"hashtag","offset":0,"length":9,"data":"вакансия"},{"type":"hashtag","offset":10,"length":7,"data":"работа"},{"type":"hashtag","offset":18,"length":4,"data":"iOS"},{"type":"hashtag","offset":23,"length":10,"data":"Developer"},{"type":"hashtag","offset":34,"length":9,"data":"fulltime"},{"type":"hashtag","offset":44,"length":9,"data":"удаленно"},{"type":"link","offset":74,"length":15,"data":"http://applicatura.com"},{"type":"handle","offset":1662,"length":10,"data":"k_kononov"},{"type":"link","offset":1696,"length":23,"data":"mailto:kononov@applicatura.com"}],"date":"2020-06-19T15:13:09+00:00","link":"tg://resolve?domain=mobile_jobs&post=0","tags":[{"name":"mobile"},{"name":"ios"},{"name":"swift"},{"name":"uikit"},{"name":"git"}],"cities":[],"allowsRemote":true}},{"node":{"__typename":"Job","id":"71624032256-1001054966032","title":"Ios разработчик","text":"#вакансия #swift #objective-C #ios\n\nГород : Санкт-Петербург\nФормат работы: офис или удаленно\nЗанятость: Полная\nЗарплатная вилка:  90 000 - 300 000 руб\n\nОписание компании:\nВ Blogman мы занимаемся разработкой собственного приложения – платформа для блогеров и рекламодателей. В нашей команде уже более 50 разработчиков и мы продолжаем расти. Сейчас мы ищем инженера с опытом коммерческой разработки под iOS.\nОсновной стек технологий — Swift, Realm, Alamofire. Сейчас мы разрабатываем бизнес-функционал и будем рады новому специалисту в нашей команде, вместе с которым мы будем делать быстрое приложение с отзывчивым и плавным интерфейсом.\n\nМы ожидаем, что у вас есть:\n— Опыт коммерческой разработки мобильных приложений под iOS;\n— Хорошие знания Swift, UIKit;\n— Опыт работы с мобильными БД;\n— Умение работать с Git, Cocoapods.\n\nБудет плюсом, если вы:\n— Разрабатывали клиент-серверные приложения;\n— Умеете работать с WebSocket;\n— Знаете и понимаете архитектуру VIPER;\n— Командный игрок без яркого эгоцентризма;\n— Готовы активно принимать участие в жизни компании и продукта.\n\nРады предложить:\n– Удаленное сотрудничество или комфортный офис на Невском проспекте в 5 минутах ходьбы от ст. м. Маяковская и Владимирская;\n– Желаемый оклад по результатам собеседования;\n– Понятную систему роста зарплаты каждые 6 месяцев, в которой все зависит только от вас;\n– Все необходимые офисные блага вроде вкусного кофе и т.д.\nВас будут окружать адекватные люди, с которыми комфортно решать поставленные задачи. У сотрудников есть общие ценности, такие как стремление к качественному результату, забота о продукте и желание двигаться вперед. Также у нас нет “Начальства”, а есть коллеги. Все взаимодействуют горизонтально и в команде равенство между инженерами, стейкхолдером, продактом и т.д. Все работают бок о бок и делают одно общее дело.\nНазвание компании: Blogman","markup":[{"type":"hashtag","offset":0,"length":9,"data":"вакансия"},{"type":"hashtag","offset":10,"length":6,"data":"swift"},{"type":"hashtag","offset":17,"length":10,"data":"objective"},{"type":"hashtag","offset":30,"length":4,"data":"ios"},{"type":"bold","offset":173,"length":8,"data":""},{"type":"bold","offset":438,"length":2,"data":""},{"type":"bold","offset":445,"length":2,"data":""},{"type":"bold","offset":638,"length":27,"data":""},{"type":"bold","offset":826,"length":22,"data":""},{"type":"bold","offset":1073,"length":16,"data":""}],"date":"2020-06-19T09:44:55+00:00","link":"tg://resolve?domain=mobile_jobs&post=0","tags":[{"name":"mobile"},{"name":"ios"},{"name":"swift"},{"name":"objective-c"},{"name":"realm"},{"name":"uikit"},{"name":"git"},{"name":"cocoapods"},{"name":"websocket"}],"cities":[],"allowsRemote":true}},{"node":{"__typename":"Job","id":"71583137792-1001054966032","title":"Ios разработчик","text":"‼️Вакансия Senior IOS C++ Developer‼️\n#вакансия #IOS #developer #удаленка\nВ команде Mycelium Wallet (mycelium.com) открыта вакансия Senior IOS C++ Developer.\n💵З/П 3000-4000 USD по итогам собеседования.\nРабота удаленная 💻\n\nМы предлагаем:\n🔸Получить навыки и компетенции в одном из самых передовых и перспективных направлений финтех индустрии - blockchain;\n🔸Принять участие в разработке одного из самых популярных биткоин-стартапов;\n🔸Работать в международной команде бок о бок с ведущими специалистами в индустрии;\n🔸Возможность профессионального карьерного роста и участия в разнообразных проектах компании.\nЧем предстоит заниматься:\n🔸Разрабатывать мультивалютный крипто-валютный кошелек с кросс-платформенным ядром;\n🔸Проектировать и разрабатывать большие функциональные части приложения с привлечением других разработчиков;\n🔸Использовать cutting edge технологии, а также проверенные временем решения;\n🔸Находить решения для нестандартных задач.\nТребования:\n✔️Как минимум 3 года опыта разработки под IOS и опыта программирования на C++;\nЗнание C++ на уровне ведущего разработчика;\n✔️Знание шаблонов проектирования, опыт использования MVP и других архитектурных подходов;\n✔️Знание шаблонов проектирования пользовательских интерфейсов для iOS 9+ (Human Interface Guidelines);\n✔️Знание iOS SDK (UIKit, Foundation, CoreLocation и др.), общее понимание архитектуры iOS;\n✔️Знание особенностей UiKit: storyboards, autolayout, size classes;\n✔️Знание CocoaPods, FastLane, Xcode utils, code analyzers;\n✔️Опыт параллельного и многопоточного программирования, знание примитивов синхронизации (std::thread, std::mutex и тд);\n✔️Понимание циклов работы IOS-приложения и управления памятью;\n✔️Понимание принципов работы REST API, RPC, WS и клиент-серверных приложений;\n✔️Опыт работы с системами контроля версий (Git) и постановки задач (JIRA, TFS, Redmine);\n✔️Знание английского языка на уровне чтения документации и умения общаться в корпоративном чате.\n\nПлюсом будет:\n🔸Знание Objective-С и Swift;\n🔸Умение и понимание необходимости написания Unit tests;\n🔸Знание основ криптографии;\n🔸Опыт работы с bitcoin/etherium blockchain stack;\n🔸Наличие своих проектов на Github, в App Store и т.д.\n\n📲 Контакт : @valeritata","markup":[{"type":"hashtag","offset":38,"length":9,"data":"вакансия"},{"type":"hashtag","offset":48,"length":4,"data":"IOS"},{"type":"hashtag","offset":53,"length":10,"data":"developer"},{"type":"hashtag","offset":64,"length":9,"data":"удаленка"},{"type":"link","offset":101,"length":12,"data":"http://mycelium.com"},{"type":"handle","offset":2196,"length":11,"data":"valeritata"}],"date":"2020-06-18T14:51:09+00:00","link":"tg://resolve?domain=mobile_jobs&post=0","tags":[{"name":"mobile"},{"name":"ios"},{"name":"uikit"},{"name":"cocoapods"},{"name":"xcode"},{"name":"rest"},{"name":"git"},{"name":"tfs"},{"name":"objective-c"},{"name":"swift"},{"name":"github"}],"cities":[],"allowsRemote":true}},{"node":{"__typename":"Job","id":"71570554880-1001054966032","title":"Ios разработчик","text":"#вакансия #swift #objective-C #ios\n\nГород : Санкт-Петербург\nФормат работы: офис или удаленно\nЗанятость: Полная\nЗарплатная вилка:  90 000 - 300 000 руб\n\nОписание компании:\nВ Blogman мы занимаемся разработкой собственного приложения – платформа для блогеров и рекламодателей. В нашей команде уже более 50 разработчиков и мы продолжаем расти. Сейчас мы ищем инженера с опытом коммерческой разработки под iOS.\nОсновной стек технологий — Swift, Realm, Alamofire. Сейчас мы разрабатываем бизнес-функционал и будем рады новому специалисту в нашей команде, вместе с которым мы будем делать быстрое приложение с отзывчивым и плавным интерфейсом.\n\nМы ожидаем, что у вас есть:\n— Опыт коммерческой разработки мобильных приложений под iOS;\n— Хорошие знания Swift, UIKit;\n— Опыт работы с мобильными БД;\n— Умение работать с Git, Cocoapods.\n\nБудет плюсом, если вы:\n— Разрабатывали клиент-серверные приложения;\n— Умеете работать с WebSocket;\n— Знаете и понимаете архитектуру VIPER;\n— Командный игрок без яркого эгоцентризма;\n— Готовы активно принимать участие в жизни компании и продукта.\n\nРады предложить:\n– Удаленное сотрудничество или комфортный офис на Невском проспекте в 5 минутах ходьбы от ст. м. Маяковская и Владимирская;\n– Желаемый оклад по результатам собеседования;\n– Понятную систему роста зарплаты каждые 6 месяцев, в которой все зависит только от вас;\n– Все необходимые офисные блага вроде вкусного кофе и т.д.\nВас будут окружать адекватные люди, с которыми комфортно решать поставленные задачи. У сотрудников есть общие ценности, такие как стремление к качественному результату, забота о продукте и желание двигаться вперед. Также у нас нет “Начальства”, а есть коллеги. Все взаимодействуют горизонтально и в команде равенство между инженерами, стейкхолдером, продактом и т.д. Все работают бок о бок и делают одно общее дело.\nНазвание компании: Blogman\nКонтакты: @maria_golovina","markup":[{"type":"hashtag","offset":0,"length":9,"data":"вакансия"},{"type":"hashtag","offset":10,"length":6,"data":"swift"},{"type":"hashtag","offset":17,"length":10,"data":"objective"},{"type":"hashtag","offset":30,"length":4,"data":"ios"},{"type":"bold","offset":173,"length":8,"data":""},{"type":"bold","offset":438,"length":2,"data":""},{"type":"bold","offset":445,"length":2,"data":""},{"type":"bold","offset":638,"length":27,"data":""},{"type":"bold","offset":826,"length":22,"data":""},{"type":"bold","offset":1073,"length":16,"data":""},{"type":"handle","offset":1862,"length":15,"data":"maria_golovina"}],"date":"2020-06-18T12:32:34+00:00","link":"tg://resolve?domain=mobile_jobs&post=0","tags":[{"name":"mobile"},{"name":"ios"},{"name":"swift"},{"name":"objective-c"},{"name":"realm"},{"name":"uikit"},{"name":"git"},{"name":"cocoapods"},{"name":"websocket"}],"cities":[],"allowsRemote":true}},{"node":{"__typename":"Job","id":"71381811200-1001054966032","title":"Mobile разработчик","text":"Всем добрый день!\nИщем iOS разработчика (возможна удаленная работа).\n#вакансия\n#iOS developer\n#Казань #Иннополис\n#fulltime # офис или #remote\nЗанятость: полная \nЗарплатная вилка от 180-250+ net (зависит от уровня)\nКомпания: NNG\nКонтакты: @BetterCallOl\n\nWe are a world leader in the development of navigation equipment. Head office in Budapest.\nWhat would be your job? \n  •  Mobile and automotive navigation software development;\n  •  Various projects with international clients from all parts of the world;\n  •  Сooperation with PM and development teams both locally and in the Budapest office;\n  •  Design, develop, code, test and debug; own your code.\n If you have\n  •  Experience developing, testing, and releasing iOS apps;\n  •  Knowledge of Objective-C and Swift, UIKit;\n  •  Experience collaborating with designers on usability and aesthetics of apps;\n  •  Strong experience in writing and maintaining testable code and unit tests;\n  •  Experience with git-based version control systems;\n  •  Strong written and verbal communication skills in English;\nmoreover, you have any of the following: \n  •  Familiarity with JavaScript;\n  •  Familiarity with Flutter;\n  •  Experience in Agile development, especially SaFE and SCRUM;\n  You will make quite an impression on us! \nWhat can we give you in return? \n  •  A job at a successful global company;\n  •  Serious professional challenges;\n  •  A secure and well-paid job;\n  •  The opportunity to develop the navigation software of the future in the present;\n  •  Сompensation for rental flat;\n  •  The opportunity of working abroad for several weeks.\n\nКонтакты: @BetterCallOl","markup":[{"type":"hashtag","offset":69,"length":9,"data":"вакансия"},{"type":"hashtag","offset":79,"length":4,"data":"iOS"},{"type":"hashtag","offset":94,"length":7,"data":"Казань"},{"type":"hashtag","offset":102,"length":10,"data":"Иннополис"},{"type":"hashtag","offset":113,"length":9,"data":"fulltime"},{"type":"hashtag","offset":134,"length":7,"data":"remote"},{"type":"handle","offset":238,"length":13,"data":"BetterCallOl"},{"type":"handle","offset":1611,"length":13,"data":"BetterCallOl"}],"date":"2020-06-16T11:39:43+00:00","link":"tg://resolve?domain=mobile_jobs&post=0","tags":[{"name":"mobile"},{"name":"ios"},{"name":"dotnet"},{"name":"objective-c"},{"name":"swift"},{"name":"uikit"},{"name":"git"},{"name":"javascript"},{"name":"flutter"}],"cities":[{"code":"kazan"},{"code":"budapest"}],"allowsRemote":true}},{"node":{"__typename":"Job","id":"71337771008-1001054966032","title":"Ios разработчик","text":"В классную компанию требуется Senior IOS разработчик, для работы над приложением ^_^ \n\n💻Вакансия: #вакансия #ios #удалённо\n🏢Компания: #IT\n📍Локация:  #удалённо\n💰З/п: от 200 до 320 на руки\n\n🔮Чем предстоит заниматься:\n• Разработка мобильных приложений под платформу iOS.\n• Участвовать в CodeReview.\n• Поддержка и развитие проектов, добавление нового функционала.\n\n💼Наши ожидания:\n• Опыт на Swift от 4-х лет, опыт на Obj-C будет плюсом;\n• Глубокие знания UIKit, SnapKit;\n• Глубокие знания iOS SDK.\n\n📩Резюме и вопросы по вакансии жду:\n✍️ @Gleaming_Darkness\n✉️ margoshwarz@gmail.com","markup":[{"type":"hashtag","offset":99,"length":9,"data":"вакансия"},{"type":"hashtag","offset":109,"length":4,"data":"ios"},{"type":"hashtag","offset":114,"length":9,"data":"удалённо"},{"type":"hashtag","offset":136,"length":3,"data":"IT"},{"type":"hashtag","offset":152,"length":9,"data":"удалённо"},{"type":"handle","offset":540,"length":18,"data":"Gleaming_Darkness"},{"type":"link","offset":562,"length":21,"data":"mailto:margoshwarz@gmail.com"}],"date":"2020-06-16T05:20:37+00:00","link":"tg://resolve?domain=mobile_jobs&post=0","tags":[{"name":"mobile"},{"name":"ios"},{"name":"swift"},{"name":"uikit"}],"cities":[],"allowsRemote":true}},{"node":{"__typename":"Job","id":"71334625280-1001054966032","title":"Ios разработчик","text":"🌈 В компанию в Москве требуется Senior IOS разработчик, для работы над стриминговой платформой ^_^ \n\n💻Вакансия: #вакансия #москва #ios #офис\n🏢Компания: #Magic\n📍Локация:  #мск #москва\n💰З/п: от 200 до 280 на руки\n\n🔮Чем предстоит заниматься:\n• Разработка мобильных приложений под платформу iOS.\n• Участвовать в CodeReview.\n• Поддержка и развитие проектов, добавление нового функционала.\n\n💼Наши ожидания:\n• Опыт на Swift от 3-х лет, опыт на Obj-C;\n• Глубокие знания UIKit;\n• Опыт работы с RxSwift;\n• Глубокие знания iOS SDK.\n\n🏆Мы предлагаем:\n• Уровень заработной платы (зависит от пожеланий и профессионально уровня кандидата).\n• Возможность гибкого начала рабочего дня.\n• Офис: м. Дубровка, м.Волгоградский проспект.\n• Работа в классном офисе.\n\n📩Резюме и вопросы по вакансии жду:\n✍️ @Gleaming_Darkness\n✉️ margoshwarz@gmail.com","markup":[{"type":"hashtag","offset":114,"length":9,"data":"вакансия"},{"type":"hashtag","offset":124,"length":7,"data":"москва"},{"type":"hashtag","offset":132,"length":4,"data":"ios"},{"type":"hashtag","offset":137,"length":5,"data":"офис"},{"type":"hashtag","offset":155,"length":6,"data":"Magic"},{"type":"hashtag","offset":174,"length":4,"data":"мск"},{"type":"hashtag","offset":179,"length":7,"data":"москва"},{"type":"handle","offset":789,"length":18,"data":"Gleaming_Darkness"},{"type":"link","offset":811,"length":21,"data":"mailto:margoshwarz@gmail.com"}],"date":"2020-06-16T03:41:27+00:00","link":"tg://resolve?domain=mobile_jobs&post=0","tags":[{"name":"mobile"},{"name":"ios"},{"name":"swift"},{"name":"uikit"}],"cities":[{"code":"moscow"}],"allowsRemote":false}}]}}},"context":{}}