{"hash":"f34fd2c444a074f4e0e67d525015a008ef8e766f","data":{"records":{"id":"ios","name":"ios","belongsTo":{"totalCount":41,"pageInfo":{"totalPages":5,"currentPage":4},"edges":[{"node":{"__typename":"Job","id":"66254274560-1001054966032","title":"Android разработчик","text":"#вакансия #fulltime  #vacancy  #remote #ремоут  #Flutterdeveloper #Flutter \n\n💻 Flutter Developer\n🕐 Fulltime remote\n👩🏻‍💻1-1,5 year of commercial development on Flutter\n💰from 10 $/hour to 12 $/hour\n\nВсем привет!🙋🏻‍♀️\nAMS ищет разработчиков на долгосрочное сотрудничество на ремоут. Мы занимаемся разработкой мобильных приложений под Android и IOS.\n\nУсловия:\n-проектная занятость;\n-доступность в неделю 40 часов.\n\nТребования :\n-коммерческий опыт разработки от 1-1,5 года;\n-английский B1+.\n\n📝 За подробностями по вакансиям и по всем вопросам  пишите:\ndarya.matsyas@ams-apps.com\nDarya \nLinkedIn","markup":[{"type":"hashtag","offset":0,"length":9,"data":"вакансия"},{"type":"hashtag","offset":10,"length":9,"data":"fulltime"},{"type":"hashtag","offset":21,"length":8,"data":"vacancy"},{"type":"hashtag","offset":31,"length":7,"data":"remote"},{"type":"hashtag","offset":39,"length":7,"data":"ремоут"},{"type":"hashtag","offset":48,"length":17,"data":"Flutterdeveloper"},{"type":"hashtag","offset":66,"length":8,"data":"Flutter"},{"type":"link","offset":495,"length":2,"data":"http://darya.matsyas@ams-apps.com/"},{"type":"link","offset":556,"length":27,"data":"http://darya.matsyas@ams-apps.com/"},{"type":"link","offset":590,"length":8,"data":"https://www.linkedin.com/in/darya-matyas-12ba33158/"}],"date":"2020-04-08T11:46:12+00:00","link":"tg://resolve?domain=mobile_jobs&post=0","tags":[{"name":"mobile"},{"name":"android"},{"name":"ios"},{"name":"flutter"}],"cities":[],"allowsRemote":true}},{"node":{"__typename":"Job","id":"66251128832-1001054966032","title":"Ios разработчик","text":"#вакансия #москва #офис #senior #ios #developer #gamedev #swift \nГород и адрес офиса: Москва, м.Автозаводская \nФормат работы: офис \nЗанятость: полная \nЗарплатная вилка: от 250 000 до 300 000 на руки \n\n\n✅ Senior Developer (iOS/Swift) \n\nОписание вакансии: \n\nМы - успешная команда из 100 человек, которая занимается: \n• разработкой собственных мобильных игр и приложений \n• паблишингом мобильных игр \n• рекламой и маркетингом мобильных приложений (реклама на Facebook, Google и т.д.) \nЗа последние 3 года мы привлекли более 100 млн пользователей в наши собственные мобильные приложения и приложения наших клиентов и партнеров, потратив на это более $80 млн. \nУ нас есть все составляющие чтобы делать готовые продукты известными и популярными. Мы ищем сильного и талантливого разработчика для усиления нашей текущей слаженно работающей команды и выведения нашего Fitness & Health iOS приложения Fitingo на лидирующие позиции в мире (уже сейчас приложение занимало позиции ТОП 13 в США и ТОП 6 в Великобритании с более чем 400,000 установок и более чем 45,000 совершенных покупок).\n\n✅Задачи: \n•  Разрабатывать новый функционал\n•  Рефакторить и оптимизировать код\n•  Писать код. Больше логики, меньше UI. Например - хранить историю и прогресс; сделать leaderboard по странам; добавить чат, аналитику и a/b тесты; Apple Health, Watch, Music и TV\n•  Участвовать в Code Review\nТекущий стек: Swift 5.1, MVPC, AVFoundation, UserNotifications, Realm, StoreKit, Firebase, PushWoosh, Facebook, Python.\n✅Требования: \n•  Опыт работы разработчиком iOS приложений от 3х лет\n•  Отличное знание Swift\n•  Уверенное знание SOLID и паттернов проектирования\n•  Умение профилировать приложение (Батарейка, утечки и вот это все)\n•  Опыт работы с системой контроля версий\n•  Наличие выпущенных проектов на Swift\n•  Желание делать красивые, интересные и популярные приложения\n\n✅Будет плюсом: \n\n•  Умение/желание писать небольшие серверные скрипты (например на Python)\n•  Умение автоматизировать рутинные процессы\n•  Умение рефакторить код итеративно\n•  Адекватный перфекционизм\n\n\n✅Для вас: \n•  Конкурентная заработная плата, выплачивается 2 раза в месяц\n•  Необходимое оборудование для работы\n•  Возможность набрать команду и выстроить всю работу под себя в краткосрочной перспективе\n•  Оформление по ТК РФ, оплачиваемые больничные, 28 дней оплачиваемого отпуска в год\n•  Возможны регулярные бонусы по результатам работы проектов\n•  Собеседование с лицом принимающим решение\n•  Возможность коммуницировать с людьми, которые принимают продуктовые решения\n\n✅О нас: \n•  Просторный офис 600 метров на м. Автозаводская (3 минуты от метро и от ТТК на машине) с ультра современным дизайном и кучей ништяков (кухня с вкусняшками, кальяны каждый вечер в дружной кампании, PS4 Pro + 4K TV, аркадные автоматы с Pac-Man, Metal Slug и другими хитами геймдизайна, просторная зона отдыха, 5 переговорных комнат и т д)\n•  Команда из 100 человек занимающаяся паблишингом и маркетингом, готовая сделать продукт успешным после его готовности\n•  Возможность обучаться английскому языку с носителями каждый будний день по утрам\n•  Менторы и инвесторы, создавшие большое количество успешных IT компаний (оборот в 2018 году более 140 млн долларов)\n\nНазвание компании: AppQuantum \n\nКонтакты: \ne-mail: bm@adquantum.com\ntelegram: @MishaBarinov","markup":[{"type":"hashtag","offset":0,"length":9,"data":"вакансия"},{"type":"hashtag","offset":10,"length":7,"data":"москва"},{"type":"hashtag","offset":18,"length":5,"data":"офис"},{"type":"hashtag","offset":24,"length":7,"data":"senior"},{"type":"hashtag","offset":32,"length":4,"data":"ios"},{"type":"hashtag","offset":37,"length":10,"data":"developer"},{"type":"hashtag","offset":48,"length":8,"data":"gamedev"},{"type":"hashtag","offset":57,"length":6,"data":"swift"},{"type":"link","offset":3249,"length":16,"data":"mailto:bm@adquantum.com"},{"type":"handle","offset":3276,"length":13,"data":"MishaBarinov"}],"date":"2020-04-08T11:03:17+00:00","link":"tg://resolve?domain=mobile_jobs&post=0","tags":[{"name":"mobile"},{"name":"ios"},{"name":"swift"},{"name":"realm"},{"name":"firebase"},{"name":"python"}],"cities":[{"code":"moscow"}],"allowsRemote":false}},{"node":{"__typename":"Job","id":"66249031680-1001054966032","title":"Android разработчик","text":"#вакансия #vacancies #Androiddeveloper #Android\nВ веб студию ONEWEB на удаленную работу требуется Android разработчик с опытом работы не менее 1 года и минимум 5-6 приложениями в портфолио.\n\nГород и адрес офиса: Узбекистан, Ташкент\nФормат работы: удаленка\nЗанятость: проектная \nЗП:  от 700 до 900$\n\nТребования:\n- Опыт разработки программного обеспечения под мобильные платформы IOS (3.0-10.0), Android\n- Знание основных языков программирования\n- Опыт разработки от 1 года и наличие завершенных проектов (готовность их продемонстрировать) \n\nОбязанности:\n- Разработка мобильных приложений под IOS, Android\n- Разработка графических интерфейсов по готовому макету\n- Уверенное знание русского языка\n\nАккуратность, усидчивость, умение учиться на своих и чужих ошибках\n\n• Высокая, постоянно растущая и своевременная заработная плата от 700$\n• График работы - с 9.00 до 18.00\n• Удаленная работа\n\nОстальные подробности при собеседовании\nОтправляйте свое резюме в телеграмм @onewebuz или +99897 8441122 Дмитрий","markup":[{"type":"hashtag","offset":0,"length":9,"data":"вакансия"},{"type":"hashtag","offset":10,"length":10,"data":"vacancies"},{"type":"hashtag","offset":21,"length":17,"data":"Androiddeveloper"},{"type":"hashtag","offset":39,"length":8,"data":"Android"},{"type":"handle","offset":964,"length":9,"data":"onewebuz"},{"type":"link","offset":978,"length":14,"data":"tel:+99897 8441122"}],"date":"2020-04-08T11:00:35+00:00","link":"tg://resolve?domain=mobile_jobs&post=0","tags":[{"name":"mobile"},{"name":"android"},{"name":"ios"}],"cities":[{"code":"tashkent"}],"allowsRemote":true}},{"node":{"__typename":"Job","id":"66245885952-1001054966032","title":"Ios разработчик","text":"#вакансия #iOS #москва #офис #fulltime #swift \n\nКомпания: \"Доктор на работе\" - социальная сеть для врачей. Самая стабильная отрасль сейчас:  Фарма+ Digital.\nМесто работы: Сейчас удалёнка, потом Москва, м. Новослободская, 3 минуты от метро\nЗП:  от 200к до 240к рублей на руки, белая\n\nИщем еще одного iOS разработчика.  \n\n🤟Особенности: новый проект, без легаси. Технологии: Swift, MVVM, Alamofire, Codable, Realm, RxSwift, SignalR, WebSockets.\n\n🔥Задача: создание новой Ленты врача с нуля, доработка существующего мессенджера для наших пользователей.\n\n🔥 Условия:\n* зп от 200к до 240к рублей на руки, белая;\n* сейчас работаем из дома, потом в офисе, ст. м. Новослободская, 3 м. от метро. \n\n\n👉Вакансию можно посмотреть здесь: https://dev.doktornarabote.ru/ios\n👉 Отклики ждем здесь:  hr@doktornarabote.ru или в Telegram: @KseniaRyakhovskaya","markup":[{"type":"hashtag","offset":0,"length":9,"data":"вакансия"},{"type":"hashtag","offset":10,"length":4,"data":"iOS"},{"type":"hashtag","offset":15,"length":7,"data":"москва"},{"type":"hashtag","offset":23,"length":5,"data":"офис"},{"type":"hashtag","offset":29,"length":9,"data":"fulltime"},{"type":"hashtag","offset":39,"length":6,"data":"swift"},{"type":"bold","offset":299,"length":16,"data":""},{"type":"bold","offset":565,"length":40,"data":""},{"type":"link","offset":725,"length":33,"data":"https://dev.doktornarabote.ru/ios"},{"type":"link","offset":783,"length":20,"data":"mailto:hr@doktornarabote.ru"},{"type":"handle","offset":820,"length":19,"data":"KseniaRyakhovskaya"}],"date":"2020-04-08T10:37:59+00:00","link":"tg://resolve?domain=mobile_jobs&post=0","tags":[{"name":"mobile"},{"name":"ios"},{"name":"swift"},{"name":"mvvm"},{"name":"realm"},{"name":"signalr"}],"cities":[{"code":"moscow"}],"allowsRemote":true}},{"node":{"__typename":"Job","id":"66239594496-1001054966032","title":"Android developer","text":"#вакансия #android #kotlin #Москва #Fulltime #Офис\n\nКомпания: Звук\nФормат работы: офис \nЗанятость: полная \nЗп: от 200 до 300к\nНаша команда создает современный музыкальный сервис Звук. Приложение доступно на устройствах Android и IOS. \n\nДля разработки собственного мобильного приложения в команду разработки приглашается Senior Android Developer.\n\nОжидания:\n— Опыт работы с Android от 2-х лет.\n— Уверенное знание Java Core, понимание принципов многопоточного программирования.\n— Уверенное знание Android SDK v19 – v28.\n— Опыт работы с RxJava(1 / 2), Retrofit, Exoplayer, Jetpack, Dagger2, StorIO.\n— Опыт работы с Kotlin, понимание основных принципов.\n— Опыт разработки клиент серверных приложений, понимание сетевого стека.\n— Умение работать с системой контроля версий git (terminal/gui).\n— Знание ООП, паттернов проектирования ПО.\n— Ответственность и умение работать на результат.\n— Знание общих мобильных подходов, архитектур, тенденций и новых технологий.\n— Твердое понимание полного жизненного цикла мобильной разработки.\n\nОсновные задачи:\n— Работать над исправлением ошибок и улучшением производительности приложений.\n— Постоянно находить, оценивать и внедрять новые технологии, чтобы максимизировать эффективность разработки. \n\nЧто у нас:\n— Опен-спейс между станциями метро Комсомольская, Красные Ворота и Бауманская.\n— Гибкий график работы, возможность периодически работать из дома.\n— Современная и производительная техника.\n— Оплачиваемые билеты на конференции.\n— В офисе есть стол для Пинг-понг, доска для дартс, оборудованная кухня, печеньки.\n— Факультативные просмотры лекций, обучение.\n\n\n\nЗа доп. инфой в лс: @AnnaPai4","markup":[{"type":"hashtag","offset":0,"length":9,"data":"вакансия"},{"type":"hashtag","offset":10,"length":8,"data":"android"},{"type":"hashtag","offset":19,"length":7,"data":"kotlin"},{"type":"hashtag","offset":27,"length":7,"data":"Москва"},{"type":"hashtag","offset":35,"length":9,"data":"Fulltime"},{"type":"hashtag","offset":45,"length":5,"data":"Офис"},{"type":"handle","offset":1621,"length":9,"data":"AnnaPai4"}],"date":"2020-04-08T10:00:00+00:00","link":"tg://resolve?domain=mobile_jobs&post=0","tags":[{"name":"mobile"},{"name":"android"},{"name":"ios"},{"name":"kotlin"},{"name":"java"},{"name":"git"}],"cities":[{"code":"moscow"}],"allowsRemote":false}},{"node":{"__typename":"Job","id":"98201239552-1001089317451","title":"Qa инженер","text":"Тестировщик мобильных приложений\n\n#вакансия #Москва #fulltime #qa #офис #автотестирование                                                                                                  \n\nКомпания: МТС Банк \nСайт:  https://www.mtsbank.ru/\n\nДолжность: Тестировщик мобильных приложений                \nВилка: 100  - 150k на руки   (по скилам)                                         \nРасположение: м. Технопарк (3 минут от метро)                                                                                 \n\nВсем привет! \n\nИщем человека который готов активно учавствовать  в тестировании мобильного приложения банка. У нас построенн процесс тестирования и есть мобильная автоматизация. Мы разработали и успешно внедрили внутренний курс по обучению автоматизации. Все желающие могут его пройти и начать автоматизировать. 75% тестировщиков пишут автотесты, многих мы перевели в полноценных автоматизаторов. Кроме того у нас построен внутренний курс по тестированию мобильных приложений. Есть еженедельные встречи и разные интересные рассказы. Мы реально прокачиваем каждого нашего сотрудника. Все тестировщики банка это отедельная большая команда качества (трайб качества), благодаря чему мы работаем с ПМ и другими участниками процесса как с заказчиком, а не как с начальником.\n\nОбязанности:                                                                 \n\n\n  UI, регрессионное тестирование мобильных приложений;\n  Составление тест кейсов;\n  Чёткое и однозначное описание обнаруженных дефектов;\n  Подготовка отчетов\n  по желанию автоматизация тестирования мобильных приложений UI; \n\nТребования:\n\n\n  Опыт в тестировании от 1 года;\n  Умение четко описать найденную проблему;\n  Базовые знание SQL\n  Понимание принципа работы HTTP протокола, GET и POST запросы\n\nЖелательно:\n\n  Уверенное знание iOS и Android платформ как пользователь\n  Опыт работы в Scrum-команде                                           \n\nМы предлагаем:                                                                 \n  Полностью белая заработная плата                             \n  График работы 5:2, можно брать удаленные дни работы из дома                                                                  \n  ДМС после испытательного срока                               \n  Уютный офис              \n  Команда уважающая своих сотрудников и открытая к новым идеям и предложения\n\nПо всем вопросам пишите мне в личку. Из других городов пока не рассматриваем. Опыт в тестирование должен быть не меньше 1 года.","markup":[{"type":"hashtag","offset":34,"length":9,"data":"вакансия"},{"type":"hashtag","offset":44,"length":7,"data":"Москва"},{"type":"hashtag","offset":52,"length":9,"data":"fulltime"},{"type":"hashtag","offset":62,"length":3,"data":"qa"},{"type":"hashtag","offset":66,"length":5,"data":"офис"},{"type":"hashtag","offset":72,"length":17,"data":"автотестирование"},{"type":"link","offset":216,"length":23,"data":"https://www.mtsbank.ru/"}],"date":"2020-04-08T07:22:19+00:00","link":"tg://resolve?domain=qa_jobs&post=93652","tags":[{"name":"qa"},{"name":"sql"},{"name":"ios"},{"name":"android"}],"cities":[{"code":"moscow"}],"allowsRemote":false}},{"node":{"__typename":"Job","id":"98197045248-1001089317451","title":"Qa engineer","text":"#вакансия #москва #офис #qaengineer #ios #qa \nГород и адрес офиса: Москва, м.Автозаводская \nФормат работы: офис \nЗанятость: полная \nЗарплатная вилка: от 60 000 до 100 000 на руки \n\n✅QA Engineer (iOS App)\n\nОписание вакансии: \n\nМы - успешная команда из 100 человек, которая занимается: \n• разработкой собственных мобильных игр и приложений \n• паблишингом мобильных игр \n• рекламой и маркетингом мобильных приложений (реклама на Facebook, Google и т.д.) \nЗа последние 3 года мы привлекли более 100 млн пользователей в наши собственные мобильные приложения и приложения наших клиентов и партнеров, потратив на это более $80 млн. \nИщем себе мобильного QA-engineer.\n\n✅Что делать:\n-Писать тест кейсы и чек листы.\n-Вручную тестировать iOS приложение (категория Health & Fitness) - новые фичи, UI, регресс.\n-Заводить баги в трекере (Trello), показывать их разработчикам.\n\n✅Требования:\n-Опыт тестирования не игровых iOS приложений от 1 года.\n-Уметь работать с Charles (или аналогом).\n-Желание делать красивые, интересные и популярные приложения.\n\n✅Для вас:\n-Необходимое оборудование для работы, включая стопку тестовых iPhone-ов.\n-Конкурентная заработная плата, выплачивается 2 раза в месяц\n-Возможность набрать команду и выстроить всю работу под себя в краткосрочной перспективе\n-Оформление по ТК РФ, оплачиваемые больничные, 28 дней оплачиваемого отпуска в год\n-Возможны регулярные бонусы по результатам работы проектов\n-Собеседование с лицом принимающим решение\n\n✅О нас:\n-Просторный офис 600 метров на м. Автозаводская (3 минуты от метро и от ТТК на машине) с ультра современным дизайном и кучей ништяков (кухня с вкусняшками, кальяны каждый вечер в дружной кампании, PS4 Pro + 4K TV, аркадные автоматы с Pac-Man, Metal Slug и другими хитами геймдизайна, просторная зона отдыха, 5 переговорных комнат и т д)\n-Команда из 100 человек занимающаяся паблишингом и маркетингом, готовая сделать продукт успешным после его готовности\n-Возможность обучаться английскому языку с носителями каждый будний день по утрам\n-Менторы и инвесторы, создавшие большое количество успешных IT компаний (оборот в 2018 году более 140 млн долларов)\n-Присоединяйтесь к нашей команде уже сегодня!Название компании: AppQuantum\n\nКонтакты: \ne-mail: bm@adquantum.com\ntelegram: @MishaBarinov","markup":[{"type":"hashtag","offset":0,"length":9,"data":"вакансия"},{"type":"hashtag","offset":10,"length":7,"data":"москва"},{"type":"hashtag","offset":18,"length":5,"data":"офис"},{"type":"hashtag","offset":24,"length":11,"data":"qaengineer"},{"type":"hashtag","offset":36,"length":4,"data":"ios"},{"type":"hashtag","offset":41,"length":3,"data":"qa"},{"type":"link","offset":2212,"length":16,"data":"mailto:bm@adquantum.com"},{"type":"handle","offset":2239,"length":13,"data":"MishaBarinov"}],"date":"2020-04-08T07:03:28+00:00","link":"tg://resolve?domain=qa_jobs&post=93648","tags":[{"name":"qa"},{"name":"ios"}],"cities":[{"code":"moscow"}],"allowsRemote":false}},{"node":{"__typename":"Job","id":"98143567872-1001089317451","title":"Qa инженер","text":"#вакансия #спб #job #fulltime #saintpetersburg #office #QA #mobileqa  #manual #automation #Android #iOS\n\nQA middle и выше\n\nКомпания: e-Legion\nЛокация: Санкт-Петербург, м. Старая деревня\nФормат работы: офис (гибкое начало дня) \nЗанятость: полная\nЗарплатная вилка: 80-120 т.р\n\nПривет! Ищем в команду тестировщика мобильных приложений. Ты будешь влиять на качество продукта крупных компаний. QA участвует во всех этапах создания продукта и взаимодействует со всеми отделами.\n\n🔴Чем будем заниматься:\n-тестировать мобильные приложения на платформах iOS и Android,\nна части проектов еще тестируем WEB\n-проводить тест-анализ и писать тестовую документацию\n-анализировать и тестировать требования\n-оформлять задачи в трекере Redmine или Jira\n\n🔴Необходимые навыки:\n-опыт тестирования мобильных приложений\n-знание техник тест–дизайна и умение их применять\n-умение работать с сетевыми снифферами — Fiddler, Charles\n-умение снимать и анализировать логи\n-знание гайдлайнов iOS и Android\n\n🔴Мы предлагаем:\n-гибкий график работы\n-офис в 7 минутах ходьбы от м. Старая Деревня\n-компенсацию спорта, обучения и медицины\n-обучение и систему наставничества, которые помогут быстро расти и получать новые грейды\n-возможность писать статьи для отраслевых медиа и выступать на конференциях и митапах\n\nСсылка на вакансию: https://www.e-legion.ru/vacancies/spb/qa/\nОтклики, резюме, вопросы пишите:\n@AlexandraShirokina или на почту hr@e-legion.com","markup":[{"type":"hashtag","offset":0,"length":9,"data":"вакансия"},{"type":"hashtag","offset":10,"length":4,"data":"спб"},{"type":"hashtag","offset":15,"length":4,"data":"job"},{"type":"hashtag","offset":20,"length":9,"data":"fulltime"},{"type":"hashtag","offset":30,"length":16,"data":"saintpetersburg"},{"type":"hashtag","offset":47,"length":7,"data":"office"},{"type":"hashtag","offset":55,"length":3,"data":"QA"},{"type":"hashtag","offset":59,"length":9,"data":"mobileqa"},{"type":"hashtag","offset":70,"length":7,"data":"manual"},{"type":"hashtag","offset":78,"length":11,"data":"automation"},{"type":"hashtag","offset":90,"length":8,"data":"Android"},{"type":"hashtag","offset":99,"length":4,"data":"iOS"},{"type":"link","offset":1299,"length":41,"data":"https://www.e-legion.ru/vacancies/spb/qa/"},{"type":"handle","offset":1374,"length":19,"data":"AlexandraShirokina"},{"type":"link","offset":1407,"length":15,"data":"mailto:hr@e-legion.com"}],"date":"2020-04-07T14:33:21+00:00","link":"tg://resolve?domain=qa_jobs&post=93597","tags":[{"name":"qa"},{"name":"android"},{"name":"ios"},{"name":"web"}],"cities":[],"allowsRemote":false}},{"node":{"__typename":"Job","id":"98116304896-1001089317451","title":"Qa engineer","text":"#вакансия #москва #офис #qaengineer #ios #qa \nГород и адрес офиса: Москва, м.Автозаводская \nФормат работы: офис \nЗанятость: полная \nЗарплатная вилка: от 60 000 до 100 000 на руки \n\n✅QA Engineer (iOS App)\n\nОписание вакансии: \n\nМы - успешная команда из 100 человек, которая занимается: \n• разработкой собственных мобильных игр и приложений \n• паблишингом мобильных игр \n• рекламой и маркетингом мобильных приложений (реклама на Facebook, Google и т.д.) \nЗа последние 3 года мы привлекли более 100 млн пользователей в наши собственные мобильные приложения и приложения наших клиентов и партнеров, потратив на это более $80 млн. \nИщем себе мобильного QA-engineer.\n\n✅Что делать:\n-Писать тест кейсы и чек листы.\n-Вручную тестировать iOS приложение (категория Health & Fitness) - новые фичи, UI, регресс.\n-Заводить баги в трекере (Trello), показывать их разработчикам.\n\n✅Требования:\n-Опыт тестирования не игровых iOS приложений от 1 года.\n-Уметь работать с Charles (или аналогом).\n-Желание делать красивые, интересные и популярные приложения.\n\n✅Для вас:\n-Необходимое оборудование для работы, включая стопку тестовых iPhone-ов.\n-Конкурентная заработная плата, выплачивается 2 раза в месяц\n-Возможность набрать команду и выстроить всю работу под себя в краткосрочной перспективе\n-Оформление по ТК РФ, оплачиваемые больничные, 28 дней оплачиваемого отпуска в год\n-Возможны регулярные бонусы по результатам работы проектов\n-Собеседование с лицом принимающим решение\n\n✅О нас:\n-Просторный офис 600 метров на м. Автозаводская (3 минуты от метро и от ТТК на машине) с ультра современным дизайном и кучей ништяков (кухня с вкусняшками, кальяны каждый вечер в дружной кампании, PS4 Pro + 4K TV, аркадные автоматы с Pac-Man, Metal Slug и другими хитами геймдизайна, просторная зона отдыха, 5 переговорных комнат и т д)\n-Команда из 100 человек занимающаяся паблишингом и маркетингом, готовая сделать продукт успешным после его готовности\n-Возможность обучаться английскому языку с носителями каждый будний день по утрам\n-Менторы и инвесторы, создавшие большое количество успешных IT компаний (оборот в 2018 году более 140 млн долларов)\n-Присоединяйтесь к нашей команде уже сегодня!Название компании: AppQuantum\n\nКонтакты: \ne-mail: bm@adquantum.com\ntelegram: @MishaBarinov","markup":[{"type":"hashtag","offset":0,"length":9,"data":"вакансия"},{"type":"hashtag","offset":10,"length":7,"data":"москва"},{"type":"hashtag","offset":18,"length":5,"data":"офис"},{"type":"hashtag","offset":24,"length":11,"data":"qaengineer"},{"type":"hashtag","offset":36,"length":4,"data":"ios"},{"type":"hashtag","offset":41,"length":3,"data":"qa"},{"type":"link","offset":2212,"length":16,"data":"mailto:bm@adquantum.com"},{"type":"handle","offset":2239,"length":13,"data":"MishaBarinov"}],"date":"2020-04-07T08:41:26+00:00","link":"tg://resolve?domain=qa_jobs&post=93571","tags":[{"name":"qa"},{"name":"ios"}],"cities":[{"code":"moscow"}],"allowsRemote":false}},{"node":{"__typename":"Job","id":"98075410432-1001089317451","title":"Qa инженер","text":"Тестировщик мобильных приложений\n\n#вакансия #Москва #fulltime #qa #офис #автотестирование                                                                                                  \n\nКомпания: МТС Банк \nСайт:  https://www.mtsbank.ru/\n\nДолжность: Тестировщик мобильных приложений                \nВилка: 100  - 150k на руки   (по скилам)                                         \nРасположение: м. Технопарк (3 минут от метро)                                                                                 \n\nВсем привет! \n\nИщем человека который готов активно учавствовать  в тестировании мобильного приложения банка. У нас построенн процесс тестирования и есть мобильная автоматизация. Мы разработали и успешно внедрили внутренний курс по обучению автоматизации. Все желающие могут его пройти и начать автоматизировать. 75% тестировщиков пишут автотесты, многих мы перевели в полноценных автоматизаторов. Кроме того у нас построен внутренний курс по тестированию мобильных приложений. Есть еженедельные встречи и разные интересные рассказы. Мы реально прокачиваем каждого нашего сотрудника. Все тестировщики банка это отедельная большая команда качества (трайб качества), благодаря чему мы работаем с ПМ и другими участниками процесса как с заказчиком, а не как с начальником.\n\nОбязанности:                                                                 \n\n\n  UI, регрессионное тестирование мобильных приложений;\n  Составление тест кейсов;\n  Чёткое и однозначное описание обнаруженных дефектов;\n  Подготовка отчетов\n  по желанию автоматизация тестирования мобильных приложений UI; \n\nТребования:\n\n\n  Опыт в тестировании от 1 года;\n  Умение четко описать найденную проблему;\n  Базовые знание SQL\n  Понимание принципа работы HTTP протокола, GET и POST запросы\n\nЖелательно:\n\n  Уверенное знание iOS и Android платформ как пользователь\n  Опыт работы в Scrum-команде                                           \n\nМы предлагаем:                                                                 \n  Полностью белая заработная плата                             \n  График работы 5:2, можно брать удаленные дни работы из дома                                                                  \n  ДМС после испытательного срока                               \n  Уютный офис              \n  Команда уважающая своих сотрудников и открытая к новым идеям и предложения\n\nПо всем вопросам пишите мне в личку. Из других городов пока не рассматриваем. Опыт в тестирование должен быть не меньше 1 года.","markup":[{"type":"hashtag","offset":34,"length":9,"data":"вакансия"},{"type":"hashtag","offset":44,"length":7,"data":"Москва"},{"type":"hashtag","offset":52,"length":9,"data":"fulltime"},{"type":"hashtag","offset":62,"length":3,"data":"qa"},{"type":"hashtag","offset":66,"length":5,"data":"офис"},{"type":"hashtag","offset":72,"length":17,"data":"автотестирование"},{"type":"link","offset":216,"length":23,"data":"https://www.mtsbank.ru/"}],"date":"2020-04-06T15:36:33+00:00","link":"tg://resolve?domain=qa_jobs&post=0","tags":[{"name":"qa"},{"name":"sql"},{"name":"ios"},{"name":"android"}],"cities":[{"code":"moscow"}],"allowsRemote":false}}]}}},"context":{}}