{"hash":"f34fd2c444a074f4e0e67d525015a008ef8e766f","data":{"records":{"id":"kubernetes","name":"kubernetes","belongsTo":{"totalCount":75,"pageInfo":{"totalPages":8,"currentPage":2},"edges":[{"node":{"__typename":"Job","id":"1978662912-1001134745498","title":"Devops engineer","text":"#вакансия #DevOps #fulltime\nВакансия: DevOps engineer / Системный администратор\nКомпания: Sl-Tech\nГород: Москва, метро Маяковская\nФормат работы: офис\nЗанятость: полная\nЗарплата : от 100 до 170 т.р. net\nО компании:\nSL Tech – компания, которая управляет портфелем проектов, предназначенных как для потребителей, так и для партнеров - поставщиков услуг в высокотехнологичных областях.\nКомпания родилась в 2006 году как часть группы SEALINE, в которую также входит страховой и перестраховочный брокер SEALINE, входящий в ТОП-10 страховых брокеров РФ.\nМы создаем современные IT-решения для бизнеса и жизни, помогая выстраивать коммуникацию между поставщиками и потребителями услуг. Своим партнерам мы предлагаем готовые решения, которые позволяют расширить возможности существующего бизнеса и получить дополнительный доход.\nSL Tech не просто разрабатывает продукты, отвечающие современным запросам партнеров и их клиентов, но и влияет непосредственно на формирование новых сегментов рынка\nТебе предстоит:\n- Развитие и поддержка сервисов компании\n- Управление инфраструктурой компании\n- Автоматизация развертывания\n- Мониторинг\n- Сбор и анализ логов\n- Организация непрерывного функционирования сервисов, резервное копирование\nЧто нужно уметь:\n- Администрирование Linux (Ubuntu)\n- От 3-х лет опыта администрирования веб-сервисов работающих на Linux\n- Опыт использования и настройки системы Gitlab\n- Знания систем Docker Swarm, Kubernetes\n- Настройка, репликация PostgreSQL\n- Работы с системами автоматизации (Ansible, Chef и т.п.), мониторинга (Zabbix, Prometheus), сбора и анализа логов (ELK, ClickHouse)\n- Умение читать код на Python\n- Желание работать в команде\nМы предлагаем:\n• Оформление по ТК РФ\n• Полностью белая зп;\n• Уровень зп обсуждается индивидуально (в соответствии с вашим уровнем и ожиданиями) ЗП вилка 100-170 тыс.руб.\n• ДМС (после испытательного срока 3 месяца)\n• Офис в центре (5 минут от м.Маяковская)\n• Чай, кофе, печеньки\n• Адекватное руководство\n• Весёлая, сильная команда\nКонтакт: @SanDevl\n\n—\n\n👉 Обсуждение вакансии в чате @devops_jobs","markup":[{"type":"hashtag","offset":0,"length":9,"data":"вакансия"},{"type":"hashtag","offset":10,"length":7,"data":"DevOps"},{"type":"hashtag","offset":18,"length":9,"data":"fulltime"},{"type":"handle","offset":1997,"length":8,"data":"SanDevl"},{"type":"handle","offset":2040,"length":12,"data":"devops_jobs"}],"date":"2020-04-07T13:49:27+00:00","link":"tg://resolve?domain=devops_jobs_feed&post=1887","tags":[{"name":"dotnet"},{"name":"linux"},{"name":"ubuntu"},{"name":"gitlab"},{"name":"docker"},{"name":"kubernetes"},{"name":"postgresql"},{"name":"ansible"},{"name":"python"}],"cities":[{"code":"moscow"}],"allowsRemote":false}},{"node":{"__typename":"Job","id":"1975517184-1001134745498","title":"Devops engineer","text":"#вакансия #fulltime #devops #удалёнка\n\n💫Компания: i-techlabs\n\nЯ ищу опытного DevOps Engineer на проект по созданию Playtech Open Platform (POP) и игровой платформы как услуги (GPAS). \nОбе платформы построены с использованием архитектуры реактивных микроуслуг и написаны на языке программирования Scala.\nОни используют базу данных No-SQL Couchbase для сохранения и хранения данных.\n\n☕️Условия:\n\n• Вилка по зп 150 000 р.-200 000+р.\n• Удалённая работа\n• Полный день\n• Гибкий график\n\n💻Требования:\n\n• Более 3 лет опыта в DevOps или администрировании Linux\n• Хороший набор навыков Linux\n• Опыт работы с контейнерами Docker (сборка и развертывание)\n• Навыки программирования на Python / Bash\n• Jenkins\n• Управление Java-приложениями\n• Intermediate English \n\n➕Плюсом:\n• Mirantis\n• Kubernetes\n• Akka cluster\n• Couchbase\n• Elasticsearch\n• Grafana\n• Prometheus\n\n☎️ Контакт: @coderhunt Надежда\n\n—\n\n👉 Обсуждение вакансии в чате @devops_jobs","markup":[{"type":"hashtag","offset":0,"length":9,"data":"вакансия"},{"type":"hashtag","offset":10,"length":9,"data":"fulltime"},{"type":"hashtag","offset":20,"length":7,"data":"devops"},{"type":"hashtag","offset":28,"length":9,"data":"удалёнка"},{"type":"handle","offset":865,"length":10,"data":"coderhunt"},{"type":"handle","offset":918,"length":12,"data":"devops_jobs"}],"date":"2020-04-07T11:32:53+00:00","link":"tg://resolve?domain=devops_jobs_feed&post=1884","tags":[{"name":"scala"},{"name":"sql"},{"name":"linux"},{"name":"docker"},{"name":"python"},{"name":"bash"},{"name":"jenkins"},{"name":"java"},{"name":"kubernetes"},{"name":"akka"},{"name":"elasticsearch"}],"cities":[],"allowsRemote":true}},{"node":{"__typename":"Job","id":"1974468608-1001134745498","title":"Devops engineer","text":"#вакансия #fulltime #Москва #devops\nSenior devops engineer\nМосква, м. Павелецкая. Работа в офисе. Полная занятость.\nЗарплатная вилка: от 200 до 300 тр net, все официально, по ТК РФ.\nОтличный соц пакет. \n \nИщем опытного специалиста devops. Нужен опыт с ansible, kubernetes, debian, mysql, docker, nginх, python. Желательно: kafka, clickhouse и опыт в финтех 🙂\nЭто будет работа в команде.\n \nКомпания: Криптовалютная биржа Exmo (https://exmo.me) зарегистрирована в Великобритании, офисы компании находятся в Лондоне, Москве, Курске, Киеве и Стамбуле. \nКонтакты: @Sofiyka\n\n—\n\n👉 Обсуждение вакансии в чате @devops_jobs","markup":[{"type":"hashtag","offset":0,"length":9,"data":"вакансия"},{"type":"hashtag","offset":10,"length":9,"data":"fulltime"},{"type":"hashtag","offset":20,"length":7,"data":"Москва"},{"type":"hashtag","offset":28,"length":7,"data":"devops"},{"type":"link","offset":427,"length":15,"data":"https://exmo.me"},{"type":"handle","offset":560,"length":8,"data":"Sofiyka"},{"type":"handle","offset":603,"length":12,"data":"devops_jobs"}],"date":"2020-04-07T05:05:17+00:00","link":"tg://resolve?domain=devops_jobs_feed&post=1883","tags":[{"name":"dotnet"},{"name":"ansible"},{"name":"kubernetes"},{"name":"debian"},{"name":"mysql"},{"name":"docker"},{"name":"python"},{"name":"kafka"}],"cities":[{"code":"moscow"}],"allowsRemote":false}},{"node":{"__typename":"Job","id":"1422917632-1001091028994","title":"Java разработчик","text":"#java #spring \nКомпания: #техносервконсалтинг #тск\nЛокация: #москва\nЗ/п: 130 - 250\nКонтакты: @Alenhr, akarmakulova@tsconsulting.ru\n\nМы создаём ипотечную экосистему для Банка Топ - 3 \"с нуля\". \nРазрабатываем новую высоконагруженную систему кредитования с использованием современного стека и микросервисной архитектуры на основе Kubernetes. \nСтек: Java 8, Spring Boot, Spring Data, Spring Security, PostgreSQL, Kubernetes, Docker, Git, Jira, Confluence, Zeplin, REST, SOAP, MQ. \n\nЧто нужно делать:\nРазрабатывать северную часть на Java\nУчаствовать в развитии проекта и сервисов\nРегулярно проводить code-review\nРасти и развиваться в рамках команды\n\nЧто важно для нас:\nОпыт программирования на Java от 3 лет\nЗнание и понимание принципов Spring\nОпыт работы с базами данных, знание SQL\n\nМы предлагаем: \nAgile команду, общий штат разработки 50+ человек\nСоциальный пакет (ДМС, фитнес)\nОфис в центре Москвы (Чистые пруды/ Тургеневская / Сретенский бульвар) \nГибкое начало и окончание рабочего дня","markup":[{"type":"hashtag","offset":0,"length":5,"data":"java"},{"type":"hashtag","offset":6,"length":7,"data":"spring"},{"type":"hashtag","offset":25,"length":20,"data":"техносервконсалтинг"},{"type":"hashtag","offset":46,"length":4,"data":"тск"},{"type":"hashtag","offset":60,"length":7,"data":"москва"},{"type":"handle","offset":93,"length":7,"data":"Alenhr"},{"type":"link","offset":102,"length":28,"data":"mailto:akarmakulova@tsconsulting.ru"}],"date":"2020-04-06T14:51:47+00:00","link":"tg://resolve?domain=jvmjobs&post=1357","tags":[{"name":"java"},{"name":"jvm"},{"name":"spring"},{"name":"kubernetes"},{"name":"postgresql"},{"name":"docker"},{"name":"git"},{"name":"rest"},{"name":"soap"},{"name":"sql"},{"name":"spring-boot"},{"name":"spring-data"},{"name":"spring-security"}],"cities":[{"code":"moscow"}],"allowsRemote":false}},{"node":{"__typename":"Job","id":"1420820480-1001091028994","title":"Java разработчик","text":"Вакансия: #Java #TeamLead                                           \nКомпания: #Утконос                                                                  \nЛокация: #Москва                                                                         \nЗ/п: 320 000 Net                                                                             \nКонтакт: @RecruiterTatianaK                                                   \nJava TeamLead в Утконос Онлайн\n📍Наш проект:\nВ компании разрабатывается комплексная система по управлению складом. Систему пишем сами «с нуля», на микросервисной архитектуре\n📍Что нужно делать?   \nУправление командой разработки   \nРазработка алгоритмов по оптимизации хранения и комплектации                                                                                       \nУчастие в проработке архитектурных решений                   \n📍Наш стек:\n Java 11, Spring 5, Kubernetes, ELK, Grafana, Prometheus, Kafka                                                                                               \n📍Что предлагаем?                                                                        \nОформление по ТК РФ, ДМС   \nГибкий график                                                                     \nКорпоративные скидки на utkonos.ru, tui.ru, фитнес, кино и др.                                                                                      \nОфис - 10 минут  от м. Краснопресненская/ м.Улица 1905 года","markup":[{"type":"hashtag","offset":10,"length":5,"data":"Java"},{"type":"hashtag","offset":16,"length":9,"data":"TeamLead"},{"type":"hashtag","offset":79,"length":8,"data":"Утконос"},{"type":"hashtag","offset":163,"length":7,"data":"Москва"},{"type":"handle","offset":347,"length":18,"data":"RecruiterTatianaK"},{"type":"link","offset":1254,"length":10,"data":"http://utkonos.ru"},{"type":"link","offset":1266,"length":6,"data":"http://tui.ru"}],"date":"2020-04-06T14:27:06+00:00","link":"tg://resolve?domain=jvmjobs&post=1355","tags":[{"name":"java"},{"name":"jvm"},{"name":"dotnet"},{"name":"spring"},{"name":"kubernetes"},{"name":"kafka"}],"cities":[{"code":"moscow"}],"allowsRemote":false}},{"node":{"__typename":"Job","id":"1971322880-1001134745498","title":"Devops engineer","text":"DevOps engineer\n#вакансия #DevOps #noremote #fulltime \n\nВакансия: DevOps engineer\nКомпания: ДОМ.РФ / ООО «Цифровые технологии»\nГород: Москва. ст.м. Арбатская\nФормат работы: #офис\nЗанятость: #полная\nЗарплата : от 160 до 200 на руки.\n\nТебе предстоит:\n•  Поддержка ETL процессов;\n•  Участие в процессах внедрения ПО;\n•  Администрирование операционных систем *nix и общесистемного ПО;\n•  Развертывание и конфигурирование стендов под различные нужды;\n•  Решение возникающих проблем, устранение нештатных ситуаций;\n•  Участие в разработке конструкторской и эксплуатационной документации;\n•  Формирование требований к системе резервного копирования. \n\nЗдорово если у тебя есть:\n•  Знание серверной операционной системы Linux;\n•  Уверенное понимание принципов работы сетей TCP/IP: адресация, маршрутизация, стек протоколов, сетевые топологии, принципы работы VLAN, VPN, DNS, DHCP;\n•  Практический опыт автоматизации управления средами с применением docker, Kubernetes, ansible;\n•  Практический опыт разработки технологической или эксплуатационной документации;\n•  Практический опыт конфигурирования систем хранения данных (желательно);\n•  Практический опыт конфигурирования и администрирования общесистемного ПО: системы виртуализации, СУБД (PostgreSQL), серверы приложений, системы обработки сообщений, средства мониторинга и управления, elastic search;\n\nМы предлагаем:\n•  Комфортный офис в центре Москвы;\n•  Работа в высокопрофессиональной и эффективной команде, постоянное развитие;\n•  Конкурентный компенсационный пакет (ежеквартальная премия, ДМС, компенсация расходов на фитнес-абонемент до 20 т.р. в год);\n\n\nCV в ЛС плз)\nНа входе опишу, что конкретно нужно будет делать, что и как есть сейчас.\n\nКонтакт:\n@alekseytherecruiter\n\n—\n\n👉 Обсуждение вакансии в чате @devops_jobs","markup":[{"type":"hashtag","offset":16,"length":9,"data":"вакансия"},{"type":"hashtag","offset":26,"length":7,"data":"DevOps"},{"type":"hashtag","offset":34,"length":9,"data":"noremote"},{"type":"hashtag","offset":44,"length":9,"data":"fulltime"},{"type":"link","offset":92,"length":6,"data":"http://ДОМ.РФ"},{"type":"hashtag","offset":173,"length":5,"data":"офис"},{"type":"hashtag","offset":190,"length":7,"data":"полная"},{"type":"handle","offset":1703,"length":20,"data":"alekseytherecruiter"},{"type":"handle","offset":1758,"length":12,"data":"devops_jobs"}],"date":"2020-04-06T13:25:42+00:00","link":"tg://resolve?domain=devops_jobs_feed&post=1880","tags":[{"name":"linux"},{"name":"dns"},{"name":"docker"},{"name":"kubernetes"},{"name":"ansible"},{"name":"postgresql"},{"name":"elasticsearch"}],"cities":[{"code":"moscow"}],"allowsRemote":true}},{"node":{"__typename":"Job","id":"1970274304-1001134745498","title":"Devops engineer","text":"#вакансия #devops\nДобрый день!\nВ компании JTC открыта вакансия на должность DevOps engineer\nОфис: Москва (м. Ленинский проспект), Санкт-Петербург (м. Петроградская), Рязань, Ижевск\nЗанятость: полная\nЗарплатная вилка: от 150 000 до 250 000 рублей на руки\nОбязанности\n- настраивать и поддерживать инфраструктуру текущих и новых проектов \n- поддерживать CI/CD на основе Gerrit/Jenkins/Nexus\n- администрировать парк серверов \nRND - находить и внедрять новые решения\nТребования\n- уверенное администрирование Linux (CentOS)\n- опыт работы с Docker, Elasticsearch, Logstash и Kibana\n- уверенное владение инструментами CI/CD (Jenkis, TeamCity)\n- автоматизация с помощью Ansible\nвладение языками (bash и/или python)\n- опыт работы с системами сбора метрик и мониторинга \nжелательно: Kubernetes\nнавыки администрирования БД (Oracle, PostgreSQL)\nМы предлагаем\n- конкурентная заработная плата по результатам общения\n- соблюдение TK РФ\n- гибкий рабочий график с началом работы с 8:00 до 11:00\n- ДМС с расширенным набором услуг\n- интересные и нетривиальные задачи \n- возможность посещать семинары, тренинги, конференции\n\nКомпания: https://jtc.ooo/\nНа рынке ИТ с 2007.\nСпециализация: разработка систем ДБО и построение информационных экосистем. \n\nКонтакты: @rita_kudryashova\n\n—\n\n👉 Обсуждение вакансии в чате @devops_jobs","markup":[{"type":"hashtag","offset":0,"length":9,"data":"вакансия"},{"type":"hashtag","offset":10,"length":7,"data":"devops"},{"type":"link","offset":1114,"length":16,"data":"https://jtc.ooo/"},{"type":"handle","offset":1239,"length":17,"data":"rita_kudryashova"},{"type":"handle","offset":1291,"length":12,"data":"devops_jobs"}],"date":"2020-04-06T11:21:09+00:00","link":"tg://resolve?domain=devops_jobs_feed&post=1879","tags":[{"name":"jenkins"},{"name":"linux"},{"name":"centos"},{"name":"docker"},{"name":"elasticsearch"},{"name":"logstash"},{"name":"ansible"},{"name":"bash"},{"name":"python"},{"name":"kubernetes"},{"name":"oracle"},{"name":"postgresql"}],"cities":[{"code":"moscow"},{"code":"ryazan"},{"code":"izhevsk"}],"allowsRemote":false}},{"node":{"__typename":"Job","id":"1968177152-1001134745498","title":"Devops engineer","text":"#вакансия #DevOps #fulltime #киев\n\nВакансия: DevOps engineer\nКомпания: Luxena\nГород: Киев, метро Черниговская\nФормат работы: офис, remote - возможен для отдельных дней.\nЗанятость: полная\nЗарплата : от $2500 до $5000 по уровню квалификации.\nПомощь в релокации.\n\nО компании:\n\nLuxena - продуктовая IT-компания полного цикла, предлагаем самореализацию на международных проектах Industry 4.0 в отличной профи-атмосфере с элементами гибкого графика. \n\nЭксперту в построении и управлении платформами разработки и внедрения ПО предлагаем должность DevOps Engineer. \n \nTechnology Stack: \n \nCloud Services \n  - Azure (in use) \n  - AWS \n  - Google \n  \nCI/CD \n  - Azure DevOps (in use) \n  - Jenkins \n  - GitLab \n  \nCluster Orchestration \n  - Docker Swarm (in use) \n  - Kubernetes \n  \nRDBMS \n  - PostgreSQL (in use) \n  - MS SQL \n  - Oracle \n  \nAnalytical Solutions \n  - Clickhouse (in use) \n  - Apache Spark (in use) \n  - Apache Flink \n  - Druid \n  - Pinot \n  - Presto \n  \nStreaming & Message Queues \n  - Apache Pulsar (in use) \n  - Apache Kafka \n  \nDeployment Automation \n  - Ansible \n  - Puppet \n  - Terraform \n  \nProxy & Load balancing \n  - HA proxy (in use) \n  - Nginx \n \nВ каждом виде необходимо иметь практический опыт в production не менее 2-х лет. Часть навыков может быть развита в ходе первого года работы.\n\nКонтакт: @special_forces_recruiter\n\n—\n\n👉 Обсуждение вакансии в чате @devops_jobs","markup":[{"type":"hashtag","offset":0,"length":9,"data":"вакансия"},{"type":"hashtag","offset":10,"length":7,"data":"DevOps"},{"type":"hashtag","offset":18,"length":9,"data":"fulltime"},{"type":"hashtag","offset":28,"length":5,"data":"киев"},{"type":"handle","offset":1314,"length":25,"data":"special_forces_recruiter"},{"type":"handle","offset":1374,"length":12,"data":"devops_jobs"}],"date":"2020-04-05T00:33:02+00:00","link":"tg://resolve?domain=devops_jobs_feed&post=1877","tags":[{"name":"cloud"},{"name":"azure"},{"name":"amazon-web-services"},{"name":"jenkins"},{"name":"gitlab"},{"name":"docker"},{"name":"kubernetes"},{"name":"postgresql"},{"name":"sql"},{"name":"oracle"},{"name":"apache"},{"name":"kafka"},{"name":"deployment"},{"name":"ansible"},{"name":"nginx"},{"name":"azure-devops"},{"name":"apache-spark"}],"cities":[{"code":"kiev"}],"allowsRemote":true}},{"node":{"__typename":"Job","id":"1966080000-1001134745498","title":"Devops инженер","text":"#devops #работа #вакансия #москва #kubernetes #redcode \nИнженер DevOps с сильным Kubernetes\n300 - 400 т.руб. на руки\nКомпания разрабатывает ПО и создаёт программно-аппаратные комплексы анализа данных.\nМосква\n\nОбязанности:\nРазработка плейбуков Ansible для конфигурирования серверов на CentOS 7 и 8.\nРазработка манифестов для развертывания приложений в кластерах Kubernetes.\nУправление и мониторинг кластеров Kubernetes.\nНастройка CI/CD конвейеров на базе Gitlab и Nexus\n\nТребования:\nОпыт администрирования CentOS 7 и/или RedHat Enterprise Linux 7\nОпыт работы с Ansible, в частности - разработка плейбуков и ролей Ansible\nОпыт работы с Docker на Linux\nЗнание принципов построения безопасных, высокодоступных и масштабируемых приложений\nОпыт управления кластером Kubernetes, написания манифестов, разворачивание приложений в кластере Kubernetes\nОпыт использования Helm и разработки Helm charts\nОпыт развертывания кластера Kubernetes при помощи Kubespray\nОпыт работы с:\nGitlab и Gitlab CI (Runner)\nNexus Repository Manager и Gitlab Repository\nсо стеком Elastic (ELK или EFK) для логирования\nPrometheus и Alert Manager для мониторинга\nPostgreSQL и Patroni\nNginx, HAProxy и Keepalived\nHashiCorp Vault\nIstio\n\n\"белое\" трудоустройство, ДМС\n\nКонтакты для связи:\ntelegram: @kristina_jobs \nКА RedCode\n\n—\n\n👉 Обсуждение вакансии в чате @devops_jobs","markup":[{"type":"hashtag","offset":0,"length":7,"data":"devops"},{"type":"hashtag","offset":8,"length":7,"data":"работа"},{"type":"hashtag","offset":16,"length":9,"data":"вакансия"},{"type":"hashtag","offset":26,"length":7,"data":"москва"},{"type":"hashtag","offset":34,"length":11,"data":"kubernetes"},{"type":"hashtag","offset":46,"length":8,"data":"redcode"},{"type":"handle","offset":1262,"length":14,"data":"kristina_jobs"},{"type":"handle","offset":1323,"length":12,"data":"devops_jobs"}],"date":"2020-04-03T17:17:36+00:00","link":"tg://resolve?domain=devops_jobs_feed&post=1875","tags":[{"name":"kubernetes"},{"name":"ansible"},{"name":"centos"},{"name":"gitlab"},{"name":"linux"},{"name":"docker"},{"name":"elasticsearch"},{"name":"postgresql"},{"name":"nginx"}],"cities":[{"code":"moscow"}],"allowsRemote":false}},{"node":{"__typename":"Job","id":"1965031424-1001134745498","title":"Devops инженер","text":"#вакансия \nГород: Amsterdam\nФормат работы: удаленка / remote\nЗанятость: проектная\nЗарплатная вилка: от 15 до 25 USD в час\n\nОписание вакансии: \nПредоставить инструкцию и/или скрипты по разворачиванию Kubernetes с Istio поверх, на котором необходимо :\n- задеплоить docker с Spring Java REST приложением (имеющим доступ извне кластера, для того чтобы внешнии клиенты могли к нему подключаться)\n- задеплоить docker с MongoDB (не имеющим доступ извне  кластера, но иметь доступ с других инстанций кластера, в частности с Spring Java REST приложения\n- подключить Keycloak к Istio для авторизации через JWT token в Spring Java REST приложении\n- подключить TLS в Istio и допускать только SSL трафик в кластер\nУсловия:\n* уже имеется конфигурация Keycloak с помощью которой есть Spring Java REST приложение осуществляет регистрацию  пользователей и получение JWT token, необходимо использовать эту конфигурацию для доступа к Spring Java REST приложению\n* не все методы в Spring Java REST приложении необходимо обезопасить JWT токеном\n\nНазвание компании: Take it Personally BV\nКонтакт: @takeitpersonally\nEmail: konstantin@mytip.app\n\n—\n\n👉 Обсуждение вакансии в чате @devops_jobs","markup":[{"type":"hashtag","offset":0,"length":9,"data":"вакансия"},{"type":"handle","offset":1075,"length":17,"data":"takeitpersonally"},{"type":"link","offset":1100,"length":20,"data":"mailto:konstantin@mytip.app"},{"type":"handle","offset":1155,"length":12,"data":"devops_jobs"}],"date":"2020-04-03T15:05:06+00:00","link":"tg://resolve?domain=devops_jobs_feed&post=1874","tags":[{"name":"kubernetes"},{"name":"docker"},{"name":"spring"},{"name":"java"},{"name":"rest"},{"name":"mongodb"},{"name":"jwt"},{"name":"ssl"}],"cities":[{"code":"amsterdam"}],"allowsRemote":true}}]}}},"context":{}}