{"hash":"f5f6bf98bd95e769321482904cbbd488f77922fd","data":{"records":{"id":"kubernetes","name":"kubernetes","belongsTo":{"totalCount":87,"pageInfo":{"totalPages":9,"currentPage":7},"edges":[{"node":{"__typename":"Job","id":"17029922816-1001110946746","title":"Js разработчик","text":"#вакансия #frontend #javascript #react  #senior #remote #удаленка\nКомпания: Maxiru\nЛокация: anywhere/fully remote\nФормат работы: удаленка\nЗанятость: Полная\nГрафик: гибкий (с захватом дня по NY time)\nЗ/п вилка: $2,400-$2,900\nКонтакт: @elenamat\n\nТребуется помощь со стороны React.js в нашем новом проекте - приложения для отдыхающих на круизном судне. \nКлиент: Virgin Voyages.\n\nЗагрузка Фул Тайм. Работа частично по дневному графику EST.\n\nНесколько фактов о вас:\n- вы прекрасно знаете JavaScript (5 лет опыта) и уже активно используете в своих проектах возможности ES6;\n- у вас есть хороший опыт работы с React или Vue. Вы уже знаете, когда следует использовать Redux, и знаете, когда его использованием лучше пренебречь;\n- будет плюсом, если имеете опыт работы с React native\n- у вас неплохой разговорный и письменный английский;\n- вы способны самостоятельно принимать архитектурные решения и работать без внешнего контроля;\n- вы достаточно дисциплинированы для эффективной удаленной работы.\n- вы не боитесь брать на себя ответственность за свою работу и работу своих младших коллег.\n\nНесколько фактов о нас:\n- мы небольшая IT компания, расположенная на юге США, работаем уже более 6 лет;\n-  нашим фокусом является cruise industry technology, apps ranging from IOT to Algorithms and 3D simulations;\n- среди наших клиентов есть как огромные корпорации вроде Virgin Voyages, так и небольшие стартапы;\n- сейчас наша команда состоит из 46 человек, проживающих в 39 разных городах мира;\n- наш основной технологический стек выглядит следующим образом: Python, React, Redux, ES6, Webpack, SASS, Jenkins, Docker, Kubernetes, Google Cloud, Unreal engine;\n- работы у нас имеется много, хватит на годы вперед.\n\nЕсли вас заинтересовала наша вакансия, заполните, пожалуйста, анкету: https://forms.gle/ssxr69BwJwEDQ89h6 и мы свяжемся в течении 24-48 часов.\n\n—\n\n👉 Обсуждение вакансии в чате @javascript_jobs","markup":[{"type":"hashtag","offset":0,"length":9,"data":"вакансия"},{"type":"hashtag","offset":10,"length":9,"data":"frontend"},{"type":"hashtag","offset":20,"length":11,"data":"javascript"},{"type":"hashtag","offset":32,"length":6,"data":"react"},{"type":"hashtag","offset":40,"length":7,"data":"senior"},{"type":"hashtag","offset":48,"length":7,"data":"remote"},{"type":"hashtag","offset":56,"length":9,"data":"удаленка"},{"type":"handle","offset":233,"length":9,"data":"elenamat"},{"type":"link","offset":1769,"length":35,"data":"https://forms.gle/ssxr69BwJwEDQ89h6"},{"type":"handle","offset":1876,"length":16,"data":"javascript_jobs"}],"date":"2020-06-17T21:23:01+00:00","link":"tg://resolve?domain=javascript_jobs_feed&post=0","tags":[{"name":"javascript"},{"name":"reactjs"},{"name":"vuejs"},{"name":"redux"},{"name":"python"},{"name":"webpack"},{"name":"sass"},{"name":"jenkins"},{"name":"docker"},{"name":"kubernetes"},{"name":"cloud"},{"name":"react-native"},{"name":"react-redux"},{"name":"google-cloud-platform"}],"cities":[],"allowsRemote":true}},{"node":{"__typename":"Job","id":"91048902656-1001067529236","title":"Python разработчик","text":"#вакансия #python #django #middle #senior #фултайм #москва #remote\n\nКомпания: РБК\nГород: Москва\nУсловия: фуллтайм удаленка/офис, м. Калужская\nдо 200000 руб.+ДМС, скидки на англ.яз. и фитнес\n\nВ команду медиахолдинга РБК  ищем Python-разработчика в проект «РБК Pro»: платформа с платным бизнес-контентом по подписке и миллионной аудиторией.\n\nПри работе над продуктом предстоит решать множество интересных технических и архитектурных задач: обеспечивать устойчивость системы к высоким нагрузкам, полностью персонализировать представление данных для каждого пользователя, реализовывать гибкую модель тарификации и подписок.\n\nВ работе используем следующие инструменты: Python3, Django REST Framework (DRF), Aiohttp, кластеры Postgresql, Elasticsearch. Деплоим в кластер Kubernetes \n\nНаши пожелания:\n- опыт разработки приложений на Python3 от 2-х лет\n- уверенное знание фреймворка Django\n- опыт разработки на aiohttp;\n\nДетали можно посмотреть тут \ncall/text me: @marie_clair","markup":[{"type":"hashtag","offset":0,"length":9,"data":"вакансия"},{"type":"hashtag","offset":10,"length":7,"data":"python"},{"type":"hashtag","offset":18,"length":7,"data":"django"},{"type":"hashtag","offset":26,"length":7,"data":"middle"},{"type":"hashtag","offset":34,"length":7,"data":"senior"},{"type":"hashtag","offset":42,"length":8,"data":"фултайм"},{"type":"hashtag","offset":51,"length":7,"data":"москва"},{"type":"hashtag","offset":59,"length":7,"data":"remote"},{"type":"link","offset":937,"length":3,"data":"https://hh.ru/vacancy/36806782"},{"type":"handle","offset":956,"length":12,"data":"marie_clair"}],"date":"2020-06-17T14:00:30+00:00","link":"tg://resolve?domain=python_jobs&post=0","tags":[{"name":"python"},{"name":"django"},{"name":"rest"},{"name":"postgresql"},{"name":"elasticsearch"},{"name":"kubernetes"}],"cities":[{"code":"moscow"}],"allowsRemote":true}},{"node":{"__typename":"Job","id":"2218786816-1001134745498","title":"Devops инженер","text":"#вакансия #DevOps\n\nDevOps Engineer \nГород и адрес офиса: Москва, Сочи, Новосибирск \n\nФормат работы: удаленка\n\nЗанятость: полная\n\nЗарплатная вилка: от 40000 до 60000 USD в год \n\nКрупная международная компания по разработке игр ищет в свою команду DevOps инженера. \n\nТребования: \nDevOps/SRE, ключевые слова:\nTypeScrypt, Node.js, SRE, SDN, PoP, VPN, динамическая маршрутизация, инкапсуляция трафика, Kubernetes, Helm и что-нибудь из стораджа типа Lustre, CEPH и про Apache Spark, Hadoop и особенно HDFS\n\nБудет плюсом: \n• Опыт удаленной работы.\n\nP.S. Ищем супер ниндзю, который творит чудеса;) \n\nКонтакт для связи: @nastya_stret\n\n—\n\n👉 Обсуждение вакансии в чате @devops_jobs","markup":[{"type":"hashtag","offset":0,"length":9,"data":"вакансия"},{"type":"hashtag","offset":10,"length":7,"data":"DevOps"},{"type":"handle","offset":611,"length":13,"data":"nastya_stret"},{"type":"handle","offset":659,"length":12,"data":"devops_jobs"}],"date":"2020-06-17T11:52:49+00:00","link":"tg://resolve?domain=devops_jobs_feed&post=2116","tags":[{"name":"nodejs"},{"name":"kubernetes"},{"name":"apache"},{"name":"hadoop"},{"name":"hdfs"},{"name":"apache-spark"}],"cities":[{"code":"moscow"},{"code":"sochi"},{"code":"novosibirsk"}],"allowsRemote":true}},{"node":{"__typename":"Job","id":"103039369216-1001089317451","title":"Qa engineer","text":"#вакансия #QA #ФТ #СПб #офис \n\nВакансия: QA Engineer (ручное с переходом в АТ), Middle/Senior\nГород: Санкт-Петербург \nЗарплата: от 100 000 до 150 000 рублей на руки \nФормат: офис, полный день, полная занятость\nКомпания Wert\n\nКоманда Wert занимается разработкой финтех-решений на базе blockchain. В данным момент мы ищем Senior QA Engineer, готового трудиться над созданием и развитием нового продукта.\n\nЧто нужно будет делать:\n • Анализ задач для разработки\n • Написание тестовой документации\n • Анализ и решение технических проблем, связанных с конфигурацией сервисов\n • Работать в тесном контакте с разработчиками.\n\nОгромным плюсом будут:\n • Опыт работы в финансовом секторе/процессинге\n • Понимание технологии blockchain\n\nВ работе мы используем:\n• Golang\n• Amazon\n• Kubernetes\n• PostgreSQL\n• Redis\n\nЧто мы ожидаем от вас:\n • Опыт в тестировании как backend, так и frontend от 2-х лет\n • Умение составлять план тестирования.\n • Базовое понимание вопросов безопастности (SQL Injection, XSS, OWASP - хоть одно слово должно вызвать отклик)\n • Знание видов тестирование и понимание разницы между ними.\n • Наличие опыта работы с баг-трекинговыми и кейс-трекинговыми системами (например, с JIRA и TestRail)\n • Способность аргументированно выбирать оптимальные инструменты и решения\n • Умение работать в команде и самостоятельно\n\nЧто мы можем предложить:\n • участие в интересном проекте с “нуля”;\n • адекватную команду;\n • плоскую структуру компании без бюрократии.\n\n\nРезюме и вопросы @gonzogirl","markup":[{"type":"hashtag","offset":0,"length":9,"data":"вакансия"},{"type":"hashtag","offset":10,"length":3,"data":"QA"},{"type":"hashtag","offset":14,"length":3,"data":"ФТ"},{"type":"hashtag","offset":18,"length":4,"data":"СПб"},{"type":"hashtag","offset":23,"length":5,"data":"офис"},{"type":"handle","offset":1480,"length":10,"data":"gonzogirl"}],"date":"2020-06-17T09:47:25+00:00","link":"tg://resolve?domain=qa_jobs&post=0","tags":[{"name":"qa"},{"name":"go"},{"name":"kubernetes"},{"name":"postgresql"},{"name":"redis"},{"name":"sql"}],"cities":[],"allowsRemote":false}},{"node":{"__typename":"Job","id":"102963871744-1001089317451","title":"Qa engineer","text":"#Москва #вакансия #QA #fulltime #test #office\n\n💻Компания: СберТех.\n🧰Вакансия: QA Engineer.\n🏢Офис: Москва, м. Нагатинская/м. Тульская/ м. Верхние Котлы.\n💰ЗП: от 150 000 Net.\n\n📂Проект: Разработка платформы для управления бизнес-процессами Банка и Цифровой Платформы Sber.\n\n🗓Задачи:\n• Работа в роли тестировщика в scrum команде.\n• Написание, актуализация тестовых сценариев и их прохождение (API, UI).\n• Проведение функционального, регрессионного, интеграционного и других видов тестирования.\n• Регистрация, отслеживание и верификация дефектов.\n• Участие в развитии команды и процессов тестирования.\n\n📌Требования: \n• Опыт написания тестовых сценариев, чек-листов, составления сложных интеграционных сценариев.\n• Знание теории тестирования, понимание видов тестирования и необходимости их применения на различных этапах реализации проекта.\n• Опыт анализа и тестирования требований.\n• Опыт тестирования rest/soap сервисов.\n• Опыт работы с BPM системами, понимание нотации BPMN 2.0.\n\n📎Cтек: REST, XML, XSD, JSON, SQL, BPMN 2.0, Docker, Kubernetes, Openshift, Kafka.\n\n🔰Условия:\n• Оформление ТК РФ.\n• ДМС для сотрудников и скидки на медицинскую страховку для родственников;\n• Высокая белая заработная плата (оклад + годовая премия).\n• Возможность обучения за счет компании, посещения IT-конференций.\n• Бесплатный тренажерный зал на территории офиса.\n• Корпоративная жизнь и спортивные мероприятия.\n\n📩Готов ответить на интересующие вопросы - @Dmiryy","markup":[{"type":"hashtag","offset":0,"length":7,"data":"Москва"},{"type":"hashtag","offset":8,"length":9,"data":"вакансия"},{"type":"hashtag","offset":18,"length":3,"data":"QA"},{"type":"hashtag","offset":22,"length":9,"data":"fulltime"},{"type":"hashtag","offset":32,"length":5,"data":"test"},{"type":"hashtag","offset":38,"length":7,"data":"office"},{"type":"handle","offset":1443,"length":7,"data":"Dmiryy"}],"date":"2020-06-16T16:02:50+00:00","link":"tg://resolve?domain=qa_jobs&post=0","tags":[{"name":"qa"},{"name":"dotnet"},{"name":"rest"},{"name":"soap"},{"name":"xml"},{"name":"xsd"},{"name":"json"},{"name":"sql"},{"name":"docker"},{"name":"kubernetes"},{"name":"kafka"}],"cities":[{"code":"moscow"}],"allowsRemote":false}},{"node":{"__typename":"Job","id":"2217738240-1001134745498","title":"Devops engineer","text":"#вакансия #devops #fulltime #НижнийНовгород\n\nВакансия: DevOps Engineer\nКомпания: Natera\nЛокация: Нижний Новгород\nФормат работы: офис и удаленный формат\nЗанятость: полная\nЗарплатная вилка: от 2500 до 3200 $ до вычета.  \nКонтакт:@zKITO\n\nAt Natera we build fast, reliable and scalable software that is easy to test and deploy. Our Engineering team works on a set of applications such as a complex Laboratory Information Management System (LIMS) and Constellation – our cloud based data analytics SaaS platform hosted on Amazon Web Services. As a DevOps Engineer your responsibilities will include building scalable infrastructure on which we deliver our software as well as managing development tools that are used on a daily basis by the members of Engineering team.\n\n\n      BENEFITS\nSalary $ 2500-3200 gross.  \nStocks\nPossibility of remote work with flexible working hours\nFree lunch, snacks etc in office\nMacbook Pro + monitors\nComfortable and cozy office with table tennis, playstation etc\nPossibility of business trips to the USA California\nFull compliance with labour laws.\n\n\nKNOWLEDGE, SKILLS, AND ABILITIES\n\n  Mandatory\nExperience in Linux Ubuntu administration.\nPractical experience managing applications deployed using AWS/GCP or Docker.\nAbility to read and understand Java code.\nStrong ability to troubleshoot complex issues ranging from system resources to application stack traces.\n\n  Nice to have experience with\nKubernetes, Rancher\nPython/Java\nTerraform\nAtlassian applications stack\ndatabases and SQL\n  \n \nPRIMARY RESPONSIBILITIES\n\nDevelop, configure and manage tools for fast and reliable deployments of our software.\nParticipate in operations efforts and be the point person for infrastructural activities.\nBuild tools for monitoring our infrastructure and resolve any issues with instances running in production. \nDevelop automation and CI/CD processes to enable teams to build, test, deploy, manage, configure, scale and monitor their applications using the latest technologies such as Docker, Kubernetes, Terraform and others.\nParticipate in architectural decisions to help improve reliability and scalability of our software.\nHelp configure and manage development tools such as Atlassian Bitbucket, Bamboo, Artifactory and others.\n\n—\n\n👉 Обсуждение вакансии в чате @devops_jobs","markup":[{"type":"hashtag","offset":0,"length":9,"data":"вакансия"},{"type":"hashtag","offset":10,"length":7,"data":"devops"},{"type":"hashtag","offset":18,"length":9,"data":"fulltime"},{"type":"hashtag","offset":28,"length":15,"data":"НижнийНовгород"},{"type":"handle","offset":227,"length":6,"data":"zKITO"},{"type":"handle","offset":2283,"length":12,"data":"devops_jobs"}],"date":"2020-06-16T15:59:39+00:00","link":"tg://resolve?domain=devops_jobs_feed&post=2115","tags":[{"name":"cloud"},{"name":"web"},{"name":"linux"},{"name":"ubuntu"},{"name":"amazon-web-services"},{"name":"google-cloud-platform"},{"name":"docker"},{"name":"java"},{"name":"kubernetes"},{"name":"python"},{"name":"sql"}],"cities":[{"code":"nice"},{"code":"nizhny-novgorod"}],"allowsRemote":true}},{"node":{"__typename":"Job","id":"1699741696-1001091028994","title":"Java разработчик","text":"#вакансия #Москва #Архитектор #Java\n \nВакансия: АРХИТЕКТОР\nЛокация: #Москва ст.м.Верхние Лихоборы, МЦК Окружная\nВилка по ЗП: до 300 000 net \nКонтакт: @Hr_Dina\nОсновной проект: Развитие решения класса IDM/AM.\nВ рамках проекта необходимо доработать решение под требования заказчика.\nНаписать проектно-рабочую документацию.\nПройти процедуру сертификации решения.\n \nСтек технологий: OpenJDK 11 Spring 5 Springboot 2 Hibernate 5 Ignite (возможно будет заменен на redis) Netty 4 Postgres 11 Angular 8 Docker (планируется использовать kubernetes)\n \n \nЧем Вам предстоит заниматься:\nРазработка архитектуры и проектирование информационных систем;\nОрганизация и проведение обследований существующей и планируемой IT-инфраструктуры на территории Заказчика;\nРазработка и согласование проектной и технической документации в части системной архитектуры;\nРазработка тендерной документации и технических предложений в части системной архитектуры;\nКонсультирование ИТ и бизнес - специалистов Заказчика по вопросам, относящимся к компетенции архитектора.\nВ рамках текущего проекта:\nСопровождение архитектуры решения;\nУправление запросами на доработку решения от интегрированных прикладных проектов, проектирование общих согласованных решений на доработку;\nОбеспечение нефункциональных требований к масштабируемости и производительности.\n \n \nЧто мы ждем от вас:\nОпыт работы от 2 лет в сфере реализации корпоративных приложений на java платформе в должности руководитель группы разработки, архитектор/ведущий архитектор.\n\nЗнания и навыки:\nЗнание основ разграничения доступа (RBAC/ABAC/мандатное), опыт использования решений класса IDM/AM;\nЗнание и практический опыт применения методологий разработки и проектирования ПО;\nЗнания и опыт применения шаблонов проектирования информационных систем;\nЗнания принципов работы реляционных СУБД, опыт работы с различными реализация БД (Oracle, Postgre предпочтительно).\nОпыт разработки или проектирования высоконагруженных приложений на Java;\nJava SE 8+ (Core, Collections, Multithreading);\nSpring (Core, Boot, Security, Data);\nHibernate/Ebean/Jooq;\nIgnite/redis\nPostgres\n\nПлюсом будет:\nОпыт разработки и/или проектирования СЗИ от НСД в соответствии с требованиями РД ФСТЭК/Гостехкомиссии;\nОпыт подготовки проектной документации, знание ГОСТ 19/34;\nЗнание основ криптографической защиты информации;\nЗнание ОС Astra Linux SE\n\nЗнание:\nOAuth, SSO/SAML, Kerberos, PKI, WS-Security;\nПроектирование REST API (Swagger);\nDocker, Kubernetes\n\nЧто готовы предложить:\nВозможность участвовать в масштабных проектах на уровне страны.\nГибкий график работы. Преимущественно команда работает с 9 (10.00) до 18 (19.00) по московскому времени. Возможность работать удаленно.\nСоциальный пакет (ДМС, дополнительные компенсации по обучению и туризму, изучение английского языка на льготных условиях).","markup":[{"type":"hashtag","offset":0,"length":9,"data":"вакансия"},{"type":"hashtag","offset":10,"length":7,"data":"Москва"},{"type":"hashtag","offset":18,"length":11,"data":"Архитектор"},{"type":"hashtag","offset":30,"length":5,"data":"Java"},{"type":"bold","offset":38,"length":9,"data":""},{"type":"bold","offset":59,"length":8,"data":""},{"type":"hashtag","offset":68,"length":7,"data":"Москва"},{"type":"bold","offset":112,"length":12,"data":""},{"type":"bold","offset":141,"length":8,"data":""},{"type":"handle","offset":150,"length":8,"data":"Hr_Dina"},{"type":"bold","offset":159,"length":16,"data":""},{"type":"bold","offset":362,"length":17,"data":""},{"type":"bold","offset":544,"length":30,"data":""},{"type":"bold","offset":1322,"length":20,"data":""},{"type":"italic","offset":1501,"length":17,"data":""},{"type":"italic","offset":2091,"length":14,"data":""},{"type":"italic","offset":2343,"length":8,"data":""},{"type":"bold","offset":2451,"length":23,"data":""}],"date":"2020-06-16T15:11:33+00:00","link":"tg://resolve?domain=jvmjobs&post=1621","tags":[{"name":"java"},{"name":"jvm"},{"name":"dotnet"},{"name":"spring"},{"name":"hibernate"},{"name":"redis"},{"name":"postgresql"},{"name":"angularjs"},{"name":"docker"},{"name":"kubernetes"},{"name":"oracle"},{"name":"linux"},{"name":"oauth"},{"name":"rest"},{"name":"swagger"}],"cities":[{"code":"moscow"}],"allowsRemote":true}},{"node":{"__typename":"Job","id":"1698693120-1001091028994","title":"Java разработчик","text":"Sr. Kubernetes/Spring Engineer with High-load\nCompany: Rockbite Games \nhttps://stackoverflow.com/jobs/companies/rockbite-games\n#remote #java #kubernetes\n\nStack: Java, Spring, Kubernetes, MongoDB, NGINX Ingress\n\nChallenge: Sandship. It is a complicated popular game created by Rockbite Games. Currently, it is expanding and scaling like crazy in terms of its user base. As we are facing new multilayer issues that came with that we know most of the system needs redoing, proper issue diagnosing and solutions. We are looking for an “I can solve all of the backend problems” person.\n\nhttps://apps.apple.com/us/app/sandship-crafting-factory/id1440385758 \n\nRequired loot: Expertise with Java Spring applications on Kubernetes\n, Microservices expertise, Extremely high load backend experience (5000 req per second or more on heavy application), Understanding of low-level details and optimizations.\n\nNot required but nice Side quests: Experience in networking, understanding Nginx ingress, load balancers and the whole cluster ecosystem. Contributions to high-load or Spring connected Open Source projects.\n\nTerms: $3-10K net (depends on who you are), all remote, full-time, contract. Start date ASAP.\n\nContact: @ach94er or https://stackoverflow.com/jobs/401742/sr-kubernetes-spring-engineer-rockbite-games","markup":[{"type":"link","offset":71,"length":55,"data":"https://stackoverflow.com/jobs/companies/rockbite-games"},{"type":"hashtag","offset":127,"length":7,"data":"remote"},{"type":"hashtag","offset":135,"length":5,"data":"java"},{"type":"hashtag","offset":141,"length":11,"data":"kubernetes"},{"type":"link","offset":582,"length":68,"data":"https://apps.apple.com/us/app/sandship-crafting-factory/id1440385758"},{"type":"handle","offset":1207,"length":8,"data":"ach94er"},{"type":"link","offset":1219,"length":82,"data":"https://stackoverflow.com/jobs/401742/sr-kubernetes-spring-engineer-rockbite-games"}],"date":"2020-06-16T14:56:51+00:00","link":"tg://resolve?domain=jvmjobs&post=1620","tags":[{"name":"java"},{"name":"jvm"},{"name":"kubernetes"},{"name":"spring"},{"name":"mongodb"},{"name":"nginx"},{"name":"dotnet"}],"cities":[{"code":"nice"}],"allowsRemote":true}},{"node":{"__typename":"Job","id":"2216689664-1001134745498","title":"Devops инженер","text":"#вакансия #Москва #офис\n\nВсем привет!\n\nКомпания Сбербанк-Технологии ищет DevOps-инженера в команду развития event-сегмента облачной интеграционной платформы Synapse. Проект находится в активной фазе развития и востребован как со стороны бизнеса, так и со стороны платформ Банка.\n\n➡️Адрес офиса: Новоданиловская наб. 10 (10-15 мин. от м. Тульская и МЦК Верхние котлы)\n➡️Зарплатная вилка: от 150 до 220k net + премии\n➡️Занятость: полная\n\nПо стеку — #Ansible, #Jenkins, #Shell, #Kubernetes, #OpenShift, #Docker\n\nНемного о проекте:\n\n— работаем на open source стеке технологий (Apache Kafka, Apache Flink);\n— разрабатываем высоконагруженные (более 100 000 TPS) и отказоустойчивые (99,99%) технологии обмена и потоковой обработки событий;\n— работаем с событийными архитектурами (EDA), консультируем по проектированию и обеспечиваем технологический бэкграунд для решений в областях event sourcing, CQRS и др.;\n— у нас приветствуется open source contribution;\n— работаем с ведущими тех. стандартами для построения облачных приложений и микросервисных архитектур: Kubernetes, Istio Service Mesh, OpenShift, Docker.\n\nПару слов о команде:\n\nНаша команда работает по гибкой методологии и отвечает за полный цикл разработки продуктов. Внутри команды поддерживается атмосфера стартапа – мы сами взаимодействуем с заказчиками, сами проектируем, разрабатываем и тестируем наши продукты. У нас нет многоэтажной иерархии и случайных людей. Все члены команды являются инженерами и пишут код. Мы также постоянно усиливаем команду, приобретая новые навыки и компетенции. Вклад каждого сотрудника виден всем и честно оценивается с возможностью повышения должности и дохода.\n\nВот ссылка вакансию на hh.ru – https://hh.ru/vacancy/36723242, там подробнее о том, чего мы ждем и что предлагаем взамен.\n\n📌Контакты: @darya_laika, dppostolaki@sberbank.ru\n\n—\n\n👉 Обсуждение вакансии в чате @devops_jobs","markup":[{"type":"hashtag","offset":0,"length":9,"data":"вакансия"},{"type":"hashtag","offset":10,"length":7,"data":"Москва"},{"type":"hashtag","offset":18,"length":5,"data":"офис"},{"type":"hashtag","offset":447,"length":8,"data":"Ansible"},{"type":"hashtag","offset":457,"length":8,"data":"Jenkins"},{"type":"hashtag","offset":467,"length":6,"data":"Shell"},{"type":"hashtag","offset":475,"length":11,"data":"Kubernetes"},{"type":"hashtag","offset":488,"length":10,"data":"OpenShift"},{"type":"hashtag","offset":500,"length":7,"data":"Docker"},{"type":"link","offset":1675,"length":5,"data":"http://hh.ru"},{"type":"link","offset":1683,"length":30,"data":"https://hh.ru/vacancy/36723242"},{"type":"handle","offset":1787,"length":12,"data":"darya_laika"},{"type":"link","offset":1801,"length":23,"data":"mailto:dppostolaki@sberbank.ru"},{"type":"handle","offset":1859,"length":12,"data":"devops_jobs"}],"date":"2020-06-16T11:51:46+00:00","link":"tg://resolve?domain=devops_jobs_feed&post=2114","tags":[{"name":"dotnet"},{"name":"ansible"},{"name":"jenkins"},{"name":"shell"},{"name":"kubernetes"},{"name":"docker"},{"name":"apache"},{"name":"kafka"}],"cities":[{"code":"moscow"}],"allowsRemote":false}},{"node":{"__typename":"Job","id":"16971202560-1001110946746","title":"Js developer","text":"#вакансия\nГород и адрес офиса: Эйлат, Израиль\nФормат работы: удаленка\nЗанятость: полная\nЗарплатная вилка: (оба значения обязательны) от 1500$ до 3000$ net\nОписание вакансии:\n\nhttps://trucknet.io/en/open-positions/middle-senior-backend-typescript-developer/\n\nWho are we looking for\nWe are looking for a Backend Developer to join our R&D department in Eilat, Israel. Have you ever dreamed of working with a small and capable team in a coastal town on the southern edge of the Negev Desert? Are you interested in creating an eco-friendly product in a domain of logistics and transportation, solving mysteries problems and facing new challenges? If so, the Trucknet team is just the place for you!\nResponsibilities\n • Implementing new features and providing support for various microservices.\n • Proposing, brainstorming and carrying out refactoring to improve the internal structure of our software.\n • Improving the developer experience by constantly bettering our toolbox.\n • Advancing deployment/integration infrastructure.\nRequirements\n • 3+ years of professional experience with backend development.\n • Acquaintance with Typescript, OOP Javascript, NodeJS.\n • Acquaintance with MongoDB and experience with databases in general.\n • Practical skills in software architecture and software design.\nAdvantages\n • Knowledge of Docker and Kubernetes.\n • Understanding the concept of horizontal scaling and what limitations it does impose on the application.\n • Strong knowledge of MongoDB, PostgreSQL.\n • Experience with CI/CD (we use GitLab CI).\n • Experience with test-driven development.\n • Experience with AWS.\n\n\nНазвание компании: Trucknet (https://trucknet.io/)\nКонтакты: @g000seman alex@trucknet.io\n\n—\n\n👉 Обсуждение вакансии в чате @javascript_jobs","markup":[{"type":"hashtag","offset":0,"length":9,"data":"вакансия"},{"type":"link","offset":175,"length":81,"data":"https://trucknet.io/en/open-positions/middle-senior-backend-typescript-developer/"},{"type":"link","offset":1641,"length":20,"data":"https://trucknet.io/"},{"type":"handle","offset":1673,"length":10,"data":"g000seman"},{"type":"link","offset":1684,"length":16,"data":"mailto:alex@trucknet.io"},{"type":"handle","offset":1735,"length":16,"data":"javascript_jobs"}],"date":"2020-06-16T11:37:40+00:00","link":"tg://resolve?domain=javascript_jobs_feed&post=0","tags":[{"name":"javascript"},{"name":"dotnet"},{"name":"typescript"},{"name":"deployment"},{"name":"nodejs"},{"name":"mongodb"},{"name":"docker"},{"name":"kubernetes"},{"name":"postgresql"},{"name":"gitlab"},{"name":"amazon-web-services"}],"cities":[],"allowsRemote":true}}]}}},"context":{}}