{"hash":"f5f6bf98bd95e769321482904cbbd488f77922fd","data":{"records":{"id":"docker","name":"docker","belongsTo":{"totalCount":182,"pageInfo":{"totalPages":19,"currentPage":7},"edges":[{"node":{"__typename":"Job","id":"356515840-1001352129329","title":"Go разработчик","text":"MT Group (mtgroupit.com) #go_вакансия #вакансия\n\nСписок необходимых навыков:\nGo-swagger, http/https, REST, gRPC, SQL, Docker\nЗарплатные вилка после налогов в стандартной валюте расчетов компании:\n100 - 200 рублей (в зависимости от уровня)\nЗарплатная вилка в долларах после налогов (необязательно, если основная валюта расчета компании - доллары):\nЖелательно договор с ИП\nДоступна ли удалённая работа:\nУдаленная\nГород:\nСПБ, Париж \nСписок языков, которые необходимо знать (русский/английский или какие-либо еще), а так же язык, на котором проходят митинги:\nРусский, желательно английский\nНазвание компании:\nРазработка ПО\nКонтактное лицо:\n@Lisss13, +7 921 976 84 15","markup":[{"type":"link","offset":10,"length":13,"data":"http://mtgroupit.com"},{"type":"hashtag","offset":25,"length":12,"data":"go_вакансия"},{"type":"hashtag","offset":38,"length":9,"data":"вакансия"},{"type":"handle","offset":636,"length":8,"data":"Lisss13"},{"type":"link","offset":646,"length":16,"data":"tel:+7 921 976 84 15"}],"date":"2020-06-25T12:11:48+00:00","link":"tg://resolve?domain=gogetajobfeed&post=340","tags":[{"name":"go"},{"name":"swagger"},{"name":"rest"},{"name":"sql"},{"name":"docker"}],"cities":[{"code":"paris"}],"allowsRemote":true}},{"node":{"__typename":"Job","id":"17150509056-1001110946746","title":"Javascript разработчик","text":"#react #typescript #middle #вакансия #Москва\n\nГород и адрес офиса: Москва, Проспект Мира 69/1\n\nФормат работы: офис\n\nЗанятость: полная\n\nЗарплатная вилка: от 180 000 до 230 000 рублей\n\nНазвание компании: ООО «Компания БКС»\n\nЧем предстоит заниматься: \n\n- Разрабатывать один из самых важных микросервисов компании - Дистанционное открытие брокерского счета (ДОБС). Каждый наш новый клиент создается с помощью этого сервиса;\n\n- Работать в кросс-функциональной команде - Backend(4 чел), Web, IOS, Android, QA по Scrum;\n\n- Принимать участие в развитии микро-фронтенд архитектуре.\n\nЧто для этого потребуется:\n\n- Опыт разработки на Javascript от 3-х лет;\n- Опыт работы с React и любым state management'ом (redux, mobx, effector и др.) от 2-х лет;\n- Опыт работы с Typescript;\n- Опыт в кроссбраузерной и адаптивной верстке;\n- Опыт в написании тестов: Unit, интеграционные;\n- Опыт работы с Docker;\n- Опыт работы по Scrum;\n\nЗа что предложим справедливую компенсацию:\n\n- Оформление в соответствии с ТК РФ, все по правилам порядочных работодателей;\n- Комфортный, современный офис в центре города (7 мин. от м. Проспект Мира);\n- Гибкой график;\n- 3 day-off в течение года;\n- Более чем конкурентную заработную плату;\n- Минимум бюрократии (особенно по меркам банковского сектора) и отсутствие дресс-кода;\n- ДМС по льготным условиям;\n- Спортивные команды по футболу, волейболу, баскетболу, настольному теннису;\n- Обучение английскому языку со скидкой прямо в офисе и дистанционно;\n- Льготное приобретение фитнеса в компании World Class;\n- Уютная недорогая столовая на территории Компании (завтраки, обеды).\n\nКонтакты:\nEmail: tupalovdd@bcs.msk.ru\nТелеграм: @dtupalov","markup":[{"type":"hashtag","offset":0,"length":6,"data":"react"},{"type":"hashtag","offset":7,"length":11,"data":"typescript"},{"type":"hashtag","offset":19,"length":7,"data":"middle"},{"type":"hashtag","offset":27,"length":9,"data":"вакансия"},{"type":"hashtag","offset":37,"length":7,"data":"Москва"},{"type":"link","offset":1605,"length":20,"data":"mailto:tupalovdd@bcs.msk.ru"},{"type":"handle","offset":1636,"length":9,"data":"dtupalov"}],"date":"2020-06-25T11:30:26+00:00","link":"tg://resolve?domain=javascript_jobs_feed&post=16356","tags":[{"name":"javascript"},{"name":"reactjs"},{"name":"typescript"},{"name":"web"},{"name":"ios"},{"name":"android"},{"name":"redux"},{"name":"docker"}],"cities":[{"code":"moscow"}],"allowsRemote":false}},{"node":{"__typename":"Job","id":"2256535552-1001134745498","title":"Devops инженер","text":"#вакансия #devops #docker #kubernetes\n\nВакансия: DevOps\nКомпания: Potok.io\nГород и адрес офиса: Москва, м. Марьина Роща, м. Савёловская\nФормат работы: удаленно на время пандемии, далее офис\nЗанятость: полная\nЗарплатная вилка: от 120 до 200к (net)\n\nМы - SaaS-решение по автоматизации бизнес-процессов в рамках подбора. Ищем человека, который возьмет на себя построение нашей инфраструктуры и CI/CD. Сейчас делаем всё силами команды разработки, а задач уже набралось на полноценного специалиста\nНаш стэк - ubuntu, ruby, postgres, elasticsearch, redis.\n\n🔹Чем предстоит заниматься:\n-настройка CI/CD\n-инфраструктурная поддержка продакшена - мониторинг, логи, деплой, вот это вот всё :)\n-запаковка SaaS-решения в коробку и развертка на серверах клиентов\n\n🔹Мы ищем человека, который:\n-имеет опыт работы DevOps специалистом от 2-х лет\n-имеет опыт администрирования Ubuntu\n-опыт работы с Docker и Kubernetes\n-навыки в сфере автоматизации процессов настройки и управления серверами (puppet, ansible, chef)\n-системы мониторинга и логинорования \nТакже большим плюсом будет опыт работы с PostgreSQL и Elasticsearch\n\n🔹Условия:\n-индивидуальное обсуждение зарплатных ожиданий \n-честное трудоустройство на 100%\n-классный ДМС\n-график 5/2 в среднем с 10 до 19\n-команду, нацеленную на общий результат и интересные задачи\n-дух стартапа + стабильность большой компании \n\nКонтакты: @yulianka_95\n\n—\n\n👉 Обсуждение вакансии в чате @devops_jobs","markup":[{"type":"hashtag","offset":0,"length":9,"data":"вакансия"},{"type":"hashtag","offset":10,"length":7,"data":"devops"},{"type":"hashtag","offset":18,"length":7,"data":"docker"},{"type":"hashtag","offset":26,"length":11,"data":"kubernetes"},{"type":"link","offset":66,"length":8,"data":"http://Potok.io"},{"type":"handle","offset":1362,"length":12,"data":"yulianka_95"},{"type":"handle","offset":1409,"length":12,"data":"devops_jobs"}],"date":"2020-06-25T11:10:32+00:00","link":"tg://resolve?domain=devops_jobs_feed&post=2152","tags":[{"name":"docker"},{"name":"kubernetes"},{"name":"dotnet"},{"name":"ubuntu"},{"name":"ruby"},{"name":"postgresql"},{"name":"elasticsearch"},{"name":"redis"},{"name":"ansible"}],"cities":[{"code":"moscow"}],"allowsRemote":true}},{"node":{"__typename":"Job","id":"1735393280-1001091028994","title":"Java разработчик","text":"#java #senior #backend #js #Москва #fulltime #офис #angular\nЛокация: Москва, м. Шаболовская\nФормат работы: Office\nЗанятость: Fulltime\nЗарплата от 100 к до 240 к\nОписание вакансии:\nРазработчик JAVA (senior\\middle)\nНаш клиент - международная компания, в связи с расширением деятельности в России - приглашает опытных Java-разработчиков. \nРазработка собственного продукта - коммерческого приложения на основе Angular front + Java backend.\nОбязанности:\n- разработка новых компонентов системы\n- доработка и оптимизация существующих компонентов\n- поддержка качества кода (code review, использование систем автоматизированного контроля кода)\n- Написание юнит-тестов и функциональных тестов\n- Взаимодействие с бизнес-аналитиками для выполнения техзадания\nТребования:\n- Высшее образование\n- Командность, гибкость подходов и мышления\n- опыт разработки на java от 3 лет\nТехнические требования:\n- знание java 8, Spring-*(Boot, Data, Rest), Hibernate\n- опыт работы с SQL (SQL Server, Oracle или postgresql)\n- понимание основ микросервисной архитектуры\n- Git\n-если ты умеешь работать с Docker и понимаешь практики DevOps ты тот, кто нам нужен.\nАдекватных руководителей, сильную команду и офисные плюшки гарантируем\nКА Wit recruitment\nКонтакты m.buldenko@witrec.com\n@marinabuldenko","markup":[{"type":"hashtag","offset":0,"length":5,"data":"java"},{"type":"hashtag","offset":6,"length":7,"data":"senior"},{"type":"hashtag","offset":14,"length":8,"data":"backend"},{"type":"hashtag","offset":23,"length":3,"data":"js"},{"type":"hashtag","offset":27,"length":7,"data":"Москва"},{"type":"hashtag","offset":35,"length":9,"data":"fulltime"},{"type":"hashtag","offset":45,"length":5,"data":"офис"},{"type":"hashtag","offset":51,"length":8,"data":"angular"},{"type":"link","offset":1229,"length":21,"data":"mailto:m.buldenko@witrec.com"},{"type":"handle","offset":1251,"length":15,"data":"marinabuldenko"}],"date":"2020-06-25T09:30:21+00:00","link":"tg://resolve?domain=jvmjobs&post=1655","tags":[{"name":"java"},{"name":"jvm"},{"name":"angularjs"},{"name":"spring"},{"name":"rest"},{"name":"hibernate"},{"name":"sql"},{"name":"oracle"},{"name":"postgresql"},{"name":"git"},{"name":"docker"},{"name":"spring-boot"},{"name":"sql-server"}],"cities":[{"code":"moscow"}],"allowsRemote":false}},{"node":{"__typename":"Job","id":"103690534912-1001089317451","title":"Qa engineer","text":"#Москва #вакансия #QA #manual  #python\n\nДолжность: QA Engineer \nКомпания: Andromeda Lab\nЗП: до 120 000 \nФормат работы: офис, гибкое начало дня\nЗанятость: полная\n\n\nКого мы ищем:\nЧеловека который готов заниматься ручным тестированием 80% времени и 20% времени - автоматизацией. Со временем доля автоматизации вырастет до 50%. \nЕсли у вас не хватает каких-то скиллов - готовы учить и помогать развиваться. Мы очень ценим проактивность и готовность менять все вокруг себя. \n\nЗадачи:\n- Тестирование ERP-системы (состоит из более чем 40 приложений, объединенные в одну экосистему)\n- Введение документации для тестирования (Создание тест-кейсов, чек-листов и т.д.)\n- Тестирование мобильного приложения \n- Тестирование API\n- Участие в автоматизации тестирования продуктов компании\n\nОбязанности:\n- Понимание жизненного цикла разработки продукта\n- Знание теории и видов тестирования,  умение вести тестовую документацию;\n- Умение локализовать баги и оформлять баг репорты\n- Понимание и умение применять техники тест-дизайна\n- Тестирование API\n- Опыт использование Postman\n- Понимание мобильного тестирования \n- Знание и умение пользования командной строкой UNIX\n- Знание SQL (простые запросы), Git\n- Умение использовать снифферы (Charles,Fiddler и т.д.)\n- Понимание как работать с Docker\n- Начальные знания Python либо желание выучить в ближайшее время\n\nПредлагаем:\n- белая зп (до 120 000, зависит от опыта);\n- уютный офис в Moscow City (сладости, печенки,кофе\\чай,PS4 и т.д.);\n- ДМС,  курсы английского, участие в конференциях. \n\nРезюме скидывать в лс.","markup":[{"type":"hashtag","offset":0,"length":7,"data":"Москва"},{"type":"hashtag","offset":8,"length":9,"data":"вакансия"},{"type":"hashtag","offset":18,"length":3,"data":"QA"},{"type":"hashtag","offset":22,"length":7,"data":"manual"},{"type":"hashtag","offset":31,"length":7,"data":"python"}],"date":"2020-06-25T08:22:40+00:00","link":"tg://resolve?domain=qa_jobs&post=98887","tags":[{"name":"qa"},{"name":"python"},{"name":"unix"},{"name":"sql"},{"name":"git"},{"name":"docker"}],"cities":[{"code":"moscow"}],"allowsRemote":false}},{"node":{"__typename":"Job","id":"103688437760-1001089317451","title":"Qa engineer","text":"#вакансия #москва #полнаязанятость #qaengineer #auto \nКомпания: #Mетрквадратный www.m2.ru\nЛокация: м.Белорусская \nФормат работы: офис (удаленная до сентября)  \nЗ/п: от 120к - 180к на руки\nКонтакты: @maxdmitrov\n\nЭто экосистема недвижимости, которая помогает клиентам решать любые жилищные вопросы: от поиска вариантов и оформления сделки до организации ремонта и переезда в новую квартиру. Мы также создаем решения для партнёров и профессиональных участников рынка недвижимости.\n\nНаш стэк:\n• Java\n • Node.js\n • React, TypeScript\n • Kafka, ElasticSearch, gRPC\n • Docker\n\nЧем предстоит заниматься:\n• заниматься задачами по автоматизации тестирования. \n• анализировать и тестировать требования к разрабатываемым приложениям;\n • писать приемочные критерии к пользовательским историям;\n • проводить функциональное, регрессионное и smoke тестирование;\n \n\nЧего мы ждем:\n • глубокое понимание процессов тестирования и разработки ПО;\n • опыт интеграционного тестирования:\n    - системная интеграция;\n    - компонентная интеграция\n • опыт тестирования АРI;\n • опыт автоматизации тестирования на любом стеке.\n\nБудет плюсом\n • опыт исследовательского тестирования;\n • опыт тестирования ПО с микросервисной архитектурой.\n\nМы предлагаем:\n • белая конкурентная ЗП, официальное оформление;\n • гибкий график работы;\n • ДМС, компенсация фитнеса, льготная ставка по ипотеке;\n • комфортный офис в БЦ «Белая площадь» (минута от метро): лаундж-зоны, бариста, фрукты.","markup":[{"type":"hashtag","offset":0,"length":9,"data":"вакансия"},{"type":"hashtag","offset":10,"length":7,"data":"москва"},{"type":"hashtag","offset":18,"length":16,"data":"полнаязанятость"},{"type":"hashtag","offset":35,"length":11,"data":"qaengineer"},{"type":"hashtag","offset":47,"length":5,"data":"auto"},{"type":"hashtag","offset":64,"length":15,"data":"Mетрквадратный"},{"type":"link","offset":80,"length":9,"data":"http://www.m2.ru"},{"type":"handle","offset":198,"length":11,"data":"maxdmitrov"},{"type":"bold","offset":478,"length":11,"data":""},{"type":"bold","offset":569,"length":26,"data":""},{"type":"bold","offset":847,"length":15,"data":""},{"type":"bold","offset":1097,"length":14,"data":""},{"type":"bold","offset":1206,"length":16,"data":""}],"date":"2020-06-25T07:56:33+00:00","link":"tg://resolve?domain=qa_jobs&post=98885","tags":[{"name":"qa"},{"name":"java"},{"name":"nodejs"},{"name":"reactjs"},{"name":"typescript"},{"name":"kafka"},{"name":"elasticsearch"},{"name":"docker"}],"cities":[{"code":"moscow"}],"allowsRemote":true}},{"node":{"__typename":"Job","id":"2254438400-1001134745498","title":"Devops инженер","text":"Инженер DevOps \n#вакансия #Москва #Сколково #DevOps \n\nКомпания: Farzoom (финтех стартап 2016 года, резидент Сколково) \nЛокация: Москва, МЦД Сколково \nФормат работы: частично удаленный формат  \nЗанятость: Полная  \n💰Зарплатная вилка: от 180т.р до 230т.р net, премии \n\nПроект по разработке облачной фронтальной системы для банковского сектора.  \n\nЧто мы используем: микросервисная архитектура, Java 8, Spring Boot, Camunda BPM, Gitlab, Jenkins, Ansible, Docker Swarm, OpenStack, Nexus. Везде стоит Linux CentOS. \n \nСейчас идет переход на стек: Kubernetes, Coreos, Terraform, Podman. \n \n🎯 Что предстоит делать: \nПоддержка инфраструктуры в облаке (порядка 60 серверов/виртуалок) \nРазворачивание новых контуров \nСборка сервисов \nПоддержка CI/CD (в том числе настройка пайплайнов) \nИнтеграция контура и помощь в поддержке решения \n \n🎯  Мы предлагаем: \nОформление по ТК РФ с первого рабочего дня \nЕжегодные премии \nОфис рядом с МЦД Сколково, возможность часть времени работать удаленно \n\n👉 Контакты: @edzyuba\n\n—\n\n👉 Обсуждение вакансии в чате @devops_jobs","markup":[{"type":"hashtag","offset":16,"length":9,"data":"вакансия"},{"type":"hashtag","offset":26,"length":7,"data":"Москва"},{"type":"hashtag","offset":34,"length":9,"data":"Сколково"},{"type":"hashtag","offset":44,"length":7,"data":"DevOps"},{"type":"handle","offset":996,"length":8,"data":"edzyuba"},{"type":"handle","offset":1039,"length":12,"data":"devops_jobs"}],"date":"2020-06-25T07:28:33+00:00","link":"tg://resolve?domain=devops_jobs_feed&post=2150","tags":[{"name":"dotnet"},{"name":"java"},{"name":"spring"},{"name":"gitlab"},{"name":"jenkins"},{"name":"ansible"},{"name":"docker"},{"name":"linux"},{"name":"centos"},{"name":"kubernetes"},{"name":"spring-boot"}],"cities":[{"code":"moscow"}],"allowsRemote":true}},{"node":{"__typename":"Job","id":"2253389824-1001134745498","title":"Devops инженер","text":"#вакансия #Москва #офис #DevOps\n\n▫️ВАКАНСИЯ: Devops engineer\nКомпания: Северсталь-Диджитал\nФормат работы: удаленно на пандемии, далее офис  \nЛокация: Москва Офис на м. Войковская или МЦК Балтийская\nЗанятость: полная \nЗарплатная вилка: до 140-180к gross middle, 180-230к gross senior  + 30% годовой бонус\n\nКомпания занимается внедрением моделей машинного обучение в производстве. Мы ищем devops инженера для поддержки и развития платформы k8s, Kafka, Hadoop, Gitlab. Работа в небольшой команде, где ваши идеи будут быстро находить реализацию.\n\n▫️Обязанности:\n • Настройка, обновление, GitLab, GitlabCI, Nexus/Artifactory; \n • Организация сбора логов с компонентов IoT платформы Северстали (GrayLog); \n • Организация сбора метрик, описывающих состояние IoT платформы; \n • Создание дашбордов и алертов в Grafana; \n • Автоматизированный выпуск релизов. \n\n▫️Требования:\n• Опыт работы в роли DevOps инженера или аналогичной позиции от 1-го года;  \n• Опыт работы с Linux в роли администратора, навыки работы с Docker; \n• Опыт работы с Hadoop, Kafka, Kubernetes. \n\n▫️Желательно:\n• Умение быстро изучать англоязычные технические ресурсы; \n• Экспертные навыки работы с ОС семейства Linux; \n• Навыки работы на языках программирования Bash, Python, Java, Scala.\n• Опыт работы с Prometeus, Zabbix, ELK\n\n▫️Условия:\n•  Гибкое начало рабочего дня\n•  Официальное оформление\n•  Корпоративную мобильную связь, медицинскую страховку и страхование жизни\n•  Участие в профессиональных конференциях\n•  Современное рабочее пространство и уютные зоны отдыха\n\nКонтакты @DaynekoRoman, @ikart\n\n—\n\n👉 Обсуждение вакансии в чате @devops_jobs","markup":[{"type":"hashtag","offset":0,"length":9,"data":"вакансия"},{"type":"hashtag","offset":10,"length":7,"data":"Москва"},{"type":"hashtag","offset":18,"length":5,"data":"офис"},{"type":"hashtag","offset":24,"length":7,"data":"DevOps"},{"type":"handle","offset":1543,"length":13,"data":"DaynekoRoman"},{"type":"handle","offset":1558,"length":6,"data":"ikart"},{"type":"handle","offset":1599,"length":12,"data":"devops_jobs"}],"date":"2020-06-25T07:26:49+00:00","link":"tg://resolve?domain=devops_jobs_feed&post=2149","tags":[{"name":"kafka"},{"name":"hadoop"},{"name":"gitlab"},{"name":"linux"},{"name":"docker"},{"name":"kubernetes"},{"name":"bash"},{"name":"python"},{"name":"java"},{"name":"scala"}],"cities":[{"code":"moscow"}],"allowsRemote":true}},{"node":{"__typename":"Job","id":"17141071872-1001110946746","title":"Js разработчик","text":"#вакансия #удаленно #fullstack #JavaScript #NodeJS #Vue #middle #senior\n\nГород: г. Москва, Сколково, б-р Большой\nФорма работы: удаленка\nЗанятость: полная\nЗарплатная вилка: от 120000 до 200000 рублей\nНазвание компании: ADMON\n\nВ связи с расширением штата, компания ADMON приглашает Middle/Senior Full-stack JavaScript-разработчиков, готовых стать полноценными членами нашей команды на удаленной основе. ADMON – одна из ведущих российских компаний по предотвращению и расследованию мошенничества в сфере рекламы в Интернете и на мобильных устройствах с использованием высоких технологий, являемся резидентами Сколково. Основные направления деятельности компании: мониторинг и предотвращение мошенничества, аудит рекламных кампаний, разработка инновационных программных продуктов по мониторингу, обнаружению и предотвращению возникающих видов мошенничества.\n\nСтек технологий:\nNode.JS, Vue, GraphQl, Jest, Redis, Clickhouse, PostgreSQL, Docker.\n\nЧто используем в работе:\n    ✔️ Jira (Kanban), Confluence;\n   ✔️Храним код в Gitlab, тут же CI/CD;\n    ✔️Практикуем code review, политику частых релизов, гибкие методологии разработки;\n    ✔️Мониторим состояние приложений с помощью: Zabbix, Grafana.\n\nВ задачи будет входить:\n    🔸 Улучшать имеющийся функционал и разрабатывать новый (Система нотификаций, Обработка платежей, Алгоритмы атрибуции, Ads Crawler и т.д.);\n    🔸Писать тесты и рефакторить кодовую базу;\n    🔸Участвовать в принятии архитектурных решений;\n    🔸 Работать как в составе команды, так и в одного над небольшими проектами;\n   🔸Участвовать в коммуникации с командой;\n    🔸Быть инициативным и предлагать свои идеи, в том числе, если это касается использования новых технологий — проводить code review.\n\nЧто мы предлагаем:\n    🚀 Удаленная работа;\n    🚀 Оформление по ТК РФ;\n    🚀 Полностью белая ЗП;\n    🚀График работы 5/2;\n    🚀 Можно выбрать свой график работы;\n    🚀Наставничество по предметной области и на равной позиции;\n    🚀 Возможность работать как в составе команды, так и возглавить со временем свое направление — мы готовы обсуждать любые ваши идеи. \n\n Контакты:@juliajudina2810\n Резюме можно присылать на почту: hr@resurs-hr.ru","markup":[{"type":"hashtag","offset":0,"length":9,"data":"вакансия"},{"type":"hashtag","offset":10,"length":9,"data":"удаленно"},{"type":"hashtag","offset":20,"length":10,"data":"fullstack"},{"type":"hashtag","offset":31,"length":11,"data":"JavaScript"},{"type":"hashtag","offset":43,"length":7,"data":"NodeJS"},{"type":"hashtag","offset":51,"length":4,"data":"Vue"},{"type":"hashtag","offset":56,"length":7,"data":"middle"},{"type":"hashtag","offset":64,"length":7,"data":"senior"},{"type":"handle","offset":2104,"length":16,"data":"juliajudina2810"},{"type":"link","offset":2155,"length":15,"data":"mailto:hr@resurs-hr.ru"}],"date":"2020-06-25T06:43:58+00:00","link":"tg://resolve?domain=javascript_jobs_feed&post=16347","tags":[{"name":"javascript"},{"name":"nodejs"},{"name":"vuejs"},{"name":"graphql"},{"name":"redis"},{"name":"postgresql"},{"name":"docker"},{"name":"gitlab"}],"cities":[{"code":"moscow"}],"allowsRemote":true}},{"node":{"__typename":"Job","id":"354418688-1001352129329","title":"Golang разработчик","text":"Ребят, всем привет! \nПостараюсь кратко, подробности в ЛС. Заранее напишу, что это Москва (фултайм/офис), компания Lofty. Ищем в команду как Midle так и Senior Go разработчиков.\nВообщем если хочется в highload, добро пожаловать!)\n\nО проекте:\nЭто высоконагруженное backend приложение для рассылки web push-уведомлений, обслуживающее на данный момент более 100млн показов в сутки. \nЧем у нас предстоит заниматься:\nПрофилировать и оптимизировать существующие сервисы;\nПроводить доработки и интеграцию их в действующий код и инфраструктуру;\nРеализовывать новые бизнес-требования внутри сервиса;\nУстранять возникающие баги в сервисе.\n\nЧто мы ждем от кандидата:\nНавыки работы с Git;\nУверенное знание Golang;\nПонимание технологий HTTP, REST;\nОпыт работы в Unix-окружении.\n\nБудет совсем круто, если вы:\nРаботали с highload-проектами;\nПонимаете и уважаете концепцию CI/CD.\nНаш стек технологий: Golang, Gitlab, MySQL, JS, RabbitMQ, Docker, Ansible, Clickhouse\n\nУсловия: \nЗаработная плата от 130 000 до 300 000 руб. на руки, естественно зависит от уровня, преимущественно смотрим \"мидов\", но и \"джуны\" нам тоже интересны.\n\nНаш сайт: `https://www.lofty.today/\n#вакансия#golang","markup":[{"type":"link","offset":1122,"length":24,"data":"https://www.lofty.today/"}],"date":"2020-06-24T17:53:47+00:00","link":"tg://resolve?domain=gogetajobfeed&post=338","tags":[{"name":"go"},{"name":"web"},{"name":"git"},{"name":"rest"},{"name":"unix"},{"name":"gitlab"},{"name":"mysql"},{"name":"rabbitmq"},{"name":"docker"},{"name":"ansible"}],"cities":[{"code":"moscow"}],"allowsRemote":false}}]}}},"context":{}}