{"hash":"f5f6bf98bd95e769321482904cbbd488f77922fd","data":{"records":{"id":"javascript","name":"javascript","belongsTo":{"totalCount":272,"pageInfo":{"totalPages":28,"currentPage":19},"edges":[{"node":{"__typename":"Job","id":"17025728512-1001110946746","title":"Javascript разработчик","text":"#вакансия #Москва #React #Redux #TypeScript\nFrontend-разработчик\nЛокация: Москва, Москва-Сити\nФормат работы: офис, после ИС возможна удаленка\nЗанятость: полная\nЗП: от 150 000 до 200 000 рублей на руки\n\nЗадача: Работа над ERP-системой, развитие и поддержка. \n\nТребования:\n•опыт коммерческой разработки от 3 лет\n•уверенное знание React, Redux, хуки, опыт оптимизации производительности\n•покрытие кода тестами\n•хорошее знание HTML и CSS\n•опыт работы с TypeScript больше года\n•знание git и webpack\n\nУсловия:\n•Уютный офис в Москва-Сити\n•Медицинская страховка, включая стоматологию\n•Дотация на питание\n•Оплата изучения иностранного языка\n• Макбук для работы (или любая другая конфигурация по желанию)\n•Оплата профильных конференций и семинаров\n\nНазвание компании: GetIT\nПроект: компания - часть международного инвестиционного фонда.\nРазработка внутренней корпоративной ERP-системы, включающей логистику, документооборот, финансовый учет.\n\nРезюме можно направить сюда:  @Rita_RS\nemail: m.sinelnikova@getit.agency\n\n—\n\n👉 Обсуждение вакансии в чате @javascript_jobs","markup":[{"type":"hashtag","offset":0,"length":9,"data":"вакансия"},{"type":"hashtag","offset":10,"length":7,"data":"Москва"},{"type":"hashtag","offset":18,"length":6,"data":"React"},{"type":"hashtag","offset":25,"length":6,"data":"Redux"},{"type":"hashtag","offset":32,"length":11,"data":"TypeScript"},{"type":"handle","offset":963,"length":8,"data":"Rita_RS"},{"type":"link","offset":979,"length":26,"data":"mailto:m.sinelnikova@getit.agency"},{"type":"handle","offset":1040,"length":16,"data":"javascript_jobs"}],"date":"2020-06-17T15:36:09+00:00","link":"tg://resolve?domain=javascript_jobs_feed&post=0","tags":[{"name":"javascript"},{"name":"reactjs"},{"name":"redux"},{"name":"typescript"},{"name":"html"},{"name":"css"},{"name":"git"},{"name":"webpack"},{"name":"react-redux"}],"cities":[{"code":"moscow"}],"allowsRemote":true}},{"node":{"__typename":"Job","id":"17022582784-1001110946746","title":"Js разработчик","text":"#вакансия #React #Питер #fulltime #frontend #middle  \n                                       \nГород: Санкт-Петербург\nФормат: в офисе\nЗанятость: полная\nЗарплатная вилка: 100-150К на руки\n\nОписание:\n\nМы — профессиональная площадка, которая освещает киберспортивные соревнования по Overwatch, Dota 2, CS:GO, League of Legends (LoL), Fortnite, FIFA и др. Ищем Front-end developer в наш перспективный проект киберспортивной индустрии!\n\nУсловия: \n\n- Оформление по ТК РФ;\n- \"белая\" зарплата 100 - 150к на руки\n- Режим работы 5/2;\n- Офис в историческом центре Петербурга, в 10 минутах от метро Чкаловская;\n- Печеньки, фрукты, чай и кофе;\n\nФункционал:\n\n- Проектирование, разработка и поддержка front-end части приложения с использованием фреймворка React/Redux\n- Разработка компонентов React/Redux\n- Интеграция с back-end, взаимодействие с командой back-end разработчиков\n- Кросс-браузерная оптимизация, рефакторинг полученных решений, оптимизация скорости загрузки страниц и интерактивных элементов\n\nНаш стэк:\n\n- React/Redux 16.8+ (hooks, context)\n- TypeScript\n- redux-observable, RxJs\n- GraphQL, WebSocket\n- Styled component\n\nПожелания к опыту:\n\nУверенное владение\n- React.js продвинутое знание, JS, CSS, Typescript\n- Опыт командной работы\n- Приветствуется опыт/понимание бэкенда\n    \nКомпания: ToBeHired                                    \nКонтакт: @Alex_Korm\n\n—\n\n👉 Обсуждение вакансии в чате @javascript_jobs","markup":[{"type":"hashtag","offset":0,"length":9,"data":"вакансия"},{"type":"hashtag","offset":10,"length":6,"data":"React"},{"type":"hashtag","offset":17,"length":6,"data":"Питер"},{"type":"hashtag","offset":24,"length":9,"data":"fulltime"},{"type":"hashtag","offset":34,"length":9,"data":"frontend"},{"type":"hashtag","offset":44,"length":7,"data":"middle"},{"type":"handle","offset":1343,"length":10,"data":"Alex_Korm"},{"type":"handle","offset":1388,"length":16,"data":"javascript_jobs"}],"date":"2020-06-17T15:31:04+00:00","link":"tg://resolve?domain=javascript_jobs_feed&post=0","tags":[{"name":"javascript"},{"name":"reactjs"},{"name":"redux"},{"name":"typescript"},{"name":"rxjs"},{"name":"graphql"},{"name":"websocket"},{"name":"css"},{"name":"react-redux"}],"cities":[],"allowsRemote":false}},{"node":{"__typename":"Job","id":"17021534208-1001110946746","title":"Js разработчик","text":"#вакансия  #React #Новосибирск #fulltime #frontend #middle #senior    \n                                       \nГород: Новосибирск\nФормат: в офисе\nЗанятость: полная\nЗарплатная вилка: 100-140К на руки\nОписание:\nТехнологичный IT проект\nУсловия: \n- Продуктовая разработка;\n- Оформление согласно ТК РФ, белая зп;\n- ЗП вилка 100-140К на руки;\n- График 5/2;\n- Офис в Новосибирске.\n\nФункционал:\n- Разработка нового функционала проекта;\n- Участие в принятии архитектурных решений;\n- Ревью кода.\n\nПожелания к опыту:\nУверенное владение\n- React.js (приоритетно, но можно и vue.js), JS, CSS, ES6+\n- Опыт командной работы\n- Приветствуется опыт/понимание бэкенда.           \nКомпания: КА HRIT                                      \nКонтакт: @recruIIT\n\n—\n\n👉 Обсуждение вакансии в чате @javascript_jobs","markup":[{"type":"hashtag","offset":0,"length":9,"data":"вакансия"},{"type":"hashtag","offset":11,"length":6,"data":"React"},{"type":"hashtag","offset":18,"length":12,"data":"Новосибирск"},{"type":"hashtag","offset":31,"length":9,"data":"fulltime"},{"type":"hashtag","offset":41,"length":9,"data":"frontend"},{"type":"hashtag","offset":51,"length":7,"data":"middle"},{"type":"hashtag","offset":59,"length":7,"data":"senior"},{"type":"handle","offset":725,"length":9,"data":"recruIIT"},{"type":"handle","offset":769,"length":16,"data":"javascript_jobs"}],"date":"2020-06-17T15:29:40+00:00","link":"tg://resolve?domain=javascript_jobs_feed&post=0","tags":[{"name":"javascript"},{"name":"reactjs"},{"name":"vuejs"},{"name":"css"}],"cities":[{"code":"novosibirsk"}],"allowsRemote":false}},{"node":{"__typename":"Job","id":"17020485632-1001110946746","title":"Js developer","text":"#вакансия  #js  #node #спб                                                                                 Вакансия: BACKEND JS DEVELOPER (NODE.JS) \n\nФормат: офис\nЛокация: санкт-петербург, метро: комендантский проспект\nЗанятость: Полная, офис. (Удаленная работа на время карантина)\nОпыт: от 2 лет\nЗарплата: от 180000 до 300000 тыс. руб на руки\nКомпания: Aline digital agency \n\nУ нас комфортный офис, гибкий график работы, отличный коллектив, классные корпоративы:) Команда занимается написанием софта для крупной международной букмекерской конторы, онлайн-кинотеатра, партнерской программы и других крупных проектов. Наши офисы расположены в Киеве и Спб.\n\nТребования:\n\n🔸 Опыт коммерческой разработки на JavaScript/Java от 2 лет;\n🔸 Опыт работы с базами данных (MySQL / Redis / Clickhouse);\n🔸 Опыт работы с брокерами сообщений и микросервисной архитектурой\n🔸 Опыт работы с Node.js ( koa / Socket.io);\n🔸 Читаемый, комментируемый и поддерживаемый код;\n🔸 Внимательное отношение к своему и чужому коду:)\n\nОбязанности:\n\nНеобходимо будет заниматься поддержкой и развитием новой составляющей нашего сервиса на Nodejs, поэтому опыт обязателен (koa/socket.io).\n\nУсловия:\n\n🔸 Работа в современном офисе недалеко от метро;\n🔸 Оборудованное отличной техникой рабочее место;\n🔸 График 5/2 с сокращенным рабочим днем;\n🔸 Конкурентный уровень ЗП, который будет установлен по результатам собеседования;\n🔸 Перспектива карьерного роста;\n🔸 Оплачиваем ваш переезд, если вы находитесь не в Санкт-Петербурге.\n\nСтек:\n\n🔸 node.js 8+\n🔸 async/await\n🔸 mysql(native driver only/no builders/orm's)\n🔸 redis/rabbit\n🔸 socket.io\n🔸 optional:\n🔸 ramda \n\nПо всем вопросам: @DashaChernenkova\n\n—\n\n👉 Обсуждение вакансии в чате @javascript_jobs","markup":[{"type":"hashtag","offset":0,"length":9,"data":"вакансия"},{"type":"hashtag","offset":11,"length":3,"data":"js"},{"type":"hashtag","offset":16,"length":5,"data":"node"},{"type":"hashtag","offset":22,"length":4,"data":"спб"},{"type":"link","offset":891,"length":9,"data":"http://Socket.io"},{"type":"link","offset":1144,"length":9,"data":"http://socket.io"},{"type":"link","offset":1596,"length":9,"data":"http://socket.io"},{"type":"handle","offset":1648,"length":17,"data":"DashaChernenkova"},{"type":"handle","offset":1700,"length":16,"data":"javascript_jobs"}],"date":"2020-06-17T15:28:54+00:00","link":"tg://resolve?domain=javascript_jobs_feed&post=0","tags":[{"name":"javascript"},{"name":"nodejs"},{"name":"java"},{"name":"mysql"},{"name":"redis"},{"name":"orm"},{"name":"rabbitmq"}],"cities":[],"allowsRemote":false}},{"node":{"__typename":"Job","id":"17019437056-1001110946746","title":"Javascript разработчик","text":"#вакансия #Иннополис #Казань #React #Javascript #офис #remote \nЛокация: Казань/ Иннополис\n(Есть хороший релокационный пакет)\nФормат работы: офис / удаленная работа\nЗанятость: полная, гибкое начало дня\nЗП: от 80 000 до 130 000 NET \n\n*к сожалению, у компании нет формальной возможности трудоустраивать иностранных граждан \n\n🔹 Ак Барс Цифровые Технологии — это лаборатория «АК БАРС» Банка, которая создает digital-продукты и инновационные решения в сфере fintech, чтобы сделать мир финансов простым и доступным каждому.\nРебята и правда инноваторы в своей сфере, которые горят своими делом и стремятся сделать жизнь людей проще и комфортнее. Команда нуждается в специалисте, который бы присоединился к работе над созданием ряда сложных интересных цифровых продуктов, которыми будут пользоваться.\nВакансия открыта в связи с глобальным расширением.\n\n🔹 Требуемый опыт:\n-Javascript (ES5, ES6+) - коммерческий опыт разработки от 2-ух лет;\n-React/Redux - коммерческий опыт разработки от 1-ого года;\n\n🔹Что интересного:\n- Рабочее пространство - один из самых привлекательных и “гибких” офисов в Казани;\n- Полное соблюдение норм ТК РФ;\n- Льготные условия кредитования;\n- Программа релокации для иногородних;\n- Конкурентоспособная белая заработная плата;\n-Профессиональное развитие и обучение (внутренние и внешние конференции, семинары);\n- Футбол, настольный теннис, скидки на занятия в фитнес-центре.\n\n🔹 Контакты:\ne-mail: daria@luckyhunter.io\ntelegram: @prudentdaria\nКА: luckyhunter\nПишите, буду рада ответить на все возможные вопросы здесь или по почте 😊\n\n—\n\n👉 Обсуждение вакансии в чате @javascript_jobs","markup":[{"type":"hashtag","offset":0,"length":9,"data":"вакансия"},{"type":"hashtag","offset":10,"length":10,"data":"Иннополис"},{"type":"hashtag","offset":21,"length":7,"data":"Казань"},{"type":"hashtag","offset":29,"length":6,"data":"React"},{"type":"hashtag","offset":36,"length":11,"data":"Javascript"},{"type":"hashtag","offset":48,"length":5,"data":"офис"},{"type":"hashtag","offset":54,"length":7,"data":"remote"},{"type":"link","offset":1414,"length":20,"data":"mailto:daria@luckyhunter.io"},{"type":"handle","offset":1445,"length":13,"data":"prudentdaria"},{"type":"handle","offset":1583,"length":16,"data":"javascript_jobs"}],"date":"2020-06-17T15:28:29+00:00","link":"tg://resolve?domain=javascript_jobs_feed&post=0","tags":[{"name":"javascript"},{"name":"reactjs"},{"name":"dotnet"},{"name":"redux"},{"name":"react-redux"}],"cities":[{"code":"kazan"}],"allowsRemote":true}},{"node":{"__typename":"Job","id":"17017339904-1001110946746","title":"Javascript разработчик","text":"#вакансия #екб #екатеринбург #react #frontend #middle\n\nПозиция: Разработчик React \nКомпания: SoftMediaLab \nЛокация: Екатеринбург \nФормат работы: #удаленка или  #офис\nЗанятость: #фултайм \nЗП 110 000 - 140 000 рублей на руки\n\nSoftMediaLab – была основана в 2015 году в городе Екатеринбурге. Основатели компании – разработчики, поэтому никакой бюрократии и странных решений, процессы максимально простые и понятные, среда дружественная. \nРазрабатываем в основном стартапы для России, Европы и Америки. \n\nЗадачи: \n- улучшать имеющийся функционал и разрабатывать новый \n- участвовать в принятии архитектурных решений \n\nСтек: react, redux, typescript, bootstrap, material-ui, JQuery, sass, less\n\nДля связи @Ekaterina_Mitroshkina  или @iamanastasie\n\n—\n\n👉 Обсуждение вакансии в чате @javascript_jobs","markup":[{"type":"hashtag","offset":0,"length":9,"data":"вакансия"},{"type":"hashtag","offset":10,"length":4,"data":"екб"},{"type":"hashtag","offset":15,"length":13,"data":"екатеринбург"},{"type":"hashtag","offset":29,"length":6,"data":"react"},{"type":"hashtag","offset":36,"length":9,"data":"frontend"},{"type":"hashtag","offset":46,"length":7,"data":"middle"},{"type":"hashtag","offset":145,"length":9,"data":"удаленка"},{"type":"hashtag","offset":160,"length":5,"data":"офис"},{"type":"hashtag","offset":177,"length":8,"data":"фултайм"},{"type":"handle","offset":700,"length":22,"data":"Ekaterina_Mitroshkina"},{"type":"handle","offset":728,"length":13,"data":"iamanastasie"},{"type":"handle","offset":776,"length":16,"data":"javascript_jobs"}],"date":"2020-06-17T15:26:32+00:00","link":"tg://resolve?domain=javascript_jobs_feed&post=0","tags":[{"name":"javascript"},{"name":"reactjs"},{"name":"redux"},{"name":"typescript"},{"name":"bootstrap"},{"name":"jquery"},{"name":"sass"},{"name":"react-redux"}],"cities":[],"allowsRemote":true}},{"node":{"__typename":"Job","id":"17015242752-1001110946746","title":"Javascript разработчик","text":"#frontend #Javascript #middle #Vue #вакансия #москва #офис #remote #удаленно\n🆕 Frontend developer (Vue)  🆕\nГород и адрес офиса: Москва, метро Дмитривская, БЦ Савеловский Сити \nФормат работы: офис или удаленка ✈\nЗанятость: полная \nЗарплатная вилка: от 110 000 до 150 000 RUB net \nОписание вакансии: \n▫ Нужны толковые руки и голова фронтендера для работы в проекте EPICSTARS - крупнейшей в России и СНГ платформы для работы с блогерами и лидерами мнений.\n\n▪ Задачи: \n-- Позиция ведущего frontend разработчика на проекте: разрабатывать административную панель на vue,  клиентскую часть системы с поиском, фильтрами.\n-- Разрабатывать отдельную систему для b2b сегмента с нуля.\n-- Скоро возможен запуск нового проекта.\n\n▫ Все стильно, модно, молодежно, атмосфера Silicon Valley – included. \n▫ Компания – бизнес-инкубатор и бизнес-акселератор от Адмитада, под ее крышей собрано N стартапов, есть собственная и аутсорс-разработка, сейчас ищем в конкретный проект. \nEPICSTARS – платформа прямой рекламы в социальных сетях. Мы используем уникальный технологический комплекс собственной разработки и благодаря высокому качеству алгоритмов и технологий помогаем нашим клиентам и партнерам добиться впечатляющих результатов. \nНазвание компании: Admitad (Admitad/Projects)  \nКонтакты: @Si8eria or a.podolskaya@admitad.pro\nЗа успешную рекомендацию - бутылочка просекко🍸\n\n—\n\n👉 Обсуждение вакансии в чате @javascript_jobs","markup":[{"type":"hashtag","offset":0,"length":9,"data":"frontend"},{"type":"hashtag","offset":10,"length":11,"data":"Javascript"},{"type":"hashtag","offset":22,"length":7,"data":"middle"},{"type":"hashtag","offset":30,"length":4,"data":"Vue"},{"type":"hashtag","offset":35,"length":9,"data":"вакансия"},{"type":"hashtag","offset":45,"length":7,"data":"москва"},{"type":"hashtag","offset":53,"length":5,"data":"офис"},{"type":"hashtag","offset":59,"length":7,"data":"remote"},{"type":"hashtag","offset":67,"length":9,"data":"удаленно"},{"type":"handle","offset":1274,"length":8,"data":"Si8eria"},{"type":"link","offset":1286,"length":24,"data":"mailto:a.podolskaya@admitad.pro"},{"type":"handle","offset":1393,"length":16,"data":"javascript_jobs"}],"date":"2020-06-17T15:24:32+00:00","link":"tg://resolve?domain=javascript_jobs_feed&post=0","tags":[{"name":"javascript"},{"name":"vuejs"},{"name":"dotnet"}],"cities":[{"code":"moscow"}],"allowsRemote":true}},{"node":{"__typename":"Job","id":"17014194176-1001110946746","title":"Js разработчик","text":"#вакансия #москва #frontend #Javascript #middle #react #vanilla \n🚀 Frontend developer (middle/middle+) \nГород и адрес офиса: Москва, метро Дмитривская, БЦ Савеловский Сити \nФормат работы: офис, пока что удаленка \nЗанятость: полная \nЗарплатная вилка: от 120 000 до 180 000 RUB net \nОписание вакансии: \n▫Компания Admitad Projects ищет фронтенд-разработчика, который способен писать код с красивой модульной архитектурой под два наших продукта. \n▪ Задачи: \n\n-- доработка сайта и внутреннего редактора материалов (проект Hype.Tech) \n-- создание нового личного кабинета на react (проект Push.World) \n▪ Стек: S6+, React, node.js (опционально) \n▫ Все стильно, модно, молодежно, атмосфера Silicon Valley – included. \n▫ Компания – бизнес-инкубатор и бизнес-акселератор от Адмитада, под ее крышей собрано N стартапов, есть собственная и аутсорс-разработка, сейчас ищем в конкретный проект. \nНазвание компании: Admitad (Admitad/Projects)  \nКонтакты: @Si8eria or a.podolskaya@admitad.pro\nЗа успешную рекомендацию - бутылочка просекко🍸\n\n—\n\n👉 Обсуждение вакансии в чате @javascript_jobs","markup":[{"type":"hashtag","offset":0,"length":9,"data":"вакансия"},{"type":"hashtag","offset":10,"length":7,"data":"москва"},{"type":"hashtag","offset":18,"length":9,"data":"frontend"},{"type":"hashtag","offset":28,"length":11,"data":"Javascript"},{"type":"hashtag","offset":40,"length":7,"data":"middle"},{"type":"hashtag","offset":48,"length":6,"data":"react"},{"type":"hashtag","offset":55,"length":8,"data":"vanilla"},{"type":"handle","offset":940,"length":8,"data":"Si8eria"},{"type":"link","offset":952,"length":24,"data":"mailto:a.podolskaya@admitad.pro"},{"type":"handle","offset":1059,"length":16,"data":"javascript_jobs"}],"date":"2020-06-17T15:23:50+00:00","link":"tg://resolve?domain=javascript_jobs_feed&post=0","tags":[{"name":"javascript"},{"name":"reactjs"},{"name":"dotnet"},{"name":"nodejs"}],"cities":[{"code":"moscow"}],"allowsRemote":true}},{"node":{"__typename":"Job","id":"17013145600-1001110946746","title":"Js разработчик","text":"#вакансия\nГород и адрес офиса: Москва \nФормат работы: удаленка\nЗанятость: полная\nЗарплатная вилка:  от 80 000 до 150 000руб net\nОписание вакансии: Требования - миддл, опыт от 3х лет\nCSS3, HTML5, JavaScript\nVue.js второй версии\nwebpack\nопыт в работе с REST или GraphQL\nумение верстать или писать JS код с учетом возможностей IE11\nуверенное использование Git\nНазвание компании: в платформу WikiVote\nКонтакты: @irensergeeva\n\n—\n\n👉 Обсуждение вакансии в чате @javascript_jobs","markup":[{"type":"hashtag","offset":0,"length":9,"data":"вакансия"},{"type":"handle","offset":407,"length":13,"data":"irensergeeva"},{"type":"handle","offset":455,"length":16,"data":"javascript_jobs"}],"date":"2020-06-17T15:23:09+00:00","link":"tg://resolve?domain=javascript_jobs_feed&post=0","tags":[{"name":"javascript"},{"name":"dotnet"},{"name":"css"},{"name":"html"},{"name":"vuejs"},{"name":"webpack"},{"name":"rest"},{"name":"graphql"},{"name":"git"}],"cities":[{"code":"moscow"}],"allowsRemote":true}},{"node":{"__typename":"Job","id":"17011048448-1001110946746","title":"Js developer","text":"#вакансия #fulltime #frontend #js #react \nReact developer\nГород: Москва\nФормат работы: удаленная работа \nЗанятость: полная\nДиапазон: от 250 до 700 руб./ч\n\nОписание вакансии: Проект связан с сферой обучения. Задачи будут связаны с версткой, написание логики, подключение api.\nСтек технологий: \n- React.js ;\n- Mobx;\n- HTML5, CSS3, SCSS.\n\nКомпания: Secreate\nКонтакты: telegram @karysha\n\n—\n\n👉 Обсуждение вакансии в чате @javascript_jobs","markup":[{"type":"hashtag","offset":0,"length":9,"data":"вакансия"},{"type":"hashtag","offset":10,"length":9,"data":"fulltime"},{"type":"hashtag","offset":20,"length":9,"data":"frontend"},{"type":"hashtag","offset":30,"length":3,"data":"js"},{"type":"hashtag","offset":34,"length":6,"data":"react"},{"type":"handle","offset":374,"length":8,"data":"karysha"},{"type":"handle","offset":417,"length":16,"data":"javascript_jobs"}],"date":"2020-06-17T15:21:34+00:00","link":"tg://resolve?domain=javascript_jobs_feed&post=0","tags":[{"name":"javascript"},{"name":"reactjs"},{"name":"html"},{"name":"css"}],"cities":[{"code":"moscow"}],"allowsRemote":true}}]}}},"context":{}}