{"hash":"f5f6bf98bd95e769321482904cbbd488f77922fd","data":{"records":{"id":"qa","name":"qa","belongsTo":{"totalCount":208,"pageInfo":{"totalPages":21,"currentPage":9},"edges":[{"node":{"__typename":"Job","id":"103756595200-1001089317451","title":"Qa engineer","text":"#вакансия #удаленно #частичная #QA #Automation #Java #нетология\n\n❗️«Нетология» ищет QA Automation Engineer на Java уровня middle и выше для преподавания на курсах.\nРабота частичная/удаленная❗️\n\nВ чем можно участвовать: \n📌Проводить лекции и открытые занятия для студентов, быть для них тренером, помогать делать дипломный проект\n📌Участвовать в создании новых образовательных программ, быть автором курса\n\nЧто мы предлагаем: \n🔹Удаленную работу, которую можно совмещать с основной (объем, занятость обсуждаются индивидуально)\n🔹Личный PR как эксперта\n🔹Возможность прокачивать спикерские навыки и быть частью сообщества экспертов одной из лучших IT-компаний\n🔹З/п в зависимости от объема занятости ( до 100 тыс. руб.)\n\nУспешные специалисты, которые работают у нас, рассказывают о том, как это повлияло на их жизнь и карьеру ➡️//habr.com/ru/company/netologyru/blog/423023/\n\nУзнать подробнее о вакансии и отправить резюме: a.ogarkowa@netology.ru или сюда @mileyet","markup":[{"type":"hashtag","offset":0,"length":9,"data":"вакансия"},{"type":"hashtag","offset":10,"length":9,"data":"удаленно"},{"type":"hashtag","offset":20,"length":10,"data":"частичная"},{"type":"hashtag","offset":31,"length":3,"data":"QA"},{"type":"hashtag","offset":35,"length":11,"data":"Automation"},{"type":"hashtag","offset":47,"length":5,"data":"Java"},{"type":"hashtag","offset":53,"length":10,"data":"нетология"},{"type":"link","offset":828,"length":43,"data":"http://habr.com/ru/company/netologyru/blog/423023/"},{"type":"link","offset":921,"length":22,"data":"mailto:a.ogarkowa@netology.ru"},{"type":"handle","offset":953,"length":8,"data":"mileyet"}],"date":"2020-06-25T22:28:51+00:00","link":"tg://resolve?domain=qa_jobs&post=98950","tags":[{"name":"qa"},{"name":"java"}],"cities":[],"allowsRemote":true}},{"node":{"__typename":"Job","id":"103750303744-1001089317451","title":"Qa инженер","text":"#вакансия #QA  #fulltime  #офис #Москва\nИщу ВЕДУЩЕГО ТЕСТИРОВЩИКА  в HOLODILNIK.RU, это  один из ведущих игроков на рынке электронной торговли. Компания приглашает в свою команду профессионала, кто своими знаниями в тестировании программного обеспечения поможет в проектах развития информационных систем интернет-магазина, CRM, интеграции партнерами.\n\n✅Обязанности:\n\n· Построение и поддержка процессов тестирования (ручного и автоматизированного UI тестирования).\n\n· Осуществление процесса тестирования: декомпозиция и оценка задач QA, распределение задач, ревью результатов работы.\n\n· Непосредственное участие в процессе функционального и регрессионного тестирования web-приложений; анализа и тестирования требований.\n\n· Составление тестовой документации (тест-планы, тест-кейсы, чек- листы) и поддержка уже существующей в актуальном состоянии.\n\n· Планирование тестовых сценариев для автоматизации.\n\n✅Требования:\n\n· Опыт работы в качестве QA инженера веб-приложений (от 3-х лет)\n\n· Опыт построения и поддержания процесса обеспечения качества\n\n· Опыт автоматизации тестирования (желательно - Selenium WebDriver);\n\n· Опыт работы с инструментами CI (Jenkins)\n\n· Знание методологий и инструментов тестирования\n\n· Навыки тест-дизайна (тест-кейсы, чек-листы), опыт создания комплексных тест-кейсов;\n\n· Опыт участия в сессиях исследовательского тестирования\n\n· Знание REST, опыт тестирования API (Postman, SoapUI);\n\n· Знание SQL, опыт написания SQL-скриптов и запросов\n\n· Понимание процессов разработки ПО\n\n· Знания XML, CSS, Html;\n\n· Опыт работы с баг-трекинговыми системами (желательно - Jira).\n\n\n✅Условия:\nЗП от 140 000 до 170 000 на руки\n\n· Место работы: Москва, м.Краснопресненская\n\n· При необходимости удаленная работа.\n\n· График работы: 5/2 с 9:00 до 18:00.\n\nКонтакты 🖊\ne-mail: anna-recruitment@mail.ru\nTelegram: @anna_recruitment","markup":[{"type":"hashtag","offset":0,"length":9,"data":"вакансия"},{"type":"hashtag","offset":10,"length":3,"data":"QA"},{"type":"hashtag","offset":15,"length":9,"data":"fulltime"},{"type":"hashtag","offset":26,"length":5,"data":"офис"},{"type":"hashtag","offset":32,"length":7,"data":"Москва"},{"type":"link","offset":69,"length":13,"data":"http://HOLODILNIK.RU"},{"type":"link","offset":1780,"length":24,"data":"mailto:anna-recruitment@mail.ru"},{"type":"handle","offset":1815,"length":17,"data":"anna_recruitment"}],"date":"2020-06-25T19:09:18+00:00","link":"tg://resolve?domain=qa_jobs&post=98944","tags":[{"name":"qa"},{"name":"web"},{"name":"selenium"},{"name":"jenkins"},{"name":"rest"},{"name":"sql"},{"name":"xml"},{"name":"css"},{"name":"html"}],"cities":[{"code":"moscow"}],"allowsRemote":true}},{"node":{"__typename":"Job","id":"103737720832-1001089317451","title":"Qa инженер","text":"#hr #qa #automation #работа #вакансия #тестировщик #job #Москва #СПБ #удалёнка #офис \n\nQA Automation (С# / С# + НТ / Ruby)в крупный банк без бюрократии.\n\n🌏 Москва / Санкт-Петербург / Удалённо\n💻опыт от года и до синьора (каждому есть работа по силам) \n💰до 240к \n\n💡4 интересных Прoекта на разных стадиях жизни:\nВсе они направлены на : \n- Улучшение бизнес процессов;\n- Защиту интересов и финансов банка в крупных сделках;\n- Развитие отдельного модуля пообъектного учета залогов для контроля залогов по кредитным сделкам крупного корпоративного бизнеса.\n\n💡 Требования стандартные, Вы все их хорошо знаете. \n- Опыт тестирования API, UI;\n- Работа с .NET / Selenium / LoadRunner / Cucumber - зависит от стека\n- Понимание отличия REST от SOAP;\n- Опыт работы с CICD;\n- С GIT итак все работают \n- SQL на хорошем уровне.\n\n💡Важное:\n- Удалённый формат занятости или офис (по желанию);\n- Гибкий график работы; \n- Отличный офис в стиле супергероев с множеством пуфиков, релакс-зоной, пингпонгом, а пар можно выпустить на груше и турнике; \n- ДМС;\n- Скидки на фитнес, английский;\n- Помощь в релокации, если любишь работу в офисе и хочешь переехать;\n- Оформление на компанию интегратора Selecty IT\n\n📲 @JuliaVenz 🙂","markup":[{"type":"hashtag","offset":0,"length":3,"data":"hr"},{"type":"hashtag","offset":4,"length":3,"data":"qa"},{"type":"hashtag","offset":8,"length":11,"data":"automation"},{"type":"hashtag","offset":20,"length":7,"data":"работа"},{"type":"hashtag","offset":28,"length":9,"data":"вакансия"},{"type":"hashtag","offset":38,"length":12,"data":"тестировщик"},{"type":"hashtag","offset":51,"length":4,"data":"job"},{"type":"hashtag","offset":56,"length":7,"data":"Москва"},{"type":"hashtag","offset":64,"length":4,"data":"СПБ"},{"type":"hashtag","offset":69,"length":9,"data":"удалёнка"},{"type":"hashtag","offset":79,"length":5,"data":"офис"},{"type":"bold","offset":87,"length":15,"data":""},{"type":"bold","offset":280,"length":6,"data":""},{"type":"handle","offset":1190,"length":10,"data":"JuliaVenz"}],"date":"2020-06-25T17:02:44+00:00","link":"tg://resolve?domain=qa_jobs&post=98932","tags":[{"name":"qa"},{"name":"ruby"},{"name":"dotnet"},{"name":"selenium"},{"name":"cucumber"},{"name":"rest"},{"name":"soap"},{"name":"git"},{"name":"sql"}],"cities":[{"code":"moscow"}],"allowsRemote":true}},{"node":{"__typename":"Job","id":"103733526528-1001089317451","title":"Qa инженер","text":"#вакансия #qa #москва #удаленная работа\n\nКомпания VMB - Мы создаём веб/мобильные приложения и сложные информационные системы: продумываем концепцию, проектируем, разрабатываем, тестируем, поддерживаем и развиваем.                                               \n\nМы ищем тестировщика веб и мобильных приложений на платформах Android и IOS. \n\nЗадачи:\n- ручное тестирование веб/мобильных приложений\n- функциональное, интеграционное, регрессивное, нагрузочное тестирование\n- регистрация обнаруженных дефектов в багтрекинг-системе, отслеживание исправления дефектов и их повторное тестирование.\n\nЧто ждём от вас?\n- опыт тестирования мобильных приложений от года\n- умение писать понятные и работающие тест-кейсы\n- опыт работы с багтрекинговыми системами\n- умение поддерживать конструктивный диалог с другими членами команды.\n\nМы предлагаем:\n- возможность работать удаленно \n- ЗП вилка 60к - 100к рублей на руки\n- участие в интересных и известных проектах\n- возможность карьерного роста и профессионального развития\n- гибкое начало рабочего дня\n\nКонтакты\n@nariarakel","markup":[{"type":"hashtag","offset":0,"length":9,"data":"вакансия"},{"type":"hashtag","offset":10,"length":3,"data":"qa"},{"type":"hashtag","offset":14,"length":7,"data":"москва"},{"type":"hashtag","offset":22,"length":10,"data":"удаленная"},{"type":"handle","offset":1048,"length":11,"data":"nariarakel"}],"date":"2020-06-25T15:33:49+00:00","link":"tg://resolve?domain=qa_jobs&post=98928","tags":[{"name":"qa"},{"name":"android"},{"name":"ios"}],"cities":[{"code":"moscow"}],"allowsRemote":true}},{"node":{"__typename":"Job","id":"103721992192-1001089317451","title":"Qa инженер","text":"#офис #Москва #вакансия #QA #fulltime  #тестировщик #Middle #ручное тестирование\n\nКомпания ООО Rondem (IT-интегратор) специализируется на построении систем управления IT, разработке и тестированию ПО. Нашими клиентами являются крупные банки и системные интеграторы, для которых мы ведем десятки проектов.\n\n❗Мы ищем инженера по функциональному тестированию (Middle) для крупного Московского банка \n\n      Требования:\n• Ручное тестирование · CSS · HTML · XML · Restful api · SQL;\n• Опыт работы тестировщиком;  \n• Опыт написания тест кейсов по технической документации;  \n• Знание жизненного цикла программного обеспечения и теории тестирования;  \n• Знание и опыт работы с системами баг трекинга Atlassian JIRA, HP ALM и пр.;\n• Знание программ SOAP UI, MS SQL, POSTMAN, GitLab как +;  \n• SQL (простые запросы);  \n• Начальные знания Java.\n\nОбязанности:\n• Выполнение различных видов тестирования (функциональное, регрессионное, интеграционное);\n• Обнаружение, регистрация и отслеживание дефектов в bug-tracking системе;\n• Разработка тест-кейсов, чек-листов, тест-дизайнов;\n• Отчетность по результату тестирования;\n• Взаимодействие с разработчиками, аналитиками.\n\n▪️Условия:\nУДАЛЕННЫЙ ГРАФИК НЕ РАССМАТРИВАЕТСЯ!\n• Работа в офисе м.Бауманская г. Москва\n• ДМС\n• График работы по согласованию с Заказчиком и командой\n• Работа в дружном коллективе единомышленников\n• Оформление по ТК РФ\n• Зп: до 140 к (обсуждается по результатам собеседования)\n\n\n▪️Резюме 📩 kudrina@rondem.ru или в лс.","markup":[{"type":"hashtag","offset":0,"length":5,"data":"офис"},{"type":"hashtag","offset":6,"length":7,"data":"Москва"},{"type":"hashtag","offset":14,"length":9,"data":"вакансия"},{"type":"hashtag","offset":24,"length":3,"data":"QA"},{"type":"hashtag","offset":28,"length":9,"data":"fulltime"},{"type":"hashtag","offset":39,"length":12,"data":"тестировщик"},{"type":"hashtag","offset":52,"length":7,"data":"Middle"},{"type":"hashtag","offset":60,"length":7,"data":"ручное"},{"type":"link","offset":1449,"length":17,"data":"mailto:kudrina@rondem.ru"}],"date":"2020-06-25T13:52:39+00:00","link":"tg://resolve?domain=qa_jobs&post=98917","tags":[{"name":"qa"},{"name":"css"},{"name":"html"},{"name":"xml"},{"name":"sql"},{"name":"soap"},{"name":"gitlab"},{"name":"java"}],"cities":[{"code":"moscow"}],"allowsRemote":false}},{"node":{"__typename":"Job","id":"103720943616-1001089317451","title":"Qa инженер","text":"Тестировщик в платформу WikiVote\n\nТребования, необходимый опыт:\n* Опыт функционального тестирования от полугода на реальных проектах\n\n* Наличие сертификатов о пройденном обучении в тестировании\n\n\nЗадача на первый месяц сотрудничества:\n1. Провести ручное тестирование пула сценариев по существующим тест-кейсам. Мы обновили версию Ruby платформы, и нужно все прогнать, не отвалилось ли чего.\n\n\nЗадачи дальше:\n1. Ручное функциональное тестирование сценариев платформы при запуске новых проектов\n\n2. Ручное функциональное тестирование новых внедренных фич\n\n3. Разработка карточек тест-кейсов\n\n4. Кроссбраузерное тестирование верстки\n\n5. Разработка автотестов для платформы (после того, как поймете, что из ручного тестирования можно автоматизировать, приветствуем инициативу и выделим часть рабочего времени чисто под это)\n\n6. Ручное тестирование на будущем проекте по разработке Windows-приложения (в основном проверка интеграции приложения с MS Office). Если сможете автоматизировать - велком. \n\nРабота полностью удаленная, всегда была такой до весны 2020 и такой останется после. В связи с этим про ресурсы:\n\n* Мы предоставляем виртуальные машины для тестирования Windows приложений \n\n* После полугода сотрудничества возможна покупка необходимого оборудования за счет компании.\n\n\nГрафик работы:\n* Стандартный 8 часовой рабочий день, удаленно\n\n* Две обязательные планерки: 10 утра мск в понедельник и пятницу; остальные дни по желанию\n\n* Максимальное отклонение от московского времени +/- 2 часа (команда и клиенты в основном находятся в этом часовом поясе, и с бОльшим отрывом очень сложно).\n\n\nЧто предлагаем:\n* Испытательный срок 3 месяца\n\n* Белое оформление \n* от 50 000\n* только граждане РФ\n\n#удаленка #вакансия","markup":[{"type":"hashtag","offset":1695,"length":9,"data":"удаленка"},{"type":"hashtag","offset":1705,"length":9,"data":"вакансия"}],"date":"2020-06-25T13:50:42+00:00","link":"tg://resolve?domain=qa_jobs&post=98916","tags":[{"name":"qa"},{"name":"ruby"},{"name":"windows"}],"cities":[],"allowsRemote":true}},{"node":{"__typename":"Job","id":"103716749312-1001089317451","title":"Qa engineer","text":"#вакансия #QA #manual #fulltime #remote #офис\n\nФормат работы: офис или удаленно\nРасположение: Санкт-Петербург \nЗанятость: полная, гибкое начало дня\nЗП: до 200k gross\n\n🔹 Компания OCS Labs более 25 лет на рынке IT и является ведущим дистрибьютером по всем продуктовым направлениям IT рынка. \nРегиональная сеть офисов OCS включает 27 городов в России, компания работает с более чем 8500 партнеров, среди которых 500 продуктовых линеек от ведущих мировых вендеров. \n\n🔸Сейчас команда находится в поиске Senior Manual QA Engineer, который будет готов в дальнейшем вырасти в teamlead’a, и в перспективе возглавить направление тестирования в R&D отделе.\nНа текущий момент в команде уже есть 1 ручной тестировщик и 1 автотестировщик (python).\nПредстоит заниматься тестированием сервиса взаимодествия вендоров; \n\n🔹  Требования:\n— Опыт тестирования Web от 2 лет;\n— Умение оценивать и распределять задачи в команде;\n— Опыт менторства/руководства командой;\n— Опыт тестирования API;\n\nБольшим плюсом будет:\n— Понимание b2b сервисов;\n— Навыки автотестирования, будет возможность расти и развиваться в этом направлении; \n\n🔹  Условия:\n— Официальное трудоустройство, белая заработная плата;\n— Комфортный офис на Б.Сампсониевском (Петербург), также для московских специалистов есть возможность работать в московском офисе: Румянцево, офисный парк «Комсити» или удаленно; \n— Техника предоставляется в соответствии с пожеланиями специалиста;\n— Внутреннее обучение;\n— Годовая дотация;\n— Дружественная рабочая среда с возможностью карьерного и профессионального роста;\n\n🔹 Контакты:\ne-mail: maria@luckyhunter.io\ntelegram: @Maria_Rey","markup":[{"type":"hashtag","offset":0,"length":9,"data":"вакансия"},{"type":"hashtag","offset":10,"length":3,"data":"QA"},{"type":"hashtag","offset":14,"length":7,"data":"manual"},{"type":"hashtag","offset":22,"length":9,"data":"fulltime"},{"type":"hashtag","offset":32,"length":7,"data":"remote"},{"type":"hashtag","offset":40,"length":5,"data":"офис"},{"type":"bold","offset":500,"length":6,"data":""},{"type":"bold","offset":507,"length":18,"data":""},{"type":"bold","offset":570,"length":10,"data":""},{"type":"link","offset":1571,"length":20,"data":"mailto:maria@luckyhunter.io"},{"type":"handle","offset":1602,"length":10,"data":"Maria_Rey"}],"date":"2020-06-25T12:44:52+00:00","link":"tg://resolve?domain=qa_jobs&post=0","tags":[{"name":"qa"},{"name":"python"},{"name":"web"}],"cities":[],"allowsRemote":true}},{"node":{"__typename":"Job","id":"103704166400-1001089317451","title":"Qa engineer","text":"#вакансия #москва #офис #qaengineer #qa \nГород и адрес офиса: Москва, м.Автозаводская \nФормат работы: офис \nЗанятость: полная \nЗарплатная вилка: от 60 000 на руки \n\n✅QA Engineer (gamedev)\n\nОписание вакансии: \n\nКрупный мобильный проект в жанре фентези - Dragon Champions - ищет своего QA! Вы сможете работать над интересной игрой на стыке мидкорных и хардкорных механик, в окружении команды больших профессионалов с многолетним опытом.\n\n✅Что делать:\n\n•  Тестирование мобильной игры: функциональное тестирование, юзабилити тестирование, регрессионное тестирование\n•  Составление документации для тестирования: тест-кейсы, тест-план, чек-листы\n•  Тесное обсуждение функциональности игры с командой разработки\n•  Заведение всех найденных багов в трекере (Jira)\n\n✅Требования:\n\n•  Опыт работы в тестировании от одного года\n•  Понимание основ тестирования ПО, тест-планов, чек-листов, регрессионного и функционального тестирования\n•  Огромным плюсом будет наличие опыта в тестировании игр, в особенности, мобильных игр на Unity\n•  Умение работать с Jira, Confluence и Unity также будет большим плюсом\n\n✅Для вас:\n\n•  Конкурентная заработная плата, выплачивается 2 раза в месяц\n•  Необходимое оборудование для работы\n•  Коллектив творческих и позитивных людей\n\n✅О нас:\n\n•  Просторный офис 600 метров на м. Автозаводская (3 минуты от метро и от ТТК на машине) с ультра современным дизайном и кучей ништяков (кухня с вкусняшками, кальяны каждый вечер в дружной кампании, PS4 Pro + 4K TV, аркадные автоматы с Pac-Man, Metal Slug и другими хитами геймдизайна, просторная зона отдыха, 6 переговорных комнат и т д)\n•  Команда из 120 человек занимающаяся паблишингом и маркетингом, которая готова сделать продукт успешным после его готовности\n•  Возможность бесплатно обучаться английскому языку с носителями каждый будний день\n\nНазвание компании: AppQuantum\n\nКонтакты: \ne-mail: bm@adquantum.com\ntelegram: @MishaBarinov","markup":[{"type":"hashtag","offset":0,"length":9,"data":"вакансия"},{"type":"hashtag","offset":10,"length":7,"data":"москва"},{"type":"hashtag","offset":18,"length":5,"data":"офис"},{"type":"hashtag","offset":24,"length":11,"data":"qaengineer"},{"type":"hashtag","offset":36,"length":3,"data":"qa"},{"type":"bold","offset":166,"length":21,"data":""},{"type":"bold","offset":437,"length":11,"data":""},{"type":"bold","offset":759,"length":11,"data":""},{"type":"bold","offset":1096,"length":8,"data":""},{"type":"bold","offset":1253,"length":6,"data":""},{"type":"link","offset":1863,"length":16,"data":"mailto:bm@adquantum.com"},{"type":"handle","offset":1890,"length":13,"data":"MishaBarinov"}],"date":"2020-06-25T10:53:44+00:00","link":"tg://resolve?domain=qa_jobs&post=98900","tags":[{"name":"qa"},{"name":"unity3d"}],"cities":[{"code":"moscow"}],"allowsRemote":false}},{"node":{"__typename":"Job","id":"103702069248-1001089317451","title":"Qa инженер","text":"#вакансия #fulltime #QA  #mobile #automation #СПБ \nВсем привет! \nИщем QA mobile.\nЛокация: Санкт-Петербург\nФормат работы: офис (пока карантин - работа удаленно)\nГрафик: 5/2 с гибким началом рабочего дня. \nЗанятость: полная\n💶 Зарплатная вилка: от 160К до 200К на руки (суммы в рублях/месяц). Если ожидания выше - пишите, обсудим. \n\n🧰Мы: 4xxi.com (разработка разных сложных  технологических проектов (веб, мобильные истории IOS/Android, чаще всего стартапов). 90% проектов приходится на зарубежный рынок (США, Англия).\n\n🏠3 офиса: Лондон, Санкт-Петербург, Саранск. \nВся разработка в России. \n\n🍩 Плюшки: \n✔️оформление по ТК РФ (мы белые полностью);\n✔️уроки английского языка;\n✔️ДМС;\n✔️спортивные мероприятия;\n✔️обучение и развитие;\n✔️офис в центре города в стиле лофт, м.Горьковская;\n✔️кухня, забитая вкусняшками;\n\nНаши ожидания: \n✔️опыт автоматизации клиент-серверных приложений (Web и/или Mobile - преимущественно) более 2 лет\n✔️знание англ на уровне чтения тех. документации и выше (все доки на англ)\n✔️Flutter driver, Dart или желание быстро изучить и применять\n\nБольшим плюсом будет опыт работы с:\n✔️Приложения с микро-сервисной архитектурой\n\n\nПишите и присылайте свои резюме:  vyangurskaya@4xxi.com, @vyangurskaya","markup":[{"type":"hashtag","offset":0,"length":9,"data":"вакансия"},{"type":"hashtag","offset":10,"length":9,"data":"fulltime"},{"type":"hashtag","offset":20,"length":3,"data":"QA"},{"type":"hashtag","offset":25,"length":7,"data":"mobile"},{"type":"hashtag","offset":33,"length":11,"data":"automation"},{"type":"hashtag","offset":45,"length":4,"data":"СПБ"},{"type":"link","offset":337,"length":8,"data":"http://4xxi.com"},{"type":"link","offset":1182,"length":21,"data":"mailto:vyangurskaya@4xxi.com"},{"type":"handle","offset":1205,"length":13,"data":"vyangurskaya"}],"date":"2020-06-25T10:49:23+00:00","link":"tg://resolve?domain=qa_jobs&post=98898","tags":[{"name":"qa"},{"name":"mobile"},{"name":"ios"},{"name":"android"},{"name":"web"},{"name":"flutter"},{"name":"dart"}],"cities":[{"code":"london"},{"code":"saransk"}],"allowsRemote":true}},{"node":{"__typename":"Job","id":"103698923520-1001089317451","title":"Qa инженер","text":"#вакансия #fulltime #офис #москва\n#manual\n\nНаша компания (ООО Солид Дев) находится в поиске ручного тестировщика (но с желанием развиваться в автоматизации) - уровень от middle, который будет помогать нам совершенствовать наши продукты и сервисы! \n\nЕсли ты:\n- Тестишь web-приложения уже не один год \n- Имеешь базовые знания SQL и опыт написания автотестов на python\n- Хочешь работать в команде профессионалов и развиваться\n\nТо пиши мне в личку или присылай резюме на почту - soliddevhr@gmail.com расскажу подробнее про функционал и про наши плюшки)\n\nСтанция м.Бабушкинская\nВилка: от 120 на руки","markup":[{"type":"hashtag","offset":0,"length":9,"data":"вакансия"},{"type":"hashtag","offset":10,"length":9,"data":"fulltime"},{"type":"hashtag","offset":20,"length":5,"data":"офис"},{"type":"hashtag","offset":26,"length":7,"data":"москва"},{"type":"hashtag","offset":34,"length":7,"data":"manual"},{"type":"bold","offset":249,"length":8,"data":""},{"type":"bold","offset":424,"length":19,"data":""},{"type":"link","offset":475,"length":20,"data":"mailto:soliddevhr@gmail.com"},{"type":"bold","offset":550,"length":7,"data":""},{"type":"bold","offset":573,"length":5,"data":""}],"date":"2020-06-25T09:51:45+00:00","link":"tg://resolve?domain=qa_jobs&post=98895","tags":[{"name":"qa"},{"name":"web"},{"name":"sql"},{"name":"python"}],"cities":[{"code":"moscow"}],"allowsRemote":false}}]}}},"context":{}}