{"hash":"f34fd2c444a074f4e0e67d525015a008ef8e766f","data":{"records":{"id":"java","name":"java","belongsTo":{"totalCount":123,"pageInfo":{"totalPages":13,"currentPage":7},"edges":[{"node":{"__typename":"Job","id":"1965031424-1001134745498","title":"Devops инженер","text":"#вакансия \nГород: Amsterdam\nФормат работы: удаленка / remote\nЗанятость: проектная\nЗарплатная вилка: от 15 до 25 USD в час\n\nОписание вакансии: \nПредоставить инструкцию и/или скрипты по разворачиванию Kubernetes с Istio поверх, на котором необходимо :\n- задеплоить docker с Spring Java REST приложением (имеющим доступ извне кластера, для того чтобы внешнии клиенты могли к нему подключаться)\n- задеплоить docker с MongoDB (не имеющим доступ извне  кластера, но иметь доступ с других инстанций кластера, в частности с Spring Java REST приложения\n- подключить Keycloak к Istio для авторизации через JWT token в Spring Java REST приложении\n- подключить TLS в Istio и допускать только SSL трафик в кластер\nУсловия:\n* уже имеется конфигурация Keycloak с помощью которой есть Spring Java REST приложение осуществляет регистрацию  пользователей и получение JWT token, необходимо использовать эту конфигурацию для доступа к Spring Java REST приложению\n* не все методы в Spring Java REST приложении необходимо обезопасить JWT токеном\n\nНазвание компании: Take it Personally BV\nКонтакт: @takeitpersonally\nEmail: konstantin@mytip.app\n\n—\n\n👉 Обсуждение вакансии в чате @devops_jobs","markup":[{"type":"hashtag","offset":0,"length":9,"data":"вакансия"},{"type":"handle","offset":1075,"length":17,"data":"takeitpersonally"},{"type":"link","offset":1100,"length":20,"data":"mailto:konstantin@mytip.app"},{"type":"handle","offset":1155,"length":12,"data":"devops_jobs"}],"date":"2020-04-03T15:05:06+00:00","link":"tg://resolve?domain=devops_jobs_feed&post=1874","tags":[{"name":"kubernetes"},{"name":"docker"},{"name":"spring"},{"name":"java"},{"name":"rest"},{"name":"mongodb"},{"name":"jwt"},{"name":"ssl"}],"cities":[{"code":"amsterdam"}],"allowsRemote":true}},{"node":{"__typename":"Job","id":"1416626176-1001091028994","title":"Java разработчик","text":"#офис #Москва #Java #RedCode\n\nСобеседования и работа в период карантина осуществляются дистанционно\n\nВакансия: Java разработчик\nЛокация: Москва, офис, м. Павелецкая \nЗарплатная вилка: 250 - 400 т.р. (обсуждается)\nТребуемый опыт: 3-6 лет \n\nВ крупную и стабильную компанию, уважающую трудовое законодательство и умеющую ценить своих сотрудников, требуется квалифицированный и опытный Java разработчик\n\n🔹Требования к кандидатам: \n- Высокий уровень знаний Java и опыт объектно-ориентированного программирования.\n- Знание современных библиотек, фреймворков (Spring, Hibernate...) и шаблонов проектирования.\n- Опыт работы с инфраструктурой микросервисов (Docker)\n- Необходимо понимать процесс разработки, уметь его организовывать и оптимизировать\n- Знать принципы ООП, подходы в программировании и требования к транзакционным системам (SOLID, DRY, WET, ACID)\n- Иметь обширный опыт работы с различными фреймворками, опыт работы с большими проектами\n- Понимать как работает git, уметь работать с linix-подобными консолями\n- Уметь аргументировать и договариваться \n\n🔹Также приветствуются:\n- Опыт разработки высокопроизводительных и высоконадёжных приложений.\n- Практика с Golang \n\n🔹О приятном: \n- белая зарплата.; \n- Соцпакет + ДМС (после испытательного срока).\n- стабильная компания\n- Шаговая доступность ст.м. \"Павелецкая\".\n- Coffee-Room в офисе + много где поесть в любое время дня. \n\nРезюме и вопросы: @Tatiana_Litvak","markup":[{"type":"hashtag","offset":0,"length":5,"data":"офис"},{"type":"hashtag","offset":6,"length":7,"data":"Москва"},{"type":"hashtag","offset":14,"length":5,"data":"Java"},{"type":"hashtag","offset":20,"length":8,"data":"RedCode"},{"type":"handle","offset":1400,"length":15,"data":"Tatiana_Litvak"}],"date":"2020-04-03T13:54:58+00:00","link":"tg://resolve?domain=jvmjobs&post=1351","tags":[{"name":"java"},{"name":"jvm"},{"name":"spring"},{"name":"hibernate"},{"name":"docker"},{"name":"git"},{"name":"go"}],"cities":[{"code":"moscow"}],"allowsRemote":false}},{"node":{"__typename":"Job","id":"1963982848-1001134745498","title":"Devops инженер","text":"Сидим дома и держимся бодрячком!\nПятничная #вакансия для DevOps инженера в команду Cloud-based решений в компанию Аурига.\n#remote #fulltime\nЗарплатная вилка: 180 000 - 250 000\n\n😊 На проекте тебя ждут задачи:\nНаписание скриптов на bash/sh\nКонтейнеризация приложений\nРазвертывание и настройка ELK стека для анализа логов приложений\nCI/CD на базе Bamboo\nИнтеграция BlackDuck в Bamboo\nТакже предстоит заниматься автоматизированным анализом кода на Java и Node.JS, анализом и настройкой параметров безопасности при деплое. И все это в условиях глобального IT ландшафта, когда ты не можешь просто взять и остановить систему, в ней работают люди, всегда работают.\n\n👍 Можем работать удаленно, и после карантина тоже. Если удобнее из офиса, то у Ауриги центры разработки в 6 городах, велком.\n\n🤓 Заказчик – производитель профессионального промышленного оборудования для строительства с офисами во всех 24-х часовых поясах.\n\n💥 Одно из ключевых требований - английский, регулярно устно общаемся с заказчиком. Отличный шанс прокачать язык и начать говорить как на втором родном.\n\n⭐️ Аурига разрабатывает ПО на заказ уже почти 30 лет, у компании много проектов - у вас гарантия занятости и возможность выбора. Мы знаем и следуем ТК РФ, зарплата вовремя и радует, ДМС с прямым доступом и стоматологией компенсируем, чай-плюшки гарантируем.\n\nНам нужен инженер сейчас, оформляем по ТК РФ удаленно, обмениваемся документами с помощью курьера.\n\nС радостью поделюсь деталями и отвечу на вопросы.\n@Maria_Auriga\n\n—\n\n👉 Обсуждение вакансии в чате @devops_jobs","markup":[{"type":"hashtag","offset":43,"length":9,"data":"вакансия"},{"type":"hashtag","offset":122,"length":7,"data":"remote"},{"type":"hashtag","offset":130,"length":9,"data":"fulltime"},{"type":"handle","offset":1480,"length":13,"data":"Maria_Auriga"},{"type":"handle","offset":1528,"length":12,"data":"devops_jobs"}],"date":"2020-04-03T12:39:37+00:00","link":"tg://resolve?domain=devops_jobs_feed&post=1873","tags":[{"name":"cloud"},{"name":"bash"},{"name":"java"},{"name":"nodejs"}],"cities":[],"allowsRemote":true}},{"node":{"__typename":"Job","id":"1962934272-1001134745498","title":"Devops инженер","text":"#вакансия #DevOps #Москва #ivi\n\nЛокация: Москва, ст. м. Дмитровская\nФормат работы: офис (на время карантина - удаленка) \nЗанятость: полная\nЗарплатная вилка: от 180 000 до 250 000 руб. на руки.\n\nМы — команда эксплуатации сервиса ivi .\n\nРазыскиваем коллегу в команду для участия в настойке процессов, технических (CI/CD) и в части взаимодействия с коллегами. Активное участие в разворачивании и эксплуатации k8s .Помогаем командам разработки строить CI/CD-пайплайны . Некоторые из нас это делают в составе кросс-команд, другие помогают многим командам, оставшиеся обеспечивают всех нас необходимыми приложениями и инфраструктурой.\n\nУчим команды использовать контейнеры (docker) для подготовки разрабатываемых приложений, осваиваем использование k8s для оркестрации. Используем Ubuntu, Linux.\n\nХраним код и разрабатываем pipeline-ы с помощью gitlab+artifactory .\nДля мониторинга серверов и сервисов используем zabbix и statsd , заправляем grafana.\nНаши сервисы написаны на python, golang и немного php и java.\nЛюбим и активно используем jenkins для решения самых разнообразных задач.\nИспользуем много open source (и не только) приложений: nginx, redis, postgresql, mongodb, rabbitmq, clickhouse, openstack, gitlab, kafka, hdfs, jira , opennebula.\n\nЧто предстоит делать: \n- развитие и настройки процессов ci/cd;\n- планирование и участие в рефакторинге процессов, инфраструктуры, приложений;\n- сопровождение сервисов от разработки до эксплуатации, участие в эксплуатации;\n- доработка текущих и разработка новых сценариев конфигурирования серверов и приложений; \n- администрирование приложений по результатам выполненной работы подготовка документации, если необходимо. \n\nКак узнать что ты нам подходишь? \n- положительный и продолжительный опыт работы с CI/CD-системами (у нас gitlab и jenkins);\n- умение хорошо готовить docker; \n- опыт программирования на скриптовых языках (shell, python);\nопыт администрирования linux и приложение 5+;\n- понимание сетевых технологий TCP/IP; \n- опыт работы с системами управления версиями (git) и конфигурациями. \n\nСо своей стороны мы обещаем: \n- Офис в 5 минутах ходьбы от м. \"Дмитровская\";\n- У нас гибкий график, мы начинаем до 11 часов дня;\n- Трудоустройство по ТК РФ;\n- ДМС + стоматология после прохождения испытательного срока;\n- Подписка на ivi;\n- Пакет релокации для соискателей со всей России.\n\nОнлайн-кинотеатр ivi \nhttps://www.ivi.tv/\n\nБуду рада рассказать подробности, пишите в личку @daria144 или на почту dsereda@ivi.ru\n\n—\n\n👉 Обсуждение вакансии в чате @devops_jobs","markup":[{"type":"hashtag","offset":0,"length":9,"data":"вакансия"},{"type":"hashtag","offset":10,"length":7,"data":"DevOps"},{"type":"hashtag","offset":18,"length":7,"data":"Москва"},{"type":"hashtag","offset":26,"length":4,"data":"ivi"},{"type":"link","offset":2354,"length":19,"data":"https://www.ivi.tv/"},{"type":"handle","offset":2424,"length":9,"data":"daria144"},{"type":"link","offset":2447,"length":14,"data":"mailto:dsereda@ivi.ru"},{"type":"handle","offset":2496,"length":12,"data":"devops_jobs"}],"date":"2020-04-03T12:38:12+00:00","link":"tg://resolve?domain=devops_jobs_feed&post=1872","tags":[{"name":"docker"},{"name":"ubuntu"},{"name":"linux"},{"name":"gitlab"},{"name":"python"},{"name":"go"},{"name":"php"},{"name":"java"},{"name":"jenkins"},{"name":"nginx"},{"name":"redis"},{"name":"postgresql"},{"name":"mongodb"},{"name":"rabbitmq"},{"name":"kafka"},{"name":"hdfs"},{"name":"shell"},{"name":"git"}],"cities":[{"code":"moscow"}],"allowsRemote":true}},{"node":{"__typename":"Job","id":"1415577600-1001091028994","title":"Java developer","text":"#java #москва #spring\n\nПРОТЕК — крупнейший российский фармацевтический холдинг, занимающий лидирующие позиции во всех сегментах фармотрасли – производстве, дистрибуции, рознице. В компанию ищут Java Developer реализовывать различные проекты, связанные, к примеру, с поставкой лекарств, онлайн сервисом по их заказу и организацией учебной среды для фармацевтов. \n\nНужно будет разрабатывать серверные решения J2EE для интеграции различных систем в единое информационное пространство, причём вы можете менять проекты и получать новый опыт. Для тех, кому важна социальная мотивация: здесь вы будете помогать системе здравоохранения справляться с резко возросшими нагрузками.\n\nВ ваши обязанности будет входить реализация серверных решений уровня представления данных (SOAP-сервер, REST-API) и пользовательского интерфейса (Ext GWT), а также архитектура и оптимизация. \n\nОт вас ждут:\n - Знание Java 7+ \n - Опыт разработки асинхронных процессов\n - Spring, Hibernate\n - Опыт работы с системами контроля версий, Maven\n - Знакомство с CI/CD\n\n - Плюсом будет опыт работы с командной строкой Linux и с базами данных Oracle.\n\nВам предоставят ДМС, спортзал, профессиональное обучение и приятный коллектив, в котором прислушиваются к вашим идеям и можно влиять на процесс.\n\nОфис (после карантина) в Москве на Медведково; график обычно с 9 до 18, но гибкость обсуждаема, зарплата 120-200к на руки.\n\nПишите за подробностями @sonya_ofthejungle","markup":[{"type":"hashtag","offset":0,"length":5,"data":"java"},{"type":"hashtag","offset":6,"length":7,"data":"москва"},{"type":"hashtag","offset":14,"length":7,"data":"spring"},{"type":"handle","offset":1407,"length":18,"data":"sonya_ofthejungle"}],"date":"2020-04-02T15:08:23+00:00","link":"tg://resolve?domain=jvmjobs&post=1350","tags":[{"name":"java"},{"name":"jvm"},{"name":"spring"},{"name":"soap"},{"name":"rest"},{"name":"gwt"},{"name":"hibernate"},{"name":"maven"},{"name":"linux"},{"name":"oracle"}],"cities":[{"code":"moscow"}],"allowsRemote":false}},{"node":{"__typename":"Job","id":"1414529024-1001091028994","title":"Java разработчик","text":"#senior #java #architect #москва \nГород: Москва\nФормат работы: офис\nЗанятость: Полная\nЗарплатная вилка: от 220 000 до 260 000\nКомпания «Performance Lab» — одна из лидирующих ИТ-компаний в России ищет в свою команду Архитектора Java на направление custom development. Нам нужен эксперт, которому интересно заниматься проектированием и разработкой, быть ответственным за результаты работы.\n❗️Обязанности:\n-Проводить анализ функциональных и нефункциональных требований заказчика совместно с группой аналитики.\n-Разрабатывать концепции, архитектурные решения и подходы к реализации.\n-Взаимодействовать с заказчиком, представлять и защищать свои архитектурные решения.\n-Быть лидером в проектной команде (планировать работу команды, проводить декомпозицию задач, отслеживать прогресс по выполнению задач, поддерживать рабочую атмосферу в команде).\n-Полностью отвечать за техническую составляющую и качество проекта.\n-Обеспечивать прозрачность и прогнозируемость работы проектной команды, отвечать за своевременный выпуск релизов.\n-Самому участвовать в разработке back-end’а, проводить code-review.\n-Принимать участие в согласовании и разработке технической документации.\n❗️Требования:\n-Обладает большим опытом backend-разработки на Java, уверенно владеет Java 8 и выше.\n-Отлично знает Spring (Core, Boot, MVC, JPA, Security) и Hibernate.\n-Отлично знает SQL и хотя бы одну реляционную СУБД.\n-Разбирается в технологиях: REST, gRPC, GraphQL, SOAP, XML, JSON, JWT, OAuth.\n-Имеет опыт разработки на микросервисной архитектуре, понимает ее плюсы и минусы, понимает как организовать взаимодействия микросервисов.\n-Работал с Apache Kafka, Rabbit MQ.\n-Уверенно владеет Git.\n-Уже управлял командой разработки от 3-х человек.\n-Может быть лидером в команде, вести за собой людей.\n❗️Будет плюсом:\n-Немного умеет в devops (построить CI/CD пайплайн, оптимизировать сборку docker-контейнеров, настроить nginx и тд).\n-Знает JavaScript и знаком с современными Frontend-фреймворками (если знаком с React, то совсем хорошо).\n-Умеет налаживать отношения с бизнес-заказчиками, умеет договариваться и искать компромиссы.\n❗️Условия:\n-Официальное трудоустройство по ТК, дополнительные выходные.\n-Белая зарплата.\n-Место работы: отличный офис на м. Парк победы, БЦ «Барклай плаза».\n 📩Контакты: @polinakokina","markup":[{"type":"hashtag","offset":0,"length":7,"data":"senior"},{"type":"hashtag","offset":8,"length":5,"data":"java"},{"type":"hashtag","offset":14,"length":10,"data":"architect"},{"type":"hashtag","offset":25,"length":7,"data":"москва"},{"type":"handle","offset":2262,"length":13,"data":"polinakokina"}],"date":"2020-04-02T14:38:38+00:00","link":"tg://resolve?domain=jvmjobs&post=1349","tags":[{"name":"java"},{"name":"jvm"},{"name":"spring"},{"name":"jpa"},{"name":"hibernate"},{"name":"sql"},{"name":"rest"},{"name":"graphql"},{"name":"soap"},{"name":"xml"},{"name":"json"},{"name":"jwt"},{"name":"oauth"},{"name":"apache"},{"name":"kafka"},{"name":"rabbitmq"},{"name":"git"},{"name":"docker"},{"name":"nginx"},{"name":"javascript"},{"name":"reactjs"}],"cities":[{"code":"moscow"}],"allowsRemote":false}},{"node":{"__typename":"Job","id":"1413480448-1001091028994","title":"Java разработчик","text":"#java #backend #middle #senior #питер #удаленка\nВакансия: Java-разработчик (middle/senior)\nКомпания: https://loyaltyplant.com\nг. Санкт-Петербург\nЗ/П: Middle 130-160k, Senior 180-240k\nФормат работы: офис/удаленка\nЗанятость: полная \nСпециализация компании: мобильное маркетинговое решение с программой лояльности и доставкой для ресторанов, чтобы гости получали лучший сервис, а бизнес – большие выручки и возможность выжить в каратнин. Работаем не только в России, но и в США, Европе и Азии. Нашими решениями пользуются Subway Russia, Black Star Burgers, Greenbox, Papa Johns UAE, и еще 500 брендов в 20 странах, и более 10 миллионов конечных пользователей. Мы ищем не просто сотрудников, но настоящих партнеров, которые готовы предлагать прорывные решения и разделять с нами ценности открытости, честности и личной инициативы.\n\nТебе предстоит:\n • Заниматься рефакторингом legacy-блоков, распиливанием монолита на микросервисы;\n • Развивать функционал системы;\n • Готовить систему к повышению нагрузки;\n • Осуществлять техподдержку третьего уровня;\n • Проводить code review;\n • Делиться опытом с другими разработчиками.\n • Для Senior также – определять и воплощать архитектурные и технические решения.\n\nЧто нам важно?\n • Опыт backend-разработки на Java от 3 лет (Senior – от 5);\n • Хорошее знание Java Core;\n • Опыт работы с микросервисами;\n • Знания и опыт: Spring, БД (MySQL, PostgreSQL, Redis), Kafka, ELK;\n • Как +: Linux, Docker, Cassandra;\n • Самостоятельность;\n • Умение видеть и исправлять плохой код.\n\nМы предлагаем:\n • Интересные задачи и возможности для развития;\n • Возможность реально влиять на решения;\n • Гибкий график;\n • Дружественную атмосферу стартапа, офис-не-open-space, заказ еды, массаж, кикер, английский и тд.\n\nКонтакты: @orehmthfcka","markup":[{"type":"hashtag","offset":0,"length":5,"data":"java"},{"type":"hashtag","offset":6,"length":8,"data":"backend"},{"type":"hashtag","offset":15,"length":7,"data":"middle"},{"type":"hashtag","offset":23,"length":7,"data":"senior"},{"type":"hashtag","offset":31,"length":6,"data":"питер"},{"type":"hashtag","offset":38,"length":9,"data":"удаленка"},{"type":"link","offset":101,"length":24,"data":"https://loyaltyplant.com"},{"type":"handle","offset":1745,"length":12,"data":"orehmthfcka"}],"date":"2020-04-02T13:36:43+00:00","link":"tg://resolve?domain=jvmjobs&post=1348","tags":[{"name":"java"},{"name":"jvm"},{"name":"spring"},{"name":"mysql"},{"name":"postgresql"},{"name":"redis"},{"name":"kafka"},{"name":"linux"},{"name":"docker"},{"name":"cassandra"}],"cities":[],"allowsRemote":true}},{"node":{"__typename":"Job","id":"1412431872-1001091028994","title":"Java разработчик","text":"#java #middle #fulltime #удалённо #job #вакансия #remote #фуллтайм #fulltime #удаленно #удаленка #удаленно #spring\n #москва \n✔️ Вакансия: Java developer\nЗП: до 190k net\nФормат работы: полная/удаленно\nКомпания: МТС\n\nКрупная российская телекоммуникационная компания приглашает присоединиться Middle Java разработчика к проекту разработки IoT решений.\n\n ✔️ Задачи:\n• Разработка бэкенда проекта;\n• Code-review;\n• Участие в принятии архитектурных и технических решений;\n• Интеграция решений с мобильными приложениями.\n\n✔️ Предлагаем: \n• Официальное трудоустройство;\n• Повышение квалификации;\n•  Удаленная работа из дома.\n\n✔️ Пожелания к Вашему опыту:\n• Опыт работы от 3-х лет;\n• Высшее образование;\n• Работа с БД: PostgreSQL и NoSQL;\n• Опыт работы с Spring, Kafka.\nКонтактное лицо: @OlgaVzh","markup":[{"type":"hashtag","offset":0,"length":5,"data":"java"},{"type":"hashtag","offset":6,"length":7,"data":"middle"},{"type":"hashtag","offset":14,"length":9,"data":"fulltime"},{"type":"hashtag","offset":24,"length":9,"data":"удалённо"},{"type":"hashtag","offset":34,"length":4,"data":"job"},{"type":"hashtag","offset":39,"length":9,"data":"вакансия"},{"type":"hashtag","offset":49,"length":7,"data":"remote"},{"type":"hashtag","offset":57,"length":9,"data":"фуллтайм"},{"type":"hashtag","offset":67,"length":9,"data":"fulltime"},{"type":"hashtag","offset":77,"length":9,"data":"удаленно"},{"type":"hashtag","offset":87,"length":9,"data":"удаленка"},{"type":"hashtag","offset":97,"length":9,"data":"удаленно"},{"type":"hashtag","offset":107,"length":7,"data":"spring"},{"type":"hashtag","offset":116,"length":7,"data":"москва"},{"type":"bold","offset":169,"length":31,"data":""},{"type":"bold","offset":290,"length":24,"data":""},{"type":"bold","offset":354,"length":8,"data":""},{"type":"bold","offset":517,"length":13,"data":""},{"type":"bold","offset":620,"length":26,"data":""},{"type":"handle","offset":777,"length":8,"data":"OlgaVzh"}],"date":"2020-04-02T13:19:28+00:00","link":"tg://resolve?domain=jvmjobs&post=1347","tags":[{"name":"java"},{"name":"jvm"},{"name":"spring"},{"name":"dotnet"},{"name":"postgresql"},{"name":"nosql"},{"name":"kafka"}],"cities":[{"code":"moscow"}],"allowsRemote":true}},{"node":{"__typename":"Job","id":"1411383296-1001091028994","title":"Java разработчик","text":"Вакансия: #java #developer #senior #seniorjavadeveloper #офис\nКомпания: Fisgroup\nЛокация: #новосибирск #новосиб\nЗанятость: гибкий график\nЗ/п: 150 - 200К net\nКонтакты: @observer69\n\nCase Platform.\nОсновные продукты - кредитный фронт, управление рисками, системы по работе с просроченной задолженностью, системы принятия решений по кредитам, CRM-системы.\n\nЧем интересна наша вакансия:\n- достойный уровень заработной платы, обсудим ваши пожелания;\n- рост заработной платы вместе с ростом квалификации;\n- офис в Академпарке;\n- корпоративный транспорт\n- профессиональное развитие;\n- гибкий график;\n- доброжелательный коллектив;\n- веселые корпоративы в кругу коллег;\n\nВам предстоит:\n- анализ и уточнение требований к реализуемым задачам.\n- участие в разработке технических решений.\n- разработка и тестирование java-кода системы.\n- участие в документировании разработанной функциональности\n- анализ нетривиальных проблем возникающих у пользователей системы.\n- взаимодействие с другими участниками команды( java- и веб- разработчиками, тестировщиками) для обеспечения согласованности и качества разработки.\n- учет собственного рабочего времени.\n\nТребования: \n- понимание основ computer science (алгоритмы и структуры данных, вычислительная сложность, производительность, надежность...).\n- знание и умение применять шаблоны проектирования.\n- понимание принципов объектно-ориентированного программирования и дизайна.\n- понимание проблем параллельного программирования и способов их решения.\n- понимание основ криптографии и обеспечения безопасности данных.\n- умение диагностировать и решать проблемы производительности.\n- системное мышление.\n- знание платформы Java EE 6 и выше, опыт программирования на языке Java.\n- опыт работы с XML, JSON, ORM (JPA, Hibernate).\n- знание SQL (Oracle, PostgreSQL или любой другой диалект).\n- опыт командной работы.\n- опыт работы с системами контроля версий и автоматизации процесса разработки.\n\nБудет плюсом:\n-участие в разработке архитектуры систем;\n- профильное образование;\n- опыт участия в разработке сложных разнородных систем;\n- знание теории формальных языков и принципов построения трансляторов;\n- использование программных продуктов и инструментов для построения распределенных систем (кластеризация, микросервисы)\nПрофильное образование;\nОпыт участия в разработке сложных разнородных систем;\nЗнание теории формальных языков и принципов построения трансляторов;\nИспользование программных продуктов и инструментов для построения распределенных систем (кластеризация, микросервисы)","markup":[{"type":"hashtag","offset":10,"length":5,"data":"java"},{"type":"hashtag","offset":16,"length":10,"data":"developer"},{"type":"hashtag","offset":27,"length":7,"data":"senior"},{"type":"hashtag","offset":35,"length":20,"data":"seniorjavadeveloper"},{"type":"hashtag","offset":56,"length":5,"data":"офис"},{"type":"hashtag","offset":90,"length":12,"data":"новосибирск"},{"type":"hashtag","offset":103,"length":8,"data":"новосиб"},{"type":"handle","offset":167,"length":11,"data":"observer69"}],"date":"2020-04-02T12:26:58+00:00","link":"tg://resolve?domain=jvmjobs&post=1346","tags":[{"name":"java"},{"name":"jvm"},{"name":"dotnet"},{"name":"xml"},{"name":"json"},{"name":"orm"},{"name":"jpa"},{"name":"hibernate"},{"name":"sql"},{"name":"oracle"},{"name":"postgresql"}],"cities":[{"code":"novosibirsk"}],"allowsRemote":false}},{"node":{"__typename":"Job","id":"1410334720-1001091028994","title":"Java разработчик","text":"#работа #Москва #вакансия #Java\n\nСейчас ищу Senior Java-разработчика и Team Lead в компанию, которая является платиновым партнером SAP. Активно развиваются новые перспективные проекты, а именно направления SAP Hybris - платформа для e-commerce проектов.\n\nУсловия:\n\n- работа в команде профессионалов над амбициозными проектами с инновационными технологиями\n\n- внутреннее и внешнее обучение за счёт компании\n\n- Офис в одной минуте от м. Нагатинская\n\n- полное соблюдение ТК РФ\n\n- белая заработная плата от 150 до 300 т.р. (в зависимости от бекграунда и скиллов)\n\n- комфортабельный офис с кухней, комнатой отдыха\n\nТребования:\n\n- Уверенное знание Java, J2EE: Spring Framework (Spring MVC, Spring Webservices, Spring Security, Spring Integration), Servlets/JSP\n\n- Уверенное знание SQL, СУБД Oracle/MySQL\n\n- Понимание принципов интеграции приложений, знание интеграционных технологий и стандартов: SOAP/Web Services, RESTful, SOA\n\n- Знание и опыт применения шаблонов проектирования, enterprise integration patterns;\n\n- Знание основ UML и объектно-ориентированного анализа и проектирования.\n\n- Знание типовых архитектур информационных систем для обеспечения надежности и производительности (построение кластеров, балансировщики и т.д.)\n\n- Опыт интеграции систем\n\n- Опыт работы в качестве J2EE-разработчика от 4-х лет\n\nНазвание компании: Teamidea\n\nпишите в Телегу @julie_ignatova","markup":[{"type":"hashtag","offset":0,"length":7,"data":"работа"},{"type":"hashtag","offset":8,"length":7,"data":"Москва"},{"type":"hashtag","offset":16,"length":9,"data":"вакансия"},{"type":"hashtag","offset":26,"length":5,"data":"Java"},{"type":"handle","offset":1355,"length":15,"data":"julie_ignatova"}],"date":"2020-04-02T12:24:13+00:00","link":"tg://resolve?domain=jvmjobs&post=1345","tags":[{"name":"java"},{"name":"jvm"},{"name":"spring"},{"name":"jsp"},{"name":"sql"},{"name":"oracle"},{"name":"mysql"},{"name":"soap"},{"name":"web"},{"name":"spring-mvc"},{"name":"spring-security"}],"cities":[{"code":"moscow"}],"allowsRemote":false}}]}}},"context":{}}