{"hash":"f34fd2c444a074f4e0e67d525015a008ef8e766f","data":{"records":{"id":"android","name":"android","belongsTo":{"totalCount":34,"pageInfo":{"totalPages":4,"currentPage":3},"edges":[{"node":{"__typename":"Job","id":"66293071872-1001054966032","title":"Android разработчик","text":"#вакансия #senior #middle #Сбербанк #android #kotlin #fulltime #офис #agile\nКомпания: ПАО «Сбербанк»\nЛокация: Москва, м. Кутузовская (Agile home)\nЗ/п: от 180-280К на руки (в зависимости от уровня) + достойные годовые премии\nКонтакты: @tdurnicina TVlDurnitsyna@sberbank.ru\n\nДрузья! Мы в поисках Android разработчиков уровня middle и senior в новое небанковское приложение для клиента. Это уникальная возможность присоединиться к разработке серьёзного продукта в командах с атмосферой стартапа🙂 Вас ждут интересные задачи, свежий стек: Kotlin, Mvvm, RxJava, многомодульность и никакого легаси🔥 \n!Также готовы рассмотреть кандидатов уровня junior при наличии опыта коммерческой разработки.\n\nНаш Agile home это: пин понг, пул, кикер, библиотека, кофемашины на этажах, бесплатный спорт зал и подземный паркинг.\nЕсть отличный корпоративный университет, программы обучения в т.ч. за рубежом, конференции, митапы.\n🔥 Льготная ипотека и ДМС. \n\nРассмотрим кандидатов из других городов и стран. И конечно гибкое начало рабочего дня, куда без него.","markup":[{"type":"hashtag","offset":0,"length":9,"data":"вакансия"},{"type":"hashtag","offset":10,"length":7,"data":"senior"},{"type":"hashtag","offset":18,"length":7,"data":"middle"},{"type":"hashtag","offset":26,"length":9,"data":"Сбербанк"},{"type":"hashtag","offset":36,"length":8,"data":"android"},{"type":"hashtag","offset":45,"length":7,"data":"kotlin"},{"type":"hashtag","offset":53,"length":9,"data":"fulltime"},{"type":"hashtag","offset":63,"length":5,"data":"офис"},{"type":"hashtag","offset":69,"length":6,"data":"agile"},{"type":"handle","offset":234,"length":11,"data":"tdurnicina"},{"type":"link","offset":246,"length":25,"data":"mailto:TVlDurnitsyna@sberbank.ru"}],"date":"2020-04-08T19:01:58+00:00","link":"tg://resolve?domain=mobile_jobs&post=0","tags":[{"name":"mobile"},{"name":"android"},{"name":"kotlin"},{"name":"mvvm"}],"cities":[{"code":"moscow"}],"allowsRemote":false}},{"node":{"__typename":"Job","id":"66273148928-1001054966032","title":"Mobile developer","text":"#вакансия #офис #fulltime #спб #senior #teamlead #kotlin\nЛокация: СПб, м. Спортивная/Василеостровская\nФормат работы: Office (удаленка  в период самоизоляции)\nЗанятость: Full-time\nЗарплатная вилка: 140 000 - 200 000 (net)\n\nО проекте: мобильная студия разработки полного цикла, реализующая приложения и Hyper Casual/Midcore игры, в поисках Senior Mobile developer/Team lead\n\nЗадачи:\n- Руководство командой мобильной разработки (Android и iOS);\n- Найм и развитие сотрудников;\n- Код-ревью;\n- Планирование работы и декомпозиция задач;\n- Оценка сроков и работа с продуктовой командой;\n- Оптимизация приложений;\n- Работа с командой бэкенда (постановка и принятие задач);\n- Участие в планировании проектов/спринтов, контроль за реализацией проектов\n\nДля разработки используется Kotlin;\nМинимальная target версия minSdkVersion 21;\nДля работы с network Kotlin Coroutines;\nВсе графические изображения используется SVG, PNG;\nЛогирование через Crashlytics;\nCI через Gitlab\n\nЧто можем предложить:\n- кикер в офисе, а также свой личный массажист;\n- Любое железо на выбор;\n- Оплачиваемое обучение, курсы, поездки на конференции\nи многое др.\n\nКритика, вопросы, резюме - всегда welcome!\nTelegram @ru_spiridonov","markup":[{"type":"hashtag","offset":0,"length":9,"data":"вакансия"},{"type":"hashtag","offset":10,"length":5,"data":"офис"},{"type":"hashtag","offset":16,"length":9,"data":"fulltime"},{"type":"hashtag","offset":26,"length":4,"data":"спб"},{"type":"hashtag","offset":31,"length":7,"data":"senior"},{"type":"hashtag","offset":39,"length":9,"data":"teamlead"},{"type":"hashtag","offset":49,"length":7,"data":"kotlin"},{"type":"bold","offset":338,"length":6,"data":""},{"type":"bold","offset":345,"length":28,"data":""},{"type":"handle","offset":1177,"length":14,"data":"ru_spiridonov"}],"date":"2020-04-08T13:36:29+00:00","link":"tg://resolve?domain=mobile_jobs&post=0","tags":[{"name":"mobile"},{"name":"android"},{"name":"ios"},{"name":"kotlin"},{"name":"dotnet"},{"name":"svg"},{"name":"gitlab"}],"cities":[],"allowsRemote":true}},{"node":{"__typename":"Job","id":"66254274560-1001054966032","title":"Android разработчик","text":"#вакансия #fulltime  #vacancy  #remote #ремоут  #Flutterdeveloper #Flutter \n\n💻 Flutter Developer\n🕐 Fulltime remote\n👩🏻‍💻1-1,5 year of commercial development on Flutter\n💰from 10 $/hour to 12 $/hour\n\nВсем привет!🙋🏻‍♀️\nAMS ищет разработчиков на долгосрочное сотрудничество на ремоут. Мы занимаемся разработкой мобильных приложений под Android и IOS.\n\nУсловия:\n-проектная занятость;\n-доступность в неделю 40 часов.\n\nТребования :\n-коммерческий опыт разработки от 1-1,5 года;\n-английский B1+.\n\n📝 За подробностями по вакансиям и по всем вопросам  пишите:\ndarya.matsyas@ams-apps.com\nDarya \nLinkedIn","markup":[{"type":"hashtag","offset":0,"length":9,"data":"вакансия"},{"type":"hashtag","offset":10,"length":9,"data":"fulltime"},{"type":"hashtag","offset":21,"length":8,"data":"vacancy"},{"type":"hashtag","offset":31,"length":7,"data":"remote"},{"type":"hashtag","offset":39,"length":7,"data":"ремоут"},{"type":"hashtag","offset":48,"length":17,"data":"Flutterdeveloper"},{"type":"hashtag","offset":66,"length":8,"data":"Flutter"},{"type":"link","offset":495,"length":2,"data":"http://darya.matsyas@ams-apps.com/"},{"type":"link","offset":556,"length":27,"data":"http://darya.matsyas@ams-apps.com/"},{"type":"link","offset":590,"length":8,"data":"https://www.linkedin.com/in/darya-matyas-12ba33158/"}],"date":"2020-04-08T11:46:12+00:00","link":"tg://resolve?domain=mobile_jobs&post=0","tags":[{"name":"mobile"},{"name":"android"},{"name":"ios"},{"name":"flutter"}],"cities":[],"allowsRemote":true}},{"node":{"__typename":"Job","id":"66249031680-1001054966032","title":"Android разработчик","text":"#вакансия #vacancies #Androiddeveloper #Android\nВ веб студию ONEWEB на удаленную работу требуется Android разработчик с опытом работы не менее 1 года и минимум 5-6 приложениями в портфолио.\n\nГород и адрес офиса: Узбекистан, Ташкент\nФормат работы: удаленка\nЗанятость: проектная \nЗП:  от 700 до 900$\n\nТребования:\n- Опыт разработки программного обеспечения под мобильные платформы IOS (3.0-10.0), Android\n- Знание основных языков программирования\n- Опыт разработки от 1 года и наличие завершенных проектов (готовность их продемонстрировать) \n\nОбязанности:\n- Разработка мобильных приложений под IOS, Android\n- Разработка графических интерфейсов по готовому макету\n- Уверенное знание русского языка\n\nАккуратность, усидчивость, умение учиться на своих и чужих ошибках\n\n• Высокая, постоянно растущая и своевременная заработная плата от 700$\n• График работы - с 9.00 до 18.00\n• Удаленная работа\n\nОстальные подробности при собеседовании\nОтправляйте свое резюме в телеграмм @onewebuz или +99897 8441122 Дмитрий","markup":[{"type":"hashtag","offset":0,"length":9,"data":"вакансия"},{"type":"hashtag","offset":10,"length":10,"data":"vacancies"},{"type":"hashtag","offset":21,"length":17,"data":"Androiddeveloper"},{"type":"hashtag","offset":39,"length":8,"data":"Android"},{"type":"handle","offset":964,"length":9,"data":"onewebuz"},{"type":"link","offset":978,"length":14,"data":"tel:+99897 8441122"}],"date":"2020-04-08T11:00:35+00:00","link":"tg://resolve?domain=mobile_jobs&post=0","tags":[{"name":"mobile"},{"name":"android"},{"name":"ios"}],"cities":[{"code":"tashkent"}],"allowsRemote":true}},{"node":{"__typename":"Job","id":"66239594496-1001054966032","title":"Android developer","text":"#вакансия #android #kotlin #Москва #Fulltime #Офис\n\nКомпания: Звук\nФормат работы: офис \nЗанятость: полная \nЗп: от 200 до 300к\nНаша команда создает современный музыкальный сервис Звук. Приложение доступно на устройствах Android и IOS. \n\nДля разработки собственного мобильного приложения в команду разработки приглашается Senior Android Developer.\n\nОжидания:\n— Опыт работы с Android от 2-х лет.\n— Уверенное знание Java Core, понимание принципов многопоточного программирования.\n— Уверенное знание Android SDK v19 – v28.\n— Опыт работы с RxJava(1 / 2), Retrofit, Exoplayer, Jetpack, Dagger2, StorIO.\n— Опыт работы с Kotlin, понимание основных принципов.\n— Опыт разработки клиент серверных приложений, понимание сетевого стека.\n— Умение работать с системой контроля версий git (terminal/gui).\n— Знание ООП, паттернов проектирования ПО.\n— Ответственность и умение работать на результат.\n— Знание общих мобильных подходов, архитектур, тенденций и новых технологий.\n— Твердое понимание полного жизненного цикла мобильной разработки.\n\nОсновные задачи:\n— Работать над исправлением ошибок и улучшением производительности приложений.\n— Постоянно находить, оценивать и внедрять новые технологии, чтобы максимизировать эффективность разработки. \n\nЧто у нас:\n— Опен-спейс между станциями метро Комсомольская, Красные Ворота и Бауманская.\n— Гибкий график работы, возможность периодически работать из дома.\n— Современная и производительная техника.\n— Оплачиваемые билеты на конференции.\n— В офисе есть стол для Пинг-понг, доска для дартс, оборудованная кухня, печеньки.\n— Факультативные просмотры лекций, обучение.\n\n\n\nЗа доп. инфой в лс: @AnnaPai4","markup":[{"type":"hashtag","offset":0,"length":9,"data":"вакансия"},{"type":"hashtag","offset":10,"length":8,"data":"android"},{"type":"hashtag","offset":19,"length":7,"data":"kotlin"},{"type":"hashtag","offset":27,"length":7,"data":"Москва"},{"type":"hashtag","offset":35,"length":9,"data":"Fulltime"},{"type":"hashtag","offset":45,"length":5,"data":"Офис"},{"type":"handle","offset":1621,"length":9,"data":"AnnaPai4"}],"date":"2020-04-08T10:00:00+00:00","link":"tg://resolve?domain=mobile_jobs&post=0","tags":[{"name":"mobile"},{"name":"android"},{"name":"ios"},{"name":"kotlin"},{"name":"java"},{"name":"git"}],"cities":[{"code":"moscow"}],"allowsRemote":false}},{"node":{"__typename":"Job","id":"66238545920-1001054966032","title":"Android разработчик","text":"‼️Вакансия Senior Android⁢ Developer‼️\n#android #developer #vacancy\nВ команде Mycelium Wallet (mycelium.com) открыта #вакансия Senior Android⁢ Developer.\n💵З/П 3500-4000 USD по итогам собеседования.\nРабота удаленная 💻\n\nМы предлагаем:\n🔸Получить навыки и компетенции в одном из самых передовых и перспективных направлений финтех индустрии - blockchain;\n🔸Принять участие в разработке одного из самых популярных биткоин-кошельков в Google Play Store;\n🔸Работать в международной команде бок о бок с ведущими специалистами в индустрии;\n🔸Возможность профессионального карьерного роста и участия в разнообразных проектах компании.\n\nЧем предстоит заниматься:\n🔹Разрабатывать новые и развивать существующие мобильные сервисы компании на платформе Android;\n🔹Проектировать и разрабатывать большие функциональные части приложения с привлечением других программистов;\n🔹Использовать cutting edge технологии, а также проверенные временем решения.\n\nТребования:\n✔️Как минимум 3 года опыта разработки на Android;\n✔️Знание Java/Kotlin на уровне ведущего разработчика;\n✔️Знание шаблонов проектирования, опыт использования MVP и других архитектурных подходов;\n✔️Опыт параллельного и многопоточного программирования;\n✔️Понимание циклов работы Android-приложения и управления памятью;\n✔️Опыт разработки пользовательских интерфейсов на платформе Android. \n✔️Знание Android Design Principles;\n✔️Знание и умение использовать различные механизмы взаимодействий между приложениями, предоставляемые в рамках Android SDK;\n✔️Понимание принципов работы REST API, WS, RPC и клиент-серверных приложений;\n✔️Знание английского языка на уровне чтения документации и умения общаться в корпоративном чате.\n\nПлюсом будет:\n➕Умение и понимание необходимости написания Unit tests;\n➕Знание основ криптографии;\n➕Опыт работы с bitcoin/etherium blockchain stack;\n➕Наличие своих проектов на Github, в Google Play и т.д.\n\n📲Контакт: @valeritata","markup":[{"type":"hashtag","offset":39,"length":8,"data":"android"},{"type":"hashtag","offset":48,"length":10,"data":"developer"},{"type":"hashtag","offset":59,"length":8,"data":"vacancy"},{"type":"link","offset":95,"length":12,"data":"http://mycelium.com"},{"type":"hashtag","offset":117,"length":9,"data":"вакансия"},{"type":"handle","offset":1889,"length":11,"data":"valeritata"}],"date":"2020-04-08T09:56:13+00:00","link":"tg://resolve?domain=mobile_jobs&post=0","tags":[{"name":"mobile"},{"name":"android"},{"name":"playframework"},{"name":"java"},{"name":"kotlin"},{"name":"rest"},{"name":"github"}],"cities":[],"allowsRemote":true}},{"node":{"__typename":"Job","id":"66235400192-1001054966032","title":"Android разработчик","text":"#вакансия #android #job #java #Developer #удаленка #Kotlin\nГород и адрес офиса: Москва/Брянск\nФормат работы: удаленный вид работы\nЗанятость: полная, гибкий график \nЗП:  от 1000 до 1500$\nPENA - аутсорс продакшн №1 в России по версии Теглайна. \nPENA Production - это часть группы компаний Idea-Promotion, ASAP BANNER и PENA Agency.\nИщем в команду middle/senior Android разработчикa.\nИщем самостоятельного разработчика, способного работать в команде.\n✅Требования:\n• знание распределенных систем контроля версий (Git);\n• умение разбираться в чужом коде;\n• опыт программирования на Java от двух лет;\n• опыт разработки Android-приложений от двух лет;\n• уверенное знание платформы Android, API 4.0 и выше;\nСтек: exoplayer, okhttp, dagger2, kotlin, picasso\\glide, gson, material, jobDispatcher, androidx, arch components, social sdks, espresso, junit\nКонтакт: @hr_dariya","markup":[{"type":"hashtag","offset":0,"length":9,"data":"вакансия"},{"type":"hashtag","offset":10,"length":8,"data":"android"},{"type":"hashtag","offset":19,"length":4,"data":"job"},{"type":"hashtag","offset":24,"length":5,"data":"java"},{"type":"hashtag","offset":30,"length":10,"data":"Developer"},{"type":"hashtag","offset":41,"length":9,"data":"удаленка"},{"type":"hashtag","offset":51,"length":7,"data":"Kotlin"},{"type":"handle","offset":852,"length":10,"data":"hr_dariya"}],"date":"2020-04-08T09:37:36+00:00","link":"tg://resolve?domain=mobile_jobs&post=0","tags":[{"name":"mobile"},{"name":"android"},{"name":"java"},{"name":"kotlin"},{"name":"git"},{"name":"junit"}],"cities":[{"code":"moscow"},{"code":"bryansk"}],"allowsRemote":true}},{"node":{"__typename":"Job","id":"98201239552-1001089317451","title":"Qa инженер","text":"Тестировщик мобильных приложений\n\n#вакансия #Москва #fulltime #qa #офис #автотестирование                                                                                                  \n\nКомпания: МТС Банк \nСайт:  https://www.mtsbank.ru/\n\nДолжность: Тестировщик мобильных приложений                \nВилка: 100  - 150k на руки   (по скилам)                                         \nРасположение: м. Технопарк (3 минут от метро)                                                                                 \n\nВсем привет! \n\nИщем человека который готов активно учавствовать  в тестировании мобильного приложения банка. У нас построенн процесс тестирования и есть мобильная автоматизация. Мы разработали и успешно внедрили внутренний курс по обучению автоматизации. Все желающие могут его пройти и начать автоматизировать. 75% тестировщиков пишут автотесты, многих мы перевели в полноценных автоматизаторов. Кроме того у нас построен внутренний курс по тестированию мобильных приложений. Есть еженедельные встречи и разные интересные рассказы. Мы реально прокачиваем каждого нашего сотрудника. Все тестировщики банка это отедельная большая команда качества (трайб качества), благодаря чему мы работаем с ПМ и другими участниками процесса как с заказчиком, а не как с начальником.\n\nОбязанности:                                                                 \n\n\n  UI, регрессионное тестирование мобильных приложений;\n  Составление тест кейсов;\n  Чёткое и однозначное описание обнаруженных дефектов;\n  Подготовка отчетов\n  по желанию автоматизация тестирования мобильных приложений UI; \n\nТребования:\n\n\n  Опыт в тестировании от 1 года;\n  Умение четко описать найденную проблему;\n  Базовые знание SQL\n  Понимание принципа работы HTTP протокола, GET и POST запросы\n\nЖелательно:\n\n  Уверенное знание iOS и Android платформ как пользователь\n  Опыт работы в Scrum-команде                                           \n\nМы предлагаем:                                                                 \n  Полностью белая заработная плата                             \n  График работы 5:2, можно брать удаленные дни работы из дома                                                                  \n  ДМС после испытательного срока                               \n  Уютный офис              \n  Команда уважающая своих сотрудников и открытая к новым идеям и предложения\n\nПо всем вопросам пишите мне в личку. Из других городов пока не рассматриваем. Опыт в тестирование должен быть не меньше 1 года.","markup":[{"type":"hashtag","offset":34,"length":9,"data":"вакансия"},{"type":"hashtag","offset":44,"length":7,"data":"Москва"},{"type":"hashtag","offset":52,"length":9,"data":"fulltime"},{"type":"hashtag","offset":62,"length":3,"data":"qa"},{"type":"hashtag","offset":66,"length":5,"data":"офис"},{"type":"hashtag","offset":72,"length":17,"data":"автотестирование"},{"type":"link","offset":216,"length":23,"data":"https://www.mtsbank.ru/"}],"date":"2020-04-08T07:22:19+00:00","link":"tg://resolve?domain=qa_jobs&post=93652","tags":[{"name":"qa"},{"name":"sql"},{"name":"ios"},{"name":"android"}],"cities":[{"code":"moscow"}],"allowsRemote":false}},{"node":{"__typename":"Job","id":"98159296512-1001089317451","title":"Qa engineer","text":"#Киев #офис #вакансия  #QA_Engineer #manual\n\n📌Mobile QA Engineer\nКомпания: Evrius \nГород: Киев\nЗп: от 1к$ (зависит от уровня специалиста)\n\n🔷Основные требования:\n1+ год опыта тестирования Android приложений;\nОпыт тестирования рекламы и работы с рекламными сетями;\nЗнание инструментов разработки Android;\nЗнание методологий и процессов тестирования;\nУмение чётко и точно описывать найденные ошибки;\nОпыт использования автоматизированных средств тестирования будет плюсом.\n\n🔷Мы предлагаем:\nВысокий уровень заработной платы;\nВозможность профессионального и карьерного роста;\n24 календарных дня отпуска и оплачиваемый больничный;\nКорпоративные мероприятия;\nСовременный офис в центре (м. Университет);\nКофе бар, зона отдыха, настольный теннис, Xbox.\n\nКонтакты для связи: @OksanaStpn","markup":[{"type":"hashtag","offset":0,"length":5,"data":"Киев"},{"type":"hashtag","offset":6,"length":5,"data":"офис"},{"type":"hashtag","offset":12,"length":9,"data":"вакансия"},{"type":"hashtag","offset":23,"length":12,"data":"QA_Engineer"},{"type":"hashtag","offset":36,"length":7,"data":"manual"},{"type":"bold","offset":45,"length":20,"data":""},{"type":"bold","offset":140,"length":23,"data":""},{"type":"bold","offset":209,"length":54,"data":""},{"type":"bold","offset":475,"length":15,"data":""},{"type":"bold","offset":748,"length":31,"data":""},{"type":"handle","offset":768,"length":11,"data":"OksanaStpn"}],"date":"2020-04-07T15:56:10+00:00","link":"tg://resolve?domain=qa_jobs&post=93612","tags":[{"name":"qa"},{"name":"mobile"},{"name":"android"}],"cities":[{"code":"kiev"}],"allowsRemote":false}},{"node":{"__typename":"Job","id":"98143567872-1001089317451","title":"Qa инженер","text":"#вакансия #спб #job #fulltime #saintpetersburg #office #QA #mobileqa  #manual #automation #Android #iOS\n\nQA middle и выше\n\nКомпания: e-Legion\nЛокация: Санкт-Петербург, м. Старая деревня\nФормат работы: офис (гибкое начало дня) \nЗанятость: полная\nЗарплатная вилка: 80-120 т.р\n\nПривет! Ищем в команду тестировщика мобильных приложений. Ты будешь влиять на качество продукта крупных компаний. QA участвует во всех этапах создания продукта и взаимодействует со всеми отделами.\n\n🔴Чем будем заниматься:\n-тестировать мобильные приложения на платформах iOS и Android,\nна части проектов еще тестируем WEB\n-проводить тест-анализ и писать тестовую документацию\n-анализировать и тестировать требования\n-оформлять задачи в трекере Redmine или Jira\n\n🔴Необходимые навыки:\n-опыт тестирования мобильных приложений\n-знание техник тест–дизайна и умение их применять\n-умение работать с сетевыми снифферами — Fiddler, Charles\n-умение снимать и анализировать логи\n-знание гайдлайнов iOS и Android\n\n🔴Мы предлагаем:\n-гибкий график работы\n-офис в 7 минутах ходьбы от м. Старая Деревня\n-компенсацию спорта, обучения и медицины\n-обучение и систему наставничества, которые помогут быстро расти и получать новые грейды\n-возможность писать статьи для отраслевых медиа и выступать на конференциях и митапах\n\nСсылка на вакансию: https://www.e-legion.ru/vacancies/spb/qa/\nОтклики, резюме, вопросы пишите:\n@AlexandraShirokina или на почту hr@e-legion.com","markup":[{"type":"hashtag","offset":0,"length":9,"data":"вакансия"},{"type":"hashtag","offset":10,"length":4,"data":"спб"},{"type":"hashtag","offset":15,"length":4,"data":"job"},{"type":"hashtag","offset":20,"length":9,"data":"fulltime"},{"type":"hashtag","offset":30,"length":16,"data":"saintpetersburg"},{"type":"hashtag","offset":47,"length":7,"data":"office"},{"type":"hashtag","offset":55,"length":3,"data":"QA"},{"type":"hashtag","offset":59,"length":9,"data":"mobileqa"},{"type":"hashtag","offset":70,"length":7,"data":"manual"},{"type":"hashtag","offset":78,"length":11,"data":"automation"},{"type":"hashtag","offset":90,"length":8,"data":"Android"},{"type":"hashtag","offset":99,"length":4,"data":"iOS"},{"type":"link","offset":1299,"length":41,"data":"https://www.e-legion.ru/vacancies/spb/qa/"},{"type":"handle","offset":1374,"length":19,"data":"AlexandraShirokina"},{"type":"link","offset":1407,"length":15,"data":"mailto:hr@e-legion.com"}],"date":"2020-04-07T14:33:21+00:00","link":"tg://resolve?domain=qa_jobs&post=93597","tags":[{"name":"qa"},{"name":"android"},{"name":"ios"},{"name":"web"}],"cities":[],"allowsRemote":false}}]}}},"context":{}}