{"hash":"f5f6bf98bd95e769321482904cbbd488f77922fd","data":{"records":{"id":"selenium","name":"selenium","belongsTo":{"totalCount":45,"pageInfo":{"totalPages":5,"currentPage":3},"edges":[{"node":{"__typename":"Job","id":"103778615296-1001089317451","title":"Qa engineer","text":"#вакансия #QA #фуллстек #ФТ #АТ #удаленка \n\nВакансия: QA Engineer (АФТ на Java/Ruby/C#)\nГород: Москва или удаленка из городов РФ, стандартный график с Москвой\nЗарплата: от 130 000 рублей до 210 000 рублей на руки \nФормат: полный день, полная занятость\nКомпания Innovative People \n\n➡ Требования:\n• От 2х лет опыта тестирования веб- или мобильных приложений\n• Практический опыт применения практик тест-дизайна\n• Рабочие знания клиент-серверной архитектуры\n• Знание Java/Ruby/C#, опыт автоматизации от 1 года\n• Уверенный опыт разработки авто-тестов, работы с инструментами автоматизации\nДля удаленки нужен релевантный опыт удаленной работы.\n\n➡ Обязанности:\n• Автоматизированное тестирование (Selenium+Cucumber)\n• Функциональное, интеграционное, регрессионное и приемочное тестирование\n\n➡ Предлагаем:\n• все по ТК РФ, белое и официальное\n• ДМС со стоматологией, программа лояльности\n• адекватное руководство (сейчас мы на удаленке и собеседования по скайпу)\n• большое комьюнити, классные команды, карьерный рост\n• помогаем с релокацией в Москву/Питер/Екатеринбург(50 000 рублей)\nили есть возможность работы удаленно\n\nРезюме и вопросы @Priboch","markup":[{"type":"hashtag","offset":0,"length":9,"data":"вакансия"},{"type":"hashtag","offset":10,"length":3,"data":"QA"},{"type":"hashtag","offset":14,"length":9,"data":"фуллстек"},{"type":"hashtag","offset":24,"length":3,"data":"ФТ"},{"type":"hashtag","offset":28,"length":3,"data":"АТ"},{"type":"hashtag","offset":32,"length":9,"data":"удаленка"},{"type":"handle","offset":1129,"length":8,"data":"Priboch"}],"date":"2020-06-26T07:57:06+00:00","link":"tg://resolve?domain=qa_jobs&post=98971","tags":[{"name":"qa"},{"name":"java"},{"name":"ruby"},{"name":"selenium"},{"name":"cucumber"}],"cities":[{"code":"moscow"}],"allowsRemote":true}},{"node":{"__typename":"Job","id":"103750303744-1001089317451","title":"Qa инженер","text":"#вакансия #QA  #fulltime  #офис #Москва\nИщу ВЕДУЩЕГО ТЕСТИРОВЩИКА  в HOLODILNIK.RU, это  один из ведущих игроков на рынке электронной торговли. Компания приглашает в свою команду профессионала, кто своими знаниями в тестировании программного обеспечения поможет в проектах развития информационных систем интернет-магазина, CRM, интеграции партнерами.\n\n✅Обязанности:\n\n· Построение и поддержка процессов тестирования (ручного и автоматизированного UI тестирования).\n\n· Осуществление процесса тестирования: декомпозиция и оценка задач QA, распределение задач, ревью результатов работы.\n\n· Непосредственное участие в процессе функционального и регрессионного тестирования web-приложений; анализа и тестирования требований.\n\n· Составление тестовой документации (тест-планы, тест-кейсы, чек- листы) и поддержка уже существующей в актуальном состоянии.\n\n· Планирование тестовых сценариев для автоматизации.\n\n✅Требования:\n\n· Опыт работы в качестве QA инженера веб-приложений (от 3-х лет)\n\n· Опыт построения и поддержания процесса обеспечения качества\n\n· Опыт автоматизации тестирования (желательно - Selenium WebDriver);\n\n· Опыт работы с инструментами CI (Jenkins)\n\n· Знание методологий и инструментов тестирования\n\n· Навыки тест-дизайна (тест-кейсы, чек-листы), опыт создания комплексных тест-кейсов;\n\n· Опыт участия в сессиях исследовательского тестирования\n\n· Знание REST, опыт тестирования API (Postman, SoapUI);\n\n· Знание SQL, опыт написания SQL-скриптов и запросов\n\n· Понимание процессов разработки ПО\n\n· Знания XML, CSS, Html;\n\n· Опыт работы с баг-трекинговыми системами (желательно - Jira).\n\n\n✅Условия:\nЗП от 140 000 до 170 000 на руки\n\n· Место работы: Москва, м.Краснопресненская\n\n· При необходимости удаленная работа.\n\n· График работы: 5/2 с 9:00 до 18:00.\n\nКонтакты 🖊\ne-mail: anna-recruitment@mail.ru\nTelegram: @anna_recruitment","markup":[{"type":"hashtag","offset":0,"length":9,"data":"вакансия"},{"type":"hashtag","offset":10,"length":3,"data":"QA"},{"type":"hashtag","offset":15,"length":9,"data":"fulltime"},{"type":"hashtag","offset":26,"length":5,"data":"офис"},{"type":"hashtag","offset":32,"length":7,"data":"Москва"},{"type":"link","offset":69,"length":13,"data":"http://HOLODILNIK.RU"},{"type":"link","offset":1780,"length":24,"data":"mailto:anna-recruitment@mail.ru"},{"type":"handle","offset":1815,"length":17,"data":"anna_recruitment"}],"date":"2020-06-25T19:09:18+00:00","link":"tg://resolve?domain=qa_jobs&post=98944","tags":[{"name":"qa"},{"name":"web"},{"name":"selenium"},{"name":"jenkins"},{"name":"rest"},{"name":"sql"},{"name":"xml"},{"name":"css"},{"name":"html"}],"cities":[{"code":"moscow"}],"allowsRemote":true}},{"node":{"__typename":"Job","id":"108089311232-1001119539411","title":".net разработчик","text":"#qa #automation #работа #вакансия #тестировщик #job #Москва #СПБ #удалёнка #офис \n\nQA Automation (С# / С# + Нагрузочное Тестирование / Ruby)в крупный банк без бюрократии.\n\n🌏 Москва / Санкт-Петербург / Удалённо\n💻опыт от года и до синьора (каждому есть работа по силам) \n💰до 240к \n\n💡4 интересных Прoекта на разных стадиях жизни:\nВсе они направлены на : \n- Улучшение бизнес процессов;\n- Защиту интересов и финансов банка в крупных сделках;\n- Развитие отдельного модуля пообъектного учета залогов для контроля залогов по кредитным сделкам крупного корпоративного бизнеса.\n\n💡 Требования стандартные, Вы все их хорошо знаете. \n- Опыт тестирования API, UI;\n- Работа с .NET / Selenium / LoadRunner / Cucumber - зависит от стека\n- Понимание отличия REST от SOAP;\n- Опыт работы с CICD;\n- С GIT итак все работают \n- SQL на хорошем уровне.\n\n💡Важное:\n- Удалённый формат занятости или офис (по желанию);\n- Гибкий график работы; \n- Отличный офис в стиле супергероев с множеством пуфиков, релакс-зоной, пингпонгом, а пар можно выпустить на груше и турнике; \n- ДМС;\n- Скидки на фитнес, английский;\n- Помощь в релокации, если любишь работу в офисе и хочешь переехать;\n- Оформление на компанию интегратора Selecty IT\n\n📲 @JuliaVenz 🙂","markup":[{"type":"hashtag","offset":0,"length":3,"data":"qa"},{"type":"hashtag","offset":4,"length":11,"data":"automation"},{"type":"hashtag","offset":16,"length":7,"data":"работа"},{"type":"hashtag","offset":24,"length":9,"data":"вакансия"},{"type":"hashtag","offset":34,"length":12,"data":"тестировщик"},{"type":"hashtag","offset":47,"length":4,"data":"job"},{"type":"hashtag","offset":52,"length":7,"data":"Москва"},{"type":"hashtag","offset":60,"length":4,"data":"СПБ"},{"type":"hashtag","offset":65,"length":9,"data":"удалёнка"},{"type":"hashtag","offset":75,"length":5,"data":"офис"},{"type":"bold","offset":83,"length":15,"data":""},{"type":"bold","offset":298,"length":6,"data":""},{"type":"handle","offset":1208,"length":10,"data":"JuliaVenz"}],"date":"2020-06-25T17:59:47+00:00","link":"tg://resolve?domain=microsoftstackjobs&post=103082","tags":[{"name":"dotnet"},{"name":"csharp"},{"name":"ruby"},{"name":"selenium"},{"name":"cucumber"},{"name":"rest"},{"name":"soap"},{"name":"git"},{"name":"sql"}],"cities":[{"code":"moscow"}],"allowsRemote":true}},{"node":{"__typename":"Job","id":"103737720832-1001089317451","title":"Qa инженер","text":"#hr #qa #automation #работа #вакансия #тестировщик #job #Москва #СПБ #удалёнка #офис \n\nQA Automation (С# / С# + НТ / Ruby)в крупный банк без бюрократии.\n\n🌏 Москва / Санкт-Петербург / Удалённо\n💻опыт от года и до синьора (каждому есть работа по силам) \n💰до 240к \n\n💡4 интересных Прoекта на разных стадиях жизни:\nВсе они направлены на : \n- Улучшение бизнес процессов;\n- Защиту интересов и финансов банка в крупных сделках;\n- Развитие отдельного модуля пообъектного учета залогов для контроля залогов по кредитным сделкам крупного корпоративного бизнеса.\n\n💡 Требования стандартные, Вы все их хорошо знаете. \n- Опыт тестирования API, UI;\n- Работа с .NET / Selenium / LoadRunner / Cucumber - зависит от стека\n- Понимание отличия REST от SOAP;\n- Опыт работы с CICD;\n- С GIT итак все работают \n- SQL на хорошем уровне.\n\n💡Важное:\n- Удалённый формат занятости или офис (по желанию);\n- Гибкий график работы; \n- Отличный офис в стиле супергероев с множеством пуфиков, релакс-зоной, пингпонгом, а пар можно выпустить на груше и турнике; \n- ДМС;\n- Скидки на фитнес, английский;\n- Помощь в релокации, если любишь работу в офисе и хочешь переехать;\n- Оформление на компанию интегратора Selecty IT\n\n📲 @JuliaVenz 🙂","markup":[{"type":"hashtag","offset":0,"length":3,"data":"hr"},{"type":"hashtag","offset":4,"length":3,"data":"qa"},{"type":"hashtag","offset":8,"length":11,"data":"automation"},{"type":"hashtag","offset":20,"length":7,"data":"работа"},{"type":"hashtag","offset":28,"length":9,"data":"вакансия"},{"type":"hashtag","offset":38,"length":12,"data":"тестировщик"},{"type":"hashtag","offset":51,"length":4,"data":"job"},{"type":"hashtag","offset":56,"length":7,"data":"Москва"},{"type":"hashtag","offset":64,"length":4,"data":"СПБ"},{"type":"hashtag","offset":69,"length":9,"data":"удалёнка"},{"type":"hashtag","offset":79,"length":5,"data":"офис"},{"type":"bold","offset":87,"length":15,"data":""},{"type":"bold","offset":280,"length":6,"data":""},{"type":"handle","offset":1190,"length":10,"data":"JuliaVenz"}],"date":"2020-06-25T17:02:44+00:00","link":"tg://resolve?domain=qa_jobs&post=98932","tags":[{"name":"qa"},{"name":"ruby"},{"name":"dotnet"},{"name":"selenium"},{"name":"cucumber"},{"name":"rest"},{"name":"soap"},{"name":"git"},{"name":"sql"}],"cities":[{"code":"moscow"}],"allowsRemote":true}},{"node":{"__typename":"Job","id":"103569948672-1001089317451","title":"Qa инженер","text":"#вакансия #fulltime #офис #testautomation #Москва #middle #senior #TS\n\nКомпания: Техносерв https://technoserv.com/ \nВакансия: Middle/Senior QA\nДля работы на проектах в крупном банке (T&M)\nЗП: 70 000 - 220 000\nГрафик работы: фултайм, 10:00-19:00 (по договоренности)\nМесто работы: офис, г. Москва\n\nЗадачи:\n· Разработка и поддержка UI автотестов,  API автотестов, интеграционных автотестов. \n\nТребования:\n· Знание языка Java на уровне middle/senior. Опыт в автоматизации тестирования не менее 2 лет.\n· Опыт создания с нуля и развития фреймворка для UI и API автоматизированного  тестирования.\n· Отличное понимание работы Selenium Web Driver.\n· Знание html и xpath селекторов.\n· Умение работать с Базами данных.\n· Общее понимание технологий Docker, GraphQL, NodeJS, ReactJS.\n· Умение работать в Scrum команде.\n· Отличное знание теории тестирования, опыт в работе с документацией по тестированию. \n· Знание основ работы с Linux. \n· Будет плюсом опыт разработки мок-сервисов.\n\nЖдем резюме: QAResume@technoserv.com","markup":[{"type":"hashtag","offset":0,"length":9,"data":"вакансия"},{"type":"hashtag","offset":10,"length":9,"data":"fulltime"},{"type":"hashtag","offset":20,"length":5,"data":"офис"},{"type":"hashtag","offset":26,"length":15,"data":"testautomation"},{"type":"hashtag","offset":42,"length":7,"data":"Москва"},{"type":"hashtag","offset":50,"length":7,"data":"middle"},{"type":"hashtag","offset":58,"length":7,"data":"senior"},{"type":"hashtag","offset":66,"length":3,"data":"TS"},{"type":"link","offset":91,"length":23,"data":"https://technoserv.com/"},{"type":"link","offset":984,"length":23,"data":"mailto:QAResume@technoserv.com"}],"date":"2020-06-23T17:34:52+00:00","link":"tg://resolve?domain=qa_jobs&post=98772","tags":[{"name":"qa"},{"name":"java"},{"name":"selenium"},{"name":"web"},{"name":"html"},{"name":"docker"},{"name":"graphql"},{"name":"nodejs"},{"name":"reactjs"},{"name":"linux"}],"cities":[{"code":"moscow"}],"allowsRemote":false}},{"node":{"__typename":"Job","id":"103513325568-1001089317451","title":"Qa инженер","text":"#вакансия #спб #питер #fulltime #QALead\n\n🚀Старший тестировщик/ QA Lead (в офис)\n120-160k\n\nО компании:\nНаПоправку.Ру - медицинский онлайн-сервис: поиск врача по отзывам и real time запись на приём в частные и государственные клиники. Именно мы партнеры суперприложения Тинькофф в блоке «Здоровье». Мы помогаем более 1 млн. пользователей в месяц. Сайт + сейчас создаём первое приложение (нативное).\n\nЦель должности:\n🔸Настроить процесс тестирования, предлагать и внедрять инструменты чтобы повышать эффективность тестов;\n🔸Запустить автотесты;\n🔸Формировать и развивать команду (сейчас 4 тестировщика и 15 разработчиков);\n🔸Тестировать сайт и мобильное приложение;\n🔸Не позволять багам просачиваться на прод и расстраивать пользователей.\n\nПочему точно стоит идти к нам:\n🔸Возможность выстроить и наладить процесс, сделать «как надо»;\n🔸 Социально-значимый проект, его пользователи - простые люди как ты и я;\n🔸Гибкое начало рабочего дня (с 8 до 11);\n🔸Официальное оформление и «белая» зарплата;\n🔸ДМС;\n🔸У нас есть софинансирование командных активностей;\n🔸Программа опционов для ключевых сотрудников;\n🔸Офис (в нем снеки и прочее) на ВО;\nЗарплата:\n🔸Гибко обсуждаем, вилка 120-160k\n\nЧего мы ждём от тебя:\n🔸Высшее техническое образование, курсы по тестированию;\n🔸Более 2х лет работал/а в IT-компаниях с хорошо выстроенным процессом тестирования, есть опыт автоматизации;\n🔸Работал/а с Git, Docker, SSH, Selenium, Jenkins;\n🔸Внимателен/а к деталям, требователен/а к себе и окружающим.\n\nВопросы и резюме к @Vasilisa_bu","markup":[{"type":"hashtag","offset":0,"length":9,"data":"вакансия"},{"type":"hashtag","offset":10,"length":4,"data":"спб"},{"type":"hashtag","offset":15,"length":6,"data":"питер"},{"type":"hashtag","offset":22,"length":9,"data":"fulltime"},{"type":"hashtag","offset":32,"length":7,"data":"QALead"},{"type":"bold","offset":43,"length":46,"data":""},{"type":"bold","offset":91,"length":10,"data":""},{"type":"bold","offset":103,"length":14,"data":""},{"type":"bold","offset":398,"length":15,"data":""},{"type":"bold","offset":737,"length":31,"data":""},{"type":"bold","offset":1138,"length":8,"data":""},{"type":"bold","offset":1182,"length":21,"data":""},{"type":"bold","offset":1485,"length":19,"data":""},{"type":"handle","offset":1505,"length":12,"data":"Vasilisa_bu"}],"date":"2020-06-23T10:10:12+00:00","link":"tg://resolve?domain=qa_jobs&post=98718","tags":[{"name":"qa"},{"name":"git"},{"name":"docker"},{"name":"ssh"},{"name":"selenium"},{"name":"jenkins"}],"cities":[],"allowsRemote":false}},{"node":{"__typename":"Job","id":"103495499776-1001089317451","title":"Qa engineer","text":"#вакансия #Казань #Нижний_Новгород #Краснодар #офис #удаленно \n\n💻Компания «БАРС Груп» - ведущий российский разработчик решений для государственного и корпоративного секторов с 1992 года, входит в ТОП-15 крупнейших разработчиков России.\n\n👀Мы в поисках QA Auto Engineer на крупные государственные проекты.\n\nОт новых сотрудников мы ожидаем:\n•Знание базовых понятий и определений в тестировании;\n•Знание и уверенное владение методиками тестирования;\n•  Экспертное владение навыками составления тест-кейсов, чек-листов, баг-репортов;\n•Владение языком программирования С# / Python.\nБудет плюсом:\n•Владение инструментами тестирования Fiddler/Postman, Visual Studio, фрэймворками Nunit, restsharp, Selenium.webdriver;\n•Опыт работы с системами JIRA, git/stash.\n\n💰Уровень заработной платы: от 50000р до 150000р. \n\n⏰Рабочий день в офисе или полностью удаленно\n\n🔺Вместе мы будем работать над масштабными проектами, которые меняют к лучшему жизни людей!","markup":[{"type":"hashtag","offset":0,"length":9,"data":"вакансия"},{"type":"hashtag","offset":10,"length":7,"data":"Казань"},{"type":"hashtag","offset":18,"length":16,"data":"Нижний_Новгород"},{"type":"hashtag","offset":35,"length":10,"data":"Краснодар"},{"type":"hashtag","offset":46,"length":5,"data":"офис"},{"type":"hashtag","offset":52,"length":9,"data":"удаленно"}],"date":"2020-06-23T07:13:13+00:00","link":"tg://resolve?domain=qa_jobs&post=98701","tags":[{"name":"qa"},{"name":"python"},{"name":"selenium"},{"name":"git"},{"name":"visual-studio"}],"cities":[{"code":"kazan"},{"code":"krasnodar"},{"code":"nizhny-novgorod"}],"allowsRemote":true}},{"node":{"__typename":"Job","id":"103494451200-1001089317451","title":"Qa engineer","text":"#вакансия #Москва #офис\nДолжность: QA automation engineer\nКомпания: Открытая мобильная платформа\nГород: Москва, м.Парк Победы\nЗП: до 160к\nСтек: Python, Pytest, requests + cattrs, selenium\n\nУсловия:\n•ЗП до 160 000 гросс (в зависимости от ваших тех скиллов)\n•Участие в конференциях\n•ДМС\n•Гибкое начало рабочего дня \n\nЗадачи:\n•Разработка автоматизированных тестов (web + api), стремимся к 100% покрытию автотестами  (не unit)\n•Участие в развитии тестового framework'а\n•Командная работа с разработчиками и аналитиками (Scrum Dev Team)\n\nРассмотрим кандидатов с опытом в QA automation (Python) от полугода\n\nРезюме можно направить сюда: @Rita_RS \nили на почту: m.sinelnikova@getit.agency","markup":[{"type":"hashtag","offset":0,"length":9,"data":"вакансия"},{"type":"hashtag","offset":10,"length":7,"data":"Москва"},{"type":"hashtag","offset":18,"length":5,"data":"офис"},{"type":"bold","offset":35,"length":23,"data":""},{"type":"bold","offset":133,"length":5,"data":""},{"type":"bold","offset":189,"length":9,"data":""},{"type":"bold","offset":315,"length":8,"data":""},{"type":"bold","offset":565,"length":13,"data":""},{"type":"bold","offset":601,"length":6,"data":""},{"type":"handle","offset":630,"length":8,"data":"Rita_RS"},{"type":"link","offset":654,"length":26,"data":"mailto:m.sinelnikova@getit.agency"}],"date":"2020-06-23T07:13:09+00:00","link":"tg://resolve?domain=qa_jobs&post=98700","tags":[{"name":"qa"},{"name":"python"},{"name":"selenium"},{"name":"web"}],"cities":[{"code":"moscow"}],"allowsRemote":false}},{"node":{"__typename":"Job","id":"103427342336-1001089317451","title":"Qa инженер","text":"#вакансия #работа #СанктПетербург #QA #Manual #Mobile #API #fulltime #офис\nГород: Санкт-Петербург, м. Чкаловская\nФорма работы: офис\nЗанятость: полная\nЗарплатная вилка: от 100 000 net (обсуждается по результатам собеседования).\nВсем привет!\nМы – Cardsmobile, петербургская IT-компания, разработчик мобильного приложения «Кошелёк». \n«Кошелёк» заменяет бумажник и избавляет от необходимости носить с собой пластик: пользователи хранят в нем дисконтные и банковские карты. Чтобы получить скидку, достаточно показать на кассе карту с экрана смартфона, а чтобы оплатить покупку – приложить NFC-смартфон к терминалу оплаты.\nВ связи с расширением функционала приложения и выходом на зарубежные рынки мы усиляем нашу команду и ищем QA инженера с опытом тестирования мобильных и веб продуктов.\n🔹Что нужно будет делать:\n•  тестировать работу «Кошелька» на Android и iOS;\n•  проводить функциональное и регрессионное тестирование клиентской части приложения, функциональное и нагрузочное тестирование серверной;\n•  организовывать процесс тестирования: устанавливать и настраивать тестовое окружение, разрабатывать тестовые сценарии, писать тестовую документацию.\n🔹Ожидаем, что у Вас есть:\n•  опыт тестирования мобильных приложений от 1,5 лет;\n•  понимание принципов клиент-серверного взаимодействия;\n•  навыки работы с базами данных (Postgresql, MongoDB и др.);\n•  навыки работы с инструментами для тестирования серверного API (Postman, SoapUI и т.д.).\n🔹Будет плюсом:\n•  Опыт разработки автотестов для web (Selenium), mobile (Espresso, XCTest) или желание его приобрести.\n🔹Мы предлагаем:\n•  Участие в развитии полезного и популярного приложения, возможность сделать мир лучше;\n•  Оформление по ТК РФ с первого дня работы. ДМС после прохождения испытательного срока;\n•  Оплату мобильной связи, частичную компенсацию питания;\n•  Гибкий график и высокий уровень самостоятельности;\n•  Командные мероприятия и приятные коллеги;\n•  Комфортный офис в центре города (2 минуты от станции метро Чкаловская).\n\nИнформацию о компании можно найти по ссылке: https://spb.hh.ru/employer/2032205\n\nTelegram: katerinaziryukova","markup":[{"type":"hashtag","offset":0,"length":9,"data":"вакансия"},{"type":"hashtag","offset":10,"length":7,"data":"работа"},{"type":"hashtag","offset":18,"length":15,"data":"СанктПетербург"},{"type":"hashtag","offset":34,"length":3,"data":"QA"},{"type":"hashtag","offset":38,"length":7,"data":"Manual"},{"type":"hashtag","offset":46,"length":7,"data":"Mobile"},{"type":"hashtag","offset":54,"length":4,"data":"API"},{"type":"hashtag","offset":59,"length":9,"data":"fulltime"},{"type":"hashtag","offset":69,"length":5,"data":"офис"},{"type":"link","offset":2035,"length":34,"data":"https://spb.hh.ru/employer/2032205"}],"date":"2020-06-22T10:58:58+00:00","link":"tg://resolve?domain=qa_jobs&post=98636","tags":[{"name":"qa"},{"name":"mobile"},{"name":"dotnet"},{"name":"android"},{"name":"ios"},{"name":"postgresql"},{"name":"mongodb"},{"name":"web"},{"name":"selenium"}],"cities":[],"allowsRemote":false}},{"node":{"__typename":"Job","id":"103423148032-1001089317451","title":"Qa инженер","text":"#вакансия #QA #Java #QAAutomation #Москва #офис \n\nВакансия: QA Lead (Тест-Менеджер)\nГород: Москва м. Технопарк \nЗарплата: от 250 000 рублей до 290 000 рублей на руки\nФормат: офис, полный день, полная занятость\nКомпания Innovative People \n\n🔝 Проект единого окна сотрудника отделения - оптимизация и автоматизация операций, которые сотрудник проводит для ЮЛ в отделении авторизуемся в приложении через SFA.\n9 модулей. Суть проекта - высадить всех сотрудников отделений в одно приложение, которое максимально автоматизирует их деятельность и избавит от необходимости использовать до 29 различных программ для проведения сервисного обслуживания клиентов в отделении.\n\n🕘 Чем предстоит заниматься:\n• планирование тестирования;\n• выстраивание процессов тестирования среди 8 команд с упором на автоматизацию;\n• выстраивать CI/CD проекта;\n• налаживание взаимодействия QA инженеров в нескольких командах;\n• поддерживать и развивать разработанные решения по автоматизации;\n• исследовать новые технологии и внедрять их на проекте;\n• принятие решений о внедрении / обновлении программного обеспечения.\n\n🕒 От кандидата ожидаем:\n• опыт в тестировании от 4х лет\n• опыт в автотестировании от 3х лет\n• опыт руководства группой тестировщиков от 2х лет\n• практический опыт применения практик тест-дизайна\n• умение проектировать тест-кейсы и подготавливать тестовые данные для тестирования\n• хорошие знание Java, библиотек\n• уверенное использование и понимание как работает под капотом Selenium Webdriver (Selenide и Appium для мобильных платформ)\n• опыт написания собственного фреймворка\n• опыт работы в unix системах\n• опыт работы с API (Soap, Rest)\n• опыт использование git\n• опыт использование CI (желательно, но не обязательно Jenkins)\n• опыт работы с Docker\n• опыт составления запросов SQL\n• опыт управления непрямыми (функциональными) подчиненными\n• умение контролировать несколько проектов одновременно\n• умение мотивировать команду, опыт управления рисками, мониторинг эффективности процессов\n\n🕧 Предлагаем:\n• все по ТК РФ\n• ДМС со стоматологией, программа лояльности\n• Macbook \n• адекватное руководство и лояльные процессы\n• большое комьюнити, классные команды\n• помогаем с релокацией!\n\nРезюме и вопросы @Priboch","markup":[{"type":"hashtag","offset":0,"length":9,"data":"вакансия"},{"type":"hashtag","offset":10,"length":3,"data":"QA"},{"type":"hashtag","offset":14,"length":5,"data":"Java"},{"type":"hashtag","offset":20,"length":13,"data":"QAAutomation"},{"type":"hashtag","offset":34,"length":7,"data":"Москва"},{"type":"hashtag","offset":42,"length":5,"data":"офис"},{"type":"handle","offset":2197,"length":8,"data":"Priboch"}],"date":"2020-06-22T10:08:51+00:00","link":"tg://resolve?domain=qa_jobs&post=98632","tags":[{"name":"qa"},{"name":"java"},{"name":"selenium"},{"name":"unix"},{"name":"soap"},{"name":"rest"},{"name":"git"},{"name":"jenkins"},{"name":"docker"},{"name":"sql"}],"cities":[{"code":"moscow"}],"allowsRemote":false}}]}}},"context":{}}