{"hash":"f5f6bf98bd95e769321482904cbbd488f77922fd","data":{"records":{"totalCount":669,"pageInfo":{"totalPages":67,"currentPage":64},"edges":[{"node":{"id":"337641472-1001352129329","title":"Golang разработчик","text":"#вакансия #remote #fulltime #golang \nВакансия: старший Golang разработчик \nФормат работы: удалённо \nЗанятость: полная \nЗ/п: от 160 000 до 170 000 рублей в месяц\nКомпания: poloniumarts.com\nСфера деятельности: разработка ПО\n\nНа один из новых проектов. Все с нуля. Никакого легаси. \n\nОсновные задачи\n▪️основная задача - разработать структуру БД и логики проекта\n▪️разработка функционал административной панели\n▪️контроль жизненного цикла разработки ПО\n\nТребования\n▪️от 3-х лет в коммерческой разработке ПО\n▪️не менее 2-х лет программирования на Golang\n\nМы предлагаем\n▪️стабильную зарплату по результатам собеседования\n▪️оформление по ТК РФ\n▪️гибкий график работы, отсутствие дресс-кода и бюрократии\n▪️интересные, творческие задачи\n\nКонтакты: @Tragoman","markup":[{"type":"hashtag","offset":0,"length":9,"data":"вакансия"},{"type":"hashtag","offset":10,"length":7,"data":"remote"},{"type":"hashtag","offset":18,"length":9,"data":"fulltime"},{"type":"hashtag","offset":28,"length":7,"data":"golang"},{"type":"link","offset":171,"length":16,"data":"http://poloniumarts.com"},{"type":"handle","offset":739,"length":9,"data":"Tragoman"}],"date":"2020-06-15T07:30:59+00:00","link":"tg://resolve?domain=gogetajobfeed&post=322","tags":[{"name":"go"}],"cities":[],"allowsRemote":true}},{"node":{"id":"71284293632-1001054966032","title":"Android разработчик","text":"#вакансия #android #remote #fulltime \nВакансия: android разработчик\nФормат работы: удаленно \nЗанятость: полная\nЗ/п: от 170 000 до 200 000 по результатам общения\nКомпания: https://poloniumarts.com/\nСфера деятельности: разработка ПО.\n\nНа один из новых проектов. Все с нуля. Никакого легаси. \n\nCтек: kotlin, RxJava, Firebase (Retrofit Glide Android Annotation) \n\nОсновные задачи\n▪️верстка экранов приложения\n▪️проработка Api и логика приложения\n▪️полная поддержка проекта\n\nТребования\n▪️опыт коммерческой разработки на Java и/или Kotlin от 1 года\n▪️опыт работы с Android SDK, Gradle, Layout Inspector, Linux\n▪️понимание принципов MVP и MVVM\n▪️понимание основных принципов работы с многопоточностью\n\nМы предлагаем\n▪️стабильную зарплату по результатам собеседования\n▪️оформление по ТК РФ\n▪️гибкий график работы\n▪️интересные, творческие задачи\n\nКонтакты: @Tragoman","markup":[{"type":"hashtag","offset":0,"length":9,"data":"вакансия"},{"type":"hashtag","offset":10,"length":8,"data":"android"},{"type":"hashtag","offset":19,"length":7,"data":"remote"},{"type":"hashtag","offset":27,"length":9,"data":"fulltime"},{"type":"bold","offset":38,"length":9,"data":""},{"type":"bold","offset":68,"length":13,"data":""},{"type":"bold","offset":93,"length":11,"data":""},{"type":"bold","offset":111,"length":5,"data":""},{"type":"bold","offset":161,"length":9,"data":""},{"type":"link","offset":171,"length":25,"data":"https://poloniumarts.com/"},{"type":"bold","offset":197,"length":19,"data":""},{"type":"bold","offset":360,"length":16,"data":""},{"type":"bold","offset":470,"length":11,"data":""},{"type":"bold","offset":695,"length":14,"data":""},{"type":"bold","offset":838,"length":9,"data":""},{"type":"handle","offset":848,"length":9,"data":"Tragoman"}],"date":"2020-06-15T07:25:26+00:00","link":"tg://resolve?domain=mobile_jobs&post=0","tags":[{"name":"mobile"},{"name":"android"},{"name":"kotlin"},{"name":"firebase"},{"name":"java"},{"name":"gradle"},{"name":"linux"},{"name":"mvvm"}],"cities":[],"allowsRemote":true}},{"node":{"id":"16909336576-1001110946746","title":"Javascript разработчик","text":"#вакансия #front #react #typescript #москва #генетика #javascript #геномэксперт #барсгруп\n\nГород и адрес офиса: Москва, ст.м.Павелецкая\nФормат работы: Офис\nЗанятость: полная.\nЗарплатная вилка: от 200.000 до 300.000 рублей на руки. \nНазвание компании: Барс Груп\nhttps://bars.group/\nПроект Геном.Эксперт  - https://genome.expert/ \n\nТребуется senior front-end разработчик в крупный медицинский проект.\n\nПредметная область: Генетика. \nТекущее состояние проекта: Проект запущен с прошлого года, сейчас добираем команду по потребностям проекта, есть уникальная возможность принять участие в создании единого пространства для врачей-генетиков, лабораторных генетиков, биоинформатиков.\n\n✅Чем придется заниматься:\n\n-Писать микроприложения и компоненты на React;\n-Изучать исходники на Polymer, чтобы переехать на React (не допиливаем старый фреймворк, а выпиливаем) и микросервисную архитектуру;\n\n✔️Требования:\n\n-Front-end: React(Vue), typescript, Redux/Mobx/Vuex;\n-Межсервисное взаимодействие и API: REST/GraphQL/gRPC. \n\n✔️Инструменты для работы: \n\nGit, bitbucket, JIRA, docker, docker-compose. \n\n✔️Условия:\n\n-Оформление по ТК РФ;\n-Работа в офисе в пешей доступности от ст.м.Павелецкая (на данный момент удаленка);\n-График 5/2, гибкое начало рабочего дня ;\n-Белая зарплата, повышающаяся по системе аттестаций несколько раз в год;\n-ДМС;\n-Перспективы карьерного роста;\n-Корпоративное обучение (тренинги, мастер-классы);\n-Корпоративная библиотека;\n-Мы рассматриваем кандидатов с возможностью переезда в Москву;\n-Возможность предоставления бесплатного жилья на первый месяц. \n\nКонтакты для связи: \n\nemail: a.starchenko@bars.group \nTelegram: @alinavelcheva \n\nbars.group\nАО «БАРС Груп» - официальный сайт компании\nАО «БАРС Груп» - российский производитель ИТ-решений и экспертный центр в сфере государственной и корпоративной информатизации.\n\n—\n\n👉 Обсуждение вакансии в чате @javascript_jobs","markup":[{"type":"hashtag","offset":0,"length":9,"data":"вакансия"},{"type":"hashtag","offset":10,"length":6,"data":"front"},{"type":"hashtag","offset":17,"length":6,"data":"react"},{"type":"hashtag","offset":24,"length":11,"data":"typescript"},{"type":"hashtag","offset":36,"length":7,"data":"москва"},{"type":"hashtag","offset":44,"length":9,"data":"генетика"},{"type":"hashtag","offset":54,"length":11,"data":"javascript"},{"type":"hashtag","offset":66,"length":13,"data":"геномэксперт"},{"type":"hashtag","offset":80,"length":9,"data":"барсгруп"},{"type":"link","offset":261,"length":19,"data":"https://bars.group/"},{"type":"link","offset":305,"length":22,"data":"https://genome.expert/"},{"type":"link","offset":1593,"length":23,"data":"mailto:a.starchenko@bars.group"},{"type":"handle","offset":1628,"length":14,"data":"alinavelcheva"},{"type":"link","offset":1645,"length":10,"data":"http://bars.group"},{"type":"handle","offset":1861,"length":16,"data":"javascript_jobs"}],"date":"2020-06-15T07:06:51+00:00","link":"tg://resolve?domain=javascript_jobs_feed&post=16126","tags":[{"name":"javascript"},{"name":"reactjs"},{"name":"typescript"},{"name":"polymerjs"},{"name":"vuejs"},{"name":"redux"},{"name":"rest"},{"name":"graphql"},{"name":"git"},{"name":"docker"},{"name":"docker-compose"}],"cities":[{"code":"moscow"}],"allowsRemote":true}},{"node":{"id":"1677721600-1001091028994","title":"Java developer","text":"#вакансия #java #remote  \nВакансия: Java developer \nКомпания: tracepharm.ru\nФормат работы: удалённо\nЗанятость: полная, частичная (от 30 часов в неделю) \nСтавка: от 1100 до 1300 р/ч\nКонтакты: @Tragoman\n\nОбязанности\n- развитие существующих и разработка новых микросервисов\n- интеграция с внешними системами через REST API\n- работа с СУБД PostgreSQL\n- написание, модификация и оптимизация хранимых процедур в БД\n\nТребования:\n- опыт разработки на JAVA от 2 лет\n- уверенные знания в многопоточности\n- хорошее знание SQL, знание PL/pgSQL или PL/SQL;\n- опыт работы с  Docker контейнерами\n\nНаш стек: от Java 8, PostgreSQL, Apache Camel, Camnda BPM, Spring Framework, Hibernate, ActiveMQ, Kafka, Redis, ELK, ОС Linux\n\nУсловия: \n- работа в распределенной команде\n- гибкий график (работаете в удобное для Вас время)\n- сотрудничаем с ИП\n\nСфера деятельности компании: разработка ПО для участников фармацевтического рынка.","markup":[{"type":"hashtag","offset":0,"length":9,"data":"вакансия"},{"type":"hashtag","offset":10,"length":5,"data":"java"},{"type":"hashtag","offset":16,"length":7,"data":"remote"},{"type":"bold","offset":26,"length":10,"data":""},{"type":"bold","offset":52,"length":9,"data":""},{"type":"link","offset":62,"length":13,"data":"http://tracepharm.ru"},{"type":"bold","offset":76,"length":14,"data":""},{"type":"bold","offset":100,"length":10,"data":""},{"type":"bold","offset":153,"length":7,"data":""},{"type":"bold","offset":181,"length":9,"data":""},{"type":"handle","offset":191,"length":9,"data":"Tragoman"},{"type":"bold","offset":202,"length":12,"data":""},{"type":"bold","offset":410,"length":12,"data":""},{"type":"bold","offset":582,"length":9,"data":""},{"type":"bold","offset":709,"length":10,"data":""},{"type":"bold","offset":826,"length":28,"data":""}],"date":"2020-06-15T06:47:29+00:00","link":"tg://resolve?domain=jvmjobs&post=1600","tags":[{"name":"java"},{"name":"jvm"},{"name":"rest"},{"name":"postgresql"},{"name":"sql"},{"name":"docker"},{"name":"apache"},{"name":"spring"},{"name":"hibernate"},{"name":"kafka"},{"name":"redis"},{"name":"linux"},{"name":"apache-camel"}],"cities":[],"allowsRemote":true}},{"node":{"id":"71281147904-1001054966032","title":"Mobile разработчик","text":"#вакансия #аналитик #продуктовый аналитик #мобильные приложения #Москва #удаленка\n🔸РосШтрафы\n▫️Москва\n▫️офис на Проспекте мира или удаленка\n▫️Fulltime\n▫️от 140К до 250К на руки\n\"РосШтрафы\" – сервис для проверки и оплаты штрафов ГИБДД и налогов, который постепенно превращается в маркетплейс для автомобилистов. Аудитория – несколько миллионов человек.\nНаш отдел маркетинга открывает вакансию 📣Аналитика мобильных приложений (продуктового аналитика)! 📣\n✔️Основные требования:\nОпыт работы на аналогичной должности от 2-х лет;\nЖелательно знание МОБИЛЬНОЙ аналитики (Firebase, AppМетрика, Appsflyer);\nПонимание принципов клиентской аналитики и сегментирования клиентского ядра;\nПонимание когортного анализа, основным метрик цифровых бизнесов, APRU, Retention, LTV, CPA, CPI;\nОпыт работы с регулярным точечным сбором данных;\nВладение SQL на уверенном уровне;\nОтличное знание SQL в диалекте MySQL/PgSQL и ClickHouse.\n✔️Задачи:\nПодготовка данных и настройка их сбора из различных источников;\nРазработка методики оценки окупаемости маркетинговых каналов;\nСоздание и улучшение аналитических инструментов;\nИсследования и поиск инсайтов в данных;\nПовышение эффективности работы менеджеров отдела маркетинга за счет получения достоверных, актуальных данных;\nГрамотное выстраивание системы аналитики с нуля.\n✔️Предлагаем:\nДостойная оплата труда;\nМинимум бюрократии;\nНикакого скрин-трекинга или почасового журнала работ -- всё на совести и доверии;\nГибкое начало рабочего дня;\nПлюшки на домашнюю технику, подарки на ДР;\nНеформальное адекватное общение по всей вертикали компании ;\nПринимаются во внимание любые идеи и инициатива;\nКомпенсация профессиональных курсов и конференций до 60%;\nВозможность 100% удалёнки с опциональным посещением офиса для работы и тимбилдинга.\n◽️@grabulya","markup":[{"type":"hashtag","offset":0,"length":9,"data":"вакансия"},{"type":"hashtag","offset":10,"length":9,"data":"аналитик"},{"type":"hashtag","offset":20,"length":12,"data":"продуктовый"},{"type":"hashtag","offset":42,"length":10,"data":"мобильные"},{"type":"hashtag","offset":64,"length":7,"data":"Москва"},{"type":"hashtag","offset":72,"length":9,"data":"удаленка"},{"type":"handle","offset":1763,"length":9,"data":"grabulya"}],"date":"2020-06-15T06:07:20+00:00","link":"tg://resolve?domain=mobile_jobs&post=0","tags":[{"name":"mobile"},{"name":"firebase"},{"name":"sql"},{"name":"mysql"}],"cities":[{"code":"moscow"}],"allowsRemote":true}},{"node":{"id":"102810779648-1001089317451","title":"Qa инженер","text":"#вакансия #Екатеринбург #удалённо #fulltime #фултайм #backend #fullstack #NestJS #nodejs #typescript\nBackend-разработчик в компанию-резидент Сколково IPnote https://www.facebook.com/426995510646028/posts/3319529111392639/\nОфис в Екатеринбурге, Технопарк высоких технологий Свердловской области\nПо формату работы можно на удаленку или в офис (он крутой), но full time\nЗП белая от 80 до 120 и разные бенефиты\nСтек: Node.js, NestJS, TypeScript/JavaScript, MongoDB\nПодробности: @Sasha_hr_tut","markup":[{"type":"hashtag","offset":0,"length":9,"data":"вакансия"},{"type":"hashtag","offset":10,"length":13,"data":"Екатеринбург"},{"type":"hashtag","offset":24,"length":9,"data":"удалённо"},{"type":"hashtag","offset":34,"length":9,"data":"fulltime"},{"type":"hashtag","offset":44,"length":8,"data":"фултайм"},{"type":"hashtag","offset":53,"length":8,"data":"backend"},{"type":"hashtag","offset":62,"length":10,"data":"fullstack"},{"type":"hashtag","offset":73,"length":7,"data":"NestJS"},{"type":"hashtag","offset":81,"length":7,"data":"nodejs"},{"type":"hashtag","offset":89,"length":11,"data":"typescript"},{"type":"link","offset":157,"length":64,"data":"https://www.facebook.com/426995510646028/posts/3319529111392639/"},{"type":"handle","offset":474,"length":13,"data":"Sasha_hr_tut"}],"date":"2020-06-15T06:05:27+00:00","link":"tg://resolve?domain=qa_jobs&post=0","tags":[{"name":"qa"},{"name":"nodejs"},{"name":"typescript"},{"name":"javascript"},{"name":"mongodb"}],"cities":[],"allowsRemote":true}},{"node":{"id":"71279050752-1001054966032","title":"Mobile разработчик","text":"#вакансия #Екатеринбург #удалённо #fulltime #фултайм #backend #fullstack #NestJS #nodejs #typescript\n#Backend-разработчик в компанию-резидент Сколково IPnote\nЕкатеринбург, Технопарк высоких технологий Свердловской области\nУдаленка или офис, но full time\nЗП белая от 80 до 120 и разные бенефиты\nСтек: Node.js, NestJS, TypeScript/JavaScript, MongoDB\nПодробности: @Sasha_hr_tut","markup":[{"type":"hashtag","offset":0,"length":9,"data":"вакансия"},{"type":"hashtag","offset":10,"length":13,"data":"Екатеринбург"},{"type":"hashtag","offset":24,"length":9,"data":"удалённо"},{"type":"hashtag","offset":34,"length":9,"data":"fulltime"},{"type":"hashtag","offset":44,"length":8,"data":"фултайм"},{"type":"hashtag","offset":53,"length":8,"data":"backend"},{"type":"hashtag","offset":62,"length":10,"data":"fullstack"},{"type":"hashtag","offset":73,"length":7,"data":"NestJS"},{"type":"hashtag","offset":81,"length":7,"data":"nodejs"},{"type":"hashtag","offset":89,"length":11,"data":"typescript"},{"type":"hashtag","offset":101,"length":8,"data":"Backend"},{"type":"handle","offset":361,"length":13,"data":"Sasha_hr_tut"}],"date":"2020-06-15T06:02:03+00:00","link":"tg://resolve?domain=mobile_jobs&post=0","tags":[{"name":"mobile"},{"name":"nodejs"},{"name":"typescript"},{"name":"javascript"},{"name":"mongodb"}],"cities":[],"allowsRemote":true}},{"node":{"id":"102808682496-1001089317451","title":"Qa инженер","text":"🐞🐞🐞#вакансия #QA #Ульяновск #Саранск #Казань #Самара #Уфа #Краснодар #офис #удаленная_работа\n\n🔍Middle QA-специалист🔎\n\n⚡️Компания: Simbirsoft (более 19 лет на рынке, более 700 сотрудников в штате)\n\nОчень ждем тебя, наш будущий коллега и борец за качественное ПО! :)\n\n📌Твои будущие задачи:\n• тестирование ПО (frontend, backend, API);\n• локализация и документирование найденных дефектов;\n• ведение и оптимизация тестовой документации;\n• контроль качества на всех этапах разработки ПО;\n• выстраивание и оптимизация процессов тестирования ПО.\n\n📌Что мы ждем от тебя:\n• наличие опыта от 2 лет в направлениях QA или тестирования ПО;\n• понимание разницы между QA и тестированием ПО;\n• понимание особенностей гибких методологий;\n• уверенное владение техниками тест-дизайна;\n• знание клиент-серверной архитектуры;\n• понимание особенностей тестирования web, mobile и desktop приложений;\n• навык тестирования API;\n• написание запросов SQL;\n• опыт работы с системами контроля версий (git);\n• знание основных команд работы с консолью (Windows/Linux).\n\n📌Что мы предлагаем:\n• Полностью белая ЗП два раза в месяц;\n• Оформление по ТК РФ;\n• Высокий уровень экспертности внутри компании, которым мы делимся друг с другом;\n• Перспективы вертикального и горизонтального роста;\n• Работа на российских и международных проектах;\n• Оборудованное рабочее место и парк тестовых устройств;\n• Подготовка и прохождение сертификации ISTQB бесплатно;\n• Внутренние и внешние курсы, доклады, конференции;\n• Бесплатные чай, кофе, печеньки в офисе;\n• Корпоративная спортивная программа (оплата тематических секций, частичная компенсация абонемента);\n• Проведение летних и зимних корпоративов, дня именинника, совместные походы и т.д.\n\n📌Зарплата:\n• от 50 000 (Договорная, по итогу собеседования)\n\n☎️Контакты:\nKaterina","markup":[{"type":"hashtag","offset":6,"length":9,"data":"вакансия"},{"type":"hashtag","offset":16,"length":3,"data":"QA"},{"type":"hashtag","offset":20,"length":10,"data":"Ульяновск"},{"type":"hashtag","offset":31,"length":8,"data":"Саранск"},{"type":"hashtag","offset":40,"length":7,"data":"Казань"},{"type":"hashtag","offset":48,"length":7,"data":"Самара"},{"type":"hashtag","offset":56,"length":4,"data":"Уфа"},{"type":"hashtag","offset":61,"length":10,"data":"Краснодар"},{"type":"hashtag","offset":72,"length":5,"data":"офис"},{"type":"hashtag","offset":78,"length":17,"data":"удаленная_работа"}],"date":"2020-06-15T05:55:18+00:00","link":"tg://resolve?domain=qa_jobs&post=0","tags":[{"name":"qa"},{"name":"web"},{"name":"mobile"},{"name":"sql"},{"name":"git"},{"name":"windows"},{"name":"linux"}],"cities":[{"code":"ulyanovsk"},{"code":"saransk"},{"code":"kazan"},{"code":"samara"},{"code":"ufa"},{"code":"krasnodar"}],"allowsRemote":true}},{"node":{"id":"16907239424-1001110946746","title":"Javascript разработчик","text":"#вакансия #front #react #typescript #москва #генетика #javascript #геномэксперт #барсгруп\n\nГород и адрес офиса: Москва, ст.м.Павелецкая\nФормат работы: Офис\nЗанятость: полная.\nЗарплатная вилка: от 200 до 300 на руки. \nНазвание компании: Барс Груп\nhttps://bars.group/\nПроект Геном.Эксперт  - https://genome.expert/ \n\nТребуется senior front-end разработчик в крупный медицинский проект.\n\nПредметная область: Генетика.\nТекущее состояние проекта: Проект запущен с прошлого года, сейчас добираем команду по потребностям проекта, есть уникальная возможность принять участие в создании единого пространства для врачей-генетиков, лабораторных генетиков, биоинформатиков.\n\nЧем придется заниматься:\n\n-Писать микроприложения и компоненты на React;\n-Изучать исходники на Polymer, чтобы переехать на React и микросервисную архитектуру;\n\nТребования:\n\n-Front-end: React(Vue), typescript, Redux/Mobx/Vuex;\n-Межсервисное взаимодействие и API: REST/GraphQL/gRPC. \n\nИнструменты для работы: \n\nGit, bitbucket, JIRA, docker, docker-compose. \n\nУсловия:\n\n-Оформление по ТК РФ;\n-Работа в офисе в пешей доступности от ст.м.Павелецкая (на данный момент удаленка);\n-График 5/2, гибкое начало рабочего дня ;\n-Белая зарплата, повышающаяся по системе аттестаций несколько раз в год;\n-ДМС;\n-Перспективы карьерного роста;\n-Корпоративное обучение (тренинги, мастер-классы);\n-Корпоративная библиотека;\n-Мы рассматриваем кандидатов с возможностью переезда в Москву;\n-Возможность предоставления бесплатного жилья на первый месяц. \n\nКонтакты для связи: \n\nemail: a.starchenko@bars.group \nTelegram: @alinavelcheva \n\nbars.group\nАО «БАРС Груп» - официальный сайт компании\nАО «БАРС Груп» - российский производитель ИТ-решений и экспертный центр в сфере государственной и корпоративной информатизации.","markup":[{"type":"hashtag","offset":0,"length":9,"data":"вакансия"},{"type":"hashtag","offset":10,"length":6,"data":"front"},{"type":"hashtag","offset":17,"length":6,"data":"react"},{"type":"hashtag","offset":24,"length":11,"data":"typescript"},{"type":"hashtag","offset":36,"length":7,"data":"москва"},{"type":"hashtag","offset":44,"length":9,"data":"генетика"},{"type":"hashtag","offset":54,"length":11,"data":"javascript"},{"type":"hashtag","offset":66,"length":13,"data":"геномэксперт"},{"type":"hashtag","offset":80,"length":9,"data":"барсгруп"},{"type":"link","offset":246,"length":19,"data":"https://bars.group/"},{"type":"link","offset":290,"length":22,"data":"https://genome.expert/"},{"type":"link","offset":1523,"length":23,"data":"mailto:a.starchenko@bars.group"},{"type":"handle","offset":1558,"length":14,"data":"alinavelcheva"},{"type":"link","offset":1575,"length":10,"data":"http://bars.group"}],"date":"2020-06-14T19:01:43+00:00","link":"tg://resolve?domain=javascript_jobs_feed&post=16124","tags":[{"name":"javascript"},{"name":"reactjs"},{"name":"typescript"},{"name":"polymerjs"},{"name":"vuejs"},{"name":"redux"},{"name":"rest"},{"name":"graphql"},{"name":"git"},{"name":"docker"},{"name":"docker-compose"}],"cities":[{"code":"moscow"}],"allowsRemote":true}},{"node":{"id":"71269613568-1001054966032","title":"Mobile разработчик","text":"#вакансия #reactnative\nГород и адрес офиса: #Екатеринбург\nФормат работы: #удаленка\nЗанятость: полная\nКомпания: Just Search (https://just-search.net/)\nЗарплатная вилка: 120 - 140к (на руки)\n\nВсем привет! Меня зовут Валентина, я IT-рекрутер.  \nИщу разработчика на React Native \nМой клиент - компания из Екатеринбурга. Команда разрабатывает в основном стартапы для России, Европы и Америки.\nНа данный момент у компании более 50 выполненных проектов в России, Канаде, Европе, Израиле, Сингапуре и США.\nОснователи компании сами разработчики, поэтому никакой бюрократии и странных решений, процессы максимально простые и понятные\nСтек технологии: react-native, typescript, react native cli (не expo)\n\nТребования:\n- опыт разработки на react native с использованием react native cli (не expo) от 2 лет;\n- владение typescript;\n- опыт создания pixel-perfect верстки по макетам из figma (или аналогичных платформ) от 2 лет.\n\nЗадачи, которые предстоит решать:\n- интеграция со списком контактов;\n- интеграция с календарем;\n- отправка сообщений в установленные на смартфоне мессенджеры;\n- интеграция с фотокамерой;\n- отправка фотографий в популярные соцсети;\n- отправка почты через email-клиент смартфона;\n- совершение вызова с помощью смартфона;\n- реализация механизма автоматического уведомления о выходе новых версий приложения;\n- реализация поддержки нескольких языков (русский, английский);\n- реализация интерактивной карты.\n\nКонтакты: \nТелеграм @justsearchagency \nEmail: v.kazantseva@just-search.net","markup":[{"type":"hashtag","offset":0,"length":9,"data":"вакансия"},{"type":"hashtag","offset":10,"length":12,"data":"reactnative"},{"type":"hashtag","offset":44,"length":13,"data":"Екатеринбург"},{"type":"hashtag","offset":73,"length":9,"data":"удаленка"},{"type":"link","offset":124,"length":24,"data":"https://just-search.net/"},{"type":"handle","offset":1437,"length":17,"data":"justsearchagency"},{"type":"link","offset":1463,"length":28,"data":"mailto:v.kazantseva@just-search.net"}],"date":"2020-06-14T15:33:36+00:00","link":"tg://resolve?domain=mobile_jobs&post=0","tags":[{"name":"mobile"},{"name":"dotnet"},{"name":"reactjs"},{"name":"typescript"},{"name":"react-native"}],"cities":[],"allowsRemote":true}}]}},"context":{}}