{"hash":"f34fd2c444a074f4e0e67d525015a008ef8e766f","data":{"records":{"id":"sql","name":"sql","belongsTo":{"totalCount":108,"pageInfo":{"totalPages":11,"currentPage":6},"edges":[{"node":{"__typename":"Job","id":"1387266048-1001091028994","title":"Java разработчик","text":"Вакансия: #java #developer #senior #seniorjavadeveloper #офис\nКомпания: Fisgroup\nЛокация: #новосибирск #новосиб\nЗанятость: гибкий график\nЗ/п: 150 - 200К net\nКонтакты: @observer69\n\nCase Platform.\nОсновные продукты - кредитный фронт, управление рисками, системы по работе с просроченной задолженностью, системы принятия решений по кредитам, CRM-системы.\n\nЧем интересна наша вакансия:\n- достойный уровень заработной платы, обсудим ваши пожелания;\n- рост заработной платы вместе с ростом квалификации;\n- офис в Академпарке;\n- корпоративный транспорт\n- профессиональное развитие;\n- гибкий график;\n- доброжелательный коллектив;\n- веселые корпоративы в кругу коллег;\n\nВам предстоит:\n- анализ и уточнение требований к реализуемым задачам.\n- участие в разработке технических решений.\n- разработка и тестирование java-кода системы.\n- участие в документировании разработанной функциональности\n- анализ нетривиальных проблем возникающих у пользователей системы.\n- взаимодействие с другими участниками команды( java- и веб- разработчиками, тестировщиками) для обеспечения согласованности и качества разработки.\n- учет собственного рабочего времени.\n\nТребования: \n- понимание основ computer science (алгоритмы и структуры данных, вычислительная сложность, производительность, надежность...).\n- знание и умение применять шаблоны проектирования.\n- понимание принципов объектно-ориентированного программирования и дизайна.\n- понимание проблем параллельного программирования и способов их решения.\n- понимание основ криптографии и обеспечения безопасности данных.\n- умение диагностировать и решать проблемы производительности.\n- системное мышление.\n- знание платформы Java EE 6 и выше, опыт программирования на языке Java.\n- опыт работы с XML, JSON, ORM (JPA, Hibernate).\n- знание SQL (Oracle, PostgreSQL или любой другой диалект).\n- опыт командной работы.\n- опыт работы с системами контроля версий и автоматизации процесса разработки.\n\nБудет плюсом:\n-участие в разработке архитектуры систем;\n- профильное образование;\n- опыт участия в разработке сложных разнородных систем;\n- знание теории формальных языков и принципов построения трансляторов;\n- использование программных продуктов и инструментов для построения распределенных систем (кластеризация, микросервисы)\nПрофильное образование;\nОпыт участия в разработке сложных разнородных систем;\nЗнание теории формальных языков и принципов построения трансляторов;\nИспользование программных продуктов и инструментов для построения распределенных систем (кластеризация, микросервисы)","markup":[{"type":"bold","offset":0,"length":8,"data":""},{"type":"hashtag","offset":10,"length":5,"data":"java"},{"type":"hashtag","offset":16,"length":10,"data":"developer"},{"type":"hashtag","offset":27,"length":7,"data":"senior"},{"type":"hashtag","offset":35,"length":20,"data":"seniorjavadeveloper"},{"type":"hashtag","offset":56,"length":5,"data":"офис"},{"type":"bold","offset":62,"length":9,"data":""},{"type":"bold","offset":81,"length":8,"data":""},{"type":"hashtag","offset":90,"length":12,"data":"новосибирск"},{"type":"hashtag","offset":103,"length":8,"data":"новосиб"},{"type":"bold","offset":112,"length":9,"data":""},{"type":"bold","offset":157,"length":9,"data":""},{"type":"handle","offset":167,"length":11,"data":"observer69"},{"type":"bold","offset":353,"length":29,"data":""},{"type":"bold","offset":661,"length":15,"data":""},{"type":"bold","offset":1137,"length":13,"data":""},{"type":"bold","offset":1919,"length":14,"data":""}],"date":"2020-03-26T09:02:32+00:00","link":"tg://resolve?domain=jvmjobs&post=1323","tags":[{"name":"java"},{"name":"jvm"},{"name":"dotnet"},{"name":"xml"},{"name":"json"},{"name":"orm"},{"name":"jpa"},{"name":"hibernate"},{"name":"sql"},{"name":"oracle"},{"name":"postgresql"}],"cities":[{"code":"novosibirsk"}],"allowsRemote":false}},{"node":{"__typename":"Job","id":"1385168896-1001091028994","title":"Java разработчик","text":"#backend #java #senior #middle #javaEE\nКомпания: #Сбербанк\nЛокация: #Москва #бцчайка\nЗ/п: 220 000 - 270 000 net + бонус \nКонтакты: @nas_vas , +79234620351\n\nМы разрабатываем  новую систему Argus – это фронт-система для работы банковских сотрудников, участвующих в процессах корпоративного кредитования, предоставляющая сервисы по риск-инструментам, и являющаяся мастер-системой по хранению риск-метрик корпоративного сектора. У нас 8 продуктовых команд, порядка 5000 пользователей, 30-50 тысяч расчетов в неделю.\nНаш тех.стек: ОС - Centos , Red Hat; СП – IBM Websphere AppServer , Wildfly; СУБД Oracle, PostgreSQL\nУправление требованиями: Jira, Confluenсe + Jenkins, Ansible, Git (Bitbucket). \nТехнологии и инструменты разработки:\n• Сервер приложения - WS\n• СУБД Оракл\n• Java 8, \n• Управление требованиями: Jira, Confluenсe\n• DevOps: Jenkins, Nexus \n\nКлючевые навыки:\n• Опыт работы с ОС Linux, СУБД Oracle;\n• Языки программирования Java EE, sql;\n• Опыт работы с многопоточностью\n• Опыт написания unit-тестов.","markup":[{"type":"hashtag","offset":0,"length":8,"data":"backend"},{"type":"hashtag","offset":9,"length":5,"data":"java"},{"type":"hashtag","offset":15,"length":7,"data":"senior"},{"type":"hashtag","offset":23,"length":7,"data":"middle"},{"type":"hashtag","offset":31,"length":7,"data":"javaEE"},{"type":"hashtag","offset":49,"length":9,"data":"Сбербанк"},{"type":"hashtag","offset":68,"length":7,"data":"Москва"},{"type":"hashtag","offset":76,"length":8,"data":"бцчайка"},{"type":"handle","offset":131,"length":8,"data":"nas_vas"},{"type":"link","offset":142,"length":12,"data":"tel:+79234620351"}],"date":"2020-03-25T15:11:49+00:00","link":"tg://resolve?domain=jvmjobs&post=1321","tags":[{"name":"java"},{"name":"jvm"},{"name":"dotnet"},{"name":"centos"},{"name":"oracle"},{"name":"postgresql"},{"name":"jenkins"},{"name":"ansible"},{"name":"git"},{"name":"linux"},{"name":"sql"}],"cities":[{"code":"moscow"}],"allowsRemote":false}},{"node":{"__typename":"Job","id":"1384120320-1001091028994","title":"Java разработчик","text":"#java #офис # Москва \nГород: Москва\nФормат работы: офис\nЗанятость: полная занятость, постоянная работа\nЗарплата:  от 200 до 280 на руки (+ есть годовой бонус)\nМы молодая команда внутри Сбербанка, занимаемся разработкой и внедрением нового мобильного приложения Сбербанк Инвестор, которое должно вывести из эксплуатации текущее решение для инвестиций от Сбербанка.\n\nОбязанности:\n\n- Проектирование архитектуры приложения;\n- Проектирование интерфейсов взаимодействия между компонентами системы и внешними системами;\n- Проектирование хранилища данных;\n- Разработка и поддержка приложений на Java;\n- Написание unit-тестов, проведение code review;\n- Подготовка документации.\n\nТребования:\n\n- Широкий технический кругозор в современных информационных технологиях;\n- Знание технологий и методов интеграции информационных систем;\n- Знание и опыт применения средств масштабирования и отказоустойчивости;\n- Опыт разработки приложений на Java от трех лет;\n- Опыт разработки приложений с использованием Spring / Spring Boot;\n- Опыт работы с DevOps инструментами (jenkins, ansible, maven, gradle, git, etc.);\n- Знание PL/pgSQL или PL/SQL.\n\nКомпания: Сбербанк\nВопросы можно задать тут @vsevkosmo","markup":[{"type":"hashtag","offset":0,"length":5,"data":"java"},{"type":"hashtag","offset":6,"length":5,"data":"офис"},{"type":"handle","offset":1169,"length":10,"data":"vsevkosmo"}],"date":"2020-03-25T15:00:25+00:00","link":"tg://resolve?domain=jvmjobs&post=1320","tags":[{"name":"java"},{"name":"jvm"},{"name":"spring"},{"name":"jenkins"},{"name":"ansible"},{"name":"maven"},{"name":"gradle"},{"name":"git"},{"name":"sql"},{"name":"spring-boot"}],"cities":[{"code":"moscow"}],"allowsRemote":false}},{"node":{"__typename":"Job","id":"23929552896-1001075660570","title":"Php developer","text":"#вакансия #Moscow #php #laravel #fulltime #office \n\n📌Вакансия: #PHP Middle developer\n📌Город: #Москва (м. Ботанический сад)\n📌ЗП: 150К net (готовы рассмотреть ваши ожидания)\n📌Занятость: полная / офис \n📌Компания: АСНА (https://www.asna.ru/)\n\n✅АСНА - крупнейшее объединение аптечных сетей в России и странах СНГ. Это экосистема сервисов и продуктов, нацеленная на улучшение и развитие фармацевтического рынка России.\n\n👆Задачи:\n• создание и развитие b2c и b2b web-проектов компании;\n• участие в командной работе по разработке крупных\n• создание новых проектов компании с нуля;\n• оптимизация существующего PHP-кода и SQL-запросов.\n\n👍Что мы готовы предложить:\n• официальная (белая) заработная плата и мы соблюдаем ТК РФ.\n• переход на удаленку через 6 месяцев работы в компании; \n• мы обеспечим Вам комфортное рабочее место, мощное железо и два монитора J.\n• у нас нет бюрократии, плюс Вы сможете сами выбрать удобное время начала дня.\n• мы профессионально развиваем наших сотрудников – отправляем на курсы и профильные конференции.\n• мы следим за питанием наших сотрудников и компенсируем обеды.\n• мы даем возможность вносить свои идеи!\n• до нашего офиса можно дойти пешком от м. «Ботанический сад».\n\n🔥Наши ожидания:\n• опыт разработки на PHP от 1 года;\n• обязательно знание фреймворка Laravel;\n• опыт создания интеграционных решений с обменом информацией (JSON, XML, SOAP);\n• опыт проектирования БД и оптимизации SQL-запросов;\n• написание кода с комментариями в стиле phpDoc;\n• написание Unit тестов;\n• умение писать отказоустойчивые надежные автоматизированные системы;\n• навыки работы с *nix-системами;\n• опыт командной разработки с использованием системы контроля версий Git или Mercurial.\n\nКонтакты:\n@prynik95 \npatokova.nastya95@mail.ru","markup":[{"type":"hashtag","offset":0,"length":9,"data":"вакансия"},{"type":"hashtag","offset":10,"length":7,"data":"Moscow"},{"type":"hashtag","offset":18,"length":4,"data":"php"},{"type":"hashtag","offset":23,"length":8,"data":"laravel"},{"type":"hashtag","offset":32,"length":9,"data":"fulltime"},{"type":"hashtag","offset":42,"length":7,"data":"office"},{"type":"hashtag","offset":64,"length":4,"data":"PHP"},{"type":"hashtag","offset":95,"length":7,"data":"Москва"},{"type":"link","offset":221,"length":20,"data":"https://www.asna.ru/"},{"type":"handle","offset":1705,"length":9,"data":"prynik95"},{"type":"link","offset":1716,"length":25,"data":"mailto:patokova.nastya95@mail.ru"}],"date":"2020-03-25T07:00:53+00:00","link":"tg://resolve?domain=php_jobs&post=22821","tags":[{"name":"php"},{"name":"laravel"},{"name":"dotnet"},{"name":"web"},{"name":"sql"},{"name":"json"},{"name":"xml"},{"name":"soap"},{"name":"git"},{"name":"mercurial"}],"cities":[{"code":"moscow"}],"allowsRemote":false}},{"node":{"__typename":"Job","id":"23928504320-1001075660570","title":"Php разработчик","text":"#вакансия #Екатеринбург #екб #fulltime #php7 #Yii\nООО \"66 Бит\" — профессиональный разработчик программного обеспечения, специализирующийся на разработке под заказ не типовых IT проектов, ориентированных на международные рынки и крупных государственных заказчиков.\n\nВ связи с расширением компании, мы готовы взять в нашу команду талантливого и целеустремленного PHP разработчика.\n\nНаша основная специализация - разработка сложных программных продуктов на заказ. Мы будем рады всем тем, для кого IT – это призвание и любимое занятие.\n\nОбязанности:\n\n🏅разрабатывать backend-часть сайтов / сервисов;\n🏅разрабатывать CRUD админку на Yii2;\n🏅разрабатывать RESTful API на Yii2;\n\nТребования:\n🏅уверенные знание PHP 7‚ ООП;\n🏅знание Yii2 (или аналогичного фреймворка);\n🏅знание БД (MySQL‚ PostgreSQL): хорошее знание SQL‚ знание тонкостей оптимизации запросов;\n🏅уверенные знания HTML/HTML5‚ CSS‚ AJAX‚ препроцессоры;\n🏅опыт использования системы контроля версий – Git.\n\nБудет плюсом:\n🏅опыт работы с Gitlab-ci, Vue.js, Jira, Confluence;\n🏅опыт внедрения GraphQL в API.\n\nНаш стек технологий:\n🏅Инфраструктура на базе Docker и Gitlab-CI на собственных серверах (CI/CD);\n🏅Elastiсsearch + Kibana для поиска и анализа данных;\n🏅MySQL, PostgreSQL;\n🏅PHP 7+ Yii2;\n🏅Mysql, Redis, RabbitMQ;\n🏅Vue.js на фронте.\n\nУсловия:\n\n🔎Интересные задачи;\n👩🏼‍💻👨🏽‍💻Дружный молодой коллектив;\n⏱Плавающее начало рабочего дня;\n🏢Офис в центре, удобная транспортная развязка;\n📈Большие возможности профессионального роста;\n\n💰Вознаграждение зависит от уровня квалификации и устанавливается по итогам выполнения тестового задания;\n🍪🥤Кола, печеньки, чай, кофе и сок в ассортименте.\n\nКонтакты: @chapnow","markup":[{"type":"hashtag","offset":0,"length":9,"data":"вакансия"},{"type":"hashtag","offset":10,"length":13,"data":"Екатеринбург"},{"type":"hashtag","offset":24,"length":4,"data":"екб"},{"type":"hashtag","offset":29,"length":9,"data":"fulltime"},{"type":"hashtag","offset":39,"length":5,"data":"php7"},{"type":"hashtag","offset":45,"length":4,"data":"Yii"},{"type":"handle","offset":1666,"length":8,"data":"chapnow"}],"date":"2020-03-25T05:44:55+00:00","link":"tg://resolve?domain=php_jobs&post=22820","tags":[{"name":"php"},{"name":"yii"},{"name":"mysql"},{"name":"postgresql"},{"name":"sql"},{"name":"html"},{"name":"css"},{"name":"ajax"},{"name":"git"},{"name":"gitlab"},{"name":"vuejs"},{"name":"graphql"},{"name":"docker"},{"name":"redis"},{"name":"rabbitmq"}],"cities":[],"allowsRemote":false}},{"node":{"__typename":"Job","id":"23913824256-1001075660570","title":"Php developer","text":"#вакансия  #спб  #fulltime #офис #php7  #Yii # Go #senior\n📍Кого ищем: Senior PHP/Go Developer\n📍Город: Санкт-Петербург, м. Петроградская\n📍Формат работы: офис, полная занятость\n💰Заработная плата: до 200 К на руки (обсудим на собеседовании)\nПривет, мы компания Фотосклад/АВС.ru, TOP3 e-commerce Санкт-Петербурга.\n🔎Мы ищем ведущего backend-девелопера в группу архитектуры и микросервисов , который владеет стеком PHP7 + Go.\nМы работаем в стандартном пятидневном графике, с возможностью немного двигать начало и окончание рабочего дня. Территориально мы располагаемся в шаговой доступности от м.Петроградская. В нашем офисе есть все стандартные плюшки (как кофе и печеньки), а также кикер, плойка и настолки. \n📌Наш стек:\nPHP7, Go, ElasticSearch, Postgres, Kafka, ELK, gitlab CI\n📌Мы ждем, что наш кандидат:\n- Уверенно знает PHP7 и хорошо знает Go;\n- Интересуется  архитектурой информационных систем;\n- Понимает ООП, SOLID, шаблоны проектирования, гексагональную архитектуру;\n- Владеет одним из фреймворков Yii2, Laravel, Symfony;\n- Понимает микросервисную архитектуру, Event-Driven Architecture;\n- Отличное знание баз данных SQL, NoSQL;\n\nПо всем вопросам: @minataly","markup":[{"type":"hashtag","offset":0,"length":9,"data":"вакансия"},{"type":"hashtag","offset":11,"length":4,"data":"спб"},{"type":"hashtag","offset":17,"length":9,"data":"fulltime"},{"type":"hashtag","offset":27,"length":5,"data":"офис"},{"type":"hashtag","offset":33,"length":5,"data":"php7"},{"type":"hashtag","offset":40,"length":4,"data":"Yii"},{"type":"hashtag","offset":50,"length":7,"data":"senior"},{"type":"link","offset":272,"length":6,"data":"http://АВС.ru"},{"type":"handle","offset":1157,"length":9,"data":"minataly"}],"date":"2020-03-24T12:29:47+00:00","link":"tg://resolve?domain=php_jobs&post=22806","tags":[{"name":"php"},{"name":"yii"},{"name":"elasticsearch"},{"name":"postgresql"},{"name":"kafka"},{"name":"gitlab"},{"name":"laravel"},{"name":"symfony"},{"name":"sql"},{"name":"nosql"}],"cities":[],"allowsRemote":false}},{"node":{"__typename":"Job","id":"1379926016-1001091028994","title":"Java developer","text":"#team #lead #java #developer\nкомпания:#сбербанк\nлокация: #ростовнадону #рнд\nЗ/п: 160- 220 к. \nконтакты: @Natalyatur\n\n\nМы ожидаем, что Вы: \n· Имееете опыт разработки в Java.\n· Умение проектировать сложные решения для отказоустойчивых и высоконагруженных систем.\n· Умение управлять группой разработки.\n· Глубокие знания в Collections API, Stream API, Fork/Join Framework, Reflection API и Java Generics.· Глубокие знания в Spring Boot, Spring Data, Spring Jpa, Spring Security.\n· Глубокие знание SQL.\n· Знание REST-сервисов\n· Написание кода с поддержкой unit-тестов.\n· Знание GIT\n\nВам предстоит: \n· Выполнять задачи по разработке.\n· Обеспечивать оптимальный процесс взаимодействия внутри команды и со смежными подразделениями.\n· Выполнять планирование спринтов и следить за ходом выполнения.\n· Управлять группой разработки.\n· Проектировать техническую архитектуру решений.\n· Управлять архитектурой проекта.\n· Выполнение code review.\n· Развивать «младших» коллег и обучать новых членов команды.\n· Участвовать в приемочных испытаниях и проводить встречи с заказчиком на техническом уровне.\n· Разрабатывать техническую документацию.\n\nРабота у нас — это:\n\n• Команда профессионалов, готовых поддержать ваши инициативы;\n• Мощное железо, дополнительные мониторы и всё, что нужно для продуктивной работы;\n• Возможность работы с новыми технологиями;\n• Обучение за счёт компании;\n• ДМС;\n• Прозрачная система бонусов и премий, достойная зарплата — размер обсудим на собеседовании","markup":[{"type":"hashtag","offset":0,"length":5,"data":"team"},{"type":"hashtag","offset":6,"length":5,"data":"lead"},{"type":"hashtag","offset":12,"length":5,"data":"java"},{"type":"hashtag","offset":18,"length":10,"data":"developer"},{"type":"hashtag","offset":38,"length":9,"data":"сбербанк"},{"type":"hashtag","offset":57,"length":13,"data":"ростовнадону"},{"type":"hashtag","offset":71,"length":4,"data":"рнд"},{"type":"handle","offset":104,"length":11,"data":"Natalyatur"}],"date":"2020-03-24T12:19:16+00:00","link":"tg://resolve?domain=jvmjobs&post=1316","tags":[{"name":"java"},{"name":"jvm"},{"name":"spring"},{"name":"jpa"},{"name":"sql"},{"name":"rest"},{"name":"git"},{"name":"spring-boot"},{"name":"spring-data"},{"name":"spring-security"}],"cities":[],"allowsRemote":false}},{"node":{"__typename":"Job","id":"1378877440-1001091028994","title":"Java developer","text":"#вакансия #backend #javadeveloper #java #spb\nЛокация: Санкт-Петербург, станция метро Петроградская\nЗанятость: полная/ офис / гибкое начало рабочего дня\nЗарплата: от 180 000 net\nКомпания: ТетраСофт\nКонтакты: @dproto (Telegram), darya.protopopova@tetra-soft.ru\n\nКомпания ТетраСофт разрабатывает крутые информационные системы для сопровождения строительства нефтяных и газовых скважин (удаленный мониторинг различных параметров, аналитика на основе полученных данных, сбор и формирование отчётов).\nВ данный момент мы разрабатываем новый функционал платформы (SSO + modules).\nДля этого мы хотим усилить команду и приглашаем вас стать её частью.\n\nТехнологический стек разработки:\nJava 8, Spring, Hibernate, Elasticsearch, NATS, JUnit, MySQL, OAuth 2.0.\n\nЧто нужно будет делать:\n• Реализовывать алгоритмы работы с данными\n• Прорабатывать функциональные блоки бекенд части от проектирования до реализации\n• Участвовать в code review\n• Проектировать API\n\nЖдем от вас:\n• Опыт коммерческой разработки от 3-х лет\n• Хорошее знание Java core\n• Spring Boot (Security, MVC, REST Docs)\n• Hibernate 4+\n• Знание какого-либо SQL сервера\n• Знание алгоритмов и структур данных\n• Умение писать junit тесты\n• Понимание уязвимостей от OWASP Top 10\n• Умение работать с системой контроля версия (git)\n• Знание минимум одной системы сборки (ant, maven, gradle)\n\nБудет плюсом:\n• NoSQL\n• Docker\n• Знание коммуникационных протоколов (в том числе промышленных)\n• Опыт работы в Linux системах\n• Elasticsearch\n• Опыт работы с message broker\n• Знание других языков программирования\n• Понимание SOLID-принципов\n\nОт нас:\n• Гибкое начало рабочего дня (с 9:00 до 11:00);\n• Интересные проекты с возможностью карьерного роста;\n• Ежегодная премия по итогам работы;\n• Ежегодный пересмотр заработной платы по результатам работы;\n• ДМС после успешного прохождение ИС (включая стоматологию);\n• Компенсация питания;\n• Бесплатные курсы английского языка на территории офиса;\n• Возможность профильного обучения за счёт компании (оплата конференций, курсов);\n• Кикер, настолки, турник, XBox, корпоративные мероприятия;\n• Корпоративный волейбол на песке;\n• Иногородним соискателям помощь в релокации.","markup":[{"type":"hashtag","offset":0,"length":9,"data":"вакансия"},{"type":"hashtag","offset":10,"length":8,"data":"backend"},{"type":"hashtag","offset":19,"length":14,"data":"javadeveloper"},{"type":"hashtag","offset":34,"length":5,"data":"java"},{"type":"hashtag","offset":40,"length":4,"data":"spb"},{"type":"bold","offset":45,"length":8,"data":""},{"type":"bold","offset":99,"length":10,"data":""},{"type":"bold","offset":152,"length":9,"data":""},{"type":"bold","offset":177,"length":9,"data":""},{"type":"bold","offset":197,"length":9,"data":""},{"type":"handle","offset":207,"length":7,"data":"dproto"},{"type":"link","offset":227,"length":31,"data":"mailto:darya.protopopova@tetra-soft.ru"},{"type":"bold","offset":642,"length":31,"data":""},{"type":"bold","offset":749,"length":23,"data":""},{"type":"bold","offset":947,"length":12,"data":""},{"type":"bold","offset":1335,"length":13,"data":""},{"type":"bold","offset":1577,"length":7,"data":""}],"date":"2020-03-24T10:39:20+00:00","link":"tg://resolve?domain=jvmjobs&post=1315","tags":[{"name":"java"},{"name":"jvm"},{"name":"dotnet"},{"name":"spring"},{"name":"hibernate"},{"name":"elasticsearch"},{"name":"junit"},{"name":"mysql"},{"name":"oauth"},{"name":"rest"},{"name":"sql"},{"name":"git"},{"name":"ant"},{"name":"maven"},{"name":"gradle"},{"name":"nosql"},{"name":"docker"},{"name":"linux"},{"name":"spring-boot"}],"cities":[],"allowsRemote":true}},{"node":{"__typename":"Job","id":"23911727104-1001075660570","title":"Php developer","text":"#вакансия #Moscow #php #laravel #fulltime #office \n\n📌Вакансия: #PHP Middle developer\n📌Город: #Москва (м. Ботанический сад)\n📌ЗП: 150К net (готовы рассмотреть ваши ожидания)\n📌Занятость: полная/ офис \n📌Компания: АСНА (https://www.asna.ru/)\n\n✅АСНА - крупнейшее объединение аптечных сетей в России и странах СНГ. Это экосистема сервисов и продуктов, нацеленная на улучшение и развитие фармацевтического рынка России.\n\n👆Задачи:\n• создание и развитие b2c и b2b web-проектов компании;\n• участие в командной работе по разработке крупных\n• создание новых проектов компании с нуля;\n• оптимизация существующего PHP-кода и SQL-запросов.\n\n👍Что мы готовы предложить:\n• официальная («белая») заработная плата и мы соблюдаем ТК РФ.\n• переход на удаленку через 6 месяцев работы в компании; \n• мы обеспечим Вам комфортное рабочее место, мощное железо и два монитора J.\n• у нас нет бюрократии, плюс Вы сможете сами выбрать удобное время начала дня.\n• мы профессионально развиваем наших сотрудников – отправляем на курсы и профильные конференции.\n• мы следим за питанием наших сотрудников и компенсируем обеды.\n• мы даем возможность вносить свои идеи!\n• до нашего офиса можно дойти пешком от м. «Ботанический сад».\n\n🔥Наши ожидания:\n• опыт разработки на PHP от 1 года;\n• обязательно знание фреймворка Laravel;\n• опыт создания интеграционных решений с обменом информацией (JSON, XML, SOAP);\n• опыт проектирования БД и оптимизации SQL-запросов;\n• написание кода с комментариями в стиле phpDoc;\n• написание Unit тестов;\n• умение писать отказоустойчивые надежные автоматизированные системы;\n• навыки работы с *nix-системами;\n• опыт командной разработки с использованием системы контроля версий Git или Mercurial.\n\n🤝Контакты: @Kate_Guseva","markup":[{"type":"hashtag","offset":0,"length":9,"data":"вакансия"},{"type":"hashtag","offset":10,"length":7,"data":"Moscow"},{"type":"hashtag","offset":18,"length":4,"data":"php"},{"type":"hashtag","offset":23,"length":8,"data":"laravel"},{"type":"hashtag","offset":32,"length":9,"data":"fulltime"},{"type":"hashtag","offset":42,"length":7,"data":"office"},{"type":"hashtag","offset":64,"length":4,"data":"PHP"},{"type":"hashtag","offset":95,"length":7,"data":"Москва"},{"type":"link","offset":220,"length":20,"data":"https://www.asna.ru/"},{"type":"handle","offset":1708,"length":12,"data":"Kate_Guseva"}],"date":"2020-03-24T10:16:52+00:00","link":"tg://resolve?domain=php_jobs&post=22804","tags":[{"name":"php"},{"name":"laravel"},{"name":"dotnet"},{"name":"web"},{"name":"sql"},{"name":"json"},{"name":"xml"},{"name":"soap"},{"name":"git"},{"name":"mercurial"}],"cities":[{"code":"moscow"}],"allowsRemote":false}},{"node":{"__typename":"Job","id":"1376780288-1001091028994","title":"Java разработчик","text":"Вакансия: #Middle #Java #SQL #Spring #JavaCore\nКомпания: #Rubbles\nЛокация: #Москва #МСК #Moscow\nЗ/П: 180-200кР NET\nКонтакты: @Julia_Nikolova\n\nВедущая российская IT-компания, занимающаяся разработкой решений для крупного бизнеса. Офисы в России и по всей Европе\n\nОпыт разработки на Java от 2х лет\n\nОбязанности:\n· Проектирование и написание кода\n· Участие в разработке продуктов, и в новых проектах\n· Устранение критических ошибок в системах\n\nТребования\n· Опыт работы со Spring стеком (Spring Boot, Spring Data, Spring MVC)\n· Уверенное знание Java Core\n· Умение работать с любой SQL базой данных\n\nУсловия: \n- Регулярные пересмотры заработной платы\n- Уютный офис в центре Москвы (кикер, пинг-понг, разные вкусности)\n- ДМС\n- Корпоративное обучение","markup":[{"type":"hashtag","offset":10,"length":7,"data":"Middle"},{"type":"hashtag","offset":18,"length":5,"data":"Java"},{"type":"hashtag","offset":24,"length":4,"data":"SQL"},{"type":"hashtag","offset":29,"length":7,"data":"Spring"},{"type":"hashtag","offset":37,"length":9,"data":"JavaCore"},{"type":"hashtag","offset":57,"length":8,"data":"Rubbles"},{"type":"hashtag","offset":75,"length":7,"data":"Москва"},{"type":"hashtag","offset":83,"length":4,"data":"МСК"},{"type":"hashtag","offset":88,"length":7,"data":"Moscow"},{"type":"handle","offset":125,"length":15,"data":"Julia_Nikolova"}],"date":"2020-03-24T09:40:32+00:00","link":"tg://resolve?domain=jvmjobs&post=1313","tags":[{"name":"java"},{"name":"jvm"},{"name":"sql"},{"name":"spring"},{"name":"dotnet"},{"name":"spring-boot"},{"name":"spring-data"},{"name":"spring-mvc"}],"cities":[{"code":"moscow"}],"allowsRemote":false}}]}}},"context":{}}