{"hash":"f34fd2c444a074f4e0e67d525015a008ef8e766f","data":{"records":{"id":"hibernate","name":"hibernate","belongsTo":{"totalCount":21,"pageInfo":{"totalPages":3,"currentPage":2},"edges":[{"node":{"__typename":"Job","id":"1411383296-1001091028994","title":"Java разработчик","text":"Вакансия: #java #developer #senior #seniorjavadeveloper #офис\nКомпания: Fisgroup\nЛокация: #новосибирск #новосиб\nЗанятость: гибкий график\nЗ/п: 150 - 200К net\nКонтакты: @observer69\n\nCase Platform.\nОсновные продукты - кредитный фронт, управление рисками, системы по работе с просроченной задолженностью, системы принятия решений по кредитам, CRM-системы.\n\nЧем интересна наша вакансия:\n- достойный уровень заработной платы, обсудим ваши пожелания;\n- рост заработной платы вместе с ростом квалификации;\n- офис в Академпарке;\n- корпоративный транспорт\n- профессиональное развитие;\n- гибкий график;\n- доброжелательный коллектив;\n- веселые корпоративы в кругу коллег;\n\nВам предстоит:\n- анализ и уточнение требований к реализуемым задачам.\n- участие в разработке технических решений.\n- разработка и тестирование java-кода системы.\n- участие в документировании разработанной функциональности\n- анализ нетривиальных проблем возникающих у пользователей системы.\n- взаимодействие с другими участниками команды( java- и веб- разработчиками, тестировщиками) для обеспечения согласованности и качества разработки.\n- учет собственного рабочего времени.\n\nТребования: \n- понимание основ computer science (алгоритмы и структуры данных, вычислительная сложность, производительность, надежность...).\n- знание и умение применять шаблоны проектирования.\n- понимание принципов объектно-ориентированного программирования и дизайна.\n- понимание проблем параллельного программирования и способов их решения.\n- понимание основ криптографии и обеспечения безопасности данных.\n- умение диагностировать и решать проблемы производительности.\n- системное мышление.\n- знание платформы Java EE 6 и выше, опыт программирования на языке Java.\n- опыт работы с XML, JSON, ORM (JPA, Hibernate).\n- знание SQL (Oracle, PostgreSQL или любой другой диалект).\n- опыт командной работы.\n- опыт работы с системами контроля версий и автоматизации процесса разработки.\n\nБудет плюсом:\n-участие в разработке архитектуры систем;\n- профильное образование;\n- опыт участия в разработке сложных разнородных систем;\n- знание теории формальных языков и принципов построения трансляторов;\n- использование программных продуктов и инструментов для построения распределенных систем (кластеризация, микросервисы)\nПрофильное образование;\nОпыт участия в разработке сложных разнородных систем;\nЗнание теории формальных языков и принципов построения трансляторов;\nИспользование программных продуктов и инструментов для построения распределенных систем (кластеризация, микросервисы)","markup":[{"type":"hashtag","offset":10,"length":5,"data":"java"},{"type":"hashtag","offset":16,"length":10,"data":"developer"},{"type":"hashtag","offset":27,"length":7,"data":"senior"},{"type":"hashtag","offset":35,"length":20,"data":"seniorjavadeveloper"},{"type":"hashtag","offset":56,"length":5,"data":"офис"},{"type":"hashtag","offset":90,"length":12,"data":"новосибирск"},{"type":"hashtag","offset":103,"length":8,"data":"новосиб"},{"type":"handle","offset":167,"length":11,"data":"observer69"}],"date":"2020-04-02T12:26:58+00:00","link":"tg://resolve?domain=jvmjobs&post=1346","tags":[{"name":"java"},{"name":"jvm"},{"name":"dotnet"},{"name":"xml"},{"name":"json"},{"name":"orm"},{"name":"jpa"},{"name":"hibernate"},{"name":"sql"},{"name":"oracle"},{"name":"postgresql"}],"cities":[{"code":"novosibirsk"}],"allowsRemote":false}},{"node":{"__typename":"Job","id":"1408237568-1001091028994","title":"Java разработчик","text":"#java #middle #senior #москва #рязань #ижевск #питер\nВакансия: Java-разработчик \nКомпания: https://jtc.ooo/\nРабота в одном из офисов: Москва, Рязань, Ижевск, Санкт-Петербург\nЗ/п: от 150 000 до 250 000 рублей\nФормат работы: офис\nЗанятость: полная \nСпециализация компании: с 2007 года работаем в области построения систем ДБО для юридических лиц, как на базе собственного решения, так и в области построения систем ДБО на заказ.\n\nОбязанности\n- проектирование и разработка backend высоконагруженного web-приложения с использованием микросервисной архитектуры\n- интеграция со сторонними сервисами\n- рефакторинг\n\nТребования\n- опыт работы с java  от 2 лет\n- Java 8, Hibernate, SQL(PostgreSQL/Oracle/MSSQL), Spring Framework, Maven/Gradle\n- знание основных алгоритмов и структур данных\n\nМы предлагаем\n- конкурентная заработная плата по результатам общения\n- соблюдение TK РФ\n- уютный офис и современная техника на рабочих местах\n- гибкий рабочий график с началом работы с 8:00 до 11:00\n- ДМС с расширенным набором услуг\n- интересные и нетривиальные задачи \n- возможность посещать семинары, тренинги, конференции\n- дружный коллектив профессионалов, комфортная атмосфера\n- возможность участия в крупных и интересных проектах\n\nКонтакты: @rita_kudryashova","markup":[{"type":"hashtag","offset":0,"length":5,"data":"java"},{"type":"hashtag","offset":6,"length":7,"data":"middle"},{"type":"hashtag","offset":14,"length":7,"data":"senior"},{"type":"hashtag","offset":22,"length":7,"data":"москва"},{"type":"hashtag","offset":30,"length":7,"data":"рязань"},{"type":"hashtag","offset":38,"length":7,"data":"ижевск"},{"type":"hashtag","offset":46,"length":6,"data":"питер"},{"type":"link","offset":91,"length":16,"data":"https://jtc.ooo/"},{"type":"handle","offset":1227,"length":17,"data":"rita_kudryashova"}],"date":"2020-04-01T09:07:17+00:00","link":"tg://resolve?domain=jvmjobs&post=1343","tags":[{"name":"java"},{"name":"jvm"},{"name":"web"},{"name":"hibernate"},{"name":"sql"},{"name":"postgresql"},{"name":"oracle"},{"name":"sql-server"},{"name":"spring"},{"name":"maven"},{"name":"gradle"}],"cities":[{"code":"moscow"},{"code":"ryazan"},{"code":"izhevsk"}],"allowsRemote":false}},{"node":{"__typename":"Job","id":"1405091840-1001091028994","title":"Java разработчик","text":"Вакансия: #java #spring #hibernate \nКомпания: #MTS\nЛокация: #Санкт-Петербург #Горьковская\nФормат работы: #работавофисе + иногда возможно удаленно работать\n✔️ЗП: 140-180 net (в замисимости от знаний и опыта)\nКонтакт: @alina_katkova почта: avkatko2@mts.ru\n\nВ рамках реализации платформы по обеспечению контроля, наблюдаемости и безопасности API (API gateway) ищем в команду Java разработчика.\n\nЦель продукта — предоставить командам средство управления жизненным циклом API и контроль передаваемых данных в соответствии с требованиями безопасности.\nЧто нужно делать: \n- Заниматься разработкой компонентов обработки и управления трафиком HTTP/S (веб-сервисы);\n- Реализовывать правила управления жизненным циклом API (Rest/SOAP);\n- Участвовать в разработке архитектуры и согласовании сценариев использования продукта.\nНаш стек:\n- Spring (boot, MVC, JPA), Hibernate, Liquibase;\n- Java 8 - 11;\n- Java 8 (Collections, I/O);\n- Multithreading (synchronization, java.util.concurrent);\n- PostgreSQL;\n- RabbitMQ;\n- Hazelcast;\n- Netflix (eureka, zuul, microservices);\n- ElasticSearch;\n- Docker;\n- Kubernetes;Git;\n- Maven;\n- Linux.\nУсловия:\n-штат, все по ТК РФ\n-премия 20% от годового оклада сверху\n-соц.пакет\n-удаленка на время карантина :)","markup":[{"type":"hashtag","offset":10,"length":5,"data":"java"},{"type":"hashtag","offset":16,"length":7,"data":"spring"},{"type":"hashtag","offset":24,"length":10,"data":"hibernate"},{"type":"hashtag","offset":46,"length":4,"data":"MTS"},{"type":"hashtag","offset":60,"length":6,"data":"Санкт"},{"type":"hashtag","offset":77,"length":12,"data":"Горьковская"},{"type":"hashtag","offset":105,"length":13,"data":"работавофисе"},{"type":"handle","offset":216,"length":14,"data":"alina_katkova"},{"type":"link","offset":238,"length":15,"data":"mailto:avkatko2@mts.ru"},{"type":"bold","offset":546,"length":16,"data":""},{"type":"bold","offset":813,"length":10,"data":""},{"type":"bold","offset":1117,"length":7,"data":""}],"date":"2020-04-01T06:15:37+00:00","link":"tg://resolve?domain=jvmjobs&post=1340","tags":[{"name":"java"},{"name":"jvm"},{"name":"spring"},{"name":"hibernate"},{"name":"dotnet"},{"name":"rest"},{"name":"soap"},{"name":"jpa"},{"name":"postgresql"},{"name":"rabbitmq"},{"name":"elasticsearch"},{"name":"docker"},{"name":"kubernetes"},{"name":"git"},{"name":"maven"},{"name":"linux"},{"name":"spring-boot"}],"cities":[],"allowsRemote":true}},{"node":{"__typename":"Job","id":"1401946112-1001091028994","title":"Java разработчик","text":"#java #вакансия #Москва #fulltime #middle #senior \nГород и адрес офиса: Москва, между метро Нагатинская и Тульская, мцк Верхние котлы \nФормат работы: офис\nЗанятость: полная\nОплата: 180-300 тыс. рублей\n\nОписание вакансии:\nКоманда Sber Product Catalog  ищет сильного Java-разработчика!🙌\nПроект Product Catalog-это облачное решение, которое позволяет бизнесу вести все свои продукты (карты, вклады, продукты партнеров и и.п) в едином месте, гибко управлять всеми элементами 4P (product,price, promotion, place) и мгновенно выводить все изменения на рынок. Архитектура системы состоит из 11 модулей, половина из них в Production, другая половина требует проектирования и разработки. Продукт активно развивается, поэтому мы хотим усилить нашу команду. От нас вы получите опыт и развитие компетенций, амбициозные задачи, карьерный рост и открытость к инновациям!\nСтек: Spring core/Security/Batch/Rest/HateOAS, ABACUSES,BPM,Versioning, Hibernate Envers/ORM/OGM, Apache Kafka, Jasper reports, Oracle/PostgreeSQL.\nПроцесс разработки : Scrum, Jira, Gitflow,Devops до Production (переход на OpenShift)\n-Оформление ТК РФ;\n     -ДМС;\n     - Белая заработная плата (оклад + годовая премия);\n     -Возможность обучения за счет компании;\n     -   Льготное кредитование;\n      -Бесплатный тренажерный зал на территории офиса;\n       - корпоративная жизнь и спортивные мероприятия;\n       -возможность карьерного роста.\n\nЖдём Вас в нашей команде!\n@TaliaHR","markup":[{"type":"hashtag","offset":0,"length":5,"data":"java"},{"type":"hashtag","offset":6,"length":9,"data":"вакансия"},{"type":"hashtag","offset":16,"length":7,"data":"Москва"},{"type":"hashtag","offset":24,"length":9,"data":"fulltime"},{"type":"hashtag","offset":34,"length":7,"data":"middle"},{"type":"hashtag","offset":42,"length":7,"data":"senior"},{"type":"handle","offset":1430,"length":8,"data":"TaliaHR"}],"date":"2020-03-31T08:49:56+00:00","link":"tg://resolve?domain=jvmjobs&post=1337","tags":[{"name":"java"},{"name":"jvm"},{"name":"spring"},{"name":"batch"},{"name":"rest"},{"name":"hibernate"},{"name":"orm"},{"name":"apache"},{"name":"kafka"},{"name":"oracle"}],"cities":[{"code":"moscow"}],"allowsRemote":false}},{"node":{"__typename":"Job","id":"1398800384-1001091028994","title":"Java developer","text":"Большой интергационный проект: разработка платформы финансового маркетплейса для физических лиц, проект  стартует в сентябре-декабре 2020 г. \n\nЗадачи на новый проект:\n\nНачать разработку и отладку BPM-слоя платформы, основанной на микросервисной архитектуре с использованием - Java 8; Spring Framework (Core, MVC, Boot); Camunda BPM; Apache Kafka; Hibernate; Docker; PostgreSQL. \n\nВзаимодействие со смежными командами и определение зон ответственности при реализации задач.\n\nПодготовка рекомендаций по внедрению новых технологии, решений, подходов.\n\nНастройка CI/CD процессов. \n\nТребования:\n\nГлубокие знание java core.\nОпыт в java от 3-х лет.\nЗнание подходов CI/CD. \nОтличные организационные и коммуникативные навыки. \n\nЛокация офиса: г. Москва, м. Арбатская/Библиотека им. Ленина/Боровицкая/Александровский сад. \nЗанятость: полная, официальное оформление в штат Компании. \nДМС: с первого рабочего дня. \nФормат работы: современный  офис возле кремля в шаговой доступности от метро (сейчас работаем из дома, возможно, после выхода в офисе многое поменяется))).\nКомпания: ПАО Московская биржа (Компания входящая в 500 - лучших работодателей мира по версии Forbes за 2019 год). \nУровень з/п:  230- 300 тыс.руб. + годовой бонус.\nФормат интервью: один этап интервью по Skype (60 минут). \nКоманда: абсолютно новая команда, почти (3 вакансии senior developer) сформирована за период февраль - март 2020 г. \n\n\nПишите в личку, отвечу на любые вопросы!\nКонтакты: @Sasha_P92","markup":[{"type":"handle","offset":1452,"length":10,"data":"Sasha_P92"}],"date":"2020-03-30T18:53:38+00:00","link":"tg://resolve?domain=jvmjobs&post=1334","tags":[{"name":"java"},{"name":"jvm"},{"name":"spring"},{"name":"apache"},{"name":"kafka"},{"name":"hibernate"},{"name":"docker"},{"name":"postgresql"}],"cities":[{"code":"moscow"}],"allowsRemote":false}},{"node":{"__typename":"Job","id":"1397751808-1001091028994","title":"Java разработчик","text":"Вакансия: #Java \nКомпания: #S-O-Services\nЛокация: #удаленнаяработа #remote #belarus #ukraine #balticstates\nЗ/п: 5000-6500$ gross\nКонтакты: @erzentd\nMust be able to translate business needs into effective technical solutions using core JAVA and common\nopensource libraries and frameworks.\n🔹 Must have practical implementation experience with Web Service RESTful API.\n🔹 Highly preferred with performance in encoding audio video in cloud platform.\n🔹 Experience with Java/J2EE technologies: Java, EJB3.0, JMS, JDBC, XML.\n🔹 Experience with application servers is a plus: Spring Boot, Jetty, Apache Tomcat, Wildfly.\n🔹 Experience with frameworks: Spring, Hibernate.\n🔹 Strong understanding of Java Multithreading and Daemons.\n🔹 Experience with the development tools a plus: Intellij, Git, JIRA\n🔹 Proven experience with interfacing to relational databases (particularly PostgreSQL, MySQL)\n🔹 Excellent troubleshooting skills with the ability to analyze and resolve difficult problems quickly\n🔹 Must have excellent written and verbal communication skills\n🔹 Familiarity with common branching strategies like Gitflow a plus\n🔹 Upper-intermediate English","markup":[{"type":"hashtag","offset":10,"length":5,"data":"Java"},{"type":"hashtag","offset":27,"length":2,"data":"S"},{"type":"hashtag","offset":50,"length":16,"data":"удаленнаяработа"},{"type":"hashtag","offset":67,"length":7,"data":"remote"},{"type":"hashtag","offset":75,"length":8,"data":"belarus"},{"type":"hashtag","offset":84,"length":8,"data":"ukraine"},{"type":"hashtag","offset":93,"length":13,"data":"balticstates"},{"type":"handle","offset":139,"length":8,"data":"erzentd"}],"date":"2020-03-30T18:44:36+00:00","link":"tg://resolve?domain=jvmjobs&post=1333","tags":[{"name":"java"},{"name":"jvm"},{"name":"web"},{"name":"cloud"},{"name":"jdbc"},{"name":"xml"},{"name":"spring"},{"name":"jetty"},{"name":"apache"},{"name":"tomcat"},{"name":"hibernate"},{"name":"git"},{"name":"postgresql"},{"name":"mysql"},{"name":"spring-boot"}],"cities":[],"allowsRemote":true}},{"node":{"__typename":"Job","id":"1388314624-1001091028994","title":"Java разработчик","text":"Вакансия: #java #developer #javadeveloper\nКомпания: #Эльдорадо \nЛокация: #москва #мск \nЗ/п: 170 - 190к net\nКонтакты: @observer69\n\nВ целях усиления команды разработки поискового сервиса интернет-магазина «Эльдорадо», ищем профессионального java-разработчика.\n\nЧем интересна наша вакансия:\n- ТК РФ;\n- Офис м. Красносельская/м. Бауманская;\n- Корпоративные скидки на продукцию компании;\n- Оформление ДМС после прохождения испытательного срока;\n- Опция для сотрудников \"система гибких льгот\", скидки сотрудникам от наших партнеров;\n- Конкурентоспособная, “белая” заработная плата (компенсационный пакет обсуждается индивидуально).\n\nВам предстоит:\n- Разработка поискового сервиса интернет-магазина «Эльдорадо», не UI;\n- Проектирование и реализация API;\n- Оценка разработки, проведение код-ревью;\n- Определение векторов развития/оптимизации сервиса;\n- Интеграция с внешними сервисами и системами.\n\nТехнологический стек:\n- java;\n- spring framework, spring boot, spring - cloud, spring batch;\n- git, gitlab, maven, teamcity;\n- hibernate, mysql;\n- elasticsearch;\n- mesos/marathon;\n- rabbitmq;\n- open API;\n- docker, k8s.\n\nТребования: \n- java 8 – уверенные знания, ООП, паттерны;\n- Понимание REST подхода к разработке API;\n- Опыт работы с Spring (Ioc, Data JPA, Boot, Cloud);\nhibernate;\n- Опыт профилирования и оптимизации производительности;\n- Опыт использования системы контроля версий git, а ткже понимание принципов её работы;\n- Английский на уровне чтения технической документации;\n- Базовые знания linux.\n\nБудет плюсом:\n- maven;\n- elasticsearch;\n- mesos/marathon\n- docker, k8s\n- groovy/spock","markup":[{"type":"bold","offset":0,"length":8,"data":""},{"type":"hashtag","offset":10,"length":5,"data":"java"},{"type":"hashtag","offset":16,"length":10,"data":"developer"},{"type":"hashtag","offset":27,"length":14,"data":"javadeveloper"},{"type":"bold","offset":42,"length":9,"data":""},{"type":"hashtag","offset":52,"length":10,"data":"Эльдорадо"},{"type":"bold","offset":64,"length":8,"data":""},{"type":"hashtag","offset":73,"length":7,"data":"москва"},{"type":"hashtag","offset":81,"length":4,"data":"мск"},{"type":"bold","offset":107,"length":9,"data":""},{"type":"handle","offset":117,"length":11,"data":"observer69"},{"type":"bold","offset":259,"length":29,"data":""},{"type":"bold","offset":627,"length":15,"data":""},{"type":"bold","offset":891,"length":22,"data":""},{"type":"bold","offset":1111,"length":13,"data":""},{"type":"bold","offset":1500,"length":14,"data":""}],"date":"2020-03-26T09:02:49+00:00","link":"tg://resolve?domain=jvmjobs&post=1324","tags":[{"name":"java"},{"name":"jvm"},{"name":"dotnet"},{"name":"spring"},{"name":"cloud"},{"name":"batch"},{"name":"git"},{"name":"gitlab"},{"name":"maven"},{"name":"hibernate"},{"name":"mysql"},{"name":"elasticsearch"},{"name":"rabbitmq"},{"name":"docker"},{"name":"rest"},{"name":"jpa"},{"name":"linux"},{"name":"groovy"},{"name":"spring-boot"}],"cities":[{"code":"moscow"}],"allowsRemote":false}},{"node":{"__typename":"Job","id":"1387266048-1001091028994","title":"Java разработчик","text":"Вакансия: #java #developer #senior #seniorjavadeveloper #офис\nКомпания: Fisgroup\nЛокация: #новосибирск #новосиб\nЗанятость: гибкий график\nЗ/п: 150 - 200К net\nКонтакты: @observer69\n\nCase Platform.\nОсновные продукты - кредитный фронт, управление рисками, системы по работе с просроченной задолженностью, системы принятия решений по кредитам, CRM-системы.\n\nЧем интересна наша вакансия:\n- достойный уровень заработной платы, обсудим ваши пожелания;\n- рост заработной платы вместе с ростом квалификации;\n- офис в Академпарке;\n- корпоративный транспорт\n- профессиональное развитие;\n- гибкий график;\n- доброжелательный коллектив;\n- веселые корпоративы в кругу коллег;\n\nВам предстоит:\n- анализ и уточнение требований к реализуемым задачам.\n- участие в разработке технических решений.\n- разработка и тестирование java-кода системы.\n- участие в документировании разработанной функциональности\n- анализ нетривиальных проблем возникающих у пользователей системы.\n- взаимодействие с другими участниками команды( java- и веб- разработчиками, тестировщиками) для обеспечения согласованности и качества разработки.\n- учет собственного рабочего времени.\n\nТребования: \n- понимание основ computer science (алгоритмы и структуры данных, вычислительная сложность, производительность, надежность...).\n- знание и умение применять шаблоны проектирования.\n- понимание принципов объектно-ориентированного программирования и дизайна.\n- понимание проблем параллельного программирования и способов их решения.\n- понимание основ криптографии и обеспечения безопасности данных.\n- умение диагностировать и решать проблемы производительности.\n- системное мышление.\n- знание платформы Java EE 6 и выше, опыт программирования на языке Java.\n- опыт работы с XML, JSON, ORM (JPA, Hibernate).\n- знание SQL (Oracle, PostgreSQL или любой другой диалект).\n- опыт командной работы.\n- опыт работы с системами контроля версий и автоматизации процесса разработки.\n\nБудет плюсом:\n-участие в разработке архитектуры систем;\n- профильное образование;\n- опыт участия в разработке сложных разнородных систем;\n- знание теории формальных языков и принципов построения трансляторов;\n- использование программных продуктов и инструментов для построения распределенных систем (кластеризация, микросервисы)\nПрофильное образование;\nОпыт участия в разработке сложных разнородных систем;\nЗнание теории формальных языков и принципов построения трансляторов;\nИспользование программных продуктов и инструментов для построения распределенных систем (кластеризация, микросервисы)","markup":[{"type":"bold","offset":0,"length":8,"data":""},{"type":"hashtag","offset":10,"length":5,"data":"java"},{"type":"hashtag","offset":16,"length":10,"data":"developer"},{"type":"hashtag","offset":27,"length":7,"data":"senior"},{"type":"hashtag","offset":35,"length":20,"data":"seniorjavadeveloper"},{"type":"hashtag","offset":56,"length":5,"data":"офис"},{"type":"bold","offset":62,"length":9,"data":""},{"type":"bold","offset":81,"length":8,"data":""},{"type":"hashtag","offset":90,"length":12,"data":"новосибирск"},{"type":"hashtag","offset":103,"length":8,"data":"новосиб"},{"type":"bold","offset":112,"length":9,"data":""},{"type":"bold","offset":157,"length":9,"data":""},{"type":"handle","offset":167,"length":11,"data":"observer69"},{"type":"bold","offset":353,"length":29,"data":""},{"type":"bold","offset":661,"length":15,"data":""},{"type":"bold","offset":1137,"length":13,"data":""},{"type":"bold","offset":1919,"length":14,"data":""}],"date":"2020-03-26T09:02:32+00:00","link":"tg://resolve?domain=jvmjobs&post=1323","tags":[{"name":"java"},{"name":"jvm"},{"name":"dotnet"},{"name":"xml"},{"name":"json"},{"name":"orm"},{"name":"jpa"},{"name":"hibernate"},{"name":"sql"},{"name":"oracle"},{"name":"postgresql"}],"cities":[{"code":"novosibirsk"}],"allowsRemote":false}},{"node":{"__typename":"Job","id":"1378877440-1001091028994","title":"Java developer","text":"#вакансия #backend #javadeveloper #java #spb\nЛокация: Санкт-Петербург, станция метро Петроградская\nЗанятость: полная/ офис / гибкое начало рабочего дня\nЗарплата: от 180 000 net\nКомпания: ТетраСофт\nКонтакты: @dproto (Telegram), darya.protopopova@tetra-soft.ru\n\nКомпания ТетраСофт разрабатывает крутые информационные системы для сопровождения строительства нефтяных и газовых скважин (удаленный мониторинг различных параметров, аналитика на основе полученных данных, сбор и формирование отчётов).\nВ данный момент мы разрабатываем новый функционал платформы (SSO + modules).\nДля этого мы хотим усилить команду и приглашаем вас стать её частью.\n\nТехнологический стек разработки:\nJava 8, Spring, Hibernate, Elasticsearch, NATS, JUnit, MySQL, OAuth 2.0.\n\nЧто нужно будет делать:\n• Реализовывать алгоритмы работы с данными\n• Прорабатывать функциональные блоки бекенд части от проектирования до реализации\n• Участвовать в code review\n• Проектировать API\n\nЖдем от вас:\n• Опыт коммерческой разработки от 3-х лет\n• Хорошее знание Java core\n• Spring Boot (Security, MVC, REST Docs)\n• Hibernate 4+\n• Знание какого-либо SQL сервера\n• Знание алгоритмов и структур данных\n• Умение писать junit тесты\n• Понимание уязвимостей от OWASP Top 10\n• Умение работать с системой контроля версия (git)\n• Знание минимум одной системы сборки (ant, maven, gradle)\n\nБудет плюсом:\n• NoSQL\n• Docker\n• Знание коммуникационных протоколов (в том числе промышленных)\n• Опыт работы в Linux системах\n• Elasticsearch\n• Опыт работы с message broker\n• Знание других языков программирования\n• Понимание SOLID-принципов\n\nОт нас:\n• Гибкое начало рабочего дня (с 9:00 до 11:00);\n• Интересные проекты с возможностью карьерного роста;\n• Ежегодная премия по итогам работы;\n• Ежегодный пересмотр заработной платы по результатам работы;\n• ДМС после успешного прохождение ИС (включая стоматологию);\n• Компенсация питания;\n• Бесплатные курсы английского языка на территории офиса;\n• Возможность профильного обучения за счёт компании (оплата конференций, курсов);\n• Кикер, настолки, турник, XBox, корпоративные мероприятия;\n• Корпоративный волейбол на песке;\n• Иногородним соискателям помощь в релокации.","markup":[{"type":"hashtag","offset":0,"length":9,"data":"вакансия"},{"type":"hashtag","offset":10,"length":8,"data":"backend"},{"type":"hashtag","offset":19,"length":14,"data":"javadeveloper"},{"type":"hashtag","offset":34,"length":5,"data":"java"},{"type":"hashtag","offset":40,"length":4,"data":"spb"},{"type":"bold","offset":45,"length":8,"data":""},{"type":"bold","offset":99,"length":10,"data":""},{"type":"bold","offset":152,"length":9,"data":""},{"type":"bold","offset":177,"length":9,"data":""},{"type":"bold","offset":197,"length":9,"data":""},{"type":"handle","offset":207,"length":7,"data":"dproto"},{"type":"link","offset":227,"length":31,"data":"mailto:darya.protopopova@tetra-soft.ru"},{"type":"bold","offset":642,"length":31,"data":""},{"type":"bold","offset":749,"length":23,"data":""},{"type":"bold","offset":947,"length":12,"data":""},{"type":"bold","offset":1335,"length":13,"data":""},{"type":"bold","offset":1577,"length":7,"data":""}],"date":"2020-03-24T10:39:20+00:00","link":"tg://resolve?domain=jvmjobs&post=1315","tags":[{"name":"java"},{"name":"jvm"},{"name":"dotnet"},{"name":"spring"},{"name":"hibernate"},{"name":"elasticsearch"},{"name":"junit"},{"name":"mysql"},{"name":"oauth"},{"name":"rest"},{"name":"sql"},{"name":"git"},{"name":"ant"},{"name":"maven"},{"name":"gradle"},{"name":"nosql"},{"name":"docker"},{"name":"linux"},{"name":"spring-boot"}],"cities":[],"allowsRemote":true}},{"node":{"__typename":"Job","id":"1377828864-1001091028994","title":"Java разработчик","text":"Вакансия: #java #spring #hibernate \nКонцепция: #IoT\nКомпания: #MTS\nЛокация: #Москва #Комсомольская #Красныеворота\nФормат работы: #работавофисе + иногда возможно удаленно работать\nЗП: 150-200 net (в замисимости от знаний и опыта)\nКонтакт: @alina_katkova почта: avkatko2@mts.ru\n\nВ команду IoT, трайба отраслевых решений требуется java-разработчик. Трайб отраслевых решений – направление внутри МТС, которое осуществляет разработку полного цикла инновационных продуктов в B2B и B2C сегментах. Основное направление – инновационные продукты в сфере интернета вещей, медицины, видео аналитики.\n\nЧто нужно делать: \n-участвовать в командной работе над решениями;\n-принимать участие в code-review;\n-участвовать в принятии архитектурных и технических решений;\n-писать качественный код;\nНаш стек:\n-Java1.8+;\n-Spring: Spring Security, Spring Data, Spring Boot и т.д.;\n-Реляционные базы (в основном Postgres) и NoSQL (InfluxDB, Mongo);\n-Restful-сервисы, JSON, клиент-серверное взаимодействие;\n-ORM Hibernate;\n-MQ: RabbitMQ.\nУсловия:\n-штат, все по ТК РФ\n-премия 20% от годового оклада сверху\n-соц.пакет\n-удаленка на время карантина :)","markup":[{"type":"hashtag","offset":10,"length":5,"data":"java"},{"type":"hashtag","offset":16,"length":7,"data":"spring"},{"type":"hashtag","offset":24,"length":10,"data":"hibernate"},{"type":"hashtag","offset":47,"length":4,"data":"IoT"},{"type":"hashtag","offset":62,"length":4,"data":"MTS"},{"type":"hashtag","offset":76,"length":7,"data":"Москва"},{"type":"hashtag","offset":84,"length":14,"data":"Комсомольская"},{"type":"hashtag","offset":99,"length":14,"data":"Красныеворота"},{"type":"hashtag","offset":129,"length":13,"data":"работавофисе"},{"type":"handle","offset":238,"length":14,"data":"alina_katkova"},{"type":"link","offset":260,"length":15,"data":"mailto:avkatko2@mts.ru"},{"type":"bold","offset":589,"length":18,"data":""},{"type":"bold","offset":776,"length":9,"data":""},{"type":"bold","offset":1011,"length":8,"data":""}],"date":"2020-03-24T09:58:43+00:00","link":"tg://resolve?domain=jvmjobs&post=1314","tags":[{"name":"java"},{"name":"jvm"},{"name":"spring"},{"name":"hibernate"},{"name":"dotnet"},{"name":"postgresql"},{"name":"nosql"},{"name":"json"},{"name":"orm"},{"name":"rabbitmq"},{"name":"spring-security"},{"name":"spring-data"},{"name":"spring-boot"}],"cities":[{"code":"moscow"}],"allowsRemote":true}}]}}},"context":{}}