{"hash":"f5f6bf98bd95e769321482904cbbd488f77922fd","data":{"records":{"id":"russia/moscow","country":{"code":"russia","ruName":"Россия","enName":"Russia"},"city":{"code":"moscow","ruName":"Москва","enName":"Moscow"},"belongsTo":{"totalCount":476,"pageInfo":{"totalPages":48,"currentPage":40},"edges":[{"node":{"__typename":"Job","id":"71390199808-1001054966032","title":"Android разработчик","text":"#вакансия #developer #Android #москва  #fulltime \nAndroid Developer\nГород: Москва\nФормат работы: офис \nЗанятость: полная\nЗП вилка: 150-250 т.р.\n\nВ штат в офис госбанка в Москве в команду нужны разработчик Android (Java/Kotin, Теоритические знания SOLID) для написания нативных приложений. \nОпыт: Middle (выше - приветствуется) \nПолный соц пакет и поддержка ре-локации.\nГибкое время работы.\n\nПодробнее – пишем в личку. @okokgoogLE","markup":[{"type":"hashtag","offset":0,"length":9,"data":"вакансия"},{"type":"hashtag","offset":10,"length":10,"data":"developer"},{"type":"hashtag","offset":21,"length":8,"data":"Android"},{"type":"hashtag","offset":30,"length":7,"data":"москва"},{"type":"hashtag","offset":39,"length":9,"data":"fulltime"},{"type":"handle","offset":418,"length":11,"data":"okokgoogLE"}],"date":"2020-06-16T12:02:57+00:00","link":"tg://resolve?domain=mobile_jobs&post=0","tags":[{"name":"mobile"},{"name":"android"},{"name":"java"}],"cities":[{"code":"moscow"}],"allowsRemote":false}},{"node":{"__typename":"Job","id":"71389151232-1001054966032","title":"Android разработчик","text":"#вакансия #developer #android #москва #бауманская\nAndroid Developer\nГород: Москва\nФормат работы: офис\nЗанятость: полная\nЗарплатная вилка: от 100.000 до 230.000 тыс. руб. фикс\n\nИщем middle/senior разработчика в digital-агентство WakeApp для разработки приложений-утилит (forecast, vpn, safe kids etc) + приложение мотивированного траффика.\n\nСтек: Kotlin, RxJava2/RxAndroid, Dagger2, Android Architecture Components(LiveData, ViewModel, Room, Navigation);\n\nС Вас:\n🔸опыт разработки от 2-ух лет;\n🔸хорошие знания стека;\n🔸знание ООП, MVP, MVVM;\n🔸ориентирование в Android SDK, гайдлайнах, best practices;\n\nС нас:\n🔹достойный уровень заработной платы;\n🔹сложные и интересные задачи;\n🔹комфортный офис в пешей доступности от метро (кухня с запасом фруктов, йогуртов, мороженого);\n🔹технологическая свобода;\n🔹отличный коллектив и пятничные посиделки;\n\nКонтакты: @natereaver","markup":[{"type":"hashtag","offset":0,"length":9,"data":"вакансия"},{"type":"hashtag","offset":10,"length":10,"data":"developer"},{"type":"hashtag","offset":21,"length":8,"data":"android"},{"type":"hashtag","offset":30,"length":7,"data":"москва"},{"type":"hashtag","offset":38,"length":11,"data":"бауманская"},{"type":"bold","offset":50,"length":17,"data":""},{"type":"bold","offset":75,"length":6,"data":""},{"type":"bold","offset":97,"length":4,"data":""},{"type":"bold","offset":113,"length":6,"data":""},{"type":"bold","offset":138,"length":36,"data":""},{"type":"bold","offset":228,"length":7,"data":""},{"type":"handle","offset":857,"length":11,"data":"natereaver"}],"date":"2020-06-16T12:00:59+00:00","link":"tg://resolve?domain=mobile_jobs&post=0","tags":[{"name":"mobile"},{"name":"android"},{"name":"kotlin"},{"name":"mvvm"}],"cities":[{"code":"moscow"}],"allowsRemote":false}},{"node":{"__typename":"Job","id":"71388102656-1001054966032","title":"Ios разработчик","text":"#вакансия #iOS #developer #moscow #офис #fulltime\n\n🔸Адрес: Москва, Новокузнецкая\n🔸Формат работы: офис \n🔸Занятость: полная \n🔸ЗП: 180 000-250 000\n\n📣Middle/Senior iOS Разработчик\n\nна один из наших проектов-социальная сеть нового поколения на базе блокчейн-технологий.\n\n🔶Компания Freedom Group International \n\nЧем придётся заниматься:\n🔶Разработка нового функционала в рамках существующего приложения;\n🔶Рефакторинг и апгрейд ранее сделанного функционала\n\nЧто для этого потребуется:\n🔶Опыт разработки мобильных приложений от трех лет;\n🔶Отличные знания ООП, алгоритмов и структур данных;\n🔶Отличное знание Swift;\n🔶Знание Objective-C для правки старого кода;\n🔶Понимание REST API, взаимодействие с backend;\n🔶Опыт работы с GIT\n\nЖелательно знание следующих библиотек:\n   • RxSwift\n   • AFNetworking\n\nМы готовы предложить:\n🔷Уютный, современный офис;\n🔷Гибкий график;\n🔷Дружный коллектив и лояльное руководство;\n🔷Все плюсы работы в «белой» компании\n\n🔶Контакт для связи: @AnutaF","markup":[{"type":"hashtag","offset":0,"length":9,"data":"вакансия"},{"type":"hashtag","offset":10,"length":4,"data":"iOS"},{"type":"hashtag","offset":15,"length":10,"data":"developer"},{"type":"hashtag","offset":26,"length":7,"data":"moscow"},{"type":"hashtag","offset":34,"length":5,"data":"офис"},{"type":"hashtag","offset":40,"length":9,"data":"fulltime"},{"type":"bold","offset":312,"length":24,"data":""},{"type":"bold","offset":458,"length":26,"data":""},{"type":"bold","offset":730,"length":38,"data":""},{"type":"bold","offset":801,"length":21,"data":""},{"type":"handle","offset":972,"length":7,"data":"AnutaF"}],"date":"2020-06-16T12:00:18+00:00","link":"tg://resolve?domain=mobile_jobs&post=0","tags":[{"name":"mobile"},{"name":"ios"},{"name":"swift"},{"name":"objective-c"},{"name":"rest"},{"name":"git"}],"cities":[{"code":"moscow"}],"allowsRemote":false}},{"node":{"__typename":"Job","id":"2216689664-1001134745498","title":"Devops инженер","text":"#вакансия #Москва #офис\n\nВсем привет!\n\nКомпания Сбербанк-Технологии ищет DevOps-инженера в команду развития event-сегмента облачной интеграционной платформы Synapse. Проект находится в активной фазе развития и востребован как со стороны бизнеса, так и со стороны платформ Банка.\n\n➡️Адрес офиса: Новоданиловская наб. 10 (10-15 мин. от м. Тульская и МЦК Верхние котлы)\n➡️Зарплатная вилка: от 150 до 220k net + премии\n➡️Занятость: полная\n\nПо стеку — #Ansible, #Jenkins, #Shell, #Kubernetes, #OpenShift, #Docker\n\nНемного о проекте:\n\n— работаем на open source стеке технологий (Apache Kafka, Apache Flink);\n— разрабатываем высоконагруженные (более 100 000 TPS) и отказоустойчивые (99,99%) технологии обмена и потоковой обработки событий;\n— работаем с событийными архитектурами (EDA), консультируем по проектированию и обеспечиваем технологический бэкграунд для решений в областях event sourcing, CQRS и др.;\n— у нас приветствуется open source contribution;\n— работаем с ведущими тех. стандартами для построения облачных приложений и микросервисных архитектур: Kubernetes, Istio Service Mesh, OpenShift, Docker.\n\nПару слов о команде:\n\nНаша команда работает по гибкой методологии и отвечает за полный цикл разработки продуктов. Внутри команды поддерживается атмосфера стартапа – мы сами взаимодействуем с заказчиками, сами проектируем, разрабатываем и тестируем наши продукты. У нас нет многоэтажной иерархии и случайных людей. Все члены команды являются инженерами и пишут код. Мы также постоянно усиливаем команду, приобретая новые навыки и компетенции. Вклад каждого сотрудника виден всем и честно оценивается с возможностью повышения должности и дохода.\n\nВот ссылка вакансию на hh.ru – https://hh.ru/vacancy/36723242, там подробнее о том, чего мы ждем и что предлагаем взамен.\n\n📌Контакты: @darya_laika, dppostolaki@sberbank.ru\n\n—\n\n👉 Обсуждение вакансии в чате @devops_jobs","markup":[{"type":"hashtag","offset":0,"length":9,"data":"вакансия"},{"type":"hashtag","offset":10,"length":7,"data":"Москва"},{"type":"hashtag","offset":18,"length":5,"data":"офис"},{"type":"hashtag","offset":447,"length":8,"data":"Ansible"},{"type":"hashtag","offset":457,"length":8,"data":"Jenkins"},{"type":"hashtag","offset":467,"length":6,"data":"Shell"},{"type":"hashtag","offset":475,"length":11,"data":"Kubernetes"},{"type":"hashtag","offset":488,"length":10,"data":"OpenShift"},{"type":"hashtag","offset":500,"length":7,"data":"Docker"},{"type":"link","offset":1675,"length":5,"data":"http://hh.ru"},{"type":"link","offset":1683,"length":30,"data":"https://hh.ru/vacancy/36723242"},{"type":"handle","offset":1787,"length":12,"data":"darya_laika"},{"type":"link","offset":1801,"length":23,"data":"mailto:dppostolaki@sberbank.ru"},{"type":"handle","offset":1859,"length":12,"data":"devops_jobs"}],"date":"2020-06-16T11:51:46+00:00","link":"tg://resolve?domain=devops_jobs_feed&post=2114","tags":[{"name":"dotnet"},{"name":"ansible"},{"name":"jenkins"},{"name":"shell"},{"name":"kubernetes"},{"name":"docker"},{"name":"apache"},{"name":"kafka"}],"cities":[{"code":"moscow"}],"allowsRemote":false}},{"node":{"__typename":"Job","id":"16974348288-1001110946746","title":"Javascript разработчик","text":"#вакансия #RN #reactnative #офис #москва #мск #remote #удаленка \nГород и адрес офиса:  #москва #мск  #арбатская\nФормат работы: офис, фултайм, гибкий график, можно удаленно (с редкими встречами в мск, поэтому важно, чтобы вы жили не очень далеко от мск)\nЗанятость: полная\nЗарплатная вилка: 180-250 т.р. net готовы обсуждать\nОписание вакансии: \nИщу сейчас RN разработчика в финтех проект (Openbanking, psd2) -  это новый продукт в онлайн покупках на европейском рынке, со своей «платежкой», которое сделает эту сферу более технологичной и еще проще и доступнее для пользователей:\n- новое удобное решение для b2c клиентов (мобильное приложение)\n- выгодные условия для b2b партнеров (низкие комиссии за транзакции)\n\nОформление белое, проект полностью с нуля, только собираем команду, есть возможность максимального влияния на продукт, на выбор технологий и построение процессов.\n\nНазвание компании:  Star-Staff\nКонтакты: пишите на этот тг @yuliaataman\n\n—\n\n👉 Обсуждение вакансии в чате @javascript_jobs","markup":[{"type":"hashtag","offset":0,"length":9,"data":"вакансия"},{"type":"hashtag","offset":10,"length":3,"data":"RN"},{"type":"hashtag","offset":14,"length":12,"data":"reactnative"},{"type":"hashtag","offset":27,"length":5,"data":"офис"},{"type":"hashtag","offset":33,"length":7,"data":"москва"},{"type":"hashtag","offset":41,"length":4,"data":"мск"},{"type":"hashtag","offset":46,"length":7,"data":"remote"},{"type":"hashtag","offset":54,"length":9,"data":"удаленка"},{"type":"hashtag","offset":87,"length":7,"data":"москва"},{"type":"hashtag","offset":95,"length":4,"data":"мск"},{"type":"hashtag","offset":101,"length":10,"data":"арбатская"},{"type":"handle","offset":935,"length":12,"data":"yuliaataman"},{"type":"handle","offset":982,"length":16,"data":"javascript_jobs"}],"date":"2020-06-16T11:39:41+00:00","link":"tg://resolve?domain=javascript_jobs_feed&post=0","tags":[{"name":"javascript"},{"name":"dotnet"}],"cities":[{"code":"moscow"}],"allowsRemote":true}},{"node":{"__typename":"Job","id":"16973299712-1001110946746","title":"Javascript разработчик","text":"#вакансия # react #офис #москва #мск \nГород и адрес офиса:  #москва #мск  #арбатская\nФормат работы: офис, фултайм, гибкий график, можно удаленно (с редкими встречами в мск, поэтому важно, чтобы вы жили не очень далеко от мск)\nЗанятость: полная\nЗарплатная вилка: 170-250 т.р. net в зависимости от опыта\nОписание вакансии: \nИщу сейчас React разработчика в финтех проект (Openbanking, psd2) -  это новый продукт в онлайн покупках на европейском рынке, со своей «платежкой», которое сделает эту сферу более технологичной и еще проще и доступнее для пользователей:\n- новое удобное решение для b2c клиентов (мобильное приложение+web)\n- выгодные условия для b2b партнеров (низкие комиссии за транзакции) - web\n\nОформление белое, проект полностью с нуля, только собираем команду, есть возможность максимального влияния на продукт, на выбор технологий и построение процессов.\n\nНазвание компании:  Star-Staff\nКонтакты: пишите на этот тг @yuliaataman\n\n—\n\n👉 Обсуждение вакансии в чате @javascript_jobs","markup":[{"type":"hashtag","offset":0,"length":9,"data":"вакансия"},{"type":"hashtag","offset":18,"length":5,"data":"офис"},{"type":"hashtag","offset":24,"length":7,"data":"москва"},{"type":"hashtag","offset":32,"length":4,"data":"мск"},{"type":"hashtag","offset":60,"length":7,"data":"москва"},{"type":"hashtag","offset":68,"length":4,"data":"мск"},{"type":"hashtag","offset":74,"length":10,"data":"арбатская"},{"type":"handle","offset":927,"length":12,"data":"yuliaataman"},{"type":"handle","offset":974,"length":16,"data":"javascript_jobs"}],"date":"2020-06-16T11:39:23+00:00","link":"tg://resolve?domain=javascript_jobs_feed&post=0","tags":[{"name":"javascript"},{"name":"reactjs"},{"name":"dotnet"},{"name":"web"}],"cities":[{"code":"moscow"}],"allowsRemote":true}},{"node":{"__typename":"Job","id":"102951288832-1001089317451","title":"Qa engineer","text":"#вакансия #QA #ФТ #Москва #офис \n\nВакансия: QA Engineer (с возможностью автоматизации)\nГород: Москва м. Чистые пруды\nЗарплата: от 100 000 до 150 000 рублей на руки \nФормат: офис, полный день, полная занятость\nКомпания Innovative People \n\nПроект в банке, agile-команда.\n\n➡ Требования:\n• Опыт тестирование веб-приложений от 3х лет\n• Практический опыт применения практик тест-дизайна\n• Рабочие знания клиент-серверной архитектуры\n• Умение проектировать тест-кейсы и подготавливать тестовые данные для тестирования\n• SQL от базового уровня\n\n➡ Предлагаем:\n• все по ТК РФ, белое и официальное\n• ДМС со стоматологией, программа лояльности\n• адекватное руководство (сейчас мы на удаленке и собеседования по скайпу)\n• большое комьюнити, новый проект\n• ноутбук\n\nРезюме и вопросы @Priboch","markup":[{"type":"hashtag","offset":0,"length":9,"data":"вакансия"},{"type":"hashtag","offset":10,"length":3,"data":"QA"},{"type":"hashtag","offset":14,"length":3,"data":"ФТ"},{"type":"hashtag","offset":18,"length":7,"data":"Москва"},{"type":"hashtag","offset":26,"length":5,"data":"офис"},{"type":"handle","offset":769,"length":8,"data":"Priboch"}],"date":"2020-06-16T11:27:39+00:00","link":"tg://resolve?domain=qa_jobs&post=0","tags":[{"name":"qa"},{"name":"sql"}],"cities":[{"code":"moscow"}],"allowsRemote":false}},{"node":{"__typename":"Job","id":"1696595968-1001091028994","title":"Java разработчик","text":"#вакансия  #офис #удаленка #регионы #Москва #Java #Spring #senior #middle #backend\nЛокация: #регион #Москва\nФормат работы: #офис #fulltime #удаленка\nЗ/п: 150-250 NET\nКомпания: МД-IT\nВедущий разработчик/Разработчик JAVA  \nВсем привет!\n\n✅Нужны классные разработчики Java уровня Middle, Senior, Lead\n\n👉Немного о нас: \nЦентр разработки МД-IT реализует проекты федерального масштаба под ключ. Наши специалисты работают с крупнейшими системными интеграторами, выполняя задачи по проектированию, разработке, тестированию, сопровождению и эксплуатации внедренных решений. \nНаши офисы расположены в Москве, Ростове-на –Дону, Нижнем Новгороде. \n\n👉Что ждем от Вас:\n* Уверенные знания java 8+, spring boot, будет плюсом знание Kotlin. \n Глубокие знания и практический опыт использования Java в нагруженных многопоточных приложениях Hibernate, Spring, Maven3, ХML\n\n* Опыт проектирования версионнированных REST-API, знание grpc будет плюсом\n\n* Понимание принципов асинхронного программирования, знание одного из: netty, nio, r2dbc\n\n* Желателен опыт использования библиотек реактивного программирования (rxjava, reactor) или опыт работы с vert.x, ratpack или http4\n\n*Приветствуется опыт работы с современными архитектурами, Apache Ignite, Apache Kafka\n\n👉Что мы можем предложить Вам:\n\n* Работа: удаленка\n\n*График работы 5/2, команда работает с 9(10) до 18(19) ч. по МСК\n\n*Заработную плату белую, конкурентоспособную (рассмотрим ваши предложения).\n\n* Работа в команде сообразительных, открытых, стремящихся к развитию единомышленников.\n\n* Крупные и долгосрочные проекты, увеличивающие профессиональный кругозор и опыт работы. \n* Плюшки к чаю и кофе, оплачиваемая мобильная связь, оплачиваемые тренинги и курсы для повышения квалификации. \n\n🖍 Вопросы, резюме прошу писать в личку Елене @Elenazlh","markup":[{"type":"hashtag","offset":0,"length":9,"data":"вакансия"},{"type":"hashtag","offset":11,"length":5,"data":"офис"},{"type":"hashtag","offset":17,"length":9,"data":"удаленка"},{"type":"hashtag","offset":27,"length":8,"data":"регионы"},{"type":"hashtag","offset":36,"length":7,"data":"Москва"},{"type":"hashtag","offset":44,"length":5,"data":"Java"},{"type":"hashtag","offset":50,"length":7,"data":"Spring"},{"type":"hashtag","offset":58,"length":7,"data":"senior"},{"type":"hashtag","offset":66,"length":7,"data":"middle"},{"type":"hashtag","offset":74,"length":8,"data":"backend"},{"type":"hashtag","offset":92,"length":7,"data":"регион"},{"type":"hashtag","offset":100,"length":7,"data":"Москва"},{"type":"hashtag","offset":123,"length":5,"data":"офис"},{"type":"hashtag","offset":129,"length":9,"data":"fulltime"},{"type":"hashtag","offset":139,"length":9,"data":"удаленка"},{"type":"handle","offset":1772,"length":9,"data":"Elenazlh"}],"date":"2020-06-16T11:17:46+00:00","link":"tg://resolve?domain=jvmjobs&post=1618","tags":[{"name":"java"},{"name":"jvm"},{"name":"spring"},{"name":"dotnet"},{"name":"kotlin"},{"name":"hibernate"},{"name":"maven"},{"name":"rest"},{"name":"apache"},{"name":"kafka"},{"name":"spring-boot"}],"cities":[{"code":"moscow"}],"allowsRemote":true}},{"node":{"__typename":"Job","id":"1695547392-1001091028994","title":"Java разработчик","text":"Вакансия: #java #backend #spring #javadeveloper  #middle #senior\nКомпания: 🅰️ Альфа-банк\nЛокация: #Москва #мск\nЗ/п: 100-230к\nКонтакты: @kkristinak, Karachevtseva@alfabank.ru\n\nКоманда Альфа-банка ищет Java- разработчиков\nдля создания лучших продуктов для миллионов людей.\n\n🔺 Ты наш идеальный кандидат, если у тебя есть:\n\n• Отличные знания Java 8+\n• Знания Spring и Spring Boot, Docker и Mavin\n• Умение использовать различные инструменты для тестирования кода и приложений\n• Желание работать с большими и сложными проектами\n\n🔺 Что мы предлагаем?\n\n• Стабильный и прозрачный доход + квартальные премии по итогам работы\n• Гибкий график работы\n• Отличный соц пакет  и многое другое","markup":[{"type":"hashtag","offset":10,"length":5,"data":"java"},{"type":"hashtag","offset":16,"length":8,"data":"backend"},{"type":"hashtag","offset":25,"length":7,"data":"spring"},{"type":"hashtag","offset":33,"length":14,"data":"javadeveloper"},{"type":"hashtag","offset":49,"length":7,"data":"middle"},{"type":"hashtag","offset":57,"length":7,"data":"senior"},{"type":"hashtag","offset":99,"length":7,"data":"Москва"},{"type":"hashtag","offset":107,"length":4,"data":"мск"},{"type":"handle","offset":136,"length":11,"data":"kkristinak"},{"type":"link","offset":149,"length":25,"data":"mailto:Karachevtseva@alfabank.ru"}],"date":"2020-06-16T11:13:20+00:00","link":"tg://resolve?domain=jvmjobs&post=1617","tags":[{"name":"java"},{"name":"jvm"},{"name":"spring"},{"name":"docker"},{"name":"spring-boot"}],"cities":[{"code":"moscow"}],"allowsRemote":false}},{"node":{"__typename":"Job","id":"71377616896-1001054966032","title":"Mobile разработчик","text":"#вакансия #RN #reactnative #офис #москва #мск #remote #удаленка \nГород и адрес офиса:  #москва #мск  #арбатская\nФормат работы: офис, фултайм, гибкий график, можно удаленно (с редкими встречами в мск, поэтому важно, чтобы вы жили не очень далеко от мск)\nЗанятость: полная\nЗарплатная вилка: 180-250 т.р. net готовы обсуждать\nОписание вакансии: \nИщу сейчас RN разработчика в финтех проект (Openbanking, psd2) -  это новый продукт в онлайн покупках на европейском рынке, со своей «платежкой», которое сделает эту сферу более технологичной и еще проще и доступнее для пользователей:\n- новое удобное решение для b2c клиентов (мобильное приложение)\n- выгодные условия для b2b партнеров (низкие комиссии за транзакции)\n\nОформление белое, проект полностью с нуля, только собираем команду, есть возможность максимального влияния на продукт, на выбор технологий и построение процессов.\n\nНазвание компании:  Star-Staff\nКонтакты: пишите на этот тг @yuliaataman","markup":[{"type":"hashtag","offset":0,"length":9,"data":"вакансия"},{"type":"hashtag","offset":10,"length":3,"data":"RN"},{"type":"hashtag","offset":14,"length":12,"data":"reactnative"},{"type":"hashtag","offset":27,"length":5,"data":"офис"},{"type":"hashtag","offset":33,"length":7,"data":"москва"},{"type":"hashtag","offset":41,"length":4,"data":"мск"},{"type":"hashtag","offset":46,"length":7,"data":"remote"},{"type":"hashtag","offset":54,"length":9,"data":"удаленка"},{"type":"hashtag","offset":87,"length":7,"data":"москва"},{"type":"hashtag","offset":95,"length":4,"data":"мск"},{"type":"hashtag","offset":101,"length":10,"data":"арбатская"},{"type":"handle","offset":935,"length":12,"data":"yuliaataman"}],"date":"2020-06-16T11:07:38+00:00","link":"tg://resolve?domain=mobile_jobs&post=0","tags":[{"name":"mobile"},{"name":"dotnet"}],"cities":[{"code":"moscow"}],"allowsRemote":true}}]}}},"context":{}}