{"hash":"f34fd2c444a074f4e0e67d525015a008ef8e766f","data":{"records":{"id":"mysql","name":"mysql","belongsTo":{"totalCount":50,"pageInfo":{"totalPages":5,"currentPage":5},"edges":[{"node":{"__typename":"Job","id":"1886388224-1001134745498","title":"Devops инженер","text":"#вакансия \nВакансия: #devops  #fulltime #office\nКомпания: #нспк #псмир\nЛокация: #томск\nЗ/п: 100к-180к net (после вычета налогов)\n\n«Национальная система платежных карт» ищет DevOps-инженера.\n\nНСПК - развивающаяся компания, создающая финтех-сервисы, которыми пользуются миллионы людей. \n\nЗа 5 лет нашей истории мы разработали бизнес-продукты, аналоги которых в мире можно пересчитать по пальцам:\n✔️Платежная система \"Мир\";\n✔️Система быстрых платежей;\n✔️Программа лояльности \"Мир\";\n✔️Сервис мобильной оплаты MirPay;\n✔️Система аутентификации пользователей MirAccept.  \n\n⛏ Наш стек:  \nLinux, Docker, Git, Jenkins, Nexus, Ansible, Groovy, Python, Java, Spring, Gradle, MySql, Nginx, HAProxy, Kafka, Hazelcast, Prometheus, ELK, Atlassian stack. \n\n🧠 Какие у нас бывают задачи?\n- Написание конвейеров (CI/CD); \n- Автоматизация процессов создания окружений инфраструктуры разработки (репозитории, типовые job CI, RBAC, Ansible roles);\n- Автоматизация housekeeping. \n\n🎁 Мы предлагаем:\n- Работу в команде профессионалов;\n- Обучение за счет компании;\n- Развитую корпоративную культуру;\n- ДМС со стоматологией, официальное трудоустройство; \n- Комфортный офис в центре;\n- Чай, кофе, печеньки✌️\n\nХотите поучаствовать в масштабном и сложном проекте?\n\nМои контакты:\n📲 +7-916-051-20-63\n      @Ekaterina1915 \n\n📩 makarovaen@nspk.ru\n\n—\n\n👉 Обсуждение вакансии в чате @devops_jobs","markup":[{"type":"hashtag","offset":0,"length":9,"data":"вакансия"},{"type":"hashtag","offset":21,"length":7,"data":"devops"},{"type":"hashtag","offset":30,"length":9,"data":"fulltime"},{"type":"hashtag","offset":40,"length":7,"data":"office"},{"type":"hashtag","offset":58,"length":5,"data":"нспк"},{"type":"hashtag","offset":64,"length":6,"data":"псмир"},{"type":"hashtag","offset":80,"length":6,"data":"томск"},{"type":"link","offset":1253,"length":16,"data":"tel:+7-916-051-20-63"},{"type":"handle","offset":1276,"length":14,"data":"Ekaterina1915"},{"type":"link","offset":1296,"length":18,"data":"mailto:makarovaen@nspk.ru"},{"type":"handle","offset":1349,"length":12,"data":"devops_jobs"}],"date":"2020-03-12T08:17:51+00:00","link":"tg://resolve?domain=devops_jobs_feed&post=1799","tags":[{"name":"dotnet"},{"name":"linux"},{"name":"docker"},{"name":"git"},{"name":"jenkins"},{"name":"ansible"},{"name":"groovy"},{"name":"python"},{"name":"java"},{"name":"spring"},{"name":"gradle"},{"name":"mysql"},{"name":"nginx"},{"name":"kafka"}],"cities":[{"code":"tomsk"}],"allowsRemote":false}},{"node":{"__typename":"Job","id":"1885339648-1001134745498","title":"Devops инженер","text":"#вакансия #DevOps\nМосква, м.Ботанический сад\nФормат работы: офис\nЗанятость: полная\nЗаработная плата: 180 000р. на руки - фиксированный оклад\n(в планах со 2/3 квартала - квартальные премии по итогам работы до 45 000р. на руки) \nЧто делать:\n- Разработка и поддержка инфраструктуры для dev/test/prod (On-Cloud и On-Premise);\n- Разработка и поддержка процессов CI/CD;\n- Выбор технологий для реализации проектов;\n- Разработка и поддержка систем мониторинга, регистрации инцидентов и оповещения;\n- Организация бесперебойной работы всех сервисов (на всех уровнях: от инфраструктуры до разрабатываемого ПО);\n- Развертывание и поддержка общей инфраструктуры (nginx, haproxy, dns, iptables, ssh, sssd & etc).\nЧто нужно знать и уметь:\n- Экспертное понимание Linux (Ubuntu/CentOS7);\n- Знание скриптовых языков;\n- Опыт работы с технологиями виртуализации (VMware) и контейнеризации (Docker);\n- Опыт развёртывания и эксплуатации CI/CD (GitLab-CI, Jenkins);\n- Навыки работы и администрирования GitLab, Jira, Confluence;\n- Опыт внедрения и эксплуатации систем мониторинга и сбора метрик (ELK, Prometheus, Grafana, Sentry);\n- Опыт развёртывания и эксплуатации Redis, MySQL, RabbitMQ, HAProxy, nginx, PostgreSQL, php-fpm);\n- Интеграция Jenkins, Jira, GitLab. \nКомпания: АСНА (www.asna.ru)\nКонтакты: 8(965)194-28-96 (WhatsApp), @mil0lika (Telegram)\n\n—\n\n👉 Обсуждение вакансии в чате @devops_jobs","markup":[{"type":"hashtag","offset":0,"length":9,"data":"вакансия"},{"type":"hashtag","offset":10,"length":7,"data":"DevOps"},{"type":"link","offset":1258,"length":11,"data":"http://www.asna.ru"},{"type":"link","offset":1281,"length":15,"data":"tel:8(965)194-28-96"},{"type":"handle","offset":1309,"length":9,"data":"mil0lika"},{"type":"handle","offset":1364,"length":12,"data":"devops_jobs"}],"date":"2020-03-12T07:46:45+00:00","link":"tg://resolve?domain=devops_jobs_feed&post=1798","tags":[{"name":"cloud"},{"name":"nginx"},{"name":"dns"},{"name":"ssh"},{"name":"linux"},{"name":"ubuntu"},{"name":"centos"},{"name":"docker"},{"name":"gitlab"},{"name":"jenkins"},{"name":"redis"},{"name":"mysql"},{"name":"rabbitmq"},{"name":"postgresql"},{"name":"php"}],"cities":[{"code":"moscow"}],"allowsRemote":false}},{"node":{"__typename":"Job","id":"1881145344-1001134745498","title":"Devops engineer","text":"#вакансия #DevOps #fulltime #москва\n\nDevOps Engineer\nГород: Москва\nФормат работы: офис \nЗанятость: полная\nЗП вилка 160-220 тысяч\n\ninDriver - международный ride-hailing сервис:\n* 47 млн пользователей в 31 стране мира.\n* Входим в топ-5 мобильных сервисов для заказа поездки по итогам января 2020 года.\n* Офис возле м. Улица 1905 года.\n\nОбязанности:\n• Настройка и поддержка инфраструктуры для разработки (сервера, docker, kubernetes, helm)\n• Внедрение и поддержка Kubernetes в production\n• Создание Helm Charts\n• Настройка пайплайнов для процессов CI/CD (TeamCity)\n• Повышение отказоустойчивости работы сервисов\n\nТребования:\n• Опыт работы с операционными системами семейства Linux (CentOS/RHEL)\n• Опыт внедрения и использования Kubernetes в production\n• Опыт настройки и работы с nginx, MySQL, Redis, Prometheus, ClickHouse\n• Опыт работы с облачными провайдерами: GCP, AWS, Azure\n• Опыт использования Ansible и написания ролей и плейбуков\n• Опыт поддержки высоконагруженных сервисов на базе ОС Linux\n• Умение читать и разбираться в чужом коде: Go, PHP\n\nКонтакт для связи: @mariamolko\n\n—\n\n👉 Обсуждение вакансии в чате @devops_jobs","markup":[{"type":"hashtag","offset":0,"length":9,"data":"вакансия"},{"type":"hashtag","offset":10,"length":7,"data":"DevOps"},{"type":"hashtag","offset":18,"length":9,"data":"fulltime"},{"type":"hashtag","offset":28,"length":7,"data":"москва"},{"type":"handle","offset":1069,"length":11,"data":"mariamolko"},{"type":"handle","offset":1115,"length":12,"data":"devops_jobs"}],"date":"2020-03-11T09:14:00+00:00","link":"tg://resolve?domain=devops_jobs_feed&post=1794","tags":[{"name":"docker"},{"name":"kubernetes"},{"name":"linux"},{"name":"centos"},{"name":"nginx"},{"name":"mysql"},{"name":"redis"},{"name":"google-cloud-platform"},{"name":"amazon-web-services"},{"name":"azure"},{"name":"ansible"},{"name":"php"}],"cities":[{"code":"moscow"}],"allowsRemote":false}},{"node":{"__typename":"Job","id":"236978176-1001352129329","title":"Go разработчик","text":"#вакансия #aleksi #remote #percona #dollars\n \nПривет. Приходите ко мне писать SaaS-часть Percona Monitoring and Management (https://www.percona.com/software/database-tools/percona-monitoring-and-management).\n \nGo, MySQL/MongoDB/PostgreSQL и другие БД, github.com. Kubernetes желателен. Excellent English written and verbal language skills are required (ну или немного хуже, чем excellent). Отбор по Go суровый :) \n\nПолное описание вакансии: https://bit.ly/percona-saas \n\nРабота полностью удалённая (ездить 2 часа не нужно, но холодильник слишком близко). Зарплата в долларах, налоги нужно платить самому (но вести ИП на упрощёнке в России очень просто). Вилка не публична (вакансия размещена на правах непотизма), но выше чем вакансии тут.  \n\nОбщие вопросы можно спросить тут, личные в личке или (лучше) на почту alexey.palazhchenko@percona.com.\n Автор @alek_si","markup":[{"type":"hashtag","offset":0,"length":9,"data":"вакансия"},{"type":"hashtag","offset":10,"length":7,"data":"aleksi"},{"type":"hashtag","offset":18,"length":7,"data":"remote"},{"type":"hashtag","offset":26,"length":8,"data":"percona"},{"type":"hashtag","offset":35,"length":8,"data":"dollars"},{"type":"link","offset":124,"length":81,"data":"https://www.percona.com/software/database-tools/percona-monitoring-and-management"},{"type":"link","offset":252,"length":10,"data":"http://github.com"},{"type":"link","offset":441,"length":27,"data":"https://bit.ly/percona-saas"},{"type":"link","offset":813,"length":31,"data":"mailto:alexey.palazhchenko@percona.com"},{"type":"handle","offset":853,"length":8,"data":"alek_si"}],"date":"2020-02-25T11:49:33+00:00","link":"tg://resolve?domain=gogetajobfeed&post=226","tags":[{"name":"go"},{"name":"mysql"},{"name":"mongodb"},{"name":"postgresql"},{"name":"github"},{"name":"kubernetes"}],"cities":[],"allowsRemote":true}},{"node":{"__typename":"Job","id":"637534208-1001089319619","title":"Ruby разработчик","text":"#вакансия #бэкенд #офис #RoR #Ruby #Rails #Москва #фултайм\n\nВакансия: Middle Ruby on Rails backend developer\nКомпания: Revo.ru\nЛокация: Москва, м. Тульская\nФормат работы: офис\nЗанятость: полная, иногда можно работать из дома\nЗарплатная вилка: 170 000 - 190 000 руб net по ТК РФ + оплата конференций и ивентов\n\nРево — финтех компания, на рынке РФ сервис работает с 2012 года, с 2018 запустились в Польше. Поначалу разработку для нас вели команды ДжетРокетса и Эврона, а с выходом в окупаемость мы начали собирать внутреннюю разработку. И за последние несколько лет собрали крутую команду внутренней разработки.\n\nИщу 2-х Middle RoR-разработчиков: \n1 - на разработку&тимлидство B2C-командой (без опыта в тимлидстве, вакансия для тех, кто хочет прокачаться в лида);\n2 - на разработку в B2C-команду.\n\nЧто предлагаем:\n• ЗП до 190 000 руб net, оформление по ТК РФ;\n• место в CoreTeam команды B2C-разработки (4 млн B2C пользователей);\n• оплачиваемые конференции и ивенты;\n• иногородним оказываем помощь с переездом;\n• «железо» на выбор;\n• гибкое начало рабочего дня (8.00-11.00), возможность иногда работать удаленно;\n• турники, «шведская стенка» в 10 метрах от офиса;\n• офис в стиле Loft в Даниловской Мануфактуре, рядом метро Тульская;\n• возможность быстрого роста в тимлида команды B2C-разработки (текущий лид переходит в B2B-\nкоманду);\n• чай, кофе, печенье, снеки, фрукты, оборудованная комфортабельная кухня;\n• тусовки каждую последнюю пятницу месяца;\n\nКоманда B2C-разработки: 2 RoR-разработчика, 3 React-разработчика, 5 mobile-разработчиков, qa. \nСмежники: DevOps, qa, продуктологи, финансисты, рисковики, команда интеграции.\n\nЗадачи:\n• возможность работать и учиться на живом крупном международном проекте;\n• в составе продуктовой Scrum-команды участвовать в полном цикле разработки новых фич для конечных пользователей;\n• разработка новых и поддержка работоспособности существующих облачных сервисов;\n• участие в проектировании и разработке архитектур веб приложений;\n• разработка структур баз данных, хранимых процедур, представлений;\n• декомпозиция и оценка задач, выполнение планов 2-х недельных спринтов;\n• соблюдать баланс между скоростью разработки и перфекционизмом;\n• учиться новому и делиться знаниями с коллегами;\n\nТехнологический стек:\n• Ruby on Rails от 5.2 до 6;\n• PostgreSQL/MySQL;\n• Git, Sidekiq/DelayedJob, Airbrake, ActiveAdmin, Devise, Rspec, FactoryGirl;\n• Обмен между бэком (микросервисы) и фронтом по JSON API (на фронте React + Redux);\n • Nice to have (понимание, как работает): Docker, Kubernetes. \n\nНаши ожидания от кандидата:\n• понимание ООП, MVC, шаблонов проектирования;\n• коммерческий опыт разработки от 3-х лет;\n• понимание принципов RESTful API;\n• умение различать business critical и MVP участки проекта;\n• умение оценивать и выдерживать сроки разработки;\n• опыт работы с PostgreSQL, умение составлять сложные запросы, оптимизировать существующие на уровне чистого SQL;\n• опыт работы с системами кеширования;\n• следование стандартам разработки: стайлгайды, тесты, code review;\n\nДополнительным плюсом будет:\n• опыт работы в финтехе или продуктовой разработке;\n• опыт смены языка разработки и/или предметной области;\n• опыт разработки на функциональных языках.\n\nКонтакты: @akssld","markup":[{"type":"hashtag","offset":0,"length":9,"data":"вакансия"},{"type":"hashtag","offset":10,"length":7,"data":"бэкенд"},{"type":"hashtag","offset":18,"length":5,"data":"офис"},{"type":"hashtag","offset":24,"length":4,"data":"RoR"},{"type":"hashtag","offset":29,"length":5,"data":"Ruby"},{"type":"hashtag","offset":35,"length":6,"data":"Rails"},{"type":"hashtag","offset":42,"length":7,"data":"Москва"},{"type":"hashtag","offset":50,"length":8,"data":"фултайм"},{"type":"bold","offset":60,"length":9,"data":""},{"type":"bold","offset":109,"length":9,"data":""},{"type":"link","offset":119,"length":7,"data":"http://Revo.ru"},{"type":"bold","offset":127,"length":9,"data":""},{"type":"bold","offset":156,"length":14,"data":""},{"type":"bold","offset":176,"length":10,"data":""},{"type":"bold","offset":225,"length":17,"data":""},{"type":"bold","offset":310,"length":4,"data":""},{"type":"bold","offset":611,"length":35,"data":""},{"type":"bold","offset":796,"length":16,"data":""},{"type":"bold","offset":1450,"length":23,"data":""},{"type":"bold","offset":1545,"length":9,"data":""},{"type":"bold","offset":1625,"length":8,"data":""},{"type":"bold","offset":2225,"length":22,"data":""},{"type":"bold","offset":2523,"length":28,"data":""},{"type":"bold","offset":3009,"length":29,"data":""},{"type":"bold","offset":3191,"length":9,"data":""},{"type":"handle","offset":3201,"length":7,"data":"akssld"}],"date":"2020-02-04T13:31:23+00:00","link":"tg://resolve?domain=rubyjob&post=608","tags":[{"name":"ruby"},{"name":"ruby-on-rails"},{"name":"dotnet"},{"name":"reactjs"},{"name":"mobile"},{"name":"postgresql"},{"name":"mysql"},{"name":"git"},{"name":"devise"},{"name":"json"},{"name":"redux"},{"name":"docker"},{"name":"kubernetes"},{"name":"sql"},{"name":"react-redux"}],"cities":[{"code":"moscow"},{"code":"lida"},{"code":"nice"}],"allowsRemote":true}},{"node":{"__typename":"Job","id":"87031808-1001375797688","title":".net разработчик","text":"#вакансия #орел #fulltime #офис #csharp #netframework\nВсем привет! ✋\nКомпания ИнСистем в поисках C# разработчиков в офис в г. Орел:\n\nОсновные обязанности:\n- Разработка высоконагруженных систем;\n- Поддержка и сопровождение текущих проектов.\n\nДля нас важно: \n- Опыт разработки более 2-х лет.\n- Знание C#, RabbitMQ, LINQ, Git, MySQL, MongoDB, WCF, .NET Framework.\n- Опыт работы с реляционными базами данных.\n\nГотовы рассматривать кандидатов уровня Middle и Senior с заработной вилкой до 150 000 р. на руки. \nУ нас есть все необходимое для работы и отдыха: комфортный современный офис, компенсация поездок на IT – конференции и митапы, бесплатные обеды, спорт зал, современный подход к управлению, постановке задач, процессам.\n\nБуду рада Вашим вопросам и резюме: \n✍️  @hrkaterina \n📨 personal.insistem@gmail.com","markup":[{"type":"hashtag","offset":0,"length":9,"data":"вакансия"},{"type":"hashtag","offset":10,"length":5,"data":"орел"},{"type":"hashtag","offset":16,"length":9,"data":"fulltime"},{"type":"hashtag","offset":26,"length":5,"data":"офис"},{"type":"hashtag","offset":32,"length":7,"data":"csharp"},{"type":"hashtag","offset":40,"length":13,"data":"netframework"},{"type":"bold","offset":133,"length":22,"data":""},{"type":"bold","offset":241,"length":16,"data":""},{"type":"bold","offset":438,"length":13,"data":""},{"type":"bold","offset":453,"length":7,"data":""},{"type":"handle","offset":764,"length":11,"data":"hrkaterina"},{"type":"link","offset":780,"length":27,"data":"mailto:personal.insistem@gmail.com"}],"date":"2020-01-31T15:41:51+00:00","link":"tg://resolve?domain=DotNetRuJobsFeed&post=83","tags":[{"name":"dotnet"},{"name":"csharp"},{"name":"rabbitmq"},{"name":"linq"},{"name":"git"},{"name":"mysql"},{"name":"mongodb"},{"name":"wcf"}],"cities":[],"allowsRemote":false}},{"node":{"__typename":"Job","id":"203423744-1001352129329","title":"Golang разработчик","text":"#вакансия #Москва #Орел #fulltime #golang #go\nПривет!\nИщу в команду Rubetek - ведущего российского разработчика в области IoT решений - Go-разработчика для создания новых и поддержки текущих веб-сервисов. \n🔸 Локация: Москва, м.Павелецкая или Орел (для героев)\n🔸 Формат работы: офис (1-2 дня в неделю можно удаленно)\n🔸 Занятость: полная\n🔸 Деньги: 120 000 - 160 000 на руки + премии/плюшки/бонусы\nВам предстоит:\n🔹 Разработка веб-сервисов работающих с большим количеством данных;\n🔹 Разработка системы управления распределенной инфраструктурой.\nОт вас:\n🔹 Отличное знание Go;\n🔹 Хорошее знание сетевых протоколов;\n🔹 Знание принципов построения высоконагруженных систем;\n🔹 Опыт написания асинхронных веб-приложений;\n🔹 Опыт работы с SQL базами данных: PostgreSQL/MySQL;\n🔹 Знание Git, понимание методологии Git Flow;\n🔹 Английский на уровне свободного чтения технической документации;\n🔹 Опыт работы с трекинговой системой (у нас Jira).\nОт нас:\n🔸 График 5/2 с плавающим началом рабочего дня с (9 до 11 часов);\n🔸 Испытательный срок – 3 месяца;\n🔸 Комфортабельный лофт;\n🔸 Деньги, любовь, почет и уважение.\n Автор @Mesmor","markup":[{"type":"hashtag","offset":0,"length":9,"data":"вакансия"},{"type":"hashtag","offset":10,"length":7,"data":"Москва"},{"type":"hashtag","offset":18,"length":5,"data":"Орел"},{"type":"hashtag","offset":24,"length":9,"data":"fulltime"},{"type":"hashtag","offset":34,"length":7,"data":"golang"},{"type":"hashtag","offset":42,"length":3,"data":"go"},{"type":"handle","offset":1117,"length":7,"data":"Mesmor"}],"date":"2020-01-14T11:23:12+00:00","link":"tg://resolve?domain=gogetajobfeed&post=194","tags":[{"name":"go"},{"name":"sql"},{"name":"postgresql"},{"name":"mysql"},{"name":"git"}],"cities":[{"code":"moscow"}],"allowsRemote":true}},{"node":{"__typename":"Job","id":"201326592-1001352129329","title":"Go разработчик","text":"#вакансия #backend  #backenddeveloper #Go #php #fulltime #moscow #senior #middle\n\n\ninDriver - международный ride-hailing сервис:\n* 35 млн пользователей. \n* Мы в 29 странах мира.\n* Входим в топ-5 мобильных сервисов для заказа поездки по итогам июля 2019 года.\n* Офис возле м. 1905 года.\n\nНаша команда разработчиков создает глобальный высокотехнологичный продукт, который меняет жизнь миллионов людей к лучшему. Ежедневно каждый из нас решает очень сложные, интересные задачи и делает это в максимально комфортных условиях - без дресскода, строгой иерархии и бюрократии.\n\nОбязанности:\n\n* Разработка и поддержка backend сервисов на Go/PHP\n* Прототипирование новых решений\n* Проведение код-ревью, написание юнит, компонентных тестов, профилирование\n* Развитие микро-сервисного подхода\n* Troubleshooting в среде Linux/Kubernetes, консультирование команды\n\nТребования:\n\n* Знание микро-сервисных, high load архитектур\n* Опыт работы в высоконагруженных проектах от 2-х лет\n* Знание на уровне администрирования Linux и платформы Kubernetes\n* Опыт работы с СУБД (MySQL, mariadb, Postgres одна из них)\n\nБудет плюсом:\n\n* Развитие микро-сервисного подхода\n* Знакомство с системами очередей сообщений (RabbitMQ, Nats или другие)\n* Опыт работы с системами CI/CD, Kubernetes\n\nЗП от 160 тыс.руб.\nГород Москва, только офис фуллтайм\nЯзыки русский, английский\n\nПисать @mariamolko\n Автор @mariamolko","markup":[{"type":"hashtag","offset":0,"length":9,"data":"вакансия"},{"type":"hashtag","offset":10,"length":8,"data":"backend"},{"type":"hashtag","offset":20,"length":17,"data":"backenddeveloper"},{"type":"hashtag","offset":38,"length":3,"data":"Go"},{"type":"hashtag","offset":42,"length":4,"data":"php"},{"type":"hashtag","offset":47,"length":9,"data":"fulltime"},{"type":"hashtag","offset":57,"length":7,"data":"moscow"},{"type":"hashtag","offset":65,"length":7,"data":"senior"},{"type":"hashtag","offset":73,"length":7,"data":"middle"},{"type":"handle","offset":1348,"length":11,"data":"mariamolko"},{"type":"handle","offset":1367,"length":11,"data":"mariamolko"}],"date":"2020-01-14T11:18:34+00:00","link":"tg://resolve?domain=gogetajobfeed&post=192","tags":[{"name":"go"},{"name":"php"},{"name":"linux"},{"name":"kubernetes"},{"name":"mysql"},{"name":"mariadb"},{"name":"postgresql"},{"name":"rabbitmq"}],"cities":[{"code":"moscow"}],"allowsRemote":false}},{"node":{"__typename":"Job","id":"70254592-1001375797688","title":".net разработчик","text":"#вакансия\nНа данный момент занимаюсь поиском С# разработчика в один крупный торгово-производственный холдинг, который занимается производством климатической техники и оборудования. \n\nОбязанности:\n•Разработка online среды для подбора вентиляционного оборудования (внутренний проект компании);\n•Разработка систем взаимодействия с внешними сервисами, API;\n•Реализация и доработка собственных веб-сервисов;\n•Оптимизация скорости работы компонентов;\n•Участие в проработке архитектуры систем.\n\nТребования:\n•Опыт работы от 3-х лет.\n•Уверенное знание C#, TSQL, .NET Core, C#, MSSQL, MySQL.\n•Желателен опыт работы с Angular и/или AngularJS, GIT.\n•Умение и опыт работы с чужим кодом.\n•Проактивность в работе, нацеленность на результат, коммуникабельность, аналитическое мышление, математический склад ума, ответственность, стрессоустойчивость, умение работать в команде.\n\nГЕО - МОСКВА \n#москва\n\nУсловия: \n•Заработная плата (обсуждается индивидуально с каждым кандидатом); от 180 000 руб до 220 000 руб net\n•Бонусная система;\n•Соц.пакет: ДМС, скидки на фитнес и продукцию компании.\nДля резюме: zharov@4ssistance.com","markup":[{"type":"hashtag","offset":0,"length":9,"data":"вакансия"},{"type":"hashtag","offset":876,"length":7,"data":"москва"},{"type":"link","offset":1083,"length":21,"data":"mailto:zharov@4ssistance.com"}],"date":"2019-12-18T07:32:00+00:00","link":"tg://resolve?domain=DotNetRuJobsFeed&post=67","tags":[{"name":"dotnet"},{"name":"csharp"},{"name":"tsql"},{"name":"sql-server"},{"name":"mysql"},{"name":"angularjs"},{"name":"git"},{"name":"net-core"}],"cities":[{"code":"moscow"}],"allowsRemote":false}},{"node":{"__typename":"Job","id":"38797312-1001375797688","title":".net developer","text":"#офис #вакансия \nНижний Новгород\nMiddle C# Developer Full Stack\nЗп 80-120к руб на руки\n\nРассматриваем иногородних!\n\nОбязанности:\n• участие в разработке новых сервисов на C# / .NET Core\n• поддержка и развитие существующих продуктов и сервисов на C# / WPF / .NET Core\n• участие в проектировании архитектуры, планировании релизов, совершенствовании процессов разработки\n• участие во всех этапах разработки продуктов (от идеи/прототипа до релиза)\n\nТребования:\n• высшее техническое образование \n• работа только в офисе полный рабочий день, дистанционная работа не рассматривается (но оказываем материальную и другую поддержку для тех, кто готов к переезду в Нижний Новгород)\n\nПриветствуются:\n• собственный проект или участие в opensource\n• опыт работы по Agile (Scrum, Kanban, XP).\n• умение находить нестандартные, простые технические решения\n• опыт разработки Web-сервисов,\n• опыт работы с Doсker, Kubernetes\n• опыт написания unit-тестов и разработки по TDD\n\nКлючевые навыки\nC#.NET Framework WPF AgileExtreme Programming Unit Testing.NET Core ASP.NET LINQ MVC ООП MySQL JavaScript HTML SQL CSS\n\nВопросы/отклики писать сюда: @hr_rodnaya, enn369347@gmail.com","markup":[{"type":"hashtag","offset":0,"length":5,"data":"офис"},{"type":"hashtag","offset":6,"length":9,"data":"вакансия"},{"type":"link","offset":1022,"length":11,"data":"http://Testing.NET"},{"type":"link","offset":1039,"length":7,"data":"http://ASP.NET"},{"type":"handle","offset":1120,"length":11,"data":"hr_rodnaya"},{"type":"link","offset":1133,"length":19,"data":"mailto:enn369347@gmail.com"}],"date":"2019-11-04T13:41:16+00:00","link":"tg://resolve?domain=DotNetRuJobsFeed&post=37","tags":[{"name":"dotnet"},{"name":"csharp"},{"name":"wpf"},{"name":"web"},{"name":"kubernetes"},{"name":"linq"},{"name":"mysql"},{"name":"javascript"},{"name":"html"},{"name":"sql"},{"name":"css"},{"name":"net-core"},{"name":"unit-testing"},{"name":"asp-net"}],"cities":[{"code":"nizhny-novgorod"}],"allowsRemote":false}}]}}},"context":{}}