{"hash":"f5f6bf98bd95e769321482904cbbd488f77922fd","data":{"records":{"id":"apache","name":"apache","belongsTo":{"totalCount":31,"pageInfo":{"totalPages":4,"currentPage":3},"edges":[{"node":{"__typename":"Job","id":"1701838848-1001091028994","title":"Java developer","text":"#вакансия  #удаленка #Java #Spring #senior #middle #backend\nЛокация: #регион \nФормат работы: #fulltime #удаленка\nЗ/п: 80-160 NET\nВакансия: Java developer (senior,middle)\nКомпания: X5 Retail Group\nКонтакты: @CatProgramist\nТребования:\n- отличное понимание Java Core, Collections, Multithreading, transaction API\n- Spring\n- Hibernate, JDBC\n- SOAP\n- REST\n- Maven, Gradle\n- ActiveMQ\n- Git\n- *nix\nНаш целевой стек: Java 11+, Spring Boot, Spring Cloud, Netflix, PostgreSQL.  \nРаботаем в окружении CI/CD на GitLab, Apache Maven, Jira, Confluence (сейчас переписывают на этом стеке)\nСтарый стек проекта: Java 8, Spring Core, Spring Security, TBI (ORM), PostgreSQL, SQL, Jasper, Swing, XML, Jetty Embedded, Junit, Mockito, PowerMock, JBehave, maven, gradle, Jenkins, Gitlab, Sonar, REST, RMI, Git, CI/CD\nУсловия:\nУдаленка\nОфициальное трудоустройство и оформление полностью согласно ТК РФ\nДополнительная медицинская страховка (ДМС) – после испытательного срока","markup":[{"type":"hashtag","offset":0,"length":9,"data":"вакансия"},{"type":"hashtag","offset":11,"length":9,"data":"удаленка"},{"type":"hashtag","offset":21,"length":5,"data":"Java"},{"type":"hashtag","offset":27,"length":7,"data":"Spring"},{"type":"hashtag","offset":35,"length":7,"data":"senior"},{"type":"hashtag","offset":43,"length":7,"data":"middle"},{"type":"hashtag","offset":51,"length":8,"data":"backend"},{"type":"hashtag","offset":69,"length":7,"data":"регион"},{"type":"hashtag","offset":93,"length":9,"data":"fulltime"},{"type":"hashtag","offset":103,"length":9,"data":"удаленка"},{"type":"handle","offset":206,"length":14,"data":"CatProgramist"}],"date":"2020-06-17T08:02:57+00:00","link":"tg://resolve?domain=jvmjobs&post=1623","tags":[{"name":"java"},{"name":"jvm"},{"name":"spring"},{"name":"dotnet"},{"name":"hibernate"},{"name":"jdbc"},{"name":"soap"},{"name":"rest"},{"name":"maven"},{"name":"gradle"},{"name":"git"},{"name":"cloud"},{"name":"postgresql"},{"name":"gitlab"},{"name":"apache"},{"name":"orm"},{"name":"sql"},{"name":"swing"},{"name":"xml"},{"name":"jetty"},{"name":"junit"},{"name":"jenkins"},{"name":"spring-boot"},{"name":"spring-security"}],"cities":[],"allowsRemote":true}},{"node":{"__typename":"Job","id":"2216689664-1001134745498","title":"Devops инженер","text":"#вакансия #Москва #офис\n\nВсем привет!\n\nКомпания Сбербанк-Технологии ищет DevOps-инженера в команду развития event-сегмента облачной интеграционной платформы Synapse. Проект находится в активной фазе развития и востребован как со стороны бизнеса, так и со стороны платформ Банка.\n\n➡️Адрес офиса: Новоданиловская наб. 10 (10-15 мин. от м. Тульская и МЦК Верхние котлы)\n➡️Зарплатная вилка: от 150 до 220k net + премии\n➡️Занятость: полная\n\nПо стеку — #Ansible, #Jenkins, #Shell, #Kubernetes, #OpenShift, #Docker\n\nНемного о проекте:\n\n— работаем на open source стеке технологий (Apache Kafka, Apache Flink);\n— разрабатываем высоконагруженные (более 100 000 TPS) и отказоустойчивые (99,99%) технологии обмена и потоковой обработки событий;\n— работаем с событийными архитектурами (EDA), консультируем по проектированию и обеспечиваем технологический бэкграунд для решений в областях event sourcing, CQRS и др.;\n— у нас приветствуется open source contribution;\n— работаем с ведущими тех. стандартами для построения облачных приложений и микросервисных архитектур: Kubernetes, Istio Service Mesh, OpenShift, Docker.\n\nПару слов о команде:\n\nНаша команда работает по гибкой методологии и отвечает за полный цикл разработки продуктов. Внутри команды поддерживается атмосфера стартапа – мы сами взаимодействуем с заказчиками, сами проектируем, разрабатываем и тестируем наши продукты. У нас нет многоэтажной иерархии и случайных людей. Все члены команды являются инженерами и пишут код. Мы также постоянно усиливаем команду, приобретая новые навыки и компетенции. Вклад каждого сотрудника виден всем и честно оценивается с возможностью повышения должности и дохода.\n\nВот ссылка вакансию на hh.ru – https://hh.ru/vacancy/36723242, там подробнее о том, чего мы ждем и что предлагаем взамен.\n\n📌Контакты: @darya_laika, dppostolaki@sberbank.ru\n\n—\n\n👉 Обсуждение вакансии в чате @devops_jobs","markup":[{"type":"hashtag","offset":0,"length":9,"data":"вакансия"},{"type":"hashtag","offset":10,"length":7,"data":"Москва"},{"type":"hashtag","offset":18,"length":5,"data":"офис"},{"type":"hashtag","offset":447,"length":8,"data":"Ansible"},{"type":"hashtag","offset":457,"length":8,"data":"Jenkins"},{"type":"hashtag","offset":467,"length":6,"data":"Shell"},{"type":"hashtag","offset":475,"length":11,"data":"Kubernetes"},{"type":"hashtag","offset":488,"length":10,"data":"OpenShift"},{"type":"hashtag","offset":500,"length":7,"data":"Docker"},{"type":"link","offset":1675,"length":5,"data":"http://hh.ru"},{"type":"link","offset":1683,"length":30,"data":"https://hh.ru/vacancy/36723242"},{"type":"handle","offset":1787,"length":12,"data":"darya_laika"},{"type":"link","offset":1801,"length":23,"data":"mailto:dppostolaki@sberbank.ru"},{"type":"handle","offset":1859,"length":12,"data":"devops_jobs"}],"date":"2020-06-16T11:51:46+00:00","link":"tg://resolve?domain=devops_jobs_feed&post=2114","tags":[{"name":"dotnet"},{"name":"ansible"},{"name":"jenkins"},{"name":"shell"},{"name":"kubernetes"},{"name":"docker"},{"name":"apache"},{"name":"kafka"}],"cities":[{"code":"moscow"}],"allowsRemote":false}},{"node":{"__typename":"Job","id":"1696595968-1001091028994","title":"Java разработчик","text":"#вакансия  #офис #удаленка #регионы #Москва #Java #Spring #senior #middle #backend\nЛокация: #регион #Москва\nФормат работы: #офис #fulltime #удаленка\nЗ/п: 150-250 NET\nКомпания: МД-IT\nВедущий разработчик/Разработчик JAVA  \nВсем привет!\n\n✅Нужны классные разработчики Java уровня Middle, Senior, Lead\n\n👉Немного о нас: \nЦентр разработки МД-IT реализует проекты федерального масштаба под ключ. Наши специалисты работают с крупнейшими системными интеграторами, выполняя задачи по проектированию, разработке, тестированию, сопровождению и эксплуатации внедренных решений. \nНаши офисы расположены в Москве, Ростове-на –Дону, Нижнем Новгороде. \n\n👉Что ждем от Вас:\n* Уверенные знания java 8+, spring boot, будет плюсом знание Kotlin. \n Глубокие знания и практический опыт использования Java в нагруженных многопоточных приложениях Hibernate, Spring, Maven3, ХML\n\n* Опыт проектирования версионнированных REST-API, знание grpc будет плюсом\n\n* Понимание принципов асинхронного программирования, знание одного из: netty, nio, r2dbc\n\n* Желателен опыт использования библиотек реактивного программирования (rxjava, reactor) или опыт работы с vert.x, ratpack или http4\n\n*Приветствуется опыт работы с современными архитектурами, Apache Ignite, Apache Kafka\n\n👉Что мы можем предложить Вам:\n\n* Работа: удаленка\n\n*График работы 5/2, команда работает с 9(10) до 18(19) ч. по МСК\n\n*Заработную плату белую, конкурентоспособную (рассмотрим ваши предложения).\n\n* Работа в команде сообразительных, открытых, стремящихся к развитию единомышленников.\n\n* Крупные и долгосрочные проекты, увеличивающие профессиональный кругозор и опыт работы. \n* Плюшки к чаю и кофе, оплачиваемая мобильная связь, оплачиваемые тренинги и курсы для повышения квалификации. \n\n🖍 Вопросы, резюме прошу писать в личку Елене @Elenazlh","markup":[{"type":"hashtag","offset":0,"length":9,"data":"вакансия"},{"type":"hashtag","offset":11,"length":5,"data":"офис"},{"type":"hashtag","offset":17,"length":9,"data":"удаленка"},{"type":"hashtag","offset":27,"length":8,"data":"регионы"},{"type":"hashtag","offset":36,"length":7,"data":"Москва"},{"type":"hashtag","offset":44,"length":5,"data":"Java"},{"type":"hashtag","offset":50,"length":7,"data":"Spring"},{"type":"hashtag","offset":58,"length":7,"data":"senior"},{"type":"hashtag","offset":66,"length":7,"data":"middle"},{"type":"hashtag","offset":74,"length":8,"data":"backend"},{"type":"hashtag","offset":92,"length":7,"data":"регион"},{"type":"hashtag","offset":100,"length":7,"data":"Москва"},{"type":"hashtag","offset":123,"length":5,"data":"офис"},{"type":"hashtag","offset":129,"length":9,"data":"fulltime"},{"type":"hashtag","offset":139,"length":9,"data":"удаленка"},{"type":"handle","offset":1772,"length":9,"data":"Elenazlh"}],"date":"2020-06-16T11:17:46+00:00","link":"tg://resolve?domain=jvmjobs&post=1618","tags":[{"name":"java"},{"name":"jvm"},{"name":"spring"},{"name":"dotnet"},{"name":"kotlin"},{"name":"hibernate"},{"name":"maven"},{"name":"rest"},{"name":"apache"},{"name":"kafka"},{"name":"spring-boot"}],"cities":[{"code":"moscow"}],"allowsRemote":true}},{"node":{"__typename":"Job","id":"2215641088-1001134745498","title":"Devops engineer","text":"#вакансия #devops #fulltime #релокация #казань #удаленка \n\nВакансия: DevOps Engineer\nКомпания: Ак Барс Цифровые Технологии.\nЛокация: Казань, возможна релокация.\nФормат работы: офис и удаленный формат.\nЗанятость: полная.\nКонтакт:@aabilova\n\nВсем привет! Мы разрабатываем цифровые продукты в сфере финтех и находимся в поисках DevOps Engineer.\n\nЗадачи:\n•Сопровождение и развитие текущей инфраструктуры проекта, поддержка тестового окружения и переноса данных между тестовыми серверами.\n•Разработка инструментов и автоматизация процессов развертывания систем, проектов и окружений, организация стабильного процесса выпуска версий продуктов.\n•Планирование архитектуры, прогноз по нагрузке.\n•Взаимодействие с разработчиками и сисадминами, координация команд по смежным областям.\n•Решение возникающих в процессе развёртывания проблем.\n\nЖелателен опыт с:\n•ОС Linux (серверные и клиентские).\n•Системы контейнеризации (мы используем RedHat OpenShift).\n•Уверенные навыки Shell-скриптинга (Bash).\n•Continious Integration (Teamcity) \\ Continious Delivery (Octopus).\n•Системы мониторинга (SCOM \\ Zabbix).\n•NoSQL СУБД (MongoDB, Redis).\n•Системы контроля версий (GIT).\n•Веб-серверы и балансировщики нагрузки (Apache \\ nginx \\ haproxy).\n•Навыки использования аналогичных по функциональности инструментов вполне допустимы, инструменты - не главное, важно понимание.\n\nБазовая экспертиза в областях:\n•ОС Windows (серверные).\n•Системы виртуализации (Vmware), системы управления (Vcenter \\ Openstack).\n•Системы управления конфигурацией (Ansible \\ Chef \\ Puppet \\ SaltStack).\n•Реляционные СУБД (SQL Server \\ Postgre \\ Mysql).\n•Agile-разработка.\n•Информационная безопасность.\n•Архитектура информационных систем.\n\nЧто предлагаем:\n•Работа в команде профессионалов из разных городов с общими интересами и разными взглядами.\n•Официальное трудоустройство, белая зарплата.\n•Программа релокации для иногородних.\n•ДМС.\n•Комфортный офис (кухня, зоны отдыха, X-box, бесплатные парковочные места, фрукты).\n•Профессиональное развитие и обучение (внутренние и внешние профильные мероприятия).\n•Физическое развитие (спортивная комната, скидки на занятия в фитнес-центре, футбол).\n•Зарплата -  вилка 100-150 тыс.руб., обсуждается индивидуально на интервью.\n\nКонтакт:@aabilova\n\n—\n\n👉 Обсуждение вакансии в чате @devops_jobs","markup":[{"type":"hashtag","offset":0,"length":9,"data":"вакансия"},{"type":"hashtag","offset":10,"length":7,"data":"devops"},{"type":"hashtag","offset":18,"length":9,"data":"fulltime"},{"type":"hashtag","offset":28,"length":10,"data":"релокация"},{"type":"hashtag","offset":39,"length":7,"data":"казань"},{"type":"hashtag","offset":47,"length":9,"data":"удаленка"},{"type":"handle","offset":228,"length":9,"data":"aabilova"},{"type":"handle","offset":2227,"length":9,"data":"aabilova"},{"type":"handle","offset":2271,"length":12,"data":"devops_jobs"}],"date":"2020-06-16T10:19:49+00:00","link":"tg://resolve?domain=devops_jobs_feed&post=2113","tags":[{"name":"linux"},{"name":"shell"},{"name":"bash"},{"name":"nosql"},{"name":"mongodb"},{"name":"redis"},{"name":"git"},{"name":"apache"},{"name":"nginx"},{"name":"windows"},{"name":"ansible"},{"name":"sql"},{"name":"mysql"},{"name":"sql-server"}],"cities":[{"code":"kazan"}],"allowsRemote":true}},{"node":{"__typename":"Job","id":"1686110208-1001091028994","title":"Java разработчик","text":"#вакансия #java #senior #middle \nЛокация: Саратов, Самара, Кемерово \nЗП: 80.000-170.000 на руки\nИщем в команду Java dev  уровня middle/senior в связи с большим количеством интересных проектов и расширения команды.\nКратко по стеку: \n[ Java 11+, Maven, Spring Boot 2+, Hibernate 5+, PostgreSQL 12, RabbitMQ ]\nТребования:\n - Java SE 8 и выше \n- Spring / Spring Boot \n- Hibernate или MyBatis\n- SQL (PostgreSQL) \n- Apache Tomcat или Eclipse Jetty или другой app server\n- Принципы ООП\n- Web сервисы (REST или SOAP).\n Будет плюсом: опыт работы с одним из актуальных frontend фреймворков - Angular, React, Vue; понимание принципов работы протоколов HTTP, HTTPS; работа с очередями (ActiveMQ, RabbitMQ) и опыт работы с Docker.\nЧто предлагаем:\n- белая з/п и оформление в штат;\n- интересные проекты и адекватное руководство; \n- возможность профессионального и карьерного роста;\n- формат интервью 1 этап по Skype или Zoom\nДля связи и резюме @KaterinaHR","markup":[{"type":"hashtag","offset":0,"length":9,"data":"вакансия"},{"type":"hashtag","offset":10,"length":5,"data":"java"},{"type":"hashtag","offset":16,"length":7,"data":"senior"},{"type":"hashtag","offset":24,"length":7,"data":"middle"},{"type":"handle","offset":929,"length":11,"data":"KaterinaHR"}],"date":"2020-06-16T07:55:35+00:00","link":"tg://resolve?domain=jvmjobs&post=1608","tags":[{"name":"java"},{"name":"jvm"},{"name":"maven"},{"name":"spring"},{"name":"hibernate"},{"name":"postgresql"},{"name":"rabbitmq"},{"name":"sql"},{"name":"apache"},{"name":"tomcat"},{"name":"eclipse"},{"name":"jetty"},{"name":"web"},{"name":"rest"},{"name":"soap"},{"name":"angularjs"},{"name":"reactjs"},{"name":"vuejs"},{"name":"docker"},{"name":"spring-boot"}],"cities":[{"code":"saratov"},{"code":"samara"},{"code":"kemerovo"}],"allowsRemote":false}},{"node":{"__typename":"Job","id":"102892568576-1001089317451","title":"Qa инженер","text":"#вакансия #fulltime #офис #Москва #DRTest #Kubernetes #senior #DevOps #TS\n\nКомпания: Техносерв https://technoserv.com/ \nВакансия: Senior QA DevOps\nДля работы на проектах в крупном банке (T&M)\nЗП: 100 000 - 220 000\nГрафик работы: фултайм, 10:00-19:00 (по договоренности)\nМесто работы: офис, г. Москва\n\nЗадачи:\n· Построение/тестирование CI/CD pipelines;\n· Администрирование/тестирование скриптов развертывания Kubernetes кластеров;\n· Консультирование заинтересованных лиц по сопровождению и эксплуатации ПО в части DR тестирования;\n· Изучение и последующее тестирование новых инструментов.\n\nТребования:\n∙ Опыт построения процесса конечной интеграции и мониторинга, управления сетями (настройка машин, виртуализация, безопасность);\n∙ Опыт работы с Kubernetes;\n∙ Опыт администрирования Linux серверов (Centos,RHEL)\n∙ Хорошее знание инструментов DevOps (Docker, Jenkins/TeamCity, Ansible/Salt/Puppet/Chef), понимание принципов DevSecOps;\n∙ Опыт настройки и администрирования веб-серверов (Apache, Nginx, JBoss/WildFly, Glassfish);\n∙ Опыт настройки и администрирования систем мониторинга (Zabbix, Prometheus, Grafana, Nagios);\n∙ Хорошее знание Git;\n∙ Знание shell/bash;\n∙ Опыт работы с ELK Stack (или готовность самостоятельно быстро изучить его на практике);\n∙ Умение доходчиво донести информацию как представителям бизнеса, так и IT-специалистам.\n\nПриветствуется:\n∙ Опыт построения pipelines в TeamCity;\n∙ Знание одного из языков программирования (Python, JS, golang);\n∙ Опыт работы со стеком Atlassian (Jira, Confluence);\n∙ Опыт работы с Redis, RabbitMQ, Elasticsearch, Kafka.\n\nРезюме сюда: QAResume@technoserv.com","markup":[{"type":"hashtag","offset":0,"length":9,"data":"вакансия"},{"type":"hashtag","offset":10,"length":9,"data":"fulltime"},{"type":"hashtag","offset":20,"length":5,"data":"офис"},{"type":"hashtag","offset":26,"length":7,"data":"Москва"},{"type":"hashtag","offset":34,"length":7,"data":"DRTest"},{"type":"hashtag","offset":42,"length":11,"data":"Kubernetes"},{"type":"hashtag","offset":54,"length":7,"data":"senior"},{"type":"hashtag","offset":62,"length":7,"data":"DevOps"},{"type":"hashtag","offset":70,"length":3,"data":"TS"},{"type":"link","offset":95,"length":23,"data":"https://technoserv.com/"},{"type":"link","offset":1588,"length":23,"data":"mailto:QAResume@technoserv.com"}],"date":"2020-06-15T14:52:17+00:00","link":"tg://resolve?domain=qa_jobs&post=0","tags":[{"name":"qa"},{"name":"kubernetes"},{"name":"linux"},{"name":"centos"},{"name":"docker"},{"name":"jenkins"},{"name":"ansible"},{"name":"apache"},{"name":"nginx"},{"name":"jboss"},{"name":"git"},{"name":"shell"},{"name":"bash"},{"name":"python"},{"name":"go"},{"name":"redis"},{"name":"rabbitmq"},{"name":"elasticsearch"},{"name":"kafka"}],"cities":[{"code":"moscow"}],"allowsRemote":false}},{"node":{"__typename":"Job","id":"1677721600-1001091028994","title":"Java developer","text":"#вакансия #java #remote  \nВакансия: Java developer \nКомпания: tracepharm.ru\nФормат работы: удалённо\nЗанятость: полная, частичная (от 30 часов в неделю) \nСтавка: от 1100 до 1300 р/ч\nКонтакты: @Tragoman\n\nОбязанности\n- развитие существующих и разработка новых микросервисов\n- интеграция с внешними системами через REST API\n- работа с СУБД PostgreSQL\n- написание, модификация и оптимизация хранимых процедур в БД\n\nТребования:\n- опыт разработки на JAVA от 2 лет\n- уверенные знания в многопоточности\n- хорошее знание SQL, знание PL/pgSQL или PL/SQL;\n- опыт работы с  Docker контейнерами\n\nНаш стек: от Java 8, PostgreSQL, Apache Camel, Camnda BPM, Spring Framework, Hibernate, ActiveMQ, Kafka, Redis, ELK, ОС Linux\n\nУсловия: \n- работа в распределенной команде\n- гибкий график (работаете в удобное для Вас время)\n- сотрудничаем с ИП\n\nСфера деятельности компании: разработка ПО для участников фармацевтического рынка.","markup":[{"type":"hashtag","offset":0,"length":9,"data":"вакансия"},{"type":"hashtag","offset":10,"length":5,"data":"java"},{"type":"hashtag","offset":16,"length":7,"data":"remote"},{"type":"bold","offset":26,"length":10,"data":""},{"type":"bold","offset":52,"length":9,"data":""},{"type":"link","offset":62,"length":13,"data":"http://tracepharm.ru"},{"type":"bold","offset":76,"length":14,"data":""},{"type":"bold","offset":100,"length":10,"data":""},{"type":"bold","offset":153,"length":7,"data":""},{"type":"bold","offset":181,"length":9,"data":""},{"type":"handle","offset":191,"length":9,"data":"Tragoman"},{"type":"bold","offset":202,"length":12,"data":""},{"type":"bold","offset":410,"length":12,"data":""},{"type":"bold","offset":582,"length":9,"data":""},{"type":"bold","offset":709,"length":10,"data":""},{"type":"bold","offset":826,"length":28,"data":""}],"date":"2020-06-15T06:47:29+00:00","link":"tg://resolve?domain=jvmjobs&post=1600","tags":[{"name":"java"},{"name":"jvm"},{"name":"rest"},{"name":"postgresql"},{"name":"sql"},{"name":"docker"},{"name":"apache"},{"name":"spring"},{"name":"hibernate"},{"name":"kafka"},{"name":"redis"},{"name":"linux"},{"name":"apache-camel"}],"cities":[],"allowsRemote":true}},{"node":{"__typename":"Job","id":"26294091776-1001075660570","title":"Php разработчик","text":"#вакансия #удалённо #фронтенд #javascript #AngularJs #Symfony\n\nКомпания: Промрукав\nО компании: Компания «Промрукав» — это торгово-производственная организация, с 1999 года динамично развивающаяся на рынке кабеленесущих систем. \nФормат работы: удалённая работа, график работы 5/2, частичная занятость (<5 ч/день), по желанию возможна работа в офисе\nПроект: B2B Ecommerce\nЗаработная плата: от 50 000 и выше (на руки)\nЗадачи/Обязанности: \nПоддержка и развитие e-commerce проектов компании: b2b-платформа, сайт: \n- разработка новых сервисов компании\n- оптимизация и поддержка текущих продуктов\n- улучшать имеющийся функционал и разрабатывать новый \n- участвовать в принятии архитектурных решений\n- способного к эффективному взаимодействию удалённо или в офисе\n- чёткое следование установленным Вами же срокам \n- оперативное решение проблем   \nСтек: \n  LAMP/LEMP для оптовой онлайн торговли.\n  PHP 7, MySQL, Nginx, Nodejs\n  Фреймворки: Symfony (Symfony console component, Symfony process component, Swift Mailer)\n  Модульная сетка и внешний вид: gentelella\n  Фреймворки: bootstrap, AngularJs\n\nТребования:\n•  Опыт работы от 3х лет\n•  Уверенное знание , MySQL, OOP, Composer, Design patterns в целом, Git.  PHP 7 \n•  Навыки работы в Linux, Apache/nginx, Bootstrap (Gentelella), AngularJs, Nodejs (сборщик js -> gulp на nodejs работает + различные js компоненты). \n•  Приветствуются знания в области интеграции сайта с 1С (использование Web- и HTTP-сервисов) \n\nЧто предлагаем: \nМы не web-студия и не зарабатываем, продавая Ваши способности третьим лицам, поэтому для разработчика наши проекты — это возможность заниматься одним интересным делом без необходимости каждый раз вникать в новый проект и тонкости его работы. Преимущества работы у нас это:\n • стабильный ежемесячный заработок в формате удалённой работы с оформление по ТК; \n • небольшой, но очень дружный коллектив (ИТ-отдел);\n • один руководитель;  \n • возможность посещения всероссийских и международных IT-конференций;\n • возможность принимать участие в корпоративных мероприятиях (проезд оплачивается)\n\nКонтакт для связи: \nTelegram: @dnmit","markup":[{"type":"hashtag","offset":0,"length":9,"data":"вакансия"},{"type":"hashtag","offset":10,"length":9,"data":"удалённо"},{"type":"hashtag","offset":20,"length":9,"data":"фронтенд"},{"type":"hashtag","offset":30,"length":11,"data":"javascript"},{"type":"hashtag","offset":42,"length":10,"data":"AngularJs"},{"type":"hashtag","offset":53,"length":8,"data":"Symfony"},{"type":"handle","offset":2095,"length":6,"data":"dnmit"}],"date":"2020-06-14T14:06:14+00:00","link":"tg://resolve?domain=php_jobs&post=25076","tags":[{"name":"php"},{"name":"javascript"},{"name":"angularjs"},{"name":"symfony"},{"name":"mysql"},{"name":"nginx"},{"name":"nodejs"},{"name":"swift"},{"name":"bootstrap"},{"name":"git"},{"name":"linux"},{"name":"apache"},{"name":"gulp"},{"name":"web"}],"cities":[],"allowsRemote":true}},{"node":{"__typename":"Job","id":"26285703168-1001075660570","title":"Php разработчик","text":"#вакансия #vacancy #fulltime #remote #fullstack #senior #middle\n\nПозиция: PHP Developer (Full-Stack)\nКомпания: SO Services Ltd\nФормат работы: удаленная работа\nЗанятость: полная\nОплата: от 2500 до 4000 USD в месяц\nКонтакт: Марк, @mark_soservices\n\nДобрый день! Мы ищем PHP разработчика для нашего клиента из США. Требуется разговорный английский. Оформление контракта через ИП - с этим проконсультируем.\n\nWhat will you do?\nWe are looking for a Software Engineer (Full Stack) who will have a voice in our product with the desire to mentor, motivate, and deliver exceptional code. \nYou will work on projects that will allow you to wear many hats and flex both technical development and collaborative, communication skills. Your main responsibility will be the development and implementation of web applications to create a process for innovation.\n\nResponsibilities\n- Collaborate with Product teams to implement robust, high performance, data-driven web applications\n- Architect web applications from the ground up, with a focus on extensibility and scalability\n- Provide insight into upgrading legacy platforms to the latest and relevant technologies\n- Solve complex problems with innovative and elegant design and delivery\n- Develop and maintain internal components and libraries\n- Integrate third party technologies\n- Enforce coding standards and set a high standard for code quality\n- Mentor and guide junior engineers\n- Participate in hiring process of new engineers\n\nRequirements\n- 6+ years professional experience building front and back-end web applications\n- Solid understanding of web standards, CSS-based design, cross-browser compatibility\n- Expert knowledge of PHP frameworks (Yii preferred)\n- Expert knowledge of SQL\n- Expert knowledge of modern Javascript frameworks (React preferred)\n- Experience with Git\n- Knowledgeable with software development lifecycles (Agile, Kanban, etc.)\n- Familiar with test driven development processes\n- Strong technical programming skills utilizing a variety of different coding languages and tools\n- Comfortable with taking ownership of projects and showcasing key accomplishments\n- Striving for continued learning opportunities to build upon craft\n- Excellent organisational skills and attention to detail\n- Ability to work quickly and independently with minimal oversight\n- Ability to accept feedback and constructive criticism positively\n- Extremely strong and demonstrable work ethic\n\nTechnology Stack\n- PHP, Yii, Apache\n- MySQL, MS SQL, Solr, Elastic Search\n- CSS and Sass\n- React, Marionette.js, Backbone\n- Git","markup":[{"type":"hashtag","offset":0,"length":9,"data":"вакансия"},{"type":"hashtag","offset":10,"length":8,"data":"vacancy"},{"type":"hashtag","offset":19,"length":9,"data":"fulltime"},{"type":"hashtag","offset":29,"length":7,"data":"remote"},{"type":"hashtag","offset":37,"length":10,"data":"fullstack"},{"type":"hashtag","offset":48,"length":7,"data":"senior"},{"type":"hashtag","offset":56,"length":7,"data":"middle"},{"type":"handle","offset":228,"length":16,"data":"mark_soservices"},{"type":"bold","offset":403,"length":17,"data":""},{"type":"bold","offset":844,"length":16,"data":""},{"type":"bold","offset":1468,"length":12,"data":""},{"type":"bold","offset":2431,"length":16,"data":""}],"date":"2020-06-13T13:31:17+00:00","link":"tg://resolve?domain=php_jobs&post=0","tags":[{"name":"php"},{"name":"web"},{"name":"css"},{"name":"yii"},{"name":"sql"},{"name":"javascript"},{"name":"reactjs"},{"name":"git"},{"name":"apache"},{"name":"mysql"},{"name":"solr"},{"name":"elasticsearch"},{"name":"sass"},{"name":"backbonejs"},{"name":"cross-browser"}],"cities":[],"allowsRemote":true}},{"node":{"__typename":"Job","id":"2200961024-1001134745498","title":"Devops инженер","text":"#вакансия #Remote #работаDevOps  #удаленка #DevOps #Cyprus #Relocation\n\nКомпания: Exness\nФормат работы: удаленная или релокация на Кипр (по желанию кандидата)\nЗанятость: полная\nЗарплатная вилка: от 3000 до 4000 EUR (обсуждаем с кандидатами по итогам интерью)\n\nВсем привет! Мы - компания Exness 🌟 Разрабатываем собственные продукты в Fintech. \nИщем талантливого DevOps/DBA инженера, который сможет внести экспертизу в продуктовую команду по обработке торговых данных, обладая глубокими знаниями в управлении базами данных 💥\n\n🤗**Чем предстоит заниматься?**\nТесно работать над исследованиями, разработкой новых функций продукта, проверкой гипотез, улучшением качества, выявлением и решением проблем производительности, особенно с базами данных - их масштабирование, разбиение, разбиение, оптимизация запросов и т. д.\n\n🛠**Наш стэк:**\nBackend: Java, Go;\nETL: Clickhouse, MongoDB/Postgres;\nIT infra: Kubernetes;\nVCS/CICD: Gitlab, Teamcity.\n\n🤞**Чего мы ожидаем от кандидата:**\n- Знание операций и администрирования СУБД\n- Знание парадигмы и стека NoSQL (мы предпочитаем MongoDB)\n- Экспертное знание дизайна больших баз данных\n- Опыт работы с RabbitMQ и Apache Kafka\n- Экспертное знание инструментов и подходов CI / CD.\n- Опыт разработки программного обеспечения не менее 1 года (мы предпочитаем: Java, Go или Python)\n\nБудет плюсом: \n\n- Знание технологий облачных баз данных, таких как AWS RDS, AWS Aurora, AWS Redshift.\n\n🔥**Мы предлагаем:**\nПри удаленном сотрудничестве:\n- Медицинское страхование для сотрудника и членов их семей;\n- Компенсация спорта;\n- Путешествие на Кипр, чтобы познакомиться со своей командой (раз в год).\n\nПри желании релокации на Кипр:\n- Релокационный пакет для нового сотрудника и его семьи (билеты, визы, разрешение на работу, корпоративная квартира на первый месяц и т. д.);\n- Корпоративный автомобиль Мини Купер S;\n- Медицинское страхование для сотрудника и членов их семей;\n- Корпоративный фитнес-центр для сотрудников и их супругов;\n- Программа компенсации детского сада / школы;\n- Непрерывное профессиональное развитие, много интересных задач;\n- Отличный офис со свежевыжатыми соками, печеньем и лучшим видом на море из нашего собственного бара на крыше. \n\nКонтакт: @sofia_tomashevich\n\n—\n\n👉 Обсуждение вакансии в чате @devops_jobs","markup":[{"type":"hashtag","offset":0,"length":9,"data":"вакансия"},{"type":"hashtag","offset":10,"length":7,"data":"Remote"},{"type":"hashtag","offset":18,"length":13,"data":"работаDevOps"},{"type":"hashtag","offset":33,"length":9,"data":"удаленка"},{"type":"hashtag","offset":43,"length":7,"data":"DevOps"},{"type":"hashtag","offset":51,"length":7,"data":"Cyprus"},{"type":"hashtag","offset":59,"length":11,"data":"Relocation"},{"type":"handle","offset":2195,"length":18,"data":"sofia_tomashevich"},{"type":"handle","offset":2248,"length":12,"data":"devops_jobs"}],"date":"2020-06-12T08:26:57+00:00","link":"tg://resolve?domain=devops_jobs_feed&post=2099","tags":[{"name":"java"},{"name":"mongodb"},{"name":"postgresql"},{"name":"kubernetes"},{"name":"gitlab"},{"name":"nosql"},{"name":"rabbitmq"},{"name":"apache"},{"name":"kafka"},{"name":"python"},{"name":"amazon-web-services"}],"cities":[{"code":"aurora"},{"code":"sofia"}],"allowsRemote":true}}]}}},"context":{}}