{"hash":"f5f6bf98bd95e769321482904cbbd488f77922fd","data":{"records":{"id":"git","name":"git","belongsTo":{"totalCount":273,"pageInfo":{"totalPages":28,"currentPage":24},"edges":[{"node":{"__typename":"Job","id":"1687158784-1001091028994","title":"Java разработчик","text":"#java #senior #backend #js #Москва #fulltime #офис #angular\nЛокация: Москва, м. Шаболовская\nФормат работы: Office\nЗанятость: Fulltime\nЗарплата от 100 к до 240 к\nОписание вакансии:\nРазработчик JAVA (senior\\middle)\nНаш клиент - международная компания, в связи с расширением деятельности в России - приглашает опытных Java-разработчиков. \nРазработка собственного продукта - коммерческого приложения на основе Angular front + Java backend.\nОбязанности:\n- разработка новых компонентов системы\n- доработка и оптимизация существующих компонентов\n- поддержка качества кода (code review, использование систем автоматизированного контроля кода)\n- Написание юнит-тестов и функциональных тестов\n- Взаимодействие с бизнес-аналитиками для выполнения техзадания\nТребования:\n- Высшее образование\n- Командность, гибкость подходов и мышления\n- опыт разработки на java от 3 лет\nТехнические требования:\n- знание java 8, Spring-*(Boot, Data, Rest), Hibernate\n- опыт работы с SQL (SQL Server, Oracle или postgresql)\n- понимание основ микросервисной архитектуры\n- Git\n-если ты умеешь работать с Docker и понимаешь практики DevOps ты тот, кто нам нужен.\nАдекватных руководителей, сильную команду и офисные плюшки гарантируем\nКА Wit recruitment\nКонтакты m.buldenko@witrec.com\n@marinabuldenko","markup":[{"type":"hashtag","offset":0,"length":5,"data":"java"},{"type":"hashtag","offset":6,"length":7,"data":"senior"},{"type":"hashtag","offset":14,"length":8,"data":"backend"},{"type":"hashtag","offset":23,"length":3,"data":"js"},{"type":"hashtag","offset":27,"length":7,"data":"Москва"},{"type":"hashtag","offset":35,"length":9,"data":"fulltime"},{"type":"hashtag","offset":45,"length":5,"data":"офис"},{"type":"hashtag","offset":51,"length":8,"data":"angular"},{"type":"link","offset":1229,"length":21,"data":"mailto:m.buldenko@witrec.com"},{"type":"handle","offset":1251,"length":15,"data":"marinabuldenko"}],"date":"2020-06-16T08:20:47+00:00","link":"tg://resolve?domain=jvmjobs&post=1609","tags":[{"name":"java"},{"name":"jvm"},{"name":"angularjs"},{"name":"spring"},{"name":"rest"},{"name":"hibernate"},{"name":"sql"},{"name":"oracle"},{"name":"postgresql"},{"name":"git"},{"name":"docker"},{"name":"spring-boot"},{"name":"sql-server"}],"cities":[{"code":"moscow"}],"allowsRemote":false}},{"node":{"__typename":"Job","id":"16954425344-1001110946746","title":"Js разработчик","text":"#вакансия #удалённо #nestjs #nest #fullstack #typescript \n\nFullstack TypeScript Developer\n\nhttps://edm-ghost-production.com ищет в команду разработчика для создания музыкальной платформы. \n\n⭐Стек: \nNode.Js, TypeScript, Express, NestJS, TypeOrm, PostgreSQL, Redis, Vue \n\n🔻 Требования:\n- Опыт работы с NestJS (не менее 6 месяцев), TypeOrm;\n- Опыт работы с Vue (vue-class-component, vue-property-decorator) не менее года\n- Знания ES6/ES7/ES8;\n- REST APIs, на основе Express и NestJS;\n- Опыт работы с PostgreSQL; \n- Typescript (не менее года)\n- ESLint;\n- Знание основ систем контроля версий (Git);\n- Умение работать в команде и писать чистый код;\n\n💥Будет плюсом:\n- AWS S3;\n- Интеграция с Helpdesk (Zendesk/Intercom/Helpcrunch etc.)\n\n🙋♂Обязанности:\n- Разработка бэкенда и фронтэнда нового приложения \n- Взаимодействие с другими разработчиками\n\n🔹Условия:\n- Удалённая работа\n- Полная занятость \n- Гибкий график работы (важно что бы все задачи были выполнены)\n- Зарплатная вилка 120 000 - 200 000 рублей (в зависимости от уровня кандидата middle/senior)\n\nПрисылайте CV в ЛС @alexlarichev","markup":[{"type":"hashtag","offset":0,"length":9,"data":"вакансия"},{"type":"hashtag","offset":10,"length":9,"data":"удалённо"},{"type":"hashtag","offset":20,"length":7,"data":"nestjs"},{"type":"hashtag","offset":28,"length":5,"data":"nest"},{"type":"hashtag","offset":34,"length":10,"data":"fullstack"},{"type":"hashtag","offset":45,"length":11,"data":"typescript"},{"type":"link","offset":91,"length":32,"data":"https://edm-ghost-production.com"},{"type":"handle","offset":1070,"length":13,"data":"alexlarichev"}],"date":"2020-06-16T06:34:02+00:00","link":"tg://resolve?domain=javascript_jobs_feed&post=0","tags":[{"name":"javascript"},{"name":"typescript"},{"name":"nodejs"},{"name":"express"},{"name":"postgresql"},{"name":"redis"},{"name":"vuejs"},{"name":"rest"},{"name":"git"},{"name":"amazon-web-services"}],"cities":[],"allowsRemote":true}},{"node":{"__typename":"Job","id":"71338819584-1001054966032","title":"Android разработчик","text":"#казань #вакансия #работа #android #fудаленка                                                                                                                                                              Город: Казань \nФорма работы: удаленка; проектная занятость на 2-3 месяца                                                                                                             Зарплатная вилка: 60 000 - 80 000 \nНаш стек: Kotlin/Java, Moxy, Cicerone, Retrofit, Dagger2, RxJava2, Room, FCM, Gitlab CI, Mockito                                                                                    Обязанности:\n- Участие в командной разработке, тестировании, оптимизации существующих мобильных приложений на платформе Android;\n- Проектирование архитектуры приложений;\n\nТребования:\n- Опыт коммерческой разработки под Android от 1 года (Java/Kotlin);\n- Опыт создания клиент-серверных приложений;\n- Уверенное знание Java Core, Android SDK;\n- Знание основных технологий и протоколов передачи данных;\n- Знание ООП и паттернов проектирования;\n- Опыт работы с системами контроля версий Git;\n- Английский язык на уровне понимания технической литературы.\n\nБудет плюсом:\n- Наличие завершённых проектов в магазинах приложений;\n- Понимание принципов Clean Architecture;\n- Опыт написания unit и UI-тестов;\n- Умение организовать CI/CD в проекте;\n- Опыт работы с DI.                                                                                                                                                                                                                             Контакты: @daryahr","markup":[{"type":"hashtag","offset":0,"length":7,"data":"казань"},{"type":"hashtag","offset":8,"length":9,"data":"вакансия"},{"type":"hashtag","offset":18,"length":7,"data":"работа"},{"type":"hashtag","offset":26,"length":8,"data":"android"},{"type":"hashtag","offset":35,"length":10,"data":"fудаленка"},{"type":"link","offset":402,"length":15,"data":"tel:60 000 - 80 000"},{"type":"handle","offset":1583,"length":8,"data":"daryahr"}],"date":"2020-06-16T06:01:14+00:00","link":"tg://resolve?domain=mobile_jobs&post=0","tags":[{"name":"mobile"},{"name":"android"},{"name":"kotlin"},{"name":"java"},{"name":"gitlab"},{"name":"git"}],"cities":[{"code":"kazan"}],"allowsRemote":true}},{"node":{"__typename":"Job","id":"16952328192-1001110946746","title":"Javascript разработчик","text":"#вакансия #frontend #react #typescript #middle #senior #москва #офис #fulltime\n\nПозиция – Frontend developer\nКомпания – Quadcom\nЛокация – Москва, м. Ботанический сад\nЗанятость – полная, офис, гибкое время начала дня\nОплата: от 150 000 до 200 000 рублей на руки\n\nМы ищем талантливого фронтенд-разработчика в нашу не очень большую, но дружную команду.\nЕсли ты легко осваиваешь новые технологии, любишь чистый и красивый код, знаешь алгоритмы и готов развиваться, то мы очень хотим тебя к себе!\n\nМы разрабатываем различные сервисы и интерфейсы для внутреннего и внешнего использования. У нас есть как большие проекты, так и маленькие. Начиная с 2014 года с небольшой команды мы развились до довольно большой компании и развиваемся дальше\n\nБазируемся в уютном бизнес-центре недалеко от метро Ботанический сад и ВДНХ. У нас гибкий рабочий график, современный офис и отличное оборудование для работы.\n\n✅ Необходимые навыки:\n\n• Знание Javascript и ES6+, React + Redux\n• Уверенные знания HTML, CSS/SASS/LESS\n• Опыт работы в команде с использованием Git и системой управления задачами\n\n✅ Плюсом будет:\n\n• Опыт написания собственного REST API\n• Знакомство с TypeScript\n• Знание алгоритмов и структур данных\n\n✅ Мы предлагаем:\n\n• Работу в успешной, растущей компании\n• Карьерный и профессиональный рост\n• Уютный офис\n• Отсутствие какого-либо дресс-кода\n• Свободный график\n• Адекватное руководство\n\nЗП от 150 000 до 200 000 рублей на руки\nпо итогам собеседования и испытательного срока\n\n☎️ Контакты для обсуждения вакансии:\n\ntelegram @codebor\ne-mail ybb@quadcom.ru\n\n💡Для желающих мы подготовили небольшое задание [~4 часа]\nhttps://github.com/walborn/test-backend-jwt/blob/master/task.md","markup":[{"type":"hashtag","offset":0,"length":9,"data":"вакансия"},{"type":"hashtag","offset":10,"length":9,"data":"frontend"},{"type":"hashtag","offset":20,"length":6,"data":"react"},{"type":"hashtag","offset":27,"length":11,"data":"typescript"},{"type":"hashtag","offset":39,"length":7,"data":"middle"},{"type":"hashtag","offset":47,"length":7,"data":"senior"},{"type":"hashtag","offset":55,"length":7,"data":"москва"},{"type":"hashtag","offset":63,"length":5,"data":"офис"},{"type":"hashtag","offset":69,"length":9,"data":"fulltime"},{"type":"handle","offset":1521,"length":8,"data":"codebor"},{"type":"link","offset":1537,"length":14,"data":"mailto:ybb@quadcom.ru"},{"type":"link","offset":1611,"length":63,"data":"https://github.com/walborn/test-backend-jwt/blob/master/task.md"}],"date":"2020-06-15T21:32:03+00:00","link":"tg://resolve?domain=javascript_jobs_feed&post=0","tags":[{"name":"javascript"},{"name":"reactjs"},{"name":"typescript"},{"name":"redux"},{"name":"html"},{"name":"css"},{"name":"sass"},{"name":"git"},{"name":"rest"},{"name":"github"},{"name":"jwt"},{"name":"react-redux"}],"cities":[{"code":"moscow"}],"allowsRemote":false}},{"node":{"__typename":"Job","id":"340787200-1001352129329","title":"Golang разработчик","text":"#вакансия #Москва #senior #Go #fulltime #офис #удаленка  \nВакансия: Lead or Senior Golang Developer \nКомпания: Skytech Solutions\nГород: Moscow/Malta\nФормат работы: офис или удаленка (на выбор кандидата)\nЗанятость: полная\nВилка заработной платы: от 180 000 - 230 000 р на руки\n\nТребуемый опыт работы: 3–6 лет.\nПолная занятость, полный день\n\nОбязанности:\nСоздание высоконагруженных сервисов / микро-сервисов;\nРазработка интеграции с внешними сервисами;\nРазработка платформы для Betting / Gambling;\nРазработка надежной, безопасной и безотказной экосистемы;\nРешение сложных и интересных задач;\n\nТребования:\nИметь опыт коммерческой разработки ПО на Go не менее 3-х лет, отличное знание языка и экосистемы;\nПонимание многопоточности, параллельных вычислений и широко используемых структур данных и алгоритмов;\nПонимание основных паттернов проектирования;\nУмение работать с контролем версий Git;\nУверенно знаете стек TCP / IP;\nЗнаете RFC стандартны HTTP / WebSockets;\nРаботаете с REST / GraphQL;\nЗнание лучших практик разработки микро-сервисных архитектур, Docker и опыт production релизов совместно с девопс инженерами;\nИмеете опыт написания высоконагруженных систем;\nРаботаете unix-подобными системами;\nОтличное знание SQL и одной из реляционных СУБД.\nСильные навыки решения проблем, желание работать в команде;\n\nБудет плюсом:\nПрофильное высшее образование (математическое или техническое);\nИмеете опыт разработки подобных решений (Ставки на спорт/Gambling/Poker/Trade)\nЗнание Алгоритмов\nОпыт работы с Графовыми базами данных;\n\nSoft skills:\nРешать поставленные задачи максимально эффективно в поставленный срок;\nЯвляться командным разработчиком, слышать других и учитывать чужое мнение;\nПонимать, что не надо делать overhead там, где это не надо;\nБыть самостоятельным и уметь брать на себя ответственность за свои решения;\nСчитать тестирование неотъемлемой частью разработки;\nСпокойно относиться к техническому долгу, так как это нормальный этап в развитии проекта;\n\nНемного о проекте:\nВ связи с расширением нашего портфеля проектов, мы находится в поисках квалифицированных разработчиков ПО.\nМы разрабатываем  высоконагруженный проект, связанный со ставками на sport/e-sport , фактически - это биржа ставок со своими сопутствующими сервисами, в нашем случае упор идет на Algo-trading, bot platform, AI и алгоритмы. Проект очень сложный и интересный, нет Legacy кода, все разрабатывается с 0. Будем рады видеть тебя в своих рядах.\nНаш стек :\nLinux, Go, PostgreSQL, Git, ArangoDB, Tarantool, Kafka, Redis.\n\nМы предлагаем:\nВозможность карьерного и профессионального роста в международной компании;\nРабота по контракту с зарубежной компанией (Мальта);\nВысокий уровень заработной платы;\nБонусы и премии по итогам выполненных задач;\nРазработка ведется по гибким методологиям;\nВозможна удаленная работа;\nГибкий график работы, но без фанатизма (главное - это качественное выполнение задач в сжатые сроки);\nПК - MacBook;\nМолодой профессиональный коллектив.\n\nКонтакты: telegram @FreddyNigma","markup":[{"type":"hashtag","offset":0,"length":9,"data":"вакансия"},{"type":"hashtag","offset":10,"length":7,"data":"Москва"},{"type":"hashtag","offset":18,"length":7,"data":"senior"},{"type":"hashtag","offset":26,"length":3,"data":"Go"},{"type":"hashtag","offset":30,"length":9,"data":"fulltime"},{"type":"hashtag","offset":40,"length":5,"data":"офис"},{"type":"hashtag","offset":46,"length":9,"data":"удаленка"},{"type":"handle","offset":2968,"length":12,"data":"FreddyNigma"}],"date":"2020-06-15T19:50:50+00:00","link":"tg://resolve?domain=gogetajobfeed&post=325","tags":[{"name":"go"},{"name":"git"},{"name":"rest"},{"name":"graphql"},{"name":"docker"},{"name":"unix"},{"name":"sql"},{"name":"linux"},{"name":"postgresql"},{"name":"kafka"},{"name":"redis"}],"cities":[{"code":"moscow"}],"allowsRemote":true}},{"node":{"__typename":"Job","id":"16939745280-1001110946746","title":"Js developer","text":"#вакансия #JavaScript #Angular \n\nЛокация: Москва м.Достоевская/Новослободская/Менделеевская\nФормат работы: Удаленный формат работы на время карантина/далее офис\nЗанятость: полная\nЗаработная плата: от 140 000 до 240 000 после вычета налогов\nВакансия: Middle/Senior Front Developer\nКомпания: YCLIENTS\nКонтакты: @chernoglazau\n\n⭐️YCLIENTS -облачная ERP система - предоставляет сервисы онлайн-записи, складского учета, расчета зарплат сотрудников, управления уведомлениями и программой лояльности. \nПроекту 10 лет. На сегодняшний день клиентами YCLIENTS являются более 19 тысяч компаний в 400 городах России и стран СНГ. Ежемесячно на платформе совершается более 9 миллионов записей к 160 000 специалистов.\n\n💥Требования:\n    • Отличные знания JavaScript (es.next), TypeScript\n    • Обширный опыт работы с angular (4+) и angularjs, опыт работы с большими проектами\n    • Качественно верстать по mobile-first (Edge и нормальные браузеры)\n    • Опыт работы с cordova/phonegap\n    • Хорошо знаешь как работает git, комфортно себя чувствует в *nix-консоли\n    • Знает, как настраивать webpack\n     \n     💥 Мы работаем командой, и мнение каждого члена для нас имеет значение\n    • Работаем по Agile, в команде есть Scrum-мастер\n    • Отличный Work/Life баланс\n    • Гарантируем, что каждый получит технический буст на этом проекте. Научим, расскажем, главное чтобы Вы были открыты к новым знаниям.\n\nЕсли ты готов к переменам, пиши сразу мне, буду рада пообщаться!","markup":[{"type":"hashtag","offset":0,"length":9,"data":"вакансия"},{"type":"hashtag","offset":10,"length":11,"data":"JavaScript"},{"type":"hashtag","offset":22,"length":8,"data":"Angular"},{"type":"handle","offset":309,"length":13,"data":"chernoglazau"},{"type":"link","offset":751,"length":7,"data":"http://es.next"}],"date":"2020-06-15T18:34:34+00:00","link":"tg://resolve?domain=javascript_jobs_feed&post=0","tags":[{"name":"javascript"},{"name":"angularjs"},{"name":"typescript"},{"name":"mobile"},{"name":"cordova"},{"name":"git"},{"name":"webpack"}],"cities":[{"code":"moscow"}],"allowsRemote":false}},{"node":{"__typename":"Job","id":"71323090944-1001054966032","title":"Ios разработчик","text":"‼️Вакансия Senior IOS C++ Developer‼️\n#вакансия #IOS #developer #удаленка\nВ команде Mycelium Wallet (mycelium.com) открыта вакансия Senior IOS C++ Developer.\n💵З/П 3000-4000 USD по итогам собеседования.\nРабота удаленная 💻\n\nМы предлагаем:\n🔸Получить навыки и компетенции в одном из самых передовых и перспективных направлений финтех индустрии - blockchain;\n🔸Принять участие в разработке одного из самых популярных биткоин-стартапов;\n🔸Работать в международной команде бок о бок с ведущими специалистами в индустрии;\n🔸Возможность профессионального карьерного роста и участия в разнообразных проектах компании.\nЧем предстоит заниматься:\n🔸Разрабатывать мультивалютный крипто-валютный кошелек с кросс-платформенным ядром;\n🔸Проектировать и разрабатывать большие функциональные части приложения с привлечением других разработчиков;\n🔸Использовать cutting edge технологии, а также проверенные временем решения;\n🔸Находить решения для нестандартных задач.\nТребования:\n✔️Как минимум 3 года опыта разработки под IOS и опыта программирования на C++;\nЗнание C++ на уровне ведущего разработчика;\n✔️Знание шаблонов проектирования, опыт использования MVP и других архитектурных подходов;\n✔️Знание шаблонов проектирования пользовательских интерфейсов для iOS 9+ (Human Interface Guidelines);\n✔️Знание iOS SDK (UIKit, Foundation, CoreLocation и др.), общее понимание архитектуры iOS;\n✔️Знание особенностей UiKit: storyboards, autolayout, size classes;\n✔️Знание CocoaPods, FastLane, Xcode utils, code analyzers;\n✔️Опыт параллельного и многопоточного программирования, знание примитивов синхронизации (std::thread, std::mutex и тд);\n✔️Понимание циклов работы IOS-приложения и управления памятью;\n✔️Понимание принципов работы REST API, RPC, WS и клиент-серверных приложений;\n✔️Опыт работы с системами контроля версий (Git) и постановки задач (JIRA, TFS, Redmine);\n✔️Знание английского языка на уровне чтения документации и умения общаться в корпоративном чате.\n\nПлюсом будет:\n🔸Знание Objective-С и Swift;\n🔸Умение и понимание необходимости написания Unit tests;\n🔸Знание основ криптографии;\n🔸Опыт работы с bitcoin/etherium blockchain stack;\n🔸Наличие своих проектов на Github, в App Store и т.д.\n\n📲 Контакт : @valeritata","markup":[{"type":"hashtag","offset":38,"length":9,"data":"вакансия"},{"type":"hashtag","offset":48,"length":4,"data":"IOS"},{"type":"hashtag","offset":53,"length":10,"data":"developer"},{"type":"hashtag","offset":64,"length":9,"data":"удаленка"},{"type":"link","offset":101,"length":12,"data":"http://mycelium.com"},{"type":"handle","offset":2196,"length":11,"data":"valeritata"}],"date":"2020-06-15T18:26:28+00:00","link":"tg://resolve?domain=mobile_jobs&post=0","tags":[{"name":"mobile"},{"name":"ios"},{"name":"uikit"},{"name":"cocoapods"},{"name":"xcode"},{"name":"rest"},{"name":"git"},{"name":"tfs"},{"name":"objective-c"},{"name":"swift"},{"name":"github"}],"cities":[],"allowsRemote":true}},{"node":{"__typename":"Job","id":"71312605184-1001054966032","title":"Android developer","text":"#вакансия #Juniorandroid #Android developer #kotlin #удаленно                                                                                                         Уровень дохода:💵 50 000-60 000  рублей net                                                                                                                                                                                 Требуемый опыт работы: от 1 года\nПолная занятость, дистанционно, гибкое начало рабочего дня\n \n📌Требования:\n- Нативная Android разработка (Kotlin)\n- Умение писать поддерживаемый и тестируемый код\n- Умение работать с Dagger 2\n- Умение работать с git\n- Желание развиваться и изучать новое в разработке\n- Опыт разработки приложений от 1 года\n -Знание английского языка от уровня Intermediate\n \n📌Будет плюсом:\n- Опыт работы с JNI\n- Опыт использования tensorflow\n- Опыт работы с аудио и видео\n\n📌Условия:\n- Отсутствие бюрократии\n- Время начала рабочего дня обговариваем индивидуально\n- Крутой инновационный проект - возможность самореализации и профессионального роста\n- Стабильное зарубежное финансирование\n- Десятки миллионов установок и множество глобальных партнёров\n📞Контакты @SvetikS_hr +7(963)-632-12-36 Cветлана","markup":[{"type":"hashtag","offset":0,"length":9,"data":"вакансия"},{"type":"hashtag","offset":10,"length":14,"data":"Juniorandroid"},{"type":"hashtag","offset":25,"length":8,"data":"Android"},{"type":"hashtag","offset":44,"length":7,"data":"kotlin"},{"type":"hashtag","offset":52,"length":9,"data":"удаленно"},{"type":"link","offset":184,"length":13,"data":"tel:50 000-60 000"},{"type":"handle","offset":1164,"length":11,"data":"SvetikS_hr"},{"type":"link","offset":1176,"length":17,"data":"tel:+7(963)-632-12-36"}],"date":"2020-06-15T15:18:42+00:00","link":"tg://resolve?domain=mobile_jobs&post=0","tags":[{"name":"mobile"},{"name":"android"},{"name":"kotlin"},{"name":"dotnet"},{"name":"git"},{"name":"tensorflow"}],"cities":[],"allowsRemote":true}},{"node":{"__typename":"Job","id":"102892568576-1001089317451","title":"Qa инженер","text":"#вакансия #fulltime #офис #Москва #DRTest #Kubernetes #senior #DevOps #TS\n\nКомпания: Техносерв https://technoserv.com/ \nВакансия: Senior QA DevOps\nДля работы на проектах в крупном банке (T&M)\nЗП: 100 000 - 220 000\nГрафик работы: фултайм, 10:00-19:00 (по договоренности)\nМесто работы: офис, г. Москва\n\nЗадачи:\n· Построение/тестирование CI/CD pipelines;\n· Администрирование/тестирование скриптов развертывания Kubernetes кластеров;\n· Консультирование заинтересованных лиц по сопровождению и эксплуатации ПО в части DR тестирования;\n· Изучение и последующее тестирование новых инструментов.\n\nТребования:\n∙ Опыт построения процесса конечной интеграции и мониторинга, управления сетями (настройка машин, виртуализация, безопасность);\n∙ Опыт работы с Kubernetes;\n∙ Опыт администрирования Linux серверов (Centos,RHEL)\n∙ Хорошее знание инструментов DevOps (Docker, Jenkins/TeamCity, Ansible/Salt/Puppet/Chef), понимание принципов DevSecOps;\n∙ Опыт настройки и администрирования веб-серверов (Apache, Nginx, JBoss/WildFly, Glassfish);\n∙ Опыт настройки и администрирования систем мониторинга (Zabbix, Prometheus, Grafana, Nagios);\n∙ Хорошее знание Git;\n∙ Знание shell/bash;\n∙ Опыт работы с ELK Stack (или готовность самостоятельно быстро изучить его на практике);\n∙ Умение доходчиво донести информацию как представителям бизнеса, так и IT-специалистам.\n\nПриветствуется:\n∙ Опыт построения pipelines в TeamCity;\n∙ Знание одного из языков программирования (Python, JS, golang);\n∙ Опыт работы со стеком Atlassian (Jira, Confluence);\n∙ Опыт работы с Redis, RabbitMQ, Elasticsearch, Kafka.\n\nРезюме сюда: QAResume@technoserv.com","markup":[{"type":"hashtag","offset":0,"length":9,"data":"вакансия"},{"type":"hashtag","offset":10,"length":9,"data":"fulltime"},{"type":"hashtag","offset":20,"length":5,"data":"офис"},{"type":"hashtag","offset":26,"length":7,"data":"Москва"},{"type":"hashtag","offset":34,"length":7,"data":"DRTest"},{"type":"hashtag","offset":42,"length":11,"data":"Kubernetes"},{"type":"hashtag","offset":54,"length":7,"data":"senior"},{"type":"hashtag","offset":62,"length":7,"data":"DevOps"},{"type":"hashtag","offset":70,"length":3,"data":"TS"},{"type":"link","offset":95,"length":23,"data":"https://technoserv.com/"},{"type":"link","offset":1588,"length":23,"data":"mailto:QAResume@technoserv.com"}],"date":"2020-06-15T14:52:17+00:00","link":"tg://resolve?domain=qa_jobs&post=0","tags":[{"name":"qa"},{"name":"kubernetes"},{"name":"linux"},{"name":"centos"},{"name":"docker"},{"name":"jenkins"},{"name":"ansible"},{"name":"apache"},{"name":"nginx"},{"name":"jboss"},{"name":"git"},{"name":"shell"},{"name":"bash"},{"name":"python"},{"name":"go"},{"name":"redis"},{"name":"rabbitmq"},{"name":"elasticsearch"},{"name":"kafka"}],"cities":[{"code":"moscow"}],"allowsRemote":false}},{"node":{"__typename":"Job","id":"1681915904-1001091028994","title":"Java developer","text":"#вакансия #java #javadeveloper #spring #офис #МСК\n\nГород и адрес офиса: Москва, \nФормат работы: в офисе\nЗанятость: фулл тайм\nЗарплатная вилка: 200 000-250 000 рублей на руки (+-10% люфт для кандидатов с немного большими ожиданиями)\nНазвание компании: Фирма 1С\n\nВ амбициозный проект фирмы «1С» требуется Lead Java Developer с экспертным знанием стека Spring Framework и практическим опытом в области разработки интернет-проектов на платформе Java. Вы получите возможность работать над архитектурно значимыми компонентами, создавая масштабные и современные интернет-проекты делового назначения. \nСам проект представляет: современную торговую площадку в сегменте B2B https://1cbn.ru/trading.htm. Наша торговая площадка - технически сложный интернет-проект, работающий как в web, так и встроенный во многие учетные системы \"1С\".\n\nТЕХНОЛОГИЧЕСКИЙ СТЕК:\nJava, экосистема Spring (IoC, Spring MVC, Spring Data JPA, Spring Security, Spring Boot), PostgreSQL\n\nЧТО ВЫ БУДЕТЕ ДЕЛАТЬ:\n-Анализ задачи и проектирование микросервисов с использованием DDD и Hexagonal Architecture;\n-Проведение code review;\n-Участие в архитектурном совете продукта;\n-Проектирование REST API (OpenAPI 3);\n-Разработку микросервисов на Spring Framework 5 от идеи до запуска в эксплуатацию;\n-Покрытие своего кода unit и интеграционными тестами;\n-Соотношение легаси к разработке 20/80%.\n\nМы используем микросервисную архитектуру, Project Lombok, технологии Spring Cloud, Spring Boot, Spring Data, Elasticsearch, PostgreSQL, Git, Docker. Практикуем DDD, Agile-методологии, code review, CI и прочие полезные инженерные практики.\n\nЧТО ПРЕДЛАГАЕМ:\n-возможность профессионального и карьерного роста вместе с ростом команды;\n-опыт работы с талантливыми профессионалами, у которых есть чему научиться;\n-современный комфортный офис в 5-ти минутах ходьбы от м. Тимирязевская  http://1c.ru/rus/firm1c/d9.html;\n-зоны отдыха и кофе-поинты с диванами и массажными креслами;\n-гибкий график;\n-возможность заказывать проф. литературу за счет компании;\n-стабильная и конкурентоспособная заработная плата;\n-расширенный социальный пакет (ДМС со стоматологией всех видов работ);\n(хорошо решены вопросы медицинского обслуживания   (страхования), питания, проезда, спорта);\n-бесплатная охраняемая парковка на территории офиса;\n-предоставляем жилье для иногородних на период исп. срока.\n\nПообщаться по вакансии можно в телеграм @lamamama или по почте yana@geecko.ru","markup":[{"type":"hashtag","offset":0,"length":9,"data":"вакансия"},{"type":"hashtag","offset":10,"length":5,"data":"java"},{"type":"hashtag","offset":16,"length":14,"data":"javadeveloper"},{"type":"hashtag","offset":31,"length":7,"data":"spring"},{"type":"hashtag","offset":39,"length":5,"data":"офис"},{"type":"hashtag","offset":45,"length":4,"data":"МСК"},{"type":"link","offset":664,"length":27,"data":"https://1cbn.ru/trading.htm"},{"type":"link","offset":1828,"length":31,"data":"http://1c.ru/rus/firm1c/d9.html"},{"type":"handle","offset":2366,"length":9,"data":"lamamama"},{"type":"link","offset":2389,"length":14,"data":"mailto:yana@geecko.ru"}],"date":"2020-06-15T14:41:52+00:00","link":"tg://resolve?domain=jvmjobs&post=1604","tags":[{"name":"java"},{"name":"jvm"},{"name":"spring"},{"name":"web"},{"name":"jpa"},{"name":"postgresql"},{"name":"rest"},{"name":"cloud"},{"name":"elasticsearch"},{"name":"git"},{"name":"docker"},{"name":"html"},{"name":"spring-mvc"},{"name":"spring-data"},{"name":"spring-security"},{"name":"spring-boot"}],"cities":[{"code":"moscow"}],"allowsRemote":false}}]}}},"context":{}}