{"hash":"f5f6bf98bd95e769321482904cbbd488f77922fd","data":{"records":{"id":"mongodb","name":"mongodb","belongsTo":{"totalCount":63,"pageInfo":{"totalPages":7,"currentPage":6},"edges":[{"node":{"__typename":"Job","id":"90991230976-1001067529236","title":"Python developer","text":"#вакансия #remote #fulltime #python\n\nBack-end Python Developer\n\nФормат работы: #fulltime #remote\nЗарплата: от  $ 50 000 до $ 70 000  в год\n\nКоманда с большим опытом в компьютерном зрении и экспертами мирового уровня ищет в свои ряды Backend Python Developer. Стартап, создающий продукт для домашней безопасности, привлек $6,9 млн инвестиций. Продукт и его основатели базируются в Калифорнии, а почти вся команда — в России и Украине.\n\nЗадачи :\n• Оптимизация и улучшение качества алгоритмов трекинга людей;\n• Доработка основного кода клиентской стороны;\n• Разработка механизмов обновления клиентских приложений (Linux\\Docker);\n• Разработка системы сбора и разметки данных;\n• Доработка инфраструктурных сервисов и системы оценки качества.\n\nТребования:\n• Опыт промышленной работы от двух лет;\n• Опыт разработки оптимизационных алгоритмов разного назначения;\n• Опыт работы с AWS, Google Cloud, Azure, Docker.\n• Знание Python и\\или С++ и\\или Java;\n• Знание сетевых протоколов, их вариаций и особенностей;\n• Умение работать с многопоточной средой, понимание принципов работы сопрограмм;\n• Умение создавать сервера, способные выдерживать большие нагрузки.\n\nБудет плюсом:\n• Веб каркас Tornado, знания протокола HTTP;\n• Базы данных MongoDB, Redis, Aerospike, Cassandra;\n• Опыт работы с распределенной инфраструктурой;\n• Опыт использования нейронных сетей на TensorFlow / Keras / Caffe;\n• Понимание принципов работы различных архитектур нейронных сетей, знание алгоритмов машинного обучения.\n\nЧтобы откликнуться, необходимо пройти короткий отбор по ссылке https://6nomads.com/","markup":[{"type":"hashtag","offset":0,"length":9,"data":"вакансия"},{"type":"hashtag","offset":10,"length":7,"data":"remote"},{"type":"hashtag","offset":18,"length":9,"data":"fulltime"},{"type":"hashtag","offset":28,"length":7,"data":"python"},{"type":"hashtag","offset":79,"length":9,"data":"fulltime"},{"type":"hashtag","offset":89,"length":7,"data":"remote"},{"type":"link","offset":1546,"length":20,"data":"https://6nomads.com/"}],"date":"2020-06-15T18:27:28+00:00","link":"tg://resolve?domain=python_jobs&post=0","tags":[{"name":"python"},{"name":"linux"},{"name":"docker"},{"name":"amazon-web-services"},{"name":"cloud"},{"name":"azure"},{"name":"java"},{"name":"mongodb"},{"name":"redis"},{"name":"cassandra"},{"name":"tensorflow"},{"name":"google-cloud-platform"}],"cities":[],"allowsRemote":true}},{"node":{"__typename":"Job","id":"102902005760-1001089317451","title":"Qa инженер","text":"#вакансия #работа #СанктПетербург #QA #Manual #Mobile #API #fulltime #офис\nГород: Санкт-Петербург, м. Чкаловская\nФорма работы: офис\nЗанятость: полная\nЗарплатная вилка: от 100 000 net (обсуждается по результатам собеседования).\nВсем привет!\nМы – Cardsmobile, петербургская IT-компания, разработчик мобильного приложения «Кошелёк». \n«Кошелёк» заменяет бумажник и избавляет от необходимости носить с собой пластик: пользователи хранят в нем дисконтные и банковские карты. Чтобы получить скидку, достаточно показать на кассе карту с экрана смартфона, а чтобы оплатить покупку – приложить NFC-смартфон к терминалу оплаты.\nВ связи с расширением функционала приложения и выходом на зарубежные рынки мы усиляем нашу команду и ищем QA инженера с опытом тестирования мобильных и веб продуктов.\n🔹Что нужно будет делать:\n•  тестировать работу «Кошелька» на Android и iOS;\n•  проводить функциональное и регрессионное тестирование клиентской части приложения, функциональное и нагрузочное тестирование серверной;\n•  организовывать процесс тестирования: устанавливать и настраивать тестовое окружение, разрабатывать тестовые сценарии, писать тестовую документацию.\n🔹Ожидаем, что у Вас есть:\n•  опыт тестирования мобильных приложений от 1,5 лет;\n•  понимание принципов клиент-серверного взаимодействия;\n•  навыки работы с базами данных (Postgresql, MongoDB и др.);\n•  навыки работы с инструментами для тестирования серверного API (Postman, SoapUI и т.д.).\n🔹Будет плюсом:\n•  Опыт разработки автотестов для web (Selenium), mobile (Espresso, XCTest) или желание его приобрести.\n🔹Мы предлагаем:\n•  Участие в развитии полезного и популярного приложения, возможность сделать мир лучше;\n•  Оформление по ТК РФ с первого дня работы. ДМС после прохождения испытательного срока;\n•  Оплату мобильной связи, частичную компенсацию питания;\n•  Гибкий график и высокий уровень самостоятельности;\n•  Командные мероприятия и приятные коллеги;\n•  Комфортный офис в центре города (2 минуты от станции метро Чкаловская).\n\nИнформацию о компании можно найти по ссылке: https://spb.hh.ru/employer/2032205\n\nTelegram: katerinaziryukova","markup":[{"type":"hashtag","offset":0,"length":9,"data":"вакансия"},{"type":"hashtag","offset":10,"length":7,"data":"работа"},{"type":"hashtag","offset":18,"length":15,"data":"СанктПетербург"},{"type":"hashtag","offset":34,"length":3,"data":"QA"},{"type":"hashtag","offset":38,"length":7,"data":"Manual"},{"type":"hashtag","offset":46,"length":7,"data":"Mobile"},{"type":"hashtag","offset":54,"length":4,"data":"API"},{"type":"hashtag","offset":59,"length":9,"data":"fulltime"},{"type":"hashtag","offset":69,"length":5,"data":"офис"},{"type":"link","offset":2035,"length":34,"data":"https://spb.hh.ru/employer/2032205"}],"date":"2020-06-15T15:55:16+00:00","link":"tg://resolve?domain=qa_jobs&post=0","tags":[{"name":"qa"},{"name":"mobile"},{"name":"dotnet"},{"name":"android"},{"name":"ios"},{"name":"postgresql"},{"name":"mongodb"},{"name":"web"},{"name":"selenium"}],"cities":[],"allowsRemote":false}},{"node":{"__typename":"Job","id":"2211446784-1001134745498","title":"Devops инженер","text":"#вакансия #DevOps #Москва #ivi\n\nОнлайн-кинотеатр ivi \nЛокация: Москва, ст. м. Дмитровская\nФормат работы: офис \nЗанятость: полная\nЗарплатная вилка: от 180 000 до 250 000 руб. на руки.\n\nРазыскиваем коллегу в команду для участия в настройке процессов: технических (CI/CD) и в части взаимодействия с коллегами. Активное участие в разворачивании и эксплуатации k8s. Помогаем командам разработки строить CI/CD-пайплайны.  Используем Ubuntu, Linux.\nХраним код и разрабатываем pipeline-ы с помощью GitLab+Artifactory.\nДля мониторинга серверов и сервисов используем Zabbix и StatsD, заправляем Grafana.\nНаши сервисы написаны на Python, Golang и немного PHP и Java.\nЛюбим и активно используем Jenkins для решения самых разнообразных задач.\nИспользуем много Open Source (и не только) приложений: Nginx, Redis, PostgreSQL, MongoDB, RabbitMQ, ClickHouse, OpenStack, GitLab, Kafka, HDFS, Jira , OpenNebula.\n\nЧто предстоит делать: \n- Развитие и настройка процессов CI/CD;\n- Периодический аудит используемого стека технологий;\n- Планирование и участие в рефакторинге процессов, инфраструктуры, приложений;\n- Сопровождение сервисов от разработки до эксплуатации, участие в эксплуатации;\n- Доработка текущих и разработка новых сценариев конфигурирования серверов и приложений;\n- Администрирование приложений по результатам выполненной работы, подготовка документации, если это необходимо.\n\nКак узнать, что ты нам подходишь? \n- Успешный опыт работы CI/CD-системами (у нас GitLab и Jenkins);\n- Умение хорошо готовить Docker;\n- Опыт программирования на скриптовых языках (Shell, Python);\n- Опыт администрирования Linux и приложений более 5 лет;\n- Понимание сетевых технологий TCP/IP;\n- Опыт работы с системами управления версиями (у нас Git);\n- Опыт работы с системами управления конфигурациями.\n\nСо своей стороны мы обещаем: \n- Офис в 5 минутах ходьбы от м. \"Дмитровская\";\n- У нас гибкий график, мы начинаем до 11 часов дня;\n- Трудоустройство по ТК РФ;\n- ДМС + стоматология после прохождения испытательного срока;\n- Подписка на ivi;\n- Пакет релокации для соискателей со всей России.\n\nПишите @daria144, на почту dsereda@ivi.ru или откликайтесь здесь https://hh.ru/vacancy/35021558\n\n—\n\n👉 Обсуждение вакансии в чате @devops_jobs","markup":[{"type":"hashtag","offset":0,"length":9,"data":"вакансия"},{"type":"hashtag","offset":10,"length":7,"data":"DevOps"},{"type":"hashtag","offset":18,"length":7,"data":"Москва"},{"type":"hashtag","offset":26,"length":4,"data":"ivi"},{"type":"handle","offset":2071,"length":9,"data":"daria144"},{"type":"link","offset":2091,"length":14,"data":"mailto:dsereda@ivi.ru"},{"type":"link","offset":2129,"length":30,"data":"https://hh.ru/vacancy/35021558"},{"type":"handle","offset":2194,"length":12,"data":"devops_jobs"}],"date":"2020-06-15T13:57:03+00:00","link":"tg://resolve?domain=devops_jobs_feed&post=2109","tags":[{"name":"ubuntu"},{"name":"linux"},{"name":"gitlab"},{"name":"python"},{"name":"go"},{"name":"php"},{"name":"java"},{"name":"jenkins"},{"name":"nginx"},{"name":"redis"},{"name":"postgresql"},{"name":"mongodb"},{"name":"rabbitmq"},{"name":"kafka"},{"name":"hdfs"},{"name":"docker"},{"name":"shell"},{"name":"git"}],"cities":[{"code":"moscow"}],"allowsRemote":false}},{"node":{"__typename":"Job","id":"2205155328-1001134745498","title":"Devops инженер","text":"#Москва #вакансия #офис #devops\n✅ www.onelya.ru - на рынке с 2002 года (E-travel и интернет-эквайринг), подразделение - команда эксплуатации ЦОД  \n✅ оформление по ТК РФ, з/п 170-200net, ДМС, территориально - ст.м.ЦСКА/Аэропорт, БЦ Линкор\n✅ Обязанности:\n- выстраивание процессов CI/CD;\n- мониторинг, автоматизация и дальнейшее улучшение существующей инфраструктуры;\n- обеспечение бесперебойной работы инфраструктуры и сервисов;\n- анализ инцидентов, оценка архитектурных решений, ввод изменений с целью минимизации рисков отказов в обслуживании;\n- тесное взаимодействие с командами разработки и тестирования;\n- ведение документации по администрируемым сервисам и решениям.\n✅ Требования:\n- понимание принципов devops-культуры и опыт построения devops-инфраструктуры;\n- релевантный опыт работы от 2-х лет;\n- обязательно знаниe kubernetes;\n- понимание важности принципов Infrastructure as a Code; Prometheus;\n- практический опыт автоматизации управления средами с применением Jenkins, Docker, Kubernetes, автоматизации развертывания средствами Ansible, опыт работы со средствами мониторинга , сбора и анализа метрик Zabbix, Graphite, Grafana, Kibana;\n- опыт администрирования, миграции данных и настройки резервного копирования для БД PostgreSQL, MongoDB, Redis, Elasticsearch;\n- опыт работы с ELK стеком;\n- опыт написания Python и bash скриптов;\n- готовность работать с legacy-системами.\n\n✅Ждем резюме на a.vinogradova@gateline.ru\n\n—\n\n👉 Обсуждение вакансии в чате @devops_jobs","markup":[{"type":"hashtag","offset":0,"length":7,"data":"Москва"},{"type":"hashtag","offset":8,"length":9,"data":"вакансия"},{"type":"hashtag","offset":18,"length":5,"data":"офис"},{"type":"hashtag","offset":24,"length":7,"data":"devops"},{"type":"link","offset":34,"length":13,"data":"http://www.onelya.ru"},{"type":"link","offset":1401,"length":25,"data":"mailto:a.vinogradova@gateline.ru"},{"type":"handle","offset":1461,"length":12,"data":"devops_jobs"}],"date":"2020-06-15T10:56:00+00:00","link":"tg://resolve?domain=devops_jobs_feed&post=2103","tags":[{"name":"dotnet"},{"name":"kubernetes"},{"name":"jenkins"},{"name":"docker"},{"name":"ansible"},{"name":"postgresql"},{"name":"mongodb"},{"name":"redis"},{"name":"elasticsearch"},{"name":"python"},{"name":"bash"}],"cities":[{"code":"moscow"}],"allowsRemote":false}},{"node":{"__typename":"Job","id":"90978648064-1001067529236","title":"Python разработчик","text":"#fullstack_dev #вакансия #удаленка #Python \n\nПривет! Меня зовут Виолетта, ищу Python разработчика в компанию SIMKOMAT.\n\nМесто работы: удаленка \nРабочий день: полный рабочий день\nТвои умения: \nPython, asyncio, flask\nОпыт программирования многопоточных приложений;\nЗнание операционной системы Linux;\nЗнание Docker/Docker-compose\nУмение работы с системой контроля версий Git, gitlab, CI/CD\nОпыт работы с базами данных Mongodb, PostgreSQL или MySQL\nПонимание принципов виртуализации;\nОпыт администрирования ОС семейства Linux, localhost, умение работать с ssh\nМы общаемся в: Trello, Atlassian, Telegram, Viber, GitLab Issues\nО компании: создаем программные аппараты для выдачи сим-карт без участия человека. В основном сотрудничаем с иностраннными компаниями. Нашему коллективу кажется, что мы веселые и приятные люди. \nОткликаться на вакансию: пиши мне в телеграм @violker или на почту yo@simkomat.com\n\nЗа внимание спасибо. Сайт SIMKOMAT - тебе. https://simkomat.com/ru/","markup":[{"type":"hashtag","offset":0,"length":14,"data":"fullstack_dev"},{"type":"hashtag","offset":15,"length":9,"data":"вакансия"},{"type":"hashtag","offset":25,"length":9,"data":"удаленка"},{"type":"hashtag","offset":35,"length":7,"data":"Python"},{"type":"bold","offset":120,"length":13,"data":""},{"type":"bold","offset":144,"length":13,"data":""},{"type":"bold","offset":178,"length":14,"data":""},{"type":"bold","offset":556,"length":15,"data":""},{"type":"bold","offset":621,"length":11,"data":""},{"type":"bold","offset":816,"length":24,"data":""},{"type":"handle","offset":861,"length":8,"data":"violker"},{"type":"link","offset":883,"length":15,"data":"mailto:yo@simkomat.com"},{"type":"link","offset":943,"length":24,"data":"https://simkomat.com/ru/"},{"type":"bold","offset":943,"length":24,"data":""}],"date":"2020-06-15T10:41:34+00:00","link":"tg://resolve?domain=python_jobs&post=0","tags":[{"name":"python"},{"name":"flask"},{"name":"linux"},{"name":"docker"},{"name":"git"},{"name":"gitlab"},{"name":"mongodb"},{"name":"postgresql"},{"name":"mysql"},{"name":"ssh"},{"name":"docker-compose"}],"cities":[],"allowsRemote":true}},{"node":{"__typename":"Job","id":"2203058176-1001134745498","title":"Devops инженер","text":"#вакансия #Москва #удаленка #remote\n#kubernetes\nКомпания, стартап в области информационной безопасности, ищет DevOps инженера\n🎱 Город и адрес офиса: Москва\n🎱 Формат работы: удаленка или офис \n🎱 Занятость: полная \n🎱 Условия: зп от 130 до 180К (в зависимости от опыта и формата работы)\n\n🎱 Задачи:\nОбеспечение отказоустойчивости и развитие инфраструктуры в Европе и РФ.\nРабота с командой разработки по совершенствованию микросервисов.\nМониторинг работы инфраструктуры и приложений, реакция на инциденты.\nОбщение с заказчиками на этапе интеграции и при возникновении проблем.\n\n🎱 Ожидания:\nОпыт администрирования Linux\nопыт работы с Amazon Web Services, Terraform, Ansible.\nхорошие знания Kubernetes и Docker.\nопыт работы с nginx, ELK, GitLab CI/CD.\n\n\n🎱 Будет преимуществом:\nЗнание Python и/или Golang\nопыт прохождения PCI DSS\nзнание MongoDB, Redis, Kafka, Clickhouse,\nопыт эксплуатации JVM,\nопыт эксплуатации Dask, AirFlow.\n\n🎱 Контакты: @kornet_croft\n\n—\n\n👉 Обсуждение вакансии в чате @devops_jobs","markup":[{"type":"hashtag","offset":0,"length":9,"data":"вакансия"},{"type":"hashtag","offset":10,"length":7,"data":"Москва"},{"type":"hashtag","offset":18,"length":9,"data":"удаленка"},{"type":"hashtag","offset":28,"length":7,"data":"remote"},{"type":"hashtag","offset":36,"length":11,"data":"kubernetes"},{"type":"handle","offset":941,"length":13,"data":"kornet_croft"},{"type":"handle","offset":989,"length":12,"data":"devops_jobs"}],"date":"2020-06-15T08:42:51+00:00","link":"tg://resolve?domain=devops_jobs_feed&post=2101","tags":[{"name":"kubernetes"},{"name":"linux"},{"name":"web"},{"name":"ansible"},{"name":"docker"},{"name":"nginx"},{"name":"gitlab"},{"name":"python"},{"name":"go"},{"name":"mongodb"},{"name":"redis"},{"name":"kafka"},{"name":"jvm"},{"name":"amazon-web-services"}],"cities":[{"code":"moscow"}],"allowsRemote":true}},{"node":{"__typename":"Job","id":"1678770176-1001091028994","title":"Java разработчик","text":"#вакансия #java #senior #middle\nКомпания: #сбербанктехнологии #сбертех\nЛокация: #москва\nЗП: 180-270 + премии\nКонтакты: @okashchenko, kashchenko.o.bor@sberbank.ru\n\nМы - современная инженерная компания, продолжаем расти и развиваться. Активно ищем Java разработчиков уровня middle и senior в связи с расширением команды для Образовательной платформы - SaaS решения для автоматизации обучения в средних школах. Разработка началась марте 2019, сейчас дорабатываем функционал и создаём фичи.\n\n  Требования:\n· Знание Java 8+ (хорошее знание core, collections), Spring IoC 4-5, от 2х лет\n· Системы сборки maven или gradle\n· Опыт использования jUnit/TestNG\n· БД: jdbc, SQL(лучше PostgresQL) на уровне написания средних запросов\n· VCS: опыт работы с git в команде\n· Опыт командной разработки\n\n  Очень желательно:\n· Умение работать с linux command line, писать минимальные bash-скрипты.\n· Понимание оптимизации SQL-запросов\n· Опыт разработки промышленных микросервисных приложений\n· Опыт работы со SpringBoot, MongoDB, Docker/Kubernetes\n\n  Наши условия:\n· Конкурентная «белая» заработная плата (оклад + премии)\n· Профессиональный и зарплатный рост\n· Интересные, сложные, амбициозные задачи, молодая и сильная команда профессионалов\n· Обучение за счет компании в Корпоративном университете\n· Льготная ипотека от Сбербанка, ДМС\n· Страхование от несчастных случаев\n· Тренажерный зал\n\nБуду рада обсудить вакансию и ответить на ваши вопросы!","markup":[{"type":"hashtag","offset":0,"length":9,"data":"вакансия"},{"type":"hashtag","offset":10,"length":5,"data":"java"},{"type":"hashtag","offset":16,"length":7,"data":"senior"},{"type":"hashtag","offset":24,"length":7,"data":"middle"},{"type":"hashtag","offset":42,"length":19,"data":"сбербанктехнологии"},{"type":"hashtag","offset":62,"length":8,"data":"сбертех"},{"type":"hashtag","offset":80,"length":7,"data":"москва"},{"type":"handle","offset":119,"length":12,"data":"okashchenko"},{"type":"link","offset":133,"length":28,"data":"mailto:kashchenko.o.bor@sberbank.ru"}],"date":"2020-06-15T07:12:16+00:00","link":"tg://resolve?domain=jvmjobs&post=1601","tags":[{"name":"java"},{"name":"jvm"},{"name":"spring"},{"name":"maven"},{"name":"gradle"},{"name":"junit"},{"name":"jdbc"},{"name":"sql"},{"name":"postgresql"},{"name":"git"},{"name":"linux"},{"name":"bash"},{"name":"mongodb"},{"name":"docker"},{"name":"kubernetes"}],"cities":[{"code":"moscow"}],"allowsRemote":false}},{"node":{"__typename":"Job","id":"102810779648-1001089317451","title":"Qa инженер","text":"#вакансия #Екатеринбург #удалённо #fulltime #фултайм #backend #fullstack #NestJS #nodejs #typescript\nBackend-разработчик в компанию-резидент Сколково IPnote https://www.facebook.com/426995510646028/posts/3319529111392639/\nОфис в Екатеринбурге, Технопарк высоких технологий Свердловской области\nПо формату работы можно на удаленку или в офис (он крутой), но full time\nЗП белая от 80 до 120 и разные бенефиты\nСтек: Node.js, NestJS, TypeScript/JavaScript, MongoDB\nПодробности: @Sasha_hr_tut","markup":[{"type":"hashtag","offset":0,"length":9,"data":"вакансия"},{"type":"hashtag","offset":10,"length":13,"data":"Екатеринбург"},{"type":"hashtag","offset":24,"length":9,"data":"удалённо"},{"type":"hashtag","offset":34,"length":9,"data":"fulltime"},{"type":"hashtag","offset":44,"length":8,"data":"фултайм"},{"type":"hashtag","offset":53,"length":8,"data":"backend"},{"type":"hashtag","offset":62,"length":10,"data":"fullstack"},{"type":"hashtag","offset":73,"length":7,"data":"NestJS"},{"type":"hashtag","offset":81,"length":7,"data":"nodejs"},{"type":"hashtag","offset":89,"length":11,"data":"typescript"},{"type":"link","offset":157,"length":64,"data":"https://www.facebook.com/426995510646028/posts/3319529111392639/"},{"type":"handle","offset":474,"length":13,"data":"Sasha_hr_tut"}],"date":"2020-06-15T06:05:27+00:00","link":"tg://resolve?domain=qa_jobs&post=0","tags":[{"name":"qa"},{"name":"nodejs"},{"name":"typescript"},{"name":"javascript"},{"name":"mongodb"}],"cities":[],"allowsRemote":true}},{"node":{"__typename":"Job","id":"71279050752-1001054966032","title":"Mobile разработчик","text":"#вакансия #Екатеринбург #удалённо #fulltime #фултайм #backend #fullstack #NestJS #nodejs #typescript\n#Backend-разработчик в компанию-резидент Сколково IPnote\nЕкатеринбург, Технопарк высоких технологий Свердловской области\nУдаленка или офис, но full time\nЗП белая от 80 до 120 и разные бенефиты\nСтек: Node.js, NestJS, TypeScript/JavaScript, MongoDB\nПодробности: @Sasha_hr_tut","markup":[{"type":"hashtag","offset":0,"length":9,"data":"вакансия"},{"type":"hashtag","offset":10,"length":13,"data":"Екатеринбург"},{"type":"hashtag","offset":24,"length":9,"data":"удалённо"},{"type":"hashtag","offset":34,"length":9,"data":"fulltime"},{"type":"hashtag","offset":44,"length":8,"data":"фултайм"},{"type":"hashtag","offset":53,"length":8,"data":"backend"},{"type":"hashtag","offset":62,"length":10,"data":"fullstack"},{"type":"hashtag","offset":73,"length":7,"data":"NestJS"},{"type":"hashtag","offset":81,"length":7,"data":"nodejs"},{"type":"hashtag","offset":89,"length":11,"data":"typescript"},{"type":"hashtag","offset":101,"length":8,"data":"Backend"},{"type":"handle","offset":361,"length":13,"data":"Sasha_hr_tut"}],"date":"2020-06-15T06:02:03+00:00","link":"tg://resolve?domain=mobile_jobs&post=0","tags":[{"name":"mobile"},{"name":"nodejs"},{"name":"typescript"},{"name":"javascript"},{"name":"mongodb"}],"cities":[],"allowsRemote":true}},{"node":{"__typename":"Job","id":"90895810560-1001067529236","title":"Python разработчик","text":"#вакансия #vacancy #fulltime #remote #fullstack #senior\n\nПозиция: Senior Python Developer\nКомпания: SO Services Ltd\nФормат работы: удаленная работа\nЗанятость: полная\nОплата: от 3000 до 4000 USD в месяц\nКонтакт: Марк, @mark_soservices\n\nДобрый день! Мы ищем Python разработчика для нашего клиента из США. Требуется разговорный английский. Оформление контракта через ИП - с этим проконсультируем.\n\nResponsibilities\n- Plan and architect development work with rest of Dev team to ensure successful execution and delivery\n- Participate in improving and refining development processes and workflows\n- Help your peers with code review with focus on performance and reliability\n- Develop automation culture\n- Collaborate with Product Management to plan sprints\n- Collaborate with IT Operations to ensure services stability and high uptime\n- Help with investigation of software issues causing downtime and/or malfunction\n- Adapt legacy code to AWS\n\nRequirements\n- 4+ years professional experience building front and back-end web applications\n- Experience with most or all technologies: Python & Django, RDBMS, JS and jQuery, HTML/CSS/LESS, Git\n- Experience with following technologies will be a bonus: MongoDB, PostgreSQL, Elastic Search, WordPress, Redis, Celery, Jenkins, Sentry, New Relic, Nginx, RabbitMQ, NodeJS\n- Focus on task accomplishment and pursuing deadlines\n- Ability to prioritise and manage work across multiple related projects\n- Experienced in working following Agile development methodologies\n- Strong written and communications skills\n\n\nTechnology Stack\n- Python, Django\n- MySQL, Redis\n- AWS (storage, container services, serverless)\n- Github for code management\n- Jenkins as CI","markup":[{"type":"hashtag","offset":0,"length":9,"data":"вакансия"},{"type":"hashtag","offset":10,"length":8,"data":"vacancy"},{"type":"hashtag","offset":19,"length":9,"data":"fulltime"},{"type":"hashtag","offset":29,"length":7,"data":"remote"},{"type":"hashtag","offset":37,"length":10,"data":"fullstack"},{"type":"hashtag","offset":48,"length":7,"data":"senior"},{"type":"handle","offset":217,"length":16,"data":"mark_soservices"},{"type":"bold","offset":395,"length":16,"data":""},{"type":"bold","offset":939,"length":12,"data":""},{"type":"bold","offset":1546,"length":16,"data":""}],"date":"2020-06-13T14:26:03+00:00","link":"tg://resolve?domain=python_jobs&post=0","tags":[{"name":"python"},{"name":"rest"},{"name":"amazon-web-services"},{"name":"web"},{"name":"django"},{"name":"jquery"},{"name":"html"},{"name":"css"},{"name":"git"},{"name":"mongodb"},{"name":"postgresql"},{"name":"elasticsearch"},{"name":"wordpress"},{"name":"redis"},{"name":"jenkins"},{"name":"nginx"},{"name":"rabbitmq"},{"name":"nodejs"},{"name":"mysql"},{"name":"github"}],"cities":[],"allowsRemote":true}}]}}},"context":{}}