{"hash":"f5f6bf98bd95e769321482904cbbd488f77922fd","data":{"records":{"id":"java","name":"java","belongsTo":{"totalCount":242,"pageInfo":{"totalPages":25,"currentPage":14},"edges":[{"node":{"__typename":"Job","id":"71783415808-1001054966032","title":"Android разработчик","text":"#вакансия #android #java #kotlin #middle #senior #удаленка #remote #fulltime\n\nAndroid-разработчик удаленно от 200 тыс. руб.\n\nГород: Москва\nФормат работы: удаленно\nЗанятость: полная\nЗарплатная вилка: от 200 000 руб. до 250 000 руб. после налогообложения\nКомпания: CORE https://core.company\n\nМы команда разработчиков мобильных приложений и сейчас мы ищем Android-разработчика для одного из наших финтех-проектов.\n\nОсновные требования:\n— Опыт работы от 2-х лет;\n— Знание Java и Kotlin;\n— Опыт работы с Rx;\n— Знание шаблонов проектирования и умение их применять;\n— Понимание принципов SOLID;\n— Знание основных алгоритмов и структур данных;\n— Умение писать поддерживаемый и тестируемый код.\n\nУсловия:\n— Полный день, гибкий график;\n— Оформление по договору ГПХ.\n\nПрисылайте ваше резюме на @tv_corecompany","markup":[{"type":"hashtag","offset":0,"length":9,"data":"вакансия"},{"type":"hashtag","offset":10,"length":8,"data":"android"},{"type":"hashtag","offset":19,"length":5,"data":"java"},{"type":"hashtag","offset":25,"length":7,"data":"kotlin"},{"type":"hashtag","offset":33,"length":7,"data":"middle"},{"type":"hashtag","offset":41,"length":7,"data":"senior"},{"type":"hashtag","offset":49,"length":9,"data":"удаленка"},{"type":"hashtag","offset":59,"length":7,"data":"remote"},{"type":"hashtag","offset":67,"length":9,"data":"fulltime"},{"type":"link","offset":268,"length":20,"data":"https://core.company"},{"type":"handle","offset":783,"length":15,"data":"tv_corecompany"}],"date":"2020-06-22T14:12:24+00:00","link":"tg://resolve?domain=mobile_jobs&post=68458","tags":[{"name":"mobile"},{"name":"android"},{"name":"java"},{"name":"kotlin"}],"cities":[{"code":"moscow"}],"allowsRemote":true}},{"node":{"__typename":"Job","id":"2239758336-1001134745498","title":"Devops инженер","text":"#вакансия #DevOps#Москва#удаленка #полнаязанятость\n180000-220000\nПривет!\nМы команда Crypterium!\nМы международный финтех стартап.\nМы строим банк будущего, который поддерживает криптофиатные операции.\nНаша цель – создание сервиса, который фактически займёт место традиционных банков, по всем возможным банковским операциям!\nУ нас сложные, но интересные задачи по созданию крутого и по-настоящему полезного продукта для людей из разных стран по всему миру. Работа у нас реальная возможность приложить руку к крутому продукту, которым будет пользоваться большое количество людей.\nНа данный момент наша компания активно растет и развивается, в связи с этим мы ищем DevOps инженера Нам нужен по-настоящему про активный и ответственный сотрудник. Задач много, они разные и крайне интересны\nЧто предстоит делать?\n•  Поддержка инфраструктуры проекта на AWS;\n•  Улучшение существующей инфраструктуры, включая масштабирование и отказоустойчивость;\n•  Мониторинг системы, анализ быстродействия и тонкая настройка;\n•  Администрирование AWS. Предоставления безопасного доступа к ресурсам хостинга;\n•  Обеспечение бесперебойной работы сервисов компании;\n•  Выбор и внедрение DevOps практик и инструментов на всех этапах работы проекта;\n•  Развертывание, мониторинг и поддержка работы облачных и dedicated сервисов компании;\n•  Оперативное реагирование и устранение инцидентов;\n•  Поддержка процесса разработки;\n•  Автоматизация рутинных задач\nКакие skils мы хотим видеть в нашем будущем коллеге?\n•  Не менее 3 лет работы с linux системами в роли системного администратора/devops инженера;\n•  Уверенное знание инфраструктуры/сервисов AWS и DO;\n•  Опыт работы (настройка и конфигурирование) с CI/CD системами (у нас TeamCity и Code Pipeline/Code Deploy с миграцией на GitLab);\n•  Умение конфигурировать Nginx (ssl, request limits, cache, headers manipulation);\n•  Опыт работы с Docker.\n•  Опыт создания отказоустойчивых распределенных серверных архитектур с высоким уровнем доступности;\n•  Навыки администрирования и оптимизации СУБД: PostgeSQL;\n•  Преимущества:\n•  Опыт работы с системами управления конфигурацией Chef, Puppet, Ansible\n•  Понимание принципов CI/CD;\n•  Понимание, как работают основные сервисы AWS.\n•  Знание Java/Kotlin;\nЧто мы можем предложить для Вас?\n•  По настоящему заряженная команда профессионалов\n•  Гибкое начало рабочего дня\n•  Возможности профессионально развиваться и расти\n\nПисать в ЛС @borisovaem\n\n—\n\n👉 Обсуждение вакансии в чате @devops_jobs","markup":[{"type":"hashtag","offset":0,"length":9,"data":"вакансия"},{"type":"hashtag","offset":34,"length":16,"data":"полнаязанятость"},{"type":"handle","offset":2400,"length":11,"data":"borisovaem"},{"type":"handle","offset":2446,"length":12,"data":"devops_jobs"}],"date":"2020-06-22T13:16:02+00:00","link":"tg://resolve?domain=devops_jobs_feed&post=2136","tags":[{"name":"amazon-web-services"},{"name":"linux"},{"name":"gitlab"},{"name":"nginx"},{"name":"ssl"},{"name":"docker"},{"name":"ansible"},{"name":"java"},{"name":"kotlin"}],"cities":[{"code":"moscow"}],"allowsRemote":true}},{"node":{"__typename":"Job","id":"103440973824-1001089317451","title":"Qa инженер","text":"#вакансия #qa #middle #fulltime #удаленно\nПривет!\nКомпания: ПИК Digital (https://www.pik.ru/).\nMiddle QA - от 50к и выше (по результатам собеседования) \n\nЗадачи:\n• Участие в интересных проектах по тестированию web и мобильных приложений;\n• Проведение функционального, регрессионного, юзабилити тестирования;\n• Разработка ручных тестовых сценариев и написание тестовой документации;\n• Оценка задач на тестирование;\n• Заведение дефектов и контроль их исправления;\n• Согласование тестовых требований и планов тестирования;\n• Составление отчетов и документации по результатам тестирования;\n• Поддержка автотестов.\n\nТребования:\n• Опыт работы на аналогичной должности от 1 года;\n• Опыт тестирования API;\n• Уверенные знания SQL;\n• Опыт работы с developer tools в браузере;\n• Понимание процессов тестирования и разработки;\n• Понимание принципов работы front и backend приложений;\n• Умение ясно и грамотно формулировать свои мысли;\n• Умение пользоваться устройствами на базе Android и iOS;\n\nБудет плюсом:\n• Опыт разработки автоматизированных тестовых сценариев (Java, Pyton, JavaScript);\n• Умение работать с unix-системами, знание bash-скриптов.\n• Понимание принципов непрерывной интеграции и доставки (CI, CD).\n\nНаши преимущества:\n• Большое внутреннее community разработчиков, аналитиков;\n• Современный стек технологий и техническое оснащение;\n• Минимум бюрократии;\n• Возможности для роста и развития;\n• Обучение и посещение конференций за счет компании.\n\nУсловия:\n• Оформление в соответствии с ТК РФ;\n• После испытательного срока медицинское обслуживание;\n• Официальная заработная плата обсуждается при собеседовании;\n• Премии по итогам года;\n• Гибкое начало рабочего дня;\n• Возможность удаленной работы.\nКонтакты: @alexey_petrunin","markup":[{"type":"hashtag","offset":0,"length":9,"data":"вакансия"},{"type":"hashtag","offset":10,"length":3,"data":"qa"},{"type":"hashtag","offset":14,"length":7,"data":"middle"},{"type":"hashtag","offset":22,"length":9,"data":"fulltime"},{"type":"hashtag","offset":32,"length":9,"data":"удаленно"},{"type":"link","offset":73,"length":19,"data":"https://www.pik.ru/"},{"type":"handle","offset":1708,"length":16,"data":"alexey_petrunin"}],"date":"2020-06-22T12:44:10+00:00","link":"tg://resolve?domain=qa_jobs&post=98649","tags":[{"name":"qa"},{"name":"web"},{"name":"sql"},{"name":"android"},{"name":"ios"},{"name":"java"},{"name":"javascript"},{"name":"unix"},{"name":"bash"}],"cities":[],"allowsRemote":true}},{"node":{"__typename":"Job","id":"1719664640-1001091028994","title":"Java разработчик","text":"#java #middle #москва #офис #fulltime\nJava-разработчик (CDP)\nКомпания: Эвотор\nЛокация: Москва, м. Парк Культуры\nЗп: 150 - 200К net\nКонтакты: @viktori_may, v.plotnikova@evotor.ru\n\nНаша команда занимается созданием Customer Data Platform (CDP) - система, которая идентифицирует пользователя через любой канал взаимодействия и собирает информацию о нем в одном профиле, позволяет сегментировать пользователей и коммуницировать с ними на основании сформированных правил. \n\nЗадачи:\n- Проектирование и реализация отказоустойчивых и готовых к масштабированию сервисов\n- Обширный круг задач по проектированию архитектуры и API системы\n- Участие в выборе используемых технологий\n\nКого ищем:\n• Знание основных алгоритмов и шаблонов проектирования ПО;\n• Знание фреймворков Spring Boot, Spring Cloud, Spring Cloud Stream, Kafka, Hibernate, веб-стека;\n• Знание технологий контейнеризации (Docker, Kubernetes);\n• Опыт работы c SQL и NoSQL базами данных(PostgreSQL, Aerospike, ClickHouse);\n• Опыт работы с инструментами Gradle, Git, Jira, Jenkins.\n\nСтек:\nJava12, Spring, Hibernate,Git, PostgreSQL, Kafka, Kubernetes, Docker\n\nУсловия:\n- Полностью официальная заработная плата\n- Офис в шаговой доступности от м. Парк Культуры со своей кухней и террасой\n- ДМС после прохождения испытательного срока","markup":[{"type":"hashtag","offset":0,"length":5,"data":"java"},{"type":"hashtag","offset":6,"length":7,"data":"middle"},{"type":"hashtag","offset":14,"length":7,"data":"москва"},{"type":"hashtag","offset":22,"length":5,"data":"офис"},{"type":"hashtag","offset":28,"length":9,"data":"fulltime"},{"type":"handle","offset":141,"length":12,"data":"viktori_may"},{"type":"link","offset":155,"length":22,"data":"mailto:v.plotnikova@evotor.ru"},{"type":"bold","offset":469,"length":6,"data":""},{"type":"bold","offset":671,"length":10,"data":""},{"type":"bold","offset":1034,"length":4,"data":""}],"date":"2020-06-22T11:44:13+00:00","link":"tg://resolve?domain=jvmjobs&post=1640","tags":[{"name":"java"},{"name":"jvm"},{"name":"dotnet"},{"name":"spring"},{"name":"cloud"},{"name":"kafka"},{"name":"hibernate"},{"name":"docker"},{"name":"kubernetes"},{"name":"sql"},{"name":"nosql"},{"name":"postgresql"},{"name":"gradle"},{"name":"git"},{"name":"jenkins"},{"name":"spring-boot"}],"cities":[{"code":"moscow"}],"allowsRemote":false}},{"node":{"__typename":"Job","id":"1718616064-1001091028994","title":"Java developer","text":"#Junior #Middle #Java #Developer\nКомпания: #Утконос\nЛокация: #Москва\nЗ/п: до 180 000 Net\nКонтакт: @RecruiterTatianaK\nJunior/Middle Java Developer в Утконос Онлайн\n📍Наш проект:\nВ компании разрабатывается комплексная система по управлению складом (WMS). Систему пишем сами «с нуля» на микросервисной архитектуре. \nСистема является ключевой для бизнеса и проектируется под высокие нагрузки.\n📍Что нужно делать?\n25% времени:\nАвтоматизировать бизнес процессы на складе в одной из scrum команд в количестве 10 человек.\n75% времени:\nРазрабатывать E2E и нагрузочные тесты.\n📍Наш стек:\nJava 11/Kotlin, Spring Boot 2.3.0, Camunda BPM, Kafka, Kubernetes, ELK, Grafana, Prometheus\n📍Что предлагаем?\nОформление по ТК РФ, ДМС\nГибкий график\nВозможность работы из дома\nСплоченный и профессиональный коллектив\nКорпоративные скидки на utkonos.ru, tui.ru, фитнес, кино и др.\nОфис - 10 минут  от м. Краснопресненская/ м.Улица 1905 года","markup":[{"type":"hashtag","offset":0,"length":7,"data":"Junior"},{"type":"hashtag","offset":8,"length":7,"data":"Middle"},{"type":"hashtag","offset":16,"length":5,"data":"Java"},{"type":"hashtag","offset":22,"length":10,"data":"Developer"},{"type":"hashtag","offset":43,"length":8,"data":"Утконос"},{"type":"hashtag","offset":61,"length":7,"data":"Москва"},{"type":"handle","offset":98,"length":18,"data":"RecruiterTatianaK"},{"type":"link","offset":818,"length":10,"data":"http://utkonos.ru"},{"type":"link","offset":830,"length":6,"data":"http://tui.ru"}],"date":"2020-06-22T10:57:41+00:00","link":"tg://resolve?domain=jvmjobs&post=1639","tags":[{"name":"java"},{"name":"jvm"},{"name":"dotnet"},{"name":"kotlin"},{"name":"spring"},{"name":"kafka"},{"name":"kubernetes"},{"name":"spring-boot"}],"cities":[{"code":"moscow"}],"allowsRemote":false}},{"node":{"__typename":"Job","id":"1717567488-1001091028994","title":"Java developer","text":"#Senior #Java #Developer\nКомпания: #Утконос\nЛокация: #Москва\nЗ/п: до 320 000 Net\nКонтакт: @RecruiterTatianaK\nSenior Java Developer в Утконос Онлайн\n📍Наш проект:\nВ компании разрабатывается комплексная система по управлению складом (WMS). Систему пишем сами «с нуля» на микросервисной архитектуре. \nСистема является ключевой для бизнеса и проектируется под высокие нагрузки.\n📍Что нужно делать?\nАвтоматизировать бизнес процессы на складе в одной из scrum команд в количестве 10 человек, прорабатывать архитектурные решения, замещать тим лида при необходимости.\n📍Наш стек:\nJava 11/Kotlin, Spring Boot 2.3.0, Camunda BPM, Kafka, Kubernetes, ELK, Grafana, Prometheus\n📍Что предлагаем?\nОформление по ТК РФ, ДМС\nГибкий график\nВозможность работы удаленно\nСплоченный и профессиональный коллектив\nКорпоративные скидки на utkonos.ru, tui.ru, фитнес, кино и др.\nОфис - 10 минут  от м. Краснопресненская/ м.Улица 1905 года","markup":[{"type":"hashtag","offset":0,"length":7,"data":"Senior"},{"type":"hashtag","offset":8,"length":5,"data":"Java"},{"type":"hashtag","offset":14,"length":10,"data":"Developer"},{"type":"hashtag","offset":35,"length":8,"data":"Утконос"},{"type":"hashtag","offset":53,"length":7,"data":"Москва"},{"type":"handle","offset":90,"length":18,"data":"RecruiterTatianaK"},{"type":"link","offset":813,"length":10,"data":"http://utkonos.ru"},{"type":"link","offset":825,"length":6,"data":"http://tui.ru"}],"date":"2020-06-22T10:57:27+00:00","link":"tg://resolve?domain=jvmjobs&post=1638","tags":[{"name":"java"},{"name":"jvm"},{"name":"dotnet"},{"name":"kotlin"},{"name":"spring"},{"name":"kafka"},{"name":"kubernetes"},{"name":"spring-boot"}],"cities":[{"code":"moscow"},{"code":"lida"}],"allowsRemote":true}},{"node":{"__typename":"Job","id":"1716518912-1001091028994","title":"Java программист","text":"#Java  #middle #fulltime #удаленно\nДля московской  компании по разработке банковского ПО ищу middle программиста Java.\nЕсть задачи по созданию новых (больших и интересных) информационных систем, так и задачи по доработке и поддержке существующих. Разработка приложений с использованием микросервисной архитектуры.\nТребования: Java 8, Spring, Hibernate, JMS, REST, SQL\nУсловия обсуждаются в зависимости от опыта: 120 000-150 000 руб. net («белая» з/п).\nРабота постоянная, удаленная с оформлением в штат компании. Готовность начинать рабочий день до 11.00 (Мск).\nКонтакты: @recrut911 или rt@connect-personal.ru","markup":[{"type":"hashtag","offset":0,"length":5,"data":"Java"},{"type":"hashtag","offset":7,"length":7,"data":"middle"},{"type":"hashtag","offset":15,"length":9,"data":"fulltime"},{"type":"hashtag","offset":25,"length":9,"data":"удаленно"},{"type":"handle","offset":571,"length":10,"data":"recrut911"},{"type":"link","offset":586,"length":22,"data":"mailto:rt@connect-personal.ru"}],"date":"2020-06-22T10:41:25+00:00","link":"tg://resolve?domain=jvmjobs&post=1637","tags":[{"name":"java"},{"name":"jvm"},{"name":"spring"},{"name":"hibernate"},{"name":"rest"},{"name":"sql"},{"name":"dotnet"}],"cities":[],"allowsRemote":true}},{"node":{"__typename":"Job","id":"71766638592-1001054966032","title":"Android разработчик","text":"#вакансия  #fulltime #android #удаленка #middle #senior\n\nAndroid разработчик\n\nУровень: middle+, senior\nФормат работы: удаленно (часовой пояс желательно не более +/- 2ч с МСК)\nЗанятость: fulltime\nЗарплатная вилка: от 250 000 до 270 000 руб.\nКомпания: AGIMA\nОписание вакансии: поддержка и развитие приложения и разработка новых фич для известного онлайн-кинотеатра. Необходим специалист уровня middle+ и выше, с хорошим знанием API Android начиная с 5.0, знанием классических алгоритмов и структур данных, способный в высокой степени самостоятельно закрывать таски, не требуя постоянного участия техлидов. Опыт разработки музыкальных / видеосервисов приветствуется.\n\nОсновные требования:\n⁃ знание Java и Kotlin;\n⁃ опыт разработки под Android от года, хорошее знание API Android начиная с 5.0;\n⁃ понимание Аctivity/Fragment Lifecycle;\n⁃ знание архитектур MVC, MVVM, MVP, понимание работы протокола HTTP, навыки работы с потокобезопасным кодом;\n⁃ знание и понимание основных алгоритмов и структур данных;\n⁃ навыки оптимизации приложений по потреблению памяти и по FPS.\n\nУсловия:\n— Удаленная работа, оформление по ГПХ;\n— Полный день, гибкий график - 5/2;\n\nМы собрали основные требования к проекту в формате веб-формы, которую просим вас заполнить, чтобы сэкономить ваше и наше время на формирование ожиданий.\nВажно! Просьба заполнять форму \"как есть\": отсутствие каких-то знаний может не быть критичным, а пробелы мы все равно скорее всего с вами выявим на собеседовании.\n\nКонтакты: y.gribova@agima.ru\n@jgribova","markup":[{"type":"hashtag","offset":0,"length":9,"data":"вакансия"},{"type":"hashtag","offset":11,"length":9,"data":"fulltime"},{"type":"hashtag","offset":21,"length":8,"data":"android"},{"type":"hashtag","offset":30,"length":9,"data":"удаленка"},{"type":"hashtag","offset":40,"length":7,"data":"middle"},{"type":"hashtag","offset":48,"length":7,"data":"senior"},{"type":"bold","offset":57,"length":20,"data":""},{"type":"bold","offset":78,"length":9,"data":""},{"type":"bold","offset":103,"length":15,"data":""},{"type":"bold","offset":175,"length":11,"data":""},{"type":"bold","offset":195,"length":18,"data":""},{"type":"bold","offset":240,"length":10,"data":""},{"type":"bold","offset":256,"length":19,"data":""},{"type":"bold","offset":665,"length":20,"data":""},{"type":"bold","offset":1066,"length":8,"data":""},{"type":"link","offset":1232,"length":9,"data":"https://forms.gle/D1WkV35H46qTi3JL9"},{"type":"bold","offset":1304,"length":6,"data":""},{"type":"link","offset":1478,"length":18,"data":"mailto:y.gribova@agima.ru"},{"type":"handle","offset":1497,"length":9,"data":"jgribova"}],"date":"2020-06-22T10:37:35+00:00","link":"tg://resolve?domain=mobile_jobs&post=68442","tags":[{"name":"mobile"},{"name":"android"},{"name":"java"},{"name":"kotlin"},{"name":"mvvm"}],"cities":[],"allowsRemote":true}},{"node":{"__typename":"Job","id":"91576336384-1001067529236","title":"Python разработчик","text":"#вакансия #москва #офис #fulltime #backed #developer #python #вакансия\n \nКомпания: MillionAgents\nГород: Москва (м. Новослободская)\nФормат работы: офис\nЗанятость: полная, гибкое начало дня, пару дней в неделю удаленно\nЗП: от 100.000 до 120.000 руб. на руки.\n \nО компании: \nНаша компания проводит маркетинговые исследования для крупных торговых сетей: собираем, обрабатываем и структурируем данные. Для этого мы разработали онлайн-платформу, с помощью которой управляем массовым персоналом по всей стране в режиме 24/7, а это сотни тысяч пользователей и десятки внутренних сервисов.\nВ проект Retail Intelligence входит:\n- Ценовой мониторинг крупных ритейлеров, работающих на территории РФ;\n- Обработка данных, связанных с товарными единицами (SKU) по фотографиям из торговых точек;\n- Розничные исследования - аналитика динамики цен, отсутствия товарного запаса (out of stock);\n- Получение и обработка данных розничной торговли из открытых источников, предоставление аналитических отчётов на основе этих данных\n\nСейчас мы в поиске  Python разработчика со знанием Django.\n \nОсновная задача: \nСоздавать и поддерживать сервисы в стеке технологий Python/Django и, в меньшей степени, Golang. Также в дальнейшем будет задача по рефактору приложения на Ruby on Rails. Взаимодействие предстоит с одним старшим разработчиком, который и будет ставить задачи. Первоначально будет строгое код-ревью.                                                                                                                                                                                                                                                      Взаимодействие: jira, git.                                                                                                                                                                                                                                                    Что нужно знать и уметь: \n- Знание одной из следующих технологий/языков программирования на уровне джун+/middle: Python/Django, Ruby/Rails;\n- Опыт работы с PostgreSQL;\n- Опыт написания интеграционных тестов;\n- Базовое знание UNIX-систем.Круто, если: \n- Есть опыт администрирования БД (создание таблиц/индексов, дамп таблиц, оптимизация);\n- Есть базовое знание JS-фреймворков, вроде Angular или React;\n- Есть базовое знание одного из следующих языков программирования: Golang, Java/Kotlin, Elixir;\n- Есть понимание работы хранилищ данных в памяти, вроде Redis;\n- Есть опыт работы с менеджерами очередей, вроде RabbitMQ или Apache Kafka;\n- Есть опыт работы с Docker и Jenkins\n                                                                                                                                                                                                                                                                                     Почему именно мы:\n-  Светлый офис с большими окнами у метро Новослободская;\n-  График 5/2, начало рабочего дня с 10:00 - 12:00 часов;\n-  Возможность работать пару дней в неделю удаленно;\n-  Никакой бюрократии;\n-  Очередь технических задач;\n-  Технически грамотное руководство;\n-  Официальное трудоустройство                                                                                                                                                                                                                                 По всем вопросам можно писать в личные сообщения @svetafeeva","markup":[{"type":"hashtag","offset":0,"length":9,"data":"вакансия"},{"type":"hashtag","offset":10,"length":7,"data":"москва"},{"type":"hashtag","offset":18,"length":5,"data":"офис"},{"type":"hashtag","offset":24,"length":9,"data":"fulltime"},{"type":"hashtag","offset":34,"length":7,"data":"backed"},{"type":"hashtag","offset":42,"length":10,"data":"developer"},{"type":"hashtag","offset":53,"length":7,"data":"python"},{"type":"hashtag","offset":61,"length":9,"data":"вакансия"},{"type":"handle","offset":3432,"length":11,"data":"svetafeeva"}],"date":"2020-06-22T10:19:47+00:00","link":"tg://resolve?domain=python_jobs&post=0","tags":[{"name":"python"},{"name":"django"},{"name":"go"},{"name":"ruby"},{"name":"ruby-on-rails"},{"name":"git"},{"name":"postgresql"},{"name":"unix"},{"name":"angularjs"},{"name":"reactjs"},{"name":"java"},{"name":"kotlin"},{"name":"elixir"},{"name":"redis"},{"name":"rabbitmq"},{"name":"apache"},{"name":"kafka"},{"name":"docker"},{"name":"jenkins"}],"cities":[{"code":"moscow"}],"allowsRemote":true}},{"node":{"__typename":"Job","id":"103423148032-1001089317451","title":"Qa инженер","text":"#вакансия #QA #Java #QAAutomation #Москва #офис \n\nВакансия: QA Lead (Тест-Менеджер)\nГород: Москва м. Технопарк \nЗарплата: от 250 000 рублей до 290 000 рублей на руки\nФормат: офис, полный день, полная занятость\nКомпания Innovative People \n\n🔝 Проект единого окна сотрудника отделения - оптимизация и автоматизация операций, которые сотрудник проводит для ЮЛ в отделении авторизуемся в приложении через SFA.\n9 модулей. Суть проекта - высадить всех сотрудников отделений в одно приложение, которое максимально автоматизирует их деятельность и избавит от необходимости использовать до 29 различных программ для проведения сервисного обслуживания клиентов в отделении.\n\n🕘 Чем предстоит заниматься:\n• планирование тестирования;\n• выстраивание процессов тестирования среди 8 команд с упором на автоматизацию;\n• выстраивать CI/CD проекта;\n• налаживание взаимодействия QA инженеров в нескольких командах;\n• поддерживать и развивать разработанные решения по автоматизации;\n• исследовать новые технологии и внедрять их на проекте;\n• принятие решений о внедрении / обновлении программного обеспечения.\n\n🕒 От кандидата ожидаем:\n• опыт в тестировании от 4х лет\n• опыт в автотестировании от 3х лет\n• опыт руководства группой тестировщиков от 2х лет\n• практический опыт применения практик тест-дизайна\n• умение проектировать тест-кейсы и подготавливать тестовые данные для тестирования\n• хорошие знание Java, библиотек\n• уверенное использование и понимание как работает под капотом Selenium Webdriver (Selenide и Appium для мобильных платформ)\n• опыт написания собственного фреймворка\n• опыт работы в unix системах\n• опыт работы с API (Soap, Rest)\n• опыт использование git\n• опыт использование CI (желательно, но не обязательно Jenkins)\n• опыт работы с Docker\n• опыт составления запросов SQL\n• опыт управления непрямыми (функциональными) подчиненными\n• умение контролировать несколько проектов одновременно\n• умение мотивировать команду, опыт управления рисками, мониторинг эффективности процессов\n\n🕧 Предлагаем:\n• все по ТК РФ\n• ДМС со стоматологией, программа лояльности\n• Macbook \n• адекватное руководство и лояльные процессы\n• большое комьюнити, классные команды\n• помогаем с релокацией!\n\nРезюме и вопросы @Priboch","markup":[{"type":"hashtag","offset":0,"length":9,"data":"вакансия"},{"type":"hashtag","offset":10,"length":3,"data":"QA"},{"type":"hashtag","offset":14,"length":5,"data":"Java"},{"type":"hashtag","offset":20,"length":13,"data":"QAAutomation"},{"type":"hashtag","offset":34,"length":7,"data":"Москва"},{"type":"hashtag","offset":42,"length":5,"data":"офис"},{"type":"handle","offset":2197,"length":8,"data":"Priboch"}],"date":"2020-06-22T10:08:51+00:00","link":"tg://resolve?domain=qa_jobs&post=98632","tags":[{"name":"qa"},{"name":"java"},{"name":"selenium"},{"name":"unix"},{"name":"soap"},{"name":"rest"},{"name":"git"},{"name":"jenkins"},{"name":"docker"},{"name":"sql"}],"cities":[{"code":"moscow"}],"allowsRemote":false}}]}}},"context":{}}