{"hash":"f5f6bf98bd95e769321482904cbbd488f77922fd","data":{"records":{"id":"mobile","name":"mobile","belongsTo":{"totalCount":307,"pageInfo":{"totalPages":31,"currentPage":13},"edges":[{"node":{"__typename":"Job","id":"72068628480-1001054966032","title":"Android разработчик","text":"#вакансия #москва #офис #ios #senior\n\nгород: Москва\nформат работы: офис\nзанятость: полная\nзарплатная вилка: 150-200\nвакансия: Ищу iOS-разработчика не ниже middle+, готового возглавить развитие  и поддержку приложения.\n\nо компании: Электронное издательство «Юрайт» Мы работаем со всеми вузами страны и считаем своей главной целью повышение образовательного уровня в России.\nwww.urait.ru\n\nо проекте: Над проектом работает 20 человек. Приложение заказывали на стороне в 2019 г. Теперь решили собрать свою команду для рефакторинга и выведения на новый уровень.\n\n🧑🏻‍💻Чем будешь заниматься:\n✔️Доработка текущего мобильного приложения компании под iOS/Android;\n✔️Интеграция с внешними сервисами;\n✔️Взаимодействовать с командой (аналитики, тестировщики);\n✔️Участие в проектной деятельности.\n\n\nЧто хотят видеть в тебе:\n • Имеешь успешный опыт разработки и поддержки iOS-приложений\n • Любишь iOS SDK, Xcode, Objective-C и Swift\n • Трогал архитектуру MVP или MVVM\n • Имеешь успешный опыт разработки клиент-серверных приложений (REST, JSON)\n • Владеешь паттернами UI\n • Знаешь, зачем нужен Git\n • Можешь писать тесты\n\nНемного о печеньках:\nОфис с плюшками в 5 минутах от м. Шоссе Энтузиастов, Мск\nГибкое начало дня: для жаворонков с 8, сова может начать в 11 =)\nВсе по ТК РФ + соц.пакет \nАдекватные коллеги и руководство, интересные таски, много позитива :)\n\n\nЗаинтересовало?\nНапиши:)\nМарьяна @reanimawka\n+79151474789","markup":[{"type":"hashtag","offset":0,"length":9,"data":"вакансия"},{"type":"hashtag","offset":10,"length":7,"data":"москва"},{"type":"hashtag","offset":18,"length":5,"data":"офис"},{"type":"hashtag","offset":24,"length":4,"data":"ios"},{"type":"hashtag","offset":29,"length":7,"data":"senior"},{"type":"bold","offset":231,"length":32,"data":""},{"type":"bold","offset":276,"length":22,"data":""},{"type":"bold","offset":329,"length":42,"data":""},{"type":"link","offset":373,"length":12,"data":"http://www.urait.ru"},{"type":"bold","offset":558,"length":29,"data":""},{"type":"bold","offset":788,"length":24,"data":""},{"type":"code","offset":813,"length":3,"data":""},{"type":"code","offset":875,"length":3,"data":""},{"type":"code","offset":921,"length":3,"data":""},{"type":"code","offset":956,"length":3,"data":""},{"type":"code","offset":1032,"length":3,"data":""},{"type":"code","offset":1058,"length":3,"data":""},{"type":"code","offset":1085,"length":3,"data":""},{"type":"bold","offset":1109,"length":20,"data":""},{"type":"handle","offset":1383,"length":11,"data":"reanimawka"},{"type":"link","offset":1395,"length":12,"data":"tel:+79151474789"}],"date":"2020-06-26T08:08:19+00:00","link":"tg://resolve?domain=mobile_jobs&post=68730","tags":[{"name":"mobile"},{"name":"android"},{"name":"ios"},{"name":"xcode"},{"name":"objective-c"},{"name":"swift"},{"name":"mvvm"},{"name":"rest"},{"name":"json"},{"name":"git"}],"cities":[{"code":"moscow"}],"allowsRemote":false}},{"node":{"__typename":"Job","id":"72065482752-1001054966032","title":"Ios разработчик","text":"#вакансия #swift #objective-C #ios\n\niOS разработчик удаленно по России \nmiddle/senior\n\nГород : Санкт-Петербург\nФормат работы: офис или удаленно\nЗанятость: Полная\nЗарплатная вилка:  90 000 - 200 000 руб\n\n\nОписание компании:\nВ Blogman мы занимаемся разработкой собственного приложения – платформа для блогеров и рекламодателей. В нашей команде уже более 50 разработчиков и мы продолжаем расти. Сейчас мы ищем инженера с опытом коммерческой разработки под iOS.\nОсновной стек технологий — Swift, Realm, Alamofire. Сейчас мы разрабатываем бизнес-функционал и будем рады новому специалисту в нашей команде, вместе с которым мы будем делать быстрое приложение с отзывчивым и плавным интерфейсом.\n\nМы ожидаем, что у вас есть:\n— Опыт коммерческой разработки мобильных приложений под iOS;\n— Хорошие знания Swift, UIKit;\n— Опыт работы с мобильными БД;\n— Умение работать с Git, Cocoapods.\n\nБудет плюсом, если вы:\n— Разрабатывали клиент-серверные приложения;\n— Умеете работать с WebSocket;\n— Знаете и понимаете архитектуру VIPER;\n— Командный игрок без яркого эгоцентризма;\n— Готовы активно принимать участие в жизни компании и продукта.\n\nРады предложить:\n– Удаленное сотрудничество или комфортный офис на Невском проспекте в 5 минутах ходьбы от ст. м. Маяковская и Владимирская;\n– Желаемый оклад по результатам собеседования;\n– Понятную систему роста зарплаты каждые 6 месяцев, в которой все зависит только от вас;\n– Все необходимые офисные блага вроде вкусного кофе и т.д.\nВас будут окружать адекватные люди, с которыми комфортно решать поставленные задачи. У сотрудников есть общие ценности, такие как стремление к качественному результату, забота о продукте и желание двигаться вперед. Также у нас нет “Начальства”, а есть коллеги. Все взаимодействуют горизонтально и в команде равенство между инженерами, стейкхолдером, продактом и т.д. Все работают бок о бок и делают одно общее дело.\nНазвание компании: Blogman\nКонтакты: @maria_golovina","markup":[{"type":"hashtag","offset":0,"length":9,"data":"вакансия"},{"type":"hashtag","offset":10,"length":6,"data":"swift"},{"type":"hashtag","offset":17,"length":10,"data":"objective"},{"type":"hashtag","offset":30,"length":4,"data":"ios"},{"type":"bold","offset":225,"length":8,"data":""},{"type":"bold","offset":490,"length":2,"data":""},{"type":"bold","offset":497,"length":2,"data":""},{"type":"bold","offset":690,"length":27,"data":""},{"type":"bold","offset":878,"length":22,"data":""},{"type":"bold","offset":1125,"length":16,"data":""},{"type":"handle","offset":1914,"length":15,"data":"maria_golovina"}],"date":"2020-06-26T07:38:07+00:00","link":"tg://resolve?domain=mobile_jobs&post=68727","tags":[{"name":"mobile"},{"name":"ios"},{"name":"swift"},{"name":"objective-c"},{"name":"realm"},{"name":"uikit"},{"name":"git"},{"name":"cocoapods"},{"name":"websocket"}],"cities":[],"allowsRemote":true}},{"node":{"__typename":"Job","id":"72062337024-1001054966032","title":"Android разработчик","text":"#вакансия #android #java #kotlin #офис #спб\nИщем Android разработчика в проект #МойОфис. Предстоит много работы: новые фичи, полировка UI и анимации, рефакторинг существующего кода с написанием тестов. С нас – зп от 150 до 220 (зависит от уровня), удобный офис в центре Питера, интересная команда и поддержка участия в жизни профессионального сообщества. Подробнее - по ссылке https://spb.hh.ru/vacancy/32700779\nСвязь по почте : anna.galaktionova@myoffice.team\nИли тут @Galaktionova","markup":[{"type":"hashtag","offset":0,"length":9,"data":"вакансия"},{"type":"hashtag","offset":10,"length":8,"data":"android"},{"type":"hashtag","offset":19,"length":5,"data":"java"},{"type":"hashtag","offset":25,"length":7,"data":"kotlin"},{"type":"hashtag","offset":33,"length":5,"data":"офис"},{"type":"hashtag","offset":39,"length":4,"data":"спб"},{"type":"hashtag","offset":79,"length":8,"data":"МойОфис"},{"type":"link","offset":377,"length":34,"data":"https://spb.hh.ru/vacancy/32700779"},{"type":"link","offset":429,"length":31,"data":"mailto:anna.galaktionova@myoffice.team"},{"type":"handle","offset":469,"length":13,"data":"Galaktionova"}],"date":"2020-06-26T07:08:07+00:00","link":"tg://resolve?domain=mobile_jobs&post=68724","tags":[{"name":"mobile"},{"name":"android"},{"name":"java"},{"name":"kotlin"}],"cities":[],"allowsRemote":false}},{"node":{"__typename":"Job","id":"103771275264-1001089317451","title":"Qa engineer","text":"#вакансия #Ульяновск #QA #fulltime #офис #manual #relocate\n\n🔸 manual QA engineer \n🔸 Ульяновск, офис, remote не рассматриваем (но пока удаленно из-за covid)\n🔸 Dualboot Partners (NC, USA)\n🔸 вилка $1000-$3000\n\nОт вас:\n\n- нужно очень хорошо тестировать web- и mobile-приложения, API, нужны уверенные скиллы в этом\n- эрудиция в web-технологиях\n- опыт работы с различными инструментами для тестирования\n- умение работать самостоятельно и ответственно\n- вся документация и общение с клиентом на английском, соответственно, уровень хотя бы базовый необходим\n- есть проекты, покрываемые автотестами, поэтому умение их разрабатывать может быть плюсом и пригодиться в будущем\n\nОт нас:\n\n- ноль лишней бюрократии\n- з/п в $ официально\n- уроки английского от компании\n- MacBook Pro для работы (через 1 год работы он переходит во владение сотруднику)\n- очень крутой офис-коттедж в центре города (да, Ульяновск) с кучей вкусностей и прочими радостями\n- команда - молодые, разносторонние и очень скилловые люди\n- гибкий график и вообще всевозможные свободы, не мешающие эффективно работать\n- помощь при переезде в Ульяновск\n\nБуду рада ответить на любые вопросы,  @alina_fatkhutdinova","markup":[{"type":"hashtag","offset":0,"length":9,"data":"вакансия"},{"type":"hashtag","offset":10,"length":10,"data":"Ульяновск"},{"type":"hashtag","offset":21,"length":3,"data":"QA"},{"type":"hashtag","offset":25,"length":9,"data":"fulltime"},{"type":"hashtag","offset":35,"length":5,"data":"офис"},{"type":"hashtag","offset":41,"length":7,"data":"manual"},{"type":"hashtag","offset":49,"length":9,"data":"relocate"},{"type":"handle","offset":1149,"length":20,"data":"alina_fatkhutdinova"}],"date":"2020-06-26T06:52:36+00:00","link":"tg://resolve?domain=qa_jobs&post=98964","tags":[{"name":"qa"},{"name":"web"},{"name":"mobile"}],"cities":[{"code":"ulyanovsk"}],"allowsRemote":true}},{"node":{"__typename":"Job","id":"72048705536-1001054966032","title":"Android разработчик","text":"‼️Вакансия Senior Android⁢ Developer‼️\n#android #developer #вакансия #удаленка\nВ команде Mycelium Wallet (mycelium.com) открыта #вакансия Senior Android⁢ Developer.\n💵З/П 3000-4000 USD по итогам собеседования.\nРабота удаленная 💻\n\nМы предлагаем:\n🔸Получить навыки и компетенции в одном из самых передовых и перспективных направлений финтех индустрии - blockchain;\n🔸Принять участие в разработке одного из самых популярных биткоин-кошельков в Google Play Store;\n🔸Работать в международной команде бок о бок с ведущими специалистами в индустрии;\n🔸Возможность профессионального карьерного роста и участия в разнообразных проектах компании.\n\nЧем предстоит заниматься:\n🔹Разрабатывать новые и развивать существующие мобильные сервисы компании на платформе Android;\n🔹Проектировать и разрабатывать большие функциональные части приложения с привлечением других программистов;\n🔹Использовать cutting edge технологии, а также проверенные временем решения.\n\nТребования:\n✔️Как минимум 3 года опыта разработки на Android;\n✔️Знание Java/Kotlin на уровне ведущего разработчика;\n✔️Знание шаблонов проектирования, опыт использования MVP и других архитектурных подходов;\n✔️Опыт параллельного и многопоточного программирования;\n✔️Понимание циклов работы Android-приложения и управления памятью;\n✔️Опыт разработки пользовательских интерфейсов на платформе Android. \n✔️Знание Android Design Principles;\n✔️Знание и умение использовать различные механизмы взаимодействий между приложениями, предоставляемые в рамках Android SDK;\n✔️Понимание принципов работы REST API, WS, RPC и клиент-серверных приложений;\n✔️Знание английского языка на уровне чтения документации и умения общаться в корпоративном чате.\n\nПлюсом будет:\n➕Умение и понимание необходимости написания Unit tests;\n➕Знание основ криптографии;\n➕Опыт работы с bitcoin/etherium blockchain stack;\n➕Наличие своих проектов на Github, в Google Play и т.д.\n\n📲Контакт: @valeritata","markup":[{"type":"hashtag","offset":39,"length":8,"data":"android"},{"type":"hashtag","offset":48,"length":10,"data":"developer"},{"type":"hashtag","offset":59,"length":9,"data":"вакансия"},{"type":"hashtag","offset":69,"length":9,"data":"удаленка"},{"type":"link","offset":106,"length":12,"data":"http://mycelium.com"},{"type":"hashtag","offset":128,"length":9,"data":"вакансия"},{"type":"handle","offset":1900,"length":11,"data":"valeritata"}],"date":"2020-06-25T18:53:54+00:00","link":"tg://resolve?domain=mobile_jobs&post=68711","tags":[{"name":"mobile"},{"name":"android"},{"name":"playframework"},{"name":"java"},{"name":"kotlin"},{"name":"rest"},{"name":"github"}],"cities":[],"allowsRemote":true}},{"node":{"__typename":"Job","id":"72040316928-1001054966032","title":"Android разработчик","text":"#вакансия #android #москва #удаленка #senior #middle\n\nГород: Москва\nФормат работы: удаленка\nЗанятость: полная\nВилка:120-150 на руки\n\nОписание вакансии: Я ищу опытного Android-разработчика для удаленной работы в международной компании Раксел Телематикс.\n\nО компании: Raxel Telematics - это технологический стартап, разрабатывающий IoT платформу для обогащения, анализа и монетизации данных.\nwww.raxeltelematics.com\n\nФункционал:\n\n• Осуществлять разработку основных модулей и интерфейсов в мобильных приложениях в соответствии с заданиями от руководителя команды разработки;\n• Осуществлять разработку внутренних модулей и библиотек по сбору данных пользователя и передаче статистики;\n• Вести документацию разрабатываемого программного обеспечения;\n• Вести список задач и поддерживать актуальным статус задач в системе Jira;\n• Формировать задания группе тестирования в проверке работоспособности мобильного программного обеспечения.\n\nОт тебя хотят:\n\n✔️Знание Android SDK, Java Core, Kotlin\n✔️Понимание принципы ООП и классических алгоритмов\n✔️Опыт работы с REST API\n✔️Понимание принципов Material Design и Android Clean Architecture, MVP, DI;\n✔️Опыт работы с SQL/SQLite\n✔️Использование в работе rxjava/rxjava2, retrofit2, dagger2, picasso, otto и др.\n✔️Умение писать качественный код и использование принципов SOLID.\n\nКонтакты: @reanimawka","markup":[{"type":"hashtag","offset":0,"length":9,"data":"вакансия"},{"type":"hashtag","offset":10,"length":8,"data":"android"},{"type":"hashtag","offset":19,"length":7,"data":"москва"},{"type":"hashtag","offset":27,"length":9,"data":"удаленка"},{"type":"hashtag","offset":37,"length":7,"data":"senior"},{"type":"hashtag","offset":45,"length":7,"data":"middle"},{"type":"bold","offset":266,"length":16,"data":""},{"type":"link","offset":390,"length":23,"data":"http://www.raxeltelematics.com"},{"type":"bold","offset":415,"length":11,"data":""},{"type":"bold","offset":930,"length":14,"data":""},{"type":"handle","offset":1324,"length":11,"data":"reanimawka"}],"date":"2020-06-25T16:17:35+00:00","link":"tg://resolve?domain=mobile_jobs&post=68703","tags":[{"name":"mobile"},{"name":"android"},{"name":"java"},{"name":"kotlin"},{"name":"rest"},{"name":"sql"},{"name":"sqlite"}],"cities":[{"code":"moscow"}],"allowsRemote":true}},{"node":{"__typename":"Job","id":"72038219776-1001054966032","title":"Ios разработчик","text":"#вакансия #ios #swift #москва #офис #objective\n\nГород: Москва (ст.м. Аэропорт).\n\nФормат работы: full-time.\n\nЗанятость: полная. \n\nВилка: 100-200 т.р. на руки.\n\nФункционал:\n\n• Разработка мобильных приложений под платформу iOS.\n\n• Участие в командной разработке, тестировании, оптимизации существующих мобильных приложений на платформе iOS \n\nПрофессиональные знания: \n\nОтличное знание Objective-C/Swift, iOS SDK 10+;\nОпыт разработки мобильных приложений - от 2 лет;\nЗнание шаблонов проектирования, принципы SOLID, умение их применять;\nЗнакомы с основными алгоритмами и структурами данных;\nУмение работать со Storyboard и Autolayout;\nОпыт разработки клиент-серверных приложений, понимание принципов и устройства сетевого взаимодействия (HTTPS, JSON, REST);\nУмение разбираться и работать с чужим кодом;\nЗнание распределенных систем контроля версий (Git). \n\nНазвание компании: Локо-Банк\nhttps://www.lockobank.ru//\nhttps://hh.ru/vacancy/37545592\n\nКонтакты: @hrlocko","markup":[{"type":"hashtag","offset":0,"length":9,"data":"вакансия"},{"type":"hashtag","offset":10,"length":4,"data":"ios"},{"type":"hashtag","offset":15,"length":6,"data":"swift"},{"type":"hashtag","offset":22,"length":7,"data":"москва"},{"type":"hashtag","offset":30,"length":5,"data":"офис"},{"type":"hashtag","offset":36,"length":10,"data":"objective"},{"type":"link","offset":881,"length":26,"data":"https://www.lockobank.ru//"},{"type":"link","offset":908,"length":30,"data":"https://hh.ru/vacancy/37545592"},{"type":"handle","offset":950,"length":8,"data":"hrlocko"}],"date":"2020-06-25T16:04:39+00:00","link":"tg://resolve?domain=mobile_jobs&post=68701","tags":[{"name":"mobile"},{"name":"ios"},{"name":"swift"},{"name":"objective-c"},{"name":"json"},{"name":"rest"},{"name":"git"}],"cities":[{"code":"moscow"}],"allowsRemote":false}},{"node":{"__typename":"Job","id":"72028782592-1001054966032","title":"Ios разработчик","text":"#вакансия #работа #iOS #Developer #fulltime #удаленно\n\nВсем привет!\n\nМы в applicatura.com опять выросли и ищем middle iOS-разработчика. \nЗП 60 000 - 100 000 руб. после налогов. \n\n\nМы создаем и поддерживаем мобильные приложения для крупных известных брендов , SimpleWine, Перекресток, Абсолют Банк и др. \nВ команде - дизайнеры, мобильные разработчики, бэкенд разработчики, проджект менеджеры, qa-инженеры.\nУ нас налаженные процессы разработки и никакого чайка-менеджмента. \n\nЧто вам придется делать:\n - разрабатывать новые приложений \n - поддерживать имеющиеся приложения клиентов\n - создание библиотек и SDK\n - верстать по макетам дизайнеров\n - проходить технические аудиты от заказчиков\n\n\nТребования:\n- Опыт коммерческой разработки от 0,5 года;\n - Знание Swift\n - Знание особенностей и тонкостей разработки под iOS (UIKit, Foundation, CoreData и др.)\n - Знание git и уверенное использование подходов и инструментов командной разработки и ревью кода - ревьювить будем вас )\n - Имеющееся представление о том, как выстроить архитектуру большого и сложного приложения\n - Знания последних технологий, фреймворков, инструментов и вообще желание разумно следовать прогрессу\n - Понимание аспектов и этапов разработки мобильного приложения полного цикла (от настройки окружения до релиза в сторы)\n - Знание библиотек и стека мобильной разработки\n\nУсловия:\n\n - белая ЗП, соблюдаем и чтим Трудовой Кодекс РФ\n - возможность иметь нестандартный рабочий график\n - предоставляем возможности для карьерного и профессионального роста\n - работа в крупных публичных проектах, которые можно положить себе в портфолио\n \nВАЖНО! Вакансия для граждан РФ/РБ. \n\nПисать в телеграм @k_kononov, CV присылать на почту kononov@applicatura.com","markup":[{"type":"hashtag","offset":0,"length":9,"data":"вакансия"},{"type":"hashtag","offset":10,"length":7,"data":"работа"},{"type":"hashtag","offset":18,"length":4,"data":"iOS"},{"type":"hashtag","offset":23,"length":10,"data":"Developer"},{"type":"hashtag","offset":34,"length":9,"data":"fulltime"},{"type":"hashtag","offset":44,"length":9,"data":"удаленно"},{"type":"link","offset":74,"length":15,"data":"http://applicatura.com"},{"type":"handle","offset":1655,"length":10,"data":"k_kononov"},{"type":"link","offset":1689,"length":23,"data":"mailto:kononov@applicatura.com"}],"date":"2020-06-25T15:06:42+00:00","link":"tg://resolve?domain=mobile_jobs&post=68692","tags":[{"name":"mobile"},{"name":"ios"},{"name":"swift"},{"name":"uikit"},{"name":"git"}],"cities":[],"allowsRemote":true}},{"node":{"__typename":"Job","id":"72025636864-1001054966032","title":"Ios developer","text":"#вакансия #IOS #Senior #Objective-C #Swift #удаленно\n🔥Приглашаем Senior IOS Developer в новый проект от Сбербанка.\n💸Уровень ЗП: 250К-330К net (в зависимости от типа оформления).\n📝Оформление: ИП или штат компании партнера.\n📍Локация: удаленно❗️\n\n🧑‍💻О проекте: фронтальная SDK биометрической платформы. Данный проект занимается разработкой продукта «Фронтальная биометрическая компонента» (Фронтальная БиоSDK) для биометрической идентификации личности на различных ОС и устройствах. Первоочередная задача сейчас – забрать текущие версии SDK у непрофильных подразделений и на их основе разработать Фронтальной БиоSDK для мобильных приложений (iOS). Банку, как высокотехнологичной организации необходима биометрическая идентификация личности. Это позволит перейти к системам без документов, паролей, смс, пинкодов.\n\n🎯Ваши будущие задачи:\n· разработка (с «нуля») и поддержка собственной компоненты фронтального Био SDK по работе с камерами устройств и нейросетями собственной лаборатории (Machine Learning, Data Scientist, Computer Vision) и решений вендоров;\n· интеграция Био SDK с каналами/продуктами Банка мобильных решений\n(iOS), а также прочих систем банка (Linux, Windows, Web, SmartDevices);\n· постоянное повышение качества продукта на фоне постоянно обучающихся нейросетей.\n\n🤝Мы ожидаем от Вас:\n- сильный Swift (опыт от 2 лет), понимание Objective-C (желательно опыт от 2 лет);\n- знание следующих тем: CALayer, viewDidLoad в UIViewController, ARC, CoreData, Корневые классы, Retain-циклы и утечка памяти MRC, Atomic, SOLID, Отрисовка UI, Мультипоточность.\n\nОткликнуться на вакансию и задать вопросы: telegram @anisimovaane4ka","markup":[{"type":"hashtag","offset":0,"length":9,"data":"вакансия"},{"type":"hashtag","offset":10,"length":4,"data":"IOS"},{"type":"hashtag","offset":15,"length":7,"data":"Senior"},{"type":"hashtag","offset":23,"length":10,"data":"Objective"},{"type":"hashtag","offset":36,"length":6,"data":"Swift"},{"type":"hashtag","offset":43,"length":9,"data":"удаленно"},{"type":"handle","offset":1619,"length":16,"data":"anisimovaane4ka"}],"date":"2020-06-25T14:24:48+00:00","link":"tg://resolve?domain=mobile_jobs&post=68689","tags":[{"name":"mobile"},{"name":"ios"},{"name":"objective-c"},{"name":"swift"},{"name":"dotnet"},{"name":"linux"},{"name":"windows"},{"name":"web"},{"name":"machine-learning"}],"cities":[],"allowsRemote":true}},{"node":{"__typename":"Job","id":"72014102528-1001054966032","title":"Ios developer","text":"#вакансия #работа #ios #senior #spb \n\nSenior iOS developer\n\nЛокация: Санкт-Петербург, м. Петроградская (БЦ \"Толстой сквер\")\n\nРабота в офисе с возможностью работы из дома, полная занятость;\n\nВилка от 150 до 300к;\n\nАмериканская компания, занимающаяся разработкой фичи по работе с голосом, в поиске классного Senior iOS developer. \n\nНеобходим опыт работы 4-6+ лет, опыт разработки и запуска iOS-приложений с 0.\n\nПредлагаем компенсацию питания, ДМС, комфортный офис, участие в разработке интересного и перспективного проекта,  предоставляем всю необходимую технику.\n\nКонтакты для связи: tg @AliceHaull, почта  an@mynalabs.ai","markup":[{"type":"hashtag","offset":0,"length":9,"data":"вакансия"},{"type":"hashtag","offset":10,"length":7,"data":"работа"},{"type":"hashtag","offset":18,"length":4,"data":"ios"},{"type":"hashtag","offset":23,"length":7,"data":"senior"},{"type":"hashtag","offset":31,"length":4,"data":"spb"},{"type":"handle","offset":586,"length":11,"data":"AliceHaull"},{"type":"link","offset":606,"length":14,"data":"mailto:an@mynalabs.ai"}],"date":"2020-06-25T11:24:59+00:00","link":"tg://resolve?domain=mobile_jobs&post=68678","tags":[{"name":"mobile"},{"name":"ios"}],"cities":[],"allowsRemote":false}}]}}},"context":{}}