{"hash":"f5f6bf98bd95e769321482904cbbd488f77922fd","data":{"records":{"id":"git","name":"git","belongsTo":{"totalCount":273,"pageInfo":{"totalPages":28,"currentPage":2},"edges":[{"node":{"__typename":"Job","id":"17322475520-1001110946746","title":"Javascript разработчик","text":"#вакансия #frontend #react #typescript #middle #senior #москва #офис #fulltime\n\nПозиция – Frontend developer (Middle)\n\nКомпания – Quadcom\n\nЛокация – Москва, м. Ботанический сад\n\nЗанятость – полная, офис, гибкое время начала дня\n\nОплата: от 110 000 до 150 000 рублей на руки\n\n\n\nМы ищем талантливого фронтенд-разработчика в нашу не очень большую, но дружную команду. Если ты легко осваиваешь новые технологии, любишь чистый и красивый код, знаешь алгоритмы и готов развиваться, то мы очень хотим тебя к себе!\n\nМы разрабатываем различные сервисы и интерфейсы для внутреннего и внешнего использования. У нас есть как большие проекты, так и маленькие. Начиная с 2014 года с небольшой команды мы развились до довольно большой компании и развиваемся дальше\n\nБазируемся в уютном бизнес-центре Ультрамарин, недалеко от метро Ботанический сад и ВДНХ. У нас гибкий рабочий график, современный офис и отличное оборудование для работы.\n\n\n\n✅ Необходимые навыки:\n\n• Знание Javascript и ES6+, React + Redux\n\n• Уверенные знания HTML, CSS/SASS/LESS, опыт кроссбраузерной верстки\n\n• Опыт работы в команде с использованием Git и любого системой управления задачами\n\n\n\n✅ Плюсом будет:\n\n• Опыт работы с RestAPI\n\n• Знакомство с TypeScript\n\n• Знание алгоритмов и структур данных\n\n\n\n✅ Мы предлагаем:\n\nРаботу в успешной, растущей компании\n\nКарьерный и профессиональный рост\n\nУютный офис\n\nОтсутствие какого-либо дресс-кода\n\nСвободный график\n\nАдекватное руководство\n\n\n\nЗП от 110 000 до 150 000 рублей на руки\n\nпо итогам собеседования и испытательного срока\n\n\n\n☎️ Контакты для обсуждения вакансии:\n\ntelegram @codebor\n\ne-mail ybb@quadcom.ru\n\n\n\nДля желающих мы подготовили небольшое интересное задание\nhttps://github.com/walborn/test-backend-jwt/blob/master/task.md","markup":[{"type":"hashtag","offset":0,"length":9,"data":"вакансия"},{"type":"hashtag","offset":10,"length":9,"data":"frontend"},{"type":"hashtag","offset":20,"length":6,"data":"react"},{"type":"hashtag","offset":27,"length":11,"data":"typescript"},{"type":"hashtag","offset":39,"length":7,"data":"middle"},{"type":"hashtag","offset":47,"length":7,"data":"senior"},{"type":"hashtag","offset":55,"length":7,"data":"москва"},{"type":"hashtag","offset":63,"length":5,"data":"офис"},{"type":"hashtag","offset":69,"length":9,"data":"fulltime"},{"type":"handle","offset":1579,"length":8,"data":"codebor"},{"type":"link","offset":1596,"length":14,"data":"mailto:ybb@quadcom.ru"},{"type":"link","offset":1671,"length":63,"data":"https://github.com/walborn/test-backend-jwt/blob/master/task.md"}],"date":"2020-07-02T16:28:50+00:00","link":"tg://resolve?domain=javascript_jobs_feed&post=16520","tags":[{"name":"javascript"},{"name":"reactjs"},{"name":"typescript"},{"name":"redux"},{"name":"html"},{"name":"css"},{"name":"sass"},{"name":"git"},{"name":"github"},{"name":"jwt"},{"name":"react-redux"}],"cities":[{"code":"moscow"}],"allowsRemote":false}},{"node":{"__typename":"Job","id":"1775239168-1001091028994","title":"Java разработчик","text":"#middle #senior #Java #Spring #backend #developer #вакансия \nЛокация: Cанкт-Петербург\nЗанятость: полная, гибкое начало дня\n*до окончания пандемии работа удаленная, далее работа в офисе\nЗ/п: 130 – 200 k net.\nКомпания: CSI\nКонтакты: @Danny_Ushakova\nМы продуктовая компания CSI, создающая решения для автоматизации торговых сетей.  \nМы ищем крутых разработчиков, ответственных за собственный код, любящих тесты и понимающих важность unit тестов. Разработчиков, которые с радостью забывают про бюрократию, которые умеют защищать собственные решения и хотят сделать этот мир лучше!  \n💥JAVA developer (высоконагруженные сервисы лояльности)  \nКлючевой задачей будет разработка нового и доработка нашего продукта -  существующего функционала системы Set Retail 10. \n🔵Стек:\n• Java от 2 лет.\n• Spring (Web, Data, Cloud), Kafka.\n• Опыт разработки микросервисов.\n• Опыт проектирования базы данных.\n• SQL (желательно PostgreSQL), JDBC, Hibernate.\n• Git, Gradle.\n🔵Будет плюсом:\n• Опыт работы с J2EE (EJB3, JAX-WS, JAXB, JPA2).\n• Знание Linux.\n• Опыт работы с Redis, MongoDB, Docker, Hashicorp Nomad, Ansible.\n\nМы предлагаем:\n• возможность каждый день видеть результаты своей работы;\n• официальное оформление, белая зарплата, отпуск согласно ТК РФ;\n• гибкий график работы;\n• ДМС со стоматологией, 100% оплата больничных;\n• курсы английского языка в офисе;\n• посещение тренингов, конференций;\n• работа по Agile в команде высокопрофессиональных разработчиков;\n• возможности профессионального роста, четкая схема повышения зарплаты;\n• работа в современном и комфортном офисе в центре города (Чкаловcкий пр-т);\n• оборудованные столовые, чай, кофе, фрукты, печеньки и PlayStation;\n• командные тимбилдинги, футбольная команда.","markup":[{"type":"hashtag","offset":0,"length":7,"data":"middle"},{"type":"hashtag","offset":8,"length":7,"data":"senior"},{"type":"hashtag","offset":16,"length":5,"data":"Java"},{"type":"hashtag","offset":22,"length":7,"data":"Spring"},{"type":"hashtag","offset":30,"length":8,"data":"backend"},{"type":"hashtag","offset":39,"length":10,"data":"developer"},{"type":"hashtag","offset":50,"length":9,"data":"вакансия"},{"type":"handle","offset":231,"length":15,"data":"Danny_Ushakova"}],"date":"2020-07-02T15:12:35+00:00","link":"tg://resolve?domain=jvmjobs&post=1693","tags":[{"name":"java"},{"name":"jvm"},{"name":"spring"},{"name":"dotnet"},{"name":"web"},{"name":"cloud"},{"name":"kafka"},{"name":"sql"},{"name":"postgresql"},{"name":"jdbc"},{"name":"hibernate"},{"name":"git"},{"name":"gradle"},{"name":"jaxb"},{"name":"jpa"},{"name":"linux"},{"name":"redis"},{"name":"mongodb"},{"name":"docker"},{"name":"ansible"}],"cities":[],"allowsRemote":true}},{"node":{"__typename":"Job","id":"1774190592-1001091028994","title":"Java разработчик","text":"#москва #удаленка #fulltime #JavaDeveloper #Backend\n\nJava-разработчик/Backend Developer \n\nООО Криптериум (https://crypterium.com)\n\nЗп: 180.000-270.000 net\n\nПривет!\n\nМы команда Crypterium!\n\nМы международный финтех стартап.\n\nМы строим банк будущего, который поддерживает криптофиатные операции.\n\nНаша цель – создание сервиса, который фактически займёт место традиционных банков, по всем возможным банковским операциям!\n\nУ нас сложные, но интересные задачи по созданию крутого и по-настоящему полезного продукта для людей из разных стран по всему миру. Работа у нас реальная возможность приложить руку к крутому продукту, которым будет пользоваться большое количество людей.\n\nНа данный момент наша компания активно растет и развивается, в связи с этим мы ищем Backend Developer. Нам нужен по-настоящему про активный и ответственный сотрудник. Задач много, они разные и крайне интересны\n\n🟢Что предстоит делать?\n\n🔹Разработка бэкэнда финансового приложения;\n🔹Разработка платформенных микросервисов: интеграция с партнерами, аналитика, карточный процессинг, etc;\n🔹Разработка REST API для frontend\n\n🟢Какие skill’s мы хотим видеть в нашем будущем коллеге?\n\n🔹Java 8 (также желательно Kotlin);\n🔹Spring, Spring Cloud, Hibernate;\n🔹JUnit или другие фреймворки для тестирования;\n🔹Умение работать с SQL и не-SQL базами данных (у нас PostgreSQL);\n🔹Умение проектировать и реализовывать REST API;\n🔹Понимание микросервисной архитектуры;\n🔹Английский язык: умение читать и писать техническую документацию.\n🔹Понимание принципов работы tcp/ip, сетей передачи данных.\n🔹Умение писать тестируемый код;\n🔹Умение работать в команде и использовать соответствующие инструменты (git, jira, etc).\n\n🟢Преимущества:\n\n🔹Знание Kotlin;\n🔹Понимание принципов CI/CD;\n🔹Понимание, как работают основные сервисы AWS.\n\n🟢Что мы готовы предложить будущему коллеге?\n\n🔹По настоящему заряженная команда профессионалов\n🔹Офис м.Тульская\n🔹Удаленная работа, с возможностью приезжать в офис, гибкое начало рабочего дня (c 9 до 12)\n🔹Возможности профессионально развиваться и расти\n\n🔔Контакты:\n@kriskrisych Кристина","markup":[{"type":"hashtag","offset":0,"length":7,"data":"москва"},{"type":"hashtag","offset":8,"length":9,"data":"удаленка"},{"type":"hashtag","offset":18,"length":9,"data":"fulltime"},{"type":"hashtag","offset":28,"length":14,"data":"JavaDeveloper"},{"type":"hashtag","offset":43,"length":8,"data":"Backend"},{"type":"link","offset":106,"length":22,"data":"https://crypterium.com"},{"type":"handle","offset":2060,"length":12,"data":"kriskrisych"}],"date":"2020-07-02T15:08:19+00:00","link":"tg://resolve?domain=jvmjobs&post=1692","tags":[{"name":"java"},{"name":"jvm"},{"name":"dotnet"},{"name":"rest"},{"name":"kotlin"},{"name":"spring"},{"name":"cloud"},{"name":"hibernate"},{"name":"junit"},{"name":"sql"},{"name":"postgresql"},{"name":"git"},{"name":"amazon-web-services"}],"cities":[{"code":"moscow"}],"allowsRemote":true}},{"node":{"__typename":"Job","id":"72560410624-1001054966032","title":"Ios разработчик","text":"#вакансия #удаленка #ios #junior #middle #напроект\n\nФормат работы: улалённая,\nОплата за проект: 25 т.р.\nСрок выполнения: 7 - 10 дней.\n \nПриглашаем на удаленный проект, разработчика уровня junior или middle, с хорошими знаниями и опытом по части верстки UI.\n\nПроект небольшой и по большей части будет заключаться в том, чтобы сверстать UI для мобильного приложения под iOS платформу (iPhone и iPad) + написать немного кода.\n\nСамо по себе приложение простое, состоит из 10 уникальных экранов и имеет не сложный UI. \n\nМакеты дизайна подготовлены в Figma.\n\nВам в помощь, будет предоставлена архитектура (вайпер + координатор), а также готовый код для пары основных элементов UI. \n\n\nЧто мы ждем от кандидата:\n• хорошие знания и опыт по части верстки UI (iPhone и iPad),\n• опыт работы с автовозобновляемыми подписками и их валидация на устройстве,\n• наличие завершенных и опубликованых в AppStore проектов,\n• наличие репозитория в Git.\n\n\nБуду готов пообщаться, показать макеты дизайна всех экранов и ответить на ваши вопросы.\n\nИ пару слов скажу о том, кто мы такие - студия разработки мобильных приложений PERO (https://peroapp.ru/)\n\nМой телеграмм для связи: @MyKu_spb","markup":[{"type":"hashtag","offset":0,"length":9,"data":"вакансия"},{"type":"hashtag","offset":10,"length":9,"data":"удаленка"},{"type":"hashtag","offset":20,"length":4,"data":"ios"},{"type":"hashtag","offset":25,"length":7,"data":"junior"},{"type":"hashtag","offset":33,"length":7,"data":"middle"},{"type":"hashtag","offset":41,"length":9,"data":"напроект"},{"type":"link","offset":1106,"length":19,"data":"https://peroapp.ru/"},{"type":"handle","offset":1153,"length":9,"data":"MyKu_spb"}],"date":"2020-07-02T14:23:17+00:00","link":"tg://resolve?domain=mobile_jobs&post=69199","tags":[{"name":"mobile"},{"name":"ios"},{"name":"git"}],"cities":[],"allowsRemote":true}},{"node":{"__typename":"Job","id":"72555167744-1001054966032","title":"Mobile разработчик","text":"#вакансия #mobile #ios #swift #fulltime\nГород и адрес офиса: Москва, м. Нахимовский проспект, БЦ Лотос, офис класса А\nФормат работы: офис + возможно частично удаленная работа \nЗанятость: полная, 5/2\nЗП: от 150к до 250к, готовы рассмотреть и выше\n\nКомпания X4Apps специализируется на разработке собственных мобильных приложений и открывает вакансию мобильного разработчика уровня Middle+/Senior, который будет работать над созданием приложений для платформы iOS.\n\nМы практикуем быструю проверку гипотез, быстро создаем приложения, запускаем первых пользователей, смотрим на обратную связь и наращиваем функционал либо переключаемся на разработку новых приложений/новых идей.\n\nОт Вас мы ждем:\n- Способность разработать приложение с нуля и выпустить его в AppStore\n- Знание Objective-C и Swift\n- Суммарный опыт программирования от 3-х лет\n- Умение работать с системой контроля версий git - console, IDE, web;\n- Понимание принципов ООП и шаблонов проектирования\n- Опыт использования JSON, REST API\n- Опыт написания клиент-серверных приложений\n- Наличие опубликованных приложений в AppStore\n\nБудет плюсом:\n- Желание постоянно учиться и применять новые технологии в своей работе\n- Понимание в разработке пользовательского интерфейса\n- Понимание работы бэкэнда\n\nКонтакт @bambaleeyo","markup":[{"type":"hashtag","offset":0,"length":9,"data":"вакансия"},{"type":"hashtag","offset":10,"length":7,"data":"mobile"},{"type":"hashtag","offset":18,"length":4,"data":"ios"},{"type":"hashtag","offset":23,"length":6,"data":"swift"},{"type":"hashtag","offset":30,"length":9,"data":"fulltime"},{"type":"bold","offset":40,"length":19,"data":""},{"type":"bold","offset":118,"length":13,"data":""},{"type":"bold","offset":176,"length":9,"data":""},{"type":"bold","offset":199,"length":2,"data":""},{"type":"bold","offset":675,"length":14,"data":""},{"type":"bold","offset":1087,"length":12,"data":""},{"type":"bold","offset":1255,"length":7,"data":""},{"type":"handle","offset":1263,"length":11,"data":"bambaleeyo"}],"date":"2020-07-02T14:04:01+00:00","link":"tg://resolve?domain=mobile_jobs&post=69194","tags":[{"name":"mobile"},{"name":"ios"},{"name":"swift"},{"name":"objective-c"},{"name":"git"},{"name":"web"},{"name":"json"},{"name":"rest"}],"cities":[{"code":"moscow"}],"allowsRemote":true}},{"node":{"__typename":"Job","id":"72550973440-1001054966032","title":"Ios разработчик","text":"#вакансия #ios #swift #москва #офис #objectivec\n\nГород: Москва (ст.м. Аэропорт).\n\nФормат работы: full-time.\n\nЗанятость: полная. \n\nВилка: 100-200 т.р. на руки.\n\nФункционал:\n\n• Разработка мобильных приложений под платформу iOS.\n\n• Участие в командной разработке, тестировании, оптимизации существующих мобильных приложений на платформе iOS \n\nПрофессиональные знания: \n\nОтличное знание Objective-C/Swift, iOS SDK 10+;\nОпыт разработки мобильных приложений - от 2 лет;\nЗнание шаблонов проектирования, принципы SOLID, умение их применять;\nЗнакомы с основными алгоритмами и структурами данных;\nУмение работать со Storyboard и Autolayout;\nОпыт разработки клиент-серверных приложений, понимание принципов и устройства сетевого взаимодействия (HTTPS, JSON, REST);\nУмеете работать в команде и конструктивно реагируете на аргументы коллег;\nУмение разбираться и работать с чужим кодом;\nЗнание распределенных систем контроля версий (Git). \n\nНазвание компании: Локо-Банк\nhttps://www.lockobank.ru//\nhttps://hh.ru/vacancy/37365811\n\nКонтакты: @hrlocko","markup":[{"type":"hashtag","offset":0,"length":9,"data":"вакансия"},{"type":"hashtag","offset":10,"length":4,"data":"ios"},{"type":"hashtag","offset":15,"length":6,"data":"swift"},{"type":"hashtag","offset":22,"length":7,"data":"москва"},{"type":"hashtag","offset":30,"length":5,"data":"офис"},{"type":"hashtag","offset":36,"length":11,"data":"objectivec"},{"type":"link","offset":956,"length":26,"data":"https://www.lockobank.ru//"},{"type":"link","offset":983,"length":30,"data":"https://hh.ru/vacancy/37365811"},{"type":"handle","offset":1025,"length":8,"data":"hrlocko"}],"date":"2020-07-02T13:41:35+00:00","link":"tg://resolve?domain=mobile_jobs&post=69190","tags":[{"name":"mobile"},{"name":"ios"},{"name":"swift"},{"name":"objective-c"},{"name":"json"},{"name":"rest"},{"name":"git"}],"cities":[{"code":"moscow"}],"allowsRemote":false}},{"node":{"__typename":"Job","id":"72548876288-1001054966032","title":"Android developer","text":"#вакансия #Middle+ #Android developer #kotlin #удаленно                                                                                                         Уровень дохода:💵 130 000-150 000  рублей net                                                                                                                                                                                 Требуемый опыт работы: 2-4 года\nПолная занятость, дистанционно, гибкое начало рабочего дня\n \n📌Требования:\n- Нативная Android разработка (Kotlin)\n- Умение писать поддерживаемый и тестируемый код\n- Умение работать с Dagger 2\n- Умение работать с git\n- Желание развиваться и изучать новое в разработке\n- Опыт разработки приложений от 2 лет\n -Знание английского языка от уровня Intermediate\n \n📌Будет плюсом:\n- Опыт работы с JNI\n- Опыт использования tensorflow\n- Опыт работы с аудио и видео\n\n📌Условия:\n- Отсутствие бюрократии\n- Время начала рабочего дня обговариваем индивидуально\n- Крутой инновационный проект - возможность самореализации и профессионального роста\n- Стабильное зарубежное финансирование\n- Десятки миллионов установок и множество глобальных партнёров\n📞Контакты @SvetikS_hr +7(963)-632-12-36 Cветлана","markup":[{"type":"hashtag","offset":0,"length":9,"data":"вакансия"},{"type":"hashtag","offset":10,"length":7,"data":"Middle"},{"type":"hashtag","offset":19,"length":8,"data":"Android"},{"type":"hashtag","offset":38,"length":7,"data":"kotlin"},{"type":"hashtag","offset":46,"length":9,"data":"удаленно"},{"type":"handle","offset":1158,"length":11,"data":"SvetikS_hr"},{"type":"link","offset":1170,"length":17,"data":"tel:+7(963)-632-12-36"}],"date":"2020-07-02T13:23:17+00:00","link":"tg://resolve?domain=mobile_jobs&post=69188","tags":[{"name":"mobile"},{"name":"android"},{"name":"kotlin"},{"name":"dotnet"},{"name":"git"},{"name":"tensorflow"}],"cities":[],"allowsRemote":true}},{"node":{"__typename":"Job","id":"2276458496-1001134745498","title":"Devops инженер","text":"#вакансия #офис #fulltime #devops #Будва_Черногория\n\nВакансия: DevOps\nКомпания: Alar Studios\nАдрес: Будва, Черногория\nФормат работы: удаленно на время пандемии, далее офис\nЗанятость: full time\nЗ.п вилка: 1700-2300 eur (на руки)\n\nКомпания Alar Studios занимается разработкой крупных технологически тяжелых проектов на заказ для западных заказчиков. Предлагаем возможность развиваться в комфортных условиях мягкого климата Черногории на берегу моря (офис).\n\n📌Требования:\n    • Знание Jenkins, Ansible;\n    • Отличное знание Linux и опыт от 2-х лет;\n    • Кристально ясное понимание TCP/IP;\n    • Общее понимание ИТ-безопасности, зачем нужна и каковы пути ее достижения;\n    • Опыт работы с PostgreSQL или другой open source RDBMS;\n    • Опыт работы в инфраструктуре AWS или подобной;\n    • Отличное знание и понимание RDBMS как такового: в частности, знание SQL, зачем нужны и как работают индексы;\n    • Знание и понимание HTTP;\n    • Хотя бы basic English;\n    • Горячее желание учиться новому!\n📌 Приветствуется:\n    • Знание Python;\n    • Опыт работы с Flask или Django;\n    • Опыт с Amazon VPC и dedicated hosts;\n    • Опыт с Celery, Redis;\n    • Знание git.\n📌Основные задачи:\n    • Разработка архитектуры (в том числе high load, horizontal scalability);\n    • Администрирование инфраструктуры (Linux, Amazon AWS);\n    • Поиск и отладка проблем, работа с серверным кодом;\n    • Написание автоматизации (Ansible);\n    • Быть частью команды и взаимодействовать с командой разработчиков.\n📌 Мы предлагаем\n    • Интересные проекты;\n    • Оплачиваемые отпуска; \n    • Двойную почасовую оплату согласованной переработки сверх рабочего времени (OVERTIME);\n    • Возможность работы в нашем офисе в Черногории, фактически, в раю на берегу Адриатического моря — до моря 10 минут пешком (поможем с переездом вам и семье).\nРазмер зарплат по опыту/знаниям (если хорошо знаете все из списка и есть опыт, то верхняя планка). Рост по производительности.\nДополнительные инструкции: Для интервью будет необходимо сделать тестовое задание.\nВаше CV прошу направлять на pakhomova@alarstudios.com или в @daikirey\n\n—\n\n👉 Обсуждение вакансии в чате @devops_jobs","markup":[{"type":"hashtag","offset":0,"length":9,"data":"вакансия"},{"type":"hashtag","offset":10,"length":5,"data":"офис"},{"type":"hashtag","offset":16,"length":9,"data":"fulltime"},{"type":"hashtag","offset":26,"length":7,"data":"devops"},{"type":"hashtag","offset":34,"length":17,"data":"Будва_Черногория"},{"type":"link","offset":2054,"length":25,"data":"mailto:pakhomova@alarstudios.com"},{"type":"handle","offset":2086,"length":9,"data":"daikirey"},{"type":"handle","offset":2130,"length":12,"data":"devops_jobs"}],"date":"2020-07-02T12:47:28+00:00","link":"tg://resolve?domain=devops_jobs_feed&post=2171","tags":[{"name":"jenkins"},{"name":"ansible"},{"name":"linux"},{"name":"postgresql"},{"name":"amazon-web-services"},{"name":"sql"},{"name":"python"},{"name":"flask"},{"name":"django"},{"name":"redis"},{"name":"git"}],"cities":[],"allowsRemote":true}},{"node":{"__typename":"Job","id":"17318281216-1001110946746","title":"Javascript разработчик","text":"#вакансия #Москва #удаленка #офис #fulltime\n\nГород: Москва, м. Менделеевская\nФормат работы: офис, удалённая работа\nЗанятость: полная\nЗарплатная вилка: от 100к до 200к на руки.\n\nПривет! Мы LifegueardEye — b2b-стартап, разрабатывающий решения для обеспечения безопасности на воде (lifeguardeye.com).\n\nМы ищем frontend-разработчика для разработки и поддержки интерфейса устройства, которое отображает видео с камер наблюдения (аналог DVR). Поверх видео отображается информация, распознанная нейросетью и прочими алгоритмами.\n\nТребования:\n- Опыт разработки на Javascript / Typescript от 2-х лет;\n- Опыт работы с React.\n- Желательно опыт работы с MobX, PostCSS, Rollup, Protobuf, WebRTC.\n- Понимание принципов работы веб-приложений, общие понятия об устройстве бэкенда, REST-API, базах данных, git.\n- Будет плюсом общее понимание о том, как работает компьютерное зрение и смежные технологии.\n\nУсловия:\n- Свободный и гибкий график;\n- Офис в двух минутах ходьбы от метро Менделеевская;\n- Атмосфера стартапа и свобода в технических решениях.\n\nПо всем вопросам @vovapolu\n\n—\n\n👉 Обсуждение вакансии в чате @javascript_jobs","markup":[{"type":"hashtag","offset":0,"length":9,"data":"вакансия"},{"type":"hashtag","offset":10,"length":7,"data":"Москва"},{"type":"hashtag","offset":18,"length":9,"data":"удаленка"},{"type":"hashtag","offset":28,"length":5,"data":"офис"},{"type":"hashtag","offset":34,"length":9,"data":"fulltime"},{"type":"link","offset":279,"length":16,"data":"http://lifeguardeye.com"},{"type":"handle","offset":1052,"length":9,"data":"vovapolu"},{"type":"handle","offset":1096,"length":16,"data":"javascript_jobs"}],"date":"2020-07-02T11:48:43+00:00","link":"tg://resolve?domain=javascript_jobs_feed&post=16516","tags":[{"name":"javascript"},{"name":"typescript"},{"name":"reactjs"},{"name":"rest"},{"name":"git"}],"cities":[{"code":"moscow"}],"allowsRemote":true}},{"node":{"__typename":"Job","id":"72536293376-1001054966032","title":"Android разработчик","text":"#вакансия #москва #офис #android \n\nгород: Москва\nформат работы: офис\nзанятость: полная\nзарплатная вилка: 150-200\nвакансия: Ищу Android-разработчика  middle+, готового возглавить развитие  и поддержку приложения.\n\nо компании: Электронное издательство «Юрайт» Мы работаем со всеми вузами страны и считаем своей главной целью повышение образовательного уровня в России.\nwww.urait.ru\n\nо проекте: Над проектом работает 20 человек. Приложение заказывали на стороне в 2019 г. Теперь решили собрать свою команду для рефакторинга и выведения на новый уровень.\n\nЧто ждет от тебя будущее нашего образования:\nПоддержку и развитие нашего приложения;\nПеренос функционала из web;\nВзаимодействие с командой - аналитиками и тестировщиками;\nУчастие в развитии проекта.\n\nСкажем тебе уверенное “да”, если ты:\nИмеешь успешный опыт разработки и поддержки под Android  (Android Studio, Gradle);\nИмеешь опыт разработки на Kotlin;\nИмеешь успешный опыт разработки клиент-серверных приложений (REST, JSON);\nТрогал архитектуру (MVP, Clean architecture);\nЗнаешь  Android application architecture, Android SDK, Gradle;\nВладеешь паттернами UI;\nЗнаешь, зачем нужен Git, без контроля версий никуда, правда?\nМожешь писать тесты;\nГотов ин-хаус исправлять код от аутсорса. Уверен в том, что ты сделаешь круче, чем исполнители на стороне =)\n\nКак и что по условиям\nОфис с плюшками в 5 минутах от м. Шоссе Энтузиастов, Мск\nГибкое начало дня:  с 8 до 11 \nВсе по ТК РФ + соц.пакет \nАдекватные коллеги и руководство!!!\n\n\nЗаинтересовало?\nДмитрий @tankograin","markup":[{"type":"hashtag","offset":0,"length":9,"data":"вакансия"},{"type":"hashtag","offset":10,"length":7,"data":"москва"},{"type":"hashtag","offset":18,"length":5,"data":"офис"},{"type":"hashtag","offset":24,"length":8,"data":"android"},{"type":"bold","offset":225,"length":32,"data":""},{"type":"bold","offset":270,"length":22,"data":""},{"type":"bold","offset":323,"length":42,"data":""},{"type":"link","offset":367,"length":12,"data":"http://www.urait.ru"},{"type":"bold","offset":552,"length":45,"data":""},{"type":"bold","offset":752,"length":37,"data":""},{"type":"bold","offset":1305,"length":22,"data":""},{"type":"handle","offset":1503,"length":11,"data":"tankograin"}],"date":"2020-07-02T11:44:19+00:00","link":"tg://resolve?domain=mobile_jobs&post=69176","tags":[{"name":"mobile"},{"name":"android"},{"name":"web"},{"name":"gradle"},{"name":"kotlin"},{"name":"rest"},{"name":"json"},{"name":"git"},{"name":"android-studio"}],"cities":[{"code":"moscow"}],"allowsRemote":false}}]}}},"context":{}}