{"hash":"f34fd2c444a074f4e0e67d525015a008ef8e766f","data":{"records":{"id":"spring","name":"spring","belongsTo":{"totalCount":54,"pageInfo":{"totalPages":6,"currentPage":5},"edges":[{"node":{"__typename":"Job","id":"1391460352-1001091028994","title":"Java разработчик","text":"#вакансия #java #javadeveloper #spring #kotlin\n\nГород и адрес офиса: Москва, Преображенская площадь\nФормат работы: в офисе\nЗанятость: фулл тайм\nЗарплатная вилка: 3000$ - 4000$/month\nНазвание компании: крупный банк\n\nРазрабатываем платформу мобильного и интернет-банка (дистанционный банкинг) на основе микросервисов в современном стеке технологий, которые мы выбираем сами. \n\nТЕХНОЛОГИЧЕСКИЙ СТЕК:\n ⁃ ЯП и фреймворки: Java 8/11, Kotlin (по желанию), Spring Boot, Apache Camel.\n ⁃ Хранилища и очереди: Redis, Apache Cassandra, Oracle 12, ActiveMQ, IBM WS MQ.\n ⁃ DevOps & CI: Apache Maven, Jenkins, GitLab, Docker + Kubernetes (внедряем сейчас).\n ⁃ Мониторинг: Elasticsearch, Logstash, Kibana, Sentry (внедряем сейчас), Zabbix.\n\nЧТО ВЫ БУДЕТ ДЕЛАТЬ:\n ⁃ Разрабатывать микросервисы платформы дистанционного банкинга.\n ⁃ Разрабатывать интеграцию мобильного приложения и веб- приложения с сервисами платформы и другими системами Банка.\n ⁃ Разрабатывать архитектурные схемы сервисов и выбирать технологии для решения новых и нетривиальных задач (вместе с архитектором и аналитиком).\n ⁃ Выполнять ревью кода, написанного другими разработчиками, и обучать начинающих разработчиков. \n\nЧТО ПРЕДЛАГАЕМ:\n ⁃ Удобный график работы (плавающее начало рабочего дня);\n ⁃ Комфортный офис класса «А» в 1-й минуте от метро (офис доступен 24/7; open-space, в котором сидят только команды разработки);\n ⁃ Привлекательная система оплаты труда - оклад + ежеквартальные премии + годовой бонус;\n ⁃ Работа в scrum-командах по 6-8 человек, 2-х недельные спринты, демократия и самоорганизация + наличие удаленного доступа;\n ⁃ Обучение внутреннее и внешнее, регулярно проходят митаппы. Мы посещаем ключевые отраслевые конференции;\n ⁃ Профессиональное развитие и карьерный рост;\n ⁃ ДМС и многочисленные скидки и бонусы от партнеров (от каршеринга до ипотеки).\nРезюме можно отправить на почту: a.dorogavtseva@gmail.com, @Dorogavtseva","markup":[{"type":"hashtag","offset":0,"length":9,"data":"вакансия"},{"type":"hashtag","offset":10,"length":5,"data":"java"},{"type":"hashtag","offset":16,"length":14,"data":"javadeveloper"},{"type":"hashtag","offset":31,"length":7,"data":"spring"},{"type":"hashtag","offset":39,"length":7,"data":"kotlin"},{"type":"link","offset":1859,"length":24,"data":"mailto:a.dorogavtseva@gmail.com"},{"type":"handle","offset":1885,"length":13,"data":"Dorogavtseva"}],"date":"2020-03-27T09:07:26+00:00","link":"tg://resolve?domain=jvmjobs&post=1327","tags":[{"name":"java"},{"name":"jvm"},{"name":"spring"},{"name":"kotlin"},{"name":"apache"},{"name":"redis"},{"name":"cassandra"},{"name":"oracle"},{"name":"maven"},{"name":"jenkins"},{"name":"gitlab"},{"name":"docker"},{"name":"kubernetes"},{"name":"elasticsearch"},{"name":"logstash"},{"name":"spring-boot"},{"name":"apache-camel"}],"cities":[{"code":"moscow"}],"allowsRemote":true}},{"node":{"__typename":"Job","id":"1390411776-1001091028994","title":"Java разработчик","text":"Вакансия: #вакансия #java #developer #офис #fulltime\nУровень: #middle\nКомпания: #cleverdata\nКонтакт: @szhemzhitsky, email: hr@cleverdata.ru\nЛокация: #москва #мск\nОфис: м. Автозаводская \nЗ/п: от 120 000 до 220 000 руб. на руки\n\n\nCleverDATA ищет Java-разработчика с желанием работать и видеть результаты своей работы, попутно развиваясь в областях по построению систем обработки данных и высоконагруженных сервисов.\n\nВам предстоит развивать экосистему обмена и активации аудиторных данных, состоящую из:\n\n- DMPkit (dmpkit.io) - набор компонент и сервисов для построения платформ по обработке и управлению аудиторными данными;\n- DMC (1dmc.io) - единственную независимую в РФ биржу аудиторных данных.\n\nОжидания:\n\n- Опыт работы с Java от 2-3 лет;\n- Хорошее знание Java Core, стандартной библиотеки и структур данных;\n- Владение SQL, умение использовать конструкции JOIN, GROUP BY и т.п.;\n- Опыт работы с Linux на уровне \"пользователь\";\n- Быть готовым к работе и изучению Scala (на нем разрабатываются Spark-задачи);\n- Умение работать в команде и писать читаемый код;\n- Умение и желание изучать те инструменты и технологии, с которыми не доводилось работать ранее;\n- Умение читать и понимать англоязычную профессиональную литературу и документацию;\n- Способность обучаться и находить решения самостоятельно, пользуясь доступными источниками информации.\n\nПросто отлично (но не обязательно), если у вас есть:\n\n- Опыт разработки, не обязательно коммерческой, чего-либо отличного от Spring RESTful сервисов;\n- Опыт работы с чем-либо из следующих технологий: Hadoop, Spark, Flink, Kafka;\n- Возможность предоставить на ознакомление какие-либо примеры своего кода;\n- Понимание того, что такое вычислительная сложность алгоритмов.\n\nТехнологии:\n\n- Java, Scala – языки программирования\n- Gradle – система сборки\n- TestNG, Mockito, Hamcrest, ScalaTest – библиотеки тестирования\n- Spring Cloud – микросервисы\n- Spark, Hadoop YARN, Oozie – пакетная обработка данных\n- Flink, Hadoop YARN, Kafka – потоковая обработка данных\n- PostgreSQL, Aerospike, Hadoop HDFS – хранение данных\n\nВозможности:\n\n- Интересные и сложные задачи по обработке данных в пакетном и потоковом режимах;\n- Разработка высоконагруженных и отказоустойчивых сервисов и систем;\n- Принятие самостоятельных решений в части реализации и их аргументация;\n- Работа в дружном и профессиональном коллективе;\n- Адекватный процесс разработки и доставки ПО (юнит- и функциональное тестирование, CI/CD, Code Review, Agile, и т.п.);\n- Участие в релевантных конференциях, в том числе за пределами РФ;\n- Гибкий рабочий график и возможность один день в неделю работать удаленно (на время карантина - постоянно);\n- Быстрый профессиональный и карьерный рост.\n\nУсловия:\n\n- Работа с передовыми технологиями;\n- Стабильная белая заработная плата;\n- Социальный пакет.\n\nПримеры некоторых из задач:\n\n- Скачивание каталогов с файлами из HDFS со склейкой файлов в один файл на лету;\n- Возврат атрибутов и идентификаторов профиля высоконагруженным сервисом по получению аудиторных данных, обслуживающим до 100K RPS;\n- Унифицировать способ предоставления метрик высоконагруженными сервисами (10K+ RPS);\n- Перевести обнаружение высоконагруженных сервисов на механизм Service Discovery;\n- Добавить возможность использования ML-моделей к пакетному и потоковому сегментаторам аудиторных данных;\n- Добавить возможность инкрементальной загрузки аудиторных данных в распределенную key-value БД Aerospike.","markup":[{"type":"bold","offset":0,"length":9,"data":""},{"type":"hashtag","offset":10,"length":9,"data":"вакансия"},{"type":"hashtag","offset":20,"length":5,"data":"java"},{"type":"hashtag","offset":26,"length":10,"data":"developer"},{"type":"hashtag","offset":37,"length":5,"data":"офис"},{"type":"hashtag","offset":43,"length":9,"data":"fulltime"},{"type":"bold","offset":53,"length":8,"data":""},{"type":"hashtag","offset":62,"length":7,"data":"middle"},{"type":"bold","offset":70,"length":9,"data":""},{"type":"hashtag","offset":80,"length":11,"data":"cleverdata"},{"type":"bold","offset":92,"length":8,"data":""},{"type":"handle","offset":101,"length":13,"data":"szhemzhitsky"},{"type":"link","offset":123,"length":16,"data":"mailto:hr@cleverdata.ru"},{"type":"bold","offset":140,"length":8,"data":""},{"type":"hashtag","offset":149,"length":7,"data":"москва"},{"type":"hashtag","offset":157,"length":4,"data":"мск"},{"type":"bold","offset":162,"length":5,"data":""},{"type":"bold","offset":186,"length":4,"data":""},{"type":"bold","offset":228,"length":10,"data":""},{"type":"bold","offset":415,"length":13,"data":""},{"type":"link","offset":513,"length":9,"data":"http://dmpkit.io"},{"type":"link","offset":631,"length":7,"data":"http://1dmc.io"},{"type":"bold","offset":698,"length":8,"data":""},{"type":"bold","offset":1348,"length":54,"data":""},{"type":"bold","offset":1718,"length":10,"data":""},{"type":"bold","offset":1747,"length":23,"data":""},{"type":"bold","offset":1781,"length":15,"data":""},{"type":"bold","offset":1837,"length":24,"data":""},{"type":"bold","offset":1878,"length":13,"data":""},{"type":"bold","offset":1921,"length":26,"data":""},{"type":"bold","offset":1977,"length":27,"data":""},{"type":"bold","offset":2043,"length":28,"data":""},{"type":"bold","offset":2690,"length":7,"data":""},{"type":"bold","offset":2794,"length":29,"data":""}],"date":"2020-03-26T13:48:17+00:00","link":"tg://resolve?domain=jvmjobs&post=1326","tags":[{"name":"java"},{"name":"jvm"},{"name":"sql"},{"name":"linux"},{"name":"scala"},{"name":"spring"},{"name":"hadoop"},{"name":"kafka"},{"name":"gradle"},{"name":"cloud"},{"name":"postgresql"},{"name":"hdfs"}],"cities":[{"code":"moscow"}],"allowsRemote":true}},{"node":{"__typename":"Job","id":"1388314624-1001091028994","title":"Java разработчик","text":"Вакансия: #java #developer #javadeveloper\nКомпания: #Эльдорадо \nЛокация: #москва #мск \nЗ/п: 170 - 190к net\nКонтакты: @observer69\n\nВ целях усиления команды разработки поискового сервиса интернет-магазина «Эльдорадо», ищем профессионального java-разработчика.\n\nЧем интересна наша вакансия:\n- ТК РФ;\n- Офис м. Красносельская/м. Бауманская;\n- Корпоративные скидки на продукцию компании;\n- Оформление ДМС после прохождения испытательного срока;\n- Опция для сотрудников \"система гибких льгот\", скидки сотрудникам от наших партнеров;\n- Конкурентоспособная, “белая” заработная плата (компенсационный пакет обсуждается индивидуально).\n\nВам предстоит:\n- Разработка поискового сервиса интернет-магазина «Эльдорадо», не UI;\n- Проектирование и реализация API;\n- Оценка разработки, проведение код-ревью;\n- Определение векторов развития/оптимизации сервиса;\n- Интеграция с внешними сервисами и системами.\n\nТехнологический стек:\n- java;\n- spring framework, spring boot, spring - cloud, spring batch;\n- git, gitlab, maven, teamcity;\n- hibernate, mysql;\n- elasticsearch;\n- mesos/marathon;\n- rabbitmq;\n- open API;\n- docker, k8s.\n\nТребования: \n- java 8 – уверенные знания, ООП, паттерны;\n- Понимание REST подхода к разработке API;\n- Опыт работы с Spring (Ioc, Data JPA, Boot, Cloud);\nhibernate;\n- Опыт профилирования и оптимизации производительности;\n- Опыт использования системы контроля версий git, а ткже понимание принципов её работы;\n- Английский на уровне чтения технической документации;\n- Базовые знания linux.\n\nБудет плюсом:\n- maven;\n- elasticsearch;\n- mesos/marathon\n- docker, k8s\n- groovy/spock","markup":[{"type":"bold","offset":0,"length":8,"data":""},{"type":"hashtag","offset":10,"length":5,"data":"java"},{"type":"hashtag","offset":16,"length":10,"data":"developer"},{"type":"hashtag","offset":27,"length":14,"data":"javadeveloper"},{"type":"bold","offset":42,"length":9,"data":""},{"type":"hashtag","offset":52,"length":10,"data":"Эльдорадо"},{"type":"bold","offset":64,"length":8,"data":""},{"type":"hashtag","offset":73,"length":7,"data":"москва"},{"type":"hashtag","offset":81,"length":4,"data":"мск"},{"type":"bold","offset":107,"length":9,"data":""},{"type":"handle","offset":117,"length":11,"data":"observer69"},{"type":"bold","offset":259,"length":29,"data":""},{"type":"bold","offset":627,"length":15,"data":""},{"type":"bold","offset":891,"length":22,"data":""},{"type":"bold","offset":1111,"length":13,"data":""},{"type":"bold","offset":1500,"length":14,"data":""}],"date":"2020-03-26T09:02:49+00:00","link":"tg://resolve?domain=jvmjobs&post=1324","tags":[{"name":"java"},{"name":"jvm"},{"name":"dotnet"},{"name":"spring"},{"name":"cloud"},{"name":"batch"},{"name":"git"},{"name":"gitlab"},{"name":"maven"},{"name":"hibernate"},{"name":"mysql"},{"name":"elasticsearch"},{"name":"rabbitmq"},{"name":"docker"},{"name":"rest"},{"name":"jpa"},{"name":"linux"},{"name":"groovy"},{"name":"spring-boot"}],"cities":[{"code":"moscow"}],"allowsRemote":false}},{"node":{"__typename":"Job","id":"1384120320-1001091028994","title":"Java разработчик","text":"#java #офис # Москва \nГород: Москва\nФормат работы: офис\nЗанятость: полная занятость, постоянная работа\nЗарплата:  от 200 до 280 на руки (+ есть годовой бонус)\nМы молодая команда внутри Сбербанка, занимаемся разработкой и внедрением нового мобильного приложения Сбербанк Инвестор, которое должно вывести из эксплуатации текущее решение для инвестиций от Сбербанка.\n\nОбязанности:\n\n- Проектирование архитектуры приложения;\n- Проектирование интерфейсов взаимодействия между компонентами системы и внешними системами;\n- Проектирование хранилища данных;\n- Разработка и поддержка приложений на Java;\n- Написание unit-тестов, проведение code review;\n- Подготовка документации.\n\nТребования:\n\n- Широкий технический кругозор в современных информационных технологиях;\n- Знание технологий и методов интеграции информационных систем;\n- Знание и опыт применения средств масштабирования и отказоустойчивости;\n- Опыт разработки приложений на Java от трех лет;\n- Опыт разработки приложений с использованием Spring / Spring Boot;\n- Опыт работы с DevOps инструментами (jenkins, ansible, maven, gradle, git, etc.);\n- Знание PL/pgSQL или PL/SQL.\n\nКомпания: Сбербанк\nВопросы можно задать тут @vsevkosmo","markup":[{"type":"hashtag","offset":0,"length":5,"data":"java"},{"type":"hashtag","offset":6,"length":5,"data":"офис"},{"type":"handle","offset":1169,"length":10,"data":"vsevkosmo"}],"date":"2020-03-25T15:00:25+00:00","link":"tg://resolve?domain=jvmjobs&post=1320","tags":[{"name":"java"},{"name":"jvm"},{"name":"spring"},{"name":"jenkins"},{"name":"ansible"},{"name":"maven"},{"name":"gradle"},{"name":"git"},{"name":"sql"},{"name":"spring-boot"}],"cities":[{"code":"moscow"}],"allowsRemote":false}},{"node":{"__typename":"Job","id":"1383071744-1001091028994","title":"Java developer","text":"#вакансия #java #офис #королев \n\nJava Developer (Middle / Senior)\n\nГород: Королёв, Московская область. \nФормат работы: офис. \nЗанятость: полная, постоянная работа.\nЗарплата: от 150 000 до 260 000 руб. (на руки) + премии.\n\nТребования:\n- опыт коммерческой разработки на Java от двух лет\n- английский язык (чтение документации, переписка)\n- готовность работать полный рабочий день, в офисе\n\nПроекты: \n• CMH (Content Management Hub) - призван автоматизировать работы по подготовке контента (XML, HTML5) к публикации и повысить прозрачность процесса в целом. \nПроект реализовывается на Java, Spring, с использованием в качестве базы Open Source продукта Alfresco (Java, Spring) и ряда нативных технологий Amazon Cloud (где он и будет размещаться в дальнейшем). \nСистема CMH будет внедрена у партнёров компании Wiley в США и странах Азии.\nКоманда проекта - более 20 человек.\n\n• REX (REsearch Exchange) - связан с разработкой системы цифровой обработки и хранения научных статей, поступающих от сотен тысяч авторов (в том числе нобелевских лауреатов), публикующих свои работы в журналах нашей компании. Система разрабатывается на базе Amazon Cloud Solution, с использованием всех имеющихся средств облачной архитектуры. Основным языком серверной части приложения является Java. Основным языком клиентской - JavaScript. \nВ нашей команде широко используются средства автоматизированного тестирования, continuous integration & delivery, гибкие методологии разработки. \n\nМы предлагаем: \n- оформление по ТК РФ;\n- белую заработную плату, премирование по результатам работы за полугодие, ежегодную индексацию заработной платы;\n- карьерный рост; \n- стабильность; \n- современный офис и благоприятное офисное пространство;\n- дружный коллектив; \n- корпоративные курсы английского языка;\n- иногородним кандидатам оказывается материальная помощь в связи с переездом;\n- участие в спортивно-оздоровительных мероприятиях (футбол, волейбол, баскетбол, йога);\n- рядом с офисом стадион, бассейн, фитнес центр; национальный парк \"Лосиный остров\" в шаговой доступности.\n\n\nКомпания: российский офис американской издательской компании Wiley (www.wiley.com).\n\nВопросы можно задать тут: @telelera","markup":[{"type":"hashtag","offset":0,"length":9,"data":"вакансия"},{"type":"bold","offset":0,"length":9,"data":""},{"type":"bold","offset":10,"length":22,"data":""},{"type":"hashtag","offset":10,"length":5,"data":"java"},{"type":"hashtag","offset":16,"length":5,"data":"офис"},{"type":"hashtag","offset":22,"length":8,"data":"королев"},{"type":"bold","offset":33,"length":14,"data":""},{"type":"bold","offset":222,"length":10,"data":""},{"type":"bold","offset":388,"length":7,"data":""},{"type":"bold","offset":1460,"length":13,"data":""},{"type":"link","offset":2112,"length":13,"data":"http://www.wiley.com"},{"type":"handle","offset":2155,"length":9,"data":"telelera"}],"date":"2020-03-25T11:00:44+00:00","link":"tg://resolve?domain=jvmjobs&post=1319","tags":[{"name":"java"},{"name":"jvm"},{"name":"xml"},{"name":"html"},{"name":"spring"},{"name":"cloud"},{"name":"javascript"},{"name":"continuous-integration"}],"cities":[],"allowsRemote":false}},{"node":{"__typename":"Job","id":"1379926016-1001091028994","title":"Java developer","text":"#team #lead #java #developer\nкомпания:#сбербанк\nлокация: #ростовнадону #рнд\nЗ/п: 160- 220 к. \nконтакты: @Natalyatur\n\n\nМы ожидаем, что Вы: \n· Имееете опыт разработки в Java.\n· Умение проектировать сложные решения для отказоустойчивых и высоконагруженных систем.\n· Умение управлять группой разработки.\n· Глубокие знания в Collections API, Stream API, Fork/Join Framework, Reflection API и Java Generics.· Глубокие знания в Spring Boot, Spring Data, Spring Jpa, Spring Security.\n· Глубокие знание SQL.\n· Знание REST-сервисов\n· Написание кода с поддержкой unit-тестов.\n· Знание GIT\n\nВам предстоит: \n· Выполнять задачи по разработке.\n· Обеспечивать оптимальный процесс взаимодействия внутри команды и со смежными подразделениями.\n· Выполнять планирование спринтов и следить за ходом выполнения.\n· Управлять группой разработки.\n· Проектировать техническую архитектуру решений.\n· Управлять архитектурой проекта.\n· Выполнение code review.\n· Развивать «младших» коллег и обучать новых членов команды.\n· Участвовать в приемочных испытаниях и проводить встречи с заказчиком на техническом уровне.\n· Разрабатывать техническую документацию.\n\nРабота у нас — это:\n\n• Команда профессионалов, готовых поддержать ваши инициативы;\n• Мощное железо, дополнительные мониторы и всё, что нужно для продуктивной работы;\n• Возможность работы с новыми технологиями;\n• Обучение за счёт компании;\n• ДМС;\n• Прозрачная система бонусов и премий, достойная зарплата — размер обсудим на собеседовании","markup":[{"type":"hashtag","offset":0,"length":5,"data":"team"},{"type":"hashtag","offset":6,"length":5,"data":"lead"},{"type":"hashtag","offset":12,"length":5,"data":"java"},{"type":"hashtag","offset":18,"length":10,"data":"developer"},{"type":"hashtag","offset":38,"length":9,"data":"сбербанк"},{"type":"hashtag","offset":57,"length":13,"data":"ростовнадону"},{"type":"hashtag","offset":71,"length":4,"data":"рнд"},{"type":"handle","offset":104,"length":11,"data":"Natalyatur"}],"date":"2020-03-24T12:19:16+00:00","link":"tg://resolve?domain=jvmjobs&post=1316","tags":[{"name":"java"},{"name":"jvm"},{"name":"spring"},{"name":"jpa"},{"name":"sql"},{"name":"rest"},{"name":"git"},{"name":"spring-boot"},{"name":"spring-data"},{"name":"spring-security"}],"cities":[],"allowsRemote":false}},{"node":{"__typename":"Job","id":"1378877440-1001091028994","title":"Java developer","text":"#вакансия #backend #javadeveloper #java #spb\nЛокация: Санкт-Петербург, станция метро Петроградская\nЗанятость: полная/ офис / гибкое начало рабочего дня\nЗарплата: от 180 000 net\nКомпания: ТетраСофт\nКонтакты: @dproto (Telegram), darya.protopopova@tetra-soft.ru\n\nКомпания ТетраСофт разрабатывает крутые информационные системы для сопровождения строительства нефтяных и газовых скважин (удаленный мониторинг различных параметров, аналитика на основе полученных данных, сбор и формирование отчётов).\nВ данный момент мы разрабатываем новый функционал платформы (SSO + modules).\nДля этого мы хотим усилить команду и приглашаем вас стать её частью.\n\nТехнологический стек разработки:\nJava 8, Spring, Hibernate, Elasticsearch, NATS, JUnit, MySQL, OAuth 2.0.\n\nЧто нужно будет делать:\n• Реализовывать алгоритмы работы с данными\n• Прорабатывать функциональные блоки бекенд части от проектирования до реализации\n• Участвовать в code review\n• Проектировать API\n\nЖдем от вас:\n• Опыт коммерческой разработки от 3-х лет\n• Хорошее знание Java core\n• Spring Boot (Security, MVC, REST Docs)\n• Hibernate 4+\n• Знание какого-либо SQL сервера\n• Знание алгоритмов и структур данных\n• Умение писать junit тесты\n• Понимание уязвимостей от OWASP Top 10\n• Умение работать с системой контроля версия (git)\n• Знание минимум одной системы сборки (ant, maven, gradle)\n\nБудет плюсом:\n• NoSQL\n• Docker\n• Знание коммуникационных протоколов (в том числе промышленных)\n• Опыт работы в Linux системах\n• Elasticsearch\n• Опыт работы с message broker\n• Знание других языков программирования\n• Понимание SOLID-принципов\n\nОт нас:\n• Гибкое начало рабочего дня (с 9:00 до 11:00);\n• Интересные проекты с возможностью карьерного роста;\n• Ежегодная премия по итогам работы;\n• Ежегодный пересмотр заработной платы по результатам работы;\n• ДМС после успешного прохождение ИС (включая стоматологию);\n• Компенсация питания;\n• Бесплатные курсы английского языка на территории офиса;\n• Возможность профильного обучения за счёт компании (оплата конференций, курсов);\n• Кикер, настолки, турник, XBox, корпоративные мероприятия;\n• Корпоративный волейбол на песке;\n• Иногородним соискателям помощь в релокации.","markup":[{"type":"hashtag","offset":0,"length":9,"data":"вакансия"},{"type":"hashtag","offset":10,"length":8,"data":"backend"},{"type":"hashtag","offset":19,"length":14,"data":"javadeveloper"},{"type":"hashtag","offset":34,"length":5,"data":"java"},{"type":"hashtag","offset":40,"length":4,"data":"spb"},{"type":"bold","offset":45,"length":8,"data":""},{"type":"bold","offset":99,"length":10,"data":""},{"type":"bold","offset":152,"length":9,"data":""},{"type":"bold","offset":177,"length":9,"data":""},{"type":"bold","offset":197,"length":9,"data":""},{"type":"handle","offset":207,"length":7,"data":"dproto"},{"type":"link","offset":227,"length":31,"data":"mailto:darya.protopopova@tetra-soft.ru"},{"type":"bold","offset":642,"length":31,"data":""},{"type":"bold","offset":749,"length":23,"data":""},{"type":"bold","offset":947,"length":12,"data":""},{"type":"bold","offset":1335,"length":13,"data":""},{"type":"bold","offset":1577,"length":7,"data":""}],"date":"2020-03-24T10:39:20+00:00","link":"tg://resolve?domain=jvmjobs&post=1315","tags":[{"name":"java"},{"name":"jvm"},{"name":"dotnet"},{"name":"spring"},{"name":"hibernate"},{"name":"elasticsearch"},{"name":"junit"},{"name":"mysql"},{"name":"oauth"},{"name":"rest"},{"name":"sql"},{"name":"git"},{"name":"ant"},{"name":"maven"},{"name":"gradle"},{"name":"nosql"},{"name":"docker"},{"name":"linux"},{"name":"spring-boot"}],"cities":[],"allowsRemote":true}},{"node":{"__typename":"Job","id":"1377828864-1001091028994","title":"Java разработчик","text":"Вакансия: #java #spring #hibernate \nКонцепция: #IoT\nКомпания: #MTS\nЛокация: #Москва #Комсомольская #Красныеворота\nФормат работы: #работавофисе + иногда возможно удаленно работать\nЗП: 150-200 net (в замисимости от знаний и опыта)\nКонтакт: @alina_katkova почта: avkatko2@mts.ru\n\nВ команду IoT, трайба отраслевых решений требуется java-разработчик. Трайб отраслевых решений – направление внутри МТС, которое осуществляет разработку полного цикла инновационных продуктов в B2B и B2C сегментах. Основное направление – инновационные продукты в сфере интернета вещей, медицины, видео аналитики.\n\nЧто нужно делать: \n-участвовать в командной работе над решениями;\n-принимать участие в code-review;\n-участвовать в принятии архитектурных и технических решений;\n-писать качественный код;\nНаш стек:\n-Java1.8+;\n-Spring: Spring Security, Spring Data, Spring Boot и т.д.;\n-Реляционные базы (в основном Postgres) и NoSQL (InfluxDB, Mongo);\n-Restful-сервисы, JSON, клиент-серверное взаимодействие;\n-ORM Hibernate;\n-MQ: RabbitMQ.\nУсловия:\n-штат, все по ТК РФ\n-премия 20% от годового оклада сверху\n-соц.пакет\n-удаленка на время карантина :)","markup":[{"type":"hashtag","offset":10,"length":5,"data":"java"},{"type":"hashtag","offset":16,"length":7,"data":"spring"},{"type":"hashtag","offset":24,"length":10,"data":"hibernate"},{"type":"hashtag","offset":47,"length":4,"data":"IoT"},{"type":"hashtag","offset":62,"length":4,"data":"MTS"},{"type":"hashtag","offset":76,"length":7,"data":"Москва"},{"type":"hashtag","offset":84,"length":14,"data":"Комсомольская"},{"type":"hashtag","offset":99,"length":14,"data":"Красныеворота"},{"type":"hashtag","offset":129,"length":13,"data":"работавофисе"},{"type":"handle","offset":238,"length":14,"data":"alina_katkova"},{"type":"link","offset":260,"length":15,"data":"mailto:avkatko2@mts.ru"},{"type":"bold","offset":589,"length":18,"data":""},{"type":"bold","offset":776,"length":9,"data":""},{"type":"bold","offset":1011,"length":8,"data":""}],"date":"2020-03-24T09:58:43+00:00","link":"tg://resolve?domain=jvmjobs&post=1314","tags":[{"name":"java"},{"name":"jvm"},{"name":"spring"},{"name":"hibernate"},{"name":"dotnet"},{"name":"postgresql"},{"name":"nosql"},{"name":"json"},{"name":"orm"},{"name":"rabbitmq"},{"name":"spring-security"},{"name":"spring-data"},{"name":"spring-boot"}],"cities":[{"code":"moscow"}],"allowsRemote":true}},{"node":{"__typename":"Job","id":"1376780288-1001091028994","title":"Java разработчик","text":"Вакансия: #Middle #Java #SQL #Spring #JavaCore\nКомпания: #Rubbles\nЛокация: #Москва #МСК #Moscow\nЗ/П: 180-200кР NET\nКонтакты: @Julia_Nikolova\n\nВедущая российская IT-компания, занимающаяся разработкой решений для крупного бизнеса. Офисы в России и по всей Европе\n\nОпыт разработки на Java от 2х лет\n\nОбязанности:\n· Проектирование и написание кода\n· Участие в разработке продуктов, и в новых проектах\n· Устранение критических ошибок в системах\n\nТребования\n· Опыт работы со Spring стеком (Spring Boot, Spring Data, Spring MVC)\n· Уверенное знание Java Core\n· Умение работать с любой SQL базой данных\n\nУсловия: \n- Регулярные пересмотры заработной платы\n- Уютный офис в центре Москвы (кикер, пинг-понг, разные вкусности)\n- ДМС\n- Корпоративное обучение","markup":[{"type":"hashtag","offset":10,"length":7,"data":"Middle"},{"type":"hashtag","offset":18,"length":5,"data":"Java"},{"type":"hashtag","offset":24,"length":4,"data":"SQL"},{"type":"hashtag","offset":29,"length":7,"data":"Spring"},{"type":"hashtag","offset":37,"length":9,"data":"JavaCore"},{"type":"hashtag","offset":57,"length":8,"data":"Rubbles"},{"type":"hashtag","offset":75,"length":7,"data":"Москва"},{"type":"hashtag","offset":83,"length":4,"data":"МСК"},{"type":"hashtag","offset":88,"length":7,"data":"Moscow"},{"type":"handle","offset":125,"length":15,"data":"Julia_Nikolova"}],"date":"2020-03-24T09:40:32+00:00","link":"tg://resolve?domain=jvmjobs&post=1313","tags":[{"name":"java"},{"name":"jvm"},{"name":"sql"},{"name":"spring"},{"name":"dotnet"},{"name":"spring-boot"},{"name":"spring-data"},{"name":"spring-mvc"}],"cities":[{"code":"moscow"}],"allowsRemote":false}},{"node":{"__typename":"Job","id":"1375731712-1001091028994","title":"Java разработчик","text":"#Москва #java #еса #senior #middle\nГород и адрес офиса: Москва, м. Тульская, Новоданиловская наб, д.10\nФормат работы: офис (хотя в связи с последними событиями может быть и удалённо :)\nЗанятость: фулл тайм\nЗарплатная вилка: 150к-300к (в зависимости от навыков и знаний)\n\nЕдиный сервис аутентификации - это система, которая принимает решение о допуске клиентов через различные каналы обслуживания (веб, мобильное приложение, банкомат) к сервисам экосистемы Сбербанка. Система является высоконагруженной, так как одновременно может обслуживать более 10к операций в секунду.\n\nЗадачи:\n • разработка back-end web-приложения; \n • участие разработки архитектуры продукта;\n • участие в code review. \n\nОбязательно:\n· Опыт работы с Java от 2ух лет (хорошее знание core, Collections, jdbc, IO, Exceptions)\n· Опыт работы с системами сборки: maven или gradle\n· Опыт работы с БД, знание языка запросов SQL\n· Знакомство с ORM Hibernate\n\nБудет плюсом:\n· понимание многопоточности в Java;\n· знакомство со Spring Framework\n\nБонусы: \n • гибкое начало дня, отсутствие микроменеджмента и дресс-кода\n • отличная атмосфера в команде, способность слышать мнение каждого\n • современное железо (можно выбрать ноут MacOS или Windows) \n • возможность сменить проект\n • ДМС, спортзал, корпоративные мероприятия\n\nКонтакт: @hralexandra 📲","markup":[{"type":"hashtag","offset":0,"length":7,"data":"Москва"},{"type":"hashtag","offset":8,"length":5,"data":"java"},{"type":"hashtag","offset":14,"length":4,"data":"еса"},{"type":"hashtag","offset":19,"length":7,"data":"senior"},{"type":"hashtag","offset":27,"length":7,"data":"middle"},{"type":"handle","offset":1292,"length":12,"data":"hralexandra"}],"date":"2020-03-24T07:57:32+00:00","link":"tg://resolve?domain=jvmjobs&post=1312","tags":[{"name":"java"},{"name":"jvm"},{"name":"web"},{"name":"jdbc"},{"name":"maven"},{"name":"gradle"},{"name":"sql"},{"name":"orm"},{"name":"hibernate"},{"name":"spring"},{"name":"macos"},{"name":"windows"}],"cities":[{"code":"moscow"}],"allowsRemote":true}}]}}},"context":{}}