{"hash":"f34fd2c444a074f4e0e67d525015a008ef8e766f","data":{"records":{"id":"amazon-web-services","name":"amazon-web-services","belongsTo":{"totalCount":29,"pageInfo":{"totalPages":3,"currentPage":1},"edges":[{"node":{"__typename":"Job","id":"16263413760-1001110946746","title":"Js developer","text":"#вакансия #офис\n\nTeam Lead (Node.js/React)\n\nГород: Мюнхен, Германия\nФормат занятости: офис\nТип занятости: полная \nЗаплата: 6000-7000 евро в месяц.\nКалькулятор налогов:\nkaiser-estate.ru/raschet-nalogov-i-socialnih-otchisleniy-po-zarplate-v-germanii.html\nРелокейт пакет \n\nОписание компании: \nCHECK24\nCompany is the leading price comparison platform in Germany. The company employs over a 2000 employees in 7 offices around the Germany with HQ in Munich \n\nRequirements\nYou have extensive experience in backend development using following languages (Node.js, C#, Java, Python or similar). You have experience of leading a team or ready to develop your management skills. You have proficient English or German level.\nExperience as a Full Stack Web Developer\nNode.js, or other OOP languages (Java, .NET, PHP, etc)\nDocker or knowledge of other containers\nCloud providers (the client is using AWS)\nUnit Testing and precise tools\nDevOps tools\nFrameworks as React, Angular / general knowledge of JavaScript\nConsiderable knowledge of MongoDB and experience with other databases\nBenefits\nVisa sponsorship and relocation budget\nYou will also be part of a company that values teamwork and life balance\nYou will get the chance to immerse yourself in German culture fully, with language courses and the opportunity to live in Munich, one of the most cultural and international cities in Germany\nWhat is more, you will have the chance to work with cutting edge technologies in one of the largest tech companies in Germany\nКонтакты:\n\nКомпания КА Zero to One search \nzerotoonesearch.com\nНаталья natalya@zerotoonesearch.com\nSkype: na.yarkova\n\n—\n\n👉 Обсуждение вакансии в чате @javascript_jobs","markup":[{"type":"hashtag","offset":0,"length":9,"data":"вакансия"},{"type":"hashtag","offset":10,"length":5,"data":"офис"},{"type":"link","offset":168,"length":84,"data":"http://kaiser-estate.ru/raschet-nalogov-i-socialnih-otchisleniy-po-zarplate-v-germanii.html"},{"type":"link","offset":1548,"length":19,"data":"http://zerotoonesearch.com"},{"type":"link","offset":1576,"length":27,"data":"mailto:natalya@zerotoonesearch.com"},{"type":"handle","offset":1656,"length":16,"data":"javascript_jobs"}],"date":"2020-04-10T12:01:17+00:00","link":"tg://resolve?domain=javascript_jobs_feed&post=15510","tags":[{"name":"javascript"},{"name":"nodejs"},{"name":"reactjs"},{"name":"html"},{"name":"java"},{"name":"python"},{"name":"web"},{"name":"dotnet"},{"name":"php"},{"name":"docker"},{"name":"cloud"},{"name":"amazon-web-services"},{"name":"angularjs"},{"name":"mongodb"},{"name":"unit-testing"}],"cities":[{"code":"munich"}],"allowsRemote":false}},{"node":{"__typename":"Job","id":"85166391296-1001067529236","title":"Python developer","text":"#job #вакансия #russia #python #Django #vacancy #IT #CV #remote\n\nДрузья, всем привет! \nНовая вакансия -  #SeniorPythonDeveloper\nЛокация - Россия, Томск\nПолный рабочий день, работа в офисе или remote\nОплата: 2400$\nSkills:\nRequirements:\nSoftware development experience (5+ years);\nAdvanced knowledge of Python 3+ / Python Core (language structures, standard libraries, regular expressions, etc.);\nExperience with Django (Django ORM, Django Rest Framework (1+years);\nExperience with AWS services: Lambda, API Gateway, SNS, SQS, SES, S3, RDS, VPC, EC2, CloudWatch, etc.\nExperience writing API and working / integration with API of third-party services;\nKnowledge of ​​the GraphQL API (Graphene will be a plus)\nKnowledge of SQL (knowledge of PostgreSQL relational DBMS will be a plus)\nKnowledge of CloudFormation in AWS and Terraform;\nAbility to read code and understand it at the level of business logic;\nAbility to work with general abstract tasks;\nWritten and spoken English is a MUST (B2+)\n\nЗа дополнительной информацией, пишите в ЛС\nTelegram: @Zalvovskaya","markup":[{"type":"hashtag","offset":0,"length":4,"data":"job"},{"type":"hashtag","offset":5,"length":9,"data":"вакансия"},{"type":"hashtag","offset":15,"length":7,"data":"russia"},{"type":"hashtag","offset":23,"length":7,"data":"python"},{"type":"hashtag","offset":31,"length":7,"data":"Django"},{"type":"hashtag","offset":39,"length":8,"data":"vacancy"},{"type":"hashtag","offset":48,"length":3,"data":"IT"},{"type":"hashtag","offset":52,"length":3,"data":"CV"},{"type":"hashtag","offset":56,"length":7,"data":"remote"},{"type":"hashtag","offset":105,"length":22,"data":"SeniorPythonDeveloper"},{"type":"handle","offset":1043,"length":12,"data":"Zalvovskaya"}],"date":"2020-04-10T10:24:35+00:00","link":"tg://resolve?domain=python_jobs&post=81221","tags":[{"name":"python"},{"name":"django"},{"name":"orm"},{"name":"rest"},{"name":"amazon-web-services"},{"name":"aws-lambda"},{"name":"graphql"},{"name":"sql"},{"name":"postgresql"}],"cities":[{"code":"tomsk"}],"allowsRemote":true}},{"node":{"__typename":"Job","id":"1991245824-1001134745498","title":"Devops инженер","text":"#вакансия #devops #remote \nКомпания Imhio Ltd ищет инженера инфраструктуры, обладающего навыками конфигурирования и поддержки аппаратных и облачных платформ, организации работы отказоустойчивых систем, а также автоматизации доставки программного обеспечения. \nВ составе нашей инфраструктуры мы используем Digital Ocean и AWS, Oracle Linux, Νginx, Consul, RabbitMQ, ScyllaDB, Redis, PostgreSQL, GoLang, GoCD и Docker.\nАктуальная цель, которая стоит перед нами, переход к полностью автоматизированному конфигурированию и эксплуатации всех элементов нашей инфраструктуры.\n\nОбязанности:\n- автоматизация конфигурирования и обслуживания элементов инфраструктуры\n- участие в процессах CI/CD\n- мониторинг работоспособности\n- планирование использования ресурсов\n- оптимизация инфраструктуры\n- документирование инфраструктуры\n\nТребования:\n - Минимальный опыт работы по специальности от 3 лет.\n\nДля соответствия нашей команде, ваши личные качества должны включать:\n - коммуникабельность, умение находить точки соприкосновения\nцелеустремленность, ответственность, внимательность и аккуратность\n- умение и желание решать комплексные, нестандартные проблемы и задачи\n- понятное формулирование своих мыслей и идей\n- умение отстаивать свою позицию\n- понимание технической документации на английском языке\n- поддержка принципов DevOPS методологии\n\nДля соответствия нашим задачам, у вас должен быть опыт промышленной эксплуатации:\n- Linux \n- Digital Ocean или AWS\n- Terraform и Ansible\n- CI/CD инструментов\n- Docker или Kubernetes\n- Nginx, SQL, MQ, Redis, Consul\n- Prometheus и Grafana, Graylog или ELK\n- Python или Bash\nУ вас будет дополнительное преимущество при наличии\nопыта использования:\n- ScyllaDB или Cassandra\n- системы мониторинга DataDog\n- системы доставки GoCD\n- (микро)сервисов, разработанных с использованием Golang\n\nУсловия:\n- полностью удаленная работа\n- оплачиваемый отпуск и больничный\n- заработная плата в евро, определяется вашей компетенцией (1850-2900 Евро)\n- гибкий график и широкая автономия - мы оцениваем результаты работы\n- интересные задачи, способствующие профессиональному развитию\n- работа в команде профессионалов\n- отсутствие бюрократических процедур\nКонтакты: @yanalyakhova, jane@imhio.com\n\n—\n\n👉 Обсуждение вакансии в чате @devops_jobs","markup":[{"type":"hashtag","offset":0,"length":9,"data":"вакансия"},{"type":"hashtag","offset":10,"length":7,"data":"devops"},{"type":"hashtag","offset":18,"length":7,"data":"remote"},{"type":"handle","offset":2176,"length":13,"data":"yanalyakhova"},{"type":"link","offset":2191,"length":14,"data":"mailto:jane@imhio.com"},{"type":"handle","offset":2240,"length":12,"data":"devops_jobs"}],"date":"2020-04-09T11:57:04+00:00","link":"tg://resolve?domain=devops_jobs_feed&post=1899","tags":[{"name":"amazon-web-services"},{"name":"oracle"},{"name":"linux"},{"name":"rabbitmq"},{"name":"redis"},{"name":"postgresql"},{"name":"go"},{"name":"docker"},{"name":"ansible"},{"name":"kubernetes"},{"name":"nginx"},{"name":"sql"},{"name":"python"},{"name":"bash"},{"name":"cassandra"}],"cities":[],"allowsRemote":true}},{"node":{"__typename":"Job","id":"16235102208-1001110946746","title":"Js разработчик","text":"#вакансия #удаленка #nodejs #backend \n\nГород: Томск, Никитина 20\nФормат работы: удаленка\nЗанятость: полная/проектная\nЗарплатная вилка:  от 100 до 150k рублей на руки за месяц ИЛИ 800 руб/час\n\nОписание вакансии: \nМы ищем Backend разработчика со знанием Node.js\n\nТы нам подходишь, если у тебя есть..\n\n➖Опыт работы c Node.js от года;\n➖Знание SQL и MySQL или PostgreSQL;\n➖Знание GraphQL;\n➖Уверенное владение Git.\n\nБудет плюсом:\n➖Опыт работы с сервисами AWS и Serverless Framework;\n➖Опыт работы с NoSQL (Redis, DynamoDB).\n\nЧто мы предлагаем?\n➖Официальное трудоустройство\n➖Регулярное повышение зарплаты по результатам работы\n➖Премирование по итогам проектов\n\nНазвание компании: ООО ай-Линк \ni-link.pro\n\nКонтакты: \nhttps://t.me/ferret24","markup":[{"type":"hashtag","offset":0,"length":9,"data":"вакансия"},{"type":"hashtag","offset":10,"length":9,"data":"удаленка"},{"type":"hashtag","offset":20,"length":7,"data":"nodejs"},{"type":"hashtag","offset":28,"length":8,"data":"backend"},{"type":"link","offset":685,"length":10,"data":"http://i-link.pro"},{"type":"link","offset":708,"length":21,"data":"https://t.me/ferret24"}],"date":"2020-04-09T07:53:42+00:00","link":"tg://resolve?domain=javascript_jobs_feed&post=15483","tags":[{"name":"javascript"},{"name":"nodejs"},{"name":"sql"},{"name":"mysql"},{"name":"postgresql"},{"name":"graphql"},{"name":"git"},{"name":"amazon-web-services"},{"name":"nosql"},{"name":"redis"},{"name":"dynamodb"}],"cities":[{"code":"tomsk"}],"allowsRemote":true}},{"node":{"__typename":"Job","id":"85082505216-1001067529236","title":"Python developer","text":"#developer #python #django #reactjs #remote #part_time #parttime #lead #greatbritain #job #jobs #python #backend #вакансия #remotework #ml #urgently\nVacancy: Lead Python developer\nCountry: Great Britain\nEmployment: Full-time remote/ Part-Time (20 h a week)\nSalary:  2500$+ - net\nOur client, a unique mass media project (platform) is looking for a Lead Developer/CTO to further develop the product and team while creating a culture of positivity & problem solving with a sense of fun.\nIncome level depends on your previous experience & knowledge.\nIt’s an exciting and pivotal time for the product and business - we have a solid platform and foundation of clients asking for features that no one in the market yet offers.\nSo, as well as servicing the current offering, there is a greenfield opportunity to further develop the platform using smart tech.\n✅ Responsibilities:\n- Co-creating and delivering the strategy.\n- Managing and building the team, as well as being hands on with the code.\nThere are many technical challenges, core of which are based around using machine learning to surface how clients can make content more readable and enticing, as well as where and when to deliver it to maximise results.\n✅ The current tech stack is based on: Python, Django, ReactJS, Elasticsearch, .NET Core, AngularJS, Docker + AWS Infrastructure.\nWe expect you to take the lead on how to evolve the stack in a smart way.\n🎬 Requirements:\nYou’ve been around the block and are now hungry to become more commercial, take ownership, and although you don’t want to stop coding, you’re keen to manage and build teams or develop existing skills in these areas.\nA strong interest in data science and machine learning.\nYou’ve been a lead developer or CTO before.\nYou’ve built and scaled a SaaS platform.\nWould be great if you have a background in news publishing or analytics.\nYou’ve managed teams or are now ready to do so.\nContact: @OlgaVzh","markup":[{"type":"hashtag","offset":0,"length":10,"data":"developer"},{"type":"hashtag","offset":11,"length":7,"data":"python"},{"type":"hashtag","offset":19,"length":7,"data":"django"},{"type":"hashtag","offset":27,"length":8,"data":"reactjs"},{"type":"hashtag","offset":36,"length":7,"data":"remote"},{"type":"hashtag","offset":44,"length":10,"data":"part_time"},{"type":"hashtag","offset":55,"length":9,"data":"parttime"},{"type":"hashtag","offset":65,"length":5,"data":"lead"},{"type":"hashtag","offset":71,"length":13,"data":"greatbritain"},{"type":"hashtag","offset":85,"length":4,"data":"job"},{"type":"hashtag","offset":90,"length":5,"data":"jobs"},{"type":"hashtag","offset":96,"length":7,"data":"python"},{"type":"hashtag","offset":104,"length":8,"data":"backend"},{"type":"hashtag","offset":113,"length":9,"data":"вакансия"},{"type":"hashtag","offset":123,"length":11,"data":"remotework"},{"type":"hashtag","offset":135,"length":3,"data":"ml"},{"type":"hashtag","offset":139,"length":9,"data":"urgently"},{"type":"bold","offset":149,"length":8,"data":""},{"type":"bold","offset":180,"length":8,"data":""},{"type":"bold","offset":215,"length":42,"data":""},{"type":"bold","offset":853,"length":18,"data":""},{"type":"bold","offset":1211,"length":36,"data":""},{"type":"bold","offset":1415,"length":14,"data":""},{"type":"bold","offset":1907,"length":8,"data":""},{"type":"handle","offset":1916,"length":8,"data":"OlgaVzh"}],"date":"2020-04-08T16:03:48+00:00","link":"tg://resolve?domain=python_jobs&post=0","tags":[{"name":"python"},{"name":"django"},{"name":"reactjs"},{"name":"dotnet"},{"name":"elasticsearch"},{"name":"angularjs"},{"name":"docker"},{"name":"amazon-web-services"},{"name":"machine-learning"},{"name":"net-core"}],"cities":[],"allowsRemote":true}},{"node":{"__typename":"Job","id":"1968177152-1001134745498","title":"Devops engineer","text":"#вакансия #DevOps #fulltime #киев\n\nВакансия: DevOps engineer\nКомпания: Luxena\nГород: Киев, метро Черниговская\nФормат работы: офис, remote - возможен для отдельных дней.\nЗанятость: полная\nЗарплата : от $2500 до $5000 по уровню квалификации.\nПомощь в релокации.\n\nО компании:\n\nLuxena - продуктовая IT-компания полного цикла, предлагаем самореализацию на международных проектах Industry 4.0 в отличной профи-атмосфере с элементами гибкого графика. \n\nЭксперту в построении и управлении платформами разработки и внедрения ПО предлагаем должность DevOps Engineer. \n \nTechnology Stack: \n \nCloud Services \n  - Azure (in use) \n  - AWS \n  - Google \n  \nCI/CD \n  - Azure DevOps (in use) \n  - Jenkins \n  - GitLab \n  \nCluster Orchestration \n  - Docker Swarm (in use) \n  - Kubernetes \n  \nRDBMS \n  - PostgreSQL (in use) \n  - MS SQL \n  - Oracle \n  \nAnalytical Solutions \n  - Clickhouse (in use) \n  - Apache Spark (in use) \n  - Apache Flink \n  - Druid \n  - Pinot \n  - Presto \n  \nStreaming & Message Queues \n  - Apache Pulsar (in use) \n  - Apache Kafka \n  \nDeployment Automation \n  - Ansible \n  - Puppet \n  - Terraform \n  \nProxy & Load balancing \n  - HA proxy (in use) \n  - Nginx \n \nВ каждом виде необходимо иметь практический опыт в production не менее 2-х лет. Часть навыков может быть развита в ходе первого года работы.\n\nКонтакт: @special_forces_recruiter\n\n—\n\n👉 Обсуждение вакансии в чате @devops_jobs","markup":[{"type":"hashtag","offset":0,"length":9,"data":"вакансия"},{"type":"hashtag","offset":10,"length":7,"data":"DevOps"},{"type":"hashtag","offset":18,"length":9,"data":"fulltime"},{"type":"hashtag","offset":28,"length":5,"data":"киев"},{"type":"handle","offset":1314,"length":25,"data":"special_forces_recruiter"},{"type":"handle","offset":1374,"length":12,"data":"devops_jobs"}],"date":"2020-04-05T00:33:02+00:00","link":"tg://resolve?domain=devops_jobs_feed&post=1877","tags":[{"name":"cloud"},{"name":"azure"},{"name":"amazon-web-services"},{"name":"jenkins"},{"name":"gitlab"},{"name":"docker"},{"name":"kubernetes"},{"name":"postgresql"},{"name":"sql"},{"name":"oracle"},{"name":"apache"},{"name":"kafka"},{"name":"deployment"},{"name":"ansible"},{"name":"nginx"},{"name":"azure-devops"},{"name":"apache-spark"}],"cities":[{"code":"kiev"}],"allowsRemote":true}},{"node":{"__typename":"Job","id":"1959788544-1001134745498","title":"Devops инженер","text":"#вакансия#Москва#AWS\n\nDataArt (https://www.dataart.ru/) ищет DevOps с опытом AWS в один из наших IoT-проектов.\n\nГород: Москва (м. Белорусская).\nФормат работы: в офисе, но сейчас, по понятным причинам, удалённый.\nЗанятость: Full-time.\n\nЗарплатная вилка: \nот 2200$ до $5000 net. \nСтартовый бонус – $1000\n\nТребуемый опыт:\n• развертывание, управление и использование масштабируемой и отказоустойчивой инфраструктуры Linux/JVM в AWS (или других общедоступных облаках).\n• Разговорный английский.\n• Linux, сетевые технологии и концепции баз данных.\n• Cassandra (или другой NoSQL).\n• Amazon Web Services.\n• Chef или Puppet.\n• Ruby или Python.\n\nБольше подробностей о позиции у нас на сайте: \nhttps://www.dataart.ru/vacancy/cfm337\n\nЕсли у вас появятся вопросы - буду рада на них ответить!\n\nTelegram: @kluhpluh\nПочта: darya.matskevich@dataart.com\n\n—\n\n👉 Обсуждение вакансии в чате @devops_jobs","markup":[{"type":"link","offset":31,"length":23,"data":"https://www.dataart.ru/"},{"type":"link","offset":683,"length":37,"data":"https://www.dataart.ru/vacancy/cfm337"},{"type":"handle","offset":790,"length":9,"data":"kluhpluh"},{"type":"link","offset":807,"length":28,"data":"mailto:darya.matskevich@dataart.com"},{"type":"handle","offset":870,"length":12,"data":"devops_jobs"}],"date":"2020-04-02T09:23:39+00:00","link":"tg://resolve?domain=devops_jobs_feed&post=1869","tags":[{"name":"amazon-web-services"},{"name":"dotnet"},{"name":"linux"},{"name":"jvm"},{"name":"cassandra"},{"name":"nosql"},{"name":"web"},{"name":"ruby"},{"name":"python"}],"cities":[{"code":"moscow"}],"allowsRemote":true}},{"node":{"__typename":"Job","id":"1953497088-1001134745498","title":"Devops инженер","text":"DevOps engineer\n#вакансия #DevOps #удаленно\nВакансия: DevOps engineer\nКомпания: Amazon \nГород: любой город \nФормат работы: #удаленно\nЗанятость: #полная\nЗарплата : обсуждаем, 180 - 300 тр\n\n  Обязательно: нужна сертификация AWS (amazon web services) + хороший английский. \n\nОпыт работы в среде Unix / Linux от 1 года, знание сценариев, настройки, настройки и устранения неисправностей параметров приложений и ОС.\n\nПРЕДПОЧТИТЕЛЬНЫЕ КВАЛИФИКАЦИИ\n· Сильные, объектно-ориентированные навыки проектирования и кодирования (желательно Python)\n· Знание внутренних компонентов операционной системы\n· Опыт работы с распределенными (многоуровневыми) системами, алгоритмами и реляционными базами данных.\n· Знание служб Active Directory, ADFS, SAML2, OIDC является плюсом.\n\nМы ищем квалифицированного инженера, чтобы присоединиться к нашей команде и иметь собственный инструментарий самообслуживания, который повышает производительность для команд разработчиков. Наш инструментарий включает в себя управление инфраструктурой в AWS, кодирование с использованием API-интерфейсов REST, управление собственной задолженностью и работа с заинтересованными сторонами по интеграции их приложений в нашу платформу.\n\n✍️ ЛС @veroni_kash\n\n—\n\n👉 Обсуждение вакансии в чате @devops_jobs","markup":[{"type":"hashtag","offset":16,"length":9,"data":"вакансия"},{"type":"hashtag","offset":26,"length":7,"data":"DevOps"},{"type":"hashtag","offset":34,"length":9,"data":"удаленно"},{"type":"hashtag","offset":123,"length":9,"data":"удаленно"},{"type":"hashtag","offset":144,"length":7,"data":"полная"},{"type":"handle","offset":1198,"length":12,"data":"veroni_kash"},{"type":"handle","offset":1245,"length":12,"data":"devops_jobs"}],"date":"2020-04-01T18:24:21+00:00","link":"tg://resolve?domain=devops_jobs_feed&post=1863","tags":[{"name":"amazon-web-services"},{"name":"web"},{"name":"unix"},{"name":"linux"},{"name":"python"},{"name":"rest"},{"name":"active-directory"}],"cities":[],"allowsRemote":true}},{"node":{"__typename":"Job","id":"1406140416-1001091028994","title":"Java разработчик","text":"Компания: #SimbirSoft\nЛокация: #Ульяновск, Казань, Самара, Димитровград, Саранск + возможен вариант удалённой работы\nЗ/п: 180-200 гросс\nКонтакты: @juli_simb\n+79271828496\nSenior Java-разработчик / AWS Dev\nТребуемый опыт работы: 3–6 лет\nПолная занятость, гибкий график\nУ нас не соскучишься! Поручим разработку разнообразных проектов, есть как разработка с нуля (выбор архитектуры и технологий за нами), так и доработка существующих решений. Внутренние конференции и доклады от ведущих разработчиков, на которых ты можешь узнать много нового\nУ нас есть офисы разработки в городах: Ульяновск, Казань, Самара, Саранск и Димитровград, а так же возможен дистанционный формат работы.\n\nПиши нам, если есть:\n●  опыт разработки на языке Java (не ранее 8 версии) не менее 2 лет, умение эффективно его использовать, знание особенностей, достоинств и недостатков;\n●  опыт разработки на Spring Framework;\n●  опыт работы с Java потоками включая ThreadPoolExecutor\n●  опыт разработки с AWS (Amazon Web Services) включая SQS, SNS, Kinesis Firehose, Terraform\n●  опыт применения языка SQL, умение писать и оптимизировать сложные запросы;\n●  опыт работы с Kafka\n●  понимание принципов работы ORM-фреймворков;\n●  понимание концепций OOP, методологий разработки и шаблонов проектирования.\n●  уровень английского от Upper - intermediate\nА если есть даже больше, то тем более пиши :)\n\nМы предлагаем:\n●  интересные высоконагруженные проекты;\n●  возможность работать на современных технологиях;\n●  возможность разрабатывать проекты с нуля;\n●  стабильную белоснежную заработную плату, размер зависит от квалификации и опыта;\n●  возможность профессионального развития - менторство, внутренние митапы, хакатоны, работа в одной команде с экспертами, сертификация за счет компании;\n●  постоянный обмен опытом между командами;\n●  гибкий график работы;\n●  возможность работать удаленно;\n●  оформление по ТК РФ.","markup":[{"type":"hashtag","offset":10,"length":11,"data":"SimbirSoft"},{"type":"hashtag","offset":31,"length":10,"data":"Ульяновск"},{"type":"handle","offset":146,"length":10,"data":"juli_simb"},{"type":"link","offset":157,"length":12,"data":"tel:+79271828496"}],"date":"2020-04-01T06:20:17+00:00","link":"tg://resolve?domain=jvmjobs&post=1341","tags":[{"name":"java"},{"name":"jvm"},{"name":"amazon-web-services"},{"name":"spring"},{"name":"web"},{"name":"sql"},{"name":"kafka"},{"name":"orm"}],"cities":[{"code":"ulyanovsk"},{"code":"kazan"},{"code":"samara"},{"code":"dimitrovgrad"},{"code":"saransk"}],"allowsRemote":true}},{"node":{"__typename":"Job","id":"1402994688-1001091028994","title":"Java разработчик","text":"#java #Moscow #Tallin\n\nГород: Москва (возможна релокация в Эстонию через 3 месяца)\nФормат работы/занятость: Офис / полная/ Сейчас удаленка\nЗарплатная вилка: 200 000- 300 000 руб на руки \nКомпания: РА  Clever Recruiting\n\nДрузья, есть отличная вакансия Java Developer (Middle/Senior) в Москве, для тех кто:\n •хочет участвовать в создании приложений для здоровья людей, которыми будут пользоваться юзеры по всему миру\n •готов работать в международной компании в команде с разработчиками из других стран\n •желает развиваться в сфере AI и Machine Vision\n •любит высокую степень самостоятельности и автономности и готов принимать решения вплоть до выбора технологического стека\n •ищет стабильную компанию с демократичной атмосферой, гибким графиком работы, и возможностью частично удаленной работы\n \nПроект: создание SaaS платформы для диагностики проблем с кожей и разработки рекомендации для ухода за кожей, с использованием алгоритмов искусственного интеллекта и машинного зрения.\n \nСтек: Java, Spring Boot, PostgreSQL, Maven, Docker, Kubernetes, AWS, GCP, Azure\n \nТребования:\n •Опыт коммерческой разработки на Java от2 лет с использованием Spring Frameworks\n •Знание классических алгоритмов и структур данных\n •Английский - Upper-Intermediate level\n •Опыт работы с облаками будет преимуществом\n \nУсловия:\nЗарплата 200-300К рублей на руки, все по ТК\nГибкий график работы, возможность частично- удаленной работы\nОфис в Москве в 5 мин ходьбы от м. Нахимовский проспект\n\nконтакты:@Marina_Pelikh\nm.chetverikova@clever-recruiting.com","markup":[{"type":"hashtag","offset":0,"length":5,"data":"java"},{"type":"hashtag","offset":6,"length":7,"data":"Moscow"},{"type":"hashtag","offset":14,"length":7,"data":"Tallin"},{"type":"handle","offset":1474,"length":14,"data":"Marina_Pelikh"},{"type":"link","offset":1489,"length":36,"data":"mailto:m.chetverikova@clever-recruiting.com"}],"date":"2020-03-31T12:57:14+00:00","link":"tg://resolve?domain=jvmjobs&post=1338","tags":[{"name":"java"},{"name":"jvm"},{"name":"spring"},{"name":"postgresql"},{"name":"maven"},{"name":"docker"},{"name":"kubernetes"},{"name":"amazon-web-services"},{"name":"google-cloud-platform"},{"name":"azure"},{"name":"spring-boot"}],"cities":[{"code":"moscow"}],"allowsRemote":true}}]}}},"context":{}}