{"hash":"f34fd2c444a074f4e0e67d525015a008ef8e766f","data":{"records":{"id":"linux","name":"linux","belongsTo":{"totalCount":103,"pageInfo":{"totalPages":11,"currentPage":3},"edges":[{"node":{"__typename":"Job","id":"1979711488-1001134745498","title":"Devops инженер","text":"#вакансия #DevOps #Москва\nФормат: #fulltime #office #remote\nЗарплатная вилка: 170 000 - 230 000\n\n#aurigajob для DevOps инженера в проект по разработке и внедрению автоматизированного сервиса взаимодействия учетных систем заказчика (преимущественно на базе SAP) и налоговой службы. Заказчик - крупная и (что сейчас особенно важно😉 ) стабильная компания в нефтегазовой сфере. \n\n✅ На проекте вас ждет:\n-  Создание, настройка и поддержка инфраструктуры решения :\nLinux (Red Hat, CentOs, Debian, AstraLinux) – установка, настройка, сопровождение\nNginx – установка, настройка\nPostgreSql – установка, настройка, тюнинг (репликация, шардирование, бэкапирование, отказоустойчивый кластер)\nAnsible – разработка и сопровождение скриптов развертывания\nGit Lab CI – установка, настройка, настройка пайплайнов сборки и развертывания\nTarantool – установка, сопровождение\nPrometheus, Grafana – мониторинг\nELK\n-  Участие в проектировании технической архитектуры решения\n- Настройка и сопровождение конвейера CI/CD\n- Исследование и выбор подходящих для системы инфраструктурных компонентов\n- Расчет сайзинга системы под требования заказчика\n- Оптимизация производительности\n \n✴️ Мы предлагаем:        \n- На время режима самоизоляции - удаленка, потом в период испытательного срока офис на м. Аэропорт, а дальше как вам больше нравится. \n- Заработную плату, выплачиваемую день-в-день, и ежегодные индексации.\n- Бесплатное обучение английскому языку, возможно, в режиме скайп-групп от внутреннего преподавателя, упор на разговорную практику.\n- Хорошая корпоративная программа ДМС со стоматологией, скорой помощью, вызовом врача на дом и льготным подключением родственников в лучших клиниках региона.\n- Один из плюсов аутсорсинговой компании - это множество интересных проектов и современных технологий. Нам важно, чтобы наши сотрудники находили себе проект по душе.\n- Мы очень ценим наш коллектив, микроклимат и домашнюю атмосферу.\n\n👍Нам нужен инженер сейчас, оформляем по ТК РФ удаленно, обмениваемся документами с помощью курьера.\n\nСмело пиши, если даже просто спросить :-) \n@Maria_Auriga\n\n—\n\n👉 Обсуждение вакансии в чате @devops_jobs","markup":[{"type":"hashtag","offset":0,"length":9,"data":"вакансия"},{"type":"hashtag","offset":10,"length":7,"data":"DevOps"},{"type":"hashtag","offset":18,"length":7,"data":"Москва"},{"type":"hashtag","offset":34,"length":9,"data":"fulltime"},{"type":"hashtag","offset":44,"length":7,"data":"office"},{"type":"hashtag","offset":52,"length":7,"data":"remote"},{"type":"hashtag","offset":97,"length":10,"data":"aurigajob"},{"type":"handle","offset":2059,"length":13,"data":"Maria_Auriga"},{"type":"handle","offset":2107,"length":12,"data":"devops_jobs"}],"date":"2020-04-07T16:22:31+00:00","link":"tg://resolve?domain=devops_jobs_feed&post=1888","tags":[{"name":"linux"},{"name":"centos"},{"name":"debian"},{"name":"nginx"},{"name":"postgresql"},{"name":"ansible"},{"name":"git"}],"cities":[{"code":"moscow"}],"allowsRemote":true}},{"node":{"__typename":"Job","id":"1978662912-1001134745498","title":"Devops engineer","text":"#вакансия #DevOps #fulltime\nВакансия: DevOps engineer / Системный администратор\nКомпания: Sl-Tech\nГород: Москва, метро Маяковская\nФормат работы: офис\nЗанятость: полная\nЗарплата : от 100 до 170 т.р. net\nО компании:\nSL Tech – компания, которая управляет портфелем проектов, предназначенных как для потребителей, так и для партнеров - поставщиков услуг в высокотехнологичных областях.\nКомпания родилась в 2006 году как часть группы SEALINE, в которую также входит страховой и перестраховочный брокер SEALINE, входящий в ТОП-10 страховых брокеров РФ.\nМы создаем современные IT-решения для бизнеса и жизни, помогая выстраивать коммуникацию между поставщиками и потребителями услуг. Своим партнерам мы предлагаем готовые решения, которые позволяют расширить возможности существующего бизнеса и получить дополнительный доход.\nSL Tech не просто разрабатывает продукты, отвечающие современным запросам партнеров и их клиентов, но и влияет непосредственно на формирование новых сегментов рынка\nТебе предстоит:\n- Развитие и поддержка сервисов компании\n- Управление инфраструктурой компании\n- Автоматизация развертывания\n- Мониторинг\n- Сбор и анализ логов\n- Организация непрерывного функционирования сервисов, резервное копирование\nЧто нужно уметь:\n- Администрирование Linux (Ubuntu)\n- От 3-х лет опыта администрирования веб-сервисов работающих на Linux\n- Опыт использования и настройки системы Gitlab\n- Знания систем Docker Swarm, Kubernetes\n- Настройка, репликация PostgreSQL\n- Работы с системами автоматизации (Ansible, Chef и т.п.), мониторинга (Zabbix, Prometheus), сбора и анализа логов (ELK, ClickHouse)\n- Умение читать код на Python\n- Желание работать в команде\nМы предлагаем:\n• Оформление по ТК РФ\n• Полностью белая зп;\n• Уровень зп обсуждается индивидуально (в соответствии с вашим уровнем и ожиданиями) ЗП вилка 100-170 тыс.руб.\n• ДМС (после испытательного срока 3 месяца)\n• Офис в центре (5 минут от м.Маяковская)\n• Чай, кофе, печеньки\n• Адекватное руководство\n• Весёлая, сильная команда\nКонтакт: @SanDevl\n\n—\n\n👉 Обсуждение вакансии в чате @devops_jobs","markup":[{"type":"hashtag","offset":0,"length":9,"data":"вакансия"},{"type":"hashtag","offset":10,"length":7,"data":"DevOps"},{"type":"hashtag","offset":18,"length":9,"data":"fulltime"},{"type":"handle","offset":1997,"length":8,"data":"SanDevl"},{"type":"handle","offset":2040,"length":12,"data":"devops_jobs"}],"date":"2020-04-07T13:49:27+00:00","link":"tg://resolve?domain=devops_jobs_feed&post=1887","tags":[{"name":"dotnet"},{"name":"linux"},{"name":"ubuntu"},{"name":"gitlab"},{"name":"docker"},{"name":"kubernetes"},{"name":"postgresql"},{"name":"ansible"},{"name":"python"}],"cities":[{"code":"moscow"}],"allowsRemote":false}},{"node":{"__typename":"Job","id":"1977614336-1001134745498","title":"Devops инженер","text":"#вакансия #devops \nГород и адрес офиса: #москва ул. Барклая, 6, стр. 5\nФормат работы: #офис\nЗанятость: #полная #fulltime \nЗарплатная вилка: от 220 до 260 т.р. на руки\nНаша компания ищет сильного инженера, обладающего большим бэкграундом в DevOps, который бы занял ключевую техническую роль в развитии данного направления и стал бы лидером нашего центра компетенций по DevOps. Мы ожидаем, что кандидат разделяет принципы философии DevOps и является экспертом с большим техническим кругозором в данной области.\nТебе предстоит:\nРазвивать центр компетенций DevOps в компании, проводить RnD, обучать коллег, участвовать в найме DevOps-инженеров и SRE.\nУчаствовать в пресейловых активностях: проработка, планирование и оценка внедряемых решений.\nВнедрять DevOps решения, включающих такие области, как автоматизация процессов сборки и развертывания систем, автоматизированное тестирование, мониторинг и менеджмент релизов.\nУстанавливать и настраивать инструменты DevOps.\nПодготавливать документацию по проектам и внедрению DevOps решений.\nБез чего ты не сможешь работать у нас: Наличие в портфолио успешно завершенных проектов по внедрению DevOps инструментов и методологии.\nОпыт работы в роли DevOps-инженера не менее 3х лет.\nОпыт системного администрирования Linux/Unix, Windows не менее 2х лет.\nОпыт работы с серверной виртуализацией (VMWare, KVM, Xen, etc.).\nОпыт работы с инструментами управления конфигурациями (Ansible или Puppet, Chef).\nОпыт настройки CI и CD (Jenkins, Gitlab CI, Teamcity), понимание плюсов и минусов данных инструментов.\nЗнание идеологии и инструментов infrastructure as code.\nОпыт работы с системами контейнерной виртуализации (Docker, Docker Swarm).\nОпыт развития и поддержки средств мониторинга инфраструктуры и сервисов (Prometheus, Zabbix, Grafana).\nХорошее знание Git, включая стратегии ветвления и слияния (Git-Flow).\nБонусы и дополнительные условия: 3 дополнительных отгула в год; корпоративный английский язык; настольный футбол, гибкое начало дня.\nНазвание компании: Перфоманс Лаб \nКонтакты: @bystrova_ak / a.bystrova@pflb.ru\n\n—\n\n👉 Обсуждение вакансии в чате @devops_jobs","markup":[{"type":"hashtag","offset":0,"length":9,"data":"вакансия"},{"type":"hashtag","offset":10,"length":7,"data":"devops"},{"type":"hashtag","offset":40,"length":7,"data":"москва"},{"type":"hashtag","offset":86,"length":5,"data":"офис"},{"type":"hashtag","offset":103,"length":7,"data":"полная"},{"type":"hashtag","offset":111,"length":9,"data":"fulltime"},{"type":"handle","offset":2022,"length":12,"data":"bystrova_ak"},{"type":"link","offset":2037,"length":18,"data":"mailto:a.bystrova@pflb.ru"},{"type":"handle","offset":2090,"length":12,"data":"devops_jobs"}],"date":"2020-04-07T13:04:24+00:00","link":"tg://resolve?domain=devops_jobs_feed&post=1886","tags":[{"name":"linux"},{"name":"unix"},{"name":"windows"},{"name":"ansible"},{"name":"jenkins"},{"name":"gitlab"},{"name":"docker"},{"name":"git"}],"cities":[{"code":"moscow"}],"allowsRemote":false}},{"node":{"__typename":"Job","id":"1975517184-1001134745498","title":"Devops engineer","text":"#вакансия #fulltime #devops #удалёнка\n\n💫Компания: i-techlabs\n\nЯ ищу опытного DevOps Engineer на проект по созданию Playtech Open Platform (POP) и игровой платформы как услуги (GPAS). \nОбе платформы построены с использованием архитектуры реактивных микроуслуг и написаны на языке программирования Scala.\nОни используют базу данных No-SQL Couchbase для сохранения и хранения данных.\n\n☕️Условия:\n\n• Вилка по зп 150 000 р.-200 000+р.\n• Удалённая работа\n• Полный день\n• Гибкий график\n\n💻Требования:\n\n• Более 3 лет опыта в DevOps или администрировании Linux\n• Хороший набор навыков Linux\n• Опыт работы с контейнерами Docker (сборка и развертывание)\n• Навыки программирования на Python / Bash\n• Jenkins\n• Управление Java-приложениями\n• Intermediate English \n\n➕Плюсом:\n• Mirantis\n• Kubernetes\n• Akka cluster\n• Couchbase\n• Elasticsearch\n• Grafana\n• Prometheus\n\n☎️ Контакт: @coderhunt Надежда\n\n—\n\n👉 Обсуждение вакансии в чате @devops_jobs","markup":[{"type":"hashtag","offset":0,"length":9,"data":"вакансия"},{"type":"hashtag","offset":10,"length":9,"data":"fulltime"},{"type":"hashtag","offset":20,"length":7,"data":"devops"},{"type":"hashtag","offset":28,"length":9,"data":"удалёнка"},{"type":"handle","offset":865,"length":10,"data":"coderhunt"},{"type":"handle","offset":918,"length":12,"data":"devops_jobs"}],"date":"2020-04-07T11:32:53+00:00","link":"tg://resolve?domain=devops_jobs_feed&post=1884","tags":[{"name":"scala"},{"name":"sql"},{"name":"linux"},{"name":"docker"},{"name":"python"},{"name":"bash"},{"name":"jenkins"},{"name":"java"},{"name":"kubernetes"},{"name":"akka"},{"name":"elasticsearch"}],"cities":[],"allowsRemote":true}},{"node":{"__typename":"Job","id":"98118402048-1001089317451","title":"Qa engineer","text":"#вакансия #СПБ #fulltime #office\n\nГород: Санкт-Петербург\nПозиция: Senior QA Engineer\nКомпания: Antal Russia\nФормат работы: офис, полная занятость \nЗарплатная вилка: до 150k gross + ежемесячные и квартальные бонусы (З/П обсуждаем индивидуально)\n\nО проекте:\nНужен Senior QA Engineer в команду, разрабатывающую интерфейсы сервиса обновления, сервиса метаданных и VOD-контента. \nМы используем микросервисную архитектуру, применяем на backend как основной язык Python, а на frontend - стандартный web-стек (JS, CSS, HTML).\n\nКого мы ищем?\n- Опыт тестирования от 3-х лет;\n- Опыт тестирования веб сервисов (UI+backend);\n- Знание реляционных СУБД (Postgres);\n- Умение работать с ОС Linux в консоли;\n- Знание Python, JavaScript, опыт программирования приветствуется;\n- Опыт автоматизации Selenium;\n- Опыт наставничества/управления небольшой командой.\n\nМы предлагаем:\n- Современный офис в Петербурге\n- Иногда можно работать удалённо;\n- ДМС и врач в офисе;\n- Оплата спорта и проф. курсов;\n- Помощь с переездом семьи из любого региона России.\n\nКонтакты куда слать СV резюме: kristina.shaburova@antalrussia.com\ntelegram @hello_intelligence","markup":[{"type":"hashtag","offset":0,"length":9,"data":"вакансия"},{"type":"hashtag","offset":10,"length":4,"data":"СПБ"},{"type":"hashtag","offset":15,"length":9,"data":"fulltime"},{"type":"hashtag","offset":25,"length":7,"data":"office"},{"type":"italic","offset":34,"length":6,"data":""},{"type":"italic","offset":57,"length":8,"data":""},{"type":"bold","offset":66,"length":19,"data":""},{"type":"italic","offset":85,"length":9,"data":""},{"type":"italic","offset":108,"length":14,"data":""},{"type":"italic","offset":147,"length":17,"data":""},{"type":"bold","offset":245,"length":11,"data":""},{"type":"bold","offset":519,"length":14,"data":""},{"type":"bold","offset":842,"length":15,"data":""},{"type":"bold","offset":1062,"length":63,"data":""},{"type":"link","offset":1062,"length":34,"data":"mailto:kristina.shaburova@antalrussia.com"},{"type":"handle","offset":1106,"length":19,"data":"hello_intelligence"}],"date":"2020-04-07T09:10:42+00:00","link":"tg://resolve?domain=qa_jobs&post=93573","tags":[{"name":"qa"},{"name":"python"},{"name":"web"},{"name":"css"},{"name":"html"},{"name":"postgresql"},{"name":"linux"},{"name":"javascript"},{"name":"selenium"}],"cities":[],"allowsRemote":true}},{"node":{"__typename":"Job","id":"24325914624-1001075660570","title":"Php разработчик","text":"#вакансия #удаленка #php #yii\n #штат #highload #ecommerce #официально\n\nРебята, наша компания Hidden Team расширяет штат и приглашает на работу backend-разработчиков уровня middle/middle+. Мы занимаемся разработкой highload проектов в сфере e-commerce и сложных ERP систем. Сотрудничаем с топовыми веб-студиями и digital-агентствами России, любим Битрикс и возможность решать нестандартные проблемы из любой точки страны!\n\nЧто бы мы хотели видеть у наших кандидатов?\n🔸Хорошие знания программирования (PHP, ООП).\n🔸Опыт работы на фреймворке Yii/Symfony/Laravel\n🔸Опыт работы с Git.\n🔸Опыт работы в консоли linux.\n🔸Базовые знания html, java script, css.\n🔸Понимание принципов построения RESTFul сервисов.\n🔸Желателен опыт работы с чем-либо RabbitMQ, Redis, ElasticSearch, PostgreSQL.\n🔸Английский на уровне чтения технической документации.\n\nЛичные качества: аккуратность, внимательность к мелочам, самостоятельность и организованность, умение работать в команде, быстро реагировать на запросы и изменение ситуации, желание обучаться и развиваться, стремление сделать работу максимально качественно.\n\nМы предлагаем:\n🔹только удаленная работа с отлаженным процессом менеджмента проектов (трекинг в Redmine, оценка задач разработчиками);\n🔹работа над сложными e-commerce проектами для крупнейших российских веб-студий (топ-10 рейтинга рунета);\n🔹многосерверная архитектура, высокие нагрузки (500К+ посетителей/месяц);\n🔹множество различных интеграций с большими объемами данных;\n🔹индивидуальные планы развития;\n🔹обучение и семинары внутри компании, собственная он-лайн школа на стадии запуска;\n🔹перспективы карьерного роста (повышения уровня разработчика до senior/team lead, возможность релокации);\n🔹 заработная плата 70К-120К+ по итогам собеседования (белая, на руки), открытая система грейдов;\n🔹 официальное оформление по ТК РФ, оплачиваемый отпуск, удобный график (начало работы 8-11), в выходные, праздники и по ночам не работаем☺️.\n\nКонтакты: Яна @yanaizosimova","markup":[{"type":"hashtag","offset":0,"length":9,"data":"вакансия"},{"type":"hashtag","offset":10,"length":9,"data":"удаленка"},{"type":"hashtag","offset":20,"length":4,"data":"php"},{"type":"hashtag","offset":25,"length":4,"data":"yii"},{"type":"hashtag","offset":31,"length":5,"data":"штат"},{"type":"hashtag","offset":37,"length":9,"data":"highload"},{"type":"hashtag","offset":47,"length":10,"data":"ecommerce"},{"type":"hashtag","offset":58,"length":11,"data":"официально"},{"type":"handle","offset":1954,"length":14,"data":"yanaizosimova"}],"date":"2020-04-07T08:24:30+00:00","link":"tg://resolve?domain=php_jobs&post=23199","tags":[{"name":"php"},{"name":"yii"},{"name":"symfony"},{"name":"laravel"},{"name":"git"},{"name":"linux"},{"name":"html"},{"name":"java"},{"name":"css"},{"name":"rabbitmq"},{"name":"redis"},{"name":"elasticsearch"},{"name":"postgresql"}],"cities":[],"allowsRemote":true}},{"node":{"__typename":"Job","id":"1973420032-1001134745498","title":"Devops инженер","text":"#вакансия #devops #НижнийНовгород \nВакансия: DevOps \nГород: Нижний Новгород \nФормат работы: офис, но можно и на удаленке \nЗанятость: полная, можно частично. Готовы обсуждать \nЗарплатная вилка: от 110 до 170 (можно обсуждать)  \n\nЗадачи:\nСоздание и поддержка CI/CD инфраструктуры доставки кода проектов на тестовые и прод окружения;\nУчастие в поиске и внедрении новых технологий, необходимых для стабильной работы и развития инфраструктуры проектов;\nРазвертывание, масштабирование и поддержка инфраструктуры окружений;\nНаписание ролей, playbook, модулей ansible для обеспечения повторяемости инфраструктуры на разных окружениях.\n\nОжидаем:\nОпыт работы с конфигурацией (ansible);\nОпыт работы с docker;\nАдминистрирование Linux на уровне решения сложных задач (Bonding, VLAN, system tuning, etc.);\nОпыт работы с базами данных (PostgreSQL, noSQL);\nПонимание работы систем виртуализации (qemu+KVM);\nПонимание работы сетей передачи данных и модели OSI;\nОпыт администрирования open source приложений (Nginx, PostgreSQL, Redis, etc.);\nБудет плюсом:\nОпыт работы со стеком Hadoop (Spark, HBase, Kafka, Zookeeper)\nОпыт работы с mesos\n\nЕсть: \nУникальные проекты\nДМС, новый офис, обучение за счет компании, по ТК, белая ЗП. \n\nКоманда: Первый ОФД \n\nКонтакты: @IT_HR_OFD, askorobogatov@energocomm.ru\n\n—\n\n👉 Обсуждение вакансии в чате @devops_jobs","markup":[{"type":"hashtag","offset":0,"length":9,"data":"вакансия"},{"type":"hashtag","offset":10,"length":7,"data":"devops"},{"type":"hashtag","offset":18,"length":15,"data":"НижнийНовгород"},{"type":"handle","offset":1242,"length":10,"data":"IT_HR_OFD"},{"type":"link","offset":1254,"length":27,"data":"mailto:askorobogatov@energocomm.ru"},{"type":"handle","offset":1316,"length":12,"data":"devops_jobs"}],"date":"2020-04-06T14:06:59+00:00","link":"tg://resolve?domain=devops_jobs_feed&post=1882","tags":[{"name":"ansible"},{"name":"docker"},{"name":"linux"},{"name":"postgresql"},{"name":"nosql"},{"name":"nginx"},{"name":"redis"},{"name":"hadoop"},{"name":"hbase"},{"name":"kafka"}],"cities":[{"code":"nizhny-novgorod"}],"allowsRemote":false}},{"node":{"__typename":"Job","id":"1972371456-1001134745498","title":"Devops инженер","text":"#вакансия #сбербанк #DevOps Заработная плата 180-220 net. \nЗаинтересованным прошу писать в личку @nas_vas\n\nКто мы?\n\nМы новая группа Agile команд, которая развивает риск-продукты экосистемы Сбербанка. Через API и фронт системы мы предоставляем партнерам и клиентам Банка рейтинги физических и юридических лиц, отчеты и уведомления по кредитной истории.\nМы приглашаем амбициозного инженера, который готов оперативно выстроить DevOps pipeline по нашим новым продуктам в соответствии с лучшими практиками и стандартами.\n\n\nDevOps инженер\n\n Чем предстоит заниматься:\n• Организация DevOps pipeline (CI\\CD) для новых продуктов\n• Настройка, диагностика и использование инструментов автоматизации:\nсборка дистрибутива, Unit-тесты, публикация дистрибутива, доставка и развертывание дистрибутива на среды, работа с результатами анализа кода на качество и безопасность\n• Чтение и понимание реализованных job’ов и pipeline\n• Сопровождение непромышленных стендов приложений (Dev, Test): анализ доступности, мониторинг, применение инструментов обезличивания, разбор дефектов и их локализация/устранение совместно с командами разработки\n• Консультация разработчиков и администраторов по лучшим практикам DevOps\nЧто ожидаем от тебя:\n• Высшее техническое образование\n• Хорошие коммуникационные навыки. Умение работать в команде\n• Опыт работы от 1 года\n• Опыт построения CI\\CD pipeline\n• Опыт работы с инструментами DevOps (Jenkins, Nexus, BitBucket, Ansible);\n• Знание Groovy;\n• Владение SQL, понимание принципов работы RDBMS (PostgreSQL);\n• Опыт поддержки серверных ОС семейства Linux (RHEL);\n\nДополнительным плюсом будет:\n• Опыт работы c Docker контейнерами\n• Опыт работы с SonarQube, Kafka, GridGain, Oracle, Nginx, JBoss/WildFly, Jira, Confluence\n• Знание Java.\n\n—\n\n👉 Обсуждение вакансии в чате @devops_jobs","markup":[{"type":"hashtag","offset":0,"length":9,"data":"вакансия"},{"type":"hashtag","offset":10,"length":9,"data":"сбербанк"},{"type":"hashtag","offset":20,"length":7,"data":"DevOps"},{"type":"handle","offset":97,"length":8,"data":"nas_vas"},{"type":"handle","offset":1781,"length":12,"data":"devops_jobs"}],"date":"2020-04-06T13:26:30+00:00","link":"tg://resolve?domain=devops_jobs_feed&post=1881","tags":[{"name":"dotnet"},{"name":"jenkins"},{"name":"ansible"},{"name":"groovy"},{"name":"sql"},{"name":"postgresql"},{"name":"linux"},{"name":"docker"},{"name":"sonarqube"},{"name":"kafka"},{"name":"oracle"},{"name":"nginx"},{"name":"jboss"},{"name":"java"}],"cities":[],"allowsRemote":false}},{"node":{"__typename":"Job","id":"1971322880-1001134745498","title":"Devops engineer","text":"DevOps engineer\n#вакансия #DevOps #noremote #fulltime \n\nВакансия: DevOps engineer\nКомпания: ДОМ.РФ / ООО «Цифровые технологии»\nГород: Москва. ст.м. Арбатская\nФормат работы: #офис\nЗанятость: #полная\nЗарплата : от 160 до 200 на руки.\n\nТебе предстоит:\n•  Поддержка ETL процессов;\n•  Участие в процессах внедрения ПО;\n•  Администрирование операционных систем *nix и общесистемного ПО;\n•  Развертывание и конфигурирование стендов под различные нужды;\n•  Решение возникающих проблем, устранение нештатных ситуаций;\n•  Участие в разработке конструкторской и эксплуатационной документации;\n•  Формирование требований к системе резервного копирования. \n\nЗдорово если у тебя есть:\n•  Знание серверной операционной системы Linux;\n•  Уверенное понимание принципов работы сетей TCP/IP: адресация, маршрутизация, стек протоколов, сетевые топологии, принципы работы VLAN, VPN, DNS, DHCP;\n•  Практический опыт автоматизации управления средами с применением docker, Kubernetes, ansible;\n•  Практический опыт разработки технологической или эксплуатационной документации;\n•  Практический опыт конфигурирования систем хранения данных (желательно);\n•  Практический опыт конфигурирования и администрирования общесистемного ПО: системы виртуализации, СУБД (PostgreSQL), серверы приложений, системы обработки сообщений, средства мониторинга и управления, elastic search;\n\nМы предлагаем:\n•  Комфортный офис в центре Москвы;\n•  Работа в высокопрофессиональной и эффективной команде, постоянное развитие;\n•  Конкурентный компенсационный пакет (ежеквартальная премия, ДМС, компенсация расходов на фитнес-абонемент до 20 т.р. в год);\n\n\nCV в ЛС плз)\nНа входе опишу, что конкретно нужно будет делать, что и как есть сейчас.\n\nКонтакт:\n@alekseytherecruiter\n\n—\n\n👉 Обсуждение вакансии в чате @devops_jobs","markup":[{"type":"hashtag","offset":16,"length":9,"data":"вакансия"},{"type":"hashtag","offset":26,"length":7,"data":"DevOps"},{"type":"hashtag","offset":34,"length":9,"data":"noremote"},{"type":"hashtag","offset":44,"length":9,"data":"fulltime"},{"type":"link","offset":92,"length":6,"data":"http://ДОМ.РФ"},{"type":"hashtag","offset":173,"length":5,"data":"офис"},{"type":"hashtag","offset":190,"length":7,"data":"полная"},{"type":"handle","offset":1703,"length":20,"data":"alekseytherecruiter"},{"type":"handle","offset":1758,"length":12,"data":"devops_jobs"}],"date":"2020-04-06T13:25:42+00:00","link":"tg://resolve?domain=devops_jobs_feed&post=1880","tags":[{"name":"linux"},{"name":"dns"},{"name":"docker"},{"name":"kubernetes"},{"name":"ansible"},{"name":"postgresql"},{"name":"elasticsearch"}],"cities":[{"code":"moscow"}],"allowsRemote":true}},{"node":{"__typename":"Job","id":"1970274304-1001134745498","title":"Devops engineer","text":"#вакансия #devops\nДобрый день!\nВ компании JTC открыта вакансия на должность DevOps engineer\nОфис: Москва (м. Ленинский проспект), Санкт-Петербург (м. Петроградская), Рязань, Ижевск\nЗанятость: полная\nЗарплатная вилка: от 150 000 до 250 000 рублей на руки\nОбязанности\n- настраивать и поддерживать инфраструктуру текущих и новых проектов \n- поддерживать CI/CD на основе Gerrit/Jenkins/Nexus\n- администрировать парк серверов \nRND - находить и внедрять новые решения\nТребования\n- уверенное администрирование Linux (CentOS)\n- опыт работы с Docker, Elasticsearch, Logstash и Kibana\n- уверенное владение инструментами CI/CD (Jenkis, TeamCity)\n- автоматизация с помощью Ansible\nвладение языками (bash и/или python)\n- опыт работы с системами сбора метрик и мониторинга \nжелательно: Kubernetes\nнавыки администрирования БД (Oracle, PostgreSQL)\nМы предлагаем\n- конкурентная заработная плата по результатам общения\n- соблюдение TK РФ\n- гибкий рабочий график с началом работы с 8:00 до 11:00\n- ДМС с расширенным набором услуг\n- интересные и нетривиальные задачи \n- возможность посещать семинары, тренинги, конференции\n\nКомпания: https://jtc.ooo/\nНа рынке ИТ с 2007.\nСпециализация: разработка систем ДБО и построение информационных экосистем. \n\nКонтакты: @rita_kudryashova\n\n—\n\n👉 Обсуждение вакансии в чате @devops_jobs","markup":[{"type":"hashtag","offset":0,"length":9,"data":"вакансия"},{"type":"hashtag","offset":10,"length":7,"data":"devops"},{"type":"link","offset":1114,"length":16,"data":"https://jtc.ooo/"},{"type":"handle","offset":1239,"length":17,"data":"rita_kudryashova"},{"type":"handle","offset":1291,"length":12,"data":"devops_jobs"}],"date":"2020-04-06T11:21:09+00:00","link":"tg://resolve?domain=devops_jobs_feed&post=1879","tags":[{"name":"jenkins"},{"name":"linux"},{"name":"centos"},{"name":"docker"},{"name":"elasticsearch"},{"name":"logstash"},{"name":"ansible"},{"name":"bash"},{"name":"python"},{"name":"kubernetes"},{"name":"oracle"},{"name":"postgresql"}],"cities":[{"code":"moscow"},{"code":"ryazan"},{"code":"izhevsk"}],"allowsRemote":false}}]}}},"context":{}}