{"hash":"f34fd2c444a074f4e0e67d525015a008ef8e766f","data":{"records":{"id":"vuejs","name":"vuejs","belongsTo":{"totalCount":22,"pageInfo":{"totalPages":3,"currentPage":3},"edges":[{"node":{"__typename":"Job","id":"58720256-1001375797688","title":".net developer","text":"#Москва #вакансия #офис #net #developer #fullstack #backend\n\nВ настоящее время мы ищем коллегу в нашу команду разработки. C 2014 года мы разрабатываем облачное решение для автоматизации процессов перевода, наш продукт работает в 200 странах.\n\nЧто предлагаем:\nОфициальное оформление по ТК РФ с первого дня.\nПолностью \"белая\" заработная плата 150-200К на руки.\nРабота в офисе или удаленно.\nГибкий график работы.\n\nПожелания:\nОпыт создания и продакшн-эксплуатации веб-приложений в .Net стеке.\nПонимание и осознанное применение принципов ООП и паттернов проектирования.\nХорошее знание C# и понимание его особенностей.\nОпыт разработки приложений с конкурентным доступом к ресурсам в БД.\nОпыт разработки фронтэнда для нетривиальных web-приложений на любом из современных фреймворков: Vue.js, AngularJS, Angular 2+, ReactJS.\nЗнание JavaScript, TypeScript, HTML 5, CSS 3.\nОпыт работы с NoSQL.\n\nКакие задачи будут стоять:\nПроектирование, разработка и рефакторинг высоконагруженных веб-приложений с высокими требованиями к производительности и доступности.\nРабота на общий результат в кросс-функциональной скрам-команде, активное взаимодействие с коллегами, участие в решении широкого спектра задач.\nТесное взаимодействие с менеджерами по продукту.\nПроведение код-ревью, участие в выработке архитектурных и проектных решений.\n\nЕсли позиция full stack'а - это не совсем подходящая роль, то мы можем обсудить и другие возможности и варианты.\n\nЕсли вы тот человек, которого мы ищем, напишите в ЛС - @dnotna","markup":[{"type":"hashtag","offset":0,"length":7,"data":"Москва"},{"type":"hashtag","offset":8,"length":9,"data":"вакансия"},{"type":"hashtag","offset":18,"length":5,"data":"офис"},{"type":"hashtag","offset":24,"length":4,"data":"net"},{"type":"hashtag","offset":29,"length":10,"data":"developer"},{"type":"hashtag","offset":40,"length":10,"data":"fullstack"},{"type":"hashtag","offset":51,"length":8,"data":"backend"},{"type":"handle","offset":1485,"length":7,"data":"dnotna"}],"date":"2019-11-27T14:39:20+00:00","link":"tg://resolve?domain=DotNetRuJobsFeed&post=56","tags":[{"name":"dotnet"},{"name":"csharp"},{"name":"web"},{"name":"vuejs"},{"name":"angularjs"},{"name":"reactjs"},{"name":"javascript"},{"name":"typescript"},{"name":"html"},{"name":"css"},{"name":"nosql"}],"cities":[{"code":"moscow"}],"allowsRemote":true}},{"node":{"__typename":"Job","id":"52428800-1001375797688","title":".net программист","text":"Всем добрый день, у нас в агентстве  есть #вакансия Программист С#\n, #вилка от 140 000р до 200 000р в зависимости от опыта и тех.собеседования.\n\nЛокация: #Москва, офис в #«Москва-Сити»,\n\nОбязанности: \n\n- Проектирование и разработка приложений для ритейла \n- Проектирование БД, написание запросов и хранимых процедур MSSQL\n- Доработка, поддержка существующих бизнес приложений компании\n\nТребования: \n\nОпыт коммерческой разработки на C#, ASP.NET от 1 года \nОпыт с БД: MSSQL, T-SQL, \nЗнание шаблонов и паттернов проектирования\nVue.js, JavaScript\n\n\nУсловия:\n\nОфициальное оформление, хороший компенсационный пакет при переезде. \nГрафик: 8:00-17:00\nКорпоративное питание\nКорпоративные мероприятия\nСпортивные секции в рамках корпоративного отдыха\n\nЕсли наше предложение заинтересовало Вас, пишите мне)","markup":[{"type":"hashtag","offset":42,"length":9,"data":"вакансия"},{"type":"hashtag","offset":69,"length":6,"data":"вилка"},{"type":"hashtag","offset":154,"length":7,"data":"Москва"},{"type":"link","offset":436,"length":7,"data":"http://ASP.NET"}],"date":"2019-11-18T13:33:50+00:00","link":"tg://resolve?domain=DotNetRuJobsFeed&post=50","tags":[{"name":"dotnet"},{"name":"csharp"},{"name":"sql-server"},{"name":"sql"},{"name":"vuejs"},{"name":"javascript"},{"name":"asp-net"}],"cities":[{"code":"moscow"}],"allowsRemote":false}}]}}},"context":{}}