{"hash":"f5f6bf98bd95e769321482904cbbd488f77922fd","data":{"records":{"id":"javascript","name":"javascript","belongsTo":{"totalCount":272,"pageInfo":{"totalPages":28,"currentPage":10},"edges":[{"node":{"__typename":"Job","id":"17203986432-1001110946746","title":"Javascript разработчик","text":"#вакансия #frontend #vue #москва #fulltime #офис\n\nГород: Москва м. Парк культуры(5 минут)\nФормат: в офисе\nЗанятость: полная\nЗарплатная вилка: 180 000 - 220 000 рублей в месяц net (на руки)\n\nВсякие преимущества:\nВ нашей команде крутые ребята создатели и топы: \nKupiVip, Avito и других лидеров рынка.\nМы работаем в одной из самых быстрорастущих отраслей - FoodTech.\nРабота в современном офисе - WeWork. Кофе, печеньки, бесплатное пиво по вечерам.\nВозможность учиться, развиваться и много работать. \nДМС + стоматология.\n\nЧем занимаемся:\nРазрабатываем систему для сборки и доставки продуктов для сети Пятерочка, микросервисная архитектура, большое кол-во фронтовых (админка, рабочее приложение, операторская).\n\nВаши задачи: \nРазработка архитектуры сложного SPA приложения\nПроект новый - можно влиять участвовать и предлагать новые решения.\nРазработка ведется по спринтам.\n\nНам очень важно:\nАктивность, ответственность и прочие лучшие человеческие качества. Верим, что компанию делают люди.\nА также опыт на Vue от 1 года.\nОпыт на фронте от 3-х лет.  \n\nКомпания: X5 Retail Group (подразделение X5FoodTech)\n\nКонтакты: \nДарья\n@Daryanepevnaya\n+7 925 175 175 2 \ndarya.nepevnaya@x5.ru","markup":[{"type":"hashtag","offset":0,"length":9,"data":"вакансия"},{"type":"hashtag","offset":10,"length":9,"data":"frontend"},{"type":"hashtag","offset":20,"length":4,"data":"vue"},{"type":"hashtag","offset":25,"length":7,"data":"москва"},{"type":"hashtag","offset":33,"length":9,"data":"fulltime"},{"type":"hashtag","offset":43,"length":5,"data":"офис"},{"type":"handle","offset":1118,"length":15,"data":"Daryanepevnaya"},{"type":"link","offset":1134,"length":16,"data":"tel:+7 925 175 175 2"},{"type":"link","offset":1152,"length":21,"data":"mailto:darya.nepevnaya@x5.ru"}],"date":"2020-06-29T08:49:16+00:00","link":"tg://resolve?domain=javascript_jobs_feed&post=16407","tags":[{"name":"javascript"},{"name":"vuejs"},{"name":"dotnet"}],"cities":[{"code":"moscow"}],"allowsRemote":false}},{"node":{"__typename":"Job","id":"17202937856-1001110946746","title":"Js разработчик","text":"#вакансия #Vue #nuxt \n\nГород и адрес офиса: Москва\n\nФормат работы: удаленка\n\nЗанятость: полная\n\nЗарплатная вилка: 70 000 - 100 000 руб. на руки\n\nПроект: Онлайн школа. Бэкенд готов, дизайн в фигме.\n\nОписание вакансии: \n\n• Разработка веб-интерфейсов на vue.js/Nuxt\n• Активное участие в обсуждении задач.\n• Разработка нового функционала.\n• Доработка/Оптимизация существующего функционала.\n\nТребования:\n• Уверенное знание Javascript (ES6+)\n• Обязательное понимание экосистемы Vue/VueRouter/Vuex\n• Понимание принципов построения архитектуры большого приложения и принципов компонентного подхода.\n• Умение делать качественную кросс-браузерную адаптивную верстку (SCSS).\n• Опыт работы с Webpack и Babel.\n• Опыт работы с REST API\n\nБудет супер, если:\n• Есть понимание принципов pixel perfect\n• Опыт использования серверного рендеринга (SSR) с использованием Nuxt.js.\n• Есть ИП или статус самозанятого\n\nНазвание компании: www.webland.design\n\nКонтакты: @alex_project","markup":[{"type":"hashtag","offset":0,"length":9,"data":"вакансия"},{"type":"hashtag","offset":10,"length":4,"data":"Vue"},{"type":"hashtag","offset":15,"length":5,"data":"nuxt"},{"type":"link","offset":912,"length":18,"data":"http://www.webland.design"},{"type":"handle","offset":942,"length":13,"data":"alex_project"}],"date":"2020-06-29T08:48:59+00:00","link":"tg://resolve?domain=javascript_jobs_feed&post=16406","tags":[{"name":"javascript"},{"name":"vuejs"},{"name":"webpack"},{"name":"rest"}],"cities":[{"code":"moscow"}],"allowsRemote":true}},{"node":{"__typename":"Job","id":"17201889280-1001110946746","title":"Js разработчик","text":"#вакансия #remote #удаленка #Angular9 #SASS #Fulstack #Frontend #Backend #Bulma #Node.js #JavaScript\n\nФормат: Удаленка\nЗанятость: Проектная\nУровень: Middle/Senior\nЗп: 500 USD -> 2000 USD или проектная после собеседования.\n\nО компании: БиКинг (https://beking.co) - разработка приложений и сервисов на основе web-технологий. Мы ищем к себе в команду ответственного человека, который хочет и готов активно расти как разработчик и специалист. Компания молодая. Пока в компании програмистов нету.\n\nОбязанности:\n- Разработка Web приложений на Angular, Reakt с применением современных framework-ов\n- Исследование и внедрение новых тенденций и технологий\n\nТребования:\n- Хорошее знание JavaScript (ES5, ES6), HTML, SASS, CSS, Typescript\n- Знание Адаптивной Вёрстки\n- Опыт работы с современными фреймворками (Angular/React, Bulma)\n- Умение работать с REST\n- Хорошее умение пользоваться Git\n- Навыки работы в интернациональной команде\n\nБудет плюсом:\n- Разговорный английский, испаский язык\n- Знание Node.js и опыт работы с Express.js/Nest.js/Next.js\n- Умение верстать дизайн из Adobe XD.\n\nМы предлагаем:\n- Гибкий график работы\n- Постоянное обучение, развитие скиллов\n- Возможность получить опыт в разных проектах и изучить новые технологии\n\nКонтакты: @yuribkng","markup":[{"type":"hashtag","offset":0,"length":9,"data":"вакансия"},{"type":"hashtag","offset":10,"length":7,"data":"remote"},{"type":"hashtag","offset":18,"length":9,"data":"удаленка"},{"type":"hashtag","offset":28,"length":9,"data":"Angular9"},{"type":"hashtag","offset":38,"length":5,"data":"SASS"},{"type":"hashtag","offset":44,"length":9,"data":"Fulstack"},{"type":"hashtag","offset":54,"length":9,"data":"Frontend"},{"type":"hashtag","offset":64,"length":8,"data":"Backend"},{"type":"hashtag","offset":73,"length":6,"data":"Bulma"},{"type":"hashtag","offset":80,"length":5,"data":"Node"},{"type":"hashtag","offset":89,"length":11,"data":"JavaScript"},{"type":"link","offset":243,"length":17,"data":"https://beking.co"},{"type":"handle","offset":1240,"length":9,"data":"yuribkng"}],"date":"2020-06-29T06:52:19+00:00","link":"tg://resolve?domain=javascript_jobs_feed&post=16405","tags":[{"name":"javascript"},{"name":"angularjs"},{"name":"sass"},{"name":"nodejs"},{"name":"web"},{"name":"html"},{"name":"css"},{"name":"typescript"},{"name":"reactjs"},{"name":"rest"},{"name":"git"},{"name":"express"}],"cities":[],"allowsRemote":true}},{"node":{"__typename":"Job","id":"17200840704-1001110946746","title":"Js разработчик","text":"#вакансия #remote #frontend #Angularjs #Angular #middle #senior #удаленка \n\nГород: Краснодар\nФормат работы: remote \nЗанятость: fulltime\nВилка: 120-180k net \n\nНа протяжении 14 лет наша команда создает кастомные веб/мобильные приложения и дизайн. \nПриглашаем к сотрудничеству на удаленной постоянной основе опытного разработчика front-end со знанием Angular (Angular.js/Angular 9). \nПроект:  продукт для крупного бизнеса (USA) \n\nЗадачи: разработка front-end части на Anagular. \n\nНазвание компании: Softlight \n\nТребования: \nОпыт в разработке front-end на Angular от 3-х лет;\nОпыт работы с версией Angular 1.x от 1 года\n JavaScript, HTML5/CSS3 \nработа в распределенной команде \n\nМы предлагаем:\n- Полностью удаленную работу\n- Участие в разработке зарубежных продуктов (USA)\n- Пятидневная рабочая неделя ( с 9-10 до 18-19 МСК), госпраздники - выходные\n- Оформление ИП\n- Оплачиваемый отпуск и больничный \n- Работу в слаженной опытной команде \n\nКонтакты: @MikeHR или mzaharov@softlightllc.com","markup":[{"type":"hashtag","offset":0,"length":9,"data":"вакансия"},{"type":"hashtag","offset":10,"length":7,"data":"remote"},{"type":"hashtag","offset":18,"length":9,"data":"frontend"},{"type":"hashtag","offset":28,"length":10,"data":"Angularjs"},{"type":"hashtag","offset":39,"length":8,"data":"Angular"},{"type":"hashtag","offset":48,"length":7,"data":"middle"},{"type":"hashtag","offset":56,"length":7,"data":"senior"},{"type":"hashtag","offset":64,"length":9,"data":"удаленка"},{"type":"handle","offset":947,"length":7,"data":"MikeHR"},{"type":"link","offset":959,"length":25,"data":"mailto:mzaharov@softlightllc.com"}],"date":"2020-06-29T06:51:53+00:00","link":"tg://resolve?domain=javascript_jobs_feed&post=16404","tags":[{"name":"javascript"},{"name":"angularjs"},{"name":"dotnet"},{"name":"html"},{"name":"css"}],"cities":[{"code":"krasnodar"}],"allowsRemote":true}},{"node":{"__typename":"Job","id":"17195597824-1001110946746","title":"Javascript разработчик","text":"#вакансия #удаленно #проектная #reactNative \n В компанию \"Far Express CO\" LLC требуется React Native Разработчик под проектный вид работы\n Город: Узбекистан, г. Ташкент\n Занятость: проектная\n Формат работы: удаленка\n Зарплатная вилка: от 500$ до 1000$\n Требования:\n - опыт работы React Native не менее 2 года\n Условия работы:\n - график работы 30-40ч в недели (работаем с Hubstaff)\n Контакты:\n Телеграм: @nazirovlix\n\n—\n\n👉 Обсуждение вакансии в чате @javascript_jobs","markup":[{"type":"hashtag","offset":0,"length":9,"data":"вакансия"},{"type":"hashtag","offset":10,"length":9,"data":"удаленно"},{"type":"hashtag","offset":20,"length":10,"data":"проектная"},{"type":"hashtag","offset":31,"length":12,"data":"reactNative"},{"type":"handle","offset":403,"length":11,"data":"nazirovlix"},{"type":"handle","offset":449,"length":16,"data":"javascript_jobs"}],"date":"2020-06-28T20:36:51+00:00","link":"tg://resolve?domain=javascript_jobs_feed&post=16399","tags":[{"name":"javascript"},{"name":"express"},{"name":"reactjs"},{"name":"react-native"}],"cities":[{"code":"tashkent"}],"allowsRemote":true}},{"node":{"__typename":"Job","id":"17191403520-1001110946746","title":"Js разработчик","text":"Greenatom.ru\n#вакансия #Москва #javascript #React #Typescript #Node.js #Middle #Senior #удаленка #удаленная работа \n\n👨🏼‍💻 Middle/Senior Frontend Developer, Middle/Senior Backend Developer\nГород и адрес офиса: #Москва, БЦ Сириус Парк, метро Нагатинская\n\n✅Формат работы: \nУДАЛЕННАЯ РАБОТА\n\n💻Занятость: полная, гибкое начало трудового дня.\n\nЗарплатная вилка: от 170 000 до 230 000 руб. на руки.\n\n🏢Компания: АО Гринатом\n\nПривет! Мы растём и активно развиваем ряд внутренних проектов: например, корпоративный портал, горячая линия, собственная кадровая система для 400 предприятий! \nМы формируем НЕСКОЛЬКО КОМАНД, общей численностью более 60 человек и ищем классных:\n\n✅ФРОНТЕНД  разработчиков;\n\n✅БЭКЕНД разработчиков. \n\nПроекты в стадии разработки пилота и у тебя есть возможность повлиять на дальнейшее развитие продукта. Если у тебя есть крутые идеи - ты сможешь их здесь реализовать! Откликайся сам и зови друзей! Вирус пройдёт, работа останется!\n\n✅Требуемые знания и навыки:\n- Опыт разработки от двух лет\n- Хорошее знание чистого JS\n- Опыт работы с TypeScript\n- React, MobX, Less/Sass\n- Опыт написания юнит-тестов с помощью Jest, Enzymе очень приветствуется\n\n💡Наш стек:\n      React, TypeScript, Node.js, MobX, Docker\n\nМы работаем по Scrum.\n\n✅Условия:\n- Официальное оформление в штат по ТК, белая зп;\n- Бессрочный трудовой договор; \n- Годовой бонус;\n- Возможности профессионального и карьерного роста;\n- Дополнительные 3 дня к отпуску;\n- Плавающее начало дня;\n- ДМС со стоматологией;\n- Полная удаленка \n(Если тебе нравится работать в офисе, мы не против)\n\n☎️Контакты:\nЮлия - YAnZueva@Greenatom.ru","markup":[{"type":"link","offset":0,"length":12,"data":"http://Greenatom.ru"},{"type":"hashtag","offset":13,"length":9,"data":"вакансия"},{"type":"hashtag","offset":23,"length":7,"data":"Москва"},{"type":"hashtag","offset":31,"length":11,"data":"javascript"},{"type":"hashtag","offset":43,"length":6,"data":"React"},{"type":"hashtag","offset":50,"length":11,"data":"Typescript"},{"type":"hashtag","offset":62,"length":5,"data":"Node"},{"type":"hashtag","offset":71,"length":7,"data":"Middle"},{"type":"hashtag","offset":79,"length":7,"data":"Senior"},{"type":"hashtag","offset":87,"length":9,"data":"удаленка"},{"type":"hashtag","offset":97,"length":10,"data":"удаленная"},{"type":"hashtag","offset":212,"length":7,"data":"Москва"},{"type":"link","offset":1579,"length":21,"data":"mailto:YAnZueva@Greenatom.ru"}],"date":"2020-06-28T17:42:12+00:00","link":"tg://resolve?domain=javascript_jobs_feed&post=16395","tags":[{"name":"javascript"},{"name":"reactjs"},{"name":"typescript"},{"name":"nodejs"},{"name":"sass"},{"name":"docker"}],"cities":[{"code":"moscow"}],"allowsRemote":true}},{"node":{"__typename":"Job","id":"17190354944-1001110946746","title":"Js разработчик","text":"#вакансия #frontend  #офис #fulltime #спб #петербург  #fulltime #middle #vue #JavaScript #lodash #middle #petersburg #jquery #sass #less \n\nГород: Санкт-Петербург м.Чернышевская\n\nЗанятость: fulltime\n\nКомпания Rixtrema Inc. находится в поиске frontend-разработчика уровня middle, который, также, как и мы, обожает программировать и разрабатывать интерфейсы.  Нам важно видеть у соискателя огонь в глазах и желание развиваться вместе с командой. \nШтаб-квартира компании находится в Нью-Йорке. Мы обслуживаем одни из крупнейших инвестиционных домов и управляющих активами в США. \nМы продаёт свой софт в США. Это не аутсорс, а интересная работа со своими динамичными продуктами. Именно поэтому ищем кандидата, способного продемонстрировать  креативность.\n\nОбязанности:\n\n - Разработка интерфейсов, приложений и сайтов\n-  Поддержание проектов в продакшне\n- Участие в разработке новых приложений\n- Постоянное, непрерывное развитие и обучение (это как и условие, так и обязанность)\n\nТребования:\n\n Уверенное знание JavaScript (само собой, HTML5, CSS3 ) Понимание основных паттернов проектирования\nПонимание основных принципов UI/UX, умение верстать без макетов\nНе так важна углубленная работа с конкретным фреймворком, важно понимание их работы в целом (Angular, React, Vue и пр.). Тем не менее, новые проекты пишутся на Vue и кандидат должен быть готов на кратчайшие сроки сориентироваться. \nДополнительным плюсом будет работа с jquery, lodash (в т.ч. шаблонизаторами), cordova, electron, nodejs, less, sass.\n\n\nВ первую очередь ищем петербуржцев, готовых работать в офисе. Однако готовы рассмотреть и вариант удалённой работы.\n\nУсловия:\n\n    Удалённая работа (если в Питере, то можно в офисе)\n    Зарплата от 1300 USD до 2000 USD после уплаты налогов. Фиксируется в долларах. \n    3 недели оплачиваемого отпуска\nпрактически отсутствует бюрократия, все предельно прозрачно\nвозможность разработчику непросто кодить по ТЗ, а принимать в том числе стратегические решения по проекту.\n    Фирма продаёт свой софт в США. Это не аутсорс, а интересная работа со своими динамичными продуктами. \n\nЕсли Вы подходите под требования и готовы решать нестандартные задачи вместе с нами - смело записывайтесь на собеседование!  Не забывайте прилагать пример кода и ссылки на проекты в продакшне, особенно на самые нетривиальные на Ваш взгляд. \n\nКонтакты:\n@sanyanx\n\n—\n\n👉 Обсуждение вакансии в чате @javascript_jobs","markup":[{"type":"hashtag","offset":0,"length":9,"data":"вакансия"},{"type":"hashtag","offset":10,"length":9,"data":"frontend"},{"type":"hashtag","offset":21,"length":5,"data":"офис"},{"type":"hashtag","offset":27,"length":9,"data":"fulltime"},{"type":"hashtag","offset":37,"length":4,"data":"спб"},{"type":"hashtag","offset":42,"length":10,"data":"петербург"},{"type":"hashtag","offset":54,"length":9,"data":"fulltime"},{"type":"hashtag","offset":64,"length":7,"data":"middle"},{"type":"hashtag","offset":72,"length":4,"data":"vue"},{"type":"hashtag","offset":77,"length":11,"data":"JavaScript"},{"type":"hashtag","offset":89,"length":7,"data":"lodash"},{"type":"hashtag","offset":97,"length":7,"data":"middle"},{"type":"hashtag","offset":105,"length":11,"data":"petersburg"},{"type":"hashtag","offset":117,"length":7,"data":"jquery"},{"type":"hashtag","offset":125,"length":5,"data":"sass"},{"type":"hashtag","offset":131,"length":5,"data":"less"},{"type":"handle","offset":2329,"length":8,"data":"sanyanx"},{"type":"handle","offset":2372,"length":16,"data":"javascript_jobs"}],"date":"2020-06-28T15:15:36+00:00","link":"tg://resolve?domain=javascript_jobs_feed&post=16394","tags":[{"name":"javascript"},{"name":"vuejs"},{"name":"jquery"},{"name":"sass"},{"name":"html"},{"name":"css"},{"name":"angularjs"},{"name":"reactjs"},{"name":"cordova"},{"name":"electron"},{"name":"nodejs"}],"cities":[],"allowsRemote":true}},{"node":{"__typename":"Job","id":"17188257792-1001110946746","title":"Javascript разработчик","text":"#вакансия #javascript #typescript \n\nFrontend-разработчик (удаленно или в офисе)\n\nBlogman\n\nГород и адрес офиса: \n— Санкт-Петербург\nФормат работы:           \n— офис в Санкт-Петербурге или удаленка по России \nЗанятость:                     \n— полная / full time\nЗарплатная вилка:       \n— от 80 000 до 300 000 рублей\n\nОсновной стек технологий — JavaScript, TypeScript, HTML/CSS. Сейчас мы разрабатываем бизнес-функционал приложения и будем рады новому специалисту в нашей команде, который вольется в проект и мы вместе будем делать frontend с нативным кодом и отзывчивым интерфейсом.\n\nМы ожидаем, что у вас есть:\n🔹Опыт коммерческой разработки от 3 лет\n🔹Хорошее знание JavaScript, TypeScript, HTML/CSS;\n🔹Умение пользоваться отладчиком в браузере;\n\nРады предложить:\n🔹Возможность работать удаленно;\n🔹Желаемый оклад по результатам собеседования;\n🔹Cистему роста зарплаты каждые 6 месяцев\n\nКонтакт: @alinablogman\nhttps://spb.hh.ru/employer/3069197?customDomain=1","markup":[{"type":"hashtag","offset":0,"length":9,"data":"вакансия"},{"type":"hashtag","offset":10,"length":11,"data":"javascript"},{"type":"hashtag","offset":22,"length":11,"data":"typescript"},{"type":"handle","offset":896,"length":13,"data":"alinablogman"},{"type":"link","offset":910,"length":49,"data":"https://spb.hh.ru/employer/3069197?customDomain=1"}],"date":"2020-06-28T12:30:43+00:00","link":"tg://resolve?domain=javascript_jobs_feed&post=16392","tags":[{"name":"javascript"},{"name":"typescript"},{"name":"html"},{"name":"css"}],"cities":[],"allowsRemote":true}},{"node":{"__typename":"Job","id":"17185112064-1001110946746","title":"Js разработчик","text":"#вакансия #удаленка #react #frontend #senior                                                                                                                                                        Локация: удаленка полная                                                                                                                                                                                Занятость: полная                                                                                                                                                                      Компания Скайбондс.     \nВилка: 200-350 тыс руб.                                                                                                                    \n Мы — команда Скайбондс. Мы создаем продукт для анализа рынка ценных бумаг и эффективного управления портфелем.\n\nИщем теперь Senior фронденд разработчика (только РФ и граждане Таможенного союза находящиеся на территории РФ)\n\nСейчас в нашу команду нужен сильный  FRONTEND-РАЗРАБОТЧИК уровня SENIOR   и выше, который будет:\n•  брать на себя ответственность за часть продукта, в рамках общих приоритетов команды;\n•  привносить в продукт ценный для клиента результат;\n•  в достижении результата, понимать как техническое решение, так и пользовательские сценарии;\n•  планировать свою работу и прозрачно отчитываться по ней;\n•  взаимодействовать с командой дизайнеров и серверных разработчиков;\n•  уметь разбираться в чужом коде;\n•  решать проблемы, о которых сообщили наши клиенты;\n•  изучать новые технологии и внедрять их в проект с целью его улучшения;\n•  принимать совместные командой решения сложных проблем.\nМинимальные требования:\n\n•  опыт разработки на JS (React)  от 3-х лет;\n•  знание возможностей и синтаксиса последних версий ECMAScript;\n•  глубокое понимание React.js и его основных принципов;\n•  понимание SPA на основе React/Redux;\n•  понимание методов и знание инструментов тестирования (unit, e2e tests);\n•  опыт работы с системой контроля версий Git;\n•  опыт работы с средствами разработки, такими как Babel, Webpack, ESlint, npm;\n\n\n\nМы предлагаем:\n•  полностью \"белую\" заработную плату, официальное трудоустройство;\n•  ДМС;\n•  график работы 5/2, полностью удаленную работу.\nПисать @railyakaM","markup":[{"type":"hashtag","offset":0,"length":9,"data":"вакансия"},{"type":"hashtag","offset":10,"length":9,"data":"удаленка"},{"type":"hashtag","offset":20,"length":6,"data":"react"},{"type":"hashtag","offset":27,"length":9,"data":"frontend"},{"type":"hashtag","offset":37,"length":7,"data":"senior"},{"type":"handle","offset":2239,"length":10,"data":"railyakaM"}],"date":"2020-06-28T12:27:59+00:00","link":"tg://resolve?domain=javascript_jobs_feed&post=16389","tags":[{"name":"javascript"},{"name":"reactjs"},{"name":"redux"},{"name":"git"},{"name":"webpack"},{"name":"npm"},{"name":"react-redux"}],"cities":[],"allowsRemote":true}},{"node":{"__typename":"Job","id":"26658996224-1001075660570","title":"Php developer","text":"#вакансия #JavaScript #PHP #React #Senior #офис #Москва #Балашиха\n📣Крупнейший в России поставщик автомобильных шин и колесных дисков ведущих мировых производителей (входящих в Forbs 500) приглашает Senior PHP/JavaScript Developer для участия в новом интернет-проекте в сфере B2B и B2C.\n\n✅Мы предлагаем:\nУровень ЗП: 170-200 net (обсуждается!)\nЛокация: офис г. Балашиха или м. Таганская\nОформление по ТК РФ, полный соц.пакет.\nКомпенсация аренды жилья при переезде❗️\nГрафик работы 5/2 с 9:00 до 18:00, корпоративное питание, частично удаленно❗️\n\n🧑‍💻Ваши будущие задачи:\n- участие в разработке новых больших интернет-проектов в сфере B2B и B2C;\n- участие в разработке внутренних проектов Компании;\n- развитие и оптимизация существующих проектов.\n\n🤝Мы ожидаем от Вас:\nОпыт работы и уверенное владение PHP, Javascript (React), jQuery от 3 лет\nХорошее понимание ООП, MVC, SQL, CSS3\nОпыт комплексной разработки web-проектов, наличие готовых проектов\nЖелательно: использование grunt, browserify, методологии BEM, препроцессоров SASS/LESS; опыт работы Oracle DB, Docker, умение верстать на flexbox.\n\n👉Откликнуться на вакансию и задать вопросы: telegram @anisimovaane4ka","markup":[{"type":"hashtag","offset":0,"length":9,"data":"вакансия"},{"type":"hashtag","offset":10,"length":11,"data":"JavaScript"},{"type":"hashtag","offset":22,"length":4,"data":"PHP"},{"type":"hashtag","offset":27,"length":6,"data":"React"},{"type":"hashtag","offset":34,"length":7,"data":"Senior"},{"type":"hashtag","offset":42,"length":5,"data":"офис"},{"type":"hashtag","offset":48,"length":7,"data":"Москва"},{"type":"hashtag","offset":56,"length":9,"data":"Балашиха"},{"type":"handle","offset":1148,"length":16,"data":"anisimovaane4ka"}],"date":"2020-06-28T11:35:43+00:00","link":"tg://resolve?domain=php_jobs&post=25424","tags":[{"name":"php"},{"name":"javascript"},{"name":"reactjs"},{"name":"dotnet"},{"name":"jquery"},{"name":"sql"},{"name":"css"},{"name":"web"},{"name":"gruntjs"},{"name":"sass"},{"name":"oracle"},{"name":"docker"}],"cities":[{"code":"moscow"},{"code":"balashikha"}],"allowsRemote":true}}]}}},"context":{}}