{"hash":"f5f6bf98bd95e769321482904cbbd488f77922fd","data":{"records":{"id":"qa","name":"qa","belongsTo":{"totalCount":208,"pageInfo":{"totalPages":21,"currentPage":6},"edges":[{"node":{"__typename":"Job","id":"104047050752-1001089317451","title":"Qa engineer","text":"#вакансия #Москва #офис #QA #тестировщик #fulltime\n\nГород и адрес офиса: Москва, м. Новокузнецкая/Павелецкая\nФормат работы: #офис\nЗанятость: #полная\nЗП: от 90к до 120к руб. нетт\n\nSports.ru - провайдер развлечений для любителей спорта.\nЕсть спорт. Есть болельщики. Мы заполняем среду между ними, оживляем ее, наполняем общением и другими развлечениями. Мы делаем не «сайты» или «приложения», а мультиплатформенные продукты, с учетом актуальной технологической парадигмы.\n\nМы ищем Middle QA Engineer'а в наш флагманский проект Sports.ru.\nЭто главное медиа о спорте на русском языке с аудиторией 18 млн пользователей в месяц. Highload-проект с десятками тысяч RPS, состоящий из самых разных продуктов – сайтов, мобильных приложений, email-рассылок, чат-ботов и многого другого.\n\nВ данный момент мы заняты активным внедрением процесса тестирования. Под капотом - нативный js на фронте, php+perl на бэке. Все новые сервисы разрабатываем на новом стеке: vue.js+ssr+golang+graphql. Да, легаси есть - иногда попадается, но в тестирование всё же большинство задач идут на новом стеке.\n\nО задачах\nВы будете заниматься приёмкой фич и проведением регресса, написанием тестовой документации, разработкой автотестов и регистрацией ошибок в баг-трекере.\n\nО наших ожиданиях\nМы ждем, что вы уже минимум пару лет как в профессии и имеете хороший опыт ручного тестирования. Знаете различные инструменты и подходы к тестированию, обладаете навыками тест-дизайна и умеете их применять.\nПонимаете процессы разработки и тестирования, а также, что процессы не могут быть идеальными, но к этому необходимо стремиться.\nМы также ждем, что вы уже имеете навыки автоматизации.\n\nБудет плюсом\nЕсли вы уже пробовали себя в нагрузочном тестировании и автоматизации мобильных устройств.\n\nОб условиях:\nПросторный стильный офис возле м. Новокузнецкая/Третьяковская.\n“Белая” заработная плата.\nБесплатная медстраховка со стоматологией после испытательного срока.\nГибкий график работы с возможностью день-два в неделю работать удаленно,\nФрукты, снеки, чай, кофе, какао 24/7.\nКорпоративная скидка в спортзал и на занятия английским языком.\nКорпоративный футбол с тренером.\nФинансовая помощь при переезде из другого города.\nВозможности для профессионального развития.\n\nНазвание компании: Sports.ru (Tribuna Digital)\nКого заинтересовало, пишите мне в личку (@pbuyatova) - поделюсь подробностями:)","markup":[{"type":"hashtag","offset":0,"length":9,"data":"вакансия"},{"type":"hashtag","offset":10,"length":7,"data":"Москва"},{"type":"hashtag","offset":18,"length":5,"data":"офис"},{"type":"hashtag","offset":24,"length":3,"data":"QA"},{"type":"hashtag","offset":28,"length":12,"data":"тестировщик"},{"type":"hashtag","offset":41,"length":9,"data":"fulltime"},{"type":"hashtag","offset":124,"length":5,"data":"офис"},{"type":"hashtag","offset":141,"length":7,"data":"полная"},{"type":"link","offset":179,"length":9,"data":"http://Sports.ru"},{"type":"bold","offset":179,"length":9,"data":""},{"type":"bold","offset":479,"length":20,"data":""},{"type":"link","offset":525,"length":9,"data":"http://Sports.ru"},{"type":"bold","offset":1077,"length":10,"data":""},{"type":"bold","offset":1240,"length":18,"data":""},{"type":"bold","offset":1649,"length":13,"data":""},{"type":"bold","offset":1754,"length":13,"data":""},{"type":"link","offset":2247,"length":9,"data":"http://Sports.ru"},{"type":"handle","offset":2316,"length":10,"data":"pbuyatova"}],"date":"2020-06-30T09:32:43+00:00","link":"tg://resolve?domain=qa_jobs&post=99227","tags":[{"name":"qa"},{"name":"php"},{"name":"perl"},{"name":"vuejs"},{"name":"go"},{"name":"graphql"}],"cities":[{"code":"moscow"}],"allowsRemote":true}},{"node":{"__typename":"Job","id":"104041807872-1001089317451","title":"Qa engineer","text":"#Москва #вакансия #QA #ручноетестирование #python #тестировщик #manual  #автотестирование #QAAutomation\n\nДолжность: QA Engineer (Manual+Auto)\nКомпания: Get IT, Москва\nЗП: ориентир - 120 000 \nФормат работы: офис, гибкое начало дня (сейчас – удаленно)\nЗанятость: полная\n\n🐬Задачи:\n- Тестирование ERP-системы;\n- Создание тест-кейсов, чек-листов и т.д. \n\n🌳Ожидания:\n- Понимание жизненного цикла разработки продукта\n- Знание теории и видов тестирования,  умение вести тестовую документацию;\n- Умение локализовать баги и оформлять баг репорты\n- Понимание и умение применять техники тест-дизайна\n- Тестирование API\n- Опыт использование Postman\n- Понимание мобильного тестирования \n- Знание и умение пользования командной строкой UNIX\n- Знание SQL (простые запросы), Git\n- Умение использовать снифферы (Charles,Fiddler и т.д.)\n- Опыт работы 1-3 года\nЖелательно:\n- Умение работать с Docker\n- Python (приветствуется желание развиваться в автотестировании!) \n\n🌴Предлагаем:\n- белая зп (ориентир - 120 000, зависит от опыта);\n- офис в центре Москвы;\n- ДМС,  курсы английского, участие в конференциях. \n\nКонтакт: @Olga11019","markup":[{"type":"hashtag","offset":0,"length":7,"data":"Москва"},{"type":"hashtag","offset":8,"length":9,"data":"вакансия"},{"type":"hashtag","offset":18,"length":3,"data":"QA"},{"type":"hashtag","offset":22,"length":19,"data":"ручноетестирование"},{"type":"hashtag","offset":42,"length":7,"data":"python"},{"type":"hashtag","offset":50,"length":12,"data":"тестировщик"},{"type":"hashtag","offset":63,"length":7,"data":"manual"},{"type":"hashtag","offset":72,"length":17,"data":"автотестирование"},{"type":"hashtag","offset":90,"length":13,"data":"QAAutomation"},{"type":"bold","offset":271,"length":8,"data":""},{"type":"bold","offset":353,"length":10,"data":""},{"type":"bold","offset":843,"length":12,"data":""},{"type":"bold","offset":952,"length":12,"data":""},{"type":"handle","offset":1101,"length":10,"data":"Olga11019"}],"date":"2020-06-30T08:28:10+00:00","link":"tg://resolve?domain=qa_jobs&post=99222","tags":[{"name":"qa"},{"name":"python"},{"name":"unix"},{"name":"sql"},{"name":"git"},{"name":"docker"}],"cities":[{"code":"moscow"}],"allowsRemote":true}},{"node":{"__typename":"Job","id":"104039710720-1001089317451","title":"Qa engineer","text":"#Москва  #QA  #вакансия #офис\nКомпания: Start.ru\n\nМы ищем коллег, которые смогут влиться в нашу команду и вместе с нами развивать и совершенствовать наш сервис!\nУ Вас есть возможность стать частью команды, развивающей первую в Восточной Европе студию с собственным международным VOD сервисом.\nВ данный момент мы усиляем нашу команду по тестированию и в поисках позиций Backend QA Engineer и QA Automation Engineer (python)\n\n———————————\nДолжность: Backend QA Engineer\nЗарплатная вилка: От 80.р. до 120т.р. по результатам собеседования\n\nКакие задачи вы будете решать:\n- Прогон описаных кейсов в TestRail и документация найденых дефектов;\n- Тестирование API (программного интерфейса платформы);\n- Разработка тестовых сценариев;\n- Взаимодействие с разработчиками и сопровождение дефектов до полного их решения;\n- Отладка и сбор логов в процессе воспроизведения проблем\n- Проведение регрессионного тестирования\n\nЧего мы хотим:\n- Вас не пугает работа с командной строкой чаще чем работа с графическим интерфейсом\n- Работа с chromedev tools и командной строкой (bash);\n- Знание и понимания клиент-серверной архитектуры приложений;\n- Понимание принципов работы веб-приложений;\n- Умение грамотно составлять свои мысли в предложения и описывать дефекты, чтобы понятно было разработчикам;\n- Навыки работы с технической документацией, анализ и вычленение требований;\n- Работали с программами-снифферами и проксями траффика (charles/wireshark/fiddler/mitmproxy etc)\n\nБудет плюсом:\n- Если знаете python на уровне, достаточном для автоматизации и сможете прочитать код который на нем написан\n- Знаете что такое DOM-дерево, локаторы и селекторы в контексте веб-приложения\n\n—————————\nДолжность: QA Automation Engineer\nЗарплатная вилка: От 130.р. до 170т.р. по результатам собеседования\n\nУ нас:\nВ нашем проекте есть автоматизация тестирования как API, так и WEB UI. \nНаш стек: Python3, PyTest, Requests, Selenium WebDriver, Selenoid, DB clients (MongoDB, PostgreSQL), JSON validation (jsonschema), TestRail API, Telegram API, GitLab CI. \nПомимо автотестов мы разрабатываем проект нагрузочного тестирования на Locust.\n\nВаши задачи:\n- Расширение покрытия автотестов API, WEB UI\n- Поддержка автотестов в актуальном состоянии\n- Анализ прохождения тестов с возможным заведением багов в Jira\n- Ревью кода\n- Ведение тестовой - документации\n- Написание сценариев нагрузочного тестирования\n\nТребования:\n- Хорошее знание теории тестирования\n- Опыт автоматизированного тестирования от 2х лет\n- Знание Python3, PyTest\n- Навыки написания и использования тестовой документации\n- Умение писать простые запросы на SQL и в MongoDB\n- Навыки работы с Git\n- Обсуждение проблем приложения с разработчиками\n\nБудет плюсом:\n- Опыт написания архитектуры проекта автотестов с нуля\n- Работа с Docker, Docker Compose\n- Опыт работы с Telegram API\n- Опыт описания JSON схем для валидации ответов API\n- Базовые знания в Linux\n\nОт нас:\n- На данный момент условия сотрудничества удаленные, но при нормализации ситуации мы выйдем в офис\n- Офис в районе Хамовники (территориально м.Киевская, м. Спортивная в 20.мин ходьбы)\n- График работы: 5/2 начинаем с 9  до 11 (в целом гибкий - главное результат);\n- Оформление в соответствии с ТК РФ (белая зарплата, отпускные, больничные);\n- Все возможности для прокачки имеющихся скиллов и получения новых;\n- Драйвовая и высокопрофессиональная команда единомышленников;\n- Возможность стать частью динамично развивающегося видеосервиса.\n\n\nВопросы и отклики по вакансии писать в tlgrm: @unambo OR emailto: v.selyanin@start.ru","markup":[{"type":"hashtag","offset":0,"length":7,"data":"Москва"},{"type":"hashtag","offset":9,"length":3,"data":"QA"},{"type":"hashtag","offset":14,"length":9,"data":"вакансия"},{"type":"hashtag","offset":24,"length":5,"data":"офис"},{"type":"link","offset":40,"length":8,"data":"http://Start.ru"},{"type":"handle","offset":3471,"length":7,"data":"unambo"},{"type":"link","offset":3491,"length":19,"data":"mailto:v.selyanin@start.ru"}],"date":"2020-06-30T08:06:32+00:00","link":"tg://resolve?domain=qa_jobs&post=99220","tags":[{"name":"qa"},{"name":"python"},{"name":"bash"},{"name":"web"},{"name":"selenium"},{"name":"mongodb"},{"name":"postgresql"},{"name":"json"},{"name":"gitlab"},{"name":"sql"},{"name":"git"},{"name":"docker"},{"name":"linux"},{"name":"docker-compose"}],"cities":[{"code":"moscow"},{"code":"kiev"}],"allowsRemote":false}},{"node":{"__typename":"Job","id":"104036564992-1001089317451","title":"Qa engineer","text":"#вакансия #москва #полнаязанятость #qaengineer #auto \nКомпания: #Mетрквадратный www.m2.ru\nФормат работы: в данный момент удаленная работа\nЗ/п: от 120к - 180к на руки\nКонтакты: @maxdmitrov\n\nЭто экосистема недвижимости, которая помогает клиентам решать любые жилищные вопросы: от поиска вариантов и оформления сделки до организации ремонта и переезда в новую квартиру. Мы также создаем решения для партнёров и профессиональных участников рынка недвижимости.\n\nНаш стэк:\n• Java\n • Node.js\n • React, TypeScript\n • Kafka, ElasticSearch, gRPC\n • Docker\n\nЧем предстоит заниматься:\n• заниматься задачами по автоматизации тестирования. \n• анализировать и тестировать требования к разрабатываемым приложениям;\n • писать приемочные критерии к пользовательским историям;\n • проводить функциональное, регрессионное и smoke тестирование;\n \n\nЧего мы ждем:\n • глубокое понимание процессов тестирования и разработки ПО;\n • опыт интеграционного тестирования:\n    - системная интеграция;\n    - компонентная интеграция\n • опыт тестирования АРI;\n • опыт автоматизации тестирования на любом стеке.\n\nБудет плюсом\n • опыт исследовательского тестирования;\n • опыт тестирования ПО с микросервисной архитектурой.\n\nМы предлагаем:\n • белая конкурентная ЗП, официальное оформление;\n • гибкий график работы;\n • ДМС, компенсация фитнеса, льготная ставка по ипотеке;","markup":[{"type":"hashtag","offset":0,"length":9,"data":"вакансия"},{"type":"hashtag","offset":10,"length":7,"data":"москва"},{"type":"hashtag","offset":18,"length":16,"data":"полнаязанятость"},{"type":"hashtag","offset":35,"length":11,"data":"qaengineer"},{"type":"hashtag","offset":47,"length":5,"data":"auto"},{"type":"hashtag","offset":64,"length":15,"data":"Mетрквадратный"},{"type":"link","offset":80,"length":9,"data":"http://www.m2.ru"},{"type":"handle","offset":176,"length":11,"data":"maxdmitrov"},{"type":"bold","offset":456,"length":11,"data":""},{"type":"bold","offset":547,"length":26,"data":""},{"type":"bold","offset":825,"length":15,"data":""},{"type":"bold","offset":1075,"length":14,"data":""},{"type":"bold","offset":1184,"length":16,"data":""}],"date":"2020-06-30T08:04:53+00:00","link":"tg://resolve?domain=qa_jobs&post=99217","tags":[{"name":"qa"},{"name":"java"},{"name":"nodejs"},{"name":"reactjs"},{"name":"typescript"},{"name":"kafka"},{"name":"elasticsearch"},{"name":"docker"}],"cities":[{"code":"moscow"}],"allowsRemote":true}},{"node":{"__typename":"Job","id":"104031322112-1001089317451","title":"Qa инженер","text":"#qa #вакансия #fulltime #удаленно\nКомпания: КлаудФэктори (cloudfactory.ru) \n\nCloudfactory  –компания разработчик мобильных приложений. Наша специализация это создание инвестиционных для финансовых компаний и банков на основе собственной платформы. Наши приложения входят в ТОП-100 App Store и Google Play.\n\n\nДолжность: Инженер по ручному и автоматизированному тестированию (QA & Automation Engineer)\n\nПриглашаем  инженера по тестированию в распределенную команда (~50 человек) на интенсивное выполнение задач.\n\nЗП от  100к и по результатам собеседования\nОформление по ТК или возможны иные варианты сотрудничества\n\nОбязанности\n•  Тестирование мобильного приложения (приемочное, регрессионное, исследовательское)\n•  Разбор дефектов, полученных от поддержки\n•  Ведение тестовой документации\n•  Подготовка тестовой среды (формирование данных, локальные изменения хранимых процедур)\n\nТребуемые навыки\n•  Понимание принципов работы мобильного приложения\n•  Знания методов и техник тестирования\n•  Умение работать с Postman / Swagger или аналогами\n•  Умение работать с Fiddler / Charles / Mitmproxy или аналогами\n•  Базовые знания SQL\n•  Самостоятельность и самоорганизованность\n•  Опыт работы от 1 года\nЛичные качества:\n•  Аналитические способности;\n•  Системное мышление;\n•  Ответственность.\n•  Умение работать в команде.\n•  Целеустремленность.\nУсловия работы:\n•  Удаленная работа на полный рабочий день\n•  Работа в стабильной компании\n•  ЗП без задержек.\n•  Оформление по ТК РФ\n•  График работы: 5/2\n\nУ нас интересная команда и хорошие проекты (топ 100 в google play и app store)\nЕсли вас заинтересовало наше предложение, ждем ваши отклики на e-mail: guskov@cloudfactory.ru  или в Телеграмм  @ConstG","markup":[{"type":"hashtag","offset":0,"length":3,"data":"qa"},{"type":"hashtag","offset":4,"length":9,"data":"вакансия"},{"type":"hashtag","offset":14,"length":9,"data":"fulltime"},{"type":"hashtag","offset":24,"length":9,"data":"удаленно"},{"type":"link","offset":58,"length":15,"data":"http://cloudfactory.ru"},{"type":"link","offset":1647,"length":22,"data":"mailto:guskov@cloudfactory.ru"},{"type":"handle","offset":1688,"length":7,"data":"ConstG"}],"date":"2020-06-30T07:23:10+00:00","link":"tg://resolve?domain=qa_jobs&post=99212","tags":[{"name":"qa"},{"name":"playframework"},{"name":"swagger"},{"name":"sql"}],"cities":[],"allowsRemote":true}},{"node":{"__typename":"Job","id":"104009302016-1001089317451","title":"Qa инженер","text":"#вакансия #qa #middle+ #москва #удаленнаяработа\n\nКомпания VMB -  мы создаём веб/мобильные приложения и сложные информационные системы. Мы расширяемся и ищем еще одного крутого тестировщика с коммерческим опытом работы (обязательно).\n\nЗадачи:\n- ручное, функциональное, интеграционное, регрессивное, нагрузочное тестирование веб/мобильных приложений\n- регистрация обнаруженных дефектов в багтрекинг-системе, отслеживание исправления дефектов и их повторное тестирование.\n\nЧто ждём от вас?\n- опыт тестирования веб и мобильных приложений от 2х лет\n- умение писать понятные и работающие тест-кейсы\n- опыт работы с багтрекинговыми системами\n\nМы предлагаем:\n- возможность работать удаленно \n- ЗП вилка 80к - 100к рублей на руки\n- участие в интересных и известных проектах\n- возможность карьерного роста и профессионального развития\n- гибкое начало рабочего дня\n\nКонтакты\n@nariarakel","markup":[{"type":"hashtag","offset":0,"length":9,"data":"вакансия"},{"type":"hashtag","offset":10,"length":3,"data":"qa"},{"type":"hashtag","offset":14,"length":7,"data":"middle"},{"type":"hashtag","offset":23,"length":7,"data":"москва"},{"type":"hashtag","offset":31,"length":16,"data":"удаленнаяработа"},{"type":"bold","offset":189,"length":28,"data":""},{"type":"italic","offset":323,"length":25,"data":""},{"type":"handle","offset":864,"length":11,"data":"nariarakel"}],"date":"2020-06-29T16:32:41+00:00","link":"tg://resolve?domain=qa_jobs&post=99191","tags":[{"name":"qa"}],"cities":[{"code":"moscow"}],"allowsRemote":true}},{"node":{"__typename":"Job","id":"103982039040-1001089317451","title":"Qa инженер","text":"#вакансия#QAAutomation#тестировщик #атоматизация #Тюмень #офис \n\n🏢Компания: Creative\n🏙Город: Тюмень, ул. Малыгина, 84/1\n💰Зп: от 85к (обсуждается по результатам собеседования)\n\nФормат работы: офис \nЗанятость: полная\nМы занимаемся веб и мобильной разработкой: помогаем нашим клиентам эффективно инвестировать деньги в цифровую среду и стремимся стать лидерами на российском рынке.\nСейчас у нас в работе флагманский проект с крупнейшим банком TOP-5 в России по разработке сервиса для поиска и заказа услуг самозанятых. Мы активно формируем команду разработчиков на долгосрочный проект.\n\nЗадачи: \n✔️ Написание и поддержка behat-тестов на API продукта (backend), \n✔️Написание и поддержка Java+Selenium-тестов на интерфейсную часть продукта (frontend). \n\nТребования:\n ✔️Знание behat фреймворка тестирования и умение его применять\n✔️ Знания в PHP на уровне, достаточном для поддержания behat-сценариев - написание бэкдоров\n✔️Знания в Java на уровне, достаточном для написания сценариев тестирования на связка Java+Selenium\n\nУсловия:\n✔️Конкурентная заработная плата;\n✔️работаем с 10:00 до 19:00. График индивидуально корректируемый. Иногда можно работать из дома. Обед можно смещать.\n✔️возможность пробовать новый стек;\n✔️пятничные встречи с интересными ребятами, английский прямо в офисе, поездки на конференции, обучение друг друга внутри компании;\n✔️современный офис в центре города;\n✔️программа релокации по переезду в г. Тюмень\n\n📲Контакты: m.zinoveva@rabota.ru или в лс (в телеге)","markup":[{"type":"hashtag","offset":35,"length":13,"data":"атоматизация"},{"type":"hashtag","offset":49,"length":7,"data":"Тюмень"},{"type":"hashtag","offset":57,"length":5,"data":"офис"},{"type":"link","offset":1441,"length":20,"data":"mailto:m.zinoveva@rabota.ru"}],"date":"2020-06-29T13:23:17+00:00","link":"tg://resolve?domain=qa_jobs&post=99165","tags":[{"name":"qa"},{"name":"java"},{"name":"selenium"},{"name":"php"}],"cities":[{"code":"tyumen"}],"allowsRemote":false}},{"node":{"__typename":"Job","id":"103979941888-1001089317451","title":"Qa инженер","text":"#вакансия #QA #тестировщик #part-time #home-office #удалёнка #удаленная_работа #Новосибирск\n✅ Должность: Тестировщик ПО / QA engineer\n✅ Компания: Albatross Internet Group состоит из нескольких интернет-проектов со своими командами. \nМы поддерживаем атмосферу стартапа, чтобы оставаться гибкими и уметь оперативно принимать решения.\n✅ В одном из наших ключевых проектов открыта позиция QA инженер на part-time удаленную работу 8-10 часов в неделю.\n✅ Требуемый опыт работы: 1–3 года\n\n✅ Какие задачи тебя ждут?\n- тестирование задач по требованиям;\n- регрессионное тестирование на тестовом/боевом серверах;\n- формирование чек-листов;\n- написание технической документации по задачам;\n- автоматизация тестирования на Selenium(если опыта нет - не проблема, можем отправить на курсы);\n- постановка ТЗ для задач.\n\n✅ Чего мы ожидаем?\n- опыт тестирования браузерных приложений и нативных (IOS/Android);\n- умение применять на практике техники тест дизайна;\n- внимательность к деталям и неуклонное желание что-нибудь сломать;\n- понимание методологии разработки и тестирования ПО;\n- навыки в составлении и использовании тестовой документации (чек-листы, тест-кейсы, отчеты о тестировании);\n- опыт работы с Jira, Confluence.\n\n✅ Что будет преимуществом?\n- опыт автоматизации тестирования (желательно на Selenium);\n- опыт работы с системой контроля версий git;\n- опыт работы с Jenkins;\n- опыт написания SQL запросов (MySQL);\n- опыт работы с testRail, Postman;\n- опыт работы с Docker.\n\n✅ Условия:\n- оплата: до 300 руб./час\n- плавающий график\n- обучение за счет компании\n✅ Отклики с пометкой QA можно присылать на hr@albatrosscom.ru или сразу пишите @Tetyana7","markup":[{"type":"hashtag","offset":0,"length":9,"data":"вакансия"},{"type":"hashtag","offset":10,"length":3,"data":"QA"},{"type":"hashtag","offset":14,"length":12,"data":"тестировщик"},{"type":"hashtag","offset":27,"length":5,"data":"part"},{"type":"hashtag","offset":38,"length":5,"data":"home"},{"type":"hashtag","offset":51,"length":9,"data":"удалёнка"},{"type":"hashtag","offset":61,"length":17,"data":"удаленная_работа"},{"type":"hashtag","offset":79,"length":12,"data":"Новосибирск"},{"type":"link","offset":1595,"length":18,"data":"mailto:hr@albatrosscom.ru"},{"type":"handle","offset":1631,"length":9,"data":"Tetyana7"}],"date":"2020-06-29T12:44:10+00:00","link":"tg://resolve?domain=qa_jobs&post=99163","tags":[{"name":"qa"},{"name":"selenium"},{"name":"ios"},{"name":"android"},{"name":"git"},{"name":"jenkins"},{"name":"sql"},{"name":"mysql"},{"name":"docker"}],"cities":[{"code":"novosibirsk"}],"allowsRemote":true}},{"node":{"__typename":"Job","id":"103975747584-1001089317451","title":"Qa engineer","text":"#Москва  #QA  #вакансия #офис\nКомпания: Start.ru\n\nМы ищем коллег, которые смогут влиться в нашу команду и вместе с нами развивать и совершенствовать наш сервис!\nУ Вас есть возможность стать частью команды, развивающей первую в Восточной Европе студию с собственным международным VOD сервисом.\nВ данный момент мы усиляем нашу команду по тестированию и в поисках позиций Backend QA Engineer и QA Automation Engineer (python)\n\n———————————\nДолжность: Backend QA Engineer\nЗарплатная вилка: От 80.р. до 120т.р. по результатам собеседования\n\nКакие задачи вы будете решать:\n- Прогон описаных кейсов в TestRail и документация найденых дефектов;\n- Тестирование API (программного интерфейса платформы);\n- Разработка тестовых сценариев;\n- Взаимодействие с разработчиками и сопровождение дефектов до полного их решения;\n- Отладка и сбор логов в процессе воспроизведения проблем\n- Проведение регрессионного тестирования\n\nЧего мы хотим:\n- Вас не пугает работа с командной строкой чаще чем работа с графическим интерфейсом\n- Работа с chromedev tools и командной строкой (bash);\n- Знание и понимания клиент-серверной архитектуры приложений;\n- Понимание принципов работы веб-приложений;\n- Умение грамотно составлять свои мысли в предложения и описывать дефекты, чтобы понятно было разработчикам;\n- Навыки работы с технической документацией, анализ и вычленение требований;\n- Работали с программами-снифферами и проксями траффика (charles/wireshark/fiddler/mitmproxy etc)\n\nБудет плюсом:\n- Если знаете python на уровне, достаточном для автоматизации и сможете прочитать код который на нем написан\n- Знаете что такое DOM-дерево, локаторы и селекторы в контексте веб-приложения\n\n—————————\nДолжность: QA Automation Engineer\nЗарплатная вилка: От 130.р. до 170т.р. по результатам собеседования\n\nУ нас:\nВ нашем проекте есть автоматизация тестирования как API, так и WEB UI. \nНаш стек: Python3, PyTest, Requests, Selenium WebDriver, Selenoid, DB clients (MongoDB, PostgreSQL), JSON validation (jsonschema), TestRail API, Telegram API, GitLab CI. \nПомимо автотестов мы разрабатываем проект нагрузочного тестирования на Locust.\n\nВаши задачи:\n- Расширение покрытия автотестов API, WEB UI\n- Поддержка автотестов в актуальном состоянии\n- Анализ прохождения тестов с возможным заведением багов в Jira\n- Ревью кода\n- Ведение тестовой - документации\n- Написание сценариев нагрузочного тестирования\n\nТребования:\n- Хорошее знание теории тестирования\n- Опыт автоматизированного тестирования от 2х лет\n- Знание Python3, PyTest\n- Навыки написания и использования тестовой документации\n- Умение писать простые запросы на SQL и в MongoDB\n- Навыки работы с Git\n- Обсуждение проблем приложения с разработчиками\n\nБудет плюсом:\n- Опыт написания архитектуры проекта автотестов с нуля\n- Работа с Docker, Docker Compose\n- Опыт работы с Telegram API\n- Опыт описания JSON схем для валидации ответов API\n- Базовые знания в Linux\n\nОт нас:\n- На данный момент условия сотрудничества удаленные, но при нормализации ситуации мы выйдем в офис\n- Офис в районе Хамовники (территориально м.Киевская, м. Спортивная в 20.мин ходьбы)\n- График работы: 5/2 начинаем с 9  до 11 (в целом гибкий - главное результат);\n- Оформление в соответствии с ТК РФ (белая зарплата, отпускные, больничные);\n- Все возможности для прокачки имеющихся скиллов и получения новых;\n- Драйвовая и высокопрофессиональная команда единомышленников;\n- Возможность стать частью динамично развивающегося видеосервиса.\n\n\nВопросы и отклики по вакансии писать в tlgrm: @unambo OR emailto: v.selyanin@start.ru","markup":[{"type":"hashtag","offset":0,"length":7,"data":"Москва"},{"type":"hashtag","offset":9,"length":3,"data":"QA"},{"type":"hashtag","offset":14,"length":9,"data":"вакансия"},{"type":"hashtag","offset":24,"length":5,"data":"офис"},{"type":"link","offset":40,"length":8,"data":"http://Start.ru"},{"type":"handle","offset":3471,"length":7,"data":"unambo"},{"type":"link","offset":3491,"length":19,"data":"mailto:v.selyanin@start.ru"}],"date":"2020-06-29T11:07:45+00:00","link":"tg://resolve?domain=qa_jobs&post=99159","tags":[{"name":"qa"},{"name":"python"},{"name":"bash"},{"name":"web"},{"name":"selenium"},{"name":"mongodb"},{"name":"postgresql"},{"name":"json"},{"name":"gitlab"},{"name":"sql"},{"name":"git"},{"name":"docker"},{"name":"linux"},{"name":"docker-compose"}],"cities":[{"code":"moscow"},{"code":"kiev"}],"allowsRemote":false}},{"node":{"__typename":"Job","id":"103974699008-1001089317451","title":"Qa инженер","text":"#вакансия #QA #офис #fulltime #Москва #Jira \n\nQA инженер\n⠀\nТребуемый опыт работы: 1–3 года\nФормат: офис / fulltime (сейчас удалённо, далее офис)\nЗарплата до 170 gross + 20 % годовой бонус + ДМС\nКомпания: 5POST (подразделение X5 Retail Group)\n\nЛокация: г.Москва  / МЦК Калитники 4 мин. пешком / м. Волгоградский проспект\nСсылка на компанию: https://fivepost.ru/\n\n5POST - новое логистическое подразделение X5 Retail Group, которое развивает услуги доставки заказов для e-commerce в пункты выдачи и автоматизированные пункты выдачи (постаматы) \n\nПроект находится в стадии активного роста и развития, наши амбициозные цели позволяют в своей работе использовать только новые и надежные технологии.\n⠀\nДля удобства наших клиентов мы интегрированы с AliExpress, Ozon, Беру и другими интернет-магазинами. \n⠀\nНаша цель - доставлять 1 000 000 посылок в сутки.\n⠀\nДля обеспечения такой производительности мы развернули несколько десятков микросервисов, отмасштабировали между ними нагрузку и продолжаем работать над оптимизациями.\n\nОбязанности:\n- обеспечение качественного и своевременного исполнения работ по тестированию;\n- минимизация дефектов, выявленных в системе, после переноса протестированного релиза в продуктивную эксплуатацию;\n- осуществление анализа функциональных и бизнес - требований;\n- написание и актуализация тестовых сценариев;\n- осуществление контроля за устранением дефектов в установленные сроки (SLA);\n- проведение тестирования (функциональное, регрессионное, интеграционное);\n- взаимодействие с разработчиками и аналитиками по вопросам тестирования;\n- подготовка отчетов о ходе тестирования.\n⠀\nТребования:\n- опыт тестирования (глубокое и системное понимание тестирование и его методов);\n- опыт создания тестовой документации;\n- разработка автотестов для основных сценариев;\n- опыт разработки скриптов для автоматизации повседневных задач;\n- развертывание и настройка тестовых сред;\n- понимание принципов работы клиент - сервисных приложений;\n- Jira;\n⠀\nУсловия:\n- работа в динамично развивающемся бизнесе 5Post;\n- офис в районе м. Волгоградский проспект;\nСкидки в наших магазинах (Пятерочка, Перекресток, Карусель);\n- ДМС (после прохождения испытательного срока);\n- корпоративное обучение;\n- корпоративная йога в офисе;\n- обширная партнерская программа лояльности;\n- бесплатная парковка;\n- возможность развития и карьерного роста.\n⠀\nКонтакты: @ValeryBurkina","markup":[{"type":"hashtag","offset":0,"length":9,"data":"вакансия"},{"type":"hashtag","offset":10,"length":3,"data":"QA"},{"type":"hashtag","offset":14,"length":5,"data":"офис"},{"type":"hashtag","offset":20,"length":9,"data":"fulltime"},{"type":"hashtag","offset":30,"length":7,"data":"Москва"},{"type":"hashtag","offset":38,"length":5,"data":"Jira"},{"type":"bold","offset":46,"length":10,"data":""},{"type":"bold","offset":145,"length":98,"data":""},{"type":"link","offset":340,"length":20,"data":"https://fivepost.ru/"},{"type":"handle","offset":2354,"length":14,"data":"ValeryBurkina"}],"date":"2020-06-29T11:06:31+00:00","link":"tg://resolve?domain=qa_jobs&post=99158","tags":[{"name":"qa"}],"cities":[{"code":"moscow"}],"allowsRemote":true}}]}}},"context":{}}