{"hash":"f34fd2c444a074f4e0e67d525015a008ef8e766f","data":{"records":{"id":"react-redux","name":"react-redux","belongsTo":{"totalCount":11,"pageInfo":{"totalPages":2,"currentPage":1},"edges":[{"node":{"__typename":"Job","id":"16258170880-1001110946746","title":"Js разработчик","text":"#Вакансия #Удаленка #Fulltime #JS #React #Redux #job \n\nВсем привет 👋\n\nНахожусь в поиске Frontend разработчика на React.JS для компании «Binance».\n\nО компании: binance.com\nНазвание компании: Binance Exchange - ведущая крипто-биржа по объему торгов и количеству пользователей, с клиентами в более чем 180 странах и регионах.\n\nФормат работы: fulltime, remote\nЗарплатная вилка: от 3000 до 3500$ (выдаётся в криптовалюте).\n\nЗадачи:\n• Внедрение новых функций, ориентированных на пользователя, в продуктах Binance, которые ежедневно используют огромное количество PV;\n• Написание клиентского кода для создания сверхбыстрых, простых в использовании веб-приложений, которые включают веб-сайт для настольных и мобильных браузеров и гибридные страницы в приложениях;\n• Оптимизация веб-приложений для максимизации скорости и масштабирования;\n• Создание библиотек и сред, поддерживающих сложные веб-приложения, ускоряющих эффективность разработки и улучшающих качество кода.\n\nОт вас:\n• 3-5+ лет на разработку производственного кода JavaScript и глубокое знание React.JS;\n• Понимание шаблонов управления состоянием, таких как Redux, Flux или аналогичных;\n• Опыт разработки адаптивных веб-сайтов для различных клиентов, от мощных desktop компьютеров до небольших мобильных устройств;\n• Опыт работы с интерфейсными технологиями (styled system, webpack, etc);\n• Cвободное владение английским языком.\n\nОт нас: \n• График работы желательно с 9:00 (нужно будет общаться с командой из Сингапура);\n• Большие возможности карьерного роста в растущей компании;\n• Возможность переезда и международных переводов;\n• Делать что-то значимое. Станьте частью будущего финансовых технологий и первой в отрасли компании.\n\nБолее подробно готов ответить в ЛС: @dobrkakbobr8\n\n—\n\n👉 Обсуждение вакансии в чате @javascript_jobs","markup":[{"type":"hashtag","offset":0,"length":9,"data":"Вакансия"},{"type":"hashtag","offset":10,"length":9,"data":"Удаленка"},{"type":"hashtag","offset":20,"length":9,"data":"Fulltime"},{"type":"hashtag","offset":30,"length":3,"data":"JS"},{"type":"hashtag","offset":34,"length":6,"data":"React"},{"type":"hashtag","offset":41,"length":6,"data":"Redux"},{"type":"hashtag","offset":48,"length":4,"data":"job"},{"type":"link","offset":160,"length":11,"data":"http://binance.com"},{"type":"handle","offset":1724,"length":13,"data":"dobrkakbobr8"},{"type":"handle","offset":1772,"length":16,"data":"javascript_jobs"}],"date":"2020-04-10T09:31:53+00:00","link":"tg://resolve?domain=javascript_jobs_feed&post=15505","tags":[{"name":"javascript"},{"name":"reactjs"},{"name":"redux"},{"name":"webpack"},{"name":"react-redux"}],"cities":[],"allowsRemote":true}},{"node":{"__typename":"Job","id":"16251879424-1001110946746","title":"Javascript разработчик","text":"#вакансия #javascript #typescript #react #удаленка\n\nГород и адрес офиса: любой\nФормат работы: удаленка\nЗанятость: полная\nЗарплатная вилка: от 130 000 до 160 000 рублей (на руки)\n\nОписание вакансии: Senior Frontend-разработчик на проект из банковской сферы. Нам нужен человек, который не боится решать задачи любой сложности и может научить этому (и не только этому) свою команду.\n\nСтек технологий:\n– JavaScript, TypeScript;\n– React, Redux, Redux-Saga;\n– Babel (ES 2016+), Webpack или Gulp, Git, БЭМ.\n\nНазвание компании: CSSSR\nКонтакты: @lena_bezbatchenko\n\n—\n\n👉 Обсуждение вакансии в чате @javascript_jobs","markup":[{"type":"hashtag","offset":0,"length":9,"data":"вакансия"},{"type":"hashtag","offset":10,"length":11,"data":"javascript"},{"type":"hashtag","offset":22,"length":11,"data":"typescript"},{"type":"hashtag","offset":34,"length":6,"data":"react"},{"type":"hashtag","offset":41,"length":9,"data":"удаленка"},{"type":"handle","offset":536,"length":18,"data":"lena_bezbatchenko"},{"type":"handle","offset":589,"length":16,"data":"javascript_jobs"}],"date":"2020-04-10T09:27:39+00:00","link":"tg://resolve?domain=javascript_jobs_feed&post=15499","tags":[{"name":"javascript"},{"name":"typescript"},{"name":"reactjs"},{"name":"redux"},{"name":"webpack"},{"name":"gulp"},{"name":"git"},{"name":"react-redux"}],"cities":[],"allowsRemote":true}},{"node":{"__typename":"Job","id":"16249782272-1001110946746","title":"Js разработчик","text":"#вакансия #javascript #react\n\nГород: Москва\nФормат работы: офис (но на время карантина удаленка)\nЗанятость: полная\nЗарплатная вилка: от 180 000 до 220 000 рублей (на руки)\n\nОписание вакансии: ищем senior frontend разработчика, который:\n\n✅ Очень хорошо знает JavaScript и React. Понимает на что нужно обращать внимание при разработке страниц;\n✅ Командный игрок и хочет обсуждать как технические, так и продуктовые идеи;\n✅ Умеет в проектирование архитектуры frontend для сложных интернет-проектов;\n✅ Имеет опыт в формировании требований к api;\n✅ Любит и понимает необходимость функциональных и unit-тестов.\n\nНаш идеальный кандидат:\n\nЗнает на отлично:\n\n✅ HTML5;\n✅ Browser API;\nособенности кроссбраузерной и адаптивной верстки;\n✅ CSS3/CSS;\n✅ JavaScript (ES6);\n✅ React, Redux, Redux-Saga, Reselect, Styled Components, SSR.\n✅ Умеет в работать с Git;\n✅ Умеет работать в Unix-окружении;\n✅ Имеет опыт работы с системами сборки Webpack, Gulp, настройка Babel.\n\nХорошим плюсом будет:\n\n✅ Знание NodeJS;\n✅ Опыт разработки SPA на React;\n✅ Опыт работы с Vue, Vuex;\n✅ Опыт использования препроцессоров (SASS, Less).\n\nМы предлагаем участие в разработке новых проектов:\n\n✅ Продуктовая разработка проработка задачи с первых этапов, декомпозиция, кодинг, отслеживание результатов;\n✅Построение команды: найм, обучение и мотивация разработчиков;\n✅ Интересные и сложные задачи;\n✅ Обязательное ревью кода;\n✅ Итеративная разработка большие проекты дробим на небольшие задачи и выпускаем постепенно;\n✅ Регулярные демо владельцам продуктов и взаимодействие с ними напрямую.\n\nНаши условия:\n\n✅ Современный процесс разработки, командная работа, молодой дружный коллектив, помощь и поддержка. Мы используем git, GitLab CI\\CD и др. современные средства разработки;\n✅ Белая зарплата и полное соблюдение ТК РФ;\n✅ Гибкий график работы;\n✅ Крутой офис в стиле фьюжн, в котором можно поиграть в VR, настольный теннис, видеоигры и даже поспать! Находится рядом со ст. м. Дмитровская, около «Флакона» и «Хлебозавода»;\n✅ Бесплатный фитнес с бассейном;\n✅ Корпоративные завтраки в офисе, любые напитки и фрукты круглый год;\n✅ДМС после прохождения испытательного срока;\n✅ Возможность быстрого профессионального роста, адекватное руководство и прекрасных коллег.\n\nНазвание компании: Admitad/Projects (https://admitad.pro/)\n\nКонтакты: @nadezhda_elizbarovna или n.isaeva@admitad.com\n\n—\n\n👉 Обсуждение вакансии в чате @javascript_jobs","markup":[{"type":"hashtag","offset":0,"length":9,"data":"вакансия"},{"type":"hashtag","offset":10,"length":11,"data":"javascript"},{"type":"hashtag","offset":22,"length":6,"data":"react"},{"type":"link","offset":2256,"length":20,"data":"https://admitad.pro/"},{"type":"handle","offset":2289,"length":21,"data":"nadezhda_elizbarovna"},{"type":"link","offset":2315,"length":20,"data":"mailto:n.isaeva@admitad.com"},{"type":"handle","offset":2370,"length":16,"data":"javascript_jobs"}],"date":"2020-04-10T09:26:19+00:00","link":"tg://resolve?domain=javascript_jobs_feed&post=15497","tags":[{"name":"javascript"},{"name":"reactjs"},{"name":"html"},{"name":"css"},{"name":"redux"},{"name":"git"},{"name":"unix"},{"name":"webpack"},{"name":"gulp"},{"name":"nodejs"},{"name":"vuejs"},{"name":"sass"},{"name":"gitlab"},{"name":"react-redux"}],"cities":[{"code":"moscow"}],"allowsRemote":true}},{"node":{"__typename":"Job","id":"1431306240-1001091028994","title":"Java разработчик","text":"#scala #teamlead #senior #офис #удаленно #fulltime #Москва\n\nПриглашаем Scala-разработчика уровня senior-teamlead, 220-270 тыс. на руки.\n\nТребования:\nлидировать и развивать команду разработчиков\nразвивать backend приложение на Akka HTTP\nпрорабатывать интеграции для сервисов на Java (Spring Cloud)\nинтегрироваться со стеком Kafka, MQ, Redis, Orcale SQL, Postgres\nfrontend разработка (React, Redux, Typescript, собственная библиотека компонентов)\nработать с витринами на Spark, Hadoop\nразработать web-scraper на Akka Streams\nподдерживать процесс сборки и тестирования (git, Ansible, Jenkins, Docker, OpenShift)\n\nСбербанк, Москва, Кутузовская\n\nКонтакты: @MikeTurchenkov","markup":[{"type":"hashtag","offset":0,"length":6,"data":"scala"},{"type":"hashtag","offset":7,"length":9,"data":"teamlead"},{"type":"hashtag","offset":17,"length":7,"data":"senior"},{"type":"hashtag","offset":25,"length":5,"data":"офис"},{"type":"hashtag","offset":31,"length":9,"data":"удаленно"},{"type":"hashtag","offset":41,"length":9,"data":"fulltime"},{"type":"hashtag","offset":51,"length":7,"data":"Москва"},{"type":"handle","offset":651,"length":15,"data":"MikeTurchenkov"}],"date":"2020-04-09T11:58:52+00:00","link":"tg://resolve?domain=jvmjobs&post=1365","tags":[{"name":"java"},{"name":"jvm"},{"name":"scala"},{"name":"akka"},{"name":"spring"},{"name":"cloud"},{"name":"kafka"},{"name":"redis"},{"name":"sql"},{"name":"postgresql"},{"name":"reactjs"},{"name":"redux"},{"name":"typescript"},{"name":"hadoop"},{"name":"web"},{"name":"git"},{"name":"ansible"},{"name":"jenkins"},{"name":"docker"},{"name":"react-redux"}],"cities":[{"code":"moscow"}],"allowsRemote":true}},{"node":{"__typename":"Job","id":"16239296512-1001110946746","title":"Js разработчик","text":"#вакансия #frontend #react #redux #js\n\nГород: Релокация в г. Лимасол, Кипр (сейчас сразу удаленка, до открытия границ, потом переезд)\nФормат работы: офис /Занятость: полная\nЗарплатная вилка: от 3300 до 3500 евро на руки +ежеквартальный бонус в размере 70-100% зарплаты\nКомпания: Clever Recruiting Company \n\nSenior Frontend Developer В Международную фин-тех компанию на Кипре.\n \n Требования:\n• От 3 лет работы в должности frontend разработчика\n• Обязательно опыт коммерческой разработки на связке React+Redux \n• Опыт разработки SPA\n• Опыт использования ECMAScript 2017\n \nУсловия:\n• Релокационный пакет и визовая поддержка для сотрудника и членов семьи\n• Авто в личное пользование \n•Спорт зал с тренером, питание, врач в офисе\n• Медицинская страховка (стомотология)\n• Компенсация расходов на детский сад и школу\n\nДля вопросов: @Marina_Pelikh\nДля резюме: m.chetverikova@clever-recruiting.com","markup":[{"type":"hashtag","offset":0,"length":9,"data":"вакансия"},{"type":"hashtag","offset":10,"length":9,"data":"frontend"},{"type":"hashtag","offset":20,"length":6,"data":"react"},{"type":"hashtag","offset":27,"length":6,"data":"redux"},{"type":"hashtag","offset":34,"length":3,"data":"js"},{"type":"handle","offset":825,"length":14,"data":"Marina_Pelikh"},{"type":"link","offset":852,"length":36,"data":"mailto:m.chetverikova@clever-recruiting.com"}],"date":"2020-04-09T09:24:22+00:00","link":"tg://resolve?domain=javascript_jobs_feed&post=15487","tags":[{"name":"javascript"},{"name":"reactjs"},{"name":"redux"},{"name":"react-redux"}],"cities":[],"allowsRemote":true}},{"node":{"__typename":"Job","id":"16207839232-1001110946746","title":"Javascript разработчик","text":"#вакансия #ReactNative #Спб #офис #middle #senior \n\nКомпания: White Code \nЛокация: Санкт-Петербург, ст.м. Петроградская\nФормат работы: офис, fulltime\nЗанятость: полная\nЗарплатная вилка: 170 000 - 300 000 Net рублей (для кандидатов уровня Senior готовы обсуждать выше) \n\n🔈Компания White Code в поисках Senior и Middle React Native developers. \n\n🌏White Code - это продуктовая IT компания, которая занимается разработкой и запуском собственных веб и мобильных приложений для международного рынка. За более чем 10-летний опыт работы ребята научились решать широкий спектр задач, на сегодняшний день их продуктами и сервисами воспользовались уже более полу миллиарда человек по всему миру. \n\nОсновные продукты, над которыми сейчас работает компания: S-browser - первый в мире веб–браузер, который защищает не только телефон, но и мобильный счет, CB.click - сервис для сокращения длинных ссылок с раширенными возможностями и статистикой, MemesTab - портал для публикации мемов, браузер CryptoTab — первый в мире браузер с функцией майнинга, Orange Pie, truWallet, HandyTab и другие. \n\n💠White Code - это профессиональная команда технарей, всего в компании 13 разработчиков, все процессы выстроены по agile, у каждого члена команды есть возможность напрямую влиять на развитие продукта и участвовать в выборе технологий. \n\n💠Что нужно знать и уметь:\n- уверенные знания JavaScript;\n- опыт работы с React Native от 1 года, React, Redux/MobX;\nЗнание и понимание native Java, Objective-C. \n\n💠Что получите вы: \n- официальное трудоустройство и белую зп;  \n- рабочее место в комфортном офисе в пешей доступности от м. Петроградская;\n- возможность быстрого карьерного роста в молодом коллективе;\n- гибкое время прихода на работу и различные бенефиты: бонусная программа, хороший дмс со стоматологией, компенсация обедов, фитнес зал при офисе, возможность выбрать удобную рабочую технику (выбор большинства iMac 27). \n\nКонтакты:\ntelegram: @sobolevavalery\nБуду рада ответить на все вопросы и рассказать подробнее о компании 😊","markup":[{"type":"hashtag","offset":0,"length":9,"data":"вакансия"},{"type":"hashtag","offset":10,"length":12,"data":"ReactNative"},{"type":"hashtag","offset":23,"length":4,"data":"Спб"},{"type":"hashtag","offset":28,"length":5,"data":"офис"},{"type":"hashtag","offset":34,"length":7,"data":"middle"},{"type":"hashtag","offset":42,"length":7,"data":"senior"},{"type":"link","offset":843,"length":8,"data":"http://CB.click"},{"type":"handle","offset":1926,"length":15,"data":"sobolevavalery"}],"date":"2020-04-07T18:36:10+00:00","link":"tg://resolve?domain=javascript_jobs_feed&post=15457","tags":[{"name":"javascript"},{"name":"dotnet"},{"name":"reactjs"},{"name":"redux"},{"name":"java"},{"name":"objective-c"},{"name":"react-native"},{"name":"react-redux"}],"cities":[],"allowsRemote":false}},{"node":{"__typename":"Job","id":"16190013440-1001110946746","title":"Js разработчик","text":"#Вакансия #Удаленка #Fulltime #JS #React #Redux #job \n\nВсем привет 👋\n\nНахожусь в поиске Frontend разработчика на React.JS для компании «Binance».\n\nО компании: binance.com\nНазвание компании: Binance Exchange - ведущая крипто-биржа по объему торгов и количеству пользователей, с клиентами в более чем 180 странах и регионах.\n\nФормат работы: fulltime, remote\nЗарплатная вилка: от 3000 до 3500$ (выдаётся в криптовалюте).\n\nЗадачи:\n• Внедрение новых функций, ориентированных на пользователя, в продуктах Binance, которые ежедневно используют огромное количество PV;\n• Написание клиентского кода для создания сверхбыстрых, простых в использовании веб-приложений, которые включают веб-сайт для настольных и мобильных браузеров и гибридные страницы в приложениях;\n• Оптимизация веб-приложений для максимизации скорости и масштабирования;\n• Создание библиотек и сред, поддерживающих сложные веб-приложения, ускоряющих эффективность разработки и улучшающих качество кода.\n\nОт вас:\n• 3-5+ лет на разработку производственного кода JavaScript и глубокое знание React.JS;\n• Понимание шаблонов управления состоянием, таких как Redux, Flux или аналогичных;\n• Опыт разработки адаптивных веб-сайтов для различных клиентов, от мощных desktop компьютеров до небольших мобильных устройств;\n• Опыт работы с интерфейсными технологиями (styled system, webpack, etc);\n• Cвободное владение английским языком.\n\nОт нас: \n• График работы желательно с 9:00 (нужно будет общаться с командой из Сингапура);\n• Большие возможности карьерного роста в растущей компании;\n• Возможность переезда и международных переводов;\n• Делать что-то значимое. Станьте частью будущего финансовых технологий и первой в отрасли компании.\n\nБолее подробно готов ответить в ЛС: @dobrkakbobr8","markup":[{"type":"hashtag","offset":0,"length":9,"data":"Вакансия"},{"type":"hashtag","offset":10,"length":9,"data":"Удаленка"},{"type":"hashtag","offset":20,"length":9,"data":"Fulltime"},{"type":"hashtag","offset":30,"length":3,"data":"JS"},{"type":"hashtag","offset":34,"length":6,"data":"React"},{"type":"hashtag","offset":41,"length":6,"data":"Redux"},{"type":"hashtag","offset":48,"length":4,"data":"job"},{"type":"link","offset":160,"length":11,"data":"http://binance.com"},{"type":"handle","offset":1724,"length":13,"data":"dobrkakbobr8"}],"date":"2020-04-06T11:19:51+00:00","link":"tg://resolve?domain=javascript_jobs_feed&post=15440","tags":[{"name":"javascript"},{"name":"reactjs"},{"name":"redux"},{"name":"webpack"},{"name":"react-redux"}],"cities":[],"allowsRemote":true}},{"node":{"__typename":"Job","id":"16186867712-1001110946746","title":"Js разработчик","text":"#frontend #вакансия #Москва #fulltime #middle #senior #react #работа\nГород и адрес офиса: Москва, между метро Нагатинская и Тульская, мцк Верхние котлы \nФормат работы: офис\nЗанятость:полная\nОплата: 150- 250 Net\nОписание вакансии:\n💥Команда Product Catalog  ищет сильного Frontend-разработчика!🙌\n💥Проект Product Catalog-это облачное решение, которое позволяет бизнесу вести все свои продукты (карты, вклады, продукты партнеров и и.п) в едином месте, гибко управлять всеми элементами 4P (product,price, promotion, place) и мгновенно выводить все изменения на рынок. Архитектура системы состоит из 11 модулей, половина из них в Production, другая половина требует проектирования и разработки. Продукт активно развивается, поэтому мы хотим усилить нашу команду. От нас вы получите опыт и развитие компетенций, амбициозные задачи, карьерный рост и открытость к инновациям!\n💥Стек: React JS, react-redux, webPack, CSS, HTML, Java, Spring, Git, Maven.\n💥 Процесс разработки : Scrum, Jira, Gitfliw, Devops до Production (переход на OpenShift)\n💥-Оформление ТК РФ;\n     -ДМС;\n     - Белая заработная плата (оклад + годовая премия);\n     -Возможность обучения за счет компании;\n     -   Льготное кредитование;\n      -Бесплатный тренажерный зал на территории офиса;\n       - корпоративная жизнь и спортивные мероприятия;\n       -возможность карьерного роста.\nКомпания: СберТех\nКонтакты: @TaliaHR\n\n—","markup":[{"type":"hashtag","offset":0,"length":9,"data":"frontend"},{"type":"hashtag","offset":10,"length":9,"data":"вакансия"},{"type":"hashtag","offset":20,"length":7,"data":"Москва"},{"type":"hashtag","offset":28,"length":9,"data":"fulltime"},{"type":"hashtag","offset":38,"length":7,"data":"middle"},{"type":"hashtag","offset":46,"length":7,"data":"senior"},{"type":"hashtag","offset":54,"length":6,"data":"react"},{"type":"hashtag","offset":61,"length":7,"data":"работа"},{"type":"handle","offset":1378,"length":8,"data":"TaliaHR"}],"date":"2020-04-06T09:46:48+00:00","link":"tg://resolve?domain=javascript_jobs_feed&post=15437","tags":[{"name":"javascript"},{"name":"reactjs"},{"name":"dotnet"},{"name":"redux"},{"name":"webpack"},{"name":"css"},{"name":"html"},{"name":"java"},{"name":"spring"},{"name":"git"},{"name":"maven"},{"name":"react-redux"}],"cities":[{"code":"moscow"}],"allowsRemote":false}},{"node":{"__typename":"Job","id":"16184770560-1001110946746","title":"Js разработчик","text":"#вакансия #удаленка #react #frontend                                                                                                                                                       Локация: удаленка                                                                                                                                                                                Занятость: полная                                                                                                                                                                     Зарплата: от 150 тыс. до 300 тыс. рублей (net).                                                                                                          Компания Skybonds.                                                                                                                          Мы — команда Skybonds. Используя современные технологии и стандарты мы создаем продукт для анализа рынка ценных бумаг и эффективного управления портфелем.\nМы стремимся ежедневно добавлять в наш продукт значимый функционал, выполняя строгие требования к его качеству и быстродействию.\n\nСейчас в нашу команду нужен сильный  FRONTEND-РАЗРАБОТЧИК уровня middle +   и выше, который будет:\n•  брать на себя ответственность за часть продукта, в рамках общих приоритетов команды;\n•  привносить в продукт ценный для клиента результат;\n•  в достижении результата, понимать как техническое решение, так и пользовательские сценарии;\n•  планировать свою работу и прозрачно отчитываться по ней;\n•  взаимодействовать с командой дизайнеров и серверных разработчиков;\n•  уметь разбираться в чужом коде;\n•  решать проблемы, о которых сообщили наши клиенты;\n•  изучать новые технологии и внедрять их в проект с целью его улучшения;\n•  принимать совместные командой решения сложных проблем.\nМинимальные требования:\n•  понимание принципов функционального программирования и ООП;\n•  опыт разработки на JS (React)  от 3-х лет;\n•  знание возможностей и синтаксиса последних версий ECMAScript;\n•  глубокое понимание React.js и его основных принципов;\n•  понимание SPA на основе React/Redux;\n•  понимание методов и знание инструментов тестирования (unit, e2e tests);\n•  опыт работы с системой контроля версий Git;\n•  опыт работы с средствами разработки, такими как Babel, Webpack, ESlint, npm;\n•  отличные навыки в адаптивной верстке.\nПлюсом будет:\n•  опыт создания интерактивных визуализаций при помощи D3.js;\n•  опыт создания высоконагруженных веб-приложений и оптимизации производительности;\n•  практика тестирования собственного кода и применения TDD и/или BDD;\n•  опыт проектирования и дизайна интерфейсов;\n•  стремление соблюдать принципы SOLID, KISS и YAGNI.\nМы предлагаем:\n•  интересные задачи, новые знания;\n•  работу в неравнодушной команде;\n•  полностью \"белую\" заработную плату, официальное трудоустройство;\n•  оклад от 150 тыс. рублей (net) (сильно зависит от квалификации, потолка нет);\n•  ДМС;\n•  график работы 5/2, полностью удаленную работу.\n89131105342 (telegram)\npolina_hr@mail.ru","markup":[{"type":"hashtag","offset":0,"length":9,"data":"вакансия"},{"type":"hashtag","offset":10,"length":9,"data":"удаленка"},{"type":"hashtag","offset":20,"length":6,"data":"react"},{"type":"hashtag","offset":27,"length":9,"data":"frontend"},{"type":"link","offset":2988,"length":11,"data":"tel:89131105342"},{"type":"link","offset":3011,"length":17,"data":"mailto:polina_hr@mail.ru"}],"date":"2020-04-05T14:32:50+00:00","link":"tg://resolve?domain=javascript_jobs_feed&post=15435","tags":[{"name":"javascript"},{"name":"reactjs"},{"name":"dotnet"},{"name":"redux"},{"name":"git"},{"name":"webpack"},{"name":"npm"},{"name":"react-redux"}],"cities":[],"allowsRemote":true}},{"node":{"__typename":"Job","id":"16182673408-1001110946746","title":"Javascript разработчик","text":"#вакансия #екб #екатеринбург #react #frontend #middle\n\nПозиция: Разработчик React \nКомпания: SoftMediaLab \nЛокация: Екатеринбург \nФормат работы: #удаленка или  #офис\nЗанятость: #фултайм \nЗП 110 000 - 140 000 рублей на руки\nКонтакты: @iamanastasie  или @Ekaterina_Mitroshkina \n\nSoftMediaLab – была основана в 2015 году в городе Екатеринбурге. Основатели компании – разработчики, поэтому никакой бюрократии и странных решений, процессы максимально простые и понятные, среда дружественная. \nРазрабатываем в основном стартапы для России, Европы и Америки. На данный момент более 50 выполненных проектов в России, Канаде, Европе, Израиле, Сингапуре и США. \n\nЗадачи: \n- улучшать имеющийся функционал и разрабатывать новый \n- участвовать в принятии архитектурных решений \nСтек: react, redux, typescript, bootstrap, material-ui, JQuery, sass, less\n\nДля связи @Ekaterina_Mitroshkina  или @iamanastasie","markup":[{"type":"hashtag","offset":0,"length":9,"data":"вакансия"},{"type":"hashtag","offset":10,"length":4,"data":"екб"},{"type":"hashtag","offset":15,"length":13,"data":"екатеринбург"},{"type":"hashtag","offset":29,"length":6,"data":"react"},{"type":"hashtag","offset":36,"length":9,"data":"frontend"},{"type":"hashtag","offset":46,"length":7,"data":"middle"},{"type":"hashtag","offset":145,"length":9,"data":"удаленка"},{"type":"hashtag","offset":160,"length":5,"data":"офис"},{"type":"hashtag","offset":177,"length":8,"data":"фултайм"},{"type":"handle","offset":233,"length":13,"data":"iamanastasie"},{"type":"handle","offset":252,"length":22,"data":"Ekaterina_Mitroshkina"},{"type":"handle","offset":851,"length":22,"data":"Ekaterina_Mitroshkina"},{"type":"handle","offset":879,"length":13,"data":"iamanastasie"}],"date":"2020-04-05T14:31:46+00:00","link":"tg://resolve?domain=javascript_jobs_feed&post=0","tags":[{"name":"javascript"},{"name":"reactjs"},{"name":"redux"},{"name":"typescript"},{"name":"bootstrap"},{"name":"jquery"},{"name":"sass"},{"name":"react-redux"}],"cities":[],"allowsRemote":true}}]}}},"context":{}}