{"hash":"f5f6bf98bd95e769321482904cbbd488f77922fd","data":{"records":{"id":"ios","name":"ios","belongsTo":{"totalCount":194,"pageInfo":{"totalPages":20,"currentPage":16},"edges":[{"node":{"__typename":"Job","id":"71577894912-1001054966032","title":"Ios разработчик","text":"#вакансия #iOS #developer #moscow #офис #fulltime\n\n🔸Адрес: Москва, Новокузнецкая\n🔸Формат работы: офис \n🔸Занятость: полная \n🔸ЗП: 180 000-250 000\n\n📣Middle/Senior iOS Разработчик\n\nна один из наших проектов-социальная сеть нового поколения на базе блокчейн-технологий.\n\n🔶Компания Freedom Group International \n\nЧем придётся заниматься:\n🔶Разработка нового функционала в рамках существующего приложения;\n🔶Рефакторинг и апгрейд ранее сделанного функционала\n\nЧто для этого потребуется:\n🔶Опыт разработки мобильных приложений от трех лет;\n🔶Отличные знания ООП, алгоритмов и структур данных;\n🔶Отличное знание Swift;\n🔶Знание Objective-C для правки старого кода;\n🔶Понимание REST API, взаимодействие с backend;\n🔶Опыт работы с GIT\n\nЖелательно знание следующих библиотек:\n   • RxSwift\n   • AFNetworking\n\nМы готовы предложить:\n🔷Уютный, современный офис;\n🔷Гибкий график;\n🔷Дружный коллектив и лояльное руководство;\n🔷Все плюсы работы в «белой» компании\n\n🔶Контакт для связи: @AnutaF","markup":[{"type":"hashtag","offset":0,"length":9,"data":"вакансия"},{"type":"hashtag","offset":10,"length":4,"data":"iOS"},{"type":"hashtag","offset":15,"length":10,"data":"developer"},{"type":"hashtag","offset":26,"length":7,"data":"moscow"},{"type":"hashtag","offset":34,"length":5,"data":"офис"},{"type":"hashtag","offset":40,"length":9,"data":"fulltime"},{"type":"bold","offset":312,"length":24,"data":""},{"type":"bold","offset":458,"length":26,"data":""},{"type":"bold","offset":730,"length":38,"data":""},{"type":"bold","offset":801,"length":21,"data":""},{"type":"handle","offset":972,"length":7,"data":"AnutaF"}],"date":"2020-06-18T13:33:21+00:00","link":"tg://resolve?domain=mobile_jobs&post=0","tags":[{"name":"mobile"},{"name":"ios"},{"name":"swift"},{"name":"objective-c"},{"name":"rest"},{"name":"git"}],"cities":[{"code":"moscow"}],"allowsRemote":false}},{"node":{"__typename":"Job","id":"71573700608-1001054966032","title":"Mobile разработчик","text":"#вакансия #москва #офис #senior #unity #developer #gamedev #csharp c#\n\nГород и адрес офиса: Москва, м.Автозаводская \nФормат работы: офис \nЗанятость: полная \nЗарплатная вилка: от 200 000 до 250 000 на руки \n\n📣 Senior Unity 3D Developer (mobile game)\n\n\n✅ Описание вакансии:\n\nМы - успешная команда из 110 человек, которая занимается: \n• разработкой собственных мобильных игр и приложений \n• паблишингом мобильных игр \n• рекламой и маркетингом мобильных приложений (реклама на Facebook, Google и т.д.) \nЗа последние 3 года мы привлекли более 100 млн пользователей в наши собственные мобильные приложения и приложения наших клиентов и партнеров, потратив на это более $80 млн. \nУ нас есть все составляющие чтобы делать готовые продукты известными и популярными. Мы ищем сильного Unity разработчика уровня Senior, для работы над нашим главным тайтлом Dragon Champions (крупным хардкорным проектом в жанре Фэнтези, с тактической боевой системой).\n\n\n✅ Задачи:\n\n-Разработка клиентской части игры\n-Разработка клиент-серверного взаимодействия и общей игровой логики\n-Вёрстка UI по макетам от художников\n-Интеграция различных сторонних SDK\n\n\n✅ Требования:\n\n-Опыт работы на Unity3D (С#) от 3х лет\n-Отличное знание Unity и всех её подсистем\n-Отличное знание C#, умение писать чёткий, понятный, структурированный код\n-Отличное знание паттернов проектирования\n-Умение отлаживать и оптимизировать проекты под мобильные платформы iOS/Android\n-Умение верстать адаптивные интерфесы в uGUI\n-Умение разбираться в чужом коде, проводить рефакторинг\n-Уверенные знания по работе с системой контроля версий git\n-Дисциплинированность и ответственность\n\n\n✅ Плюсом будет:\n\n-Участие в разработке выпущенных игр под мобильные платформы на аналогичной должности\n-Умение работать с шейдерами\n-Опыт работы с нативными плагинами (In-Apps, PUSH notifications, аналитика, реклама, социальное взаимодействие)\n-Умение разрабатывать и поддерживать стабильную архитектуру\n-Коммуникабельность, умение чётко доносить свою точку зрения и принимать точку зрения остальных участников команды\n\n\n✅ Для вас:\n\n•  Конкурентная заработная плата, выплачивается 2 раза в месяц\n•  Необходимое оборудование для работы\n•  Бонусы по итогам выполнения KPI и запуска проектов\n•  Коллектив творческих и позитивных людей\n\n\n✅ О нас:\n\n• Просторный офис 600 метров на м. Автозаводская (3 минуты от метро и от ТТК на машине) с ультра современным дизайном и кучей ништяков (кухня с вкусняшками, кальяны каждый вечер в дружной кампании, PS4 Pro + 4K TV, аркадные автоматы с Pac-Man, Metal Slug и другими хитами геймдизайна, просторная зона отдыха, 5 переговорных комнат и т д) \n• Команда из 80 человек занимающаяся паблишингом и маркетингом, готовая сделать продукт успешным после его готовности \n• Возможность обучаться английскому языку с носителями каждый будний день по утрам \n• Менторы и инвесторы, создавшие большое количество успешных IT компаний \nПрисоединяйтесь к нашей команде уже сегодня! \n\nНазвание компании: AppQuantum \n\nКонтакты: \ne-mail: bm@adquantum.com\ntelegram: @MishaBarinov","markup":[{"type":"hashtag","offset":0,"length":9,"data":"вакансия"},{"type":"hashtag","offset":10,"length":7,"data":"москва"},{"type":"hashtag","offset":18,"length":5,"data":"офис"},{"type":"hashtag","offset":24,"length":7,"data":"senior"},{"type":"hashtag","offset":32,"length":6,"data":"unity"},{"type":"hashtag","offset":39,"length":10,"data":"developer"},{"type":"hashtag","offset":50,"length":8,"data":"gamedev"},{"type":"hashtag","offset":59,"length":7,"data":"csharp"},{"type":"bold","offset":254,"length":18,"data":""},{"type":"bold","offset":945,"length":7,"data":""},{"type":"bold","offset":1133,"length":11,"data":""},{"type":"bold","offset":1629,"length":13,"data":""},{"type":"bold","offset":2050,"length":8,"data":""},{"type":"bold","offset":2263,"length":6,"data":""},{"type":"link","offset":2985,"length":16,"data":"mailto:bm@adquantum.com"},{"type":"handle","offset":3012,"length":13,"data":"MishaBarinov"}],"date":"2020-06-18T12:40:59+00:00","link":"tg://resolve?domain=mobile_jobs&post=0","tags":[{"name":"mobile"},{"name":"android"},{"name":"ios"},{"name":"unity3d"},{"name":"csharp"},{"name":"git"}],"cities":[{"code":"moscow"}],"allowsRemote":false}},{"node":{"__typename":"Job","id":"71571603456-1001054966032","title":"Ios разработчик","text":"#вакансия IOS developer\n\n🏙Город:  в г. Москве (м. Сокольники) или в г. Санкт-Петербурге (м. Адмиралтейская)\n\n🧰Формат: офис\n\n⏳Занятость: полная\n\n💸Зарплатная вилка: 170 000- 190 000 руб.\n\n🔺Описание вакансии: \nВ один из крупнейших банков РФ ищем IOS разработчика. \n\n🔺Мы ждём от вас:\n➖Разработка мобильного приложения для платформы iOS\n➖Два проекта на выбор: мобильный банк для физических лиц и для юридических лиц;\n➖Разработка unit-тестов, рефакторинг, code review;\n➖Формирование принципов командной разработки.\n\n 🔺Для нас важно:\n➖Опыт разработки мобильных приложений от двух лет;\n➖Отличные знания платформы iOS и Swift;\n➖Опыт применения архитектурных паттернов: MV*, VIPER;\n➖Опыт разработки клиент-серверных приложений (HTTP(S), XML, JSON);\n➖Опыт написания unit-тестов;\n➖Опыт работы с GIT.\n\n🔺Будет Вашим преимуществом: \n      \n➖Отличные знания ООП, алгоритмов и структур данных;\n➖Знание Objective-C.   \n\n🔺Мы предлагаем:\n\n➖Официальное оформление по ТК РФ;\n➖График 5/2, гибкое начало и окончание рабочего дня;\n➖Конкурентный уровень дохода: оклад+премии (по итогам собеседования)\n➖Медицинская страховка для себя и членов семьи на особых условиях, страховка для выезжающих за рубеж.\n➖Большое количество льгот\n\n‼️Для переезжающих в Москву или Санкт-Петербург компания предоставляет \n“Релокационный пакет” (компенсация затрат на переезд и съем жилья первые 3 месяца).              \n  \nHR компания: Unicorn Search\n\nПо вакансии обращаться: @olgapivneva","markup":[{"type":"hashtag","offset":0,"length":9,"data":"вакансия"},{"type":"bold","offset":9,"length":14,"data":""},{"type":"bold","offset":27,"length":6,"data":""},{"type":"bold","offset":112,"length":6,"data":""},{"type":"bold","offset":127,"length":9,"data":""},{"type":"bold","offset":148,"length":16,"data":""},{"type":"bold","offset":191,"length":17,"data":""},{"type":"bold","offset":266,"length":17,"data":""},{"type":"bold","offset":518,"length":13,"data":""},{"type":"bold","offset":794,"length":28,"data":""},{"type":"bold","offset":908,"length":16,"data":""},{"type":"bold","offset":1214,"length":45,"data":""},{"type":"bold","offset":1284,"length":21,"data":""},{"type":"bold","offset":1382,"length":14,"data":""},{"type":"handle","offset":1438,"length":12,"data":"olgapivneva"}],"date":"2020-06-18T12:34:40+00:00","link":"tg://resolve?domain=mobile_jobs&post=0","tags":[{"name":"mobile"},{"name":"ios"},{"name":"swift"},{"name":"xml"},{"name":"json"},{"name":"git"},{"name":"objective-c"}],"cities":[],"allowsRemote":false}},{"node":{"__typename":"Job","id":"71570554880-1001054966032","title":"Ios разработчик","text":"#вакансия #swift #objective-C #ios\n\nГород : Санкт-Петербург\nФормат работы: офис или удаленно\nЗанятость: Полная\nЗарплатная вилка:  90 000 - 300 000 руб\n\nОписание компании:\nВ Blogman мы занимаемся разработкой собственного приложения – платформа для блогеров и рекламодателей. В нашей команде уже более 50 разработчиков и мы продолжаем расти. Сейчас мы ищем инженера с опытом коммерческой разработки под iOS.\nОсновной стек технологий — Swift, Realm, Alamofire. Сейчас мы разрабатываем бизнес-функционал и будем рады новому специалисту в нашей команде, вместе с которым мы будем делать быстрое приложение с отзывчивым и плавным интерфейсом.\n\nМы ожидаем, что у вас есть:\n— Опыт коммерческой разработки мобильных приложений под iOS;\n— Хорошие знания Swift, UIKit;\n— Опыт работы с мобильными БД;\n— Умение работать с Git, Cocoapods.\n\nБудет плюсом, если вы:\n— Разрабатывали клиент-серверные приложения;\n— Умеете работать с WebSocket;\n— Знаете и понимаете архитектуру VIPER;\n— Командный игрок без яркого эгоцентризма;\n— Готовы активно принимать участие в жизни компании и продукта.\n\nРады предложить:\n– Удаленное сотрудничество или комфортный офис на Невском проспекте в 5 минутах ходьбы от ст. м. Маяковская и Владимирская;\n– Желаемый оклад по результатам собеседования;\n– Понятную систему роста зарплаты каждые 6 месяцев, в которой все зависит только от вас;\n– Все необходимые офисные блага вроде вкусного кофе и т.д.\nВас будут окружать адекватные люди, с которыми комфортно решать поставленные задачи. У сотрудников есть общие ценности, такие как стремление к качественному результату, забота о продукте и желание двигаться вперед. Также у нас нет “Начальства”, а есть коллеги. Все взаимодействуют горизонтально и в команде равенство между инженерами, стейкхолдером, продактом и т.д. Все работают бок о бок и делают одно общее дело.\nНазвание компании: Blogman\nКонтакты: @maria_golovina","markup":[{"type":"hashtag","offset":0,"length":9,"data":"вакансия"},{"type":"hashtag","offset":10,"length":6,"data":"swift"},{"type":"hashtag","offset":17,"length":10,"data":"objective"},{"type":"hashtag","offset":30,"length":4,"data":"ios"},{"type":"bold","offset":173,"length":8,"data":""},{"type":"bold","offset":438,"length":2,"data":""},{"type":"bold","offset":445,"length":2,"data":""},{"type":"bold","offset":638,"length":27,"data":""},{"type":"bold","offset":826,"length":22,"data":""},{"type":"bold","offset":1073,"length":16,"data":""},{"type":"handle","offset":1862,"length":15,"data":"maria_golovina"}],"date":"2020-06-18T12:32:34+00:00","link":"tg://resolve?domain=mobile_jobs&post=0","tags":[{"name":"mobile"},{"name":"ios"},{"name":"swift"},{"name":"objective-c"},{"name":"realm"},{"name":"uikit"},{"name":"git"},{"name":"cocoapods"},{"name":"websocket"}],"cities":[],"allowsRemote":true}},{"node":{"__typename":"Job","id":"71565312000-1001054966032","title":"Ios разработчик","text":"#вакансия #iOS #москва\n\nНа проект от крупного российского банка требуется Middle iOS разработчик\n\nФормат: офис\n\nВилка ЗП: 150-180К\n\nЛокация: Москва\n\nТребования:\n\n- Опыт разработки под IOS (Objective-C или Swift) от 2 лет\n- Уверенное знание iOS SDK, Xcode\n- Опыт использования одной из архитектур: MVP, MVVM, VIPER\n- Знание особенностей: Collections, Optionals, Protocol Oriented, Generics\n- Понимание, как происходит управление памятью в iOS\n- Понимание принципов проектирования SOLID и желание придерживаться их\n- Наличие опыта работы с REST API, HTTP, JSON, APNs\n- Опыт работы с Git, знание git flow\n\nБудет плюсом:\n\n- Умение писать UI тесты\n- Опыт работы в команде\n\nКонтакт: @mxm_at","markup":[{"type":"hashtag","offset":0,"length":9,"data":"вакансия"},{"type":"hashtag","offset":10,"length":4,"data":"iOS"},{"type":"hashtag","offset":15,"length":7,"data":"москва"},{"type":"bold","offset":73,"length":23,"data":""},{"type":"bold","offset":98,"length":7,"data":""},{"type":"bold","offset":112,"length":9,"data":""},{"type":"bold","offset":132,"length":8,"data":""},{"type":"bold","offset":149,"length":11,"data":""},{"type":"bold","offset":603,"length":13,"data":""},{"type":"bold","offset":668,"length":8,"data":""},{"type":"handle","offset":677,"length":7,"data":"mxm_at"}],"date":"2020-06-18T11:11:25+00:00","link":"tg://resolve?domain=mobile_jobs&post=0","tags":[{"name":"mobile"},{"name":"ios"},{"name":"objective-c"},{"name":"swift"},{"name":"xcode"},{"name":"mvvm"},{"name":"rest"},{"name":"json"},{"name":"git"}],"cities":[{"code":"moscow"}],"allowsRemote":false}},{"node":{"__typename":"Job","id":"71563214848-1001054966032","title":"Ios разработчик","text":"#вакансия #ios #офис #удаленка\n\nГород: Москва (Сокольники или Павелецкая), есть релокационный пакет\n\nФормат работы: офис, но также возможна удаленка из Москвы, Питера, Самары\n\nЗанятость: полная\n\nВилка: 180-250 т.р. на руки\n\nКоманда iOS разработчиков ищет коллегу для создания и развития функционала мобильного банка.\n\nСтек: Swift (99%), Objective-C (1%), VIPER/VIP, Alamofire, Gitlab CI\n\nЧто потребуется:\n\n• Отличные знания платформы iOS\n• Опыт применения VIPER/VIP\n• Опыт разработки клиент-серверных приложений\n\nБудет плюсом:\n\nЗнание ООП, алгоритмов и структур данных, Objective-C\n\nНазвание компании: ПСБ\nhttps://www.psbank.ru/\nhttps://hh.ru/vacancy/33110376\n\nКонтакты: @max_gusev\ngusevms@psbank.ru","markup":[{"type":"hashtag","offset":0,"length":9,"data":"вакансия"},{"type":"hashtag","offset":10,"length":4,"data":"ios"},{"type":"hashtag","offset":15,"length":5,"data":"офис"},{"type":"hashtag","offset":21,"length":9,"data":"удаленка"},{"type":"bold","offset":32,"length":6,"data":""},{"type":"bold","offset":101,"length":14,"data":""},{"type":"bold","offset":176,"length":10,"data":""},{"type":"bold","offset":195,"length":7,"data":""},{"type":"bold","offset":388,"length":16,"data":""},{"type":"bold","offset":513,"length":13,"data":""},{"type":"bold","offset":583,"length":18,"data":""},{"type":"link","offset":606,"length":21,"data":"https://www.psbank.ru/"},{"type":"link","offset":629,"length":30,"data":"https://hh.ru/vacancy/33110376"},{"type":"bold","offset":661,"length":9,"data":""},{"type":"handle","offset":671,"length":10,"data":"max_gusev"},{"type":"link","offset":682,"length":17,"data":"mailto:gusevms@psbank.ru"}],"date":"2020-06-18T11:08:38+00:00","link":"tg://resolve?domain=mobile_jobs&post=0","tags":[{"name":"mobile"},{"name":"ios"},{"name":"swift"},{"name":"objective-c"},{"name":"gitlab"}],"cities":[{"code":"moscow"}],"allowsRemote":true}},{"node":{"__typename":"Job","id":"3579838464-1001121589364","title":".net разработчик","text":"#Mobile #Xamarin #Android #iOS #crossplatform #Middle #Senior #удаленно\n\n#вакансия \"Разработчик мобильных приложений Xamarin\" \nУдаленная работа\n\nПредлагаемая заработная плата 3000 USD (200 000 + рублей.)\n\nО нас:\nМы - стартап в индустрии Outdoors с офисами в США и Европе. Наша команда является по-настоящему распределенной: на сегодняшний день члены команды находятся в США, Австрии, Австралии, России и Южной Африке.\n\nУ нас начинается интересный этап, так как мы запускаем новый продукт с фокусом на американском рынке.\n\nКого мы ищем? Хорошего человека и по совместительству топового мобильного разработчика :) \n\nЧто будешь делать:\nЖдем, что ты включишься в работу по созданию нового мобильного приложения, которое является частью запускаемого нами продукта.\n\nОсновные требования: \n-Опыт работы в качестве мобильного разработчика не менее 3-х лет.\n-Высокий уровень самоорганизации.\n-Экспертные знания фреймворков Xamarin Native и .NET.\n-Готовность отвечать за delivery мобильного приложения.\n-Умение работать в команде.\n-Тестирование разрабатываемых решений.\n\nУсловия: \n- ЗП 3000 USD - 200 000 + руб.\n- Огненный коллектив \n- Выслушаем и применим пожелания и идеи\n- Все плюшки удаленки\n____________________________________\n📞Telegram @tankograin +79818148442","markup":[{"type":"hashtag","offset":0,"length":7,"data":"Mobile"},{"type":"hashtag","offset":8,"length":8,"data":"Xamarin"},{"type":"hashtag","offset":17,"length":8,"data":"Android"},{"type":"hashtag","offset":26,"length":4,"data":"iOS"},{"type":"hashtag","offset":31,"length":14,"data":"crossplatform"},{"type":"hashtag","offset":46,"length":7,"data":"Middle"},{"type":"hashtag","offset":54,"length":7,"data":"Senior"},{"type":"hashtag","offset":62,"length":9,"data":"удаленно"},{"type":"hashtag","offset":73,"length":9,"data":"вакансия"},{"type":"bold","offset":205,"length":7,"data":""},{"type":"bold","offset":614,"length":19,"data":""},{"type":"bold","offset":761,"length":20,"data":""},{"type":"bold","offset":1061,"length":10,"data":""},{"type":"handle","offset":1234,"length":11,"data":"tankograin"},{"type":"link","offset":1246,"length":12,"data":"tel:+79818148442"}],"date":"2020-06-18T10:50:53+00:00","link":"tg://resolve?domain=xamarin_jobs&post=3414","tags":[{"name":"dotnet"},{"name":"csharp"},{"name":"mobile"},{"name":"xamarin"},{"name":"android"},{"name":"ios"}],"cities":[],"allowsRemote":true}},{"node":{"__typename":"Job","id":"71544340480-1001054966032","title":"Android разработчик","text":"#вакансия #удаленка #iOS #Android\nФормат работы: Удаленка или офис Екб\nЗанятость: Полная\nЗарплатная вилка от 100 до 150 net (зависит от уровня)\nУровень: middle/middle+\nКомпания: УБРиР\nКонтакты: @vikacrn\n\nСейчас мы в поиске мобильных разработчиков (Android/iOS).📱Для развития основного проекта - мобильного банка и написание нового (приложение для юр/лиц).\n\nПодробнее по вакансиям здесь:\niOS https://ekaterinburg.hh.ru/vacancy/37221491\nAndroid https://ekaterinburg.hh.ru/vacancy/37110186","markup":[{"type":"hashtag","offset":0,"length":9,"data":"вакансия"},{"type":"hashtag","offset":10,"length":9,"data":"удаленка"},{"type":"hashtag","offset":20,"length":4,"data":"iOS"},{"type":"hashtag","offset":25,"length":8,"data":"Android"},{"type":"bold","offset":153,"length":14,"data":""},{"type":"handle","offset":194,"length":8,"data":"vikacrn"},{"type":"bold","offset":358,"length":29,"data":""},{"type":"link","offset":392,"length":43,"data":"https://ekaterinburg.hh.ru/vacancy/37221491"},{"type":"link","offset":444,"length":43,"data":"https://ekaterinburg.hh.ru/vacancy/37110186"}],"date":"2020-06-18T08:05:01+00:00","link":"tg://resolve?domain=mobile_jobs&post=0","tags":[{"name":"mobile"},{"name":"android"},{"name":"ios"},{"name":"dotnet"}],"cities":[],"allowsRemote":true}},{"node":{"__typename":"Job","id":"71542243328-1001054966032","title":"Ios разработчик","text":"#вакансия #москва #офис #senior #ios #developer #gamedev #swift \nГород и адрес офиса: Москва, м.Автозаводская \nФормат работы: офис \nЗанятость: полная \nЗарплатная вилка: от 250 000 до 300 000 на руки \n\n\n✅ Senior iOS Developer \n\nОписание вакансии: \n\nМы - успешная команда из 120 человек, которая занимается: \n• разработкой собственных мобильных игр и приложений \n• паблишингом мобильных игр \n• рекламой и маркетингом мобильных приложений (реклама на Facebook, Google и т.д.) \nЗа последние 3 года мы привлекли более 100 млн пользователей в наши собственные мобильные приложения и приложения наших клиентов и партнеров, потратив на это более $80 млн. \n\nУ нас есть все составляющие чтобы делать готовые продукты известными и популярными. Мы ищем сильного и талантливого разработчика для усиления нашей текущей слаженно работающей команды и выведения нашего Fitness & Health iOS приложения Fitingo на лидирующие позиции в мире (уже сейчас приложение занимало позиции ТОП 13 в США и ТОП 6 в Великобритании с более чем 400,000 установок и более чем 45,000 совершенных покупок).\n\n✅Задачи: \n\n•  Разрабатывать новый функционал\n•  Рефакторить и оптимизировать код\n•  Писать код. Больше логики, меньше UI. Например - хранить историю и прогресс; сделать leaderboard по странам; добавить чат, аналитику и a/b тесты; Apple Health, Watch, Music и TV\n•  Участвовать в Code Review\n\nТекущий стек: Swift 5.1, MVPC, AVFoundation, UserNotifications, Realm, StoreKit, Firebase, PushWoosh, Facebook, Python.\n\n✅Требования: \n\n•  Опыт работы разработчиком iOS приложений от 3х лет\n•  Отличное знание Swift\n•  Уверенное знание SOLID и паттернов проектирования\n•  Умение профилировать приложение (Батарейка, утечки и вот это все)\n•  Опыт работы с системой контроля версий\n•  Наличие выпущенных проектов на Swift\n•  Желание делать красивые, интересные и популярные приложения\n\n✅Будет плюсом: \n\n•  Умение/желание писать небольшие серверные скрипты (например на Python)\n•  Умение автоматизировать рутинные процессы\n•  Умение рефакторить код итеративно\n•  Адекватный перфекционизм\n\n\n✅Для вас: \n\n•  Конкурентная заработная плата, выплачивается 2 раза в месяц\n•  Необходимое оборудование для работы\n•  Возможность набрать команду и выстроить всю работу под себя в краткосрочной перспективе\n•  Оформление по ТК РФ, оплачиваемые больничные, 28 дней оплачиваемого отпуска в год\n•  Возможны регулярные бонусы по результатам работы проектов\n•  Собеседование с лицом принимающим решение\n•  Возможность коммуницировать с людьми, которые принимают продуктовые решения\n\n✅О нас: \n\n•  Просторный офис 600 метров на м. Автозаводская (3 минуты от метро и от ТТК на машине) с ультра современным дизайном и кучей ништяков (кухня с вкусняшками, кальяны каждый вечер в дружной кампании, PS4 Pro + 4K TV, аркадные автоматы с Pac-Man, Metal Slug и другими хитами геймдизайна, просторная зона отдыха, 5 переговорных комнат и т д)\n•  Команда из 100 человек занимающаяся паблишингом и маркетингом, готовая сделать продукт успешным после его готовности\n•  Возможность обучаться английскому языку с носителями каждый будний день по утрам\n•  Менторы и инвесторы, создавшие большое количество успешных IT компаний (оборот в 2018 году более 140 млн долларов)\n\nНазвание компании: AppQuantum \n\nКонтакты: \ne-mail: vika@adquantum.com\ntelegram: @wikki13","markup":[{"type":"hashtag","offset":0,"length":9,"data":"вакансия"},{"type":"hashtag","offset":10,"length":7,"data":"москва"},{"type":"hashtag","offset":18,"length":5,"data":"офис"},{"type":"hashtag","offset":24,"length":7,"data":"senior"},{"type":"hashtag","offset":32,"length":4,"data":"ios"},{"type":"hashtag","offset":37,"length":10,"data":"developer"},{"type":"hashtag","offset":48,"length":8,"data":"gamedev"},{"type":"hashtag","offset":57,"length":6,"data":"swift"},{"type":"link","offset":3248,"length":18,"data":"mailto:vika@adquantum.com"},{"type":"handle","offset":3277,"length":8,"data":"wikki13"}],"date":"2020-06-18T07:34:45+00:00","link":"tg://resolve?domain=mobile_jobs&post=0","tags":[{"name":"mobile"},{"name":"ios"},{"name":"swift"},{"name":"realm"},{"name":"firebase"},{"name":"python"}],"cities":[{"code":"moscow"}],"allowsRemote":false}},{"node":{"__typename":"Job","id":"71531757568-1001054966032","title":"Ios разработчик","text":"#вакансия #шымкент #офис #fulltime #фултайм #ios #swift\nВсем привет!\nВ компанию \"SmartIdeaGroup\" требуется мобильный iOS разработчик на проект \"Pillikan\". \n\nОбязанности:\n- Техническая поддержка текущего приложения;\n- Разработка новых фич.\n\nТребования:\n- Опыт работы от 2-х лет;\n- Верстка UI;\n- Знание паттернов: MVC, MVP, MVVM.\n- Владение Swift, Objective-C;\n- Принципы построения и работы с API.\n\n\nУсловия:\n- Дружный коллектив;\n- Заработная плата 150к - 500к kzt;\n- Полная занятость, полный день;\n- 5-дневная рабочая неделя, пн-пт с 9:00 до 19:00.\n\nг. Шымкент\n+7 (701) 169 21 89 (whatsapp, telegram) Бекарыс","markup":[{"type":"hashtag","offset":0,"length":9,"data":"вакансия"},{"type":"hashtag","offset":10,"length":8,"data":"шымкент"},{"type":"hashtag","offset":19,"length":5,"data":"офис"},{"type":"hashtag","offset":25,"length":9,"data":"fulltime"},{"type":"hashtag","offset":35,"length":8,"data":"фултайм"},{"type":"hashtag","offset":44,"length":4,"data":"ios"},{"type":"hashtag","offset":49,"length":6,"data":"swift"},{"type":"bold","offset":157,"length":13,"data":""},{"type":"bold","offset":240,"length":12,"data":""},{"type":"bold","offset":399,"length":9,"data":""},{"type":"link","offset":561,"length":18,"data":"tel:+7 (701) 169 21 89"}],"date":"2020-06-18T06:16:58+00:00","link":"tg://resolve?domain=mobile_jobs&post=0","tags":[{"name":"mobile"},{"name":"ios"},{"name":"swift"},{"name":"mvvm"},{"name":"objective-c"}],"cities":[],"allowsRemote":false}}]}}},"context":{}}