{"hash":"f5f6bf98bd95e769321482904cbbd488f77922fd","data":{"records":{"id":"go","name":"go","belongsTo":{"totalCount":47,"pageInfo":{"totalPages":5,"currentPage":1},"edges":[{"node":{"__typename":"Job","id":"368050176-1001352129329","title":"Golang developer","text":"#вакансия #golang \nФормат работы: г. Нижний Новгород, Ереван, также готовы рассмотреть на удаленную работу\nПолный день, полная занятость\nТребуемый опыт работы: от 3-х лет\nЗаработная плата: 180 000 - 250 000 рублей на руки (сумма обсуждается индивидуально по итогам собеседования)\n\nКаждый день ты сидишь за компьютером или держишь смартфон в руках, листаешь разные сайты с вакансиями, но ничего не можешь найти. Казалось бы, такое огромное разнообразие работы, но все не твоё. В какой-то момент ты уже теряешь надежду на поиск, закрываешь свое резюме и в этот момент появляется вакансия, которую ты так долго искал... та-дам!!!!\nКомпания all.me открывает вакансию «Senior Golang developer».\nВ этот момент ты вскакиваешь с дивана и немного пританцовывая начинаешь читать вакансию и понимаешь, что те требования, которые выдвигает компания у тебя есть.\n\n- Опыт работы с Golang более 3 лет;\n- Опыт работы с MongoDb, Redis;\n- Опыт работы с Node.JS;\n- Опыт написания unit-тестов;\n- Хорошее понимание микросервисной архитектуры;\n- Опыт работы с docker;\n- Опыт работы с графовыми базами.\n\nНо и это еще не все, далее ты начинаешь читать условия и понимаешь, что это не просто компания, а компания твоей мечты.\n\n- Международная команда профессионалов;\n- Конкурентная заработная плата, по результатам собеседования;\n- Карьерный рост, профессиональное развитие;\n- Отличный старт для начинающих специалистов;\n- Уникальные мотивационные программы;\n- Программа ДМС “Премиум”;\n- Корпоративная онлайн-библиотека;\n- Активная корпоративная жизнь;\n- Новейшее оборудование на выбор;\n- Комфортабельный офис с современным дизайном.\n\nЗатем ты листаешь вакансию уже с еще наибольшим интересом, потому что впереди тебя ждет главное, это задачи.\n\n- Разработка сервисов на Golang;\n- Написание unit-тестов;\n- Создание качественного, легко поддерживаемого кода;\n- Разработка новых и доработка существующих сервисов в backend.\n\nПрочитав всю вакансию «Senior Golang developer» в компании all.me ты уверено нажимаешь на «Откликнуться» и составляешь сопроводительное письмо и, как назло, именно в этот момент начинает играть будильник и тут ты понимаешь, что это был всего лишь сон...\nТакой грустный финал, что даже один гофер, стоящий в углу, немного прослезился.\nНо компания all.me – это не сон, это реальность и у тебя еще есть время заявить о себе.\nКак это сделать, да очень просто, видишь контакты снизу, выбирай любой и направляй свое резюме в компанию мечты и возможно совсем скоро эта мечта станет для тебя реальностью.\nmail: Oleg.Oltybaev@all.me\ntelegram: @oltybaevmus\ntelephone: +7 (996) 009-06-82 – Олег","markup":[{"type":"hashtag","offset":0,"length":9,"data":"вакансия"},{"type":"hashtag","offset":10,"length":7,"data":"golang"},{"type":"link","offset":637,"length":6,"data":"http://all.me"},{"type":"link","offset":1956,"length":6,"data":"http://all.me"},{"type":"link","offset":2243,"length":6,"data":"http://all.me"},{"type":"link","offset":2500,"length":20,"data":"mailto:Oleg.Oltybaev@all.me"},{"type":"handle","offset":2531,"length":12,"data":"oltybaevmus"},{"type":"link","offset":2555,"length":18,"data":"tel:+7 (996) 009-06-82"}],"date":"2020-07-03T09:28:42+00:00","link":"tg://resolve?domain=gogetajobfeed&post=351","tags":[{"name":"go"},{"name":"mongodb"},{"name":"redis"},{"name":"nodejs"},{"name":"docker"}],"cities":[{"code":"yerevan"},{"code":"nizhny-novgorod"}],"allowsRemote":false}},{"node":{"__typename":"Job","id":"367001600-1001352129329","title":"Golang разработчик","text":"Ребят, всем привет! \nПостараюсь кратко, подробности в ЛС. Заранее напишу, что это Москва (фултайм/офис), компания Lofty. Ищем в команду как Midle так и Senior Go разработчиков.\nВообщем если хочется в highload, добро пожаловать!)\n\nО проекте:\nЭто высоконагруженное backend приложение для рассылки web push-уведомлений, обслуживающее на данный момент более 100млн показов в сутки. \nЧем у нас предстоит заниматься:\nПрофилировать и оптимизировать существующие сервисы;\nПроводить доработки и интеграцию их в действующий код и инфраструктуру;\nРеализовывать новые бизнес-требования внутри сервиса;\nУстранять возникающие баги в сервисе.\n\nЧто мы ждем от кандидата:\nНавыки работы с Git;\nУверенное знание Golang;\nПонимание технологий HTTP, REST;\nОпыт работы в Unix-окружении.\n\nБудет совсем круто, если вы:\nРаботали с highload-проектами;\nПонимаете и уважаете концепцию CI/CD.\nНаш стек технологий: Golang, Gitlab, MySQL, JS, RabbitMQ, Docker, Ansible, Clickhouse\n\nУсловия: \nЗаработная плата от 130 000 до 300 000 руб. на руки, естественно зависит от уровня, преимущественно смотрим \"мидов\", но и \"джуны\" нам тоже интересны.\n\nНаш сайт: `https://www.lofty.today/\n#вакансия#golang","markup":[{"type":"link","offset":1122,"length":24,"data":"https://www.lofty.today/"}],"date":"2020-07-02T10:02:20+00:00","link":"tg://resolve?domain=gogetajobfeed&post=350","tags":[{"name":"go"},{"name":"web"},{"name":"git"},{"name":"rest"},{"name":"unix"},{"name":"gitlab"},{"name":"mysql"},{"name":"rabbitmq"},{"name":"docker"},{"name":"ansible"}],"cities":[{"code":"moscow"}],"allowsRemote":false}},{"node":{"__typename":"Job","id":"365953024-1001352129329","title":"Golang разработчик","text":"#вакансия #Golang #middle #Senior #Moscow #удаленно \n\nНазвание компании: EveryTale\nНазвание вакансии: Golang разработчик \nЗарплатная вилка 150-200 тыс/мес\nГород: Москва\nСписок языков, которые необходимо знать: Русский, Английский (на уровне чтения тех. документации)\nФотрмат работы: удаленно\n\nВ это непростое время пандемии мы ищем талантливого GO разработчика, который жаждет развивать социально значимые продукты\nМы:\nМолодая успешная и стабильная компания\nЛидеры рынка инфопанелей\nДелаем продукты для людей с ограниченными возможностями здоровья (ОВЗ)\nАктивно разрабатываем революционную платформу для обучения\n\nEverytale — это платформа для видео-трансляций лекций преподавателей и выступлений специалистов, учитывающая потребности всех людей.\\\nНаши будущие клиенты - пользователи по всему миру. В компании нет закрытых дверей, вся команда точно понимает что она делает и зачем. Нет жесткой иерархии внутри. Мы ценим всех наших сотрудников и их идеи и стремлении расти вместе с нами. Так же мы имеем представительство в США и ориентируемся в том числе и на этот рынок. Приветствуем желание развития и роста.\n\nВозможны командировки в Los Angeles.\n\nЧто предстоит делать:\n\nРазработка beckend для edTech проекта\nРабота с чатами, опросами, потоковым видео, субтитрами\nРеализация АПИ для мобильных \nприложений\n\nЧто нужно уметь\n\nУ тебя есть:\nОпыт программирования backend от 3х лет\nЗнание особенностей разработки highload-проектов\nУверенное владение Golang\nАналитическое мышление с навыками решения проблем\nОпыт работы с Linux\n\nБудет плюсом:\n\nРабота с docker\nУмение строить SOA\nНавыки работы c оркестраторами и Docker Compose\nЗнание Python\nОпыт работы с инфраструктурой и сервисами Amazon\nОпыт работы с сервисами видеостриминга\nОпыт в построении CI/CD Pipeline\n\nЗдорово, если ты:\nЛюбишь учиться\nОткрытый\nОбщительный\nПозитивный\nСамостоятельный\n\nУсловия и преимущества\nМолодую команду профессионалов\\\nВысокую заработную плату по результатам собеседования\\\nНовый уютный офис в пешей доступности от метро Текстильщики\\\nИгровая зона пинг-понг, кикер \\\nВозможности роста в расширяющейся команде \\\nПремии по KPI\n\n\n\nКоманда:\nДиректор IT;\nТехЛид;\nPM;\nGo ТимЛид;\nReact front x3;\nАналитик;\nДизайнер;\n\nКонтакты: @sandevl","markup":[{"type":"hashtag","offset":0,"length":9,"data":"вакансия"},{"type":"hashtag","offset":10,"length":7,"data":"Golang"},{"type":"hashtag","offset":18,"length":7,"data":"middle"},{"type":"hashtag","offset":26,"length":7,"data":"Senior"},{"type":"hashtag","offset":34,"length":7,"data":"Moscow"},{"type":"hashtag","offset":42,"length":9,"data":"удаленно"},{"type":"handle","offset":2196,"length":8,"data":"sandevl"}],"date":"2020-07-02T09:13:00+00:00","link":"tg://resolve?domain=gogetajobfeed&post=349","tags":[{"name":"go"},{"name":"linux"},{"name":"docker"},{"name":"python"},{"name":"reactjs"},{"name":"docker-compose"}],"cities":[{"code":"moscow"},{"code":"los-angeles"}],"allowsRemote":true}},{"node":{"__typename":"Job","id":"364904448-1001352129329","title":"Golang разработчик","text":"#вакансия #Golang #middle #Senior #Moscow \n\nНазвание компании: Loft\nНазвание вакансии: Golang разработчик \nЗарплатная вилка 100-180 тыс/мес\nГород: Москва\nСписок языков, которые необходимо знать: Русский, Английский (на уровне чтения тех. документации)\nФотрмат работы: офис\n\nПриложение для знакомств LOFT (https://loft-app.com/) - это простой и безопасный способ расширить свой круг общения. Можно встречаться с мужчинами и девушками, которые находятся рядом с вами, или знакомиться с людьми по всему миру.\n\nИдея LOFT - адекватная аудитория, которая открыта к диалогу. Вы знаете тех, с кем общаетесь. \nКому подходит LOFT? Адекватной, современной, молодой аудитории, которая любит технологичные фишки и хочет узнавать людей ближе. \n\nМы - команда LOFT, и мы тоже современные, молодые и классные.\n\nЧто предстоит делать\nРабота над интересным проектом в небольшой компании (штат 28 человек).\nРазработка и поддержка backend для нового дейтинг-проекта.\nНаписание API для веб и мобильных приложений\nСоздание нагруженных сервисов с нуля.\n\n\nСтек технологий, которые мы используем:\n·      Backend: GO / MongoDB / Redis / WebSockets\n·      Frontend: Angular / Vue / Flutter / Swift \n·      PM: Git / Jira / Gitlab\n\nЧто нужно уметь\nОпыт программирования backend от 1 года\nУверенное владение Golang \nОбщее представление о том, как работать с очередями сообщений \nОпыт работы с базами данных разных типов\nУмение и желание покрывать код тестами\nОпыт оценки проектов и задач\nСпособность укладываться в оценки с разумной погрешностью\nЗнания английского языка на уровне чтения тех. документации\n\nУсловия и преимущества\nСложный и интересный проект\nПотенциал для роста, как специалиста\nКомандная работа\nКорпоративные мероприятия\nВ офисе без ограничений чай/кофе, печенье\nPlayStation\n\nКонтакты @Sandevl","markup":[{"type":"hashtag","offset":0,"length":9,"data":"вакансия"},{"type":"hashtag","offset":10,"length":7,"data":"Golang"},{"type":"hashtag","offset":18,"length":7,"data":"middle"},{"type":"hashtag","offset":26,"length":7,"data":"Senior"},{"type":"hashtag","offset":34,"length":7,"data":"Moscow"},{"type":"link","offset":305,"length":21,"data":"https://loft-app.com/"},{"type":"handle","offset":1771,"length":8,"data":"Sandevl"}],"date":"2020-07-02T08:22:20+00:00","link":"tg://resolve?domain=gogetajobfeed&post=348","tags":[{"name":"go"},{"name":"mongodb"},{"name":"redis"},{"name":"angularjs"},{"name":"vuejs"},{"name":"flutter"},{"name":"swift"},{"name":"git"},{"name":"gitlab"}],"cities":[{"code":"moscow"}],"allowsRemote":false}},{"node":{"__typename":"Job","id":"363855872-1001352129329","title":"Golang разработчик","text":"#вакансия #fulltime #Golang #Go #удаленка \n\nНанимаем специалистов по Golang\nЗарплатная вилка: от 130 000 до 180 000 рублей ($1900-$2600)\nТребуемый опыт работы: 3-6 лет\nПолная занятость, полный день\nФормат работы: #удаленная работа либо в #офисе в Казани\n\n🔸 Необходимые навыки:\n• Уверенные знания Golang (GIN, GORM)\n• Опыт командной разработки и системой контроля версий\n• Понимание принципов построения веб-приложений\n• Опыт написания тестов\n• Английский язык на уровне чтения тех документации\n\n🔸 Обязанности:\n• Написание качественного, стабильного и поддерживаемого кода (понимание и использование SOLID принципов)\n• Участие в проектировании системы\n• Написание автотестов\n• Написание документации\n\n🔸 Будет плюсом:\n• Опыт построения высоконагруженных систем\n• Понимание принципов построения распределенных систем\n• Опыт работы с микросеривсной архитектурой\n\n🔸 Условия работы:\n• Компенсация в виде заработной платы + доля в компании\n• Удаленная работа либо работа в офисе компании\n• Интересные задачи, работу над востребованным продуктом\n\nНазвание компании: Mouselive\nКонтакты telegram: @iliadc\nEmail: ilia@mouselive.com\n\nДополнительную информацию о проекте смотрите на нашем сайте: www.mouselive.com","markup":[{"type":"hashtag","offset":0,"length":9,"data":"вакансия"},{"type":"hashtag","offset":10,"length":9,"data":"fulltime"},{"type":"hashtag","offset":20,"length":7,"data":"Golang"},{"type":"hashtag","offset":28,"length":3,"data":"Go"},{"type":"hashtag","offset":32,"length":9,"data":"удаленка"},{"type":"hashtag","offset":213,"length":10,"data":"удаленная"},{"type":"hashtag","offset":238,"length":6,"data":"офисе"},{"type":"handle","offset":1091,"length":7,"data":"iliadc"},{"type":"link","offset":1106,"length":18,"data":"mailto:ilia@mouselive.com"},{"type":"link","offset":1187,"length":17,"data":"http://www.mouselive.com"}],"date":"2020-07-01T17:45:49+00:00","link":"tg://resolve?domain=gogetajobfeed&post=347","tags":[{"name":"go"}],"cities":[],"allowsRemote":true}},{"node":{"__typename":"Job","id":"104146665472-1001089317451","title":"Qa engineer","text":"#вакансия #Москва #офис #QA #тестировщик #fulltime\n\nГород и адрес офиса: Москва, м. Новокузнецкая/Павелецкая\nФормат работы: #офис\nЗанятость: #полная\nЗП: от 90к до 120к руб. нетт\n\nSports.ru - провайдер развлечений для любителей спорта.\nЕсть спорт. Есть болельщики. Мы заполняем среду между ними, оживляем ее, наполняем общением и другими развлечениями. Мы делаем не «сайты» или «приложения», а мультиплатформенные продукты, с учетом актуальной технологической парадигмы.\n\nМы ищем QA Engineer'а в наш флагманский проект Sports.ru.\nЭто главное медиа о спорте на русском языке с аудиторией 18 млн пользователей в месяц. Highload-проект с десятками тысяч RPS, состоящий из самых разных продуктов – сайтов, мобильных приложений, email-рассылок, чат-ботов и многого другого.\n\nВ данный момент мы заняты активным внедрением процесса тестирования. Под капотом - нативный js на фронте, php+perl на бэке. Все новые сервисы разрабатываем на новом стеке: vue.js+ssr+golang+graphql. Да, легаси есть - иногда попадается, но в тестирование всё же большинство задач идут на новом стеке.\n\nО задачах\nВы будете заниматься приёмкой фич и проведением регресса, написанием тестовой документации, разработкой автотестов и регистрацией ошибок в баг-трекере.\n\nО наших ожиданиях\nМы ждем, что вы уже пару лет как в профессии и имеете хороший опыт ручного тестирования. Знаете различные инструменты и подходы к тестированию, обладаете навыками тест-дизайна и умеете их применять.\nПонимаете процессы разработки и тестирования, а также, что процессы не могут быть идеальными, но к этому необходимо стремиться.\nМы также ждем, что вы уже попробовали свои силы в автоматизации тестирования и хотите дальше развиваться в этом направлении (у нас автоматизация на JavaScript).\n\nБудет плюсом\nЕсли вы уже пробовали себя в нагрузочном тестировании и автоматизации мобильных устройств.\n\nОб условиях:\nПросторный стильный офис возле м. Новокузнецкая/Третьяковская.\n“Белая” заработная плата.\nБесплатная медстраховка со стоматологией после испытательного срока.\nГибкий график работы с возможностью день-два в неделю работать удаленно,\nФрукты, снеки, чай, кофе, какао 24/7.\nКорпоративная скидка в спортзал и на занятия английским языком.\nКорпоративный футбол с тренером.\nФинансовая помощь при переезде из другого города.\nВозможности для профессионального развития.\n\nНазвание компании: Sports.ru (Tribuna Digital)\nЕсли заинтересовало, пишите мне в личку (@pbuyatova), рада буду поделиться подробностями 😌","markup":[{"type":"hashtag","offset":0,"length":9,"data":"вакансия"},{"type":"hashtag","offset":10,"length":7,"data":"Москва"},{"type":"hashtag","offset":18,"length":5,"data":"офис"},{"type":"hashtag","offset":24,"length":3,"data":"QA"},{"type":"hashtag","offset":28,"length":12,"data":"тестировщик"},{"type":"hashtag","offset":41,"length":9,"data":"fulltime"},{"type":"hashtag","offset":124,"length":5,"data":"офис"},{"type":"hashtag","offset":141,"length":7,"data":"полная"},{"type":"link","offset":179,"length":9,"data":"http://Sports.ru"},{"type":"bold","offset":179,"length":9,"data":""},{"type":"bold","offset":479,"length":13,"data":""},{"type":"link","offset":518,"length":9,"data":"http://Sports.ru"},{"type":"bold","offset":1070,"length":10,"data":""},{"type":"bold","offset":1233,"length":18,"data":""},{"type":"bold","offset":1740,"length":13,"data":""},{"type":"bold","offset":1845,"length":13,"data":""},{"type":"link","offset":2338,"length":9,"data":"http://Sports.ru"},{"type":"handle","offset":2407,"length":10,"data":"pbuyatova"}],"date":"2020-07-01T15:51:57+00:00","link":"tg://resolve?domain=qa_jobs&post=99322","tags":[{"name":"qa"},{"name":"php"},{"name":"perl"},{"name":"vuejs"},{"name":"go"},{"name":"graphql"},{"name":"javascript"}],"cities":[{"code":"moscow"}],"allowsRemote":true}},{"node":{"__typename":"Job","id":"2267021312-1001134745498","title":"Devops инженер","text":"#вакансия #devops #удаленка\n\nНазвание компании: ZenCar\nГород и адрес офиса: г. Иннополис, ул.Университетская 7.\nФормат работы:  удалёнка, можно офис (обсуждаемо)\nЗанятость: частичная. около 4х ч/день.\nЗарплатная вилка: от 70 до 100 gross (обсуждаемо)\n\nНеобходим человек на сопровождение и поддержание проекта, который уже вышел в продакшн. \n\nОпыт работы на аналогичной позиции от 3х лет.\n\nЗадачи:\n- Автоматизация технологических процессов разработки, тестирования и развертывания ПО.\n- Мониторинг и контроль процессов\n- Разработка совместно с руководителем архитектуры и дизайна систем автоматизации\n- Контроль качества систем автоматизации\n\nТребования:\n\n- Иметь опыт проектирования и разработки инструментов автоматизации\n- Иметь опыт написания тестовых сценариев и автоматизированных тестов\n- Знать и уметь использовать Ansible, Chef, Docker, Docker Compose, Jenkins, Gitlab, Kubernetes, Jira и др. инструменты\n- Знать и иметь опыт с как минимум одним из ЯП: Node.js, Ruby, JavaScript, Golang, Java и др.\n- Опыт автоматизации развертывания и тестирования различных проектов, настройки CI/CD\n- Опыт развертывания и настройки различных программных систем мониторинга\n\n📩Откликаться: \nэл.п.: anna@sayhire.agency \nтелеграм: @anika0801\nКадровое агенство: sayhire.agency.\n\n—\n\n👉 Обсуждение вакансии в чате @devops_jobs","markup":[{"type":"hashtag","offset":0,"length":9,"data":"вакансия"},{"type":"hashtag","offset":10,"length":7,"data":"devops"},{"type":"hashtag","offset":18,"length":9,"data":"удаленка"},{"type":"link","offset":1191,"length":19,"data":"mailto:anna@sayhire.agency"},{"type":"handle","offset":1222,"length":10,"data":"anika0801"},{"type":"link","offset":1252,"length":14,"data":"http://sayhire.agency"},{"type":"handle","offset":1302,"length":12,"data":"devops_jobs"}],"date":"2020-06-30T12:01:52+00:00","link":"tg://resolve?domain=devops_jobs_feed&post=2162","tags":[{"name":"ansible"},{"name":"docker"},{"name":"jenkins"},{"name":"gitlab"},{"name":"kubernetes"},{"name":"nodejs"},{"name":"ruby"},{"name":"javascript"},{"name":"go"},{"name":"java"},{"name":"docker-compose"}],"cities":[],"allowsRemote":true}},{"node":{"__typename":"Job","id":"104047050752-1001089317451","title":"Qa engineer","text":"#вакансия #Москва #офис #QA #тестировщик #fulltime\n\nГород и адрес офиса: Москва, м. Новокузнецкая/Павелецкая\nФормат работы: #офис\nЗанятость: #полная\nЗП: от 90к до 120к руб. нетт\n\nSports.ru - провайдер развлечений для любителей спорта.\nЕсть спорт. Есть болельщики. Мы заполняем среду между ними, оживляем ее, наполняем общением и другими развлечениями. Мы делаем не «сайты» или «приложения», а мультиплатформенные продукты, с учетом актуальной технологической парадигмы.\n\nМы ищем Middle QA Engineer'а в наш флагманский проект Sports.ru.\nЭто главное медиа о спорте на русском языке с аудиторией 18 млн пользователей в месяц. Highload-проект с десятками тысяч RPS, состоящий из самых разных продуктов – сайтов, мобильных приложений, email-рассылок, чат-ботов и многого другого.\n\nВ данный момент мы заняты активным внедрением процесса тестирования. Под капотом - нативный js на фронте, php+perl на бэке. Все новые сервисы разрабатываем на новом стеке: vue.js+ssr+golang+graphql. Да, легаси есть - иногда попадается, но в тестирование всё же большинство задач идут на новом стеке.\n\nО задачах\nВы будете заниматься приёмкой фич и проведением регресса, написанием тестовой документации, разработкой автотестов и регистрацией ошибок в баг-трекере.\n\nО наших ожиданиях\nМы ждем, что вы уже минимум пару лет как в профессии и имеете хороший опыт ручного тестирования. Знаете различные инструменты и подходы к тестированию, обладаете навыками тест-дизайна и умеете их применять.\nПонимаете процессы разработки и тестирования, а также, что процессы не могут быть идеальными, но к этому необходимо стремиться.\nМы также ждем, что вы уже имеете навыки автоматизации.\n\nБудет плюсом\nЕсли вы уже пробовали себя в нагрузочном тестировании и автоматизации мобильных устройств.\n\nОб условиях:\nПросторный стильный офис возле м. Новокузнецкая/Третьяковская.\n“Белая” заработная плата.\nБесплатная медстраховка со стоматологией после испытательного срока.\nГибкий график работы с возможностью день-два в неделю работать удаленно,\nФрукты, снеки, чай, кофе, какао 24/7.\nКорпоративная скидка в спортзал и на занятия английским языком.\nКорпоративный футбол с тренером.\nФинансовая помощь при переезде из другого города.\nВозможности для профессионального развития.\n\nНазвание компании: Sports.ru (Tribuna Digital)\nКого заинтересовало, пишите мне в личку (@pbuyatova) - поделюсь подробностями:)","markup":[{"type":"hashtag","offset":0,"length":9,"data":"вакансия"},{"type":"hashtag","offset":10,"length":7,"data":"Москва"},{"type":"hashtag","offset":18,"length":5,"data":"офис"},{"type":"hashtag","offset":24,"length":3,"data":"QA"},{"type":"hashtag","offset":28,"length":12,"data":"тестировщик"},{"type":"hashtag","offset":41,"length":9,"data":"fulltime"},{"type":"hashtag","offset":124,"length":5,"data":"офис"},{"type":"hashtag","offset":141,"length":7,"data":"полная"},{"type":"link","offset":179,"length":9,"data":"http://Sports.ru"},{"type":"bold","offset":179,"length":9,"data":""},{"type":"bold","offset":479,"length":20,"data":""},{"type":"link","offset":525,"length":9,"data":"http://Sports.ru"},{"type":"bold","offset":1077,"length":10,"data":""},{"type":"bold","offset":1240,"length":18,"data":""},{"type":"bold","offset":1649,"length":13,"data":""},{"type":"bold","offset":1754,"length":13,"data":""},{"type":"link","offset":2247,"length":9,"data":"http://Sports.ru"},{"type":"handle","offset":2316,"length":10,"data":"pbuyatova"}],"date":"2020-06-30T09:32:43+00:00","link":"tg://resolve?domain=qa_jobs&post=99227","tags":[{"name":"qa"},{"name":"php"},{"name":"perl"},{"name":"vuejs"},{"name":"go"},{"name":"graphql"}],"cities":[{"code":"moscow"}],"allowsRemote":true}},{"node":{"__typename":"Job","id":"362807296-1001352129329","title":"Golang разработчик","text":"Ребят, всем привет! \nПостараюсь кратко, подробности в ЛС. Заранее напишу, что это Москва (фултайм/офис), компания Lofty. Ищем в команду как Midle так и Senior Go разработчиков.\nВообщем если хочется в highload, добро пожаловать!)\n\nО проекте:\nЭто высоконагруженное backend приложение для рассылки web push-уведомлений, обслуживающее на данный момент более 100млн показов в сутки. \nЧем у нас предстоит заниматься:\nПрофилировать и оптимизировать существующие сервисы;\nПроводить доработки и интеграцию их в действующий код и инфраструктуру;\nРеализовывать новые бизнес-требования внутри сервиса;\nУстранять возникающие баги в сервисе.\n\nЧто мы ждем от кандидата:\nНавыки работы с Git;\nУверенное знание Golang;\nПонимание технологий HTTP, REST;\nОпыт работы в Unix-окружении.\n\nБудет совсем круто, если вы:\nРаботали с highload-проектами;\nПонимаете и уважаете концепцию CI/CD.\nНаш стек технологий: Golang, Gitlab, MySQL, JS, RabbitMQ, Docker, Ansible, Clickhouse\n\nУсловия: \nЗаработная плата от 130 000 до 300 000 руб. на руки, естественно зависит от уровня, преимущественно смотрим \"мидов\", но и \"джуны\" нам тоже интересны.\n\nНаш сайт: `https://www.lofty.today/\n#вакансия#golang","markup":[{"type":"link","offset":1122,"length":24,"data":"https://www.lofty.today/"}],"date":"2020-06-30T08:24:57+00:00","link":"tg://resolve?domain=gogetajobfeed&post=346","tags":[{"name":"go"},{"name":"web"},{"name":"git"},{"name":"rest"},{"name":"unix"},{"name":"gitlab"},{"name":"mysql"},{"name":"rabbitmq"},{"name":"docker"},{"name":"ansible"}],"cities":[{"code":"moscow"}],"allowsRemote":false}},{"node":{"__typename":"Job","id":"361758720-1001352129329","title":"Golang разработчик","text":"#вакансия #fulltime #офис #удалёнка #Москва #go #golang #kubernetes #k8s\n\nВ команду разработки облачных решений требуются Golang разработчики.\n\nВозможные задачи:\n • Доработка и расширение Kubernetes.\n • Написание Terraform Provider.\n\nТребования:\n • Опыт разработки на Golang\n • Опыт работы с Docker или kubernetes\n • Английский на уровне чтения тех. документации\n\nБудет плюсом:\n • Опыт расширения kubernetes: CRD, Operator.\n • Опыт работы, расширения Terraform.\n • Опыт работы с opensource community, отправки патчей в upstream.\n\nЗарплатная вилка: 150-250 на руки.\nГород: Москва, офис/удалёнка.\nЯзык общения: русский.\nНазвание компании: ITKey https://itkey.com/\nКонтактное лицо: @nepit PTolstikov@itkey.com","markup":[{"type":"hashtag","offset":0,"length":9,"data":"вакансия"},{"type":"hashtag","offset":10,"length":9,"data":"fulltime"},{"type":"hashtag","offset":20,"length":5,"data":"офис"},{"type":"hashtag","offset":26,"length":9,"data":"удалёнка"},{"type":"hashtag","offset":36,"length":7,"data":"Москва"},{"type":"hashtag","offset":44,"length":3,"data":"go"},{"type":"hashtag","offset":48,"length":7,"data":"golang"},{"type":"hashtag","offset":56,"length":11,"data":"kubernetes"},{"type":"hashtag","offset":68,"length":4,"data":"k8s"},{"type":"link","offset":643,"length":18,"data":"https://itkey.com/"},{"type":"handle","offset":679,"length":6,"data":"nepit"},{"type":"link","offset":686,"length":20,"data":"mailto:PTolstikov@itkey.com"}],"date":"2020-06-29T22:17:16+00:00","link":"tg://resolve?domain=gogetajobfeed&post=345","tags":[{"name":"go"},{"name":"kubernetes"},{"name":"docker"}],"cities":[{"code":"moscow"}],"allowsRemote":true}}]}}},"context":{}}