{"hash":"f34fd2c444a074f4e0e67d525015a008ef8e766f","data":{"records":{"id":"redis","name":"redis","belongsTo":{"totalCount":66,"pageInfo":{"totalPages":7,"currentPage":4},"edges":[{"node":{"__typename":"Job","id":"1391460352-1001091028994","title":"Java разработчик","text":"#вакансия #java #javadeveloper #spring #kotlin\n\nГород и адрес офиса: Москва, Преображенская площадь\nФормат работы: в офисе\nЗанятость: фулл тайм\nЗарплатная вилка: 3000$ - 4000$/month\nНазвание компании: крупный банк\n\nРазрабатываем платформу мобильного и интернет-банка (дистанционный банкинг) на основе микросервисов в современном стеке технологий, которые мы выбираем сами. \n\nТЕХНОЛОГИЧЕСКИЙ СТЕК:\n ⁃ ЯП и фреймворки: Java 8/11, Kotlin (по желанию), Spring Boot, Apache Camel.\n ⁃ Хранилища и очереди: Redis, Apache Cassandra, Oracle 12, ActiveMQ, IBM WS MQ.\n ⁃ DevOps & CI: Apache Maven, Jenkins, GitLab, Docker + Kubernetes (внедряем сейчас).\n ⁃ Мониторинг: Elasticsearch, Logstash, Kibana, Sentry (внедряем сейчас), Zabbix.\n\nЧТО ВЫ БУДЕТ ДЕЛАТЬ:\n ⁃ Разрабатывать микросервисы платформы дистанционного банкинга.\n ⁃ Разрабатывать интеграцию мобильного приложения и веб- приложения с сервисами платформы и другими системами Банка.\n ⁃ Разрабатывать архитектурные схемы сервисов и выбирать технологии для решения новых и нетривиальных задач (вместе с архитектором и аналитиком).\n ⁃ Выполнять ревью кода, написанного другими разработчиками, и обучать начинающих разработчиков. \n\nЧТО ПРЕДЛАГАЕМ:\n ⁃ Удобный график работы (плавающее начало рабочего дня);\n ⁃ Комфортный офис класса «А» в 1-й минуте от метро (офис доступен 24/7; open-space, в котором сидят только команды разработки);\n ⁃ Привлекательная система оплаты труда - оклад + ежеквартальные премии + годовой бонус;\n ⁃ Работа в scrum-командах по 6-8 человек, 2-х недельные спринты, демократия и самоорганизация + наличие удаленного доступа;\n ⁃ Обучение внутреннее и внешнее, регулярно проходят митаппы. Мы посещаем ключевые отраслевые конференции;\n ⁃ Профессиональное развитие и карьерный рост;\n ⁃ ДМС и многочисленные скидки и бонусы от партнеров (от каршеринга до ипотеки).\nРезюме можно отправить на почту: a.dorogavtseva@gmail.com, @Dorogavtseva","markup":[{"type":"hashtag","offset":0,"length":9,"data":"вакансия"},{"type":"hashtag","offset":10,"length":5,"data":"java"},{"type":"hashtag","offset":16,"length":14,"data":"javadeveloper"},{"type":"hashtag","offset":31,"length":7,"data":"spring"},{"type":"hashtag","offset":39,"length":7,"data":"kotlin"},{"type":"link","offset":1859,"length":24,"data":"mailto:a.dorogavtseva@gmail.com"},{"type":"handle","offset":1885,"length":13,"data":"Dorogavtseva"}],"date":"2020-03-27T09:07:26+00:00","link":"tg://resolve?domain=jvmjobs&post=1327","tags":[{"name":"java"},{"name":"jvm"},{"name":"spring"},{"name":"kotlin"},{"name":"apache"},{"name":"redis"},{"name":"cassandra"},{"name":"oracle"},{"name":"maven"},{"name":"jenkins"},{"name":"gitlab"},{"name":"docker"},{"name":"kubernetes"},{"name":"elasticsearch"},{"name":"logstash"},{"name":"spring-boot"},{"name":"apache-camel"}],"cities":[{"code":"moscow"}],"allowsRemote":true}},{"node":{"__typename":"Job","id":"1940914176-1001134745498","title":"Devops инженер","text":"#вакансия #DevOps #fulltime \nСанкт-Петербург, м. Чкаловская\nОфис, полная занятость \nЗарплата от 150 000 до 200 000\nЧто предстоит делать:\n-Настройка и поддержание в работоспособном состоянии продуктовых бизнес систем\n-Работа с инфраструктурой в DigitalOcean, AWS\n-Автоматизация разворачивания сервисов\n-Миграция, а также поддержка проектов на Kubernetes\n-Интеграция новых сервисов в существующую инфраструктуру\n-Администрирование операционных систем: RHEL/CentOS, Ubuntu\nЧто нам нужно от Вас:\n-Обязателен production опыт эксплуатации кластера kubernetes\n-Опыт работы с Linux системами\n-Понимание работы сетевых протоколов\n-Docker\n-git\n-Написание и поддержка Ansible playbooks\n-CI/CD (мы используем Drone CI, CircleCI)\n-Знакомство с одним из языков: Go, Python, Bash\n-Знания хотя бы об одном из продуктов: nginx, haproxy, tomcat\n-Опыт работы с PostgreSQL/MySQL, MongoDB\n-Глубокое понимание Terraform\n-Amazon Web Services\n-Знакомство с Prometheus\nNice to have:\n-Базовые знания DigitalOcean\n-Опыт работы с Kafka, Redis\n-Знакомство с ElasticSearch\nКомпания Snowball Gaming https://www.linkedin.com/company/snowball-gaming/about/\nКонтакт: maria.yudina@snowball.dev, TG @maria_you\n\n—\n\n👉 Обсуждение вакансии в чате @devops_jobs","markup":[{"type":"hashtag","offset":0,"length":9,"data":"вакансия"},{"type":"hashtag","offset":10,"length":7,"data":"DevOps"},{"type":"hashtag","offset":18,"length":9,"data":"fulltime"},{"type":"link","offset":1068,"length":55,"data":"https://www.linkedin.com/company/snowball-gaming/about/"},{"type":"link","offset":1133,"length":25,"data":"mailto:maria.yudina@snowball.dev"},{"type":"handle","offset":1163,"length":10,"data":"maria_you"},{"type":"handle","offset":1208,"length":12,"data":"devops_jobs"}],"date":"2020-03-26T12:56:42+00:00","link":"tg://resolve?domain=devops_jobs_feed&post=1851","tags":[{"name":"amazon-web-services"},{"name":"kubernetes"},{"name":"centos"},{"name":"ubuntu"},{"name":"linux"},{"name":"docker"},{"name":"git"},{"name":"ansible"},{"name":"python"},{"name":"bash"},{"name":"nginx"},{"name":"tomcat"},{"name":"postgresql"},{"name":"mysql"},{"name":"mongodb"},{"name":"web"},{"name":"kafka"},{"name":"redis"},{"name":"elasticsearch"}],"cities":[{"code":"nice"}],"allowsRemote":false}},{"node":{"__typename":"Job","id":"23928504320-1001075660570","title":"Php разработчик","text":"#вакансия #Екатеринбург #екб #fulltime #php7 #Yii\nООО \"66 Бит\" — профессиональный разработчик программного обеспечения, специализирующийся на разработке под заказ не типовых IT проектов, ориентированных на международные рынки и крупных государственных заказчиков.\n\nВ связи с расширением компании, мы готовы взять в нашу команду талантливого и целеустремленного PHP разработчика.\n\nНаша основная специализация - разработка сложных программных продуктов на заказ. Мы будем рады всем тем, для кого IT – это призвание и любимое занятие.\n\nОбязанности:\n\n🏅разрабатывать backend-часть сайтов / сервисов;\n🏅разрабатывать CRUD админку на Yii2;\n🏅разрабатывать RESTful API на Yii2;\n\nТребования:\n🏅уверенные знание PHP 7‚ ООП;\n🏅знание Yii2 (или аналогичного фреймворка);\n🏅знание БД (MySQL‚ PostgreSQL): хорошее знание SQL‚ знание тонкостей оптимизации запросов;\n🏅уверенные знания HTML/HTML5‚ CSS‚ AJAX‚ препроцессоры;\n🏅опыт использования системы контроля версий – Git.\n\nБудет плюсом:\n🏅опыт работы с Gitlab-ci, Vue.js, Jira, Confluence;\n🏅опыт внедрения GraphQL в API.\n\nНаш стек технологий:\n🏅Инфраструктура на базе Docker и Gitlab-CI на собственных серверах (CI/CD);\n🏅Elastiсsearch + Kibana для поиска и анализа данных;\n🏅MySQL, PostgreSQL;\n🏅PHP 7+ Yii2;\n🏅Mysql, Redis, RabbitMQ;\n🏅Vue.js на фронте.\n\nУсловия:\n\n🔎Интересные задачи;\n👩🏼‍💻👨🏽‍💻Дружный молодой коллектив;\n⏱Плавающее начало рабочего дня;\n🏢Офис в центре, удобная транспортная развязка;\n📈Большие возможности профессионального роста;\n\n💰Вознаграждение зависит от уровня квалификации и устанавливается по итогам выполнения тестового задания;\n🍪🥤Кола, печеньки, чай, кофе и сок в ассортименте.\n\nКонтакты: @chapnow","markup":[{"type":"hashtag","offset":0,"length":9,"data":"вакансия"},{"type":"hashtag","offset":10,"length":13,"data":"Екатеринбург"},{"type":"hashtag","offset":24,"length":4,"data":"екб"},{"type":"hashtag","offset":29,"length":9,"data":"fulltime"},{"type":"hashtag","offset":39,"length":5,"data":"php7"},{"type":"hashtag","offset":45,"length":4,"data":"Yii"},{"type":"handle","offset":1666,"length":8,"data":"chapnow"}],"date":"2020-03-25T05:44:55+00:00","link":"tg://resolve?domain=php_jobs&post=22820","tags":[{"name":"php"},{"name":"yii"},{"name":"mysql"},{"name":"postgresql"},{"name":"sql"},{"name":"html"},{"name":"css"},{"name":"ajax"},{"name":"git"},{"name":"gitlab"},{"name":"vuejs"},{"name":"graphql"},{"name":"docker"},{"name":"redis"},{"name":"rabbitmq"}],"cities":[],"allowsRemote":false}},{"node":{"__typename":"Job","id":"23914872832-1001075660570","title":"Php developer","text":"#вакансия #php #senior #middle #москва \nКомпания skillbox.ru ищет в команду Middle/Senior PHP Developer (Laravel).\n\nЧем предстоит заниматься:\n •  Нужно будет продолжать развивать сервис авторизации;\n •  Поддерживать текущие проектов на Laravel + Vue;\n •  Участвовать в Code Review;\n •  Писать Unit-тесты;\n •  Ведение документации своего кода;\n •  Принимать активное участие в проектировании микросервисов и БД.\n\nЧто мы ждем от вас:\n •  Уверенные знания PHP7, MySQL, Laravel;\n •  Умение разбираться в Legacy code;\n •  Опыт работы с Redis, WebSockets;\n •  Опыт работы с системами контроля версий – git;\n •  Опыт интеграции с внешними системами по API;\n •  Хорошее знание системы Linux (Ubuntu);\n •  Ответственность и инициативность;\n •  Умение внятно выражать свои мысли устно и письменно;\n •  Умение адекватно оценивать сроки на реализацию той или иной задачи.\n\nМы предлагаем отличные условия:\n •  Белую зарплату от 150.000 net (оклад обсудим индивидуально)\n •  Возможность прохождения любых дистанционных курсов Skillbox бесплатно, а еще корпоративную скидку на изучение английского языка в Skyeng и фитнес.\n •  Рост внутри компании не ограничен, всегда найдется то, что будет интересно тебе;\n •  Корпоративные активности (волейбол, футбол, квесты, квизы, шахматы, Skillbox.fm и др.);\n •  Наша команда творит в новом и стильном офисе на м.Октябрьская;\n •  Гибкий график работы (время прихода на работу в интервале с 8 до 12) и отсутствие дресс-кода;\n\nКонтакты: alina.nesterova@skillbox.ru      @AlinalaAlina","markup":[{"type":"hashtag","offset":0,"length":9,"data":"вакансия"},{"type":"hashtag","offset":10,"length":4,"data":"php"},{"type":"hashtag","offset":15,"length":7,"data":"senior"},{"type":"hashtag","offset":23,"length":7,"data":"middle"},{"type":"hashtag","offset":31,"length":7,"data":"москва"},{"type":"link","offset":49,"length":11,"data":"http://skillbox.ru"},{"type":"bold","offset":76,"length":38,"data":""},{"type":"bold","offset":116,"length":25,"data":""},{"type":"bold","offset":412,"length":19,"data":""},{"type":"bold","offset":861,"length":31,"data":""},{"type":"link","offset":1265,"length":11,"data":"http://Skillbox.fm"},{"type":"link","offset":1461,"length":27,"data":"mailto:alina.nesterova@skillbox.ru"},{"type":"handle","offset":1494,"length":13,"data":"AlinalaAlina"}],"date":"2020-03-24T14:13:39+00:00","link":"tg://resolve?domain=php_jobs&post=22807","tags":[{"name":"php"},{"name":"laravel"},{"name":"vuejs"},{"name":"mysql"},{"name":"redis"},{"name":"git"},{"name":"linux"},{"name":"ubuntu"},{"name":"dotnet"}],"cities":[{"code":"moscow"}],"allowsRemote":false}},{"node":{"__typename":"Job","id":"23899144192-1001075660570","title":"Php разработчик","text":"#вакансия  #fulltime #Fullstack #спб #санкт_петербург\nВакансия: Fullstack-разработчик\nКомпания: 4people\nГород: Санкт-Петербург. ст.м. Обводный канал\nФормат работы: #офис\nЗанятость: #полная\nЗ/п: от 100 000 до 170 000 р. \n\n🔎В нашу команду в связи с расширением срочно разыскивается Fullstack Web-программист!\n\n❗️Основные обязанности:\n- Разработка новых сервисов.\n- Оптимизация и поддержка текущих проектов.\n- Мы используем: PHP7, JavaScript, Redis, MongoDB, YouTrack.\n\nДобро пожаловать, в нашу команду если вы:💪\n- Имеете опыт разработки на PHP.\n- Знаете ООП, умеете применять на практике основные паттерны.\n- Знакомы с JS фреймворками.\n- Работали с MVC-фреймворками на базе PHP.\n- Разбираетесь и умеете использовать разные хранилища данных там где они необходимы.\n\n🏅Мы предлагаем:\n- Достойный уровень заработной платы (зависит от пожеланий и профессионально уровня кандидата).\n- Поездки на ИТ-конференции, митапы, учебные курсы за счет компании.\n- Возможность гибкого начала рабочего дня.\n- Бесплатные корпоративные обеды.\n- Абонемент в спорт зал за счет компании.\n\nЖдем вопросы и резюме: \n✍️ @hrkaterina \n✉️ ekaterina.4people@gmail.com","markup":[{"type":"hashtag","offset":0,"length":9,"data":"вакансия"},{"type":"hashtag","offset":11,"length":9,"data":"fulltime"},{"type":"hashtag","offset":21,"length":10,"data":"Fullstack"},{"type":"hashtag","offset":32,"length":4,"data":"спб"},{"type":"hashtag","offset":37,"length":16,"data":"санкт_петербург"},{"type":"hashtag","offset":164,"length":5,"data":"офис"},{"type":"hashtag","offset":181,"length":7,"data":"полная"},{"type":"handle","offset":1094,"length":11,"data":"hrkaterina"},{"type":"link","offset":1110,"length":27,"data":"mailto:ekaterina.4people@gmail.com"}],"date":"2020-03-23T12:39:08+00:00","link":"tg://resolve?domain=php_jobs&post=22792","tags":[{"name":"php"},{"name":"web"},{"name":"javascript"},{"name":"redis"},{"name":"mongodb"}],"cities":[],"allowsRemote":false}},{"node":{"__typename":"Job","id":"23886561280-1001075660570","title":"Php разработчик","text":"Привет! Познакомлюсь с классным PHP Team Lead! \n\n#вакансия #офис  #Питер  #php #symfony #teamlead  #Санкт #Петербург  #lead  #senior\n\n- з\\п от 200к рублей net\n\n🔥Что будем делать: корп портал с 0, который поможет большой компании работать более эффективно и хорошо. \n\n🔥А дальше: предлагаем возглавить тебе всю php-разработку, то есть взять на себя уже не одну, а несколько команд. И да, это про нанимать людей, создавать dream team и прочие приятности).\n\nСтэк: PHP, API Platform, Symfony 4. MySQL, PostgreSQL. Redis, RabbitMQ, Apache Kafka. SOLID, git, контейнеризация, CI/CD. Agile: Scrum. Любим code review и open source.\n\n🔥Что ждём от тебя:\n— PHP, Symfony — уровень ниндзя/мастер йода/красавчик.\n— PostgreSQL: сложные запросы, оптимизация, понимание внутреннего устройства.\n— Опыт/огромное желание руководить командой от 3-х человек.\n\nБудет плюсом (но не критично на входе):\n— Domain Driven Design \n— JS, React\n \nЧто ты получишь:\n— Компенсация: зп + kpi по результатам выполнения квартального плана (составляется тобой с продакт менеджером).\n— Офис в совсем шаговой доступности от м. Ладожская (Санкт-Петербург)\n— Свобода в найме команды и планировании, нам важны результаты.\n\nПиши (но не сокращай) Кристине @isaevakristi.","markup":[{"type":"bold","offset":0,"length":49,"data":""},{"type":"hashtag","offset":49,"length":9,"data":"вакансия"},{"type":"hashtag","offset":59,"length":5,"data":"офис"},{"type":"hashtag","offset":66,"length":6,"data":"Питер"},{"type":"hashtag","offset":74,"length":4,"data":"php"},{"type":"hashtag","offset":79,"length":8,"data":"symfony"},{"type":"hashtag","offset":88,"length":9,"data":"teamlead"},{"type":"hashtag","offset":99,"length":6,"data":"Санкт"},{"type":"hashtag","offset":106,"length":10,"data":"Петербург"},{"type":"hashtag","offset":118,"length":5,"data":"lead"},{"type":"hashtag","offset":125,"length":7,"data":"senior"},{"type":"bold","offset":160,"length":18,"data":""},{"type":"bold","offset":268,"length":11,"data":""},{"type":"bold","offset":456,"length":5,"data":""},{"type":"bold","offset":626,"length":20,"data":""},{"type":"bold","offset":840,"length":40,"data":""},{"type":"bold","offset":918,"length":17,"data":""},{"type":"bold","offset":1182,"length":45,"data":""},{"type":"handle","offset":1213,"length":13,"data":"isaevakristi"}],"date":"2020-03-23T10:20:51+00:00","link":"tg://resolve?domain=php_jobs&post=22780","tags":[{"name":"php"},{"name":"symfony"},{"name":"dotnet"},{"name":"mysql"},{"name":"postgresql"},{"name":"redis"},{"name":"rabbitmq"},{"name":"apache"},{"name":"kafka"},{"name":"git"},{"name":"reactjs"}],"cities":[],"allowsRemote":false}},{"node":{"__typename":"Job","id":"1927282688-1001134745498","title":"Devops инженер","text":"#вакансия #DevOps #новосибирск \n\nГород: Новосибирск - на выбор два офиса - Академгородок или центр города (метро пл.Ленина)\nФормат работы: офис\nЗанятость: полная\nЗарплатная вилка: от 120 до 180 на руки (готовы смотреть выше) \n\nPushwoosh – глобальный хайлоад продукт для разработчиков и владельцев мобильных приложений и сайтов. Мы предоставляем решения для отправки пуш-уведомлений как стартапам, так и компаниям с многомиллионными аудиториями, и обрабатываем более двух миллиардов API-запросов ежедневно. \n\nЗадачи:\nподготавливать и поддерживать K8s-кластер, мониторинг (Prometheus), ansible, storage(CEPH), databases(mongodb, postgresql), очереди/in-mem(redis, kafka, rabbit). \nВсё до момента консампшена командой разработки. \n\nТребования:\n- Advanced Linux user (в идеале CentOS и RHEL);\n- Любой скриптовый язык (bash, python, etc...)\n- Хорошо знать хотя бы одну систему управления конфигами (у нас Ansible, но будем смотреть и людей с puppet, chef, terraform, etc.) \n\nРабота в офисе, не удаленка\nБелые, ДМС, фитнес, английский, курсы и т.д.  \n\nКонтакты: @glad2seeyou\n\n—\n\n👉 Обсуждение вакансии в чате @devops_jobs","markup":[{"type":"hashtag","offset":0,"length":9,"data":"вакансия"},{"type":"hashtag","offset":10,"length":7,"data":"DevOps"},{"type":"hashtag","offset":18,"length":12,"data":"новосибирск"},{"type":"handle","offset":1056,"length":12,"data":"glad2seeyou"},{"type":"handle","offset":1103,"length":12,"data":"devops_jobs"}],"date":"2020-03-23T07:48:51+00:00","link":"tg://resolve?domain=devops_jobs_feed&post=1838","tags":[{"name":"ansible"},{"name":"mongodb"},{"name":"postgresql"},{"name":"redis"},{"name":"kafka"},{"name":"rabbitmq"},{"name":"linux"},{"name":"centos"},{"name":"bash"},{"name":"python"}],"cities":[{"code":"novosibirsk"}],"allowsRemote":true}},{"node":{"__typename":"Job","id":"674234368-1001089319619","title":"Ruby разработчик","text":"#работа #RoR #офис #полный_день_после_каратнтина #Минск #OTS\n\n📌Ruby Engineer at Tripledot Studios \n\nOn The Spot Development в поисках Ruby Engineer для работы над проектом от британского заказчика-разработчика и издателя казуальных игр Tripledot Studios https://tripledotstudios.com/\nTripledot Studios была основана в 2017 году в Лондоне. В 2018 году привлекла 8 млн. долларов инвестиций и за короткий промежуток времени вышла на уровень самоокупаемости. В белорусском центре разработки на данный момент команда работает 6 играми и разрабатывает серверные решения для маркетинга и аналитики, а также планирует запускать новые игры.\nМы ищем творчески настроенного Ruby-разработчика, который пополнит наш серверный коллектив.\n📌Задачи:\n- Написание высококачественного кода, работа с задачами, связанными с проектированием серверной части;\n- Поддержка и развертывание облачной инфраструктуры;\n- Написание автотестов;\n- Для нас очень важно умение слушать и выражать свои мысли на английском языке, каждый день, в устной и письменной формах.\n\n📌Пожелание к кандидату:\n- Высокий технический уровень в области сервер-сайд разработки, опыт работы и четкое понимание стека Ruby & Ruby on Rails;\n- Уверенная работа с базами данных (MySQL/Postgresql);\n- Опыт построения и развертывания продакшн API;\n- Опыт работы с docker и оркестраторами (kubernetis, swarm, mesos, ...);\n- Знание компонентов AWS таких, как EC2, S3, Lambda;\n- Базовые знания по работе в Linux среде;\n- Redis/memcache.\n\n📌Мы предлагаем взамен:\n- Работу в высокопрофессиональной команде. Неформальную и дружную атмосферу в коллективе;\n- Официальное оформление по контракту, оплачиваемый отпуск - 25 календарных дней, \n- 100% оплата больничных листов;\n- 5 sick days в год без подтверждающих документов;\n- Заработную плату, защищенную от инфляции с регулярным пересмотром условий компенсации;\n- Гибкий рабочий график и свобода действий;\n- Возможность частичной удаленной работы по согласованному с заказчиком графику;\n- Курсы английского языка 2 раза в неделю в офисе за счет компании;\n- Релокационный бонус на случай переезда из другой страны;\n- Удобное месторасположение в центре Минска в 2-х минутах от ст.м. Молодежная по адресу: ул. Пинская 28а;\n- Комфортабельный и благоустроенный оупен-спейс с организованной кухней по домашнему типу со свежими фруктами, йогуртами, кофемашиной, сладостями и печеньем;\n- Комфортное рабочее место, топовое железо и оборудование для работы по запросу сотрудника (по умолчанию Mac);\n- Яркую и запоминающуюся корпоративную жизнь: корпоративы 2 раза в год, подарки сотрудникам в честь жизненных событий, еженедельные pizza-fridays с настольными играми.\n\nЗ/П: $1500-2500 \n\nПрисоединяйтесь - будет круто!\nПо всем вопросам и за дополнительной информацией обращайтесь к Ксюше Павловой @ksusha_psy","markup":[{"type":"hashtag","offset":0,"length":7,"data":"работа"},{"type":"hashtag","offset":8,"length":4,"data":"RoR"},{"type":"hashtag","offset":13,"length":5,"data":"офис"},{"type":"hashtag","offset":19,"length":29,"data":"полный_день_после_каратнтина"},{"type":"hashtag","offset":49,"length":6,"data":"Минск"},{"type":"hashtag","offset":56,"length":4,"data":"OTS"},{"type":"link","offset":255,"length":29,"data":"https://tripledotstudios.com/"},{"type":"handle","offset":2770,"length":11,"data":"ksusha_psy"}],"date":"2020-03-19T17:07:17+00:00","link":"tg://resolve?domain=rubyjob&post=643","tags":[{"name":"ruby"},{"name":"ruby-on-rails"},{"name":"mysql"},{"name":"postgresql"},{"name":"docker"},{"name":"amazon-web-services"},{"name":"aws-lambda"},{"name":"linux"},{"name":"redis"}],"cities":[{"code":"minsk"}],"allowsRemote":true}},{"node":{"__typename":"Job","id":"1913651200-1001134745498","title":"Devops инженер","text":"#вакансия #DevOps\nМосква, м.Ботанический сад\nФормат работы: офис\nЗанятость: полная\nЗаработная плата: 180 000р. на руки - фиксированный оклад\n(в планах со 2/3 квартала - квартальные премии по итогам работы до 45 000р. на руки) \nЧто делать:\n- Разработка и поддержка инфраструктуры для dev/test/prod (On-Cloud и On-Premise);\n- Разработка и поддержка процессов CI/CD;\n- Выбор технологий для реализации проектов;\n- Разработка и поддержка систем мониторинга, регистрации инцидентов и оповещения;\n- Организация бесперебойной работы всех сервисов (на всех уровнях: от инфраструктуры до разрабатываемого ПО);\n- Развертывание и поддержка общей инфраструктуры (nginx, haproxy, dns, iptables, ssh, sssd & etc).\nЧто нужно знать и уметь:\n- Экспертное понимание Linux (Ubuntu/CentOS7);\n- Знание скриптовых языков;\n- Опыт работы с технологиями виртуализации (VMware) и контейнеризации (Docker);\n- Опыт развёртывания и эксплуатации CI/CD (GitLab-CI, Jenkins);\n- Навыки работы и администрирования GitLab, Jira, Confluence;\n- Опыт внедрения и эксплуатации систем мониторинга и сбора метрик (ELK, Prometheus, Grafana, Sentry);\n- Опыт развёртывания и эксплуатации Redis, MySQL, RabbitMQ, HAProxy, nginx, PostgreSQL, php-fpm);\n- Интеграция Jenkins, Jira, GitLab. \nКомпания: АСНА (www.asna.ru)\nКонтакты: 8(965)194-28-96 (WhatsApp), @mil0lika (Telegram)\n\n—\n\n👉 Обсуждение вакансии в чате @devops_jobs","markup":[{"type":"hashtag","offset":0,"length":9,"data":"вакансия"},{"type":"hashtag","offset":10,"length":7,"data":"DevOps"},{"type":"link","offset":1258,"length":11,"data":"http://www.asna.ru"},{"type":"link","offset":1281,"length":15,"data":"tel:8(965)194-28-96"},{"type":"handle","offset":1309,"length":9,"data":"mil0lika"},{"type":"handle","offset":1364,"length":12,"data":"devops_jobs"}],"date":"2020-03-18T10:52:54+00:00","link":"tg://resolve?domain=devops_jobs_feed&post=1825","tags":[{"name":"cloud"},{"name":"nginx"},{"name":"dns"},{"name":"ssh"},{"name":"linux"},{"name":"ubuntu"},{"name":"centos"},{"name":"docker"},{"name":"gitlab"},{"name":"jenkins"},{"name":"redis"},{"name":"mysql"},{"name":"rabbitmq"},{"name":"postgresql"},{"name":"php"}],"cities":[{"code":"moscow"}],"allowsRemote":false}},{"node":{"__typename":"Job","id":"1910505472-1001134745498","title":"Devops engineer","text":"#вакансия DevOps Engineer \n#vacancy #job #вакансия #работа #кипр #cyprus #fulltime #relocate #релокация #DevOps #linux #golang #ClickHouse #PostgreSQL #Kafka \n \nКомпания: TrafficStars \nГород: Лимасcол, Кипр \nФормат работы: офис \nЗанятость: полная \nЗарплатная вилка: от 2500 до 3500 евро на руки \n \nОписание вакансии:  \nDevOps Engineer в кипрскую ad-network компанию TrafficStars, релокация в г. Лимасcол \n \nНаш базовый стек: \n•Linux; \n•Golang, Python; \n•PostgreSQL, ClickHouse, Kafka, ELK, Redis; \n•Consul. \n \nЗадачи: \n•Развертывание и поддержка IT-инфраструктуры проекта в ЦОДах Европы, США и Азии; \n•Сопровождение кластеров PostgreSQL, ClickHouse и Kafka; \n•Автоматизация процессов деплоя конфигурации (Ansible); \n•Настройка дев процессов CI на Atlassian стеке (JIRA, Bitbucket, Bamboo) или аналоге; \n•Взаимодействие с хостинг-провайдерами (админы в саппорте, тикеты, постановка и контроль задач по серверам). \n \nБольшой плюс в опыте: \n•Настройка и мониторинг БД и разрабатываемых сервисов; \n•Репликация, бекапы, шардинг; \n•Установка и настройка среды разработки, тестирования и деплоя; \n•Оптимизация всех сервисов под highload (каждые сутки сохраняем более 4 млрд. новых событий); \n•Настройка и поддержка DNS, CDN, monitoring и прочих сервисов; \n•Опыт работы с контейнеризацией (Docker/LXC/Kubernetes); \n•Опыт работы с системами контроля версий. \n \nМы предлагаем: \n•Релокационный пакет: \n- покупаем билеты до Кипра тебе и твоей семье; \n- встречаем в аэропорту; \n- оформляем рабочую визу; \n- оплачиваем жильё на первый месяц; \n•Медицинскую страховку для тебя и твоей семьи; \n•50% компенсация затрат на детский сад и школу; \n•Оплачиваемую мобильную связь; \n•Бесплатные и вкусные завтраки, обеды и напитки; \n•Фрукты, снэки и другие вкусняшки в офисе; \n•Рабочий компьютер/ноутбук на выбор: Mac или PC; \n•Корпоративные скидки (кафе, магазины и др); \n•Бесплатные абонементы в спортзал и занятия йогой; \n•Уроки английского и греческого языка; \n•Корпоративные вечеринки, тимбилдинги; \n•Корпоративные митапы и конференции; \n•Интересные проекты; \n•Приятную рабочую атмосферу. \n  \nПрисоединяйся к нашей молодой и талантливой команде! \n \nКонтакты: +35795588440 \ntelegram: sofia_tomashevich \ne-mail: sofia@trafficstars.com\n\n—\n\n👉 Обсуждение вакансии в чате @devops_jobs","markup":[{"type":"hashtag","offset":0,"length":9,"data":"вакансия"},{"type":"hashtag","offset":27,"length":8,"data":"vacancy"},{"type":"hashtag","offset":36,"length":4,"data":"job"},{"type":"hashtag","offset":41,"length":9,"data":"вакансия"},{"type":"hashtag","offset":51,"length":7,"data":"работа"},{"type":"hashtag","offset":59,"length":5,"data":"кипр"},{"type":"hashtag","offset":65,"length":7,"data":"cyprus"},{"type":"hashtag","offset":73,"length":9,"data":"fulltime"},{"type":"hashtag","offset":83,"length":9,"data":"relocate"},{"type":"hashtag","offset":93,"length":10,"data":"релокация"},{"type":"hashtag","offset":104,"length":7,"data":"DevOps"},{"type":"hashtag","offset":112,"length":6,"data":"linux"},{"type":"hashtag","offset":119,"length":7,"data":"golang"},{"type":"hashtag","offset":127,"length":11,"data":"ClickHouse"},{"type":"hashtag","offset":139,"length":11,"data":"PostgreSQL"},{"type":"hashtag","offset":151,"length":6,"data":"Kafka"},{"type":"link","offset":2142,"length":12,"data":"tel:+35795588440"},{"type":"link","offset":2193,"length":22,"data":"mailto:sofia@trafficstars.com"},{"type":"handle","offset":2250,"length":12,"data":"devops_jobs"}],"date":"2020-03-16T16:17:55+00:00","link":"tg://resolve?domain=devops_jobs_feed&post=1822","tags":[{"name":"linux"},{"name":"go"},{"name":"postgresql"},{"name":"kafka"},{"name":"python"},{"name":"redis"},{"name":"ansible"},{"name":"dns"},{"name":"docker"},{"name":"kubernetes"}],"cities":[{"code":"sofia"}],"allowsRemote":false}}]}}},"context":{}}