{"hash":"f5f6bf98bd95e769321482904cbbd488f77922fd","data":{"records":{"id":"russia/moscow","country":{"code":"russia","ruName":"Россия","enName":"Russia"},"city":{"code":"moscow","ruName":"Москва","enName":"Moscow"},"belongsTo":{"totalCount":476,"pageInfo":{"totalPages":48,"currentPage":25},"edges":[{"node":{"__typename":"Job","id":"71867301888-1001054966032","title":"Mobile разработчик","text":"#вакансия #работа #Москва #fulltime#IOS #Swift #ObjectiveC\n \nВсем привет:)\nИщем iOS разработчика с опытом работы от 1 года.\nЛокация: Москва, м. Бауманская/удаленка\nЗанятость: полный день\nВилка: до 150 000 на руки.\n \nMobile Dimension – продуктовая компания-разработчик В2В и В2С решений. В нашем действующем портфеле продуктов четыре решения, которые успешно реализуются на рынке. \n \nPregnancy Tracker  - это площадка для будущих мам, с активной аудиторией по всему миру (2 млн). Мы работаем в странах СНГ, Америке и выходим на рынок Китая. \nРазвитие проекта предполагает создание экосистемы приложений, а также внедрение внутренней криптовалюты.\n \nЗадачи:\n•Разработка нового функционала \n•Участие в полном цикле жизни продукта\n•Тесное взаимодействие с командами разработки и тестирования\n \nОжидания:\n•Опыт разработки под iOS от 1 года\n•Умение читать Оbjective-С\n•RxSwift, RxCocoa, RxFeedback, MagicalRecor, Moya\n•AutoLayout из кода\n•База данных Realm\n \nУсловия:\n•Достойная заработная плата по итогам собеседования\n•Оформление по ТК\n•Корпоративное обучение, профессиональный рост\n•Удобный график работы\n•Молодая и сплоченная команда, комфортная атмосфера и современный офис рядом с метро Бауманская. \n \nПо всем вопросам пишите в телеграм - Jenya_sll 😊","markup":[{"type":"hashtag","offset":0,"length":9,"data":"вакансия"},{"type":"hashtag","offset":10,"length":7,"data":"работа"},{"type":"hashtag","offset":18,"length":7,"data":"Москва"},{"type":"hashtag","offset":40,"length":6,"data":"Swift"},{"type":"hashtag","offset":47,"length":11,"data":"ObjectiveC"},{"type":"link","offset":216,"length":17,"data":"https://mobiledimension.ru/"},{"type":"bold","offset":216,"length":17,"data":""},{"type":"link","offset":383,"length":18,"data":"https://pregnancytracker.app/ru/"},{"type":"bold","offset":383,"length":18,"data":""},{"type":"bold","offset":648,"length":7,"data":""},{"type":"bold","offset":790,"length":9,"data":""},{"type":"bold","offset":953,"length":8,"data":""}],"date":"2020-06-23T12:37:33+00:00","link":"tg://resolve?domain=mobile_jobs&post=68538","tags":[{"name":"mobile"},{"name":"ios"},{"name":"swift"},{"name":"realm"}],"cities":[{"code":"moscow"}],"allowsRemote":true}},{"node":{"__typename":"Job","id":"107796758528-1001119539411","title":"Net разработчик","text":"#вакансия #офис #москва #сетевойинженер #network #vacancy #moscow #cisco #dc\n\nВсем добрый день! \n\nNetwork Consulting Engineer – DC (Сетевой инженер-консультант DC)\nМосква, офис, м. Крылатское\n180-300 т.р. \nОпыт: от 5 лет в сетевой архитектуре\n\nИщем опытного сетевого инженера экспертного уровня в международную компанию. Работать предстоит со сложными кейсами в нескольких больших сетях. Быстро и качественно.\n\n🔹Надо обязательно иметь в багаже: \n• любой из сертификатов DC: CCIE, CCNA, CCNP\n• продукты и технологии Cisco.\n•: Nexus Products\n• IP-технологии, протоколы и топология сети.\n\n🔹Ещё желательно: \n•Cisco Nexus 2K, 5K, 7K, 9K, Cisco NX-OS\n•Cisco UCS\n•Cisco MDS\n•OTV, Fabric Path, VxLAN, Fiber Channel,iSCSI\n•Cisco ACE\n•VMWare ESXi, Microsoft Hypervisorи\n•Storage systems: HP, Brocade, etc.\n\n🔹Условия: \n- официальный ТД, белая зарплата\n- график работы 5/2 с 9 до 18 часов\n- можно работать из дома 2-3 раза в месяц  \n\nС удовольствием отвечу на все ваши вопросы: litvak.ty@gmail.com, телеграмм @Tatiana_Litvak, watsapp +79114741607","markup":[{"type":"hashtag","offset":0,"length":9,"data":"вакансия"},{"type":"hashtag","offset":10,"length":5,"data":"офис"},{"type":"hashtag","offset":16,"length":7,"data":"москва"},{"type":"hashtag","offset":24,"length":15,"data":"сетевойинженер"},{"type":"hashtag","offset":40,"length":8,"data":"network"},{"type":"hashtag","offset":49,"length":8,"data":"vacancy"},{"type":"hashtag","offset":58,"length":7,"data":"moscow"},{"type":"hashtag","offset":66,"length":6,"data":"cisco"},{"type":"hashtag","offset":73,"length":3,"data":"dc"},{"type":"link","offset":969,"length":19,"data":"mailto:litvak.ty@gmail.com"},{"type":"handle","offset":1000,"length":15,"data":"Tatiana_Litvak"},{"type":"link","offset":1025,"length":12,"data":"tel:+79114741607"}],"date":"2020-06-23T11:59:34+00:00","link":"tg://resolve?domain=microsoftstackjobs&post=102803","tags":[{"name":"dotnet"},{"name":"csharp"}],"cities":[{"code":"moscow"}],"allowsRemote":false}},{"node":{"__typename":"Job","id":"352321536-1001352129329","title":"Golang разработчик","text":"#hr #вакансия #Москва #backend #командасобранасамимбоженькой\n\n🔴 Xena Exchange - профессиональная торговая платформа для профессиональных трейдеров и институциональных инвесторов. \n🔍 Хотим позвать в нашу дружную команду ЕЩЕ Backend Go Engineer \n\n✔️ Типичные задачи/режим работы: \n- В плоской SCRUM-команде из 4-8 человек // мы не любим бюрократию, только то, что эффективно ведёт к цели\n- Брать из бэклога задачи, получать знания от Product Owner // задач много, а нас - не очень, всегда обсуждаем что-как сделать, но инициатива и ответственность за конкретные задачи на каждом из нас\n- Проектировать архитектуру, от небольших кусочков до целых сервисов, такую чтобы очень быстро и надёжно // бъёмся за миллисекунды, а даже eventual consistency мало где можем себе позволить\n- Писать код на Golang, попутно используя PostgreSQL, RabbitMQ, Redis, gRPC, Websocket, REST, Docker, Kubernetes + всё что угодно, обоснованно подходящее для решения конкретной задачи // качественный код, его потом нам же и поддерживать\n- Иногда возвращаться к созданному ранее, чтобы пофиксить баги, добавить новых фич или сделать ещё быстрее и надёжнее // стараемся растить продукт гармонично по всем направлениям, балансируем сложность и time-to-market\n\n✔️ Требования: \n- опыт backend-разработки от 2 года на го\n- знание базовых структур данных, алгоритмов, их сложности\n- понимание принципов построения и масштабирования backend, параллелизма, шардинга\n- работа в команде \n\n✔️ Условия:\n- покупаем всю технику которая нужна вам для продуктивной работы; \n- у нас сплоченный коллектив профессионалов с серьезным бэкраундом\nгибкий график, время не трекаем, главное - результат\n- Интересные задачи, возможность применить и прокачать скилы в создании высоконагруженных сервисов\n\n✔️ Доп. информация: \nзарплатная вилка обсуждаема, от 180к до 260к 💸 (в зависимости от уровня)\n\nЗа подробной инфой го в личку @anastaysha163 или @anastaysha164","markup":[{"type":"hashtag","offset":0,"length":3,"data":"hr"},{"type":"hashtag","offset":4,"length":9,"data":"вакансия"},{"type":"hashtag","offset":14,"length":7,"data":"Москва"},{"type":"hashtag","offset":22,"length":8,"data":"backend"},{"type":"hashtag","offset":31,"length":29,"data":"командасобранасамимбоженькой"},{"type":"handle","offset":1879,"length":14,"data":"anastaysha163"},{"type":"handle","offset":1898,"length":14,"data":"anastaysha164"}],"date":"2020-06-23T11:36:45+00:00","link":"tg://resolve?domain=gogetajobfeed&post=336","tags":[{"name":"go"},{"name":"postgresql"},{"name":"rabbitmq"},{"name":"redis"},{"name":"websocket"},{"name":"rest"},{"name":"docker"},{"name":"kubernetes"}],"cities":[{"code":"moscow"}],"allowsRemote":false}},{"node":{"__typename":"Job","id":"103520665600-1001089317451","title":"Qa engineer","text":"#Москва #вакансия #QA #manual  #python\n\nДолжность: QA Engineer \nКомпания: Andromeda Lab\nЗП: до 120 000 \nФормат работы: офис, гибкое начало дня\nЗанятость: полная\n\n\nКого мы ищем:\nЧеловека который готов заниматься ручным тестированием 80% времени и 20% времени - автоматизацией. Со временем доля автоматизации вырастет до 50%. \nЕсли у вас не хватает каких-то скиллов - готовы учить и помогать развиваться. Мы очень ценим проактивность и готовность менять все вокруг себя. \n\nЗадачи:\n- Тестирование ERP-системы (состоит из более чем 40 приложений, объединенные в одну экосистему)\n- Введение документации для тестирования (Создание тест-кейсов, чек-листов и т.д.)\n- Тестирование мобильного приложения \n- Тестирование API\n- Участие в автоматизации тестирования продуктов компании\n\nОбязанности:\n- Понимание жизненного цикла разработки продукта\n- Знание теории и видов тестирования,  умение вести тестовую документацию;\n- Умение локализовать баги и оформлять баг репорты\n- Понимание и умение применять техники тест-дизайна\n- Тестирование API\n- Опыт использование Postman\n- Понимание мобильного тестирования \n- Знание и умение пользования командной строкой UNIX\n- Знание SQL (простые запросы), Git\n- Умение использовать снифферы (Charles,Fiddler и т.д.)\n- Понимание как работать с Docker\n- Начальные знания Python либо желание выучить в ближайшее время\n\nПредлагаем:\n- белая зп (до 120 000, зависит от опыта);\n- уютный офис в Moscow City (сладости, печенки,кофе\\чай,PS4 и т.д.);\n- ДМС,  курсы английского, участие в конференциях. \n\nРезюме скидывать в лс.","markup":[{"type":"hashtag","offset":0,"length":7,"data":"Москва"},{"type":"hashtag","offset":8,"length":9,"data":"вакансия"},{"type":"hashtag","offset":18,"length":3,"data":"QA"},{"type":"hashtag","offset":22,"length":7,"data":"manual"},{"type":"hashtag","offset":31,"length":7,"data":"python"}],"date":"2020-06-23T11:23:15+00:00","link":"tg://resolve?domain=qa_jobs&post=98725","tags":[{"name":"qa"},{"name":"python"},{"name":"unix"},{"name":"sql"},{"name":"git"},{"name":"docker"}],"cities":[{"code":"moscow"}],"allowsRemote":false}},{"node":{"__typename":"Job","id":"71855767552-1001054966032","title":"Ios разработчик","text":"#вакансия #москва #офис #senior #ios #developer #gamedev #swift \nГород и адрес офиса: Москва, м.Автозаводская \nФормат работы: офис \nЗанятость: полная \nЗарплатная вилка: от 250 000 до 300 000 на руки \n\n\n✅ Senior iOS Developer \n\nОписание вакансии: \n\nМы - успешная команда из 120 человек, которая занимается: \n• разработкой собственных мобильных игр и приложений \n• паблишингом мобильных игр \n• рекламой и маркетингом мобильных приложений (реклама на Facebook, Google и т.д.) \nЗа последние 3 года мы привлекли более 100 млн пользователей в наши собственные мобильные приложения и приложения наших клиентов и партнеров, потратив на это более $80 млн. \n\nУ нас есть все составляющие чтобы делать готовые продукты известными и популярными. Мы ищем сильного и талантливого разработчика для усиления нашей текущей слаженно работающей команды и выведения нашего Fitness & Health iOS приложения Fitingo на лидирующие позиции в мире (уже сейчас приложение занимало позиции ТОП 13 в США и ТОП 6 в Великобритании с более чем 400,000 установок и более чем 45,000 совершенных покупок).\n\n✅Задачи: \n\n•  Разрабатывать новый функционал\n•  Рефакторить и оптимизировать код\n•  Писать код. Больше логики, меньше UI. Например - хранить историю и прогресс; сделать leaderboard по странам; добавить чат, аналитику и a/b тесты; Apple Health, Watch, Music и TV\n•  Участвовать в Code Review\n\nТекущий стек: Swift 5.1, MVPC, AVFoundation, UserNotifications, Realm, StoreKit, Firebase, PushWoosh, Facebook, Python.\n\n✅Требования: \n\n•  Опыт работы разработчиком iOS приложений от 3х лет\n•  Отличное знание Swift\n•  Уверенное знание SOLID и паттернов проектирования\n•  Умение профилировать приложение (Батарейка, утечки и вот это все)\n•  Опыт работы с системой контроля версий\n•  Наличие выпущенных проектов на Swift\n•  Желание делать красивые, интересные и популярные приложения\n\n✅Будет плюсом: \n\n•  Умение/желание писать небольшие серверные скрипты (например на Python)\n•  Умение автоматизировать рутинные процессы\n•  Умение рефакторить код итеративно\n•  Адекватный перфекционизм\n\n\n✅Для вас: \n\n•  Конкурентная заработная плата, выплачивается 2 раза в месяц\n•  Необходимое оборудование для работы\n•  Возможность набрать команду и выстроить всю работу под себя в краткосрочной перспективе\n•  Оформление по ТК РФ, оплачиваемые больничные, 28 дней оплачиваемого отпуска в год\n•  Возможны регулярные бонусы по результатам работы проектов\n•  Собеседование с лицом принимающим решение\n•  Возможность коммуницировать с людьми, которые принимают продуктовые решения\n\n✅О нас: \n\n•  Просторный офис 600 метров на м. Автозаводская (3 минуты от метро и от ТТК на машине) с ультра современным дизайном и кучей ништяков (кухня с вкусняшками, кальяны каждый вечер в дружной кампании, PS4 Pro + 4K TV, аркадные автоматы с Pac-Man, Metal Slug и другими хитами геймдизайна, просторная зона отдыха, 5 переговорных комнат и т д)\n•  Команда из 100 человек занимающаяся паблишингом и маркетингом, готовая сделать продукт успешным после его готовности\n•  Возможность обучаться английскому языку с носителями каждый будний день по утрам\n•  Менторы и инвесторы, создавшие большое количество успешных IT компаний (оборот в 2018 году более 140 млн долларов)\n\nНазвание компании: AppQuantum \n\nКонтакты: \ne-mail: vika@adquantum.com\ntelegram: @wikki13","markup":[{"type":"hashtag","offset":0,"length":9,"data":"вакансия"},{"type":"hashtag","offset":10,"length":7,"data":"москва"},{"type":"hashtag","offset":18,"length":5,"data":"офис"},{"type":"hashtag","offset":24,"length":7,"data":"senior"},{"type":"hashtag","offset":32,"length":4,"data":"ios"},{"type":"hashtag","offset":37,"length":10,"data":"developer"},{"type":"hashtag","offset":48,"length":8,"data":"gamedev"},{"type":"hashtag","offset":57,"length":6,"data":"swift"},{"type":"link","offset":3248,"length":18,"data":"mailto:vika@adquantum.com"},{"type":"handle","offset":3277,"length":8,"data":"wikki13"}],"date":"2020-06-23T10:28:34+00:00","link":"tg://resolve?domain=mobile_jobs&post=68527","tags":[{"name":"mobile"},{"name":"ios"},{"name":"swift"},{"name":"realm"},{"name":"firebase"},{"name":"python"}],"cities":[{"code":"moscow"}],"allowsRemote":false}},{"node":{"__typename":"Job","id":"103514374144-1001089317451","title":"Qa engineer","text":"#вакансия #работа #удалёнка #fulltime #qa\n\nДолжность : QA Engineer\nКомпания : 6nomads.com\nФормат работы: #fulltime #remote\nЗарплата: 100-140 тыс рублей\n\nКто? \nБританский сервис с русскими корнями. Банковский помощник, который своей гибридной моделью автоматизации меняет скучный английский рынок платежных сервисов, лишает его бумажной составляющей и бюрократии, а заодно оставляет без работы бухгалтеров.\n\nЧто предлагают?\n- Заработная плата в фунтах (100-140 тыс рублей);\n- Командировки в Лондон и Кардифф;\n- Возможность релокации в Великобританию;\n- Работа в одном из офисов (Москва, Екатеринбург, Лондон и Кардифф) или удаленно;\n- Обучение и рост внутри компании, помощь в смене профиля на бэкенд, датасайнс или мобильную разработку при желании. \n\nЧто делать?    \n- Проектирование новых фич вместе с командой;\n- Написание тестовых сценариев;\n- Ручное тестирование (+немного автоматизации Python, appium);\n- Проведение регрессионного тестирования перед релизом;      \n- Создание отчетов по ошибкам и контроль их исправления;\n\nТребования:\n- Противобаговый иммунитет\n- Опыт поиска UI/UX дефектов \n- Английский не ниже Intermediate\n\nЧто тестировать?\ni​OS app, Android App, backend, web.                \nСтек: ​\nKaiten, Testrail, Git, TeamCity, Miro, Zeplin.\n\nКонтакт для связи: @temnik_sofya","markup":[{"type":"hashtag","offset":0,"length":9,"data":"вакансия"},{"type":"hashtag","offset":10,"length":7,"data":"работа"},{"type":"hashtag","offset":18,"length":9,"data":"удалёнка"},{"type":"hashtag","offset":28,"length":9,"data":"fulltime"},{"type":"hashtag","offset":38,"length":3,"data":"qa"},{"type":"link","offset":78,"length":11,"data":"http://6nomads.com"},{"type":"hashtag","offset":105,"length":9,"data":"fulltime"},{"type":"hashtag","offset":115,"length":7,"data":"remote"},{"type":"handle","offset":1280,"length":13,"data":"temnik_sofya"}],"date":"2020-06-23T10:26:42+00:00","link":"tg://resolve?domain=qa_jobs&post=98719","tags":[{"name":"qa"},{"name":"python"},{"name":"android"},{"name":"web"},{"name":"git"}],"cities":[{"code":"london"},{"code":"moscow"}],"allowsRemote":true}},{"node":{"__typename":"Job","id":"71850524672-1001054966032","title":"Ios developer","text":"#вакансия #Москва #офис #релокация #ios #swift\n\n\nВакансия: iOS Developer (Junior/Middle/Senior) в компанию Mafin\n\nО компании: Mafin.ru - это онлайн-платформа персональных страховых сервисов. Insurtech старап компании \"АбсолютТех\", получивний инвестирование в размере $50 млн.\nГео: Москва\nФормат: Офис\nВилка: 60 000 - 240 000 Р/мес\n\nТребования: \n● Опыт разработки приложений под iOS от 1 года\n● Отличное знание Objective-C или Swift\n● Проектирование интерфейса без Xib и StoryBoard\n● Опыт разработки клиент-серверных приложений\n● Опыт разработки многопоточных приложений\n● Опыт работы с Core Data - инструмент для БД\n● Умение работать с CocoaPods (библиотеки для реализации задач)\n● Знание Git\n● Знание HTTP/S, REST API, JSON\n\nДополнительные навыки:\n● Понимание принципов UX/UI и Human Interface Guidelines\n● Опыт работы с Figma\n\nБудет плюсом:\n● Опыт C/С++/Python\n● Наличие приложений, опубликованных в AppStore\n● Опыт написания тестов\n\nУсловия: \n● НС с первого рабочего дня, ДМС по истечении испытательного срока (3 месяца);\n● Skyeng скидка 50% (в том числе занятия с носителями языка);\n● Новый красивый офис в тренде современных IT компаний с капсулами для сна и уютной кухней;\n● Бесплатное обучение; доступ к онлайн-библиотеке;\n● Работа по методологии Agile, scrum\n● Огромное количество корпоративных мероприятий\n● Гибкое начало рабочего дня до 11-00\n● Есть релокационный пакет\n● График работы 5\\2, офис 2 дня в неделю на время ограничительных мер \n\nДля оперативной связи пишите: @rudenko_telegram","markup":[{"type":"hashtag","offset":0,"length":9,"data":"вакансия"},{"type":"hashtag","offset":10,"length":7,"data":"Москва"},{"type":"hashtag","offset":18,"length":5,"data":"офис"},{"type":"hashtag","offset":24,"length":10,"data":"релокация"},{"type":"hashtag","offset":35,"length":4,"data":"ios"},{"type":"hashtag","offset":40,"length":6,"data":"swift"},{"type":"bold","offset":49,"length":9,"data":""},{"type":"bold","offset":114,"length":12,"data":""},{"type":"link","offset":126,"length":8,"data":"http://Mafin.ru"},{"type":"bold","offset":276,"length":4,"data":""},{"type":"bold","offset":288,"length":8,"data":""},{"type":"bold","offset":301,"length":7,"data":""},{"type":"bold","offset":332,"length":13,"data":""},{"type":"bold","offset":726,"length":23,"data":""},{"type":"bold","offset":829,"length":14,"data":""},{"type":"bold","offset":936,"length":7,"data":""},{"type":"handle","offset":1482,"length":17,"data":"rudenko_telegram"}],"date":"2020-06-23T09:25:42+00:00","link":"tg://resolve?domain=mobile_jobs&post=68522","tags":[{"name":"mobile"},{"name":"ios"},{"name":"swift"},{"name":"objective-c"},{"name":"cocoapods"},{"name":"git"},{"name":"rest"},{"name":"json"},{"name":"python"},{"name":"core-data"}],"cities":[{"code":"moscow"}],"allowsRemote":false}},{"node":{"__typename":"Job","id":"91750400000-1001067529236","title":"Python developer","text":"#вакансия #Москва #fulltime #офис #python #machinelearning\nКомпания: FunCorp\nВакансия: Senior Python Backend Developer (Machine Learning)\nОпыт работы: от 3-х лет\nЗарплата: от 250 000 р. на руки\nМесторасположение: Москва, м. Белорусская\nЗанятость: fulltime, офис.\nNB! Удаленный вариант работы после выхода из карантина, к сожалению, не рассматриваем\nКонтактные данные: @chrschredinger или kristina@fun.co\n\nFunCorp — международная компания, которая занимается разработкой развлекательных UGC-сервисов и игр. В работе наших приложений мы активно используем сервисы, построенные на машинном обучении. Значительная часть этих сервисов построена на базе ML-фреймворков и пакетов на Python. \n\nТребования:\n- знание Python 3, фреймворков Flask или Django, а также иметь опыт написания асинхронного кода с использованием AsyncIO;\n- опыт построения и поддержки высоконагруженных систем и сервисов;\n- интерес к Machine Learning как отрасли и быть готовым изучать фреймворки (PyTorch, TensorFlow).\n\nСтек используемых технологий: Docker, Redis, MongoDB, ClickHouse.\n\nОбязанности:\n- создание и поддержка Highload-сервисы на базе обученных моделей;\n- интегрирование ML-сервисов с бизнес-логикой PHP-монолита и Java/Kotlin-сервисов;\n- участие в обучении и доработке существующих моделей, получении и консолидации данных, построении тестовых выборок.\n\nУсловия:\n- ДМС, включая стоматологию;\n- бонусная система;\n- обеды и ужины в офисе;\n- бюджет на обучение и на фитнес;\n- оплата участия в российских и зарубежных конференциях;\n- отличный офис на м. Белорусская (БЦ «Белая площадь).","markup":[{"type":"hashtag","offset":0,"length":9,"data":"вакансия"},{"type":"hashtag","offset":10,"length":7,"data":"Москва"},{"type":"hashtag","offset":18,"length":9,"data":"fulltime"},{"type":"hashtag","offset":28,"length":5,"data":"офис"},{"type":"hashtag","offset":34,"length":7,"data":"python"},{"type":"hashtag","offset":42,"length":16,"data":"machinelearning"},{"type":"bold","offset":59,"length":10,"data":""},{"type":"bold","offset":77,"length":10,"data":""},{"type":"bold","offset":138,"length":13,"data":""},{"type":"bold","offset":162,"length":10,"data":""},{"type":"bold","offset":194,"length":19,"data":""},{"type":"bold","offset":236,"length":11,"data":""},{"type":"underline","offset":263,"length":86,"data":""},{"type":"bold","offset":349,"length":19,"data":""},{"type":"handle","offset":368,"length":15,"data":"chrschredinger"},{"type":"link","offset":388,"length":15,"data":"mailto:kristina@fun.co"},{"type":"bold","offset":686,"length":12,"data":""},{"type":"italic","offset":986,"length":67,"data":""},{"type":"bold","offset":1053,"length":13,"data":""},{"type":"bold","offset":1334,"length":9,"data":""}],"date":"2020-06-23T09:20:13+00:00","link":"tg://resolve?domain=python_jobs&post=87500","tags":[{"name":"python"},{"name":"flask"},{"name":"django"},{"name":"tensorflow"},{"name":"docker"},{"name":"redis"},{"name":"mongodb"},{"name":"php"},{"name":"java"},{"name":"kotlin"},{"name":"machine-learning"}],"cities":[{"code":"moscow"}],"allowsRemote":false}},{"node":{"__typename":"Job","id":"71848427520-1001054966032","title":"Android developer","text":"#вакансия #Android #Java #middle #офиc #Москва\n👋Приглашаем Middle Android (Java) Developer в новый проект от Сбербанка.\n\n💸Уровень ЗП: от 220 000 до 280 000 руб. net. (обсуждается!).\n\n✍🏻Оформление: ИП или штат компании партнера.\n\n📍Локация: Офис (Москва Кутузовский пр-т 32/1).\n\n🏢О проекте: Разработка чата и видеозвонка с целью реализовать единое рабочее место оператора для дополнительного канала обслуживания. С помощью чатов клиент сможет переписываться со своим дистанционным клиентским менеджером по премиальному каналу в МП СБОЛ, с возможностью передачи файлов. Видеозвонок позволит установить визуальный контакт клиентом со своим менеджером с возможностью показа презентаций. На базе удаленных каналов обслуживания планируется реализовать возможность удаленного предоставления клиенту всего спектра продуктов банка. В настоящий момент в банке обслуживается порядка 19 млн клиентов.\n\n🤝Мы ожидаем от вас:\n· знание Java;\n· опыт коммерческой разработки Android-приложений не менее года;\n· опыт ООП, потоки и синхронизация, SOLID, clean architecture, LinkedList и ArrayList;\n· умение разбираться и работать с чужим кодом.\n\nЖду Ваши резюме и буду рада ответить на все вопросы. Прекрасного дня!😉\nКонтакты для связи: telegram @anisimovaane4ka","markup":[{"type":"hashtag","offset":0,"length":9,"data":"вакансия"},{"type":"hashtag","offset":10,"length":8,"data":"Android"},{"type":"hashtag","offset":19,"length":5,"data":"Java"},{"type":"hashtag","offset":25,"length":7,"data":"middle"},{"type":"hashtag","offset":33,"length":5,"data":"офиc"},{"type":"hashtag","offset":39,"length":7,"data":"Москва"},{"type":"handle","offset":1231,"length":16,"data":"anisimovaane4ka"}],"date":"2020-06-23T09:13:09+00:00","link":"tg://resolve?domain=mobile_jobs&post=68520","tags":[{"name":"mobile"},{"name":"android"},{"name":"java"},{"name":"dotnet"}],"cities":[{"code":"moscow"}],"allowsRemote":true}},{"node":{"__typename":"Job","id":"103509131264-1001089317451","title":"Qa инженер","text":"#QA #тестировщик #россия #APi\n#ручноетестирование #middle #senior #тестирование #вакансия\nВ нашей молодой концептуальной IT-компании ООО \"Сколопендра\" (www.skolopendra.com) на данный момент открыта позиция QA тестировщика.\nВид деятельности  нашей Компании: ИТ-разработка полного цикла. \nСпециализация: высоконагруженные промышленные системы, процессинги данных, СППР, AI, запуск стартап-идей под ключ, электротехника.\nНаправление деятельности: технологический партнер для внешних заказчиков/собственные Hard&Soft Продукты.\n\n\n\nQA \n\nТребуемые знания, навыки, опыт\n• Знание основных технологий и методов тестирования\n• Понимание процесса разработки и тестирования ПО\n• Хорошие знания в области тест-дизайна\n• Опыт работы с баг-трекинговыми системами (jira)\n• Понимание основных принципов REST API\n• Опыт работы в тестировании от 1,5 лет\n• Высшее образование (предпочтительно техническое)\n\nБудет плюсом:\n• Базовые знания Java будут плюсом\n• Опыт автоматизации тестирования будет плюсом\n• Базовые знания технологии блокчейн и принципов работы бирж будут плюсом\nТакже мы ждем от кандидатов:\n• Умение работать в команде\n• Ответственность, самостоятельность, инициативность\n• Умение работать в условиях большого количества задач, оперативная реакция на задачи\n• Внимание к деталям, способность анализировать информацию\n• Стремление к саморазвитию, обучению, повышению технических компетенций\nФункциональные обязанности:\n• Проведение ручного функционального и регрессионного тестирования\n• Локализация, документирование, проверка дефектов\n• Разработка и актуализация тестовых планов, тестовых сценариев\n• Оценка трудоемкости задач\n• Работа с требованиями и документацией\nЗанятость : фултайм 5/2 на удалёнке \n#iOS\n#Android\n#mobiledevelopment \n#crossplatform #flutter #kotlinnative\n#мобильнаяразработка #вакансия\n\nКомпания ООО “СКОЛОПЕНДРА” (www.skolopendra.com) приглашает целеустремленных и одаренных в наш дружный коллектив. \nДавай вместе делать интересные проекты в современных стеках технологий. А мы предоставим возможности для скорейшего профессионального и личностного роста.\n\nВид деятельности Компании: ИТ-разработка полного цикла. \nСпециализация: высоконагруженные промышленные системы, процессинги данных, СППР, AI, запуск стартап-идей под ключ, электротехника.\nНаправление деятельности: технологический партнер для внешних заказчиков/собственные Hard&Soft Продукты.\n\nОфис: Москва, м.Павелецкая, Космодамианская наб., 52/10\nФормат работы: в офисе/удаленно\nЗанятость: full-time (целевой формат) /part-time (возможный старт)\nЗП: по итогам собеседования, вилка от 600-800 рублей/час , 3-х месячный цикл пересмотра grade\nОформление: по ТК\n\nДолжность: Mid/Mid+/Sen\nКонтакты: team@skolopendra.com\nТелеграмм : @Tufelka1","markup":[{"type":"hashtag","offset":0,"length":3,"data":"QA"},{"type":"hashtag","offset":4,"length":12,"data":"тестировщик"},{"type":"hashtag","offset":17,"length":7,"data":"россия"},{"type":"hashtag","offset":25,"length":4,"data":"APi"},{"type":"hashtag","offset":30,"length":19,"data":"ручноетестирование"},{"type":"hashtag","offset":50,"length":7,"data":"middle"},{"type":"hashtag","offset":58,"length":7,"data":"senior"},{"type":"hashtag","offset":66,"length":13,"data":"тестирование"},{"type":"hashtag","offset":80,"length":9,"data":"вакансия"},{"type":"link","offset":152,"length":19,"data":"http://www.skolopendra.com"},{"type":"hashtag","offset":1699,"length":4,"data":"iOS"},{"type":"hashtag","offset":1704,"length":8,"data":"Android"},{"type":"hashtag","offset":1713,"length":18,"data":"mobiledevelopment"},{"type":"hashtag","offset":1733,"length":14,"data":"crossplatform"},{"type":"hashtag","offset":1748,"length":8,"data":"flutter"},{"type":"hashtag","offset":1757,"length":13,"data":"kotlinnative"},{"type":"hashtag","offset":1771,"length":20,"data":"мобильнаяразработка"},{"type":"hashtag","offset":1792,"length":9,"data":"вакансия"},{"type":"link","offset":1831,"length":19,"data":"http://www.skolopendra.com"},{"type":"link","offset":2670,"length":20,"data":"mailto:team@skolopendra.com"},{"type":"handle","offset":2703,"length":9,"data":"Tufelka1"}],"date":"2020-06-23T09:06:23+00:00","link":"tg://resolve?domain=qa_jobs&post=98714","tags":[{"name":"qa"},{"name":"rest"},{"name":"java"},{"name":"ios"},{"name":"android"},{"name":"flutter"}],"cities":[{"code":"moscow"}],"allowsRemote":true}}]}}},"context":{}}