{"hash":"f5f6bf98bd95e769321482904cbbd488f77922fd","data":{"records":{"id":"python","name":"python","belongsTo":{"totalCount":130,"pageInfo":{"totalPages":13,"currentPage":13},"edges":[{"node":{"__typename":"Job","id":"90978648064-1001067529236","title":"Python разработчик","text":"#fullstack_dev #вакансия #удаленка #Python \n\nПривет! Меня зовут Виолетта, ищу Python разработчика в компанию SIMKOMAT.\n\nМесто работы: удаленка \nРабочий день: полный рабочий день\nТвои умения: \nPython, asyncio, flask\nОпыт программирования многопоточных приложений;\nЗнание операционной системы Linux;\nЗнание Docker/Docker-compose\nУмение работы с системой контроля версий Git, gitlab, CI/CD\nОпыт работы с базами данных Mongodb, PostgreSQL или MySQL\nПонимание принципов виртуализации;\nОпыт администрирования ОС семейства Linux, localhost, умение работать с ssh\nМы общаемся в: Trello, Atlassian, Telegram, Viber, GitLab Issues\nО компании: создаем программные аппараты для выдачи сим-карт без участия человека. В основном сотрудничаем с иностраннными компаниями. Нашему коллективу кажется, что мы веселые и приятные люди. \nОткликаться на вакансию: пиши мне в телеграм @violker или на почту yo@simkomat.com\n\nЗа внимание спасибо. Сайт SIMKOMAT - тебе. https://simkomat.com/ru/","markup":[{"type":"hashtag","offset":0,"length":14,"data":"fullstack_dev"},{"type":"hashtag","offset":15,"length":9,"data":"вакансия"},{"type":"hashtag","offset":25,"length":9,"data":"удаленка"},{"type":"hashtag","offset":35,"length":7,"data":"Python"},{"type":"bold","offset":120,"length":13,"data":""},{"type":"bold","offset":144,"length":13,"data":""},{"type":"bold","offset":178,"length":14,"data":""},{"type":"bold","offset":556,"length":15,"data":""},{"type":"bold","offset":621,"length":11,"data":""},{"type":"bold","offset":816,"length":24,"data":""},{"type":"handle","offset":861,"length":8,"data":"violker"},{"type":"link","offset":883,"length":15,"data":"mailto:yo@simkomat.com"},{"type":"link","offset":943,"length":24,"data":"https://simkomat.com/ru/"},{"type":"bold","offset":943,"length":24,"data":""}],"date":"2020-06-15T10:41:34+00:00","link":"tg://resolve?domain=python_jobs&post=0","tags":[{"name":"python"},{"name":"flask"},{"name":"linux"},{"name":"docker"},{"name":"git"},{"name":"gitlab"},{"name":"mongodb"},{"name":"postgresql"},{"name":"mysql"},{"name":"ssh"},{"name":"docker-compose"}],"cities":[],"allowsRemote":true}},{"node":{"__typename":"Job","id":"16919822336-1001110946746","title":"Js разработчик","text":"#вакансия #удаленка #remote #senior #fulltime #react #frontend #AI #искусственныйинтеллект\n\nФормат: #remote\nЗанятость: #fulltime \nКомпания: Intento\nЗарплатная вилка: от 3500 – 4500$ на руки (прямой контракт с западной компанией)\nГрафик: #мягкий\n\nIntento – достаточно свежий проект, который уже зарабатывает. Ребята делают интеграционную платформу, которая помогает крупным западным компаниям выбрать, настроить и использовать решения на базе искусственного интеллекта.\nКстати, Intento является одним из авторов Индекса Искусственного Интеллекта (на уровне с такими компаниями, как Coursera, LinkedIn, McKinsey).\n🔥Чем займетесь:\n — Разработкой новых возможностей системы, ускорением текущих процессов\n\n🛎 Требования: \n— React, опыт сложных SPA, уверенность с #vanilla.js\n— Современный js, css, html.\n— Английский язык (письменный).\n\n❤️ Огромным плюсом будет: \n— Владение Python (может пригодиться).\n\nПодробно тут.\n\nПиши в личку: \n☎️telegram: @isaevakristi","markup":[{"type":"hashtag","offset":0,"length":9,"data":"вакансия"},{"type":"hashtag","offset":10,"length":9,"data":"удаленка"},{"type":"hashtag","offset":20,"length":7,"data":"remote"},{"type":"hashtag","offset":28,"length":7,"data":"senior"},{"type":"hashtag","offset":36,"length":9,"data":"fulltime"},{"type":"hashtag","offset":46,"length":6,"data":"react"},{"type":"hashtag","offset":53,"length":9,"data":"frontend"},{"type":"hashtag","offset":63,"length":3,"data":"AI"},{"type":"hashtag","offset":67,"length":23,"data":"искусственныйинтеллект"},{"type":"hashtag","offset":100,"length":7,"data":"remote"},{"type":"hashtag","offset":119,"length":9,"data":"fulltime"},{"type":"hashtag","offset":237,"length":7,"data":"мягкий"},{"type":"hashtag","offset":759,"length":8,"data":"vanilla"},{"type":"handle","offset":942,"length":13,"data":"isaevakristi"}],"date":"2020-06-15T09:17:11+00:00","link":"tg://resolve?domain=javascript_jobs_feed&post=0","tags":[{"name":"javascript"},{"name":"reactjs"},{"name":"css"},{"name":"html"},{"name":"python"}],"cities":[],"allowsRemote":true}},{"node":{"__typename":"Job","id":"102838042624-1001089317451","title":"Qa engineer","text":"#вакансия #QA #manual #fulltime #remote #офис\n\nФормат работы: офис или удаленно\nРасположение: Санкт-Петербург \nЗанятость: полная, гибкое начало дня\nЗП: до 200k gross\n\n🔹 Компания OCS Labs более 25 лет на рынке IT и является ведущим дистрибьютером по всем продуктовым направлениям IT рынка. \nРегиональная сеть офисов OCS включает 27 городов в России, компания работает с более чем 8500 партнеров, среди которых 500 продуктовых линеек от ведущих мировых вендеров. \n\n🔸Сейчас команда находится в поиске Manual QA Engineer, который будет готов в дальнейшем вырасти в teamlead’a, и в перспективе возглавить направление тестирования в R&D отделе.\nНа текущий момент в команде уже есть 1 ручной тестировщик и 1 автотестировщик (python).\nПредстоит заниматься тестированием сервиса взаимодествия вендоров; \n\n🔹  Требования:\n— Опыт тестирования Web от 2 лет;\n— Умение оценивать и распределять задачи в команде;\n— Опыт менторства/руководства командой;\n— Опыт тестирования API;\n\nБольшим плюсом будет:\n— Понимание b2b сервисов;\n— Навыки автотестирования, будет возможность расти и развиваться в этом направлении; \n\n🔹  Условия:\n— Официальное трудоустройство, белая заработная плата;\n— Комфортный офис на Б.Сампсониевском (Петербург), также для московских специалистов есть возможность работать в московском офисе: Румянцево, офисный парк «Комсити»; \n— Техника предоставляется в соответствии с пожеланиями специалиста;\n— Внутреннее обучение;\n— Годовая дотация;\n— Дружественная рабочая среда с возможностью карьерного и профессионального роста;\n\n🔹 Контакты:\ne-mail: maria@luckyhunter.io\ntelegram: @Maria_Rey","markup":[{"type":"hashtag","offset":0,"length":9,"data":"вакансия"},{"type":"hashtag","offset":10,"length":3,"data":"QA"},{"type":"hashtag","offset":14,"length":7,"data":"manual"},{"type":"hashtag","offset":22,"length":9,"data":"fulltime"},{"type":"hashtag","offset":32,"length":7,"data":"remote"},{"type":"hashtag","offset":40,"length":5,"data":"офис"},{"type":"bold","offset":500,"length":18,"data":""},{"type":"bold","offset":563,"length":10,"data":""},{"type":"link","offset":1551,"length":20,"data":"mailto:maria@luckyhunter.io"},{"type":"handle","offset":1582,"length":10,"data":"Maria_Rey"}],"date":"2020-06-15T09:11:51+00:00","link":"tg://resolve?domain=qa_jobs&post=0","tags":[{"name":"qa"},{"name":"python"},{"name":"web"}],"cities":[],"allowsRemote":true}},{"node":{"__typename":"Job","id":"102836994048-1001089317451","title":"Qa инженер","text":"#вакансия  #qa #senior #remote #удаленно #fulltime #blockchain \n\nСрочно ищем Инженера по тестированию смарт контрактов \n\nФормат работы: #удаленка\nЗанятость: #полная\nОпыт: 5+лет\nЗарплатная вилка: $2000-$4000\n\nTON Labs - независимая международная IT-компания, которая занимается  разработкой решений на основе блокчейн-платформы TON, с командой из более 50 разработчиков, инженеров и профессионалов со всего мира.  Проект реализуется с нуля.\n\nIn a blockchain environment, a single mistake could cost you all of your funds — or, even worse, your users' funds. Testing of smart contracts according to the specification is a task of paramount importance.\n\nResponsibilities\n    Lead the efforts around shipping quality product\n    Work with smart contract specification authors to assess specification feasibility   \n    Develop test scenarios according to smart contract specification\n    Create, develop and manage a unified expandable test automation framework \n    Create automated tests for existing and new smart contracts\n    Develop test plans and perform multiple types of testing including functional, system, end to end, load, performance, data integrity, smoke, regression, and ad hoc\n    Submit comprehensive defects using our bug tracking system\n    Regress and verify defects as needed, record test results, and provide metrics\n    Lead and implement plans for improving testing and release processes\n\nJob requirements:\n    3+ years of experience in Software Engineering, Test, or Deployment\n    Good understanding of an asynchronous messaging model\n    Some experience with Python/Unix shell scripting\n    Strong analytical skills to work with developers for troubleshooting and peer review\n    Effective written and verbal communication skills\n\nThe following qualifications are a plus:\n    Understanding of basic principles and concepts of the TON Blockchain is a strong advantage\n    BS degree or equivalent work experience in Computer Science or related field\n    Experience with testing of asynchronous systems is an advantage\n    Experience with Scrum and other Agile methodologies\n\nНазвание компании: Ton Labs\nКонтакты: @Marina0733\nДля резюме: marina.k@tonlabs.io","markup":[{"type":"hashtag","offset":0,"length":9,"data":"вакансия"},{"type":"hashtag","offset":11,"length":3,"data":"qa"},{"type":"hashtag","offset":15,"length":7,"data":"senior"},{"type":"hashtag","offset":23,"length":7,"data":"remote"},{"type":"hashtag","offset":31,"length":9,"data":"удаленно"},{"type":"hashtag","offset":41,"length":9,"data":"fulltime"},{"type":"hashtag","offset":51,"length":11,"data":"blockchain"},{"type":"hashtag","offset":136,"length":9,"data":"удаленка"},{"type":"hashtag","offset":157,"length":7,"data":"полная"},{"type":"handle","offset":2136,"length":11,"data":"Marina0733"},{"type":"link","offset":2160,"length":19,"data":"mailto:marina.k@tonlabs.io"}],"date":"2020-06-15T09:10:32+00:00","link":"tg://resolve?domain=qa_jobs&post=0","tags":[{"name":"qa"},{"name":"deployment"},{"name":"python"},{"name":"unix"},{"name":"shell"}],"cities":[],"allowsRemote":true}},{"node":{"__typename":"Job","id":"102835945472-1001089317451","title":"Qa engineer","text":"#вакансия #Москва #офис\nДолжность: QA automation engineer\nКомпания: Открытая мобильная платформа\nГород: Москва, м.Парк Победы\nЗП: до 160к\nСтек: Python, Pytest, requests + cattrs, selenium\n\nУсловия:\n•ЗП до 160 000 гросс (в зависимости от ваших тех скиллов)\n•Участие в конференциях\n•ДМС\n•Гибкое начало рабочего дня \n\nЗадачи:\n•Разработка автоматизированных тестов (web + api), стремимся к 100% покрытию автотестами  (не unit)\n•Участие в развитии тестового framework'а\n•Командная работа с разработчиками и аналитиками (Scrum Dev Team)\n\nРассмотрим кандидатов с опытом в QA automation (Python) от полугода\n\nРезюме можно направить сюда: @Rita_RS \nили на почту: m.sinelnikova@getit.agency","markup":[{"type":"hashtag","offset":0,"length":9,"data":"вакансия"},{"type":"hashtag","offset":10,"length":7,"data":"Москва"},{"type":"hashtag","offset":18,"length":5,"data":"офис"},{"type":"bold","offset":35,"length":23,"data":""},{"type":"bold","offset":133,"length":5,"data":""},{"type":"bold","offset":189,"length":9,"data":""},{"type":"bold","offset":315,"length":8,"data":""},{"type":"bold","offset":565,"length":13,"data":""},{"type":"bold","offset":601,"length":6,"data":""},{"type":"handle","offset":630,"length":8,"data":"Rita_RS"},{"type":"link","offset":654,"length":26,"data":"mailto:m.sinelnikova@getit.agency"}],"date":"2020-06-15T09:09:28+00:00","link":"tg://resolve?domain=qa_jobs&post=0","tags":[{"name":"qa"},{"name":"python"},{"name":"selenium"},{"name":"web"}],"cities":[{"code":"moscow"}],"allowsRemote":false}},{"node":{"__typename":"Job","id":"2203058176-1001134745498","title":"Devops инженер","text":"#вакансия #Москва #удаленка #remote\n#kubernetes\nКомпания, стартап в области информационной безопасности, ищет DevOps инженера\n🎱 Город и адрес офиса: Москва\n🎱 Формат работы: удаленка или офис \n🎱 Занятость: полная \n🎱 Условия: зп от 130 до 180К (в зависимости от опыта и формата работы)\n\n🎱 Задачи:\nОбеспечение отказоустойчивости и развитие инфраструктуры в Европе и РФ.\nРабота с командой разработки по совершенствованию микросервисов.\nМониторинг работы инфраструктуры и приложений, реакция на инциденты.\nОбщение с заказчиками на этапе интеграции и при возникновении проблем.\n\n🎱 Ожидания:\nОпыт администрирования Linux\nопыт работы с Amazon Web Services, Terraform, Ansible.\nхорошие знания Kubernetes и Docker.\nопыт работы с nginx, ELK, GitLab CI/CD.\n\n\n🎱 Будет преимуществом:\nЗнание Python и/или Golang\nопыт прохождения PCI DSS\nзнание MongoDB, Redis, Kafka, Clickhouse,\nопыт эксплуатации JVM,\nопыт эксплуатации Dask, AirFlow.\n\n🎱 Контакты: @kornet_croft\n\n—\n\n👉 Обсуждение вакансии в чате @devops_jobs","markup":[{"type":"hashtag","offset":0,"length":9,"data":"вакансия"},{"type":"hashtag","offset":10,"length":7,"data":"Москва"},{"type":"hashtag","offset":18,"length":9,"data":"удаленка"},{"type":"hashtag","offset":28,"length":7,"data":"remote"},{"type":"hashtag","offset":36,"length":11,"data":"kubernetes"},{"type":"handle","offset":941,"length":13,"data":"kornet_croft"},{"type":"handle","offset":989,"length":12,"data":"devops_jobs"}],"date":"2020-06-15T08:42:51+00:00","link":"tg://resolve?domain=devops_jobs_feed&post=2101","tags":[{"name":"kubernetes"},{"name":"linux"},{"name":"web"},{"name":"ansible"},{"name":"docker"},{"name":"nginx"},{"name":"gitlab"},{"name":"python"},{"name":"go"},{"name":"mongodb"},{"name":"redis"},{"name":"kafka"},{"name":"jvm"},{"name":"amazon-web-services"}],"cities":[{"code":"moscow"}],"allowsRemote":true}},{"node":{"__typename":"Job","id":"2202009600-1001134745498","title":"Devops инженер","text":"#вакансия #vacancy #fulltime #remote #fullstack #senior\n\nПозиция: AWS Operations Engineer\nКомпания: SO Services Ltd\nФормат работы: удаленная работа\nЗанятость: полная\nОплата: от 3200 до 4300 USD в месяц\nКонтакт: Марк, @mark_soservices\n\nДобрый день! Мы ищем AWS инженера для нашего клиента из США. Требуется разговорный английский. Оформление контракта через ИП - с этим проконсультируем.\n\nWhat will you do?\nWe are looking for AWS Operations Engineer who will help us to develop our DevOps practices and culture. In this position you will need to assist company to migrate its legacy services to AWS ecosystem, as well as supporting existing infrastructure in AWS. You will also work with architect team to develop new solutions\n\nResponsibilities\n- Maintaining IAC approach using TerraForm\n- Develop TerraForm templates\n- Assist Development and QA teams to craft and improve automation pipelines\n- Manage and administer QA environments\n- Assist with migration of legacy services from on-premise to AWS\n- Collaborate with Architect team to develop new solutions\n- Enforce automation culture across technical teams\n\nRequirements\n- 3+ hands-on experience with running production environments on AWS\n- Experience with most or all AWS services: EC2, S3, EKS, ECS, Lambda, RDS\n- Strong experience with TerraForm\n- Experience with Docker (creating images, migration of apps to Docker containers)\n- Strong written and spoken communication skills\n- Focus on result\n- AWS certification is a significant bonus\n- K8s experience is a bonus\n\n\nTechnology Stack\n- Python, Django\n- AWS (EC2, S3, EKS, ECS, Lambda, RDS)\n- Github for code management\n- Jenkins CI\n\n—\n\n👉 Обсуждение вакансии в чате @devops_jobs","markup":[{"type":"hashtag","offset":0,"length":9,"data":"вакансия"},{"type":"hashtag","offset":10,"length":8,"data":"vacancy"},{"type":"hashtag","offset":19,"length":9,"data":"fulltime"},{"type":"hashtag","offset":29,"length":7,"data":"remote"},{"type":"hashtag","offset":37,"length":10,"data":"fullstack"},{"type":"hashtag","offset":48,"length":7,"data":"senior"},{"type":"handle","offset":217,"length":16,"data":"mark_soservices"},{"type":"handle","offset":1676,"length":12,"data":"devops_jobs"}],"date":"2020-06-13T14:57:14+00:00","link":"tg://resolve?domain=devops_jobs_feed&post=2100","tags":[{"name":"amazon-web-services"},{"name":"aws-lambda"},{"name":"docker"},{"name":"python"},{"name":"django"},{"name":"github"},{"name":"jenkins"}],"cities":[],"allowsRemote":true}},{"node":{"__typename":"Job","id":"90895810560-1001067529236","title":"Python разработчик","text":"#вакансия #vacancy #fulltime #remote #fullstack #senior\n\nПозиция: Senior Python Developer\nКомпания: SO Services Ltd\nФормат работы: удаленная работа\nЗанятость: полная\nОплата: от 3000 до 4000 USD в месяц\nКонтакт: Марк, @mark_soservices\n\nДобрый день! Мы ищем Python разработчика для нашего клиента из США. Требуется разговорный английский. Оформление контракта через ИП - с этим проконсультируем.\n\nResponsibilities\n- Plan and architect development work with rest of Dev team to ensure successful execution and delivery\n- Participate in improving and refining development processes and workflows\n- Help your peers with code review with focus on performance and reliability\n- Develop automation culture\n- Collaborate with Product Management to plan sprints\n- Collaborate with IT Operations to ensure services stability and high uptime\n- Help with investigation of software issues causing downtime and/or malfunction\n- Adapt legacy code to AWS\n\nRequirements\n- 4+ years professional experience building front and back-end web applications\n- Experience with most or all technologies: Python & Django, RDBMS, JS and jQuery, HTML/CSS/LESS, Git\n- Experience with following technologies will be a bonus: MongoDB, PostgreSQL, Elastic Search, WordPress, Redis, Celery, Jenkins, Sentry, New Relic, Nginx, RabbitMQ, NodeJS\n- Focus on task accomplishment and pursuing deadlines\n- Ability to prioritise and manage work across multiple related projects\n- Experienced in working following Agile development methodologies\n- Strong written and communications skills\n\n\nTechnology Stack\n- Python, Django\n- MySQL, Redis\n- AWS (storage, container services, serverless)\n- Github for code management\n- Jenkins as CI","markup":[{"type":"hashtag","offset":0,"length":9,"data":"вакансия"},{"type":"hashtag","offset":10,"length":8,"data":"vacancy"},{"type":"hashtag","offset":19,"length":9,"data":"fulltime"},{"type":"hashtag","offset":29,"length":7,"data":"remote"},{"type":"hashtag","offset":37,"length":10,"data":"fullstack"},{"type":"hashtag","offset":48,"length":7,"data":"senior"},{"type":"handle","offset":217,"length":16,"data":"mark_soservices"},{"type":"bold","offset":395,"length":16,"data":""},{"type":"bold","offset":939,"length":12,"data":""},{"type":"bold","offset":1546,"length":16,"data":""}],"date":"2020-06-13T14:26:03+00:00","link":"tg://resolve?domain=python_jobs&post=0","tags":[{"name":"python"},{"name":"rest"},{"name":"amazon-web-services"},{"name":"web"},{"name":"django"},{"name":"jquery"},{"name":"html"},{"name":"css"},{"name":"git"},{"name":"mongodb"},{"name":"postgresql"},{"name":"elasticsearch"},{"name":"wordpress"},{"name":"redis"},{"name":"jenkins"},{"name":"nginx"},{"name":"rabbitmq"},{"name":"nodejs"},{"name":"mysql"},{"name":"github"}],"cities":[],"allowsRemote":true}},{"node":{"__typename":"Job","id":"16866344960-1001110946746","title":"Js программист","text":"#вакансия #middle #WordPress #fullstack\n\nГород и адрес офиса: Запорожье (Украина)\nФормат работы: удаленная работа\nЗанятость: полная\nЗарплатная вилка: от 600 до 1300 usd\n\nО нас:\nНебольшая команда, сконцентрирована на WordPress разработке и ищет в команду хорошего программиста на длительное время для работы с различными проектами.\n\nСпецифика:\n● Поддержка постоянных проектов, плюс разработка новых сайтов.      \n● Общение с клиентами, как направления, так и опосредованно.\n\nУровень задач:\nОт очень простых (добавить код /   пофиксить элемент) для полного цикла разработки.\nТипичная задача - преобразование готовой верстки (возможно, с поправками) на WP тему, написанные JS и PHP кода.\n\nПрофессиональные качества соискателя:\n● Страсть к разработке, хороший самоменеджмент, желание всегда писать лучший код, а не код, просто решает задачи; Умение быстро осваивать новую технологию или предметной области;      \n● Английский на уровне не менее B2;      \n● Уметь уверенно работать с git;      \n● Хорошее знание API WP - умение перенести верстку с нуля и минимумом плагинов; написать плагин с нуля, получать данные со стороннего API; Знание ACF; Умение настроить кэширование на различных уровнях; Знание базовых принципов обеспечения безопасности проекта;      \n● Хорошее знание Node.js и npm;      \n● Умение семантической станки без CSS-фреймворков. Уверенное знание flexbox, знание основных проблем кросс-браузерную верстки; Навыки работы с Less, Scss;      \n● Умение писать JS (ES-2015 +) без jQuery;      \n● Понимание принципов работы webpack, gulp; Умение писать и изменять их конфигурацию;      \n● Навыки работы с VPS через SSH;      \n● Понимание показателей, влияющих на PageSpeed и SEO;      \n\nБыло бы плюсом:\n● Понимание принципов a11y;      \n● Подтвержденный open source contribution, выступления на конференциях, митапах;      \n● Опыт работы с Ruby, Python / Vue.js, React.js, Angular;      \n● Хорошие навыки работы с PHPStorm;      \n\nПлюшки:\n● Удаленная работа.      \n● Реальные возможности карьерного роста.      \n● Зарплата по результатам собеседования с быстрой возможностью по пересмотру по результатам работы. \n\nНазвание компании: MaximumStart\n\nКонтакты: \n- Телеграм @polinasvetlaya\n- Email polina.dubovik@gmail.com\n\n—\n\n👉 Обсуждение вакансии в чате @javascript_jobs","markup":[{"type":"hashtag","offset":0,"length":9,"data":"вакансия"},{"type":"hashtag","offset":10,"length":7,"data":"middle"},{"type":"hashtag","offset":18,"length":10,"data":"WordPress"},{"type":"hashtag","offset":29,"length":10,"data":"fullstack"},{"type":"handle","offset":2179,"length":15,"data":"polinasvetlaya"},{"type":"link","offset":2203,"length":24,"data":"mailto:polina.dubovik@gmail.com"},{"type":"handle","offset":2262,"length":16,"data":"javascript_jobs"}],"date":"2020-06-12T10:38:58+00:00","link":"tg://resolve?domain=javascript_jobs_feed&post=16085","tags":[{"name":"javascript"},{"name":"wordpress"},{"name":"php"},{"name":"git"},{"name":"nodejs"},{"name":"npm"},{"name":"css"},{"name":"jquery"},{"name":"webpack"},{"name":"gulp"},{"name":"ssh"},{"name":"seo"},{"name":"ruby"},{"name":"python"},{"name":"vuejs"},{"name":"reactjs"},{"name":"angularjs"}],"cities":[],"allowsRemote":true}},{"node":{"__typename":"Job","id":"2200961024-1001134745498","title":"Devops инженер","text":"#вакансия #Remote #работаDevOps  #удаленка #DevOps #Cyprus #Relocation\n\nКомпания: Exness\nФормат работы: удаленная или релокация на Кипр (по желанию кандидата)\nЗанятость: полная\nЗарплатная вилка: от 3000 до 4000 EUR (обсуждаем с кандидатами по итогам интерью)\n\nВсем привет! Мы - компания Exness 🌟 Разрабатываем собственные продукты в Fintech. \nИщем талантливого DevOps/DBA инженера, который сможет внести экспертизу в продуктовую команду по обработке торговых данных, обладая глубокими знаниями в управлении базами данных 💥\n\n🤗**Чем предстоит заниматься?**\nТесно работать над исследованиями, разработкой новых функций продукта, проверкой гипотез, улучшением качества, выявлением и решением проблем производительности, особенно с базами данных - их масштабирование, разбиение, разбиение, оптимизация запросов и т. д.\n\n🛠**Наш стэк:**\nBackend: Java, Go;\nETL: Clickhouse, MongoDB/Postgres;\nIT infra: Kubernetes;\nVCS/CICD: Gitlab, Teamcity.\n\n🤞**Чего мы ожидаем от кандидата:**\n- Знание операций и администрирования СУБД\n- Знание парадигмы и стека NoSQL (мы предпочитаем MongoDB)\n- Экспертное знание дизайна больших баз данных\n- Опыт работы с RabbitMQ и Apache Kafka\n- Экспертное знание инструментов и подходов CI / CD.\n- Опыт разработки программного обеспечения не менее 1 года (мы предпочитаем: Java, Go или Python)\n\nБудет плюсом: \n\n- Знание технологий облачных баз данных, таких как AWS RDS, AWS Aurora, AWS Redshift.\n\n🔥**Мы предлагаем:**\nПри удаленном сотрудничестве:\n- Медицинское страхование для сотрудника и членов их семей;\n- Компенсация спорта;\n- Путешествие на Кипр, чтобы познакомиться со своей командой (раз в год).\n\nПри желании релокации на Кипр:\n- Релокационный пакет для нового сотрудника и его семьи (билеты, визы, разрешение на работу, корпоративная квартира на первый месяц и т. д.);\n- Корпоративный автомобиль Мини Купер S;\n- Медицинское страхование для сотрудника и членов их семей;\n- Корпоративный фитнес-центр для сотрудников и их супругов;\n- Программа компенсации детского сада / школы;\n- Непрерывное профессиональное развитие, много интересных задач;\n- Отличный офис со свежевыжатыми соками, печеньем и лучшим видом на море из нашего собственного бара на крыше. \n\nКонтакт: @sofia_tomashevich\n\n—\n\n👉 Обсуждение вакансии в чате @devops_jobs","markup":[{"type":"hashtag","offset":0,"length":9,"data":"вакансия"},{"type":"hashtag","offset":10,"length":7,"data":"Remote"},{"type":"hashtag","offset":18,"length":13,"data":"работаDevOps"},{"type":"hashtag","offset":33,"length":9,"data":"удаленка"},{"type":"hashtag","offset":43,"length":7,"data":"DevOps"},{"type":"hashtag","offset":51,"length":7,"data":"Cyprus"},{"type":"hashtag","offset":59,"length":11,"data":"Relocation"},{"type":"handle","offset":2195,"length":18,"data":"sofia_tomashevich"},{"type":"handle","offset":2248,"length":12,"data":"devops_jobs"}],"date":"2020-06-12T08:26:57+00:00","link":"tg://resolve?domain=devops_jobs_feed&post=2099","tags":[{"name":"java"},{"name":"mongodb"},{"name":"postgresql"},{"name":"kubernetes"},{"name":"gitlab"},{"name":"nosql"},{"name":"rabbitmq"},{"name":"apache"},{"name":"kafka"},{"name":"python"},{"name":"amazon-web-services"}],"cities":[{"code":"aurora"},{"code":"sofia"}],"allowsRemote":true}}]}}},"context":{}}