{"hash":"f5f6bf98bd95e769321482904cbbd488f77922fd","data":{"records":{"id":"russia/moscow","country":{"code":"russia","ruName":"Россия","enName":"Russia"},"city":{"code":"moscow","ruName":"Москва","enName":"Moscow"},"belongsTo":{"totalCount":476,"pageInfo":{"totalPages":48,"currentPage":1},"edges":[{"node":{"__typename":"Job","id":"72626470912-1001054966032","title":"Ios developer","text":"#вакансия #москва #удаленка #fulltime #IOSdeveloper #swift #middle #senior \n\nКриптериум (https://crypterium.com) \n\nМеждународный финтех стартап (криптофиатные операции).\n\n🟢Что предстоит делать?\n\n🔹Разработка нового функционала мобильного приложения под iOS и исправление существующих недостатков;\n🔹Проведение интеграционных тестов при передаче функционала в тест;\n🔹Участие в принятии технических решений и планировании процесса разработки продукта;\n🔹Участие в CodeReview;\n🔹Покрытие написанного кода UnitTest’ами;\n🔹Участие в проектировании REST API.\n\n🟢Какие skill’s мы хотим видеть в нашем будущем коллеге?\n\n🔹Отличное знание Swift.\n🔹Знание архитектуры MVVM.\n🔹Использование Router, Assemblies, Managers.\n🔹Понимание принципов работы RESTful API и HTTP.\n🔹Знание шаблонов проектирования и умение их применять, придерживаясь принципов SOLID.\n🔹Знание основных алгоритмов и структур данных.\n🔹Умение писать поддерживаемый и тестируемый код.\n🔹Опыт модульного программирования в больших проектах\n🔹Понимание linking библиотек\n\n🟢Что мы готовы предложить будущему коллеге?\n\n🔹По настоящему заряженная команда профессионалов\n🔹Удаленная работа, с возможностью приезжать в офис, гибкое начало рабочего дня (c 9 до 12)\n🔹Возможности профессионально развиваться и расти\n\n📱Контакты:\n@kriskrisych Кристина","markup":[{"type":"hashtag","offset":0,"length":9,"data":"вакансия"},{"type":"hashtag","offset":10,"length":7,"data":"москва"},{"type":"hashtag","offset":18,"length":9,"data":"удаленка"},{"type":"hashtag","offset":28,"length":9,"data":"fulltime"},{"type":"hashtag","offset":38,"length":13,"data":"IOSdeveloper"},{"type":"hashtag","offset":52,"length":6,"data":"swift"},{"type":"hashtag","offset":59,"length":7,"data":"middle"},{"type":"hashtag","offset":67,"length":7,"data":"senior"},{"type":"link","offset":89,"length":22,"data":"https://crypterium.com"},{"type":"handle","offset":1282,"length":12,"data":"kriskrisych"}],"date":"2020-07-03T11:42:08+00:00","link":"tg://resolve?domain=mobile_jobs&post=0","tags":[{"name":"mobile"},{"name":"ios"},{"name":"swift"},{"name":"rest"},{"name":"mvvm"}],"cities":[{"code":"moscow"}],"allowsRemote":true}},{"node":{"__typename":"Job","id":"26997686272-1001075660570","title":"Php программист","text":"#вакансия #работа #fulltime #parttime #laravel #php #backend #Web\nГород и адрес офиса: Москва\nФормат работы: удаленка\nЗанятость: частичная, не менее 20-30 часов в неделю или полная 40 часов в неделю Зарплатная вилка: от 7$ до 20$ в час, либо сдельная\n\nПривет! Мы ищем человека который вольется в нашу команду для развития платформы EdaPort. Вам предстоит полностью взять на себя развитие бекенд-части.\nТребования:\nЗнание Laravel 5.x\nPHP 7.0 +\nЗнание для чего нужен REST-API и как его готовить\nРазбираться в чужом коде (наша платформа уже в продакшене)\nПисать понятные любому программисту Swagger-аннотации\nИметь представления о хорошей архитектуре, сейчас все не идеально, мы хотим чтобы становилось лучше с каждой итерацией.\nЛюбить или хотя бы не бояться писать тесты, понимать зачем они вообще нужны.\nИметь представление как работает CI\nОпыт работы по подключению платежных систем будет плюсом.\nУмение работать в команде, доступность с 10 до 19 по Москве (большую часть этого промежутка) для коммуникаций с командой.\nОпыт работы с таск-менеджерами будет плюсом.\n\nРабота удаленная, перед началом сотрудничества нужно будет пройти небольшое телефонное интервью с командой.\n\nКомпания: Enlighted\nКонтакты: Писать мне в личку @westarakagrek или на почту ra@enlighted.ru","markup":[{"type":"hashtag","offset":0,"length":9,"data":"вакансия"},{"type":"hashtag","offset":10,"length":7,"data":"работа"},{"type":"hashtag","offset":18,"length":9,"data":"fulltime"},{"type":"hashtag","offset":28,"length":9,"data":"parttime"},{"type":"hashtag","offset":38,"length":8,"data":"laravel"},{"type":"hashtag","offset":47,"length":4,"data":"php"},{"type":"hashtag","offset":52,"length":8,"data":"backend"},{"type":"hashtag","offset":61,"length":4,"data":"Web"},{"type":"handle","offset":1223,"length":14,"data":"westarakagrek"},{"type":"link","offset":1251,"length":15,"data":"mailto:ra@enlighted.ru"}],"date":"2020-07-03T11:31:03+00:00","link":"tg://resolve?domain=php_jobs&post=25747","tags":[{"name":"php"},{"name":"laravel"},{"name":"web"},{"name":"rest"},{"name":"swagger"}],"cities":[{"code":"moscow"}],"allowsRemote":true}},{"node":{"__typename":"Job","id":"72623325184-1001054966032","title":"Ios разработчик","text":"#вакансия #москва #офис #senior #ios #developer #gamedev #swift \nГород и адрес офиса: Москва, м.Автозаводская \nФормат работы: офис \nЗанятость: полная \nЗарплатная вилка: от 250 000 до 300 000 на руки \n\n\n✅ Senior iOS Developer \n\nОписание вакансии: \n\nМы - успешная команда из 120 человек, которая занимается: \n• разработкой собственных мобильных игр и приложений \n• паблишингом мобильных игр \n• рекламой и маркетингом мобильных приложений (реклама на Facebook, Google и т.д.) \nЗа последние 3 года мы привлекли более 100 млн пользователей в наши собственные мобильные приложения и приложения наших клиентов и партнеров, потратив на это более $80 млн. \n\nУ нас есть все составляющие чтобы делать готовые продукты известными и популярными. Мы ищем сильного и талантливого разработчика для усиления нашей текущей слаженно работающей команды и выведения нашего Fitness & Health iOS приложения Fitingo на лидирующие позиции в мире (уже сейчас приложение занимало позиции ТОП 13 в США и ТОП 6 в Великобритании с более чем 400,000 установок и более чем 45,000 совершенных покупок).\n\n✅Задачи: \n\n•  Разрабатывать новый функционал\n•  Рефакторить и оптимизировать код\n•  Писать код. Больше логики, меньше UI. Например - хранить историю и прогресс; сделать leaderboard по странам; добавить чат, аналитику и a/b тесты; Apple Health, Watch, Music и TV\n•  Участвовать в Code Review\n\nТекущий стек: Swift 5.1, MVPC, AVFoundation, UserNotifications, Realm, StoreKit, Firebase, PushWoosh, Facebook, Python.\n\n✅Требования: \n\n•  Опыт работы разработчиком iOS приложений от 3х лет\n•  Отличное знание Swift\n•  Уверенное знание SOLID и паттернов проектирования\n•  Умение профилировать приложение (Батарейка, утечки и вот это все)\n•  Опыт работы с системой контроля версий\n•  Наличие выпущенных проектов на Swift\n•  Желание делать красивые, интересные и популярные приложения\n\n✅Будет плюсом: \n\n•  Умение/желание писать небольшие серверные скрипты (например на Python)\n•  Умение автоматизировать рутинные процессы\n•  Умение рефакторить код итеративно\n•  Адекватный перфекционизм\n\n\n✅Для вас: \n\n•  Конкурентная заработная плата, выплачивается 2 раза в месяц\n•  Необходимое оборудование для работы\n•  Возможность набрать команду и выстроить всю работу под себя в краткосрочной перспективе\n•  Оформление по ТК РФ, оплачиваемые больничные, 28 дней оплачиваемого отпуска в год\n•  Возможны регулярные бонусы по результатам работы проектов\n•  Собеседование с лицом принимающим решение\n•  Возможность коммуницировать с людьми, которые принимают продуктовые решения\n\n✅О нас: \n\n•  Просторный офис 600 метров на м. Автозаводская (3 минуты от метро и от ТТК на машине) с ультра современным дизайном и кучей ништяков (кухня с вкусняшками, кальяны каждый вечер в дружной кампании, PS4 Pro + 4K TV, аркадные автоматы с Pac-Man, Metal Slug и другими хитами геймдизайна, просторная зона отдыха, 5 переговорных комнат и т д)\n•  Команда из 100 человек занимающаяся паблишингом и маркетингом, готовая сделать продукт успешным после его готовности\n•  Возможность обучаться английскому языку с носителями каждый будний день по утрам\n•  Менторы и инвесторы, создавшие большое количество успешных IT компаний (оборот в 2018 году более 140 млн долларов)\n\nНазвание компании: AppQuantum \n\nКонтакты: \ne-mail: vika@adquantum.com\ntelegram: @wikki13","markup":[{"type":"hashtag","offset":0,"length":9,"data":"вакансия"},{"type":"hashtag","offset":10,"length":7,"data":"москва"},{"type":"hashtag","offset":18,"length":5,"data":"офис"},{"type":"hashtag","offset":24,"length":7,"data":"senior"},{"type":"hashtag","offset":32,"length":4,"data":"ios"},{"type":"hashtag","offset":37,"length":10,"data":"developer"},{"type":"hashtag","offset":48,"length":8,"data":"gamedev"},{"type":"hashtag","offset":57,"length":6,"data":"swift"},{"type":"link","offset":3248,"length":18,"data":"mailto:vika@adquantum.com"},{"type":"handle","offset":3277,"length":8,"data":"wikki13"}],"date":"2020-07-03T11:26:52+00:00","link":"tg://resolve?domain=mobile_jobs&post=69259","tags":[{"name":"mobile"},{"name":"ios"},{"name":"swift"},{"name":"realm"},{"name":"firebase"},{"name":"python"}],"cities":[{"code":"moscow"}],"allowsRemote":false}},{"node":{"__typename":"Job","id":"17361272832-1001110946746","title":"Js разработчик","text":"#вакансия #node.js #typescript #офис #москва #мск #частичноудаленка \nГород и адрес офиса:  #москва #мск  #калужская\nФормат работы: офис, фултайм, гибкий график, можно несколько дней в неделю удаленно\nЗанятость: полная\nЗарплатная вилка: 160-230 т.р. net \nОписание вакансии: \nИщу сейчас Node.js разработчика в компанию, разрабатывающую собственную платформу для бесконтактных заказов: QR приложение (облачный киоск), мобильные приложения и терминалы самообслуживания для сетей ресторанов и кофеен. Продукт позволяет автоматизировать процесс заказа, сбора, оплаты и выдачи заказа - и сделать эти шаги бесконтактными.\n\nОформление белое, сейчас сильно масштабируем наш продукт и есть все возможные перспективы роста 😊\nНазвание компании:  Star-Staff\nКонтакты: пишите на этот тг @yuliaataman","markup":[{"type":"hashtag","offset":0,"length":9,"data":"вакансия"},{"type":"hashtag","offset":10,"length":5,"data":"node"},{"type":"hashtag","offset":19,"length":11,"data":"typescript"},{"type":"hashtag","offset":31,"length":5,"data":"офис"},{"type":"hashtag","offset":37,"length":7,"data":"москва"},{"type":"hashtag","offset":45,"length":4,"data":"мск"},{"type":"hashtag","offset":50,"length":17,"data":"частичноудаленка"},{"type":"hashtag","offset":91,"length":7,"data":"москва"},{"type":"hashtag","offset":99,"length":4,"data":"мск"},{"type":"hashtag","offset":105,"length":10,"data":"калужская"},{"type":"handle","offset":773,"length":12,"data":"yuliaataman"}],"date":"2020-07-03T11:24:50+00:00","link":"tg://resolve?domain=javascript_jobs_feed&post=16557","tags":[{"name":"javascript"},{"name":"nodejs"},{"name":"typescript"},{"name":"dotnet"}],"cities":[{"code":"moscow"}],"allowsRemote":true}},{"node":{"__typename":"Job","id":"72620179456-1001054966032","title":"Ios разработчик","text":"#вакансия #ios #swift #офис #москва\nм.Бауманская, полная занятость\nБелая з/п от 150.000 до 200.000 руб. на руки\niOS developer\nУдаленки нет\n\n Мы — команда разработки Level.Travel, сложного продукта в сфере путешествий.  За последние 8 лет мы с нуля создали и продолжаем развивать решение для онлайн-продажи путешествий. Нашу платформу используют лидеры рынка – Тинькофф Банк, OneTwoTrip, Сбербанк, TripAdvisor, Kayak, АК Барс Банк, Евросеть и многие другие. Компания Level.Travel является резидентом Инновационного центра «Сколково».\n\nОбязанности:\n🔸Разработка проекта на Swift\n🔸Разработка новых модулей приложения\n🔸Проведение code review\n🔸Пишем на VIPER, используем Realm, Swinject, SnapKit\n🔸Сбор требований и фидбэка от других команд разработчиков и дизайнеров для улучшения и развития нашего продукта\n🔸Проводить оценку и корректировать требования для развития и улучшения приложения\n\nОт Вас:\n🔸Разработка на iOS от 2х лет\n🔸Умеете писать поддерживаемый и тестируемый код и понимаете, что DRY, KISS и 🔸SOLID — не просто аббревиатуры\n🔸Умение разрабатывать многопоточные приложения\n🔸Способность планировать и приоритезировать работу\n🔸Умение находить аргументы и конструктивно реагировать на комментарии коллег\n🔸Готовность много общаться с другими командами\n\nОт нас: белая зп, официальное трудоустройство, больничные, отпуска. Скидки на изучение английского языка, техника MacBook Pro. Регулярная обратная связь и аттестации. Геймификация процессов и несколько раз в год релокейты поработать в другую страну. Клевый молодой коллектив, интересные ивенты, насыщенная корпоративная жизнь. Пинг-понг, бильярд, кальян и другие развлечения в офисе. Скидки на путешествия)\n\nСвязь по почте: vos@level.travel\nИли тут @Alyask_a","markup":[{"type":"hashtag","offset":0,"length":9,"data":"вакансия"},{"type":"hashtag","offset":10,"length":4,"data":"ios"},{"type":"hashtag","offset":15,"length":6,"data":"swift"},{"type":"hashtag","offset":22,"length":5,"data":"офис"},{"type":"hashtag","offset":28,"length":7,"data":"москва"},{"type":"bold","offset":67,"length":44,"data":""},{"type":"bold","offset":112,"length":13,"data":""},{"type":"bold","offset":141,"length":76,"data":""},{"type":"bold","offset":535,"length":12,"data":""},{"type":"bold","offset":892,"length":7,"data":""},{"type":"bold","offset":1268,"length":7,"data":""},{"type":"bold","offset":1676,"length":32,"data":""},{"type":"link","offset":1692,"length":16,"data":"mailto:vos@level.travel"},{"type":"bold","offset":1709,"length":17,"data":""},{"type":"handle","offset":1717,"length":9,"data":"Alyask_a"}],"date":"2020-07-03T11:00:51+00:00","link":"tg://resolve?domain=mobile_jobs&post=69256","tags":[{"name":"mobile"},{"name":"ios"},{"name":"swift"},{"name":"realm"}],"cities":[{"code":"moscow"}],"allowsRemote":false}},{"node":{"__typename":"Job","id":"72618082304-1001054966032","title":"Android разработчик","text":"#вакансия #senior #Москва #Android #СПБ\nГород: Москва, м. Кутузовская / Санкт-Петербург, Невский проспект, д. 19\nПозиция: Senior Android Developer\nФормат работы: офис\nЗанятость: полная\nВилка: от 200 т.р до 270 т.р.\nКомпания: Dialog (экосистема Сбербанка) - делаем конкурента Slack\n\nИщем в команду senior Android разработчикa для разработки платформы нашего мессенджера и доработки ее новым функционалом для крупных партнеров.\n\nНужен самостоятельный разработчик, способный работать в команде и готовый участвовать в разработке MVP решений.\n\nЧто нужно будет делать:\n- разработка dialog platform (коммуникационная платформа) для Android;\n- документирование, проектирование модулей, принятие архитектурных решений;\n- проведение код-ревью, формирование стайл гайдов;\n- обеспечение качества продукта (написание unit тестов).\n\n\nИспользуемый стек: RxJava / Kotlin \nЧто предлагаем мы:\n• белая ЗП и премии, гибкий график;\n• участие в разработке open-source проектов;\n• ДМС, спортзал;\n• супер-адекватная и профессиональная, дружная команда;\n\n\n\nПо вакансии написать: @avnaum","markup":[{"type":"hashtag","offset":0,"length":9,"data":"вакансия"},{"type":"hashtag","offset":10,"length":7,"data":"senior"},{"type":"hashtag","offset":18,"length":7,"data":"Москва"},{"type":"hashtag","offset":26,"length":8,"data":"Android"},{"type":"hashtag","offset":35,"length":4,"data":"СПБ"},{"type":"handle","offset":1055,"length":7,"data":"avnaum"}],"date":"2020-07-03T10:24:37+00:00","link":"tg://resolve?domain=mobile_jobs&post=69254","tags":[{"name":"mobile"},{"name":"android"},{"name":"kotlin"}],"cities":[{"code":"moscow"}],"allowsRemote":false}},{"node":{"__typename":"Job","id":"104346943488-1001089317451","title":"Qa инженер","text":"#вакансия #QA #automation #москва #fulltime \nКомпания: #KALABI\nЛокация: Мск, Сухаревская\nФормат работы: fulltime, офис, гибкий график\nЗ/П: 80 000 – 120 000 net.\n👉 Что потребуется от Вас:\n✔ Знание основ тестирования (жизненный цикл разработки ПО, цели тестирования, что такое качество, что такое ошибка и т.д.);\n✔ Практические знания различных видов и типов тестирования;\n✔ Знания разработки тестовой документации (сценарии, тест-кейсы, чек-листы);\n✔ Практические навыки написания автотестов на Selenium, навыки их интегрирования в Git или Jenkins;\n👉 Чем предстоит заниматься:\n✔ Проводить комплексное тестирование программного продукта (функциональное и нефункциональное);\n✔ Анализировать требования к программному продукту;\n✔ Разрабатывать автотесты и загружать их на сервер непрерывной интеграции;\n✔ Фиксировать дефекты в баг-трекер;\n✔ Обеспечивать контроль качества разрабатываемых продуктов.\n👉 Что мы предлагаем:\n✅прекрасный офис в центре Москвы, гибкий график (пару дней в неделю можно работать из дома);\n✅полностью белая зарплата, ДМС;\n✅обучение используемым технологиям, сложные и необычные задачи (некоторые из задач решаются всего в нескольких компаниях в мире).\n📞telegram:@faina_kleinman\n📮e-mail: fk@kalabi.ru","markup":[{"type":"hashtag","offset":0,"length":9,"data":"вакансия"},{"type":"hashtag","offset":10,"length":3,"data":"QA"},{"type":"hashtag","offset":14,"length":11,"data":"automation"},{"type":"hashtag","offset":26,"length":7,"data":"москва"},{"type":"hashtag","offset":34,"length":9,"data":"fulltime"},{"type":"hashtag","offset":55,"length":7,"data":"KALABI"},{"type":"handle","offset":1185,"length":15,"data":"faina_kleinman"},{"type":"link","offset":1211,"length":12,"data":"mailto:fk@kalabi.ru"}],"date":"2020-07-03T10:21:36+00:00","link":"tg://resolve?domain=qa_jobs&post=99513","tags":[{"name":"qa"},{"name":"dotnet"},{"name":"selenium"},{"name":"git"},{"name":"jenkins"}],"cities":[{"code":"moscow"}],"allowsRemote":false}},{"node":{"__typename":"Job","id":"17358127104-1001110946746","title":"Js разработчик","text":"#вакансия #работа #fulltime #parttime #JavaScript #vuejs #Frontend #Web\n\nГород и адрес офиса: Москва\nФормат работы: удаленка\nЗанятость: частичная, не менее 20-30 часов в неделю или полная 40 часов в неделю\nЗарплатная вилка: от 7$ до 20$ в час, либо сдельная\n\n\nО проекте:\nМы разрабатываем MVP нового сервиса для доставки и предзаказа еды. Также разрабатываем MVP для управления персоналом в сфере ЖКХ\n\nМакеты в Sketch, задачи в Трекере\n\nСтек:\nVue2 + Vuex\n\nОписание вакансии\nТребования:\nУмение верстать по макетам из Sketch/Figma\nПонимание принципа работы Vuex, уметь рассказать зачем он вообще нужен.\nvue+vuex, es6, vue-cli\nЗнание html, css3, BEM-методологии\nУмение работать с git, знание процесса git flow будет плюсом.\nОпыт интеграции Google/OSM maps будет плюсом.\nОпыт настройки CI/CD или хотя бы понимание как устроен процесс сборки Vue проекта.\n\nВам предстоит:\nРазрабатывать фронтенд-часть проекта по предоставленным макетам, никакого legacy, проект начинается с нуля.\nКомандная работа, утренние стендапы и еженедельные релизы.\n\nКомпания: Enlighted\n\nКонтакты:\nПисать мне в личку @westarakagrek или на почту ra@enlighted.ru\n\n—\n\n👉 Обсуждение вакансии в чате @javascript_jobs","markup":[{"type":"hashtag","offset":0,"length":9,"data":"вакансия"},{"type":"hashtag","offset":10,"length":7,"data":"работа"},{"type":"hashtag","offset":18,"length":9,"data":"fulltime"},{"type":"hashtag","offset":28,"length":9,"data":"parttime"},{"type":"hashtag","offset":38,"length":11,"data":"JavaScript"},{"type":"hashtag","offset":50,"length":6,"data":"vuejs"},{"type":"hashtag","offset":57,"length":9,"data":"Frontend"},{"type":"hashtag","offset":67,"length":4,"data":"Web"},{"type":"handle","offset":1083,"length":14,"data":"westarakagrek"},{"type":"link","offset":1111,"length":15,"data":"mailto:ra@enlighted.ru"},{"type":"handle","offset":1161,"length":16,"data":"javascript_jobs"}],"date":"2020-07-03T10:19:14+00:00","link":"tg://resolve?domain=javascript_jobs_feed&post=16554","tags":[{"name":"javascript"},{"name":"vuejs"},{"name":"web"},{"name":"html"},{"name":"css"},{"name":"git"}],"cities":[{"code":"moscow"}],"allowsRemote":true}},{"node":{"__typename":"Job","id":"72617033728-1001054966032","title":"Android разработчик","text":"#вакансия #Android #Kotlin #Москва #офис \n\nВакансия: Android разработчик\nГород: Москва м. Технопарк\nЗарплата: от 150 000 рублей до 260 000 рублей на руки \nФормат: офис, полный день, полная занятость (гибкое начало)\nКомпания Innovative People \n\nИспользуют e2e automation testing, release train и др. Пишут на Kotlin. В стеке RxJava2, Dagger2, Architecture Components, Spock, Espresso. Есть техрадар, на котором тестируют новые технологии.\n\nЧто ждем:\n▪ Опыт разработки под платформу Android от 2х лет\n▪ Наличие опубликованных приложений в google play\n▪ Знание Android SDK (4.1+)\n▪ Иметь коммерческий опыт разработки на Kotlin\n▪ Знание классических алгоритмов и структур данных\n▪ Иметь опыт работы с системами автоматической сборки проектов (Gradle)\n▪ Знание и умение применять паттерны проектирования\n▪ Понимание принципов SOLID\n▪ Желание развиваться\n\nУсловия:\n▪ Использование свежих практик и современного стека в работе\n▪ Передовую инфраструктуру\n▪ Иногда можно работать из дома\n▪ Хорошую команду и большое комьюнити\n▪ ДМС со стоматологией, программу лояльности\n▪ Возможность предлагать собственные идеи и реализовывать их\n\n📩Резюме и вопросы @Priboch","markup":[{"type":"hashtag","offset":0,"length":9,"data":"вакансия"},{"type":"hashtag","offset":10,"length":8,"data":"Android"},{"type":"hashtag","offset":19,"length":7,"data":"Kotlin"},{"type":"hashtag","offset":27,"length":7,"data":"Москва"},{"type":"hashtag","offset":35,"length":5,"data":"офис"},{"type":"handle","offset":1143,"length":8,"data":"Priboch"}],"date":"2020-07-03T10:13:35+00:00","link":"tg://resolve?domain=mobile_jobs&post=69253","tags":[{"name":"mobile"},{"name":"android"},{"name":"kotlin"},{"name":"playframework"},{"name":"gradle"}],"cities":[{"code":"moscow"}],"allowsRemote":false}},{"node":{"__typename":"Job","id":"104341700608-1001089317451","title":"Qa инженер","text":"#вакансия #fulltime #офис #москва #qa #middle\n\nКомпания «Ростелеком Информационные Технологии».\nИщу в команду по тестированию камер видеонаблюдения ручного тестировщика.\n\nТребования:\n- знание теории тестирования\n- владение техниками тест-дизайна и опыт написания тестовых сценариев\n- опыт работы с системами баг-трекинга\n- понимание устройства сетей, базовые навыки работы с сетевым оборудованием, знание основных сетевых протоколов\n- опыт тестирования restapi, знание основ протокола http, кодов ответа, json и пр\n- уверенная работа с командной строкой linux\n- базовые навыки пайки и работы с железом\n\nУсловия:\n- вилка в районе 60-120 в зависимости от уровня\n- компенсация фитнеса, обучения, ДМС и пр\n- офис в районе м. Павелецкая\\Новокузнецкая (в данный момент удалёнка)\n- широкие возможности для реализации и карьерного роста\n\nВопросы, резюме, предложения и прочее в telegram @shpyntov","markup":[{"type":"hashtag","offset":0,"length":9,"data":"вакансия"},{"type":"hashtag","offset":10,"length":9,"data":"fulltime"},{"type":"hashtag","offset":20,"length":5,"data":"офис"},{"type":"hashtag","offset":26,"length":7,"data":"москва"},{"type":"hashtag","offset":34,"length":3,"data":"qa"},{"type":"hashtag","offset":38,"length":7,"data":"middle"},{"type":"handle","offset":879,"length":9,"data":"shpyntov"}],"date":"2020-07-03T09:51:22+00:00","link":"tg://resolve?domain=qa_jobs&post=99508","tags":[{"name":"qa"},{"name":"json"},{"name":"linux"}],"cities":[{"code":"moscow"}],"allowsRemote":true}}]}}},"context":{}}