{"hash":"f5f6bf98bd95e769321482904cbbd488f77922fd","data":{"records":{"id":"amazon-web-services","name":"amazon-web-services","belongsTo":{"totalCount":50,"pageInfo":{"totalPages":5,"currentPage":3},"edges":[{"node":{"__typename":"Job","id":"2252341248-1001134745498","title":"Devops инженер","text":"#вакансия #DevOps #удаленка \nВакансия: DevOps\nФормат работы: офис или удаленная\nАдрес:  Москва, Боровая 8 (авиамоторная)\nЗанятость: полная\nЗарплатная вилка: от 140к до 190к\nКомпания: EMCD  Tech (emcd.io)\n \nВ связи с расширением бизнеса команда EMCD находится в поиске DevOps инженера. \n\nОсновная задача: развертывание и поддержка приложений на всех этапах разработки, создание и развитие систем непрерывной интеграции, развитие систем мониторинга\n\nЧто требуется:\n- ответственность, аккуратность, внимательность\n- опыт администрирования Linux\n- VMware (на базовом уровне: создание виртуалок, настройка сети)\n- Bash, Nginx, Ansible, Docker\n- CI/CD инструментарий (мы используем Bitbucket Pipelines и Docker Hub)\n- Zabbix, Prometheus, Grafana\n- MySQL, Clickhouse, Redis\n\nБудет плюсом:\n- опыт с AWS (на базовом уровне: создание виртуалок, настройка сети)\n\nУсловия\n- современный технологический стек\n- 4 перспективных продукта, команда больше 30 человек\n- возможность профессионального развития и карьерного роста\n- гибкий график\n\nКонтакты : @irapal, career@emcd.io\n\n—\n\n👉 Обсуждение вакансии в чате @devops_jobs","markup":[{"type":"hashtag","offset":0,"length":9,"data":"вакансия"},{"type":"hashtag","offset":10,"length":7,"data":"DevOps"},{"type":"hashtag","offset":18,"length":9,"data":"удаленка"},{"type":"link","offset":195,"length":7,"data":"http://emcd.io"},{"type":"handle","offset":1037,"length":7,"data":"irapal"},{"type":"link","offset":1046,"length":14,"data":"mailto:career@emcd.io"},{"type":"handle","offset":1095,"length":12,"data":"devops_jobs"}],"date":"2020-06-24T17:14:51+00:00","link":"tg://resolve?domain=devops_jobs_feed&post=2148","tags":[{"name":"linux"},{"name":"bash"},{"name":"nginx"},{"name":"ansible"},{"name":"docker"},{"name":"mysql"},{"name":"redis"},{"name":"amazon-web-services"}],"cities":[{"code":"moscow"}],"allowsRemote":true}},{"node":{"__typename":"Job","id":"2250244096-1001134745498","title":"Devops engineer","text":"#вакансия #vacancy #job #Belarus #Russsia #Ukraine #office #remote #fulltime #flexible #devops #aws #docker  #kubernetes #terraform\nPosition - DevOps Engineer\nCompany - Sphere Software\nLocation - Belarus, Russia, Ukraine\nWork - Remote or Office, Full-time\nSalary - 3700$ - 4800$ gross (3500$-4500$ nett)\n\nSphere Software is  partnered innovative trading platform with post-trade settlement and payments system and looking for DevOps engineer. \n\nRequirements:\n🔹 5+ years of experience as an SRE, DevOps engineer, operations engineer or similar\n🔹 Expert at Linux system administration\n🔹 Deep understanding of AWS technologies  \n🔹 Experience using IaC tools such as Ansible or Terraform \n🔹 Hands-on experience using Docker, AWS ECS or other orchestration tools\n🔹 Experience with bare metal infrastructures preferred\n🔹 Proficient in Python or alternative scripting language \n🔹 Experience managing a metrics driven system infrastructure\n🔹 Familiarity and hands on experience with common CI/CD pipeline tools (we use Jenkins) and container technologies\n🔹 Experience using Hashicorp Vault and Consul (big plus)\n🔹 Knowledge of cybersecurity mitigation and best practice (big plus)\n🔹 Relevant experience from an exchange, proprietary trading firm or top tier bank (big plus) \n \nResponsibilities include but are not limited to:\n🔹 Maintain and improve upon the uptime reliability of the overall platform \n🔹 Investigation and handling of issues in all public environments \n🔹 Designing automation tools and improving upon our deployment and release pipeline \n🔹 Build monitoring and alerting tools to keep internal teams and external stakeholders informed about system health and platform viability\n🔹 Identify and advocate for changes vital to the stability and supportability of the system\n🔹 Support the growth and scale of our infrastructure by suggesting and implementing new technology architecture\n \nOn-site benefits:\n🔹 Competitive compensation and paid time off\n🔹 Team of professionals providing you with the opportunity to grow\n🔹 Sports compensation\n🔹 Team building events.\n\nFeel free to contact me for more info! 👋  @alex_ithr\n\n—\n\n👉 Обсуждение вакансии в чате @devops_jobs","markup":[{"type":"hashtag","offset":0,"length":9,"data":"вакансия"},{"type":"hashtag","offset":10,"length":8,"data":"vacancy"},{"type":"hashtag","offset":19,"length":4,"data":"job"},{"type":"hashtag","offset":24,"length":8,"data":"Belarus"},{"type":"hashtag","offset":33,"length":8,"data":"Russsia"},{"type":"hashtag","offset":42,"length":8,"data":"Ukraine"},{"type":"hashtag","offset":51,"length":7,"data":"office"},{"type":"hashtag","offset":59,"length":7,"data":"remote"},{"type":"hashtag","offset":67,"length":9,"data":"fulltime"},{"type":"hashtag","offset":77,"length":9,"data":"flexible"},{"type":"hashtag","offset":87,"length":7,"data":"devops"},{"type":"hashtag","offset":95,"length":4,"data":"aws"},{"type":"hashtag","offset":100,"length":7,"data":"docker"},{"type":"hashtag","offset":109,"length":11,"data":"kubernetes"},{"type":"hashtag","offset":121,"length":10,"data":"terraform"},{"type":"handle","offset":2133,"length":10,"data":"alex_ithr"},{"type":"handle","offset":2178,"length":12,"data":"devops_jobs"}],"date":"2020-06-24T10:07:58+00:00","link":"tg://resolve?domain=devops_jobs_feed&post=2146","tags":[{"name":"amazon-web-services"},{"name":"docker"},{"name":"kubernetes"},{"name":"linux"},{"name":"ansible"},{"name":"python"},{"name":"jenkins"},{"name":"deployment"}],"cities":[],"allowsRemote":true}},{"node":{"__typename":"Job","id":"92233793536-1001067529236","title":"Python разработчик","text":"#вакансия #python #Django #vacancy #IT  #remote\n\nДрузья, всем привет! \nНовая вакансия -  #Senior_PythonDeveloper\nЛокация - Россия,\nПолный рабочий день, #remote \n#Оплата: 3000$\n\nТребования:\n\n-Опыт работы в индустрии разработки ПО от 5-ти лет;\n-Уверенное знание Python 3+/Python Core (языковые структуры, стандартные библиотеки, регулярные выражения и т.д.);\n-Практический опыт работы с Django (Django ORM, Django Rest Framework);\n-Иметь представление о GraphQL APIs (Graphene будет плюсом);\n-Знание SQL (знание реляционной СУБД PostgreSQL будет плюсом) на уровне работы как прикладного разработчика;\n-Опыт написания API и работы/интеграции с API сторонних сервисов;\n-Опыт работы с рядом AWS-сервисов: Lambda, API Gateway, SNS, SQS, SES, S3, RDS, VPC, EC2, CloudWatch, etc;\n-The English language MUST HAVE (B2+ level) to work with the english speaking team.\n\n\nЗа дополнительной информацией, пишите в ЛС:  @Zalvovskaya","markup":[{"type":"hashtag","offset":0,"length":9,"data":"вакансия"},{"type":"hashtag","offset":10,"length":7,"data":"python"},{"type":"hashtag","offset":18,"length":7,"data":"Django"},{"type":"hashtag","offset":26,"length":8,"data":"vacancy"},{"type":"hashtag","offset":35,"length":3,"data":"IT"},{"type":"hashtag","offset":40,"length":7,"data":"remote"},{"type":"hashtag","offset":89,"length":23,"data":"Senior_PythonDeveloper"},{"type":"hashtag","offset":152,"length":7,"data":"remote"},{"type":"hashtag","offset":161,"length":7,"data":"Оплата"},{"type":"handle","offset":903,"length":12,"data":"Zalvovskaya"}],"date":"2020-06-23T21:10:23+00:00","link":"tg://resolve?domain=python_jobs&post=87961","tags":[{"name":"python"},{"name":"django"},{"name":"orm"},{"name":"rest"},{"name":"graphql"},{"name":"sql"},{"name":"postgresql"},{"name":"amazon-web-services"},{"name":"aws-lambda"}],"cities":[],"allowsRemote":true}},{"node":{"__typename":"Job","id":"1730150400-1001091028994","title":"Java разработчик","text":"#вакансия #москва #офис #fulltime #clojure \nИщу разработчика, желающего переехать на Clojure или уже имеет опыт с ним.\n\nПроект - saas платформа для digital маркетинга. Собираем и обрабатываем большие данные о покупателях всего крупного e-commerce. \n\nУ нас:\n- Clojure, FP;\n- Kafka, Spark;\n- Docker, Docker Compose, Terraform, Kubernetes, AWS;\n- Highload (15k - 20k rps), терабайты данных;\n- Postgresql, Vertica, DynamoDB, Redis, Tarantool, Memcached, Clickhouse.\n\nУ вас:\n- Опыт в промышленном программировании (Java, Scala, Python, Ruby, Clojure, etc) от 2-х лет; \n- Опыт в высоконагруженных проектах с микросервисной архитектурой;\n- Любовь к FP.\n\nУсловия:\n- Москва, офис м.Тверская, фуллтайм;\n- Белая з/п до 300к net;\n- ДМС, хороший офис и техника;\n\nЗа подробностями —-> @nat_kirisova","markup":[{"type":"hashtag","offset":0,"length":9,"data":"вакансия"},{"type":"hashtag","offset":10,"length":7,"data":"москва"},{"type":"hashtag","offset":18,"length":5,"data":"офис"},{"type":"hashtag","offset":24,"length":9,"data":"fulltime"},{"type":"hashtag","offset":34,"length":8,"data":"clojure"},{"type":"handle","offset":771,"length":13,"data":"nat_kirisova"}],"date":"2020-06-23T15:25:30+00:00","link":"tg://resolve?domain=jvmjobs&post=1650","tags":[{"name":"java"},{"name":"jvm"},{"name":"clojure"},{"name":"kafka"},{"name":"docker"},{"name":"kubernetes"},{"name":"amazon-web-services"},{"name":"postgresql"},{"name":"dynamodb"},{"name":"redis"},{"name":"scala"},{"name":"python"},{"name":"ruby"},{"name":"dotnet"},{"name":"docker-compose"}],"cities":[{"code":"moscow"}],"allowsRemote":false}},{"node":{"__typename":"Job","id":"92012544000-1001067529236","title":"Python разработчик","text":"#вакансия #удалёнка #python #django #middle #djangorestframework\n\nФормат работы: #удалёнка\nЗанятость: частичная\nРейт: 20$/час\nОписание вакансии: Требуется Middle Python/Django разработчик\n\nКомпания:\nМеждународный стартап (интеграции в 11 странах) на стабильном финансировании, готовящийся выйти из stealth-mode.\n\nОбязанности:\n- Разработка API-сервисов для мобильных приложений\n- Интеграция с сервисами партнёров и клиентов\n- Отладка и оптимизация сервисов\n\nТребования:\n- знание Python (Python3)\n- знание Django\n- знание Django Rest Framework 3\n\nБудет плюсом:\n- опыт работы с AWS\n\nКонтакты и вопросы:\n@eugenebolotin","markup":[{"type":"hashtag","offset":0,"length":9,"data":"вакансия"},{"type":"hashtag","offset":10,"length":9,"data":"удалёнка"},{"type":"hashtag","offset":20,"length":7,"data":"python"},{"type":"hashtag","offset":28,"length":7,"data":"django"},{"type":"hashtag","offset":36,"length":7,"data":"middle"},{"type":"hashtag","offset":44,"length":20,"data":"djangorestframework"},{"type":"hashtag","offset":81,"length":9,"data":"удалёнка"},{"type":"handle","offset":600,"length":14,"data":"eugenebolotin"}],"date":"2020-06-23T14:10:14+00:00","link":"tg://resolve?domain=python_jobs&post=87750","tags":[{"name":"python"},{"name":"django"},{"name":"rest"},{"name":"amazon-web-services"}],"cities":[],"allowsRemote":true}},{"node":{"__typename":"Job","id":"91801780224-1001067529236","title":"Python developer","text":"#вакансия #remote #fulltime #python\n\nBack-end Python Developer\n\nФормат работы: #fulltime #remote\nЗарплата: от  $ 50 000 до $ 70 000  в год\n\nКоманда с большим опытом в компьютерном зрении и экспертами мирового уровня ищет в свои ряды Backend Python Developer. Продукт и его основатели базируются в Калифорнии, а почти вся команда — в России и Украине.\n\nЗадачи :\n• Оптимизация и улучшение качества алгоритмов трекинга людей;\n• Доработка основного кода клиентской стороны;\n• Разработка механизмов обновления клиентских приложений (Linux\\Docker);\n• Разработка системы сбора и разметки данных;\n• Доработка инфраструктурных сервисов и системы оценки качества.\n\nТребования:\n• Опыт промышленной работы от двух лет;\n• Опыт разработки оптимизационных алгоритмов разного назначения;\n• Опыт работы с AWS, Google Cloud, Azure, Docker.\n• Знание Python и\\или С++ и\\или Java;\n• Знание сетевых протоколов, их вариаций и особенностей;\n• Умение работать с многопоточной средой, понимание принципов работы сопрограмм;\n• Умение создавать сервера, способные выдерживать большие нагрузки.\n\nБудет плюсом:\n• Веб каркас Tornado, знания протокола HTTP;\n• Базы данных MongoDB, Redis, Aerospike, Cassandra;\n• Опыт работы с распределенной инфраструктурой;\n• Опыт использования нейронных сетей на TensorFlow / Keras / Caffe;\n• Понимание принципов работы различных архитектур нейронных сетей, знание алгоритмов машинного обучения.\n\nКонтакт для связи: @temnik_sofya","markup":[{"type":"hashtag","offset":0,"length":9,"data":"вакансия"},{"type":"hashtag","offset":10,"length":7,"data":"remote"},{"type":"hashtag","offset":18,"length":9,"data":"fulltime"},{"type":"hashtag","offset":28,"length":7,"data":"python"},{"type":"hashtag","offset":79,"length":9,"data":"fulltime"},{"type":"hashtag","offset":89,"length":7,"data":"remote"},{"type":"handle","offset":1419,"length":13,"data":"temnik_sofya"}],"date":"2020-06-23T10:09:17+00:00","link":"tg://resolve?domain=python_jobs&post=87549","tags":[{"name":"python"},{"name":"linux"},{"name":"docker"},{"name":"amazon-web-services"},{"name":"cloud"},{"name":"azure"},{"name":"java"},{"name":"mongodb"},{"name":"redis"},{"name":"cassandra"},{"name":"tensorflow"},{"name":"google-cloud-platform"}],"cities":[],"allowsRemote":true}},{"node":{"__typename":"Job","id":"91639250944-1001067529236","title":"Python developer","text":"#вакансия #python #fulltime #office #remote #Senior #Lead #backend #офис #удаленка #работа\nВсем привет!\nКомпания в поисках Lead Python в офис в Томск или удаленно\n 💸 Зп от 150 000 net \n\nНеобходимые навыки:\n🔸Software development experience 5+, \n🔸Experience with Django (Django ORM, Django Rest Framework (1+years);\n🔸Experience with AWS services: Lambda, API Gateway, SNS, SQS, SES, S3, RDS, VPC, EC2, CloudWatch, etc.\n🔸Experience writing API and working / integration with API of third-party services;\n🔸Knowledge of the GraphQL API (Graphene will be a plus)\n🔸Knowledge of SQL (PostgreSQL relational DBMS will be a plus)\n🔸Knowledge of CloudFormation in AWS and Terraform;\n🔸Ability to read code and understand it at the level of business logic;\n🔸Ability to work with general abstract tasks;\n🔸Written and spoken English is a MUST (B2+)\n\n📝🔍Описание вакансии: https://art2hire.catsone.com/careers/89104-General/jobs/13388214-Senior-Python-Developer/\n📥Контакты: @Nataly_3 или на почту: n.mazepa@art2hires.com","markup":[{"type":"hashtag","offset":0,"length":9,"data":"вакансия"},{"type":"hashtag","offset":10,"length":7,"data":"python"},{"type":"hashtag","offset":18,"length":9,"data":"fulltime"},{"type":"hashtag","offset":28,"length":7,"data":"office"},{"type":"hashtag","offset":36,"length":7,"data":"remote"},{"type":"hashtag","offset":44,"length":7,"data":"Senior"},{"type":"hashtag","offset":52,"length":5,"data":"Lead"},{"type":"hashtag","offset":58,"length":8,"data":"backend"},{"type":"hashtag","offset":67,"length":5,"data":"офис"},{"type":"hashtag","offset":73,"length":9,"data":"удаленка"},{"type":"hashtag","offset":83,"length":7,"data":"работа"},{"type":"link","offset":867,"length":89,"data":"https://art2hire.catsone.com/careers/89104-General/jobs/13388214-Senior-Python-Developer/"},{"type":"handle","offset":969,"length":9,"data":"Nataly_3"},{"type":"link","offset":993,"length":22,"data":"mailto:n.mazepa@art2hires.com"}],"date":"2020-06-22T13:31:31+00:00","link":"tg://resolve?domain=python_jobs&post=0","tags":[{"name":"python"},{"name":"dotnet"},{"name":"django"},{"name":"orm"},{"name":"rest"},{"name":"amazon-web-services"},{"name":"aws-lambda"},{"name":"graphql"},{"name":"sql"},{"name":"postgresql"}],"cities":[{"code":"tomsk"}],"allowsRemote":true}},{"node":{"__typename":"Job","id":"2239758336-1001134745498","title":"Devops инженер","text":"#вакансия #DevOps#Москва#удаленка #полнаязанятость\n180000-220000\nПривет!\nМы команда Crypterium!\nМы международный финтех стартап.\nМы строим банк будущего, который поддерживает криптофиатные операции.\nНаша цель – создание сервиса, который фактически займёт место традиционных банков, по всем возможным банковским операциям!\nУ нас сложные, но интересные задачи по созданию крутого и по-настоящему полезного продукта для людей из разных стран по всему миру. Работа у нас реальная возможность приложить руку к крутому продукту, которым будет пользоваться большое количество людей.\nНа данный момент наша компания активно растет и развивается, в связи с этим мы ищем DevOps инженера Нам нужен по-настоящему про активный и ответственный сотрудник. Задач много, они разные и крайне интересны\nЧто предстоит делать?\n•  Поддержка инфраструктуры проекта на AWS;\n•  Улучшение существующей инфраструктуры, включая масштабирование и отказоустойчивость;\n•  Мониторинг системы, анализ быстродействия и тонкая настройка;\n•  Администрирование AWS. Предоставления безопасного доступа к ресурсам хостинга;\n•  Обеспечение бесперебойной работы сервисов компании;\n•  Выбор и внедрение DevOps практик и инструментов на всех этапах работы проекта;\n•  Развертывание, мониторинг и поддержка работы облачных и dedicated сервисов компании;\n•  Оперативное реагирование и устранение инцидентов;\n•  Поддержка процесса разработки;\n•  Автоматизация рутинных задач\nКакие skils мы хотим видеть в нашем будущем коллеге?\n•  Не менее 3 лет работы с linux системами в роли системного администратора/devops инженера;\n•  Уверенное знание инфраструктуры/сервисов AWS и DO;\n•  Опыт работы (настройка и конфигурирование) с CI/CD системами (у нас TeamCity и Code Pipeline/Code Deploy с миграцией на GitLab);\n•  Умение конфигурировать Nginx (ssl, request limits, cache, headers manipulation);\n•  Опыт работы с Docker.\n•  Опыт создания отказоустойчивых распределенных серверных архитектур с высоким уровнем доступности;\n•  Навыки администрирования и оптимизации СУБД: PostgeSQL;\n•  Преимущества:\n•  Опыт работы с системами управления конфигурацией Chef, Puppet, Ansible\n•  Понимание принципов CI/CD;\n•  Понимание, как работают основные сервисы AWS.\n•  Знание Java/Kotlin;\nЧто мы можем предложить для Вас?\n•  По настоящему заряженная команда профессионалов\n•  Гибкое начало рабочего дня\n•  Возможности профессионально развиваться и расти\n\nПисать в ЛС @borisovaem\n\n—\n\n👉 Обсуждение вакансии в чате @devops_jobs","markup":[{"type":"hashtag","offset":0,"length":9,"data":"вакансия"},{"type":"hashtag","offset":34,"length":16,"data":"полнаязанятость"},{"type":"handle","offset":2400,"length":11,"data":"borisovaem"},{"type":"handle","offset":2446,"length":12,"data":"devops_jobs"}],"date":"2020-06-22T13:16:02+00:00","link":"tg://resolve?domain=devops_jobs_feed&post=2136","tags":[{"name":"amazon-web-services"},{"name":"linux"},{"name":"gitlab"},{"name":"nginx"},{"name":"ssl"},{"name":"docker"},{"name":"ansible"},{"name":"java"},{"name":"kotlin"}],"cities":[{"code":"moscow"}],"allowsRemote":true}},{"node":{"__typename":"Job","id":"17097031680-1001110946746","title":"Js developer","text":"#вакансия\nГород и адрес офиса: Эйлат, Израиль\nФормат работы: удаленка\nЗанятость: полная\nЗарплатная вилка: (оба значения обязательны) от 2200$ до 4500$ net\nОписание вакансии:\n\nhttps://trucknet.io/en/open-positions/middle-senior-backend-typescript-developer/\n\nWho are we looking for\nWe are looking for a Backend Developer to join our R&D department in Eilat, Israel. Have you ever dreamed of working with a small and capable team in a coastal town on the southern edge of the Negev Desert? Are you interested in creating an eco-friendly product in a domain of logistics and transportation, solving mysteries problems and facing new challenges? If so, the Trucknet team is just the place for you!\nResponsibilities\n • Implementing new features and providing support for various microservices.\n • Proposing, brainstorming and carrying out refactoring to improve the internal structure of our software.\n • Improving the developer experience by constantly bettering our toolbox.\n • Advancing deployment/integration infrastructure.\nRequirements\n • 3+ years of professional experience with backend development.\n • Acquaintance with Typescript, OOP Javascript, NodeJS.\n • Acquaintance with MongoDB and experience with databases in general.\n • Practical skills in software architecture and software design.\nAdvantages\n • Knowledge of Docker and Kubernetes.\n • Understanding the concept of horizontal scaling and what limitations it does impose on the application.\n • Strong knowledge of MongoDB, PostgreSQL.\n • Experience with CI/CD (we use GitLab CI).\n • Experience with test-driven development.\n • Experience with AWS.\n\n\nНазвание компании: Trucknet (https://trucknet.io/)\nКонтакты: @g000seman alex@trucknet.io\n\n—\n\n👉 Обсуждение вакансии в чате @javascript_jobs","markup":[{"type":"hashtag","offset":0,"length":9,"data":"вакансия"},{"type":"link","offset":175,"length":81,"data":"https://trucknet.io/en/open-positions/middle-senior-backend-typescript-developer/"},{"type":"link","offset":1641,"length":20,"data":"https://trucknet.io/"},{"type":"handle","offset":1673,"length":10,"data":"g000seman"},{"type":"link","offset":1684,"length":16,"data":"mailto:alex@trucknet.io"},{"type":"handle","offset":1735,"length":16,"data":"javascript_jobs"}],"date":"2020-06-21T15:12:01+00:00","link":"tg://resolve?domain=javascript_jobs_feed&post=16305","tags":[{"name":"javascript"},{"name":"dotnet"},{"name":"typescript"},{"name":"deployment"},{"name":"nodejs"},{"name":"mongodb"},{"name":"docker"},{"name":"kubernetes"},{"name":"postgresql"},{"name":"gitlab"},{"name":"amazon-web-services"}],"cities":[],"allowsRemote":true}},{"node":{"__typename":"Job","id":"17080254464-1001110946746","title":"Js разработчик","text":"#вакансия #вакансии #удаленная #работа #разработчик #remote #job #remotejob #full #stack #fullstack #software #engineer #develop #developer #node #react #amazon #aws #api #crm #erp #zoho #us #usa\n\n😎 Full Stack Software Engineer\n\nКомпания: Deep Consulting Solutions (Austin, Texas)\n\nМестоположение: Anywhere\n\nФормат работы: Remote \n\nЗанятость: Full Time, Flexible Schedule \n\nЗарплата: $1000-3000\n \nОписание вакансии:\n\nhttps://zfrmz.com/yIDN35yaj3apxsNfR9qS?src=irina-itrecruiter\n\nRequirements:\n\nYou must be:\n\n- A mature and responsible individual driven by results and not activities.\n- An individual with genuine interest in technology.\n- Willing to learn, grow, and admit mistakes.\n- Able to communicate with other people on the project's team effectively.\n \nSkills/Experience:\n\n- Node.js, React, SQL and NoSQL databases.\n- APIs.\n- Effective Written and Verbal English.\n- Basic Understanding of DevOps and SDLC.\n \nThe following will be a good plus:\n\n- Experience with Amazon AWS, serverless technologies, and microservices on its platform.\n- Experience with CRM and ERP systems such as Zoho and others.\n\nКак подать заявку:\n\nhttps://zfrmz.com/yIDN35yaj3apxsNfR9qS?src=irina-itrecruiter\n\nКонтакт:\n@Aagdan\n\n—\n\n👉 Обсуждение вакансии в чате @javascript_jobs","markup":[{"type":"hashtag","offset":0,"length":9,"data":"вакансия"},{"type":"hashtag","offset":10,"length":9,"data":"вакансии"},{"type":"hashtag","offset":20,"length":10,"data":"удаленная"},{"type":"hashtag","offset":31,"length":7,"data":"работа"},{"type":"hashtag","offset":39,"length":12,"data":"разработчик"},{"type":"hashtag","offset":52,"length":7,"data":"remote"},{"type":"hashtag","offset":60,"length":4,"data":"job"},{"type":"hashtag","offset":65,"length":10,"data":"remotejob"},{"type":"hashtag","offset":76,"length":5,"data":"full"},{"type":"hashtag","offset":82,"length":6,"data":"stack"},{"type":"hashtag","offset":89,"length":10,"data":"fullstack"},{"type":"hashtag","offset":100,"length":9,"data":"software"},{"type":"hashtag","offset":110,"length":9,"data":"engineer"},{"type":"hashtag","offset":120,"length":8,"data":"develop"},{"type":"hashtag","offset":129,"length":10,"data":"developer"},{"type":"hashtag","offset":140,"length":5,"data":"node"},{"type":"hashtag","offset":146,"length":6,"data":"react"},{"type":"hashtag","offset":153,"length":7,"data":"amazon"},{"type":"hashtag","offset":161,"length":4,"data":"aws"},{"type":"hashtag","offset":166,"length":4,"data":"api"},{"type":"hashtag","offset":171,"length":4,"data":"crm"},{"type":"hashtag","offset":176,"length":4,"data":"erp"},{"type":"hashtag","offset":181,"length":5,"data":"zoho"},{"type":"hashtag","offset":187,"length":3,"data":"us"},{"type":"hashtag","offset":191,"length":4,"data":"usa"},{"type":"link","offset":418,"length":60,"data":"https://zfrmz.com/yIDN35yaj3apxsNfR9qS?src=irina-itrecruiter"},{"type":"link","offset":1126,"length":60,"data":"https://zfrmz.com/yIDN35yaj3apxsNfR9qS?src=irina-itrecruiter"},{"type":"handle","offset":1197,"length":7,"data":"Aagdan"},{"type":"handle","offset":1239,"length":16,"data":"javascript_jobs"}],"date":"2020-06-19T18:46:06+00:00","link":"tg://resolve?domain=javascript_jobs_feed&post=16289","tags":[{"name":"javascript"},{"name":"nodejs"},{"name":"reactjs"},{"name":"amazon-web-services"},{"name":"sql"},{"name":"nosql"}],"cities":[{"code":"austin"}],"allowsRemote":true}}]}}},"context":{}}