{"hash":"f5f6bf98bd95e769321482904cbbd488f77922fd","data":{"records":{"id":"redis","name":"redis","belongsTo":{"totalCount":86,"pageInfo":{"totalPages":9,"currentPage":3},"edges":[{"node":{"__typename":"Job","id":"72272052224-1001054966032","title":"Ios разработчик","text":"#вакансия #ios #senior #swift #Спб\n\nГород: Санкт-Петербург\nФормат работы: офис\nЗанятость: полная\nЗарплатная вилка: 180-220 k net (готовы по потолку двигаться в зависимости от опыта)\nВакансия: ищу ведущего iOS-разработчика в развитие молодого приложения.\nО компании: НаПоправку.ру — медицинский онлайн-сервис. Команда реализовала real-time запись на медицинскую диагностику и услуги. Компании 6 лет, ежемесячно она помогает более чем 1 000 000 пользователей решать свои проблемы со здоровьем, и этот факт по-настоящему драйвит команду.\n\nГлавные задачи:\n✔️ Развивать архитектуру приложения и решать \"как делать\"\n✔️ Участвовать в планировании спринтов\n✔️ Менторство для младшего разработчика\n✔️ Наши технологии: Мы строим работу по SCRUM, для организации flow используем Jira и Slack.\n✔️ Основной стек команды веб-разработки (для полноты картины): PHP 7.3, MySQL / PostgreSQL / Redis, Zend / Laravel, Vue / jQuery.\n\nТребования:\n✔️ Имеете опыт коммерческой разработки на Swift более 3-х лет\n✔️ Понимаете как устроен жизненный цикл разработки мобильного приложения от концепции и первой строчки кода до релиза на маркетплейс\n✔️ Имеете опыт взаимодействия с REST API\n✔️ Уверенно владеете iOS SDK\n✔️ Пишете SOLID’ный код, знаете и применяете паттерны проектирования\n✔️ Настроены на решение реальных задач бизнеса\n✔️ Мы ищем в команду специалиста, мыслящего в терминах time-to-market, то есть, чтобы новые фичи доходили до прода, как можно быстрее, а не застревали в тестировании.\n\nПриятные мелочи:\n✔️ Белая зарплата, размер обсуждается с успешным кандидатом\n✔️ Мы поощряем развитие коллег, поэтому оплачиваем курсы, конференции и создаем корпоративную библиотеку\n✔️ Программа опционов для сотрудников\n✔️ Фрукты, снеки, чай и кофе\n✔️ Гибкое начало рабочего дня (с 8 до 11)\n\n📩 @ulyana_rol","markup":[{"type":"hashtag","offset":0,"length":9,"data":"вакансия"},{"type":"hashtag","offset":10,"length":4,"data":"ios"},{"type":"hashtag","offset":15,"length":7,"data":"senior"},{"type":"hashtag","offset":23,"length":6,"data":"swift"},{"type":"hashtag","offset":30,"length":4,"data":"Спб"},{"type":"bold","offset":36,"length":7,"data":""},{"type":"bold","offset":59,"length":14,"data":""},{"type":"bold","offset":79,"length":11,"data":""},{"type":"bold","offset":97,"length":17,"data":""},{"type":"bold","offset":182,"length":9,"data":""},{"type":"bold","offset":254,"length":11,"data":""},{"type":"bold","offset":536,"length":15,"data":""},{"type":"bold","offset":913,"length":11,"data":""},{"type":"bold","offset":1474,"length":16,"data":""},{"type":"handle","offset":1769,"length":11,"data":"ulyana_rol"}],"date":"2020-06-29T13:47:15+00:00","link":"tg://resolve?domain=mobile_jobs&post=68924","tags":[{"name":"mobile"},{"name":"ios"},{"name":"swift"},{"name":"dotnet"},{"name":"php"},{"name":"mysql"},{"name":"postgresql"},{"name":"redis"},{"name":"zend-framework"},{"name":"laravel"},{"name":"vuejs"},{"name":"jquery"},{"name":"rest"}],"cities":[],"allowsRemote":false}},{"node":{"__typename":"Job","id":"26779582464-1001075660570","title":"Php developer","text":"#backend #вакансия #офис #удаленка #PHP #remote\n\nВилка: 80к - 250k руб.\nЛокация: Удаленная работа или офис в Новосибе\nЗанятость: #полная\n\nМы — Legionfarm.com.\nМы помогаем игрокам по всему миру нанимать крутых киберспортсменов для помощи в освоении end-game контента, получении топ шмота и титулов, повышении рейтингов. Основные игровые дисциплины - Destiny 2, WoW, Division 2.\n\nТысячи игроков по всему миру пользуются сервисом ежедневно, мы растем, поэтому сейчас ищем в одну из команд PHP Developer (#middle и #senior)\n\n😱Что будем делать?\n• Будем ходить в API игр Bungie, Blizzard, анализировать игровые профили наших клиентов, строить рекомендательные системы.\n• Автоматическая отправка сообщений через API в мессенджеры: discord, telegram, fb, будем сводить общение наших клиентов через мессенджеры в единую систему intercom.com.\n• Автоматизация процессов в нашей команде (полуавтоматизированные инструменты для работы с сайтом).\n\n👍Что ты должен знать/уметь?\n• Знание PHP, Linux на хорошем уровне.\n• Умение работать в системах контроля версий.\n• Знание mysql, redis.\n• Опыт работы с различными API.\n\n⭐️Будет плюсом\n• Сильный математический бэкграунд.\n• Базовое знание html, CSS, JavaScript.\n• Опыт работы с фронтенд фреймворками (React one love).\n\n✅Вопросы прошу направлять в личку @isaevakristi","markup":[{"type":"hashtag","offset":0,"length":8,"data":"backend"},{"type":"hashtag","offset":9,"length":9,"data":"вакансия"},{"type":"hashtag","offset":19,"length":5,"data":"офис"},{"type":"hashtag","offset":25,"length":9,"data":"удаленка"},{"type":"hashtag","offset":35,"length":4,"data":"PHP"},{"type":"hashtag","offset":40,"length":7,"data":"remote"},{"type":"bold","offset":49,"length":6,"data":""},{"type":"bold","offset":72,"length":9,"data":""},{"type":"bold","offset":118,"length":9,"data":""},{"type":"hashtag","offset":129,"length":7,"data":"полная"},{"type":"link","offset":143,"length":14,"data":"http://Legionfarm.com"},{"type":"bold","offset":143,"length":14,"data":""},{"type":"bold","offset":464,"length":77,"data":""},{"type":"hashtag","offset":501,"length":7,"data":"middle"},{"type":"hashtag","offset":511,"length":7,"data":"senior"},{"type":"link","offset":820,"length":12,"data":"http://intercom.com"},{"type":"bold","offset":935,"length":29,"data":""},{"type":"bold","offset":1105,"length":15,"data":""},{"type":"handle","offset":1287,"length":13,"data":"isaevakristi"}],"date":"2020-06-29T12:07:04+00:00","link":"tg://resolve?domain=php_jobs&post=25539","tags":[{"name":"php"},{"name":"linux"},{"name":"mysql"},{"name":"redis"},{"name":"html"},{"name":"css"},{"name":"javascript"},{"name":"reactjs"}],"cities":[],"allowsRemote":true}},{"node":{"__typename":"Job","id":"1760559104-1001091028994","title":"Java разработчик","text":"#вакансия #удаленка #Java\n\nВакансия: Backend Java разработчик (middle, senior)\n\nЛокация: #Москва #удаленка\nВилка по ЗП: middle до 170 000 net, senior до 200 000 net)\nКонтакт: @Hr_Dina\nОсновной проект: Разработка подсистемы обеспечения юридической значимости электронного документооборота.\nСтек технологий: Java 11, Spring (Core, Boot, Security, Data), JPA (Hibernate), PostgreSQL, Angular, Ant-design, Docker.\n\nЧто нужно делать:\nBack-end - разработка проектов разных масштабов и направленности, в том числе проектов с \"нуля\"\nРефакторинг, оптимизация и модернизация кода существующих проектов\nУчастие в разработке архитектуры проекта\nРабота с разными проектными командами архитекторов, разработчиков и тестировщиков\n\nЧто мы ждем от вас:\nОпыт работы (обязательный):\nОпыт коммерческой разработки на Java от 3х лет.\nОпыт работы (желательный):\nОпыт разработки высоконагруженных приложений на Java от 1го года.\n\nНавыки (обязательные):\n- Java SE 8+ (Core, Collections, Multithreading);\n- Spring (Core, Boot, Security, Data);\n- ORM: Hibernate/JOOQ;\n- Кеши (Ehcache/Redis/Hazelcast/Ignite/GridGain/etc);\n- Очереди (Kafka/RabbitMQ/ActiveMQ/etc);\n- Проектирование REST API (Swagger);\n- БазыданныхPostgre/Oracle\n- Maven, Git\n\nНавыки (желательные):\n- OAuth, OpenId, SSO/SAML, WS-Security, PKI, Kerberos;\n- Docker\n- GitLab, Sonar","markup":[{"type":"hashtag","offset":0,"length":9,"data":"вакансия"},{"type":"hashtag","offset":10,"length":9,"data":"удаленка"},{"type":"hashtag","offset":20,"length":5,"data":"Java"},{"type":"bold","offset":27,"length":9,"data":""},{"type":"bold","offset":80,"length":8,"data":""},{"type":"hashtag","offset":89,"length":7,"data":"Москва"},{"type":"hashtag","offset":97,"length":9,"data":"удаленка"},{"type":"bold","offset":107,"length":12,"data":""},{"type":"bold","offset":166,"length":8,"data":""},{"type":"handle","offset":175,"length":8,"data":"Hr_Dina"},{"type":"bold","offset":184,"length":16,"data":""},{"type":"bold","offset":289,"length":16,"data":""},{"type":"bold","offset":411,"length":18,"data":""},{"type":"bold","offset":716,"length":20,"data":""},{"type":"bold","offset":906,"length":23,"data":""},{"type":"bold","offset":1214,"length":22,"data":""}],"date":"2020-06-29T11:03:15+00:00","link":"tg://resolve?domain=jvmjobs&post=1679","tags":[{"name":"java"},{"name":"jvm"},{"name":"dotnet"},{"name":"spring"},{"name":"jpa"},{"name":"hibernate"},{"name":"postgresql"},{"name":"angularjs"},{"name":"ant"},{"name":"docker"},{"name":"orm"},{"name":"redis"},{"name":"kafka"},{"name":"rabbitmq"},{"name":"rest"},{"name":"swagger"},{"name":"oracle"},{"name":"maven"},{"name":"git"},{"name":"oauth"},{"name":"gitlab"}],"cities":[{"code":"moscow"}],"allowsRemote":true}},{"node":{"__typename":"Job","id":"1756364800-1001091028994","title":"Java разработчик","text":"#java#fulltime \nЛокация: #Москва ст.м.Петровско-Разумовская, мцк/мжд Окружная \nФормат работы: 5/2 с гибким началом дня, 1 день в неделю можно работать удаленно,остальные в офисе #fulltime  \nЗ/п:  300-400 000 руб. gross (опыт от 5 лет) \nКомпания: ПАО «Детский Мир» \nОснования появления: Расширяем команду, много новых задач. Если ты устал/а от бюрократии и не стабильности- приходи в нашу команду! \nКрупнейший ритейлер на рынке детских товаров (до 130000 заказов в сутки, более 30 000 одновременных пользователей на сайте, 2000-3000 rps на базовые сервисы) ищет Java разработчика для разработки бэкенда в сфере e-commerce. \n \n  Что мы используем : \nJava 14/Scala 2.13, Spring, SpringBoot , Sbt/Maven, MySQL, Kafka, JUnit, Jenkins, GitLab, Docker, Kubernetes, Jira/Confluence, Scrum, Kanban \n \n   Что нужно делать? \n⁃    Писать качественный код для распределенной системы, стек: Java 14/Kafka/Redis/Solr/MySQL \n⁃    Проводить code review кода коллег по команде \n⁃    Разбираться в сложных вопросах интеграции со смежными системами \n⁃    Участвовать в создании архитектурных решений и проектировании высоконагруженных отказоустойчивых систем \n \n    Наши ожидания: \n• Хорошие знания J2SE, в частности - Java Concurrency, Collections \n• Опыт работы с Spring \n• Опыт работы и проектирования REST API \n• Знания SQL и оптимизации запросов \n• Понимание принципов работы сетей: TCP/IP, HTTP, Websockets, etc. \n• Владение git \n• Базовое знание архитектурных паттернов и типичных вариантов решения проблем с производительностью \n \n    Желательно: \n• Базовые знания Docker/Kubernetes \n• Опыт разработки распределенных систем \n• Опыт работы c lucene (Apache Solr, ElasticSearch, Kibana) \n \nМы предлагаем: \n• Официальное оформление в соответствии с ТК РФ в том числе возможно онлайн оформление (или оффлайн в офисе) \n• Отсутствие бюрократии и плоская организационная структура \n• Лояльный бизнес, постоянные коммуникации, возможность на равных обсуждать бизнес-фичи на стадии формирования \n• Хорошая техническая оснащенность: MacBook pro 2019, 27 дюймовые мониторы(4к/5к) \n• до 20% скидка на продукцию компании, расширенный полис ДМС \n• Внешнее обучение, оплата участия в конференциях(JPoint, Highload, Joker etc) \n• Годовые бонусы по итогам работы, ежегодная индексация дохода \n \nСейчас пока работаем частично удаленно, 2 интервью в формате скайпа, не выходя из дома (в офис ехать не обязательно). По любым вопросам отвечу в:  \ntelegram:  @HR_aleshina почта: EAleshina@detmir.ru","markup":[{"type":"hashtag","offset":25,"length":7,"data":"Москва"},{"type":"hashtag","offset":178,"length":9,"data":"fulltime"},{"type":"handle","offset":2425,"length":12,"data":"HR_aleshina"},{"type":"link","offset":2445,"length":19,"data":"mailto:EAleshina@detmir.ru"}],"date":"2020-06-29T09:43:28+00:00","link":"tg://resolve?domain=jvmjobs&post=1675","tags":[{"name":"java"},{"name":"jvm"},{"name":"scala"},{"name":"spring"},{"name":"sbt"},{"name":"maven"},{"name":"mysql"},{"name":"kafka"},{"name":"junit"},{"name":"jenkins"},{"name":"gitlab"},{"name":"docker"},{"name":"kubernetes"},{"name":"redis"},{"name":"solr"},{"name":"rest"},{"name":"sql"},{"name":"git"},{"name":"lucene"},{"name":"apache"},{"name":"elasticsearch"}],"cities":[{"code":"moscow"}],"allowsRemote":true}},{"node":{"__typename":"Job","id":"357564416-1001352129329","title":"Golang разработчик","text":"#вакансия #golang #fulltime #office #junior #middle\n\nДобрый день.\nВакансия: Golang разработчик \nУровень: джун->мидл\nЗанятость: полная\nФормат работы: офис\nМесто работы: Москва, м. Сухаревская\nКомпания:  pharmaspace.ru\nПродукт: маркетплейс фармакологической тематики .\nЗП: от 130 000 до 150 000 net.\nОформление по ТК РФ\n\nМикросервисная архитектура.\n\nСтек\nGolang, NodeJS, Redis, RabbitMQ, ElasticSearch, MongoDB, ClickHouse, GitLab, Docker, Kubernetes, React\n\nЧто мы ждём от вас\n- опыт работы с GoLang \n- опыт работы с MongoDB\n- умеете пользоваться Git\n\nКонтакт: @irarudakova","markup":[{"type":"hashtag","offset":0,"length":9,"data":"вакансия"},{"type":"hashtag","offset":10,"length":7,"data":"golang"},{"type":"hashtag","offset":18,"length":9,"data":"fulltime"},{"type":"hashtag","offset":28,"length":7,"data":"office"},{"type":"hashtag","offset":36,"length":7,"data":"junior"},{"type":"hashtag","offset":44,"length":7,"data":"middle"},{"type":"link","offset":202,"length":14,"data":"http://pharmaspace.ru"},{"type":"handle","offset":560,"length":12,"data":"irarudakova"}],"date":"2020-06-29T09:00:25+00:00","link":"tg://resolve?domain=gogetajobfeed&post=341","tags":[{"name":"go"},{"name":"dotnet"},{"name":"nodejs"},{"name":"redis"},{"name":"rabbitmq"},{"name":"elasticsearch"},{"name":"mongodb"},{"name":"gitlab"},{"name":"docker"},{"name":"kubernetes"},{"name":"reactjs"},{"name":"git"}],"cities":[{"code":"moscow"}],"allowsRemote":false}},{"node":{"__typename":"Job","id":"2260729856-1001134745498","title":"Devops engineer","text":"#вакансия #devops #azure #remote #спб #fulltime #релокация #офис #удаленка\n\nВ компании Bekitzur открыта позиция Senior DevOps Remote Engineer (Azure)\n\nМы работаем с крупными Американскими проектами и стартапами из Кремниевой долины.\n\nЗарплатная вилка: от 200 до 300К рублей на руки.\n\nПроект: Софт для командного планирования, с возможностью интерактивного управления с помощью жестов рук.\n\nИспользуемые технологии: Azure, Terraform, Kubernetes, PostgreSQL, Redis.\n\nОсновные требования:\nОпыт с Azure от 2-х лет\nОпыт на позиции DevOps от 3-х лет\nАнглийский от B2\n\nВозможно работать в офисе(Санкт-Петербург) и удаленно\n\nПисать: @khabibulin_it\n\n—\n\n👉 Обсуждение вакансии в чате @devops_jobs","markup":[{"type":"hashtag","offset":0,"length":9,"data":"вакансия"},{"type":"hashtag","offset":10,"length":7,"data":"devops"},{"type":"hashtag","offset":18,"length":6,"data":"azure"},{"type":"hashtag","offset":25,"length":7,"data":"remote"},{"type":"hashtag","offset":33,"length":4,"data":"спб"},{"type":"hashtag","offset":38,"length":9,"data":"fulltime"},{"type":"hashtag","offset":48,"length":10,"data":"релокация"},{"type":"hashtag","offset":59,"length":5,"data":"офис"},{"type":"hashtag","offset":65,"length":9,"data":"удаленка"},{"type":"handle","offset":625,"length":14,"data":"khabibulin_it"},{"type":"handle","offset":674,"length":12,"data":"devops_jobs"}],"date":"2020-06-29T08:16:46+00:00","link":"tg://resolve?domain=devops_jobs_feed&post=2156","tags":[{"name":"azure"},{"name":"kubernetes"},{"name":"postgresql"},{"name":"redis"}],"cities":[],"allowsRemote":true}},{"node":{"__typename":"Job","id":"26772242432-1001075660570","title":"Php разработчик","text":"#Удаленка #вакансия #php #fulltime #Senior #middle\nФормат работы: Удаленка \nЗанятость: полная\nЗарплатная вилка: от 80 т.р. до 150 т.р.\n\nMobidoo - AdTech компания, занимаемся рекламой в мобильном сегменте интернета.Мы работаем в области анализа и генерации трафика, с данными пользователей. Мы ищем Backend разработчика, который хотел бы реализовывать нетривиальные задачи и работать с продуктами, нацеленными на большие аудитории. (Возможна удаленная работа)\n\nС чем предстоит работать:\n\nРабота над внутренними проектами компании для аналитики и маркетинга;\nРабота над сервисами по интеграции с third-party партнерами (Facebook, Google, Apple и другие);\nРазработка API для мобильных приложений с DAU 500к+\nВзаимодействие с командой мобильной разработки\n\nТребования:\n\nPHP 7.1-7.4, ООП, паттерны\nPostgreSql (понимать плюсы и минусы БД, уметь работать со сложными запросами и выборками данных)\nОпыт работы с Redis/Memcache/Tarantool\nОпыт работы с Silex, Symfony2, Yii, Laravel\nИнициативность.\n\nПриветствуется:\n\nСильно приветствуется если на предыдущем месте работы занимались геймдевом, BI, трекерами, системами аналитики трафика, а так же имеется опыт работы с google и facebook api.\n\nНазвание компании: Mobidoo http://mobidoo.io\nКонтакты: @ohmytraff","markup":[{"type":"hashtag","offset":0,"length":9,"data":"Удаленка"},{"type":"hashtag","offset":10,"length":9,"data":"вакансия"},{"type":"hashtag","offset":20,"length":4,"data":"php"},{"type":"hashtag","offset":25,"length":9,"data":"fulltime"},{"type":"hashtag","offset":35,"length":7,"data":"Senior"},{"type":"hashtag","offset":43,"length":7,"data":"middle"},{"type":"link","offset":1209,"length":17,"data":"http://mobidoo.io"},{"type":"handle","offset":1237,"length":10,"data":"ohmytraff"}],"date":"2020-06-29T08:14:57+00:00","link":"tg://resolve?domain=php_jobs&post=25532","tags":[{"name":"php"},{"name":"postgresql"},{"name":"redis"},{"name":"symfony"},{"name":"yii"},{"name":"laravel"}],"cities":[],"allowsRemote":true}},{"node":{"__typename":"Job","id":"17163091968-1001110946746","title":"Js разработчик","text":"#вакансия #удаленно #fullstack #JavaScript #NodeJS #Vue #middle #junior\n\nГород: г. Москва, Сколково, б-р Большой\nФорма работы: удаленка\nЗанятость: полная\nЗарплатная вилка: от 80000 до 120000 рублей\nНазвание компании: ADMON\n\nВ связи с расширением штата, компания ADMON приглашает Junior+/Middle Full-stack JavaScript-разработчиков, готовых стать полноценными членами нашей команды на удаленной основе. ADMON – одна из ведущих российских компаний по предотвращению и расследованию мошенничества в сфере рекламы в Интернете и на мобильных устройствах с использованием высоких технологий, являемся резидентами Сколково. Основные направления деятельности компании: мониторинг и предотвращение мошенничества, аудит рекламных кампаний, разработка инновационных программных продуктов по мониторингу, обнаружению и предотвращению возникающих видов мошенничества.\n\nСтек технологий:\nNode.JS, Vue, GraphQl, Jest, Redis, Clickhouse, PostgreSQL, Docker.\n\nЧто используем в работе:\n    ✔️ Jira (Kanban), Confluence;\n   ✔️Храним код в Gitlab, тут же CI/CD;\n    ✔️Практикуем code review, политику частых релизов, гибкие методологии разработки;\n    ✔️Мониторим состояние приложений с помощью: Zabbix, Grafana.\n\nВ задачи будет входить:\n    🔸 Улучшать имеющийся функционал и разрабатывать новый (Система нотификаций, Обработка платежей, Алгоритмы атрибуции, Ads Crawler и т.д.);\n    🔸Писать тесты и рефакторить кодовую базу;\n    🔸Участвовать в принятии архитектурных решений;\n    🔸 Работать как в составе команды, так и в одного над небольшими проектами;\n   🔸Участвовать в коммуникации с командой;\n    🔸Быть инициативным и предлагать свои идеи, в том числе, если это касается использования новых технологий — проводить code review.\n\nЧто мы предлагаем:\n    🚀 Удаленная работа;\n    🚀 Оформление по ТК РФ;\n    🚀 Полностью белая ЗП;\n    🚀График работы 5/2;\n    🚀 Можно выбрать свой график работы;\n    🚀Наставничество по предметной области и на равной позиции;\n    🚀 Возможность работать как в составе команды, так и возглавить со временем свое направление — мы готовы обсуждать любые ваши идеи. \n\n Контакты:@juliajudina2810\n Резюме можно присылать на почту: hr@resurs-hr.ru\n\n—\n\n👉 Обсуждение вакансии в чате @javascript_jobs","markup":[{"type":"hashtag","offset":0,"length":9,"data":"вакансия"},{"type":"hashtag","offset":10,"length":9,"data":"удаленно"},{"type":"hashtag","offset":20,"length":10,"data":"fullstack"},{"type":"hashtag","offset":31,"length":11,"data":"JavaScript"},{"type":"hashtag","offset":43,"length":7,"data":"NodeJS"},{"type":"hashtag","offset":51,"length":4,"data":"Vue"},{"type":"hashtag","offset":56,"length":7,"data":"middle"},{"type":"hashtag","offset":64,"length":7,"data":"junior"},{"type":"handle","offset":2104,"length":16,"data":"juliajudina2810"},{"type":"link","offset":2155,"length":15,"data":"mailto:hr@resurs-hr.ru"},{"type":"handle","offset":2205,"length":16,"data":"javascript_jobs"}],"date":"2020-06-26T07:25:28+00:00","link":"tg://resolve?domain=javascript_jobs_feed&post=16368","tags":[{"name":"javascript"},{"name":"nodejs"},{"name":"vuejs"},{"name":"graphql"},{"name":"redis"},{"name":"postgresql"},{"name":"docker"},{"name":"gitlab"}],"cities":[{"code":"moscow"}],"allowsRemote":true}},{"node":{"__typename":"Job","id":"1741684736-1001091028994","title":"Java разработчик","text":"#вакансия #java #teamlead #javateamlead #москва #мск\n\nTeam Lead Java\nКомпания: Srgroup\nЛокация: офис\nЗанятость: fulltime \nЗ/п: 280-350к net \nКонтакты: @observer69 \n\nНаши роботы не только полностью автоматически оценивают квартиры, но также помогают аналитикам работать с уникальными объектами на рынке, выявлять случаи мошенничества, оценивать коммерческую недвижимость.\n\nЗадачи\n1. Управлять  Java-командой;\n2. Детализировать и оценивать задачи на основе бизнес постановок;\n3. Участвовать в формировании спринта;\n4. Решать архитектурно и технически сложные задачи;\n5. Code review;\nСовершенствовать процессы разработки;\n6. Развивать скилы разработчиков.\n\nТребования\n● Более 3-х лет разрабатывать коммерческие продукты на Java;\n● Интерес к BigData;\n● Spring, Spring-boot, Spring data, Hibernate, Redis, плюсом MongoDB и RabbitMQ;\n● Пишете быстрые и красивые запросы к БД и понимаете в индексах;\n● Почему и когда нужно писать простой, расширяемый и производительный код;\n● Владеете Mercurial, Gradle, Jira, Jenkins\n\nУсловия\n● Все по ТК РФ;\n● Белая ЗП;\n● Комфортная рабочая среда;\n● Гибкое начало дня;\n● Офис БЦ \"Пальмира\", м. \n Бауманская/Электрозаводская","markup":[{"type":"hashtag","offset":0,"length":9,"data":"вакансия"},{"type":"hashtag","offset":10,"length":5,"data":"java"},{"type":"hashtag","offset":16,"length":9,"data":"teamlead"},{"type":"hashtag","offset":26,"length":13,"data":"javateamlead"},{"type":"hashtag","offset":40,"length":7,"data":"москва"},{"type":"hashtag","offset":48,"length":4,"data":"мск"},{"type":"bold","offset":54,"length":24,"data":""},{"type":"bold","offset":87,"length":8,"data":""},{"type":"bold","offset":101,"length":10,"data":""},{"type":"bold","offset":122,"length":4,"data":""},{"type":"bold","offset":141,"length":9,"data":""},{"type":"handle","offset":151,"length":11,"data":"observer69"},{"type":"bold","offset":372,"length":9,"data":""},{"type":"bold","offset":408,"length":2,"data":""},{"type":"bold","offset":474,"length":2,"data":""},{"type":"bold","offset":513,"length":2,"data":""},{"type":"bold","offset":565,"length":2,"data":""},{"type":"bold","offset":619,"length":3,"data":""},{"type":"bold","offset":654,"length":11,"data":""},{"type":"bold","offset":1013,"length":8,"data":""}],"date":"2020-06-26T06:42:50+00:00","link":"tg://resolve?domain=jvmjobs&post=1661","tags":[{"name":"java"},{"name":"jvm"},{"name":"dotnet"},{"name":"spring"},{"name":"hibernate"},{"name":"redis"},{"name":"mongodb"},{"name":"rabbitmq"},{"name":"mercurial"},{"name":"gradle"},{"name":"jenkins"},{"name":"spring-boot"},{"name":"spring-data"}],"cities":[{"code":"moscow"}],"allowsRemote":false}},{"node":{"__typename":"Job","id":"26587693056-1001075660570","title":"Php developer","text":"#вакансия #москва #офис #fulltime #symfony #php #job\n\nВсем привет!\nСейчас нахожусь в поиске сильного специалиста и с радостью делюсь подробностями :)\n\n Позиция: Senior PHP Developer\nЗанятость: полная\nКомпания: ТД ЦУМ \nЛокация: Москва\nЗ/П: до 280.000\n\n   Основные цели и задачи:\n- Разработка программных модулей продуктов компании;\n- Глубокое погружение в процессы работы интернет-магазина;\n- Участие в разработке сервис-ориентированной архитектуре приложения.\n\n   Основные обязанности:\n- Разработка и поддержка инфраструктуры интернет-проекта, мобильного приложения и внутренних сервисов компании;\n- Разработка программных модулей продуктов интернет магазина ЦУМ;\n- Оптимизация приложения под высокую нагрузку, масштабирование, поиск узких мест;\n- Интеграция со сторонними сервисами;\n- Предложение и внедрение высокотехнологичных, инновационных решений.\n\nТребования:\n- Отличное знание и опыт работы с PHP 7 от 3 лет;\n- Понимание как устроен HTTP, REST;\n- Знание и понимание MVC архитектуры;\n- Знание и опыт работы фреймворком YII;\n- Опыт работы с одной или несколькими БД: MySQL, Redis, Mongo;\n- Опыт мониторинга и оптимизации SQL-запросов;\n\n   Условия работы:\n- Полный рабочий день (система гибкого утра с возможностью начала с 9:00 до 12:00)\n- Официальное оформление по трудовому договору.\n- Офис в центре Москвы.\n- ДМС.\n- Корпоративное обучение.\n- Скидки от партнеров компании.\n\nЕсли остались вопросы, с радостью отвечу:\n @zhukovadasha","markup":[{"type":"hashtag","offset":0,"length":9,"data":"вакансия"},{"type":"hashtag","offset":10,"length":7,"data":"москва"},{"type":"hashtag","offset":18,"length":5,"data":"офис"},{"type":"hashtag","offset":24,"length":9,"data":"fulltime"},{"type":"hashtag","offset":34,"length":8,"data":"symfony"},{"type":"hashtag","offset":43,"length":4,"data":"php"},{"type":"hashtag","offset":48,"length":4,"data":"job"},{"type":"handle","offset":1425,"length":13,"data":"zhukovadasha"}],"date":"2020-06-25T12:35:50+00:00","link":"tg://resolve?domain=php_jobs&post=25356","tags":[{"name":"php"},{"name":"symfony"},{"name":"rest"},{"name":"yii"},{"name":"mysql"},{"name":"redis"},{"name":"sql"}],"cities":[{"code":"moscow"}],"allowsRemote":false}}]}}},"context":{}}