{"hash":"f34fd2c444a074f4e0e67d525015a008ef8e766f","data":{"records":{"id":"angularjs","name":"angularjs","belongsTo":{"totalCount":24,"pageInfo":{"totalPages":3,"currentPage":1},"edges":[{"node":{"__typename":"Job","id":"16263413760-1001110946746","title":"Js developer","text":"#вакансия #офис\n\nTeam Lead (Node.js/React)\n\nГород: Мюнхен, Германия\nФормат занятости: офис\nТип занятости: полная \nЗаплата: 6000-7000 евро в месяц.\nКалькулятор налогов:\nkaiser-estate.ru/raschet-nalogov-i-socialnih-otchisleniy-po-zarplate-v-germanii.html\nРелокейт пакет \n\nОписание компании: \nCHECK24\nCompany is the leading price comparison platform in Germany. The company employs over a 2000 employees in 7 offices around the Germany with HQ in Munich \n\nRequirements\nYou have extensive experience in backend development using following languages (Node.js, C#, Java, Python or similar). You have experience of leading a team or ready to develop your management skills. You have proficient English or German level.\nExperience as a Full Stack Web Developer\nNode.js, or other OOP languages (Java, .NET, PHP, etc)\nDocker or knowledge of other containers\nCloud providers (the client is using AWS)\nUnit Testing and precise tools\nDevOps tools\nFrameworks as React, Angular / general knowledge of JavaScript\nConsiderable knowledge of MongoDB and experience with other databases\nBenefits\nVisa sponsorship and relocation budget\nYou will also be part of a company that values teamwork and life balance\nYou will get the chance to immerse yourself in German culture fully, with language courses and the opportunity to live in Munich, one of the most cultural and international cities in Germany\nWhat is more, you will have the chance to work with cutting edge technologies in one of the largest tech companies in Germany\nКонтакты:\n\nКомпания КА Zero to One search \nzerotoonesearch.com\nНаталья natalya@zerotoonesearch.com\nSkype: na.yarkova\n\n—\n\n👉 Обсуждение вакансии в чате @javascript_jobs","markup":[{"type":"hashtag","offset":0,"length":9,"data":"вакансия"},{"type":"hashtag","offset":10,"length":5,"data":"офис"},{"type":"link","offset":168,"length":84,"data":"http://kaiser-estate.ru/raschet-nalogov-i-socialnih-otchisleniy-po-zarplate-v-germanii.html"},{"type":"link","offset":1548,"length":19,"data":"http://zerotoonesearch.com"},{"type":"link","offset":1576,"length":27,"data":"mailto:natalya@zerotoonesearch.com"},{"type":"handle","offset":1656,"length":16,"data":"javascript_jobs"}],"date":"2020-04-10T12:01:17+00:00","link":"tg://resolve?domain=javascript_jobs_feed&post=15510","tags":[{"name":"javascript"},{"name":"nodejs"},{"name":"reactjs"},{"name":"html"},{"name":"java"},{"name":"python"},{"name":"web"},{"name":"dotnet"},{"name":"php"},{"name":"docker"},{"name":"cloud"},{"name":"amazon-web-services"},{"name":"angularjs"},{"name":"mongodb"},{"name":"unit-testing"}],"cities":[{"code":"munich"}],"allowsRemote":false}},{"node":{"__typename":"Job","id":"16259219456-1001110946746","title":"Js developer","text":"#вакансия #office #helsinki #finland #frontend #Javascript #react #vac0001\nSenior Frontend Developer (Team lead)\n🇫🇮Хельсинки, центр\n⌚️ Полная занятость\n🏫В офис (удаленка до открытия границ)\n💰Зп от 3500-4500 евро гросс (калькулятор)\n✈️ помощь с переездом\nАгенство @itfinland OOO Nerdsbay OY\n\n📍О компании:\nПродуктовая компания, основной продукт - платформа по content delivery. Aтмосфета стартапа, но при этом продукт уже запущен и  успешен у крупных компаний.\n\n📍Требования:\nБольшой опыт Frontend разрабоки. Знание JavaScript, HTML5/SCSS и React. Без аллергии на AngularJS так как проект находится в стадии миграции на React. \nЗнания UI/UX и опыт в дизайне будут плюсом.\n\n📍Обязанности: \nРабота в команде молодых и смелых, использование новых технологий для реализации задач проекта. Работа по Scrum, где задачи распределяют внутри команды без участия менеджера.\n\nПо всем вопросам к @julia_zhukova\n \nРезюме отправлять по ссылке http://itfinland.com/registration\n\n—\n\n👉 Обсуждение вакансии в чате @javascript_jobs","markup":[{"type":"hashtag","offset":0,"length":9,"data":"вакансия"},{"type":"hashtag","offset":10,"length":7,"data":"office"},{"type":"hashtag","offset":18,"length":9,"data":"helsinki"},{"type":"hashtag","offset":28,"length":8,"data":"finland"},{"type":"hashtag","offset":37,"length":9,"data":"frontend"},{"type":"hashtag","offset":47,"length":11,"data":"Javascript"},{"type":"hashtag","offset":59,"length":6,"data":"react"},{"type":"hashtag","offset":66,"length":8,"data":"vac0001"},{"type":"handle","offset":267,"length":10,"data":"itfinland"},{"type":"handle","offset":887,"length":14,"data":"julia_zhukova"},{"type":"link","offset":932,"length":33,"data":"http://itfinland.com/registration"},{"type":"handle","offset":1000,"length":16,"data":"javascript_jobs"}],"date":"2020-04-10T09:31:59+00:00","link":"tg://resolve?domain=javascript_jobs_feed&post=15506","tags":[{"name":"javascript"},{"name":"reactjs"},{"name":"html"},{"name":"angularjs"}],"cities":[{"code":"helsinki"}],"allowsRemote":true}},{"node":{"__typename":"Job","id":"16226713600-1001110946746","title":"Js программист","text":"#вакансия #js #angular\n\nНазвание компании: Froot Middle Asia (ФрутМидл Эйжа)\nhttps://thefroot.com\nВилка: от 350 до 750 тысяч тенге (1 - 2К $)\nТребуемый опыт работы: 1–3 года\nГород: Алматы, Казахстан\n\nФормат: Полная занятость, полный день, можно удаленно\n\nО компании\nСегодня Froot - это 650 000 товаров в собственном маркетплейсе, 15 магазинов в Алматы, договора франшизы на 100 магазинов по всему Казахстану и успешные переговоры по экспансии на рынки Турции, Филиппин, Узбекистана, Таджикистана и Кыргызстана.\nВ 2020 году мы откроем 200 магазинов по всему Казахстану и доведём ассортимент нашего онлайн маркетплейса до 3 000 000!\n\nМы ожидаем, что программист умеет работать в команде и готов оперативно погрузится в существующий продукт. Он пишет код не «для себя» или «чтобы работало», а хорошо, аккуратно и понятно, чтобы любой член команды смог продолжить работу. Мы используем несколько серверов (тестовый, продакшен, rnd), gitflow, разветвление микросервисов.\n\nКого мы ищем?\nСамостоятельного Frontend Developer'а, сильного командного игрока, свято уважающего дедлайны и эффективную коммуникацию. Важно уметь предлагать свои идеи, делиться своим видением какие технологии могут давать результат.\n\nЧто делать:\n\nПоддерживать проекты;\nРазрабатывать новые модули и спецпроекты в существующих проектах;\nПредлагать технические решения для упрощения бизнес-процессов\nЗапускаем мобильную разработку на js\n\nТребования:\n\nЗнание современных стандартов и методов разработки веб-приложений\nОтличное знание HTML5/CSS3, JavaScript ES5/ES6\nAngular 2+\nУмение обращаться с системами сборки Grunt/Gulp/Webpack\nЗнание CSS/HTML препроцессоров (Sass/Less/Stylus/Pug)\nЗнание Git\nВнимательность к мелочам;\nУмение создавать адаптивную верстку;\nПлюсом будет:\n\nОпыт работы с Node.js\nPWA\nNativeScript\nМы предлагаем:\n· Молодой коллектив с крутой командой разработки, в которой можно быстро расти и развиваться;\n· Интересные рабочие задачи;\n· Офис на Кунаева с панорамным видом на город;\n· Стабильная заработная плата, официальное трудоустройство.\n\nКонтакты: @sanzhikee, sanzhar.sarsenbi@gmail.com, +7 702 97 65 999","markup":[{"type":"hashtag","offset":0,"length":9,"data":"вакансия"},{"type":"hashtag","offset":10,"length":3,"data":"js"},{"type":"hashtag","offset":14,"length":8,"data":"angular"},{"type":"link","offset":77,"length":20,"data":"https://thefroot.com"},{"type":"handle","offset":2034,"length":10,"data":"sanzhikee"},{"type":"link","offset":2046,"length":26,"data":"mailto:sanzhar.sarsenbi@gmail.com"},{"type":"link","offset":2074,"length":16,"data":"tel:+7 702 97 65 999"}],"date":"2020-04-09T06:39:00+00:00","link":"tg://resolve?domain=javascript_jobs_feed&post=15475","tags":[{"name":"javascript"},{"name":"angularjs"},{"name":"html"},{"name":"css"},{"name":"gruntjs"},{"name":"gulp"},{"name":"webpack"},{"name":"sass"},{"name":"git"},{"name":"nodejs"}],"cities":[{"code":"almaty"}],"allowsRemote":true}},{"node":{"__typename":"Job","id":"16224616448-1001110946746","title":"Js разработчик","text":"#вакансия #frontend #developer #senior  #javascript #typescript #angular #fulltime #офис #питер\n\nSenior Frontend Developer\nКомпания: CM.Expert\nЛокация: Санкт-Петербург\nЗанятость: fulltime\nЗ/п: 150-250К net\nКонтакты: @observer69\n\nCM.Expert — единственная в России платформа, предназначенная для интеллектуального анализа рынка и автоматизированного управления продажами и складом автомобилей с пробегом.\n\nУсловия\n● Гибкий график рабочего времени (полный день, о начале и окончании рабочего дня можно договориться)\n● Профессиональная команда, Agile-процесс с плоской структурой управления проектом, работа по ТЗ, всё белое, офис в 15 минутах от метро Балтийская в БЦ “Балтийский Порт\n● Бессрочный трудовой договор\n\nТребования\n● Продолжительный специализированный опыт работы с FrontEnd-приложениями\n● Высокое качество кода\n● Навыки работы с Git\n● Хорошее знание JavaScript / TypeScript\n● Знание HTML5 / DOM / SCSS\n● Навыки верстки, внимательность, хороший “глазомер”\n● Уверенные знания и навыки работы с ReactiveX\n● Умение работать с “состоянием” приложения; эрудиция в “Best Practices”\n● Хорошее знание фреймворка Angular (2-6) — в том числе, “под капотом”\n● Опыт создания типовых решений (npm-пакетов, плагинов, библиотек и т.д.)\n● Хорошее понимание принципов ООП, функционального программирования\n● Понимание принципов поддерживаемости\n● Хорошее знание сборщиков: WebPack, Gulp; способность создавать кастомные решения любой сложности\n● Опыт работы с базами данных и хранением информации\n● Умение работать с документацией (читать и писать)\n● Навыки работы с JSON Schema, OpenAPI/Swagger\n\nЗадачи\n1. Развитие и поддержание функциональности CM.Expert\n2. Участие в проектировании архитектуры приложения и API.        \n3. Взаимодействие с BE разработчиками, дизайнером, продукт-менеджером.","markup":[{"type":"hashtag","offset":0,"length":9,"data":"вакансия"},{"type":"hashtag","offset":10,"length":9,"data":"frontend"},{"type":"hashtag","offset":20,"length":10,"data":"developer"},{"type":"hashtag","offset":31,"length":7,"data":"senior"},{"type":"hashtag","offset":40,"length":11,"data":"javascript"},{"type":"hashtag","offset":52,"length":11,"data":"typescript"},{"type":"hashtag","offset":64,"length":8,"data":"angular"},{"type":"hashtag","offset":73,"length":9,"data":"fulltime"},{"type":"hashtag","offset":83,"length":5,"data":"офис"},{"type":"hashtag","offset":89,"length":6,"data":"питер"},{"type":"handle","offset":216,"length":11,"data":"observer69"}],"date":"2020-04-09T06:38:20+00:00","link":"tg://resolve?domain=javascript_jobs_feed&post=15473","tags":[{"name":"javascript"},{"name":"typescript"},{"name":"angularjs"},{"name":"dotnet"},{"name":"git"},{"name":"html"},{"name":"npm"},{"name":"webpack"},{"name":"gulp"},{"name":"json"},{"name":"swagger"}],"cities":[],"allowsRemote":false}},{"node":{"__typename":"Job","id":"16223567872-1001110946746","title":"Javascript разработчик","text":"#вакансия #москва #офис #полнаязанятость #frontend #javascript #react #angular #vue\n\nFrontend-разработчик (JavaScript)\n\nГород и адрес офиса: Москва, метро Дубровка\nФормат работы: офис (в период самоизоляции работаем удалённо)\nЗанятость: полная\nЗарплатная вилка: от 140 000 до 170 000 рублей\n\nЗадачи:\n\n— Разработка frontend-интерфейса рекламной платформы\n— Перевод UI/UX макетов в верстку\n— Взаимодействие с backend-разработчиками, согласование протоколов обмена данными\n— Работа со сторонними frontend-решениями, в т.ч. внесение изменений в сторонний код\n— Разработка плеера, поддерживающего стандарты VAST/VPAID\n— Разработка и поддержка рекламных блоков (VPAID AdUnit)\n— Разработка автоматизированных тестов и тестовых сред\n\nТребования:\n\n— Опыт кроссбраузерной веб-разработки от трех лет (HTML 5, CSS)\n— Опыт программирования с использованием как чистого JavaScript, так и фреймворков (react, angular, vue), работа с npm\n— Опыт работы с REST API\n\nБудет плюсом:\n\n— Представление об асинхронной̆ обработке запросов, разработка single-page application\n— Опыт работы в AdTech, знание протоколов VAST/VPAID, представление о работе плееров с рекламными материалами\n— Знание о том, что такое CORS\n— Хорошее понимание работы HTTP протокола \n— Навыки работы с сетевыми инспекторами\n\nУсловия:\n\n— Заработная плата от 140 000 до 170 000 рублей (по результатам собеседования)\n— Полная занятость, полный день\n— Работа под руководством опытного CTO c хорошим чувством юмора :)\n— Современный комфортный офис в Москве (метро Дубровка)\n\nНазвание компании:\n\nUnion Media Group\n\nО компании:\n\nГруппа компаний на стыке агентского бизнеса и рекламных технологий.\n\nРазрабатываем ab ovo рекламную платформу, не отягощенную legacy-кодом и грузом обратной совместимости.\n\nВ качестве таск-трекера используем Jira.\n\nДля откликов: \n\nПройдите первичное собеседование в экспресс-формате прямо сейчас:\n\n👉 @yeshr_it_bot\n\nПо дополнительным вопросам:\n\n🖖 @asubc","markup":[{"type":"hashtag","offset":0,"length":9,"data":"вакансия"},{"type":"hashtag","offset":10,"length":7,"data":"москва"},{"type":"hashtag","offset":18,"length":5,"data":"офис"},{"type":"hashtag","offset":24,"length":16,"data":"полнаязанятость"},{"type":"hashtag","offset":41,"length":9,"data":"frontend"},{"type":"hashtag","offset":51,"length":11,"data":"javascript"},{"type":"hashtag","offset":63,"length":6,"data":"react"},{"type":"hashtag","offset":70,"length":8,"data":"angular"},{"type":"hashtag","offset":79,"length":4,"data":"vue"},{"type":"handle","offset":1875,"length":13,"data":"yeshr_it_bot"},{"type":"handle","offset":1922,"length":6,"data":"asubc"}],"date":"2020-04-09T06:38:06+00:00","link":"tg://resolve?domain=javascript_jobs_feed&post=15472","tags":[{"name":"javascript"},{"name":"reactjs"},{"name":"angularjs"},{"name":"vuejs"},{"name":"html"},{"name":"css"},{"name":"npm"},{"name":"rest"}],"cities":[{"code":"moscow"}],"allowsRemote":true}},{"node":{"__typename":"Job","id":"16221470720-1001110946746","title":"Js разработчик","text":"#вакансия #удаленка #remote #angular #javascript #киров #томск #уфа #брест #белгород #новгород\nЛокация: удаленно или офис (Н.Новгород, Томск, Киров, Уфа, Белгород, Брест)\n\nЗанятость: полная\n\nЗарплатная вилка: от 120 т.р. до 150т.р. на руки\n\nКомпания: Colvir Software Solutions\n\nТребуется senior или middle разработчик на удаленную работу\n\nЗадачи:\n\nРазработка/доработка одностраничных Web-приложений (SPA) дистанционного банковского обслуживания (на базе Angular 2+)\n\n\nПожелания к опыту соискателя:\n\nОпыт коммерческой разработки Angular 2+\n\nОпыт работы с Angular 2+ от 2 лет\n\nОпыт разработки Apache Сordova приложений;\n\nОпыт использования CSS-препроцессоров (LESS, SASS);\n\nОтличные знания JavaScript/HTML/CSS,\n\n\nСущественным плюсом будет:\n\nОпыт использования библиотек функционального программирования (Lodash);\n\nПрограммирование на платформе NodeJS;\n\nОпыт программирования по спецификации ECMAScript 6\n\nУмение читать SQL код;\n\nОпыт работы с Mercurial и(или) Git;\n\nБазовые знания администрирования Linux;\n\nАнглийский язык - на уровне чтения документации.\nМы предлагаем:\nОфициальное трудоустройство, оплачиваемые больничные и отпуск\n\nКорпоративное обучение и библиотека\n\nБесплатные медицинские онлайн-консультации «Онлайн Доктор»\n\nКорпоративные скидки на изучение английского языка\n\nКонтакты: @CTatyana или почта tchertykova@colvir.ru","markup":[{"type":"hashtag","offset":0,"length":9,"data":"вакансия"},{"type":"hashtag","offset":10,"length":9,"data":"удаленка"},{"type":"hashtag","offset":20,"length":7,"data":"remote"},{"type":"hashtag","offset":28,"length":8,"data":"angular"},{"type":"hashtag","offset":37,"length":11,"data":"javascript"},{"type":"hashtag","offset":49,"length":6,"data":"киров"},{"type":"hashtag","offset":56,"length":6,"data":"томск"},{"type":"hashtag","offset":63,"length":4,"data":"уфа"},{"type":"hashtag","offset":68,"length":6,"data":"брест"},{"type":"hashtag","offset":75,"length":9,"data":"белгород"},{"type":"hashtag","offset":85,"length":9,"data":"новгород"},{"type":"handle","offset":1291,"length":9,"data":"CTatyana"},{"type":"link","offset":1311,"length":21,"data":"mailto:tchertykova@colvir.ru"}],"date":"2020-04-09T06:37:28+00:00","link":"tg://resolve?domain=javascript_jobs_feed&post=15470","tags":[{"name":"javascript"},{"name":"angularjs"},{"name":"web"},{"name":"apache"},{"name":"css"},{"name":"sass"},{"name":"html"},{"name":"nodejs"},{"name":"sql"},{"name":"mercurial"},{"name":"git"},{"name":"linux"}],"cities":[{"code":"kirov"},{"code":"tomsk"},{"code":"ufa"},{"code":"brest"},{"code":"belgorod"}],"allowsRemote":true}},{"node":{"__typename":"Job","id":"85082505216-1001067529236","title":"Python developer","text":"#developer #python #django #reactjs #remote #part_time #parttime #lead #greatbritain #job #jobs #python #backend #вакансия #remotework #ml #urgently\nVacancy: Lead Python developer\nCountry: Great Britain\nEmployment: Full-time remote/ Part-Time (20 h a week)\nSalary:  2500$+ - net\nOur client, a unique mass media project (platform) is looking for a Lead Developer/CTO to further develop the product and team while creating a culture of positivity & problem solving with a sense of fun.\nIncome level depends on your previous experience & knowledge.\nIt’s an exciting and pivotal time for the product and business - we have a solid platform and foundation of clients asking for features that no one in the market yet offers.\nSo, as well as servicing the current offering, there is a greenfield opportunity to further develop the platform using smart tech.\n✅ Responsibilities:\n- Co-creating and delivering the strategy.\n- Managing and building the team, as well as being hands on with the code.\nThere are many technical challenges, core of which are based around using machine learning to surface how clients can make content more readable and enticing, as well as where and when to deliver it to maximise results.\n✅ The current tech stack is based on: Python, Django, ReactJS, Elasticsearch, .NET Core, AngularJS, Docker + AWS Infrastructure.\nWe expect you to take the lead on how to evolve the stack in a smart way.\n🎬 Requirements:\nYou’ve been around the block and are now hungry to become more commercial, take ownership, and although you don’t want to stop coding, you’re keen to manage and build teams or develop existing skills in these areas.\nA strong interest in data science and machine learning.\nYou’ve been a lead developer or CTO before.\nYou’ve built and scaled a SaaS platform.\nWould be great if you have a background in news publishing or analytics.\nYou’ve managed teams or are now ready to do so.\nContact: @OlgaVzh","markup":[{"type":"hashtag","offset":0,"length":10,"data":"developer"},{"type":"hashtag","offset":11,"length":7,"data":"python"},{"type":"hashtag","offset":19,"length":7,"data":"django"},{"type":"hashtag","offset":27,"length":8,"data":"reactjs"},{"type":"hashtag","offset":36,"length":7,"data":"remote"},{"type":"hashtag","offset":44,"length":10,"data":"part_time"},{"type":"hashtag","offset":55,"length":9,"data":"parttime"},{"type":"hashtag","offset":65,"length":5,"data":"lead"},{"type":"hashtag","offset":71,"length":13,"data":"greatbritain"},{"type":"hashtag","offset":85,"length":4,"data":"job"},{"type":"hashtag","offset":90,"length":5,"data":"jobs"},{"type":"hashtag","offset":96,"length":7,"data":"python"},{"type":"hashtag","offset":104,"length":8,"data":"backend"},{"type":"hashtag","offset":113,"length":9,"data":"вакансия"},{"type":"hashtag","offset":123,"length":11,"data":"remotework"},{"type":"hashtag","offset":135,"length":3,"data":"ml"},{"type":"hashtag","offset":139,"length":9,"data":"urgently"},{"type":"bold","offset":149,"length":8,"data":""},{"type":"bold","offset":180,"length":8,"data":""},{"type":"bold","offset":215,"length":42,"data":""},{"type":"bold","offset":853,"length":18,"data":""},{"type":"bold","offset":1211,"length":36,"data":""},{"type":"bold","offset":1415,"length":14,"data":""},{"type":"bold","offset":1907,"length":8,"data":""},{"type":"handle","offset":1916,"length":8,"data":"OlgaVzh"}],"date":"2020-04-08T16:03:48+00:00","link":"tg://resolve?domain=python_jobs&post=0","tags":[{"name":"python"},{"name":"django"},{"name":"reactjs"},{"name":"dotnet"},{"name":"elasticsearch"},{"name":"angularjs"},{"name":"docker"},{"name":"amazon-web-services"},{"name":"machine-learning"},{"name":"net-core"}],"cities":[],"allowsRemote":true}},{"node":{"__typename":"Job","id":"1987051520-1001134745498","title":"Devops инженер","text":"#вакансия #DevOps #Москва\nMiddle DevOps\nФормат работы: офис\\удаленно, Занятость: полная\nКомпания: SnegirSoft - вендор ITSM-платформы «4it».\nРазрабатываем и поддерживаем платформу для управления it-процессами больших компаний.\n\nЗадачи:\n⚙️Развитие и поддержка инфраструктуры;\n⚙️Автоматизация сборки и доставки кода;\n⚙️Поддержка разработчиков;\n⚙️Анализ и устранение инцидентов на продуктовых контурах;\n⚙️Обеспечение работоспособности и отказоустойчивости сервисов;\n⚙️Внедрение новых инструментов администрирования;\n\nНаши хотелки:\n🛠Системы контроля версий Git (Bitbucket, Gitlab);\n🛠Управление конфигурациями (Ansible);\n🛠CI\\CD: Teamcity \\ Gitlab \\ Jenkins;\n🛠Опыт администрирования Windows, IIS;\n🛠Умение хорошо писать на Powershell;\n🛠Cистемы мониторинга (Zabbix \\ Prometheus);\n🛠ELK – стек (Elasticsearch, Kibana);\n🛠Сообщения, очереди: RabbitMQ, Kafka;\nБудет круто если:\n🛠Опыт администрирования Apache \\ Nginx;\n🛠Опыт администрирования Linux;\n🛠Контейнеризация (Docker);\n🛠Умение писать SQL-запросы, понимание принципов работы СУБД;\n🛠Опыт работы с монолитными и микросервисными архитектурами;\n🛠Навыки написание скриптов на bash;\n\nПредлагаем:\n🏢м. Нововкузнецкая 3(!) мин. пешком,\n🚑  ДМС (почти all inclusive)\n💰  Доход: 140 000 – 180 000 нетт\n⏰Начало дня гибко с 9-10-11, как договоримся.\n🖥ПК: i7 8-gen, 24Gb, SSD 512Gb, 2 хороших монитора.\n🚀  Стэк актуальный: .Net Core, Angular, Elasticsearch, RabbitMQ, MS SQL->Postgres, Almost SCRUM ^)\nКонтакты: @aastaf  a.astafev@snegirsoft.com\n\n—\n\n👉 Обсуждение вакансии в чате @devops_jobs","markup":[{"type":"hashtag","offset":0,"length":9,"data":"вакансия"},{"type":"hashtag","offset":10,"length":7,"data":"DevOps"},{"type":"hashtag","offset":18,"length":7,"data":"Москва"},{"type":"handle","offset":1457,"length":7,"data":"aastaf"},{"type":"link","offset":1466,"length":24,"data":"mailto:a.astafev@snegirsoft.com"},{"type":"handle","offset":1525,"length":12,"data":"devops_jobs"}],"date":"2020-04-08T10:14:42+00:00","link":"tg://resolve?domain=devops_jobs_feed&post=1895","tags":[{"name":"git"},{"name":"gitlab"},{"name":"ansible"},{"name":"jenkins"},{"name":"windows"},{"name":"iis"},{"name":"powershell"},{"name":"elasticsearch"},{"name":"rabbitmq"},{"name":"kafka"},{"name":"apache"},{"name":"nginx"},{"name":"linux"},{"name":"docker"},{"name":"sql"},{"name":"bash"},{"name":"dotnet"},{"name":"angularjs"},{"name":"postgresql"},{"name":"net-core"}],"cities":[{"code":"moscow"}],"allowsRemote":true}},{"node":{"__typename":"Job","id":"16213082112-1001110946746","title":"Js программист","text":"#вакансия #js #angular\n\nНазвание компании: Froot Middle Asia (ФрутМидл Эйжа)\nhttps://thefroot.com\nВилка: от 350 до 750 тысяч тенге (1 - 2К $)\nТребуемый опыт работы: 1–3 года\nГород: Алматы, Казахстан\n\nФормат: Полная занятость, полный день, можно удаленно\n\nО компании\nСегодня Froot - это 650 000 товаров в собственном маркетплейсе, 15 магазинов в Алматы, договора франшизы на 100 магазинов по всему Казахстану и успешные переговоры по экспансии на рынки Турции, Филиппин, Узбекистана, Таджикистана и Кыргызстана.\nВ 2020 году мы откроем 200 магазинов по всему Казахстану и доведём ассортимент нашего онлайн маркетплейса до 3 000 000!\n\nМы ожидаем, что программист умеет работать в команде и готов оперативно погрузится в существующий продукт. Он пишет код не «для себя» или «чтобы работало», а хорошо, аккуратно и понятно, чтобы любой член команды смог продолжить работу. Мы используем несколько серверов (тестовый, продакшен, rnd), gitflow, разветвление микросервисов.\n\nКого мы ищем?\nСамостоятельного Frontend Developer'а, сильного командного игрока, свято уважающего дедлайны и эффективную коммуникацию. Важно уметь предлагать свои идеи, делиться своим видением какие технологии могут давать результат.\n\nЧто делать:\n\nПоддерживать проекты;\nРазрабатывать новые модули и спецпроекты в существующих проектах;\nПредлагать технические решения для упрощения бизнес-процессов\nЗапускаем мобильную разработку на js\n\nТребования:\n\nЗнание современных стандартов и методов разработки веб-приложений\nОтличное знание HTML5/CSS3, JavaScript ES5/ES6\nAngular 2+\nУмение обращаться с системами сборки Grunt/Gulp/Webpack\nЗнание CSS/HTML препроцессоров (Sass/Less/Stylus/Pug)\nЗнание Git\nВнимательность к мелочам;\nУмение создавать адаптивную верстку;\nПлюсом будет:\n\nОпыт работы с Node.js\nPWA\nNativeScript\nМы предлагаем:\n· Молодой коллектив с крутой командой разработки, в которой можно быстро расти и развиваться;\n· Интересные рабочие задачи;\n· Офис на Кунаева с панорамным видом на город;\n· Стабильная заработная плата, официальное трудоустройство.\n\nКонтакты: @sanzhikee, sanzhar.sarsenbi@gmail.com, +7 702 97 65 999","markup":[{"type":"hashtag","offset":0,"length":9,"data":"вакансия"},{"type":"hashtag","offset":10,"length":3,"data":"js"},{"type":"hashtag","offset":14,"length":8,"data":"angular"},{"type":"link","offset":77,"length":20,"data":"https://thefroot.com"},{"type":"handle","offset":2034,"length":10,"data":"sanzhikee"},{"type":"link","offset":2046,"length":26,"data":"mailto:sanzhar.sarsenbi@gmail.com"},{"type":"link","offset":2074,"length":16,"data":"tel:+7 702 97 65 999"}],"date":"2020-04-07T18:37:48+00:00","link":"tg://resolve?domain=javascript_jobs_feed&post=15462","tags":[{"name":"javascript"},{"name":"angularjs"},{"name":"html"},{"name":"css"},{"name":"gruntjs"},{"name":"gulp"},{"name":"webpack"},{"name":"sass"},{"name":"git"},{"name":"nodejs"}],"cities":[{"code":"almaty"}],"allowsRemote":true}},{"node":{"__typename":"Job","id":"16197353472-1001110946746","title":"Javascript разработчик","text":"#вакансия #angular #react #москва #релокация\n\nГород: Москва (Сокольники или Павелецкая), есть релокационный пакет\n\nФормат работы: офис, возможна удаленка после шести месяцев работы\n\nЗанятость: полная\n\nВилка: 180-250 т.р. на руки\n\nИщем коллегу для создания и развития современного сервиса дистанционных банковских услуг.\n\n• SPA на Angular 8\n\n• Пишем на TypeScript, ES6 Modules, SASS\n\n• Собираем в Webpack\n\n• Храним в Git\n\nМы также готовы рассмотреть кандидатов, которые имеют опыт работы на React, но хотели бы перейти на Angular.\n\nНазвание компании: ПСБ\nhttps://www.psbank.ru/\nhttps://hh.ru/vacancy/33110730\n\nКонтакты: @max_gusev\ngusevms@psbank.ru","markup":[{"type":"hashtag","offset":0,"length":9,"data":"вакансия"},{"type":"hashtag","offset":10,"length":8,"data":"angular"},{"type":"hashtag","offset":19,"length":6,"data":"react"},{"type":"hashtag","offset":26,"length":7,"data":"москва"},{"type":"hashtag","offset":34,"length":10,"data":"релокация"},{"type":"link","offset":554,"length":22,"data":"https://www.psbank.ru/"},{"type":"link","offset":577,"length":30,"data":"https://hh.ru/vacancy/33110730"},{"type":"handle","offset":619,"length":10,"data":"max_gusev"},{"type":"link","offset":630,"length":17,"data":"mailto:gusevms@psbank.ru"}],"date":"2020-04-06T14:42:01+00:00","link":"tg://resolve?domain=javascript_jobs_feed&post=15447","tags":[{"name":"javascript"},{"name":"angularjs"},{"name":"reactjs"},{"name":"typescript"},{"name":"sass"},{"name":"webpack"},{"name":"git"}],"cities":[{"code":"moscow"}],"allowsRemote":true}}]}}},"context":{}}