{"hash":"f34fd2c444a074f4e0e67d525015a008ef8e766f","data":{"records":{"id":"mobile","name":"mobile","belongsTo":{"totalCount":48,"pageInfo":{"totalPages":5,"currentPage":1},"edges":[{"node":{"__typename":"Job","id":"66441969664-1001054966032","title":"Ios разработчик","text":"#вакансия #юнити  #unity #удаленка \nUnity Разработчик \nФормат работы: удаленка\nИщу разработчика, готового и умеющего учить. У меня есть проект (мой), который нужно сделать, это довольно простая игра - головоломка, я бы хотел сам её сделать и поддерживать. У меня 4 года опыта работы ПМ и полгода опыта работы на Swift (iOS), общие принципы программирования уже понимаю, хочу переключится на Юнити. Формат занятий - по скайпу, приблизительно 1 час вечером, примерно в 18 по МСК, также есть возможность днем в районе 13-15 по МСК. По оплате - 800р/час.","markup":[{"type":"hashtag","offset":0,"length":9,"data":"вакансия"},{"type":"hashtag","offset":10,"length":6,"data":"юнити"},{"type":"hashtag","offset":18,"length":6,"data":"unity"},{"type":"hashtag","offset":25,"length":9,"data":"удаленка"}],"date":"2020-04-10T14:50:13+00:00","link":"tg://resolve?domain=mobile_jobs&post=63364","tags":[{"name":"mobile"},{"name":"ios"},{"name":"unity3d"},{"name":"swift"}],"cities":[],"allowsRemote":true}},{"node":{"__typename":"Job","id":"98372157440-1001089317451","title":"Qa инженер","text":"#вакансия #manual #москва #офис #mobile \n\nКомпания: Huawei\nЛокация: Москва, м. Крылатское\nЗанятость: полная/ офис \nЗарплата: 70 000 - 140 000руб. на руки  в зависимости от результатов технического собеседования.\n\nВсем привет)\n\nЯ сейчас в поиске тестировщика мобильных приложений на платформе AppGallery.\n\nЗадачи:\n ● Проводить ручное тестирование мобильных приложений\n● Анализировать результаты выполнения тестов\n● Работать с дефектами (обнаружение, анализ, контроль исправления)\n● Взаимодействовать с другими отделами и членами команды для решения поставленных задач\n\nЧто важно: \n● Опыт тестирования мобильных приложений на платформах IOS, Android от года\n● Уровень английского языка - Upper-Intermediate+ \n\nУсловия:\n● работа из офиса 5/2\n● ДМС, корпоративная связь, скидка на фитнес и английский, продукцию Huawei\n● квартальные премии\n\n\nКонтакты для связи:\n@melissa_topuz\ne-mail: melissa.topuz@hays.ru","markup":[{"type":"hashtag","offset":0,"length":9,"data":"вакансия"},{"type":"hashtag","offset":10,"length":7,"data":"manual"},{"type":"hashtag","offset":18,"length":7,"data":"москва"},{"type":"hashtag","offset":26,"length":5,"data":"офис"},{"type":"hashtag","offset":32,"length":7,"data":"mobile"},{"type":"handle","offset":858,"length":14,"data":"melissa_topuz"},{"type":"link","offset":881,"length":21,"data":"mailto:melissa.topuz@hays.ru"}],"date":"2020-04-10T14:33:24+00:00","link":"tg://resolve?domain=qa_jobs&post=93815","tags":[{"name":"qa"},{"name":"mobile"},{"name":"ios"},{"name":"android"}],"cities":[{"code":"moscow"}],"allowsRemote":false}},{"node":{"__typename":"Job","id":"66435678208-1001054966032","title":"Ios разработчик","text":"#вакансия #IOS #swift #RxSwift #Realm #нижнийновгород\nГород: Нижний Новгород\nФормат работы: офис\nЗанятость: полная\nЗ\\П: от 170 000 до 250 000 на руки\n\n📌О компании:\n\nМы международная IT-компания со штаб-квартирой в Ирландии. Уже больше 5 лет наша профессиональная команда занимается разработкой проектов в области финтех, социальных медиа и e-commerce.\n\n📌Продукты, над которыми мы работаем:\n\nmeNetwork социальная сеть с системой вознаграждения пользователей\nmeMarket торговая площадка\nmePay платежный сервис\n\n🔗В этом году мы планируем разработку и внедрение в продукт крупных фич, поэтому нам требуется IOS Разработчик.\n\n📌Задачи:\n\nРазработка нового функционала приложения;\nПоддержка существующего функционала приложений;\nCode review.\n\n📌Требования:\n\n📌Архитектура:\n\nMVVM + Clean;\nОднонаправленная.\n\n📌Стек технологий:\n\nЯзык разработки Swift;\nИспользуем библиотеку RxSwift;\nRealm база данных;\nMoya для запросов на сервер;\nВерстка UI в коде.\n\n📌Условия:\n\nМеждународная команда профессионалов;\nКонкурентная заработная плата, по результатам собеседования;\nКарьерный рост, профессиональное развитие;\nОтличный старт для начинающих специалистов;\nУникальные мотивационные программы;\nПрограмма ДМС “Премиум”;\nКорпоративная онлайн-библиотека;\nАктивная корпоративная жизнь;\nНовейшее оборудование на выбор;\nКомфортабельный офис с современным дизайном.\n\nБолее подробную информацию можно получить по контактам указанным ниже, а также обратившись в ЛС.\n📩Oleg.Oltybaev@all.me\n📲+7 (996) 009-06-82 (Telegram, WhatsApp, Viber)","markup":[{"type":"hashtag","offset":0,"length":9,"data":"вакансия"},{"type":"hashtag","offset":10,"length":4,"data":"IOS"},{"type":"hashtag","offset":15,"length":6,"data":"swift"},{"type":"hashtag","offset":22,"length":8,"data":"RxSwift"},{"type":"hashtag","offset":31,"length":6,"data":"Realm"},{"type":"hashtag","offset":38,"length":15,"data":"нижнийновгород"},{"type":"link","offset":1441,"length":22,"data":"http://📩Oleg.Oltybaev@all.me"},{"type":"link","offset":1466,"length":18,"data":"tel:+7 (996) 009-06-82"}],"date":"2020-04-10T14:23:03+00:00","link":"tg://resolve?domain=mobile_jobs&post=63358","tags":[{"name":"mobile"},{"name":"ios"},{"name":"swift"},{"name":"realm"},{"name":"mvvm"}],"cities":[{"code":"nizhny-novgorod"}],"allowsRemote":false}},{"node":{"__typename":"Job","id":"66427289600-1001054966032","title":"Ios разработчик","text":"#вакансия #ios #swift #fulltime #офис #objective-c\nВакансия: IOS разработчик\nГород: Москва. \nФормат работы: офис (удаленно на время карантина)\nЗанятость: полная\nОпыт: 3 года коммерческой разработки. 1 год разработки на Swift.\nЗарплатная вилка: 120 000 net - 150 000 net.\nВсем привет!\nНаш клиент - крупнейшая финансовая организация, развивающая ИТ - проекты в направлениях Data Science, мобильная разработка, анализ бизнес процессов.\n\n📌Чем нужно заниматься:\n-Писать код.\n-Проводить декомпозицию и оценку задач.\n-Работать вместе с аналитиками и дизайнерами плечом к плечу.\n-Участвовать в проектировании архитектуры приложения.\n-Участвовать  в code rewiew.\n\n📌Требования:\n-Опыт коммерческой разработки от 3-х лет.\n-Опыт разработки под IOS от 1 года.\n-Знание swift.\n- Знание шаблонов проектирования, принципов SOLID и их применение.\n-Знание и опыт работы с архитектурой VIPER или MVC.\n-Опыт разработки клиент - серверных приложений, понимание REST API.\n-Умение работать с AutoLayout (будет плюсом использование SnapKit).\n\n✅ Желательно:\n-Знание Objective-c.\n-Опыт работы с CoreDat, геолокацией, Push Notification.\n-Опыт работы с Git, Confluence, Jira.\n-Опыт работы в Agile проектах.\n\n✅ Условия:\n-Оформление по ТК РФ\n- ДМС.\n- Посещение конференций.\n- Обучение за счёт компании.\n- Дисконт программы от компаний партнёров.\n\nКонтакты:\n@Mariam_Volkova\n📩MVolkova@globalcareer.eu\n📲8(999)169-20-38\n(Telegram, Whatsapp)","markup":[{"type":"hashtag","offset":0,"length":9,"data":"вакансия"},{"type":"hashtag","offset":10,"length":4,"data":"ios"},{"type":"hashtag","offset":15,"length":6,"data":"swift"},{"type":"hashtag","offset":22,"length":9,"data":"fulltime"},{"type":"hashtag","offset":32,"length":5,"data":"офис"},{"type":"hashtag","offset":38,"length":10,"data":"objective"},{"type":"handle","offset":1327,"length":15,"data":"Mariam_Volkova"},{"type":"link","offset":1343,"length":26,"data":"http://📩MVolkova@globalcareer.eu"},{"type":"link","offset":1372,"length":15,"data":"tel:8(999)169-20-38"}],"date":"2020-04-10T13:15:17+00:00","link":"tg://resolve?domain=mobile_jobs&post=63350","tags":[{"name":"mobile"},{"name":"ios"},{"name":"swift"},{"name":"objective-c"},{"name":"dotnet"},{"name":"rest"},{"name":"git"}],"cities":[{"code":"moscow"}],"allowsRemote":true}},{"node":{"__typename":"Job","id":"66423095296-1001054966032","title":"Android разработчик","text":"#вакансия #android #java #kotlin #удаленка #remote\n\n🔸Мы компания Ok Pixel, занимаемся заказной разработкой сайтов и приложений.\n🔸Наш веб сайт: http://www.okpixels.ru\n🔸Ищем Android разработчика уровня Senior на проект (8-12 месяцев)\n\n🔹Формат работы: удалёнка, #fulltime\n🔹Локация: не имеет значения\n🔹Зарплата: от 180 000 до 220 000 рублей в месяц\n🔹Основной стэк: Java, Kotlin\n\n▫️КОРОТКО О ПРОЕКТЕ\nЭлектронный путевой лист, контроль выхода на линию автотранспорта, наблюдения за выходом на линию машины.\n\n💡Контакты: @ruslan_work","markup":[{"type":"hashtag","offset":0,"length":9,"data":"вакансия"},{"type":"hashtag","offset":10,"length":8,"data":"android"},{"type":"hashtag","offset":19,"length":5,"data":"java"},{"type":"hashtag","offset":25,"length":7,"data":"kotlin"},{"type":"hashtag","offset":33,"length":9,"data":"удаленка"},{"type":"hashtag","offset":43,"length":7,"data":"remote"},{"type":"bold","offset":66,"length":8,"data":""},{"type":"bold","offset":131,"length":12,"data":""},{"type":"link","offset":145,"length":22,"data":"http://www.okpixels.ru"},{"type":"bold","offset":175,"length":7,"data":""},{"type":"bold","offset":236,"length":15,"data":""},{"type":"hashtag","offset":263,"length":9,"data":"fulltime"},{"type":"bold","offset":275,"length":7,"data":""},{"type":"bold","offset":304,"length":8,"data":""},{"type":"bold","offset":353,"length":13,"data":""},{"type":"bold","offset":382,"length":20,"data":""},{"type":"italic","offset":402,"length":107,"data":""},{"type":"bold","offset":509,"length":10,"data":""},{"type":"handle","offset":521,"length":12,"data":"ruslan_work"}],"date":"2020-04-10T12:18:36+00:00","link":"tg://resolve?domain=mobile_jobs&post=63346","tags":[{"name":"mobile"},{"name":"android"},{"name":"java"},{"name":"kotlin"}],"cities":[],"allowsRemote":true}},{"node":{"__typename":"Job","id":"66418900992-1001054966032","title":"Ios разработчик","text":"#вакансия #москва #офис #senior #ios #developer #gamedev #swift \nГород и адрес офиса: Москва, м.Автозаводская \nФормат работы: офис \nЗанятость: полная \nЗарплатная вилка: от 250 000 до 300 000 на руки \n\n\n✅ Senior Developer (iOS/Swift) \n\nОписание вакансии: \n\nМы - успешная команда из 100 человек, которая занимается: \n• разработкой собственных мобильных игр и приложений \n• паблишингом мобильных игр \n• рекламой и маркетингом мобильных приложений (реклама на Facebook, Google и т.д.) \nЗа последние 3 года мы привлекли более 100 млн пользователей в наши собственные мобильные приложения и приложения наших клиентов и партнеров, потратив на это более $80 млн. \nУ нас есть все составляющие чтобы делать готовые продукты известными и популярными. Мы ищем сильного и талантливого разработчика для усиления нашей текущей слаженно работающей команды и выведения нашего Fitness & Health iOS приложения Fitingo на лидирующие позиции в мире (уже сейчас приложение занимало позиции ТОП 13 в США и ТОП 6 в Великобритании с более чем 400,000 установок и более чем 45,000 совершенных покупок).\n\n✅Задачи: \n\n•  Разрабатывать новый функционал\n•  Рефакторить и оптимизировать код\n•  Писать код. Больше логики, меньше UI. Например - хранить историю и прогресс; сделать leaderboard по странам; добавить чат, аналитику и a/b тесты; Apple Health, Watch, Music и TV\n•  Участвовать в Code Review\nТекущий стек: Swift 5.1, MVPC, AVFoundation, UserNotifications, Realm, StoreKit, Firebase, PushWoosh, Facebook, Python.\n\n✅Требования: \n\n•  Опыт работы разработчиком iOS приложений от 3х лет\n•  Отличное знание Swift\n•  Уверенное знание SOLID и паттернов проектирования\n•  Умение профилировать приложение (Батарейка, утечки и вот это все)\n•  Опыт работы с системой контроля версий\n•  Наличие выпущенных проектов на Swift\n•  Желание делать красивые, интересные и популярные приложения\n\n✅Будет плюсом: \n\n•  Умение/желание писать небольшие серверные скрипты (например на Python)\n•  Умение автоматизировать рутинные процессы\n•  Умение рефакторить код итеративно\n•  Адекватный перфекционизм\n\n\n✅Для вас: \n\n•  Конкурентная заработная плата, выплачивается 2 раза в месяц\n•  Необходимое оборудование для работы\n•  Возможность набрать команду и выстроить всю работу под себя в краткосрочной перспективе\n•  Оформление по ТК РФ, оплачиваемые больничные, 28 дней оплачиваемого отпуска в год\n•  Возможны регулярные бонусы по результатам работы проектов\n•  Собеседование с лицом принимающим решение\n•  Возможность коммуницировать с людьми, которые принимают продуктовые решения\n\n✅О нас: \n\n•  Просторный офис 600 метров на м. Автозаводская (3 минуты от метро и от ТТК на машине) с ультра современным дизайном и кучей ништяков (кухня с вкусняшками, кальяны каждый вечер в дружной кампании, PS4 Pro + 4K TV, аркадные автоматы с Pac-Man, Metal Slug и другими хитами геймдизайна, просторная зона отдыха, 5 переговорных комнат и т д)\n•  Команда из 100 человек занимающаяся паблишингом и маркетингом, готовая сделать продукт успешным после его готовности\n•  Возможность обучаться английскому языку с носителями каждый будний день по утрам\n•  Менторы и инвесторы, создавшие большое количество успешных IT компаний (оборот в 2018 году более 140 млн долларов)\n\nНазвание компании: AppQuantum \n\nКонтакты: \ne-mail: bm@adquantum.com\ntelegram: @MishaBarinov","markup":[{"type":"hashtag","offset":0,"length":9,"data":"вакансия"},{"type":"hashtag","offset":10,"length":7,"data":"москва"},{"type":"hashtag","offset":18,"length":5,"data":"офис"},{"type":"hashtag","offset":24,"length":7,"data":"senior"},{"type":"hashtag","offset":32,"length":4,"data":"ios"},{"type":"hashtag","offset":37,"length":10,"data":"developer"},{"type":"hashtag","offset":48,"length":8,"data":"gamedev"},{"type":"hashtag","offset":57,"length":6,"data":"swift"},{"type":"link","offset":3254,"length":16,"data":"mailto:bm@adquantum.com"},{"type":"handle","offset":3281,"length":13,"data":"MishaBarinov"}],"date":"2020-04-10T11:32:47+00:00","link":"tg://resolve?domain=mobile_jobs&post=63342","tags":[{"name":"mobile"},{"name":"ios"},{"name":"swift"},{"name":"realm"},{"name":"firebase"},{"name":"python"}],"cities":[{"code":"moscow"}],"allowsRemote":false}},{"node":{"__typename":"Job","id":"98358525952-1001089317451","title":"Qa инженер","text":"#вакансия #мтс #стартап #manual #automate #москва #офис #мск #mobile\n🏢Компания: MTC\n🏙Город: Москва, м. Комсомольская\n💰Зп: от 90к (обсуждается по результатам собеседования)\n\nМы отдельный проект новой стриминговой платформы в МТС - WASD.tv. Мы разрабатываем инновационную платформу для стриминга и монетизации для стримеров на территории СНГ, и в скором времени планируем покорять другие страны Европы, Азии и Америки!\nРаботаем преимущественно c REST API, пишем на js и go, полноценные стенды (stage, qa, dev) в kubernetes. Активно внедряем BDD. Команда QA развивает свой инновационный фреймворк автотестирования на Java для всех платформ проекта! На данный момент, нужен в мобильную команду QA Automation/ QA Mobile.\n\nОбязанности\n✔️ проведение ручного тестирования мобильных приложений (iOS, Android);\n✔️ локализация и документирование найденных дефектов;\n✔️написание и поддержка имеющейся документации;\n✔️взаимодействие с разработчиками;\n✔️поддержание и развитие мобильного фреймворка;\n✔️разработка BDD сценариев и их автоматизация.\n\nТребования:\n✔️опыт ручного тестирования мобильных приложений от 2 лет;\n✔️опыт автоматизированного тестирования на Java (Appium+Сucumber) от 1 года;\n✔️знание методологий тестирования;\n✔️опыт работы с системами CI (Jenkins, Teamcity);\n✔️опыт работы с  Charles, Appium, Postman, Chrome DevTools, Kibana.\n\nУсловия:\n✅ работа из офиса 5/2;\n✅ гибкое начало рабочего дня;\n✅ различные спец. предложения для сотрудников МТС;\n✅ полугодовые премии;\n✅ все белое, оформление по ТК РФ.\n\n📲Контакты: daordynt@mts.ru или в лс (в телеге)","markup":[{"type":"hashtag","offset":0,"length":9,"data":"вакансия"},{"type":"hashtag","offset":10,"length":4,"data":"мтс"},{"type":"hashtag","offset":15,"length":8,"data":"стартап"},{"type":"hashtag","offset":24,"length":7,"data":"manual"},{"type":"hashtag","offset":32,"length":9,"data":"automate"},{"type":"hashtag","offset":42,"length":7,"data":"москва"},{"type":"hashtag","offset":50,"length":5,"data":"офис"},{"type":"hashtag","offset":56,"length":4,"data":"мск"},{"type":"hashtag","offset":61,"length":7,"data":"mobile"},{"type":"link","offset":233,"length":7,"data":"http://wasd.tv/"},{"type":"bold","offset":720,"length":12,"data":""},{"type":"bold","offset":1037,"length":12,"data":""},{"type":"bold","offset":1339,"length":9,"data":""},{"type":"link","offset":1521,"length":15,"data":"mailto:daordynt@mts.ru"}],"date":"2020-04-10T11:23:43+00:00","link":"tg://resolve?domain=qa_jobs&post=93802","tags":[{"name":"qa"},{"name":"mobile"},{"name":"rest"},{"name":"kubernetes"},{"name":"java"},{"name":"ios"},{"name":"android"},{"name":"jenkins"}],"cities":[{"code":"moscow"}],"allowsRemote":false}},{"node":{"__typename":"Job","id":"66416803840-1001054966032","title":"Android разработчик","text":"#вакансия #Moscow #fulltime #react #reactnative #senior\n\n✅Вакансия: React Native Senior dev\n✅Город: Москва \n✅ЗП: 200К - 250K net (рассмотрим ваши ожидания)\n✅Занятость: полная/ офис \n✅Компания: Нью Мед Солюшнс_ibolit.pro\n\n💥ibolit.pro– российская телемедицинская платформа, помогающая врачам и пациентам оставаться на связи в любой точке мира. Если вы хотите развиваться в перспективном направлении телемедицины, заниматься настоящими делами и сутью (никакой бюрократии и лишних согласований) и хотите получить разносторонний опыт – мы ждем Вас! \n❗️Сейчас мы ищем ведущего разработчика мобильных приложений, построенных на базе фреймворка React Native.\n\n👆Задачи:\nВам предстоит развивать мобильные приложения для докторов и пациентов, предоставляющих коммуникационные телемедицинские сервисы (чаты, видеоконференции), функционал работы с медицинской картой, записью на приемы и другие медицинские сервисы.\n\n👍Что мы готовы предложить:\n• «белоснежные» условия по оформлению;\n• достойная заработная плата;\n• ДМС;\n• бюджет на обучение и посещение конференций;\n• гибкий график;\n• комфортный офис в центре Москвы;\n• мы всегда приветствуем инициативу!\n\n👀Наши ожидания:\n• отличные знания React-стека;\n• отличное знание фреймворка React Native;\n• обязательным является наличие навыков нативной разработки мобильных приложений хотя бы для одной из плафторм - iOS(Swift) или Android(Kotlin).\n\n🤝Контакты: @Kate_Guseva","markup":[{"type":"hashtag","offset":0,"length":9,"data":"вакансия"},{"type":"hashtag","offset":10,"length":7,"data":"Moscow"},{"type":"hashtag","offset":18,"length":9,"data":"fulltime"},{"type":"hashtag","offset":28,"length":6,"data":"react"},{"type":"hashtag","offset":35,"length":12,"data":"reactnative"},{"type":"hashtag","offset":48,"length":7,"data":"senior"},{"type":"handle","offset":1395,"length":12,"data":"Kate_Guseva"}],"date":"2020-04-10T11:15:40+00:00","link":"tg://resolve?domain=mobile_jobs&post=63340","tags":[{"name":"mobile"},{"name":"android"},{"name":"ios"},{"name":"reactjs"},{"name":"dotnet"},{"name":"swift"},{"name":"kotlin"},{"name":"react-native"}],"cities":[{"code":"moscow"}],"allowsRemote":false}},{"node":{"__typename":"Job","id":"66410512384-1001054966032","title":"Mobile developer","text":"#вакансия  #iOS  #developer  #swift  #middle  #senior  #иннополис  #казань\n\nMobile Frontend Developer – iOS\n\nCompany: NNG\nVacancy: Middle/Senior iOS Developer\nLocation: Innopolis, Kazan\nWork format: office\nEmployment: full time\nS/p: from 180 to 250 k net\n\nAt NNG we develop the next generation of navigation and infotainment technology to improve driving experience, working with 7 of the top 10 car manufacturers worldwide. Headquartered in Hungary, we have a global footprint with coverage in almost 200 countries and 12 company offices worldwide. We have recently established a new development center in Kazan, tasked with delivering customized cutting-edge solutions to Russian vehicle manufacturers. In addition, the Kazan office will also develop independent, reusable software components for the global market, primarily frontend software (JavaScript, iOS and Android) and Java backend microservices.\n\nWhat would be your job? \n♦️ Work on mobile and automotive navigation software development\n🔹Work on various projects with international clients from all parts of the world\n♦️ Work in close cooperation with project managers and development teams both locally and in the Budapest office\n🔹Design, develop, code, test and debug; own your code\n\nIf you have... \n♦️Experience developing, testing, and releasing iOS apps\n🔹Knowledge of Objective-C and Swift, UIKit\n♦️Experience collaborating with designers on usability and aesthetics of apps\n🔹Strong experience in writing and maintaining testable code and unit tests\n♦️Experience with git-based version control systems\n🔹Strong written and verbal communication skills in English\n♦️ Experience working with global teams\nmoreover, you have any of the following: \n🔹Familiarity with JavaScript\n♦️Familiarity with Flutter\n🔹Experience in Agile development, especially SaFE and SCRUM\n♦️Willingness to get familiar with new technologies\n🔹Experience in working as a team player\nWhat can we give you in return? \n♦️ A job at a successful global company in Innopolis, where you can learn from the best\n🔹Serious professional challenges\n♦️A secure and well-paid job\n🔹The opportunity to develop the navigation software of the future in the present\n♦️A youthful team\n🔹The opportunity of working abroad for several weeks\n\nContacts: ✒️hr.vkulneva@gmail.com, @viktoriyakulneva","markup":[{"type":"hashtag","offset":0,"length":9,"data":"вакансия"},{"type":"hashtag","offset":11,"length":4,"data":"iOS"},{"type":"hashtag","offset":17,"length":10,"data":"developer"},{"type":"hashtag","offset":29,"length":6,"data":"swift"},{"type":"hashtag","offset":37,"length":7,"data":"middle"},{"type":"hashtag","offset":46,"length":7,"data":"senior"},{"type":"hashtag","offset":55,"length":10,"data":"иннополис"},{"type":"hashtag","offset":67,"length":7,"data":"казань"},{"type":"link","offset":2275,"length":23,"data":"http://✒️hr.vkulneva@gmail.com"},{"type":"handle","offset":2300,"length":17,"data":"viktoriyakulneva"}],"date":"2020-04-10T09:54:55+00:00","link":"tg://resolve?domain=mobile_jobs&post=63334","tags":[{"name":"mobile"},{"name":"android"},{"name":"ios"},{"name":"swift"},{"name":"dotnet"},{"name":"javascript"},{"name":"java"},{"name":"objective-c"},{"name":"uikit"},{"name":"git"},{"name":"flutter"}],"cities":[{"code":"kazan"},{"code":"budapest"}],"allowsRemote":false}},{"node":{"__typename":"Job","id":"66406318080-1001054966032","title":"Android разработчик","text":"#вакансия #fulltime  #vacancy  #remote #ремоут  #Flutterdeveloper #Flutter \n\n💻 Flutter Developer\n🕐 Fulltime remote\n👩🏻‍💻1-1,5 year of commercial development on Flutter\n💰from 10 $/hour to 12 $/hour\n\nВсем привет!🙋🏻‍♀️\nAMS ищет разработчиков на долгосрочное сотрудничество на ремоут. Мы занимаемся разработкой мобильных приложений под Android и IOS.\n\nУсловия:\n-проектная занятость;\n-доступность в неделю 40 часов.\n\nТребования :\n-коммерческий опыт разработки от 1-1,5 года;\n-английский B1+.\n\n📝 За подробностями по вакансиям и по всем вопросам  пишите:\ndarya.matsyas@ams-apps.com\nDarya \nLinkedIn","markup":[{"type":"hashtag","offset":0,"length":9,"data":"вакансия"},{"type":"hashtag","offset":10,"length":9,"data":"fulltime"},{"type":"hashtag","offset":21,"length":8,"data":"vacancy"},{"type":"hashtag","offset":31,"length":7,"data":"remote"},{"type":"hashtag","offset":39,"length":7,"data":"ремоут"},{"type":"hashtag","offset":48,"length":17,"data":"Flutterdeveloper"},{"type":"hashtag","offset":66,"length":8,"data":"Flutter"},{"type":"link","offset":495,"length":2,"data":"http://darya.matsyas@ams-apps.com/"},{"type":"link","offset":556,"length":27,"data":"http://darya.matsyas@ams-apps.com/"},{"type":"link","offset":590,"length":8,"data":"https://www.linkedin.com/in/darya-matyas-12ba33158/"}],"date":"2020-04-10T09:43:27+00:00","link":"tg://resolve?domain=mobile_jobs&post=63330","tags":[{"name":"mobile"},{"name":"android"},{"name":"ios"},{"name":"flutter"}],"cities":[],"allowsRemote":true}}]}}},"context":{}}