{"hash":"f5f6bf98bd95e769321482904cbbd488f77922fd","data":{"records":{"id":"spring","name":"spring","belongsTo":{"totalCount":84,"pageInfo":{"totalPages":9,"currentPage":6},"edges":[{"node":{"__typename":"Job","id":"1719664640-1001091028994","title":"Java разработчик","text":"#java #middle #москва #офис #fulltime\nJava-разработчик (CDP)\nКомпания: Эвотор\nЛокация: Москва, м. Парк Культуры\nЗп: 150 - 200К net\nКонтакты: @viktori_may, v.plotnikova@evotor.ru\n\nНаша команда занимается созданием Customer Data Platform (CDP) - система, которая идентифицирует пользователя через любой канал взаимодействия и собирает информацию о нем в одном профиле, позволяет сегментировать пользователей и коммуницировать с ними на основании сформированных правил. \n\nЗадачи:\n- Проектирование и реализация отказоустойчивых и готовых к масштабированию сервисов\n- Обширный круг задач по проектированию архитектуры и API системы\n- Участие в выборе используемых технологий\n\nКого ищем:\n• Знание основных алгоритмов и шаблонов проектирования ПО;\n• Знание фреймворков Spring Boot, Spring Cloud, Spring Cloud Stream, Kafka, Hibernate, веб-стека;\n• Знание технологий контейнеризации (Docker, Kubernetes);\n• Опыт работы c SQL и NoSQL базами данных(PostgreSQL, Aerospike, ClickHouse);\n• Опыт работы с инструментами Gradle, Git, Jira, Jenkins.\n\nСтек:\nJava12, Spring, Hibernate,Git, PostgreSQL, Kafka, Kubernetes, Docker\n\nУсловия:\n- Полностью официальная заработная плата\n- Офис в шаговой доступности от м. Парк Культуры со своей кухней и террасой\n- ДМС после прохождения испытательного срока","markup":[{"type":"hashtag","offset":0,"length":5,"data":"java"},{"type":"hashtag","offset":6,"length":7,"data":"middle"},{"type":"hashtag","offset":14,"length":7,"data":"москва"},{"type":"hashtag","offset":22,"length":5,"data":"офис"},{"type":"hashtag","offset":28,"length":9,"data":"fulltime"},{"type":"handle","offset":141,"length":12,"data":"viktori_may"},{"type":"link","offset":155,"length":22,"data":"mailto:v.plotnikova@evotor.ru"},{"type":"bold","offset":469,"length":6,"data":""},{"type":"bold","offset":671,"length":10,"data":""},{"type":"bold","offset":1034,"length":4,"data":""}],"date":"2020-06-22T11:44:13+00:00","link":"tg://resolve?domain=jvmjobs&post=1640","tags":[{"name":"java"},{"name":"jvm"},{"name":"dotnet"},{"name":"spring"},{"name":"cloud"},{"name":"kafka"},{"name":"hibernate"},{"name":"docker"},{"name":"kubernetes"},{"name":"sql"},{"name":"nosql"},{"name":"postgresql"},{"name":"gradle"},{"name":"git"},{"name":"jenkins"},{"name":"spring-boot"}],"cities":[{"code":"moscow"}],"allowsRemote":false}},{"node":{"__typename":"Job","id":"1718616064-1001091028994","title":"Java developer","text":"#Junior #Middle #Java #Developer\nКомпания: #Утконос\nЛокация: #Москва\nЗ/п: до 180 000 Net\nКонтакт: @RecruiterTatianaK\nJunior/Middle Java Developer в Утконос Онлайн\n📍Наш проект:\nВ компании разрабатывается комплексная система по управлению складом (WMS). Систему пишем сами «с нуля» на микросервисной архитектуре. \nСистема является ключевой для бизнеса и проектируется под высокие нагрузки.\n📍Что нужно делать?\n25% времени:\nАвтоматизировать бизнес процессы на складе в одной из scrum команд в количестве 10 человек.\n75% времени:\nРазрабатывать E2E и нагрузочные тесты.\n📍Наш стек:\nJava 11/Kotlin, Spring Boot 2.3.0, Camunda BPM, Kafka, Kubernetes, ELK, Grafana, Prometheus\n📍Что предлагаем?\nОформление по ТК РФ, ДМС\nГибкий график\nВозможность работы из дома\nСплоченный и профессиональный коллектив\nКорпоративные скидки на utkonos.ru, tui.ru, фитнес, кино и др.\nОфис - 10 минут  от м. Краснопресненская/ м.Улица 1905 года","markup":[{"type":"hashtag","offset":0,"length":7,"data":"Junior"},{"type":"hashtag","offset":8,"length":7,"data":"Middle"},{"type":"hashtag","offset":16,"length":5,"data":"Java"},{"type":"hashtag","offset":22,"length":10,"data":"Developer"},{"type":"hashtag","offset":43,"length":8,"data":"Утконос"},{"type":"hashtag","offset":61,"length":7,"data":"Москва"},{"type":"handle","offset":98,"length":18,"data":"RecruiterTatianaK"},{"type":"link","offset":818,"length":10,"data":"http://utkonos.ru"},{"type":"link","offset":830,"length":6,"data":"http://tui.ru"}],"date":"2020-06-22T10:57:41+00:00","link":"tg://resolve?domain=jvmjobs&post=1639","tags":[{"name":"java"},{"name":"jvm"},{"name":"dotnet"},{"name":"kotlin"},{"name":"spring"},{"name":"kafka"},{"name":"kubernetes"},{"name":"spring-boot"}],"cities":[{"code":"moscow"}],"allowsRemote":false}},{"node":{"__typename":"Job","id":"1717567488-1001091028994","title":"Java developer","text":"#Senior #Java #Developer\nКомпания: #Утконос\nЛокация: #Москва\nЗ/п: до 320 000 Net\nКонтакт: @RecruiterTatianaK\nSenior Java Developer в Утконос Онлайн\n📍Наш проект:\nВ компании разрабатывается комплексная система по управлению складом (WMS). Систему пишем сами «с нуля» на микросервисной архитектуре. \nСистема является ключевой для бизнеса и проектируется под высокие нагрузки.\n📍Что нужно делать?\nАвтоматизировать бизнес процессы на складе в одной из scrum команд в количестве 10 человек, прорабатывать архитектурные решения, замещать тим лида при необходимости.\n📍Наш стек:\nJava 11/Kotlin, Spring Boot 2.3.0, Camunda BPM, Kafka, Kubernetes, ELK, Grafana, Prometheus\n📍Что предлагаем?\nОформление по ТК РФ, ДМС\nГибкий график\nВозможность работы удаленно\nСплоченный и профессиональный коллектив\nКорпоративные скидки на utkonos.ru, tui.ru, фитнес, кино и др.\nОфис - 10 минут  от м. Краснопресненская/ м.Улица 1905 года","markup":[{"type":"hashtag","offset":0,"length":7,"data":"Senior"},{"type":"hashtag","offset":8,"length":5,"data":"Java"},{"type":"hashtag","offset":14,"length":10,"data":"Developer"},{"type":"hashtag","offset":35,"length":8,"data":"Утконос"},{"type":"hashtag","offset":53,"length":7,"data":"Москва"},{"type":"handle","offset":90,"length":18,"data":"RecruiterTatianaK"},{"type":"link","offset":813,"length":10,"data":"http://utkonos.ru"},{"type":"link","offset":825,"length":6,"data":"http://tui.ru"}],"date":"2020-06-22T10:57:27+00:00","link":"tg://resolve?domain=jvmjobs&post=1638","tags":[{"name":"java"},{"name":"jvm"},{"name":"dotnet"},{"name":"kotlin"},{"name":"spring"},{"name":"kafka"},{"name":"kubernetes"},{"name":"spring-boot"}],"cities":[{"code":"moscow"},{"code":"lida"}],"allowsRemote":true}},{"node":{"__typename":"Job","id":"1716518912-1001091028994","title":"Java программист","text":"#Java  #middle #fulltime #удаленно\nДля московской  компании по разработке банковского ПО ищу middle программиста Java.\nЕсть задачи по созданию новых (больших и интересных) информационных систем, так и задачи по доработке и поддержке существующих. Разработка приложений с использованием микросервисной архитектуры.\nТребования: Java 8, Spring, Hibernate, JMS, REST, SQL\nУсловия обсуждаются в зависимости от опыта: 120 000-150 000 руб. net («белая» з/п).\nРабота постоянная, удаленная с оформлением в штат компании. Готовность начинать рабочий день до 11.00 (Мск).\nКонтакты: @recrut911 или rt@connect-personal.ru","markup":[{"type":"hashtag","offset":0,"length":5,"data":"Java"},{"type":"hashtag","offset":7,"length":7,"data":"middle"},{"type":"hashtag","offset":15,"length":9,"data":"fulltime"},{"type":"hashtag","offset":25,"length":9,"data":"удаленно"},{"type":"handle","offset":571,"length":10,"data":"recrut911"},{"type":"link","offset":586,"length":22,"data":"mailto:rt@connect-personal.ru"}],"date":"2020-06-22T10:41:25+00:00","link":"tg://resolve?domain=jvmjobs&post=1637","tags":[{"name":"java"},{"name":"jvm"},{"name":"spring"},{"name":"hibernate"},{"name":"rest"},{"name":"sql"},{"name":"dotnet"}],"cities":[],"allowsRemote":true}},{"node":{"__typename":"Job","id":"1715470336-1001091028994","title":"Java разработчик","text":"#middle #удаленка #Java #Spring #senior #backend #developer\nЛокация: Cанкт-Петербург\nЗанятость: полная, гибкое начало дня\n*до окончания пандемии работа удаленная, далее работа в офисе\nЗ/п: 130 – 200 k net.\nКомпания: CSI\nКонтакты: @Danny_Ushakova\nМы продуктовая компания CSI, создающая решения для автоматизации торговых сетей.  \nМы ищем крутых разработчиков, ответственных за собственный код, любящих тесты и понимающих важность unit тестов. Разработчиков, которые с радостью забывают про бюрократию, и разделение труда, которые умеют защищать собственные решения и хотят сделать этот мир лучше!  \nJAVA developer (высоконагруженные сервисы лояльности)  \nКлючевой задачей будет разработка нового и доработка нашего продукта -  существующего функционала системы Set Retail 10. \nСтек:\n• Java от 2 лет.\n• Spring (Web, Data, Cloud), Kafka.\n• Опыт разработки микросервисов.\n• Опыт проектирования базы данных.\n• SQL (желательно PostgreSQL), JDBC, Hibernate.\n• Git, Gradle.\nБудет плюсом:\n• Опыт работы с J2EE (EJB3, JAX-WS, JAXB, JPA2).\n• Знание Linux.\n• Опыт работы с Redis, MongoDB, Docker, Hashicorp Nomad, Ansible.\n\nМы предлагаем:\n• возможность каждый день видеть результаты своей работы;\n• официальное оформление, белая зарплата, отпуск согласно ТК РФ;\n• гибкий график работы (с 11 до 17 - время присутствия в офисе), есть возможность работать из дома (при необходимости);\n• ДМС со стоматологией, 100% оплата больничных;\n• курсы английского языка в офисе;\n• посещение тренингов, конференций;\n• работа по Agile в команде высокопрофессиональных разработчиков;\n• возможности профессионального роста, четкая схема повышения зарплаты;\n• работа в современном и комфортном офисе в центре города (Чкаловcкий пр-т);\n• оборудованные столовые, чай, кофе, фрукты, печеньки и PlayStation;\n• командные тимбилдинги, футбольная команда.","markup":[{"type":"hashtag","offset":0,"length":7,"data":"middle"},{"type":"hashtag","offset":8,"length":9,"data":"удаленка"},{"type":"hashtag","offset":18,"length":5,"data":"Java"},{"type":"hashtag","offset":24,"length":7,"data":"Spring"},{"type":"hashtag","offset":32,"length":7,"data":"senior"},{"type":"hashtag","offset":40,"length":8,"data":"backend"},{"type":"hashtag","offset":49,"length":10,"data":"developer"},{"type":"handle","offset":230,"length":15,"data":"Danny_Ushakova"}],"date":"2020-06-22T09:26:18+00:00","link":"tg://resolve?domain=jvmjobs&post=1636","tags":[{"name":"java"},{"name":"jvm"},{"name":"spring"},{"name":"dotnet"},{"name":"web"},{"name":"cloud"},{"name":"kafka"},{"name":"sql"},{"name":"postgresql"},{"name":"jdbc"},{"name":"hibernate"},{"name":"git"},{"name":"gradle"},{"name":"jaxb"},{"name":"jpa"},{"name":"linux"},{"name":"redis"},{"name":"mongodb"},{"name":"docker"},{"name":"ansible"}],"cities":[],"allowsRemote":true}},{"node":{"__typename":"Job","id":"1714421760-1001091028994","title":"Java разработчик","text":"#java#Junior#Java#developer#telecom\nЛокация: Москва, Нижний Новгород, Россия\nЗанятость: офис, полная, удаленная\nЗ/п: от 100 000 рублей на руки\nКомпания: ГК INTECH\n\nКонтакты: @vkechatova\n\nINTECH – IT компания, контент и сервис провайдер на рынке телекома России и стран СНГ, разработчик инновационных идей для мобильной и WEB индустрии. Мы работаем с операторами сотовой связи не только в России, но и в странах СНГ и Вьетнаме.\n\nПримеры наших проектов:\nПроект «Глаголь» - Платформа создания и управления высоко нагружёнными видео конференциями с мобильными приложениями.\nCashback - Сервис Сахар;\nОблачная АТС - Решение облачной телефонии для корпоративных клиентов;\nСтриминговая платформа - Видео, аудио стриминговые решения для работы с ТВ трансляциями;\nВидео Истории - Платформа для видеозвонков и для проигрывания пользовательских и коммерческих видео роликов на экране мобильного телефона во время вызова.\n\nЗадачи:\n•  Разработка голосовых и SMS/USSD сервисов для сотовых операторов;\n•  Сопровождение существующие продуктов и разработка новых.\n\nДля работы потребуется:\n•  Опыт разработки от 1 года;\n•  Уверенное знание Java Core, Multithreading, Collections;\n•  Уверенные навыки работы с реляционными базами данных;\n•  Опыт работы с JPA, Hibernate\n•  Опыт работы с Spring (MVC, Data)\n•  Опыт работы с ОС Linux;\n•  Опыт работы с системой контроля версий;\n•  Навыки работы с JUnit - приветствуются.\n\nПлюсом будет:\n•  Опыт работы в телеком (SIP, SS7).\n\nМы предлагаем:\n•  Официальное трудоустройство, полностью официальная заработная плата;\n•  Белая заработная плата - полностью зависит от квалификации кандидата и обсуждается на интервью;\n•  Возможность карьерного и профессионального роста;\n•  Возможность предлагать и реализовывать собственные идеи;\n•  Работа в профессиональной команде разработчиков;\n•  Обучение в процессе работы;\nА также:\n•  Гибкая мотивационная программа;\n•  Ежемесячные премии;\n•  Ежегодные корпоративные мероприятия.","markup":[{"type":"handle","offset":174,"length":11,"data":"vkechatova"}],"date":"2020-06-22T06:35:58+00:00","link":"tg://resolve?domain=jvmjobs&post=1635","tags":[{"name":"java"},{"name":"jvm"},{"name":"web"},{"name":"jpa"},{"name":"hibernate"},{"name":"spring"},{"name":"linux"},{"name":"junit"},{"name":"spring-mvc"}],"cities":[{"code":"moscow"},{"code":"nizhny-novgorod"}],"allowsRemote":true}},{"node":{"__typename":"Job","id":"1713373184-1001091028994","title":"Java разработчик","text":"#Москва #вакансия #java #spring #fulltime #backend #office #middle #senior \n\nКомпания: СберТех.\n\nОфис: Москва, м. Нагатинская/м. Тульская/ м. Верхние Котлы.\n\nЗП: от 180-290 Net.\n\n📂Проект: Разработка платформы для управления бизнес-процессами Банка и  Цифровой Платформы Sber.\n\n🗓Задачи:\n• Участие в разработке высоконагруженного сервиса исполнения бизнес процессов на языке BPMN2.\n• Участие в RnD и прототипировании open source движков для сервиса.\n• Покрытие своего кода тестами.\n\n📎Cтек: Java8+, Spring Framework, Spring Boot, ORM, Apache Kafka.\n\n🔰Условия:\n• Оформление ТК РФ.\n• ДМС для сотрудников и скидки на медицинскую страховку для родственников;\n• Высокая белая заработная плата (оклад + годовая премия).\n• Возможность обучения за счет компании, посещения IT-конференций.\n• Бесплатный тренажерный зал на территории офиса.\n• Корпоративная жизнь и спортивные мероприятия.\n\n📩Готов ответить на интересующие вопросы - @Dmiryy","markup":[{"type":"hashtag","offset":0,"length":7,"data":"Москва"},{"type":"hashtag","offset":8,"length":9,"data":"вакансия"},{"type":"hashtag","offset":18,"length":5,"data":"java"},{"type":"hashtag","offset":24,"length":7,"data":"spring"},{"type":"hashtag","offset":32,"length":9,"data":"fulltime"},{"type":"hashtag","offset":42,"length":8,"data":"backend"},{"type":"hashtag","offset":51,"length":7,"data":"office"},{"type":"hashtag","offset":59,"length":7,"data":"middle"},{"type":"hashtag","offset":67,"length":7,"data":"senior"},{"type":"handle","offset":924,"length":7,"data":"Dmiryy"}],"date":"2020-06-19T18:13:29+00:00","link":"tg://resolve?domain=jvmjobs&post=1634","tags":[{"name":"java"},{"name":"jvm"},{"name":"spring"},{"name":"dotnet"},{"name":"orm"},{"name":"apache"},{"name":"kafka"},{"name":"spring-boot"}],"cities":[{"code":"moscow"}],"allowsRemote":false}},{"node":{"__typename":"Job","id":"1712324608-1001091028994","title":"Java разработчик","text":"#java #fulltime\n\nНа проект от одного из лидирующих российских банков требуется\nMiddle Java Developer (backend)\n\nЛокация: Москва, ул. Сретенка\nФормат работы: Офис\nЗанятость: полная\n\nВилка зп: 150 000 - 180 000 рублей/месяц нетто\n\nСтек: \nSpring, Hibernate, Maven, JMS, REST, SOAP, Git, Jenkins, UML, TestNG.\n\nТребования: \n- Опыт от 2х лет разработки высоко-нагруженных и отказоустойчивых фронтальных систем.\n- Знание основных методологий разработки программного обеспечения, включая гибкие методологии.\n- Опыт командной разработки.\n- Умение разбираться в чужом коде, писать чистый и понятный код для других разработчиков, опыт написания автотестов.\n- Уверенное знание Java Core (типы данных, Collections Framework, JMM...)\n- Знание парадигм ООП и их реализации в Java.\n- Знание структур данных и алгоритмов.\n- Знание шаблонов проектирования (GoF)\n\nКонтакт: @mxm_at","markup":[{"type":"hashtag","offset":0,"length":5,"data":"java"},{"type":"hashtag","offset":6,"length":9,"data":"fulltime"},{"type":"handle","offset":855,"length":7,"data":"mxm_at"}],"date":"2020-06-19T13:20:17+00:00","link":"tg://resolve?domain=jvmjobs&post=1633","tags":[{"name":"java"},{"name":"jvm"},{"name":"spring"},{"name":"hibernate"},{"name":"maven"},{"name":"rest"},{"name":"soap"},{"name":"git"},{"name":"jenkins"}],"cities":[{"code":"moscow"}],"allowsRemote":false}},{"node":{"__typename":"Job","id":"1710227456-1001091028994","title":"Java разработчик","text":"#вакансия #senior #middle #Сбербанк #java #spring #fulltime #офис #agile #backend\nКомпания: ПАО «Сбербанк»\nЛокация: Москва, м. Кутузовская (Agile home)\nЗ/п: от 180-280К на руки (в зависимости от уровня) + достойные годовые премии\nКонтакты: @tdurnicina TVlDurnitsyna@sberbank.ru\n\nДрузья! Мы в поисках Java разработчиков уровня middle и senior в новое небанковское приложение для клиента. Это уникальная возможность присоединиться к разработке серьёзного продукта в командах с атмосферой стартапа🙂 Вас ждут интересные задачи, свежий стек: Java 11, Spring, Hibernate, многомодульность и никакого легаси🔥 \n!Также готовы рассмотреть кандидатов уровня junior+ при наличии опыта коммерческой разработки.\n\nНаш Agile home это: пин понг, пул, кикер, библиотека, кофемашины на этажах, бесплатный спорт зал и подземный паркинг.\nЕсть отличный корпоративный университет, программы обучения в т.ч. за рубежом, конференции, митапы.\n🔥 Льготная ипотека и ДМС. \n\nРассмотрим кандидатов из других городов и стран. И конечно гибкое начало рабочего дня, куда без него.","markup":[{"type":"hashtag","offset":0,"length":9,"data":"вакансия"},{"type":"hashtag","offset":10,"length":7,"data":"senior"},{"type":"hashtag","offset":18,"length":7,"data":"middle"},{"type":"hashtag","offset":26,"length":9,"data":"Сбербанк"},{"type":"hashtag","offset":36,"length":5,"data":"java"},{"type":"hashtag","offset":42,"length":7,"data":"spring"},{"type":"hashtag","offset":50,"length":9,"data":"fulltime"},{"type":"hashtag","offset":60,"length":5,"data":"офис"},{"type":"hashtag","offset":66,"length":6,"data":"agile"},{"type":"hashtag","offset":73,"length":8,"data":"backend"},{"type":"handle","offset":240,"length":11,"data":"tdurnicina"},{"type":"link","offset":252,"length":25,"data":"mailto:TVlDurnitsyna@sberbank.ru"}],"date":"2020-06-18T17:32:56+00:00","link":"tg://resolve?domain=jvmjobs&post=1631","tags":[{"name":"java"},{"name":"jvm"},{"name":"spring"},{"name":"hibernate"}],"cities":[{"code":"moscow"}],"allowsRemote":false}},{"node":{"__typename":"Job","id":"1707081728-1001091028994","title":"Java разработчик","text":"#vacancy #Java #middle #удаленка #новый проект #вакансия  #удаленка #Java #Spring #React #senior #backend\n\nНаша компания занимается разработкой программного обеспечения в сфере аффилированного маркетинга, оказывает сервис, связанный с обслуживанием клиентов, генерирующих трафик для различных зарубежных проектов.\nМы не останавливаемся на достигнутом и запускаем очередной новый проект. Цель проекта - получить современный портал в области теннисного спорта. Это должна быть мощная платформа, которая превзойдет по удобству и современности все существующие на данный момент платформы этой тематики.\nПроект стартует с \"0\", поэтому предоставляется уникальная возможность начать \"все с самого начала\", а не разбираться и пилить Legacy код.\nИщем разработчика на Java уровня Middle+\nОфис расположен в Москве, работать можно из любой точки Мира.\nТребования:\nопыт коммерческой разработки на java от 3-х лет;\nзнание Spring Framework (в т.ч. SpringBoot, SpringData, SpringSecurity);\nзнание ORM (JPA или Hibernate);\nопыт работы с RDBMS, желательно PostgreSQL;\nопыт работы по практикам Agile, DevOps, CI/CD;\nзнание Java Core, collections, multithreading, concurrency, generics, reflection;\nзнание и понимание основных принципов ООП;\nзнание паттернов проектирования\nумение писать качественный и понятный код;\nанглийский – уровень Intermediate\n\n@Elena19_10Kom\nelena.komkova@robusta.team\n+79264236022\nз/п: 100 000 - 150 000 (зависит от опыта)","markup":[{"type":"hashtag","offset":0,"length":8,"data":"vacancy"},{"type":"hashtag","offset":9,"length":5,"data":"Java"},{"type":"hashtag","offset":15,"length":7,"data":"middle"},{"type":"hashtag","offset":23,"length":9,"data":"удаленка"},{"type":"hashtag","offset":33,"length":6,"data":"новый"},{"type":"hashtag","offset":47,"length":9,"data":"вакансия"},{"type":"hashtag","offset":58,"length":9,"data":"удаленка"},{"type":"hashtag","offset":68,"length":5,"data":"Java"},{"type":"hashtag","offset":74,"length":7,"data":"Spring"},{"type":"hashtag","offset":82,"length":6,"data":"React"},{"type":"hashtag","offset":89,"length":7,"data":"senior"},{"type":"hashtag","offset":97,"length":8,"data":"backend"},{"type":"handle","offset":1332,"length":14,"data":"Elena19_10Kom"},{"type":"link","offset":1347,"length":26,"data":"mailto:elena.komkova@robusta.team"},{"type":"link","offset":1374,"length":12,"data":"tel:+79264236022"}],"date":"2020-06-18T11:30:31+00:00","link":"tg://resolve?domain=jvmjobs&post=1628","tags":[{"name":"java"},{"name":"jvm"},{"name":"spring"},{"name":"reactjs"},{"name":"orm"},{"name":"jpa"},{"name":"hibernate"},{"name":"postgresql"}],"cities":[],"allowsRemote":true}}]}}},"context":{}}