{"hash":"f5f6bf98bd95e769321482904cbbd488f77922fd","data":{"records":{"id":"html","name":"html","belongsTo":{"totalCount":110,"pageInfo":{"totalPages":11,"currentPage":2},"edges":[{"node":{"__typename":"Job","id":"17324572672-1001110946746","title":"Js developer","text":"#вакансия #frontend #react  #senior #мbycr #офис #fulltime #релокация в литву #минск\n\nПозиция – Frontend developer (senior)\n\nКомпания – ThiNKT Digital\n\nЛокация – Литва\n\nЗанятость – полная, офис, гибкое время начала дня\n\nОплата: от 2 000 до 3400 евро на руки\n\nРелокационный пакет - оплата 1 мес аренды кв и переезд\n\n The Role • Discuss the client‘s needs to propose the best solution • Develop responsive web applications • Keep up to date with terminology, concepts and best practices for coding web applications • Work closely with colleagues to constantly innovate product functionality and design • Architect customer-centric front-end part of the solution • Collaborate with Venture Managers and engage with development teams \n   We offer • Participation in a dynamic startup solving challenges in the energy sector & beyond • Responsibility over a wide portfolio of products  • Access to large network of startups & corporates through our various partnerships • A great international exposure, and a diverse team with extensive & rich experiences  • Competitive compensation package & flexible work schedule  \n \n       Your Background ● Solid foundation in web application front-end development ● You know what are the best UI & UX practices ● Experience with front-end programming languages such as HTML, CSS,  Javascript, ReactJS, etc ● Experience in software process models such as Agile / Scrum / etc ● Well-rounded interpersonal and communication skills to work in flexible teams ● You are Problem solver, and very interested in technology-related entrepreneurial start-up projects. ● Relevant experience with Node or other backend programming languages would be a plus ● Experience with Azure or Amazon Web Service (AWS) would be a huge plus ● Relevant experience 3-5 years ● Required language: English \n \n \n\n\n\n☎️ Контакты для обсуждения вакансии:\n\ntelegram @codebor\n\ne-mail ybb@quadcom.ru","markup":[{"type":"hashtag","offset":0,"length":9,"data":"вакансия"},{"type":"hashtag","offset":10,"length":9,"data":"frontend"},{"type":"hashtag","offset":20,"length":6,"data":"react"},{"type":"hashtag","offset":28,"length":7,"data":"senior"},{"type":"hashtag","offset":36,"length":6,"data":"мbycr"},{"type":"hashtag","offset":43,"length":5,"data":"офис"},{"type":"hashtag","offset":49,"length":9,"data":"fulltime"},{"type":"hashtag","offset":59,"length":10,"data":"релокация"},{"type":"hashtag","offset":78,"length":6,"data":"минск"},{"type":"handle","offset":1869,"length":8,"data":"codebor"},{"type":"link","offset":1886,"length":14,"data":"mailto:ybb@quadcom.ru"}],"date":"2020-07-02T16:29:51+00:00","link":"tg://resolve?domain=javascript_jobs_feed&post=16522","tags":[{"name":"javascript"},{"name":"reactjs"},{"name":"web"},{"name":"ms-access"},{"name":"html"},{"name":"css"},{"name":"nodejs"},{"name":"azure"},{"name":"amazon-web-services"}],"cities":[{"code":"minsk"}],"allowsRemote":false}},{"node":{"__typename":"Job","id":"17322475520-1001110946746","title":"Javascript разработчик","text":"#вакансия #frontend #react #typescript #middle #senior #москва #офис #fulltime\n\nПозиция – Frontend developer (Middle)\n\nКомпания – Quadcom\n\nЛокация – Москва, м. Ботанический сад\n\nЗанятость – полная, офис, гибкое время начала дня\n\nОплата: от 110 000 до 150 000 рублей на руки\n\n\n\nМы ищем талантливого фронтенд-разработчика в нашу не очень большую, но дружную команду. Если ты легко осваиваешь новые технологии, любишь чистый и красивый код, знаешь алгоритмы и готов развиваться, то мы очень хотим тебя к себе!\n\nМы разрабатываем различные сервисы и интерфейсы для внутреннего и внешнего использования. У нас есть как большие проекты, так и маленькие. Начиная с 2014 года с небольшой команды мы развились до довольно большой компании и развиваемся дальше\n\nБазируемся в уютном бизнес-центре Ультрамарин, недалеко от метро Ботанический сад и ВДНХ. У нас гибкий рабочий график, современный офис и отличное оборудование для работы.\n\n\n\n✅ Необходимые навыки:\n\n• Знание Javascript и ES6+, React + Redux\n\n• Уверенные знания HTML, CSS/SASS/LESS, опыт кроссбраузерной верстки\n\n• Опыт работы в команде с использованием Git и любого системой управления задачами\n\n\n\n✅ Плюсом будет:\n\n• Опыт работы с RestAPI\n\n• Знакомство с TypeScript\n\n• Знание алгоритмов и структур данных\n\n\n\n✅ Мы предлагаем:\n\nРаботу в успешной, растущей компании\n\nКарьерный и профессиональный рост\n\nУютный офис\n\nОтсутствие какого-либо дресс-кода\n\nСвободный график\n\nАдекватное руководство\n\n\n\nЗП от 110 000 до 150 000 рублей на руки\n\nпо итогам собеседования и испытательного срока\n\n\n\n☎️ Контакты для обсуждения вакансии:\n\ntelegram @codebor\n\ne-mail ybb@quadcom.ru\n\n\n\nДля желающих мы подготовили небольшое интересное задание\nhttps://github.com/walborn/test-backend-jwt/blob/master/task.md","markup":[{"type":"hashtag","offset":0,"length":9,"data":"вакансия"},{"type":"hashtag","offset":10,"length":9,"data":"frontend"},{"type":"hashtag","offset":20,"length":6,"data":"react"},{"type":"hashtag","offset":27,"length":11,"data":"typescript"},{"type":"hashtag","offset":39,"length":7,"data":"middle"},{"type":"hashtag","offset":47,"length":7,"data":"senior"},{"type":"hashtag","offset":55,"length":7,"data":"москва"},{"type":"hashtag","offset":63,"length":5,"data":"офис"},{"type":"hashtag","offset":69,"length":9,"data":"fulltime"},{"type":"handle","offset":1579,"length":8,"data":"codebor"},{"type":"link","offset":1596,"length":14,"data":"mailto:ybb@quadcom.ru"},{"type":"link","offset":1671,"length":63,"data":"https://github.com/walborn/test-backend-jwt/blob/master/task.md"}],"date":"2020-07-02T16:28:50+00:00","link":"tg://resolve?domain=javascript_jobs_feed&post=16520","tags":[{"name":"javascript"},{"name":"reactjs"},{"name":"typescript"},{"name":"redux"},{"name":"html"},{"name":"css"},{"name":"sass"},{"name":"git"},{"name":"github"},{"name":"jwt"},{"name":"react-redux"}],"cities":[{"code":"moscow"}],"allowsRemote":false}},{"node":{"__typename":"Job","id":"104213774336-1001089317451","title":"Qa engineer","text":"#вакансия #qa #офис #москва\nм.Бауманская, полная занятость\nБелая з/п до 100.000руб. на руки \nQA Engineer / Тестировщик\nУдаленной работы нет\n\n Мы — команда разработки Level.Travel, сложного продукта в сфере путешествий.  За последние 8 лет мы с нуля создали и продолжаем развивать решение для онлайн-продажи путешествий. Нашу платформу используют лидеры рынка – Тинькофф Банк, OneTwoTrip, Сбербанк, TripAdvisor, Kayak, АК Барс Банк, Евросеть и многие другие. Компания Level.Travel является резидентом Инновационного центра «Сколково».\n\nОбязанности:\n🔸Функциональное тестирование мобильных и web приложений;\n🔸Тестирование API\n🔸Сопровождение задач, мониторинг качества продукта\n🔸Документирование багов\n🔸Проверка кейсов перед релизом, тестирование на промежуточных этапах фиксов и разработки нового функционала\n🔸Оптимизация процесса тестирования внутри команды\n🔸Разработка тест-планов, тест-кейсов\n🔸Тесное общение с командой разработчиков\n🔸Прием обращений от коллег\n🔸Cоставление отчета о тестировании\n\nОт Вас:\n🔸Опыт работы от 1,5 лет\n🔸Общительность, активность умение работать в команде\n🔸Представление о теории тестирования и жизненном цикле ПО\n🔸Умение описать баг, опыт работы с трекерами задач\n🔸Опыт разработки тест-планов, тест-кейсов\n🔸Базовые знания html, сss, regexp\n🔸Понимание как работает протокол http\n🔸Умение работать с перехватчиками трафика\n🔸Опыт работы с developer tools в браузере\n🔸Умение расставлять приоритеты задач\n\n\nОт нас: белая зп, официальное трудоустройство, больничные, отпуска. Скидки на изучение английского языка, техника MAC OS. Регулярная обратная связь и аттестации. Геймификация процессов и несколько раз в год релокейты поработать в другую страну. Клевый молодой коллектив, интересные ивенты, насыщенная корпоративная жизнь. Пинг-понг, бильярд, кальян и другие развлечения в офисе. Скидки на путешествия)\n\nСвязь по почте: vos@level.travel\nИли тут @Alyask_a","markup":[{"type":"hashtag","offset":0,"length":9,"data":"вакансия"},{"type":"hashtag","offset":10,"length":3,"data":"qa"},{"type":"hashtag","offset":14,"length":5,"data":"офис"},{"type":"hashtag","offset":20,"length":7,"data":"москва"},{"type":"bold","offset":59,"length":32,"data":""},{"type":"bold","offset":93,"length":25,"data":""},{"type":"bold","offset":142,"length":76,"data":""},{"type":"bold","offset":536,"length":12,"data":""},{"type":"bold","offset":1008,"length":7,"data":""},{"type":"bold","offset":1449,"length":7,"data":""},{"type":"bold","offset":1852,"length":32,"data":""},{"type":"link","offset":1868,"length":16,"data":"mailto:vos@level.travel"},{"type":"bold","offset":1885,"length":17,"data":""},{"type":"handle","offset":1893,"length":9,"data":"Alyask_a"}],"date":"2020-07-02T12:03:43+00:00","link":"tg://resolve?domain=qa_jobs&post=99386","tags":[{"name":"qa"},{"name":"web"},{"name":"html"}],"cities":[{"code":"moscow"}],"allowsRemote":false}},{"node":{"__typename":"Job","id":"17313038336-1001110946746","title":"Js разработчик","text":"#вакансия #frontEnd  #удаленка\nИщем frontend developer в компанию Датурум - разработчик и поставщик платформы WikiVote, которую мы внедряем в крупные организации. Платформа создает среду, в которой сотрудники делятся идеями по совершенствованию своей компании, улучшению рабочих процессов, а руководство прислушивается к идеям и внедряет их. \n\n🚩Заработная плата: от 80 000 до 150 000 руб\nЛокация: РФ, удаленно\nРежим работы: полная занятость, 8 часовой рабочий день\n\n🚩Требования: опыт от 2х лет\nCSS3, HTML5, JavaScript\nVue.js второй версии, webpack\nопыт в работе с REST или GraphQL\nумение верстать или писать JS код с учетом возможностей IE11\nуверенное использование Git\n\n🚩Чем заниматься: внедрением платформы в гос и частные крупные учреждения, исследовательские штуки типа разработки всяких умных алгоритмов для платформы.\nТакже примерно раз в год мы делаем крупный проект по заказной разработке ПО, у нас в портфолио: Windows-приложение рабочий блокнот УИК для помощи участковым избирательным комиссиям, чтобы лучше проводить выборы,  MVP банка на блокчейне, и тд.\n\n🚩Что предлагаем: Испытательный срок 3 месяца, белое оформление в штат, своевременную оплату\n\nРезюме @irensergeeva","markup":[{"type":"hashtag","offset":0,"length":9,"data":"вакансия"},{"type":"hashtag","offset":10,"length":9,"data":"frontEnd"},{"type":"hashtag","offset":21,"length":9,"data":"удаленка"},{"type":"handle","offset":1172,"length":13,"data":"irensergeeva"}],"date":"2020-07-02T09:44:12+00:00","link":"tg://resolve?domain=javascript_jobs_feed&post=16511","tags":[{"name":"javascript"},{"name":"css"},{"name":"html"},{"name":"vuejs"},{"name":"webpack"},{"name":"rest"},{"name":"graphql"},{"name":"git"},{"name":"windows"}],"cities":[],"allowsRemote":true}},{"node":{"__typename":"Job","id":"17309892608-1001110946746","title":"Js разработчик","text":"#удаленка #fullstack #middle #вакансия\nПривет! ✌ Мы ищем full stack специалиста для постоянной работы. \nФормат работы: Удалёнка. Занятость:полная.\nЗП: от 80 до 100 к\n\nУровень middle\n\nКомпания:https://arkonsa.ru/\n💁 Описание компании: Мы работаем в двух направлениях: 1) Своя CRM система (oko сrm), которую планируем продавать на внешний рынок + запускать мобильное приложение для IOS и Android;\n2) Свой учебный центр (продажи).\n\nОт тебя мы ждем:\n\n- Уверенное знание: HTML4/5, CSS2/3, JavaScript ES5(ES6), HTML, JQuery, Ajax, React, VUE.js, Laravel\n\n💡 Требования:\nопыт разработки по данному стеку от 2+лет.\n\n📠 За подробностями по вакансии и по всем вопросам:\n@elena_hr_tmn \n89129125591 Viber\n\n—\n\n👉 Обсуждение вакансии в чате @javascript_jobs","markup":[{"type":"hashtag","offset":0,"length":9,"data":"удаленка"},{"type":"hashtag","offset":10,"length":10,"data":"fullstack"},{"type":"hashtag","offset":21,"length":7,"data":"middle"},{"type":"hashtag","offset":29,"length":9,"data":"вакансия"},{"type":"link","offset":192,"length":19,"data":"https://arkonsa.ru/"},{"type":"handle","offset":660,"length":13,"data":"elena_hr_tmn"},{"type":"link","offset":675,"length":11,"data":"tel:89129125591"},{"type":"handle","offset":727,"length":16,"data":"javascript_jobs"}],"date":"2020-07-02T07:31:15+00:00","link":"tg://resolve?domain=javascript_jobs_feed&post=16508","tags":[{"name":"javascript"},{"name":"ios"},{"name":"android"},{"name":"html"},{"name":"css"},{"name":"jquery"},{"name":"ajax"},{"name":"reactjs"},{"name":"vuejs"},{"name":"laravel"}],"cities":[],"allowsRemote":true}},{"node":{"__typename":"Job","id":"17307795456-1001110946746","title":"Js разработчик","text":"#вакансия #москва #middle #remote #angular #fulltime #офис\n\nИщем frontend разработчика для работы над основным сайтом и новыми разделами.\nГород и адрес офиса: Москва, м. Авиамоторная\nФормат работы: Офис\nЗанятость: полная\nЗарплатная вилка: 130 000 — 150 000 на руки по результатам технического собеседования\n\nAutospot.ru — онлайн гипермаркет автомобилей. 🚘\n\nВ 2018 году Mitsubishi Corporation и Mail.ru. оценили нас в $19,1 млн.\n\nВ технической команде 17 человек: СТО, 9 PHP разработчиков, 2 frontend разработчика, 3 тестировщика, DevOps.\n\nЧеловек нужен в Москве или готовый в эту самую Москву переехать.\n\n📍Обязанности:\n▫️Разработка компонентов и адаптация/интеграция сторонних библиотек и плагинов;\n▫️ Верстка новых разделов, кроссбраузерная, адаптивная, валидная;\n▫️ Развитие библиотеки UI компонентов;\n▫️ Оперативное исправление багов на проде (IE 11+);\n▫️ Помощь в оптимизации работы сайта (скорость загрузки, оптимизация DOM).\n\n📍Требования:\n▪️ Опыт разработки от 2 лет;\n▪️ Знание JavaScript (jQuery в разумных пределах);\n▪️ Уверенное знание html семантическая верстка, БЭМ, SCSS;\n▪️ Знание работы GIT & NPM;\n▪️ Опыт работы с gulp/webpack;\n▪️ Опыт работы с Figma/Zeplin;\n▪️ Опыт работы с векторной графикой (svg и svg-спрайты).\n\n📍Желательно:\n◾️ Хорошее знание Vue.js и/или Angular 5+. Работать надо будет и с тем и с другим. Angular 5+ в приоритете, планируется переход полностью на него;\n◾️ Знание инструментов организации разработки Jira;\n◾️ Знание нюансов работы браузеров на разных устройствах и ОС;\n◾️ Опыт сео оптимизации;\n◾️ Понимание, что такое доступные интерфейсы;\n\n📍Условия:\n▫️ Комфортабельный офис, БЦ Light Tower, бесплатный шаттл от м. Площадь Ильича;\n▫️ Оформление по ТК РФ с первого рабочего дня;\n▫️ Гибкое начало рабочего дня, с 9 до 11;\n▫️ Возможность работать 1-2 дня удалённо;\n▫️ Полностью белая заработная плата;\n▫️ Неформальная атмосфера и дружный, амбициозный коллектив;\n▫️ Корпоративная скидка на изучение английского языка.\n\n📌 Контакт: @dianadoma","markup":[{"type":"hashtag","offset":0,"length":9,"data":"вакансия"},{"type":"hashtag","offset":10,"length":7,"data":"москва"},{"type":"hashtag","offset":18,"length":7,"data":"middle"},{"type":"hashtag","offset":26,"length":7,"data":"remote"},{"type":"hashtag","offset":34,"length":8,"data":"angular"},{"type":"hashtag","offset":43,"length":9,"data":"fulltime"},{"type":"hashtag","offset":53,"length":5,"data":"офис"},{"type":"link","offset":308,"length":11,"data":"http://Autospot.ru"},{"type":"link","offset":395,"length":7,"data":"http://Mail.ru"},{"type":"handle","offset":1970,"length":10,"data":"dianadoma"}],"date":"2020-07-02T07:28:49+00:00","link":"tg://resolve?domain=javascript_jobs_feed&post=16506","tags":[{"name":"javascript"},{"name":"angularjs"},{"name":"php"},{"name":"jquery"},{"name":"html"},{"name":"git"},{"name":"npm"},{"name":"gulp"},{"name":"webpack"},{"name":"svg"},{"name":"vuejs"}],"cities":[{"code":"moscow"}],"allowsRemote":true}},{"node":{"__typename":"Job","id":"26927431680-1001075660570","title":"Php разработчик","text":"#php #вакансия #удалёнка \n\nPHP Engineer\nФормат работы: #fulltime #remote\nЗарплата: $ 40 000 - 50 000 в год\nГород: удаленно\n\nНебольшая, но быстро растущая студия разработки из Лондона ищет PHP-ниндзю. На нашем счету много успешных проектов, большая часть которых — британские. \n\nТребования:\n— Опыт в разработке не менее 3 лет;\n— Знание PHP как родного,\n— Знание SQL, особенно MySQL или PostgreSQL \n— Понимание HTML/CSS;\n— Быть знакомым с PHP MVC Framework, JavaScript (and jQuery);\n— Опыт в Version Control (Git);\n— Опыт с Bash and Unix (обычно мы используем Ubuntu 16.04) \n— Уровень английского С2;\n— Опыт с алгоритмами приветствуется;\n— Большим плюсом будет знание Laravel (или хотя бы Symfony), фреймворки CakePHP, Zend, CodeIgniter тоже ок, но все равно потребуется освоить Laravel.\n\nЧтобы откликнуться, необходимо пройти короткий отбор по ссылке https://6nomads.com/ (обязательное условие найма🤷‍♀️)\n\nКонтакт для связи @temnik_sofya","markup":[{"type":"hashtag","offset":0,"length":4,"data":"php"},{"type":"hashtag","offset":5,"length":9,"data":"вакансия"},{"type":"hashtag","offset":15,"length":9,"data":"удалёнка"},{"type":"hashtag","offset":55,"length":9,"data":"fulltime"},{"type":"hashtag","offset":65,"length":7,"data":"remote"},{"type":"link","offset":85,"length":15,"data":"tel:40 000 - 50 000"},{"type":"link","offset":850,"length":20,"data":"https://6nomads.com/"},{"type":"handle","offset":924,"length":13,"data":"temnik_sofya"}],"date":"2020-07-01T17:36:31+00:00","link":"tg://resolve?domain=php_jobs&post=25680","tags":[{"name":"php"},{"name":"sql"},{"name":"mysql"},{"name":"postgresql"},{"name":"html"},{"name":"css"},{"name":"javascript"},{"name":"jquery"},{"name":"git"},{"name":"bash"},{"name":"unix"},{"name":"ubuntu"},{"name":"laravel"},{"name":"symfony"},{"name":"cakephp"},{"name":"zend-framework"},{"name":"codeigniter"}],"cities":[],"allowsRemote":true}},{"node":{"__typename":"Job","id":"17293115392-1001110946746","title":"Js разработчик","text":"#вакансия #СПБ #Питер #frontend #developer #middle #react #angular #remote #фултайм  \n\nВсем привет. Мы - компания Useidpro , разрабатываем и улучшаем свой IT продукт, сервис для крупнейших мировых digital агентств с 2017 года и у нас крутая и дружная команда. Приглашаем к нам в команду Питерского офиса Front-end разработчика уровня middle. В работе будет разработка и доработка IT сервиса компании.\n\n⚡️Важно по опыту: \n• Опыт коммерческой разработки на Front-end - от 2х лет\nИ уверенный опыт работы с:\n• React.js / Angular 5+\n• Html5\n• Css3\n• UI Material / Angular Material\n• Selenoid / Selenium\n• e2e testing experience.\n\n💻Условия работы:\n• Удаленный формат работы, с возможностью иногда приезжать на встречи в офис \n• Гибкий график, пятидневная рабочая неделя (5/2), с загрузкой на 25-30 часов в неделю\n• Комфортный офис в Питере, недалеко от м. Чернышевская (соответственно по локации вы можете быть: Питер - пригород)\n• ЗП - от 80-100 тыс +, готовы услышать Ваши ожидания и обсудить итоговую сумму на интервью, от опыта кандидата \n• Интересные задачи и возможность профессионального роста\n• Сильная и дружная команда.\n\n👍 Отправить резюме и задать вопросы можно тут: @Irina_Poddubnaya и на i.poddubnaya@looking4.ru","markup":[{"type":"hashtag","offset":0,"length":9,"data":"вакансия"},{"type":"hashtag","offset":10,"length":4,"data":"СПБ"},{"type":"hashtag","offset":15,"length":6,"data":"Питер"},{"type":"hashtag","offset":22,"length":9,"data":"frontend"},{"type":"hashtag","offset":32,"length":10,"data":"developer"},{"type":"hashtag","offset":43,"length":7,"data":"middle"},{"type":"hashtag","offset":51,"length":6,"data":"react"},{"type":"hashtag","offset":58,"length":8,"data":"angular"},{"type":"hashtag","offset":67,"length":7,"data":"remote"},{"type":"hashtag","offset":75,"length":8,"data":"фултайм"},{"type":"handle","offset":1174,"length":17,"data":"Irina_Poddubnaya"},{"type":"link","offset":1197,"length":24,"data":"mailto:i.poddubnaya@looking4.ru"}],"date":"2020-07-01T11:40:48+00:00","link":"tg://resolve?domain=javascript_jobs_feed&post=16492","tags":[{"name":"javascript"},{"name":"reactjs"},{"name":"angularjs"},{"name":"html"},{"name":"css"},{"name":"selenium"}],"cities":[],"allowsRemote":true}},{"node":{"__typename":"Job","id":"104120451072-1001089317451","title":"Qa инженер","text":"#вакансия #middle #офис #fulltime #Москва \n\nВсем привет!\nВ связи с ростом проектов открыта вакансия Специалиста по тестированию/ QC в международную продуктовую финтех компанию CMA. Занимаются разработкой платежных систем, работающих на национальных масштабах.\n\nСейчас их решениями пользуются более 40-ка компаний в России (ВТБ24, Банк России, Московская Биржа и т.д.) и более 100 клиентов и за рубежом.\n\nЧем предстоит заниматься:\n- Практическое применение методик тест-дизайна и анализа тестового покрытия;\n- Проведение ручного тестирования (50%) и участие в разработке автоматизированных тестов (50%);\n- Анализ проектной документации, разработка тест-кейсов, чек-листов;\n- Анализ и заведение багов в Jira.\nЧто хотели бы видеть в профиле кандидата:\n- Опыт написания авто-тестов ( Java, Java Script, XSLT, HTML) + работа с фрэймворком для автоматизации тестирования ;\n- Знание основ SQL(на уровне простых запросов), практика работы с XML;\n- Опыт работы с программными продуктами: Oracle Database, VirtualBox, Jira, Confluence, Git, Toad, WireShark, багтрекерами или ALM системами (JIRA, HP ALM и другие).\nЧто готовы предложить:\n- Заработная плата от 100 000 net;\n- Гибкое начало рабочего дня;\n- Офис на станции метро Динамо, бесплатный автобус до БЦ;\n- Наличие свободных парковочных мест рядом с БЦ;\n- Оплата обедов;\n- Страхование жизни и для поездок за пределы РФ.\n\nЕсли вакансия заинтересовала, можете откликаться на HH: https://hh.ru/vacancy/37770841\nИли пишите в ЛС @astarichkova","markup":[{"type":"hashtag","offset":0,"length":9,"data":"вакансия"},{"type":"hashtag","offset":10,"length":7,"data":"middle"},{"type":"hashtag","offset":18,"length":5,"data":"офис"},{"type":"hashtag","offset":24,"length":9,"data":"fulltime"},{"type":"hashtag","offset":34,"length":7,"data":"Москва"},{"type":"bold","offset":100,"length":31,"data":""},{"type":"bold","offset":176,"length":3,"data":""},{"type":"bold","offset":404,"length":26,"data":""},{"type":"bold","offset":707,"length":42,"data":""},{"type":"bold","offset":1104,"length":23,"data":""},{"type":"italic","offset":1366,"length":116,"data":""},{"type":"link","offset":1422,"length":30,"data":"https://hh.ru/vacancy/37770841"},{"type":"handle","offset":1469,"length":13,"data":"astarichkova"}],"date":"2020-07-01T08:46:53+00:00","link":"tg://resolve?domain=qa_jobs&post=99297","tags":[{"name":"qa"},{"name":"java"},{"name":"xslt"},{"name":"html"},{"name":"sql"},{"name":"xml"},{"name":"oracle"},{"name":"git"},{"name":"dotnet"}],"cities":[{"code":"moscow"}],"allowsRemote":false}},{"node":{"__typename":"Job","id":"17281581056-1001110946746","title":"Javascript разработчик","text":"#вакансия #javascript #typescript \n\nFrontend-разработчик (удаленно или в офисе)\n\nBlogman\n\nГород и адрес офиса: \n— Санкт-Петербург\nФормат работы:           \n— офис в Санкт-Петербурге или удаленка по России \nЗанятость:                     \n— полная / full time\nЗарплатная вилка:       \n— от 80 000 до 300 000 рублей\n\nОсновной стек технологий — JavaScript, TypeScript, HTML/CSS. Сейчас мы разрабатываем бизнес-функционал приложения и будем рады новому специалисту в нашей команде, который вольется в проект и мы вместе будем делать frontend с нативным кодом и отзывчивым интерфейсом.\n\nМы ожидаем, что у вас есть:\n🔹Опыт коммерческой разработки от 3 лет\n🔹Хорошее знание JavaScript, TypeScript, HTML/CSS;\n\nРады предложить:\n🔹Возможность работать удаленно;\n🔹Желаемый оклад по результатам собеседования;\n🔹Cистему роста зарплаты каждые 6 месяцев\n\nКонтакт: @alinablogman\nhttps://spb.hh.ru/employer/3069197?customDomain=","markup":[{"type":"hashtag","offset":0,"length":9,"data":"вакансия"},{"type":"hashtag","offset":10,"length":11,"data":"javascript"},{"type":"hashtag","offset":22,"length":11,"data":"typescript"},{"type":"handle","offset":851,"length":13,"data":"alinablogman"},{"type":"link","offset":865,"length":48,"data":"https://spb.hh.ru/employer/3069197?customDomain="}],"date":"2020-07-01T07:49:17+00:00","link":"tg://resolve?domain=javascript_jobs_feed&post=16481","tags":[{"name":"javascript"},{"name":"typescript"},{"name":"html"},{"name":"css"}],"cities":[],"allowsRemote":true}}]}}},"context":{}}