{"hash":"f5f6bf98bd95e769321482904cbbd488f77922fd","data":{"records":{"id":"russia/moscow","country":{"code":"russia","ruName":"Россия","enName":"Russia"},"city":{"code":"moscow","ruName":"Москва","enName":"Moscow"},"belongsTo":{"totalCount":476,"pageInfo":{"totalPages":48,"currentPage":3},"edges":[{"node":{"__typename":"Job","id":"104322826240-1001089317451","title":"Qa engineer","text":"#вакансия #Москва #офис #fulltime #QA \n\nВсем привет! \nИщем QA Engineer ( web и мобилка)\n\nКомпания: банк \"Открытие\"\nМосква, м Динамо\n💰 до 135 тыс. гросс\n\nОсновные задачи:\nТестирование ДБО для юридических лиц, разработка собственного фреймворка\n\nТребования:\n- опыт выполнения простых задачах в автотестировании на Java;\n- хороший бэкграунд в других видах тестирования;\n- знание Java (Selenium, Selenide).\n\n\nУсловия:\n-Отсутствие дресс-кода;\n-Льготное кредитование;\n-ДМС;\n-Корпоративный спорт.\n\nПо всем вопросам пишите @VickyKS","markup":[{"type":"hashtag","offset":0,"length":9,"data":"вакансия"},{"type":"hashtag","offset":10,"length":7,"data":"Москва"},{"type":"hashtag","offset":18,"length":5,"data":"офис"},{"type":"hashtag","offset":24,"length":9,"data":"fulltime"},{"type":"hashtag","offset":34,"length":3,"data":"QA"},{"type":"bold","offset":154,"length":17,"data":""},{"type":"bold","offset":245,"length":12,"data":""},{"type":"bold","offset":406,"length":9,"data":""},{"type":"handle","offset":516,"length":8,"data":"VickyKS"}],"date":"2020-07-03T07:02:51+00:00","link":"tg://resolve?domain=qa_jobs&post=99490","tags":[{"name":"qa"},{"name":"web"},{"name":"java"},{"name":"selenium"}],"cities":[{"code":"moscow"}],"allowsRemote":false}},{"node":{"__typename":"Job","id":"104309194752-1001089317451","title":"Qa инженер","text":"#moscow #москва #вакансия\n\nИщем QA инженера в британский стартап с российскими корнями copper.co. \n\nНам нужен человек, которому до всего будет дело :)\n\nВилка - от 1500 до 2200 usd\n\nЗадачи:\n — создание и поддержка функциональных и регрессионных тестов на JS на новый и существующий код.\n — проведение ручного тестирование web, мобильных и desktop приложений\n \n — контроль задачи на каждом этапе производственного цикла\n — релиз менеджмент: сбор и анализ требований, контроль качества реализации, управление процессом CI/CD\n — организация и поддержка процессов тестирования\n — поддержка account managers по техническим вопросам\n\nНеобходимые навыки:\n — опыт ручного тестирования web приложений\n — опыт автоматизированного тестирования\n — понимание процесса разработки\n — умение читать код\n — уметь пользоваться логами\n\nБудет плюсом:\n — разговорный и письменный английский \n — базовые навыки и желание развиваться в построении серверной инфраструктуры\n — опыт промышленной разработки\n\nО проекте:\n — Сервисно-ориентированная архитектура (SOA)\n — Backend на Scala/Java, фронтенд: ReactJS, нативные мобильные приложения, desktop на ElectronJS\n — AWS, CI/CD\n — Блокчейн, криптовалюты, финансовые инструменты\n\nПлюшки:\nВозможны командировки, совместные выезды с командой в Европу (мы , конечно, верим в то, что границы будут открыты :));\nДМС – депозит в клинике Медси;\nВ такое непростое время платим зарплату в $$;\nЛамповый офис с кухней в лофте на Тульской;\nНаш стартап – двухлетний продакшн, который имеет выручку от клиентов.\n\n Пишите в ЛС :)","markup":[{"type":"hashtag","offset":0,"length":7,"data":"moscow"},{"type":"hashtag","offset":8,"length":7,"data":"москва"},{"type":"hashtag","offset":16,"length":9,"data":"вакансия"},{"type":"link","offset":87,"length":9,"data":"http://copper.co"}],"date":"2020-07-02T21:43:14+00:00","link":"tg://resolve?domain=qa_jobs&post=99477","tags":[{"name":"qa"},{"name":"web"},{"name":"scala"},{"name":"java"},{"name":"reactjs"},{"name":"amazon-web-services"}],"cities":[{"code":"moscow"}],"allowsRemote":false}},{"node":{"__typename":"Job","id":"17338204160-1001110946746","title":"Js developer","text":"#вакансия \n\nГород и адрес офиса: Москва (Калужская) или remote\nФормат работы: удаленка\nЗанятость: проектная\nЗарплатная вилка: от 90000 до 140000 руб / мес, для опытных возможен part-time (4 часа в день)\nОписание вакансии: JavaScript Node.js Developer\n\n📲 Кто мы?\n\n→ Компания Axept занимается консалтингом и заказной разработкой программных продуктов.\n→ Наши клиенты – Интернет-компании, профессиональные стартапы и крупные корпорации (Россия, Европа, Сингапур, Японии, США).\n→ Текущий портфель проектов – Личные кабинеты, ERP, Поисковые системы, CRM, Dashboards, Социальные сети, мобильные приложения.\n→ Центр разработки находится в Москве. Но 70% сотрудников работают удалённо по всему миру.\n→ Ключевой момент — мы относимся к проектам наших клиентов ❤️, как к своим собственным, с любовью и максимальной ответственностью.\n→ Много лет команнда Axept развивает сообщества Node.js, React.js и Kubernetes в России.\n→ Мы искренне любим то, что делаем и постоянно улучшаемся. Более подробно здесь – www.axept.com/ru-ru/jobs\n\n🎸 Задачи:\n\n1. Разработка Backend для ERP-платформы (Node.js, TypeScript, PostgreSQL, Redis, Express.js, Knex.js, Passport)\n2. Реализация REST API по модели www.jsonapi.org\n3. Документирование разрабатываемого REST API на Swagger или Apiary \n4. Разработка WebSockets-интерфейса\n\n🏆 Для этого вам потребуется:\n\n1. Опыт работы с PostgreSQL и Redis на уровне прямых коннекторов и knex (включая миграции)\n2. Понимание базовых принципов построения отказоустойчивой архитектуры\n3. Взаимодействие с файловой системой\n4. Свободное владение TypeScript\n5. Опыт работы с Express.js, Sentry и логгерами (Bunyan)\n6. Ваши будущие коллеги на Front-end используют React.js, поэтому понимае React.js и Redux будет плюсом\n7. Желание и готовность активно развиваться 🙂\n\n🎁 Что мы предлагаем?\n\n1. Полнностью удаленная работа (remote).\n2. Сильная команда коллег.\n3. Проекты и задачи, которые реально развивают.\n4. Оформление по ТК РФ. ЗП два раза в месяц.\n5. Опционально – ДМС, конференции, тренинги.\n6. Возможность присоединниться в офисе в БЦ НеоГео (Калужская) – самом стильном и награждаемом БЦ Москвы. В офисе новая техника от iMac до Dell, завтраки, M&Ms и прочие радости.\n7. Быстрая прокачка и гордость за результаты достигнутые вместе.\n8. Админка в @nodejs_ru (шутка).\n\n📩 Напишите краткий рассказ о себе и приложение резюме, отправьте сообщение @DenisIzmaylov или на @AxeptJobs или jobs@ru.axept.com","markup":[{"type":"hashtag","offset":0,"length":9,"data":"вакансия"},{"type":"link","offset":995,"length":24,"data":"http://www.axept.com/ru-ru/jobs"},{"type":"link","offset":1178,"length":15,"data":"http://www.jsonapi.org"},{"type":"handle","offset":2258,"length":10,"data":"nodejs_ru"},{"type":"handle","offset":2355,"length":14,"data":"DenisIzmaylov"},{"type":"handle","offset":2377,"length":10,"data":"AxeptJobs"},{"type":"link","offset":2392,"length":17,"data":"mailto:jobs@ru.axept.com"}],"date":"2020-07-02T18:48:53+00:00","link":"tg://resolve?domain=javascript_jobs_feed&post=16535","tags":[{"name":"javascript"},{"name":"nodejs"},{"name":"reactjs"},{"name":"kubernetes"},{"name":"typescript"},{"name":"postgresql"},{"name":"redis"},{"name":"express"},{"name":"rest"},{"name":"swagger"},{"name":"redux"},{"name":"react-redux"}],"cities":[{"code":"moscow"},{"code":"singapore"}],"allowsRemote":true}},{"node":{"__typename":"Job","id":"2280652800-1001134745498","title":"Devops инженер","text":"#вакансия #DevOps\n\nЛокация: Москва, м. Савёловская\nФормат работы: до середины июля удаленка, затем офис с возможной частичной удаленкой после испытательного срока\nЗанятость: полная\nЗарплатная вилка: от 180.000 до 300.000 на руки\n\nМедицинская компания, которая разрабатывает технологичные страховые и сервисные продукты для людей и для бизнеса ищет себе крутого DevOps инженера.\n\nЕще пару лет назад у них не было процесса CI/CD, инфраструктуры, боевой код разворачивался через git pull на продакшне, все было на одной виртуалке и т.д. и т.п.\nНа сегодняшний день есть CI, Infrastructure-as-a-Code, мониторинг и алертинг, а также докеризация.\nБизнес и команда очень сильно выросли: в 2,5 раза за 2018 год. Сейчас компания занимает 2ое место по количеству пациентов среди insurtech компаний в Европе.\nВ планах поднимать новые сервисы, масштабироваться вертикально и горизонтально, ускорять CI, внедрять CD и новые инструменты в инфраструктуру.\n\nЧтобы осуществить все задуманное, ребятам нужен человек, который сможет развивать культуру DevOps в команде.\n\nСтек технологий:\n\n➖Backend: Python 3.7, Django, Flask, aiohttp;\n➖Frontend: TypeScript, React;\n➖Mobile: React Native;\n➖Ubuntu 18.04, PostgreSQL (9.6), Redis, ElasticSearch;\n➖Nginx, Docker, Ansible;\n➖Kibana (ELK), Sentrу, Prometheus, Grafana;\n➖GitLab + GitLab CI, Selectel, servers.ru.\n\nЧто нужно будет делать:\n\n➖Ускорить CI, сборку, деплой и улучшить его инструменты;\n➖Сделать сервисы быстрее и надёжнее;\n➖Поддерживать существующую инфраструктуру;\n➖Мониторить ошибки в бою и исправлять их;\n➖Разрабатывать инструменты автоматизации для команд.\n\nОт кандидата:\n\n➖Знание Docker;\n➖Отличное знание Linux и окружения;\n➖Опыт работы с системами управления конфигурацией Chef, Puppet, Ansible или Salt (мы используем Ansible);\n➖Знание bash/Python;\n➖Опыт работы с Django приложениями будет плюсом;\n➖Опыт работы с ELK будет плюсом.\n\nПочему будет круто:\n\n➖Работаем по гибкому графику, для нас главное — результат;\n➖Отправляем на конференции и митапы, даже международные;\n➖Мы меняем рынок медицинского страхования, и у нас это отлично получается;\n➖Мы собрали команду очень талантливых и мотивированных людей;\n➖У вас будет необходимое для работы железо;\n➖Вы получите медицинское обслуживание через нашу систему. И это в разы лучше, чем стандартный ДМС :)\n➖Вы будете работать в крутом лофте у метро Савеловская. До середины июля удаленно;\n➖Cкидки на занятия английским языком, фитнес и путешествия.\n\nНазвание компании: GMS Services (ссылка на сайт — https://bit.ly/2BY7kc7)\n\nКонтакты: @diana_gms\n\n—\n\n👉 Обсуждение вакансии в чате @devops_jobs","markup":[{"type":"hashtag","offset":0,"length":9,"data":"вакансия"},{"type":"hashtag","offset":10,"length":7,"data":"DevOps"},{"type":"link","offset":1324,"length":10,"data":"http://servers.ru"},{"type":"link","offset":2485,"length":22,"data":"https://bit.ly/2BY7kc7"},{"type":"handle","offset":2520,"length":10,"data":"diana_gms"},{"type":"handle","offset":2565,"length":12,"data":"devops_jobs"}],"date":"2020-07-02T18:19:38+00:00","link":"tg://resolve?domain=devops_jobs_feed&post=2175","tags":[{"name":"git"},{"name":"python"},{"name":"django"},{"name":"flask"},{"name":"typescript"},{"name":"reactjs"},{"name":"mobile"},{"name":"ubuntu"},{"name":"postgresql"},{"name":"redis"},{"name":"elasticsearch"},{"name":"nginx"},{"name":"docker"},{"name":"ansible"},{"name":"gitlab"},{"name":"linux"},{"name":"bash"},{"name":"react-native"}],"cities":[{"code":"moscow"}],"allowsRemote":true}},{"node":{"__typename":"Job","id":"2279604224-1001134745498","title":"Devops инженер","text":"#вакансия\nГород: Москва, ст м Динамо, есть возможность частично работать удаленно\nЗанятость: полный рабочий день\nВилка от 150 тыс.руб. до 250 тыс. руб. \nОписание: Ищем Dev-Ops-инженера в крупный банк, с частично удаленной работой (офис в Москве, ст.м. Динамо): нужен опыт работы с Kubernetes, с Linux серверами (Centos,RHEL)\n· Хорошее знание инструментов DevOps (Docker, Jenkins/TeamCity, Ansible/Salt/Puppet/Chef), понимание принципов DevSecOps;\n· Опыт настройки веб-серверов (Apache, Nginx, JBoss/WildFly, Glassfish)\nКомпания: Новэлект, работа в Банке. \nКонтакт: +79269777845, Телеграм/ вотсапп, Юлия\n\n—\n\n👉 Обсуждение вакансии в чате @devops_jobs","markup":[{"type":"hashtag","offset":0,"length":9,"data":"вакансия"},{"type":"link","offset":565,"length":12,"data":"tel:+79269777845"},{"type":"handle","offset":637,"length":12,"data":"devops_jobs"}],"date":"2020-07-02T18:16:20+00:00","link":"tg://resolve?domain=devops_jobs_feed&post=2174","tags":[{"name":"kubernetes"},{"name":"linux"},{"name":"centos"},{"name":"docker"},{"name":"jenkins"},{"name":"ansible"},{"name":"apache"},{"name":"nginx"},{"name":"jboss"}],"cities":[{"code":"moscow"}],"allowsRemote":true}},{"node":{"__typename":"Job","id":"2278555648-1001134745498","title":"Devops инженер","text":"#вакансия #devops #docker #kubernetes\nВакансия: Devops\nГород: Москва, м. Марьина Роща\nФормат работы: офис\nЗанятость: полная\nЗарплатная вилка: от 150 до 200к\n\nTalentTech — это IT-холдинг, быстрорастущий стартап. \nТебе предстоит присоединиться к команде разработки EdTech продуктов, которая будет выводить Foxford.ru в общеобразовательные школы, и помогать детям учиться и развиваться.\n\nЧем тебе предстоит заниматься:\n🔸поддержание текущей серверной инфраструктуры\n🔸настройка и деплой web-приложений\n🔸автоматизация настройки и управления серверами\n🔸мониторинг серверов и приложений\n\nЧто мы ждем от тебя:\n🔹опыт администрирования Linux (Ubuntu)\n🔹опыт написания скриптов на bash\n🔹опыт администрирования open source приложений (веб-серверы, базы данных, и т.д.)\n🔹опыт работы с реляционными базами данных (обновление, восстановление данных)\n🔹умение составлять и вести документацию\n\nПлюсом будет:\n▪️знание скриптовых языков (shell, python или ruby)\n▪️опыт установки, настройки, мониторинга основных сетевых сервисов (почта, DNS, NAT, firewall, VPN)\n▪️опыт настройки окружения и деплоя rails-приложений (capistrano, nginx+unicorn)\n▪️опыт работы с Docker и Kubernetes\n▪️навыки в сфере автоматизации процессов настройки и управления серверами (puppet, ansible, chef)\n\nЧто предлагаем?\n🟣ДМС, комфортный рабочий график, бонусы от компании\n\nНазвание компании: TalentTech \n\nКонтакты: @yulianka_95\n\n—\n\n👉 Обсуждение вакансии в чате @devops_jobs","markup":[{"type":"hashtag","offset":0,"length":9,"data":"вакансия"},{"type":"hashtag","offset":10,"length":7,"data":"devops"},{"type":"hashtag","offset":18,"length":7,"data":"docker"},{"type":"hashtag","offset":26,"length":11,"data":"kubernetes"},{"type":"link","offset":304,"length":10,"data":"http://Foxford.ru"},{"type":"handle","offset":1377,"length":12,"data":"yulianka_95"},{"type":"handle","offset":1424,"length":12,"data":"devops_jobs"}],"date":"2020-07-02T18:12:38+00:00","link":"tg://resolve?domain=devops_jobs_feed&post=2173","tags":[{"name":"docker"},{"name":"kubernetes"},{"name":"web"},{"name":"linux"},{"name":"ubuntu"},{"name":"bash"},{"name":"shell"},{"name":"python"},{"name":"ruby"},{"name":"dns"},{"name":"ruby-on-rails"},{"name":"nginx"},{"name":"ansible"}],"cities":[{"code":"moscow"}],"allowsRemote":false}},{"node":{"__typename":"Job","id":"17337155584-1001110946746","title":"Js разработчик","text":"#вакансия #node.js #typescript #офис #москва #мск #remote #удаленка \nГород и адрес офиса:  #москва #мск  #арбатская\nФормат работы: офис, фултайм, гибкий график, можно удаленно (с редкими встречами в мск, поэтому важно, чтобы вы жили не очень далеко от мск)\nЗанятость: полная\nЗарплатная вилка: 180-250 т.р. net \nОписание вакансии: \nИщу сейчас Node.js разработчика в финтех проект (Openbanking, psd2) -  это новый продукт в онлайн покупках на европейском рынке, со своей «платежкой», которое сделает эту сферу более технологичной и еще проще и доступнее для пользователей:\n- новое удобное решение для b2c клиентов (мобильное приложение)\n- выгодные условия для b2b партнеров (низкие комиссии за транзакции)\n\nОформление белое, проект полностью с нуля, только собираем команду, есть возможность максимального влияния на продукт, на выбор технологий и построение процессов.\n\nНазвание компании:  Star-Staff\nКонтакты: пишите на этот тг @yuliaataman","markup":[{"type":"hashtag","offset":0,"length":9,"data":"вакансия"},{"type":"hashtag","offset":10,"length":5,"data":"node"},{"type":"hashtag","offset":19,"length":11,"data":"typescript"},{"type":"hashtag","offset":31,"length":5,"data":"офис"},{"type":"hashtag","offset":37,"length":7,"data":"москва"},{"type":"hashtag","offset":45,"length":4,"data":"мск"},{"type":"hashtag","offset":50,"length":7,"data":"remote"},{"type":"hashtag","offset":58,"length":9,"data":"удаленка"},{"type":"hashtag","offset":91,"length":7,"data":"москва"},{"type":"hashtag","offset":99,"length":4,"data":"мск"},{"type":"hashtag","offset":105,"length":10,"data":"арбатская"},{"type":"handle","offset":928,"length":12,"data":"yuliaataman"}],"date":"2020-07-02T17:44:34+00:00","link":"tg://resolve?domain=javascript_jobs_feed&post=16534","tags":[{"name":"javascript"},{"name":"nodejs"},{"name":"typescript"},{"name":"dotnet"}],"cities":[{"code":"moscow"}],"allowsRemote":true}},{"node":{"__typename":"Job","id":"72579284992-1001054966032","title":"Mobile разработчик","text":"#вакансия #работа #android #kotlin #Москва #удаленка #remote #офис #mobile\nГород: Москва\nФормат работы: офис или удаленка\nЗанятость: полная, частичная, проектная, обсуждаем все варианты\nЗарплатная вилка: от 150 000 до 300 000 рублей\nКонтакты: 📲 @d_aleshina\n📧d.aleshina@ancor.ru\n\nТребования: Коммерческий опыт разработки на Android от 2-х лет\n\nОписание вакансии: Ищем мобильных разработчиков на несколько крупных FinTech-проектов (всегда есть возможность выбрать наиболее вам интересный), текущих или со стартом через 1-2 месяца и далее. \n\nУсловия:\n🔸У нас 100% белая зп (фиксированный оклад), ДМС со стоматологией, международной страховкой, оплачиваемая мобильная связь.  \n🔸По доходу и условиям мы гибкие, готовы договариваться с вами, отталкиваемся от пожеланий.  \n🔸Есть возможности роста по уровню дохода, по роли в проектах, а также возможность выбрать альтернативный проект, перейти в новую команду. \n\nКомпания: ANCOR FinTech https://ancor.ru\nЗа подробностями пишите 📲@d_aleshina","markup":[{"type":"hashtag","offset":0,"length":9,"data":"вакансия"},{"type":"hashtag","offset":10,"length":7,"data":"работа"},{"type":"hashtag","offset":18,"length":8,"data":"android"},{"type":"hashtag","offset":27,"length":7,"data":"kotlin"},{"type":"hashtag","offset":35,"length":7,"data":"Москва"},{"type":"hashtag","offset":43,"length":9,"data":"удаленка"},{"type":"hashtag","offset":53,"length":7,"data":"remote"},{"type":"hashtag","offset":61,"length":5,"data":"офис"},{"type":"hashtag","offset":67,"length":7,"data":"mobile"},{"type":"bold","offset":75,"length":5,"data":""},{"type":"bold","offset":89,"length":13,"data":""},{"type":"bold","offset":122,"length":11,"data":""},{"type":"bold","offset":186,"length":17,"data":""},{"type":"bold","offset":233,"length":9,"data":""},{"type":"handle","offset":246,"length":11,"data":"d_aleshina"},{"type":"link","offset":258,"length":23,"data":"http://%F0%9F%93%A7d.aleshina@ancor.ru/"},{"type":"bold","offset":281,"length":12,"data":""},{"type":"bold","offset":345,"length":19,"data":""},{"type":"bold","offset":541,"length":9,"data":""},{"type":"bold","offset":910,"length":10,"data":""},{"type":"link","offset":934,"length":16,"data":"https://ancor.ru"},{"type":"handle","offset":977,"length":11,"data":"d_aleshina"}],"date":"2020-07-02T17:38:29+00:00","link":"tg://resolve?domain=mobile_jobs&post=69217","tags":[{"name":"mobile"},{"name":"android"},{"name":"kotlin"}],"cities":[{"code":"moscow"}],"allowsRemote":true}},{"node":{"__typename":"Job","id":"17334009856-1001110946746","title":"Js developer","text":"#вакансия #fulltime #backend #js #node\nBackend developer\nГород: Москва\nФормат работы: удаленная работа \nЗанятость: полная\nДиапазон: от 250 до 700 руб./ч\n\nОписание вакансии: Проект связан с сферой обучения. Задачи разработкa rest api и базы данных.\nСтек технологий: \n-node.js;\n- express.js;\n- sockets.\n\nКомпания: Secreate\nКонтакты: telegram @karysha","markup":[{"type":"hashtag","offset":0,"length":9,"data":"вакансия"},{"type":"hashtag","offset":10,"length":9,"data":"fulltime"},{"type":"hashtag","offset":20,"length":8,"data":"backend"},{"type":"hashtag","offset":29,"length":3,"data":"js"},{"type":"hashtag","offset":33,"length":5,"data":"node"},{"type":"handle","offset":340,"length":8,"data":"karysha"}],"date":"2020-07-02T16:35:35+00:00","link":"tg://resolve?domain=javascript_jobs_feed&post=16531","tags":[{"name":"javascript"},{"name":"nodejs"},{"name":"rest"},{"name":"express"}],"cities":[{"code":"moscow"}],"allowsRemote":true}},{"node":{"__typename":"Job","id":"17331912704-1001110946746","title":"Js разработчик","text":"Greenatom.ru\n#вакансия #Москва #javascript #React #Typescript #Node.js #Middle #Senior #удаленка #удаленная работа \n\n👨🏼‍💻 Middle/Senior Frontend Developer, Middle/Senior Backend Developer\nГород и адрес офиса: #Москва, БЦ Сириус Парк, метро Нагатинская\n\n✅Формат работы: \nУДАЛЕННАЯ РАБОТА\n\n💻Занятость: полная, гибкое начало трудового дня.\n\nЗарплатная вилка: от 170 000 до 230 000 руб. на руки.\n\n🏢Компания: АО Гринатом\n\nПривет! Мы растём и активно развиваем ряд внутренних проектов: например, корпоративный портал, горячая линия, собственная кадровая система для 400 предприятий! \nМы формируем НЕСКОЛЬКО КОМАНД, общей численностью более 60 человек и ищем классных:\n\n✅ФРОНТЕНД  разработчиков;\n\n✅БЭКЕНД разработчиков. \n\nПроекты в стадии разработки пилота и у тебя есть возможность повлиять на дальнейшее развитие продукта. Если у тебя есть крутые идеи - ты сможешь их здесь реализовать! Откликайся сам и зови друзей! Вирус пройдёт, работа останется!\n\n✅Требуемые знания и навыки:\n- Опыт разработки от двух лет\n- Хорошее знание чистого JS\n- Опыт работы с TypeScript\n- React, MobX, Less/Sass\n- Опыт написания юнит-тестов с помощью Jest, Enzymе очень приветствуется\n\n💡Наш стек:\n      React, TypeScript, Node.js, MobX, Docker\n\nМы работаем по Scrum.\n\n✅Условия:\n- Полная удаленка \n(Если тебе нравится работать в офисе, мы не против)\n- Официальное оформление в штат по ТК, белая зп;\n- Бессрочный трудовой договор; \n- Годовой бонус;\n- Возможности профессионального и карьерного роста;\n- Дополнительные 3 дня к отпуску;\n- Плавающее начало дня;\n- ДМС со стоматологией.\n\n☎️Контакты:\nЮлия - YAnZueva@Greenatom.ru","markup":[{"type":"link","offset":0,"length":12,"data":"http://Greenatom.ru"},{"type":"hashtag","offset":13,"length":9,"data":"вакансия"},{"type":"hashtag","offset":23,"length":7,"data":"Москва"},{"type":"hashtag","offset":31,"length":11,"data":"javascript"},{"type":"hashtag","offset":43,"length":6,"data":"React"},{"type":"hashtag","offset":50,"length":11,"data":"Typescript"},{"type":"hashtag","offset":62,"length":5,"data":"Node"},{"type":"hashtag","offset":71,"length":7,"data":"Middle"},{"type":"hashtag","offset":79,"length":7,"data":"Senior"},{"type":"hashtag","offset":87,"length":9,"data":"удаленка"},{"type":"hashtag","offset":97,"length":10,"data":"удаленная"},{"type":"hashtag","offset":212,"length":7,"data":"Москва"},{"type":"link","offset":1579,"length":21,"data":"mailto:YAnZueva@Greenatom.ru"}],"date":"2020-07-02T16:34:22+00:00","link":"tg://resolve?domain=javascript_jobs_feed&post=16529","tags":[{"name":"javascript"},{"name":"reactjs"},{"name":"typescript"},{"name":"nodejs"},{"name":"sass"},{"name":"docker"}],"cities":[{"code":"moscow"}],"allowsRemote":true}}]}}},"context":{}}