{"hash":"f5f6bf98bd95e769321482904cbbd488f77922fd","data":{"records":{"id":"redis","name":"redis","belongsTo":{"totalCount":86,"pageInfo":{"totalPages":9,"currentPage":2},"edges":[{"node":{"__typename":"Job","id":"26951548928-1001075660570","title":"Php разработчик","text":"#вакансия #москва #офис #fulltime #yii2 #php #job\n\nВсем привет!\nСейчас нахожусь в поиске крутого разработчика :)\n\n Позиция: Senior PHP Developer\nЗанятость: полная\nКомпания: ТД ЦУМ \nЛокация: Москва\nЗ/П: до 280 000\n\n   Основные цели и задачи:\n- Разработка программных модулей продуктов компании;\n- Глубокое погружение в процессы работы интернет-магазина;\n- Участие в разработке сервис-ориентированной архитектуре приложения.\n\n   Основные обязанности:\n- Разработка и поддержка инфраструктуры интернет-проекта, мобильного приложения и внутренних сервисов компании;\n- Разработка программных модулей продуктов интернет магазина ЦУМ;\n- Оптимизация приложения под высокую нагрузку, масштабирование, поиск узких мест;\n- Интеграция со сторонними сервисами;\n- Предложение и внедрение высокотехнологичных, инновационных решений.\n\nТребования:\n- Отличное знание и опыт работы с PHP 7 от 3 лет;\n- Понимание как устроен HTTP, REST;\n- Знание и понимание MVC архитектуры;\n- Знание и опыт работы фреймворком YII;\n- Опыт работы с одной или несколькими БД: MySQL, Redis, Mongo;\n- Опыт мониторинга и оптимизации SQL-запросов;\n\n   Условия работы:\n- Полный рабочий день  (гибкое утро - возможность начала рабочего дня с 9:00 до 12:00)\n- Официальное оформление по трудовому договору.\n- Офис в центре Москвы.\n- ДМС.\n- Корпоративное обучение.\n- Скидки от партнеров компании.\n\nЕсли остались вопросы, с радостью отвечу:\n @nastyaklassnaya","markup":[{"type":"hashtag","offset":0,"length":9,"data":"вакансия"},{"type":"hashtag","offset":10,"length":7,"data":"москва"},{"type":"hashtag","offset":18,"length":5,"data":"офис"},{"type":"hashtag","offset":24,"length":9,"data":"fulltime"},{"type":"hashtag","offset":34,"length":5,"data":"yii2"},{"type":"hashtag","offset":40,"length":4,"data":"php"},{"type":"hashtag","offset":45,"length":4,"data":"job"},{"type":"handle","offset":1392,"length":16,"data":"nastyaklassnaya"}],"date":"2020-07-02T09:26:49+00:00","link":"tg://resolve?domain=php_jobs&post=25703","tags":[{"name":"php"},{"name":"yii"},{"name":"rest"},{"name":"mysql"},{"name":"redis"},{"name":"sql"}],"cities":[{"code":"moscow"}],"allowsRemote":false}},{"node":{"__typename":"Job","id":"364904448-1001352129329","title":"Golang разработчик","text":"#вакансия #Golang #middle #Senior #Moscow \n\nНазвание компании: Loft\nНазвание вакансии: Golang разработчик \nЗарплатная вилка 100-180 тыс/мес\nГород: Москва\nСписок языков, которые необходимо знать: Русский, Английский (на уровне чтения тех. документации)\nФотрмат работы: офис\n\nПриложение для знакомств LOFT (https://loft-app.com/) - это простой и безопасный способ расширить свой круг общения. Можно встречаться с мужчинами и девушками, которые находятся рядом с вами, или знакомиться с людьми по всему миру.\n\nИдея LOFT - адекватная аудитория, которая открыта к диалогу. Вы знаете тех, с кем общаетесь. \nКому подходит LOFT? Адекватной, современной, молодой аудитории, которая любит технологичные фишки и хочет узнавать людей ближе. \n\nМы - команда LOFT, и мы тоже современные, молодые и классные.\n\nЧто предстоит делать\nРабота над интересным проектом в небольшой компании (штат 28 человек).\nРазработка и поддержка backend для нового дейтинг-проекта.\nНаписание API для веб и мобильных приложений\nСоздание нагруженных сервисов с нуля.\n\n\nСтек технологий, которые мы используем:\n·      Backend: GO / MongoDB / Redis / WebSockets\n·      Frontend: Angular / Vue / Flutter / Swift \n·      PM: Git / Jira / Gitlab\n\nЧто нужно уметь\nОпыт программирования backend от 1 года\nУверенное владение Golang \nОбщее представление о том, как работать с очередями сообщений \nОпыт работы с базами данных разных типов\nУмение и желание покрывать код тестами\nОпыт оценки проектов и задач\nСпособность укладываться в оценки с разумной погрешностью\nЗнания английского языка на уровне чтения тех. документации\n\nУсловия и преимущества\nСложный и интересный проект\nПотенциал для роста, как специалиста\nКомандная работа\nКорпоративные мероприятия\nВ офисе без ограничений чай/кофе, печенье\nPlayStation\n\nКонтакты @Sandevl","markup":[{"type":"hashtag","offset":0,"length":9,"data":"вакансия"},{"type":"hashtag","offset":10,"length":7,"data":"Golang"},{"type":"hashtag","offset":18,"length":7,"data":"middle"},{"type":"hashtag","offset":26,"length":7,"data":"Senior"},{"type":"hashtag","offset":34,"length":7,"data":"Moscow"},{"type":"link","offset":305,"length":21,"data":"https://loft-app.com/"},{"type":"handle","offset":1771,"length":8,"data":"Sandevl"}],"date":"2020-07-02T08:22:20+00:00","link":"tg://resolve?domain=gogetajobfeed&post=348","tags":[{"name":"go"},{"name":"mongodb"},{"name":"redis"},{"name":"angularjs"},{"name":"vuejs"},{"name":"flutter"},{"name":"swift"},{"name":"git"},{"name":"gitlab"}],"cities":[{"code":"moscow"}],"allowsRemote":false}},{"node":{"__typename":"Job","id":"26903314432-1001075660570","title":"Php разработчик","text":"#вакансия  #fulltime #backend #мск #москва\nВакансия: backend-разработчик\nКомпания: Логистик Тайм\nГород: Москва\nФормат работы: #офис\nЗанятость: #полная\nЗарплата : от 160 000 до 250 000 ₽.                                                                                                                                                                                                                    \n\nПривет! Мы растем и активно развиваемся, поэтому ищем специалистов для работы в офисе нашей компании в Москве. Это отличная возможность реализовать свои навыки и прокачаться ещё больше в команде профессионалов. \n\n💡Основные обязанности:\n-Разработка новых сервисов компании.\n-Оптимизация и поддержка текущих продуктов.\n-Наш стек: PHP7, MySQL (Percona), Redis, MongoDB, RabbitMQ, YouTrack.\n\n💪Добро пожаловать в нашу команду если вы:\n-Имеете опыт разработки на PHP.\n-Умеете использовать Git.\n-Знаете ООП, умеете применять на практике паттерны проектирования.\n-Работали с MVC-фреймворками на базе PHP.\n\n🏆Мы предлагаем:\n-Уровень заработной платы зависит от пожеланий и профессионально уровня кандидата.\n-Поездки на ИТ-конференции, митапы, учебные курсы за счет компании.\n-Гибкое начало рабочего дня.\n-Возможность релокации в Европу.\n\nБуду рада Вашим вопросам и резюме:\n✍️  @hrkaterina \n📨 ekaterina.logistik@gmail.com","markup":[{"type":"hashtag","offset":0,"length":9,"data":"вакансия"},{"type":"hashtag","offset":11,"length":9,"data":"fulltime"},{"type":"hashtag","offset":21,"length":8,"data":"backend"},{"type":"hashtag","offset":30,"length":4,"data":"мск"},{"type":"hashtag","offset":35,"length":7,"data":"москва"},{"type":"hashtag","offset":126,"length":5,"data":"офис"},{"type":"hashtag","offset":143,"length":7,"data":"полная"},{"type":"italic","offset":400,"length":79,"data":""},{"type":"italic","offset":480,"length":5,"data":""},{"type":"italic","offset":486,"length":127,"data":""},{"type":"underline","offset":613,"length":2,"data":""},{"type":"bold","offset":615,"length":22,"data":""},{"type":"underline","offset":789,"length":2,"data":""},{"type":"bold","offset":791,"length":41,"data":""},{"type":"underline","offset":1000,"length":2,"data":""},{"type":"bold","offset":1002,"length":15,"data":""},{"type":"bold","offset":1231,"length":35,"data":""},{"type":"handle","offset":1270,"length":11,"data":"hrkaterina"},{"type":"link","offset":1286,"length":28,"data":"mailto:ekaterina.logistik@gmail.com"}],"date":"2020-07-01T09:31:33+00:00","link":"tg://resolve?domain=php_jobs&post=25657","tags":[{"name":"php"},{"name":"mysql"},{"name":"redis"},{"name":"mongodb"},{"name":"rabbitmq"},{"name":"git"}],"cities":[{"code":"moscow"}],"allowsRemote":false}},{"node":{"__typename":"Job","id":"26877100032-1001075660570","title":"Php разработчик","text":"#вакансия #Москва #офис #fulltime #middle #php #yii2 #ecommerce\n\nТехнический стeк 💪\n#PHP #Yii2 #Postgres #Mysql #Sphinx #GIT #Redis #Yandex.Clickhouse #RabbitMQ #Elasticsearch #Docker\n\nг. Москва Офис: м. Тульская (10 минут от метро)\n\n💰120 000 - 160 000 рублей\n\nПартнерская сеть Money4leads-  международная компания с отделениями не только в России, но и в странах СНГ и Европы.\nМы производим продукты под собственной торговой маркой, постоянно следим за их качеством. Огромным плюсом сотрудничества с нами, является то, что Money4leads обладает мощностями собственного колл-центра и развивает свою логистическую сеть: весь процесс от приема заявки до доставки товара конечному потребителю осуществляется сотрудниками нашей компании. Благодаря этому, партнерская сеть Money4leads - гарант качественного обслуживания.\n\nЗАДАЧКИ:\n\n🔸Проектирование и разработка новых сервисов Компании (CRM, биллинг, личный кабинет)\n🔸Оптимизация существующего проекта (оптимизация запросов, архитектурные решения)\n🔸Проектирование и разработка REST API\n\nНАВЫКИ: \n\n🔸Знание PHP (у нас PHP 7.2) + знание PosgreSQL \n🔸GIT на уровне использования через консоль и gui интерфейс;\n🔸Знание паттернов проектирования, а также умение их применять и не применять; ;\n🔸Опыт использования одного из современных PHP фреймворков и навык его практического применения (мы используем Yii 2);\n🔸Желателен опыт работы в коммерческой разработке\n🔸Самостоятельность, ориентация на результат.\n\nПлюсом будет еще Redis, Yandex.ClickHouse 😉\n\nПРЕДЛОЖЕНИЕ:\n\n🔸Работа над крупным международным проектом в дружной команде разработчиков;\n🔸Интересные, амбициозные задачи;\nСоблюдение ТК РФ;\n🔸Финансовая мотивация (оклад ) обсуждается с каждым кандидатов индивидуально, в зависимости от опыта и навыков;\n🔸Заработная плата без задержек 2 раза в месяц, индексация по результатам работы;\n🔸Работа в офисе (м. Тульская) график работы – 5/2 (гибкое начало рабочего дня).\n\nСВЯЗЬ:\n\n◾️  Telegram: - @darya_hr\n▪️ e-mail: - d.omelchenko@m4leads.com","markup":[{"type":"hashtag","offset":0,"length":9,"data":"вакансия"},{"type":"hashtag","offset":10,"length":7,"data":"Москва"},{"type":"hashtag","offset":18,"length":5,"data":"офис"},{"type":"hashtag","offset":24,"length":9,"data":"fulltime"},{"type":"hashtag","offset":34,"length":7,"data":"middle"},{"type":"hashtag","offset":42,"length":4,"data":"php"},{"type":"hashtag","offset":47,"length":5,"data":"yii2"},{"type":"hashtag","offset":53,"length":10,"data":"ecommerce"},{"type":"hashtag","offset":85,"length":4,"data":"PHP"},{"type":"hashtag","offset":90,"length":5,"data":"Yii2"},{"type":"hashtag","offset":96,"length":9,"data":"Postgres"},{"type":"hashtag","offset":106,"length":6,"data":"Mysql"},{"type":"hashtag","offset":113,"length":7,"data":"Sphinx"},{"type":"hashtag","offset":121,"length":4,"data":"GIT"},{"type":"hashtag","offset":126,"length":6,"data":"Redis"},{"type":"hashtag","offset":133,"length":7,"data":"Yandex"},{"type":"hashtag","offset":152,"length":9,"data":"RabbitMQ"},{"type":"hashtag","offset":162,"length":14,"data":"Elasticsearch"},{"type":"hashtag","offset":177,"length":7,"data":"Docker"},{"type":"handle","offset":1943,"length":9,"data":"darya_hr"},{"type":"link","offset":1966,"length":24,"data":"mailto:d.omelchenko@m4leads.com"}],"date":"2020-06-30T14:29:45+00:00","link":"tg://resolve?domain=php_jobs&post=25632","tags":[{"name":"php"},{"name":"yii"},{"name":"postgresql"},{"name":"mysql"},{"name":"git"},{"name":"redis"},{"name":"rabbitmq"},{"name":"elasticsearch"},{"name":"docker"},{"name":"rest"}],"cities":[{"code":"moscow"}],"allowsRemote":false}},{"node":{"__typename":"Job","id":"2265972736-1001134745498","title":"Devops инженер","text":"#вакансия #Remote #работаDevOps  #удаленка \nКомпания: IDG\nФормат работы: удаленка\nЗанятость: полная\nЗарплатная вилка: $2500 до $4000\n\n👋Всем привет. \nМы занимаемся разработкой собственных образовательных проектов, а также проектов для клиентов - технологических, финансовых и аудиторских компаний.\nСейчас мы ищем DevOps инженера в дополнение к нашей текущей DevOps-команде, который будет вместе с нами делать cross-cloud big-data/ai платформу для одного из наших крупных постоянных клиентов.\nУ нас всё в k8s. Помимо этого есть spark, несколько баз данных и еще куча всего интересного. Разворачиваем с помощью Terraform/Ansible/Helm\n\n📍Требования:\n\n- Опыт работы с AWS/Azure/GCE - от 2+ лет;\n- Опыт работы с Kubernetes - от 2+ лет\n- Опыт работы со Spark - от 1 года\n- Имеет опыт настройки и администрирования БД (Mongo, Redis, Rabbit, SQL Server, Postgres, MySQL, Elastic Search)\n- Опыт разработки на Python или других подобных языках;\n- Опыт организации процесса CI/CD (jenkins, teamcity).\n- Английский на уровне Intermediate и выше.\nБудет плюсом: \n\n- Опыт работы в крупных международных компаниях;\n- Опыт работы с технологиями Big Data;\n\n📌Что мы предлагаем:\n\n- Интересные задачи и возможность реализовать свой потенциал в международных проектах компании и внутренних стартапах;\n- Гибкий график (начало и конец рабочего дня согласовываются с менеджером и командой проекта)\n- Полностью удаленная работа\n- Дополнительные выплаты за профессиональные успехи\n\nКонтакт: @IDGAccount\n\n—\n\n👉 Обсуждение вакансии в чате @devops_jobs","markup":[{"type":"hashtag","offset":0,"length":9,"data":"вакансия"},{"type":"hashtag","offset":10,"length":7,"data":"Remote"},{"type":"hashtag","offset":18,"length":13,"data":"работаDevOps"},{"type":"hashtag","offset":33,"length":9,"data":"удаленка"},{"type":"handle","offset":1465,"length":11,"data":"IDGAccount"},{"type":"handle","offset":1511,"length":12,"data":"devops_jobs"}],"date":"2020-06-30T11:03:34+00:00","link":"tg://resolve?domain=devops_jobs_feed&post=2161","tags":[{"name":"cloud"},{"name":"ansible"},{"name":"amazon-web-services"},{"name":"azure"},{"name":"kubernetes"},{"name":"redis"},{"name":"rabbitmq"},{"name":"sql"},{"name":"postgresql"},{"name":"mysql"},{"name":"elasticsearch"},{"name":"python"},{"name":"jenkins"},{"name":"sql-server"}],"cities":[],"allowsRemote":true}},{"node":{"__typename":"Job","id":"26846691328-1001075660570","title":"Php разработчик","text":"#вакансия #москва #офис #fulltime #yii2 #php #job\n\nВсем привет!\nСейчас нахожусь в поиске крутого разработчика :)\n\n Позиция: Senior PHP Developer\nЗанятость: полная\nКомпания: ТД ЦУМ \nЛокация: Москва\nЗ/П: до 280 000\n\n   Основные цели и задачи:\n- Разработка программных модулей продуктов компании;\n- Глубокое погружение в процессы работы интернет-магазина;\n- Участие в разработке сервис-ориентированной архитектуре приложения.\n\n   Основные обязанности:\n- Разработка и поддержка инфраструктуры интернет-проекта, мобильного приложения и внутренних сервисов компании;\n- Разработка программных модулей продуктов интернет магазина ЦУМ;\n- Оптимизация приложения под высокую нагрузку, масштабирование, поиск узких мест;\n- Интеграция со сторонними сервисами;\n- Предложение и внедрение высокотехнологичных, инновационных решений.\n\nТребования:\n- Отличное знание и опыт работы с PHP 7 от 3 лет;\n- Понимание как устроен HTTP, REST;\n- Знание и понимание MVC архитектуры;\n- Знание и опыт работы фреймворком YII;\n- Опыт работы с одной или несколькими БД: MySQL, Redis, Mongo;\n- Опыт мониторинга и оптимизации SQL-запросов;\n\n   Условия работы:\n- Полный рабочий день  (гибкое утро - возможность начала рабочего дня с 9:00 до 12:00)\n- Официальное оформление по трудовому договору.\n- Офис в центре Москвы.\n- ДМС.\n- Корпоративное обучение.\n- Скидки от партнеров компании.\n\nЕсли остались вопросы, с радостью отвечу:\n @nastyaklassnaya","markup":[{"type":"hashtag","offset":0,"length":9,"data":"вакансия"},{"type":"hashtag","offset":10,"length":7,"data":"москва"},{"type":"hashtag","offset":18,"length":5,"data":"офис"},{"type":"hashtag","offset":24,"length":9,"data":"fulltime"},{"type":"hashtag","offset":34,"length":5,"data":"yii2"},{"type":"hashtag","offset":40,"length":4,"data":"php"},{"type":"hashtag","offset":45,"length":4,"data":"job"},{"type":"handle","offset":1392,"length":16,"data":"nastyaklassnaya"}],"date":"2020-06-30T07:36:11+00:00","link":"tg://resolve?domain=php_jobs&post=25603","tags":[{"name":"php"},{"name":"yii"},{"name":"rest"},{"name":"mysql"},{"name":"redis"},{"name":"sql"}],"cities":[{"code":"moscow"}],"allowsRemote":false}},{"node":{"__typename":"Job","id":"1767899136-1001091028994","title":"Java разработчик","text":"#Вакансия #Java #Spring #Москва #Middle #Senior\nЛокация #москва #динамо\nЗанятость #fulltime\nФормат #офис\n (временно удаленка до сентября)\nЗарплата 150 000 – 200 000 net\nВ компанию Информзащита. Мы ищем опытного Java-разработчика в высоконагруженный проект для крупного государственного заказчика. Аудитория проекта - вся Россия. 1,5 млн. пользователей, плановая нагрузка до 100 тыс. запросов в секунду.\nТехнический стек: Java 8, Spring Boot 2, PostgreSQL 9.6, RabbitMQ, Redis, микросервисная архитектура.\nСобеседование проводится в один этап (руководитель отдела + ведущий разработчик). Решение принимается за 1-2 дня.\nОбязанности:\n- Разработка компонентов микросервисной архитектуры для высоконагруженного проекта\n- Участие в проектировании архитектуры\nТребования:\n• Хорошие знания Java/Spring, PostgreSQL, ООП\nУсловия:\n- Работа в сильной, стабильной компании (ТОП 3 компаний России в сфере защиты информации по оценке CNews Analytics (2017г.);\n- Интересные задачи. Работа с крупными интересными проектами;\n- Зрелые процессы разработки, четкие роли в команде, методология agile;\n- Оформление в соответствии с ТК РФ (все выплаты в \"белую\");\n- Развитая система премирования;\n- Расширенный социальный пакет (ДМС через 6 месяцев работы, 100% оплачиваемый больничный);\n- Возможность гибкого начала/окончания рабочего дня (начало с 8 до 11, окно присутствия с 12 до 17);\n- Разнообразные программы обучения сотрудников;\n- Возможности для повышения квалификации и сертификации;\n- Дружный коллектив профессионалов, вся команда работает In-house;\n- Удобный современный офис класса А;\n- Полный рабочий инструментарий;\n- Кофе, чай;\n- Шаговая доступность от метро - м. Динамо (2 мин.) или м.Петровский Парк (1 мин.)\na.romanovsky@infosec.ru\nwww.infosec.ru","markup":[{"type":"hashtag","offset":0,"length":9,"data":"Вакансия"},{"type":"hashtag","offset":10,"length":5,"data":"Java"},{"type":"hashtag","offset":16,"length":7,"data":"Spring"},{"type":"hashtag","offset":24,"length":7,"data":"Москва"},{"type":"hashtag","offset":32,"length":7,"data":"Middle"},{"type":"hashtag","offset":40,"length":7,"data":"Senior"},{"type":"hashtag","offset":56,"length":7,"data":"москва"},{"type":"hashtag","offset":64,"length":7,"data":"динамо"},{"type":"hashtag","offset":82,"length":9,"data":"fulltime"},{"type":"hashtag","offset":99,"length":5,"data":"офис"},{"type":"link","offset":1704,"length":23,"data":"mailto:a.romanovsky@infosec.ru"},{"type":"link","offset":1728,"length":14,"data":"http://www.infosec.ru"}],"date":"2020-06-30T06:48:55+00:00","link":"tg://resolve?domain=jvmjobs&post=1686","tags":[{"name":"java"},{"name":"jvm"},{"name":"spring"},{"name":"dotnet"},{"name":"postgresql"},{"name":"rabbitmq"},{"name":"redis"},{"name":"spring-boot"}],"cities":[{"code":"moscow"}],"allowsRemote":true}},{"node":{"__typename":"Job","id":"17234395136-1001110946746","title":"Js разработчик","text":"#вакансия\n\nSenior NodeJS Software Engineer\n\nГород и адрес офиса: Москва, м.Китай-Город\nФормат работы: удаленка \nЗанятость: полная \nЗарплата: $ 50 000 - 60 000 в год\n\nМеждународный сервис по подбору стипендиальных программ ищет в свою команду опытного NodeJS разработчика. Главный офис компании находится в Тель-Авиве, куда предусмотрены поездки раз в полгода, команда рассредоточена по миру.\n\nМы предлагаем интересные задачи на высоконагруженных web-проектах, зарплату, привязанную к курсу доллара; возможность профессионального обучения и полноценного участия в жизни IT сообщества (тренинги, конференции) и возможность работать по гибкому графику.\n\n\nТребования: \n- Отличные знания Javascript, Node JS; \n- Будет плюсом опыт работы с Golang; \n- Опыт работы с высокими нагрузками; \n- Хорошее понимание архитектуры и проектирования; \n- Опыт работы с RabbitMQ/Kafka; \n- Опыт работы с NoSQL DB (MongoDB, Redis); \n- Разработка или взаимодействие с REST API; \n- Написание юнит и интеграционных тестов; \n- Понимание цикла CI/CD, поддержка его конфигурации; \n- Отличные коммуникативные навыки и уровень английского не ниже В2.\n\nЧтобы откликнуться, необходимо пройти короткий отбор по ссылке https://6nomads.com/\n\nНазвание компании: 6nomads.com\nКонтакт: @temnik_sofya","markup":[{"type":"hashtag","offset":0,"length":9,"data":"вакансия"},{"type":"link","offset":143,"length":15,"data":"tel:50 000 - 60 000"},{"type":"link","offset":1183,"length":20,"data":"https://6nomads.com/"},{"type":"link","offset":1224,"length":11,"data":"http://6nomads.com"},{"type":"handle","offset":1245,"length":13,"data":"temnik_sofya"}],"date":"2020-06-29T17:50:20+00:00","link":"tg://resolve?domain=javascript_jobs_feed&post=16436","tags":[{"name":"javascript"},{"name":"nodejs"},{"name":"web"},{"name":"go"},{"name":"rabbitmq"},{"name":"kafka"},{"name":"nosql"},{"name":"mongodb"},{"name":"redis"},{"name":"rest"}],"cities":[{"code":"moscow"}],"allowsRemote":true}},{"node":{"__typename":"Job","id":"1766850560-1001091028994","title":"Java разработчик","text":"#Java #developer #job #офис\n\nВакансия: Java-разработчик \n\nКомпания: Selecty\n\nГород: Москва, Санкт-Петербург, Новосибирск, Самара\n\nФормат работы: Офис\n\nЗанятость: full timе\n\nЗарплатная вилка: 320k net \n\nОписание вакансии:\n\nРазработка ПО для одного из крупнейших российских банков.\n\nОбязанности:\n• Разработка под Java, фреймворк: Spring boot\n• Разработка в рамках микросервисной архитектуры\n• Проектирование интерфейсов взаимодействия с другими системами.\n• Работа в тесном сотрудничестве со специалистами фронтенд разработки, тестирования и аналитиками.\n• Работа по гибким методологиям разработки.\n\nCтек технологий:\n• Java 8-11, Kotlin.\n• Spring/Springboot.\n• PostgreSQL/Oracle, Kafka, Redis\n• Maven/Gradle\n• Docker/Kubernetes(или OpenShift).\n\nНаши ожидания от кандидата:\n• уверенное владение Java, понимание принципов работы JVM. Знание основных библиотек и шаблонов проектирования.\n• опыт использования Spring Framework (boot, mvc, data, secutity...)\n• опыт работы с многопоточностью и асинхронностью.\n• опыт работы с базами данных, умение писать и оптимизировать запросы.\n• опыт работы с распределёнными хранилищами и системами.\n• знание HTTP, REST, SOAP.\n• опыт работы с фреймворками и инструментами автоматического тестирования (junit, postman, jmeter).\n\nМы предлагаем:\n•  Оформление согласно ТК РФ.\n•  Заработная плата полностью \"белая\".\n•  ДМС.\n•  Оплата корпоративной мобильной связи.\n•  Внутреннее, внешнее обучение (сертификаты).\n•  Льготные программы от компаний – партнеров.\n\nКонтакты: @lelya01\nolga.afonina@selecty.ru","markup":[{"type":"hashtag","offset":0,"length":5,"data":"Java"},{"type":"hashtag","offset":6,"length":10,"data":"developer"},{"type":"hashtag","offset":17,"length":4,"data":"job"},{"type":"hashtag","offset":22,"length":5,"data":"офис"},{"type":"handle","offset":1497,"length":8,"data":"lelya01"},{"type":"link","offset":1506,"length":23,"data":"mailto:olga.afonina@selecty.ru"}],"date":"2020-06-29T16:07:55+00:00","link":"tg://resolve?domain=jvmjobs&post=1685","tags":[{"name":"java"},{"name":"jvm"},{"name":"dotnet"},{"name":"spring"},{"name":"kotlin"},{"name":"postgresql"},{"name":"oracle"},{"name":"kafka"},{"name":"redis"},{"name":"maven"},{"name":"gradle"},{"name":"docker"},{"name":"kubernetes"},{"name":"rest"},{"name":"soap"},{"name":"junit"},{"name":"jmeter"},{"name":"spring-boot"}],"cities":[{"code":"moscow"},{"code":"novosibirsk"},{"code":"samara"}],"allowsRemote":false}},{"node":{"__typename":"Job","id":"358612992-1001352129329","title":"Golang разработчик","text":"#вакансия #Москва #офис #удаленка #Golang #fulltime\n\nГород и адрес офиса: Москва, м. Новокузнецкая/Павелецкая\nФормат работы: #офис, #удаленка\nЗанятость: #полная\nЗП: от 120к до 200к руб. нетт\n\nSports.ru – ведущий спортивный сайт в России. Мы строим сообщества людей, увлекающихся разными видами спорта, помогаем им развиваться и даем им площадку для общения. Сейчас мы ищем Backend-разработчика (Golang/PHP) в команду нашего проекта Betting Insider.\n\nBetting Insider — социальная сеть для любителей ставок. Мы верим, что ставки — неотъемлемая часть рынка спортивных развлечений, и стремимся сделать этот рынок прозрачнее и интереснее для пользователей. Мы не принимаем ставок на реальные деньги, но даем пользователям множество вспомогательных сервисов, которые делают их игру проще, безопаснее и интереснее.\n\nО задачах:\nВы будете участвовать в продуктовой разработке на всех стадиях: от обсуждения фич и проработки архитектуры до деплоя и мониторинга работы.\nРазрабатывать микросервисы на Go, перевода на них наш монолит на PHP. Поддержкой монолита тоже нужно будет заниматься. Разрабатывать GraphQL API для web-версии и приложений iOS и Android.\nОптимизировать работу приложений, искать проблемы с производительностью и надежностью. Покрывать код тестами и проводить код ревью.\nЕще сможете принять участие в разработке core сервисов для sports.ru и других наших проектов с MAU больше 20 млн.\n\nО технологиях:\nGo как основной язык. PHP сервис для поддержки и переписывания на Go.\nGraphQL для клиентов. gRPC и JSON over HTTP для межсервисного взаимодействия.\nРазвертывание docker контейнеров в kubernetes. Деплой через gitlab CI и helm чарты.\nМониторинг, трейсинг и алертинг c помощью Grafana и Prometheus, Kibana, Sentry, Elasticsearch APM.\nPostgres 12 и MySQL 8.0.\nNsq и RabbitMQ в качестве очереди событий. Redis для Pub/Sub.\n\nО наших ожиданиях:\nМы ожидаем, что вы имеете опыт разработки микросервисов на Go. Имеете опыт работы с PHP и все еще можете и хотите с ним взаимодействовать. Имеете навыки построения производительных и отказоустойчивых систем.\nЗнаете основы используемых технологий и понимаете, как их использовать: SQL, Go, PHP, message queue, сетевое взаимодействие, кеширование, системы мониторинга и т.д.\nУ вас есть опыт написания тестов равного уровня: Unit, Integration, E2E.\nОпыт взаимодействия с GraphQL и gRPC будет плюсом.\nКлассно, если вы любите спорт. Еще лучше, если вы интересуетесь ставками.\n\nОб условиях: \nПросторный стильный офис возле м. Новокузнецкая/Третьяковская.\n“Белая” заработная плата.\nБесплатная медстраховка со стоматологией после испытательного срока.\nГибкий график работы с возможностью день-два в неделю работать удаленно,\nФрукты, снеки, чай, кофе, какао 24/7.\nКорпоративная скидка в спортзал и на занятия английским языком.\nКорпоративный футбол с тренером.\nФинансовая помощь при переезде из другого города.\nВозможности для профессионального развития.\n\nНазвание компании: Sports.ru (Tribuna Digital)\nКому интересно, пишите в личку (@pbuyatova), поделюсь подробностями)","markup":[{"type":"hashtag","offset":0,"length":9,"data":"вакансия"},{"type":"hashtag","offset":10,"length":7,"data":"Москва"},{"type":"hashtag","offset":18,"length":5,"data":"офис"},{"type":"hashtag","offset":24,"length":9,"data":"удаленка"},{"type":"hashtag","offset":34,"length":7,"data":"Golang"},{"type":"hashtag","offset":42,"length":9,"data":"fulltime"},{"type":"hashtag","offset":125,"length":5,"data":"офис"},{"type":"hashtag","offset":132,"length":9,"data":"удаленка"},{"type":"hashtag","offset":153,"length":7,"data":"полная"},{"type":"link","offset":192,"length":9,"data":"http://Sports.ru"},{"type":"link","offset":1338,"length":9,"data":"http://sports.ru"},{"type":"link","offset":2913,"length":9,"data":"http://Sports.ru"},{"type":"handle","offset":2973,"length":10,"data":"pbuyatova"}],"date":"2020-06-29T15:38:06+00:00","link":"tg://resolve?domain=gogetajobfeed&post=342","tags":[{"name":"go"},{"name":"php"},{"name":"graphql"},{"name":"web"},{"name":"ios"},{"name":"android"},{"name":"json"},{"name":"docker"},{"name":"kubernetes"},{"name":"gitlab"},{"name":"elasticsearch"},{"name":"postgresql"},{"name":"mysql"},{"name":"rabbitmq"},{"name":"redis"},{"name":"sql"}],"cities":[{"code":"moscow"}],"allowsRemote":true}}]}}},"context":{}}