{"hash":"f34fd2c444a074f4e0e67d525015a008ef8e766f","data":{"records":{"id":"sql","name":"sql","belongsTo":{"totalCount":108,"pageInfo":{"totalPages":11,"currentPage":5},"edges":[{"node":{"__typename":"Job","id":"1408237568-1001091028994","title":"Java разработчик","text":"#java #middle #senior #москва #рязань #ижевск #питер\nВакансия: Java-разработчик \nКомпания: https://jtc.ooo/\nРабота в одном из офисов: Москва, Рязань, Ижевск, Санкт-Петербург\nЗ/п: от 150 000 до 250 000 рублей\nФормат работы: офис\nЗанятость: полная \nСпециализация компании: с 2007 года работаем в области построения систем ДБО для юридических лиц, как на базе собственного решения, так и в области построения систем ДБО на заказ.\n\nОбязанности\n- проектирование и разработка backend высоконагруженного web-приложения с использованием микросервисной архитектуры\n- интеграция со сторонними сервисами\n- рефакторинг\n\nТребования\n- опыт работы с java  от 2 лет\n- Java 8, Hibernate, SQL(PostgreSQL/Oracle/MSSQL), Spring Framework, Maven/Gradle\n- знание основных алгоритмов и структур данных\n\nМы предлагаем\n- конкурентная заработная плата по результатам общения\n- соблюдение TK РФ\n- уютный офис и современная техника на рабочих местах\n- гибкий рабочий график с началом работы с 8:00 до 11:00\n- ДМС с расширенным набором услуг\n- интересные и нетривиальные задачи \n- возможность посещать семинары, тренинги, конференции\n- дружный коллектив профессионалов, комфортная атмосфера\n- возможность участия в крупных и интересных проектах\n\nКонтакты: @rita_kudryashova","markup":[{"type":"hashtag","offset":0,"length":5,"data":"java"},{"type":"hashtag","offset":6,"length":7,"data":"middle"},{"type":"hashtag","offset":14,"length":7,"data":"senior"},{"type":"hashtag","offset":22,"length":7,"data":"москва"},{"type":"hashtag","offset":30,"length":7,"data":"рязань"},{"type":"hashtag","offset":38,"length":7,"data":"ижевск"},{"type":"hashtag","offset":46,"length":6,"data":"питер"},{"type":"link","offset":91,"length":16,"data":"https://jtc.ooo/"},{"type":"handle","offset":1227,"length":17,"data":"rita_kudryashova"}],"date":"2020-04-01T09:07:17+00:00","link":"tg://resolve?domain=jvmjobs&post=1343","tags":[{"name":"java"},{"name":"jvm"},{"name":"web"},{"name":"hibernate"},{"name":"sql"},{"name":"postgresql"},{"name":"oracle"},{"name":"sql-server"},{"name":"spring"},{"name":"maven"},{"name":"gradle"}],"cities":[{"code":"moscow"},{"code":"ryazan"},{"code":"izhevsk"}],"allowsRemote":false}},{"node":{"__typename":"Job","id":"1407188992-1001091028994","title":"Java developer","text":"RBS, Рунет Бизнес Системы (входит в BPC Group) \n#вакансия #Москва #Java \nГород: Москва, м.Курская \nФормат работы: full-time (офис, гибкий график) \nЗарпатная вилка: 170-250 тыс. руб gross + 50% от оклада квартальный бонус (фикс) \nРоль: Java developer (middle) \n\nКомпания РБС специализируется на предоставлении услуг в области электронной коммерции, а также процессинга электронных платежей. \nСегодня клиентами РБС являются крупнейшие банки и компании России: Сбербанк РФ, Альфа-Банк, Аэрофлот, Открытие, группа ВТБ и многие другие. \n\nТвои задачи: \n📌Разработка серверных Java-приложений, рефакторинг и оптимизация; \n📌Реализация бизнес-функционала как в тесной работе с аналитиком, так и самостоятельно; \n📌Описание функционала на уровне подробного комментария (описание API, алгоритма, структур данных, информация для тестировщиков); \n📌Код-ревью изменений коллег и работа по основным принципам Agile. \n\nТребования: \n✅Опыт разработки на Java от 2-х лет, знание synchronized; \n✅Знание Spring (boot, MVC, JDBC); \n✅Опыт написания тестов (JUnit, Mockito или PowerMock); \n✅Знание Java 8, 11 (Stream API), java.util.concurrent; \n✅Понимание принципов работы HTTP/HTTPS (SSL, TLS); \n✅Уверенное владение SQL; \n✅Git, Maven, Gradle. \n\nВзамен мы: \n🌟Гарантируем оформление трудовых отношений в соответствии с ТК РФ: \"белую\" конкурентоспособную зарплату, оплату больничных и отпусков; \n🌟Обеспечиваем ДМС, включая стоматологию, участие в программах корпоративного кредитования и страхования; \n🌟Даем возможность карьерного роста (пересмотр зарплаты и грейда каждый год); \n🌟Предлагаем обучение в Корпоративном Университете, возможность посещать внешние тренинги и конференции (JPoint, Joker); \n🌟Организуем гибкое начало рабочего дня; \n🌟Проводим интересные и активные корпоративные мероприятия (выездные: Франция, Германия и т.д.); \n🌟Предоставляем комфортный офис в шаговой доступности от метро Курская/Чкаловская. \n\n📝Контакты: \nDaria Kuznetsova \nHR Business Parthner \n\nBPC Group | Bld. 2, 50A/8 Zemlyanoy Val St., Moscow, Russia, 109028\nTel: +7 (495) 780-31-65 | Fax: +7 (495) 780-31-67 | Mobile: +7 (915) 469-99-53\ndo.kuznetsova@bpcbt.com | www.bpcbt.com\nTelegram @KuznetsovaDO","markup":[{"type":"hashtag","offset":48,"length":9,"data":"вакансия"},{"type":"hashtag","offset":58,"length":7,"data":"Москва"},{"type":"hashtag","offset":66,"length":5,"data":"Java"},{"type":"link","offset":2033,"length":18,"data":"tel:+7 (495) 780-31-65"},{"type":"link","offset":2059,"length":18,"data":"tel:+7 (495) 780-31-67"},{"type":"link","offset":2088,"length":18,"data":"tel:+7 (915) 469-99-53"},{"type":"link","offset":2107,"length":23,"data":"mailto:do.kuznetsova@bpcbt.com"},{"type":"link","offset":2133,"length":13,"data":"http://www.bpcbt.com"},{"type":"handle","offset":2156,"length":13,"data":"KuznetsovaDO"}],"date":"2020-04-01T08:49:26+00:00","link":"tg://resolve?domain=jvmjobs&post=1342","tags":[{"name":"java"},{"name":"jvm"},{"name":"spring"},{"name":"jdbc"},{"name":"junit"},{"name":"ssl"},{"name":"sql"},{"name":"git"},{"name":"maven"},{"name":"gradle"},{"name":"mobile"},{"name":"spring-boot"}],"cities":[{"code":"moscow"}],"allowsRemote":false}},{"node":{"__typename":"Job","id":"1406140416-1001091028994","title":"Java разработчик","text":"Компания: #SimbirSoft\nЛокация: #Ульяновск, Казань, Самара, Димитровград, Саранск + возможен вариант удалённой работы\nЗ/п: 180-200 гросс\nКонтакты: @juli_simb\n+79271828496\nSenior Java-разработчик / AWS Dev\nТребуемый опыт работы: 3–6 лет\nПолная занятость, гибкий график\nУ нас не соскучишься! Поручим разработку разнообразных проектов, есть как разработка с нуля (выбор архитектуры и технологий за нами), так и доработка существующих решений. Внутренние конференции и доклады от ведущих разработчиков, на которых ты можешь узнать много нового\nУ нас есть офисы разработки в городах: Ульяновск, Казань, Самара, Саранск и Димитровград, а так же возможен дистанционный формат работы.\n\nПиши нам, если есть:\n●  опыт разработки на языке Java (не ранее 8 версии) не менее 2 лет, умение эффективно его использовать, знание особенностей, достоинств и недостатков;\n●  опыт разработки на Spring Framework;\n●  опыт работы с Java потоками включая ThreadPoolExecutor\n●  опыт разработки с AWS (Amazon Web Services) включая SQS, SNS, Kinesis Firehose, Terraform\n●  опыт применения языка SQL, умение писать и оптимизировать сложные запросы;\n●  опыт работы с Kafka\n●  понимание принципов работы ORM-фреймворков;\n●  понимание концепций OOP, методологий разработки и шаблонов проектирования.\n●  уровень английского от Upper - intermediate\nА если есть даже больше, то тем более пиши :)\n\nМы предлагаем:\n●  интересные высоконагруженные проекты;\n●  возможность работать на современных технологиях;\n●  возможность разрабатывать проекты с нуля;\n●  стабильную белоснежную заработную плату, размер зависит от квалификации и опыта;\n●  возможность профессионального развития - менторство, внутренние митапы, хакатоны, работа в одной команде с экспертами, сертификация за счет компании;\n●  постоянный обмен опытом между командами;\n●  гибкий график работы;\n●  возможность работать удаленно;\n●  оформление по ТК РФ.","markup":[{"type":"hashtag","offset":10,"length":11,"data":"SimbirSoft"},{"type":"hashtag","offset":31,"length":10,"data":"Ульяновск"},{"type":"handle","offset":146,"length":10,"data":"juli_simb"},{"type":"link","offset":157,"length":12,"data":"tel:+79271828496"}],"date":"2020-04-01T06:20:17+00:00","link":"tg://resolve?domain=jvmjobs&post=1341","tags":[{"name":"java"},{"name":"jvm"},{"name":"amazon-web-services"},{"name":"spring"},{"name":"web"},{"name":"sql"},{"name":"kafka"},{"name":"orm"}],"cities":[{"code":"ulyanovsk"},{"code":"kazan"},{"code":"samara"},{"code":"dimitrovgrad"},{"code":"saransk"}],"allowsRemote":true}},{"node":{"__typename":"Job","id":"1399848960-1001091028994","title":"Java разработчик","text":"Вакансия: #java #junior\nКомпания: #donam\nЛокация: #москва #офис #fulltime\nЗ/п: от 50000 до 80000 рублей в месяц\nКонтакты: @irarudakova\nФормат работы: офис м. Полежаевская. Иногда можно удаленно. По договоренности.\nЗанятость: полная\n\nОбязанности\n- разработка интеграционных компонентов на esb tibco\n- разработка веб сервисов\n- разработка элементов бизнес логики на Java\n\nТребования\n- математическое образование\n- базовые навыки программирования на java\n- базовое знание sql\n- знание форматов обмена : xml , json\n\nЧем занимаемся\nПроекты по разработке высоконагруженных гибкомасштабируемых систем.\nАрхитектура - микросевисы. Использование контейнеризации(кубер). \nРазработка crm, чат платформы, билинговые системы, документооборот.\n\nКонтакты: @irarudakova","markup":[{"type":"bold","offset":0,"length":9,"data":""},{"type":"hashtag","offset":10,"length":5,"data":"java"},{"type":"hashtag","offset":16,"length":7,"data":"junior"},{"type":"bold","offset":24,"length":10,"data":""},{"type":"hashtag","offset":34,"length":6,"data":"donam"},{"type":"bold","offset":41,"length":9,"data":""},{"type":"hashtag","offset":50,"length":7,"data":"москва"},{"type":"hashtag","offset":58,"length":5,"data":"офис"},{"type":"hashtag","offset":64,"length":9,"data":"fulltime"},{"type":"bold","offset":74,"length":5,"data":""},{"type":"bold","offset":112,"length":9,"data":""},{"type":"handle","offset":122,"length":12,"data":"irarudakova"},{"type":"bold","offset":135,"length":15,"data":""},{"type":"bold","offset":214,"length":11,"data":""},{"type":"bold","offset":233,"length":12,"data":""},{"type":"bold","offset":370,"length":11,"data":""},{"type":"bold","offset":512,"length":15,"data":""},{"type":"bold","offset":730,"length":10,"data":""},{"type":"handle","offset":740,"length":12,"data":"irarudakova"}],"date":"2020-03-31T08:02:09+00:00","link":"tg://resolve?domain=jvmjobs&post=1335","tags":[{"name":"java"},{"name":"jvm"},{"name":"sql"},{"name":"xml"},{"name":"json"}],"cities":[{"code":"moscow"}],"allowsRemote":true}},{"node":{"__typename":"Job","id":"24178065408-1001075660570","title":"Php разработчик","text":"#вакансия #PHP #backend #senior #middle #СПб #офис\n\nПозиция: Senior PHP Developer\nКомпания: Studyworld\nЛокация:  Санкт- Петербург\nФормат работы: #офис\nЗанятость: полная\nЗ/п:  от 120.000 \nКонтакт: @Escabaret\n\nStudyworld - EdTech компания, развивающая масштабные сервисы на российском и на зарубежном рынке.\nНаша команда - более 100 человек, 5 проектов, которые 7 лет помогают студентам по всему миру. Территория охвата наших проектов очень велика – США, Канада, Бразилия, Россия и страны СНГ.\nСейчас мы в поисках уверенного Senior разработчика с гибким мышлением, ценящего важность сроков и обратную связь, и который в перспективе станет лидом команды Studybay.\n\nStack: PHP7, PostgreSQL, Redis, Sphinx\n\nПервостепенные задачи:\n- Развитие одного из наших продуктов, проектирование и реализация новых фич - переписывание легаси частей проекта, написание тестов - оптимизация системы деплоя и совершенствование процессов разработки.\n\n Мы ждем от Вас:\n- Очень уверенные знание PHP;\n- Опыт работы с одним из фреймворков (Codeigniter, Laravel, Symfony) и сопутствующими инструментами (composer, phpunit, phpstan);\n- Опыт командной разработки, работа с ветками в git (master/test/feature);\n- Умение писать и оптимизировать SQL запросы, проектировать структуру БД. Мы используем PostgreSQL;\n- Можете настроить nginx + php-fpm, читать логи и не бояться консоли linux.\n\nМы предлагаем:\n- Официальное оформление согласно ТК РФ;\n- Care bonus - это ДМС после испытательного срока, оплата обучения, поездки на конференции и все интересующее Вас для личного развития.\n- Наш офис - двухэтажный open space в центре Петербурга c собственной террасой, велопарковкой на территории БЦ. Все необходимое в офисе для комфортной работы и время препровождения.\n\nВ сопроводительном письме или резюме прошу ссылку на GitHub с примерами кода.\nЯ готова ответить на все-все вопросы, рассказать подробнее. Спасибо, что прочли простыню!)\nКонтакт: @Escabaret","markup":[{"type":"hashtag","offset":0,"length":9,"data":"вакансия"},{"type":"hashtag","offset":10,"length":4,"data":"PHP"},{"type":"hashtag","offset":15,"length":8,"data":"backend"},{"type":"hashtag","offset":24,"length":7,"data":"senior"},{"type":"hashtag","offset":32,"length":7,"data":"middle"},{"type":"hashtag","offset":40,"length":4,"data":"СПб"},{"type":"hashtag","offset":45,"length":5,"data":"офис"},{"type":"hashtag","offset":145,"length":5,"data":"офис"},{"type":"handle","offset":196,"length":10,"data":"Escabaret"},{"type":"bold","offset":208,"length":10,"data":""},{"type":"bold","offset":662,"length":6,"data":""},{"type":"bold","offset":702,"length":21,"data":""},{"type":"bold","offset":929,"length":17,"data":""},{"type":"handle","offset":1911,"length":10,"data":"Escabaret"}],"date":"2020-03-31T07:00:02+00:00","link":"tg://resolve?domain=php_jobs&post=23058","tags":[{"name":"php"},{"name":"postgresql"},{"name":"redis"},{"name":"codeigniter"},{"name":"laravel"},{"name":"symfony"},{"name":"phpunit"},{"name":"git"},{"name":"sql"},{"name":"nginx"},{"name":"linux"},{"name":"github"}],"cities":[],"allowsRemote":false}},{"node":{"__typename":"Job","id":"1396703232-1001091028994","title":"Java разработчик","text":"#java #middle #москва #офис #fulltime \n\nКА: Lucky Hunter\nФормат работы: офис \nЗанятость: full time\nЛокация: Москва, Нижний Сусальный пер. \nЗ/п:  до 220к Net \n\n🌏Британский лидер глобального рынка информационных услуг в сфере финансов расширяет границы своего присутствия и открывает первый офис в России. \n\nВ связи с этим компания находится в поиске middle Java специалиста, который будет отвечать за кастомизацию продукта. \n\nДанный сервис позволяет частным лицам контролировать свои финансы, кредитным организациям давать кредиты с большей ответственностью, а также позволяет компаниям предотвращать кражу персональных данных и мошенничество.\nНа сегодняшний день в компании работает около 17 000 человек в 37 странах🌍\n\n🔸 Требования:\n— Опыт разработки на Java+Spring от 2 лет;\n— Опыт работы с PostgreSQL, MS SQL, Oracle; \n— Англ.яз. (интервью будет проходит с представителями Британского офиса); \n\nБольшим плюсом будет:\n— Опыт работы с кастомными продуктами;\n— Понимание особенностей фин.тех. сервисов;\n\n🔸 Что получите Вы:\n— Официальное трудоустройство;\n— Вы встанете у истоков первого российского филиала;\n— Большие перспективы роста и развития;\n— Работа в международной команде профессионалов;\n\nКонтакты: \ne-mail: maria@luckyhunter.io\ntelegram: @Maria_Rey","markup":[{"type":"hashtag","offset":0,"length":5,"data":"java"},{"type":"hashtag","offset":6,"length":7,"data":"middle"},{"type":"hashtag","offset":14,"length":7,"data":"москва"},{"type":"hashtag","offset":22,"length":5,"data":"офис"},{"type":"hashtag","offset":28,"length":9,"data":"fulltime"},{"type":"link","offset":1219,"length":20,"data":"mailto:maria@luckyhunter.io"},{"type":"handle","offset":1250,"length":10,"data":"Maria_Rey"}],"date":"2020-03-30T11:48:16+00:00","link":"tg://resolve?domain=jvmjobs&post=1332","tags":[{"name":"java"},{"name":"jvm"},{"name":"dotnet"},{"name":"spring"},{"name":"postgresql"},{"name":"sql"},{"name":"oracle"}],"cities":[{"code":"moscow"}],"allowsRemote":false}},{"node":{"__typename":"Job","id":"24152899584-1001075660570","title":"Php developer","text":"#вакансия #php #lead #fulltime #удалёнка \nГород и адрес офиса: Москва (м.Курская)\nНазвание компании: КА\nФормат работы: удаленно/офис \nЗанятость: полная\nЗарплатная вилка: от 150к до 220к net\n\nПривет я ищу Tech lead/Senior php developer. Проект -- платформа для чатботов и воронок продаж. Сейчас у платформы более 1000 пользователей, растет на 20% ежемесячно, в следующем году планируется запуск на глобальном рынке, срочно нужно усиление 🙂 \n\nЗадачи:\n- разработка архитектуры новой части проекта;\n- разработка backend на php;\n- code review, тесты.\n\nТребования:\n- опыт разработки на php от 3х лет;\n- опыт работы с SQL;\n- опыт с брокерами очередей, например RabbitMQ.\n\nБудет плюсом:\n- знание node.js и других языков программирования;\n- noSQL (у нас Cassandra).\n\nУсловия:\n- Белая з/п;\n- Офис в Москве (м.Курская), есть возможность работать удаленно;\n- Крутой продукт, которым ежедневно пользуются тысячи людей;\n- Классная команда;\n- Возможность быстрого карьерного роста и профессионального развития.\n\nКонтакты: @nat_kirisova","markup":[{"type":"hashtag","offset":0,"length":9,"data":"вакансия"},{"type":"hashtag","offset":10,"length":4,"data":"php"},{"type":"hashtag","offset":15,"length":5,"data":"lead"},{"type":"hashtag","offset":21,"length":9,"data":"fulltime"},{"type":"hashtag","offset":31,"length":9,"data":"удалёнка"},{"type":"handle","offset":1008,"length":13,"data":"nat_kirisova"}],"date":"2020-03-30T10:00:00+00:00","link":"tg://resolve?domain=php_jobs&post=23034","tags":[{"name":"php"},{"name":"dotnet"},{"name":"sql"},{"name":"rabbitmq"},{"name":"nodejs"},{"name":"nosql"},{"name":"cassandra"}],"cities":[{"code":"moscow"}],"allowsRemote":true}},{"node":{"__typename":"Job","id":"1395654656-1001091028994","title":"Java developer","text":"В инновационное подразделение крупнейшей российской авиакомпании\nищем #Junior #Java #Developer\nГород: #Москва\nФормат работы: #офис\nЗанятость: #fulltime, гибкий подход к рабочему времени\nВилка: до 100000 net.\n\nЗадача:\n\n • Проектирование и разработка хранилища данных о клиентах компании.\n\nЧто хотим видеть:\n\n • Опыт разработки на Java 1 год на коммерческом проекте,\n • Spring Framework, понимание концепции DI,\n • Опыт реализации REST-сервисов,\n • Понимание микросервисной архитектуры,\n   \nБудет плюсом:\n\n • вы знаете, что такое ETL\n • вы работали с:\n            Spark (SQL, Streaming);\n            Kafka;\n            Linux, Docker, Kubernetes;\n            реляционными БД (Oracle, MS SQL, PostgreSQL);\n            Spring Integration или аналогами (Camel)\n\nУсловия:\n\n • Интересные задачи, возможность влиять на прибыль компании;\n • Бессрочный трудовой договор;\n • Корпоративный тариф на перелеты;\n • ДМС;\n • Возможность обучаться за счет компании;\n • Участие в конференциях.\n\nКонтакт:  @morozovamary","markup":[{"type":"bold","offset":70,"length":13,"data":""},{"type":"hashtag","offset":70,"length":7,"data":"Junior"},{"type":"hashtag","offset":78,"length":5,"data":"Java"},{"type":"bold","offset":84,"length":17,"data":""},{"type":"hashtag","offset":84,"length":10,"data":"Developer"},{"type":"hashtag","offset":102,"length":7,"data":"Москва"},{"type":"bold","offset":110,"length":14,"data":""},{"type":"hashtag","offset":125,"length":5,"data":"офис"},{"type":"bold","offset":131,"length":10,"data":""},{"type":"hashtag","offset":142,"length":9,"data":"fulltime"},{"type":"bold","offset":186,"length":6,"data":""},{"type":"bold","offset":209,"length":9,"data":""},{"type":"code","offset":218,"length":3,"data":""},{"type":"bold","offset":288,"length":19,"data":""},{"type":"code","offset":307,"length":3,"data":""},{"type":"code","offset":365,"length":3,"data":""},{"type":"code","offset":410,"length":3,"data":""},{"type":"code","offset":444,"length":3,"data":""},{"type":"bold","offset":489,"length":15,"data":""},{"type":"code","offset":504,"length":3,"data":""},{"type":"code","offset":532,"length":3,"data":""},{"type":"bold","offset":756,"length":10,"data":""},{"type":"code","offset":766,"length":3,"data":""},{"type":"code","offset":828,"length":3,"data":""},{"type":"code","offset":860,"length":3,"data":""},{"type":"code","offset":896,"length":3,"data":""},{"type":"code","offset":904,"length":3,"data":""},{"type":"code","offset":947,"length":3,"data":""},{"type":"bold","offset":975,"length":8,"data":""},{"type":"handle","offset":985,"length":13,"data":"morozovamary"}],"date":"2020-03-30T09:30:22+00:00","link":"tg://resolve?domain=jvmjobs&post=1331","tags":[{"name":"java"},{"name":"jvm"},{"name":"dotnet"},{"name":"spring"},{"name":"rest"},{"name":"sql"},{"name":"kafka"},{"name":"linux"},{"name":"docker"},{"name":"kubernetes"},{"name":"oracle"},{"name":"postgresql"}],"cities":[{"code":"moscow"}],"allowsRemote":false}},{"node":{"__typename":"Job","id":"1393557504-1001091028994","title":"Java разработчик","text":"#вакансия #москва #офис #softwareengineer\n\nПродуктовая компания, разрабатывает платформы для создания распределённых приложений, которые хранят и быстро обрабатывают данные.\n Инструменты (compute grid, persistance store, распределенный sql, service grid).\n\n💥Вакансия: Software Engineer (Java)\n💥Город: Москва (м. Тульская)\n💥Занятость: полная (офис)\n💥ЗП: от 180 - 250 net \n💥Компания: GridGain (https://www.gridgain.com/)\n\n👆Чем предстоит заниматься:\n•Сопровождение внедрения продуктов компании у одного из ключевых клиентов.\n•Участие в прототипировании и проверке решений.\n•Развитие в сторону эксперта в области многопоточного программирования на Java.\n•Участие в Apache Ignite open source community.\n•Разработка дизайна решений и их самостоятельная реализация.\n•Проведение code review.\n•Внесение предложений по технической оптимизации для команд разработки, тестирования и эксплуатации на стороне клиента.\n•Взаимодействие и оказание технической помощи команде второй линии поддержки (Support Engineers / Application Administrators).\n•Работа над оптимизацией, оперативное устранение дефектов, внесение улучшений и иных доработок в продукты компании.\n\n👍Что готовы предложить:\n•Оформление в полном соответствии с ТК РФ с первого дня работы.\n•Полис ДМС за счет компании с услугами стоматологии \n•Ежегодный пересмотр заработной платы.\n•Занятия английским языком и спортом за счет компании \n•Работу в команде высококлассных профессионалов над одним из самых технологически передовых проектов в мире.\n•Возможность участвовать в разработке продукта, входящего в ТОП-5 Apache SF - Apache Ignite, которым пользуются десятки тысяч разработчиков по всему миру.\n•Stock options уже после успешного прохождения испытательного срока.\n•Гарантировано получение уникального опыта.\n•Работа с полным спектром новейших Java и grid / cloud технологий, интенсивное развитие в команде действительно крутых профессионалов, у которых есть, чему поучиться.\n•Мы приветствуем и требуем инициативу.\n•Мы приветствуем и всячески поддерживаем сотрудников в выступлениях на конференциях, вебинарах, митапах: у нас (по желанию) Вы сможете обучиться азам ораторского мастерства, попробовать (или продолжить прокачивать) себя в роли спикера и повысить своё visibility в профессиональных кругах.\n•В силу особенности проекта - сменный график: сутки через трое.\n\n👀Ожидания:\n•Отличные знания Java SE - collections, IO, etc.\n•Понимание принципов работы распределенных систем.\n•Наличие опыта работы с SQL СУБД и навыков оптимизации запросов и индексов SQL СУБД.\n•Английский язык на уровне чтения и написания технической документации.\n\nКонтакты: @prynik95","markup":[{"type":"hashtag","offset":0,"length":9,"data":"вакансия"},{"type":"hashtag","offset":10,"length":7,"data":"москва"},{"type":"hashtag","offset":18,"length":5,"data":"офис"},{"type":"hashtag","offset":24,"length":17,"data":"softwareengineer"},{"type":"link","offset":397,"length":25,"data":"https://www.gridgain.com/"},{"type":"handle","offset":2607,"length":9,"data":"prynik95"}],"date":"2020-03-27T12:46:54+00:00","link":"tg://resolve?domain=jvmjobs&post=1329","tags":[{"name":"java"},{"name":"jvm"},{"name":"sql"},{"name":"dotnet"},{"name":"apache"},{"name":"cloud"}],"cities":[{"code":"moscow"}],"allowsRemote":false}},{"node":{"__typename":"Job","id":"1390411776-1001091028994","title":"Java разработчик","text":"Вакансия: #вакансия #java #developer #офис #fulltime\nУровень: #middle\nКомпания: #cleverdata\nКонтакт: @szhemzhitsky, email: hr@cleverdata.ru\nЛокация: #москва #мск\nОфис: м. Автозаводская \nЗ/п: от 120 000 до 220 000 руб. на руки\n\n\nCleverDATA ищет Java-разработчика с желанием работать и видеть результаты своей работы, попутно развиваясь в областях по построению систем обработки данных и высоконагруженных сервисов.\n\nВам предстоит развивать экосистему обмена и активации аудиторных данных, состоящую из:\n\n- DMPkit (dmpkit.io) - набор компонент и сервисов для построения платформ по обработке и управлению аудиторными данными;\n- DMC (1dmc.io) - единственную независимую в РФ биржу аудиторных данных.\n\nОжидания:\n\n- Опыт работы с Java от 2-3 лет;\n- Хорошее знание Java Core, стандартной библиотеки и структур данных;\n- Владение SQL, умение использовать конструкции JOIN, GROUP BY и т.п.;\n- Опыт работы с Linux на уровне \"пользователь\";\n- Быть готовым к работе и изучению Scala (на нем разрабатываются Spark-задачи);\n- Умение работать в команде и писать читаемый код;\n- Умение и желание изучать те инструменты и технологии, с которыми не доводилось работать ранее;\n- Умение читать и понимать англоязычную профессиональную литературу и документацию;\n- Способность обучаться и находить решения самостоятельно, пользуясь доступными источниками информации.\n\nПросто отлично (но не обязательно), если у вас есть:\n\n- Опыт разработки, не обязательно коммерческой, чего-либо отличного от Spring RESTful сервисов;\n- Опыт работы с чем-либо из следующих технологий: Hadoop, Spark, Flink, Kafka;\n- Возможность предоставить на ознакомление какие-либо примеры своего кода;\n- Понимание того, что такое вычислительная сложность алгоритмов.\n\nТехнологии:\n\n- Java, Scala – языки программирования\n- Gradle – система сборки\n- TestNG, Mockito, Hamcrest, ScalaTest – библиотеки тестирования\n- Spring Cloud – микросервисы\n- Spark, Hadoop YARN, Oozie – пакетная обработка данных\n- Flink, Hadoop YARN, Kafka – потоковая обработка данных\n- PostgreSQL, Aerospike, Hadoop HDFS – хранение данных\n\nВозможности:\n\n- Интересные и сложные задачи по обработке данных в пакетном и потоковом режимах;\n- Разработка высоконагруженных и отказоустойчивых сервисов и систем;\n- Принятие самостоятельных решений в части реализации и их аргументация;\n- Работа в дружном и профессиональном коллективе;\n- Адекватный процесс разработки и доставки ПО (юнит- и функциональное тестирование, CI/CD, Code Review, Agile, и т.п.);\n- Участие в релевантных конференциях, в том числе за пределами РФ;\n- Гибкий рабочий график и возможность один день в неделю работать удаленно (на время карантина - постоянно);\n- Быстрый профессиональный и карьерный рост.\n\nУсловия:\n\n- Работа с передовыми технологиями;\n- Стабильная белая заработная плата;\n- Социальный пакет.\n\nПримеры некоторых из задач:\n\n- Скачивание каталогов с файлами из HDFS со склейкой файлов в один файл на лету;\n- Возврат атрибутов и идентификаторов профиля высоконагруженным сервисом по получению аудиторных данных, обслуживающим до 100K RPS;\n- Унифицировать способ предоставления метрик высоконагруженными сервисами (10K+ RPS);\n- Перевести обнаружение высоконагруженных сервисов на механизм Service Discovery;\n- Добавить возможность использования ML-моделей к пакетному и потоковому сегментаторам аудиторных данных;\n- Добавить возможность инкрементальной загрузки аудиторных данных в распределенную key-value БД Aerospike.","markup":[{"type":"bold","offset":0,"length":9,"data":""},{"type":"hashtag","offset":10,"length":9,"data":"вакансия"},{"type":"hashtag","offset":20,"length":5,"data":"java"},{"type":"hashtag","offset":26,"length":10,"data":"developer"},{"type":"hashtag","offset":37,"length":5,"data":"офис"},{"type":"hashtag","offset":43,"length":9,"data":"fulltime"},{"type":"bold","offset":53,"length":8,"data":""},{"type":"hashtag","offset":62,"length":7,"data":"middle"},{"type":"bold","offset":70,"length":9,"data":""},{"type":"hashtag","offset":80,"length":11,"data":"cleverdata"},{"type":"bold","offset":92,"length":8,"data":""},{"type":"handle","offset":101,"length":13,"data":"szhemzhitsky"},{"type":"link","offset":123,"length":16,"data":"mailto:hr@cleverdata.ru"},{"type":"bold","offset":140,"length":8,"data":""},{"type":"hashtag","offset":149,"length":7,"data":"москва"},{"type":"hashtag","offset":157,"length":4,"data":"мск"},{"type":"bold","offset":162,"length":5,"data":""},{"type":"bold","offset":186,"length":4,"data":""},{"type":"bold","offset":228,"length":10,"data":""},{"type":"bold","offset":415,"length":13,"data":""},{"type":"link","offset":513,"length":9,"data":"http://dmpkit.io"},{"type":"link","offset":631,"length":7,"data":"http://1dmc.io"},{"type":"bold","offset":698,"length":8,"data":""},{"type":"bold","offset":1348,"length":54,"data":""},{"type":"bold","offset":1718,"length":10,"data":""},{"type":"bold","offset":1747,"length":23,"data":""},{"type":"bold","offset":1781,"length":15,"data":""},{"type":"bold","offset":1837,"length":24,"data":""},{"type":"bold","offset":1878,"length":13,"data":""},{"type":"bold","offset":1921,"length":26,"data":""},{"type":"bold","offset":1977,"length":27,"data":""},{"type":"bold","offset":2043,"length":28,"data":""},{"type":"bold","offset":2690,"length":7,"data":""},{"type":"bold","offset":2794,"length":29,"data":""}],"date":"2020-03-26T13:48:17+00:00","link":"tg://resolve?domain=jvmjobs&post=1326","tags":[{"name":"java"},{"name":"jvm"},{"name":"sql"},{"name":"linux"},{"name":"scala"},{"name":"spring"},{"name":"hadoop"},{"name":"kafka"},{"name":"gradle"},{"name":"cloud"},{"name":"postgresql"},{"name":"hdfs"}],"cities":[{"code":"moscow"}],"allowsRemote":true}}]}}},"context":{}}