{"hash":"f34fd2c444a074f4e0e67d525015a008ef8e766f","data":{"records":{"id":"mobile","name":"mobile","belongsTo":{"totalCount":48,"pageInfo":{"totalPages":5,"currentPage":5},"edges":[{"node":{"__typename":"Job","id":"66235400192-1001054966032","title":"Android разработчик","text":"#вакансия #android #job #java #Developer #удаленка #Kotlin\nГород и адрес офиса: Москва/Брянск\nФормат работы: удаленный вид работы\nЗанятость: полная, гибкий график \nЗП:  от 1000 до 1500$\nPENA - аутсорс продакшн №1 в России по версии Теглайна. \nPENA Production - это часть группы компаний Idea-Promotion, ASAP BANNER и PENA Agency.\nИщем в команду middle/senior Android разработчикa.\nИщем самостоятельного разработчика, способного работать в команде.\n✅Требования:\n• знание распределенных систем контроля версий (Git);\n• умение разбираться в чужом коде;\n• опыт программирования на Java от двух лет;\n• опыт разработки Android-приложений от двух лет;\n• уверенное знание платформы Android, API 4.0 и выше;\nСтек: exoplayer, okhttp, dagger2, kotlin, picasso\\glide, gson, material, jobDispatcher, androidx, arch components, social sdks, espresso, junit\nКонтакт: @hr_dariya","markup":[{"type":"hashtag","offset":0,"length":9,"data":"вакансия"},{"type":"hashtag","offset":10,"length":8,"data":"android"},{"type":"hashtag","offset":19,"length":4,"data":"job"},{"type":"hashtag","offset":24,"length":5,"data":"java"},{"type":"hashtag","offset":30,"length":10,"data":"Developer"},{"type":"hashtag","offset":41,"length":9,"data":"удаленка"},{"type":"hashtag","offset":51,"length":7,"data":"Kotlin"},{"type":"handle","offset":852,"length":10,"data":"hr_dariya"}],"date":"2020-04-08T09:37:36+00:00","link":"tg://resolve?domain=mobile_jobs&post=0","tags":[{"name":"mobile"},{"name":"android"},{"name":"java"},{"name":"kotlin"},{"name":"git"},{"name":"junit"}],"cities":[{"code":"moscow"},{"code":"bryansk"}],"allowsRemote":true}},{"node":{"__typename":"Job","id":"98159296512-1001089317451","title":"Qa engineer","text":"#Киев #офис #вакансия  #QA_Engineer #manual\n\n📌Mobile QA Engineer\nКомпания: Evrius \nГород: Киев\nЗп: от 1к$ (зависит от уровня специалиста)\n\n🔷Основные требования:\n1+ год опыта тестирования Android приложений;\nОпыт тестирования рекламы и работы с рекламными сетями;\nЗнание инструментов разработки Android;\nЗнание методологий и процессов тестирования;\nУмение чётко и точно описывать найденные ошибки;\nОпыт использования автоматизированных средств тестирования будет плюсом.\n\n🔷Мы предлагаем:\nВысокий уровень заработной платы;\nВозможность профессионального и карьерного роста;\n24 календарных дня отпуска и оплачиваемый больничный;\nКорпоративные мероприятия;\nСовременный офис в центре (м. Университет);\nКофе бар, зона отдыха, настольный теннис, Xbox.\n\nКонтакты для связи: @OksanaStpn","markup":[{"type":"hashtag","offset":0,"length":5,"data":"Киев"},{"type":"hashtag","offset":6,"length":5,"data":"офис"},{"type":"hashtag","offset":12,"length":9,"data":"вакансия"},{"type":"hashtag","offset":23,"length":12,"data":"QA_Engineer"},{"type":"hashtag","offset":36,"length":7,"data":"manual"},{"type":"bold","offset":45,"length":20,"data":""},{"type":"bold","offset":140,"length":23,"data":""},{"type":"bold","offset":209,"length":54,"data":""},{"type":"bold","offset":475,"length":15,"data":""},{"type":"bold","offset":748,"length":31,"data":""},{"type":"handle","offset":768,"length":11,"data":"OksanaStpn"}],"date":"2020-04-07T15:56:10+00:00","link":"tg://resolve?domain=qa_jobs&post=93612","tags":[{"name":"qa"},{"name":"mobile"},{"name":"android"}],"cities":[{"code":"kiev"}],"allowsRemote":false}},{"node":{"__typename":"Job","id":"1957691392-1001134745498","title":"Devops инженер","text":"#вакансия #devops #remote\n\nГород: #Новосибирск\nформат работы: #удаленка #remote\nзанятость: #проектная #fulltime\nзарплатная вилка: 700-1000 рублей в час\n\nОписание вакансии:\n\nДобрый день!\n\nМеня зовут Матвей, менеджер проектов в компании The Invaders. Мы занимаемся заказной веб и мобильной разработкой для компаний по всему миру. Основная специализация компании это разработка Web и Mobile проектов, кроме того, в портфеле нашей компании работа с  блокчейн проектами на различных платформах (Waves, Ethereum, EOS, Corda, Hyperledger и тд.)  Наша команда разработки находится в Новосибирске, но у нас так же, на удаленной основе, работают разработчики с разных мест Земного шара.\n\nВ данный момент мы ищем колегу DevOps, который поможет нам периодически настраивать, разворачивать сервера, улучшит нашу ситуацию с CI/CD, покажет путь лучшей жизни с контейнеризацией\n\nЧем предстоит заниматься:\n\n1. Формирование Docker-образов, CI/CD сценариев\n2. Управления контейнеризованными рабочими нагрузками и сервисами (Kubernetes)\n3. Решение сетевых вопросов организации серверов\n4. Решение вопросов хранения данных\n5. Мониторинг систем, сбор, визуализация и анализ логов\n6. Взаимодействие с командой разработчиков и совместное решение задач\n\nТехнические скиллы:\n\n1.  Умение работать с Ansible\n2.  Опыт администрирования баз данных (PostgreSQL, Redis)\n3.  Опыт работы в качестве Инженера DevOps\n\nТехнологический стек:\n\n- Непосредственное взаимодействие и окружение\n\n  - Gitlab CI/CD\n  - Docker\n  - Ansible\n  - Ubuntu\n  - PostgreSQL\n  - Redis\n  - Rabbitmq\n  - Python\n  - Django\n  - Celery\n  - Nginx\n\nТак же будет очень хорошо:\n\n- Увлекаешься программированием\n- Сможешь рассказать о ревалентном опыте работы\n\nНазвание компании: The Invaders\n\nКонтакты: hr@theinvaders.pro @matteslip\n\n—\n\n👉 Обсуждение вакансии в чате @devops_jobs","markup":[{"type":"hashtag","offset":0,"length":9,"data":"вакансия"},{"type":"hashtag","offset":10,"length":7,"data":"devops"},{"type":"hashtag","offset":18,"length":7,"data":"remote"},{"type":"hashtag","offset":34,"length":12,"data":"Новосибирск"},{"type":"hashtag","offset":62,"length":9,"data":"удаленка"},{"type":"hashtag","offset":72,"length":7,"data":"remote"},{"type":"hashtag","offset":91,"length":10,"data":"проектная"},{"type":"hashtag","offset":102,"length":9,"data":"fulltime"},{"type":"link","offset":1737,"length":18,"data":"mailto:hr@theinvaders.pro"},{"type":"handle","offset":1756,"length":10,"data":"matteslip"},{"type":"handle","offset":1801,"length":12,"data":"devops_jobs"}],"date":"2020-04-02T06:34:20+00:00","link":"tg://resolve?domain=devops_jobs_feed&post=1867","tags":[{"name":"web"},{"name":"mobile"},{"name":"docker"},{"name":"kubernetes"},{"name":"ansible"},{"name":"postgresql"},{"name":"redis"},{"name":"gitlab"},{"name":"ubuntu"},{"name":"rabbitmq"},{"name":"python"},{"name":"django"},{"name":"nginx"}],"cities":[{"code":"novosibirsk"}],"allowsRemote":true}},{"node":{"__typename":"Job","id":"1407188992-1001091028994","title":"Java developer","text":"RBS, Рунет Бизнес Системы (входит в BPC Group) \n#вакансия #Москва #Java \nГород: Москва, м.Курская \nФормат работы: full-time (офис, гибкий график) \nЗарпатная вилка: 170-250 тыс. руб gross + 50% от оклада квартальный бонус (фикс) \nРоль: Java developer (middle) \n\nКомпания РБС специализируется на предоставлении услуг в области электронной коммерции, а также процессинга электронных платежей. \nСегодня клиентами РБС являются крупнейшие банки и компании России: Сбербанк РФ, Альфа-Банк, Аэрофлот, Открытие, группа ВТБ и многие другие. \n\nТвои задачи: \n📌Разработка серверных Java-приложений, рефакторинг и оптимизация; \n📌Реализация бизнес-функционала как в тесной работе с аналитиком, так и самостоятельно; \n📌Описание функционала на уровне подробного комментария (описание API, алгоритма, структур данных, информация для тестировщиков); \n📌Код-ревью изменений коллег и работа по основным принципам Agile. \n\nТребования: \n✅Опыт разработки на Java от 2-х лет, знание synchronized; \n✅Знание Spring (boot, MVC, JDBC); \n✅Опыт написания тестов (JUnit, Mockito или PowerMock); \n✅Знание Java 8, 11 (Stream API), java.util.concurrent; \n✅Понимание принципов работы HTTP/HTTPS (SSL, TLS); \n✅Уверенное владение SQL; \n✅Git, Maven, Gradle. \n\nВзамен мы: \n🌟Гарантируем оформление трудовых отношений в соответствии с ТК РФ: \"белую\" конкурентоспособную зарплату, оплату больничных и отпусков; \n🌟Обеспечиваем ДМС, включая стоматологию, участие в программах корпоративного кредитования и страхования; \n🌟Даем возможность карьерного роста (пересмотр зарплаты и грейда каждый год); \n🌟Предлагаем обучение в Корпоративном Университете, возможность посещать внешние тренинги и конференции (JPoint, Joker); \n🌟Организуем гибкое начало рабочего дня; \n🌟Проводим интересные и активные корпоративные мероприятия (выездные: Франция, Германия и т.д.); \n🌟Предоставляем комфортный офис в шаговой доступности от метро Курская/Чкаловская. \n\n📝Контакты: \nDaria Kuznetsova \nHR Business Parthner \n\nBPC Group | Bld. 2, 50A/8 Zemlyanoy Val St., Moscow, Russia, 109028\nTel: +7 (495) 780-31-65 | Fax: +7 (495) 780-31-67 | Mobile: +7 (915) 469-99-53\ndo.kuznetsova@bpcbt.com | www.bpcbt.com\nTelegram @KuznetsovaDO","markup":[{"type":"hashtag","offset":48,"length":9,"data":"вакансия"},{"type":"hashtag","offset":58,"length":7,"data":"Москва"},{"type":"hashtag","offset":66,"length":5,"data":"Java"},{"type":"link","offset":2033,"length":18,"data":"tel:+7 (495) 780-31-65"},{"type":"link","offset":2059,"length":18,"data":"tel:+7 (495) 780-31-67"},{"type":"link","offset":2088,"length":18,"data":"tel:+7 (915) 469-99-53"},{"type":"link","offset":2107,"length":23,"data":"mailto:do.kuznetsova@bpcbt.com"},{"type":"link","offset":2133,"length":13,"data":"http://www.bpcbt.com"},{"type":"handle","offset":2156,"length":13,"data":"KuznetsovaDO"}],"date":"2020-04-01T08:49:26+00:00","link":"tg://resolve?domain=jvmjobs&post=1342","tags":[{"name":"java"},{"name":"jvm"},{"name":"spring"},{"name":"jdbc"},{"name":"junit"},{"name":"ssl"},{"name":"sql"},{"name":"git"},{"name":"maven"},{"name":"gradle"},{"name":"mobile"},{"name":"spring-boot"}],"cities":[{"code":"moscow"}],"allowsRemote":false}},{"node":{"__typename":"Job","id":"1889533952-1001134745498","title":"Devops инженер","text":"#вакансия #Devops #moscow #Linux #linuxsysadmin\nLinux sys admin/Devops\n\nCity: Moscow, Oktyabrskaya  \n\nWork style: office, sometimes remote\n\nWork Schedule: flexible, fulltime\n\nCompany name: System Lab\n\nDomain: Virtualization, infrastructure\n\nSalary range: 180.000..250.000 rub net\n\nResponsibilities:\nManage Docker containers with monitoring and alerting systems\nCreating and supporting Jenkins jobs for automation testing\nManage and operate Gitlab infrastructure by development CI/CD\nSystem administration of Test infrastructure\n\n\nRequirements:\nExpert-level knowledge of Linux System Administration (5 years).\nExperience with monitoring and alerting systems\nSome experience in CI/CD processes, Jenkins, pipelines\nExperience with Strace\n\nNice to have:\nExperience with building and tuning custom Linux Kernel\nSome programming skills in Python\nHand-on experience in building and administering VMs and containers using tools such as Docker, Kubernetes\n\n\nWork Conditions:\nAttractive compensation package + bonuses\nMedical insurance with dental care included and travel insurance\nRelocation bonus for candidates moving from other cities\nFlexible working hours(possible from 14,15 pm), no dress code\nCorporate discounts for purchasing devices\nMobile phone allowance\nOffice gym\nOpportunity for professional growth and career development\nFriendly team, interesting projects, the opportunity for business trips\n\nContacts: @kaizenst\n\n—\n\n👉 Обсуждение вакансии в чате @devops_jobs","markup":[{"type":"hashtag","offset":0,"length":9,"data":"вакансия"},{"type":"hashtag","offset":10,"length":7,"data":"Devops"},{"type":"hashtag","offset":18,"length":7,"data":"moscow"},{"type":"hashtag","offset":26,"length":6,"data":"Linux"},{"type":"hashtag","offset":33,"length":14,"data":"linuxsysadmin"},{"type":"handle","offset":1411,"length":9,"data":"kaizenst"},{"type":"handle","offset":1455,"length":12,"data":"devops_jobs"}],"date":"2020-03-12T13:17:03+00:00","link":"tg://resolve?domain=devops_jobs_feed&post=1802","tags":[{"name":"linux"},{"name":"dotnet"},{"name":"docker"},{"name":"jenkins"},{"name":"gitlab"},{"name":"python"},{"name":"kubernetes"},{"name":"mobile"}],"cities":[{"code":"moscow"},{"code":"nice"}],"allowsRemote":true}},{"node":{"__typename":"Job","id":"3232759808-1001121589364","title":"Dotnet разработчик","text":"Всем привет!\n#вакансия #спб\nИщу разработчика Xamarin в крупную компанию (ведущий брокер строящейся недвижимости, лидер по продажам квартир и объемам ипотечных сделок) на ключевой проект в ИТ портфеле компании.\nСсылка на полное описание вакансии: http://it-dominanta.ru/ru/vacancies/show/1045\nВилка зп: 120-180 тыс.руб. (на руки). Белая зп, есть ДМС,  корпоративные скидки на недвижимость, фитнес, бассейны и много других приятных бонусов. Всех, кого заинтересует - жду в ЛС, буду рада пообщаться более подробно :)","markup":[{"type":"hashtag","offset":13,"length":9,"data":"вакансия"},{"type":"hashtag","offset":23,"length":4,"data":"спб"},{"type":"link","offset":246,"length":45,"data":"http://it-dominanta.ru/ru/vacancies/show/1045"}],"date":"2020-03-10T17:32:38+00:00","link":"tg://resolve?domain=xamarin_jobs&post=3083","tags":[{"name":"dotnet"},{"name":"csharp"},{"name":"mobile"},{"name":"xamarin"}],"cities":[],"allowsRemote":false}},{"node":{"__typename":"Job","id":"637534208-1001089319619","title":"Ruby разработчик","text":"#вакансия #бэкенд #офис #RoR #Ruby #Rails #Москва #фултайм\n\nВакансия: Middle Ruby on Rails backend developer\nКомпания: Revo.ru\nЛокация: Москва, м. Тульская\nФормат работы: офис\nЗанятость: полная, иногда можно работать из дома\nЗарплатная вилка: 170 000 - 190 000 руб net по ТК РФ + оплата конференций и ивентов\n\nРево — финтех компания, на рынке РФ сервис работает с 2012 года, с 2018 запустились в Польше. Поначалу разработку для нас вели команды ДжетРокетса и Эврона, а с выходом в окупаемость мы начали собирать внутреннюю разработку. И за последние несколько лет собрали крутую команду внутренней разработки.\n\nИщу 2-х Middle RoR-разработчиков: \n1 - на разработку&тимлидство B2C-командой (без опыта в тимлидстве, вакансия для тех, кто хочет прокачаться в лида);\n2 - на разработку в B2C-команду.\n\nЧто предлагаем:\n• ЗП до 190 000 руб net, оформление по ТК РФ;\n• место в CoreTeam команды B2C-разработки (4 млн B2C пользователей);\n• оплачиваемые конференции и ивенты;\n• иногородним оказываем помощь с переездом;\n• «железо» на выбор;\n• гибкое начало рабочего дня (8.00-11.00), возможность иногда работать удаленно;\n• турники, «шведская стенка» в 10 метрах от офиса;\n• офис в стиле Loft в Даниловской Мануфактуре, рядом метро Тульская;\n• возможность быстрого роста в тимлида команды B2C-разработки (текущий лид переходит в B2B-\nкоманду);\n• чай, кофе, печенье, снеки, фрукты, оборудованная комфортабельная кухня;\n• тусовки каждую последнюю пятницу месяца;\n\nКоманда B2C-разработки: 2 RoR-разработчика, 3 React-разработчика, 5 mobile-разработчиков, qa. \nСмежники: DevOps, qa, продуктологи, финансисты, рисковики, команда интеграции.\n\nЗадачи:\n• возможность работать и учиться на живом крупном международном проекте;\n• в составе продуктовой Scrum-команды участвовать в полном цикле разработки новых фич для конечных пользователей;\n• разработка новых и поддержка работоспособности существующих облачных сервисов;\n• участие в проектировании и разработке архитектур веб приложений;\n• разработка структур баз данных, хранимых процедур, представлений;\n• декомпозиция и оценка задач, выполнение планов 2-х недельных спринтов;\n• соблюдать баланс между скоростью разработки и перфекционизмом;\n• учиться новому и делиться знаниями с коллегами;\n\nТехнологический стек:\n• Ruby on Rails от 5.2 до 6;\n• PostgreSQL/MySQL;\n• Git, Sidekiq/DelayedJob, Airbrake, ActiveAdmin, Devise, Rspec, FactoryGirl;\n• Обмен между бэком (микросервисы) и фронтом по JSON API (на фронте React + Redux);\n • Nice to have (понимание, как работает): Docker, Kubernetes. \n\nНаши ожидания от кандидата:\n• понимание ООП, MVC, шаблонов проектирования;\n• коммерческий опыт разработки от 3-х лет;\n• понимание принципов RESTful API;\n• умение различать business critical и MVP участки проекта;\n• умение оценивать и выдерживать сроки разработки;\n• опыт работы с PostgreSQL, умение составлять сложные запросы, оптимизировать существующие на уровне чистого SQL;\n• опыт работы с системами кеширования;\n• следование стандартам разработки: стайлгайды, тесты, code review;\n\nДополнительным плюсом будет:\n• опыт работы в финтехе или продуктовой разработке;\n• опыт смены языка разработки и/или предметной области;\n• опыт разработки на функциональных языках.\n\nКонтакты: @akssld","markup":[{"type":"hashtag","offset":0,"length":9,"data":"вакансия"},{"type":"hashtag","offset":10,"length":7,"data":"бэкенд"},{"type":"hashtag","offset":18,"length":5,"data":"офис"},{"type":"hashtag","offset":24,"length":4,"data":"RoR"},{"type":"hashtag","offset":29,"length":5,"data":"Ruby"},{"type":"hashtag","offset":35,"length":6,"data":"Rails"},{"type":"hashtag","offset":42,"length":7,"data":"Москва"},{"type":"hashtag","offset":50,"length":8,"data":"фултайм"},{"type":"bold","offset":60,"length":9,"data":""},{"type":"bold","offset":109,"length":9,"data":""},{"type":"link","offset":119,"length":7,"data":"http://Revo.ru"},{"type":"bold","offset":127,"length":9,"data":""},{"type":"bold","offset":156,"length":14,"data":""},{"type":"bold","offset":176,"length":10,"data":""},{"type":"bold","offset":225,"length":17,"data":""},{"type":"bold","offset":310,"length":4,"data":""},{"type":"bold","offset":611,"length":35,"data":""},{"type":"bold","offset":796,"length":16,"data":""},{"type":"bold","offset":1450,"length":23,"data":""},{"type":"bold","offset":1545,"length":9,"data":""},{"type":"bold","offset":1625,"length":8,"data":""},{"type":"bold","offset":2225,"length":22,"data":""},{"type":"bold","offset":2523,"length":28,"data":""},{"type":"bold","offset":3009,"length":29,"data":""},{"type":"bold","offset":3191,"length":9,"data":""},{"type":"handle","offset":3201,"length":7,"data":"akssld"}],"date":"2020-02-04T13:31:23+00:00","link":"tg://resolve?domain=rubyjob&post=608","tags":[{"name":"ruby"},{"name":"ruby-on-rails"},{"name":"dotnet"},{"name":"reactjs"},{"name":"mobile"},{"name":"postgresql"},{"name":"mysql"},{"name":"git"},{"name":"devise"},{"name":"json"},{"name":"redux"},{"name":"docker"},{"name":"kubernetes"},{"name":"sql"},{"name":"react-redux"}],"cities":[{"code":"moscow"},{"code":"lida"},{"code":"nice"}],"allowsRemote":true}},{"node":{"__typename":"Job","id":"628097024-1001089319619","title":"Ruby разработчик","text":"#вакансия #Senior #Ruby #Rails #Севастополь #офис \n\nгород: Севастополь\nкомпания: SoftLight\nформат работы: офис, fulltime \n\nКратко о нас: \n\nНа протяжении 13 лет наша команда создает кастомные web/mobile applications и design. \nПриглашаем присоединиться к нашей команде Senior RoR разработчика с опытом проектирования и разработки высоконагруженных B2С web applications. \n\nОбязанности:\nПроектирование и разработка серверной части на RoR framework.\n\nПроект - очень сложная и большая финансовая платформа для получения инвестиций, займов etc. на уровне больших компаний (UK). \nОбласть проекта - fintech\n\nТребования: \n\nПрактический опыт работы с RoR/Sinatra/Padrino frameworks от 5 лет \nПрактический опыт работы с PostgreSQL и SQL в целом\nОпыт работы с Redis/Memcached, RSpec\nCистема контроля версий - Git\nБазовые знания Frontend - HTML, CSS, JavaScript/jQuery\nПонимание принципов и шаблонов проектирования сложных систем\nПонимание специфики и опыт работы с highload системами\nАнглийский язык - желательно (Intermediate+), но не обязательно \n\nПлюсом будет:\nОпыт работы с большими объемами данных (сотни GB)\nElasticSearch, MongoDB\nRabbitMQ/Kafka\nДругие технологии JVM/Elixir\nОпыт работы с распределенными системами\n \nМы предлагаем:\n\n- Офис с видом на море и бухту\n- Большая команда опытных разработчиков\n- Бессрочный проект (UK) \n- Сильная проектная команда включая менеджера \n- Бесплатные курсы английского для всех сотрудников\n- Необходимый environment (Mac, PC etc.)\n- Пятидневная рабочая неделя, гибкое начало дня ( с 9-10 до 18-19), госпраздники - выходные\n- Оформление ИП (с нашей стороны бухгалтерское сопровождение + gross) \n- Корпоративный отдых за счет компании\n- Пакет релокации (оплачиваем трансфер в Севастополь и аренду жилья 2 месяца) \n\nВилка: 2800-4000$ net \n\nemail: @MikeHR","markup":[{"type":"hashtag","offset":0,"length":9,"data":"вакансия"},{"type":"hashtag","offset":10,"length":7,"data":"Senior"},{"type":"hashtag","offset":18,"length":5,"data":"Ruby"},{"type":"hashtag","offset":24,"length":6,"data":"Rails"},{"type":"hashtag","offset":31,"length":12,"data":"Севастополь"},{"type":"hashtag","offset":44,"length":5,"data":"офис"},{"type":"handle","offset":1777,"length":7,"data":"MikeHR"}],"date":"2020-01-27T12:08:06+00:00","link":"tg://resolve?domain=rubyjob&post=0","tags":[{"name":"ruby"},{"name":"ruby-on-rails"},{"name":"web"},{"name":"mobile"},{"name":"postgresql"},{"name":"sql"},{"name":"redis"},{"name":"git"},{"name":"html"},{"name":"css"},{"name":"javascript"},{"name":"jquery"},{"name":"elasticsearch"},{"name":"mongodb"},{"name":"rabbitmq"},{"name":"kafka"},{"name":"jvm"},{"name":"elixir"},{"name":"dotnet"}],"cities":[{"code":"sevastopol"}],"allowsRemote":false}}]}}},"context":{}}