{"hash":"f5f6bf98bd95e769321482904cbbd488f77922fd","data":{"records":{"id":"nodejs","name":"nodejs","belongsTo":{"totalCount":122,"pageInfo":{"totalPages":13,"currentPage":9},"edges":[{"node":{"__typename":"Job","id":"17020485632-1001110946746","title":"Js developer","text":"#вакансия  #js  #node #спб                                                                                 Вакансия: BACKEND JS DEVELOPER (NODE.JS) \n\nФормат: офис\nЛокация: санкт-петербург, метро: комендантский проспект\nЗанятость: Полная, офис. (Удаленная работа на время карантина)\nОпыт: от 2 лет\nЗарплата: от 180000 до 300000 тыс. руб на руки\nКомпания: Aline digital agency \n\nУ нас комфортный офис, гибкий график работы, отличный коллектив, классные корпоративы:) Команда занимается написанием софта для крупной международной букмекерской конторы, онлайн-кинотеатра, партнерской программы и других крупных проектов. Наши офисы расположены в Киеве и Спб.\n\nТребования:\n\n🔸 Опыт коммерческой разработки на JavaScript/Java от 2 лет;\n🔸 Опыт работы с базами данных (MySQL / Redis / Clickhouse);\n🔸 Опыт работы с брокерами сообщений и микросервисной архитектурой\n🔸 Опыт работы с Node.js ( koa / Socket.io);\n🔸 Читаемый, комментируемый и поддерживаемый код;\n🔸 Внимательное отношение к своему и чужому коду:)\n\nОбязанности:\n\nНеобходимо будет заниматься поддержкой и развитием новой составляющей нашего сервиса на Nodejs, поэтому опыт обязателен (koa/socket.io).\n\nУсловия:\n\n🔸 Работа в современном офисе недалеко от метро;\n🔸 Оборудованное отличной техникой рабочее место;\n🔸 График 5/2 с сокращенным рабочим днем;\n🔸 Конкурентный уровень ЗП, который будет установлен по результатам собеседования;\n🔸 Перспектива карьерного роста;\n🔸 Оплачиваем ваш переезд, если вы находитесь не в Санкт-Петербурге.\n\nСтек:\n\n🔸 node.js 8+\n🔸 async/await\n🔸 mysql(native driver only/no builders/orm's)\n🔸 redis/rabbit\n🔸 socket.io\n🔸 optional:\n🔸 ramda \n\nПо всем вопросам: @DashaChernenkova\n\n—\n\n👉 Обсуждение вакансии в чате @javascript_jobs","markup":[{"type":"hashtag","offset":0,"length":9,"data":"вакансия"},{"type":"hashtag","offset":11,"length":3,"data":"js"},{"type":"hashtag","offset":16,"length":5,"data":"node"},{"type":"hashtag","offset":22,"length":4,"data":"спб"},{"type":"link","offset":891,"length":9,"data":"http://Socket.io"},{"type":"link","offset":1144,"length":9,"data":"http://socket.io"},{"type":"link","offset":1596,"length":9,"data":"http://socket.io"},{"type":"handle","offset":1648,"length":17,"data":"DashaChernenkova"},{"type":"handle","offset":1700,"length":16,"data":"javascript_jobs"}],"date":"2020-06-17T15:28:54+00:00","link":"tg://resolve?domain=javascript_jobs_feed&post=0","tags":[{"name":"javascript"},{"name":"nodejs"},{"name":"java"},{"name":"mysql"},{"name":"redis"},{"name":"orm"},{"name":"rabbitmq"}],"cities":[],"allowsRemote":false}},{"node":{"__typename":"Job","id":"17014194176-1001110946746","title":"Js разработчик","text":"#вакансия #москва #frontend #Javascript #middle #react #vanilla \n🚀 Frontend developer (middle/middle+) \nГород и адрес офиса: Москва, метро Дмитривская, БЦ Савеловский Сити \nФормат работы: офис, пока что удаленка \nЗанятость: полная \nЗарплатная вилка: от 120 000 до 180 000 RUB net \nОписание вакансии: \n▫Компания Admitad Projects ищет фронтенд-разработчика, который способен писать код с красивой модульной архитектурой под два наших продукта. \n▪ Задачи: \n\n-- доработка сайта и внутреннего редактора материалов (проект Hype.Tech) \n-- создание нового личного кабинета на react (проект Push.World) \n▪ Стек: S6+, React, node.js (опционально) \n▫ Все стильно, модно, молодежно, атмосфера Silicon Valley – included. \n▫ Компания – бизнес-инкубатор и бизнес-акселератор от Адмитада, под ее крышей собрано N стартапов, есть собственная и аутсорс-разработка, сейчас ищем в конкретный проект. \nНазвание компании: Admitad (Admitad/Projects)  \nКонтакты: @Si8eria or a.podolskaya@admitad.pro\nЗа успешную рекомендацию - бутылочка просекко🍸\n\n—\n\n👉 Обсуждение вакансии в чате @javascript_jobs","markup":[{"type":"hashtag","offset":0,"length":9,"data":"вакансия"},{"type":"hashtag","offset":10,"length":7,"data":"москва"},{"type":"hashtag","offset":18,"length":9,"data":"frontend"},{"type":"hashtag","offset":28,"length":11,"data":"Javascript"},{"type":"hashtag","offset":40,"length":7,"data":"middle"},{"type":"hashtag","offset":48,"length":6,"data":"react"},{"type":"hashtag","offset":55,"length":8,"data":"vanilla"},{"type":"handle","offset":940,"length":8,"data":"Si8eria"},{"type":"link","offset":952,"length":24,"data":"mailto:a.podolskaya@admitad.pro"},{"type":"handle","offset":1059,"length":16,"data":"javascript_jobs"}],"date":"2020-06-17T15:23:50+00:00","link":"tg://resolve?domain=javascript_jobs_feed&post=0","tags":[{"name":"javascript"},{"name":"reactjs"},{"name":"dotnet"},{"name":"nodejs"}],"cities":[{"code":"moscow"}],"allowsRemote":true}},{"node":{"__typename":"Job","id":"17009999872-1001110946746","title":"Js разработчик","text":"#вакансия #удаленно #frontend #react\nКомпания - VMB\nГород - Москва \nМетро - Киевская\nФормат - удаленная работа \nГрафик - полный рабочий день \n\n📍Приглашаем middle/middle + frontend разработчика развивать социальный и известный проект \n📍Что нужно? \nзнание React и TypeScript;\nотличное владение чистым JS;\nхорошее знание Node.js и ES6;\nхорошее знание HTML и CSS;\nумение работать с Git;\nпонимание особенностей SPA-приложений.\n📍Плюсами будут:\nпонимание принципов разработки изоморфных приложений;\nопыт разработки под мобильные браузеры;\nзнакомство с Unix-системами;\nопыт написания тестов (юнит- или интеграционных);\nопыт работы с системами сборки (Webpack, Rollup, Gulp, Grunt и т. п.);\nопыт работы с системами непрерывной интеграции (TeamСity, Travis, Jenkins, Drone и т. п.).\n📍Что предлагаем?\nУдалённую занятость \nВозможность развиваться и развивать интересный проект\nЗП 150-200к рублей на руки \n\nКонтакты \n@nariarakel","markup":[{"type":"hashtag","offset":0,"length":9,"data":"вакансия"},{"type":"hashtag","offset":10,"length":9,"data":"удаленно"},{"type":"hashtag","offset":20,"length":9,"data":"frontend"},{"type":"hashtag","offset":30,"length":6,"data":"react"},{"type":"handle","offset":908,"length":11,"data":"nariarakel"}],"date":"2020-06-17T15:21:28+00:00","link":"tg://resolve?domain=javascript_jobs_feed&post=0","tags":[{"name":"javascript"},{"name":"reactjs"},{"name":"typescript"},{"name":"nodejs"},{"name":"html"},{"name":"css"},{"name":"git"},{"name":"unix"},{"name":"webpack"},{"name":"gulp"},{"name":"gruntjs"},{"name":"jenkins"}],"cities":[{"code":"moscow"},{"code":"kiev"}],"allowsRemote":true}},{"node":{"__typename":"Job","id":"17006854144-1001110946746","title":"Js разработчик","text":"Greenatom.ru\n#вакансия #Москва #javascript #React #Typescript #Node.js #Middle #Senior #удаленка #удаленная работа \n\n👨🏼‍💻 Middle/Senior Frontend Developer, Middle/Senior Backend Developer\nГород и адрес офиса: #Москва, БЦ Сириус Парк, метро Нагатинская\n\n✅Формат работы: \nУДАЛЕННАЯ РАБОТА\n\n💻Занятость: полная, гибкое начало трудового дня.\n\nЗарплатная вилка: от 170 000 до 230 000 руб. на руки.\n\n🏢Компания: АО Гринатом\n\nПривет! Мы растём и активно развиваем ряд внутренних проектов: например, корпоративный портал, горячая линия, собственная кадровая система для нескольких сотен предприятий. Мы формируем НЕСКОЛЬКО КОМАНД и ищем классных:\n\n✅ФРОНТЕНД  разработчиков;\n\n✅БЭКЕНД разработчиков. \n\nПроекты в стадии разработки пилота и у тебя есть возможность повлиять на дальнейшее развитие продукта. Если у тебя есть крутые идеи - ты сможешь их здесь реализовать! Откликайся сам и зови друзей! Вирус пройдёт, работа останется!\n\n✅Требуемые знания и навыки:\n- Опыт разработки от двух лет\n- Хорошее знание чистого JS\n- Опыт работы с TypeScript\n- React, MobX, Less/Sass\n- Опыт написания юнит-тестов с помощью Jest, Enzymе очень приветствуется\n\n💡Наш стек:\n      React, TypeScript, Node.js, MobX, Docker\n\nМы работаем по Scrum.\n\n✅Условия:\n- Официальное оформление по ТК, белая зп;\n- Возможности профессионального и карьерного роста;\n- Дополнительные 3 дня к отпуску;\n- Плавающее начало дня;\n- ДМС со стоматологией\n\n☎️Контакты:\nЮлия - YAnZueva@Greenatom.ru\n\n—\n\n👉 Обсуждение вакансии в чате @javascript_jobs","markup":[{"type":"link","offset":0,"length":12,"data":"http://Greenatom.ru"},{"type":"hashtag","offset":13,"length":9,"data":"вакансия"},{"type":"hashtag","offset":23,"length":7,"data":"Москва"},{"type":"hashtag","offset":31,"length":11,"data":"javascript"},{"type":"hashtag","offset":43,"length":6,"data":"React"},{"type":"hashtag","offset":50,"length":11,"data":"Typescript"},{"type":"hashtag","offset":62,"length":5,"data":"Node"},{"type":"hashtag","offset":71,"length":7,"data":"Middle"},{"type":"hashtag","offset":79,"length":7,"data":"Senior"},{"type":"hashtag","offset":87,"length":9,"data":"удаленка"},{"type":"hashtag","offset":97,"length":10,"data":"удаленная"},{"type":"hashtag","offset":212,"length":7,"data":"Москва"},{"type":"link","offset":1426,"length":21,"data":"mailto:YAnZueva@Greenatom.ru"},{"type":"handle","offset":1482,"length":16,"data":"javascript_jobs"}],"date":"2020-06-17T15:17:29+00:00","link":"tg://resolve?domain=javascript_jobs_feed&post=0","tags":[{"name":"javascript"},{"name":"reactjs"},{"name":"typescript"},{"name":"nodejs"},{"name":"sass"},{"name":"docker"}],"cities":[{"code":"moscow"}],"allowsRemote":true}},{"node":{"__typename":"Job","id":"17005805568-1001110946746","title":"Js разработчик","text":"#вакансия #удаленка #frontend #react\n\nПривет, мы ищем в команду опытного фронта, уровня middle, middle+, senior.\n\nГород и адрес офиса: Москва, Парк Культуры, Кропоткинская\n\nФормат работы: офис, удаленка\n\nЗанятость: полная\n\nЗарплатная вилка:  от 100к до 170к руб на руки\n\nОписание вакансии: \n\nМы занимаемся разработкой внутреннего продукта компании - платформой информационного оператора. Платформа состоит из разных модулей, среди которых есть картографический сервис, конструктор аналитики, личный кабинет и многие другие. Некоторые из них еще находятся на этапе проектирования. Пользователь получает продукт, собранный из модулей, как конструктор.\n\nПишем мы на React, в некоторых модулях используем дизайн систему Ant. Стараемся следить за кодом, делаем код-ревью, но иногда можем оставить технический долг “на потом” ради ускорения процесса.\n\nДля нас очень важным качеством является самостоятельность. Зачастую для нетривиальных задач нужно проводить анализ, делать ресерч. В большинстве случаев перед интеграцией с серверной частью мы делаем прототипы интерфейса без дизайна, основываясь на существующих компонентах и решениях.\n\nМы хотим, чтобы ты:\n- участвовал в принятии архитектурных решений и активно занимался разработкой проекта;\n- знал плюсы и минусы выбранного решения и был бы готов их обосновывать;\n- умел разбираться в чужом коде;\n- не пугался отсутствия подробного ТЗ или дизайна;\n\nНавыки, которые пригодятся:\n- уверенное владение JavaScript (es5, es6+);\n- хороший опыт работы с React (Hooks, Context API, etc);\n- опыт работы с библиотеками для управления состоянием приложения (redux/mobx);\n- понимание принципов REST;\n- понимание асинхронности;\n\nБудем плюсом, если ты:\n- строил карты на фронте (Openlayers, Mapbox, etc);\n- сам настраивал Webpack;\n- делал архитектуру приложений с нуля;\n- писал тесты (интеграционные, юнит);\n- писал на Node JS;\n\nНам не важно где ты находишься, если у тебя нормальный интернет и ты готов быть на связи в установленное время. Как правило, разброс активности ребят в команде с 10 утра до 8 вечера по Москве. Мы также можем предоставить тебе рабочее место в офисе в центре Москвы, возле Парка Культуры.\n\nОформляем по ТК, белая ЗП, ДМС по истечению испытательного срока, если нет препятствий к оформлению в России. Можем заключить договор ГПХ.\n\nПостарайся к отклику, помимо резюме, прикрепить проект, компонент или библиотеку, которыми ты гордишься, чтобы мы посмотрели на твой код.\n\nОдним из этапов собеседования может быть тестовое задание.\n\nНазвание компании: Центр 2М\n\nКонтакты: @fedorm\n\n—\n\n👉 Обсуждение вакансии в чате @javascript_jobs","markup":[{"type":"hashtag","offset":0,"length":9,"data":"вакансия"},{"type":"hashtag","offset":10,"length":9,"data":"удаленка"},{"type":"hashtag","offset":20,"length":9,"data":"frontend"},{"type":"hashtag","offset":30,"length":6,"data":"react"},{"type":"handle","offset":2529,"length":7,"data":"fedorm"},{"type":"handle","offset":2571,"length":16,"data":"javascript_jobs"}],"date":"2020-06-17T15:17:00+00:00","link":"tg://resolve?domain=javascript_jobs_feed&post=0","tags":[{"name":"javascript"},{"name":"reactjs"},{"name":"ant"},{"name":"redux"},{"name":"rest"},{"name":"webpack"},{"name":"nodejs"}],"cities":[{"code":"moscow"}],"allowsRemote":true}},{"node":{"__typename":"Job","id":"16997416960-1001110946746","title":"Js разработчик","text":"#вакансия \"Front-end разработчик\" г.Нур-Султан (Астана)\nПредлагаемая заработная плата 300 000 – 500 000 KZT на руки.\n🔹Информация о Работодателе:\nКазахстанская IT компания. Инновационный продукт компании успешно существует на рынке более 4 лет и насчитывает более 500 пользователей по всему Казахстану.\nМы ищем человека, который будет вовлечен в разработку данной информационной системы на длительное время.\n🔹Обязанности:\n• Разработка frontend-части проекта; \n• Доработка существующих версий проектов; \n• Проектирование пользовательских интерфейсов; \n• Кроссбраузерная и адаптивная верстка HTML5/CSS3; \n• Полное понимание предметной области и консультированаие Back-end разработчиков; \n• Анализ существующих систем и разработка способов интеграции; \n• Оптимизация клиентского портала (#JS, #CSS);\n🔹Основные требования: \n• Свободное владение #HTML и CSS; \n• Понимание препроцессоров CSS (Sass (SCSS), #Less, #Stylus, CSS3); \n• Свободное владение #JavaScript (ES6+), Vue.js (2.x); \n• Знание и опыт работы с фреймворками и библиотеками: #Angular.JS, #React.JS; \n• Владение инструментами дебаггинга; \n• Владение инструментами контроля версий (#Git); \n• #Element, #Webpack; \n• Понимание принципов построения бекэнда и серверных технологий (Node.js, #PHP, #Ruby, .NET и т.д.\n 🔹Условия: \n• Стабильно высокую зарплату от 300 000 до 500 000 тг. на руки; \n• Пятидневная рабочая неделя с 9:00 до 18:00; \n• Дружный коллектив, оказывающий поддержку во всем; \n• Возможности внедрять идеи и инициативы; \n• Возможность обучения за счет организации; \n• Работа в офисе по адресу г. Нур-Султан (Астана), ул. Иманова.\n\n📩Эл. почта для резюме: ke@recrutoman.kz\n\n—\n\n👉 Обсуждение вакансии в чате @javascript_jobs","markup":[{"type":"hashtag","offset":0,"length":9,"data":"вакансия"},{"type":"hashtag","offset":786,"length":3,"data":"JS"},{"type":"hashtag","offset":791,"length":4,"data":"CSS"},{"type":"hashtag","offset":843,"length":5,"data":"HTML"},{"type":"hashtag","offset":902,"length":5,"data":"Less"},{"type":"hashtag","offset":909,"length":7,"data":"Stylus"},{"type":"hashtag","offset":947,"length":11,"data":"JavaScript"},{"type":"hashtag","offset":1036,"length":8,"data":"Angular"},{"type":"hashtag","offset":1049,"length":6,"data":"React"},{"type":"hashtag","offset":1141,"length":4,"data":"Git"},{"type":"hashtag","offset":1151,"length":8,"data":"Element"},{"type":"hashtag","offset":1161,"length":8,"data":"Webpack"},{"type":"hashtag","offset":1246,"length":4,"data":"PHP"},{"type":"hashtag","offset":1252,"length":5,"data":"Ruby"},{"type":"link","offset":1626,"length":16,"data":"mailto:ke@recrutoman.kz"},{"type":"handle","offset":1677,"length":16,"data":"javascript_jobs"}],"date":"2020-06-17T15:08:41+00:00","link":"tg://resolve?domain=javascript_jobs_feed&post=0","tags":[{"name":"javascript"},{"name":"html"},{"name":"css"},{"name":"sass"},{"name":"vuejs"},{"name":"angularjs"},{"name":"reactjs"},{"name":"git"},{"name":"webpack"},{"name":"nodejs"},{"name":"php"},{"name":"ruby"},{"name":"dotnet"}],"cities":[],"allowsRemote":false}},{"node":{"__typename":"Job","id":"16994271232-1001110946746","title":"Js разработчик","text":"#вакансия #удаленка #работа #js #javascript #разработчик\n\nГород и адрес офиса: Тель-Авив \nФормат работы: удаленка\nЗанятость: полная, гибкий график.\n\nЗарплатная вилка: 5500-6000$/мес. (Почасовая оплата 35$/час + ежемесячный бонус 250$)\n\nНалоги платите по месту жительства. ИП 6%. Если патент, то он зависит от места жительства. В Подмосковье 12 000 руб в год. В Москве 300 тыс. в год. Как сами оформите налоги, так и платите. \n\nИщу разработчика к нам в команду: израильский проект Luminati (https://luminati.io).  Full-Stack. Компания разрабатывает несколько продуктов, в том числе p2p vpn, видео cdn нового поколения http://holaspark.com/\nОфис в Тель-Авиве, работа удаленная! График свободный. Что нам нужно:\n\n • Knowledge in Node JS framework: ExpressJS, Promise - Experience with MongoDB \n- Creating RESTful web services/API’s using Node.js with or without framework assistance \n\n- JavaScript-based unit testing tools \n\n- Client-side browser technologies including JavaScript, CSS, and HTML \n\n- 1 year development experience in Node JS with a solid working knowledge of frameworks and architecture \n\n- 2+ year’s overall development experience using JavaScript and open web technologies \n\n- хороший английский язык, идеальная грамматика не обязательна \n\n • работа удаленная, 7-9 часов в день (по желанию)\n • зарплата от 35$/час (+фиксированный бонус 250$ ежемесячно), через полгода повышается\n • после того, как откроют границы и будут возможны перелёты - выезд в офис на заключение контракта (перед этим возможно заключение с электронной подписью), отель и перелет за счет компании, море под окном\n\nОтвечу на все вопросы:)\n\nИнстаграмм https://instagram.com/hola_better_internet\n\nРезюме сюда:  luda.hola@gmail.com\n\n—\n\n👉 Обсуждение вакансии в чате @javascript_jobs","markup":[{"type":"hashtag","offset":0,"length":9,"data":"вакансия"},{"type":"hashtag","offset":10,"length":9,"data":"удаленка"},{"type":"hashtag","offset":20,"length":7,"data":"работа"},{"type":"hashtag","offset":28,"length":3,"data":"js"},{"type":"hashtag","offset":32,"length":11,"data":"javascript"},{"type":"hashtag","offset":44,"length":12,"data":"разработчик"},{"type":"link","offset":490,"length":19,"data":"https://luminati.io"},{"type":"link","offset":617,"length":21,"data":"http://holaspark.com/"},{"type":"link","offset":1637,"length":42,"data":"https://instagram.com/hola_better_internet"},{"type":"link","offset":1695,"length":19,"data":"mailto:luda.hola@gmail.com"},{"type":"handle","offset":1749,"length":16,"data":"javascript_jobs"}],"date":"2020-06-17T15:04:21+00:00","link":"tg://resolve?domain=javascript_jobs_feed&post=0","tags":[{"name":"javascript"},{"name":"nodejs"},{"name":"mongodb"},{"name":"web"},{"name":"css"},{"name":"html"},{"name":"unit-testing"}],"cities":[],"allowsRemote":true}},{"node":{"__typename":"Job","id":"2218786816-1001134745498","title":"Devops инженер","text":"#вакансия #DevOps\n\nDevOps Engineer \nГород и адрес офиса: Москва, Сочи, Новосибирск \n\nФормат работы: удаленка\n\nЗанятость: полная\n\nЗарплатная вилка: от 40000 до 60000 USD в год \n\nКрупная международная компания по разработке игр ищет в свою команду DevOps инженера. \n\nТребования: \nDevOps/SRE, ключевые слова:\nTypeScrypt, Node.js, SRE, SDN, PoP, VPN, динамическая маршрутизация, инкапсуляция трафика, Kubernetes, Helm и что-нибудь из стораджа типа Lustre, CEPH и про Apache Spark, Hadoop и особенно HDFS\n\nБудет плюсом: \n• Опыт удаленной работы.\n\nP.S. Ищем супер ниндзю, который творит чудеса;) \n\nКонтакт для связи: @nastya_stret\n\n—\n\n👉 Обсуждение вакансии в чате @devops_jobs","markup":[{"type":"hashtag","offset":0,"length":9,"data":"вакансия"},{"type":"hashtag","offset":10,"length":7,"data":"DevOps"},{"type":"handle","offset":611,"length":13,"data":"nastya_stret"},{"type":"handle","offset":659,"length":12,"data":"devops_jobs"}],"date":"2020-06-17T11:52:49+00:00","link":"tg://resolve?domain=devops_jobs_feed&post=2116","tags":[{"name":"nodejs"},{"name":"kubernetes"},{"name":"apache"},{"name":"hadoop"},{"name":"hdfs"},{"name":"apache-spark"}],"cities":[{"code":"moscow"},{"code":"sochi"},{"code":"novosibirsk"}],"allowsRemote":true}},{"node":{"__typename":"Job","id":"16991125504-1001110946746","title":"Js разработчик","text":"Greenatom.ru\n#вакансия #Москва #javascript #React #Typescript #Node.js #Middle #Senior #удаленка #удаленная работа \n\n👨🏼‍💻 Middle/Senior Frontend Developer, Middle/Senior Backend Developer\nГород и адрес офиса: #Москва, БЦ Сириус Парк, метро Нагатинская\n\n✅Формат работы: \nУДАЛЕННАЯ РАБОТА\n\n💻Занятость: полная, гибкое начало трудового дня.\n\nЗарплатная вилка: от 170 000 до 230 000 руб. на руки.\n\n🏢Компания: АО Гринатом\n\nПривет! Мы растём и активно развиваем ряд внутренних проектов: например, корпоративный портал, горячая линия, собственная кадровая система. Мы формируем НЕСКОЛЬКО КОМАНД и ищем классных:\n\n✅фронтенд разработчиков;\n\n✅бэкенд разработчиков. \n\nПроекты в стадии разработки пилота и у тебя есть возможность повлиять на дальнейшее развитие продукта. Если у тебя есть крутые идеи - ты сможешь их здесь реализовать! Откликайся сам и зови друзей! Вирус пройдёт, работа останется!\n\n✅Требуемые знания и навыки:\n- Опыт разработки от двух лет\n- Хорошее знание чистого JS\n- Опыт работы с TypeScript\n- React, MobX, Less/Sass\n- Опыт написания юнит-тестов с помощью Jest, Enzymе очень приветствуется\n\n💡Наш стек:\n      React, TypeScript, Node.js, MobX, Docker\n\nМы работаем по Scrum.\n\n✅Условия:\n- Официальное оформление по ТК, белая зп;\n- Возможности профессионального и карьерного роста;\n- Дополнительные 3 дня к отпуску;\n- Плавающее начало дня;\n- ДМС со стоматологией\n\n☎️Контакты:\nЮлия - YAnZueva@Greenatom.ru\n\n—\n\n👉 Обсуждение вакансии в чате @javascript_jobs","markup":[{"type":"link","offset":0,"length":12,"data":"http://Greenatom.ru"},{"type":"hashtag","offset":13,"length":9,"data":"вакансия"},{"type":"hashtag","offset":23,"length":7,"data":"Москва"},{"type":"hashtag","offset":31,"length":11,"data":"javascript"},{"type":"hashtag","offset":43,"length":6,"data":"React"},{"type":"hashtag","offset":50,"length":11,"data":"Typescript"},{"type":"hashtag","offset":62,"length":5,"data":"Node"},{"type":"hashtag","offset":71,"length":7,"data":"Middle"},{"type":"hashtag","offset":79,"length":7,"data":"Senior"},{"type":"hashtag","offset":87,"length":9,"data":"удаленка"},{"type":"hashtag","offset":97,"length":10,"data":"удаленная"},{"type":"hashtag","offset":212,"length":7,"data":"Москва"},{"type":"link","offset":1392,"length":21,"data":"mailto:YAnZueva@Greenatom.ru"},{"type":"handle","offset":1448,"length":16,"data":"javascript_jobs"}],"date":"2020-06-16T19:43:17+00:00","link":"tg://resolve?domain=javascript_jobs_feed&post=0","tags":[{"name":"javascript"},{"name":"reactjs"},{"name":"typescript"},{"name":"nodejs"},{"name":"sass"},{"name":"docker"}],"cities":[{"code":"moscow"}],"allowsRemote":true}},{"node":{"__typename":"Job","id":"16990076928-1001110946746","title":"Js developer","text":"#вакансия #удаленка #nodejs \n\nRocketech.it срочно ищет Middle+ Backend Node.js Developer\n\nФормат занятости: удаленка\nЗанятость: part-time\nЗарплатная вилка: 1200-1700$/месяц на руки\n\nО компании: \n\nRocketech - компания, предоставляющая полноценные продуктовые команды для инвесторов, стартаперов и крупных компаний. Мы уже больше 5 лет на рынке разработки програмного обеспечения. Сотни выполненых кейсов, десятки крупных клиентов. \n\nО проекте:\n\nМаркетинговый инструмент.\n\nСтек технологий: \n\nNest.js, MongoDB\n\nТребования: \n\n3+ года опыта коммерческой разработки на Node.js\n\nБудет плюсом:\n\nРазговорный английский\n\nКонтакт: @mxm_at\n\n—\n\n👉 Обсуждение вакансии в чате @javascript_jobs","markup":[{"type":"hashtag","offset":0,"length":9,"data":"вакансия"},{"type":"hashtag","offset":10,"length":9,"data":"удаленка"},{"type":"hashtag","offset":20,"length":7,"data":"nodejs"},{"type":"link","offset":30,"length":12,"data":"http://Rocketech.it"},{"type":"handle","offset":620,"length":7,"data":"mxm_at"},{"type":"handle","offset":662,"length":16,"data":"javascript_jobs"}],"date":"2020-06-16T19:42:25+00:00","link":"tg://resolve?domain=javascript_jobs_feed&post=0","tags":[{"name":"javascript"},{"name":"nodejs"},{"name":"mongodb"}],"cities":[],"allowsRemote":true}}]}}},"context":{}}