{"hash":"f5f6bf98bd95e769321482904cbbd488f77922fd","data":{"records":{"id":"russia/moscow","country":{"code":"russia","ruName":"Россия","enName":"Russia"},"city":{"code":"moscow","ruName":"Москва","enName":"Moscow"},"belongsTo":{"totalCount":476,"pageInfo":{"totalPages":48,"currentPage":17},"edges":[{"node":{"__typename":"Job","id":"1750073344-1001091028994","title":"Java разработчик","text":"#java #fulltime\n\nНа проект от одного из лидирующих российских банков требуется\nMiddle Java Developer (backend)\n\nЛокация: Москва, ул. Сретенка\nФормат работы: Офис\nЗанятость: полная\n\nВилка зп: 200 000 рублей/месяц нетто\n\nСтек: \nSpring, Hibernate, Maven, JMS, REST, SOAP, Git, Jenkins, UML, TestNG.\n\nТребования: \n- Опыт от 2х лет разработки высоко-нагруженных и отказоустойчивых фронтальных систем.\n- Знание основных методологий разработки программного обеспечения, включая гибкие методологии.\n- Опыт командной разработки.\n- Умение разбираться в чужом коде, писать чистый и понятный код для других разработчиков, опыт написания автотестов.\n- Уверенное знание Java Core (типы данных, Collections Framework, JMM...)\n- Знание парадигм ООП и их реализации в Java.\n- Знание структур данных и алгоритмов.\n- Знание шаблонов проектирования (GoF)\n\nКонтакт: @mxm_at","markup":[{"type":"hashtag","offset":0,"length":5,"data":"java"},{"type":"hashtag","offset":6,"length":9,"data":"fulltime"},{"type":"handle","offset":845,"length":7,"data":"mxm_at"}],"date":"2020-06-27T12:39:42+00:00","link":"tg://resolve?domain=jvmjobs&post=1669","tags":[{"name":"java"},{"name":"jvm"},{"name":"spring"},{"name":"hibernate"},{"name":"maven"},{"name":"rest"},{"name":"soap"},{"name":"git"},{"name":"jenkins"}],"cities":[{"code":"moscow"}],"allowsRemote":false}},{"node":{"__typename":"Job","id":"1749024768-1001091028994","title":"Java developer","text":"Вакансия: Java developer \n\nПроект: Риск менеджмент (бэкофисная система) позволяет отслеживать рыночные риски (финансовые риски) на платформе Московской бирже.\n\nТехнологический стек на проекте: Java , Scala, Spring Framework, Apache Kafka.\n\nЧто предлагаем:\n• Разработка сервисов анализа и контроля рисков на базе внутренней интеграционной платформы (микросервисная архитектура);\n• Разработка модульных (Unit) тестов (TestNG + mocks);\n• Диагностика и исправление ошибок, выявленных на стадии эксплуатации (3-я линия поддержки);\n• Ведение технической (неформальной) документации в confluence.\n\nЧто ожидаем от Вас:\n• Опыт промышленной разработки (от 3 лет);\n• Фундаментальные знания принципов построения распределенных систем;\n• Уверенные знания core Java;\n• Знание паттернов проектирования;\n• Приветствуется знание финансовых рынков и опыт работы в сфере финансов.\n\nНаши условия работы:\n• Офис в центре: г. Москва, м. Арбатская/Библиотека им. Ленина/Боровицкая/Александровский сад;\n• Занятость: полная, официальное оформление в штат компании;\n• ДМС: с первого рабочего дня;\n• Свой «корпоративный университет», собственный лекторий, широкие возможности обучения – как внутри, так и вне компании;\n• Формат работы: современный  офис возле Кремля в шаговой доступности от метро (на данный момент работаем удаленно из дома);\n• Компания: ПАО Московская биржа (Компания, входящая в 500 - лучших работодателей мира по версии Forbes за 2019 год);\n• Уровень з/п:  230 - 290 тыс.руб. (gross) + годовой бонус;\n• Формат интервью: 1 этап онлайн интервью (60-90 минут). \n\nПишите в личку, отвечу на любые вопросы!\nКонтакты: @Sasha_P92","markup":[{"type":"handle","offset":1605,"length":10,"data":"Sasha_P92"}],"date":"2020-06-26T17:13:47+00:00","link":"tg://resolve?domain=jvmjobs&post=1668","tags":[{"name":"java"},{"name":"jvm"},{"name":"scala"},{"name":"spring"},{"name":"apache"},{"name":"kafka"}],"cities":[{"code":"moscow"}],"allowsRemote":true}},{"node":{"__typename":"Job","id":"1747976192-1001091028994","title":"Java разработчик","text":"Вакансия: Архитектор системы\n \nПроект: Разрабатываем единый веб-терминал MOEX Treasury, который позволит получить быстрый и удобный доступ ко всем рынкам Московской Биржи, а также сервисам по управлению обеспечением и внебиржевым операциям. Это не просто веб-интерфейс к уже существующим торговым системам, а новая платформа, которая взаимодействует со всеми основными торговыми и бэк-офисными системами Биржи, которая сейчас начинает активно развиваться.\n \nТехнологический стек: Java 8, Spring (Spring Boot, Spring MVC), Hazelcast, WebSocket, RabbitMQ, Firebird (с переходом на PostgreSQL), в интеграционных решения REST API и JMS.\n\nЗадачи на проекте:\nРазработка стратегии технического развития платформы, объединяющей основные рынки и инструменты Московской Биржи;\nПроектирование сервисов и интерфейсов взаимодействия с учетом нефункциональных требований, надежности обратной совмести и т.д.;\nВзаимодействие с внутренними и внешними разработчиками для контроля реализации архитектурных решений;\nВзаимодействие с аналитиками и заказчиками для выработки оптимальных технологических решений.\n \nЧто мы ожидаем:\nЗнание теоретических основ и опыт проектирования и эксплуатации отказоустойчивых систем;\nЗнание принципов ООП и понимание паттернов проектирования;\nУмение создавать техническую документацию;\nТехнологии: HTTP, REST, WebSocket OpenAPI/Swagger, XML, XSD, JAVA, JSON, Apache Tomcat, RabbitMQ, Hazelcast, rdms;\nДополнительным плюсом является: знание протоколов FIX и FAST, работа в финансовой сфере, опыт проектирования брокерских систем.\n\nНаши условия работы:\n• Компания: ПАО Московская биржа (Компания, входящая в 500 - лучших работодателей мира по версии Forbes за 2019 год);\n• Офис в центре: г. Москва, м. Арбатская/Библиотека им. Ленина/Боровицкая/Александровский сад;\n• Занятость: полная, официальное оформление в штат компании (оформление онлайн);\n• Формат работы: современный  офис возле Кремля в шаговой доступности от метро (на данный момент работаем удаленно из дома);\n• ДМС: с первого рабочего дня;\n• Свой «корпоративный университет», собственный лекторий, широкие возможности обучения – как внутри, так и вне компании;\n• Уровень з/п:  300 - 350 тыс.руб. (gross) + годовой бонус (32% годового дохода);\n• Формат интервью: 1 -2 этапа онлайн интервью (60 минут).\n\nПишите в личку, отвечу на любые вопросы!\nКонтакты: @Sasha_P92\nAlexander.Panin@moex.com","markup":[{"type":"bold","offset":0,"length":28,"data":""},{"type":"bold","offset":31,"length":8,"data":""},{"type":"bold","offset":458,"length":22,"data":""},{"type":"bold","offset":634,"length":18,"data":""},{"type":"bold","offset":1093,"length":15,"data":""},{"type":"bold","offset":1544,"length":20,"data":""},{"type":"bold","offset":1838,"length":19,"data":""},{"type":"handle","offset":2328,"length":10,"data":"Sasha_P92"},{"type":"link","offset":2339,"length":24,"data":"mailto:Alexander.Panin@moex.com"}],"date":"2020-06-26T17:13:34+00:00","link":"tg://resolve?domain=jvmjobs&post=1667","tags":[{"name":"java"},{"name":"jvm"},{"name":"spring"},{"name":"websocket"},{"name":"rabbitmq"},{"name":"postgresql"},{"name":"rest"},{"name":"swagger"},{"name":"xml"},{"name":"xsd"},{"name":"json"},{"name":"apache"},{"name":"tomcat"},{"name":"spring-boot"},{"name":"spring-mvc"}],"cities":[{"code":"moscow"}],"allowsRemote":true}},{"node":{"__typename":"Job","id":"1746927616-1001091028994","title":"Java developer","text":"Вакансия: Java developer \n \nПроект: Разрабатываем единый веб-терминал MOEX Treasury, который позволит получить быстрый и удобный доступ ко всем рынкам Московской Биржи, а также сервисам по управлению обеспечением и внебиржевым операциям. Это не просто веб-интерфейс к уже существующим торговым системам, а новая платформа, которая взаимодействует со всеми основными торговыми и бэк-офисными системами Биржи, которая сейчас начинает активно развиваться.\n \nТехнологический стек на проекте: Java 8, Spring (Spring Boot, Spring MVC), Hazelcast, WebSocket, RabbitMQ, Firebird (с переходом на PostgreSQL), в интеграционных решения REST API и JMS.\n \nЗадачи на проекте:\n Участие в проекте по разработке платформы, объединяющей основные рынки и инструменты Московской Биржи;\n Разработка и отладка модулей платформы;\n Интеграция приложения с внешними и внутренними сервисами;\n Написание понятного и стабильно работающего кода;\n Активное взаимодействие со специалистами из смежных подразделений;\n Поиск и аргументация технически эффективных путей решения бизнес задач;\n Умение и желание писать чистый и понятный код;\n Навык написания unit и интеграционных тестов на Java;\n Паттерны проектирования.\n\nЧто ожидаем от Вас:\n Опыт промышленной разработки (от 3 лет);\n\nФундаментальные знания принципов построения распределенных систем;\n Уверенные знания core Java;\n Опыт разработки веб-сервисов;\n Знание паттернов проектирования;\n Применение практик TDD, DDD, CI/CD.\n\nНаши условия работы:\n• Компания: ПАО Московская биржа (Компания, входящая в 500 - лучших работодателей мира по версии Forbes за 2019 год);\n• Офис в центре: г. Москва, м. Арбатская/Библиотека им. Ленина/Боровицкая/Александровский сад;\n• Занятость: полная, официальное оформление в штат компании (оформление онлайн);\n• Формат работы: современный  офис возле Кремля в шаговой доступности от метро (на данный момент работаем удаленно из дома);\n• ДМС: с первого рабочего дня;\n• Свой «корпоративный университет», собственный лекторий, широкие возможности обучения – как внутри, так и вне компании;\n• Уровень з/п:  230 - 290 тыс.руб. (gross) + годовой бонус (25% от годового дохода);\n• Формат интервью: 1 этап онлайн интервью (60 минут).\n\nПишите в личку, отвечу на любые вопросы!\nКонтакты: @Sasha_P92\nAlexander.Panin@moex.com","markup":[{"type":"bold","offset":0,"length":25,"data":""},{"type":"bold","offset":28,"length":8,"data":""},{"type":"bold","offset":455,"length":33,"data":""},{"type":"bold","offset":643,"length":18,"data":""},{"type":"bold","offset":1188,"length":19,"data":""},{"type":"bold","offset":1450,"length":20,"data":""},{"type":"bold","offset":1744,"length":19,"data":""},{"type":"handle","offset":2233,"length":10,"data":"Sasha_P92"},{"type":"link","offset":2244,"length":24,"data":"mailto:Alexander.Panin@moex.com"}],"date":"2020-06-26T17:13:07+00:00","link":"tg://resolve?domain=jvmjobs&post=1666","tags":[{"name":"java"},{"name":"jvm"},{"name":"spring"},{"name":"websocket"},{"name":"rabbitmq"},{"name":"postgresql"},{"name":"rest"},{"name":"spring-boot"},{"name":"spring-mvc"}],"cities":[{"code":"moscow"}],"allowsRemote":true}},{"node":{"__typename":"Job","id":"72111620096-1001054966032","title":"Ios разработчик","text":"#вакансия #москва #офис #senior #ios #developer #gamedev #swift \nГород и адрес офиса: Москва, м.Автозаводская \nФормат работы: офис \nЗанятость: полная \nЗарплатная вилка: от 250 000 до 300 000 на руки \n\n\n✅ Senior iOS Developer \n\nОписание вакансии: \n\nМы - успешная команда из 120 человек, которая занимается: \n• разработкой собственных мобильных игр и приложений \n• паблишингом мобильных игр \n• рекламой и маркетингом мобильных приложений (реклама на Facebook, Google и т.д.) \nЗа последние 3 года мы привлекли более 100 млн пользователей в наши собственные мобильные приложения и приложения наших клиентов и партнеров, потратив на это более $80 млн. \n\nУ нас есть все составляющие чтобы делать готовые продукты известными и популярными. Мы ищем сильного и талантливого разработчика для усиления нашей текущей слаженно работающей команды и выведения нашего Fitness & Health iOS приложения Fitingo на лидирующие позиции в мире (уже сейчас приложение занимало позиции ТОП 13 в США и ТОП 6 в Великобритании с более чем 400,000 установок и более чем 45,000 совершенных покупок).\n\n✅Задачи: \n\n•  Разрабатывать новый функционал\n•  Рефакторить и оптимизировать код\n•  Писать код. Больше логики, меньше UI. Например - хранить историю и прогресс; сделать leaderboard по странам; добавить чат, аналитику и a/b тесты; Apple Health, Watch, Music и TV\n•  Участвовать в Code Review\n\nТекущий стек: Swift 5.1, MVPC, AVFoundation, UserNotifications, Realm, StoreKit, Firebase, PushWoosh, Facebook, Python.\n\n✅Требования: \n\n•  Опыт работы разработчиком iOS приложений от 3х лет\n•  Отличное знание Swift\n•  Уверенное знание SOLID и паттернов проектирования\n•  Умение профилировать приложение (Батарейка, утечки и вот это все)\n•  Опыт работы с системой контроля версий\n•  Наличие выпущенных проектов на Swift\n•  Желание делать красивые, интересные и популярные приложения\n\n✅Будет плюсом: \n\n•  Умение/желание писать небольшие серверные скрипты (например на Python)\n•  Умение автоматизировать рутинные процессы\n•  Умение рефакторить код итеративно\n•  Адекватный перфекционизм\n\n\n✅Для вас: \n\n•  Конкурентная заработная плата, выплачивается 2 раза в месяц\n•  Необходимое оборудование для работы\n•  Возможность набрать команду и выстроить всю работу под себя в краткосрочной перспективе\n•  Оформление по ТК РФ, оплачиваемые больничные, 28 дней оплачиваемого отпуска в год\n•  Возможны регулярные бонусы по результатам работы проектов\n•  Собеседование с лицом принимающим решение\n•  Возможность коммуницировать с людьми, которые принимают продуктовые решения\n\n✅О нас: \n\n•  Просторный офис 600 метров на м. Автозаводская (3 минуты от метро и от ТТК на машине) с ультра современным дизайном и кучей ништяков (кухня с вкусняшками, кальяны каждый вечер в дружной кампании, PS4 Pro + 4K TV, аркадные автоматы с Pac-Man, Metal Slug и другими хитами геймдизайна, просторная зона отдыха, 5 переговорных комнат и т д)\n•  Команда из 100 человек занимающаяся паблишингом и маркетингом, готовая сделать продукт успешным после его готовности\n•  Возможность обучаться английскому языку с носителями каждый будний день по утрам\n•  Менторы и инвесторы, создавшие большое количество успешных IT компаний (оборот в 2018 году более 140 млн долларов)\n\nНазвание компании: AppQuantum \n\nКонтакты: \ne-mail: vika@adquantum.com\ntelegram: @wikki13","markup":[{"type":"hashtag","offset":0,"length":9,"data":"вакансия"},{"type":"hashtag","offset":10,"length":7,"data":"москва"},{"type":"hashtag","offset":18,"length":5,"data":"офис"},{"type":"hashtag","offset":24,"length":7,"data":"senior"},{"type":"hashtag","offset":32,"length":4,"data":"ios"},{"type":"hashtag","offset":37,"length":10,"data":"developer"},{"type":"hashtag","offset":48,"length":8,"data":"gamedev"},{"type":"hashtag","offset":57,"length":6,"data":"swift"},{"type":"link","offset":3248,"length":18,"data":"mailto:vika@adquantum.com"},{"type":"handle","offset":3277,"length":8,"data":"wikki13"}],"date":"2020-06-26T16:57:05+00:00","link":"tg://resolve?domain=mobile_jobs&post=68771","tags":[{"name":"mobile"},{"name":"ios"},{"name":"swift"},{"name":"realm"},{"name":"firebase"},{"name":"python"}],"cities":[{"code":"moscow"}],"allowsRemote":false}},{"node":{"__typename":"Job","id":"103850967040-1001089317451","title":"Qa инженер","text":"#remote #вакансия #удаленка #manual #qa\n\nВсем привет! ✌🏻\n\nКоманда Dostavista.global ищет в свои ряды талантливого QA Инженера 🤓\n\n💥Немного о нас💥\nDostavista основана в 2012 году. Аналог Uber в курьерской доставке. Курьеры работают через приложения для iOS и Android, доставляют десятки тысяч отправлений ежедневно. Достависта — крупнейшая в Европе служба доставки «день в день». Работаем в 10 странах (Россия, Южная Корея, Индия, Турция, Бразилия, Мексика, Индонезия, Вьетнам, Филиппины, Таиланд, Малайзия) под собственными локальными брендами.\n\n💥Твои задачи💥\n\n- Тестирование различных модулей системы (большинство из них не имеют пользовательского интерфейса);\n- Тестирование различных алгоритмов (маршрутизация, динамическое ценообразование, динамическое изменение видимости ордеров и т.д.);\n- Интеграционное тестирование;\n- Ведение тестовой документации: чек-листы, тест-кейсы, планы тестирования, отчеты об ошибках;\n- Подготовка тестовой среды и тестовых данных, разработка простейших инструментов для автоматизации этого процесса;\n- Анализ больших объемов данных (логи, MySQL, ClickHouse).\n\n\n💥Наши пожелания💥\n\n- Отличные аналитические навыки, уверенное знание SQL, желателен опыт работы с ClickHouse;\n- Умение работать с логами;\n- Базовые навыки программирования (умение самостоятельно писать простые автотесты на любом языке программирования).\n- Базовые навыки работы с Linux;\n- Уровень английского от intermediate и выше.\n\n💥Мы предлагаем💥\n\n- Удаленная работа;\n- Осенью откроется московский офис после ремонта, при желании можно будет работать там вместо удалёнки;\n - Офисы в 9 других странах, и туда тоже можно ездить работать;\n- Гибкий график, отпуска и болезни без бюрократии;\n- Неформальная обстановка внутри команды;\n- Полностью белая заработная плата, оформление по ТК;\n- Ежегодная индексация заработной платы;\n- Скидка на изучение английского в онлайн-школе Skyeng;\n- Оплата отпусков, больничных, курсов и конференций, корпоративная библиотека;\n- ДМС (включая стоматологию и массаж).\n\n💰По зарплате готовы обсуждать от 120 000 на руки и выше💰\n\nОткрыты к диалогу!\n\nПо всем вопросам пишите:\n@annfilimonova\nafi@dostavista.ru","markup":[{"type":"hashtag","offset":0,"length":7,"data":"remote"},{"type":"hashtag","offset":8,"length":9,"data":"вакансия"},{"type":"hashtag","offset":18,"length":9,"data":"удаленка"},{"type":"hashtag","offset":28,"length":7,"data":"manual"},{"type":"hashtag","offset":36,"length":3,"data":"qa"},{"type":"link","offset":67,"length":17,"data":"http://Dostavista.global"},{"type":"bold","offset":131,"length":15,"data":""},{"type":"bold","offset":549,"length":13,"data":""},{"type":"bold","offset":1102,"length":20,"data":""},{"type":"bold","offset":1439,"length":13,"data":""},{"type":"bold","offset":2009,"length":54,"data":""},{"type":"handle","offset":2112,"length":14,"data":"annfilimonova"},{"type":"link","offset":2127,"length":17,"data":"mailto:afi@dostavista.ru"}],"date":"2020-06-26T16:42:56+00:00","link":"tg://resolve?domain=qa_jobs&post=99040","tags":[{"name":"qa"},{"name":"ios"},{"name":"android"},{"name":"mysql"},{"name":"sql"},{"name":"linux"}],"cities":[{"code":"moscow"}],"allowsRemote":true}},{"node":{"__typename":"Job","id":"26608664576-1001075660570","title":"Php разработчик","text":"#вакансия #backend #php #cs-cart\n\n+ обучение\n\nГород и адрес офиса: Москва (м.Курская)\nФормат работы: удаленно/офис \nЗанятость: частичная\nЗарплата: 1000 руб/час\n\n\nНужен человек с хорошим знанием php и опытом работы с CMS, в идеале опыт с CS-CART и smarty. Но достаточно и простых знаний php, остальному обучим. От Вас требуется энтузиазм и желание работать\n\nЗадачи:\n- разработка backend на php;\n\nТребования:\n- опыт разработки на php от 1-го года;\n- опыт работы с MYSQL;\n\n\nУсловия:\n- Ежедневная оплата по факту отработанных часов;\n- Офис в Москве (м.Кожуховская), возможность 100% времени работать удаленно;\n\nКонтакты: @coffer_studio\n+7 995 001 23 24","markup":[{"type":"hashtag","offset":0,"length":9,"data":"вакансия"},{"type":"hashtag","offset":10,"length":8,"data":"backend"},{"type":"hashtag","offset":19,"length":4,"data":"php"},{"type":"hashtag","offset":24,"length":3,"data":"cs"},{"type":"handle","offset":617,"length":14,"data":"coffer_studio"},{"type":"link","offset":632,"length":16,"data":"tel:+7 995 001 23 24"}],"date":"2020-06-26T15:50:43+00:00","link":"tg://resolve?domain=php_jobs&post=25376","tags":[{"name":"php"},{"name":"mysql"}],"cities":[{"code":"moscow"}],"allowsRemote":true}},{"node":{"__typename":"Job","id":"72094842880-1001054966032","title":"Android разработчик","text":"#вакансия #iOS #android #developer #remote #InStat \n\nГород и адрес офиса: Москва, ст.м. Автозаводская\nФормат работы: удаленка\nЗанятость: полная/проектная\nЗарплатная вилка: от 80 до 130 net\nОписание вакансии:\n\nВсем привет. Ищем разработчиков приложений для Apple TV и Android TV(Box). Мы занимаемся сложными задачами, а также хотим разработать с нуля приложения, а у вас есть возможность поработать в спортивном стартапе и сделать лучшее приложение на рынке.\nЧто главное:\nОпыт разработки приложений Apple TV/Android box обязательно;\nОпыт по созданию продукта для просмотра видео-контента\nЗадачи:\nРазработка OTT приложения для Apple TV/Android box, анализ и оценка задач;\nпроведение code review, участие в SCRUM активностях\nТребования:\nзнание основных паттернов проектирования, REST API; SOLID, GCD, MVP/MVVM, опыт разработки по Apple TV/Android TV, box, знание Android Studio \nМы предлагаем:\nофициальное трудоустройство, полный соц. пакет;удаленное сотрудничество\nПодробнее о вакансиях тут: \nhttps://hh.ru/vacancy/37544424\nhttps://hh.ru/vacancy/37520710\n\nНазвание компании: InStat (https://instatsport.com/)\n\nКонтакты: yana.gurinovich@instatsport.com\n @Yana_Gurinovich","markup":[{"type":"hashtag","offset":0,"length":9,"data":"вакансия"},{"type":"hashtag","offset":10,"length":4,"data":"iOS"},{"type":"hashtag","offset":15,"length":8,"data":"android"},{"type":"hashtag","offset":24,"length":10,"data":"developer"},{"type":"hashtag","offset":35,"length":7,"data":"remote"},{"type":"hashtag","offset":43,"length":7,"data":"InStat"},{"type":"link","offset":991,"length":30,"data":"https://hh.ru/vacancy/37544424"},{"type":"link","offset":1022,"length":30,"data":"https://hh.ru/vacancy/37520710"},{"type":"link","offset":1081,"length":24,"data":"https://instatsport.com/"},{"type":"link","offset":1118,"length":31,"data":"mailto:yana.gurinovich@instatsport.com"},{"type":"handle","offset":1151,"length":16,"data":"Yana_Gurinovich"}],"date":"2020-06-26T13:27:24+00:00","link":"tg://resolve?domain=mobile_jobs&post=68755","tags":[{"name":"mobile"},{"name":"android"},{"name":"ios"},{"name":"dotnet"},{"name":"rest"},{"name":"mvvm"},{"name":"android-studio"}],"cities":[{"code":"moscow"}],"allowsRemote":true}},{"node":{"__typename":"Job","id":"1745879040-1001091028994","title":"Java разработчик","text":"#вакансия #Java #Spring #middle #backend #удаленно #relocate\n👋Приглашаем Strong Middle Java Developer в продуктовую компанию HFLabs.\n📍Локация: удаленно или можно в офис (Москва м. Парк культуры).\n💸Уровень ЗП: от 180 000 до 250 000 руб. (обсуждается!).\n\nКомпания: HFLabs -разработчик собственных решений. MDM - Master Data Management - Управление основными мастер-данными, СУБД, СХД, Серверные платформы.\n\n🏢О проекте: «Единый клиент» собирает и поддерживает эталонную клиентскую базу. Автоматически исправляет ошибки в клиентских данных, отделяет «плохие» данные от «хороших», находит и схлопывает дубли, идентифицирует взаимосвязи. «Единый клиент» уже обработал 15 млрд. записей и успешно конкурирует с enterprise-продуктами от Oracle и IBM. 100% собственная разработка HFLabs, 0% «индусского» кода.\n\n🧑‍💻Наш стек:\n•Java 11, Stream API, регулярно обновляемые библиотеки;\n•Maven для сборки;\n•Spring как основа проекта;\n•Lucene в качестве быстрого полнотекстового кэша;\n•Oracle DB, PostgreSQL в качестве основной БД. 99% стандартный SQL, никакой «логики на БД»;\n•Spring REST на сервере, JS на клиенте (клиентом занимается фронтенд-разработчик).\n\n✅Мы предлагаем:\n•При переезде в Москву помогаем с оплатой жилья в первые 6 месяцев❗️\n•Участие в разработке крутого продукта в команде, которая ценит Ваше мнение;\n•Мощную технику (8+ ядер, 32+ оперативки, SSD, 2 монитора);\n•Дружный коллектив, 80 человек;\n•При выборе работы в офисе-просторный и тихий офис рядом с м. Парк культуры, кабинет на 2-3 человек или личный;\n•Любые курсы и конференции по специальности.\n\nЖду Ваши резюме и буду рада ответить на все вопросы. Прекрасного дня!☺️\nКонтакты для связи: telegram @anisimovaane4ka","markup":[{"type":"hashtag","offset":0,"length":9,"data":"вакансия"},{"type":"hashtag","offset":10,"length":5,"data":"Java"},{"type":"hashtag","offset":16,"length":7,"data":"Spring"},{"type":"hashtag","offset":24,"length":7,"data":"middle"},{"type":"hashtag","offset":32,"length":8,"data":"backend"},{"type":"hashtag","offset":41,"length":9,"data":"удаленно"},{"type":"hashtag","offset":51,"length":9,"data":"relocate"},{"type":"handle","offset":1662,"length":16,"data":"anisimovaane4ka"}],"date":"2020-06-26T13:22:43+00:00","link":"tg://resolve?domain=jvmjobs&post=1665","tags":[{"name":"java"},{"name":"jvm"},{"name":"spring"},{"name":"oracle"},{"name":"maven"},{"name":"lucene"},{"name":"postgresql"},{"name":"sql"},{"name":"rest"}],"cities":[{"code":"moscow"}],"allowsRemote":true}},{"node":{"__typename":"Job","id":"72091697152-1001054966032","title":"Android разработчик","text":"#вакансия #android #office #Москва #fulltime #developer #Kotlin #разработчик \nКомпания: Мидлэнд ритейл Груп                                                                                                                  Город и адрес офиса: Москва, м. Парк Культуры\nФормат работы: офис \nЗанятость: полная \nЗарплатная вилка: от 190 000 до 240 000 на руки \n                                                                                                                                                         👉Задачи:\nПоддержка существующего Android проекта на Kotlin;\nРазвитие нового функционала;\nУчастие в проектирование продукта (API и внутренняя архитектура);\nВзаимодействие с дизайнерами и тестировщиками;\nПроведение code-review.                                                                                                   \n                                                                                                                                                                             👉Мы ожидаем от тебя:\nОпыт в разработке Android от 3-х лет;\nСвободное владение Java и Android SDK;\nЗнание шаблонов проектирования MVP, MVVP, набор компонентов Android Jetpack, умение их применять;\nПоддерживаемый и тестируемый код;\nУмение работать в команде, находить убедительные аргументы, конструктивно реагировать на аргументы коллег;\nЖелание непрерывно совершенствовать свои навыки.\n                                                                                                                                                          👉Мы приветствуем:\nОпыт работы с гибкими методологиями (Scrum, Kanban);\nОпыт работы с картами (google maps);\nУмение работать в команде, находите убедительные аргументы, конструктивно реагируете на аргументы коллег.               \n                                                                                                                                                                                                                                               👉Что мы предлагаем:                                                                                                                                               Оформление по ТК РФ                                                                                                                             Дружный коллектив профессионалов. В команде 3 высококлассных разработчика Android.                                                                                                                         Супер интересные задачи в международной социальной сети.                                                                                              Чай, кофе и вкусняшки.\nПо вакансии написать: tatia B. (+79776905011)","markup":[{"type":"hashtag","offset":0,"length":9,"data":"вакансия"},{"type":"hashtag","offset":10,"length":8,"data":"android"},{"type":"hashtag","offset":19,"length":7,"data":"office"},{"type":"hashtag","offset":27,"length":7,"data":"Москва"},{"type":"hashtag","offset":35,"length":9,"data":"fulltime"},{"type":"hashtag","offset":45,"length":10,"data":"developer"},{"type":"hashtag","offset":56,"length":7,"data":"Kotlin"},{"type":"hashtag","offset":64,"length":12,"data":"разработчик"},{"type":"bold","offset":78,"length":29,"data":""},{"type":"bold","offset":108,"length":246,"data":""},{"type":"bold","offset":511,"length":8,"data":""},{"type":"bold","offset":1010,"length":20,"data":""},{"type":"bold","offset":1551,"length":17,"data":""},{"type":"bold","offset":2020,"length":160,"data":""},{"type":"link","offset":2733,"length":12,"data":"tel:+79776905011"}],"date":"2020-06-26T12:19:06+00:00","link":"tg://resolve?domain=mobile_jobs&post=68752","tags":[{"name":"mobile"},{"name":"android"},{"name":"kotlin"},{"name":"java"},{"name":"google-maps"}],"cities":[{"code":"moscow"}],"allowsRemote":false}}]}}},"context":{}}