{"hash":"f34fd2c444a074f4e0e67d525015a008ef8e766f","data":{"records":{"totalCount":178,"pageInfo":{"totalPages":18,"currentPage":9},"edges":[{"node":{"id":"98118402048-1001089317451","title":"Qa engineer","text":"#вакансия #СПБ #fulltime #office\n\nГород: Санкт-Петербург\nПозиция: Senior QA Engineer\nКомпания: Antal Russia\nФормат работы: офис, полная занятость \nЗарплатная вилка: до 150k gross + ежемесячные и квартальные бонусы (З/П обсуждаем индивидуально)\n\nО проекте:\nНужен Senior QA Engineer в команду, разрабатывающую интерфейсы сервиса обновления, сервиса метаданных и VOD-контента. \nМы используем микросервисную архитектуру, применяем на backend как основной язык Python, а на frontend - стандартный web-стек (JS, CSS, HTML).\n\nКого мы ищем?\n- Опыт тестирования от 3-х лет;\n- Опыт тестирования веб сервисов (UI+backend);\n- Знание реляционных СУБД (Postgres);\n- Умение работать с ОС Linux в консоли;\n- Знание Python, JavaScript, опыт программирования приветствуется;\n- Опыт автоматизации Selenium;\n- Опыт наставничества/управления небольшой командой.\n\nМы предлагаем:\n- Современный офис в Петербурге\n- Иногда можно работать удалённо;\n- ДМС и врач в офисе;\n- Оплата спорта и проф. курсов;\n- Помощь с переездом семьи из любого региона России.\n\nКонтакты куда слать СV резюме: kristina.shaburova@antalrussia.com\ntelegram @hello_intelligence","markup":[{"type":"hashtag","offset":0,"length":9,"data":"вакансия"},{"type":"hashtag","offset":10,"length":4,"data":"СПБ"},{"type":"hashtag","offset":15,"length":9,"data":"fulltime"},{"type":"hashtag","offset":25,"length":7,"data":"office"},{"type":"italic","offset":34,"length":6,"data":""},{"type":"italic","offset":57,"length":8,"data":""},{"type":"bold","offset":66,"length":19,"data":""},{"type":"italic","offset":85,"length":9,"data":""},{"type":"italic","offset":108,"length":14,"data":""},{"type":"italic","offset":147,"length":17,"data":""},{"type":"bold","offset":245,"length":11,"data":""},{"type":"bold","offset":519,"length":14,"data":""},{"type":"bold","offset":842,"length":15,"data":""},{"type":"bold","offset":1062,"length":63,"data":""},{"type":"link","offset":1062,"length":34,"data":"mailto:kristina.shaburova@antalrussia.com"},{"type":"handle","offset":1106,"length":19,"data":"hello_intelligence"}],"date":"2020-04-07T09:10:42+00:00","link":"tg://resolve?domain=qa_jobs&post=93573","tags":[{"name":"qa"},{"name":"python"},{"name":"web"},{"name":"css"},{"name":"html"},{"name":"postgresql"},{"name":"linux"},{"name":"javascript"},{"name":"selenium"}],"cities":[],"allowsRemote":true}},{"node":{"id":"24325914624-1001075660570","title":"Php разработчик","text":"#вакансия #удаленка #php #yii\n #штат #highload #ecommerce #официально\n\nРебята, наша компания Hidden Team расширяет штат и приглашает на работу backend-разработчиков уровня middle/middle+. Мы занимаемся разработкой highload проектов в сфере e-commerce и сложных ERP систем. Сотрудничаем с топовыми веб-студиями и digital-агентствами России, любим Битрикс и возможность решать нестандартные проблемы из любой точки страны!\n\nЧто бы мы хотели видеть у наших кандидатов?\n🔸Хорошие знания программирования (PHP, ООП).\n🔸Опыт работы на фреймворке Yii/Symfony/Laravel\n🔸Опыт работы с Git.\n🔸Опыт работы в консоли linux.\n🔸Базовые знания html, java script, css.\n🔸Понимание принципов построения RESTFul сервисов.\n🔸Желателен опыт работы с чем-либо RabbitMQ, Redis, ElasticSearch, PostgreSQL.\n🔸Английский на уровне чтения технической документации.\n\nЛичные качества: аккуратность, внимательность к мелочам, самостоятельность и организованность, умение работать в команде, быстро реагировать на запросы и изменение ситуации, желание обучаться и развиваться, стремление сделать работу максимально качественно.\n\nМы предлагаем:\n🔹только удаленная работа с отлаженным процессом менеджмента проектов (трекинг в Redmine, оценка задач разработчиками);\n🔹работа над сложными e-commerce проектами для крупнейших российских веб-студий (топ-10 рейтинга рунета);\n🔹многосерверная архитектура, высокие нагрузки (500К+ посетителей/месяц);\n🔹множество различных интеграций с большими объемами данных;\n🔹индивидуальные планы развития;\n🔹обучение и семинары внутри компании, собственная он-лайн школа на стадии запуска;\n🔹перспективы карьерного роста (повышения уровня разработчика до senior/team lead, возможность релокации);\n🔹 заработная плата 70К-120К+ по итогам собеседования (белая, на руки), открытая система грейдов;\n🔹 официальное оформление по ТК РФ, оплачиваемый отпуск, удобный график (начало работы 8-11), в выходные, праздники и по ночам не работаем☺️.\n\nКонтакты: Яна @yanaizosimova","markup":[{"type":"hashtag","offset":0,"length":9,"data":"вакансия"},{"type":"hashtag","offset":10,"length":9,"data":"удаленка"},{"type":"hashtag","offset":20,"length":4,"data":"php"},{"type":"hashtag","offset":25,"length":4,"data":"yii"},{"type":"hashtag","offset":31,"length":5,"data":"штат"},{"type":"hashtag","offset":37,"length":9,"data":"highload"},{"type":"hashtag","offset":47,"length":10,"data":"ecommerce"},{"type":"hashtag","offset":58,"length":11,"data":"официально"},{"type":"handle","offset":1954,"length":14,"data":"yanaizosimova"}],"date":"2020-04-07T08:24:30+00:00","link":"tg://resolve?domain=php_jobs&post=23199","tags":[{"name":"php"},{"name":"yii"},{"name":"symfony"},{"name":"laravel"},{"name":"git"},{"name":"linux"},{"name":"html"},{"name":"java"},{"name":"css"},{"name":"rabbitmq"},{"name":"redis"},{"name":"elasticsearch"},{"name":"postgresql"}],"cities":[],"allowsRemote":true}},{"node":{"id":"24324866048-1001075660570","title":"Php разработчик","text":"#вакансия #php #backend #senior #developer #удалённо #фуллтайм\n\n📌Vigrom – международная компания-разработчик. Более 9 лет мы создаём решения и продукты для онлайн-игр.\nСегодня в компании работает более 150 сотрудников из России, Латвии, Кипра.\n\n📍Мы ищем Senior PHP developer в сложный и масштабный проект.\n\nСтек наших технологий: PHP 7.4, PostgreSQL 12, Memcache, компоненты Symfony, PHPUnit, Docker, Gitlab CI.\n\nВам предстоит:\n\n🔹 Работа над новым функционалом, непрерывные улучшения и оптимизации текущего;\n🔹Активное участие во всём процессе разработки, начиная с проектирования и заканчивая запуском и поддержкой;\n🔹Коммуникация с командами мобильной разработки и разработки игр. Поиски оптимальных вариантов реализации (архитектура, API, сервисы);\n🔹 Unit- и API-тестирование;\n🔹Проведение Code review;\n🔹Участие в технологическом развитии проекта (выбор новых технологий и подходов к разработке);\n🔹Обеспечение качества кода на всех этапах разработки.\n\nЧто нужно знать/уметь/иметь:\n\n🔹Опыт разработки веб-приложений и сервисов от 3х лет;\n🔹Уверенное владение PHP (сильные и слабые стороны языка);\n🔹 Опыт проектирования реляционных баз данных, уверенное владение SQL;\n🔹 Опыт разработки веб-приложений под существенную нагрузку;\n🔹 Понимание ООП и принципов SOLID;\n🔹 Применение модульного тестирования;\n🔹Быть открытым к диалогу и вести аргументированные споры.\n\nПлюсом будет:\n\n🔹Опыт работы в долгосрочных проектах;\n🔹Опыт работы с PostgreSQL;\n🔹 Знание дополнительных языков - JS, Python.\n\nМы предлагаем:\n\n🔹Высокую заработную плату  + бонусы за результат;\n🔹Возможность карьерного роста;\n🔹Посещение профильных конференций и митапов;\n🔹Сильную команду разработчиков, где можно серьезно прокачать свои скиллы;\n🔹Корпоративные мероприятия, открытое общение с коллегами как в сети, так и в реальном мире. \n\n📝Пиши: @ladychekman, Наталья","markup":[{"type":"hashtag","offset":0,"length":9,"data":"вакансия"},{"type":"hashtag","offset":10,"length":4,"data":"php"},{"type":"hashtag","offset":15,"length":8,"data":"backend"},{"type":"hashtag","offset":24,"length":7,"data":"senior"},{"type":"hashtag","offset":32,"length":10,"data":"developer"},{"type":"hashtag","offset":43,"length":9,"data":"удалённо"},{"type":"hashtag","offset":53,"length":9,"data":"фуллтайм"},{"type":"handle","offset":1824,"length":12,"data":"ladychekman"}],"date":"2020-04-07T07:40:30+00:00","link":"tg://resolve?domain=php_jobs&post=23198","tags":[{"name":"php"},{"name":"postgresql"},{"name":"symfony"},{"name":"phpunit"},{"name":"docker"},{"name":"gitlab"},{"name":"sql"},{"name":"python"}],"cities":[],"allowsRemote":true}},{"node":{"id":"98081701888-1001089317451","title":"Qa engineer","text":"#вакансия #москва #fulltime #qaengineer #manual #офис\n\nДолжность: QA Engineer\nКомпания: DAOGroup\nГород: Москва, м. Павелецкая\nТип занятости: фулл-тайм, офис (удалённо на период всеобщей борьбы с вирусом)\nЗ/п: 80-120К на руки\n\nКомпания занимается разработкой собственного b2b crypto-payment решения, которое помогает покупать и оплачивать товары и услуги, выводить средства как в крипте, так и в фиате. Компания создает экосистему для гемблинговой индустрии на собственном блокчейне. \n\nЗа что нужно будет отвечать:\nИзучение проекта - бизнес value, архитектурные особенности, знакомство с подходами + изучение существующих тест-кейсов\nНачало тестирования под руководством Lead QA\n\nОт вас:\nОпыт работы от 2 лет в области тестирования web и мобильных приложений\nНавыки создания документации по тестированию (тест-планы, тест-кейсы, чек-листы)\nОпыт работы с баг-трекинговыми системами (например, JIRA или Redmine)\nОпыт работы хотя бы с одной из систем контроля версий (mercurial/git/svn)\n\nОт нас:\nКомфортный офис и рабочее пространство\nВозможность обучения и сертификации за счет компании, посещение профессиональных конференций\nГибкий график 5/2, гибкое начало рабочего дня\nПостоянный рост и развитие\nМинимум бюрократии и адекватное руководство\n\ncv и вопросы можно в лс - @dnotna","markup":[{"type":"hashtag","offset":0,"length":9,"data":"вакансия"},{"type":"hashtag","offset":10,"length":7,"data":"москва"},{"type":"hashtag","offset":18,"length":9,"data":"fulltime"},{"type":"hashtag","offset":28,"length":11,"data":"qaengineer"},{"type":"hashtag","offset":40,"length":7,"data":"manual"},{"type":"hashtag","offset":48,"length":5,"data":"офис"},{"type":"handle","offset":1271,"length":7,"data":"dnotna"}],"date":"2020-04-06T16:19:02+00:00","link":"tg://resolve?domain=qa_jobs&post=0","tags":[{"name":"qa"},{"name":"web"},{"name":"mercurial"},{"name":"git"},{"name":"svn"}],"cities":[{"code":"moscow"}],"allowsRemote":true}},{"node":{"id":"16198402048-1001110946746","title":"Js developer","text":"#вакансия #Nodejs #Москва #удалёнка #офис\n\nПозиция: Backend-developer \nФормат: #удалёнка или #Москва офис\nЗанятость: #fulltime \nЗарплатная вилка: от 120 000  до 190 000 руб. net\nКомпания: Paradigmfund https://paradigmfund.io/\n\n Задачи\n\n •  Разработка и поддержка проектов компании (Блокчейн эксплорер);\n • Работа с различными БД (основная: PostgreSQL, периодически: leveldb, yandex clickhouse)\n • Работа в команде\n\nТребования:\n\n • Опыт работы с JS и NodeJS от 3 лет;\n • Большой опыт работы с различными базами данных, в частности PostgreSQL\n • Желание увеличивать этот опыт ^, много работы с БД, быть к этому готовым. \n • Умение работать с git;\n • Плюсом будет опыт работы с python и golang на уровне чтения чужого кода. \n\nУсловия:\n \n • Работа по Agile, используем Jira/Confluence\n • Полная удаленка с графиком или офис в центре Москвы\n • Командировки в Токио\n • Премии и ежегодный рост\n\nПишите в личку, желательно сразу с резюме: @grshabl","markup":[{"type":"hashtag","offset":0,"length":9,"data":"вакансия"},{"type":"hashtag","offset":10,"length":7,"data":"Nodejs"},{"type":"hashtag","offset":18,"length":7,"data":"Москва"},{"type":"hashtag","offset":26,"length":9,"data":"удалёнка"},{"type":"hashtag","offset":36,"length":5,"data":"офис"},{"type":"hashtag","offset":79,"length":9,"data":"удалёнка"},{"type":"hashtag","offset":93,"length":7,"data":"Москва"},{"type":"hashtag","offset":117,"length":9,"data":"fulltime"},{"type":"link","offset":201,"length":24,"data":"https://paradigmfund.io/"},{"type":"handle","offset":931,"length":8,"data":"grshabl"}],"date":"2020-04-06T14:42:38+00:00","link":"tg://resolve?domain=javascript_jobs_feed&post=15448","tags":[{"name":"javascript"},{"name":"nodejs"},{"name":"dotnet"},{"name":"postgresql"},{"name":"git"},{"name":"python"},{"name":"go"}],"cities":[{"code":"moscow"},{"code":"tokyo"}],"allowsRemote":true}},{"node":{"id":"16197353472-1001110946746","title":"Javascript разработчик","text":"#вакансия #angular #react #москва #релокация\n\nГород: Москва (Сокольники или Павелецкая), есть релокационный пакет\n\nФормат работы: офис, возможна удаленка после шести месяцев работы\n\nЗанятость: полная\n\nВилка: 180-250 т.р. на руки\n\nИщем коллегу для создания и развития современного сервиса дистанционных банковских услуг.\n\n• SPA на Angular 8\n\n• Пишем на TypeScript, ES6 Modules, SASS\n\n• Собираем в Webpack\n\n• Храним в Git\n\nМы также готовы рассмотреть кандидатов, которые имеют опыт работы на React, но хотели бы перейти на Angular.\n\nНазвание компании: ПСБ\nhttps://www.psbank.ru/\nhttps://hh.ru/vacancy/33110730\n\nКонтакты: @max_gusev\ngusevms@psbank.ru","markup":[{"type":"hashtag","offset":0,"length":9,"data":"вакансия"},{"type":"hashtag","offset":10,"length":8,"data":"angular"},{"type":"hashtag","offset":19,"length":6,"data":"react"},{"type":"hashtag","offset":26,"length":7,"data":"москва"},{"type":"hashtag","offset":34,"length":10,"data":"релокация"},{"type":"link","offset":554,"length":22,"data":"https://www.psbank.ru/"},{"type":"link","offset":577,"length":30,"data":"https://hh.ru/vacancy/33110730"},{"type":"handle","offset":619,"length":10,"data":"max_gusev"},{"type":"link","offset":630,"length":17,"data":"mailto:gusevms@psbank.ru"}],"date":"2020-04-06T14:42:01+00:00","link":"tg://resolve?domain=javascript_jobs_feed&post=15447","tags":[{"name":"javascript"},{"name":"angularjs"},{"name":"reactjs"},{"name":"typescript"},{"name":"sass"},{"name":"webpack"},{"name":"git"}],"cities":[{"code":"moscow"}],"allowsRemote":true}},{"node":{"id":"1971322880-1001134745498","title":"Devops engineer","text":"DevOps engineer\n#вакансия #DevOps #noremote #fulltime \n\nВакансия: DevOps engineer\nКомпания: ДОМ.РФ / ООО «Цифровые технологии»\nГород: Москва. ст.м. Арбатская\nФормат работы: #офис\nЗанятость: #полная\nЗарплата : от 160 до 200 на руки.\n\nТебе предстоит:\n•  Поддержка ETL процессов;\n•  Участие в процессах внедрения ПО;\n•  Администрирование операционных систем *nix и общесистемного ПО;\n•  Развертывание и конфигурирование стендов под различные нужды;\n•  Решение возникающих проблем, устранение нештатных ситуаций;\n•  Участие в разработке конструкторской и эксплуатационной документации;\n•  Формирование требований к системе резервного копирования. \n\nЗдорово если у тебя есть:\n•  Знание серверной операционной системы Linux;\n•  Уверенное понимание принципов работы сетей TCP/IP: адресация, маршрутизация, стек протоколов, сетевые топологии, принципы работы VLAN, VPN, DNS, DHCP;\n•  Практический опыт автоматизации управления средами с применением docker, Kubernetes, ansible;\n•  Практический опыт разработки технологической или эксплуатационной документации;\n•  Практический опыт конфигурирования систем хранения данных (желательно);\n•  Практический опыт конфигурирования и администрирования общесистемного ПО: системы виртуализации, СУБД (PostgreSQL), серверы приложений, системы обработки сообщений, средства мониторинга и управления, elastic search;\n\nМы предлагаем:\n•  Комфортный офис в центре Москвы;\n•  Работа в высокопрофессиональной и эффективной команде, постоянное развитие;\n•  Конкурентный компенсационный пакет (ежеквартальная премия, ДМС, компенсация расходов на фитнес-абонемент до 20 т.р. в год);\n\n\nCV в ЛС плз)\nНа входе опишу, что конкретно нужно будет делать, что и как есть сейчас.\n\nКонтакт:\n@alekseytherecruiter\n\n—\n\n👉 Обсуждение вакансии в чате @devops_jobs","markup":[{"type":"hashtag","offset":16,"length":9,"data":"вакансия"},{"type":"hashtag","offset":26,"length":7,"data":"DevOps"},{"type":"hashtag","offset":34,"length":9,"data":"noremote"},{"type":"hashtag","offset":44,"length":9,"data":"fulltime"},{"type":"link","offset":92,"length":6,"data":"http://ДОМ.РФ"},{"type":"hashtag","offset":173,"length":5,"data":"офис"},{"type":"hashtag","offset":190,"length":7,"data":"полная"},{"type":"handle","offset":1703,"length":20,"data":"alekseytherecruiter"},{"type":"handle","offset":1758,"length":12,"data":"devops_jobs"}],"date":"2020-04-06T13:25:42+00:00","link":"tg://resolve?domain=devops_jobs_feed&post=1880","tags":[{"name":"linux"},{"name":"dns"},{"name":"docker"},{"name":"kubernetes"},{"name":"ansible"},{"name":"postgresql"},{"name":"elasticsearch"}],"cities":[{"code":"moscow"}],"allowsRemote":true}},{"node":{"id":"24303894528-1001075660570","title":"Php разработчик","text":"#вакансия #php #удаленка #спб #phalcon \n\nВакансия: PHP разработчик \nГород: Санкт-Петербург\nФормат: удаленка\nЗанятось: полная\nЗП: 150.000-200.000 «на руки»\n\nПроект: Fantasy invest - игра - симулятор фондового рынка по механике fantasy sport.\nЦелевой рынок: США.\nМобильная версия доступна в AppStore.\n\nСтек: PHP 7.2+, Phalcon 3+, PostgreSQL 10+, Git, SOLID ,Swoole, Zephir Lang, Grafana / Kibana , Nats , Async php \n\nНаше предложение:\n ⁃ Официальное трудоустройство \n ⁃ ДМС с покрытием стоматологии (Ренессанс) \n ⁃ Компенсация спорта, обучений, конференций\n\nКонтакты: @izhuke","markup":[{"type":"bold","offset":0,"length":40,"data":""},{"type":"hashtag","offset":0,"length":9,"data":"вакансия"},{"type":"hashtag","offset":10,"length":4,"data":"php"},{"type":"hashtag","offset":15,"length":9,"data":"удаленка"},{"type":"hashtag","offset":25,"length":4,"data":"спб"},{"type":"hashtag","offset":30,"length":8,"data":"phalcon"},{"type":"bold","offset":415,"length":17,"data":""},{"type":"handle","offset":566,"length":7,"data":"izhuke"}],"date":"2020-04-06T12:04:15+00:00","link":"tg://resolve?domain=php_jobs&post=23178","tags":[{"name":"php"},{"name":"postgresql"},{"name":"git"}],"cities":[],"allowsRemote":true}},{"node":{"id":"16190013440-1001110946746","title":"Js разработчик","text":"#Вакансия #Удаленка #Fulltime #JS #React #Redux #job \n\nВсем привет 👋\n\nНахожусь в поиске Frontend разработчика на React.JS для компании «Binance».\n\nО компании: binance.com\nНазвание компании: Binance Exchange - ведущая крипто-биржа по объему торгов и количеству пользователей, с клиентами в более чем 180 странах и регионах.\n\nФормат работы: fulltime, remote\nЗарплатная вилка: от 3000 до 3500$ (выдаётся в криптовалюте).\n\nЗадачи:\n• Внедрение новых функций, ориентированных на пользователя, в продуктах Binance, которые ежедневно используют огромное количество PV;\n• Написание клиентского кода для создания сверхбыстрых, простых в использовании веб-приложений, которые включают веб-сайт для настольных и мобильных браузеров и гибридные страницы в приложениях;\n• Оптимизация веб-приложений для максимизации скорости и масштабирования;\n• Создание библиотек и сред, поддерживающих сложные веб-приложения, ускоряющих эффективность разработки и улучшающих качество кода.\n\nОт вас:\n• 3-5+ лет на разработку производственного кода JavaScript и глубокое знание React.JS;\n• Понимание шаблонов управления состоянием, таких как Redux, Flux или аналогичных;\n• Опыт разработки адаптивных веб-сайтов для различных клиентов, от мощных desktop компьютеров до небольших мобильных устройств;\n• Опыт работы с интерфейсными технологиями (styled system, webpack, etc);\n• Cвободное владение английским языком.\n\nОт нас: \n• График работы желательно с 9:00 (нужно будет общаться с командой из Сингапура);\n• Большие возможности карьерного роста в растущей компании;\n• Возможность переезда и международных переводов;\n• Делать что-то значимое. Станьте частью будущего финансовых технологий и первой в отрасли компании.\n\nБолее подробно готов ответить в ЛС: @dobrkakbobr8","markup":[{"type":"hashtag","offset":0,"length":9,"data":"Вакансия"},{"type":"hashtag","offset":10,"length":9,"data":"Удаленка"},{"type":"hashtag","offset":20,"length":9,"data":"Fulltime"},{"type":"hashtag","offset":30,"length":3,"data":"JS"},{"type":"hashtag","offset":34,"length":6,"data":"React"},{"type":"hashtag","offset":41,"length":6,"data":"Redux"},{"type":"hashtag","offset":48,"length":4,"data":"job"},{"type":"link","offset":160,"length":11,"data":"http://binance.com"},{"type":"handle","offset":1724,"length":13,"data":"dobrkakbobr8"}],"date":"2020-04-06T11:19:51+00:00","link":"tg://resolve?domain=javascript_jobs_feed&post=15440","tags":[{"name":"javascript"},{"name":"reactjs"},{"name":"redux"},{"name":"webpack"},{"name":"react-redux"}],"cities":[],"allowsRemote":true}},{"node":{"id":"16188964864-1001110946746","title":"Js разработчик","text":"#вакансия #frontend #Москва #офис #JS #Vue #fulltime\n\nГород и адрес офиса: Москва, м. Новокузнецкая/Павелецкая\nФормат работы: #офис\nЗанятость: #полная\nЗП: от 80к до 150к руб. нетт\n\nSports.ru - провайдер развлечений для любителей спорта.\nЕсть спорт. Есть болельщики. Мы заполняем среду между ними, оживляем ее, наполняем общением и другими развлечениями. Мы делаем не «сайты» или «приложения», а мультиплатформенные продукты, с учетом актуальной технологической парадигмы.\n\nВажная часть работы команды разработки в компании – спецпроекты. Вместе с редакцией и рекламодателями мы создаем игровые, образовательные и просто веселые проекты, в которых легче пробовать новые технологии и быстрее релизный цикл.\n\nСейчас мы ищем Frontend-разработчика именно для реализации коммерческих и редакционных спецпроектов.\n\nО задачах:\nВам предстоит заниматься разработкой спецпроектов, созданием внутренних инструментов и интеграцией и поддержкой рекламных систем (Google Ad Manager, AdFox и т. д.).\n\nО наших ожиданиях:\nМы ожидаем, что у вас есть навыки разработки веб-интерфейсов с использованием JavaScript и кроссбраузерной верстки интерфейсов с помощью HTML и CSS. Еще вы имеете опыт работы в команде с другими разработчиками и умеете пользоваться инструментами отладки в браузере. Идеально, если вы уже работали с Vue.js.\n\nОб условиях:\nПросторный стильный офис возле м. Новокузнецкая/Третьяковская.\n“Белая” заработная плата.\nБесплатная медстраховка со стоматологией после испытательного срока.\nГибкий график работы с возможностью день-два в неделю работать удаленно,\nФрукты, снеки, чай, кофе, какао 24/7.\nКорпоративная скидка в спортзал и на занятия английским языком.\nКорпоративный футбол с тренером.\nФинансовая помощь при переезде из другого города.\nВозможности для профессионального развития (сложные задачи, новые технологии, оплата обучающих курсов и конференций, помощь в развитии персонального бренда (участие в конференциях, написание статей).\n\nНазвание компании: Sports.ru (Tribuna Digital)\nКому интересно, пишите в личку (@pbuyatova), рада буду поделиться подробностями :)","markup":[{"type":"hashtag","offset":0,"length":9,"data":"вакансия"},{"type":"hashtag","offset":10,"length":9,"data":"frontend"},{"type":"hashtag","offset":20,"length":7,"data":"Москва"},{"type":"hashtag","offset":28,"length":5,"data":"офис"},{"type":"hashtag","offset":34,"length":3,"data":"JS"},{"type":"hashtag","offset":38,"length":4,"data":"Vue"},{"type":"hashtag","offset":43,"length":9,"data":"fulltime"},{"type":"hashtag","offset":126,"length":5,"data":"офис"},{"type":"hashtag","offset":143,"length":7,"data":"полная"},{"type":"link","offset":181,"length":9,"data":"http://Sports.ru"},{"type":"link","offset":1961,"length":9,"data":"http://Sports.ru"},{"type":"handle","offset":2021,"length":10,"data":"pbuyatova"}],"date":"2020-04-06T11:19:37+00:00","link":"tg://resolve?domain=javascript_jobs_feed&post=15439","tags":[{"name":"javascript"},{"name":"vuejs"},{"name":"html"},{"name":"css"}],"cities":[{"code":"moscow"}],"allowsRemote":true}}]}},"context":{}}