{"hash":"f5f6bf98bd95e769321482904cbbd488f77922fd","data":{"records":{"id":"jvm","name":"jvm","belongsTo":{"totalCount":100,"pageInfo":{"totalPages":10,"currentPage":7},"edges":[{"node":{"__typename":"Job","id":"1716518912-1001091028994","title":"Java программист","text":"#Java  #middle #fulltime #удаленно\nДля московской  компании по разработке банковского ПО ищу middle программиста Java.\nЕсть задачи по созданию новых (больших и интересных) информационных систем, так и задачи по доработке и поддержке существующих. Разработка приложений с использованием микросервисной архитектуры.\nТребования: Java 8, Spring, Hibernate, JMS, REST, SQL\nУсловия обсуждаются в зависимости от опыта: 120 000-150 000 руб. net («белая» з/п).\nРабота постоянная, удаленная с оформлением в штат компании. Готовность начинать рабочий день до 11.00 (Мск).\nКонтакты: @recrut911 или rt@connect-personal.ru","markup":[{"type":"hashtag","offset":0,"length":5,"data":"Java"},{"type":"hashtag","offset":7,"length":7,"data":"middle"},{"type":"hashtag","offset":15,"length":9,"data":"fulltime"},{"type":"hashtag","offset":25,"length":9,"data":"удаленно"},{"type":"handle","offset":571,"length":10,"data":"recrut911"},{"type":"link","offset":586,"length":22,"data":"mailto:rt@connect-personal.ru"}],"date":"2020-06-22T10:41:25+00:00","link":"tg://resolve?domain=jvmjobs&post=1637","tags":[{"name":"java"},{"name":"jvm"},{"name":"spring"},{"name":"hibernate"},{"name":"rest"},{"name":"sql"},{"name":"dotnet"}],"cities":[],"allowsRemote":true}},{"node":{"__typename":"Job","id":"1715470336-1001091028994","title":"Java разработчик","text":"#middle #удаленка #Java #Spring #senior #backend #developer\nЛокация: Cанкт-Петербург\nЗанятость: полная, гибкое начало дня\n*до окончания пандемии работа удаленная, далее работа в офисе\nЗ/п: 130 – 200 k net.\nКомпания: CSI\nКонтакты: @Danny_Ushakova\nМы продуктовая компания CSI, создающая решения для автоматизации торговых сетей.  \nМы ищем крутых разработчиков, ответственных за собственный код, любящих тесты и понимающих важность unit тестов. Разработчиков, которые с радостью забывают про бюрократию, и разделение труда, которые умеют защищать собственные решения и хотят сделать этот мир лучше!  \nJAVA developer (высоконагруженные сервисы лояльности)  \nКлючевой задачей будет разработка нового и доработка нашего продукта -  существующего функционала системы Set Retail 10. \nСтек:\n• Java от 2 лет.\n• Spring (Web, Data, Cloud), Kafka.\n• Опыт разработки микросервисов.\n• Опыт проектирования базы данных.\n• SQL (желательно PostgreSQL), JDBC, Hibernate.\n• Git, Gradle.\nБудет плюсом:\n• Опыт работы с J2EE (EJB3, JAX-WS, JAXB, JPA2).\n• Знание Linux.\n• Опыт работы с Redis, MongoDB, Docker, Hashicorp Nomad, Ansible.\n\nМы предлагаем:\n• возможность каждый день видеть результаты своей работы;\n• официальное оформление, белая зарплата, отпуск согласно ТК РФ;\n• гибкий график работы (с 11 до 17 - время присутствия в офисе), есть возможность работать из дома (при необходимости);\n• ДМС со стоматологией, 100% оплата больничных;\n• курсы английского языка в офисе;\n• посещение тренингов, конференций;\n• работа по Agile в команде высокопрофессиональных разработчиков;\n• возможности профессионального роста, четкая схема повышения зарплаты;\n• работа в современном и комфортном офисе в центре города (Чкаловcкий пр-т);\n• оборудованные столовые, чай, кофе, фрукты, печеньки и PlayStation;\n• командные тимбилдинги, футбольная команда.","markup":[{"type":"hashtag","offset":0,"length":7,"data":"middle"},{"type":"hashtag","offset":8,"length":9,"data":"удаленка"},{"type":"hashtag","offset":18,"length":5,"data":"Java"},{"type":"hashtag","offset":24,"length":7,"data":"Spring"},{"type":"hashtag","offset":32,"length":7,"data":"senior"},{"type":"hashtag","offset":40,"length":8,"data":"backend"},{"type":"hashtag","offset":49,"length":10,"data":"developer"},{"type":"handle","offset":230,"length":15,"data":"Danny_Ushakova"}],"date":"2020-06-22T09:26:18+00:00","link":"tg://resolve?domain=jvmjobs&post=1636","tags":[{"name":"java"},{"name":"jvm"},{"name":"spring"},{"name":"dotnet"},{"name":"web"},{"name":"cloud"},{"name":"kafka"},{"name":"sql"},{"name":"postgresql"},{"name":"jdbc"},{"name":"hibernate"},{"name":"git"},{"name":"gradle"},{"name":"jaxb"},{"name":"jpa"},{"name":"linux"},{"name":"redis"},{"name":"mongodb"},{"name":"docker"},{"name":"ansible"}],"cities":[],"allowsRemote":true}},{"node":{"__typename":"Job","id":"1714421760-1001091028994","title":"Java разработчик","text":"#java#Junior#Java#developer#telecom\nЛокация: Москва, Нижний Новгород, Россия\nЗанятость: офис, полная, удаленная\nЗ/п: от 100 000 рублей на руки\nКомпания: ГК INTECH\n\nКонтакты: @vkechatova\n\nINTECH – IT компания, контент и сервис провайдер на рынке телекома России и стран СНГ, разработчик инновационных идей для мобильной и WEB индустрии. Мы работаем с операторами сотовой связи не только в России, но и в странах СНГ и Вьетнаме.\n\nПримеры наших проектов:\nПроект «Глаголь» - Платформа создания и управления высоко нагружёнными видео конференциями с мобильными приложениями.\nCashback - Сервис Сахар;\nОблачная АТС - Решение облачной телефонии для корпоративных клиентов;\nСтриминговая платформа - Видео, аудио стриминговые решения для работы с ТВ трансляциями;\nВидео Истории - Платформа для видеозвонков и для проигрывания пользовательских и коммерческих видео роликов на экране мобильного телефона во время вызова.\n\nЗадачи:\n•  Разработка голосовых и SMS/USSD сервисов для сотовых операторов;\n•  Сопровождение существующие продуктов и разработка новых.\n\nДля работы потребуется:\n•  Опыт разработки от 1 года;\n•  Уверенное знание Java Core, Multithreading, Collections;\n•  Уверенные навыки работы с реляционными базами данных;\n•  Опыт работы с JPA, Hibernate\n•  Опыт работы с Spring (MVC, Data)\n•  Опыт работы с ОС Linux;\n•  Опыт работы с системой контроля версий;\n•  Навыки работы с JUnit - приветствуются.\n\nПлюсом будет:\n•  Опыт работы в телеком (SIP, SS7).\n\nМы предлагаем:\n•  Официальное трудоустройство, полностью официальная заработная плата;\n•  Белая заработная плата - полностью зависит от квалификации кандидата и обсуждается на интервью;\n•  Возможность карьерного и профессионального роста;\n•  Возможность предлагать и реализовывать собственные идеи;\n•  Работа в профессиональной команде разработчиков;\n•  Обучение в процессе работы;\nА также:\n•  Гибкая мотивационная программа;\n•  Ежемесячные премии;\n•  Ежегодные корпоративные мероприятия.","markup":[{"type":"handle","offset":174,"length":11,"data":"vkechatova"}],"date":"2020-06-22T06:35:58+00:00","link":"tg://resolve?domain=jvmjobs&post=1635","tags":[{"name":"java"},{"name":"jvm"},{"name":"web"},{"name":"jpa"},{"name":"hibernate"},{"name":"spring"},{"name":"linux"},{"name":"junit"},{"name":"spring-mvc"}],"cities":[{"code":"moscow"},{"code":"nizhny-novgorod"}],"allowsRemote":true}},{"node":{"__typename":"Job","id":"1713373184-1001091028994","title":"Java разработчик","text":"#Москва #вакансия #java #spring #fulltime #backend #office #middle #senior \n\nКомпания: СберТех.\n\nОфис: Москва, м. Нагатинская/м. Тульская/ м. Верхние Котлы.\n\nЗП: от 180-290 Net.\n\n📂Проект: Разработка платформы для управления бизнес-процессами Банка и  Цифровой Платформы Sber.\n\n🗓Задачи:\n• Участие в разработке высоконагруженного сервиса исполнения бизнес процессов на языке BPMN2.\n• Участие в RnD и прототипировании open source движков для сервиса.\n• Покрытие своего кода тестами.\n\n📎Cтек: Java8+, Spring Framework, Spring Boot, ORM, Apache Kafka.\n\n🔰Условия:\n• Оформление ТК РФ.\n• ДМС для сотрудников и скидки на медицинскую страховку для родственников;\n• Высокая белая заработная плата (оклад + годовая премия).\n• Возможность обучения за счет компании, посещения IT-конференций.\n• Бесплатный тренажерный зал на территории офиса.\n• Корпоративная жизнь и спортивные мероприятия.\n\n📩Готов ответить на интересующие вопросы - @Dmiryy","markup":[{"type":"hashtag","offset":0,"length":7,"data":"Москва"},{"type":"hashtag","offset":8,"length":9,"data":"вакансия"},{"type":"hashtag","offset":18,"length":5,"data":"java"},{"type":"hashtag","offset":24,"length":7,"data":"spring"},{"type":"hashtag","offset":32,"length":9,"data":"fulltime"},{"type":"hashtag","offset":42,"length":8,"data":"backend"},{"type":"hashtag","offset":51,"length":7,"data":"office"},{"type":"hashtag","offset":59,"length":7,"data":"middle"},{"type":"hashtag","offset":67,"length":7,"data":"senior"},{"type":"handle","offset":924,"length":7,"data":"Dmiryy"}],"date":"2020-06-19T18:13:29+00:00","link":"tg://resolve?domain=jvmjobs&post=1634","tags":[{"name":"java"},{"name":"jvm"},{"name":"spring"},{"name":"dotnet"},{"name":"orm"},{"name":"apache"},{"name":"kafka"},{"name":"spring-boot"}],"cities":[{"code":"moscow"}],"allowsRemote":false}},{"node":{"__typename":"Job","id":"2233466880-1001134745498","title":"Devops инженер","text":"#вакансия #удаленка\nДолжность : Ведущий DevOps Инженер\nКомпания : https://www.bitorb.com/\nФормат работы: удаленная, на полный рабочий день\nЗарплата: 4-5k USD\nКто мы?\nBitOrb - биржа на азиатском рынке на стадии бета-тестирования.\n\nЧто делать?\n- Взять на себя инфраструктуру проекта;\n- Отвечать за мониторингы и алерты;\n- Работать вместе с девелоперами по обеспечению надежности и работы системы 24/7;\n- Автоматизировать все что можно (и что нельзя); \n- Настраивать железо и ОС для обеспечения low latency.\n\nЧто нужно в обязательном порядке?\n- Разговорный английский;\n- Опыт от 3 лет.\n\nЧто будет плюсом?\n- Опыт работы с JVM;\n- Опыт работы с Amazon;\n- Опыт работы над перфомансом (перфоманс тесты);\n- Также мы используем Ansible, Terraform, TeamCity, Docker - тоже не плохо бы было это уметь.\n\nПочему это может быть интересно?\n- Удаленная работа и гибкий график;\n- Сложная система, требовательная к перфомансу, секьюрити;\n- Можно брать задачи и развиваться в соседних областях;\n- Дружная и многонациональная команда;\n- Опыт работы в международной компании.\n\nПросьба присылать резюме на английском языке в телеграмм @svetlanaishmanova или на почту svet04ka17@mail.ru\n\n—\n\n👉 Обсуждение вакансии в чате @devops_jobs","markup":[{"type":"hashtag","offset":0,"length":9,"data":"вакансия"},{"type":"hashtag","offset":10,"length":9,"data":"удаленка"},{"type":"link","offset":66,"length":23,"data":"https://www.bitorb.com/"},{"type":"handle","offset":1112,"length":18,"data":"svetlanaishmanova"},{"type":"link","offset":1144,"length":18,"data":"mailto:svet04ka17@mail.ru"},{"type":"handle","offset":1197,"length":12,"data":"devops_jobs"}],"date":"2020-06-19T14:42:30+00:00","link":"tg://resolve?domain=devops_jobs_feed&post=2130","tags":[{"name":"jvm"},{"name":"ansible"},{"name":"docker"}],"cities":[],"allowsRemote":true}},{"node":{"__typename":"Job","id":"1712324608-1001091028994","title":"Java разработчик","text":"#java #fulltime\n\nНа проект от одного из лидирующих российских банков требуется\nMiddle Java Developer (backend)\n\nЛокация: Москва, ул. Сретенка\nФормат работы: Офис\nЗанятость: полная\n\nВилка зп: 150 000 - 180 000 рублей/месяц нетто\n\nСтек: \nSpring, Hibernate, Maven, JMS, REST, SOAP, Git, Jenkins, UML, TestNG.\n\nТребования: \n- Опыт от 2х лет разработки высоко-нагруженных и отказоустойчивых фронтальных систем.\n- Знание основных методологий разработки программного обеспечения, включая гибкие методологии.\n- Опыт командной разработки.\n- Умение разбираться в чужом коде, писать чистый и понятный код для других разработчиков, опыт написания автотестов.\n- Уверенное знание Java Core (типы данных, Collections Framework, JMM...)\n- Знание парадигм ООП и их реализации в Java.\n- Знание структур данных и алгоритмов.\n- Знание шаблонов проектирования (GoF)\n\nКонтакт: @mxm_at","markup":[{"type":"hashtag","offset":0,"length":5,"data":"java"},{"type":"hashtag","offset":6,"length":9,"data":"fulltime"},{"type":"handle","offset":855,"length":7,"data":"mxm_at"}],"date":"2020-06-19T13:20:17+00:00","link":"tg://resolve?domain=jvmjobs&post=1633","tags":[{"name":"java"},{"name":"jvm"},{"name":"spring"},{"name":"hibernate"},{"name":"maven"},{"name":"rest"},{"name":"soap"},{"name":"git"},{"name":"jenkins"}],"cities":[{"code":"moscow"}],"allowsRemote":false}},{"node":{"__typename":"Job","id":"1711276032-1001091028994","title":"Java developer","text":"#вакансия #java #developer #middle #senior #relocate\n\nJava Developer\nКомпания: Interactive Brokers\nЛокация: Таллин\nЗанятость: fulltime\nЗ/п: 3.5-5К € \nКонтакты: @observer69\n\nProduct: is a low cost provider of trade execution and clearing services for individuals,\nadvisors, proprietary trading groups, brokers and hedge funds. IBKR’s premier technology\nprovides electronic access to stocks, options, futures, forex, bonds and funds on over 100\nmarkets worldwide from a single IBKR Universal account. Interactive Brokers Group’s\n(IBG) headquarters are in Greenwich, CT. IBG has offices throughout the United States,\nSwitzerland, Canada, Hong Kong, the United Kingdom, Australia, Hungary, Russia, India,\nChina and Estonia.\n\nУсловия\n● Salary level: from 3500 to 5000 euros gross, but no strict limits, have never rejected a\ncandidate due to their salary request\n● Benefits:\n- discretionary salary raise in the end of each calendar year\n- discretionary cash and stock bonus in the end of each calendar year\n- lunch paid by the company (up to 7.50 EUR/day)\n- dental/vision expenses compensation of 205 EUR per year\n- sport activities compensation of 45 EUR/month\n- 2,000 EUR and 2 days off per year for conferences, online courses, seminars, etc.\n● Relocation:\n- No relocation experience\n- Relocation package: willing to discuss, don’t have experience, cover the visa\n● Office:\n- Location: near the city center / 3-5 minutes by foot/bus/train, free parking\n- No open spaces; Rooms for ~ 2-3 persons (everyone can concentrate)\n- Remote work is not allowed due to the security reasons, but very flexible working hours\n\nТребования\n● 3+ years of software development experience with an emphasis on Java\n● Fluency in Core Java\n● Proactive, driven to excel and get things done on time\n● Ability to work and deliver independently with little supervision\n● BS in Computer Science, or equivalent (advanced degrees a plus)\n● Passion for building top-quality user-interface products\n● Strong communication skills (good written/spoken English skills is a must, at least intermediate)\n● Understanding spoken Russian\n● Job-hoppers are 100% no-go (at least 2 years at each company, the more the better. At least 1,5  years at the latest one).\n\nЖелательно\n● Experience with Java GUI toolkits (Swing, AWT or similar); this could be\nsubstituted with strong desire to learn Swing/AWT and related technology\n● Familiarity with market data concepts and trading technologies and technical\nexperience with systems used in the capital & financial markets all are a\nbig plus\n● Experience with Java development for mobile platforms\n\nЗадачи\n1. UI components design and implementation in Java \n2. Development testing\n3. Engineering documentation\n4. Focus on: existing product development (20% bug fixing/80%new features)","markup":[{"type":"hashtag","offset":0,"length":9,"data":"вакансия"},{"type":"hashtag","offset":10,"length":5,"data":"java"},{"type":"hashtag","offset":16,"length":10,"data":"developer"},{"type":"hashtag","offset":27,"length":7,"data":"middle"},{"type":"hashtag","offset":35,"length":7,"data":"senior"},{"type":"hashtag","offset":43,"length":9,"data":"relocate"},{"type":"bold","offset":54,"length":24,"data":""},{"type":"bold","offset":99,"length":8,"data":""},{"type":"bold","offset":115,"length":10,"data":""},{"type":"bold","offset":135,"length":5,"data":""},{"type":"bold","offset":150,"length":10,"data":""},{"type":"handle","offset":160,"length":11,"data":"observer69"},{"type":"bold","offset":173,"length":7,"data":""},{"type":"bold","offset":721,"length":8,"data":""},{"type":"italic","offset":731,"length":12,"data":""},{"type":"italic","offset":860,"length":10,"data":""},{"type":"italic","offset":1243,"length":10,"data":""},{"type":"italic","offset":1364,"length":6,"data":""},{"type":"bold","offset":1611,"length":11,"data":""},{"type":"bold","offset":2223,"length":11,"data":""},{"type":"bold","offset":2601,"length":10,"data":""},{"type":"bold","offset":2660,"length":2,"data":""},{"type":"bold","offset":2683,"length":2,"data":""},{"type":"bold","offset":2712,"length":2,"data":""}],"date":"2020-06-19T09:50:29+00:00","link":"tg://resolve?domain=jvmjobs&post=1632","tags":[{"name":"java"},{"name":"jvm"},{"name":"ms-access"},{"name":"excel"},{"name":"swing"},{"name":"mobile"},{"name":"user-interface"}],"cities":[{"code":"hong-kong"}],"allowsRemote":false}},{"node":{"__typename":"Job","id":"1710227456-1001091028994","title":"Java разработчик","text":"#вакансия #senior #middle #Сбербанк #java #spring #fulltime #офис #agile #backend\nКомпания: ПАО «Сбербанк»\nЛокация: Москва, м. Кутузовская (Agile home)\nЗ/п: от 180-280К на руки (в зависимости от уровня) + достойные годовые премии\nКонтакты: @tdurnicina TVlDurnitsyna@sberbank.ru\n\nДрузья! Мы в поисках Java разработчиков уровня middle и senior в новое небанковское приложение для клиента. Это уникальная возможность присоединиться к разработке серьёзного продукта в командах с атмосферой стартапа🙂 Вас ждут интересные задачи, свежий стек: Java 11, Spring, Hibernate, многомодульность и никакого легаси🔥 \n!Также готовы рассмотреть кандидатов уровня junior+ при наличии опыта коммерческой разработки.\n\nНаш Agile home это: пин понг, пул, кикер, библиотека, кофемашины на этажах, бесплатный спорт зал и подземный паркинг.\nЕсть отличный корпоративный университет, программы обучения в т.ч. за рубежом, конференции, митапы.\n🔥 Льготная ипотека и ДМС. \n\nРассмотрим кандидатов из других городов и стран. И конечно гибкое начало рабочего дня, куда без него.","markup":[{"type":"hashtag","offset":0,"length":9,"data":"вакансия"},{"type":"hashtag","offset":10,"length":7,"data":"senior"},{"type":"hashtag","offset":18,"length":7,"data":"middle"},{"type":"hashtag","offset":26,"length":9,"data":"Сбербанк"},{"type":"hashtag","offset":36,"length":5,"data":"java"},{"type":"hashtag","offset":42,"length":7,"data":"spring"},{"type":"hashtag","offset":50,"length":9,"data":"fulltime"},{"type":"hashtag","offset":60,"length":5,"data":"офис"},{"type":"hashtag","offset":66,"length":6,"data":"agile"},{"type":"hashtag","offset":73,"length":8,"data":"backend"},{"type":"handle","offset":240,"length":11,"data":"tdurnicina"},{"type":"link","offset":252,"length":25,"data":"mailto:TVlDurnitsyna@sberbank.ru"}],"date":"2020-06-18T17:32:56+00:00","link":"tg://resolve?domain=jvmjobs&post=1631","tags":[{"name":"java"},{"name":"jvm"},{"name":"spring"},{"name":"hibernate"}],"cities":[{"code":"moscow"}],"allowsRemote":false}},{"node":{"__typename":"Job","id":"1709178880-1001091028994","title":"Java разработчик","text":"Ищем разработчика на Java (HyperLedger) на постоянную занятость на удаленной основе в команду http://www.proleum.pro \n\nОт соискателя ожидается: \n\n- знание REST, HTTP, JSON;\n- умение создавать и  оптимизировать API;\n- умение писать тесты;\n- опыт работы с SQL- и NoSQL-базами данных;\n- знание и умение работать с Git;\n- знакомство с docker;\n- уверенный пользователь Linux;\n- знание и базовый опыт работы с Hyperledger Fabric;\n- принципы работы сетей (TCP/UDP, DNS, gRPC и http, маршрутизация/инкапсуляция, как сети связываются между собой и т.д.).\n\nОформление по законадательству РФ. Зарплата 70-200кр белая по результатам собеседования и зависит от уровня соискателя.\n\nТалантливый разработчик, найдись! Напиши в телеграм @soloway или на почту solo@proleum.pro и приходи в наш дружный коллектив совершать революцию на рынке нефтепродуктов!","markup":[{"type":"link","offset":94,"length":22,"data":"http://www.proleum.pro"},{"type":"handle","offset":720,"length":8,"data":"soloway"},{"type":"link","offset":742,"length":16,"data":"mailto:solo@proleum.pro"}],"date":"2020-06-18T17:01:52+00:00","link":"tg://resolve?domain=jvmjobs&post=1630","tags":[{"name":"java"},{"name":"jvm"},{"name":"rest"},{"name":"json"},{"name":"sql"},{"name":"nosql"},{"name":"git"},{"name":"docker"},{"name":"linux"},{"name":"dns"}],"cities":[],"allowsRemote":true}},{"node":{"__typename":"Job","id":"1708130304-1001091028994","title":"Java разработчик","text":"#вакансия #backend #java #Java8 #senior  \nЛокация: Нижний-Новгород (есть хороший релокационный пакет)\nЗанятость: полная, гибкое начало дня\n*до окончания пандемии работа удаленная (и трудоустройство) далее работа в офисе\nЗП: до 220 000 NET \n\n🔹 Крупная немецкая компания ищет Java разработчиков senior уровня.\nКомпания более 20 лет, является лидером рынка в Европе поставляющем инновационные IT-решения по управлению кредитными рисками и по процессному консультированию. Кроме того в компании есть направления по разработке ПО для анализа финансовой отчетности и сегментации рынка. Продуктом компании пользуется многие известные бренды: Toshiba, Volvo, Росбанк и более 290 других компаний по всему миру.\n\n🔹 Требования:\n- коммерческий опыт разработки на Java от 3-ех лет;\n- знания Java 8 SE;\n- уровень английского языка, позволяющий вести диалог с коллегами из Германии (главное- не бояться говорить ☺️.). Это обязательное требование\n\n🔹 Условия:\n- Расширенный релокационный пакет;\n- Оформление официальное, белая заработная плата и премиальная система;\n- ДМС;\n- Компенсация обучения английскому языку;\n-Широкие возможности профессионального и карьерного роста и разные другие плюшки и бонусы.\n\nКонтакты:\ne-mail: daria@luckyhunter.io\ntelegram: @prudentdaria\nПишите, буду рада ответить на все возможные вопросы здесь или по почте :)","markup":[{"type":"hashtag","offset":0,"length":9,"data":"вакансия"},{"type":"hashtag","offset":10,"length":8,"data":"backend"},{"type":"hashtag","offset":19,"length":5,"data":"java"},{"type":"hashtag","offset":25,"length":6,"data":"Java8"},{"type":"hashtag","offset":32,"length":7,"data":"senior"},{"type":"bold","offset":51,"length":15,"data":""},{"type":"bold","offset":905,"length":29,"data":""},{"type":"link","offset":1212,"length":20,"data":"mailto:daria@luckyhunter.io"},{"type":"handle","offset":1243,"length":13,"data":"prudentdaria"}],"date":"2020-06-18T12:51:47+00:00","link":"tg://resolve?domain=jvmjobs&post=1629","tags":[{"name":"java"},{"name":"jvm"},{"name":"dotnet"}],"cities":[{"code":"nizhny-novgorod"}],"allowsRemote":true}}]}}},"context":{}}