{"hash":"f34fd2c444a074f4e0e67d525015a008ef8e766f","data":{"records":{"id":"postgresql","name":"postgresql","belongsTo":{"totalCount":132,"pageInfo":{"totalPages":14,"currentPage":5},"edges":[{"node":{"__typename":"Job","id":"1968177152-1001134745498","title":"Devops engineer","text":"#вакансия #DevOps #fulltime #киев\n\nВакансия: DevOps engineer\nКомпания: Luxena\nГород: Киев, метро Черниговская\nФормат работы: офис, remote - возможен для отдельных дней.\nЗанятость: полная\nЗарплата : от $2500 до $5000 по уровню квалификации.\nПомощь в релокации.\n\nО компании:\n\nLuxena - продуктовая IT-компания полного цикла, предлагаем самореализацию на международных проектах Industry 4.0 в отличной профи-атмосфере с элементами гибкого графика. \n\nЭксперту в построении и управлении платформами разработки и внедрения ПО предлагаем должность DevOps Engineer. \n \nTechnology Stack: \n \nCloud Services \n  - Azure (in use) \n  - AWS \n  - Google \n  \nCI/CD \n  - Azure DevOps (in use) \n  - Jenkins \n  - GitLab \n  \nCluster Orchestration \n  - Docker Swarm (in use) \n  - Kubernetes \n  \nRDBMS \n  - PostgreSQL (in use) \n  - MS SQL \n  - Oracle \n  \nAnalytical Solutions \n  - Clickhouse (in use) \n  - Apache Spark (in use) \n  - Apache Flink \n  - Druid \n  - Pinot \n  - Presto \n  \nStreaming & Message Queues \n  - Apache Pulsar (in use) \n  - Apache Kafka \n  \nDeployment Automation \n  - Ansible \n  - Puppet \n  - Terraform \n  \nProxy & Load balancing \n  - HA proxy (in use) \n  - Nginx \n \nВ каждом виде необходимо иметь практический опыт в production не менее 2-х лет. Часть навыков может быть развита в ходе первого года работы.\n\nКонтакт: @special_forces_recruiter\n\n—\n\n👉 Обсуждение вакансии в чате @devops_jobs","markup":[{"type":"hashtag","offset":0,"length":9,"data":"вакансия"},{"type":"hashtag","offset":10,"length":7,"data":"DevOps"},{"type":"hashtag","offset":18,"length":9,"data":"fulltime"},{"type":"hashtag","offset":28,"length":5,"data":"киев"},{"type":"handle","offset":1314,"length":25,"data":"special_forces_recruiter"},{"type":"handle","offset":1374,"length":12,"data":"devops_jobs"}],"date":"2020-04-05T00:33:02+00:00","link":"tg://resolve?domain=devops_jobs_feed&post=1877","tags":[{"name":"cloud"},{"name":"azure"},{"name":"amazon-web-services"},{"name":"jenkins"},{"name":"gitlab"},{"name":"docker"},{"name":"kubernetes"},{"name":"postgresql"},{"name":"sql"},{"name":"oracle"},{"name":"apache"},{"name":"kafka"},{"name":"deployment"},{"name":"ansible"},{"name":"nginx"},{"name":"azure-devops"},{"name":"apache-spark"}],"cities":[{"code":"kiev"}],"allowsRemote":true}},{"node":{"__typename":"Job","id":"1966080000-1001134745498","title":"Devops инженер","text":"#devops #работа #вакансия #москва #kubernetes #redcode \nИнженер DevOps с сильным Kubernetes\n300 - 400 т.руб. на руки\nКомпания разрабатывает ПО и создаёт программно-аппаратные комплексы анализа данных.\nМосква\n\nОбязанности:\nРазработка плейбуков Ansible для конфигурирования серверов на CentOS 7 и 8.\nРазработка манифестов для развертывания приложений в кластерах Kubernetes.\nУправление и мониторинг кластеров Kubernetes.\nНастройка CI/CD конвейеров на базе Gitlab и Nexus\n\nТребования:\nОпыт администрирования CentOS 7 и/или RedHat Enterprise Linux 7\nОпыт работы с Ansible, в частности - разработка плейбуков и ролей Ansible\nОпыт работы с Docker на Linux\nЗнание принципов построения безопасных, высокодоступных и масштабируемых приложений\nОпыт управления кластером Kubernetes, написания манифестов, разворачивание приложений в кластере Kubernetes\nОпыт использования Helm и разработки Helm charts\nОпыт развертывания кластера Kubernetes при помощи Kubespray\nОпыт работы с:\nGitlab и Gitlab CI (Runner)\nNexus Repository Manager и Gitlab Repository\nсо стеком Elastic (ELK или EFK) для логирования\nPrometheus и Alert Manager для мониторинга\nPostgreSQL и Patroni\nNginx, HAProxy и Keepalived\nHashiCorp Vault\nIstio\n\n\"белое\" трудоустройство, ДМС\n\nКонтакты для связи:\ntelegram: @kristina_jobs \nКА RedCode\n\n—\n\n👉 Обсуждение вакансии в чате @devops_jobs","markup":[{"type":"hashtag","offset":0,"length":7,"data":"devops"},{"type":"hashtag","offset":8,"length":7,"data":"работа"},{"type":"hashtag","offset":16,"length":9,"data":"вакансия"},{"type":"hashtag","offset":26,"length":7,"data":"москва"},{"type":"hashtag","offset":34,"length":11,"data":"kubernetes"},{"type":"hashtag","offset":46,"length":8,"data":"redcode"},{"type":"handle","offset":1262,"length":14,"data":"kristina_jobs"},{"type":"handle","offset":1323,"length":12,"data":"devops_jobs"}],"date":"2020-04-03T17:17:36+00:00","link":"tg://resolve?domain=devops_jobs_feed&post=1875","tags":[{"name":"kubernetes"},{"name":"ansible"},{"name":"centos"},{"name":"gitlab"},{"name":"linux"},{"name":"docker"},{"name":"elasticsearch"},{"name":"postgresql"},{"name":"nginx"}],"cities":[{"code":"moscow"}],"allowsRemote":false}},{"node":{"__typename":"Job","id":"1962934272-1001134745498","title":"Devops инженер","text":"#вакансия #DevOps #Москва #ivi\n\nЛокация: Москва, ст. м. Дмитровская\nФормат работы: офис (на время карантина - удаленка) \nЗанятость: полная\nЗарплатная вилка: от 180 000 до 250 000 руб. на руки.\n\nМы — команда эксплуатации сервиса ivi .\n\nРазыскиваем коллегу в команду для участия в настойке процессов, технических (CI/CD) и в части взаимодействия с коллегами. Активное участие в разворачивании и эксплуатации k8s .Помогаем командам разработки строить CI/CD-пайплайны . Некоторые из нас это делают в составе кросс-команд, другие помогают многим командам, оставшиеся обеспечивают всех нас необходимыми приложениями и инфраструктурой.\n\nУчим команды использовать контейнеры (docker) для подготовки разрабатываемых приложений, осваиваем использование k8s для оркестрации. Используем Ubuntu, Linux.\n\nХраним код и разрабатываем pipeline-ы с помощью gitlab+artifactory .\nДля мониторинга серверов и сервисов используем zabbix и statsd , заправляем grafana.\nНаши сервисы написаны на python, golang и немного php и java.\nЛюбим и активно используем jenkins для решения самых разнообразных задач.\nИспользуем много open source (и не только) приложений: nginx, redis, postgresql, mongodb, rabbitmq, clickhouse, openstack, gitlab, kafka, hdfs, jira , opennebula.\n\nЧто предстоит делать: \n- развитие и настройки процессов ci/cd;\n- планирование и участие в рефакторинге процессов, инфраструктуры, приложений;\n- сопровождение сервисов от разработки до эксплуатации, участие в эксплуатации;\n- доработка текущих и разработка новых сценариев конфигурирования серверов и приложений; \n- администрирование приложений по результатам выполненной работы подготовка документации, если необходимо. \n\nКак узнать что ты нам подходишь? \n- положительный и продолжительный опыт работы с CI/CD-системами (у нас gitlab и jenkins);\n- умение хорошо готовить docker; \n- опыт программирования на скриптовых языках (shell, python);\nопыт администрирования linux и приложение 5+;\n- понимание сетевых технологий TCP/IP; \n- опыт работы с системами управления версиями (git) и конфигурациями. \n\nСо своей стороны мы обещаем: \n- Офис в 5 минутах ходьбы от м. \"Дмитровская\";\n- У нас гибкий график, мы начинаем до 11 часов дня;\n- Трудоустройство по ТК РФ;\n- ДМС + стоматология после прохождения испытательного срока;\n- Подписка на ivi;\n- Пакет релокации для соискателей со всей России.\n\nОнлайн-кинотеатр ivi \nhttps://www.ivi.tv/\n\nБуду рада рассказать подробности, пишите в личку @daria144 или на почту dsereda@ivi.ru\n\n—\n\n👉 Обсуждение вакансии в чате @devops_jobs","markup":[{"type":"hashtag","offset":0,"length":9,"data":"вакансия"},{"type":"hashtag","offset":10,"length":7,"data":"DevOps"},{"type":"hashtag","offset":18,"length":7,"data":"Москва"},{"type":"hashtag","offset":26,"length":4,"data":"ivi"},{"type":"link","offset":2354,"length":19,"data":"https://www.ivi.tv/"},{"type":"handle","offset":2424,"length":9,"data":"daria144"},{"type":"link","offset":2447,"length":14,"data":"mailto:dsereda@ivi.ru"},{"type":"handle","offset":2496,"length":12,"data":"devops_jobs"}],"date":"2020-04-03T12:38:12+00:00","link":"tg://resolve?domain=devops_jobs_feed&post=1872","tags":[{"name":"docker"},{"name":"ubuntu"},{"name":"linux"},{"name":"gitlab"},{"name":"python"},{"name":"go"},{"name":"php"},{"name":"java"},{"name":"jenkins"},{"name":"nginx"},{"name":"redis"},{"name":"postgresql"},{"name":"mongodb"},{"name":"rabbitmq"},{"name":"kafka"},{"name":"hdfs"},{"name":"shell"},{"name":"git"}],"cities":[{"code":"moscow"}],"allowsRemote":true}},{"node":{"__typename":"Job","id":"1961885696-1001134745498","title":"Devops инженер","text":"#вакансия #remote #удаленка #kubernetes #kuber #k8s #puppet\n\nИ еще в другой команде в PulsePoint вакансия SRE (Site Reliability Engineer / можно DevOps, как угодно).\n\nРабота удаленная, фуллтайм, ЗП 5-8k USD/месяц.\n\nОбычно оплата на ИП, если есть какие-то альтернативы - они готовы обсудить, но юрлица в РФ у них нет.\nРазрабатывают различные продукты в области интернет рекламы, keywords: programmatic, SSP, RTB.\n\nГрафик работы: график с 17 до 02:00 по Мск (с 9 до 18 по NY). Час на обед.\n\nВыходные и отпуски: 21 день оплачиваемого отпуска. Не работают на американских выходных.\n\nДежурств нет. Все инциденты в нерабочее время на себя берет менеджер команды.\n\nКлючевое: Kubernetes (работает на bare metal, у них свои датацентры), Puppet (версия 4+. Чем сложнее и больше опыта, тем лучше), Linux (у них CentOS).\nОстальное: Postgres/MySQL/аналогичное, какой-нть NoSQL. Супер, если был опыт с Cassandra. Мониторинг,  ELK.\n\nВ команде много инженеров из РФ, но язык общения английский, нужно бегло говорить без проблем. Все-таки основной костяк в NY и там русскоязычные далеко не все. \n\nЕсли заинтересует или какие вопросы - @pskuzin / pk@4cv.io\n\n—\n\n👉 Обсуждение вакансии в чате @devops_jobs","markup":[{"type":"hashtag","offset":0,"length":9,"data":"вакансия"},{"type":"hashtag","offset":10,"length":7,"data":"remote"},{"type":"hashtag","offset":18,"length":9,"data":"удаленка"},{"type":"hashtag","offset":28,"length":11,"data":"kubernetes"},{"type":"hashtag","offset":40,"length":6,"data":"kuber"},{"type":"hashtag","offset":47,"length":4,"data":"k8s"},{"type":"hashtag","offset":52,"length":7,"data":"puppet"},{"type":"handle","offset":1118,"length":8,"data":"pskuzin"},{"type":"link","offset":1129,"length":9,"data":"mailto:pk@4cv.io"},{"type":"handle","offset":1173,"length":12,"data":"devops_jobs"}],"date":"2020-04-02T14:05:36+00:00","link":"tg://resolve?domain=devops_jobs_feed&post=1871","tags":[{"name":"kubernetes"},{"name":"linux"},{"name":"centos"},{"name":"postgresql"},{"name":"mysql"},{"name":"nosql"},{"name":"cassandra"}],"cities":[],"allowsRemote":true}},{"node":{"__typename":"Job","id":"1960837120-1001134745498","title":"Devops инженер","text":"#вакансия #sre #hadoop #kafka #devops #remote\n\nА я все еще ищу SRE (Site Reliability Engineer, ну или DevOps, как угодно, только без холиваров) в BigData команду для американской компании PulsePoint. \n\nРабота удаленная, фуллтайм, ЗП 6-8k USD/месяц.\n\nОбычно оплата на ИП, если есть какие-то альтернативы - они готовы обсудить, но юрлица в РФ у них нет.\nРазрабатывают различные продукты в области интернет рекламы, keywords: programmatic, SSP, RTB.\n\nГрафик работы: график с 16 до 01:00 по Мск (с 9 до 18 по NY). Час на обед. Рабочая неделя 5/2.\n\nВыходные и отпуски: 21 день оплачиваемого отпуска. Не работают по американским выходным.\n\nДежурств нет. Все инциденты в нерабочее время на себя берет менеджер команды.\n\nКлючевое: администрирование Hadoop (HDFS, Hive, Impala), Kafka.\nБудет плюсом: Kubernetes, Postgres/MySQL/аналогичное, какой-нть NoSQL. Супер, если был опыт с Cassandra. А еще с Presto + Alluxio.\n\nВ команде много инженеров из РФ, но язык общения английский, нужно бегло говорить без проблем. Все-таки основной костяк в NY и там русскоязычные далеко не все. \n\nЕсли заинтересует или какие вопросы - @pskuzin / pk@4cv.io\n\n—\n\n👉 Обсуждение вакансии в чате @devops_jobs","markup":[{"type":"hashtag","offset":0,"length":9,"data":"вакансия"},{"type":"hashtag","offset":10,"length":4,"data":"sre"},{"type":"hashtag","offset":15,"length":7,"data":"hadoop"},{"type":"hashtag","offset":23,"length":6,"data":"kafka"},{"type":"hashtag","offset":30,"length":7,"data":"devops"},{"type":"hashtag","offset":38,"length":7,"data":"remote"},{"type":"handle","offset":1109,"length":8,"data":"pskuzin"},{"type":"link","offset":1120,"length":9,"data":"mailto:pk@4cv.io"},{"type":"handle","offset":1164,"length":12,"data":"devops_jobs"}],"date":"2020-04-02T14:04:21+00:00","link":"tg://resolve?domain=devops_jobs_feed&post=1870","tags":[{"name":"hadoop"},{"name":"kafka"},{"name":"hdfs"},{"name":"hive"},{"name":"kubernetes"},{"name":"postgresql"},{"name":"mysql"},{"name":"nosql"},{"name":"cassandra"}],"cities":[],"allowsRemote":true}},{"node":{"__typename":"Job","id":"1413480448-1001091028994","title":"Java разработчик","text":"#java #backend #middle #senior #питер #удаленка\nВакансия: Java-разработчик (middle/senior)\nКомпания: https://loyaltyplant.com\nг. Санкт-Петербург\nЗ/П: Middle 130-160k, Senior 180-240k\nФормат работы: офис/удаленка\nЗанятость: полная \nСпециализация компании: мобильное маркетинговое решение с программой лояльности и доставкой для ресторанов, чтобы гости получали лучший сервис, а бизнес – большие выручки и возможность выжить в каратнин. Работаем не только в России, но и в США, Европе и Азии. Нашими решениями пользуются Subway Russia, Black Star Burgers, Greenbox, Papa Johns UAE, и еще 500 брендов в 20 странах, и более 10 миллионов конечных пользователей. Мы ищем не просто сотрудников, но настоящих партнеров, которые готовы предлагать прорывные решения и разделять с нами ценности открытости, честности и личной инициативы.\n\nТебе предстоит:\n • Заниматься рефакторингом legacy-блоков, распиливанием монолита на микросервисы;\n • Развивать функционал системы;\n • Готовить систему к повышению нагрузки;\n • Осуществлять техподдержку третьего уровня;\n • Проводить code review;\n • Делиться опытом с другими разработчиками.\n • Для Senior также – определять и воплощать архитектурные и технические решения.\n\nЧто нам важно?\n • Опыт backend-разработки на Java от 3 лет (Senior – от 5);\n • Хорошее знание Java Core;\n • Опыт работы с микросервисами;\n • Знания и опыт: Spring, БД (MySQL, PostgreSQL, Redis), Kafka, ELK;\n • Как +: Linux, Docker, Cassandra;\n • Самостоятельность;\n • Умение видеть и исправлять плохой код.\n\nМы предлагаем:\n • Интересные задачи и возможности для развития;\n • Возможность реально влиять на решения;\n • Гибкий график;\n • Дружественную атмосферу стартапа, офис-не-open-space, заказ еды, массаж, кикер, английский и тд.\n\nКонтакты: @orehmthfcka","markup":[{"type":"hashtag","offset":0,"length":5,"data":"java"},{"type":"hashtag","offset":6,"length":8,"data":"backend"},{"type":"hashtag","offset":15,"length":7,"data":"middle"},{"type":"hashtag","offset":23,"length":7,"data":"senior"},{"type":"hashtag","offset":31,"length":6,"data":"питер"},{"type":"hashtag","offset":38,"length":9,"data":"удаленка"},{"type":"link","offset":101,"length":24,"data":"https://loyaltyplant.com"},{"type":"handle","offset":1745,"length":12,"data":"orehmthfcka"}],"date":"2020-04-02T13:36:43+00:00","link":"tg://resolve?domain=jvmjobs&post=1348","tags":[{"name":"java"},{"name":"jvm"},{"name":"spring"},{"name":"mysql"},{"name":"postgresql"},{"name":"redis"},{"name":"kafka"},{"name":"linux"},{"name":"docker"},{"name":"cassandra"}],"cities":[],"allowsRemote":true}},{"node":{"__typename":"Job","id":"1412431872-1001091028994","title":"Java разработчик","text":"#java #middle #fulltime #удалённо #job #вакансия #remote #фуллтайм #fulltime #удаленно #удаленка #удаленно #spring\n #москва \n✔️ Вакансия: Java developer\nЗП: до 190k net\nФормат работы: полная/удаленно\nКомпания: МТС\n\nКрупная российская телекоммуникационная компания приглашает присоединиться Middle Java разработчика к проекту разработки IoT решений.\n\n ✔️ Задачи:\n• Разработка бэкенда проекта;\n• Code-review;\n• Участие в принятии архитектурных и технических решений;\n• Интеграция решений с мобильными приложениями.\n\n✔️ Предлагаем: \n• Официальное трудоустройство;\n• Повышение квалификации;\n•  Удаленная работа из дома.\n\n✔️ Пожелания к Вашему опыту:\n• Опыт работы от 3-х лет;\n• Высшее образование;\n• Работа с БД: PostgreSQL и NoSQL;\n• Опыт работы с Spring, Kafka.\nКонтактное лицо: @OlgaVzh","markup":[{"type":"hashtag","offset":0,"length":5,"data":"java"},{"type":"hashtag","offset":6,"length":7,"data":"middle"},{"type":"hashtag","offset":14,"length":9,"data":"fulltime"},{"type":"hashtag","offset":24,"length":9,"data":"удалённо"},{"type":"hashtag","offset":34,"length":4,"data":"job"},{"type":"hashtag","offset":39,"length":9,"data":"вакансия"},{"type":"hashtag","offset":49,"length":7,"data":"remote"},{"type":"hashtag","offset":57,"length":9,"data":"фуллтайм"},{"type":"hashtag","offset":67,"length":9,"data":"fulltime"},{"type":"hashtag","offset":77,"length":9,"data":"удаленно"},{"type":"hashtag","offset":87,"length":9,"data":"удаленка"},{"type":"hashtag","offset":97,"length":9,"data":"удаленно"},{"type":"hashtag","offset":107,"length":7,"data":"spring"},{"type":"hashtag","offset":116,"length":7,"data":"москва"},{"type":"bold","offset":169,"length":31,"data":""},{"type":"bold","offset":290,"length":24,"data":""},{"type":"bold","offset":354,"length":8,"data":""},{"type":"bold","offset":517,"length":13,"data":""},{"type":"bold","offset":620,"length":26,"data":""},{"type":"handle","offset":777,"length":8,"data":"OlgaVzh"}],"date":"2020-04-02T13:19:28+00:00","link":"tg://resolve?domain=jvmjobs&post=1347","tags":[{"name":"java"},{"name":"jvm"},{"name":"spring"},{"name":"dotnet"},{"name":"postgresql"},{"name":"nosql"},{"name":"kafka"}],"cities":[{"code":"moscow"}],"allowsRemote":true}},{"node":{"__typename":"Job","id":"1411383296-1001091028994","title":"Java разработчик","text":"Вакансия: #java #developer #senior #seniorjavadeveloper #офис\nКомпания: Fisgroup\nЛокация: #новосибирск #новосиб\nЗанятость: гибкий график\nЗ/п: 150 - 200К net\nКонтакты: @observer69\n\nCase Platform.\nОсновные продукты - кредитный фронт, управление рисками, системы по работе с просроченной задолженностью, системы принятия решений по кредитам, CRM-системы.\n\nЧем интересна наша вакансия:\n- достойный уровень заработной платы, обсудим ваши пожелания;\n- рост заработной платы вместе с ростом квалификации;\n- офис в Академпарке;\n- корпоративный транспорт\n- профессиональное развитие;\n- гибкий график;\n- доброжелательный коллектив;\n- веселые корпоративы в кругу коллег;\n\nВам предстоит:\n- анализ и уточнение требований к реализуемым задачам.\n- участие в разработке технических решений.\n- разработка и тестирование java-кода системы.\n- участие в документировании разработанной функциональности\n- анализ нетривиальных проблем возникающих у пользователей системы.\n- взаимодействие с другими участниками команды( java- и веб- разработчиками, тестировщиками) для обеспечения согласованности и качества разработки.\n- учет собственного рабочего времени.\n\nТребования: \n- понимание основ computer science (алгоритмы и структуры данных, вычислительная сложность, производительность, надежность...).\n- знание и умение применять шаблоны проектирования.\n- понимание принципов объектно-ориентированного программирования и дизайна.\n- понимание проблем параллельного программирования и способов их решения.\n- понимание основ криптографии и обеспечения безопасности данных.\n- умение диагностировать и решать проблемы производительности.\n- системное мышление.\n- знание платформы Java EE 6 и выше, опыт программирования на языке Java.\n- опыт работы с XML, JSON, ORM (JPA, Hibernate).\n- знание SQL (Oracle, PostgreSQL или любой другой диалект).\n- опыт командной работы.\n- опыт работы с системами контроля версий и автоматизации процесса разработки.\n\nБудет плюсом:\n-участие в разработке архитектуры систем;\n- профильное образование;\n- опыт участия в разработке сложных разнородных систем;\n- знание теории формальных языков и принципов построения трансляторов;\n- использование программных продуктов и инструментов для построения распределенных систем (кластеризация, микросервисы)\nПрофильное образование;\nОпыт участия в разработке сложных разнородных систем;\nЗнание теории формальных языков и принципов построения трансляторов;\nИспользование программных продуктов и инструментов для построения распределенных систем (кластеризация, микросервисы)","markup":[{"type":"hashtag","offset":10,"length":5,"data":"java"},{"type":"hashtag","offset":16,"length":10,"data":"developer"},{"type":"hashtag","offset":27,"length":7,"data":"senior"},{"type":"hashtag","offset":35,"length":20,"data":"seniorjavadeveloper"},{"type":"hashtag","offset":56,"length":5,"data":"офис"},{"type":"hashtag","offset":90,"length":12,"data":"новосибирск"},{"type":"hashtag","offset":103,"length":8,"data":"новосиб"},{"type":"handle","offset":167,"length":11,"data":"observer69"}],"date":"2020-04-02T12:26:58+00:00","link":"tg://resolve?domain=jvmjobs&post=1346","tags":[{"name":"java"},{"name":"jvm"},{"name":"dotnet"},{"name":"xml"},{"name":"json"},{"name":"orm"},{"name":"jpa"},{"name":"hibernate"},{"name":"sql"},{"name":"oracle"},{"name":"postgresql"}],"cities":[{"code":"novosibirsk"}],"allowsRemote":false}},{"node":{"__typename":"Job","id":"1409286144-1001091028994","title":"Java разработчик","text":"#вакансия #москва #java #middle #senior\n\nКомпания Альфа Страхование в поисках Java-разработчика на внутренние проекты (Москва).\n\n💰Заработная вилка: 200 000 ₽ — 300 000 ₽ (в зависимости от опыта)\n\n🔸Проект «АльфаПартнерс»\nСистема для партнеров компании для продажи страховок. Некое B2B решение, которое используют сотрудники наших партнёров, чтобы продавать страховки.\n\nТехнологии:\n▪️Java 8\n▪️[legacy часть] — Java Core, Weblogic + Oracle (LiquidBase)\n▪️[новая часть] — Spring Boot , Tomcat + Mongo + Vaadin 14\n\n————-\n\n🔸Проект «Продуктовая фабрика»\nПишется с нуля.\n\nТехнологии:\n▪️Java 8\n▪️Vaadin\n▪️Spring Framework (IoC, Data, Security, Web)\n▪️Spring Boot\n▪️Spring Cloud REST, SOAP, Docker SQL (PostgreSQL)\n▪️[тестирование] — JUnit, Mockito, spring tests, test containers\n\n————-\n\n🔸Проект «РСА 2.0 (Шина)»\n\nТехнологии:\n▪️Java 8/11\n▪️Spring Boot\n▪️Rest API\n▪️JUnit\n▪️PostgreSQL\n▪️ActiveMQ\n▪️Redis\n\n————-\n\n🔸Проект «Альфа NEXT»\n\nТехнологии:\n▪️Java 8/11\n▪️Spring Boot\n▪️Camunda\n▪️JUnit\n▪️PostgreSQL\n▪️k8s\n▪️cloud-native\n\n========\n\n🔸🔸🔸\nУсловия\n▫️ График работы: 5/2 (гибкое начало дня)\n▫️ Работа в профессиональной команде разработчиков, которая готова делиться знаниями и опытом\n▫️ Удобное расположение офиса – м. Шаболовская (7 минут пешком от метро)\n▫️ Оформление по ТК РФ\n🔸🔸🔸\n\nКонтакты\n▪️Telegram: @ruslan_mart","markup":[{"type":"hashtag","offset":0,"length":9,"data":"вакансия"},{"type":"hashtag","offset":10,"length":7,"data":"москва"},{"type":"hashtag","offset":18,"length":5,"data":"java"},{"type":"hashtag","offset":24,"length":7,"data":"middle"},{"type":"hashtag","offset":32,"length":7,"data":"senior"},{"type":"bold","offset":50,"length":17,"data":""},{"type":"bold","offset":149,"length":21,"data":""},{"type":"bold","offset":207,"length":13,"data":""},{"type":"italic","offset":222,"length":148,"data":""},{"type":"bold","offset":370,"length":12,"data":""},{"type":"italic","offset":394,"length":12,"data":""},{"type":"italic","offset":455,"length":11,"data":""},{"type":"bold","offset":529,"length":19,"data":""},{"type":"italic","offset":550,"length":17,"data":""},{"type":"bold","offset":567,"length":12,"data":""},{"type":"italic","offset":711,"length":12,"data":""},{"type":"bold","offset":791,"length":14,"data":""},{"type":"bold","offset":808,"length":12,"data":""},{"type":"bold","offset":915,"length":10,"data":""},{"type":"bold","offset":928,"length":12,"data":""},{"type":"bold","offset":1036,"length":8,"data":""},{"type":"bold","offset":1284,"length":9,"data":""},{"type":"handle","offset":1305,"length":12,"data":"ruslan_mart"}],"date":"2020-04-02T12:23:30+00:00","link":"tg://resolve?domain=jvmjobs&post=1344","tags":[{"name":"java"},{"name":"jvm"},{"name":"oracle"},{"name":"spring"},{"name":"tomcat"},{"name":"web"},{"name":"cloud"},{"name":"rest"},{"name":"soap"},{"name":"docker"},{"name":"sql"},{"name":"postgresql"},{"name":"junit"},{"name":"redis"},{"name":"spring-boot"}],"cities":[{"code":"moscow"}],"allowsRemote":false}},{"node":{"__typename":"Job","id":"1957691392-1001134745498","title":"Devops инженер","text":"#вакансия #devops #remote\n\nГород: #Новосибирск\nформат работы: #удаленка #remote\nзанятость: #проектная #fulltime\nзарплатная вилка: 700-1000 рублей в час\n\nОписание вакансии:\n\nДобрый день!\n\nМеня зовут Матвей, менеджер проектов в компании The Invaders. Мы занимаемся заказной веб и мобильной разработкой для компаний по всему миру. Основная специализация компании это разработка Web и Mobile проектов, кроме того, в портфеле нашей компании работа с  блокчейн проектами на различных платформах (Waves, Ethereum, EOS, Corda, Hyperledger и тд.)  Наша команда разработки находится в Новосибирске, но у нас так же, на удаленной основе, работают разработчики с разных мест Земного шара.\n\nВ данный момент мы ищем колегу DevOps, который поможет нам периодически настраивать, разворачивать сервера, улучшит нашу ситуацию с CI/CD, покажет путь лучшей жизни с контейнеризацией\n\nЧем предстоит заниматься:\n\n1. Формирование Docker-образов, CI/CD сценариев\n2. Управления контейнеризованными рабочими нагрузками и сервисами (Kubernetes)\n3. Решение сетевых вопросов организации серверов\n4. Решение вопросов хранения данных\n5. Мониторинг систем, сбор, визуализация и анализ логов\n6. Взаимодействие с командой разработчиков и совместное решение задач\n\nТехнические скиллы:\n\n1.  Умение работать с Ansible\n2.  Опыт администрирования баз данных (PostgreSQL, Redis)\n3.  Опыт работы в качестве Инженера DevOps\n\nТехнологический стек:\n\n- Непосредственное взаимодействие и окружение\n\n  - Gitlab CI/CD\n  - Docker\n  - Ansible\n  - Ubuntu\n  - PostgreSQL\n  - Redis\n  - Rabbitmq\n  - Python\n  - Django\n  - Celery\n  - Nginx\n\nТак же будет очень хорошо:\n\n- Увлекаешься программированием\n- Сможешь рассказать о ревалентном опыте работы\n\nНазвание компании: The Invaders\n\nКонтакты: hr@theinvaders.pro @matteslip\n\n—\n\n👉 Обсуждение вакансии в чате @devops_jobs","markup":[{"type":"hashtag","offset":0,"length":9,"data":"вакансия"},{"type":"hashtag","offset":10,"length":7,"data":"devops"},{"type":"hashtag","offset":18,"length":7,"data":"remote"},{"type":"hashtag","offset":34,"length":12,"data":"Новосибирск"},{"type":"hashtag","offset":62,"length":9,"data":"удаленка"},{"type":"hashtag","offset":72,"length":7,"data":"remote"},{"type":"hashtag","offset":91,"length":10,"data":"проектная"},{"type":"hashtag","offset":102,"length":9,"data":"fulltime"},{"type":"link","offset":1737,"length":18,"data":"mailto:hr@theinvaders.pro"},{"type":"handle","offset":1756,"length":10,"data":"matteslip"},{"type":"handle","offset":1801,"length":12,"data":"devops_jobs"}],"date":"2020-04-02T06:34:20+00:00","link":"tg://resolve?domain=devops_jobs_feed&post=1867","tags":[{"name":"web"},{"name":"mobile"},{"name":"docker"},{"name":"kubernetes"},{"name":"ansible"},{"name":"postgresql"},{"name":"redis"},{"name":"gitlab"},{"name":"ubuntu"},{"name":"rabbitmq"},{"name":"python"},{"name":"django"},{"name":"nginx"}],"cities":[{"code":"novosibirsk"}],"allowsRemote":true}}]}}},"context":{}}