{"hash":"f34fd2c444a074f4e0e67d525015a008ef8e766f","data":{"records":{"id":"typescript","name":"typescript","belongsTo":{"totalCount":29,"pageInfo":{"totalPages":3,"currentPage":1},"edges":[{"node":{"__typename":"Job","id":"16260268032-1001110946746","title":"Javascript разработчик","text":"#вакансия #react #javascript #teamlead #москва #офис \n\n🔭 Ищем Team Lead (React) в финансовую компанию под задачи разработки с «нуля» платформы Web-решений. \n🎧 Все собеседования проводятся по скайпу из-за карантина. \nОфис: Москва, Лубянка\n🏠 Формат работы: в офисе после карантина (сейчас как у всех  удалёнка). В первый рабочий день оформляетесь и идете на удалёнку.\nЗанятость полная.\nГражданство: РФ\nПолный соцпакет.\n💰 Зарплата: оклад от 200К до 210К net (на руки) + квартальная премия 0,5 оклада. \nС премией средняя ЗП составит 245K рублей net \n\nTeam Lead (React)\n🚀Область ответственности:\n• Разработка фронт-офисных систем компании.\n• Руководство 1-2 разработчиками.\n💎 Требования:\n• Высшее образование;\n• Опыт коммерческой разработки UI 3-5 лет;\n• Необходимый стек: JavaScript, TypeScript, React (с использованием Redux/Mobx, Webpack, Babel), СУБД (PostgreSQL, MongoDB, Redis).\n• Кроссбраузерная и кроссплатформенная вёрстка.\n• Участие в высоконагруженных проектах.\n• Опыт управления распределённой командой.\n\nНазвание компании: КА Бизнес Крафт Консалт https://bcraft.ru/\n📪Контакты:\ntelegram: @oksanaalieva \nEmail: oksana@bcraft.ru \nБуду рада ответить на уточняющие вопросы. \nПодробности могу выслать в ЛС в ответ на присланное резюме.\n\n—\n\n👉 Обсуждение вакансии в чате @javascript_jobs","markup":[{"type":"hashtag","offset":0,"length":9,"data":"вакансия"},{"type":"hashtag","offset":10,"length":6,"data":"react"},{"type":"hashtag","offset":17,"length":11,"data":"javascript"},{"type":"hashtag","offset":29,"length":9,"data":"teamlead"},{"type":"hashtag","offset":39,"length":7,"data":"москва"},{"type":"hashtag","offset":47,"length":5,"data":"офис"},{"type":"link","offset":1061,"length":18,"data":"https://bcraft.ru/"},{"type":"handle","offset":1102,"length":13,"data":"oksanaalieva"},{"type":"link","offset":1124,"length":16,"data":"mailto:oksana@bcraft.ru"},{"type":"handle","offset":1279,"length":16,"data":"javascript_jobs"}],"date":"2020-04-10T12:00:27+00:00","link":"tg://resolve?domain=javascript_jobs_feed&post=15507","tags":[{"name":"javascript"},{"name":"reactjs"},{"name":"web"},{"name":"dotnet"},{"name":"typescript"},{"name":"redux"},{"name":"webpack"},{"name":"postgresql"},{"name":"mongodb"},{"name":"redis"}],"cities":[{"code":"moscow"}],"allowsRemote":true}},{"node":{"__typename":"Job","id":"16251879424-1001110946746","title":"Javascript разработчик","text":"#вакансия #javascript #typescript #react #удаленка\n\nГород и адрес офиса: любой\nФормат работы: удаленка\nЗанятость: полная\nЗарплатная вилка: от 130 000 до 160 000 рублей (на руки)\n\nОписание вакансии: Senior Frontend-разработчик на проект из банковской сферы. Нам нужен человек, который не боится решать задачи любой сложности и может научить этому (и не только этому) свою команду.\n\nСтек технологий:\n– JavaScript, TypeScript;\n– React, Redux, Redux-Saga;\n– Babel (ES 2016+), Webpack или Gulp, Git, БЭМ.\n\nНазвание компании: CSSSR\nКонтакты: @lena_bezbatchenko\n\n—\n\n👉 Обсуждение вакансии в чате @javascript_jobs","markup":[{"type":"hashtag","offset":0,"length":9,"data":"вакансия"},{"type":"hashtag","offset":10,"length":11,"data":"javascript"},{"type":"hashtag","offset":22,"length":11,"data":"typescript"},{"type":"hashtag","offset":34,"length":6,"data":"react"},{"type":"hashtag","offset":41,"length":9,"data":"удаленка"},{"type":"handle","offset":536,"length":18,"data":"lena_bezbatchenko"},{"type":"handle","offset":589,"length":16,"data":"javascript_jobs"}],"date":"2020-04-10T09:27:39+00:00","link":"tg://resolve?domain=javascript_jobs_feed&post=15499","tags":[{"name":"javascript"},{"name":"typescript"},{"name":"reactjs"},{"name":"redux"},{"name":"webpack"},{"name":"gulp"},{"name":"git"},{"name":"react-redux"}],"cities":[],"allowsRemote":true}},{"node":{"__typename":"Job","id":"66359132160-1001054966032","title":"Mobile разработчик","text":"#вакансия #минск #fulltime #reactnative #moblie\nГород: Минск, Немига\nФормат работы: Пока #удаленно, потом #офис\nЗанятость: #Полная\nВилка ЗП: От $500 до $3000. Надо знакомиться и смотреть навыки.\n\nПривет,\nМы NeatTech.io– команда амбициозных профессионалов, создающих веб и мобильные приложения.\n\nСердце нашей компании – Продукт. Мы стремимся создавать продукты так же круто, как это делают мировые лидеры: Яндекс, Google, Airbnb. Начиная с процессов и заканчивая результатом.\n\nЧтобы к этому прийти, нам приходится каждый день оттачивать свой профессионализм, искать новые подходы и учиться у лучших.\n\nПриглашаем стать частью нас.\n\nЧто предстоит\n\n- Создавать мобильные-приложения на Typescript + React Native\n- Работать напрямую с клиентами и учиться грамотно защищать и принимать лучшие технические решения основываясь на краткосрочных и долгосрочных целях бизнеса\n- Создавать и поддерживать переиспользуемые библиотеки для решения повторяющихся технических проблем\n- Менторить начинающих разработчиков\n- Тесно взаимодействовать с командой и участвовать в продуктовых митингах\n\nИдеальный кандидат\n\n- Умный, обладает математическим складом ума\n- Имеет больше года коммерческой разработки на React Native\n- Обладает хорошим продуктовым мышлением\n- Понимает весь SDLC\n- Разбирается в протоколах (например, REST или HTTP/2), SQL / NoSQL базах данных, основных NPM / React Native библиотеках\n- Умеет приоритезировать и всегда думает о том, какую пользу приносит работа. Не ставит целью написать \"крутой алгоритм\", а рационально находит баланс между качеством, скоростью и усилиями\n- Считает самосовершенствование важной частью жизни и работы\n- Бонус: без трудностей разговаривает, пишет и читает на английском\n\nБолее подробная информация по вакансии. \n\nСтать частью нас\nОткликнуться на вакансию можно по этой ссылке.","markup":[{"type":"hashtag","offset":0,"length":9,"data":"вакансия"},{"type":"hashtag","offset":10,"length":6,"data":"минск"},{"type":"hashtag","offset":17,"length":9,"data":"fulltime"},{"type":"hashtag","offset":27,"length":12,"data":"reactnative"},{"type":"hashtag","offset":40,"length":7,"data":"moblie"},{"type":"bold","offset":48,"length":5,"data":""},{"type":"bold","offset":69,"length":14,"data":""},{"type":"hashtag","offset":89,"length":9,"data":"удаленно"},{"type":"hashtag","offset":106,"length":5,"data":"офис"},{"type":"bold","offset":112,"length":10,"data":""},{"type":"hashtag","offset":123,"length":7,"data":"Полная"},{"type":"bold","offset":131,"length":9,"data":""},{"type":"bold","offset":630,"length":15,"data":""},{"type":"bold","offset":1077,"length":20,"data":""},{"type":"link","offset":1705,"length":42,"data":"https://www.notion.so/Middle-React-Native-a27e4a31628a48dbb3c79956bbe9ab61"},{"type":"bold","offset":1747,"length":17,"data":""},{"type":"link","offset":1798,"length":11,"data":"https://forms.gle/aqDbYcbXTSvxR29r5"}],"date":"2020-04-09T13:46:42+00:00","link":"tg://resolve?domain=mobile_jobs&post=63285","tags":[{"name":"mobile"},{"name":"typescript"},{"name":"reactjs"},{"name":"rest"},{"name":"sql"},{"name":"nosql"},{"name":"npm"},{"name":"react-native"}],"cities":[{"code":"minsk"}],"allowsRemote":true}},{"node":{"__typename":"Job","id":"1431306240-1001091028994","title":"Java разработчик","text":"#scala #teamlead #senior #офис #удаленно #fulltime #Москва\n\nПриглашаем Scala-разработчика уровня senior-teamlead, 220-270 тыс. на руки.\n\nТребования:\nлидировать и развивать команду разработчиков\nразвивать backend приложение на Akka HTTP\nпрорабатывать интеграции для сервисов на Java (Spring Cloud)\nинтегрироваться со стеком Kafka, MQ, Redis, Orcale SQL, Postgres\nfrontend разработка (React, Redux, Typescript, собственная библиотека компонентов)\nработать с витринами на Spark, Hadoop\nразработать web-scraper на Akka Streams\nподдерживать процесс сборки и тестирования (git, Ansible, Jenkins, Docker, OpenShift)\n\nСбербанк, Москва, Кутузовская\n\nКонтакты: @MikeTurchenkov","markup":[{"type":"hashtag","offset":0,"length":6,"data":"scala"},{"type":"hashtag","offset":7,"length":9,"data":"teamlead"},{"type":"hashtag","offset":17,"length":7,"data":"senior"},{"type":"hashtag","offset":25,"length":5,"data":"офис"},{"type":"hashtag","offset":31,"length":9,"data":"удаленно"},{"type":"hashtag","offset":41,"length":9,"data":"fulltime"},{"type":"hashtag","offset":51,"length":7,"data":"Москва"},{"type":"handle","offset":651,"length":15,"data":"MikeTurchenkov"}],"date":"2020-04-09T11:58:52+00:00","link":"tg://resolve?domain=jvmjobs&post=1365","tags":[{"name":"java"},{"name":"jvm"},{"name":"scala"},{"name":"akka"},{"name":"spring"},{"name":"cloud"},{"name":"kafka"},{"name":"redis"},{"name":"sql"},{"name":"postgresql"},{"name":"reactjs"},{"name":"redux"},{"name":"typescript"},{"name":"hadoop"},{"name":"web"},{"name":"git"},{"name":"ansible"},{"name":"jenkins"},{"name":"docker"},{"name":"react-redux"}],"cities":[{"code":"moscow"}],"allowsRemote":true}},{"node":{"__typename":"Job","id":"98265202688-1001089317451","title":"Qa инженер","text":"#вакансия #Москва #работаQA #Смоленская #офис полная занятость\n\n✅ Вакансия в МТС ИТ. Проект МТС-Торги: торговая он-лайн площадка для B2B и B2C клиентов. Автоматизированное тестирование frontend системы. Продуктовая команда 9 человек. Работа по Agile.\n\n✅ Заработная плата до 180 000 руб\n\n✅ Для нас важен опыт написания автотестов с использованием TypeScript.\n\n✅ Мы предлагаем:\nгибкое начало рабочего дня\nполугодовые премии\nДМС со стоматологией, страхование жизни, страхование при поездках за рубеж\n+ 3 календарных дня дополнительно к отпуску, скидки на путешествия от партнеров\n\nКонтакты:\ne-mail: erzhena.zhimbeeva@yandex.ru\ntelegram: @meowmurrr","markup":[{"type":"hashtag","offset":0,"length":9,"data":"вакансия"},{"type":"hashtag","offset":10,"length":7,"data":"Москва"},{"type":"hashtag","offset":18,"length":9,"data":"работаQA"},{"type":"hashtag","offset":28,"length":11,"data":"Смоленская"},{"type":"hashtag","offset":40,"length":5,"data":"офис"},{"type":"link","offset":596,"length":27,"data":"mailto:erzhena.zhimbeeva@yandex.ru"},{"type":"handle","offset":634,"length":10,"data":"meowmurrr"}],"date":"2020-04-09T07:55:20+00:00","link":"tg://resolve?domain=qa_jobs&post=93713","tags":[{"name":"qa"},{"name":"typescript"}],"cities":[{"code":"moscow"}],"allowsRemote":false}},{"node":{"__typename":"Job","id":"16231956480-1001110946746","title":"Js разработчик","text":"Greenatom.ru\n#вакансия #Москва #javascript #React #Typescript #Node.js #Middle #Senior #удаленка\n\n👨🏼‍💻 Middle/Senior Frontend Developer, Middle/Senior Backend Developer\nГород и адрес офиса: #Москва, 1-й Нагатинский проезд, 10с1, метро Нагатинская\n\nФормат работы: офис или частичная удаленка на выбор\n\n💻Занятость: полная, гибкое начало трудового дня.\n\nЗарплатная вилка: от 170 000 до 230 000 руб. на руки.\n\n🏢Компания: АО Гринатом\n\nПривет! Мы растём и активно развиваем ряд внутренних проектов: например, корпоративный портал, горячая линия. Мы формируем несколько команд и ищем классных:\n\n✅фронтенд разработчиков;\n\n✅бэкенд разработчиков. \n\nПроекты в стадии разработки пилота и у тебя есть возможность повлиять на дальнейшее развитие продукта. Если у тебя есть крутые идеи - ты сможешь их здесь реализовать! Откликайся сам и зови друзей! Вирус пройдёт, работа останется!\n\n✅Требуемые знания и навыки:\n- Опыт разработки от двух лет\n- Хорошее знание чистого JS\n- Опыт работы с TypeScript\n- React, MobX, Less/Sass\n- Опыт написания юнит-тестов с помощью Jest, Enzymе очень приветствуется\n\n💡Наш стек:\n      React, TypeScript, Node.js, MobX, Docker\n\nМы работаем по Scrum.\n\n✅Условия:\n- Официальное оформление по ТК, белая зп;\n- Возможности профессионального и карьерного роста;\n- Дополнительные 3 дня к отпуску;\n- Плавающее начало дня;\n- Удаленка после прохождения испытательного срока (3 месяца)\n- ДМС со стоматологией\n\n☎️Контакты:\nЮлия - YAnZueva@Greenatom.ru","markup":[{"type":"link","offset":0,"length":12,"data":"http://Greenatom.ru"},{"type":"hashtag","offset":13,"length":9,"data":"вакансия"},{"type":"hashtag","offset":23,"length":7,"data":"Москва"},{"type":"hashtag","offset":31,"length":11,"data":"javascript"},{"type":"hashtag","offset":43,"length":6,"data":"React"},{"type":"hashtag","offset":50,"length":11,"data":"Typescript"},{"type":"hashtag","offset":62,"length":5,"data":"Node"},{"type":"hashtag","offset":71,"length":7,"data":"Middle"},{"type":"hashtag","offset":79,"length":7,"data":"Senior"},{"type":"hashtag","offset":87,"length":9,"data":"удаленка"},{"type":"hashtag","offset":193,"length":7,"data":"Москва"},{"type":"link","offset":1436,"length":21,"data":"mailto:YAnZueva@Greenatom.ru"}],"date":"2020-04-09T06:41:15+00:00","link":"tg://resolve?domain=javascript_jobs_feed&post=15480","tags":[{"name":"javascript"},{"name":"reactjs"},{"name":"typescript"},{"name":"nodejs"},{"name":"sass"},{"name":"docker"}],"cities":[{"code":"moscow"}],"allowsRemote":true}},{"node":{"__typename":"Job","id":"16228810752-1001110946746","title":"Js разработчик","text":"#вакансия #javascript #nodejs #typescript #frontend #middle\n\nКомпания: #Mетрквадратный https://m2.ru\nЛокация: #москва м.Белорусская\nФормат работы: офис\nЗанятость: полная\nЗ/п: 200к - 260к руб. на руки\nКонтакты: @maxdmitrov\n\nЭто платформа, на которой физические лица смогут в режиме одного окна подобрать объект недвижимости, оформить на него ипотеку, произвести электронную регистрацию, сделать безопасный расчет не посещая банки и воспользоваться дополнительными услугами (страхование, дизайн, ремонт). \n\nЧем предстоит заниматься:\n\n•  разрабатывать один из продуктов жилищной экосистемы;\n•  прорабатывать задачи с начального этапа (декомпозиция, проработка архитектуры, демо с владельцем продукта);\n•  проводить код ревью;\n•  покрывать код unit тестами, помогать тестировщикам в написании e2e тестов;\n•  оптимизировать рендеринг и скорость загрузки страниц;\n•  разрабатывать продуктовые компоненты, используя общие UI библиотеки, и помогать в развитии этих библиотек.\n\nЧего мы ждем:\n\n• Javascript(ES6);\n• React + MobX/Redux;\n• HTML;\n• CSS;\n• Опыт кроссбраузерной верстки.\n\nБудет плюсом:\n\n• TypeScript;\n• Знание протокола HTTP/HTTPS, websockets, опыт работы с REST API;\n• Опыт работы с react native;\n• Опыт в бекэнде на различных языках программирования;\n• Опыт профилирования, оптимизации и рефакторинга кода;\n• Опыт написания тестов.\n\nМы используем: \n\n•  TypeScript + React + MobX + Gatsby;\n•  NestJS + gRPC + ProtoBuf (мидл-слой, управляющий UI и обращающийся к API бэк-энда);\n•  Micro Frontend Service;\n•  GitLab (CI/CD);\n•  Yarn + Lerna;\n•  Webpack/Rollup.\n\nМы предлагаем: \n\n•  Современный стек технологий;\n•  Возможность влиять на архитектуру и сразу видеть результат своей работы;\n•  Белая конкурентная ЗП, официальное оформление;\n•  Гибкий график работы, возможность выбора рабочего оборудования;\n•  ДМС, компенсация фитнеса, льготная ставка по ипотеке;\n•  Комфортный офис в БЦ «Белая площадь» (минута от метро): лаундж-зоны, бариста, фрукты.","markup":[{"type":"hashtag","offset":0,"length":9,"data":"вакансия"},{"type":"hashtag","offset":10,"length":11,"data":"javascript"},{"type":"hashtag","offset":22,"length":7,"data":"nodejs"},{"type":"hashtag","offset":30,"length":11,"data":"typescript"},{"type":"hashtag","offset":42,"length":9,"data":"frontend"},{"type":"hashtag","offset":52,"length":7,"data":"middle"},{"type":"hashtag","offset":71,"length":15,"data":"Mетрквадратный"},{"type":"link","offset":87,"length":13,"data":"https://m2.ru"},{"type":"hashtag","offset":110,"length":7,"data":"москва"},{"type":"handle","offset":210,"length":11,"data":"maxdmitrov"}],"date":"2020-04-09T06:40:27+00:00","link":"tg://resolve?domain=javascript_jobs_feed&post=15477","tags":[{"name":"javascript"},{"name":"nodejs"},{"name":"typescript"},{"name":"reactjs"},{"name":"redux"},{"name":"html"},{"name":"css"},{"name":"rest"},{"name":"gitlab"},{"name":"webpack"},{"name":"react-native"}],"cities":[{"code":"moscow"}],"allowsRemote":false}},{"node":{"__typename":"Job","id":"16227762176-1001110946746","title":"Javascript developer","text":"#вакансия #react #javascript #москва #офис\n\n🔭 Под задачи разработки платформы Web-решений ищем Frontend Developer (React) в крупную финансовую компанию. \n🎧 Все собеседования проводятся по скайпу из-за карантина. \nОфис: Москва, Лубянка\n🏠 Формат работы: в офисе после карантина (сейчас как у всех  удалёнка). В первый рабочий день оформляетесь и идете на удалёнку.\nЗанятость полная.\nГражданство: РФ\nПолный соцпакет.\n💰 Зарплата: от 165К до 175К net + квартальная премия 0,5 оклада. \nС премией средняя ЗП составит 205K рублей net \n\nFrontend Developer (React)\n🚀Область ответственности:\n• Участие в разработке фронт-офисных систем компании.\n💎 Требования:\n• Высшее / неоконченное высшее образование;\n• Опыт коммерческой разработки UI от 2,5 лет;\n• Необходимый стек: JavaScript, TypeScript, React (с использованием Redux/Mobx, Webpack, Babel), СУБД (PostgreSQL, MongoDB, Redis).\n• Кроссбраузерная и кроссплатформенная вёрстка.\n• Участие в высоконагруженных проектах.\n\nНазвание компании: КА \"Бизнес Крафт Консалт\" https://bcraft.ru/\n📪Контакты:\ntelegram: @oksanaalieva \nEmail: oksana@bcraft.ru \nБуду рада ответить на уточняющие вопросы. \nПодробности могу выслать в ЛС в ответ на присланное резюме.","markup":[{"type":"hashtag","offset":0,"length":9,"data":"вакансия"},{"type":"hashtag","offset":10,"length":6,"data":"react"},{"type":"hashtag","offset":17,"length":11,"data":"javascript"},{"type":"hashtag","offset":29,"length":7,"data":"москва"},{"type":"hashtag","offset":37,"length":5,"data":"офис"},{"type":"link","offset":1011,"length":18,"data":"https://bcraft.ru/"},{"type":"handle","offset":1052,"length":13,"data":"oksanaalieva"},{"type":"link","offset":1074,"length":16,"data":"mailto:oksana@bcraft.ru"}],"date":"2020-04-09T06:40:13+00:00","link":"tg://resolve?domain=javascript_jobs_feed&post=15476","tags":[{"name":"javascript"},{"name":"reactjs"},{"name":"web"},{"name":"dotnet"},{"name":"typescript"},{"name":"redux"},{"name":"webpack"},{"name":"postgresql"},{"name":"mongodb"},{"name":"redis"}],"cities":[{"code":"moscow"}],"allowsRemote":true}},{"node":{"__typename":"Job","id":"16224616448-1001110946746","title":"Js разработчик","text":"#вакансия #frontend #developer #senior  #javascript #typescript #angular #fulltime #офис #питер\n\nSenior Frontend Developer\nКомпания: CM.Expert\nЛокация: Санкт-Петербург\nЗанятость: fulltime\nЗ/п: 150-250К net\nКонтакты: @observer69\n\nCM.Expert — единственная в России платформа, предназначенная для интеллектуального анализа рынка и автоматизированного управления продажами и складом автомобилей с пробегом.\n\nУсловия\n● Гибкий график рабочего времени (полный день, о начале и окончании рабочего дня можно договориться)\n● Профессиональная команда, Agile-процесс с плоской структурой управления проектом, работа по ТЗ, всё белое, офис в 15 минутах от метро Балтийская в БЦ “Балтийский Порт\n● Бессрочный трудовой договор\n\nТребования\n● Продолжительный специализированный опыт работы с FrontEnd-приложениями\n● Высокое качество кода\n● Навыки работы с Git\n● Хорошее знание JavaScript / TypeScript\n● Знание HTML5 / DOM / SCSS\n● Навыки верстки, внимательность, хороший “глазомер”\n● Уверенные знания и навыки работы с ReactiveX\n● Умение работать с “состоянием” приложения; эрудиция в “Best Practices”\n● Хорошее знание фреймворка Angular (2-6) — в том числе, “под капотом”\n● Опыт создания типовых решений (npm-пакетов, плагинов, библиотек и т.д.)\n● Хорошее понимание принципов ООП, функционального программирования\n● Понимание принципов поддерживаемости\n● Хорошее знание сборщиков: WebPack, Gulp; способность создавать кастомные решения любой сложности\n● Опыт работы с базами данных и хранением информации\n● Умение работать с документацией (читать и писать)\n● Навыки работы с JSON Schema, OpenAPI/Swagger\n\nЗадачи\n1. Развитие и поддержание функциональности CM.Expert\n2. Участие в проектировании архитектуры приложения и API.        \n3. Взаимодействие с BE разработчиками, дизайнером, продукт-менеджером.","markup":[{"type":"hashtag","offset":0,"length":9,"data":"вакансия"},{"type":"hashtag","offset":10,"length":9,"data":"frontend"},{"type":"hashtag","offset":20,"length":10,"data":"developer"},{"type":"hashtag","offset":31,"length":7,"data":"senior"},{"type":"hashtag","offset":40,"length":11,"data":"javascript"},{"type":"hashtag","offset":52,"length":11,"data":"typescript"},{"type":"hashtag","offset":64,"length":8,"data":"angular"},{"type":"hashtag","offset":73,"length":9,"data":"fulltime"},{"type":"hashtag","offset":83,"length":5,"data":"офис"},{"type":"hashtag","offset":89,"length":6,"data":"питер"},{"type":"handle","offset":216,"length":11,"data":"observer69"}],"date":"2020-04-09T06:38:20+00:00","link":"tg://resolve?domain=javascript_jobs_feed&post=15473","tags":[{"name":"javascript"},{"name":"typescript"},{"name":"angularjs"},{"name":"dotnet"},{"name":"git"},{"name":"html"},{"name":"npm"},{"name":"webpack"},{"name":"gulp"},{"name":"json"},{"name":"swagger"}],"cities":[],"allowsRemote":false}},{"node":{"__typename":"Job","id":"16219373568-1001110946746","title":"Js разработчик","text":"#вакансия #удаленно #react #middle+\nКомпания - VMB\nГород - Москва \nФормат - удаленная работа \nГрафик - полный рабочий день \nВилка - 150-200к рублей на руки \n\n📍Проект - “Детский проект” для поискового приложения нужно сделать веб приложение, где дети могут тыкаться с любимыми персонажами \n📍Что нужно? \nзнание React и TypeScript;\nотличное владение чистым JS;\nхорошее знание Node.js и ES6;\nхорошее знание HTML и CSS;\nумение работать с Git;\nпонимание особенностей SPA-приложений.\n📍Плюсами будут:\nпонимание принципов разработки изоморфных приложений;\nопыт разработки под мобильные браузеры;\nзнакомство с Unix-системами;\nопыт написания тестов (юнит- или интеграционных);\nопыт работы с системами сборки (Webpack, Rollup, Gulp, Grunt и т. п.);\nопыт работы с системами непрерывной интеграции (TeamСity, Travis, Jenkins, Drone и т. п.).\n📍Что предлагаем?\nУдалённую занятость \nВозможность развиваться и развивать интересный проект\n\nКонтакты \n@nariarakel","markup":[{"type":"hashtag","offset":0,"length":9,"data":"вакансия"},{"type":"hashtag","offset":10,"length":9,"data":"удаленно"},{"type":"hashtag","offset":20,"length":6,"data":"react"},{"type":"hashtag","offset":27,"length":7,"data":"middle"},{"type":"handle","offset":935,"length":11,"data":"nariarakel"}],"date":"2020-04-09T06:36:49+00:00","link":"tg://resolve?domain=javascript_jobs_feed&post=15468","tags":[{"name":"javascript"},{"name":"reactjs"},{"name":"typescript"},{"name":"nodejs"},{"name":"html"},{"name":"css"},{"name":"git"},{"name":"unix"},{"name":"webpack"},{"name":"gulp"},{"name":"gruntjs"},{"name":"jenkins"}],"cities":[{"code":"moscow"}],"allowsRemote":true}}]}}},"context":{}}