{"hash":"f5f6bf98bd95e769321482904cbbd488f77922fd","data":{"records":{"id":"nosql","name":"nosql","belongsTo":{"totalCount":26,"pageInfo":{"totalPages":3,"currentPage":1},"edges":[{"node":{"__typename":"Job","id":"2275409920-1001134745498","title":"Devops engineer","text":"#вакансия #devops #удаленка #fulltime #remote \n\nВакансия: DevOps Engineer\nЛокация: Казань\nФормат работы: офис или удаленка\nЗП: от 100к до 150к\n\n🔸Современная IT-компания, работающая на стыке банковской, страховой, инвестиционной и страховой сфер, сейчас находится в поиске DevOps Engineer.\n\nОфисы компании расположены в Казани и Иннополисе, также есть возможность работать удаленно.\n\nКомпания занимается изучением перспективных направлений в области финансовых продуктов и сервисов, и проверяет их на практике.\n\n🔸На текущий момент компания запускает очень крупный проект, задачей которого является трансформация архитектуры бизнеса и переезд всех процессов на новую технологическую платформу.\n\nКомпания может рассматривать лишь граждан РФ.\n\n🔹Требования\n— Опыт работы с ОС Linux;\n— Опыт работы в роли DevOps Engineer не менее 2 лет;\n— Знание скриптовых языков (Bash);\n— CI (Teamcity), CD (Octopus);\n— Опыт работы с системами мониторинга (SCOM \\ Zabbix).\n— Опыт работы с NoSQL СУБД;\n— Веб-серверы и балансировщики нагрузки (Apache/nginx haproxy).\n\n🔹**Контакты:**  \nКА: Lucky hunter\ne-mail: maria@luckyhunter.io\ntelegram: @Maria_Rey\n\n—\n\n👉 Обсуждение вакансии в чате @devops_jobs","markup":[{"type":"hashtag","offset":0,"length":9,"data":"вакансия"},{"type":"hashtag","offset":10,"length":7,"data":"devops"},{"type":"hashtag","offset":18,"length":9,"data":"удаленка"},{"type":"hashtag","offset":28,"length":9,"data":"fulltime"},{"type":"hashtag","offset":38,"length":7,"data":"remote"},{"type":"link","offset":1091,"length":20,"data":"mailto:maria@luckyhunter.io"},{"type":"handle","offset":1122,"length":10,"data":"Maria_Rey"},{"type":"handle","offset":1167,"length":12,"data":"devops_jobs"}],"date":"2020-07-02T12:08:03+00:00","link":"tg://resolve?domain=devops_jobs_feed&post=2170","tags":[{"name":"linux"},{"name":"bash"},{"name":"nosql"},{"name":"apache"},{"name":"nginx"}],"cities":[{"code":"kazan"}],"allowsRemote":true}},{"node":{"__typename":"Job","id":"17277386752-1001110946746","title":"Js разработчик","text":"#вакансия #вакансии #удаленная #работа #разработчик #remote #job #remotejob #full #stack #fullstack #software #engineer #develop #developer #node #react #amazon #aws #api #crm #erp #zoho #us #usa\n\n😎 Full Stack Software Engineer\n\nКомпания: Deep Consulting Solutions (Austin, Texas)\n\nМестоположение: Anywhere\n\nФормат работы: Remote \n\nЗанятость: Full Time, Flexible Schedule \n\nЗарплата: $20-80K в год. Compensation plan depends on level of ability, responsibility taken, and results delivered. Compensation consists of base and bonus pay.\n \nОписание вакансии:\n\nhttps://zfrmz.com/yIDN35yaj3apxsNfR9qS?src=irina-itrecruiter\n\nRequirements:\n\nYou must be:\n\n- A mature and responsible individual driven by results and not activities.\n- An individual with genuine interest in technology.\n- Willing to learn, grow, and admit mistakes.\n- Able to communicate with other people on the project's team effectively.\n \nSkills/Experience:\n\n- Node.js, React, SQL and NoSQL databases.\n- APIs.\n- Effective Written and Verbal English.\n- Basic Understanding of DevOps and SDLC.\n \nThe following will be a good plus:\n\n- Experience with Amazon AWS, serverless technologies, and microservices on its platform.\n- Experience with CRM and ERP systems such as Zoho and others.\n\nКак подать заявку:\n\nhttps://zfrmz.com/yIDN35yaj3apxsNfR9qS?src=irina-itrecruiter\n\nКонтакт:\n@Aagdan","markup":[{"type":"hashtag","offset":0,"length":9,"data":"вакансия"},{"type":"hashtag","offset":10,"length":9,"data":"вакансии"},{"type":"hashtag","offset":20,"length":10,"data":"удаленная"},{"type":"hashtag","offset":31,"length":7,"data":"работа"},{"type":"hashtag","offset":39,"length":12,"data":"разработчик"},{"type":"hashtag","offset":52,"length":7,"data":"remote"},{"type":"hashtag","offset":60,"length":4,"data":"job"},{"type":"hashtag","offset":65,"length":10,"data":"remotejob"},{"type":"hashtag","offset":76,"length":5,"data":"full"},{"type":"hashtag","offset":82,"length":6,"data":"stack"},{"type":"hashtag","offset":89,"length":10,"data":"fullstack"},{"type":"hashtag","offset":100,"length":9,"data":"software"},{"type":"hashtag","offset":110,"length":9,"data":"engineer"},{"type":"hashtag","offset":120,"length":8,"data":"develop"},{"type":"hashtag","offset":129,"length":10,"data":"developer"},{"type":"hashtag","offset":140,"length":5,"data":"node"},{"type":"hashtag","offset":146,"length":6,"data":"react"},{"type":"hashtag","offset":153,"length":7,"data":"amazon"},{"type":"hashtag","offset":161,"length":4,"data":"aws"},{"type":"hashtag","offset":166,"length":4,"data":"api"},{"type":"hashtag","offset":171,"length":4,"data":"crm"},{"type":"hashtag","offset":176,"length":4,"data":"erp"},{"type":"hashtag","offset":181,"length":5,"data":"zoho"},{"type":"hashtag","offset":187,"length":3,"data":"us"},{"type":"hashtag","offset":191,"length":4,"data":"usa"},{"type":"link","offset":559,"length":60,"data":"https://zfrmz.com/yIDN35yaj3apxsNfR9qS?src=irina-itrecruiter"},{"type":"link","offset":1267,"length":60,"data":"https://zfrmz.com/yIDN35yaj3apxsNfR9qS?src=irina-itrecruiter"},{"type":"handle","offset":1338,"length":7,"data":"Aagdan"}],"date":"2020-07-01T05:19:22+00:00","link":"tg://resolve?domain=javascript_jobs_feed&post=16477","tags":[{"name":"javascript"},{"name":"nodejs"},{"name":"reactjs"},{"name":"amazon-web-services"},{"name":"sql"},{"name":"nosql"}],"cities":[{"code":"austin"}],"allowsRemote":true}},{"node":{"__typename":"Job","id":"2263875584-1001134745498","title":"Devops инженер","text":"#вакансия #devops #москва #fulltime\nГород и адрес офиса: Москва, м. Достаевская\nФормат работы: офис, частичная удаленка\nЗанятость: проектная занятость, 3 месяца\nЗарплатная вилка: от 100000 до 150000 - готовы обсуждать\n\nЗадачи:\nУчастие в создании высоконагруженных проектов\nУчастие в проектировании архитектур, серверов\nАвтоматизация процессов разработки\nМониторинг состояния серверов, нагрузок, обновления софта\nОбеспечение бесперебойной работы всей инфраструктуры и серверов\nВнедрять новые подходы и технологии\n\nЭкспертиза:\nОпыт выстраивания процессов CI/CD (GitLab -CI, Bamboo)\nОпыт оркестрации (Kubernetes, Swarm) и контейнеризации (Docker, LXC)\nОпыт работы с облачными сервисами (Yandex, Amazon, etc)\nОтличное знание Linux дистрибутивов (CentOS, Debian).\nУверенное администрирование Nginx, PHP, Varnish, балансировка, тюнинг конфигураций веб-серверов, баз данных и систем очередей.\nУверенное администрирование СУБД MySQL, PostgreSQL, системы NoSQL. Репликация, резервное копирование, резервирование, отказоустойчивость.\nОпыт работы с системами мониторинга Zabbix, Prometheus, Grafana.\n\nКомпания: \nAero\nАутстафф через агентство Farset\n\nКонтакты:\n@lun1n\n\n—\n\n👉 Обсуждение вакансии в чате @devops_jobs","markup":[{"type":"hashtag","offset":0,"length":9,"data":"вакансия"},{"type":"hashtag","offset":10,"length":7,"data":"devops"},{"type":"hashtag","offset":18,"length":7,"data":"москва"},{"type":"hashtag","offset":26,"length":9,"data":"fulltime"},{"type":"handle","offset":1149,"length":6,"data":"lun1n"},{"type":"handle","offset":1190,"length":12,"data":"devops_jobs"}],"date":"2020-06-30T10:56:12+00:00","link":"tg://resolve?domain=devops_jobs_feed&post=2159","tags":[{"name":"gitlab"},{"name":"kubernetes"},{"name":"docker"},{"name":"linux"},{"name":"centos"},{"name":"debian"},{"name":"nginx"},{"name":"php"},{"name":"mysql"},{"name":"postgresql"},{"name":"nosql"}],"cities":[{"code":"moscow"}],"allowsRemote":true}},{"node":{"__typename":"Job","id":"17234395136-1001110946746","title":"Js разработчик","text":"#вакансия\n\nSenior NodeJS Software Engineer\n\nГород и адрес офиса: Москва, м.Китай-Город\nФормат работы: удаленка \nЗанятость: полная \nЗарплата: $ 50 000 - 60 000 в год\n\nМеждународный сервис по подбору стипендиальных программ ищет в свою команду опытного NodeJS разработчика. Главный офис компании находится в Тель-Авиве, куда предусмотрены поездки раз в полгода, команда рассредоточена по миру.\n\nМы предлагаем интересные задачи на высоконагруженных web-проектах, зарплату, привязанную к курсу доллара; возможность профессионального обучения и полноценного участия в жизни IT сообщества (тренинги, конференции) и возможность работать по гибкому графику.\n\n\nТребования: \n- Отличные знания Javascript, Node JS; \n- Будет плюсом опыт работы с Golang; \n- Опыт работы с высокими нагрузками; \n- Хорошее понимание архитектуры и проектирования; \n- Опыт работы с RabbitMQ/Kafka; \n- Опыт работы с NoSQL DB (MongoDB, Redis); \n- Разработка или взаимодействие с REST API; \n- Написание юнит и интеграционных тестов; \n- Понимание цикла CI/CD, поддержка его конфигурации; \n- Отличные коммуникативные навыки и уровень английского не ниже В2.\n\nЧтобы откликнуться, необходимо пройти короткий отбор по ссылке https://6nomads.com/\n\nНазвание компании: 6nomads.com\nКонтакт: @temnik_sofya","markup":[{"type":"hashtag","offset":0,"length":9,"data":"вакансия"},{"type":"link","offset":143,"length":15,"data":"tel:50 000 - 60 000"},{"type":"link","offset":1183,"length":20,"data":"https://6nomads.com/"},{"type":"link","offset":1224,"length":11,"data":"http://6nomads.com"},{"type":"handle","offset":1245,"length":13,"data":"temnik_sofya"}],"date":"2020-06-29T17:50:20+00:00","link":"tg://resolve?domain=javascript_jobs_feed&post=16436","tags":[{"name":"javascript"},{"name":"nodejs"},{"name":"web"},{"name":"go"},{"name":"rabbitmq"},{"name":"kafka"},{"name":"nosql"},{"name":"mongodb"},{"name":"redis"},{"name":"rest"}],"cities":[{"code":"moscow"}],"allowsRemote":true}},{"node":{"__typename":"Job","id":"1764753408-1001091028994","title":"Java разработчик","text":"#вакансия #офис #Java #москва #senior #fulltime\nВакансия: Senior Java-разработчик в Райффайзенбанк\nВилка по ЗП: senior 265-345 gross\nМы ищем старшего Java-разработчика в команду разработки внутренних инструментов для продуктовых команд. Наша цель – быстрая, надежная и эффективная разработка продуктов и для этого нам нужны крутые инструменты и мощная инфраструктура. Если тебе интересно делать работу большого количества инженеров проще и удобней, то мы тебя ждем.\nСтек технологий: Java 11, Spring (Core, Boot, Security, Data), PostgreSQL, React, Docker, Python\nОсновные задачи:\n•  участие в разработке инструментов и инфраструктуры для продуктовых команд;\n•  написание юнит-тестов;\n•  написание документации;\n•  участие в разработке стандартов разработки и проектирования программного обеспечения.\n\nЧто мы ждем от вас:\n\n•  опыт промышленной разработки на Java не менее 3х лет;\n•  опыт применения основных паттернов проектирования;\n•  опыт разработки распределенных систем, микросервисной архитектуры;\n•  опыт работы с SQL/NoSQL-решениями;\n•  знание Maven или Gradle, опыт использования инструментов и практик CI/CD.\n•  опыт написания юнит и интеграционных тестов;\n•  понимание принципов работы по методологии Agile (Scrum, Kanban, etc.).\nПро нас:\n•  у нас очень комфортная культура и отзывчивые люди;\n•  мы вкладываемся в развитие сотрудников: отправляем на курсы, проводим митапы, делимся опытом;\n•  боремся с бюрократией, костюмы не носим.\nА еще:\n•  приятная заработная плата;\n•  1-2 раза в неделю можно работать из дома после карантина (сейчас мы полностью на удаленке);\n•  наш офис находится всего в двух минутах пешком от метро Технопарк;\n•  бесплатный спортзал на первом этаже;\n•  социальный пакет, включая ДМС с первого дня, страхование выезжающих за рубеж и от несчастных случаев;\n•  доплата по больничным, выгодный отпуск в январе и мае, корпоративный пенсионный план;\n•  льготное кредитование, программа корпоративных скидок от множества партнеров.\nКонтакт: @ZamyslovaN","markup":[{"type":"hashtag","offset":0,"length":9,"data":"вакансия"},{"type":"hashtag","offset":10,"length":5,"data":"офис"},{"type":"hashtag","offset":16,"length":5,"data":"Java"},{"type":"hashtag","offset":22,"length":7,"data":"москва"},{"type":"hashtag","offset":30,"length":7,"data":"senior"},{"type":"hashtag","offset":38,"length":9,"data":"fulltime"},{"type":"handle","offset":1970,"length":11,"data":"ZamyslovaN"}],"date":"2020-06-29T12:17:59+00:00","link":"tg://resolve?domain=jvmjobs&post=1683","tags":[{"name":"java"},{"name":"jvm"},{"name":"spring"},{"name":"postgresql"},{"name":"reactjs"},{"name":"docker"},{"name":"python"},{"name":"sql"},{"name":"nosql"},{"name":"maven"},{"name":"gradle"}],"cities":[{"code":"moscow"}],"allowsRemote":false}},{"node":{"__typename":"Job","id":"1763704832-1001091028994","title":"Java разработчик","text":"#Java #developer #Сочи #fulltime #работа #офис \n\nВакансия: Java-разработчик\n\nГород: Сочи\n\nФормат работы: офис\n\nЗанятость: fulltimе\n\nЗарплатная вилка: от 130 000 до 150 000 рублей\n\nОписание вакансии:\nСоздание системы по управлению метаданными компании. Работа в кроссфункциональной команде в составе до 10 человек\n\nНазвание компании: ОЦРВ\n\nПримерный пул задач:\n•  Разработка системы по управлению метаданными\n•  Участие в построение архитектуры решения\n•  Разработка интеграционных сценариев с другими системами\n•  Подготовка инструкций и документации\n\n\nНаши требования к кандидату: \n•  Аналитическое мышление, понимание работы алгоритмов, структур данных и оптимизации работы приложений\n•  Понимание паттернов проектирования, умение писать чистый читаемый код\n•  Знание Java SE (Core, Servlets, Exceptions)\n•  Опыт работы с Spring Framework (Boot, MVC, Data, Security), Hibernate ORM\n•  Опыт работы с веб-сервисами (SOAP, REST)\n•  Опыт работы с микросервисной архитектурой\n•  Опыт работы и развертывания приложений под Linux\n•  Опыт работы с очередями и брокерами сообщений (Kafka, Rabbit, ActiveMQ)\n•  Знание SQL\n•  Опыт работы с инструментами сборки Maven, Gradle\n•  Опыт работы с GIT\n\nБудет плюсом\n•  Опыт написания скриптов автоматизации для CI/CD (bash, python, Java, Groovy)\n•  Опыт работы с базами данных NoSQL (Janus Graph, HBase, Cassandra)\n•  Навыки frontend-разработки (HTML, CSS, React/Vue.js)\n•  Опыт работы с системами BPM или СЭД (Spring Activity, Camunda)\n•  Опыт работы с Apache Atlas, ODPi Egeria\n\n\n\nНаш стек:\nБек: Java 8-11, Spring, PostgreSQL/HBase/MongoDB/JanusGraph, GIT, Docker, Kubernetes, Kafka\nФронт: Vue.js\n\nУсловия: \n•  Офис в Адлере в 10 минутах до моря\n•  Оклад: 130 000 - 150 000 руб. gross\n•  Компенсация проживания 20 000 руб. gross в месяц (для кандидатов из других регионов)\n•  Релокационный бонус в размере оклада (для кандидатов из других регионов)\n•  Премия до 30% годового оклада\n•  Работа в динамичной команде единомышленников\n•  Компенсация ДМС после прохождения испытательного срока\n•  Скидки на ДМС для родственников\n•  Компенсация мобильной связи\n•  Новейшее оборудование и просторный офис\n•  Лучшая экология и климат в России\n•  Море и горнолыжный курорт рядом\n\n\nКомпания: ОЦРВ\nСайт: http://www.ocrv.ru/\nКонтакты: @Mirovan","markup":[{"type":"hashtag","offset":0,"length":5,"data":"Java"},{"type":"hashtag","offset":6,"length":10,"data":"developer"},{"type":"hashtag","offset":17,"length":5,"data":"Сочи"},{"type":"hashtag","offset":23,"length":9,"data":"fulltime"},{"type":"hashtag","offset":33,"length":7,"data":"работа"},{"type":"hashtag","offset":41,"length":5,"data":"офис"},{"type":"link","offset":2229,"length":19,"data":"http://www.ocrv.ru/"},{"type":"handle","offset":2259,"length":8,"data":"Mirovan"}],"date":"2020-06-29T11:37:47+00:00","link":"tg://resolve?domain=jvmjobs&post=1682","tags":[{"name":"java"},{"name":"jvm"},{"name":"spring"},{"name":"hibernate"},{"name":"orm"},{"name":"soap"},{"name":"rest"},{"name":"linux"},{"name":"kafka"},{"name":"rabbitmq"},{"name":"sql"},{"name":"maven"},{"name":"gradle"},{"name":"git"},{"name":"bash"},{"name":"python"},{"name":"groovy"},{"name":"nosql"},{"name":"hbase"},{"name":"cassandra"},{"name":"html"},{"name":"css"},{"name":"reactjs"},{"name":"vuejs"},{"name":"apache"},{"name":"postgresql"},{"name":"mongodb"},{"name":"docker"},{"name":"kubernetes"}],"cities":[{"code":"sochi"}],"allowsRemote":false}},{"node":{"__typename":"Job","id":"1762656256-1001091028994","title":"Java разработчик","text":"#вакансия #java #backend\nКомпания Opendev\nЛокация #москва #мск\nЗП 140-210 гросс\nСобираем продуктовую команду для развития финтех сервисов. Делаем внутрибанковское ПО и веб-сервисы, которыми пользуемся сами и хвастаемся друзьями)\nПриглашаем на проект Java разработчика\n\nСтек\n• Java 8+\n• Spring Framework, Spring boot, Spring Cloud\n• Docker\n• БД - NoSQL\n• микросервисы естестественно 🙂\n\nУсловия\n• Оформление по ТК (белая ЗП и ДМС)\n• Perfomance review\n• Продуктовые Scrum команды\n• Гибкий старт рабочего дня\n\nОбсудить вакансию --- > @xenia_agv\nksenia.ageeva@opendev.com","markup":[{"type":"hashtag","offset":0,"length":9,"data":"вакансия"},{"type":"hashtag","offset":10,"length":5,"data":"java"},{"type":"hashtag","offset":16,"length":8,"data":"backend"},{"type":"hashtag","offset":50,"length":7,"data":"москва"},{"type":"hashtag","offset":58,"length":4,"data":"мск"},{"type":"handle","offset":531,"length":10,"data":"xenia_agv"},{"type":"link","offset":542,"length":25,"data":"mailto:ksenia.ageeva@opendev.com"}],"date":"2020-06-29T11:27:21+00:00","link":"tg://resolve?domain=jvmjobs&post=1681","tags":[{"name":"java"},{"name":"jvm"},{"name":"spring"},{"name":"cloud"},{"name":"docker"},{"name":"nosql"},{"name":"spring-boot"}],"cities":[{"code":"moscow"}],"allowsRemote":false}},{"node":{"__typename":"Job","id":"355467264-1001352129329","title":"Golang разработчик","text":"#вакансия\n\nВакансия: Golang Developer (Middle\\Senior)\n\nСписок необходимых навыков:\n● Опыт промышленной разработки на go от 2х лет\n● Опыт работы с реляционными базами данных (хотя бы с одной из популярных)\n● Опыт работы nosql базами данных (хотя бы одной из: mongodb/redis)\n● Понимание паттернов проектирование и понимание, в каких случаях ими можно\nпренебречь\n● Умение работать в команде: взаимодействие с продактами, тестировщиками и\nдругими разработчиками\n● Понимание 12factor app\n● Понимание процессов разработки и их устройства: code review, CI/CD, цикл жизни\nзадачи\n\nБудет плюсом:\n● Опыт работы с php\n● Опыт работы с kafka\n● Поинмание DDD\n● Понимание принципов масштабирования систем\n● Опыт работы с grpc\n● Понимание принципов event sourcing, cqrs\n\nЗарплатная вилка после налогов в стандартной валюте расчетов компании: 100 000 - 220 000 рублей\n\nДоступна ли удалённая работа: нет\n\nГород: Москва\n\nСписок языков, которые необходимо знать: Русский\n\nНазвание компании: Mafin\n\nДополнительное описание:\n\nНабираем команду разработчиков разного уровня. Работа в проектных группах по 7 человек.\n\n\nО компании: Mafin.ru - это онлайн-платформа персональных страховых сервисов. Insurtech стартап компании \"АбсолютТех\", получивший инвестирование в размере $50 млн\n\nЗадачи:\n● Полный цикл разработки: взаимодействие с продуктами/проджектами, декомпозиция\nфичей, написание кода(go) и тестов\n● Участие в проектировании микросервисной архитектуры\n● Использование helm для описания деплоя сервисов\n● Написание новых и дописывание текущих микросервисов на go\n\nУсловия: \n● НС с первого рабочего дня, ДМС по истечении испытательного срока (3 месяца);\n● Skyeng скидка 50% (в том числе занятия с носителями языка);\n● Новый красивый офис в тренде современных IT компаний с капсулами для сна и уютной кухней;\n● Бесплатное обучение; доступ к онлайн-библиотеке;\n● Огромное количество корпоративных мероприятий\n● Гибкое начало рабочего дня до 11-00\n● Agile, Scrum методология ведения проектов\n● Есть релокационный пакет\n● График работы 5\\2, офис 2 дня в неделю на время ограничительных мер\n\nКонтактное лицо: Илья @rudenko_telegram","markup":[{"type":"hashtag","offset":0,"length":9,"data":"вакансия"},{"type":"link","offset":1105,"length":8,"data":"http://Mafin.ru"},{"type":"handle","offset":2088,"length":17,"data":"rudenko_telegram"}],"date":"2020-06-25T11:42:38+00:00","link":"tg://resolve?domain=gogetajobfeed&post=339","tags":[{"name":"go"},{"name":"nosql"},{"name":"mongodb"},{"name":"redis"},{"name":"php"},{"name":"kafka"}],"cities":[{"code":"moscow"}],"allowsRemote":true}},{"node":{"__typename":"Job","id":"1720713216-1001091028994","title":"Java разработчик","text":"#java #middle #удаленно #fulltime\nJava-разработчик (Spring)\nКомпания: Leroma GmbH\nЛокация: Удаленно\nЗп: 80к net\nКонтакты: @subaryan, alexandr@leroma.de\n\nМы небольшой стартап, и наша команда разрабатывает платформу для электронной коммерции.\n\nЗадачи:\n- Проектирование и реализация сервисов\n- Создание пользовательского интерфейса\n\nКого ищем:\n• Знание основных алгоритмов и шаблонов проектирования ПО;\n• Знание фреймворков Spring Boot, Spring Data, Websocket, веб-стека.\n• Опыт работы c SQL и NoSQL базами данных(MySQL, MongoDB);\n• Опыт работы с инструментами Maven, Git.\n\nСтек:\nJava11, Spring, MongoDB, Git, Self-developed UI framework.\n\nУсловия:\n- Полностью официальная заработная плата (ИП)\n- Есть возможность оплаты в иностранной валюте(евро)\n- Гибкий график работы\n- Удалённая работа по факту выполненных работ, нет учёта часов.","markup":[{"type":"hashtag","offset":0,"length":5,"data":"java"},{"type":"hashtag","offset":6,"length":7,"data":"middle"},{"type":"hashtag","offset":14,"length":9,"data":"удаленно"},{"type":"hashtag","offset":24,"length":9,"data":"fulltime"},{"type":"handle","offset":122,"length":9,"data":"subaryan"},{"type":"link","offset":133,"length":18,"data":"mailto:alexandr@leroma.de"}],"date":"2020-06-22T17:59:39+00:00","link":"tg://resolve?domain=jvmjobs&post=1641","tags":[{"name":"java"},{"name":"jvm"},{"name":"spring"},{"name":"dotnet"},{"name":"websocket"},{"name":"sql"},{"name":"nosql"},{"name":"mysql"},{"name":"mongodb"},{"name":"maven"},{"name":"git"},{"name":"spring-boot"},{"name":"spring-data"}],"cities":[],"allowsRemote":true}},{"node":{"__typename":"Job","id":"2238709760-1001134745498","title":"Devops engineer","text":"#вакансия #devops #удаленка #fulltime #remote \n\nВакансия: DevOps Engineer\nЛокация: Казань\nФормат работы: офис или удаленка\nЗП: от 100к до 170к\n\n🔸Современная IT-компания, работающая на стыке банковской, страховой, инвестиционной и страховой сфер, сейчас находится в поиске DevOps Engineer.\n\nОфисы компании расположены в Казани и Иннополисе, также есть возможность работать удаленно.\n\nКомпания занимается изучением перспективных направлений в области финансовых продуктов и сервисов, и проверяет их на практике.\n\n🔸На текущий момент компания запускает очень крупный проект, задачей которого является трансформация архитектуры бизнеса и переезд всех процессов на новую технологическую платформу.\n\nКомпания может рассматривать лишь граждан РФ.\n\n🔹Требования\n— Опыт работы с ОС Linux;\n— Опыт работы в роли DevOps Engineer не менее 2 лет;\n— Знание скриптовых языков (Bash);\n— CI (Teamcity), CD (Octopus);\n— Опыт работы с системами мониторинга (SCOM \\ Zabbix).\n— Опыт работы с NoSQL СУБД;\n— Веб-серверы и балансировщики нагрузки (Apache/nginx haproxy).\n\n🔹**Контакты:**  \nКА: Lucky hunter\ne-mail: maria@luckyhunter.io\ntelegram: @Maria_Rey\n\n—\n\n👉 Обсуждение вакансии в чате @devops_jobs","markup":[{"type":"hashtag","offset":0,"length":9,"data":"вакансия"},{"type":"hashtag","offset":10,"length":7,"data":"devops"},{"type":"hashtag","offset":18,"length":9,"data":"удаленка"},{"type":"hashtag","offset":28,"length":9,"data":"fulltime"},{"type":"hashtag","offset":38,"length":7,"data":"remote"},{"type":"link","offset":1091,"length":20,"data":"mailto:maria@luckyhunter.io"},{"type":"handle","offset":1122,"length":10,"data":"Maria_Rey"},{"type":"handle","offset":1167,"length":12,"data":"devops_jobs"}],"date":"2020-06-22T11:45:33+00:00","link":"tg://resolve?domain=devops_jobs_feed&post=2135","tags":[{"name":"linux"},{"name":"bash"},{"name":"nosql"},{"name":"apache"},{"name":"nginx"}],"cities":[{"code":"kazan"}],"allowsRemote":true}}]}}},"context":{}}