{"hash":"f34fd2c444a074f4e0e67d525015a008ef8e766f","data":{"records":{"id":"go","name":"go","belongsTo":{"totalCount":49,"pageInfo":{"totalPages":5,"currentPage":3},"edges":[{"node":{"__typename":"Job","id":"231735296-1001352129329","title":"Go разработчик","text":"#вакансия #москва #офис \nГород: Москва (м. Парк Победы)\nЗаработная вилка: от 150000 до 250000 рублей\nГрафик: 5/2, офис, гибкое начало рабочего дня\nЗнание языков: русский язык , английский язык на уровне письменного общения.\nКомпания: ГЕТ ИТ\nМасштабный высоконагруженный проект. За подробностями в лс 😊\n\nОбязанности:\n🔸проектирование архитектуры серверной части; \n🔸разработка микросервисов на языке Go,\n🔸code review.\n\nТребования:\n🔹опыт работы с Go не менее 2 лет,\n🔹знание и понимание классических алгоритмов и структур данных,\n🔹знание и опыт использования шаблонов проектирования,\n🔹опыт многопоточного программирования,\n🔹опыт разработки высокопроизводительных серверов или веб-приложений,\n🔹опыт работы с базами данных,\n🔹умение работать в команде.\n\n🖊Контакты: @yanagetit","markup":[{"type":"hashtag","offset":0,"length":9,"data":"вакансия"},{"type":"hashtag","offset":10,"length":7,"data":"москва"},{"type":"hashtag","offset":18,"length":5,"data":"офис"},{"type":"handle","offset":769,"length":10,"data":"yanagetit"}],"date":"2020-02-12T13:06:55+00:00","link":"tg://resolve?domain=gogetajobfeed&post=221","tags":[{"name":"go"}],"cities":[{"code":"moscow"}],"allowsRemote":false}},{"node":{"__typename":"Job","id":"229638144-1001352129329","title":"Go разработчик","text":"#вакансия #Москва #fulltime \n\nКомпания: Марксман\nЗарплатные вилка: от 140.000 до 230.000 на руки\nГород: Москва\nРабота в офисе \n\nУровень позиции: несколько вакансий от Junior до уверенного Senior. Для Junior Go-разработчиков важен бэкграунд в любом из перечисленных языков (Java, JS, Python, PHP, C++ и т.д) - готовы помогать с обучением!\n\nКоманда занимается разработкой собственного продукта (B2B и B2G) - облачного инфраструктурного решения. \n\nЗадачи: Проектирование архитектуры, разработка микросервисов на языке Go, code review. Мы активно работаем над созданием условий для развития программной экосистемы. Совершенствуется набор средств разработки (SDK) и интерфейс прикладного программирования (API). \n\nТребования: знание и опыт использования шаблонов проектирования, опыт многопоточного программирования, опыт разработки высокопроизводительных серверов или веб-приложений, опыт работы с базами данных, умение разбираться в чужом коде. Желательно - участие в Open Source проектах.  \n\nЗа деталями в личку - @very_ann\n Автор @very_ann","markup":[{"type":"hashtag","offset":0,"length":9,"data":"вакансия"},{"type":"hashtag","offset":10,"length":7,"data":"Москва"},{"type":"hashtag","offset":18,"length":9,"data":"fulltime"},{"type":"handle","offset":1012,"length":9,"data":"very_ann"},{"type":"handle","offset":1029,"length":9,"data":"very_ann"}],"date":"2020-02-11T09:14:30+00:00","link":"tg://resolve?domain=gogetajobfeed&post=219","tags":[{"name":"go"},{"name":"java"},{"name":"python"},{"name":"php"}],"cities":[{"code":"moscow"}],"allowsRemote":false}},{"node":{"__typename":"Job","id":"228589568-1001352129329","title":"Golang разработчик","text":"#вакансия #Москва #офис #Golang #fulltime\nГород и адрес офиса: Москва, м. Новокузнецкая/Павелецкая\nФормат работы: #офис\nЗанятость: #полная\nЗП: от 80к до 140к руб. нетт\n\nSports.ru – ведущий спортивный сайт в России. Мы строим сообщества людей, увлекающихся разными видами спорта, помогаем им развиваться и даем им площадку для общения.\nМы ищем к себе в команду backend-разработчика (golang), который будет разрабатывать новые решения и сервисы и сопровождать полный цикл жизни продукта от проработки архитектуры до деплоя и сопровождения продакшена.\n\nЧто предстоит делать:\n\n* Разрабатывать новые решения и сервисы для пользователей с наибольшим объемом данных.\n* Работать над CI/CD, инструментами деплоя, инфраструктурой: gitlab, docker, Kubernetes, nginx.\n* Работать с такими инструментами, как Jira, git.\n* Сопровождать полный цикл жизни продукта от проработки архитектуры до деплоя и сопровождения продакшена.\n\nЧто мы хотим от вас:\n\n* Опыт разработки на Go ~ от 1 года.\n* Понимание того, как работает HTTP.\n* Уверенные навыки работы с SQL.\n* Понимание микросервисной архитектуры.\n* Знание основных алгоритмов, структур данных и способов защиты информации.\nУ нас: \n* Просторный офис в 7-ми минутах ходьбы от м.Новокузнецкая/Павелецкая.\n* Всё, что вы любите в ИТ-индустрии: высокая белая зарплата, оплачиваемые отпуска и больничные, ДМС со стоматологией, кофе, фрукты и шоколадки.\n* Мы работаем по индивидуальному графику, иногда позволяя себе поработать и удаленно. \n* Мы играем в кикер, с удовольствием едим пряники, печеньки, фрукты и пьем вкусный кофе в офисе.\n* Мы играем в футбол и баскетбол на арендованных площадках, смотрим знаковые матчи на большом проекторе и вообще любим различные внутрикорпоративные активности.\n\nНазвание компании: Sports.ru (Tribuna Digital)\nКого заинтересовало, пишите мне в личку (@pbuyatova), рада буду поделиться подробностями🙂\n Автор @pbuyatova","markup":[{"type":"hashtag","offset":0,"length":9,"data":"вакансия"},{"type":"hashtag","offset":10,"length":7,"data":"Москва"},{"type":"hashtag","offset":18,"length":5,"data":"офис"},{"type":"hashtag","offset":24,"length":7,"data":"Golang"},{"type":"hashtag","offset":32,"length":9,"data":"fulltime"},{"type":"hashtag","offset":114,"length":5,"data":"офис"},{"type":"hashtag","offset":131,"length":7,"data":"полная"},{"type":"link","offset":169,"length":9,"data":"http://Sports.ru"},{"type":"link","offset":1746,"length":9,"data":"http://Sports.ru"},{"type":"handle","offset":1815,"length":10,"data":"pbuyatova"},{"type":"handle","offset":1872,"length":10,"data":"pbuyatova"}],"date":"2020-02-11T09:14:17+00:00","link":"tg://resolve?domain=gogetajobfeed&post=218","tags":[{"name":"go"},{"name":"gitlab"},{"name":"docker"},{"name":"kubernetes"},{"name":"nginx"},{"name":"git"},{"name":"sql"}],"cities":[{"code":"moscow"}],"allowsRemote":true}},{"node":{"__typename":"Job","id":"227540992-1001352129329","title":"Golang разработчик","text":"#вакансия\nНеобходимые навыки: \n ⁃ опыт коммерческой разработки от 3-х лет;\n ⁃ опыт проектирования архитектуры приложений;\n ⁃ опыт организации работы в команде.\nНеобходимые технологии:\n ⁃ Golang with dep. Cobra + Viper;\n ⁃ RESTful API;\n ⁃ Go test;\n ⁃ MongoDB, SQL;\n ⁃ Git/Gitlab Flow;\n ⁃ Уверенная работа в Linux-консоли;\n ⁃ Docker, docker-compose.\nЗарплатная вилка (на руки): 180 тр - 220 тр (по результатам общения)\nРабота только в офисе с 9 до 18 (м. Парк Победы)\nГород: Москва\nЯзыки: русский, английский (для работы)\nНазвание компании: ООО «Спора» (разработка собственной интеллектуальной системы для медицинских организаций)\nКонтактное лицо: Марина \nm.n.katsenya@nefrosovet.ru\n@m_katsenya\n Автор @m_katsenya","markup":[{"type":"hashtag","offset":0,"length":9,"data":"вакансия"},{"type":"link","offset":654,"length":26,"data":"mailto:m.n.katsenya@nefrosovet.ru"},{"type":"handle","offset":681,"length":11,"data":"m_katsenya"},{"type":"handle","offset":700,"length":11,"data":"m_katsenya"}],"date":"2020-02-11T07:20:55+00:00","link":"tg://resolve?domain=gogetajobfeed&post=217","tags":[{"name":"go"},{"name":"mongodb"},{"name":"sql"},{"name":"git"},{"name":"gitlab"},{"name":"linux"},{"name":"docker"},{"name":"docker-compose"}],"cities":[{"code":"moscow"}],"allowsRemote":false}},{"node":{"__typename":"Job","id":"226492416-1001352129329","title":"Golang разработчик","text":"#вакансия #Москва #fulltime\nКомпания: Фонд новых форм развития образования\nЗП: от 130 до 180 в руки\nГород: Москва\nПривет! Мы - молодая команда разработчиков Фонда новых форм развития образования. Сейчас мы занимаемся разработкой и курированием информационных систем национального проекта \"Образование\" и активно развиваемся, поэтому нам срочно нужен Golang разработчик (Junior / Middle), который готов принять участие в реализации образовательных проектов федерального уровня. У нас Вы сможете поработать над совершенно разными проектами, реализовать свои идеи, попробовать новые и самые современные подходы к разработке в действии, в том числе и при создании новых проектов.\n\nМы ожидаем, что Вы:\n- Знаете основы Git\n- Имеете опыт разработки на Go\n- Понимаете принципы луковичной архитектуры (clean architecture, onion architecture)\n- Unix shell\n- Имеете опыт работы с Docker (написание Dockerfile, docker-compose.yml)\n- Имеете базовое понимание гибких методологий разработки\n- Умеете писать тесты\n- Имеете опыт выявления и оптимизации тяжеловесных SQL-запросов\n- Знакомы с базовым пониманием ACID и MVCC\n- Понимаете транзакционную модель\n- Имеете высшее образование\n\nЧто предлагаем мы:\n- Оформление в соответствие с ТК РФ\n- Интересные задачи, опыт работы с лучшими современными практиками\n- Отсутствие легаси\n- Кофе и печеньки в офисе\n- PlayStation 4 🙂\n- Премирование по результатам работы\n- Молодой, амбициозный и очень дружный коллектив\n- Место работы: ст.м. Цветной Бульвар, в шаговой доступности от метро\n\nПодробнее о вакансии тут: https://career.habr.com/vacancies/1000056457\nЗа деталями можно в личку ( @privetDmitry ) или откликнуться на вакансию в Хабре 🙂\n Автор @privetDmitry","markup":[{"type":"hashtag","offset":0,"length":9,"data":"вакансия"},{"type":"hashtag","offset":10,"length":7,"data":"Москва"},{"type":"hashtag","offset":18,"length":9,"data":"fulltime"},{"type":"link","offset":1538,"length":44,"data":"https://career.habr.com/vacancies/1000056457"},{"type":"handle","offset":1611,"length":13,"data":"privetDmitry"},{"type":"handle","offset":1674,"length":13,"data":"privetDmitry"}],"date":"2020-02-10T11:22:26+00:00","link":"tg://resolve?domain=gogetajobfeed&post=216","tags":[{"name":"go"},{"name":"git"},{"name":"unix"},{"name":"shell"},{"name":"docker"},{"name":"sql"},{"name":"docker-compose"}],"cities":[{"code":"moscow"}],"allowsRemote":false}},{"node":{"__typename":"Job","id":"225443840-1001352129329","title":"Golang разработчик","text":"#вакансия #офис #москва\n#job #fulltime #office #moscow\n#Go #Golang\n\nВ команду разработки IAM (Identity and Access Management) облака Mail.ru Cloud Solutions ищу сильного разработчика. Мы разрабатываем распределенную высокопроизводиетльную систему, позволяющую обрабатывать сотни тысяч авторизационных запросов в секунду и объединяющую все сервисы облака Mail.ru\n\n\nКомпания: Mail.ru\nЗ/П: оклад 150к - 250к руб. после налогов в месяц + ежегодные премии\nРасположение: Москва, станция метро Аэропорт\nФормат работы: офис, фулл-тайм\n\nСтэк:  \n- Go, Lua, Tarantool\n\nТребования:\n- опыт работы не менее 3-х лет в высоконагруженных проектах на любом языке высокого уровня (Perl, Python, Java, C/C++, etc)\n- опыт разработки на Go не менее 2-х лет \n- алгоритмы, оценка сложности, структуры данных\n\nБудет плюсом:\n- опыт разработки и/или внедрения систем федеративного доступа на базе SAML, OAuth, OpenID\n- понимание систем управления каталогами LDAP и Active Directory\n\nКонтакты:\n@mkebich\n Автор @mkebich","markup":[{"type":"hashtag","offset":0,"length":9,"data":"вакансия"},{"type":"hashtag","offset":10,"length":5,"data":"офис"},{"type":"hashtag","offset":16,"length":7,"data":"москва"},{"type":"hashtag","offset":24,"length":4,"data":"job"},{"type":"hashtag","offset":29,"length":9,"data":"fulltime"},{"type":"hashtag","offset":39,"length":7,"data":"office"},{"type":"hashtag","offset":47,"length":7,"data":"moscow"},{"type":"hashtag","offset":55,"length":3,"data":"Go"},{"type":"hashtag","offset":59,"length":7,"data":"Golang"},{"type":"link","offset":133,"length":7,"data":"http://Mail.ru"},{"type":"link","offset":354,"length":7,"data":"http://Mail.ru"},{"type":"link","offset":374,"length":7,"data":"http://Mail.ru"},{"type":"handle","offset":966,"length":8,"data":"mkebich"},{"type":"handle","offset":982,"length":8,"data":"mkebich"}],"date":"2020-02-10T11:22:24+00:00","link":"tg://resolve?domain=gogetajobfeed&post=215","tags":[{"name":"go"},{"name":"ms-access"},{"name":"cloud"},{"name":"lua"},{"name":"perl"},{"name":"python"},{"name":"java"},{"name":"oauth"},{"name":"ldap"},{"name":"active-directory"}],"cities":[{"code":"moscow"}],"allowsRemote":false}},{"node":{"__typename":"Job","id":"224395264-1001352129329","title":"Golang разработчик","text":"#вакансия #office #golang #fulltime \nВакансия: Golang разработчик\nФормат работы: fulltime, офис\nМесто работы: Москва, м. Сухаревская, Проспект мира 3с3 (100 метров от метро)\nЗП: от 180 000 до 200 000 net.\n\nЧто мы ждём от вас\nопыт работы с GoLang\nопыт работы с MongoDB\nумеете пользоваться Git\n\nВ проекте мы используем Docker, RabbitMQ, Redis, ElasticSearch - будет плюсом, если вы имели опыт работы с чем-то из этого списка. Если нет - приходите и мы научим\n\nЧто у нас есть\nминимум формальностей и множество возможностей проявить себя, стать лидером команды\nпогружение в изучение и использование различных практик и инструментов современной разработки\nполностью «белая» зарплата\nгибкий график работы\n\nСтек\n- Golang, NodeJS, Redis, RabbitMQ, ElasticSearch, MongoDB, ClickHouse\n- для ведения задач и хранения кода мы используем GitLab\n- используем практики CI & CD - наши проекты автоматически разворачиваются на серверах, а некоторые из них «гоняются» автотестами\n- Docker в наших сердцах - все продакшны работают на Docker внутри Kubernetes\n- вся инфраструктура находится внутри AWS\n- собираем метрики и организуем мониторинг наших проектов с помощью CloudWatch\n\nКомпания: Фармспейс\nСайт: https://pharmaspace.ru\nПродукт: маркетплейс фармакологической тематики.\n\nКонтакты @irarudakova\n Автор @irarudakova","markup":[{"type":"hashtag","offset":0,"length":9,"data":"вакансия"},{"type":"hashtag","offset":10,"length":7,"data":"office"},{"type":"hashtag","offset":18,"length":7,"data":"golang"},{"type":"hashtag","offset":26,"length":9,"data":"fulltime"},{"type":"link","offset":1188,"length":22,"data":"https://pharmaspace.ru"},{"type":"handle","offset":1270,"length":12,"data":"irarudakova"},{"type":"handle","offset":1290,"length":12,"data":"irarudakova"}],"date":"2020-02-10T08:23:12+00:00","link":"tg://resolve?domain=gogetajobfeed&post=214","tags":[{"name":"go"},{"name":"dotnet"},{"name":"mongodb"},{"name":"git"},{"name":"docker"},{"name":"rabbitmq"},{"name":"redis"},{"name":"elasticsearch"},{"name":"nodejs"},{"name":"gitlab"},{"name":"kubernetes"},{"name":"amazon-web-services"}],"cities":[{"code":"moscow"}],"allowsRemote":false}},{"node":{"__typename":"Job","id":"223346688-1001352129329","title":"Golang разработчик","text":"#вакансия #fulltime #Москва #goland\n\nВакансия: Go dev (Middle)\nГород: Москва\nЗанятость: полная \nЗП: 200-230К net\nНазвание компании: BI.ZONE (https://bi.zone/)\n\nКто мы: \nBI.ZONE — активно растущая команда единомышленников, которая исследует, разрабатывает и поддерживает решения для защиты от киберпреступников. \nМы создаем инновационные продукты для анализа угроз и активной защиты от мошенничества, автоматизируем и масштабируем экспертизу наших сервисных подразделений и разрабатываем инструменты для внутреннего использования.\nЕсли тебя привлекают сложные задачи и вызовы, ты по своей сути экспериментатор и горишь идеями, приглашаем присоединиться к нашей команде.\n\nЧто мы можем предложить: \n- Современный офис в центре Москвы,10 минут от метро\n- Комфортные рабочие места, техника Mac или Windows на выбор, отсутствие дресс-кода\n- Игровые комнаты для отдыха после решения важных задач, «капсулы сна»\n- Кухня на каждом этаже и много приятных плюшек\n- Реализация собственных идей\n- Достойная и своевременная оплата труда\n- Минимум бюрократии и должностной иерархии\n- Сложные задачи, прокачивающие уникальные скиллы;\n- Профессиональный коллектив, сплошь состоящий из асов разработки сложных систем в области практической ИБ;\n- Оплачиваем обучение, посещение конференций и сертификацию;\n- Свободный график;\n- ДМС и скидки на фитнес;\n\nЧем конкретно придется заниматься\n- Погрузиться в предметную область, процессы информационной безопасности и непрерывного R&D;\n- Участвовать в проработке архитектурных решений;\n- Создавать качественный код (тесты, паттерны, производительность, кроссплатформенность);\n- Работать в команде профессионалов;\n- Разрабатывать востребованные продукты;\n\nО проектах:\n- Основной проект: распределенная модульная клиент-серверная система;\n- Сложные сетевые взаимодействия;\n- Высокие требования к безопасности;\n- Производительные алгоритмы;\n- Разнообразные host-устройства;\n- Дополнительно: помощь коллегам (экспертам в практической ИБ) с инструментами;\n- console tools;\n- small services;\n\nНаши ожидания: \n- Опыт активной разработки на Go (Golang) от 1 года;\n- Хорошее знание сетевых протоколов;\n- Опыт работы с SQL/NoSQL;\n- Знание Git, понимание методологии Git Flow;\n- Понимание Agile методик (Scrum, Kanban) и принципов, лежащих в их основе;\n- Ответственность и достаточная самостоятельность;\n\nКонтакты: @Kate_Guseva\n Автор @Kate_Guseva","markup":[{"type":"hashtag","offset":0,"length":9,"data":"вакансия"},{"type":"hashtag","offset":10,"length":9,"data":"fulltime"},{"type":"hashtag","offset":20,"length":7,"data":"Москва"},{"type":"hashtag","offset":28,"length":7,"data":"goland"},{"type":"link","offset":132,"length":7,"data":"http://BI.ZONE"},{"type":"link","offset":141,"length":16,"data":"https://bi.zone/"},{"type":"link","offset":169,"length":7,"data":"http://BI.ZONE"},{"type":"handle","offset":2329,"length":12,"data":"Kate_Guseva"},{"type":"handle","offset":2349,"length":12,"data":"Kate_Guseva"}],"date":"2020-02-08T19:06:19+00:00","link":"tg://resolve?domain=gogetajobfeed&post=213","tags":[{"name":"go"},{"name":"dotnet"},{"name":"windows"},{"name":"sql"},{"name":"nosql"},{"name":"git"}],"cities":[{"code":"moscow"}],"allowsRemote":false}},{"node":{"__typename":"Job","id":"221249536-1001352129329","title":"Golang developer","text":"#вакансия Golang developer\n#вакансия #работа #кипр #cyprus #fulltime #relocate #релокация #golang #developer #\n\nКомпания: TrafficStars\nГород: Лимасcол, Кипр\nФормат работы: офис\nЗанятость: полная\nЗарплатная вилка: от 2500 до 3500 евро на руки\nЯзыки: русский, английский на уровне свободного чтения технической документации, митинги на русском\n\nОбязанности: Разработка серверной части высоконагруженной рекламной сети на Golang.\n\nТребования:\n  Опыт веб-разработки не менее 3 лет;\n  Знание паттернов программирования MVC, ООП;\n  Отличное знание Go;\n  Отличное знание сетевых протоколов;\n  Опыт работы с реляционными базами данных, хорошее знание SQL;\n  Опыт работы с NoSQL;\n  Опыт командной работы (трекеры, знание Git, понимание Git Flow);\n  Умение разбираться в чужом коде.\n  \nМы приветствуем:\n  Знание языков C/C++, Python, Java, Erlang, NodeJs;\n  Опыт работы с высокими нагрузками;\n  Любовь к деталям и желание делать хорошо свою работу, а не так чтобы “просто работало“;\n  Умение отстаивать свою позицию, при этом прислушиваться к другим мнениям и сообща находить компромисс;\n  Желание развиваться и постигать новое;\n  Ориентацию на результат.\n  \nЧто у нас есть интересного кроме задач:\n  Современный новый офис в центре Лимассола;\n  Отсутствие дресс-кода и бюрократии;\n  Молодая нескучная команда с горящими глазами;\n  Профессиональное развитие в быстрорастущем проекте;\n  Медицинская страховка и мобильная связь;\n  Бесплатные вкусные обеды;\n  Уроки и практика английского в офисе;\n  Билет до Кипра за счёт компании, помощь с переездом семьи;\n  Первое время помогаем с жильем и транспортом.\n\nКонтакты: +35795588440\ntelegram: sofia_tomashevich\ne-mail: sofia@trafficstars.com\n Автор @sofia_tomashevich","markup":[{"type":"hashtag","offset":0,"length":9,"data":"вакансия"},{"type":"hashtag","offset":27,"length":9,"data":"вакансия"},{"type":"hashtag","offset":37,"length":7,"data":"работа"},{"type":"hashtag","offset":45,"length":5,"data":"кипр"},{"type":"hashtag","offset":51,"length":7,"data":"cyprus"},{"type":"hashtag","offset":59,"length":9,"data":"fulltime"},{"type":"hashtag","offset":69,"length":9,"data":"relocate"},{"type":"hashtag","offset":79,"length":10,"data":"релокация"},{"type":"hashtag","offset":90,"length":7,"data":"golang"},{"type":"hashtag","offset":98,"length":10,"data":"developer"},{"type":"link","offset":1605,"length":12,"data":"tel:+35795588440"},{"type":"link","offset":1654,"length":22,"data":"mailto:sofia@trafficstars.com"},{"type":"handle","offset":1684,"length":18,"data":"sofia_tomashevich"}],"date":"2020-02-05T15:30:18+00:00","link":"tg://resolve?domain=gogetajobfeed&post=211","tags":[{"name":"go"},{"name":"sql"},{"name":"nosql"},{"name":"git"},{"name":"python"},{"name":"java"},{"name":"erlang"},{"name":"nodejs"}],"cities":[{"code":"sofia"}],"allowsRemote":false}},{"node":{"__typename":"Job","id":"219152384-1001352129329","title":"Golang разработчик","text":"#вакансия#golang#backend#MТС#Москва\n\nКомпания МТС ИТ в поисках Golang разработчика.\n📍Проект МТС-Торги: торговая онлайн площадка для В2В и В2С клиентов.\nВ команда уже есть 2 Golang разработчика. Работа по Agile.\n🗓Форма работы: full time, офис, гибкое начало рабочего дня\n🗺Локация: г. Москва, м. Смоленская.\n💵ЗП: до 150000 на руки.\n\n❗️необходимый опыт: от 1 года;\n\n🍩мы предлагаем:\n- премии;\n- ДМС со стоматологией\n- возможность гибкого начала рабочего дня и иногда по договорённости работаем из дома;\n- можно проходить тренинги в Корпоративном университете. У МТС есть собственная виртуальная библиотека с огромным количеством книг;\n- компенсация фитнес-абонемента, полно. \n- 3 дополнительных дня к отпуску\n\n🙋🏽‍♀️Пишите мне\n@Di_Siraze \nWhatsApp +79151454739\ndnsiraze@mts.ru\n Автор @Di_Siraze","markup":[{"type":"handle","offset":729,"length":10,"data":"Di_Siraze"},{"type":"link","offset":750,"length":12,"data":"tel:+79151454739"},{"type":"link","offset":763,"length":15,"data":"mailto:dnsiraze@mts.ru"},{"type":"handle","offset":786,"length":10,"data":"Di_Siraze"}],"date":"2020-02-05T12:14:05+00:00","link":"tg://resolve?domain=gogetajobfeed&post=209","tags":[{"name":"go"}],"cities":[{"code":"moscow"}],"allowsRemote":false}}]}}},"context":{}}