{"hash":"f5f6bf98bd95e769321482904cbbd488f77922fd","data":{"records":{"id":"ruby","name":"ruby","belongsTo":{"totalCount":18,"pageInfo":{"totalPages":2,"currentPage":1},"edges":[{"node":{"__typename":"Job","id":"104329117696-1001089317451","title":"Qa engineer","text":"#вакансия #QA #фуллстек #ФТ #АТ #удаленка \n\nВакансия: QA Engineer (АФТ на Java/Ruby/C#)\nГород: Москва или удаленка из городов РФ, стандартный график с Москвой\nЗарплата: от 140 000 рублей до 240 000 рублей на руки \nФормат: полный день, полная занятость\nКомпания Innovative People \n\n➡ Требования:\n• От 2х лет опыта тестирования веб- или мобильных приложений\n• Практический опыт применения практик тест-дизайна\n• Рабочие знания клиент-серверной архитектуры\n• Знание Java/Ruby/C#, опыт автоматизации от 1 года\n• Уверенный опыт разработки авто-тестов, работы с инструментами автоматизации\nДля удаленки нужен релевантный опыт удаленной работы.\n\n➡ Обязанности:\n• Автоматизированное тестирование (Selenium/Selenide+Cucumber)\n• Функциональное, интеграционное, регрессионное и приемочное тестирование\n\n➡ Предлагаем:\n• все по ТК РФ, белое и официальное\n• ДМС со стоматологией, программа лояльности\n• адекватное руководство\n• большое комьюнити, классные команды, карьерный рост\n• помогаем с релокацией в Москву/Питер/Екатеринбург (50 000 рублей)\nили есть возможность работы удаленно\n\nРезюме и вопросы @Priboch","markup":[{"type":"hashtag","offset":0,"length":9,"data":"вакансия"},{"type":"hashtag","offset":10,"length":3,"data":"QA"},{"type":"hashtag","offset":14,"length":9,"data":"фуллстек"},{"type":"hashtag","offset":24,"length":3,"data":"ФТ"},{"type":"hashtag","offset":28,"length":3,"data":"АТ"},{"type":"hashtag","offset":32,"length":9,"data":"удаленка"},{"type":"handle","offset":1089,"length":8,"data":"Priboch"}],"date":"2020-07-03T08:33:25+00:00","link":"tg://resolve?domain=qa_jobs&post=99496","tags":[{"name":"qa"},{"name":"java"},{"name":"ruby"},{"name":"selenium"},{"name":"cucumber"}],"cities":[{"code":"moscow"}],"allowsRemote":true}},{"node":{"__typename":"Job","id":"2278555648-1001134745498","title":"Devops инженер","text":"#вакансия #devops #docker #kubernetes\nВакансия: Devops\nГород: Москва, м. Марьина Роща\nФормат работы: офис\nЗанятость: полная\nЗарплатная вилка: от 150 до 200к\n\nTalentTech — это IT-холдинг, быстрорастущий стартап. \nТебе предстоит присоединиться к команде разработки EdTech продуктов, которая будет выводить Foxford.ru в общеобразовательные школы, и помогать детям учиться и развиваться.\n\nЧем тебе предстоит заниматься:\n🔸поддержание текущей серверной инфраструктуры\n🔸настройка и деплой web-приложений\n🔸автоматизация настройки и управления серверами\n🔸мониторинг серверов и приложений\n\nЧто мы ждем от тебя:\n🔹опыт администрирования Linux (Ubuntu)\n🔹опыт написания скриптов на bash\n🔹опыт администрирования open source приложений (веб-серверы, базы данных, и т.д.)\n🔹опыт работы с реляционными базами данных (обновление, восстановление данных)\n🔹умение составлять и вести документацию\n\nПлюсом будет:\n▪️знание скриптовых языков (shell, python или ruby)\n▪️опыт установки, настройки, мониторинга основных сетевых сервисов (почта, DNS, NAT, firewall, VPN)\n▪️опыт настройки окружения и деплоя rails-приложений (capistrano, nginx+unicorn)\n▪️опыт работы с Docker и Kubernetes\n▪️навыки в сфере автоматизации процессов настройки и управления серверами (puppet, ansible, chef)\n\nЧто предлагаем?\n🟣ДМС, комфортный рабочий график, бонусы от компании\n\nНазвание компании: TalentTech \n\nКонтакты: @yulianka_95\n\n—\n\n👉 Обсуждение вакансии в чате @devops_jobs","markup":[{"type":"hashtag","offset":0,"length":9,"data":"вакансия"},{"type":"hashtag","offset":10,"length":7,"data":"devops"},{"type":"hashtag","offset":18,"length":7,"data":"docker"},{"type":"hashtag","offset":26,"length":11,"data":"kubernetes"},{"type":"link","offset":304,"length":10,"data":"http://Foxford.ru"},{"type":"handle","offset":1377,"length":12,"data":"yulianka_95"},{"type":"handle","offset":1424,"length":12,"data":"devops_jobs"}],"date":"2020-07-02T18:12:38+00:00","link":"tg://resolve?domain=devops_jobs_feed&post=2173","tags":[{"name":"docker"},{"name":"kubernetes"},{"name":"web"},{"name":"linux"},{"name":"ubuntu"},{"name":"bash"},{"name":"shell"},{"name":"python"},{"name":"ruby"},{"name":"dns"},{"name":"ruby-on-rails"},{"name":"nginx"},{"name":"ansible"}],"cities":[{"code":"moscow"}],"allowsRemote":false}},{"node":{"__typename":"Job","id":"72479670272-1001054966032","title":"Android developer","text":"#вакансия #fulltime  #vacancy  #remote #ремоут  #IOSdeveloper #IOS #Ruby #Rubyonrails\n\n💻 Ruby on Rails + IOS (Swift) Developer\n🕐 Fulltime remote\n👩🏻‍💻2 year of commercial development on IOS\n💰from 10 $/hour to 17 $/hour\n\nВсем привет!🙋🏻‍♀️\nAMS ищет Ruby on Rails + IOS (Swift) dev на ремоут. Мы занимаемся разработкой мобильных приложений под Android и IOS.\n\nУсловия:\n-проектная занятость;\n-краткосрочный проект;\n-фуллтайм.\n\nТребования :\n-коммерческий опыт разработки по данному стеку от 2 лет+;\n-разговорный английский B2+.\n\n📝 За подробностями по вакансии и по всем вопросам  пишите:\ndarya.matsyas@ams-apps.com\nDarya \nLinkedIn","markup":[{"type":"hashtag","offset":0,"length":9,"data":"вакансия"},{"type":"hashtag","offset":10,"length":9,"data":"fulltime"},{"type":"hashtag","offset":21,"length":8,"data":"vacancy"},{"type":"hashtag","offset":31,"length":7,"data":"remote"},{"type":"hashtag","offset":39,"length":7,"data":"ремоут"},{"type":"hashtag","offset":48,"length":13,"data":"IOSdeveloper"},{"type":"hashtag","offset":62,"length":4,"data":"IOS"},{"type":"hashtag","offset":67,"length":5,"data":"Ruby"},{"type":"hashtag","offset":73,"length":12,"data":"Rubyonrails"},{"type":"link","offset":531,"length":2,"data":"http://darya.matsyas@ams-apps.com/"},{"type":"link","offset":591,"length":27,"data":"http://darya.matsyas@ams-apps.com/"},{"type":"link","offset":625,"length":8,"data":"https://www.linkedin.com/in/darya-matyas-12ba33158/"}],"date":"2020-07-01T19:03:14+00:00","link":"tg://resolve?domain=mobile_jobs&post=69122","tags":[{"name":"mobile"},{"name":"android"},{"name":"ios"},{"name":"ruby"},{"name":"ruby-on-rails"},{"name":"swift"}],"cities":[],"allowsRemote":true}},{"node":{"__typename":"Job","id":"2267021312-1001134745498","title":"Devops инженер","text":"#вакансия #devops #удаленка\n\nНазвание компании: ZenCar\nГород и адрес офиса: г. Иннополис, ул.Университетская 7.\nФормат работы:  удалёнка, можно офис (обсуждаемо)\nЗанятость: частичная. около 4х ч/день.\nЗарплатная вилка: от 70 до 100 gross (обсуждаемо)\n\nНеобходим человек на сопровождение и поддержание проекта, который уже вышел в продакшн. \n\nОпыт работы на аналогичной позиции от 3х лет.\n\nЗадачи:\n- Автоматизация технологических процессов разработки, тестирования и развертывания ПО.\n- Мониторинг и контроль процессов\n- Разработка совместно с руководителем архитектуры и дизайна систем автоматизации\n- Контроль качества систем автоматизации\n\nТребования:\n\n- Иметь опыт проектирования и разработки инструментов автоматизации\n- Иметь опыт написания тестовых сценариев и автоматизированных тестов\n- Знать и уметь использовать Ansible, Chef, Docker, Docker Compose, Jenkins, Gitlab, Kubernetes, Jira и др. инструменты\n- Знать и иметь опыт с как минимум одним из ЯП: Node.js, Ruby, JavaScript, Golang, Java и др.\n- Опыт автоматизации развертывания и тестирования различных проектов, настройки CI/CD\n- Опыт развертывания и настройки различных программных систем мониторинга\n\n📩Откликаться: \nэл.п.: anna@sayhire.agency \nтелеграм: @anika0801\nКадровое агенство: sayhire.agency.\n\n—\n\n👉 Обсуждение вакансии в чате @devops_jobs","markup":[{"type":"hashtag","offset":0,"length":9,"data":"вакансия"},{"type":"hashtag","offset":10,"length":7,"data":"devops"},{"type":"hashtag","offset":18,"length":9,"data":"удаленка"},{"type":"link","offset":1191,"length":19,"data":"mailto:anna@sayhire.agency"},{"type":"handle","offset":1222,"length":10,"data":"anika0801"},{"type":"link","offset":1252,"length":14,"data":"http://sayhire.agency"},{"type":"handle","offset":1302,"length":12,"data":"devops_jobs"}],"date":"2020-06-30T12:01:52+00:00","link":"tg://resolve?domain=devops_jobs_feed&post=2162","tags":[{"name":"ansible"},{"name":"docker"},{"name":"jenkins"},{"name":"gitlab"},{"name":"kubernetes"},{"name":"nodejs"},{"name":"ruby"},{"name":"javascript"},{"name":"go"},{"name":"java"},{"name":"docker-compose"}],"cities":[],"allowsRemote":true}},{"node":{"__typename":"Job","id":"103778615296-1001089317451","title":"Qa engineer","text":"#вакансия #QA #фуллстек #ФТ #АТ #удаленка \n\nВакансия: QA Engineer (АФТ на Java/Ruby/C#)\nГород: Москва или удаленка из городов РФ, стандартный график с Москвой\nЗарплата: от 130 000 рублей до 210 000 рублей на руки \nФормат: полный день, полная занятость\nКомпания Innovative People \n\n➡ Требования:\n• От 2х лет опыта тестирования веб- или мобильных приложений\n• Практический опыт применения практик тест-дизайна\n• Рабочие знания клиент-серверной архитектуры\n• Знание Java/Ruby/C#, опыт автоматизации от 1 года\n• Уверенный опыт разработки авто-тестов, работы с инструментами автоматизации\nДля удаленки нужен релевантный опыт удаленной работы.\n\n➡ Обязанности:\n• Автоматизированное тестирование (Selenium+Cucumber)\n• Функциональное, интеграционное, регрессионное и приемочное тестирование\n\n➡ Предлагаем:\n• все по ТК РФ, белое и официальное\n• ДМС со стоматологией, программа лояльности\n• адекватное руководство (сейчас мы на удаленке и собеседования по скайпу)\n• большое комьюнити, классные команды, карьерный рост\n• помогаем с релокацией в Москву/Питер/Екатеринбург(50 000 рублей)\nили есть возможность работы удаленно\n\nРезюме и вопросы @Priboch","markup":[{"type":"hashtag","offset":0,"length":9,"data":"вакансия"},{"type":"hashtag","offset":10,"length":3,"data":"QA"},{"type":"hashtag","offset":14,"length":9,"data":"фуллстек"},{"type":"hashtag","offset":24,"length":3,"data":"ФТ"},{"type":"hashtag","offset":28,"length":3,"data":"АТ"},{"type":"hashtag","offset":32,"length":9,"data":"удаленка"},{"type":"handle","offset":1129,"length":8,"data":"Priboch"}],"date":"2020-06-26T07:57:06+00:00","link":"tg://resolve?domain=qa_jobs&post=98971","tags":[{"name":"qa"},{"name":"java"},{"name":"ruby"},{"name":"selenium"},{"name":"cucumber"}],"cities":[{"code":"moscow"}],"allowsRemote":true}},{"node":{"__typename":"Job","id":"108089311232-1001119539411","title":".net разработчик","text":"#qa #automation #работа #вакансия #тестировщик #job #Москва #СПБ #удалёнка #офис \n\nQA Automation (С# / С# + Нагрузочное Тестирование / Ruby)в крупный банк без бюрократии.\n\n🌏 Москва / Санкт-Петербург / Удалённо\n💻опыт от года и до синьора (каждому есть работа по силам) \n💰до 240к \n\n💡4 интересных Прoекта на разных стадиях жизни:\nВсе они направлены на : \n- Улучшение бизнес процессов;\n- Защиту интересов и финансов банка в крупных сделках;\n- Развитие отдельного модуля пообъектного учета залогов для контроля залогов по кредитным сделкам крупного корпоративного бизнеса.\n\n💡 Требования стандартные, Вы все их хорошо знаете. \n- Опыт тестирования API, UI;\n- Работа с .NET / Selenium / LoadRunner / Cucumber - зависит от стека\n- Понимание отличия REST от SOAP;\n- Опыт работы с CICD;\n- С GIT итак все работают \n- SQL на хорошем уровне.\n\n💡Важное:\n- Удалённый формат занятости или офис (по желанию);\n- Гибкий график работы; \n- Отличный офис в стиле супергероев с множеством пуфиков, релакс-зоной, пингпонгом, а пар можно выпустить на груше и турнике; \n- ДМС;\n- Скидки на фитнес, английский;\n- Помощь в релокации, если любишь работу в офисе и хочешь переехать;\n- Оформление на компанию интегратора Selecty IT\n\n📲 @JuliaVenz 🙂","markup":[{"type":"hashtag","offset":0,"length":3,"data":"qa"},{"type":"hashtag","offset":4,"length":11,"data":"automation"},{"type":"hashtag","offset":16,"length":7,"data":"работа"},{"type":"hashtag","offset":24,"length":9,"data":"вакансия"},{"type":"hashtag","offset":34,"length":12,"data":"тестировщик"},{"type":"hashtag","offset":47,"length":4,"data":"job"},{"type":"hashtag","offset":52,"length":7,"data":"Москва"},{"type":"hashtag","offset":60,"length":4,"data":"СПБ"},{"type":"hashtag","offset":65,"length":9,"data":"удалёнка"},{"type":"hashtag","offset":75,"length":5,"data":"офис"},{"type":"bold","offset":83,"length":15,"data":""},{"type":"bold","offset":298,"length":6,"data":""},{"type":"handle","offset":1208,"length":10,"data":"JuliaVenz"}],"date":"2020-06-25T17:59:47+00:00","link":"tg://resolve?domain=microsoftstackjobs&post=103082","tags":[{"name":"dotnet"},{"name":"csharp"},{"name":"ruby"},{"name":"selenium"},{"name":"cucumber"},{"name":"rest"},{"name":"soap"},{"name":"git"},{"name":"sql"}],"cities":[{"code":"moscow"}],"allowsRemote":true}},{"node":{"__typename":"Job","id":"103737720832-1001089317451","title":"Qa инженер","text":"#hr #qa #automation #работа #вакансия #тестировщик #job #Москва #СПБ #удалёнка #офис \n\nQA Automation (С# / С# + НТ / Ruby)в крупный банк без бюрократии.\n\n🌏 Москва / Санкт-Петербург / Удалённо\n💻опыт от года и до синьора (каждому есть работа по силам) \n💰до 240к \n\n💡4 интересных Прoекта на разных стадиях жизни:\nВсе они направлены на : \n- Улучшение бизнес процессов;\n- Защиту интересов и финансов банка в крупных сделках;\n- Развитие отдельного модуля пообъектного учета залогов для контроля залогов по кредитным сделкам крупного корпоративного бизнеса.\n\n💡 Требования стандартные, Вы все их хорошо знаете. \n- Опыт тестирования API, UI;\n- Работа с .NET / Selenium / LoadRunner / Cucumber - зависит от стека\n- Понимание отличия REST от SOAP;\n- Опыт работы с CICD;\n- С GIT итак все работают \n- SQL на хорошем уровне.\n\n💡Важное:\n- Удалённый формат занятости или офис (по желанию);\n- Гибкий график работы; \n- Отличный офис в стиле супергероев с множеством пуфиков, релакс-зоной, пингпонгом, а пар можно выпустить на груше и турнике; \n- ДМС;\n- Скидки на фитнес, английский;\n- Помощь в релокации, если любишь работу в офисе и хочешь переехать;\n- Оформление на компанию интегратора Selecty IT\n\n📲 @JuliaVenz 🙂","markup":[{"type":"hashtag","offset":0,"length":3,"data":"hr"},{"type":"hashtag","offset":4,"length":3,"data":"qa"},{"type":"hashtag","offset":8,"length":11,"data":"automation"},{"type":"hashtag","offset":20,"length":7,"data":"работа"},{"type":"hashtag","offset":28,"length":9,"data":"вакансия"},{"type":"hashtag","offset":38,"length":12,"data":"тестировщик"},{"type":"hashtag","offset":51,"length":4,"data":"job"},{"type":"hashtag","offset":56,"length":7,"data":"Москва"},{"type":"hashtag","offset":64,"length":4,"data":"СПБ"},{"type":"hashtag","offset":69,"length":9,"data":"удалёнка"},{"type":"hashtag","offset":79,"length":5,"data":"офис"},{"type":"bold","offset":87,"length":15,"data":""},{"type":"bold","offset":280,"length":6,"data":""},{"type":"handle","offset":1190,"length":10,"data":"JuliaVenz"}],"date":"2020-06-25T17:02:44+00:00","link":"tg://resolve?domain=qa_jobs&post=98932","tags":[{"name":"qa"},{"name":"ruby"},{"name":"dotnet"},{"name":"selenium"},{"name":"cucumber"},{"name":"rest"},{"name":"soap"},{"name":"git"},{"name":"sql"}],"cities":[{"code":"moscow"}],"allowsRemote":true}},{"node":{"__typename":"Job","id":"103720943616-1001089317451","title":"Qa инженер","text":"Тестировщик в платформу WikiVote\n\nТребования, необходимый опыт:\n* Опыт функционального тестирования от полугода на реальных проектах\n\n* Наличие сертификатов о пройденном обучении в тестировании\n\n\nЗадача на первый месяц сотрудничества:\n1. Провести ручное тестирование пула сценариев по существующим тест-кейсам. Мы обновили версию Ruby платформы, и нужно все прогнать, не отвалилось ли чего.\n\n\nЗадачи дальше:\n1. Ручное функциональное тестирование сценариев платформы при запуске новых проектов\n\n2. Ручное функциональное тестирование новых внедренных фич\n\n3. Разработка карточек тест-кейсов\n\n4. Кроссбраузерное тестирование верстки\n\n5. Разработка автотестов для платформы (после того, как поймете, что из ручного тестирования можно автоматизировать, приветствуем инициативу и выделим часть рабочего времени чисто под это)\n\n6. Ручное тестирование на будущем проекте по разработке Windows-приложения (в основном проверка интеграции приложения с MS Office). Если сможете автоматизировать - велком. \n\nРабота полностью удаленная, всегда была такой до весны 2020 и такой останется после. В связи с этим про ресурсы:\n\n* Мы предоставляем виртуальные машины для тестирования Windows приложений \n\n* После полугода сотрудничества возможна покупка необходимого оборудования за счет компании.\n\n\nГрафик работы:\n* Стандартный 8 часовой рабочий день, удаленно\n\n* Две обязательные планерки: 10 утра мск в понедельник и пятницу; остальные дни по желанию\n\n* Максимальное отклонение от московского времени +/- 2 часа (команда и клиенты в основном находятся в этом часовом поясе, и с бОльшим отрывом очень сложно).\n\n\nЧто предлагаем:\n* Испытательный срок 3 месяца\n\n* Белое оформление \n* от 50 000\n* только граждане РФ\n\n#удаленка #вакансия","markup":[{"type":"hashtag","offset":1695,"length":9,"data":"удаленка"},{"type":"hashtag","offset":1705,"length":9,"data":"вакансия"}],"date":"2020-06-25T13:50:42+00:00","link":"tg://resolve?domain=qa_jobs&post=98916","tags":[{"name":"qa"},{"name":"ruby"},{"name":"windows"}],"cities":[],"allowsRemote":true}},{"node":{"__typename":"Job","id":"2256535552-1001134745498","title":"Devops инженер","text":"#вакансия #devops #docker #kubernetes\n\nВакансия: DevOps\nКомпания: Potok.io\nГород и адрес офиса: Москва, м. Марьина Роща, м. Савёловская\nФормат работы: удаленно на время пандемии, далее офис\nЗанятость: полная\nЗарплатная вилка: от 120 до 200к (net)\n\nМы - SaaS-решение по автоматизации бизнес-процессов в рамках подбора. Ищем человека, который возьмет на себя построение нашей инфраструктуры и CI/CD. Сейчас делаем всё силами команды разработки, а задач уже набралось на полноценного специалиста\nНаш стэк - ubuntu, ruby, postgres, elasticsearch, redis.\n\n🔹Чем предстоит заниматься:\n-настройка CI/CD\n-инфраструктурная поддержка продакшена - мониторинг, логи, деплой, вот это вот всё :)\n-запаковка SaaS-решения в коробку и развертка на серверах клиентов\n\n🔹Мы ищем человека, который:\n-имеет опыт работы DevOps специалистом от 2-х лет\n-имеет опыт администрирования Ubuntu\n-опыт работы с Docker и Kubernetes\n-навыки в сфере автоматизации процессов настройки и управления серверами (puppet, ansible, chef)\n-системы мониторинга и логинорования \nТакже большим плюсом будет опыт работы с PostgreSQL и Elasticsearch\n\n🔹Условия:\n-индивидуальное обсуждение зарплатных ожиданий \n-честное трудоустройство на 100%\n-классный ДМС\n-график 5/2 в среднем с 10 до 19\n-команду, нацеленную на общий результат и интересные задачи\n-дух стартапа + стабильность большой компании \n\nКонтакты: @yulianka_95\n\n—\n\n👉 Обсуждение вакансии в чате @devops_jobs","markup":[{"type":"hashtag","offset":0,"length":9,"data":"вакансия"},{"type":"hashtag","offset":10,"length":7,"data":"devops"},{"type":"hashtag","offset":18,"length":7,"data":"docker"},{"type":"hashtag","offset":26,"length":11,"data":"kubernetes"},{"type":"link","offset":66,"length":8,"data":"http://Potok.io"},{"type":"handle","offset":1362,"length":12,"data":"yulianka_95"},{"type":"handle","offset":1409,"length":12,"data":"devops_jobs"}],"date":"2020-06-25T11:10:32+00:00","link":"tg://resolve?domain=devops_jobs_feed&post=2152","tags":[{"name":"docker"},{"name":"kubernetes"},{"name":"dotnet"},{"name":"ubuntu"},{"name":"ruby"},{"name":"postgresql"},{"name":"elasticsearch"},{"name":"redis"},{"name":"ansible"}],"cities":[{"code":"moscow"}],"allowsRemote":true}},{"node":{"__typename":"Job","id":"1730150400-1001091028994","title":"Java разработчик","text":"#вакансия #москва #офис #fulltime #clojure \nИщу разработчика, желающего переехать на Clojure или уже имеет опыт с ним.\n\nПроект - saas платформа для digital маркетинга. Собираем и обрабатываем большие данные о покупателях всего крупного e-commerce. \n\nУ нас:\n- Clojure, FP;\n- Kafka, Spark;\n- Docker, Docker Compose, Terraform, Kubernetes, AWS;\n- Highload (15k - 20k rps), терабайты данных;\n- Postgresql, Vertica, DynamoDB, Redis, Tarantool, Memcached, Clickhouse.\n\nУ вас:\n- Опыт в промышленном программировании (Java, Scala, Python, Ruby, Clojure, etc) от 2-х лет; \n- Опыт в высоконагруженных проектах с микросервисной архитектурой;\n- Любовь к FP.\n\nУсловия:\n- Москва, офис м.Тверская, фуллтайм;\n- Белая з/п до 300к net;\n- ДМС, хороший офис и техника;\n\nЗа подробностями —-> @nat_kirisova","markup":[{"type":"hashtag","offset":0,"length":9,"data":"вакансия"},{"type":"hashtag","offset":10,"length":7,"data":"москва"},{"type":"hashtag","offset":18,"length":5,"data":"офис"},{"type":"hashtag","offset":24,"length":9,"data":"fulltime"},{"type":"hashtag","offset":34,"length":8,"data":"clojure"},{"type":"handle","offset":771,"length":13,"data":"nat_kirisova"}],"date":"2020-06-23T15:25:30+00:00","link":"tg://resolve?domain=jvmjobs&post=1650","tags":[{"name":"java"},{"name":"jvm"},{"name":"clojure"},{"name":"kafka"},{"name":"docker"},{"name":"kubernetes"},{"name":"amazon-web-services"},{"name":"postgresql"},{"name":"dynamodb"},{"name":"redis"},{"name":"scala"},{"name":"python"},{"name":"ruby"},{"name":"dotnet"},{"name":"docker-compose"}],"cities":[{"code":"moscow"}],"allowsRemote":false}}]}}},"context":{}}