{"hash":"f5f6bf98bd95e769321482904cbbd488f77922fd","data":{"records":{"id":"django","name":"django","belongsTo":{"totalCount":28,"pageInfo":{"totalPages":3,"currentPage":1},"edges":[{"node":{"__typename":"Job","id":"2280652800-1001134745498","title":"Devops инженер","text":"#вакансия #DevOps\n\nЛокация: Москва, м. Савёловская\nФормат работы: до середины июля удаленка, затем офис с возможной частичной удаленкой после испытательного срока\nЗанятость: полная\nЗарплатная вилка: от 180.000 до 300.000 на руки\n\nМедицинская компания, которая разрабатывает технологичные страховые и сервисные продукты для людей и для бизнеса ищет себе крутого DevOps инженера.\n\nЕще пару лет назад у них не было процесса CI/CD, инфраструктуры, боевой код разворачивался через git pull на продакшне, все было на одной виртуалке и т.д. и т.п.\nНа сегодняшний день есть CI, Infrastructure-as-a-Code, мониторинг и алертинг, а также докеризация.\nБизнес и команда очень сильно выросли: в 2,5 раза за 2018 год. Сейчас компания занимает 2ое место по количеству пациентов среди insurtech компаний в Европе.\nВ планах поднимать новые сервисы, масштабироваться вертикально и горизонтально, ускорять CI, внедрять CD и новые инструменты в инфраструктуру.\n\nЧтобы осуществить все задуманное, ребятам нужен человек, который сможет развивать культуру DevOps в команде.\n\nСтек технологий:\n\n➖Backend: Python 3.7, Django, Flask, aiohttp;\n➖Frontend: TypeScript, React;\n➖Mobile: React Native;\n➖Ubuntu 18.04, PostgreSQL (9.6), Redis, ElasticSearch;\n➖Nginx, Docker, Ansible;\n➖Kibana (ELK), Sentrу, Prometheus, Grafana;\n➖GitLab + GitLab CI, Selectel, servers.ru.\n\nЧто нужно будет делать:\n\n➖Ускорить CI, сборку, деплой и улучшить его инструменты;\n➖Сделать сервисы быстрее и надёжнее;\n➖Поддерживать существующую инфраструктуру;\n➖Мониторить ошибки в бою и исправлять их;\n➖Разрабатывать инструменты автоматизации для команд.\n\nОт кандидата:\n\n➖Знание Docker;\n➖Отличное знание Linux и окружения;\n➖Опыт работы с системами управления конфигурацией Chef, Puppet, Ansible или Salt (мы используем Ansible);\n➖Знание bash/Python;\n➖Опыт работы с Django приложениями будет плюсом;\n➖Опыт работы с ELK будет плюсом.\n\nПочему будет круто:\n\n➖Работаем по гибкому графику, для нас главное — результат;\n➖Отправляем на конференции и митапы, даже международные;\n➖Мы меняем рынок медицинского страхования, и у нас это отлично получается;\n➖Мы собрали команду очень талантливых и мотивированных людей;\n➖У вас будет необходимое для работы железо;\n➖Вы получите медицинское обслуживание через нашу систему. И это в разы лучше, чем стандартный ДМС :)\n➖Вы будете работать в крутом лофте у метро Савеловская. До середины июля удаленно;\n➖Cкидки на занятия английским языком, фитнес и путешествия.\n\nНазвание компании: GMS Services (ссылка на сайт — https://bit.ly/2BY7kc7)\n\nКонтакты: @diana_gms\n\n—\n\n👉 Обсуждение вакансии в чате @devops_jobs","markup":[{"type":"hashtag","offset":0,"length":9,"data":"вакансия"},{"type":"hashtag","offset":10,"length":7,"data":"DevOps"},{"type":"link","offset":1324,"length":10,"data":"http://servers.ru"},{"type":"link","offset":2485,"length":22,"data":"https://bit.ly/2BY7kc7"},{"type":"handle","offset":2520,"length":10,"data":"diana_gms"},{"type":"handle","offset":2565,"length":12,"data":"devops_jobs"}],"date":"2020-07-02T18:19:38+00:00","link":"tg://resolve?domain=devops_jobs_feed&post=2175","tags":[{"name":"git"},{"name":"python"},{"name":"django"},{"name":"flask"},{"name":"typescript"},{"name":"reactjs"},{"name":"mobile"},{"name":"ubuntu"},{"name":"postgresql"},{"name":"redis"},{"name":"elasticsearch"},{"name":"nginx"},{"name":"docker"},{"name":"ansible"},{"name":"gitlab"},{"name":"linux"},{"name":"bash"},{"name":"react-native"}],"cities":[{"code":"moscow"}],"allowsRemote":true}},{"node":{"__typename":"Job","id":"2276458496-1001134745498","title":"Devops инженер","text":"#вакансия #офис #fulltime #devops #Будва_Черногория\n\nВакансия: DevOps\nКомпания: Alar Studios\nАдрес: Будва, Черногория\nФормат работы: удаленно на время пандемии, далее офис\nЗанятость: full time\nЗ.п вилка: 1700-2300 eur (на руки)\n\nКомпания Alar Studios занимается разработкой крупных технологически тяжелых проектов на заказ для западных заказчиков. Предлагаем возможность развиваться в комфортных условиях мягкого климата Черногории на берегу моря (офис).\n\n📌Требования:\n    • Знание Jenkins, Ansible;\n    • Отличное знание Linux и опыт от 2-х лет;\n    • Кристально ясное понимание TCP/IP;\n    • Общее понимание ИТ-безопасности, зачем нужна и каковы пути ее достижения;\n    • Опыт работы с PostgreSQL или другой open source RDBMS;\n    • Опыт работы в инфраструктуре AWS или подобной;\n    • Отличное знание и понимание RDBMS как такового: в частности, знание SQL, зачем нужны и как работают индексы;\n    • Знание и понимание HTTP;\n    • Хотя бы basic English;\n    • Горячее желание учиться новому!\n📌 Приветствуется:\n    • Знание Python;\n    • Опыт работы с Flask или Django;\n    • Опыт с Amazon VPC и dedicated hosts;\n    • Опыт с Celery, Redis;\n    • Знание git.\n📌Основные задачи:\n    • Разработка архитектуры (в том числе high load, horizontal scalability);\n    • Администрирование инфраструктуры (Linux, Amazon AWS);\n    • Поиск и отладка проблем, работа с серверным кодом;\n    • Написание автоматизации (Ansible);\n    • Быть частью команды и взаимодействовать с командой разработчиков.\n📌 Мы предлагаем\n    • Интересные проекты;\n    • Оплачиваемые отпуска; \n    • Двойную почасовую оплату согласованной переработки сверх рабочего времени (OVERTIME);\n    • Возможность работы в нашем офисе в Черногории, фактически, в раю на берегу Адриатического моря — до моря 10 минут пешком (поможем с переездом вам и семье).\nРазмер зарплат по опыту/знаниям (если хорошо знаете все из списка и есть опыт, то верхняя планка). Рост по производительности.\nДополнительные инструкции: Для интервью будет необходимо сделать тестовое задание.\nВаше CV прошу направлять на pakhomova@alarstudios.com или в @daikirey\n\n—\n\n👉 Обсуждение вакансии в чате @devops_jobs","markup":[{"type":"hashtag","offset":0,"length":9,"data":"вакансия"},{"type":"hashtag","offset":10,"length":5,"data":"офис"},{"type":"hashtag","offset":16,"length":9,"data":"fulltime"},{"type":"hashtag","offset":26,"length":7,"data":"devops"},{"type":"hashtag","offset":34,"length":17,"data":"Будва_Черногория"},{"type":"link","offset":2054,"length":25,"data":"mailto:pakhomova@alarstudios.com"},{"type":"handle","offset":2086,"length":9,"data":"daikirey"},{"type":"handle","offset":2130,"length":12,"data":"devops_jobs"}],"date":"2020-07-02T12:47:28+00:00","link":"tg://resolve?domain=devops_jobs_feed&post=2171","tags":[{"name":"jenkins"},{"name":"ansible"},{"name":"linux"},{"name":"postgresql"},{"name":"amazon-web-services"},{"name":"sql"},{"name":"python"},{"name":"flask"},{"name":"django"},{"name":"redis"},{"name":"git"}],"cities":[],"allowsRemote":true}},{"node":{"__typename":"Job","id":"17274241024-1001110946746","title":"Js разработчик","text":"Всем привет! \n\nИщу Frontend-разработчика в крупную инвестиционно-строительную компанию, реализующую свои проекты на рынке Москвы и Московской области. Топ-5 среди застройщиков Москвы и МО.\n\nНеобходимо будет разрабатывать проекты по управлению стройкой и её оптимизацией (планирование, распределение бюджетов, управление процессами на стройке и т.д.), а также для внешних пользователей сервис по покупке недвижимости (web и mobile-версии). Команда пока собрана небольшая - 12 человек. \nСтек: JavaScript (ES6) React +Redux + CSS + SCSS на фронтенде, Python (Django) на бекенде, React-Native - на мобильной разработке. \n\nПо требованиям: \n- опыт с React (от 1,5 лет)\n- опыт с JS (от 2-х лет)\n\nВилка ЗП 150-220k руб. на руки, офис в пяти минутах от ст. м. Кунцевская (г. Москва), есть возможность работать удаленно, отсутствие бюрократии, лояльное руководство, ДМС, возможность посещения конференций, курсов по повышению квалификации за счет работодателя.\n\nТип занятости: полная, офис, удаленка\nНазвание компании: Самолет Девелопмент\n\nКто заинтересовался - пишите в ЛС (@eivanova17),  буду оперативно отвечать 🙂 \n\n#работа #Москва #вакансия #job #react #reactjs #js #офис #удаленка","markup":[{"type":"handle","offset":1065,"length":11,"data":"eivanova17"},{"type":"hashtag","offset":1110,"length":7,"data":"работа"},{"type":"hashtag","offset":1118,"length":7,"data":"Москва"},{"type":"hashtag","offset":1126,"length":9,"data":"вакансия"},{"type":"hashtag","offset":1136,"length":4,"data":"job"},{"type":"hashtag","offset":1141,"length":6,"data":"react"},{"type":"hashtag","offset":1148,"length":8,"data":"reactjs"},{"type":"hashtag","offset":1157,"length":3,"data":"js"},{"type":"hashtag","offset":1161,"length":5,"data":"офис"},{"type":"hashtag","offset":1167,"length":9,"data":"удаленка"}],"date":"2020-06-30T16:39:47+00:00","link":"tg://resolve?domain=javascript_jobs_feed&post=16474","tags":[{"name":"javascript"},{"name":"web"},{"name":"mobile"},{"name":"reactjs"},{"name":"redux"},{"name":"css"},{"name":"python"},{"name":"django"},{"name":"react-redux"},{"name":"react-native"}],"cities":[{"code":"moscow"}],"allowsRemote":true}},{"node":{"__typename":"Job","id":"2257584128-1001134745498","title":"Devops инженер","text":"#вакансия #офис #fulltime #devops #Будва_Черногория\n\nВакансия: DevOps\nКомпания: Alar Studios\nАдрес: Будва, Черногория\nФормат работы: удаленно на время пандемии, далее офис\nЗанятость: full time\nЗ.п вилка: 1700-2300 eur (на руки)\n\nКомпания Alar Studios занимается разработкой крупных технологически тяжелых проектов на заказ для западных заказчиков. Предлагаем возможность развиваться в комфортных условиях мягкого климата Черногории на берегу моря (офис).\n\n📌Требования:\n    • Знание Jenkins, Ansible;\n    • Отличное знание Linux и опыт от 2-х лет;\n    • Кристально ясное понимание TCP/IP;\n    • Общее понимание ИТ-безопасности, зачем нужна и каковы пути ее достижения;\n    • Опыт работы с PostgreSQL или другой open source RDBMS;\n    • Опыт работы в инфраструктуре AWS или подобной;\n    • Отличное знание и понимание RDBMS как такового: в частности, знание SQL, зачем нужны и как работают индексы;\n    • Знание и понимание HTTP;\n    • Хотя бы basic English;\n    • Горячее желание учиться новому!\n📌 Приветствуется:\n    • Знание Python;\n    • Опыт работы с Flask или Django;\n    • Опыт с Amazon VPC и dedicated hosts;\n    • Опыт с Celery, Redis;\n    • Знание git.\n📌Основные задачи:\n    • Разработка архитектуры (в том числе high load, horizontal scalability);\n    • Администрирование инфраструктуры (Linux, Amazon AWS);\n    • Поиск и отладка проблем, работа с серверным кодом;\n    • Написание автоматизации (Ansible);\n    • Быть частью команды и взаимодействовать с командой разработчиков.\n📌 Мы предлагаем\n    • Интересные проекты;\n    • Оплачиваемые отпуска; \n    • Двойную почасовую оплату согласованной переработки сверх рабочего времени (OVERTIME);\n    • Возможность работы в нашем офисе в Черногории, фактически, в раю на берегу Адриатического моря — до моря 10 минут пешком (поможем с переездом вам и семье).\nРазмер зарплат по опыту/знаниям (если хорошо знаете все из списка и есть опыт, то верхняя планка). Рост по производительности.\nДополнительные инструкции: Для интервью будет необходимо сделать тестовое задание.\nВаше CV прошу направлять на pakhomova@alarstudios.com или в @daikirey\n\n—\n\n👉 Обсуждение вакансии в чате @devops_jobs","markup":[{"type":"hashtag","offset":0,"length":9,"data":"вакансия"},{"type":"hashtag","offset":10,"length":5,"data":"офис"},{"type":"hashtag","offset":16,"length":9,"data":"fulltime"},{"type":"hashtag","offset":26,"length":7,"data":"devops"},{"type":"hashtag","offset":34,"length":17,"data":"Будва_Черногория"},{"type":"link","offset":2054,"length":25,"data":"mailto:pakhomova@alarstudios.com"},{"type":"handle","offset":2086,"length":9,"data":"daikirey"},{"type":"handle","offset":2130,"length":12,"data":"devops_jobs"}],"date":"2020-06-25T11:11:19+00:00","link":"tg://resolve?domain=devops_jobs_feed&post=2153","tags":[{"name":"jenkins"},{"name":"ansible"},{"name":"linux"},{"name":"postgresql"},{"name":"amazon-web-services"},{"name":"sql"},{"name":"python"},{"name":"flask"},{"name":"django"},{"name":"redis"},{"name":"git"}],"cities":[],"allowsRemote":true}},{"node":{"__typename":"Job","id":"92282028032-1001067529236","title":"Python разработчик","text":"#вакансия #django #drf #python #postgresql #fulltime #remote \n \nКоманда Cactus Vision ищет разработчика Python (Middle) на полную занятость. Важно, чтобы человек любил то, чем он занимается, и был готов трудиться в дружеской команде единомышленников.\nМы – организация, работающая по принципам Бирюзовой парадигмы. Это значит, что мы придерживаемся самоуправления и самоорганизации. Наши сотрудники работают сообща, вместе преодолевая трудности. Мы не боимся брать на себя новые роли и развиваться в них. Если у человека есть цель, миссия, которым он готов следовать, трудясь на благо компании – мы вам рады.\n\nУ разработчиков компании Cactus Vision есть возможность не просто писать код, но и участвовать в развитии Бирюзовой организации, раскрывать свой потенциал и расти. Присоединяйся!\n\nЧто вам предстоит:\n- Разработка нового функционала;\n- Рефакторинг legacy и некорректных решений;\n- Проектирование архитектуры и БД;\n- Разработка интеграционных решений;\n\nЧто от вас нужно:\n- Уверенное знание Python 3.x+;\n- Уверенное знание PostgreSQL;\n- Опыт работы не менее 2 лет, в том числе в команде;\n- Умение писать тесты (знание TDD приветствуется);\n- Опыт проектирования архитектуры приложений, в том числе БД;\n- Умение ориентироваться в больших объемах информации;\n- Уровень английского языка, необходимого для чтения технической документации;\n- Ответственность и желание развиваться.\n\nЧто мы готовы предоставить:\n- Возможность трудиться удаленно;\n- Работа в дружной команде;\n- Помощь и поддержка в реализации личной миссии;\n- Возможность попробовать в себя различных ролях.\n\nВознаграждение труда: 50000 - 85000р в месяц, по результатам.\n\nПо всем вопросам писать 👉 @iboman\n+79996342441","markup":[{"type":"hashtag","offset":0,"length":9,"data":"вакансия"},{"type":"hashtag","offset":10,"length":7,"data":"django"},{"type":"hashtag","offset":18,"length":4,"data":"drf"},{"type":"hashtag","offset":23,"length":7,"data":"python"},{"type":"hashtag","offset":31,"length":11,"data":"postgresql"},{"type":"hashtag","offset":43,"length":9,"data":"fulltime"},{"type":"hashtag","offset":53,"length":7,"data":"remote"},{"type":"link","offset":1594,"length":13,"data":"tel:50000 - 85000"},{"type":"handle","offset":1662,"length":7,"data":"iboman"},{"type":"link","offset":1670,"length":12,"data":"tel:+79996342441"}],"date":"2020-06-25T10:30:47+00:00","link":"tg://resolve?domain=python_jobs&post=88007","tags":[{"name":"python"},{"name":"django"},{"name":"postgresql"}],"cities":[],"allowsRemote":true}},{"node":{"__typename":"Job","id":"92279930880-1001067529236","title":"Python developer","text":"#вакансия #senior #upperintermediate #fullstack #remote\nкомпания s-o-services\nз\\п 2800-3800$, оформление по ип (компании в рф нет)\nзаказчик американское издательство\nконтакты @erzentd\n\nТребования:\n\n4+ years of demonstrated experience successfully launching complex projects on time\n2+ years of experience as a full-time developer for a web app, custom software product or organization web site\n3+ years of experience with most or all of the following: Python & Django, relational DBs, jQuery & JavaScript, HTML, CSS/LESS, Git\nExperience with the following technologies preferred but not required: MongoDB, PostgreSQL, Elasticsearch,\nWordPress, CDNs, uWSGI, Redis, Celery, Jenkins, Sentry, New Relic, Nginx, CentOS, RabbitMQ, React, \nSalesforce, Marketo, high availability systems, or graph databases\nOrganized, detail and deadline oriented, highly focused\nAbility to prioritize & manage multiple projects at one time; cool under pressure\nAnalytical thinker with strong/creative problem solving skills\nExperience with Agile development methodologies\nStrong written and verbal communication skills\nAn interest in government, elections, and associated datasets","markup":[{"type":"hashtag","offset":0,"length":9,"data":"вакансия"},{"type":"hashtag","offset":10,"length":7,"data":"senior"},{"type":"hashtag","offset":18,"length":18,"data":"upperintermediate"},{"type":"hashtag","offset":37,"length":10,"data":"fullstack"},{"type":"hashtag","offset":48,"length":7,"data":"remote"},{"type":"handle","offset":175,"length":8,"data":"erzentd"}],"date":"2020-06-25T10:25:16+00:00","link":"tg://resolve?domain=python_jobs&post=88005","tags":[{"name":"python"},{"name":"web"},{"name":"django"},{"name":"jquery"},{"name":"javascript"},{"name":"html"},{"name":"css"},{"name":"git"},{"name":"mongodb"},{"name":"postgresql"},{"name":"elasticsearch"},{"name":"wordpress"},{"name":"redis"},{"name":"jenkins"},{"name":"nginx"},{"name":"centos"},{"name":"rabbitmq"},{"name":"reactjs"}],"cities":[],"allowsRemote":true}},{"node":{"__typename":"Job","id":"92278882304-1001067529236","title":"Python разработчик","text":"#вакансия #python #fulltime #office #remote #Senior #Lead #backend #офис #удаленка #работа\n\nЗп от 160 000 net \nКомпания в поисках Lead Python  удаленно.\nНеобходимые навыки:\n🔹Software development experience 5+, \n🔹Experience with Django (Django ORM, Django Rest Framework (1+years);\n🔹Experience with AWS services: Lambda, API Gateway, SNS, SQS, SES, S3, RDS, VPC, EC2, CloudWatch, etc.\n🔹Experience writing API and working / integration with API of third-party services;\n🔹Knowledge of the GraphQL API (Graphene will be a plus)\n🔹Knowledge of SQL (PostgreSQL relational DBMS will be a plus)\n🔹Knowledge of CloudFormation in AWS and Terraform;\n🔹Ability to read code and understand it at the level of business logic;\n🔹Ability to work with general abstract tasks;\n🔹Written and spoken English is a MUST (B2+)\n\nКонтакты: @Nataly_3 или на почту: n.mazepa@art2hires.com","markup":[{"type":"hashtag","offset":0,"length":9,"data":"вакансия"},{"type":"hashtag","offset":10,"length":7,"data":"python"},{"type":"hashtag","offset":18,"length":9,"data":"fulltime"},{"type":"hashtag","offset":28,"length":7,"data":"office"},{"type":"hashtag","offset":36,"length":7,"data":"remote"},{"type":"hashtag","offset":44,"length":7,"data":"Senior"},{"type":"hashtag","offset":52,"length":5,"data":"Lead"},{"type":"hashtag","offset":58,"length":8,"data":"backend"},{"type":"hashtag","offset":67,"length":5,"data":"офис"},{"type":"hashtag","offset":73,"length":9,"data":"удаленка"},{"type":"hashtag","offset":83,"length":7,"data":"работа"},{"type":"handle","offset":820,"length":9,"data":"Nataly_3"},{"type":"link","offset":844,"length":22,"data":"mailto:n.mazepa@art2hires.com"}],"date":"2020-06-25T10:24:20+00:00","link":"tg://resolve?domain=python_jobs&post=88004","tags":[{"name":"python"},{"name":"dotnet"},{"name":"django"},{"name":"orm"},{"name":"rest"},{"name":"amazon-web-services"},{"name":"aws-lambda"},{"name":"graphql"},{"name":"sql"},{"name":"postgresql"}],"cities":[],"allowsRemote":true}},{"node":{"__typename":"Job","id":"92275736576-1001067529236","title":"Python developer","text":"#вакансия #python #Django #vacancy #IT  #remote\n\nI’m looking for a very strong python developer to become one of key engineers for one of our clients. The client is a US-based startup developing revolutionary products in the Gaming and Lottery industries using NFC and SmartCard-based solutions. This role is extremely important for our client as it has the responsibility of coordinating with the whole team to provide a backend and APIs that support mobile and web clients, as well as third-party integrations.\n\nLocation: Remote\nJob Type: Full-time, contract\nIndustries: Technology, Gaming, Lottery\nLanguages: English, Russian\nPay Rate: $25/hr - $35/hr depending on experience\nProbationary Period: 1 month\nStart Date: ASAP\n\nQualifications\nBS in Information Systems, Engineering, other related discipline \n6-10 years Software Engineering experience\n4-6+ years of work experience developing in Python\n2-3+ years developing on the Django platform\nWorking experience with microservices architecture.\nSolid understanding of data structures, coding standards, best practices\nDevelopment experience in Cloud and DevSecOps environments\nExperience working with relational databases and various data formats and technologies.\nExperience with test-driven development\nExperience working in adaptive methodologies like Agile, DevOps and Scrum, etc.\nStrong written and communication skills required.\nMust be a self-starter/self-directed member of the team\nProficient with Git\nB2+ CEFR English level\n\nFor more information, write to the PM.","markup":[{"type":"hashtag","offset":0,"length":9,"data":"вакансия"},{"type":"hashtag","offset":10,"length":7,"data":"python"},{"type":"hashtag","offset":18,"length":7,"data":"Django"},{"type":"hashtag","offset":26,"length":8,"data":"vacancy"},{"type":"hashtag","offset":35,"length":3,"data":"IT"},{"type":"hashtag","offset":40,"length":7,"data":"remote"}],"date":"2020-06-25T10:09:29+00:00","link":"tg://resolve?domain=python_jobs&post=88001","tags":[{"name":"python"},{"name":"django"},{"name":"mobile"},{"name":"web"},{"name":"cloud"},{"name":"git"}],"cities":[],"allowsRemote":true}},{"node":{"__typename":"Job","id":"17133731840-1001110946746","title":"Js developer","text":"#вакансия #frontenddeveloper #frontend\n\nГород и адрес офиса: Москва\n\nФормат работы: удаленна\n\nЗанятость: проектная, далее возможно заключение долгосрочного контракта с бонусами за развитие компании (испытательный срок - 2 месяца)\n\nЗарплатная вилка: от 90 000 до 130 000 руб.\n\nОписание вакансии: РАЗРАБОТКА ИНТЕРНЕТ  ПЛАТФОРМЫ ДЛЯ СОЗДАНИЯ КОМПЬЮТЕРНОЙ ГРАФИКИ ДЛЯ ИГР И СПЕЦЭФФЕКТОВ В КИНО (cg-doo.com)\n\nТребуемый опыт работы: 2–5 лет\n\nНеобходимые навыки:\n- уверенное знание JavaScript, React / Redux, HTML5, CSS3\n- опыт коммерческой разработки с использованием React.JS, Redux от года\n- опыт работы с ES6\n- знание английского на уровне чтения документации\n\nБудет плюсом:\n- опыт работы с Docker, Git\n\nСтек проекта:\n- SPA-приложение JS / React / Redux;\n- бэкэнд на Django/Postgresql/Redis/Celery/RabbitMQ; \n- NginX, kubernetes\n\nНазвание компании: Argunov Studio (https://argunov.studio)\n\nПодробнее ознакомиться с компанией и вакансией можно здесь: https://help.cg-doo.com/work-in-cg-doo/vacancies/frontend-developer\n\nКонтакты: телеграм @victoriashrv и/или на почту vicsukhareva@yandex.ru (пожалуйста, прикладывайте резюме или сопроводительное письмо)\n\n—\n\n👉 Обсуждение вакансии в чате @javascript_jobs","markup":[{"type":"hashtag","offset":0,"length":9,"data":"вакансия"},{"type":"hashtag","offset":10,"length":18,"data":"frontenddeveloper"},{"type":"hashtag","offset":29,"length":9,"data":"frontend"},{"type":"link","offset":391,"length":10,"data":"http://cg-doo.com"},{"type":"link","offset":862,"length":22,"data":"https://argunov.studio"},{"type":"link","offset":947,"length":67,"data":"https://help.cg-doo.com/work-in-cg-doo/vacancies/frontend-developer"},{"type":"handle","offset":1035,"length":13,"data":"victoriashrv"},{"type":"link","offset":1064,"length":22,"data":"mailto:vicsukhareva@yandex.ru"},{"type":"handle","offset":1184,"length":16,"data":"javascript_jobs"}],"date":"2020-06-24T13:37:13+00:00","link":"tg://resolve?domain=javascript_jobs_feed&post=16340","tags":[{"name":"javascript"},{"name":"reactjs"},{"name":"redux"},{"name":"html"},{"name":"css"},{"name":"docker"},{"name":"git"},{"name":"django"},{"name":"postgresql"},{"name":"redis"},{"name":"rabbitmq"},{"name":"nginx"},{"name":"kubernetes"},{"name":"react-redux"}],"cities":[{"code":"moscow"}],"allowsRemote":false}},{"node":{"__typename":"Job","id":"92233793536-1001067529236","title":"Python разработчик","text":"#вакансия #python #Django #vacancy #IT  #remote\n\nДрузья, всем привет! \nНовая вакансия -  #Senior_PythonDeveloper\nЛокация - Россия,\nПолный рабочий день, #remote \n#Оплата: 3000$\n\nТребования:\n\n-Опыт работы в индустрии разработки ПО от 5-ти лет;\n-Уверенное знание Python 3+/Python Core (языковые структуры, стандартные библиотеки, регулярные выражения и т.д.);\n-Практический опыт работы с Django (Django ORM, Django Rest Framework);\n-Иметь представление о GraphQL APIs (Graphene будет плюсом);\n-Знание SQL (знание реляционной СУБД PostgreSQL будет плюсом) на уровне работы как прикладного разработчика;\n-Опыт написания API и работы/интеграции с API сторонних сервисов;\n-Опыт работы с рядом AWS-сервисов: Lambda, API Gateway, SNS, SQS, SES, S3, RDS, VPC, EC2, CloudWatch, etc;\n-The English language MUST HAVE (B2+ level) to work with the english speaking team.\n\n\nЗа дополнительной информацией, пишите в ЛС:  @Zalvovskaya","markup":[{"type":"hashtag","offset":0,"length":9,"data":"вакансия"},{"type":"hashtag","offset":10,"length":7,"data":"python"},{"type":"hashtag","offset":18,"length":7,"data":"Django"},{"type":"hashtag","offset":26,"length":8,"data":"vacancy"},{"type":"hashtag","offset":35,"length":3,"data":"IT"},{"type":"hashtag","offset":40,"length":7,"data":"remote"},{"type":"hashtag","offset":89,"length":23,"data":"Senior_PythonDeveloper"},{"type":"hashtag","offset":152,"length":7,"data":"remote"},{"type":"hashtag","offset":161,"length":7,"data":"Оплата"},{"type":"handle","offset":903,"length":12,"data":"Zalvovskaya"}],"date":"2020-06-23T21:10:23+00:00","link":"tg://resolve?domain=python_jobs&post=87961","tags":[{"name":"python"},{"name":"django"},{"name":"orm"},{"name":"rest"},{"name":"graphql"},{"name":"sql"},{"name":"postgresql"},{"name":"amazon-web-services"},{"name":"aws-lambda"}],"cities":[],"allowsRemote":true}}]}}},"context":{}}