{"hash":"f5f6bf98bd95e769321482904cbbd488f77922fd","data":{"records":{"id":"android","name":"android","belongsTo":{"totalCount":165,"pageInfo":{"totalPages":17,"currentPage":13},"edges":[{"node":{"__typename":"Job","id":"71562166272-1001054966032","title":"Android разработчик","text":"‼️Вакансия Senior Android⁢ Developer‼️\n#android #developer #вакансия #удаленка\nВ команде Mycelium Wallet (mycelium.com) открыта #вакансия Senior Android⁢ Developer.\n💵З/П 3000-4000 USD по итогам собеседования.\nРабота удаленная 💻\n\nМы предлагаем:\n🔸Получить навыки и компетенции в одном из самых передовых и перспективных направлений финтех индустрии - blockchain;\n🔸Принять участие в разработке одного из самых популярных биткоин-кошельков в Google Play Store;\n🔸Работать в международной команде бок о бок с ведущими специалистами в индустрии;\n🔸Возможность профессионального карьерного роста и участия в разнообразных проектах компании.\n\nЧем предстоит заниматься:\n🔹Разрабатывать новые и развивать существующие мобильные сервисы компании на платформе Android;\n🔹Проектировать и разрабатывать большие функциональные части приложения с привлечением других программистов;\n🔹Использовать cutting edge технологии, а также проверенные временем решения.\n\nТребования:\n✔️Как минимум 3 года опыта разработки на Android;\n✔️Знание Java/Kotlin на уровне ведущего разработчика;\n✔️Знание шаблонов проектирования, опыт использования MVP и других архитектурных подходов;\n✔️Опыт параллельного и многопоточного программирования;\n✔️Понимание циклов работы Android-приложения и управления памятью;\n✔️Опыт разработки пользовательских интерфейсов на платформе Android. \n✔️Знание Android Design Principles;\n✔️Знание и умение использовать различные механизмы взаимодействий между приложениями, предоставляемые в рамках Android SDK;\n✔️Понимание принципов работы REST API, WS, RPC и клиент-серверных приложений;\n✔️Знание английского языка на уровне чтения документации и умения общаться в корпоративном чате.\n\nПлюсом будет:\n➕Умение и понимание необходимости написания Unit tests;\n➕Знание основ криптографии;\n➕Опыт работы с bitcoin/etherium blockchain stack;\n➕Наличие своих проектов на Github, в Google Play и т.д.\n\n📲Контакт: @valeritata","markup":[{"type":"hashtag","offset":39,"length":8,"data":"android"},{"type":"hashtag","offset":48,"length":10,"data":"developer"},{"type":"hashtag","offset":59,"length":9,"data":"вакансия"},{"type":"hashtag","offset":69,"length":9,"data":"удаленка"},{"type":"link","offset":106,"length":12,"data":"http://mycelium.com"},{"type":"hashtag","offset":128,"length":9,"data":"вакансия"},{"type":"handle","offset":1900,"length":11,"data":"valeritata"}],"date":"2020-06-18T10:56:47+00:00","link":"tg://resolve?domain=mobile_jobs&post=0","tags":[{"name":"mobile"},{"name":"android"},{"name":"playframework"},{"name":"java"},{"name":"kotlin"},{"name":"rest"},{"name":"github"}],"cities":[],"allowsRemote":true}},{"node":{"__typename":"Job","id":"3579838464-1001121589364","title":".net разработчик","text":"#Mobile #Xamarin #Android #iOS #crossplatform #Middle #Senior #удаленно\n\n#вакансия \"Разработчик мобильных приложений Xamarin\" \nУдаленная работа\n\nПредлагаемая заработная плата 3000 USD (200 000 + рублей.)\n\nО нас:\nМы - стартап в индустрии Outdoors с офисами в США и Европе. Наша команда является по-настоящему распределенной: на сегодняшний день члены команды находятся в США, Австрии, Австралии, России и Южной Африке.\n\nУ нас начинается интересный этап, так как мы запускаем новый продукт с фокусом на американском рынке.\n\nКого мы ищем? Хорошего человека и по совместительству топового мобильного разработчика :) \n\nЧто будешь делать:\nЖдем, что ты включишься в работу по созданию нового мобильного приложения, которое является частью запускаемого нами продукта.\n\nОсновные требования: \n-Опыт работы в качестве мобильного разработчика не менее 3-х лет.\n-Высокий уровень самоорганизации.\n-Экспертные знания фреймворков Xamarin Native и .NET.\n-Готовность отвечать за delivery мобильного приложения.\n-Умение работать в команде.\n-Тестирование разрабатываемых решений.\n\nУсловия: \n- ЗП 3000 USD - 200 000 + руб.\n- Огненный коллектив \n- Выслушаем и применим пожелания и идеи\n- Все плюшки удаленки\n____________________________________\n📞Telegram @tankograin +79818148442","markup":[{"type":"hashtag","offset":0,"length":7,"data":"Mobile"},{"type":"hashtag","offset":8,"length":8,"data":"Xamarin"},{"type":"hashtag","offset":17,"length":8,"data":"Android"},{"type":"hashtag","offset":26,"length":4,"data":"iOS"},{"type":"hashtag","offset":31,"length":14,"data":"crossplatform"},{"type":"hashtag","offset":46,"length":7,"data":"Middle"},{"type":"hashtag","offset":54,"length":7,"data":"Senior"},{"type":"hashtag","offset":62,"length":9,"data":"удаленно"},{"type":"hashtag","offset":73,"length":9,"data":"вакансия"},{"type":"bold","offset":205,"length":7,"data":""},{"type":"bold","offset":614,"length":19,"data":""},{"type":"bold","offset":761,"length":20,"data":""},{"type":"bold","offset":1061,"length":10,"data":""},{"type":"handle","offset":1234,"length":11,"data":"tankograin"},{"type":"link","offset":1246,"length":12,"data":"tel:+79818148442"}],"date":"2020-06-18T10:50:53+00:00","link":"tg://resolve?domain=xamarin_jobs&post=3414","tags":[{"name":"dotnet"},{"name":"csharp"},{"name":"mobile"},{"name":"xamarin"},{"name":"android"},{"name":"ios"}],"cities":[],"allowsRemote":true}},{"node":{"__typename":"Job","id":"71548534784-1001054966032","title":"Android разработчик","text":"#вакансия #удаленка #remote #JavaScript  #Cordova #Android \n\nФормат: удаленка\nЗанятость: частичная (проектная), от 20 часов в неделю\nОплата: 500-1000/час в зависимости от уровня\n\nИщу JavaScript-разработчика на фриланс . Нужно делать небольшие игровые приложения под упаковку в Cordova на платформу Android.\n\nКонтакт: @LuPomkho","markup":[{"type":"hashtag","offset":0,"length":9,"data":"вакансия"},{"type":"hashtag","offset":10,"length":9,"data":"удаленка"},{"type":"hashtag","offset":20,"length":7,"data":"remote"},{"type":"hashtag","offset":28,"length":11,"data":"JavaScript"},{"type":"hashtag","offset":41,"length":8,"data":"Cordova"},{"type":"hashtag","offset":50,"length":8,"data":"Android"},{"type":"handle","offset":317,"length":9,"data":"LuPomkho"}],"date":"2020-06-18T08:22:21+00:00","link":"tg://resolve?domain=mobile_jobs&post=0","tags":[{"name":"mobile"},{"name":"android"},{"name":"javascript"},{"name":"cordova"}],"cities":[],"allowsRemote":true}},{"node":{"__typename":"Job","id":"71547486208-1001054966032","title":"Android разработчик","text":"#вакансия #android #офис #удаленка\n\nГород: Москва (Сокольники или Павелецкая), есть релокационный пакет\n\nФормат работы: офис, но также возможна удаленка из Москвы, Питера, Самары\n\nЗанятость: полная\n\nВилка: 180-250 т.р. на руки\n\nКоманда разработчиков ищет коллегу для создания и развития функционала мобильного банка.\n\nЧто требуется знать:\n\n• Паттерны GOF\n• Алгоритмы и структуры данных\n• Core Java SE 8\n• Kotlin\n• Android SDK API Level 19-29\n• Android Support Library\n• Dagger 2\n• RxJava 2\n• JUnit, Espresso, Mockito\n\nБудет плюсом:\n\n• Cicerone\n• Moxy\n• FCM\n• Fingerprint Authentication\n• Знание основ криптологии\n• Android Architecture Components\n• Gradle\n• REST API\n• Опыт работы с Google Maps SDK для Android\n\nНазвание компании: ПСБ\nhttps://www.psbank.ru/\nhttps://hh.ru/vacancy/34497271\n\nКонтакты: @max_gusev\ngusevms@psbank.ru","markup":[{"type":"hashtag","offset":0,"length":9,"data":"вакансия"},{"type":"hashtag","offset":10,"length":8,"data":"android"},{"type":"hashtag","offset":19,"length":5,"data":"офис"},{"type":"hashtag","offset":25,"length":9,"data":"удаленка"},{"type":"bold","offset":36,"length":6,"data":""},{"type":"bold","offset":105,"length":14,"data":""},{"type":"bold","offset":180,"length":10,"data":""},{"type":"bold","offset":199,"length":7,"data":""},{"type":"bold","offset":318,"length":20,"data":""},{"type":"bold","offset":518,"length":13,"data":""},{"type":"bold","offset":712,"length":18,"data":""},{"type":"link","offset":735,"length":21,"data":"https://www.psbank.ru/"},{"type":"link","offset":758,"length":30,"data":"https://hh.ru/vacancy/34497271"},{"type":"bold","offset":790,"length":9,"data":""},{"type":"handle","offset":800,"length":10,"data":"max_gusev"},{"type":"link","offset":811,"length":17,"data":"mailto:gusevms@psbank.ru"}],"date":"2020-06-18T08:14:18+00:00","link":"tg://resolve?domain=mobile_jobs&post=0","tags":[{"name":"mobile"},{"name":"android"},{"name":"java"},{"name":"kotlin"},{"name":"junit"},{"name":"gradle"},{"name":"rest"},{"name":"google-maps"}],"cities":[{"code":"moscow"}],"allowsRemote":true}},{"node":{"__typename":"Job","id":"71544340480-1001054966032","title":"Android разработчик","text":"#вакансия #удаленка #iOS #Android\nФормат работы: Удаленка или офис Екб\nЗанятость: Полная\nЗарплатная вилка от 100 до 150 net (зависит от уровня)\nУровень: middle/middle+\nКомпания: УБРиР\nКонтакты: @vikacrn\n\nСейчас мы в поиске мобильных разработчиков (Android/iOS).📱Для развития основного проекта - мобильного банка и написание нового (приложение для юр/лиц).\n\nПодробнее по вакансиям здесь:\niOS https://ekaterinburg.hh.ru/vacancy/37221491\nAndroid https://ekaterinburg.hh.ru/vacancy/37110186","markup":[{"type":"hashtag","offset":0,"length":9,"data":"вакансия"},{"type":"hashtag","offset":10,"length":9,"data":"удаленка"},{"type":"hashtag","offset":20,"length":4,"data":"iOS"},{"type":"hashtag","offset":25,"length":8,"data":"Android"},{"type":"bold","offset":153,"length":14,"data":""},{"type":"handle","offset":194,"length":8,"data":"vikacrn"},{"type":"bold","offset":358,"length":29,"data":""},{"type":"link","offset":392,"length":43,"data":"https://ekaterinburg.hh.ru/vacancy/37221491"},{"type":"link","offset":444,"length":43,"data":"https://ekaterinburg.hh.ru/vacancy/37110186"}],"date":"2020-06-18T08:05:01+00:00","link":"tg://resolve?domain=mobile_jobs&post=0","tags":[{"name":"mobile"},{"name":"android"},{"name":"ios"},{"name":"dotnet"}],"cities":[],"allowsRemote":true}},{"node":{"__typename":"Job","id":"71543291904-1001054966032","title":"Android разработчик","text":"#вакансия #vacancy #android #office #Москва #fulltime #developer #Kotlin #разработчик \nСоциальная сеть Noomera                                                                                                                   Город и адрес офиса: Москва, м. Парк Культуры\nФормат работы: офис \nЗанятость: полная \nЗарплатная вилка: от 190 000 до 240 000 на руки \n                                                                                                                                                         👉Задачи:\nПоддержка существующего Android проекта на Kotlin;\nРазвитие нового функционала;\nУчастие в проектирование продукта (API и внутренняя архитектура);\nВзаимодействие с дизайнерами и тестировщиками;\nПроведение code-review.                                                                                                   \n                                                                                                                                                                             👉Мы ожидаем от тебя:\nОпыт в разработке Android от 3-х лет;\nСвободное владение Java и Android SDK;\nЗнание шаблонов проектирования MVP, MVVP, набор компонентов Android Jetpack, умение их применять;\nПоддерживаемый и тестируемый код;\nУмение работать в команде, находить убедительные аргументы, конструктивно реагировать на аргументы коллег;\nЖелание непрерывно совершенствовать свои навыки.\n                                                                                                                                                          👉Мы приветствуем:\nОпыт работы с гибкими методологиями (Scrum, Kanban);\nОпыт работы с картами (google maps);\nУмение работать в команде, находите убедительные аргументы, конструктивно реагируете на аргументы коллег.               \n                                                                                                                                                                                                                                               👉Что мы предлагаем:                                                                                                                                               Оформление по ТК РФ                                                                                                                             Дружный коллектив профессионалов. В команде 3 высококлассных разработчика Android.                                                                                                                         Супер интересные задачи в международной социальной сети.                                                                                              Чай, кофе и вкусняшки.\nПо вакансии написать: tatia B. (+79776905011)","markup":[{"type":"hashtag","offset":0,"length":9,"data":"вакансия"},{"type":"hashtag","offset":10,"length":8,"data":"vacancy"},{"type":"hashtag","offset":19,"length":8,"data":"android"},{"type":"hashtag","offset":28,"length":7,"data":"office"},{"type":"hashtag","offset":36,"length":7,"data":"Москва"},{"type":"hashtag","offset":44,"length":9,"data":"fulltime"},{"type":"hashtag","offset":54,"length":10,"data":"developer"},{"type":"hashtag","offset":65,"length":7,"data":"Kotlin"},{"type":"hashtag","offset":73,"length":12,"data":"разработчик"},{"type":"bold","offset":87,"length":271,"data":""},{"type":"bold","offset":515,"length":8,"data":""},{"type":"bold","offset":1014,"length":20,"data":""},{"type":"bold","offset":1555,"length":17,"data":""},{"type":"bold","offset":2024,"length":160,"data":""},{"type":"link","offset":2737,"length":12,"data":"tel:+79776905011"}],"date":"2020-06-18T08:00:20+00:00","link":"tg://resolve?domain=mobile_jobs&post=0","tags":[{"name":"mobile"},{"name":"android"},{"name":"kotlin"},{"name":"java"},{"name":"google-maps"}],"cities":[{"code":"moscow"}],"allowsRemote":false}},{"node":{"__typename":"Job","id":"71532806144-1001054966032","title":"Android разработчик","text":"#вакансия #android #Москва #офис #fulltime\n\nКомпания - АНТОР БИЗНЕС РЕШЕНИЯ\nОфис: Москва, м.Тульская, ул. 4-й Рощинский проезд, д.19 (БЦ ВНИИ НЕФТЕМАШ)\n\nВакансия: Android разработчик (Java)\nЗарплата: 100000-120000 рублей.\n\nОбязанности:\n👨🏻‍💻Участие в разработке комплексных систем для автоматизации транспортной логистики;\n⚽️Работа в команде;\n👨🏻‍✈️Выполнение задач, поставленных руководителем проекта;\n👨🏻‍💻Развитие существующих и создание новых мобильных приложений для Android;\n📊Разработка UI, разработка бизнес-логики, организация взаимодействия с backend системы;\n👨🏻‍💻Организация взаимодействия со сторонними приложениями, оборудованием и внешними системами.\n\nТребования:\n👨🏻‍💻Опыт программирования на Java Android от 2 лет;\n👨🏻‍💻Знание Android Studio;\n👨🏻‍💻Технологии: Room, RXJava, EventBus;\n👨‍🎓Высшее образование;\n🇬🇧Английский язык (технический).\n\nУсловия:\n🎁Интересная работа в стабильной компании профессионалов;\n🎁Перспективные проекты;\n🎁Дружный коллектив единомышленников;\n🎁Оформление в соответствии с требованиями Трудового Кодекса РФ с первого дня;\n🎁Современный офис в центральной части города (в 10-минутной шаговой доступности от ст. метро «Тульская»);\n🎁Пятидневка с пн – пт с 09.30-17.30;\n🎁Уровень дохода: обсуждается на собеседовании;\n🎁Выплата заработной платы официально и стабильно на карту 2 раза в месяц;\n🎁Испытательный срок 3 месяца.\n\nКонтакты:\nTelegram: @AndreyBikmaev \nТелефон: 89851161727\nEmail: bikmaev@antor.ru","markup":[{"type":"hashtag","offset":0,"length":9,"data":"вакансия"},{"type":"hashtag","offset":10,"length":8,"data":"android"},{"type":"hashtag","offset":19,"length":7,"data":"Москва"},{"type":"hashtag","offset":27,"length":5,"data":"офис"},{"type":"hashtag","offset":33,"length":9,"data":"fulltime"},{"type":"handle","offset":1404,"length":14,"data":"AndreyBikmaev"},{"type":"link","offset":1429,"length":11,"data":"tel:89851161727"},{"type":"link","offset":1448,"length":16,"data":"mailto:bikmaev@antor.ru"}],"date":"2020-06-18T06:34:04+00:00","link":"tg://resolve?domain=mobile_jobs&post=0","tags":[{"name":"mobile"},{"name":"android"},{"name":"java"},{"name":"android-studio"}],"cities":[{"code":"moscow"}],"allowsRemote":false}},{"node":{"__typename":"Job","id":"103124303872-1001089317451","title":"Qa инженер","text":"QA\n\n#QA #тестировщик #россия #APi\n#ручноетестирование #middle #senior #тестирование #вакансия\nВ нашей молодой концептуальной IT-компании ООО \"Сколопендра\" (www.skolopendra.com) на данный момент открыта позиция QA тестировщика.\nВид деятельности  нашей Компании: ИТ-разработка полного цикла. \nСпециализация: высоконагруженные промышленные системы, процессинги данных, СППР, AI, запуск стартап-идей под ключ, электротехника.\nНаправление деятельности: технологический партнер для внешних заказчиков/собственные Hard&Soft Продукты.\n\nТребуемые знания, навыки, опыт\n• Знание основных технологий и методов тестирования\n• Понимание процесса разработки и тестирования ПО\n• Хорошие знания в области тест-дизайна\n• Опыт работы с баг-трекинговыми системами (jira)\n• Понимание основных принципов REST API\n• Опыт работы в тестировании от 1,5 лет\n• Высшее образование (предпочтительно техническое)\n\nБудет плюсом:\n• Базовые знания Java будут плюсом\n• Опыт автоматизации тестирования будет плюсом\n• Базовые знания технологии блокчейн и принципов работы бирж будут плюсом\nТакже мы ждем от кандидатов:\n• Умение работать в команде\n• Ответственность, самостоятельность, инициативность\n• Умение работать в условиях большого количества задач, оперативная реакция на задачи\n• Внимание к деталям, способность анализировать информацию\n• Стремление к саморазвитию, обучению, повышению технических компетенций\nФункциональные обязанности:\n• Проведение ручного функционального и регрессионного тестирования\n• Локализация, документирование, проверка дефектов\n• Разработка и актуализация тестовых планов, тестовых сценариев\n• Оценка трудоемкости задач\n• Работа с требованиями и документацией\nЗанятость : фултайм 5/2 на удалёнке \n#iOS\n#Android\n#mobiledevelopment \n#crossplatform #flutter #kotlinnative\n#мобильнаяразработка #вакансия\n\nКомпания ООО “СКОЛОПЕНДРА” (www.skolopendra.com) приглашает целеустремленных и одаренных в наш дружный коллектив. \nДавай вместе делать интересные проекты в современных стеках технологий. А мы предоставим возможности для скорейшего профессионального и личностного роста.\n\nВид деятельности Компании: ИТ-разработка полного цикла. \nСпециализация: высоконагруженные промышленные системы, процессинги данных, СППР, AI, запуск стартап-идей под ключ, электротехника.\nНаправление деятельности: технологический партнер для внешних заказчиков/собственные Hard&Soft Продукты.\n\nОфис: Москва, м.Павелецкая, Космодамианская наб., 52/10\nФормат работы: в офисе/удаленно\nЗанятость: full-time (целевой формат) /part-time (возможный старт)\nЗП: по итогам собеседования от 600-800 рублей в час на руки , 3-х месячный цикл пересмотра grade\nОформление: по ТК\n\nДолжность: Mid/Mid+/Sen\nКонтакты: team@skolopendra.com\nТелеграмм : @Tufelka1","markup":[{"type":"hashtag","offset":4,"length":3,"data":"QA"},{"type":"hashtag","offset":8,"length":12,"data":"тестировщик"},{"type":"hashtag","offset":21,"length":7,"data":"россия"},{"type":"hashtag","offset":29,"length":4,"data":"APi"},{"type":"hashtag","offset":34,"length":19,"data":"ручноетестирование"},{"type":"hashtag","offset":54,"length":7,"data":"middle"},{"type":"hashtag","offset":62,"length":7,"data":"senior"},{"type":"hashtag","offset":70,"length":13,"data":"тестирование"},{"type":"hashtag","offset":84,"length":9,"data":"вакансия"},{"type":"link","offset":156,"length":19,"data":"http://www.skolopendra.com"},{"type":"hashtag","offset":1696,"length":4,"data":"iOS"},{"type":"hashtag","offset":1701,"length":8,"data":"Android"},{"type":"hashtag","offset":1710,"length":18,"data":"mobiledevelopment"},{"type":"hashtag","offset":1730,"length":14,"data":"crossplatform"},{"type":"hashtag","offset":1745,"length":8,"data":"flutter"},{"type":"hashtag","offset":1754,"length":13,"data":"kotlinnative"},{"type":"hashtag","offset":1768,"length":20,"data":"мобильнаяразработка"},{"type":"hashtag","offset":1789,"length":9,"data":"вакансия"},{"type":"link","offset":1828,"length":19,"data":"http://www.skolopendra.com"},{"type":"link","offset":2670,"length":20,"data":"mailto:team@skolopendra.com"},{"type":"handle","offset":2703,"length":9,"data":"Tufelka1"}],"date":"2020-06-17T22:40:04+00:00","link":"tg://resolve?domain=qa_jobs&post=0","tags":[{"name":"qa"},{"name":"rest"},{"name":"java"},{"name":"ios"},{"name":"android"},{"name":"flutter"}],"cities":[{"code":"moscow"}],"allowsRemote":true}},{"node":{"__typename":"Job","id":"103121158144-1001089317451","title":"Qa инженер","text":"Всем привет! \n\nТребуется Middle QA или Senior QA\nдля ручного тестирования мобильных приложений.\n\nРабота удаленно. \nОплата – часовая ставка с занятостью ~6-8 часов в день, от 500\\час. \nЗанятость по московскому времени, в рабочие часы. \n\nТребования к соискателю:\n1. Опыт ручного тестирование мобильных приложений от 1 года;\n2. Знание особенностей версий OS;\n3. Знание инструментов разработчика под Android;\n4. Понимание различий тестирования веб \\ мобайл;\n5. Опыт тестирования api;\n6. Опыт работы с БД;\n7. Высокий уровень самоорганизации и коммуникативных навыков.\n\nВ процессе работы возможно обучение автоматизации тестирования. \n\nЖду резюме и информацию о себе – личным сообщением. Каждому из соискателей я отвечу до 19 июня. \n\n\n🎱QA\n🎱Devquality\n🎱Тестирование бэкенда, фронта, автоматизация\n🎱 Часовой рейт, удаленное сотрудничество. #россия #москва #подмосковье #удаленное #вакансия #работавит #работаврегионах\n\nБлагодарю.","markup":[{"type":"hashtag","offset":836,"length":7,"data":"россия"},{"type":"hashtag","offset":844,"length":7,"data":"москва"},{"type":"hashtag","offset":852,"length":12,"data":"подмосковье"},{"type":"hashtag","offset":865,"length":10,"data":"удаленное"},{"type":"hashtag","offset":876,"length":9,"data":"вакансия"},{"type":"hashtag","offset":886,"length":10,"data":"работавит"},{"type":"hashtag","offset":897,"length":16,"data":"работаврегионах"}],"date":"2020-06-17T20:52:03+00:00","link":"tg://resolve?domain=qa_jobs&post=0","tags":[{"name":"qa"},{"name":"android"}],"cities":[{"code":"moscow"}],"allowsRemote":true}},{"node":{"__typename":"Job","id":"71502397440-1001054966032","title":"Mobile разработчик","text":"#вакансия #android #kotlin #junior\nФормат работы: удаленка\n\nЗанятость: полная\n\nГород: Не имеет значения\n\nЗарплатная вилка: 600-800$ в месяц\n\nОписание вакансии: Ищу android-разработчика с горящими глазами, знающего основы работы с sdk admob, firebase, appmetrica, работа с подписками в google play. На данный момент нужно доделать текущее приложение и в дальнейшем его развивать и поддерживать. Будут адекватные условия и большая возможность проф.развития. Работа с готовыми исходниками \n\nНазвание компании: Liquid Mobile\n\nКонтакты: @JohnSelf","markup":[{"type":"hashtag","offset":0,"length":9,"data":"вакансия"},{"type":"hashtag","offset":10,"length":8,"data":"android"},{"type":"hashtag","offset":19,"length":7,"data":"kotlin"},{"type":"hashtag","offset":27,"length":7,"data":"junior"},{"type":"handle","offset":532,"length":9,"data":"JohnSelf"}],"date":"2020-06-17T15:42:09+00:00","link":"tg://resolve?domain=mobile_jobs&post=0","tags":[{"name":"mobile"},{"name":"android"},{"name":"kotlin"},{"name":"admob"},{"name":"firebase"},{"name":"playframework"}],"cities":[],"allowsRemote":true}}]}}},"context":{}}