{"hash":"f5f6bf98bd95e769321482904cbbd488f77922fd","data":{"records":{"id":"java","name":"java","belongsTo":{"totalCount":242,"pageInfo":{"totalPages":25,"currentPage":11},"edges":[{"node":{"__typename":"Job","id":"103688437760-1001089317451","title":"Qa engineer","text":"#вакансия #москва #полнаязанятость #qaengineer #auto \nКомпания: #Mетрквадратный www.m2.ru\nЛокация: м.Белорусская \nФормат работы: офис (удаленная до сентября)  \nЗ/п: от 120к - 180к на руки\nКонтакты: @maxdmitrov\n\nЭто экосистема недвижимости, которая помогает клиентам решать любые жилищные вопросы: от поиска вариантов и оформления сделки до организации ремонта и переезда в новую квартиру. Мы также создаем решения для партнёров и профессиональных участников рынка недвижимости.\n\nНаш стэк:\n• Java\n • Node.js\n • React, TypeScript\n • Kafka, ElasticSearch, gRPC\n • Docker\n\nЧем предстоит заниматься:\n• заниматься задачами по автоматизации тестирования. \n• анализировать и тестировать требования к разрабатываемым приложениям;\n • писать приемочные критерии к пользовательским историям;\n • проводить функциональное, регрессионное и smoke тестирование;\n \n\nЧего мы ждем:\n • глубокое понимание процессов тестирования и разработки ПО;\n • опыт интеграционного тестирования:\n    - системная интеграция;\n    - компонентная интеграция\n • опыт тестирования АРI;\n • опыт автоматизации тестирования на любом стеке.\n\nБудет плюсом\n • опыт исследовательского тестирования;\n • опыт тестирования ПО с микросервисной архитектурой.\n\nМы предлагаем:\n • белая конкурентная ЗП, официальное оформление;\n • гибкий график работы;\n • ДМС, компенсация фитнеса, льготная ставка по ипотеке;\n • комфортный офис в БЦ «Белая площадь» (минута от метро): лаундж-зоны, бариста, фрукты.","markup":[{"type":"hashtag","offset":0,"length":9,"data":"вакансия"},{"type":"hashtag","offset":10,"length":7,"data":"москва"},{"type":"hashtag","offset":18,"length":16,"data":"полнаязанятость"},{"type":"hashtag","offset":35,"length":11,"data":"qaengineer"},{"type":"hashtag","offset":47,"length":5,"data":"auto"},{"type":"hashtag","offset":64,"length":15,"data":"Mетрквадратный"},{"type":"link","offset":80,"length":9,"data":"http://www.m2.ru"},{"type":"handle","offset":198,"length":11,"data":"maxdmitrov"},{"type":"bold","offset":478,"length":11,"data":""},{"type":"bold","offset":569,"length":26,"data":""},{"type":"bold","offset":847,"length":15,"data":""},{"type":"bold","offset":1097,"length":14,"data":""},{"type":"bold","offset":1206,"length":16,"data":""}],"date":"2020-06-25T07:56:33+00:00","link":"tg://resolve?domain=qa_jobs&post=98885","tags":[{"name":"qa"},{"name":"java"},{"name":"nodejs"},{"name":"reactjs"},{"name":"typescript"},{"name":"kafka"},{"name":"elasticsearch"},{"name":"docker"}],"cities":[{"code":"moscow"}],"allowsRemote":true}},{"node":{"__typename":"Job","id":"2255486976-1001134745498","title":"Devops инженер","text":"#вакансия #Systemarchitect #DevOps\nГород и адрес офиса: Витебск\nФормат работы: удаленка\nЗарплатная вилка: от 3000 до 3900$\nОписание вакансии: \nсначала  System architect потом DevOps.\nMust-Have Skills DevOps AWS,Google Cloud, MySQL, PHP English, Redis, Nice-to-Have Skills Java\nНемецкий заказчик\nНазвание компании: ООО «Дженерал Софт»\nКонтакты: @Hr_mihail_gurin\n\n—\n\n👉 Обсуждение вакансии в чате @devops_jobs","markup":[{"type":"hashtag","offset":0,"length":9,"data":"вакансия"},{"type":"hashtag","offset":10,"length":16,"data":"Systemarchitect"},{"type":"hashtag","offset":27,"length":7,"data":"DevOps"},{"type":"handle","offset":344,"length":16,"data":"Hr_mihail_gurin"},{"type":"handle","offset":395,"length":12,"data":"devops_jobs"}],"date":"2020-06-25T07:35:38+00:00","link":"tg://resolve?domain=devops_jobs_feed&post=2151","tags":[{"name":"amazon-web-services"},{"name":"cloud"},{"name":"mysql"},{"name":"php"},{"name":"redis"},{"name":"java"},{"name":"google-cloud-platform"}],"cities":[{"code":"vitebsk"},{"code":"nice"}],"allowsRemote":true}},{"node":{"__typename":"Job","id":"2254438400-1001134745498","title":"Devops инженер","text":"Инженер DevOps \n#вакансия #Москва #Сколково #DevOps \n\nКомпания: Farzoom (финтех стартап 2016 года, резидент Сколково) \nЛокация: Москва, МЦД Сколково \nФормат работы: частично удаленный формат  \nЗанятость: Полная  \n💰Зарплатная вилка: от 180т.р до 230т.р net, премии \n\nПроект по разработке облачной фронтальной системы для банковского сектора.  \n\nЧто мы используем: микросервисная архитектура, Java 8, Spring Boot, Camunda BPM, Gitlab, Jenkins, Ansible, Docker Swarm, OpenStack, Nexus. Везде стоит Linux CentOS. \n \nСейчас идет переход на стек: Kubernetes, Coreos, Terraform, Podman. \n \n🎯 Что предстоит делать: \nПоддержка инфраструктуры в облаке (порядка 60 серверов/виртуалок) \nРазворачивание новых контуров \nСборка сервисов \nПоддержка CI/CD (в том числе настройка пайплайнов) \nИнтеграция контура и помощь в поддержке решения \n \n🎯  Мы предлагаем: \nОформление по ТК РФ с первого рабочего дня \nЕжегодные премии \nОфис рядом с МЦД Сколково, возможность часть времени работать удаленно \n\n👉 Контакты: @edzyuba\n\n—\n\n👉 Обсуждение вакансии в чате @devops_jobs","markup":[{"type":"hashtag","offset":16,"length":9,"data":"вакансия"},{"type":"hashtag","offset":26,"length":7,"data":"Москва"},{"type":"hashtag","offset":34,"length":9,"data":"Сколково"},{"type":"hashtag","offset":44,"length":7,"data":"DevOps"},{"type":"handle","offset":996,"length":8,"data":"edzyuba"},{"type":"handle","offset":1039,"length":12,"data":"devops_jobs"}],"date":"2020-06-25T07:28:33+00:00","link":"tg://resolve?domain=devops_jobs_feed&post=2150","tags":[{"name":"dotnet"},{"name":"java"},{"name":"spring"},{"name":"gitlab"},{"name":"jenkins"},{"name":"ansible"},{"name":"docker"},{"name":"linux"},{"name":"centos"},{"name":"kubernetes"},{"name":"spring-boot"}],"cities":[{"code":"moscow"}],"allowsRemote":true}},{"node":{"__typename":"Job","id":"2253389824-1001134745498","title":"Devops инженер","text":"#вакансия #Москва #офис #DevOps\n\n▫️ВАКАНСИЯ: Devops engineer\nКомпания: Северсталь-Диджитал\nФормат работы: удаленно на пандемии, далее офис  \nЛокация: Москва Офис на м. Войковская или МЦК Балтийская\nЗанятость: полная \nЗарплатная вилка: до 140-180к gross middle, 180-230к gross senior  + 30% годовой бонус\n\nКомпания занимается внедрением моделей машинного обучение в производстве. Мы ищем devops инженера для поддержки и развития платформы k8s, Kafka, Hadoop, Gitlab. Работа в небольшой команде, где ваши идеи будут быстро находить реализацию.\n\n▫️Обязанности:\n • Настройка, обновление, GitLab, GitlabCI, Nexus/Artifactory; \n • Организация сбора логов с компонентов IoT платформы Северстали (GrayLog); \n • Организация сбора метрик, описывающих состояние IoT платформы; \n • Создание дашбордов и алертов в Grafana; \n • Автоматизированный выпуск релизов. \n\n▫️Требования:\n• Опыт работы в роли DevOps инженера или аналогичной позиции от 1-го года;  \n• Опыт работы с Linux в роли администратора, навыки работы с Docker; \n• Опыт работы с Hadoop, Kafka, Kubernetes. \n\n▫️Желательно:\n• Умение быстро изучать англоязычные технические ресурсы; \n• Экспертные навыки работы с ОС семейства Linux; \n• Навыки работы на языках программирования Bash, Python, Java, Scala.\n• Опыт работы с Prometeus, Zabbix, ELK\n\n▫️Условия:\n•  Гибкое начало рабочего дня\n•  Официальное оформление\n•  Корпоративную мобильную связь, медицинскую страховку и страхование жизни\n•  Участие в профессиональных конференциях\n•  Современное рабочее пространство и уютные зоны отдыха\n\nКонтакты @DaynekoRoman, @ikart\n\n—\n\n👉 Обсуждение вакансии в чате @devops_jobs","markup":[{"type":"hashtag","offset":0,"length":9,"data":"вакансия"},{"type":"hashtag","offset":10,"length":7,"data":"Москва"},{"type":"hashtag","offset":18,"length":5,"data":"офис"},{"type":"hashtag","offset":24,"length":7,"data":"DevOps"},{"type":"handle","offset":1543,"length":13,"data":"DaynekoRoman"},{"type":"handle","offset":1558,"length":6,"data":"ikart"},{"type":"handle","offset":1599,"length":12,"data":"devops_jobs"}],"date":"2020-06-25T07:26:49+00:00","link":"tg://resolve?domain=devops_jobs_feed&post=2149","tags":[{"name":"kafka"},{"name":"hadoop"},{"name":"gitlab"},{"name":"linux"},{"name":"docker"},{"name":"kubernetes"},{"name":"bash"},{"name":"python"},{"name":"java"},{"name":"scala"}],"cities":[{"code":"moscow"}],"allowsRemote":true}},{"node":{"__typename":"Job","id":"1734344704-1001091028994","title":"Java developer","text":"#java#spring#сбербанк#москва\nКомпания: Сбербанк\nПозиция: Java backend-developer (Москва)\nЗп: от 250 тыс. net + годовой бонус\n \nЗадачи:\nРазработка backend-части высоконагруженной инновационной аналитической системы на Java; разработка интеграционных сервисов и микросервисных компонентов на Java (стандарты JMS, REST API); написание Unit-тестов; рефакторинг и оптимизация кода; участие в принятии архитектурных решений и исследовательские задачи.\n\nМы ожидаем:\nОпыт коммерческой разработки на Java от 2-х лет; понимание принципов ООП; уверенное знание Java SE (желательно, Java SE 8), Collection, JDBC, Multithreading; знания и опыт использования: Spring Framework/ Boot (Spring MVC, Spring Security, SpringJDBC); опыт написания Unit-тестов (Junit, TestNG); уверенное знание SQL; опыт работы с Git, Maven.\n\nКонтакт: Екатерина (+79250716855, @katyavarlygina)","markup":[{"type":"link","offset":825,"length":12,"data":"tel:+79250716855"},{"type":"handle","offset":839,"length":15,"data":"katyavarlygina"}],"date":"2020-06-24T11:21:18+00:00","link":"tg://resolve?domain=jvmjobs&post=1654","tags":[{"name":"java"},{"name":"jvm"},{"name":"spring"},{"name":"dotnet"},{"name":"rest"},{"name":"jdbc"},{"name":"junit"},{"name":"sql"},{"name":"git"},{"name":"maven"},{"name":"spring-mvc"},{"name":"spring-security"}],"cities":[{"code":"moscow"}],"allowsRemote":false}},{"node":{"__typename":"Job","id":"17127440384-1001110946746","title":"Js developer","text":"#вакансия #js #extjs #frontend\nГород: Москва (М. Киевская)\nФормат работы: удаленная работа\nЗанятость: полная\nЗ.п.: 90 - 150 т.р. net\n\nFrontend developer Doczilla\nСкиллы: JavaScript, HTML5, CSS3 (будет плюсом: C/С++/Java).\n\nПроект Doczilla Pro - платформа для подготовки документов и совместной работы с ними.\n- Клиентская часть разрабатывается на \"чистом\" JavaScript без использования сторонних фреймворков. \n- Подход к разработке клиентской части похож на фреймворк Sencha ExtJS с его объектно-ориентированным стилем описания JavaScript-классов, однако избавлен от всего лишнего.\n- Серверная часть Doczilla Pro разрабатывается на Java, использование сторонних библиотек минимально.\n- Для решения задач интеграции с внешними сервисами применяется язык программирования BL из состава фреймворка Z8 (https://github.com/zenframework/z8).\n- Для понимания специфики проекта мы предлагаем выполнить тестовое задание.\n\nИнтереснейший и очень перспективный проект от команды профессиональных юристов. Присоединяйся!\n\nНазвание компании: Лекс Борелис\nLexborealis.com\nDoczilla.ru\n\nСтрельченко Дмитрий \n+7-960-869-03-03\nstrelchenko@doczilla.ru \ntelegram @d_strelchenko","markup":[{"type":"hashtag","offset":0,"length":9,"data":"вакансия"},{"type":"hashtag","offset":10,"length":3,"data":"js"},{"type":"hashtag","offset":14,"length":6,"data":"extjs"},{"type":"hashtag","offset":21,"length":9,"data":"frontend"},{"type":"link","offset":798,"length":34,"data":"https://github.com/zenframework/z8"},{"type":"link","offset":1040,"length":15,"data":"http://Lexborealis.com"},{"type":"link","offset":1056,"length":11,"data":"http://Doczilla.ru"},{"type":"link","offset":1090,"length":16,"data":"tel:+7-960-869-03-03"},{"type":"link","offset":1107,"length":23,"data":"mailto:strelchenko@doczilla.ru"},{"type":"handle","offset":1141,"length":14,"data":"d_strelchenko"}],"date":"2020-06-24T09:54:00+00:00","link":"tg://resolve?domain=javascript_jobs_feed&post=16334","tags":[{"name":"javascript"},{"name":"extjs"},{"name":"dotnet"},{"name":"html"},{"name":"css"},{"name":"java"},{"name":"github"}],"cities":[{"code":"moscow"},{"code":"kiev"}],"allowsRemote":true}},{"node":{"__typename":"Job","id":"1733296128-1001091028994","title":"Java разработчик","text":"Добрый день. Я представляю международную IT-компанию Andersen (www.andersenlab.com). \nМы находимся в поиске опытного Java разработчика к нам в команду.\nПрезентация  нашей компании, офисов и условий:\nhttps://drive.google.com/open?id=1GN1WMxTJ-40Mub0fA7H9wYs_kish0dQY\n\nЗаказчик: финансовый конгломерат, крупнейший транснациональный и универсальный банк России, Центральной и Восточной Европы. Уникальная возможность работать в большой банковской системе с высокой нагрузкой. Эта платформа оптимизирует работу одного из крупнейших банков в России. Необходимо развивать как клиента банка, так и систему внутреннего использования. \n\nЧем хороша компания:\nСтабильность:\nна рынке почти 30 лет\nКредиты:\nвыдаются около 30 % кредитов \nМасштабность: \nболее 20 000 отделений\n\nПроект: \nРабота по новым функциям интернет-банкинга, также доработка существующего функционала. Проект разделен на микросервисы, работа ведется в опытной команде профессионалов. Проект является долгосрочным. \n\nПроцессы: работа по скраму, 2 недельными спринтами\n\nТребования: \n- коммерческий опыт разработки на Java от 1 года;\n- опыт использования Spring, Hibernate;\n- опыт работы с микросервисной архитектурой;\n- ответственное отношение к выполняемым задачам;\n- знания английского языка не требуются\n- Заработная плата от 100 тыс руб и выше, обсуждается после прохождения технического собеседования.\n\n Если мое предложение вас заинтересовала, пишите на почту: y.potapenko@andersenlab.com или в личные сообщения.","markup":[{"type":"link","offset":63,"length":19,"data":"http://www.andersenlab.com"},{"type":"link","offset":199,"length":66,"data":"https://drive.google.com/open?id=1GN1WMxTJ-40Mub0fA7H9wYs_kish0dQY"},{"type":"link","offset":1422,"length":27,"data":"mailto:y.potapenko@andersenlab.com"}],"date":"2020-06-24T09:08:16+00:00","link":"tg://resolve?domain=jvmjobs&post=1653","tags":[{"name":"java"},{"name":"jvm"},{"name":"spring"},{"name":"hibernate"}],"cities":[],"allowsRemote":false}},{"node":{"__typename":"Job","id":"1732247552-1001091028994","title":"Java разработчик","text":"#Java #Spring #8bitgroup\n\nГород и адрес офиса: #Москва, ст.м. Тульская W-Плаза \nФормат работы: #офис или #remote\nЗанятость: #полная, #fulltime\nЗарплатная вилка: 200 000 – 300 000 руб.          \n\n8bitgroup в поиске #Java-разработчиков: Teamlead + 2 разработчика Mid или Senior\nРассмотрим по одному или переход командой. За каждый выход- бонус 50к\n\n Компания разрабатывает собственные продукты – партнёрские программы и рекламные системы CPA, RTB, CPI, mobile и игровые проекты с 2012г., владеет СРА-сетью Leadbit, и успешным игровым проектом - ссылку в личку.\nТут можно посмотреть офис и плюшки https://www.facebook.com/8bitgroup\n                                         \nНашим игровым проектам (БК с лицензией РУ, гэмблинг, игры) нужны явисты. У нас скилловая растущая команда. Все лето - свободное посещение офиса, далее по ситуации с Covid. Доставим железо и удобное кресло с трудовым договором на дом. \n\n Задачи: \n • Проектирование и разработка интеграционной платформы и ее инструментов ; ссылка на проект в личку.\n • Разработка решений с использованием открытого ПО;\n • Разработка модульных и интеграционных тестов;\n • Ревью кода;\n\nОпыт и навыки:\n • Опыт разработки промышленных (high load, low latency) приложений\n • Знание основных алгоритмов и структур данных;\n • Знание паттернов проектирования ПО;\n • Знание Java Сore\n • Опыт разработки веб-сервисов (REST, HTTP);\n • Опыт написания и оптимизации SQL запросов (MySQL);\n • Понимание требований ACID и уровней изолированности транзакций;\n • Уверенное знание фреймворка Spring\n • Знание системы управления версиями (Git); Jira желательно. \n \nМы предлагаем: \n• Оклад в указанной вилке от ожиданий и опыта\n• Соцпакет: футбол по вторникам, ДМС ВСК со стоматологией \n• Гибкий график - лояльное начало дня, 8 часов рабочий день, сейчас удаленка до сентября\n• Возможность выбрать машину (Мак или Линукс или др ПО) - доставим домой \n• Формат «работа на удаленке» по болезни  и карантину\n• Переиндексация ЗП и возможность пересмотра грейда и ЗП 1 раз в год \n• Офис с панорамой на Москву-реку и летняя веранда с шашлыками, гамаками и пиццой\n\nКонтакты: Мариэтта IT HR  @mari_et\nпочта hr@dats.team","markup":[{"type":"hashtag","offset":0,"length":5,"data":"Java"},{"type":"hashtag","offset":6,"length":7,"data":"Spring"},{"type":"hashtag","offset":14,"length":10,"data":"8bitgroup"},{"type":"hashtag","offset":47,"length":7,"data":"Москва"},{"type":"hashtag","offset":95,"length":5,"data":"офис"},{"type":"hashtag","offset":105,"length":7,"data":"remote"},{"type":"hashtag","offset":124,"length":7,"data":"полная"},{"type":"hashtag","offset":133,"length":9,"data":"fulltime"},{"type":"hashtag","offset":214,"length":5,"data":"Java"},{"type":"link","offset":594,"length":34,"data":"https://www.facebook.com/8bitgroup"},{"type":"handle","offset":2115,"length":8,"data":"mari_et"},{"type":"link","offset":2130,"length":12,"data":"mailto:hr@dats.team"}],"date":"2020-06-24T09:07:54+00:00","link":"tg://resolve?domain=jvmjobs&post=1652","tags":[{"name":"java"},{"name":"jvm"},{"name":"spring"},{"name":"mobile"},{"name":"rest"},{"name":"sql"},{"name":"mysql"},{"name":"git"}],"cities":[{"code":"moscow"}],"allowsRemote":true}},{"node":{"__typename":"Job","id":"1731198976-1001091028994","title":"Java разработчик","text":"#вакансия  #офис #удаленка #регионы #Москва #Java #Spring #senior #middle #backend\nЛокация: #регион #Москва\nФормат работы: #офис #fulltime #удаленка\nЗ/п: 150-250 NET\nКомпания: МД-IT\nВедущий разработчик/Разработчик JAVA  \nВсем привет!\n\n✅Нужны классные разработчики Java уровня Middle, Senior, Lead\n\n👉Немного о нас: \nЦентр разработки МД-IT реализует проекты федерального масштаба под ключ. Наши специалисты работают с крупнейшими системными интеграторами, выполняя задачи по проектированию, разработке, тестированию, сопровождению и эксплуатации внедренных решений. \nНаши офисы расположены в Москве, Ростове-на –Дону, Нижнем Новгороде. \n\n👉Что ждем от Вас:\n* Уверенные знания java 8+, spring boot, будет плюсом знание Kotlin. \n Глубокие знания и практический опыт использования Java в нагруженных многопоточных приложениях Hibernate, Spring, Maven3, ХML\n\n* Опыт проектирования версионнированных REST-API, знание grpc будет плюсом\n\n* Понимание принципов асинхронного программирования, знание одного из: netty, nio, r2dbc\n\n* Желателен опыт использования библиотек реактивного программирования (rxjava, reactor) или опыт работы с vert.x, ratpack или http4\n\n*Приветствуется опыт работы с современными архитектурами, Apache Ignite, Apache Kafka\n\n👉Что мы можем предложить Вам:\n\n* Работа: удаленка\n\n*График работы 5/2, команда работает с 9(10) до 18(19) ч. по МСК\n\n*Заработную плату белую, конкурентоспособную (рассмотрим ваши предложения).\n\n* Работа в команде сообразительных, открытых, стремящихся к развитию единомышленников.\n\n* Крупные и долгосрочные проекты, увеличивающие профессиональный кругозор и опыт работы. \n* Плюшки к чаю и кофе, оплачиваемая мобильная связь, оплачиваемые тренинги и курсы для повышения квалификации. \n\n🖍 Вопросы, резюме прошу писать в личку Елене @Elenazlh","markup":[{"type":"hashtag","offset":0,"length":9,"data":"вакансия"},{"type":"hashtag","offset":11,"length":5,"data":"офис"},{"type":"hashtag","offset":17,"length":9,"data":"удаленка"},{"type":"hashtag","offset":27,"length":8,"data":"регионы"},{"type":"hashtag","offset":36,"length":7,"data":"Москва"},{"type":"hashtag","offset":44,"length":5,"data":"Java"},{"type":"hashtag","offset":50,"length":7,"data":"Spring"},{"type":"hashtag","offset":58,"length":7,"data":"senior"},{"type":"hashtag","offset":66,"length":7,"data":"middle"},{"type":"hashtag","offset":74,"length":8,"data":"backend"},{"type":"hashtag","offset":92,"length":7,"data":"регион"},{"type":"hashtag","offset":100,"length":7,"data":"Москва"},{"type":"hashtag","offset":123,"length":5,"data":"офис"},{"type":"hashtag","offset":129,"length":9,"data":"fulltime"},{"type":"hashtag","offset":139,"length":9,"data":"удаленка"},{"type":"handle","offset":1772,"length":9,"data":"Elenazlh"}],"date":"2020-06-24T08:41:15+00:00","link":"tg://resolve?domain=jvmjobs&post=1651","tags":[{"name":"java"},{"name":"jvm"},{"name":"spring"},{"name":"dotnet"},{"name":"kotlin"},{"name":"hibernate"},{"name":"maven"},{"name":"rest"},{"name":"apache"},{"name":"kafka"},{"name":"spring-boot"}],"cities":[{"code":"moscow"}],"allowsRemote":true}},{"node":{"__typename":"Job","id":"71900856320-1001054966032","title":"Android разработчик","text":"#Android #Java #Kotlin #вакансия \n#НижнийНовгород #Ижевск #Владимир #Белгород \nВакансия: Android разработчик . Готовы принят в штат команды мобильной разработки. Локация: Нижний Новгород, Ижевск, Владимир или Белгород.\nРассмотрим кандидатов из любого из перечисленных регионов или готовых переехать туда.\nКомпания: разработчик ИТ, продукты \"под заказ\", 90% приложений для банковской сферы.\nФормат работы: Office/remote Занятость: Full-time Зарплатная вилка: 90.000-180.000 net (по итогам собеседования, есть индексация и рост з\\п)\n🏢Адреса офисов в указанных городах:г. Н.Новгород, ул.Керченская, д.13;\nг. Владимир, ул.Горького, д.56а, г. Ижевск, ул. Вадима Сивкова.д.290 и г.Белгород (возможен формат домашнего офиса или аренды офиса в доступности от кандидата).\n☕️Формат работы: офис,начало-конец рабочего дня гибкие,по договоренности,официальное оформление. Удаленный вариант есть,но для указанных регионов.\n🔆Занятость: полный день\n📋Описание вакансии: ищу с опытом программирования на Java и/или Kotlin.\n😍Гибкий подход к каждому специалисту, корпоративный английский; стремительно растущая компания;меняем жизнь к лучшему при помощи технологий IT;оплачиваемые конференции и внутренние тренинги/курсы;ежегодный пересмотр заработной платы по результатам работы. @ElenaTsatsenko","markup":[{"type":"hashtag","offset":0,"length":8,"data":"Android"},{"type":"hashtag","offset":9,"length":5,"data":"Java"},{"type":"hashtag","offset":15,"length":7,"data":"Kotlin"},{"type":"hashtag","offset":23,"length":9,"data":"вакансия"},{"type":"hashtag","offset":34,"length":15,"data":"НижнийНовгород"},{"type":"hashtag","offset":50,"length":7,"data":"Ижевск"},{"type":"hashtag","offset":58,"length":9,"data":"Владимир"},{"type":"hashtag","offset":68,"length":9,"data":"Белгород"},{"type":"handle","offset":1266,"length":15,"data":"ElenaTsatsenko"}],"date":"2020-06-23T20:07:25+00:00","link":"tg://resolve?domain=mobile_jobs&post=68570","tags":[{"name":"mobile"},{"name":"android"},{"name":"java"},{"name":"kotlin"},{"name":"dotnet"}],"cities":[{"code":"izhevsk"},{"code":"vladimir"},{"code":"belgorod"},{"code":"nizhny-novgorod"}],"allowsRemote":true}}]}}},"context":{}}