{"hash":"f5f6bf98bd95e769321482904cbbd488f77922fd","data":{"records":{"id":"web","name":"web","belongsTo":{"totalCount":155,"pageInfo":{"totalPages":16,"currentPage":12},"edges":[{"node":{"__typename":"Job","id":"103185121280-1001089317451","title":"Qa инженер","text":"#вакансия #fulltime #офис #москва\n\nНаша компания (ООО Солид Дев) находится в поиске ручного тестировщика (но с желанием развиваться в автоматизации), который будет помогать нам совершенствовать наши продукты и сервисы! \n\nЕсли ты:\n- Тестишь web-приложения уже больше 1 года\n- Имеешь базовые знания SQL и опыт написания автотестов на python\n- Хочешь работать в команде профессионалов и развиваться\n\nТо пиши мне в личку или присылай резюме на почту - soliddevhr@gmail.ru расскажу подробнее про функционал и про наши плюшки)\n\nСтанция м.Бабушкинская\nВилка: от 120 на руки","markup":[{"type":"hashtag","offset":0,"length":9,"data":"вакансия"},{"type":"hashtag","offset":10,"length":9,"data":"fulltime"},{"type":"hashtag","offset":20,"length":5,"data":"офис"},{"type":"hashtag","offset":26,"length":7,"data":"москва"},{"type":"bold","offset":221,"length":8,"data":""},{"type":"bold","offset":397,"length":19,"data":""},{"type":"link","offset":448,"length":19,"data":"mailto:soliddevhr@gmail.ru"},{"type":"bold","offset":522,"length":7,"data":""},{"type":"bold","offset":545,"length":5,"data":""}],"date":"2020-06-18T14:07:39+00:00","link":"tg://resolve?domain=qa_jobs&post=0","tags":[{"name":"qa"},{"name":"web"},{"name":"sql"},{"name":"python"}],"cities":[{"code":"moscow"}],"allowsRemote":false}},{"node":{"__typename":"Job","id":"26426212352-1001075660570","title":"Php разработчик","text":"#вакансия  #fulltime #Fullstack #спб #санкт_петербург\nВакансия: Fullstack-разработчик\nКомпания: 4people\nГород: Санкт-Петербург. ст.м. Обводный канал\nФормат работы: #офис\nЗанятость: #полная\nЗ/п: от 140 000 до 250 000 р. \n\n🔎В нашу команду в связи с расширением срочно разыскивается Fullstack Web-программист!\n\n🔷Основные обязанности:\n- Разработка новых сервисов.\n- Оптимизация и поддержка текущих проектов.\n- Мы используем: PHP7, JavaScript, Redis, MongoDB, YouTrack.\n\n🔷Добро пожаловать, в нашу команду если вы:\n- Имеете опыт разработки на PHP.\n- Знаете ООП, умеете применять на практике основные паттерны.\n- Знакомы с JS фреймворками.\n- Работали с MVC-фреймворками на базе PHP.\n- Разбираетесь и умеете использовать разные хранилища данных там где они необходимы.\n\n🔷Мы предлагаем:\n- Достойный уровень заработной платы (зависит от пожеланий и профессионально уровня кандидата).\n- Поездки на ИТ-конференции, митапы, учебные курсы за счет компании.\n- Возможность гибкого начала рабочего дня.\n- Бесплатные корпоративные обеды.\n- Абонемент в спорт зал за счет компании.\n\nЖдем вопросы и резюме: \n✍️ @hrkaterina \n✉️ ekaterina.4people@gmail.com","markup":[{"type":"hashtag","offset":0,"length":9,"data":"вакансия"},{"type":"hashtag","offset":11,"length":9,"data":"fulltime"},{"type":"hashtag","offset":21,"length":10,"data":"Fullstack"},{"type":"hashtag","offset":32,"length":4,"data":"спб"},{"type":"hashtag","offset":37,"length":16,"data":"санкт_петербург"},{"type":"hashtag","offset":164,"length":5,"data":"офис"},{"type":"hashtag","offset":181,"length":7,"data":"полная"},{"type":"bold","offset":281,"length":25,"data":""},{"type":"bold","offset":309,"length":24,"data":""},{"type":"bold","offset":468,"length":44,"data":""},{"type":"bold","offset":765,"length":17,"data":""},{"type":"bold","offset":1067,"length":24,"data":""},{"type":"handle","offset":1094,"length":11,"data":"hrkaterina"},{"type":"link","offset":1110,"length":27,"data":"mailto:ekaterina.4people@gmail.com"}],"date":"2020-06-18T13:31:12+00:00","link":"tg://resolve?domain=php_jobs&post=25202","tags":[{"name":"php"},{"name":"web"},{"name":"javascript"},{"name":"redis"},{"name":"mongodb"}],"cities":[],"allowsRemote":false}},{"node":{"__typename":"Job","id":"103177781248-1001089317451","title":"Qa engineer","text":"#вакансия #job #QA #QAEngineer #Кипр #Cyprus #Limassol #relocate #fulltime #wisebits\n\nВ нашем холдинге открыты 2 вакансии Senior Automation QA Engineer. В текущей ситуации начинаем сотрудничать удаленно и как только границы будут открыты,🛬 welcome to Cyprus!\n\nКомпания: Wisebits \nГород: Лимассол, Кипр \nЗ.п.: до 4 000€ net\n\n📎1 проект-Автоматизация тестов для UI с использованием PHP, Selenium WebDriver, Codeception\n📎 2 проект- Автоматизация UI с использованием Java, Selenium WebDriver\n\nНам важен опыт:\n✔ Автоматизации  тестирования web-приложений, используя Selenium WebDriver\n✔ Тестирования веб приложений от 4 лет:\n\n\nМы предлагаем:\nПолностью белый оклад: на старте до 4000€ в месяц после вычета всех налогов, официальное оформление (рабочая виза);\nМедицинская страховка;\nРелокационый пакет;\nПрограмма компенсации детского сада/школы\n\n\nДетали @YaMy04","markup":[{"type":"hashtag","offset":0,"length":9,"data":"вакансия"},{"type":"hashtag","offset":10,"length":4,"data":"job"},{"type":"hashtag","offset":15,"length":3,"data":"QA"},{"type":"hashtag","offset":19,"length":11,"data":"QAEngineer"},{"type":"hashtag","offset":31,"length":5,"data":"Кипр"},{"type":"hashtag","offset":37,"length":7,"data":"Cyprus"},{"type":"hashtag","offset":45,"length":9,"data":"Limassol"},{"type":"hashtag","offset":55,"length":9,"data":"relocate"},{"type":"hashtag","offset":65,"length":9,"data":"fulltime"},{"type":"hashtag","offset":75,"length":9,"data":"wisebits"},{"type":"handle","offset":849,"length":7,"data":"YaMy04"}],"date":"2020-06-18T13:03:46+00:00","link":"tg://resolve?domain=qa_jobs&post=0","tags":[{"name":"qa"},{"name":"dotnet"},{"name":"php"},{"name":"selenium"},{"name":"java"},{"name":"web"}],"cities":[],"allowsRemote":true}},{"node":{"__typename":"Job","id":"17039360000-1001110946746","title":"Js разработчик","text":"#вакансия #react #redux #москва #офис #javascript\n\nГород: Москва (ст.м. Аэропорт).\n\nФормат работы: офис,на текущий период частично существует удалёнка.\n\nЗанятость: полная\n\nВилка: 100-250 т.р. на руки\nВ связи с увеличением проектов, Коммерческий Банк ищет в свою команду Frontend-разработчика.\nФункционал:\n\n• Разработка WEB приложений;\n\n• Рефакторинг Legacy кода;\n\n• Написание и поддержка сложных модулей, реализованных на стеке технологий React;\n\n• Участие в оценке сроков, трудоёмкости и проектирование приложений.\n\nПрофессиональные знания: знание JavaScript и его особенностей; знание React / Redux, Node.js, пакетных менеджеров (Yarn / npm); умение работать с Git; понимание стратегий оптимизации web-приложения.\n\nНазвание компании: Локо-Банк\nhttps://www.lockobank.ru//\nhttps://hh.ru/vacancy/37365811\n\nКонтакты: @hrlocko\n\n—\n\n👉 Обсуждение вакансии в чате @javascript_jobs","markup":[{"type":"hashtag","offset":0,"length":9,"data":"вакансия"},{"type":"hashtag","offset":10,"length":6,"data":"react"},{"type":"hashtag","offset":17,"length":6,"data":"redux"},{"type":"hashtag","offset":24,"length":7,"data":"москва"},{"type":"hashtag","offset":32,"length":5,"data":"офис"},{"type":"hashtag","offset":38,"length":11,"data":"javascript"},{"type":"link","offset":746,"length":26,"data":"https://www.lockobank.ru//"},{"type":"link","offset":773,"length":30,"data":"https://hh.ru/vacancy/37365811"},{"type":"handle","offset":815,"length":8,"data":"hrlocko"},{"type":"handle","offset":858,"length":16,"data":"javascript_jobs"}],"date":"2020-06-18T11:23:19+00:00","link":"tg://resolve?domain=javascript_jobs_feed&post=0","tags":[{"name":"javascript"},{"name":"reactjs"},{"name":"redux"},{"name":"web"},{"name":"nodejs"},{"name":"npm"},{"name":"git"},{"name":"react-redux"}],"cities":[{"code":"moscow"}],"allowsRemote":true}},{"node":{"__typename":"Job","id":"91179974656-1001067529236","title":"Python разработчик","text":"#job #вакансия  #dataengineer #remote\n\nВсем привет! Мы - PeakData AG ищем Data Engineer.\n\nPosition: Data Engineer\nCompany: Peakdata (http://peakdata.ch/)\nLocation: remote.\nSalary range in USD: 2,500 - 3,200 USD/month (gross)\nSalary range in RUB: 180 000 – 230 000 Rub/month (na ruki)\nContact: mfeldman@peakdata.ch\n\nWe are young and ambitious startup in the field of AI and Data Science looking for a  join our team. We are active in the area of web mining and Language Processing. Are you up for the challenge? \n\nResponsibilities: \n • Be able to process and integrate disparate data from different data sources\n • Be able to think with creativity, propose and lead development of data crunching software modules (mostly text analysis. NLP big plus)\n • Be able to work with version control system (Git)\n • Be able to understand software architecture and the existing workflow\n • Be able to clearly communicate in English\n • Be able to work independently in the remote work setting\n • Be able to overlap with our business hours for a great collaboration. \n\nRequirements:\n • At least 1 year of professional experience in data engineering/machine learning\n • Experienced in the relevant Python and its libraries; Especially appreciated is the knowledge of the following libraries: pandas, request, beatifulsoup, lxml, scrappy, selenium, joblib\n • Experience with backend development in Python - BIG PLUS\n • Bachelor degree in computer science –PLUS\n • Good knowledge of Docker - PLUS\n • Good documentation skills\n • Good written and spoken English\n • Strong sense of ownership and responsibility for code quality that follows best practices\n • Strong coding, problem-solving, and debugging skills\n • Awesome communication, collaboration, and self-management skills. \n\nWhat we offer:\n • Very interesting and innovative data product which includes real-world web data at scale (Tera to Petabytes)\n • Competitive salary\n • Highly professional and innovative team (most of our team members have either Masters or PhD)\n • Flexible work environment with opportunity to work remotely at  pajamas from your kitchen and still be part of interesting and innovative project 🙂 If you feel like you might be a good fit please drop us a message at mfeldman@peakdata.ch","markup":[{"type":"hashtag","offset":0,"length":4,"data":"job"},{"type":"hashtag","offset":5,"length":9,"data":"вакансия"},{"type":"hashtag","offset":16,"length":13,"data":"dataengineer"},{"type":"hashtag","offset":30,"length":7,"data":"remote"},{"type":"link","offset":133,"length":19,"data":"http://peakdata.ch/"},{"type":"link","offset":293,"length":20,"data":"mailto:mfeldman@peakdata.ch"},{"type":"link","offset":2231,"length":20,"data":"mailto:mfeldman@peakdata.ch"}],"date":"2020-06-18T08:10:06+00:00","link":"tg://resolve?domain=python_jobs&post=0","tags":[{"name":"python"},{"name":"web"},{"name":"nlp"},{"name":"git"},{"name":"pandas"},{"name":"selenium"},{"name":"docker"},{"name":"machine-learning"}],"cities":[],"allowsRemote":true}},{"node":{"__typename":"Job","id":"1703936000-1001091028994","title":"Java разработчик","text":"#java #sprig #SQL #архитектор #architect\nЛокация: #Москва #Санкт-Петербург, #Нижний Новгород #удаленка \nКомпания: КРОК www.croc.ru\nЗ/п: до 250000 р.\n\nКонтакты для связи, и все вопросы сюда: @albinaset\n\nИщем Java архитектора на проект для Топ-5 банка.\n\nТребования:\nПрактические знания в интеграционных проектах;\nПонимание принципов работы ассиметричной/симметричной криптографии;\nОпыт работы и проектирования реляционных, документно-ориентированных СУБД;\nПонимание Web Services, SOA, MSA, Lambda и потоковой обработки данных;\nЗнание работы менеджеров/брокеров сообщений;\n\nЗадачи:\nАнализ потребности заказчика со стороны бизнеса;\nПроектирование ИТ-решений;\nРешать архитектурные вопросы в ходе реализации ИТ-проектов;\nСогласовывать и защищать принимаемые решения;\nРазрабатывает и поддерживает в актуальном состоянии описание текущей ИТ-архитектуры, участвовать в проектировании целевой ИТ-архитектуры;\nРазрабатывать и согласовывать проектную документацию;","markup":[{"type":"hashtag","offset":0,"length":5,"data":"java"},{"type":"hashtag","offset":6,"length":6,"data":"sprig"},{"type":"hashtag","offset":13,"length":4,"data":"SQL"},{"type":"hashtag","offset":18,"length":11,"data":"архитектор"},{"type":"hashtag","offset":30,"length":10,"data":"architect"},{"type":"hashtag","offset":50,"length":7,"data":"Москва"},{"type":"hashtag","offset":58,"length":6,"data":"Санкт"},{"type":"hashtag","offset":76,"length":7,"data":"Нижний"},{"type":"hashtag","offset":93,"length":9,"data":"удаленка"},{"type":"link","offset":119,"length":11,"data":"http://www.croc.ru"},{"type":"handle","offset":190,"length":10,"data":"albinaset"}],"date":"2020-06-17T22:29:38+00:00","link":"tg://resolve?domain=jvmjobs&post=1625","tags":[{"name":"java"},{"name":"jvm"},{"name":"sql"},{"name":"web"},{"name":"aws-lambda"}],"cities":[{"code":"moscow"},{"code":"nizhny-novgorod"}],"allowsRemote":true}},{"node":{"__typename":"Job","id":"17004756992-1001110946746","title":"Js разработчик","text":"MIDDLE FRONTEND DEVELOPER\n#вакансия #Москва #Vue.js #javascript #vanilla.js #frontend\nКомпания-резидент Сколково в поиске FRONTEND DEVELOPER (Middle). \nMedpoint24 (https://medpoint24.ru/#about) - бурно развивающаяся компания, предоставляющая программное обеспечение и оборудование для автоматизированного проведения медицинских осмотров водителей. \nОфис в г. Москва, 7 мин от м. Марьина Роща/м. Савёловская \nФормат: фулл-тайм (гибкое начало рабочего дня), в офисе, оформление полностью по ТК. \nЗ/П - от 130 000net - 160 000net \nКоманда из 20 человек: разработчики (фронт, бэк, фуллстак), техлид, тестировщики, системный аналитик, DevOps инженер. \nЧТО ДЕЛАТЬ: \n-Разработка клиентской части web-приложений\n-Поддержка и рефакторинг существующего front-end\n-Участие в разработке архитектуры web-приложений\n-Принятие участия в тестировании web-приложений\nТРЕБОВАНИЯ: \n- Опыт от 1,5-2 года по направлению Frontend\n-Знание Vanilla.js, Vue.js 2.0, html 5, css 3, Javascript ES6 и выше\n-Понимание принципов Клиент-серверной архитектуры, REST, СКВ (git), *NIX систем\nПишите смело по всем вопросам: \nТелега:@hr_orlik\nПочта: v.orlik@medpoint24.ru\n\n—\n\n👉 Обсуждение вакансии в чате @javascript_jobs","markup":[{"type":"hashtag","offset":26,"length":9,"data":"вакансия"},{"type":"hashtag","offset":36,"length":7,"data":"Москва"},{"type":"hashtag","offset":44,"length":4,"data":"Vue"},{"type":"hashtag","offset":52,"length":11,"data":"javascript"},{"type":"hashtag","offset":64,"length":8,"data":"vanilla"},{"type":"hashtag","offset":76,"length":9,"data":"frontend"},{"type":"link","offset":164,"length":28,"data":"https://medpoint24.ru/#about"},{"type":"handle","offset":1096,"length":9,"data":"hr_orlik"},{"type":"link","offset":1113,"length":21,"data":"mailto:v.orlik@medpoint24.ru"},{"type":"handle","offset":1169,"length":16,"data":"javascript_jobs"}],"date":"2020-06-17T15:15:44+00:00","link":"tg://resolve?domain=javascript_jobs_feed&post=0","tags":[{"name":"javascript"},{"name":"vuejs"},{"name":"dotnet"},{"name":"web"},{"name":"html"},{"name":"css"},{"name":"rest"},{"name":"git"}],"cities":[{"code":"moscow"}],"allowsRemote":false}},{"node":{"__typename":"Job","id":"16994271232-1001110946746","title":"Js разработчик","text":"#вакансия #удаленка #работа #js #javascript #разработчик\n\nГород и адрес офиса: Тель-Авив \nФормат работы: удаленка\nЗанятость: полная, гибкий график.\n\nЗарплатная вилка: 5500-6000$/мес. (Почасовая оплата 35$/час + ежемесячный бонус 250$)\n\nНалоги платите по месту жительства. ИП 6%. Если патент, то он зависит от места жительства. В Подмосковье 12 000 руб в год. В Москве 300 тыс. в год. Как сами оформите налоги, так и платите. \n\nИщу разработчика к нам в команду: израильский проект Luminati (https://luminati.io).  Full-Stack. Компания разрабатывает несколько продуктов, в том числе p2p vpn, видео cdn нового поколения http://holaspark.com/\nОфис в Тель-Авиве, работа удаленная! График свободный. Что нам нужно:\n\n • Knowledge in Node JS framework: ExpressJS, Promise - Experience with MongoDB \n- Creating RESTful web services/API’s using Node.js with or without framework assistance \n\n- JavaScript-based unit testing tools \n\n- Client-side browser technologies including JavaScript, CSS, and HTML \n\n- 1 year development experience in Node JS with a solid working knowledge of frameworks and architecture \n\n- 2+ year’s overall development experience using JavaScript and open web technologies \n\n- хороший английский язык, идеальная грамматика не обязательна \n\n • работа удаленная, 7-9 часов в день (по желанию)\n • зарплата от 35$/час (+фиксированный бонус 250$ ежемесячно), через полгода повышается\n • после того, как откроют границы и будут возможны перелёты - выезд в офис на заключение контракта (перед этим возможно заключение с электронной подписью), отель и перелет за счет компании, море под окном\n\nОтвечу на все вопросы:)\n\nИнстаграмм https://instagram.com/hola_better_internet\n\nРезюме сюда:  luda.hola@gmail.com\n\n—\n\n👉 Обсуждение вакансии в чате @javascript_jobs","markup":[{"type":"hashtag","offset":0,"length":9,"data":"вакансия"},{"type":"hashtag","offset":10,"length":9,"data":"удаленка"},{"type":"hashtag","offset":20,"length":7,"data":"работа"},{"type":"hashtag","offset":28,"length":3,"data":"js"},{"type":"hashtag","offset":32,"length":11,"data":"javascript"},{"type":"hashtag","offset":44,"length":12,"data":"разработчик"},{"type":"link","offset":490,"length":19,"data":"https://luminati.io"},{"type":"link","offset":617,"length":21,"data":"http://holaspark.com/"},{"type":"link","offset":1637,"length":42,"data":"https://instagram.com/hola_better_internet"},{"type":"link","offset":1695,"length":19,"data":"mailto:luda.hola@gmail.com"},{"type":"handle","offset":1749,"length":16,"data":"javascript_jobs"}],"date":"2020-06-17T15:04:21+00:00","link":"tg://resolve?domain=javascript_jobs_feed&post=0","tags":[{"name":"javascript"},{"name":"nodejs"},{"name":"mongodb"},{"name":"web"},{"name":"css"},{"name":"html"},{"name":"unit-testing"}],"cities":[],"allowsRemote":true}},{"node":{"__typename":"Job","id":"103042514944-1001089317451","title":"Qa engineer","text":"#вакансия #Москва #офис\nДолжность: QA automation engineer\nКомпания: Открытая мобильная платформа\nГород: Москва, м.Парк Победы\nЗП: до 160к\nСтек: Python, Pytest, requests + cattrs, selenium\n\nУсловия:\n•ЗП до 160 000 гросс (в зависимости от ваших тех скиллов)\n•Участие в конференциях\n•ДМС\n•Гибкое начало рабочего дня \n\nЗадачи:\n•Разработка автоматизированных тестов (web + api), стремимся к 100% покрытию автотестами  (не unit)\n•Участие в развитии тестового framework'а\n•Командная работа с разработчиками и аналитиками (Scrum Dev Team)\n\nРассмотрим кандидатов с опытом в QA automation (Python) от полугода\n\nРезюме можно направить сюда: @Rita_RS \nили на почту: m.sinelnikova@getit.agency","markup":[{"type":"hashtag","offset":0,"length":9,"data":"вакансия"},{"type":"hashtag","offset":10,"length":7,"data":"Москва"},{"type":"hashtag","offset":18,"length":5,"data":"офис"},{"type":"bold","offset":35,"length":23,"data":""},{"type":"bold","offset":133,"length":5,"data":""},{"type":"bold","offset":189,"length":9,"data":""},{"type":"bold","offset":315,"length":8,"data":""},{"type":"bold","offset":565,"length":13,"data":""},{"type":"bold","offset":601,"length":6,"data":""},{"type":"handle","offset":630,"length":8,"data":"Rita_RS"},{"type":"link","offset":654,"length":26,"data":"mailto:m.sinelnikova@getit.agency"}],"date":"2020-06-17T10:28:06+00:00","link":"tg://resolve?domain=qa_jobs&post=0","tags":[{"name":"qa"},{"name":"python"},{"name":"selenium"},{"name":"web"}],"cities":[{"code":"moscow"}],"allowsRemote":false}},{"node":{"__typename":"Job","id":"103006863360-1001089317451","title":"Qa инженер","text":"🐞🐞🐞#вакансия #QA #Ульяновск #Саранск #Казань #Самара #Уфа #Краснодар #офис #удаленная_работа\n\n🔍Middle QA-специалист🔎\n\n⚡️Компания: Simbirsoft (более 19 лет на рынке, более 700 сотрудников в штате)\n\nОчень ждем тебя, наш будущий коллега и борец за качественное ПО! :)\n\n📌Твои будущие задачи:\n• тестирование ПО (frontend, backend, API);\n• локализация и документирование найденных дефектов;\n• ведение и оптимизация тестовой документации;\n• контроль качества на всех этапах разработки ПО;\n• выстраивание и оптимизация процессов тестирования ПО.\n\n📌Что мы ждем от тебя:\n• наличие опыта от 2 лет в направлениях QA или тестирования ПО;\n• понимание разницы между QA и тестированием ПО;\n• понимание особенностей гибких методологий;\n• уверенное владение техниками тест-дизайна;\n• знание клиент-серверной архитектуры;\n• понимание особенностей тестирования web, mobile и desktop приложений;\n• навык тестирования API;\n• написание запросов SQL;\n• опыт работы с системами контроля версий (git);\n• знание основных команд работы с консолью (Windows/Linux).\n\n📌Что мы предлагаем:\n• Полностью белая ЗП два раза в месяц;\n• Оформление по ТК РФ;\n• Высокий уровень экспертности внутри компании, которым мы делимся друг с другом;\n• Перспективы вертикального и горизонтального роста;\n• Работа на российских и международных проектах;\n• Оборудованное рабочее место и парк тестовых устройств;\n• Подготовка и прохождение сертификации ISTQB бесплатно;\n• Внутренние и внешние курсы, доклады, конференции;\n• Бесплатные чай, кофе, печеньки в офисе;\n• Корпоративная спортивная программа (оплата тематических секций, частичная компенсация абонемента);\n• Проведение летних и зимних корпоративов, дня именинника, совместные походы и т.д.\n\n📌Зарплата:\n• от 50 000 (Договорная, по итогу собеседования)\n\n☎️Контакты: @nataly_max","markup":[{"type":"hashtag","offset":6,"length":9,"data":"вакансия"},{"type":"hashtag","offset":16,"length":3,"data":"QA"},{"type":"hashtag","offset":20,"length":10,"data":"Ульяновск"},{"type":"hashtag","offset":31,"length":8,"data":"Саранск"},{"type":"hashtag","offset":40,"length":7,"data":"Казань"},{"type":"hashtag","offset":48,"length":7,"data":"Самара"},{"type":"hashtag","offset":56,"length":4,"data":"Уфа"},{"type":"hashtag","offset":61,"length":10,"data":"Краснодар"},{"type":"hashtag","offset":72,"length":5,"data":"офис"},{"type":"hashtag","offset":78,"length":17,"data":"удаленная_работа"},{"type":"handle","offset":1779,"length":11,"data":"nataly_max"}],"date":"2020-06-17T05:07:15+00:00","link":"tg://resolve?domain=qa_jobs&post=0","tags":[{"name":"qa"},{"name":"web"},{"name":"mobile"},{"name":"sql"},{"name":"git"},{"name":"windows"},{"name":"linux"}],"cities":[{"code":"ulyanovsk"},{"code":"saransk"},{"code":"kazan"},{"code":"samara"},{"code":"ufa"},{"code":"krasnodar"}],"allowsRemote":true}}]}}},"context":{}}