{"hash":"f5f6bf98bd95e769321482904cbbd488f77922fd","data":{"records":{"totalCount":669,"pageInfo":{"totalPages":67,"currentPage":27},"edges":[{"node":{"id":"72048705536-1001054966032","title":"Android разработчик","text":"‼️Вакансия Senior Android⁢ Developer‼️\n#android #developer #вакансия #удаленка\nВ команде Mycelium Wallet (mycelium.com) открыта #вакансия Senior Android⁢ Developer.\n💵З/П 3000-4000 USD по итогам собеседования.\nРабота удаленная 💻\n\nМы предлагаем:\n🔸Получить навыки и компетенции в одном из самых передовых и перспективных направлений финтех индустрии - blockchain;\n🔸Принять участие в разработке одного из самых популярных биткоин-кошельков в Google Play Store;\n🔸Работать в международной команде бок о бок с ведущими специалистами в индустрии;\n🔸Возможность профессионального карьерного роста и участия в разнообразных проектах компании.\n\nЧем предстоит заниматься:\n🔹Разрабатывать новые и развивать существующие мобильные сервисы компании на платформе Android;\n🔹Проектировать и разрабатывать большие функциональные части приложения с привлечением других программистов;\n🔹Использовать cutting edge технологии, а также проверенные временем решения.\n\nТребования:\n✔️Как минимум 3 года опыта разработки на Android;\n✔️Знание Java/Kotlin на уровне ведущего разработчика;\n✔️Знание шаблонов проектирования, опыт использования MVP и других архитектурных подходов;\n✔️Опыт параллельного и многопоточного программирования;\n✔️Понимание циклов работы Android-приложения и управления памятью;\n✔️Опыт разработки пользовательских интерфейсов на платформе Android. \n✔️Знание Android Design Principles;\n✔️Знание и умение использовать различные механизмы взаимодействий между приложениями, предоставляемые в рамках Android SDK;\n✔️Понимание принципов работы REST API, WS, RPC и клиент-серверных приложений;\n✔️Знание английского языка на уровне чтения документации и умения общаться в корпоративном чате.\n\nПлюсом будет:\n➕Умение и понимание необходимости написания Unit tests;\n➕Знание основ криптографии;\n➕Опыт работы с bitcoin/etherium blockchain stack;\n➕Наличие своих проектов на Github, в Google Play и т.д.\n\n📲Контакт: @valeritata","markup":[{"type":"hashtag","offset":39,"length":8,"data":"android"},{"type":"hashtag","offset":48,"length":10,"data":"developer"},{"type":"hashtag","offset":59,"length":9,"data":"вакансия"},{"type":"hashtag","offset":69,"length":9,"data":"удаленка"},{"type":"link","offset":106,"length":12,"data":"http://mycelium.com"},{"type":"hashtag","offset":128,"length":9,"data":"вакансия"},{"type":"handle","offset":1900,"length":11,"data":"valeritata"}],"date":"2020-06-25T18:53:54+00:00","link":"tg://resolve?domain=mobile_jobs&post=68711","tags":[{"name":"mobile"},{"name":"android"},{"name":"playframework"},{"name":"java"},{"name":"kotlin"},{"name":"rest"},{"name":"github"}],"cities":[],"allowsRemote":true}},{"node":{"id":"17156800512-1001110946746","title":"Js разработчик","text":"#вакансия #москва #middle #remote #angular #fulltime #офис\n\nИщем frontend разработчика для работы над основным сайтом и новыми разделами.\nГород и адрес офиса: Москва, м. Авиамоторная\nФормат работы: Офис\nЗанятость: полная\nЗарплатная вилка: 130 000 — 150 000 на руки по результатам технического собеседования\n\nAutospot.ru — онлайн гипермаркет автомобилей. \n\nВ 2018 году Mitsubishi Corporation и Mail.ru. оценили нас в $19,1 млн.\n\nВ технической команде 17 человек: СТО, 9 PHP разработчиков, 2 frontend разработчика, 3 тестировщика, DevOps.\n\nЧеловек нужен в Москве или готовый в эту самую Москву переехать.\n\nОбязанности:\n▫️Разработка компонентов и адаптация/интеграция сторонних библиотек и плагинов;\n▫️ Верстка новых разделов, кроссбраузерная, адаптивная, валидная;\n▫️ Развитие библиотеки UI компонентов;\n▫️ Оперативное исправление багов на проде (IE 11+);\n▫️ Помощь в оптимизации работы сайта (скорость загрузки, оптимизация DOM).\n\nТребования:\n▪️ Опыт разработки от 2 лет;\n▪️ Знание JavaScript (jQuery в разумных пределах);\n▪️ Уверенное знание html семантическая верстка, БЭМ, SCSS;\n▪️ Знание работы GIT & NPM;\n▪️ Опыт работы с gulp/webpack;\n▪️ Опыт работы с Figma/Zeplin;\n▪️ Опыт работы с векторной графикой (svg и svg-спрайты).\n\nЖелательно:\n◾️ Хорошее знание Vue.js и/или Angular 5+. Работать надо будет и с тем и с другим. Angular 5+ в приоритете, планируется переход полностью на него;\n◾️ Знание инструментов организации разработки Jira;\n◾️ Знание нюансов работы браузеров на разных устройствах и ОС;\n◾️ Опыт сео оптимизации;\n◾️ Понимание, что такое доступные интерфейсы;\n\nУсловия:\n▫️ Комфортабельный офис, БЦ Light Tower, бесплатный шаттл от м. Площадь Ильича;\n▫️ Оформление по ТК РФ с первого рабочего дня;\n▫️ Гибкое начало рабочего дня, с 9 до 11;\n▫️ Возможность работать 1-2 дня удалённо;\n▫️ Полностью белая заработная плата;\n▫️ Неформальная атмосфера и дружный, амбициозный коллектив;\n▫️ Корпоративная скидка на изучение английского языка.\n\nКонтакт: @dianadoma\n\n—\n\n👉 Обсуждение вакансии в чате @javascript_jobs","markup":[{"type":"hashtag","offset":0,"length":9,"data":"вакансия"},{"type":"hashtag","offset":10,"length":7,"data":"москва"},{"type":"hashtag","offset":18,"length":7,"data":"middle"},{"type":"hashtag","offset":26,"length":7,"data":"remote"},{"type":"hashtag","offset":34,"length":8,"data":"angular"},{"type":"hashtag","offset":43,"length":9,"data":"fulltime"},{"type":"hashtag","offset":53,"length":5,"data":"офис"},{"type":"link","offset":308,"length":11,"data":"http://Autospot.ru"},{"type":"link","offset":393,"length":7,"data":"http://Mail.ru"},{"type":"handle","offset":1957,"length":10,"data":"dianadoma"},{"type":"handle","offset":2002,"length":16,"data":"javascript_jobs"}],"date":"2020-06-25T18:01:18+00:00","link":"tg://resolve?domain=javascript_jobs_feed&post=16362","tags":[{"name":"javascript"},{"name":"angularjs"},{"name":"php"},{"name":"jquery"},{"name":"html"},{"name":"git"},{"name":"npm"},{"name":"gulp"},{"name":"webpack"},{"name":"svg"},{"name":"vuejs"}],"cities":[{"code":"moscow"}],"allowsRemote":true}},{"node":{"id":"108089311232-1001119539411","title":".net разработчик","text":"#qa #automation #работа #вакансия #тестировщик #job #Москва #СПБ #удалёнка #офис \n\nQA Automation (С# / С# + Нагрузочное Тестирование / Ruby)в крупный банк без бюрократии.\n\n🌏 Москва / Санкт-Петербург / Удалённо\n💻опыт от года и до синьора (каждому есть работа по силам) \n💰до 240к \n\n💡4 интересных Прoекта на разных стадиях жизни:\nВсе они направлены на : \n- Улучшение бизнес процессов;\n- Защиту интересов и финансов банка в крупных сделках;\n- Развитие отдельного модуля пообъектного учета залогов для контроля залогов по кредитным сделкам крупного корпоративного бизнеса.\n\n💡 Требования стандартные, Вы все их хорошо знаете. \n- Опыт тестирования API, UI;\n- Работа с .NET / Selenium / LoadRunner / Cucumber - зависит от стека\n- Понимание отличия REST от SOAP;\n- Опыт работы с CICD;\n- С GIT итак все работают \n- SQL на хорошем уровне.\n\n💡Важное:\n- Удалённый формат занятости или офис (по желанию);\n- Гибкий график работы; \n- Отличный офис в стиле супергероев с множеством пуфиков, релакс-зоной, пингпонгом, а пар можно выпустить на груше и турнике; \n- ДМС;\n- Скидки на фитнес, английский;\n- Помощь в релокации, если любишь работу в офисе и хочешь переехать;\n- Оформление на компанию интегратора Selecty IT\n\n📲 @JuliaVenz 🙂","markup":[{"type":"hashtag","offset":0,"length":3,"data":"qa"},{"type":"hashtag","offset":4,"length":11,"data":"automation"},{"type":"hashtag","offset":16,"length":7,"data":"работа"},{"type":"hashtag","offset":24,"length":9,"data":"вакансия"},{"type":"hashtag","offset":34,"length":12,"data":"тестировщик"},{"type":"hashtag","offset":47,"length":4,"data":"job"},{"type":"hashtag","offset":52,"length":7,"data":"Москва"},{"type":"hashtag","offset":60,"length":4,"data":"СПБ"},{"type":"hashtag","offset":65,"length":9,"data":"удалёнка"},{"type":"hashtag","offset":75,"length":5,"data":"офис"},{"type":"bold","offset":83,"length":15,"data":""},{"type":"bold","offset":298,"length":6,"data":""},{"type":"handle","offset":1208,"length":10,"data":"JuliaVenz"}],"date":"2020-06-25T17:59:47+00:00","link":"tg://resolve?domain=microsoftstackjobs&post=103082","tags":[{"name":"dotnet"},{"name":"csharp"},{"name":"ruby"},{"name":"selenium"},{"name":"cucumber"},{"name":"rest"},{"name":"soap"},{"name":"git"},{"name":"sql"}],"cities":[{"code":"moscow"}],"allowsRemote":true}},{"node":{"id":"17155751936-1001110946746","title":"Js developer","text":"#вакансия #удаленка #React #Frontend\n\nГород: Москва Emirex\nФормат работы: удаленка\nЗанятость: полная\nЗарплатная вилка:  от 80k  до 150к рублей\n\n👉Ближневосточная биржа Emirex ищет React Developer👈\n\n⚡️О компании:\nEmirex Group объединяет сообщество эмитентов и трейдеров со всей Африки, Азии и Европы и предоставляет им доступ к богатству Ближнего Востока, используя современные технологии (токен EMRX входит в ТОП-300 CMC)\n\nТребуемый опыт работы: от 3–ех лет\nПолная занятость, удаленная работа\n\nЧто для это нужно уметь:\n– знания и опыт работы с React.js, Javascript (ES6+),Typescript, HTML5, CSS3;\n– знание redux, redux saga, next.js (edited);\n– знание принципов ООП, шаблонов проектирования;\n– умение писать понятный и логичный код;\n– опыт работы с системами контроля версий (Git) и багтрекинг системами. Опыт работы с системами непрерывной интеграции (Gitlab CI);\n– ВАЖНО! амбициозность, порядочность, внимательность, аккуратность, умение четко и ясно излагать свои мысли.\n\nКруто, если вы:\n– знаете системы сборок (Gulp, Webpack);\n– имеете опыт разработки коммерческих проектов;\n– есть желание осваивать новые технологии, совершенствовать свои профессиональные навыки;\n– есть опыт разработки серверной стороны Web-приложения.\n\n📱Контакты: \nПрисылайте резюме на: recruiting@emirex.com\nTelegram: @AndreNaumov\n\n—\n\n👉 Обсуждение вакансии в чате @javascript_jobs","markup":[{"type":"hashtag","offset":0,"length":9,"data":"вакансия"},{"type":"hashtag","offset":10,"length":9,"data":"удаленка"},{"type":"hashtag","offset":20,"length":6,"data":"React"},{"type":"hashtag","offset":27,"length":9,"data":"Frontend"},{"type":"link","offset":1264,"length":21,"data":"mailto:recruiting@emirex.com"},{"type":"handle","offset":1296,"length":12,"data":"AndreNaumov"},{"type":"handle","offset":1343,"length":16,"data":"javascript_jobs"}],"date":"2020-06-25T17:58:55+00:00","link":"tg://resolve?domain=javascript_jobs_feed&post=16361","tags":[{"name":"javascript"},{"name":"reactjs"},{"name":"typescript"},{"name":"html"},{"name":"css"},{"name":"redux"},{"name":"git"},{"name":"gitlab"},{"name":"gulp"},{"name":"webpack"},{"name":"web"}],"cities":[{"code":"moscow"}],"allowsRemote":true}},{"node":{"id":"103737720832-1001089317451","title":"Qa инженер","text":"#hr #qa #automation #работа #вакансия #тестировщик #job #Москва #СПБ #удалёнка #офис \n\nQA Automation (С# / С# + НТ / Ruby)в крупный банк без бюрократии.\n\n🌏 Москва / Санкт-Петербург / Удалённо\n💻опыт от года и до синьора (каждому есть работа по силам) \n💰до 240к \n\n💡4 интересных Прoекта на разных стадиях жизни:\nВсе они направлены на : \n- Улучшение бизнес процессов;\n- Защиту интересов и финансов банка в крупных сделках;\n- Развитие отдельного модуля пообъектного учета залогов для контроля залогов по кредитным сделкам крупного корпоративного бизнеса.\n\n💡 Требования стандартные, Вы все их хорошо знаете. \n- Опыт тестирования API, UI;\n- Работа с .NET / Selenium / LoadRunner / Cucumber - зависит от стека\n- Понимание отличия REST от SOAP;\n- Опыт работы с CICD;\n- С GIT итак все работают \n- SQL на хорошем уровне.\n\n💡Важное:\n- Удалённый формат занятости или офис (по желанию);\n- Гибкий график работы; \n- Отличный офис в стиле супергероев с множеством пуфиков, релакс-зоной, пингпонгом, а пар можно выпустить на груше и турнике; \n- ДМС;\n- Скидки на фитнес, английский;\n- Помощь в релокации, если любишь работу в офисе и хочешь переехать;\n- Оформление на компанию интегратора Selecty IT\n\n📲 @JuliaVenz 🙂","markup":[{"type":"hashtag","offset":0,"length":3,"data":"hr"},{"type":"hashtag","offset":4,"length":3,"data":"qa"},{"type":"hashtag","offset":8,"length":11,"data":"automation"},{"type":"hashtag","offset":20,"length":7,"data":"работа"},{"type":"hashtag","offset":28,"length":9,"data":"вакансия"},{"type":"hashtag","offset":38,"length":12,"data":"тестировщик"},{"type":"hashtag","offset":51,"length":4,"data":"job"},{"type":"hashtag","offset":56,"length":7,"data":"Москва"},{"type":"hashtag","offset":64,"length":4,"data":"СПБ"},{"type":"hashtag","offset":69,"length":9,"data":"удалёнка"},{"type":"hashtag","offset":79,"length":5,"data":"офис"},{"type":"bold","offset":87,"length":15,"data":""},{"type":"bold","offset":280,"length":6,"data":""},{"type":"handle","offset":1190,"length":10,"data":"JuliaVenz"}],"date":"2020-06-25T17:02:44+00:00","link":"tg://resolve?domain=qa_jobs&post=98932","tags":[{"name":"qa"},{"name":"ruby"},{"name":"dotnet"},{"name":"selenium"},{"name":"cucumber"},{"name":"rest"},{"name":"soap"},{"name":"git"},{"name":"sql"}],"cities":[{"code":"moscow"}],"allowsRemote":true}},{"node":{"id":"72040316928-1001054966032","title":"Android разработчик","text":"#вакансия #android #москва #удаленка #senior #middle\n\nГород: Москва\nФормат работы: удаленка\nЗанятость: полная\nВилка:120-150 на руки\n\nОписание вакансии: Я ищу опытного Android-разработчика для удаленной работы в международной компании Раксел Телематикс.\n\nО компании: Raxel Telematics - это технологический стартап, разрабатывающий IoT платформу для обогащения, анализа и монетизации данных.\nwww.raxeltelematics.com\n\nФункционал:\n\n• Осуществлять разработку основных модулей и интерфейсов в мобильных приложениях в соответствии с заданиями от руководителя команды разработки;\n• Осуществлять разработку внутренних модулей и библиотек по сбору данных пользователя и передаче статистики;\n• Вести документацию разрабатываемого программного обеспечения;\n• Вести список задач и поддерживать актуальным статус задач в системе Jira;\n• Формировать задания группе тестирования в проверке работоспособности мобильного программного обеспечения.\n\nОт тебя хотят:\n\n✔️Знание Android SDK, Java Core, Kotlin\n✔️Понимание принципы ООП и классических алгоритмов\n✔️Опыт работы с REST API\n✔️Понимание принципов Material Design и Android Clean Architecture, MVP, DI;\n✔️Опыт работы с SQL/SQLite\n✔️Использование в работе rxjava/rxjava2, retrofit2, dagger2, picasso, otto и др.\n✔️Умение писать качественный код и использование принципов SOLID.\n\nКонтакты: @reanimawka","markup":[{"type":"hashtag","offset":0,"length":9,"data":"вакансия"},{"type":"hashtag","offset":10,"length":8,"data":"android"},{"type":"hashtag","offset":19,"length":7,"data":"москва"},{"type":"hashtag","offset":27,"length":9,"data":"удаленка"},{"type":"hashtag","offset":37,"length":7,"data":"senior"},{"type":"hashtag","offset":45,"length":7,"data":"middle"},{"type":"bold","offset":266,"length":16,"data":""},{"type":"link","offset":390,"length":23,"data":"http://www.raxeltelematics.com"},{"type":"bold","offset":415,"length":11,"data":""},{"type":"bold","offset":930,"length":14,"data":""},{"type":"handle","offset":1324,"length":11,"data":"reanimawka"}],"date":"2020-06-25T16:17:35+00:00","link":"tg://resolve?domain=mobile_jobs&post=68703","tags":[{"name":"mobile"},{"name":"android"},{"name":"java"},{"name":"kotlin"},{"name":"rest"},{"name":"sql"},{"name":"sqlite"}],"cities":[{"code":"moscow"}],"allowsRemote":true}},{"node":{"id":"103733526528-1001089317451","title":"Qa инженер","text":"#вакансия #qa #москва #удаленная работа\n\nКомпания VMB - Мы создаём веб/мобильные приложения и сложные информационные системы: продумываем концепцию, проектируем, разрабатываем, тестируем, поддерживаем и развиваем.                                               \n\nМы ищем тестировщика веб и мобильных приложений на платформах Android и IOS. \n\nЗадачи:\n- ручное тестирование веб/мобильных приложений\n- функциональное, интеграционное, регрессивное, нагрузочное тестирование\n- регистрация обнаруженных дефектов в багтрекинг-системе, отслеживание исправления дефектов и их повторное тестирование.\n\nЧто ждём от вас?\n- опыт тестирования мобильных приложений от года\n- умение писать понятные и работающие тест-кейсы\n- опыт работы с багтрекинговыми системами\n- умение поддерживать конструктивный диалог с другими членами команды.\n\nМы предлагаем:\n- возможность работать удаленно \n- ЗП вилка 60к - 100к рублей на руки\n- участие в интересных и известных проектах\n- возможность карьерного роста и профессионального развития\n- гибкое начало рабочего дня\n\nКонтакты\n@nariarakel","markup":[{"type":"hashtag","offset":0,"length":9,"data":"вакансия"},{"type":"hashtag","offset":10,"length":3,"data":"qa"},{"type":"hashtag","offset":14,"length":7,"data":"москва"},{"type":"hashtag","offset":22,"length":10,"data":"удаленная"},{"type":"handle","offset":1048,"length":11,"data":"nariarakel"}],"date":"2020-06-25T15:33:49+00:00","link":"tg://resolve?domain=qa_jobs&post=98928","tags":[{"name":"qa"},{"name":"android"},{"name":"ios"}],"cities":[{"code":"moscow"}],"allowsRemote":true}},{"node":{"id":"72028782592-1001054966032","title":"Ios разработчик","text":"#вакансия #работа #iOS #Developer #fulltime #удаленно\n\nВсем привет!\n\nМы в applicatura.com опять выросли и ищем middle iOS-разработчика. \nЗП 60 000 - 100 000 руб. после налогов. \n\n\nМы создаем и поддерживаем мобильные приложения для крупных известных брендов , SimpleWine, Перекресток, Абсолют Банк и др. \nВ команде - дизайнеры, мобильные разработчики, бэкенд разработчики, проджект менеджеры, qa-инженеры.\nУ нас налаженные процессы разработки и никакого чайка-менеджмента. \n\nЧто вам придется делать:\n - разрабатывать новые приложений \n - поддерживать имеющиеся приложения клиентов\n - создание библиотек и SDK\n - верстать по макетам дизайнеров\n - проходить технические аудиты от заказчиков\n\n\nТребования:\n- Опыт коммерческой разработки от 0,5 года;\n - Знание Swift\n - Знание особенностей и тонкостей разработки под iOS (UIKit, Foundation, CoreData и др.)\n - Знание git и уверенное использование подходов и инструментов командной разработки и ревью кода - ревьювить будем вас )\n - Имеющееся представление о том, как выстроить архитектуру большого и сложного приложения\n - Знания последних технологий, фреймворков, инструментов и вообще желание разумно следовать прогрессу\n - Понимание аспектов и этапов разработки мобильного приложения полного цикла (от настройки окружения до релиза в сторы)\n - Знание библиотек и стека мобильной разработки\n\nУсловия:\n\n - белая ЗП, соблюдаем и чтим Трудовой Кодекс РФ\n - возможность иметь нестандартный рабочий график\n - предоставляем возможности для карьерного и профессионального роста\n - работа в крупных публичных проектах, которые можно положить себе в портфолио\n \nВАЖНО! Вакансия для граждан РФ/РБ. \n\nПисать в телеграм @k_kononov, CV присылать на почту kononov@applicatura.com","markup":[{"type":"hashtag","offset":0,"length":9,"data":"вакансия"},{"type":"hashtag","offset":10,"length":7,"data":"работа"},{"type":"hashtag","offset":18,"length":4,"data":"iOS"},{"type":"hashtag","offset":23,"length":10,"data":"Developer"},{"type":"hashtag","offset":34,"length":9,"data":"fulltime"},{"type":"hashtag","offset":44,"length":9,"data":"удаленно"},{"type":"link","offset":74,"length":15,"data":"http://applicatura.com"},{"type":"handle","offset":1655,"length":10,"data":"k_kononov"},{"type":"link","offset":1689,"length":23,"data":"mailto:kononov@applicatura.com"}],"date":"2020-06-25T15:06:42+00:00","link":"tg://resolve?domain=mobile_jobs&post=68692","tags":[{"name":"mobile"},{"name":"ios"},{"name":"swift"},{"name":"uikit"},{"name":"git"}],"cities":[],"allowsRemote":true}},{"node":{"id":"72025636864-1001054966032","title":"Ios developer","text":"#вакансия #IOS #Senior #Objective-C #Swift #удаленно\n🔥Приглашаем Senior IOS Developer в новый проект от Сбербанка.\n💸Уровень ЗП: 250К-330К net (в зависимости от типа оформления).\n📝Оформление: ИП или штат компании партнера.\n📍Локация: удаленно❗️\n\n🧑‍💻О проекте: фронтальная SDK биометрической платформы. Данный проект занимается разработкой продукта «Фронтальная биометрическая компонента» (Фронтальная БиоSDK) для биометрической идентификации личности на различных ОС и устройствах. Первоочередная задача сейчас – забрать текущие версии SDK у непрофильных подразделений и на их основе разработать Фронтальной БиоSDK для мобильных приложений (iOS). Банку, как высокотехнологичной организации необходима биометрическая идентификация личности. Это позволит перейти к системам без документов, паролей, смс, пинкодов.\n\n🎯Ваши будущие задачи:\n· разработка (с «нуля») и поддержка собственной компоненты фронтального Био SDK по работе с камерами устройств и нейросетями собственной лаборатории (Machine Learning, Data Scientist, Computer Vision) и решений вендоров;\n· интеграция Био SDK с каналами/продуктами Банка мобильных решений\n(iOS), а также прочих систем банка (Linux, Windows, Web, SmartDevices);\n· постоянное повышение качества продукта на фоне постоянно обучающихся нейросетей.\n\n🤝Мы ожидаем от Вас:\n- сильный Swift (опыт от 2 лет), понимание Objective-C (желательно опыт от 2 лет);\n- знание следующих тем: CALayer, viewDidLoad в UIViewController, ARC, CoreData, Корневые классы, Retain-циклы и утечка памяти MRC, Atomic, SOLID, Отрисовка UI, Мультипоточность.\n\nОткликнуться на вакансию и задать вопросы: telegram @anisimovaane4ka","markup":[{"type":"hashtag","offset":0,"length":9,"data":"вакансия"},{"type":"hashtag","offset":10,"length":4,"data":"IOS"},{"type":"hashtag","offset":15,"length":7,"data":"Senior"},{"type":"hashtag","offset":23,"length":10,"data":"Objective"},{"type":"hashtag","offset":36,"length":6,"data":"Swift"},{"type":"hashtag","offset":43,"length":9,"data":"удаленно"},{"type":"handle","offset":1619,"length":16,"data":"anisimovaane4ka"}],"date":"2020-06-25T14:24:48+00:00","link":"tg://resolve?domain=mobile_jobs&post=68689","tags":[{"name":"mobile"},{"name":"ios"},{"name":"objective-c"},{"name":"swift"},{"name":"dotnet"},{"name":"linux"},{"name":"windows"},{"name":"web"},{"name":"machine-learning"}],"cities":[],"allowsRemote":true}},{"node":{"id":"103720943616-1001089317451","title":"Qa инженер","text":"Тестировщик в платформу WikiVote\n\nТребования, необходимый опыт:\n* Опыт функционального тестирования от полугода на реальных проектах\n\n* Наличие сертификатов о пройденном обучении в тестировании\n\n\nЗадача на первый месяц сотрудничества:\n1. Провести ручное тестирование пула сценариев по существующим тест-кейсам. Мы обновили версию Ruby платформы, и нужно все прогнать, не отвалилось ли чего.\n\n\nЗадачи дальше:\n1. Ручное функциональное тестирование сценариев платформы при запуске новых проектов\n\n2. Ручное функциональное тестирование новых внедренных фич\n\n3. Разработка карточек тест-кейсов\n\n4. Кроссбраузерное тестирование верстки\n\n5. Разработка автотестов для платформы (после того, как поймете, что из ручного тестирования можно автоматизировать, приветствуем инициативу и выделим часть рабочего времени чисто под это)\n\n6. Ручное тестирование на будущем проекте по разработке Windows-приложения (в основном проверка интеграции приложения с MS Office). Если сможете автоматизировать - велком. \n\nРабота полностью удаленная, всегда была такой до весны 2020 и такой останется после. В связи с этим про ресурсы:\n\n* Мы предоставляем виртуальные машины для тестирования Windows приложений \n\n* После полугода сотрудничества возможна покупка необходимого оборудования за счет компании.\n\n\nГрафик работы:\n* Стандартный 8 часовой рабочий день, удаленно\n\n* Две обязательные планерки: 10 утра мск в понедельник и пятницу; остальные дни по желанию\n\n* Максимальное отклонение от московского времени +/- 2 часа (команда и клиенты в основном находятся в этом часовом поясе, и с бОльшим отрывом очень сложно).\n\n\nЧто предлагаем:\n* Испытательный срок 3 месяца\n\n* Белое оформление \n* от 50 000\n* только граждане РФ\n\n#удаленка #вакансия","markup":[{"type":"hashtag","offset":1695,"length":9,"data":"удаленка"},{"type":"hashtag","offset":1705,"length":9,"data":"вакансия"}],"date":"2020-06-25T13:50:42+00:00","link":"tg://resolve?domain=qa_jobs&post=98916","tags":[{"name":"qa"},{"name":"ruby"},{"name":"windows"}],"cities":[],"allowsRemote":true}}]}},"context":{}}