{"hash":"f34fd2c444a074f4e0e67d525015a008ef8e766f","data":{"records":{"id":"nginx","name":"nginx","belongsTo":{"totalCount":41,"pageInfo":{"totalPages":5,"currentPage":3},"edges":[{"node":{"__typename":"Job","id":"1933574144-1001134745498","title":"Devops инженер","text":"#devops  #middle  #senior #вакансия\n\nВсем добрый вечер\n\nЯ ищу Ведущего devops / системного инженера в компанию,  которая занимается разработкой системного интегратора ПО в области виртуализации и облачных технологий.\n\nЧто хотят:\nЖелательно - высшее профильное образование и соответствующий опыт работы от 3-5 лет\nОС: Linux, Unix\nCI/CD: Jenkins, Teamcity, Travis и аналоги\nКонтейнеры: Docker\nВеб-сервисы: Ngnix, UWSGI\nМониторинг/алертинг: AppDynamics, Nagios, Zabbix etc.\nОпыт администрирования реплицированных СУБД (PostgreSQL или MariaDB, MongoDB)\nОпыт работы с elasticsearch/logstash/kibana\nAnsible, Salt\nОпыт администрирования облачных серверов (например - под платформами Amazon EC2, GoogleCloud, VmWare vSphere, OpenStack или прочих)\n\nПлюсами будут:\nустановка/обслуживание - Reverse Proxy (Nginx …), caсhing\nserver (Squid, Nginx etc.)\nустановка/обслуживание - load balancer (HAProxy, Nginx, etc.)\nBash Scripts.\nProcess Monitoring: ps, top, htop, atop, .. etc\nSystem Performance: nmon, iostat, sar, vmstat etc\nNetworking: nmap, tcpdump, ping, traceroute, airmon, etc.\nkubernetes/docker swarm\n\nОсновные обязанности:\nРазвертка контуров (dev, qas, prod)\nPerformance тестирование, нагрузочное тестирование\nСборка и обновление из репозиториев\nПоиск и устранение проблем\n\nЧто дают:\nХорошая ЗП. от 120 000 руб. до 200.000 по результатам собеседования.\nВозможна удаленная работа \nТак же есть возможность работы в офисе.\nг. Москва Сколково, возможна работа из офиса в г. Санкт-Петербурге и г Нижний Новогород (ул Грузинская).\n\nКомпания: http://asdtech.co/\n\nКонтакты: @mayke_kin\n\n—\n\n👉 Обсуждение вакансии в чате @devops_jobs","markup":[{"type":"hashtag","offset":0,"length":7,"data":"devops"},{"type":"hashtag","offset":9,"length":7,"data":"middle"},{"type":"hashtag","offset":18,"length":7,"data":"senior"},{"type":"hashtag","offset":26,"length":9,"data":"вакансия"},{"type":"link","offset":1532,"length":18,"data":"http://asdtech.co/"},{"type":"handle","offset":1562,"length":10,"data":"mayke_kin"},{"type":"handle","offset":1607,"length":12,"data":"devops_jobs"}],"date":"2020-03-24T04:12:20+00:00","link":"tg://resolve?domain=devops_jobs_feed&post=1844","tags":[{"name":"linux"},{"name":"unix"},{"name":"jenkins"},{"name":"docker"},{"name":"postgresql"},{"name":"mariadb"},{"name":"mongodb"},{"name":"elasticsearch"},{"name":"logstash"},{"name":"ansible"},{"name":"nginx"},{"name":"bash"},{"name":"kubernetes"}],"cities":[{"code":"moscow"}],"allowsRemote":true}},{"node":{"__typename":"Job","id":"23898095616-1001075660570","title":"Php developer","text":"#вакансия #fullstack #PHP #senior #middle #fulltime #офис\n\nФормат работы: офис\nРасположение: Москва, м. Воробьевы горы\nЗанятость: полная, гибкое начало дня\nЗП: 2500 - 3500 евро на руки \n\n🔹 Кипрская компания Tradernet в поиске Fullstack developer (уровня от middle и выше). \n\nTradernet - это высоконагруженная трейдинговая онлайн платформа. Ежедневно на сервис поступает более 1,5 миллионов запросов. Ребята постоянно улучшают ядро платформы, делают все, чтобы все процессы были максимально производительными и быстрыми. Сейчас в команде 26 технических специалистов, каждый день они сталкиваются с действительно сложными алгоритмами и задачами. \n\nСтек проекта: PHP 7.3, Javascript, SQL (PostgreSQL, MySQL), apache, nginx, php-fpm. Задач на бек и фронт будет примерно 50 на 50.\n\n🔹 Требования:\n- Опыт разработки на PHP, Javascript от 2-ех лет;\n- Желателен опыт с высоконагруженными системами.\n\n🔹 Условия:\n- заработная плата в Евро;\n- компенсация занятий английским языком и частичная компенсация ДМС;\n- возможность принять участие в создании мирового продукта;\n- дружественная рабочая среда с возможностью карьерного и профессионального роста;\n- работать предстоит в уютном офисе в самом центре города (Нескучный сад). \n\n🔹 Контакты:\ne-mail: valeriya@luckyhunter.io\ntelegram: @sobolevavalery\nБуду рада ответить на все вопросы и комментарии 😊","markup":[{"type":"hashtag","offset":0,"length":9,"data":"вакансия"},{"type":"hashtag","offset":10,"length":10,"data":"fullstack"},{"type":"hashtag","offset":21,"length":4,"data":"PHP"},{"type":"hashtag","offset":26,"length":7,"data":"senior"},{"type":"hashtag","offset":34,"length":7,"data":"middle"},{"type":"hashtag","offset":42,"length":9,"data":"fulltime"},{"type":"hashtag","offset":52,"length":5,"data":"офис"},{"type":"link","offset":1242,"length":23,"data":"mailto:valeriya@luckyhunter.io"},{"type":"handle","offset":1276,"length":15,"data":"sobolevavalery"}],"date":"2020-03-23T12:26:03+00:00","link":"tg://resolve?domain=php_jobs&post=22791","tags":[{"name":"php"},{"name":"javascript"},{"name":"sql"},{"name":"postgresql"},{"name":"mysql"},{"name":"apache"},{"name":"nginx"}],"cities":[{"code":"moscow"}],"allowsRemote":false}},{"node":{"__typename":"Job","id":"1926234112-1001134745498","title":"Devops инженер","text":"#вакансия #Москва #devops #полнаязанятость \n\nИщем DevOps в команду по разработке платежной системы\n\nЗп: до 150-200 т.р.(обсуждаемо)\nТребуемый опыт работы: 3–6 лет\nПолная занятость, полный день\n\nЕсли тебе интересны задачи по контейнерам и автоматизации, и для тебя такие аббревиатуры как DevOps, IaaC, SCM, PaaS, AWS, K8S, VCS, RegExp - не пустой звук, то тебе к нам!\n\nМы занимаемся разработкой платежной системы.\nМы совместили технические инновации и надежность классических финансовых институтов чтобы создавать удобные и полезные цифровые финансовые продукты для жизни, работы и бизнеса.\nМы создаем высокотехнологичные, надежные инструменты по управлению финансами, полностью регламентированы законами ЕС, а значит средства наших клиентов и персональные данные находятся в безопасности.\n\nС нами работают уже более 80-ти молодых, талантливых и амбициозных специалистов, которые каждый день создают передовые технологии вместе с нами!\n\nЗадачи:\n 1-Обеспечение бесперебойной работы серверов и приложений Компании (не менее 99.9% доступности);\n 2-Разработка и поддержка Docker-контейнеров приложений и оркестрация микросервисов с использованием Kubernetes;\n 3-CI/CD pipelining;\n 4-Развитие и поддержка мониторинга доступности сервисов Компании;\n 5-Автоматизация развертывания новых сервисов и управление конфигурациями;\n\nТочно нужно:\n 1-Знание Linux(Debian-based, RedHat-based) – мы ждем администраторов;\n 2-Nginx;\n 3-Docker– разработка образов контейнеров;\n 4-Bash,Python– написание скриптов автоматизации;\n 5-Teamcity(GitlabCI, Jenkins) – реализация CI/CDpipeline;\n 6-Git;\n 7-Puppet (Chef, Ansible, Salt) – разработка своих модулей, модификация существующих;\n\nДополнительным преимуществом будет:\n 1-Если Вы создавали кластеры на Kubernetes и настраивали в них сетевую подсистему;\n 2-Если Вы знакомы с Helm;\n 3-Работали с Prometheus;\n 4-Готовили vSphere (VCSA HA, advanced networking);\n 5-Слышали о Foreman;\n 6-Использовали регулярные выражения;\n 7-Использовали Hiera;\nУсловия:\n 1-Возможность выбрать время начала работы (с 8:00/9:00/10:00);\n 2-Современный, просторный офис;\n 3-Современный рабочий компьютер (16 GBRAM, SSD), удобное рабочее место;\n 4-Комфортная кухонная зона для кофе-брейков, зона отдыха, PS4 PRO +VR;\n 5-Возможность выбрать на чем работать: Windows/Linux\nА еще:\n 1-ДМС по окончанию испытательного срока;\n 2-Корпоративные курсы по изучению Английского языка;\n 3-Компенсация расходов на питание по картам Obed.ru;\n 4-Компенсация расходов на спорт, внутри БЦ World Trade Center;\n\nKA RedCode\nКонтакты: @dmitry_demyanov\n\n—\n\n👉 Обсуждение вакансии в чате @devops_jobs","markup":[{"type":"hashtag","offset":0,"length":9,"data":"вакансия"},{"type":"hashtag","offset":10,"length":7,"data":"Москва"},{"type":"hashtag","offset":18,"length":7,"data":"devops"},{"type":"hashtag","offset":26,"length":16,"data":"полнаязанятость"},{"type":"link","offset":2420,"length":7,"data":"http://Obed.ru"},{"type":"handle","offset":2515,"length":16,"data":"dmitry_demyanov"},{"type":"handle","offset":2566,"length":12,"data":"devops_jobs"}],"date":"2020-03-23T07:48:35+00:00","link":"tg://resolve?domain=devops_jobs_feed&post=1837","tags":[{"name":"amazon-web-services"},{"name":"docker"},{"name":"kubernetes"},{"name":"linux"},{"name":"debian"},{"name":"nginx"},{"name":"bash"},{"name":"python"},{"name":"jenkins"},{"name":"git"},{"name":"ansible"},{"name":"windows"}],"cities":[{"code":"moscow"}],"allowsRemote":false}},{"node":{"__typename":"Job","id":"1924136960-1001134745498","title":"Devops инженер","text":"#devops  #middle  #senior #вакансия\n\nВсем добрый вечер\n\nЯ ищу Ведущего devops / системного инженера в компанию,  которая занимается разработкой системного интегратора ПО в области виртуализации и облачных технологий.\n\nЧто хотят:\nЖелательно - высшее профильное образование и соответствующий опыт работы от 3-5 лет\nОС: Linux, Unix\nCI/CD: Jenkins, Teamcity, Travis и аналоги\nКонтейнеры: Docker\nВеб-сервисы: Ngnix, UWSGI\nМониторинг/алертинг: AppDynamics, Nagios, Zabbix etc.\nОпыт администрирования реплицированных СУБД (PostgreSQL или MariaDB, MongoDB)\nОпыт работы с elasticsearch/logstash/kibana\nAnsible, Salt\nОпыт администрирования облачных серверов (например - под платформами Amazon EC2, GoogleCloud, VmWare vSphere, OpenStack или прочих)\n\nПлюсами будут:\nустановка/обслуживание - Reverse Proxy (Nginx …), caсhing\nserver (Squid, Nginx etc.)\nустановка/обслуживание - load balancer (HAProxy, Nginx, etc.)\nBash Scripts.\nProcess Monitoring: ps, top, htop, atop, .. etc\nSystem Performance: nmon, iostat, sar, vmstat etc\nNetworking: nmap, tcpdump, ping, traceroute, airmon, etc.\nkubernetes/docker swarm\n\nОсновные обязанности:\nРазвертка контуров (dev, qas, prod)\nPerformance тестирование, нагрузочное тестирование\nСборка и обновление из репозиториев\nПоиск и устранение проблем\n\nЧто дают:\nХорошая ЗП. от 120 000 руб. до 200.000 по результатам собеседования.\nВозможна удаленная работа \nТак же есть возможность работы в офисе.\nг. Москва Сколково, возможна работа из офиса в г. Санкт-Петербурге и г Нижний Новогород (ул Грузинская).\n\nКомпания: http://asdtech.co/\n\nКонтакты: @mayke_kin\n\n—\n\n👉 Обсуждение вакансии в чате @devops_jobs","markup":[{"type":"hashtag","offset":0,"length":7,"data":"devops"},{"type":"hashtag","offset":9,"length":7,"data":"middle"},{"type":"hashtag","offset":18,"length":7,"data":"senior"},{"type":"hashtag","offset":26,"length":9,"data":"вакансия"},{"type":"link","offset":1532,"length":18,"data":"http://asdtech.co/"},{"type":"handle","offset":1562,"length":10,"data":"mayke_kin"},{"type":"handle","offset":1607,"length":12,"data":"devops_jobs"}],"date":"2020-03-21T19:32:19+00:00","link":"tg://resolve?domain=devops_jobs_feed&post=1835","tags":[{"name":"linux"},{"name":"unix"},{"name":"jenkins"},{"name":"docker"},{"name":"postgresql"},{"name":"mariadb"},{"name":"mongodb"},{"name":"elasticsearch"},{"name":"logstash"},{"name":"ansible"},{"name":"nginx"},{"name":"bash"},{"name":"kubernetes"}],"cities":[{"code":"moscow"}],"allowsRemote":true}},{"node":{"__typename":"Job","id":"1913651200-1001134745498","title":"Devops инженер","text":"#вакансия #DevOps\nМосква, м.Ботанический сад\nФормат работы: офис\nЗанятость: полная\nЗаработная плата: 180 000р. на руки - фиксированный оклад\n(в планах со 2/3 квартала - квартальные премии по итогам работы до 45 000р. на руки) \nЧто делать:\n- Разработка и поддержка инфраструктуры для dev/test/prod (On-Cloud и On-Premise);\n- Разработка и поддержка процессов CI/CD;\n- Выбор технологий для реализации проектов;\n- Разработка и поддержка систем мониторинга, регистрации инцидентов и оповещения;\n- Организация бесперебойной работы всех сервисов (на всех уровнях: от инфраструктуры до разрабатываемого ПО);\n- Развертывание и поддержка общей инфраструктуры (nginx, haproxy, dns, iptables, ssh, sssd & etc).\nЧто нужно знать и уметь:\n- Экспертное понимание Linux (Ubuntu/CentOS7);\n- Знание скриптовых языков;\n- Опыт работы с технологиями виртуализации (VMware) и контейнеризации (Docker);\n- Опыт развёртывания и эксплуатации CI/CD (GitLab-CI, Jenkins);\n- Навыки работы и администрирования GitLab, Jira, Confluence;\n- Опыт внедрения и эксплуатации систем мониторинга и сбора метрик (ELK, Prometheus, Grafana, Sentry);\n- Опыт развёртывания и эксплуатации Redis, MySQL, RabbitMQ, HAProxy, nginx, PostgreSQL, php-fpm);\n- Интеграция Jenkins, Jira, GitLab. \nКомпания: АСНА (www.asna.ru)\nКонтакты: 8(965)194-28-96 (WhatsApp), @mil0lika (Telegram)\n\n—\n\n👉 Обсуждение вакансии в чате @devops_jobs","markup":[{"type":"hashtag","offset":0,"length":9,"data":"вакансия"},{"type":"hashtag","offset":10,"length":7,"data":"DevOps"},{"type":"link","offset":1258,"length":11,"data":"http://www.asna.ru"},{"type":"link","offset":1281,"length":15,"data":"tel:8(965)194-28-96"},{"type":"handle","offset":1309,"length":9,"data":"mil0lika"},{"type":"handle","offset":1364,"length":12,"data":"devops_jobs"}],"date":"2020-03-18T10:52:54+00:00","link":"tg://resolve?domain=devops_jobs_feed&post=1825","tags":[{"name":"cloud"},{"name":"nginx"},{"name":"dns"},{"name":"ssh"},{"name":"linux"},{"name":"ubuntu"},{"name":"centos"},{"name":"docker"},{"name":"gitlab"},{"name":"jenkins"},{"name":"redis"},{"name":"mysql"},{"name":"rabbitmq"},{"name":"postgresql"},{"name":"php"}],"cities":[{"code":"moscow"}],"allowsRemote":false}},{"node":{"__typename":"Job","id":"1909456896-1001134745498","title":"Devops инженер","text":"Всем привет\nПопробуем снова)\n\n#вакансия\nМосква, Бауманская\nРабота в офисе (Классный, современный)\nПолная занятость\nот 150.000 (На руки, после налогов) до 170.000\nМы ищем крутого DevOps в нашу команду. HomeApp быстро растёт, и нам необходим человек, который будет следить за тем, чтобы всё не рухнуло в один момент. \n\nМы ожидаем, что ты:\n\nумеешь администрировать linux-системы;\nзнаешь как работают облачные системы;\nхорошо разбираешься в Docker и Kubernetes;\nзнаком с Google Cloud;\nзнаешь как разграничивать права доступа к инфраструктуре для разных ролей в системе;\nпонимаешь как настраивать интеграцию Jira/GitHub/Teamcity и других частей CI/CD;\nзнаешь Python, GO или PHP на базовом уровне;\nможешь развернуть VPN для доступа ко внутренним сервисам;\nхорошо разбираешься в настройке PostgreSQL, RabbitMQ, nginx.\nЧто у нас внутри:\nмы пишем на PHP7 и Symfony 4;\n•  храним данные в PostgreSQL, Google Cloud Storage;\n•  используем Docker как основу для сборки релизов;\n•  запускаем релизы в Google Kubernetes Engine;\n•  пишем unit-тесты и функциональные тесты в Codeception;\n•  придерживаемся scrum;\n•  планируем задачи в Jira;\n•  держим код на GitHub;\n\n\nПодробнее можно ознакомиться здесь:\n\nhttps://career.habr.com/vacancies/1000056382\n\nHomeApp\nhomeapp.ru\n\nПисать можно в телеграмм: \n@SugarLeps\n\nИли на почту: \nEvgeniy.kozlov@homeapp.ru\n\n—\n\n👉 Обсуждение вакансии в чате @devops_jobs","markup":[{"type":"hashtag","offset":30,"length":9,"data":"вакансия"},{"type":"link","offset":1187,"length":44,"data":"https://career.habr.com/vacancies/1000056382"},{"type":"link","offset":1241,"length":10,"data":"http://homeapp.ru"},{"type":"handle","offset":1280,"length":10,"data":"SugarLeps"},{"type":"link","offset":1307,"length":25,"data":"mailto:Evgeniy.kozlov@homeapp.ru"},{"type":"handle","offset":1367,"length":12,"data":"devops_jobs"}],"date":"2020-03-16T15:00:41+00:00","link":"tg://resolve?domain=devops_jobs_feed&post=1821","tags":[{"name":"linux"},{"name":"docker"},{"name":"kubernetes"},{"name":"cloud"},{"name":"github"},{"name":"python"},{"name":"php"},{"name":"postgresql"},{"name":"rabbitmq"},{"name":"nginx"},{"name":"symfony"},{"name":"google-cloud-platform"},{"name":"google-cloud-storage"}],"cities":[{"code":"moscow"}],"allowsRemote":false}},{"node":{"__typename":"Job","id":"1908408320-1001134745498","title":"Devops инженер","text":"#вакансия #Москва #Калиниград #Linux  #DevOps\n#remote #удалёнка #офис \nГород: Москва, Калиниград\nЗанятость: полная\nФормат работы: офис или удаленка\nЗарплатная вилка: от 100 000 до 150 000\nОписание вакансии:\nЧто нужно делать?\n\n-Автоматизация рутинных процессов;\n-Поддержка и развитие CI/CD\n-Настройка систем непрерывного мониторинга, сбора логов и т.д.\n-Развертывание окружений (dev, test, prod)\n-Разбор критических ситуаций, оперативное устранение выявленных неисправностей\n-Активное участие при прорабатывании новой архитектуры продукта, внедрение новейших сервисов и технологий\nТребования:\n\n-Опыт работы с Docker и (желательно) с системами оркестрации (swarm/kubernetes/openshift)\n-Опыт работы с Web-стеком PHP/NGINX/PostgreSQL\n-Опыт настройки, кластеризации rabbitMQ, PostgreSQL, ElasticSearch будет большим плюсом\n-Опыт работы с SCM (Ansible, Puppet) будет большим плюсом\n-Опыт работы с continuous integration, build&release management\n-Знание систем контроля версий. У нас Git (Gitlab)\n-Scripting (PowerShell, bash/python)\nНазвание компании: Cognitive Technologies \nКонтакты:  @codefather_ru можно в https://kaliningrad.hh.ru/vacancy/36234203\nhttps://kaliningrad.hh.ru/vacancy/36234204\n\n—\n\n👉 Обсуждение вакансии в чате @devops_jobs","markup":[{"type":"hashtag","offset":0,"length":9,"data":"вакансия"},{"type":"hashtag","offset":10,"length":7,"data":"Москва"},{"type":"hashtag","offset":18,"length":11,"data":"Калиниград"},{"type":"hashtag","offset":30,"length":6,"data":"Linux"},{"type":"hashtag","offset":38,"length":7,"data":"DevOps"},{"type":"hashtag","offset":46,"length":7,"data":"remote"},{"type":"hashtag","offset":54,"length":9,"data":"удалёнка"},{"type":"hashtag","offset":64,"length":5,"data":"офис"},{"type":"handle","offset":1082,"length":14,"data":"codefather_ru"},{"type":"link","offset":1105,"length":42,"data":"https://kaliningrad.hh.ru/vacancy/36234203"},{"type":"link","offset":1148,"length":42,"data":"https://kaliningrad.hh.ru/vacancy/36234204"},{"type":"handle","offset":1225,"length":12,"data":"devops_jobs"}],"date":"2020-03-16T14:58:57+00:00","link":"tg://resolve?domain=devops_jobs_feed&post=1820","tags":[{"name":"linux"},{"name":"docker"},{"name":"kubernetes"},{"name":"web"},{"name":"php"},{"name":"nginx"},{"name":"postgresql"},{"name":"rabbitmq"},{"name":"elasticsearch"},{"name":"ansible"},{"name":"git"},{"name":"gitlab"},{"name":"powershell"},{"name":"bash"},{"name":"python"},{"name":"continuous-integration"}],"cities":[{"code":"moscow"},{"code":"kaliningrad"}],"allowsRemote":true}},{"node":{"__typename":"Job","id":"1907359744-1001134745498","title":"Devops инженер","text":"#вакансия #Москва #офис #Linux #Unix #DevOps\nВ крупный банк ищем DevOps инженера\n🎱 Город и адрес офиса: Москва\n🎱 Формат работы: офис, fulltime\n🎱 Занятость: полная \n🎱 Условия: зп от 170 до 250К. ДМС, фитнес, английский язык. \n\n🎱 Задачи:\nCопровождение проектов на микросервисной архитектуре.\n\n🎱 Ожидания:\nОпыт работы инженером DEVOPS или ведущим системным инженером/администратором;\nЗнание Linux-подобных систем, умение настраивать Nginx , Apache HTTPD, HAProxy;\nЗнание сетевых технологий(TCP/IP, HTTP(S), TLS… );\nПонимание технологии виртуализации серверов;\nЗнание Docker на продвинутом уровне;\nБазовое знакомство с: Prometheus-Grafana/Zabbix,Elasticsearch-Logstash-Kibana(ELK);\nОпыт администрирования в production средах оркестраторов микросервисов: Kubernetes или OpenShift;\nОпыт построения процессов CI/CD для микросервисов с использованием GitLab CI;\nОпыт использования Helm для деплоя микросервисов, способность читать, понимать и при необходимости написать свои Helm-чарты;\nОпыт работы с базами данных PostgreSQL,MongoDB.\n\n🎱 Контакты: @kornet_croft\n\n—\n\n👉 Обсуждение вакансии в чате @devops_jobs","markup":[{"type":"hashtag","offset":0,"length":9,"data":"вакансия"},{"type":"hashtag","offset":10,"length":7,"data":"Москва"},{"type":"hashtag","offset":18,"length":5,"data":"офис"},{"type":"hashtag","offset":24,"length":6,"data":"Linux"},{"type":"hashtag","offset":31,"length":5,"data":"Unix"},{"type":"hashtag","offset":37,"length":7,"data":"DevOps"},{"type":"handle","offset":1047,"length":13,"data":"kornet_croft"},{"type":"handle","offset":1095,"length":12,"data":"devops_jobs"}],"date":"2020-03-16T11:10:02+00:00","link":"tg://resolve?domain=devops_jobs_feed&post=1819","tags":[{"name":"linux"},{"name":"unix"},{"name":"nginx"},{"name":"apache"},{"name":"docker"},{"name":"elasticsearch"},{"name":"logstash"},{"name":"kubernetes"},{"name":"gitlab"},{"name":"postgresql"},{"name":"mongodb"}],"cities":[{"code":"moscow"}],"allowsRemote":false}},{"node":{"__typename":"Job","id":"1904214016-1001134745498","title":"Devops инженер","text":"#вакансия \nВакансия: #devops  #fulltime #office\nКомпания: #нспк #псмир\nЛокация: #томск\nЗ/п: 100к-180к net (после вычета налогов)\n\n«Национальная система платежных карт» ищет DevOps-инженера.\n\nНСПК - развивающаяся компания, создающая финтех-сервисы, которыми пользуются миллионы людей. \n\nЗа 5 лет нашей истории мы разработали бизнес-продукты, аналоги которых в мире можно пересчитать по пальцам:\n✔️Платежная система \"Мир\";\n✔️Система быстрых платежей;\n✔️Программа лояльности \"Мир\";\n✔️Сервис мобильной оплаты MirPay;\n✔️Система аутентификации пользователей MirAccept.  \n\n⛏ Наш стек:  \nLinux, Docker, Git, Jenkins, Nexus, Ansible, Groovy, Python, Java, Spring, Gradle, MySql, Nginx, HAProxy, Kafka, Hazelcast, Prometheus, ELK, Atlassian stack. \n\n🧠 Какие у нас бывают задачи?\n- Написание конвейеров (CI/CD); \n- Автоматизация процессов создания окружений инфраструктуры разработки (репозитории, типовые job CI, RBAC, Ansible roles);\n- Автоматизация housekeeping. \n\n🎁 Мы предлагаем:\n- Работу в команде профессионалов;\n- Обучение за счет компании;\n- Развитую корпоративную культуру;\n- ДМС со стоматологией, официальное трудоустройство; \n- Комфортный офис в центре;\n- Чай, кофе, печеньки✌️\n\nХотите поучаствовать в масштабном и сложном проекте?\n\nМои контакты:\n📲 +7-916-051-20-63\n      @Ekaterina1915 \n\n📩 makarovaen@nspk.ru\n\n—\n\n👉 Обсуждение вакансии в чате @devops_jobs","markup":[{"type":"hashtag","offset":0,"length":9,"data":"вакансия"},{"type":"hashtag","offset":21,"length":7,"data":"devops"},{"type":"hashtag","offset":30,"length":9,"data":"fulltime"},{"type":"hashtag","offset":40,"length":7,"data":"office"},{"type":"hashtag","offset":58,"length":5,"data":"нспк"},{"type":"hashtag","offset":64,"length":6,"data":"псмир"},{"type":"hashtag","offset":80,"length":6,"data":"томск"},{"type":"link","offset":1253,"length":16,"data":"tel:+7-916-051-20-63"},{"type":"handle","offset":1276,"length":14,"data":"Ekaterina1915"},{"type":"link","offset":1296,"length":18,"data":"mailto:makarovaen@nspk.ru"},{"type":"handle","offset":1349,"length":12,"data":"devops_jobs"}],"date":"2020-03-16T09:19:44+00:00","link":"tg://resolve?domain=devops_jobs_feed&post=1816","tags":[{"name":"dotnet"},{"name":"linux"},{"name":"docker"},{"name":"git"},{"name":"jenkins"},{"name":"ansible"},{"name":"groovy"},{"name":"python"},{"name":"java"},{"name":"spring"},{"name":"gradle"},{"name":"mysql"},{"name":"nginx"},{"name":"kafka"}],"cities":[{"code":"tomsk"}],"allowsRemote":false}},{"node":{"__typename":"Job","id":"1900019712-1001134745498","title":"Devops инженер","text":"#вакансия #linux #sberdevices \nВакансия: Linux инженер \nКомпания: Сбербанк\nГород и адрес: Москва, Кутузовский пр-т, 32\nФормат работы: офис \nЗанятость: полная \nЗарплатная вилка: от 100 000 до 250 000\n\nКоманда эксплуатации SberDevices ищет коллег в дружный коллектив.\nМы создаем отказоустойчивую инфраструктуру для умных устройств и высоконагруженных систем.\nХочешь создавать инфраструктуру с 0?\nПосле выполнения пары однотипных задач автоматизируешь процесс?\nЛюбишь нарушать правило «Работает - не трогай!»?\nТогда мы ждём тебя на собеседование! :)\n\nЧем предстоит заниматься:\n• Прорабатывать базовую архитектуру и реализовывать её;\n• Строить и поддерживать отказоустойчивые системы;\n• Мониторинг инфраструктуры (сбор и анализ метрик, логирование, проактивный мониторинг);\n• Troubleshooting проблем на уровне операционной системы/сети (strace, tcpdump, etc);\n• Автоматизация рутинных задач.\n\nТребования:\n• Уверенные знания Linux;\n• Понимание принципов работы сети (TCP/IP);\n• Опыт работы с системами управления конфигурациями (Ansible, Puppet, etc);\n• Опыт работы с системами виртуализации (Proxmox, VmWare, etc);\n• Опыт работы с системами контроля версий (git);\n• Опыт программирования (Bash, Python).\n\nБудет плюсом опыт работы со следующими продуктами:\n• ELK stack, Zabbix, Prometheus, Grafana;\n• Ceph (radosgw);\n• Базами данных (PostgreSQL, Oracle);\n• Nginx.\n\nЧто мы предлагаем?\n• Возможность принять участие в разработке продуктов от идеи до реализации;\n• Гибкий график;\n• Возможность обучения за счет компании;\n• Страхование (от несчастных случаев, ДМС (включая поездки за рубеж));\n• Оздоровительные программы для детей сотрудников;\n• Дисконт-программы от компаний партнеров (фитнес, страхование, туризм);\n• Льготное кредитование;\n• Столовая, бесплатный тренажерный зал на территории офиса, бесплатная парковка;\n• Место работы - ст.м. Кутузовская.\n\nКонтакты:\nhttps://hh.ru/vacancy/36070450 (отклик на Headhunter) \n@Nastik8 (telegram)\n\n—\n\n👉 Обсуждение вакансии в чате @devops_jobs","markup":[{"type":"hashtag","offset":0,"length":9,"data":"вакансия"},{"type":"hashtag","offset":10,"length":6,"data":"linux"},{"type":"hashtag","offset":17,"length":12,"data":"sberdevices"},{"type":"link","offset":1861,"length":30,"data":"https://hh.ru/vacancy/36070450"},{"type":"handle","offset":1916,"length":8,"data":"Nastik8"},{"type":"handle","offset":1970,"length":12,"data":"devops_jobs"}],"date":"2020-03-13T11:01:06+00:00","link":"tg://resolve?domain=devops_jobs_feed&post=1812","tags":[{"name":"linux"},{"name":"ansible"},{"name":"git"},{"name":"bash"},{"name":"python"},{"name":"postgresql"},{"name":"oracle"},{"name":"nginx"}],"cities":[{"code":"moscow"}],"allowsRemote":false}}]}}},"context":{}}