{"hash":"f5f6bf98bd95e769321482904cbbd488f77922fd","data":{"records":{"totalCount":669,"pageInfo":{"totalPages":67,"currentPage":1},"edges":[{"node":{"id":"72626470912-1001054966032","title":"Ios developer","text":"#вакансия #москва #удаленка #fulltime #IOSdeveloper #swift #middle #senior \n\nКриптериум (https://crypterium.com) \n\nМеждународный финтех стартап (криптофиатные операции).\n\n🟢Что предстоит делать?\n\n🔹Разработка нового функционала мобильного приложения под iOS и исправление существующих недостатков;\n🔹Проведение интеграционных тестов при передаче функционала в тест;\n🔹Участие в принятии технических решений и планировании процесса разработки продукта;\n🔹Участие в CodeReview;\n🔹Покрытие написанного кода UnitTest’ами;\n🔹Участие в проектировании REST API.\n\n🟢Какие skill’s мы хотим видеть в нашем будущем коллеге?\n\n🔹Отличное знание Swift.\n🔹Знание архитектуры MVVM.\n🔹Использование Router, Assemblies, Managers.\n🔹Понимание принципов работы RESTful API и HTTP.\n🔹Знание шаблонов проектирования и умение их применять, придерживаясь принципов SOLID.\n🔹Знание основных алгоритмов и структур данных.\n🔹Умение писать поддерживаемый и тестируемый код.\n🔹Опыт модульного программирования в больших проектах\n🔹Понимание linking библиотек\n\n🟢Что мы готовы предложить будущему коллеге?\n\n🔹По настоящему заряженная команда профессионалов\n🔹Удаленная работа, с возможностью приезжать в офис, гибкое начало рабочего дня (c 9 до 12)\n🔹Возможности профессионально развиваться и расти\n\n📱Контакты:\n@kriskrisych Кристина","markup":[{"type":"hashtag","offset":0,"length":9,"data":"вакансия"},{"type":"hashtag","offset":10,"length":7,"data":"москва"},{"type":"hashtag","offset":18,"length":9,"data":"удаленка"},{"type":"hashtag","offset":28,"length":9,"data":"fulltime"},{"type":"hashtag","offset":38,"length":13,"data":"IOSdeveloper"},{"type":"hashtag","offset":52,"length":6,"data":"swift"},{"type":"hashtag","offset":59,"length":7,"data":"middle"},{"type":"hashtag","offset":67,"length":7,"data":"senior"},{"type":"link","offset":89,"length":22,"data":"https://crypterium.com"},{"type":"handle","offset":1282,"length":12,"data":"kriskrisych"}],"date":"2020-07-03T11:42:08+00:00","link":"tg://resolve?domain=mobile_jobs&post=0","tags":[{"name":"mobile"},{"name":"ios"},{"name":"swift"},{"name":"rest"},{"name":"mvvm"}],"cities":[{"code":"moscow"}],"allowsRemote":true}},{"node":{"id":"72624373760-1001054966032","title":"Android developer","text":"#вакансия #Middle+ #Android developer #kotlin #удаленно                                                                                                         Уровень дохода:💵 130 000-150 000  рублей net                                                                                                                                                                                 Требуемый опыт работы: 2-4 года\nПолная занятость, дистанционно, гибкое начало рабочего дня\n \n📌Требования:\n- Нативная Android разработка (Kotlin)\n- Умение писать поддерживаемый и тестируемый код\n- Умение работать с Dagger 2\n- Умение работать с git\n- Желание развиваться и изучать новое в разработке\n- Опыт разработки приложений от 2 лет\n -Знание английского языка от уровня Intermediate\n \n📌Будет плюсом:\n- Опыт работы с JNI\n- Опыт использования tensorflow\n- Опыт работы с аудио и видео\n\n📌Условия:\n- Отсутствие бюрократии\n- Время начала рабочего дня обговариваем индивидуально\n- Крутой инновационный проект - возможность самореализации и профессионального роста\n- Стабильное зарубежное финансирование\n- Десятки миллионов установок и множество глобальных партнёров\n📞Контакты @SvetikS_hr +7(963)-632-12-36 Cветлана","markup":[{"type":"hashtag","offset":0,"length":9,"data":"вакансия"},{"type":"hashtag","offset":10,"length":7,"data":"Middle"},{"type":"hashtag","offset":19,"length":8,"data":"Android"},{"type":"hashtag","offset":38,"length":7,"data":"kotlin"},{"type":"hashtag","offset":46,"length":9,"data":"удаленно"},{"type":"handle","offset":1158,"length":11,"data":"SvetikS_hr"},{"type":"link","offset":1170,"length":17,"data":"tel:+7(963)-632-12-36"}],"date":"2020-07-03T11:32:22+00:00","link":"tg://resolve?domain=mobile_jobs&post=69260","tags":[{"name":"mobile"},{"name":"android"},{"name":"kotlin"},{"name":"dotnet"},{"name":"git"},{"name":"tensorflow"}],"cities":[],"allowsRemote":true}},{"node":{"id":"26997686272-1001075660570","title":"Php программист","text":"#вакансия #работа #fulltime #parttime #laravel #php #backend #Web\nГород и адрес офиса: Москва\nФормат работы: удаленка\nЗанятость: частичная, не менее 20-30 часов в неделю или полная 40 часов в неделю Зарплатная вилка: от 7$ до 20$ в час, либо сдельная\n\nПривет! Мы ищем человека который вольется в нашу команду для развития платформы EdaPort. Вам предстоит полностью взять на себя развитие бекенд-части.\nТребования:\nЗнание Laravel 5.x\nPHP 7.0 +\nЗнание для чего нужен REST-API и как его готовить\nРазбираться в чужом коде (наша платформа уже в продакшене)\nПисать понятные любому программисту Swagger-аннотации\nИметь представления о хорошей архитектуре, сейчас все не идеально, мы хотим чтобы становилось лучше с каждой итерацией.\nЛюбить или хотя бы не бояться писать тесты, понимать зачем они вообще нужны.\nИметь представление как работает CI\nОпыт работы по подключению платежных систем будет плюсом.\nУмение работать в команде, доступность с 10 до 19 по Москве (большую часть этого промежутка) для коммуникаций с командой.\nОпыт работы с таск-менеджерами будет плюсом.\n\nРабота удаленная, перед началом сотрудничества нужно будет пройти небольшое телефонное интервью с командой.\n\nКомпания: Enlighted\nКонтакты: Писать мне в личку @westarakagrek или на почту ra@enlighted.ru","markup":[{"type":"hashtag","offset":0,"length":9,"data":"вакансия"},{"type":"hashtag","offset":10,"length":7,"data":"работа"},{"type":"hashtag","offset":18,"length":9,"data":"fulltime"},{"type":"hashtag","offset":28,"length":9,"data":"parttime"},{"type":"hashtag","offset":38,"length":8,"data":"laravel"},{"type":"hashtag","offset":47,"length":4,"data":"php"},{"type":"hashtag","offset":52,"length":8,"data":"backend"},{"type":"hashtag","offset":61,"length":4,"data":"Web"},{"type":"handle","offset":1223,"length":14,"data":"westarakagrek"},{"type":"link","offset":1251,"length":15,"data":"mailto:ra@enlighted.ru"}],"date":"2020-07-03T11:31:03+00:00","link":"tg://resolve?domain=php_jobs&post=25747","tags":[{"name":"php"},{"name":"laravel"},{"name":"web"},{"name":"rest"},{"name":"swagger"}],"cities":[{"code":"moscow"}],"allowsRemote":true}},{"node":{"id":"72622276608-1001054966032","title":"Ios developer","text":"#вакансия #спб #ios #middle #senior #spb #офис #IoT #умныйдом \nMiddle/Senior iOS developer \nReady for Sky 🚀 \nhttps://readyforsky.com/ru/career/ \n📍 полный день, удаленно в СПб/офис м. Нарвская \nМы ищем iOS developer, который будет разрабатывать приложение, использующее данные с IoT-устройств для предоставления пользователям нужных товаров и услуг \n💡 Используем: Swift, Objective-C; Jenkins; GraphQL; RxSwift; MVC, MVVM и Viper \nВ команде: разрабатываем новый функционал приложения, внутренние фреймворки (Private pods), фреймворки для общего доступа; пишем Unit тесты; принимаем участие в создании протоколов работы с умными устройствами; Refactoring и Code-review. \nПредлагаем: \nРаботу в профессиональной команде (team lead, senior, middle), более 300 000 активных пользователей приложения. \nЗП от 130 до 250 тыс. руб. \nПосле исп.срока корпоративный английский \n📬 Пиши: @Rupeka_Natali","markup":[{"type":"hashtag","offset":0,"length":9,"data":"вакансия"},{"type":"hashtag","offset":10,"length":4,"data":"спб"},{"type":"hashtag","offset":15,"length":4,"data":"ios"},{"type":"hashtag","offset":20,"length":7,"data":"middle"},{"type":"hashtag","offset":28,"length":7,"data":"senior"},{"type":"hashtag","offset":36,"length":4,"data":"spb"},{"type":"hashtag","offset":41,"length":5,"data":"офис"},{"type":"hashtag","offset":47,"length":4,"data":"IoT"},{"type":"hashtag","offset":52,"length":9,"data":"умныйдом"},{"type":"bold","offset":63,"length":27,"data":""},{"type":"bold","offset":92,"length":13,"data":""},{"type":"link","offset":110,"length":34,"data":"https://readyforsky.com/ru/career/"},{"type":"bold","offset":203,"length":13,"data":""},{"type":"bold","offset":354,"length":11,"data":""},{"type":"bold","offset":432,"length":10,"data":""},{"type":"bold","offset":671,"length":11,"data":""},{"type":"bold","offset":870,"length":5,"data":""},{"type":"handle","offset":876,"length":14,"data":"Rupeka_Natali"}],"date":"2020-07-03T11:26:33+00:00","link":"tg://resolve?domain=mobile_jobs&post=69258","tags":[{"name":"mobile"},{"name":"ios"},{"name":"swift"},{"name":"objective-c"},{"name":"jenkins"},{"name":"graphql"},{"name":"mvvm"}],"cities":[],"allowsRemote":true}},{"node":{"id":"17361272832-1001110946746","title":"Js разработчик","text":"#вакансия #node.js #typescript #офис #москва #мск #частичноудаленка \nГород и адрес офиса:  #москва #мск  #калужская\nФормат работы: офис, фултайм, гибкий график, можно несколько дней в неделю удаленно\nЗанятость: полная\nЗарплатная вилка: 160-230 т.р. net \nОписание вакансии: \nИщу сейчас Node.js разработчика в компанию, разрабатывающую собственную платформу для бесконтактных заказов: QR приложение (облачный киоск), мобильные приложения и терминалы самообслуживания для сетей ресторанов и кофеен. Продукт позволяет автоматизировать процесс заказа, сбора, оплаты и выдачи заказа - и сделать эти шаги бесконтактными.\n\nОформление белое, сейчас сильно масштабируем наш продукт и есть все возможные перспективы роста 😊\nНазвание компании:  Star-Staff\nКонтакты: пишите на этот тг @yuliaataman","markup":[{"type":"hashtag","offset":0,"length":9,"data":"вакансия"},{"type":"hashtag","offset":10,"length":5,"data":"node"},{"type":"hashtag","offset":19,"length":11,"data":"typescript"},{"type":"hashtag","offset":31,"length":5,"data":"офис"},{"type":"hashtag","offset":37,"length":7,"data":"москва"},{"type":"hashtag","offset":45,"length":4,"data":"мск"},{"type":"hashtag","offset":50,"length":17,"data":"частичноудаленка"},{"type":"hashtag","offset":91,"length":7,"data":"москва"},{"type":"hashtag","offset":99,"length":4,"data":"мск"},{"type":"hashtag","offset":105,"length":10,"data":"калужская"},{"type":"handle","offset":773,"length":12,"data":"yuliaataman"}],"date":"2020-07-03T11:24:50+00:00","link":"tg://resolve?domain=javascript_jobs_feed&post=16557","tags":[{"name":"javascript"},{"name":"nodejs"},{"name":"typescript"},{"name":"dotnet"}],"cities":[{"code":"moscow"}],"allowsRemote":true}},{"node":{"id":"72619130880-1001054966032","title":"Ios разработчик","text":"#вакансия #ios #opengl #fulltime #remote #metal \nГород и адрес офиса: \nФормат работы: удаленка\nЗанятость: полная \nЗарплатная вилка: от 150 000 до 300 000 руб.\n\nПредстоит реализовать сложные задачи на iOS и выступить в роли эксперта по развитию продукта, поэтому мы рассматриваем только опытных (#senior) разработчиков.\n\nМы используем современные технологии, будет здорово, если у тебя есть опыт работы с Metal или желание в нём разобраться.\nGit - must have;\nSwift;\nCore Graphics, Core Animation;\nБольшой плюс - OpenGL, AVFoundation, Core Image, Core Audio, а также опыт вывода на рынок успешных коммерческих приложений.\n\nInstories\nhttp://instoriesapp.com/\n\nКонтакты: @instories","markup":[{"type":"hashtag","offset":0,"length":9,"data":"вакансия"},{"type":"hashtag","offset":10,"length":4,"data":"ios"},{"type":"hashtag","offset":15,"length":7,"data":"opengl"},{"type":"hashtag","offset":23,"length":9,"data":"fulltime"},{"type":"hashtag","offset":33,"length":7,"data":"remote"},{"type":"hashtag","offset":41,"length":6,"data":"metal"},{"type":"hashtag","offset":295,"length":7,"data":"senior"},{"type":"link","offset":631,"length":24,"data":"http://instoriesapp.com/"},{"type":"handle","offset":667,"length":10,"data":"instories"}],"date":"2020-07-03T10:40:09+00:00","link":"tg://resolve?domain=mobile_jobs&post=69255","tags":[{"name":"mobile"},{"name":"ios"},{"name":"opengl"},{"name":"git"},{"name":"swift"}],"cities":[],"allowsRemote":true}},{"node":{"id":"26990346240-1001075660570","title":"Php разработчик","text":"#вакансия #php #symfony #удаленка  #fulltime #parttime\n\nPHP-разработчик (middle, senior), Symfony 3.4+\n\nДля работы нужно: \n- опыт работы с Symfony 3.4+ и понимание DI, Doctrine\n- владение PostgreSQL\n\nБудет плюсом: \n- опыт работы с брокерами сообщений: Kafka, RabbitMQ\n- понимание принципов работы микросервисных систем\n- опыт автоматизированного тестирования (PHPUnit, Codeception)\n\nУсловия: 120-180к в зависимости от уровня, оформление ТК\n- Разработка web-сервисов и digital-решений. \nКомпания: grapheme.ru \n\nКонтакты: @AnastasiaTum","markup":[{"type":"hashtag","offset":0,"length":9,"data":"вакансия"},{"type":"hashtag","offset":10,"length":4,"data":"php"},{"type":"hashtag","offset":15,"length":8,"data":"symfony"},{"type":"hashtag","offset":24,"length":9,"data":"удаленка"},{"type":"hashtag","offset":35,"length":9,"data":"fulltime"},{"type":"hashtag","offset":45,"length":9,"data":"parttime"},{"type":"link","offset":496,"length":11,"data":"http://grapheme.ru"},{"type":"handle","offset":520,"length":13,"data":"AnastasiaTum"}],"date":"2020-07-03T10:35:12+00:00","link":"tg://resolve?domain=php_jobs&post=25740","tags":[{"name":"php"},{"name":"symfony"},{"name":"doctrine"},{"name":"postgresql"},{"name":"kafka"},{"name":"rabbitmq"},{"name":"phpunit"},{"name":"web"}],"cities":[],"allowsRemote":true}},{"node":{"id":"104347992064-1001089317451","title":"Qa engineer","text":"#вакансия #remote #office #fulltime #lead #teamlead #qa #qa_auto  #java #csharp\n\nКомпания: Quantori\nЛокация: remote или офис в Санкт-Петербурге/Воронеже\nЗанятость: full-time\nЗП вилка: от 3000$\nКонтакты: @Bukaa \n \nПривет! Мы в Quantori расширяем команду QA и ищем Lead QA Automation Engineer. Компания занимается системной интеграцией и разработкой программного обеспечения преимущественно в сфере Life Science.\n\nЗадачи: участие в развитии QA-компетенции, в формировании пула и найме, управление командой тестировщиков, проектная активность, регулярное общение с заказчиками из США и других стран.\n\nДетали по позиции и информация о нас здесь:\nhttps://career.quantori.com/lead-qa-automation-engineer","markup":[{"type":"hashtag","offset":0,"length":9,"data":"вакансия"},{"type":"hashtag","offset":10,"length":7,"data":"remote"},{"type":"hashtag","offset":18,"length":7,"data":"office"},{"type":"hashtag","offset":26,"length":9,"data":"fulltime"},{"type":"hashtag","offset":36,"length":5,"data":"lead"},{"type":"hashtag","offset":42,"length":9,"data":"teamlead"},{"type":"hashtag","offset":52,"length":3,"data":"qa"},{"type":"hashtag","offset":56,"length":8,"data":"qa_auto"},{"type":"hashtag","offset":66,"length":5,"data":"java"},{"type":"hashtag","offset":72,"length":7,"data":"csharp"},{"type":"handle","offset":203,"length":6,"data":"Bukaa"},{"type":"bold","offset":226,"length":8,"data":""},{"type":"bold","offset":412,"length":8,"data":""},{"type":"link","offset":642,"length":55,"data":"https://career.quantori.com/lead-qa-automation-engineer"}],"date":"2020-07-03T10:21:37+00:00","link":"tg://resolve?domain=qa_jobs&post=99514","tags":[{"name":"qa"},{"name":"java"},{"name":"csharp"}],"cities":[],"allowsRemote":true}},{"node":{"id":"17358127104-1001110946746","title":"Js разработчик","text":"#вакансия #работа #fulltime #parttime #JavaScript #vuejs #Frontend #Web\n\nГород и адрес офиса: Москва\nФормат работы: удаленка\nЗанятость: частичная, не менее 20-30 часов в неделю или полная 40 часов в неделю\nЗарплатная вилка: от 7$ до 20$ в час, либо сдельная\n\n\nО проекте:\nМы разрабатываем MVP нового сервиса для доставки и предзаказа еды. Также разрабатываем MVP для управления персоналом в сфере ЖКХ\n\nМакеты в Sketch, задачи в Трекере\n\nСтек:\nVue2 + Vuex\n\nОписание вакансии\nТребования:\nУмение верстать по макетам из Sketch/Figma\nПонимание принципа работы Vuex, уметь рассказать зачем он вообще нужен.\nvue+vuex, es6, vue-cli\nЗнание html, css3, BEM-методологии\nУмение работать с git, знание процесса git flow будет плюсом.\nОпыт интеграции Google/OSM maps будет плюсом.\nОпыт настройки CI/CD или хотя бы понимание как устроен процесс сборки Vue проекта.\n\nВам предстоит:\nРазрабатывать фронтенд-часть проекта по предоставленным макетам, никакого legacy, проект начинается с нуля.\nКомандная работа, утренние стендапы и еженедельные релизы.\n\nКомпания: Enlighted\n\nКонтакты:\nПисать мне в личку @westarakagrek или на почту ra@enlighted.ru\n\n—\n\n👉 Обсуждение вакансии в чате @javascript_jobs","markup":[{"type":"hashtag","offset":0,"length":9,"data":"вакансия"},{"type":"hashtag","offset":10,"length":7,"data":"работа"},{"type":"hashtag","offset":18,"length":9,"data":"fulltime"},{"type":"hashtag","offset":28,"length":9,"data":"parttime"},{"type":"hashtag","offset":38,"length":11,"data":"JavaScript"},{"type":"hashtag","offset":50,"length":6,"data":"vuejs"},{"type":"hashtag","offset":57,"length":9,"data":"Frontend"},{"type":"hashtag","offset":67,"length":4,"data":"Web"},{"type":"handle","offset":1083,"length":14,"data":"westarakagrek"},{"type":"link","offset":1111,"length":15,"data":"mailto:ra@enlighted.ru"},{"type":"handle","offset":1161,"length":16,"data":"javascript_jobs"}],"date":"2020-07-03T10:19:14+00:00","link":"tg://resolve?domain=javascript_jobs_feed&post=16554","tags":[{"name":"javascript"},{"name":"vuejs"},{"name":"web"},{"name":"html"},{"name":"css"},{"name":"git"}],"cities":[{"code":"moscow"}],"allowsRemote":true}},{"node":{"id":"17354981376-1001110946746","title":"Js developer","text":"#вакансия #ReactNative #NodeJS #Remote \n\n✅Вакансия: React Native  Developer\n✅Занятость: full-time, remote\n✅ЗП вилка:180000- 250 000 rub\nКА: IT.HuntMe\n\nCurrently we are looking for a Senior React Native Software Engineer to work on solutions for enterprise-level clients with our best-in-class engineering and design teams. \n❇️Responsibilities:\n* Build New ReactNative app\n* Integrate with our Cloud-based video editing API\n* Implement new UI to expose new editing features\n* Convert product requirements into actionable and tangible items for all stakeholders\n* Overall Design - code, performance, security\n* Release estimation, planning and timely integration with other stakeholders (product, app, backend, ui/ux etc)\n* Performance fixes and optimization\n* JSON API design and finalization\n* Continuously discover, evaluate, and implement new best practices to maximize development quality efficiency\n* Code review\n* Build modular, efficient, testable, and reusable React components\n\n❇️Basic qualifications:\n* Experienced, ReactNative Lead\n* Comfortable with modern JS frameworks (NodeJS, ReactJS/AngularJS), MongoDB, HTML5 and SASS\n* Have experience building and running production-ready API’s\n* 2+ years of React Native/full-stack work experience\n* Influence which tools, programming languages, and technologies you work with\n* Help ensure we have a smooth software pipeline for continuous and fast delivery\n* Balance discovery phases with implementation work\n* Be excellent at working both independently and in a team\n* Passion for software development, scalable architecture and product build\n\n♻️Preferred qualifications:\n* Native Android or iPhone development experience, or experience developing in Ionic\n* Experience building a SaaS service\n* User interface and visual design skills\n* Experience with Azure/AWS\n\n👍 WE OFFER:  \n* Competitive compensation depending on experience and skills  \n* Work in enterprise-level projects on a long-term basis  \n* Full-time remote work (you can work from anywhere you are)  \n* Unlimited access to learning courses \n* Community of 36,700+ industry’s top professionals  \n\n✍️Контакты: @mary_itfox или it.huntme@gmail.com","markup":[{"type":"hashtag","offset":0,"length":9,"data":"вакансия"},{"type":"hashtag","offset":10,"length":12,"data":"ReactNative"},{"type":"hashtag","offset":23,"length":7,"data":"NodeJS"},{"type":"hashtag","offset":31,"length":7,"data":"Remote"},{"type":"handle","offset":2129,"length":11,"data":"mary_itfox"},{"type":"link","offset":2145,"length":19,"data":"mailto:it.huntme@gmail.com"}],"date":"2020-07-03T09:55:06+00:00","link":"tg://resolve?domain=javascript_jobs_feed&post=16551","tags":[{"name":"javascript"},{"name":"nodejs"},{"name":"reactjs"},{"name":"cloud"},{"name":"json"},{"name":"angularjs"},{"name":"mongodb"},{"name":"html"},{"name":"sass"},{"name":"android"},{"name":"azure"},{"name":"amazon-web-services"},{"name":"ms-access"},{"name":"react-native"},{"name":"user-interface"}],"cities":[],"allowsRemote":true}}]}},"context":{}}