{"hash":"f5f6bf98bd95e769321482904cbbd488f77922fd","data":{"records":{"id":"redis","name":"redis","belongsTo":{"totalCount":86,"pageInfo":{"totalPages":9,"currentPage":6},"edges":[{"node":{"__typename":"Job","id":"1715470336-1001091028994","title":"Java разработчик","text":"#middle #удаленка #Java #Spring #senior #backend #developer\nЛокация: Cанкт-Петербург\nЗанятость: полная, гибкое начало дня\n*до окончания пандемии работа удаленная, далее работа в офисе\nЗ/п: 130 – 200 k net.\nКомпания: CSI\nКонтакты: @Danny_Ushakova\nМы продуктовая компания CSI, создающая решения для автоматизации торговых сетей.  \nМы ищем крутых разработчиков, ответственных за собственный код, любящих тесты и понимающих важность unit тестов. Разработчиков, которые с радостью забывают про бюрократию, и разделение труда, которые умеют защищать собственные решения и хотят сделать этот мир лучше!  \nJAVA developer (высоконагруженные сервисы лояльности)  \nКлючевой задачей будет разработка нового и доработка нашего продукта -  существующего функционала системы Set Retail 10. \nСтек:\n• Java от 2 лет.\n• Spring (Web, Data, Cloud), Kafka.\n• Опыт разработки микросервисов.\n• Опыт проектирования базы данных.\n• SQL (желательно PostgreSQL), JDBC, Hibernate.\n• Git, Gradle.\nБудет плюсом:\n• Опыт работы с J2EE (EJB3, JAX-WS, JAXB, JPA2).\n• Знание Linux.\n• Опыт работы с Redis, MongoDB, Docker, Hashicorp Nomad, Ansible.\n\nМы предлагаем:\n• возможность каждый день видеть результаты своей работы;\n• официальное оформление, белая зарплата, отпуск согласно ТК РФ;\n• гибкий график работы (с 11 до 17 - время присутствия в офисе), есть возможность работать из дома (при необходимости);\n• ДМС со стоматологией, 100% оплата больничных;\n• курсы английского языка в офисе;\n• посещение тренингов, конференций;\n• работа по Agile в команде высокопрофессиональных разработчиков;\n• возможности профессионального роста, четкая схема повышения зарплаты;\n• работа в современном и комфортном офисе в центре города (Чкаловcкий пр-т);\n• оборудованные столовые, чай, кофе, фрукты, печеньки и PlayStation;\n• командные тимбилдинги, футбольная команда.","markup":[{"type":"hashtag","offset":0,"length":7,"data":"middle"},{"type":"hashtag","offset":8,"length":9,"data":"удаленка"},{"type":"hashtag","offset":18,"length":5,"data":"Java"},{"type":"hashtag","offset":24,"length":7,"data":"Spring"},{"type":"hashtag","offset":32,"length":7,"data":"senior"},{"type":"hashtag","offset":40,"length":8,"data":"backend"},{"type":"hashtag","offset":49,"length":10,"data":"developer"},{"type":"handle","offset":230,"length":15,"data":"Danny_Ushakova"}],"date":"2020-06-22T09:26:18+00:00","link":"tg://resolve?domain=jvmjobs&post=1636","tags":[{"name":"java"},{"name":"jvm"},{"name":"spring"},{"name":"dotnet"},{"name":"web"},{"name":"cloud"},{"name":"kafka"},{"name":"sql"},{"name":"postgresql"},{"name":"jdbc"},{"name":"hibernate"},{"name":"git"},{"name":"gradle"},{"name":"jaxb"},{"name":"jpa"},{"name":"linux"},{"name":"redis"},{"name":"mongodb"},{"name":"docker"},{"name":"ansible"}],"cities":[],"allowsRemote":true}},{"node":{"__typename":"Job","id":"2232418304-1001134745498","title":"Devops инженер","text":"#вакансия #Remote #работаDevOps  #удаленка \n\nКомпания: IDG\nФормат работы: удаленка\nЗанятость: полная\nЗарплатная вилка: $2500 до $4000\n\n👋Всем привет. Меня зовут Гульназ. \nМы занимаемся разработкой собственных образовательных проектов, а также проектов для клиентов - технологических, финансовых и аудиторских компаний.\nСейчас мы ищем DevOps инженера в дополнение к нашей текущей DevOps-команде, который будет вместе с нами делать cross-cloud big-data/ai платформу для одного из наших крупных постоянных клиентов.\nУ нас всё в k8s. Помимо этого есть spark, несколько баз данных и еще куча всего интересного. Разворачиваем с помощью Terraform/Ansible/Helm\n\n📍Требования:\n\n- Опыт работы с AWS/Azure/GCE - от 2+ лет;\n- Опыт работы с Kubernetes - от 2+ лет\n- Опыт работы со Spark - от 1 года\n- Имеет опыт настройки и администрирования БД (Mongo, Redis, Rabbit, SQL Server, Postgres, MySQL, Elastic Search)\n- Опыт разработки на Python или других подобных языках;\n- Опыт организации процесса CI/CD (jenkins, teamcity).\n- Английский на уровне Intermediate и выше.\n\nБудет плюсом: \n\n- Опыт работы в крупных международных компаниях;\n- Опыт работы с технологиями Big Data;\n\n📌Что мы предлагаем:\n\n- Интересные задачи и возможность реализовать свой потенциал в международных проектах компании и внутренних стартапах;\n- Гибкий график (начало и конец рабочего дня согласовываются с менеджером и командой проекта)\n- Полностью удаленная работа\n- Дополнительные выплаты за профессиональные успехи\n\nКонтакт: @IDGAccount\n\n—\n\n👉 Обсуждение вакансии в чате @devops_jobs","markup":[{"type":"hashtag","offset":0,"length":9,"data":"вакансия"},{"type":"hashtag","offset":10,"length":7,"data":"Remote"},{"type":"hashtag","offset":18,"length":13,"data":"работаDevOps"},{"type":"hashtag","offset":33,"length":9,"data":"удаленка"},{"type":"handle","offset":1487,"length":11,"data":"IDGAccount"},{"type":"handle","offset":1533,"length":12,"data":"devops_jobs"}],"date":"2020-06-19T14:40:37+00:00","link":"tg://resolve?domain=devops_jobs_feed&post=2129","tags":[{"name":"cloud"},{"name":"ansible"},{"name":"amazon-web-services"},{"name":"azure"},{"name":"kubernetes"},{"name":"redis"},{"name":"rabbitmq"},{"name":"sql"},{"name":"postgresql"},{"name":"mysql"},{"name":"elasticsearch"},{"name":"python"},{"name":"jenkins"},{"name":"sql-server"}],"cities":[],"allowsRemote":true}},{"node":{"__typename":"Job","id":"26461863936-1001075660570","title":"Php developer","text":"#вакансия #москва #офис #fulltime #yii #php\n\n Позиция: Senior PHP Developer\nЗанятость: полная\nКомпания: ТД ЦУМ \nЛокация: Москва\nЗ/П: до 270.000\n\n   Основные цели и задачи:\n- Разработка программных модулей продуктов компании;\n- Глубокое погружение в процессы работы интернет-магазина;\n- Участие в разработке сервис-ориентированной архитектуре приложения.\n\n   Основные обязанности:\n- Разработка и поддержка инфраструктуры интернет-проекта, мобильного приложения и внутренних сервисов компании;\n- Разработка программных модулей продуктов интернет магазина ЦУМ;\n- Оптимизация приложения под высокую нагрузку, масштабирование, поиск узких мест;\n- Интеграция со сторонними сервисами;\n- Предложение и внедрение высокотехнологичных, инновационных решений.\n\nТребования:\n- Отличное знание и опыт работы с PHP 5.3 (желательно 7) от 3 лет;\n- Понимание как устроен HTTP, REST;\n- Знание и понимание MVC архитектуры;\n- Знание и опыт работы фреймворком YII;\n- Опыт работы с одной или несколькими БД: MySQL, Redis, Mongo;\n- Опыт мониторинга и оптимизации SQL-запросов;\n\n   Условия работы:\n- Полный рабочий день.\n- Официальное оформление по трудовому договору.\n- Офис в центре Москвы.\n- ДМС.\n\nЗа подробностями в личку - @nastyaklassnaya","markup":[{"type":"hashtag","offset":0,"length":9,"data":"вакансия"},{"type":"hashtag","offset":10,"length":7,"data":"москва"},{"type":"hashtag","offset":18,"length":5,"data":"офис"},{"type":"hashtag","offset":24,"length":9,"data":"fulltime"},{"type":"hashtag","offset":34,"length":4,"data":"yii"},{"type":"hashtag","offset":39,"length":4,"data":"php"},{"type":"handle","offset":1202,"length":16,"data":"nastyaklassnaya"}],"date":"2020-06-19T13:34:55+00:00","link":"tg://resolve?domain=php_jobs&post=25236","tags":[{"name":"php"},{"name":"yii"},{"name":"rest"},{"name":"mysql"},{"name":"redis"},{"name":"sql"}],"cities":[{"code":"moscow"}],"allowsRemote":false}},{"node":{"__typename":"Job","id":"2229272576-1001134745498","title":"Devops инженер","text":"#вакансия #офис #Москва #DevOps \n\nВакансия для азартных энтузиастов:\n\nСтартапу AVVYLAND нужен девопс, строить все с нуля )) Милейшие чуваки, очень адекватный тех.дир. Денежка на проекте есть, релиз был, инвестиции привлечены. \n\nМоя личная рекомендация к вакухе: очень хороший шанс проявить себя за вполне нормальные деньги, ребята классные! \n\nКубер, облачка, линукс - технологии на выбор\n\nВилка: 180-250, нужно будет ИП\n\nО команде:\n•  7 человек, есть фронты, бекендеры, тестировщики\n•  Создаем приложения для различных платформ. От web до AR/VR;\n•  Работаем по недельным спринтам с ежедневными стендапами;\n•  Используем Jira, Confluence, Notion, Gitlab, Docker.\nО компании:\n•  Пишем на C#, Python, JS, Golang.\n•  Работаем с современным стэком Unity3D, React, Redis, aiohttp.\n\nДля тебя подготовили:\n•  Технику, на которой приятно работать.\n•  Оплату профессиональных конференций и курсов.\n• офис с плюшками в Москве (Большая Татарская)\n• адекватное руководство и понимающую команду =)\n\nКонтакты:\nМарьяна @reanimatsiya\n\n—\n\n👉 Обсуждение вакансии в чате @devops_jobs","markup":[{"type":"hashtag","offset":0,"length":9,"data":"вакансия"},{"type":"hashtag","offset":10,"length":5,"data":"офис"},{"type":"hashtag","offset":16,"length":7,"data":"Москва"},{"type":"hashtag","offset":24,"length":7,"data":"DevOps"},{"type":"handle","offset":1003,"length":13,"data":"reanimatsiya"},{"type":"handle","offset":1051,"length":12,"data":"devops_jobs"}],"date":"2020-06-19T09:46:43+00:00","link":"tg://resolve?domain=devops_jobs_feed&post=2126","tags":[{"name":"web"},{"name":"gitlab"},{"name":"docker"},{"name":"python"},{"name":"go"},{"name":"unity3d"},{"name":"reactjs"},{"name":"redis"}],"cities":[{"code":"moscow"}],"allowsRemote":false}},{"node":{"__typename":"Job","id":"91367669760-1001067529236","title":"Python developer","text":"#вакансия #Москва #fulltime #офис #python #machinelearning\nКомпания: FunCorp\nВакансия: Senior Python Backend Developer (Machine Learning)\nОпыт работы: от 3-х лет\nЗарплата: от 250 000 р. на руки\nМесторасположение: Москва, м. Белорусская\nЗанятость: fulltime, офис.\nNB! Удаленный вариант работы после выхода из карантина, к сожалению, не рассматриваем\nКонтактные данные: @chrschredinger или kristina@fun.co\n\nFunCorp — международная компания, которая занимается разработкой развлекательных UGC-сервисов и игр. В работе наших приложений мы активно используем сервисы, построенные на машинном обучении. Значительная часть этих сервисов построена на базе ML-фреймворков и пакетов на Python. \n\nТребования:\n- знание Python 3, фреймворков Flask или Django, а также иметь опыт написания асинхронного кода с использованием AsyncIO;\n- опыт построения и поддержки высоконагруженных систем и сервисов;\n- интерес к Machine Learning как отрасли и быть готовым изучать фреймворки (PyTorch, TensorFlow).\n\nСтек используемых технологий: Docker, Redis, MongoDB, ClickHouse.\n\nОбязанности:\n- создание и поддержка Highload-сервисы на базе обученных моделей;\n- интегрирование ML-сервисов с бизнес-логикой PHP-монолита и Java/Kotlin-сервисов;\n- участие в обучении и доработке существующих моделей, получении и консолидации данных, построении тестовых выборок.\n\nУсловия:\n- ДМС, включая стоматологию;\n- бонусная система;\n- обеды и ужины в офисе;\n- бюджет на обучение и на фитнес;\n- оплата участия в российских и зарубежных конференциях;\n- отличный офис на м. Белорусская (БЦ «Белая площадь).","markup":[{"type":"hashtag","offset":0,"length":9,"data":"вакансия"},{"type":"hashtag","offset":10,"length":7,"data":"Москва"},{"type":"hashtag","offset":18,"length":9,"data":"fulltime"},{"type":"hashtag","offset":28,"length":5,"data":"офис"},{"type":"hashtag","offset":34,"length":7,"data":"python"},{"type":"hashtag","offset":42,"length":16,"data":"machinelearning"},{"type":"bold","offset":59,"length":10,"data":""},{"type":"bold","offset":77,"length":10,"data":""},{"type":"bold","offset":138,"length":13,"data":""},{"type":"bold","offset":162,"length":10,"data":""},{"type":"bold","offset":194,"length":19,"data":""},{"type":"bold","offset":236,"length":11,"data":""},{"type":"underline","offset":263,"length":86,"data":""},{"type":"bold","offset":349,"length":19,"data":""},{"type":"handle","offset":368,"length":15,"data":"chrschredinger"},{"type":"link","offset":388,"length":15,"data":"mailto:kristina@fun.co"},{"type":"bold","offset":686,"length":12,"data":""},{"type":"italic","offset":986,"length":67,"data":""},{"type":"bold","offset":1053,"length":13,"data":""},{"type":"bold","offset":1334,"length":9,"data":""}],"date":"2020-06-19T07:10:14+00:00","link":"tg://resolve?domain=python_jobs&post=0","tags":[{"name":"python"},{"name":"flask"},{"name":"django"},{"name":"tensorflow"},{"name":"docker"},{"name":"redis"},{"name":"mongodb"},{"name":"php"},{"name":"java"},{"name":"kotlin"},{"name":"machine-learning"}],"cities":[{"code":"moscow"}],"allowsRemote":false}},{"node":{"__typename":"Job","id":"26426212352-1001075660570","title":"Php разработчик","text":"#вакансия  #fulltime #Fullstack #спб #санкт_петербург\nВакансия: Fullstack-разработчик\nКомпания: 4people\nГород: Санкт-Петербург. ст.м. Обводный канал\nФормат работы: #офис\nЗанятость: #полная\nЗ/п: от 140 000 до 250 000 р. \n\n🔎В нашу команду в связи с расширением срочно разыскивается Fullstack Web-программист!\n\n🔷Основные обязанности:\n- Разработка новых сервисов.\n- Оптимизация и поддержка текущих проектов.\n- Мы используем: PHP7, JavaScript, Redis, MongoDB, YouTrack.\n\n🔷Добро пожаловать, в нашу команду если вы:\n- Имеете опыт разработки на PHP.\n- Знаете ООП, умеете применять на практике основные паттерны.\n- Знакомы с JS фреймворками.\n- Работали с MVC-фреймворками на базе PHP.\n- Разбираетесь и умеете использовать разные хранилища данных там где они необходимы.\n\n🔷Мы предлагаем:\n- Достойный уровень заработной платы (зависит от пожеланий и профессионально уровня кандидата).\n- Поездки на ИТ-конференции, митапы, учебные курсы за счет компании.\n- Возможность гибкого начала рабочего дня.\n- Бесплатные корпоративные обеды.\n- Абонемент в спорт зал за счет компании.\n\nЖдем вопросы и резюме: \n✍️ @hrkaterina \n✉️ ekaterina.4people@gmail.com","markup":[{"type":"hashtag","offset":0,"length":9,"data":"вакансия"},{"type":"hashtag","offset":11,"length":9,"data":"fulltime"},{"type":"hashtag","offset":21,"length":10,"data":"Fullstack"},{"type":"hashtag","offset":32,"length":4,"data":"спб"},{"type":"hashtag","offset":37,"length":16,"data":"санкт_петербург"},{"type":"hashtag","offset":164,"length":5,"data":"офис"},{"type":"hashtag","offset":181,"length":7,"data":"полная"},{"type":"bold","offset":281,"length":25,"data":""},{"type":"bold","offset":309,"length":24,"data":""},{"type":"bold","offset":468,"length":44,"data":""},{"type":"bold","offset":765,"length":17,"data":""},{"type":"bold","offset":1067,"length":24,"data":""},{"type":"handle","offset":1094,"length":11,"data":"hrkaterina"},{"type":"link","offset":1110,"length":27,"data":"mailto:ekaterina.4people@gmail.com"}],"date":"2020-06-18T13:31:12+00:00","link":"tg://resolve?domain=php_jobs&post=25202","tags":[{"name":"php"},{"name":"web"},{"name":"javascript"},{"name":"redis"},{"name":"mongodb"}],"cities":[],"allowsRemote":false}},{"node":{"__typename":"Job","id":"91275395072-1001067529236","title":"Python разработчик","text":"#вакансия #python #fulltime #office #remote #спб #Senior #Middle #backend #офис #удаленка #работа\nЗп 120 000-160 000 net \n\nПривет! Компания e-Legion в поисках Python-разработчика в офис в Санкт-Петербург или удаленно.\n\nНеобходимые навыки:\n🔹 Python 3,6+, \n🔹 Django Framework и сопутствующие ему библиотеки и утилиты,\n🔹 asyncio, aiohttp и другие асинхронные библиотеки,\n🔹 PostgreSQL или другие реляционные БД,\nхорошее знание принципов работы HTTP и смежных сетевых протоколов,\n🔹 английский язык на уровне чтения и написания технической документации,\n🔹 Git.\n\nПреимуществом будет:\n🔹 знание SQL и реляционной алгебры,\n🔹 знакомство с Redis, RabbitMQ,\n🔹 опыт работы с Ansible,\n🔹 основы администрирования Linux,\n🔹 знание других языков программирования, фреймворков и технологий.\n🔹 понимание микросервисной архитектуры, опыт разработки высоконагруженных систем\n\nОт нас:\n🔹 гибкий график работы,\n🔹 компенсацию спорта, обучения и медицины,\n🔹 обучение и систему наставничества,\nвозможность писать статьи для отраслевых медиа и выступать на конференциях и митапах.\n\nОписание вакансии: https://www.e-legion.ru/vacancies/spb/python/\nКонтакты: @alexandrashirokina или на почту: hr@e-legion.com","markup":[{"type":"hashtag","offset":0,"length":9,"data":"вакансия"},{"type":"hashtag","offset":10,"length":7,"data":"python"},{"type":"hashtag","offset":18,"length":9,"data":"fulltime"},{"type":"hashtag","offset":28,"length":7,"data":"office"},{"type":"hashtag","offset":36,"length":7,"data":"remote"},{"type":"hashtag","offset":44,"length":4,"data":"спб"},{"type":"hashtag","offset":49,"length":7,"data":"Senior"},{"type":"hashtag","offset":57,"length":7,"data":"Middle"},{"type":"hashtag","offset":65,"length":8,"data":"backend"},{"type":"hashtag","offset":74,"length":5,"data":"офис"},{"type":"hashtag","offset":80,"length":9,"data":"удаленка"},{"type":"hashtag","offset":90,"length":7,"data":"работа"},{"type":"link","offset":1086,"length":45,"data":"https://www.e-legion.ru/vacancies/spb/python/"},{"type":"handle","offset":1142,"length":19,"data":"alexandrashirokina"},{"type":"link","offset":1176,"length":15,"data":"mailto:hr@e-legion.com"}],"date":"2020-06-18T10:31:37+00:00","link":"tg://resolve?domain=python_jobs&post=0","tags":[{"name":"python"},{"name":"dotnet"},{"name":"django"},{"name":"postgresql"},{"name":"git"},{"name":"sql"},{"name":"redis"},{"name":"rabbitmq"},{"name":"ansible"},{"name":"linux"}],"cities":[],"allowsRemote":true}},{"node":{"__typename":"Job","id":"26422018048-1001075660570","title":"Php разработчик","text":"#job #remote #senior #symfony #highload\n\n\n✅Вакансия: Senior PHP\n✅Занятость: полный день, удаленно\n✅Компания: Холдинг «Монастырёв» \n\n✅Задачи:\n\n- разработка микросервисной архитектуры\n- доработка системы поиска на сайте\n- разработка системы скоринга\n- разработка блока рекламы и рекомендаций на сайте\n\n✅помимо этого:\n\nВыбор стэка технологий и разработка архитектуры проекта.\nПроведение код-ревью и ревью дизайна проектов на соответствие архитектурным стандартам.\n\n✅Требования:\nОпыт в разработке архитектуры, выборе стэка технологий и проектировании сайтов и веб-сервисов.\nОпыт работы с PostgreSQL/MySQL/NoSQL\nОпыт работы Redis.\nОпыт работы с одним из PHP фреймворков Symfony/Yii/Laravel.\n\n✅Текущий стек:\nPHP, Symphony, React.js, Vue.js\nPostreSQL/MariaDb/Redis/ActiveMQ/ElasticSaerch\n\n ✅Преимущества работы в нашей команде:\n\nработаем в белую: 28 дней отпуска, полностью официальная зарплата;\nудобный рабочий график + в пятницу уходим с работы на час раньше;\nкомпенсация 100% внешнего обучения и бесплатное участие во внутренних корпоративных тренингах;\nактивная корпоративная жизнь: спортивные мероприятия, тимбилдинги, праздники и участие в благотворительных акциях;\nинтересные и амбициозные задач\n\nПишите в личку: @sundeevaa","markup":[{"type":"hashtag","offset":0,"length":4,"data":"job"},{"type":"hashtag","offset":5,"length":7,"data":"remote"},{"type":"hashtag","offset":13,"length":7,"data":"senior"},{"type":"hashtag","offset":21,"length":8,"data":"symfony"},{"type":"hashtag","offset":30,"length":9,"data":"highload"},{"type":"handle","offset":1213,"length":10,"data":"sundeevaa"}],"date":"2020-06-18T10:09:17+00:00","link":"tg://resolve?domain=php_jobs&post=25198","tags":[{"name":"php"},{"name":"symfony"},{"name":"postgresql"},{"name":"mysql"},{"name":"nosql"},{"name":"redis"},{"name":"yii"},{"name":"laravel"},{"name":"reactjs"},{"name":"vuejs"},{"name":"mariadb"}],"cities":[],"allowsRemote":true}},{"node":{"__typename":"Job","id":"91154808832-1001067529236","title":"Python разработчик","text":"#вакансия #python #django #middle #senior #фултайм #Кипр #remote                                                                                                                                                                         Компания: Exness\nФормат работы: удаленная или релокация на Кипр (по желанию кандидата)\nЗанятость: полная\nЗарплатная вилка: от 3000 EUR (обсуждаем с кандидатами по итогам интервью)                                                                               \n🌟Кто мы?\nМы финтех компания, разрабатывающая B2B и B2C решения, с более чем 100 тысячами активных клиентов. Мы развиваемся и быстро движемся, ориентируясь на данные, мы всегда узнаем что-то новое о наших клиентах и находим новые способы сделать наш продукт более полезным и удобным для них. У нас есть 3 офиса: на Кипре, в Малайзии и Великобритании, более 600 сотрудников и 50 национальностей среди сотрудников.\n\n🤩Кого мы ищем?\nК нам в команду Identity & Access Management (IAM) нужен инженер, любящий backend, имеющий опыт разработки на Python и стремящийся к простым решениям сложных задач. Будет классно, наличие опыта построения микросервисной архитектуры, знание SQL, любовь к написанию unit тестов. \n\n🤗Чем предстоит заниматься?\nРазрабатывать новые и поддерживать старые сервисы, связанные с аутентификацией, авторизацией, верификацией и процедурами KYC. Участвовать в код ревью и командных активностях. Покрывать свой код unit тестами. \n\n🛠Наш стек технологий:\n -Python 3.x\n -Django, FastAPI, aiohttp\n -PostgreSQL, Redis\n -Kafka\n -Docker, Kubernetes, Rancher\n\n🔥Мы предлагаем:\nПри удаленном сотрудничестве:\n-Медицинское страхование для сотрудника и членов их семей;\n-Компенсация спорта;\n-Путешествие на Кипр, чтобы познакомиться со своей командой (раз в год).\nПри желании релокации на Кипр:\n-Релокационный пакет для нового сотрудника и его семьи (билеты, визы, разрешение на работу, корпоративная квартира на первый месяц и т. д.);\n-Корпоративный автомобиль Мини Купер S и парковка возле офиса или автобусные билеты;\n-Медицинское страхование для сотрудника и членов их семей;\n-Корпоративный фитнес-центр для сотрудников и их супругов;\n-Программа компенсации детского сада / школы;\n-Непрерывное профессиональное развитие, много интересных задач;\n-Отличный офис со свежевыжатыми соками, печеньем и лучшим видом на море из нашего собственного бара на крыше. \n\nНемного больше об Exness - https://clck.ru/N7aRd.\n\nЕсли тебе интересно, пишите в Telegram @sofia_tomashevich или на почту sofia.tomashevich@exness.com","markup":[{"type":"hashtag","offset":0,"length":9,"data":"вакансия"},{"type":"hashtag","offset":10,"length":7,"data":"python"},{"type":"hashtag","offset":18,"length":7,"data":"django"},{"type":"hashtag","offset":26,"length":7,"data":"middle"},{"type":"hashtag","offset":34,"length":7,"data":"senior"},{"type":"hashtag","offset":42,"length":8,"data":"фултайм"},{"type":"hashtag","offset":51,"length":5,"data":"Кипр"},{"type":"hashtag","offset":57,"length":7,"data":"remote"},{"type":"link","offset":2385,"length":21,"data":"https://clck.ru/N7aRd"},{"type":"handle","offset":2448,"length":18,"data":"sofia_tomashevich"},{"type":"link","offset":2480,"length":28,"data":"mailto:sofia.tomashevich@exness.com"}],"date":"2020-06-18T06:16:03+00:00","link":"tg://resolve?domain=python_jobs&post=0","tags":[{"name":"python"},{"name":"django"},{"name":"ms-access"},{"name":"sql"},{"name":"postgresql"},{"name":"redis"},{"name":"kafka"},{"name":"docker"},{"name":"kubernetes"}],"cities":[{"code":"sofia"}],"allowsRemote":true}},{"node":{"__typename":"Job","id":"17020485632-1001110946746","title":"Js developer","text":"#вакансия  #js  #node #спб                                                                                 Вакансия: BACKEND JS DEVELOPER (NODE.JS) \n\nФормат: офис\nЛокация: санкт-петербург, метро: комендантский проспект\nЗанятость: Полная, офис. (Удаленная работа на время карантина)\nОпыт: от 2 лет\nЗарплата: от 180000 до 300000 тыс. руб на руки\nКомпания: Aline digital agency \n\nУ нас комфортный офис, гибкий график работы, отличный коллектив, классные корпоративы:) Команда занимается написанием софта для крупной международной букмекерской конторы, онлайн-кинотеатра, партнерской программы и других крупных проектов. Наши офисы расположены в Киеве и Спб.\n\nТребования:\n\n🔸 Опыт коммерческой разработки на JavaScript/Java от 2 лет;\n🔸 Опыт работы с базами данных (MySQL / Redis / Clickhouse);\n🔸 Опыт работы с брокерами сообщений и микросервисной архитектурой\n🔸 Опыт работы с Node.js ( koa / Socket.io);\n🔸 Читаемый, комментируемый и поддерживаемый код;\n🔸 Внимательное отношение к своему и чужому коду:)\n\nОбязанности:\n\nНеобходимо будет заниматься поддержкой и развитием новой составляющей нашего сервиса на Nodejs, поэтому опыт обязателен (koa/socket.io).\n\nУсловия:\n\n🔸 Работа в современном офисе недалеко от метро;\n🔸 Оборудованное отличной техникой рабочее место;\n🔸 График 5/2 с сокращенным рабочим днем;\n🔸 Конкурентный уровень ЗП, который будет установлен по результатам собеседования;\n🔸 Перспектива карьерного роста;\n🔸 Оплачиваем ваш переезд, если вы находитесь не в Санкт-Петербурге.\n\nСтек:\n\n🔸 node.js 8+\n🔸 async/await\n🔸 mysql(native driver only/no builders/orm's)\n🔸 redis/rabbit\n🔸 socket.io\n🔸 optional:\n🔸 ramda \n\nПо всем вопросам: @DashaChernenkova\n\n—\n\n👉 Обсуждение вакансии в чате @javascript_jobs","markup":[{"type":"hashtag","offset":0,"length":9,"data":"вакансия"},{"type":"hashtag","offset":11,"length":3,"data":"js"},{"type":"hashtag","offset":16,"length":5,"data":"node"},{"type":"hashtag","offset":22,"length":4,"data":"спб"},{"type":"link","offset":891,"length":9,"data":"http://Socket.io"},{"type":"link","offset":1144,"length":9,"data":"http://socket.io"},{"type":"link","offset":1596,"length":9,"data":"http://socket.io"},{"type":"handle","offset":1648,"length":17,"data":"DashaChernenkova"},{"type":"handle","offset":1700,"length":16,"data":"javascript_jobs"}],"date":"2020-06-17T15:28:54+00:00","link":"tg://resolve?domain=javascript_jobs_feed&post=0","tags":[{"name":"javascript"},{"name":"nodejs"},{"name":"java"},{"name":"mysql"},{"name":"redis"},{"name":"orm"},{"name":"rabbitmq"}],"cities":[],"allowsRemote":false}}]}}},"context":{}}