{"hash":"f34fd2c444a074f4e0e67d525015a008ef8e766f","data":{"records":{"totalCount":178,"pageInfo":{"totalPages":18,"currentPage":14},"edges":[{"node":{"id":"1936719872-1001134745498","title":"Devops инженер","text":"#вакансия #офис #Беговая #полнаязанятость #СПб\n\nКомпания: FutureComes.com, но ищем к нашим партнёрам.\n\nВилка: от 150 до 250,000;\n\nПроект: их два, один - это высоконагруженная площадка для трейдинга с некоторым хардкором в работе, второй - это площадка для высокочастотной алгоритмической торговли, песочница.\n\nТехнологии: Ansible/Prometheus/Grafana/TeamCity/CloudFlair/Docker/GitCi/K8S\n\nОт вас нужны знания и желание прокачать свой скилл (говорят, что у нас реально качают его, но сам не проверял, культяпки админить не умеют). \n\nИз минусов: иногда процессы через… но, сейчас мы перекрываем эти дыры, стараемся их наладить, получается сложно, тяжело и со скрипом, но получается.\n\nКомпания 8 лет на рынке. \nУ нас нет систем штрафов.\nМы не трекаем ваше время, нам все равно, если выполняются поставленные задачи и сервера не падают. \nСлучаев, когда кого-то оставили без ЗП или не выплатили какие-то отпускные/премии/переработки - не зафиксировано.\n\nЧто есть: можно выбирать себе технику (вообще любую в рамках разумного), 100% больничные/отпуска 28 календарных дней, у нас крутой офис, можно работать удаленно несколько дней в неделю, если таски не подразумевают присутствие в офисе, мы помогаем со всем: визы, кредиты, ипотеки, алименты. В пятницу пьем винишко, едим пиццу, играем в настолки.\n\nОбязанности:\n- Развертывание и обеспечение непрерывной работы (эксплуатация) распределенных, отказоустойчивых, \n- Высоконагруженных серверных решений (Linux);\n- Автоматизация процесса разработки (CI/CD);\n- Мониторинг и администрирование linux серверов, а также мониторинг функционирования серверного программного обеспечения;\n- Администрирование систем хранения данных;\n- Разработка предложений по развитию инфраструктуры.\n\nПисать можно:  @kitanamda или konstantin@futurecomes.com\n\n—\n\n👉 Обсуждение вакансии в чате @devops_jobs","markup":[{"type":"hashtag","offset":0,"length":9,"data":"вакансия"},{"type":"hashtag","offset":10,"length":5,"data":"офис"},{"type":"hashtag","offset":16,"length":8,"data":"Беговая"},{"type":"hashtag","offset":25,"length":16,"data":"полнаязанятость"},{"type":"hashtag","offset":42,"length":4,"data":"СПб"},{"type":"link","offset":58,"length":15,"data":"http://FutureComes.com"},{"type":"handle","offset":1732,"length":10,"data":"kitanamda"},{"type":"link","offset":1747,"length":26,"data":"mailto:konstantin@futurecomes.com"},{"type":"handle","offset":1808,"length":12,"data":"devops_jobs"}],"date":"2020-03-24T11:33:14+00:00","link":"tg://resolve?domain=devops_jobs_feed&post=1847","tags":[{"name":"ansible"},{"name":"docker"},{"name":"linux"}],"cities":[],"allowsRemote":true}},{"node":{"id":"1378877440-1001091028994","title":"Java developer","text":"#вакансия #backend #javadeveloper #java #spb\nЛокация: Санкт-Петербург, станция метро Петроградская\nЗанятость: полная/ офис / гибкое начало рабочего дня\nЗарплата: от 180 000 net\nКомпания: ТетраСофт\nКонтакты: @dproto (Telegram), darya.protopopova@tetra-soft.ru\n\nКомпания ТетраСофт разрабатывает крутые информационные системы для сопровождения строительства нефтяных и газовых скважин (удаленный мониторинг различных параметров, аналитика на основе полученных данных, сбор и формирование отчётов).\nВ данный момент мы разрабатываем новый функционал платформы (SSO + modules).\nДля этого мы хотим усилить команду и приглашаем вас стать её частью.\n\nТехнологический стек разработки:\nJava 8, Spring, Hibernate, Elasticsearch, NATS, JUnit, MySQL, OAuth 2.0.\n\nЧто нужно будет делать:\n• Реализовывать алгоритмы работы с данными\n• Прорабатывать функциональные блоки бекенд части от проектирования до реализации\n• Участвовать в code review\n• Проектировать API\n\nЖдем от вас:\n• Опыт коммерческой разработки от 3-х лет\n• Хорошее знание Java core\n• Spring Boot (Security, MVC, REST Docs)\n• Hibernate 4+\n• Знание какого-либо SQL сервера\n• Знание алгоритмов и структур данных\n• Умение писать junit тесты\n• Понимание уязвимостей от OWASP Top 10\n• Умение работать с системой контроля версия (git)\n• Знание минимум одной системы сборки (ant, maven, gradle)\n\nБудет плюсом:\n• NoSQL\n• Docker\n• Знание коммуникационных протоколов (в том числе промышленных)\n• Опыт работы в Linux системах\n• Elasticsearch\n• Опыт работы с message broker\n• Знание других языков программирования\n• Понимание SOLID-принципов\n\nОт нас:\n• Гибкое начало рабочего дня (с 9:00 до 11:00);\n• Интересные проекты с возможностью карьерного роста;\n• Ежегодная премия по итогам работы;\n• Ежегодный пересмотр заработной платы по результатам работы;\n• ДМС после успешного прохождение ИС (включая стоматологию);\n• Компенсация питания;\n• Бесплатные курсы английского языка на территории офиса;\n• Возможность профильного обучения за счёт компании (оплата конференций, курсов);\n• Кикер, настолки, турник, XBox, корпоративные мероприятия;\n• Корпоративный волейбол на песке;\n• Иногородним соискателям помощь в релокации.","markup":[{"type":"hashtag","offset":0,"length":9,"data":"вакансия"},{"type":"hashtag","offset":10,"length":8,"data":"backend"},{"type":"hashtag","offset":19,"length":14,"data":"javadeveloper"},{"type":"hashtag","offset":34,"length":5,"data":"java"},{"type":"hashtag","offset":40,"length":4,"data":"spb"},{"type":"bold","offset":45,"length":8,"data":""},{"type":"bold","offset":99,"length":10,"data":""},{"type":"bold","offset":152,"length":9,"data":""},{"type":"bold","offset":177,"length":9,"data":""},{"type":"bold","offset":197,"length":9,"data":""},{"type":"handle","offset":207,"length":7,"data":"dproto"},{"type":"link","offset":227,"length":31,"data":"mailto:darya.protopopova@tetra-soft.ru"},{"type":"bold","offset":642,"length":31,"data":""},{"type":"bold","offset":749,"length":23,"data":""},{"type":"bold","offset":947,"length":12,"data":""},{"type":"bold","offset":1335,"length":13,"data":""},{"type":"bold","offset":1577,"length":7,"data":""}],"date":"2020-03-24T10:39:20+00:00","link":"tg://resolve?domain=jvmjobs&post=1315","tags":[{"name":"java"},{"name":"jvm"},{"name":"dotnet"},{"name":"spring"},{"name":"hibernate"},{"name":"elasticsearch"},{"name":"junit"},{"name":"mysql"},{"name":"oauth"},{"name":"rest"},{"name":"sql"},{"name":"git"},{"name":"ant"},{"name":"maven"},{"name":"gradle"},{"name":"nosql"},{"name":"docker"},{"name":"linux"},{"name":"spring-boot"}],"cities":[],"allowsRemote":true}},{"node":{"id":"1377828864-1001091028994","title":"Java разработчик","text":"Вакансия: #java #spring #hibernate \nКонцепция: #IoT\nКомпания: #MTS\nЛокация: #Москва #Комсомольская #Красныеворота\nФормат работы: #работавофисе + иногда возможно удаленно работать\nЗП: 150-200 net (в замисимости от знаний и опыта)\nКонтакт: @alina_katkova почта: avkatko2@mts.ru\n\nВ команду IoT, трайба отраслевых решений требуется java-разработчик. Трайб отраслевых решений – направление внутри МТС, которое осуществляет разработку полного цикла инновационных продуктов в B2B и B2C сегментах. Основное направление – инновационные продукты в сфере интернета вещей, медицины, видео аналитики.\n\nЧто нужно делать: \n-участвовать в командной работе над решениями;\n-принимать участие в code-review;\n-участвовать в принятии архитектурных и технических решений;\n-писать качественный код;\nНаш стек:\n-Java1.8+;\n-Spring: Spring Security, Spring Data, Spring Boot и т.д.;\n-Реляционные базы (в основном Postgres) и NoSQL (InfluxDB, Mongo);\n-Restful-сервисы, JSON, клиент-серверное взаимодействие;\n-ORM Hibernate;\n-MQ: RabbitMQ.\nУсловия:\n-штат, все по ТК РФ\n-премия 20% от годового оклада сверху\n-соц.пакет\n-удаленка на время карантина :)","markup":[{"type":"hashtag","offset":10,"length":5,"data":"java"},{"type":"hashtag","offset":16,"length":7,"data":"spring"},{"type":"hashtag","offset":24,"length":10,"data":"hibernate"},{"type":"hashtag","offset":47,"length":4,"data":"IoT"},{"type":"hashtag","offset":62,"length":4,"data":"MTS"},{"type":"hashtag","offset":76,"length":7,"data":"Москва"},{"type":"hashtag","offset":84,"length":14,"data":"Комсомольская"},{"type":"hashtag","offset":99,"length":14,"data":"Красныеворота"},{"type":"hashtag","offset":129,"length":13,"data":"работавофисе"},{"type":"handle","offset":238,"length":14,"data":"alina_katkova"},{"type":"link","offset":260,"length":15,"data":"mailto:avkatko2@mts.ru"},{"type":"bold","offset":589,"length":18,"data":""},{"type":"bold","offset":776,"length":9,"data":""},{"type":"bold","offset":1011,"length":8,"data":""}],"date":"2020-03-24T09:58:43+00:00","link":"tg://resolve?domain=jvmjobs&post=1314","tags":[{"name":"java"},{"name":"jvm"},{"name":"spring"},{"name":"hibernate"},{"name":"dotnet"},{"name":"postgresql"},{"name":"nosql"},{"name":"json"},{"name":"orm"},{"name":"rabbitmq"},{"name":"spring-security"},{"name":"spring-data"},{"name":"spring-boot"}],"cities":[{"code":"moscow"}],"allowsRemote":true}},{"node":{"id":"23910678528-1001075660570","title":"Php developer","text":"#вакансия #удаленка #webdeveloper\nМы интернет-агентство https://zelo.agency/\nОсновные задачи для решения которых нам нужен коллега на долгосрочное сотрудничество:\n\nСоздание от лендингов до корпоративных сайтов на стеке технологий\nВнесение изменений на сайты клиентов согласно заданиям SЕО-специалиста\nТехническая оптимизация сайтов и устранение ошибок\nУчастие в процессе улучшения юзабилити.\n\nТребования:\nХорошее знание PHP, JS\nОпыт работы с современными CMS.\nБазовые знания SQL.\nЗнание HTML/CSS.\nУмение оценивать сложность‚ соблюдать сроки.\nНесомненными плюсами будут:\nОпыт работы с Git.\nЗнание фреймворков\n\nДостойный фикс + премия до 40.000\nКонтакт @nefertiti_ru","markup":[{"type":"hashtag","offset":0,"length":9,"data":"вакансия"},{"type":"hashtag","offset":10,"length":9,"data":"удаленка"},{"type":"hashtag","offset":20,"length":13,"data":"webdeveloper"},{"type":"link","offset":56,"length":20,"data":"https://zelo.agency/"},{"type":"handle","offset":651,"length":13,"data":"nefertiti_ru"}],"date":"2020-03-24T07:58:19+00:00","link":"tg://resolve?domain=php_jobs&post=22803","tags":[{"name":"php"},{"name":"sql"},{"name":"html"},{"name":"css"},{"name":"git"}],"cities":[],"allowsRemote":true}},{"node":{"id":"1375731712-1001091028994","title":"Java разработчик","text":"#Москва #java #еса #senior #middle\nГород и адрес офиса: Москва, м. Тульская, Новоданиловская наб, д.10\nФормат работы: офис (хотя в связи с последними событиями может быть и удалённо :)\nЗанятость: фулл тайм\nЗарплатная вилка: 150к-300к (в зависимости от навыков и знаний)\n\nЕдиный сервис аутентификации - это система, которая принимает решение о допуске клиентов через различные каналы обслуживания (веб, мобильное приложение, банкомат) к сервисам экосистемы Сбербанка. Система является высоконагруженной, так как одновременно может обслуживать более 10к операций в секунду.\n\nЗадачи:\n • разработка back-end web-приложения; \n • участие разработки архитектуры продукта;\n • участие в code review. \n\nОбязательно:\n· Опыт работы с Java от 2ух лет (хорошее знание core, Collections, jdbc, IO, Exceptions)\n· Опыт работы с системами сборки: maven или gradle\n· Опыт работы с БД, знание языка запросов SQL\n· Знакомство с ORM Hibernate\n\nБудет плюсом:\n· понимание многопоточности в Java;\n· знакомство со Spring Framework\n\nБонусы: \n • гибкое начало дня, отсутствие микроменеджмента и дресс-кода\n • отличная атмосфера в команде, способность слышать мнение каждого\n • современное железо (можно выбрать ноут MacOS или Windows) \n • возможность сменить проект\n • ДМС, спортзал, корпоративные мероприятия\n\nКонтакт: @hralexandra 📲","markup":[{"type":"hashtag","offset":0,"length":7,"data":"Москва"},{"type":"hashtag","offset":8,"length":5,"data":"java"},{"type":"hashtag","offset":14,"length":4,"data":"еса"},{"type":"hashtag","offset":19,"length":7,"data":"senior"},{"type":"hashtag","offset":27,"length":7,"data":"middle"},{"type":"handle","offset":1292,"length":12,"data":"hralexandra"}],"date":"2020-03-24T07:57:32+00:00","link":"tg://resolve?domain=jvmjobs&post=1312","tags":[{"name":"java"},{"name":"jvm"},{"name":"web"},{"name":"jdbc"},{"name":"maven"},{"name":"gradle"},{"name":"sql"},{"name":"orm"},{"name":"hibernate"},{"name":"spring"},{"name":"macos"},{"name":"windows"}],"cities":[{"code":"moscow"}],"allowsRemote":true}},{"node":{"id":"1933574144-1001134745498","title":"Devops инженер","text":"#devops  #middle  #senior #вакансия\n\nВсем добрый вечер\n\nЯ ищу Ведущего devops / системного инженера в компанию,  которая занимается разработкой системного интегратора ПО в области виртуализации и облачных технологий.\n\nЧто хотят:\nЖелательно - высшее профильное образование и соответствующий опыт работы от 3-5 лет\nОС: Linux, Unix\nCI/CD: Jenkins, Teamcity, Travis и аналоги\nКонтейнеры: Docker\nВеб-сервисы: Ngnix, UWSGI\nМониторинг/алертинг: AppDynamics, Nagios, Zabbix etc.\nОпыт администрирования реплицированных СУБД (PostgreSQL или MariaDB, MongoDB)\nОпыт работы с elasticsearch/logstash/kibana\nAnsible, Salt\nОпыт администрирования облачных серверов (например - под платформами Amazon EC2, GoogleCloud, VmWare vSphere, OpenStack или прочих)\n\nПлюсами будут:\nустановка/обслуживание - Reverse Proxy (Nginx …), caсhing\nserver (Squid, Nginx etc.)\nустановка/обслуживание - load balancer (HAProxy, Nginx, etc.)\nBash Scripts.\nProcess Monitoring: ps, top, htop, atop, .. etc\nSystem Performance: nmon, iostat, sar, vmstat etc\nNetworking: nmap, tcpdump, ping, traceroute, airmon, etc.\nkubernetes/docker swarm\n\nОсновные обязанности:\nРазвертка контуров (dev, qas, prod)\nPerformance тестирование, нагрузочное тестирование\nСборка и обновление из репозиториев\nПоиск и устранение проблем\n\nЧто дают:\nХорошая ЗП. от 120 000 руб. до 200.000 по результатам собеседования.\nВозможна удаленная работа \nТак же есть возможность работы в офисе.\nг. Москва Сколково, возможна работа из офиса в г. Санкт-Петербурге и г Нижний Новогород (ул Грузинская).\n\nКомпания: http://asdtech.co/\n\nКонтакты: @mayke_kin\n\n—\n\n👉 Обсуждение вакансии в чате @devops_jobs","markup":[{"type":"hashtag","offset":0,"length":7,"data":"devops"},{"type":"hashtag","offset":9,"length":7,"data":"middle"},{"type":"hashtag","offset":18,"length":7,"data":"senior"},{"type":"hashtag","offset":26,"length":9,"data":"вакансия"},{"type":"link","offset":1532,"length":18,"data":"http://asdtech.co/"},{"type":"handle","offset":1562,"length":10,"data":"mayke_kin"},{"type":"handle","offset":1607,"length":12,"data":"devops_jobs"}],"date":"2020-03-24T04:12:20+00:00","link":"tg://resolve?domain=devops_jobs_feed&post=1844","tags":[{"name":"linux"},{"name":"unix"},{"name":"jenkins"},{"name":"docker"},{"name":"postgresql"},{"name":"mariadb"},{"name":"mongodb"},{"name":"elasticsearch"},{"name":"logstash"},{"name":"ansible"},{"name":"nginx"},{"name":"bash"},{"name":"kubernetes"}],"cities":[{"code":"moscow"}],"allowsRemote":true}},{"node":{"id":"1373634560-1001091028994","title":"Java разработчик","text":"Вакансия: #java #spring #JPA #JEE7 #JSF #Apache #CXF #JUnit\nКомпания: #DigitalZone \nЛокация: #удаленнаяработа\nЗ/п: ставка 1200 руб/час\nКонтакты: @JuliaVlad\n\nКомпания Digital Zone — разработчик информационных систем полного цикла. \n\n‼️Сейчас мы ищем сильного Java специалиста для одного из ведущих поставщиков электронных платежных систем для мировой финансовой индустрии. Продукт - система SmartVista представляет собой единую технологическую платформу для процессинга пластиковых карт, обработки электронных платежей и поддержки операций розничного бизнеса.\n\nНеобходимо будет:\n🔹Разработка серверной и клиентской части приложений на Java с использованием технологий: Java, Spring, JPA, JEE7, JSF, Apache CXF, JUnit;\n🔹 Анализ и оптимизация существующего кода;\n🔹 Участие в архитектурных советах;\n🔹 Взаимодействие с сотрудниками других структурных подразделений компании для решения интеграционных задач;\n🔹 Взаимодействие с клиентами компании на уровне технических специалистов.\n\nТребуется:\n🔹 Программирование на Java от 5-ти лет;\n🔹 Spring MVC, Spring Boot и прочий Spring, JPA, глубокое знание Java Core, в т.ч. Java Concurrency, Collections;\n🔹 Опыт написания и развития больших приложений с высокой нагрузкой;\n🔹 Опыт решения проблем в enterprise-инфраструктуре;\n🔹 Отладка Java-приложений;\n🔹 Опыт работы с реляционными БД (базовый SQL, оптимизация планов выполнений SQL-запросов в Oracle);\n🔹 Умение работать с Maven, Git; \n🔹 Знания JUnit 4 / Mockito;\n🔹 Построение CI/CD-процессов;\n🔹 Взаимодействие с отделами тестирования, сопровождения, внедрения.\n\nМы предлагаем: \n🔹Оформление по ТК РФ с первого рабочего дня;\n🔹Ставка 1200 руб/час, полная занятость;\n🔹Компенсация занятий спортом, английским языком и проф.обучения;\n🔹Гибкий график работы и возможность работать удаленно;\n🔹Дружная команда;\n🔹Пересмотр заработной платы по итогам аттестации 2 раза в год;\n🔹Day-off - до 3 -х дней оплачиваемого больничного без предоставления больничного листа.","markup":[{"type":"hashtag","offset":10,"length":5,"data":"java"},{"type":"hashtag","offset":16,"length":7,"data":"spring"},{"type":"hashtag","offset":24,"length":4,"data":"JPA"},{"type":"hashtag","offset":29,"length":5,"data":"JEE7"},{"type":"hashtag","offset":35,"length":4,"data":"JSF"},{"type":"hashtag","offset":40,"length":7,"data":"Apache"},{"type":"hashtag","offset":48,"length":4,"data":"CXF"},{"type":"hashtag","offset":53,"length":6,"data":"JUnit"},{"type":"hashtag","offset":70,"length":12,"data":"DigitalZone"},{"type":"hashtag","offset":93,"length":16,"data":"удаленнаяработа"},{"type":"handle","offset":145,"length":10,"data":"JuliaVlad"}],"date":"2020-03-23T15:33:02+00:00","link":"tg://resolve?domain=jvmjobs&post=1310","tags":[{"name":"java"},{"name":"jvm"},{"name":"spring"},{"name":"jpa"},{"name":"jsf"},{"name":"apache"},{"name":"junit"},{"name":"sql"},{"name":"oracle"},{"name":"maven"},{"name":"git"},{"name":"spring-mvc"},{"name":"spring-boot"}],"cities":[],"allowsRemote":true}},{"node":{"id":"1932525568-1001134745498","title":"Devops инженер","text":"#вакансия #jenkins #aws #украина #беларусь #прибалтика #remote #удалёнка\nкомпания s-o-services\nФормат - remote\nз\\п 5к-6к$ gross\nУвы гражданам России, живущим в РФ - вакансия недоступна.\nHere's some of the tech we use in DevOps.\n\n- jenkins экспертное знание\n- ansible\n- gradle (some maven) понимане логов сборок и умение чётко рассказать программисту что пошло не так\n- java тюнинг, хорошее понимание работы gc(чем отличается cms от g1 и от zgc, и когда лучше взять zulu? а когда openjdk?), что и когда тюнить в jvm, настройка логов и их тюнинг\n- groovy обязателен\n- HashiCorp vault\n- AWS infrastructure, понимание ценообразования, трафика и днс, стоимости i\\o и особенностей rds\n- drone\n- cri-o/containerd\n- prometheus, grafana, elk, datadog\n- upper-intermediate English обязателен\nконтакты @erzentd\n\n—\n\n👉 Обсуждение вакансии в чате @devops_jobs","markup":[{"type":"hashtag","offset":0,"length":9,"data":"вакансия"},{"type":"hashtag","offset":10,"length":8,"data":"jenkins"},{"type":"hashtag","offset":19,"length":4,"data":"aws"},{"type":"hashtag","offset":24,"length":8,"data":"украина"},{"type":"hashtag","offset":33,"length":9,"data":"беларусь"},{"type":"hashtag","offset":43,"length":11,"data":"прибалтика"},{"type":"hashtag","offset":55,"length":7,"data":"remote"},{"type":"hashtag","offset":63,"length":9,"data":"удалёнка"},{"type":"handle","offset":791,"length":8,"data":"erzentd"},{"type":"handle","offset":834,"length":12,"data":"devops_jobs"}],"date":"2020-03-23T14:06:57+00:00","link":"tg://resolve?domain=devops_jobs_feed&post=1843","tags":[{"name":"jenkins"},{"name":"amazon-web-services"},{"name":"ansible"},{"name":"gradle"},{"name":"maven"},{"name":"java"},{"name":"jvm"},{"name":"groovy"}],"cities":[],"allowsRemote":true}},{"node":{"id":"23900192768-1001075660570","title":"Php developer","text":"#вакансия #php #lead #fulltime #удалёнка \nГород и адрес офиса: Москва (м.Курская)\nНазвание компании: КА\nФормат работы: удаленно/офис \nЗанятость: полная\nЗарплатная вилка: от 150к до 220к net\n\nПривет я ищу Tech lead/Senior php developer. Проект -- платформа для чатботов и воронок продаж. Сейчас у платформы более 1000 пользователей, растет на 20% ежемесячно, в следующем году планируется запуск на глобальном рынке, срочно нужно усиление 🙂 \n\nЗадачи:\n- разработка архитектуры новой части проекта;\n- разработка backend на php;\n- code review, тесты.\n\nТребования:\n- опыт разработки на php от 3х лет;\n- опыт работы с SQL;\n- опыт с брокерами очередей, например RabbitMQ.\n\nБудет плюсом:\n- знание node.js и других языков программирования;\n- noSQL (у нас Cassandra).\n\nУсловия:\n- Белая з/п;\n- Офис в Москве (м.Курская), есть возможность работать удаленно;\n- Крутой продукт, которым ежедневно пользуются тысячи людей;\n- Классная команда;\n- Возможность быстрого карьерного роста и профессионального развития.\n\nКонтакты: @nat_kirisova","markup":[{"type":"hashtag","offset":0,"length":9,"data":"вакансия"},{"type":"hashtag","offset":10,"length":4,"data":"php"},{"type":"hashtag","offset":15,"length":5,"data":"lead"},{"type":"hashtag","offset":21,"length":9,"data":"fulltime"},{"type":"hashtag","offset":31,"length":9,"data":"удалёнка"},{"type":"handle","offset":1008,"length":13,"data":"nat_kirisova"}],"date":"2020-03-23T13:28:18+00:00","link":"tg://resolve?domain=php_jobs&post=22793","tags":[{"name":"php"},{"name":"dotnet"},{"name":"sql"},{"name":"rabbitmq"},{"name":"nodejs"},{"name":"nosql"},{"name":"cassandra"}],"cities":[{"code":"moscow"}],"allowsRemote":true}},{"node":{"id":"23887609856-1001075660570","title":"Php разработчик","text":"#вакансия #удаленка #php\n\nИщем бекендера в распределенную команду на веб-проекты в связи с ростом объема заказов. Проекты разной сложности для среднего и малого бизнеса (СРМ, ERP и т.д.)\nЕсть NDA-шный проект под 1млн+ пользователей. \n\nЗП от 150 до 190 т.р. на руки\n\nТребования:\n📌 Самостоятельность и пунктуальность\n📌 Опыт проектирования и разработки веб-проектов с нуля\n📌 Опыт серверной разработки на PHP от 3 лет (любой фремворк)\n📌 Будет плюсом опыт работы с CI (Travis CI, AppVeyor, CLion или др)\n📌 Покрытие кода тестам, работа в GitHub\n\nПредлагаем:\n- Оформление по ГПХ / ТК РФ\n- ДМС\n- Гибкое начало дня \n- Возможность использовать новые технологии\n\nПо любым вопросам пишите @happyogre","markup":[{"type":"hashtag","offset":0,"length":9,"data":"вакансия"},{"type":"hashtag","offset":10,"length":9,"data":"удаленка"},{"type":"hashtag","offset":20,"length":4,"data":"php"},{"type":"handle","offset":682,"length":10,"data":"happyogre"}],"date":"2020-03-23T10:31:49+00:00","link":"tg://resolve?domain=php_jobs&post=22781","tags":[{"name":"php"},{"name":"github"}],"cities":[],"allowsRemote":true}}]}},"context":{}}