{"hash":"f34fd2c444a074f4e0e67d525015a008ef8e766f","data":{"records":{"id":"mobile","name":"mobile","belongsTo":{"totalCount":48,"pageInfo":{"totalPages":5,"currentPage":2},"edges":[{"node":{"__typename":"Job","id":"66405269504-1001054966032","title":"Mobile разработчик","text":"#вакансия #работа #СанктПетербург #iOS #CICD #Swift #fulltime #офис\nГород: Санкт-Петербург, м. Чкаловская\nФорма работы: офис\nЗанятость: полная\nЗарплатная вилка: от 120 000 до 270 000 net.\nВсем привет!\nМы петербургская IT-компания, разработчик мобильного приложения «Кошелёк». \n«Кошелёк» заменяет бумажник и избавляет от необходимости носить с собой пластик: пользователи хранят в нем дисконтные и банковские карты. Чтобы получить скидку, достаточно показать на кассе карту с экрана смартфона, а, чтобы оплатить покупку – приложить NFC-смартфон к терминалу оплаты.\nВ сфере платежей мы сотрудничаем с банками (ВТБ, Альфа Банк, Почта Банк, Райффайзенбанк, Открытие и другие) и международными платежными системами Mastercard и Visa.\nНаши результаты:\n9 млн + зарегистрированных пользователей,\n180 млн + оцифрованных карт.\n\nМы находимся в поисках мобильного инженера в инфраструктурную часть iOS core команды. Позиция подойдет для специалиста с опытом в мобильном девопсе. Основная часть работы будет связана с тем, чтобы помогать остальной мобильной команде повышать автоматизацию, и ускорения скорости создания и тестирования новых фич. Дополнительно в работу будет входить всё что связано с мониторингом, автоматическими проверками и автоматизацией в целом. Ищем любознательного человека, который сможет помогать в сборе бэклога для инфраструктурной команды и проактивно предлагать идеи.\n\n🔸Чем предстоит заниматься:\n•  На первых этапах есть описанный бэклог требований, что необходимо реализовать для развития инфраструктуры - CI/CD, интеграций с JIRA/Slack, и т.д. В дальнейшем предстоит помогать формировать данный бэклог, помогая остальной команде и решая их запросы;\n•  Создавать автоматические проверки и подключать системы мониторинга;\n•  Улучшать CI/CD и отвечать за инфраструктуру;\n•  Улучшать время сборки и стабильность билдов;\n•  Администрировать Apple Developer + Firebase;\n•  Автоматизировать ручные задачи.\n\n🔸Технический стек:\n•  Кодовая база: 70% - Objective-C, 30% - Swift (активно переводим проект на Swift);\n•  Минимальная поддерживаемая версия: iOS 10;\n•  Багтрэкинг и документация: Jira + Confluence;\n•  Система контроля версий: Git;\n•  CI/CD: GitLab CI/CD (Запустили месяц назад);\n•  Архитектура: Приложение строится на паттерне Application coordinator. Постепенно разбиваем приложение на независимые модули. Также переводим UI на компоненты с кастомизацией на сервере;\n•  Хранение данных: CoreData;\n•  Дизайн в Zeplin;\n•  Высокие требования к безопасности приложения, т.к. работаем не только с программами лояльности, но и с банковскими продуктами, что требует защищать данные, как на уровне хранения приложением, так и на уровне передачи данных.\n\n🔸Мы предлагаем:\n•  Гибкий график и высокую степень самостоятельности;\n•  Оплату мобильной связи, компенсацию оплаты питания;\n•  Оформление по ТК РФ с первого дня, ДМС после испытательного срока.\nИнформацию о компании можно найти по ссылке: https://cardsmobile.ru/ \n\nКонтакты: katerinaziryukova\nПочта: e.ziryukova@cardsmobile.ru","markup":[{"type":"hashtag","offset":0,"length":9,"data":"вакансия"},{"type":"hashtag","offset":10,"length":7,"data":"работа"},{"type":"hashtag","offset":18,"length":15,"data":"СанктПетербург"},{"type":"hashtag","offset":34,"length":4,"data":"iOS"},{"type":"hashtag","offset":39,"length":5,"data":"CICD"},{"type":"hashtag","offset":45,"length":6,"data":"Swift"},{"type":"hashtag","offset":52,"length":9,"data":"fulltime"},{"type":"hashtag","offset":62,"length":5,"data":"офис"},{"type":"link","offset":2910,"length":23,"data":"https://cardsmobile.ru/"},{"type":"link","offset":2971,"length":26,"data":"mailto:e.ziryukova@cardsmobile.ru"}],"date":"2020-04-10T09:16:32+00:00","link":"tg://resolve?domain=mobile_jobs&post=63329","tags":[{"name":"mobile"},{"name":"ios"},{"name":"swift"},{"name":"dotnet"},{"name":"firebase"},{"name":"objective-c"},{"name":"git"},{"name":"gitlab"}],"cities":[],"allowsRemote":false}},{"node":{"__typename":"Job","id":"66398978048-1001054966032","title":"Mobile разработчик","text":"#вакансия #москва #офис #senior #unity #developer #gamedev #csharp\n\nГород и адрес офиса: Москва, м.Автозаводская \nФормат работы: офис \nЗанятость: полная \nЗарплатная вилка: от 200 000 до 250 000 на руки \n\n📣 Senior Unity 3D Developer (mobile game)\n\n\n✅ Описание вакансии: \n\nМы - успешная команда из 100 человек, которая занимается: \n• разработкой собственных мобильных игр и приложений \n• паблишингом мобильных игр \n• рекламой и маркетингом мобильных приложений (реклама на Facebook, Google и т.д.) \nЗа последние 3 года мы привлекли более 100 млн пользователей в наши собственные мобильные приложения и приложения наших клиентов и партнеров, потратив на это более $80 млн. \nУ нас есть все составляющие чтобы делать готовые продукты известными и популярными. Мы ищем сильного Unity разработчика уровня Senior, для работы над нашим главным тайтлом Dragon Champions (крупным хардкорным проектом в жанре Фэнтези, с тактической боевой системой).\n\n\n✅ Задачи: \n\n-Разработка клиентской части игры\n-Разработка клиент-серверного взаимодействия и общей игровой логики\n-Вёрстка UI по макетам от художников\n-Интеграция различных сторонних SDK\n\n\n✅ Требования: \n\n-Опыт работы на Unity3D (С#) от 3х лет\n-Отличное знание Unity и всех её подсистем\n-Отличное знание C#, умение писать чёткий, понятный, структурированный код\n-Отличное знание паттернов проектирования\n-Умение отлаживать и оптимизировать проекты под мобильные платформы iOS/Android\n-Умение верстать адаптивные интерфесы в uGUI\n-Умение разбираться в чужом коде, проводить рефакторинг\n-Уверенные знания по работе с системой контроля версий git\n-Дисциплинированность и ответственность\n\n\n✅ Плюсом будет:\n\n-Участие в разработке выпущенных игр под мобильные платформы на аналогичной должности\n-Умение работать с шейдерами\n-Опыт работы с нативными плагинами (In-Apps, PUSH notifications, аналитика, реклама, социальное взаимодействие)\n-Умение разрабатывать и поддерживать стабильную архитектуру\n-Коммуникабельность, умение чётко доносить свою точку зрения и принимать точку зрения остальных участников команды\n\n\n✅ Для вас: \n\n•  Конкурентная заработная плата, выплачивается 2 раза в месяц\n•  Необходимое оборудование для работы\n•  Бонусы по итогам выполнения KPI и запуска проектов\n•  Коллектив творческих и позитивных людей\n\n\n✅ О нас: \n\n• Просторный офис 600 метров на м. Автозаводская (3 минуты от метро и от ТТК на машине) с ультра современным дизайном и кучей ништяков (кухня с вкусняшками, кальяны каждый вечер в дружной кампании, PS4 Pro + 4K TV, аркадные автоматы с Pac-Man, Metal Slug и другими хитами геймдизайна, просторная зона отдыха, 5 переговорных комнат и т д) \n• Команда из 80 человек занимающаяся паблишингом и маркетингом, готовая сделать продукт успешным после его готовности \n• Возможность обучаться английскому языку с носителями каждый будний день по утрам \n• Менторы и инвесторы, создавшие большое количество успешных IT компаний \nПрисоединяйтесь к нашей команде уже сегодня! \n\nНазвание компании: AppQuantum \n\nКонтакты: \ne-mail: bm@adquantum.com\ntelegram: @MishaBarinov","markup":[{"type":"hashtag","offset":0,"length":9,"data":"вакансия"},{"type":"hashtag","offset":10,"length":7,"data":"москва"},{"type":"hashtag","offset":18,"length":5,"data":"офис"},{"type":"hashtag","offset":24,"length":7,"data":"senior"},{"type":"hashtag","offset":32,"length":6,"data":"unity"},{"type":"hashtag","offset":39,"length":10,"data":"developer"},{"type":"hashtag","offset":50,"length":8,"data":"gamedev"},{"type":"hashtag","offset":59,"length":7,"data":"csharp"},{"type":"link","offset":2987,"length":16,"data":"mailto:bm@adquantum.com"},{"type":"handle","offset":3014,"length":13,"data":"MishaBarinov"}],"date":"2020-04-10T07:59:54+00:00","link":"tg://resolve?domain=mobile_jobs&post=63323","tags":[{"name":"mobile"},{"name":"android"},{"name":"ios"},{"name":"unity3d"},{"name":"csharp"},{"name":"git"}],"cities":[{"code":"moscow"}],"allowsRemote":false}},{"node":{"__typename":"Job","id":"66391638016-1001054966032","title":"Android разработчик","text":"#вакансия #Android #москва #офис #fulltime #Kotlin \n\nКомпания: \"IVA Technologies\" - разработка. Самая стабильная отрасль сейчас: ВКС\nМесто работы: Сейчас удалёнка, потом Москва, м. Текстильщики, 3 минуты от метро\nЗП:  от 180к до 240к рублей на руки, белая\n\nИщем Android разработчика.  \n\n🤟Особенности: Технологии: Java и Kotlin, Android SDK; Опыт работы с Dagger 2, Kotlin Coroutines, Room\n\n🔥Задача: Корпоративный мессенджер с видео- и аудио-звонками (в большей степени);\nКлиент видеоконференций (в меньшей степени).\n\n🔥 Условия:\n* зп от 180к до 240к рублей на руки, белая;\n* ДМС, страховка от несчастных случаев, выходной в честь Дня рождения, спорт и т.д.\n\n\n👉Вакансию можно посмотреть здесь: https://iva-tech.ru/about/vacancies/vedushchiy-android-razrabotchik/\n👉 Отклики ждем здесь: p.semenyuk@iva-tech.ru или в Telegram: @polinahr","markup":[{"type":"hashtag","offset":0,"length":9,"data":"вакансия"},{"type":"hashtag","offset":10,"length":8,"data":"Android"},{"type":"hashtag","offset":19,"length":7,"data":"москва"},{"type":"hashtag","offset":27,"length":5,"data":"офис"},{"type":"hashtag","offset":33,"length":9,"data":"fulltime"},{"type":"hashtag","offset":43,"length":7,"data":"Kotlin"},{"type":"bold","offset":53,"length":10,"data":""},{"type":"bold","offset":289,"length":13,"data":""},{"type":"bold","offset":393,"length":8,"data":""},{"type":"bold","offset":522,"length":9,"data":""},{"type":"bold","offset":663,"length":32,"data":""},{"type":"link","offset":696,"length":68,"data":"https://iva-tech.ru/about/vacancies/vedushchiy-android-razrabotchik/"},{"type":"bold","offset":768,"length":20,"data":""},{"type":"link","offset":788,"length":22,"data":"mailto:p.semenyuk@iva-tech.ru"},{"type":"handle","offset":827,"length":9,"data":"polinahr"}],"date":"2020-04-10T06:32:20+00:00","link":"tg://resolve?domain=mobile_jobs&post=63316","tags":[{"name":"mobile"},{"name":"android"},{"name":"kotlin"},{"name":"java"}],"cities":[{"code":"moscow"}],"allowsRemote":true}},{"node":{"__typename":"Job","id":"66374860800-1001054966032","title":"Ios разработчик","text":"#вакансия #iOS #москва #офис #fulltime #swift \n\nКомпания: \"Доктор на работе\" - социальная сеть для врачей. Самая стабильная отрасль сейчас:  Фарма+ Digital.\nМесто работы: Сейчас удалёнка, потом Москва, м. Новослободская, 3 минуты от метро\nЗП:  от 200к до 240к рублей на руки, белая\n\nИщем еще одного iOS разработчика.  \n\n🤟Особенности: новый проект, без легаси. Технологии: Swift, MVVM, Alamofire, Codable, Realm, RxSwift, SignalR, WebSockets.\n\n🔥Задача: создание новой Ленты врача с нуля, доработка существующего мессенджера для наших пользователей.\n\n🔥 Условия:\n* зп от 200к до 240к рублей на руки, белая;\n* сейчас работаем из дома, потом в офисе, ст. м. Новослободская, 3 м. от метро. \n\n\n👉Вакансию можно посмотреть здесь: https://dev.doktornarabote.ru/ios\n👉 Отклики ждем здесь:  hr@doktornarabote.ru или в Telegram: @KseniaRyakhovskaya","markup":[{"type":"hashtag","offset":0,"length":9,"data":"вакансия"},{"type":"hashtag","offset":10,"length":4,"data":"iOS"},{"type":"hashtag","offset":15,"length":7,"data":"москва"},{"type":"hashtag","offset":23,"length":5,"data":"офис"},{"type":"hashtag","offset":29,"length":9,"data":"fulltime"},{"type":"hashtag","offset":39,"length":6,"data":"swift"},{"type":"bold","offset":299,"length":16,"data":""},{"type":"bold","offset":565,"length":40,"data":""},{"type":"link","offset":725,"length":33,"data":"https://dev.doktornarabote.ru/ios"},{"type":"link","offset":783,"length":20,"data":"mailto:hr@doktornarabote.ru"},{"type":"handle","offset":820,"length":19,"data":"KseniaRyakhovskaya"}],"date":"2020-04-09T16:57:47+00:00","link":"tg://resolve?domain=mobile_jobs&post=63300","tags":[{"name":"mobile"},{"name":"ios"},{"name":"swift"},{"name":"mvvm"},{"name":"realm"},{"name":"signalr"}],"cities":[{"code":"moscow"}],"allowsRemote":true}},{"node":{"__typename":"Job","id":"66373812224-1001054966032","title":"Android разработчик","text":"#вакансия #Москва #офис #android #kotlin #fulltime\n\nГород и адрес офиса: Москва, м. Новокузнецкая/Павелецкая\nФормат работы: #офис (удаленно на период карантина)\nЗанятость: #полная\nЗП: от 100к до 200к руб. нетт\n\nSports.ru - провайдер развлечений для любителей спорта.\nЕсть спорт. Есть болельщики. Мы заполняем среду между ними, оживляем ее, наполняем общением и другими развлечениями. Мы делаем не «сайты» или «приложения», а мультиплатформенные продукты, с учетом актуальной технологической парадигмы.\n\nСейчас мы ищем к нам в команду Android-разработчика (middle), который будет разрабатывать новые функциональные возможности для проекта Betting Insider.\nBetting Insider — одно из наших ключевых подразделений. Это социальная сеть для любителей ставок, точно так же не ограниченная русскоязычными странами, где пользователи смогут не только обмениваться мнениями, но и продавать свои прогнозы.\n\nО задачах:\nРазрабатывать мобильные приложения на Android платформе.\nУчаствовать в принятии технических и архитектурных решений.\nУчаствовать в планировании процесса разработки.\nСоздавать тесты для продукта.\nВзаимодействовать с продуктовой командой, дизайнерами, влиять на будущие фичи.\n\nО наших ожиданиях:\nНавыки программирования под платформу Android.\nУверенное владение Kotlin.\nЗнание паттернов проектирования ПО и опыт их применения.\n\nОб условиях:\nПросторный стильный офис возле м. Новокузнецкая/Третьяковская.\n“Белая” заработная плата.\nБесплатная медстраховка со стоматологией после испытательного срока.\nГибкий график работы с возможностью день-два в неделю работать удаленно,\nФрукты, снеки, чай, кофе, какао 24/7.\nКорпоративная скидка в спортзал и на занятия английским языком.\nКорпоративный футбол с тренером.\nФинансовая помощь при переезде из другого города.\n\nНазвание компании: Sports.ru (Tribuna Digital)\nКого заинтересовало, пишите мне в личку (@pbuyatova), рада буду поделиться подробностями:)","markup":[{"type":"hashtag","offset":0,"length":9,"data":"вакансия"},{"type":"hashtag","offset":10,"length":7,"data":"Москва"},{"type":"hashtag","offset":18,"length":5,"data":"офис"},{"type":"hashtag","offset":24,"length":8,"data":"android"},{"type":"hashtag","offset":33,"length":7,"data":"kotlin"},{"type":"hashtag","offset":41,"length":9,"data":"fulltime"},{"type":"hashtag","offset":124,"length":5,"data":"офис"},{"type":"hashtag","offset":172,"length":7,"data":"полная"},{"type":"bold","offset":211,"length":10,"data":""},{"type":"link","offset":211,"length":9,"data":"http://Sports.ru"},{"type":"bold","offset":534,"length":29,"data":""},{"type":"bold","offset":655,"length":15,"data":""},{"type":"bold","offset":895,"length":11,"data":""},{"type":"bold","offset":1181,"length":19,"data":""},{"type":"bold","offset":1332,"length":13,"data":""},{"type":"link","offset":1781,"length":9,"data":"http://Sports.ru"},{"type":"handle","offset":1850,"length":10,"data":"pbuyatova"}],"date":"2020-04-09T16:10:54+00:00","link":"tg://resolve?domain=mobile_jobs&post=63299","tags":[{"name":"mobile"},{"name":"android"},{"name":"kotlin"}],"cities":[{"code":"moscow"}],"allowsRemote":true}},{"node":{"__typename":"Job","id":"66367520768-1001054966032","title":"Ios developer","text":"#вакансия #ios #swift \n\nВсем привет! \n\nОткрыта позиция на должность: \n🔥Middle IOS developer🔥 \n\nКрупнейший европейский банк\n\nАдрес: м. Войковская\n\nФормат работы: офис\nЗанятость: полня\n\nЗарплатная вилка от 150000 до 250000\n\nТебе предстоит:\n\n• Разрабатывать мобильное приложение; \n• Разрабатывать нативные iOS приложения (Swift); \n• Разработка интеграции с серверным APls (REST, SOAP); \n\nЖдем от тебя:\n• Опыт работы от 2х лет;\n• Опыт работы от 1 года на Swift;\n• Уверенное знание IOS SDK, XCode;\n\nМожешь рассчитывать на:\n• Реализацию своего профессионального потенциала в крупном современном Банке;\n• Привлекательные финансовые условия;\n• Дополнительные интересные бенефиты;\n\nКонтакт @vika_nkl","markup":[{"type":"hashtag","offset":0,"length":9,"data":"вакансия"},{"type":"hashtag","offset":10,"length":4,"data":"ios"},{"type":"hashtag","offset":15,"length":6,"data":"swift"},{"type":"handle","offset":683,"length":9,"data":"vika_nkl"}],"date":"2020-04-09T14:19:50+00:00","link":"tg://resolve?domain=mobile_jobs&post=63293","tags":[{"name":"mobile"},{"name":"ios"},{"name":"swift"},{"name":"rest"},{"name":"soap"},{"name":"xcode"}],"cities":[],"allowsRemote":false}},{"node":{"__typename":"Job","id":"66359132160-1001054966032","title":"Mobile разработчик","text":"#вакансия #минск #fulltime #reactnative #moblie\nГород: Минск, Немига\nФормат работы: Пока #удаленно, потом #офис\nЗанятость: #Полная\nВилка ЗП: От $500 до $3000. Надо знакомиться и смотреть навыки.\n\nПривет,\nМы NeatTech.io– команда амбициозных профессионалов, создающих веб и мобильные приложения.\n\nСердце нашей компании – Продукт. Мы стремимся создавать продукты так же круто, как это делают мировые лидеры: Яндекс, Google, Airbnb. Начиная с процессов и заканчивая результатом.\n\nЧтобы к этому прийти, нам приходится каждый день оттачивать свой профессионализм, искать новые подходы и учиться у лучших.\n\nПриглашаем стать частью нас.\n\nЧто предстоит\n\n- Создавать мобильные-приложения на Typescript + React Native\n- Работать напрямую с клиентами и учиться грамотно защищать и принимать лучшие технические решения основываясь на краткосрочных и долгосрочных целях бизнеса\n- Создавать и поддерживать переиспользуемые библиотеки для решения повторяющихся технических проблем\n- Менторить начинающих разработчиков\n- Тесно взаимодействовать с командой и участвовать в продуктовых митингах\n\nИдеальный кандидат\n\n- Умный, обладает математическим складом ума\n- Имеет больше года коммерческой разработки на React Native\n- Обладает хорошим продуктовым мышлением\n- Понимает весь SDLC\n- Разбирается в протоколах (например, REST или HTTP/2), SQL / NoSQL базах данных, основных NPM / React Native библиотеках\n- Умеет приоритезировать и всегда думает о том, какую пользу приносит работа. Не ставит целью написать \"крутой алгоритм\", а рационально находит баланс между качеством, скоростью и усилиями\n- Считает самосовершенствование важной частью жизни и работы\n- Бонус: без трудностей разговаривает, пишет и читает на английском\n\nБолее подробная информация по вакансии. \n\nСтать частью нас\nОткликнуться на вакансию можно по этой ссылке.","markup":[{"type":"hashtag","offset":0,"length":9,"data":"вакансия"},{"type":"hashtag","offset":10,"length":6,"data":"минск"},{"type":"hashtag","offset":17,"length":9,"data":"fulltime"},{"type":"hashtag","offset":27,"length":12,"data":"reactnative"},{"type":"hashtag","offset":40,"length":7,"data":"moblie"},{"type":"bold","offset":48,"length":5,"data":""},{"type":"bold","offset":69,"length":14,"data":""},{"type":"hashtag","offset":89,"length":9,"data":"удаленно"},{"type":"hashtag","offset":106,"length":5,"data":"офис"},{"type":"bold","offset":112,"length":10,"data":""},{"type":"hashtag","offset":123,"length":7,"data":"Полная"},{"type":"bold","offset":131,"length":9,"data":""},{"type":"bold","offset":630,"length":15,"data":""},{"type":"bold","offset":1077,"length":20,"data":""},{"type":"link","offset":1705,"length":42,"data":"https://www.notion.so/Middle-React-Native-a27e4a31628a48dbb3c79956bbe9ab61"},{"type":"bold","offset":1747,"length":17,"data":""},{"type":"link","offset":1798,"length":11,"data":"https://forms.gle/aqDbYcbXTSvxR29r5"}],"date":"2020-04-09T13:46:42+00:00","link":"tg://resolve?domain=mobile_jobs&post=63285","tags":[{"name":"mobile"},{"name":"typescript"},{"name":"reactjs"},{"name":"rest"},{"name":"sql"},{"name":"nosql"},{"name":"npm"},{"name":"react-native"}],"cities":[{"code":"minsk"}],"allowsRemote":true}},{"node":{"__typename":"Job","id":"66358083584-1001054966032","title":"Ios разработчик","text":"#вакансия #remote #kyiv #iOS #swift #office\nГород: Киев, Украина\nФормат: Это полностью удаленная работа на время карантина, а после его окончания - работа в офисе в Киеве.\nЗанятость:  full-time, 40 часов/неделя\nЗаработная плата: рассматривают пожелания кандидатов (от 3000$ и выше)\nКонтракт: длительный, оформление через ФОП\nТема: фитнес-приложение.\nТребуются несколько разработчиков разных уровней - Middle, Senior, Lead.\nНеобходима уже готовая команда от 3х(min) до 6(max) человек\nПро компанию: Канадская продуктовая компания находится в поиске команды IOS разработчиков в Украине, чтобы создать и запустить мобильное приложение с нуля.\nУровень английского: минимум upper-intermediate (B2)\nНеобходим опыт разработки фитнес-приложений (хотя бы у одного разработчика из команды)\n\nЕсли Вы заинтересованы, обращайтесь за деталями:\nTelegram: @inozmtsv\nE-mail: daria.inozemtsevaa@gmail.com","markup":[{"type":"hashtag","offset":0,"length":9,"data":"вакансия"},{"type":"hashtag","offset":10,"length":7,"data":"remote"},{"type":"hashtag","offset":18,"length":5,"data":"kyiv"},{"type":"hashtag","offset":24,"length":4,"data":"iOS"},{"type":"hashtag","offset":29,"length":6,"data":"swift"},{"type":"hashtag","offset":36,"length":7,"data":"office"},{"type":"bold","offset":44,"length":7,"data":""},{"type":"bold","offset":65,"length":6,"data":""},{"type":"bold","offset":172,"length":9,"data":""},{"type":"bold","offset":211,"length":10,"data":""},{"type":"bold","offset":222,"length":5,"data":""},{"type":"bold","offset":282,"length":8,"data":""},{"type":"bold","offset":325,"length":4,"data":""},{"type":"bold","offset":483,"length":12,"data":""},{"type":"bold","offset":639,"length":20,"data":""},{"type":"bold","offset":702,"length":33,"data":""},{"type":"handle","offset":839,"length":9,"data":"inozmtsv"},{"type":"link","offset":857,"length":28,"data":"mailto:daria.inozemtsevaa@gmail.com"}],"date":"2020-04-09T13:37:27+00:00","link":"tg://resolve?domain=mobile_jobs&post=63284","tags":[{"name":"mobile"},{"name":"ios"},{"name":"swift"}],"cities":[{"code":"kiev"}],"allowsRemote":true}},{"node":{"__typename":"Job","id":"66357035008-1001054966032","title":"Ios разработчик","text":"#вакансия #IOS #swift #RxSwift #Realm #нижнийновгород\nГород: Нижний Новгород\nФормат работы: офис\nЗанятость: полная\nЗ\\П: от 170 000 до 250 000 на руки\n\n📌О компании:\n\nМы международная IT-компания со штаб-квартирой в Ирландии. Уже больше 5 лет наша профессиональная команда занимается разработкой проектов в области финтех, социальных медиа и e-commerce.\n\n📌Продукты, над которыми мы работаем:\n\nmeNetwork социальная сеть с системой вознаграждения пользователей\nmeMarket торговая площадка\nmePay платежный сервис\n\n🔗В этом году мы планируем разработку и внедрение в продукт крупных фич, поэтому нам требуется IOS Разработчик.\n\n📌Задачи:\n\nРазработка нового функционала приложения;\nПоддержка существующего функционала приложений;\nCode review.\n\n📌Требования:\n\n📌Архитектура:\n\nMVVM + Clean;\nОднонаправленная.\n\n📌Стек технологий:\n\nЯзык разработки Swift;\nИспользуем библиотеку RxSwift;\nRealm база данных;\nMoya для запросов на сервер;\nВерстка UI в коде.\n\n📌Условия:\n\nМеждународная команда профессионалов;\nКонкурентная заработная плата, по результатам собеседования;\nКарьерный рост, профессиональное развитие;\nОтличный старт для начинающих специалистов;\nУникальные мотивационные программы;\nПрограмма ДМС “Премиум”;\nКорпоративная онлайн-библиотека;\nАктивная корпоративная жизнь;\nНовейшее оборудование на выбор;\nКомфортабельный офис с современным дизайном.\n\nБолее подробную информацию можно получить по контактам указанным ниже, а также обратившись в ЛС.\n📩Oleg.Oltybaev@all.me\n📲+7 (996) 009-06-82 (Telegram, WhatsApp, Viber)","markup":[{"type":"hashtag","offset":0,"length":9,"data":"вакансия"},{"type":"hashtag","offset":10,"length":4,"data":"IOS"},{"type":"hashtag","offset":15,"length":6,"data":"swift"},{"type":"hashtag","offset":22,"length":8,"data":"RxSwift"},{"type":"hashtag","offset":31,"length":6,"data":"Realm"},{"type":"hashtag","offset":38,"length":15,"data":"нижнийновгород"},{"type":"link","offset":1441,"length":22,"data":"http://📩Oleg.Oltybaev@all.me"},{"type":"link","offset":1466,"length":18,"data":"tel:+7 (996) 009-06-82"}],"date":"2020-04-09T13:34:55+00:00","link":"tg://resolve?domain=mobile_jobs&post=63283","tags":[{"name":"mobile"},{"name":"ios"},{"name":"swift"},{"name":"realm"},{"name":"mvvm"}],"cities":[{"code":"nizhny-novgorod"}],"allowsRemote":false}},{"node":{"__typename":"Job","id":"66353889280-1001054966032","title":"Android разработчик","text":"#вакансия #Swift #ObjectiveС #iOS #Gcd #Realm #Coredata #Coregraphics #Storyboard #Autolayout\nГород: Москва, Санкт-Петербург (готовы рассмотреть из других городов России с московским часовым поясом)\nФормат работы: удаленка\nЗанятость: частичная, проектная\nЗ/п: от 800 до 900 руб/час\nВ команде DNA TEAM открыта позиция iOS разработчика\n\nМы ждём от будущего сотрудника:\n • Хорошее знание Swift (опыт работы более 2х лет). Знание Objective-C приветствуется\n • Знание и умение применять основные паттерны проектирования\n • GCD, NSOperation\n • Realm, CoreData\n • Alamofire, AFNetworking, Codable\n • Storyboards, Auto layout\n • Опыт работы с CoreGrapics (будет плюсом)\n • Коммуникабельность, желание обучаться и развиваться\nВажно отметить:\nЭто проектная работа от месяца, с возможностью перейти в штат компании. Занятость – не менее 20 часов в неделю. \nВас ждут:\n • Интересные задачи https://www.dnateam.io/#cases\n • Команда молодых идейных профессионалов \n • Возможность работать удалённо из Москвы или Санкт-Петербурга.\n\nDNA TEAM уже более 5-ти лет работают как отдельная команда, предоставляя услуги по разработке и внедрению digital продуктов, а также сотрудничают с различными доверенными специалистами в этой отрасли. Основной состав команды - Senior менеджмент компании Yota Devices, руководители разработки продуктов YotaPhone-1 и YotaPhone-2.\n\nОсновные направления деятельности компании:\n • Web-разработка – веб-сайты, порталы, аналитические системы, CRM решения, B2B продукты\n • Мобильная разработка – приложения\\сервисы под iOS\\Android\n • Информационная безопасность – проведение аудитов безопасности компьютерных систем, поиск и устранение уязвимостей, организация и проведение тестов на проникновение, консультации по соответствию закону о персональных данных (ФЗ 152).\nКлючевые клиенты: Газпромнефть, Транс-Ойл, British American Tobacco, Aviasales, Marshall, Kaspersky Lab, Haier, КБ Стрелка, Батимат, Geometry Global.\nС радостью расскажу все детали: @epolyakh","markup":[{"type":"bold","offset":0,"length":100,"data":""},{"type":"hashtag","offset":0,"length":9,"data":"вакансия"},{"type":"hashtag","offset":10,"length":6,"data":"Swift"},{"type":"hashtag","offset":17,"length":11,"data":"ObjectiveС"},{"type":"hashtag","offset":29,"length":4,"data":"iOS"},{"type":"hashtag","offset":34,"length":4,"data":"Gcd"},{"type":"hashtag","offset":39,"length":6,"data":"Realm"},{"type":"hashtag","offset":46,"length":9,"data":"Coredata"},{"type":"hashtag","offset":56,"length":13,"data":"Coregraphics"},{"type":"hashtag","offset":70,"length":11,"data":"Storyboard"},{"type":"hashtag","offset":82,"length":11,"data":"Autolayout"},{"type":"bold","offset":198,"length":16,"data":""},{"type":"bold","offset":222,"length":12,"data":""},{"type":"bold","offset":255,"length":27,"data":""},{"type":"bold","offset":317,"length":50,"data":""},{"type":"code","offset":367,"length":3,"data":""},{"type":"code","offset":453,"length":3,"data":""},{"type":"code","offset":515,"length":3,"data":""},{"type":"code","offset":535,"length":3,"data":""},{"type":"code","offset":554,"length":3,"data":""},{"type":"code","offset":590,"length":3,"data":""},{"type":"code","offset":618,"length":3,"data":""},{"type":"code","offset":662,"length":3,"data":""},{"type":"bold","offset":717,"length":16,"data":""},{"type":"bold","offset":846,"length":9,"data":""},{"type":"code","offset":856,"length":3,"data":""},{"type":"link","offset":877,"length":29,"data":"https://www.dnateam.io/%22%20%5Cl%20%22cases"},{"type":"code","offset":907,"length":3,"data":""},{"type":"code","offset":950,"length":3,"data":""},{"type":"bold","offset":1016,"length":3,"data":""},{"type":"bold","offset":1020,"length":4,"data":""},{"type":"bold","offset":1346,"length":43,"data":""},{"type":"code","offset":1390,"length":3,"data":""},{"type":"code","offset":1479,"length":3,"data":""},{"type":"code","offset":1540,"length":3,"data":""},{"type":"bold","offset":1776,"length":18,"data":""},{"type":"handle","offset":1958,"length":9,"data":"epolyakh"}],"date":"2020-04-09T13:07:39+00:00","link":"tg://resolve?domain=mobile_jobs&post=63280","tags":[{"name":"mobile"},{"name":"android"},{"name":"ios"},{"name":"swift"},{"name":"objective-c"},{"name":"realm"},{"name":"web"}],"cities":[{"code":"moscow"}],"allowsRemote":true}}]}}},"context":{}}