{"hash":"f5f6bf98bd95e769321482904cbbd488f77922fd","data":{"records":{"id":"reactjs","name":"reactjs","belongsTo":{"totalCount":182,"pageInfo":{"totalPages":19,"currentPage":7},"edges":[{"node":{"__typename":"Job","id":"17206083584-1001110946746","title":"Javascript разработчик","text":"#вакансия #frontend #remote #react\nВакансия: frontend developer\nКомпания: Done'am\nСтавка: от 900 до 1100 р/ч\nЗанятость: полная\nФормат: удалённо\n\nВ связи с увеличением объемов работ ищем опытных разработчиков на стеке React+ Redux: мидл, синиор.\n\nОсновная задача: разработка, поддержка, оптимизация фронта. Микросервисная архитектура.\n\nПредлагаем работу в распределенной команде на удаленной основе с частичной (не менее 30 часов в неделю) или полной занятостью.\n\nCпециализируемся на разработке высоконагруженных гибкомасштабируемых систем c микросевисной архитектурой: crm, чат платформы, билинговые системы,  для финансовых организаций.\n\nКонтакты: @Tragoman","markup":[{"type":"hashtag","offset":0,"length":9,"data":"вакансия"},{"type":"hashtag","offset":10,"length":9,"data":"frontend"},{"type":"hashtag","offset":20,"length":7,"data":"remote"},{"type":"hashtag","offset":28,"length":6,"data":"react"},{"type":"handle","offset":649,"length":9,"data":"Tragoman"}],"date":"2020-06-29T08:49:53+00:00","link":"tg://resolve?domain=javascript_jobs_feed&post=16409","tags":[{"name":"javascript"},{"name":"reactjs"},{"name":"redux"},{"name":"react-redux"}],"cities":[],"allowsRemote":true}},{"node":{"__typename":"Job","id":"17201889280-1001110946746","title":"Js разработчик","text":"#вакансия #remote #удаленка #Angular9 #SASS #Fulstack #Frontend #Backend #Bulma #Node.js #JavaScript\n\nФормат: Удаленка\nЗанятость: Проектная\nУровень: Middle/Senior\nЗп: 500 USD -> 2000 USD или проектная после собеседования.\n\nО компании: БиКинг (https://beking.co) - разработка приложений и сервисов на основе web-технологий. Мы ищем к себе в команду ответственного человека, который хочет и готов активно расти как разработчик и специалист. Компания молодая. Пока в компании програмистов нету.\n\nОбязанности:\n- Разработка Web приложений на Angular, Reakt с применением современных framework-ов\n- Исследование и внедрение новых тенденций и технологий\n\nТребования:\n- Хорошее знание JavaScript (ES5, ES6), HTML, SASS, CSS, Typescript\n- Знание Адаптивной Вёрстки\n- Опыт работы с современными фреймворками (Angular/React, Bulma)\n- Умение работать с REST\n- Хорошее умение пользоваться Git\n- Навыки работы в интернациональной команде\n\nБудет плюсом:\n- Разговорный английский, испаский язык\n- Знание Node.js и опыт работы с Express.js/Nest.js/Next.js\n- Умение верстать дизайн из Adobe XD.\n\nМы предлагаем:\n- Гибкий график работы\n- Постоянное обучение, развитие скиллов\n- Возможность получить опыт в разных проектах и изучить новые технологии\n\nКонтакты: @yuribkng","markup":[{"type":"hashtag","offset":0,"length":9,"data":"вакансия"},{"type":"hashtag","offset":10,"length":7,"data":"remote"},{"type":"hashtag","offset":18,"length":9,"data":"удаленка"},{"type":"hashtag","offset":28,"length":9,"data":"Angular9"},{"type":"hashtag","offset":38,"length":5,"data":"SASS"},{"type":"hashtag","offset":44,"length":9,"data":"Fulstack"},{"type":"hashtag","offset":54,"length":9,"data":"Frontend"},{"type":"hashtag","offset":64,"length":8,"data":"Backend"},{"type":"hashtag","offset":73,"length":6,"data":"Bulma"},{"type":"hashtag","offset":80,"length":5,"data":"Node"},{"type":"hashtag","offset":89,"length":11,"data":"JavaScript"},{"type":"link","offset":243,"length":17,"data":"https://beking.co"},{"type":"handle","offset":1240,"length":9,"data":"yuribkng"}],"date":"2020-06-29T06:52:19+00:00","link":"tg://resolve?domain=javascript_jobs_feed&post=16405","tags":[{"name":"javascript"},{"name":"angularjs"},{"name":"sass"},{"name":"nodejs"},{"name":"web"},{"name":"html"},{"name":"css"},{"name":"typescript"},{"name":"reactjs"},{"name":"rest"},{"name":"git"},{"name":"express"}],"cities":[],"allowsRemote":true}},{"node":{"__typename":"Job","id":"17195597824-1001110946746","title":"Javascript разработчик","text":"#вакансия #удаленно #проектная #reactNative \n В компанию \"Far Express CO\" LLC требуется React Native Разработчик под проектный вид работы\n Город: Узбекистан, г. Ташкент\n Занятость: проектная\n Формат работы: удаленка\n Зарплатная вилка: от 500$ до 1000$\n Требования:\n - опыт работы React Native не менее 2 года\n Условия работы:\n - график работы 30-40ч в недели (работаем с Hubstaff)\n Контакты:\n Телеграм: @nazirovlix\n\n—\n\n👉 Обсуждение вакансии в чате @javascript_jobs","markup":[{"type":"hashtag","offset":0,"length":9,"data":"вакансия"},{"type":"hashtag","offset":10,"length":9,"data":"удаленно"},{"type":"hashtag","offset":20,"length":10,"data":"проектная"},{"type":"hashtag","offset":31,"length":12,"data":"reactNative"},{"type":"handle","offset":403,"length":11,"data":"nazirovlix"},{"type":"handle","offset":449,"length":16,"data":"javascript_jobs"}],"date":"2020-06-28T20:36:51+00:00","link":"tg://resolve?domain=javascript_jobs_feed&post=16399","tags":[{"name":"javascript"},{"name":"express"},{"name":"reactjs"},{"name":"react-native"}],"cities":[{"code":"tashkent"}],"allowsRemote":true}},{"node":{"__typename":"Job","id":"17191403520-1001110946746","title":"Js разработчик","text":"Greenatom.ru\n#вакансия #Москва #javascript #React #Typescript #Node.js #Middle #Senior #удаленка #удаленная работа \n\n👨🏼‍💻 Middle/Senior Frontend Developer, Middle/Senior Backend Developer\nГород и адрес офиса: #Москва, БЦ Сириус Парк, метро Нагатинская\n\n✅Формат работы: \nУДАЛЕННАЯ РАБОТА\n\n💻Занятость: полная, гибкое начало трудового дня.\n\nЗарплатная вилка: от 170 000 до 230 000 руб. на руки.\n\n🏢Компания: АО Гринатом\n\nПривет! Мы растём и активно развиваем ряд внутренних проектов: например, корпоративный портал, горячая линия, собственная кадровая система для 400 предприятий! \nМы формируем НЕСКОЛЬКО КОМАНД, общей численностью более 60 человек и ищем классных:\n\n✅ФРОНТЕНД  разработчиков;\n\n✅БЭКЕНД разработчиков. \n\nПроекты в стадии разработки пилота и у тебя есть возможность повлиять на дальнейшее развитие продукта. Если у тебя есть крутые идеи - ты сможешь их здесь реализовать! Откликайся сам и зови друзей! Вирус пройдёт, работа останется!\n\n✅Требуемые знания и навыки:\n- Опыт разработки от двух лет\n- Хорошее знание чистого JS\n- Опыт работы с TypeScript\n- React, MobX, Less/Sass\n- Опыт написания юнит-тестов с помощью Jest, Enzymе очень приветствуется\n\n💡Наш стек:\n      React, TypeScript, Node.js, MobX, Docker\n\nМы работаем по Scrum.\n\n✅Условия:\n- Официальное оформление в штат по ТК, белая зп;\n- Бессрочный трудовой договор; \n- Годовой бонус;\n- Возможности профессионального и карьерного роста;\n- Дополнительные 3 дня к отпуску;\n- Плавающее начало дня;\n- ДМС со стоматологией;\n- Полная удаленка \n(Если тебе нравится работать в офисе, мы не против)\n\n☎️Контакты:\nЮлия - YAnZueva@Greenatom.ru","markup":[{"type":"link","offset":0,"length":12,"data":"http://Greenatom.ru"},{"type":"hashtag","offset":13,"length":9,"data":"вакансия"},{"type":"hashtag","offset":23,"length":7,"data":"Москва"},{"type":"hashtag","offset":31,"length":11,"data":"javascript"},{"type":"hashtag","offset":43,"length":6,"data":"React"},{"type":"hashtag","offset":50,"length":11,"data":"Typescript"},{"type":"hashtag","offset":62,"length":5,"data":"Node"},{"type":"hashtag","offset":71,"length":7,"data":"Middle"},{"type":"hashtag","offset":79,"length":7,"data":"Senior"},{"type":"hashtag","offset":87,"length":9,"data":"удаленка"},{"type":"hashtag","offset":97,"length":10,"data":"удаленная"},{"type":"hashtag","offset":212,"length":7,"data":"Москва"},{"type":"link","offset":1579,"length":21,"data":"mailto:YAnZueva@Greenatom.ru"}],"date":"2020-06-28T17:42:12+00:00","link":"tg://resolve?domain=javascript_jobs_feed&post=16395","tags":[{"name":"javascript"},{"name":"reactjs"},{"name":"typescript"},{"name":"nodejs"},{"name":"sass"},{"name":"docker"}],"cities":[{"code":"moscow"}],"allowsRemote":true}},{"node":{"__typename":"Job","id":"17190354944-1001110946746","title":"Js разработчик","text":"#вакансия #frontend  #офис #fulltime #спб #петербург  #fulltime #middle #vue #JavaScript #lodash #middle #petersburg #jquery #sass #less \n\nГород: Санкт-Петербург м.Чернышевская\n\nЗанятость: fulltime\n\nКомпания Rixtrema Inc. находится в поиске frontend-разработчика уровня middle, который, также, как и мы, обожает программировать и разрабатывать интерфейсы.  Нам важно видеть у соискателя огонь в глазах и желание развиваться вместе с командой. \nШтаб-квартира компании находится в Нью-Йорке. Мы обслуживаем одни из крупнейших инвестиционных домов и управляющих активами в США. \nМы продаёт свой софт в США. Это не аутсорс, а интересная работа со своими динамичными продуктами. Именно поэтому ищем кандидата, способного продемонстрировать  креативность.\n\nОбязанности:\n\n - Разработка интерфейсов, приложений и сайтов\n-  Поддержание проектов в продакшне\n- Участие в разработке новых приложений\n- Постоянное, непрерывное развитие и обучение (это как и условие, так и обязанность)\n\nТребования:\n\n Уверенное знание JavaScript (само собой, HTML5, CSS3 ) Понимание основных паттернов проектирования\nПонимание основных принципов UI/UX, умение верстать без макетов\nНе так важна углубленная работа с конкретным фреймворком, важно понимание их работы в целом (Angular, React, Vue и пр.). Тем не менее, новые проекты пишутся на Vue и кандидат должен быть готов на кратчайшие сроки сориентироваться. \nДополнительным плюсом будет работа с jquery, lodash (в т.ч. шаблонизаторами), cordova, electron, nodejs, less, sass.\n\n\nВ первую очередь ищем петербуржцев, готовых работать в офисе. Однако готовы рассмотреть и вариант удалённой работы.\n\nУсловия:\n\n    Удалённая работа (если в Питере, то можно в офисе)\n    Зарплата от 1300 USD до 2000 USD после уплаты налогов. Фиксируется в долларах. \n    3 недели оплачиваемого отпуска\nпрактически отсутствует бюрократия, все предельно прозрачно\nвозможность разработчику непросто кодить по ТЗ, а принимать в том числе стратегические решения по проекту.\n    Фирма продаёт свой софт в США. Это не аутсорс, а интересная работа со своими динамичными продуктами. \n\nЕсли Вы подходите под требования и готовы решать нестандартные задачи вместе с нами - смело записывайтесь на собеседование!  Не забывайте прилагать пример кода и ссылки на проекты в продакшне, особенно на самые нетривиальные на Ваш взгляд. \n\nКонтакты:\n@sanyanx\n\n—\n\n👉 Обсуждение вакансии в чате @javascript_jobs","markup":[{"type":"hashtag","offset":0,"length":9,"data":"вакансия"},{"type":"hashtag","offset":10,"length":9,"data":"frontend"},{"type":"hashtag","offset":21,"length":5,"data":"офис"},{"type":"hashtag","offset":27,"length":9,"data":"fulltime"},{"type":"hashtag","offset":37,"length":4,"data":"спб"},{"type":"hashtag","offset":42,"length":10,"data":"петербург"},{"type":"hashtag","offset":54,"length":9,"data":"fulltime"},{"type":"hashtag","offset":64,"length":7,"data":"middle"},{"type":"hashtag","offset":72,"length":4,"data":"vue"},{"type":"hashtag","offset":77,"length":11,"data":"JavaScript"},{"type":"hashtag","offset":89,"length":7,"data":"lodash"},{"type":"hashtag","offset":97,"length":7,"data":"middle"},{"type":"hashtag","offset":105,"length":11,"data":"petersburg"},{"type":"hashtag","offset":117,"length":7,"data":"jquery"},{"type":"hashtag","offset":125,"length":5,"data":"sass"},{"type":"hashtag","offset":131,"length":5,"data":"less"},{"type":"handle","offset":2329,"length":8,"data":"sanyanx"},{"type":"handle","offset":2372,"length":16,"data":"javascript_jobs"}],"date":"2020-06-28T15:15:36+00:00","link":"tg://resolve?domain=javascript_jobs_feed&post=16394","tags":[{"name":"javascript"},{"name":"vuejs"},{"name":"jquery"},{"name":"sass"},{"name":"html"},{"name":"css"},{"name":"angularjs"},{"name":"reactjs"},{"name":"cordova"},{"name":"electron"},{"name":"nodejs"}],"cities":[],"allowsRemote":true}},{"node":{"__typename":"Job","id":"17185112064-1001110946746","title":"Js разработчик","text":"#вакансия #удаленка #react #frontend #senior                                                                                                                                                        Локация: удаленка полная                                                                                                                                                                                Занятость: полная                                                                                                                                                                      Компания Скайбондс.     \nВилка: 200-350 тыс руб.                                                                                                                    \n Мы — команда Скайбондс. Мы создаем продукт для анализа рынка ценных бумаг и эффективного управления портфелем.\n\nИщем теперь Senior фронденд разработчика (только РФ и граждане Таможенного союза находящиеся на территории РФ)\n\nСейчас в нашу команду нужен сильный  FRONTEND-РАЗРАБОТЧИК уровня SENIOR   и выше, который будет:\n•  брать на себя ответственность за часть продукта, в рамках общих приоритетов команды;\n•  привносить в продукт ценный для клиента результат;\n•  в достижении результата, понимать как техническое решение, так и пользовательские сценарии;\n•  планировать свою работу и прозрачно отчитываться по ней;\n•  взаимодействовать с командой дизайнеров и серверных разработчиков;\n•  уметь разбираться в чужом коде;\n•  решать проблемы, о которых сообщили наши клиенты;\n•  изучать новые технологии и внедрять их в проект с целью его улучшения;\n•  принимать совместные командой решения сложных проблем.\nМинимальные требования:\n\n•  опыт разработки на JS (React)  от 3-х лет;\n•  знание возможностей и синтаксиса последних версий ECMAScript;\n•  глубокое понимание React.js и его основных принципов;\n•  понимание SPA на основе React/Redux;\n•  понимание методов и знание инструментов тестирования (unit, e2e tests);\n•  опыт работы с системой контроля версий Git;\n•  опыт работы с средствами разработки, такими как Babel, Webpack, ESlint, npm;\n\n\n\nМы предлагаем:\n•  полностью \"белую\" заработную плату, официальное трудоустройство;\n•  ДМС;\n•  график работы 5/2, полностью удаленную работу.\nПисать @railyakaM","markup":[{"type":"hashtag","offset":0,"length":9,"data":"вакансия"},{"type":"hashtag","offset":10,"length":9,"data":"удаленка"},{"type":"hashtag","offset":20,"length":6,"data":"react"},{"type":"hashtag","offset":27,"length":9,"data":"frontend"},{"type":"hashtag","offset":37,"length":7,"data":"senior"},{"type":"handle","offset":2239,"length":10,"data":"railyakaM"}],"date":"2020-06-28T12:27:59+00:00","link":"tg://resolve?domain=javascript_jobs_feed&post=16389","tags":[{"name":"javascript"},{"name":"reactjs"},{"name":"redux"},{"name":"git"},{"name":"webpack"},{"name":"npm"},{"name":"react-redux"}],"cities":[],"allowsRemote":true}},{"node":{"__typename":"Job","id":"26658996224-1001075660570","title":"Php developer","text":"#вакансия #JavaScript #PHP #React #Senior #офис #Москва #Балашиха\n📣Крупнейший в России поставщик автомобильных шин и колесных дисков ведущих мировых производителей (входящих в Forbs 500) приглашает Senior PHP/JavaScript Developer для участия в новом интернет-проекте в сфере B2B и B2C.\n\n✅Мы предлагаем:\nУровень ЗП: 170-200 net (обсуждается!)\nЛокация: офис г. Балашиха или м. Таганская\nОформление по ТК РФ, полный соц.пакет.\nКомпенсация аренды жилья при переезде❗️\nГрафик работы 5/2 с 9:00 до 18:00, корпоративное питание, частично удаленно❗️\n\n🧑‍💻Ваши будущие задачи:\n- участие в разработке новых больших интернет-проектов в сфере B2B и B2C;\n- участие в разработке внутренних проектов Компании;\n- развитие и оптимизация существующих проектов.\n\n🤝Мы ожидаем от Вас:\nОпыт работы и уверенное владение PHP, Javascript (React), jQuery от 3 лет\nХорошее понимание ООП, MVC, SQL, CSS3\nОпыт комплексной разработки web-проектов, наличие готовых проектов\nЖелательно: использование grunt, browserify, методологии BEM, препроцессоров SASS/LESS; опыт работы Oracle DB, Docker, умение верстать на flexbox.\n\n👉Откликнуться на вакансию и задать вопросы: telegram @anisimovaane4ka","markup":[{"type":"hashtag","offset":0,"length":9,"data":"вакансия"},{"type":"hashtag","offset":10,"length":11,"data":"JavaScript"},{"type":"hashtag","offset":22,"length":4,"data":"PHP"},{"type":"hashtag","offset":27,"length":6,"data":"React"},{"type":"hashtag","offset":34,"length":7,"data":"Senior"},{"type":"hashtag","offset":42,"length":5,"data":"офис"},{"type":"hashtag","offset":48,"length":7,"data":"Москва"},{"type":"hashtag","offset":56,"length":9,"data":"Балашиха"},{"type":"handle","offset":1148,"length":16,"data":"anisimovaane4ka"}],"date":"2020-06-28T11:35:43+00:00","link":"tg://resolve?domain=php_jobs&post=25424","tags":[{"name":"php"},{"name":"javascript"},{"name":"reactjs"},{"name":"dotnet"},{"name":"jquery"},{"name":"sql"},{"name":"css"},{"name":"web"},{"name":"gruntjs"},{"name":"sass"},{"name":"oracle"},{"name":"docker"}],"cities":[{"code":"moscow"},{"code":"balashikha"}],"allowsRemote":true}},{"node":{"__typename":"Job","id":"17184063488-1001110946746","title":"Javascript разработчик","text":"#вакансия #front #react #typescript #москва #генетика #javascript #геномэксперт #барсгруп\n\nГород и адрес офиса: Москва, ст.м.Павелецкая\nФормат работы: Офис\nЗанятость: полная.\nЗарплатная вилка: от 200.000 до 300.000 рублей на руки. \nНазвание компании: Барс Груп\nhttps://bars.group/\nПроект Геном.Эксперт  - https://genome.expert/ \n\nТребуется senior/middle front-end разработчик в крупный медицинский проект.\n\nПредметная область: Генетика. \nТекущее состояние проекта: \nПроект запущен с прошлого года, сейчас добираем команду по потребностям проекта и новым направлениям, есть уникальная возможность принять участие в создании единого пространства для врачей-генетиков, лабораторных генетиков и биоинформатиков.\n\n✅Чем придется заниматься:\n\n- Писать микроприложения и компоненты на React (В данный момент есть большое приложение, его разбиваем на небольшие)\n- Пилить компоненты для ui-kit\n- Менять legacy components(polymer) на react components\n\n\n✔️Требования:\n\n-Front-end: React(Vue), typescript, Redux/Mobx/Vuex;\n-Межсервисное взаимодействие и API: REST/GraphQL/gRPC. \n\n✔️Инструменты для работы: \n\nGit, bitbucket, JIRA, docker, docker-compose. \n\n✔️Условия:\n\n-Оформление по ТК РФ;\n-Работа в офисе в пешей доступности от ст.м.Павелецкая (на данный момент удаленка);\n-График 5/2, гибкое начало рабочего дня ;\n-Белая зарплата, повышающаяся по системе аттестаций несколько раз в год;\n-ДМС;\n-Перспективы карьерного роста;\n-Корпоративное обучение (тренинги, мастер-классы);\n-Корпоративная библиотека;\n-Мы рассматриваем кандидатов с возможностью переезда в Москву;\n-Возможность предоставления бесплатного жилья на первый месяц. \n\nКонтакты для связи: \n\nemail: a.starchenko@bars.group \nTelegram: @alinavelcheva \n\nbars.group\nАО «БАРС Груп» - официальный сайт компании\nАО «БАРС Груп» - российский производитель ИТ-решений и экспертный центр в сфере государственной и корпоративной информатизации.\n\n—\n\n👉 Обсуждение вакансии в чате @javascript_jobs","markup":[{"type":"hashtag","offset":0,"length":9,"data":"вакансия"},{"type":"hashtag","offset":10,"length":6,"data":"front"},{"type":"hashtag","offset":17,"length":6,"data":"react"},{"type":"hashtag","offset":24,"length":11,"data":"typescript"},{"type":"hashtag","offset":36,"length":7,"data":"москва"},{"type":"hashtag","offset":44,"length":9,"data":"генетика"},{"type":"hashtag","offset":54,"length":11,"data":"javascript"},{"type":"hashtag","offset":66,"length":13,"data":"геномэксперт"},{"type":"hashtag","offset":80,"length":9,"data":"барсгруп"},{"type":"link","offset":261,"length":19,"data":"https://bars.group/"},{"type":"link","offset":305,"length":22,"data":"https://genome.expert/"},{"type":"link","offset":1648,"length":23,"data":"mailto:a.starchenko@bars.group"},{"type":"handle","offset":1683,"length":14,"data":"alinavelcheva"},{"type":"link","offset":1700,"length":10,"data":"http://bars.group"},{"type":"handle","offset":1916,"length":16,"data":"javascript_jobs"}],"date":"2020-06-27T21:03:00+00:00","link":"tg://resolve?domain=javascript_jobs_feed&post=16388","tags":[{"name":"javascript"},{"name":"reactjs"},{"name":"typescript"},{"name":"polymerjs"},{"name":"vuejs"},{"name":"redux"},{"name":"rest"},{"name":"graphql"},{"name":"git"},{"name":"docker"},{"name":"docker-compose"}],"cities":[{"code":"moscow"}],"allowsRemote":true}},{"node":{"__typename":"Job","id":"17179869184-1001110946746","title":"Js разработчик","text":"#вакансия #JavaScript #Node.js #Екатеринбург\n\nГород: Екатеринбург\nФормат: Обсуждаемый (офис/удаленка)\nзанятость: Полная\nУровень: Junior/Middle\nзп: 30 000 - 80 000 ₽ net\n\nО компании: YetiCrab (https://yeticrab.org/) - команда специалистов по разработке различных приложений (web, desktop, mobile) и сервисов на основе web-технологий. У нас много интересных проектов с заказчиками по всему миру. Мы ищем к себе в команду ответственного человека, который хочет и готов активно расти как разработчик и специалист.\n\nОбязанности:\n- Разработка Web и мобильных приложений на JavaScript с применением современных framework-ов\n- Исследование и внедрение новых тенденций и технологий\n\nТребования:\n- Хорошее знание JavaScript (ES5, ES6), HTML, CSS\n- Опыт работы с современными фреймворками (Angular/React/Vue)\n- Понимание REST\n- Умение пользоваться Git\n- Навыки работы в команде\n\nБудет плюсом:\n- Опыт работы с WebSockets и GraphQL\n- Разговорный английский язык\n- Знание Node.js и опыт работы с Express.js/KOA/Nest.js/Next.js\n- Приветствуется знание React Native или Ionic\n- Понимание работы с CI/CD\n- Опыт работы с Electron.js, PWA\n- Знание Python\n\nМы предлагаем:\n- Гибкий график работы\n- Просторный офис\n- Возможность удаленной работы\n- Рабочий ноутбук MacBook Apple\n- Чай, кофе, печеньки и другие плюшки в офисе\n- Постоянное обучение, развитие скиллов\n- Поддержку от команды единомышленников\n- Возможность получить опыт в разных проектах и изучить новые технологии\n- Поездки на IT-конференции\n\nКонтакты: @artemkuzvesov\n\n—\n\n👉 Обсуждение вакансии в чате @javascript_jobs","markup":[{"type":"hashtag","offset":0,"length":9,"data":"вакансия"},{"type":"hashtag","offset":10,"length":11,"data":"JavaScript"},{"type":"hashtag","offset":22,"length":5,"data":"Node"},{"type":"hashtag","offset":31,"length":13,"data":"Екатеринбург"},{"type":"link","offset":147,"length":15,"data":"tel:30 000 - 80 000"},{"type":"link","offset":192,"length":21,"data":"https://yeticrab.org/"},{"type":"handle","offset":1494,"length":14,"data":"artemkuzvesov"},{"type":"handle","offset":1543,"length":16,"data":"javascript_jobs"}],"date":"2020-06-27T12:12:37+00:00","link":"tg://resolve?domain=javascript_jobs_feed&post=16384","tags":[{"name":"javascript"},{"name":"nodejs"},{"name":"dotnet"},{"name":"web"},{"name":"mobile"},{"name":"html"},{"name":"css"},{"name":"angularjs"},{"name":"reactjs"},{"name":"vuejs"},{"name":"rest"},{"name":"git"},{"name":"graphql"},{"name":"express"},{"name":"electron"},{"name":"python"},{"name":"react-native"}],"cities":[],"allowsRemote":true}},{"node":{"__typename":"Job","id":"17178820608-1001110946746","title":"Js developer","text":"#Вакансия #разыскивается #JS #Vue.js #Vue #developer #Сочи #fulltime #работа #офис \n\nГород: Сочи\n\nФормат работы: офис\n\nЗанятость: fulltimе\n\nЗарплатная вилка: от 130 000 до 150 000 рублей\n\nОписание вакансии: \nСоздание системы по управлению метаданными компании. Работа в кроссфункциональной команде в составе до 10 человек\n\nНазвание компании: ОЦРВ\n\nПримерный пул задач:\n•  Разработка системы по управлению метаданными\n•  Участие в построение архитектуры решения\n•  Разработка интеграционных сценариев с другими системами\n•  Подготовка инструкций и документации\n\n\nНаши требования к кандидату: \n•  Аналитическое мышление, понимание работы алгоритмов, структур данных и оптимизации работы приложений\n•  Опыт разработки на Vue.js, React (Redux или MobX, Webpack, SCSS)\n•  Отличные знания чистого Javascript\n•  Умение адаптивно и кроссбраузерно верстать\n•  Опыт работы с веб-сервисами (SOAP, REST)\n•  Опыт работы с микросервисной архитектурой\n•  Опыт работы с GIT\n\nБудет плюсом\n•  Опыт работы с популярными css-фреймворками (bootstrap, semantic, material-ui и т.д.)\n•  Опыт работы с Webpack, NPM\n•  Опыт работы с Docker\n•  Опыт работы с Selenium и/или другими средствами UI тестирования\n•  Использование Figma для работы с дизайнером\n\n\n\nНаш стек:\nJava 8-11, Spring, Vue.js, PostgreSQL/HBase/MongoDB/JanusGraph, GIT, Docker, Kubernetes, Kafka\n\nУсловия: \n•  Офис в Адлере в 10 минутах до моря\n•  Оклад: 130 000 - 150 000 руб. gross\n•  Компенсация проживания 20 000 руб. gross в месяц (для кандидатов из других регионов)\n•  Релокационный бонус в размере оклада (для кандидатов из других регионов)\n•  Премия до 30% годового оклада\n•  Работа в динамичной команде единомышленников\n•  Компенсация ДМС после прохождения испытательного срока\n•  Скидки на ДМС для родственников\n•  Компенсация мобильной связи\n•  Новейшее оборудование и просторный офис\n•  Лучшая экология и климат в России\n•  Море и горнолыжный курорт рядом\n\n\nКомпания: ОЦРВ\nСайт: http://www.ocrv.ru/\nКонтакты: @Mirovan","markup":[{"type":"hashtag","offset":0,"length":9,"data":"Вакансия"},{"type":"hashtag","offset":10,"length":14,"data":"разыскивается"},{"type":"hashtag","offset":25,"length":3,"data":"JS"},{"type":"hashtag","offset":29,"length":4,"data":"Vue"},{"type":"hashtag","offset":37,"length":4,"data":"Vue"},{"type":"hashtag","offset":42,"length":10,"data":"developer"},{"type":"hashtag","offset":53,"length":5,"data":"Сочи"},{"type":"hashtag","offset":59,"length":9,"data":"fulltime"},{"type":"hashtag","offset":69,"length":7,"data":"работа"},{"type":"hashtag","offset":77,"length":5,"data":"офис"},{"type":"link","offset":1931,"length":19,"data":"http://www.ocrv.ru/"},{"type":"handle","offset":1961,"length":8,"data":"Mirovan"}],"date":"2020-06-27T09:58:34+00:00","link":"tg://resolve?domain=javascript_jobs_feed&post=16383","tags":[{"name":"javascript"},{"name":"vuejs"},{"name":"reactjs"},{"name":"redux"},{"name":"webpack"},{"name":"soap"},{"name":"rest"},{"name":"git"},{"name":"css"},{"name":"bootstrap"},{"name":"npm"},{"name":"docker"},{"name":"selenium"},{"name":"java"},{"name":"spring"},{"name":"postgresql"},{"name":"hbase"},{"name":"mongodb"},{"name":"kubernetes"},{"name":"kafka"},{"name":"react-redux"}],"cities":[{"code":"sochi"}],"allowsRemote":false}}]}}},"context":{}}