{"hash":"f34fd2c444a074f4e0e67d525015a008ef8e766f","data":{"records":{"id":"gitlab","name":"gitlab","belongsTo":{"totalCount":52,"pageInfo":{"totalPages":6,"currentPage":6},"edges":[{"node":{"__typename":"Job","id":"204472320-1001352129329","title":"Go разработчик","text":"#вакансия #СПБ #fulltime \nНазвание компании: Devim \nНазвание вакансии: Tech Lead \nЗарплатная вилка (после налогов в стандартной валюте расчетов компании): 250 000-380 000 RUB\nДоступна ли удалённая работа: Нет, офис, полный день.\nГород: Санкт-Петербург \nСписок языков, которые необходимо знать: Русский, Английский \n\nTechStack: PHP, Go, PostgreSQL, RabbitMQ, GRPC, Consul, Docker, Redis, Prometheus, Gitlab-CI, Kubernetes.\n • умение работать в условиях постоянных изменений, быстрая реакция на них и коммуникация с командой;\n\n • менторство;\n\n • умение понятно ставить задачи внутри разработки, четко отслеживать процесс их выполнения;\n\n • умеете писать чистый, понятный и поддерживаемый код на PHP и Go, чтобы оценивать код, который пишет команда;\n\n • опытом работы с транспортами (от SOAP до MQ);\n\n • проектирование распределенных систем.\n\nДано: 6 бэкендеров (Go+PHP), техдолг, лёгкая франкенштейнщина на бэке, бизнес хочет всё вчера, команда хочет рефачить, CTO хочет жить.\nНадо: команда х2 в течение полугода, roadmap работы с техдолгом, единый архитектурный подход для разработки нового функционала, баланс между “срочно в релиз” и “ну давайте мы еще полгодика порефачим, а там посмотрим”, счастье, мир и дружбомагия. Тех Лиду кодить не нужно, но нужно понимать, что кодят ребята, и может ли это отхлебнуть в будущем. А вот лидить, менторить и структурировать команду очень нужно.\nКонтактное лицо: Полина - @polina_vel\n Автор @polina_vel","markup":[{"type":"hashtag","offset":0,"length":9,"data":"вакансия"},{"type":"hashtag","offset":10,"length":4,"data":"СПБ"},{"type":"hashtag","offset":15,"length":9,"data":"fulltime"},{"type":"handle","offset":1410,"length":11,"data":"polina_vel"},{"type":"handle","offset":1429,"length":11,"data":"polina_vel"}],"date":"2020-01-14T19:17:01+00:00","link":"tg://resolve?domain=gogetajobfeed&post=195","tags":[{"name":"go"},{"name":"php"},{"name":"postgresql"},{"name":"rabbitmq"},{"name":"docker"},{"name":"redis"},{"name":"gitlab"},{"name":"kubernetes"},{"name":"soap"}],"cities":[],"allowsRemote":true}},{"node":{"__typename":"Job","id":"198180864-1001352129329","title":"Golang разработчик","text":"#вакансия #СПб #fulltime #Golang #Go  \n\nВакансия: Golang developer\nКомпания: IQ Option\nГород: Санкт-Петербург (ст. метро Новочеркасская)\nФормат работы: #офис\nЗанятость: #полная\nЗарплата (полностью белая): 150 000 - 230 000 ₽ на руки\n\nМы ищем Golang разработчика в команду Client Services. Команда создает и поддерживает жизненно-важные компоненты платформы, среди которых:\n• Системы оповещения пользователей (push, sms, email);\n• Стриминг на клиентские приложения состояния всех сделок пользователя (АКА Портфель);\n• Авторизация на платформе;\n• Механизм, позволяющий проводить AB тестирование новых фич.\n\nТебе предстоит:\n• Разрабатывать новые микросервисы и писать сценарии для их развертывания;\n• Портировать уже существующие микросервисы во внутреннее облако на Kubernetes;\n• Участвовать в написании драйверов для внутренних транспортных систем.\n\nСтек технологий:\n• Kubernetes, Docker, Gitlab CI/CD;\n• Postgres, Redis, Consul;\n• RabbitMQ, GRPC.\n\nМинимальные технические требования:\n• опыт разработки на Golang более двух лет;\n• опыт работы с PostgreSQL.\n\nБудет преимуществом:\n• опыт разработки финансовых сервисов;\n• английский язык на уровне intermediate.\n\nПочему именно мы:\n• трудоустройство согласно ТК РФ;\n• 5/2, гибкое начало рабочего дня;\n• офис класса А+ в 10 мин ходьбы от ст.м. Новочеркасская;\n• отсутствие дресс-кода, бюрократии и т.д.;\n• компенсация питания (оплата обедов, ежедневные завтраки в офисе + кухни на каждом этаже с разнообразной едой);\n• интересные задачи;\n• обширные возможности для профессионального и карьерного роста;\n• ДМС со стоматологией;\n• техническая библиотека;\n• корпоративный фитнес-клуб и массажист на территории БЦ и многое другое.\n\nДополнительные условия для иногородних и иностранных кандидатов: \n• предоставление места проживания за счет компании в первый месяц работы;\n• компенсация переезда;\n• помощь в оформлении документов (для иностранных граждан).\n\nПишите и присылайте резюме: \nEmail: galina.krapivina@iqoption.com\nTelegram: @gala_kr\n Автор @gala_kr","markup":[{"type":"hashtag","offset":0,"length":9,"data":"вакансия"},{"type":"hashtag","offset":10,"length":4,"data":"СПб"},{"type":"hashtag","offset":15,"length":9,"data":"fulltime"},{"type":"hashtag","offset":25,"length":7,"data":"Golang"},{"type":"hashtag","offset":33,"length":3,"data":"Go"},{"type":"hashtag","offset":152,"length":5,"data":"офис"},{"type":"hashtag","offset":169,"length":7,"data":"полная"},{"type":"link","offset":1934,"length":29,"data":"mailto:galina.krapivina@iqoption.com"},{"type":"handle","offset":1974,"length":8,"data":"gala_kr"},{"type":"handle","offset":1990,"length":8,"data":"gala_kr"}],"date":"2020-01-10T08:50:22+00:00","link":"tg://resolve?domain=gogetajobfeed&post=189","tags":[{"name":"go"},{"name":"kubernetes"},{"name":"docker"},{"name":"gitlab"},{"name":"postgresql"},{"name":"redis"},{"name":"rabbitmq"}],"cities":[],"allowsRemote":false}}]}}},"context":{}}