{"hash":"f5f6bf98bd95e769321482904cbbd488f77922fd","data":{"records":{"id":"git","name":"git","belongsTo":{"totalCount":273,"pageInfo":{"totalPages":28,"currentPage":5},"edges":[{"node":{"__typename":"Job","id":"26903314432-1001075660570","title":"Php разработчик","text":"#вакансия  #fulltime #backend #мск #москва\nВакансия: backend-разработчик\nКомпания: Логистик Тайм\nГород: Москва\nФормат работы: #офис\nЗанятость: #полная\nЗарплата : от 160 000 до 250 000 ₽.                                                                                                                                                                                                                    \n\nПривет! Мы растем и активно развиваемся, поэтому ищем специалистов для работы в офисе нашей компании в Москве. Это отличная возможность реализовать свои навыки и прокачаться ещё больше в команде профессионалов. \n\n💡Основные обязанности:\n-Разработка новых сервисов компании.\n-Оптимизация и поддержка текущих продуктов.\n-Наш стек: PHP7, MySQL (Percona), Redis, MongoDB, RabbitMQ, YouTrack.\n\n💪Добро пожаловать в нашу команду если вы:\n-Имеете опыт разработки на PHP.\n-Умеете использовать Git.\n-Знаете ООП, умеете применять на практике паттерны проектирования.\n-Работали с MVC-фреймворками на базе PHP.\n\n🏆Мы предлагаем:\n-Уровень заработной платы зависит от пожеланий и профессионально уровня кандидата.\n-Поездки на ИТ-конференции, митапы, учебные курсы за счет компании.\n-Гибкое начало рабочего дня.\n-Возможность релокации в Европу.\n\nБуду рада Вашим вопросам и резюме:\n✍️  @hrkaterina \n📨 ekaterina.logistik@gmail.com","markup":[{"type":"hashtag","offset":0,"length":9,"data":"вакансия"},{"type":"hashtag","offset":11,"length":9,"data":"fulltime"},{"type":"hashtag","offset":21,"length":8,"data":"backend"},{"type":"hashtag","offset":30,"length":4,"data":"мск"},{"type":"hashtag","offset":35,"length":7,"data":"москва"},{"type":"hashtag","offset":126,"length":5,"data":"офис"},{"type":"hashtag","offset":143,"length":7,"data":"полная"},{"type":"italic","offset":400,"length":79,"data":""},{"type":"italic","offset":480,"length":5,"data":""},{"type":"italic","offset":486,"length":127,"data":""},{"type":"underline","offset":613,"length":2,"data":""},{"type":"bold","offset":615,"length":22,"data":""},{"type":"underline","offset":789,"length":2,"data":""},{"type":"bold","offset":791,"length":41,"data":""},{"type":"underline","offset":1000,"length":2,"data":""},{"type":"bold","offset":1002,"length":15,"data":""},{"type":"bold","offset":1231,"length":35,"data":""},{"type":"handle","offset":1270,"length":11,"data":"hrkaterina"},{"type":"link","offset":1286,"length":28,"data":"mailto:ekaterina.logistik@gmail.com"}],"date":"2020-07-01T09:31:33+00:00","link":"tg://resolve?domain=php_jobs&post=25657","tags":[{"name":"php"},{"name":"mysql"},{"name":"redis"},{"name":"mongodb"},{"name":"rabbitmq"},{"name":"git"}],"cities":[{"code":"moscow"}],"allowsRemote":false}},{"node":{"__typename":"Job","id":"17286823936-1001110946746","title":"Js разработчик","text":"#вакансия #job #fulltime #frontend #спб #санкт_петербург\nВакансия: Frontend-разработчик\nКомпания: 4people https://the4people.com\nГород: Санкт-Петербург. ст.м. Обводный канал\nФормат работы: #офис\nЗанятость: #полная\nЗарплата : от 140 000 до 250 000 р. на руки💥\n\nПривет! Мы растем и активно развиваемся, поэтому ищем специалистов для работы в офисе нашей компании в Санкт-Петербурге. Это отличная возможность реализовать свои навыки и прокачаться ещё больше в команде профессионалов. Подробности в описании:\n\n🔷Задачи: \n- Разработка новых сервисов компании.\n- Оптимизация и поддержка текущих продуктов.\n- Наш стек: JavaScript, VueJS, YouTrack.\n\n🔷Добро пожаловать в нашу команду, если вы:\n- Имеете опыт разработки на JS.\n- Умеете использовать Git.\n- Знаете ООП, умеете применять на практике основные паттерны, не теряетесь при использовании объектно-ориентированного подхода в JS.\n- Знакомы с JS фреймворками (мы предпочитаем VueJS) либо являетесь гуру нативного JS.\n\n🔷Мы предлагаем:\n- Уровень заработной платы зависит от пожеланий и профессионально уровня кандидата.\n- Поездки на ИТ-конференции, митапы, учебные курсы за счет компании.\n- Возможность гибкого начала рабочего дня.\n- Бесплатные корпоративные обеды (шведский стол).\n- Абонемент в спорт зал за счет компании.\n\nБуду рада вопросам и резюме: \n✍️ @hrkaterina\n✉️ ekaterina.4people@gmail.com","markup":[{"type":"hashtag","offset":0,"length":9,"data":"вакансия"},{"type":"hashtag","offset":10,"length":4,"data":"job"},{"type":"hashtag","offset":15,"length":9,"data":"fulltime"},{"type":"hashtag","offset":25,"length":9,"data":"frontend"},{"type":"hashtag","offset":35,"length":4,"data":"спб"},{"type":"hashtag","offset":40,"length":16,"data":"санкт_петербург"},{"type":"link","offset":106,"length":22,"data":"https://the4people.com"},{"type":"hashtag","offset":189,"length":5,"data":"офис"},{"type":"hashtag","offset":206,"length":7,"data":"полная"},{"type":"handle","offset":1305,"length":11,"data":"hrkaterina"},{"type":"link","offset":1320,"length":27,"data":"mailto:ekaterina.4people@gmail.com"}],"date":"2020-07-01T09:19:24+00:00","link":"tg://resolve?domain=javascript_jobs_feed&post=16486","tags":[{"name":"javascript"},{"name":"vuejs"},{"name":"git"}],"cities":[],"allowsRemote":false}},{"node":{"__typename":"Job","id":"104120451072-1001089317451","title":"Qa инженер","text":"#вакансия #middle #офис #fulltime #Москва \n\nВсем привет!\nВ связи с ростом проектов открыта вакансия Специалиста по тестированию/ QC в международную продуктовую финтех компанию CMA. Занимаются разработкой платежных систем, работающих на национальных масштабах.\n\nСейчас их решениями пользуются более 40-ка компаний в России (ВТБ24, Банк России, Московская Биржа и т.д.) и более 100 клиентов и за рубежом.\n\nЧем предстоит заниматься:\n- Практическое применение методик тест-дизайна и анализа тестового покрытия;\n- Проведение ручного тестирования (50%) и участие в разработке автоматизированных тестов (50%);\n- Анализ проектной документации, разработка тест-кейсов, чек-листов;\n- Анализ и заведение багов в Jira.\nЧто хотели бы видеть в профиле кандидата:\n- Опыт написания авто-тестов ( Java, Java Script, XSLT, HTML) + работа с фрэймворком для автоматизации тестирования ;\n- Знание основ SQL(на уровне простых запросов), практика работы с XML;\n- Опыт работы с программными продуктами: Oracle Database, VirtualBox, Jira, Confluence, Git, Toad, WireShark, багтрекерами или ALM системами (JIRA, HP ALM и другие).\nЧто готовы предложить:\n- Заработная плата от 100 000 net;\n- Гибкое начало рабочего дня;\n- Офис на станции метро Динамо, бесплатный автобус до БЦ;\n- Наличие свободных парковочных мест рядом с БЦ;\n- Оплата обедов;\n- Страхование жизни и для поездок за пределы РФ.\n\nЕсли вакансия заинтересовала, можете откликаться на HH: https://hh.ru/vacancy/37770841\nИли пишите в ЛС @astarichkova","markup":[{"type":"hashtag","offset":0,"length":9,"data":"вакансия"},{"type":"hashtag","offset":10,"length":7,"data":"middle"},{"type":"hashtag","offset":18,"length":5,"data":"офис"},{"type":"hashtag","offset":24,"length":9,"data":"fulltime"},{"type":"hashtag","offset":34,"length":7,"data":"Москва"},{"type":"bold","offset":100,"length":31,"data":""},{"type":"bold","offset":176,"length":3,"data":""},{"type":"bold","offset":404,"length":26,"data":""},{"type":"bold","offset":707,"length":42,"data":""},{"type":"bold","offset":1104,"length":23,"data":""},{"type":"italic","offset":1366,"length":116,"data":""},{"type":"link","offset":1422,"length":30,"data":"https://hh.ru/vacancy/37770841"},{"type":"handle","offset":1469,"length":13,"data":"astarichkova"}],"date":"2020-07-01T08:46:53+00:00","link":"tg://resolve?domain=qa_jobs&post=99297","tags":[{"name":"qa"},{"name":"java"},{"name":"xslt"},{"name":"html"},{"name":"sql"},{"name":"xml"},{"name":"oracle"},{"name":"git"},{"name":"dotnet"}],"cities":[{"code":"moscow"}],"allowsRemote":false}},{"node":{"__typename":"Job","id":"17273192448-1001110946746","title":"Js разработчик","text":"Всем привет!\n#вакансия #Frontend #React #PWA\nФормат работы: удаленка/возможен офис\nГород: г. Москва (м. Дмитровская), г. Минск (м. Грушевка)\nЗанятость: проектная/полная\nЗ/п: от 1200$ до 2500$\nКомпания: BSL (bsl.dev)\n\nСейчас ищем на иностранный проект Frontend разработчика для работы над PWA.\n\n🔸 Задачи:\nРазработка новых сервисов и приложений PWA;\nРабота с инфраструктурой React.JS;\nРабота совместно с тех. руководством, участие в принятии решения об архитектуре проекта;\nПроведение Code Review.\n🔸 Что нужно уметь:\nОпыт работы на JavaScript, знание стандартов ECMAScript;\nУмение создавать интерфейсы с использованием React;\nХорошее понимание принципов ФП, ООП и паттернов проектирования;\nЗнание и понимание Git.\n🔸 Что мы даем взамен:\nВозможность прокачки hard skills на проектах разного уровня сложности;\nКоманду с сильными разработчиками, QA, UX/UI дизайнерами, менеджерами и налаженными внутренними процессами;\nСамореализацию и профессиональный рост, посещение конференций и курсов за счет компании. Расскажите нам о своей профессиональной мечте, возможно мы поможем вам воплотить ее в жизнь;\nГрафик работы: удаленный или можно работать в офисе: г. Москва - м. Дмитровская, г. Минск - м. Грушевка;\n\nКонтакты: hr@bsl.dev или мой телеграм: @viktoriya_gw","markup":[{"type":"hashtag","offset":13,"length":9,"data":"вакансия"},{"type":"hashtag","offset":23,"length":9,"data":"Frontend"},{"type":"hashtag","offset":33,"length":6,"data":"React"},{"type":"hashtag","offset":40,"length":4,"data":"PWA"},{"type":"link","offset":207,"length":7,"data":"http://bsl.dev"},{"type":"link","offset":1214,"length":10,"data":"mailto:hr@bsl.dev"},{"type":"handle","offset":1243,"length":13,"data":"viktoriya_gw"}],"date":"2020-06-30T16:38:59+00:00","link":"tg://resolve?domain=javascript_jobs_feed&post=16473","tags":[{"name":"javascript"},{"name":"reactjs"},{"name":"git"}],"cities":[{"code":"moscow"},{"code":"minsk"}],"allowsRemote":true}},{"node":{"__typename":"Job","id":"72386347008-1001054966032","title":"Mobile developer","text":"#вакансия  #android  #developer  #java  #senior  #remote  #иннополис         \n\nAndroid Developer\nCompany: NNG\nVacancy: Senior Android Developer\nLocation: Innopolis, Kazan\nWork format: #remote\nEmployment: full time\nS/p: from 180 to 200 k net\n\nAt NNG we develop the next generation of navigation and infotainment technology to improve driving experience, working with 7 of the top 10 car manufacturers worldwide. Headquartered in Hungary, we have a global footprint with coverage in almost 200 countries and 12 company offices worldwide. We have recently established a new development center in Kazan, tasked with delivering customized cutting-edge solutions to Russian vehicle manufacturers. In addition, the Kazan office will also develop independent, reusable software components for the global market, primarily frontend software (JavaScript, iOS and Android) and Java backend microservices.\n\nWhat would be your job? \n🔹Work on mobile and automotive navigation software development\n🔸Work on various projects with international clients from all parts of the world\n🔹Work in close cooperation with project managers and development teams both locally and in the Budapest office\n🔸Design, develop, code, test and debug; own your code\n                                                                                                                                                                                                                                If you have...\n🔹Experience developing, testing, and releasing Android apps\n🔸Knowledge of Java and Android UI development\n🔹 Experience collaborating with designers on usability and aesthetics of apps\n🔸 Strong experience in writing and maintaining testable code and unit tests\n🔹 Experience with git-based version control systems\n🔸Strong written and verbal communication skills in English\n🔹Experience working with global teams\n\nmoreover, you have any of the following: \n🔸Familiarity with JavaScript\n🔹 Familiarity with Flutter\n🔸Experience in Agile development, especially SaFE and SCRUM\n🔹Willingness to get familiar with new technologies\n🔸Experience in working as a team player\n\nWhat can we give you in return? \n🔹A job at a successful global company in Innopolis, where you can learn from the best\n🔸Serious professional challenges\n🔹A secure and well-paid job\n🔸The opportunity to develop the navigation software of the future in the present\n🔹 A youthful team\n🔸The opportunity of working abroad for several weeks\n\nContacts: hr.vkulneva@gmail.com, @viktoriyakulneva","markup":[{"type":"hashtag","offset":0,"length":9,"data":"вакансия"},{"type":"hashtag","offset":11,"length":8,"data":"android"},{"type":"hashtag","offset":21,"length":10,"data":"developer"},{"type":"hashtag","offset":33,"length":5,"data":"java"},{"type":"hashtag","offset":40,"length":7,"data":"senior"},{"type":"hashtag","offset":49,"length":7,"data":"remote"},{"type":"hashtag","offset":58,"length":10,"data":"иннополис"},{"type":"hashtag","offset":184,"length":7,"data":"remote"},{"type":"link","offset":2493,"length":21,"data":"mailto:hr.vkulneva@gmail.com"},{"type":"handle","offset":2516,"length":17,"data":"viktoriyakulneva"}],"date":"2020-06-30T16:09:08+00:00","link":"tg://resolve?domain=mobile_jobs&post=69033","tags":[{"name":"mobile"},{"name":"android"},{"name":"ios"},{"name":"java"},{"name":"dotnet"},{"name":"javascript"},{"name":"git"},{"name":"flutter"}],"cities":[{"code":"kazan"},{"code":"budapest"}],"allowsRemote":true}},{"node":{"__typename":"Job","id":"17266900992-1001110946746","title":"Js разработчик","text":"Добрый день\n\n#вакансия #работа #parttime #JavaScript #vuejs #Frontend #Web\n\nГород и адрес офиса: Москва\nКомпания: Enlighted\nФормат работы: удаленка\nЗанятость: частичная, не менее 20-30 часов в неделю\nЗарплатная вилка: от 7-10$ в час либо сдельная\n\n\nМакеты в Sketch, задачи в Трекере\n\nСтек:\nVue2 + Vuex\n\nТребования:\nУмение верстать по макетам из Sketch/Figma\nПонимание принципа работы Vuex, уметь рассказать зачем он вообще нужен.\nvue+vuex, es6, vue-cli\nЗнание html, css3, BEM-методологии\nУмение работать с git, знание процесса git flow будет плюсом.\nОпыт интеграции Google/OSM maps будет плюсом.\nОпыт настройки CI/CD или хотя бы понимание как устроен процесс сборки Vue проекта.\n\nВам предстоит:\nРазрабатывать фронтенд-часть проекта по предоставленным макетам, никакого legacy, проект начинается с нуля.\nКомандная работа, утренние стендапы и еженедельные релизы.\n\nПисать мне в личку @westarakagrek или на почту ra@enlighted.ru","markup":[{"type":"hashtag","offset":13,"length":9,"data":"вакансия"},{"type":"hashtag","offset":23,"length":7,"data":"работа"},{"type":"hashtag","offset":31,"length":9,"data":"parttime"},{"type":"hashtag","offset":41,"length":11,"data":"JavaScript"},{"type":"hashtag","offset":53,"length":6,"data":"vuejs"},{"type":"hashtag","offset":60,"length":9,"data":"Frontend"},{"type":"hashtag","offset":70,"length":4,"data":"Web"},{"type":"handle","offset":882,"length":14,"data":"westarakagrek"},{"type":"link","offset":910,"length":15,"data":"mailto:ra@enlighted.ru"}],"date":"2020-06-30T16:06:01+00:00","link":"tg://resolve?domain=javascript_jobs_feed&post=16467","tags":[{"name":"javascript"},{"name":"vuejs"},{"name":"web"},{"name":"html"},{"name":"css"},{"name":"git"}],"cities":[{"code":"moscow"}],"allowsRemote":true}},{"node":{"__typename":"Job","id":"72382152704-1001054966032","title":"Android developer","text":"#вакансия #Juniorandroid #Android developer #kotlin #удаленно                                                                                                         Уровень дохода:💵 50 000-60 000  рублей net                                                                                                                                                                                 Требуемый опыт работы: от 1 года\nПолная занятость, дистанционно, гибкое начало рабочего дня\n \n📌Требования:\n- Нативная Android разработка (Kotlin)\n- Умение писать поддерживаемый и тестируемый код\n- Умение работать с Dagger 2\n- Умение работать с git\n- Желание развиваться и изучать новое в разработке\n- Опыт разработки приложений от 1 года\n -Знание английского языка от уровня Intermediate\n \n📌Будет плюсом:\n- Опыт работы с JNI\n- Опыт использования tensorflow\n- Опыт работы с аудио и видео\n\n📌Условия:\n- Отсутствие бюрократии\n- Время начала рабочего дня обговариваем индивидуально\n- Крутой инновационный проект - возможность самореализации и профессионального роста\n- Стабильное зарубежное финансирование\n- Десятки миллионов установок и множество глобальных партнёров\n📞Контакты @SvetikS_hr +7(963)-632-12-36 Cветлана","markup":[{"type":"hashtag","offset":0,"length":9,"data":"вакансия"},{"type":"hashtag","offset":10,"length":14,"data":"Juniorandroid"},{"type":"hashtag","offset":25,"length":8,"data":"Android"},{"type":"hashtag","offset":44,"length":7,"data":"kotlin"},{"type":"hashtag","offset":52,"length":9,"data":"удаленно"},{"type":"link","offset":184,"length":13,"data":"tel:50 000-60 000"},{"type":"handle","offset":1164,"length":11,"data":"SvetikS_hr"},{"type":"link","offset":1176,"length":17,"data":"tel:+7(963)-632-12-36"}],"date":"2020-06-30T15:44:34+00:00","link":"tg://resolve?domain=mobile_jobs&post=69029","tags":[{"name":"mobile"},{"name":"android"},{"name":"kotlin"},{"name":"dotnet"},{"name":"git"},{"name":"tensorflow"}],"cities":[],"allowsRemote":true}},{"node":{"__typename":"Job","id":"104086896640-1001089317451","title":"Qa инженер","text":"#вакансия #спб #питер #fulltime #QALead\n\n🚀Старший тестировщик/ QA Lead (в офис)\n130-170k\n\nО компании:\nНаПоправку.Ру - медицинский онлайн-сервис: поиск врача по отзывам и real time запись на приём в частные и государственные клиники. Именно мы партнеры суперприложения Тинькофф в блоке «Здоровье». Мы помогаем более 1 млн. пользователей в месяц. Сайт + сейчас создаём первое приложение (нативное).\n\nЦель должности:\n🔸Настроить процесс тестирования, предлагать и внедрять инструменты чтобы повышать эффективность тестов;\n🔸Запустить автотесты;\n🔸Формировать и развивать команду (сейчас 4 тестировщика и 15 разработчиков);\n🔸Тестировать сайт и мобильное приложение;\n🔸Не позволять багам просачиваться на прод и расстраивать пользователей.\n\nПочему точно стоит идти к нам:\n🔸Возможность выстроить и наладить процесс, сделать «как надо»;\n🔸 Социально-значимый проект, его пользователи - простые люди как ты и я;\n🔸Гибкое начало рабочего дня (с 8 до 11);\n🔸Официальное оформление и «белая» зарплата;\n🔸ДМС;\n🔸У нас есть софинансирование командных активностей;\n🔸Программа опционов для ключевых сотрудников;\n🔸Офис (в нем снеки и прочее) на ВО;\nЗарплата:\n🔸Гибко обсуждаем, вилка 130-170k\n\nЧего мы ждём от тебя:\n🔸Высшее техническое образование, курсы по тестированию;\n🔸Более 2х лет работал/а в IT-компаниях с хорошо выстроенным процессом тестирования, есть опыт автоматизации;\n🔸Работал/а с Git, Docker, SSH, Selenium, Jenkins;\n🔸Внимателен/а к деталям, требователен/а к себе и окружающим.\n\nВопросы и резюме к @Vasilisa_bu","markup":[{"type":"hashtag","offset":0,"length":9,"data":"вакансия"},{"type":"hashtag","offset":10,"length":4,"data":"спб"},{"type":"hashtag","offset":15,"length":6,"data":"питер"},{"type":"hashtag","offset":22,"length":9,"data":"fulltime"},{"type":"hashtag","offset":32,"length":7,"data":"QALead"},{"type":"bold","offset":43,"length":58,"data":""},{"type":"bold","offset":103,"length":14,"data":""},{"type":"bold","offset":399,"length":14,"data":""},{"type":"bold","offset":738,"length":31,"data":""},{"type":"bold","offset":1138,"length":8,"data":""},{"type":"bold","offset":1183,"length":20,"data":""},{"type":"bold","offset":1486,"length":18,"data":""},{"type":"handle","offset":1505,"length":12,"data":"Vasilisa_bu"}],"date":"2020-06-30T15:26:56+00:00","link":"tg://resolve?domain=qa_jobs&post=99265","tags":[{"name":"qa"},{"name":"git"},{"name":"docker"},{"name":"ssh"},{"name":"selenium"},{"name":"jenkins"}],"cities":[],"allowsRemote":false}},{"node":{"__typename":"Job","id":"26877100032-1001075660570","title":"Php разработчик","text":"#вакансия #Москва #офис #fulltime #middle #php #yii2 #ecommerce\n\nТехнический стeк 💪\n#PHP #Yii2 #Postgres #Mysql #Sphinx #GIT #Redis #Yandex.Clickhouse #RabbitMQ #Elasticsearch #Docker\n\nг. Москва Офис: м. Тульская (10 минут от метро)\n\n💰120 000 - 160 000 рублей\n\nПартнерская сеть Money4leads-  международная компания с отделениями не только в России, но и в странах СНГ и Европы.\nМы производим продукты под собственной торговой маркой, постоянно следим за их качеством. Огромным плюсом сотрудничества с нами, является то, что Money4leads обладает мощностями собственного колл-центра и развивает свою логистическую сеть: весь процесс от приема заявки до доставки товара конечному потребителю осуществляется сотрудниками нашей компании. Благодаря этому, партнерская сеть Money4leads - гарант качественного обслуживания.\n\nЗАДАЧКИ:\n\n🔸Проектирование и разработка новых сервисов Компании (CRM, биллинг, личный кабинет)\n🔸Оптимизация существующего проекта (оптимизация запросов, архитектурные решения)\n🔸Проектирование и разработка REST API\n\nНАВЫКИ: \n\n🔸Знание PHP (у нас PHP 7.2) + знание PosgreSQL \n🔸GIT на уровне использования через консоль и gui интерфейс;\n🔸Знание паттернов проектирования, а также умение их применять и не применять; ;\n🔸Опыт использования одного из современных PHP фреймворков и навык его практического применения (мы используем Yii 2);\n🔸Желателен опыт работы в коммерческой разработке\n🔸Самостоятельность, ориентация на результат.\n\nПлюсом будет еще Redis, Yandex.ClickHouse 😉\n\nПРЕДЛОЖЕНИЕ:\n\n🔸Работа над крупным международным проектом в дружной команде разработчиков;\n🔸Интересные, амбициозные задачи;\nСоблюдение ТК РФ;\n🔸Финансовая мотивация (оклад ) обсуждается с каждым кандидатов индивидуально, в зависимости от опыта и навыков;\n🔸Заработная плата без задержек 2 раза в месяц, индексация по результатам работы;\n🔸Работа в офисе (м. Тульская) график работы – 5/2 (гибкое начало рабочего дня).\n\nСВЯЗЬ:\n\n◾️  Telegram: - @darya_hr\n▪️ e-mail: - d.omelchenko@m4leads.com","markup":[{"type":"hashtag","offset":0,"length":9,"data":"вакансия"},{"type":"hashtag","offset":10,"length":7,"data":"Москва"},{"type":"hashtag","offset":18,"length":5,"data":"офис"},{"type":"hashtag","offset":24,"length":9,"data":"fulltime"},{"type":"hashtag","offset":34,"length":7,"data":"middle"},{"type":"hashtag","offset":42,"length":4,"data":"php"},{"type":"hashtag","offset":47,"length":5,"data":"yii2"},{"type":"hashtag","offset":53,"length":10,"data":"ecommerce"},{"type":"hashtag","offset":85,"length":4,"data":"PHP"},{"type":"hashtag","offset":90,"length":5,"data":"Yii2"},{"type":"hashtag","offset":96,"length":9,"data":"Postgres"},{"type":"hashtag","offset":106,"length":6,"data":"Mysql"},{"type":"hashtag","offset":113,"length":7,"data":"Sphinx"},{"type":"hashtag","offset":121,"length":4,"data":"GIT"},{"type":"hashtag","offset":126,"length":6,"data":"Redis"},{"type":"hashtag","offset":133,"length":7,"data":"Yandex"},{"type":"hashtag","offset":152,"length":9,"data":"RabbitMQ"},{"type":"hashtag","offset":162,"length":14,"data":"Elasticsearch"},{"type":"hashtag","offset":177,"length":7,"data":"Docker"},{"type":"handle","offset":1943,"length":9,"data":"darya_hr"},{"type":"link","offset":1966,"length":24,"data":"mailto:d.omelchenko@m4leads.com"}],"date":"2020-06-30T14:29:45+00:00","link":"tg://resolve?domain=php_jobs&post=25632","tags":[{"name":"php"},{"name":"yii"},{"name":"postgresql"},{"name":"mysql"},{"name":"git"},{"name":"redis"},{"name":"rabbitmq"},{"name":"elasticsearch"},{"name":"docker"},{"name":"rest"}],"cities":[{"code":"moscow"}],"allowsRemote":false}},{"node":{"__typename":"Job","id":"2268069888-1001134745498","title":"Devops инженер","text":"#Москва #СПБ #НижнийНовгород #Краснодар #вакансия #fulltime #офис #Савеловская #Devops  #teamlead\nГород: Москва. (а так же города присутствия нашего подразделения: Санкт-Петербург, Нижний Новгород, Краснодар)\nОфис, м. Савеловская\nПолная занятость \nВилка: от 150 000 до 250 000 рублей на руки.\nКомпания \"Инфосистемы Джет\" в поисках Ведущего Devops-инженера.\n\nПривет! Мы ищем крутого девопса, который СМОЖЕТ. Сможет стать частью одной из крутых команд, которые прямо сейчас выполняют проекты по разработке для крупнейших заказчиков.\n\nСтало страшно? Не бойся! Нашими проектами управляют умопомрачительные менеджеры проектов, супертехничные-энергичные архитекторы, въедливые ведущие аналитики, лучшие тест-менеджеры и, конечно же, команда крутых DevOps-ов.\n\nМы настроены на длительное сотрудничество с нашими заказчиками и делаем страшные вещи красивыми на хорошем технологическом стеке.\n\nХочешь с нами??? найди меня в телеге @ovandrianova\n\nВот еще немного подробностей по вакансии:\n\nФормальные формальности из вакансий, которые все всё равно обсуждают.\nОбязанности:\n1) работа с потоком задач в Jira:\n- уточнение постановок задач, если автор недостаточно четко их сформулировал;\n- возврат негодных, в техническом плане, задач;\n- оценка задач по объёму работ и по сроку исполнения при текущей занятости и приоритизации;\n- своевременное смещение сроков по задачам;\n- распределение задач по инженерам команды;\n- отслеживание всего пула задач на предмет своевременного их исполнения, передачи в тестирование, и закрытия.\n2) код ревью: лид должен быть уверен в качестве того, что мы отдаём заказчику;\n3) ликвидация аварий (например, после проведения неких IT мероприятий CI сломался);\n4) разбор инцидентов (например, сломался CI, его починили, но однозначного понимания как такое произошло нет);\n5) помощь команде продуктивных инженеров, как экспертизой, так и написанием соответствующих пайплайнов для них;\n6) понимание и немедленное реагирование на нехватку инженеров для решения пула задач;\n7) выработка и согласование перспективных решений.\nЧего мы ждем :\n•отличное знание Linux RHEL, CentOS;\n•понимание процесса разработки ПО;\n•понимание микросервисной архитектуры;\n•опыт работы с git, ELK, docker, jira, zabbix;\n•опыт работы с jenkins, в частности с плагином Configuration as a Code;\n•опыт работы с kubernetes приветствуется;\n•опыт написания скриптов на bash, python, groovy, ansible;\n•опыт написания запросов в SQL приветствуется;\n•личные качества: широкий кругозор, быстрая адаптивность, стрессоустойчивость, самостоятельность, нацеленность на результат.\n\nПеченьки, ложки, вилки, десерты:\n•График работы 5/2 с 10.00 до 18.30, м. Савеловская (шаговая доступность – 5-7 минут);\n•Работу в команде профессионалов с возможностью карьерного роста;\n•Дружелюбную атмосферу внутри компании;\n•Оформление по ТК РФ;\n•Оклад + бонусы по проектам;\n•Возможности для профессионального роста (внешнее и внутреннее обучение, сертификация);\n•Возможность изучать английский язык в офисе;\n•Компенсация за фитнес;\n•Оформляется ДМС для сотрудников;\n•Медицинский кабинет в офисе;\n•Буфеты на территории компании, бесплатные завтраки.\nПо всем вопросам в личку:  @ovandrianova\n\n—\n\n👉 Обсуждение вакансии в чате @devops_jobs","markup":[{"type":"hashtag","offset":0,"length":7,"data":"Москва"},{"type":"hashtag","offset":8,"length":4,"data":"СПБ"},{"type":"hashtag","offset":13,"length":15,"data":"НижнийНовгород"},{"type":"hashtag","offset":29,"length":10,"data":"Краснодар"},{"type":"hashtag","offset":40,"length":9,"data":"вакансия"},{"type":"hashtag","offset":50,"length":9,"data":"fulltime"},{"type":"hashtag","offset":60,"length":5,"data":"офис"},{"type":"hashtag","offset":66,"length":12,"data":"Савеловская"},{"type":"hashtag","offset":79,"length":7,"data":"Devops"},{"type":"hashtag","offset":88,"length":9,"data":"teamlead"},{"type":"handle","offset":922,"length":13,"data":"ovandrianova"},{"type":"handle","offset":3134,"length":13,"data":"ovandrianova"},{"type":"handle","offset":3182,"length":12,"data":"devops_jobs"}],"date":"2020-06-30T14:22:49+00:00","link":"tg://resolve?domain=devops_jobs_feed&post=2163","tags":[{"name":"linux"},{"name":"centos"},{"name":"git"},{"name":"docker"},{"name":"jenkins"},{"name":"kubernetes"},{"name":"bash"},{"name":"python"},{"name":"groovy"},{"name":"ansible"},{"name":"sql"}],"cities":[{"code":"moscow"},{"code":"krasnodar"},{"code":"nizhny-novgorod"}],"allowsRemote":false}}]}}},"context":{}}