{"hash":"f34fd2c444a074f4e0e67d525015a008ef8e766f","data":{"records":{"id":"linux","name":"linux","belongsTo":{"totalCount":103,"pageInfo":{"totalPages":11,"currentPage":7},"edges":[{"node":{"__typename":"Job","id":"1936719872-1001134745498","title":"Devops инженер","text":"#вакансия #офис #Беговая #полнаязанятость #СПб\n\nКомпания: FutureComes.com, но ищем к нашим партнёрам.\n\nВилка: от 150 до 250,000;\n\nПроект: их два, один - это высоконагруженная площадка для трейдинга с некоторым хардкором в работе, второй - это площадка для высокочастотной алгоритмической торговли, песочница.\n\nТехнологии: Ansible/Prometheus/Grafana/TeamCity/CloudFlair/Docker/GitCi/K8S\n\nОт вас нужны знания и желание прокачать свой скилл (говорят, что у нас реально качают его, но сам не проверял, культяпки админить не умеют). \n\nИз минусов: иногда процессы через… но, сейчас мы перекрываем эти дыры, стараемся их наладить, получается сложно, тяжело и со скрипом, но получается.\n\nКомпания 8 лет на рынке. \nУ нас нет систем штрафов.\nМы не трекаем ваше время, нам все равно, если выполняются поставленные задачи и сервера не падают. \nСлучаев, когда кого-то оставили без ЗП или не выплатили какие-то отпускные/премии/переработки - не зафиксировано.\n\nЧто есть: можно выбирать себе технику (вообще любую в рамках разумного), 100% больничные/отпуска 28 календарных дней, у нас крутой офис, можно работать удаленно несколько дней в неделю, если таски не подразумевают присутствие в офисе, мы помогаем со всем: визы, кредиты, ипотеки, алименты. В пятницу пьем винишко, едим пиццу, играем в настолки.\n\nОбязанности:\n- Развертывание и обеспечение непрерывной работы (эксплуатация) распределенных, отказоустойчивых, \n- Высоконагруженных серверных решений (Linux);\n- Автоматизация процесса разработки (CI/CD);\n- Мониторинг и администрирование linux серверов, а также мониторинг функционирования серверного программного обеспечения;\n- Администрирование систем хранения данных;\n- Разработка предложений по развитию инфраструктуры.\n\nПисать можно:  @kitanamda или konstantin@futurecomes.com\n\n—\n\n👉 Обсуждение вакансии в чате @devops_jobs","markup":[{"type":"hashtag","offset":0,"length":9,"data":"вакансия"},{"type":"hashtag","offset":10,"length":5,"data":"офис"},{"type":"hashtag","offset":16,"length":8,"data":"Беговая"},{"type":"hashtag","offset":25,"length":16,"data":"полнаязанятость"},{"type":"hashtag","offset":42,"length":4,"data":"СПб"},{"type":"link","offset":58,"length":15,"data":"http://FutureComes.com"},{"type":"handle","offset":1732,"length":10,"data":"kitanamda"},{"type":"link","offset":1747,"length":26,"data":"mailto:konstantin@futurecomes.com"},{"type":"handle","offset":1808,"length":12,"data":"devops_jobs"}],"date":"2020-03-24T11:33:14+00:00","link":"tg://resolve?domain=devops_jobs_feed&post=1847","tags":[{"name":"ansible"},{"name":"docker"},{"name":"linux"}],"cities":[],"allowsRemote":true}},{"node":{"__typename":"Job","id":"1378877440-1001091028994","title":"Java developer","text":"#вакансия #backend #javadeveloper #java #spb\nЛокация: Санкт-Петербург, станция метро Петроградская\nЗанятость: полная/ офис / гибкое начало рабочего дня\nЗарплата: от 180 000 net\nКомпания: ТетраСофт\nКонтакты: @dproto (Telegram), darya.protopopova@tetra-soft.ru\n\nКомпания ТетраСофт разрабатывает крутые информационные системы для сопровождения строительства нефтяных и газовых скважин (удаленный мониторинг различных параметров, аналитика на основе полученных данных, сбор и формирование отчётов).\nВ данный момент мы разрабатываем новый функционал платформы (SSO + modules).\nДля этого мы хотим усилить команду и приглашаем вас стать её частью.\n\nТехнологический стек разработки:\nJava 8, Spring, Hibernate, Elasticsearch, NATS, JUnit, MySQL, OAuth 2.0.\n\nЧто нужно будет делать:\n• Реализовывать алгоритмы работы с данными\n• Прорабатывать функциональные блоки бекенд части от проектирования до реализации\n• Участвовать в code review\n• Проектировать API\n\nЖдем от вас:\n• Опыт коммерческой разработки от 3-х лет\n• Хорошее знание Java core\n• Spring Boot (Security, MVC, REST Docs)\n• Hibernate 4+\n• Знание какого-либо SQL сервера\n• Знание алгоритмов и структур данных\n• Умение писать junit тесты\n• Понимание уязвимостей от OWASP Top 10\n• Умение работать с системой контроля версия (git)\n• Знание минимум одной системы сборки (ant, maven, gradle)\n\nБудет плюсом:\n• NoSQL\n• Docker\n• Знание коммуникационных протоколов (в том числе промышленных)\n• Опыт работы в Linux системах\n• Elasticsearch\n• Опыт работы с message broker\n• Знание других языков программирования\n• Понимание SOLID-принципов\n\nОт нас:\n• Гибкое начало рабочего дня (с 9:00 до 11:00);\n• Интересные проекты с возможностью карьерного роста;\n• Ежегодная премия по итогам работы;\n• Ежегодный пересмотр заработной платы по результатам работы;\n• ДМС после успешного прохождение ИС (включая стоматологию);\n• Компенсация питания;\n• Бесплатные курсы английского языка на территории офиса;\n• Возможность профильного обучения за счёт компании (оплата конференций, курсов);\n• Кикер, настолки, турник, XBox, корпоративные мероприятия;\n• Корпоративный волейбол на песке;\n• Иногородним соискателям помощь в релокации.","markup":[{"type":"hashtag","offset":0,"length":9,"data":"вакансия"},{"type":"hashtag","offset":10,"length":8,"data":"backend"},{"type":"hashtag","offset":19,"length":14,"data":"javadeveloper"},{"type":"hashtag","offset":34,"length":5,"data":"java"},{"type":"hashtag","offset":40,"length":4,"data":"spb"},{"type":"bold","offset":45,"length":8,"data":""},{"type":"bold","offset":99,"length":10,"data":""},{"type":"bold","offset":152,"length":9,"data":""},{"type":"bold","offset":177,"length":9,"data":""},{"type":"bold","offset":197,"length":9,"data":""},{"type":"handle","offset":207,"length":7,"data":"dproto"},{"type":"link","offset":227,"length":31,"data":"mailto:darya.protopopova@tetra-soft.ru"},{"type":"bold","offset":642,"length":31,"data":""},{"type":"bold","offset":749,"length":23,"data":""},{"type":"bold","offset":947,"length":12,"data":""},{"type":"bold","offset":1335,"length":13,"data":""},{"type":"bold","offset":1577,"length":7,"data":""}],"date":"2020-03-24T10:39:20+00:00","link":"tg://resolve?domain=jvmjobs&post=1315","tags":[{"name":"java"},{"name":"jvm"},{"name":"dotnet"},{"name":"spring"},{"name":"hibernate"},{"name":"elasticsearch"},{"name":"junit"},{"name":"mysql"},{"name":"oauth"},{"name":"rest"},{"name":"sql"},{"name":"git"},{"name":"ant"},{"name":"maven"},{"name":"gradle"},{"name":"nosql"},{"name":"docker"},{"name":"linux"},{"name":"spring-boot"}],"cities":[],"allowsRemote":true}},{"node":{"__typename":"Job","id":"1374683136-1001091028994","title":"Java разработчик","text":"#fulltime #офис\n#backend #Москва\n#высоконагруженные_сервисы\n#вакансия\n#Middle_Java_dev\nвилка для middle от 180 net (и выше зависит от уровня)\n\nпозиция Middle Java dev\nО проекте:\n•Высоконагруженные сервисы\n•Разработка виртуальной мобильной связи\nЗадачи:\nРазработка нового backend функционала;\nСтек:\n • Java Core (Collection, NIO, Multithreading)  \n • Java SE (Spring), Java EE; Java 8 (Concurrency, NIO, Spring);\n • JDBC БД (Oracle);\n • Опыт работы JSON, XML, RESTful API, HTTP, SOAP, MQ; \n • Linux\nМЫ ПРЕДЛАГАЕМ:\n •  Сильная команда разработчиков\n •  Официальное оформление (ДМС, английский, спорт)\n •  Офис в центре Москвы\n •  Профессиональное развитие и участие в разработке серьезного продукта.\n\n\nКонтакты: @BetterCallOl","markup":[{"type":"hashtag","offset":0,"length":9,"data":"fulltime"},{"type":"hashtag","offset":10,"length":5,"data":"офис"},{"type":"hashtag","offset":16,"length":8,"data":"backend"},{"type":"hashtag","offset":25,"length":7,"data":"Москва"},{"type":"hashtag","offset":33,"length":26,"data":"высоконагруженные_сервисы"},{"type":"hashtag","offset":60,"length":9,"data":"вакансия"},{"type":"hashtag","offset":70,"length":16,"data":"Middle_Java_dev"},{"type":"bold","offset":167,"length":10,"data":""},{"type":"bold","offset":245,"length":7,"data":""},{"type":"bold","offset":292,"length":6,"data":""},{"type":"bold","offset":498,"length":14,"data":""},{"type":"handle","offset":710,"length":13,"data":"BetterCallOl"}],"date":"2020-03-24T07:51:42+00:00","link":"tg://resolve?domain=jvmjobs&post=1311","tags":[{"name":"java"},{"name":"jvm"},{"name":"dotnet"},{"name":"spring"},{"name":"jdbc"},{"name":"oracle"},{"name":"json"},{"name":"xml"},{"name":"soap"},{"name":"linux"}],"cities":[{"code":"moscow"}],"allowsRemote":false}},{"node":{"__typename":"Job","id":"1933574144-1001134745498","title":"Devops инженер","text":"#devops  #middle  #senior #вакансия\n\nВсем добрый вечер\n\nЯ ищу Ведущего devops / системного инженера в компанию,  которая занимается разработкой системного интегратора ПО в области виртуализации и облачных технологий.\n\nЧто хотят:\nЖелательно - высшее профильное образование и соответствующий опыт работы от 3-5 лет\nОС: Linux, Unix\nCI/CD: Jenkins, Teamcity, Travis и аналоги\nКонтейнеры: Docker\nВеб-сервисы: Ngnix, UWSGI\nМониторинг/алертинг: AppDynamics, Nagios, Zabbix etc.\nОпыт администрирования реплицированных СУБД (PostgreSQL или MariaDB, MongoDB)\nОпыт работы с elasticsearch/logstash/kibana\nAnsible, Salt\nОпыт администрирования облачных серверов (например - под платформами Amazon EC2, GoogleCloud, VmWare vSphere, OpenStack или прочих)\n\nПлюсами будут:\nустановка/обслуживание - Reverse Proxy (Nginx …), caсhing\nserver (Squid, Nginx etc.)\nустановка/обслуживание - load balancer (HAProxy, Nginx, etc.)\nBash Scripts.\nProcess Monitoring: ps, top, htop, atop, .. etc\nSystem Performance: nmon, iostat, sar, vmstat etc\nNetworking: nmap, tcpdump, ping, traceroute, airmon, etc.\nkubernetes/docker swarm\n\nОсновные обязанности:\nРазвертка контуров (dev, qas, prod)\nPerformance тестирование, нагрузочное тестирование\nСборка и обновление из репозиториев\nПоиск и устранение проблем\n\nЧто дают:\nХорошая ЗП. от 120 000 руб. до 200.000 по результатам собеседования.\nВозможна удаленная работа \nТак же есть возможность работы в офисе.\nг. Москва Сколково, возможна работа из офиса в г. Санкт-Петербурге и г Нижний Новогород (ул Грузинская).\n\nКомпания: http://asdtech.co/\n\nКонтакты: @mayke_kin\n\n—\n\n👉 Обсуждение вакансии в чате @devops_jobs","markup":[{"type":"hashtag","offset":0,"length":7,"data":"devops"},{"type":"hashtag","offset":9,"length":7,"data":"middle"},{"type":"hashtag","offset":18,"length":7,"data":"senior"},{"type":"hashtag","offset":26,"length":9,"data":"вакансия"},{"type":"link","offset":1532,"length":18,"data":"http://asdtech.co/"},{"type":"handle","offset":1562,"length":10,"data":"mayke_kin"},{"type":"handle","offset":1607,"length":12,"data":"devops_jobs"}],"date":"2020-03-24T04:12:20+00:00","link":"tg://resolve?domain=devops_jobs_feed&post=1844","tags":[{"name":"linux"},{"name":"unix"},{"name":"jenkins"},{"name":"docker"},{"name":"postgresql"},{"name":"mariadb"},{"name":"mongodb"},{"name":"elasticsearch"},{"name":"logstash"},{"name":"ansible"},{"name":"nginx"},{"name":"bash"},{"name":"kubernetes"}],"cities":[{"code":"moscow"}],"allowsRemote":true}},{"node":{"__typename":"Job","id":"23908581376-1001075660570","title":"Php разработчик","text":"#вакансия #backend #москва #офис #fulltime #php #senior #lead\n\nМой дружище из Aorti.ru собирает группу разработчиков на PHP. Большой концерн, компания работает с гос заказчиком. Деньги есть, кризис не помеха. Да, в офис, но в небольшой. Не коронизируем :)\n\nИщем: \n1. Одного могучего Lead Backend Developer\n2. Двух крутых Senior Backend Developer\n3. Сурового (одного) Middle Backend Developer\n\nДанное боевое подразделение будет заниматься разработкой интерфейсов управления всяких интересных штук.\n\nКомпания: АО “РТИ”: https://hh.ru/employer/103944\nАдрес: Москва, М Динамо\nЗанятость: полная\nРежим работы: с 9-11 до 18-20, пятница -1 час\nЗарплатная вилка: 120 - 180 т.р. на руки (уже после вычета налогов)\nПлюс: чай, кофе, санитайзер и безлимитная туалетная бумага :-D\n\nОбщие требования / пожелания:\n- PHP 7 + опыт от 3-х лет\n- SQL (PostgreSQL и PL/pgSQL) от 3х лет \n- Опыт с ОС Linux. Умение работать в Unix-окружении\n- Нет страха перех унаследованным кодом\n- Удалось поработать с Jira, Confluence, GitLab\n- Приходилось писать документацию по своему коду\n- Английский уровня чтения тех документации\n- Опыт разработки Web Services, REST, Web API\n- Было время поработать с GIS и OGC-протоколами\n- Code review удается без истерик\n- Есть смелость общаться с Заказчиком\n- Плюсуют карту: Python 3.5.6,  Django, C++ 2011 и новее\n- Удалось посмотреть на Astra Linux\n- Сложилась картина мира как написать UNIT и интеграционные тесты\n- Не пугают слова “отладка и оптимизация”\n\n→ Контакт: @dspv1\n\nПрошу сразу: резюме, о себе, ссылка на git","markup":[{"type":"hashtag","offset":0,"length":9,"data":"вакансия"},{"type":"hashtag","offset":10,"length":8,"data":"backend"},{"type":"hashtag","offset":19,"length":7,"data":"москва"},{"type":"hashtag","offset":27,"length":5,"data":"офис"},{"type":"hashtag","offset":33,"length":9,"data":"fulltime"},{"type":"hashtag","offset":43,"length":4,"data":"php"},{"type":"hashtag","offset":48,"length":7,"data":"senior"},{"type":"hashtag","offset":56,"length":5,"data":"lead"},{"type":"link","offset":78,"length":8,"data":"https://hh.ru/employer/103944"},{"type":"bold","offset":257,"length":7,"data":""},{"type":"link","offset":518,"length":29,"data":"https://hh.ru/employer/103944"},{"type":"underline","offset":721,"length":10,"data":""},{"type":"underline","offset":734,"length":28,"data":""},{"type":"bold","offset":768,"length":30,"data":""},{"type":"handle","offset":1477,"length":6,"data":"dspv1"}],"date":"2020-03-24T03:41:58+00:00","link":"tg://resolve?domain=php_jobs&post=22801","tags":[{"name":"php"},{"name":"sql"},{"name":"postgresql"},{"name":"linux"},{"name":"unix"},{"name":"gitlab"},{"name":"web"},{"name":"rest"},{"name":"python"},{"name":"django"}],"cities":[{"code":"moscow"}],"allowsRemote":false}},{"node":{"__typename":"Job","id":"1930428416-1001134745498","title":"Devops инженер","text":"#вакансия #Москва #офис #полная занятость\nБанк ВТБ (ПАО) ищет DevOps инженера в отдел внедрения\nФормат работы: #офис #полнаязанятость\n\nЗадачи: \n👉разработка скриптов автоматизированного развертывания ПО на контурах банка;\n👉автоматизации процессов администрирования;\n👉владение новых подходов разработки автоматизации. \n\nТребования:\n👉опыт работы DevOps инженером от 2х лет;\n👉опыт работы с Git, Bitbucket;\n👉выстраивание процессов CI/CD с помощью Jenkins, Gitlab CI и TeamCity;\n👉экспертные навыки написания скриптов bash, powershell, python;\n👉 администрирование linux/unix, windows;\n👉  владение Ansible и Groovy;\n👉  опыт работа с Rest API, SOAP;\n👉 опыт работы с MsSQL Oracle, PostrgeSQL;\n👉 наличие опыта автоматизации бизнес-процессов и рутинных операций;\n👉  знание инструментов микросервисной архитектуры.\n \nУсловия:\n👉офис м.Алексеевская;\n👉заработная плата от 180 000 до 240 000;\n👉ДМС, спортивная жизнь;\n👉проффесиональное обучение и развитие.\n\nБолее подробно о вакансиях можно узнать у меня. Мои контакты @Nchugreeva\n+7 9264549707\nChugreeva@vtb.ru\n\n—\n\n👉 Обсуждение вакансии в чате @devops_jobs","markup":[{"type":"hashtag","offset":0,"length":9,"data":"вакансия"},{"type":"hashtag","offset":10,"length":7,"data":"Москва"},{"type":"hashtag","offset":18,"length":5,"data":"офис"},{"type":"hashtag","offset":24,"length":7,"data":"полная"},{"type":"hashtag","offset":111,"length":5,"data":"офис"},{"type":"hashtag","offset":117,"length":16,"data":"полнаязанятость"},{"type":"handle","offset":1018,"length":11,"data":"Nchugreeva"},{"type":"link","offset":1030,"length":13,"data":"tel:+7 9264549707"},{"type":"link","offset":1044,"length":16,"data":"mailto:Chugreeva@vtb.ru"},{"type":"handle","offset":1095,"length":12,"data":"devops_jobs"}],"date":"2020-03-23T13:20:40+00:00","link":"tg://resolve?domain=devops_jobs_feed&post=1841","tags":[{"name":"git"},{"name":"jenkins"},{"name":"gitlab"},{"name":"bash"},{"name":"powershell"},{"name":"python"},{"name":"linux"},{"name":"unix"},{"name":"windows"},{"name":"ansible"},{"name":"groovy"},{"name":"rest"},{"name":"soap"},{"name":"sql-server"},{"name":"oracle"}],"cities":[{"code":"moscow"}],"allowsRemote":false}},{"node":{"__typename":"Job","id":"1927282688-1001134745498","title":"Devops инженер","text":"#вакансия #DevOps #новосибирск \n\nГород: Новосибирск - на выбор два офиса - Академгородок или центр города (метро пл.Ленина)\nФормат работы: офис\nЗанятость: полная\nЗарплатная вилка: от 120 до 180 на руки (готовы смотреть выше) \n\nPushwoosh – глобальный хайлоад продукт для разработчиков и владельцев мобильных приложений и сайтов. Мы предоставляем решения для отправки пуш-уведомлений как стартапам, так и компаниям с многомиллионными аудиториями, и обрабатываем более двух миллиардов API-запросов ежедневно. \n\nЗадачи:\nподготавливать и поддерживать K8s-кластер, мониторинг (Prometheus), ansible, storage(CEPH), databases(mongodb, postgresql), очереди/in-mem(redis, kafka, rabbit). \nВсё до момента консампшена командой разработки. \n\nТребования:\n- Advanced Linux user (в идеале CentOS и RHEL);\n- Любой скриптовый язык (bash, python, etc...)\n- Хорошо знать хотя бы одну систему управления конфигами (у нас Ansible, но будем смотреть и людей с puppet, chef, terraform, etc.) \n\nРабота в офисе, не удаленка\nБелые, ДМС, фитнес, английский, курсы и т.д.  \n\nКонтакты: @glad2seeyou\n\n—\n\n👉 Обсуждение вакансии в чате @devops_jobs","markup":[{"type":"hashtag","offset":0,"length":9,"data":"вакансия"},{"type":"hashtag","offset":10,"length":7,"data":"DevOps"},{"type":"hashtag","offset":18,"length":12,"data":"новосибирск"},{"type":"handle","offset":1056,"length":12,"data":"glad2seeyou"},{"type":"handle","offset":1103,"length":12,"data":"devops_jobs"}],"date":"2020-03-23T07:48:51+00:00","link":"tg://resolve?domain=devops_jobs_feed&post=1838","tags":[{"name":"ansible"},{"name":"mongodb"},{"name":"postgresql"},{"name":"redis"},{"name":"kafka"},{"name":"rabbitmq"},{"name":"linux"},{"name":"centos"},{"name":"bash"},{"name":"python"}],"cities":[{"code":"novosibirsk"}],"allowsRemote":true}},{"node":{"__typename":"Job","id":"1926234112-1001134745498","title":"Devops инженер","text":"#вакансия #Москва #devops #полнаязанятость \n\nИщем DevOps в команду по разработке платежной системы\n\nЗп: до 150-200 т.р.(обсуждаемо)\nТребуемый опыт работы: 3–6 лет\nПолная занятость, полный день\n\nЕсли тебе интересны задачи по контейнерам и автоматизации, и для тебя такие аббревиатуры как DevOps, IaaC, SCM, PaaS, AWS, K8S, VCS, RegExp - не пустой звук, то тебе к нам!\n\nМы занимаемся разработкой платежной системы.\nМы совместили технические инновации и надежность классических финансовых институтов чтобы создавать удобные и полезные цифровые финансовые продукты для жизни, работы и бизнеса.\nМы создаем высокотехнологичные, надежные инструменты по управлению финансами, полностью регламентированы законами ЕС, а значит средства наших клиентов и персональные данные находятся в безопасности.\n\nС нами работают уже более 80-ти молодых, талантливых и амбициозных специалистов, которые каждый день создают передовые технологии вместе с нами!\n\nЗадачи:\n 1-Обеспечение бесперебойной работы серверов и приложений Компании (не менее 99.9% доступности);\n 2-Разработка и поддержка Docker-контейнеров приложений и оркестрация микросервисов с использованием Kubernetes;\n 3-CI/CD pipelining;\n 4-Развитие и поддержка мониторинга доступности сервисов Компании;\n 5-Автоматизация развертывания новых сервисов и управление конфигурациями;\n\nТочно нужно:\n 1-Знание Linux(Debian-based, RedHat-based) – мы ждем администраторов;\n 2-Nginx;\n 3-Docker– разработка образов контейнеров;\n 4-Bash,Python– написание скриптов автоматизации;\n 5-Teamcity(GitlabCI, Jenkins) – реализация CI/CDpipeline;\n 6-Git;\n 7-Puppet (Chef, Ansible, Salt) – разработка своих модулей, модификация существующих;\n\nДополнительным преимуществом будет:\n 1-Если Вы создавали кластеры на Kubernetes и настраивали в них сетевую подсистему;\n 2-Если Вы знакомы с Helm;\n 3-Работали с Prometheus;\n 4-Готовили vSphere (VCSA HA, advanced networking);\n 5-Слышали о Foreman;\n 6-Использовали регулярные выражения;\n 7-Использовали Hiera;\nУсловия:\n 1-Возможность выбрать время начала работы (с 8:00/9:00/10:00);\n 2-Современный, просторный офис;\n 3-Современный рабочий компьютер (16 GBRAM, SSD), удобное рабочее место;\n 4-Комфортная кухонная зона для кофе-брейков, зона отдыха, PS4 PRO +VR;\n 5-Возможность выбрать на чем работать: Windows/Linux\nА еще:\n 1-ДМС по окончанию испытательного срока;\n 2-Корпоративные курсы по изучению Английского языка;\n 3-Компенсация расходов на питание по картам Obed.ru;\n 4-Компенсация расходов на спорт, внутри БЦ World Trade Center;\n\nKA RedCode\nКонтакты: @dmitry_demyanov\n\n—\n\n👉 Обсуждение вакансии в чате @devops_jobs","markup":[{"type":"hashtag","offset":0,"length":9,"data":"вакансия"},{"type":"hashtag","offset":10,"length":7,"data":"Москва"},{"type":"hashtag","offset":18,"length":7,"data":"devops"},{"type":"hashtag","offset":26,"length":16,"data":"полнаязанятость"},{"type":"link","offset":2420,"length":7,"data":"http://Obed.ru"},{"type":"handle","offset":2515,"length":16,"data":"dmitry_demyanov"},{"type":"handle","offset":2566,"length":12,"data":"devops_jobs"}],"date":"2020-03-23T07:48:35+00:00","link":"tg://resolve?domain=devops_jobs_feed&post=1837","tags":[{"name":"amazon-web-services"},{"name":"docker"},{"name":"kubernetes"},{"name":"linux"},{"name":"debian"},{"name":"nginx"},{"name":"bash"},{"name":"python"},{"name":"jenkins"},{"name":"git"},{"name":"ansible"},{"name":"windows"}],"cities":[{"code":"moscow"}],"allowsRemote":false}},{"node":{"__typename":"Job","id":"1925185536-1001134745498","title":"Devops инженер","text":"#вакансия\nСистемный архитектор \nГород и адрес офиса:  г. Москва, по адресу ул. Гиляровского\nФормат работы: Офис/ удаленка\nЗанятость: полная \nЗарплатная вилка: от 280 000 рублей до 300 000 рублей (можно обсудить) \nОпыт работы: от 3-ех лет \nКомпания ЦТР, занимающаяся созданием инновационных продуктов и высокотехнологичных цифровых сервисов в сфере ритейла, ищет системного архитектора в свою команду. \nhttps://e-tag.pro/# \nЧто нужно делать: \n1. Проектировать архитектуру системы, организовать и проводить R&D. \n2. Построение архитектуры, включая: \n-Анализ требований к информационной системе. \n-Разработку концепций интеграции данных. \n-Взаимодействие компонентов и микросервисов. \n-Разработку технической и проектной документации. \n-Описание работы отдельных модулей и всей системы. \n-Разработку ключевых технических сценариев взаимодействия компонентов и микросервисов. \n-Выбор протоколов взаимодействия компонентов (проектирование технических интерфейсов). \nТребования к кандидату: \n-опыт работы *nix-системы от 5 лет (Linux, FreeBSD, Ubuntu, Debian); \n-масштабировании сложных систем потоковой обработки данных со стеком Spark, Python, Apache Kafka, PostgreSQL версии 11.00 или другой SQL Database. \n-опыт работы с микросервисной архитектурой, RESTfull API, контейнерной виртуализацией, асинхронными сообщениями и облачными технологиями, unit- и интеграционными тестами, многопоточностью; \nнавыки проектирования баз данных; \n-опыт работы в Jira, Confluence и так далее. \nУсловия: \n-официально оформление по ТК РФ \n-белая ЗП, от 280 000 рублей (можно обсудить) \n-работа в офисе или удаленно.\nКонтакт: @Galina_Ekimova\n\n—\n\n👉 Обсуждение вакансии в чате @devops_jobs","markup":[{"type":"hashtag","offset":0,"length":9,"data":"вакансия"},{"type":"link","offset":402,"length":19,"data":"https://e-tag.pro/#"},{"type":"handle","offset":1604,"length":15,"data":"Galina_Ekimova"},{"type":"handle","offset":1654,"length":12,"data":"devops_jobs"}],"date":"2020-03-23T07:48:13+00:00","link":"tg://resolve?domain=devops_jobs_feed&post=1836","tags":[{"name":"linux"},{"name":"ubuntu"},{"name":"debian"},{"name":"python"},{"name":"apache"},{"name":"kafka"},{"name":"postgresql"},{"name":"sql"}],"cities":[{"code":"moscow"}],"allowsRemote":true}},{"node":{"__typename":"Job","id":"1924136960-1001134745498","title":"Devops инженер","text":"#devops  #middle  #senior #вакансия\n\nВсем добрый вечер\n\nЯ ищу Ведущего devops / системного инженера в компанию,  которая занимается разработкой системного интегратора ПО в области виртуализации и облачных технологий.\n\nЧто хотят:\nЖелательно - высшее профильное образование и соответствующий опыт работы от 3-5 лет\nОС: Linux, Unix\nCI/CD: Jenkins, Teamcity, Travis и аналоги\nКонтейнеры: Docker\nВеб-сервисы: Ngnix, UWSGI\nМониторинг/алертинг: AppDynamics, Nagios, Zabbix etc.\nОпыт администрирования реплицированных СУБД (PostgreSQL или MariaDB, MongoDB)\nОпыт работы с elasticsearch/logstash/kibana\nAnsible, Salt\nОпыт администрирования облачных серверов (например - под платформами Amazon EC2, GoogleCloud, VmWare vSphere, OpenStack или прочих)\n\nПлюсами будут:\nустановка/обслуживание - Reverse Proxy (Nginx …), caсhing\nserver (Squid, Nginx etc.)\nустановка/обслуживание - load balancer (HAProxy, Nginx, etc.)\nBash Scripts.\nProcess Monitoring: ps, top, htop, atop, .. etc\nSystem Performance: nmon, iostat, sar, vmstat etc\nNetworking: nmap, tcpdump, ping, traceroute, airmon, etc.\nkubernetes/docker swarm\n\nОсновные обязанности:\nРазвертка контуров (dev, qas, prod)\nPerformance тестирование, нагрузочное тестирование\nСборка и обновление из репозиториев\nПоиск и устранение проблем\n\nЧто дают:\nХорошая ЗП. от 120 000 руб. до 200.000 по результатам собеседования.\nВозможна удаленная работа \nТак же есть возможность работы в офисе.\nг. Москва Сколково, возможна работа из офиса в г. Санкт-Петербурге и г Нижний Новогород (ул Грузинская).\n\nКомпания: http://asdtech.co/\n\nКонтакты: @mayke_kin\n\n—\n\n👉 Обсуждение вакансии в чате @devops_jobs","markup":[{"type":"hashtag","offset":0,"length":7,"data":"devops"},{"type":"hashtag","offset":9,"length":7,"data":"middle"},{"type":"hashtag","offset":18,"length":7,"data":"senior"},{"type":"hashtag","offset":26,"length":9,"data":"вакансия"},{"type":"link","offset":1532,"length":18,"data":"http://asdtech.co/"},{"type":"handle","offset":1562,"length":10,"data":"mayke_kin"},{"type":"handle","offset":1607,"length":12,"data":"devops_jobs"}],"date":"2020-03-21T19:32:19+00:00","link":"tg://resolve?domain=devops_jobs_feed&post=1835","tags":[{"name":"linux"},{"name":"unix"},{"name":"jenkins"},{"name":"docker"},{"name":"postgresql"},{"name":"mariadb"},{"name":"mongodb"},{"name":"elasticsearch"},{"name":"logstash"},{"name":"ansible"},{"name":"nginx"},{"name":"bash"},{"name":"kubernetes"}],"cities":[{"code":"moscow"}],"allowsRemote":true}}]}}},"context":{}}