{"hash":"f34fd2c444a074f4e0e67d525015a008ef8e766f","data":{"records":{"id":"kubernetes","name":"kubernetes","belongsTo":{"totalCount":75,"pageInfo":{"totalPages":8,"currentPage":8},"edges":[{"node":{"__typename":"Job","id":"201326592-1001352129329","title":"Go разработчик","text":"#вакансия #backend  #backenddeveloper #Go #php #fulltime #moscow #senior #middle\n\n\ninDriver - международный ride-hailing сервис:\n* 35 млн пользователей. \n* Мы в 29 странах мира.\n* Входим в топ-5 мобильных сервисов для заказа поездки по итогам июля 2019 года.\n* Офис возле м. 1905 года.\n\nНаша команда разработчиков создает глобальный высокотехнологичный продукт, который меняет жизнь миллионов людей к лучшему. Ежедневно каждый из нас решает очень сложные, интересные задачи и делает это в максимально комфортных условиях - без дресскода, строгой иерархии и бюрократии.\n\nОбязанности:\n\n* Разработка и поддержка backend сервисов на Go/PHP\n* Прототипирование новых решений\n* Проведение код-ревью, написание юнит, компонентных тестов, профилирование\n* Развитие микро-сервисного подхода\n* Troubleshooting в среде Linux/Kubernetes, консультирование команды\n\nТребования:\n\n* Знание микро-сервисных, high load архитектур\n* Опыт работы в высоконагруженных проектах от 2-х лет\n* Знание на уровне администрирования Linux и платформы Kubernetes\n* Опыт работы с СУБД (MySQL, mariadb, Postgres одна из них)\n\nБудет плюсом:\n\n* Развитие микро-сервисного подхода\n* Знакомство с системами очередей сообщений (RabbitMQ, Nats или другие)\n* Опыт работы с системами CI/CD, Kubernetes\n\nЗП от 160 тыс.руб.\nГород Москва, только офис фуллтайм\nЯзыки русский, английский\n\nПисать @mariamolko\n Автор @mariamolko","markup":[{"type":"hashtag","offset":0,"length":9,"data":"вакансия"},{"type":"hashtag","offset":10,"length":8,"data":"backend"},{"type":"hashtag","offset":20,"length":17,"data":"backenddeveloper"},{"type":"hashtag","offset":38,"length":3,"data":"Go"},{"type":"hashtag","offset":42,"length":4,"data":"php"},{"type":"hashtag","offset":47,"length":9,"data":"fulltime"},{"type":"hashtag","offset":57,"length":7,"data":"moscow"},{"type":"hashtag","offset":65,"length":7,"data":"senior"},{"type":"hashtag","offset":73,"length":7,"data":"middle"},{"type":"handle","offset":1348,"length":11,"data":"mariamolko"},{"type":"handle","offset":1367,"length":11,"data":"mariamolko"}],"date":"2020-01-14T11:18:34+00:00","link":"tg://resolve?domain=gogetajobfeed&post=192","tags":[{"name":"go"},{"name":"php"},{"name":"linux"},{"name":"kubernetes"},{"name":"mysql"},{"name":"mariadb"},{"name":"postgresql"},{"name":"rabbitmq"}],"cities":[{"code":"moscow"}],"allowsRemote":false}},{"node":{"__typename":"Job","id":"198180864-1001352129329","title":"Golang разработчик","text":"#вакансия #СПб #fulltime #Golang #Go  \n\nВакансия: Golang developer\nКомпания: IQ Option\nГород: Санкт-Петербург (ст. метро Новочеркасская)\nФормат работы: #офис\nЗанятость: #полная\nЗарплата (полностью белая): 150 000 - 230 000 ₽ на руки\n\nМы ищем Golang разработчика в команду Client Services. Команда создает и поддерживает жизненно-важные компоненты платформы, среди которых:\n• Системы оповещения пользователей (push, sms, email);\n• Стриминг на клиентские приложения состояния всех сделок пользователя (АКА Портфель);\n• Авторизация на платформе;\n• Механизм, позволяющий проводить AB тестирование новых фич.\n\nТебе предстоит:\n• Разрабатывать новые микросервисы и писать сценарии для их развертывания;\n• Портировать уже существующие микросервисы во внутреннее облако на Kubernetes;\n• Участвовать в написании драйверов для внутренних транспортных систем.\n\nСтек технологий:\n• Kubernetes, Docker, Gitlab CI/CD;\n• Postgres, Redis, Consul;\n• RabbitMQ, GRPC.\n\nМинимальные технические требования:\n• опыт разработки на Golang более двух лет;\n• опыт работы с PostgreSQL.\n\nБудет преимуществом:\n• опыт разработки финансовых сервисов;\n• английский язык на уровне intermediate.\n\nПочему именно мы:\n• трудоустройство согласно ТК РФ;\n• 5/2, гибкое начало рабочего дня;\n• офис класса А+ в 10 мин ходьбы от ст.м. Новочеркасская;\n• отсутствие дресс-кода, бюрократии и т.д.;\n• компенсация питания (оплата обедов, ежедневные завтраки в офисе + кухни на каждом этаже с разнообразной едой);\n• интересные задачи;\n• обширные возможности для профессионального и карьерного роста;\n• ДМС со стоматологией;\n• техническая библиотека;\n• корпоративный фитнес-клуб и массажист на территории БЦ и многое другое.\n\nДополнительные условия для иногородних и иностранных кандидатов: \n• предоставление места проживания за счет компании в первый месяц работы;\n• компенсация переезда;\n• помощь в оформлении документов (для иностранных граждан).\n\nПишите и присылайте резюме: \nEmail: galina.krapivina@iqoption.com\nTelegram: @gala_kr\n Автор @gala_kr","markup":[{"type":"hashtag","offset":0,"length":9,"data":"вакансия"},{"type":"hashtag","offset":10,"length":4,"data":"СПб"},{"type":"hashtag","offset":15,"length":9,"data":"fulltime"},{"type":"hashtag","offset":25,"length":7,"data":"Golang"},{"type":"hashtag","offset":33,"length":3,"data":"Go"},{"type":"hashtag","offset":152,"length":5,"data":"офис"},{"type":"hashtag","offset":169,"length":7,"data":"полная"},{"type":"link","offset":1934,"length":29,"data":"mailto:galina.krapivina@iqoption.com"},{"type":"handle","offset":1974,"length":8,"data":"gala_kr"},{"type":"handle","offset":1990,"length":8,"data":"gala_kr"}],"date":"2020-01-10T08:50:22+00:00","link":"tg://resolve?domain=gogetajobfeed&post=189","tags":[{"name":"go"},{"name":"kubernetes"},{"name":"docker"},{"name":"gitlab"},{"name":"postgresql"},{"name":"redis"},{"name":"rabbitmq"}],"cities":[],"allowsRemote":false}},{"node":{"__typename":"Job","id":"74448896-1001375797688","title":".net разработчик","text":"#вакансия #dotnet #csharp #remote #удаленка\n\nФормат: #удаленка\nЗанятость: полная\nЗарплата: от 2 000$ до 3 500$ (зп обсуждается с каждым лично и зависит от вашего уровня...)\nКомпания: IDG\n\n💡Задачи:\n- Разработка высоконагруженных систем на стороне заказчика;\n- Поддержка и сопровождения проектов;\n\n📍Требования:\n- опыт разработки коммерческих приложений на платформе .NET от 2 лет;\n- опыт и понимание ASP.Net MVC, Web API, опыт работы с клиентскими JS фреймворками;\n- опыт и понимание протокола передачи данных REST;\n- знание и опыт работы с MongoDB или другой NoSQL базой данных;\n- технический английский;\n\n🔗Будет плюсом:\n- опыт работы в финансовой индустрии, либо другой корпоративной среде, где важна защита данных и правильная организация контроля доступа к исполнению кода\n- опыт работы с зарубежными заказчиками\n- использование TDD в разработке\n- наличие сертификатов Microsoft\n- опыт работы с Datawarehouse/Big Data системами\n- Опыт работы с VSTS\n- Опыт работы с Kubernetes/Docker\n- Опыт работы с React\n\n📝Условия:\n- Интересные задачи и возможность реализовать свой потенциал в международных проектах компании и внутренних стартапах;\n- Гибкий график (начало и конец рабочего дня согласовываются с менеджером и командой проекта)\n- Полностью удаленная работа\n\nРезюме можно в личку или на почту.\n\nКонтакты:\n📧 seleznevaem@gmail.com\n🖌@EkaterinaSel\n\nТакже буду благодарна за рекомендации.","markup":[{"type":"hashtag","offset":0,"length":9,"data":"вакансия"},{"type":"hashtag","offset":10,"length":7,"data":"dotnet"},{"type":"hashtag","offset":18,"length":7,"data":"csharp"},{"type":"hashtag","offset":26,"length":7,"data":"remote"},{"type":"hashtag","offset":34,"length":9,"data":"удаленка"},{"type":"bold","offset":45,"length":8,"data":""},{"type":"hashtag","offset":53,"length":9,"data":"удаленка"},{"type":"bold","offset":63,"length":11,"data":""},{"type":"bold","offset":81,"length":10,"data":""},{"type":"bold","offset":173,"length":9,"data":""},{"type":"link","offset":1314,"length":21,"data":"mailto:seleznevaem@gmail.com"},{"type":"handle","offset":1338,"length":13,"data":"EkaterinaSel"}],"date":"2020-01-08T12:47:08+00:00","link":"tg://resolve?domain=DotNetRuJobsFeed&post=71","tags":[{"name":"dotnet"},{"name":"csharp"},{"name":"web"},{"name":"rest"},{"name":"mongodb"},{"name":"nosql"},{"name":"kubernetes"},{"name":"docker"},{"name":"reactjs"},{"name":"asp-net"},{"name":"asp-net-mvc"}],"cities":[],"allowsRemote":true}},{"node":{"__typename":"Job","id":"195035136-1001352129329","title":"Golang developer","text":"#вакансия #godeveloper #golang #backtend #fulltime #офис #middle #москва\n\nСписок необходимых навыков:\n- Golang\n- Docker\n- SQL (В основном Postgres)\n- NoSQL (Redis/Elastic/Couchbase/Mongo/etc.. - зависит от задач)\n- REST/gRPC \n- Kubernetes\n\nЗ/П: 170 000- 230 000 net (обсуждаемо)\nУдаленка: нет\nЛокация: Москва, м. Смоленская\nКомпания: МТС ИТ\nКонтакты: @horthekifo \n\nЧто нужно делать?\nРазрабатывать бекенд web-приложения и участвовать в проектировании архитектуры, проводить code review.\n\nНа данный момент есть два проекта, куда нужно по одному человеку. Трайб занимается автоматизацией внутренних бизнес-процессов. \n\nЧто мы предлагаем:\n- Белая ЗП, премия 20% от годового оклада;\n- ДМС со стоматологией;\n- Хакатоны, митапы;\n- Гибкое начало рабочего дня;\n- Корпоративная связь, доп. дни ежегодного отпуска;\n- Офис у м. Смоленская (7 мин. пешком).\n\nТут про проекты не пишу, т.к будет много текста, если вы по деньгам ок и по уровню middle/senior - welcome, расскажу про проекты, выберите наиболее интересный.\n Автор @Horthekifo","markup":[{"type":"hashtag","offset":0,"length":9,"data":"вакансия"},{"type":"hashtag","offset":10,"length":12,"data":"godeveloper"},{"type":"hashtag","offset":23,"length":7,"data":"golang"},{"type":"hashtag","offset":31,"length":9,"data":"backtend"},{"type":"hashtag","offset":41,"length":9,"data":"fulltime"},{"type":"hashtag","offset":51,"length":5,"data":"офис"},{"type":"hashtag","offset":57,"length":7,"data":"middle"},{"type":"hashtag","offset":65,"length":7,"data":"москва"},{"type":"handle","offset":351,"length":11,"data":"horthekifo"},{"type":"handle","offset":1012,"length":11,"data":"Horthekifo"}],"date":"2019-12-23T13:23:38+00:00","link":"tg://resolve?domain=gogetajobfeed&post=186","tags":[{"name":"go"},{"name":"docker"},{"name":"sql"},{"name":"postgresql"},{"name":"nosql"},{"name":"redis"},{"name":"elasticsearch"},{"name":"rest"},{"name":"kubernetes"},{"name":"dotnet"},{"name":"web"}],"cities":[{"code":"moscow"}],"allowsRemote":false}},{"node":{"__typename":"Job","id":"38797312-1001375797688","title":".net developer","text":"#офис #вакансия \nНижний Новгород\nMiddle C# Developer Full Stack\nЗп 80-120к руб на руки\n\nРассматриваем иногородних!\n\nОбязанности:\n• участие в разработке новых сервисов на C# / .NET Core\n• поддержка и развитие существующих продуктов и сервисов на C# / WPF / .NET Core\n• участие в проектировании архитектуры, планировании релизов, совершенствовании процессов разработки\n• участие во всех этапах разработки продуктов (от идеи/прототипа до релиза)\n\nТребования:\n• высшее техническое образование \n• работа только в офисе полный рабочий день, дистанционная работа не рассматривается (но оказываем материальную и другую поддержку для тех, кто готов к переезду в Нижний Новгород)\n\nПриветствуются:\n• собственный проект или участие в opensource\n• опыт работы по Agile (Scrum, Kanban, XP).\n• умение находить нестандартные, простые технические решения\n• опыт разработки Web-сервисов,\n• опыт работы с Doсker, Kubernetes\n• опыт написания unit-тестов и разработки по TDD\n\nКлючевые навыки\nC#.NET Framework WPF AgileExtreme Programming Unit Testing.NET Core ASP.NET LINQ MVC ООП MySQL JavaScript HTML SQL CSS\n\nВопросы/отклики писать сюда: @hr_rodnaya, enn369347@gmail.com","markup":[{"type":"hashtag","offset":0,"length":5,"data":"офис"},{"type":"hashtag","offset":6,"length":9,"data":"вакансия"},{"type":"link","offset":1022,"length":11,"data":"http://Testing.NET"},{"type":"link","offset":1039,"length":7,"data":"http://ASP.NET"},{"type":"handle","offset":1120,"length":11,"data":"hr_rodnaya"},{"type":"link","offset":1133,"length":19,"data":"mailto:enn369347@gmail.com"}],"date":"2019-11-04T13:41:16+00:00","link":"tg://resolve?domain=DotNetRuJobsFeed&post=37","tags":[{"name":"dotnet"},{"name":"csharp"},{"name":"wpf"},{"name":"web"},{"name":"kubernetes"},{"name":"linq"},{"name":"mysql"},{"name":"javascript"},{"name":"html"},{"name":"sql"},{"name":"css"},{"name":"net-core"},{"name":"unit-testing"},{"name":"asp-net"}],"cities":[{"code":"nizhny-novgorod"}],"allowsRemote":false}}]}}},"context":{}}