{"hash":"f5f6bf98bd95e769321482904cbbd488f77922fd","data":{"records":{"id":"rabbitmq","name":"rabbitmq","belongsTo":{"totalCount":48,"pageInfo":{"totalPages":5,"currentPage":1},"edges":[{"node":{"__typename":"Job","id":"26990346240-1001075660570","title":"Php разработчик","text":"#вакансия #php #symfony #удаленка  #fulltime #parttime\n\nPHP-разработчик (middle, senior), Symfony 3.4+\n\nДля работы нужно: \n- опыт работы с Symfony 3.4+ и понимание DI, Doctrine\n- владение PostgreSQL\n\nБудет плюсом: \n- опыт работы с брокерами сообщений: Kafka, RabbitMQ\n- понимание принципов работы микросервисных систем\n- опыт автоматизированного тестирования (PHPUnit, Codeception)\n\nУсловия: 120-180к в зависимости от уровня, оформление ТК\n- Разработка web-сервисов и digital-решений. \nКомпания: grapheme.ru \n\nКонтакты: @AnastasiaTum","markup":[{"type":"hashtag","offset":0,"length":9,"data":"вакансия"},{"type":"hashtag","offset":10,"length":4,"data":"php"},{"type":"hashtag","offset":15,"length":8,"data":"symfony"},{"type":"hashtag","offset":24,"length":9,"data":"удаленка"},{"type":"hashtag","offset":35,"length":9,"data":"fulltime"},{"type":"hashtag","offset":45,"length":9,"data":"parttime"},{"type":"link","offset":496,"length":11,"data":"http://grapheme.ru"},{"type":"handle","offset":520,"length":13,"data":"AnastasiaTum"}],"date":"2020-07-03T10:35:12+00:00","link":"tg://resolve?domain=php_jobs&post=25740","tags":[{"name":"php"},{"name":"symfony"},{"name":"doctrine"},{"name":"postgresql"},{"name":"kafka"},{"name":"rabbitmq"},{"name":"phpunit"},{"name":"web"}],"cities":[],"allowsRemote":true}},{"node":{"__typename":"Job","id":"1773142016-1001091028994","title":"Java разработчик","text":"#спб #офис #java #middle #senior\n\nМесто работы: Санкт-Петербург, м. Лиговский проспект\nКомпания: Санкт-Петербургский Информационно аналитический центр\nФормат работы: офис ( на текущий момент удаленно)\nЗанятость: полная, гибкое начало дня\nЗарплатная вилка: до 200 на руки, 100% белая\n\n«Санкт-Петербургский Информационно-аналитический центр» с 1980 года улучшает качество жизни петербуржцев, автоматизируя городские процессы и государственные органы. В портфолио компании - 50 действующих проектов в Санкт-Петербурге и других регионах. Наши проекты побеждают в общероссийских и международных конкурсах.\n\nСодержание работы:\n- Требуется Java разработчик в Agile команду разработки государственных информационных систем.\n\nОбязанности:\n- Проектирование, разработка и развитие информационных систем с использованием технологий: Java, Postgres/Oracle, ElasticSearch, Spring Boot, Kafka, React, Ansible, Docker, Kubernetes, Jenkins и других\n\nТребования:\n- опыт веб-разработки на Java от 3-х лет;\n- знание ООП, SQL;\n- опыт разработки моделей БД;\n- умение думать и желание развиваться;\n- умение и желание решать сложные технические задачи;\n- высшее техническое образование;\n- знание английского языка (уровень чтения профессиональной литературы);\n\nЖелательно:\n- опыт работы со Spring Boot\n- опыт работы с React\n- опыт работы с СУБД Postgres или другой\n- опыт работы с Gradle\n- опыт работы с брокерами сообщений (Kafka, RabbitMQ);\n- знакомство с оркестраторами (Kubernetes, Swarm);\n- знание современных инженерных практик и инструментов (XP, TDD, Continuous delivery и т.п.).\n\nО команде:\n- мы работаем в компактных командах;\n- избегаем бюрократии и фокусируемся на реальных потребностях граждан нашего города;\n- осуществляем полный цикл разработки от выявления требований, до внедрения и сопровождения;\n- проводим ежедневные митинги, совместные обсуждения возле доски и регулярные ретроспективы;\n- стремимся к постоянному персональному и командному росту и развитию!\n\nВ портфолио команды информационные системы, функционирующие в СПб, других регионах РФ и на международном уровне:\n- Аналитическая платформа поддержки принятия решений по управлению городом;\n- Культура Петербурга\n- Общедоступные библиотеки Санкт-Петербурга\n- Государственные архивы Санкт-Петербурга\n- Приграничный электронный архив\n\nМы готовы предложить успешным кандидатам :\n- влиться в большой дружный коллектив, стать частью команды увлеченных, целеустремленных людей;\n- конкурентоспособный уровень заработной платы, который мы готовы обсудить с успешными кандидатами на собеседовании;\n- бонусы и премии по результатам работы;\n- оплачиваемые отпуска и больничные, полностью «белая» заработная плата дважды в месяц;\n- оплата обучения (тренинги, семинары, конференции);\n- широкие возможности для повышения личного мастерства и профессионального роста;\n- рабочий график – пятидневка с 9 до 18 часов, по пятницам до 17;\n- офис около ст. метро «Лиговский проспект»;\n- возможность внести свой значимый вклад в развитие городской автоматизации!\n\nБуду рад ответить на ваши вопросы о команде и проектах @akozhin","markup":[{"type":"hashtag","offset":0,"length":4,"data":"спб"},{"type":"hashtag","offset":5,"length":5,"data":"офис"},{"type":"hashtag","offset":11,"length":5,"data":"java"},{"type":"hashtag","offset":17,"length":7,"data":"middle"},{"type":"hashtag","offset":25,"length":7,"data":"senior"},{"type":"handle","offset":3051,"length":8,"data":"akozhin"}],"date":"2020-07-02T15:01:55+00:00","link":"tg://resolve?domain=jvmjobs&post=1691","tags":[{"name":"java"},{"name":"jvm"},{"name":"postgresql"},{"name":"oracle"},{"name":"elasticsearch"},{"name":"spring"},{"name":"kafka"},{"name":"reactjs"},{"name":"ansible"},{"name":"docker"},{"name":"kubernetes"},{"name":"jenkins"},{"name":"sql"},{"name":"gradle"},{"name":"rabbitmq"},{"name":"spring-boot"}],"cities":[],"allowsRemote":true}},{"node":{"__typename":"Job","id":"367001600-1001352129329","title":"Golang разработчик","text":"Ребят, всем привет! \nПостараюсь кратко, подробности в ЛС. Заранее напишу, что это Москва (фултайм/офис), компания Lofty. Ищем в команду как Midle так и Senior Go разработчиков.\nВообщем если хочется в highload, добро пожаловать!)\n\nО проекте:\nЭто высоконагруженное backend приложение для рассылки web push-уведомлений, обслуживающее на данный момент более 100млн показов в сутки. \nЧем у нас предстоит заниматься:\nПрофилировать и оптимизировать существующие сервисы;\nПроводить доработки и интеграцию их в действующий код и инфраструктуру;\nРеализовывать новые бизнес-требования внутри сервиса;\nУстранять возникающие баги в сервисе.\n\nЧто мы ждем от кандидата:\nНавыки работы с Git;\nУверенное знание Golang;\nПонимание технологий HTTP, REST;\nОпыт работы в Unix-окружении.\n\nБудет совсем круто, если вы:\nРаботали с highload-проектами;\nПонимаете и уважаете концепцию CI/CD.\nНаш стек технологий: Golang, Gitlab, MySQL, JS, RabbitMQ, Docker, Ansible, Clickhouse\n\nУсловия: \nЗаработная плата от 130 000 до 300 000 руб. на руки, естественно зависит от уровня, преимущественно смотрим \"мидов\", но и \"джуны\" нам тоже интересны.\n\nНаш сайт: `https://www.lofty.today/\n#вакансия#golang","markup":[{"type":"link","offset":1122,"length":24,"data":"https://www.lofty.today/"}],"date":"2020-07-02T10:02:20+00:00","link":"tg://resolve?domain=gogetajobfeed&post=350","tags":[{"name":"go"},{"name":"web"},{"name":"git"},{"name":"rest"},{"name":"unix"},{"name":"gitlab"},{"name":"mysql"},{"name":"rabbitmq"},{"name":"docker"},{"name":"ansible"}],"cities":[{"code":"moscow"}],"allowsRemote":false}},{"node":{"__typename":"Job","id":"26903314432-1001075660570","title":"Php разработчик","text":"#вакансия  #fulltime #backend #мск #москва\nВакансия: backend-разработчик\nКомпания: Логистик Тайм\nГород: Москва\nФормат работы: #офис\nЗанятость: #полная\nЗарплата : от 160 000 до 250 000 ₽.                                                                                                                                                                                                                    \n\nПривет! Мы растем и активно развиваемся, поэтому ищем специалистов для работы в офисе нашей компании в Москве. Это отличная возможность реализовать свои навыки и прокачаться ещё больше в команде профессионалов. \n\n💡Основные обязанности:\n-Разработка новых сервисов компании.\n-Оптимизация и поддержка текущих продуктов.\n-Наш стек: PHP7, MySQL (Percona), Redis, MongoDB, RabbitMQ, YouTrack.\n\n💪Добро пожаловать в нашу команду если вы:\n-Имеете опыт разработки на PHP.\n-Умеете использовать Git.\n-Знаете ООП, умеете применять на практике паттерны проектирования.\n-Работали с MVC-фреймворками на базе PHP.\n\n🏆Мы предлагаем:\n-Уровень заработной платы зависит от пожеланий и профессионально уровня кандидата.\n-Поездки на ИТ-конференции, митапы, учебные курсы за счет компании.\n-Гибкое начало рабочего дня.\n-Возможность релокации в Европу.\n\nБуду рада Вашим вопросам и резюме:\n✍️  @hrkaterina \n📨 ekaterina.logistik@gmail.com","markup":[{"type":"hashtag","offset":0,"length":9,"data":"вакансия"},{"type":"hashtag","offset":11,"length":9,"data":"fulltime"},{"type":"hashtag","offset":21,"length":8,"data":"backend"},{"type":"hashtag","offset":30,"length":4,"data":"мск"},{"type":"hashtag","offset":35,"length":7,"data":"москва"},{"type":"hashtag","offset":126,"length":5,"data":"офис"},{"type":"hashtag","offset":143,"length":7,"data":"полная"},{"type":"italic","offset":400,"length":79,"data":""},{"type":"italic","offset":480,"length":5,"data":""},{"type":"italic","offset":486,"length":127,"data":""},{"type":"underline","offset":613,"length":2,"data":""},{"type":"bold","offset":615,"length":22,"data":""},{"type":"underline","offset":789,"length":2,"data":""},{"type":"bold","offset":791,"length":41,"data":""},{"type":"underline","offset":1000,"length":2,"data":""},{"type":"bold","offset":1002,"length":15,"data":""},{"type":"bold","offset":1231,"length":35,"data":""},{"type":"handle","offset":1270,"length":11,"data":"hrkaterina"},{"type":"link","offset":1286,"length":28,"data":"mailto:ekaterina.logistik@gmail.com"}],"date":"2020-07-01T09:31:33+00:00","link":"tg://resolve?domain=php_jobs&post=25657","tags":[{"name":"php"},{"name":"mysql"},{"name":"redis"},{"name":"mongodb"},{"name":"rabbitmq"},{"name":"git"}],"cities":[{"code":"moscow"}],"allowsRemote":false}},{"node":{"__typename":"Job","id":"17271095296-1001110946746","title":"Js разработчик","text":"#вакансия #vacancy #удаленка #fullstack #nodejs #javascript #remote #remotly #удаленнаяработа #удалённая работа\n\nГород и адрес офиса:Санкт-Петербург,Москва,Ульяновск,Обнинск,Калуга,Казань,Харьков,Минск,Гомель-центр города+удалённое сотрудничество\nФормат работы:офис или удалёнка\nЗанятость: полная\nЗарплатная вилка:$1500-$2000\nОписание вакансии:\n\nИщем опытного и талантливого Full Stack девелопера в команду разработки ERP системы по продаже авиа запчастей и поддержания летной годности.\n\nСсылка на описание системы: http://www.erp.aero/\n\nЧто будет входить в задачи:\n\n🚀Бэкенд-разработка;\n🚀Фронт-енд-разработка;\n🚀Разработка архитектуры модулей приложения;\n🚀Написание документации.\n\nЧто мы ожидаем от кандидата:\n\n⚓️Опыт разработки с использованием Node.js;\n✈️Опыт разработки с использованием Vue.js;\n🚁Знание RabbitMQ;\n⛵️JavaScript (ES6);\n🛥БД MySQL;\n🛳Знание протокола WebSocket и принципов его работы;\n🚢Технический английский.\n\nБольшим плюсом будет:\n\n🛸Фреймворк Express.js;\n🏍Понимание работы с Amazon Web Services;\n🛵Оптимизация проекта под высокие нагрузки;\n🚠Понимание работы «облачных» приложений SaaS.\n\nЧто мы предлагаем:\n🇺🇸Работу в Американской компании\n🔥Возможность удалённой работы\n💵Официальное оформление- заключается договор с нашей ШК в Сан-Франциско по ИП\n☀️Гибкое начало рабочего дня\n💊ДМС\n🏖Оплачиваемый отпуск\n🎓75% компенсация стоимости курсов английского языка\nНазвание компании:  XIM, Ink. https://ximxim.com/\n\nОтклики и рекомендации направляйте, пожалуйста, сюда 👉 @veronikaborisovahr","markup":[{"type":"hashtag","offset":0,"length":9,"data":"вакансия"},{"type":"hashtag","offset":10,"length":8,"data":"vacancy"},{"type":"hashtag","offset":19,"length":9,"data":"удаленка"},{"type":"hashtag","offset":29,"length":10,"data":"fullstack"},{"type":"hashtag","offset":40,"length":7,"data":"nodejs"},{"type":"hashtag","offset":48,"length":11,"data":"javascript"},{"type":"hashtag","offset":60,"length":7,"data":"remote"},{"type":"hashtag","offset":68,"length":8,"data":"remotly"},{"type":"hashtag","offset":77,"length":16,"data":"удаленнаяработа"},{"type":"hashtag","offset":94,"length":10,"data":"удалённая"},{"type":"link","offset":516,"length":20,"data":"http://www.erp.aero/"},{"type":"link","offset":1417,"length":19,"data":"https://ximxim.com/"},{"type":"handle","offset":1494,"length":19,"data":"veronikaborisovahr"}],"date":"2020-06-30T16:10:03+00:00","link":"tg://resolve?domain=javascript_jobs_feed&post=16471","tags":[{"name":"javascript"},{"name":"nodejs"},{"name":"vuejs"},{"name":"rabbitmq"},{"name":"mysql"},{"name":"websocket"},{"name":"express"},{"name":"web"},{"name":"amazon-web-services"}],"cities":[{"code":"moscow"},{"code":"ulyanovsk"},{"code":"obninsk"},{"code":"kaluga"},{"code":"kazan"},{"code":"minsk"},{"code":"gomel"}],"allowsRemote":true}},{"node":{"__typename":"Job","id":"26877100032-1001075660570","title":"Php разработчик","text":"#вакансия #Москва #офис #fulltime #middle #php #yii2 #ecommerce\n\nТехнический стeк 💪\n#PHP #Yii2 #Postgres #Mysql #Sphinx #GIT #Redis #Yandex.Clickhouse #RabbitMQ #Elasticsearch #Docker\n\nг. Москва Офис: м. Тульская (10 минут от метро)\n\n💰120 000 - 160 000 рублей\n\nПартнерская сеть Money4leads-  международная компания с отделениями не только в России, но и в странах СНГ и Европы.\nМы производим продукты под собственной торговой маркой, постоянно следим за их качеством. Огромным плюсом сотрудничества с нами, является то, что Money4leads обладает мощностями собственного колл-центра и развивает свою логистическую сеть: весь процесс от приема заявки до доставки товара конечному потребителю осуществляется сотрудниками нашей компании. Благодаря этому, партнерская сеть Money4leads - гарант качественного обслуживания.\n\nЗАДАЧКИ:\n\n🔸Проектирование и разработка новых сервисов Компании (CRM, биллинг, личный кабинет)\n🔸Оптимизация существующего проекта (оптимизация запросов, архитектурные решения)\n🔸Проектирование и разработка REST API\n\nНАВЫКИ: \n\n🔸Знание PHP (у нас PHP 7.2) + знание PosgreSQL \n🔸GIT на уровне использования через консоль и gui интерфейс;\n🔸Знание паттернов проектирования, а также умение их применять и не применять; ;\n🔸Опыт использования одного из современных PHP фреймворков и навык его практического применения (мы используем Yii 2);\n🔸Желателен опыт работы в коммерческой разработке\n🔸Самостоятельность, ориентация на результат.\n\nПлюсом будет еще Redis, Yandex.ClickHouse 😉\n\nПРЕДЛОЖЕНИЕ:\n\n🔸Работа над крупным международным проектом в дружной команде разработчиков;\n🔸Интересные, амбициозные задачи;\nСоблюдение ТК РФ;\n🔸Финансовая мотивация (оклад ) обсуждается с каждым кандидатов индивидуально, в зависимости от опыта и навыков;\n🔸Заработная плата без задержек 2 раза в месяц, индексация по результатам работы;\n🔸Работа в офисе (м. Тульская) график работы – 5/2 (гибкое начало рабочего дня).\n\nСВЯЗЬ:\n\n◾️  Telegram: - @darya_hr\n▪️ e-mail: - d.omelchenko@m4leads.com","markup":[{"type":"hashtag","offset":0,"length":9,"data":"вакансия"},{"type":"hashtag","offset":10,"length":7,"data":"Москва"},{"type":"hashtag","offset":18,"length":5,"data":"офис"},{"type":"hashtag","offset":24,"length":9,"data":"fulltime"},{"type":"hashtag","offset":34,"length":7,"data":"middle"},{"type":"hashtag","offset":42,"length":4,"data":"php"},{"type":"hashtag","offset":47,"length":5,"data":"yii2"},{"type":"hashtag","offset":53,"length":10,"data":"ecommerce"},{"type":"hashtag","offset":85,"length":4,"data":"PHP"},{"type":"hashtag","offset":90,"length":5,"data":"Yii2"},{"type":"hashtag","offset":96,"length":9,"data":"Postgres"},{"type":"hashtag","offset":106,"length":6,"data":"Mysql"},{"type":"hashtag","offset":113,"length":7,"data":"Sphinx"},{"type":"hashtag","offset":121,"length":4,"data":"GIT"},{"type":"hashtag","offset":126,"length":6,"data":"Redis"},{"type":"hashtag","offset":133,"length":7,"data":"Yandex"},{"type":"hashtag","offset":152,"length":9,"data":"RabbitMQ"},{"type":"hashtag","offset":162,"length":14,"data":"Elasticsearch"},{"type":"hashtag","offset":177,"length":7,"data":"Docker"},{"type":"handle","offset":1943,"length":9,"data":"darya_hr"},{"type":"link","offset":1966,"length":24,"data":"mailto:d.omelchenko@m4leads.com"}],"date":"2020-06-30T14:29:45+00:00","link":"tg://resolve?domain=php_jobs&post=25632","tags":[{"name":"php"},{"name":"yii"},{"name":"postgresql"},{"name":"mysql"},{"name":"git"},{"name":"redis"},{"name":"rabbitmq"},{"name":"elasticsearch"},{"name":"docker"},{"name":"rest"}],"cities":[{"code":"moscow"}],"allowsRemote":false}},{"node":{"__typename":"Job","id":"2265972736-1001134745498","title":"Devops инженер","text":"#вакансия #Remote #работаDevOps  #удаленка \nКомпания: IDG\nФормат работы: удаленка\nЗанятость: полная\nЗарплатная вилка: $2500 до $4000\n\n👋Всем привет. \nМы занимаемся разработкой собственных образовательных проектов, а также проектов для клиентов - технологических, финансовых и аудиторских компаний.\nСейчас мы ищем DevOps инженера в дополнение к нашей текущей DevOps-команде, который будет вместе с нами делать cross-cloud big-data/ai платформу для одного из наших крупных постоянных клиентов.\nУ нас всё в k8s. Помимо этого есть spark, несколько баз данных и еще куча всего интересного. Разворачиваем с помощью Terraform/Ansible/Helm\n\n📍Требования:\n\n- Опыт работы с AWS/Azure/GCE - от 2+ лет;\n- Опыт работы с Kubernetes - от 2+ лет\n- Опыт работы со Spark - от 1 года\n- Имеет опыт настройки и администрирования БД (Mongo, Redis, Rabbit, SQL Server, Postgres, MySQL, Elastic Search)\n- Опыт разработки на Python или других подобных языках;\n- Опыт организации процесса CI/CD (jenkins, teamcity).\n- Английский на уровне Intermediate и выше.\nБудет плюсом: \n\n- Опыт работы в крупных международных компаниях;\n- Опыт работы с технологиями Big Data;\n\n📌Что мы предлагаем:\n\n- Интересные задачи и возможность реализовать свой потенциал в международных проектах компании и внутренних стартапах;\n- Гибкий график (начало и конец рабочего дня согласовываются с менеджером и командой проекта)\n- Полностью удаленная работа\n- Дополнительные выплаты за профессиональные успехи\n\nКонтакт: @IDGAccount\n\n—\n\n👉 Обсуждение вакансии в чате @devops_jobs","markup":[{"type":"hashtag","offset":0,"length":9,"data":"вакансия"},{"type":"hashtag","offset":10,"length":7,"data":"Remote"},{"type":"hashtag","offset":18,"length":13,"data":"работаDevOps"},{"type":"hashtag","offset":33,"length":9,"data":"удаленка"},{"type":"handle","offset":1465,"length":11,"data":"IDGAccount"},{"type":"handle","offset":1511,"length":12,"data":"devops_jobs"}],"date":"2020-06-30T11:03:34+00:00","link":"tg://resolve?domain=devops_jobs_feed&post=2161","tags":[{"name":"cloud"},{"name":"ansible"},{"name":"amazon-web-services"},{"name":"azure"},{"name":"kubernetes"},{"name":"redis"},{"name":"rabbitmq"},{"name":"sql"},{"name":"postgresql"},{"name":"mysql"},{"name":"elasticsearch"},{"name":"python"},{"name":"jenkins"},{"name":"sql-server"}],"cities":[],"allowsRemote":true}},{"node":{"__typename":"Job","id":"26854031360-1001075660570","title":"Php разработчик","text":"#вакансия #удаленно #remote #full-time #PHP #Symfony\n\nPHP-разработчик\n\nИщем двоих разработчиков (senior и middle) в команду разработки финтех-платформы Unlimco - технологическая процессинговая платформа по обработке платежей в интернете. \n\nЗадачи:\n• разработка информационной системы; \n• разработка интеграций; \n• написание тестов.\n\nТребования:\n• Знание современной версий PHP (7.x)\n• Опыт работы с фреймворком Symfony (4,5)\n• Опыт в разработке архитектуры, выборе стэка технологий и проектировании сайтов и веб-сервисов\n• Знание ООП и шаблонов проектирования, умение применять их на практике\n• Опыт работы с PostgreSQL, RabbitMQ, Git, Composer\n• Знание HTTP/HTTPS протокола\n• Понимание принципов работы и опыт построения REST/JSON RPC API\n• Опыт интеграции с удаленными веб-сервисами\n• Опыт написания Unit-тестов и интеграционных тестов\n• Оптимизация кода для работы в высоконагруженных системах\n• Знание Solid, ActiveRecord и DDD парадигм, умение применять на практике\n• Знание основных PSR стандартов и готовность их соблюдать\n+++++++++++Желательно: \n• Опыт создания собственных composer-пакетов\n• Опыт работы по BDD и TDD методологиям\n• Желание использовать Rich и Pure Domain Model\n• Умение пользоваться x-debug и понимание общих принципов отладки кода\n• Умение разбираться в чужом коде и понимать логику реализации автора\n\nУСЛОВИЯ:\n• Удаленная работа фуллтайм;\n• Официальное трудоустройство;\n• Долгосрочное сотрудничество;\n• Уровень оплаты труда обсуждается индивидуально.\n\nКонтакт: @abezpalova","markup":[{"type":"hashtag","offset":0,"length":9,"data":"вакансия"},{"type":"hashtag","offset":10,"length":9,"data":"удаленно"},{"type":"hashtag","offset":20,"length":7,"data":"remote"},{"type":"hashtag","offset":28,"length":5,"data":"full"},{"type":"hashtag","offset":39,"length":4,"data":"PHP"},{"type":"hashtag","offset":44,"length":8,"data":"Symfony"},{"type":"bold","offset":54,"length":17,"data":""},{"type":"bold","offset":240,"length":8,"data":""},{"type":"bold","offset":333,"length":12,"data":""},{"type":"handle","offset":1489,"length":11,"data":"abezpalova"}],"date":"2020-06-30T10:11:39+00:00","link":"tg://resolve?domain=php_jobs&post=25610","tags":[{"name":"php"},{"name":"symfony"},{"name":"postgresql"},{"name":"rabbitmq"},{"name":"git"},{"name":"rest"},{"name":"json"},{"name":"activerecord"}],"cities":[],"allowsRemote":true}},{"node":{"__typename":"Job","id":"1768947712-1001091028994","title":"Java разработчик","text":"#backend #java #middle  \nКомпания: #ОООСервисхаб \nЛокация: #удаленка \nЗ/п: 80 000-120 000 \nКонтакты:👉 @ANASTASIAHRServicehub  \n\nВ команду, которая производит и внедряет ПО для банков, нужен Разработчик Java (удаленно или в офис во Владимир).   \n\nМы предлагаем Вам:\n  \nФедеральный ИТ проект.  \n Бесплатное обучение английскому языку и возможность выбора обучающего курса по интересующей тематике. \nСоциальный пакет, официальное трудоустройство.  \n\n\nВ проекте используется следующий стек :  \n\n✔️Java с использованием spring-boot \n✔️Axon Framework в качестве каркасных фрейворков.  \n✔️А так же JOOQ, MapStruct, Jackson для работы с внешними источниками данных.  \n✔️Для тестирования используется JUnit + Mockito.  \n✔️Для решения задач безопасности(ЭЦП) используется BouncyCastle. \n✔️CI/CD организуется средствами Gradle, Docker, Jenkins, Rancher 2, Kubernetes, Helm.  \n✔️Для хранения данных используется СУБД PostgreSQL,для организации асинхронной коммуникации применяется RabbitMQ.  \n\nЧто требуется от Вас:  \n\nЗнание языков/фреймворков, Spring, SQL, Core Java S, серверов очередей, неряляционных баз данных, web-технологий приветствуется;  \nУверенное знание Core Java, Spring IoC, SQL  \n\n❕Приветствуются экспертизы в следующих областях: сервера очередей, неряляционные базы данных, CQRS, Event Sourcing, Web-технологии \n \nБуду также благодарна за контакты и рекомендации😊 \n✍️@ANASTASIAHRServicehub hr@srvhub.ru","markup":[{"type":"hashtag","offset":0,"length":8,"data":"backend"},{"type":"hashtag","offset":9,"length":5,"data":"java"},{"type":"hashtag","offset":15,"length":7,"data":"middle"},{"type":"hashtag","offset":35,"length":13,"data":"ОООСервисхаб"},{"type":"hashtag","offset":59,"length":9,"data":"удаленка"},{"type":"handle","offset":103,"length":22,"data":"ANASTASIAHRServicehub"},{"type":"handle","offset":1374,"length":22,"data":"ANASTASIAHRServicehub"},{"type":"link","offset":1397,"length":12,"data":"mailto:hr@srvhub.ru"}],"date":"2020-06-30T08:39:05+00:00","link":"tg://resolve?domain=jvmjobs&post=1687","tags":[{"name":"java"},{"name":"jvm"},{"name":"spring"},{"name":"jackson"},{"name":"junit"},{"name":"gradle"},{"name":"docker"},{"name":"jenkins"},{"name":"kubernetes"},{"name":"postgresql"},{"name":"rabbitmq"},{"name":"sql"},{"name":"web"},{"name":"spring-boot"}],"cities":[{"code":"vladimir"}],"allowsRemote":true}},{"node":{"__typename":"Job","id":"362807296-1001352129329","title":"Golang разработчик","text":"Ребят, всем привет! \nПостараюсь кратко, подробности в ЛС. Заранее напишу, что это Москва (фултайм/офис), компания Lofty. Ищем в команду как Midle так и Senior Go разработчиков.\nВообщем если хочется в highload, добро пожаловать!)\n\nО проекте:\nЭто высоконагруженное backend приложение для рассылки web push-уведомлений, обслуживающее на данный момент более 100млн показов в сутки. \nЧем у нас предстоит заниматься:\nПрофилировать и оптимизировать существующие сервисы;\nПроводить доработки и интеграцию их в действующий код и инфраструктуру;\nРеализовывать новые бизнес-требования внутри сервиса;\nУстранять возникающие баги в сервисе.\n\nЧто мы ждем от кандидата:\nНавыки работы с Git;\nУверенное знание Golang;\nПонимание технологий HTTP, REST;\nОпыт работы в Unix-окружении.\n\nБудет совсем круто, если вы:\nРаботали с highload-проектами;\nПонимаете и уважаете концепцию CI/CD.\nНаш стек технологий: Golang, Gitlab, MySQL, JS, RabbitMQ, Docker, Ansible, Clickhouse\n\nУсловия: \nЗаработная плата от 130 000 до 300 000 руб. на руки, естественно зависит от уровня, преимущественно смотрим \"мидов\", но и \"джуны\" нам тоже интересны.\n\nНаш сайт: `https://www.lofty.today/\n#вакансия#golang","markup":[{"type":"link","offset":1122,"length":24,"data":"https://www.lofty.today/"}],"date":"2020-06-30T08:24:57+00:00","link":"tg://resolve?domain=gogetajobfeed&post=346","tags":[{"name":"go"},{"name":"web"},{"name":"git"},{"name":"rest"},{"name":"unix"},{"name":"gitlab"},{"name":"mysql"},{"name":"rabbitmq"},{"name":"docker"},{"name":"ansible"}],"cities":[{"code":"moscow"}],"allowsRemote":false}}]}}},"context":{}}