{"hash":"f34fd2c444a074f4e0e67d525015a008ef8e766f","data":{"records":{"totalCount":178,"pageInfo":{"totalPages":18,"currentPage":7},"edges":[{"node":{"id":"66249031680-1001054966032","title":"Android разработчик","text":"#вакансия #vacancies #Androiddeveloper #Android\nВ веб студию ONEWEB на удаленную работу требуется Android разработчик с опытом работы не менее 1 года и минимум 5-6 приложениями в портфолио.\n\nГород и адрес офиса: Узбекистан, Ташкент\nФормат работы: удаленка\nЗанятость: проектная \nЗП:  от 700 до 900$\n\nТребования:\n- Опыт разработки программного обеспечения под мобильные платформы IOS (3.0-10.0), Android\n- Знание основных языков программирования\n- Опыт разработки от 1 года и наличие завершенных проектов (готовность их продемонстрировать) \n\nОбязанности:\n- Разработка мобильных приложений под IOS, Android\n- Разработка графических интерфейсов по готовому макету\n- Уверенное знание русского языка\n\nАккуратность, усидчивость, умение учиться на своих и чужих ошибках\n\n• Высокая, постоянно растущая и своевременная заработная плата от 700$\n• График работы - с 9.00 до 18.00\n• Удаленная работа\n\nОстальные подробности при собеседовании\nОтправляйте свое резюме в телеграмм @onewebuz или +99897 8441122 Дмитрий","markup":[{"type":"hashtag","offset":0,"length":9,"data":"вакансия"},{"type":"hashtag","offset":10,"length":10,"data":"vacancies"},{"type":"hashtag","offset":21,"length":17,"data":"Androiddeveloper"},{"type":"hashtag","offset":39,"length":8,"data":"Android"},{"type":"handle","offset":964,"length":9,"data":"onewebuz"},{"type":"link","offset":978,"length":14,"data":"tel:+99897 8441122"}],"date":"2020-04-08T11:00:35+00:00","link":"tg://resolve?domain=mobile_jobs&post=0","tags":[{"name":"mobile"},{"name":"android"},{"name":"ios"}],"cities":[{"code":"tashkent"}],"allowsRemote":true}},{"node":{"id":"1428160512-1001091028994","title":"Java разработчик","text":"Вакансия: Team Lead Java\n\nПроект: Сервисная шина предприятия (ESB) — связующее программное обеспечение, обеспечивающее централизованный и унифицированный событийно-ориентированный обмен сообщениями между различными информационными системами на принципах микросервисной архитектуры.\n\nТехнологический стек на проекте: core Java 12, Spring Framework, Kafka.\n\nФункционал на проекте:\n\n- Управление процессом разработки внутренней интеграционной платформы и компонентов, постановка задач, контроль исполнения;\n- Проектирование и реализация компонентов: адаптеры получения данных, компоненты сервера приложений, веб сервисы;\n- Реализация интеграционных сценариев и бизнес процессов (BPMS);\n- Проектирование и разработка интерфейсов взаимодействия с системами и сервисами;\n- Написание автоматических модульных тестов (Unit tests);\n- Ведение неформальной технической документации в confluence.\n\nДля этого важно:\n\nОпыт работы Team Lead от 2 лет;\nУверенное знание Core Java: collections, многопоточность;\nОпыт разработки веб-сервисов (REST, HTTP);\nОпыт работы с системами обмена сообщениями (JMS);\nЗнание паттернов проектирования ПО;\nОпыт работы с ESB.\n\nМы предлагаем:\n- Локация офиса: г. Москва, м. Арбатская/Библиотека им. Ленина/Боровицкая/Александровский сад;\n- Занятость: пока полная занятость, официальное оформление в штат Компании (пока работает удаленно из дома, выйдем в офис многое поменяется);\n- ДМС: с первого рабочего дня;\n- Формат работы: современный  офис возле кремля в шаговой доступности от метро (сейчас работаем из дома, возможно, после выхода в офисе многое поменяется);\n- Компания: ПАО Московская биржа (Компания входящая в 500 - лучших работодателей мира по версии Forbes за 2019 год);\n- Уровень з/п:  250- 350 тыс.руб. + годовой бонус;\n- Формат интервью: 1-2 этапа интервью по Skype (60 минут). \n\n\nПишите в личку, отвечу на любые вопросы!\nКонтакты: @Sasha_P92","markup":[{"type":"bold","offset":0,"length":24,"data":""},{"type":"bold","offset":26,"length":8,"data":""},{"type":"bold","offset":283,"length":32,"data":""},{"type":"bold","offset":356,"length":22,"data":""},{"type":"bold","offset":886,"length":17,"data":""},{"type":"bold","offset":1143,"length":15,"data":""},{"type":"bold","offset":1853,"length":9,"data":""},{"type":"handle","offset":1863,"length":10,"data":"Sasha_P92"}],"date":"2020-04-08T10:40:54+00:00","link":"tg://resolve?domain=jvmjobs&post=1362","tags":[{"name":"java"},{"name":"jvm"},{"name":"spring"},{"name":"kafka"},{"name":"rest"}],"cities":[{"code":"moscow"}],"allowsRemote":true}},{"node":{"id":"66245885952-1001054966032","title":"Ios разработчик","text":"#вакансия #iOS #москва #офис #fulltime #swift \n\nКомпания: \"Доктор на работе\" - социальная сеть для врачей. Самая стабильная отрасль сейчас:  Фарма+ Digital.\nМесто работы: Сейчас удалёнка, потом Москва, м. Новослободская, 3 минуты от метро\nЗП:  от 200к до 240к рублей на руки, белая\n\nИщем еще одного iOS разработчика.  \n\n🤟Особенности: новый проект, без легаси. Технологии: Swift, MVVM, Alamofire, Codable, Realm, RxSwift, SignalR, WebSockets.\n\n🔥Задача: создание новой Ленты врача с нуля, доработка существующего мессенджера для наших пользователей.\n\n🔥 Условия:\n* зп от 200к до 240к рублей на руки, белая;\n* сейчас работаем из дома, потом в офисе, ст. м. Новослободская, 3 м. от метро. \n\n\n👉Вакансию можно посмотреть здесь: https://dev.doktornarabote.ru/ios\n👉 Отклики ждем здесь:  hr@doktornarabote.ru или в Telegram: @KseniaRyakhovskaya","markup":[{"type":"hashtag","offset":0,"length":9,"data":"вакансия"},{"type":"hashtag","offset":10,"length":4,"data":"iOS"},{"type":"hashtag","offset":15,"length":7,"data":"москва"},{"type":"hashtag","offset":23,"length":5,"data":"офис"},{"type":"hashtag","offset":29,"length":9,"data":"fulltime"},{"type":"hashtag","offset":39,"length":6,"data":"swift"},{"type":"bold","offset":299,"length":16,"data":""},{"type":"bold","offset":565,"length":40,"data":""},{"type":"link","offset":725,"length":33,"data":"https://dev.doktornarabote.ru/ios"},{"type":"link","offset":783,"length":20,"data":"mailto:hr@doktornarabote.ru"},{"type":"handle","offset":820,"length":19,"data":"KseniaRyakhovskaya"}],"date":"2020-04-08T10:37:59+00:00","link":"tg://resolve?domain=mobile_jobs&post=0","tags":[{"name":"mobile"},{"name":"ios"},{"name":"swift"},{"name":"mvvm"},{"name":"realm"},{"name":"signalr"}],"cities":[{"code":"moscow"}],"allowsRemote":true}},{"node":{"id":"1987051520-1001134745498","title":"Devops инженер","text":"#вакансия #DevOps #Москва\nMiddle DevOps\nФормат работы: офис\\удаленно, Занятость: полная\nКомпания: SnegirSoft - вендор ITSM-платформы «4it».\nРазрабатываем и поддерживаем платформу для управления it-процессами больших компаний.\n\nЗадачи:\n⚙️Развитие и поддержка инфраструктуры;\n⚙️Автоматизация сборки и доставки кода;\n⚙️Поддержка разработчиков;\n⚙️Анализ и устранение инцидентов на продуктовых контурах;\n⚙️Обеспечение работоспособности и отказоустойчивости сервисов;\n⚙️Внедрение новых инструментов администрирования;\n\nНаши хотелки:\n🛠Системы контроля версий Git (Bitbucket, Gitlab);\n🛠Управление конфигурациями (Ansible);\n🛠CI\\CD: Teamcity \\ Gitlab \\ Jenkins;\n🛠Опыт администрирования Windows, IIS;\n🛠Умение хорошо писать на Powershell;\n🛠Cистемы мониторинга (Zabbix \\ Prometheus);\n🛠ELK – стек (Elasticsearch, Kibana);\n🛠Сообщения, очереди: RabbitMQ, Kafka;\nБудет круто если:\n🛠Опыт администрирования Apache \\ Nginx;\n🛠Опыт администрирования Linux;\n🛠Контейнеризация (Docker);\n🛠Умение писать SQL-запросы, понимание принципов работы СУБД;\n🛠Опыт работы с монолитными и микросервисными архитектурами;\n🛠Навыки написание скриптов на bash;\n\nПредлагаем:\n🏢м. Нововкузнецкая 3(!) мин. пешком,\n🚑  ДМС (почти all inclusive)\n💰  Доход: 140 000 – 180 000 нетт\n⏰Начало дня гибко с 9-10-11, как договоримся.\n🖥ПК: i7 8-gen, 24Gb, SSD 512Gb, 2 хороших монитора.\n🚀  Стэк актуальный: .Net Core, Angular, Elasticsearch, RabbitMQ, MS SQL->Postgres, Almost SCRUM ^)\nКонтакты: @aastaf  a.astafev@snegirsoft.com\n\n—\n\n👉 Обсуждение вакансии в чате @devops_jobs","markup":[{"type":"hashtag","offset":0,"length":9,"data":"вакансия"},{"type":"hashtag","offset":10,"length":7,"data":"DevOps"},{"type":"hashtag","offset":18,"length":7,"data":"Москва"},{"type":"handle","offset":1457,"length":7,"data":"aastaf"},{"type":"link","offset":1466,"length":24,"data":"mailto:a.astafev@snegirsoft.com"},{"type":"handle","offset":1525,"length":12,"data":"devops_jobs"}],"date":"2020-04-08T10:14:42+00:00","link":"tg://resolve?domain=devops_jobs_feed&post=1895","tags":[{"name":"git"},{"name":"gitlab"},{"name":"ansible"},{"name":"jenkins"},{"name":"windows"},{"name":"iis"},{"name":"powershell"},{"name":"elasticsearch"},{"name":"rabbitmq"},{"name":"kafka"},{"name":"apache"},{"name":"nginx"},{"name":"linux"},{"name":"docker"},{"name":"sql"},{"name":"bash"},{"name":"dotnet"},{"name":"angularjs"},{"name":"postgresql"},{"name":"net-core"}],"cities":[{"code":"moscow"}],"allowsRemote":true}},{"node":{"id":"66238545920-1001054966032","title":"Android разработчик","text":"‼️Вакансия Senior Android⁢ Developer‼️\n#android #developer #vacancy\nВ команде Mycelium Wallet (mycelium.com) открыта #вакансия Senior Android⁢ Developer.\n💵З/П 3500-4000 USD по итогам собеседования.\nРабота удаленная 💻\n\nМы предлагаем:\n🔸Получить навыки и компетенции в одном из самых передовых и перспективных направлений финтех индустрии - blockchain;\n🔸Принять участие в разработке одного из самых популярных биткоин-кошельков в Google Play Store;\n🔸Работать в международной команде бок о бок с ведущими специалистами в индустрии;\n🔸Возможность профессионального карьерного роста и участия в разнообразных проектах компании.\n\nЧем предстоит заниматься:\n🔹Разрабатывать новые и развивать существующие мобильные сервисы компании на платформе Android;\n🔹Проектировать и разрабатывать большие функциональные части приложения с привлечением других программистов;\n🔹Использовать cutting edge технологии, а также проверенные временем решения.\n\nТребования:\n✔️Как минимум 3 года опыта разработки на Android;\n✔️Знание Java/Kotlin на уровне ведущего разработчика;\n✔️Знание шаблонов проектирования, опыт использования MVP и других архитектурных подходов;\n✔️Опыт параллельного и многопоточного программирования;\n✔️Понимание циклов работы Android-приложения и управления памятью;\n✔️Опыт разработки пользовательских интерфейсов на платформе Android. \n✔️Знание Android Design Principles;\n✔️Знание и умение использовать различные механизмы взаимодействий между приложениями, предоставляемые в рамках Android SDK;\n✔️Понимание принципов работы REST API, WS, RPC и клиент-серверных приложений;\n✔️Знание английского языка на уровне чтения документации и умения общаться в корпоративном чате.\n\nПлюсом будет:\n➕Умение и понимание необходимости написания Unit tests;\n➕Знание основ криптографии;\n➕Опыт работы с bitcoin/etherium blockchain stack;\n➕Наличие своих проектов на Github, в Google Play и т.д.\n\n📲Контакт: @valeritata","markup":[{"type":"hashtag","offset":39,"length":8,"data":"android"},{"type":"hashtag","offset":48,"length":10,"data":"developer"},{"type":"hashtag","offset":59,"length":8,"data":"vacancy"},{"type":"link","offset":95,"length":12,"data":"http://mycelium.com"},{"type":"hashtag","offset":117,"length":9,"data":"вакансия"},{"type":"handle","offset":1889,"length":11,"data":"valeritata"}],"date":"2020-04-08T09:56:13+00:00","link":"tg://resolve?domain=mobile_jobs&post=0","tags":[{"name":"mobile"},{"name":"android"},{"name":"playframework"},{"name":"java"},{"name":"kotlin"},{"name":"rest"},{"name":"github"}],"cities":[],"allowsRemote":true}},{"node":{"id":"1986002944-1001134745498","title":"Devops engineer","text":"#вакансия #Казань #офис #Linux  #DevOps\n🌎Город и адрес офиса: Казань, м. Суконная Слобода, ул. Спартаковская д. 6 \n🏙Формат работы: офис (на время карантина удаленно)\n🕗Занятость: полная\n💰Зарплатная вилка: от 150 000 до 250 000 рублей gross\n\nОписание вакансии: \nПолная занятость, гибкий график\n\nStream – дочерняя компания ПАО МТС, задача которой – вывести мобильную и веб-разработку холдинга на новый уровень.\nИщем Lead DevOps engineer, который:\n- не боится новых технологий, но и не забывает старые (уметь руками поднять и настроить);\n- выбирает решения и стек исходя из требований и эффективности;\n- готов быть наставником для менее опытных ребят (наставничество, менторство);\n- возглавит группу DevOps (в первые месяцы 2-3 человека, в будущем будет больше);\n- сможет курировать много проектов и распределять задачи между членами команд (потребуются навыки планирования, оценки задач и общения с внутренними заказчиками – техлидами проектов);\n- готов быть на связи в экстренных случаях в любое время.\nНаша цель – развивать лучшие DevOps практики и наращивать экспертизу в компании.\n\nНаш стек достаточно разнообразен, не обязательно быть экспертом во всем, но если вдруг есть хороший опыт с чем-то из этого списка: Kubernates, Kafka, Bamboo, Jenkins, Ansible, Prometheus, Postgres, vmware, то будет плюсом.\n\n🍩🍭Мы предлагаем:\n- оформление по ТК РФ, гибкий график работы;\n- \"Белая\" заработная плата + полугодовые бонусы;\n- ДМС со стоматологией, страхование жизни после испытательного срока;\n- обучение и посещение профильных конференций;\n- корпоративная мобильная связь;\n- просторный офис в центре Казани.\nНазвание компании: Stream https://stream.ru/\nКонтакты: @askamasaska\n\n—\n\n👉 Обсуждение вакансии в чате @devops_jobs","markup":[{"type":"hashtag","offset":0,"length":9,"data":"вакансия"},{"type":"hashtag","offset":10,"length":7,"data":"Казань"},{"type":"hashtag","offset":18,"length":5,"data":"офис"},{"type":"hashtag","offset":24,"length":6,"data":"Linux"},{"type":"hashtag","offset":32,"length":7,"data":"DevOps"},{"type":"link","offset":1635,"length":18,"data":"https://stream.ru/"},{"type":"handle","offset":1664,"length":12,"data":"askamasaska"},{"type":"handle","offset":1711,"length":12,"data":"devops_jobs"}],"date":"2020-04-08T09:52:24+00:00","link":"tg://resolve?domain=devops_jobs_feed&post=1894","tags":[{"name":"linux"},{"name":"kafka"},{"name":"jenkins"},{"name":"ansible"},{"name":"postgresql"}],"cities":[{"code":"kazan"}],"allowsRemote":true}},{"node":{"id":"1984954368-1001134745498","title":"Devops инженер","text":"#вакансия #DevOps #docker #удалёнка\nГород: офис – Ростов-на-Дону, Ульяновск, распределенная команда\nФормат работы: удалённая \nЗанятость: полная, гибкий график\nЗарплатная вилка: от 100 000 до 120 000 р\nОписание вакансии:\nНаложка.рф – интернет сервис безопасных сделок . Мы призваны помочь незнакомым людям и молодым интернет-магазинам без опаски торговать товарами и оказывать услуги дистанционно.\nМы внедряем микросервисную архитектуру, заменяющую монолитное приложение. Используем контейнеризацию сервисов в Docker (Docker Swarm Mode оркестрацию, но не исключаем переход на Kubernetes). Сервера работают под управлением ОС Ubuntu Linux. Для сбора логов используем ElasticSearch+Fluentd+Kibana. Программный код микросервисов пишем на PHP7 и NodeJS. В качестве хранилищ данных - MySQL и Redis. В качестве механизма распространения событий и очередей задач используем RabbitMQ. HTTP-запросы принимаем через Nginx. Конфигурацию Docker Swarm пишем в формате Docker Compose, а скрипты автоматизации – на Bash. Код хостим в BitBucket, там же проводим code review. Сборки и деплоймент делаем при помощи Jenkins. Задачи ведем в JetBrains Youtrack. Для внутрикомандного взаимодействия используем Skype.\nИщем инициативного, привычного к командной работе специалиста для дистанционной работы (мы – географически распределенная команда), готового взять на себя ответственность за бесперебойную работу сервисов и контроль над развитием серверной архитектуры. У нас есть что улучшать и в процессах и в инструментах, и мы ждем от кандидата готовности вникнуть в потребности и предлагать улучшения.\nПомимо Наложка.рф, под нашим контролем находится несколько сайтов на CMS (LAMP стек), которые также необходимо поддерживать.\nВажные качества:\n• Критический взгляд с прицелом на улучшение имеющейся инфраструктуры (гипотеза, эксперимент, вывод);\n• Умение делать наглядными прогресс выполнения задач и результаты;\n• Малое время отклика (не можешь отреагировать сам, передай кому-то);\n• Умение объяснить свое решение;\n• Уважительное отношение к коллегам.\nОбязанности:\n• Поддержка системы мониторинга потребления ресурсов и живучести микросервисов. Определение новых метрик и нотификаций;\n• Поддержка системы непрерывной интеграции. Конфигурирование новых сборок совместно с разработчиками;\n• Поддержка конфигурации имеющихся микросервисов и развертывание новых;\n• Контроль работоспособности микросервисов и системы в целом;\n• Организация системных обновлений и обновления инструментов командной работы;\n• Совершенствование механизмов резервного копирования и восстановления;\n• Анализ проблем в production и staging окружениях. Поиск решений этих проблем совместно с разработчиками.\nМинимальные требования:\n• Прочные навыки работы с Linux;\n• Понимание принципов работы сетей, знание сетевых протоколов;\n• Понимание принципов контейнеризации приложений;\n• Знание возможностей Docker. Разнообразный опыт сборки образов. Опыт работы с Docker (swarm/kubernetes) в production;\n• Опыт мониторинга микросервисной системы;\n• Представления о рисках безопасности и возможных атаках на инфраструктуру приложений;\n• Умение читать и составлять скрипты автоматизации на Bash;\n• Чтение простых SQL запросов.\nЖелательные требования:\n• Понимание особенностей Swarm режима в Docker. Опыт работы со Swarm;\n• Опыт работы с Kubernetes. Понимание плюсов и минусов в сравнении со Swarm;\n• Опыт настройки и поддержки кластеров MySQL и Redis серверов;\n• Работа с MySQL на уровне, достаточном для выяснения причин ошибок выполнения запросов, а также причин медленной работы запросов;\n• Опыт отражения атак на инфраструктуру приложения;\n• Опыт проведения нагрузочного тестирования.\nЧто мы предлагаем:\n• Дистанционную работу с гибким графиком;\n• Трудоустройство согласно ТК РФ;\n• Взаимоотношения, построенные на честности и уважении.\nhttps://spb.hh.ru/vacancy/36523783\nКонтакты: @so_vasileva, Светлана Васильева\n\n—\n\n👉 Обсуждение вакансии в чате @devops_jobs","markup":[{"type":"hashtag","offset":0,"length":9,"data":"вакансия"},{"type":"hashtag","offset":10,"length":7,"data":"DevOps"},{"type":"hashtag","offset":18,"length":7,"data":"docker"},{"type":"hashtag","offset":26,"length":9,"data":"удалёнка"},{"type":"link","offset":220,"length":10,"data":"http://Наложка.рф"},{"type":"link","offset":1590,"length":10,"data":"http://Наложка.рф"},{"type":"link","offset":3784,"length":34,"data":"https://spb.hh.ru/vacancy/36523783"},{"type":"handle","offset":3829,"length":12,"data":"so_vasileva"},{"type":"handle","offset":3896,"length":12,"data":"devops_jobs"}],"date":"2020-04-08T09:52:00+00:00","link":"tg://resolve?domain=devops_jobs_feed&post=1893","tags":[{"name":"docker"},{"name":"kubernetes"},{"name":"ubuntu"},{"name":"linux"},{"name":"elasticsearch"},{"name":"php"},{"name":"nodejs"},{"name":"mysql"},{"name":"redis"},{"name":"rabbitmq"},{"name":"nginx"},{"name":"bash"},{"name":"jenkins"},{"name":"sql"},{"name":"docker-compose"}],"cities":[{"code":"rostov"},{"code":"ulyanovsk"}],"allowsRemote":true}},{"node":{"id":"66235400192-1001054966032","title":"Android разработчик","text":"#вакансия #android #job #java #Developer #удаленка #Kotlin\nГород и адрес офиса: Москва/Брянск\nФормат работы: удаленный вид работы\nЗанятость: полная, гибкий график \nЗП:  от 1000 до 1500$\nPENA - аутсорс продакшн №1 в России по версии Теглайна. \nPENA Production - это часть группы компаний Idea-Promotion, ASAP BANNER и PENA Agency.\nИщем в команду middle/senior Android разработчикa.\nИщем самостоятельного разработчика, способного работать в команде.\n✅Требования:\n• знание распределенных систем контроля версий (Git);\n• умение разбираться в чужом коде;\n• опыт программирования на Java от двух лет;\n• опыт разработки Android-приложений от двух лет;\n• уверенное знание платформы Android, API 4.0 и выше;\nСтек: exoplayer, okhttp, dagger2, kotlin, picasso\\glide, gson, material, jobDispatcher, androidx, arch components, social sdks, espresso, junit\nКонтакт: @hr_dariya","markup":[{"type":"hashtag","offset":0,"length":9,"data":"вакансия"},{"type":"hashtag","offset":10,"length":8,"data":"android"},{"type":"hashtag","offset":19,"length":4,"data":"job"},{"type":"hashtag","offset":24,"length":5,"data":"java"},{"type":"hashtag","offset":30,"length":10,"data":"Developer"},{"type":"hashtag","offset":41,"length":9,"data":"удаленка"},{"type":"hashtag","offset":51,"length":7,"data":"Kotlin"},{"type":"handle","offset":852,"length":10,"data":"hr_dariya"}],"date":"2020-04-08T09:37:36+00:00","link":"tg://resolve?domain=mobile_jobs&post=0","tags":[{"name":"mobile"},{"name":"android"},{"name":"java"},{"name":"kotlin"},{"name":"git"},{"name":"junit"}],"cities":[{"code":"moscow"},{"code":"bryansk"}],"allowsRemote":true}},{"node":{"id":"1983905792-1001134745498","title":"Devops engineer","text":"#вакансия #мысоцблок #дитпобедит\nКомпания: ДИТ правительства г. Москва(продукт «Московская электронная школа»)\nСейчас мы ищем в продукт «Московская электронная школа» человека, который готов делать московскую систему образования еще более технологичной.☝️👍🤘\nПозиция: ❗️System Engineer (DevOps)❗️\nЛокация: г. Москва (м. Деловой центр)\nФормат работы: full-time, 1 день доступен для удаленной работы\nЗанятость: полная\nЗаработная плата: 150 000 – 200 000 рублей «на руки» \nСтек:\n👉RHEL\n👉Postgres\n👉Java\n👉Ansible\n👉Jenkins\n👉Zabbix\nЧем предстоит заниматься: \nЭксплуатировать и улучшать с использованием методологии CI/CD  инфраструктуру одного из флагманских продуктов ДИТа - Московская электронная школа(МЭШ).\n\nЧто предлагаем:\n👉Бюджетная организация с полным соблюдением норм ТК РФ\n👉Корпоративная культура современной ИТ-компании\n👉Интересные задачи на социальнозначимом проекте ДИТ\n👉Корпоративные скидки на ДМС, фитнес, английский \n👉Прекрасный офис в Москва-Сити.\n\nКонтакты: @nazar_an; nazarovaaa3@it.mos.ru\n\n—\n\n👉 Обсуждение вакансии в чате @devops_jobs","markup":[{"type":"hashtag","offset":0,"length":9,"data":"вакансия"},{"type":"hashtag","offset":10,"length":10,"data":"мысоцблок"},{"type":"hashtag","offset":21,"length":11,"data":"дитпобедит"},{"type":"handle","offset":980,"length":9,"data":"nazar_an"},{"type":"link","offset":991,"length":21,"data":"mailto:nazarovaaa3@it.mos.ru"},{"type":"handle","offset":1047,"length":12,"data":"devops_jobs"}],"date":"2020-04-08T08:20:06+00:00","link":"tg://resolve?domain=devops_jobs_feed&post=1892","tags":[{"name":"postgresql"},{"name":"java"},{"name":"ansible"},{"name":"jenkins"}],"cities":[{"code":"moscow"}],"allowsRemote":true}},{"node":{"id":"98205433856-1001089317451","title":"Qa инженер","text":"#вакансия #москва #офис #fulltime #middle \n\n🏢Город: Москва, м. Ленинский проспект\n💻Формат: Офис\n💰З/п: до 180k на руки\n\n✌️Ищем тестировщика в команду сопровождения и развития облачной платформы собственной разработки на базе open source продуктов.\n«Лоялти энд Медиа Групп»- это современная облачная платформа - продуктовый маркет-плейс и процессинг лояльности одновременно, заточенная под обработку больших массивов данных и создание продуктов и сервисов карточной лояльности для банков и мерчантов. Компания выступает как enabler и для тех, и для других, для чего реализовано большое количество интеграций с партнерами и клиентами, несколько white-label веб-приложений для клиентов и набор API для онлайн-взаимодействия с приложениями клиентов и партнёров. Стратегический партнёр ЛМГ – Visa International. \n\n📌Задачи: \n • Вам предстоит построить процесс тестирования в компании, фактически с нуля. \n • Участие в разработке правил и стандартов тестирования, поддержание высокого уровня культуры тестирования. \n • Ведение проекта – постоянная готовность предоставить полный и ясный отчет о состоянии проекта, анализ рисков, своевременное реагирование на проблемы. \n • Координация взаимодействия с другими участниками команды. \n • Выполнение всех работ, связанных с тестированием — сбор и анализ требований, разработка тестовой документации всех уровней, планирование, выдача оценок, подготовка тестовых сред и тестовых окружений, проведение циклов тестирования. \n  \n📌Требования: \n • Ясное понимание проектного подхода к работе, знакомство с различными методологиями управления проектами. \n • Опыт работы в тестировании от 2х лет. \n • Уверенные знания теории тестирования. \n • Умение составлять тестовую документацию всех уровней. \n • Английский язык на уровне чтения и написания технической документации. \n • Самостоятельность, высокий уровень личной дисциплины \n  \n📌Желательно: \n • Опыт работысБД (PostgreSQL, PGBouncer, Redis, ElasticSearch, OpenLDAP) \n • Знание техник тестдизайна \n  \n📌Мы предлагаем: \n • Дружную команду и рабочую атмосферу с хорошим балансом творчества и задач. \n • Гибкий график. Возможна удаленная работа из дома по договоренности с командой. \n • Оплачиваемый отпуск и больничный. По предварительной договоренности у вас могут быть выходные дни для особых случаев. \n • Растущий коллектив – на данный момент около 20 человек, из которых половина – разработчики, devops и аналитики. \n • Адекватное руководство. \n • Полное отсутствие бюрократии. \n • Достойный уровень зарплаты. \n • Перспективы профессионального и карьерного роста. Мы убеждены, что компания должна инвестировать в развитие своих сотрудников и поэтому приветствуем посещение конференций, митапов, профессиональные курсы (некоторые из них возможно организовать за счет компании). \n • Офис в Москве, 7 минут от м. «Ленинский Проспект».\n\n✉️Почта: mkoneva@youhired.ru \n❗️Telegram: @nunquam2008\n📞 Телефон: +79210614118","markup":[{"type":"hashtag","offset":0,"length":9,"data":"вакансия"},{"type":"hashtag","offset":10,"length":7,"data":"москва"},{"type":"hashtag","offset":18,"length":5,"data":"офис"},{"type":"hashtag","offset":24,"length":9,"data":"fulltime"},{"type":"hashtag","offset":34,"length":7,"data":"middle"},{"type":"link","offset":2834,"length":19,"data":"mailto:mkoneva@youhired.ru"},{"type":"handle","offset":2867,"length":12,"data":"nunquam2008"},{"type":"link","offset":2892,"length":12,"data":"tel:+79210614118"}],"date":"2020-04-08T07:58:19+00:00","link":"tg://resolve?domain=qa_jobs&post=93656","tags":[{"name":"qa"},{"name":"postgresql"},{"name":"redis"},{"name":"elasticsearch"}],"cities":[{"code":"moscow"}],"allowsRemote":true}}]}},"context":{}}