{"hash":"f5f6bf98bd95e769321482904cbbd488f77922fd","data":{"records":{"id":"mobile","name":"mobile","belongsTo":{"totalCount":307,"pageInfo":{"totalPages":31,"currentPage":26},"edges":[{"node":{"__typename":"Job","id":"103006863360-1001089317451","title":"Qa инженер","text":"🐞🐞🐞#вакансия #QA #Ульяновск #Саранск #Казань #Самара #Уфа #Краснодар #офис #удаленная_работа\n\n🔍Middle QA-специалист🔎\n\n⚡️Компания: Simbirsoft (более 19 лет на рынке, более 700 сотрудников в штате)\n\nОчень ждем тебя, наш будущий коллега и борец за качественное ПО! :)\n\n📌Твои будущие задачи:\n• тестирование ПО (frontend, backend, API);\n• локализация и документирование найденных дефектов;\n• ведение и оптимизация тестовой документации;\n• контроль качества на всех этапах разработки ПО;\n• выстраивание и оптимизация процессов тестирования ПО.\n\n📌Что мы ждем от тебя:\n• наличие опыта от 2 лет в направлениях QA или тестирования ПО;\n• понимание разницы между QA и тестированием ПО;\n• понимание особенностей гибких методологий;\n• уверенное владение техниками тест-дизайна;\n• знание клиент-серверной архитектуры;\n• понимание особенностей тестирования web, mobile и desktop приложений;\n• навык тестирования API;\n• написание запросов SQL;\n• опыт работы с системами контроля версий (git);\n• знание основных команд работы с консолью (Windows/Linux).\n\n📌Что мы предлагаем:\n• Полностью белая ЗП два раза в месяц;\n• Оформление по ТК РФ;\n• Высокий уровень экспертности внутри компании, которым мы делимся друг с другом;\n• Перспективы вертикального и горизонтального роста;\n• Работа на российских и международных проектах;\n• Оборудованное рабочее место и парк тестовых устройств;\n• Подготовка и прохождение сертификации ISTQB бесплатно;\n• Внутренние и внешние курсы, доклады, конференции;\n• Бесплатные чай, кофе, печеньки в офисе;\n• Корпоративная спортивная программа (оплата тематических секций, частичная компенсация абонемента);\n• Проведение летних и зимних корпоративов, дня именинника, совместные походы и т.д.\n\n📌Зарплата:\n• от 50 000 (Договорная, по итогу собеседования)\n\n☎️Контакты: @nataly_max","markup":[{"type":"hashtag","offset":6,"length":9,"data":"вакансия"},{"type":"hashtag","offset":16,"length":3,"data":"QA"},{"type":"hashtag","offset":20,"length":10,"data":"Ульяновск"},{"type":"hashtag","offset":31,"length":8,"data":"Саранск"},{"type":"hashtag","offset":40,"length":7,"data":"Казань"},{"type":"hashtag","offset":48,"length":7,"data":"Самара"},{"type":"hashtag","offset":56,"length":4,"data":"Уфа"},{"type":"hashtag","offset":61,"length":10,"data":"Краснодар"},{"type":"hashtag","offset":72,"length":5,"data":"офис"},{"type":"hashtag","offset":78,"length":17,"data":"удаленная_работа"},{"type":"handle","offset":1779,"length":11,"data":"nataly_max"}],"date":"2020-06-17T05:07:15+00:00","link":"tg://resolve?domain=qa_jobs&post=0","tags":[{"name":"qa"},{"name":"web"},{"name":"mobile"},{"name":"sql"},{"name":"git"},{"name":"windows"},{"name":"linux"}],"cities":[{"code":"ulyanovsk"},{"code":"saransk"},{"code":"kazan"},{"code":"samara"},{"code":"ufa"},{"code":"krasnodar"}],"allowsRemote":true}},{"node":{"__typename":"Job","id":"71427948544-1001054966032","title":"Ios разработчик","text":"#вакансия #ios\n\nГород и адрес офиса: Сочи\nПолитехническая 62/1\n\nФормат работы: удаленка\n\nЗанятость: полная\n\nЗарплата: от 80 000 до 150 000 ₽ в месяц\n\nПриложение для строителей 101 GROUP\n\nТребования:\n— Опыт мобильной разработки не менее 3 лет;\n— Работа в команде;\n— Страсть к UX и UI;\n— Опыт design reviews, code reviews, и pair programming; \n— Четкая коммуникация.\n— Опыт удаленной работы.\n\nНазвание компании: 101 GROUP\nКонтакт: +79882372101\nsochi@101-group.ru","markup":[{"type":"hashtag","offset":0,"length":9,"data":"вакансия"},{"type":"hashtag","offset":10,"length":4,"data":"ios"},{"type":"link","offset":429,"length":12,"data":"tel:+79882372101"},{"type":"link","offset":442,"length":18,"data":"mailto:sochi@101-group.ru"}],"date":"2020-06-16T19:46:15+00:00","link":"tg://resolve?domain=mobile_jobs&post=0","tags":[{"name":"mobile"},{"name":"ios"}],"cities":[{"code":"sochi"}],"allowsRemote":true}},{"node":{"__typename":"Job","id":"71425851392-1001054966032","title":"Android developer","text":"#вакансия #Juniorandroid #Android developer #kotlin #удаленно                                                                                                         Уровень дохода:💵 50 000-60 000  рублей net                                                                                                                                                                                 Требуемый опыт работы: от 1 года\nПолная занятость, дистанционно, гибкое начало рабочего дня\n \n📌Требования:\n- Нативная Android разработка (Kotlin)\n- Умение писать поддерживаемый и тестируемый код\n- Умение работать с Dagger 2\n- Умение работать с git\n- Желание развиваться и изучать новое в разработке\n- Опыт разработки приложений от 1 года\n -Знание английского языка от уровня Intermediate\n \n📌Будет плюсом:\n- Опыт работы с JNI\n- Опыт использования tensorflow\n- Опыт работы с аудио и видео\n\n📌Условия:\n- Отсутствие бюрократии\n- Время начала рабочего дня обговариваем индивидуально\n- Крутой инновационный проект - возможность самореализации и профессионального роста\n- Стабильное зарубежное финансирование\n- Десятки миллионов установок и множество глобальных партнёров\n📞Контакты @SvetikS_hr +7(963)-632-12-36 Cветлана","markup":[{"type":"hashtag","offset":0,"length":9,"data":"вакансия"},{"type":"hashtag","offset":10,"length":14,"data":"Juniorandroid"},{"type":"hashtag","offset":25,"length":8,"data":"Android"},{"type":"hashtag","offset":44,"length":7,"data":"kotlin"},{"type":"hashtag","offset":52,"length":9,"data":"удаленно"},{"type":"link","offset":184,"length":13,"data":"tel:50 000-60 000"},{"type":"handle","offset":1164,"length":11,"data":"SvetikS_hr"},{"type":"link","offset":1176,"length":17,"data":"tel:+7(963)-632-12-36"}],"date":"2020-06-16T18:45:45+00:00","link":"tg://resolve?domain=mobile_jobs&post=0","tags":[{"name":"mobile"},{"name":"android"},{"name":"kotlin"},{"name":"dotnet"},{"name":"git"},{"name":"tensorflow"}],"cities":[],"allowsRemote":true}},{"node":{"__typename":"Job","id":"71420608512-1001054966032","title":"Ios разработчик","text":"#вакансия #iOS #москва\n\nНа проект от крупного российского банка требуется Middle iOS разработчик\n\nФормат: офис\n\nВилка ЗП: 150-180К\n\nЛокация: Москва\n\nТребования:\nОпыт разработки под IOS (Objective-C или Swift) от 2 лет\nУверенное знание iOS SDK, Xcode\nОпыт использования одной из архитектур: MVP, MVVM, VIPER\nЗнание особенностей: Collections, Optionals, Protocol Oriented, Generics\nПонимание, как происходит управление памятью в iOS\nПонимание принципов проектирования SOLID и желание придерживаться их\nНаличие опыта работы с REST API, HTTP, JSON, APNs\nОпыт работы с Git, знание git flow\nЖелательно уметь писать UI тесты\nЖелателен опыт в команде\n\nКонтакт: @mxm_at","markup":[{"type":"hashtag","offset":0,"length":9,"data":"вакансия"},{"type":"hashtag","offset":10,"length":4,"data":"iOS"},{"type":"hashtag","offset":15,"length":7,"data":"москва"},{"type":"handle","offset":653,"length":7,"data":"mxm_at"}],"date":"2020-06-16T17:18:18+00:00","link":"tg://resolve?domain=mobile_jobs&post=0","tags":[{"name":"mobile"},{"name":"ios"},{"name":"objective-c"},{"name":"swift"},{"name":"xcode"},{"name":"mvvm"},{"name":"rest"},{"name":"json"},{"name":"git"}],"cities":[{"code":"moscow"}],"allowsRemote":false}},{"node":{"__typename":"Job","id":"71418511360-1001054966032","title":"Ios разработчик","text":"💪#вакансия #удалёнка #iOS #fulltime  #Middle+/#Senior    \n💵З/П 2200-2400 $/месяц по итогам собеседования\nРабота: удалёнка\n\nЧеловек в среднем больше сотни раз взаимодействует с клавиатурой своего мобильного устройства. Для большинства пользователей нашего приложения мы делаем этот процесс  интереснее и выгодней. Мы также оцениваем эмоциональное состояние пользователя, в процессе его взаимодействия с клавиатурой. Руководство компании из топ-менеджмента крупнейших глобальных игроков мобильного рынка. В данный момент открыта вакансия Middle+/Senior IOS разработчика, в подчинении 2 сотрудника                                                                                                               \n\n📌Обязанности:\n- Разработка кастомной клавиатуры iOS\n- Подключение ML-алгоритмов (TensorFlow) распознавания эмоций к iOS-клавиатуре\n- Разработка кода обработки данных камеры, микрофона\n\n📌Требования:\n- Уверенное знание Swift;\n- Хорошее знание платформы iOS, инструментов разработки, работы UI;\n- Опыт работы с REST API, HTTP, JSON, APNs;\n- Знакомство с библиотеками CoreData, AVFoundation, CoreML и CreateML\n- Желание развиваться и развивать свои знания            \n-Знание английского на уровне от Intermediate желательно                                                                                                               \n\n📌Будет плюсом:\n- Опыт работы c TensorFlow на iOS\n- Опыт работы с OpenCV на iOS\n- Опыт работы с фреймворком SwiftUI\n\n📌Условия:\n- Отсутствие бюрократии\n- Время начала рабочего дня обговариваем индивидуально\n- Come to the Dark Side, we have тёплая ламповая атмосфера стартапа, чай, кофе и печеньки!\n- Крутой инновационный проект - возможность самореализации и профессионального роста\n- Стабильное зарубежное финансирование\n- Десятки миллионов установок и множество глобальных партнёров\n📞 Контакты @SvetikS_hr +7(963)-632-12-36 Cветлана","markup":[{"type":"hashtag","offset":2,"length":9,"data":"вакансия"},{"type":"hashtag","offset":12,"length":9,"data":"удалёнка"},{"type":"hashtag","offset":22,"length":4,"data":"iOS"},{"type":"hashtag","offset":27,"length":9,"data":"fulltime"},{"type":"hashtag","offset":38,"length":7,"data":"Middle"},{"type":"hashtag","offset":47,"length":7,"data":"Senior"},{"type":"handle","offset":1841,"length":11,"data":"SvetikS_hr"},{"type":"link","offset":1853,"length":17,"data":"tel:+7(963)-632-12-36"}],"date":"2020-06-16T16:45:08+00:00","link":"tg://resolve?domain=mobile_jobs&post=0","tags":[{"name":"mobile"},{"name":"ios"},{"name":"tensorflow"},{"name":"swift"},{"name":"rest"},{"name":"json"},{"name":"opencv"}],"cities":[],"allowsRemote":true}},{"node":{"__typename":"Job","id":"71417462784-1001054966032","title":"Mobile разработчик","text":"#вакансия #удаленка #полная #react #reactnative\n\nНазвание компании: Appello www.appello.com.au\nОписание вакансии: Привет!\nИщем в команду ReactJS/React Native разработчиков. Удаленно, на долгий срок.\n\nТребования:\nОпыт минимум 2 года с реактом и хотя бы одно приложение сделанное на React Native.\nЖелательно знание других JS фреймворков (Angular, Vue)\n\nУсловия работы: \nУдаленно, фуллтайм 30-40 часов в неделю.\nРабота происходит с таймтрекером. Выплаты происходят на основе отработанного времени 2 раза в месяц.\nТехнологии: #react, #reactnative, #reactjs\nОфис или удаленка: #удаленка\nАдрес офиса: Sydney\nЗанятость: #полная\nЗарплатная вилка: от 110000 до 190000 рублей\n\nКонтакты: jobs@appello.com.au, @stpa3k","markup":[{"type":"hashtag","offset":0,"length":9,"data":"вакансия"},{"type":"hashtag","offset":10,"length":9,"data":"удаленка"},{"type":"hashtag","offset":20,"length":7,"data":"полная"},{"type":"hashtag","offset":28,"length":6,"data":"react"},{"type":"hashtag","offset":35,"length":12,"data":"reactnative"},{"type":"link","offset":76,"length":18,"data":"http://www.appello.com.au"},{"type":"hashtag","offset":522,"length":6,"data":"react"},{"type":"hashtag","offset":530,"length":12,"data":"reactnative"},{"type":"hashtag","offset":544,"length":8,"data":"reactjs"},{"type":"hashtag","offset":572,"length":9,"data":"удаленка"},{"type":"hashtag","offset":613,"length":7,"data":"полная"},{"type":"link","offset":677,"length":19,"data":"mailto:jobs@appello.com.au"},{"type":"handle","offset":698,"length":7,"data":"stpa3k"}],"date":"2020-06-16T15:52:50+00:00","link":"tg://resolve?domain=mobile_jobs&post=0","tags":[{"name":"mobile"},{"name":"reactjs"},{"name":"angularjs"},{"name":"vuejs"},{"name":"react-native"}],"cities":[{"code":"sydney"}],"allowsRemote":true}},{"node":{"__typename":"Job","id":"71412219904-1001054966032","title":"Ios developer","text":"#УДАЛЕНКА #вакансия #Москва #reactnative #senior #iOS #гибкийграфик #GBP  #vacancy #startup #Sweatcoin \n☀️Всем привет! Ищу к нам в команду Senior iOS Developer в #Sweatcoin - №1 in Appstore среди Health&Fitness приложений \nГород Москва, м Чистые пруды/Тургеневская, возможна удаленка \nФормат работы: удаленка/офис, все как вы захотите (вы можете находиться, где угодно, главное быть на связи с 10 до 16 по Лондону) \nЗанятость: полная, гибкий график\n💷Зарплатная вилка: от 180 до 250 K RUR Net, ЗП зафиксированная в фунтах (GBP); Также оплачиваем участие в отраслевых международных конференциях, бывают командировки в Лондон и 3-х месячные вылазки зимой в Португалию всем офисом 🌅 Также в перспективе возможна релокация в Европу \nОписание вакансии: Задачи сложные и интересные, на любой вкус — космический и сложный UI, борьба с батарейкой, GPS/Sensors, защита от фрода и безопасность, ML/AI, аналитика и рост, a/b тестирование, Apple Watch и различные wearables - в общем, разнообразно. Часть проекта реализована на React Native.\n\nОт вас требуется\n* Наличие завершенного приложения, доступного в AppStore\n* Английский не ниже intermediate\n* Опыт коммерческой разработки от 3-ти лет\n* Отличное и глубокое понимание Swift, Objective-C и платформы в целом.\n* Уметь писать поддерживаемый и читабельный код, знать паттерны проектирования\n* Прекрасно владеть git, не бояться rebase, делать code review и пул реквесты\n* Будет большим плюсом, если вы знакомы с React Native или JS, а также участвуете в open-source проектах или помогаете остальным на stackoverflow\n\nНаше приложение уверенно занимает первое место в AppStore и Google Play в категории Health&Fitness в Америке и Англии, а также входит в Top 10 Overall. Количество пользователей постоянно растет (порядка 70 000 загрузок в день, за последний год выросли с 8 млн до 30 млн), сейчас приложением пользуются порядка 30 млн человек в 40 странах. Присоединяйся к глобальному проекту! \nДетали по ссылке: https://sweatco.in/team\nКонтакты: @ElenaZangeeva","markup":[{"type":"hashtag","offset":0,"length":9,"data":"УДАЛЕНКА"},{"type":"hashtag","offset":10,"length":9,"data":"вакансия"},{"type":"hashtag","offset":20,"length":7,"data":"Москва"},{"type":"hashtag","offset":28,"length":12,"data":"reactnative"},{"type":"hashtag","offset":41,"length":7,"data":"senior"},{"type":"hashtag","offset":49,"length":4,"data":"iOS"},{"type":"hashtag","offset":54,"length":13,"data":"гибкийграфик"},{"type":"hashtag","offset":68,"length":4,"data":"GBP"},{"type":"hashtag","offset":74,"length":8,"data":"vacancy"},{"type":"hashtag","offset":83,"length":8,"data":"startup"},{"type":"hashtag","offset":92,"length":10,"data":"Sweatcoin"},{"type":"hashtag","offset":162,"length":10,"data":"Sweatcoin"},{"type":"link","offset":1954,"length":23,"data":"https://sweatco.in/team"},{"type":"handle","offset":1988,"length":14,"data":"ElenaZangeeva"}],"date":"2020-06-16T14:55:34+00:00","link":"tg://resolve?domain=mobile_jobs&post=0","tags":[{"name":"mobile"},{"name":"ios"},{"name":"dotnet"},{"name":"reactjs"},{"name":"swift"},{"name":"objective-c"},{"name":"git"},{"name":"playframework"},{"name":"react-native"}],"cities":[{"code":"moscow"},{"code":"london"}],"allowsRemote":true}},{"node":{"__typename":"Job","id":"71411171328-1001054966032","title":"Android разработчик","text":"‼️Вакансия Senior Android⁢ Developer‼️\n#android #developer #вакансия #удаленка\nВ команде Mycelium Wallet (mycelium.com) открыта #вакансия Senior Android⁢ Developer.\n💵З/П 3000-4000 USD по итогам собеседования.\nРабота удаленная 💻\n\nМы предлагаем:\n🔸Получить навыки и компетенции в одном из самых передовых и перспективных направлений финтех индустрии - blockchain;\n🔸Принять участие в разработке одного из самых популярных биткоин-кошельков в Google Play Store;\n🔸Работать в международной команде бок о бок с ведущими специалистами в индустрии;\n🔸Возможность профессионального карьерного роста и участия в разнообразных проектах компании.\n\nЧем предстоит заниматься:\n🔹Разрабатывать новые и развивать существующие мобильные сервисы компании на платформе Android;\n🔹Проектировать и разрабатывать большие функциональные части приложения с привлечением других программистов;\n🔹Использовать cutting edge технологии, а также проверенные временем решения.\n\nТребования:\n✔️Как минимум 3 года опыта разработки на Android;\n✔️Знание Java/Kotlin на уровне ведущего разработчика;\n✔️Знание шаблонов проектирования, опыт использования MVP и других архитектурных подходов;\n✔️Опыт параллельного и многопоточного программирования;\n✔️Понимание циклов работы Android-приложения и управления памятью;\n✔️Опыт разработки пользовательских интерфейсов на платформе Android. \n✔️Знание Android Design Principles;\n✔️Знание и умение использовать различные механизмы взаимодействий между приложениями, предоставляемые в рамках Android SDK;\n✔️Понимание принципов работы REST API, WS, RPC и клиент-серверных приложений;\n✔️Знание английского языка на уровне чтения документации и умения общаться в корпоративном чате.\n\nПлюсом будет:\n➕Умение и понимание необходимости написания Unit tests;\n➕Знание основ криптографии;\n➕Опыт работы с bitcoin/etherium blockchain stack;\n➕Наличие своих проектов на Github, в Google Play и т.д.\n\n📲Контакт: @valeritata","markup":[{"type":"hashtag","offset":39,"length":8,"data":"android"},{"type":"hashtag","offset":48,"length":10,"data":"developer"},{"type":"hashtag","offset":59,"length":9,"data":"вакансия"},{"type":"hashtag","offset":69,"length":9,"data":"удаленка"},{"type":"link","offset":106,"length":12,"data":"http://mycelium.com"},{"type":"hashtag","offset":128,"length":9,"data":"вакансия"},{"type":"handle","offset":1900,"length":11,"data":"valeritata"}],"date":"2020-06-16T14:37:41+00:00","link":"tg://resolve?domain=mobile_jobs&post=0","tags":[{"name":"mobile"},{"name":"android"},{"name":"playframework"},{"name":"java"},{"name":"kotlin"},{"name":"rest"},{"name":"github"}],"cities":[],"allowsRemote":true}},{"node":{"__typename":"Job","id":"71405928448-1001054966032","title":"Android developer","text":"#вакансия #job #Android #kotlin #developer #Новосибирск #Калининград #Кострома #Екатеринбург #Питер \n\nВсем привет! \nОткрыта позиция на должность \n🔥Android Developer🔥\n\nКомпания: ТЕНЗОР (https://tensor.ru)\nЦентры мобильной разработки:\n📱Новосибирск, \n📱Калининград, \n📱Кострома, \n📱Екатеринбург,\n📱Санкт-Петербург,\n📱Севастополь\nOffice, full-time\n🔸Оформление по ТК РФ 🔸ДМС со стоматологией🔸курсы иностранных языков🔸корпоративные праздники🔸комфортный офис \nЗП: \nMiddle 110 000-180 000\nSenior 180 000-300 000 на руки\n\nЕсли ты :\n✅ знаешь Kotlin/Java и Android SDK;\n✅ понимаешь паттерны архитектуры MVP и MVVM;\n✅ имеешь опыт работы с Git, Dagger 2, RxJava;\n✅ готов совершенствовать свои умения и обучаться новому, \nто пиши нам!!!\nЖдём вопросы и резюме! \n✍️ @kseniyahr\n📨 ke.pomigueva@tensor.ru","markup":[{"type":"hashtag","offset":0,"length":9,"data":"вакансия"},{"type":"hashtag","offset":10,"length":4,"data":"job"},{"type":"hashtag","offset":15,"length":8,"data":"Android"},{"type":"hashtag","offset":24,"length":7,"data":"kotlin"},{"type":"hashtag","offset":32,"length":10,"data":"developer"},{"type":"hashtag","offset":43,"length":12,"data":"Новосибирск"},{"type":"hashtag","offset":56,"length":12,"data":"Калининград"},{"type":"hashtag","offset":69,"length":9,"data":"Кострома"},{"type":"hashtag","offset":79,"length":13,"data":"Екатеринбург"},{"type":"hashtag","offset":93,"length":6,"data":"Питер"},{"type":"link","offset":187,"length":17,"data":"https://tensor.ru"},{"type":"handle","offset":758,"length":10,"data":"kseniyahr"},{"type":"link","offset":772,"length":22,"data":"mailto:ke.pomigueva@tensor.ru"}],"date":"2020-06-16T14:17:24+00:00","link":"tg://resolve?domain=mobile_jobs&post=0","tags":[{"name":"mobile"},{"name":"android"},{"name":"kotlin"},{"name":"java"},{"name":"mvvm"},{"name":"git"}],"cities":[{"code":"novosibirsk"},{"code":"kaliningrad"},{"code":"kostroma"},{"code":"sevastopol"}],"allowsRemote":false}},{"node":{"__typename":"Job","id":"71402782720-1001054966032","title":"Ios разработчик","text":"#вакансия #iOS #удалёнка #fulltime #swift \n\nКомпания: \"Доктор на работе\" - социальная сеть для врачей. Самая стабильная отрасль сейчас:  Фарма+ Digital.\nМесто работы: удалённая работа\nЗП:  от 165к до 180к рублей на руки, белая\n\nИщем еще одного iOS разработчика.  \n\n🤟Особенности: новый проект, без легаси. Технологии: Swift, MVVM, Alamofire, Codable, Realm, RxSwift, SignalR, WebSockets.\n\n🔥Задача: создание новой Ленты врача с нуля, доработка существующего мессенджера для наших пользователей.\n\n🔥 Условия:\n* зп от 165к до 180к рублей на руки, белая;\n* удалённая работа.\n\n\n👉Вакансию можно посмотреть здесь: https://dev.doktornarabote.ru/ios\n👉 Отклики ждем здесь:  hr@doktornarabote.ru или в Telegram: @KseniaRyakhovskaya","markup":[{"type":"hashtag","offset":0,"length":9,"data":"вакансия"},{"type":"hashtag","offset":10,"length":4,"data":"iOS"},{"type":"hashtag","offset":15,"length":9,"data":"удалёнка"},{"type":"hashtag","offset":25,"length":9,"data":"fulltime"},{"type":"hashtag","offset":35,"length":6,"data":"swift"},{"type":"bold","offset":244,"length":16,"data":""},{"type":"bold","offset":510,"length":40,"data":""},{"type":"link","offset":609,"length":33,"data":"https://dev.doktornarabote.ru/ios"},{"type":"link","offset":667,"length":20,"data":"mailto:hr@doktornarabote.ru"},{"type":"handle","offset":704,"length":19,"data":"KseniaRyakhovskaya"}],"date":"2020-06-16T13:51:52+00:00","link":"tg://resolve?domain=mobile_jobs&post=0","tags":[{"name":"mobile"},{"name":"ios"},{"name":"swift"},{"name":"mvvm"},{"name":"realm"},{"name":"signalr"}],"cities":[],"allowsRemote":true}}]}}},"context":{}}