{"hash":"f5f6bf98bd95e769321482904cbbd488f77922fd","data":{"records":{"id":"swift","name":"swift","belongsTo":{"totalCount":133,"pageInfo":{"totalPages":14,"currentPage":3},"edges":[{"node":{"__typename":"Job","id":"72525807616-1001054966032","title":"Mobile developer","text":"#вакансия #ReactNative #Одесса\n🔹Локация: Одесса,  #Odessa, р-н Пересыпи\n🔹Формат работы: #Офис / #удаленка\n🔹Занятость: Полная занятость, #Fulltime\n🔹Вилка $1700-$2500, дважды в год Performance Review.\n\n☀Вакансия Middle React Native developer\n🔹Описание вакансии:\n- 4+ years of experience in software development and JavaScript (ES6+).\n- 2+ years of experience with React Native.\n- Experience with commercial native applications development (IOS/Android).\n- Understanding and experience with building the full mobile application’s lifecycle.\n- Knowledge of architecture design and experience working knowledge of SOAP and RESTful integrations.\n- Experience with native SDKs for Android (Kotlin/Java) and/or iOS (Swift).\n- Intermediate written and spoken English.\n\n🔹Компания Attract Group.\n🔹Контакты:\n✏️телеграм @Niedova_Olga,\n✏️почта hr@attractgroup.com.","markup":[{"type":"hashtag","offset":0,"length":9,"data":"вакансия"},{"type":"hashtag","offset":10,"length":12,"data":"ReactNative"},{"type":"hashtag","offset":23,"length":7,"data":"Одесса"},{"type":"hashtag","offset":51,"length":7,"data":"Odessa"},{"type":"hashtag","offset":90,"length":5,"data":"Офис"},{"type":"hashtag","offset":98,"length":9,"data":"удаленка"},{"type":"hashtag","offset":139,"length":9,"data":"Fulltime"},{"type":"handle","offset":814,"length":13,"data":"Niedova_Olga"},{"type":"link","offset":837,"length":19,"data":"mailto:hr@attractgroup.com"}],"date":"2020-07-02T09:41:39+00:00","link":"tg://resolve?domain=mobile_jobs&post=69166","tags":[{"name":"mobile"},{"name":"android"},{"name":"ios"},{"name":"reactjs"},{"name":"javascript"},{"name":"soap"},{"name":"kotlin"},{"name":"java"},{"name":"swift"},{"name":"react-native"}],"cities":[{"code":"odessa"}],"allowsRemote":true}},{"node":{"__typename":"Job","id":"72517419008-1001054966032","title":"Ios разработчик","text":"#вакансия #IOS #senior #full-time #офис #удаленка \nГород: Санкт-Петербург\nФормат работы: офис и удаленка\nЗанятость: полная \nЗарплатная вилка (обязательно): от 230 000 до 300 000 на руки\n\nКомпания: VOIR - приложение реалистичного диджитал мейкапа с самым большим количеством качественно оцифрованной продукции реальных брендов.\nМы используем компьютерное зрение, нейронные сети и запатентованный 3D рендеринг, чтобы обеспечить реалистичную примерку в дополненной реальности. \nНаше приложение Voir уже имеет более 3 млн. загрузок по всему миру.\n\nАудитория приложения составляет сотни тысяч пользователей по всему миру, и компания уже заключила партнерства с такими брендами как Dior, Sephora, Guerlain. Подробнее о компании можно узнать в статье Forbes и на сайте, а еще лучше скачать приложение.\nВ данный момент мы ищеним Senior IOS Developer'а. \n\nЧто нужно делать:\n\n* Активно участвовать в развитие проекта, общаться с командой, вместе находить крутые решения;\n* Разработка мобильных приложений;\n* Участие в работе над архитектурой, SDK, API;\n* Работа с командой разработчиков, тестировщиков, дизайнеров и специалистов по machine learning.\n\nЧто нам важно:\n\n* Опыт iOS разработки от 3-х лет;\n* Опыт разработки от 5-х лет;\n* Отличное знание Swift, RxSwift;\n* Отличное знание API и фреймворков iOS;\n* Отличные знания Metal, OpenGL, SceneKit, ARkit, CoreML;\n* Фундаментальные знания ООП, архитектур и алгоритмов;\n* Умение проводить комплексный анализ и самостоятельно решать проблемы;\n* Опыт разработки клиент-серверных приложений и работы с сетевыми протоколами;\n* Английский не ниже Intermediate, свободное чтение любой технической документации;\n* Опубликованные приложения, которые создавались с вашим значительным участием;\n* Плюсом будет открытый актуальный код на GitHub или даже в zip-архиве, статьи, выступления на конференциях, пришлите ссылки на них в сопроводительном письме;\n* Любить IOS и понимать гайды и best-practice;\n* Умение аргументированно излагать свою точку зрения.\n\nЧто мы предлагаем: \n\n* Интересные задачи на активно развивающемся проекте с использованием технологий machine learning;\n* Возможность непосредственно влиять на продукт и видеть результат работы;\n* Работу в профессиональной, заряженной команде и драйвовую атмосферу;\n* Гибкий график работы;\n* Белую зарплату, которая зависит только от ваших навыков и опыта;\n* Комфортный офис в 10 минутах ходьбы, от метро Петроградская.\n\nКонтакты: @aartenyan","markup":[{"type":"hashtag","offset":0,"length":9,"data":"вакансия"},{"type":"hashtag","offset":10,"length":4,"data":"IOS"},{"type":"hashtag","offset":15,"length":7,"data":"senior"},{"type":"hashtag","offset":23,"length":5,"data":"full"},{"type":"hashtag","offset":34,"length":5,"data":"офис"},{"type":"hashtag","offset":40,"length":9,"data":"удаленка"},{"type":"link","offset":737,"length":15,"data":"https://www.forbes.ru/tehnologii/381845-didzhital-makiyazh-kak-natalya-vodyanova-podarila-vtoruyu-zhizn-startapu-iz"},{"type":"link","offset":756,"length":5,"data":"http://voir.me/"},{"type":"link","offset":775,"length":19,"data":"https://apps.apple.com/us/app/voir-makeup-selfie-camera/id1226417060"},{"type":"handle","offset":2416,"length":10,"data":"aartenyan"}],"date":"2020-07-02T08:25:43+00:00","link":"tg://resolve?domain=mobile_jobs&post=69158","tags":[{"name":"mobile"},{"name":"ios"},{"name":"swift"},{"name":"opengl"},{"name":"github"},{"name":"machine-learning"}],"cities":[],"allowsRemote":true}},{"node":{"__typename":"Job","id":"364904448-1001352129329","title":"Golang разработчик","text":"#вакансия #Golang #middle #Senior #Moscow \n\nНазвание компании: Loft\nНазвание вакансии: Golang разработчик \nЗарплатная вилка 100-180 тыс/мес\nГород: Москва\nСписок языков, которые необходимо знать: Русский, Английский (на уровне чтения тех. документации)\nФотрмат работы: офис\n\nПриложение для знакомств LOFT (https://loft-app.com/) - это простой и безопасный способ расширить свой круг общения. Можно встречаться с мужчинами и девушками, которые находятся рядом с вами, или знакомиться с людьми по всему миру.\n\nИдея LOFT - адекватная аудитория, которая открыта к диалогу. Вы знаете тех, с кем общаетесь. \nКому подходит LOFT? Адекватной, современной, молодой аудитории, которая любит технологичные фишки и хочет узнавать людей ближе. \n\nМы - команда LOFT, и мы тоже современные, молодые и классные.\n\nЧто предстоит делать\nРабота над интересным проектом в небольшой компании (штат 28 человек).\nРазработка и поддержка backend для нового дейтинг-проекта.\nНаписание API для веб и мобильных приложений\nСоздание нагруженных сервисов с нуля.\n\n\nСтек технологий, которые мы используем:\n·      Backend: GO / MongoDB / Redis / WebSockets\n·      Frontend: Angular / Vue / Flutter / Swift \n·      PM: Git / Jira / Gitlab\n\nЧто нужно уметь\nОпыт программирования backend от 1 года\nУверенное владение Golang \nОбщее представление о том, как работать с очередями сообщений \nОпыт работы с базами данных разных типов\nУмение и желание покрывать код тестами\nОпыт оценки проектов и задач\nСпособность укладываться в оценки с разумной погрешностью\nЗнания английского языка на уровне чтения тех. документации\n\nУсловия и преимущества\nСложный и интересный проект\nПотенциал для роста, как специалиста\nКомандная работа\nКорпоративные мероприятия\nВ офисе без ограничений чай/кофе, печенье\nPlayStation\n\nКонтакты @Sandevl","markup":[{"type":"hashtag","offset":0,"length":9,"data":"вакансия"},{"type":"hashtag","offset":10,"length":7,"data":"Golang"},{"type":"hashtag","offset":18,"length":7,"data":"middle"},{"type":"hashtag","offset":26,"length":7,"data":"Senior"},{"type":"hashtag","offset":34,"length":7,"data":"Moscow"},{"type":"link","offset":305,"length":21,"data":"https://loft-app.com/"},{"type":"handle","offset":1771,"length":8,"data":"Sandevl"}],"date":"2020-07-02T08:22:20+00:00","link":"tg://resolve?domain=gogetajobfeed&post=348","tags":[{"name":"go"},{"name":"mongodb"},{"name":"redis"},{"name":"angularjs"},{"name":"vuejs"},{"name":"flutter"},{"name":"swift"},{"name":"git"},{"name":"gitlab"}],"cities":[{"code":"moscow"}],"allowsRemote":false}},{"node":{"__typename":"Job","id":"72489107456-1001054966032","title":"Android разработчик","text":"#вакансия  #vacancy  #IOSdeveloper #IOS \nПривет! ✌ Мы ищем IOS и Android разработчика в одном лице для контрактной удалённой работы. \nФормат работы: Удалёнка. \nЗП: от 80 до 100 к\n\nУровень middle\nКомпания:https://arkonsa.ru/\n💁 Описание компании: Мы работаем в двух направлениях: 1) Своя CRM система (oko сrm), которую планируем продавать на внешний рынок + запускать мобильное приложение для IOS и Android;\n2) Свой учебный центр (продажи).\n\nЧто мы ожидаем от Вас:\nПроектирование архитектуры приложения;\nРеализация и дальнейшее развитие приложений на Swift(Objective-C) или Java(Kotlin)\nОпыт работы с основными алгоритмами и структурами данных.\nКлючевые знания - Android SDK, работы с сетью: RESTful/SOAP API и HTTP, Web Sockets.\n\n💻 Что нужно делать:\nТестирование;\n\nРефакторинг;\n\nДеплоинг;\n\nРазработка технической документации.\n\nУсловия:\n- проектная занятость\n\nТребования:\nопыт разработки по данному стеку от 2+лет.\n\n📠 За подробностями по вакансии и по всем вопросам:\n@elena_hr_tmn \n89129125591 Viber","markup":[{"type":"hashtag","offset":0,"length":9,"data":"вакансия"},{"type":"hashtag","offset":11,"length":8,"data":"vacancy"},{"type":"hashtag","offset":21,"length":13,"data":"IOSdeveloper"},{"type":"hashtag","offset":35,"length":4,"data":"IOS"},{"type":"link","offset":204,"length":19,"data":"https://arkonsa.ru/"},{"type":"handle","offset":969,"length":13,"data":"elena_hr_tmn"},{"type":"link","offset":984,"length":11,"data":"tel:89129125591"}],"date":"2020-07-02T05:03:05+00:00","link":"tg://resolve?domain=mobile_jobs&post=69131","tags":[{"name":"mobile"},{"name":"android"},{"name":"ios"},{"name":"swift"},{"name":"objective-c"},{"name":"java"},{"name":"kotlin"},{"name":"soap"},{"name":"web"}],"cities":[],"allowsRemote":true}},{"node":{"__typename":"Job","id":"72479670272-1001054966032","title":"Android developer","text":"#вакансия #fulltime  #vacancy  #remote #ремоут  #IOSdeveloper #IOS #Ruby #Rubyonrails\n\n💻 Ruby on Rails + IOS (Swift) Developer\n🕐 Fulltime remote\n👩🏻‍💻2 year of commercial development on IOS\n💰from 10 $/hour to 17 $/hour\n\nВсем привет!🙋🏻‍♀️\nAMS ищет Ruby on Rails + IOS (Swift) dev на ремоут. Мы занимаемся разработкой мобильных приложений под Android и IOS.\n\nУсловия:\n-проектная занятость;\n-краткосрочный проект;\n-фуллтайм.\n\nТребования :\n-коммерческий опыт разработки по данному стеку от 2 лет+;\n-разговорный английский B2+.\n\n📝 За подробностями по вакансии и по всем вопросам  пишите:\ndarya.matsyas@ams-apps.com\nDarya \nLinkedIn","markup":[{"type":"hashtag","offset":0,"length":9,"data":"вакансия"},{"type":"hashtag","offset":10,"length":9,"data":"fulltime"},{"type":"hashtag","offset":21,"length":8,"data":"vacancy"},{"type":"hashtag","offset":31,"length":7,"data":"remote"},{"type":"hashtag","offset":39,"length":7,"data":"ремоут"},{"type":"hashtag","offset":48,"length":13,"data":"IOSdeveloper"},{"type":"hashtag","offset":62,"length":4,"data":"IOS"},{"type":"hashtag","offset":67,"length":5,"data":"Ruby"},{"type":"hashtag","offset":73,"length":12,"data":"Rubyonrails"},{"type":"link","offset":531,"length":2,"data":"http://darya.matsyas@ams-apps.com/"},{"type":"link","offset":591,"length":27,"data":"http://darya.matsyas@ams-apps.com/"},{"type":"link","offset":625,"length":8,"data":"https://www.linkedin.com/in/darya-matyas-12ba33158/"}],"date":"2020-07-01T19:03:14+00:00","link":"tg://resolve?domain=mobile_jobs&post=69122","tags":[{"name":"mobile"},{"name":"android"},{"name":"ios"},{"name":"ruby"},{"name":"ruby-on-rails"},{"name":"swift"}],"cities":[],"allowsRemote":true}},{"node":{"__typename":"Job","id":"72454504448-1001054966032","title":"Ios разработчик","text":"#вакансия #москва #удаленка #fulltime #IOSdeveloper\n\nIOS-разработчик / iOS-программист / iOS developer (Swift)\n\nООО Криптериум (https://crypterium.com)\n\nЗп: 120.000-250.000\n\n\nПривет!\n\nМы команда Crypterium!\n\nМы международный финтех стартап.\n\nМы строим банк будущего, который поддерживает криптофиатные операции.\n\nНаша цель – создание сервиса, который фактически займёт место традиционных банков, по всем возможным банковским операциям!\n\nУ нас сложные, но интересные задачи по созданию крутого и по-настоящему полезного продукта для людей из разных стран по всему миру. Работа у нас- реальная возможность приложить руку к крутому продукту, которым будет пользоваться большое количество людей.\n\nНа данный момент наша компания активно растет и развивается, в связи с этим мы ищем iOS Developer. Нам нужен по-настоящему проактивный и ответственный сотрудник. Задач много, они разные и крайне интересны\n\n🟢Что предстоит делать?\n\n🔹Разработка нового функционала мобильного приложения под iOS и исправление существующих недостатков.\n🔹Проведение интеграционных тестов при передаче функционала в тест.\n🔹Участие в принятии технических решений и планировании процесса разработки продукта.\nВзаимодействие с менеджерами, дизайнерами, бекендерами, тестировщиками.\n🔹Участие в CodeReview.\n🔹Покрытие написанного кода UnitTest’ами.\n🔹Участие в проектировании REST API.\n🔹Ведение задач при помощи Jira.\n\n\n🟢Какие skill’s мы хотим видеть в нашем будущем коллеге?\n\n🔹Отличное знание Swift.\n🔹Знание архитектуры MVVM.\n🔹Использование Router, Assemblies, Managers.\n🔹Понимание принципов работы RESTful API и HTTP.\n🔹Знание шаблонов проектирования и умение их применять, придерживаясь принципов SOLID.\n🔹Знание основных алгоритмов и структур данных.\n🔹Умение писать поддерживаемый и тестируемый код.\n🔹Способность декомпозировать задачи, оценивать их и выдерживать сроки.\n🔹Опыт модульного программирования в больших проектах\n🔹Понимание linking библиотек\n🔹Ответственное выполнение поставленных задач в срок и c максимальным качеством\n\n🟢Что мы готовы предложить будущему коллеге?\n\n🔹По настоящему заряженная команда профессионалов\n🔹Офис м.Тульская\n🔹Удаленная работа, с возможностью приезжать в офис, гибкое начало рабочего дня (c 9 до 12)\n🔹Возможности профессионально развиваться и расти\n\nКонтакты:\n@kriskrisych Кристина","markup":[{"type":"hashtag","offset":0,"length":9,"data":"вакансия"},{"type":"hashtag","offset":10,"length":7,"data":"москва"},{"type":"hashtag","offset":18,"length":9,"data":"удаленка"},{"type":"hashtag","offset":28,"length":9,"data":"fulltime"},{"type":"hashtag","offset":38,"length":13,"data":"IOSdeveloper"},{"type":"link","offset":128,"length":22,"data":"https://crypterium.com"},{"type":"handle","offset":2284,"length":12,"data":"kriskrisych"}],"date":"2020-07-01T11:13:14+00:00","link":"tg://resolve?domain=mobile_jobs&post=69098","tags":[{"name":"mobile"},{"name":"ios"},{"name":"swift"},{"name":"rest"},{"name":"mvvm"}],"cities":[{"code":"moscow"}],"allowsRemote":true}},{"node":{"__typename":"Job","id":"72450310144-1001054966032","title":"Ios разработчик","text":"#вакансия #IOS #senior #full-time #офис #удаленка \nГород: Санкт-Петербург\nФормат работы: офис и удаленка\nЗанятость: полная \nЗарплатная вилка (обязательно): от 230 000 до 300 000 на руки\n\nКомпания: VOIR - приложение реалистичного диджитал мейкапа с самым большим количеством качественно оцифрованной продукции реальных брендов.\nМы используем компьютерное зрение, нейронные сети и запатентованный 3D рендеринг, чтобы обеспечить реалистичную примерку в дополненной реальности. \nНаше приложение Voir уже имеет более 3 млн. загрузок по всему миру.\n\nАудитория приложения составляет сотни тысяч пользователей по всему миру, и компания уже заключила партнерства с такими брендами как Dior, Sephora, Guerlain. Подробнее о компании можно узнать в статье Forbes и на сайте, а еще лучше скачать приложение.\nВ данный момент мы ищеним Senior IOS Developer'а. \n\nЧто нужно делать:\n\n* Активно участвовать в развитие проекта, общаться с командой, вместе находить крутые решения;\n* Разработка мобильных приложений;\n* Участие в работе над архитектурой, SDK, API;\n* Работа с командой разработчиков, тестировщиков, дизайнеров и специалистов по machine learning.\n\nЧто нам важно:\n\n* Опыт iOS разработки от 3-х лет;\n* Опыт разработки от 5-х лет;\n* Отличное знание Swift, RxSwift;\n* Отличное знание API и фреймворков iOS;\n* Отличные знания Metal, OpenGL, SceneKit, ARkit, CoreML;\n* Фундаментальные знания ООП, архитектур и алгоритмов;\n* Умение проводить комплексный анализ и самостоятельно решать проблемы;\n* Опыт разработки клиент-серверных приложений и работы с сетевыми протоколами;\n* Английский не ниже Intermediate, свободное чтение любой технической документации;\n* Опубликованные приложения, которые создавались с вашим значительным участием;\n* Плюсом будет открытый актуальный код на GitHub или даже в zip-архиве, статьи, выступления на конференциях, пришлите ссылки на них в сопроводительном письме;\n* Любить IOS и понимать гайды и best-practice;\n* Умение аргументированно излагать свою точку зрения.\n\nЧто мы предлагаем: \n\n* Интересные задачи на активно развивающемся проекте с использованием технологий machine learning;\n* Возможность непосредственно влиять на продукт и видеть результат работы;\n* Работу в профессиональной, заряженной команде и драйвовую атмосферу;\n* Гибкий график работы;\n* Белую зарплату, которая зависит только от ваших навыков и опыта;\n* Комфортный офис в 10 минутах ходьбы, от метро Петроградская.\n\nКонтакты: @aartenyan","markup":[{"type":"hashtag","offset":0,"length":9,"data":"вакансия"},{"type":"hashtag","offset":10,"length":4,"data":"IOS"},{"type":"hashtag","offset":15,"length":7,"data":"senior"},{"type":"hashtag","offset":23,"length":5,"data":"full"},{"type":"hashtag","offset":34,"length":5,"data":"офис"},{"type":"hashtag","offset":40,"length":9,"data":"удаленка"},{"type":"link","offset":737,"length":15,"data":"https://www.forbes.ru/tehnologii/381845-didzhital-makiyazh-kak-natalya-vodyanova-podarila-vtoruyu-zhizn-startapu-iz"},{"type":"link","offset":756,"length":5,"data":"http://voir.me/"},{"type":"link","offset":775,"length":19,"data":"https://apps.apple.com/us/app/voir-makeup-selfie-camera/id1226417060"},{"type":"handle","offset":2416,"length":10,"data":"aartenyan"}],"date":"2020-07-01T10:14:12+00:00","link":"tg://resolve?domain=mobile_jobs&post=69094","tags":[{"name":"mobile"},{"name":"ios"},{"name":"swift"},{"name":"opengl"},{"name":"github"},{"name":"machine-learning"}],"cities":[],"allowsRemote":true}},{"node":{"__typename":"Job","id":"72446115840-1001054966032","title":"Ios разработчик","text":"#вакансия #москва #офис #fulltime #ios \n\nВакансия: iOS-разработчик\nГород: Москва\nЗ/п: от 230 тыс.руб. до 280 тыс. руб. после налогообложения\nФормат работы: офис, полная занятость\nКомпания: CORE\n\n📌О компании:\nНаша команда занимается мобильной и web-разработкой в области финансов и страхования. Мы реализуем проекты для международных финтех-стартапов, российских банков и страховых компаний. При разработке мы применяем самый современный стек технологий, большое внимание уделяем оптимизации процесса разработки – использованию практик CI/CD, инструментов кодогенерация. Для вас это возможность познакомиться с передовыми технологиями, развиваться в команде профессионалов, готовых поддерживать перспективные инициативы.\n\nРаботать предстоит в суперсовременном офисе в центре Москвы. Мы предоставляем современный hardware и все, что нужно для продуктивной работы. После испытательного срока предоставляется социальный пакет. Лучшие сотрудники проходят профильное обучение за счет компании, выступают спикерами на конференциях.\n\n📌Требования:\n– Уверенное знание Swift и Objective-C; \n– Знает базовые алгоритмы и структуры данных;\n– Знает основные паттерны проектирования и имеет опыт их применения.\n\n📌Условия:\n– Заработная плата 250 тыс. руб. после налогообложения;\n– Работа в офисе в центре Москвы;\n– Официальное трудоустройство согласно ТК РФ.\n\nДля иногородних специалистов предоставляем комфортные апартаменты в современном жилом комплексе недалеко от места работы.\n\nО компании https://core.company\n\nБолее подробно о вакансии в ТГ @tv_corecompany","markup":[{"type":"hashtag","offset":0,"length":9,"data":"вакансия"},{"type":"hashtag","offset":10,"length":7,"data":"москва"},{"type":"hashtag","offset":18,"length":5,"data":"офис"},{"type":"hashtag","offset":24,"length":9,"data":"fulltime"},{"type":"hashtag","offset":34,"length":4,"data":"ios"},{"type":"link","offset":1480,"length":20,"data":"https://core.company"},{"type":"handle","offset":1533,"length":15,"data":"tv_corecompany"}],"date":"2020-07-01T09:51:30+00:00","link":"tg://resolve?domain=mobile_jobs&post=69090","tags":[{"name":"mobile"},{"name":"ios"},{"name":"web"},{"name":"swift"},{"name":"objective-c"}],"cities":[{"code":"moscow"}],"allowsRemote":false}},{"node":{"__typename":"Job","id":"72445067264-1001054966032","title":"Ios разработчик","text":"#вакансия #IOS #fulltime #офис #Кипр\nГород: Лимассол\nФормат работы: офис\nКомпания: Marikit Holdings LTD \nЗанятость: полная\nЗарплатная вилка:от 2 500 до 4 500 EUR на руки. \n\nПривет! Мы растем и активно развиваемся, поэтому ищем специалистов для работы в офисе нашей компании на Кипре. Это отличная возможность реализовать свои навыки, прокачаться ещё больше в команде профессионалов и нежиться на солнышке в выходные😉 Подробности смотри в описании:\n\n⭐️Чем предстоит заниматься:\n- Разработка мобильных приложений под платформу iOS.\n- Взаимодействие с аналитиками, дизайнерами и тестировщиками.\n- Выявление и исправление ошибок в работе текущих разработок.\n\n⭐️Наши ожидания:\n- Опыт коммерческой iOS разработки от 2-х лет;\n- Отличные знания Swift.\n- Высшее образование в IT сфере. \n\n⭐️Мы предлагаем:\n- Итоговый уровень ЗП зависит от профессионального уровня и пожеланий кандидата.\n- Комфортный, современный офис с видом на Средиземное море.\n- Удобное рабочее место, с современной техникой.\n- Помощь при переезде (поиск и компенсация жилья в пределах оговоренной суммы либо предоставление жилплощади от компании, оформление рабочей визы и необходимых документов для семьи, оплата перелёта и трансфера).\n- Бесплатные обеды (шведский стол).\n\nБуду рада вопросам и резюме:\n✏️@hrkaterina\n✉️hrrekruterit@gmail.com","markup":[{"type":"hashtag","offset":0,"length":9,"data":"вакансия"},{"type":"hashtag","offset":10,"length":4,"data":"IOS"},{"type":"hashtag","offset":15,"length":9,"data":"fulltime"},{"type":"hashtag","offset":25,"length":5,"data":"офис"},{"type":"hashtag","offset":31,"length":5,"data":"Кипр"},{"type":"bold","offset":37,"length":6,"data":""},{"type":"bold","offset":53,"length":14,"data":""},{"type":"bold","offset":73,"length":10,"data":""},{"type":"bold","offset":105,"length":10,"data":""},{"type":"bold","offset":123,"length":17,"data":""},{"type":"italic","offset":173,"length":79,"data":""},{"type":"italic","offset":259,"length":18,"data":""},{"type":"bold","offset":277,"length":7,"data":""},{"type":"italic","offset":284,"length":122,"data":""},{"type":"italic","offset":407,"length":8,"data":""},{"type":"bold","offset":415,"length":3,"data":""},{"type":"italic","offset":418,"length":32,"data":""},{"type":"bold","offset":450,"length":28,"data":""},{"type":"bold","offset":656,"length":17,"data":""},{"type":"bold","offset":780,"length":17,"data":""},{"type":"bold","offset":1236,"length":4,"data":""},{"type":"bold","offset":1241,"length":24,"data":""},{"type":"handle","offset":1267,"length":11,"data":"hrkaterina"},{"type":"link","offset":1279,"length":24,"data":"http://✉️hrrekruterit@gmail.com"}],"date":"2020-07-01T09:46:35+00:00","link":"tg://resolve?domain=mobile_jobs&post=69089","tags":[{"name":"mobile"},{"name":"ios"},{"name":"swift"}],"cities":[],"allowsRemote":false}},{"node":{"__typename":"Job","id":"72444018688-1001054966032","title":"Ios разработчик","text":"#вакансия #ios #senior #спб #fulltime #офис #spb\n\n🚀Senior iOS developer (Swift) (в офис)\n180 - 220k\n\nО компании:\nНаПоправку - медицинский онлайн-сервис: мы делаем болезнь меньшим стрессом в жизни людей, а медицину - проще и дружелюбнее (удобный поиск хорошего врача, запись на прием онлайн в пару кликов, хранение мед.документов и многое другое).  Мы помогаем более 1 млн. пользователей в месяц. Сейчас создаём наше первое! приложение (нативное). Ищем опытного разработчика, который готов и хочет взять на себя задачи по развитию приложения внутри продуктовой компании почти с 0!\n\nЦель должности:\n🔸Принять у подрядчика на аутсорсинга MVP приложения;\n🔸Развивать архитектуру приложения и решать «как делать»;\n🔸Развивать функциональность приложения (хранение мед.документов, возмещение налогового вычета - это лишь малая часть);\n🔸 Участвовать в планировании спринтов;\n🔸 Быть ментором для младшего разработчика/ов \n\nПочему точно стоит идти к нам:\n🔸 Прогрессивный стек, 0 легаси;\n🔸Возможность применить всю экспертизу;\n🔸 Социально-значимый проект, его пользователи - простые люди как ты и я;\n🔸Гибкое начало рабочего дня (с 8 до 11);\n🔸Официальное оформление и «белая» зарплата;\n🔸ДМС;\n🔸У нас есть софинансирование командных активностей;\n🔸Программа опционов для ключевых сотрудников;\n🔸Офис (в нем снеки и прочее) на ВО;\nЗарплата:\n🔸Гибко обсуждаем, вилка для ориентира 180-220k\n\nЧего мы ждём от тебя:\n🔸Опыт коммерческой разработки на Swift более 3х лет;\n🔸Понимания как устроен жизненный цикл разработки мобильного приложения от концепции и первой строчки кода до релиза на маркетплейс;\n🔸Опыт взаимодействия с REST API\n🔸 Уверенное владение iOS SDK;\n🔸 Что ты пишешь SOLID’ней код, знаешь и применяешь паттерны проектирования;\n🔸В App Store есть актуальное приложение, в создании которого ты активно участвовал;\n🔸 Желания не просто писать код, а делать классный продукт, который будет помогать людям;\n🔸 Настроя на решение реальных задач бизнеса.\n\nВопросы и резюме к @Vasilisa_bu","markup":[{"type":"hashtag","offset":0,"length":9,"data":"вакансия"},{"type":"hashtag","offset":10,"length":4,"data":"ios"},{"type":"hashtag","offset":15,"length":7,"data":"senior"},{"type":"hashtag","offset":23,"length":4,"data":"спб"},{"type":"hashtag","offset":28,"length":9,"data":"fulltime"},{"type":"hashtag","offset":38,"length":5,"data":"офис"},{"type":"hashtag","offset":44,"length":4,"data":"spb"},{"type":"bold","offset":52,"length":38,"data":""},{"type":"bold","offset":102,"length":10,"data":""},{"type":"bold","offset":417,"length":8,"data":""},{"type":"bold","offset":582,"length":16,"data":""},{"type":"bold","offset":918,"length":31,"data":""},{"type":"bold","offset":1386,"length":22,"data":""},{"type":"bold","offset":1958,"length":31,"data":""},{"type":"handle","offset":1977,"length":12,"data":"Vasilisa_bu"}],"date":"2020-07-01T09:23:36+00:00","link":"tg://resolve?domain=mobile_jobs&post=69088","tags":[{"name":"mobile"},{"name":"ios"},{"name":"swift"},{"name":"rest"}],"cities":[],"allowsRemote":false}}]}}},"context":{}}