{"hash":"f5f6bf98bd95e769321482904cbbd488f77922fd","data":{"records":{"totalCount":669,"pageInfo":{"totalPages":67,"currentPage":25},"edges":[{"node":{"id":"72096940032-1001054966032","title":"Android developer","text":"#вакансия #fulltime  #vacancy  #remote #ремоут  #ReactNativedeveloper #ReactNative \n\n💻 React Native Developer\n🕐 Fulltime remote\n👩🏻‍💻1,5 year of commercial development on React Native\n💰from 10 $/hour to 18 $/hour\n\nВсем привет!🙋🏻‍♀️\nAMS ищет React Native dev на ремоут. Мы занимаемся разработкой мобильных приложений под Android и IOS.\n\nУсловия:\n-проектная занятость;\n-фуллтайм.\n\nТребования :\n-коммерческий опыт разработки от 1,5 года;\n-разговорный английский.\n\n📝 За подробностями по вакансии и по всем вопросам  пишите:\ndarya.matsyas@ams-apps.com\nDarya \nLinkedIn","markup":[{"type":"hashtag","offset":0,"length":9,"data":"вакансия"},{"type":"hashtag","offset":10,"length":9,"data":"fulltime"},{"type":"hashtag","offset":21,"length":8,"data":"vacancy"},{"type":"hashtag","offset":31,"length":7,"data":"remote"},{"type":"hashtag","offset":39,"length":7,"data":"ремоут"},{"type":"hashtag","offset":48,"length":21,"data":"ReactNativedeveloper"},{"type":"hashtag","offset":70,"length":12,"data":"ReactNative"},{"type":"link","offset":468,"length":2,"data":"http://darya.matsyas@ams-apps.com/"},{"type":"link","offset":528,"length":27,"data":"http://darya.matsyas@ams-apps.com/"},{"type":"link","offset":562,"length":8,"data":"https://www.linkedin.com/in/darya-matyas-12ba33158/"}],"date":"2020-06-26T13:53:45+00:00","link":"tg://resolve?domain=mobile_jobs&post=68757","tags":[{"name":"mobile"},{"name":"android"},{"name":"ios"},{"name":"reactjs"},{"name":"react-native"}],"cities":[],"allowsRemote":true}},{"node":{"id":"72094842880-1001054966032","title":"Android разработчик","text":"#вакансия #iOS #android #developer #remote #InStat \n\nГород и адрес офиса: Москва, ст.м. Автозаводская\nФормат работы: удаленка\nЗанятость: полная/проектная\nЗарплатная вилка: от 80 до 130 net\nОписание вакансии:\n\nВсем привет. Ищем разработчиков приложений для Apple TV и Android TV(Box). Мы занимаемся сложными задачами, а также хотим разработать с нуля приложения, а у вас есть возможность поработать в спортивном стартапе и сделать лучшее приложение на рынке.\nЧто главное:\nОпыт разработки приложений Apple TV/Android box обязательно;\nОпыт по созданию продукта для просмотра видео-контента\nЗадачи:\nРазработка OTT приложения для Apple TV/Android box, анализ и оценка задач;\nпроведение code review, участие в SCRUM активностях\nТребования:\nзнание основных паттернов проектирования, REST API; SOLID, GCD, MVP/MVVM, опыт разработки по Apple TV/Android TV, box, знание Android Studio \nМы предлагаем:\nофициальное трудоустройство, полный соц. пакет;удаленное сотрудничество\nПодробнее о вакансиях тут: \nhttps://hh.ru/vacancy/37544424\nhttps://hh.ru/vacancy/37520710\n\nНазвание компании: InStat (https://instatsport.com/)\n\nКонтакты: yana.gurinovich@instatsport.com\n @Yana_Gurinovich","markup":[{"type":"hashtag","offset":0,"length":9,"data":"вакансия"},{"type":"hashtag","offset":10,"length":4,"data":"iOS"},{"type":"hashtag","offset":15,"length":8,"data":"android"},{"type":"hashtag","offset":24,"length":10,"data":"developer"},{"type":"hashtag","offset":35,"length":7,"data":"remote"},{"type":"hashtag","offset":43,"length":7,"data":"InStat"},{"type":"link","offset":991,"length":30,"data":"https://hh.ru/vacancy/37544424"},{"type":"link","offset":1022,"length":30,"data":"https://hh.ru/vacancy/37520710"},{"type":"link","offset":1081,"length":24,"data":"https://instatsport.com/"},{"type":"link","offset":1118,"length":31,"data":"mailto:yana.gurinovich@instatsport.com"},{"type":"handle","offset":1151,"length":16,"data":"Yana_Gurinovich"}],"date":"2020-06-26T13:27:24+00:00","link":"tg://resolve?domain=mobile_jobs&post=68755","tags":[{"name":"mobile"},{"name":"android"},{"name":"ios"},{"name":"dotnet"},{"name":"rest"},{"name":"mvvm"},{"name":"android-studio"}],"cities":[{"code":"moscow"}],"allowsRemote":true}},{"node":{"id":"1745879040-1001091028994","title":"Java разработчик","text":"#вакансия #Java #Spring #middle #backend #удаленно #relocate\n👋Приглашаем Strong Middle Java Developer в продуктовую компанию HFLabs.\n📍Локация: удаленно или можно в офис (Москва м. Парк культуры).\n💸Уровень ЗП: от 180 000 до 250 000 руб. (обсуждается!).\n\nКомпания: HFLabs -разработчик собственных решений. MDM - Master Data Management - Управление основными мастер-данными, СУБД, СХД, Серверные платформы.\n\n🏢О проекте: «Единый клиент» собирает и поддерживает эталонную клиентскую базу. Автоматически исправляет ошибки в клиентских данных, отделяет «плохие» данные от «хороших», находит и схлопывает дубли, идентифицирует взаимосвязи. «Единый клиент» уже обработал 15 млрд. записей и успешно конкурирует с enterprise-продуктами от Oracle и IBM. 100% собственная разработка HFLabs, 0% «индусского» кода.\n\n🧑‍💻Наш стек:\n•Java 11, Stream API, регулярно обновляемые библиотеки;\n•Maven для сборки;\n•Spring как основа проекта;\n•Lucene в качестве быстрого полнотекстового кэша;\n•Oracle DB, PostgreSQL в качестве основной БД. 99% стандартный SQL, никакой «логики на БД»;\n•Spring REST на сервере, JS на клиенте (клиентом занимается фронтенд-разработчик).\n\n✅Мы предлагаем:\n•При переезде в Москву помогаем с оплатой жилья в первые 6 месяцев❗️\n•Участие в разработке крутого продукта в команде, которая ценит Ваше мнение;\n•Мощную технику (8+ ядер, 32+ оперативки, SSD, 2 монитора);\n•Дружный коллектив, 80 человек;\n•При выборе работы в офисе-просторный и тихий офис рядом с м. Парк культуры, кабинет на 2-3 человек или личный;\n•Любые курсы и конференции по специальности.\n\nЖду Ваши резюме и буду рада ответить на все вопросы. Прекрасного дня!☺️\nКонтакты для связи: telegram @anisimovaane4ka","markup":[{"type":"hashtag","offset":0,"length":9,"data":"вакансия"},{"type":"hashtag","offset":10,"length":5,"data":"Java"},{"type":"hashtag","offset":16,"length":7,"data":"Spring"},{"type":"hashtag","offset":24,"length":7,"data":"middle"},{"type":"hashtag","offset":32,"length":8,"data":"backend"},{"type":"hashtag","offset":41,"length":9,"data":"удаленно"},{"type":"hashtag","offset":51,"length":9,"data":"relocate"},{"type":"handle","offset":1662,"length":16,"data":"anisimovaane4ka"}],"date":"2020-06-26T13:22:43+00:00","link":"tg://resolve?domain=jvmjobs&post=1665","tags":[{"name":"java"},{"name":"jvm"},{"name":"spring"},{"name":"oracle"},{"name":"maven"},{"name":"lucene"},{"name":"postgresql"},{"name":"sql"},{"name":"rest"}],"cities":[{"code":"moscow"}],"allowsRemote":true}},{"node":{"id":"17169383424-1001110946746","title":"Js разработчик","text":"#вакансия #javascript #typescript #react #удаленка\n\nГород и адрес офиса: любой\nФормат работы: удаленка\nЗанятость: полная\nЗарплатная вилка: от 105 000 до 130 000 рублей (на руки)\n\nОписание вакансии: Мы отказались от идеи клонировать сотрудников, поэтому продолжаем искать увлеченных High Middle frontend-разработчиков. Разработка веб-приложений на JS для банковской сферы.\n\nСтек технологий:\n– JavaScript, TypeScript;\n– React, Redux, Redux-saga;\n– Babel (ES 2016+), Webpack или Gulp, Git, БЭМ.\n\nНазвание компании: CSSSR\nКонтакты: telegram - @lena_bezbatchenko                                e-mail - elena.bezbatchenko@csssr.io","markup":[{"type":"hashtag","offset":0,"length":9,"data":"вакансия"},{"type":"hashtag","offset":10,"length":11,"data":"javascript"},{"type":"hashtag","offset":22,"length":11,"data":"typescript"},{"type":"hashtag","offset":34,"length":6,"data":"react"},{"type":"hashtag","offset":41,"length":9,"data":"удаленка"},{"type":"handle","offset":539,"length":18,"data":"lena_bezbatchenko"},{"type":"link","offset":598,"length":27,"data":"mailto:elena.bezbatchenko@csssr.io"}],"date":"2020-06-26T12:59:43+00:00","link":"tg://resolve?domain=javascript_jobs_feed&post=16374","tags":[{"name":"javascript"},{"name":"typescript"},{"name":"reactjs"},{"name":"redux"},{"name":"webpack"},{"name":"gulp"},{"name":"git"},{"name":"react-redux"}],"cities":[],"allowsRemote":true}},{"node":{"id":"103810072576-1001089317451","title":"Qa инженер","text":"#вакансия #qa #automation #автоматизация #python #selenium\nГород и адрес офиса:  Москва, м. Новокузнецкая\nФормат работы: офис, пока работаем удаленно\nЗанятость: полная\nЗарплатная вилка: до 140-150к на руки\nОписание вакансии: \nИщу сейчас Специалиста по автоматизированному тестированию в It-компанию, разрабатывающую сервисы для e-commerce по оптимизации финансов и логистики. Ребята строят качественную автоматизированную систему финансирования с точной оценкой рисков и целую экосистему взаиморасчётов на рынке e-commerce. \nНа данный момент открыто новое направление - реализация современной платежной системы внутри данной платформы.\n\nИщем автоматизатора, с опытом работы с Python, Selenium от 1,5 лет.\nПредлагаем: белое оформление, финансирование обучения, офис рядом с м.Новокузнецкая.\nКомпания: pimpey\nКонтакты: Юля, @yuliaataman","markup":[{"type":"hashtag","offset":0,"length":9,"data":"вакансия"},{"type":"hashtag","offset":10,"length":3,"data":"qa"},{"type":"hashtag","offset":14,"length":11,"data":"automation"},{"type":"hashtag","offset":26,"length":14,"data":"автоматизация"},{"type":"hashtag","offset":41,"length":7,"data":"python"},{"type":"hashtag","offset":49,"length":9,"data":"selenium"},{"type":"handle","offset":822,"length":12,"data":"yuliaataman"}],"date":"2020-06-26T11:25:40+00:00","link":"tg://resolve?domain=qa_jobs&post=99001","tags":[{"name":"qa"},{"name":"python"},{"name":"selenium"}],"cities":[{"code":"moscow"}],"allowsRemote":true}},{"node":{"id":"72085405696-1001054966032","title":"Ios developer","text":"#вакансия #спб #ios #middle #senior #spb #офис #IoT #умныйдом \nMiddle/Senior iOS developer \nReady for Sky 🚀 \nhttps://readyforsky.com/ru/career/ \n📍 полный день, удаленно/офис (сейчас вся компания работает удаленно) \nМы ищем iOS developer, который будет разрабатывать приложение, использующее данные с IoT-устройств для предоставления пользователям нужных товаров и услуг \n💡 Используем: Swift, Objective-C; Jenkins; GraphQL; RxSwift; MVC, MVVM и Viper \nВ команде: разрабатываем новый функционал приложения, внутренние фреймворки (Private pods), фреймворки для общего доступа; пишем Unit тесты; принимаем участие в создании протоколов работы с умными устройствами; Refactoring и Code-review. \nПредлагаем: \nРаботу в профессиональной команде (team lead, senior, middle), более 300 000 активных пользователей приложения. \nПолностью белую ЗП от 130 до 250 тыс. руб. на руки \nПосле исп.срока корпоративный английский \n📬 Пиши: @Rupeka_Natali","markup":[{"type":"hashtag","offset":0,"length":9,"data":"вакансия"},{"type":"hashtag","offset":10,"length":4,"data":"спб"},{"type":"hashtag","offset":15,"length":4,"data":"ios"},{"type":"hashtag","offset":20,"length":7,"data":"middle"},{"type":"hashtag","offset":28,"length":7,"data":"senior"},{"type":"hashtag","offset":36,"length":4,"data":"spb"},{"type":"hashtag","offset":41,"length":5,"data":"офис"},{"type":"hashtag","offset":47,"length":4,"data":"IoT"},{"type":"hashtag","offset":52,"length":9,"data":"умныйдом"},{"type":"bold","offset":63,"length":27,"data":""},{"type":"bold","offset":92,"length":13,"data":""},{"type":"link","offset":110,"length":34,"data":"https://readyforsky.com/ru/career/"},{"type":"bold","offset":225,"length":13,"data":""},{"type":"bold","offset":376,"length":11,"data":""},{"type":"bold","offset":454,"length":10,"data":""},{"type":"bold","offset":693,"length":11,"data":""},{"type":"bold","offset":916,"length":5,"data":""},{"type":"handle","offset":922,"length":14,"data":"Rupeka_Natali"}],"date":"2020-06-26T10:40:49+00:00","link":"tg://resolve?domain=mobile_jobs&post=68746","tags":[{"name":"mobile"},{"name":"ios"},{"name":"swift"},{"name":"objective-c"},{"name":"jenkins"},{"name":"graphql"},{"name":"mvvm"}],"cities":[],"allowsRemote":true}},{"node":{"id":"72083308544-1001054966032","title":"Ios разработчик","text":"#вакансия #удаленно #ios #swift #fulltime #remote\n\nКомпания Hoodies \nЗанятость #fulltime #remote\nВилка 150т-180т₽\n\nНужен iOS-разработчик на благотворительный проект по профилактике домашнего насилия Silsila\n\nТвои профессиональные знания могут оказать  поддержку и спасти жизни людей. \n\nТребования\n✅ Опыт от 3 лет коммерческой разработки на Swift.\n✅ Опыт создания кастомных элементов и анимаций. Понимание, что такое микро-анимации и где их использовать.\n✅ Знание и понимание архитектуры MVVM.\n✅ Опыт работы с Dependency Injection.\n✅ Опыт работы с RxSwift.\n✅ Опыт рефакторинга и разделения проекта на модули.\n✅ Опыт написания интеграционных и Unit-тестов.\n\nВ компании присутствует программа повышения квалификации и карьерного роста\n\nПо вакансии гибкий график - вы сами выбираете когда работать, а когда отдыхать\n\nБудем рады рассказать более подробно и ответить на все вопросы😉\nПишите @Maxim_Franshteyn","markup":[{"type":"hashtag","offset":0,"length":9,"data":"вакансия"},{"type":"hashtag","offset":10,"length":9,"data":"удаленно"},{"type":"hashtag","offset":20,"length":4,"data":"ios"},{"type":"hashtag","offset":25,"length":6,"data":"swift"},{"type":"hashtag","offset":32,"length":9,"data":"fulltime"},{"type":"hashtag","offset":42,"length":7,"data":"remote"},{"type":"hashtag","offset":79,"length":9,"data":"fulltime"},{"type":"hashtag","offset":89,"length":7,"data":"remote"},{"type":"bold","offset":114,"length":23,"data":""},{"type":"link","offset":199,"length":7,"data":"http://silsila.ru/"},{"type":"bold","offset":285,"length":12,"data":""},{"type":"code","offset":297,"length":1,"data":""},{"type":"bold","offset":812,"length":66,"data":""},{"type":"handle","offset":885,"length":17,"data":"Maxim_Franshteyn"}],"date":"2020-06-26T10:33:09+00:00","link":"tg://resolve?domain=mobile_jobs&post=68744","tags":[{"name":"mobile"},{"name":"ios"},{"name":"swift"},{"name":"mvvm"}],"cities":[],"allowsRemote":true}},{"node":{"id":"72082259968-1001054966032","title":"Android разработчик","text":"#вакансия: #android #middle\nГород : Томск\nФормат работы: офис, удаленно\nЗанятость : Полная\nЗарплатная вилка80 000- 180 000\n\nОписание компании\nМы Digital Nomads проектируем и разрабатываем мобильные приложения на  iOS, Android, так же открываем направление кроссплатформенной разработки на React Native и Flutter\n\nИщем android разработчика\n\nТребования:\n\n- Опыт разработки мобильных приложений от 1,5 лет.\n- Знание и понимание ООП и паттернов проектирования, СУБД;\n- Знание Java или Kotlin, Android SDK, API и Design Guidelines, SQLite;\n- Знание RxJava, Dagger2, Retrofit;\n- Уверенное знания Git / Bitbucket;\n- Android Framework;\n- Умение писать аккуратный читаемый код, а также разбираться в чужом коде;\n- Знание английского языка на уровне чтения технической документации;\n- Приветствуются завершенные проекты для ознакомления (Google Play + GitHub).\n- Сотрудничаем с разработчиками РФ.\n Условия\n- Возможность работать удаленно или в комфортном офисе.\n- У нас гибкий 8-часовой рабочий день, поэтому вы можете работать в наиболее продуктивное для себя время.\n- Оформление по ТК РФ.\n- Разнообразие задач, технологий, возможность участия в международных проектах и в проектах с крупными заказчиками, определяющими отрасль.\n- Еженедельные занятия английским языком в офисе.\n\nКонтакты: @Denis5726","markup":[{"type":"hashtag","offset":0,"length":9,"data":"вакансия"},{"type":"hashtag","offset":11,"length":8,"data":"android"},{"type":"hashtag","offset":20,"length":7,"data":"middle"},{"type":"handle","offset":1281,"length":10,"data":"Denis5726"}],"date":"2020-06-26T10:30:10+00:00","link":"tg://resolve?domain=mobile_jobs&post=68743","tags":[{"name":"mobile"},{"name":"android"},{"name":"ios"},{"name":"reactjs"},{"name":"flutter"},{"name":"java"},{"name":"kotlin"},{"name":"sqlite"},{"name":"git"},{"name":"playframework"},{"name":"github"},{"name":"react-native"}],"cities":[{"code":"tomsk"}],"allowsRemote":true}},{"node":{"id":"103798538240-1001089317451","title":"Qa engineer","text":"#вакансия #Москва #офис #QA #тестировщик #fulltime\n\nГород и адрес офиса: Москва, м. Новокузнецкая/Павелецкая\nФормат работы: #офис\nЗанятость: #полная\nЗП: от 90к до 120к руб. нетт\n\nSports.ru - провайдер развлечений для любителей спорта.\nЕсть спорт. Есть болельщики. Мы заполняем среду между ними, оживляем ее, наполняем общением и другими развлечениями. Мы делаем не «сайты» или «приложения», а мультиплатформенные продукты, с учетом актуальной технологической парадигмы.\n\nМы ищем Middle QA Engineer'а в наш флагманский проект Sports.ru.\nЭто главное медиа о спорте на русском языке с аудиторией 18 млн пользователей в месяц. Highload-проект с десятками тысяч RPS, состоящий из самых разных продуктов – сайтов, мобильных приложений, email-рассылок, чат-ботов и многого другого.\n\nВ данный момент мы заняты активным внедрением процесса тестирования. Под капотом - нативный js на фронте, php+perl на бэке. Все новые сервисы разрабатываем на новом стеке: vue.js+ssr+golang+graphql. Да, легаси есть - иногда попадается, но в тестирование всё же большинство задач идут на новом стеке.\n\nО задачах\nВы будете заниматься приёмкой фич и проведением регресса, написанием тестовой документации, разработкой автотестов и регистрацией ошибок в баг-трекере.\n\nО наших ожиданиях\nМы ждем, что вы уже минимум пару лет как в профессии и имеете хороший опыт ручного тестирования. Знаете различные инструменты и подходы к тестированию, обладаете навыками тест-дизайна и умеете их применять.\nПонимаете процессы разработки и тестирования, а также, что процессы не могут быть идеальными, но к этому необходимо стремиться.\nМы также ждем, что вы уже имеете навыки автоматизации и не ограничились одним инструментом.\n\nБудет плюсом\nЕсли вы уже пробовали себя в нагрузочном тестировании и автоматизации мобильных устройств.\n\nОб условиях:\nПросторный стильный офис возле м. Новокузнецкая/Третьяковская.\n“Белая” заработная плата.\nБесплатная медстраховка со стоматологией после испытательного срока.\nГибкий график работы с возможностью день-два в неделю работать удаленно,\nФрукты, снеки, чай, кофе, какао 24/7.\nКорпоративная скидка в спортзал и на занятия английским языком.\nКорпоративный футбол с тренером.\nФинансовая помощь при переезде из другого города.\nВозможности для профессионального развития.\n\nНазвание компании: Sports.ru (Tribuna Digital)\nКого заинтересовало, пишите мне в личку (@pbuyatova), рада буду поделиться подробностями:)","markup":[{"type":"hashtag","offset":0,"length":9,"data":"вакансия"},{"type":"hashtag","offset":10,"length":7,"data":"Москва"},{"type":"hashtag","offset":18,"length":5,"data":"офис"},{"type":"hashtag","offset":24,"length":3,"data":"QA"},{"type":"hashtag","offset":28,"length":12,"data":"тестировщик"},{"type":"hashtag","offset":41,"length":9,"data":"fulltime"},{"type":"hashtag","offset":124,"length":5,"data":"офис"},{"type":"hashtag","offset":141,"length":7,"data":"полная"},{"type":"link","offset":179,"length":9,"data":"http://Sports.ru"},{"type":"bold","offset":179,"length":9,"data":""},{"type":"bold","offset":479,"length":20,"data":""},{"type":"link","offset":525,"length":9,"data":"http://Sports.ru"},{"type":"bold","offset":1077,"length":10,"data":""},{"type":"bold","offset":1240,"length":18,"data":""},{"type":"bold","offset":1686,"length":13,"data":""},{"type":"bold","offset":1791,"length":13,"data":""},{"type":"link","offset":2284,"length":9,"data":"http://Sports.ru"},{"type":"handle","offset":2353,"length":10,"data":"pbuyatova"}],"date":"2020-06-26T10:04:13+00:00","link":"tg://resolve?domain=qa_jobs&post=98990","tags":[{"name":"qa"},{"name":"php"},{"name":"perl"},{"name":"vuejs"},{"name":"go"},{"name":"graphql"}],"cities":[{"code":"moscow"}],"allowsRemote":true}},{"node":{"id":"72071774208-1001054966032","title":"Android developer","text":"#вакансия #Juniorandroid #Android developer #kotlin #удаленно                                                                                                         Уровень дохода:💵 50 000-60 000  рублей net                                                                                                                                                                                 Требуемый опыт работы: от 1 года\nПолная занятость, дистанционно, гибкое начало рабочего дня\n \n📌Требования:\n- Нативная Android разработка (Kotlin)\n- Умение писать поддерживаемый и тестируемый код\n- Умение работать с Dagger 2\n- Умение работать с git\n- Желание развиваться и изучать новое в разработке\n- Опыт разработки приложений от 1 года\n -Знание английского языка от уровня Intermediate\n \n📌Будет плюсом:\n- Опыт работы с JNI\n- Опыт использования tensorflow\n- Опыт работы с аудио и видео\n\n📌Условия:\n- Отсутствие бюрократии\n- Время начала рабочего дня обговариваем индивидуально\n- Крутой инновационный проект - возможность самореализации и профессионального роста\n- Стабильное зарубежное финансирование\n- Десятки миллионов установок и множество глобальных партнёров\n📞Контакты @SvetikS_hr +7(963)-632-12-36 Cветлана","markup":[{"type":"hashtag","offset":0,"length":9,"data":"вакансия"},{"type":"hashtag","offset":10,"length":14,"data":"Juniorandroid"},{"type":"hashtag","offset":25,"length":8,"data":"Android"},{"type":"hashtag","offset":44,"length":7,"data":"kotlin"},{"type":"hashtag","offset":52,"length":9,"data":"удаленно"},{"type":"link","offset":184,"length":13,"data":"tel:50 000-60 000"},{"type":"handle","offset":1164,"length":11,"data":"SvetikS_hr"},{"type":"link","offset":1176,"length":17,"data":"tel:+7(963)-632-12-36"}],"date":"2020-06-26T09:01:09+00:00","link":"tg://resolve?domain=mobile_jobs&post=68733","tags":[{"name":"mobile"},{"name":"android"},{"name":"kotlin"},{"name":"dotnet"},{"name":"git"},{"name":"tensorflow"}],"cities":[],"allowsRemote":true}}]}},"context":{}}