{"hash":"f5f6bf98bd95e769321482904cbbd488f77922fd","data":{"records":{"totalCount":669,"pageInfo":{"totalPages":67,"currentPage":21},"edges":[{"node":{"id":"103967358976-1001089317451","title":"Qa инженер","text":"#вакансия #QA  #fulltime  #офис #Москва\nИщу ВЕДУЩЕГО ТЕСТИРОВЩИКА  в HOLODILNIK.RU, это  один из ведущих игроков на рынке электронной торговли. Компания приглашает в свою команду профессионала, кто своими знаниями в тестировании программного обеспечения поможет в проектах развития информационных систем интернет-магазина, CRM, интеграции партнерами.\n\n✅Обязанности:\n\n· Построение и поддержка процессов тестирования (ручного и автоматизированного UI тестирования).\n\n· Осуществление процесса тестирования: декомпозиция и оценка задач QA, распределение задач, ревью результатов работы.\n\n· Непосредственное участие в процессе функционального и регрессионного тестирования web-приложений; анализа и тестирования требований.\n\n· Составление тестовой документации (тест-планы, тест-кейсы, чек- листы) и поддержка уже существующей в актуальном состоянии.\n\n· Планирование тестовых сценариев для автоматизации.\n\n✅Требования:\n\n· Опыт работы в качестве QA инженера веб-приложений (от 3-х лет)\n\n· Опыт построения и поддержания процесса обеспечения качества\n\n· Опыт автоматизации тестирования (желательно - Selenium WebDriver);\n\n· Опыт работы с инструментами CI (Jenkins)\n\n· Знание методологий и инструментов тестирования\n\n· Навыки тест-дизайна (тест-кейсы, чек-листы), опыт создания комплексных тест-кейсов;\n\n· Опыт участия в сессиях исследовательского тестирования\n\n· Знание REST, опыт тестирования API (Postman, SoapUI);\n\n· Знание SQL, опыт написания SQL-скриптов и запросов\n\n· Понимание процессов разработки ПО\n\n· Знания XML, CSS, Html;\n\n· Опыт работы с баг-трекинговыми системами (желательно - Jira).\n\n\n✅Условия:\nЗП от 140 000 до 170 000 на руки\n\n· Место работы: Москва, м.Краснопресненская\n\n· При необходимости удаленная работа.\n\n· График работы: 5/2 с 9:00 до 18:00.\n\nКонтакты 🖊\ne-mail: anna-recruitment@mail.ru\nTelegram: @anna_recruitment","markup":[{"type":"hashtag","offset":0,"length":9,"data":"вакансия"},{"type":"hashtag","offset":10,"length":3,"data":"QA"},{"type":"hashtag","offset":15,"length":9,"data":"fulltime"},{"type":"hashtag","offset":26,"length":5,"data":"офис"},{"type":"hashtag","offset":32,"length":7,"data":"Москва"},{"type":"link","offset":69,"length":13,"data":"http://HOLODILNIK.RU"},{"type":"link","offset":1780,"length":24,"data":"mailto:anna-recruitment@mail.ru"},{"type":"handle","offset":1815,"length":17,"data":"anna_recruitment"}],"date":"2020-06-29T10:25:38+00:00","link":"tg://resolve?domain=qa_jobs&post=99151","tags":[{"name":"qa"},{"name":"web"},{"name":"selenium"},{"name":"jenkins"},{"name":"rest"},{"name":"sql"},{"name":"xml"},{"name":"css"},{"name":"html"}],"cities":[{"code":"moscow"}],"allowsRemote":true}},{"node":{"id":"103966310400-1001089317451","title":"Qa инженер","text":"#Москва #вакансия #QA #тестировщик #автотестирование #bellintegrator\n\nКомпания Bell integrator – международная аутсорсинговая компания. Сейчас есть несколько интересных проектов в крупном банке.\n\nТребования:\n-Опыт работы в тестировании от 3х лет\n-Опыт работы с Java + Selenium\n-Знание SQL \n\nУсловия: ЗП 140-200 т.р. комфортный офис в г.Москва, а пока временная удаленка, оформление по ТК РФ.\nКонтакт: @AnnDemina или ASDemina@bellintegrator.com","markup":[{"type":"hashtag","offset":0,"length":7,"data":"Москва"},{"type":"hashtag","offset":8,"length":9,"data":"вакансия"},{"type":"hashtag","offset":18,"length":3,"data":"QA"},{"type":"hashtag","offset":22,"length":12,"data":"тестировщик"},{"type":"hashtag","offset":35,"length":17,"data":"автотестирование"},{"type":"hashtag","offset":53,"length":15,"data":"bellintegrator"},{"type":"bold","offset":70,"length":8,"data":""},{"type":"bold","offset":79,"length":15,"data":""},{"type":"bold","offset":196,"length":10,"data":""},{"type":"bold","offset":291,"length":7,"data":""},{"type":"bold","offset":392,"length":7,"data":""},{"type":"handle","offset":401,"length":10,"data":"AnnDemina"},{"type":"link","offset":416,"length":27,"data":"mailto:ASDemina@bellintegrator.com"}],"date":"2020-06-29T10:07:17+00:00","link":"tg://resolve?domain=qa_jobs&post=99150","tags":[{"name":"qa"},{"name":"java"},{"name":"selenium"},{"name":"sql"}],"cities":[{"code":"moscow"}],"allowsRemote":true}},{"node":{"id":"1756364800-1001091028994","title":"Java разработчик","text":"#java#fulltime \nЛокация: #Москва ст.м.Петровско-Разумовская, мцк/мжд Окружная \nФормат работы: 5/2 с гибким началом дня, 1 день в неделю можно работать удаленно,остальные в офисе #fulltime  \nЗ/п:  300-400 000 руб. gross (опыт от 5 лет) \nКомпания: ПАО «Детский Мир» \nОснования появления: Расширяем команду, много новых задач. Если ты устал/а от бюрократии и не стабильности- приходи в нашу команду! \nКрупнейший ритейлер на рынке детских товаров (до 130000 заказов в сутки, более 30 000 одновременных пользователей на сайте, 2000-3000 rps на базовые сервисы) ищет Java разработчика для разработки бэкенда в сфере e-commerce. \n \n  Что мы используем : \nJava 14/Scala 2.13, Spring, SpringBoot , Sbt/Maven, MySQL, Kafka, JUnit, Jenkins, GitLab, Docker, Kubernetes, Jira/Confluence, Scrum, Kanban \n \n   Что нужно делать? \n⁃    Писать качественный код для распределенной системы, стек: Java 14/Kafka/Redis/Solr/MySQL \n⁃    Проводить code review кода коллег по команде \n⁃    Разбираться в сложных вопросах интеграции со смежными системами \n⁃    Участвовать в создании архитектурных решений и проектировании высоконагруженных отказоустойчивых систем \n \n    Наши ожидания: \n• Хорошие знания J2SE, в частности - Java Concurrency, Collections \n• Опыт работы с Spring \n• Опыт работы и проектирования REST API \n• Знания SQL и оптимизации запросов \n• Понимание принципов работы сетей: TCP/IP, HTTP, Websockets, etc. \n• Владение git \n• Базовое знание архитектурных паттернов и типичных вариантов решения проблем с производительностью \n \n    Желательно: \n• Базовые знания Docker/Kubernetes \n• Опыт разработки распределенных систем \n• Опыт работы c lucene (Apache Solr, ElasticSearch, Kibana) \n \nМы предлагаем: \n• Официальное оформление в соответствии с ТК РФ в том числе возможно онлайн оформление (или оффлайн в офисе) \n• Отсутствие бюрократии и плоская организационная структура \n• Лояльный бизнес, постоянные коммуникации, возможность на равных обсуждать бизнес-фичи на стадии формирования \n• Хорошая техническая оснащенность: MacBook pro 2019, 27 дюймовые мониторы(4к/5к) \n• до 20% скидка на продукцию компании, расширенный полис ДМС \n• Внешнее обучение, оплата участия в конференциях(JPoint, Highload, Joker etc) \n• Годовые бонусы по итогам работы, ежегодная индексация дохода \n \nСейчас пока работаем частично удаленно, 2 интервью в формате скайпа, не выходя из дома (в офис ехать не обязательно). По любым вопросам отвечу в:  \ntelegram:  @HR_aleshina почта: EAleshina@detmir.ru","markup":[{"type":"hashtag","offset":25,"length":7,"data":"Москва"},{"type":"hashtag","offset":178,"length":9,"data":"fulltime"},{"type":"handle","offset":2425,"length":12,"data":"HR_aleshina"},{"type":"link","offset":2445,"length":19,"data":"mailto:EAleshina@detmir.ru"}],"date":"2020-06-29T09:43:28+00:00","link":"tg://resolve?domain=jvmjobs&post=1675","tags":[{"name":"java"},{"name":"jvm"},{"name":"scala"},{"name":"spring"},{"name":"sbt"},{"name":"maven"},{"name":"mysql"},{"name":"kafka"},{"name":"junit"},{"name":"jenkins"},{"name":"gitlab"},{"name":"docker"},{"name":"kubernetes"},{"name":"redis"},{"name":"solr"},{"name":"rest"},{"name":"sql"},{"name":"git"},{"name":"lucene"},{"name":"apache"},{"name":"elasticsearch"}],"cities":[{"code":"moscow"}],"allowsRemote":true}},{"node":{"id":"1755316224-1001091028994","title":"Java developer","text":"#Senior #Java #Developer\nКомпания: #Утконос\nЛокация: #Москва\nЗ/п: до 320 000 Net\nКонтакт: @RecruiterTatianaK\nSenior Java Developer в Утконос Онлайн\n📍Наш проект:\nВ компании разрабатывается комплексная система по управлению складом (WMS). Систему пишем сами «с нуля» на микросервисной архитектуре. \nСистема является ключевой для бизнеса и проектируется под высокие нагрузки.\n📍Что нужно делать?\nАвтоматизировать бизнес процессы на складе в одной из scrum команд в количестве 10 человек, прорабатывать архитектурные решения, замещать тим лида при необходимости.\n📍Наш стек:\nJava 11/Kotlin, Spring Boot 2.3.0, Camunda BPM, Kafka, Kubernetes, ELK, Grafana, Prometheus\n📍Что предлагаем?\nОформление по ТК РФ, ДМС\nГибкий график\nВозможность работы удаленно\nСплоченный и профессиональный коллектив\nКорпоративные скидки на utkonos.ru, tui.ru, фитнес, кино и др.\nОфис - 10 минут  от м. Краснопресненская/ м.Улица 1905 года","markup":[{"type":"hashtag","offset":0,"length":7,"data":"Senior"},{"type":"hashtag","offset":8,"length":5,"data":"Java"},{"type":"hashtag","offset":14,"length":10,"data":"Developer"},{"type":"hashtag","offset":35,"length":8,"data":"Утконос"},{"type":"hashtag","offset":53,"length":7,"data":"Москва"},{"type":"handle","offset":90,"length":18,"data":"RecruiterTatianaK"},{"type":"link","offset":813,"length":10,"data":"http://utkonos.ru"},{"type":"link","offset":825,"length":6,"data":"http://tui.ru"}],"date":"2020-06-29T09:38:10+00:00","link":"tg://resolve?domain=jvmjobs&post=1674","tags":[{"name":"java"},{"name":"jvm"},{"name":"dotnet"},{"name":"kotlin"},{"name":"spring"},{"name":"kafka"},{"name":"kubernetes"},{"name":"spring-boot"}],"cities":[{"code":"moscow"},{"code":"lida"}],"allowsRemote":true}},{"node":{"id":"72233254912-1001054966032","title":"Ios разработчик","text":"#вакансия #swift #objective-C #ios\n\niOS разработчик удаленно по России \nmiddle/senior\n\nГород : Санкт-Петербург\nФормат работы: офис или удаленно\nЗанятость: Полная\nЗарплатная вилка:  90 000 - 200 000 руб\n\n\nОписание компании:\nВ Blogman мы занимаемся разработкой собственного приложения – платформа для блогеров и рекламодателей. В нашей команде уже более 50 разработчиков и мы продолжаем расти. Сейчас мы ищем инженера с опытом коммерческой разработки под iOS.\n\nМы ожидаем, что у вас есть:\n— Опыт коммерческой разработки мобильных приложений под iOS;\n— Хорошие знания Swift, UIKit;\n— Опыт работы с мобильными БД;\n— Умение работать с Git, Cocoapods.\n\nБудет плюсом, если вы:\n— Разрабатывали клиент-серверные приложения;\n— Умеете работать с WebSocket;\n— Знаете и понимаете архитектуру VIPER;\n— Командный игрок без яркого эгоцентризма;\n— Готовы активно принимать участие в жизни компании и продукта.\n\nРады предложить:\n– Удаленное сотрудничество или комфортный офис на Невском проспекте в 5 минутах ходьбы от ст. м. Маяковская и Владимирская;\n– Желаемый оклад по результатам собеседования;\n– Понятную систему роста зарплаты каждые 6 месяцев, в которой все зависит только от вас;\n– Все необходимые офисные блага вроде вкусного кофе и т.д.\nВас будут окружать адекватные люди, с которыми комфортно решать поставленные задачи. У сотрудников есть общие ценности, такие как стремление к качественному результату, забота о продукте и желание двигаться вперед. Также у нас нет “Начальства”, а есть коллеги. Все взаимодействуют горизонтально и в команде равенство между инженерами, стейкхолдером, продактом и т.д. Все работают бок о бок и делают одно общее дело.\nНазвание компании: Blogman\nКонтакты: @maria_golovina","markup":[{"type":"hashtag","offset":0,"length":9,"data":"вакансия"},{"type":"hashtag","offset":10,"length":6,"data":"swift"},{"type":"hashtag","offset":17,"length":10,"data":"objective"},{"type":"hashtag","offset":30,"length":4,"data":"ios"},{"type":"bold","offset":225,"length":8,"data":""},{"type":"bold","offset":459,"length":27,"data":""},{"type":"bold","offset":647,"length":22,"data":""},{"type":"bold","offset":894,"length":16,"data":""},{"type":"handle","offset":1683,"length":15,"data":"maria_golovina"}],"date":"2020-06-29T09:09:05+00:00","link":"tg://resolve?domain=mobile_jobs&post=68887","tags":[{"name":"mobile"},{"name":"ios"},{"name":"swift"},{"name":"objective-c"},{"name":"uikit"},{"name":"git"},{"name":"cocoapods"},{"name":"websocket"}],"cities":[],"allowsRemote":true}},{"node":{"id":"1753219072-1001091028994","title":"Java программист","text":"Вакансия: #java #middle #senior\nКомпания: #dcloud\nЛокация: #москва\nЗ/п: ставка от 1000 до 1300 р/ч\nЗанятость: полная, частичная\nФормат: удалённо\n\nИщем опытного java-программиста для разработки, настройки и оптимизации ПО для интеграционных сервисов \n\nОжидаем от Вас опыт работы java-программистом от 2 лет, знание минимум одного фреймворка для javа и понимание архитектуры микросервисных приложений.\n\nПредлагаем работу в распределенной команде на удаленной основе с частичной (не менее 30 часов в неделю) или полной занятостью.\n\nCпециализируемся на разработке веб и мобильных приложений.\nПроекты по разработке высоконагруженных гибкомасштабируемых систем.\nАрхитектура - микросевисы. Использование контейнеризации. \nРазработка crm, чат платформы, билинговые системы,  для финансовых организаций.\n\nКонтакты: @irarudakova","markup":[{"type":"bold","offset":0,"length":9,"data":""},{"type":"hashtag","offset":10,"length":5,"data":"java"},{"type":"hashtag","offset":16,"length":7,"data":"middle"},{"type":"hashtag","offset":24,"length":7,"data":"senior"},{"type":"bold","offset":32,"length":9,"data":""},{"type":"hashtag","offset":42,"length":7,"data":"dcloud"},{"type":"bold","offset":50,"length":8,"data":""},{"type":"hashtag","offset":59,"length":7,"data":"москва"},{"type":"bold","offset":67,"length":5,"data":""},{"type":"bold","offset":99,"length":10,"data":""},{"type":"bold","offset":128,"length":8,"data":""},{"type":"bold","offset":146,"length":4,"data":""},{"type":"bold","offset":251,"length":7,"data":""},{"type":"bold","offset":401,"length":10,"data":""},{"type":"bold","offset":529,"length":16,"data":""},{"type":"bold","offset":796,"length":10,"data":""},{"type":"handle","offset":806,"length":12,"data":"irarudakova"}],"date":"2020-06-29T08:55:57+00:00","link":"tg://resolve?domain=jvmjobs&post=1672","tags":[{"name":"java"},{"name":"jvm"}],"cities":[{"code":"moscow"}],"allowsRemote":true}},{"node":{"id":"17208180736-1001110946746","title":"Javascript разработчик","text":"#вакансия #ReactNative #mobile #remote #senior\nФормат работы: удаленка\nЗанятость: полная\nКомпания: deployplace\nОжидания по зарплате: 25-35$/h\n\nОписание: Мы продуктовая компания, никаких аутсорсов и проч. Ищем Senior ReactNative engineer\n\nТребования:\n- Имеются опубликованные(доведеные до релиза) приложения в AppStore/GooglePlay.\n- ReactNative\n- Typescript\n- React/Mobx\n- Опыт с компонентами react-native\n- Опыт с grpc/protobuf будет плюсом\n- Опыт с высокой нагрузкой и большой базой пользователей будет плюсом\n\nЗа более подробной информацией о проекте в ЛС\nКонтакты: @NAA482","markup":[{"type":"hashtag","offset":0,"length":9,"data":"вакансия"},{"type":"hashtag","offset":10,"length":12,"data":"ReactNative"},{"type":"hashtag","offset":23,"length":7,"data":"mobile"},{"type":"hashtag","offset":31,"length":7,"data":"remote"},{"type":"hashtag","offset":39,"length":7,"data":"senior"},{"type":"handle","offset":568,"length":7,"data":"NAA482"}],"date":"2020-06-29T08:54:53+00:00","link":"tg://resolve?domain=javascript_jobs_feed&post=16411","tags":[{"name":"javascript"},{"name":"mobile"},{"name":"typescript"},{"name":"reactjs"},{"name":"react-native"}],"cities":[],"allowsRemote":true}},{"node":{"id":"1752170496-1001091028994","title":"Java разработчик","text":"#вакансия #java #spring #mysql #kotlin #remote\nKotlin- web разработчик\nГород и адрес офиса: remote\nФормат работы: #remote\nЗанятость: фулл тайм\nЗарплатная вилка: 25-35$/h \nНазвание компании: Axell Solutions\n\nВы будете заниматься интеграцией внешних платежных систем, в нашу платформу, разработкой платформы и поддержкой существующих решений.\n\nЯзыки бэк:\n- kotlin\n\nБазы/всякое:\n- mysql\n- spring\n- protobuf\n\nАдминистрирование:\n- базовые навыки администрирования линукса\n- docker\n- способность понимать где проблема\n\nОбщее:\n- опыт разработки веб-приложений не менее 5 лет\n- приветствуется опыт с высокой нагрузкой\n- опыт в больших проектах\n- любовь к ФП\n- нацеленность на результат\n\nСтучитесь сюда: @NAA482","markup":[{"type":"hashtag","offset":0,"length":9,"data":"вакансия"},{"type":"hashtag","offset":10,"length":5,"data":"java"},{"type":"hashtag","offset":16,"length":7,"data":"spring"},{"type":"hashtag","offset":24,"length":6,"data":"mysql"},{"type":"hashtag","offset":31,"length":7,"data":"kotlin"},{"type":"hashtag","offset":39,"length":7,"data":"remote"},{"type":"hashtag","offset":114,"length":7,"data":"remote"},{"type":"handle","offset":695,"length":7,"data":"NAA482"}],"date":"2020-06-29T08:52:48+00:00","link":"tg://resolve?domain=jvmjobs&post=1671","tags":[{"name":"java"},{"name":"jvm"},{"name":"spring"},{"name":"mysql"},{"name":"kotlin"},{"name":"web"},{"name":"docker"}],"cities":[],"allowsRemote":true}},{"node":{"id":"72229060608-1001054966032","title":"Android разработчик","text":"#вакансия #работа #Android #удалёнка \n\nГород: Москва, Преображенская площадь;\nФормат работы: фулл тайм удаленно \n\nЗарплатная вилка: от 150 000 до 230 000;\nКомпания: АО «Почта банк»\n\nМы занимаем лидирующие позиции в рейтингах Интернет-банков, и не останавливаемся на достигнутом. Приглашаем к себе в команду разработчика Android.\n\nВАША ГЛАВНАЯ ЗАДАЧА:\n⚡️Разработка систем дистанционного банковского обслуживания (мобильный банк) на Android.\n\nНАШИ ТРЕБОВАНИЯ:\n✅ Опыт разработки для платформы Android от 3-х лет;\n✅ Знание Android SDK, Java, Kotlin, Rest/SOAP, Google Maps API, SQLite;\n\nВАШИМ ДОПОЛНИТЕЛЬНЫМ ПРЕИМУЩЕСТВОМ БУДЕТ:\n✅ Наличие высшего технического образования;\n✅ Знание стандартов проектирования и разработки мобильных приложений;\n✅ Знание архитектуры мобильных приложений и реализации серверного взаимодействия для мобильных приложений;\n✅ Навыки работы с многопоточностью;\n✅Опыт работы в банковской сфере.\n\nГОТОВЫ ВАМ ПРЕДЛОЖИТЬ:\n🔹 Удобный график («плавающее» начало рабочего дня);\n🔹 Удаленный формат работы;\n🔹 Оклад + квартальное премирование + годовой бонус;\n🔹 Agile. Scrum (двухнедельные спринты, работа в командах по 6-8 человек: 2 backend, 3 frontend, системный аналитик, 2 тестировщика) Демократия и самоорганизация + наличие удаленного доступа;\n🔹 Обучение - доступное внутреннее и внешнее обучение. В Банке есть корпоративная академия. Регулярно проходят внутренние митаппы, tech. chapters и ретроспективы. Мы посещаем ключевые отраслевые конференции;\n🔹 Профессиональное развитие - мы используем современный стэк, поддерживаем разумные инициативы по внедрению новшеств, совершенствуем архитектуру и кодовую базу;\n🔹 Карьерный рост- команда постоянно растет. В зависимости от вклада, каждый сотрудник может претендовать на повышение дохода, новый функционал и дополнительные задачи. Мы держимся за наших сотрудников;\n🔹 ДМС. Многочисленные скидки и бонусы от партнеров (от каршеринга до ипотеки).\n\nКонтакты: @dorogavtseva","markup":[{"type":"hashtag","offset":0,"length":9,"data":"вакансия"},{"type":"hashtag","offset":10,"length":7,"data":"работа"},{"type":"hashtag","offset":18,"length":8,"data":"Android"},{"type":"hashtag","offset":27,"length":9,"data":"удалёнка"},{"type":"handle","offset":1929,"length":13,"data":"dorogavtseva"}],"date":"2020-06-29T08:50:42+00:00","link":"tg://resolve?domain=mobile_jobs&post=68883","tags":[{"name":"mobile"},{"name":"android"},{"name":"java"},{"name":"kotlin"},{"name":"rest"},{"name":"soap"},{"name":"sqlite"},{"name":"google-maps"}],"cities":[{"code":"moscow"}],"allowsRemote":true}},{"node":{"id":"17206083584-1001110946746","title":"Javascript разработчик","text":"#вакансия #frontend #remote #react\nВакансия: frontend developer\nКомпания: Done'am\nСтавка: от 900 до 1100 р/ч\nЗанятость: полная\nФормат: удалённо\n\nВ связи с увеличением объемов работ ищем опытных разработчиков на стеке React+ Redux: мидл, синиор.\n\nОсновная задача: разработка, поддержка, оптимизация фронта. Микросервисная архитектура.\n\nПредлагаем работу в распределенной команде на удаленной основе с частичной (не менее 30 часов в неделю) или полной занятостью.\n\nCпециализируемся на разработке высоконагруженных гибкомасштабируемых систем c микросевисной архитектурой: crm, чат платформы, билинговые системы,  для финансовых организаций.\n\nКонтакты: @Tragoman","markup":[{"type":"hashtag","offset":0,"length":9,"data":"вакансия"},{"type":"hashtag","offset":10,"length":9,"data":"frontend"},{"type":"hashtag","offset":20,"length":7,"data":"remote"},{"type":"hashtag","offset":28,"length":6,"data":"react"},{"type":"handle","offset":649,"length":9,"data":"Tragoman"}],"date":"2020-06-29T08:49:53+00:00","link":"tg://resolve?domain=javascript_jobs_feed&post=16409","tags":[{"name":"javascript"},{"name":"reactjs"},{"name":"redux"},{"name":"react-redux"}],"cities":[],"allowsRemote":true}}]}},"context":{}}