{"hash":"f5f6bf98bd95e769321482904cbbd488f77922fd","data":{"records":{"id":"websocket","name":"websocket","belongsTo":{"totalCount":23,"pageInfo":{"totalPages":3,"currentPage":2},"edges":[{"node":{"__typename":"Job","id":"71918682112-1001054966032","title":"Ios разработчик","text":"#вакансия #swift #objective-C #ios\n\niOS разработчик удаленно по России \nmiddle/senior\n\nГород : Санкт-Петербург\nФормат работы: офис или удаленно\nЗанятость: Полная\nЗарплатная вилка:  90 000 - 200 000 руб\n\n\nОписание компании:\nВ Blogman мы занимаемся разработкой собственного приложения – платформа для блогеров и рекламодателей. В нашей команде уже более 50 разработчиков и мы продолжаем расти. Сейчас мы ищем инженера с опытом коммерческой разработки под iOS.\nОсновной стек технологий — Swift, Realm, Alamofire. Сейчас мы разрабатываем бизнес-функционал и будем рады новому специалисту в нашей команде, вместе с которым мы будем делать быстрое приложение с отзывчивым и плавным интерфейсом.\n\nМы ожидаем, что у вас есть:\n— Опыт коммерческой разработки мобильных приложений под iOS;\n— Хорошие знания Swift, UIKit;\n— Опыт работы с мобильными БД;\n— Умение работать с Git, Cocoapods.\n\nБудет плюсом, если вы:\n— Разрабатывали клиент-серверные приложения;\n— Умеете работать с WebSocket;\n— Знаете и понимаете архитектуру VIPER;\n— Командный игрок без яркого эгоцентризма;\n— Готовы активно принимать участие в жизни компании и продукта.\n\nРады предложить:\n– Удаленное сотрудничество или комфортный офис на Невском проспекте в 5 минутах ходьбы от ст. м. Маяковская и Владимирская;\n– Желаемый оклад по результатам собеседования;\n– Понятную систему роста зарплаты каждые 6 месяцев, в которой все зависит только от вас;\n– Все необходимые офисные блага вроде вкусного кофе и т.д.\nВас будут окружать адекватные люди, с которыми комфортно решать поставленные задачи. У сотрудников есть общие ценности, такие как стремление к качественному результату, забота о продукте и желание двигаться вперед. Также у нас нет “Начальства”, а есть коллеги. Все взаимодействуют горизонтально и в команде равенство между инженерами, стейкхолдером, продактом и т.д. Все работают бок о бок и делают одно общее дело.\nНазвание компании: Blogman\nКонтакты: @maria_golovina","markup":[{"type":"hashtag","offset":0,"length":9,"data":"вакансия"},{"type":"hashtag","offset":10,"length":6,"data":"swift"},{"type":"hashtag","offset":17,"length":10,"data":"objective"},{"type":"hashtag","offset":30,"length":4,"data":"ios"},{"type":"bold","offset":225,"length":8,"data":""},{"type":"bold","offset":490,"length":2,"data":""},{"type":"bold","offset":497,"length":2,"data":""},{"type":"bold","offset":690,"length":27,"data":""},{"type":"bold","offset":878,"length":22,"data":""},{"type":"bold","offset":1125,"length":16,"data":""},{"type":"handle","offset":1914,"length":15,"data":"maria_golovina"}],"date":"2020-06-24T08:04:26+00:00","link":"tg://resolve?domain=mobile_jobs&post=68587","tags":[{"name":"mobile"},{"name":"ios"},{"name":"swift"},{"name":"objective-c"},{"name":"realm"},{"name":"uikit"},{"name":"git"},{"name":"cocoapods"},{"name":"websocket"}],"cities":[],"allowsRemote":true}},{"node":{"__typename":"Job","id":"352321536-1001352129329","title":"Golang разработчик","text":"#hr #вакансия #Москва #backend #командасобранасамимбоженькой\n\n🔴 Xena Exchange - профессиональная торговая платформа для профессиональных трейдеров и институциональных инвесторов. \n🔍 Хотим позвать в нашу дружную команду ЕЩЕ Backend Go Engineer \n\n✔️ Типичные задачи/режим работы: \n- В плоской SCRUM-команде из 4-8 человек // мы не любим бюрократию, только то, что эффективно ведёт к цели\n- Брать из бэклога задачи, получать знания от Product Owner // задач много, а нас - не очень, всегда обсуждаем что-как сделать, но инициатива и ответственность за конкретные задачи на каждом из нас\n- Проектировать архитектуру, от небольших кусочков до целых сервисов, такую чтобы очень быстро и надёжно // бъёмся за миллисекунды, а даже eventual consistency мало где можем себе позволить\n- Писать код на Golang, попутно используя PostgreSQL, RabbitMQ, Redis, gRPC, Websocket, REST, Docker, Kubernetes + всё что угодно, обоснованно подходящее для решения конкретной задачи // качественный код, его потом нам же и поддерживать\n- Иногда возвращаться к созданному ранее, чтобы пофиксить баги, добавить новых фич или сделать ещё быстрее и надёжнее // стараемся растить продукт гармонично по всем направлениям, балансируем сложность и time-to-market\n\n✔️ Требования: \n- опыт backend-разработки от 2 года на го\n- знание базовых структур данных, алгоритмов, их сложности\n- понимание принципов построения и масштабирования backend, параллелизма, шардинга\n- работа в команде \n\n✔️ Условия:\n- покупаем всю технику которая нужна вам для продуктивной работы; \n- у нас сплоченный коллектив профессионалов с серьезным бэкраундом\nгибкий график, время не трекаем, главное - результат\n- Интересные задачи, возможность применить и прокачать скилы в создании высоконагруженных сервисов\n\n✔️ Доп. информация: \nзарплатная вилка обсуждаема, от 180к до 260к 💸 (в зависимости от уровня)\n\nЗа подробной инфой го в личку @anastaysha163 или @anastaysha164","markup":[{"type":"hashtag","offset":0,"length":3,"data":"hr"},{"type":"hashtag","offset":4,"length":9,"data":"вакансия"},{"type":"hashtag","offset":14,"length":7,"data":"Москва"},{"type":"hashtag","offset":22,"length":8,"data":"backend"},{"type":"hashtag","offset":31,"length":29,"data":"командасобранасамимбоженькой"},{"type":"handle","offset":1879,"length":14,"data":"anastaysha163"},{"type":"handle","offset":1898,"length":14,"data":"anastaysha164"}],"date":"2020-06-23T11:36:45+00:00","link":"tg://resolve?domain=gogetajobfeed&post=336","tags":[{"name":"go"},{"name":"postgresql"},{"name":"rabbitmq"},{"name":"redis"},{"name":"websocket"},{"name":"rest"},{"name":"docker"},{"name":"kubernetes"}],"cities":[{"code":"moscow"}],"allowsRemote":false}},{"node":{"__typename":"Job","id":"71852621824-1001054966032","title":"Android разработчик","text":"#вакансия #fulltime #freelance #middle #IOS #Swift #СПБ \nВсем привет! \nВ поисках двух IOS разработчиков. Рассматриваем full-time в офис/на удаленку.\nЛокация: Санкт-Петербург\n \nГрафик: 5/2 с гибким началом рабочего дня. \n💶 Зарплатная вилка: от 120 до 180 на руки\n\n🧰Мы: 4xxi.com (разработка разных сложных  технологических проектов-стартапов (веб, мобильные истории IOS/Android)). 90% проектов приходится на зарубежный рынок (США, Англия).\n\n🍩 Плюшки: \n✔️оформление по ТК РФ (мы белые полностью);\n✔️уроки английского языка;\n✔️ДМС;\n✔️спортивные мероприятия;\n✔️обучение и развитие;\n✔️офис в центре города в стиле лофт, м.Горьковская;\n✔️кухня, забитая вкусняхами;\n\nНаши ожидания: \n☑️с опытом работы от 2 лет;\n☑️уверенное знание Swift;\n☑️с опытом использования CoreData и знанием принципов работы баз данных;\n☑️с пониманием жизненного цикла приложения;\n☑️с опытом использования REST, WebSocket, Reactive kit;\n☑️с умением работать с потоками;\n\n\nБудет отлично, если:\n\n☑️у вас опыт больше 2х лет.\n☑️отлично понимаете и можете обосновать применение различных паттернов проектирования;\n☑️есть успешные п1риложения в App Store;\n☑️есть open source проекты на github;\n\n\nПишите и присылайте свои резюме:  vyangurskaya@4xxi.com, @vyangurskaya","markup":[{"type":"hashtag","offset":0,"length":9,"data":"вакансия"},{"type":"hashtag","offset":10,"length":9,"data":"fulltime"},{"type":"hashtag","offset":20,"length":10,"data":"freelance"},{"type":"hashtag","offset":31,"length":7,"data":"middle"},{"type":"hashtag","offset":39,"length":4,"data":"IOS"},{"type":"hashtag","offset":44,"length":6,"data":"Swift"},{"type":"hashtag","offset":51,"length":4,"data":"СПБ"},{"type":"link","offset":270,"length":8,"data":"http://4xxi.com"},{"type":"link","offset":1192,"length":21,"data":"mailto:vyangurskaya@4xxi.com"},{"type":"handle","offset":1215,"length":13,"data":"vyangurskaya"}],"date":"2020-06-23T09:45:18+00:00","link":"tg://resolve?domain=mobile_jobs&post=68524","tags":[{"name":"mobile"},{"name":"android"},{"name":"ios"},{"name":"swift"},{"name":"rest"},{"name":"websocket"},{"name":"github"}],"cities":[],"allowsRemote":false}},{"node":{"__typename":"Job","id":"71832698880-1001054966032","title":"Ios разработчик","text":"#вакансия #swift #objective-C #ios\n\niOS разработчик удаленно по России \nmiddle/senior/lead\n\nГород : Санкт-Петербург\nФормат работы: офис или удаленно\nЗанятость: Полная\nЗарплатная вилка:  90 000 - 300 000 руб\n\n\nОписание компании:\nВ Blogman мы занимаемся разработкой собственного приложения – платформа для блогеров и рекламодателей. В нашей команде уже более 50 разработчиков и мы продолжаем расти. Сейчас мы ищем инженера с опытом коммерческой разработки под iOS.\nОсновной стек технологий — Swift, Realm, Alamofire. Сейчас мы разрабатываем бизнес-функционал и будем рады новому специалисту в нашей команде, вместе с которым мы будем делать быстрое приложение с отзывчивым и плавным интерфейсом.\n\nМы ожидаем, что у вас есть:\n— Опыт коммерческой разработки мобильных приложений под iOS;\n— Хорошие знания Swift, UIKit;\n— Опыт работы с мобильными БД;\n— Умение работать с Git, Cocoapods.\n\nБудет плюсом, если вы:\n— Разрабатывали клиент-серверные приложения;\n— Умеете работать с WebSocket;\n— Знаете и понимаете архитектуру VIPER;\n— Командный игрок без яркого эгоцентризма;\n— Готовы активно принимать участие в жизни компании и продукта.\n\nРады предложить:\n– Удаленное сотрудничество или комфортный офис на Невском проспекте в 5 минутах ходьбы от ст. м. Маяковская и Владимирская;\n– Желаемый оклад по результатам собеседования;\n– Понятную систему роста зарплаты каждые 6 месяцев, в которой все зависит только от вас;\n– Все необходимые офисные блага вроде вкусного кофе и т.д.\nВас будут окружать адекватные люди, с которыми комфортно решать поставленные задачи. У сотрудников есть общие ценности, такие как стремление к качественному результату, забота о продукте и желание двигаться вперед. Также у нас нет “Начальства”, а есть коллеги. Все взаимодействуют горизонтально и в команде равенство между инженерами, стейкхолдером, продактом и т.д. Все работают бок о бок и делают одно общее дело.\n\n@maria_golovina","markup":[{"type":"hashtag","offset":0,"length":9,"data":"вакансия"},{"type":"hashtag","offset":10,"length":6,"data":"swift"},{"type":"hashtag","offset":17,"length":10,"data":"objective"},{"type":"hashtag","offset":30,"length":4,"data":"ios"},{"type":"bold","offset":230,"length":8,"data":""},{"type":"bold","offset":495,"length":2,"data":""},{"type":"bold","offset":502,"length":2,"data":""},{"type":"bold","offset":695,"length":27,"data":""},{"type":"bold","offset":883,"length":22,"data":""},{"type":"bold","offset":1130,"length":16,"data":""},{"type":"handle","offset":1883,"length":15,"data":"maria_golovina"}],"date":"2020-06-23T07:28:06+00:00","link":"tg://resolve?domain=mobile_jobs&post=68505","tags":[{"name":"mobile"},{"name":"ios"},{"name":"swift"},{"name":"objective-c"},{"name":"realm"},{"name":"uikit"},{"name":"git"},{"name":"cocoapods"},{"name":"websocket"}],"cities":[],"allowsRemote":true}},{"node":{"__typename":"Job","id":"1720713216-1001091028994","title":"Java разработчик","text":"#java #middle #удаленно #fulltime\nJava-разработчик (Spring)\nКомпания: Leroma GmbH\nЛокация: Удаленно\nЗп: 80к net\nКонтакты: @subaryan, alexandr@leroma.de\n\nМы небольшой стартап, и наша команда разрабатывает платформу для электронной коммерции.\n\nЗадачи:\n- Проектирование и реализация сервисов\n- Создание пользовательского интерфейса\n\nКого ищем:\n• Знание основных алгоритмов и шаблонов проектирования ПО;\n• Знание фреймворков Spring Boot, Spring Data, Websocket, веб-стека.\n• Опыт работы c SQL и NoSQL базами данных(MySQL, MongoDB);\n• Опыт работы с инструментами Maven, Git.\n\nСтек:\nJava11, Spring, MongoDB, Git, Self-developed UI framework.\n\nУсловия:\n- Полностью официальная заработная плата (ИП)\n- Есть возможность оплаты в иностранной валюте(евро)\n- Гибкий график работы\n- Удалённая работа по факту выполненных работ, нет учёта часов.","markup":[{"type":"hashtag","offset":0,"length":5,"data":"java"},{"type":"hashtag","offset":6,"length":7,"data":"middle"},{"type":"hashtag","offset":14,"length":9,"data":"удаленно"},{"type":"hashtag","offset":24,"length":9,"data":"fulltime"},{"type":"handle","offset":122,"length":9,"data":"subaryan"},{"type":"link","offset":133,"length":18,"data":"mailto:alexandr@leroma.de"}],"date":"2020-06-22T17:59:39+00:00","link":"tg://resolve?domain=jvmjobs&post=1641","tags":[{"name":"java"},{"name":"jvm"},{"name":"spring"},{"name":"dotnet"},{"name":"websocket"},{"name":"sql"},{"name":"nosql"},{"name":"mysql"},{"name":"mongodb"},{"name":"maven"},{"name":"git"},{"name":"spring-boot"},{"name":"spring-data"}],"cities":[],"allowsRemote":true}},{"node":{"__typename":"Job","id":"71724695552-1001054966032","title":"Ios разработчик","text":"#вакансия #swift #objective-C #ios\n\nГород : Санкт-Петербург\nФормат работы: офис или удаленно\nЗанятость: Полная\nЗарплатная вилка:  90 000 - 300 000 руб\n\nОписание компании:\nВ Blogman мы занимаемся разработкой собственного приложения – платформа для блогеров и рекламодателей. В нашей команде уже более 50 разработчиков и мы продолжаем расти. Сейчас мы ищем инженера с опытом коммерческой разработки под iOS.\nОсновной стек технологий — Swift, Realm, Alamofire. Сейчас мы разрабатываем бизнес-функционал и будем рады новому специалисту в нашей команде, вместе с которым мы будем делать быстрое приложение с отзывчивым и плавным интерфейсом.\n\nМы ожидаем, что у вас есть:\n— Опыт коммерческой разработки мобильных приложений под iOS;\n— Хорошие знания Swift, UIKit;\n— Опыт работы с мобильными БД;\n— Умение работать с Git, Cocoapods.\n\nБудет плюсом, если вы:\n— Разрабатывали клиент-серверные приложения;\n— Умеете работать с WebSocket;\n— Знаете и понимаете архитектуру VIPER;\n— Командный игрок без яркого эгоцентризма;\n— Готовы активно принимать участие в жизни компании и продукта.\n\nРады предложить:\n– Удаленное сотрудничество или комфортный офис на Невском проспекте в 5 минутах ходьбы от ст. м. Маяковская и Владимирская;\n– Желаемый оклад по результатам собеседования;\n– Понятную систему роста зарплаты каждые 6 месяцев, в которой все зависит только от вас;\n– Все необходимые офисные блага вроде вкусного кофе и т.д.\nВас будут окружать адекватные люди, с которыми комфортно решать поставленные задачи. У сотрудников есть общие ценности, такие как стремление к качественному результату, забота о продукте и желание двигаться вперед. Также у нас нет “Начальства”, а есть коллеги. Все взаимодействуют горизонтально и в команде равенство между инженерами, стейкхолдером, продактом и т.д. Все работают бок о бок и делают одно общее дело.\nНазвание компании: Blogman","markup":[{"type":"hashtag","offset":0,"length":9,"data":"вакансия"},{"type":"hashtag","offset":10,"length":6,"data":"swift"},{"type":"hashtag","offset":17,"length":10,"data":"objective"},{"type":"hashtag","offset":30,"length":4,"data":"ios"},{"type":"bold","offset":173,"length":8,"data":""},{"type":"bold","offset":438,"length":2,"data":""},{"type":"bold","offset":445,"length":2,"data":""},{"type":"bold","offset":638,"length":27,"data":""},{"type":"bold","offset":826,"length":22,"data":""},{"type":"bold","offset":1073,"length":16,"data":""}],"date":"2020-06-21T08:50:59+00:00","link":"tg://resolve?domain=mobile_jobs&post=0","tags":[{"name":"mobile"},{"name":"ios"},{"name":"swift"},{"name":"objective-c"},{"name":"realm"},{"name":"uikit"},{"name":"git"},{"name":"cocoapods"},{"name":"websocket"}],"cities":[],"allowsRemote":true}},{"node":{"__typename":"Job","id":"17077108736-1001110946746","title":"Js разработчик","text":"#вакансия  #офис #спб или #удалённо \n#job #fulltime #office #saintpetersburg or #remote \n\nJavaScript разработчик\n\nГород: Санкт-Петербург, м. пл. А. Невского\nФормат работы:  офис или удаленка (по желанию)\nЗанятость полная\nЗ/П: от 150к до 240к руб net\nКомпания: DevUnit\n\nИщу JS разработчика для разработки новой версии ритейл платформы для инвестиций\n\nВакансия включает в себя  работу с высокодинамичными real-time графиками (WebGL, highcharts.js)\nОсновной фреймворк - Vue.JS\nА еще:\nБольшие и непрерывные потоки данных по websocket\nPWA \n\nДля нас важно:\nКоммерческий опыт разработок на JS - от 2 лет \nОпыт работы с популярными фреймворками.\n\nСущественным плюсом будет: \nопыт работы с WebGL\nзнания VueJS\n\nЧто предлагаем: \n- Работу в опытной команде разработчиков\n- Современный стек \n- Возможность влиять на ход разработки \n- Достойную зарплату, с регулярным пересмотром. \n- Комфортное рабочее место, и качественное оборудование ( пл. А. Невского)\n- Также есть возможность работать в режиме хоум-офис\n- Увеличенный срок отпуска до 70-ти дней, в зависимости от продолжительности наших отношений.\n- Компенсацию участия в профильных мероприятиях и конференциях.\n\nИ самое главное: мы заботимся о том, чтобы работа была в радость, и всегда гибко подходим к решению любых  вопросов. \n\nКонтакты:\n@zazajul\njulizun09@gmail.com\n\n—\n\n👉 Обсуждение вакансии в чате @javascript_jobs","markup":[{"type":"hashtag","offset":0,"length":9,"data":"вакансия"},{"type":"hashtag","offset":11,"length":5,"data":"офис"},{"type":"hashtag","offset":17,"length":4,"data":"спб"},{"type":"hashtag","offset":26,"length":9,"data":"удалённо"},{"type":"hashtag","offset":37,"length":4,"data":"job"},{"type":"hashtag","offset":42,"length":9,"data":"fulltime"},{"type":"hashtag","offset":52,"length":7,"data":"office"},{"type":"hashtag","offset":60,"length":16,"data":"saintpetersburg"},{"type":"hashtag","offset":80,"length":7,"data":"remote"},{"type":"handle","offset":1284,"length":8,"data":"zazajul"},{"type":"link","offset":1293,"length":19,"data":"mailto:julizun09@gmail.com"},{"type":"handle","offset":1347,"length":16,"data":"javascript_jobs"}],"date":"2020-06-19T10:52:58+00:00","link":"tg://resolve?domain=javascript_jobs_feed&post=16286","tags":[{"name":"javascript"},{"name":"dotnet"},{"name":"highcharts"},{"name":"vuejs"},{"name":"websocket"}],"cities":[],"allowsRemote":true}},{"node":{"__typename":"Job","id":"71624032256-1001054966032","title":"Ios разработчик","text":"#вакансия #swift #objective-C #ios\n\nГород : Санкт-Петербург\nФормат работы: офис или удаленно\nЗанятость: Полная\nЗарплатная вилка:  90 000 - 300 000 руб\n\nОписание компании:\nВ Blogman мы занимаемся разработкой собственного приложения – платформа для блогеров и рекламодателей. В нашей команде уже более 50 разработчиков и мы продолжаем расти. Сейчас мы ищем инженера с опытом коммерческой разработки под iOS.\nОсновной стек технологий — Swift, Realm, Alamofire. Сейчас мы разрабатываем бизнес-функционал и будем рады новому специалисту в нашей команде, вместе с которым мы будем делать быстрое приложение с отзывчивым и плавным интерфейсом.\n\nМы ожидаем, что у вас есть:\n— Опыт коммерческой разработки мобильных приложений под iOS;\n— Хорошие знания Swift, UIKit;\n— Опыт работы с мобильными БД;\n— Умение работать с Git, Cocoapods.\n\nБудет плюсом, если вы:\n— Разрабатывали клиент-серверные приложения;\n— Умеете работать с WebSocket;\n— Знаете и понимаете архитектуру VIPER;\n— Командный игрок без яркого эгоцентризма;\n— Готовы активно принимать участие в жизни компании и продукта.\n\nРады предложить:\n– Удаленное сотрудничество или комфортный офис на Невском проспекте в 5 минутах ходьбы от ст. м. Маяковская и Владимирская;\n– Желаемый оклад по результатам собеседования;\n– Понятную систему роста зарплаты каждые 6 месяцев, в которой все зависит только от вас;\n– Все необходимые офисные блага вроде вкусного кофе и т.д.\nВас будут окружать адекватные люди, с которыми комфортно решать поставленные задачи. У сотрудников есть общие ценности, такие как стремление к качественному результату, забота о продукте и желание двигаться вперед. Также у нас нет “Начальства”, а есть коллеги. Все взаимодействуют горизонтально и в команде равенство между инженерами, стейкхолдером, продактом и т.д. Все работают бок о бок и делают одно общее дело.\nНазвание компании: Blogman","markup":[{"type":"hashtag","offset":0,"length":9,"data":"вакансия"},{"type":"hashtag","offset":10,"length":6,"data":"swift"},{"type":"hashtag","offset":17,"length":10,"data":"objective"},{"type":"hashtag","offset":30,"length":4,"data":"ios"},{"type":"bold","offset":173,"length":8,"data":""},{"type":"bold","offset":438,"length":2,"data":""},{"type":"bold","offset":445,"length":2,"data":""},{"type":"bold","offset":638,"length":27,"data":""},{"type":"bold","offset":826,"length":22,"data":""},{"type":"bold","offset":1073,"length":16,"data":""}],"date":"2020-06-19T09:44:55+00:00","link":"tg://resolve?domain=mobile_jobs&post=0","tags":[{"name":"mobile"},{"name":"ios"},{"name":"swift"},{"name":"objective-c"},{"name":"realm"},{"name":"uikit"},{"name":"git"},{"name":"cocoapods"},{"name":"websocket"}],"cities":[],"allowsRemote":true}},{"node":{"__typename":"Job","id":"71570554880-1001054966032","title":"Ios разработчик","text":"#вакансия #swift #objective-C #ios\n\nГород : Санкт-Петербург\nФормат работы: офис или удаленно\nЗанятость: Полная\nЗарплатная вилка:  90 000 - 300 000 руб\n\nОписание компании:\nВ Blogman мы занимаемся разработкой собственного приложения – платформа для блогеров и рекламодателей. В нашей команде уже более 50 разработчиков и мы продолжаем расти. Сейчас мы ищем инженера с опытом коммерческой разработки под iOS.\nОсновной стек технологий — Swift, Realm, Alamofire. Сейчас мы разрабатываем бизнес-функционал и будем рады новому специалисту в нашей команде, вместе с которым мы будем делать быстрое приложение с отзывчивым и плавным интерфейсом.\n\nМы ожидаем, что у вас есть:\n— Опыт коммерческой разработки мобильных приложений под iOS;\n— Хорошие знания Swift, UIKit;\n— Опыт работы с мобильными БД;\n— Умение работать с Git, Cocoapods.\n\nБудет плюсом, если вы:\n— Разрабатывали клиент-серверные приложения;\n— Умеете работать с WebSocket;\n— Знаете и понимаете архитектуру VIPER;\n— Командный игрок без яркого эгоцентризма;\n— Готовы активно принимать участие в жизни компании и продукта.\n\nРады предложить:\n– Удаленное сотрудничество или комфортный офис на Невском проспекте в 5 минутах ходьбы от ст. м. Маяковская и Владимирская;\n– Желаемый оклад по результатам собеседования;\n– Понятную систему роста зарплаты каждые 6 месяцев, в которой все зависит только от вас;\n– Все необходимые офисные блага вроде вкусного кофе и т.д.\nВас будут окружать адекватные люди, с которыми комфортно решать поставленные задачи. У сотрудников есть общие ценности, такие как стремление к качественному результату, забота о продукте и желание двигаться вперед. Также у нас нет “Начальства”, а есть коллеги. Все взаимодействуют горизонтально и в команде равенство между инженерами, стейкхолдером, продактом и т.д. Все работают бок о бок и делают одно общее дело.\nНазвание компании: Blogman\nКонтакты: @maria_golovina","markup":[{"type":"hashtag","offset":0,"length":9,"data":"вакансия"},{"type":"hashtag","offset":10,"length":6,"data":"swift"},{"type":"hashtag","offset":17,"length":10,"data":"objective"},{"type":"hashtag","offset":30,"length":4,"data":"ios"},{"type":"bold","offset":173,"length":8,"data":""},{"type":"bold","offset":438,"length":2,"data":""},{"type":"bold","offset":445,"length":2,"data":""},{"type":"bold","offset":638,"length":27,"data":""},{"type":"bold","offset":826,"length":22,"data":""},{"type":"bold","offset":1073,"length":16,"data":""},{"type":"handle","offset":1862,"length":15,"data":"maria_golovina"}],"date":"2020-06-18T12:32:34+00:00","link":"tg://resolve?domain=mobile_jobs&post=0","tags":[{"name":"mobile"},{"name":"ios"},{"name":"swift"},{"name":"objective-c"},{"name":"realm"},{"name":"uikit"},{"name":"git"},{"name":"cocoapods"},{"name":"websocket"}],"cities":[],"allowsRemote":true}},{"node":{"__typename":"Job","id":"17022582784-1001110946746","title":"Js разработчик","text":"#вакансия #React #Питер #fulltime #frontend #middle  \n                                       \nГород: Санкт-Петербург\nФормат: в офисе\nЗанятость: полная\nЗарплатная вилка: 100-150К на руки\n\nОписание:\n\nМы — профессиональная площадка, которая освещает киберспортивные соревнования по Overwatch, Dota 2, CS:GO, League of Legends (LoL), Fortnite, FIFA и др. Ищем Front-end developer в наш перспективный проект киберспортивной индустрии!\n\nУсловия: \n\n- Оформление по ТК РФ;\n- \"белая\" зарплата 100 - 150к на руки\n- Режим работы 5/2;\n- Офис в историческом центре Петербурга, в 10 минутах от метро Чкаловская;\n- Печеньки, фрукты, чай и кофе;\n\nФункционал:\n\n- Проектирование, разработка и поддержка front-end части приложения с использованием фреймворка React/Redux\n- Разработка компонентов React/Redux\n- Интеграция с back-end, взаимодействие с командой back-end разработчиков\n- Кросс-браузерная оптимизация, рефакторинг полученных решений, оптимизация скорости загрузки страниц и интерактивных элементов\n\nНаш стэк:\n\n- React/Redux 16.8+ (hooks, context)\n- TypeScript\n- redux-observable, RxJs\n- GraphQL, WebSocket\n- Styled component\n\nПожелания к опыту:\n\nУверенное владение\n- React.js продвинутое знание, JS, CSS, Typescript\n- Опыт командной работы\n- Приветствуется опыт/понимание бэкенда\n    \nКомпания: ToBeHired                                    \nКонтакт: @Alex_Korm\n\n—\n\n👉 Обсуждение вакансии в чате @javascript_jobs","markup":[{"type":"hashtag","offset":0,"length":9,"data":"вакансия"},{"type":"hashtag","offset":10,"length":6,"data":"React"},{"type":"hashtag","offset":17,"length":6,"data":"Питер"},{"type":"hashtag","offset":24,"length":9,"data":"fulltime"},{"type":"hashtag","offset":34,"length":9,"data":"frontend"},{"type":"hashtag","offset":44,"length":7,"data":"middle"},{"type":"handle","offset":1343,"length":10,"data":"Alex_Korm"},{"type":"handle","offset":1388,"length":16,"data":"javascript_jobs"}],"date":"2020-06-17T15:31:04+00:00","link":"tg://resolve?domain=javascript_jobs_feed&post=0","tags":[{"name":"javascript"},{"name":"reactjs"},{"name":"redux"},{"name":"typescript"},{"name":"rxjs"},{"name":"graphql"},{"name":"websocket"},{"name":"css"},{"name":"react-redux"}],"cities":[],"allowsRemote":false}}]}}},"context":{}}