{"hash":"f5f6bf98bd95e769321482904cbbd488f77922fd","data":{"records":{"id":"azure","name":"azure","belongsTo":{"totalCount":16,"pageInfo":{"totalPages":2,"currentPage":2},"edges":[{"node":{"__typename":"Job","id":"2232418304-1001134745498","title":"Devops инженер","text":"#вакансия #Remote #работаDevOps  #удаленка \n\nКомпания: IDG\nФормат работы: удаленка\nЗанятость: полная\nЗарплатная вилка: $2500 до $4000\n\n👋Всем привет. Меня зовут Гульназ. \nМы занимаемся разработкой собственных образовательных проектов, а также проектов для клиентов - технологических, финансовых и аудиторских компаний.\nСейчас мы ищем DevOps инженера в дополнение к нашей текущей DevOps-команде, который будет вместе с нами делать cross-cloud big-data/ai платформу для одного из наших крупных постоянных клиентов.\nУ нас всё в k8s. Помимо этого есть spark, несколько баз данных и еще куча всего интересного. Разворачиваем с помощью Terraform/Ansible/Helm\n\n📍Требования:\n\n- Опыт работы с AWS/Azure/GCE - от 2+ лет;\n- Опыт работы с Kubernetes - от 2+ лет\n- Опыт работы со Spark - от 1 года\n- Имеет опыт настройки и администрирования БД (Mongo, Redis, Rabbit, SQL Server, Postgres, MySQL, Elastic Search)\n- Опыт разработки на Python или других подобных языках;\n- Опыт организации процесса CI/CD (jenkins, teamcity).\n- Английский на уровне Intermediate и выше.\n\nБудет плюсом: \n\n- Опыт работы в крупных международных компаниях;\n- Опыт работы с технологиями Big Data;\n\n📌Что мы предлагаем:\n\n- Интересные задачи и возможность реализовать свой потенциал в международных проектах компании и внутренних стартапах;\n- Гибкий график (начало и конец рабочего дня согласовываются с менеджером и командой проекта)\n- Полностью удаленная работа\n- Дополнительные выплаты за профессиональные успехи\n\nКонтакт: @IDGAccount\n\n—\n\n👉 Обсуждение вакансии в чате @devops_jobs","markup":[{"type":"hashtag","offset":0,"length":9,"data":"вакансия"},{"type":"hashtag","offset":10,"length":7,"data":"Remote"},{"type":"hashtag","offset":18,"length":13,"data":"работаDevOps"},{"type":"hashtag","offset":33,"length":9,"data":"удаленка"},{"type":"handle","offset":1487,"length":11,"data":"IDGAccount"},{"type":"handle","offset":1533,"length":12,"data":"devops_jobs"}],"date":"2020-06-19T14:40:37+00:00","link":"tg://resolve?domain=devops_jobs_feed&post=2129","tags":[{"name":"cloud"},{"name":"ansible"},{"name":"amazon-web-services"},{"name":"azure"},{"name":"kubernetes"},{"name":"redis"},{"name":"rabbitmq"},{"name":"sql"},{"name":"postgresql"},{"name":"mysql"},{"name":"elasticsearch"},{"name":"python"},{"name":"jenkins"},{"name":"sql-server"}],"cities":[],"allowsRemote":true}},{"node":{"__typename":"Job","id":"2222981120-1001134745498","title":"Devops engineer","text":"#monitoring #devops  #вакансия #skuvault\n#remote\n\nSkuVault.com (суровая SaaS система управления складским учетом на американском рынке, ищет в команду Lead DevOps Engineer.\n\nВилка: $4000 - $5800\nЗанятость: полная (fulltime)\nРабота: удаленка или работа в офисе в Уфе (при желании, ходить никто не заставляет)\nКому писать:  @eskeemo / @maratskuvault\nОбязанности: доброта, профессионализм, проактивность, адекватность.\n\nСтек:\n\n- Jenkins, Terraform, Salt, Pipelines, Docker, influx (grafana, kibana), telegraf, elastalert, .netcore, azure\n\nХотим:\n\n- Provide environments that developers use working uninterrupted;\n- Troubleshoot together with developers;\n- Setup and deploy telemetry;\n- Support and help with production releases, as well as gather metrics and logs that signal that we have no issues;\n- Overall be proactive about telemetry and alarms on app / server states;\n- Help Azure get better, when it starts feeling blue and nauseous;\n- Leadership/Supervisor: oversee and guide all activities of the junior DevOps teams. The Head of DevOps leads the design, build, and operational management of highly secure and scalable sites/software for the business and works tirelessly to guarantee the reduction or removal of bottlenecks and inefficiencies in the DevOps department and engineering department as a whole.\n- As the leader of the DevOps department, the Head of DevOps promotes, documents, and implements systems infrastructure best practices, building tools that allow the department to develop and deploy efficient modules for our SaaS.\n- Collaboration/Support: The role of the Head of DevOps at SkuVault as expected is a highly collaborative one. In your collaborative capacity, you'll work hand-in-hand with the cross-functional feature teams through all technical operations and works to reduce or eliminate any repetitive or manual tasks.\n\n—\n\n👉 Обсуждение вакансии в чате @devops_jobs","markup":[{"type":"hashtag","offset":0,"length":11,"data":"monitoring"},{"type":"hashtag","offset":12,"length":7,"data":"devops"},{"type":"hashtag","offset":21,"length":9,"data":"вакансия"},{"type":"hashtag","offset":31,"length":9,"data":"skuvault"},{"type":"hashtag","offset":41,"length":7,"data":"remote"},{"type":"link","offset":50,"length":12,"data":"http://SkuVault.com"},{"type":"handle","offset":322,"length":8,"data":"eskeemo"},{"type":"handle","offset":333,"length":14,"data":"maratskuvault"},{"type":"handle","offset":1885,"length":12,"data":"devops_jobs"}],"date":"2020-06-18T12:05:37+00:00","link":"tg://resolve?domain=devops_jobs_feed&post=2120","tags":[{"name":"jenkins"},{"name":"docker"},{"name":"azure"}],"cities":[],"allowsRemote":true}},{"node":{"__typename":"Job","id":"2214592512-1001134745498","title":"Devops инженер","text":"#вакансия #Remote #работаDevOps  #удаленка \n\nКомпания: IDG\nФормат работы: удаленка\nЗанятость: полная\nЗарплатная вилка: $2500 до $4000\n\n👋Всем привет. Меня зовут Гульназ. \nМы занимаемся разработкой собственных образовательных проектов, а также проектов для клиентов - технологических, финансовых и аудиторских компаний.\nСейчас мы ищем DevOps инженера в дополнение к нашей текущей DevOps-команде, который будет вместе с нами делать cross-cloud big-data/ai платформу для одного из наших крупных постоянных клиентов.\nУ нас всё в k8s. Помимо этого есть spark, несколько баз данных и еще куча всего интересного. Разворачиваем с помощью Terraform/Ansible/Helm\n\n📍Требования:\n\n- Опыт работы с AWS/Azure/GCE - от 2+ лет;\n- Опыт работы с Kubernetes - от 2+ лет\n- Опыт работы со Spark - от 1 года\n- Имеет опыт настройки и администрирования БД (Mongo, Redis, Rabbit, SQL Server, Postgres, MySQL, Elastic Search)\n- Опыт разработки на Python или других подобных языках;\n- Опыт организации процесса CI/CD (jenkins, teamcity).\n- Английский на уровне Intermediate и выше.\n\nБудет плюсом: \n\n- Опыт работы в крупных международных компаниях;\n- Опыт работы с технологиями Big Data;\n\n📌Что мы предлагаем:\n\n- Интересные задачи и возможность реализовать свой потенциал в международных проектах компании и внутренних стартапах;\n- Гибкий график (начало и конец рабочего дня согласовываются с менеджером и командой проекта)\n- Полностью удаленная работа\n- Дополнительные выплаты за профессиональные успехи\n\nКонтакт: @IDGAccount\n\n—\n\n👉 Обсуждение вакансии в чате @devops_jobs","markup":[{"type":"hashtag","offset":0,"length":9,"data":"вакансия"},{"type":"hashtag","offset":10,"length":7,"data":"Remote"},{"type":"hashtag","offset":18,"length":13,"data":"работаDevOps"},{"type":"hashtag","offset":33,"length":9,"data":"удаленка"},{"type":"handle","offset":1487,"length":11,"data":"IDGAccount"},{"type":"handle","offset":1533,"length":12,"data":"devops_jobs"}],"date":"2020-06-16T08:10:39+00:00","link":"tg://resolve?domain=devops_jobs_feed&post=2112","tags":[{"name":"cloud"},{"name":"ansible"},{"name":"amazon-web-services"},{"name":"azure"},{"name":"kubernetes"},{"name":"redis"},{"name":"rabbitmq"},{"name":"sql"},{"name":"postgresql"},{"name":"mysql"},{"name":"elasticsearch"},{"name":"python"},{"name":"jenkins"},{"name":"sql-server"}],"cities":[],"allowsRemote":true}},{"node":{"__typename":"Job","id":"2212495360-1001134745498","title":"Devops engineer","text":"#вакансия #DevOps #fulltime #москва\n\nDevOps Engineer\nГород: Москва\nФормат работы: офис \nЗанятость: полная\nЗП вилка 160-250 тысяч\n\ninDriver - международный ride-hailing сервис:\n* 47 млн пользователей в 31 стране мира.\n* Входим в топ-5 мобильных сервисов для заказа поездки по итогам января 2020 года.\n* Офис возле м. Улица 1905 года.\n\nОбязанности:\n• Настройка и поддержка инфраструктуры для разработки (сервера, docker, kubernetes, helm)\n• Внедрение и поддержка Kubernetes в production\n• Создание Helm Charts\n• Настройка пайплайнов для процессов CI/CD (TeamCity)\n• Повышение отказоустойчивости работы сервисов\n\nТребования:\n• Опыт работы с операционными системами семейства Linux (CentOS/RHEL)\n• Опыт внедрения и использования Kubernetes в production\n• Опыт настройки и работы с nginx, MySQL, Redis, Prometheus, ClickHouse\n• Опыт работы с облачными провайдерами: GCP, AWS, Azure\n• Опыт использования Ansible и написания ролей и плейбуков\n• Опыт поддержки высоконагруженных сервисов на базе ОС Linux\n• Умение читать и разбираться в чужом коде: Go, PHP\n\nКонтакт для связи: @liuboushka888\n\n—\n\n👉 Обсуждение вакансии в чате @devops_jobs","markup":[{"type":"hashtag","offset":0,"length":9,"data":"вакансия"},{"type":"hashtag","offset":10,"length":7,"data":"DevOps"},{"type":"hashtag","offset":18,"length":9,"data":"fulltime"},{"type":"hashtag","offset":28,"length":7,"data":"москва"},{"type":"handle","offset":1069,"length":14,"data":"liuboushka888"},{"type":"handle","offset":1118,"length":12,"data":"devops_jobs"}],"date":"2020-06-16T07:57:58+00:00","link":"tg://resolve?domain=devops_jobs_feed&post=2110","tags":[{"name":"docker"},{"name":"kubernetes"},{"name":"linux"},{"name":"centos"},{"name":"nginx"},{"name":"mysql"},{"name":"redis"},{"name":"google-cloud-platform"},{"name":"amazon-web-services"},{"name":"azure"},{"name":"ansible"},{"name":"php"}],"cities":[{"code":"moscow"}],"allowsRemote":false}},{"node":{"__typename":"Job","id":"90991230976-1001067529236","title":"Python developer","text":"#вакансия #remote #fulltime #python\n\nBack-end Python Developer\n\nФормат работы: #fulltime #remote\nЗарплата: от  $ 50 000 до $ 70 000  в год\n\nКоманда с большим опытом в компьютерном зрении и экспертами мирового уровня ищет в свои ряды Backend Python Developer. Стартап, создающий продукт для домашней безопасности, привлек $6,9 млн инвестиций. Продукт и его основатели базируются в Калифорнии, а почти вся команда — в России и Украине.\n\nЗадачи :\n• Оптимизация и улучшение качества алгоритмов трекинга людей;\n• Доработка основного кода клиентской стороны;\n• Разработка механизмов обновления клиентских приложений (Linux\\Docker);\n• Разработка системы сбора и разметки данных;\n• Доработка инфраструктурных сервисов и системы оценки качества.\n\nТребования:\n• Опыт промышленной работы от двух лет;\n• Опыт разработки оптимизационных алгоритмов разного назначения;\n• Опыт работы с AWS, Google Cloud, Azure, Docker.\n• Знание Python и\\или С++ и\\или Java;\n• Знание сетевых протоколов, их вариаций и особенностей;\n• Умение работать с многопоточной средой, понимание принципов работы сопрограмм;\n• Умение создавать сервера, способные выдерживать большие нагрузки.\n\nБудет плюсом:\n• Веб каркас Tornado, знания протокола HTTP;\n• Базы данных MongoDB, Redis, Aerospike, Cassandra;\n• Опыт работы с распределенной инфраструктурой;\n• Опыт использования нейронных сетей на TensorFlow / Keras / Caffe;\n• Понимание принципов работы различных архитектур нейронных сетей, знание алгоритмов машинного обучения.\n\nЧтобы откликнуться, необходимо пройти короткий отбор по ссылке https://6nomads.com/","markup":[{"type":"hashtag","offset":0,"length":9,"data":"вакансия"},{"type":"hashtag","offset":10,"length":7,"data":"remote"},{"type":"hashtag","offset":18,"length":9,"data":"fulltime"},{"type":"hashtag","offset":28,"length":7,"data":"python"},{"type":"hashtag","offset":79,"length":9,"data":"fulltime"},{"type":"hashtag","offset":89,"length":7,"data":"remote"},{"type":"link","offset":1546,"length":20,"data":"https://6nomads.com/"}],"date":"2020-06-15T18:27:28+00:00","link":"tg://resolve?domain=python_jobs&post=0","tags":[{"name":"python"},{"name":"linux"},{"name":"docker"},{"name":"amazon-web-services"},{"name":"cloud"},{"name":"azure"},{"name":"java"},{"name":"mongodb"},{"name":"redis"},{"name":"cassandra"},{"name":"tensorflow"},{"name":"google-cloud-platform"}],"cities":[],"allowsRemote":true}},{"node":{"__typename":"Job","id":"2210398208-1001134745498","title":"Devops инженер","text":"#вакансия #devops #fulltime #релокация \n\nКомпания: 2Glab\nГород и адрес офиса: Helsinki, Stockholm, Amsterdam, Berlin.\nФормат работы: Удаленка / Релокация, Европа.\nЗанятость: Полная занятость\nЗарплатная вилка: 3500$-4500$, Уровень дохода указан на период работы в РФ\nОписание вакансии: Европейский лидер инфраструктурных решений, облачных сервисов и разработке приложений.\n\nЖдем от Вас:\n- хороший английский\n- поддержка инфраструктуры проекта на AWS или Google Cloud\n- не менее 5 лет работы с linux системами в роли системного администратора/devops инженера\n-  Системы управления конфигурацией (одна из Ansible, Chef, Puppet или аналогичная) и  контейнерные  технологии (например, Kubernetes, Mesosphere, Docker Swarm)\n- опыт построения CI/CD\n- Иметь четкое представление о локальных технологиях (например, VMware, OpenStack или Hyper-V)\n- улучшение существующей инфраструктуры, включая масштабирование и отказоустойчивость\n- мониторинг системы, анализ быстродействия и тонкая настройка\n- выбор и внедрение DevOps практик и инструментов\n- автоматизация рутинных задач;\n- Готовность путешествовать примерно 25% вашего времени;\n\nДополнительным плюсом будет:\n- знание Python/Ruby\n- опыт работы с Azure\n\nКонтакты: usubow@gmail.com +79182255234  @Yuriy_2Glab\n\n—\n\n👉 Обсуждение вакансии в чате @devops_jobs","markup":[{"type":"hashtag","offset":0,"length":9,"data":"вакансия"},{"type":"hashtag","offset":10,"length":7,"data":"devops"},{"type":"hashtag","offset":18,"length":9,"data":"fulltime"},{"type":"hashtag","offset":28,"length":10,"data":"релокация"},{"type":"link","offset":1209,"length":16,"data":"mailto:usubow@gmail.com"},{"type":"link","offset":1226,"length":12,"data":"tel:+79182255234"},{"type":"handle","offset":1240,"length":12,"data":"Yuriy_2Glab"},{"type":"handle","offset":1287,"length":12,"data":"devops_jobs"}],"date":"2020-06-15T11:01:39+00:00","link":"tg://resolve?domain=devops_jobs_feed&post=2108","tags":[{"name":"amazon-web-services"},{"name":"cloud"},{"name":"linux"},{"name":"ansible"},{"name":"kubernetes"},{"name":"docker"},{"name":"python"},{"name":"ruby"},{"name":"azure"},{"name":"google-cloud-platform"}],"cities":[{"code":"helsinki"},{"code":"stockholm"},{"code":"amsterdam"},{"code":"berlin"}],"allowsRemote":false}}]}}},"context":{}}