{"hash":"f34fd2c444a074f4e0e67d525015a008ef8e766f","data":{"records":{"id":"git","name":"git","belongsTo":{"totalCount":114,"pageInfo":{"totalPages":12,"currentPage":6},"edges":[{"node":{"__typename":"Job","id":"1417674752-1001091028994","title":"Java разработчик","text":"#java #middle #москва #офис #fulltime частично #remote \n\nКомпания: BPC, проект \"Рунет Бизнес Системы\"\nформат работы: офис\nзанятость: full time, есть возможность частично работать remote \nлокация: Москва, (м. Курская/Чкаловская) \nЗ/п: 150 - 200к Net \n\n🌏Компания \"Рунет Бизнес Системы\" входит в группу компаний BPC Банковские Технологии и специализируется на предоставлении услуг интернет-эквайринга.  \nКлиенты РБС - это крупнейшие банки и компании России: Сбербанк РФ, Альфа-Банк, Аэрофлот, Открытие, группа ВТБ и многие другие. На текущий момент у РБС полтора десятка экземпляров платёжного шлюза для банков, где топовые инстансы дают в среднем 250 транзакций в секунду. \n\nРебята постоянно развивают внутренние процессы, сохраняя гибкость в управлении растущим числом проектов. Код-ревью всех изменений, agile-подход к разработке (примерно Scrumban), continuous integration и автоматизация тестирования помогают им контролировать и синхронизировать работу команд разработки, тестирования и внедрения.\n\nВ данный момент команды в поисках Middle Java разработчиков, коллеги готов гибко рассматривать кандидатов с опытом от 2 лет. \n\n🔸Технологический стэк команды:\nJava 11 (Stream API), java.util.concurrent, Stream REST API, Spring (boot, MVC, JDBC), Hibernate, Gradle, Kafka, Git, Maven. \n\n🔹Взамен компания готова предоставить:\n- оформление трудовых отношений в соответствии с ТК РФ: \"белую\" конкурентоспособную зарплату, оплату больничных и отпусков;\n- ДМС, включая стоматологию, участие в программах корпоративного кредитования и страхования;\n- возможность карьерного роста, обучения в корпоративном Университете и посещения внешних тренингов;\n- гибкое начало рабочего дня и крутые корпоративные мероприятия;\n- комфортный офис в шаговой доступности от метро Курская/Чкаловская. Бонусом - красивый вид из окна, тишина, чай и сэндвичи, пятница – фруктовый день 🙂 \n\nКонтакты: \ne-mail: valeriya@luckyhunter.io\ntelegram: @sobolevavalery\nБуду рада ответить на все вопросы и рассказать подробнее о компании 😊","markup":[{"type":"hashtag","offset":0,"length":5,"data":"java"},{"type":"hashtag","offset":6,"length":7,"data":"middle"},{"type":"hashtag","offset":14,"length":7,"data":"москва"},{"type":"hashtag","offset":22,"length":5,"data":"офис"},{"type":"hashtag","offset":28,"length":9,"data":"fulltime"},{"type":"hashtag","offset":47,"length":7,"data":"remote"},{"type":"link","offset":1885,"length":23,"data":"mailto:valeriya@luckyhunter.io"},{"type":"handle","offset":1919,"length":15,"data":"sobolevavalery"}],"date":"2020-04-03T15:11:11+00:00","link":"tg://resolve?domain=jvmjobs&post=1352","tags":[{"name":"java"},{"name":"jvm"},{"name":"dotnet"},{"name":"rest"},{"name":"spring"},{"name":"jdbc"},{"name":"hibernate"},{"name":"gradle"},{"name":"kafka"},{"name":"git"},{"name":"maven"},{"name":"continuous-integration"},{"name":"spring-boot"}],"cities":[{"code":"moscow"}],"allowsRemote":true}},{"node":{"__typename":"Job","id":"1416626176-1001091028994","title":"Java разработчик","text":"#офис #Москва #Java #RedCode\n\nСобеседования и работа в период карантина осуществляются дистанционно\n\nВакансия: Java разработчик\nЛокация: Москва, офис, м. Павелецкая \nЗарплатная вилка: 250 - 400 т.р. (обсуждается)\nТребуемый опыт: 3-6 лет \n\nВ крупную и стабильную компанию, уважающую трудовое законодательство и умеющую ценить своих сотрудников, требуется квалифицированный и опытный Java разработчик\n\n🔹Требования к кандидатам: \n- Высокий уровень знаний Java и опыт объектно-ориентированного программирования.\n- Знание современных библиотек, фреймворков (Spring, Hibernate...) и шаблонов проектирования.\n- Опыт работы с инфраструктурой микросервисов (Docker)\n- Необходимо понимать процесс разработки, уметь его организовывать и оптимизировать\n- Знать принципы ООП, подходы в программировании и требования к транзакционным системам (SOLID, DRY, WET, ACID)\n- Иметь обширный опыт работы с различными фреймворками, опыт работы с большими проектами\n- Понимать как работает git, уметь работать с linix-подобными консолями\n- Уметь аргументировать и договариваться \n\n🔹Также приветствуются:\n- Опыт разработки высокопроизводительных и высоконадёжных приложений.\n- Практика с Golang \n\n🔹О приятном: \n- белая зарплата.; \n- Соцпакет + ДМС (после испытательного срока).\n- стабильная компания\n- Шаговая доступность ст.м. \"Павелецкая\".\n- Coffee-Room в офисе + много где поесть в любое время дня. \n\nРезюме и вопросы: @Tatiana_Litvak","markup":[{"type":"hashtag","offset":0,"length":5,"data":"офис"},{"type":"hashtag","offset":6,"length":7,"data":"Москва"},{"type":"hashtag","offset":14,"length":5,"data":"Java"},{"type":"hashtag","offset":20,"length":8,"data":"RedCode"},{"type":"handle","offset":1400,"length":15,"data":"Tatiana_Litvak"}],"date":"2020-04-03T13:54:58+00:00","link":"tg://resolve?domain=jvmjobs&post=1351","tags":[{"name":"java"},{"name":"jvm"},{"name":"spring"},{"name":"hibernate"},{"name":"docker"},{"name":"git"},{"name":"go"}],"cities":[{"code":"moscow"}],"allowsRemote":false}},{"node":{"__typename":"Job","id":"1962934272-1001134745498","title":"Devops инженер","text":"#вакансия #DevOps #Москва #ivi\n\nЛокация: Москва, ст. м. Дмитровская\nФормат работы: офис (на время карантина - удаленка) \nЗанятость: полная\nЗарплатная вилка: от 180 000 до 250 000 руб. на руки.\n\nМы — команда эксплуатации сервиса ivi .\n\nРазыскиваем коллегу в команду для участия в настойке процессов, технических (CI/CD) и в части взаимодействия с коллегами. Активное участие в разворачивании и эксплуатации k8s .Помогаем командам разработки строить CI/CD-пайплайны . Некоторые из нас это делают в составе кросс-команд, другие помогают многим командам, оставшиеся обеспечивают всех нас необходимыми приложениями и инфраструктурой.\n\nУчим команды использовать контейнеры (docker) для подготовки разрабатываемых приложений, осваиваем использование k8s для оркестрации. Используем Ubuntu, Linux.\n\nХраним код и разрабатываем pipeline-ы с помощью gitlab+artifactory .\nДля мониторинга серверов и сервисов используем zabbix и statsd , заправляем grafana.\nНаши сервисы написаны на python, golang и немного php и java.\nЛюбим и активно используем jenkins для решения самых разнообразных задач.\nИспользуем много open source (и не только) приложений: nginx, redis, postgresql, mongodb, rabbitmq, clickhouse, openstack, gitlab, kafka, hdfs, jira , opennebula.\n\nЧто предстоит делать: \n- развитие и настройки процессов ci/cd;\n- планирование и участие в рефакторинге процессов, инфраструктуры, приложений;\n- сопровождение сервисов от разработки до эксплуатации, участие в эксплуатации;\n- доработка текущих и разработка новых сценариев конфигурирования серверов и приложений; \n- администрирование приложений по результатам выполненной работы подготовка документации, если необходимо. \n\nКак узнать что ты нам подходишь? \n- положительный и продолжительный опыт работы с CI/CD-системами (у нас gitlab и jenkins);\n- умение хорошо готовить docker; \n- опыт программирования на скриптовых языках (shell, python);\nопыт администрирования linux и приложение 5+;\n- понимание сетевых технологий TCP/IP; \n- опыт работы с системами управления версиями (git) и конфигурациями. \n\nСо своей стороны мы обещаем: \n- Офис в 5 минутах ходьбы от м. \"Дмитровская\";\n- У нас гибкий график, мы начинаем до 11 часов дня;\n- Трудоустройство по ТК РФ;\n- ДМС + стоматология после прохождения испытательного срока;\n- Подписка на ivi;\n- Пакет релокации для соискателей со всей России.\n\nОнлайн-кинотеатр ivi \nhttps://www.ivi.tv/\n\nБуду рада рассказать подробности, пишите в личку @daria144 или на почту dsereda@ivi.ru\n\n—\n\n👉 Обсуждение вакансии в чате @devops_jobs","markup":[{"type":"hashtag","offset":0,"length":9,"data":"вакансия"},{"type":"hashtag","offset":10,"length":7,"data":"DevOps"},{"type":"hashtag","offset":18,"length":7,"data":"Москва"},{"type":"hashtag","offset":26,"length":4,"data":"ivi"},{"type":"link","offset":2354,"length":19,"data":"https://www.ivi.tv/"},{"type":"handle","offset":2424,"length":9,"data":"daria144"},{"type":"link","offset":2447,"length":14,"data":"mailto:dsereda@ivi.ru"},{"type":"handle","offset":2496,"length":12,"data":"devops_jobs"}],"date":"2020-04-03T12:38:12+00:00","link":"tg://resolve?domain=devops_jobs_feed&post=1872","tags":[{"name":"docker"},{"name":"ubuntu"},{"name":"linux"},{"name":"gitlab"},{"name":"python"},{"name":"go"},{"name":"php"},{"name":"java"},{"name":"jenkins"},{"name":"nginx"},{"name":"redis"},{"name":"postgresql"},{"name":"mongodb"},{"name":"rabbitmq"},{"name":"kafka"},{"name":"hdfs"},{"name":"shell"},{"name":"git"}],"cities":[{"code":"moscow"}],"allowsRemote":true}},{"node":{"__typename":"Job","id":"1414529024-1001091028994","title":"Java разработчик","text":"#senior #java #architect #москва \nГород: Москва\nФормат работы: офис\nЗанятость: Полная\nЗарплатная вилка: от 220 000 до 260 000\nКомпания «Performance Lab» — одна из лидирующих ИТ-компаний в России ищет в свою команду Архитектора Java на направление custom development. Нам нужен эксперт, которому интересно заниматься проектированием и разработкой, быть ответственным за результаты работы.\n❗️Обязанности:\n-Проводить анализ функциональных и нефункциональных требований заказчика совместно с группой аналитики.\n-Разрабатывать концепции, архитектурные решения и подходы к реализации.\n-Взаимодействовать с заказчиком, представлять и защищать свои архитектурные решения.\n-Быть лидером в проектной команде (планировать работу команды, проводить декомпозицию задач, отслеживать прогресс по выполнению задач, поддерживать рабочую атмосферу в команде).\n-Полностью отвечать за техническую составляющую и качество проекта.\n-Обеспечивать прозрачность и прогнозируемость работы проектной команды, отвечать за своевременный выпуск релизов.\n-Самому участвовать в разработке back-end’а, проводить code-review.\n-Принимать участие в согласовании и разработке технической документации.\n❗️Требования:\n-Обладает большим опытом backend-разработки на Java, уверенно владеет Java 8 и выше.\n-Отлично знает Spring (Core, Boot, MVC, JPA, Security) и Hibernate.\n-Отлично знает SQL и хотя бы одну реляционную СУБД.\n-Разбирается в технологиях: REST, gRPC, GraphQL, SOAP, XML, JSON, JWT, OAuth.\n-Имеет опыт разработки на микросервисной архитектуре, понимает ее плюсы и минусы, понимает как организовать взаимодействия микросервисов.\n-Работал с Apache Kafka, Rabbit MQ.\n-Уверенно владеет Git.\n-Уже управлял командой разработки от 3-х человек.\n-Может быть лидером в команде, вести за собой людей.\n❗️Будет плюсом:\n-Немного умеет в devops (построить CI/CD пайплайн, оптимизировать сборку docker-контейнеров, настроить nginx и тд).\n-Знает JavaScript и знаком с современными Frontend-фреймворками (если знаком с React, то совсем хорошо).\n-Умеет налаживать отношения с бизнес-заказчиками, умеет договариваться и искать компромиссы.\n❗️Условия:\n-Официальное трудоустройство по ТК, дополнительные выходные.\n-Белая зарплата.\n-Место работы: отличный офис на м. Парк победы, БЦ «Барклай плаза».\n 📩Контакты: @polinakokina","markup":[{"type":"hashtag","offset":0,"length":7,"data":"senior"},{"type":"hashtag","offset":8,"length":5,"data":"java"},{"type":"hashtag","offset":14,"length":10,"data":"architect"},{"type":"hashtag","offset":25,"length":7,"data":"москва"},{"type":"handle","offset":2262,"length":13,"data":"polinakokina"}],"date":"2020-04-02T14:38:38+00:00","link":"tg://resolve?domain=jvmjobs&post=1349","tags":[{"name":"java"},{"name":"jvm"},{"name":"spring"},{"name":"jpa"},{"name":"hibernate"},{"name":"sql"},{"name":"rest"},{"name":"graphql"},{"name":"soap"},{"name":"xml"},{"name":"json"},{"name":"jwt"},{"name":"oauth"},{"name":"apache"},{"name":"kafka"},{"name":"rabbitmq"},{"name":"git"},{"name":"docker"},{"name":"nginx"},{"name":"javascript"},{"name":"reactjs"}],"cities":[{"code":"moscow"}],"allowsRemote":false}},{"node":{"__typename":"Job","id":"24242028544-1001075660570","title":"Php разработчик","text":"#php #developer #middle #senior #fulltime #удалённо #job #вакансия #remote #фуллтайм #fulltime #удаленно #удаленка #удалёнка #удаленно \n #москва \n✔️ Вакансия: PHP developer\nЗП: до 160k net\nФормат работы: полная/удаленно\nКомпания: МТС \n\nКрупная российская телекоммуникационная компания приглашает присоединиться PHP разработчика к проекту доработки приложения, позволяющее абонентам эффективно и комфортно управлять финансами абонентского счета.\n\n ✔️ Задачи:\n• Доработка CMS бэкенда проекта;\n• Доработка бэкенда проекта;\n• Интеграции решений с внешними системами;\n• Интеграция решения с мобильными приложениями;\n• Разработка веб-приложений с использованием PHP 5.3, 5.6, 7.3.\n\n✔️ Предлагаем: \n• Официальное трудоустройство;\n• Повышение квалификации;\n•  Удаленная работа из дома.\n\n✔️ Пожелания к Вашему опыту:\n• Знание отличий версий PHP 5.3, 5.6, 7.3;\n• Понимание принципов ООП, MVP;\n• Опыт работы с #Yii2, #Laravel;\n• Работа с БД: PL/SQL, MySQL, MS SQL;\n• Опыт работы с JavaScript, jQuery, Bootstrap, CSS, HTML;\n• Опыт работы с Yii2, Laravel;\n• Работа с БД: PL/SQL, MySQL, MS SQL;\n• Знание команд Unix/Windows;\n• Опыт разработки пользовательских интерфейсов;\n• Опыт работы с системами контроля версий: TFS/SVN/GIT.\n\nКонтактное лицо: @OlgaVzh","markup":[{"type":"hashtag","offset":0,"length":4,"data":"php"},{"type":"hashtag","offset":5,"length":10,"data":"developer"},{"type":"hashtag","offset":16,"length":7,"data":"middle"},{"type":"hashtag","offset":24,"length":7,"data":"senior"},{"type":"hashtag","offset":32,"length":9,"data":"fulltime"},{"type":"hashtag","offset":42,"length":9,"data":"удалённо"},{"type":"hashtag","offset":52,"length":4,"data":"job"},{"type":"hashtag","offset":57,"length":9,"data":"вакансия"},{"type":"hashtag","offset":67,"length":7,"data":"remote"},{"type":"hashtag","offset":75,"length":9,"data":"фуллтайм"},{"type":"hashtag","offset":85,"length":9,"data":"fulltime"},{"type":"hashtag","offset":95,"length":9,"data":"удаленно"},{"type":"hashtag","offset":105,"length":9,"data":"удаленка"},{"type":"hashtag","offset":115,"length":9,"data":"удалёнка"},{"type":"hashtag","offset":125,"length":9,"data":"удаленно"},{"type":"hashtag","offset":137,"length":7,"data":"москва"},{"type":"bold","offset":158,"length":15,"data":""},{"type":"bold","offset":204,"length":16,"data":""},{"type":"bold","offset":447,"length":11,"data":""},{"type":"bold","offset":676,"length":16,"data":""},{"type":"bold","offset":779,"length":29,"data":""},{"type":"hashtag","offset":899,"length":5,"data":"Yii2"},{"type":"hashtag","offset":906,"length":8,"data":"Laravel"},{"type":"handle","offset":1233,"length":8,"data":"OlgaVzh"}],"date":"2020-04-02T08:52:06+00:00","link":"tg://resolve?domain=php_jobs&post=23119","tags":[{"name":"php"},{"name":"dotnet"},{"name":"yii"},{"name":"laravel"},{"name":"sql"},{"name":"mysql"},{"name":"javascript"},{"name":"jquery"},{"name":"bootstrap"},{"name":"css"},{"name":"html"},{"name":"unix"},{"name":"windows"},{"name":"tfs"},{"name":"svn"},{"name":"git"}],"cities":[{"code":"moscow"}],"allowsRemote":true}},{"node":{"__typename":"Job","id":"24239931392-1001075660570","title":"Php разработчик","text":"#вакансия #php \nВакансия: PHP-разработчик\nФормат работы: удаленка\nЗанятость: полная\nЗарплата: 1500 EUR/месяц\n\nВ IT компанию приглашается PHP-разработчик.\n\nОбязанности:\n- проектирование, разработка, тестирование и поддержка кода на PHP;\n- проектирование структур баз данных;\n- разработка модулей к существующим проектам;\n- улучшение существующего кода и решений;\n- поддержание целостности архитектуры проекта.\n\nТребования:\n- опыт работы PHP программистом более 1 года; \n- уверенное владение PHP, HTML, CSS, JavaScript, MySQL;\n- опыт и понимание принципов проектирования структур баз данных;\n- понимание принципов объектно-ориентированного дизайна программ;\n- умение использовать операционные системы типа *nix;\n- владение Git и понимание принципов Git Flow;\n- приветствуется понимание TDD, BDD, опыт автоматизированного тестирования;\n- приветствуется опыт работы с технологиями Memcached, Redis, RabbitMQ, MongoDB, Cassandra, Kafka;\n- приветствуется опыт работы с другими языками Python, Ruby, TypeScript, Go, Rust;\n- умение работать в команде, желание перенимать опыт коллег и делиться собственным опытом;\n- умение и желание докапываться до сути;\n- умение поддерживать порядок и быть педантом в вопросах качества;\n- умение читать и понимать техническую литературу на английском языке;\n- терпеливое отношение к чужому коду и к критике собственного;\n- наличие широкого Интернет-канала и настроенной программы Skype, позволяющих поддерживать качественную видеосвязь.\n\nУсловия и основные принципы:\n- удаленная работа (не фриланс);\n- полная занятость (5 дней в неделю, 8/6/4 часов в день по выбору);\n- ставка заработной платы 1500 EUR (8 часов), 1125 EUR (6 часов) или 750 EUR (4 часа) в месяц;\n- возможен переезд за границу.\n\nПодробности @trlogic","markup":[{"type":"hashtag","offset":0,"length":9,"data":"вакансия"},{"type":"hashtag","offset":10,"length":4,"data":"php"},{"type":"handle","offset":1734,"length":8,"data":"trlogic"}],"date":"2020-04-01T20:18:09+00:00","link":"tg://resolve?domain=php_jobs&post=23117","tags":[{"name":"php"},{"name":"html"},{"name":"css"},{"name":"javascript"},{"name":"mysql"},{"name":"git"},{"name":"redis"},{"name":"rabbitmq"},{"name":"mongodb"},{"name":"cassandra"},{"name":"kafka"},{"name":"python"},{"name":"ruby"},{"name":"typescript"},{"name":"rust"}],"cities":[],"allowsRemote":true}},{"node":{"__typename":"Job","id":"24228397056-1001075660570","title":"Php разработчик","text":"#вакансия #Москва #fulltime #php #офис #middle #senior\n  \nВакансия: Ведущий backend разработчик (PHP)\nГород: #Москва (м. Парк Победы)\nЗП: от 120К net (готовы рассмотреть ваши ожидания)\nЗанятость: полная / офис \nКомпания: Румиком (https://ru-mi.com/)\n\n📌 Компания Румиком, крупнейший реселлер экосистемы Xiaomi на российском рынке и странах СНГ, ищет увлеченного PHP-профи в свою команду.\n\n📌 Задачи:\n•  Поддержка высоконагруженного ecommerce-проекта (интернет-магазина с посещаемостью больше 1 миллиона пользователей в месяц) в качестве ведущего программиста: доработки по функционалу, фронтенд- и бэкенд-работы при обновлении дизайна разделов и так далее;\n•  Перевод интернет-магазина на новую платформу;\n•  Разработка экосистемы небольших лидген-сайтов для подразделений, входящих в ГК (в будущем — контроль внешних подрядчиков);\n•  Оптимизация скорости работы сайтов;\n•  Интеграционные связки 1С — CRM — сайт.\n\n📌 Что мы готовы предложить:\n•  Практикуем современный подход к работе — мы даем свободу действий и творчества; \n•  Комфортный офис в 7 минутах пешком от станции метро \"Парк Победы\"; \n•  Программы коучинга и горизонтальное обучение в отделах; \n•  Уютный бизнес-центр с фитнес-залом и бассейном; \n•  С удовольствием делимся всем, что сами знаем, \"закрытость\" - не про нас.\n\n📌 Наши ожидания:\n•  Опыт разработки на OpenCart любой версии (от 1.5), понимание модели MVC;\n•  Опыт разработки на РНР от 3-х лет. В ваше портфолио могут входить как решения на CMS, CMF и на фреймворках (Yii 2, Laravel и пр.), так и на популярных CMS (1C-Bitrix, Netcat, MODx);\n•  Хорошие навыки по фронтенду, включая интеграцию верстки, опыт разработки на JavaScript (jQuery);\n•  Опыт работы с реляционными БД: MySQL, PostgreSQL как плюс для соискателя;\n•  Опыт работы с Git. Будет отлично, если работали с Docker.\n\n✉️ Для связи:\nПочта: hr.administrator@digmi.agency\nТелеграм: @dnikiforova","markup":[{"type":"hashtag","offset":0,"length":9,"data":"вакансия"},{"type":"hashtag","offset":10,"length":7,"data":"Москва"},{"type":"hashtag","offset":18,"length":9,"data":"fulltime"},{"type":"hashtag","offset":28,"length":4,"data":"php"},{"type":"hashtag","offset":33,"length":5,"data":"офис"},{"type":"hashtag","offset":39,"length":7,"data":"middle"},{"type":"hashtag","offset":47,"length":7,"data":"senior"},{"type":"hashtag","offset":109,"length":7,"data":"Москва"},{"type":"link","offset":230,"length":18,"data":"https://ru-mi.com/"},{"type":"link","offset":1826,"length":29,"data":"mailto:hr.administrator@digmi.agency"},{"type":"handle","offset":1866,"length":12,"data":"dnikiforova"}],"date":"2020-04-01T14:40:24+00:00","link":"tg://resolve?domain=php_jobs&post=23106","tags":[{"name":"php"},{"name":"dotnet"},{"name":"yii"},{"name":"laravel"},{"name":"javascript"},{"name":"jquery"},{"name":"mysql"},{"name":"postgresql"},{"name":"git"},{"name":"docker"}],"cities":[{"code":"moscow"}],"allowsRemote":false}},{"node":{"__typename":"Job","id":"1407188992-1001091028994","title":"Java developer","text":"RBS, Рунет Бизнес Системы (входит в BPC Group) \n#вакансия #Москва #Java \nГород: Москва, м.Курская \nФормат работы: full-time (офис, гибкий график) \nЗарпатная вилка: 170-250 тыс. руб gross + 50% от оклада квартальный бонус (фикс) \nРоль: Java developer (middle) \n\nКомпания РБС специализируется на предоставлении услуг в области электронной коммерции, а также процессинга электронных платежей. \nСегодня клиентами РБС являются крупнейшие банки и компании России: Сбербанк РФ, Альфа-Банк, Аэрофлот, Открытие, группа ВТБ и многие другие. \n\nТвои задачи: \n📌Разработка серверных Java-приложений, рефакторинг и оптимизация; \n📌Реализация бизнес-функционала как в тесной работе с аналитиком, так и самостоятельно; \n📌Описание функционала на уровне подробного комментария (описание API, алгоритма, структур данных, информация для тестировщиков); \n📌Код-ревью изменений коллег и работа по основным принципам Agile. \n\nТребования: \n✅Опыт разработки на Java от 2-х лет, знание synchronized; \n✅Знание Spring (boot, MVC, JDBC); \n✅Опыт написания тестов (JUnit, Mockito или PowerMock); \n✅Знание Java 8, 11 (Stream API), java.util.concurrent; \n✅Понимание принципов работы HTTP/HTTPS (SSL, TLS); \n✅Уверенное владение SQL; \n✅Git, Maven, Gradle. \n\nВзамен мы: \n🌟Гарантируем оформление трудовых отношений в соответствии с ТК РФ: \"белую\" конкурентоспособную зарплату, оплату больничных и отпусков; \n🌟Обеспечиваем ДМС, включая стоматологию, участие в программах корпоративного кредитования и страхования; \n🌟Даем возможность карьерного роста (пересмотр зарплаты и грейда каждый год); \n🌟Предлагаем обучение в Корпоративном Университете, возможность посещать внешние тренинги и конференции (JPoint, Joker); \n🌟Организуем гибкое начало рабочего дня; \n🌟Проводим интересные и активные корпоративные мероприятия (выездные: Франция, Германия и т.д.); \n🌟Предоставляем комфортный офис в шаговой доступности от метро Курская/Чкаловская. \n\n📝Контакты: \nDaria Kuznetsova \nHR Business Parthner \n\nBPC Group | Bld. 2, 50A/8 Zemlyanoy Val St., Moscow, Russia, 109028\nTel: +7 (495) 780-31-65 | Fax: +7 (495) 780-31-67 | Mobile: +7 (915) 469-99-53\ndo.kuznetsova@bpcbt.com | www.bpcbt.com\nTelegram @KuznetsovaDO","markup":[{"type":"hashtag","offset":48,"length":9,"data":"вакансия"},{"type":"hashtag","offset":58,"length":7,"data":"Москва"},{"type":"hashtag","offset":66,"length":5,"data":"Java"},{"type":"link","offset":2033,"length":18,"data":"tel:+7 (495) 780-31-65"},{"type":"link","offset":2059,"length":18,"data":"tel:+7 (495) 780-31-67"},{"type":"link","offset":2088,"length":18,"data":"tel:+7 (915) 469-99-53"},{"type":"link","offset":2107,"length":23,"data":"mailto:do.kuznetsova@bpcbt.com"},{"type":"link","offset":2133,"length":13,"data":"http://www.bpcbt.com"},{"type":"handle","offset":2156,"length":13,"data":"KuznetsovaDO"}],"date":"2020-04-01T08:49:26+00:00","link":"tg://resolve?domain=jvmjobs&post=1342","tags":[{"name":"java"},{"name":"jvm"},{"name":"spring"},{"name":"jdbc"},{"name":"junit"},{"name":"ssl"},{"name":"sql"},{"name":"git"},{"name":"maven"},{"name":"gradle"},{"name":"mobile"},{"name":"spring-boot"}],"cities":[{"code":"moscow"}],"allowsRemote":false}},{"node":{"__typename":"Job","id":"1405091840-1001091028994","title":"Java разработчик","text":"Вакансия: #java #spring #hibernate \nКомпания: #MTS\nЛокация: #Санкт-Петербург #Горьковская\nФормат работы: #работавофисе + иногда возможно удаленно работать\n✔️ЗП: 140-180 net (в замисимости от знаний и опыта)\nКонтакт: @alina_katkova почта: avkatko2@mts.ru\n\nВ рамках реализации платформы по обеспечению контроля, наблюдаемости и безопасности API (API gateway) ищем в команду Java разработчика.\n\nЦель продукта — предоставить командам средство управления жизненным циклом API и контроль передаваемых данных в соответствии с требованиями безопасности.\nЧто нужно делать: \n- Заниматься разработкой компонентов обработки и управления трафиком HTTP/S (веб-сервисы);\n- Реализовывать правила управления жизненным циклом API (Rest/SOAP);\n- Участвовать в разработке архитектуры и согласовании сценариев использования продукта.\nНаш стек:\n- Spring (boot, MVC, JPA), Hibernate, Liquibase;\n- Java 8 - 11;\n- Java 8 (Collections, I/O);\n- Multithreading (synchronization, java.util.concurrent);\n- PostgreSQL;\n- RabbitMQ;\n- Hazelcast;\n- Netflix (eureka, zuul, microservices);\n- ElasticSearch;\n- Docker;\n- Kubernetes;Git;\n- Maven;\n- Linux.\nУсловия:\n-штат, все по ТК РФ\n-премия 20% от годового оклада сверху\n-соц.пакет\n-удаленка на время карантина :)","markup":[{"type":"hashtag","offset":10,"length":5,"data":"java"},{"type":"hashtag","offset":16,"length":7,"data":"spring"},{"type":"hashtag","offset":24,"length":10,"data":"hibernate"},{"type":"hashtag","offset":46,"length":4,"data":"MTS"},{"type":"hashtag","offset":60,"length":6,"data":"Санкт"},{"type":"hashtag","offset":77,"length":12,"data":"Горьковская"},{"type":"hashtag","offset":105,"length":13,"data":"работавофисе"},{"type":"handle","offset":216,"length":14,"data":"alina_katkova"},{"type":"link","offset":238,"length":15,"data":"mailto:avkatko2@mts.ru"},{"type":"bold","offset":546,"length":16,"data":""},{"type":"bold","offset":813,"length":10,"data":""},{"type":"bold","offset":1117,"length":7,"data":""}],"date":"2020-04-01T06:15:37+00:00","link":"tg://resolve?domain=jvmjobs&post=1340","tags":[{"name":"java"},{"name":"jvm"},{"name":"spring"},{"name":"hibernate"},{"name":"dotnet"},{"name":"rest"},{"name":"soap"},{"name":"jpa"},{"name":"postgresql"},{"name":"rabbitmq"},{"name":"elasticsearch"},{"name":"docker"},{"name":"kubernetes"},{"name":"git"},{"name":"maven"},{"name":"linux"},{"name":"spring-boot"}],"cities":[],"allowsRemote":true}},{"node":{"__typename":"Job","id":"24181211136-1001075660570","title":"Php разработчик","text":"#вакансия #senior #php #symfony #воронеж \n\nSenior PHP разработчик\nКомпания: СберЛогистика\nЛокация:  г. Воронеж, ул. Кропоткина, офис, полная занятость\nЗ/п:  от 110.000 net\nКонтакт: @yagodaalena или @wander_wom \n\nСберЛогистика – это логистический оператор федерального масштаба, развивающий собственную складскую инфраструктуру, курьерскую доставку и сеть пунктов выдачи заказов во всех регионах России. \n\nЗадачи:\n• Разработка прикладного кода\n• Проведение тестирования собственного кода, написание unit-тестов и автотестов на функциональность\n• Разработка интеграционной функциональности. Диагностирование ошибок и сбоев, исправление причин\n• Сопровождение внедрения продуктов\n• Проведение code review\n\nОт Вас мы ожидаем:\n• Опыт работы с Symfony\n• Уверенная работа с реляционными СУБД (предпочтительно PostgreSQL)\n• Уверенная работа с Git\n• Уверенный пользователь Linux\n• Работа с API: OpenApi, REST, JsonRPC\n• CI/CD (Jenkins, GitLab CI/CD, etc)\n• KeyValue: Redis\n• Опыт работы с брокерами сообщений: Kafka\n• Английский язык на уровне чтения и понимания технической документации\n\nРабота у нас это:\n• Возможность работать над новыми амбициозными проектами в области логистики в дружной команде профессионалов\n• Полное соблюдение ТК РФ\n• Конкурентное вознаграждение, обсуждаем с финальным кандидатом\n• ДМС\n\nНапиши мне, если интересно. 😉","markup":[{"type":"hashtag","offset":0,"length":9,"data":"вакансия"},{"type":"hashtag","offset":10,"length":7,"data":"senior"},{"type":"hashtag","offset":18,"length":4,"data":"php"},{"type":"hashtag","offset":23,"length":8,"data":"symfony"},{"type":"hashtag","offset":32,"length":8,"data":"воронеж"},{"type":"handle","offset":181,"length":12,"data":"yagodaalena"},{"type":"handle","offset":198,"length":11,"data":"wander_wom"}],"date":"2020-03-31T08:25:15+00:00","link":"tg://resolve?domain=php_jobs&post=23061","tags":[{"name":"php"},{"name":"symfony"},{"name":"dotnet"},{"name":"postgresql"},{"name":"git"},{"name":"linux"},{"name":"rest"},{"name":"jenkins"},{"name":"gitlab"},{"name":"redis"},{"name":"kafka"}],"cities":[{"code":"voronezh"}],"allowsRemote":false}}]}}},"context":{}}