{"hash":"f5f6bf98bd95e769321482904cbbd488f77922fd","data":{"records":{"id":"docker","name":"docker","belongsTo":{"totalCount":182,"pageInfo":{"totalPages":19,"currentPage":15},"edges":[{"node":{"__typename":"Job","id":"1699741696-1001091028994","title":"Java разработчик","text":"#вакансия #Москва #Архитектор #Java\n \nВакансия: АРХИТЕКТОР\nЛокация: #Москва ст.м.Верхние Лихоборы, МЦК Окружная\nВилка по ЗП: до 300 000 net \nКонтакт: @Hr_Dina\nОсновной проект: Развитие решения класса IDM/AM.\nВ рамках проекта необходимо доработать решение под требования заказчика.\nНаписать проектно-рабочую документацию.\nПройти процедуру сертификации решения.\n \nСтек технологий: OpenJDK 11 Spring 5 Springboot 2 Hibernate 5 Ignite (возможно будет заменен на redis) Netty 4 Postgres 11 Angular 8 Docker (планируется использовать kubernetes)\n \n \nЧем Вам предстоит заниматься:\nРазработка архитектуры и проектирование информационных систем;\nОрганизация и проведение обследований существующей и планируемой IT-инфраструктуры на территории Заказчика;\nРазработка и согласование проектной и технической документации в части системной архитектуры;\nРазработка тендерной документации и технических предложений в части системной архитектуры;\nКонсультирование ИТ и бизнес - специалистов Заказчика по вопросам, относящимся к компетенции архитектора.\nВ рамках текущего проекта:\nСопровождение архитектуры решения;\nУправление запросами на доработку решения от интегрированных прикладных проектов, проектирование общих согласованных решений на доработку;\nОбеспечение нефункциональных требований к масштабируемости и производительности.\n \n \nЧто мы ждем от вас:\nОпыт работы от 2 лет в сфере реализации корпоративных приложений на java платформе в должности руководитель группы разработки, архитектор/ведущий архитектор.\n\nЗнания и навыки:\nЗнание основ разграничения доступа (RBAC/ABAC/мандатное), опыт использования решений класса IDM/AM;\nЗнание и практический опыт применения методологий разработки и проектирования ПО;\nЗнания и опыт применения шаблонов проектирования информационных систем;\nЗнания принципов работы реляционных СУБД, опыт работы с различными реализация БД (Oracle, Postgre предпочтительно).\nОпыт разработки или проектирования высоконагруженных приложений на Java;\nJava SE 8+ (Core, Collections, Multithreading);\nSpring (Core, Boot, Security, Data);\nHibernate/Ebean/Jooq;\nIgnite/redis\nPostgres\n\nПлюсом будет:\nОпыт разработки и/или проектирования СЗИ от НСД в соответствии с требованиями РД ФСТЭК/Гостехкомиссии;\nОпыт подготовки проектной документации, знание ГОСТ 19/34;\nЗнание основ криптографической защиты информации;\nЗнание ОС Astra Linux SE\n\nЗнание:\nOAuth, SSO/SAML, Kerberos, PKI, WS-Security;\nПроектирование REST API (Swagger);\nDocker, Kubernetes\n\nЧто готовы предложить:\nВозможность участвовать в масштабных проектах на уровне страны.\nГибкий график работы. Преимущественно команда работает с 9 (10.00) до 18 (19.00) по московскому времени. Возможность работать удаленно.\nСоциальный пакет (ДМС, дополнительные компенсации по обучению и туризму, изучение английского языка на льготных условиях).","markup":[{"type":"hashtag","offset":0,"length":9,"data":"вакансия"},{"type":"hashtag","offset":10,"length":7,"data":"Москва"},{"type":"hashtag","offset":18,"length":11,"data":"Архитектор"},{"type":"hashtag","offset":30,"length":5,"data":"Java"},{"type":"bold","offset":38,"length":9,"data":""},{"type":"bold","offset":59,"length":8,"data":""},{"type":"hashtag","offset":68,"length":7,"data":"Москва"},{"type":"bold","offset":112,"length":12,"data":""},{"type":"bold","offset":141,"length":8,"data":""},{"type":"handle","offset":150,"length":8,"data":"Hr_Dina"},{"type":"bold","offset":159,"length":16,"data":""},{"type":"bold","offset":362,"length":17,"data":""},{"type":"bold","offset":544,"length":30,"data":""},{"type":"bold","offset":1322,"length":20,"data":""},{"type":"italic","offset":1501,"length":17,"data":""},{"type":"italic","offset":2091,"length":14,"data":""},{"type":"italic","offset":2343,"length":8,"data":""},{"type":"bold","offset":2451,"length":23,"data":""}],"date":"2020-06-16T15:11:33+00:00","link":"tg://resolve?domain=jvmjobs&post=1621","tags":[{"name":"java"},{"name":"jvm"},{"name":"dotnet"},{"name":"spring"},{"name":"hibernate"},{"name":"redis"},{"name":"postgresql"},{"name":"angularjs"},{"name":"docker"},{"name":"kubernetes"},{"name":"oracle"},{"name":"linux"},{"name":"oauth"},{"name":"rest"},{"name":"swagger"}],"cities":[{"code":"moscow"}],"allowsRemote":true}},{"node":{"__typename":"Job","id":"1697644544-1001091028994","title":"Java разработчик","text":"#java #javascript #middle #senior\nКомпания: #kode \nЛокация: #калининград\nЗ/п: от 100К руб\nКонтакты: @Nadia_Rudometova\n \nKODE – компания мобильной разработки, которая закрепилась в ТОП-10 лучших студий и постоянно улучшает свои позиции. Мы выступаем технологическими партнёрами бизнеса, помогая заказчику развивать их digital-сервисы. \n\nЧто нужно делать?\n-Декомпозировать, планировать и оценивать задачи;\nУчаствовать в проектировании сложных систем с чистого листа;\n-Проектировать архитектуру веб-сервисов и REST API;\n-Реализовывать сложные интеграции с различными системами (GDS, банкинг, ритейл, биллинг и т.д.);\n-Покрывать свой код тестами;\n-Сопровождать и документировать архитектурные решения по своим проектам;\n-Взаимодействовать с участниками проектной команды для реализации лучших решений\n\nЧто нужно уметь?\n-Отличные знания Java;\n-Знания Spring и Spring Boot, Groovy;\n-Опыт работы c Kafka;\n-Умение использовать различные инструменты для тестирования кода и приложений различной сложности: JUnit, Spock, Testcontainers, Mockito, Hamcrest;\n-Опыт работы с SQL и NoSQL СУБД;\nЗнание принципов и шаблонов проектирования;\n-Уверенные знания о работе unix-систем. Любовь к ним и умение с ними работать;\n-Умение работать с Docker, docker-compose;\n\nЧто предлагаем?\n-Официальное оформление по ТК;\n-Работа в продуктовой команде, используя современный стек разработки;\n-Возможность влиять на развитие проекта и компании;\n-Корпоративы в Европе","markup":[{"type":"hashtag","offset":0,"length":5,"data":"java"},{"type":"hashtag","offset":6,"length":11,"data":"javascript"},{"type":"hashtag","offset":18,"length":7,"data":"middle"},{"type":"hashtag","offset":26,"length":7,"data":"senior"},{"type":"hashtag","offset":44,"length":5,"data":"kode"},{"type":"hashtag","offset":60,"length":12,"data":"калининград"},{"type":"handle","offset":100,"length":17,"data":"Nadia_Rudometova"}],"date":"2020-06-16T14:47:56+00:00","link":"tg://resolve?domain=jvmjobs&post=1619","tags":[{"name":"java"},{"name":"jvm"},{"name":"javascript"},{"name":"rest"},{"name":"spring"},{"name":"groovy"},{"name":"kafka"},{"name":"junit"},{"name":"sql"},{"name":"nosql"},{"name":"unix"},{"name":"docker"},{"name":"spring-boot"},{"name":"docker-compose"}],"cities":[{"code":"kaliningrad"}],"allowsRemote":false}},{"node":{"__typename":"Job","id":"16982736896-1001110946746","title":"Js разработчик","text":"#вакансия #удаленно #fullstack #JavaScript #NodeJS #Vue\n\nГород: г. Москва, Сколково, б-р Большой\nФорма работы: удаленка\nЗанятость: полная\nЗарплатная вилка: от 120000 до 200000 рублей\nНазвание компании: ADMON\n\nВ связи с расширением штата, компания ADMON приглашает Senior Full-stack JavaScript-разработчиков, готовых стать полноценными членами нашей команды на удаленной основе или в Новосибирском офисе. ADMON – одна из ведущих российских компаний по предотвращению и расследованию мошенничества в сфере рекламы в Интернете и на мобильных устройствах с использованием высоких технологий. Основные направления деятельности компании: мониторинг и предотвращение мошенничества, аудит рекламных кампаний, разработка инновационных программных продуктов по мониторингу, обнаружению и предотвращению возникающих видов мошенничества.\n\nСтек технологий:\nNode.JS, Vue, GraphQl, Jest, Redis, Clickhouse, PostgreSQL, Docker.\n\nЧто используем в работе:\n    - Jira (Kanban), Confluence;\n   - Храним код в Gitlab, тут же CI/CD;\n    -Практикуем code review, политику частых релизов, гибкие методологии разработки;\n    -Мониторим состояние приложений с помощью: Zabbix, Grafana.\n\nВ задачи будет входить:\n    - Улучшать имеющийся функционал и разрабатывать новый (Система нотификаций, Обработка платежей, Алгоритмы атрибуции, Ads Crawler и т.д.);\n    - Писать тесты и рефакторить кодовую базу;\n    - Участвовать в принятии архитектурных решений;\n    - Работать как в составе команды, так и в одного над небольшими проектами;\n    - Участвовать в коммуникации с командой;\n    - Быть инициативным и предлагать свои идеи, в том числе, если это касается использования новых технологий — проводить code review.\n\nЧто мы предлагаем:\n    - Профессионализм, взаимопомощь и наставничество;\n    - Гибкий график;\n    - Удаленная работа;\n    - Возможность работать как в составе команды, так и возглавить со временем свое направление — мы готовы обсуждать любые ваши идеи. \n\n Контакты:@juliajudina2810\n\n—\n\n👉 Обсуждение вакансии в чате @javascript_jobs","markup":[{"type":"hashtag","offset":0,"length":9,"data":"вакансия"},{"type":"hashtag","offset":10,"length":9,"data":"удаленно"},{"type":"hashtag","offset":20,"length":10,"data":"fullstack"},{"type":"hashtag","offset":31,"length":11,"data":"JavaScript"},{"type":"hashtag","offset":43,"length":7,"data":"NodeJS"},{"type":"hashtag","offset":51,"length":4,"data":"Vue"},{"type":"handle","offset":1961,"length":16,"data":"juliajudina2810"},{"type":"handle","offset":2012,"length":16,"data":"javascript_jobs"}],"date":"2020-06-16T12:57:50+00:00","link":"tg://resolve?domain=javascript_jobs_feed&post=0","tags":[{"name":"javascript"},{"name":"nodejs"},{"name":"vuejs"},{"name":"graphql"},{"name":"redis"},{"name":"postgresql"},{"name":"docker"},{"name":"gitlab"}],"cities":[{"code":"moscow"}],"allowsRemote":true}},{"node":{"__typename":"Job","id":"16981688320-1001110946746","title":"Js разработчик","text":"#вакансия #frontend  #React #офис #remote #Спб #senior \n\nКомпания: DBeaver\nЗ/п: 180 000 - 300 000 рублей на руки \nГород и адрес офиса: г. Санкт-Петербург (м. Площадь Ленина/Новочеркасская)\nФормат работы: офис или удаленка (приоритет кандидатам из Санкт-Петербурга)\nЗанятость: полная, fulltime\n\n🌏DВeaver  - это международный open source проект, бесплатный многоплатформенный инструмент для работы с базами данных. Поддерживает все популярные базы данных: MySQL, PostgreSQL, MariaDB, SQLite, Oracle, DB2, SQL Server, Sybase, MS Access, Teradata, Firebird, Derby и т. д. Платформа интегрируется с Amazon сервисами и нацелена на облачные решения. \n\nCейчас ребята разрабатывают web решение DВeaver, первый релиз состоялся в начале года и компания активно продолжает развитие. \n\n💠Какой опыт и знания ожидают увидеть ребята:\n- опыт работы с TypeScript и React;\n- опыт участия в многокомпонентных проектах со сложной бизнес-логикой;\n- опыт проектирования и рефакторинга;\n- готовность возглавить разработку интерфейсной части продукта, принимать ключевые архитектурные решения;\n- английский язык от уровня intermediate (письменный и на уровне чтения).\n\nСтек технологий: TypeScript, React, GraphQL, MobX, RxJS, Docker. \n\n💎Что получите вы:\n- комфортный офис в БЦ Бенуа;\n- возможность частично или полностью удаленной работы; \n- официальное оформление;\n- возможность поработать над крутым международным продуктом в сплоченной команде энтузиастов;\n- профессиональные командировки и конференции в США и Европу.\n\nКонтакты:\ne-mail: valeriya@luckyhunter.io\ntelegram: @sobolevavalery\nКА: http://luckyhunter.io\nБуду рада ответить на все вопросы и рассказать подробнее о компании 😊\n\n—\n\n👉 Обсуждение вакансии в чате @javascript_jobs","markup":[{"type":"hashtag","offset":0,"length":9,"data":"вакансия"},{"type":"hashtag","offset":10,"length":9,"data":"frontend"},{"type":"hashtag","offset":21,"length":6,"data":"React"},{"type":"hashtag","offset":28,"length":5,"data":"офис"},{"type":"hashtag","offset":34,"length":7,"data":"remote"},{"type":"hashtag","offset":42,"length":4,"data":"Спб"},{"type":"hashtag","offset":47,"length":7,"data":"senior"},{"type":"link","offset":1519,"length":23,"data":"mailto:valeriya@luckyhunter.io"},{"type":"handle","offset":1553,"length":15,"data":"sobolevavalery"},{"type":"link","offset":1573,"length":21,"data":"http://luckyhunter.io"},{"type":"handle","offset":1700,"length":16,"data":"javascript_jobs"}],"date":"2020-06-16T12:56:30+00:00","link":"tg://resolve?domain=javascript_jobs_feed&post=0","tags":[{"name":"javascript"},{"name":"reactjs"},{"name":"mysql"},{"name":"postgresql"},{"name":"mariadb"},{"name":"sqlite"},{"name":"oracle"},{"name":"sql"},{"name":"ms-access"},{"name":"web"},{"name":"typescript"},{"name":"graphql"},{"name":"rxjs"},{"name":"docker"},{"name":"sql-server"}],"cities":[],"allowsRemote":true}},{"node":{"__typename":"Job","id":"2216689664-1001134745498","title":"Devops инженер","text":"#вакансия #Москва #офис\n\nВсем привет!\n\nКомпания Сбербанк-Технологии ищет DevOps-инженера в команду развития event-сегмента облачной интеграционной платформы Synapse. Проект находится в активной фазе развития и востребован как со стороны бизнеса, так и со стороны платформ Банка.\n\n➡️Адрес офиса: Новоданиловская наб. 10 (10-15 мин. от м. Тульская и МЦК Верхние котлы)\n➡️Зарплатная вилка: от 150 до 220k net + премии\n➡️Занятость: полная\n\nПо стеку — #Ansible, #Jenkins, #Shell, #Kubernetes, #OpenShift, #Docker\n\nНемного о проекте:\n\n— работаем на open source стеке технологий (Apache Kafka, Apache Flink);\n— разрабатываем высоконагруженные (более 100 000 TPS) и отказоустойчивые (99,99%) технологии обмена и потоковой обработки событий;\n— работаем с событийными архитектурами (EDA), консультируем по проектированию и обеспечиваем технологический бэкграунд для решений в областях event sourcing, CQRS и др.;\n— у нас приветствуется open source contribution;\n— работаем с ведущими тех. стандартами для построения облачных приложений и микросервисных архитектур: Kubernetes, Istio Service Mesh, OpenShift, Docker.\n\nПару слов о команде:\n\nНаша команда работает по гибкой методологии и отвечает за полный цикл разработки продуктов. Внутри команды поддерживается атмосфера стартапа – мы сами взаимодействуем с заказчиками, сами проектируем, разрабатываем и тестируем наши продукты. У нас нет многоэтажной иерархии и случайных людей. Все члены команды являются инженерами и пишут код. Мы также постоянно усиливаем команду, приобретая новые навыки и компетенции. Вклад каждого сотрудника виден всем и честно оценивается с возможностью повышения должности и дохода.\n\nВот ссылка вакансию на hh.ru – https://hh.ru/vacancy/36723242, там подробнее о том, чего мы ждем и что предлагаем взамен.\n\n📌Контакты: @darya_laika, dppostolaki@sberbank.ru\n\n—\n\n👉 Обсуждение вакансии в чате @devops_jobs","markup":[{"type":"hashtag","offset":0,"length":9,"data":"вакансия"},{"type":"hashtag","offset":10,"length":7,"data":"Москва"},{"type":"hashtag","offset":18,"length":5,"data":"офис"},{"type":"hashtag","offset":447,"length":8,"data":"Ansible"},{"type":"hashtag","offset":457,"length":8,"data":"Jenkins"},{"type":"hashtag","offset":467,"length":6,"data":"Shell"},{"type":"hashtag","offset":475,"length":11,"data":"Kubernetes"},{"type":"hashtag","offset":488,"length":10,"data":"OpenShift"},{"type":"hashtag","offset":500,"length":7,"data":"Docker"},{"type":"link","offset":1675,"length":5,"data":"http://hh.ru"},{"type":"link","offset":1683,"length":30,"data":"https://hh.ru/vacancy/36723242"},{"type":"handle","offset":1787,"length":12,"data":"darya_laika"},{"type":"link","offset":1801,"length":23,"data":"mailto:dppostolaki@sberbank.ru"},{"type":"handle","offset":1859,"length":12,"data":"devops_jobs"}],"date":"2020-06-16T11:51:46+00:00","link":"tg://resolve?domain=devops_jobs_feed&post=2114","tags":[{"name":"dotnet"},{"name":"ansible"},{"name":"jenkins"},{"name":"shell"},{"name":"kubernetes"},{"name":"docker"},{"name":"apache"},{"name":"kafka"}],"cities":[{"code":"moscow"}],"allowsRemote":false}},{"node":{"__typename":"Job","id":"16971202560-1001110946746","title":"Js developer","text":"#вакансия\nГород и адрес офиса: Эйлат, Израиль\nФормат работы: удаленка\nЗанятость: полная\nЗарплатная вилка: (оба значения обязательны) от 1500$ до 3000$ net\nОписание вакансии:\n\nhttps://trucknet.io/en/open-positions/middle-senior-backend-typescript-developer/\n\nWho are we looking for\nWe are looking for a Backend Developer to join our R&D department in Eilat, Israel. Have you ever dreamed of working with a small and capable team in a coastal town on the southern edge of the Negev Desert? Are you interested in creating an eco-friendly product in a domain of logistics and transportation, solving mysteries problems and facing new challenges? If so, the Trucknet team is just the place for you!\nResponsibilities\n • Implementing new features and providing support for various microservices.\n • Proposing, brainstorming and carrying out refactoring to improve the internal structure of our software.\n • Improving the developer experience by constantly bettering our toolbox.\n • Advancing deployment/integration infrastructure.\nRequirements\n • 3+ years of professional experience with backend development.\n • Acquaintance with Typescript, OOP Javascript, NodeJS.\n • Acquaintance with MongoDB and experience with databases in general.\n • Practical skills in software architecture and software design.\nAdvantages\n • Knowledge of Docker and Kubernetes.\n • Understanding the concept of horizontal scaling and what limitations it does impose on the application.\n • Strong knowledge of MongoDB, PostgreSQL.\n • Experience with CI/CD (we use GitLab CI).\n • Experience with test-driven development.\n • Experience with AWS.\n\n\nНазвание компании: Trucknet (https://trucknet.io/)\nКонтакты: @g000seman alex@trucknet.io\n\n—\n\n👉 Обсуждение вакансии в чате @javascript_jobs","markup":[{"type":"hashtag","offset":0,"length":9,"data":"вакансия"},{"type":"link","offset":175,"length":81,"data":"https://trucknet.io/en/open-positions/middle-senior-backend-typescript-developer/"},{"type":"link","offset":1641,"length":20,"data":"https://trucknet.io/"},{"type":"handle","offset":1673,"length":10,"data":"g000seman"},{"type":"link","offset":1684,"length":16,"data":"mailto:alex@trucknet.io"},{"type":"handle","offset":1735,"length":16,"data":"javascript_jobs"}],"date":"2020-06-16T11:37:40+00:00","link":"tg://resolve?domain=javascript_jobs_feed&post=0","tags":[{"name":"javascript"},{"name":"dotnet"},{"name":"typescript"},{"name":"deployment"},{"name":"nodejs"},{"name":"mongodb"},{"name":"docker"},{"name":"kubernetes"},{"name":"postgresql"},{"name":"gitlab"},{"name":"amazon-web-services"}],"cities":[],"allowsRemote":true}},{"node":{"__typename":"Job","id":"1695547392-1001091028994","title":"Java разработчик","text":"Вакансия: #java #backend #spring #javadeveloper  #middle #senior\nКомпания: 🅰️ Альфа-банк\nЛокация: #Москва #мск\nЗ/п: 100-230к\nКонтакты: @kkristinak, Karachevtseva@alfabank.ru\n\nКоманда Альфа-банка ищет Java- разработчиков\nдля создания лучших продуктов для миллионов людей.\n\n🔺 Ты наш идеальный кандидат, если у тебя есть:\n\n• Отличные знания Java 8+\n• Знания Spring и Spring Boot, Docker и Mavin\n• Умение использовать различные инструменты для тестирования кода и приложений\n• Желание работать с большими и сложными проектами\n\n🔺 Что мы предлагаем?\n\n• Стабильный и прозрачный доход + квартальные премии по итогам работы\n• Гибкий график работы\n• Отличный соц пакет  и многое другое","markup":[{"type":"hashtag","offset":10,"length":5,"data":"java"},{"type":"hashtag","offset":16,"length":8,"data":"backend"},{"type":"hashtag","offset":25,"length":7,"data":"spring"},{"type":"hashtag","offset":33,"length":14,"data":"javadeveloper"},{"type":"hashtag","offset":49,"length":7,"data":"middle"},{"type":"hashtag","offset":57,"length":7,"data":"senior"},{"type":"hashtag","offset":99,"length":7,"data":"Москва"},{"type":"hashtag","offset":107,"length":4,"data":"мск"},{"type":"handle","offset":136,"length":11,"data":"kkristinak"},{"type":"link","offset":149,"length":25,"data":"mailto:Karachevtseva@alfabank.ru"}],"date":"2020-06-16T11:13:20+00:00","link":"tg://resolve?domain=jvmjobs&post=1617","tags":[{"name":"java"},{"name":"jvm"},{"name":"spring"},{"name":"docker"},{"name":"spring-boot"}],"cities":[{"code":"moscow"}],"allowsRemote":false}},{"node":{"__typename":"Job","id":"1692401664-1001091028994","title":"Java разработчик","text":"#remote #java #backend #удаленка\nНаш заказчик - Компания, которая предоставляет услуги по разработке программного обеспечения полного цикла для бизнеса по всему миру.\nКомпания постоянно прокачивает скиллы и предоставляет возможности для карьерного роста своих работников, как вертикального, так и горизонтального\"\nИщем в сильную команду разработчиков Java уровня middle, senior\nГород: Калининград, но вообще удаленно.                                                                                                                                                                                 Занятость: Полная                                                                                                                                                                                                                                          Вилка: 150 000- 200 000                                                                                                                                                                                                                         Задачи:\n•  Заниматься разработкой server-side, web back-end (J2EE);\n•  Успешно реализовывать и применять современные подходы, технологии и новейшие практики на реальных проектах (TDD, BDD, DDD);\n•  Вносить собственные предложения по архитектуре проекта;\n•  Декомпозировать пользовательские истории (User story) на задачи (в т.ч. для junior-разработчиков);\nКого мы хотим видеть в команде:\n•  Обладает опытом реализации собственных или коммерческих проектов;\n•  Имеет опыт разработки микросервесов на java;\n•  Имеет опыт работы с многопоточными приложениями;\n•  Имеет опыт работы с Docker;\n•  Умеет проектировать базы данных и работать с NoSQL базами данных;\n•  Умеет применять на практике Solid, Dry, Kiss, Yagni;\n•  Имеет опыт настройки CI/CD;\n•  Хорошо знает java core, java collections, multithreading;\n•  Имеет опыт работы с java frameworks (Spring/Spring Boot);\nБудет плюсом:\n•  Разговорный уровень английского языка будет плюсом;\nУсловия работы:\n•  Работать можно удаленно или в офисе в г. Калининград (предусмотрел релокационный пакет);\n•  Гибкий график работы;\n•  Официальное трудоустойство;\nЕсли вакансия заинтересовала или есть вопросы - пишите! @lavelina желательно сразу с резюме ☺️","markup":[{"type":"hashtag","offset":0,"length":7,"data":"remote"},{"type":"hashtag","offset":8,"length":5,"data":"java"},{"type":"hashtag","offset":14,"length":8,"data":"backend"},{"type":"hashtag","offset":23,"length":9,"data":"удаленка"},{"type":"handle","offset":2240,"length":9,"data":"lavelina"}],"date":"2020-06-16T10:51:59+00:00","link":"tg://resolve?domain=jvmjobs&post=1614","tags":[{"name":"java"},{"name":"jvm"},{"name":"web"},{"name":"docker"},{"name":"nosql"},{"name":"spring"},{"name":"spring-boot"}],"cities":[{"code":"kaliningrad"}],"allowsRemote":true}},{"node":{"__typename":"Job","id":"102942900224-1001089317451","title":"Qa инженер","text":"#вакансия #Моcква #Россия #офис #удаленка #тест-менеджер \n\nДолжность: Ведущий тестировщик\\Тест-менеджер\nГород: Москва (Парк Культуры) и не только\nФормат работы: возможна удаленка\nЗанятость: полная\nЗП: 160 – 180 net (в зависимости от опыта), + квартальные бонусы\nОформление ТК РФ\nСоцпакет – ДМС, обучение, корп скидки и т.д.\n\nКто мы:\nДирекция BigData  в X5 Retail\nРазрабатываем продукты работающие с большими данными в ритэйле.\n\nЧто нужно делать:\nРабота  в продуктовой команде \nРазвитие процесса тестирования продукта с 0 до выхода на автоматизацию  в будущем\nРазработка тестовой модели\nРабота с документацией\nПодготовка тестовых данных\nПланирование и проведение тестирования – регресс, интеграционное, тестирование нового функционала и исправлений дефектов\nОрганизация автоматизированного и нагрузочного тестирования\nАнализ причин появления дефектов\nРабота с баг-трекинговой системой (Jira) и TMS (Allure Enterprise) системами\n\nНаш кандидат:\n🔎Опыт тестирования web-приложений от 4 лет\n🔎Опыт организации тестирования сложных интеграционных продуктов\n🔎Уверенные знания гибких методологий тестирования \n🔎Умение аргументированно отстаивать свою точку зрения \n\n🔎Опыт работы с баг-трекинговыми системами\n🔎Знание SQL на уровне написания составных запросов\n🔎Способность быстро адаптироваться к изменениям приоритетов в работе\n🔎Аналитическое мышление, системный подход к решению задач, умение работать в команде, склонность к самообразованию, усидчивость, внимательность, инициативность\n🔎Желание развиваться\n🔎Дополнительный плюсы\n – знание основ автоматизации (Python) и нагрузочного тестирования\n - Базовые знания работы с Docker, k8s\n - Опты работы в Scrum командах \n\n\nРезюме и вопросы в личные сообщения denis_d_u либо по телефону + 7 985 2986708","markup":[{"type":"hashtag","offset":0,"length":9,"data":"вакансия"},{"type":"hashtag","offset":10,"length":7,"data":"Моcква"},{"type":"hashtag","offset":18,"length":7,"data":"Россия"},{"type":"hashtag","offset":26,"length":5,"data":"офис"},{"type":"hashtag","offset":32,"length":9,"data":"удаленка"},{"type":"hashtag","offset":42,"length":5,"data":"тест"},{"type":"link","offset":1735,"length":15,"data":"tel:+ 7 985 2986708"}],"date":"2020-06-16T09:28:29+00:00","link":"tg://resolve?domain=qa_jobs&post=0","tags":[{"name":"qa"},{"name":"dotnet"},{"name":"web"},{"name":"sql"},{"name":"python"},{"name":"docker"}],"cities":[{"code":"moscow"}],"allowsRemote":true}},{"node":{"__typename":"Job","id":"102939754496-1001089317451","title":"Qa инженер","text":"#вакансия #Моcква #Россия #офис #удаленка #автоматизация #Python #тестировщик\n\nДолжность: Тестировщик ПО (функциональное + автоматизированное тестирование)\nГород: Москва (Парк Культуры) и не только\nФормат работы: возможна удаленка\nЗанятость: полная\nЗП: 130 – 180 net (в зависимости от опыта), + квартальные бонусы\nОформление ТК РФ\nСоцпакет – ДМС, обучение, корп скидки и т.д.\n\nКто мы:\nДирекция BigData  в X5 Retail\nРазрабатываем продукты работающие с большими данными в ритэйле.\n\nЧто нужно делать:\nРазработка ручных и авто тестов\nПодготовка тестовых данных\nПроведение тестирования – регресс, интеграционное, тестирование нового функционала и исправлений дефектов\nАнализ причин появления дефектов\nРабота с баг-трекинговой системой (Jira) – регистрация дефектов, отслеживание статусов, проверка исправлений, закрытие дефектов\nРазвитие процесса тестирования продукта\nВозможна работа как в продуктовой команде так и в стриме автоматизации тестирования – в зависимости от опыта и пожеланий.\n\nНаш кандидат:\n🔎Опыт тестирования web-приложений от 3 лет\n🔎Опыт автоматизации тестирования с Python, Pytest от 1 года\n🔎Базовые знания работы с Docker, k8s\n🔎Опыт работы с баг-трекинговыми системами\n🔎Знание SQL на уровне написания составных запросов\n🔎Способность быстро адаптироваться к изменениям приоритетов в работе\n🔎Аналитическое мышление, системный подход к решению задач, умение работать в команде, склонность к самообразованию, усидчивость, внимательность, инициативность\n🔎Желание развиваться\n🔎Дополнительный плюс – опыт работы с продуктами ритэйла.\n\nРезюме и вопросы в личные сообщения denis_d_u или по телефону +7 985 2986708","markup":[{"type":"hashtag","offset":0,"length":9,"data":"вакансия"},{"type":"hashtag","offset":10,"length":7,"data":"Моcква"},{"type":"hashtag","offset":18,"length":7,"data":"Россия"},{"type":"hashtag","offset":26,"length":5,"data":"офис"},{"type":"hashtag","offset":32,"length":9,"data":"удаленка"},{"type":"hashtag","offset":42,"length":14,"data":"автоматизация"},{"type":"hashtag","offset":57,"length":7,"data":"Python"},{"type":"hashtag","offset":65,"length":12,"data":"тестировщик"},{"type":"link","offset":1613,"length":14,"data":"tel:+7 985 2986708"}],"date":"2020-06-16T09:09:17+00:00","link":"tg://resolve?domain=qa_jobs&post=0","tags":[{"name":"qa"},{"name":"python"},{"name":"dotnet"},{"name":"web"},{"name":"docker"},{"name":"sql"}],"cities":[{"code":"moscow"}],"allowsRemote":true}}]}}},"context":{}}