{"hash":"f5f6bf98bd95e769321482904cbbd488f77922fd","data":{"records":{"id":"russia/moscow","country":{"code":"russia","ruName":"Россия","enName":"Russia"},"city":{"code":"moscow","ruName":"Москва","enName":"Moscow"},"belongsTo":{"totalCount":476,"pageInfo":{"totalPages":48,"currentPage":34},"edges":[{"node":{"__typename":"Job","id":"103185121280-1001089317451","title":"Qa инженер","text":"#вакансия #fulltime #офис #москва\n\nНаша компания (ООО Солид Дев) находится в поиске ручного тестировщика (но с желанием развиваться в автоматизации), который будет помогать нам совершенствовать наши продукты и сервисы! \n\nЕсли ты:\n- Тестишь web-приложения уже больше 1 года\n- Имеешь базовые знания SQL и опыт написания автотестов на python\n- Хочешь работать в команде профессионалов и развиваться\n\nТо пиши мне в личку или присылай резюме на почту - soliddevhr@gmail.ru расскажу подробнее про функционал и про наши плюшки)\n\nСтанция м.Бабушкинская\nВилка: от 120 на руки","markup":[{"type":"hashtag","offset":0,"length":9,"data":"вакансия"},{"type":"hashtag","offset":10,"length":9,"data":"fulltime"},{"type":"hashtag","offset":20,"length":5,"data":"офис"},{"type":"hashtag","offset":26,"length":7,"data":"москва"},{"type":"bold","offset":221,"length":8,"data":""},{"type":"bold","offset":397,"length":19,"data":""},{"type":"link","offset":448,"length":19,"data":"mailto:soliddevhr@gmail.ru"},{"type":"bold","offset":522,"length":7,"data":""},{"type":"bold","offset":545,"length":5,"data":""}],"date":"2020-06-18T14:07:39+00:00","link":"tg://resolve?domain=qa_jobs&post=0","tags":[{"name":"qa"},{"name":"web"},{"name":"sql"},{"name":"python"}],"cities":[{"code":"moscow"}],"allowsRemote":false}},{"node":{"__typename":"Job","id":"71577894912-1001054966032","title":"Ios разработчик","text":"#вакансия #iOS #developer #moscow #офис #fulltime\n\n🔸Адрес: Москва, Новокузнецкая\n🔸Формат работы: офис \n🔸Занятость: полная \n🔸ЗП: 180 000-250 000\n\n📣Middle/Senior iOS Разработчик\n\nна один из наших проектов-социальная сеть нового поколения на базе блокчейн-технологий.\n\n🔶Компания Freedom Group International \n\nЧем придётся заниматься:\n🔶Разработка нового функционала в рамках существующего приложения;\n🔶Рефакторинг и апгрейд ранее сделанного функционала\n\nЧто для этого потребуется:\n🔶Опыт разработки мобильных приложений от трех лет;\n🔶Отличные знания ООП, алгоритмов и структур данных;\n🔶Отличное знание Swift;\n🔶Знание Objective-C для правки старого кода;\n🔶Понимание REST API, взаимодействие с backend;\n🔶Опыт работы с GIT\n\nЖелательно знание следующих библиотек:\n   • RxSwift\n   • AFNetworking\n\nМы готовы предложить:\n🔷Уютный, современный офис;\n🔷Гибкий график;\n🔷Дружный коллектив и лояльное руководство;\n🔷Все плюсы работы в «белой» компании\n\n🔶Контакт для связи: @AnutaF","markup":[{"type":"hashtag","offset":0,"length":9,"data":"вакансия"},{"type":"hashtag","offset":10,"length":4,"data":"iOS"},{"type":"hashtag","offset":15,"length":10,"data":"developer"},{"type":"hashtag","offset":26,"length":7,"data":"moscow"},{"type":"hashtag","offset":34,"length":5,"data":"офис"},{"type":"hashtag","offset":40,"length":9,"data":"fulltime"},{"type":"bold","offset":312,"length":24,"data":""},{"type":"bold","offset":458,"length":26,"data":""},{"type":"bold","offset":730,"length":38,"data":""},{"type":"bold","offset":801,"length":21,"data":""},{"type":"handle","offset":972,"length":7,"data":"AnutaF"}],"date":"2020-06-18T13:33:21+00:00","link":"tg://resolve?domain=mobile_jobs&post=0","tags":[{"name":"mobile"},{"name":"ios"},{"name":"swift"},{"name":"objective-c"},{"name":"rest"},{"name":"git"}],"cities":[{"code":"moscow"}],"allowsRemote":false}},{"node":{"__typename":"Job","id":"103178829824-1001089317451","title":"Qa инженер","text":"#вакансия #fulltime #офис #москва\n Ищу ведущего тестировщика  в крупный  интернет- магазин, один из ведущих  в ствоей отрасли. Проекты по развитию информационных систем интернет-магазина, CRM, интеграция с различными маркетплейсами.   \nНужен опыт работы в качестве QA инженера веб-приложений от трех лет.\n Территориально:Москва, м.Кропоткинская.\nВилка: от 140 до 170 000 на руки\n\nРезюме можно присылать на anna-recruitment@mail.ru.","markup":[{"type":"hashtag","offset":0,"length":9,"data":"вакансия"},{"type":"hashtag","offset":10,"length":9,"data":"fulltime"},{"type":"hashtag","offset":20,"length":5,"data":"офис"},{"type":"hashtag","offset":26,"length":7,"data":"москва"},{"type":"link","offset":406,"length":24,"data":"mailto:anna-recruitment@mail.ru"}],"date":"2020-06-18T13:04:08+00:00","link":"tg://resolve?domain=qa_jobs&post=0","tags":[{"name":"qa"}],"cities":[{"code":"moscow"}],"allowsRemote":false}},{"node":{"__typename":"Job","id":"103174635520-1001089317451","title":"Qa engineer","text":"#вакансия #москва #офис #qaengineer #qa \nГород и адрес офиса: Москва, м.Автозаводская \nФормат работы: офис \nЗанятость: полная \nЗарплатная вилка: от 60 000 на руки \n\n✅QA Engineer (gamedev)\n\nОписание вакансии: \n\nКрупный мобильный проект в жанре фентези - Dragon Champions - ищет своего QA! Вы сможете работать над интересной игрой на стыке мидкорных и хардкорных механик, в окружении команды больших профессионалов с многолетним опытом.\n\n✅Что делать:\n\n•  Тестирование мобильной игры: функциональное тестирование, юзабилити тестирование, регрессионное тестирование\n•  Составление документации для тестирования: тест-кейсы, тест-план, чек-листы\n•  Тесное обсуждение функциональности игры с командой разработки\n•  Заведение всех найденных багов в трекере (Jira)\n\n✅Требования:\n\n•  Опыт работы в тестировании от одного года\n•  Понимание основ тестирования ПО, тест-планов, чек-листов, регрессионного и функционального тестирования\n•  Огромным плюсом будет наличие опыта в тестировании игр, в особенности, мобильных игр на Unity\n•  Умение работать с Jira, Confluence и Unity также будет большим плюсом\n\n✅Для вас:\n\n•  Конкурентная заработная плата, выплачивается 2 раза в месяц\n•  Необходимое оборудование для работы\n•  Коллектив творческих и позитивных людей\n\n✅О нас:\n\n•  Просторный офис 600 метров на м. Автозаводская (3 минуты от метро и от ТТК на машине) с ультра современным дизайном и кучей ништяков (кухня с вкусняшками, кальяны каждый вечер в дружной кампании, PS4 Pro + 4K TV, аркадные автоматы с Pac-Man, Metal Slug и другими хитами геймдизайна, просторная зона отдыха, 6 переговорных комнат и т д)\n•  Команда из 120 человек занимающаяся паблишингом и маркетингом, которая готова сделать продукт успешным после его готовности\n•  Возможность бесплатно обучаться английскому языку с носителями каждый будний день\n\nНазвание компании: AppQuantum\n\nКонтакты: \ne-mail: bm@adquantum.com\ntelegram: @MishaBarinov","markup":[{"type":"hashtag","offset":0,"length":9,"data":"вакансия"},{"type":"hashtag","offset":10,"length":7,"data":"москва"},{"type":"hashtag","offset":18,"length":5,"data":"офис"},{"type":"hashtag","offset":24,"length":11,"data":"qaengineer"},{"type":"hashtag","offset":36,"length":3,"data":"qa"},{"type":"bold","offset":166,"length":21,"data":""},{"type":"bold","offset":437,"length":11,"data":""},{"type":"bold","offset":759,"length":11,"data":""},{"type":"bold","offset":1096,"length":8,"data":""},{"type":"bold","offset":1253,"length":6,"data":""},{"type":"link","offset":1863,"length":16,"data":"mailto:bm@adquantum.com"},{"type":"handle","offset":1890,"length":13,"data":"MishaBarinov"}],"date":"2020-06-18T12:41:38+00:00","link":"tg://resolve?domain=qa_jobs&post=0","tags":[{"name":"qa"},{"name":"unity3d"}],"cities":[{"code":"moscow"}],"allowsRemote":false}},{"node":{"__typename":"Job","id":"71573700608-1001054966032","title":"Mobile разработчик","text":"#вакансия #москва #офис #senior #unity #developer #gamedev #csharp c#\n\nГород и адрес офиса: Москва, м.Автозаводская \nФормат работы: офис \nЗанятость: полная \nЗарплатная вилка: от 200 000 до 250 000 на руки \n\n📣 Senior Unity 3D Developer (mobile game)\n\n\n✅ Описание вакансии:\n\nМы - успешная команда из 110 человек, которая занимается: \n• разработкой собственных мобильных игр и приложений \n• паблишингом мобильных игр \n• рекламой и маркетингом мобильных приложений (реклама на Facebook, Google и т.д.) \nЗа последние 3 года мы привлекли более 100 млн пользователей в наши собственные мобильные приложения и приложения наших клиентов и партнеров, потратив на это более $80 млн. \nУ нас есть все составляющие чтобы делать готовые продукты известными и популярными. Мы ищем сильного Unity разработчика уровня Senior, для работы над нашим главным тайтлом Dragon Champions (крупным хардкорным проектом в жанре Фэнтези, с тактической боевой системой).\n\n\n✅ Задачи:\n\n-Разработка клиентской части игры\n-Разработка клиент-серверного взаимодействия и общей игровой логики\n-Вёрстка UI по макетам от художников\n-Интеграция различных сторонних SDK\n\n\n✅ Требования:\n\n-Опыт работы на Unity3D (С#) от 3х лет\n-Отличное знание Unity и всех её подсистем\n-Отличное знание C#, умение писать чёткий, понятный, структурированный код\n-Отличное знание паттернов проектирования\n-Умение отлаживать и оптимизировать проекты под мобильные платформы iOS/Android\n-Умение верстать адаптивные интерфесы в uGUI\n-Умение разбираться в чужом коде, проводить рефакторинг\n-Уверенные знания по работе с системой контроля версий git\n-Дисциплинированность и ответственность\n\n\n✅ Плюсом будет:\n\n-Участие в разработке выпущенных игр под мобильные платформы на аналогичной должности\n-Умение работать с шейдерами\n-Опыт работы с нативными плагинами (In-Apps, PUSH notifications, аналитика, реклама, социальное взаимодействие)\n-Умение разрабатывать и поддерживать стабильную архитектуру\n-Коммуникабельность, умение чётко доносить свою точку зрения и принимать точку зрения остальных участников команды\n\n\n✅ Для вас:\n\n•  Конкурентная заработная плата, выплачивается 2 раза в месяц\n•  Необходимое оборудование для работы\n•  Бонусы по итогам выполнения KPI и запуска проектов\n•  Коллектив творческих и позитивных людей\n\n\n✅ О нас:\n\n• Просторный офис 600 метров на м. Автозаводская (3 минуты от метро и от ТТК на машине) с ультра современным дизайном и кучей ништяков (кухня с вкусняшками, кальяны каждый вечер в дружной кампании, PS4 Pro + 4K TV, аркадные автоматы с Pac-Man, Metal Slug и другими хитами геймдизайна, просторная зона отдыха, 5 переговорных комнат и т д) \n• Команда из 80 человек занимающаяся паблишингом и маркетингом, готовая сделать продукт успешным после его готовности \n• Возможность обучаться английскому языку с носителями каждый будний день по утрам \n• Менторы и инвесторы, создавшие большое количество успешных IT компаний \nПрисоединяйтесь к нашей команде уже сегодня! \n\nНазвание компании: AppQuantum \n\nКонтакты: \ne-mail: bm@adquantum.com\ntelegram: @MishaBarinov","markup":[{"type":"hashtag","offset":0,"length":9,"data":"вакансия"},{"type":"hashtag","offset":10,"length":7,"data":"москва"},{"type":"hashtag","offset":18,"length":5,"data":"офис"},{"type":"hashtag","offset":24,"length":7,"data":"senior"},{"type":"hashtag","offset":32,"length":6,"data":"unity"},{"type":"hashtag","offset":39,"length":10,"data":"developer"},{"type":"hashtag","offset":50,"length":8,"data":"gamedev"},{"type":"hashtag","offset":59,"length":7,"data":"csharp"},{"type":"bold","offset":254,"length":18,"data":""},{"type":"bold","offset":945,"length":7,"data":""},{"type":"bold","offset":1133,"length":11,"data":""},{"type":"bold","offset":1629,"length":13,"data":""},{"type":"bold","offset":2050,"length":8,"data":""},{"type":"bold","offset":2263,"length":6,"data":""},{"type":"link","offset":2985,"length":16,"data":"mailto:bm@adquantum.com"},{"type":"handle","offset":3012,"length":13,"data":"MishaBarinov"}],"date":"2020-06-18T12:40:59+00:00","link":"tg://resolve?domain=mobile_jobs&post=0","tags":[{"name":"mobile"},{"name":"android"},{"name":"ios"},{"name":"unity3d"},{"name":"csharp"},{"name":"git"}],"cities":[{"code":"moscow"}],"allowsRemote":false}},{"node":{"__typename":"Job","id":"17039360000-1001110946746","title":"Js разработчик","text":"#вакансия #react #redux #москва #офис #javascript\n\nГород: Москва (ст.м. Аэропорт).\n\nФормат работы: офис,на текущий период частично существует удалёнка.\n\nЗанятость: полная\n\nВилка: 100-250 т.р. на руки\nВ связи с увеличением проектов, Коммерческий Банк ищет в свою команду Frontend-разработчика.\nФункционал:\n\n• Разработка WEB приложений;\n\n• Рефакторинг Legacy кода;\n\n• Написание и поддержка сложных модулей, реализованных на стеке технологий React;\n\n• Участие в оценке сроков, трудоёмкости и проектирование приложений.\n\nПрофессиональные знания: знание JavaScript и его особенностей; знание React / Redux, Node.js, пакетных менеджеров (Yarn / npm); умение работать с Git; понимание стратегий оптимизации web-приложения.\n\nНазвание компании: Локо-Банк\nhttps://www.lockobank.ru//\nhttps://hh.ru/vacancy/37365811\n\nКонтакты: @hrlocko\n\n—\n\n👉 Обсуждение вакансии в чате @javascript_jobs","markup":[{"type":"hashtag","offset":0,"length":9,"data":"вакансия"},{"type":"hashtag","offset":10,"length":6,"data":"react"},{"type":"hashtag","offset":17,"length":6,"data":"redux"},{"type":"hashtag","offset":24,"length":7,"data":"москва"},{"type":"hashtag","offset":32,"length":5,"data":"офис"},{"type":"hashtag","offset":38,"length":11,"data":"javascript"},{"type":"link","offset":746,"length":26,"data":"https://www.lockobank.ru//"},{"type":"link","offset":773,"length":30,"data":"https://hh.ru/vacancy/37365811"},{"type":"handle","offset":815,"length":8,"data":"hrlocko"},{"type":"handle","offset":858,"length":16,"data":"javascript_jobs"}],"date":"2020-06-18T11:23:19+00:00","link":"tg://resolve?domain=javascript_jobs_feed&post=0","tags":[{"name":"javascript"},{"name":"reactjs"},{"name":"redux"},{"name":"web"},{"name":"nodejs"},{"name":"npm"},{"name":"git"},{"name":"react-redux"}],"cities":[{"code":"moscow"}],"allowsRemote":true}},{"node":{"__typename":"Job","id":"71565312000-1001054966032","title":"Ios разработчик","text":"#вакансия #iOS #москва\n\nНа проект от крупного российского банка требуется Middle iOS разработчик\n\nФормат: офис\n\nВилка ЗП: 150-180К\n\nЛокация: Москва\n\nТребования:\n\n- Опыт разработки под IOS (Objective-C или Swift) от 2 лет\n- Уверенное знание iOS SDK, Xcode\n- Опыт использования одной из архитектур: MVP, MVVM, VIPER\n- Знание особенностей: Collections, Optionals, Protocol Oriented, Generics\n- Понимание, как происходит управление памятью в iOS\n- Понимание принципов проектирования SOLID и желание придерживаться их\n- Наличие опыта работы с REST API, HTTP, JSON, APNs\n- Опыт работы с Git, знание git flow\n\nБудет плюсом:\n\n- Умение писать UI тесты\n- Опыт работы в команде\n\nКонтакт: @mxm_at","markup":[{"type":"hashtag","offset":0,"length":9,"data":"вакансия"},{"type":"hashtag","offset":10,"length":4,"data":"iOS"},{"type":"hashtag","offset":15,"length":7,"data":"москва"},{"type":"bold","offset":73,"length":23,"data":""},{"type":"bold","offset":98,"length":7,"data":""},{"type":"bold","offset":112,"length":9,"data":""},{"type":"bold","offset":132,"length":8,"data":""},{"type":"bold","offset":149,"length":11,"data":""},{"type":"bold","offset":603,"length":13,"data":""},{"type":"bold","offset":668,"length":8,"data":""},{"type":"handle","offset":677,"length":7,"data":"mxm_at"}],"date":"2020-06-18T11:11:25+00:00","link":"tg://resolve?domain=mobile_jobs&post=0","tags":[{"name":"mobile"},{"name":"ios"},{"name":"objective-c"},{"name":"swift"},{"name":"xcode"},{"name":"mvvm"},{"name":"rest"},{"name":"json"},{"name":"git"}],"cities":[{"code":"moscow"}],"allowsRemote":false}},{"node":{"__typename":"Job","id":"71563214848-1001054966032","title":"Ios разработчик","text":"#вакансия #ios #офис #удаленка\n\nГород: Москва (Сокольники или Павелецкая), есть релокационный пакет\n\nФормат работы: офис, но также возможна удаленка из Москвы, Питера, Самары\n\nЗанятость: полная\n\nВилка: 180-250 т.р. на руки\n\nКоманда iOS разработчиков ищет коллегу для создания и развития функционала мобильного банка.\n\nСтек: Swift (99%), Objective-C (1%), VIPER/VIP, Alamofire, Gitlab CI\n\nЧто потребуется:\n\n• Отличные знания платформы iOS\n• Опыт применения VIPER/VIP\n• Опыт разработки клиент-серверных приложений\n\nБудет плюсом:\n\nЗнание ООП, алгоритмов и структур данных, Objective-C\n\nНазвание компании: ПСБ\nhttps://www.psbank.ru/\nhttps://hh.ru/vacancy/33110376\n\nКонтакты: @max_gusev\ngusevms@psbank.ru","markup":[{"type":"hashtag","offset":0,"length":9,"data":"вакансия"},{"type":"hashtag","offset":10,"length":4,"data":"ios"},{"type":"hashtag","offset":15,"length":5,"data":"офис"},{"type":"hashtag","offset":21,"length":9,"data":"удаленка"},{"type":"bold","offset":32,"length":6,"data":""},{"type":"bold","offset":101,"length":14,"data":""},{"type":"bold","offset":176,"length":10,"data":""},{"type":"bold","offset":195,"length":7,"data":""},{"type":"bold","offset":388,"length":16,"data":""},{"type":"bold","offset":513,"length":13,"data":""},{"type":"bold","offset":583,"length":18,"data":""},{"type":"link","offset":606,"length":21,"data":"https://www.psbank.ru/"},{"type":"link","offset":629,"length":30,"data":"https://hh.ru/vacancy/33110376"},{"type":"bold","offset":661,"length":9,"data":""},{"type":"handle","offset":671,"length":10,"data":"max_gusev"},{"type":"link","offset":682,"length":17,"data":"mailto:gusevms@psbank.ru"}],"date":"2020-06-18T11:08:38+00:00","link":"tg://resolve?domain=mobile_jobs&post=0","tags":[{"name":"mobile"},{"name":"ios"},{"name":"swift"},{"name":"objective-c"},{"name":"gitlab"}],"cities":[{"code":"moscow"}],"allowsRemote":true}},{"node":{"__typename":"Job","id":"103155761152-1001089317451","title":"Qa инженер","text":"#вакансия #москва #полнаязанятость #мегафон #bigdata #покаработаемиздомапотомвофис\n\nМы ищем QA-инженера в команду для тестирования внутренних и внешних сервисов.\n\nЧем предстоит заниматься:\n\n- Разработка модулей интеграционных тестов для наших сервисов;\n- Подготовка тестовых данных (работа с hive/oracle);\nРабота с SQL/HiveQL (Oracle/Hive);\n- Написание алгоритмов работы с данными, в рамках тестирования;\n- Взаимодействие с разработчиками и аналитиками в процессе проектирования и развития;\n- Выявление, фиксация и контроль багов в баг-трекере (Jira);\n- Ведение документации по тестированию (confluence);\n\nИспользуемые технологии:\nДля разработки – Play, Spring, Flask, Scala, Java (8+), Python(3+);\nДля тестирования: Java/Scala & Maven + TestNG + Google Guice;\nДля работы сервисов – Docker;\nДля работы с кодом – GitLab;\nДля работы с задачами – Jira.\n\nМы ожидаем от вас:\n- Опыт работы в автоматизации тестирования от 1 года;\n- Знание структур данных и алгоритмов;\n- Уверенное знание Java;\n- Уверенное знание фреймворков TestNG/JUnit;\n- Опыт работы в автоматизации тестирования;\n- Опыт работы с реляционными СУБД (Oracle/PostgreSQL);\n- Умение писать хорошо читаемый код;\n- Умение работать с VCS (Git) и сборщиками (maven).\n\nБудет плюсом:\n- Опыт в области тестирования приложений по работе с большими данными;\n- Опыт в нагрузочном тестировании;\n- Опыт работы с Spring/Google Guice;\n- Опыт конфигурирования CI/CD (GitLab);\n- Умение писать код на Scala;\n- Опыт работы с Hadoop/Spark.\n\nЧто мы предлагаем:\n- Внутреннее и внешнее обучение в России (Coursera, New Prolab, Geek Brains и др.);\n- Новый офис в центре: 7 минут пешком от м. Маяковская/Новослободская;\n- Компенсация затрат на мобильную связь;\nДМС (включая стоматологию);\n- Частичная компенсация спорта;\n- Возможность участия в корпоративных спортивных командах: футбол, волейбол, баскетбол, хоккей и бег\n- Регулярные митапы в офисе с внешними спикерами из разных областей.\n\n#мегафон #bigdata\nКонтакты: Svetlana.stakanova@megafon.ru или @svetastakanova","markup":[{"type":"hashtag","offset":0,"length":9,"data":"вакансия"},{"type":"hashtag","offset":10,"length":7,"data":"москва"},{"type":"hashtag","offset":18,"length":16,"data":"полнаязанятость"},{"type":"hashtag","offset":35,"length":8,"data":"мегафон"},{"type":"hashtag","offset":44,"length":8,"data":"bigdata"},{"type":"hashtag","offset":53,"length":29,"data":"покаработаемиздомапотомвофис"},{"type":"hashtag","offset":1926,"length":8,"data":"мегафон"},{"type":"hashtag","offset":1935,"length":8,"data":"bigdata"},{"type":"link","offset":1954,"length":29,"data":"mailto:Svetlana.stakanova@megafon.ru"},{"type":"handle","offset":1988,"length":15,"data":"svetastakanova"}],"date":"2020-06-18T09:58:49+00:00","link":"tg://resolve?domain=qa_jobs&post=0","tags":[{"name":"qa"},{"name":"hive"},{"name":"oracle"},{"name":"sql"},{"name":"playframework"},{"name":"spring"},{"name":"flask"},{"name":"scala"},{"name":"java"},{"name":"python"},{"name":"maven"},{"name":"docker"},{"name":"gitlab"},{"name":"junit"},{"name":"postgresql"},{"name":"git"},{"name":"hadoop"}],"cities":[{"code":"moscow"}],"allowsRemote":false}},{"node":{"__typename":"Job","id":"91264909312-1001067529236","title":"Python разработчик","text":"#вакансия #python  #sql #офис #москва\nм.Бауманская, полная занятость\nБелая з/п до 160.000 руб. на руки \nData Scientist\n\nМы — команда разработки Level.Travel, сложного продукта в сфере путешествий. За последние 8 лет мы с нуля создали и продолжаем развивать решение для онлайн-продажи путешествий. Нашу платформу используют лидеры рынка – Тинькофф Банк, OneTwoTrip, Сбербанк, TripAdvisor, Kayak, АК Барс Банк, Евросеть и многие другие. Компания Level.Travel является резидентом Инновационного центра «Сколково».\n\nОбязанности:\n🔸Работа над проектами, решаемыми с использованием машинного обучения: участие в постановке задачи, исследование, подбор алгоритма и оптимизация модели, подготовка к использованию модели бизнесом.\n🔸Решение задач требующих умения работать с данными, продвинутое знание SQL, Python, статистики\n\nОт Вас:\n🔸Уметь программировать на Python\n🔸Использовать популярные библиотеки: scikit-learn, Pandas, numpy, scipy\n🔸Уверенно писать SQL-запросы (MySQL, PostgreSQL, Clickhouse)\n🔸Знать основных методов и алгоритмов Machine Learning\n🔸Иметь знания в области мат. статистики, теории вероятности\n\nЖелательно:\n🔸Иметь завершенный проект с применением машинного обучения\n🔸Уметь работать с временными рядами, анализировать их свойства\n🔸Опыт разработки на языке программирования Scala/Java с использованием Spark\n\nОт нас: белая зп, официальное трудоустройство, больничные, отпуска. Скидки на изучение английского языка, техника MacBook Pro. Регулярная обратная связь и аттестации. Геймификация процессов и несколько раз в год релокейты поработать в другую страну. Клевый молодой коллектив, интересные ивенты, насыщенная корпоративная жизнь. Пинг-понг, бильярд, кальян и другие развлечения в офисе. Скидки на путешествия)\n\nСвязь по почте : vos@level.travel\nИли тут @Alyask_a","markup":[{"type":"hashtag","offset":0,"length":9,"data":"вакансия"},{"type":"hashtag","offset":10,"length":7,"data":"python"},{"type":"hashtag","offset":19,"length":4,"data":"sql"},{"type":"hashtag","offset":24,"length":5,"data":"офис"},{"type":"hashtag","offset":30,"length":7,"data":"москва"},{"type":"bold","offset":69,"length":33,"data":""},{"type":"bold","offset":104,"length":14,"data":""},{"type":"bold","offset":120,"length":76,"data":""},{"type":"bold","offset":513,"length":12,"data":""},{"type":"bold","offset":820,"length":7,"data":""},{"type":"bold","offset":1114,"length":11,"data":""},{"type":"bold","offset":1329,"length":7,"data":""},{"type":"bold","offset":1737,"length":33,"data":""},{"type":"link","offset":1754,"length":16,"data":"mailto:vos@level.travel"},{"type":"bold","offset":1771,"length":17,"data":""},{"type":"handle","offset":1779,"length":9,"data":"Alyask_a"}],"date":"2020-06-18T09:21:55+00:00","link":"tg://resolve?domain=python_jobs&post=0","tags":[{"name":"python"},{"name":"sql"},{"name":"scikit-learn"},{"name":"pandas"},{"name":"numpy"},{"name":"mysql"},{"name":"postgresql"},{"name":"scala"},{"name":"java"},{"name":"machine-learning"}],"cities":[{"code":"moscow"}],"allowsRemote":false}}]}}},"context":{}}