{"hash":"f5f6bf98bd95e769321482904cbbd488f77922fd","data":{"records":{"id":"linux","name":"linux","belongsTo":{"totalCount":109,"pageInfo":{"totalPages":11,"currentPage":1},"edges":[{"node":{"__typename":"Job","id":"104341700608-1001089317451","title":"Qa инженер","text":"#вакансия #fulltime #офис #москва #qa #middle\n\nКомпания «Ростелеком Информационные Технологии».\nИщу в команду по тестированию камер видеонаблюдения ручного тестировщика.\n\nТребования:\n- знание теории тестирования\n- владение техниками тест-дизайна и опыт написания тестовых сценариев\n- опыт работы с системами баг-трекинга\n- понимание устройства сетей, базовые навыки работы с сетевым оборудованием, знание основных сетевых протоколов\n- опыт тестирования restapi, знание основ протокола http, кодов ответа, json и пр\n- уверенная работа с командной строкой linux\n- базовые навыки пайки и работы с железом\n\nУсловия:\n- вилка в районе 60-120 в зависимости от уровня\n- компенсация фитнеса, обучения, ДМС и пр\n- офис в районе м. Павелецкая\\Новокузнецкая (в данный момент удалёнка)\n- широкие возможности для реализации и карьерного роста\n\nВопросы, резюме, предложения и прочее в telegram @shpyntov","markup":[{"type":"hashtag","offset":0,"length":9,"data":"вакансия"},{"type":"hashtag","offset":10,"length":9,"data":"fulltime"},{"type":"hashtag","offset":20,"length":5,"data":"офис"},{"type":"hashtag","offset":26,"length":7,"data":"москва"},{"type":"hashtag","offset":34,"length":3,"data":"qa"},{"type":"hashtag","offset":38,"length":7,"data":"middle"},{"type":"handle","offset":879,"length":9,"data":"shpyntov"}],"date":"2020-07-03T09:51:22+00:00","link":"tg://resolve?domain=qa_jobs&post=99508","tags":[{"name":"qa"},{"name":"json"},{"name":"linux"}],"cities":[{"code":"moscow"}],"allowsRemote":true}},{"node":{"__typename":"Job","id":"104318631936-1001089317451","title":"Qa инженер","text":"🐞🐞🐞#вакансия #QA #Ульяновск #Саранск #Казань #Самара #Уфа #Краснодар #офис #удаленная_работа\n\n🔍Middle QA-специалист🔎\n\n⚡️Компания: Simbirsoft (более 19 лет на рынке, более 700 сотрудников в штате)\n\nОчень ждем тебя, наш будущий коллега и борец за качественное ПО! :)\n\n📌Твои будущие задачи:\n• тестирование ПО (frontend, backend, API);\n• локализация и документирование найденных дефектов;\n• ведение и оптимизация тестовой документации;\n• контроль качества на всех этапах разработки ПО;\n• выстраивание и оптимизация процессов тестирования ПО.\n\n📌Что мы ждем от тебя:\n• наличие опыта от 2 лет в направлениях QA или тестирования ПО;\n• понимание разницы между QA и тестированием ПО;\n• понимание особенностей гибких методологий;\n• уверенное владение техниками тест-дизайна;\n• знание клиент-серверной архитектуры;\n• понимание особенностей тестирования web, mobile и desktop приложений;\n• навык тестирования API;\n• написание запросов SQL;\n• опыт работы с системами контроля версий (git);\n• знание основных команд работы с консолью (Windows/Linux).\n\n📌Что мы предлагаем:\n• Полностью белая ЗП два раза в месяц;\n• Оформление по ТК РФ;\n• Высокий уровень экспертности внутри компании, которым мы делимся друг с другом;\n• Перспективы вертикального и горизонтального роста;\n• Работа на российских и международных проектах;\n• Оборудованное рабочее место и парк тестовых устройств;\n• Подготовка и прохождение сертификации ISTQB бесплатно;\n• Внутренние и внешние курсы, доклады, конференции;\n• Бесплатные чай, кофе, печеньки в офисе;\n• Корпоративная спортивная программа (оплата тематических секций, частичная компенсация абонемента);\n• Проведение летних и зимних корпоративов, дня именинника, совместные походы и т.д.\n\n📌Зарплата:\n• от 50 000 (Договорная, по итогу собеседования)\n\n☎️Контакты:\nAlena","markup":[{"type":"hashtag","offset":6,"length":9,"data":"вакансия"},{"type":"hashtag","offset":16,"length":3,"data":"QA"},{"type":"hashtag","offset":20,"length":10,"data":"Ульяновск"},{"type":"hashtag","offset":31,"length":8,"data":"Саранск"},{"type":"hashtag","offset":40,"length":7,"data":"Казань"},{"type":"hashtag","offset":48,"length":7,"data":"Самара"},{"type":"hashtag","offset":56,"length":4,"data":"Уфа"},{"type":"hashtag","offset":61,"length":10,"data":"Краснодар"},{"type":"hashtag","offset":72,"length":5,"data":"офис"},{"type":"hashtag","offset":78,"length":17,"data":"удаленная_работа"}],"date":"2020-07-03T05:58:13+00:00","link":"tg://resolve?domain=qa_jobs&post=99486","tags":[{"name":"qa"},{"name":"web"},{"name":"mobile"},{"name":"sql"},{"name":"git"},{"name":"windows"},{"name":"linux"}],"cities":[{"code":"ulyanovsk"},{"code":"saransk"},{"code":"kazan"},{"code":"samara"},{"code":"ufa"},{"code":"krasnodar"}],"allowsRemote":true}},{"node":{"__typename":"Job","id":"2280652800-1001134745498","title":"Devops инженер","text":"#вакансия #DevOps\n\nЛокация: Москва, м. Савёловская\nФормат работы: до середины июля удаленка, затем офис с возможной частичной удаленкой после испытательного срока\nЗанятость: полная\nЗарплатная вилка: от 180.000 до 300.000 на руки\n\nМедицинская компания, которая разрабатывает технологичные страховые и сервисные продукты для людей и для бизнеса ищет себе крутого DevOps инженера.\n\nЕще пару лет назад у них не было процесса CI/CD, инфраструктуры, боевой код разворачивался через git pull на продакшне, все было на одной виртуалке и т.д. и т.п.\nНа сегодняшний день есть CI, Infrastructure-as-a-Code, мониторинг и алертинг, а также докеризация.\nБизнес и команда очень сильно выросли: в 2,5 раза за 2018 год. Сейчас компания занимает 2ое место по количеству пациентов среди insurtech компаний в Европе.\nВ планах поднимать новые сервисы, масштабироваться вертикально и горизонтально, ускорять CI, внедрять CD и новые инструменты в инфраструктуру.\n\nЧтобы осуществить все задуманное, ребятам нужен человек, который сможет развивать культуру DevOps в команде.\n\nСтек технологий:\n\n➖Backend: Python 3.7, Django, Flask, aiohttp;\n➖Frontend: TypeScript, React;\n➖Mobile: React Native;\n➖Ubuntu 18.04, PostgreSQL (9.6), Redis, ElasticSearch;\n➖Nginx, Docker, Ansible;\n➖Kibana (ELK), Sentrу, Prometheus, Grafana;\n➖GitLab + GitLab CI, Selectel, servers.ru.\n\nЧто нужно будет делать:\n\n➖Ускорить CI, сборку, деплой и улучшить его инструменты;\n➖Сделать сервисы быстрее и надёжнее;\n➖Поддерживать существующую инфраструктуру;\n➖Мониторить ошибки в бою и исправлять их;\n➖Разрабатывать инструменты автоматизации для команд.\n\nОт кандидата:\n\n➖Знание Docker;\n➖Отличное знание Linux и окружения;\n➖Опыт работы с системами управления конфигурацией Chef, Puppet, Ansible или Salt (мы используем Ansible);\n➖Знание bash/Python;\n➖Опыт работы с Django приложениями будет плюсом;\n➖Опыт работы с ELK будет плюсом.\n\nПочему будет круто:\n\n➖Работаем по гибкому графику, для нас главное — результат;\n➖Отправляем на конференции и митапы, даже международные;\n➖Мы меняем рынок медицинского страхования, и у нас это отлично получается;\n➖Мы собрали команду очень талантливых и мотивированных людей;\n➖У вас будет необходимое для работы железо;\n➖Вы получите медицинское обслуживание через нашу систему. И это в разы лучше, чем стандартный ДМС :)\n➖Вы будете работать в крутом лофте у метро Савеловская. До середины июля удаленно;\n➖Cкидки на занятия английским языком, фитнес и путешествия.\n\nНазвание компании: GMS Services (ссылка на сайт — https://bit.ly/2BY7kc7)\n\nКонтакты: @diana_gms\n\n—\n\n👉 Обсуждение вакансии в чате @devops_jobs","markup":[{"type":"hashtag","offset":0,"length":9,"data":"вакансия"},{"type":"hashtag","offset":10,"length":7,"data":"DevOps"},{"type":"link","offset":1324,"length":10,"data":"http://servers.ru"},{"type":"link","offset":2485,"length":22,"data":"https://bit.ly/2BY7kc7"},{"type":"handle","offset":2520,"length":10,"data":"diana_gms"},{"type":"handle","offset":2565,"length":12,"data":"devops_jobs"}],"date":"2020-07-02T18:19:38+00:00","link":"tg://resolve?domain=devops_jobs_feed&post=2175","tags":[{"name":"git"},{"name":"python"},{"name":"django"},{"name":"flask"},{"name":"typescript"},{"name":"reactjs"},{"name":"mobile"},{"name":"ubuntu"},{"name":"postgresql"},{"name":"redis"},{"name":"elasticsearch"},{"name":"nginx"},{"name":"docker"},{"name":"ansible"},{"name":"gitlab"},{"name":"linux"},{"name":"bash"},{"name":"react-native"}],"cities":[{"code":"moscow"}],"allowsRemote":true}},{"node":{"__typename":"Job","id":"2279604224-1001134745498","title":"Devops инженер","text":"#вакансия\nГород: Москва, ст м Динамо, есть возможность частично работать удаленно\nЗанятость: полный рабочий день\nВилка от 150 тыс.руб. до 250 тыс. руб. \nОписание: Ищем Dev-Ops-инженера в крупный банк, с частично удаленной работой (офис в Москве, ст.м. Динамо): нужен опыт работы с Kubernetes, с Linux серверами (Centos,RHEL)\n· Хорошее знание инструментов DevOps (Docker, Jenkins/TeamCity, Ansible/Salt/Puppet/Chef), понимание принципов DevSecOps;\n· Опыт настройки веб-серверов (Apache, Nginx, JBoss/WildFly, Glassfish)\nКомпания: Новэлект, работа в Банке. \nКонтакт: +79269777845, Телеграм/ вотсапп, Юлия\n\n—\n\n👉 Обсуждение вакансии в чате @devops_jobs","markup":[{"type":"hashtag","offset":0,"length":9,"data":"вакансия"},{"type":"link","offset":565,"length":12,"data":"tel:+79269777845"},{"type":"handle","offset":637,"length":12,"data":"devops_jobs"}],"date":"2020-07-02T18:16:20+00:00","link":"tg://resolve?domain=devops_jobs_feed&post=2174","tags":[{"name":"kubernetes"},{"name":"linux"},{"name":"centos"},{"name":"docker"},{"name":"jenkins"},{"name":"ansible"},{"name":"apache"},{"name":"nginx"},{"name":"jboss"}],"cities":[{"code":"moscow"}],"allowsRemote":true}},{"node":{"__typename":"Job","id":"2278555648-1001134745498","title":"Devops инженер","text":"#вакансия #devops #docker #kubernetes\nВакансия: Devops\nГород: Москва, м. Марьина Роща\nФормат работы: офис\nЗанятость: полная\nЗарплатная вилка: от 150 до 200к\n\nTalentTech — это IT-холдинг, быстрорастущий стартап. \nТебе предстоит присоединиться к команде разработки EdTech продуктов, которая будет выводить Foxford.ru в общеобразовательные школы, и помогать детям учиться и развиваться.\n\nЧем тебе предстоит заниматься:\n🔸поддержание текущей серверной инфраструктуры\n🔸настройка и деплой web-приложений\n🔸автоматизация настройки и управления серверами\n🔸мониторинг серверов и приложений\n\nЧто мы ждем от тебя:\n🔹опыт администрирования Linux (Ubuntu)\n🔹опыт написания скриптов на bash\n🔹опыт администрирования open source приложений (веб-серверы, базы данных, и т.д.)\n🔹опыт работы с реляционными базами данных (обновление, восстановление данных)\n🔹умение составлять и вести документацию\n\nПлюсом будет:\n▪️знание скриптовых языков (shell, python или ruby)\n▪️опыт установки, настройки, мониторинга основных сетевых сервисов (почта, DNS, NAT, firewall, VPN)\n▪️опыт настройки окружения и деплоя rails-приложений (capistrano, nginx+unicorn)\n▪️опыт работы с Docker и Kubernetes\n▪️навыки в сфере автоматизации процессов настройки и управления серверами (puppet, ansible, chef)\n\nЧто предлагаем?\n🟣ДМС, комфортный рабочий график, бонусы от компании\n\nНазвание компании: TalentTech \n\nКонтакты: @yulianka_95\n\n—\n\n👉 Обсуждение вакансии в чате @devops_jobs","markup":[{"type":"hashtag","offset":0,"length":9,"data":"вакансия"},{"type":"hashtag","offset":10,"length":7,"data":"devops"},{"type":"hashtag","offset":18,"length":7,"data":"docker"},{"type":"hashtag","offset":26,"length":11,"data":"kubernetes"},{"type":"link","offset":304,"length":10,"data":"http://Foxford.ru"},{"type":"handle","offset":1377,"length":12,"data":"yulianka_95"},{"type":"handle","offset":1424,"length":12,"data":"devops_jobs"}],"date":"2020-07-02T18:12:38+00:00","link":"tg://resolve?domain=devops_jobs_feed&post=2173","tags":[{"name":"docker"},{"name":"kubernetes"},{"name":"web"},{"name":"linux"},{"name":"ubuntu"},{"name":"bash"},{"name":"shell"},{"name":"python"},{"name":"ruby"},{"name":"dns"},{"name":"ruby-on-rails"},{"name":"nginx"},{"name":"ansible"}],"cities":[{"code":"moscow"}],"allowsRemote":false}},{"node":{"__typename":"Job","id":"2277507072-1001134745498","title":"Devops инженер","text":"#вакансия #удаленно #devops \nВакансия: DevOps/Разработчик бандлов\nЛокация: удаленно\nЗаработная плата: от 180 до 260 тыс. руб. гросс (готовы обсуждать)\n\nArenadata – корпоративная платформа сбора и обработки больших данных на базе open-source проектов https://arenadata.tech/ Является контрибьютором open-source проектов Kafka, Clickhouse, Hadoop, Greenplum и других. Компания входит в ODPi (Linux Foundation).\n\nЧем предстоит заниматься:\n• Активно участвовать в разработке, развитии и поддержке системы управления развертыванием Big Data сервисов (Hadoop, Clickhouse, Greenplum);\n• Cозданием инфраструктурных обвязок для опенсорс проектов для автоматизации их разверток;\n• Работать c системой отслеживания ошибок (Jira);\n• Участвовать в разработке сценариев тестирования;\n• Принимать решения по выбору инструментов;\n• Участвовать в третьей линии поддержки заказчиков сервиса.\n\nЧто ожидаем:\n• Опыт автоматизации работы с помощью Ansible, опыт написания с нуля Ansible playbook;\n• Знание Linux (RHEL, CentOS, Ubuntu) на уровне администратора;\n• Опыт написания bash-скриптов;\n• Опыт работы с Git; \n• Опыт работы со стеком Hadoop.\n\nДополнительным плюсом будет:\n• Опыт работы с системами виртуализации (KVM, VMware, OpenStack);\n• Опыт работы с контейнерами: Docker, OpenShift, Kubernetes;\n• Опыт работы со Clickhouse;\n• Опыт работы со Greenplum;\n• Опыт сопровождения IT-инфраструктуры;\n• Знание Python.\n\nУ нас Вы сможете получить:\n• Работа в молодом, дружном коллективе в атмосфере стартапа, но с бонусами большой устоявшейся компании;\n• Сильная техническая экспертиза в команде;\n• Проекты внедрения в крупнейших компаниях России;\n• Возможность гибкого графика;\n• Участие в крупнейших российских и международных ИТ-конференциях и выставках;\n• Конкурентная заработная плата по результатам собеседования, ежегодный ее пересмотр по итогам аттестации\n\n✉️ Контакты: opankina@ibs.ru @pankina_hr\n\n—\n\n👉 Обсуждение вакансии в чате @devops_jobs","markup":[{"type":"hashtag","offset":0,"length":9,"data":"вакансия"},{"type":"hashtag","offset":10,"length":9,"data":"удаленно"},{"type":"hashtag","offset":20,"length":7,"data":"devops"},{"type":"link","offset":250,"length":23,"data":"https://arenadata.tech/"},{"type":"link","offset":1854,"length":15,"data":"mailto:opankina@ibs.ru"},{"type":"handle","offset":1870,"length":11,"data":"pankina_hr"},{"type":"handle","offset":1916,"length":12,"data":"devops_jobs"}],"date":"2020-07-02T18:11:10+00:00","link":"tg://resolve?domain=devops_jobs_feed&post=2172","tags":[{"name":"kafka"},{"name":"hadoop"},{"name":"linux"},{"name":"ansible"},{"name":"centos"},{"name":"ubuntu"},{"name":"bash"},{"name":"git"},{"name":"docker"},{"name":"kubernetes"},{"name":"python"}],"cities":[],"allowsRemote":true}},{"node":{"__typename":"Job","id":"1775239168-1001091028994","title":"Java разработчик","text":"#middle #senior #Java #Spring #backend #developer #вакансия \nЛокация: Cанкт-Петербург\nЗанятость: полная, гибкое начало дня\n*до окончания пандемии работа удаленная, далее работа в офисе\nЗ/п: 130 – 200 k net.\nКомпания: CSI\nКонтакты: @Danny_Ushakova\nМы продуктовая компания CSI, создающая решения для автоматизации торговых сетей.  \nМы ищем крутых разработчиков, ответственных за собственный код, любящих тесты и понимающих важность unit тестов. Разработчиков, которые с радостью забывают про бюрократию, которые умеют защищать собственные решения и хотят сделать этот мир лучше!  \n💥JAVA developer (высоконагруженные сервисы лояльности)  \nКлючевой задачей будет разработка нового и доработка нашего продукта -  существующего функционала системы Set Retail 10. \n🔵Стек:\n• Java от 2 лет.\n• Spring (Web, Data, Cloud), Kafka.\n• Опыт разработки микросервисов.\n• Опыт проектирования базы данных.\n• SQL (желательно PostgreSQL), JDBC, Hibernate.\n• Git, Gradle.\n🔵Будет плюсом:\n• Опыт работы с J2EE (EJB3, JAX-WS, JAXB, JPA2).\n• Знание Linux.\n• Опыт работы с Redis, MongoDB, Docker, Hashicorp Nomad, Ansible.\n\nМы предлагаем:\n• возможность каждый день видеть результаты своей работы;\n• официальное оформление, белая зарплата, отпуск согласно ТК РФ;\n• гибкий график работы;\n• ДМС со стоматологией, 100% оплата больничных;\n• курсы английского языка в офисе;\n• посещение тренингов, конференций;\n• работа по Agile в команде высокопрофессиональных разработчиков;\n• возможности профессионального роста, четкая схема повышения зарплаты;\n• работа в современном и комфортном офисе в центре города (Чкаловcкий пр-т);\n• оборудованные столовые, чай, кофе, фрукты, печеньки и PlayStation;\n• командные тимбилдинги, футбольная команда.","markup":[{"type":"hashtag","offset":0,"length":7,"data":"middle"},{"type":"hashtag","offset":8,"length":7,"data":"senior"},{"type":"hashtag","offset":16,"length":5,"data":"Java"},{"type":"hashtag","offset":22,"length":7,"data":"Spring"},{"type":"hashtag","offset":30,"length":8,"data":"backend"},{"type":"hashtag","offset":39,"length":10,"data":"developer"},{"type":"hashtag","offset":50,"length":9,"data":"вакансия"},{"type":"handle","offset":231,"length":15,"data":"Danny_Ushakova"}],"date":"2020-07-02T15:12:35+00:00","link":"tg://resolve?domain=jvmjobs&post=1693","tags":[{"name":"java"},{"name":"jvm"},{"name":"spring"},{"name":"dotnet"},{"name":"web"},{"name":"cloud"},{"name":"kafka"},{"name":"sql"},{"name":"postgresql"},{"name":"jdbc"},{"name":"hibernate"},{"name":"git"},{"name":"gradle"},{"name":"jaxb"},{"name":"jpa"},{"name":"linux"},{"name":"redis"},{"name":"mongodb"},{"name":"docker"},{"name":"ansible"}],"cities":[],"allowsRemote":true}},{"node":{"__typename":"Job","id":"104226357248-1001089317451","title":"Qa инженер","text":"#вакансия #офис #москва\nКомпания: Комеджик, наши бренды  CoMagic  и UIS\nЛокация: м. Нахимовский пр-т, БЦ \"Лотос\"\nФормат работы: полная занятость, офис (до сентября удаленка)\nЗп: белая, от 115000 рублей на руки\nКто нужен: Тестировшик ПО\nКонтакты: @Nadin_Asteria\n\nВ нашей компании два основных направления, построенные на базе IP телефонии, собственно сама IP телефония и все сопутствующие ей продукты и сервис сквозной аналитики и коллтрекинга. Также мы являемся оператором связи. \nВакансия тестировщик открыта в команде, занимающейся разработкой и поддержкой ВАТС (виртуальная АТС)\n\nФронт работ:\n\n- тестирование продуктов компании, а именно ВАТС -виртуальной телефонии (работа с тест-комплектами):\nAPI;\nличный кабинет клиента.\n\n- пока ручное тестирование(90 %) и переход на автотестирование.\n\n- написание тест-кейсов и планов тестирования.\n\n- обнаружение, документирование и отслеживание дефектов.\n\n- проведение нагрузочного и интеграционного тестирования продуктов компании.\n\n- развитие и поддержка тестовой инфраструктуры.\n\n- разработка и поддержка автотестов.\n\nЧто ждем от тебя:\n\n- опыт тестирования продуктовых решений от 3х лет.\n\n- наличие базовых знаний SQL.\n\n- опыт написания тест-кейсов по спецификациям и без.\n\n- опыт тестирования API.\n\n- знание Unix/Linux-based операционных систем (bash/ssh/ps/grep и т.п.).\n\nЧто мы можем предложить тебе:\n\n- график работы 5/2 (возможно гибкое начала рабочего дня).\n\n- команду сообразительных, открытых, стремящихся к развитию единомышленников, работающих по Scrum\n\n- оформление согласно ТК РФ.\n\n - плюшки из Кафетерия льгот: фитнес, профессиональные курсы и литература, ДМС, иностранные языки, доп. оборудование рабочего места, больничный без больничного.\n\n - ежегодное ревью по улучшениям твоей работы.","markup":[{"type":"hashtag","offset":0,"length":9,"data":"вакансия"},{"type":"hashtag","offset":10,"length":5,"data":"офис"},{"type":"hashtag","offset":16,"length":7,"data":"москва"},{"type":"link","offset":56,"length":8,"data":"https://www.comagic.ru/"},{"type":"link","offset":68,"length":4,"data":"https://www.uiscom.ru/"},{"type":"bold","offset":174,"length":62,"data":""},{"type":"handle","offset":246,"length":14,"data":"Nadin_Asteria"},{"type":"bold","offset":490,"length":11,"data":""},{"type":"bold","offset":583,"length":14,"data":""},{"type":"bold","offset":1064,"length":16,"data":""},{"type":"bold","offset":1320,"length":31,"data":""}],"date":"2020-07-02T13:36:01+00:00","link":"tg://resolve?domain=qa_jobs&post=99398","tags":[{"name":"qa"},{"name":"sql"},{"name":"unix"},{"name":"linux"},{"name":"bash"},{"name":"ssh"},{"name":"grep"}],"cities":[{"code":"moscow"}],"allowsRemote":true}},{"node":{"__typename":"Job","id":"2276458496-1001134745498","title":"Devops инженер","text":"#вакансия #офис #fulltime #devops #Будва_Черногория\n\nВакансия: DevOps\nКомпания: Alar Studios\nАдрес: Будва, Черногория\nФормат работы: удаленно на время пандемии, далее офис\nЗанятость: full time\nЗ.п вилка: 1700-2300 eur (на руки)\n\nКомпания Alar Studios занимается разработкой крупных технологически тяжелых проектов на заказ для западных заказчиков. Предлагаем возможность развиваться в комфортных условиях мягкого климата Черногории на берегу моря (офис).\n\n📌Требования:\n    • Знание Jenkins, Ansible;\n    • Отличное знание Linux и опыт от 2-х лет;\n    • Кристально ясное понимание TCP/IP;\n    • Общее понимание ИТ-безопасности, зачем нужна и каковы пути ее достижения;\n    • Опыт работы с PostgreSQL или другой open source RDBMS;\n    • Опыт работы в инфраструктуре AWS или подобной;\n    • Отличное знание и понимание RDBMS как такового: в частности, знание SQL, зачем нужны и как работают индексы;\n    • Знание и понимание HTTP;\n    • Хотя бы basic English;\n    • Горячее желание учиться новому!\n📌 Приветствуется:\n    • Знание Python;\n    • Опыт работы с Flask или Django;\n    • Опыт с Amazon VPC и dedicated hosts;\n    • Опыт с Celery, Redis;\n    • Знание git.\n📌Основные задачи:\n    • Разработка архитектуры (в том числе high load, horizontal scalability);\n    • Администрирование инфраструктуры (Linux, Amazon AWS);\n    • Поиск и отладка проблем, работа с серверным кодом;\n    • Написание автоматизации (Ansible);\n    • Быть частью команды и взаимодействовать с командой разработчиков.\n📌 Мы предлагаем\n    • Интересные проекты;\n    • Оплачиваемые отпуска; \n    • Двойную почасовую оплату согласованной переработки сверх рабочего времени (OVERTIME);\n    • Возможность работы в нашем офисе в Черногории, фактически, в раю на берегу Адриатического моря — до моря 10 минут пешком (поможем с переездом вам и семье).\nРазмер зарплат по опыту/знаниям (если хорошо знаете все из списка и есть опыт, то верхняя планка). Рост по производительности.\nДополнительные инструкции: Для интервью будет необходимо сделать тестовое задание.\nВаше CV прошу направлять на pakhomova@alarstudios.com или в @daikirey\n\n—\n\n👉 Обсуждение вакансии в чате @devops_jobs","markup":[{"type":"hashtag","offset":0,"length":9,"data":"вакансия"},{"type":"hashtag","offset":10,"length":5,"data":"офис"},{"type":"hashtag","offset":16,"length":9,"data":"fulltime"},{"type":"hashtag","offset":26,"length":7,"data":"devops"},{"type":"hashtag","offset":34,"length":17,"data":"Будва_Черногория"},{"type":"link","offset":2054,"length":25,"data":"mailto:pakhomova@alarstudios.com"},{"type":"handle","offset":2086,"length":9,"data":"daikirey"},{"type":"handle","offset":2130,"length":12,"data":"devops_jobs"}],"date":"2020-07-02T12:47:28+00:00","link":"tg://resolve?domain=devops_jobs_feed&post=2171","tags":[{"name":"jenkins"},{"name":"ansible"},{"name":"linux"},{"name":"postgresql"},{"name":"amazon-web-services"},{"name":"sql"},{"name":"python"},{"name":"flask"},{"name":"django"},{"name":"redis"},{"name":"git"}],"cities":[],"allowsRemote":true}},{"node":{"__typename":"Job","id":"2275409920-1001134745498","title":"Devops engineer","text":"#вакансия #devops #удаленка #fulltime #remote \n\nВакансия: DevOps Engineer\nЛокация: Казань\nФормат работы: офис или удаленка\nЗП: от 100к до 150к\n\n🔸Современная IT-компания, работающая на стыке банковской, страховой, инвестиционной и страховой сфер, сейчас находится в поиске DevOps Engineer.\n\nОфисы компании расположены в Казани и Иннополисе, также есть возможность работать удаленно.\n\nКомпания занимается изучением перспективных направлений в области финансовых продуктов и сервисов, и проверяет их на практике.\n\n🔸На текущий момент компания запускает очень крупный проект, задачей которого является трансформация архитектуры бизнеса и переезд всех процессов на новую технологическую платформу.\n\nКомпания может рассматривать лишь граждан РФ.\n\n🔹Требования\n— Опыт работы с ОС Linux;\n— Опыт работы в роли DevOps Engineer не менее 2 лет;\n— Знание скриптовых языков (Bash);\n— CI (Teamcity), CD (Octopus);\n— Опыт работы с системами мониторинга (SCOM \\ Zabbix).\n— Опыт работы с NoSQL СУБД;\n— Веб-серверы и балансировщики нагрузки (Apache/nginx haproxy).\n\n🔹**Контакты:**  \nКА: Lucky hunter\ne-mail: maria@luckyhunter.io\ntelegram: @Maria_Rey\n\n—\n\n👉 Обсуждение вакансии в чате @devops_jobs","markup":[{"type":"hashtag","offset":0,"length":9,"data":"вакансия"},{"type":"hashtag","offset":10,"length":7,"data":"devops"},{"type":"hashtag","offset":18,"length":9,"data":"удаленка"},{"type":"hashtag","offset":28,"length":9,"data":"fulltime"},{"type":"hashtag","offset":38,"length":7,"data":"remote"},{"type":"link","offset":1091,"length":20,"data":"mailto:maria@luckyhunter.io"},{"type":"handle","offset":1122,"length":10,"data":"Maria_Rey"},{"type":"handle","offset":1167,"length":12,"data":"devops_jobs"}],"date":"2020-07-02T12:08:03+00:00","link":"tg://resolve?domain=devops_jobs_feed&post=2170","tags":[{"name":"linux"},{"name":"bash"},{"name":"nosql"},{"name":"apache"},{"name":"nginx"}],"cities":[{"code":"kazan"}],"allowsRemote":true}}]}}},"context":{}}