{"hash":"f5f6bf98bd95e769321482904cbbd488f77922fd","data":{"records":{"id":"html","name":"html","belongsTo":{"totalCount":110,"pageInfo":{"totalPages":11,"currentPage":11},"edges":[{"node":{"__typename":"Job","id":"1681915904-1001091028994","title":"Java developer","text":"#вакансия #java #javadeveloper #spring #офис #МСК\n\nГород и адрес офиса: Москва, \nФормат работы: в офисе\nЗанятость: фулл тайм\nЗарплатная вилка: 200 000-250 000 рублей на руки (+-10% люфт для кандидатов с немного большими ожиданиями)\nНазвание компании: Фирма 1С\n\nВ амбициозный проект фирмы «1С» требуется Lead Java Developer с экспертным знанием стека Spring Framework и практическим опытом в области разработки интернет-проектов на платформе Java. Вы получите возможность работать над архитектурно значимыми компонентами, создавая масштабные и современные интернет-проекты делового назначения. \nСам проект представляет: современную торговую площадку в сегменте B2B https://1cbn.ru/trading.htm. Наша торговая площадка - технически сложный интернет-проект, работающий как в web, так и встроенный во многие учетные системы \"1С\".\n\nТЕХНОЛОГИЧЕСКИЙ СТЕК:\nJava, экосистема Spring (IoC, Spring MVC, Spring Data JPA, Spring Security, Spring Boot), PostgreSQL\n\nЧТО ВЫ БУДЕТЕ ДЕЛАТЬ:\n-Анализ задачи и проектирование микросервисов с использованием DDD и Hexagonal Architecture;\n-Проведение code review;\n-Участие в архитектурном совете продукта;\n-Проектирование REST API (OpenAPI 3);\n-Разработку микросервисов на Spring Framework 5 от идеи до запуска в эксплуатацию;\n-Покрытие своего кода unit и интеграционными тестами;\n-Соотношение легаси к разработке 20/80%.\n\nМы используем микросервисную архитектуру, Project Lombok, технологии Spring Cloud, Spring Boot, Spring Data, Elasticsearch, PostgreSQL, Git, Docker. Практикуем DDD, Agile-методологии, code review, CI и прочие полезные инженерные практики.\n\nЧТО ПРЕДЛАГАЕМ:\n-возможность профессионального и карьерного роста вместе с ростом команды;\n-опыт работы с талантливыми профессионалами, у которых есть чему научиться;\n-современный комфортный офис в 5-ти минутах ходьбы от м. Тимирязевская  http://1c.ru/rus/firm1c/d9.html;\n-зоны отдыха и кофе-поинты с диванами и массажными креслами;\n-гибкий график;\n-возможность заказывать проф. литературу за счет компании;\n-стабильная и конкурентоспособная заработная плата;\n-расширенный социальный пакет (ДМС со стоматологией всех видов работ);\n(хорошо решены вопросы медицинского обслуживания   (страхования), питания, проезда, спорта);\n-бесплатная охраняемая парковка на территории офиса;\n-предоставляем жилье для иногородних на период исп. срока.\n\nПообщаться по вакансии можно в телеграм @lamamama или по почте yana@geecko.ru","markup":[{"type":"hashtag","offset":0,"length":9,"data":"вакансия"},{"type":"hashtag","offset":10,"length":5,"data":"java"},{"type":"hashtag","offset":16,"length":14,"data":"javadeveloper"},{"type":"hashtag","offset":31,"length":7,"data":"spring"},{"type":"hashtag","offset":39,"length":5,"data":"офис"},{"type":"hashtag","offset":45,"length":4,"data":"МСК"},{"type":"link","offset":664,"length":27,"data":"https://1cbn.ru/trading.htm"},{"type":"link","offset":1828,"length":31,"data":"http://1c.ru/rus/firm1c/d9.html"},{"type":"handle","offset":2366,"length":9,"data":"lamamama"},{"type":"link","offset":2389,"length":14,"data":"mailto:yana@geecko.ru"}],"date":"2020-06-15T14:41:52+00:00","link":"tg://resolve?domain=jvmjobs&post=1604","tags":[{"name":"java"},{"name":"jvm"},{"name":"spring"},{"name":"web"},{"name":"jpa"},{"name":"postgresql"},{"name":"rest"},{"name":"cloud"},{"name":"elasticsearch"},{"name":"git"},{"name":"docker"},{"name":"html"},{"name":"spring-mvc"},{"name":"spring-data"},{"name":"spring-security"},{"name":"spring-boot"}],"cities":[{"code":"moscow"}],"allowsRemote":false}},{"node":{"__typename":"Job","id":"102890471424-1001089317451","title":"Qa engineer","text":"#вакансия #qa #офис #москва\nм.Бауманская, полная занятость\nБелая з/п до 100.000руб. на руки \nQA Engineer / Тестировщик\nНа время изоляции работаем удаленно, после вновь вернемся в офис!\nПолностью удаленной работы у нас нет!\n\n Мы — команда разработки Level.Travel, сложного продукта в сфере путешествий.  За последние 8 лет мы с нуля создали и продолжаем развивать решение для онлайн-продажи путешествий. Нашу платформу используют лидеры рынка – Тинькофф Банк, OneTwoTrip, Сбербанк, TripAdvisor, Kayak, АК Барс Банк, Евросеть и многие другие. Компания Level.Travel является резидентом Инновационного центра «Сколково».\n\nОбязанности:\n🔸Функциональное тестирование мобильных и web приложений;\n🔸Тестирование API\n🔸Сопровождение задач, мониторинг качества продукта\n🔸Документирование багов\n🔸Проверка кейсов перед релизом, тестирование на промежуточных этапах фиксов и разработки нового функционала\n🔸Оптимизация процесса тестирования внутри команды\n🔸Разработка тест-планов, тест-кейсов\n🔸Тесное общение с командой разработчиков\n🔸Прием обращений от коллег\n🔸Cоставление отчета о тестировании\n\nОт Вас:\n🔸Общительность, активность умение работать в команде\n🔸Представление о теории тестирования и жизненном цикле ПО\n🔸Умение описать баг, опыт работы с трекерами задач\n🔸Опыт разработки тест-планов, тест-кейсов\n🔸Базовые знания html, сss, regexp\n🔸Понимание как работает протокол http\n🔸Умение работать с перехватчиками трафика\n🔸Опыт работы с developer tools в браузере\n🔸Умение расставлять приоритеты задач\n\n\nОт нас: белая зп, официальное трудоустройство, больничные, отпуска. Скидки на изучение английского языка, техника MacBook Pro. Регулярная обратная связь и аттестации. Геймификация процессов и несколько раз в год релокейты поработать в другую страну. Клевый молодой коллектив, интересные ивенты, насыщенная корпоративная жизнь. Пинг-понг, бильярд, кальян и другие развлечения в офисе. Скидки на путешествия)\n\nСвязь по почте: vos@level.travel\nИли тут @Alyask_a","markup":[{"type":"hashtag","offset":0,"length":9,"data":"вакансия"},{"type":"hashtag","offset":10,"length":3,"data":"qa"},{"type":"hashtag","offset":14,"length":5,"data":"офис"},{"type":"hashtag","offset":20,"length":7,"data":"москва"},{"type":"bold","offset":59,"length":32,"data":""},{"type":"bold","offset":93,"length":25,"data":""},{"type":"bold","offset":119,"length":65,"data":""},{"type":"bold","offset":225,"length":76,"data":""},{"type":"bold","offset":619,"length":12,"data":""},{"type":"bold","offset":1091,"length":7,"data":""},{"type":"bold","offset":1507,"length":7,"data":""},{"type":"bold","offset":1915,"length":32,"data":""},{"type":"link","offset":1931,"length":16,"data":"mailto:vos@level.travel"},{"type":"bold","offset":1948,"length":17,"data":""},{"type":"handle","offset":1956,"length":9,"data":"Alyask_a"}],"date":"2020-06-15T14:23:36+00:00","link":"tg://resolve?domain=qa_jobs&post=0","tags":[{"name":"qa"},{"name":"web"},{"name":"html"}],"cities":[{"code":"moscow"}],"allowsRemote":true}},{"node":{"__typename":"Job","id":"16922968064-1001110946746","title":"Js разработчик","text":"#вакансия #javascript #react #typescript #nodejs #frontend #middle #senior\n\nКомпания: #Mетрквадратный www.m2.ru\nЛокация: #москва м.Белорусская\nФормат работы: офис (удаленная до сентября) \nЗанятость: полная\nЗ/п: 200к - 260к руб. на руки\nКонтакты: @maxdmitrov\n\nЭто экосистема недвижимости, которая помогает клиентам решать любые жилищные вопросы: от поиска вариантов и оформления сделки до организации ремонта и переезда в новую квартиру. Мы также создаем решения для партнёров и профессиональных участников рынка недвижимости.\n\nЧем предстоит заниматься:\n\n•  разрабатывать один из продуктов жилищной экосистемы;\n•  прорабатывать задачи с начального этапа (декомпозиция, проработка архитектуры, демо с владельцем продукта);\n•  проводить код ревью;\n•  покрывать код unit тестами, помогать тестировщикам в написании e2e тестов;\n•  оптимизировать рендеринг и скорость загрузки страниц;\n•  разрабатывать продуктовые компоненты, используя общие UI библиотеки, и помогать в развитии этих библиотек.\n\nЧего мы ждем:\n\n• Javascript(ES6);\n• React + MobX/Redux;\n• HTML;\n• CSS;\n• Опыт кроссбраузерной верстки.\n\nБудет плюсом:\n\n• TypeScript;\n• знание протокола HTTP/HTTPS, websockets, опыт работы с REST API;\n• опыт работы с react native;\n• опыт в бекэнде на различных языках программирования;\n• опыт профилирования, оптимизации и рефакторинга кода;\n• опыт написания тестов.\n\nМы используем: \n\n•  TypeScript + React + MobX + Gatsby;\n•  NestJS + gRPC + ProtoBuf (мидл-слой, управляющий UI и обращающийся к API бэк-энда);\n•  Micro Frontend Service;\n•  GitLab (CI/CD);\n•  Yarn + Lerna;\n•  Webpack/Rollup.\n\nМы предлагаем: \n\n•  современный стек технологий;\n•  возможность влиять на архитектуру и сразу видеть результат своей работы;\n•  белая конкурентная ЗП, официальное оформление;\n•  гибкий график работы;\n•  ДМС, компенсация фитнеса, льготная ставка по ипотеке;\n•  комфортный офис в БЦ «Белая площадь» (минута от метро): лаундж-зоны, бариста, фрукты.","markup":[{"type":"hashtag","offset":0,"length":9,"data":"вакансия"},{"type":"hashtag","offset":10,"length":11,"data":"javascript"},{"type":"hashtag","offset":22,"length":6,"data":"react"},{"type":"hashtag","offset":29,"length":11,"data":"typescript"},{"type":"hashtag","offset":41,"length":7,"data":"nodejs"},{"type":"hashtag","offset":49,"length":9,"data":"frontend"},{"type":"hashtag","offset":59,"length":7,"data":"middle"},{"type":"hashtag","offset":67,"length":7,"data":"senior"},{"type":"hashtag","offset":86,"length":15,"data":"Mетрквадратный"},{"type":"link","offset":102,"length":9,"data":"http://www.m2.ru"},{"type":"hashtag","offset":121,"length":7,"data":"москва"},{"type":"handle","offset":246,"length":11,"data":"maxdmitrov"}],"date":"2020-06-15T09:19:53+00:00","link":"tg://resolve?domain=javascript_jobs_feed&post=0","tags":[{"name":"javascript"},{"name":"reactjs"},{"name":"typescript"},{"name":"nodejs"},{"name":"redux"},{"name":"html"},{"name":"css"},{"name":"rest"},{"name":"gitlab"},{"name":"webpack"},{"name":"react-native"}],"cities":[{"code":"moscow"}],"allowsRemote":true}},{"node":{"__typename":"Job","id":"16919822336-1001110946746","title":"Js разработчик","text":"#вакансия #удаленка #remote #senior #fulltime #react #frontend #AI #искусственныйинтеллект\n\nФормат: #remote\nЗанятость: #fulltime \nКомпания: Intento\nЗарплатная вилка: от 3500 – 4500$ на руки (прямой контракт с западной компанией)\nГрафик: #мягкий\n\nIntento – достаточно свежий проект, который уже зарабатывает. Ребята делают интеграционную платформу, которая помогает крупным западным компаниям выбрать, настроить и использовать решения на базе искусственного интеллекта.\nКстати, Intento является одним из авторов Индекса Искусственного Интеллекта (на уровне с такими компаниями, как Coursera, LinkedIn, McKinsey).\n🔥Чем займетесь:\n — Разработкой новых возможностей системы, ускорением текущих процессов\n\n🛎 Требования: \n— React, опыт сложных SPA, уверенность с #vanilla.js\n— Современный js, css, html.\n— Английский язык (письменный).\n\n❤️ Огромным плюсом будет: \n— Владение Python (может пригодиться).\n\nПодробно тут.\n\nПиши в личку: \n☎️telegram: @isaevakristi","markup":[{"type":"hashtag","offset":0,"length":9,"data":"вакансия"},{"type":"hashtag","offset":10,"length":9,"data":"удаленка"},{"type":"hashtag","offset":20,"length":7,"data":"remote"},{"type":"hashtag","offset":28,"length":7,"data":"senior"},{"type":"hashtag","offset":36,"length":9,"data":"fulltime"},{"type":"hashtag","offset":46,"length":6,"data":"react"},{"type":"hashtag","offset":53,"length":9,"data":"frontend"},{"type":"hashtag","offset":63,"length":3,"data":"AI"},{"type":"hashtag","offset":67,"length":23,"data":"искусственныйинтеллект"},{"type":"hashtag","offset":100,"length":7,"data":"remote"},{"type":"hashtag","offset":119,"length":9,"data":"fulltime"},{"type":"hashtag","offset":237,"length":7,"data":"мягкий"},{"type":"hashtag","offset":759,"length":8,"data":"vanilla"},{"type":"handle","offset":942,"length":13,"data":"isaevakristi"}],"date":"2020-06-15T09:17:11+00:00","link":"tg://resolve?domain=javascript_jobs_feed&post=0","tags":[{"name":"javascript"},{"name":"reactjs"},{"name":"css"},{"name":"html"},{"name":"python"}],"cities":[],"allowsRemote":true}},{"node":{"__typename":"Job","id":"16908288000-1001110946746","title":"Javascript developer","text":"#вакансия #angular #javascript #html #css #frontend #офис\n\n🍴Вакансия: Middle Frontend Developer в web-компанию под задачи разработки для социальных сетей, авиакомпаний, ERP-систем, а также ресторанной сети Нью-Йорка.\nГород: Ростов-на-Дону, Газетный переулок, 47Б\nФормат работы: Офис\nЗанятость: полная\nГражданство: Не имеет значение\nЗарплата: 60.000-100.000 рублей по результатам собеседования\n\n🏹Fronted Developer (Angular)\nТочное попадание, если:\n• Адаптивно верстаешь в angular (7 или 8 версия)\n• Имеешь в стеке ещё JavaScript, TypeScript, HTML, CSS\n• Полный фарш, если ты в курсе про автоматическую генерация клиентского кода по документации Swagger\n\nКомпания: GrowApp Solutions\n\n☎️Контакты:\ntelegram: @np_shirinkin\nEmail: npshirinkin@gmail.com\nБуду рад ответить на уточняющие вопросы.","markup":[{"type":"hashtag","offset":0,"length":9,"data":"вакансия"},{"type":"hashtag","offset":10,"length":8,"data":"angular"},{"type":"hashtag","offset":19,"length":11,"data":"javascript"},{"type":"hashtag","offset":31,"length":5,"data":"html"},{"type":"hashtag","offset":37,"length":4,"data":"css"},{"type":"hashtag","offset":42,"length":9,"data":"frontend"},{"type":"hashtag","offset":52,"length":5,"data":"офис"},{"type":"handle","offset":706,"length":13,"data":"np_shirinkin"},{"type":"link","offset":727,"length":21,"data":"mailto:npshirinkin@gmail.com"}],"date":"2020-06-14T20:27:27+00:00","link":"tg://resolve?domain=javascript_jobs_feed&post=16125","tags":[{"name":"javascript"},{"name":"angularjs"},{"name":"html"},{"name":"css"},{"name":"web"},{"name":"typescript"},{"name":"swagger"}],"cities":[{"code":"rostov"}],"allowsRemote":false}},{"node":{"__typename":"Job","id":"90895810560-1001067529236","title":"Python разработчик","text":"#вакансия #vacancy #fulltime #remote #fullstack #senior\n\nПозиция: Senior Python Developer\nКомпания: SO Services Ltd\nФормат работы: удаленная работа\nЗанятость: полная\nОплата: от 3000 до 4000 USD в месяц\nКонтакт: Марк, @mark_soservices\n\nДобрый день! Мы ищем Python разработчика для нашего клиента из США. Требуется разговорный английский. Оформление контракта через ИП - с этим проконсультируем.\n\nResponsibilities\n- Plan and architect development work with rest of Dev team to ensure successful execution and delivery\n- Participate in improving and refining development processes and workflows\n- Help your peers with code review with focus on performance and reliability\n- Develop automation culture\n- Collaborate with Product Management to plan sprints\n- Collaborate with IT Operations to ensure services stability and high uptime\n- Help with investigation of software issues causing downtime and/or malfunction\n- Adapt legacy code to AWS\n\nRequirements\n- 4+ years professional experience building front and back-end web applications\n- Experience with most or all technologies: Python & Django, RDBMS, JS and jQuery, HTML/CSS/LESS, Git\n- Experience with following technologies will be a bonus: MongoDB, PostgreSQL, Elastic Search, WordPress, Redis, Celery, Jenkins, Sentry, New Relic, Nginx, RabbitMQ, NodeJS\n- Focus on task accomplishment and pursuing deadlines\n- Ability to prioritise and manage work across multiple related projects\n- Experienced in working following Agile development methodologies\n- Strong written and communications skills\n\n\nTechnology Stack\n- Python, Django\n- MySQL, Redis\n- AWS (storage, container services, serverless)\n- Github for code management\n- Jenkins as CI","markup":[{"type":"hashtag","offset":0,"length":9,"data":"вакансия"},{"type":"hashtag","offset":10,"length":8,"data":"vacancy"},{"type":"hashtag","offset":19,"length":9,"data":"fulltime"},{"type":"hashtag","offset":29,"length":7,"data":"remote"},{"type":"hashtag","offset":37,"length":10,"data":"fullstack"},{"type":"hashtag","offset":48,"length":7,"data":"senior"},{"type":"handle","offset":217,"length":16,"data":"mark_soservices"},{"type":"bold","offset":395,"length":16,"data":""},{"type":"bold","offset":939,"length":12,"data":""},{"type":"bold","offset":1546,"length":16,"data":""}],"date":"2020-06-13T14:26:03+00:00","link":"tg://resolve?domain=python_jobs&post=0","tags":[{"name":"python"},{"name":"rest"},{"name":"amazon-web-services"},{"name":"web"},{"name":"django"},{"name":"jquery"},{"name":"html"},{"name":"css"},{"name":"git"},{"name":"mongodb"},{"name":"postgresql"},{"name":"elasticsearch"},{"name":"wordpress"},{"name":"redis"},{"name":"jenkins"},{"name":"nginx"},{"name":"rabbitmq"},{"name":"nodejs"},{"name":"mysql"},{"name":"github"}],"cities":[],"allowsRemote":true}},{"node":{"__typename":"Job","id":"16874733568-1001110946746","title":"Javascript developer","text":"#вакансия #angular #javascript #html #css #frontend #офис\n\n🍴Вакансия: Middle Frontend Developer в web-компанию под задачи разработки для социальных сетей, авиакомпаний, ERP-систем, а также ресторанной сети Нью-Йорка.\nГород: Ростов-на-Дону, Газетный переулок, 47Б\nФормат работы: Офис\nЗанятость: полная\nГражданство: Не имеет значение\nЗарплата: 60.000-100.000 рублей по результатам собеседования\n\n🏹Fronted Developer (Angular)\nТочное попадание, если:\n• Адаптивно верстаешь в angular (7 или 8 версия)\n• Имеешь в стеке ещё JavaScript, TypeScript, HTML, CSS\n• Полный фарш, если ты в курсе про автоматическую генерация клиентского кода по документации Swagger\n\nКомпания: GrowApp Solutions\n\n☎️Контакты:\ntelegram: @np_shirinkin\nEmail: npshirinkin@gmail.com\nБуду рад ответить на уточняющие вопросы.\n\n—\n\n👉 Обсуждение вакансии в чате @javascript_jobs","markup":[{"type":"hashtag","offset":0,"length":9,"data":"вакансия"},{"type":"hashtag","offset":10,"length":8,"data":"angular"},{"type":"hashtag","offset":19,"length":11,"data":"javascript"},{"type":"hashtag","offset":31,"length":5,"data":"html"},{"type":"hashtag","offset":37,"length":4,"data":"css"},{"type":"hashtag","offset":42,"length":9,"data":"frontend"},{"type":"hashtag","offset":52,"length":5,"data":"офис"},{"type":"handle","offset":706,"length":13,"data":"np_shirinkin"},{"type":"link","offset":727,"length":21,"data":"mailto:npshirinkin@gmail.com"},{"type":"handle","offset":824,"length":16,"data":"javascript_jobs"}],"date":"2020-06-13T08:42:17+00:00","link":"tg://resolve?domain=javascript_jobs_feed&post=16093","tags":[{"name":"javascript"},{"name":"angularjs"},{"name":"html"},{"name":"css"},{"name":"web"},{"name":"typescript"},{"name":"swagger"}],"cities":[{"code":"rostov"}],"allowsRemote":false}},{"node":{"__typename":"Job","id":"16871587840-1001110946746","title":"Javascript developer","text":"#вакансия #angular #javascript #html #css #frontend #офис\n\n🍴Вакансия: Middle Frontend Developer в web-компанию под задачи разработки для социальных сетей, авиакомпаний, ERP-систем, а также ресторанной сети Нью-Йорка.\nГород: Ростов-на-Дону, Газетный переулок, 47Б\nФормат работы: Офис\nЗанятость: полная\nГражданство: Не имеет значение\nЗарплата: 60.000-100.000 рублей по результатам собеседования\n\n🏹Fronted Developer (Angular)\nТочное попадание, если:\n• Адаптивно верстаешь в angular (7 или 8 версия)\n• Имеешь в стеке ещё JavaScript, TypeScript, HTML, CSS\n• Полный фарш, если ты в курсе про автоматическую генерация клиентского кода по документации Swagger\n\nКомпания: GrowApp Solutions\n\n☎️Контакты:\ntelegram: @np_shirinkin\nEmail: npshirinkin@gmail.com\nБуду рад ответить на уточняющие вопросы.\n\n—\n\n👉 Обсуждение вакансии в чате @javascript_jobs","markup":[{"type":"hashtag","offset":0,"length":9,"data":"вакансия"},{"type":"hashtag","offset":10,"length":8,"data":"angular"},{"type":"hashtag","offset":19,"length":11,"data":"javascript"},{"type":"hashtag","offset":31,"length":5,"data":"html"},{"type":"hashtag","offset":37,"length":4,"data":"css"},{"type":"hashtag","offset":42,"length":9,"data":"frontend"},{"type":"hashtag","offset":52,"length":5,"data":"офис"},{"type":"handle","offset":706,"length":13,"data":"np_shirinkin"},{"type":"link","offset":727,"length":21,"data":"mailto:npshirinkin@gmail.com"},{"type":"handle","offset":824,"length":16,"data":"javascript_jobs"}],"date":"2020-06-12T16:09:02+00:00","link":"tg://resolve?domain=javascript_jobs_feed&post=16090","tags":[{"name":"javascript"},{"name":"angularjs"},{"name":"html"},{"name":"css"},{"name":"web"},{"name":"typescript"},{"name":"swagger"}],"cities":[{"code":"rostov"}],"allowsRemote":false}},{"node":{"__typename":"Job","id":"16849567744-1001110946746","title":"Js разработчик","text":"#вакансия #frontend_developer #js #react #stream #lead\nLead frontend developer (React JS)\nЛокация: г. Казань, Спартаковская, 6 \nФормат работы: удаленка (на карантине), офис с большими окнами (в обычной жизни)\nЗанятость: полная \nЗарплатная вилка: от 150 000 до 200 000 рублей net\n\nОписание вакансии:\nStream  - 100% дочерняя компания МТС. Ищем ведущего React JS разработчика в группу frontend-разработки из 4 человек для участия в проекте Виртуальная АТС.\nО проекте:\nВАТС - платформа для сборки бизнес-инструментов и «умная» телефонная связь через интернет, которая доступна в любом месте и для разных типов устройств. \nЧто предстоит?\n- проектирование архитектуры и участие в разработке frontend продукта;\n- проведение code review;\n- участие в оптимизации процессов разработки в компании.\nМы ожидаем от Вас:\n- опыт работы с React от 2-3 лет\n- опыт разработки SPA\n- знание TypeScript, NextJS, SCSS, Styled Components, HTML5, CSS\n- умение писать Unit-тесты (будет плюсом)\nЧто предлагаем?\n- \"белую\" заработную плату + полугодовые бонусы;\n- гибкий график работы;\n- ДМС со стоматологией, страхование жизни после испытательного срока;\n- корпоративную мобильную связь;\n- льготное кредитование для участников зарплатного проекта МТС Банк.\nНазвание компании: Stream https://stream.ru/\n\n📲 Контакты для резюме и вопросов: @askamasaska, AMorozova@stream.ru","markup":[{"type":"hashtag","offset":0,"length":9,"data":"вакансия"},{"type":"hashtag","offset":10,"length":19,"data":"frontend_developer"},{"type":"hashtag","offset":30,"length":3,"data":"js"},{"type":"hashtag","offset":34,"length":6,"data":"react"},{"type":"hashtag","offset":41,"length":7,"data":"stream"},{"type":"hashtag","offset":49,"length":5,"data":"lead"},{"type":"link","offset":1255,"length":18,"data":"https://stream.ru/"},{"type":"handle","offset":1310,"length":12,"data":"askamasaska"},{"type":"link","offset":1324,"length":19,"data":"mailto:AMorozova@stream.ru"}],"date":"2020-06-11T20:02:29+00:00","link":"tg://resolve?domain=javascript_jobs_feed&post=0","tags":[{"name":"javascript"},{"name":"reactjs"},{"name":"dotnet"},{"name":"typescript"},{"name":"html"},{"name":"css"}],"cities":[{"code":"kazan"}],"allowsRemote":true}},{"node":{"__typename":"Job","id":"16844324864-1001110946746","title":"Js разработчик","text":"#вакансия #удаленка #работа \n\nГород и адрес офиса: любой\nФормат работы: удаленка\nЗанятость: полная\nЗарплатная вилка:  от 120 до 160 net\n\nHigh-Middle/Senior Front-End Developer\nМы стартап, у вас будет возможность стать нашим главным Front-End разработчиком и определять архитектуру и стек веб-приложений над которыми мы работаем.\n • интересные задачи \n • начальство адекват \n • стек крутой ) \n • сильная команда с опытом успешного развития подобных проектов \n • деньги есть \n\nТехнические требования:\n • Опыт прототипирования архитектуры современного высоко оптимизированного веб-приложения с нуля \n • HTML5, CSS preprocessors, JavaScript (ES6) \n • Опыт сборки CSS Grid, UI Components Kit библиотек, Style Guide ( Storybook.js / … ) \n • Понимание методологии Atomic Design, ее плюсов и минусов. Cпособность писать модульный и хорошо проверенный код \n • Работа с Webpack, управление NPM зависимостями, владение GIT, основы CLI \n • Responsive / mobile-first development \n • Анимация Javascript / CSS, ее оптимизация \n • Работа с SVG и оптимизация \n • Взаимодействие с внешними API и интеграция сторонних сервисов, оптимизация их работы \n • Использование современных стандартов семантики и применение их для технической SEO оптимизации \n • Понимание как добиться высоких результатов в Page Speed Insights \n • Разработка и покрытие кода тестами \n • Работа с Google Analytics, event tracking и альтернативы \n\nБонусом будет наличие опыта с:\n • Wordpress Stack: Trellis / Bedrock / Sage или альтернативы \n • основы PHP \n • Конфигурирование и запуск A/B тестов Optimizely / VWO / альтернативы \n • Опыт с JAMstack проектами \n • Опыт работы с Segment \n • Ссылка на Github проект которым есть желание гордиться \n • Ссылка на вклад в open-source проекты / участие в сообществах / конференциях \n\nОбщие требования: \nАнглийский\n Адекватность \n Возможность работы в пределах 15:00-23:00 по Москве (может плавать - типа 13:00-21:00, но так или иначе это вторая половина дня)  \nГотовность открыть ИП \nБонусы: \nДостойная заработная плата\n Атмосфера работы в стартапе \nОплачиваемый отпуск \nОплата книг и софта для работы\n Оплата профессиональных конференций\nРаз в год мы проводим встречи в разных городах И всякие другие плюшки\nДополнительные инструкции: Пожалуйста, присылайте ссылки на ваше CV, ссылки на LinkedIn / Habr страничку, ссылку на гитхаб и по возможности портфолио на sergey@waltbury.com","markup":[{"type":"hashtag","offset":0,"length":9,"data":"вакансия"},{"type":"hashtag","offset":10,"length":9,"data":"удаленка"},{"type":"hashtag","offset":20,"length":7,"data":"работа"},{"type":"link","offset":2359,"length":19,"data":"mailto:sergey@waltbury.com"}],"date":"2020-06-11T19:56:30+00:00","link":"tg://resolve?domain=javascript_jobs_feed&post=0","tags":[{"name":"javascript"},{"name":"dotnet"},{"name":"html"},{"name":"css"},{"name":"webpack"},{"name":"npm"},{"name":"git"},{"name":"mobile"},{"name":"svg"},{"name":"seo"},{"name":"wordpress"},{"name":"php"},{"name":"github"},{"name":"google-analytics"}],"cities":[],"allowsRemote":true}}]}}},"context":{}}