{"hash":"f5f6bf98bd95e769321482904cbbd488f77922fd","data":{"records":{"id":"russia/rostov","country":{"code":"russia","ruName":"Россия","enName":"Russia"},"city":{"code":"rostov","ruName":"Ростов","enName":"Rostov"},"belongsTo":{"totalCount":15,"pageInfo":{"totalPages":2,"currentPage":1},"edges":[{"node":{"__typename":"Job","id":"26983006208-1001075660570","title":"Php разработчик","text":"#вакансия #удаленно #офис #ростов #senior\nКомпания «E.Mi» - производитель материалов для салонов красоты, дистрибуция, профессиональное образование, сеть салонов красоты.\nКомпания входит в ТОП-5 лидеров nail-рынка РФ и СНГ по объёму реализации.\nВ штат компании требуется Ведущий WEB-разработчик Bitrix\nЛокация: головной офис РФ - Ростов-на-Дону\nРассматриваем кандидатов как для удаленной работы, так и на офисную\n\nОбязанности:\n-Доработка функционала и исправление ошибок на сайтах;\n-Администрирование хостинга VPS, CentOS7;\n-Поддержка обмена данных Битрикс с 1С;\n-Настройка синхронизации с 1С, Битрикс24, данных между сайтами.\n\nУсловия:\n-Работа в крупной развивающейся компании;\n-Креативная и молодая команда;\n-В подчинении Web-разработчик и Web-мастер;\n-Оформление по ТК РФ.\n\nЗарплату готовы обсуждать от ваших ожиданий (от 70.000 руб)\nСвязь в лс, по телефону или почта bondarenko@emi-school.ru","markup":[{"type":"hashtag","offset":0,"length":9,"data":"вакансия"},{"type":"hashtag","offset":10,"length":9,"data":"удаленно"},{"type":"hashtag","offset":20,"length":5,"data":"офис"},{"type":"hashtag","offset":26,"length":7,"data":"ростов"},{"type":"hashtag","offset":34,"length":7,"data":"senior"},{"type":"bold","offset":279,"length":23,"data":""},{"type":"underline","offset":345,"length":69,"data":""},{"type":"bold","offset":414,"length":13,"data":""},{"type":"bold","offset":628,"length":9,"data":""},{"type":"link","offset":871,"length":24,"data":"mailto:bondarenko@emi-school.ru"}],"date":"2020-07-03T05:54:45+00:00","link":"tg://resolve?domain=php_jobs&post=25733","tags":[{"name":"php"},{"name":"web"},{"name":"centos"}],"cities":[{"code":"rostov"}],"allowsRemote":true}},{"node":{"__typename":"Job","id":"17295212544-1001110946746","title":"Javascript разработчик","text":"#вакансия #удаленка #полная #react #reactnative\nГород: Ростов-на-Дону\nФормат работы: удаленка\nЗанятость: полная \nЗарплатная вилка: от 110000 до 160000\n\nОписание вакансии: \nРебята, ищем Senior React Native разработчика. Удаленно, полная занятость.\n\nТребования:\n- Опыт разработки мобильных приложений на React Native от 1 года;\n- Опыт разработки мобильных приложений от 3 лет;\n- Знания различных подводных камней ReactNative и их решение.\n\nУсловия:\n- Гео - любое\n- ЗП по результатам собеседования;\n- Мы предлагаем вам расти вместе с компанией Storiesgain. Наши амбиции огромны, возможности для развития и творчества безграничны;\n- Работа над HighLoad проектом в дружном коллективе; Удаленная занятость, полный рабочий день;\n- Испытательный срок один месяц.\n\nНазвание компании: Storiesgain www.storiesgain.com\n\nБуду рада сконнектить с командой 🎈\nКонтакты: @Olga_hr_it","markup":[{"type":"hashtag","offset":0,"length":9,"data":"вакансия"},{"type":"hashtag","offset":10,"length":9,"data":"удаленка"},{"type":"hashtag","offset":20,"length":7,"data":"полная"},{"type":"hashtag","offset":28,"length":6,"data":"react"},{"type":"hashtag","offset":35,"length":12,"data":"reactnative"},{"type":"link","offset":787,"length":19,"data":"http://www.storiesgain.com"},{"type":"handle","offset":854,"length":11,"data":"Olga_hr_it"}],"date":"2020-07-01T11:41:42+00:00","link":"tg://resolve?domain=javascript_jobs_feed&post=16494","tags":[{"name":"javascript"},{"name":"reactjs"},{"name":"react-native"}],"cities":[{"code":"rostov"}],"allowsRemote":true}},{"node":{"__typename":"Job","id":"72381104128-1001054966032","title":"Android разработчик","text":"#вакансия #android #remote #удаленка\n\nГород и адрес офиса: Ростов-на-Дону\nФормат работы: удаленка\nЗанятость: проектная\nЗарплатная вилка - от $30 до $100 за проект, перспектива роста количества и сложности проектов и как следствие ставки\n\nОписание вакансии:\n\nВ ближайшее время необходимо разработать простое (со сложной аналитикой) приложение из 3-х экранов и заставки. На 2-х экранах просто текст, на одном квадратные блоки с картинками и кнопками.\nБудем рекламировать приложение через in-app сетки\nНаша цель понять из каких конкретно сеток к нам приходят заявки.\nЗаявки будут приходить из сайтов, которые будут открываться в приложении через google chrome tab\n\nИтого в цепочке надо связать:\n- Приложение\n- appsflyer\n- keitaro\n- Партнерку\n\nОплата за проект 55-70$\n\nСразу после этого проекта будут другие подобные проекты.\n\nТребования:\nОпыт работы с keitaro, appsflyer, различными api\n\nКонтакты: телеграм @makar_abraam","markup":[{"type":"hashtag","offset":0,"length":9,"data":"вакансия"},{"type":"hashtag","offset":10,"length":8,"data":"android"},{"type":"hashtag","offset":19,"length":7,"data":"remote"},{"type":"hashtag","offset":27,"length":9,"data":"удаленка"},{"type":"handle","offset":904,"length":13,"data":"makar_abraam"}],"date":"2020-06-30T15:26:16+00:00","link":"tg://resolve?domain=mobile_jobs&post=69028","tags":[{"name":"mobile"},{"name":"android"},{"name":"google-chrome"}],"cities":[{"code":"rostov"}],"allowsRemote":true}},{"node":{"__typename":"Job","id":"103540588544-1001089317451","title":"Qa инженер","text":"#вакансия #fulltime #Middle #Manual #Auto #Functional #Regression #RoR #Vue\n\nО компании:\nhttplab.ru\nРазработка и консалтинг Ruby on Rails проектов.\nМы — небольшая команда Rails–разработчиков. Не любим бюрократию и предпочитаем работать маленьким коллективом, где каждый человек незаменим.\n\nВ основном работаем с проектами, автоматизирующими интернет-маркетинг B2B (зарубежный рынок).\n\nЗарплатная вилка:\nот 60 000 RUB до 110 000\n\nТип работы:\nПолный рабочий день\n\nТип занятости:\nОфис, Ростов-на-Дону\nМожно удаленно\n\nОписание вакансии:\nРазрабатываем веб-приложения для автоматизации рутинных задач бизнеса, например, колл-центр, CRM для рекламных агентств, аналитические системы. Нам приходится работать с очень сложной бизнес–логикой, и ее сложными настройками, отображать разнородные данные и формировать отчеты.\n\nОбязанности:\n• Налаживание процесса тестирования продукта;\n• Проведение функционального, регрессионного и интеграционного тестирования;\n• Обнаружение, описание и отслеживание дефектов в работе приложения;\n• Контроль исправления ошибок.\n\nНаш стек:\nRuby on Rails, Vue\n\nТребования:\n• English (взаимодействие с разработчиками и менеджером);\n• Linux;\n• Git;\n• SQL;\n• Ruby on Rails;\n• Vue.\n\nБудут плюсом:\n• Docker;\n• Понимание принципов работы CI/CD;\n• Разработка скриптов тестирования для типовых задач.\n\nУсловия работы:\n• Уютный офис в самом центре;\n• Полный 9–часовой рабочий день;\n• Гибкий график (с 7.00 до 16.00, с 12.00 до 21.00, ...);\n• Дружная команда, демократичная атмосфера;\n• Участие в разработке систем федерального масштаба.\n\nДополнительные инструкции:\nПрислать CV, сообщить удобное время для собеседования\nУдобнее всего, если оставите отклик тут: https://career.habr.com/vacancies/1000058890\n\nКонтакты:\ninfo@httplab.ru, @flggg","markup":[{"type":"hashtag","offset":0,"length":9,"data":"вакансия"},{"type":"hashtag","offset":10,"length":9,"data":"fulltime"},{"type":"hashtag","offset":20,"length":7,"data":"Middle"},{"type":"hashtag","offset":28,"length":7,"data":"Manual"},{"type":"hashtag","offset":36,"length":5,"data":"Auto"},{"type":"hashtag","offset":42,"length":11,"data":"Functional"},{"type":"hashtag","offset":54,"length":11,"data":"Regression"},{"type":"hashtag","offset":66,"length":4,"data":"RoR"},{"type":"hashtag","offset":71,"length":4,"data":"Vue"},{"type":"bold","offset":77,"length":19,"data":""},{"type":"link","offset":89,"length":7,"data":"http://httplab.ru/"},{"type":"link","offset":96,"length":3,"data":"http://httplab.ru/"},{"type":"bold","offset":385,"length":18,"data":""},{"type":"bold","offset":429,"length":12,"data":""},{"type":"bold","offset":462,"length":15,"data":""},{"type":"bold","offset":514,"length":19,"data":""},{"type":"bold","offset":813,"length":12,"data":""},{"type":"bold","offset":1050,"length":10,"data":""},{"type":"bold","offset":1080,"length":12,"data":""},{"type":"bold","offset":1198,"length":14,"data":""},{"type":"bold","offset":1313,"length":16,"data":""},{"type":"bold","offset":1548,"length":27,"data":""},{"type":"link","offset":1670,"length":44,"data":"https://career.habr.com/vacancies/1000058890"},{"type":"bold","offset":1716,"length":9,"data":""},{"type":"link","offset":1726,"length":15,"data":"mailto:info@httplab.ru"},{"type":"handle","offset":1743,"length":6,"data":"flggg"}],"date":"2020-06-23T14:01:57+00:00","link":"tg://resolve?domain=qa_jobs&post=98744","tags":[{"name":"qa"},{"name":"ruby-on-rails"},{"name":"vuejs"},{"name":"ruby"},{"name":"linux"},{"name":"git"},{"name":"sql"},{"name":"docker"}],"cities":[{"code":"rostov"}],"allowsRemote":true}},{"node":{"__typename":"Job","id":"1724907520-1001091028994","title":"Java разработчик","text":"#вакансия #java #Spring #middle #senior #офиc #backend #Москва #СПБ, #Екатеринбург #Ростов-на Дону #удаленно\n👋Приглашаем middle/senior Java Developer в новый проект от Сбербанка.\n\n💸Уровень ЗП: от 220 000 до 280 000 руб. net. (обсуждается!).\n\n✍🏻Оформление: штат компании партнера или ИП.\n\n📍Локация: офис (Москва Кутузовский пр-т 32/1). Или удалено с возможностью посещать офис: СПБ, Екатеринбург, Ростов-на Дону.\n\n🏢О проекте: В рамках стратегической программы «Создание платформы поддержки развития бизнеса» наша команда разрабатывает линейку продуктов Cash Management. Продукта корпоративного блока, предоставляющий функции управления финансовыми потоками для предприятий и корпораций с развитой филиальной сетью. Линейка продуктов содержит порядка 10 продуктов, направленных на управление всеми счетами холдинга единым казначейством. Основная задача – перевод линейки продуктов из Legacy АС на целевые платформы банка и перевод управления продуктами в удаленные каналы обслуживания.\n\n🎯Ваши будущие задачи :\n- проектирование решения, в том числе разработка детальной внутренней архитектуры сервиса, включая интеграционные сценарии;\n- детальное проектирование интеграции со смежными сервисами (в том числе API);\n- разработка программного продукта, внесение изменений в код;\n- разработка автоматических модульных тестов, автоматических скриптов и тестов развертывания.\n\n🤝Мы ожидаем от вас:\n• знание принципов ООП, методологий разработки, шаблонов проектирования;\n• уверенное владение Java 7+, Spring;\n• опыт работы с СУБД, опыт проектирования модели данных;\n• проактивная позиция, хорошие коммуникативные навыки;\n• умение работать с чужим кодом.\n• желательно опыт работы с react-js, Java Script.\n\nЖду Ваши резюме и буду рада ответить на все вопросы. Прекрасного дня!☺️\nКонтакты для связи: telegram @anisimovaane4ka\n\n#вакансия #java #Spring #middle #офиc #backend #Москва #удаленно\n📣Приглашаем Middle Java Developer в новый проект от Сбербанка.\n\n💸Уровень ЗП: от 180 000 до 270 000 руб. net. (обсуждается!).\n\n✍🏻Оформление: штат компании партнера или ИП.\n\n📌Локация: Удаленно или офис (Москва Кутузовский пр-т 32/1).\n\n🏢О проекте: Транзакционные кредитные продукты. Наша команда состоит из профессионалов и создает лучшие Кредитные карты на рынке. На платформе ППРБ мы разрабатываем принципиально новую back-office систему, которая позволит запускать продукты и сервисы с минимальным time-to-market. Технологический стек позволяет поддерживать высокую производительность, надежность и безопасность работы пользователей. Хранение данных в БД Oracle. Критичность системы – 24/7, обеспечение которой также заслуга раздельной кластеризации решений на всех уровнях: хранение данных, очереди сообщений, кластеры прикладных модулей.\n\n🎯Задачи разработчика:\n- разработка backend продукта процессинга кредитных карт (функционал кредитного продукта);\n- разработка обновлений, миграций данных и решение других backend задача.\n\n✅Наш стек:∙ Java 1.8; Spring 5 (Core, Boot, JMS, MVC, JdbcTemplate, REST); Hibernate; JUnit (Mockito); MQ (IM WS MQ, Kafka + ZooKeeper); Linux (RedHat); Application Server - Wildfly; Git, Bitbucket, Nexus, Jira, Confluence; CI: Maven, Jenkins, SonarQube, CheckMarx; IntelliJ IDEA.\n\n🤝Мы ожидаем от вас:\n- глубокие знания JavaSE 1.8;\n- понимание принципов OOP, принципов проектирования классов, шаблонов проектирования;\n- понимание принципов разработки REST сервисов;\n- желательно знания SQL и опыт работы с Oracle DB 12.2.\n\nЖду Ваши резюме и буду рада ответить на все вопросы. Прекрасного дня!☺️\nКонтакты для связи: telegram @anisimovaane4ka","markup":[{"type":"hashtag","offset":0,"length":9,"data":"вакансия"},{"type":"hashtag","offset":10,"length":5,"data":"java"},{"type":"hashtag","offset":16,"length":7,"data":"Spring"},{"type":"hashtag","offset":24,"length":7,"data":"middle"},{"type":"hashtag","offset":32,"length":7,"data":"senior"},{"type":"hashtag","offset":40,"length":5,"data":"офиc"},{"type":"hashtag","offset":46,"length":8,"data":"backend"},{"type":"hashtag","offset":55,"length":7,"data":"Москва"},{"type":"hashtag","offset":63,"length":4,"data":"СПБ"},{"type":"hashtag","offset":69,"length":13,"data":"Екатеринбург"},{"type":"hashtag","offset":83,"length":7,"data":"Ростов"},{"type":"hashtag","offset":99,"length":9,"data":"удаленно"},{"type":"handle","offset":1803,"length":16,"data":"anisimovaane4ka"},{"type":"hashtag","offset":1821,"length":9,"data":"вакансия"},{"type":"hashtag","offset":1831,"length":5,"data":"java"},{"type":"hashtag","offset":1837,"length":7,"data":"Spring"},{"type":"hashtag","offset":1845,"length":7,"data":"middle"},{"type":"hashtag","offset":1853,"length":5,"data":"офиc"},{"type":"hashtag","offset":1859,"length":8,"data":"backend"},{"type":"hashtag","offset":1868,"length":7,"data":"Москва"},{"type":"hashtag","offset":1876,"length":9,"data":"удаленно"},{"type":"handle","offset":3546,"length":16,"data":"anisimovaane4ka"}],"date":"2020-06-23T13:23:27+00:00","link":"tg://resolve?domain=jvmjobs&post=1645","tags":[{"name":"java"},{"name":"jvm"},{"name":"spring"},{"name":"dotnet"},{"name":"reactjs"},{"name":"oracle"},{"name":"rest"},{"name":"hibernate"},{"name":"junit"},{"name":"kafka"},{"name":"linux"},{"name":"git"},{"name":"maven"},{"name":"jenkins"},{"name":"sonarqube"},{"name":"sql"},{"name":"intellij-idea"}],"cities":[{"code":"moscow"},{"code":"rostov"}],"allowsRemote":true}},{"node":{"__typename":"Job","id":"71763492864-1001054966032","title":"Ios developer","text":"#вакансия #IOS #Swift #middle\n\nMiddle+ IOS developer \nКомпания WebAnt I Ростов-на-Дону (Кировский р-н)\n\nФормат работы: удаленно или в офисе, если ты из Ростова-на-Дону\nЗанятость: full-time \nЗП от 80 тыс. руб. до 100 тыс. руб. на руки \n\nЖдем тебя, если ты: \n\nУверенно знаешь Swift; realm, alamofire\nЕсть опыт написания клиент-серверных приложений от 2 лет\nОпыт работы с серверным API, JSON;\nРаботаешь с Git;\nПонимаешь ООП и шаблоны проектирования;\nЗнаешь базовые алгоритмы и структуры данных;\nРаботаешь с rest API;\nТестируешь собственный код;\nРаботаешь с ffmpeg либо другими библиотеками по обработке видео\nЗнаешь английский язык на уровне чтения технической документации\nЕсть свои приложения в продакшете\n\nКсения: @sladkiy_pirozhok","markup":[{"type":"hashtag","offset":0,"length":9,"data":"вакансия"},{"type":"hashtag","offset":10,"length":4,"data":"IOS"},{"type":"hashtag","offset":15,"length":6,"data":"Swift"},{"type":"hashtag","offset":22,"length":7,"data":"middle"},{"type":"handle","offset":714,"length":17,"data":"sladkiy_pirozhok"}],"date":"2020-06-22T10:11:27+00:00","link":"tg://resolve?domain=mobile_jobs&post=68439","tags":[{"name":"mobile"},{"name":"ios"},{"name":"swift"},{"name":"realm"},{"name":"json"},{"name":"git"},{"name":"rest"}],"cities":[{"code":"rostov"},{"code":"kirov"}],"allowsRemote":true}},{"node":{"__typename":"Job","id":"17098080256-1001110946746","title":"Js developer","text":"#вакансия #JavaScript #middle #senior #FrontEnd #удаленно #офиc #Москва #СПБ #Екатеринбург #Ростов-на Дону\n📣Приглашаем middle/senior JavaScript FrontEnd Developer в новый проект от Сбербанка.\n\n💸Уровень ЗП: от 170 000 до 280 000 руб. net. (обсуждается!).\n\n✍🏻Оформление: штат компании партнера или ИП. Занятость: полная.\n\n📍Локация: офис (Москва Кутузовский пр-т 32/1). Или удалено с возможностью посещать офис: СПБ, Екатеринбург, Ростов-на Дону.\n\n🏢О проекте: В рамках стратегической программы «Создание платформы поддержки развития бизнеса» наша команда разрабатывает линейку продуктов Cash Management. Продукта корпоративного блока, предоставляющий функции управления финансовыми потоками для предприятий и корпораций с развитой филиальной сетью. Линейка продуктов содержит порядка 10 продуктов, направленных на управление всеми счетами холдинга единым казначейством. Основная задача – перевод линейки продуктов из Legacy АС на целевые платформы банка и перевод управления продуктами в удаленные каналы обслуживания.\n\n🎯Ваши будущие задачи :\n- проектирование решения, в том числе разработка детальной внутренней архитектуры сервиса, включая интеграционные сценарии;\n- детальное проектирование интеграции со смежными сервисами (в том числе API);\n- разработка программного продукта, внесение изменений в код;\n- разработка автоматических модульных тестов, автоматических скриптов и тестов развертывания.\n\n🤝Мы ожидаем от вас:\n• опыт от 2х лет разработки высоко-нагруженных и отказоустойчивых фронтальных систем;\n• прекрасное знание JavaScript, React;\n• экспертное знание HTML, HTML5, SASS/LESS/CSS;\n• опыт работы с js-фреймоврками (например, Backbone, Angular, React, Reflux), REST-сервисами, Webpack, Bootstrap, Ionic, Foundation;\n• понятие о принципах разработки ПО, ООП, паттернах проектирования;\n• умение разрабатывать прототипы UI с помощью, например, Axure, Pixate, Invision, Proto.io и т.д.\n\nЖду Ваши резюме и буду рада ответить на все вопросы. Прекрасного дня!☺️\nКонтакты для связи: telegram @anisimovaane4ka\n\n—\n\n👉 Обсуждение вакансии в чате @javascript_jobs","markup":[{"type":"hashtag","offset":0,"length":9,"data":"вакансия"},{"type":"hashtag","offset":10,"length":11,"data":"JavaScript"},{"type":"hashtag","offset":22,"length":7,"data":"middle"},{"type":"hashtag","offset":30,"length":7,"data":"senior"},{"type":"hashtag","offset":38,"length":9,"data":"FrontEnd"},{"type":"hashtag","offset":48,"length":9,"data":"удаленно"},{"type":"hashtag","offset":58,"length":5,"data":"офиc"},{"type":"hashtag","offset":64,"length":7,"data":"Москва"},{"type":"hashtag","offset":72,"length":4,"data":"СПБ"},{"type":"hashtag","offset":77,"length":13,"data":"Екатеринбург"},{"type":"hashtag","offset":91,"length":7,"data":"Ростов"},{"type":"link","offset":1883,"length":8,"data":"http://Proto.io"},{"type":"handle","offset":2001,"length":16,"data":"anisimovaane4ka"},{"type":"handle","offset":2052,"length":16,"data":"javascript_jobs"}],"date":"2020-06-21T15:22:14+00:00","link":"tg://resolve?domain=javascript_jobs_feed&post=16306","tags":[{"name":"javascript"},{"name":"dotnet"},{"name":"reactjs"},{"name":"html"},{"name":"sass"},{"name":"css"},{"name":"backbonejs"},{"name":"angularjs"},{"name":"rest"},{"name":"webpack"},{"name":"bootstrap"}],"cities":[{"code":"moscow"},{"code":"rostov"}],"allowsRemote":true}},{"node":{"__typename":"Job","id":"17062428672-1001110946746","title":"Js developer","text":"#вакансия #vue #js #frontend #html #css\n\nВакансия: Frontend / Vuejs Developer\nНазвание компании: Httplab, https://httplab.ru/\nГород и адрес офиса: Ростов-на-Дону, Будённовский 35\nЗанятость: полная\nЗарплатная вилка: от 90 000 до 130 000 руб. (нетто)\n\nОписание вакансии:\n\nТребования:\n• Опыт работы с VueJS и сопутствующими библиотеками. Опыт разработки сложных UI-компонентов.\n• Отличное понимание того, как работает современный веб. Мы ждем, что вы следите за событиями и трендами, но обладаете усточивостью к хайпу. :)\n• Навыки кроссброузерной и адаптивной верстки с использованием HTML5, SСSS.\n• Умение писать тесты для фронтенд-кода, понимать, как и что нужно тестировать.\n• Навыки рефакторинга плохого кода и последовательного превращения его в хороший.\n• Хорошие фундаментальные знания в области ИТ: алгоритмы и структуры данных, шаблоны проектирования.\n• Уверенное использование Linux и утилит командной строки.\n\nУсловия:\n• Профессиональное развитие в команде специалистов высокого уровня\n• Уютный офис в центре Ростова\n• Возможность удаленной работы\n\nКонтакты: info@httplab.ru, @flggg\n\n—\n\n👉 Обсуждение вакансии в чате @javascript_jobs","markup":[{"type":"hashtag","offset":0,"length":9,"data":"вакансия"},{"type":"hashtag","offset":10,"length":4,"data":"vue"},{"type":"hashtag","offset":15,"length":3,"data":"js"},{"type":"hashtag","offset":19,"length":9,"data":"frontend"},{"type":"hashtag","offset":29,"length":5,"data":"html"},{"type":"hashtag","offset":35,"length":4,"data":"css"},{"type":"link","offset":106,"length":19,"data":"https://httplab.ru/"},{"type":"link","offset":1067,"length":15,"data":"mailto:info@httplab.ru"},{"type":"handle","offset":1084,"length":6,"data":"flggg"},{"type":"handle","offset":1125,"length":16,"data":"javascript_jobs"}],"date":"2020-06-18T21:53:52+00:00","link":"tg://resolve?domain=javascript_jobs_feed&post=16272","tags":[{"name":"javascript"},{"name":"vuejs"},{"name":"html"},{"name":"css"},{"name":"linux"}],"cities":[{"code":"rostov"}],"allowsRemote":true}},{"node":{"__typename":"Job","id":"102944997376-1001089317451","title":"Qa инженер","text":"#вакансия #remote #fulltime #qa #python#autotest#aurgajob\n\nКомпания: Auriga\nВакансия:  Инженер по автотестированию (Python) \nОпыт работы: от 1 года (нужны специалисты от junior до senior)\nЗарплата: до 130 000 р. на руки\nМесторасположение: Возможна полностью удаленная работа или любая из локаций Ауриги (Москва, Санкт-Петербург, Нижний Новгород, Ростов-на-Дону, Новосибирск)\nЗанятость: fulltime\n\n✅Задача команды – разработка и рефакторинг автотестов на Python для десктопных Windows приложений, которые работают с 3D моделями и позволяют врачам-ортодонтам создавать и отслеживать планы лечения пациентов.\n✅Наша цель - переработать текущий устоявшийся подход к автотестам, обеспечить масштабируемость и включить все тесты в автоматический процесс CI/CD.\n✅У нас гибкий график + адекватный руководитель = баланс работы и личной жизни, получится решать проектные задачи и проводить время с семьей, ходить на тренировки или заниматься хобби. \n✅Да-да,  на проекте можно работать из дома, даже после завершения самоизоляции, а если хочется общества - велком в любой из наших офисов (Москва, Питер, Нижний, Ростов, Новосибирск)\n✅Аурига разрабатывает ПО на заказ уже 30 лет, у компании много проектов - у вас гарантия занятости и возможность выбора. \n✅Будем радовать белой з/п, щедрой ДМС с прямым доступом и стоматологией за счет компании, дружескими посиделками на занятиях английского.\n\nРасскажу о вакансии и познакомлю с менеджером, пишите maria.babushkina@auriga.com или в телеграм @Maria_Auriga","markup":[{"type":"hashtag","offset":0,"length":9,"data":"вакансия"},{"type":"hashtag","offset":10,"length":7,"data":"remote"},{"type":"hashtag","offset":18,"length":9,"data":"fulltime"},{"type":"hashtag","offset":28,"length":3,"data":"qa"},{"type":"bold","offset":59,"length":10,"data":""},{"type":"bold","offset":76,"length":11,"data":""},{"type":"bold","offset":125,"length":13,"data":""},{"type":"bold","offset":188,"length":10,"data":""},{"type":"bold","offset":220,"length":18,"data":""},{"type":"bold","offset":375,"length":11,"data":""},{"type":"link","offset":1435,"length":27,"data":"mailto:maria.babushkina@auriga.com"},{"type":"handle","offset":1478,"length":13,"data":"Maria_Auriga"}],"date":"2020-06-16T09:46:43+00:00","link":"tg://resolve?domain=qa_jobs&post=0","tags":[{"name":"qa"},{"name":"python"},{"name":"windows"}],"cities":[{"code":"moscow"},{"code":"rostov"},{"code":"novosibirsk"},{"code":"nizhny-novgorod"}],"allowsRemote":true}},{"node":{"__typename":"Job","id":"71352451072-1001054966032","title":"Android разработчик","text":"#вакансия #android #remote #удаленка\n\nГород и адрес офиса: Ростов-на-Дону\nФормат работы: удаленка\nЗанятость: проектная\nЗарплатная вилка - от $30 до $100 за проект, перспектива роста количества и сложности проектов и как следствие ставки\n\nОписание вакансии:\n\nНа данном этапе периодическая проектная работа по разработке приложений Android, состоящих из 3 - 7 экранов, с довольно базовым функционалом (работа 2-3 часа максимум на одно приложение)\n\n🧠 Требования:\n\n- Ключевое требование - опыт работы с метриками (Firebase, Facebook Analytics, Google Analytics)\n- опыт разработки приложений для Android от 1 года\n- опыт работы с Webview\n- навыки разработки приложений, осуществляющих запросы на сторонний веб-сервер и обработку его ответа\n- навыки имплементации локальных push-уведомлений\n\nКонтакты: телеграм @makar_abraam","markup":[{"type":"hashtag","offset":0,"length":9,"data":"вакансия"},{"type":"hashtag","offset":10,"length":8,"data":"android"},{"type":"hashtag","offset":19,"length":7,"data":"remote"},{"type":"hashtag","offset":27,"length":9,"data":"удаленка"},{"type":"handle","offset":806,"length":13,"data":"makar_abraam"}],"date":"2020-06-16T08:17:08+00:00","link":"tg://resolve?domain=mobile_jobs&post=0","tags":[{"name":"mobile"},{"name":"android"},{"name":"firebase"},{"name":"google-analytics"}],"cities":[{"code":"rostov"}],"allowsRemote":true}}]}}},"context":{}}