{"hash":"f5f6bf98bd95e769321482904cbbd488f77922fd","data":{"records":{"id":"vuejs","name":"vuejs","belongsTo":{"totalCount":82,"pageInfo":{"totalPages":9,"currentPage":2},"edges":[{"node":{"__typename":"Job","id":"17294163968-1001110946746","title":"Js разработчик","text":"#вакансия  #vuejs #Nuxt.js #удаленно\n\nГород и адрес офиса: г.Запорожье, Украина.\nФормат работы: удаленка\nЗанятость: частичная\\проектная \nЗарплатная вилка: от 400 до 1500 usd \n\nОписание вакансии:\nВсем привет!\nЕсть уже готовый проект на Nuxt.js. Нужно в очень сжатые сроки реализовать дополнительный функционал -- взять определенные данные из уже подключенной Headless CMS и передать их в несколько компонентов (заготовки под компоненты тоже есть).\nЕсть пример того, как это должно выглядеть и доступ к CMS. Задача достаточно простая, подводные только в том, что все нужно сделать достаточно быстро (желательно в течение сегодняшнего дня) или аргументировать, почему это нельзя так быстро сделать.\nРейт -- $10/h. Мы находимся в Украине, оплата на карту сразу по готовности по основе вашего эстимейта.\n\nЕсли вас заинтересовала вакансия, пишите мне в личку\n \n\nНазвание компании: Maximumstart\nКонтакты: @polinasvetlaya","markup":[{"type":"hashtag","offset":0,"length":9,"data":"вакансия"},{"type":"hashtag","offset":11,"length":6,"data":"vuejs"},{"type":"hashtag","offset":18,"length":5,"data":"Nuxt"},{"type":"hashtag","offset":27,"length":9,"data":"удаленно"},{"type":"handle","offset":898,"length":15,"data":"polinasvetlaya"}],"date":"2020-07-01T11:41:13+00:00","link":"tg://resolve?domain=javascript_jobs_feed&post=16493","tags":[{"name":"javascript"},{"name":"vuejs"}],"cities":[],"allowsRemote":true}},{"node":{"__typename":"Job","id":"17286823936-1001110946746","title":"Js разработчик","text":"#вакансия #job #fulltime #frontend #спб #санкт_петербург\nВакансия: Frontend-разработчик\nКомпания: 4people https://the4people.com\nГород: Санкт-Петербург. ст.м. Обводный канал\nФормат работы: #офис\nЗанятость: #полная\nЗарплата : от 140 000 до 250 000 р. на руки💥\n\nПривет! Мы растем и активно развиваемся, поэтому ищем специалистов для работы в офисе нашей компании в Санкт-Петербурге. Это отличная возможность реализовать свои навыки и прокачаться ещё больше в команде профессионалов. Подробности в описании:\n\n🔷Задачи: \n- Разработка новых сервисов компании.\n- Оптимизация и поддержка текущих продуктов.\n- Наш стек: JavaScript, VueJS, YouTrack.\n\n🔷Добро пожаловать в нашу команду, если вы:\n- Имеете опыт разработки на JS.\n- Умеете использовать Git.\n- Знаете ООП, умеете применять на практике основные паттерны, не теряетесь при использовании объектно-ориентированного подхода в JS.\n- Знакомы с JS фреймворками (мы предпочитаем VueJS) либо являетесь гуру нативного JS.\n\n🔷Мы предлагаем:\n- Уровень заработной платы зависит от пожеланий и профессионально уровня кандидата.\n- Поездки на ИТ-конференции, митапы, учебные курсы за счет компании.\n- Возможность гибкого начала рабочего дня.\n- Бесплатные корпоративные обеды (шведский стол).\n- Абонемент в спорт зал за счет компании.\n\nБуду рада вопросам и резюме: \n✍️ @hrkaterina\n✉️ ekaterina.4people@gmail.com","markup":[{"type":"hashtag","offset":0,"length":9,"data":"вакансия"},{"type":"hashtag","offset":10,"length":4,"data":"job"},{"type":"hashtag","offset":15,"length":9,"data":"fulltime"},{"type":"hashtag","offset":25,"length":9,"data":"frontend"},{"type":"hashtag","offset":35,"length":4,"data":"спб"},{"type":"hashtag","offset":40,"length":16,"data":"санкт_петербург"},{"type":"link","offset":106,"length":22,"data":"https://the4people.com"},{"type":"hashtag","offset":189,"length":5,"data":"офис"},{"type":"hashtag","offset":206,"length":7,"data":"полная"},{"type":"handle","offset":1305,"length":11,"data":"hrkaterina"},{"type":"link","offset":1320,"length":27,"data":"mailto:ekaterina.4people@gmail.com"}],"date":"2020-07-01T09:19:24+00:00","link":"tg://resolve?domain=javascript_jobs_feed&post=16486","tags":[{"name":"javascript"},{"name":"vuejs"},{"name":"git"}],"cities":[],"allowsRemote":false}},{"node":{"__typename":"Job","id":"17271095296-1001110946746","title":"Js разработчик","text":"#вакансия #vacancy #удаленка #fullstack #nodejs #javascript #remote #remotly #удаленнаяработа #удалённая работа\n\nГород и адрес офиса:Санкт-Петербург,Москва,Ульяновск,Обнинск,Калуга,Казань,Харьков,Минск,Гомель-центр города+удалённое сотрудничество\nФормат работы:офис или удалёнка\nЗанятость: полная\nЗарплатная вилка:$1500-$2000\nОписание вакансии:\n\nИщем опытного и талантливого Full Stack девелопера в команду разработки ERP системы по продаже авиа запчастей и поддержания летной годности.\n\nСсылка на описание системы: http://www.erp.aero/\n\nЧто будет входить в задачи:\n\n🚀Бэкенд-разработка;\n🚀Фронт-енд-разработка;\n🚀Разработка архитектуры модулей приложения;\n🚀Написание документации.\n\nЧто мы ожидаем от кандидата:\n\n⚓️Опыт разработки с использованием Node.js;\n✈️Опыт разработки с использованием Vue.js;\n🚁Знание RabbitMQ;\n⛵️JavaScript (ES6);\n🛥БД MySQL;\n🛳Знание протокола WebSocket и принципов его работы;\n🚢Технический английский.\n\nБольшим плюсом будет:\n\n🛸Фреймворк Express.js;\n🏍Понимание работы с Amazon Web Services;\n🛵Оптимизация проекта под высокие нагрузки;\n🚠Понимание работы «облачных» приложений SaaS.\n\nЧто мы предлагаем:\n🇺🇸Работу в Американской компании\n🔥Возможность удалённой работы\n💵Официальное оформление- заключается договор с нашей ШК в Сан-Франциско по ИП\n☀️Гибкое начало рабочего дня\n💊ДМС\n🏖Оплачиваемый отпуск\n🎓75% компенсация стоимости курсов английского языка\nНазвание компании:  XIM, Ink. https://ximxim.com/\n\nОтклики и рекомендации направляйте, пожалуйста, сюда 👉 @veronikaborisovahr","markup":[{"type":"hashtag","offset":0,"length":9,"data":"вакансия"},{"type":"hashtag","offset":10,"length":8,"data":"vacancy"},{"type":"hashtag","offset":19,"length":9,"data":"удаленка"},{"type":"hashtag","offset":29,"length":10,"data":"fullstack"},{"type":"hashtag","offset":40,"length":7,"data":"nodejs"},{"type":"hashtag","offset":48,"length":11,"data":"javascript"},{"type":"hashtag","offset":60,"length":7,"data":"remote"},{"type":"hashtag","offset":68,"length":8,"data":"remotly"},{"type":"hashtag","offset":77,"length":16,"data":"удаленнаяработа"},{"type":"hashtag","offset":94,"length":10,"data":"удалённая"},{"type":"link","offset":516,"length":20,"data":"http://www.erp.aero/"},{"type":"link","offset":1417,"length":19,"data":"https://ximxim.com/"},{"type":"handle","offset":1494,"length":19,"data":"veronikaborisovahr"}],"date":"2020-06-30T16:10:03+00:00","link":"tg://resolve?domain=javascript_jobs_feed&post=16471","tags":[{"name":"javascript"},{"name":"nodejs"},{"name":"vuejs"},{"name":"rabbitmq"},{"name":"mysql"},{"name":"websocket"},{"name":"express"},{"name":"web"},{"name":"amazon-web-services"}],"cities":[{"code":"moscow"},{"code":"ulyanovsk"},{"code":"obninsk"},{"code":"kaluga"},{"code":"kazan"},{"code":"minsk"},{"code":"gomel"}],"allowsRemote":true}},{"node":{"__typename":"Job","id":"17266900992-1001110946746","title":"Js разработчик","text":"Добрый день\n\n#вакансия #работа #parttime #JavaScript #vuejs #Frontend #Web\n\nГород и адрес офиса: Москва\nКомпания: Enlighted\nФормат работы: удаленка\nЗанятость: частичная, не менее 20-30 часов в неделю\nЗарплатная вилка: от 7-10$ в час либо сдельная\n\n\nМакеты в Sketch, задачи в Трекере\n\nСтек:\nVue2 + Vuex\n\nТребования:\nУмение верстать по макетам из Sketch/Figma\nПонимание принципа работы Vuex, уметь рассказать зачем он вообще нужен.\nvue+vuex, es6, vue-cli\nЗнание html, css3, BEM-методологии\nУмение работать с git, знание процесса git flow будет плюсом.\nОпыт интеграции Google/OSM maps будет плюсом.\nОпыт настройки CI/CD или хотя бы понимание как устроен процесс сборки Vue проекта.\n\nВам предстоит:\nРазрабатывать фронтенд-часть проекта по предоставленным макетам, никакого legacy, проект начинается с нуля.\nКомандная работа, утренние стендапы и еженедельные релизы.\n\nПисать мне в личку @westarakagrek или на почту ra@enlighted.ru","markup":[{"type":"hashtag","offset":13,"length":9,"data":"вакансия"},{"type":"hashtag","offset":23,"length":7,"data":"работа"},{"type":"hashtag","offset":31,"length":9,"data":"parttime"},{"type":"hashtag","offset":41,"length":11,"data":"JavaScript"},{"type":"hashtag","offset":53,"length":6,"data":"vuejs"},{"type":"hashtag","offset":60,"length":9,"data":"Frontend"},{"type":"hashtag","offset":70,"length":4,"data":"Web"},{"type":"handle","offset":882,"length":14,"data":"westarakagrek"},{"type":"link","offset":910,"length":15,"data":"mailto:ra@enlighted.ru"}],"date":"2020-06-30T16:06:01+00:00","link":"tg://resolve?domain=javascript_jobs_feed&post=16467","tags":[{"name":"javascript"},{"name":"vuejs"},{"name":"web"},{"name":"html"},{"name":"css"},{"name":"git"}],"cities":[{"code":"moscow"}],"allowsRemote":true}},{"node":{"__typename":"Job","id":"17264803840-1001110946746","title":"Js developer","text":"#вакансия #frontend #javascript #senior #vacancy #remote #удаленка #fulltime \n\n📍Компания: Datagrok (https://datagrok.ai)\n📍Локация: USA, PA\n📍Формат: удаленная работа, фуллтайм\n📍Вилка: 1000$ - 2500$\n\nКонтакт: @alexaprm \n\nDatagrok.ai is looking for a qualified frontend developer to join our strong team of engineers and data scientists. We are a startup developing a next-generation, no-compromises data analytics platform that will revolutionize the industry. Our proprietary technology lets us efficiently process datasets with tens of millions of rows in the browser, and interactively visualize them. We take pride in platform’s UX and performance, and take advantage of the technologies such as WebAssembly, WebGL, and browser-based multithreaded computations. We have a very well established development process that includes unit tests, continuous integration system, stress tests, integration tests, automated UI testing system, and various deployment options. Our technology stack is primarily based on Dart and Postgres, but also has multiple extension points with components developed in JavaScript, TypeScript, Python, R, Java, and C++. Initially you will be involved in developing new plugins in JavaScript, and extending platform’s core capabilities to enable that.\n\nThere is a lot of room to grow, and there will be many opportunities to assume more responsibilities and learn new domains, such as machine learning, artificial intelligence, or high-performance computing.\n\nThis is a remote position.\nIt would be great if you could send us a project you have developed on your own (github repository is ok), or point to another project you have participated in. \n\nResponsibilities\n* Front-end and back-end web development\n* Maintain and improve developer-facing platform’s JS API\n* Help our clients write JS applications on top of the Datagrok platform\n* Develop proof-of-concept applications\n* Integrate third-party JS libraries into the platform\n\nRequirements\n* At least two years of professional experience\n* JavaScript or TypeScript\n* At least one of (Angular, React, Vue)\n* Good written English, ability to communicate directly with our clients\n* Strong verbal and written communication skills\n* Ability to learn and apply new technologies\n\nNice to have\n* One of (Python, R, Java, C#, C++)\n* WebGL\n* WebAssembly\n* Dart\n* Machine learning and statistics\n* Prior exposure to life sciences is a plus\n\n—\n\n👉 Обсуждение вакансии в чате @javascript_jobs","markup":[{"type":"hashtag","offset":0,"length":9,"data":"вакансия"},{"type":"hashtag","offset":10,"length":9,"data":"frontend"},{"type":"hashtag","offset":20,"length":11,"data":"javascript"},{"type":"hashtag","offset":32,"length":7,"data":"senior"},{"type":"hashtag","offset":40,"length":8,"data":"vacancy"},{"type":"hashtag","offset":49,"length":7,"data":"remote"},{"type":"hashtag","offset":57,"length":9,"data":"удаленка"},{"type":"hashtag","offset":67,"length":9,"data":"fulltime"},{"type":"link","offset":101,"length":19,"data":"https://datagrok.ai"},{"type":"handle","offset":211,"length":9,"data":"alexaprm"},{"type":"link","offset":223,"length":11,"data":"http://Datagrok.ai"},{"type":"handle","offset":2452,"length":16,"data":"javascript_jobs"}],"date":"2020-06-30T12:32:35+00:00","link":"tg://resolve?domain=javascript_jobs_feed&post=16465","tags":[{"name":"javascript"},{"name":"deployment"},{"name":"dart"},{"name":"postgresql"},{"name":"typescript"},{"name":"python"},{"name":"java"},{"name":"github"},{"name":"web"},{"name":"angularjs"},{"name":"reactjs"},{"name":"vuejs"},{"name":"continuous-integration"},{"name":"machine-learning"}],"cities":[{"code":"nice"}],"allowsRemote":true}},{"node":{"__typename":"Job","id":"17246978048-1001110946746","title":"Js developer","text":"#Харьков #офис #FullTime #вакансия #Middle #FullStack #Node #Vue \n\nКомпания: Business Process Technologies\nГород: Харьков, Гимназическая Набережная 24\nФормат работы: офис\nЗанятость: полная \nЗарплатная вилка: 2000 - 3500$ (50% налога берем на себя) \n\nОписание вакансии \nВсем привет\nВ продуктовую компанию на наши проекты ищем Middle Full Stack Node\\Vue.JS Developer \nТребования\n— Опыт работы с Vue от 2х лет\n— Опыт работы с SSR (nuxt, gridsome etc.)\n— Опыт работы с node (express || adonis || sails) от 1 года\n— Опыт работы как FullStack от 1,5 лет\n— Понимание принципов ООП, S.O.L.I.D., паттернов разработки и архитектуры приложений\n— Опыт работы с HTML/CSS\n— Опыт работы с GIT\n— Опыт работы с MySQL, MongoDB\n— Английский на уровне чтения тех документации\n\nБудет плюсом\n\n— Опыт работы с tailwindcss, bootstrap или vuetify\n— Опыт работы с firebase\n— Опыт работы с Docker\n\nУДАЛЕННОЕ СОТРУДНИЧЕСТВО НЕ РАССМАТРИВАЕМ\n\nКонтакты:\n@nataliashlyahova \nSkype live:shlyahovanatalia","markup":[{"type":"hashtag","offset":0,"length":8,"data":"Харьков"},{"type":"hashtag","offset":9,"length":5,"data":"офис"},{"type":"hashtag","offset":15,"length":9,"data":"FullTime"},{"type":"hashtag","offset":25,"length":9,"data":"вакансия"},{"type":"hashtag","offset":35,"length":7,"data":"Middle"},{"type":"hashtag","offset":43,"length":10,"data":"FullStack"},{"type":"hashtag","offset":54,"length":5,"data":"Node"},{"type":"hashtag","offset":60,"length":4,"data":"Vue"},{"type":"handle","offset":924,"length":17,"data":"nataliashlyahova"}],"date":"2020-06-30T11:51:49+00:00","link":"tg://resolve?domain=javascript_jobs_feed&post=16448","tags":[{"name":"javascript"},{"name":"nodejs"},{"name":"vuejs"},{"name":"express"},{"name":"html"},{"name":"css"},{"name":"git"},{"name":"mysql"},{"name":"mongodb"},{"name":"bootstrap"},{"name":"firebase"},{"name":"docker"}],"cities":[],"allowsRemote":false}},{"node":{"__typename":"Job","id":"17245929472-1001110946746","title":"Js developer","text":"#Харьков #офис #FullTime #вакансия #Middle #Vue \n\nКомпания: Business Process Technologies\nГород: Харьков, Гимназическая Набережная 24\nФормат работы: офис\nЗанятость: полная \nЗарплатная вилка: 2500 - 3500$ (50% налога берем на себя) \n\nОписание вакансии \nВсем привет\nВ продуктовую компанию на Blockchaine проект ищем Middle Vue.JS Developer \nТребования\n-   2+ года профессионального опыта фронтенд разработки.\n-   1+ год профессионального опыта работы с Vue/Vuex.\n-   Хотябы pre-intermediate английский.\n- Отличные знания JavaScript (ES6+, closures, promises, etc).\n - Умение писать эффективный и поддерживаемы асинхронный код.\n - Опыт работы с Git, Webpack, REST.\n\nБудет плюсом\n\n  Понимание основ blockchain.\n  Опыт бэкенд разработки.\n\nКонтакты:\n@nataliashlyahova \nSkype live:shlyahovanatalia","markup":[{"type":"hashtag","offset":0,"length":8,"data":"Харьков"},{"type":"hashtag","offset":9,"length":5,"data":"офис"},{"type":"hashtag","offset":15,"length":9,"data":"FullTime"},{"type":"hashtag","offset":25,"length":9,"data":"вакансия"},{"type":"hashtag","offset":35,"length":7,"data":"Middle"},{"type":"hashtag","offset":43,"length":4,"data":"Vue"},{"type":"handle","offset":744,"length":17,"data":"nataliashlyahova"}],"date":"2020-06-30T11:51:01+00:00","link":"tg://resolve?domain=javascript_jobs_feed&post=16447","tags":[{"name":"javascript"},{"name":"vuejs"},{"name":"git"},{"name":"webpack"},{"name":"rest"}],"cities":[],"allowsRemote":false}},{"node":{"__typename":"Job","id":"104047050752-1001089317451","title":"Qa engineer","text":"#вакансия #Москва #офис #QA #тестировщик #fulltime\n\nГород и адрес офиса: Москва, м. Новокузнецкая/Павелецкая\nФормат работы: #офис\nЗанятость: #полная\nЗП: от 90к до 120к руб. нетт\n\nSports.ru - провайдер развлечений для любителей спорта.\nЕсть спорт. Есть болельщики. Мы заполняем среду между ними, оживляем ее, наполняем общением и другими развлечениями. Мы делаем не «сайты» или «приложения», а мультиплатформенные продукты, с учетом актуальной технологической парадигмы.\n\nМы ищем Middle QA Engineer'а в наш флагманский проект Sports.ru.\nЭто главное медиа о спорте на русском языке с аудиторией 18 млн пользователей в месяц. Highload-проект с десятками тысяч RPS, состоящий из самых разных продуктов – сайтов, мобильных приложений, email-рассылок, чат-ботов и многого другого.\n\nВ данный момент мы заняты активным внедрением процесса тестирования. Под капотом - нативный js на фронте, php+perl на бэке. Все новые сервисы разрабатываем на новом стеке: vue.js+ssr+golang+graphql. Да, легаси есть - иногда попадается, но в тестирование всё же большинство задач идут на новом стеке.\n\nО задачах\nВы будете заниматься приёмкой фич и проведением регресса, написанием тестовой документации, разработкой автотестов и регистрацией ошибок в баг-трекере.\n\nО наших ожиданиях\nМы ждем, что вы уже минимум пару лет как в профессии и имеете хороший опыт ручного тестирования. Знаете различные инструменты и подходы к тестированию, обладаете навыками тест-дизайна и умеете их применять.\nПонимаете процессы разработки и тестирования, а также, что процессы не могут быть идеальными, но к этому необходимо стремиться.\nМы также ждем, что вы уже имеете навыки автоматизации.\n\nБудет плюсом\nЕсли вы уже пробовали себя в нагрузочном тестировании и автоматизации мобильных устройств.\n\nОб условиях:\nПросторный стильный офис возле м. Новокузнецкая/Третьяковская.\n“Белая” заработная плата.\nБесплатная медстраховка со стоматологией после испытательного срока.\nГибкий график работы с возможностью день-два в неделю работать удаленно,\nФрукты, снеки, чай, кофе, какао 24/7.\nКорпоративная скидка в спортзал и на занятия английским языком.\nКорпоративный футбол с тренером.\nФинансовая помощь при переезде из другого города.\nВозможности для профессионального развития.\n\nНазвание компании: Sports.ru (Tribuna Digital)\nКого заинтересовало, пишите мне в личку (@pbuyatova) - поделюсь подробностями:)","markup":[{"type":"hashtag","offset":0,"length":9,"data":"вакансия"},{"type":"hashtag","offset":10,"length":7,"data":"Москва"},{"type":"hashtag","offset":18,"length":5,"data":"офис"},{"type":"hashtag","offset":24,"length":3,"data":"QA"},{"type":"hashtag","offset":28,"length":12,"data":"тестировщик"},{"type":"hashtag","offset":41,"length":9,"data":"fulltime"},{"type":"hashtag","offset":124,"length":5,"data":"офис"},{"type":"hashtag","offset":141,"length":7,"data":"полная"},{"type":"link","offset":179,"length":9,"data":"http://Sports.ru"},{"type":"bold","offset":179,"length":9,"data":""},{"type":"bold","offset":479,"length":20,"data":""},{"type":"link","offset":525,"length":9,"data":"http://Sports.ru"},{"type":"bold","offset":1077,"length":10,"data":""},{"type":"bold","offset":1240,"length":18,"data":""},{"type":"bold","offset":1649,"length":13,"data":""},{"type":"bold","offset":1754,"length":13,"data":""},{"type":"link","offset":2247,"length":9,"data":"http://Sports.ru"},{"type":"handle","offset":2316,"length":10,"data":"pbuyatova"}],"date":"2020-06-30T09:32:43+00:00","link":"tg://resolve?domain=qa_jobs&post=99227","tags":[{"name":"qa"},{"name":"php"},{"name":"perl"},{"name":"vuejs"},{"name":"go"},{"name":"graphql"}],"cities":[{"code":"moscow"}],"allowsRemote":true}},{"node":{"__typename":"Job","id":"26847739904-1001075660570","title":"Php разработчик","text":"#работа #вакансия #удаленка #job #РНР #Yii #Laravel #Symfony \n\nСейчас нахожусь в поисках РНР разработчика уровня senior в одну из крупнейших ecommerce компаний России - Bork/Technopark. \nНа текущий  момент внутри идет несколько проектов по поддержке и развитию интернет-площадки по продаже бытовой техники и электроники премиум-класса.\n\nПродукты реализуются на стеке: PHP (Yii2), MySql, JS (Vue), HTML, CSS, Gulp, Webpack, SVG, Canvas. \nЗадачи: разработка серверной части веб-проектов на всех этапах (от участия в проектировании архитектуры, до разработки сервисов), участие в митапах для обсуждения предстоящих задач, вносить вклад в планирование архитектуры и т.д.\n\nОсновные требования:\n\n- Опыт коммерческой разработки от 3 лет на PHP (7.1 или выше);\n\n- Хорошие знания современных фреймворков  (YII, Symfony);\n\n- Знание ООП, базовых алгоритмов, шаблонов проектирования, стандартов написания кода.\n\nУсловия: \n\n- ЗП до 220 000 net;\n\n- Полная УДАЛЁНКА; \n\n- Оформление через ИП или как самозанятый; \n\nКто заинтересовался - пишите в ЛС (@nastyaklassnaya),  буду рада пообщаться :)","markup":[{"type":"hashtag","offset":0,"length":7,"data":"работа"},{"type":"hashtag","offset":8,"length":9,"data":"вакансия"},{"type":"hashtag","offset":18,"length":9,"data":"удаленка"},{"type":"hashtag","offset":28,"length":4,"data":"job"},{"type":"hashtag","offset":33,"length":4,"data":"РНР"},{"type":"hashtag","offset":38,"length":4,"data":"Yii"},{"type":"hashtag","offset":43,"length":8,"data":"Laravel"},{"type":"hashtag","offset":52,"length":8,"data":"Symfony"},{"type":"handle","offset":1034,"length":16,"data":"nastyaklassnaya"}],"date":"2020-06-30T07:37:17+00:00","link":"tg://resolve?domain=php_jobs&post=25604","tags":[{"name":"php"},{"name":"yii"},{"name":"laravel"},{"name":"symfony"},{"name":"mysql"},{"name":"vuejs"},{"name":"html"},{"name":"css"},{"name":"gulp"},{"name":"webpack"},{"name":"svg"},{"name":"canvas"},{"name":"dotnet"}],"cities":[],"allowsRemote":true}},{"node":{"__typename":"Job","id":"17227055104-1001110946746","title":"Js разработчик","text":"#вакансия #seniordev #frontend #javascript #react #vue #angular #fulltime #office \n\nSenior/Middle Frontend Developer\nЛокация: Москва, м. Таганская\nФормат работы: офис\nЗанятость: полная\nЗарплатная вилка: 175к – 235к\nКомпания: WhoIsBlogger(WIB), www.whoisblogger.com \n\nМы разрабатываем аналитический продукт, который позволяет нашим клиентам принимать обоснованные решения при планировании рекламных кампаний с помощью блогеров.\n\nМы ищем человека для создания фронтенда веб-приложения, в котором наши клиенты смогут быстро получать доступ к нужным данным о блогерах, а также вести историю своих рекламных кампаний и проектов.\n\nЧто нужно делать?\n• разработка пользовательской платформы;\n• согласование требований с бизнес-заказчиками, дизайнерами и бэкенд командой;\n• разработка архитектурных решений, поиск и внедрение необходимых технологий, поиск узких мест в работе систем, оптимизация и рефакторинг;\n• внедрение методик и инструментов для повышения качества кода и продукта.\n\nЧто нужно уметь?\n• опыт работы не менее 3-х лет в роли фронтенд-разработчика;\n• уверенное владение HTML, CSS, JavaScript, TypeScript;\n• опыт самостоятельной разработки фронтенда с использованием современного стека: React/Angular/Vue.js, Redux/MobX, Webpack;\n• готовность и желание встать у истоков фронтенд-разработки в компании, оставаясь на первых порах единственным фронтенд-разработчиком;\n• высокая степень самостоятельности, ответственности и работоспособности, желание развиваться и достигать результатов в кратчайшие сроки.\n\nБудет плюсом:\n• опыт реализации многомодульных и высоконагруженных проектов;\n• опыт разработки SPA;\n• опыт использования D3.js;\n• умение работать с БД PostgreSQL, MongoDB;\n• опыт работы с облачными провайдерами, предпочтительно AWS;\n• умение собирать и анализировать пользовательское поведение в Google Analytics, Яндекс.Метрике и подобных системах.\n\nКонтакты: akurdin@whoisblogger.com, @ifeelKud, +7(903)505-38-32","markup":[{"type":"hashtag","offset":0,"length":9,"data":"вакансия"},{"type":"hashtag","offset":10,"length":10,"data":"seniordev"},{"type":"hashtag","offset":21,"length":9,"data":"frontend"},{"type":"hashtag","offset":31,"length":11,"data":"javascript"},{"type":"hashtag","offset":43,"length":6,"data":"react"},{"type":"hashtag","offset":50,"length":4,"data":"vue"},{"type":"hashtag","offset":55,"length":8,"data":"angular"},{"type":"hashtag","offset":64,"length":9,"data":"fulltime"},{"type":"hashtag","offset":74,"length":7,"data":"office"},{"type":"link","offset":244,"length":20,"data":"http://www.whoisblogger.com"},{"type":"link","offset":1871,"length":24,"data":"mailto:akurdin@whoisblogger.com"},{"type":"handle","offset":1897,"length":9,"data":"ifeelKud"},{"type":"link","offset":1908,"length":16,"data":"tel:+7(903)505-38-32"}],"date":"2020-06-29T15:34:36+00:00","link":"tg://resolve?domain=javascript_jobs_feed&post=16429","tags":[{"name":"javascript"},{"name":"reactjs"},{"name":"vuejs"},{"name":"angularjs"},{"name":"html"},{"name":"css"},{"name":"typescript"},{"name":"redux"},{"name":"webpack"},{"name":"postgresql"},{"name":"mongodb"},{"name":"amazon-web-services"},{"name":"google-analytics"}],"cities":[{"code":"moscow"}],"allowsRemote":false}}]}}},"context":{}}