{"hash":"f5f6bf98bd95e769321482904cbbd488f77922fd","data":{"records":{"id":"css","name":"css","belongsTo":{"totalCount":116,"pageInfo":{"totalPages":12,"currentPage":7},"edges":[{"node":{"__typename":"Job","id":"17108566016-1001110946746","title":"Js разработчик","text":"#вакансия #javascript #react #typescript #nodejs #frontend #middle #senior\n\nКомпания: #Mетрквадратный www.m2.ru\nЛокация: #москва м.Белорусская\nФормат работы: офис (удаленная до сентября) \nЗанятость: полная\nЗ/п: 200к - 260к руб. на руки\nКонтакты: @maxdmitrov\n\nЭто экосистема недвижимости, которая помогает клиентам решать любые жилищные вопросы: от поиска вариантов и оформления сделки до организации ремонта и переезда в новую квартиру. Мы также создаем решения для партнёров и профессиональных участников рынка недвижимости.\n\nЧем предстоит заниматься:\n\n•  разрабатывать один из продуктов жилищной экосистемы;\n•  прорабатывать задачи с начального этапа (декомпозиция, проработка архитектуры, демо с владельцем продукта);\n•  проводить код ревью;\n•  покрывать код unit тестами, помогать тестировщикам в написании e2e тестов;\n•  оптимизировать рендеринг и скорость загрузки страниц;\n•  разрабатывать продуктовые компоненты, используя общие UI библиотеки, и помогать в развитии этих библиотек.\n\nЧего мы ждем:\n\n• Javascript(ES6);\n• React + MobX/Redux;\n• HTML;\n• CSS;\n• Опыт кроссбраузерной верстки.\n\nБудет плюсом:\n\n• TypeScript;\n• знание протокола HTTP/HTTPS, websockets, опыт работы с REST API;\n• опыт работы с react native;\n• опыт в бекэнде на различных языках программирования;\n• опыт профилирования, оптимизации и рефакторинга кода;\n• опыт написания тестов.\n\nМы используем: \n\n•  TypeScript + React + MobX + Gatsby;\n•  NestJS + gRPC + ProtoBuf (мидл-слой, управляющий UI и обращающийся к API бэк-энда);\n•  Micro Frontend Service;\n•  GitLab (CI/CD);\n•  Yarn + Lerna;\n•  Webpack/Rollup.\n\nМы предлагаем: \n\n•  современный стек технологий;\n•  возможность влиять на архитектуру и сразу видеть результат своей работы;\n•  белая конкурентная ЗП, официальное оформление;\n•  гибкий график работы;\n•  ДМС, компенсация фитнеса, льготная ставка по ипотеке;\n•  комфортный офис в БЦ «Белая площадь» (минута от метро): лаундж-зоны, бариста, фрукты.\n\n—\n\n👉 Обсуждение вакансии в чате @javascript_jobs","markup":[{"type":"hashtag","offset":0,"length":9,"data":"вакансия"},{"type":"hashtag","offset":10,"length":11,"data":"javascript"},{"type":"hashtag","offset":22,"length":6,"data":"react"},{"type":"hashtag","offset":29,"length":11,"data":"typescript"},{"type":"hashtag","offset":41,"length":7,"data":"nodejs"},{"type":"hashtag","offset":49,"length":9,"data":"frontend"},{"type":"hashtag","offset":59,"length":7,"data":"middle"},{"type":"hashtag","offset":67,"length":7,"data":"senior"},{"type":"hashtag","offset":86,"length":15,"data":"Mетрквадратный"},{"type":"link","offset":102,"length":9,"data":"http://www.m2.ru"},{"type":"hashtag","offset":121,"length":7,"data":"москва"},{"type":"handle","offset":246,"length":11,"data":"maxdmitrov"},{"type":"handle","offset":1964,"length":16,"data":"javascript_jobs"}],"date":"2020-06-22T11:08:34+00:00","link":"tg://resolve?domain=javascript_jobs_feed&post=16316","tags":[{"name":"javascript"},{"name":"reactjs"},{"name":"typescript"},{"name":"nodejs"},{"name":"redux"},{"name":"html"},{"name":"css"},{"name":"rest"},{"name":"gitlab"},{"name":"webpack"},{"name":"react-native"}],"cities":[{"code":"moscow"}],"allowsRemote":true}},{"node":{"__typename":"Job","id":"17103323136-1001110946746","title":"Js разработчик","text":"#вакансия #удаленно #удаленка #vue                                                                                                                                     Удаленная работа\nПолная занятость \nЗп От 100 000 до 200 000 ₽\n\nFrontend developer (VUE)\n\nКомпания «Averia Electronics» \n\nМы занимаемся разработкой потребительской носимой электроники (IoT, wearable), мобильных приложений и собственной ERP системы. \nВсе наши проекты так или иначе связаны с домашними питомцами и многие наши сотрудники, даже не вовлечённые в эту тему и не разделявшие наши интересы изначально, со временем заводят своих домашних любимцев. Общность наших с вами интересов будет ощутимым плюсом.                                                                                                                                                                                       \n                                                                                                                                                                                                                  Нам нужен  сильный  frontend  разработчик, умеющий решать нестандартные задачи. \n                                                                                                                                                                                                                 Наши продукты: \nI. CRM (ERP) для ветеринарных клиник и зоомагазинов. Мы строим свою сеть и чем стремительнее мы развиваем наш софт, тем стремительнее растёт наш бизнес. С нашей crm работает и медицинское оборудование через кроссплатформенную программу на Electron, благодаря чему вы сможете получить уникальный опыт по взаимодействию с медицинским оборудованием и его интеграции в единую экосистему.\nII. Averia.Collar – умный ошейник для собак, работающий по принципу Apple Watch через Bluetooth Low Energy. \nIII. Аверия.поиск — сервис помощи в поиске потерянных питомцев. \n                                                                                                                                                                                                       Обязательными навыками являются:\n•  JS (ES6, современный яваскрипт);\n•  Уверенное владение фрейворком  Vue.js;\n•  CSS / твердое знание одного из CSS-препроцессоров (SASS, LESS, Stylus). Мы предпочитаем SAS;\n•  Опыт работы с системами сборки проектов (webpack, gulp);\n•  Знание шаблонизоторов. Мы предпочитаем pug;\n•  GIT, git-flow;\n•  English (на уровне чтения документации и написания комментариев);\n•  Командная работа и умение оценивать трудозатраты.\nБольшим плюсом будет:\n•  advanced навыки в верстке, mobile\n•  Опыт автоматического тестирования\n•  Опыт backend разработки.\nУсловия работы: \n•  Удаленная работа;\n•  Полная занятость;\n•  Уровень заработной платы устанавливается индивидуально по итогам собеседования. \nКонтакты: Полина Храмцова, polina_hr@mail.ru, @polina_hr\n\n—\n\n👉 Обсуждение вакансии в чате @javascript_jobs","markup":[{"type":"hashtag","offset":0,"length":9,"data":"вакансия"},{"type":"hashtag","offset":10,"length":9,"data":"удаленно"},{"type":"hashtag","offset":20,"length":9,"data":"удаленка"},{"type":"hashtag","offset":30,"length":4,"data":"vue"},{"type":"link","offset":2881,"length":17,"data":"mailto:polina_hr@mail.ru"},{"type":"handle","offset":2900,"length":10,"data":"polina_hr"},{"type":"handle","offset":2945,"length":16,"data":"javascript_jobs"}],"date":"2020-06-22T11:04:20+00:00","link":"tg://resolve?domain=javascript_jobs_feed&post=16311","tags":[{"name":"javascript"},{"name":"vuejs"},{"name":"electron"},{"name":"css"},{"name":"sass"},{"name":"sas"},{"name":"webpack"},{"name":"gulp"},{"name":"git"},{"name":"mobile"}],"cities":[],"allowsRemote":true}},{"node":{"__typename":"Job","id":"103389593600-1001089317451","title":"Qa инженер","text":"#вакансия #QA #Волгоград #fulltime #офис\n💸ЗП вилка: от 70к до 95к NET\n👨🏻‍💻Опыт работы: от 1 года \n\nРазыскивается тестировщик в MODESCO\nПривет!\nУ нас в Волгограде три крупных интернет-сервиса, на которые мы ищем специалиста в сфере автоматического тестирования ПО.\n\n🎯 Какие будут задачи?\n-Разработка тест-кейсов и составление тестовой документации (на основе технического задания и в ходе анализа поведения пользователей);\n-тестирование веб-сервисов Text.ru (https://text.ru/), Telderi (https://www.telderi.ru/ru) и Socpublic (https://socpublic.com/): функциональное, регрессионное и на наличие известных уязвимостей;\n-написание скриптов для автоматизации тестирования;\n-ручное тестирование релизов там, где автоматизация невозможна.\n\n💪🏼 Наш идеальный кандидат:\n-знаком с современными концепциями тестирования;\n-работает с инструментами для автоматического тестирования веб-приложений (JMeter/Selenium/SoapUI или аналоги), пишет автотесты;\n-знает что такое http-протокол, минимально знаком с HTML, CSS и JavaScript;\n-умеет понятно описывать ошибки.\n\n🍩 Что предлагаем?\n-Оформление по ТК РФ и зарплату всегда вовремя;\n-уютный офис рядом с Ворошиловским ТРЦ с кофе и печеньками;\n-7-ми часовой рабочий день с возможностью выбора времени его начала;\n-бонусную систему: оплачиваемые переработки, 50% компенсация внешнего обучения за счет компании, бонус для сотрудников, занимающихся спортом;\n-интересную корпоративную жизнь: кикер, дартс, вечера настолок и крутые корпоративы.\n\n☎️ Контакты: @MarinaModesco, job@modesco.ru","markup":[{"type":"hashtag","offset":0,"length":9,"data":"вакансия"},{"type":"hashtag","offset":10,"length":3,"data":"QA"},{"type":"hashtag","offset":14,"length":10,"data":"Волгоград"},{"type":"hashtag","offset":25,"length":9,"data":"fulltime"},{"type":"hashtag","offset":35,"length":5,"data":"офис"},{"type":"bold","offset":103,"length":36,"data":""},{"type":"italic","offset":139,"length":127,"data":""},{"type":"bold","offset":269,"length":23,"data":""},{"type":"link","offset":454,"length":7,"data":"http://Text.ru"},{"type":"link","offset":463,"length":16,"data":"https://text.ru/"},{"type":"link","offset":491,"length":25,"data":"https://www.telderi.ru/ru"},{"type":"link","offset":531,"length":22,"data":"https://socpublic.com/"},{"type":"bold","offset":739,"length":29,"data":""},{"type":"bold","offset":1056,"length":19,"data":""},{"type":"bold","offset":1480,"length":12,"data":""},{"type":"handle","offset":1493,"length":14,"data":"MarinaModesco"},{"type":"link","offset":1509,"length":14,"data":"mailto:job@modesco.ru"}],"date":"2020-06-22T06:46:27+00:00","link":"tg://resolve?domain=qa_jobs&post=98600","tags":[{"name":"qa"},{"name":"dotnet"},{"name":"jmeter"},{"name":"selenium"},{"name":"html"},{"name":"css"},{"name":"javascript"}],"cities":[{"code":"volgograd"}],"allowsRemote":false}},{"node":{"__typename":"Job","id":"17098080256-1001110946746","title":"Js developer","text":"#вакансия #JavaScript #middle #senior #FrontEnd #удаленно #офиc #Москва #СПБ #Екатеринбург #Ростов-на Дону\n📣Приглашаем middle/senior JavaScript FrontEnd Developer в новый проект от Сбербанка.\n\n💸Уровень ЗП: от 170 000 до 280 000 руб. net. (обсуждается!).\n\n✍🏻Оформление: штат компании партнера или ИП. Занятость: полная.\n\n📍Локация: офис (Москва Кутузовский пр-т 32/1). Или удалено с возможностью посещать офис: СПБ, Екатеринбург, Ростов-на Дону.\n\n🏢О проекте: В рамках стратегической программы «Создание платформы поддержки развития бизнеса» наша команда разрабатывает линейку продуктов Cash Management. Продукта корпоративного блока, предоставляющий функции управления финансовыми потоками для предприятий и корпораций с развитой филиальной сетью. Линейка продуктов содержит порядка 10 продуктов, направленных на управление всеми счетами холдинга единым казначейством. Основная задача – перевод линейки продуктов из Legacy АС на целевые платформы банка и перевод управления продуктами в удаленные каналы обслуживания.\n\n🎯Ваши будущие задачи :\n- проектирование решения, в том числе разработка детальной внутренней архитектуры сервиса, включая интеграционные сценарии;\n- детальное проектирование интеграции со смежными сервисами (в том числе API);\n- разработка программного продукта, внесение изменений в код;\n- разработка автоматических модульных тестов, автоматических скриптов и тестов развертывания.\n\n🤝Мы ожидаем от вас:\n• опыт от 2х лет разработки высоко-нагруженных и отказоустойчивых фронтальных систем;\n• прекрасное знание JavaScript, React;\n• экспертное знание HTML, HTML5, SASS/LESS/CSS;\n• опыт работы с js-фреймоврками (например, Backbone, Angular, React, Reflux), REST-сервисами, Webpack, Bootstrap, Ionic, Foundation;\n• понятие о принципах разработки ПО, ООП, паттернах проектирования;\n• умение разрабатывать прототипы UI с помощью, например, Axure, Pixate, Invision, Proto.io и т.д.\n\nЖду Ваши резюме и буду рада ответить на все вопросы. Прекрасного дня!☺️\nКонтакты для связи: telegram @anisimovaane4ka\n\n—\n\n👉 Обсуждение вакансии в чате @javascript_jobs","markup":[{"type":"hashtag","offset":0,"length":9,"data":"вакансия"},{"type":"hashtag","offset":10,"length":11,"data":"JavaScript"},{"type":"hashtag","offset":22,"length":7,"data":"middle"},{"type":"hashtag","offset":30,"length":7,"data":"senior"},{"type":"hashtag","offset":38,"length":9,"data":"FrontEnd"},{"type":"hashtag","offset":48,"length":9,"data":"удаленно"},{"type":"hashtag","offset":58,"length":5,"data":"офиc"},{"type":"hashtag","offset":64,"length":7,"data":"Москва"},{"type":"hashtag","offset":72,"length":4,"data":"СПБ"},{"type":"hashtag","offset":77,"length":13,"data":"Екатеринбург"},{"type":"hashtag","offset":91,"length":7,"data":"Ростов"},{"type":"link","offset":1883,"length":8,"data":"http://Proto.io"},{"type":"handle","offset":2001,"length":16,"data":"anisimovaane4ka"},{"type":"handle","offset":2052,"length":16,"data":"javascript_jobs"}],"date":"2020-06-21T15:22:14+00:00","link":"tg://resolve?domain=javascript_jobs_feed&post=16306","tags":[{"name":"javascript"},{"name":"dotnet"},{"name":"reactjs"},{"name":"html"},{"name":"sass"},{"name":"css"},{"name":"backbonejs"},{"name":"angularjs"},{"name":"rest"},{"name":"webpack"},{"name":"bootstrap"}],"cities":[{"code":"moscow"},{"code":"rostov"}],"allowsRemote":true}},{"node":{"__typename":"Job","id":"103362330624-1001089317451","title":"Qa инженер","text":"#вакансия #qa #офис #москва #вднх\n\nВакансия: Middle/Senior QA для автоматизированного и ручного тестирования web-приложения (сначала 50/50, затем автоматизация 70+%), ,\nКомпания: Webinar.ru\nЗП: до 180 000 руб. на руки\nФормат работы: офис, гибкое начало дня\nЗанятость: полная\n\nЗадачи: Ручное и автоматизированное тестирование нового функционала web-приложения, регрессионное, ui/ux, тестирование требований. Улучшение процесса тестирования. \nАвтоматизация на java+selenide\n\nЧто ожидаем:\n- Понимаешь, как устроены веб-сервисы, имеешь опыт их ручного и автоматизированного тестирования не менее одного года\n- Есть понимание клиент-серверной архитектуры;\n-Умеешь развернуто описывать шаги, приведшие к обнаруженной проблеме\n- Понимаешь принципы SCRUM’a;\n- Хочешь прокачаться в автоматизированном тестировании и научиться программировать (если уже умеешь - ещё круче)- \n-Есть понимание значений слов: HTTP, REST API, JSON, Git, SQL, HTML/CSS\n\nЧто предлагаем:\n- Официально оформим, з/п белая,\n- Гибкий график (чаще всего работаем с 10/11);\n- Отлаженные процессы без бюрократии;\n- Работа в современном лофтовом офисе в шаговой доступности от м. ВДНХ со своей парковкой;\n- Комфортное рабочее место, удобное кресло, все необходимое для работы оборудование и ПО (ноутбук DELL, 2 монитора);\n- 50% компенсация ДМС после испытательного срока, обучение за счёт компании;\n- Вкусные бесплатные завтраки, кофе-поинты;\nЕсли нужна помощь в релокации в Москву, расходы берем на себя ;)\n\nОтклики, вопросы, рекомендации: @dariavvk (telegram, FB) или на d.vovk@webinar.ru","markup":[{"type":"hashtag","offset":0,"length":9,"data":"вакансия"},{"type":"hashtag","offset":10,"length":3,"data":"qa"},{"type":"hashtag","offset":14,"length":5,"data":"офис"},{"type":"hashtag","offset":20,"length":7,"data":"москва"},{"type":"hashtag","offset":28,"length":5,"data":"вднх"},{"type":"link","offset":179,"length":10,"data":"http://Webinar.ru"},{"type":"handle","offset":1499,"length":9,"data":"dariavvk"},{"type":"link","offset":1531,"length":17,"data":"mailto:d.vovk@webinar.ru"}],"date":"2020-06-21T12:04:32+00:00","link":"tg://resolve?domain=qa_jobs&post=98574","tags":[{"name":"qa"},{"name":"web"},{"name":"java"},{"name":"rest"},{"name":"json"},{"name":"git"},{"name":"sql"},{"name":"html"},{"name":"css"}],"cities":[{"code":"moscow"}],"allowsRemote":false}},{"node":{"__typename":"Job","id":"17084448768-1001110946746","title":"Javascript разработчик","text":"#вакансия #удаленка #работа #html #css #javascript \n\nГород и адрес офиса: любой\nФормат работы: удаленка\nЗанятость: полная\nЗарплатная вилка:  2000$ - 2400$\n\nИщем крутого верстальщика, фултайм, американский стартап (крутая стартап-корпоративная культура, адекватное начальство, зарплата по курсу в долларах), свой продукт, рост по знаниям и деньгам! \n\nТребования: \n • Уметь в верстку на 10 из 5 (responsive / adaptive, Pixel Perfect, SASS, HTML5, SEO Optimized, дружить с Figma) \n • Быть адекватным - четко соблюдать оговоренные условия (если вы не придете на пару интервью вовремя или любите проспать гибкое начало рабочего дня - не пишите нам) \n • Мочь в письменный английский (а если можете говорить - это +100 к нашей совместимости) \n\nПолная вакансия по ссылке: https://career.habr.com/vacancies/1000059669 \n\nДополнительные инструкции: Пожалуйста, присылайте ссылки на ваше CV, ссылки на LinkedIn / Habr страничку, ссылку на гитхаб и по возможности портфолио на sergey@waltbury.com\n\n—\n\n👉 Обсуждение вакансии в чате @javascript_jobs","markup":[{"type":"hashtag","offset":0,"length":9,"data":"вакансия"},{"type":"hashtag","offset":10,"length":9,"data":"удаленка"},{"type":"hashtag","offset":20,"length":7,"data":"работа"},{"type":"hashtag","offset":28,"length":5,"data":"html"},{"type":"hashtag","offset":34,"length":4,"data":"css"},{"type":"hashtag","offset":39,"length":11,"data":"javascript"},{"type":"link","offset":764,"length":44,"data":"https://career.habr.com/vacancies/1000059669"},{"type":"link","offset":964,"length":19,"data":"mailto:sergey@waltbury.com"},{"type":"handle","offset":1018,"length":16,"data":"javascript_jobs"}],"date":"2020-06-19T19:03:46+00:00","link":"tg://resolve?domain=javascript_jobs_feed&post=16293","tags":[{"name":"javascript"},{"name":"html"},{"name":"css"},{"name":"sass"},{"name":"seo"}],"cities":[],"allowsRemote":true}},{"node":{"__typename":"Job","id":"17081303040-1001110946746","title":"Javascript разработчик","text":"#вакансия #javascript #typescript \n\nFrontend-разработчик (удаленно)\n\nГород и адрес офиса: Санкт-Петербург\nФормат работы: офис или удаленка / full time\nЗанятость: полная\nЗарплатная вилка: от 100К до 280К\n\nОписание вакансии: \n\nОсновной стек технологий — JavaScript, TypeScript, HTML/CSS. Сейчас мы разрабатываем бизнес-функционал приложения и будем рады новому специалисту в нашей команде, который вольется в проект и мы вместе будем делать frontend с нативным кодом и отзывчивым интерфейсом.\n\nМы ожидаем, что у вас есть:\n\n— Хорошее знание JavaScript, TypeScript, HTML/CSS;\n\n— Умение пользоваться отладчиком в браузере;\n\n— Навыки уверенной работы с Git.\n\nРады предложить:\n\n— Возможность работать удаленно;\n\n— Желаемый оклад по результатам собеседования;\n\n— Понятную систему роста зарплаты каждые 6 месяцев, в которой все зависит только от вас;\n\nУ нас есть общие ценности, такие как стремление к качественному результату, забота о продукте и желание двигаться вперед. Также у нас нет “Начальства”, а есть коллеги. Все взаимодействуют горизонтально, работают бок о бок и делают одно общее дело.\n\nБлагодарим за внимание к нашей вакансии, будем рады познакомиться и ответить на ваши вопросы ツ\n\nНазвание компании: Blogman https://orenburg.hh.ru/employer/3069197\nКонтакты: @alinablogman\n\n—\n\n👉 Обсуждение вакансии в чате @javascript_jobs","markup":[{"type":"hashtag","offset":0,"length":9,"data":"вакансия"},{"type":"hashtag","offset":10,"length":11,"data":"javascript"},{"type":"hashtag","offset":22,"length":11,"data":"typescript"},{"type":"link","offset":1215,"length":39,"data":"https://orenburg.hh.ru/employer/3069197"},{"type":"handle","offset":1265,"length":13,"data":"alinablogman"},{"type":"handle","offset":1313,"length":16,"data":"javascript_jobs"}],"date":"2020-06-19T18:48:58+00:00","link":"tg://resolve?domain=javascript_jobs_feed&post=16290","tags":[{"name":"javascript"},{"name":"typescript"},{"name":"html"},{"name":"css"},{"name":"git"}],"cities":[{"code":"orenburg"}],"allowsRemote":true}},{"node":{"__typename":"Job","id":"26480738304-1001075660570","title":"Php разработчик","text":"#вакансия #офис #СанктПетербург #php #nodes\n\nFull stack developer\n\nАдрес: м Чкаловская\nФормат работы: офис\nЗанятость: полная\nЗ.п: 120 000-150 000\n\nРазработчик платформы для приема ставок на киберспортивные Игры и соревнования.\n\nОбязанности:\n\nРазработка высоконагруженных сервисов\nУчастие в проектирование архитектуры системы\nОптимизация производительности систем\nИнтеграции с внешними сервисами\n\nТребования:\n\n- php / node.js\n- MongoDB, MySQL\n- js, css, scss, один из фреймворков - react (mobx), vue\n- опыт разработки парсеров\n- опыт работы с REST API\n- уверенное владение Git\n- понимание что такое s2s, google analytics\n- умение покрывать код трекерами статистики (пиксели, голы, эвенты google analytics и фейсбука, постбеки) и понимание принципов их работы\n- знание английского языка на уровне чтения технической документации\n- автономность, желание разбираться в новом\n\nУсловия:\nОформление по ТК РФ;\nРежим работы 5/2, гибкий графике;\nофис в историческом центре Петербурга, в 10 минутах от метро Чкаловская;\nПеченьки, фрукты, чай и кофе\n\nКонтакты: vp5494@yandex.ru\n@Аnastasia202011","markup":[{"type":"hashtag","offset":0,"length":9,"data":"вакансия"},{"type":"hashtag","offset":10,"length":5,"data":"офис"},{"type":"hashtag","offset":16,"length":15,"data":"СанктПетербург"},{"type":"hashtag","offset":32,"length":4,"data":"php"},{"type":"hashtag","offset":37,"length":6,"data":"nodes"},{"type":"link","offset":1049,"length":16,"data":"mailto:vp5494@yandex.ru"}],"date":"2020-06-19T17:04:53+00:00","link":"tg://resolve?domain=php_jobs&post=25254","tags":[{"name":"php"},{"name":"nodejs"},{"name":"mongodb"},{"name":"mysql"},{"name":"css"},{"name":"reactjs"},{"name":"vuejs"},{"name":"rest"},{"name":"git"},{"name":"google-analytics"}],"cities":[],"allowsRemote":false}},{"node":{"__typename":"Job","id":"26460815360-1001075660570","title":"Php разработчик","text":"#работа #вакансия #удаленка #job #РНР #Yii #Laravel #Symfony \n\nВсем привет! \n\nСейчас нахожусь в поисках РНР разработчика уровня senior в одну из крупнейших ecommerce компаний России - Bork/Technopark. \nНа текущий  момент внутри идет несколько проектов по поддержке и развитию интернет-площадки по продаже бытовой техники и электроники премиум-класса.\n\nПродукты реализуются на стеке: PHP (Yii2), MySql, JS (Vue), HTML, CSS, Gulp, Webpack, SVG, Canvas. \nЗадачи: разработка серверной части веб-проектов на всех этапах (от участия в проектировании архитектуры, до разработки сервисов), участие в митапах для обсуждения предстоящих задач, вносить вклад в планирование архитектуры и т.д.\n\nОсновные требования:\n\n- Опыт коммерческой разработки от 3 лет на PHP (7.1 или выше);\n\n- Хорошие знания современных фреймворков  (YII, Symfony);\n\n- Знание ООП, базовых алгоритмов, шаблонов проектирования, стандартов написания кода.\n\nУсловия: \n\n- ЗП до 250 000 net;\n\n- Полная УДАЛЁНКА; \n\n- Оформление через ИП или как самозанятый; \n\nКто заинтересовался - пишите в ЛС (@nastyaklassnaya),  буду рада пообщаться :)","markup":[{"type":"hashtag","offset":0,"length":7,"data":"работа"},{"type":"hashtag","offset":8,"length":9,"data":"вакансия"},{"type":"hashtag","offset":18,"length":9,"data":"удаленка"},{"type":"hashtag","offset":28,"length":4,"data":"job"},{"type":"hashtag","offset":33,"length":4,"data":"РНР"},{"type":"hashtag","offset":38,"length":4,"data":"Yii"},{"type":"hashtag","offset":43,"length":8,"data":"Laravel"},{"type":"hashtag","offset":52,"length":8,"data":"Symfony"},{"type":"handle","offset":1049,"length":16,"data":"nastyaklassnaya"}],"date":"2020-06-19T13:34:08+00:00","link":"tg://resolve?domain=php_jobs&post=25235","tags":[{"name":"php"},{"name":"yii"},{"name":"laravel"},{"name":"symfony"},{"name":"mysql"},{"name":"vuejs"},{"name":"html"},{"name":"css"},{"name":"gulp"},{"name":"webpack"},{"name":"svg"},{"name":"canvas"},{"name":"dotnet"}],"cities":[],"allowsRemote":true}},{"node":{"__typename":"Job","id":"17072914432-1001110946746","title":"Js разработчик","text":"#вакансия  #backend #nodejs #javascript #удаленка #js #remote\n\nПозиция: Backend developer (Middle)\nКомпания: paradigmfund.io - инвестиционный фонд с офисами в Москве и Токио.\nФормат работы: Удаленка \nЗанятость: Полная с графиком работы (в выходные отдыхаем, в будни работаем по графику, гибкое начало рабочего дня)\nЗарплатная вилка: 110 000-150 000 руб. на руки\nЗадача: Участвовать в разработке новых и текущих it продуктов компании (криптовалютный кошелек, торговая биржа, обменник валют). \n\nТребования:\n- Опыт программирования на чистом JS не менее 3-х лет\n- Опыт программирования под Node.js не менее года\n- Опыт работы с серверами на Ubuntu\n- Знание SQL и особенностей PostgreSQL\n- Умение оптимизировать тяжелые запросы к базе\n- Хороший навык чтения чужого кода и модернизации его\n- Навык анализа новых структур данных и чужих API\n- Навык работы с Git\n- Гибкость, отзывчивость и хорошие soft skills, мы ценим дружелюбную и продуктивную среду, которую мы создали в команде, и надеемся, что вы гармонично в нее впишетесь.\n\nЖелательно:\n- Знание html, css, vue.js\n- Навык работы с docker'ами\n- Умение настраивать NGINX\n- Навык написание unit тестов\n- Навык поиска утечек памяти\n\nПомимо всего вышесказанного, у нас вы получите:\n- Работа в дружной команде, как разработчиков так и управленцев. \n- Профессиональное развитие и новые знания касаемо blockchain технологий.\n- Возможность релокации в офис в Москве.\n- Понятные процессы разработки (Agile, двухнедельные спринты, работаем в Jira и Confluence). \n\nКонтакты:\nМы стремимся постоянно автоматизировать и улучшать наши процессы, поэтому отклик на вакансию просим оставлять через форму: https://forms.gle/L9hWmD18Zs9kMo2E8\nС подходящими кандидатами свяжемся в течение недели, если возникли какие то вопросы, с радостью отвечу на них в лс @grshabl\n\n—\n\n👉 Обсуждение вакансии в чате @javascript_jobs","markup":[{"type":"hashtag","offset":0,"length":9,"data":"вакансия"},{"type":"hashtag","offset":11,"length":8,"data":"backend"},{"type":"hashtag","offset":20,"length":7,"data":"nodejs"},{"type":"hashtag","offset":28,"length":11,"data":"javascript"},{"type":"hashtag","offset":40,"length":9,"data":"удаленка"},{"type":"hashtag","offset":50,"length":3,"data":"js"},{"type":"hashtag","offset":54,"length":7,"data":"remote"},{"type":"link","offset":109,"length":15,"data":"http://paradigmfund.io"},{"type":"link","offset":1636,"length":35,"data":"https://forms.gle/L9hWmD18Zs9kMo2E8"},{"type":"handle","offset":1787,"length":8,"data":"grshabl"},{"type":"handle","offset":1830,"length":16,"data":"javascript_jobs"}],"date":"2020-06-19T10:46:36+00:00","link":"tg://resolve?domain=javascript_jobs_feed&post=16282","tags":[{"name":"javascript"},{"name":"nodejs"},{"name":"ubuntu"},{"name":"sql"},{"name":"postgresql"},{"name":"git"},{"name":"html"},{"name":"css"},{"name":"vuejs"},{"name":"docker"},{"name":"nginx"}],"cities":[{"code":"tokyo"}],"allowsRemote":true}}]}}},"context":{}}