{"hash":"f5f6bf98bd95e769321482904cbbd488f77922fd","data":{"records":{"id":"git","name":"git","belongsTo":{"totalCount":273,"pageInfo":{"totalPages":28,"currentPage":7},"edges":[{"node":{"__typename":"Job","id":"362807296-1001352129329","title":"Golang разработчик","text":"Ребят, всем привет! \nПостараюсь кратко, подробности в ЛС. Заранее напишу, что это Москва (фултайм/офис), компания Lofty. Ищем в команду как Midle так и Senior Go разработчиков.\nВообщем если хочется в highload, добро пожаловать!)\n\nО проекте:\nЭто высоконагруженное backend приложение для рассылки web push-уведомлений, обслуживающее на данный момент более 100млн показов в сутки. \nЧем у нас предстоит заниматься:\nПрофилировать и оптимизировать существующие сервисы;\nПроводить доработки и интеграцию их в действующий код и инфраструктуру;\nРеализовывать новые бизнес-требования внутри сервиса;\nУстранять возникающие баги в сервисе.\n\nЧто мы ждем от кандидата:\nНавыки работы с Git;\nУверенное знание Golang;\nПонимание технологий HTTP, REST;\nОпыт работы в Unix-окружении.\n\nБудет совсем круто, если вы:\nРаботали с highload-проектами;\nПонимаете и уважаете концепцию CI/CD.\nНаш стек технологий: Golang, Gitlab, MySQL, JS, RabbitMQ, Docker, Ansible, Clickhouse\n\nУсловия: \nЗаработная плата от 130 000 до 300 000 руб. на руки, естественно зависит от уровня, преимущественно смотрим \"мидов\", но и \"джуны\" нам тоже интересны.\n\nНаш сайт: `https://www.lofty.today/\n#вакансия#golang","markup":[{"type":"link","offset":1122,"length":24,"data":"https://www.lofty.today/"}],"date":"2020-06-30T08:24:57+00:00","link":"tg://resolve?domain=gogetajobfeed&post=346","tags":[{"name":"go"},{"name":"web"},{"name":"git"},{"name":"rest"},{"name":"unix"},{"name":"gitlab"},{"name":"mysql"},{"name":"rabbitmq"},{"name":"docker"},{"name":"ansible"}],"cities":[{"code":"moscow"}],"allowsRemote":false}},{"node":{"__typename":"Job","id":"104039710720-1001089317451","title":"Qa engineer","text":"#Москва  #QA  #вакансия #офис\nКомпания: Start.ru\n\nМы ищем коллег, которые смогут влиться в нашу команду и вместе с нами развивать и совершенствовать наш сервис!\nУ Вас есть возможность стать частью команды, развивающей первую в Восточной Европе студию с собственным международным VOD сервисом.\nВ данный момент мы усиляем нашу команду по тестированию и в поисках позиций Backend QA Engineer и QA Automation Engineer (python)\n\n———————————\nДолжность: Backend QA Engineer\nЗарплатная вилка: От 80.р. до 120т.р. по результатам собеседования\n\nКакие задачи вы будете решать:\n- Прогон описаных кейсов в TestRail и документация найденых дефектов;\n- Тестирование API (программного интерфейса платформы);\n- Разработка тестовых сценариев;\n- Взаимодействие с разработчиками и сопровождение дефектов до полного их решения;\n- Отладка и сбор логов в процессе воспроизведения проблем\n- Проведение регрессионного тестирования\n\nЧего мы хотим:\n- Вас не пугает работа с командной строкой чаще чем работа с графическим интерфейсом\n- Работа с chromedev tools и командной строкой (bash);\n- Знание и понимания клиент-серверной архитектуры приложений;\n- Понимание принципов работы веб-приложений;\n- Умение грамотно составлять свои мысли в предложения и описывать дефекты, чтобы понятно было разработчикам;\n- Навыки работы с технической документацией, анализ и вычленение требований;\n- Работали с программами-снифферами и проксями траффика (charles/wireshark/fiddler/mitmproxy etc)\n\nБудет плюсом:\n- Если знаете python на уровне, достаточном для автоматизации и сможете прочитать код который на нем написан\n- Знаете что такое DOM-дерево, локаторы и селекторы в контексте веб-приложения\n\n—————————\nДолжность: QA Automation Engineer\nЗарплатная вилка: От 130.р. до 170т.р. по результатам собеседования\n\nУ нас:\nВ нашем проекте есть автоматизация тестирования как API, так и WEB UI. \nНаш стек: Python3, PyTest, Requests, Selenium WebDriver, Selenoid, DB clients (MongoDB, PostgreSQL), JSON validation (jsonschema), TestRail API, Telegram API, GitLab CI. \nПомимо автотестов мы разрабатываем проект нагрузочного тестирования на Locust.\n\nВаши задачи:\n- Расширение покрытия автотестов API, WEB UI\n- Поддержка автотестов в актуальном состоянии\n- Анализ прохождения тестов с возможным заведением багов в Jira\n- Ревью кода\n- Ведение тестовой - документации\n- Написание сценариев нагрузочного тестирования\n\nТребования:\n- Хорошее знание теории тестирования\n- Опыт автоматизированного тестирования от 2х лет\n- Знание Python3, PyTest\n- Навыки написания и использования тестовой документации\n- Умение писать простые запросы на SQL и в MongoDB\n- Навыки работы с Git\n- Обсуждение проблем приложения с разработчиками\n\nБудет плюсом:\n- Опыт написания архитектуры проекта автотестов с нуля\n- Работа с Docker, Docker Compose\n- Опыт работы с Telegram API\n- Опыт описания JSON схем для валидации ответов API\n- Базовые знания в Linux\n\nОт нас:\n- На данный момент условия сотрудничества удаленные, но при нормализации ситуации мы выйдем в офис\n- Офис в районе Хамовники (территориально м.Киевская, м. Спортивная в 20.мин ходьбы)\n- График работы: 5/2 начинаем с 9  до 11 (в целом гибкий - главное результат);\n- Оформление в соответствии с ТК РФ (белая зарплата, отпускные, больничные);\n- Все возможности для прокачки имеющихся скиллов и получения новых;\n- Драйвовая и высокопрофессиональная команда единомышленников;\n- Возможность стать частью динамично развивающегося видеосервиса.\n\n\nВопросы и отклики по вакансии писать в tlgrm: @unambo OR emailto: v.selyanin@start.ru","markup":[{"type":"hashtag","offset":0,"length":7,"data":"Москва"},{"type":"hashtag","offset":9,"length":3,"data":"QA"},{"type":"hashtag","offset":14,"length":9,"data":"вакансия"},{"type":"hashtag","offset":24,"length":5,"data":"офис"},{"type":"link","offset":40,"length":8,"data":"http://Start.ru"},{"type":"handle","offset":3471,"length":7,"data":"unambo"},{"type":"link","offset":3491,"length":19,"data":"mailto:v.selyanin@start.ru"}],"date":"2020-06-30T08:06:32+00:00","link":"tg://resolve?domain=qa_jobs&post=99220","tags":[{"name":"qa"},{"name":"python"},{"name":"bash"},{"name":"web"},{"name":"selenium"},{"name":"mongodb"},{"name":"postgresql"},{"name":"json"},{"name":"gitlab"},{"name":"sql"},{"name":"git"},{"name":"docker"},{"name":"linux"},{"name":"docker-compose"}],"cities":[{"code":"moscow"},{"code":"kiev"}],"allowsRemote":false}},{"node":{"__typename":"Job","id":"72318189568-1001054966032","title":"Ios разработчик","text":"#вакансия #swift #objective-C #ios\n\niOS разработчик удаленно по России \nmiddle/senior\n\nГород : Санкт-Петербург\nФормат работы: офис или удаленно\nЗанятость: Полная\nЗарплатная вилка:  90 000 - 200 000 руб\nОписание компании:\nВ Blogman мы занимаемся разработкой собственного приложения – платформа для блогеров и рекламодателей. В нашей команде уже более 50 разработчиков и мы продолжаем расти. Сейчас мы ищем инженера с опытом коммерческой разработки под iOS\n\nМы ожидаем, что у вас есть:\n— Опыт коммерческой разработки мобильных приложений под iOS;\n— Хорошие знания Swift, UIKit;\n— Опыт работы с мобильными БД;\n— Умение работать с Git, Cocoapods.\n\nБудет плюсом, если вы:\n— Разрабатывали клиент-серверные приложения;\n— Умеете работать с WebSocket;\n— Знаете и понимаете архитектуру VIPER;\n— Командный игрок без яркого эгоцентризма;\n— Готовы активно принимать участие в жизни компании и продукта.\n\nРады предложить:\n– Удаленное сотрудничество или комфортный офис на Невском проспекте в 5 минутах ходьбы от ст. м. Маяковская и Владимирская;\n– Желаемый оклад по результатам собеседования;\n– Понятную систему роста зарплаты каждые 6 месяцев, в которой все зависит только от вас;\n– Все необходимые офисные блага вроде вкусного кофе и т.д.\nВас будут окружать адекватные люди, с которыми комфортно решать поставленные задачи. У сотрудников есть общие ценности, такие как стремление к качественному результату, забота о продукте и желание двигаться вперед. Также у нас нет “Начальства”, а есть коллеги. Все взаимодействуют горизонтально и в команде равенство между инженерами, стейкхолдером, продактом и т.д. Все работают бок о бок и делают одно общее дело.\nНазвание компании: Blogman\nКонтакты: @maria_golovina","markup":[{"type":"hashtag","offset":0,"length":9,"data":"вакансия"},{"type":"hashtag","offset":10,"length":6,"data":"swift"},{"type":"hashtag","offset":17,"length":10,"data":"objective"},{"type":"hashtag","offset":30,"length":4,"data":"ios"},{"type":"bold","offset":223,"length":8,"data":""},{"type":"bold","offset":456,"length":27,"data":""},{"type":"bold","offset":644,"length":22,"data":""},{"type":"bold","offset":891,"length":16,"data":""},{"type":"handle","offset":1680,"length":15,"data":"maria_golovina"}],"date":"2020-06-30T07:56:16+00:00","link":"tg://resolve?domain=mobile_jobs&post=68968","tags":[{"name":"mobile"},{"name":"ios"},{"name":"swift"},{"name":"objective-c"},{"name":"uikit"},{"name":"git"},{"name":"cocoapods"},{"name":"websocket"}],"cities":[],"allowsRemote":true}},{"node":{"__typename":"Job","id":"72308752384-1001054966032","title":"Android разработчик","text":"#вакансия #android #офис #штат #тюмень\n\nИщу Android разработчика (Тюмень) на фултайм в офис.\nКомпания Строительный двор.\n\nЗарплатная вилка 70 000 - 100 000 р./мес. на руки, полностью \"белые\" выплаты, гибкий график, можно периодически работать удаленно, 39-часовая рабочая неделя.\n\nНа текущий момент у нас в работе несколько интересных проектов, один из них – мобильное приложение для формата Дистрибуции. Оно позволяет торговым представителям работать в дистанционном формате, оформляя заказы и выставляя счета.\nСейчас есть большой объем задач по доработке и усовершенствованию этого приложения, а также по добавлению новых функций.\n\nВ первую очередь важно:\nопыт разработки под Android от 2-х лет\nзнание Java (Kotlin будет плюсом);\nпонимание архитектурных паттернов MVP, MVVM, Clean Architecture;\nопыт работы с SQLite, Realm;\nпонимание REST API;\nопыт работы с Git, RxJava 2, Retrofit, FireBase, Dagger2.\n\nБуду рада Вашей обратной связи здесь, по почте oegorova@sdvor.com или в телеграм @ov_egorova","markup":[{"type":"hashtag","offset":0,"length":9,"data":"вакансия"},{"type":"hashtag","offset":10,"length":8,"data":"android"},{"type":"hashtag","offset":19,"length":5,"data":"офис"},{"type":"hashtag","offset":25,"length":5,"data":"штат"},{"type":"hashtag","offset":31,"length":7,"data":"тюмень"},{"type":"link","offset":952,"length":18,"data":"mailto:oegorova@sdvor.com"},{"type":"handle","offset":986,"length":11,"data":"ov_egorova"}],"date":"2020-06-30T06:20:52+00:00","link":"tg://resolve?domain=mobile_jobs&post=68959","tags":[{"name":"mobile"},{"name":"android"},{"name":"java"},{"name":"kotlin"},{"name":"mvvm"},{"name":"sqlite"},{"name":"realm"},{"name":"rest"},{"name":"git"},{"name":"firebase"}],"cities":[{"code":"tyumen"}],"allowsRemote":true}},{"node":{"__typename":"Job","id":"17235443712-1001110946746","title":"Javascript разработчик","text":"#вакансия #frontend #react #typescript #graphQL #junior #middle #senior #lead #москва #офис #fulltime\n\nКомпания: СберТех\nЛокация: г. Москва, м. Савеловская\nФормат работы: офис (до конца июля удаленка), полная занятость\nЗ/п: 100 000 - 230 000 руб. net (+ у нас высокая годовая премия) \n\nВсем привет 🙌\nТут один проект скучает без Frontend-разработчика \n\n💻 Делаем образовательную цифровую платформу - SaaS решение для персонализированного обучения в школах, университетах, IT Bootcamp  Сбербанка. \nПредстоит повышать перфоманс приложения (плановая нагрузка на сентябрь 2020 - 500 000 активных пользователей в день)\n\n🔔 Must have:\nReact, Typescript, HTML5+CSS3, Webpack/аналог, система контроля версий Git, для уровня lead управление командой из 3-6 человек\n\nБудет здорово, если есть\nопыт/желание изучить: GraphQL (Apollo client), уверенное знание ЕS6, Styled-components, Jest/React-testing-library, Code review, адаптивность под мобильные платформы\n\nПредлагаем:\n✔профессиональное развитие: конференции, митапы, обучение в Корпоративном университете Сбербанка\n✔ДМС и страховку от несчастных случаев, льготные условия ипотеки, скидки от компаний-партнеров, бесплатный корпоративный тренажерный зал\n✔офис А класса в БЦ «Северное Сияние» (5 мин. от м. Савеловская), возможность гибкого начала рабочего дня \n\nЕсли интересно - буду рада обсудить, вот мои контакты:\n📲 @karprokar\n📩 KVProlomova@sberbank.ru","markup":[{"type":"hashtag","offset":0,"length":9,"data":"вакансия"},{"type":"hashtag","offset":10,"length":9,"data":"frontend"},{"type":"hashtag","offset":20,"length":6,"data":"react"},{"type":"hashtag","offset":27,"length":11,"data":"typescript"},{"type":"hashtag","offset":39,"length":8,"data":"graphQL"},{"type":"hashtag","offset":48,"length":7,"data":"junior"},{"type":"hashtag","offset":56,"length":7,"data":"middle"},{"type":"hashtag","offset":64,"length":7,"data":"senior"},{"type":"hashtag","offset":72,"length":5,"data":"lead"},{"type":"hashtag","offset":78,"length":7,"data":"москва"},{"type":"hashtag","offset":86,"length":5,"data":"офис"},{"type":"hashtag","offset":92,"length":9,"data":"fulltime"},{"type":"link","offset":568,"length":14,"data":"tel:2020 - 500 000"},{"type":"handle","offset":1361,"length":10,"data":"karprokar"},{"type":"link","offset":1375,"length":23,"data":"mailto:KVProlomova@sberbank.ru"}],"date":"2020-06-29T20:21:25+00:00","link":"tg://resolve?domain=javascript_jobs_feed&post=16437","tags":[{"name":"javascript"},{"name":"reactjs"},{"name":"typescript"},{"name":"graphql"},{"name":"dotnet"},{"name":"html"},{"name":"css"},{"name":"webpack"},{"name":"git"}],"cities":[{"code":"moscow"}],"allowsRemote":true}},{"node":{"__typename":"Job","id":"72299315200-1001054966032","title":"Android developer","text":"#вакансия #Juniorandroid #Android developer #kotlin #удаленно                                                                                                         Уровень дохода:💵 50 000-60 000  рублей net                                                                                                                                                                                 Требуемый опыт работы: от 1 года\nПолная занятость, дистанционно, гибкое начало рабочего дня\n \n📌Требования:\n- Нативная Android разработка (Kotlin)\n- Умение писать поддерживаемый и тестируемый код\n- Умение работать с Dagger 2\n- Умение работать с git\n- Желание развиваться и изучать новое в разработке\n- Опыт разработки приложений от 1 года\n -Знание английского языка от уровня Intermediate\n \n📌Будет плюсом:\n- Опыт работы с JNI\n- Опыт использования tensorflow\n- Опыт работы с аудио и видео\n\n📌Условия:\n- Отсутствие бюрократии\n- Время начала рабочего дня обговариваем индивидуально\n- Крутой инновационный проект - возможность самореализации и профессионального роста\n- Стабильное зарубежное финансирование\n- Десятки миллионов установок и множество глобальных партнёров\n📞Контакты @SvetikS_hr +7(963)-632-12-36 Cветлана","markup":[{"type":"hashtag","offset":0,"length":9,"data":"вакансия"},{"type":"hashtag","offset":10,"length":14,"data":"Juniorandroid"},{"type":"hashtag","offset":25,"length":8,"data":"Android"},{"type":"hashtag","offset":44,"length":7,"data":"kotlin"},{"type":"hashtag","offset":52,"length":9,"data":"удаленно"},{"type":"link","offset":184,"length":13,"data":"tel:50 000-60 000"},{"type":"handle","offset":1164,"length":11,"data":"SvetikS_hr"},{"type":"link","offset":1176,"length":17,"data":"tel:+7(963)-632-12-36"}],"date":"2020-06-29T18:30:37+00:00","link":"tg://resolve?domain=mobile_jobs&post=68950","tags":[{"name":"mobile"},{"name":"android"},{"name":"kotlin"},{"name":"dotnet"},{"name":"git"},{"name":"tensorflow"}],"cities":[],"allowsRemote":true}},{"node":{"__typename":"Job","id":"17229152256-1001110946746","title":"Javascript разработчик","text":"#вакансия #middledev #frontend #javascript #react #fulltime \n\nЛокация: Казахстан, город Алматы\nФормат работы: офис или удаленка\nЗанятость: полная\nЗарплатная вилка: 70к – 100к рублей (350К - 600К тенге)\n\nОписание вакансии:\n\nMiddle React Frontend Developer\n\nОбязанности:\n • Проектирование и разработка удобных и практичных интерфейсов веб-приложений;\n • Кроссбраузерная и адаптивная верстка компонентов системы;\n • Интеграция с серверной частью через API;\n • Поддержка и развитие существующих проектов;\n • Тестирование и оптимизация написанного кода;\n • Участие в проектировании архитектуры систем;\n • Планирование работы и оценка задач;\n • Взаимодействие с backend-разработчиками, менеджером проекта и архитектором  системы;\n\nТребования:\n • Уверенное владение и реальный опыт работы с React;\n • Знание библиотек Redux/Next, TypeScript;\n • Уверенное знание Javascript (ES6+);\n • Владение HTML5 и CSS3 (адаптивная, кроссбраузерная, семантическая верстка);\n • Умение работать с системой контроля версий (Git);\n • Знание современных парадигм программирования, умение писать чистый и быстрый код;\n • Знание архитектуры веб приложения и принципов клиент-серверного взаимодействия;\n • Знание английского языка на уровне чтения технической документации и зарубежных ресурсов;\n • Знание препроцессоров (SASS, SCSS, Stylus, Pug);\n • Хорошие навыки работы со сборщиками (Webpack, Gulp);\n • Postman / Swagger UI;\n\nНазвание компании: KIT SYSTEMS (разработка CRM / ERP / BMP систем управления)\n\nКонтакты: Писать @askhhh или звонить по номеру +77010999936","markup":[{"type":"hashtag","offset":0,"length":9,"data":"вакансия"},{"type":"hashtag","offset":10,"length":10,"data":"middledev"},{"type":"hashtag","offset":21,"length":9,"data":"frontend"},{"type":"hashtag","offset":31,"length":11,"data":"javascript"},{"type":"hashtag","offset":43,"length":6,"data":"react"},{"type":"hashtag","offset":50,"length":9,"data":"fulltime"},{"type":"handle","offset":1497,"length":7,"data":"askhhh"},{"type":"link","offset":1527,"length":12,"data":"tel:+77010999936"}],"date":"2020-06-29T16:13:31+00:00","link":"tg://resolve?domain=javascript_jobs_feed&post=16431","tags":[{"name":"javascript"},{"name":"reactjs"},{"name":"redux"},{"name":"typescript"},{"name":"html"},{"name":"css"},{"name":"git"},{"name":"sass"},{"name":"webpack"},{"name":"gulp"},{"name":"swagger"}],"cities":[{"code":"almaty"}],"allowsRemote":true}},{"node":{"__typename":"Job","id":"72286732288-1001054966032","title":"Ios разработчик","text":"#вакансия #ios #офис #удаленка #Москва #fulltime\n\nГород: Москва\nФормат работы: офис/удаленная работа\nЗанятость: полная\nЗарплатная вилка: от 130 000 до 200 000\n\nКомпания: Лига Цифровой Экономики \n\nЛига Цифровой Экономики — это 3 500 человек и  1 000 проектов цифровой трансформации каждый год!\n\nНаши клиенты — лидеры рынка в ключевых отраслях экономики и государственного сектора. Мы гордимся нашей экспертизой и знаковыми проектами.\n\n🟢Мы пишем iOS-приложение для крупного ритейлера по продаже электроники и уже прошли довольно большой путь. Как ты уже понял, останавливаться мы не собираемся.\n\nМы постоянно растём и прямо сейчас ищем в команду хорошего iOS-разработчика, который будет с нами и в горе, и в радости.\n\nМы разрабатываем на последней версии Swift, используем VIPER. А также, пишем unit-тесты, используем моднейший CI/CD, ратуем за чистую архитектуру и не боимся экспериментировать.\n\n🔹Чего тебя ждёт на нашем проекте:\n\nРазработка нового функционала приложения – на горизонте маячит большое количество интересных фич, включая геймификацию.\nПоддержка и сопровождение существующего функционала – приложение уже довольно большое и за ним нужно ухаживать: не давать зарастать багами и следить за unit-тестами;\nУчастие в обсуждениях по развитию приложения и его архитектуры;\nРефакторинг устаревших модулей проекта;\n\n🔹Кого мы ищем:\n\nУверенное знание языка Swift, UIKit, Foundation и среды разработки в целом;\nПонимание архитектуры VIPER;\nОпыт написания Unit-тестов приветствуется;\nПонимание принципов SOLID;\nОпыт работы с системами контроля версий (Git);\nКоммуникабельность;\nЖелание обучаться и развиваться;\nУмение разбираться в чужом коде без приступов тошноты.\n\nПо всем вопросам пишите в ЛС: @Bogdan_Ln","markup":[{"type":"hashtag","offset":0,"length":9,"data":"вакансия"},{"type":"hashtag","offset":10,"length":4,"data":"ios"},{"type":"hashtag","offset":15,"length":5,"data":"офис"},{"type":"hashtag","offset":21,"length":9,"data":"удаленка"},{"type":"hashtag","offset":31,"length":7,"data":"Москва"},{"type":"hashtag","offset":39,"length":9,"data":"fulltime"},{"type":"handle","offset":1701,"length":10,"data":"Bogdan_Ln"}],"date":"2020-06-29T15:45:55+00:00","link":"tg://resolve?domain=mobile_jobs&post=68938","tags":[{"name":"mobile"},{"name":"ios"},{"name":"swift"},{"name":"uikit"},{"name":"git"}],"cities":[{"code":"moscow"}],"allowsRemote":true}},{"node":{"__typename":"Job","id":"17224957952-1001110946746","title":"Js разработчик","text":"#вакансия #москва #middle #remote #angular #fulltime #офис\n\nИщем frontend разработчика для работы над основным сайтом и новыми разделами.\nГород и адрес офиса: Москва, м. Авиамоторная\nФормат работы: Офис\nЗанятость: полная\nЗарплатная вилка: 130 000 — 150 000 на руки по результатам технического собеседования\n\nAutospot.ru — онлайн гипермаркет автомобилей. \n\nВ 2018 году Mitsubishi Corporation и Mail.ru. оценили нас в $19,1 млн.\n\nВ технической команде 17 человек: СТО, 9 PHP разработчиков, 2 frontend разработчика, 3 тестировщика, DevOps.\n\nЧеловек нужен в Москве или готовый в эту самую Москву переехать.\n\nОбязанности:\n▫️Разработка компонентов и адаптация/интеграция сторонних библиотек и плагинов;\n▫️ Верстка новых разделов, кроссбраузерная, адаптивная, валидная;\n▫️ Развитие библиотеки UI компонентов;\n▫️ Оперативное исправление багов на проде (IE 11+);\n▫️ Помощь в оптимизации работы сайта (скорость загрузки, оптимизация DOM).\n\nТребования:\n▪️ Опыт разработки от 2 лет;\n▪️ Знание JavaScript (jQuery в разумных пределах);\n▪️ Уверенное знание html семантическая верстка, БЭМ, SCSS;\n▪️ Знание работы GIT & NPM;\n▪️ Опыт работы с gulp/webpack;\n▪️ Опыт работы с Figma/Zeplin;\n▪️ Опыт работы с векторной графикой (svg и svg-спрайты).\n\nЖелательно:\n◾️ Хорошее знание Vue.js и/или Angular 5+. Работать надо будет и с тем и с другим. Angular 5+ в приоритете, планируется переход полностью на него;\n◾️ Знание инструментов организации разработки Jira;\n◾️ Знание нюансов работы браузеров на разных устройствах и ОС;\n◾️ Опыт сео оптимизации;\n◾️ Понимание, что такое доступные интерфейсы;\n\nУсловия:\n▫️ Комфортабельный офис, БЦ Light Tower, бесплатный шаттл от м. Площадь Ильича;\n▫️ Оформление по ТК РФ с первого рабочего дня;\n▫️ Гибкое начало рабочего дня, с 9 до 11;\n▫️ Возможность работать 1-2 дня удалённо;\n▫️ Полностью белая заработная плата;\n▫️ Неформальная атмосфера и дружный, амбициозный коллектив;\n▫️ Корпоративная скидка на изучение английского языка.\n\nКонтакт: @dianadoma","markup":[{"type":"hashtag","offset":0,"length":9,"data":"вакансия"},{"type":"hashtag","offset":10,"length":7,"data":"москва"},{"type":"hashtag","offset":18,"length":7,"data":"middle"},{"type":"hashtag","offset":26,"length":7,"data":"remote"},{"type":"hashtag","offset":34,"length":8,"data":"angular"},{"type":"hashtag","offset":43,"length":9,"data":"fulltime"},{"type":"hashtag","offset":53,"length":5,"data":"офис"},{"type":"link","offset":308,"length":11,"data":"http://Autospot.ru"},{"type":"link","offset":393,"length":7,"data":"http://Mail.ru"},{"type":"handle","offset":1957,"length":10,"data":"dianadoma"}],"date":"2020-06-29T15:32:23+00:00","link":"tg://resolve?domain=javascript_jobs_feed&post=16427","tags":[{"name":"javascript"},{"name":"angularjs"},{"name":"php"},{"name":"jquery"},{"name":"html"},{"name":"git"},{"name":"npm"},{"name":"gulp"},{"name":"webpack"},{"name":"svg"},{"name":"vuejs"}],"cities":[{"code":"moscow"}],"allowsRemote":true}},{"node":{"__typename":"Job","id":"26800553984-1001075660570","title":"Php разработчик","text":"#разработчикБитрикс #Битрикс #PHPразработчик #ProgressiveMedia #вакансия \n\nProgressive Media приглашает в штат разработчиков PHP/ 1С-Битрикс (удаленно, полная занятость). Работа в проектных группах. Чистый бэкэнд-кодинг, интересные формализованные задачи. \n\n✅Обязанности: \n- Создание бэкенда на PHP на базе Bitrix framework \n- Интеграция фронтенда \n- Разработка сервисов интеграции с различными ERP и CRM-системами \n\n✅Требуется: \n- PHP, MySQL \n- Знание принципов ООП (PHP7) \n- HTML5, CSS3, JavaScript, JQuery, SQL для интеграции фронтенда \n- знание Bitrix framework \n- Знание ядра Bitrix D7 \n\n✅Предлагаем: \n- Удаленная работа \n- Белая ЗП \n- Используем GIT и сервис деплоймента \n\n📩📩📩Для резюме: shevchenko@progressivemedia.ru","markup":[{"type":"hashtag","offset":0,"length":19,"data":"разработчикБитрикс"},{"type":"hashtag","offset":20,"length":8,"data":"Битрикс"},{"type":"hashtag","offset":29,"length":15,"data":"PHPразработчик"},{"type":"hashtag","offset":45,"length":17,"data":"ProgressiveMedia"},{"type":"hashtag","offset":63,"length":9,"data":"вакансия"},{"type":"bold","offset":111,"length":17,"data":""},{"type":"bold","offset":142,"length":26,"data":""},{"type":"link","offset":697,"length":30,"data":"mailto:shevchenko@progressivemedia.ru"}],"date":"2020-06-29T14:45:14+00:00","link":"tg://resolve?domain=php_jobs&post=25559","tags":[{"name":"php"},{"name":"mysql"},{"name":"html"},{"name":"css"},{"name":"javascript"},{"name":"jquery"},{"name":"sql"},{"name":"git"}],"cities":[],"allowsRemote":true}}]}}},"context":{}}