{"hash":"f5f6bf98bd95e769321482904cbbd488f77922fd","data":{"records":{"id":"russia/ulyanovsk","country":{"code":"russia","ruName":"Россия","enName":"Russia"},"city":{"code":"ulyanovsk","ruName":"Ульяновск","enName":"Ulyanovsk"},"belongsTo":{"totalCount":18,"pageInfo":{"totalPages":2,"currentPage":1},"edges":[{"node":{"__typename":"Job","id":"104318631936-1001089317451","title":"Qa инженер","text":"🐞🐞🐞#вакансия #QA #Ульяновск #Саранск #Казань #Самара #Уфа #Краснодар #офис #удаленная_работа\n\n🔍Middle QA-специалист🔎\n\n⚡️Компания: Simbirsoft (более 19 лет на рынке, более 700 сотрудников в штате)\n\nОчень ждем тебя, наш будущий коллега и борец за качественное ПО! :)\n\n📌Твои будущие задачи:\n• тестирование ПО (frontend, backend, API);\n• локализация и документирование найденных дефектов;\n• ведение и оптимизация тестовой документации;\n• контроль качества на всех этапах разработки ПО;\n• выстраивание и оптимизация процессов тестирования ПО.\n\n📌Что мы ждем от тебя:\n• наличие опыта от 2 лет в направлениях QA или тестирования ПО;\n• понимание разницы между QA и тестированием ПО;\n• понимание особенностей гибких методологий;\n• уверенное владение техниками тест-дизайна;\n• знание клиент-серверной архитектуры;\n• понимание особенностей тестирования web, mobile и desktop приложений;\n• навык тестирования API;\n• написание запросов SQL;\n• опыт работы с системами контроля версий (git);\n• знание основных команд работы с консолью (Windows/Linux).\n\n📌Что мы предлагаем:\n• Полностью белая ЗП два раза в месяц;\n• Оформление по ТК РФ;\n• Высокий уровень экспертности внутри компании, которым мы делимся друг с другом;\n• Перспективы вертикального и горизонтального роста;\n• Работа на российских и международных проектах;\n• Оборудованное рабочее место и парк тестовых устройств;\n• Подготовка и прохождение сертификации ISTQB бесплатно;\n• Внутренние и внешние курсы, доклады, конференции;\n• Бесплатные чай, кофе, печеньки в офисе;\n• Корпоративная спортивная программа (оплата тематических секций, частичная компенсация абонемента);\n• Проведение летних и зимних корпоративов, дня именинника, совместные походы и т.д.\n\n📌Зарплата:\n• от 50 000 (Договорная, по итогу собеседования)\n\n☎️Контакты:\nAlena","markup":[{"type":"hashtag","offset":6,"length":9,"data":"вакансия"},{"type":"hashtag","offset":16,"length":3,"data":"QA"},{"type":"hashtag","offset":20,"length":10,"data":"Ульяновск"},{"type":"hashtag","offset":31,"length":8,"data":"Саранск"},{"type":"hashtag","offset":40,"length":7,"data":"Казань"},{"type":"hashtag","offset":48,"length":7,"data":"Самара"},{"type":"hashtag","offset":56,"length":4,"data":"Уфа"},{"type":"hashtag","offset":61,"length":10,"data":"Краснодар"},{"type":"hashtag","offset":72,"length":5,"data":"офис"},{"type":"hashtag","offset":78,"length":17,"data":"удаленная_работа"}],"date":"2020-07-03T05:58:13+00:00","link":"tg://resolve?domain=qa_jobs&post=99486","tags":[{"name":"qa"},{"name":"web"},{"name":"mobile"},{"name":"sql"},{"name":"git"},{"name":"windows"},{"name":"linux"}],"cities":[{"code":"ulyanovsk"},{"code":"saransk"},{"code":"kazan"},{"code":"samara"},{"code":"ufa"},{"code":"krasnodar"}],"allowsRemote":true}},{"node":{"__typename":"Job","id":"104216920064-1001089317451","title":"Qa engineer","text":"#вакансия #Ульяновск #QA #fulltime #офис #manual #relocate\n\n🔸 manual QA engineer \n🔸 Ульяновск, офис, remote не рассматриваем (но пока удаленно из-за covid)\n🔸 Dualboot Partners (NC, USA)\n🔸 от $1000\n\nОт вас:\n\n- нужно очень хорошо тестировать web- и mobile-приложения, API, нужны уверенные скиллы в этом\n- эрудиция в web-технологиях\n- опыт работы с различными инструментами для тестирования\n- умение работать самостоятельно и ответственно\n- вся документация и общение с клиентом на английском, соответственно, уровень хотя бы базовый необходим\n- есть проекты, покрываемые автотестами, поэтому умение их разрабатывать может быть плюсом и пригодиться в будущем\n\nОт нас:\n\n- ноль лишней бюрократии\n- з/п в $ официально\n- уроки английского от компании\n- MacBook Pro для работы (через 1 год работы он переходит во владение сотруднику)\n- очень крутой офис-коттедж в центре города (да, Ульяновск) с кучей вкусностей и прочими радостями\n- команда - молодые, разносторонние и очень скилловые люди\n- гибкий график и вообще всевозможные свободы, не мешающие эффективно работать\n- помощь при переезде в Ульяновск\n\nБуду рада ответить на любые вопросы,  @alina_fatkhutdinova","markup":[{"type":"hashtag","offset":0,"length":9,"data":"вакансия"},{"type":"hashtag","offset":10,"length":10,"data":"Ульяновск"},{"type":"hashtag","offset":21,"length":3,"data":"QA"},{"type":"hashtag","offset":25,"length":9,"data":"fulltime"},{"type":"hashtag","offset":35,"length":5,"data":"офис"},{"type":"hashtag","offset":41,"length":7,"data":"manual"},{"type":"hashtag","offset":49,"length":9,"data":"relocate"},{"type":"handle","offset":1140,"length":20,"data":"alina_fatkhutdinova"}],"date":"2020-07-02T12:12:53+00:00","link":"tg://resolve?domain=qa_jobs&post=99389","tags":[{"name":"qa"},{"name":"web"},{"name":"mobile"}],"cities":[{"code":"ulyanovsk"}],"allowsRemote":true}},{"node":{"__typename":"Job","id":"104170782720-1001089317451","title":"Qa инженер","text":"🐞🐞🐞#вакансия #QA #Ульяновск #Саранск #Казань #Самара #Уфа #Краснодар #офис #удаленная_работа\n\n🔍Middle QA-специалист🔎\n\n⚡️Компания: Simbirsoft (более 19 лет на рынке, более 700 сотрудников в штате)\n\nОчень ждем тебя, наш будущий коллега и борец за качественное ПО! ☺️\n\n📌Твои будущие задачи:\n• тестирование ПО (frontend, backend, API);\n• локализация и документирование найденных дефектов;\n• ведение и оптимизация тестовой документации;\n• контроль качества на всех этапах разработки ПО;\n• выстраивание и оптимизация процессов тестирования ПО.\n\n📌Что мы ждем от тебя:\n• наличие опыта от 2 лет в направлениях QA или тестирования ПО;\n• понимание разницы между QA и тестированием ПО;\n• понимание особенностей гибких методологий;\n• уверенное владение техниками тест-дизайна;\n• знание клиент-серверной архитектуры;\n• понимание особенностей тестирования web, mobile и desktop приложений;\n• навык тестирования API;\n• написание запросов SQL;\n• опыт работы с системами контроля версий (git);\n• знание основных команд работы с консолью (Windows/Linux).\n\n📌Что мы предлагаем:\n• Полностью белая ЗП два раза в месяц;\n• Оформление по ТК РФ;\n• Высокий уровень экспертности внутри компании, которым мы делимся друг с другом;\n• Перспективы вертикального и горизонтального роста;\n• Работа на российских и международных проектах;\n• Оборудованное рабочее место и парк тестовых устройств;\n• Подготовка и прохождение сертификации ISTQB бесплатно;\n• Внутренние и внешние курсы, доклады, конференции;\n• Бесплатные чай, кофе, печеньки в офисе;\n• Корпоративная спортивная программа (оплата тематических секций, частичная компенсация абонемента);\n• Проведение летних и зимних корпоративов, дня именинника, совместные походы и т.д.\n\n📌Зарплата:\n• от 50 000 (Договорная, по итогу собеседования)\n\n☎️Контакты: @julia_kli","markup":[{"type":"hashtag","offset":6,"length":9,"data":"вакансия"},{"type":"hashtag","offset":16,"length":3,"data":"QA"},{"type":"hashtag","offset":20,"length":10,"data":"Ульяновск"},{"type":"hashtag","offset":31,"length":8,"data":"Саранск"},{"type":"hashtag","offset":40,"length":7,"data":"Казань"},{"type":"hashtag","offset":48,"length":7,"data":"Самара"},{"type":"hashtag","offset":56,"length":4,"data":"Уфа"},{"type":"hashtag","offset":61,"length":10,"data":"Краснодар"},{"type":"hashtag","offset":72,"length":5,"data":"офис"},{"type":"hashtag","offset":78,"length":17,"data":"удаленная_работа"},{"type":"handle","offset":1779,"length":10,"data":"julia_kli"}],"date":"2020-07-02T06:05:28+00:00","link":"tg://resolve?domain=qa_jobs&post=99345","tags":[{"name":"qa"},{"name":"web"},{"name":"mobile"},{"name":"sql"},{"name":"git"},{"name":"windows"},{"name":"linux"}],"cities":[{"code":"ulyanovsk"},{"code":"saransk"},{"code":"kazan"},{"code":"samara"},{"code":"ufa"},{"code":"krasnodar"}],"allowsRemote":true}},{"node":{"__typename":"Job","id":"104136179712-1001089317451","title":"Qa engineer","text":"#вакансия #Ульяновск #QA #fulltime #офис #manual #relocate\n\n🔸 manual QA engineer \n🔸 Ульяновск, офис, remote не рассматриваем (но пока удаленно из-за covid)\n🔸 Dualboot Partners (NC, USA)\n🔸 от $1000\n\nОт вас:\n\n- нужно очень хорошо тестировать web- и mobile-приложения, API, нужны уверенные скиллы в этом\n- эрудиция в web-технологиях\n- опыт работы с различными инструментами для тестирования\n- умение работать самостоятельно и ответственно\n- вся документация и общение с клиентом на английском, соответственно, уровень хотя бы базовый необходим\n- есть проекты, покрываемые автотестами, поэтому умение их разрабатывать может быть плюсом и пригодиться в будущем\n\nОт нас:\n\n- ноль лишней бюрократии\n- з/п в $ официально\n- уроки английского от компании\n- MacBook Pro для работы (через 1 год работы он переходит во владение сотруднику)\n- очень крутой офис-коттедж в центре города (да, Ульяновск) с кучей вкусностей и прочими радостями\n- команда - молодые, разносторонние и очень скилловые люди\n- гибкий график и вообще всевозможные свободы, не мешающие эффективно работать\n- помощь при переезде в Ульяновск\n\nБуду рада ответить на любые вопросы,  @alina_fatkhutdinova","markup":[{"type":"hashtag","offset":0,"length":9,"data":"вакансия"},{"type":"hashtag","offset":10,"length":10,"data":"Ульяновск"},{"type":"hashtag","offset":21,"length":3,"data":"QA"},{"type":"hashtag","offset":25,"length":9,"data":"fulltime"},{"type":"hashtag","offset":35,"length":5,"data":"офис"},{"type":"hashtag","offset":41,"length":7,"data":"manual"},{"type":"hashtag","offset":49,"length":9,"data":"relocate"},{"type":"handle","offset":1140,"length":20,"data":"alina_fatkhutdinova"}],"date":"2020-07-01T11:33:07+00:00","link":"tg://resolve?domain=qa_jobs&post=99312","tags":[{"name":"qa"},{"name":"web"},{"name":"mobile"}],"cities":[{"code":"ulyanovsk"}],"allowsRemote":true}},{"node":{"__typename":"Job","id":"17271095296-1001110946746","title":"Js разработчик","text":"#вакансия #vacancy #удаленка #fullstack #nodejs #javascript #remote #remotly #удаленнаяработа #удалённая работа\n\nГород и адрес офиса:Санкт-Петербург,Москва,Ульяновск,Обнинск,Калуга,Казань,Харьков,Минск,Гомель-центр города+удалённое сотрудничество\nФормат работы:офис или удалёнка\nЗанятость: полная\nЗарплатная вилка:$1500-$2000\nОписание вакансии:\n\nИщем опытного и талантливого Full Stack девелопера в команду разработки ERP системы по продаже авиа запчастей и поддержания летной годности.\n\nСсылка на описание системы: http://www.erp.aero/\n\nЧто будет входить в задачи:\n\n🚀Бэкенд-разработка;\n🚀Фронт-енд-разработка;\n🚀Разработка архитектуры модулей приложения;\n🚀Написание документации.\n\nЧто мы ожидаем от кандидата:\n\n⚓️Опыт разработки с использованием Node.js;\n✈️Опыт разработки с использованием Vue.js;\n🚁Знание RabbitMQ;\n⛵️JavaScript (ES6);\n🛥БД MySQL;\n🛳Знание протокола WebSocket и принципов его работы;\n🚢Технический английский.\n\nБольшим плюсом будет:\n\n🛸Фреймворк Express.js;\n🏍Понимание работы с Amazon Web Services;\n🛵Оптимизация проекта под высокие нагрузки;\n🚠Понимание работы «облачных» приложений SaaS.\n\nЧто мы предлагаем:\n🇺🇸Работу в Американской компании\n🔥Возможность удалённой работы\n💵Официальное оформление- заключается договор с нашей ШК в Сан-Франциско по ИП\n☀️Гибкое начало рабочего дня\n💊ДМС\n🏖Оплачиваемый отпуск\n🎓75% компенсация стоимости курсов английского языка\nНазвание компании:  XIM, Ink. https://ximxim.com/\n\nОтклики и рекомендации направляйте, пожалуйста, сюда 👉 @veronikaborisovahr","markup":[{"type":"hashtag","offset":0,"length":9,"data":"вакансия"},{"type":"hashtag","offset":10,"length":8,"data":"vacancy"},{"type":"hashtag","offset":19,"length":9,"data":"удаленка"},{"type":"hashtag","offset":29,"length":10,"data":"fullstack"},{"type":"hashtag","offset":40,"length":7,"data":"nodejs"},{"type":"hashtag","offset":48,"length":11,"data":"javascript"},{"type":"hashtag","offset":60,"length":7,"data":"remote"},{"type":"hashtag","offset":68,"length":8,"data":"remotly"},{"type":"hashtag","offset":77,"length":16,"data":"удаленнаяработа"},{"type":"hashtag","offset":94,"length":10,"data":"удалённая"},{"type":"link","offset":516,"length":20,"data":"http://www.erp.aero/"},{"type":"link","offset":1417,"length":19,"data":"https://ximxim.com/"},{"type":"handle","offset":1494,"length":19,"data":"veronikaborisovahr"}],"date":"2020-06-30T16:10:03+00:00","link":"tg://resolve?domain=javascript_jobs_feed&post=16471","tags":[{"name":"javascript"},{"name":"nodejs"},{"name":"vuejs"},{"name":"rabbitmq"},{"name":"mysql"},{"name":"websocket"},{"name":"express"},{"name":"web"},{"name":"amazon-web-services"}],"cities":[{"code":"moscow"},{"code":"ulyanovsk"},{"code":"obninsk"},{"code":"kaluga"},{"code":"kazan"},{"code":"minsk"},{"code":"gomel"}],"allowsRemote":true}},{"node":{"__typename":"Job","id":"103885570048-1001089317451","title":"Qa engineer","text":"#вакансия #Ульяновск #QA #fulltime #офис #manual #relocate\n\n🔸 manual QA engineer \n🔸 Ульяновск, офис, remote не рассматриваем (но пока удаленно из-за covid)\n🔸 Dualboot Partners (NC, USA)\n🔸 вилка $1000-$3000\n\nОт вас:\n\n- нужно очень хорошо тестировать web- и mobile-приложения, API, нужны уверенные скиллы в этом\n- эрудиция в web-технологиях\n- опыт работы с различными инструментами для тестирования\n- умение работать самостоятельно и ответственно\n- вся документация и общение с клиентом на английском, соответственно, уровень хотя бы базовый необходим\n- есть проекты, покрываемые автотестами, поэтому умение их разрабатывать может быть плюсом и пригодиться в будущем\n\nОт нас:\n\n- ноль лишней бюрократии\n- з/п в $ официально\n- уроки английского от компании\n- MacBook Pro для работы (через 1 год работы он переходит во владение сотруднику)\n- очень крутой офис-коттедж в центре города (да, Ульяновск) с кучей вкусностей и прочими радостями\n- команда - молодые, разносторонние и очень скилловые люди\n- гибкий график и вообще всевозможные свободы, не мешающие эффективно работать\n- помощь при переезде в Ульяновск\n\nБуду рада ответить на любые вопросы,  @alina_fatkhutdinova","markup":[{"type":"hashtag","offset":0,"length":9,"data":"вакансия"},{"type":"hashtag","offset":10,"length":10,"data":"Ульяновск"},{"type":"hashtag","offset":21,"length":3,"data":"QA"},{"type":"hashtag","offset":25,"length":9,"data":"fulltime"},{"type":"hashtag","offset":35,"length":5,"data":"офис"},{"type":"hashtag","offset":41,"length":7,"data":"manual"},{"type":"hashtag","offset":49,"length":9,"data":"relocate"},{"type":"handle","offset":1149,"length":20,"data":"alina_fatkhutdinova"}],"date":"2020-06-27T19:00:16+00:00","link":"tg://resolve?domain=qa_jobs&post=99073","tags":[{"name":"qa"},{"name":"web"},{"name":"mobile"}],"cities":[{"code":"ulyanovsk"}],"allowsRemote":true}},{"node":{"__typename":"Job","id":"103833141248-1001089317451","title":"Qa инженер","text":"🐞🐞🐞#вакансия #QA #Ульяновск #Саранск #Казань #Самара #Уфа #Краснодар #офис #удаленная_работа\n\n🔍Middle QA-специалист🔎\n\n⚡️Компания: Simbirsoft (более 19 лет на рынке, более 700 сотрудников в штате)\n\nОчень ждем тебя, наш будущий коллега и борец за качественное ПО! :)\n\n📌Твои будущие задачи:\n• тестирование ПО (frontend, backend, API);\n• локализация и документирование найденных дефектов;\n• ведение и оптимизация тестовой документации;\n• контроль качества на всех этапах разработки ПО;\n• выстраивание и оптимизация процессов тестирования ПО.\n\n📌Что мы ждем от тебя:\n• наличие опыта от 2 лет в направлениях QA или тестирования ПО;\n• понимание разницы между QA и тестированием ПО;\n• понимание особенностей гибких методологий;\n• уверенное владение техниками тест-дизайна;\n• знание клиент-серверной архитектуры;\n• понимание особенностей тестирования web, mobile и desktop приложений;\n• навык тестирования API;\n• написание запросов SQL;\n• опыт работы с системами контроля версий (git);\n• знание основных команд работы с консолью (Windows/Linux).\n\n📌Что мы предлагаем:\n• Полностью белая ЗП два раза в месяц;\n• Оформление по ТК РФ;\n• Высокий уровень экспертности внутри компании, которым мы делимся друг с другом;\n• Перспективы вертикального и горизонтального роста;\n• Работа на российских и международных проектах;\n• Оборудованное рабочее место и парк тестовых устройств;\n• Подготовка и прохождение сертификации ISTQB бесплатно;\n• Внутренние и внешние курсы, доклады, конференции;\n• Бесплатные чай, кофе, печеньки в офисе;\n• Корпоративная спортивная программа (оплата тематических секций, частичная компенсация абонемента);\n• Проведение летних и зимних корпоративов, дня именинника, совместные походы и т.д.\n\n📌Зарплата:\n• от 50 000 (Договорная, по итогу собеседования)\n\n☎️Контакты:\n@nataly_max","markup":[{"type":"hashtag","offset":6,"length":9,"data":"вакансия"},{"type":"hashtag","offset":16,"length":3,"data":"QA"},{"type":"hashtag","offset":20,"length":10,"data":"Ульяновск"},{"type":"hashtag","offset":31,"length":8,"data":"Саранск"},{"type":"hashtag","offset":40,"length":7,"data":"Казань"},{"type":"hashtag","offset":48,"length":7,"data":"Самара"},{"type":"hashtag","offset":56,"length":4,"data":"Уфа"},{"type":"hashtag","offset":61,"length":10,"data":"Краснодар"},{"type":"hashtag","offset":72,"length":5,"data":"офис"},{"type":"hashtag","offset":78,"length":17,"data":"удаленная_работа"},{"type":"handle","offset":1779,"length":11,"data":"nataly_max"}],"date":"2020-06-26T14:16:52+00:00","link":"tg://resolve?domain=qa_jobs&post=99023","tags":[{"name":"qa"},{"name":"web"},{"name":"mobile"},{"name":"sql"},{"name":"git"},{"name":"windows"},{"name":"linux"}],"cities":[{"code":"ulyanovsk"},{"code":"saransk"},{"code":"kazan"},{"code":"samara"},{"code":"ufa"},{"code":"krasnodar"}],"allowsRemote":true}},{"node":{"__typename":"Job","id":"103771275264-1001089317451","title":"Qa engineer","text":"#вакансия #Ульяновск #QA #fulltime #офис #manual #relocate\n\n🔸 manual QA engineer \n🔸 Ульяновск, офис, remote не рассматриваем (но пока удаленно из-за covid)\n🔸 Dualboot Partners (NC, USA)\n🔸 вилка $1000-$3000\n\nОт вас:\n\n- нужно очень хорошо тестировать web- и mobile-приложения, API, нужны уверенные скиллы в этом\n- эрудиция в web-технологиях\n- опыт работы с различными инструментами для тестирования\n- умение работать самостоятельно и ответственно\n- вся документация и общение с клиентом на английском, соответственно, уровень хотя бы базовый необходим\n- есть проекты, покрываемые автотестами, поэтому умение их разрабатывать может быть плюсом и пригодиться в будущем\n\nОт нас:\n\n- ноль лишней бюрократии\n- з/п в $ официально\n- уроки английского от компании\n- MacBook Pro для работы (через 1 год работы он переходит во владение сотруднику)\n- очень крутой офис-коттедж в центре города (да, Ульяновск) с кучей вкусностей и прочими радостями\n- команда - молодые, разносторонние и очень скилловые люди\n- гибкий график и вообще всевозможные свободы, не мешающие эффективно работать\n- помощь при переезде в Ульяновск\n\nБуду рада ответить на любые вопросы,  @alina_fatkhutdinova","markup":[{"type":"hashtag","offset":0,"length":9,"data":"вакансия"},{"type":"hashtag","offset":10,"length":10,"data":"Ульяновск"},{"type":"hashtag","offset":21,"length":3,"data":"QA"},{"type":"hashtag","offset":25,"length":9,"data":"fulltime"},{"type":"hashtag","offset":35,"length":5,"data":"офис"},{"type":"hashtag","offset":41,"length":7,"data":"manual"},{"type":"hashtag","offset":49,"length":9,"data":"relocate"},{"type":"handle","offset":1149,"length":20,"data":"alina_fatkhutdinova"}],"date":"2020-06-26T06:52:36+00:00","link":"tg://resolve?domain=qa_jobs&post=98964","tags":[{"name":"qa"},{"name":"web"},{"name":"mobile"}],"cities":[{"code":"ulyanovsk"}],"allowsRemote":true}},{"node":{"__typename":"Job","id":"17151557632-1001110946746","title":"Js разработчик","text":"#вакансия #работа #frontend #react #redux #js #typescript #ульяновск #крснодар #нижнийновгород #самара #тольятти #ижевск #воронеж #казань #fulltime #удаленно #офис \n\nMiddle/Senior frontend разработчик React/Redux\nКомпания: Норд Клан\nГород: Ульяновск\nФормат: в офисе, удаленно, если живете не в Ульяновске\nЗарплатная вилка: от 70 до 150k на руки\n\n\nМы ищем разработчика в нашу команду NORD CLAN.  \nМы разрабатываем системы для бизнеса в области финтеха, медицины и фудтеха. Так же разрабатываем собственные продукты связанные с машинным обучением, распознаванием образов и компьютерным зрением. \n\nПо задачам:\n\nРазработка пользовательских интерфейсов в стеке React + Redux\nПроектирование, выбор и доработка архитектурных и технологических решений\nПроведение code-review Frontend-команды\nРазработка прототипов для отработки новых идей\n\nПо тербованиям:\nРеальный опыт работы с React;\nУверенные знания в HTML, CSS;\nНавыки работы с Git.\n\nБудет плюсом:\nОпыт работы на других языках (например, Java);\nАнглийский язык уровня Upper Intermediate.\n\n\nУ нас нет бюрократии, четко выстроены процессы разработки, мы любим и чтим ТК РФ и белую зп\n\n\nПисать в Telegram: @Dinovikova1477","markup":[{"type":"hashtag","offset":0,"length":9,"data":"вакансия"},{"type":"hashtag","offset":10,"length":7,"data":"работа"},{"type":"hashtag","offset":18,"length":9,"data":"frontend"},{"type":"hashtag","offset":28,"length":6,"data":"react"},{"type":"hashtag","offset":35,"length":6,"data":"redux"},{"type":"hashtag","offset":42,"length":3,"data":"js"},{"type":"hashtag","offset":46,"length":11,"data":"typescript"},{"type":"hashtag","offset":58,"length":10,"data":"ульяновск"},{"type":"hashtag","offset":69,"length":9,"data":"крснодар"},{"type":"hashtag","offset":79,"length":15,"data":"нижнийновгород"},{"type":"hashtag","offset":95,"length":7,"data":"самара"},{"type":"hashtag","offset":103,"length":9,"data":"тольятти"},{"type":"hashtag","offset":113,"length":7,"data":"ижевск"},{"type":"hashtag","offset":121,"length":8,"data":"воронеж"},{"type":"hashtag","offset":130,"length":7,"data":"казань"},{"type":"hashtag","offset":138,"length":9,"data":"fulltime"},{"type":"hashtag","offset":148,"length":9,"data":"удаленно"},{"type":"hashtag","offset":158,"length":5,"data":"офис"},{"type":"handle","offset":1149,"length":15,"data":"Dinovikova1477"}],"date":"2020-06-25T11:31:56+00:00","link":"tg://resolve?domain=javascript_jobs_feed&post=16357","tags":[{"name":"javascript"},{"name":"reactjs"},{"name":"redux"},{"name":"typescript"},{"name":"html"},{"name":"css"},{"name":"git"},{"name":"java"},{"name":"react-redux"}],"cities":[{"code":"ulyanovsk"},{"code":"samara"},{"code":"izhevsk"},{"code":"voronezh"},{"code":"kazan"}],"allowsRemote":true}},{"node":{"__typename":"Job","id":"103696826368-1001089317451","title":"Qa engineer","text":"#вакансия #Ульяновск #QA #fulltime #офис #manual #relocate\n\n🔸 manual QA engineer \n🔸 Ульяновск, офис, remote не рассматриваем (но пока удаленно из-за covid)\n🔸 Dualboot Partners (NC, USA)\n🔸 вилка $1000-$3000\n\nОт вас:\n\n- нужно очень хорошо тестировать web- и mobile-приложения, API, нужны уверенные скиллы в этом\n- эрудиция в web-технологиях\n- опыт работы с различными инструментами для тестирования\n- умение работать самостоятельно и ответственно\n- вся документация и общение с клиентом на английском, соответственно, уровень хотя бы базовый необходим\n- есть проекты, покрываемые автотестами, поэтому умение их разрабатывать может быть плюсом и пригодиться в будущем\n\nОт нас:\n\n- ноль лишней бюрократии\n- з/п в $ официально\n- уроки английского от компании\n- MacBook Pro для работы (через 1 год работы он переходит во владение сотруднику)\n- очень крутой офис-коттедж в центре города (да, Ульяновск) с кучей вкусностей и прочими радостями\n- команда - молодые, разносторонние и очень скилловые люди\n- гибкий график и вообще всевозможные свободы, не мешающие эффективно работать\n- помощь при переезде в Ульяновск\n\nБуду рада ответить на любые вопросы,  @alina_fatkhutdinova","markup":[{"type":"hashtag","offset":0,"length":9,"data":"вакансия"},{"type":"hashtag","offset":10,"length":10,"data":"Ульяновск"},{"type":"hashtag","offset":21,"length":3,"data":"QA"},{"type":"hashtag","offset":25,"length":9,"data":"fulltime"},{"type":"hashtag","offset":35,"length":5,"data":"офис"},{"type":"hashtag","offset":41,"length":7,"data":"manual"},{"type":"hashtag","offset":49,"length":9,"data":"relocate"},{"type":"handle","offset":1149,"length":20,"data":"alina_fatkhutdinova"}],"date":"2020-06-25T09:43:47+00:00","link":"tg://resolve?domain=qa_jobs&post=98893","tags":[{"name":"qa"},{"name":"web"},{"name":"mobile"}],"cities":[{"code":"ulyanovsk"}],"allowsRemote":true}}]}}},"context":{}}