{"hash":"f5f6bf98bd95e769321482904cbbd488f77922fd","data":{"records":{"id":"swift","name":"swift","belongsTo":{"totalCount":133,"pageInfo":{"totalPages":14,"currentPage":2},"edges":[{"node":{"__typename":"Job","id":"72565653504-1001054966032","title":"Mobile разработчик","text":"🔹 Город и адрес офиса: Минск, метро Площадь Победы\n🔹 Формат работы: офис \n🔹 Занятость: полная\n🔹 Зарплатная вилка: 3500$ - 4000$\n#вакансия #IOS #Swift #developer #mobile #office #Minsk #fulltime \n🔹 Описание вакансии: \nВсем привет! Мы в поиске сильного IOS разработчика (Swift) для разработки и масштабирования продукта  в стартапе из сферы Health & Fitness.\n✔  Что нужно делать: \n• Разработать и постоянно развивать продукт на Swift \n• Взаимодействовать с нативными API (Apple Health, Subscriptions) и бекендом \n• Оптимизировать продукт и искать узкие места в производительности \n• По мере роста проекта — нанимать и развивать техническую команду \n✔ Что нужно для этой позиции: \n• Опыт работы со Swift от 3 лет \n• Опыт публикации приложений в сторы \n• Фанат pixel-perfect UI \n• Портфолио успешно реализованных коммерческих проектов на Swift \n• Опыт работы с Apple Health (будет плюсом) \n✔ Что ты получишь в проекте: \n• Возможность с командой строить продукт на глобальный рынок \n• Работа в стартапе со всеми преимуществами и недостатками \n• Шанс быстро вырасти до уровня VP / C-level проекта в перспективе 2-3 лет \n• Возможность войти в первую десятку сотрудников проекта \n• Офис в центре Минска в бизнес центре ААА класса\n🔹 Контакты: \nАлёна\nРезюме и отклики можно отправлять сюда: alyona.a.kovalchuk@gmail.com. \nОперативно отвечу на вопросы в телеграм - @alyonakov. \nБуду благодарна за рекомендации)","markup":[{"type":"hashtag","offset":132,"length":9,"data":"вакансия"},{"type":"hashtag","offset":142,"length":4,"data":"IOS"},{"type":"hashtag","offset":147,"length":6,"data":"Swift"},{"type":"hashtag","offset":154,"length":10,"data":"developer"},{"type":"hashtag","offset":165,"length":7,"data":"mobile"},{"type":"hashtag","offset":173,"length":7,"data":"office"},{"type":"hashtag","offset":181,"length":6,"data":"Minsk"},{"type":"hashtag","offset":188,"length":9,"data":"fulltime"},{"type":"link","offset":1287,"length":28,"data":"mailto:alyona.a.kovalchuk@gmail.com"},{"type":"handle","offset":1360,"length":10,"data":"alyonakov"}],"date":"2020-07-02T14:55:51+00:00","link":"tg://resolve?domain=mobile_jobs&post=69204","tags":[{"name":"mobile"},{"name":"ios"},{"name":"swift"}],"cities":[{"code":"minsk"}],"allowsRemote":false}},{"node":{"__typename":"Job","id":"72559362048-1001054966032","title":"Ios разработчик","text":"#вакансия #iOS #Swift\n\nГород и адрес офиса: #Питер ст.м. Петроградская, #Москва ст.м. Белорусская\nФормат работы: #офис (сейчас удалёнка)\nЗанятость: #полная #fulltime\nЗарплатная вилка: 160-220к на руки\n\nExperiment X — биотех-компания, мы делаем девайсы и приложения для мониторинга здоровья для лабораторий, клиник и обычных людей. Ищем iOS-разработчика в команду разработки мобильного приложения, стимулирующего пользователя формировать развернутый медицинский профиль, подбирая подходящие исследования. Продукт свежий, разработка ведётся всего полгода — самое время подключиться и повлиять на то, каким он станет в итоге.\n\nЧто нам важно:\n- опыт коммерческой разработки приложений под iOS 3+ лет\n- уверенное знание Swift \n- опыт создания кастомных анимаций и переходов\n- умение писать хорошо структурированный и читаемый код\n- понимание принципов работы iOS и умение использовать возможности системы\n- хорошее понимание архитектурных паттернов и умение их применять\n- умение оценивать задачи и попадать в собственные оценки\n- внимание к деталям и качеству кода\n\nУ нас отличная экспертная команда, офисы в Москве и Питере, всё по-белому и как у людей: ДМС со стоматологией, корпоративная библиотека, компенсации обучения и занятий спортом. До конца лета работаем удалённо.\n\nКонтакты:\nя тут @mariefilins\nexperimentx.co","markup":[{"type":"hashtag","offset":0,"length":9,"data":"вакансия"},{"type":"hashtag","offset":10,"length":4,"data":"iOS"},{"type":"hashtag","offset":15,"length":6,"data":"Swift"},{"type":"hashtag","offset":44,"length":6,"data":"Питер"},{"type":"hashtag","offset":72,"length":7,"data":"Москва"},{"type":"hashtag","offset":113,"length":5,"data":"офис"},{"type":"hashtag","offset":148,"length":7,"data":"полная"},{"type":"hashtag","offset":156,"length":9,"data":"fulltime"},{"type":"handle","offset":1289,"length":12,"data":"mariefilins"},{"type":"link","offset":1302,"length":14,"data":"http://experimentx.co"}],"date":"2020-07-02T14:19:14+00:00","link":"tg://resolve?domain=mobile_jobs&post=69198","tags":[{"name":"mobile"},{"name":"ios"},{"name":"swift"}],"cities":[{"code":"moscow"}],"allowsRemote":true}},{"node":{"__typename":"Job","id":"72555167744-1001054966032","title":"Mobile разработчик","text":"#вакансия #mobile #ios #swift #fulltime\nГород и адрес офиса: Москва, м. Нахимовский проспект, БЦ Лотос, офис класса А\nФормат работы: офис + возможно частично удаленная работа \nЗанятость: полная, 5/2\nЗП: от 150к до 250к, готовы рассмотреть и выше\n\nКомпания X4Apps специализируется на разработке собственных мобильных приложений и открывает вакансию мобильного разработчика уровня Middle+/Senior, который будет работать над созданием приложений для платформы iOS.\n\nМы практикуем быструю проверку гипотез, быстро создаем приложения, запускаем первых пользователей, смотрим на обратную связь и наращиваем функционал либо переключаемся на разработку новых приложений/новых идей.\n\nОт Вас мы ждем:\n- Способность разработать приложение с нуля и выпустить его в AppStore\n- Знание Objective-C и Swift\n- Суммарный опыт программирования от 3-х лет\n- Умение работать с системой контроля версий git - console, IDE, web;\n- Понимание принципов ООП и шаблонов проектирования\n- Опыт использования JSON, REST API\n- Опыт написания клиент-серверных приложений\n- Наличие опубликованных приложений в AppStore\n\nБудет плюсом:\n- Желание постоянно учиться и применять новые технологии в своей работе\n- Понимание в разработке пользовательского интерфейса\n- Понимание работы бэкэнда\n\nКонтакт @bambaleeyo","markup":[{"type":"hashtag","offset":0,"length":9,"data":"вакансия"},{"type":"hashtag","offset":10,"length":7,"data":"mobile"},{"type":"hashtag","offset":18,"length":4,"data":"ios"},{"type":"hashtag","offset":23,"length":6,"data":"swift"},{"type":"hashtag","offset":30,"length":9,"data":"fulltime"},{"type":"bold","offset":40,"length":19,"data":""},{"type":"bold","offset":118,"length":13,"data":""},{"type":"bold","offset":176,"length":9,"data":""},{"type":"bold","offset":199,"length":2,"data":""},{"type":"bold","offset":675,"length":14,"data":""},{"type":"bold","offset":1087,"length":12,"data":""},{"type":"bold","offset":1255,"length":7,"data":""},{"type":"handle","offset":1263,"length":11,"data":"bambaleeyo"}],"date":"2020-07-02T14:04:01+00:00","link":"tg://resolve?domain=mobile_jobs&post=69194","tags":[{"name":"mobile"},{"name":"ios"},{"name":"swift"},{"name":"objective-c"},{"name":"git"},{"name":"web"},{"name":"json"},{"name":"rest"}],"cities":[{"code":"moscow"}],"allowsRemote":true}},{"node":{"__typename":"Job","id":"72550973440-1001054966032","title":"Ios разработчик","text":"#вакансия #ios #swift #москва #офис #objectivec\n\nГород: Москва (ст.м. Аэропорт).\n\nФормат работы: full-time.\n\nЗанятость: полная. \n\nВилка: 100-200 т.р. на руки.\n\nФункционал:\n\n• Разработка мобильных приложений под платформу iOS.\n\n• Участие в командной разработке, тестировании, оптимизации существующих мобильных приложений на платформе iOS \n\nПрофессиональные знания: \n\nОтличное знание Objective-C/Swift, iOS SDK 10+;\nОпыт разработки мобильных приложений - от 2 лет;\nЗнание шаблонов проектирования, принципы SOLID, умение их применять;\nЗнакомы с основными алгоритмами и структурами данных;\nУмение работать со Storyboard и Autolayout;\nОпыт разработки клиент-серверных приложений, понимание принципов и устройства сетевого взаимодействия (HTTPS, JSON, REST);\nУмеете работать в команде и конструктивно реагируете на аргументы коллег;\nУмение разбираться и работать с чужим кодом;\nЗнание распределенных систем контроля версий (Git). \n\nНазвание компании: Локо-Банк\nhttps://www.lockobank.ru//\nhttps://hh.ru/vacancy/37365811\n\nКонтакты: @hrlocko","markup":[{"type":"hashtag","offset":0,"length":9,"data":"вакансия"},{"type":"hashtag","offset":10,"length":4,"data":"ios"},{"type":"hashtag","offset":15,"length":6,"data":"swift"},{"type":"hashtag","offset":22,"length":7,"data":"москва"},{"type":"hashtag","offset":30,"length":5,"data":"офис"},{"type":"hashtag","offset":36,"length":11,"data":"objectivec"},{"type":"link","offset":956,"length":26,"data":"https://www.lockobank.ru//"},{"type":"link","offset":983,"length":30,"data":"https://hh.ru/vacancy/37365811"},{"type":"handle","offset":1025,"length":8,"data":"hrlocko"}],"date":"2020-07-02T13:41:35+00:00","link":"tg://resolve?domain=mobile_jobs&post=69190","tags":[{"name":"mobile"},{"name":"ios"},{"name":"swift"},{"name":"objective-c"},{"name":"json"},{"name":"rest"},{"name":"git"}],"cities":[{"code":"moscow"}],"allowsRemote":false}},{"node":{"__typename":"Job","id":"72545730560-1001054966032","title":"Ios разработчик","text":"#ios #вакансия #доработка #проект\n #swift #удаленка\n\nЗдравствуйте! \nУ нас приложение \"Правое полушарие Интроверта\"\nПриложение предоставляет доступ к аудиолекциям и видеолекциям об искусстве, психологии и науке по подписке. \nМы обнаружили ошибку в текущем аудиоплеере(накладываются аудиозаписи) и текущий разработчик не может исправить ошибку, поэтому необходимо:\n- Написать новый аудиоплеер. С функцией запоминания, ускорения воспроизведения, фонового прослушивания\n\nДизайн макеты приложения есть.\n\nФормат - удаленка\nЗанятость - проектная\nЗП - 20 000 за доработки на руки\nСрок - 10 дней\n\nНазвание компании - artforintrovert.ru\nКонтакты - @volokartin . Пишите в личные сообщения","markup":[{"type":"hashtag","offset":0,"length":4,"data":"ios"},{"type":"hashtag","offset":5,"length":9,"data":"вакансия"},{"type":"hashtag","offset":15,"length":10,"data":"доработка"},{"type":"hashtag","offset":26,"length":7,"data":"проект"},{"type":"hashtag","offset":35,"length":6,"data":"swift"},{"type":"hashtag","offset":42,"length":9,"data":"удаленка"},{"type":"link","offset":608,"length":18,"data":"http://artforintrovert.ru"},{"type":"handle","offset":638,"length":11,"data":"volokartin"}],"date":"2020-07-02T12:55:22+00:00","link":"tg://resolve?domain=mobile_jobs&post=69185","tags":[{"name":"mobile"},{"name":"ios"},{"name":"swift"}],"cities":[],"allowsRemote":true}},{"node":{"__typename":"Job","id":"72544681984-1001054966032","title":"Ios разработчик","text":"#вакансия #работа #Санкт_Петербург #middle #IOS #Swift #Scrum\n\nФормат работы: Удаленный\nЗанятость: Полная\nЗарплатная вилка: от 120 000 до 200 000.\n\nМы Stream - делаем классные и реально удобные продукты для людей. 📣Сейчас находимся в поиске IOS разработчика.📱\n\nЖдём от вас: \n🔹Опыт разработки приложений на IOS (желательно от 2-х лет).\n🔹Знание ООП, структур данных, архитектурных паттернов;\n🔹Опыт применения RxSwift;\n🔹Опыт написания unit-тестов;\n🔹Наличие готовых приложений в AppStore будет преимуществом;\n🔹Коммуникабельность, желание работать в команде единомышленников.\nПредлагаем:\n✅Сильная команда\n✅Гибкий график\n✅ДМС со стоматологией\n✅Компенсация мобильной связи\n✅Официальное оформление и \"белая\" зарплата + премии сверху оклада\n✅Возможность дополнительного обучения.\n\nКонтакты: telegram - @YanaKuzn\nпочта: ykuznetsova@stream.ru","markup":[{"type":"hashtag","offset":0,"length":9,"data":"вакансия"},{"type":"hashtag","offset":10,"length":7,"data":"работа"},{"type":"hashtag","offset":18,"length":16,"data":"Санкт_Петербург"},{"type":"hashtag","offset":35,"length":7,"data":"middle"},{"type":"hashtag","offset":43,"length":4,"data":"IOS"},{"type":"hashtag","offset":48,"length":6,"data":"Swift"},{"type":"hashtag","offset":55,"length":6,"data":"Scrum"},{"type":"handle","offset":801,"length":9,"data":"YanaKuzn"},{"type":"link","offset":818,"length":21,"data":"mailto:ykuznetsova@stream.ru"}],"date":"2020-07-02T12:39:13+00:00","link":"tg://resolve?domain=mobile_jobs&post=69184","tags":[{"name":"mobile"},{"name":"ios"},{"name":"swift"}],"cities":[],"allowsRemote":false}},{"node":{"__typename":"Job","id":"17317232640-1001110946746","title":"Javascript developer","text":"#вакансия #ReactNative #Одесса\n🔹Локация: Одесса,  #Odessa, р-н Пересыпи\n🔹Формат работы: #Офис / #удаленка\n🔹Занятость: Полная занятость, #Fulltime\n🔹Вилка 1700-2500 уе, дважды в год Performance Review.\n\n☀Вакансия Middle React Native developer\n🔹Описание вакансии:\n- 4+ years of experience in software development and JavaScript (ES6+).\n- 2+ years of experience with React Native.\n- Experience with commercial native applications development (IOS/Android).\n- Understanding and experience with building the full mobile application’s lifecycle.\n- Knowledge of architecture design and experience working knowledge of SOAP and RESTful integrations.\n- Intermediate written and spoken English.\nБудет плюсом:\n- Experience with native SDKs for Android (Kotlin/Java) and/or iOS (Swift).\n\n\n🔹Компания Attract Group.\n🔹Контакты:\n✏️телеграм @Niedova_Olga,\n✏️почта hr@attractgroup.com.\n\n—\n\n👉 Обсуждение вакансии в чате @javascript_jobs","markup":[{"type":"hashtag","offset":0,"length":9,"data":"вакансия"},{"type":"hashtag","offset":10,"length":12,"data":"ReactNative"},{"type":"hashtag","offset":23,"length":7,"data":"Одесса"},{"type":"hashtag","offset":51,"length":7,"data":"Odessa"},{"type":"hashtag","offset":90,"length":5,"data":"Офис"},{"type":"hashtag","offset":98,"length":9,"data":"удаленка"},{"type":"hashtag","offset":139,"length":9,"data":"Fulltime"},{"type":"handle","offset":830,"length":13,"data":"Niedova_Olga"},{"type":"link","offset":853,"length":19,"data":"mailto:hr@attractgroup.com"},{"type":"handle","offset":908,"length":16,"data":"javascript_jobs"}],"date":"2020-07-02T11:06:21+00:00","link":"tg://resolve?domain=javascript_jobs_feed&post=16515","tags":[{"name":"javascript"},{"name":"reactjs"},{"name":"ios"},{"name":"android"},{"name":"mobile"},{"name":"soap"},{"name":"kotlin"},{"name":"java"},{"name":"swift"},{"name":"react-native"}],"cities":[{"code":"odessa"}],"allowsRemote":true}},{"node":{"__typename":"Job","id":"72534196224-1001054966032","title":"Mobile разработчик","text":"#вакансия #работа #ios #android #Swift #kotlin #Москва #удаленка #remote #офис #mobile\nГород: Москва\nФормат работы: офис или удаленка\nЗанятость: полная, частичная, проектная, обсуждаем все варианты\nЗарплатная вилка: от 150 000 до 300 000 рублей\nКонтакты: 📲 @d_aleshina\n📧d.aleshina@ancor.ru\n\nТребования: Коммерческий опыт разработки на iOS или Android от 2-х лет\n\nОписание вакансии: Ищем мобильных разработчиков на несколько крупных FinTech-проектов (всегда есть возможность выбрать наиболее вам интересный), текущих или со стартом через 1-2 месяца и далее. \n\nУсловия:\n🔸У нас 100% белая зп (фиксированный оклад), ДМС со стоматологией, международной страховкой, оплачиваемая мобильная связь.  \n🔸По доходу и условиям мы гибкие, готовы договариваться с вами, отталкиваемся от пожеланий.  \n🔸Есть возможности роста по уровню дохода, по роли в проектах, а также возможность выбрать альтернативный проект, перейти в новую команду. \n\nКомпания: ANCOR FinTech https://ancor.ru\nЗа подробностями пишите 📲@d_aleshina","markup":[{"type":"hashtag","offset":0,"length":9,"data":"вакансия"},{"type":"hashtag","offset":10,"length":7,"data":"работа"},{"type":"hashtag","offset":18,"length":4,"data":"ios"},{"type":"hashtag","offset":23,"length":8,"data":"android"},{"type":"hashtag","offset":32,"length":6,"data":"Swift"},{"type":"hashtag","offset":39,"length":7,"data":"kotlin"},{"type":"hashtag","offset":47,"length":7,"data":"Москва"},{"type":"hashtag","offset":55,"length":9,"data":"удаленка"},{"type":"hashtag","offset":65,"length":7,"data":"remote"},{"type":"hashtag","offset":73,"length":5,"data":"офис"},{"type":"hashtag","offset":79,"length":7,"data":"mobile"},{"type":"bold","offset":87,"length":5,"data":""},{"type":"bold","offset":101,"length":13,"data":""},{"type":"bold","offset":134,"length":11,"data":""},{"type":"bold","offset":198,"length":17,"data":""},{"type":"bold","offset":245,"length":9,"data":""},{"type":"handle","offset":258,"length":11,"data":"d_aleshina"},{"type":"link","offset":270,"length":23,"data":"http://%F0%9F%93%A7d.aleshina@ancor.ru/"},{"type":"bold","offset":293,"length":12,"data":""},{"type":"bold","offset":365,"length":19,"data":""},{"type":"bold","offset":561,"length":9,"data":""},{"type":"bold","offset":930,"length":10,"data":""},{"type":"link","offset":954,"length":16,"data":"https://ancor.ru"},{"type":"handle","offset":997,"length":11,"data":"d_aleshina"}],"date":"2020-07-02T10:55:01+00:00","link":"tg://resolve?domain=mobile_jobs&post=69174","tags":[{"name":"mobile"},{"name":"android"},{"name":"ios"},{"name":"swift"},{"name":"kotlin"}],"cities":[{"code":"moscow"}],"allowsRemote":true}},{"node":{"__typename":"Job","id":"72530001920-1001054966032","title":"Ios developer","text":"#вакансия #ios #developer #iosdeveloper #москва #мск \n\nIOS Developer\nКомпания: Азбука Вкуса\nЛокация: Москва, офис\nм. Парк Победы/Кутузовская\nЗанятость: fulltime\nЗ/п: 150-210k ₽ net  \nКонтакты: @observer69\n\nУсловия\n● Официальное оформление с соблюдением ТК РФ;\n● Организация внешнего обучения;\n● Участие в конференциях и хакатонах;\n● ДМС;\n● Возможность работать из дома пару раз в неделю;\n● Комфортный офис в шаговой доступности от м. Парк Победы / Кутузовская;\n● Большая команда IT - профессионалов;\n● Интересные задачи\n\nТребования\n● Имеешь опыт iOS-разработки от 3-х лет;\n● Знаешь и любишь Swift, без вопросов можешь разобраться с кодом на Objective-C;\n● Имеешь опыт интеграции различных социальных сетей в проект;\n● Умеешь работать в AppStoreConnect и developer.apple.com, понимаешь зачем нужны сертификаты;\n● Знаешь принципы SOLID, структуры данных, паттерны проектирования и программирования;\n● Знаешь что таĸое MVC, MVVM, MVP etc. понимаешь их плюсы и\nминуты;\n● Работал с Realm;\nУверенно делаешь сложный UI, знаешь и понимаешь Autolayout, понимаешь когда лучше отказаться от него;\n● Сможешь обьяснить разницу между процессом и потоĸом, знаешь ĸаĸ\nработает многопоточность;\n● Знаком с HTTP, REST, Websocket, JSON и т.д.;\n● Работал с git (терминал или приложение);\n● Умеешь \"гуглить\" и воспринимать информацию на английском;\n● Терпимо относишься ĸ чужому ĸоду, даже если сильно не нравится;\n● Умеешь аргументировано и последовательно отстаивать свою\nпозицию;\n● Сможешь оценить задачу, и выполнить ее в сроĸ;\n● Интересуешься “а ĸаĸ это устроено внутри?”\n\nЗадачи\n1. Развивать и поддерживать существующие приложения;\n2. Проводить code review;\n3. Развивать IOS инфраструктуру в компании;\n4. Активно участвовать в жизни команды.","markup":[{"type":"hashtag","offset":0,"length":9,"data":"вакансия"},{"type":"hashtag","offset":10,"length":4,"data":"ios"},{"type":"hashtag","offset":15,"length":10,"data":"developer"},{"type":"hashtag","offset":26,"length":13,"data":"iosdeveloper"},{"type":"hashtag","offset":40,"length":7,"data":"москва"},{"type":"hashtag","offset":48,"length":4,"data":"мск"},{"type":"bold","offset":55,"length":23,"data":""},{"type":"bold","offset":92,"length":8,"data":""},{"type":"bold","offset":141,"length":10,"data":""},{"type":"bold","offset":161,"length":5,"data":""},{"type":"bold","offset":183,"length":10,"data":""},{"type":"handle","offset":193,"length":11,"data":"observer69"},{"type":"bold","offset":206,"length":8,"data":""},{"type":"bold","offset":521,"length":11,"data":""},{"type":"link","offset":754,"length":19,"data":"http://developer.apple.com"},{"type":"bold","offset":1557,"length":9,"data":""},{"type":"bold","offset":1617,"length":2,"data":""},{"type":"bold","offset":1643,"length":2,"data":""},{"type":"bold","offset":1687,"length":2,"data":""}],"date":"2020-07-02T10:23:24+00:00","link":"tg://resolve?domain=mobile_jobs&post=69170","tags":[{"name":"mobile"},{"name":"ios"},{"name":"dotnet"},{"name":"swift"},{"name":"objective-c"},{"name":"mvvm"},{"name":"realm"},{"name":"rest"},{"name":"websocket"},{"name":"json"},{"name":"git"}],"cities":[{"code":"moscow"}],"allowsRemote":false}},{"node":{"__typename":"Job","id":"72527904768-1001054966032","title":"Ios разработчик","text":"#вакансия #ios #удаленка\nФормат работы: удаленка\n\nЗанятость: частичная, проектная (возможно оформление в штат)\n\nЗарплатная вилка (обязательно): от 1000 до 2000р/час\n\nОписание вакансии: Ищем исполнителей iOS-разработчиков или команды для работы над небольшими функциональными приложениями (сканеры, хранилки паролей, таймеры итд). Приложения несложные, в среднем срок разработки составляет 1 месяц.\n\nSwift.\n Уровень разработчика: как минимум Middle\n\nНазвание компании: Rich Peach Media\n\nКонтакты: @mekirile","markup":[{"type":"hashtag","offset":0,"length":9,"data":"вакансия"},{"type":"hashtag","offset":10,"length":4,"data":"ios"},{"type":"hashtag","offset":15,"length":9,"data":"удаленка"},{"type":"handle","offset":496,"length":9,"data":"mekirile"}],"date":"2020-07-02T09:59:05+00:00","link":"tg://resolve?domain=mobile_jobs&post=69168","tags":[{"name":"mobile"},{"name":"ios"},{"name":"swift"}],"cities":[],"allowsRemote":true}}]}}},"context":{}}