{"hash":"f34fd2c444a074f4e0e67d525015a008ef8e766f","data":{"records":{"id":"mysql","name":"mysql","belongsTo":{"totalCount":50,"pageInfo":{"totalPages":5,"currentPage":3},"edges":[{"node":{"__typename":"Job","id":"1951399936-1001134745498","title":"Devops инженер","text":"#вакансия #DevOps\nМосква, м.Ботанический сад\nФормат работы: офис\nЗанятость: полная\nЗаработная плата: 180 000р. на руки - фиксированный оклад\nЧто делать:\n- Разработка и поддержка инфраструктуры для dev/test/prod (On-Cloud и On-Premise);\n- Разработка и поддержка процессов CI/CD;\n- Выбор технологий для реализации проектов;\n- Разработка и поддержка систем мониторинга, регистрации инцидентов и оповещения;\n- Организация бесперебойной работы всех сервисов (на всех уровнях: от инфраструктуры до разрабатываемого ПО);\n- Развертывание и поддержка общей инфраструктуры (nginx, haproxy, dns, iptables, ssh, sssd & etc).\nЧто нужно знать и уметь:\n- Экспертное понимание Linux (Ubuntu/CentOS7);\n- Знание скриптовых языков;\n- Опыт работы с технологиями виртуализации (VMware) и контейнеризации (Docker);\n- Опыт развёртывания и эксплуатации CI/CD (GitLab-CI, Jenkins);\n- Навыки работы и администрирования GitLab, Jira, Confluence;\n- Опыт внедрения и эксплуатации систем мониторинга и сбора метрик (ELK, Prometheus, Grafana, Sentry);\n- Опыт развёртывания и эксплуатации Redis, MySQL, RabbitMQ, HAProxy, nginx, PostgreSQL, php-fpm);\n- Интеграция Jenkins, Jira, GitLab. \nКомпания: АСНА (www.asna.ru)\nКонтакты: 8(965)194-28-96 (WhatsApp), @mil0lika (Telegram)\n\n—\n\n👉 Обсуждение вакансии в чате @devops_jobs","markup":[{"type":"hashtag","offset":0,"length":9,"data":"вакансия"},{"type":"hashtag","offset":10,"length":7,"data":"DevOps"},{"type":"link","offset":1172,"length":11,"data":"http://www.asna.ru"},{"type":"link","offset":1195,"length":15,"data":"tel:8(965)194-28-96"},{"type":"handle","offset":1223,"length":9,"data":"mil0lika"},{"type":"handle","offset":1278,"length":12,"data":"devops_jobs"}],"date":"2020-04-01T13:22:09+00:00","link":"tg://resolve?domain=devops_jobs_feed&post=1861","tags":[{"name":"cloud"},{"name":"nginx"},{"name":"dns"},{"name":"ssh"},{"name":"linux"},{"name":"ubuntu"},{"name":"centos"},{"name":"docker"},{"name":"gitlab"},{"name":"jenkins"},{"name":"redis"},{"name":"mysql"},{"name":"rabbitmq"},{"name":"postgresql"},{"name":"php"}],"cities":[{"code":"moscow"}],"allowsRemote":false}},{"node":{"__typename":"Job","id":"24184356864-1001075660570","title":"Php разработчик","text":"#вакансия #удаленно #php #symfony #junior\nРасположение: Санкт-Петербург\nФормат работы: удаленно\nЗанятость: полная\nЗп: от 20 до 50 т.р. на руки\n\nО компании: Мы питерская компания LandPro занимаемся помощью бизнесу в организации и ведении дел, ищем в команду 2 начинающих разработчиков, на полностью удаленную работу. \n\nНаш стек: php 7+, symfony 4.4, CSS/Js, jQuery\n\nТребования: \n- Наличие коммерческого опыта желательно но не обязательно\n- Железная сила воли (так как вы работает на удаленке)\n- Уверенное знание php \n- Понимание/Опыт работы с одним из фреймворков symfony/laravel/yii\n- Понимание/опыт работы с MySQL бд \n\nДля связи писать сюда: @elcorporation","markup":[{"type":"hashtag","offset":0,"length":9,"data":"вакансия"},{"type":"hashtag","offset":10,"length":9,"data":"удаленно"},{"type":"hashtag","offset":20,"length":4,"data":"php"},{"type":"hashtag","offset":25,"length":8,"data":"symfony"},{"type":"hashtag","offset":34,"length":7,"data":"junior"},{"type":"handle","offset":643,"length":14,"data":"elcorporation"}],"date":"2020-03-31T14:05:15+00:00","link":"tg://resolve?domain=php_jobs&post=23064","tags":[{"name":"php"},{"name":"symfony"},{"name":"css"},{"name":"jquery"},{"name":"laravel"},{"name":"yii"},{"name":"mysql"}],"cities":[],"allowsRemote":true}},{"node":{"__typename":"Job","id":"24183308288-1001075660570","title":"Php разработчик","text":"#вакансия #fullstack #PHP #Javascript #middle #fulltime #офис #спб\nРасположение: Санкт-Петербург, м. Балтийская \nФормат работы, занятость: офис, полная, гибкое начало дня\nЗП: до 150 000 руб.\n\nО компании: Мы - фабрика мебели «THE IDEA» (www.theidea.ru), с 2014 года занимаемся производством и продажей уникальных предметов домашнего интерьера, радующих своих обладателей каждый день. Сейчас мы в поиске своего fullstack разработчика, который вместе с нашей командой поможет выполнить множество интересных задач, первостепенные из которых: поддержание и развитие нашего сайта, написание тестов, совершенствование системы разработки.\n\nНаш стек: PHP 5.6/7.0, MySQL, HTML/CSS/JavaScript, jQuery, Lodash, Scss, Autoprefixer, PostCSS, Bootstrap 4, Webpack/Gulp. \n\nПомимо этого, наш сайт создан на PrestaShop, что позволит Вам получить/прокачать навыки работы с  фреймворком Symfony.\nВ свою очередь наш CTO готов вкладыватрься в сотрудников и обеспечивать им профессиональный и карьерный рост :)\n\nТребования:\n- Опыт разработки на PHP от 2-х лет c одни из фреймворков: Laravel/Yii2, Symfony;\n- Знание MySQL;\n- Опыт работы с jQuery.\n\nУсловия:\n- Официальное трудоустройство;\n- Работа напрямую с собственником бизнеса, возможность реализации собственных идей; \n- Дружественная рабочая среда с возможностью карьерного и профессионального роста;\n\nКонтакты:\ne-mail: the.idea.hr@gmail.com\ntelegram: @marina_ilmanova\nПишите, если интересно, буду рада ответить на все вопросы 😊","markup":[{"type":"hashtag","offset":0,"length":9,"data":"вакансия"},{"type":"hashtag","offset":10,"length":10,"data":"fullstack"},{"type":"hashtag","offset":21,"length":4,"data":"PHP"},{"type":"hashtag","offset":26,"length":11,"data":"Javascript"},{"type":"hashtag","offset":38,"length":7,"data":"middle"},{"type":"hashtag","offset":46,"length":9,"data":"fulltime"},{"type":"hashtag","offset":56,"length":5,"data":"офис"},{"type":"hashtag","offset":62,"length":4,"data":"спб"},{"type":"link","offset":236,"length":14,"data":"http://www.theidea.ru"},{"type":"link","offset":1351,"length":21,"data":"mailto:the.idea.hr@gmail.com"},{"type":"handle","offset":1383,"length":16,"data":"marina_ilmanova"}],"date":"2020-03-31T13:43:56+00:00","link":"tg://resolve?domain=php_jobs&post=23063","tags":[{"name":"php"},{"name":"javascript"},{"name":"mysql"},{"name":"html"},{"name":"css"},{"name":"jquery"},{"name":"bootstrap"},{"name":"webpack"},{"name":"gulp"},{"name":"symfony"},{"name":"laravel"},{"name":"yii"}],"cities":[],"allowsRemote":false}},{"node":{"__typename":"Job","id":"1397751808-1001091028994","title":"Java разработчик","text":"Вакансия: #Java \nКомпания: #S-O-Services\nЛокация: #удаленнаяработа #remote #belarus #ukraine #balticstates\nЗ/п: 5000-6500$ gross\nКонтакты: @erzentd\nMust be able to translate business needs into effective technical solutions using core JAVA and common\nopensource libraries and frameworks.\n🔹 Must have practical implementation experience with Web Service RESTful API.\n🔹 Highly preferred with performance in encoding audio video in cloud platform.\n🔹 Experience with Java/J2EE technologies: Java, EJB3.0, JMS, JDBC, XML.\n🔹 Experience with application servers is a plus: Spring Boot, Jetty, Apache Tomcat, Wildfly.\n🔹 Experience with frameworks: Spring, Hibernate.\n🔹 Strong understanding of Java Multithreading and Daemons.\n🔹 Experience with the development tools a plus: Intellij, Git, JIRA\n🔹 Proven experience with interfacing to relational databases (particularly PostgreSQL, MySQL)\n🔹 Excellent troubleshooting skills with the ability to analyze and resolve difficult problems quickly\n🔹 Must have excellent written and verbal communication skills\n🔹 Familiarity with common branching strategies like Gitflow a plus\n🔹 Upper-intermediate English","markup":[{"type":"hashtag","offset":10,"length":5,"data":"Java"},{"type":"hashtag","offset":27,"length":2,"data":"S"},{"type":"hashtag","offset":50,"length":16,"data":"удаленнаяработа"},{"type":"hashtag","offset":67,"length":7,"data":"remote"},{"type":"hashtag","offset":75,"length":8,"data":"belarus"},{"type":"hashtag","offset":84,"length":8,"data":"ukraine"},{"type":"hashtag","offset":93,"length":13,"data":"balticstates"},{"type":"handle","offset":139,"length":8,"data":"erzentd"}],"date":"2020-03-30T18:44:36+00:00","link":"tg://resolve?domain=jvmjobs&post=1333","tags":[{"name":"java"},{"name":"jvm"},{"name":"web"},{"name":"cloud"},{"name":"jdbc"},{"name":"xml"},{"name":"spring"},{"name":"jetty"},{"name":"apache"},{"name":"tomcat"},{"name":"hibernate"},{"name":"git"},{"name":"postgresql"},{"name":"mysql"},{"name":"spring-boot"}],"cities":[],"allowsRemote":true}},{"node":{"__typename":"Job","id":"24164433920-1001075660570","title":"Php разработчик","text":"#вакансия  #fulltime #backend #спб #санкт_петербург\nВакансия: backend-разработчик\nКомпания: 4people\nГород: Санкт-Петербург\nФормат работы: #офис\nЗанятость: #полная\nЗарплата : от 140 000 до 250 000 ₽.                                                                                                                                                                                                                    \n\n💡Основные обязанности:\n-Разработка новых сервисов компании.\n-Оптимизация и поддержка текущих продуктов.\n-Наш стек: PHP7, MySQL (Percona), Redis, MongoDB, RabbitMQ, YouTrack.\n💪Добро пожаловать в нашу команду если вы:\n-Имеете законченное высшее образование.\n-Имеете опыт разработки на PHP.\n-Умеете использовать Git.\n-Знаете ООП, умеете применять на практике паттерны проектирования.\n🏆Мы предлагаем:\n-Уровень заработной платы зависит от пожеланий и профессионально уровня кандидата.\n-Поездки на ИТ-конференции, митапы, учебные курсы за счет компании.\n-ДМС , оплачиваемый отпуск 28 календарных дней, подарки для сотрудников и их детей.\n-Бесплатные корпоративные обеды, сладости, чай, кофе. \n-Абонемент в спорт зал за счет компании.\n\nБуду рада Вашим вопросам и резюме:\n✍️  @hrkaterina \n📨 ekaterina.4people@gmail.com","markup":[{"type":"hashtag","offset":0,"length":9,"data":"вакансия"},{"type":"hashtag","offset":11,"length":9,"data":"fulltime"},{"type":"hashtag","offset":21,"length":8,"data":"backend"},{"type":"hashtag","offset":30,"length":4,"data":"спб"},{"type":"hashtag","offset":35,"length":16,"data":"санкт_петербург"},{"type":"hashtag","offset":138,"length":5,"data":"офис"},{"type":"hashtag","offset":155,"length":7,"data":"полная"},{"type":"underline","offset":412,"length":2,"data":""},{"type":"bold","offset":414,"length":22,"data":""},{"type":"underline","offset":587,"length":2,"data":""},{"type":"bold","offset":589,"length":41,"data":""},{"type":"underline","offset":795,"length":2,"data":""},{"type":"bold","offset":797,"length":15,"data":""},{"type":"handle","offset":1183,"length":11,"data":"hrkaterina"},{"type":"link","offset":1199,"length":27,"data":"mailto:ekaterina.4people@gmail.com"}],"date":"2020-03-30T10:37:37+00:00","link":"tg://resolve?domain=php_jobs&post=23045","tags":[{"name":"php"},{"name":"mysql"},{"name":"redis"},{"name":"mongodb"},{"name":"rabbitmq"},{"name":"git"}],"cities":[],"allowsRemote":false}},{"node":{"__typename":"Job","id":"1940914176-1001134745498","title":"Devops инженер","text":"#вакансия #DevOps #fulltime \nСанкт-Петербург, м. Чкаловская\nОфис, полная занятость \nЗарплата от 150 000 до 200 000\nЧто предстоит делать:\n-Настройка и поддержание в работоспособном состоянии продуктовых бизнес систем\n-Работа с инфраструктурой в DigitalOcean, AWS\n-Автоматизация разворачивания сервисов\n-Миграция, а также поддержка проектов на Kubernetes\n-Интеграция новых сервисов в существующую инфраструктуру\n-Администрирование операционных систем: RHEL/CentOS, Ubuntu\nЧто нам нужно от Вас:\n-Обязателен production опыт эксплуатации кластера kubernetes\n-Опыт работы с Linux системами\n-Понимание работы сетевых протоколов\n-Docker\n-git\n-Написание и поддержка Ansible playbooks\n-CI/CD (мы используем Drone CI, CircleCI)\n-Знакомство с одним из языков: Go, Python, Bash\n-Знания хотя бы об одном из продуктов: nginx, haproxy, tomcat\n-Опыт работы с PostgreSQL/MySQL, MongoDB\n-Глубокое понимание Terraform\n-Amazon Web Services\n-Знакомство с Prometheus\nNice to have:\n-Базовые знания DigitalOcean\n-Опыт работы с Kafka, Redis\n-Знакомство с ElasticSearch\nКомпания Snowball Gaming https://www.linkedin.com/company/snowball-gaming/about/\nКонтакт: maria.yudina@snowball.dev, TG @maria_you\n\n—\n\n👉 Обсуждение вакансии в чате @devops_jobs","markup":[{"type":"hashtag","offset":0,"length":9,"data":"вакансия"},{"type":"hashtag","offset":10,"length":7,"data":"DevOps"},{"type":"hashtag","offset":18,"length":9,"data":"fulltime"},{"type":"link","offset":1068,"length":55,"data":"https://www.linkedin.com/company/snowball-gaming/about/"},{"type":"link","offset":1133,"length":25,"data":"mailto:maria.yudina@snowball.dev"},{"type":"handle","offset":1163,"length":10,"data":"maria_you"},{"type":"handle","offset":1208,"length":12,"data":"devops_jobs"}],"date":"2020-03-26T12:56:42+00:00","link":"tg://resolve?domain=devops_jobs_feed&post=1851","tags":[{"name":"amazon-web-services"},{"name":"kubernetes"},{"name":"centos"},{"name":"ubuntu"},{"name":"linux"},{"name":"docker"},{"name":"git"},{"name":"ansible"},{"name":"python"},{"name":"bash"},{"name":"nginx"},{"name":"tomcat"},{"name":"postgresql"},{"name":"mysql"},{"name":"mongodb"},{"name":"web"},{"name":"kafka"},{"name":"redis"},{"name":"elasticsearch"}],"cities":[{"code":"nice"}],"allowsRemote":false}},{"node":{"__typename":"Job","id":"1388314624-1001091028994","title":"Java разработчик","text":"Вакансия: #java #developer #javadeveloper\nКомпания: #Эльдорадо \nЛокация: #москва #мск \nЗ/п: 170 - 190к net\nКонтакты: @observer69\n\nВ целях усиления команды разработки поискового сервиса интернет-магазина «Эльдорадо», ищем профессионального java-разработчика.\n\nЧем интересна наша вакансия:\n- ТК РФ;\n- Офис м. Красносельская/м. Бауманская;\n- Корпоративные скидки на продукцию компании;\n- Оформление ДМС после прохождения испытательного срока;\n- Опция для сотрудников \"система гибких льгот\", скидки сотрудникам от наших партнеров;\n- Конкурентоспособная, “белая” заработная плата (компенсационный пакет обсуждается индивидуально).\n\nВам предстоит:\n- Разработка поискового сервиса интернет-магазина «Эльдорадо», не UI;\n- Проектирование и реализация API;\n- Оценка разработки, проведение код-ревью;\n- Определение векторов развития/оптимизации сервиса;\n- Интеграция с внешними сервисами и системами.\n\nТехнологический стек:\n- java;\n- spring framework, spring boot, spring - cloud, spring batch;\n- git, gitlab, maven, teamcity;\n- hibernate, mysql;\n- elasticsearch;\n- mesos/marathon;\n- rabbitmq;\n- open API;\n- docker, k8s.\n\nТребования: \n- java 8 – уверенные знания, ООП, паттерны;\n- Понимание REST подхода к разработке API;\n- Опыт работы с Spring (Ioc, Data JPA, Boot, Cloud);\nhibernate;\n- Опыт профилирования и оптимизации производительности;\n- Опыт использования системы контроля версий git, а ткже понимание принципов её работы;\n- Английский на уровне чтения технической документации;\n- Базовые знания linux.\n\nБудет плюсом:\n- maven;\n- elasticsearch;\n- mesos/marathon\n- docker, k8s\n- groovy/spock","markup":[{"type":"bold","offset":0,"length":8,"data":""},{"type":"hashtag","offset":10,"length":5,"data":"java"},{"type":"hashtag","offset":16,"length":10,"data":"developer"},{"type":"hashtag","offset":27,"length":14,"data":"javadeveloper"},{"type":"bold","offset":42,"length":9,"data":""},{"type":"hashtag","offset":52,"length":10,"data":"Эльдорадо"},{"type":"bold","offset":64,"length":8,"data":""},{"type":"hashtag","offset":73,"length":7,"data":"москва"},{"type":"hashtag","offset":81,"length":4,"data":"мск"},{"type":"bold","offset":107,"length":9,"data":""},{"type":"handle","offset":117,"length":11,"data":"observer69"},{"type":"bold","offset":259,"length":29,"data":""},{"type":"bold","offset":627,"length":15,"data":""},{"type":"bold","offset":891,"length":22,"data":""},{"type":"bold","offset":1111,"length":13,"data":""},{"type":"bold","offset":1500,"length":14,"data":""}],"date":"2020-03-26T09:02:49+00:00","link":"tg://resolve?domain=jvmjobs&post=1324","tags":[{"name":"java"},{"name":"jvm"},{"name":"dotnet"},{"name":"spring"},{"name":"cloud"},{"name":"batch"},{"name":"git"},{"name":"gitlab"},{"name":"maven"},{"name":"hibernate"},{"name":"mysql"},{"name":"elasticsearch"},{"name":"rabbitmq"},{"name":"docker"},{"name":"rest"},{"name":"jpa"},{"name":"linux"},{"name":"groovy"},{"name":"spring-boot"}],"cities":[{"code":"moscow"}],"allowsRemote":false}},{"node":{"__typename":"Job","id":"23928504320-1001075660570","title":"Php разработчик","text":"#вакансия #Екатеринбург #екб #fulltime #php7 #Yii\nООО \"66 Бит\" — профессиональный разработчик программного обеспечения, специализирующийся на разработке под заказ не типовых IT проектов, ориентированных на международные рынки и крупных государственных заказчиков.\n\nВ связи с расширением компании, мы готовы взять в нашу команду талантливого и целеустремленного PHP разработчика.\n\nНаша основная специализация - разработка сложных программных продуктов на заказ. Мы будем рады всем тем, для кого IT – это призвание и любимое занятие.\n\nОбязанности:\n\n🏅разрабатывать backend-часть сайтов / сервисов;\n🏅разрабатывать CRUD админку на Yii2;\n🏅разрабатывать RESTful API на Yii2;\n\nТребования:\n🏅уверенные знание PHP 7‚ ООП;\n🏅знание Yii2 (или аналогичного фреймворка);\n🏅знание БД (MySQL‚ PostgreSQL): хорошее знание SQL‚ знание тонкостей оптимизации запросов;\n🏅уверенные знания HTML/HTML5‚ CSS‚ AJAX‚ препроцессоры;\n🏅опыт использования системы контроля версий – Git.\n\nБудет плюсом:\n🏅опыт работы с Gitlab-ci, Vue.js, Jira, Confluence;\n🏅опыт внедрения GraphQL в API.\n\nНаш стек технологий:\n🏅Инфраструктура на базе Docker и Gitlab-CI на собственных серверах (CI/CD);\n🏅Elastiсsearch + Kibana для поиска и анализа данных;\n🏅MySQL, PostgreSQL;\n🏅PHP 7+ Yii2;\n🏅Mysql, Redis, RabbitMQ;\n🏅Vue.js на фронте.\n\nУсловия:\n\n🔎Интересные задачи;\n👩🏼‍💻👨🏽‍💻Дружный молодой коллектив;\n⏱Плавающее начало рабочего дня;\n🏢Офис в центре, удобная транспортная развязка;\n📈Большие возможности профессионального роста;\n\n💰Вознаграждение зависит от уровня квалификации и устанавливается по итогам выполнения тестового задания;\n🍪🥤Кола, печеньки, чай, кофе и сок в ассортименте.\n\nКонтакты: @chapnow","markup":[{"type":"hashtag","offset":0,"length":9,"data":"вакансия"},{"type":"hashtag","offset":10,"length":13,"data":"Екатеринбург"},{"type":"hashtag","offset":24,"length":4,"data":"екб"},{"type":"hashtag","offset":29,"length":9,"data":"fulltime"},{"type":"hashtag","offset":39,"length":5,"data":"php7"},{"type":"hashtag","offset":45,"length":4,"data":"Yii"},{"type":"handle","offset":1666,"length":8,"data":"chapnow"}],"date":"2020-03-25T05:44:55+00:00","link":"tg://resolve?domain=php_jobs&post=22820","tags":[{"name":"php"},{"name":"yii"},{"name":"mysql"},{"name":"postgresql"},{"name":"sql"},{"name":"html"},{"name":"css"},{"name":"ajax"},{"name":"git"},{"name":"gitlab"},{"name":"vuejs"},{"name":"graphql"},{"name":"docker"},{"name":"redis"},{"name":"rabbitmq"}],"cities":[],"allowsRemote":false}},{"node":{"__typename":"Job","id":"23914872832-1001075660570","title":"Php developer","text":"#вакансия #php #senior #middle #москва \nКомпания skillbox.ru ищет в команду Middle/Senior PHP Developer (Laravel).\n\nЧем предстоит заниматься:\n •  Нужно будет продолжать развивать сервис авторизации;\n •  Поддерживать текущие проектов на Laravel + Vue;\n •  Участвовать в Code Review;\n •  Писать Unit-тесты;\n •  Ведение документации своего кода;\n •  Принимать активное участие в проектировании микросервисов и БД.\n\nЧто мы ждем от вас:\n •  Уверенные знания PHP7, MySQL, Laravel;\n •  Умение разбираться в Legacy code;\n •  Опыт работы с Redis, WebSockets;\n •  Опыт работы с системами контроля версий – git;\n •  Опыт интеграции с внешними системами по API;\n •  Хорошее знание системы Linux (Ubuntu);\n •  Ответственность и инициативность;\n •  Умение внятно выражать свои мысли устно и письменно;\n •  Умение адекватно оценивать сроки на реализацию той или иной задачи.\n\nМы предлагаем отличные условия:\n •  Белую зарплату от 150.000 net (оклад обсудим индивидуально)\n •  Возможность прохождения любых дистанционных курсов Skillbox бесплатно, а еще корпоративную скидку на изучение английского языка в Skyeng и фитнес.\n •  Рост внутри компании не ограничен, всегда найдется то, что будет интересно тебе;\n •  Корпоративные активности (волейбол, футбол, квесты, квизы, шахматы, Skillbox.fm и др.);\n •  Наша команда творит в новом и стильном офисе на м.Октябрьская;\n •  Гибкий график работы (время прихода на работу в интервале с 8 до 12) и отсутствие дресс-кода;\n\nКонтакты: alina.nesterova@skillbox.ru      @AlinalaAlina","markup":[{"type":"hashtag","offset":0,"length":9,"data":"вакансия"},{"type":"hashtag","offset":10,"length":4,"data":"php"},{"type":"hashtag","offset":15,"length":7,"data":"senior"},{"type":"hashtag","offset":23,"length":7,"data":"middle"},{"type":"hashtag","offset":31,"length":7,"data":"москва"},{"type":"link","offset":49,"length":11,"data":"http://skillbox.ru"},{"type":"bold","offset":76,"length":38,"data":""},{"type":"bold","offset":116,"length":25,"data":""},{"type":"bold","offset":412,"length":19,"data":""},{"type":"bold","offset":861,"length":31,"data":""},{"type":"link","offset":1265,"length":11,"data":"http://Skillbox.fm"},{"type":"link","offset":1461,"length":27,"data":"mailto:alina.nesterova@skillbox.ru"},{"type":"handle","offset":1494,"length":13,"data":"AlinalaAlina"}],"date":"2020-03-24T14:13:39+00:00","link":"tg://resolve?domain=php_jobs&post=22807","tags":[{"name":"php"},{"name":"laravel"},{"name":"vuejs"},{"name":"mysql"},{"name":"redis"},{"name":"git"},{"name":"linux"},{"name":"ubuntu"},{"name":"dotnet"}],"cities":[{"code":"moscow"}],"allowsRemote":false}},{"node":{"__typename":"Job","id":"1378877440-1001091028994","title":"Java developer","text":"#вакансия #backend #javadeveloper #java #spb\nЛокация: Санкт-Петербург, станция метро Петроградская\nЗанятость: полная/ офис / гибкое начало рабочего дня\nЗарплата: от 180 000 net\nКомпания: ТетраСофт\nКонтакты: @dproto (Telegram), darya.protopopova@tetra-soft.ru\n\nКомпания ТетраСофт разрабатывает крутые информационные системы для сопровождения строительства нефтяных и газовых скважин (удаленный мониторинг различных параметров, аналитика на основе полученных данных, сбор и формирование отчётов).\nВ данный момент мы разрабатываем новый функционал платформы (SSO + modules).\nДля этого мы хотим усилить команду и приглашаем вас стать её частью.\n\nТехнологический стек разработки:\nJava 8, Spring, Hibernate, Elasticsearch, NATS, JUnit, MySQL, OAuth 2.0.\n\nЧто нужно будет делать:\n• Реализовывать алгоритмы работы с данными\n• Прорабатывать функциональные блоки бекенд части от проектирования до реализации\n• Участвовать в code review\n• Проектировать API\n\nЖдем от вас:\n• Опыт коммерческой разработки от 3-х лет\n• Хорошее знание Java core\n• Spring Boot (Security, MVC, REST Docs)\n• Hibernate 4+\n• Знание какого-либо SQL сервера\n• Знание алгоритмов и структур данных\n• Умение писать junit тесты\n• Понимание уязвимостей от OWASP Top 10\n• Умение работать с системой контроля версия (git)\n• Знание минимум одной системы сборки (ant, maven, gradle)\n\nБудет плюсом:\n• NoSQL\n• Docker\n• Знание коммуникационных протоколов (в том числе промышленных)\n• Опыт работы в Linux системах\n• Elasticsearch\n• Опыт работы с message broker\n• Знание других языков программирования\n• Понимание SOLID-принципов\n\nОт нас:\n• Гибкое начало рабочего дня (с 9:00 до 11:00);\n• Интересные проекты с возможностью карьерного роста;\n• Ежегодная премия по итогам работы;\n• Ежегодный пересмотр заработной платы по результатам работы;\n• ДМС после успешного прохождение ИС (включая стоматологию);\n• Компенсация питания;\n• Бесплатные курсы английского языка на территории офиса;\n• Возможность профильного обучения за счёт компании (оплата конференций, курсов);\n• Кикер, настолки, турник, XBox, корпоративные мероприятия;\n• Корпоративный волейбол на песке;\n• Иногородним соискателям помощь в релокации.","markup":[{"type":"hashtag","offset":0,"length":9,"data":"вакансия"},{"type":"hashtag","offset":10,"length":8,"data":"backend"},{"type":"hashtag","offset":19,"length":14,"data":"javadeveloper"},{"type":"hashtag","offset":34,"length":5,"data":"java"},{"type":"hashtag","offset":40,"length":4,"data":"spb"},{"type":"bold","offset":45,"length":8,"data":""},{"type":"bold","offset":99,"length":10,"data":""},{"type":"bold","offset":152,"length":9,"data":""},{"type":"bold","offset":177,"length":9,"data":""},{"type":"bold","offset":197,"length":9,"data":""},{"type":"handle","offset":207,"length":7,"data":"dproto"},{"type":"link","offset":227,"length":31,"data":"mailto:darya.protopopova@tetra-soft.ru"},{"type":"bold","offset":642,"length":31,"data":""},{"type":"bold","offset":749,"length":23,"data":""},{"type":"bold","offset":947,"length":12,"data":""},{"type":"bold","offset":1335,"length":13,"data":""},{"type":"bold","offset":1577,"length":7,"data":""}],"date":"2020-03-24T10:39:20+00:00","link":"tg://resolve?domain=jvmjobs&post=1315","tags":[{"name":"java"},{"name":"jvm"},{"name":"dotnet"},{"name":"spring"},{"name":"hibernate"},{"name":"elasticsearch"},{"name":"junit"},{"name":"mysql"},{"name":"oauth"},{"name":"rest"},{"name":"sql"},{"name":"git"},{"name":"ant"},{"name":"maven"},{"name":"gradle"},{"name":"nosql"},{"name":"docker"},{"name":"linux"},{"name":"spring-boot"}],"cities":[],"allowsRemote":true}}]}}},"context":{}}