{"hash":"f5f6bf98bd95e769321482904cbbd488f77922fd","data":{"records":{"id":"orm","name":"orm","belongsTo":{"totalCount":15,"pageInfo":{"totalPages":2,"currentPage":1},"edges":[{"node":{"__typename":"Job","id":"1763704832-1001091028994","title":"Java разработчик","text":"#Java #developer #Сочи #fulltime #работа #офис \n\nВакансия: Java-разработчик\n\nГород: Сочи\n\nФормат работы: офис\n\nЗанятость: fulltimе\n\nЗарплатная вилка: от 130 000 до 150 000 рублей\n\nОписание вакансии:\nСоздание системы по управлению метаданными компании. Работа в кроссфункциональной команде в составе до 10 человек\n\nНазвание компании: ОЦРВ\n\nПримерный пул задач:\n•  Разработка системы по управлению метаданными\n•  Участие в построение архитектуры решения\n•  Разработка интеграционных сценариев с другими системами\n•  Подготовка инструкций и документации\n\n\nНаши требования к кандидату: \n•  Аналитическое мышление, понимание работы алгоритмов, структур данных и оптимизации работы приложений\n•  Понимание паттернов проектирования, умение писать чистый читаемый код\n•  Знание Java SE (Core, Servlets, Exceptions)\n•  Опыт работы с Spring Framework (Boot, MVC, Data, Security), Hibernate ORM\n•  Опыт работы с веб-сервисами (SOAP, REST)\n•  Опыт работы с микросервисной архитектурой\n•  Опыт работы и развертывания приложений под Linux\n•  Опыт работы с очередями и брокерами сообщений (Kafka, Rabbit, ActiveMQ)\n•  Знание SQL\n•  Опыт работы с инструментами сборки Maven, Gradle\n•  Опыт работы с GIT\n\nБудет плюсом\n•  Опыт написания скриптов автоматизации для CI/CD (bash, python, Java, Groovy)\n•  Опыт работы с базами данных NoSQL (Janus Graph, HBase, Cassandra)\n•  Навыки frontend-разработки (HTML, CSS, React/Vue.js)\n•  Опыт работы с системами BPM или СЭД (Spring Activity, Camunda)\n•  Опыт работы с Apache Atlas, ODPi Egeria\n\n\n\nНаш стек:\nБек: Java 8-11, Spring, PostgreSQL/HBase/MongoDB/JanusGraph, GIT, Docker, Kubernetes, Kafka\nФронт: Vue.js\n\nУсловия: \n•  Офис в Адлере в 10 минутах до моря\n•  Оклад: 130 000 - 150 000 руб. gross\n•  Компенсация проживания 20 000 руб. gross в месяц (для кандидатов из других регионов)\n•  Релокационный бонус в размере оклада (для кандидатов из других регионов)\n•  Премия до 30% годового оклада\n•  Работа в динамичной команде единомышленников\n•  Компенсация ДМС после прохождения испытательного срока\n•  Скидки на ДМС для родственников\n•  Компенсация мобильной связи\n•  Новейшее оборудование и просторный офис\n•  Лучшая экология и климат в России\n•  Море и горнолыжный курорт рядом\n\n\nКомпания: ОЦРВ\nСайт: http://www.ocrv.ru/\nКонтакты: @Mirovan","markup":[{"type":"hashtag","offset":0,"length":5,"data":"Java"},{"type":"hashtag","offset":6,"length":10,"data":"developer"},{"type":"hashtag","offset":17,"length":5,"data":"Сочи"},{"type":"hashtag","offset":23,"length":9,"data":"fulltime"},{"type":"hashtag","offset":33,"length":7,"data":"работа"},{"type":"hashtag","offset":41,"length":5,"data":"офис"},{"type":"link","offset":2229,"length":19,"data":"http://www.ocrv.ru/"},{"type":"handle","offset":2259,"length":8,"data":"Mirovan"}],"date":"2020-06-29T11:37:47+00:00","link":"tg://resolve?domain=jvmjobs&post=1682","tags":[{"name":"java"},{"name":"jvm"},{"name":"spring"},{"name":"hibernate"},{"name":"orm"},{"name":"soap"},{"name":"rest"},{"name":"linux"},{"name":"kafka"},{"name":"rabbitmq"},{"name":"sql"},{"name":"maven"},{"name":"gradle"},{"name":"git"},{"name":"bash"},{"name":"python"},{"name":"groovy"},{"name":"nosql"},{"name":"hbase"},{"name":"cassandra"},{"name":"html"},{"name":"css"},{"name":"reactjs"},{"name":"vuejs"},{"name":"apache"},{"name":"postgresql"},{"name":"mongodb"},{"name":"docker"},{"name":"kubernetes"}],"cities":[{"code":"sochi"}],"allowsRemote":false}},{"node":{"__typename":"Job","id":"1760559104-1001091028994","title":"Java разработчик","text":"#вакансия #удаленка #Java\n\nВакансия: Backend Java разработчик (middle, senior)\n\nЛокация: #Москва #удаленка\nВилка по ЗП: middle до 170 000 net, senior до 200 000 net)\nКонтакт: @Hr_Dina\nОсновной проект: Разработка подсистемы обеспечения юридической значимости электронного документооборота.\nСтек технологий: Java 11, Spring (Core, Boot, Security, Data), JPA (Hibernate), PostgreSQL, Angular, Ant-design, Docker.\n\nЧто нужно делать:\nBack-end - разработка проектов разных масштабов и направленности, в том числе проектов с \"нуля\"\nРефакторинг, оптимизация и модернизация кода существующих проектов\nУчастие в разработке архитектуры проекта\nРабота с разными проектными командами архитекторов, разработчиков и тестировщиков\n\nЧто мы ждем от вас:\nОпыт работы (обязательный):\nОпыт коммерческой разработки на Java от 3х лет.\nОпыт работы (желательный):\nОпыт разработки высоконагруженных приложений на Java от 1го года.\n\nНавыки (обязательные):\n- Java SE 8+ (Core, Collections, Multithreading);\n- Spring (Core, Boot, Security, Data);\n- ORM: Hibernate/JOOQ;\n- Кеши (Ehcache/Redis/Hazelcast/Ignite/GridGain/etc);\n- Очереди (Kafka/RabbitMQ/ActiveMQ/etc);\n- Проектирование REST API (Swagger);\n- БазыданныхPostgre/Oracle\n- Maven, Git\n\nНавыки (желательные):\n- OAuth, OpenId, SSO/SAML, WS-Security, PKI, Kerberos;\n- Docker\n- GitLab, Sonar","markup":[{"type":"hashtag","offset":0,"length":9,"data":"вакансия"},{"type":"hashtag","offset":10,"length":9,"data":"удаленка"},{"type":"hashtag","offset":20,"length":5,"data":"Java"},{"type":"bold","offset":27,"length":9,"data":""},{"type":"bold","offset":80,"length":8,"data":""},{"type":"hashtag","offset":89,"length":7,"data":"Москва"},{"type":"hashtag","offset":97,"length":9,"data":"удаленка"},{"type":"bold","offset":107,"length":12,"data":""},{"type":"bold","offset":166,"length":8,"data":""},{"type":"handle","offset":175,"length":8,"data":"Hr_Dina"},{"type":"bold","offset":184,"length":16,"data":""},{"type":"bold","offset":289,"length":16,"data":""},{"type":"bold","offset":411,"length":18,"data":""},{"type":"bold","offset":716,"length":20,"data":""},{"type":"bold","offset":906,"length":23,"data":""},{"type":"bold","offset":1214,"length":22,"data":""}],"date":"2020-06-29T11:03:15+00:00","link":"tg://resolve?domain=jvmjobs&post=1679","tags":[{"name":"java"},{"name":"jvm"},{"name":"dotnet"},{"name":"spring"},{"name":"jpa"},{"name":"hibernate"},{"name":"postgresql"},{"name":"angularjs"},{"name":"ant"},{"name":"docker"},{"name":"orm"},{"name":"redis"},{"name":"kafka"},{"name":"rabbitmq"},{"name":"rest"},{"name":"swagger"},{"name":"oracle"},{"name":"maven"},{"name":"git"},{"name":"oauth"},{"name":"gitlab"}],"cities":[{"code":"moscow"}],"allowsRemote":true}},{"node":{"__typename":"Job","id":"1757413376-1001091028994","title":"Java разработчик","text":"#Middle #Java #Developer\nЛокация: #удаленка #офис (Москва)\nЗ/п: 100 000 – 150 000 Net\nКонтакт: @Elena19_10Kom\n\nНаша компания занимается разработкой программного обеспечения в сфере аффилированного маркетинга, оказывает сервис, связанный с обслуживанием клиентов, генерирующих трафик для различных зарубежных проектов.\nМы запускаем очередной новый проект. Цель проекта - получить современный портал в области теннисного спорта. Это должна быть мощная платформа, которая превзойдет по удобству и современности все существующие на данный момент платформы этой тематики.\nПроект стартует с \"0\", поэтому предоставляется уникальная возможность начать \"все с самого начала\", а не разбираться и пилить Legacy код.\n\nОбязанности:\n•  разработка и сопровождение веб-проектов\n•  модульное и интеграционное тестирование\n•  системная интеграция и развертывание приложений\n•  обеспечение технической поддержки второго и третьего уровня\nТребования:\n•  опыт коммерческой разработки на java от 3-х лет\n•  знание Spring Framework (в т.ч. SpringBoot, SpringData, SpringSecurity)\n•  знание ORM (JPA или Hibernate)\n•  опыт работы с RDBMS, желательно PostgreSQL\n•  опыт работы по практикам Agile, DevOps, CI/CD\n•  знание Java Core, collections, multithreading, concurrency, generics, reflection\n•  знание и понимание основных принципов ООП\n•  знание паттернов проектирования\n•  умение писать качественный и понятный код\n•  английский – уровень Intermediate\nБудет плюсом:\n•  опыт разработки на Playframework, Akka, Akka-Persistence\n•  опыт работы Full-Stack разработчиком на React/Redux\n•  опыт работы в команде\n•  знание Apache Cassandra\n•  опыт работы с Docker и Kubernetes\n•  опыт работы с микросервисной архитектурой\n•  опыт работы c AWS или другими Cloud платформами\n•  понимание принципов работы HTTP, Websockets\n•  понимание принципов работы stream-processing, reactive, CQRS\n•  наличие примеров кода на GitHub\n•  опыт администрирования Linux\nУсловия:\n•  зарплату обсуждаем\n•  оформление по ТК РФ\n•  можно работать удаленно или в комфортном офисе, который находится в пешей доступности от м. Динамо, с панорамным видом на Москву, на 25 этаже бизнес-центра класса \"А\"\n•  гибкое начало рабочего дня\n•  работа на MacBook air\n•  выделение бюджета для каждого сотрудника на развитие как профессиональных навыков (английский язык, курсы повышения квалификации), так и физических возможностей (корпоративный фитнес)","markup":[{"type":"hashtag","offset":0,"length":7,"data":"Middle"},{"type":"hashtag","offset":8,"length":5,"data":"Java"},{"type":"hashtag","offset":14,"length":10,"data":"Developer"},{"type":"hashtag","offset":34,"length":9,"data":"удаленка"},{"type":"hashtag","offset":44,"length":5,"data":"офис"},{"type":"handle","offset":95,"length":14,"data":"Elena19_10Kom"}],"date":"2020-06-29T10:38:58+00:00","link":"tg://resolve?domain=jvmjobs&post=1676","tags":[{"name":"java"},{"name":"jvm"},{"name":"dotnet"},{"name":"spring"},{"name":"orm"},{"name":"jpa"},{"name":"hibernate"},{"name":"postgresql"},{"name":"playframework"},{"name":"akka"},{"name":"reactjs"},{"name":"redux"},{"name":"apache"},{"name":"cassandra"},{"name":"docker"},{"name":"kubernetes"},{"name":"amazon-web-services"},{"name":"cloud"},{"name":"github"},{"name":"linux"},{"name":"react-redux"}],"cities":[{"code":"moscow"}],"allowsRemote":true}},{"node":{"__typename":"Job","id":"1743781888-1001091028994","title":"Java разработчик","text":"#вакансия #java # Senior #middle #Москва \nГород: Москва, метро Тульская\nФормат работы: full-time, офис ( сейчас удаленно)\nЗарплатная вилка: 180 -300к рублей на руки ( + годовой бонус) – в зависимости от вашего опыта\nКонтакты: @vsevkosmo\nКомпания: Сбербанк\nSenior Java Разработчик\nРазвитие функциональности брокерского обслуживания для физических и юридических лиц.\nТехнические требования:\nХорошие знания Java Core\nОпыт работы с ORM(Hibernate/Jooq)\nУмение писать и оптимизировать SQL-запросы\nУверенное знание Spring Framework\nОпыт работы с системой контроля версий: Git/Mercurial\nХорошее понимание принципов ООП\nТехнический английский\n\nПреимуществом будет:\nОпыт работы с Docker/Openshift\nОпыт работы с Spring Boot\nОпыт работы с Istio\nОпыт работы с Kafka\nНавыки работы в Linux системах.\nОпыт разработки высоконагруженных сервисов;\nЗнание Gradle\n\nОбязанности:\nРазработка серверных приложений на Java\nРазработка новой функциональности\nРазработка архитектуры \nНаписание unit-тестов\nОптимизация и рефакторинг кода\nРевью кода","markup":[{"type":"hashtag","offset":0,"length":9,"data":"вакансия"},{"type":"hashtag","offset":10,"length":5,"data":"java"},{"type":"hashtag","offset":25,"length":7,"data":"middle"},{"type":"hashtag","offset":33,"length":7,"data":"Москва"},{"type":"handle","offset":226,"length":10,"data":"vsevkosmo"}],"date":"2020-06-26T06:49:08+00:00","link":"tg://resolve?domain=jvmjobs&post=1663","tags":[{"name":"java"},{"name":"jvm"},{"name":"orm"},{"name":"hibernate"},{"name":"sql"},{"name":"spring"},{"name":"git"},{"name":"mercurial"},{"name":"docker"},{"name":"kafka"},{"name":"linux"},{"name":"gradle"},{"name":"spring-boot"}],"cities":[{"code":"moscow"}],"allowsRemote":true}},{"node":{"__typename":"Job","id":"92278882304-1001067529236","title":"Python разработчик","text":"#вакансия #python #fulltime #office #remote #Senior #Lead #backend #офис #удаленка #работа\n\nЗп от 160 000 net \nКомпания в поисках Lead Python  удаленно.\nНеобходимые навыки:\n🔹Software development experience 5+, \n🔹Experience with Django (Django ORM, Django Rest Framework (1+years);\n🔹Experience with AWS services: Lambda, API Gateway, SNS, SQS, SES, S3, RDS, VPC, EC2, CloudWatch, etc.\n🔹Experience writing API and working / integration with API of third-party services;\n🔹Knowledge of the GraphQL API (Graphene will be a plus)\n🔹Knowledge of SQL (PostgreSQL relational DBMS will be a plus)\n🔹Knowledge of CloudFormation in AWS and Terraform;\n🔹Ability to read code and understand it at the level of business logic;\n🔹Ability to work with general abstract tasks;\n🔹Written and spoken English is a MUST (B2+)\n\nКонтакты: @Nataly_3 или на почту: n.mazepa@art2hires.com","markup":[{"type":"hashtag","offset":0,"length":9,"data":"вакансия"},{"type":"hashtag","offset":10,"length":7,"data":"python"},{"type":"hashtag","offset":18,"length":9,"data":"fulltime"},{"type":"hashtag","offset":28,"length":7,"data":"office"},{"type":"hashtag","offset":36,"length":7,"data":"remote"},{"type":"hashtag","offset":44,"length":7,"data":"Senior"},{"type":"hashtag","offset":52,"length":5,"data":"Lead"},{"type":"hashtag","offset":58,"length":8,"data":"backend"},{"type":"hashtag","offset":67,"length":5,"data":"офис"},{"type":"hashtag","offset":73,"length":9,"data":"удаленка"},{"type":"hashtag","offset":83,"length":7,"data":"работа"},{"type":"handle","offset":820,"length":9,"data":"Nataly_3"},{"type":"link","offset":844,"length":22,"data":"mailto:n.mazepa@art2hires.com"}],"date":"2020-06-25T10:24:20+00:00","link":"tg://resolve?domain=python_jobs&post=88004","tags":[{"name":"python"},{"name":"dotnet"},{"name":"django"},{"name":"orm"},{"name":"rest"},{"name":"amazon-web-services"},{"name":"aws-lambda"},{"name":"graphql"},{"name":"sql"},{"name":"postgresql"}],"cities":[],"allowsRemote":true}},{"node":{"__typename":"Job","id":"92233793536-1001067529236","title":"Python разработчик","text":"#вакансия #python #Django #vacancy #IT  #remote\n\nДрузья, всем привет! \nНовая вакансия -  #Senior_PythonDeveloper\nЛокация - Россия,\nПолный рабочий день, #remote \n#Оплата: 3000$\n\nТребования:\n\n-Опыт работы в индустрии разработки ПО от 5-ти лет;\n-Уверенное знание Python 3+/Python Core (языковые структуры, стандартные библиотеки, регулярные выражения и т.д.);\n-Практический опыт работы с Django (Django ORM, Django Rest Framework);\n-Иметь представление о GraphQL APIs (Graphene будет плюсом);\n-Знание SQL (знание реляционной СУБД PostgreSQL будет плюсом) на уровне работы как прикладного разработчика;\n-Опыт написания API и работы/интеграции с API сторонних сервисов;\n-Опыт работы с рядом AWS-сервисов: Lambda, API Gateway, SNS, SQS, SES, S3, RDS, VPC, EC2, CloudWatch, etc;\n-The English language MUST HAVE (B2+ level) to work with the english speaking team.\n\n\nЗа дополнительной информацией, пишите в ЛС:  @Zalvovskaya","markup":[{"type":"hashtag","offset":0,"length":9,"data":"вакансия"},{"type":"hashtag","offset":10,"length":7,"data":"python"},{"type":"hashtag","offset":18,"length":7,"data":"Django"},{"type":"hashtag","offset":26,"length":8,"data":"vacancy"},{"type":"hashtag","offset":35,"length":3,"data":"IT"},{"type":"hashtag","offset":40,"length":7,"data":"remote"},{"type":"hashtag","offset":89,"length":23,"data":"Senior_PythonDeveloper"},{"type":"hashtag","offset":152,"length":7,"data":"remote"},{"type":"hashtag","offset":161,"length":7,"data":"Оплата"},{"type":"handle","offset":903,"length":12,"data":"Zalvovskaya"}],"date":"2020-06-23T21:10:23+00:00","link":"tg://resolve?domain=python_jobs&post=87961","tags":[{"name":"python"},{"name":"django"},{"name":"orm"},{"name":"rest"},{"name":"graphql"},{"name":"sql"},{"name":"postgresql"},{"name":"amazon-web-services"},{"name":"aws-lambda"}],"cities":[],"allowsRemote":true}},{"node":{"__typename":"Job","id":"91639250944-1001067529236","title":"Python developer","text":"#вакансия #python #fulltime #office #remote #Senior #Lead #backend #офис #удаленка #работа\nВсем привет!\nКомпания в поисках Lead Python в офис в Томск или удаленно\n 💸 Зп от 150 000 net \n\nНеобходимые навыки:\n🔸Software development experience 5+, \n🔸Experience with Django (Django ORM, Django Rest Framework (1+years);\n🔸Experience with AWS services: Lambda, API Gateway, SNS, SQS, SES, S3, RDS, VPC, EC2, CloudWatch, etc.\n🔸Experience writing API and working / integration with API of third-party services;\n🔸Knowledge of the GraphQL API (Graphene will be a plus)\n🔸Knowledge of SQL (PostgreSQL relational DBMS will be a plus)\n🔸Knowledge of CloudFormation in AWS and Terraform;\n🔸Ability to read code and understand it at the level of business logic;\n🔸Ability to work with general abstract tasks;\n🔸Written and spoken English is a MUST (B2+)\n\n📝🔍Описание вакансии: https://art2hire.catsone.com/careers/89104-General/jobs/13388214-Senior-Python-Developer/\n📥Контакты: @Nataly_3 или на почту: n.mazepa@art2hires.com","markup":[{"type":"hashtag","offset":0,"length":9,"data":"вакансия"},{"type":"hashtag","offset":10,"length":7,"data":"python"},{"type":"hashtag","offset":18,"length":9,"data":"fulltime"},{"type":"hashtag","offset":28,"length":7,"data":"office"},{"type":"hashtag","offset":36,"length":7,"data":"remote"},{"type":"hashtag","offset":44,"length":7,"data":"Senior"},{"type":"hashtag","offset":52,"length":5,"data":"Lead"},{"type":"hashtag","offset":58,"length":8,"data":"backend"},{"type":"hashtag","offset":67,"length":5,"data":"офис"},{"type":"hashtag","offset":73,"length":9,"data":"удаленка"},{"type":"hashtag","offset":83,"length":7,"data":"работа"},{"type":"link","offset":867,"length":89,"data":"https://art2hire.catsone.com/careers/89104-General/jobs/13388214-Senior-Python-Developer/"},{"type":"handle","offset":969,"length":9,"data":"Nataly_3"},{"type":"link","offset":993,"length":22,"data":"mailto:n.mazepa@art2hires.com"}],"date":"2020-06-22T13:31:31+00:00","link":"tg://resolve?domain=python_jobs&post=0","tags":[{"name":"python"},{"name":"dotnet"},{"name":"django"},{"name":"orm"},{"name":"rest"},{"name":"amazon-web-services"},{"name":"aws-lambda"},{"name":"graphql"},{"name":"sql"},{"name":"postgresql"}],"cities":[{"code":"tomsk"}],"allowsRemote":true}},{"node":{"__typename":"Job","id":"1713373184-1001091028994","title":"Java разработчик","text":"#Москва #вакансия #java #spring #fulltime #backend #office #middle #senior \n\nКомпания: СберТех.\n\nОфис: Москва, м. Нагатинская/м. Тульская/ м. Верхние Котлы.\n\nЗП: от 180-290 Net.\n\n📂Проект: Разработка платформы для управления бизнес-процессами Банка и  Цифровой Платформы Sber.\n\n🗓Задачи:\n• Участие в разработке высоконагруженного сервиса исполнения бизнес процессов на языке BPMN2.\n• Участие в RnD и прототипировании open source движков для сервиса.\n• Покрытие своего кода тестами.\n\n📎Cтек: Java8+, Spring Framework, Spring Boot, ORM, Apache Kafka.\n\n🔰Условия:\n• Оформление ТК РФ.\n• ДМС для сотрудников и скидки на медицинскую страховку для родственников;\n• Высокая белая заработная плата (оклад + годовая премия).\n• Возможность обучения за счет компании, посещения IT-конференций.\n• Бесплатный тренажерный зал на территории офиса.\n• Корпоративная жизнь и спортивные мероприятия.\n\n📩Готов ответить на интересующие вопросы - @Dmiryy","markup":[{"type":"hashtag","offset":0,"length":7,"data":"Москва"},{"type":"hashtag","offset":8,"length":9,"data":"вакансия"},{"type":"hashtag","offset":18,"length":5,"data":"java"},{"type":"hashtag","offset":24,"length":7,"data":"spring"},{"type":"hashtag","offset":32,"length":9,"data":"fulltime"},{"type":"hashtag","offset":42,"length":8,"data":"backend"},{"type":"hashtag","offset":51,"length":7,"data":"office"},{"type":"hashtag","offset":59,"length":7,"data":"middle"},{"type":"hashtag","offset":67,"length":7,"data":"senior"},{"type":"handle","offset":924,"length":7,"data":"Dmiryy"}],"date":"2020-06-19T18:13:29+00:00","link":"tg://resolve?domain=jvmjobs&post=1634","tags":[{"name":"java"},{"name":"jvm"},{"name":"spring"},{"name":"dotnet"},{"name":"orm"},{"name":"apache"},{"name":"kafka"},{"name":"spring-boot"}],"cities":[{"code":"moscow"}],"allowsRemote":false}},{"node":{"__typename":"Job","id":"1707081728-1001091028994","title":"Java разработчик","text":"#vacancy #Java #middle #удаленка #новый проект #вакансия  #удаленка #Java #Spring #React #senior #backend\n\nНаша компания занимается разработкой программного обеспечения в сфере аффилированного маркетинга, оказывает сервис, связанный с обслуживанием клиентов, генерирующих трафик для различных зарубежных проектов.\nМы не останавливаемся на достигнутом и запускаем очередной новый проект. Цель проекта - получить современный портал в области теннисного спорта. Это должна быть мощная платформа, которая превзойдет по удобству и современности все существующие на данный момент платформы этой тематики.\nПроект стартует с \"0\", поэтому предоставляется уникальная возможность начать \"все с самого начала\", а не разбираться и пилить Legacy код.\nИщем разработчика на Java уровня Middle+\nОфис расположен в Москве, работать можно из любой точки Мира.\nТребования:\nопыт коммерческой разработки на java от 3-х лет;\nзнание Spring Framework (в т.ч. SpringBoot, SpringData, SpringSecurity);\nзнание ORM (JPA или Hibernate);\nопыт работы с RDBMS, желательно PostgreSQL;\nопыт работы по практикам Agile, DevOps, CI/CD;\nзнание Java Core, collections, multithreading, concurrency, generics, reflection;\nзнание и понимание основных принципов ООП;\nзнание паттернов проектирования\nумение писать качественный и понятный код;\nанглийский – уровень Intermediate\n\n@Elena19_10Kom\nelena.komkova@robusta.team\n+79264236022\nз/п: 100 000 - 150 000 (зависит от опыта)","markup":[{"type":"hashtag","offset":0,"length":8,"data":"vacancy"},{"type":"hashtag","offset":9,"length":5,"data":"Java"},{"type":"hashtag","offset":15,"length":7,"data":"middle"},{"type":"hashtag","offset":23,"length":9,"data":"удаленка"},{"type":"hashtag","offset":33,"length":6,"data":"новый"},{"type":"hashtag","offset":47,"length":9,"data":"вакансия"},{"type":"hashtag","offset":58,"length":9,"data":"удаленка"},{"type":"hashtag","offset":68,"length":5,"data":"Java"},{"type":"hashtag","offset":74,"length":7,"data":"Spring"},{"type":"hashtag","offset":82,"length":6,"data":"React"},{"type":"hashtag","offset":89,"length":7,"data":"senior"},{"type":"hashtag","offset":97,"length":8,"data":"backend"},{"type":"handle","offset":1332,"length":14,"data":"Elena19_10Kom"},{"type":"link","offset":1347,"length":26,"data":"mailto:elena.komkova@robusta.team"},{"type":"link","offset":1374,"length":12,"data":"tel:+79264236022"}],"date":"2020-06-18T11:30:31+00:00","link":"tg://resolve?domain=jvmjobs&post=1628","tags":[{"name":"java"},{"name":"jvm"},{"name":"spring"},{"name":"reactjs"},{"name":"orm"},{"name":"jpa"},{"name":"hibernate"},{"name":"postgresql"}],"cities":[],"allowsRemote":true}},{"node":{"__typename":"Job","id":"17020485632-1001110946746","title":"Js developer","text":"#вакансия  #js  #node #спб                                                                                 Вакансия: BACKEND JS DEVELOPER (NODE.JS) \n\nФормат: офис\nЛокация: санкт-петербург, метро: комендантский проспект\nЗанятость: Полная, офис. (Удаленная работа на время карантина)\nОпыт: от 2 лет\nЗарплата: от 180000 до 300000 тыс. руб на руки\nКомпания: Aline digital agency \n\nУ нас комфортный офис, гибкий график работы, отличный коллектив, классные корпоративы:) Команда занимается написанием софта для крупной международной букмекерской конторы, онлайн-кинотеатра, партнерской программы и других крупных проектов. Наши офисы расположены в Киеве и Спб.\n\nТребования:\n\n🔸 Опыт коммерческой разработки на JavaScript/Java от 2 лет;\n🔸 Опыт работы с базами данных (MySQL / Redis / Clickhouse);\n🔸 Опыт работы с брокерами сообщений и микросервисной архитектурой\n🔸 Опыт работы с Node.js ( koa / Socket.io);\n🔸 Читаемый, комментируемый и поддерживаемый код;\n🔸 Внимательное отношение к своему и чужому коду:)\n\nОбязанности:\n\nНеобходимо будет заниматься поддержкой и развитием новой составляющей нашего сервиса на Nodejs, поэтому опыт обязателен (koa/socket.io).\n\nУсловия:\n\n🔸 Работа в современном офисе недалеко от метро;\n🔸 Оборудованное отличной техникой рабочее место;\n🔸 График 5/2 с сокращенным рабочим днем;\n🔸 Конкурентный уровень ЗП, который будет установлен по результатам собеседования;\n🔸 Перспектива карьерного роста;\n🔸 Оплачиваем ваш переезд, если вы находитесь не в Санкт-Петербурге.\n\nСтек:\n\n🔸 node.js 8+\n🔸 async/await\n🔸 mysql(native driver only/no builders/orm's)\n🔸 redis/rabbit\n🔸 socket.io\n🔸 optional:\n🔸 ramda \n\nПо всем вопросам: @DashaChernenkova\n\n—\n\n👉 Обсуждение вакансии в чате @javascript_jobs","markup":[{"type":"hashtag","offset":0,"length":9,"data":"вакансия"},{"type":"hashtag","offset":11,"length":3,"data":"js"},{"type":"hashtag","offset":16,"length":5,"data":"node"},{"type":"hashtag","offset":22,"length":4,"data":"спб"},{"type":"link","offset":891,"length":9,"data":"http://Socket.io"},{"type":"link","offset":1144,"length":9,"data":"http://socket.io"},{"type":"link","offset":1596,"length":9,"data":"http://socket.io"},{"type":"handle","offset":1648,"length":17,"data":"DashaChernenkova"},{"type":"handle","offset":1700,"length":16,"data":"javascript_jobs"}],"date":"2020-06-17T15:28:54+00:00","link":"tg://resolve?domain=javascript_jobs_feed&post=0","tags":[{"name":"javascript"},{"name":"nodejs"},{"name":"java"},{"name":"mysql"},{"name":"redis"},{"name":"orm"},{"name":"rabbitmq"}],"cities":[],"allowsRemote":false}}]}}},"context":{}}