{"hash":"f5f6bf98bd95e769321482904cbbd488f77922fd","data":{"records":{"id":"qa","name":"qa","belongsTo":{"totalCount":208,"pageInfo":{"totalPages":21,"currentPage":4},"edges":[{"node":{"__typename":"Job","id":"104180219904-1001089317451","title":"Qa engineer","text":"#Москва  #QA  #вакансия #офис\nКомпания: Start.ru\n\nМы ищем коллег, которые смогут влиться в нашу команду и вместе с нами развивать и совершенствовать наш сервис!\nУ Вас есть возможность стать частью команды, развивающей первую в Восточной Европе студию с собственным международным VOD сервисом.\nВ данный момент мы усиляем нашу команду по тестированию и в поисках позиций Backend QA Engineer и QA Automation Engineer (python)\n\n———————————\nДолжность: Backend QA Engineer\nЗарплатная вилка: От 80.р. до 120т.р. по результатам собеседования\n\nКакие задачи вы будете решать:\n- Прогон описаных кейсов в TestRail и документация найденых дефектов;\n- Тестирование API (программного интерфейса платформы);\n- Разработка тестовых сценариев;\n- Взаимодействие с разработчиками и сопровождение дефектов до полного их решения;\n- Отладка и сбор логов в процессе воспроизведения проблем\n- Проведение регрессионного тестирования\n\nЧего мы хотим:\n- Вас не пугает работа с командной строкой чаще чем работа с графическим интерфейсом\n- Работа с chromedev tools и командной строкой (bash);\n- Знание и понимания клиент-серверной архитектуры приложений;\n- Понимание принципов работы веб-приложений;\n- Умение грамотно составлять свои мысли в предложения и описывать дефекты, чтобы понятно было разработчикам;\n- Навыки работы с технической документацией, анализ и вычленение требований;\n- Работали с программами-снифферами и проксями траффика (charles/wireshark/fiddler/mitmproxy etc)\n\nБудет плюсом:\n- Если знаете python на уровне, достаточном для автоматизации и сможете прочитать код который на нем написан\n- Знаете что такое DOM-дерево, локаторы и селекторы в контексте веб-приложения\n\n—————————\nДолжность: QA Automation Engineer\nЗарплатная вилка: От 130.р. до 170т.р. по результатам собеседования\n\nУ нас:\nВ нашем проекте есть автоматизация тестирования как API, так и WEB UI. \nНаш стек: Python3, PyTest, Requests, Selenium WebDriver, Selenoid, DB clients (MongoDB, PostgreSQL), JSON validation (jsonschema), TestRail API, Telegram API, GitLab CI. \nПомимо автотестов мы разрабатываем проект нагрузочного тестирования на Locust.\n\nВаши задачи:\n- Расширение покрытия автотестов API, WEB UI\n- Поддержка автотестов в актуальном состоянии\n- Анализ прохождения тестов с возможным заведением багов в Jira\n- Ревью кода\n- Ведение тестовой - документации\n- Написание сценариев нагрузочного тестирования\n\nТребования:\n- Хорошее знание теории тестирования\n- Опыт автоматизированного тестирования от 2х лет\n- Знание Python3, PyTest\n- Навыки написания и использования тестовой документации\n- Умение писать простые запросы на SQL и в MongoDB\n- Навыки работы с Git\n- Обсуждение проблем приложения с разработчиками\n\nБудет плюсом:\n- Опыт написания архитектуры проекта автотестов с нуля\n- Работа с Docker, Docker Compose\n- Опыт работы с Telegram API\n- Опыт описания JSON схем для валидации ответов API\n- Базовые знания в Linux\n\nОт нас:\n- На данный момент условия сотрудничества удаленные, но при нормализации ситуации мы выйдем в офис\n- Офис в районе Хамовники (территориально м.Киевская, м. Спортивная в 20.мин ходьбы)\n- График работы: 5/2 начинаем с 9  до 11 (в целом гибкий - главное результат);\n- Оформление в соответствии с ТК РФ (белая зарплата, отпускные, больничные);\n- Все возможности для прокачки имеющихся скиллов и получения новых;\n- Драйвовая и высокопрофессиональная команда единомышленников;\n- Возможность стать частью динамично развивающегося видеосервиса.\n\n\nВопросы и отклики по вакансии писать в tlgrm: @unambo OR emailto: v.selyanin@start.ru","markup":[{"type":"hashtag","offset":0,"length":7,"data":"Москва"},{"type":"hashtag","offset":9,"length":3,"data":"QA"},{"type":"hashtag","offset":14,"length":9,"data":"вакансия"},{"type":"hashtag","offset":24,"length":5,"data":"офис"},{"type":"link","offset":40,"length":8,"data":"http://Start.ru"},{"type":"handle","offset":3471,"length":7,"data":"unambo"},{"type":"link","offset":3491,"length":19,"data":"mailto:v.selyanin@start.ru"}],"date":"2020-07-02T07:33:55+00:00","link":"tg://resolve?domain=qa_jobs&post=99354","tags":[{"name":"qa"},{"name":"python"},{"name":"bash"},{"name":"web"},{"name":"selenium"},{"name":"mongodb"},{"name":"postgresql"},{"name":"json"},{"name":"gitlab"},{"name":"sql"},{"name":"git"},{"name":"docker"},{"name":"linux"},{"name":"docker-compose"}],"cities":[{"code":"moscow"},{"code":"kiev"}],"allowsRemote":false}},{"node":{"__typename":"Job","id":"104171831296-1001089317451","title":"Qa engineer","text":"#вакансия #Казань #Нижний_Новгород #Краснодар #офис #удаленно \n\n💻Компания «БАРС Груп» - ведущий российский разработчик решений для государственного и корпоративного секторов с 1992 года, входит в ТОП-15 крупнейших разработчиков России.\n\n👀Мы в поисках QA Auto Engineer на крупные государственные проекты.\n\nОт новых сотрудников мы ожидаем:\n•Знание базовых понятий и определений в тестировании;\n•Знание и уверенное владение методиками тестирования;\n•  Экспертное владение навыками составления тест-кейсов, чек-листов, баг-репортов;\n•Владение языком программирования С# / Python.\nБудет плюсом:\n•Владение инструментами тестирования Fiddler/Postman, Visual Studio, фрэймворк Nunit, restsharp, Selenium.webdriver;\n•Опыт работы с системами JIRA, git/stash.\n\n💰Уровень заработной платы: от 50000р до 150000р. \n\n⏰Рабочий день в офисе или полностью удаленно\n\n🔺Вместе мы будем работать над масштабными проектами, которые меняют к лучшему жизни людей!","markup":[{"type":"hashtag","offset":0,"length":9,"data":"вакансия"},{"type":"hashtag","offset":10,"length":7,"data":"Казань"},{"type":"hashtag","offset":18,"length":16,"data":"Нижний_Новгород"},{"type":"hashtag","offset":35,"length":10,"data":"Краснодар"},{"type":"hashtag","offset":46,"length":5,"data":"офис"},{"type":"hashtag","offset":52,"length":9,"data":"удаленно"}],"date":"2020-07-02T06:24:57+00:00","link":"tg://resolve?domain=qa_jobs&post=99346","tags":[{"name":"qa"},{"name":"python"},{"name":"selenium"},{"name":"git"},{"name":"visual-studio"}],"cities":[{"code":"kazan"},{"code":"krasnodar"},{"code":"nizhny-novgorod"}],"allowsRemote":true}},{"node":{"__typename":"Job","id":"104170782720-1001089317451","title":"Qa инженер","text":"🐞🐞🐞#вакансия #QA #Ульяновск #Саранск #Казань #Самара #Уфа #Краснодар #офис #удаленная_работа\n\n🔍Middle QA-специалист🔎\n\n⚡️Компания: Simbirsoft (более 19 лет на рынке, более 700 сотрудников в штате)\n\nОчень ждем тебя, наш будущий коллега и борец за качественное ПО! ☺️\n\n📌Твои будущие задачи:\n• тестирование ПО (frontend, backend, API);\n• локализация и документирование найденных дефектов;\n• ведение и оптимизация тестовой документации;\n• контроль качества на всех этапах разработки ПО;\n• выстраивание и оптимизация процессов тестирования ПО.\n\n📌Что мы ждем от тебя:\n• наличие опыта от 2 лет в направлениях QA или тестирования ПО;\n• понимание разницы между QA и тестированием ПО;\n• понимание особенностей гибких методологий;\n• уверенное владение техниками тест-дизайна;\n• знание клиент-серверной архитектуры;\n• понимание особенностей тестирования web, mobile и desktop приложений;\n• навык тестирования API;\n• написание запросов SQL;\n• опыт работы с системами контроля версий (git);\n• знание основных команд работы с консолью (Windows/Linux).\n\n📌Что мы предлагаем:\n• Полностью белая ЗП два раза в месяц;\n• Оформление по ТК РФ;\n• Высокий уровень экспертности внутри компании, которым мы делимся друг с другом;\n• Перспективы вертикального и горизонтального роста;\n• Работа на российских и международных проектах;\n• Оборудованное рабочее место и парк тестовых устройств;\n• Подготовка и прохождение сертификации ISTQB бесплатно;\n• Внутренние и внешние курсы, доклады, конференции;\n• Бесплатные чай, кофе, печеньки в офисе;\n• Корпоративная спортивная программа (оплата тематических секций, частичная компенсация абонемента);\n• Проведение летних и зимних корпоративов, дня именинника, совместные походы и т.д.\n\n📌Зарплата:\n• от 50 000 (Договорная, по итогу собеседования)\n\n☎️Контакты: @julia_kli","markup":[{"type":"hashtag","offset":6,"length":9,"data":"вакансия"},{"type":"hashtag","offset":16,"length":3,"data":"QA"},{"type":"hashtag","offset":20,"length":10,"data":"Ульяновск"},{"type":"hashtag","offset":31,"length":8,"data":"Саранск"},{"type":"hashtag","offset":40,"length":7,"data":"Казань"},{"type":"hashtag","offset":48,"length":7,"data":"Самара"},{"type":"hashtag","offset":56,"length":4,"data":"Уфа"},{"type":"hashtag","offset":61,"length":10,"data":"Краснодар"},{"type":"hashtag","offset":72,"length":5,"data":"офис"},{"type":"hashtag","offset":78,"length":17,"data":"удаленная_работа"},{"type":"handle","offset":1779,"length":10,"data":"julia_kli"}],"date":"2020-07-02T06:05:28+00:00","link":"tg://resolve?domain=qa_jobs&post=99345","tags":[{"name":"qa"},{"name":"web"},{"name":"mobile"},{"name":"sql"},{"name":"git"},{"name":"windows"},{"name":"linux"}],"cities":[{"code":"ulyanovsk"},{"code":"saransk"},{"code":"kazan"},{"code":"samara"},{"code":"ufa"},{"code":"krasnodar"}],"allowsRemote":true}},{"node":{"__typename":"Job","id":"104158199808-1001089317451","title":"Qa engineer","text":"#вакансия #работа #удалёнка #fulltime #qa\n\nДолжность : QA Engineer\nКомпания : 6nomads.com\nФормат работы: #fulltime #remote\nЗарплата: 100-140 тыс рублей\n\nКто? \nБританский сервис с русскими корнями. Банковский помощник, который своей гибридной моделью автоматизации меняет скучный английский рынок платежных сервисов, лишает его бумажной составляющей и бюрократии, а заодно оставляет без работы бухгалтеров.\n\nЧто предлагают?\n- Заработная плата в фунтах (100-140 тыс рублей);\n- Командировки в Лондон и Кардифф;\n- Возможность релокации в Великобританию;\n- Работа в одном из офисов (Москва, Екатеринбург, Лондон и Кардифф) или удаленно;\n- Обучение и рост внутри компании, помощь в смене профиля на бэкенд, датасайнс или мобильную разработку при желании. \n\nЧто делать?  \n- Проектирование новых фич вместе с командой;\n- Написание тестовых сценариев;\n- Ручное тестирование (+немного автоматизации Python, appium);\n- Проведение регрессионного тестирования перед релизом;   \n- Создание отчетов по ошибкам и контроль их исправления;\n\nТребования:\n- Противобаговый иммунитет\n- Опыт поиска UI/UX дефектов \n- Английский не ниже Intermediate\n\nЧто тестировать?\ni​OS app, Android App, backend, web.        \nСтек: ​\nKaiten, Testrail, Git, TeamCity, Miro, Zeplin.\n\nЧтобы откликнуться, необходимо пройти короткий отбор по ссылке.\n\nКонтакт для связи: @temnik_sofya","markup":[{"type":"hashtag","offset":0,"length":9,"data":"вакансия"},{"type":"hashtag","offset":10,"length":7,"data":"работа"},{"type":"hashtag","offset":18,"length":9,"data":"удалёнка"},{"type":"hashtag","offset":28,"length":9,"data":"fulltime"},{"type":"hashtag","offset":38,"length":3,"data":"qa"},{"type":"link","offset":78,"length":11,"data":"http://6nomads.com"},{"type":"hashtag","offset":105,"length":9,"data":"fulltime"},{"type":"hashtag","offset":115,"length":7,"data":"remote"},{"type":"handle","offset":1332,"length":13,"data":"temnik_sofya"}],"date":"2020-07-01T17:51:07+00:00","link":"tg://resolve?domain=qa_jobs&post=99333","tags":[{"name":"qa"},{"name":"python"},{"name":"android"},{"name":"web"},{"name":"git"}],"cities":[{"code":"london"},{"code":"moscow"}],"allowsRemote":true}},{"node":{"__typename":"Job","id":"104146665472-1001089317451","title":"Qa engineer","text":"#вакансия #Москва #офис #QA #тестировщик #fulltime\n\nГород и адрес офиса: Москва, м. Новокузнецкая/Павелецкая\nФормат работы: #офис\nЗанятость: #полная\nЗП: от 90к до 120к руб. нетт\n\nSports.ru - провайдер развлечений для любителей спорта.\nЕсть спорт. Есть болельщики. Мы заполняем среду между ними, оживляем ее, наполняем общением и другими развлечениями. Мы делаем не «сайты» или «приложения», а мультиплатформенные продукты, с учетом актуальной технологической парадигмы.\n\nМы ищем QA Engineer'а в наш флагманский проект Sports.ru.\nЭто главное медиа о спорте на русском языке с аудиторией 18 млн пользователей в месяц. Highload-проект с десятками тысяч RPS, состоящий из самых разных продуктов – сайтов, мобильных приложений, email-рассылок, чат-ботов и многого другого.\n\nВ данный момент мы заняты активным внедрением процесса тестирования. Под капотом - нативный js на фронте, php+perl на бэке. Все новые сервисы разрабатываем на новом стеке: vue.js+ssr+golang+graphql. Да, легаси есть - иногда попадается, но в тестирование всё же большинство задач идут на новом стеке.\n\nО задачах\nВы будете заниматься приёмкой фич и проведением регресса, написанием тестовой документации, разработкой автотестов и регистрацией ошибок в баг-трекере.\n\nО наших ожиданиях\nМы ждем, что вы уже пару лет как в профессии и имеете хороший опыт ручного тестирования. Знаете различные инструменты и подходы к тестированию, обладаете навыками тест-дизайна и умеете их применять.\nПонимаете процессы разработки и тестирования, а также, что процессы не могут быть идеальными, но к этому необходимо стремиться.\nМы также ждем, что вы уже попробовали свои силы в автоматизации тестирования и хотите дальше развиваться в этом направлении (у нас автоматизация на JavaScript).\n\nБудет плюсом\nЕсли вы уже пробовали себя в нагрузочном тестировании и автоматизации мобильных устройств.\n\nОб условиях:\nПросторный стильный офис возле м. Новокузнецкая/Третьяковская.\n“Белая” заработная плата.\nБесплатная медстраховка со стоматологией после испытательного срока.\nГибкий график работы с возможностью день-два в неделю работать удаленно,\nФрукты, снеки, чай, кофе, какао 24/7.\nКорпоративная скидка в спортзал и на занятия английским языком.\nКорпоративный футбол с тренером.\nФинансовая помощь при переезде из другого города.\nВозможности для профессионального развития.\n\nНазвание компании: Sports.ru (Tribuna Digital)\nЕсли заинтересовало, пишите мне в личку (@pbuyatova), рада буду поделиться подробностями 😌","markup":[{"type":"hashtag","offset":0,"length":9,"data":"вакансия"},{"type":"hashtag","offset":10,"length":7,"data":"Москва"},{"type":"hashtag","offset":18,"length":5,"data":"офис"},{"type":"hashtag","offset":24,"length":3,"data":"QA"},{"type":"hashtag","offset":28,"length":12,"data":"тестировщик"},{"type":"hashtag","offset":41,"length":9,"data":"fulltime"},{"type":"hashtag","offset":124,"length":5,"data":"офис"},{"type":"hashtag","offset":141,"length":7,"data":"полная"},{"type":"link","offset":179,"length":9,"data":"http://Sports.ru"},{"type":"bold","offset":179,"length":9,"data":""},{"type":"bold","offset":479,"length":13,"data":""},{"type":"link","offset":518,"length":9,"data":"http://Sports.ru"},{"type":"bold","offset":1070,"length":10,"data":""},{"type":"bold","offset":1233,"length":18,"data":""},{"type":"bold","offset":1740,"length":13,"data":""},{"type":"bold","offset":1845,"length":13,"data":""},{"type":"link","offset":2338,"length":9,"data":"http://Sports.ru"},{"type":"handle","offset":2407,"length":10,"data":"pbuyatova"}],"date":"2020-07-01T15:51:57+00:00","link":"tg://resolve?domain=qa_jobs&post=99322","tags":[{"name":"qa"},{"name":"php"},{"name":"perl"},{"name":"vuejs"},{"name":"go"},{"name":"graphql"},{"name":"javascript"}],"cities":[{"code":"moscow"}],"allowsRemote":true}},{"node":{"__typename":"Job","id":"104143519744-1001089317451","title":"Qa инженер","text":"#вакансия #QA #fulltime #офис #москва\nГород: Москва, ст. м. Автозаводская \nФормат работы: офис\nКомпания: Логистик Тайм\nЗанятость: полная\nЗ/п: от 130 000 р. на руки.\n\nПривет! Мы растем и активно развиваемся, поэтому ищем специалистов для работы в офисе нашей компании в Москве. Это отличная возможность реализовать свои навыки и прокачаться ещё больше в команде профессионалов. Подробности смотри в описании:\n\n🔷Основные обязанности: \n-Написание и поддержка автотестов;\n-Анализ отчетов прогонов;\n-Организация и поддержка тестового окружения;\n-Взаимодействие с группой разработки и тестирования.\n\n🔷Наши пожелания:\n-Понимание принципов разработки и тестирования;\n-Знание методов и технологий тестирования;\n-Опыт разработки/написания автотестов на Java\\Kotlin;\n-Опыт автоматизации на базе Selenium WebDriver+JUnit+Cucumber (+Gradle/Maven);\n-Опыт работы с баг-трекинговыми системами (Jira, Redmine, YouTrack или др.);\n-Навыки работы с системами контроля версия (Git).\n\n🔷Плюсы работы у нас:\n-Уровень заработной платы зависит от пожеланий и профессионально уровня кандидата;\n-Поездки на ИТ-конференции, митапы, учебные курсы за счет компании;\n-Гибкое начало рабочего дня;\n-Перспективы материального и профессионального роста;\n-Возможность релокации в Европу.\n\nБуду рада Вашим вопросам и резюме:\n✏️@hrkaterina\n✉️ekaterina.logistik@gmail.com","markup":[{"type":"hashtag","offset":0,"length":9,"data":"вакансия"},{"type":"hashtag","offset":10,"length":3,"data":"QA"},{"type":"hashtag","offset":14,"length":9,"data":"fulltime"},{"type":"hashtag","offset":24,"length":5,"data":"офис"},{"type":"hashtag","offset":30,"length":7,"data":"москва"},{"type":"italic","offset":166,"length":79,"data":""},{"type":"italic","offset":252,"length":15,"data":""},{"type":"bold","offset":267,"length":10,"data":""},{"type":"italic","offset":277,"length":98,"data":""},{"type":"italic","offset":377,"length":32,"data":""},{"type":"bold","offset":409,"length":25,"data":""},{"type":"bold","offset":595,"length":18,"data":""},{"type":"bold","offset":965,"length":22,"data":""},{"type":"bold","offset":1255,"length":37,"data":""},{"type":"handle","offset":1292,"length":11,"data":"hrkaterina"},{"type":"link","offset":1304,"length":30,"data":"http://✉️ekaterina.logistik@gmail.com"}],"date":"2020-07-01T14:52:07+00:00","link":"tg://resolve?domain=qa_jobs&post=99319","tags":[{"name":"qa"},{"name":"java"},{"name":"kotlin"},{"name":"selenium"},{"name":"junit"},{"name":"cucumber"},{"name":"gradle"},{"name":"maven"},{"name":"git"}],"cities":[{"code":"moscow"}],"allowsRemote":false}},{"node":{"__typename":"Job","id":"104141422592-1001089317451","title":"Qa engineer","text":"#вакансия #Саратов #fulltime #офис #QA \n\nВсем привет! Компания \"Проектная команда\". Расширяем штат и ищем человека с ответственным подходом к работе и желанием роста. Работа с долгосрочным проектом, по тестированию Банковского ПО.\n\nДолжность- manual QA Engineer;\n\nТребуемый опыт работы: от 1,5 года;\n\nПолная занятость, полный день.\n\nОбязанности:\n\n-Ручное тестирование.\n\n- Выявление, анализ ошибок и проблем;\n\n- Документирование найденных дефектов.\n\nТребования:\n\n- Высшее техническое образование/cтаршие курсы технического ВУЗа (желательно);\n\n\n- Понимание методологии разработки программного обеспечения;\n\n- Знание XML, XSD, веб-сервисах;\n\n- Знание SQL;\n\n- Владение инструментами: Postman, Git, SoapUI;\n\n- Умение работать с системами учета дефектов (Jira);\n\n- Опыт работы с bug tracking и task tracking системами;\n\n- Активная позиция, желание развиваться в области функционального тестирования.\n\nУсловия:\n\n- Удобный хорошо оборудованный офис;\n\n- Официальное трудоустройство;\n\n- «Белая» заработная плата;\n\n- ДМС со стоматологией (после года работы);\n\n- Дополнительные бонусы по результатам года;\n\n- Заработная плата по результатам собеседования от 40000-85000 (на руки);\n\nМожно откликнуться на hh.ru/vacancy/37402257\nИли на почту: Shkonda_ag@creativesoftlab.ru\nТак же- пишите в лс.","markup":[{"type":"hashtag","offset":0,"length":9,"data":"вакансия"},{"type":"hashtag","offset":10,"length":8,"data":"Саратов"},{"type":"hashtag","offset":19,"length":9,"data":"fulltime"},{"type":"hashtag","offset":29,"length":5,"data":"офис"},{"type":"hashtag","offset":35,"length":3,"data":"QA"},{"type":"link","offset":1146,"length":11,"data":"tel:40000-85000"},{"type":"link","offset":1192,"length":22,"data":"http://hh.ru/vacancy/37402257"},{"type":"link","offset":1229,"length":29,"data":"mailto:Shkonda_ag@creativesoftlab.ru"}],"date":"2020-07-01T14:37:01+00:00","link":"tg://resolve?domain=qa_jobs&post=99317","tags":[{"name":"qa"},{"name":"xml"},{"name":"xsd"},{"name":"sql"},{"name":"git"}],"cities":[{"code":"saratov"}],"allowsRemote":false}},{"node":{"__typename":"Job","id":"104136179712-1001089317451","title":"Qa engineer","text":"#вакансия #Ульяновск #QA #fulltime #офис #manual #relocate\n\n🔸 manual QA engineer \n🔸 Ульяновск, офис, remote не рассматриваем (но пока удаленно из-за covid)\n🔸 Dualboot Partners (NC, USA)\n🔸 от $1000\n\nОт вас:\n\n- нужно очень хорошо тестировать web- и mobile-приложения, API, нужны уверенные скиллы в этом\n- эрудиция в web-технологиях\n- опыт работы с различными инструментами для тестирования\n- умение работать самостоятельно и ответственно\n- вся документация и общение с клиентом на английском, соответственно, уровень хотя бы базовый необходим\n- есть проекты, покрываемые автотестами, поэтому умение их разрабатывать может быть плюсом и пригодиться в будущем\n\nОт нас:\n\n- ноль лишней бюрократии\n- з/п в $ официально\n- уроки английского от компании\n- MacBook Pro для работы (через 1 год работы он переходит во владение сотруднику)\n- очень крутой офис-коттедж в центре города (да, Ульяновск) с кучей вкусностей и прочими радостями\n- команда - молодые, разносторонние и очень скилловые люди\n- гибкий график и вообще всевозможные свободы, не мешающие эффективно работать\n- помощь при переезде в Ульяновск\n\nБуду рада ответить на любые вопросы,  @alina_fatkhutdinova","markup":[{"type":"hashtag","offset":0,"length":9,"data":"вакансия"},{"type":"hashtag","offset":10,"length":10,"data":"Ульяновск"},{"type":"hashtag","offset":21,"length":3,"data":"QA"},{"type":"hashtag","offset":25,"length":9,"data":"fulltime"},{"type":"hashtag","offset":35,"length":5,"data":"офис"},{"type":"hashtag","offset":41,"length":7,"data":"manual"},{"type":"hashtag","offset":49,"length":9,"data":"relocate"},{"type":"handle","offset":1140,"length":20,"data":"alina_fatkhutdinova"}],"date":"2020-07-01T11:33:07+00:00","link":"tg://resolve?domain=qa_jobs&post=99312","tags":[{"name":"qa"},{"name":"web"},{"name":"mobile"}],"cities":[{"code":"ulyanovsk"}],"allowsRemote":true}},{"node":{"__typename":"Job","id":"104135131136-1001089317451","title":"Qa инженер","text":"#вакансия #санктпетербург #спб #fulltime #офис #QA \n\nМолодая игровая студия \"Тактика\" https://www.taktikagames.ru/ с уютным офисом в Петербурге ищет в штат на полный рабочий день: \n\n⭐️⭐️⭐️QA-инженера⭐️⭐️⭐️\n\nЧТО МЫ ЖДЕМ ОТ КАНДИДАТА\n— Опыт тестирования от 2х лет;\n— Понимание процессов разработки мобильных игр, знание игровых механик, работа с ГД-документами;\n— Ведение документации и её актуализация, (чек-листы/тест-кейсы/тест-сьюты/баг-репорты/отчеты) + регресс- и релиз-листы;\n— Анализ документации и составление тест-планов (в том числе и описание рисков);\n— Локализация багов и отслеживание их исправлений;\n— Опыт работы с системами контроля версий;\n— Знание таск- и баг-трекингов;\n— Опыт работы с CI/CD;\n— Опыт тестирования IAP.\n\nПЛЮСОМ БУДЕТ\n— Английский уровня intermediate;\n— Знание любого языка программирования;\n— Опыт работы с Unity;\n— Опыт управления командой;\n— Опыт UI/UX тестирования;\n— Pixel Perfect;\n— Опыт тестирования клиент-серверных приложений;\n— Опыт тестирования на мобильных устройствах Android, IOS;\n— Опыт нагрузочного тестирования;\n— Саппорт на закрытом бета-тесте.\n\nЧТО МЫ ДОВЕРИМ:\n— Составление чек-листов, тест-кейсов и пр. документации;\n— Локализация багов и отслеживание их исправлений;\n— Тестирование сложности уровней.\n\nЧТО МЫ ПРЕДЛАГАЕМ\n— Комфортный офис в пяти минутах от станции метро Технологический институт;\n— Участие в современных и интересных проектах;\n— Возможности обучения и профессионального роста;\n— Соблюдение ТК РФ (оплата отпуска‚ больничного);\n— Заработная плата по результатам собеседования (от 70 000 руб.);\n— Помощь в релокации, поможем вам с переездом.\n\nМожно откликнуться на hh: https://spb.hh.ru/vacancy/37392564\nИли на почту: khreevaa@taktikagames.ru","markup":[{"type":"hashtag","offset":0,"length":9,"data":"вакансия"},{"type":"hashtag","offset":10,"length":15,"data":"санктпетербург"},{"type":"hashtag","offset":26,"length":4,"data":"спб"},{"type":"hashtag","offset":31,"length":9,"data":"fulltime"},{"type":"hashtag","offset":41,"length":5,"data":"офис"},{"type":"hashtag","offset":47,"length":3,"data":"QA"},{"type":"link","offset":86,"length":28,"data":"https://www.taktikagames.ru/"},{"type":"bold","offset":188,"length":11,"data":""},{"type":"bold","offset":207,"length":24,"data":""},{"type":"bold","offset":737,"length":12,"data":""},{"type":"bold","offset":1096,"length":15,"data":""},{"type":"bold","offset":1256,"length":17,"data":""},{"type":"bold","offset":1611,"length":25,"data":""},{"type":"link","offset":1637,"length":34,"data":"https://spb.hh.ru/vacancy/37392564"},{"type":"bold","offset":1672,"length":13,"data":""},{"type":"link","offset":1686,"length":24,"data":"mailto:khreevaa@taktikagames.ru"}],"date":"2020-07-01T11:17:29+00:00","link":"tg://resolve?domain=qa_jobs&post=99311","tags":[{"name":"qa"},{"name":"unity3d"},{"name":"android"},{"name":"ios"}],"cities":[],"allowsRemote":false}},{"node":{"__typename":"Job","id":"104125693952-1001089317451","title":"Qa engineer","text":"#вакансия #QA #Xельсинки #fulltime #relocation \n\nWho? Senior Software Engineer in Test \nWhere? Toughbyte (recruitment agency), Helsinki, Finland 🇫🇮\nSalary: up to 5000 EUR gross/month\n\nOur client is a cloud technology startup launched in January 2016, developing Database-as-a-Service. They run and manage Open Source database and backend messaging systems for the business customers around the world. They take the pain away from running databases and allow the customers to focus on building their own products without worrying about database management. \nRight now the company is looking for a self-driven Senior Software Engineer in Testing to join their team in Helsinki. You’ll be part of a team working on the cloud platform, further extending the test automation and test infrastructure and focusing on more complicated scenarios, like performance testing and upgrade tests. Depending on your interests, you can also take ownership not just of the test automation vision but also of the overall quality and risk levels of the service.\n\n🔹Must-have skills:\n•Strong background in software engineering and test automation\n•Excellent development skills in Python (pytest)\n•Keen interest in test automation\n•Experience on using Linux in development\n•Fluency in English, verbal and written\n\n🔹Nice-to-have skills:\n•Hands-on experience with some of the following systems: Apache Kafka, Apache Cassandra, PostgreSQL, MySQL and Elasticsearch\n•Experience and interest on infrastructure as code\n•Good understanding of security (software, networking)\n\nInterested? 🔹Apply here: https://www.toughbyte.com/positions/finland/helsinki/senior-software-engineer-in-testing-803\nor alina.tagirova@toughbyte.com","markup":[{"type":"hashtag","offset":0,"length":9,"data":"вакансия"},{"type":"hashtag","offset":10,"length":3,"data":"QA"},{"type":"hashtag","offset":14,"length":10,"data":"Xельсинки"},{"type":"hashtag","offset":25,"length":9,"data":"fulltime"},{"type":"hashtag","offset":35,"length":11,"data":"relocation"},{"type":"link","offset":1575,"length":92,"data":"https://www.toughbyte.com/positions/finland/helsinki/senior-software-engineer-in-testing-803"},{"type":"link","offset":1671,"length":28,"data":"mailto:alina.tagirova@toughbyte.com"}],"date":"2020-07-01T10:39:30+00:00","link":"tg://resolve?domain=qa_jobs&post=99302","tags":[{"name":"qa"},{"name":"cloud"},{"name":"python"},{"name":"linux"},{"name":"apache"},{"name":"kafka"},{"name":"cassandra"},{"name":"postgresql"},{"name":"mysql"},{"name":"elasticsearch"}],"cities":[{"code":"helsinki"},{"code":"nice"}],"allowsRemote":false}}]}}},"context":{}}