{"hash":"f5f6bf98bd95e769321482904cbbd488f77922fd","data":{"records":{"id":"rest","name":"rest","belongsTo":{"totalCount":192,"pageInfo":{"totalPages":20,"currentPage":8},"edges":[{"node":{"__typename":"Job","id":"72068628480-1001054966032","title":"Android разработчик","text":"#вакансия #москва #офис #ios #senior\n\nгород: Москва\nформат работы: офис\nзанятость: полная\nзарплатная вилка: 150-200\nвакансия: Ищу iOS-разработчика не ниже middle+, готового возглавить развитие  и поддержку приложения.\n\nо компании: Электронное издательство «Юрайт» Мы работаем со всеми вузами страны и считаем своей главной целью повышение образовательного уровня в России.\nwww.urait.ru\n\nо проекте: Над проектом работает 20 человек. Приложение заказывали на стороне в 2019 г. Теперь решили собрать свою команду для рефакторинга и выведения на новый уровень.\n\n🧑🏻‍💻Чем будешь заниматься:\n✔️Доработка текущего мобильного приложения компании под iOS/Android;\n✔️Интеграция с внешними сервисами;\n✔️Взаимодействовать с командой (аналитики, тестировщики);\n✔️Участие в проектной деятельности.\n\n\nЧто хотят видеть в тебе:\n • Имеешь успешный опыт разработки и поддержки iOS-приложений\n • Любишь iOS SDK, Xcode, Objective-C и Swift\n • Трогал архитектуру MVP или MVVM\n • Имеешь успешный опыт разработки клиент-серверных приложений (REST, JSON)\n • Владеешь паттернами UI\n • Знаешь, зачем нужен Git\n • Можешь писать тесты\n\nНемного о печеньках:\nОфис с плюшками в 5 минутах от м. Шоссе Энтузиастов, Мск\nГибкое начало дня: для жаворонков с 8, сова может начать в 11 =)\nВсе по ТК РФ + соц.пакет \nАдекватные коллеги и руководство, интересные таски, много позитива :)\n\n\nЗаинтересовало?\nНапиши:)\nМарьяна @reanimawka\n+79151474789","markup":[{"type":"hashtag","offset":0,"length":9,"data":"вакансия"},{"type":"hashtag","offset":10,"length":7,"data":"москва"},{"type":"hashtag","offset":18,"length":5,"data":"офис"},{"type":"hashtag","offset":24,"length":4,"data":"ios"},{"type":"hashtag","offset":29,"length":7,"data":"senior"},{"type":"bold","offset":231,"length":32,"data":""},{"type":"bold","offset":276,"length":22,"data":""},{"type":"bold","offset":329,"length":42,"data":""},{"type":"link","offset":373,"length":12,"data":"http://www.urait.ru"},{"type":"bold","offset":558,"length":29,"data":""},{"type":"bold","offset":788,"length":24,"data":""},{"type":"code","offset":813,"length":3,"data":""},{"type":"code","offset":875,"length":3,"data":""},{"type":"code","offset":921,"length":3,"data":""},{"type":"code","offset":956,"length":3,"data":""},{"type":"code","offset":1032,"length":3,"data":""},{"type":"code","offset":1058,"length":3,"data":""},{"type":"code","offset":1085,"length":3,"data":""},{"type":"bold","offset":1109,"length":20,"data":""},{"type":"handle","offset":1383,"length":11,"data":"reanimawka"},{"type":"link","offset":1395,"length":12,"data":"tel:+79151474789"}],"date":"2020-06-26T08:08:19+00:00","link":"tg://resolve?domain=mobile_jobs&post=68730","tags":[{"name":"mobile"},{"name":"android"},{"name":"ios"},{"name":"xcode"},{"name":"objective-c"},{"name":"swift"},{"name":"mvvm"},{"name":"rest"},{"name":"json"},{"name":"git"}],"cities":[{"code":"moscow"}],"allowsRemote":false}},{"node":{"__typename":"Job","id":"26597130240-1001075660570","title":"Php разработчик","text":"PHP- разработчик \n#Drupal #php #вакансия\n\nКрупный Банк России.\n\nОклад: 100-150к net + премия\n\nОбязательно:\n• Опыт работы с Drupal 7/8 \n• Знания php 7 и ООП\n• Знания современного окружения (nginx\\apache, mysql\\pgsql, MQ и т.д) .\n• Понимание ядра Drupal 8\n• Опыт работы с популярным контрибом (views, token, paragraphs, groups и т.д.)\n• Навыки работы с большим объемом унаследованного кода\n• Опыт промышленной эксплуатации высоконагруженных проектов, со сложным релизным циклом и SLA 99,99+\n• Знание протокола HTTP/HTTPS и понимание REST архитектуры\n• Навыки работы с linux (cli)\n• Навыки по настройке и эксплуатация php приложений в контейнерах\nЖелательно:\n• Опыт ведения больших проектов в git с несколькими релизными ветками.\n• Навыки использования PHPUnit в связке с Drupal 8 (unit, kernel, functional тесты)\n• Опыт работы с криптографией, шифрованием, КЭП, ЭЦП, TLS и т.д.\nОбязанности:\n• Участие в разработке высоконагруженных интернет-порталов;\n• Разработка новых и поддержка/доработка существующих проектов компании;\n• Рефакторинг кода и устранение неисправностей/уязвимостей;\n• Интеграция проектов со сторонними сервисами;\n• Чтение ТЗ и разработка согласно его требований;\n• Документирование создаваемого кода;\n\nРезюме в личку.","markup":[{"type":"hashtag","offset":18,"length":7,"data":"Drupal"},{"type":"hashtag","offset":26,"length":4,"data":"php"},{"type":"hashtag","offset":31,"length":9,"data":"вакансия"}],"date":"2020-06-26T07:40:37+00:00","link":"tg://resolve?domain=php_jobs&post=25365","tags":[{"name":"php"},{"name":"drupal"},{"name":"dotnet"},{"name":"nginx"},{"name":"apache"},{"name":"mysql"},{"name":"rest"},{"name":"linux"},{"name":"git"},{"name":"phpunit"}],"cities":[],"allowsRemote":false}},{"node":{"__typename":"Job","id":"103750303744-1001089317451","title":"Qa инженер","text":"#вакансия #QA  #fulltime  #офис #Москва\nИщу ВЕДУЩЕГО ТЕСТИРОВЩИКА  в HOLODILNIK.RU, это  один из ведущих игроков на рынке электронной торговли. Компания приглашает в свою команду профессионала, кто своими знаниями в тестировании программного обеспечения поможет в проектах развития информационных систем интернет-магазина, CRM, интеграции партнерами.\n\n✅Обязанности:\n\n· Построение и поддержка процессов тестирования (ручного и автоматизированного UI тестирования).\n\n· Осуществление процесса тестирования: декомпозиция и оценка задач QA, распределение задач, ревью результатов работы.\n\n· Непосредственное участие в процессе функционального и регрессионного тестирования web-приложений; анализа и тестирования требований.\n\n· Составление тестовой документации (тест-планы, тест-кейсы, чек- листы) и поддержка уже существующей в актуальном состоянии.\n\n· Планирование тестовых сценариев для автоматизации.\n\n✅Требования:\n\n· Опыт работы в качестве QA инженера веб-приложений (от 3-х лет)\n\n· Опыт построения и поддержания процесса обеспечения качества\n\n· Опыт автоматизации тестирования (желательно - Selenium WebDriver);\n\n· Опыт работы с инструментами CI (Jenkins)\n\n· Знание методологий и инструментов тестирования\n\n· Навыки тест-дизайна (тест-кейсы, чек-листы), опыт создания комплексных тест-кейсов;\n\n· Опыт участия в сессиях исследовательского тестирования\n\n· Знание REST, опыт тестирования API (Postman, SoapUI);\n\n· Знание SQL, опыт написания SQL-скриптов и запросов\n\n· Понимание процессов разработки ПО\n\n· Знания XML, CSS, Html;\n\n· Опыт работы с баг-трекинговыми системами (желательно - Jira).\n\n\n✅Условия:\nЗП от 140 000 до 170 000 на руки\n\n· Место работы: Москва, м.Краснопресненская\n\n· При необходимости удаленная работа.\n\n· График работы: 5/2 с 9:00 до 18:00.\n\nКонтакты 🖊\ne-mail: anna-recruitment@mail.ru\nTelegram: @anna_recruitment","markup":[{"type":"hashtag","offset":0,"length":9,"data":"вакансия"},{"type":"hashtag","offset":10,"length":3,"data":"QA"},{"type":"hashtag","offset":15,"length":9,"data":"fulltime"},{"type":"hashtag","offset":26,"length":5,"data":"офис"},{"type":"hashtag","offset":32,"length":7,"data":"Москва"},{"type":"link","offset":69,"length":13,"data":"http://HOLODILNIK.RU"},{"type":"link","offset":1780,"length":24,"data":"mailto:anna-recruitment@mail.ru"},{"type":"handle","offset":1815,"length":17,"data":"anna_recruitment"}],"date":"2020-06-25T19:09:18+00:00","link":"tg://resolve?domain=qa_jobs&post=98944","tags":[{"name":"qa"},{"name":"web"},{"name":"selenium"},{"name":"jenkins"},{"name":"rest"},{"name":"sql"},{"name":"xml"},{"name":"css"},{"name":"html"}],"cities":[{"code":"moscow"}],"allowsRemote":true}},{"node":{"__typename":"Job","id":"72048705536-1001054966032","title":"Android разработчик","text":"‼️Вакансия Senior Android⁢ Developer‼️\n#android #developer #вакансия #удаленка\nВ команде Mycelium Wallet (mycelium.com) открыта #вакансия Senior Android⁢ Developer.\n💵З/П 3000-4000 USD по итогам собеседования.\nРабота удаленная 💻\n\nМы предлагаем:\n🔸Получить навыки и компетенции в одном из самых передовых и перспективных направлений финтех индустрии - blockchain;\n🔸Принять участие в разработке одного из самых популярных биткоин-кошельков в Google Play Store;\n🔸Работать в международной команде бок о бок с ведущими специалистами в индустрии;\n🔸Возможность профессионального карьерного роста и участия в разнообразных проектах компании.\n\nЧем предстоит заниматься:\n🔹Разрабатывать новые и развивать существующие мобильные сервисы компании на платформе Android;\n🔹Проектировать и разрабатывать большие функциональные части приложения с привлечением других программистов;\n🔹Использовать cutting edge технологии, а также проверенные временем решения.\n\nТребования:\n✔️Как минимум 3 года опыта разработки на Android;\n✔️Знание Java/Kotlin на уровне ведущего разработчика;\n✔️Знание шаблонов проектирования, опыт использования MVP и других архитектурных подходов;\n✔️Опыт параллельного и многопоточного программирования;\n✔️Понимание циклов работы Android-приложения и управления памятью;\n✔️Опыт разработки пользовательских интерфейсов на платформе Android. \n✔️Знание Android Design Principles;\n✔️Знание и умение использовать различные механизмы взаимодействий между приложениями, предоставляемые в рамках Android SDK;\n✔️Понимание принципов работы REST API, WS, RPC и клиент-серверных приложений;\n✔️Знание английского языка на уровне чтения документации и умения общаться в корпоративном чате.\n\nПлюсом будет:\n➕Умение и понимание необходимости написания Unit tests;\n➕Знание основ криптографии;\n➕Опыт работы с bitcoin/etherium blockchain stack;\n➕Наличие своих проектов на Github, в Google Play и т.д.\n\n📲Контакт: @valeritata","markup":[{"type":"hashtag","offset":39,"length":8,"data":"android"},{"type":"hashtag","offset":48,"length":10,"data":"developer"},{"type":"hashtag","offset":59,"length":9,"data":"вакансия"},{"type":"hashtag","offset":69,"length":9,"data":"удаленка"},{"type":"link","offset":106,"length":12,"data":"http://mycelium.com"},{"type":"hashtag","offset":128,"length":9,"data":"вакансия"},{"type":"handle","offset":1900,"length":11,"data":"valeritata"}],"date":"2020-06-25T18:53:54+00:00","link":"tg://resolve?domain=mobile_jobs&post=68711","tags":[{"name":"mobile"},{"name":"android"},{"name":"playframework"},{"name":"java"},{"name":"kotlin"},{"name":"rest"},{"name":"github"}],"cities":[],"allowsRemote":true}},{"node":{"__typename":"Job","id":"108089311232-1001119539411","title":".net разработчик","text":"#qa #automation #работа #вакансия #тестировщик #job #Москва #СПБ #удалёнка #офис \n\nQA Automation (С# / С# + Нагрузочное Тестирование / Ruby)в крупный банк без бюрократии.\n\n🌏 Москва / Санкт-Петербург / Удалённо\n💻опыт от года и до синьора (каждому есть работа по силам) \n💰до 240к \n\n💡4 интересных Прoекта на разных стадиях жизни:\nВсе они направлены на : \n- Улучшение бизнес процессов;\n- Защиту интересов и финансов банка в крупных сделках;\n- Развитие отдельного модуля пообъектного учета залогов для контроля залогов по кредитным сделкам крупного корпоративного бизнеса.\n\n💡 Требования стандартные, Вы все их хорошо знаете. \n- Опыт тестирования API, UI;\n- Работа с .NET / Selenium / LoadRunner / Cucumber - зависит от стека\n- Понимание отличия REST от SOAP;\n- Опыт работы с CICD;\n- С GIT итак все работают \n- SQL на хорошем уровне.\n\n💡Важное:\n- Удалённый формат занятости или офис (по желанию);\n- Гибкий график работы; \n- Отличный офис в стиле супергероев с множеством пуфиков, релакс-зоной, пингпонгом, а пар можно выпустить на груше и турнике; \n- ДМС;\n- Скидки на фитнес, английский;\n- Помощь в релокации, если любишь работу в офисе и хочешь переехать;\n- Оформление на компанию интегратора Selecty IT\n\n📲 @JuliaVenz 🙂","markup":[{"type":"hashtag","offset":0,"length":3,"data":"qa"},{"type":"hashtag","offset":4,"length":11,"data":"automation"},{"type":"hashtag","offset":16,"length":7,"data":"работа"},{"type":"hashtag","offset":24,"length":9,"data":"вакансия"},{"type":"hashtag","offset":34,"length":12,"data":"тестировщик"},{"type":"hashtag","offset":47,"length":4,"data":"job"},{"type":"hashtag","offset":52,"length":7,"data":"Москва"},{"type":"hashtag","offset":60,"length":4,"data":"СПБ"},{"type":"hashtag","offset":65,"length":9,"data":"удалёнка"},{"type":"hashtag","offset":75,"length":5,"data":"офис"},{"type":"bold","offset":83,"length":15,"data":""},{"type":"bold","offset":298,"length":6,"data":""},{"type":"handle","offset":1208,"length":10,"data":"JuliaVenz"}],"date":"2020-06-25T17:59:47+00:00","link":"tg://resolve?domain=microsoftstackjobs&post=103082","tags":[{"name":"dotnet"},{"name":"csharp"},{"name":"ruby"},{"name":"selenium"},{"name":"cucumber"},{"name":"rest"},{"name":"soap"},{"name":"git"},{"name":"sql"}],"cities":[{"code":"moscow"}],"allowsRemote":true}},{"node":{"__typename":"Job","id":"103737720832-1001089317451","title":"Qa инженер","text":"#hr #qa #automation #работа #вакансия #тестировщик #job #Москва #СПБ #удалёнка #офис \n\nQA Automation (С# / С# + НТ / Ruby)в крупный банк без бюрократии.\n\n🌏 Москва / Санкт-Петербург / Удалённо\n💻опыт от года и до синьора (каждому есть работа по силам) \n💰до 240к \n\n💡4 интересных Прoекта на разных стадиях жизни:\nВсе они направлены на : \n- Улучшение бизнес процессов;\n- Защиту интересов и финансов банка в крупных сделках;\n- Развитие отдельного модуля пообъектного учета залогов для контроля залогов по кредитным сделкам крупного корпоративного бизнеса.\n\n💡 Требования стандартные, Вы все их хорошо знаете. \n- Опыт тестирования API, UI;\n- Работа с .NET / Selenium / LoadRunner / Cucumber - зависит от стека\n- Понимание отличия REST от SOAP;\n- Опыт работы с CICD;\n- С GIT итак все работают \n- SQL на хорошем уровне.\n\n💡Важное:\n- Удалённый формат занятости или офис (по желанию);\n- Гибкий график работы; \n- Отличный офис в стиле супергероев с множеством пуфиков, релакс-зоной, пингпонгом, а пар можно выпустить на груше и турнике; \n- ДМС;\n- Скидки на фитнес, английский;\n- Помощь в релокации, если любишь работу в офисе и хочешь переехать;\n- Оформление на компанию интегратора Selecty IT\n\n📲 @JuliaVenz 🙂","markup":[{"type":"hashtag","offset":0,"length":3,"data":"hr"},{"type":"hashtag","offset":4,"length":3,"data":"qa"},{"type":"hashtag","offset":8,"length":11,"data":"automation"},{"type":"hashtag","offset":20,"length":7,"data":"работа"},{"type":"hashtag","offset":28,"length":9,"data":"вакансия"},{"type":"hashtag","offset":38,"length":12,"data":"тестировщик"},{"type":"hashtag","offset":51,"length":4,"data":"job"},{"type":"hashtag","offset":56,"length":7,"data":"Москва"},{"type":"hashtag","offset":64,"length":4,"data":"СПБ"},{"type":"hashtag","offset":69,"length":9,"data":"удалёнка"},{"type":"hashtag","offset":79,"length":5,"data":"офис"},{"type":"bold","offset":87,"length":15,"data":""},{"type":"bold","offset":280,"length":6,"data":""},{"type":"handle","offset":1190,"length":10,"data":"JuliaVenz"}],"date":"2020-06-25T17:02:44+00:00","link":"tg://resolve?domain=qa_jobs&post=98932","tags":[{"name":"qa"},{"name":"ruby"},{"name":"dotnet"},{"name":"selenium"},{"name":"cucumber"},{"name":"rest"},{"name":"soap"},{"name":"git"},{"name":"sql"}],"cities":[{"code":"moscow"}],"allowsRemote":true}},{"node":{"__typename":"Job","id":"72040316928-1001054966032","title":"Android разработчик","text":"#вакансия #android #москва #удаленка #senior #middle\n\nГород: Москва\nФормат работы: удаленка\nЗанятость: полная\nВилка:120-150 на руки\n\nОписание вакансии: Я ищу опытного Android-разработчика для удаленной работы в международной компании Раксел Телематикс.\n\nО компании: Raxel Telematics - это технологический стартап, разрабатывающий IoT платформу для обогащения, анализа и монетизации данных.\nwww.raxeltelematics.com\n\nФункционал:\n\n• Осуществлять разработку основных модулей и интерфейсов в мобильных приложениях в соответствии с заданиями от руководителя команды разработки;\n• Осуществлять разработку внутренних модулей и библиотек по сбору данных пользователя и передаче статистики;\n• Вести документацию разрабатываемого программного обеспечения;\n• Вести список задач и поддерживать актуальным статус задач в системе Jira;\n• Формировать задания группе тестирования в проверке работоспособности мобильного программного обеспечения.\n\nОт тебя хотят:\n\n✔️Знание Android SDK, Java Core, Kotlin\n✔️Понимание принципы ООП и классических алгоритмов\n✔️Опыт работы с REST API\n✔️Понимание принципов Material Design и Android Clean Architecture, MVP, DI;\n✔️Опыт работы с SQL/SQLite\n✔️Использование в работе rxjava/rxjava2, retrofit2, dagger2, picasso, otto и др.\n✔️Умение писать качественный код и использование принципов SOLID.\n\nКонтакты: @reanimawka","markup":[{"type":"hashtag","offset":0,"length":9,"data":"вакансия"},{"type":"hashtag","offset":10,"length":8,"data":"android"},{"type":"hashtag","offset":19,"length":7,"data":"москва"},{"type":"hashtag","offset":27,"length":9,"data":"удаленка"},{"type":"hashtag","offset":37,"length":7,"data":"senior"},{"type":"hashtag","offset":45,"length":7,"data":"middle"},{"type":"bold","offset":266,"length":16,"data":""},{"type":"link","offset":390,"length":23,"data":"http://www.raxeltelematics.com"},{"type":"bold","offset":415,"length":11,"data":""},{"type":"bold","offset":930,"length":14,"data":""},{"type":"handle","offset":1324,"length":11,"data":"reanimawka"}],"date":"2020-06-25T16:17:35+00:00","link":"tg://resolve?domain=mobile_jobs&post=68703","tags":[{"name":"mobile"},{"name":"android"},{"name":"java"},{"name":"kotlin"},{"name":"rest"},{"name":"sql"},{"name":"sqlite"}],"cities":[{"code":"moscow"}],"allowsRemote":true}},{"node":{"__typename":"Job","id":"72038219776-1001054966032","title":"Ios разработчик","text":"#вакансия #ios #swift #москва #офис #objective\n\nГород: Москва (ст.м. Аэропорт).\n\nФормат работы: full-time.\n\nЗанятость: полная. \n\nВилка: 100-200 т.р. на руки.\n\nФункционал:\n\n• Разработка мобильных приложений под платформу iOS.\n\n• Участие в командной разработке, тестировании, оптимизации существующих мобильных приложений на платформе iOS \n\nПрофессиональные знания: \n\nОтличное знание Objective-C/Swift, iOS SDK 10+;\nОпыт разработки мобильных приложений - от 2 лет;\nЗнание шаблонов проектирования, принципы SOLID, умение их применять;\nЗнакомы с основными алгоритмами и структурами данных;\nУмение работать со Storyboard и Autolayout;\nОпыт разработки клиент-серверных приложений, понимание принципов и устройства сетевого взаимодействия (HTTPS, JSON, REST);\nУмение разбираться и работать с чужим кодом;\nЗнание распределенных систем контроля версий (Git). \n\nНазвание компании: Локо-Банк\nhttps://www.lockobank.ru//\nhttps://hh.ru/vacancy/37545592\n\nКонтакты: @hrlocko","markup":[{"type":"hashtag","offset":0,"length":9,"data":"вакансия"},{"type":"hashtag","offset":10,"length":4,"data":"ios"},{"type":"hashtag","offset":15,"length":6,"data":"swift"},{"type":"hashtag","offset":22,"length":7,"data":"москва"},{"type":"hashtag","offset":30,"length":5,"data":"офис"},{"type":"hashtag","offset":36,"length":10,"data":"objective"},{"type":"link","offset":881,"length":26,"data":"https://www.lockobank.ru//"},{"type":"link","offset":908,"length":30,"data":"https://hh.ru/vacancy/37545592"},{"type":"handle","offset":950,"length":8,"data":"hrlocko"}],"date":"2020-06-25T16:04:39+00:00","link":"tg://resolve?domain=mobile_jobs&post=68701","tags":[{"name":"mobile"},{"name":"ios"},{"name":"swift"},{"name":"objective-c"},{"name":"json"},{"name":"rest"},{"name":"git"}],"cities":[{"code":"moscow"}],"allowsRemote":false}},{"node":{"__typename":"Job","id":"1738539008-1001091028994","title":"Java программист","text":"#вакансия #Java #Sofware #Kazan\n\n❗️В команду CloudALly ищем Java Инженера-программиста (Middle). \nГород: Казань\nЗарплатная вилка: до 150.000 руб.\nФормат работы: офис/удаленно\nЗанятость: полная\nПроект: резервное копирование данных CloudALly.com. \n\nЧем предстоит заниматься:\n• проектирование, разработка и оптимизация многопоточной высоконагруженной системы;\n• code review коллег;\n• разработка серверной части системы.\n\nМы ждём от вас:\n• опыт разработки на Java 2+ года;\n• опыт работы в Linux-окружении;\n• знание REST/SOAP API;\n• опыт написания Unit тестирования;\n• знакомство с Agile методологией разработки. \n\nМы предлагаем:\n• официальное трудоустройство по ТК РФ;\n• дружный коллектив;\n• гибкий график;\n• ДМС (на сотрудников и членов семьи);\n• компенсация курсов английского языка.\n\nКонтакты: \nТелеграм: @NailyaKhanipova\ne-mail: nhanipova@cloudally.com","markup":[{"type":"hashtag","offset":0,"length":9,"data":"вакансия"},{"type":"hashtag","offset":10,"length":5,"data":"Java"},{"type":"hashtag","offset":16,"length":8,"data":"Sofware"},{"type":"hashtag","offset":25,"length":6,"data":"Kazan"},{"type":"link","offset":230,"length":13,"data":"http://CloudALly.com"},{"type":"handle","offset":804,"length":16,"data":"NailyaKhanipova"},{"type":"link","offset":829,"length":23,"data":"mailto:nhanipova@cloudally.com"}],"date":"2020-06-25T13:47:09+00:00","link":"tg://resolve?domain=jvmjobs&post=1658","tags":[{"name":"java"},{"name":"jvm"},{"name":"linux"},{"name":"rest"},{"name":"soap"}],"cities":[{"code":"kazan"}],"allowsRemote":true}},{"node":{"__typename":"Job","id":"26587693056-1001075660570","title":"Php developer","text":"#вакансия #москва #офис #fulltime #symfony #php #job\n\nВсем привет!\nСейчас нахожусь в поиске сильного специалиста и с радостью делюсь подробностями :)\n\n Позиция: Senior PHP Developer\nЗанятость: полная\nКомпания: ТД ЦУМ \nЛокация: Москва\nЗ/П: до 280.000\n\n   Основные цели и задачи:\n- Разработка программных модулей продуктов компании;\n- Глубокое погружение в процессы работы интернет-магазина;\n- Участие в разработке сервис-ориентированной архитектуре приложения.\n\n   Основные обязанности:\n- Разработка и поддержка инфраструктуры интернет-проекта, мобильного приложения и внутренних сервисов компании;\n- Разработка программных модулей продуктов интернет магазина ЦУМ;\n- Оптимизация приложения под высокую нагрузку, масштабирование, поиск узких мест;\n- Интеграция со сторонними сервисами;\n- Предложение и внедрение высокотехнологичных, инновационных решений.\n\nТребования:\n- Отличное знание и опыт работы с PHP 7 от 3 лет;\n- Понимание как устроен HTTP, REST;\n- Знание и понимание MVC архитектуры;\n- Знание и опыт работы фреймворком YII;\n- Опыт работы с одной или несколькими БД: MySQL, Redis, Mongo;\n- Опыт мониторинга и оптимизации SQL-запросов;\n\n   Условия работы:\n- Полный рабочий день (система гибкого утра с возможностью начала с 9:00 до 12:00)\n- Официальное оформление по трудовому договору.\n- Офис в центре Москвы.\n- ДМС.\n- Корпоративное обучение.\n- Скидки от партнеров компании.\n\nЕсли остались вопросы, с радостью отвечу:\n @zhukovadasha","markup":[{"type":"hashtag","offset":0,"length":9,"data":"вакансия"},{"type":"hashtag","offset":10,"length":7,"data":"москва"},{"type":"hashtag","offset":18,"length":5,"data":"офис"},{"type":"hashtag","offset":24,"length":9,"data":"fulltime"},{"type":"hashtag","offset":34,"length":8,"data":"symfony"},{"type":"hashtag","offset":43,"length":4,"data":"php"},{"type":"hashtag","offset":48,"length":4,"data":"job"},{"type":"handle","offset":1425,"length":13,"data":"zhukovadasha"}],"date":"2020-06-25T12:35:50+00:00","link":"tg://resolve?domain=php_jobs&post=25356","tags":[{"name":"php"},{"name":"symfony"},{"name":"rest"},{"name":"yii"},{"name":"mysql"},{"name":"redis"},{"name":"sql"}],"cities":[{"code":"moscow"}],"allowsRemote":false}}]}}},"context":{}}