{"hash":"f34fd2c444a074f4e0e67d525015a008ef8e766f","data":{"records":{"id":"maven","name":"maven","belongsTo":{"totalCount":21,"pageInfo":{"totalPages":3,"currentPage":1},"edges":[{"node":{"__typename":"Job","id":"1433403392-1001091028994","title":"Java developer","text":"#java #middle+ #senoir #fulltime #Москва #Ярославль\nJava Developer\nКомпания: Solit Clouds\nЛокация: Москва/Ярославль\nЗп: от 180к до 250к \nКонтакты: @IrinaTishkina\n\nНаша сфера деятельности – это создание уникальных решений в области информатизации медицины, банковской сферы, финансовых организаций, складских систем и других, существенно влияющих на жизнь и здоровье, областей.\n✅Проекты:\n•  Разработка собственной Big Data / BI платформы\n•  Разработка решений в одном из самых масштабных проектов Москвы\n✅Во что предстоит погрузиться:\n•  Участие в проектировании и разработке высоконагруженных облачных решений;\n•  Предложение архитектурных и технических решений;\n•  Коммуникация с аналитиками: необходимо понимать бизнес задачу и предлагать оптимальное техническое решение;\n•  Проектирование интерфейсов и сервисов внутреннего обмена данными;\n•  Контроль качества технических решений, разрабатываемых командой.\n✅Какой опыт может быть интересен:\n•  Умение читать иностранную документацию;\n•  Способность и желание развиваться и изучать новые технологии;\n•  Знание и умение применять паттерны проектирования;\n•  Отличные знания Java и опыт создания приложений с нуля;\n•  Опыт работы с реляционными БД;\n•  Отличные знание SQL, навыки оптимизации планов запросов;\n✅Знание технологий:\n•  Java (Java SE, JEE);\n•  Spring Framework;\n•  Hibernate;\n•  Maven/Gradle;\n•  Oracle, PostgreSQL;\n•  Git/SVN/Mercurial;\n•  TomCat/Undertow/WildFly/GlassFish;\n•  SОAP, REST, WebSockets, JMS.\n✅Мы предлагаем:\n•  Участие в интересных масштабных проектах федерального уровня;\n•  Продуктовые команды, обмен опытом и наставничество;\n•  Конкурентная заработная плата и официальное оформление по ТК;\n•  Работа по гибким методологиям;\n•  Ежегодная оценка и пересмотр условий труда;\n•  Гибкое начало рабочего дня и социальный пакет.","markup":[{"type":"hashtag","offset":0,"length":5,"data":"java"},{"type":"hashtag","offset":6,"length":7,"data":"middle"},{"type":"hashtag","offset":15,"length":7,"data":"senoir"},{"type":"hashtag","offset":23,"length":9,"data":"fulltime"},{"type":"hashtag","offset":33,"length":7,"data":"Москва"},{"type":"hashtag","offset":41,"length":10,"data":"Ярославль"},{"type":"handle","offset":147,"length":14,"data":"IrinaTishkina"}],"date":"2020-04-10T07:57:38+00:00","link":"tg://resolve?domain=jvmjobs&post=1367","tags":[{"name":"java"},{"name":"jvm"},{"name":"sql"},{"name":"spring"},{"name":"hibernate"},{"name":"maven"},{"name":"gradle"},{"name":"oracle"},{"name":"postgresql"},{"name":"git"},{"name":"svn"},{"name":"mercurial"},{"name":"tomcat"},{"name":"rest"}],"cities":[{"code":"moscow"},{"code":"yaroslavl"}],"allowsRemote":false}},{"node":{"__typename":"Job","id":"98235842560-1001089317451","title":"Qa engineer","text":"#вакансия #QA #fulltime #офис #Кипр\nВсем привет!  В нашу команду высоконагруженного проекта разыскивается Automation QA Engineer Web с переездом на Кипр! \nГород: Лимассол\nФормат работы: офис\nКомпания: Marikit Holdings LTD \nЗанятость: полная\nЗарплатная вилка: от 2500 EUR на руки (обсуждается индивидуально).\n\n💡Основные обязанности: \n-Написание и поддержка автотестов;\n-Анализ отчетов прогонов;\n-Организация и поддержка тестового окружения. \n📌Наши пожелания:\n- Аналогичный опыт работы от 3-х лет;\n- Высшее образование в IT сфере;\n-Понимание принципов разработки и тестирования;\n-Знание методов и технологий тестирования;\n-Опыт разработки\\написания автотестов на Java\\Kotlin;\n-Опыт автоматизации на базе Selenium WebDriver+JUnit+Cucumber (+Gradle/Maven);\n-Опыт работы с баг-трекинговыми системами (Jira, Redmine, YouTrack или др.);\n-Навыки работы с системами контроля версия (Git).\n🏆Плюсы работы у нас:\n- Интересные проекты и отсутствие бюрократии;\n- Возможность гибкого начала рабочего дня;\n- Бесплатные корпоративные обеды;\n- Спортзал в офисе;\n- Помощь при переезде.\n\nБуду рада Вашим вопросам и резюме @hrkaterina","markup":[{"type":"hashtag","offset":0,"length":9,"data":"вакансия"},{"type":"hashtag","offset":10,"length":3,"data":"QA"},{"type":"hashtag","offset":14,"length":9,"data":"fulltime"},{"type":"hashtag","offset":24,"length":5,"data":"офис"},{"type":"hashtag","offset":30,"length":5,"data":"Кипр"},{"type":"underline","offset":309,"length":2,"data":""},{"type":"bold","offset":311,"length":23,"data":""},{"type":"underline","offset":442,"length":2,"data":""},{"type":"bold","offset":444,"length":16,"data":""},{"type":"underline","offset":882,"length":2,"data":""},{"type":"bold","offset":884,"length":20,"data":""},{"type":"handle","offset":1105,"length":11,"data":"hrkaterina"}],"date":"2020-04-08T13:35:26+00:00","link":"tg://resolve?domain=qa_jobs&post=93685","tags":[{"name":"qa"},{"name":"web"},{"name":"java"},{"name":"kotlin"},{"name":"selenium"},{"name":"junit"},{"name":"cucumber"},{"name":"gradle"},{"name":"maven"},{"name":"git"}],"cities":[],"allowsRemote":false}},{"node":{"__typename":"Job","id":"1429209088-1001091028994","title":"Java разработчик","text":"#java #javascript #spring #middle #senior #кибербезопасность\nКомпания: #bizone #бизон \nЛокация: #москва #мск \nЗ/п: 100 - 220к\nКонтакты: @sokolovaap, d.sokolova@bi.zone\n\n- BI.ZONE (Безопасная информационная зона) -визионер российского рынка кибербезопасности.\nМы создаем инновационные продукты для анализа угроз и активной защиты от мошенничества, автоматизируем и масштабируем экспертизу наших сервисных подразделений и разрабатываем инструменты для внутреннего использования; Являемся международной компанией;\n\nЗадача:\n- Разработка уникальной платформы выявления мошенничества (Fraud Monitoring);\n\nНаш стек:\n- spring, знание maven,postgresql,apache cassandra,docker,apache kafka;\n\nЧто предлагаем?\n- Сложные задачи, прокачивающие уникальные скиллы;\n- Организовываем удаленную работу сейчас, не проблема.\n- Офис м.Комсомольская/Бауманская/Красносельская;\n- Свободный график, капсулы сна, работу на свежем воздухе, игровые приставки;\n- ДМС и фитнес и тд;\n- Профессиональный коллектив, сплошь состоящий из асов разработки сложных систем в области практической ИБ;\n- И дружную семью 24/7.","markup":[{"type":"hashtag","offset":0,"length":5,"data":"java"},{"type":"hashtag","offset":6,"length":11,"data":"javascript"},{"type":"hashtag","offset":18,"length":7,"data":"spring"},{"type":"hashtag","offset":26,"length":7,"data":"middle"},{"type":"hashtag","offset":34,"length":7,"data":"senior"},{"type":"hashtag","offset":42,"length":18,"data":"кибербезопасность"},{"type":"hashtag","offset":71,"length":7,"data":"bizone"},{"type":"hashtag","offset":79,"length":6,"data":"бизон"},{"type":"hashtag","offset":96,"length":7,"data":"москва"},{"type":"hashtag","offset":104,"length":4,"data":"мск"},{"type":"handle","offset":136,"length":11,"data":"sokolovaap"},{"type":"link","offset":149,"length":18,"data":"mailto:d.sokolova@bi.zone"},{"type":"link","offset":171,"length":7,"data":"http://BI.ZONE"}],"date":"2020-04-08T10:59:36+00:00","link":"tg://resolve?domain=jvmjobs&post=1363","tags":[{"name":"java"},{"name":"jvm"},{"name":"javascript"},{"name":"spring"},{"name":"maven"},{"name":"postgresql"},{"name":"apache"},{"name":"cassandra"},{"name":"docker"},{"name":"kafka"}],"cities":[{"code":"moscow"}],"allowsRemote":false}},{"node":{"__typename":"Job","id":"98141470720-1001089317451","title":"Qa engineer","text":"#вакансия #QA #fulltime #офис #Кипр\nВсем привет!  В нашу команду высоконагруженного проекта разыскивается Automation QA Engineer Web с переездом на Кипр! \nГород: Лимассол\nФормат работы: офис\nКомпания: Marikit Holdings LTD \nЗанятость: полная\nЗарплатная вилка: от 2500 EUR на руки (обсуждается индивидуально).\n\n💡Основные обязанности: \n-Написание и поддержка автотестов;\n-Анализ отчетов прогонов;\n-Организация и поддержка тестового окружения. \n📌Наши пожелания:\n- Аналогичный опыт работы от 3-х лет;\n- Высшее образование в IT сфере;\n-Понимание принципов разработки и тестирования;\n-Знание методов и технологий тестирования;\n-Опыт разработки\\написания автотестов на Java\\Kotlin;\n-Опыт автоматизации на базе Selenium WebDriver+JUnit+Cucumber (+Gradle/Maven);\n-Опыт работы с баг-трекинговыми системами (Jira, Redmine, YouTrack или др.);\n-Навыки работы с системами контроля версия (Git).\n🏆Плюсы работы у нас:\n- Интересные проекты и отсутствие бюрократии;\n- Возможность гибкого начала рабочего дня;\n- Бесплатные корпоративные обеды;\n- Спортзал в офисе;\n- Помощь при переезде.\n\nБуду рада Вашим вопросам и резюме @hrkaterina","markup":[{"type":"hashtag","offset":0,"length":9,"data":"вакансия"},{"type":"hashtag","offset":10,"length":3,"data":"QA"},{"type":"hashtag","offset":14,"length":9,"data":"fulltime"},{"type":"hashtag","offset":24,"length":5,"data":"офис"},{"type":"hashtag","offset":30,"length":5,"data":"Кипр"},{"type":"underline","offset":309,"length":2,"data":""},{"type":"bold","offset":311,"length":23,"data":""},{"type":"underline","offset":442,"length":2,"data":""},{"type":"bold","offset":444,"length":16,"data":""},{"type":"underline","offset":882,"length":2,"data":""},{"type":"bold","offset":884,"length":20,"data":""},{"type":"handle","offset":1105,"length":11,"data":"hrkaterina"}],"date":"2020-04-07T14:14:37+00:00","link":"tg://resolve?domain=qa_jobs&post=93595","tags":[{"name":"qa"},{"name":"web"},{"name":"java"},{"name":"kotlin"},{"name":"selenium"},{"name":"junit"},{"name":"cucumber"},{"name":"gradle"},{"name":"maven"},{"name":"git"}],"cities":[],"allowsRemote":false}},{"node":{"__typename":"Job","id":"1419771904-1001091028994","title":"Java разработчик","text":"#fulltime #офис #СПб\n#backend #высоконагруженные_сервисы\n#вакансия\n\nВилка: 150.000 - 280.000 NET\nПозиция: middle-senior\n\nПривет всем, ищу к себе в команду CardPay Java-разработчика. Занимаемся разработкой сервиса онлайн платежей. Головной офис в Лондоне, в кризисной лодке не пострадали, продолжаем расширяться, выглядим достаточно надежно.\n\nСайт: https://www.cardpay.com/home\n\nУсловия:\n— Техника заказывается на выбор сотрудника (новый офис, можно повыбирать);\n— Компенсация занятий спортом и английским языком после испытательного срока;\n— Организовываем удаленную работу сейчас и онлайн онбординг;\n— Офис класса А++, созданный дизайнерами, которые делали офис ВКонтакте. \n\nСтек технологий:\nJavaEE, SpringFramework, Maven, SQL, SpringBoot.\n\nИщем разработчиков с опытом от  2-х лет.\n\nЗадачи: \n— Анализировать техническое задание на разработку;\n— Разработка корпоративных приложений и доработка их функционала;\n— Разработка backend части приложений;\n— Анализ и устранение ошибок;\n— Подготовка технической документации.\n\nВсего 2 этапа интервью.\n\nКонтактное лицо: @kitanamda","markup":[{"type":"hashtag","offset":0,"length":9,"data":"fulltime"},{"type":"hashtag","offset":10,"length":5,"data":"офис"},{"type":"hashtag","offset":16,"length":4,"data":"СПб"},{"type":"hashtag","offset":21,"length":8,"data":"backend"},{"type":"hashtag","offset":30,"length":26,"data":"высоконагруженные_сервисы"},{"type":"hashtag","offset":57,"length":9,"data":"вакансия"},{"type":"bold","offset":68,"length":53,"data":""},{"type":"link","offset":348,"length":28,"data":"https://www.cardpay.com/home"},{"type":"bold","offset":378,"length":9,"data":""},{"type":"bold","offset":676,"length":17,"data":""},{"type":"bold","offset":774,"length":18,"data":""},{"type":"bold","offset":1020,"length":25,"data":""},{"type":"handle","offset":1062,"length":10,"data":"kitanamda"}],"date":"2020-04-06T12:34:54+00:00","link":"tg://resolve?domain=jvmjobs&post=1354","tags":[{"name":"java"},{"name":"jvm"},{"name":"dotnet"},{"name":"maven"},{"name":"sql"}],"cities":[],"allowsRemote":false}},{"node":{"__typename":"Job","id":"16186867712-1001110946746","title":"Js разработчик","text":"#frontend #вакансия #Москва #fulltime #middle #senior #react #работа\nГород и адрес офиса: Москва, между метро Нагатинская и Тульская, мцк Верхние котлы \nФормат работы: офис\nЗанятость:полная\nОплата: 150- 250 Net\nОписание вакансии:\n💥Команда Product Catalog  ищет сильного Frontend-разработчика!🙌\n💥Проект Product Catalog-это облачное решение, которое позволяет бизнесу вести все свои продукты (карты, вклады, продукты партнеров и и.п) в едином месте, гибко управлять всеми элементами 4P (product,price, promotion, place) и мгновенно выводить все изменения на рынок. Архитектура системы состоит из 11 модулей, половина из них в Production, другая половина требует проектирования и разработки. Продукт активно развивается, поэтому мы хотим усилить нашу команду. От нас вы получите опыт и развитие компетенций, амбициозные задачи, карьерный рост и открытость к инновациям!\n💥Стек: React JS, react-redux, webPack, CSS, HTML, Java, Spring, Git, Maven.\n💥 Процесс разработки : Scrum, Jira, Gitfliw, Devops до Production (переход на OpenShift)\n💥-Оформление ТК РФ;\n     -ДМС;\n     - Белая заработная плата (оклад + годовая премия);\n     -Возможность обучения за счет компании;\n     -   Льготное кредитование;\n      -Бесплатный тренажерный зал на территории офиса;\n       - корпоративная жизнь и спортивные мероприятия;\n       -возможность карьерного роста.\nКомпания: СберТех\nКонтакты: @TaliaHR\n\n—","markup":[{"type":"hashtag","offset":0,"length":9,"data":"frontend"},{"type":"hashtag","offset":10,"length":9,"data":"вакансия"},{"type":"hashtag","offset":20,"length":7,"data":"Москва"},{"type":"hashtag","offset":28,"length":9,"data":"fulltime"},{"type":"hashtag","offset":38,"length":7,"data":"middle"},{"type":"hashtag","offset":46,"length":7,"data":"senior"},{"type":"hashtag","offset":54,"length":6,"data":"react"},{"type":"hashtag","offset":61,"length":7,"data":"работа"},{"type":"handle","offset":1378,"length":8,"data":"TaliaHR"}],"date":"2020-04-06T09:46:48+00:00","link":"tg://resolve?domain=javascript_jobs_feed&post=15437","tags":[{"name":"javascript"},{"name":"reactjs"},{"name":"dotnet"},{"name":"redux"},{"name":"webpack"},{"name":"css"},{"name":"html"},{"name":"java"},{"name":"spring"},{"name":"git"},{"name":"maven"},{"name":"react-redux"}],"cities":[{"code":"moscow"}],"allowsRemote":false}},{"node":{"__typename":"Job","id":"1417674752-1001091028994","title":"Java разработчик","text":"#java #middle #москва #офис #fulltime частично #remote \n\nКомпания: BPC, проект \"Рунет Бизнес Системы\"\nформат работы: офис\nзанятость: full time, есть возможность частично работать remote \nлокация: Москва, (м. Курская/Чкаловская) \nЗ/п: 150 - 200к Net \n\n🌏Компания \"Рунет Бизнес Системы\" входит в группу компаний BPC Банковские Технологии и специализируется на предоставлении услуг интернет-эквайринга.  \nКлиенты РБС - это крупнейшие банки и компании России: Сбербанк РФ, Альфа-Банк, Аэрофлот, Открытие, группа ВТБ и многие другие. На текущий момент у РБС полтора десятка экземпляров платёжного шлюза для банков, где топовые инстансы дают в среднем 250 транзакций в секунду. \n\nРебята постоянно развивают внутренние процессы, сохраняя гибкость в управлении растущим числом проектов. Код-ревью всех изменений, agile-подход к разработке (примерно Scrumban), continuous integration и автоматизация тестирования помогают им контролировать и синхронизировать работу команд разработки, тестирования и внедрения.\n\nВ данный момент команды в поисках Middle Java разработчиков, коллеги готов гибко рассматривать кандидатов с опытом от 2 лет. \n\n🔸Технологический стэк команды:\nJava 11 (Stream API), java.util.concurrent, Stream REST API, Spring (boot, MVC, JDBC), Hibernate, Gradle, Kafka, Git, Maven. \n\n🔹Взамен компания готова предоставить:\n- оформление трудовых отношений в соответствии с ТК РФ: \"белую\" конкурентоспособную зарплату, оплату больничных и отпусков;\n- ДМС, включая стоматологию, участие в программах корпоративного кредитования и страхования;\n- возможность карьерного роста, обучения в корпоративном Университете и посещения внешних тренингов;\n- гибкое начало рабочего дня и крутые корпоративные мероприятия;\n- комфортный офис в шаговой доступности от метро Курская/Чкаловская. Бонусом - красивый вид из окна, тишина, чай и сэндвичи, пятница – фруктовый день 🙂 \n\nКонтакты: \ne-mail: valeriya@luckyhunter.io\ntelegram: @sobolevavalery\nБуду рада ответить на все вопросы и рассказать подробнее о компании 😊","markup":[{"type":"hashtag","offset":0,"length":5,"data":"java"},{"type":"hashtag","offset":6,"length":7,"data":"middle"},{"type":"hashtag","offset":14,"length":7,"data":"москва"},{"type":"hashtag","offset":22,"length":5,"data":"офис"},{"type":"hashtag","offset":28,"length":9,"data":"fulltime"},{"type":"hashtag","offset":47,"length":7,"data":"remote"},{"type":"link","offset":1885,"length":23,"data":"mailto:valeriya@luckyhunter.io"},{"type":"handle","offset":1919,"length":15,"data":"sobolevavalery"}],"date":"2020-04-03T15:11:11+00:00","link":"tg://resolve?domain=jvmjobs&post=1352","tags":[{"name":"java"},{"name":"jvm"},{"name":"dotnet"},{"name":"rest"},{"name":"spring"},{"name":"jdbc"},{"name":"hibernate"},{"name":"gradle"},{"name":"kafka"},{"name":"git"},{"name":"maven"},{"name":"continuous-integration"},{"name":"spring-boot"}],"cities":[{"code":"moscow"}],"allowsRemote":true}},{"node":{"__typename":"Job","id":"1415577600-1001091028994","title":"Java developer","text":"#java #москва #spring\n\nПРОТЕК — крупнейший российский фармацевтический холдинг, занимающий лидирующие позиции во всех сегментах фармотрасли – производстве, дистрибуции, рознице. В компанию ищут Java Developer реализовывать различные проекты, связанные, к примеру, с поставкой лекарств, онлайн сервисом по их заказу и организацией учебной среды для фармацевтов. \n\nНужно будет разрабатывать серверные решения J2EE для интеграции различных систем в единое информационное пространство, причём вы можете менять проекты и получать новый опыт. Для тех, кому важна социальная мотивация: здесь вы будете помогать системе здравоохранения справляться с резко возросшими нагрузками.\n\nВ ваши обязанности будет входить реализация серверных решений уровня представления данных (SOAP-сервер, REST-API) и пользовательского интерфейса (Ext GWT), а также архитектура и оптимизация. \n\nОт вас ждут:\n - Знание Java 7+ \n - Опыт разработки асинхронных процессов\n - Spring, Hibernate\n - Опыт работы с системами контроля версий, Maven\n - Знакомство с CI/CD\n\n - Плюсом будет опыт работы с командной строкой Linux и с базами данных Oracle.\n\nВам предоставят ДМС, спортзал, профессиональное обучение и приятный коллектив, в котором прислушиваются к вашим идеям и можно влиять на процесс.\n\nОфис (после карантина) в Москве на Медведково; график обычно с 9 до 18, но гибкость обсуждаема, зарплата 120-200к на руки.\n\nПишите за подробностями @sonya_ofthejungle","markup":[{"type":"hashtag","offset":0,"length":5,"data":"java"},{"type":"hashtag","offset":6,"length":7,"data":"москва"},{"type":"hashtag","offset":14,"length":7,"data":"spring"},{"type":"handle","offset":1407,"length":18,"data":"sonya_ofthejungle"}],"date":"2020-04-02T15:08:23+00:00","link":"tg://resolve?domain=jvmjobs&post=1350","tags":[{"name":"java"},{"name":"jvm"},{"name":"spring"},{"name":"soap"},{"name":"rest"},{"name":"gwt"},{"name":"hibernate"},{"name":"maven"},{"name":"linux"},{"name":"oracle"}],"cities":[{"code":"moscow"}],"allowsRemote":false}},{"node":{"__typename":"Job","id":"1408237568-1001091028994","title":"Java разработчик","text":"#java #middle #senior #москва #рязань #ижевск #питер\nВакансия: Java-разработчик \nКомпания: https://jtc.ooo/\nРабота в одном из офисов: Москва, Рязань, Ижевск, Санкт-Петербург\nЗ/п: от 150 000 до 250 000 рублей\nФормат работы: офис\nЗанятость: полная \nСпециализация компании: с 2007 года работаем в области построения систем ДБО для юридических лиц, как на базе собственного решения, так и в области построения систем ДБО на заказ.\n\nОбязанности\n- проектирование и разработка backend высоконагруженного web-приложения с использованием микросервисной архитектуры\n- интеграция со сторонними сервисами\n- рефакторинг\n\nТребования\n- опыт работы с java  от 2 лет\n- Java 8, Hibernate, SQL(PostgreSQL/Oracle/MSSQL), Spring Framework, Maven/Gradle\n- знание основных алгоритмов и структур данных\n\nМы предлагаем\n- конкурентная заработная плата по результатам общения\n- соблюдение TK РФ\n- уютный офис и современная техника на рабочих местах\n- гибкий рабочий график с началом работы с 8:00 до 11:00\n- ДМС с расширенным набором услуг\n- интересные и нетривиальные задачи \n- возможность посещать семинары, тренинги, конференции\n- дружный коллектив профессионалов, комфортная атмосфера\n- возможность участия в крупных и интересных проектах\n\nКонтакты: @rita_kudryashova","markup":[{"type":"hashtag","offset":0,"length":5,"data":"java"},{"type":"hashtag","offset":6,"length":7,"data":"middle"},{"type":"hashtag","offset":14,"length":7,"data":"senior"},{"type":"hashtag","offset":22,"length":7,"data":"москва"},{"type":"hashtag","offset":30,"length":7,"data":"рязань"},{"type":"hashtag","offset":38,"length":7,"data":"ижевск"},{"type":"hashtag","offset":46,"length":6,"data":"питер"},{"type":"link","offset":91,"length":16,"data":"https://jtc.ooo/"},{"type":"handle","offset":1227,"length":17,"data":"rita_kudryashova"}],"date":"2020-04-01T09:07:17+00:00","link":"tg://resolve?domain=jvmjobs&post=1343","tags":[{"name":"java"},{"name":"jvm"},{"name":"web"},{"name":"hibernate"},{"name":"sql"},{"name":"postgresql"},{"name":"oracle"},{"name":"sql-server"},{"name":"spring"},{"name":"maven"},{"name":"gradle"}],"cities":[{"code":"moscow"},{"code":"ryazan"},{"code":"izhevsk"}],"allowsRemote":false}},{"node":{"__typename":"Job","id":"1407188992-1001091028994","title":"Java developer","text":"RBS, Рунет Бизнес Системы (входит в BPC Group) \n#вакансия #Москва #Java \nГород: Москва, м.Курская \nФормат работы: full-time (офис, гибкий график) \nЗарпатная вилка: 170-250 тыс. руб gross + 50% от оклада квартальный бонус (фикс) \nРоль: Java developer (middle) \n\nКомпания РБС специализируется на предоставлении услуг в области электронной коммерции, а также процессинга электронных платежей. \nСегодня клиентами РБС являются крупнейшие банки и компании России: Сбербанк РФ, Альфа-Банк, Аэрофлот, Открытие, группа ВТБ и многие другие. \n\nТвои задачи: \n📌Разработка серверных Java-приложений, рефакторинг и оптимизация; \n📌Реализация бизнес-функционала как в тесной работе с аналитиком, так и самостоятельно; \n📌Описание функционала на уровне подробного комментария (описание API, алгоритма, структур данных, информация для тестировщиков); \n📌Код-ревью изменений коллег и работа по основным принципам Agile. \n\nТребования: \n✅Опыт разработки на Java от 2-х лет, знание synchronized; \n✅Знание Spring (boot, MVC, JDBC); \n✅Опыт написания тестов (JUnit, Mockito или PowerMock); \n✅Знание Java 8, 11 (Stream API), java.util.concurrent; \n✅Понимание принципов работы HTTP/HTTPS (SSL, TLS); \n✅Уверенное владение SQL; \n✅Git, Maven, Gradle. \n\nВзамен мы: \n🌟Гарантируем оформление трудовых отношений в соответствии с ТК РФ: \"белую\" конкурентоспособную зарплату, оплату больничных и отпусков; \n🌟Обеспечиваем ДМС, включая стоматологию, участие в программах корпоративного кредитования и страхования; \n🌟Даем возможность карьерного роста (пересмотр зарплаты и грейда каждый год); \n🌟Предлагаем обучение в Корпоративном Университете, возможность посещать внешние тренинги и конференции (JPoint, Joker); \n🌟Организуем гибкое начало рабочего дня; \n🌟Проводим интересные и активные корпоративные мероприятия (выездные: Франция, Германия и т.д.); \n🌟Предоставляем комфортный офис в шаговой доступности от метро Курская/Чкаловская. \n\n📝Контакты: \nDaria Kuznetsova \nHR Business Parthner \n\nBPC Group | Bld. 2, 50A/8 Zemlyanoy Val St., Moscow, Russia, 109028\nTel: +7 (495) 780-31-65 | Fax: +7 (495) 780-31-67 | Mobile: +7 (915) 469-99-53\ndo.kuznetsova@bpcbt.com | www.bpcbt.com\nTelegram @KuznetsovaDO","markup":[{"type":"hashtag","offset":48,"length":9,"data":"вакансия"},{"type":"hashtag","offset":58,"length":7,"data":"Москва"},{"type":"hashtag","offset":66,"length":5,"data":"Java"},{"type":"link","offset":2033,"length":18,"data":"tel:+7 (495) 780-31-65"},{"type":"link","offset":2059,"length":18,"data":"tel:+7 (495) 780-31-67"},{"type":"link","offset":2088,"length":18,"data":"tel:+7 (915) 469-99-53"},{"type":"link","offset":2107,"length":23,"data":"mailto:do.kuznetsova@bpcbt.com"},{"type":"link","offset":2133,"length":13,"data":"http://www.bpcbt.com"},{"type":"handle","offset":2156,"length":13,"data":"KuznetsovaDO"}],"date":"2020-04-01T08:49:26+00:00","link":"tg://resolve?domain=jvmjobs&post=1342","tags":[{"name":"java"},{"name":"jvm"},{"name":"spring"},{"name":"jdbc"},{"name":"junit"},{"name":"ssl"},{"name":"sql"},{"name":"git"},{"name":"maven"},{"name":"gradle"},{"name":"mobile"},{"name":"spring-boot"}],"cities":[{"code":"moscow"}],"allowsRemote":false}}]}}},"context":{}}