{"hash":"f5f6bf98bd95e769321482904cbbd488f77922fd","data":{"records":{"id":"kotlin","name":"kotlin","belongsTo":{"totalCount":116,"pageInfo":{"totalPages":12,"currentPage":2},"edges":[{"node":{"__typename":"Job","id":"17317232640-1001110946746","title":"Javascript developer","text":"#вакансия #ReactNative #Одесса\n🔹Локация: Одесса,  #Odessa, р-н Пересыпи\n🔹Формат работы: #Офис / #удаленка\n🔹Занятость: Полная занятость, #Fulltime\n🔹Вилка 1700-2500 уе, дважды в год Performance Review.\n\n☀Вакансия Middle React Native developer\n🔹Описание вакансии:\n- 4+ years of experience in software development and JavaScript (ES6+).\n- 2+ years of experience with React Native.\n- Experience with commercial native applications development (IOS/Android).\n- Understanding and experience with building the full mobile application’s lifecycle.\n- Knowledge of architecture design and experience working knowledge of SOAP and RESTful integrations.\n- Intermediate written and spoken English.\nБудет плюсом:\n- Experience with native SDKs for Android (Kotlin/Java) and/or iOS (Swift).\n\n\n🔹Компания Attract Group.\n🔹Контакты:\n✏️телеграм @Niedova_Olga,\n✏️почта hr@attractgroup.com.\n\n—\n\n👉 Обсуждение вакансии в чате @javascript_jobs","markup":[{"type":"hashtag","offset":0,"length":9,"data":"вакансия"},{"type":"hashtag","offset":10,"length":12,"data":"ReactNative"},{"type":"hashtag","offset":23,"length":7,"data":"Одесса"},{"type":"hashtag","offset":51,"length":7,"data":"Odessa"},{"type":"hashtag","offset":90,"length":5,"data":"Офис"},{"type":"hashtag","offset":98,"length":9,"data":"удаленка"},{"type":"hashtag","offset":139,"length":9,"data":"Fulltime"},{"type":"handle","offset":830,"length":13,"data":"Niedova_Olga"},{"type":"link","offset":853,"length":19,"data":"mailto:hr@attractgroup.com"},{"type":"handle","offset":908,"length":16,"data":"javascript_jobs"}],"date":"2020-07-02T11:06:21+00:00","link":"tg://resolve?domain=javascript_jobs_feed&post=16515","tags":[{"name":"javascript"},{"name":"reactjs"},{"name":"ios"},{"name":"android"},{"name":"mobile"},{"name":"soap"},{"name":"kotlin"},{"name":"java"},{"name":"swift"},{"name":"react-native"}],"cities":[{"code":"odessa"}],"allowsRemote":true}},{"node":{"__typename":"Job","id":"72534196224-1001054966032","title":"Mobile разработчик","text":"#вакансия #работа #ios #android #Swift #kotlin #Москва #удаленка #remote #офис #mobile\nГород: Москва\nФормат работы: офис или удаленка\nЗанятость: полная, частичная, проектная, обсуждаем все варианты\nЗарплатная вилка: от 150 000 до 300 000 рублей\nКонтакты: 📲 @d_aleshina\n📧d.aleshina@ancor.ru\n\nТребования: Коммерческий опыт разработки на iOS или Android от 2-х лет\n\nОписание вакансии: Ищем мобильных разработчиков на несколько крупных FinTech-проектов (всегда есть возможность выбрать наиболее вам интересный), текущих или со стартом через 1-2 месяца и далее. \n\nУсловия:\n🔸У нас 100% белая зп (фиксированный оклад), ДМС со стоматологией, международной страховкой, оплачиваемая мобильная связь.  \n🔸По доходу и условиям мы гибкие, готовы договариваться с вами, отталкиваемся от пожеланий.  \n🔸Есть возможности роста по уровню дохода, по роли в проектах, а также возможность выбрать альтернативный проект, перейти в новую команду. \n\nКомпания: ANCOR FinTech https://ancor.ru\nЗа подробностями пишите 📲@d_aleshina","markup":[{"type":"hashtag","offset":0,"length":9,"data":"вакансия"},{"type":"hashtag","offset":10,"length":7,"data":"работа"},{"type":"hashtag","offset":18,"length":4,"data":"ios"},{"type":"hashtag","offset":23,"length":8,"data":"android"},{"type":"hashtag","offset":32,"length":6,"data":"Swift"},{"type":"hashtag","offset":39,"length":7,"data":"kotlin"},{"type":"hashtag","offset":47,"length":7,"data":"Москва"},{"type":"hashtag","offset":55,"length":9,"data":"удаленка"},{"type":"hashtag","offset":65,"length":7,"data":"remote"},{"type":"hashtag","offset":73,"length":5,"data":"офис"},{"type":"hashtag","offset":79,"length":7,"data":"mobile"},{"type":"bold","offset":87,"length":5,"data":""},{"type":"bold","offset":101,"length":13,"data":""},{"type":"bold","offset":134,"length":11,"data":""},{"type":"bold","offset":198,"length":17,"data":""},{"type":"bold","offset":245,"length":9,"data":""},{"type":"handle","offset":258,"length":11,"data":"d_aleshina"},{"type":"link","offset":270,"length":23,"data":"http://%F0%9F%93%A7d.aleshina@ancor.ru/"},{"type":"bold","offset":293,"length":12,"data":""},{"type":"bold","offset":365,"length":19,"data":""},{"type":"bold","offset":561,"length":9,"data":""},{"type":"bold","offset":930,"length":10,"data":""},{"type":"link","offset":954,"length":16,"data":"https://ancor.ru"},{"type":"handle","offset":997,"length":11,"data":"d_aleshina"}],"date":"2020-07-02T10:55:01+00:00","link":"tg://resolve?domain=mobile_jobs&post=69174","tags":[{"name":"mobile"},{"name":"android"},{"name":"ios"},{"name":"swift"},{"name":"kotlin"}],"cities":[{"code":"moscow"}],"allowsRemote":true}},{"node":{"__typename":"Job","id":"72533147648-1001054966032","title":"Android разработчик","text":"#Android #Kotlin #вакансия #офис #Санкт-Петербург\nЗанятость: полная, опыт: 1-3  лет\nЗарплатная вилка: от 80 т.р до 160 т.р\n\nЧем предстоит заниматься:\n•  Разработкой приложений разного профиля под андроид\n\nТребования:\n•  Знание Kotlin\n•  Знание архитектуры OS Android\n•  Опыт разработки UI компонентов\n•  Опыт работы с геолокацией и GPS\n•  Знание систем контроля версий (Git)\n•  Обязательно: примеры работ с геолокацией/картами/gps\n\nБудет плюсом:\n•  Опыт работы с видео\n•  Реализованные проекты в Google Play\n\nМы предлагаем:\n•  Участие в разработке интересных проектов\n•  Возможность быть проактивным, влиять на процессы и общий результат\n•  Молодую команду увлеченных людей\n•  Комфортную лаундж зону, овощи, фрукты, закуски\nВ сопроводительном письме просим указать примеры работ с геолокацией /картами/gps.\nНазвание компании: AI.People\nРезюме прислать: dina.maystruk@aipeople.ru, либо в телеграм @dinochkamay","markup":[{"type":"hashtag","offset":0,"length":8,"data":"Android"},{"type":"hashtag","offset":9,"length":7,"data":"Kotlin"},{"type":"hashtag","offset":17,"length":9,"data":"вакансия"},{"type":"hashtag","offset":27,"length":5,"data":"офис"},{"type":"hashtag","offset":33,"length":6,"data":"Санкт"},{"type":"link","offset":853,"length":25,"data":"mailto:dina.maystruk@aipeople.ru"},{"type":"handle","offset":896,"length":12,"data":"dinochkamay"}],"date":"2020-07-02T10:30:36+00:00","link":"tg://resolve?domain=mobile_jobs&post=69173","tags":[{"name":"mobile"},{"name":"android"},{"name":"kotlin"},{"name":"git"},{"name":"playframework"}],"cities":[],"allowsRemote":false}},{"node":{"__typename":"Job","id":"72525807616-1001054966032","title":"Mobile developer","text":"#вакансия #ReactNative #Одесса\n🔹Локация: Одесса,  #Odessa, р-н Пересыпи\n🔹Формат работы: #Офис / #удаленка\n🔹Занятость: Полная занятость, #Fulltime\n🔹Вилка $1700-$2500, дважды в год Performance Review.\n\n☀Вакансия Middle React Native developer\n🔹Описание вакансии:\n- 4+ years of experience in software development and JavaScript (ES6+).\n- 2+ years of experience with React Native.\n- Experience with commercial native applications development (IOS/Android).\n- Understanding and experience with building the full mobile application’s lifecycle.\n- Knowledge of architecture design and experience working knowledge of SOAP and RESTful integrations.\n- Experience with native SDKs for Android (Kotlin/Java) and/or iOS (Swift).\n- Intermediate written and spoken English.\n\n🔹Компания Attract Group.\n🔹Контакты:\n✏️телеграм @Niedova_Olga,\n✏️почта hr@attractgroup.com.","markup":[{"type":"hashtag","offset":0,"length":9,"data":"вакансия"},{"type":"hashtag","offset":10,"length":12,"data":"ReactNative"},{"type":"hashtag","offset":23,"length":7,"data":"Одесса"},{"type":"hashtag","offset":51,"length":7,"data":"Odessa"},{"type":"hashtag","offset":90,"length":5,"data":"Офис"},{"type":"hashtag","offset":98,"length":9,"data":"удаленка"},{"type":"hashtag","offset":139,"length":9,"data":"Fulltime"},{"type":"handle","offset":814,"length":13,"data":"Niedova_Olga"},{"type":"link","offset":837,"length":19,"data":"mailto:hr@attractgroup.com"}],"date":"2020-07-02T09:41:39+00:00","link":"tg://resolve?domain=mobile_jobs&post=69166","tags":[{"name":"mobile"},{"name":"android"},{"name":"ios"},{"name":"reactjs"},{"name":"javascript"},{"name":"soap"},{"name":"kotlin"},{"name":"java"},{"name":"swift"},{"name":"react-native"}],"cities":[{"code":"odessa"}],"allowsRemote":true}},{"node":{"__typename":"Job","id":"72521613312-1001054966032","title":"Android developer","text":"#вакансия #работа #Android #Kotlin #релокация #работавофисе\nAndroid developer📱\n\nГород: Санкт-Петербург\nФормат работы: офис (возможность работать удаленно первое время)\nЗанятость: полная\nЗарплатная вилка: от 140 000 до 170 000;\n\n💻Что нужно делать:\n- Разработка и поддержка приложений для Android (Kotlin);\n- Работа с серверными запросами (REST APi);\n- Разработка архитектуры мобильных приложений (MVC / MVVM / Clean / MVP);\n- Участие в решении задач, связанных с бизнес-логикой;\n- Работа в команде;\n- Участие в планировании (SCRUM).\n\n📋Требования:\n- Уверенные знание Android SDK, Android Architecture Components;\n- Уверенные знания Kotlin/Java;\n- Понимать принципы проектирования SOLID;\n- Знание сетевых протоколов и технологий (HTTP(S), REST API, JSON);\n- Знание и понимание работы WebSocket;\n- Способность самостоятельно анализировать различные форматы передачи данных и определять их структуру;\n- Разбираться с непростыми архитектурными задачами и придумывать интеграционные решения.\n\nПо условиям: оформление по ТК РФ, ДМС после испытательного срока, корпоративные курсы (скорочтение, разработка, английский и пр), развитая корпоративная культура, молодой коллектив. Помогаем с релокацией.\n\nПо всем вопросам: @kvikka20","markup":[{"type":"hashtag","offset":0,"length":9,"data":"вакансия"},{"type":"hashtag","offset":10,"length":7,"data":"работа"},{"type":"hashtag","offset":18,"length":8,"data":"Android"},{"type":"hashtag","offset":27,"length":7,"data":"Kotlin"},{"type":"hashtag","offset":35,"length":10,"data":"релокация"},{"type":"hashtag","offset":46,"length":13,"data":"работавофисе"},{"type":"handle","offset":1213,"length":9,"data":"kvikka20"}],"date":"2020-07-02T09:12:47+00:00","link":"tg://resolve?domain=mobile_jobs&post=69162","tags":[{"name":"mobile"},{"name":"android"},{"name":"kotlin"},{"name":"rest"},{"name":"mvvm"},{"name":"java"},{"name":"json"},{"name":"websocket"}],"cities":[],"allowsRemote":true}},{"node":{"__typename":"Job","id":"72516370432-1001054966032","title":"Android developer","text":"#вакансия #android #developer #androiddeveloper #москва #мск \n\nAndroid Developer\nКомпания: Азбука Вкуса\nЛокация: Москва, офис\nм. Парк Победы/Кутузовская\nЗанятость: fulltime\nЗ/п: 150-210k ₽ net  \nКонтакты: @observer69\n\nУсловия\n● Официальное оформление с соблюдением ТК РФ;\n● Организация внешнего обучения;\n● Участие в конференциях и хакатонах;\n● ДМС;\n● Возможность работать из дома пару раз в неделю;\n● Комфортный офис в шаговой доступности от м. Парк Победы / Кутузовская;\n● Большая команда IT - профессионалов;\n● Интересные задачи\n\nТребования\n● Опыт разработĸи под Android от 2х лет;\n● Опыт разработĸи ĸлиент-серверных приложений;\n● Уверенное знание Kotlin/Java и Android SDK;\n● Сможешь обьяснить разницу между процессом и потоĸом, знаешь ĸаĸ\nработает многопоточность;\n● Понимание принципов SOLID, и желание писать чистый ĸод;\n● Работал с git (терминал или приложение);\n● Опублиĸованные в Google Play приложения, в разработĸе ĸоторых\nпринимали участие.\n\nЖелательно\n● Опыт разработĸи e-commerce или retail приложений;\n● Умение писать тесты;\n● Наличие аĸĸаунта на Github/Gitlab/Bitbucket c отĸрытыми проеĸтами.\n\nЗадачи\n1. Развивать и поддерживать существующие приложения;\n2. Проводить code review;\n3. Развивать Android инфраструктуру в компании;\n4. Активно участвовать в жизни команды.","markup":[{"type":"hashtag","offset":0,"length":9,"data":"вакансия"},{"type":"hashtag","offset":10,"length":8,"data":"android"},{"type":"hashtag","offset":19,"length":10,"data":"developer"},{"type":"hashtag","offset":30,"length":17,"data":"androiddeveloper"},{"type":"hashtag","offset":48,"length":7,"data":"москва"},{"type":"hashtag","offset":56,"length":4,"data":"мск"},{"type":"bold","offset":63,"length":27,"data":""},{"type":"bold","offset":104,"length":8,"data":""},{"type":"bold","offset":153,"length":10,"data":""},{"type":"bold","offset":173,"length":5,"data":""},{"type":"bold","offset":195,"length":10,"data":""},{"type":"handle","offset":205,"length":11,"data":"observer69"},{"type":"bold","offset":218,"length":8,"data":""},{"type":"bold","offset":533,"length":11,"data":""},{"type":"bold","offset":955,"length":11,"data":""},{"type":"bold","offset":1111,"length":9,"data":""},{"type":"bold","offset":1171,"length":2,"data":""},{"type":"bold","offset":1197,"length":2,"data":""},{"type":"bold","offset":1245,"length":2,"data":""}],"date":"2020-07-02T08:09:06+00:00","link":"tg://resolve?domain=mobile_jobs&post=69157","tags":[{"name":"mobile"},{"name":"android"},{"name":"dotnet"},{"name":"kotlin"},{"name":"java"},{"name":"git"},{"name":"playframework"},{"name":"github"},{"name":"gitlab"}],"cities":[{"code":"moscow"}],"allowsRemote":false}},{"node":{"__typename":"Job","id":"72512176128-1001054966032","title":"Android разработчик","text":"#вакансия #работа #Android #Kotlin#JavaCore #удаленка\n\nФормат работы: фулл тайм удаленно \nЗанятость: полная\nЗарплатная вилка: от 130 000 до 170 000\nВакансия: Android-разработчик\nПодробности:@Jane1204\n\nRaxel Telematics - это международная компания, базирующаяся в Сингапуре, которая занимается сбором и анализом телематических данных с мобильных устройств, в данный момент находится в поиске кандидата на роль Android разработчика (удаленно).\n\nЧем предстоит заниматься:\n-Осуществлять разработку основных модулей и интерфейсов в мобильных приложениях в соответствии с заданиями от руководителя команды разработки;\n-Осуществлять разработку внутренних модулей и библиотек по сбору данных пользователя и передаче статистики;\n-Вести документацию разрабатываемого программного обеспечения;\n-Вести список задачи и поддерживать актуальным статус задач в системе Jira;\n-Формировать задания группе тестирования в проверке работоспособности мобильного программного обеспечения.\n\nЧто ожидаем мы:\n-Знание Android SDK, Java Core, Kotlin;\n-Знание и понимание принципов ООП, структур данных и классических алгоритмов;\n-Понимание REST API;\n-Понимание принципов Material Design;\n-Понимание принципов Android Clean Architecture, MVP, DI;\n-Знание SQL/SQLite;\n-Умение использовать в работе rxjava/rxjava2, retrofit2, dagger2, picasso, otto и др.;\n-Умение писать качественный код;\n-Понимание и использование принципов SOLID\n\nЧто предлагаем мы:\n-Работу в молодой амбициозной команде с возможностью обучения и дальнейшего профессионального развития\n-Международный опыт работы с иностранными коллегами и клиентами\n-Новые и интересные задачи с использованием современного стэка технологий\n-от 130 000 до 170 000 руб. на руки\n-Удаленная работа full-time (по желанию есть офис в центре МСК, но почти вся команда работает удаленно)\n\nКонтакты: \nTelegram: @Jane1204\nEmail: manuylovaey@gmail.com\nЕвгения","markup":[{"type":"hashtag","offset":0,"length":9,"data":"вакансия"},{"type":"hashtag","offset":10,"length":7,"data":"работа"},{"type":"hashtag","offset":18,"length":8,"data":"Android"},{"type":"hashtag","offset":44,"length":9,"data":"удаленка"},{"type":"handle","offset":190,"length":9,"data":"Jane1204"},{"type":"handle","offset":1824,"length":9,"data":"Jane1204"},{"type":"link","offset":1841,"length":21,"data":"mailto:manuylovaey@gmail.com"}],"date":"2020-07-02T07:28:48+00:00","link":"tg://resolve?domain=mobile_jobs&post=69153","tags":[{"name":"mobile"},{"name":"android"},{"name":"kotlin"},{"name":"java"},{"name":"rest"},{"name":"sql"},{"name":"sqlite"}],"cities":[],"allowsRemote":true}},{"node":{"__typename":"Job","id":"72507981824-1001054966032","title":"Android разработчик","text":"#вакансия #работа #Android #Kotlin #удаленнаяработа\n\nГород: Москва\nФормат работы: фулл тайм удаленно \n\nЗарплатная вилка: от 150 000 до 230 000;\nКомпания: АО «Почта банк»\n\nМы занимаем лидирующие позиции в рейтингах Интернет-банков, и не останавливаемся на достигнутом. Приглашаем к себе в команду разработчика Android.\n\nВАША ГЛАВНАЯ ЗАДАЧА:\n⚡️Разработка систем дистанционного банковского обслуживания (мобильный банк) на Android.\n\nНАШИ ТРЕБОВАНИЯ:\n✅ Опыт разработки для платформы Android от 3-х лет;\n✅ Знание Android SDK, Java, Kotlin, Rest/SOAP, Google Maps API, SQLite;\n\nВАШИМ ДОПОЛНИТЕЛЬНЫМ ПРЕИМУЩЕСТВОМ БУДЕТ:\n✅ Наличие высшего технического образования;\n✅ Знание стандартов проектирования и разработки мобильных приложений;\n✅ Знание архитектуры мобильных приложений и реализации серверного взаимодействия для мобильных приложений;\n✅ Навыки работы с многопоточностью;\n✅Опыт работы в банковской сфере.\n\nГОТОВЫ ВАМ ПРЕДЛОЖИТЬ:\n🔹 Удобный график («плавающее» начало рабочего дня);\n🔹 Удаленный формат работы;\n🔹 Оклад + квартальное премирование + годовой бонус;\n🔹 Agile. Scrum (двухнедельные спринты, работа в командах по 6-8 человек: 2 backend, 3 frontend, системный аналитик, 2 тестировщика) Демократия и самоорганизация + наличие удаленного доступа;\n🔹 Обучение - доступное внутреннее и внешнее обучение. В Банке есть корпоративная академия. Регулярно проходят внутренние митаппы, tech. chapters и ретроспективы. Мы посещаем ключевые отраслевые конференции;\n🔹 Профессиональное развитие - мы используем современный стэк, поддерживаем разумные инициативы по внедрению новшеств, совершенствуем архитектуру и кодовую базу;\n🔹 Карьерный рост- команда постоянно растет. В зависимости от вклада, каждый сотрудник может претендовать на повышение дохода, новый функционал и дополнительные задачи. Мы держимся за наших сотрудников;\n🔹 ДМС. Многочисленные скидки и бонусы от партнеров (от каршеринга до ипотеки).\n\n📩 Контакты: @dorogavtseva","markup":[{"type":"hashtag","offset":0,"length":9,"data":"вакансия"},{"type":"hashtag","offset":10,"length":7,"data":"работа"},{"type":"hashtag","offset":18,"length":8,"data":"Android"},{"type":"hashtag","offset":27,"length":7,"data":"Kotlin"},{"type":"hashtag","offset":35,"length":16,"data":"удаленнаяработа"},{"type":"handle","offset":1921,"length":13,"data":"dorogavtseva"}],"date":"2020-07-02T07:15:19+00:00","link":"tg://resolve?domain=mobile_jobs&post=69149","tags":[{"name":"mobile"},{"name":"android"},{"name":"kotlin"},{"name":"java"},{"name":"rest"},{"name":"soap"},{"name":"sqlite"},{"name":"google-maps"}],"cities":[{"code":"moscow"}],"allowsRemote":true}},{"node":{"__typename":"Job","id":"72498544640-1001054966032","title":"Android developer","text":"#вакансия #Juniorandroid #Android developer #kotlin #удаленно                                                                                                         Уровень дохода:💵 50 000-60 000  рублей net                                                                                                                                                                                 Требуемый опыт работы: от 1 года\nПолная занятость, дистанционно, гибкое начало рабочего дня\n \n📌Требования:\n- Нативная Android разработка (Kotlin)\n- Умение писать поддерживаемый и тестируемый код\n- Умение работать с Dagger 2\n- Умение работать с git\n- Желание развиваться и изучать новое в разработке\n- Опыт разработки приложений от 1 года\n -Знание английского языка от уровня Intermediate\n \n📌Будет плюсом:\n- Опыт работы с JNI\n- Опыт использования tensorflow\n- Опыт работы с аудио и видео\n\n📌Условия:\n- Отсутствие бюрократии\n- Время начала рабочего дня обговариваем индивидуально\n- Крутой инновационный проект - возможность самореализации и профессионального роста\n- Стабильное зарубежное финансирование\n- Десятки миллионов установок и множество глобальных партнёров\n📞Контакты @SvetikS_hr +7(963)-632-12-36 Cветлана","markup":[{"type":"hashtag","offset":0,"length":9,"data":"вакансия"},{"type":"hashtag","offset":10,"length":14,"data":"Juniorandroid"},{"type":"hashtag","offset":25,"length":8,"data":"Android"},{"type":"hashtag","offset":44,"length":7,"data":"kotlin"},{"type":"hashtag","offset":52,"length":9,"data":"удаленно"},{"type":"link","offset":184,"length":13,"data":"tel:50 000-60 000"},{"type":"handle","offset":1164,"length":11,"data":"SvetikS_hr"},{"type":"link","offset":1176,"length":17,"data":"tel:+7(963)-632-12-36"}],"date":"2020-07-02T06:18:18+00:00","link":"tg://resolve?domain=mobile_jobs&post=69140","tags":[{"name":"mobile"},{"name":"android"},{"name":"kotlin"},{"name":"dotnet"},{"name":"git"},{"name":"tensorflow"}],"cities":[],"allowsRemote":true}},{"node":{"__typename":"Job","id":"72489107456-1001054966032","title":"Android разработчик","text":"#вакансия  #vacancy  #IOSdeveloper #IOS \nПривет! ✌ Мы ищем IOS и Android разработчика в одном лице для контрактной удалённой работы. \nФормат работы: Удалёнка. \nЗП: от 80 до 100 к\n\nУровень middle\nКомпания:https://arkonsa.ru/\n💁 Описание компании: Мы работаем в двух направлениях: 1) Своя CRM система (oko сrm), которую планируем продавать на внешний рынок + запускать мобильное приложение для IOS и Android;\n2) Свой учебный центр (продажи).\n\nЧто мы ожидаем от Вас:\nПроектирование архитектуры приложения;\nРеализация и дальнейшее развитие приложений на Swift(Objective-C) или Java(Kotlin)\nОпыт работы с основными алгоритмами и структурами данных.\nКлючевые знания - Android SDK, работы с сетью: RESTful/SOAP API и HTTP, Web Sockets.\n\n💻 Что нужно делать:\nТестирование;\n\nРефакторинг;\n\nДеплоинг;\n\nРазработка технической документации.\n\nУсловия:\n- проектная занятость\n\nТребования:\nопыт разработки по данному стеку от 2+лет.\n\n📠 За подробностями по вакансии и по всем вопросам:\n@elena_hr_tmn \n89129125591 Viber","markup":[{"type":"hashtag","offset":0,"length":9,"data":"вакансия"},{"type":"hashtag","offset":11,"length":8,"data":"vacancy"},{"type":"hashtag","offset":21,"length":13,"data":"IOSdeveloper"},{"type":"hashtag","offset":35,"length":4,"data":"IOS"},{"type":"link","offset":204,"length":19,"data":"https://arkonsa.ru/"},{"type":"handle","offset":969,"length":13,"data":"elena_hr_tmn"},{"type":"link","offset":984,"length":11,"data":"tel:89129125591"}],"date":"2020-07-02T05:03:05+00:00","link":"tg://resolve?domain=mobile_jobs&post=69131","tags":[{"name":"mobile"},{"name":"android"},{"name":"ios"},{"name":"swift"},{"name":"objective-c"},{"name":"java"},{"name":"kotlin"},{"name":"soap"},{"name":"web"}],"cities":[],"allowsRemote":true}}]}}},"context":{}}