{"hash":"f5f6bf98bd95e769321482904cbbd488f77922fd","data":{"records":{"id":"kotlin","name":"kotlin","belongsTo":{"totalCount":116,"pageInfo":{"totalPages":12,"currentPage":9},"edges":[{"node":{"__typename":"Job","id":"71562166272-1001054966032","title":"Android разработчик","text":"‼️Вакансия Senior Android⁢ Developer‼️\n#android #developer #вакансия #удаленка\nВ команде Mycelium Wallet (mycelium.com) открыта #вакансия Senior Android⁢ Developer.\n💵З/П 3000-4000 USD по итогам собеседования.\nРабота удаленная 💻\n\nМы предлагаем:\n🔸Получить навыки и компетенции в одном из самых передовых и перспективных направлений финтех индустрии - blockchain;\n🔸Принять участие в разработке одного из самых популярных биткоин-кошельков в Google Play Store;\n🔸Работать в международной команде бок о бок с ведущими специалистами в индустрии;\n🔸Возможность профессионального карьерного роста и участия в разнообразных проектах компании.\n\nЧем предстоит заниматься:\n🔹Разрабатывать новые и развивать существующие мобильные сервисы компании на платформе Android;\n🔹Проектировать и разрабатывать большие функциональные части приложения с привлечением других программистов;\n🔹Использовать cutting edge технологии, а также проверенные временем решения.\n\nТребования:\n✔️Как минимум 3 года опыта разработки на Android;\n✔️Знание Java/Kotlin на уровне ведущего разработчика;\n✔️Знание шаблонов проектирования, опыт использования MVP и других архитектурных подходов;\n✔️Опыт параллельного и многопоточного программирования;\n✔️Понимание циклов работы Android-приложения и управления памятью;\n✔️Опыт разработки пользовательских интерфейсов на платформе Android. \n✔️Знание Android Design Principles;\n✔️Знание и умение использовать различные механизмы взаимодействий между приложениями, предоставляемые в рамках Android SDK;\n✔️Понимание принципов работы REST API, WS, RPC и клиент-серверных приложений;\n✔️Знание английского языка на уровне чтения документации и умения общаться в корпоративном чате.\n\nПлюсом будет:\n➕Умение и понимание необходимости написания Unit tests;\n➕Знание основ криптографии;\n➕Опыт работы с bitcoin/etherium blockchain stack;\n➕Наличие своих проектов на Github, в Google Play и т.д.\n\n📲Контакт: @valeritata","markup":[{"type":"hashtag","offset":39,"length":8,"data":"android"},{"type":"hashtag","offset":48,"length":10,"data":"developer"},{"type":"hashtag","offset":59,"length":9,"data":"вакансия"},{"type":"hashtag","offset":69,"length":9,"data":"удаленка"},{"type":"link","offset":106,"length":12,"data":"http://mycelium.com"},{"type":"hashtag","offset":128,"length":9,"data":"вакансия"},{"type":"handle","offset":1900,"length":11,"data":"valeritata"}],"date":"2020-06-18T10:56:47+00:00","link":"tg://resolve?domain=mobile_jobs&post=0","tags":[{"name":"mobile"},{"name":"android"},{"name":"playframework"},{"name":"java"},{"name":"kotlin"},{"name":"rest"},{"name":"github"}],"cities":[],"allowsRemote":true}},{"node":{"__typename":"Job","id":"71547486208-1001054966032","title":"Android разработчик","text":"#вакансия #android #офис #удаленка\n\nГород: Москва (Сокольники или Павелецкая), есть релокационный пакет\n\nФормат работы: офис, но также возможна удаленка из Москвы, Питера, Самары\n\nЗанятость: полная\n\nВилка: 180-250 т.р. на руки\n\nКоманда разработчиков ищет коллегу для создания и развития функционала мобильного банка.\n\nЧто требуется знать:\n\n• Паттерны GOF\n• Алгоритмы и структуры данных\n• Core Java SE 8\n• Kotlin\n• Android SDK API Level 19-29\n• Android Support Library\n• Dagger 2\n• RxJava 2\n• JUnit, Espresso, Mockito\n\nБудет плюсом:\n\n• Cicerone\n• Moxy\n• FCM\n• Fingerprint Authentication\n• Знание основ криптологии\n• Android Architecture Components\n• Gradle\n• REST API\n• Опыт работы с Google Maps SDK для Android\n\nНазвание компании: ПСБ\nhttps://www.psbank.ru/\nhttps://hh.ru/vacancy/34497271\n\nКонтакты: @max_gusev\ngusevms@psbank.ru","markup":[{"type":"hashtag","offset":0,"length":9,"data":"вакансия"},{"type":"hashtag","offset":10,"length":8,"data":"android"},{"type":"hashtag","offset":19,"length":5,"data":"офис"},{"type":"hashtag","offset":25,"length":9,"data":"удаленка"},{"type":"bold","offset":36,"length":6,"data":""},{"type":"bold","offset":105,"length":14,"data":""},{"type":"bold","offset":180,"length":10,"data":""},{"type":"bold","offset":199,"length":7,"data":""},{"type":"bold","offset":318,"length":20,"data":""},{"type":"bold","offset":518,"length":13,"data":""},{"type":"bold","offset":712,"length":18,"data":""},{"type":"link","offset":735,"length":21,"data":"https://www.psbank.ru/"},{"type":"link","offset":758,"length":30,"data":"https://hh.ru/vacancy/34497271"},{"type":"bold","offset":790,"length":9,"data":""},{"type":"handle","offset":800,"length":10,"data":"max_gusev"},{"type":"link","offset":811,"length":17,"data":"mailto:gusevms@psbank.ru"}],"date":"2020-06-18T08:14:18+00:00","link":"tg://resolve?domain=mobile_jobs&post=0","tags":[{"name":"mobile"},{"name":"android"},{"name":"java"},{"name":"kotlin"},{"name":"junit"},{"name":"gradle"},{"name":"rest"},{"name":"google-maps"}],"cities":[{"code":"moscow"}],"allowsRemote":true}},{"node":{"__typename":"Job","id":"71543291904-1001054966032","title":"Android разработчик","text":"#вакансия #vacancy #android #office #Москва #fulltime #developer #Kotlin #разработчик \nСоциальная сеть Noomera                                                                                                                   Город и адрес офиса: Москва, м. Парк Культуры\nФормат работы: офис \nЗанятость: полная \nЗарплатная вилка: от 190 000 до 240 000 на руки \n                                                                                                                                                         👉Задачи:\nПоддержка существующего Android проекта на Kotlin;\nРазвитие нового функционала;\nУчастие в проектирование продукта (API и внутренняя архитектура);\nВзаимодействие с дизайнерами и тестировщиками;\nПроведение code-review.                                                                                                   \n                                                                                                                                                                             👉Мы ожидаем от тебя:\nОпыт в разработке Android от 3-х лет;\nСвободное владение Java и Android SDK;\nЗнание шаблонов проектирования MVP, MVVP, набор компонентов Android Jetpack, умение их применять;\nПоддерживаемый и тестируемый код;\nУмение работать в команде, находить убедительные аргументы, конструктивно реагировать на аргументы коллег;\nЖелание непрерывно совершенствовать свои навыки.\n                                                                                                                                                          👉Мы приветствуем:\nОпыт работы с гибкими методологиями (Scrum, Kanban);\nОпыт работы с картами (google maps);\nУмение работать в команде, находите убедительные аргументы, конструктивно реагируете на аргументы коллег.               \n                                                                                                                                                                                                                                               👉Что мы предлагаем:                                                                                                                                               Оформление по ТК РФ                                                                                                                             Дружный коллектив профессионалов. В команде 3 высококлассных разработчика Android.                                                                                                                         Супер интересные задачи в международной социальной сети.                                                                                              Чай, кофе и вкусняшки.\nПо вакансии написать: tatia B. (+79776905011)","markup":[{"type":"hashtag","offset":0,"length":9,"data":"вакансия"},{"type":"hashtag","offset":10,"length":8,"data":"vacancy"},{"type":"hashtag","offset":19,"length":8,"data":"android"},{"type":"hashtag","offset":28,"length":7,"data":"office"},{"type":"hashtag","offset":36,"length":7,"data":"Москва"},{"type":"hashtag","offset":44,"length":9,"data":"fulltime"},{"type":"hashtag","offset":54,"length":10,"data":"developer"},{"type":"hashtag","offset":65,"length":7,"data":"Kotlin"},{"type":"hashtag","offset":73,"length":12,"data":"разработчик"},{"type":"bold","offset":87,"length":271,"data":""},{"type":"bold","offset":515,"length":8,"data":""},{"type":"bold","offset":1014,"length":20,"data":""},{"type":"bold","offset":1555,"length":17,"data":""},{"type":"bold","offset":2024,"length":160,"data":""},{"type":"link","offset":2737,"length":12,"data":"tel:+79776905011"}],"date":"2020-06-18T08:00:20+00:00","link":"tg://resolve?domain=mobile_jobs&post=0","tags":[{"name":"mobile"},{"name":"android"},{"name":"kotlin"},{"name":"java"},{"name":"google-maps"}],"cities":[{"code":"moscow"}],"allowsRemote":false}},{"node":{"__typename":"Job","id":"71502397440-1001054966032","title":"Mobile разработчик","text":"#вакансия #android #kotlin #junior\nФормат работы: удаленка\n\nЗанятость: полная\n\nГород: Не имеет значения\n\nЗарплатная вилка: 600-800$ в месяц\n\nОписание вакансии: Ищу android-разработчика с горящими глазами, знающего основы работы с sdk admob, firebase, appmetrica, работа с подписками в google play. На данный момент нужно доделать текущее приложение и в дальнейшем его развивать и поддерживать. Будут адекватные условия и большая возможность проф.развития. Работа с готовыми исходниками \n\nНазвание компании: Liquid Mobile\n\nКонтакты: @JohnSelf","markup":[{"type":"hashtag","offset":0,"length":9,"data":"вакансия"},{"type":"hashtag","offset":10,"length":8,"data":"android"},{"type":"hashtag","offset":19,"length":7,"data":"kotlin"},{"type":"hashtag","offset":27,"length":7,"data":"junior"},{"type":"handle","offset":532,"length":9,"data":"JohnSelf"}],"date":"2020-06-17T15:42:09+00:00","link":"tg://resolve?domain=mobile_jobs&post=0","tags":[{"name":"mobile"},{"name":"android"},{"name":"kotlin"},{"name":"admob"},{"name":"firebase"},{"name":"playframework"}],"cities":[],"allowsRemote":true}},{"node":{"__typename":"Job","id":"71496105984-1001054966032","title":"Android разработчик","text":"‼️Вакансия Senior Android⁢ Developer‼️\n#android #developer #вакансия #удаленка\nВ команде Mycelium Wallet (mycelium.com) открыта #вакансия Senior Android⁢ Developer.\n💵З/П 3000-4000 USD по итогам собеседования.\nРабота удаленная 💻\n\nМы предлагаем:\n🔸Получить навыки и компетенции в одном из самых передовых и перспективных направлений финтех индустрии - blockchain;\n🔸Принять участие в разработке одного из самых популярных биткоин-кошельков в Google Play Store;\n🔸Работать в международной команде бок о бок с ведущими специалистами в индустрии;\n🔸Возможность профессионального карьерного роста и участия в разнообразных проектах компании.\n\nЧем предстоит заниматься:\n🔹Разрабатывать новые и развивать существующие мобильные сервисы компании на платформе Android;\n🔹Проектировать и разрабатывать большие функциональные части приложения с привлечением других программистов;\n🔹Использовать cutting edge технологии, а также проверенные временем решения.\n\nТребования:\n✔️Как минимум 3 года опыта разработки на Android;\n✔️Знание Java/Kotlin на уровне ведущего разработчика;\n✔️Знание шаблонов проектирования, опыт использования MVP и других архитектурных подходов;\n✔️Опыт параллельного и многопоточного программирования;\n✔️Понимание циклов работы Android-приложения и управления памятью;\n✔️Опыт разработки пользовательских интерфейсов на платформе Android. \n✔️Знание Android Design Principles;\n✔️Знание и умение использовать различные механизмы взаимодействий между приложениями, предоставляемые в рамках Android SDK;\n✔️Понимание принципов работы REST API, WS, RPC и клиент-серверных приложений;\n✔️Знание английского языка на уровне чтения документации и умения общаться в корпоративном чате.\n\nПлюсом будет:\n➕Умение и понимание необходимости написания Unit tests;\n➕Знание основ криптографии;\n➕Опыт работы с bitcoin/etherium blockchain stack;\n➕Наличие своих проектов на Github, в Google Play и т.д.\n\n📲Контакт: @valeritata","markup":[{"type":"hashtag","offset":39,"length":8,"data":"android"},{"type":"hashtag","offset":48,"length":10,"data":"developer"},{"type":"hashtag","offset":59,"length":9,"data":"вакансия"},{"type":"hashtag","offset":69,"length":9,"data":"удаленка"},{"type":"link","offset":106,"length":12,"data":"http://mycelium.com"},{"type":"hashtag","offset":128,"length":9,"data":"вакансия"},{"type":"handle","offset":1900,"length":11,"data":"valeritata"}],"date":"2020-06-17T15:20:53+00:00","link":"tg://resolve?domain=mobile_jobs&post=0","tags":[{"name":"mobile"},{"name":"android"},{"name":"playframework"},{"name":"java"},{"name":"kotlin"},{"name":"rest"},{"name":"github"}],"cities":[],"allowsRemote":true}},{"node":{"__typename":"Job","id":"71490863104-1001054966032","title":"Android разработчик","text":"#вакансия #developer #android #москва #бауманская\nAndroid Developer\nГород: Москва\nФормат работы: офис\nЗанятость: полная\nЗарплатная вилка: от 100.000 до 250.000 тыс. руб. фикс\n\nИщем middle/senior разработчика в digital-агентство WakeApp для разработки приложений-утилит (forecast, vpn, safe kids etc) + приложение мотивированного траффика.\n\nСтек: Kotlin, RxJava2/RxAndroid, Dagger2, Android Architecture Components (LiveData, ViewModel, Room, Navigation);\n\nС Вас:\n🔸опыт разработки от 2-ух лет;\n🔸хорошие знания стека;\n🔸знание ООП, MVP, MVVM;\n🔸ориентирование в Android SDK, гайдлайнах, best practices;\n\nС нас:\n🔹достойный уровень заработной платы;\n🔹сложные и интересные задачи;\n🔹комфортный офис в пешей доступности от метро (кухня с запасом фруктов, йогуртов, мороженого);\n🔹технологическая свобода;\n🔹отличный коллектив и пятничные посиделки;\n\nКонтакты: @natereaver","markup":[{"type":"hashtag","offset":0,"length":9,"data":"вакансия"},{"type":"hashtag","offset":10,"length":10,"data":"developer"},{"type":"hashtag","offset":21,"length":8,"data":"android"},{"type":"hashtag","offset":30,"length":7,"data":"москва"},{"type":"hashtag","offset":38,"length":11,"data":"бауманская"},{"type":"bold","offset":50,"length":17,"data":""},{"type":"bold","offset":75,"length":6,"data":""},{"type":"bold","offset":97,"length":4,"data":""},{"type":"bold","offset":113,"length":6,"data":""},{"type":"bold","offset":138,"length":15,"data":""},{"type":"bold","offset":154,"length":20,"data":""},{"type":"bold","offset":228,"length":7,"data":""},{"type":"handle","offset":858,"length":11,"data":"natereaver"}],"date":"2020-06-17T14:30:49+00:00","link":"tg://resolve?domain=mobile_jobs&post=0","tags":[{"name":"mobile"},{"name":"android"},{"name":"kotlin"},{"name":"mvvm"}],"cities":[{"code":"moscow"}],"allowsRemote":false}},{"node":{"__typename":"Job","id":"71481425920-1001054966032","title":"Android разработчик","text":"#вакансия #спб #питер #android #java #kotlin #офис #fulltime\n\nВсем привет! \n\nИщу Middle/Senior Android разработчиков.\n\nВ продуктовую компанию, которая занимается проектами  FinTech направления. Нужны Senior и Middle Android developer'ы.\nОсновной СТЭК: MVVM, Clean, Retrofit, Dagger2, RxJava2.\n\nЛокация: Санкт-Петербург, м. Чкаловская\nФормат работы: Офис, фуллтайм\nЗаработная плата: 120 - 250к руб. На руки\n\nЧто делать:\n\n- разрабатывать и исправлять ошибки в SDK для токенизации банковских карт;\n- встраивать и поддерживать это SDK в приложении;\n- участвовать в проработке, проверке и внедрении продуктовых гипотез;\n- проводить Code Review;\n- участвовать в принятии технических решений и планировании процесса разработки.\n\nЧто ждем от вас:\n\n- опыт разработки под Android SDK: Kotlin, RxJava2, Dagger2, MVVM (желательно);\n- понимание различий в работе приложений на разных версиях Android;\n- знание ООП, шаблонов проектирования;\n- опыт использования систем контроля версий, понимание принципов командной разработки и Agile.\n\nМы предлагаем:\n\n- Участие в развитии полезного и популярного приложения, возможность сделать мир лучше;\n- Стабильную, конкурентную зарплату;\n- Оформление по ТК РФ с первого дня обучения и работы. ДМС после прохождения испытательного срока;\n- Оплату мобильной связи, частичную компенсацию оплаты питания в 20 кафе и ресторанах в шаговой доступности от офиса;\n- Гибкий график и высокий уровень самостоятельности;\n- Командные мероприятия и приятные коллеги;\n- Комфортный офис в центре города, чай-кофе-снэки.\n\nПодробности:\n@Alex_Korm\nsasha8419@gmail.com","markup":[{"type":"hashtag","offset":0,"length":9,"data":"вакансия"},{"type":"hashtag","offset":10,"length":4,"data":"спб"},{"type":"hashtag","offset":15,"length":6,"data":"питер"},{"type":"hashtag","offset":22,"length":8,"data":"android"},{"type":"hashtag","offset":31,"length":5,"data":"java"},{"type":"hashtag","offset":37,"length":7,"data":"kotlin"},{"type":"hashtag","offset":45,"length":5,"data":"офис"},{"type":"hashtag","offset":51,"length":9,"data":"fulltime"},{"type":"handle","offset":1543,"length":10,"data":"Alex_Korm"},{"type":"link","offset":1554,"length":19,"data":"mailto:sasha8419@gmail.com"}],"date":"2020-06-17T13:29:29+00:00","link":"tg://resolve?domain=mobile_jobs&post=0","tags":[{"name":"mobile"},{"name":"android"},{"name":"java"},{"name":"kotlin"},{"name":"mvvm"}],"cities":[],"allowsRemote":false}},{"node":{"__typename":"Job","id":"71456260096-1001054966032","title":"Android разработчик","text":"#вакансия #работа #Санкт_Петербург #Пермь #Казань  #middle #Android #Kotlin #RxJava\nГород: Санкт-Петербург, Казань, Пермь\nФормат работы: Офис (пока удаленка)\nЗанятость: Полная\nЗарплатная вилка от 120 net до 200 net  (зависит от уровня)\nКомпания: Стрим\nКонтакты: @Ntsama_IT \n\nМы Stream - делаем классные и реально удобные продукты для людей. 📣Сейчас находимся в поиске Android разработчика.📱\n\nСейчас у нас есть несколько проектов, куда мы ищем разработчиков. Подробнее по вакансиям здесь:\nhttps://spb.hh.ru/vacancy/37445336\nhttps://spb.hh.ru/vacancy/37365465\n\nМы ждём: \n🔹опыт разработки как на Kotlin, так и на Java;\n🔹опыт в работе с RxJava;\n\nУсловия:\n✅Гибкий график\n✅ДМС со стоматологией\n✅Компенсация мобильной связи\n✅Официальное оформление и \"белая\" зарплата + премии сверху оклада\n✅Возможность дополнительного обучения\nКонтакты: @Ntsama_IT \nпочта: eivanova@stream.ru","markup":[{"type":"hashtag","offset":0,"length":9,"data":"вакансия"},{"type":"hashtag","offset":10,"length":7,"data":"работа"},{"type":"hashtag","offset":18,"length":16,"data":"Санкт_Петербург"},{"type":"hashtag","offset":35,"length":6,"data":"Пермь"},{"type":"hashtag","offset":42,"length":7,"data":"Казань"},{"type":"hashtag","offset":51,"length":7,"data":"middle"},{"type":"hashtag","offset":59,"length":8,"data":"Android"},{"type":"hashtag","offset":68,"length":7,"data":"Kotlin"},{"type":"hashtag","offset":76,"length":7,"data":"RxJava"},{"type":"link","offset":246,"length":6,"data":"https://stream.ru/"},{"type":"handle","offset":262,"length":10,"data":"Ntsama_IT"},{"type":"link","offset":490,"length":34,"data":"https://spb.hh.ru/vacancy/37445336"},{"type":"link","offset":525,"length":34,"data":"https://spb.hh.ru/vacancy/37365465"},{"type":"handle","offset":835,"length":10,"data":"Ntsama_IT"},{"type":"link","offset":854,"length":18,"data":"mailto:eivanova@stream.ru"}],"date":"2020-06-17T08:54:24+00:00","link":"tg://resolve?domain=mobile_jobs&post=0","tags":[{"name":"mobile"},{"name":"android"},{"name":"kotlin"},{"name":"dotnet"},{"name":"java"}],"cities":[{"code":"perm"},{"code":"kazan"}],"allowsRemote":true}},{"node":{"__typename":"Job","id":"71445774336-1001054966032","title":"Android разработчик","text":"#вакансия #Москва #офис #удаленка #android #kotlin #fulltime\n\nГород и адрес офиса: Москва, м. Новокузнецкая/Павелецкая\nФормат работы: #офис, #удаленка\nЗанятость: #полная\nЗП: от 120к до 200к руб. нетт\n\nSports.ru - провайдер развлечений для любителей спорта.\nЕсть спорт. Есть болельщики. Мы заполняем среду между ними, оживляем ее, наполняем общением и другими развлечениями. Мы делаем не «сайты» или «приложения», а мультиплатформенные продукты, с учетом актуальной технологической парадигмы.\n\nСейчас мы ищем к нам в команду Android-разработчика (middle/senior), который будет разрабатывать новые функциональные возможности для проекта Betting Insider.\nBetting Insider — одно из наших ключевых подразделений. Это социальная сеть для любителей ставок, точно так же не ограниченная русскоязычными странами, где пользователи смогут не только обмениваться мнениями, но и продавать свои прогнозы.\n\nО задачах:\nРазрабатывать мобильные приложения на Android платформе.\nУчаствовать в принятии технических и архитектурных решений.\nУчаствовать в планировании процесса разработки.\nСоздавать тесты для продукта.\nВзаимодействовать с продуктовой командой, дизайнерами, влиять на будущие фичи.\n\nО наших ожиданиях:\nНавыки программирования под платформу Android.\nУверенное владение Kotlin.\nЗнание паттернов проектирования ПО и опыт их применения.\n\nОб условиях:\nПросторный стильный офис возле м. Новокузнецкая/Третьяковская.\n“Белая” заработная плата.\nБесплатная медстраховка со стоматологией после испытательного срока.\nГибкий график работы с возможностью день-два в неделю работать удаленно либо удаленная работа.\nФрукты, снеки, чай, кофе, какао 24/7.\nКорпоративная скидка в спортзал и на занятия английским языком.\nКорпоративный футбол с тренером.\nФинансовая помощь при переезде из другого города.\n\nНазвание компании: Sports.ru (Tribuna Digital)\nКого заинтересовало, пишите мне в личку (@pbuyatova), рада буду поделиться подробностями:)","markup":[{"type":"hashtag","offset":0,"length":9,"data":"вакансия"},{"type":"hashtag","offset":10,"length":7,"data":"Москва"},{"type":"hashtag","offset":18,"length":5,"data":"офис"},{"type":"hashtag","offset":24,"length":9,"data":"удаленка"},{"type":"hashtag","offset":34,"length":8,"data":"android"},{"type":"hashtag","offset":43,"length":7,"data":"kotlin"},{"type":"hashtag","offset":51,"length":9,"data":"fulltime"},{"type":"hashtag","offset":134,"length":5,"data":"офис"},{"type":"hashtag","offset":141,"length":9,"data":"удаленка"},{"type":"hashtag","offset":162,"length":7,"data":"полная"},{"type":"bold","offset":201,"length":10,"data":""},{"type":"link","offset":201,"length":9,"data":"http://Sports.ru"},{"type":"bold","offset":524,"length":36,"data":""},{"type":"bold","offset":652,"length":15,"data":""},{"type":"bold","offset":892,"length":11,"data":""},{"type":"bold","offset":1178,"length":19,"data":""},{"type":"bold","offset":1329,"length":13,"data":""},{"type":"link","offset":1800,"length":9,"data":"http://Sports.ru"},{"type":"handle","offset":1869,"length":10,"data":"pbuyatova"}],"date":"2020-06-17T07:27:07+00:00","link":"tg://resolve?domain=mobile_jobs&post=0","tags":[{"name":"mobile"},{"name":"android"},{"name":"kotlin"}],"cities":[{"code":"moscow"}],"allowsRemote":true}},{"node":{"__typename":"Job","id":"71425851392-1001054966032","title":"Android developer","text":"#вакансия #Juniorandroid #Android developer #kotlin #удаленно                                                                                                         Уровень дохода:💵 50 000-60 000  рублей net                                                                                                                                                                                 Требуемый опыт работы: от 1 года\nПолная занятость, дистанционно, гибкое начало рабочего дня\n \n📌Требования:\n- Нативная Android разработка (Kotlin)\n- Умение писать поддерживаемый и тестируемый код\n- Умение работать с Dagger 2\n- Умение работать с git\n- Желание развиваться и изучать новое в разработке\n- Опыт разработки приложений от 1 года\n -Знание английского языка от уровня Intermediate\n \n📌Будет плюсом:\n- Опыт работы с JNI\n- Опыт использования tensorflow\n- Опыт работы с аудио и видео\n\n📌Условия:\n- Отсутствие бюрократии\n- Время начала рабочего дня обговариваем индивидуально\n- Крутой инновационный проект - возможность самореализации и профессионального роста\n- Стабильное зарубежное финансирование\n- Десятки миллионов установок и множество глобальных партнёров\n📞Контакты @SvetikS_hr +7(963)-632-12-36 Cветлана","markup":[{"type":"hashtag","offset":0,"length":9,"data":"вакансия"},{"type":"hashtag","offset":10,"length":14,"data":"Juniorandroid"},{"type":"hashtag","offset":25,"length":8,"data":"Android"},{"type":"hashtag","offset":44,"length":7,"data":"kotlin"},{"type":"hashtag","offset":52,"length":9,"data":"удаленно"},{"type":"link","offset":184,"length":13,"data":"tel:50 000-60 000"},{"type":"handle","offset":1164,"length":11,"data":"SvetikS_hr"},{"type":"link","offset":1176,"length":17,"data":"tel:+7(963)-632-12-36"}],"date":"2020-06-16T18:45:45+00:00","link":"tg://resolve?domain=mobile_jobs&post=0","tags":[{"name":"mobile"},{"name":"android"},{"name":"kotlin"},{"name":"dotnet"},{"name":"git"},{"name":"tensorflow"}],"cities":[],"allowsRemote":true}}]}}},"context":{}}