{"hash":"f5f6bf98bd95e769321482904cbbd488f77922fd","data":{"records":{"id":"android","name":"android","belongsTo":{"totalCount":165,"pageInfo":{"totalPages":17,"currentPage":14},"edges":[{"node":{"__typename":"Job","id":"71496105984-1001054966032","title":"Android разработчик","text":"‼️Вакансия Senior Android⁢ Developer‼️\n#android #developer #вакансия #удаленка\nВ команде Mycelium Wallet (mycelium.com) открыта #вакансия Senior Android⁢ Developer.\n💵З/П 3000-4000 USD по итогам собеседования.\nРабота удаленная 💻\n\nМы предлагаем:\n🔸Получить навыки и компетенции в одном из самых передовых и перспективных направлений финтех индустрии - blockchain;\n🔸Принять участие в разработке одного из самых популярных биткоин-кошельков в Google Play Store;\n🔸Работать в международной команде бок о бок с ведущими специалистами в индустрии;\n🔸Возможность профессионального карьерного роста и участия в разнообразных проектах компании.\n\nЧем предстоит заниматься:\n🔹Разрабатывать новые и развивать существующие мобильные сервисы компании на платформе Android;\n🔹Проектировать и разрабатывать большие функциональные части приложения с привлечением других программистов;\n🔹Использовать cutting edge технологии, а также проверенные временем решения.\n\nТребования:\n✔️Как минимум 3 года опыта разработки на Android;\n✔️Знание Java/Kotlin на уровне ведущего разработчика;\n✔️Знание шаблонов проектирования, опыт использования MVP и других архитектурных подходов;\n✔️Опыт параллельного и многопоточного программирования;\n✔️Понимание циклов работы Android-приложения и управления памятью;\n✔️Опыт разработки пользовательских интерфейсов на платформе Android. \n✔️Знание Android Design Principles;\n✔️Знание и умение использовать различные механизмы взаимодействий между приложениями, предоставляемые в рамках Android SDK;\n✔️Понимание принципов работы REST API, WS, RPC и клиент-серверных приложений;\n✔️Знание английского языка на уровне чтения документации и умения общаться в корпоративном чате.\n\nПлюсом будет:\n➕Умение и понимание необходимости написания Unit tests;\n➕Знание основ криптографии;\n➕Опыт работы с bitcoin/etherium blockchain stack;\n➕Наличие своих проектов на Github, в Google Play и т.д.\n\n📲Контакт: @valeritata","markup":[{"type":"hashtag","offset":39,"length":8,"data":"android"},{"type":"hashtag","offset":48,"length":10,"data":"developer"},{"type":"hashtag","offset":59,"length":9,"data":"вакансия"},{"type":"hashtag","offset":69,"length":9,"data":"удаленка"},{"type":"link","offset":106,"length":12,"data":"http://mycelium.com"},{"type":"hashtag","offset":128,"length":9,"data":"вакансия"},{"type":"handle","offset":1900,"length":11,"data":"valeritata"}],"date":"2020-06-17T15:20:53+00:00","link":"tg://resolve?domain=mobile_jobs&post=0","tags":[{"name":"mobile"},{"name":"android"},{"name":"playframework"},{"name":"java"},{"name":"kotlin"},{"name":"rest"},{"name":"github"}],"cities":[],"allowsRemote":true}},{"node":{"__typename":"Job","id":"71490863104-1001054966032","title":"Android разработчик","text":"#вакансия #developer #android #москва #бауманская\nAndroid Developer\nГород: Москва\nФормат работы: офис\nЗанятость: полная\nЗарплатная вилка: от 100.000 до 250.000 тыс. руб. фикс\n\nИщем middle/senior разработчика в digital-агентство WakeApp для разработки приложений-утилит (forecast, vpn, safe kids etc) + приложение мотивированного траффика.\n\nСтек: Kotlin, RxJava2/RxAndroid, Dagger2, Android Architecture Components (LiveData, ViewModel, Room, Navigation);\n\nС Вас:\n🔸опыт разработки от 2-ух лет;\n🔸хорошие знания стека;\n🔸знание ООП, MVP, MVVM;\n🔸ориентирование в Android SDK, гайдлайнах, best practices;\n\nС нас:\n🔹достойный уровень заработной платы;\n🔹сложные и интересные задачи;\n🔹комфортный офис в пешей доступности от метро (кухня с запасом фруктов, йогуртов, мороженого);\n🔹технологическая свобода;\n🔹отличный коллектив и пятничные посиделки;\n\nКонтакты: @natereaver","markup":[{"type":"hashtag","offset":0,"length":9,"data":"вакансия"},{"type":"hashtag","offset":10,"length":10,"data":"developer"},{"type":"hashtag","offset":21,"length":8,"data":"android"},{"type":"hashtag","offset":30,"length":7,"data":"москва"},{"type":"hashtag","offset":38,"length":11,"data":"бауманская"},{"type":"bold","offset":50,"length":17,"data":""},{"type":"bold","offset":75,"length":6,"data":""},{"type":"bold","offset":97,"length":4,"data":""},{"type":"bold","offset":113,"length":6,"data":""},{"type":"bold","offset":138,"length":15,"data":""},{"type":"bold","offset":154,"length":20,"data":""},{"type":"bold","offset":228,"length":7,"data":""},{"type":"handle","offset":858,"length":11,"data":"natereaver"}],"date":"2020-06-17T14:30:49+00:00","link":"tg://resolve?domain=mobile_jobs&post=0","tags":[{"name":"mobile"},{"name":"android"},{"name":"kotlin"},{"name":"mvvm"}],"cities":[{"code":"moscow"}],"allowsRemote":false}},{"node":{"__typename":"Job","id":"71484571648-1001054966032","title":"Android разработчик","text":"#вакансия #iOS #android #developer #remote #InStat \n\nГород и адрес офиса: Москва, ст.м. Автозаводская\nФормат работы: удаленка\nЗанятость: полная/проектная\nЗарплатная вилка (обязательно): от 80 до 130 net\nОписание вакансии:\n\nВсем привет. Ищем разработчиков приложений для Apple TV и Android Box. Мы занимаемся сложными задачами, а также хотим разработать с нуля приложения, а у вас есть возможность поработать в спортивном стартапе и сделать лучшее приложение на рынке.\nЧто главное:\nОпыт разработки приложений Apple TV/Android box обязательно;\nОпыт по созданию продукта для просмотра видео-контента\nЗадачи:\nРазработка OTT приложения для Apple TV/Android box, анализ и оценка задач;\nпроведение code review, участие в SCRUM активностях\nТребования:\nXcode;опыт разработки нативных приложений на платформе iOS (swift) не менее 2-х лет, работа с GIT, Unit-test; знание основных паттернов проектирования, REST API; SOLID, GCD, MVP/MVVM, опыт разработки по Apple TV/Android box, знание Android Studio \nМы предлагаем:\nофициальное трудоустройство, полный соц. пакет;удаленное сотрудничество\nПодробнее о вакансиях тут: \nhttps://hh.ru/vacancy/37544424\nhttps://hh.ru/vacancy/37520710\n\nНазвание компании: InStat (https://instatsport.com/)\n\nКонтакты: yana.gurinovich@instatsport.com\n @Yana_Gurinovich","markup":[{"type":"hashtag","offset":0,"length":9,"data":"вакансия"},{"type":"hashtag","offset":10,"length":4,"data":"iOS"},{"type":"hashtag","offset":15,"length":8,"data":"android"},{"type":"hashtag","offset":24,"length":10,"data":"developer"},{"type":"hashtag","offset":35,"length":7,"data":"remote"},{"type":"hashtag","offset":43,"length":7,"data":"InStat"},{"type":"link","offset":1107,"length":30,"data":"https://hh.ru/vacancy/37544424"},{"type":"link","offset":1138,"length":30,"data":"https://hh.ru/vacancy/37520710"},{"type":"link","offset":1197,"length":24,"data":"https://instatsport.com/"},{"type":"link","offset":1234,"length":31,"data":"mailto:yana.gurinovich@instatsport.com"},{"type":"handle","offset":1267,"length":16,"data":"Yana_Gurinovich"}],"date":"2020-06-17T13:46:14+00:00","link":"tg://resolve?domain=mobile_jobs&post=0","tags":[{"name":"mobile"},{"name":"android"},{"name":"ios"},{"name":"dotnet"},{"name":"xcode"},{"name":"swift"},{"name":"git"},{"name":"rest"},{"name":"mvvm"},{"name":"android-studio"}],"cities":[{"code":"moscow"}],"allowsRemote":true}},{"node":{"__typename":"Job","id":"71481425920-1001054966032","title":"Android разработчик","text":"#вакансия #спб #питер #android #java #kotlin #офис #fulltime\n\nВсем привет! \n\nИщу Middle/Senior Android разработчиков.\n\nВ продуктовую компанию, которая занимается проектами  FinTech направления. Нужны Senior и Middle Android developer'ы.\nОсновной СТЭК: MVVM, Clean, Retrofit, Dagger2, RxJava2.\n\nЛокация: Санкт-Петербург, м. Чкаловская\nФормат работы: Офис, фуллтайм\nЗаработная плата: 120 - 250к руб. На руки\n\nЧто делать:\n\n- разрабатывать и исправлять ошибки в SDK для токенизации банковских карт;\n- встраивать и поддерживать это SDK в приложении;\n- участвовать в проработке, проверке и внедрении продуктовых гипотез;\n- проводить Code Review;\n- участвовать в принятии технических решений и планировании процесса разработки.\n\nЧто ждем от вас:\n\n- опыт разработки под Android SDK: Kotlin, RxJava2, Dagger2, MVVM (желательно);\n- понимание различий в работе приложений на разных версиях Android;\n- знание ООП, шаблонов проектирования;\n- опыт использования систем контроля версий, понимание принципов командной разработки и Agile.\n\nМы предлагаем:\n\n- Участие в развитии полезного и популярного приложения, возможность сделать мир лучше;\n- Стабильную, конкурентную зарплату;\n- Оформление по ТК РФ с первого дня обучения и работы. ДМС после прохождения испытательного срока;\n- Оплату мобильной связи, частичную компенсацию оплаты питания в 20 кафе и ресторанах в шаговой доступности от офиса;\n- Гибкий график и высокий уровень самостоятельности;\n- Командные мероприятия и приятные коллеги;\n- Комфортный офис в центре города, чай-кофе-снэки.\n\nПодробности:\n@Alex_Korm\nsasha8419@gmail.com","markup":[{"type":"hashtag","offset":0,"length":9,"data":"вакансия"},{"type":"hashtag","offset":10,"length":4,"data":"спб"},{"type":"hashtag","offset":15,"length":6,"data":"питер"},{"type":"hashtag","offset":22,"length":8,"data":"android"},{"type":"hashtag","offset":31,"length":5,"data":"java"},{"type":"hashtag","offset":37,"length":7,"data":"kotlin"},{"type":"hashtag","offset":45,"length":5,"data":"офис"},{"type":"hashtag","offset":51,"length":9,"data":"fulltime"},{"type":"handle","offset":1543,"length":10,"data":"Alex_Korm"},{"type":"link","offset":1554,"length":19,"data":"mailto:sasha8419@gmail.com"}],"date":"2020-06-17T13:29:29+00:00","link":"tg://resolve?domain=mobile_jobs&post=0","tags":[{"name":"mobile"},{"name":"android"},{"name":"java"},{"name":"kotlin"},{"name":"mvvm"}],"cities":[],"allowsRemote":false}},{"node":{"__typename":"Job","id":"71456260096-1001054966032","title":"Android разработчик","text":"#вакансия #работа #Санкт_Петербург #Пермь #Казань  #middle #Android #Kotlin #RxJava\nГород: Санкт-Петербург, Казань, Пермь\nФормат работы: Офис (пока удаленка)\nЗанятость: Полная\nЗарплатная вилка от 120 net до 200 net  (зависит от уровня)\nКомпания: Стрим\nКонтакты: @Ntsama_IT \n\nМы Stream - делаем классные и реально удобные продукты для людей. 📣Сейчас находимся в поиске Android разработчика.📱\n\nСейчас у нас есть несколько проектов, куда мы ищем разработчиков. Подробнее по вакансиям здесь:\nhttps://spb.hh.ru/vacancy/37445336\nhttps://spb.hh.ru/vacancy/37365465\n\nМы ждём: \n🔹опыт разработки как на Kotlin, так и на Java;\n🔹опыт в работе с RxJava;\n\nУсловия:\n✅Гибкий график\n✅ДМС со стоматологией\n✅Компенсация мобильной связи\n✅Официальное оформление и \"белая\" зарплата + премии сверху оклада\n✅Возможность дополнительного обучения\nКонтакты: @Ntsama_IT \nпочта: eivanova@stream.ru","markup":[{"type":"hashtag","offset":0,"length":9,"data":"вакансия"},{"type":"hashtag","offset":10,"length":7,"data":"работа"},{"type":"hashtag","offset":18,"length":16,"data":"Санкт_Петербург"},{"type":"hashtag","offset":35,"length":6,"data":"Пермь"},{"type":"hashtag","offset":42,"length":7,"data":"Казань"},{"type":"hashtag","offset":51,"length":7,"data":"middle"},{"type":"hashtag","offset":59,"length":8,"data":"Android"},{"type":"hashtag","offset":68,"length":7,"data":"Kotlin"},{"type":"hashtag","offset":76,"length":7,"data":"RxJava"},{"type":"link","offset":246,"length":6,"data":"https://stream.ru/"},{"type":"handle","offset":262,"length":10,"data":"Ntsama_IT"},{"type":"link","offset":490,"length":34,"data":"https://spb.hh.ru/vacancy/37445336"},{"type":"link","offset":525,"length":34,"data":"https://spb.hh.ru/vacancy/37365465"},{"type":"handle","offset":835,"length":10,"data":"Ntsama_IT"},{"type":"link","offset":854,"length":18,"data":"mailto:eivanova@stream.ru"}],"date":"2020-06-17T08:54:24+00:00","link":"tg://resolve?domain=mobile_jobs&post=0","tags":[{"name":"mobile"},{"name":"android"},{"name":"kotlin"},{"name":"dotnet"},{"name":"java"}],"cities":[{"code":"perm"},{"code":"kazan"}],"allowsRemote":true}},{"node":{"__typename":"Job","id":"71452065792-1001054966032","title":"Android разработчик","text":"#вакансия #fulltime #freelance #middle #IOS #Swift #СПБ \nВсем привет! \nВ поисках двух IOS разработчиков. Рассматриваем full-time в офис/на удаленку.\nЛокация: Санкт-Петербург\n \nГрафик: 5/2 с гибким началом рабочего дня. \n💶 Зарплатная вилка: от 120 до 180 на руки\n\n🧰Мы: 4xxi.com (разработка разных сложных  технологических проектов-стартапов (веб, мобильные истории IOS/Android)). 90% проектов приходится на зарубежный рынок (США, Англия).\n\n🍩 Плюшки: \n✔️оформление по ТК РФ (мы белые полностью);\n✔️уроки английского языка;\n✔️ДМС;\n✔️спортивные мероприятия;\n✔️обучение и развитие;\n✔️офис в центре города в стиле лофт, м.Горьковская;\n✔️кухня, забитая вкусняхами;\n\nНаши ожидания: \n☑️с опытом работы от 2 лет;\n☑️уверенное знание Swift;\n☑️с опытом использования CoreData и знанием принципов работы баз данных;\n☑️с пониманием жизненного цикла приложения;\n☑️с опытом использования REST, WebSocket;\n☑️с умением работать с потоками;\n\n\nБудет отлично, если:\n\n☑️у вас опыт больше 2х лет.\n☑️отлично понимаете и можете обосновать применение различных паттернов проектирования;\n☑️есть успешные п1риложения в App Store;\n☑️есть open source проекты на github;\n\n\nПишите и присылайте свои резюме:  vyangurskaya@4xxi.com, @vyangurskaya","markup":[{"type":"hashtag","offset":0,"length":9,"data":"вакансия"},{"type":"hashtag","offset":10,"length":9,"data":"fulltime"},{"type":"hashtag","offset":20,"length":10,"data":"freelance"},{"type":"hashtag","offset":31,"length":7,"data":"middle"},{"type":"hashtag","offset":39,"length":4,"data":"IOS"},{"type":"hashtag","offset":44,"length":6,"data":"Swift"},{"type":"hashtag","offset":51,"length":4,"data":"СПБ"},{"type":"link","offset":270,"length":8,"data":"http://4xxi.com"},{"type":"link","offset":1178,"length":21,"data":"mailto:vyangurskaya@4xxi.com"},{"type":"handle","offset":1201,"length":13,"data":"vyangurskaya"}],"date":"2020-06-17T08:18:51+00:00","link":"tg://resolve?domain=mobile_jobs&post=0","tags":[{"name":"mobile"},{"name":"android"},{"name":"ios"},{"name":"swift"},{"name":"rest"},{"name":"websocket"},{"name":"github"}],"cities":[],"allowsRemote":false}},{"node":{"__typename":"Job","id":"71448920064-1001054966032","title":"Android разработчик","text":"#вакансия #android #Москва #офис #fulltime\n\nКомпания - АНТОР БИЗНЕС РЕШЕНИЯ\nОфис: Москва, м.Тульская, ул. 4-й Рощинский проезд, д.19 (БЦ ВНИИ НЕФТЕМАШ)\n\nВакансия: Android разработчик (Java)\nЗарплата: 100000-120000 рублей.\n\nОбязанности:\n👨🏻‍💻Участие в разработке комплексных систем для автоматизации транспортной логистики;\n⚽️️Работа в команде;\n👨🏻‍✈️Выполнение задач, поставленных руководителем проекта;\n👨🏻‍💻Развитие существующих и создание новых мобильных приложений для Android;\n📊Разработка UI, разработка бизнес-логики, организация взаимодействия с backend системы;\n👨🏻‍💻Организация взаимодействия со сторонними приложениями, оборудованием и внешними системами.\n\nТребования:\n👨🏻‍💻Опыт программирования на Java Android от 2 лет;\n👨🏻‍💻Знание Android Studio;\n👨🏻‍💻Технологии: Room, RXJava, EventBus;\n👨‍🎓Высшее образование;\n🇬🇧Английский язык (технический).\n\nУсловия:\n🎁Интересная работа в стабильной компании профессионалов;\n🎁Перспективные проекты;\n🎁Дружный коллектив единомышленников;\n🎁Оформление в соответствии с требованиями Трудового Кодекса РФ с первого дня;\n🎁Современный офис в центральной части города (в 10-минутной шаговой доступности от ст. метро «Тульская»);\n🎁Пятидневка с пн – пт с 09.30-17.30;\n🎁Уровень дохода: обсуждается на собеседовании;\n🎁Выплата заработной платы официально и стабильно на карту 2 раза в месяц;\n🎁Испытательный срок 3 месяца.\n\nКонтакты:\nTelegram: @AndreyBikmaev \nТелефон: 89851161727\nEmail: bikmaev@antor.ru","markup":[{"type":"hashtag","offset":0,"length":9,"data":"вакансия"},{"type":"hashtag","offset":10,"length":8,"data":"android"},{"type":"hashtag","offset":19,"length":7,"data":"Москва"},{"type":"hashtag","offset":27,"length":5,"data":"офис"},{"type":"hashtag","offset":33,"length":9,"data":"fulltime"},{"type":"handle","offset":1405,"length":14,"data":"AndreyBikmaev"},{"type":"link","offset":1430,"length":11,"data":"tel:89851161727"},{"type":"link","offset":1449,"length":16,"data":"mailto:bikmaev@antor.ru"}],"date":"2020-06-17T08:06:14+00:00","link":"tg://resolve?domain=mobile_jobs&post=0","tags":[{"name":"mobile"},{"name":"android"},{"name":"java"},{"name":"android-studio"}],"cities":[{"code":"moscow"}],"allowsRemote":false}},{"node":{"__typename":"Job","id":"71445774336-1001054966032","title":"Android разработчик","text":"#вакансия #Москва #офис #удаленка #android #kotlin #fulltime\n\nГород и адрес офиса: Москва, м. Новокузнецкая/Павелецкая\nФормат работы: #офис, #удаленка\nЗанятость: #полная\nЗП: от 120к до 200к руб. нетт\n\nSports.ru - провайдер развлечений для любителей спорта.\nЕсть спорт. Есть болельщики. Мы заполняем среду между ними, оживляем ее, наполняем общением и другими развлечениями. Мы делаем не «сайты» или «приложения», а мультиплатформенные продукты, с учетом актуальной технологической парадигмы.\n\nСейчас мы ищем к нам в команду Android-разработчика (middle/senior), который будет разрабатывать новые функциональные возможности для проекта Betting Insider.\nBetting Insider — одно из наших ключевых подразделений. Это социальная сеть для любителей ставок, точно так же не ограниченная русскоязычными странами, где пользователи смогут не только обмениваться мнениями, но и продавать свои прогнозы.\n\nО задачах:\nРазрабатывать мобильные приложения на Android платформе.\nУчаствовать в принятии технических и архитектурных решений.\nУчаствовать в планировании процесса разработки.\nСоздавать тесты для продукта.\nВзаимодействовать с продуктовой командой, дизайнерами, влиять на будущие фичи.\n\nО наших ожиданиях:\nНавыки программирования под платформу Android.\nУверенное владение Kotlin.\nЗнание паттернов проектирования ПО и опыт их применения.\n\nОб условиях:\nПросторный стильный офис возле м. Новокузнецкая/Третьяковская.\n“Белая” заработная плата.\nБесплатная медстраховка со стоматологией после испытательного срока.\nГибкий график работы с возможностью день-два в неделю работать удаленно либо удаленная работа.\nФрукты, снеки, чай, кофе, какао 24/7.\nКорпоративная скидка в спортзал и на занятия английским языком.\nКорпоративный футбол с тренером.\nФинансовая помощь при переезде из другого города.\n\nНазвание компании: Sports.ru (Tribuna Digital)\nКого заинтересовало, пишите мне в личку (@pbuyatova), рада буду поделиться подробностями:)","markup":[{"type":"hashtag","offset":0,"length":9,"data":"вакансия"},{"type":"hashtag","offset":10,"length":7,"data":"Москва"},{"type":"hashtag","offset":18,"length":5,"data":"офис"},{"type":"hashtag","offset":24,"length":9,"data":"удаленка"},{"type":"hashtag","offset":34,"length":8,"data":"android"},{"type":"hashtag","offset":43,"length":7,"data":"kotlin"},{"type":"hashtag","offset":51,"length":9,"data":"fulltime"},{"type":"hashtag","offset":134,"length":5,"data":"офис"},{"type":"hashtag","offset":141,"length":9,"data":"удаленка"},{"type":"hashtag","offset":162,"length":7,"data":"полная"},{"type":"bold","offset":201,"length":10,"data":""},{"type":"link","offset":201,"length":9,"data":"http://Sports.ru"},{"type":"bold","offset":524,"length":36,"data":""},{"type":"bold","offset":652,"length":15,"data":""},{"type":"bold","offset":892,"length":11,"data":""},{"type":"bold","offset":1178,"length":19,"data":""},{"type":"bold","offset":1329,"length":13,"data":""},{"type":"link","offset":1800,"length":9,"data":"http://Sports.ru"},{"type":"handle","offset":1869,"length":10,"data":"pbuyatova"}],"date":"2020-06-17T07:27:07+00:00","link":"tg://resolve?domain=mobile_jobs&post=0","tags":[{"name":"mobile"},{"name":"android"},{"name":"kotlin"}],"cities":[{"code":"moscow"}],"allowsRemote":true}},{"node":{"__typename":"Job","id":"71425851392-1001054966032","title":"Android developer","text":"#вакансия #Juniorandroid #Android developer #kotlin #удаленно                                                                                                         Уровень дохода:💵 50 000-60 000  рублей net                                                                                                                                                                                 Требуемый опыт работы: от 1 года\nПолная занятость, дистанционно, гибкое начало рабочего дня\n \n📌Требования:\n- Нативная Android разработка (Kotlin)\n- Умение писать поддерживаемый и тестируемый код\n- Умение работать с Dagger 2\n- Умение работать с git\n- Желание развиваться и изучать новое в разработке\n- Опыт разработки приложений от 1 года\n -Знание английского языка от уровня Intermediate\n \n📌Будет плюсом:\n- Опыт работы с JNI\n- Опыт использования tensorflow\n- Опыт работы с аудио и видео\n\n📌Условия:\n- Отсутствие бюрократии\n- Время начала рабочего дня обговариваем индивидуально\n- Крутой инновационный проект - возможность самореализации и профессионального роста\n- Стабильное зарубежное финансирование\n- Десятки миллионов установок и множество глобальных партнёров\n📞Контакты @SvetikS_hr +7(963)-632-12-36 Cветлана","markup":[{"type":"hashtag","offset":0,"length":9,"data":"вакансия"},{"type":"hashtag","offset":10,"length":14,"data":"Juniorandroid"},{"type":"hashtag","offset":25,"length":8,"data":"Android"},{"type":"hashtag","offset":44,"length":7,"data":"kotlin"},{"type":"hashtag","offset":52,"length":9,"data":"удаленно"},{"type":"link","offset":184,"length":13,"data":"tel:50 000-60 000"},{"type":"handle","offset":1164,"length":11,"data":"SvetikS_hr"},{"type":"link","offset":1176,"length":17,"data":"tel:+7(963)-632-12-36"}],"date":"2020-06-16T18:45:45+00:00","link":"tg://resolve?domain=mobile_jobs&post=0","tags":[{"name":"mobile"},{"name":"android"},{"name":"kotlin"},{"name":"dotnet"},{"name":"git"},{"name":"tensorflow"}],"cities":[],"allowsRemote":true}},{"node":{"__typename":"Job","id":"102977503232-1001089317451","title":"Qa engineer","text":"#вакансия #работа #удалёнка #fulltime #qa\nДолжность : QA Engineer\nКомпания : 6nomads.com\nФормат работы: #fulltime #remote\nЗарплата: $ 40 000 в год\n\nМолодой стартап из Сан-Франциско, призванный упростить онлайн-коммуникации для бизнеса, недавно привлек $ 4 млн инвестиций и теперь ищет удаленного QA на фул-тайм. \n\nТребования: \n•  Опыт разработки тест кейсов от 2 лет;\n•  Опыт тестирования WEB, API и мобильных iOS/Android приложений;\n•  Умение анализировать логи серверов приложений и локализовать причину сбоя;\n• Опыт интеграционного тестирования систем;\n• Знание PL/SQL;\n• Уровень английского не ниже В2.\n\nБудет плюсом:\n• Опыт работы с Rest Assured, Selenium;\n• Опыт работы с WAS, WildFly и Nginx;\n• Умение работать в Redmine или Jira.\n\nКонтакт для связи: @nastya_stret","markup":[{"type":"hashtag","offset":0,"length":9,"data":"вакансия"},{"type":"hashtag","offset":10,"length":7,"data":"работа"},{"type":"hashtag","offset":18,"length":9,"data":"удалёнка"},{"type":"hashtag","offset":28,"length":9,"data":"fulltime"},{"type":"hashtag","offset":38,"length":3,"data":"qa"},{"type":"link","offset":77,"length":11,"data":"http://6nomads.com"},{"type":"hashtag","offset":104,"length":9,"data":"fulltime"},{"type":"hashtag","offset":114,"length":7,"data":"remote"},{"type":"handle","offset":758,"length":13,"data":"nastya_stret"}],"date":"2020-06-16T18:31:08+00:00","link":"tg://resolve?domain=qa_jobs&post=0","tags":[{"name":"qa"},{"name":"web"},{"name":"ios"},{"name":"android"},{"name":"sql"},{"name":"rest"},{"name":"selenium"},{"name":"nginx"}],"cities":[],"allowsRemote":true}}]}}},"context":{}}