{"hash":"f5f6bf98bd95e769321482904cbbd488f77922fd","data":{"records":{"id":"express","name":"express","belongsTo":{"totalCount":16,"pageInfo":{"totalPages":2,"currentPage":1},"edges":[{"node":{"__typename":"Job","id":"17353932800-1001110946746","title":"Js разработчик","text":"#вакансия #удаленка #москва #developer #frontend #react #node #middle\n\n🔹Город и адрес офиса:  \n • Москва, удаленная \n\n🔹Требования:\n • В  US  компанию , требуется разработчик, на полную   занятость, статус Independent Contractor, удаленная работа, slack,  jira.\n\n🔹Формат работы: \n • Ближайшее время преимущественно удаленно, есть идея сделать в Мск штаб и будут встречи-гибкая офисная работа после окончания карантинов\n\n🔹Зарплатная вилка: \n • 2000-3000 $ , контракт\n\n🔹Ищу:\n•  Подбираю фулстек мидл инженера со знанием бэкенда, но c приоритетом на веб фронтенд - развиваем web app, в том числе потребуется верстка панели администратора.\n•  Стек : Node.js, Express, MongoDB, React, HTTP, Soсket, Асинхронные запросы, Знание паттернов, Bootstrap.\n\n\n🔹Контакты: \n•  Cтучитесь в лк (@kotenkov)","markup":[{"type":"hashtag","offset":0,"length":9,"data":"вакансия"},{"type":"hashtag","offset":10,"length":9,"data":"удаленка"},{"type":"hashtag","offset":20,"length":7,"data":"москва"},{"type":"hashtag","offset":28,"length":10,"data":"developer"},{"type":"hashtag","offset":39,"length":9,"data":"frontend"},{"type":"hashtag","offset":49,"length":6,"data":"react"},{"type":"hashtag","offset":56,"length":5,"data":"node"},{"type":"hashtag","offset":62,"length":7,"data":"middle"},{"type":"handle","offset":782,"length":9,"data":"kotenkov"}],"date":"2020-07-03T09:01:00+00:00","link":"tg://resolve?domain=javascript_jobs_feed&post=16550","tags":[{"name":"javascript"},{"name":"reactjs"},{"name":"nodejs"},{"name":"web"},{"name":"express"},{"name":"mongodb"},{"name":"bootstrap"}],"cities":[{"code":"moscow"}],"allowsRemote":true}},{"node":{"__typename":"Job","id":"17338204160-1001110946746","title":"Js developer","text":"#вакансия \n\nГород и адрес офиса: Москва (Калужская) или remote\nФормат работы: удаленка\nЗанятость: проектная\nЗарплатная вилка: от 90000 до 140000 руб / мес, для опытных возможен part-time (4 часа в день)\nОписание вакансии: JavaScript Node.js Developer\n\n📲 Кто мы?\n\n→ Компания Axept занимается консалтингом и заказной разработкой программных продуктов.\n→ Наши клиенты – Интернет-компании, профессиональные стартапы и крупные корпорации (Россия, Европа, Сингапур, Японии, США).\n→ Текущий портфель проектов – Личные кабинеты, ERP, Поисковые системы, CRM, Dashboards, Социальные сети, мобильные приложения.\n→ Центр разработки находится в Москве. Но 70% сотрудников работают удалённо по всему миру.\n→ Ключевой момент — мы относимся к проектам наших клиентов ❤️, как к своим собственным, с любовью и максимальной ответственностью.\n→ Много лет команнда Axept развивает сообщества Node.js, React.js и Kubernetes в России.\n→ Мы искренне любим то, что делаем и постоянно улучшаемся. Более подробно здесь – www.axept.com/ru-ru/jobs\n\n🎸 Задачи:\n\n1. Разработка Backend для ERP-платформы (Node.js, TypeScript, PostgreSQL, Redis, Express.js, Knex.js, Passport)\n2. Реализация REST API по модели www.jsonapi.org\n3. Документирование разрабатываемого REST API на Swagger или Apiary \n4. Разработка WebSockets-интерфейса\n\n🏆 Для этого вам потребуется:\n\n1. Опыт работы с PostgreSQL и Redis на уровне прямых коннекторов и knex (включая миграции)\n2. Понимание базовых принципов построения отказоустойчивой архитектуры\n3. Взаимодействие с файловой системой\n4. Свободное владение TypeScript\n5. Опыт работы с Express.js, Sentry и логгерами (Bunyan)\n6. Ваши будущие коллеги на Front-end используют React.js, поэтому понимае React.js и Redux будет плюсом\n7. Желание и готовность активно развиваться 🙂\n\n🎁 Что мы предлагаем?\n\n1. Полнностью удаленная работа (remote).\n2. Сильная команда коллег.\n3. Проекты и задачи, которые реально развивают.\n4. Оформление по ТК РФ. ЗП два раза в месяц.\n5. Опционально – ДМС, конференции, тренинги.\n6. Возможность присоединниться в офисе в БЦ НеоГео (Калужская) – самом стильном и награждаемом БЦ Москвы. В офисе новая техника от iMac до Dell, завтраки, M&Ms и прочие радости.\n7. Быстрая прокачка и гордость за результаты достигнутые вместе.\n8. Админка в @nodejs_ru (шутка).\n\n📩 Напишите краткий рассказ о себе и приложение резюме, отправьте сообщение @DenisIzmaylov или на @AxeptJobs или jobs@ru.axept.com","markup":[{"type":"hashtag","offset":0,"length":9,"data":"вакансия"},{"type":"link","offset":995,"length":24,"data":"http://www.axept.com/ru-ru/jobs"},{"type":"link","offset":1178,"length":15,"data":"http://www.jsonapi.org"},{"type":"handle","offset":2258,"length":10,"data":"nodejs_ru"},{"type":"handle","offset":2355,"length":14,"data":"DenisIzmaylov"},{"type":"handle","offset":2377,"length":10,"data":"AxeptJobs"},{"type":"link","offset":2392,"length":17,"data":"mailto:jobs@ru.axept.com"}],"date":"2020-07-02T18:48:53+00:00","link":"tg://resolve?domain=javascript_jobs_feed&post=16535","tags":[{"name":"javascript"},{"name":"nodejs"},{"name":"reactjs"},{"name":"kubernetes"},{"name":"typescript"},{"name":"postgresql"},{"name":"redis"},{"name":"express"},{"name":"rest"},{"name":"swagger"},{"name":"redux"},{"name":"react-redux"}],"cities":[{"code":"moscow"},{"code":"singapore"}],"allowsRemote":true}},{"node":{"__typename":"Job","id":"17334009856-1001110946746","title":"Js developer","text":"#вакансия #fulltime #backend #js #node\nBackend developer\nГород: Москва\nФормат работы: удаленная работа \nЗанятость: полная\nДиапазон: от 250 до 700 руб./ч\n\nОписание вакансии: Проект связан с сферой обучения. Задачи разработкa rest api и базы данных.\nСтек технологий: \n-node.js;\n- express.js;\n- sockets.\n\nКомпания: Secreate\nКонтакты: telegram @karysha","markup":[{"type":"hashtag","offset":0,"length":9,"data":"вакансия"},{"type":"hashtag","offset":10,"length":9,"data":"fulltime"},{"type":"hashtag","offset":20,"length":8,"data":"backend"},{"type":"hashtag","offset":29,"length":3,"data":"js"},{"type":"hashtag","offset":33,"length":5,"data":"node"},{"type":"handle","offset":340,"length":8,"data":"karysha"}],"date":"2020-07-02T16:35:35+00:00","link":"tg://resolve?domain=javascript_jobs_feed&post=16531","tags":[{"name":"javascript"},{"name":"nodejs"},{"name":"rest"},{"name":"express"}],"cities":[{"code":"moscow"}],"allowsRemote":true}},{"node":{"__typename":"Job","id":"17315135488-1001110946746","title":"Js разработчик","text":"#вакансия #разработчик #senior #NodeJs #фуллтайм #Иннополис\n\nГород и адрес офиса: РТ, г.Иннополис, ул. Университетская 7.\nФормат работы: офис.\nЗанятость: полная.\n\n💸ЗП: от 80 до 180 тыс.руб. (на руки) (обсуждаемо)\n\nОписание вакансии: \n\nКомпания Zen.Car\n\n⭐️Стек: Node.Js, Nestjs, TypeScript,  TypeOrm, GraphQL, PostgreSQL, Redis.\n\n🔹Требования:\n- Опыт в WEB-программировании от 3х лет;\n- Знания ES6/ES7 на уровне не ниже middle;\n- Опыт работы с реляционными БД;\n- Знание основ систем контроля версий (Git);\n- Умение работать в команде и писать код \n\n💥Будет плюсом:\n- опыт работы с Express.js, Nestjs,TypeScript, TypeOrm, GraphQL ;\n- опыт создания высоконагруженных проектов;\n- опыт создания собственных проектов;\n- TTD.\n   \nОбязанности:\n- Разработка нового функционала в существующем продукте;\n- Улучшение и оптимизация текущего кода;\n- Взаимодействие с командой frontend-разработки.\n\n🔸Условия:\n* комфортный офис в г.Иннополис;\n* 3-х разовое питание в офисе за счет компании;\n* помощь в получении арендного жилья в городе Иннополис;\n* скидка на фитнес.\n \n📩Контакты: \nэл.п.: anna@sayhire.agency; \nтелеграм: @anika0801.\n\n—\n\n👉 Обсуждение вакансии в чате @javascript_jobs","markup":[{"type":"hashtag","offset":0,"length":9,"data":"вакансия"},{"type":"hashtag","offset":10,"length":12,"data":"разработчик"},{"type":"hashtag","offset":23,"length":7,"data":"senior"},{"type":"hashtag","offset":31,"length":7,"data":"NodeJs"},{"type":"hashtag","offset":39,"length":9,"data":"фуллтайм"},{"type":"hashtag","offset":49,"length":10,"data":"Иннополис"},{"type":"link","offset":1076,"length":19,"data":"mailto:anna@sayhire.agency"},{"type":"handle","offset":1108,"length":10,"data":"anika0801"},{"type":"handle","offset":1154,"length":16,"data":"javascript_jobs"}],"date":"2020-07-02T10:41:33+00:00","link":"tg://resolve?domain=javascript_jobs_feed&post=16513","tags":[{"name":"javascript"},{"name":"nodejs"},{"name":"typescript"},{"name":"graphql"},{"name":"postgresql"},{"name":"redis"},{"name":"web"},{"name":"git"},{"name":"express"}],"cities":[],"allowsRemote":false}},{"node":{"__typename":"Job","id":"17311989760-1001110946746","title":"Js разработчик","text":"#вакансия #екб #react #fulltime #Fullstack #NodeJS #middle\n\nПозиция: FULLSTACK разработчик (node.js, react)\nКомпания: SoftMediaLab \nЛокация: Екатеринбург \nФормат работы: #удаленка\nЗанятость: #фултайм\nЗП 110 00 - 140 000 рублей на руки (пересмотр з/п раз в год)\n\nSoftMediaLab —основана в 2015 году в городе Екатеринбурге. Основатели компании - разработчики, поэтому никакой бюрократии и странных решений, процессы максимально простые и понятные, среда дружественная. На данный момент более 50 выполненных проектов в России, Канаде, Европе, Израиле, Сингапуре и США.\n\nТребования:\n- Обязателен опыт работы с Node.js и React (не менее 2х лет)\n- Опыт работы с базой данных PostgreSQL\n- Опыт работы с системами контроля версий.\n- Владение английским языком на уровне чтения документации. Плюсом будет владение разговорным английским для международных проектов.\n- Опыт написания unit-тестов.\n\nСтек: node.js, react, typescript, express.js, socket.io, PostgreSQL , bootstrap, material-ui, JQuery, sass, less\n\nКонтакты: @Ekaterina_Mitroshkina или @iamanastasie","markup":[{"type":"hashtag","offset":0,"length":9,"data":"вакансия"},{"type":"hashtag","offset":10,"length":4,"data":"екб"},{"type":"hashtag","offset":15,"length":6,"data":"react"},{"type":"hashtag","offset":22,"length":9,"data":"fulltime"},{"type":"hashtag","offset":32,"length":10,"data":"Fullstack"},{"type":"hashtag","offset":43,"length":7,"data":"NodeJS"},{"type":"hashtag","offset":51,"length":7,"data":"middle"},{"type":"hashtag","offset":170,"length":9,"data":"удаленка"},{"type":"hashtag","offset":191,"length":8,"data":"фултайм"},{"type":"link","offset":933,"length":9,"data":"http://socket.io"},{"type":"handle","offset":1011,"length":22,"data":"Ekaterina_Mitroshkina"},{"type":"handle","offset":1038,"length":13,"data":"iamanastasie"}],"date":"2020-07-02T09:21:42+00:00","link":"tg://resolve?domain=javascript_jobs_feed&post=16510","tags":[{"name":"javascript"},{"name":"reactjs"},{"name":"nodejs"},{"name":"postgresql"},{"name":"typescript"},{"name":"express"},{"name":"bootstrap"},{"name":"jquery"},{"name":"sass"}],"cities":[],"allowsRemote":true}},{"node":{"__typename":"Job","id":"2269118464-1001134745498","title":"Devops инженер","text":"#вакансия #Москва #Казань #Екатеринбург #Питер #Новосибирск фултайм #Экспресс42 #инженер #удаленка\nГород: Москва. Вакансия для кандидатов из любых городов.\nКомпания: Экспресс 42\nФормат работы: удалённый \nЗанятость: полная\nЗарплата: от 120 000 до 200 000 рублей на руки\n\nМы небольшая команда, которая легко проводит эксперименты и быстро принимает решения. Мы делаем проекты по постановке практик DevOps, обучению DevOps практикам в технологических компаниях и корпоративном секторе.\nВ составе нашей команды тебя ждут разнообразные задачи по созданию и улучшению решений, обеспечивающих процессы разработки и эксплуатации цифровых продуктов наших клиентов. \nМы строим высокодоступную и удобную инфраструктуру, изучаем новые подходы и помогаем нашим клиентом с внедрением и адаптацией инженерных практик, таких как Непрерывная поставка, Инфраструктура как код, Централизованное логирование. \nИнструменты выбираем под задачу и потребности клиентов, среди основных, которые точно нужно знать: Kubernetes и его экосистема, Ansible, Terraform, CI-сервисы, системы контроля версий, облачные решения от разных провайдеров.\n\nМы ожидаем от тебя:\n— знание практик и инструментов логирования и мониторинга;\n— опыт описания инфраструктуры в виде кода (Ansible, Terraform, etc);\n— понимание процесса CI/CD;\n— слова Kubernetes, Prometheus, Jenkins, Gitlab, ELK, AWS, GCP не вызывают изумления, а заставляют трепетать нежное сердце инженера\n\nКлассно, если у тебя есть опыт эксплуатации веб-проектов в продакшене. И если при этом ты можешь похвастаться опытом применения нескольких перечисленных инструментов, то тебе точно нужно в Экспресс.\n\nУ нас действительно огненная команда. Мы вместе работаем, общаемся, ходим в бары, посещаем ивенты, организовываем внутренние хакатоны, готовим друг друга к выступлениям на конференциях, поддерживаем и болеем за наше общее дело. А с марта мы перешли на удалённую работу 🚀\nУ нас классно! Присоединяйся!\n\nКонтакты: Рушана @razrushana и rushana@express42.com\n\n—\n\n👉 Обсуждение вакансии в чате @devops_jobs","markup":[{"type":"hashtag","offset":0,"length":9,"data":"вакансия"},{"type":"hashtag","offset":10,"length":7,"data":"Москва"},{"type":"hashtag","offset":18,"length":7,"data":"Казань"},{"type":"hashtag","offset":26,"length":13,"data":"Екатеринбург"},{"type":"hashtag","offset":40,"length":6,"data":"Питер"},{"type":"hashtag","offset":47,"length":12,"data":"Новосибирск"},{"type":"hashtag","offset":68,"length":11,"data":"Экспресс42"},{"type":"hashtag","offset":80,"length":8,"data":"инженер"},{"type":"hashtag","offset":89,"length":9,"data":"удаленка"},{"type":"handle","offset":1946,"length":11,"data":"razrushana"},{"type":"link","offset":1960,"length":21,"data":"mailto:rushana@express42.com"},{"type":"handle","offset":2016,"length":12,"data":"devops_jobs"}],"date":"2020-06-30T17:13:05+00:00","link":"tg://resolve?domain=devops_jobs_feed&post=2164","tags":[{"name":"kubernetes"},{"name":"ansible"},{"name":"jenkins"},{"name":"gitlab"},{"name":"amazon-web-services"},{"name":"google-cloud-platform"},{"name":"express"}],"cities":[{"code":"moscow"},{"code":"kazan"},{"code":"novosibirsk"}],"allowsRemote":true}},{"node":{"__typename":"Job","id":"17271095296-1001110946746","title":"Js разработчик","text":"#вакансия #vacancy #удаленка #fullstack #nodejs #javascript #remote #remotly #удаленнаяработа #удалённая работа\n\nГород и адрес офиса:Санкт-Петербург,Москва,Ульяновск,Обнинск,Калуга,Казань,Харьков,Минск,Гомель-центр города+удалённое сотрудничество\nФормат работы:офис или удалёнка\nЗанятость: полная\nЗарплатная вилка:$1500-$2000\nОписание вакансии:\n\nИщем опытного и талантливого Full Stack девелопера в команду разработки ERP системы по продаже авиа запчастей и поддержания летной годности.\n\nСсылка на описание системы: http://www.erp.aero/\n\nЧто будет входить в задачи:\n\n🚀Бэкенд-разработка;\n🚀Фронт-енд-разработка;\n🚀Разработка архитектуры модулей приложения;\n🚀Написание документации.\n\nЧто мы ожидаем от кандидата:\n\n⚓️Опыт разработки с использованием Node.js;\n✈️Опыт разработки с использованием Vue.js;\n🚁Знание RabbitMQ;\n⛵️JavaScript (ES6);\n🛥БД MySQL;\n🛳Знание протокола WebSocket и принципов его работы;\n🚢Технический английский.\n\nБольшим плюсом будет:\n\n🛸Фреймворк Express.js;\n🏍Понимание работы с Amazon Web Services;\n🛵Оптимизация проекта под высокие нагрузки;\n🚠Понимание работы «облачных» приложений SaaS.\n\nЧто мы предлагаем:\n🇺🇸Работу в Американской компании\n🔥Возможность удалённой работы\n💵Официальное оформление- заключается договор с нашей ШК в Сан-Франциско по ИП\n☀️Гибкое начало рабочего дня\n💊ДМС\n🏖Оплачиваемый отпуск\n🎓75% компенсация стоимости курсов английского языка\nНазвание компании:  XIM, Ink. https://ximxim.com/\n\nОтклики и рекомендации направляйте, пожалуйста, сюда 👉 @veronikaborisovahr","markup":[{"type":"hashtag","offset":0,"length":9,"data":"вакансия"},{"type":"hashtag","offset":10,"length":8,"data":"vacancy"},{"type":"hashtag","offset":19,"length":9,"data":"удаленка"},{"type":"hashtag","offset":29,"length":10,"data":"fullstack"},{"type":"hashtag","offset":40,"length":7,"data":"nodejs"},{"type":"hashtag","offset":48,"length":11,"data":"javascript"},{"type":"hashtag","offset":60,"length":7,"data":"remote"},{"type":"hashtag","offset":68,"length":8,"data":"remotly"},{"type":"hashtag","offset":77,"length":16,"data":"удаленнаяработа"},{"type":"hashtag","offset":94,"length":10,"data":"удалённая"},{"type":"link","offset":516,"length":20,"data":"http://www.erp.aero/"},{"type":"link","offset":1417,"length":19,"data":"https://ximxim.com/"},{"type":"handle","offset":1494,"length":19,"data":"veronikaborisovahr"}],"date":"2020-06-30T16:10:03+00:00","link":"tg://resolve?domain=javascript_jobs_feed&post=16471","tags":[{"name":"javascript"},{"name":"nodejs"},{"name":"vuejs"},{"name":"rabbitmq"},{"name":"mysql"},{"name":"websocket"},{"name":"express"},{"name":"web"},{"name":"amazon-web-services"}],"cities":[{"code":"moscow"},{"code":"ulyanovsk"},{"code":"obninsk"},{"code":"kaluga"},{"code":"kazan"},{"code":"minsk"},{"code":"gomel"}],"allowsRemote":true}},{"node":{"__typename":"Job","id":"17246978048-1001110946746","title":"Js developer","text":"#Харьков #офис #FullTime #вакансия #Middle #FullStack #Node #Vue \n\nКомпания: Business Process Technologies\nГород: Харьков, Гимназическая Набережная 24\nФормат работы: офис\nЗанятость: полная \nЗарплатная вилка: 2000 - 3500$ (50% налога берем на себя) \n\nОписание вакансии \nВсем привет\nВ продуктовую компанию на наши проекты ищем Middle Full Stack Node\\Vue.JS Developer \nТребования\n— Опыт работы с Vue от 2х лет\n— Опыт работы с SSR (nuxt, gridsome etc.)\n— Опыт работы с node (express || adonis || sails) от 1 года\n— Опыт работы как FullStack от 1,5 лет\n— Понимание принципов ООП, S.O.L.I.D., паттернов разработки и архитектуры приложений\n— Опыт работы с HTML/CSS\n— Опыт работы с GIT\n— Опыт работы с MySQL, MongoDB\n— Английский на уровне чтения тех документации\n\nБудет плюсом\n\n— Опыт работы с tailwindcss, bootstrap или vuetify\n— Опыт работы с firebase\n— Опыт работы с Docker\n\nУДАЛЕННОЕ СОТРУДНИЧЕСТВО НЕ РАССМАТРИВАЕМ\n\nКонтакты:\n@nataliashlyahova \nSkype live:shlyahovanatalia","markup":[{"type":"hashtag","offset":0,"length":8,"data":"Харьков"},{"type":"hashtag","offset":9,"length":5,"data":"офис"},{"type":"hashtag","offset":15,"length":9,"data":"FullTime"},{"type":"hashtag","offset":25,"length":9,"data":"вакансия"},{"type":"hashtag","offset":35,"length":7,"data":"Middle"},{"type":"hashtag","offset":43,"length":10,"data":"FullStack"},{"type":"hashtag","offset":54,"length":5,"data":"Node"},{"type":"hashtag","offset":60,"length":4,"data":"Vue"},{"type":"handle","offset":924,"length":17,"data":"nataliashlyahova"}],"date":"2020-06-30T11:51:49+00:00","link":"tg://resolve?domain=javascript_jobs_feed&post=16448","tags":[{"name":"javascript"},{"name":"nodejs"},{"name":"vuejs"},{"name":"express"},{"name":"html"},{"name":"css"},{"name":"git"},{"name":"mysql"},{"name":"mongodb"},{"name":"bootstrap"},{"name":"firebase"},{"name":"docker"}],"cities":[],"allowsRemote":false}},{"node":{"__typename":"Job","id":"17201889280-1001110946746","title":"Js разработчик","text":"#вакансия #remote #удаленка #Angular9 #SASS #Fulstack #Frontend #Backend #Bulma #Node.js #JavaScript\n\nФормат: Удаленка\nЗанятость: Проектная\nУровень: Middle/Senior\nЗп: 500 USD -> 2000 USD или проектная после собеседования.\n\nО компании: БиКинг (https://beking.co) - разработка приложений и сервисов на основе web-технологий. Мы ищем к себе в команду ответственного человека, который хочет и готов активно расти как разработчик и специалист. Компания молодая. Пока в компании програмистов нету.\n\nОбязанности:\n- Разработка Web приложений на Angular, Reakt с применением современных framework-ов\n- Исследование и внедрение новых тенденций и технологий\n\nТребования:\n- Хорошее знание JavaScript (ES5, ES6), HTML, SASS, CSS, Typescript\n- Знание Адаптивной Вёрстки\n- Опыт работы с современными фреймворками (Angular/React, Bulma)\n- Умение работать с REST\n- Хорошее умение пользоваться Git\n- Навыки работы в интернациональной команде\n\nБудет плюсом:\n- Разговорный английский, испаский язык\n- Знание Node.js и опыт работы с Express.js/Nest.js/Next.js\n- Умение верстать дизайн из Adobe XD.\n\nМы предлагаем:\n- Гибкий график работы\n- Постоянное обучение, развитие скиллов\n- Возможность получить опыт в разных проектах и изучить новые технологии\n\nКонтакты: @yuribkng","markup":[{"type":"hashtag","offset":0,"length":9,"data":"вакансия"},{"type":"hashtag","offset":10,"length":7,"data":"remote"},{"type":"hashtag","offset":18,"length":9,"data":"удаленка"},{"type":"hashtag","offset":28,"length":9,"data":"Angular9"},{"type":"hashtag","offset":38,"length":5,"data":"SASS"},{"type":"hashtag","offset":44,"length":9,"data":"Fulstack"},{"type":"hashtag","offset":54,"length":9,"data":"Frontend"},{"type":"hashtag","offset":64,"length":8,"data":"Backend"},{"type":"hashtag","offset":73,"length":6,"data":"Bulma"},{"type":"hashtag","offset":80,"length":5,"data":"Node"},{"type":"hashtag","offset":89,"length":11,"data":"JavaScript"},{"type":"link","offset":243,"length":17,"data":"https://beking.co"},{"type":"handle","offset":1240,"length":9,"data":"yuribkng"}],"date":"2020-06-29T06:52:19+00:00","link":"tg://resolve?domain=javascript_jobs_feed&post=16405","tags":[{"name":"javascript"},{"name":"angularjs"},{"name":"sass"},{"name":"nodejs"},{"name":"web"},{"name":"html"},{"name":"css"},{"name":"typescript"},{"name":"reactjs"},{"name":"rest"},{"name":"git"},{"name":"express"}],"cities":[],"allowsRemote":true}},{"node":{"__typename":"Job","id":"17195597824-1001110946746","title":"Javascript разработчик","text":"#вакансия #удаленно #проектная #reactNative \n В компанию \"Far Express CO\" LLC требуется React Native Разработчик под проектный вид работы\n Город: Узбекистан, г. Ташкент\n Занятость: проектная\n Формат работы: удаленка\n Зарплатная вилка: от 500$ до 1000$\n Требования:\n - опыт работы React Native не менее 2 года\n Условия работы:\n - график работы 30-40ч в недели (работаем с Hubstaff)\n Контакты:\n Телеграм: @nazirovlix\n\n—\n\n👉 Обсуждение вакансии в чате @javascript_jobs","markup":[{"type":"hashtag","offset":0,"length":9,"data":"вакансия"},{"type":"hashtag","offset":10,"length":9,"data":"удаленно"},{"type":"hashtag","offset":20,"length":10,"data":"проектная"},{"type":"hashtag","offset":31,"length":12,"data":"reactNative"},{"type":"handle","offset":403,"length":11,"data":"nazirovlix"},{"type":"handle","offset":449,"length":16,"data":"javascript_jobs"}],"date":"2020-06-28T20:36:51+00:00","link":"tg://resolve?domain=javascript_jobs_feed&post=16399","tags":[{"name":"javascript"},{"name":"express"},{"name":"reactjs"},{"name":"react-native"}],"cities":[{"code":"tashkent"}],"allowsRemote":true}}]}}},"context":{}}