{"hash":"f34fd2c444a074f4e0e67d525015a008ef8e766f","data":{"records":{"id":"web","name":"web","belongsTo":{"totalCount":68,"pageInfo":{"totalPages":7,"currentPage":4},"edges":[{"node":{"__typename":"Job","id":"1409286144-1001091028994","title":"Java разработчик","text":"#вакансия #москва #java #middle #senior\n\nКомпания Альфа Страхование в поисках Java-разработчика на внутренние проекты (Москва).\n\n💰Заработная вилка: 200 000 ₽ — 300 000 ₽ (в зависимости от опыта)\n\n🔸Проект «АльфаПартнерс»\nСистема для партнеров компании для продажи страховок. Некое B2B решение, которое используют сотрудники наших партнёров, чтобы продавать страховки.\n\nТехнологии:\n▪️Java 8\n▪️[legacy часть] — Java Core, Weblogic + Oracle (LiquidBase)\n▪️[новая часть] — Spring Boot , Tomcat + Mongo + Vaadin 14\n\n————-\n\n🔸Проект «Продуктовая фабрика»\nПишется с нуля.\n\nТехнологии:\n▪️Java 8\n▪️Vaadin\n▪️Spring Framework (IoC, Data, Security, Web)\n▪️Spring Boot\n▪️Spring Cloud REST, SOAP, Docker SQL (PostgreSQL)\n▪️[тестирование] — JUnit, Mockito, spring tests, test containers\n\n————-\n\n🔸Проект «РСА 2.0 (Шина)»\n\nТехнологии:\n▪️Java 8/11\n▪️Spring Boot\n▪️Rest API\n▪️JUnit\n▪️PostgreSQL\n▪️ActiveMQ\n▪️Redis\n\n————-\n\n🔸Проект «Альфа NEXT»\n\nТехнологии:\n▪️Java 8/11\n▪️Spring Boot\n▪️Camunda\n▪️JUnit\n▪️PostgreSQL\n▪️k8s\n▪️cloud-native\n\n========\n\n🔸🔸🔸\nУсловия\n▫️ График работы: 5/2 (гибкое начало дня)\n▫️ Работа в профессиональной команде разработчиков, которая готова делиться знаниями и опытом\n▫️ Удобное расположение офиса – м. Шаболовская (7 минут пешком от метро)\n▫️ Оформление по ТК РФ\n🔸🔸🔸\n\nКонтакты\n▪️Telegram: @ruslan_mart","markup":[{"type":"hashtag","offset":0,"length":9,"data":"вакансия"},{"type":"hashtag","offset":10,"length":7,"data":"москва"},{"type":"hashtag","offset":18,"length":5,"data":"java"},{"type":"hashtag","offset":24,"length":7,"data":"middle"},{"type":"hashtag","offset":32,"length":7,"data":"senior"},{"type":"bold","offset":50,"length":17,"data":""},{"type":"bold","offset":149,"length":21,"data":""},{"type":"bold","offset":207,"length":13,"data":""},{"type":"italic","offset":222,"length":148,"data":""},{"type":"bold","offset":370,"length":12,"data":""},{"type":"italic","offset":394,"length":12,"data":""},{"type":"italic","offset":455,"length":11,"data":""},{"type":"bold","offset":529,"length":19,"data":""},{"type":"italic","offset":550,"length":17,"data":""},{"type":"bold","offset":567,"length":12,"data":""},{"type":"italic","offset":711,"length":12,"data":""},{"type":"bold","offset":791,"length":14,"data":""},{"type":"bold","offset":808,"length":12,"data":""},{"type":"bold","offset":915,"length":10,"data":""},{"type":"bold","offset":928,"length":12,"data":""},{"type":"bold","offset":1036,"length":8,"data":""},{"type":"bold","offset":1284,"length":9,"data":""},{"type":"handle","offset":1305,"length":12,"data":"ruslan_mart"}],"date":"2020-04-02T12:23:30+00:00","link":"tg://resolve?domain=jvmjobs&post=1344","tags":[{"name":"java"},{"name":"jvm"},{"name":"oracle"},{"name":"spring"},{"name":"tomcat"},{"name":"web"},{"name":"cloud"},{"name":"rest"},{"name":"soap"},{"name":"docker"},{"name":"sql"},{"name":"postgresql"},{"name":"junit"},{"name":"redis"},{"name":"spring-boot"}],"cities":[{"code":"moscow"}],"allowsRemote":false}},{"node":{"__typename":"Job","id":"1959788544-1001134745498","title":"Devops инженер","text":"#вакансия#Москва#AWS\n\nDataArt (https://www.dataart.ru/) ищет DevOps с опытом AWS в один из наших IoT-проектов.\n\nГород: Москва (м. Белорусская).\nФормат работы: в офисе, но сейчас, по понятным причинам, удалённый.\nЗанятость: Full-time.\n\nЗарплатная вилка: \nот 2200$ до $5000 net. \nСтартовый бонус – $1000\n\nТребуемый опыт:\n• развертывание, управление и использование масштабируемой и отказоустойчивой инфраструктуры Linux/JVM в AWS (или других общедоступных облаках).\n• Разговорный английский.\n• Linux, сетевые технологии и концепции баз данных.\n• Cassandra (или другой NoSQL).\n• Amazon Web Services.\n• Chef или Puppet.\n• Ruby или Python.\n\nБольше подробностей о позиции у нас на сайте: \nhttps://www.dataart.ru/vacancy/cfm337\n\nЕсли у вас появятся вопросы - буду рада на них ответить!\n\nTelegram: @kluhpluh\nПочта: darya.matskevich@dataart.com\n\n—\n\n👉 Обсуждение вакансии в чате @devops_jobs","markup":[{"type":"link","offset":31,"length":23,"data":"https://www.dataart.ru/"},{"type":"link","offset":683,"length":37,"data":"https://www.dataart.ru/vacancy/cfm337"},{"type":"handle","offset":790,"length":9,"data":"kluhpluh"},{"type":"link","offset":807,"length":28,"data":"mailto:darya.matskevich@dataart.com"},{"type":"handle","offset":870,"length":12,"data":"devops_jobs"}],"date":"2020-04-02T09:23:39+00:00","link":"tg://resolve?domain=devops_jobs_feed&post=1869","tags":[{"name":"amazon-web-services"},{"name":"dotnet"},{"name":"linux"},{"name":"jvm"},{"name":"cassandra"},{"name":"nosql"},{"name":"web"},{"name":"ruby"},{"name":"python"}],"cities":[{"code":"moscow"}],"allowsRemote":true}},{"node":{"__typename":"Job","id":"1957691392-1001134745498","title":"Devops инженер","text":"#вакансия #devops #remote\n\nГород: #Новосибирск\nформат работы: #удаленка #remote\nзанятость: #проектная #fulltime\nзарплатная вилка: 700-1000 рублей в час\n\nОписание вакансии:\n\nДобрый день!\n\nМеня зовут Матвей, менеджер проектов в компании The Invaders. Мы занимаемся заказной веб и мобильной разработкой для компаний по всему миру. Основная специализация компании это разработка Web и Mobile проектов, кроме того, в портфеле нашей компании работа с  блокчейн проектами на различных платформах (Waves, Ethereum, EOS, Corda, Hyperledger и тд.)  Наша команда разработки находится в Новосибирске, но у нас так же, на удаленной основе, работают разработчики с разных мест Земного шара.\n\nВ данный момент мы ищем колегу DevOps, который поможет нам периодически настраивать, разворачивать сервера, улучшит нашу ситуацию с CI/CD, покажет путь лучшей жизни с контейнеризацией\n\nЧем предстоит заниматься:\n\n1. Формирование Docker-образов, CI/CD сценариев\n2. Управления контейнеризованными рабочими нагрузками и сервисами (Kubernetes)\n3. Решение сетевых вопросов организации серверов\n4. Решение вопросов хранения данных\n5. Мониторинг систем, сбор, визуализация и анализ логов\n6. Взаимодействие с командой разработчиков и совместное решение задач\n\nТехнические скиллы:\n\n1.  Умение работать с Ansible\n2.  Опыт администрирования баз данных (PostgreSQL, Redis)\n3.  Опыт работы в качестве Инженера DevOps\n\nТехнологический стек:\n\n- Непосредственное взаимодействие и окружение\n\n  - Gitlab CI/CD\n  - Docker\n  - Ansible\n  - Ubuntu\n  - PostgreSQL\n  - Redis\n  - Rabbitmq\n  - Python\n  - Django\n  - Celery\n  - Nginx\n\nТак же будет очень хорошо:\n\n- Увлекаешься программированием\n- Сможешь рассказать о ревалентном опыте работы\n\nНазвание компании: The Invaders\n\nКонтакты: hr@theinvaders.pro @matteslip\n\n—\n\n👉 Обсуждение вакансии в чате @devops_jobs","markup":[{"type":"hashtag","offset":0,"length":9,"data":"вакансия"},{"type":"hashtag","offset":10,"length":7,"data":"devops"},{"type":"hashtag","offset":18,"length":7,"data":"remote"},{"type":"hashtag","offset":34,"length":12,"data":"Новосибирск"},{"type":"hashtag","offset":62,"length":9,"data":"удаленка"},{"type":"hashtag","offset":72,"length":7,"data":"remote"},{"type":"hashtag","offset":91,"length":10,"data":"проектная"},{"type":"hashtag","offset":102,"length":9,"data":"fulltime"},{"type":"link","offset":1737,"length":18,"data":"mailto:hr@theinvaders.pro"},{"type":"handle","offset":1756,"length":10,"data":"matteslip"},{"type":"handle","offset":1801,"length":12,"data":"devops_jobs"}],"date":"2020-04-02T06:34:20+00:00","link":"tg://resolve?domain=devops_jobs_feed&post=1867","tags":[{"name":"web"},{"name":"mobile"},{"name":"docker"},{"name":"kubernetes"},{"name":"ansible"},{"name":"postgresql"},{"name":"redis"},{"name":"gitlab"},{"name":"ubuntu"},{"name":"rabbitmq"},{"name":"python"},{"name":"django"},{"name":"nginx"}],"cities":[{"code":"novosibirsk"}],"allowsRemote":true}},{"node":{"__typename":"Job","id":"1953497088-1001134745498","title":"Devops инженер","text":"DevOps engineer\n#вакансия #DevOps #удаленно\nВакансия: DevOps engineer\nКомпания: Amazon \nГород: любой город \nФормат работы: #удаленно\nЗанятость: #полная\nЗарплата : обсуждаем, 180 - 300 тр\n\n  Обязательно: нужна сертификация AWS (amazon web services) + хороший английский. \n\nОпыт работы в среде Unix / Linux от 1 года, знание сценариев, настройки, настройки и устранения неисправностей параметров приложений и ОС.\n\nПРЕДПОЧТИТЕЛЬНЫЕ КВАЛИФИКАЦИИ\n· Сильные, объектно-ориентированные навыки проектирования и кодирования (желательно Python)\n· Знание внутренних компонентов операционной системы\n· Опыт работы с распределенными (многоуровневыми) системами, алгоритмами и реляционными базами данных.\n· Знание служб Active Directory, ADFS, SAML2, OIDC является плюсом.\n\nМы ищем квалифицированного инженера, чтобы присоединиться к нашей команде и иметь собственный инструментарий самообслуживания, который повышает производительность для команд разработчиков. Наш инструментарий включает в себя управление инфраструктурой в AWS, кодирование с использованием API-интерфейсов REST, управление собственной задолженностью и работа с заинтересованными сторонами по интеграции их приложений в нашу платформу.\n\n✍️ ЛС @veroni_kash\n\n—\n\n👉 Обсуждение вакансии в чате @devops_jobs","markup":[{"type":"hashtag","offset":16,"length":9,"data":"вакансия"},{"type":"hashtag","offset":26,"length":7,"data":"DevOps"},{"type":"hashtag","offset":34,"length":9,"data":"удаленно"},{"type":"hashtag","offset":123,"length":9,"data":"удаленно"},{"type":"hashtag","offset":144,"length":7,"data":"полная"},{"type":"handle","offset":1198,"length":12,"data":"veroni_kash"},{"type":"handle","offset":1245,"length":12,"data":"devops_jobs"}],"date":"2020-04-01T18:24:21+00:00","link":"tg://resolve?domain=devops_jobs_feed&post=1863","tags":[{"name":"amazon-web-services"},{"name":"web"},{"name":"unix"},{"name":"linux"},{"name":"python"},{"name":"rest"},{"name":"active-directory"}],"cities":[],"allowsRemote":true}},{"node":{"__typename":"Job","id":"1408237568-1001091028994","title":"Java разработчик","text":"#java #middle #senior #москва #рязань #ижевск #питер\nВакансия: Java-разработчик \nКомпания: https://jtc.ooo/\nРабота в одном из офисов: Москва, Рязань, Ижевск, Санкт-Петербург\nЗ/п: от 150 000 до 250 000 рублей\nФормат работы: офис\nЗанятость: полная \nСпециализация компании: с 2007 года работаем в области построения систем ДБО для юридических лиц, как на базе собственного решения, так и в области построения систем ДБО на заказ.\n\nОбязанности\n- проектирование и разработка backend высоконагруженного web-приложения с использованием микросервисной архитектуры\n- интеграция со сторонними сервисами\n- рефакторинг\n\nТребования\n- опыт работы с java  от 2 лет\n- Java 8, Hibernate, SQL(PostgreSQL/Oracle/MSSQL), Spring Framework, Maven/Gradle\n- знание основных алгоритмов и структур данных\n\nМы предлагаем\n- конкурентная заработная плата по результатам общения\n- соблюдение TK РФ\n- уютный офис и современная техника на рабочих местах\n- гибкий рабочий график с началом работы с 8:00 до 11:00\n- ДМС с расширенным набором услуг\n- интересные и нетривиальные задачи \n- возможность посещать семинары, тренинги, конференции\n- дружный коллектив профессионалов, комфортная атмосфера\n- возможность участия в крупных и интересных проектах\n\nКонтакты: @rita_kudryashova","markup":[{"type":"hashtag","offset":0,"length":5,"data":"java"},{"type":"hashtag","offset":6,"length":7,"data":"middle"},{"type":"hashtag","offset":14,"length":7,"data":"senior"},{"type":"hashtag","offset":22,"length":7,"data":"москва"},{"type":"hashtag","offset":30,"length":7,"data":"рязань"},{"type":"hashtag","offset":38,"length":7,"data":"ижевск"},{"type":"hashtag","offset":46,"length":6,"data":"питер"},{"type":"link","offset":91,"length":16,"data":"https://jtc.ooo/"},{"type":"handle","offset":1227,"length":17,"data":"rita_kudryashova"}],"date":"2020-04-01T09:07:17+00:00","link":"tg://resolve?domain=jvmjobs&post=1343","tags":[{"name":"java"},{"name":"jvm"},{"name":"web"},{"name":"hibernate"},{"name":"sql"},{"name":"postgresql"},{"name":"oracle"},{"name":"sql-server"},{"name":"spring"},{"name":"maven"},{"name":"gradle"}],"cities":[{"code":"moscow"},{"code":"ryazan"},{"code":"izhevsk"}],"allowsRemote":false}},{"node":{"__typename":"Job","id":"1406140416-1001091028994","title":"Java разработчик","text":"Компания: #SimbirSoft\nЛокация: #Ульяновск, Казань, Самара, Димитровград, Саранск + возможен вариант удалённой работы\nЗ/п: 180-200 гросс\nКонтакты: @juli_simb\n+79271828496\nSenior Java-разработчик / AWS Dev\nТребуемый опыт работы: 3–6 лет\nПолная занятость, гибкий график\nУ нас не соскучишься! Поручим разработку разнообразных проектов, есть как разработка с нуля (выбор архитектуры и технологий за нами), так и доработка существующих решений. Внутренние конференции и доклады от ведущих разработчиков, на которых ты можешь узнать много нового\nУ нас есть офисы разработки в городах: Ульяновск, Казань, Самара, Саранск и Димитровград, а так же возможен дистанционный формат работы.\n\nПиши нам, если есть:\n●  опыт разработки на языке Java (не ранее 8 версии) не менее 2 лет, умение эффективно его использовать, знание особенностей, достоинств и недостатков;\n●  опыт разработки на Spring Framework;\n●  опыт работы с Java потоками включая ThreadPoolExecutor\n●  опыт разработки с AWS (Amazon Web Services) включая SQS, SNS, Kinesis Firehose, Terraform\n●  опыт применения языка SQL, умение писать и оптимизировать сложные запросы;\n●  опыт работы с Kafka\n●  понимание принципов работы ORM-фреймворков;\n●  понимание концепций OOP, методологий разработки и шаблонов проектирования.\n●  уровень английского от Upper - intermediate\nА если есть даже больше, то тем более пиши :)\n\nМы предлагаем:\n●  интересные высоконагруженные проекты;\n●  возможность работать на современных технологиях;\n●  возможность разрабатывать проекты с нуля;\n●  стабильную белоснежную заработную плату, размер зависит от квалификации и опыта;\n●  возможность профессионального развития - менторство, внутренние митапы, хакатоны, работа в одной команде с экспертами, сертификация за счет компании;\n●  постоянный обмен опытом между командами;\n●  гибкий график работы;\n●  возможность работать удаленно;\n●  оформление по ТК РФ.","markup":[{"type":"hashtag","offset":10,"length":11,"data":"SimbirSoft"},{"type":"hashtag","offset":31,"length":10,"data":"Ульяновск"},{"type":"handle","offset":146,"length":10,"data":"juli_simb"},{"type":"link","offset":157,"length":12,"data":"tel:+79271828496"}],"date":"2020-04-01T06:20:17+00:00","link":"tg://resolve?domain=jvmjobs&post=1341","tags":[{"name":"java"},{"name":"jvm"},{"name":"amazon-web-services"},{"name":"spring"},{"name":"web"},{"name":"sql"},{"name":"kafka"},{"name":"orm"}],"cities":[{"code":"ulyanovsk"},{"code":"kazan"},{"code":"samara"},{"code":"dimitrovgrad"},{"code":"saransk"}],"allowsRemote":true}},{"node":{"__typename":"Job","id":"1397751808-1001091028994","title":"Java разработчик","text":"Вакансия: #Java \nКомпания: #S-O-Services\nЛокация: #удаленнаяработа #remote #belarus #ukraine #balticstates\nЗ/п: 5000-6500$ gross\nКонтакты: @erzentd\nMust be able to translate business needs into effective technical solutions using core JAVA and common\nopensource libraries and frameworks.\n🔹 Must have practical implementation experience with Web Service RESTful API.\n🔹 Highly preferred with performance in encoding audio video in cloud platform.\n🔹 Experience with Java/J2EE technologies: Java, EJB3.0, JMS, JDBC, XML.\n🔹 Experience with application servers is a plus: Spring Boot, Jetty, Apache Tomcat, Wildfly.\n🔹 Experience with frameworks: Spring, Hibernate.\n🔹 Strong understanding of Java Multithreading and Daemons.\n🔹 Experience with the development tools a plus: Intellij, Git, JIRA\n🔹 Proven experience with interfacing to relational databases (particularly PostgreSQL, MySQL)\n🔹 Excellent troubleshooting skills with the ability to analyze and resolve difficult problems quickly\n🔹 Must have excellent written and verbal communication skills\n🔹 Familiarity with common branching strategies like Gitflow a plus\n🔹 Upper-intermediate English","markup":[{"type":"hashtag","offset":10,"length":5,"data":"Java"},{"type":"hashtag","offset":27,"length":2,"data":"S"},{"type":"hashtag","offset":50,"length":16,"data":"удаленнаяработа"},{"type":"hashtag","offset":67,"length":7,"data":"remote"},{"type":"hashtag","offset":75,"length":8,"data":"belarus"},{"type":"hashtag","offset":84,"length":8,"data":"ukraine"},{"type":"hashtag","offset":93,"length":13,"data":"balticstates"},{"type":"handle","offset":139,"length":8,"data":"erzentd"}],"date":"2020-03-30T18:44:36+00:00","link":"tg://resolve?domain=jvmjobs&post=1333","tags":[{"name":"java"},{"name":"jvm"},{"name":"web"},{"name":"cloud"},{"name":"jdbc"},{"name":"xml"},{"name":"spring"},{"name":"jetty"},{"name":"apache"},{"name":"tomcat"},{"name":"hibernate"},{"name":"git"},{"name":"postgresql"},{"name":"mysql"},{"name":"spring-boot"}],"cities":[],"allowsRemote":true}},{"node":{"__typename":"Job","id":"1394606080-1001091028994","title":"Java разработчик","text":"#вакансия #android #backend #java #kotlin #senior\n\nВакансия: Kotlin/Java Backend Software Engineer\nФормат работы: удаленка / #remote\nЗанятость: полная / частичная #fulltime #parttime\nЗарплатная вилка: от $2500 до $3500 по итогам собеседования\nИмя компании: Take it Personally B.V.\nАдрес компании: #Amsterdam\nОписание работы: https://takeitpersonally.me/kotlin-java-backend-software-engineer/\n\nBackend Software Engineer with experience with Java and Kotlin to join our remote team full-time within European time zone.\n\nRESPONSIBILITIES\n • Drive key technical decisions from the start of the project\n • Write unit tests and integrate into CI/CD\n • Own the Feature, Own the Code – feel responsible for what you create. This starts with bringing in your own feature ideas, goes over development, testing and ends in deploying your code and monitoring the feature\n • Design and develop systems based on product requirements or refactorings\n\nREQUIREMENTS\n • Curiosity about ethical / mindful / humane tech space\n • 3+ years of experience with Java or Kotlin\n • Familiar with the quirks of Spring\n • Keen about principles and practices of scalable web applications, such as RESTful APIs, dealing with transactions and resiliency\n • Deep knowledge of best practices, APIs and libraries needed for building web applications\n • Strong understanding of application architecture and object-oriented design\n • Passion for continuous learning and understanding\n • Ability to operate in fast-paced, deadline driven, collaborative and iterative programming environment\n • Proven tech documentation skills\n • Excellent verbal and written communication in English\n\nWHAT IS IN IT FOR YOU\n • No bureaucracy, flat organisational structure\n • Competitive salary and shares package\n • Be part of the team from the start and grow with the company\n • Business trips to Spain and the Netherlands\n\nContact: @takeitpersonally\nEmail: olga@mytip.app\nApplication form: https://takeitpersonally.me/kotlin-java-backend-software-engineer/","markup":[{"type":"hashtag","offset":0,"length":9,"data":"вакансия"},{"type":"hashtag","offset":10,"length":8,"data":"android"},{"type":"hashtag","offset":19,"length":8,"data":"backend"},{"type":"hashtag","offset":28,"length":5,"data":"java"},{"type":"hashtag","offset":34,"length":7,"data":"kotlin"},{"type":"hashtag","offset":42,"length":7,"data":"senior"},{"type":"hashtag","offset":125,"length":7,"data":"remote"},{"type":"hashtag","offset":163,"length":9,"data":"fulltime"},{"type":"hashtag","offset":173,"length":9,"data":"parttime"},{"type":"hashtag","offset":297,"length":10,"data":"Amsterdam"},{"type":"link","offset":325,"length":66,"data":"https://takeitpersonally.me/kotlin-java-backend-software-engineer/"},{"type":"handle","offset":1880,"length":17,"data":"takeitpersonally"},{"type":"link","offset":1905,"length":14,"data":"mailto:olga@mytip.app"},{"type":"link","offset":1938,"length":66,"data":"https://takeitpersonally.me/kotlin-java-backend-software-engineer/"}],"date":"2020-03-28T20:25:05+00:00","link":"tg://resolve?domain=jvmjobs&post=1330","tags":[{"name":"java"},{"name":"jvm"},{"name":"android"},{"name":"kotlin"},{"name":"spring"},{"name":"web"}],"cities":[{"code":"amsterdam"}],"allowsRemote":true}},{"node":{"__typename":"Job","id":"1392508928-1001091028994","title":"Java разработчик","text":"Вакансия: #java #developer #javadeveloper\nКомпания: #ivi\nЛокация: #москва #мск\nЗ/п: от 250 000 до 270 000 руб. на руки\nКонтакты: @daria144 \n\nКоманда Big Data онлайн-кинотеатра ivi ищет сильного Java разработчика, заинтересованного в работе с данными и разработке аналитических продуктов\n\nНаша задача - собирать, обогащать, хранить и доставлять данные, а также разрабатывать инструменты для извлечения из них максимального business value.\n\nДанные - важное звено в бизнесе ivi, мы придерживаемся data-driven культуры принятия решений. Мы обрабатываем 1 Тб в день с помощью Kafka, Flink и ClickHouse.\n\nРазрабатываем нагруженные (18k qps) сервисы на Spring Boot WebFlux и синхронизируем их через ZooKeeper. Разрабатываем многоуровневые кеши Caffeine + Redis и Flink коннекторы. Основные технологии: Java, Python; Kafka, Flink, Spring Boot, Spring WebFlux, ZooKeeper, Redis, ClickHouse, PostgreSQL.\n\nЕсли вы любите разбираться с новыми технологиями и решать нестандартные задачи - вам у нас будет интересно.\n\nЧто предстоит делать:\n- разработка модулей на основе streaming-processing (Apache Flink);\n- разработка web-сервисов для различных задач (реклама, аналитика и т.п.);\n- взаимодействовать с командой по вопросам архитектуры и разработки.\n\nКак узнать что ты нам подходишь?\n- есть опыт разработки на Java в коммерческих проектах от 5 лет;\n- у тебя отличное знание Java Core;\n- твердые архитектурные скилы;\n- общая культура разработки: декомпозиция задач, SOLID-принципы, DI, написание интеграционных и модульных тестов. \n\nСо своей стороны мы обещаем:\n- Офис в 5 минутах ходьбы от м. \"Дмитровская\";\n- У нас гибкий график, мы начинаем до 11 часов дня;\n- Трудоустройство по ТК РФ;\n- ДМС + стоматология после прохождения испытательного срока;\n- Подписка на ivi;\n- Пакет релокации для соискателей со всей России.","markup":[{"type":"bold","offset":0,"length":9,"data":""},{"type":"hashtag","offset":10,"length":5,"data":"java"},{"type":"hashtag","offset":16,"length":10,"data":"developer"},{"type":"hashtag","offset":27,"length":14,"data":"javadeveloper"},{"type":"bold","offset":42,"length":9,"data":""},{"type":"hashtag","offset":52,"length":4,"data":"ivi"},{"type":"bold","offset":57,"length":8,"data":""},{"type":"hashtag","offset":66,"length":7,"data":"москва"},{"type":"hashtag","offset":74,"length":4,"data":"мск"},{"type":"bold","offset":79,"length":4,"data":""},{"type":"bold","offset":119,"length":9,"data":""},{"type":"handle","offset":129,"length":9,"data":"daria144"},{"type":"bold","offset":1004,"length":22,"data":""},{"type":"bold","offset":1239,"length":33,"data":""},{"type":"bold","offset":1520,"length":29,"data":""}],"date":"2020-03-27T09:48:35+00:00","link":"tg://resolve?domain=jvmjobs&post=1328","tags":[{"name":"java"},{"name":"jvm"},{"name":"kafka"},{"name":"spring"},{"name":"redis"},{"name":"python"},{"name":"postgresql"},{"name":"apache"},{"name":"web"},{"name":"spring-boot"}],"cities":[{"code":"moscow"}],"allowsRemote":false}},{"node":{"__typename":"Job","id":"1940914176-1001134745498","title":"Devops инженер","text":"#вакансия #DevOps #fulltime \nСанкт-Петербург, м. Чкаловская\nОфис, полная занятость \nЗарплата от 150 000 до 200 000\nЧто предстоит делать:\n-Настройка и поддержание в работоспособном состоянии продуктовых бизнес систем\n-Работа с инфраструктурой в DigitalOcean, AWS\n-Автоматизация разворачивания сервисов\n-Миграция, а также поддержка проектов на Kubernetes\n-Интеграция новых сервисов в существующую инфраструктуру\n-Администрирование операционных систем: RHEL/CentOS, Ubuntu\nЧто нам нужно от Вас:\n-Обязателен production опыт эксплуатации кластера kubernetes\n-Опыт работы с Linux системами\n-Понимание работы сетевых протоколов\n-Docker\n-git\n-Написание и поддержка Ansible playbooks\n-CI/CD (мы используем Drone CI, CircleCI)\n-Знакомство с одним из языков: Go, Python, Bash\n-Знания хотя бы об одном из продуктов: nginx, haproxy, tomcat\n-Опыт работы с PostgreSQL/MySQL, MongoDB\n-Глубокое понимание Terraform\n-Amazon Web Services\n-Знакомство с Prometheus\nNice to have:\n-Базовые знания DigitalOcean\n-Опыт работы с Kafka, Redis\n-Знакомство с ElasticSearch\nКомпания Snowball Gaming https://www.linkedin.com/company/snowball-gaming/about/\nКонтакт: maria.yudina@snowball.dev, TG @maria_you\n\n—\n\n👉 Обсуждение вакансии в чате @devops_jobs","markup":[{"type":"hashtag","offset":0,"length":9,"data":"вакансия"},{"type":"hashtag","offset":10,"length":7,"data":"DevOps"},{"type":"hashtag","offset":18,"length":9,"data":"fulltime"},{"type":"link","offset":1068,"length":55,"data":"https://www.linkedin.com/company/snowball-gaming/about/"},{"type":"link","offset":1133,"length":25,"data":"mailto:maria.yudina@snowball.dev"},{"type":"handle","offset":1163,"length":10,"data":"maria_you"},{"type":"handle","offset":1208,"length":12,"data":"devops_jobs"}],"date":"2020-03-26T12:56:42+00:00","link":"tg://resolve?domain=devops_jobs_feed&post=1851","tags":[{"name":"amazon-web-services"},{"name":"kubernetes"},{"name":"centos"},{"name":"ubuntu"},{"name":"linux"},{"name":"docker"},{"name":"git"},{"name":"ansible"},{"name":"python"},{"name":"bash"},{"name":"nginx"},{"name":"tomcat"},{"name":"postgresql"},{"name":"mysql"},{"name":"mongodb"},{"name":"web"},{"name":"kafka"},{"name":"redis"},{"name":"elasticsearch"}],"cities":[{"code":"nice"}],"allowsRemote":false}}]}}},"context":{}}