{"hash":"f5f6bf98bd95e769321482904cbbd488f77922fd","data":{"records":{"id":"hibernate","name":"hibernate","belongsTo":{"totalCount":34,"pageInfo":{"totalPages":4,"currentPage":4},"edges":[{"node":{"__typename":"Job","id":"1687158784-1001091028994","title":"Java разработчик","text":"#java #senior #backend #js #Москва #fulltime #офис #angular\nЛокация: Москва, м. Шаболовская\nФормат работы: Office\nЗанятость: Fulltime\nЗарплата от 100 к до 240 к\nОписание вакансии:\nРазработчик JAVA (senior\\middle)\nНаш клиент - международная компания, в связи с расширением деятельности в России - приглашает опытных Java-разработчиков. \nРазработка собственного продукта - коммерческого приложения на основе Angular front + Java backend.\nОбязанности:\n- разработка новых компонентов системы\n- доработка и оптимизация существующих компонентов\n- поддержка качества кода (code review, использование систем автоматизированного контроля кода)\n- Написание юнит-тестов и функциональных тестов\n- Взаимодействие с бизнес-аналитиками для выполнения техзадания\nТребования:\n- Высшее образование\n- Командность, гибкость подходов и мышления\n- опыт разработки на java от 3 лет\nТехнические требования:\n- знание java 8, Spring-*(Boot, Data, Rest), Hibernate\n- опыт работы с SQL (SQL Server, Oracle или postgresql)\n- понимание основ микросервисной архитектуры\n- Git\n-если ты умеешь работать с Docker и понимаешь практики DevOps ты тот, кто нам нужен.\nАдекватных руководителей, сильную команду и офисные плюшки гарантируем\nКА Wit recruitment\nКонтакты m.buldenko@witrec.com\n@marinabuldenko","markup":[{"type":"hashtag","offset":0,"length":5,"data":"java"},{"type":"hashtag","offset":6,"length":7,"data":"senior"},{"type":"hashtag","offset":14,"length":8,"data":"backend"},{"type":"hashtag","offset":23,"length":3,"data":"js"},{"type":"hashtag","offset":27,"length":7,"data":"Москва"},{"type":"hashtag","offset":35,"length":9,"data":"fulltime"},{"type":"hashtag","offset":45,"length":5,"data":"офис"},{"type":"hashtag","offset":51,"length":8,"data":"angular"},{"type":"link","offset":1229,"length":21,"data":"mailto:m.buldenko@witrec.com"},{"type":"handle","offset":1251,"length":15,"data":"marinabuldenko"}],"date":"2020-06-16T08:20:47+00:00","link":"tg://resolve?domain=jvmjobs&post=1609","tags":[{"name":"java"},{"name":"jvm"},{"name":"angularjs"},{"name":"spring"},{"name":"rest"},{"name":"hibernate"},{"name":"sql"},{"name":"oracle"},{"name":"postgresql"},{"name":"git"},{"name":"docker"},{"name":"spring-boot"},{"name":"sql-server"}],"cities":[{"code":"moscow"}],"allowsRemote":false}},{"node":{"__typename":"Job","id":"1686110208-1001091028994","title":"Java разработчик","text":"#вакансия #java #senior #middle \nЛокация: Саратов, Самара, Кемерово \nЗП: 80.000-170.000 на руки\nИщем в команду Java dev  уровня middle/senior в связи с большим количеством интересных проектов и расширения команды.\nКратко по стеку: \n[ Java 11+, Maven, Spring Boot 2+, Hibernate 5+, PostgreSQL 12, RabbitMQ ]\nТребования:\n - Java SE 8 и выше \n- Spring / Spring Boot \n- Hibernate или MyBatis\n- SQL (PostgreSQL) \n- Apache Tomcat или Eclipse Jetty или другой app server\n- Принципы ООП\n- Web сервисы (REST или SOAP).\n Будет плюсом: опыт работы с одним из актуальных frontend фреймворков - Angular, React, Vue; понимание принципов работы протоколов HTTP, HTTPS; работа с очередями (ActiveMQ, RabbitMQ) и опыт работы с Docker.\nЧто предлагаем:\n- белая з/п и оформление в штат;\n- интересные проекты и адекватное руководство; \n- возможность профессионального и карьерного роста;\n- формат интервью 1 этап по Skype или Zoom\nДля связи и резюме @KaterinaHR","markup":[{"type":"hashtag","offset":0,"length":9,"data":"вакансия"},{"type":"hashtag","offset":10,"length":5,"data":"java"},{"type":"hashtag","offset":16,"length":7,"data":"senior"},{"type":"hashtag","offset":24,"length":7,"data":"middle"},{"type":"handle","offset":929,"length":11,"data":"KaterinaHR"}],"date":"2020-06-16T07:55:35+00:00","link":"tg://resolve?domain=jvmjobs&post=1608","tags":[{"name":"java"},{"name":"jvm"},{"name":"maven"},{"name":"spring"},{"name":"hibernate"},{"name":"postgresql"},{"name":"rabbitmq"},{"name":"sql"},{"name":"apache"},{"name":"tomcat"},{"name":"eclipse"},{"name":"jetty"},{"name":"web"},{"name":"rest"},{"name":"soap"},{"name":"angularjs"},{"name":"reactjs"},{"name":"vuejs"},{"name":"docker"},{"name":"spring-boot"}],"cities":[{"code":"saratov"},{"code":"samara"},{"code":"kemerovo"}],"allowsRemote":false}},{"node":{"__typename":"Job","id":"1679818752-1001091028994","title":"Java разработчик","text":"#javaвакансия #javaspring #senior #middle\nДобрый день!\nВ настоящий момент нахожусь в поисках ведущего разработчика Java (backend) для международной аутсорсинговой компании (проекты банковского направления).\n160-300 K, Москва, ст.м. Динамо\nСтэк: Java 8, Spring, Spring (Boot, Cloud), Hibernate, SQL, Микросервисы, DevOps, REST-сервисы. \nУсловия: 160 – 300.000 рублей, полностью «белая» заработная плата. В компании регулярно проводится корпоративное обучение, сертификация в технических и бизнес-областях. Помощь в релокации.\nБуду рада ответить на Ваши вопросы: @LyKatrin, ekaterina706712@mail.ru","markup":[{"type":"hashtag","offset":0,"length":13,"data":"javaвакансия"},{"type":"hashtag","offset":14,"length":11,"data":"javaspring"},{"type":"hashtag","offset":26,"length":7,"data":"senior"},{"type":"hashtag","offset":34,"length":7,"data":"middle"},{"type":"handle","offset":561,"length":9,"data":"LyKatrin"},{"type":"link","offset":572,"length":23,"data":"mailto:ekaterina706712@mail.ru"}],"date":"2020-06-15T11:01:34+00:00","link":"tg://resolve?domain=jvmjobs&post=1602","tags":[{"name":"java"},{"name":"jvm"},{"name":"spring"},{"name":"cloud"},{"name":"hibernate"},{"name":"sql"},{"name":"rest"},{"name":"spring-boot"}],"cities":[{"code":"moscow"}],"allowsRemote":false}},{"node":{"__typename":"Job","id":"1677721600-1001091028994","title":"Java developer","text":"#вакансия #java #remote  \nВакансия: Java developer \nКомпания: tracepharm.ru\nФормат работы: удалённо\nЗанятость: полная, частичная (от 30 часов в неделю) \nСтавка: от 1100 до 1300 р/ч\nКонтакты: @Tragoman\n\nОбязанности\n- развитие существующих и разработка новых микросервисов\n- интеграция с внешними системами через REST API\n- работа с СУБД PostgreSQL\n- написание, модификация и оптимизация хранимых процедур в БД\n\nТребования:\n- опыт разработки на JAVA от 2 лет\n- уверенные знания в многопоточности\n- хорошее знание SQL, знание PL/pgSQL или PL/SQL;\n- опыт работы с  Docker контейнерами\n\nНаш стек: от Java 8, PostgreSQL, Apache Camel, Camnda BPM, Spring Framework, Hibernate, ActiveMQ, Kafka, Redis, ELK, ОС Linux\n\nУсловия: \n- работа в распределенной команде\n- гибкий график (работаете в удобное для Вас время)\n- сотрудничаем с ИП\n\nСфера деятельности компании: разработка ПО для участников фармацевтического рынка.","markup":[{"type":"hashtag","offset":0,"length":9,"data":"вакансия"},{"type":"hashtag","offset":10,"length":5,"data":"java"},{"type":"hashtag","offset":16,"length":7,"data":"remote"},{"type":"bold","offset":26,"length":10,"data":""},{"type":"bold","offset":52,"length":9,"data":""},{"type":"link","offset":62,"length":13,"data":"http://tracepharm.ru"},{"type":"bold","offset":76,"length":14,"data":""},{"type":"bold","offset":100,"length":10,"data":""},{"type":"bold","offset":153,"length":7,"data":""},{"type":"bold","offset":181,"length":9,"data":""},{"type":"handle","offset":191,"length":9,"data":"Tragoman"},{"type":"bold","offset":202,"length":12,"data":""},{"type":"bold","offset":410,"length":12,"data":""},{"type":"bold","offset":582,"length":9,"data":""},{"type":"bold","offset":709,"length":10,"data":""},{"type":"bold","offset":826,"length":28,"data":""}],"date":"2020-06-15T06:47:29+00:00","link":"tg://resolve?domain=jvmjobs&post=1600","tags":[{"name":"java"},{"name":"jvm"},{"name":"rest"},{"name":"postgresql"},{"name":"sql"},{"name":"docker"},{"name":"apache"},{"name":"spring"},{"name":"hibernate"},{"name":"kafka"},{"name":"redis"},{"name":"linux"},{"name":"apache-camel"}],"cities":[],"allowsRemote":true}}]}}},"context":{}}