{"hash":"f34fd2c444a074f4e0e67d525015a008ef8e766f","data":{"records":{"id":"java","name":"java","belongsTo":{"totalCount":123,"pageInfo":{"totalPages":13,"currentPage":1},"edges":[{"node":{"__typename":"Job","id":"1435500544-1001091028994","title":"Java разработчик","text":"#ulyanovsk #java #kotlin #backend #spring #middle #senior\n\nЛокация: Ульяновск, можно удаленно, если из другого города (работаем по ТК РФ или как с Российским ИП) \nФормат работы: #офис, #fulltime #remote\nЗ/п: до 150к т.р. (net) \nКомпания: Nord Clan\nКонтакты: @VladislavAg\n\nИщу разработчика в команду Nord Clan. Наша компания разрабатывает системы для бизнеса в области финтеха, медецины и фудтеха. Помимо этого разрабатываем собственные продукты связанные с машинным обучением, распознаванием образов и компьютерным зрением. \nОгромным плюсом будет опыт работы с Kotlin. \nТакже готовы рассмотреть специалистов с опытом в других backend технологиях, которые хотят погрузиться в мир Java.\n\n📌 Мы работаем с:\nJava 8 и выше, Kotlin, Groovy;\nSpring, Spring Boot, Security, Data, MVC;\nРеляционным базами (Postgres\\Oracle) и NoSQL (Mongo\\Cassandra\\Ignite);\nПишем RESTfull приложения с использованием RabbitMQ и Kafka.\n\n📌 В круг твоих обязанностей будет входить:\nПринимать непосредственное участие в командной разработке ПО;\nПроводить и проходить через code-review;\nПринимать участие в проработке архитектурных задач;\nОднако CRUD-сервисы никто не отменял, и мы их тоже пишем;\nПисать качественный код и покрывать его unit-тестами.\n\n📌Тебе к нам, если ты хочешь:\nРаботать в компании, где нет формальностей и бюрократии;\nРаботать в команде с четко выстроенным процессом разработки;\nИметь возможность пройти сертификацию OCP за счет компании;\nОформление по ТК РФ, белую зарплату;","markup":[{"type":"hashtag","offset":0,"length":10,"data":"ulyanovsk"},{"type":"hashtag","offset":11,"length":5,"data":"java"},{"type":"hashtag","offset":17,"length":7,"data":"kotlin"},{"type":"hashtag","offset":25,"length":8,"data":"backend"},{"type":"hashtag","offset":34,"length":7,"data":"spring"},{"type":"hashtag","offset":42,"length":7,"data":"middle"},{"type":"hashtag","offset":50,"length":7,"data":"senior"},{"type":"hashtag","offset":178,"length":5,"data":"офис"},{"type":"hashtag","offset":185,"length":9,"data":"fulltime"},{"type":"hashtag","offset":195,"length":7,"data":"remote"},{"type":"handle","offset":258,"length":12,"data":"VladislavAg"}],"date":"2020-04-10T12:23:59+00:00","link":"tg://resolve?domain=jvmjobs&post=1369","tags":[{"name":"java"},{"name":"jvm"},{"name":"kotlin"},{"name":"spring"},{"name":"dotnet"},{"name":"groovy"},{"name":"postgresql"},{"name":"oracle"},{"name":"nosql"},{"name":"cassandra"},{"name":"rabbitmq"},{"name":"kafka"},{"name":"spring-boot"}],"cities":[{"code":"ulyanovsk"}],"allowsRemote":true}},{"node":{"__typename":"Job","id":"66423095296-1001054966032","title":"Android разработчик","text":"#вакансия #android #java #kotlin #удаленка #remote\n\n🔸Мы компания Ok Pixel, занимаемся заказной разработкой сайтов и приложений.\n🔸Наш веб сайт: http://www.okpixels.ru\n🔸Ищем Android разработчика уровня Senior на проект (8-12 месяцев)\n\n🔹Формат работы: удалёнка, #fulltime\n🔹Локация: не имеет значения\n🔹Зарплата: от 180 000 до 220 000 рублей в месяц\n🔹Основной стэк: Java, Kotlin\n\n▫️КОРОТКО О ПРОЕКТЕ\nЭлектронный путевой лист, контроль выхода на линию автотранспорта, наблюдения за выходом на линию машины.\n\n💡Контакты: @ruslan_work","markup":[{"type":"hashtag","offset":0,"length":9,"data":"вакансия"},{"type":"hashtag","offset":10,"length":8,"data":"android"},{"type":"hashtag","offset":19,"length":5,"data":"java"},{"type":"hashtag","offset":25,"length":7,"data":"kotlin"},{"type":"hashtag","offset":33,"length":9,"data":"удаленка"},{"type":"hashtag","offset":43,"length":7,"data":"remote"},{"type":"bold","offset":66,"length":8,"data":""},{"type":"bold","offset":131,"length":12,"data":""},{"type":"link","offset":145,"length":22,"data":"http://www.okpixels.ru"},{"type":"bold","offset":175,"length":7,"data":""},{"type":"bold","offset":236,"length":15,"data":""},{"type":"hashtag","offset":263,"length":9,"data":"fulltime"},{"type":"bold","offset":275,"length":7,"data":""},{"type":"bold","offset":304,"length":8,"data":""},{"type":"bold","offset":353,"length":13,"data":""},{"type":"bold","offset":382,"length":20,"data":""},{"type":"italic","offset":402,"length":107,"data":""},{"type":"bold","offset":509,"length":10,"data":""},{"type":"handle","offset":521,"length":12,"data":"ruslan_work"}],"date":"2020-04-10T12:18:36+00:00","link":"tg://resolve?domain=mobile_jobs&post=63346","tags":[{"name":"mobile"},{"name":"android"},{"name":"java"},{"name":"kotlin"}],"cities":[],"allowsRemote":true}},{"node":{"__typename":"Job","id":"16263413760-1001110946746","title":"Js developer","text":"#вакансия #офис\n\nTeam Lead (Node.js/React)\n\nГород: Мюнхен, Германия\nФормат занятости: офис\nТип занятости: полная \nЗаплата: 6000-7000 евро в месяц.\nКалькулятор налогов:\nkaiser-estate.ru/raschet-nalogov-i-socialnih-otchisleniy-po-zarplate-v-germanii.html\nРелокейт пакет \n\nОписание компании: \nCHECK24\nCompany is the leading price comparison platform in Germany. The company employs over a 2000 employees in 7 offices around the Germany with HQ in Munich \n\nRequirements\nYou have extensive experience in backend development using following languages (Node.js, C#, Java, Python or similar). You have experience of leading a team or ready to develop your management skills. You have proficient English or German level.\nExperience as a Full Stack Web Developer\nNode.js, or other OOP languages (Java, .NET, PHP, etc)\nDocker or knowledge of other containers\nCloud providers (the client is using AWS)\nUnit Testing and precise tools\nDevOps tools\nFrameworks as React, Angular / general knowledge of JavaScript\nConsiderable knowledge of MongoDB and experience with other databases\nBenefits\nVisa sponsorship and relocation budget\nYou will also be part of a company that values teamwork and life balance\nYou will get the chance to immerse yourself in German culture fully, with language courses and the opportunity to live in Munich, one of the most cultural and international cities in Germany\nWhat is more, you will have the chance to work with cutting edge technologies in one of the largest tech companies in Germany\nКонтакты:\n\nКомпания КА Zero to One search \nzerotoonesearch.com\nНаталья natalya@zerotoonesearch.com\nSkype: na.yarkova\n\n—\n\n👉 Обсуждение вакансии в чате @javascript_jobs","markup":[{"type":"hashtag","offset":0,"length":9,"data":"вакансия"},{"type":"hashtag","offset":10,"length":5,"data":"офис"},{"type":"link","offset":168,"length":84,"data":"http://kaiser-estate.ru/raschet-nalogov-i-socialnih-otchisleniy-po-zarplate-v-germanii.html"},{"type":"link","offset":1548,"length":19,"data":"http://zerotoonesearch.com"},{"type":"link","offset":1576,"length":27,"data":"mailto:natalya@zerotoonesearch.com"},{"type":"handle","offset":1656,"length":16,"data":"javascript_jobs"}],"date":"2020-04-10T12:01:17+00:00","link":"tg://resolve?domain=javascript_jobs_feed&post=15510","tags":[{"name":"javascript"},{"name":"nodejs"},{"name":"reactjs"},{"name":"html"},{"name":"java"},{"name":"python"},{"name":"web"},{"name":"dotnet"},{"name":"php"},{"name":"docker"},{"name":"cloud"},{"name":"amazon-web-services"},{"name":"angularjs"},{"name":"mongodb"},{"name":"unit-testing"}],"cities":[{"code":"munich"}],"allowsRemote":false}},{"node":{"__typename":"Job","id":"1992294400-1001134745498","title":"Devops engineer","text":"#вакансия #devops #linux #москва #senior\n\nКомпания OOMA (ooma.com) ищет  Senior Kubernetes/Java Engineer \n - Город и адрес офиса: Москва (Москва Сити, м. Деловой Центр)\n - Формат работы: в офисе (не удаленка), на время коронавируса удаленка\n - Занятость: полный день \n - Зарплатная вилка: от 220 000 руб до 280 000 руб. на руки\n\nОписание вакансии:\n - Стек: K8S, Docker, Java, Spring\nТребования: \n - Твердые познания в Kubernetes, Docker, etc.\n - Желателен опыт программирования на Java с использованием Spring, Hibernate\n - Опыт программирования на Java и/или C++ от 5 лет\n - Знание основных подходов к разработке архитектур микросервисных приложений\n - Знaние Linux, bash, etc.\n - Знание сетевых протоколов: TCP/IP\n - Знание сетей: Ethernet и Wi-Fi\n - Знание разговорного английского языка (предстоит много общения с американцами)\n\nОбязанности\n - Развертывать микросервисные приложения в Kubernetes\n - Писать и/или дорабатывать существующие Dockerfile'ы для микросервисов, разработанных на Java, C++, Python, Ruby\n - Разрабатывать микросервисные приложения, по большей части их дорабатывать с целью миграции в контейнеры\n - Разрешать проблемы совместимости между различными приложениями в OOMA инфраструктуре\n\nУсловия труда:\n - Белая ЗП от 220 000 руб до 280 000 руб. на руки\n - Годовой персональный бюджет $1500 на поездки на конференции\n - 1 день в неделю можно работать удаленно\n - Командировки в US\n - Работа в офисе в Москва Сити, м. Деловой Центр. Не удалёнка.  \n - Оплачиваются занятия английским языком\n - Решение интересных, зачастую нестандартных, задач\n - Apple техника (MacBook Pro + 4K монитор)\n - ДМС\n - Компенсация расходов на занятия спортом\n - Гибкий рабочий график\n - Фрукты, кофе, чай, шоколадки, печенье\n \nНазвание компании: OOMA \n\nКонтакты:\n@u35tpus\noleg.levchenko@ooma.com\n\n—\n\n👉 Обсуждение вакансии в чате @devops_jobs","markup":[{"type":"hashtag","offset":0,"length":9,"data":"вакансия"},{"type":"hashtag","offset":10,"length":7,"data":"devops"},{"type":"hashtag","offset":18,"length":6,"data":"linux"},{"type":"hashtag","offset":25,"length":7,"data":"москва"},{"type":"hashtag","offset":33,"length":7,"data":"senior"},{"type":"link","offset":57,"length":8,"data":"http://ooma.com"},{"type":"handle","offset":1763,"length":8,"data":"u35tpus"},{"type":"link","offset":1772,"length":23,"data":"mailto:oleg.levchenko@ooma.com"},{"type":"handle","offset":1830,"length":12,"data":"devops_jobs"}],"date":"2020-04-10T11:42:06+00:00","link":"tg://resolve?domain=devops_jobs_feed&post=1900","tags":[{"name":"linux"},{"name":"kubernetes"},{"name":"java"},{"name":"docker"},{"name":"spring"},{"name":"hibernate"},{"name":"bash"},{"name":"python"},{"name":"ruby"}],"cities":[{"code":"moscow"}],"allowsRemote":true}},{"node":{"__typename":"Job","id":"98358525952-1001089317451","title":"Qa инженер","text":"#вакансия #мтс #стартап #manual #automate #москва #офис #мск #mobile\n🏢Компания: MTC\n🏙Город: Москва, м. Комсомольская\n💰Зп: от 90к (обсуждается по результатам собеседования)\n\nМы отдельный проект новой стриминговой платформы в МТС - WASD.tv. Мы разрабатываем инновационную платформу для стриминга и монетизации для стримеров на территории СНГ, и в скором времени планируем покорять другие страны Европы, Азии и Америки!\nРаботаем преимущественно c REST API, пишем на js и go, полноценные стенды (stage, qa, dev) в kubernetes. Активно внедряем BDD. Команда QA развивает свой инновационный фреймворк автотестирования на Java для всех платформ проекта! На данный момент, нужен в мобильную команду QA Automation/ QA Mobile.\n\nОбязанности\n✔️ проведение ручного тестирования мобильных приложений (iOS, Android);\n✔️ локализация и документирование найденных дефектов;\n✔️написание и поддержка имеющейся документации;\n✔️взаимодействие с разработчиками;\n✔️поддержание и развитие мобильного фреймворка;\n✔️разработка BDD сценариев и их автоматизация.\n\nТребования:\n✔️опыт ручного тестирования мобильных приложений от 2 лет;\n✔️опыт автоматизированного тестирования на Java (Appium+Сucumber) от 1 года;\n✔️знание методологий тестирования;\n✔️опыт работы с системами CI (Jenkins, Teamcity);\n✔️опыт работы с  Charles, Appium, Postman, Chrome DevTools, Kibana.\n\nУсловия:\n✅ работа из офиса 5/2;\n✅ гибкое начало рабочего дня;\n✅ различные спец. предложения для сотрудников МТС;\n✅ полугодовые премии;\n✅ все белое, оформление по ТК РФ.\n\n📲Контакты: daordynt@mts.ru или в лс (в телеге)","markup":[{"type":"hashtag","offset":0,"length":9,"data":"вакансия"},{"type":"hashtag","offset":10,"length":4,"data":"мтс"},{"type":"hashtag","offset":15,"length":8,"data":"стартап"},{"type":"hashtag","offset":24,"length":7,"data":"manual"},{"type":"hashtag","offset":32,"length":9,"data":"automate"},{"type":"hashtag","offset":42,"length":7,"data":"москва"},{"type":"hashtag","offset":50,"length":5,"data":"офис"},{"type":"hashtag","offset":56,"length":4,"data":"мск"},{"type":"hashtag","offset":61,"length":7,"data":"mobile"},{"type":"link","offset":233,"length":7,"data":"http://wasd.tv/"},{"type":"bold","offset":720,"length":12,"data":""},{"type":"bold","offset":1037,"length":12,"data":""},{"type":"bold","offset":1339,"length":9,"data":""},{"type":"link","offset":1521,"length":15,"data":"mailto:daordynt@mts.ru"}],"date":"2020-04-10T11:23:43+00:00","link":"tg://resolve?domain=qa_jobs&post=93802","tags":[{"name":"qa"},{"name":"mobile"},{"name":"rest"},{"name":"kubernetes"},{"name":"java"},{"name":"ios"},{"name":"android"},{"name":"jenkins"}],"cities":[{"code":"moscow"}],"allowsRemote":false}},{"node":{"__typename":"Job","id":"98356428800-1001089317451","title":"Qa engineer","text":"#вакансия #fulltime #тестировщик  #полнаязанятость #офис #qa #job #qajob #qaengineer #test #testing   #manual #тестер #тест #тестирование #офис #полнаязанятость #вакансия #работа #Москва #МСК \n▪️  Город:  Москва\n▪️  Компания:  Инновационный Центр Айтеко\n▪️  Позиция:   Тестировщик РФТ ( ручное функциональное тестирование\n▪️  Опыт:  от 1 года и выше\n▪️  Формат работы:   офис    \n▪️  Занятость:   полный день                                  \n▪️  Заработная  плата:  💰 от 100 000 до 160 000 (в зависимости от опыта)\n\nАй-Теко - ведущий российский системный интегратор и поставщик информационных технологий для корпоративных заказчиков. ТОП-10 крупнейших IT-компаний России.\n\nЧто хотим видеть в кандидате:\n• Опыт функционального или интеграционного тестирования web-приложений (frontend & backend)\n• Опыт по написанию тест-кейсов \n• Опыт работы с требованиями\n• Опыт работы с таск и баг-трекинговыми системами (Jira)\n• Опыт тестирования API\n• Знание SQL на уровне join-ов и работы с вложенными подзапросами\n• Познания в теории тестирования, процессов разработки ПО и методологий разработки \n\nБудет плюсом:\n• Знание и опыт разработки автотестов на Selenium (Java), web-driver, cucumber\n• Знание и опыт работы с HP QuickTest Professional;\n• Понимание одного из языков программирования (Java, C++).\n\nЧто предлагаем:\n• Полностью белое официальное оформление\n• Бонусы обсуждаются индивидуально\n• ДМС включая стоматологию\n• Скидки на фитнес\n• Обучение\n• Возможность участвовать в масштабных проектах, создавать то, чем будут пользоваться миллионы людей.\n\nПишите:\n @Taisia_Feo   Анастасия","markup":[{"type":"hashtag","offset":0,"length":9,"data":"вакансия"},{"type":"hashtag","offset":10,"length":9,"data":"fulltime"},{"type":"hashtag","offset":20,"length":12,"data":"тестировщик"},{"type":"hashtag","offset":34,"length":16,"data":"полнаязанятость"},{"type":"hashtag","offset":51,"length":5,"data":"офис"},{"type":"hashtag","offset":57,"length":3,"data":"qa"},{"type":"hashtag","offset":61,"length":4,"data":"job"},{"type":"hashtag","offset":66,"length":6,"data":"qajob"},{"type":"hashtag","offset":73,"length":11,"data":"qaengineer"},{"type":"hashtag","offset":85,"length":5,"data":"test"},{"type":"hashtag","offset":91,"length":8,"data":"testing"},{"type":"hashtag","offset":102,"length":7,"data":"manual"},{"type":"hashtag","offset":110,"length":7,"data":"тестер"},{"type":"hashtag","offset":118,"length":5,"data":"тест"},{"type":"hashtag","offset":124,"length":13,"data":"тестирование"},{"type":"hashtag","offset":138,"length":5,"data":"офис"},{"type":"hashtag","offset":144,"length":16,"data":"полнаязанятость"},{"type":"hashtag","offset":161,"length":9,"data":"вакансия"},{"type":"hashtag","offset":171,"length":7,"data":"работа"},{"type":"hashtag","offset":179,"length":7,"data":"Москва"},{"type":"hashtag","offset":187,"length":4,"data":"МСК"},{"type":"bold","offset":197,"length":6,"data":""},{"type":"bold","offset":216,"length":9,"data":""},{"type":"bold","offset":258,"length":8,"data":""},{"type":"bold","offset":326,"length":5,"data":""},{"type":"bold","offset":354,"length":14,"data":""},{"type":"bold","offset":384,"length":10,"data":""},{"type":"bold","offset":447,"length":18,"data":""},{"type":"bold","offset":518,"length":7,"data":""},{"type":"bold","offset":675,"length":29,"data":""},{"type":"bold","offset":1091,"length":13,"data":""},{"type":"bold","offset":1296,"length":15,"data":""},{"type":"bold","offset":1548,"length":7,"data":""},{"type":"handle","offset":1557,"length":11,"data":"Taisia_Feo"}],"date":"2020-04-10T11:07:06+00:00","link":"tg://resolve?domain=qa_jobs&post=93800","tags":[{"name":"qa"},{"name":"web"},{"name":"sql"},{"name":"selenium"},{"name":"java"},{"name":"cucumber"}],"cities":[{"code":"moscow"}],"allowsRemote":false}},{"node":{"__typename":"Job","id":"1434451968-1001091028994","title":"Java developer","text":"Вакансия: Senior Java developer \n\nБольшой интергационный проект: разработка платформы финансового маркетплейса для физических лиц, проект  стартует в сентябре-декабре 2020 г. \n\nЗадачи на новый проект:\n\nНачать разработку и отладку BPM-слоя платформы, основанной на микросервисной архитектуре с использованием - Java 8; Spring Framework (Core, MVC, Boot); Camunda BPM; Apache Kafka; Hibernate; Docker; PostgreSQL. \n\nВзаимодействие со смежными командами и определение зон ответственности при реализации задач.\n\nПодготовка рекомендаций по внедрению новых технологии, решений, подходов.\n\nНастройка CI/CD процессов. \n\nТребования:\n\nГлубокие знание java core.\nОпыт в java от 3-х лет.\nЗнание подходов CI/CD. \nОтличные организационные и коммуникативные навыки. \n\nЛокация офиса: г. Москва, м. Арбатская/Библиотека им. Ленина/Боровицкая/Александровский сад. \nЗанятость: полная, официальное оформление в штат Компании. \nДМС: с первого рабочего дня. \nФормат работы: современный  офис возле кремля в шаговой доступности от метро (сейчас работаем из дома, возможно, после выхода в офисе многое поменяется))).\nКомпания: ПАО Московская биржа (Компания входящая в 500 - лучших работодателей мира по версии Forbes за 2019 год). \nУровень з/п:  230- 300 тыс.руб. + годовой бонус.\nФормат интервью: один этап интервью по Skype (60 минут). \nКоманда: абсолютно новая команда, почти (3 вакансии senior developer) сформирована за период февраль - март 2020 г. \n\n\nПишите в личку, отвечу на любые вопросы!\nКонтакты: @Sasha_P92","markup":[{"type":"handle","offset":1486,"length":10,"data":"Sasha_P92"}],"date":"2020-04-10T10:34:17+00:00","link":"tg://resolve?domain=jvmjobs&post=1368","tags":[{"name":"java"},{"name":"jvm"},{"name":"spring"},{"name":"apache"},{"name":"kafka"},{"name":"hibernate"},{"name":"docker"},{"name":"postgresql"}],"cities":[{"code":"moscow"}],"allowsRemote":false}},{"node":{"__typename":"Job","id":"24391974912-1001075660570","title":"Php разработчик","text":"#вакансия #удаленка#php #yii\n #штат #highload #ecommerce #официально\n\nРебята, наша компания Hidden Team расширяет штат и приглашает на работу backend-разработчиков уровня middle/middle+ c опытом работы на фреймворке Yii. Мы занимаемся разработкой highload проектов в сфере e-commerce и сложных ERP систем. Сотрудничаем с топовыми веб-студиями и digital-агентствами России.\n\nЧто бы мы хотели видеть у наших кандидатов?\n🔸Хорошие знания программирования (PHP, ООП).\n🔸Опыт работы на фреймворке Yii/Laravel/Symfony\n🔸Опыт работы с Git.\n🔸Опыт работы в консоли linux.\n🔸Базовые знания html, java script, css.\n🔸Понимание принципов построения RESTFul сервисов.\n🔸Желателен опыт работы с чем-либо RabbitMQ, Redis, ElasticSearch, PostgreSQL.\n🔸Английский на уровне чтения технической документации.\n\nЛичные качества: аккуратность, внимательность к мелочам, самостоятельность и организованность, умение работать в команде, быстро реагировать на запросы и изменение ситуации, желание обучаться и развиваться, стремление сделать работу максимально качественно.\n\nМы предлагаем:\n🔹только удаленная работа с отлаженным процессом менеджмента проектов (трекинг в Redmine, оценка задач разработчиками);\n🔹работа над сложными e-commerce проектами для крупнейших российских веб-студий (топ-10 рейтинга рунета);\n🔹многосерверная архитектура, высокие нагрузки (500К+ посетителей/месяц);\n🔹множество различных интеграций с большими объемами данных;\n🔹индивидуальные планы развития;\n🔹обучение и семинары внутри компании, собственная он-лайн школа на стадии запуска;\n🔹перспективы карьерного роста (повышения уровня разработчика до senior/team lead, возможность релокации);\n🔹 заработная плата 70К-120К+ по итогам собеседования (белая, на руки), открытая система грейдов;\n🔹 официальное оформление по ТК РФ, оплачиваемый отпуск, удобный график (начало работы 8-11), в выходные, праздники и по ночам не работаем☺️.\n\nКонтакты: Яна @yanaizosimova","markup":[{"type":"hashtag","offset":0,"length":9,"data":"вакансия"},{"type":"hashtag","offset":24,"length":4,"data":"yii"},{"type":"hashtag","offset":30,"length":5,"data":"штат"},{"type":"hashtag","offset":36,"length":9,"data":"highload"},{"type":"hashtag","offset":46,"length":10,"data":"ecommerce"},{"type":"hashtag","offset":57,"length":11,"data":"официально"},{"type":"handle","offset":1906,"length":14,"data":"yanaizosimova"}],"date":"2020-04-10T10:05:28+00:00","link":"tg://resolve?domain=php_jobs&post=23262","tags":[{"name":"php"},{"name":"yii"},{"name":"laravel"},{"name":"symfony"},{"name":"git"},{"name":"linux"},{"name":"html"},{"name":"java"},{"name":"css"},{"name":"rabbitmq"},{"name":"redis"},{"name":"elasticsearch"},{"name":"postgresql"}],"cities":[],"allowsRemote":true}},{"node":{"__typename":"Job","id":"66410512384-1001054966032","title":"Mobile developer","text":"#вакансия  #iOS  #developer  #swift  #middle  #senior  #иннополис  #казань\n\nMobile Frontend Developer – iOS\n\nCompany: NNG\nVacancy: Middle/Senior iOS Developer\nLocation: Innopolis, Kazan\nWork format: office\nEmployment: full time\nS/p: from 180 to 250 k net\n\nAt NNG we develop the next generation of navigation and infotainment technology to improve driving experience, working with 7 of the top 10 car manufacturers worldwide. Headquartered in Hungary, we have a global footprint with coverage in almost 200 countries and 12 company offices worldwide. We have recently established a new development center in Kazan, tasked with delivering customized cutting-edge solutions to Russian vehicle manufacturers. In addition, the Kazan office will also develop independent, reusable software components for the global market, primarily frontend software (JavaScript, iOS and Android) and Java backend microservices.\n\nWhat would be your job? \n♦️ Work on mobile and automotive navigation software development\n🔹Work on various projects with international clients from all parts of the world\n♦️ Work in close cooperation with project managers and development teams both locally and in the Budapest office\n🔹Design, develop, code, test and debug; own your code\n\nIf you have... \n♦️Experience developing, testing, and releasing iOS apps\n🔹Knowledge of Objective-C and Swift, UIKit\n♦️Experience collaborating with designers on usability and aesthetics of apps\n🔹Strong experience in writing and maintaining testable code and unit tests\n♦️Experience with git-based version control systems\n🔹Strong written and verbal communication skills in English\n♦️ Experience working with global teams\nmoreover, you have any of the following: \n🔹Familiarity with JavaScript\n♦️Familiarity with Flutter\n🔹Experience in Agile development, especially SaFE and SCRUM\n♦️Willingness to get familiar with new technologies\n🔹Experience in working as a team player\nWhat can we give you in return? \n♦️ A job at a successful global company in Innopolis, where you can learn from the best\n🔹Serious professional challenges\n♦️A secure and well-paid job\n🔹The opportunity to develop the navigation software of the future in the present\n♦️A youthful team\n🔹The opportunity of working abroad for several weeks\n\nContacts: ✒️hr.vkulneva@gmail.com, @viktoriyakulneva","markup":[{"type":"hashtag","offset":0,"length":9,"data":"вакансия"},{"type":"hashtag","offset":11,"length":4,"data":"iOS"},{"type":"hashtag","offset":17,"length":10,"data":"developer"},{"type":"hashtag","offset":29,"length":6,"data":"swift"},{"type":"hashtag","offset":37,"length":7,"data":"middle"},{"type":"hashtag","offset":46,"length":7,"data":"senior"},{"type":"hashtag","offset":55,"length":10,"data":"иннополис"},{"type":"hashtag","offset":67,"length":7,"data":"казань"},{"type":"link","offset":2275,"length":23,"data":"http://✒️hr.vkulneva@gmail.com"},{"type":"handle","offset":2300,"length":17,"data":"viktoriyakulneva"}],"date":"2020-04-10T09:54:55+00:00","link":"tg://resolve?domain=mobile_jobs&post=63334","tags":[{"name":"mobile"},{"name":"android"},{"name":"ios"},{"name":"swift"},{"name":"dotnet"},{"name":"javascript"},{"name":"java"},{"name":"objective-c"},{"name":"uikit"},{"name":"git"},{"name":"flutter"}],"cities":[{"code":"kazan"},{"code":"budapest"}],"allowsRemote":false}},{"node":{"__typename":"Job","id":"98345943040-1001089317451","title":"Qa engineer","text":"#Москва #офис #вакансия\n\nВакансия: QA Engineer\nКомпания: Самозанятые(самозанятые.рф)\nГород: Москва\nЗ/п: от 70.000\n\n\nОсновные задачи:\n• Проверка работоспособности и отказоустойчивости всей системы\n• Тестирование работы API модулей системы по документации\n• Проверка корректности отображения и доставки уведомлений, рассылок\n \nОт вас:\n• Опыт в позиции QA Engineer более 1 года;\n• Опыт работы с web-приложениями и мобильными приложениями.\n• Вести QA документацию.\n• Знания методологии и подходы тестирования, способность применять различные техники тестирования в зависимости от задач;\n• Внимательность к деталям, способность работать как в команде, так и самостоятельно.\n \nНаш стек:\n• SQL, NoSQL\n• JS\n• Java\n• И многое другое, которое под NDA","markup":[{"type":"hashtag","offset":0,"length":7,"data":"Москва"},{"type":"hashtag","offset":8,"length":5,"data":"офис"},{"type":"hashtag","offset":14,"length":9,"data":"вакансия"},{"type":"link","offset":69,"length":14,"data":"http://самозанятые.рф"}],"date":"2020-04-10T08:33:26+00:00","link":"tg://resolve?domain=qa_jobs&post=93790","tags":[{"name":"qa"},{"name":"web"},{"name":"sql"},{"name":"nosql"},{"name":"java"}],"cities":[{"code":"moscow"}],"allowsRemote":false}}]}}},"context":{}}