{"hash":"f5f6bf98bd95e769321482904cbbd488f77922fd","data":{"records":{"id":"redis","name":"redis","belongsTo":{"totalCount":86,"pageInfo":{"totalPages":9,"currentPage":8},"edges":[{"node":{"__typename":"Job","id":"1684013056-1001091028994","title":"Java разработчик","text":"#java #java11 #tarantool #lua #redis #kotlin \n\nКомпания #Иннодата (ГК Ramax) - системный интегратор с офисами в #Москва, #Питер, #Воронеж, #Иннополис. \nФормат работы #офис, #fulltime #remote\nВилка: от 200 net на руки\nКонтакт для связи: pbokarev@innodata.ru \n\n📌Задача: Нам предстоит разработать один из центральных компонентов ИТ системы крупнейшей ритейл сети.\n\nГеораспределённую mission-critical платформу, работающую в режиме 24/7 365, объединяющую информацию из всех подразделений и IT-систем, связанных с клиентом, в единый профиль. К системе предъявляются жесткие требования ко времени отклика и rps. Ядром системы мы выбрали tarantool - одно из самых навороченных imdg решений на данный момент. Мы ищем человека, который не боится новых вызовов и готов развиваться, устал от бесконечный crud'ов и хочет попробовать себя в highload. Готовы рассмотреть кандидатов разного уровня!\n\n📌Наши плюсы:\nНикакого legacy, тк проект только начинается, есть возможность поучаствовать в выборе стека. Современные технологии, мощный кластер, после окончания проекта возможность работы на других проектах (scala, BIgData)\n\n📌Стек технологий:\nJava 11;\nTarantool (Lua);\nClickhouse;\nPostgreSQL;\n\n📌Требования:\nОпыт коммерческой разработки на Java более 2 лет. Будет плюсом умение писать на Kotlin;\nSQL, опыт проектирования реляционнных баз данных;\nОпыт использования Tarantool или Redis (Lua);\nПонимание разницы OLAP и OLTP;\n\n📌Будет плюсом:\nОпыт работы с распределёнными системами;\nОпыт разработки highload систем;\nОпыт разработки многопоточных приложений;\n\n📌Обязанности:\nУчастие в проектировании архитектуры и детализации работ;\nНепосредсвенно реализация задач;\nПокрытие нового функционала тестами (unit, регрессионные);","markup":[{"type":"hashtag","offset":0,"length":5,"data":"java"},{"type":"hashtag","offset":6,"length":7,"data":"java11"},{"type":"hashtag","offset":14,"length":10,"data":"tarantool"},{"type":"hashtag","offset":25,"length":4,"data":"lua"},{"type":"hashtag","offset":30,"length":6,"data":"redis"},{"type":"hashtag","offset":37,"length":7,"data":"kotlin"},{"type":"hashtag","offset":56,"length":9,"data":"Иннодата"},{"type":"hashtag","offset":112,"length":7,"data":"Москва"},{"type":"hashtag","offset":121,"length":6,"data":"Питер"},{"type":"hashtag","offset":129,"length":8,"data":"Воронеж"},{"type":"hashtag","offset":139,"length":10,"data":"Иннополис"},{"type":"hashtag","offset":166,"length":5,"data":"офис"},{"type":"hashtag","offset":173,"length":9,"data":"fulltime"},{"type":"hashtag","offset":183,"length":7,"data":"remote"},{"type":"link","offset":236,"length":20,"data":"mailto:pbokarev@innodata.ru"}],"date":"2020-06-16T07:13:08+00:00","link":"tg://resolve?domain=jvmjobs&post=1606","tags":[{"name":"java"},{"name":"jvm"},{"name":"lua"},{"name":"redis"},{"name":"kotlin"},{"name":"dotnet"},{"name":"scala"},{"name":"postgresql"},{"name":"sql"}],"cities":[{"code":"moscow"},{"code":"voronezh"}],"allowsRemote":true}},{"node":{"__typename":"Job","id":"16954425344-1001110946746","title":"Js разработчик","text":"#вакансия #удалённо #nestjs #nest #fullstack #typescript \n\nFullstack TypeScript Developer\n\nhttps://edm-ghost-production.com ищет в команду разработчика для создания музыкальной платформы. \n\n⭐Стек: \nNode.Js, TypeScript, Express, NestJS, TypeOrm, PostgreSQL, Redis, Vue \n\n🔻 Требования:\n- Опыт работы с NestJS (не менее 6 месяцев), TypeOrm;\n- Опыт работы с Vue (vue-class-component, vue-property-decorator) не менее года\n- Знания ES6/ES7/ES8;\n- REST APIs, на основе Express и NestJS;\n- Опыт работы с PostgreSQL; \n- Typescript (не менее года)\n- ESLint;\n- Знание основ систем контроля версий (Git);\n- Умение работать в команде и писать чистый код;\n\n💥Будет плюсом:\n- AWS S3;\n- Интеграция с Helpdesk (Zendesk/Intercom/Helpcrunch etc.)\n\n🙋♂Обязанности:\n- Разработка бэкенда и фронтэнда нового приложения \n- Взаимодействие с другими разработчиками\n\n🔹Условия:\n- Удалённая работа\n- Полная занятость \n- Гибкий график работы (важно что бы все задачи были выполнены)\n- Зарплатная вилка 120 000 - 200 000 рублей (в зависимости от уровня кандидата middle/senior)\n\nПрисылайте CV в ЛС @alexlarichev","markup":[{"type":"hashtag","offset":0,"length":9,"data":"вакансия"},{"type":"hashtag","offset":10,"length":9,"data":"удалённо"},{"type":"hashtag","offset":20,"length":7,"data":"nestjs"},{"type":"hashtag","offset":28,"length":5,"data":"nest"},{"type":"hashtag","offset":34,"length":10,"data":"fullstack"},{"type":"hashtag","offset":45,"length":11,"data":"typescript"},{"type":"link","offset":91,"length":32,"data":"https://edm-ghost-production.com"},{"type":"handle","offset":1070,"length":13,"data":"alexlarichev"}],"date":"2020-06-16T06:34:02+00:00","link":"tg://resolve?domain=javascript_jobs_feed&post=0","tags":[{"name":"javascript"},{"name":"typescript"},{"name":"nodejs"},{"name":"express"},{"name":"postgresql"},{"name":"redis"},{"name":"vuejs"},{"name":"rest"},{"name":"git"},{"name":"amazon-web-services"}],"cities":[],"allowsRemote":true}},{"node":{"__typename":"Job","id":"340787200-1001352129329","title":"Golang разработчик","text":"#вакансия #Москва #senior #Go #fulltime #офис #удаленка  \nВакансия: Lead or Senior Golang Developer \nКомпания: Skytech Solutions\nГород: Moscow/Malta\nФормат работы: офис или удаленка (на выбор кандидата)\nЗанятость: полная\nВилка заработной платы: от 180 000 - 230 000 р на руки\n\nТребуемый опыт работы: 3–6 лет.\nПолная занятость, полный день\n\nОбязанности:\nСоздание высоконагруженных сервисов / микро-сервисов;\nРазработка интеграции с внешними сервисами;\nРазработка платформы для Betting / Gambling;\nРазработка надежной, безопасной и безотказной экосистемы;\nРешение сложных и интересных задач;\n\nТребования:\nИметь опыт коммерческой разработки ПО на Go не менее 3-х лет, отличное знание языка и экосистемы;\nПонимание многопоточности, параллельных вычислений и широко используемых структур данных и алгоритмов;\nПонимание основных паттернов проектирования;\nУмение работать с контролем версий Git;\nУверенно знаете стек TCP / IP;\nЗнаете RFC стандартны HTTP / WebSockets;\nРаботаете с REST / GraphQL;\nЗнание лучших практик разработки микро-сервисных архитектур, Docker и опыт production релизов совместно с девопс инженерами;\nИмеете опыт написания высоконагруженных систем;\nРаботаете unix-подобными системами;\nОтличное знание SQL и одной из реляционных СУБД.\nСильные навыки решения проблем, желание работать в команде;\n\nБудет плюсом:\nПрофильное высшее образование (математическое или техническое);\nИмеете опыт разработки подобных решений (Ставки на спорт/Gambling/Poker/Trade)\nЗнание Алгоритмов\nОпыт работы с Графовыми базами данных;\n\nSoft skills:\nРешать поставленные задачи максимально эффективно в поставленный срок;\nЯвляться командным разработчиком, слышать других и учитывать чужое мнение;\nПонимать, что не надо делать overhead там, где это не надо;\nБыть самостоятельным и уметь брать на себя ответственность за свои решения;\nСчитать тестирование неотъемлемой частью разработки;\nСпокойно относиться к техническому долгу, так как это нормальный этап в развитии проекта;\n\nНемного о проекте:\nВ связи с расширением нашего портфеля проектов, мы находится в поисках квалифицированных разработчиков ПО.\nМы разрабатываем  высоконагруженный проект, связанный со ставками на sport/e-sport , фактически - это биржа ставок со своими сопутствующими сервисами, в нашем случае упор идет на Algo-trading, bot platform, AI и алгоритмы. Проект очень сложный и интересный, нет Legacy кода, все разрабатывается с 0. Будем рады видеть тебя в своих рядах.\nНаш стек :\nLinux, Go, PostgreSQL, Git, ArangoDB, Tarantool, Kafka, Redis.\n\nМы предлагаем:\nВозможность карьерного и профессионального роста в международной компании;\nРабота по контракту с зарубежной компанией (Мальта);\nВысокий уровень заработной платы;\nБонусы и премии по итогам выполненных задач;\nРазработка ведется по гибким методологиям;\nВозможна удаленная работа;\nГибкий график работы, но без фанатизма (главное - это качественное выполнение задач в сжатые сроки);\nПК - MacBook;\nМолодой профессиональный коллектив.\n\nКонтакты: telegram @FreddyNigma","markup":[{"type":"hashtag","offset":0,"length":9,"data":"вакансия"},{"type":"hashtag","offset":10,"length":7,"data":"Москва"},{"type":"hashtag","offset":18,"length":7,"data":"senior"},{"type":"hashtag","offset":26,"length":3,"data":"Go"},{"type":"hashtag","offset":30,"length":9,"data":"fulltime"},{"type":"hashtag","offset":40,"length":5,"data":"офис"},{"type":"hashtag","offset":46,"length":9,"data":"удаленка"},{"type":"handle","offset":2968,"length":12,"data":"FreddyNigma"}],"date":"2020-06-15T19:50:50+00:00","link":"tg://resolve?domain=gogetajobfeed&post=325","tags":[{"name":"go"},{"name":"git"},{"name":"rest"},{"name":"graphql"},{"name":"docker"},{"name":"unix"},{"name":"sql"},{"name":"linux"},{"name":"postgresql"},{"name":"kafka"},{"name":"redis"}],"cities":[{"code":"moscow"}],"allowsRemote":true}},{"node":{"__typename":"Job","id":"90991230976-1001067529236","title":"Python developer","text":"#вакансия #remote #fulltime #python\n\nBack-end Python Developer\n\nФормат работы: #fulltime #remote\nЗарплата: от  $ 50 000 до $ 70 000  в год\n\nКоманда с большим опытом в компьютерном зрении и экспертами мирового уровня ищет в свои ряды Backend Python Developer. Стартап, создающий продукт для домашней безопасности, привлек $6,9 млн инвестиций. Продукт и его основатели базируются в Калифорнии, а почти вся команда — в России и Украине.\n\nЗадачи :\n• Оптимизация и улучшение качества алгоритмов трекинга людей;\n• Доработка основного кода клиентской стороны;\n• Разработка механизмов обновления клиентских приложений (Linux\\Docker);\n• Разработка системы сбора и разметки данных;\n• Доработка инфраструктурных сервисов и системы оценки качества.\n\nТребования:\n• Опыт промышленной работы от двух лет;\n• Опыт разработки оптимизационных алгоритмов разного назначения;\n• Опыт работы с AWS, Google Cloud, Azure, Docker.\n• Знание Python и\\или С++ и\\или Java;\n• Знание сетевых протоколов, их вариаций и особенностей;\n• Умение работать с многопоточной средой, понимание принципов работы сопрограмм;\n• Умение создавать сервера, способные выдерживать большие нагрузки.\n\nБудет плюсом:\n• Веб каркас Tornado, знания протокола HTTP;\n• Базы данных MongoDB, Redis, Aerospike, Cassandra;\n• Опыт работы с распределенной инфраструктурой;\n• Опыт использования нейронных сетей на TensorFlow / Keras / Caffe;\n• Понимание принципов работы различных архитектур нейронных сетей, знание алгоритмов машинного обучения.\n\nЧтобы откликнуться, необходимо пройти короткий отбор по ссылке https://6nomads.com/","markup":[{"type":"hashtag","offset":0,"length":9,"data":"вакансия"},{"type":"hashtag","offset":10,"length":7,"data":"remote"},{"type":"hashtag","offset":18,"length":9,"data":"fulltime"},{"type":"hashtag","offset":28,"length":7,"data":"python"},{"type":"hashtag","offset":79,"length":9,"data":"fulltime"},{"type":"hashtag","offset":89,"length":7,"data":"remote"},{"type":"link","offset":1546,"length":20,"data":"https://6nomads.com/"}],"date":"2020-06-15T18:27:28+00:00","link":"tg://resolve?domain=python_jobs&post=0","tags":[{"name":"python"},{"name":"linux"},{"name":"docker"},{"name":"amazon-web-services"},{"name":"cloud"},{"name":"azure"},{"name":"java"},{"name":"mongodb"},{"name":"redis"},{"name":"cassandra"},{"name":"tensorflow"},{"name":"google-cloud-platform"}],"cities":[],"allowsRemote":true}},{"node":{"__typename":"Job","id":"102892568576-1001089317451","title":"Qa инженер","text":"#вакансия #fulltime #офис #Москва #DRTest #Kubernetes #senior #DevOps #TS\n\nКомпания: Техносерв https://technoserv.com/ \nВакансия: Senior QA DevOps\nДля работы на проектах в крупном банке (T&M)\nЗП: 100 000 - 220 000\nГрафик работы: фултайм, 10:00-19:00 (по договоренности)\nМесто работы: офис, г. Москва\n\nЗадачи:\n· Построение/тестирование CI/CD pipelines;\n· Администрирование/тестирование скриптов развертывания Kubernetes кластеров;\n· Консультирование заинтересованных лиц по сопровождению и эксплуатации ПО в части DR тестирования;\n· Изучение и последующее тестирование новых инструментов.\n\nТребования:\n∙ Опыт построения процесса конечной интеграции и мониторинга, управления сетями (настройка машин, виртуализация, безопасность);\n∙ Опыт работы с Kubernetes;\n∙ Опыт администрирования Linux серверов (Centos,RHEL)\n∙ Хорошее знание инструментов DevOps (Docker, Jenkins/TeamCity, Ansible/Salt/Puppet/Chef), понимание принципов DevSecOps;\n∙ Опыт настройки и администрирования веб-серверов (Apache, Nginx, JBoss/WildFly, Glassfish);\n∙ Опыт настройки и администрирования систем мониторинга (Zabbix, Prometheus, Grafana, Nagios);\n∙ Хорошее знание Git;\n∙ Знание shell/bash;\n∙ Опыт работы с ELK Stack (или готовность самостоятельно быстро изучить его на практике);\n∙ Умение доходчиво донести информацию как представителям бизнеса, так и IT-специалистам.\n\nПриветствуется:\n∙ Опыт построения pipelines в TeamCity;\n∙ Знание одного из языков программирования (Python, JS, golang);\n∙ Опыт работы со стеком Atlassian (Jira, Confluence);\n∙ Опыт работы с Redis, RabbitMQ, Elasticsearch, Kafka.\n\nРезюме сюда: QAResume@technoserv.com","markup":[{"type":"hashtag","offset":0,"length":9,"data":"вакансия"},{"type":"hashtag","offset":10,"length":9,"data":"fulltime"},{"type":"hashtag","offset":20,"length":5,"data":"офис"},{"type":"hashtag","offset":26,"length":7,"data":"Москва"},{"type":"hashtag","offset":34,"length":7,"data":"DRTest"},{"type":"hashtag","offset":42,"length":11,"data":"Kubernetes"},{"type":"hashtag","offset":54,"length":7,"data":"senior"},{"type":"hashtag","offset":62,"length":7,"data":"DevOps"},{"type":"hashtag","offset":70,"length":3,"data":"TS"},{"type":"link","offset":95,"length":23,"data":"https://technoserv.com/"},{"type":"link","offset":1588,"length":23,"data":"mailto:QAResume@technoserv.com"}],"date":"2020-06-15T14:52:17+00:00","link":"tg://resolve?domain=qa_jobs&post=0","tags":[{"name":"qa"},{"name":"kubernetes"},{"name":"linux"},{"name":"centos"},{"name":"docker"},{"name":"jenkins"},{"name":"ansible"},{"name":"apache"},{"name":"nginx"},{"name":"jboss"},{"name":"git"},{"name":"shell"},{"name":"bash"},{"name":"python"},{"name":"go"},{"name":"redis"},{"name":"rabbitmq"},{"name":"elasticsearch"},{"name":"kafka"}],"cities":[{"code":"moscow"}],"allowsRemote":false}},{"node":{"__typename":"Job","id":"2211446784-1001134745498","title":"Devops инженер","text":"#вакансия #DevOps #Москва #ivi\n\nОнлайн-кинотеатр ivi \nЛокация: Москва, ст. м. Дмитровская\nФормат работы: офис \nЗанятость: полная\nЗарплатная вилка: от 180 000 до 250 000 руб. на руки.\n\nРазыскиваем коллегу в команду для участия в настройке процессов: технических (CI/CD) и в части взаимодействия с коллегами. Активное участие в разворачивании и эксплуатации k8s. Помогаем командам разработки строить CI/CD-пайплайны.  Используем Ubuntu, Linux.\nХраним код и разрабатываем pipeline-ы с помощью GitLab+Artifactory.\nДля мониторинга серверов и сервисов используем Zabbix и StatsD, заправляем Grafana.\nНаши сервисы написаны на Python, Golang и немного PHP и Java.\nЛюбим и активно используем Jenkins для решения самых разнообразных задач.\nИспользуем много Open Source (и не только) приложений: Nginx, Redis, PostgreSQL, MongoDB, RabbitMQ, ClickHouse, OpenStack, GitLab, Kafka, HDFS, Jira , OpenNebula.\n\nЧто предстоит делать: \n- Развитие и настройка процессов CI/CD;\n- Периодический аудит используемого стека технологий;\n- Планирование и участие в рефакторинге процессов, инфраструктуры, приложений;\n- Сопровождение сервисов от разработки до эксплуатации, участие в эксплуатации;\n- Доработка текущих и разработка новых сценариев конфигурирования серверов и приложений;\n- Администрирование приложений по результатам выполненной работы, подготовка документации, если это необходимо.\n\nКак узнать, что ты нам подходишь? \n- Успешный опыт работы CI/CD-системами (у нас GitLab и Jenkins);\n- Умение хорошо готовить Docker;\n- Опыт программирования на скриптовых языках (Shell, Python);\n- Опыт администрирования Linux и приложений более 5 лет;\n- Понимание сетевых технологий TCP/IP;\n- Опыт работы с системами управления версиями (у нас Git);\n- Опыт работы с системами управления конфигурациями.\n\nСо своей стороны мы обещаем: \n- Офис в 5 минутах ходьбы от м. \"Дмитровская\";\n- У нас гибкий график, мы начинаем до 11 часов дня;\n- Трудоустройство по ТК РФ;\n- ДМС + стоматология после прохождения испытательного срока;\n- Подписка на ivi;\n- Пакет релокации для соискателей со всей России.\n\nПишите @daria144, на почту dsereda@ivi.ru или откликайтесь здесь https://hh.ru/vacancy/35021558\n\n—\n\n👉 Обсуждение вакансии в чате @devops_jobs","markup":[{"type":"hashtag","offset":0,"length":9,"data":"вакансия"},{"type":"hashtag","offset":10,"length":7,"data":"DevOps"},{"type":"hashtag","offset":18,"length":7,"data":"Москва"},{"type":"hashtag","offset":26,"length":4,"data":"ivi"},{"type":"handle","offset":2071,"length":9,"data":"daria144"},{"type":"link","offset":2091,"length":14,"data":"mailto:dsereda@ivi.ru"},{"type":"link","offset":2129,"length":30,"data":"https://hh.ru/vacancy/35021558"},{"type":"handle","offset":2194,"length":12,"data":"devops_jobs"}],"date":"2020-06-15T13:57:03+00:00","link":"tg://resolve?domain=devops_jobs_feed&post=2109","tags":[{"name":"ubuntu"},{"name":"linux"},{"name":"gitlab"},{"name":"python"},{"name":"go"},{"name":"php"},{"name":"java"},{"name":"jenkins"},{"name":"nginx"},{"name":"redis"},{"name":"postgresql"},{"name":"mongodb"},{"name":"rabbitmq"},{"name":"kafka"},{"name":"hdfs"},{"name":"docker"},{"name":"shell"},{"name":"git"}],"cities":[{"code":"moscow"}],"allowsRemote":false}},{"node":{"__typename":"Job","id":"339738624-1001352129329","title":"Golang разработчик","text":"#вакансия #Казань #Lead #Go #fulltime #офис #удаленка  \nВакансия: Lead or Senior Golang Developer \nКомпания: SoftConsulting\nГород: Казань\nФормат работы: офис или удаленка \nЗанятость: полная\nВилка заработной платы: 2000-3000$\n\nИдея проекта – создать революционную крауд-сорсинговую платформу для размещения/выполнение заказов на фотографию. Это возможность работать напрямую с CTO и в дальнейшем собрать команду под себя.\nТребования:\n- Коммерческий опыт разработки на Go\n- Опыт руководства командой будет плюсом\n- Знание AWS, MySQL, Redis \n- Разговорный английский\n- Высокие коммуникативные навыки\n- Желание работать в динамичной стартап-среде, быть готовым самостоятельно решать задачи и архитектора, и разработчика, предлагать решения\n\nУсловия:\n- Комфортабельный офис в Казани или удаленная работа из любой точки мира\n- ДМС\n- Компенсация расходов на занятия спортом, английским языком\n- Гибкий рабочий график\n\nКонтакты: telegram @It_recruiter_Nadezhda","markup":[{"type":"hashtag","offset":0,"length":9,"data":"вакансия"},{"type":"hashtag","offset":10,"length":7,"data":"Казань"},{"type":"hashtag","offset":18,"length":5,"data":"Lead"},{"type":"hashtag","offset":24,"length":3,"data":"Go"},{"type":"hashtag","offset":28,"length":9,"data":"fulltime"},{"type":"hashtag","offset":38,"length":5,"data":"офис"},{"type":"hashtag","offset":44,"length":9,"data":"удаленка"},{"type":"handle","offset":930,"length":22,"data":"It_recruiter_Nadezhda"}],"date":"2020-06-15T13:49:00+00:00","link":"tg://resolve?domain=gogetajobfeed&post=324","tags":[{"name":"go"},{"name":"amazon-web-services"},{"name":"mysql"},{"name":"redis"}],"cities":[{"code":"kazan"}],"allowsRemote":true}},{"node":{"__typename":"Job","id":"90985988096-1001067529236","title":"Python разработчик","text":"#вакансия #москва #удаленка #backend #python #SQL #REST #Agile #Developer #PythonDeveloper #ORM\n\nВакансия:  Python Developer\nГород: Москва|СПб|Нижний Новгород\nЗП: 120 - 200к net\nЗанятость: полная, УДАЛЕНКА\n\nВсем привет! Ищу Python-разработчика!\n\nУсловия:\n✅ Безобразно интересные проекты\n✅ Удаленка (мы идейные удалёнщики)\n✅ Работу с межд. проектом с клиентами в >40 странах мира\n✅ Перспективу роста в профессионала глобального уровня\n✅ Оформление по ИП\n✅ 120 - 200к net\n✅ График свободный\n✅ Возмещение оплаты подключения ПО и оформления ИП\n\nТребования:\n❇️ Владение Python и любимыми его фреймворками\n❇️ Опыт руководства командой 1-5чел\n❇️ Релевантный опыт от 3х лет\n❇️ Опыт проектирования и разработки масштабируемых бекендов и REST APIs\n❇️ Опыт работы с реляционными БД, знание SQL\n❇️ Опыт работы с распределенными очередями\n❇️ Английский язык - уровень от B1\n❇️ Профильное высшее образование\n\nЗадачи:\n\nМного. Очень много)\nв лс, а то длинный текст 😄\n\nРабота со стеком технологий: Python 3.6, Pyramid, PostgreSQL, SQLAlchemy, Celery, Rabbitmq, Redis, Buildout, Rest API, немного JS (тех админка), Socket.io, Docker\n\nПодробности в лс😏\nКонтакты: @nutella_n","markup":[{"type":"hashtag","offset":0,"length":9,"data":"вакансия"},{"type":"hashtag","offset":10,"length":7,"data":"москва"},{"type":"hashtag","offset":18,"length":9,"data":"удаленка"},{"type":"hashtag","offset":28,"length":8,"data":"backend"},{"type":"hashtag","offset":37,"length":7,"data":"python"},{"type":"hashtag","offset":45,"length":4,"data":"SQL"},{"type":"hashtag","offset":50,"length":5,"data":"REST"},{"type":"hashtag","offset":56,"length":6,"data":"Agile"},{"type":"hashtag","offset":63,"length":10,"data":"Developer"},{"type":"hashtag","offset":74,"length":16,"data":"PythonDeveloper"},{"type":"hashtag","offset":91,"length":4,"data":"ORM"},{"type":"bold","offset":108,"length":17,"data":""},{"type":"bold","offset":163,"length":10,"data":""},{"type":"bold","offset":174,"length":4,"data":""},{"type":"bold","offset":189,"length":34,"data":""},{"type":"bold","offset":224,"length":31,"data":""},{"type":"bold","offset":541,"length":12,"data":""},{"type":"bold","offset":895,"length":14,"data":""},{"type":"bold","offset":953,"length":28,"data":""},{"type":"link","offset":1098,"length":9,"data":"http://Socket.io"},{"type":"bold","offset":1136,"length":20,"data":""},{"type":"handle","offset":1146,"length":10,"data":"nutella_n"}],"date":"2020-06-15T11:51:07+00:00","link":"tg://resolve?domain=python_jobs&post=0","tags":[{"name":"python"},{"name":"sql"},{"name":"rest"},{"name":"orm"},{"name":"dotnet"},{"name":"postgresql"},{"name":"sqlalchemy"},{"name":"rabbitmq"},{"name":"redis"},{"name":"docker"}],"cities":[{"code":"moscow"},{"code":"nizhny-novgorod"}],"allowsRemote":true}},{"node":{"__typename":"Job","id":"2209349632-1001134745498","title":"Devops инженер","text":"#вакансия #офис #Москва #devops #teamlead\n\nDevOps Engineer\nОписание проекта:\nНа текущий момент мы формируем ключевую команду по трансформации интеграционной архитектуры одного из крупнейших\nБанков.\nОдной из ключевых задач трансформации стоит построить принципиально новую платформу управления трафиком между\nприложениями,\nпозволяющую объединить все существующие системы Банка как монолитные, так и контейнеризированные, виртуализировать\nбазовые\nсервисы и инструменты обеспечения ключевых атрибутов масштабирования, надежности, безопасности и сопровождаемости.\nВ результате этой трансформации должны быть реализованы комплексные сервисы платформы для ИТ Банка и партнеров.\nПрофит для участника:\nВозможность трансформировать ИТ-ландшафт одного из крупнейшего Банка своими силами от начала до конца;\nВозможность развить компетенции и получить опыт применения современных технологий и подходов к DevOps;\n\nКлючевые задачи:\nУлучшение инструментов и автоматизация производственных процессов, уменьшение time to market\nПостроение и сопровождение конвейера CI/CD\nАвтоматизация процесса подготовки окружений, тестовых сред, сборки и развертывания приложений\nВнедрение, поддержка и развитие системы мониторинга\nУчастие в подготовке и настройке инфраструктуры проектов банка\nИнтеграция тестов в скрипты развертывания\n\nОсновные требования:\nОпыт конфигурации и уверенное владение Linux (RHEL/CentOS)\nУмение писать сценарии автоматизации (bash, python)\nПонимание языков разметки данных (xml, json, yaml)\nУверенное владение одним из языков: Python, Java, Kotlin, Groovy\nОпыт работы с Git.\nОпыт автоматизации CI/CD процессов. Активное взаимодействие с командами разработки, тестирования, поддержки.\nОпыт работы с CI-Системами (Gitlab CI/Jenkins/TeamCity). Разработка и отладка исходного кода Pipeline, умение\nкастомизировать сборку.\nУверенное владение средством управления конфигурациями – Ansible, написание скриптов. Большим плюсом будет\nявляется опыт разработки модулей и отладки.\nОпыт развертывание и использования Docker: Создание образов, сборка и доставка контейнеров. Развертывание\nприложений в кластере Kubernetes, OpenShift\nОпыт настройки инструментов мониторинга (zabbix, Prometheus, grafana, ELK/EFK)\nОпыт работы с базами данных: Oracle, PostgreSQL, NoSQL DB (Tarantool, Casandra, Redis, RocksDB, etcd, ...)\nОпыт работы с IBM WebSphere MQ\nИнженерные практики (code review, тестирование скриптов и прочее).\nОпыт работы с высокодоступными и высокопроизводительными решениями\nПонимание принципа infrastructure as code\nИнженерное мышление, умение локализовать проблему и предложить оптимальное решение\nРазвитый технический кругозор и желание постоянно развиваться.\n\nЧто предлагаем:\nОформление через интегратора T4u\nЗ.п белая, 200-250 к\nДМС, курсы, сертификация за счет компании\nРабочее место в одном из офисов банка: м. Деловой центр, м. Пролетарская, м. ВДНХ\nКонтакты: @Anastasia202011\n\n—\n\n👉 Обсуждение вакансии в чате @devops_jobs","markup":[{"type":"hashtag","offset":0,"length":9,"data":"вакансия"},{"type":"hashtag","offset":10,"length":5,"data":"офис"},{"type":"hashtag","offset":16,"length":7,"data":"Москва"},{"type":"hashtag","offset":24,"length":7,"data":"devops"},{"type":"hashtag","offset":32,"length":9,"data":"teamlead"},{"type":"handle","offset":2861,"length":16,"data":"Anastasia202011"},{"type":"handle","offset":2912,"length":12,"data":"devops_jobs"}],"date":"2020-06-15T11:01:14+00:00","link":"tg://resolve?domain=devops_jobs_feed&post=2107","tags":[{"name":"linux"},{"name":"centos"},{"name":"bash"},{"name":"python"},{"name":"xml"},{"name":"json"},{"name":"yaml"},{"name":"java"},{"name":"kotlin"},{"name":"groovy"},{"name":"git"},{"name":"gitlab"},{"name":"jenkins"},{"name":"ansible"},{"name":"docker"},{"name":"kubernetes"},{"name":"oracle"},{"name":"postgresql"},{"name":"nosql"},{"name":"redis"}],"cities":[{"code":"moscow"}],"allowsRemote":false}},{"node":{"__typename":"Job","id":"2205155328-1001134745498","title":"Devops инженер","text":"#Москва #вакансия #офис #devops\n✅ www.onelya.ru - на рынке с 2002 года (E-travel и интернет-эквайринг), подразделение - команда эксплуатации ЦОД  \n✅ оформление по ТК РФ, з/п 170-200net, ДМС, территориально - ст.м.ЦСКА/Аэропорт, БЦ Линкор\n✅ Обязанности:\n- выстраивание процессов CI/CD;\n- мониторинг, автоматизация и дальнейшее улучшение существующей инфраструктуры;\n- обеспечение бесперебойной работы инфраструктуры и сервисов;\n- анализ инцидентов, оценка архитектурных решений, ввод изменений с целью минимизации рисков отказов в обслуживании;\n- тесное взаимодействие с командами разработки и тестирования;\n- ведение документации по администрируемым сервисам и решениям.\n✅ Требования:\n- понимание принципов devops-культуры и опыт построения devops-инфраструктуры;\n- релевантный опыт работы от 2-х лет;\n- обязательно знаниe kubernetes;\n- понимание важности принципов Infrastructure as a Code; Prometheus;\n- практический опыт автоматизации управления средами с применением Jenkins, Docker, Kubernetes, автоматизации развертывания средствами Ansible, опыт работы со средствами мониторинга , сбора и анализа метрик Zabbix, Graphite, Grafana, Kibana;\n- опыт администрирования, миграции данных и настройки резервного копирования для БД PostgreSQL, MongoDB, Redis, Elasticsearch;\n- опыт работы с ELK стеком;\n- опыт написания Python и bash скриптов;\n- готовность работать с legacy-системами.\n\n✅Ждем резюме на a.vinogradova@gateline.ru\n\n—\n\n👉 Обсуждение вакансии в чате @devops_jobs","markup":[{"type":"hashtag","offset":0,"length":7,"data":"Москва"},{"type":"hashtag","offset":8,"length":9,"data":"вакансия"},{"type":"hashtag","offset":18,"length":5,"data":"офис"},{"type":"hashtag","offset":24,"length":7,"data":"devops"},{"type":"link","offset":34,"length":13,"data":"http://www.onelya.ru"},{"type":"link","offset":1401,"length":25,"data":"mailto:a.vinogradova@gateline.ru"},{"type":"handle","offset":1461,"length":12,"data":"devops_jobs"}],"date":"2020-06-15T10:56:00+00:00","link":"tg://resolve?domain=devops_jobs_feed&post=2103","tags":[{"name":"dotnet"},{"name":"kubernetes"},{"name":"jenkins"},{"name":"docker"},{"name":"ansible"},{"name":"postgresql"},{"name":"mongodb"},{"name":"redis"},{"name":"elasticsearch"},{"name":"python"},{"name":"bash"}],"cities":[{"code":"moscow"}],"allowsRemote":false}}]}}},"context":{}}