{"hash":"f5f6bf98bd95e769321482904cbbd488f77922fd","data":{"records":{"id":"dotnet","name":"dotnet","belongsTo":{"totalCount":172,"pageInfo":{"totalPages":18,"currentPage":14},"edges":[{"node":{"__typename":"Job","id":"17004756992-1001110946746","title":"Js разработчик","text":"MIDDLE FRONTEND DEVELOPER\n#вакансия #Москва #Vue.js #javascript #vanilla.js #frontend\nКомпания-резидент Сколково в поиске FRONTEND DEVELOPER (Middle). \nMedpoint24 (https://medpoint24.ru/#about) - бурно развивающаяся компания, предоставляющая программное обеспечение и оборудование для автоматизированного проведения медицинских осмотров водителей. \nОфис в г. Москва, 7 мин от м. Марьина Роща/м. Савёловская \nФормат: фулл-тайм (гибкое начало рабочего дня), в офисе, оформление полностью по ТК. \nЗ/П - от 130 000net - 160 000net \nКоманда из 20 человек: разработчики (фронт, бэк, фуллстак), техлид, тестировщики, системный аналитик, DevOps инженер. \nЧТО ДЕЛАТЬ: \n-Разработка клиентской части web-приложений\n-Поддержка и рефакторинг существующего front-end\n-Участие в разработке архитектуры web-приложений\n-Принятие участия в тестировании web-приложений\nТРЕБОВАНИЯ: \n- Опыт от 1,5-2 года по направлению Frontend\n-Знание Vanilla.js, Vue.js 2.0, html 5, css 3, Javascript ES6 и выше\n-Понимание принципов Клиент-серверной архитектуры, REST, СКВ (git), *NIX систем\nПишите смело по всем вопросам: \nТелега:@hr_orlik\nПочта: v.orlik@medpoint24.ru\n\n—\n\n👉 Обсуждение вакансии в чате @javascript_jobs","markup":[{"type":"hashtag","offset":26,"length":9,"data":"вакансия"},{"type":"hashtag","offset":36,"length":7,"data":"Москва"},{"type":"hashtag","offset":44,"length":4,"data":"Vue"},{"type":"hashtag","offset":52,"length":11,"data":"javascript"},{"type":"hashtag","offset":64,"length":8,"data":"vanilla"},{"type":"hashtag","offset":76,"length":9,"data":"frontend"},{"type":"link","offset":164,"length":28,"data":"https://medpoint24.ru/#about"},{"type":"handle","offset":1096,"length":9,"data":"hr_orlik"},{"type":"link","offset":1113,"length":21,"data":"mailto:v.orlik@medpoint24.ru"},{"type":"handle","offset":1169,"length":16,"data":"javascript_jobs"}],"date":"2020-06-17T15:15:44+00:00","link":"tg://resolve?domain=javascript_jobs_feed&post=0","tags":[{"name":"javascript"},{"name":"vuejs"},{"name":"dotnet"},{"name":"web"},{"name":"html"},{"name":"css"},{"name":"rest"},{"name":"git"}],"cities":[{"code":"moscow"}],"allowsRemote":false}},{"node":{"__typename":"Job","id":"16997416960-1001110946746","title":"Js разработчик","text":"#вакансия \"Front-end разработчик\" г.Нур-Султан (Астана)\nПредлагаемая заработная плата 300 000 – 500 000 KZT на руки.\n🔹Информация о Работодателе:\nКазахстанская IT компания. Инновационный продукт компании успешно существует на рынке более 4 лет и насчитывает более 500 пользователей по всему Казахстану.\nМы ищем человека, который будет вовлечен в разработку данной информационной системы на длительное время.\n🔹Обязанности:\n• Разработка frontend-части проекта; \n• Доработка существующих версий проектов; \n• Проектирование пользовательских интерфейсов; \n• Кроссбраузерная и адаптивная верстка HTML5/CSS3; \n• Полное понимание предметной области и консультированаие Back-end разработчиков; \n• Анализ существующих систем и разработка способов интеграции; \n• Оптимизация клиентского портала (#JS, #CSS);\n🔹Основные требования: \n• Свободное владение #HTML и CSS; \n• Понимание препроцессоров CSS (Sass (SCSS), #Less, #Stylus, CSS3); \n• Свободное владение #JavaScript (ES6+), Vue.js (2.x); \n• Знание и опыт работы с фреймворками и библиотеками: #Angular.JS, #React.JS; \n• Владение инструментами дебаггинга; \n• Владение инструментами контроля версий (#Git); \n• #Element, #Webpack; \n• Понимание принципов построения бекэнда и серверных технологий (Node.js, #PHP, #Ruby, .NET и т.д.\n 🔹Условия: \n• Стабильно высокую зарплату от 300 000 до 500 000 тг. на руки; \n• Пятидневная рабочая неделя с 9:00 до 18:00; \n• Дружный коллектив, оказывающий поддержку во всем; \n• Возможности внедрять идеи и инициативы; \n• Возможность обучения за счет организации; \n• Работа в офисе по адресу г. Нур-Султан (Астана), ул. Иманова.\n\n📩Эл. почта для резюме: ke@recrutoman.kz\n\n—\n\n👉 Обсуждение вакансии в чате @javascript_jobs","markup":[{"type":"hashtag","offset":0,"length":9,"data":"вакансия"},{"type":"hashtag","offset":786,"length":3,"data":"JS"},{"type":"hashtag","offset":791,"length":4,"data":"CSS"},{"type":"hashtag","offset":843,"length":5,"data":"HTML"},{"type":"hashtag","offset":902,"length":5,"data":"Less"},{"type":"hashtag","offset":909,"length":7,"data":"Stylus"},{"type":"hashtag","offset":947,"length":11,"data":"JavaScript"},{"type":"hashtag","offset":1036,"length":8,"data":"Angular"},{"type":"hashtag","offset":1049,"length":6,"data":"React"},{"type":"hashtag","offset":1141,"length":4,"data":"Git"},{"type":"hashtag","offset":1151,"length":8,"data":"Element"},{"type":"hashtag","offset":1161,"length":8,"data":"Webpack"},{"type":"hashtag","offset":1246,"length":4,"data":"PHP"},{"type":"hashtag","offset":1252,"length":5,"data":"Ruby"},{"type":"link","offset":1626,"length":16,"data":"mailto:ke@recrutoman.kz"},{"type":"handle","offset":1677,"length":16,"data":"javascript_jobs"}],"date":"2020-06-17T15:08:41+00:00","link":"tg://resolve?domain=javascript_jobs_feed&post=0","tags":[{"name":"javascript"},{"name":"html"},{"name":"css"},{"name":"sass"},{"name":"vuejs"},{"name":"angularjs"},{"name":"reactjs"},{"name":"git"},{"name":"webpack"},{"name":"nodejs"},{"name":"php"},{"name":"ruby"},{"name":"dotnet"}],"cities":[],"allowsRemote":false}},{"node":{"__typename":"Job","id":"347078656-1001352129329","title":"Go разработчик","text":"#вакансия\n#CloudMTS#job #fulltime #remote\n\nBackend разработчик\n\nЗ/П: 150к - 190 руб. net (+ДМС).\nПолная занятость.\nКомпания МТС ИТ.\nИщем трёх разработчиков в три разных направления: Platform, Database-as-a-Service, Containerum)\n\n#CloudMTS-  российский облачный провайдер.\n\nЧто нужно делать?\nРазрабатывает и поддержка сервисов управления инфраструктуры, разработка серверной части высоконагруженного сервиса, участие в разработке API.\n\nСтек: Go, gRPC, Git.\n\nЧто мы предлагаем:\n- белая ЗП, премия 20% от годового оклада;\n- ДМС;\n- тренинги; чемпионаты по программированию.\n\nКонтакты: @Snezhana_Andreeva","markup":[{"type":"hashtag","offset":0,"length":9,"data":"вакансия"},{"type":"hashtag","offset":24,"length":9,"data":"fulltime"},{"type":"hashtag","offset":34,"length":7,"data":"remote"},{"type":"hashtag","offset":229,"length":9,"data":"CloudMTS"},{"type":"handle","offset":581,"length":18,"data":"Snezhana_Andreeva"}],"date":"2020-06-17T14:19:43+00:00","link":"tg://resolve?domain=gogetajobfeed&post=331","tags":[{"name":"go"},{"name":"dotnet"},{"name":"git"}],"cities":[],"allowsRemote":true}},{"node":{"__typename":"Job","id":"71484571648-1001054966032","title":"Android разработчик","text":"#вакансия #iOS #android #developer #remote #InStat \n\nГород и адрес офиса: Москва, ст.м. Автозаводская\nФормат работы: удаленка\nЗанятость: полная/проектная\nЗарплатная вилка (обязательно): от 80 до 130 net\nОписание вакансии:\n\nВсем привет. Ищем разработчиков приложений для Apple TV и Android Box. Мы занимаемся сложными задачами, а также хотим разработать с нуля приложения, а у вас есть возможность поработать в спортивном стартапе и сделать лучшее приложение на рынке.\nЧто главное:\nОпыт разработки приложений Apple TV/Android box обязательно;\nОпыт по созданию продукта для просмотра видео-контента\nЗадачи:\nРазработка OTT приложения для Apple TV/Android box, анализ и оценка задач;\nпроведение code review, участие в SCRUM активностях\nТребования:\nXcode;опыт разработки нативных приложений на платформе iOS (swift) не менее 2-х лет, работа с GIT, Unit-test; знание основных паттернов проектирования, REST API; SOLID, GCD, MVP/MVVM, опыт разработки по Apple TV/Android box, знание Android Studio \nМы предлагаем:\nофициальное трудоустройство, полный соц. пакет;удаленное сотрудничество\nПодробнее о вакансиях тут: \nhttps://hh.ru/vacancy/37544424\nhttps://hh.ru/vacancy/37520710\n\nНазвание компании: InStat (https://instatsport.com/)\n\nКонтакты: yana.gurinovich@instatsport.com\n @Yana_Gurinovich","markup":[{"type":"hashtag","offset":0,"length":9,"data":"вакансия"},{"type":"hashtag","offset":10,"length":4,"data":"iOS"},{"type":"hashtag","offset":15,"length":8,"data":"android"},{"type":"hashtag","offset":24,"length":10,"data":"developer"},{"type":"hashtag","offset":35,"length":7,"data":"remote"},{"type":"hashtag","offset":43,"length":7,"data":"InStat"},{"type":"link","offset":1107,"length":30,"data":"https://hh.ru/vacancy/37544424"},{"type":"link","offset":1138,"length":30,"data":"https://hh.ru/vacancy/37520710"},{"type":"link","offset":1197,"length":24,"data":"https://instatsport.com/"},{"type":"link","offset":1234,"length":31,"data":"mailto:yana.gurinovich@instatsport.com"},{"type":"handle","offset":1267,"length":16,"data":"Yana_Gurinovich"}],"date":"2020-06-17T13:46:14+00:00","link":"tg://resolve?domain=mobile_jobs&post=0","tags":[{"name":"mobile"},{"name":"android"},{"name":"ios"},{"name":"dotnet"},{"name":"xcode"},{"name":"swift"},{"name":"git"},{"name":"rest"},{"name":"mvvm"},{"name":"android-studio"}],"cities":[{"code":"moscow"}],"allowsRemote":true}},{"node":{"__typename":"Job","id":"103043563520-1001089317451","title":"Qa engineer","text":"#СПб #СанктПетербург #вакансия #QA #fulltime #office #automation\n🏙Компания: Actimind\n📣Вакансия: QA Automation Engineer\n🌎Проект: Evernote – один из самых популярных сервисов для заметок и для предоставления единой рабочей среды.\n💰Зп: до 130 000 net\n\n🇺🇸В составе распределенной международной команды предстоит: \n🔸Разрабатывать и поддерживать автотесты на Java;\n🔸Оптимизировать Performance; \n🔸Поддерживать и развивать существующий фреймворк;\n🔸Предлагать улучшения в процессе тестирования;\n🔸Иногда тестировать вручную (не более 10% времени).\nИспользуемый стек: Java , JBehave, Selenium, немного python\n\nMust have:\n🔸Опыт автоматизации на Java, Selenium и знание ООП\n🔸Английский для работы с документацией и участия в общих митингах (intermediate)\n🔸Приветствуется владение Python, JBehave.\n\nУсловия:\n📚Возможность участвовать в обучающих конференциях от Evernote;\n🎓Экспертная команда;\n💎Спорт, медицинские компенсации, оплата обучений\nОфис рядом с м. Старая Деревня\n\nПишите в телеграм: @actimind_jobs, на почту ksenia.dryukova@actimind.com\nИли звоните +7(921)1847150","markup":[{"type":"hashtag","offset":0,"length":4,"data":"СПб"},{"type":"hashtag","offset":5,"length":15,"data":"СанктПетербург"},{"type":"hashtag","offset":21,"length":9,"data":"вакансия"},{"type":"hashtag","offset":31,"length":3,"data":"QA"},{"type":"hashtag","offset":35,"length":9,"data":"fulltime"},{"type":"hashtag","offset":45,"length":7,"data":"office"},{"type":"hashtag","offset":53,"length":11,"data":"automation"},{"type":"bold","offset":610,"length":11,"data":""},{"type":"bold","offset":799,"length":9,"data":""},{"type":"handle","offset":995,"length":14,"data":"actimind_jobs"},{"type":"link","offset":1020,"length":28,"data":"mailto:ksenia.dryukova@actimind.com"},{"type":"link","offset":1061,"length":14,"data":"tel:+7(921)1847150"}],"date":"2020-06-17T10:37:11+00:00","link":"tg://resolve?domain=qa_jobs&post=0","tags":[{"name":"qa"},{"name":"dotnet"},{"name":"java"},{"name":"selenium"},{"name":"python"}],"cities":[],"allowsRemote":false}},{"node":{"__typename":"Job","id":"71456260096-1001054966032","title":"Android разработчик","text":"#вакансия #работа #Санкт_Петербург #Пермь #Казань  #middle #Android #Kotlin #RxJava\nГород: Санкт-Петербург, Казань, Пермь\nФормат работы: Офис (пока удаленка)\nЗанятость: Полная\nЗарплатная вилка от 120 net до 200 net  (зависит от уровня)\nКомпания: Стрим\nКонтакты: @Ntsama_IT \n\nМы Stream - делаем классные и реально удобные продукты для людей. 📣Сейчас находимся в поиске Android разработчика.📱\n\nСейчас у нас есть несколько проектов, куда мы ищем разработчиков. Подробнее по вакансиям здесь:\nhttps://spb.hh.ru/vacancy/37445336\nhttps://spb.hh.ru/vacancy/37365465\n\nМы ждём: \n🔹опыт разработки как на Kotlin, так и на Java;\n🔹опыт в работе с RxJava;\n\nУсловия:\n✅Гибкий график\n✅ДМС со стоматологией\n✅Компенсация мобильной связи\n✅Официальное оформление и \"белая\" зарплата + премии сверху оклада\n✅Возможность дополнительного обучения\nКонтакты: @Ntsama_IT \nпочта: eivanova@stream.ru","markup":[{"type":"hashtag","offset":0,"length":9,"data":"вакансия"},{"type":"hashtag","offset":10,"length":7,"data":"работа"},{"type":"hashtag","offset":18,"length":16,"data":"Санкт_Петербург"},{"type":"hashtag","offset":35,"length":6,"data":"Пермь"},{"type":"hashtag","offset":42,"length":7,"data":"Казань"},{"type":"hashtag","offset":51,"length":7,"data":"middle"},{"type":"hashtag","offset":59,"length":8,"data":"Android"},{"type":"hashtag","offset":68,"length":7,"data":"Kotlin"},{"type":"hashtag","offset":76,"length":7,"data":"RxJava"},{"type":"link","offset":246,"length":6,"data":"https://stream.ru/"},{"type":"handle","offset":262,"length":10,"data":"Ntsama_IT"},{"type":"link","offset":490,"length":34,"data":"https://spb.hh.ru/vacancy/37445336"},{"type":"link","offset":525,"length":34,"data":"https://spb.hh.ru/vacancy/37365465"},{"type":"handle","offset":835,"length":10,"data":"Ntsama_IT"},{"type":"link","offset":854,"length":18,"data":"mailto:eivanova@stream.ru"}],"date":"2020-06-17T08:54:24+00:00","link":"tg://resolve?domain=mobile_jobs&post=0","tags":[{"name":"mobile"},{"name":"android"},{"name":"kotlin"},{"name":"dotnet"},{"name":"java"}],"cities":[{"code":"perm"},{"code":"kazan"}],"allowsRemote":true}},{"node":{"__typename":"Job","id":"1701838848-1001091028994","title":"Java developer","text":"#вакансия  #удаленка #Java #Spring #senior #middle #backend\nЛокация: #регион \nФормат работы: #fulltime #удаленка\nЗ/п: 80-160 NET\nВакансия: Java developer (senior,middle)\nКомпания: X5 Retail Group\nКонтакты: @CatProgramist\nТребования:\n- отличное понимание Java Core, Collections, Multithreading, transaction API\n- Spring\n- Hibernate, JDBC\n- SOAP\n- REST\n- Maven, Gradle\n- ActiveMQ\n- Git\n- *nix\nНаш целевой стек: Java 11+, Spring Boot, Spring Cloud, Netflix, PostgreSQL.  \nРаботаем в окружении CI/CD на GitLab, Apache Maven, Jira, Confluence (сейчас переписывают на этом стеке)\nСтарый стек проекта: Java 8, Spring Core, Spring Security, TBI (ORM), PostgreSQL, SQL, Jasper, Swing, XML, Jetty Embedded, Junit, Mockito, PowerMock, JBehave, maven, gradle, Jenkins, Gitlab, Sonar, REST, RMI, Git, CI/CD\nУсловия:\nУдаленка\nОфициальное трудоустройство и оформление полностью согласно ТК РФ\nДополнительная медицинская страховка (ДМС) – после испытательного срока","markup":[{"type":"hashtag","offset":0,"length":9,"data":"вакансия"},{"type":"hashtag","offset":11,"length":9,"data":"удаленка"},{"type":"hashtag","offset":21,"length":5,"data":"Java"},{"type":"hashtag","offset":27,"length":7,"data":"Spring"},{"type":"hashtag","offset":35,"length":7,"data":"senior"},{"type":"hashtag","offset":43,"length":7,"data":"middle"},{"type":"hashtag","offset":51,"length":8,"data":"backend"},{"type":"hashtag","offset":69,"length":7,"data":"регион"},{"type":"hashtag","offset":93,"length":9,"data":"fulltime"},{"type":"hashtag","offset":103,"length":9,"data":"удаленка"},{"type":"handle","offset":206,"length":14,"data":"CatProgramist"}],"date":"2020-06-17T08:02:57+00:00","link":"tg://resolve?domain=jvmjobs&post=1623","tags":[{"name":"java"},{"name":"jvm"},{"name":"spring"},{"name":"dotnet"},{"name":"hibernate"},{"name":"jdbc"},{"name":"soap"},{"name":"rest"},{"name":"maven"},{"name":"gradle"},{"name":"git"},{"name":"cloud"},{"name":"postgresql"},{"name":"gitlab"},{"name":"apache"},{"name":"orm"},{"name":"sql"},{"name":"swing"},{"name":"xml"},{"name":"jetty"},{"name":"junit"},{"name":"jenkins"},{"name":"spring-boot"},{"name":"spring-security"}],"cities":[],"allowsRemote":true}},{"node":{"__typename":"Job","id":"16992174080-1001110946746","title":"Js разработчик","text":"#вакансия #москва #react\n\nИщем Frontend-разработчика\n\nГород и адрес офиса: Москва, Волгоградский проспект 42к5\nФормат работы: офис либо удаленная работа\nЗанятость: полная\nЗарплатная вилка: от 160 000 рублей до 220 000 рублей на руки\n\nОписание вакансии: \nРазработка Web-версии приложения (платформа обучения с использованием стриминговых сервисов, сервисов распознавания речи, сервисов перевода);\nВыполнение задач по frontend разработке (через Jira);\nВерстка страниц дизайн-проекта (дизайн уже отрисован в Figma)\nТребования:\nХорошее знание JS;\nХорошее знание React;\nУмение писать структурированный и понятный код;\nХорошие знания HTML/CSS;\nУмение работать с GIT;\nОпыт разработки для вэба от 3 лет;\nХорошее знание ES6;\nЗнание адаптивной верстки;\nЗнание кроссбраузерной вёрстки;\nОпыт верстки по макетам;\nУмение работать в команде и коммуницировать.\n\nТехнологический стек проекта:\nБек: Golang;\nФронт: React.js;\nИнфраструктура: Docker, Jira, Github, Jenkins, инфраструктура на сервисах Amazon\n\nНазвание компании: Everytale (www.everytale.net)\nКонтактная информация: vm@everytale.net, 89267213115\n\n—\n\n👉 Обсуждение вакансии в чате @javascript_jobs","markup":[{"type":"hashtag","offset":0,"length":9,"data":"вакансия"},{"type":"hashtag","offset":10,"length":7,"data":"москва"},{"type":"hashtag","offset":18,"length":6,"data":"react"},{"type":"link","offset":1018,"length":17,"data":"http://www.everytale.net"},{"type":"link","offset":1060,"length":16,"data":"mailto:vm@everytale.net"},{"type":"link","offset":1078,"length":11,"data":"tel:89267213115"},{"type":"handle","offset":1124,"length":16,"data":"javascript_jobs"}],"date":"2020-06-16T19:46:41+00:00","link":"tg://resolve?domain=javascript_jobs_feed&post=0","tags":[{"name":"javascript"},{"name":"reactjs"},{"name":"web"},{"name":"html"},{"name":"css"},{"name":"git"},{"name":"go"},{"name":"docker"},{"name":"github"},{"name":"jenkins"},{"name":"dotnet"}],"cities":[{"code":"moscow"}],"allowsRemote":true}},{"node":{"__typename":"Job","id":"71425851392-1001054966032","title":"Android developer","text":"#вакансия #Juniorandroid #Android developer #kotlin #удаленно                                                                                                         Уровень дохода:💵 50 000-60 000  рублей net                                                                                                                                                                                 Требуемый опыт работы: от 1 года\nПолная занятость, дистанционно, гибкое начало рабочего дня\n \n📌Требования:\n- Нативная Android разработка (Kotlin)\n- Умение писать поддерживаемый и тестируемый код\n- Умение работать с Dagger 2\n- Умение работать с git\n- Желание развиваться и изучать новое в разработке\n- Опыт разработки приложений от 1 года\n -Знание английского языка от уровня Intermediate\n \n📌Будет плюсом:\n- Опыт работы с JNI\n- Опыт использования tensorflow\n- Опыт работы с аудио и видео\n\n📌Условия:\n- Отсутствие бюрократии\n- Время начала рабочего дня обговариваем индивидуально\n- Крутой инновационный проект - возможность самореализации и профессионального роста\n- Стабильное зарубежное финансирование\n- Десятки миллионов установок и множество глобальных партнёров\n📞Контакты @SvetikS_hr +7(963)-632-12-36 Cветлана","markup":[{"type":"hashtag","offset":0,"length":9,"data":"вакансия"},{"type":"hashtag","offset":10,"length":14,"data":"Juniorandroid"},{"type":"hashtag","offset":25,"length":8,"data":"Android"},{"type":"hashtag","offset":44,"length":7,"data":"kotlin"},{"type":"hashtag","offset":52,"length":9,"data":"удаленно"},{"type":"link","offset":184,"length":13,"data":"tel:50 000-60 000"},{"type":"handle","offset":1164,"length":11,"data":"SvetikS_hr"},{"type":"link","offset":1176,"length":17,"data":"tel:+7(963)-632-12-36"}],"date":"2020-06-16T18:45:45+00:00","link":"tg://resolve?domain=mobile_jobs&post=0","tags":[{"name":"mobile"},{"name":"android"},{"name":"kotlin"},{"name":"dotnet"},{"name":"git"},{"name":"tensorflow"}],"cities":[],"allowsRemote":true}},{"node":{"__typename":"Job","id":"102971211776-1001089317451","title":"Qa engineer","text":"#вакансия #QA #Java #Python #HighLoad #backend #СанктПетербург #Спб #fulltime #Bercut\n\nПривет! Мы команда компании Bercut.\nУже 25 лет разрабатываем высоконагруженное ПО для ведущих игроков на рынке операторов сотовой связи.\nНашими решениями, реально, пользуется каждый 5 человек в мире! \nОчень ждем в команду гениев тестирования #QA Engineer\nКто испытывает страсть к высоконагруженному backend – welcome!!!\nУмеешь тестить руками – отлично! Автоматизировать – огонь! Не умеешь, но хочешь - научим!)\n\nMust Have:\n- Базы данных: Oracle/Postgre\n- ОС Linux/Solaris\n- Sql/PL/Sql\n- SOAP\n- Python/Java\n\nНаходимся в Санкт-Петербурге, рядом с метро Пионерская.\nЖдем, как в офис, так и на удаленку.\nЗарплата: от 100 000 до 150 000net + годовой бонус до 2х окладов.\n\nЧто в проекте:\n•  тестирование многокомпонентной OLTP систему 24/7 (API);\n•  нагрузка;\n•  регрессия;\n•  настройка CD;\n•  тест-планы, тест-кейсы, чек-листы и тд.\n\nПиши мне в личку, отправляй письмо, звони – буду рада рассказать все  подробности!\n\nhttps://www.bercut.com/\nКонтакты @Mari_Kupaeva или почта maria.kupaeva@bercut.co","markup":[{"type":"hashtag","offset":0,"length":9,"data":"вакансия"},{"type":"hashtag","offset":10,"length":3,"data":"QA"},{"type":"hashtag","offset":14,"length":5,"data":"Java"},{"type":"hashtag","offset":20,"length":7,"data":"Python"},{"type":"hashtag","offset":28,"length":9,"data":"HighLoad"},{"type":"hashtag","offset":38,"length":8,"data":"backend"},{"type":"hashtag","offset":47,"length":15,"data":"СанктПетербург"},{"type":"hashtag","offset":63,"length":4,"data":"Спб"},{"type":"hashtag","offset":68,"length":9,"data":"fulltime"},{"type":"hashtag","offset":78,"length":7,"data":"Bercut"},{"type":"hashtag","offset":329,"length":3,"data":"QA"},{"type":"link","offset":1000,"length":23,"data":"https://www.bercut.com/"},{"type":"handle","offset":1033,"length":13,"data":"Mari_Kupaeva"},{"type":"link","offset":1057,"length":23,"data":"mailto:maria.kupaeva@bercut.co"}],"date":"2020-06-16T17:01:11+00:00","link":"tg://resolve?domain=qa_jobs&post=0","tags":[{"name":"qa"},{"name":"java"},{"name":"python"},{"name":"oracle"},{"name":"linux"},{"name":"sql"},{"name":"soap"},{"name":"dotnet"}],"cities":[],"allowsRemote":false}}]}}},"context":{}}