{"hash":"f5f6bf98bd95e769321482904cbbd488f77922fd","data":{"records":{"id":"docker","name":"docker","belongsTo":{"totalCount":182,"pageInfo":{"totalPages":19,"currentPage":16},"edges":[{"node":{"__typename":"Job","id":"1687158784-1001091028994","title":"Java разработчик","text":"#java #senior #backend #js #Москва #fulltime #офис #angular\nЛокация: Москва, м. Шаболовская\nФормат работы: Office\nЗанятость: Fulltime\nЗарплата от 100 к до 240 к\nОписание вакансии:\nРазработчик JAVA (senior\\middle)\nНаш клиент - международная компания, в связи с расширением деятельности в России - приглашает опытных Java-разработчиков. \nРазработка собственного продукта - коммерческого приложения на основе Angular front + Java backend.\nОбязанности:\n- разработка новых компонентов системы\n- доработка и оптимизация существующих компонентов\n- поддержка качества кода (code review, использование систем автоматизированного контроля кода)\n- Написание юнит-тестов и функциональных тестов\n- Взаимодействие с бизнес-аналитиками для выполнения техзадания\nТребования:\n- Высшее образование\n- Командность, гибкость подходов и мышления\n- опыт разработки на java от 3 лет\nТехнические требования:\n- знание java 8, Spring-*(Boot, Data, Rest), Hibernate\n- опыт работы с SQL (SQL Server, Oracle или postgresql)\n- понимание основ микросервисной архитектуры\n- Git\n-если ты умеешь работать с Docker и понимаешь практики DevOps ты тот, кто нам нужен.\nАдекватных руководителей, сильную команду и офисные плюшки гарантируем\nКА Wit recruitment\nКонтакты m.buldenko@witrec.com\n@marinabuldenko","markup":[{"type":"hashtag","offset":0,"length":5,"data":"java"},{"type":"hashtag","offset":6,"length":7,"data":"senior"},{"type":"hashtag","offset":14,"length":8,"data":"backend"},{"type":"hashtag","offset":23,"length":3,"data":"js"},{"type":"hashtag","offset":27,"length":7,"data":"Москва"},{"type":"hashtag","offset":35,"length":9,"data":"fulltime"},{"type":"hashtag","offset":45,"length":5,"data":"офис"},{"type":"hashtag","offset":51,"length":8,"data":"angular"},{"type":"link","offset":1229,"length":21,"data":"mailto:m.buldenko@witrec.com"},{"type":"handle","offset":1251,"length":15,"data":"marinabuldenko"}],"date":"2020-06-16T08:20:47+00:00","link":"tg://resolve?domain=jvmjobs&post=1609","tags":[{"name":"java"},{"name":"jvm"},{"name":"angularjs"},{"name":"spring"},{"name":"rest"},{"name":"hibernate"},{"name":"sql"},{"name":"oracle"},{"name":"postgresql"},{"name":"git"},{"name":"docker"},{"name":"spring-boot"},{"name":"sql-server"}],"cities":[{"code":"moscow"}],"allowsRemote":false}},{"node":{"__typename":"Job","id":"2212495360-1001134745498","title":"Devops engineer","text":"#вакансия #DevOps #fulltime #москва\n\nDevOps Engineer\nГород: Москва\nФормат работы: офис \nЗанятость: полная\nЗП вилка 160-250 тысяч\n\ninDriver - международный ride-hailing сервис:\n* 47 млн пользователей в 31 стране мира.\n* Входим в топ-5 мобильных сервисов для заказа поездки по итогам января 2020 года.\n* Офис возле м. Улица 1905 года.\n\nОбязанности:\n• Настройка и поддержка инфраструктуры для разработки (сервера, docker, kubernetes, helm)\n• Внедрение и поддержка Kubernetes в production\n• Создание Helm Charts\n• Настройка пайплайнов для процессов CI/CD (TeamCity)\n• Повышение отказоустойчивости работы сервисов\n\nТребования:\n• Опыт работы с операционными системами семейства Linux (CentOS/RHEL)\n• Опыт внедрения и использования Kubernetes в production\n• Опыт настройки и работы с nginx, MySQL, Redis, Prometheus, ClickHouse\n• Опыт работы с облачными провайдерами: GCP, AWS, Azure\n• Опыт использования Ansible и написания ролей и плейбуков\n• Опыт поддержки высоконагруженных сервисов на базе ОС Linux\n• Умение читать и разбираться в чужом коде: Go, PHP\n\nКонтакт для связи: @liuboushka888\n\n—\n\n👉 Обсуждение вакансии в чате @devops_jobs","markup":[{"type":"hashtag","offset":0,"length":9,"data":"вакансия"},{"type":"hashtag","offset":10,"length":7,"data":"DevOps"},{"type":"hashtag","offset":18,"length":9,"data":"fulltime"},{"type":"hashtag","offset":28,"length":7,"data":"москва"},{"type":"handle","offset":1069,"length":14,"data":"liuboushka888"},{"type":"handle","offset":1118,"length":12,"data":"devops_jobs"}],"date":"2020-06-16T07:57:58+00:00","link":"tg://resolve?domain=devops_jobs_feed&post=2110","tags":[{"name":"docker"},{"name":"kubernetes"},{"name":"linux"},{"name":"centos"},{"name":"nginx"},{"name":"mysql"},{"name":"redis"},{"name":"google-cloud-platform"},{"name":"amazon-web-services"},{"name":"azure"},{"name":"ansible"},{"name":"php"}],"cities":[{"code":"moscow"}],"allowsRemote":false}},{"node":{"__typename":"Job","id":"1686110208-1001091028994","title":"Java разработчик","text":"#вакансия #java #senior #middle \nЛокация: Саратов, Самара, Кемерово \nЗП: 80.000-170.000 на руки\nИщем в команду Java dev  уровня middle/senior в связи с большим количеством интересных проектов и расширения команды.\nКратко по стеку: \n[ Java 11+, Maven, Spring Boot 2+, Hibernate 5+, PostgreSQL 12, RabbitMQ ]\nТребования:\n - Java SE 8 и выше \n- Spring / Spring Boot \n- Hibernate или MyBatis\n- SQL (PostgreSQL) \n- Apache Tomcat или Eclipse Jetty или другой app server\n- Принципы ООП\n- Web сервисы (REST или SOAP).\n Будет плюсом: опыт работы с одним из актуальных frontend фреймворков - Angular, React, Vue; понимание принципов работы протоколов HTTP, HTTPS; работа с очередями (ActiveMQ, RabbitMQ) и опыт работы с Docker.\nЧто предлагаем:\n- белая з/п и оформление в штат;\n- интересные проекты и адекватное руководство; \n- возможность профессионального и карьерного роста;\n- формат интервью 1 этап по Skype или Zoom\nДля связи и резюме @KaterinaHR","markup":[{"type":"hashtag","offset":0,"length":9,"data":"вакансия"},{"type":"hashtag","offset":10,"length":5,"data":"java"},{"type":"hashtag","offset":16,"length":7,"data":"senior"},{"type":"hashtag","offset":24,"length":7,"data":"middle"},{"type":"handle","offset":929,"length":11,"data":"KaterinaHR"}],"date":"2020-06-16T07:55:35+00:00","link":"tg://resolve?domain=jvmjobs&post=1608","tags":[{"name":"java"},{"name":"jvm"},{"name":"maven"},{"name":"spring"},{"name":"hibernate"},{"name":"postgresql"},{"name":"rabbitmq"},{"name":"sql"},{"name":"apache"},{"name":"tomcat"},{"name":"eclipse"},{"name":"jetty"},{"name":"web"},{"name":"rest"},{"name":"soap"},{"name":"angularjs"},{"name":"reactjs"},{"name":"vuejs"},{"name":"docker"},{"name":"spring-boot"}],"cities":[{"code":"saratov"},{"code":"samara"},{"code":"kemerovo"}],"allowsRemote":false}},{"node":{"__typename":"Job","id":"26322403328-1001075660570","title":"Php разработчик","text":"#вакансия  #fulltime #backend  #москва #go #php\nВакансия: backend-разработчик PHP\nКомпания: Авито\nГород: Москва\nФормат работы: #офис\nЗанятость: #полная\n\n\nВам предстоит:\n-проектировать и реализовывать решения для одной из крупнейших вертикалей Авито;\n-справляться с высокой нагрузкой и быстрым ростом этой самой нагрузки;\n-участвовать в разработке продукта, которым пользуются миллионы человек.    \n\nМы ожидаем, что вы:\n-имеете опыт разработки на PHP от 3 лет;\n-понимаете, что такое ООП\n-знаете что такое паттерны проектирования, когда их применять и когда их не применять\n-знакомы с основными алгоритмами, структурами данных и способами защиты информации;\n-знаете SQL и работали с реляционными БД;\n-любите Unit-тесты и знаете как их писать.\n\nНе обязательно, но круто если Вы:\n-владеете Go или хотите на нём писать;\n-имеете опыт работы с NoSQL, системами очередей;\n-работали с Docker/Kubernetes;\n-имеете опыт коммерческой разработки микросервисной архитектуры.\n\nПо всем вопросам писать @anna_shangareeva","markup":[{"type":"hashtag","offset":0,"length":9,"data":"вакансия"},{"type":"hashtag","offset":11,"length":9,"data":"fulltime"},{"type":"hashtag","offset":21,"length":8,"data":"backend"},{"type":"hashtag","offset":31,"length":7,"data":"москва"},{"type":"hashtag","offset":39,"length":3,"data":"go"},{"type":"hashtag","offset":43,"length":4,"data":"php"},{"type":"hashtag","offset":127,"length":5,"data":"офис"},{"type":"hashtag","offset":144,"length":7,"data":"полная"},{"type":"handle","offset":985,"length":17,"data":"anna_shangareeva"}],"date":"2020-06-16T06:45:09+00:00","link":"tg://resolve?domain=php_jobs&post=25103","tags":[{"name":"php"},{"name":"sql"},{"name":"nosql"},{"name":"docker"},{"name":"kubernetes"}],"cities":[{"code":"moscow"}],"allowsRemote":false}},{"node":{"__typename":"Job","id":"340787200-1001352129329","title":"Golang разработчик","text":"#вакансия #Москва #senior #Go #fulltime #офис #удаленка  \nВакансия: Lead or Senior Golang Developer \nКомпания: Skytech Solutions\nГород: Moscow/Malta\nФормат работы: офис или удаленка (на выбор кандидата)\nЗанятость: полная\nВилка заработной платы: от 180 000 - 230 000 р на руки\n\nТребуемый опыт работы: 3–6 лет.\nПолная занятость, полный день\n\nОбязанности:\nСоздание высоконагруженных сервисов / микро-сервисов;\nРазработка интеграции с внешними сервисами;\nРазработка платформы для Betting / Gambling;\nРазработка надежной, безопасной и безотказной экосистемы;\nРешение сложных и интересных задач;\n\nТребования:\nИметь опыт коммерческой разработки ПО на Go не менее 3-х лет, отличное знание языка и экосистемы;\nПонимание многопоточности, параллельных вычислений и широко используемых структур данных и алгоритмов;\nПонимание основных паттернов проектирования;\nУмение работать с контролем версий Git;\nУверенно знаете стек TCP / IP;\nЗнаете RFC стандартны HTTP / WebSockets;\nРаботаете с REST / GraphQL;\nЗнание лучших практик разработки микро-сервисных архитектур, Docker и опыт production релизов совместно с девопс инженерами;\nИмеете опыт написания высоконагруженных систем;\nРаботаете unix-подобными системами;\nОтличное знание SQL и одной из реляционных СУБД.\nСильные навыки решения проблем, желание работать в команде;\n\nБудет плюсом:\nПрофильное высшее образование (математическое или техническое);\nИмеете опыт разработки подобных решений (Ставки на спорт/Gambling/Poker/Trade)\nЗнание Алгоритмов\nОпыт работы с Графовыми базами данных;\n\nSoft skills:\nРешать поставленные задачи максимально эффективно в поставленный срок;\nЯвляться командным разработчиком, слышать других и учитывать чужое мнение;\nПонимать, что не надо делать overhead там, где это не надо;\nБыть самостоятельным и уметь брать на себя ответственность за свои решения;\nСчитать тестирование неотъемлемой частью разработки;\nСпокойно относиться к техническому долгу, так как это нормальный этап в развитии проекта;\n\nНемного о проекте:\nВ связи с расширением нашего портфеля проектов, мы находится в поисках квалифицированных разработчиков ПО.\nМы разрабатываем  высоконагруженный проект, связанный со ставками на sport/e-sport , фактически - это биржа ставок со своими сопутствующими сервисами, в нашем случае упор идет на Algo-trading, bot platform, AI и алгоритмы. Проект очень сложный и интересный, нет Legacy кода, все разрабатывается с 0. Будем рады видеть тебя в своих рядах.\nНаш стек :\nLinux, Go, PostgreSQL, Git, ArangoDB, Tarantool, Kafka, Redis.\n\nМы предлагаем:\nВозможность карьерного и профессионального роста в международной компании;\nРабота по контракту с зарубежной компанией (Мальта);\nВысокий уровень заработной платы;\nБонусы и премии по итогам выполненных задач;\nРазработка ведется по гибким методологиям;\nВозможна удаленная работа;\nГибкий график работы, но без фанатизма (главное - это качественное выполнение задач в сжатые сроки);\nПК - MacBook;\nМолодой профессиональный коллектив.\n\nКонтакты: telegram @FreddyNigma","markup":[{"type":"hashtag","offset":0,"length":9,"data":"вакансия"},{"type":"hashtag","offset":10,"length":7,"data":"Москва"},{"type":"hashtag","offset":18,"length":7,"data":"senior"},{"type":"hashtag","offset":26,"length":3,"data":"Go"},{"type":"hashtag","offset":30,"length":9,"data":"fulltime"},{"type":"hashtag","offset":40,"length":5,"data":"офис"},{"type":"hashtag","offset":46,"length":9,"data":"удаленка"},{"type":"handle","offset":2968,"length":12,"data":"FreddyNigma"}],"date":"2020-06-15T19:50:50+00:00","link":"tg://resolve?domain=gogetajobfeed&post=325","tags":[{"name":"go"},{"name":"git"},{"name":"rest"},{"name":"graphql"},{"name":"docker"},{"name":"unix"},{"name":"sql"},{"name":"linux"},{"name":"postgresql"},{"name":"kafka"},{"name":"redis"}],"cities":[{"code":"moscow"}],"allowsRemote":true}},{"node":{"__typename":"Job","id":"102911442944-1001089317451","title":"Qa engineer","text":"#Москва #вакансия #QA #fulltime #test #office\n\n💻Компания: СберТех.\n🧰Вакансия: QA Engineer.\n🏢Офис: Москва, м. Нагатинская/м. Тульская/ м. Верхние Котлы.\n💰ЗП: от 150 000 Net.\n\n📂Проект: Разработка платформы для управления бизнес-процессами Банка и Цифровой Платформы Sber.\n\n🗓Задачи:\n• Работа в роли тестировщика в scrum команде.\n• Написание, актуализация тестовых сценариев и их прохождение (API, UI).\n• Проведение функционального, регрессионного, интеграционного и других видов тестирования.\n• Регистрация, отслеживание и верификация дефектов.\n• Участие в развитии команды и процессов тестирования.\n\n📌Требования: \n• Опыт написания тестовых сценариев, чек-листов, составления сложных интеграционных сценариев.\n• Знание теории тестирования, понимание видов тестирования и необходимости их применения на различных этапах реализации проекта.\n• Опыт анализа и тестирования требований.\n• Опыт тестирования rest/soap сервисов.\n• Опыт работы с BPM системами, понимание нотации BPMN 2.0.\n\n📎Cтек: REST, XML, XSD, JSON, SQL, BPMN 2.0, Docker, Kubernetes, Openshift, Kafka.\n\n🔰Условия:\n• Оформление ТК РФ.\n• ДМС для сотрудников и скидки на медицинскую страховку для родственников;\n• Высокая белая заработная плата (оклад + годовая премия).\n• Возможность обучения за счет компании, посещения IT-конференций.\n• Бесплатный тренажерный зал на территории офиса.\n• Корпоративная жизнь и спортивные мероприятия.\n\n📩Готов ответить на интересующие вопросы - @Dmiryy","markup":[{"type":"hashtag","offset":0,"length":7,"data":"Москва"},{"type":"hashtag","offset":8,"length":9,"data":"вакансия"},{"type":"hashtag","offset":18,"length":3,"data":"QA"},{"type":"hashtag","offset":22,"length":9,"data":"fulltime"},{"type":"hashtag","offset":32,"length":5,"data":"test"},{"type":"hashtag","offset":38,"length":7,"data":"office"},{"type":"handle","offset":1443,"length":7,"data":"Dmiryy"}],"date":"2020-06-15T19:05:56+00:00","link":"tg://resolve?domain=qa_jobs&post=0","tags":[{"name":"qa"},{"name":"dotnet"},{"name":"rest"},{"name":"soap"},{"name":"xml"},{"name":"xsd"},{"name":"json"},{"name":"sql"},{"name":"docker"},{"name":"kubernetes"},{"name":"kafka"}],"cities":[{"code":"moscow"}],"allowsRemote":false}},{"node":{"__typename":"Job","id":"16942891008-1001110946746","title":"Js разработчик","text":"Greenatom.ru\n#вакансия #Москва #javascript #React #Typescript #Node.js #Middle #Senior #удаленка #удаленная работа \n\n👨🏼‍💻 Middle/Senior Frontend Developer, Middle/Senior Backend Developer\nГород и адрес офиса: #Москва, БЦ Сириус Парк, метро Нагатинская\n\n✅Формат работы: \nУДАЛЕННАЯ РАБОТА\n\n💻Занятость: полная, гибкое начало трудового дня.\n\nЗарплатная вилка: от 170 000 до 230 000 руб. на руки.\n\n🏢Компания: АО Гринатом\n\nПривет! Мы растём и активно развиваем ряд внутренних проектов: например, корпоративный портал, горячая линия, собственная кадровая система. Мы формируем НЕСКОЛЬКО КОМАНД и ищем классных:\n\n✅фронтенд разработчиков;\n\n✅бэкенд разработчиков. \n\nПроекты в стадии разработки пилота и у тебя есть возможность повлиять на дальнейшее развитие продукта. Если у тебя есть крутые идеи - ты сможешь их здесь реализовать! Откликайся сам и зови друзей! Вирус пройдёт, работа останется!\n\n✅Требуемые знания и навыки:\n- Опыт разработки от двух лет\n- Хорошее знание чистого JS\n- Опыт работы с TypeScript\n- React, MobX, Less/Sass\n- Опыт написания юнит-тестов с помощью Jest, Enzymе очень приветствуется\n\n💡Наш стек:\n      React, TypeScript, Node.js, MobX, Docker\n\nМы работаем по Scrum.\n\n✅Условия:\n- Официальное оформление по ТК, белая зп;\n- Возможности профессионального и карьерного роста;\n- Дополнительные 3 дня к отпуску;\n- Плавающее начало дня;\n- ДМС со стоматологией\n\n☎️Контакты:\nЮлия - YAnZueva@Greenatom.ru","markup":[{"type":"link","offset":0,"length":12,"data":"http://Greenatom.ru"},{"type":"hashtag","offset":13,"length":9,"data":"вакансия"},{"type":"hashtag","offset":23,"length":7,"data":"Москва"},{"type":"hashtag","offset":31,"length":11,"data":"javascript"},{"type":"hashtag","offset":43,"length":6,"data":"React"},{"type":"hashtag","offset":50,"length":11,"data":"Typescript"},{"type":"hashtag","offset":62,"length":5,"data":"Node"},{"type":"hashtag","offset":71,"length":7,"data":"Middle"},{"type":"hashtag","offset":79,"length":7,"data":"Senior"},{"type":"hashtag","offset":87,"length":9,"data":"удаленка"},{"type":"hashtag","offset":97,"length":10,"data":"удаленная"},{"type":"hashtag","offset":212,"length":7,"data":"Москва"},{"type":"link","offset":1392,"length":21,"data":"mailto:YAnZueva@Greenatom.ru"}],"date":"2020-06-15T18:41:43+00:00","link":"tg://resolve?domain=javascript_jobs_feed&post=0","tags":[{"name":"javascript"},{"name":"reactjs"},{"name":"typescript"},{"name":"nodejs"},{"name":"sass"},{"name":"docker"}],"cities":[{"code":"moscow"}],"allowsRemote":true}},{"node":{"__typename":"Job","id":"90991230976-1001067529236","title":"Python developer","text":"#вакансия #remote #fulltime #python\n\nBack-end Python Developer\n\nФормат работы: #fulltime #remote\nЗарплата: от  $ 50 000 до $ 70 000  в год\n\nКоманда с большим опытом в компьютерном зрении и экспертами мирового уровня ищет в свои ряды Backend Python Developer. Стартап, создающий продукт для домашней безопасности, привлек $6,9 млн инвестиций. Продукт и его основатели базируются в Калифорнии, а почти вся команда — в России и Украине.\n\nЗадачи :\n• Оптимизация и улучшение качества алгоритмов трекинга людей;\n• Доработка основного кода клиентской стороны;\n• Разработка механизмов обновления клиентских приложений (Linux\\Docker);\n• Разработка системы сбора и разметки данных;\n• Доработка инфраструктурных сервисов и системы оценки качества.\n\nТребования:\n• Опыт промышленной работы от двух лет;\n• Опыт разработки оптимизационных алгоритмов разного назначения;\n• Опыт работы с AWS, Google Cloud, Azure, Docker.\n• Знание Python и\\или С++ и\\или Java;\n• Знание сетевых протоколов, их вариаций и особенностей;\n• Умение работать с многопоточной средой, понимание принципов работы сопрограмм;\n• Умение создавать сервера, способные выдерживать большие нагрузки.\n\nБудет плюсом:\n• Веб каркас Tornado, знания протокола HTTP;\n• Базы данных MongoDB, Redis, Aerospike, Cassandra;\n• Опыт работы с распределенной инфраструктурой;\n• Опыт использования нейронных сетей на TensorFlow / Keras / Caffe;\n• Понимание принципов работы различных архитектур нейронных сетей, знание алгоритмов машинного обучения.\n\nЧтобы откликнуться, необходимо пройти короткий отбор по ссылке https://6nomads.com/","markup":[{"type":"hashtag","offset":0,"length":9,"data":"вакансия"},{"type":"hashtag","offset":10,"length":7,"data":"remote"},{"type":"hashtag","offset":18,"length":9,"data":"fulltime"},{"type":"hashtag","offset":28,"length":7,"data":"python"},{"type":"hashtag","offset":79,"length":9,"data":"fulltime"},{"type":"hashtag","offset":89,"length":7,"data":"remote"},{"type":"link","offset":1546,"length":20,"data":"https://6nomads.com/"}],"date":"2020-06-15T18:27:28+00:00","link":"tg://resolve?domain=python_jobs&post=0","tags":[{"name":"python"},{"name":"linux"},{"name":"docker"},{"name":"amazon-web-services"},{"name":"cloud"},{"name":"azure"},{"name":"java"},{"name":"mongodb"},{"name":"redis"},{"name":"cassandra"},{"name":"tensorflow"},{"name":"google-cloud-platform"}],"cities":[],"allowsRemote":true}},{"node":{"__typename":"Job","id":"102892568576-1001089317451","title":"Qa инженер","text":"#вакансия #fulltime #офис #Москва #DRTest #Kubernetes #senior #DevOps #TS\n\nКомпания: Техносерв https://technoserv.com/ \nВакансия: Senior QA DevOps\nДля работы на проектах в крупном банке (T&M)\nЗП: 100 000 - 220 000\nГрафик работы: фултайм, 10:00-19:00 (по договоренности)\nМесто работы: офис, г. Москва\n\nЗадачи:\n· Построение/тестирование CI/CD pipelines;\n· Администрирование/тестирование скриптов развертывания Kubernetes кластеров;\n· Консультирование заинтересованных лиц по сопровождению и эксплуатации ПО в части DR тестирования;\n· Изучение и последующее тестирование новых инструментов.\n\nТребования:\n∙ Опыт построения процесса конечной интеграции и мониторинга, управления сетями (настройка машин, виртуализация, безопасность);\n∙ Опыт работы с Kubernetes;\n∙ Опыт администрирования Linux серверов (Centos,RHEL)\n∙ Хорошее знание инструментов DevOps (Docker, Jenkins/TeamCity, Ansible/Salt/Puppet/Chef), понимание принципов DevSecOps;\n∙ Опыт настройки и администрирования веб-серверов (Apache, Nginx, JBoss/WildFly, Glassfish);\n∙ Опыт настройки и администрирования систем мониторинга (Zabbix, Prometheus, Grafana, Nagios);\n∙ Хорошее знание Git;\n∙ Знание shell/bash;\n∙ Опыт работы с ELK Stack (или готовность самостоятельно быстро изучить его на практике);\n∙ Умение доходчиво донести информацию как представителям бизнеса, так и IT-специалистам.\n\nПриветствуется:\n∙ Опыт построения pipelines в TeamCity;\n∙ Знание одного из языков программирования (Python, JS, golang);\n∙ Опыт работы со стеком Atlassian (Jira, Confluence);\n∙ Опыт работы с Redis, RabbitMQ, Elasticsearch, Kafka.\n\nРезюме сюда: QAResume@technoserv.com","markup":[{"type":"hashtag","offset":0,"length":9,"data":"вакансия"},{"type":"hashtag","offset":10,"length":9,"data":"fulltime"},{"type":"hashtag","offset":20,"length":5,"data":"офис"},{"type":"hashtag","offset":26,"length":7,"data":"Москва"},{"type":"hashtag","offset":34,"length":7,"data":"DRTest"},{"type":"hashtag","offset":42,"length":11,"data":"Kubernetes"},{"type":"hashtag","offset":54,"length":7,"data":"senior"},{"type":"hashtag","offset":62,"length":7,"data":"DevOps"},{"type":"hashtag","offset":70,"length":3,"data":"TS"},{"type":"link","offset":95,"length":23,"data":"https://technoserv.com/"},{"type":"link","offset":1588,"length":23,"data":"mailto:QAResume@technoserv.com"}],"date":"2020-06-15T14:52:17+00:00","link":"tg://resolve?domain=qa_jobs&post=0","tags":[{"name":"qa"},{"name":"kubernetes"},{"name":"linux"},{"name":"centos"},{"name":"docker"},{"name":"jenkins"},{"name":"ansible"},{"name":"apache"},{"name":"nginx"},{"name":"jboss"},{"name":"git"},{"name":"shell"},{"name":"bash"},{"name":"python"},{"name":"go"},{"name":"redis"},{"name":"rabbitmq"},{"name":"elasticsearch"},{"name":"kafka"}],"cities":[{"code":"moscow"}],"allowsRemote":false}},{"node":{"__typename":"Job","id":"1681915904-1001091028994","title":"Java developer","text":"#вакансия #java #javadeveloper #spring #офис #МСК\n\nГород и адрес офиса: Москва, \nФормат работы: в офисе\nЗанятость: фулл тайм\nЗарплатная вилка: 200 000-250 000 рублей на руки (+-10% люфт для кандидатов с немного большими ожиданиями)\nНазвание компании: Фирма 1С\n\nВ амбициозный проект фирмы «1С» требуется Lead Java Developer с экспертным знанием стека Spring Framework и практическим опытом в области разработки интернет-проектов на платформе Java. Вы получите возможность работать над архитектурно значимыми компонентами, создавая масштабные и современные интернет-проекты делового назначения. \nСам проект представляет: современную торговую площадку в сегменте B2B https://1cbn.ru/trading.htm. Наша торговая площадка - технически сложный интернет-проект, работающий как в web, так и встроенный во многие учетные системы \"1С\".\n\nТЕХНОЛОГИЧЕСКИЙ СТЕК:\nJava, экосистема Spring (IoC, Spring MVC, Spring Data JPA, Spring Security, Spring Boot), PostgreSQL\n\nЧТО ВЫ БУДЕТЕ ДЕЛАТЬ:\n-Анализ задачи и проектирование микросервисов с использованием DDD и Hexagonal Architecture;\n-Проведение code review;\n-Участие в архитектурном совете продукта;\n-Проектирование REST API (OpenAPI 3);\n-Разработку микросервисов на Spring Framework 5 от идеи до запуска в эксплуатацию;\n-Покрытие своего кода unit и интеграционными тестами;\n-Соотношение легаси к разработке 20/80%.\n\nМы используем микросервисную архитектуру, Project Lombok, технологии Spring Cloud, Spring Boot, Spring Data, Elasticsearch, PostgreSQL, Git, Docker. Практикуем DDD, Agile-методологии, code review, CI и прочие полезные инженерные практики.\n\nЧТО ПРЕДЛАГАЕМ:\n-возможность профессионального и карьерного роста вместе с ростом команды;\n-опыт работы с талантливыми профессионалами, у которых есть чему научиться;\n-современный комфортный офис в 5-ти минутах ходьбы от м. Тимирязевская  http://1c.ru/rus/firm1c/d9.html;\n-зоны отдыха и кофе-поинты с диванами и массажными креслами;\n-гибкий график;\n-возможность заказывать проф. литературу за счет компании;\n-стабильная и конкурентоспособная заработная плата;\n-расширенный социальный пакет (ДМС со стоматологией всех видов работ);\n(хорошо решены вопросы медицинского обслуживания   (страхования), питания, проезда, спорта);\n-бесплатная охраняемая парковка на территории офиса;\n-предоставляем жилье для иногородних на период исп. срока.\n\nПообщаться по вакансии можно в телеграм @lamamama или по почте yana@geecko.ru","markup":[{"type":"hashtag","offset":0,"length":9,"data":"вакансия"},{"type":"hashtag","offset":10,"length":5,"data":"java"},{"type":"hashtag","offset":16,"length":14,"data":"javadeveloper"},{"type":"hashtag","offset":31,"length":7,"data":"spring"},{"type":"hashtag","offset":39,"length":5,"data":"офис"},{"type":"hashtag","offset":45,"length":4,"data":"МСК"},{"type":"link","offset":664,"length":27,"data":"https://1cbn.ru/trading.htm"},{"type":"link","offset":1828,"length":31,"data":"http://1c.ru/rus/firm1c/d9.html"},{"type":"handle","offset":2366,"length":9,"data":"lamamama"},{"type":"link","offset":2389,"length":14,"data":"mailto:yana@geecko.ru"}],"date":"2020-06-15T14:41:52+00:00","link":"tg://resolve?domain=jvmjobs&post=1604","tags":[{"name":"java"},{"name":"jvm"},{"name":"spring"},{"name":"web"},{"name":"jpa"},{"name":"postgresql"},{"name":"rest"},{"name":"cloud"},{"name":"elasticsearch"},{"name":"git"},{"name":"docker"},{"name":"html"},{"name":"spring-mvc"},{"name":"spring-data"},{"name":"spring-security"},{"name":"spring-boot"}],"cities":[{"code":"moscow"}],"allowsRemote":false}}]}}},"context":{}}