{"hash":"f5f6bf98bd95e769321482904cbbd488f77922fd","data":{"records":{"id":"android","name":"android","belongsTo":{"totalCount":165,"pageInfo":{"totalPages":17,"currentPage":9},"edges":[{"node":{"__typename":"Job","id":"71900856320-1001054966032","title":"Android разработчик","text":"#Android #Java #Kotlin #вакансия \n#НижнийНовгород #Ижевск #Владимир #Белгород \nВакансия: Android разработчик . Готовы принят в штат команды мобильной разработки. Локация: Нижний Новгород, Ижевск, Владимир или Белгород.\nРассмотрим кандидатов из любого из перечисленных регионов или готовых переехать туда.\nКомпания: разработчик ИТ, продукты \"под заказ\", 90% приложений для банковской сферы.\nФормат работы: Office/remote Занятость: Full-time Зарплатная вилка: 90.000-180.000 net (по итогам собеседования, есть индексация и рост з\\п)\n🏢Адреса офисов в указанных городах:г. Н.Новгород, ул.Керченская, д.13;\nг. Владимир, ул.Горького, д.56а, г. Ижевск, ул. Вадима Сивкова.д.290 и г.Белгород (возможен формат домашнего офиса или аренды офиса в доступности от кандидата).\n☕️Формат работы: офис,начало-конец рабочего дня гибкие,по договоренности,официальное оформление. Удаленный вариант есть,но для указанных регионов.\n🔆Занятость: полный день\n📋Описание вакансии: ищу с опытом программирования на Java и/или Kotlin.\n😍Гибкий подход к каждому специалисту, корпоративный английский; стремительно растущая компания;меняем жизнь к лучшему при помощи технологий IT;оплачиваемые конференции и внутренние тренинги/курсы;ежегодный пересмотр заработной платы по результатам работы. @ElenaTsatsenko","markup":[{"type":"hashtag","offset":0,"length":8,"data":"Android"},{"type":"hashtag","offset":9,"length":5,"data":"Java"},{"type":"hashtag","offset":15,"length":7,"data":"Kotlin"},{"type":"hashtag","offset":23,"length":9,"data":"вакансия"},{"type":"hashtag","offset":34,"length":15,"data":"НижнийНовгород"},{"type":"hashtag","offset":50,"length":7,"data":"Ижевск"},{"type":"hashtag","offset":58,"length":9,"data":"Владимир"},{"type":"hashtag","offset":68,"length":9,"data":"Белгород"},{"type":"handle","offset":1266,"length":15,"data":"ElenaTsatsenko"}],"date":"2020-06-23T20:07:25+00:00","link":"tg://resolve?domain=mobile_jobs&post=68570","tags":[{"name":"mobile"},{"name":"android"},{"name":"java"},{"name":"kotlin"},{"name":"dotnet"}],"cities":[{"code":"izhevsk"},{"code":"vladimir"},{"code":"belgorod"},{"code":"nizhny-novgorod"}],"allowsRemote":true}},{"node":{"__typename":"Job","id":"71893516288-1001054966032","title":"Android разработчик","text":"#вакансия #Москва #fulltime #android \nКомпания: Trinity Monsters\nПозиция: Android разработчик\nЛокация: Россия, Москва, офис в самом центре, у метро Охотный Ряд\nЗанятость: полная \n\nЗП: от 150.000 до 250.000 руб. на руки\n\nОт вас мы ждём:\n\n- отличные знания Kotlin\n- опыт работы с git\n- понимание принципов ООП\n- понимание принципы проектирования SOLID\n-MVP/MVVM, Clean Architecture; понимание DI;\n- умение расставлять приоритеты и эффективно планировать рабочее время\n\nПочему мы:\n⁃ гибкий график\n⁃ отлаженный менеджмент\n⁃ большие проекты \n⁃ работа с разнообразными интересными и амбициозными проектами\n⁃ сложные технические задачи, возможность развития и роста\n⁃ просторный комфортный офис в 2-х минутах от метро Охотный ряд с кухней, чаем, кофе и т.д.\n⁃ возможность влиять на продукт и вносить свои идеи\n⁃ оформление по ТК РФ\n\nДля связи @vicemik","markup":[{"type":"hashtag","offset":0,"length":9,"data":"вакансия"},{"type":"hashtag","offset":10,"length":7,"data":"Москва"},{"type":"hashtag","offset":18,"length":9,"data":"fulltime"},{"type":"hashtag","offset":28,"length":8,"data":"android"},{"type":"handle","offset":836,"length":8,"data":"vicemik"}],"date":"2020-06-23T16:29:03+00:00","link":"tg://resolve?domain=mobile_jobs&post=68563","tags":[{"name":"mobile"},{"name":"android"},{"name":"kotlin"},{"name":"git"},{"name":"mvvm"}],"cities":[{"code":"moscow"}],"allowsRemote":false}},{"node":{"__typename":"Job","id":"103550025728-1001089317451","title":"Qa инженер","text":"Специалист по тестированию в Instories \nhttps://instoriesapp.com/\nмобильное приложение для маркетологов, SMM-специалистов и блогеров. \n\n     Тебе предстоит:\nТестировать новые версии продуктов (Android и iOS); \nПроверять качество исправления дефектов;\nПроводить функциональные/smoke/регрессионные тесты;\nПринимать билды перед релизами;\nПроверять дефекты от пользователей на актуальность;\nМониторить отчеты об ошибках и сбоях;\nРаботать над тестовой документацией;\nПредусмотрено активное взаимодействие с командой: разработка, дизайн, продакт-менеджмент, поддержка пользователей.\n\n       Мы ожидаем от успешного кандидата: \n\nОпыт тестирования нативных мобильных приложений от 6 месяцев; \nУмения составлять тестовую документацию;\nПонимание Git-Flow и умение пользоваться git;\nПонимание принципов клиент-серверного взаимодействия;\nРабота с ПО:  Firebase Crashlytics, Android Studio, Xcode, Figma.\n\nЗП от 35к/мес\n#удаленка #вакансия #тестирование #фултайм\n@Instories","markup":[{"type":"link","offset":40,"length":25,"data":"https://instoriesapp.com/"},{"type":"hashtag","offset":907,"length":9,"data":"удаленка"},{"type":"hashtag","offset":917,"length":9,"data":"вакансия"},{"type":"hashtag","offset":927,"length":13,"data":"тестирование"},{"type":"hashtag","offset":941,"length":8,"data":"фултайм"},{"type":"handle","offset":950,"length":10,"data":"Instories"}],"date":"2020-06-23T15:18:30+00:00","link":"tg://resolve?domain=qa_jobs&post=98753","tags":[{"name":"qa"},{"name":"android"},{"name":"ios"},{"name":"git"},{"name":"firebase"},{"name":"xcode"},{"name":"android-studio"}],"cities":[],"allowsRemote":true}},{"node":{"__typename":"Job","id":"71856816128-1001054966032","title":"Android разработчик","text":"‼️Вакансия Senior Android⁢ Developer‼️\n#android #developer #вакансия #удаленка\nВ команде Mycelium Wallet (mycelium.com) открыта #вакансия Senior Android⁢ Developer.\n💵З/П 3000-4000 USD по итогам собеседования.\nРабота удаленная 💻\n\nМы предлагаем:\n🔸Получить навыки и компетенции в одном из самых передовых и перспективных направлений финтех индустрии - blockchain;\n🔸Принять участие в разработке одного из самых популярных биткоин-кошельков в Google Play Store;\n🔸Работать в международной команде бок о бок с ведущими специалистами в индустрии;\n🔸Возможность профессионального карьерного роста и участия в разнообразных проектах компании.\n\nЧем предстоит заниматься:\n🔹Разрабатывать новые и развивать существующие мобильные сервисы компании на платформе Android;\n🔹Проектировать и разрабатывать большие функциональные части приложения с привлечением других программистов;\n🔹Использовать cutting edge технологии, а также проверенные временем решения.\n\nТребования:\n✔️Как минимум 3 года опыта разработки на Android;\n✔️Знание Java/Kotlin на уровне ведущего разработчика;\n✔️Знание шаблонов проектирования, опыт использования MVP и других архитектурных подходов;\n✔️Опыт параллельного и многопоточного программирования;\n✔️Понимание циклов работы Android-приложения и управления памятью;\n✔️Опыт разработки пользовательских интерфейсов на платформе Android. \n✔️Знание Android Design Principles;\n✔️Знание и умение использовать различные механизмы взаимодействий между приложениями, предоставляемые в рамках Android SDK;\n✔️Понимание принципов работы REST API, WS, RPC и клиент-серверных приложений;\n✔️Знание английского языка на уровне чтения документации и умения общаться в корпоративном чате.\n\nПлюсом будет:\n➕Умение и понимание необходимости написания Unit tests;\n➕Знание основ криптографии;\n➕Опыт работы с bitcoin/etherium blockchain stack;\n➕Наличие своих проектов на Github, в Google Play и т.д.\n\n📲Контакт: @valeritata","markup":[{"type":"hashtag","offset":39,"length":8,"data":"android"},{"type":"hashtag","offset":48,"length":10,"data":"developer"},{"type":"hashtag","offset":59,"length":9,"data":"вакансия"},{"type":"hashtag","offset":69,"length":9,"data":"удаленка"},{"type":"link","offset":106,"length":12,"data":"http://mycelium.com"},{"type":"hashtag","offset":128,"length":9,"data":"вакансия"},{"type":"handle","offset":1900,"length":11,"data":"valeritata"}],"date":"2020-06-23T11:07:04+00:00","link":"tg://resolve?domain=mobile_jobs&post=68528","tags":[{"name":"mobile"},{"name":"android"},{"name":"playframework"},{"name":"java"},{"name":"kotlin"},{"name":"rest"},{"name":"github"}],"cities":[],"allowsRemote":true}},{"node":{"__typename":"Job","id":"103514374144-1001089317451","title":"Qa engineer","text":"#вакансия #работа #удалёнка #fulltime #qa\n\nДолжность : QA Engineer\nКомпания : 6nomads.com\nФормат работы: #fulltime #remote\nЗарплата: 100-140 тыс рублей\n\nКто? \nБританский сервис с русскими корнями. Банковский помощник, который своей гибридной моделью автоматизации меняет скучный английский рынок платежных сервисов, лишает его бумажной составляющей и бюрократии, а заодно оставляет без работы бухгалтеров.\n\nЧто предлагают?\n- Заработная плата в фунтах (100-140 тыс рублей);\n- Командировки в Лондон и Кардифф;\n- Возможность релокации в Великобританию;\n- Работа в одном из офисов (Москва, Екатеринбург, Лондон и Кардифф) или удаленно;\n- Обучение и рост внутри компании, помощь в смене профиля на бэкенд, датасайнс или мобильную разработку при желании. \n\nЧто делать?    \n- Проектирование новых фич вместе с командой;\n- Написание тестовых сценариев;\n- Ручное тестирование (+немного автоматизации Python, appium);\n- Проведение регрессионного тестирования перед релизом;      \n- Создание отчетов по ошибкам и контроль их исправления;\n\nТребования:\n- Противобаговый иммунитет\n- Опыт поиска UI/UX дефектов \n- Английский не ниже Intermediate\n\nЧто тестировать?\ni​OS app, Android App, backend, web.                \nСтек: ​\nKaiten, Testrail, Git, TeamCity, Miro, Zeplin.\n\nКонтакт для связи: @temnik_sofya","markup":[{"type":"hashtag","offset":0,"length":9,"data":"вакансия"},{"type":"hashtag","offset":10,"length":7,"data":"работа"},{"type":"hashtag","offset":18,"length":9,"data":"удалёнка"},{"type":"hashtag","offset":28,"length":9,"data":"fulltime"},{"type":"hashtag","offset":38,"length":3,"data":"qa"},{"type":"link","offset":78,"length":11,"data":"http://6nomads.com"},{"type":"hashtag","offset":105,"length":9,"data":"fulltime"},{"type":"hashtag","offset":115,"length":7,"data":"remote"},{"type":"handle","offset":1280,"length":13,"data":"temnik_sofya"}],"date":"2020-06-23T10:26:42+00:00","link":"tg://resolve?domain=qa_jobs&post=98719","tags":[{"name":"qa"},{"name":"python"},{"name":"android"},{"name":"web"},{"name":"git"}],"cities":[{"code":"london"},{"code":"moscow"}],"allowsRemote":true}},{"node":{"__typename":"Job","id":"71853670400-1001054966032","title":"Android разработчик","text":"#вакансия  #android  #SPb #junior\n\nВ компании HiQo Solutions  мы сосредоточены на разработке целых систем IoT. Мы разрабатываем устройства, пишем программное обеспечение, которое воплощает их в жизнь, и создаем приложения, которые соединяют их с конечными пользователями. Мы решаем технологические задачи со всего мира и делаем это с нуля\n\nГород: Санкт-Петербург (пл. Александра Невского) \nФормат работы: удаленно, можно в офисе \nЗанятость: полная\nЗарплатная вилка: 600-1000$\n \nТребуемые навыки:\n•Знание Java и Kotlin;\n•Хорошее понимание основ Android;\n•Опыт разработки под Android;\n•Знание принципов ООП и шаблонов проектирования;\n•Знакомство с сопрограммами Kotlin, связыванием данных, компонентами архитектуры Android (LiveData, ViewModel, Room, Navigation) и внедрением зависимостей (Koin / Dagger).\n\nЖелательно:\n•Средний уровень английского языка.\n\nУсловия:\n•Гибкий график;\n•Возможность работать удаленно;\n•Полис ДМС;\n•Корпоративные курсы английского языка;\n•Интересные проекты с международными заказчиками;\n•Комфортная рабочая среда и игровые зоны;\n•Прекрасная возможность принять участие в самых современных областях, таких как математическая обработка данных и IoT;\n\n\nИнформацию о компании Вы можете посмотреть здесь - https://www.hiqo-solutions.com/\n\nБуду рада ответить на ваши вопросы.","markup":[{"type":"hashtag","offset":0,"length":9,"data":"вакансия"},{"type":"hashtag","offset":11,"length":8,"data":"android"},{"type":"hashtag","offset":21,"length":4,"data":"SPb"},{"type":"hashtag","offset":26,"length":7,"data":"junior"},{"type":"link","offset":1227,"length":31,"data":"https://www.hiqo-solutions.com/"}],"date":"2020-06-23T10:10:31+00:00","link":"tg://resolve?domain=mobile_jobs&post=68525","tags":[{"name":"mobile"},{"name":"android"},{"name":"java"},{"name":"kotlin"}],"cities":[],"allowsRemote":true}},{"node":{"__typename":"Job","id":"71852621824-1001054966032","title":"Android разработчик","text":"#вакансия #fulltime #freelance #middle #IOS #Swift #СПБ \nВсем привет! \nВ поисках двух IOS разработчиков. Рассматриваем full-time в офис/на удаленку.\nЛокация: Санкт-Петербург\n \nГрафик: 5/2 с гибким началом рабочего дня. \n💶 Зарплатная вилка: от 120 до 180 на руки\n\n🧰Мы: 4xxi.com (разработка разных сложных  технологических проектов-стартапов (веб, мобильные истории IOS/Android)). 90% проектов приходится на зарубежный рынок (США, Англия).\n\n🍩 Плюшки: \n✔️оформление по ТК РФ (мы белые полностью);\n✔️уроки английского языка;\n✔️ДМС;\n✔️спортивные мероприятия;\n✔️обучение и развитие;\n✔️офис в центре города в стиле лофт, м.Горьковская;\n✔️кухня, забитая вкусняхами;\n\nНаши ожидания: \n☑️с опытом работы от 2 лет;\n☑️уверенное знание Swift;\n☑️с опытом использования CoreData и знанием принципов работы баз данных;\n☑️с пониманием жизненного цикла приложения;\n☑️с опытом использования REST, WebSocket, Reactive kit;\n☑️с умением работать с потоками;\n\n\nБудет отлично, если:\n\n☑️у вас опыт больше 2х лет.\n☑️отлично понимаете и можете обосновать применение различных паттернов проектирования;\n☑️есть успешные п1риложения в App Store;\n☑️есть open source проекты на github;\n\n\nПишите и присылайте свои резюме:  vyangurskaya@4xxi.com, @vyangurskaya","markup":[{"type":"hashtag","offset":0,"length":9,"data":"вакансия"},{"type":"hashtag","offset":10,"length":9,"data":"fulltime"},{"type":"hashtag","offset":20,"length":10,"data":"freelance"},{"type":"hashtag","offset":31,"length":7,"data":"middle"},{"type":"hashtag","offset":39,"length":4,"data":"IOS"},{"type":"hashtag","offset":44,"length":6,"data":"Swift"},{"type":"hashtag","offset":51,"length":4,"data":"СПБ"},{"type":"link","offset":270,"length":8,"data":"http://4xxi.com"},{"type":"link","offset":1192,"length":21,"data":"mailto:vyangurskaya@4xxi.com"},{"type":"handle","offset":1215,"length":13,"data":"vyangurskaya"}],"date":"2020-06-23T09:45:18+00:00","link":"tg://resolve?domain=mobile_jobs&post=68524","tags":[{"name":"mobile"},{"name":"android"},{"name":"ios"},{"name":"swift"},{"name":"rest"},{"name":"websocket"},{"name":"github"}],"cities":[],"allowsRemote":false}},{"node":{"__typename":"Job","id":"71848427520-1001054966032","title":"Android developer","text":"#вакансия #Android #Java #middle #офиc #Москва\n👋Приглашаем Middle Android (Java) Developer в новый проект от Сбербанка.\n\n💸Уровень ЗП: от 220 000 до 280 000 руб. net. (обсуждается!).\n\n✍🏻Оформление: ИП или штат компании партнера.\n\n📍Локация: Офис (Москва Кутузовский пр-т 32/1).\n\n🏢О проекте: Разработка чата и видеозвонка с целью реализовать единое рабочее место оператора для дополнительного канала обслуживания. С помощью чатов клиент сможет переписываться со своим дистанционным клиентским менеджером по премиальному каналу в МП СБОЛ, с возможностью передачи файлов. Видеозвонок позволит установить визуальный контакт клиентом со своим менеджером с возможностью показа презентаций. На базе удаленных каналов обслуживания планируется реализовать возможность удаленного предоставления клиенту всего спектра продуктов банка. В настоящий момент в банке обслуживается порядка 19 млн клиентов.\n\n🤝Мы ожидаем от вас:\n· знание Java;\n· опыт коммерческой разработки Android-приложений не менее года;\n· опыт ООП, потоки и синхронизация, SOLID, clean architecture, LinkedList и ArrayList;\n· умение разбираться и работать с чужим кодом.\n\nЖду Ваши резюме и буду рада ответить на все вопросы. Прекрасного дня!😉\nКонтакты для связи: telegram @anisimovaane4ka","markup":[{"type":"hashtag","offset":0,"length":9,"data":"вакансия"},{"type":"hashtag","offset":10,"length":8,"data":"Android"},{"type":"hashtag","offset":19,"length":5,"data":"Java"},{"type":"hashtag","offset":25,"length":7,"data":"middle"},{"type":"hashtag","offset":33,"length":5,"data":"офиc"},{"type":"hashtag","offset":39,"length":7,"data":"Москва"},{"type":"handle","offset":1231,"length":16,"data":"anisimovaane4ka"}],"date":"2020-06-23T09:13:09+00:00","link":"tg://resolve?domain=mobile_jobs&post=68520","tags":[{"name":"mobile"},{"name":"android"},{"name":"java"},{"name":"dotnet"}],"cities":[{"code":"moscow"}],"allowsRemote":true}},{"node":{"__typename":"Job","id":"103509131264-1001089317451","title":"Qa инженер","text":"#QA #тестировщик #россия #APi\n#ручноетестирование #middle #senior #тестирование #вакансия\nВ нашей молодой концептуальной IT-компании ООО \"Сколопендра\" (www.skolopendra.com) на данный момент открыта позиция QA тестировщика.\nВид деятельности  нашей Компании: ИТ-разработка полного цикла. \nСпециализация: высоконагруженные промышленные системы, процессинги данных, СППР, AI, запуск стартап-идей под ключ, электротехника.\nНаправление деятельности: технологический партнер для внешних заказчиков/собственные Hard&Soft Продукты.\n\n\n\nQA \n\nТребуемые знания, навыки, опыт\n• Знание основных технологий и методов тестирования\n• Понимание процесса разработки и тестирования ПО\n• Хорошие знания в области тест-дизайна\n• Опыт работы с баг-трекинговыми системами (jira)\n• Понимание основных принципов REST API\n• Опыт работы в тестировании от 1,5 лет\n• Высшее образование (предпочтительно техническое)\n\nБудет плюсом:\n• Базовые знания Java будут плюсом\n• Опыт автоматизации тестирования будет плюсом\n• Базовые знания технологии блокчейн и принципов работы бирж будут плюсом\nТакже мы ждем от кандидатов:\n• Умение работать в команде\n• Ответственность, самостоятельность, инициативность\n• Умение работать в условиях большого количества задач, оперативная реакция на задачи\n• Внимание к деталям, способность анализировать информацию\n• Стремление к саморазвитию, обучению, повышению технических компетенций\nФункциональные обязанности:\n• Проведение ручного функционального и регрессионного тестирования\n• Локализация, документирование, проверка дефектов\n• Разработка и актуализация тестовых планов, тестовых сценариев\n• Оценка трудоемкости задач\n• Работа с требованиями и документацией\nЗанятость : фултайм 5/2 на удалёнке \n#iOS\n#Android\n#mobiledevelopment \n#crossplatform #flutter #kotlinnative\n#мобильнаяразработка #вакансия\n\nКомпания ООО “СКОЛОПЕНДРА” (www.skolopendra.com) приглашает целеустремленных и одаренных в наш дружный коллектив. \nДавай вместе делать интересные проекты в современных стеках технологий. А мы предоставим возможности для скорейшего профессионального и личностного роста.\n\nВид деятельности Компании: ИТ-разработка полного цикла. \nСпециализация: высоконагруженные промышленные системы, процессинги данных, СППР, AI, запуск стартап-идей под ключ, электротехника.\nНаправление деятельности: технологический партнер для внешних заказчиков/собственные Hard&Soft Продукты.\n\nОфис: Москва, м.Павелецкая, Космодамианская наб., 52/10\nФормат работы: в офисе/удаленно\nЗанятость: full-time (целевой формат) /part-time (возможный старт)\nЗП: по итогам собеседования, вилка от 600-800 рублей/час , 3-х месячный цикл пересмотра grade\nОформление: по ТК\n\nДолжность: Mid/Mid+/Sen\nКонтакты: team@skolopendra.com\nТелеграмм : @Tufelka1","markup":[{"type":"hashtag","offset":0,"length":3,"data":"QA"},{"type":"hashtag","offset":4,"length":12,"data":"тестировщик"},{"type":"hashtag","offset":17,"length":7,"data":"россия"},{"type":"hashtag","offset":25,"length":4,"data":"APi"},{"type":"hashtag","offset":30,"length":19,"data":"ручноетестирование"},{"type":"hashtag","offset":50,"length":7,"data":"middle"},{"type":"hashtag","offset":58,"length":7,"data":"senior"},{"type":"hashtag","offset":66,"length":13,"data":"тестирование"},{"type":"hashtag","offset":80,"length":9,"data":"вакансия"},{"type":"link","offset":152,"length":19,"data":"http://www.skolopendra.com"},{"type":"hashtag","offset":1699,"length":4,"data":"iOS"},{"type":"hashtag","offset":1704,"length":8,"data":"Android"},{"type":"hashtag","offset":1713,"length":18,"data":"mobiledevelopment"},{"type":"hashtag","offset":1733,"length":14,"data":"crossplatform"},{"type":"hashtag","offset":1748,"length":8,"data":"flutter"},{"type":"hashtag","offset":1757,"length":13,"data":"kotlinnative"},{"type":"hashtag","offset":1771,"length":20,"data":"мобильнаяразработка"},{"type":"hashtag","offset":1792,"length":9,"data":"вакансия"},{"type":"link","offset":1831,"length":19,"data":"http://www.skolopendra.com"},{"type":"link","offset":2670,"length":20,"data":"mailto:team@skolopendra.com"},{"type":"handle","offset":2703,"length":9,"data":"Tufelka1"}],"date":"2020-06-23T09:06:23+00:00","link":"tg://resolve?domain=qa_jobs&post=98714","tags":[{"name":"qa"},{"name":"rest"},{"name":"java"},{"name":"ios"},{"name":"android"},{"name":"flutter"}],"cities":[{"code":"moscow"}],"allowsRemote":true}},{"node":{"__typename":"Job","id":"71846330368-1001054966032","title":"Android разработчик","text":"#вакансия #Android #Kotlin #spb #спб #офис\n\nГород и адрес: Санкт-Петербург, м.Площадь Ленина \nФормат работы: офис \nЗанятость: полная \nЗарплатная вилка: от 140 до 220 т.р. в месяц \nAndroid developer\n\nВсем привет! Мы — международная IT компания Noveo. Наши главные офисы разработки ПО находятся в Новосибирске и Санкт-Петербурге, представительства — в Париже и на Кипре. \n\nМы занимаемся заказными разработками софта для крупных европейских компаний. И сейчас мы рады пригласить в команду Android-разработчика для работы над проектом нашего зарубежного партнера.\n\nЭто файловый менеджер, который работает с определёнными жесткими дисками. Проект написан на ~90% на Kotlin. Стек проекта: di, Retrofit, RxJava, Room, MVVM.\n\n✅Ожидания от кандидата:\nОпыт разработки коммерческих проектов на Android\nХорошие знание Kotlin, Android SDK, RxJava2, Room, Toothpick/Dagger2, MVP/MVVM + Clean Architecture\nТехнический английский язык (Pre-Intermediate и выше)\n\nДополнительным плюсом будет: \nУмение писать unit тесты\nЗнания SQLite\nОбщее представление о JNI\nОпыт работы с чужим кодом\nMaterial Design guidelines\n\n☕️ Что мы предлагаем: \nДостойный уровень зарплаты и ее пересмотр по результатам performance review\nОфициальное трудоустройство, оплачиваемый отпуск и больничные\nГибкий график, с возможностью работать из дома\nКомфортабельный офис рядом со ст. м. Площадь Ленина (БЦ Петровский форт)\nВнутреннее обучение, митапы, code-review и прокачка твоих технических навыков\nМощный комп для работы + любое количество мониторов по запросу)\nКурсы английского и французского языков в офисе\nИ другие приятные бонусы (чай/кофе/печеньки, оборудованная офисная кухня, кикер, PS и др.)\n\n📩 Жду твоего резюме, если его нет - пиши, все обсудим!\n\nНазвание компании: #Noveo \nКонтакты: Анастасия @stasya_sot","markup":[{"type":"hashtag","offset":0,"length":9,"data":"вакансия"},{"type":"hashtag","offset":10,"length":8,"data":"Android"},{"type":"hashtag","offset":19,"length":7,"data":"Kotlin"},{"type":"hashtag","offset":27,"length":4,"data":"spb"},{"type":"hashtag","offset":32,"length":4,"data":"спб"},{"type":"hashtag","offset":37,"length":5,"data":"офис"},{"type":"bold","offset":180,"length":19,"data":""},{"type":"bold","offset":486,"length":20,"data":""},{"type":"hashtag","offset":1734,"length":6,"data":"Noveo"},{"type":"handle","offset":1762,"length":11,"data":"stasya_sot"}],"date":"2020-06-23T09:04:29+00:00","link":"tg://resolve?domain=mobile_jobs&post=68518","tags":[{"name":"mobile"},{"name":"android"},{"name":"kotlin"},{"name":"mvvm"},{"name":"sqlite"}],"cities":[],"allowsRemote":false}}]}}},"context":{}}