{"hash":"f34fd2c444a074f4e0e67d525015a008ef8e766f","data":{"records":{"id":"cloud","name":"cloud","belongsTo":{"totalCount":25,"pageInfo":{"totalPages":3,"currentPage":3},"edges":[{"node":{"__typename":"Job","id":"1883242496-1001134745498","title":"Devops инженер","text":"Всем привет\nПопробуем снова)\n\n#вакансия\nМосква, Бауманская\nРабота в офисе (Классный, современный)\nПолная занятость\nот 150.000 (На руки, после налогов) до 170.000\nМы ищем крутого DevOps в нашу команду. HomeApp быстро растёт, и нам необходим человек, который будет следить за тем, чтобы всё не рухнуло в один момент. \nЧто у нас внутри:\nмы пишем на PHP7 и Symfony 4;\n•  храним данные в PostgreSQL, Google Cloud Storage;\n•  используем Docker как основу для сборки релизов;\n•  запускаем релизы в Google Kubernetes Engine;\n•  пишем unit-тесты и функциональные тесты в Codeception;\n•  придерживаемся scrum;\n•  планируем задачи в Jira;\n•  держим код на GitHub;\n\n\nПодробнее можно ознакомиться здесь:\n\nhttps://career.habr.com/vacancies/1000056382\n\nHomeApp\nhomeapp.ru\n\nПисать можно в телеграмм: \n@SugarLeps\n\nИли на почту: \nEvgeniy.kozlov@homeapp.ru\n\n—\n\n👉 Обсуждение вакансии в чате @devops_jobs","markup":[{"type":"hashtag","offset":30,"length":9,"data":"вакансия"},{"type":"link","offset":692,"length":44,"data":"https://career.habr.com/vacancies/1000056382"},{"type":"link","offset":746,"length":10,"data":"http://homeapp.ru"},{"type":"handle","offset":785,"length":10,"data":"SugarLeps"},{"type":"link","offset":812,"length":25,"data":"mailto:Evgeniy.kozlov@homeapp.ru"},{"type":"handle","offset":872,"length":12,"data":"devops_jobs"}],"date":"2020-03-11T10:56:46+00:00","link":"tg://resolve?domain=devops_jobs_feed&post=1796","tags":[{"name":"php"},{"name":"symfony"},{"name":"postgresql"},{"name":"cloud"},{"name":"docker"},{"name":"kubernetes"},{"name":"github"},{"name":"google-cloud-platform"},{"name":"google-cloud-storage"}],"cities":[{"code":"moscow"}],"allowsRemote":false}},{"node":{"__typename":"Job","id":"225443840-1001352129329","title":"Golang разработчик","text":"#вакансия #офис #москва\n#job #fulltime #office #moscow\n#Go #Golang\n\nВ команду разработки IAM (Identity and Access Management) облака Mail.ru Cloud Solutions ищу сильного разработчика. Мы разрабатываем распределенную высокопроизводиетльную систему, позволяющую обрабатывать сотни тысяч авторизационных запросов в секунду и объединяющую все сервисы облака Mail.ru\n\n\nКомпания: Mail.ru\nЗ/П: оклад 150к - 250к руб. после налогов в месяц + ежегодные премии\nРасположение: Москва, станция метро Аэропорт\nФормат работы: офис, фулл-тайм\n\nСтэк:  \n- Go, Lua, Tarantool\n\nТребования:\n- опыт работы не менее 3-х лет в высоконагруженных проектах на любом языке высокого уровня (Perl, Python, Java, C/C++, etc)\n- опыт разработки на Go не менее 2-х лет \n- алгоритмы, оценка сложности, структуры данных\n\nБудет плюсом:\n- опыт разработки и/или внедрения систем федеративного доступа на базе SAML, OAuth, OpenID\n- понимание систем управления каталогами LDAP и Active Directory\n\nКонтакты:\n@mkebich\n Автор @mkebich","markup":[{"type":"hashtag","offset":0,"length":9,"data":"вакансия"},{"type":"hashtag","offset":10,"length":5,"data":"офис"},{"type":"hashtag","offset":16,"length":7,"data":"москва"},{"type":"hashtag","offset":24,"length":4,"data":"job"},{"type":"hashtag","offset":29,"length":9,"data":"fulltime"},{"type":"hashtag","offset":39,"length":7,"data":"office"},{"type":"hashtag","offset":47,"length":7,"data":"moscow"},{"type":"hashtag","offset":55,"length":3,"data":"Go"},{"type":"hashtag","offset":59,"length":7,"data":"Golang"},{"type":"link","offset":133,"length":7,"data":"http://Mail.ru"},{"type":"link","offset":354,"length":7,"data":"http://Mail.ru"},{"type":"link","offset":374,"length":7,"data":"http://Mail.ru"},{"type":"handle","offset":966,"length":8,"data":"mkebich"},{"type":"handle","offset":982,"length":8,"data":"mkebich"}],"date":"2020-02-10T11:22:24+00:00","link":"tg://resolve?domain=gogetajobfeed&post=215","tags":[{"name":"go"},{"name":"ms-access"},{"name":"cloud"},{"name":"lua"},{"name":"perl"},{"name":"python"},{"name":"java"},{"name":"oauth"},{"name":"ldap"},{"name":"active-directory"}],"cities":[{"code":"moscow"}],"allowsRemote":false}},{"node":{"__typename":"Job","id":"214958080-1001352129329","title":"Go developer","text":"#вакансия #fulltime #remote #office #relocate #Amsterdam\n\nSenior Software Engineer - Kickstox (Amsterdam, The Netherlands)\n€48.000 - €58.000 / year (gross)\n\nAt Kickstox we have the modest goal of reinventing fantasy football and transforming it into a 24/7, real time game that allows football fans to meet, greet and compete. For this we have created the Kickstox exchange where users can trade fictional stocks of their favourite football players, check how they perform in real-time, compete in different competition formats and challenge their friends to prove them they know best about football, every day – every play!\nWe need you to be the best of both worlds; a manager who takes complete control of the Tech team and also a creative, senior back-end developer that is not afraid to get his or her hands dirty. The foundations have been laid but the quest to expand and improve is never ending and for that we look to you. You are in charge of reaching the milestones, building responsive and elegant web applications, improve usability and customer experience and find solutions to the everyday challenges that come up.\nYou will have a small team of different skill sets to manage with a high probability of expansion in the near future. \n\nYour skills:\nA great sense of ownership and responsibility\nInsightfulness and a hawk’s eye for detail\nConstant drive to grow fast and improve yourself\nA problem-solving mindset that thinks in solutions\nResourcefulness, thinking creatively and optimistically \nProven experience with managing multi-talented and multi-national teams\nProject management with teams of varying technical skills using scrum protocols\nFull professional command of English\n\nProfound working knowledge with:\n▪ Go \n▪ Postgres(TimescaleDB)\n▪ Redis\n▪ RabbitMQ\n▪ MQTT/Websocket\n\nOur infrastructure runs over Google Cloud Platform using Docker, Kubernetes and Gitlab. And is provisioned by Ansible.\n\nAnd a love for the beautiful game is definitely a pro!\n\nWhat can we offer\nAs a key part of the technical heart of the company you get the freedom to think and work out new functions. Ideas and suggestions are greatly appreciated and more importantly, they are listened to. We want to expand and rapidly conquer this market in the coming years. This offers opportunity for you to become included in the success of the company.\n\nContact @cra3y\n Автор @cra3y","markup":[{"type":"hashtag","offset":0,"length":9,"data":"вакансия"},{"type":"hashtag","offset":10,"length":9,"data":"fulltime"},{"type":"hashtag","offset":20,"length":7,"data":"remote"},{"type":"hashtag","offset":28,"length":7,"data":"office"},{"type":"hashtag","offset":36,"length":9,"data":"relocate"},{"type":"hashtag","offset":46,"length":10,"data":"Amsterdam"},{"type":"handle","offset":2353,"length":6,"data":"cra3y"},{"type":"handle","offset":2367,"length":6,"data":"cra3y"}],"date":"2020-01-31T11:21:41+00:00","link":"tg://resolve?domain=gogetajobfeed&post=205","tags":[{"name":"go"},{"name":"playframework"},{"name":"web"},{"name":"postgresql"},{"name":"redis"},{"name":"rabbitmq"},{"name":"websocket"},{"name":"cloud"},{"name":"docker"},{"name":"kubernetes"},{"name":"gitlab"},{"name":"ansible"},{"name":"google-cloud-platform"}],"cities":[{"code":"amsterdam"}],"allowsRemote":true}},{"node":{"__typename":"Job","id":"75497472-1001375797688","title":".net developer","text":"#вакансия #dotnet #aspnet #entityframework #remote\n\nFull-stack Developer\nFull-time, $60k-$80k annually, Remote\n\nAbout us\n* Our main product is practice management software system “Stage 4 MD”. It is designed specifically for and used by plastic surgeons\n* It is single-page multi-tenant application hosted in Azure cloud\n\nMain technologies we use:\n* ASP.Net MVC with DevExpress controls\n* Entity Framework 6 with SQL Server Azure in Azure cloud\n* DBUp is used for automatic database schema and data updates\n* A part of the system system uses ASP.Net Web API for back-end with Vue.js front-end\n* We boldly mix Vue.js with ASP.Net MVC by rendering MVC controls inside Vue.js components and visa versa\n* Vue Router is used for single-page application navigation\n* We recently moved code repository from Bitbucket to Github\n* Tasks are still in Jira\n* Teamcity builds generate binaries for development, and release branches. Binaries are deployed with one-click process\n* We use Trunk Based Development for releases. Release deployment to production is done once every three weeks. QA deployment happens several times a week\n* QA team runs automated browser tests as well as does some manual testing\n* Every developer works with their local development environment\n* Slack is used for communication\n\nYour personal skills\n* You have to be proficient with reading, writing and speaking English (expert level not required)\n* From picking the next task to writing a specific line of code you are expected to be keeping in mind the customer’s needs and the value that your contribution creates for them\n* You should be able to develop code that does its job, performs well, easy to read and maintain and doesn’t require additional explanations\n* You need to self-manage next tasks from backlog, consistently report your progress and escalate roadblocks timely\n* You are expected to be comfortable with asking questions, proposing better solutions and accepting suggestions from teammates, giving and taking feedback\n\nYour technical skills\nThings you’re expected to be well experienced with:\n* C# and .Net Framework\n* ASP.Net MVC and ASP.Net Web API\n* JavaScript, HTML, CSS\n* Entity Framework and SQL Server\n* Git\n\nOther things that are nice to know, but not required:\n* ASP.Net Core\n* Entity Framework Core\n* DevExpress Controls\n* Vue.js and Vuetify\n\nYour compensation package\n* You will operate as independent contractor (прим: ИП по официальному договору с американской компанией)\n* You will receive $60k-$80k annually in bi-weekly payments (до налогов, их вы платите сами как ИП)\n* You will have unlimited time off in accordance with our time-off policy\n* You can work from anywhere in the world, at hours of your convenience\n\nOur recruitment process\n* Skills test. Short online quiz to get a quick evaluation of your technical skills\n* Interview. Brief conversation for you to tell about your interests, learn about our company and the product\n* Test project. Review existing codebase, report fixes and improvements, and implement one or few of them\n* Test week. Five days of paid work with us on our real project\n\nReady to start?\nTake the test: https://apply.hire.toggl.com/966DPZE7RPE5Y9P8H27P?utm_source=dotnetrujobs","markup":[{"type":"hashtag","offset":0,"length":9,"data":"вакансия"},{"type":"hashtag","offset":10,"length":7,"data":"dotnet"},{"type":"hashtag","offset":18,"length":7,"data":"aspnet"},{"type":"hashtag","offset":26,"length":16,"data":"entityframework"},{"type":"hashtag","offset":43,"length":7,"data":"remote"},{"type":"bold","offset":52,"length":20,"data":""},{"type":"bold","offset":112,"length":8,"data":""},{"type":"bold","offset":1296,"length":20,"data":""},{"type":"bold","offset":2008,"length":21,"data":""},{"type":"italic","offset":2059,"length":16,"data":""},{"type":"italic","offset":2227,"length":12,"data":""},{"type":"bold","offset":2342,"length":25,"data":""},{"type":"bold","offset":2721,"length":23,"data":""},{"type":"bold","offset":3110,"length":15,"data":""},{"type":"link","offset":3141,"length":73,"data":"https://apply.hire.toggl.com/966DPZE7RPE5Y9P8H27P?utm_source=dotnetrujobs"}],"date":"2020-01-10T06:42:51+00:00","link":"tg://resolve?domain=DotNetRuJobsFeed&post=72","tags":[{"name":"dotnet"},{"name":"csharp"},{"name":"azure"},{"name":"cloud"},{"name":"sql"},{"name":"web"},{"name":"vuejs"},{"name":"github"},{"name":"deployment"},{"name":"javascript"},{"name":"html"},{"name":"css"},{"name":"git"},{"name":"asp-net"},{"name":"entity-framework"},{"name":"sql-server"},{"name":"net-core"},{"name":"asp-net-mvc"},{"name":"asp-net-core"},{"name":"entity-framework-core"}],"cities":[{"code":"nice"}],"allowsRemote":true}},{"node":{"__typename":"Job","id":"40894464-1001375797688","title":"Dotnet разработчик","text":"#вакансия #удаленка\n\nЯ frontend-разработчик, мне нужен backend-разработчик в команду. Будем заниматься разработкой новых проектов и поддержкой старых. Тематика проектов - ювелирные украшения и все что с ними связано. В основном это интернет магазины. Работа fulltime, 40 часов в неделю. Оплата повременная. Работаем через трекер Upwork. При полной занятости компенсация $2500 на первое время\nТребования:\n- Чистый, безопасный и грамотный код.\n- При написании кода использовать принципы SOLID\n- 3+ лет опыта написания RESTful Web API\n- Опыт работы Postman, Fiddler, Google Chrome Dev tools\n- Entity Framework\n- Иметь опыт развертывания приложения на AWS, Heroku, Google Cloud сервисах\n- Git\n- MS SQL (писать грамотные, лековестные SQL запросы)\n- Опыт работы с AngularJS, Angular (у проектов есть админка, которая написана на AngularJS, иногда надо будет и там делать правки)\n- Английский на уровне чтения технической документации и переписки\n\nСо всеми вопросами обращайтесь сюда @Merazent","markup":[{"type":"hashtag","offset":0,"length":9,"data":"вакансия"},{"type":"hashtag","offset":10,"length":9,"data":"удаленка"},{"type":"handle","offset":977,"length":9,"data":"Merazent"}],"date":"2019-11-04T18:22:52+00:00","link":"tg://resolve?domain=DotNetRuJobsFeed&post=39","tags":[{"name":"dotnet"},{"name":"csharp"},{"name":"web"},{"name":"amazon-web-services"},{"name":"heroku"},{"name":"cloud"},{"name":"git"},{"name":"sql"},{"name":"angularjs"},{"name":"google-chrome"},{"name":"entity-framework"},{"name":"google-cloud-platform"}],"cities":[],"allowsRemote":true}}]}}},"context":{}}