{"hash":"f34fd2c444a074f4e0e67d525015a008ef8e766f","data":{"records":{"id":"russia/moscow","belongsTo":{"totalCount":234,"pageInfo":{"totalPages":24,"currentPage":11},"edges":[{"node":{"__typename":"Job","id":"16188964864-1001110946746","title":"Js разработчик","text":"#вакансия #frontend #Москва #офис #JS #Vue #fulltime\n\nГород и адрес офиса: Москва, м. Новокузнецкая/Павелецкая\nФормат работы: #офис\nЗанятость: #полная\nЗП: от 80к до 150к руб. нетт\n\nSports.ru - провайдер развлечений для любителей спорта.\nЕсть спорт. Есть болельщики. Мы заполняем среду между ними, оживляем ее, наполняем общением и другими развлечениями. Мы делаем не «сайты» или «приложения», а мультиплатформенные продукты, с учетом актуальной технологической парадигмы.\n\nВажная часть работы команды разработки в компании – спецпроекты. Вместе с редакцией и рекламодателями мы создаем игровые, образовательные и просто веселые проекты, в которых легче пробовать новые технологии и быстрее релизный цикл.\n\nСейчас мы ищем Frontend-разработчика именно для реализации коммерческих и редакционных спецпроектов.\n\nО задачах:\nВам предстоит заниматься разработкой спецпроектов, созданием внутренних инструментов и интеграцией и поддержкой рекламных систем (Google Ad Manager, AdFox и т. д.).\n\nО наших ожиданиях:\nМы ожидаем, что у вас есть навыки разработки веб-интерфейсов с использованием JavaScript и кроссбраузерной верстки интерфейсов с помощью HTML и CSS. Еще вы имеете опыт работы в команде с другими разработчиками и умеете пользоваться инструментами отладки в браузере. Идеально, если вы уже работали с Vue.js.\n\nОб условиях:\nПросторный стильный офис возле м. Новокузнецкая/Третьяковская.\n“Белая” заработная плата.\nБесплатная медстраховка со стоматологией после испытательного срока.\nГибкий график работы с возможностью день-два в неделю работать удаленно,\nФрукты, снеки, чай, кофе, какао 24/7.\nКорпоративная скидка в спортзал и на занятия английским языком.\nКорпоративный футбол с тренером.\nФинансовая помощь при переезде из другого города.\nВозможности для профессионального развития (сложные задачи, новые технологии, оплата обучающих курсов и конференций, помощь в развитии персонального бренда (участие в конференциях, написание статей).\n\nНазвание компании: Sports.ru (Tribuna Digital)\nКому интересно, пишите в личку (@pbuyatova), рада буду поделиться подробностями :)","markup":[{"type":"hashtag","offset":0,"length":9,"data":"вакансия"},{"type":"hashtag","offset":10,"length":9,"data":"frontend"},{"type":"hashtag","offset":20,"length":7,"data":"Москва"},{"type":"hashtag","offset":28,"length":5,"data":"офис"},{"type":"hashtag","offset":34,"length":3,"data":"JS"},{"type":"hashtag","offset":38,"length":4,"data":"Vue"},{"type":"hashtag","offset":43,"length":9,"data":"fulltime"},{"type":"hashtag","offset":126,"length":5,"data":"офис"},{"type":"hashtag","offset":143,"length":7,"data":"полная"},{"type":"link","offset":181,"length":9,"data":"http://Sports.ru"},{"type":"link","offset":1961,"length":9,"data":"http://Sports.ru"},{"type":"handle","offset":2021,"length":10,"data":"pbuyatova"}],"date":"2020-04-06T11:19:37+00:00","link":"tg://resolve?domain=javascript_jobs_feed&post=15439","tags":[{"name":"javascript"},{"name":"vuejs"},{"name":"html"},{"name":"css"}],"cities":[{"code":"moscow"}],"allowsRemote":true}},{"node":{"__typename":"Job","id":"16187916288-1001110946746","title":"Javascript разработчик","text":"#вакансия #blockchain #senior #moscow #inhouse #typescript\nМосква, Павелецкая (5 мин пешком), офис\nКомпания DAO Group\nПолная занятость\n🏆От 200 до 300к net\nИщем Senior #Frontend || #React разработчика\nУ компании несколько уже работающих продуктов (я про них расскажу).\n\nСейчас занимаемся разработкой b2b crypto-payment решения. Проекту 2 месяца, релиз намечен на конец апреля.\nОсновное — разработка нового функционала SPA. В команде 7 чел, есть Senior Front+верстальщик. \n\nДля тебя:\n— Продукт с 0, поэтому важно использовать новые и свежие решения.\n— Офис с мягким началом дня. Мы делаем продукт в команде, а без личного общения сделать все быстро и качественно довольно сложно. Удаленки нет.\n— Деньги — это важно, и мы готовы обсуждать твои ожидания (и даже в $).\n\nПодробнее о вакансии: https://hh.ru/vacancy/36489938\nПиши мне: @isaevakristi, почта shukarek92@gmail.com","markup":[{"type":"hashtag","offset":0,"length":9,"data":"вакансия"},{"type":"hashtag","offset":10,"length":11,"data":"blockchain"},{"type":"hashtag","offset":22,"length":7,"data":"senior"},{"type":"hashtag","offset":30,"length":7,"data":"moscow"},{"type":"hashtag","offset":38,"length":8,"data":"inhouse"},{"type":"hashtag","offset":47,"length":11,"data":"typescript"},{"type":"hashtag","offset":168,"length":9,"data":"Frontend"},{"type":"hashtag","offset":181,"length":6,"data":"React"},{"type":"link","offset":788,"length":30,"data":"https://hh.ru/vacancy/36489938"},{"type":"handle","offset":829,"length":13,"data":"isaevakristi"},{"type":"link","offset":850,"length":20,"data":"mailto:shukarek92@gmail.com"}],"date":"2020-04-06T09:47:12+00:00","link":"tg://resolve?domain=javascript_jobs_feed&post=15438","tags":[{"name":"javascript"},{"name":"typescript"},{"name":"dotnet"},{"name":"reactjs"}],"cities":[{"code":"moscow"}],"allowsRemote":false}},{"node":{"__typename":"Job","id":"16186867712-1001110946746","title":"Js разработчик","text":"#frontend #вакансия #Москва #fulltime #middle #senior #react #работа\nГород и адрес офиса: Москва, между метро Нагатинская и Тульская, мцк Верхние котлы \nФормат работы: офис\nЗанятость:полная\nОплата: 150- 250 Net\nОписание вакансии:\n💥Команда Product Catalog  ищет сильного Frontend-разработчика!🙌\n💥Проект Product Catalog-это облачное решение, которое позволяет бизнесу вести все свои продукты (карты, вклады, продукты партнеров и и.п) в едином месте, гибко управлять всеми элементами 4P (product,price, promotion, place) и мгновенно выводить все изменения на рынок. Архитектура системы состоит из 11 модулей, половина из них в Production, другая половина требует проектирования и разработки. Продукт активно развивается, поэтому мы хотим усилить нашу команду. От нас вы получите опыт и развитие компетенций, амбициозные задачи, карьерный рост и открытость к инновациям!\n💥Стек: React JS, react-redux, webPack, CSS, HTML, Java, Spring, Git, Maven.\n💥 Процесс разработки : Scrum, Jira, Gitfliw, Devops до Production (переход на OpenShift)\n💥-Оформление ТК РФ;\n     -ДМС;\n     - Белая заработная плата (оклад + годовая премия);\n     -Возможность обучения за счет компании;\n     -   Льготное кредитование;\n      -Бесплатный тренажерный зал на территории офиса;\n       - корпоративная жизнь и спортивные мероприятия;\n       -возможность карьерного роста.\nКомпания: СберТех\nКонтакты: @TaliaHR\n\n—","markup":[{"type":"hashtag","offset":0,"length":9,"data":"frontend"},{"type":"hashtag","offset":10,"length":9,"data":"вакансия"},{"type":"hashtag","offset":20,"length":7,"data":"Москва"},{"type":"hashtag","offset":28,"length":9,"data":"fulltime"},{"type":"hashtag","offset":38,"length":7,"data":"middle"},{"type":"hashtag","offset":46,"length":7,"data":"senior"},{"type":"hashtag","offset":54,"length":6,"data":"react"},{"type":"hashtag","offset":61,"length":7,"data":"работа"},{"type":"handle","offset":1378,"length":8,"data":"TaliaHR"}],"date":"2020-04-06T09:46:48+00:00","link":"tg://resolve?domain=javascript_jobs_feed&post=15437","tags":[{"name":"javascript"},{"name":"reactjs"},{"name":"dotnet"},{"name":"redux"},{"name":"webpack"},{"name":"css"},{"name":"html"},{"name":"java"},{"name":"spring"},{"name":"git"},{"name":"maven"},{"name":"react-redux"}],"cities":[{"code":"moscow"}],"allowsRemote":false}},{"node":{"__typename":"Job","id":"1418723328-1001091028994","title":"Java разработчик","text":"Вакансия: #java #spring #kotlin #middle #senior\nКомпания: #сбербанк\nЛокация: #москва\nЗ/п: от 160 до 250 net \nКонтакты: @Sooreyn\n \nВ команду разработки систем управления кредитными рисками и рисками на финансовых рынках ищем Java-разработчика. Мы — амбициозная и дружная команда. Ежедневно совершаем подвиги, являем чудеса инженерной мысли и покоряем новые технологические высоты. Выпускаем не имеющий аналогов в России «риск-менеджмент» продукт.\n \nИспользуем: Kotlin, Spring Cloud, Service Discovery (Eureka), API Gateway (Zuul), Feign client, Circuit breaker.\n \nМы предлагаем:\nГрафик работы с гибким подходом, в пятницу короткий день;\nОфис - метро Тульская; ДМС, фитнес;\nВозможность проходить обучение в лучшем Корпоративном Университете (Европы);\nИ еще много всего интересного и \"вкусного\".","markup":[{"type":"hashtag","offset":10,"length":5,"data":"java"},{"type":"hashtag","offset":16,"length":7,"data":"spring"},{"type":"hashtag","offset":24,"length":7,"data":"kotlin"},{"type":"hashtag","offset":32,"length":7,"data":"middle"},{"type":"hashtag","offset":40,"length":7,"data":"senior"},{"type":"hashtag","offset":58,"length":9,"data":"сбербанк"},{"type":"hashtag","offset":77,"length":7,"data":"москва"},{"type":"handle","offset":119,"length":8,"data":"Sooreyn"}],"date":"2020-04-06T09:17:30+00:00","link":"tg://resolve?domain=jvmjobs&post=1353","tags":[{"name":"java"},{"name":"jvm"},{"name":"spring"},{"name":"kotlin"},{"name":"dotnet"},{"name":"cloud"}],"cities":[{"code":"moscow"}],"allowsRemote":false}},{"node":{"__typename":"Job","id":"16185819136-1001110946746","title":"Js разработчик","text":"#вакансия #react #typescript #node #postgresql\n\nФормат: #офис #удаленка (временно)\nЗанятость: #полная\nЛокации: #Москва #Киевская #ПаркКультуры\nЗарплата: 80000 - 160000 руб\nВакансия: 💻fullstack, уровень от junior.\n\n‼️ Мы ищем typescript react разработчика с уклоном в fullstack на nodejs, которому помимо программирования был бы интересен и сам продукт, который умеет отстаивать свою точку зрения и предлагать новые идеи. Если у вас нет опыта по каким то пунктам - это не причина не пообщаться. Мы готовы рассмотреть кандидатов с разным уровнем и в случае успеха научим всему сами.\n\nМы предлагаем:\n🔸Дух \"гаражного\" стартапа (компания появилась совсем недавно);\n🔸Множество интересных и сложных задач;\n🔸Высокая степень влияния на конечный продукт;\n🔸Конкурентная заработная плата;\n🔸Гибкий график;\n🔸Участие в опционной программе в будущем.\n\nЧем предстоит заниматься:\n🔸Проектирование архитектуры проекта с нуля;\n🔸Разработки интерфейсов на antd для бэкоффиса;\n🔸Разработка api (#nodejs, #typescript, #graphql, #postgres);\n🔸Улучшение процессов автоматизации.\n\nТребования:\n🔸Уверенные знания #nodejs и #javascript / #typescript;\n🔸Знание веб фреимворков (#express);\n🔸Уверенные знания фронтенда (#react);\n🔸Опыт работы с #git.\n\nБудет плюсом:\n🔸Опыт работы с реляционными базами данных (#postgresql);\n🔸Опыт работы с #docker, #graphql.\n\n🛠 Название компании: cтартап, у нас еще нет официального названия.\n\n📱 Контакты: Сергей tel:+79167248788, mailto:ser.alexeev@gmail.com, tg:@seralexeev","markup":[{"type":"hashtag","offset":0,"length":9,"data":"вакансия"},{"type":"hashtag","offset":10,"length":6,"data":"react"},{"type":"hashtag","offset":17,"length":11,"data":"typescript"},{"type":"hashtag","offset":29,"length":5,"data":"node"},{"type":"hashtag","offset":35,"length":11,"data":"postgresql"},{"type":"hashtag","offset":56,"length":5,"data":"офис"},{"type":"hashtag","offset":62,"length":9,"data":"удаленка"},{"type":"hashtag","offset":94,"length":7,"data":"полная"},{"type":"hashtag","offset":111,"length":7,"data":"Москва"},{"type":"hashtag","offset":119,"length":9,"data":"Киевская"},{"type":"hashtag","offset":129,"length":13,"data":"ПаркКультуры"},{"type":"hashtag","offset":980,"length":7,"data":"nodejs"},{"type":"hashtag","offset":989,"length":11,"data":"typescript"},{"type":"hashtag","offset":1002,"length":8,"data":"graphql"},{"type":"hashtag","offset":1012,"length":9,"data":"postgres"},{"type":"hashtag","offset":1093,"length":7,"data":"nodejs"},{"type":"hashtag","offset":1103,"length":11,"data":"javascript"},{"type":"hashtag","offset":1117,"length":11,"data":"typescript"},{"type":"hashtag","offset":1156,"length":8,"data":"express"},{"type":"hashtag","offset":1197,"length":6,"data":"react"},{"type":"hashtag","offset":1222,"length":4,"data":"git"},{"type":"hashtag","offset":1287,"length":11,"data":"postgresql"},{"type":"hashtag","offset":1317,"length":7,"data":"docker"},{"type":"hashtag","offset":1326,"length":8,"data":"graphql"},{"type":"link","offset":1430,"length":12,"data":"tel:+79167248788"},{"type":"link","offset":1451,"length":21,"data":"mailto:ser.alexeev@gmail.com"},{"type":"handle","offset":1477,"length":11,"data":"seralexeev"}],"date":"2020-04-06T07:40:09+00:00","link":"tg://resolve?domain=javascript_jobs_feed&post=15436","tags":[{"name":"javascript"},{"name":"reactjs"},{"name":"typescript"},{"name":"nodejs"},{"name":"postgresql"},{"name":"graphql"},{"name":"express"},{"name":"git"},{"name":"docker"}],"cities":[{"code":"moscow"},{"code":"kiev"}],"allowsRemote":true}},{"node":{"__typename":"Job","id":"24298651648-1001075660570","title":"Php разработчик","text":"#вакансия #php #javascript #удаленка #удаленно\nВакансия: PHP/Web разработчик\nГород и адрес офиса: Москва, м. Сокол\nФормат: удаленка\nЗанятось: полная/частичная\nЗП: сдельная, по факту\n\nСтек: PHP5/PHP7, MySQL, JavaScript, jQuery, Smarty.\n\nРазвивающийся интернет-магазин мебели ищет PHP/Web разработчика со сдельной оплатой труда по выполненным задачам.\n\nОбязанности: Выполнение доработок по бэк- и фронтенду существующего интернет-магазина, разработка нового функционала.\n\nТребования:\n- Опыт web-разработки от 3 лет.\n- Опыт работы с legacy кодом.\n- Опыт работы с шаблонизатором “Smarty”.\n- Опыт работы с JQuery.\n- Опыт работы со сторонними API.\n- Концентрация, ответственность и исполнительность.\n- Самостоятельность, ориентация на результат.\n- Пунктуальность и системный подход к работе.\n- Соблюдение сроков и качества выполнения задач.\n- Отличные знание PHP, MySQL, Git.\n- Базовые знания работы с консолью (SSH).\n\nУсловия:\n- Удаленная работа.\n- Сдельная оплата по выполненным задачам.\n\ne-mail: kseniya.m@mnogosna.ru\ntelegram: @kseniya_mns","markup":[{"type":"hashtag","offset":0,"length":9,"data":"вакансия"},{"type":"hashtag","offset":10,"length":4,"data":"php"},{"type":"hashtag","offset":15,"length":11,"data":"javascript"},{"type":"hashtag","offset":27,"length":9,"data":"удаленка"},{"type":"hashtag","offset":37,"length":9,"data":"удаленно"},{"type":"bold","offset":351,"length":13,"data":""},{"type":"bold","offset":470,"length":12,"data":""},{"type":"bold","offset":913,"length":9,"data":""},{"type":"link","offset":993,"length":21,"data":"mailto:kseniya.m@mnogosna.ru"},{"type":"handle","offset":1025,"length":12,"data":"kseniya_mns"}],"date":"2020-04-06T07:16:31+00:00","link":"tg://resolve?domain=php_jobs&post=23173","tags":[{"name":"php"},{"name":"javascript"},{"name":"web"},{"name":"mysql"},{"name":"jquery"},{"name":"git"},{"name":"ssh"}],"cities":[{"code":"moscow"}],"allowsRemote":true}},{"node":{"__typename":"Job","id":"16183721984-1001110946746","title":"Js разработчик","text":"Greenatom.ru\n#вакансия #Москва #javascript #React #Typescript #Node.js #Middle #Senior #удаленка\n\n👨🏼‍💻 Middle/Senior Frontend Developer, Middle/Senior Backend Developer\nГород и адрес офиса: #Москва, 1-й Нагатинский проезд, 10с1, метро Нагатинская\n\nФормат работы: офис или частичная удаленка на выбор\n\n💻Занятость: полная, гибкое начало трудового дня.\n\nЗарплатная вилка: от 170 000 до 230 000 руб. на руки.\n\n🏢Компания: АО Гринатом\n\nПривет! Мы растём и активно развиваем ряд внутренних проектов: например, корпоративный портал, горячая линия. Мы формируем несколько команд и ищем классных:\n\n✅фронтенд разработчиков;\n\n✅бэкенд разработчиков. \n\nПроекты в стадии разработки пилота и у тебя есть возможность повлиять на дальнейшее развитие продукта. Если у тебя есть крутые идеи - ты сможешь их здесь реализовать! Откликайся сам и зови друзей! Вирус пройдёт, работа останется!\n\n✅Требуемые знания и навыки:\n- Опыт разработки от двух лет\n- Хорошее знание чистого JS\n- Опыт работы с TypeScript\n- React, MobX, Less/Sass\n- Опыт написания юнит-тестов с помощью Jest, Enzymе очень приветствуется\n\n💡Наш стек:\n      React, TypeScript, Node.js, MobX, Docker\n\nМы работаем по Scrum.\n\n✅Условия:\n- Официальное оформление по ТК, белая зп;\n- Возможности профессионального и карьерного роста;\n- Дополнительные 3 дня к отпуску;\n- Плавающее начало дня;\n- Удаленка после прохождения испытательного срока (3 месяца)\n- ДМС со стоматологией\n\n☎️Контакты:\nЮлия - YAnZueva@Greenatom.ru","markup":[{"type":"link","offset":0,"length":12,"data":"http://Greenatom.ru"},{"type":"hashtag","offset":13,"length":9,"data":"вакансия"},{"type":"hashtag","offset":23,"length":7,"data":"Москва"},{"type":"hashtag","offset":31,"length":11,"data":"javascript"},{"type":"hashtag","offset":43,"length":6,"data":"React"},{"type":"hashtag","offset":50,"length":11,"data":"Typescript"},{"type":"hashtag","offset":62,"length":5,"data":"Node"},{"type":"hashtag","offset":71,"length":7,"data":"Middle"},{"type":"hashtag","offset":79,"length":7,"data":"Senior"},{"type":"hashtag","offset":87,"length":9,"data":"удаленка"},{"type":"hashtag","offset":193,"length":7,"data":"Москва"},{"type":"link","offset":1436,"length":21,"data":"mailto:YAnZueva@Greenatom.ru"}],"date":"2020-04-05T14:32:33+00:00","link":"tg://resolve?domain=javascript_jobs_feed&post=15434","tags":[{"name":"javascript"},{"name":"reactjs"},{"name":"typescript"},{"name":"nodejs"},{"name":"sass"},{"name":"docker"}],"cities":[{"code":"moscow"}],"allowsRemote":true}},{"node":{"__typename":"Job","id":"1966080000-1001134745498","title":"Devops инженер","text":"#devops #работа #вакансия #москва #kubernetes #redcode \nИнженер DevOps с сильным Kubernetes\n300 - 400 т.руб. на руки\nКомпания разрабатывает ПО и создаёт программно-аппаратные комплексы анализа данных.\nМосква\n\nОбязанности:\nРазработка плейбуков Ansible для конфигурирования серверов на CentOS 7 и 8.\nРазработка манифестов для развертывания приложений в кластерах Kubernetes.\nУправление и мониторинг кластеров Kubernetes.\nНастройка CI/CD конвейеров на базе Gitlab и Nexus\n\nТребования:\nОпыт администрирования CentOS 7 и/или RedHat Enterprise Linux 7\nОпыт работы с Ansible, в частности - разработка плейбуков и ролей Ansible\nОпыт работы с Docker на Linux\nЗнание принципов построения безопасных, высокодоступных и масштабируемых приложений\nОпыт управления кластером Kubernetes, написания манифестов, разворачивание приложений в кластере Kubernetes\nОпыт использования Helm и разработки Helm charts\nОпыт развертывания кластера Kubernetes при помощи Kubespray\nОпыт работы с:\nGitlab и Gitlab CI (Runner)\nNexus Repository Manager и Gitlab Repository\nсо стеком Elastic (ELK или EFK) для логирования\nPrometheus и Alert Manager для мониторинга\nPostgreSQL и Patroni\nNginx, HAProxy и Keepalived\nHashiCorp Vault\nIstio\n\n\"белое\" трудоустройство, ДМС\n\nКонтакты для связи:\ntelegram: @kristina_jobs \nКА RedCode\n\n—\n\n👉 Обсуждение вакансии в чате @devops_jobs","markup":[{"type":"hashtag","offset":0,"length":7,"data":"devops"},{"type":"hashtag","offset":8,"length":7,"data":"работа"},{"type":"hashtag","offset":16,"length":9,"data":"вакансия"},{"type":"hashtag","offset":26,"length":7,"data":"москва"},{"type":"hashtag","offset":34,"length":11,"data":"kubernetes"},{"type":"hashtag","offset":46,"length":8,"data":"redcode"},{"type":"handle","offset":1262,"length":14,"data":"kristina_jobs"},{"type":"handle","offset":1323,"length":12,"data":"devops_jobs"}],"date":"2020-04-03T17:17:36+00:00","link":"tg://resolve?domain=devops_jobs_feed&post=1875","tags":[{"name":"kubernetes"},{"name":"ansible"},{"name":"centos"},{"name":"gitlab"},{"name":"linux"},{"name":"docker"},{"name":"elasticsearch"},{"name":"postgresql"},{"name":"nginx"}],"cities":[{"code":"moscow"}],"allowsRemote":false}},{"node":{"__typename":"Job","id":"1417674752-1001091028994","title":"Java разработчик","text":"#java #middle #москва #офис #fulltime частично #remote \n\nКомпания: BPC, проект \"Рунет Бизнес Системы\"\nформат работы: офис\nзанятость: full time, есть возможность частично работать remote \nлокация: Москва, (м. Курская/Чкаловская) \nЗ/п: 150 - 200к Net \n\n🌏Компания \"Рунет Бизнес Системы\" входит в группу компаний BPC Банковские Технологии и специализируется на предоставлении услуг интернет-эквайринга.  \nКлиенты РБС - это крупнейшие банки и компании России: Сбербанк РФ, Альфа-Банк, Аэрофлот, Открытие, группа ВТБ и многие другие. На текущий момент у РБС полтора десятка экземпляров платёжного шлюза для банков, где топовые инстансы дают в среднем 250 транзакций в секунду. \n\nРебята постоянно развивают внутренние процессы, сохраняя гибкость в управлении растущим числом проектов. Код-ревью всех изменений, agile-подход к разработке (примерно Scrumban), continuous integration и автоматизация тестирования помогают им контролировать и синхронизировать работу команд разработки, тестирования и внедрения.\n\nВ данный момент команды в поисках Middle Java разработчиков, коллеги готов гибко рассматривать кандидатов с опытом от 2 лет. \n\n🔸Технологический стэк команды:\nJava 11 (Stream API), java.util.concurrent, Stream REST API, Spring (boot, MVC, JDBC), Hibernate, Gradle, Kafka, Git, Maven. \n\n🔹Взамен компания готова предоставить:\n- оформление трудовых отношений в соответствии с ТК РФ: \"белую\" конкурентоспособную зарплату, оплату больничных и отпусков;\n- ДМС, включая стоматологию, участие в программах корпоративного кредитования и страхования;\n- возможность карьерного роста, обучения в корпоративном Университете и посещения внешних тренингов;\n- гибкое начало рабочего дня и крутые корпоративные мероприятия;\n- комфортный офис в шаговой доступности от метро Курская/Чкаловская. Бонусом - красивый вид из окна, тишина, чай и сэндвичи, пятница – фруктовый день 🙂 \n\nКонтакты: \ne-mail: valeriya@luckyhunter.io\ntelegram: @sobolevavalery\nБуду рада ответить на все вопросы и рассказать подробнее о компании 😊","markup":[{"type":"hashtag","offset":0,"length":5,"data":"java"},{"type":"hashtag","offset":6,"length":7,"data":"middle"},{"type":"hashtag","offset":14,"length":7,"data":"москва"},{"type":"hashtag","offset":22,"length":5,"data":"офис"},{"type":"hashtag","offset":28,"length":9,"data":"fulltime"},{"type":"hashtag","offset":47,"length":7,"data":"remote"},{"type":"link","offset":1885,"length":23,"data":"mailto:valeriya@luckyhunter.io"},{"type":"handle","offset":1919,"length":15,"data":"sobolevavalery"}],"date":"2020-04-03T15:11:11+00:00","link":"tg://resolve?domain=jvmjobs&post=1352","tags":[{"name":"java"},{"name":"jvm"},{"name":"dotnet"},{"name":"rest"},{"name":"spring"},{"name":"jdbc"},{"name":"hibernate"},{"name":"gradle"},{"name":"kafka"},{"name":"git"},{"name":"maven"},{"name":"continuous-integration"},{"name":"spring-boot"}],"cities":[{"code":"moscow"}],"allowsRemote":true}},{"node":{"__typename":"Job","id":"1416626176-1001091028994","title":"Java разработчик","text":"#офис #Москва #Java #RedCode\n\nСобеседования и работа в период карантина осуществляются дистанционно\n\nВакансия: Java разработчик\nЛокация: Москва, офис, м. Павелецкая \nЗарплатная вилка: 250 - 400 т.р. (обсуждается)\nТребуемый опыт: 3-6 лет \n\nВ крупную и стабильную компанию, уважающую трудовое законодательство и умеющую ценить своих сотрудников, требуется квалифицированный и опытный Java разработчик\n\n🔹Требования к кандидатам: \n- Высокий уровень знаний Java и опыт объектно-ориентированного программирования.\n- Знание современных библиотек, фреймворков (Spring, Hibernate...) и шаблонов проектирования.\n- Опыт работы с инфраструктурой микросервисов (Docker)\n- Необходимо понимать процесс разработки, уметь его организовывать и оптимизировать\n- Знать принципы ООП, подходы в программировании и требования к транзакционным системам (SOLID, DRY, WET, ACID)\n- Иметь обширный опыт работы с различными фреймворками, опыт работы с большими проектами\n- Понимать как работает git, уметь работать с linix-подобными консолями\n- Уметь аргументировать и договариваться \n\n🔹Также приветствуются:\n- Опыт разработки высокопроизводительных и высоконадёжных приложений.\n- Практика с Golang \n\n🔹О приятном: \n- белая зарплата.; \n- Соцпакет + ДМС (после испытательного срока).\n- стабильная компания\n- Шаговая доступность ст.м. \"Павелецкая\".\n- Coffee-Room в офисе + много где поесть в любое время дня. \n\nРезюме и вопросы: @Tatiana_Litvak","markup":[{"type":"hashtag","offset":0,"length":5,"data":"офис"},{"type":"hashtag","offset":6,"length":7,"data":"Москва"},{"type":"hashtag","offset":14,"length":5,"data":"Java"},{"type":"hashtag","offset":20,"length":8,"data":"RedCode"},{"type":"handle","offset":1400,"length":15,"data":"Tatiana_Litvak"}],"date":"2020-04-03T13:54:58+00:00","link":"tg://resolve?domain=jvmjobs&post=1351","tags":[{"name":"java"},{"name":"jvm"},{"name":"spring"},{"name":"hibernate"},{"name":"docker"},{"name":"git"},{"name":"go"}],"cities":[{"code":"moscow"}],"allowsRemote":false}}]}}},"context":{}}