{"hash":"f5f6bf98bd95e769321482904cbbd488f77922fd","data":{"records":{"id":"reactjs","name":"reactjs","belongsTo":{"totalCount":182,"pageInfo":{"totalPages":19,"currentPage":5},"edges":[{"node":{"__typename":"Job","id":"17261658112-1001110946746","title":"Js разработчик","text":"#вакансия #remote #node.js #graphql #typescript\nГород и адрес офиса: Atlanta, GA, USA\nФормат работы: удаленка\nЗанятость: полная\nЗарплатная вилка: от $5'000 до $10'000/мес на руки + %\nНазвание компании: Kriasoft (https://github.com/kriasoft)\nКонтакты: @koistya\n \nИщем талантливого sr. level веб-разработчика в стартап ($1.5M посевных инвестиций) для разработки современного конструктора веб-сайтов похожий на Framer.com, который будет конкурировать с Webflow, Squarespace, Tilda.\n\n👉 Требования\n\n- Опыт работы с React.js, Node.js/GraphQL, PostgreSQL, TypeScript\n- Опыт разработки веб-приложений в роли основного контрибьютора\n- Умение писать грамотный, продуманный код и решать сложные задачи\n- Хороший разговорный английский","markup":[{"type":"hashtag","offset":0,"length":9,"data":"вакансия"},{"type":"hashtag","offset":10,"length":7,"data":"remote"},{"type":"hashtag","offset":18,"length":5,"data":"node"},{"type":"hashtag","offset":27,"length":8,"data":"graphql"},{"type":"hashtag","offset":36,"length":11,"data":"typescript"},{"type":"link","offset":212,"length":27,"data":"https://github.com/kriasoft"},{"type":"handle","offset":251,"length":8,"data":"koistya"},{"type":"link","offset":408,"length":10,"data":"http://Framer.com"}],"date":"2020-06-30T11:57:59+00:00","link":"tg://resolve?domain=javascript_jobs_feed&post=16462","tags":[{"name":"javascript"},{"name":"nodejs"},{"name":"graphql"},{"name":"typescript"},{"name":"github"},{"name":"reactjs"},{"name":"postgresql"}],"cities":[{"code":"atlanta"}],"allowsRemote":true}},{"node":{"__typename":"Job","id":"17254318080-1001110946746","title":"Js developer","text":"#вакансия #FrontendDeveloper #AngularJS #JavaScript #HTML5 #CSS3 #Senior #Middle \nГород: Минск \nФормат работы: офис \nЗанятость: полная занятость, полный день\nЗарплатная вилка: 2000 - 4000$\nОписание вакансии: Front-end Developer (AngularJS)\nПроект - Web-сайт\nНеобходимый стек:\n- Глубокие знания JavaScript, AngularJS (1) и принципов работы современных браузеров\n- Отличный уровень знаний HTML5/CSS3\n- Опыт работы с пре- и пост-процессорами (SCSS/LESS/Stylus/PostCSS)\n- Очень желателен опыт работы с React\n- Понимание особенностей кроссбраузерности и адаптивности, умение создавать сложные адаптивные интерфейсы без использования фреймворков.\nНазвание компании: WakeApp (https://wakeapp.ru)\nКонтакты: Telegram - @Katherine_Faleichik","markup":[{"type":"hashtag","offset":0,"length":9,"data":"вакансия"},{"type":"hashtag","offset":10,"length":18,"data":"FrontendDeveloper"},{"type":"hashtag","offset":29,"length":10,"data":"AngularJS"},{"type":"hashtag","offset":40,"length":11,"data":"JavaScript"},{"type":"hashtag","offset":52,"length":6,"data":"HTML5"},{"type":"hashtag","offset":59,"length":5,"data":"CSS3"},{"type":"hashtag","offset":65,"length":7,"data":"Senior"},{"type":"hashtag","offset":73,"length":7,"data":"Middle"},{"type":"link","offset":669,"length":18,"data":"https://wakeapp.ru"},{"type":"handle","offset":710,"length":20,"data":"Katherine_Faleichik"}],"date":"2020-06-30T11:54:45+00:00","link":"tg://resolve?domain=javascript_jobs_feed&post=16455","tags":[{"name":"javascript"},{"name":"angularjs"},{"name":"html"},{"name":"css"},{"name":"web"},{"name":"reactjs"}],"cities":[{"code":"minsk"}],"allowsRemote":false}},{"node":{"__typename":"Job","id":"17244880896-1001110946746","title":"Js разработчик","text":"#вакансия #удаленка #junior #reactjs #remote\n\nГород и адрес офиса: Москва, удаленка\n\nФормат работы: удаленка\n\nЗанятость: полная\n\nЗарплатная вилка:  от 15000р до 25000р\n\n\nОписание вакансии: \nМы ищем стажера или джуна на стажировку React-разработчика :)\n\n\nНеобходимые знания:\nБазовые знания html / css / js\nЖелание развиваться в front-end разработке, особеннов в React\nРазвитое логическое мышление\nСтремление развиваться и создавать не только функциональные, но и удобные продукты\nПреимуществом будет опыт разработки в роли front-end разработчика\n\n\nОбязанности:\nСоздание веб-сервиса в роли front-end разработчика (стажера) на React\nучастие в полном цикле работы команды: от планирования до релиза\nвозможность участвовать\n\nПредлагем: \nИнтересные и сложные задачи для улучшения скиллов React-разработчика\nнаставника, который будет помогать и подсказывать \nудаленную работу с комфортным графиком\nвознаграждение по итогам стажировки\n\nНазвание компании: Outlines tech\n\nКонтакты: телеграм @MrNapcae","markup":[{"type":"hashtag","offset":0,"length":9,"data":"вакансия"},{"type":"hashtag","offset":10,"length":9,"data":"удаленка"},{"type":"hashtag","offset":20,"length":7,"data":"junior"},{"type":"hashtag","offset":28,"length":8,"data":"reactjs"},{"type":"hashtag","offset":37,"length":7,"data":"remote"},{"type":"handle","offset":981,"length":9,"data":"MrNapcae"}],"date":"2020-06-30T11:47:46+00:00","link":"tg://resolve?domain=javascript_jobs_feed&post=16446","tags":[{"name":"javascript"},{"name":"reactjs"},{"name":"html"},{"name":"css"}],"cities":[{"code":"moscow"}],"allowsRemote":true}},{"node":{"__typename":"Job","id":"17241735168-1001110946746","title":"Js разработчик","text":"#вакансия #frontend #Москва #fulltime #middle #senior #react #работа\nГород и адрес офиса: Москва, между метро Нагатинская и Тульская, мцк Верхние котлы \nФормат работы: офис\nЗанятость:полная\nОплата: 180-250 тыс. рублей\nОписание вакансии:\n💥Команда СберТеха  ищет сильного Frontend-разработчика!🙌\n💥Проект «Управление сбойными ситуациями, возникающими при работе банковских процессов». Система находится в промышленной эксплуатации, имеет пользовательский интерфейс для ручного разбора инцидентов ( реализован на React JS).Продукт активно развивается, поэтому мы хотим усилить нашу команду. От нас вы получите опыт и развитие компетенций, амбициозные задачи, карьерный рост и открытость к инновациям!\n💥Стек: React JS, react-redux, webPack, CSS, HTML, Java, Spring, Git, Maven.\n💥 Процесс разработки : Scrum, Jira, Gitflow, DevOps до Production (переход на OpenShift)\n💥-Оформление ТК РФ;\n     -ДМС;\n     - Белая заработная плата (оклад + годовая премия);\n     -Возможность обучения за счет компании;\n     -   Льготное кредитование;\n      -Бесплатный тренажерный зал на территории офиса;\n       - корпоративная жизнь и спортивные мероприятия;\n       -возможность карьерного роста.\nКомпания: СберТех\nКонтакты: @TaliaHR","markup":[{"type":"hashtag","offset":0,"length":9,"data":"вакансия"},{"type":"hashtag","offset":10,"length":9,"data":"frontend"},{"type":"hashtag","offset":20,"length":7,"data":"Москва"},{"type":"hashtag","offset":28,"length":9,"data":"fulltime"},{"type":"hashtag","offset":38,"length":7,"data":"middle"},{"type":"hashtag","offset":46,"length":7,"data":"senior"},{"type":"hashtag","offset":54,"length":6,"data":"react"},{"type":"hashtag","offset":61,"length":7,"data":"работа"},{"type":"handle","offset":1208,"length":8,"data":"TaliaHR"}],"date":"2020-06-30T08:30:19+00:00","link":"tg://resolve?domain=javascript_jobs_feed&post=16443","tags":[{"name":"javascript"},{"name":"reactjs"},{"name":"redux"},{"name":"webpack"},{"name":"css"},{"name":"html"},{"name":"java"},{"name":"spring"},{"name":"git"},{"name":"maven"},{"name":"react-redux"}],"cities":[{"code":"moscow"}],"allowsRemote":false}},{"node":{"__typename":"Job","id":"104036564992-1001089317451","title":"Qa engineer","text":"#вакансия #москва #полнаязанятость #qaengineer #auto \nКомпания: #Mетрквадратный www.m2.ru\nФормат работы: в данный момент удаленная работа\nЗ/п: от 120к - 180к на руки\nКонтакты: @maxdmitrov\n\nЭто экосистема недвижимости, которая помогает клиентам решать любые жилищные вопросы: от поиска вариантов и оформления сделки до организации ремонта и переезда в новую квартиру. Мы также создаем решения для партнёров и профессиональных участников рынка недвижимости.\n\nНаш стэк:\n• Java\n • Node.js\n • React, TypeScript\n • Kafka, ElasticSearch, gRPC\n • Docker\n\nЧем предстоит заниматься:\n• заниматься задачами по автоматизации тестирования. \n• анализировать и тестировать требования к разрабатываемым приложениям;\n • писать приемочные критерии к пользовательским историям;\n • проводить функциональное, регрессионное и smoke тестирование;\n \n\nЧего мы ждем:\n • глубокое понимание процессов тестирования и разработки ПО;\n • опыт интеграционного тестирования:\n    - системная интеграция;\n    - компонентная интеграция\n • опыт тестирования АРI;\n • опыт автоматизации тестирования на любом стеке.\n\nБудет плюсом\n • опыт исследовательского тестирования;\n • опыт тестирования ПО с микросервисной архитектурой.\n\nМы предлагаем:\n • белая конкурентная ЗП, официальное оформление;\n • гибкий график работы;\n • ДМС, компенсация фитнеса, льготная ставка по ипотеке;","markup":[{"type":"hashtag","offset":0,"length":9,"data":"вакансия"},{"type":"hashtag","offset":10,"length":7,"data":"москва"},{"type":"hashtag","offset":18,"length":16,"data":"полнаязанятость"},{"type":"hashtag","offset":35,"length":11,"data":"qaengineer"},{"type":"hashtag","offset":47,"length":5,"data":"auto"},{"type":"hashtag","offset":64,"length":15,"data":"Mетрквадратный"},{"type":"link","offset":80,"length":9,"data":"http://www.m2.ru"},{"type":"handle","offset":176,"length":11,"data":"maxdmitrov"},{"type":"bold","offset":456,"length":11,"data":""},{"type":"bold","offset":547,"length":26,"data":""},{"type":"bold","offset":825,"length":15,"data":""},{"type":"bold","offset":1075,"length":14,"data":""},{"type":"bold","offset":1184,"length":16,"data":""}],"date":"2020-06-30T08:04:53+00:00","link":"tg://resolve?domain=qa_jobs&post=99217","tags":[{"name":"qa"},{"name":"java"},{"name":"nodejs"},{"name":"reactjs"},{"name":"typescript"},{"name":"kafka"},{"name":"elasticsearch"},{"name":"docker"}],"cities":[{"code":"moscow"}],"allowsRemote":true}},{"node":{"__typename":"Job","id":"17236492288-1001110946746","title":"Js разработчик","text":"#вакансия #remote #Javascript #React #Node.js\n\nЛокация: из любой точки мира\nФормат работы: удаленно\nЗанятость: от 8 часов/неделю\nЗаработная плата: от 20-000 до 100.000 рублей (нетто), заработная плата складывается из количества проверенных проектов\n\nОписание вакансии: Яндекс.Практикум — сервис онлайн-образования, ежемесячно запускает обучение по направлению веб-разработки. Нам требуется Code reviewer (HTML, CSS, JavaScript) со знанием английского языка. Код-ревьер проверяет написанный студентом международного потока код и даёт обратную связь на английском языке. Код-ревьюер решает: зачесть задание или нет. Также он даёт советы по улучшению кода, отмечает неточности, указывает на ошибки. Вся коммуникация проходит на английском языке.м. Примерная занятость - от 8 часов в неделю (но можно и больше :) Рабочий язык - английский.\nТребования:\n✔Опыт работы веб-разработчиком от одного года;\n✔ Знание HTML, CSS, JavaScript и Node.js;\n✔ Умение грамотно писать на английском языке;\n✔ Готовность посвящать проекту минимум восемь часов в неделю.\n\nНазвание компании: Яндекс.Практикум https://practicum.yandex.com/\n\nКонтакты: чтобы откликнуться, отправьте резюме с пометкой на какую позицию вы претендуете на адрес ilinovamarian@yandex-team.ru","markup":[{"type":"hashtag","offset":0,"length":9,"data":"вакансия"},{"type":"hashtag","offset":10,"length":7,"data":"remote"},{"type":"hashtag","offset":18,"length":11,"data":"Javascript"},{"type":"hashtag","offset":30,"length":6,"data":"React"},{"type":"hashtag","offset":37,"length":5,"data":"Node"},{"type":"link","offset":1082,"length":29,"data":"https://practicum.yandex.com/"},{"type":"link","offset":1212,"length":28,"data":"mailto:ilinovamarian@yandex-team.ru"}],"date":"2020-06-30T02:35:14+00:00","link":"tg://resolve?domain=javascript_jobs_feed&post=16438","tags":[{"name":"javascript"},{"name":"reactjs"},{"name":"nodejs"},{"name":"html"},{"name":"css"}],"cities":[],"allowsRemote":true}},{"node":{"__typename":"Job","id":"17235443712-1001110946746","title":"Javascript разработчик","text":"#вакансия #frontend #react #typescript #graphQL #junior #middle #senior #lead #москва #офис #fulltime\n\nКомпания: СберТех\nЛокация: г. Москва, м. Савеловская\nФормат работы: офис (до конца июля удаленка), полная занятость\nЗ/п: 100 000 - 230 000 руб. net (+ у нас высокая годовая премия) \n\nВсем привет 🙌\nТут один проект скучает без Frontend-разработчика \n\n💻 Делаем образовательную цифровую платформу - SaaS решение для персонализированного обучения в школах, университетах, IT Bootcamp  Сбербанка. \nПредстоит повышать перфоманс приложения (плановая нагрузка на сентябрь 2020 - 500 000 активных пользователей в день)\n\n🔔 Must have:\nReact, Typescript, HTML5+CSS3, Webpack/аналог, система контроля версий Git, для уровня lead управление командой из 3-6 человек\n\nБудет здорово, если есть\nопыт/желание изучить: GraphQL (Apollo client), уверенное знание ЕS6, Styled-components, Jest/React-testing-library, Code review, адаптивность под мобильные платформы\n\nПредлагаем:\n✔профессиональное развитие: конференции, митапы, обучение в Корпоративном университете Сбербанка\n✔ДМС и страховку от несчастных случаев, льготные условия ипотеки, скидки от компаний-партнеров, бесплатный корпоративный тренажерный зал\n✔офис А класса в БЦ «Северное Сияние» (5 мин. от м. Савеловская), возможность гибкого начала рабочего дня \n\nЕсли интересно - буду рада обсудить, вот мои контакты:\n📲 @karprokar\n📩 KVProlomova@sberbank.ru","markup":[{"type":"hashtag","offset":0,"length":9,"data":"вакансия"},{"type":"hashtag","offset":10,"length":9,"data":"frontend"},{"type":"hashtag","offset":20,"length":6,"data":"react"},{"type":"hashtag","offset":27,"length":11,"data":"typescript"},{"type":"hashtag","offset":39,"length":8,"data":"graphQL"},{"type":"hashtag","offset":48,"length":7,"data":"junior"},{"type":"hashtag","offset":56,"length":7,"data":"middle"},{"type":"hashtag","offset":64,"length":7,"data":"senior"},{"type":"hashtag","offset":72,"length":5,"data":"lead"},{"type":"hashtag","offset":78,"length":7,"data":"москва"},{"type":"hashtag","offset":86,"length":5,"data":"офис"},{"type":"hashtag","offset":92,"length":9,"data":"fulltime"},{"type":"link","offset":568,"length":14,"data":"tel:2020 - 500 000"},{"type":"handle","offset":1361,"length":10,"data":"karprokar"},{"type":"link","offset":1375,"length":23,"data":"mailto:KVProlomova@sberbank.ru"}],"date":"2020-06-29T20:21:25+00:00","link":"tg://resolve?domain=javascript_jobs_feed&post=16437","tags":[{"name":"javascript"},{"name":"reactjs"},{"name":"typescript"},{"name":"graphql"},{"name":"dotnet"},{"name":"html"},{"name":"css"},{"name":"webpack"},{"name":"git"}],"cities":[{"code":"moscow"}],"allowsRemote":true}},{"node":{"__typename":"Job","id":"17232297984-1001110946746","title":"Js разработчик","text":"Greenatom.ru\n#вакансия #Москва #javascript #React #Typescript #Node.js #Middle #Senior #удаленка #удаленная работа \n\n👨🏼‍💻 Middle/Senior Frontend Developer, Middle/Senior Backend Developer\nГород и адрес офиса: #Москва, БЦ Сириус Парк, метро Нагатинская\n\n✅Формат работы: \nУДАЛЕННАЯ РАБОТА\n\n💻Занятость: полная, гибкое начало трудового дня.\n\nЗарплатная вилка: от 170 000 до 230 000 руб. на руки.\n\n🏢Компания: АО Гринатом\n\nПривет! Мы растём и активно развиваем ряд внутренних проектов: например, корпоративный портал, горячая линия, собственная кадровая система для 400 предприятий! \nМы формируем НЕСКОЛЬКО КОМАНД, общей численностью более 60 человек и ищем классных:\n\n✅ФРОНТЕНД  разработчиков;\n\n✅БЭКЕНД разработчиков. \n\nПроекты в стадии разработки пилота и у тебя есть возможность повлиять на дальнейшее развитие продукта. Если у тебя есть крутые идеи - ты сможешь их здесь реализовать! Откликайся сам и зови друзей! Вирус пройдёт, работа останется!\n\n✅Требуемые знания и навыки:\n- Опыт разработки от двух лет\n- Хорошее знание чистого JS\n- Опыт работы с TypeScript\n- React, MobX, Less/Sass\n- Опыт написания юнит-тестов с помощью Jest, Enzymе очень приветствуется\n\n💡Наш стек:\n      React, TypeScript, Node.js, MobX, Docker\n\nМы работаем по Scrum.\n\n✅Условия:\n- Официальное оформление в штат по ТК, белая зп;\n- Бессрочный трудовой договор; \n- Годовой бонус;\n- Возможности профессионального и карьерного роста;\n- Дополнительные 3 дня к отпуску;\n- Плавающее начало дня;\n- ДМС со стоматологией;\n- Полная удаленка \n(Если тебе нравится работать в офисе, мы не против)\n\n☎️Контакты:\nЮлия - YAnZueva@Greenatom.ru","markup":[{"type":"link","offset":0,"length":12,"data":"http://Greenatom.ru"},{"type":"hashtag","offset":13,"length":9,"data":"вакансия"},{"type":"hashtag","offset":23,"length":7,"data":"Москва"},{"type":"hashtag","offset":31,"length":11,"data":"javascript"},{"type":"hashtag","offset":43,"length":6,"data":"React"},{"type":"hashtag","offset":50,"length":11,"data":"Typescript"},{"type":"hashtag","offset":62,"length":5,"data":"Node"},{"type":"hashtag","offset":71,"length":7,"data":"Middle"},{"type":"hashtag","offset":79,"length":7,"data":"Senior"},{"type":"hashtag","offset":87,"length":9,"data":"удаленка"},{"type":"hashtag","offset":97,"length":10,"data":"удаленная"},{"type":"hashtag","offset":212,"length":7,"data":"Москва"},{"type":"link","offset":1579,"length":21,"data":"mailto:YAnZueva@Greenatom.ru"}],"date":"2020-06-29T17:49:45+00:00","link":"tg://resolve?domain=javascript_jobs_feed&post=16434","tags":[{"name":"javascript"},{"name":"reactjs"},{"name":"typescript"},{"name":"nodejs"},{"name":"sass"},{"name":"docker"}],"cities":[{"code":"moscow"}],"allowsRemote":true}},{"node":{"__typename":"Job","id":"17229152256-1001110946746","title":"Javascript разработчик","text":"#вакансия #middledev #frontend #javascript #react #fulltime \n\nЛокация: Казахстан, город Алматы\nФормат работы: офис или удаленка\nЗанятость: полная\nЗарплатная вилка: 70к – 100к рублей (350К - 600К тенге)\n\nОписание вакансии:\n\nMiddle React Frontend Developer\n\nОбязанности:\n • Проектирование и разработка удобных и практичных интерфейсов веб-приложений;\n • Кроссбраузерная и адаптивная верстка компонентов системы;\n • Интеграция с серверной частью через API;\n • Поддержка и развитие существующих проектов;\n • Тестирование и оптимизация написанного кода;\n • Участие в проектировании архитектуры систем;\n • Планирование работы и оценка задач;\n • Взаимодействие с backend-разработчиками, менеджером проекта и архитектором  системы;\n\nТребования:\n • Уверенное владение и реальный опыт работы с React;\n • Знание библиотек Redux/Next, TypeScript;\n • Уверенное знание Javascript (ES6+);\n • Владение HTML5 и CSS3 (адаптивная, кроссбраузерная, семантическая верстка);\n • Умение работать с системой контроля версий (Git);\n • Знание современных парадигм программирования, умение писать чистый и быстрый код;\n • Знание архитектуры веб приложения и принципов клиент-серверного взаимодействия;\n • Знание английского языка на уровне чтения технической документации и зарубежных ресурсов;\n • Знание препроцессоров (SASS, SCSS, Stylus, Pug);\n • Хорошие навыки работы со сборщиками (Webpack, Gulp);\n • Postman / Swagger UI;\n\nНазвание компании: KIT SYSTEMS (разработка CRM / ERP / BMP систем управления)\n\nКонтакты: Писать @askhhh или звонить по номеру +77010999936","markup":[{"type":"hashtag","offset":0,"length":9,"data":"вакансия"},{"type":"hashtag","offset":10,"length":10,"data":"middledev"},{"type":"hashtag","offset":21,"length":9,"data":"frontend"},{"type":"hashtag","offset":31,"length":11,"data":"javascript"},{"type":"hashtag","offset":43,"length":6,"data":"react"},{"type":"hashtag","offset":50,"length":9,"data":"fulltime"},{"type":"handle","offset":1497,"length":7,"data":"askhhh"},{"type":"link","offset":1527,"length":12,"data":"tel:+77010999936"}],"date":"2020-06-29T16:13:31+00:00","link":"tg://resolve?domain=javascript_jobs_feed&post=16431","tags":[{"name":"javascript"},{"name":"reactjs"},{"name":"redux"},{"name":"typescript"},{"name":"html"},{"name":"css"},{"name":"git"},{"name":"sass"},{"name":"webpack"},{"name":"gulp"},{"name":"swagger"}],"cities":[{"code":"almaty"}],"allowsRemote":true}},{"node":{"__typename":"Job","id":"17227055104-1001110946746","title":"Js разработчик","text":"#вакансия #seniordev #frontend #javascript #react #vue #angular #fulltime #office \n\nSenior/Middle Frontend Developer\nЛокация: Москва, м. Таганская\nФормат работы: офис\nЗанятость: полная\nЗарплатная вилка: 175к – 235к\nКомпания: WhoIsBlogger(WIB), www.whoisblogger.com \n\nМы разрабатываем аналитический продукт, который позволяет нашим клиентам принимать обоснованные решения при планировании рекламных кампаний с помощью блогеров.\n\nМы ищем человека для создания фронтенда веб-приложения, в котором наши клиенты смогут быстро получать доступ к нужным данным о блогерах, а также вести историю своих рекламных кампаний и проектов.\n\nЧто нужно делать?\n• разработка пользовательской платформы;\n• согласование требований с бизнес-заказчиками, дизайнерами и бэкенд командой;\n• разработка архитектурных решений, поиск и внедрение необходимых технологий, поиск узких мест в работе систем, оптимизация и рефакторинг;\n• внедрение методик и инструментов для повышения качества кода и продукта.\n\nЧто нужно уметь?\n• опыт работы не менее 3-х лет в роли фронтенд-разработчика;\n• уверенное владение HTML, CSS, JavaScript, TypeScript;\n• опыт самостоятельной разработки фронтенда с использованием современного стека: React/Angular/Vue.js, Redux/MobX, Webpack;\n• готовность и желание встать у истоков фронтенд-разработки в компании, оставаясь на первых порах единственным фронтенд-разработчиком;\n• высокая степень самостоятельности, ответственности и работоспособности, желание развиваться и достигать результатов в кратчайшие сроки.\n\nБудет плюсом:\n• опыт реализации многомодульных и высоконагруженных проектов;\n• опыт разработки SPA;\n• опыт использования D3.js;\n• умение работать с БД PostgreSQL, MongoDB;\n• опыт работы с облачными провайдерами, предпочтительно AWS;\n• умение собирать и анализировать пользовательское поведение в Google Analytics, Яндекс.Метрике и подобных системах.\n\nКонтакты: akurdin@whoisblogger.com, @ifeelKud, +7(903)505-38-32","markup":[{"type":"hashtag","offset":0,"length":9,"data":"вакансия"},{"type":"hashtag","offset":10,"length":10,"data":"seniordev"},{"type":"hashtag","offset":21,"length":9,"data":"frontend"},{"type":"hashtag","offset":31,"length":11,"data":"javascript"},{"type":"hashtag","offset":43,"length":6,"data":"react"},{"type":"hashtag","offset":50,"length":4,"data":"vue"},{"type":"hashtag","offset":55,"length":8,"data":"angular"},{"type":"hashtag","offset":64,"length":9,"data":"fulltime"},{"type":"hashtag","offset":74,"length":7,"data":"office"},{"type":"link","offset":244,"length":20,"data":"http://www.whoisblogger.com"},{"type":"link","offset":1871,"length":24,"data":"mailto:akurdin@whoisblogger.com"},{"type":"handle","offset":1897,"length":9,"data":"ifeelKud"},{"type":"link","offset":1908,"length":16,"data":"tel:+7(903)505-38-32"}],"date":"2020-06-29T15:34:36+00:00","link":"tg://resolve?domain=javascript_jobs_feed&post=16429","tags":[{"name":"javascript"},{"name":"reactjs"},{"name":"vuejs"},{"name":"angularjs"},{"name":"html"},{"name":"css"},{"name":"typescript"},{"name":"redux"},{"name":"webpack"},{"name":"postgresql"},{"name":"mongodb"},{"name":"amazon-web-services"},{"name":"google-analytics"}],"cities":[{"code":"moscow"}],"allowsRemote":false}}]}}},"context":{}}