{"hash":"f5f6bf98bd95e769321482904cbbd488f77922fd","data":{"records":{"id":"javascript","name":"javascript","belongsTo":{"totalCount":272,"pageInfo":{"totalPages":28,"currentPage":21},"edges":[{"node":{"__typename":"Job","id":"16990076928-1001110946746","title":"Js developer","text":"#вакансия #удаленка #nodejs \n\nRocketech.it срочно ищет Middle+ Backend Node.js Developer\n\nФормат занятости: удаленка\nЗанятость: part-time\nЗарплатная вилка: 1200-1700$/месяц на руки\n\nО компании: \n\nRocketech - компания, предоставляющая полноценные продуктовые команды для инвесторов, стартаперов и крупных компаний. Мы уже больше 5 лет на рынке разработки програмного обеспечения. Сотни выполненых кейсов, десятки крупных клиентов. \n\nО проекте:\n\nМаркетинговый инструмент.\n\nСтек технологий: \n\nNest.js, MongoDB\n\nТребования: \n\n3+ года опыта коммерческой разработки на Node.js\n\nБудет плюсом:\n\nРазговорный английский\n\nКонтакт: @mxm_at\n\n—\n\n👉 Обсуждение вакансии в чате @javascript_jobs","markup":[{"type":"hashtag","offset":0,"length":9,"data":"вакансия"},{"type":"hashtag","offset":10,"length":9,"data":"удаленка"},{"type":"hashtag","offset":20,"length":7,"data":"nodejs"},{"type":"link","offset":30,"length":12,"data":"http://Rocketech.it"},{"type":"handle","offset":620,"length":7,"data":"mxm_at"},{"type":"handle","offset":662,"length":16,"data":"javascript_jobs"}],"date":"2020-06-16T19:42:25+00:00","link":"tg://resolve?domain=javascript_jobs_feed&post=0","tags":[{"name":"javascript"},{"name":"nodejs"},{"name":"mongodb"}],"cities":[],"allowsRemote":true}},{"node":{"__typename":"Job","id":"16989028352-1001110946746","title":"Js разработчик","text":"#вакансия #москва #удаленка #частичная\n\nГород и адрес офиса: Москва;\nФормат работы: удаленка;\nЗанятость: полная, частичная;\nЗарплатная вилка:от 20000 до 45000 руб. (за 10-20 часов работы в неделю). Можно работать больше.\n\nКод-ревьюер в Яндекс.Практикум\n\nНужно будет писать комментарии к домашним заданиям студентов курса \"Веб-разработчик\". Работу легко можно совмещать с основной)\nКакой опыт нужен: Опыт работы веб-разработчиком от 1 года, знание html, js.\nНазвание компании: Яндекс. Практикум, https://praktikum.yandex.ru/\n\nКонтакт для связи: uluchka@yandex-team.ru\nИли @Uluchka\n\n—\n\n👉 Обсуждение вакансии в чате @javascript_jobs","markup":[{"type":"hashtag","offset":0,"length":9,"data":"вакансия"},{"type":"hashtag","offset":10,"length":7,"data":"москва"},{"type":"hashtag","offset":18,"length":9,"data":"удаленка"},{"type":"hashtag","offset":28,"length":10,"data":"частичная"},{"type":"link","offset":495,"length":28,"data":"https://praktikum.yandex.ru/"},{"type":"link","offset":544,"length":22,"data":"mailto:uluchka@yandex-team.ru"},{"type":"handle","offset":571,"length":8,"data":"Uluchka"},{"type":"handle","offset":614,"length":16,"data":"javascript_jobs"}],"date":"2020-06-16T19:40:54+00:00","link":"tg://resolve?domain=javascript_jobs_feed&post=0","tags":[{"name":"javascript"},{"name":"html"}],"cities":[{"code":"moscow"}],"allowsRemote":true}},{"node":{"__typename":"Job","id":"16987979776-1001110946746","title":"Javascript developer","text":"#вакансия #удаленка #react\n\nRocketech.it срочно ищет Middle+ Frontend React Developer\n\nФормат занятости: удаленка\nЗанятость: fulltime\nЗарплатная вилка: 2200 -2700$/месяц на руки\n\nО компании: \n\nRocketech - компания, предоставляющая полноценные продуктовые команды для инвесторов, стартаперов и крупных компаний. Мы уже больше 5 лет на рынке разработки програмного обеспечения. Сотни выполненых кейсов, десятки крупных клиентов. \n\nО проекте:\n\nМаркетинговый инструмент.\n\nСтек технологий: \n\nTypeScript, React, CRA, less, mobx, antd\n\nТребования: \n\n3+ года опыта коммерческой разработки в frontend\n\nБудет плюсом:\n\nРазговорный английский\n\nКонтакт: @mxm_at\n\n—\n\n👉 Обсуждение вакансии в чате @javascript_jobs","markup":[{"type":"hashtag","offset":0,"length":9,"data":"вакансия"},{"type":"hashtag","offset":10,"length":9,"data":"удаленка"},{"type":"hashtag","offset":20,"length":6,"data":"react"},{"type":"link","offset":28,"length":12,"data":"http://Rocketech.it"},{"type":"handle","offset":641,"length":7,"data":"mxm_at"},{"type":"handle","offset":683,"length":16,"data":"javascript_jobs"}],"date":"2020-06-16T19:38:07+00:00","link":"tg://resolve?domain=javascript_jobs_feed&post=0","tags":[{"name":"javascript"},{"name":"reactjs"},{"name":"typescript"}],"cities":[],"allowsRemote":true}},{"node":{"__typename":"Job","id":"16986931200-1001110946746","title":"Js разработчик","text":"#вакансия #berlin #remote #fulltime #react #english\n\n🔸 Город и адрес офиса: Берлин\n🔸 Формат работы: удалённо\n🔸 Занятость: полная\n🔸 Зарплатная вилка: от 2000$ до 3100$\n\n🔥 Описание вакансии:\nPaulCamper — marketplace для частных домов на колёсах (camper vans). Мы являемся крупнейшей camper-sharing платформой в Германии и активно выходим на другие рынки.\nhttps://paulcamper.com/\n\nМы ищем опытных разработчиков, готовых применять свои профессиональные навыки и развивать экспертизу в смежных областях. Вакансия открыта для нескольких команд, каждая из которых польностью отвечает за определенный этап на пути пользователя.\n\nFrontend stack: React, Redux, Saga, CSS Modules, cusom SSR for several NodeJS services including web, email and pdf renderers & React Native for the app. Подробнее https://stackshare.io/paulcamper/paulcamper\n\n🚀 Опыт:\nМинимум 3 года профессиональной программной разработки (из них 2+ на React стэке).\nЖелание работать над полным циклом решения в кросс-функциональной команде.\nАнглийский на уровне upper intermediate и выше для работы в интернациональном коллективе.\n\nКонтакты: https://paulcamper.orgos.io/frontend, @sergeizimakov\n\n—\n\n👉 Обсуждение вакансии в чате @javascript_jobs","markup":[{"type":"hashtag","offset":0,"length":9,"data":"вакансия"},{"type":"hashtag","offset":10,"length":7,"data":"berlin"},{"type":"hashtag","offset":18,"length":7,"data":"remote"},{"type":"hashtag","offset":26,"length":9,"data":"fulltime"},{"type":"hashtag","offset":36,"length":6,"data":"react"},{"type":"hashtag","offset":43,"length":8,"data":"english"},{"type":"link","offset":358,"length":23,"data":"https://paulcamper.com/"},{"type":"link","offset":790,"length":43,"data":"https://stackshare.io/paulcamper/paulcamper"},{"type":"link","offset":1103,"length":36,"data":"https://paulcamper.orgos.io/frontend"},{"type":"handle","offset":1141,"length":14,"data":"sergeizimakov"},{"type":"handle","offset":1190,"length":16,"data":"javascript_jobs"}],"date":"2020-06-16T19:29:26+00:00","link":"tg://resolve?domain=javascript_jobs_feed&post=0","tags":[{"name":"javascript"},{"name":"reactjs"},{"name":"redux"},{"name":"css"},{"name":"nodejs"},{"name":"web"},{"name":"react-redux"},{"name":"react-native"}],"cities":[{"code":"berlin"}],"allowsRemote":true}},{"node":{"__typename":"Job","id":"16985882624-1001110946746","title":"Js разработчик","text":"#вакансия  #frontend  #React #офис\n\nFrontend разработчик \n\nГде: Москва, Савеловский сити\nФормат работы: fulltime, офис\nКомпания: Mecruryo.io\nВилка: 180-200к на руки\nКонтакт: @sollesdi\n\nЗадачи:\n⇢ Развивать функционал и пользовательские интерфейсы имеющихся продуктов;\n⇢ Плотно работать в команде с другими разработчиками, тестировщиками и дизайнерами.\n\nТребования:\n⇢ Опыт промышленной разработки на ReactJS от 1,5 лет. Наши основные технологии: React, Redux, webpack, БЭМ, SCSS;\n⇢ Умение создавать адаптивную вёрстку один-в-один с макетом;\n⇢ Умение с нуля настроить webpack под любые требования;\n⇢ Плюсом будет знание TypeScript и умение писать тесты;\n⇢ Существенным плюсом будет, если вы покажете ваш код на React либо выполните небольшое тестовое задание.\n\nВозможности:\n⇢ Работать на острие технологий в команде с опытными специалистами. У нас нет устаревшего legacy кода и устаревших технологий;\n⇢ Работать в команде с выстроенными процессами разработки и тестирования;\n⇢ Погрузиться в инновационную технологическую сферу криптовалют.\n\nУсловия:\n⇢ Молодая, амбициозная, дружная команда;\n⇢ Конкурентная заработная плата;\n⇢ Корпоративный английский;\n⇢ Переговоры с крупными международными компаниями;\n⇢ Приветствуется инициатива, возможность реализовать свои идеи;\n⇢ Возможность участвовать в построении крупной компании международного уровня;\n⇢ Чай, кофе, плюшки в офисе.\n\nКадровое агентство RecruitIT\nКонтакт: @sollesdi\n\n—\n\n👉 Обсуждение вакансии в чате @javascript_jobs","markup":[{"type":"hashtag","offset":0,"length":9,"data":"вакансия"},{"type":"hashtag","offset":11,"length":9,"data":"frontend"},{"type":"hashtag","offset":22,"length":6,"data":"React"},{"type":"hashtag","offset":29,"length":5,"data":"офис"},{"type":"link","offset":129,"length":11,"data":"http://Mecruryo.io"},{"type":"handle","offset":174,"length":9,"data":"sollesdi"},{"type":"handle","offset":1411,"length":9,"data":"sollesdi"},{"type":"handle","offset":1455,"length":16,"data":"javascript_jobs"}],"date":"2020-06-16T19:28:07+00:00","link":"tg://resolve?domain=javascript_jobs_feed&post=0","tags":[{"name":"javascript"},{"name":"reactjs"},{"name":"redux"},{"name":"webpack"},{"name":"typescript"},{"name":"react-redux"}],"cities":[{"code":"moscow"}],"allowsRemote":false}},{"node":{"__typename":"Job","id":"1697644544-1001091028994","title":"Java разработчик","text":"#java #javascript #middle #senior\nКомпания: #kode \nЛокация: #калининград\nЗ/п: от 100К руб\nКонтакты: @Nadia_Rudometova\n \nKODE – компания мобильной разработки, которая закрепилась в ТОП-10 лучших студий и постоянно улучшает свои позиции. Мы выступаем технологическими партнёрами бизнеса, помогая заказчику развивать их digital-сервисы. \n\nЧто нужно делать?\n-Декомпозировать, планировать и оценивать задачи;\nУчаствовать в проектировании сложных систем с чистого листа;\n-Проектировать архитектуру веб-сервисов и REST API;\n-Реализовывать сложные интеграции с различными системами (GDS, банкинг, ритейл, биллинг и т.д.);\n-Покрывать свой код тестами;\n-Сопровождать и документировать архитектурные решения по своим проектам;\n-Взаимодействовать с участниками проектной команды для реализации лучших решений\n\nЧто нужно уметь?\n-Отличные знания Java;\n-Знания Spring и Spring Boot, Groovy;\n-Опыт работы c Kafka;\n-Умение использовать различные инструменты для тестирования кода и приложений различной сложности: JUnit, Spock, Testcontainers, Mockito, Hamcrest;\n-Опыт работы с SQL и NoSQL СУБД;\nЗнание принципов и шаблонов проектирования;\n-Уверенные знания о работе unix-систем. Любовь к ним и умение с ними работать;\n-Умение работать с Docker, docker-compose;\n\nЧто предлагаем?\n-Официальное оформление по ТК;\n-Работа в продуктовой команде, используя современный стек разработки;\n-Возможность влиять на развитие проекта и компании;\n-Корпоративы в Европе","markup":[{"type":"hashtag","offset":0,"length":5,"data":"java"},{"type":"hashtag","offset":6,"length":11,"data":"javascript"},{"type":"hashtag","offset":18,"length":7,"data":"middle"},{"type":"hashtag","offset":26,"length":7,"data":"senior"},{"type":"hashtag","offset":44,"length":5,"data":"kode"},{"type":"hashtag","offset":60,"length":12,"data":"калининград"},{"type":"handle","offset":100,"length":17,"data":"Nadia_Rudometova"}],"date":"2020-06-16T14:47:56+00:00","link":"tg://resolve?domain=jvmjobs&post=1619","tags":[{"name":"java"},{"name":"jvm"},{"name":"javascript"},{"name":"rest"},{"name":"spring"},{"name":"groovy"},{"name":"kafka"},{"name":"junit"},{"name":"sql"},{"name":"nosql"},{"name":"unix"},{"name":"docker"},{"name":"spring-boot"},{"name":"docker-compose"}],"cities":[{"code":"kaliningrad"}],"allowsRemote":false}},{"node":{"__typename":"Job","id":"26328694784-1001075660570","title":"Php разработчик","text":"#вакансия  #fulltime #backend  #москва  #php\nВакансия: разработчик PHP (CRM)\nКомпания: BostonGene\nГород: Москва\nФормат работы: #офис\nЗанятость: #полная\n\nМы создаем инновационный продукт – SAAS платформу поддержки принятия решений в области онкологии для врачей и ищем в команду PHP- разработчика, вместе с которым будем строить внутреннюю CRM-систему.\n\nМы ожидаем от кандидата:\n•  Опыт работы PHP программирования от 2 лет;\n•  Postgresql;\n•  Suite или Sugar;\n•  Самостоятельность, желание развиваться и находить решения сложных задач.\nБудет плюсом:\n•  Опыт использования Python;\n•  Понимание принципов RESTful-архитектуры;\n•  Опыт разработки на JavaScript/React.\nУсловия работы:\n•  Временно удаленная работа, потом возвращение в офис;\n•  Вознаграждение определяется по результатам собеседования (в зависимости от вашего опыта);\n•  Оформление по ТК РФ, ДМС;\n•  Офис в пешей доступности от станции метро Павелецкая;\n•  Перспективы карьерного роста и профессионального развития.\n\nПо всем вопросам писать @caterinatitova","markup":[{"type":"hashtag","offset":0,"length":9,"data":"вакансия"},{"type":"hashtag","offset":11,"length":9,"data":"fulltime"},{"type":"hashtag","offset":21,"length":8,"data":"backend"},{"type":"hashtag","offset":31,"length":7,"data":"москва"},{"type":"hashtag","offset":40,"length":4,"data":"php"},{"type":"hashtag","offset":127,"length":5,"data":"офис"},{"type":"hashtag","offset":144,"length":7,"data":"полная"},{"type":"handle","offset":1001,"length":15,"data":"caterinatitova"}],"date":"2020-06-16T14:34:18+00:00","link":"tg://resolve?domain=php_jobs&post=25109","tags":[{"name":"php"},{"name":"postgresql"},{"name":"python"},{"name":"javascript"},{"name":"reactjs"}],"cities":[{"code":"moscow"}],"allowsRemote":true}},{"node":{"__typename":"Job","id":"16984834048-1001110946746","title":"Js разработчик","text":"#вакансия #офис #краснодар #krasnodar #fulltime #react #native\n\n✅Вакансия: React developer \n✅Город: Краснодар\n✅Занятость: полная, офис\n✅ЗП вилка: 40 000 - 100 000р. на руки\n✅Компания: WILIX\n\nПривет!\nМы создаём веб и мобильные приложения, помогаем большим и маленьким компаниям, разбросанным по всему Миру, создать надежные и быстрые программные решения.\nИщем React разработчика в свою команду!\n🙌Наши ожидания:\nJS, TypeScript,\nReact\nRedux (Redux-toolkit), \nReact Router (React Navigation), \nRedux Thunk, \nWebpack,\nHTML+CSS,\nBootstrap/material\n\nБудет плюсом:\nReact Native\nreselect, normalizr\nstyle-components, css-modules, css-in-js\n\n👍Что мы готовы предложить:\n- Работу в офисе (40 часов в неделю), возможна частичная удаленка \n- Комфортное рабочее место \n- Дружный и отзывчивый коллектив, выезды на природу и разного рода мероприятия \n- Mac или PC \n- Классика: Чай/Кофе/Печеньки/Тенис/XBox\n\nКонтакты: @Aleen_ku\n\n—\n\n👉 Обсуждение вакансии в чате @javascript_jobs","markup":[{"type":"hashtag","offset":0,"length":9,"data":"вакансия"},{"type":"hashtag","offset":10,"length":5,"data":"офис"},{"type":"hashtag","offset":16,"length":10,"data":"краснодар"},{"type":"hashtag","offset":27,"length":10,"data":"krasnodar"},{"type":"hashtag","offset":38,"length":9,"data":"fulltime"},{"type":"hashtag","offset":48,"length":6,"data":"react"},{"type":"hashtag","offset":55,"length":7,"data":"native"},{"type":"handle","offset":902,"length":9,"data":"Aleen_ku"},{"type":"handle","offset":946,"length":16,"data":"javascript_jobs"}],"date":"2020-06-16T14:24:18+00:00","link":"tg://resolve?domain=javascript_jobs_feed&post=0","tags":[{"name":"javascript"},{"name":"reactjs"},{"name":"typescript"},{"name":"redux"},{"name":"webpack"},{"name":"html"},{"name":"css"},{"name":"bootstrap"},{"name":"react-native"},{"name":"react-redux"},{"name":"react-router"}],"cities":[{"code":"krasnodar"}],"allowsRemote":true}},{"node":{"__typename":"Job","id":"16983785472-1001110946746","title":"Javascript разработчик","text":"#вакансия #frontend #javascript #typescript #удаленка #fulltime \nВакансия: Frontend разработчик\nФормат работы: удаленная работа\nЗанятость: полная\nЗарплатная вилка: от 120000 до 200000 рублей на руки\nОписание вакансии: \nВ данный момент мы используем:\n• TypeScript\n• Vue + SFC + Vuex\n• Scoped SCSS, CSS variables, animations, flexbox, SVG\n• Различные “хаки” для улучшения производительности (rAF, gpu layers etc.)\nСобранное вебпаком приложение мы деплоим сразу на CDN.\nВам предстоит:\n• делать новые фичи, интеграции и развивать ядро продукта\n• реализовывать элегантные UX/UI-концепции (из Zeplin)\n• добиваться максимальной отзывчивости интерфейса при минимальной нагрузке на систему\nНазвание компании: SpatialChat - платформа для живого неформального онлайн-общения \nКонтакты: @ElizavetaKoHR\n\n—\n\n👉 Обсуждение вакансии в чате @javascript_jobs","markup":[{"type":"hashtag","offset":0,"length":9,"data":"вакансия"},{"type":"hashtag","offset":10,"length":9,"data":"frontend"},{"type":"hashtag","offset":20,"length":11,"data":"javascript"},{"type":"hashtag","offset":32,"length":11,"data":"typescript"},{"type":"hashtag","offset":44,"length":9,"data":"удаленка"},{"type":"hashtag","offset":54,"length":9,"data":"fulltime"},{"type":"handle","offset":775,"length":14,"data":"ElizavetaKoHR"},{"type":"handle","offset":824,"length":16,"data":"javascript_jobs"}],"date":"2020-06-16T13:00:03+00:00","link":"tg://resolve?domain=javascript_jobs_feed&post=0","tags":[{"name":"javascript"},{"name":"typescript"},{"name":"vuejs"},{"name":"css"},{"name":"svg"}],"cities":[],"allowsRemote":true}},{"node":{"__typename":"Job","id":"16982736896-1001110946746","title":"Js разработчик","text":"#вакансия #удаленно #fullstack #JavaScript #NodeJS #Vue\n\nГород: г. Москва, Сколково, б-р Большой\nФорма работы: удаленка\nЗанятость: полная\nЗарплатная вилка: от 120000 до 200000 рублей\nНазвание компании: ADMON\n\nВ связи с расширением штата, компания ADMON приглашает Senior Full-stack JavaScript-разработчиков, готовых стать полноценными членами нашей команды на удаленной основе или в Новосибирском офисе. ADMON – одна из ведущих российских компаний по предотвращению и расследованию мошенничества в сфере рекламы в Интернете и на мобильных устройствах с использованием высоких технологий. Основные направления деятельности компании: мониторинг и предотвращение мошенничества, аудит рекламных кампаний, разработка инновационных программных продуктов по мониторингу, обнаружению и предотвращению возникающих видов мошенничества.\n\nСтек технологий:\nNode.JS, Vue, GraphQl, Jest, Redis, Clickhouse, PostgreSQL, Docker.\n\nЧто используем в работе:\n    - Jira (Kanban), Confluence;\n   - Храним код в Gitlab, тут же CI/CD;\n    -Практикуем code review, политику частых релизов, гибкие методологии разработки;\n    -Мониторим состояние приложений с помощью: Zabbix, Grafana.\n\nВ задачи будет входить:\n    - Улучшать имеющийся функционал и разрабатывать новый (Система нотификаций, Обработка платежей, Алгоритмы атрибуции, Ads Crawler и т.д.);\n    - Писать тесты и рефакторить кодовую базу;\n    - Участвовать в принятии архитектурных решений;\n    - Работать как в составе команды, так и в одного над небольшими проектами;\n    - Участвовать в коммуникации с командой;\n    - Быть инициативным и предлагать свои идеи, в том числе, если это касается использования новых технологий — проводить code review.\n\nЧто мы предлагаем:\n    - Профессионализм, взаимопомощь и наставничество;\n    - Гибкий график;\n    - Удаленная работа;\n    - Возможность работать как в составе команды, так и возглавить со временем свое направление — мы готовы обсуждать любые ваши идеи. \n\n Контакты:@juliajudina2810\n\n—\n\n👉 Обсуждение вакансии в чате @javascript_jobs","markup":[{"type":"hashtag","offset":0,"length":9,"data":"вакансия"},{"type":"hashtag","offset":10,"length":9,"data":"удаленно"},{"type":"hashtag","offset":20,"length":10,"data":"fullstack"},{"type":"hashtag","offset":31,"length":11,"data":"JavaScript"},{"type":"hashtag","offset":43,"length":7,"data":"NodeJS"},{"type":"hashtag","offset":51,"length":4,"data":"Vue"},{"type":"handle","offset":1961,"length":16,"data":"juliajudina2810"},{"type":"handle","offset":2012,"length":16,"data":"javascript_jobs"}],"date":"2020-06-16T12:57:50+00:00","link":"tg://resolve?domain=javascript_jobs_feed&post=0","tags":[{"name":"javascript"},{"name":"nodejs"},{"name":"vuejs"},{"name":"graphql"},{"name":"redis"},{"name":"postgresql"},{"name":"docker"},{"name":"gitlab"}],"cities":[{"code":"moscow"}],"allowsRemote":true}}]}}},"context":{}}