{"hash":"f5f6bf98bd95e769321482904cbbd488f77922fd","data":{"records":{"id":"web","name":"web","belongsTo":{"totalCount":155,"pageInfo":{"totalPages":16,"currentPage":15},"edges":[{"node":{"__typename":"Job","id":"338690048-1001352129329","title":"Golang разработчик","text":"#вакансия #golang #go\n\nВакансия: Golang разработчик\nГород: Казань\nФормат работы: удаленная работа/офис\nКомпания: Спутник\nВилка заработной платы: 70 000 - 150 000\n\nКто мы?\nКомпания Спутник занимается обеспечением безопасности людей более чем в 100 городах России и 7 странах мира. Наши продукты позволяют сделать из обычного многоквартирного дома - умный дом. Мы являемся резидентами Сколково и Иннополиса, а также входим в тройку лидеров отрасли. \nВместо классической управленческой иерархии мы предпочитаем придерживаться принципов холакратии.\n\nКого мы ожидаем?\nТалантливых разработчиков, которые:\n• имеют коммерческий опыт работы с GoLang (от 1 года);\n• владеют знанием любого другого языка программирования;\n• имеют опыт работы с Linux, терминалом;\n• как примущество - имеют опыт серверного программирования (Web, облака)\n\nЧто мы предлагаем?\n• увлекательный опыт в режиме равенства и без бюрократии;\n• возможность гибкого графика работы/удаленной работы;\n• перспективу динамичного пересмотра заработной платы в зависимости от способностей и достижений\n\nКонтактное лицо\nЛиля Афанасьева\ne-mail: lily@sputnik.direct\ntelegram: lilia_afanaseva","markup":[{"type":"hashtag","offset":0,"length":9,"data":"вакансия"},{"type":"hashtag","offset":10,"length":7,"data":"golang"},{"type":"hashtag","offset":18,"length":3,"data":"go"},{"type":"link","offset":1096,"length":19,"data":"mailto:lily@sputnik.direct"}],"date":"2020-06-15T10:06:29+00:00","link":"tg://resolve?domain=gogetajobfeed&post=323","tags":[{"name":"go"},{"name":"linux"},{"name":"web"}],"cities":[{"code":"kazan"}],"allowsRemote":true}},{"node":{"__typename":"Job","id":"102838042624-1001089317451","title":"Qa engineer","text":"#вакансия #QA #manual #fulltime #remote #офис\n\nФормат работы: офис или удаленно\nРасположение: Санкт-Петербург \nЗанятость: полная, гибкое начало дня\nЗП: до 200k gross\n\n🔹 Компания OCS Labs более 25 лет на рынке IT и является ведущим дистрибьютером по всем продуктовым направлениям IT рынка. \nРегиональная сеть офисов OCS включает 27 городов в России, компания работает с более чем 8500 партнеров, среди которых 500 продуктовых линеек от ведущих мировых вендеров. \n\n🔸Сейчас команда находится в поиске Manual QA Engineer, который будет готов в дальнейшем вырасти в teamlead’a, и в перспективе возглавить направление тестирования в R&D отделе.\nНа текущий момент в команде уже есть 1 ручной тестировщик и 1 автотестировщик (python).\nПредстоит заниматься тестированием сервиса взаимодествия вендоров; \n\n🔹  Требования:\n— Опыт тестирования Web от 2 лет;\n— Умение оценивать и распределять задачи в команде;\n— Опыт менторства/руководства командой;\n— Опыт тестирования API;\n\nБольшим плюсом будет:\n— Понимание b2b сервисов;\n— Навыки автотестирования, будет возможность расти и развиваться в этом направлении; \n\n🔹  Условия:\n— Официальное трудоустройство, белая заработная плата;\n— Комфортный офис на Б.Сампсониевском (Петербург), также для московских специалистов есть возможность работать в московском офисе: Румянцево, офисный парк «Комсити»; \n— Техника предоставляется в соответствии с пожеланиями специалиста;\n— Внутреннее обучение;\n— Годовая дотация;\n— Дружественная рабочая среда с возможностью карьерного и профессионального роста;\n\n🔹 Контакты:\ne-mail: maria@luckyhunter.io\ntelegram: @Maria_Rey","markup":[{"type":"hashtag","offset":0,"length":9,"data":"вакансия"},{"type":"hashtag","offset":10,"length":3,"data":"QA"},{"type":"hashtag","offset":14,"length":7,"data":"manual"},{"type":"hashtag","offset":22,"length":9,"data":"fulltime"},{"type":"hashtag","offset":32,"length":7,"data":"remote"},{"type":"hashtag","offset":40,"length":5,"data":"офис"},{"type":"bold","offset":500,"length":18,"data":""},{"type":"bold","offset":563,"length":10,"data":""},{"type":"link","offset":1551,"length":20,"data":"mailto:maria@luckyhunter.io"},{"type":"handle","offset":1582,"length":10,"data":"Maria_Rey"}],"date":"2020-06-15T09:11:51+00:00","link":"tg://resolve?domain=qa_jobs&post=0","tags":[{"name":"qa"},{"name":"python"},{"name":"web"}],"cities":[],"allowsRemote":true}},{"node":{"__typename":"Job","id":"102835945472-1001089317451","title":"Qa engineer","text":"#вакансия #Москва #офис\nДолжность: QA automation engineer\nКомпания: Открытая мобильная платформа\nГород: Москва, м.Парк Победы\nЗП: до 160к\nСтек: Python, Pytest, requests + cattrs, selenium\n\nУсловия:\n•ЗП до 160 000 гросс (в зависимости от ваших тех скиллов)\n•Участие в конференциях\n•ДМС\n•Гибкое начало рабочего дня \n\nЗадачи:\n•Разработка автоматизированных тестов (web + api), стремимся к 100% покрытию автотестами  (не unit)\n•Участие в развитии тестового framework'а\n•Командная работа с разработчиками и аналитиками (Scrum Dev Team)\n\nРассмотрим кандидатов с опытом в QA automation (Python) от полугода\n\nРезюме можно направить сюда: @Rita_RS \nили на почту: m.sinelnikova@getit.agency","markup":[{"type":"hashtag","offset":0,"length":9,"data":"вакансия"},{"type":"hashtag","offset":10,"length":7,"data":"Москва"},{"type":"hashtag","offset":18,"length":5,"data":"офис"},{"type":"bold","offset":35,"length":23,"data":""},{"type":"bold","offset":133,"length":5,"data":""},{"type":"bold","offset":189,"length":9,"data":""},{"type":"bold","offset":315,"length":8,"data":""},{"type":"bold","offset":565,"length":13,"data":""},{"type":"bold","offset":601,"length":6,"data":""},{"type":"handle","offset":630,"length":8,"data":"Rita_RS"},{"type":"link","offset":654,"length":26,"data":"mailto:m.sinelnikova@getit.agency"}],"date":"2020-06-15T09:09:28+00:00","link":"tg://resolve?domain=qa_jobs&post=0","tags":[{"name":"qa"},{"name":"python"},{"name":"selenium"},{"name":"web"}],"cities":[{"code":"moscow"}],"allowsRemote":false}},{"node":{"__typename":"Job","id":"102831751168-1001089317451","title":"Qa инженер","text":"#вакансия #Москва #офис #fulltime #QA #релокация \n\nВсем привет! \nИщем Ведущего инженера по автоматизации\n\nКомпания: Промсвязьбанк\nМосква \n(есть релокационный пакет)\n💰 от 120 на руки.\n\nТребования:\n- опыт работы с БД ( MS SQL, PL SQL) знание языка запросов SQL \n-опыт тестирования web-сервисов ( Postman,SoapUI,ReadyApi)\n- опыт разработки автотестов на Java \n \nУсловия:\n-Гибкий график\n-Отсутсвие дресс-кода\n-Льготное кредитование \n-ДМС \n-Корпоративный спорт 🏀 \n-Участие в конференциях  и тд\n\nЕсть ещё несколько проектов \nПо всем вопросам ✍️ в личку","markup":[{"type":"hashtag","offset":0,"length":9,"data":"вакансия"},{"type":"hashtag","offset":10,"length":7,"data":"Москва"},{"type":"hashtag","offset":18,"length":5,"data":"офис"},{"type":"hashtag","offset":24,"length":9,"data":"fulltime"},{"type":"hashtag","offset":34,"length":3,"data":"QA"},{"type":"hashtag","offset":38,"length":10,"data":"релокация"}],"date":"2020-06-15T09:00:27+00:00","link":"tg://resolve?domain=qa_jobs&post=0","tags":[{"name":"qa"},{"name":"sql"},{"name":"web"},{"name":"java"}],"cities":[{"code":"moscow"}],"allowsRemote":false}},{"node":{"__typename":"Job","id":"2203058176-1001134745498","title":"Devops инженер","text":"#вакансия #Москва #удаленка #remote\n#kubernetes\nКомпания, стартап в области информационной безопасности, ищет DevOps инженера\n🎱 Город и адрес офиса: Москва\n🎱 Формат работы: удаленка или офис \n🎱 Занятость: полная \n🎱 Условия: зп от 130 до 180К (в зависимости от опыта и формата работы)\n\n🎱 Задачи:\nОбеспечение отказоустойчивости и развитие инфраструктуры в Европе и РФ.\nРабота с командой разработки по совершенствованию микросервисов.\nМониторинг работы инфраструктуры и приложений, реакция на инциденты.\nОбщение с заказчиками на этапе интеграции и при возникновении проблем.\n\n🎱 Ожидания:\nОпыт администрирования Linux\nопыт работы с Amazon Web Services, Terraform, Ansible.\nхорошие знания Kubernetes и Docker.\nопыт работы с nginx, ELK, GitLab CI/CD.\n\n\n🎱 Будет преимуществом:\nЗнание Python и/или Golang\nопыт прохождения PCI DSS\nзнание MongoDB, Redis, Kafka, Clickhouse,\nопыт эксплуатации JVM,\nопыт эксплуатации Dask, AirFlow.\n\n🎱 Контакты: @kornet_croft\n\n—\n\n👉 Обсуждение вакансии в чате @devops_jobs","markup":[{"type":"hashtag","offset":0,"length":9,"data":"вакансия"},{"type":"hashtag","offset":10,"length":7,"data":"Москва"},{"type":"hashtag","offset":18,"length":9,"data":"удаленка"},{"type":"hashtag","offset":28,"length":7,"data":"remote"},{"type":"hashtag","offset":36,"length":11,"data":"kubernetes"},{"type":"handle","offset":941,"length":13,"data":"kornet_croft"},{"type":"handle","offset":989,"length":12,"data":"devops_jobs"}],"date":"2020-06-15T08:42:51+00:00","link":"tg://resolve?domain=devops_jobs_feed&post=2101","tags":[{"name":"kubernetes"},{"name":"linux"},{"name":"web"},{"name":"ansible"},{"name":"docker"},{"name":"nginx"},{"name":"gitlab"},{"name":"python"},{"name":"go"},{"name":"mongodb"},{"name":"redis"},{"name":"kafka"},{"name":"jvm"},{"name":"amazon-web-services"}],"cities":[{"code":"moscow"}],"allowsRemote":true}},{"node":{"__typename":"Job","id":"102808682496-1001089317451","title":"Qa инженер","text":"🐞🐞🐞#вакансия #QA #Ульяновск #Саранск #Казань #Самара #Уфа #Краснодар #офис #удаленная_работа\n\n🔍Middle QA-специалист🔎\n\n⚡️Компания: Simbirsoft (более 19 лет на рынке, более 700 сотрудников в штате)\n\nОчень ждем тебя, наш будущий коллега и борец за качественное ПО! :)\n\n📌Твои будущие задачи:\n• тестирование ПО (frontend, backend, API);\n• локализация и документирование найденных дефектов;\n• ведение и оптимизация тестовой документации;\n• контроль качества на всех этапах разработки ПО;\n• выстраивание и оптимизация процессов тестирования ПО.\n\n📌Что мы ждем от тебя:\n• наличие опыта от 2 лет в направлениях QA или тестирования ПО;\n• понимание разницы между QA и тестированием ПО;\n• понимание особенностей гибких методологий;\n• уверенное владение техниками тест-дизайна;\n• знание клиент-серверной архитектуры;\n• понимание особенностей тестирования web, mobile и desktop приложений;\n• навык тестирования API;\n• написание запросов SQL;\n• опыт работы с системами контроля версий (git);\n• знание основных команд работы с консолью (Windows/Linux).\n\n📌Что мы предлагаем:\n• Полностью белая ЗП два раза в месяц;\n• Оформление по ТК РФ;\n• Высокий уровень экспертности внутри компании, которым мы делимся друг с другом;\n• Перспективы вертикального и горизонтального роста;\n• Работа на российских и международных проектах;\n• Оборудованное рабочее место и парк тестовых устройств;\n• Подготовка и прохождение сертификации ISTQB бесплатно;\n• Внутренние и внешние курсы, доклады, конференции;\n• Бесплатные чай, кофе, печеньки в офисе;\n• Корпоративная спортивная программа (оплата тематических секций, частичная компенсация абонемента);\n• Проведение летних и зимних корпоративов, дня именинника, совместные походы и т.д.\n\n📌Зарплата:\n• от 50 000 (Договорная, по итогу собеседования)\n\n☎️Контакты:\nKaterina","markup":[{"type":"hashtag","offset":6,"length":9,"data":"вакансия"},{"type":"hashtag","offset":16,"length":3,"data":"QA"},{"type":"hashtag","offset":20,"length":10,"data":"Ульяновск"},{"type":"hashtag","offset":31,"length":8,"data":"Саранск"},{"type":"hashtag","offset":40,"length":7,"data":"Казань"},{"type":"hashtag","offset":48,"length":7,"data":"Самара"},{"type":"hashtag","offset":56,"length":4,"data":"Уфа"},{"type":"hashtag","offset":61,"length":10,"data":"Краснодар"},{"type":"hashtag","offset":72,"length":5,"data":"офис"},{"type":"hashtag","offset":78,"length":17,"data":"удаленная_работа"}],"date":"2020-06-15T05:55:18+00:00","link":"tg://resolve?domain=qa_jobs&post=0","tags":[{"name":"qa"},{"name":"web"},{"name":"mobile"},{"name":"sql"},{"name":"git"},{"name":"windows"},{"name":"linux"}],"cities":[{"code":"ulyanovsk"},{"code":"saransk"},{"code":"kazan"},{"code":"samara"},{"code":"ufa"},{"code":"krasnodar"}],"allowsRemote":true}},{"node":{"__typename":"Job","id":"16908288000-1001110946746","title":"Javascript developer","text":"#вакансия #angular #javascript #html #css #frontend #офис\n\n🍴Вакансия: Middle Frontend Developer в web-компанию под задачи разработки для социальных сетей, авиакомпаний, ERP-систем, а также ресторанной сети Нью-Йорка.\nГород: Ростов-на-Дону, Газетный переулок, 47Б\nФормат работы: Офис\nЗанятость: полная\nГражданство: Не имеет значение\nЗарплата: 60.000-100.000 рублей по результатам собеседования\n\n🏹Fronted Developer (Angular)\nТочное попадание, если:\n• Адаптивно верстаешь в angular (7 или 8 версия)\n• Имеешь в стеке ещё JavaScript, TypeScript, HTML, CSS\n• Полный фарш, если ты в курсе про автоматическую генерация клиентского кода по документации Swagger\n\nКомпания: GrowApp Solutions\n\n☎️Контакты:\ntelegram: @np_shirinkin\nEmail: npshirinkin@gmail.com\nБуду рад ответить на уточняющие вопросы.","markup":[{"type":"hashtag","offset":0,"length":9,"data":"вакансия"},{"type":"hashtag","offset":10,"length":8,"data":"angular"},{"type":"hashtag","offset":19,"length":11,"data":"javascript"},{"type":"hashtag","offset":31,"length":5,"data":"html"},{"type":"hashtag","offset":37,"length":4,"data":"css"},{"type":"hashtag","offset":42,"length":9,"data":"frontend"},{"type":"hashtag","offset":52,"length":5,"data":"офис"},{"type":"handle","offset":706,"length":13,"data":"np_shirinkin"},{"type":"link","offset":727,"length":21,"data":"mailto:npshirinkin@gmail.com"}],"date":"2020-06-14T20:27:27+00:00","link":"tg://resolve?domain=javascript_jobs_feed&post=16125","tags":[{"name":"javascript"},{"name":"angularjs"},{"name":"html"},{"name":"css"},{"name":"web"},{"name":"typescript"},{"name":"swagger"}],"cities":[{"code":"rostov"}],"allowsRemote":false}},{"node":{"__typename":"Job","id":"26294091776-1001075660570","title":"Php разработчик","text":"#вакансия #удалённо #фронтенд #javascript #AngularJs #Symfony\n\nКомпания: Промрукав\nО компании: Компания «Промрукав» — это торгово-производственная организация, с 1999 года динамично развивающаяся на рынке кабеленесущих систем. \nФормат работы: удалённая работа, график работы 5/2, частичная занятость (<5 ч/день), по желанию возможна работа в офисе\nПроект: B2B Ecommerce\nЗаработная плата: от 50 000 и выше (на руки)\nЗадачи/Обязанности: \nПоддержка и развитие e-commerce проектов компании: b2b-платформа, сайт: \n- разработка новых сервисов компании\n- оптимизация и поддержка текущих продуктов\n- улучшать имеющийся функционал и разрабатывать новый \n- участвовать в принятии архитектурных решений\n- способного к эффективному взаимодействию удалённо или в офисе\n- чёткое следование установленным Вами же срокам \n- оперативное решение проблем   \nСтек: \n  LAMP/LEMP для оптовой онлайн торговли.\n  PHP 7, MySQL, Nginx, Nodejs\n  Фреймворки: Symfony (Symfony console component, Symfony process component, Swift Mailer)\n  Модульная сетка и внешний вид: gentelella\n  Фреймворки: bootstrap, AngularJs\n\nТребования:\n•  Опыт работы от 3х лет\n•  Уверенное знание , MySQL, OOP, Composer, Design patterns в целом, Git.  PHP 7 \n•  Навыки работы в Linux, Apache/nginx, Bootstrap (Gentelella), AngularJs, Nodejs (сборщик js -> gulp на nodejs работает + различные js компоненты). \n•  Приветствуются знания в области интеграции сайта с 1С (использование Web- и HTTP-сервисов) \n\nЧто предлагаем: \nМы не web-студия и не зарабатываем, продавая Ваши способности третьим лицам, поэтому для разработчика наши проекты — это возможность заниматься одним интересным делом без необходимости каждый раз вникать в новый проект и тонкости его работы. Преимущества работы у нас это:\n • стабильный ежемесячный заработок в формате удалённой работы с оформление по ТК; \n • небольшой, но очень дружный коллектив (ИТ-отдел);\n • один руководитель;  \n • возможность посещения всероссийских и международных IT-конференций;\n • возможность принимать участие в корпоративных мероприятиях (проезд оплачивается)\n\nКонтакт для связи: \nTelegram: @dnmit","markup":[{"type":"hashtag","offset":0,"length":9,"data":"вакансия"},{"type":"hashtag","offset":10,"length":9,"data":"удалённо"},{"type":"hashtag","offset":20,"length":9,"data":"фронтенд"},{"type":"hashtag","offset":30,"length":11,"data":"javascript"},{"type":"hashtag","offset":42,"length":10,"data":"AngularJs"},{"type":"hashtag","offset":53,"length":8,"data":"Symfony"},{"type":"handle","offset":2095,"length":6,"data":"dnmit"}],"date":"2020-06-14T14:06:14+00:00","link":"tg://resolve?domain=php_jobs&post=25076","tags":[{"name":"php"},{"name":"javascript"},{"name":"angularjs"},{"name":"symfony"},{"name":"mysql"},{"name":"nginx"},{"name":"nodejs"},{"name":"swift"},{"name":"bootstrap"},{"name":"git"},{"name":"linux"},{"name":"apache"},{"name":"gulp"},{"name":"web"}],"cities":[],"allowsRemote":true}},{"node":{"__typename":"Job","id":"102775128064-1001089317451","title":"Qa инженер","text":"#вакансия #qa #c# #Москва #офис \n‼️Очень ищем Senior QA automation (C#)\n❗️Оформление белое, вознаграждение достойное (до 250т.р.net), компания стабильная, с 2002 года: www.onelya.ru (E-travel)\n❗️От вас - опыт в автоматизации тестирования (на C#) web-приложений не менее 3-х лет и желание развиваться и дальше в этом направлении \n\n❗️Резюме ждём на a.vinogradova@gateline.ru\n‼️Ссылка на вакансию на hh: https://hh.ru/vacancy/37462221","markup":[{"type":"hashtag","offset":0,"length":9,"data":"вакансия"},{"type":"hashtag","offset":10,"length":3,"data":"qa"},{"type":"hashtag","offset":18,"length":7,"data":"Москва"},{"type":"hashtag","offset":26,"length":5,"data":"офис"},{"type":"link","offset":121,"length":10,"data":"http://250т.р.net"},{"type":"link","offset":168,"length":13,"data":"http://www.onelya.ru"},{"type":"link","offset":347,"length":25,"data":"mailto:a.vinogradova@gateline.ru"},{"type":"link","offset":401,"length":30,"data":"https://hh.ru/vacancy/37462221"}],"date":"2020-06-14T13:19:44+00:00","link":"tg://resolve?domain=qa_jobs&post=0","tags":[{"name":"qa"},{"name":"dotnet"},{"name":"web"}],"cities":[{"code":"moscow"}],"allowsRemote":false}},{"node":{"__typename":"Job","id":"90895810560-1001067529236","title":"Python разработчик","text":"#вакансия #vacancy #fulltime #remote #fullstack #senior\n\nПозиция: Senior Python Developer\nКомпания: SO Services Ltd\nФормат работы: удаленная работа\nЗанятость: полная\nОплата: от 3000 до 4000 USD в месяц\nКонтакт: Марк, @mark_soservices\n\nДобрый день! Мы ищем Python разработчика для нашего клиента из США. Требуется разговорный английский. Оформление контракта через ИП - с этим проконсультируем.\n\nResponsibilities\n- Plan and architect development work with rest of Dev team to ensure successful execution and delivery\n- Participate in improving and refining development processes and workflows\n- Help your peers with code review with focus on performance and reliability\n- Develop automation culture\n- Collaborate with Product Management to plan sprints\n- Collaborate with IT Operations to ensure services stability and high uptime\n- Help with investigation of software issues causing downtime and/or malfunction\n- Adapt legacy code to AWS\n\nRequirements\n- 4+ years professional experience building front and back-end web applications\n- Experience with most or all technologies: Python & Django, RDBMS, JS and jQuery, HTML/CSS/LESS, Git\n- Experience with following technologies will be a bonus: MongoDB, PostgreSQL, Elastic Search, WordPress, Redis, Celery, Jenkins, Sentry, New Relic, Nginx, RabbitMQ, NodeJS\n- Focus on task accomplishment and pursuing deadlines\n- Ability to prioritise and manage work across multiple related projects\n- Experienced in working following Agile development methodologies\n- Strong written and communications skills\n\n\nTechnology Stack\n- Python, Django\n- MySQL, Redis\n- AWS (storage, container services, serverless)\n- Github for code management\n- Jenkins as CI","markup":[{"type":"hashtag","offset":0,"length":9,"data":"вакансия"},{"type":"hashtag","offset":10,"length":8,"data":"vacancy"},{"type":"hashtag","offset":19,"length":9,"data":"fulltime"},{"type":"hashtag","offset":29,"length":7,"data":"remote"},{"type":"hashtag","offset":37,"length":10,"data":"fullstack"},{"type":"hashtag","offset":48,"length":7,"data":"senior"},{"type":"handle","offset":217,"length":16,"data":"mark_soservices"},{"type":"bold","offset":395,"length":16,"data":""},{"type":"bold","offset":939,"length":12,"data":""},{"type":"bold","offset":1546,"length":16,"data":""}],"date":"2020-06-13T14:26:03+00:00","link":"tg://resolve?domain=python_jobs&post=0","tags":[{"name":"python"},{"name":"rest"},{"name":"amazon-web-services"},{"name":"web"},{"name":"django"},{"name":"jquery"},{"name":"html"},{"name":"css"},{"name":"git"},{"name":"mongodb"},{"name":"postgresql"},{"name":"elasticsearch"},{"name":"wordpress"},{"name":"redis"},{"name":"jenkins"},{"name":"nginx"},{"name":"rabbitmq"},{"name":"nodejs"},{"name":"mysql"},{"name":"github"}],"cities":[],"allowsRemote":true}}]}}},"context":{}}