{"hash":"f5f6bf98bd95e769321482904cbbd488f77922fd","data":{"records":{"id":"javascript","name":"javascript","belongsTo":{"totalCount":272,"pageInfo":{"totalPages":28,"currentPage":11},"edges":[{"node":{"__typename":"Job","id":"17184063488-1001110946746","title":"Javascript разработчик","text":"#вакансия #front #react #typescript #москва #генетика #javascript #геномэксперт #барсгруп\n\nГород и адрес офиса: Москва, ст.м.Павелецкая\nФормат работы: Офис\nЗанятость: полная.\nЗарплатная вилка: от 200.000 до 300.000 рублей на руки. \nНазвание компании: Барс Груп\nhttps://bars.group/\nПроект Геном.Эксперт  - https://genome.expert/ \n\nТребуется senior/middle front-end разработчик в крупный медицинский проект.\n\nПредметная область: Генетика. \nТекущее состояние проекта: \nПроект запущен с прошлого года, сейчас добираем команду по потребностям проекта и новым направлениям, есть уникальная возможность принять участие в создании единого пространства для врачей-генетиков, лабораторных генетиков и биоинформатиков.\n\n✅Чем придется заниматься:\n\n- Писать микроприложения и компоненты на React (В данный момент есть большое приложение, его разбиваем на небольшие)\n- Пилить компоненты для ui-kit\n- Менять legacy components(polymer) на react components\n\n\n✔️Требования:\n\n-Front-end: React(Vue), typescript, Redux/Mobx/Vuex;\n-Межсервисное взаимодействие и API: REST/GraphQL/gRPC. \n\n✔️Инструменты для работы: \n\nGit, bitbucket, JIRA, docker, docker-compose. \n\n✔️Условия:\n\n-Оформление по ТК РФ;\n-Работа в офисе в пешей доступности от ст.м.Павелецкая (на данный момент удаленка);\n-График 5/2, гибкое начало рабочего дня ;\n-Белая зарплата, повышающаяся по системе аттестаций несколько раз в год;\n-ДМС;\n-Перспективы карьерного роста;\n-Корпоративное обучение (тренинги, мастер-классы);\n-Корпоративная библиотека;\n-Мы рассматриваем кандидатов с возможностью переезда в Москву;\n-Возможность предоставления бесплатного жилья на первый месяц. \n\nКонтакты для связи: \n\nemail: a.starchenko@bars.group \nTelegram: @alinavelcheva \n\nbars.group\nАО «БАРС Груп» - официальный сайт компании\nАО «БАРС Груп» - российский производитель ИТ-решений и экспертный центр в сфере государственной и корпоративной информатизации.\n\n—\n\n👉 Обсуждение вакансии в чате @javascript_jobs","markup":[{"type":"hashtag","offset":0,"length":9,"data":"вакансия"},{"type":"hashtag","offset":10,"length":6,"data":"front"},{"type":"hashtag","offset":17,"length":6,"data":"react"},{"type":"hashtag","offset":24,"length":11,"data":"typescript"},{"type":"hashtag","offset":36,"length":7,"data":"москва"},{"type":"hashtag","offset":44,"length":9,"data":"генетика"},{"type":"hashtag","offset":54,"length":11,"data":"javascript"},{"type":"hashtag","offset":66,"length":13,"data":"геномэксперт"},{"type":"hashtag","offset":80,"length":9,"data":"барсгруп"},{"type":"link","offset":261,"length":19,"data":"https://bars.group/"},{"type":"link","offset":305,"length":22,"data":"https://genome.expert/"},{"type":"link","offset":1648,"length":23,"data":"mailto:a.starchenko@bars.group"},{"type":"handle","offset":1683,"length":14,"data":"alinavelcheva"},{"type":"link","offset":1700,"length":10,"data":"http://bars.group"},{"type":"handle","offset":1916,"length":16,"data":"javascript_jobs"}],"date":"2020-06-27T21:03:00+00:00","link":"tg://resolve?domain=javascript_jobs_feed&post=16388","tags":[{"name":"javascript"},{"name":"reactjs"},{"name":"typescript"},{"name":"polymerjs"},{"name":"vuejs"},{"name":"redux"},{"name":"rest"},{"name":"graphql"},{"name":"git"},{"name":"docker"},{"name":"docker-compose"}],"cities":[{"code":"moscow"}],"allowsRemote":true}},{"node":{"__typename":"Job","id":"17179869184-1001110946746","title":"Js разработчик","text":"#вакансия #JavaScript #Node.js #Екатеринбург\n\nГород: Екатеринбург\nФормат: Обсуждаемый (офис/удаленка)\nзанятость: Полная\nУровень: Junior/Middle\nзп: 30 000 - 80 000 ₽ net\n\nО компании: YetiCrab (https://yeticrab.org/) - команда специалистов по разработке различных приложений (web, desktop, mobile) и сервисов на основе web-технологий. У нас много интересных проектов с заказчиками по всему миру. Мы ищем к себе в команду ответственного человека, который хочет и готов активно расти как разработчик и специалист.\n\nОбязанности:\n- Разработка Web и мобильных приложений на JavaScript с применением современных framework-ов\n- Исследование и внедрение новых тенденций и технологий\n\nТребования:\n- Хорошее знание JavaScript (ES5, ES6), HTML, CSS\n- Опыт работы с современными фреймворками (Angular/React/Vue)\n- Понимание REST\n- Умение пользоваться Git\n- Навыки работы в команде\n\nБудет плюсом:\n- Опыт работы с WebSockets и GraphQL\n- Разговорный английский язык\n- Знание Node.js и опыт работы с Express.js/KOA/Nest.js/Next.js\n- Приветствуется знание React Native или Ionic\n- Понимание работы с CI/CD\n- Опыт работы с Electron.js, PWA\n- Знание Python\n\nМы предлагаем:\n- Гибкий график работы\n- Просторный офис\n- Возможность удаленной работы\n- Рабочий ноутбук MacBook Apple\n- Чай, кофе, печеньки и другие плюшки в офисе\n- Постоянное обучение, развитие скиллов\n- Поддержку от команды единомышленников\n- Возможность получить опыт в разных проектах и изучить новые технологии\n- Поездки на IT-конференции\n\nКонтакты: @artemkuzvesov\n\n—\n\n👉 Обсуждение вакансии в чате @javascript_jobs","markup":[{"type":"hashtag","offset":0,"length":9,"data":"вакансия"},{"type":"hashtag","offset":10,"length":11,"data":"JavaScript"},{"type":"hashtag","offset":22,"length":5,"data":"Node"},{"type":"hashtag","offset":31,"length":13,"data":"Екатеринбург"},{"type":"link","offset":147,"length":15,"data":"tel:30 000 - 80 000"},{"type":"link","offset":192,"length":21,"data":"https://yeticrab.org/"},{"type":"handle","offset":1494,"length":14,"data":"artemkuzvesov"},{"type":"handle","offset":1543,"length":16,"data":"javascript_jobs"}],"date":"2020-06-27T12:12:37+00:00","link":"tg://resolve?domain=javascript_jobs_feed&post=16384","tags":[{"name":"javascript"},{"name":"nodejs"},{"name":"dotnet"},{"name":"web"},{"name":"mobile"},{"name":"html"},{"name":"css"},{"name":"angularjs"},{"name":"reactjs"},{"name":"vuejs"},{"name":"rest"},{"name":"git"},{"name":"graphql"},{"name":"express"},{"name":"electron"},{"name":"python"},{"name":"react-native"}],"cities":[],"allowsRemote":true}},{"node":{"__typename":"Job","id":"17178820608-1001110946746","title":"Js developer","text":"#Вакансия #разыскивается #JS #Vue.js #Vue #developer #Сочи #fulltime #работа #офис \n\nГород: Сочи\n\nФормат работы: офис\n\nЗанятость: fulltimе\n\nЗарплатная вилка: от 130 000 до 150 000 рублей\n\nОписание вакансии: \nСоздание системы по управлению метаданными компании. Работа в кроссфункциональной команде в составе до 10 человек\n\nНазвание компании: ОЦРВ\n\nПримерный пул задач:\n•  Разработка системы по управлению метаданными\n•  Участие в построение архитектуры решения\n•  Разработка интеграционных сценариев с другими системами\n•  Подготовка инструкций и документации\n\n\nНаши требования к кандидату: \n•  Аналитическое мышление, понимание работы алгоритмов, структур данных и оптимизации работы приложений\n•  Опыт разработки на Vue.js, React (Redux или MobX, Webpack, SCSS)\n•  Отличные знания чистого Javascript\n•  Умение адаптивно и кроссбраузерно верстать\n•  Опыт работы с веб-сервисами (SOAP, REST)\n•  Опыт работы с микросервисной архитектурой\n•  Опыт работы с GIT\n\nБудет плюсом\n•  Опыт работы с популярными css-фреймворками (bootstrap, semantic, material-ui и т.д.)\n•  Опыт работы с Webpack, NPM\n•  Опыт работы с Docker\n•  Опыт работы с Selenium и/или другими средствами UI тестирования\n•  Использование Figma для работы с дизайнером\n\n\n\nНаш стек:\nJava 8-11, Spring, Vue.js, PostgreSQL/HBase/MongoDB/JanusGraph, GIT, Docker, Kubernetes, Kafka\n\nУсловия: \n•  Офис в Адлере в 10 минутах до моря\n•  Оклад: 130 000 - 150 000 руб. gross\n•  Компенсация проживания 20 000 руб. gross в месяц (для кандидатов из других регионов)\n•  Релокационный бонус в размере оклада (для кандидатов из других регионов)\n•  Премия до 30% годового оклада\n•  Работа в динамичной команде единомышленников\n•  Компенсация ДМС после прохождения испытательного срока\n•  Скидки на ДМС для родственников\n•  Компенсация мобильной связи\n•  Новейшее оборудование и просторный офис\n•  Лучшая экология и климат в России\n•  Море и горнолыжный курорт рядом\n\n\nКомпания: ОЦРВ\nСайт: http://www.ocrv.ru/\nКонтакты: @Mirovan","markup":[{"type":"hashtag","offset":0,"length":9,"data":"Вакансия"},{"type":"hashtag","offset":10,"length":14,"data":"разыскивается"},{"type":"hashtag","offset":25,"length":3,"data":"JS"},{"type":"hashtag","offset":29,"length":4,"data":"Vue"},{"type":"hashtag","offset":37,"length":4,"data":"Vue"},{"type":"hashtag","offset":42,"length":10,"data":"developer"},{"type":"hashtag","offset":53,"length":5,"data":"Сочи"},{"type":"hashtag","offset":59,"length":9,"data":"fulltime"},{"type":"hashtag","offset":69,"length":7,"data":"работа"},{"type":"hashtag","offset":77,"length":5,"data":"офис"},{"type":"link","offset":1931,"length":19,"data":"http://www.ocrv.ru/"},{"type":"handle","offset":1961,"length":8,"data":"Mirovan"}],"date":"2020-06-27T09:58:34+00:00","link":"tg://resolve?domain=javascript_jobs_feed&post=16383","tags":[{"name":"javascript"},{"name":"vuejs"},{"name":"reactjs"},{"name":"redux"},{"name":"webpack"},{"name":"soap"},{"name":"rest"},{"name":"git"},{"name":"css"},{"name":"bootstrap"},{"name":"npm"},{"name":"docker"},{"name":"selenium"},{"name":"java"},{"name":"spring"},{"name":"postgresql"},{"name":"hbase"},{"name":"mongodb"},{"name":"kubernetes"},{"name":"kafka"},{"name":"react-redux"}],"cities":[{"code":"sochi"}],"allowsRemote":false}},{"node":{"__typename":"Job","id":"17169383424-1001110946746","title":"Js разработчик","text":"#вакансия #javascript #typescript #react #удаленка\n\nГород и адрес офиса: любой\nФормат работы: удаленка\nЗанятость: полная\nЗарплатная вилка: от 105 000 до 130 000 рублей (на руки)\n\nОписание вакансии: Мы отказались от идеи клонировать сотрудников, поэтому продолжаем искать увлеченных High Middle frontend-разработчиков. Разработка веб-приложений на JS для банковской сферы.\n\nСтек технологий:\n– JavaScript, TypeScript;\n– React, Redux, Redux-saga;\n– Babel (ES 2016+), Webpack или Gulp, Git, БЭМ.\n\nНазвание компании: CSSSR\nКонтакты: telegram - @lena_bezbatchenko                                e-mail - elena.bezbatchenko@csssr.io","markup":[{"type":"hashtag","offset":0,"length":9,"data":"вакансия"},{"type":"hashtag","offset":10,"length":11,"data":"javascript"},{"type":"hashtag","offset":22,"length":11,"data":"typescript"},{"type":"hashtag","offset":34,"length":6,"data":"react"},{"type":"hashtag","offset":41,"length":9,"data":"удаленка"},{"type":"handle","offset":539,"length":18,"data":"lena_bezbatchenko"},{"type":"link","offset":598,"length":27,"data":"mailto:elena.bezbatchenko@csssr.io"}],"date":"2020-06-26T12:59:43+00:00","link":"tg://resolve?domain=javascript_jobs_feed&post=16374","tags":[{"name":"javascript"},{"name":"typescript"},{"name":"reactjs"},{"name":"redux"},{"name":"webpack"},{"name":"gulp"},{"name":"git"},{"name":"react-redux"}],"cities":[],"allowsRemote":true}},{"node":{"__typename":"Job","id":"1744830464-1001091028994","title":"Java разработчик","text":"#москва #вакансия #java #javateamlead \nВакансия: Lead/Senior java разработчик \nВилка заработной платы: 180 000 – 250 000 net\nФормат: офис\n\nПроекты по созданию/развитию информационных систем в части цифровизации городских сервисов ЖКХ.\nРабота с IoT-системами, проекты по Bigdata, сбору и анализу данных с множества источников.\n\n🔸Мы предлагаем:\n-Высокая заработная плата от 180 000 до 250 000 на руки;\n-Повышение ставки после испытательного срока;\n-13-я зарплата+премии по итогу выполнения проектов;\n-Полностью официальное оформление по ТК РФ;\n\n🔸Требования:\n-Опыт управления командой 6+ человек от 1-го года;\n-Базовые знания Computer Science (алгоритмы, структуры данных);\n-Опыт разработки серверной части приложений на Java;\n-Знание практик и инструментария DevOps;\n-Отличное знание Java 8+ и популярных библиотек (Log4J, Apache Commons, Google Guava);\n-Знание Linux, основы Shell scripts, понимание архитектуры ОС.\n\n🔸Стек технологий:\n-На проектах используются языки: Java, JavaScript(React + Redux);\n-Java-стэк: Java8, Spring, Spring Cloud, Apache Kafka, Apache Spark, Tomcat;\n-Docker, Postgres, HDFS, Apache Hive;\n-Gitlab, Telegram.\n\nКонтакт: @Zarnica_hr","markup":[{"type":"hashtag","offset":0,"length":7,"data":"москва"},{"type":"hashtag","offset":8,"length":9,"data":"вакансия"},{"type":"hashtag","offset":18,"length":5,"data":"java"},{"type":"hashtag","offset":24,"length":13,"data":"javateamlead"},{"type":"handle","offset":1147,"length":11,"data":"Zarnica_hr"}],"date":"2020-06-26T12:01:03+00:00","link":"tg://resolve?domain=jvmjobs&post=1664","tags":[{"name":"java"},{"name":"jvm"},{"name":"dotnet"},{"name":"apache"},{"name":"linux"},{"name":"shell"},{"name":"javascript"},{"name":"reactjs"},{"name":"redux"},{"name":"spring"},{"name":"cloud"},{"name":"kafka"},{"name":"tomcat"},{"name":"docker"},{"name":"postgresql"},{"name":"hdfs"},{"name":"hive"},{"name":"gitlab"},{"name":"react-redux"},{"name":"apache-spark"}],"cities":[{"code":"moscow"}],"allowsRemote":false}},{"node":{"__typename":"Job","id":"17164140544-1001110946746","title":"Javascript разработчик","text":"#вакансия #remote #react #WebRTC #RealtimeWeb #ReactNative\nГород: Москва\nФормат работы: удаленная занятость, РФ\nЗанятость: полная\nВилка: от 70 до 200 000 руб\nРазработка приложения для проведения видео конференций (React).\nСтек: React, redux, typescript, vanilla DOM (WebRTC)\nРазработка мобильного клиента для большой программной платформы на React Native. Новый проект. \nНужен: Опыт разработки \"больших\" одностраничных приложений на JavaScript. \nОпыт разработки мобильных приложений на javascript (React Native, Ionic). \nКомпания: mirapolis.ru\nКонтакты: telegram @TimKaty\n\n—\n\n👉 Обсуждение вакансии в чате @javascript_jobs","markup":[{"type":"hashtag","offset":0,"length":9,"data":"вакансия"},{"type":"hashtag","offset":10,"length":7,"data":"remote"},{"type":"hashtag","offset":18,"length":6,"data":"react"},{"type":"hashtag","offset":25,"length":7,"data":"WebRTC"},{"type":"hashtag","offset":33,"length":12,"data":"RealtimeWeb"},{"type":"hashtag","offset":46,"length":12,"data":"ReactNative"},{"type":"link","offset":531,"length":12,"data":"http://mirapolis.ru"},{"type":"handle","offset":563,"length":8,"data":"TimKaty"},{"type":"handle","offset":606,"length":16,"data":"javascript_jobs"}],"date":"2020-06-26T07:36:42+00:00","link":"tg://resolve?domain=javascript_jobs_feed&post=16369","tags":[{"name":"javascript"},{"name":"reactjs"},{"name":"redux"},{"name":"typescript"},{"name":"react-redux"},{"name":"react-native"}],"cities":[{"code":"moscow"}],"allowsRemote":true}},{"node":{"__typename":"Job","id":"17163091968-1001110946746","title":"Js разработчик","text":"#вакансия #удаленно #fullstack #JavaScript #NodeJS #Vue #middle #junior\n\nГород: г. Москва, Сколково, б-р Большой\nФорма работы: удаленка\nЗанятость: полная\nЗарплатная вилка: от 80000 до 120000 рублей\nНазвание компании: ADMON\n\nВ связи с расширением штата, компания ADMON приглашает Junior+/Middle Full-stack JavaScript-разработчиков, готовых стать полноценными членами нашей команды на удаленной основе. ADMON – одна из ведущих российских компаний по предотвращению и расследованию мошенничества в сфере рекламы в Интернете и на мобильных устройствах с использованием высоких технологий, являемся резидентами Сколково. Основные направления деятельности компании: мониторинг и предотвращение мошенничества, аудит рекламных кампаний, разработка инновационных программных продуктов по мониторингу, обнаружению и предотвращению возникающих видов мошенничества.\n\nСтек технологий:\nNode.JS, Vue, GraphQl, Jest, Redis, Clickhouse, PostgreSQL, Docker.\n\nЧто используем в работе:\n    ✔️ Jira (Kanban), Confluence;\n   ✔️Храним код в Gitlab, тут же CI/CD;\n    ✔️Практикуем code review, политику частых релизов, гибкие методологии разработки;\n    ✔️Мониторим состояние приложений с помощью: Zabbix, Grafana.\n\nВ задачи будет входить:\n    🔸 Улучшать имеющийся функционал и разрабатывать новый (Система нотификаций, Обработка платежей, Алгоритмы атрибуции, Ads Crawler и т.д.);\n    🔸Писать тесты и рефакторить кодовую базу;\n    🔸Участвовать в принятии архитектурных решений;\n    🔸 Работать как в составе команды, так и в одного над небольшими проектами;\n   🔸Участвовать в коммуникации с командой;\n    🔸Быть инициативным и предлагать свои идеи, в том числе, если это касается использования новых технологий — проводить code review.\n\nЧто мы предлагаем:\n    🚀 Удаленная работа;\n    🚀 Оформление по ТК РФ;\n    🚀 Полностью белая ЗП;\n    🚀График работы 5/2;\n    🚀 Можно выбрать свой график работы;\n    🚀Наставничество по предметной области и на равной позиции;\n    🚀 Возможность работать как в составе команды, так и возглавить со временем свое направление — мы готовы обсуждать любые ваши идеи. \n\n Контакты:@juliajudina2810\n Резюме можно присылать на почту: hr@resurs-hr.ru\n\n—\n\n👉 Обсуждение вакансии в чате @javascript_jobs","markup":[{"type":"hashtag","offset":0,"length":9,"data":"вакансия"},{"type":"hashtag","offset":10,"length":9,"data":"удаленно"},{"type":"hashtag","offset":20,"length":10,"data":"fullstack"},{"type":"hashtag","offset":31,"length":11,"data":"JavaScript"},{"type":"hashtag","offset":43,"length":7,"data":"NodeJS"},{"type":"hashtag","offset":51,"length":4,"data":"Vue"},{"type":"hashtag","offset":56,"length":7,"data":"middle"},{"type":"hashtag","offset":64,"length":7,"data":"junior"},{"type":"handle","offset":2104,"length":16,"data":"juliajudina2810"},{"type":"link","offset":2155,"length":15,"data":"mailto:hr@resurs-hr.ru"},{"type":"handle","offset":2205,"length":16,"data":"javascript_jobs"}],"date":"2020-06-26T07:25:28+00:00","link":"tg://resolve?domain=javascript_jobs_feed&post=16368","tags":[{"name":"javascript"},{"name":"nodejs"},{"name":"vuejs"},{"name":"graphql"},{"name":"redis"},{"name":"postgresql"},{"name":"docker"},{"name":"gitlab"}],"cities":[{"code":"moscow"}],"allowsRemote":true}},{"node":{"__typename":"Job","id":"17162043392-1001110946746","title":"Js разработчик","text":"#вакансия #frontend_developer #js #react #stream \nMiddle/ Senior frontend developer (React JS)\nЛокация: г. Казань, Спартаковская, 6 \nФормат работы: удаленная работа (возможен формат коворкинга)\nЗанятость: полная \nЗарплатная вилка: от 130 000 до 200 000 рублей net\n\nОписание вакансии:\nStream  - 100% дочерняя компания МТС. Ищем опытного React JS разработчика для участия в проекте Виртуальная АТС.\nО проекте:\nВАТС - платформа для сборки бизнес-инструментов и «умная» телефонная связь через интернет, которая доступна в любом месте и для разных типов устройств.\nЧто предстоит?\n- проектирование архитектуры и участие в разработке frontend продукта;\n- проведение code review;\n- участие в оптимизации процессов разработки в компании.\nМы ожидаем от Вас:\n- опыт работы с React от 2 лет\n- опыт разработки SPA\n- знание TypeScript, NextJS, SCSS, Styled Components, HTML5, CSS\n- умение писать Unit-тесты (будет плюсом)\nЧто предлагаем?\n- \"белую\" заработную плату + полугодовые бонусы;\n- гибкий график работы;\n- ДМС со стоматологией, страхование жизни после испытательного срока;\n- корпоративную мобильную связь;\n- льготное кредитование для участников зарплатного проекта МТС Банк.\nНазвание компании: Stream https://stream.ru/\n\n📲 Контакты для резюме и вопросов: @askamasaska, AMorozova@stream.ru\n\n—\n\n👉 Обсуждение вакансии в чате @javascript_jobs","markup":[{"type":"hashtag","offset":0,"length":9,"data":"вакансия"},{"type":"hashtag","offset":10,"length":19,"data":"frontend_developer"},{"type":"hashtag","offset":30,"length":3,"data":"js"},{"type":"hashtag","offset":34,"length":6,"data":"react"},{"type":"hashtag","offset":41,"length":7,"data":"stream"},{"type":"link","offset":1195,"length":18,"data":"https://stream.ru/"},{"type":"handle","offset":1250,"length":12,"data":"askamasaska"},{"type":"link","offset":1264,"length":19,"data":"mailto:AMorozova@stream.ru"},{"type":"handle","offset":1318,"length":16,"data":"javascript_jobs"}],"date":"2020-06-26T07:25:03+00:00","link":"tg://resolve?domain=javascript_jobs_feed&post=16367","tags":[{"name":"javascript"},{"name":"reactjs"},{"name":"dotnet"},{"name":"typescript"},{"name":"html"},{"name":"css"}],"cities":[{"code":"kazan"}],"allowsRemote":true}},{"node":{"__typename":"Job","id":"17156800512-1001110946746","title":"Js разработчик","text":"#вакансия #москва #middle #remote #angular #fulltime #офис\n\nИщем frontend разработчика для работы над основным сайтом и новыми разделами.\nГород и адрес офиса: Москва, м. Авиамоторная\nФормат работы: Офис\nЗанятость: полная\nЗарплатная вилка: 130 000 — 150 000 на руки по результатам технического собеседования\n\nAutospot.ru — онлайн гипермаркет автомобилей. \n\nВ 2018 году Mitsubishi Corporation и Mail.ru. оценили нас в $19,1 млн.\n\nВ технической команде 17 человек: СТО, 9 PHP разработчиков, 2 frontend разработчика, 3 тестировщика, DevOps.\n\nЧеловек нужен в Москве или готовый в эту самую Москву переехать.\n\nОбязанности:\n▫️Разработка компонентов и адаптация/интеграция сторонних библиотек и плагинов;\n▫️ Верстка новых разделов, кроссбраузерная, адаптивная, валидная;\n▫️ Развитие библиотеки UI компонентов;\n▫️ Оперативное исправление багов на проде (IE 11+);\n▫️ Помощь в оптимизации работы сайта (скорость загрузки, оптимизация DOM).\n\nТребования:\n▪️ Опыт разработки от 2 лет;\n▪️ Знание JavaScript (jQuery в разумных пределах);\n▪️ Уверенное знание html семантическая верстка, БЭМ, SCSS;\n▪️ Знание работы GIT & NPM;\n▪️ Опыт работы с gulp/webpack;\n▪️ Опыт работы с Figma/Zeplin;\n▪️ Опыт работы с векторной графикой (svg и svg-спрайты).\n\nЖелательно:\n◾️ Хорошее знание Vue.js и/или Angular 5+. Работать надо будет и с тем и с другим. Angular 5+ в приоритете, планируется переход полностью на него;\n◾️ Знание инструментов организации разработки Jira;\n◾️ Знание нюансов работы браузеров на разных устройствах и ОС;\n◾️ Опыт сео оптимизации;\n◾️ Понимание, что такое доступные интерфейсы;\n\nУсловия:\n▫️ Комфортабельный офис, БЦ Light Tower, бесплатный шаттл от м. Площадь Ильича;\n▫️ Оформление по ТК РФ с первого рабочего дня;\n▫️ Гибкое начало рабочего дня, с 9 до 11;\n▫️ Возможность работать 1-2 дня удалённо;\n▫️ Полностью белая заработная плата;\n▫️ Неформальная атмосфера и дружный, амбициозный коллектив;\n▫️ Корпоративная скидка на изучение английского языка.\n\nКонтакт: @dianadoma\n\n—\n\n👉 Обсуждение вакансии в чате @javascript_jobs","markup":[{"type":"hashtag","offset":0,"length":9,"data":"вакансия"},{"type":"hashtag","offset":10,"length":7,"data":"москва"},{"type":"hashtag","offset":18,"length":7,"data":"middle"},{"type":"hashtag","offset":26,"length":7,"data":"remote"},{"type":"hashtag","offset":34,"length":8,"data":"angular"},{"type":"hashtag","offset":43,"length":9,"data":"fulltime"},{"type":"hashtag","offset":53,"length":5,"data":"офис"},{"type":"link","offset":308,"length":11,"data":"http://Autospot.ru"},{"type":"link","offset":393,"length":7,"data":"http://Mail.ru"},{"type":"handle","offset":1957,"length":10,"data":"dianadoma"},{"type":"handle","offset":2002,"length":16,"data":"javascript_jobs"}],"date":"2020-06-25T18:01:18+00:00","link":"tg://resolve?domain=javascript_jobs_feed&post=16362","tags":[{"name":"javascript"},{"name":"angularjs"},{"name":"php"},{"name":"jquery"},{"name":"html"},{"name":"git"},{"name":"npm"},{"name":"gulp"},{"name":"webpack"},{"name":"svg"},{"name":"vuejs"}],"cities":[{"code":"moscow"}],"allowsRemote":true}},{"node":{"__typename":"Job","id":"17155751936-1001110946746","title":"Js developer","text":"#вакансия #удаленка #React #Frontend\n\nГород: Москва Emirex\nФормат работы: удаленка\nЗанятость: полная\nЗарплатная вилка:  от 80k  до 150к рублей\n\n👉Ближневосточная биржа Emirex ищет React Developer👈\n\n⚡️О компании:\nEmirex Group объединяет сообщество эмитентов и трейдеров со всей Африки, Азии и Европы и предоставляет им доступ к богатству Ближнего Востока, используя современные технологии (токен EMRX входит в ТОП-300 CMC)\n\nТребуемый опыт работы: от 3–ех лет\nПолная занятость, удаленная работа\n\nЧто для это нужно уметь:\n– знания и опыт работы с React.js, Javascript (ES6+),Typescript, HTML5, CSS3;\n– знание redux, redux saga, next.js (edited);\n– знание принципов ООП, шаблонов проектирования;\n– умение писать понятный и логичный код;\n– опыт работы с системами контроля версий (Git) и багтрекинг системами. Опыт работы с системами непрерывной интеграции (Gitlab CI);\n– ВАЖНО! амбициозность, порядочность, внимательность, аккуратность, умение четко и ясно излагать свои мысли.\n\nКруто, если вы:\n– знаете системы сборок (Gulp, Webpack);\n– имеете опыт разработки коммерческих проектов;\n– есть желание осваивать новые технологии, совершенствовать свои профессиональные навыки;\n– есть опыт разработки серверной стороны Web-приложения.\n\n📱Контакты: \nПрисылайте резюме на: recruiting@emirex.com\nTelegram: @AndreNaumov\n\n—\n\n👉 Обсуждение вакансии в чате @javascript_jobs","markup":[{"type":"hashtag","offset":0,"length":9,"data":"вакансия"},{"type":"hashtag","offset":10,"length":9,"data":"удаленка"},{"type":"hashtag","offset":20,"length":6,"data":"React"},{"type":"hashtag","offset":27,"length":9,"data":"Frontend"},{"type":"link","offset":1264,"length":21,"data":"mailto:recruiting@emirex.com"},{"type":"handle","offset":1296,"length":12,"data":"AndreNaumov"},{"type":"handle","offset":1343,"length":16,"data":"javascript_jobs"}],"date":"2020-06-25T17:58:55+00:00","link":"tg://resolve?domain=javascript_jobs_feed&post=16361","tags":[{"name":"javascript"},{"name":"reactjs"},{"name":"typescript"},{"name":"html"},{"name":"css"},{"name":"redux"},{"name":"git"},{"name":"gitlab"},{"name":"gulp"},{"name":"webpack"},{"name":"web"}],"cities":[{"code":"moscow"}],"allowsRemote":true}}]}}},"context":{}}