{"hash":"f34fd2c444a074f4e0e67d525015a008ef8e766f","data":{"records":{"id":"postgresql","name":"postgresql","belongsTo":{"totalCount":132,"pageInfo":{"totalPages":14,"currentPage":7},"edges":[{"node":{"__typename":"Job","id":"24181211136-1001075660570","title":"Php разработчик","text":"#вакансия #senior #php #symfony #воронеж \n\nSenior PHP разработчик\nКомпания: СберЛогистика\nЛокация:  г. Воронеж, ул. Кропоткина, офис, полная занятость\nЗ/п:  от 110.000 net\nКонтакт: @yagodaalena или @wander_wom \n\nСберЛогистика – это логистический оператор федерального масштаба, развивающий собственную складскую инфраструктуру, курьерскую доставку и сеть пунктов выдачи заказов во всех регионах России. \n\nЗадачи:\n• Разработка прикладного кода\n• Проведение тестирования собственного кода, написание unit-тестов и автотестов на функциональность\n• Разработка интеграционной функциональности. Диагностирование ошибок и сбоев, исправление причин\n• Сопровождение внедрения продуктов\n• Проведение code review\n\nОт Вас мы ожидаем:\n• Опыт работы с Symfony\n• Уверенная работа с реляционными СУБД (предпочтительно PostgreSQL)\n• Уверенная работа с Git\n• Уверенный пользователь Linux\n• Работа с API: OpenApi, REST, JsonRPC\n• CI/CD (Jenkins, GitLab CI/CD, etc)\n• KeyValue: Redis\n• Опыт работы с брокерами сообщений: Kafka\n• Английский язык на уровне чтения и понимания технической документации\n\nРабота у нас это:\n• Возможность работать над новыми амбициозными проектами в области логистики в дружной команде профессионалов\n• Полное соблюдение ТК РФ\n• Конкурентное вознаграждение, обсуждаем с финальным кандидатом\n• ДМС\n\nНапиши мне, если интересно. 😉","markup":[{"type":"hashtag","offset":0,"length":9,"data":"вакансия"},{"type":"hashtag","offset":10,"length":7,"data":"senior"},{"type":"hashtag","offset":18,"length":4,"data":"php"},{"type":"hashtag","offset":23,"length":8,"data":"symfony"},{"type":"hashtag","offset":32,"length":8,"data":"воронеж"},{"type":"handle","offset":181,"length":12,"data":"yagodaalena"},{"type":"handle","offset":198,"length":11,"data":"wander_wom"}],"date":"2020-03-31T08:25:15+00:00","link":"tg://resolve?domain=php_jobs&post=23061","tags":[{"name":"php"},{"name":"symfony"},{"name":"dotnet"},{"name":"postgresql"},{"name":"git"},{"name":"linux"},{"name":"rest"},{"name":"jenkins"},{"name":"gitlab"},{"name":"redis"},{"name":"kafka"}],"cities":[{"code":"voronezh"}],"allowsRemote":false}},{"node":{"__typename":"Job","id":"24178065408-1001075660570","title":"Php разработчик","text":"#вакансия #PHP #backend #senior #middle #СПб #офис\n\nПозиция: Senior PHP Developer\nКомпания: Studyworld\nЛокация:  Санкт- Петербург\nФормат работы: #офис\nЗанятость: полная\nЗ/п:  от 120.000 \nКонтакт: @Escabaret\n\nStudyworld - EdTech компания, развивающая масштабные сервисы на российском и на зарубежном рынке.\nНаша команда - более 100 человек, 5 проектов, которые 7 лет помогают студентам по всему миру. Территория охвата наших проектов очень велика – США, Канада, Бразилия, Россия и страны СНГ.\nСейчас мы в поисках уверенного Senior разработчика с гибким мышлением, ценящего важность сроков и обратную связь, и который в перспективе станет лидом команды Studybay.\n\nStack: PHP7, PostgreSQL, Redis, Sphinx\n\nПервостепенные задачи:\n- Развитие одного из наших продуктов, проектирование и реализация новых фич - переписывание легаси частей проекта, написание тестов - оптимизация системы деплоя и совершенствование процессов разработки.\n\n Мы ждем от Вас:\n- Очень уверенные знание PHP;\n- Опыт работы с одним из фреймворков (Codeigniter, Laravel, Symfony) и сопутствующими инструментами (composer, phpunit, phpstan);\n- Опыт командной разработки, работа с ветками в git (master/test/feature);\n- Умение писать и оптимизировать SQL запросы, проектировать структуру БД. Мы используем PostgreSQL;\n- Можете настроить nginx + php-fpm, читать логи и не бояться консоли linux.\n\nМы предлагаем:\n- Официальное оформление согласно ТК РФ;\n- Care bonus - это ДМС после испытательного срока, оплата обучения, поездки на конференции и все интересующее Вас для личного развития.\n- Наш офис - двухэтажный open space в центре Петербурга c собственной террасой, велопарковкой на территории БЦ. Все необходимое в офисе для комфортной работы и время препровождения.\n\nВ сопроводительном письме или резюме прошу ссылку на GitHub с примерами кода.\nЯ готова ответить на все-все вопросы, рассказать подробнее. Спасибо, что прочли простыню!)\nКонтакт: @Escabaret","markup":[{"type":"hashtag","offset":0,"length":9,"data":"вакансия"},{"type":"hashtag","offset":10,"length":4,"data":"PHP"},{"type":"hashtag","offset":15,"length":8,"data":"backend"},{"type":"hashtag","offset":24,"length":7,"data":"senior"},{"type":"hashtag","offset":32,"length":7,"data":"middle"},{"type":"hashtag","offset":40,"length":4,"data":"СПб"},{"type":"hashtag","offset":45,"length":5,"data":"офис"},{"type":"hashtag","offset":145,"length":5,"data":"офис"},{"type":"handle","offset":196,"length":10,"data":"Escabaret"},{"type":"bold","offset":208,"length":10,"data":""},{"type":"bold","offset":662,"length":6,"data":""},{"type":"bold","offset":702,"length":21,"data":""},{"type":"bold","offset":929,"length":17,"data":""},{"type":"handle","offset":1911,"length":10,"data":"Escabaret"}],"date":"2020-03-31T07:00:02+00:00","link":"tg://resolve?domain=php_jobs&post=23058","tags":[{"name":"php"},{"name":"postgresql"},{"name":"redis"},{"name":"codeigniter"},{"name":"laravel"},{"name":"symfony"},{"name":"phpunit"},{"name":"git"},{"name":"sql"},{"name":"nginx"},{"name":"linux"},{"name":"github"}],"cities":[],"allowsRemote":false}},{"node":{"__typename":"Job","id":"1398800384-1001091028994","title":"Java developer","text":"Большой интергационный проект: разработка платформы финансового маркетплейса для физических лиц, проект  стартует в сентябре-декабре 2020 г. \n\nЗадачи на новый проект:\n\nНачать разработку и отладку BPM-слоя платформы, основанной на микросервисной архитектуре с использованием - Java 8; Spring Framework (Core, MVC, Boot); Camunda BPM; Apache Kafka; Hibernate; Docker; PostgreSQL. \n\nВзаимодействие со смежными командами и определение зон ответственности при реализации задач.\n\nПодготовка рекомендаций по внедрению новых технологии, решений, подходов.\n\nНастройка CI/CD процессов. \n\nТребования:\n\nГлубокие знание java core.\nОпыт в java от 3-х лет.\nЗнание подходов CI/CD. \nОтличные организационные и коммуникативные навыки. \n\nЛокация офиса: г. Москва, м. Арбатская/Библиотека им. Ленина/Боровицкая/Александровский сад. \nЗанятость: полная, официальное оформление в штат Компании. \nДМС: с первого рабочего дня. \nФормат работы: современный  офис возле кремля в шаговой доступности от метро (сейчас работаем из дома, возможно, после выхода в офисе многое поменяется))).\nКомпания: ПАО Московская биржа (Компания входящая в 500 - лучших работодателей мира по версии Forbes за 2019 год). \nУровень з/п:  230- 300 тыс.руб. + годовой бонус.\nФормат интервью: один этап интервью по Skype (60 минут). \nКоманда: абсолютно новая команда, почти (3 вакансии senior developer) сформирована за период февраль - март 2020 г. \n\n\nПишите в личку, отвечу на любые вопросы!\nКонтакты: @Sasha_P92","markup":[{"type":"handle","offset":1452,"length":10,"data":"Sasha_P92"}],"date":"2020-03-30T18:53:38+00:00","link":"tg://resolve?domain=jvmjobs&post=1334","tags":[{"name":"java"},{"name":"jvm"},{"name":"spring"},{"name":"apache"},{"name":"kafka"},{"name":"hibernate"},{"name":"docker"},{"name":"postgresql"}],"cities":[{"code":"moscow"}],"allowsRemote":false}},{"node":{"__typename":"Job","id":"1397751808-1001091028994","title":"Java разработчик","text":"Вакансия: #Java \nКомпания: #S-O-Services\nЛокация: #удаленнаяработа #remote #belarus #ukraine #balticstates\nЗ/п: 5000-6500$ gross\nКонтакты: @erzentd\nMust be able to translate business needs into effective technical solutions using core JAVA and common\nopensource libraries and frameworks.\n🔹 Must have practical implementation experience with Web Service RESTful API.\n🔹 Highly preferred with performance in encoding audio video in cloud platform.\n🔹 Experience with Java/J2EE technologies: Java, EJB3.0, JMS, JDBC, XML.\n🔹 Experience with application servers is a plus: Spring Boot, Jetty, Apache Tomcat, Wildfly.\n🔹 Experience with frameworks: Spring, Hibernate.\n🔹 Strong understanding of Java Multithreading and Daemons.\n🔹 Experience with the development tools a plus: Intellij, Git, JIRA\n🔹 Proven experience with interfacing to relational databases (particularly PostgreSQL, MySQL)\n🔹 Excellent troubleshooting skills with the ability to analyze and resolve difficult problems quickly\n🔹 Must have excellent written and verbal communication skills\n🔹 Familiarity with common branching strategies like Gitflow a plus\n🔹 Upper-intermediate English","markup":[{"type":"hashtag","offset":10,"length":5,"data":"Java"},{"type":"hashtag","offset":27,"length":2,"data":"S"},{"type":"hashtag","offset":50,"length":16,"data":"удаленнаяработа"},{"type":"hashtag","offset":67,"length":7,"data":"remote"},{"type":"hashtag","offset":75,"length":8,"data":"belarus"},{"type":"hashtag","offset":84,"length":8,"data":"ukraine"},{"type":"hashtag","offset":93,"length":13,"data":"balticstates"},{"type":"handle","offset":139,"length":8,"data":"erzentd"}],"date":"2020-03-30T18:44:36+00:00","link":"tg://resolve?domain=jvmjobs&post=1333","tags":[{"name":"java"},{"name":"jvm"},{"name":"web"},{"name":"cloud"},{"name":"jdbc"},{"name":"xml"},{"name":"spring"},{"name":"jetty"},{"name":"apache"},{"name":"tomcat"},{"name":"hibernate"},{"name":"git"},{"name":"postgresql"},{"name":"mysql"},{"name":"spring-boot"}],"cities":[],"allowsRemote":true}},{"node":{"__typename":"Job","id":"1396703232-1001091028994","title":"Java разработчик","text":"#java #middle #москва #офис #fulltime \n\nКА: Lucky Hunter\nФормат работы: офис \nЗанятость: full time\nЛокация: Москва, Нижний Сусальный пер. \nЗ/п:  до 220к Net \n\n🌏Британский лидер глобального рынка информационных услуг в сфере финансов расширяет границы своего присутствия и открывает первый офис в России. \n\nВ связи с этим компания находится в поиске middle Java специалиста, который будет отвечать за кастомизацию продукта. \n\nДанный сервис позволяет частным лицам контролировать свои финансы, кредитным организациям давать кредиты с большей ответственностью, а также позволяет компаниям предотвращать кражу персональных данных и мошенничество.\nНа сегодняшний день в компании работает около 17 000 человек в 37 странах🌍\n\n🔸 Требования:\n— Опыт разработки на Java+Spring от 2 лет;\n— Опыт работы с PostgreSQL, MS SQL, Oracle; \n— Англ.яз. (интервью будет проходит с представителями Британского офиса); \n\nБольшим плюсом будет:\n— Опыт работы с кастомными продуктами;\n— Понимание особенностей фин.тех. сервисов;\n\n🔸 Что получите Вы:\n— Официальное трудоустройство;\n— Вы встанете у истоков первого российского филиала;\n— Большие перспективы роста и развития;\n— Работа в международной команде профессионалов;\n\nКонтакты: \ne-mail: maria@luckyhunter.io\ntelegram: @Maria_Rey","markup":[{"type":"hashtag","offset":0,"length":5,"data":"java"},{"type":"hashtag","offset":6,"length":7,"data":"middle"},{"type":"hashtag","offset":14,"length":7,"data":"москва"},{"type":"hashtag","offset":22,"length":5,"data":"офис"},{"type":"hashtag","offset":28,"length":9,"data":"fulltime"},{"type":"link","offset":1219,"length":20,"data":"mailto:maria@luckyhunter.io"},{"type":"handle","offset":1250,"length":10,"data":"Maria_Rey"}],"date":"2020-03-30T11:48:16+00:00","link":"tg://resolve?domain=jvmjobs&post=1332","tags":[{"name":"java"},{"name":"jvm"},{"name":"dotnet"},{"name":"spring"},{"name":"postgresql"},{"name":"sql"},{"name":"oracle"}],"cities":[{"code":"moscow"}],"allowsRemote":false}},{"node":{"__typename":"Job","id":"1395654656-1001091028994","title":"Java developer","text":"В инновационное подразделение крупнейшей российской авиакомпании\nищем #Junior #Java #Developer\nГород: #Москва\nФормат работы: #офис\nЗанятость: #fulltime, гибкий подход к рабочему времени\nВилка: до 100000 net.\n\nЗадача:\n\n • Проектирование и разработка хранилища данных о клиентах компании.\n\nЧто хотим видеть:\n\n • Опыт разработки на Java 1 год на коммерческом проекте,\n • Spring Framework, понимание концепции DI,\n • Опыт реализации REST-сервисов,\n • Понимание микросервисной архитектуры,\n   \nБудет плюсом:\n\n • вы знаете, что такое ETL\n • вы работали с:\n            Spark (SQL, Streaming);\n            Kafka;\n            Linux, Docker, Kubernetes;\n            реляционными БД (Oracle, MS SQL, PostgreSQL);\n            Spring Integration или аналогами (Camel)\n\nУсловия:\n\n • Интересные задачи, возможность влиять на прибыль компании;\n • Бессрочный трудовой договор;\n • Корпоративный тариф на перелеты;\n • ДМС;\n • Возможность обучаться за счет компании;\n • Участие в конференциях.\n\nКонтакт:  @morozovamary","markup":[{"type":"bold","offset":70,"length":13,"data":""},{"type":"hashtag","offset":70,"length":7,"data":"Junior"},{"type":"hashtag","offset":78,"length":5,"data":"Java"},{"type":"bold","offset":84,"length":17,"data":""},{"type":"hashtag","offset":84,"length":10,"data":"Developer"},{"type":"hashtag","offset":102,"length":7,"data":"Москва"},{"type":"bold","offset":110,"length":14,"data":""},{"type":"hashtag","offset":125,"length":5,"data":"офис"},{"type":"bold","offset":131,"length":10,"data":""},{"type":"hashtag","offset":142,"length":9,"data":"fulltime"},{"type":"bold","offset":186,"length":6,"data":""},{"type":"bold","offset":209,"length":9,"data":""},{"type":"code","offset":218,"length":3,"data":""},{"type":"bold","offset":288,"length":19,"data":""},{"type":"code","offset":307,"length":3,"data":""},{"type":"code","offset":365,"length":3,"data":""},{"type":"code","offset":410,"length":3,"data":""},{"type":"code","offset":444,"length":3,"data":""},{"type":"bold","offset":489,"length":15,"data":""},{"type":"code","offset":504,"length":3,"data":""},{"type":"code","offset":532,"length":3,"data":""},{"type":"bold","offset":756,"length":10,"data":""},{"type":"code","offset":766,"length":3,"data":""},{"type":"code","offset":828,"length":3,"data":""},{"type":"code","offset":860,"length":3,"data":""},{"type":"code","offset":896,"length":3,"data":""},{"type":"code","offset":904,"length":3,"data":""},{"type":"code","offset":947,"length":3,"data":""},{"type":"bold","offset":975,"length":8,"data":""},{"type":"handle","offset":985,"length":13,"data":"morozovamary"}],"date":"2020-03-30T09:30:22+00:00","link":"tg://resolve?domain=jvmjobs&post=1331","tags":[{"name":"java"},{"name":"jvm"},{"name":"dotnet"},{"name":"spring"},{"name":"rest"},{"name":"sql"},{"name":"kafka"},{"name":"linux"},{"name":"docker"},{"name":"kubernetes"},{"name":"oracle"},{"name":"postgresql"}],"cities":[{"code":"moscow"}],"allowsRemote":false}},{"node":{"__typename":"Job","id":"1392508928-1001091028994","title":"Java разработчик","text":"Вакансия: #java #developer #javadeveloper\nКомпания: #ivi\nЛокация: #москва #мск\nЗ/п: от 250 000 до 270 000 руб. на руки\nКонтакты: @daria144 \n\nКоманда Big Data онлайн-кинотеатра ivi ищет сильного Java разработчика, заинтересованного в работе с данными и разработке аналитических продуктов\n\nНаша задача - собирать, обогащать, хранить и доставлять данные, а также разрабатывать инструменты для извлечения из них максимального business value.\n\nДанные - важное звено в бизнесе ivi, мы придерживаемся data-driven культуры принятия решений. Мы обрабатываем 1 Тб в день с помощью Kafka, Flink и ClickHouse.\n\nРазрабатываем нагруженные (18k qps) сервисы на Spring Boot WebFlux и синхронизируем их через ZooKeeper. Разрабатываем многоуровневые кеши Caffeine + Redis и Flink коннекторы. Основные технологии: Java, Python; Kafka, Flink, Spring Boot, Spring WebFlux, ZooKeeper, Redis, ClickHouse, PostgreSQL.\n\nЕсли вы любите разбираться с новыми технологиями и решать нестандартные задачи - вам у нас будет интересно.\n\nЧто предстоит делать:\n- разработка модулей на основе streaming-processing (Apache Flink);\n- разработка web-сервисов для различных задач (реклама, аналитика и т.п.);\n- взаимодействовать с командой по вопросам архитектуры и разработки.\n\nКак узнать что ты нам подходишь?\n- есть опыт разработки на Java в коммерческих проектах от 5 лет;\n- у тебя отличное знание Java Core;\n- твердые архитектурные скилы;\n- общая культура разработки: декомпозиция задач, SOLID-принципы, DI, написание интеграционных и модульных тестов. \n\nСо своей стороны мы обещаем:\n- Офис в 5 минутах ходьбы от м. \"Дмитровская\";\n- У нас гибкий график, мы начинаем до 11 часов дня;\n- Трудоустройство по ТК РФ;\n- ДМС + стоматология после прохождения испытательного срока;\n- Подписка на ivi;\n- Пакет релокации для соискателей со всей России.","markup":[{"type":"bold","offset":0,"length":9,"data":""},{"type":"hashtag","offset":10,"length":5,"data":"java"},{"type":"hashtag","offset":16,"length":10,"data":"developer"},{"type":"hashtag","offset":27,"length":14,"data":"javadeveloper"},{"type":"bold","offset":42,"length":9,"data":""},{"type":"hashtag","offset":52,"length":4,"data":"ivi"},{"type":"bold","offset":57,"length":8,"data":""},{"type":"hashtag","offset":66,"length":7,"data":"москва"},{"type":"hashtag","offset":74,"length":4,"data":"мск"},{"type":"bold","offset":79,"length":4,"data":""},{"type":"bold","offset":119,"length":9,"data":""},{"type":"handle","offset":129,"length":9,"data":"daria144"},{"type":"bold","offset":1004,"length":22,"data":""},{"type":"bold","offset":1239,"length":33,"data":""},{"type":"bold","offset":1520,"length":29,"data":""}],"date":"2020-03-27T09:48:35+00:00","link":"tg://resolve?domain=jvmjobs&post=1328","tags":[{"name":"java"},{"name":"jvm"},{"name":"kafka"},{"name":"spring"},{"name":"redis"},{"name":"python"},{"name":"postgresql"},{"name":"apache"},{"name":"web"},{"name":"spring-boot"}],"cities":[{"code":"moscow"}],"allowsRemote":false}},{"node":{"__typename":"Job","id":"23963107328-1001075660570","title":"Php developer","text":"#вакансия #Питер #Казань #Пенза  #fulltime #middle #laravel #react\n\n📌О компании:\nAndersen (www.andersenlab.com) - международная аутсорсинговая компания. Занимаемся разработкой ПО и тестированием на заказ для зарубежных и русскоязычных заказчиков. Мы быстрорастущая компания, основана в 2007 и на сегодняшний день у нас имеется 15 центров разработки со штатом сотрудников +1300. Проекты в нашей компании ты сможешь увидеть абсолютно разнообразные по своему направлению.\n\n📌Тип работы\nПолный рабочий день\n\n📌Тип занятости\nОфис\n\n📌ЗП: от 200 000 net ( в зависимости от уровня соискателя)\n\n📌Описание вакансии:\nМы в поисках middle Full Stack(Laravel+React) developer в нашу команду для работы над проектом нашего европейского партнера - пиринговой платформы для торговли биткоинами.  Аккаунт на платформе - это своего рода финансовый паспорт. С его помощью можно отправлять деньги и покупать вещи по всему миру.\n\n📌Чем предстоит заниматься:\nпланируется перевод некоторых модулей на микросервисы;\nреализация новых задач;\nнаписание юнит-тестов.\n\n📌Стек технологий: PHP7+, Laravel5.5+, React, PostgreSQL, MongoDB, AWS, Docker\n\n📌 Что мы ждем от кандидата:\nопыт коммерческой разработки на PHP7+Laravel5.5+ от 2-х лет;\nжелателен опыт работы с микросервисами;\nопыт работы с Docker;\nуровень английского от intermediate.\n\nЕсли интересно, пиши мне ✉️, расскажу детали вакансии. Контакты: @natalia_ivanova \nSkype: live:ivanatasha0211","markup":[{"type":"hashtag","offset":0,"length":9,"data":"вакансия"},{"type":"hashtag","offset":10,"length":6,"data":"Питер"},{"type":"hashtag","offset":17,"length":7,"data":"Казань"},{"type":"hashtag","offset":25,"length":6,"data":"Пенза"},{"type":"hashtag","offset":33,"length":9,"data":"fulltime"},{"type":"hashtag","offset":43,"length":7,"data":"middle"},{"type":"hashtag","offset":51,"length":8,"data":"laravel"},{"type":"hashtag","offset":60,"length":6,"data":"react"},{"type":"bold","offset":68,"length":14,"data":""},{"type":"link","offset":92,"length":19,"data":"http://www.andersenlab.com"},{"type":"bold","offset":471,"length":13,"data":""},{"type":"bold","offset":505,"length":16,"data":""},{"type":"bold","offset":529,"length":3,"data":""},{"type":"bold","offset":587,"length":21,"data":""},{"type":"bold","offset":912,"length":26,"data":""},{"type":"bold","offset":1041,"length":18,"data":""},{"type":"bold","offset":1124,"length":26,"data":""},{"type":"handle","offset":1376,"length":16,"data":"natalia_ivanova"}],"date":"2020-03-27T09:25:16+00:00","link":"tg://resolve?domain=php_jobs&post=22853","tags":[{"name":"php"},{"name":"laravel"},{"name":"reactjs"},{"name":"dotnet"},{"name":"postgresql"},{"name":"mongodb"},{"name":"amazon-web-services"},{"name":"docker"}],"cities":[{"code":"kazan"},{"code":"penza"}],"allowsRemote":false}},{"node":{"__typename":"Job","id":"1943011328-1001134745498","title":"Devops инженер","text":"#вакансия #DevOps #Москва #ivi\n\nЛокация: Москва, ст. м. Дмитровская\nФормат работы: офис \nЗанятость: полная\nЗарплатная вилка: от 180 000 до 250 000 руб. на руки.\n\nМы — команда эксплуатации сервиса ivi .\n\nРазыскиваем коллегу в команду для участия в настойке процессов, технических (CI/CD) и в части взаимодействия с коллегами. Активное участие в разворачивании и эксплуатации k8s .Помогаем командам разработки строить CI/CD-пайплайны . Некоторые из нас это делают в составе кросс-команд, другие помогают многим командам, оставшиеся обеспечивают всех нас необходимыми приложениями и инфраструктурой.\n\nХраним код и разрабатываем pipeline-ы с помощью gitlab+artifactory .\nДля мониторинга серверов и сервисов используем zabbix и statsd , заправляем grafana.\nНаши сервисы написаны на python, golang и немного php и java.\nЛюбим и активно используем jenkins для решения самых разнообразных задач.\nИспользуем много open source (и не только) приложений: nginx, redis, postgresql, mongodb, rabbitmq, clickhouse, openstack, gitlab, kafka, hdfs, jira , opennebula.\n\nЧто предстоит делать: \n- развитие и настройки процессов ci/cd;\n- планирование и участие в рефакторинге процессов, инфраструктуры, приложений;\n- сопровождение сервисов от разработки до эксплуатации, участие в эксплуатации;\n- доработка текущих и разработка новых сценариев конфигурирования серверов и приложений; \n- администрирование приложений по результатам выполненной работы подготовка документации, если необходимо. \n\nКак узнать что ты нам подходишь? \n- положительный и продолжительный опыт работы с CI/CD-системами (у нас gitlab и jenkins);\n- умение хорошо готовить docker; \n- опыт программирования на скриптовых языках (shell, python);\nопыт администрирования linux и приложение 5+;\n- понимание сетевых технологий TCP/IP; \n- опыт работы с системами управления версиями (git) и конфигурациями. \n\nСо своей стороны мы обещаем: \n- Офис в 5 минутах ходьбы от м. \"Дмитровская\";\n- У нас гибкий график, мы начинаем до 11 часов дня;\n- Трудоустройство по ТК РФ;\n- ДМС + стоматология после прохождения испытательного срока;\n- Подписка на ivi;\n- Пакет релокации для соискателей со всей России.\n\nОнлайн-кинотеатр ivi \nhttps://www.ivi.tv/\n\nБуду рада рассказать подробности, пишите в личку @daria144 или на почту dsereda@ivi.ru\n\n—\n\n👉 Обсуждение вакансии в чате @devops_jobs","markup":[{"type":"hashtag","offset":0,"length":9,"data":"вакансия"},{"type":"hashtag","offset":10,"length":7,"data":"DevOps"},{"type":"hashtag","offset":18,"length":7,"data":"Москва"},{"type":"hashtag","offset":26,"length":4,"data":"ivi"},{"type":"link","offset":2161,"length":19,"data":"https://www.ivi.tv/"},{"type":"handle","offset":2231,"length":9,"data":"daria144"},{"type":"link","offset":2254,"length":14,"data":"mailto:dsereda@ivi.ru"},{"type":"handle","offset":2303,"length":12,"data":"devops_jobs"}],"date":"2020-03-27T09:21:44+00:00","link":"tg://resolve?domain=devops_jobs_feed&post=1853","tags":[{"name":"gitlab"},{"name":"python"},{"name":"go"},{"name":"php"},{"name":"java"},{"name":"jenkins"},{"name":"nginx"},{"name":"redis"},{"name":"postgresql"},{"name":"mongodb"},{"name":"rabbitmq"},{"name":"kafka"},{"name":"hdfs"},{"name":"docker"},{"name":"shell"},{"name":"linux"},{"name":"git"}],"cities":[{"code":"moscow"}],"allowsRemote":false}},{"node":{"__typename":"Job","id":"1941962752-1001134745498","title":"Devops engineer","text":"#вакансия #DevOps #fulltime \n\nВакансия: DevOps engineer / Системный администратор\nКомпания: Sl-Tech\nГород: Москва, метро Маяковская\nФормат работы: офис\nЗанятость: полная\nЗарплата : от 100 до 170 т.р. net\n\nО компании:\n\nSL Tech – компания, которая управляет портфелем проектов, предназначенных как для потребителей, так и для партнеров - поставщиков услуг в высокотехнологичных областях.\n\nКомпания родилась в 2006 году как часть группы SEALINE, в которую также входит страховой и перестраховочный брокер SEALINE, входящий в ТОП-10 страховых брокеров РФ.\n\nМы создаем современные IT-решения для бизнеса и жизни, помогая выстраивать коммуникацию между поставщиками и потребителями услуг. Своим партнерам мы предлагаем готовые решения, которые позволяют расширить возможности существующего бизнеса и получить дополнительный доход.\n\nSL Tech не просто разрабатывает продукты, отвечающие современным запросам  партнеров и их клиентов, но и влияет непосредственно на формирование новых сегментов рынка\n\nТебе предстоит:\n- Развитие и поддержка сервисов компании\n- Управление инфраструктурой компании\n- Автоматизация развертывания\n- Мониторинг \n- Сбор и анализ логов\n- Организация непрерывного функционирования сервисов, резервное копирование\n\nЧто нужно уметь:\n- Администрирование Linux (Ubuntu)\n- От 3-х лет опыта администрирования веб-сервисов работающих на Linux\n- Опыт использования и настройки системы Gitlab\n- Знания систем Docker Swarm, Kubernetes\n- Настройка, репликация PostgreSQL\n- Работы с системами автоматизации (Ansible, Chef и т.п.), мониторинга (Zabbix, Prometheus), сбора и анализа логов (ELK, ClickHouse)\n- Умение читать код на Python\n- Желание работать в команде\n\nМы предлагаем:\n• Оформление по ТК РФ \n• Полностью белая зп; \n• Уровень зп обсуждается индивидуально (в соответствии с вашим уровнем и ожиданиями) ЗП вилка 100-170 тыс.руб.\n• ДМС (после испытательного срока 3 месяца)\n• Офис в центре (5 минут от м.Маяковская)\n• Чай, кофе, печеньки\n• Адекватное руководство\n• Весёлая, сильная команда\n\nКонтакт: @SanDevl\n\n—\n\n👉 Обсуждение вакансии в чате @devops_jobs","markup":[{"type":"hashtag","offset":0,"length":9,"data":"вакансия"},{"type":"hashtag","offset":10,"length":7,"data":"DevOps"},{"type":"hashtag","offset":18,"length":9,"data":"fulltime"},{"type":"handle","offset":2012,"length":8,"data":"SanDevl"},{"type":"handle","offset":2055,"length":12,"data":"devops_jobs"}],"date":"2020-03-27T07:39:14+00:00","link":"tg://resolve?domain=devops_jobs_feed&post=1852","tags":[{"name":"dotnet"},{"name":"linux"},{"name":"ubuntu"},{"name":"gitlab"},{"name":"docker"},{"name":"kubernetes"},{"name":"postgresql"},{"name":"ansible"},{"name":"python"}],"cities":[{"code":"moscow"}],"allowsRemote":false}}]}}},"context":{}}