{"hash":"f5f6bf98bd95e769321482904cbbd488f77922fd","data":{"records":{"id":"mobile","name":"mobile","belongsTo":{"totalCount":307,"pageInfo":{"totalPages":31,"currentPage":8},"edges":[{"node":{"__typename":"Job","id":"104091090944-1001089317451","title":"Qa инженер","text":"#вакансия #спб #питер #fulltime #mobiletester #mobileqa\n\n🚀Mobile QA (в офис)\n70-90k\n\nО компании:\nНаПоправку.Ру - медицинский онлайн-сервис: поиск врача по отзывам и real time запись на приём в частные и государственные клиники. Именно мы партнеры суперприложения Тинькофф в блоке «Здоровье». Мы помогаем более 1 млн. пользователей в месяц. Сайт + сейчас создаём первое приложение (нативное).\n\nЦель должности:\n🔸Стать первым тестировщиком мобильного приложения продуктовой команды;\n🔸Настроить процесс тестирования, сделать все «как надо» с самого начала;\n🔸Не позволять багам просачиваться на прод и расстраивать пользователей.\n\nПочему точно стоит идти к нам:\n🔸Возможность применить всю экспертизу;\n🔸 Социально-значимый проект, его пользователи - простые люди как ты и я;\n🔸Гибкое начало рабочего дня (с 8 до 11);\n🔸Официальное оформление и «белая» зарплата;\n🔸ДМС;\n🔸У нас есть софинансирование командных активностей;\n🔸Программа опционов для ключевых сотрудников;\n🔸Офис (в нем снеки и прочее) на ВО;\nЗарплата:\n🔸Гибко обсуждаем, вилка для ориентира 70-90k\n\nЧего мы ждём от тебя:\n🔸Высшее техническое образование, курсы по тестированию - это всегда плюс;\n🔸Более года тестировал/а мобильные приложения в связке с API (не только клиентскую часть) - это must;\n🔸Навыки автоматизации тестирования будут супер плюсом!\n🔸Внимателен/а к деталям, требователен/а к себе и окружающим.\n\nВопросы и резюме к @Vasilisa_bu","markup":[{"type":"hashtag","offset":0,"length":9,"data":"вакансия"},{"type":"hashtag","offset":10,"length":4,"data":"спб"},{"type":"hashtag","offset":15,"length":6,"data":"питер"},{"type":"hashtag","offset":22,"length":9,"data":"fulltime"},{"type":"hashtag","offset":32,"length":13,"data":"mobiletester"},{"type":"hashtag","offset":46,"length":9,"data":"mobileqa"},{"type":"bold","offset":59,"length":25,"data":""},{"type":"bold","offset":86,"length":10,"data":""},{"type":"bold","offset":394,"length":14,"data":""},{"type":"bold","offset":630,"length":30,"data":""},{"type":"bold","offset":1063,"length":21,"data":""},{"type":"bold","offset":1382,"length":19,"data":""},{"type":"handle","offset":1401,"length":12,"data":"Vasilisa_bu"}],"date":"2020-06-30T15:43:50+00:00","link":"tg://resolve?domain=qa_jobs&post=99269","tags":[{"name":"qa"},{"name":"mobile"}],"cities":[],"allowsRemote":false}},{"node":{"__typename":"Job","id":"72381104128-1001054966032","title":"Android разработчик","text":"#вакансия #android #remote #удаленка\n\nГород и адрес офиса: Ростов-на-Дону\nФормат работы: удаленка\nЗанятость: проектная\nЗарплатная вилка - от $30 до $100 за проект, перспектива роста количества и сложности проектов и как следствие ставки\n\nОписание вакансии:\n\nВ ближайшее время необходимо разработать простое (со сложной аналитикой) приложение из 3-х экранов и заставки. На 2-х экранах просто текст, на одном квадратные блоки с картинками и кнопками.\nБудем рекламировать приложение через in-app сетки\nНаша цель понять из каких конкретно сеток к нам приходят заявки.\nЗаявки будут приходить из сайтов, которые будут открываться в приложении через google chrome tab\n\nИтого в цепочке надо связать:\n- Приложение\n- appsflyer\n- keitaro\n- Партнерку\n\nОплата за проект 55-70$\n\nСразу после этого проекта будут другие подобные проекты.\n\nТребования:\nОпыт работы с keitaro, appsflyer, различными api\n\nКонтакты: телеграм @makar_abraam","markup":[{"type":"hashtag","offset":0,"length":9,"data":"вакансия"},{"type":"hashtag","offset":10,"length":8,"data":"android"},{"type":"hashtag","offset":19,"length":7,"data":"remote"},{"type":"hashtag","offset":27,"length":9,"data":"удаленка"},{"type":"handle","offset":904,"length":13,"data":"makar_abraam"}],"date":"2020-06-30T15:26:16+00:00","link":"tg://resolve?domain=mobile_jobs&post=69028","tags":[{"name":"mobile"},{"name":"android"},{"name":"google-chrome"}],"cities":[{"code":"rostov"}],"allowsRemote":true}},{"node":{"__typename":"Job","id":"3592421376-1001121589364","title":"Dotnet разработчик","text":"#вакансия #Казань #Kzn #офис #fulltime #релокация #ios #Developer #разработчик\n\nMiddle IOS-разработчик\n\nКазань \nКомпания ArtStation Labs\nРоссийское подразделение ArtStation\nГоловной офис компании находится в Канаде. \nРаботая в ArtStation Labs вы каждый день будете плотно взаимодействовать с канадскими коллегами и обмениваться опытом.\n❗️Поэтому важен разговорный английский.\n\nФормат: Офис, фулл тайм. \n\nВилка: 100к-160к рублей / месяц\n\n✅ Что нужно будет делать:\n\n- Разрабатывать приложение Artstation под iOS\n\n- Взаимодействовать с командой для описания, разработки и релиза новых функций\n\n- Исправлять ошибки и повышать скорость работы приложения\n\n- Постоянно изучать, оценивать и внедрять новые технологии и быть в курсе изменений в экосистеме Apple\n\n✅ Пожелания к кандидату:\n\n- Реальный опыт работы разработчиком приложений под iOS. У вас должно быть как минимум одно приложение в AppStore.\n\n- Глубокое понимание экосистемы Apple и принципов работы социального приложения. Вы способны справиться со всеми специфичными для эппловской продукции проблемами и знаете, как их можно проработать/обойти. \n\n- Вы знакомы с принципами работы всех крупных социальных приложений.\n\n- Знание английского. Наша команда мультинациональная и мы все общаемся (каждый день!) на английском, устно и письменно.\n\n- Понимание принципов Agile/Scrum. Мы работаем по скраму. \n\n- Готовность работать в офисе. Наше российское подразделение работает в центре офиса в Казани, удаленная работа невозможна. Мы поможем с переездом, если вы в другом городе. Канадское подразделение работает в основном из Монреаля. Вам должно быть комфортно работать как с коллегами бок о бок, так и с удаленными сотрудниками.\n\n- Изобретательность и проактивность. Не на все вопросы есть готовые ответы и зачастую придется искать собственные работающие решения.\n\n✅От нас:\n\n- Все официальное и белое;\n- Помощь с релокацией, подъемные;\n- Комфортный офис в центре города;\n- Гибкое начало дня \n- Возможность предлагать собственные идеи и реализовывать их;\n - ДМС со стоматологией;\n - Оплачиваемое обучение, командировки на конференции;\n - Ежегодная переиндексация заработной платы\n- Оплачиваемые уроки англиского\n\nВопросы и портфолио направлять по адресу: \nhr_ru@artstation.com\n\nUPD. Уважаемые кандидаты, обратите внимание — удаленных сотрудников мы не рассматриваем. Пишите, пожалуйста, только если вы готовы переехать в Казань или уже в ней живете.","markup":[{"type":"hashtag","offset":0,"length":9,"data":"вакансия"},{"type":"hashtag","offset":10,"length":7,"data":"Казань"},{"type":"hashtag","offset":18,"length":4,"data":"Kzn"},{"type":"hashtag","offset":23,"length":5,"data":"офис"},{"type":"hashtag","offset":29,"length":9,"data":"fulltime"},{"type":"hashtag","offset":39,"length":10,"data":"релокация"},{"type":"hashtag","offset":50,"length":4,"data":"ios"},{"type":"hashtag","offset":55,"length":10,"data":"Developer"},{"type":"hashtag","offset":66,"length":12,"data":"разработчик"},{"type":"link","offset":2206,"length":20,"data":"mailto:hr_ru@artstation.com"}],"date":"2020-06-30T13:31:00+00:00","link":"tg://resolve?domain=xamarin_jobs&post=3426","tags":[{"name":"dotnet"},{"name":"csharp"},{"name":"mobile"},{"name":"ios"}],"cities":[{"code":"kazan"}],"allowsRemote":true}},{"node":{"__typename":"Job","id":"104071168000-1001089317451","title":"Qa engineer","text":"#вакансия #qaautomation #fulltime #удаленка #москва #криптериум\n\nQA automation engineer/QA engineer (100.000-250.000)\n\n\n\nПривет!\n\nМы команда Crypterium!\n\nМы международный финтех стартап.\n\nМы строим банк будущего, который поддерживает криптофиатные операции.\n\nНаша цель – создание сервиса, который фактически займёт место традиционных банков, по всем возможным банковским операциям!\n\nУ нас сложные, но интересные задачи по созданию крутого и по-настоящему полезного продукта для людей из разных стран по всему миру. Работа у нас-реальная возможность приложить руку к крутому продукту, которым будет пользоваться большое количество людей.\n\nНа данный момент наша компания активно растет и развивается, в связи с этим мы ищем QA autimation enginer .Нам нужен по-настоящему проактивный и ответственный сотрудник. Задач много, они разные и крайне интересные\n\n🟢Что предстоит делать?\n\n-Тестировать веб и мобильную версию нашего продукта (РФТ)\n\n-Фиксировать ошибки и писать отчёты по результатам тест-кейсов\n\n-Писать автотесты по тест-кейсам\n\n-Осуществлять исследовательское тестирование\n\n-Взаимодействовать с командой разработки\n\n🟢Какие skill’s мы хотим видеть в нашем будущем коллеге?\n\n-Опыт функционального тестирования web и mobile приложений от 1 года\n-Английский язык на уровне чтения документации\n-Опыт работы в Jira, Confluence\n-Написание автотестов на Java+JUnit\n-Опыт работы с Rest API\n-Знакомство с Postman, Fiddler, Swagger\n-Опыт работы в PostgreSQL\n-Понимание принципов CI/CD\n-Минимальные навыки программирования\n-Опыт написание автоматизированных тестов (Java+JUnit, Postman, Fiddler, Swagger, понимание Rest API)\n\n\n🟢Как преимущество:\n\n-Опыт проведения нагрузочного тестирования\n-Понимание, как работают основные сервисы AWS\n-Знание Kotlin/.Net\n-Опыт работы с TeamCity/GitLab\n\n\n🟢Что мы готовы предложить будущему коллеге?\n\n-По настоящему заряженная команда профессионалов\n-Офис в Москва Сити с видом на Москва реку\n-Удаленная работа, с возможностью приезжать в офис, гибкое начало рабочего дня (c 9 до 12)\n-Возможности профессионально развиваться и расти\n\nКонтакты: \nКристина +79161262306 (WhatsApp)\n@kriskrisych telegram\nИли пишите в ЛС.","markup":[{"type":"hashtag","offset":0,"length":9,"data":"вакансия"},{"type":"hashtag","offset":10,"length":13,"data":"qaautomation"},{"type":"hashtag","offset":24,"length":9,"data":"fulltime"},{"type":"hashtag","offset":34,"length":9,"data":"удаленка"},{"type":"hashtag","offset":44,"length":7,"data":"москва"},{"type":"hashtag","offset":52,"length":11,"data":"криптериум"},{"type":"link","offset":2085,"length":12,"data":"tel:+79161262306"},{"type":"handle","offset":2109,"length":12,"data":"kriskrisych"}],"date":"2020-06-30T12:31:02+00:00","link":"tg://resolve?domain=qa_jobs&post=99250","tags":[{"name":"qa"},{"name":"web"},{"name":"mobile"},{"name":"java"},{"name":"junit"},{"name":"rest"},{"name":"swagger"},{"name":"postgresql"},{"name":"amazon-web-services"},{"name":"kotlin"},{"name":"dotnet"},{"name":"gitlab"}],"cities":[{"code":"moscow"}],"allowsRemote":true}},{"node":{"__typename":"Job","id":"72346501120-1001054966032","title":"Ios разработчик","text":"#вакансия #Казань #Kzn #офис #fulltime #релокация #ios #Developer #разработчик\n\nMiddle IOS-разработчик\n\nКазань \nКомпания ArtStation Labs\nРоссийское подразделение ArtStation\nГоловной офис компании находится в Канаде. \nРаботая в ArtStation Labs вы каждый день будете плотно взаимодействовать с канадскими коллегами и обмениваться опытом.\n❗️Поэтому важен разговорный английский.\n\nФормат: Офис, фулл тайм. \n\nВилка: 100к-160к рублей / месяц\n\n✅ Что нужно будет делать:\n\n- Разрабатывать приложение Artstation под iOS\n\n- Взаимодействовать с командой для описания, разработки и релиза новых функций\n\n- Исправлять ошибки и повышать скорость работы приложения\n\n- Постоянно изучать, оценивать и внедрять новые технологии и быть в курсе изменений в экосистеме Apple\n\n✅ Пожелания к кандидату:\n\n- Реальный опыт работы разработчиком приложений под iOS. У вас должно быть как минимум одно приложение в AppStore.\n\n- Глубокое понимание экосистемы Apple и принципов работы социального приложения. Вы способны справиться со всеми специфичными для эппловской продукции проблемами и знаете, как их можно проработать/обойти. \n\n- Вы знакомы с принципами работы всех крупных социальных приложений.\n\n- Знание английского. Наша команда мультинациональная и мы все общаемся (каждый день!) на английском, устно и письменно.\n\n- Понимание принципов Agile/Scrum. Мы работаем по скраму. \n\n- Готовность работать в офисе. Наше российское подразделение работает в центре офиса в Казани, удаленная работа невозможна. Мы поможем с переездом, если вы в другом городе. Канадское подразделение работает в основном из Монреаля. Вам должно быть комфортно работать как с коллегами бок о бок, так и с удаленными сотрудниками.\n\n- Изобретательность и проактивность. Не на все вопросы есть готовые ответы и зачастую придется искать собственные работающие решения.\n\n✅От нас:\n\n- Все официальное и белое;\n- Помощь с релокацией, подъемные;\n- Комфортный офис в центре города;\n- Гибкое начало дня \n- Возможность предлагать собственные идеи и реализовывать их;\n - ДМС со стоматологией;\n - Оплачиваемое обучение, командировки на конференции;\n - Ежегодная переиндексация заработной платы\n- Оплачиваемые уроки англиского\n\nВопросы и портфолио направлять по адресу: \nhr_ru@artstation.com\n\nUPD. Уважаемые кандидаты, обратите внимание — удаленных сотрудников мы не рассматриваем. Пишите, пожалуйста, только если вы готовы переехать в Казань или уже в ней живете.","markup":[{"type":"hashtag","offset":0,"length":9,"data":"вакансия"},{"type":"hashtag","offset":10,"length":7,"data":"Казань"},{"type":"hashtag","offset":18,"length":4,"data":"Kzn"},{"type":"hashtag","offset":23,"length":5,"data":"офис"},{"type":"hashtag","offset":29,"length":9,"data":"fulltime"},{"type":"hashtag","offset":39,"length":10,"data":"релокация"},{"type":"hashtag","offset":50,"length":4,"data":"ios"},{"type":"hashtag","offset":55,"length":10,"data":"Developer"},{"type":"hashtag","offset":66,"length":12,"data":"разработчик"},{"type":"link","offset":2206,"length":20,"data":"mailto:hr_ru@artstation.com"}],"date":"2020-06-30T12:26:26+00:00","link":"tg://resolve?domain=mobile_jobs&post=68995","tags":[{"name":"mobile"},{"name":"ios"}],"cities":[{"code":"kazan"}],"allowsRemote":true}},{"node":{"__typename":"Job","id":"72341258240-1001054966032","title":"Mobile разработчик","text":"#Mobile #Xamarin #Android #iOS #crossplatform #Middle #Senior #Москва #удаленно\n\n#вакансия \"Разработчик мобильного приложения Xamarin\" \nУдаленная работа (возможна полная или частичная занятость)\n\nПредлагаемая заработная плата 800$ - 1500$ (50 000 – 100 000 рублей) на руки, либо ~ 500 - 600 т.р. за проект.\n______________________________________\n🔹Информация о Работодателе:\nВ качестве работодателя выступает известный фитнес-блогер из России. Есть несколько крупных спортивных проектов, один из которых сейчас масштабируется.\n__________________________________\n🔹Обязанности:\n- Участие в полном цикле разработки мобильных приложений, связанных с фитнес-сегментом;\n- Устранение неполадок и отладка для оптимизации производительности;\n- Взаимодействие с командой разработчиков и продукта для планирования задач;\n- Работа с требованиями, анализ и оценка сроков;\n- Тестирование пользовательского интерфейса.\n___________________________________\n🔹Основные требования: \n- Опыт кросс-платформенной разработки приложений от проектирования до публикации в Apple AppStore и Google PlayMarket;\n- Опыт разработки на C# от 2-х лет;\n- Опыт разработки Xamarin (Xamarin.Forms) приложений от 2 лет;\n- Знание принципов работы Rest API для коммуникации с бэкендом;\n- Опыт релизов и обновлений в Apple AppStore и Google PlayMarket;\n_______________________________\n🔹Условия: \n- Стабильно зарплата от 50 до 100 т.р. на руки; \n- Удаленная работа (полная или частичная занятость); \n- Дружный коллектив, оказывающий поддержку во всем; \n- Возможности внедрять идеи и инициативы; \n________________________________\n✔️Мы ищем разработчика, который сможет занять в будущем позицию Development Team Lead;\n✔️Если вы хотите принять участие в разработке сервиса, который в прямом смысле меняет жизни людей, то эта вакансия для вас!\n____________________________________\n📞Звонки/Telegram/WhatsApp +7 920 011 21 78\n\n📩Эл. почта для резюме: hello@upweb.cc","markup":[{"type":"hashtag","offset":0,"length":7,"data":"Mobile"},{"type":"hashtag","offset":8,"length":8,"data":"Xamarin"},{"type":"hashtag","offset":17,"length":8,"data":"Android"},{"type":"hashtag","offset":26,"length":4,"data":"iOS"},{"type":"hashtag","offset":31,"length":14,"data":"crossplatform"},{"type":"hashtag","offset":46,"length":7,"data":"Middle"},{"type":"hashtag","offset":54,"length":7,"data":"Senior"},{"type":"hashtag","offset":62,"length":7,"data":"Москва"},{"type":"hashtag","offset":70,"length":9,"data":"удаленно"},{"type":"hashtag","offset":81,"length":9,"data":"вакансия"},{"type":"link","offset":1864,"length":16,"data":"tel:+7 920 011 21 78"},{"type":"link","offset":1906,"length":14,"data":"mailto:hello@upweb.cc"}],"date":"2020-06-30T11:14:44+00:00","link":"tg://resolve?domain=mobile_jobs&post=68990","tags":[{"name":"mobile"},{"name":"android"},{"name":"ios"},{"name":"xamarin"},{"name":"rest"}],"cities":[{"code":"moscow"}],"allowsRemote":true}},{"node":{"__typename":"Job","id":"72334966784-1001054966032","title":"Ios разработчик","text":"#вакансия #iOS \n\nНа проект от Сбербанка требуется Middle iOS разработчик\n\nФормат: офис\n\nВилка ЗП: 160 000 - 200 000 рублей (net)\n\nЛокация: Москва\n\nТребования:\n- Опыт разработки под iOS (Objective-C или Swift) от 2 лет\n- Знание особенностей: Collections, Optionals, Protocol Oriented, Generics\n- Понимание, как происходит управление памятью в iOS\n- Понимание принципов проектирования SOLID\n- REST API, HTTP, JSON, APNs\n- Git, git flow\n\nБудет плюсом:\n- Умение писать UI тесты\n- Опыт в команде\n\nКонтакт: @mxm_at","markup":[{"type":"hashtag","offset":0,"length":9,"data":"вакансия"},{"type":"hashtag","offset":10,"length":4,"data":"iOS"},{"type":"bold","offset":30,"length":9,"data":""},{"type":"bold","offset":50,"length":22,"data":""},{"type":"bold","offset":74,"length":7,"data":""},{"type":"bold","offset":88,"length":9,"data":""},{"type":"bold","offset":130,"length":8,"data":""},{"type":"bold","offset":147,"length":11,"data":""},{"type":"bold","offset":435,"length":14,"data":""},{"type":"handle","offset":501,"length":7,"data":"mxm_at"}],"date":"2020-06-30T09:47:00+00:00","link":"tg://resolve?domain=mobile_jobs&post=68984","tags":[{"name":"mobile"},{"name":"ios"},{"name":"dotnet"},{"name":"objective-c"},{"name":"swift"},{"name":"rest"},{"name":"json"},{"name":"git"}],"cities":[{"code":"moscow"}],"allowsRemote":false}},{"node":{"__typename":"Job","id":"72331821056-1001054966032","title":"Android developer","text":"#вакансия #Android #удаленка #remote #Senior \n\nSenior\\Lead Android developer at Quality Wolves (remote)\n\nГород и адрес офиса: Новосибирск, Академгородок \nФормат работы: удаленка\nЗанятость: проектная/частичная (оплата по часам)\nЗарплатная вилка: 20-25$ в час\nОписание:\nЧто хотим: \nЧтобы ты был опытным и самостоятельным ИПшником из России. \nА также:\nJava, Kotlin, \nAndroid Architecture Components,\nRxJava2, Coroutines DI (Kodein, Dagger2) \nRealm, Room, etc. \nMVVM, MVP, etc. \nАнглийский язык уровня Intermediate\nУмение развивать существующий код \nНавыки многопоточного программирования\nУровень не ниже senior\nОпыт коммерческой разработки для Android от 5 лет. \nАдекватную оценку своих профессиональных компетенций\n\nЧто даем:\nГибкий график работы, удаленка, прозрачный и лояльный менеджмент, 20-25$ в час, с потенциальным ростом оплаты, команда квалифицированных и адекватных профессионалов, существующие, интересные, крупные рабочие проекты и постоянный приток новых. Мы не делаем trash for cash и тебя не попросим. \n\nКомпания: Quality Wolves подробнее про вакансию и компанию - https://www.quality-wolves.com/senior_android_dev\n\nКонтакты: @punfush anna@quality-wolves.com (резюме, портфолио)\nАутсаф и кадровые не беспокоить","markup":[{"type":"hashtag","offset":0,"length":9,"data":"вакансия"},{"type":"hashtag","offset":10,"length":8,"data":"Android"},{"type":"hashtag","offset":19,"length":9,"data":"удаленка"},{"type":"hashtag","offset":29,"length":7,"data":"remote"},{"type":"hashtag","offset":37,"length":7,"data":"Senior"},{"type":"link","offset":1078,"length":49,"data":"https://www.quality-wolves.com/senior_android_dev"},{"type":"handle","offset":1139,"length":8,"data":"punfush"},{"type":"link","offset":1148,"length":23,"data":"mailto:anna@quality-wolves.com"}],"date":"2020-06-30T09:21:46+00:00","link":"tg://resolve?domain=mobile_jobs&post=68981","tags":[{"name":"mobile"},{"name":"android"},{"name":"java"},{"name":"kotlin"},{"name":"realm"},{"name":"mvvm"}],"cities":[{"code":"novosibirsk"}],"allowsRemote":true}},{"node":{"__typename":"Job","id":"72329723904-1001054966032","title":"Android разработчик","text":"#вакансия #работа #Санкт_Петербург #Пермь #Казань  #middle #Android #Kotlin #RxJava\nГород: Санкт-Петербург, Казань, Пермь\nФормат работы: Офис (пока удаленка)\nЗанятость: Полная\nЗарплатная вилка от 120 net до 200 net  (зависит от уровня)\nКомпания: https://stream.ru/\nКонтакты: @Ntsama_IT\n\nМы Stream - делаем классные и реально удобные продукты для людей. 📣Сейчас находимся в поиске Android разработчика.📱\n\nСейчас у нас есть несколько проектов, куда мы ищем разработчиков. Подробнее по вакансиям здесь:\nhttps://spb.hh.ru/vacancy/37445336\nhttps://spb.hh.ru/vacancy/37365465\n\nМы ждём: \n🔹опыт разработки как на Kotlin, так и на Java;\n🔹опыт в работе с RxJava;\n\nУсловия:\n✅Гибкий график\n✅ДМС со стоматологией\n✅Компенсация мобильной связи\n✅Официальное оформление и \"белая\" зарплата + премии сверху оклада\n✅Возможность дополнительного обучения\nКонтакты: telegram - @Ntsama_IT \nпочта: eivanova@stream.ru","markup":[{"type":"hashtag","offset":0,"length":9,"data":"вакансия"},{"type":"hashtag","offset":10,"length":7,"data":"работа"},{"type":"hashtag","offset":18,"length":16,"data":"Санкт_Петербург"},{"type":"hashtag","offset":35,"length":6,"data":"Пермь"},{"type":"hashtag","offset":42,"length":7,"data":"Казань"},{"type":"hashtag","offset":51,"length":7,"data":"middle"},{"type":"hashtag","offset":59,"length":8,"data":"Android"},{"type":"hashtag","offset":68,"length":7,"data":"Kotlin"},{"type":"hashtag","offset":76,"length":7,"data":"RxJava"},{"type":"link","offset":246,"length":18,"data":"https://stream.ru/"},{"type":"handle","offset":275,"length":10,"data":"Ntsama_IT"},{"type":"link","offset":502,"length":34,"data":"https://spb.hh.ru/vacancy/37445336"},{"type":"link","offset":537,"length":34,"data":"https://spb.hh.ru/vacancy/37365465"},{"type":"handle","offset":858,"length":10,"data":"Ntsama_IT"},{"type":"link","offset":877,"length":18,"data":"mailto:eivanova@stream.ru"}],"date":"2020-06-30T09:03:06+00:00","link":"tg://resolve?domain=mobile_jobs&post=68979","tags":[{"name":"mobile"},{"name":"android"},{"name":"kotlin"},{"name":"dotnet"},{"name":"java"}],"cities":[{"code":"perm"},{"code":"kazan"}],"allowsRemote":true}},{"node":{"__typename":"Job","id":"72327626752-1001054966032","title":"Mobile программист","text":"#вакансия #ios #swift #middle\nФормат работы: удаленная\nГород: Киев/Харьков\nЗанятость: полная\nз/п: 2000-3000$\n\nMiddle Ios Swift +RXSwift Developer (Mobile Apps)\n🔥🔥🔥\n\nИщем опытного Ios Swift программиста в продуктовую компанию.\nТребования:\n- 2+ лет в ios разработке (Swift);\n- Солидный бекграунд в OOP и нативной разработке;\n- Понимание всего цикла разработки мобильного приложения;\n- Опыт работы с алгоритмами, базами данных и комплексным анализом ;\n- MVP, MVVM;\n- Опыт работы с реактивным кодом (RXSwift);\n- Интеграция REST API;\n- Опыт с GIT, BitBucket, JIRA;\n\nБудет плюсом:\n- Опыт работы с Firebase, FCM;\n- Знание гайдлайнов и екосистемы ios ;\n- Опыт работы с CocoaPods (Alamofire, PromiseKit, Starscream, - Kingsfisher, RxSwift, DifferenceKit).\n\nЧто мы предлагаем:\n- Дружный коллектив;\n- Удаленный формат работы (на период карантина);\n- Гибгий график;\n- Конкурентную з/п;\n- Личностное и профессиональное развитие.\n📍Писать сюда: @vortex007","markup":[{"type":"hashtag","offset":0,"length":9,"data":"вакансия"},{"type":"hashtag","offset":10,"length":4,"data":"ios"},{"type":"hashtag","offset":15,"length":6,"data":"swift"},{"type":"hashtag","offset":22,"length":7,"data":"middle"},{"type":"bold","offset":110,"length":49,"data":""},{"type":"handle","offset":934,"length":10,"data":"vortex007"}],"date":"2020-06-30T08:51:50+00:00","link":"tg://resolve?domain=mobile_jobs&post=68977","tags":[{"name":"mobile"},{"name":"ios"},{"name":"swift"},{"name":"mvvm"},{"name":"rest"},{"name":"git"},{"name":"firebase"},{"name":"cocoapods"}],"cities":[{"code":"kiev"}],"allowsRemote":true}}]}}},"context":{}}