{"hash":"f5f6bf98bd95e769321482904cbbd488f77922fd","data":{"records":{"id":"javascript","name":"javascript","belongsTo":{"totalCount":272,"pageInfo":{"totalPages":28,"currentPage":2},"edges":[{"node":{"__typename":"Job","id":"17338204160-1001110946746","title":"Js developer","text":"#вакансия \n\nГород и адрес офиса: Москва (Калужская) или remote\nФормат работы: удаленка\nЗанятость: проектная\nЗарплатная вилка: от 90000 до 140000 руб / мес, для опытных возможен part-time (4 часа в день)\nОписание вакансии: JavaScript Node.js Developer\n\n📲 Кто мы?\n\n→ Компания Axept занимается консалтингом и заказной разработкой программных продуктов.\n→ Наши клиенты – Интернет-компании, профессиональные стартапы и крупные корпорации (Россия, Европа, Сингапур, Японии, США).\n→ Текущий портфель проектов – Личные кабинеты, ERP, Поисковые системы, CRM, Dashboards, Социальные сети, мобильные приложения.\n→ Центр разработки находится в Москве. Но 70% сотрудников работают удалённо по всему миру.\n→ Ключевой момент — мы относимся к проектам наших клиентов ❤️, как к своим собственным, с любовью и максимальной ответственностью.\n→ Много лет команнда Axept развивает сообщества Node.js, React.js и Kubernetes в России.\n→ Мы искренне любим то, что делаем и постоянно улучшаемся. Более подробно здесь – www.axept.com/ru-ru/jobs\n\n🎸 Задачи:\n\n1. Разработка Backend для ERP-платформы (Node.js, TypeScript, PostgreSQL, Redis, Express.js, Knex.js, Passport)\n2. Реализация REST API по модели www.jsonapi.org\n3. Документирование разрабатываемого REST API на Swagger или Apiary \n4. Разработка WebSockets-интерфейса\n\n🏆 Для этого вам потребуется:\n\n1. Опыт работы с PostgreSQL и Redis на уровне прямых коннекторов и knex (включая миграции)\n2. Понимание базовых принципов построения отказоустойчивой архитектуры\n3. Взаимодействие с файловой системой\n4. Свободное владение TypeScript\n5. Опыт работы с Express.js, Sentry и логгерами (Bunyan)\n6. Ваши будущие коллеги на Front-end используют React.js, поэтому понимае React.js и Redux будет плюсом\n7. Желание и готовность активно развиваться 🙂\n\n🎁 Что мы предлагаем?\n\n1. Полнностью удаленная работа (remote).\n2. Сильная команда коллег.\n3. Проекты и задачи, которые реально развивают.\n4. Оформление по ТК РФ. ЗП два раза в месяц.\n5. Опционально – ДМС, конференции, тренинги.\n6. Возможность присоединниться в офисе в БЦ НеоГео (Калужская) – самом стильном и награждаемом БЦ Москвы. В офисе новая техника от iMac до Dell, завтраки, M&Ms и прочие радости.\n7. Быстрая прокачка и гордость за результаты достигнутые вместе.\n8. Админка в @nodejs_ru (шутка).\n\n📩 Напишите краткий рассказ о себе и приложение резюме, отправьте сообщение @DenisIzmaylov или на @AxeptJobs или jobs@ru.axept.com","markup":[{"type":"hashtag","offset":0,"length":9,"data":"вакансия"},{"type":"link","offset":995,"length":24,"data":"http://www.axept.com/ru-ru/jobs"},{"type":"link","offset":1178,"length":15,"data":"http://www.jsonapi.org"},{"type":"handle","offset":2258,"length":10,"data":"nodejs_ru"},{"type":"handle","offset":2355,"length":14,"data":"DenisIzmaylov"},{"type":"handle","offset":2377,"length":10,"data":"AxeptJobs"},{"type":"link","offset":2392,"length":17,"data":"mailto:jobs@ru.axept.com"}],"date":"2020-07-02T18:48:53+00:00","link":"tg://resolve?domain=javascript_jobs_feed&post=16535","tags":[{"name":"javascript"},{"name":"nodejs"},{"name":"reactjs"},{"name":"kubernetes"},{"name":"typescript"},{"name":"postgresql"},{"name":"redis"},{"name":"express"},{"name":"rest"},{"name":"swagger"},{"name":"redux"},{"name":"react-redux"}],"cities":[{"code":"moscow"},{"code":"singapore"}],"allowsRemote":true}},{"node":{"__typename":"Job","id":"17337155584-1001110946746","title":"Js разработчик","text":"#вакансия #node.js #typescript #офис #москва #мск #remote #удаленка \nГород и адрес офиса:  #москва #мск  #арбатская\nФормат работы: офис, фултайм, гибкий график, можно удаленно (с редкими встречами в мск, поэтому важно, чтобы вы жили не очень далеко от мск)\nЗанятость: полная\nЗарплатная вилка: 180-250 т.р. net \nОписание вакансии: \nИщу сейчас Node.js разработчика в финтех проект (Openbanking, psd2) -  это новый продукт в онлайн покупках на европейском рынке, со своей «платежкой», которое сделает эту сферу более технологичной и еще проще и доступнее для пользователей:\n- новое удобное решение для b2c клиентов (мобильное приложение)\n- выгодные условия для b2b партнеров (низкие комиссии за транзакции)\n\nОформление белое, проект полностью с нуля, только собираем команду, есть возможность максимального влияния на продукт, на выбор технологий и построение процессов.\n\nНазвание компании:  Star-Staff\nКонтакты: пишите на этот тг @yuliaataman","markup":[{"type":"hashtag","offset":0,"length":9,"data":"вакансия"},{"type":"hashtag","offset":10,"length":5,"data":"node"},{"type":"hashtag","offset":19,"length":11,"data":"typescript"},{"type":"hashtag","offset":31,"length":5,"data":"офис"},{"type":"hashtag","offset":37,"length":7,"data":"москва"},{"type":"hashtag","offset":45,"length":4,"data":"мск"},{"type":"hashtag","offset":50,"length":7,"data":"remote"},{"type":"hashtag","offset":58,"length":9,"data":"удаленка"},{"type":"hashtag","offset":91,"length":7,"data":"москва"},{"type":"hashtag","offset":99,"length":4,"data":"мск"},{"type":"hashtag","offset":105,"length":10,"data":"арбатская"},{"type":"handle","offset":928,"length":12,"data":"yuliaataman"}],"date":"2020-07-02T17:44:34+00:00","link":"tg://resolve?domain=javascript_jobs_feed&post=16534","tags":[{"name":"javascript"},{"name":"nodejs"},{"name":"typescript"},{"name":"dotnet"}],"cities":[{"code":"moscow"}],"allowsRemote":true}},{"node":{"__typename":"Job","id":"17334009856-1001110946746","title":"Js developer","text":"#вакансия #fulltime #backend #js #node\nBackend developer\nГород: Москва\nФормат работы: удаленная работа \nЗанятость: полная\nДиапазон: от 250 до 700 руб./ч\n\nОписание вакансии: Проект связан с сферой обучения. Задачи разработкa rest api и базы данных.\nСтек технологий: \n-node.js;\n- express.js;\n- sockets.\n\nКомпания: Secreate\nКонтакты: telegram @karysha","markup":[{"type":"hashtag","offset":0,"length":9,"data":"вакансия"},{"type":"hashtag","offset":10,"length":9,"data":"fulltime"},{"type":"hashtag","offset":20,"length":8,"data":"backend"},{"type":"hashtag","offset":29,"length":3,"data":"js"},{"type":"hashtag","offset":33,"length":5,"data":"node"},{"type":"handle","offset":340,"length":8,"data":"karysha"}],"date":"2020-07-02T16:35:35+00:00","link":"tg://resolve?domain=javascript_jobs_feed&post=16531","tags":[{"name":"javascript"},{"name":"nodejs"},{"name":"rest"},{"name":"express"}],"cities":[{"code":"moscow"}],"allowsRemote":true}},{"node":{"__typename":"Job","id":"17331912704-1001110946746","title":"Js разработчик","text":"Greenatom.ru\n#вакансия #Москва #javascript #React #Typescript #Node.js #Middle #Senior #удаленка #удаленная работа \n\n👨🏼‍💻 Middle/Senior Frontend Developer, Middle/Senior Backend Developer\nГород и адрес офиса: #Москва, БЦ Сириус Парк, метро Нагатинская\n\n✅Формат работы: \nУДАЛЕННАЯ РАБОТА\n\n💻Занятость: полная, гибкое начало трудового дня.\n\nЗарплатная вилка: от 170 000 до 230 000 руб. на руки.\n\n🏢Компания: АО Гринатом\n\nПривет! Мы растём и активно развиваем ряд внутренних проектов: например, корпоративный портал, горячая линия, собственная кадровая система для 400 предприятий! \nМы формируем НЕСКОЛЬКО КОМАНД, общей численностью более 60 человек и ищем классных:\n\n✅ФРОНТЕНД  разработчиков;\n\n✅БЭКЕНД разработчиков. \n\nПроекты в стадии разработки пилота и у тебя есть возможность повлиять на дальнейшее развитие продукта. Если у тебя есть крутые идеи - ты сможешь их здесь реализовать! Откликайся сам и зови друзей! Вирус пройдёт, работа останется!\n\n✅Требуемые знания и навыки:\n- Опыт разработки от двух лет\n- Хорошее знание чистого JS\n- Опыт работы с TypeScript\n- React, MobX, Less/Sass\n- Опыт написания юнит-тестов с помощью Jest, Enzymе очень приветствуется\n\n💡Наш стек:\n      React, TypeScript, Node.js, MobX, Docker\n\nМы работаем по Scrum.\n\n✅Условия:\n- Полная удаленка \n(Если тебе нравится работать в офисе, мы не против)\n- Официальное оформление в штат по ТК, белая зп;\n- Бессрочный трудовой договор; \n- Годовой бонус;\n- Возможности профессионального и карьерного роста;\n- Дополнительные 3 дня к отпуску;\n- Плавающее начало дня;\n- ДМС со стоматологией.\n\n☎️Контакты:\nЮлия - YAnZueva@Greenatom.ru","markup":[{"type":"link","offset":0,"length":12,"data":"http://Greenatom.ru"},{"type":"hashtag","offset":13,"length":9,"data":"вакансия"},{"type":"hashtag","offset":23,"length":7,"data":"Москва"},{"type":"hashtag","offset":31,"length":11,"data":"javascript"},{"type":"hashtag","offset":43,"length":6,"data":"React"},{"type":"hashtag","offset":50,"length":11,"data":"Typescript"},{"type":"hashtag","offset":62,"length":5,"data":"Node"},{"type":"hashtag","offset":71,"length":7,"data":"Middle"},{"type":"hashtag","offset":79,"length":7,"data":"Senior"},{"type":"hashtag","offset":87,"length":9,"data":"удаленка"},{"type":"hashtag","offset":97,"length":10,"data":"удаленная"},{"type":"hashtag","offset":212,"length":7,"data":"Москва"},{"type":"link","offset":1579,"length":21,"data":"mailto:YAnZueva@Greenatom.ru"}],"date":"2020-07-02T16:34:22+00:00","link":"tg://resolve?domain=javascript_jobs_feed&post=16529","tags":[{"name":"javascript"},{"name":"reactjs"},{"name":"typescript"},{"name":"nodejs"},{"name":"sass"},{"name":"docker"}],"cities":[{"code":"moscow"}],"allowsRemote":true}},{"node":{"__typename":"Job","id":"17330864128-1001110946746","title":"Javascript developer","text":"#вакансия\n\nГород: Москва\nФормат: удаленка\nЗанятость: полная\nВилка: 100-200к на руки\n\nПривет! Я основатель Дневника - клиент для электронных дневников\nМы ищем Senior/Middle Full Stack Developer. Особый бонус, если ты крут в React Native\n\nПочему мы:\n🇷🇺 Твой код будет влиять на сотни тысяч людей. У нас 600 тысяч пользователей (в следующем году будет 1.2М), большая часть пользуется продуктом каждый день. Мы тестируем 4+ гипотез в месяц и получаем результаты очень быстро. Ты сможешь видеть, как твой код помогает приложению расти ещё больше.\n\n📈 Дневник прибылен и развивается на свои деньги — это максимализирует свободу и принцип \"шкура на кону\". Мы нашли product-market fit и растем каждый год в 3 раза. Прекрасный момент, чтобы присоединиться к команде.\n\n🔥 Мы не боимся. У Дневника насыщенная история: нас блокировало государство, но мы продолжили работать. Нас даже упомянули в статье Голунова. Сегодня все хорошо, мы можем спокойно идти к нашей миссии\n\n\nПолное описание компани и вакансии тут ->\nhttps://www.notion.so/Senior-Middle-Full-Stack-Developer-439a011d96df47809ed4ffc089d18b09\n\n\nКонтакты:\n@levan","markup":[{"type":"hashtag","offset":0,"length":9,"data":"вакансия"},{"type":"link","offset":1005,"length":89,"data":"https://www.notion.so/Senior-Middle-Full-Stack-Developer-439a011d96df47809ed4ffc089d18b09"},{"type":"handle","offset":1107,"length":6,"data":"levan"}],"date":"2020-07-02T16:34:06+00:00","link":"tg://resolve?domain=javascript_jobs_feed&post=16528","tags":[{"name":"javascript"},{"name":"reactjs"},{"name":"react-native"}],"cities":[{"code":"moscow"}],"allowsRemote":true}},{"node":{"__typename":"Job","id":"17329815552-1001110946746","title":"Js разработчик","text":"#вакансия #vue #vuex #frontend\nМосква, м. Цветной бульвар (2 мин до офиса), фулл тайм в офис на полную занятость\nЗарплатная вилка: от 90 до 180 т.р.\nJETSTAT \n\nОписание вакансии: \nМы делаем инструмент (ETL), который помогает упростить работу пользователей с отчетами.\nМы подключаемся к различным сервисам: рекламным, аналитическим, базам данных и тд, чтобы с помощью автоматизации решать задачи для аналитики и маркетинга.\n\nИщем frontend разработчика для нашей аналитической платформы. У тебя будет самостоятельность в принятии решений, например построение архитектуры.\nПроцессы не строго регламентированы и мы прислушиваемся ко мнению каждого при планировании спринтов.\n\nТебе предстоит:\n\n- разрабатывать сложные интерактивных интерфейсы на JS с использованием Vue;\n- разрабатывать архитектуру проекта со стороны frontend.\n\nМы ожидаем:\n\n- знание JS (ES5 / ES6);\n- знание Vue.js, Vuex Webpack;\n- знание и понимание клиент-серверного взаимодействия;\n- умение работать с REST-API; \n- HTML5, CSS3.\n\nБудет плюсом:\n\n- опыт тестирования кода (мы используем mocha, chai и sinon);\n- WebSockets (используем socket-io).\n\nhttps://jetstat.io/workflow \n\nКонтакты: @diana131313","markup":[{"type":"hashtag","offset":0,"length":9,"data":"вакансия"},{"type":"hashtag","offset":10,"length":4,"data":"vue"},{"type":"hashtag","offset":15,"length":5,"data":"vuex"},{"type":"hashtag","offset":21,"length":9,"data":"frontend"},{"type":"link","offset":1110,"length":27,"data":"https://jetstat.io/workflow"},{"type":"handle","offset":1150,"length":12,"data":"diana131313"}],"date":"2020-07-02T16:33:11+00:00","link":"tg://resolve?domain=javascript_jobs_feed&post=16527","tags":[{"name":"javascript"},{"name":"vuejs"},{"name":"webpack"},{"name":"rest"},{"name":"html"},{"name":"css"},{"name":"mocha"}],"cities":[{"code":"moscow"}],"allowsRemote":false}},{"node":{"__typename":"Job","id":"17328766976-1001110946746","title":"Js разработчик","text":"#вакансия #angularjs #react #москва #javascript #typescript\n\nГород: Москва (ст.м. Аэропорт).\n\nФормат работы: remote.\n\nЗанятость: полная. \n\nВилка: 100-200 т.р. на руки.\n\nПрофессиональные знания:\nУверенное знание HTML, CSS, JavaScript\nОпыт работы с Angular 2+, будет плюсом опыт работы с react, redux\nОтличное знание JavaScript (ES5, ES6+) и TypeScript\nОпыт верстки (css, stylus, sass) \n\nФункционал:\n\n• Проектирование, разработка клиентской части систем дистанционного банковского обслуживания, тестирование и выпуск обновлений.\n\n• Рефакторинг Legacy кода;\n\n• Участие в оценке сроков, трудоёмкости и проектирование приложений.\n\n\nНазвание компании: Локо-Банк\nhttps://www.lockobank.ru//\nhttps://hh.ru/vacancy/37795548\n\nКонтакты: @hrlocko","markup":[{"type":"hashtag","offset":0,"length":9,"data":"вакансия"},{"type":"hashtag","offset":10,"length":10,"data":"angularjs"},{"type":"hashtag","offset":21,"length":6,"data":"react"},{"type":"hashtag","offset":28,"length":7,"data":"москва"},{"type":"hashtag","offset":36,"length":11,"data":"javascript"},{"type":"hashtag","offset":48,"length":11,"data":"typescript"},{"type":"link","offset":656,"length":26,"data":"https://www.lockobank.ru//"},{"type":"link","offset":683,"length":30,"data":"https://hh.ru/vacancy/37795548"},{"type":"handle","offset":725,"length":8,"data":"hrlocko"}],"date":"2020-07-02T16:32:21+00:00","link":"tg://resolve?domain=javascript_jobs_feed&post=16526","tags":[{"name":"javascript"},{"name":"angularjs"},{"name":"reactjs"},{"name":"typescript"},{"name":"html"},{"name":"css"},{"name":"redux"},{"name":"sass"},{"name":"react-redux"}],"cities":[{"code":"moscow"}],"allowsRemote":true}},{"node":{"__typename":"Job","id":"17327718400-1001110946746","title":"Js разработчик","text":"#вакансия #удаленка #работа #js #javascript #разработчик\n\nГород и адрес офиса: Тель-Авив \nФормат работы: удаленка\nЗанятость: полная, гибкий график.\n\nЗарплатная вилка: 5500-6000$/мес. (Почасовая оплата 35$/час + ежемесячный бонус 250$)\n\nНалоги платите по месту жительства. ИП 6%. Если патент, то он зависит от места жительства. В Подмосковье 12 000 руб в год. В Москве 300 тыс. в год. Как сами оформите налоги, так и платите. \n\nИщу разработчика к нам в команду: израильский проект Luminati (https://luminati.io).  Full-Stack. Компания разрабатывает несколько продуктов, в том числе p2p vpn, видео cdn нового поколения http://holaspark.com/\nОфис в Тель-Авиве, работа удаленная! График свободный. Что нам нужно:\n\n • Knowledge in Node JS framework: ExpressJS, Promise - Experience with MongoDB \n- Creating RESTful web services/API’s using Node.js with or without framework assistance \n\n- JavaScript-based unit testing tools \n\n- Client-side browser technologies including JavaScript, CSS, and HTML \n\n- 1 year development experience in Node JS with a solid working knowledge of frameworks and architecture \n\n- 2+ year’s overall development experience using JavaScript and open web technologies \n\n- хороший английский язык, идеальная грамматика не обязательна \n\n • работа удаленная, 7-9 часов в день (по желанию)\n • зарплата от 35$/час (+фиксированный бонус 250$ ежемесячно), через полгода повышается\n • после того, как откроют границы и будут возможны перелёты - выезд в офис на заключение контракта (перед этим возможно заключение с электронной подписью), отель и перелет за счет компании, море под окном\n\nОтвечу на все вопросы:)\n\nИнстаграмм https://instagram.com/hola_better_internet\n\nРезюме сюда:  luda.hola@gmail.com","markup":[{"type":"hashtag","offset":0,"length":9,"data":"вакансия"},{"type":"hashtag","offset":10,"length":9,"data":"удаленка"},{"type":"hashtag","offset":20,"length":7,"data":"работа"},{"type":"hashtag","offset":28,"length":3,"data":"js"},{"type":"hashtag","offset":32,"length":11,"data":"javascript"},{"type":"hashtag","offset":44,"length":12,"data":"разработчик"},{"type":"link","offset":490,"length":19,"data":"https://luminati.io"},{"type":"link","offset":617,"length":21,"data":"http://holaspark.com/"},{"type":"link","offset":1637,"length":42,"data":"https://instagram.com/hola_better_internet"},{"type":"link","offset":1695,"length":19,"data":"mailto:luda.hola@gmail.com"}],"date":"2020-07-02T16:31:59+00:00","link":"tg://resolve?domain=javascript_jobs_feed&post=16525","tags":[{"name":"javascript"},{"name":"nodejs"},{"name":"mongodb"},{"name":"web"},{"name":"css"},{"name":"html"},{"name":"unit-testing"}],"cities":[],"allowsRemote":true}},{"node":{"__typename":"Job","id":"17326669824-1001110946746","title":"Js разработчик","text":"#вакансия #удаленка #fulltime #react #node #typescript \n\nГород: Москва\nФормат: удалённая работа\nЗанятость: полная\nЗарплатная вилка: от 150к до 250к на руки.\n\nВ российскую геймдев компанию требуется опытный TypeScript разработчик для разработки нового и доработок текущего функционала проекта на Node.js/React.\n\nНа протяжении 10 лет компания занимается разработкой, лицензированием и локализацией многопользовательских онлайн-игр. На сегодняшний день наш портфель состоит из игровых проектов разных жанров, включая легендарные MMO TERA, «Ботва», Music Wars и др. Некоторые разработки получили признание в Европе и Северной Америке.\n\nТребования:\n• React.js (React Hooks, JSX)\n• State Management (Redux)\n• Node.js\n• TypeScript\n• HTML5\n, CSS3 / SCSS \n• REST API\n• WebSocket\n• Опыт работы c PostgreSQL\n• Опыт работы с Redis\n• Bash\n• Docker\n• Git\n\nПриветствуется:\n• Docker + docker-compose\n• Angular (8+)\n• Опыт работы с криптовалютами и мастернодами\n• Умение быстро разбираться с новыми технологиями\n\nУсловия:\n• дружная и профессиональная команда (средний возраст которой 27 лет)\n• отличная возможность с головой погрузиться в мир гейм-индустрии\n• удаленная работа из любой точки мира, гибкий график\n\nПо всем вопросам: @rjaidy","markup":[{"type":"hashtag","offset":0,"length":9,"data":"вакансия"},{"type":"hashtag","offset":10,"length":9,"data":"удаленка"},{"type":"hashtag","offset":20,"length":9,"data":"fulltime"},{"type":"hashtag","offset":30,"length":6,"data":"react"},{"type":"hashtag","offset":37,"length":5,"data":"node"},{"type":"hashtag","offset":43,"length":11,"data":"typescript"},{"type":"handle","offset":1214,"length":7,"data":"rjaidy"}],"date":"2020-07-02T16:31:36+00:00","link":"tg://resolve?domain=javascript_jobs_feed&post=16524","tags":[{"name":"javascript"},{"name":"reactjs"},{"name":"nodejs"},{"name":"typescript"},{"name":"redux"},{"name":"html"},{"name":"css"},{"name":"rest"},{"name":"websocket"},{"name":"postgresql"},{"name":"redis"},{"name":"bash"},{"name":"docker"},{"name":"git"},{"name":"angularjs"},{"name":"docker-compose"}],"cities":[{"code":"moscow"}],"allowsRemote":true}},{"node":{"__typename":"Job","id":"17325621248-1001110946746","title":"Js developer","text":"#вакансия #frontend #react  #senior #мbycr #офис #fulltime #релокация в литву #минск\n\nПозиция – Frontend developer (senior)\n\nКомпания – ThiNKT Digital\n\nЛокация – Работать в Литве. Возможна релокация из РБ\n\nЗанятость – полная, офис, гибкое время начала дня\n\nОплата: от 2 000 до 3 400 евро на руки\n\nРелокационный пакет - оплата 1 мес аренды кв и переезд\n\n The Role \n• Discuss the client‘s needs to propose the best solution • Develop responsive web applications • Keep up to date with terminology, concepts and best practices for coding web applications • Work closely with colleagues to constantly innovate product functionality and design • Architect customer-centric front-end part of the solution • Collaborate with Venture Managers and engage with development teams \n   We offer\n • Participation in a dynamic startup solving challenges in the energy sector & beyond • Responsibility over a wide portfolio of products  • Access to large network of startups & corporates through our various partnerships • A great international exposure, and a diverse team with extensive & rich experiences  • Competitive compensation package & flexible work schedule  \n \n       Your Background \n● Solid foundation in web application front-end development ● You know what are the best UI & UX practices ● Experience with front-end programming languages such as HTML, CSS,  Javascript, ReactJS, etc ● Experience in software process models such as Agile / Scrum / etc ● Well-rounded interpersonal and communication skills to work in flexible teams ● You are Problem solver, and very interested in technology-related entrepreneurial start-up projects. ● Relevant experience with Node or other backend programming languages would be a plus ● Experience with Azure or Amazon Web Service (AWS) would be a huge plus ● Relevant experience 3-5 years ● Required language: English \n \n \n\n\n\n☎️ Контакты для обсуждения вакансии:\n\ntelegram @veroneko","markup":[{"type":"hashtag","offset":0,"length":9,"data":"вакансия"},{"type":"hashtag","offset":10,"length":9,"data":"frontend"},{"type":"hashtag","offset":20,"length":6,"data":"react"},{"type":"hashtag","offset":28,"length":7,"data":"senior"},{"type":"hashtag","offset":36,"length":6,"data":"мbycr"},{"type":"hashtag","offset":43,"length":5,"data":"офис"},{"type":"hashtag","offset":49,"length":9,"data":"fulltime"},{"type":"hashtag","offset":59,"length":10,"data":"релокация"},{"type":"hashtag","offset":78,"length":6,"data":"минск"},{"type":"handle","offset":1910,"length":9,"data":"veroneko"}],"date":"2020-07-02T16:31:22+00:00","link":"tg://resolve?domain=javascript_jobs_feed&post=16523","tags":[{"name":"javascript"},{"name":"reactjs"},{"name":"web"},{"name":"ms-access"},{"name":"html"},{"name":"css"},{"name":"nodejs"},{"name":"azure"},{"name":"amazon-web-services"}],"cities":[{"code":"minsk"}],"allowsRemote":false}}]}}},"context":{}}