{"hash":"f5f6bf98bd95e769321482904cbbd488f77922fd","data":{"records":{"id":"java","name":"java","belongsTo":{"totalCount":242,"pageInfo":{"totalPages":25,"currentPage":16},"edges":[{"node":{"__typename":"Job","id":"71643955200-1001054966032","title":"Android разработчик","text":"#вакансия #android #java #kotlin #middle #senior #удаленка #remote #fulltime\n\nAndroid-разработчик удаленно от 200 тыс. руб.\n\nГород: Москва\nФормат работы: удаленно\nЗанятость: полная\nЗарплатная вилка: от 200 000 руб. до 250 000 руб. после налогообложения\nКомпания: CORE https://core.company\n\nМы команда разработчиков мобильных приложений и сейчас мы ищем Android-разработчика для одного из наших финтех-проектов.\n\nОсновные требования:\n— Опыт работы от 2-х лет;\n— Знание Java и Kotlin;\n— Опыт работы с Rx;\n— Знание шаблонов проектирования и умение их применять;\n— Понимание принципов SOLID;\n— Знание основных алгоритмов и структур данных;\n— Умение писать поддерживаемый и тестируемый код.\n\nУсловия:\n— Полный день, гибкий график;\n— Оформление по договору ГПХ.\n\nПрисылайте ваше резюме на @tv_corecompany","markup":[{"type":"hashtag","offset":0,"length":9,"data":"вакансия"},{"type":"hashtag","offset":10,"length":8,"data":"android"},{"type":"hashtag","offset":19,"length":5,"data":"java"},{"type":"hashtag","offset":25,"length":7,"data":"kotlin"},{"type":"hashtag","offset":33,"length":7,"data":"middle"},{"type":"hashtag","offset":41,"length":7,"data":"senior"},{"type":"hashtag","offset":49,"length":9,"data":"удаленка"},{"type":"hashtag","offset":59,"length":7,"data":"remote"},{"type":"hashtag","offset":67,"length":9,"data":"fulltime"},{"type":"link","offset":268,"length":20,"data":"https://core.company"},{"type":"handle","offset":783,"length":15,"data":"tv_corecompany"}],"date":"2020-06-19T11:49:24+00:00","link":"tg://resolve?domain=mobile_jobs&post=0","tags":[{"name":"mobile"},{"name":"android"},{"name":"java"},{"name":"kotlin"}],"cities":[{"code":"moscow"}],"allowsRemote":true}},{"node":{"__typename":"Job","id":"103265861632-1001089317451","title":"Qa engineer","text":"#вакансия #удаленно #частичная #QA #Automation #Java #нетология\n\n❗️«Нетология» ищет QA Automation Engineer на Java уровня middle и выше для преподавания на курсах.\nРабота частичная/удаленная❗️\n\nВ чем можно участвовать: \n📌Проводить лекции и открытые занятия для студентов, быть для них тренером, помогать делать дипломный проект\n📌Участвовать в создании новых образовательных программ, быть автором курса\n\nЧто мы предлагаем: \n🔹Удаленную работу, которую можно совмещать с основной (объем, занятость обсуждаются индивидуально)\n🔹Личный PR как эксперта\n🔹Возможность прокачивать спикерские навыки и быть частью сообщества экспертов одной из лучших IT-компаний\n🔹З/п в зависимости от объема занятости ( до 100 тыс. руб.)\n\nУспешные специалисты, которые работают у нас, рассказывают о том, как это повлияло на их жизнь и карьеру ➡️//habr.com/ru/company/netologyru/blog/423023/\n\nУзнать подробнее о вакансии и отправить резюме: a.ogarkowa@netology.ru или сюда @mileyet","markup":[{"type":"hashtag","offset":0,"length":9,"data":"вакансия"},{"type":"hashtag","offset":10,"length":9,"data":"удаленно"},{"type":"hashtag","offset":20,"length":10,"data":"частичная"},{"type":"hashtag","offset":31,"length":3,"data":"QA"},{"type":"hashtag","offset":35,"length":11,"data":"Automation"},{"type":"hashtag","offset":47,"length":5,"data":"Java"},{"type":"hashtag","offset":53,"length":10,"data":"нетология"},{"type":"link","offset":828,"length":43,"data":"http://habr.com/ru/company/netologyru/blog/423023/"},{"type":"link","offset":921,"length":22,"data":"mailto:a.ogarkowa@netology.ru"},{"type":"handle","offset":953,"length":8,"data":"mileyet"}],"date":"2020-06-19T10:09:11+00:00","link":"tg://resolve?domain=qa_jobs&post=0","tags":[{"name":"qa"},{"name":"java"}],"cities":[],"allowsRemote":true}},{"node":{"__typename":"Job","id":"1711276032-1001091028994","title":"Java developer","text":"#вакансия #java #developer #middle #senior #relocate\n\nJava Developer\nКомпания: Interactive Brokers\nЛокация: Таллин\nЗанятость: fulltime\nЗ/п: 3.5-5К € \nКонтакты: @observer69\n\nProduct: is a low cost provider of trade execution and clearing services for individuals,\nadvisors, proprietary trading groups, brokers and hedge funds. IBKR’s premier technology\nprovides electronic access to stocks, options, futures, forex, bonds and funds on over 100\nmarkets worldwide from a single IBKR Universal account. Interactive Brokers Group’s\n(IBG) headquarters are in Greenwich, CT. IBG has offices throughout the United States,\nSwitzerland, Canada, Hong Kong, the United Kingdom, Australia, Hungary, Russia, India,\nChina and Estonia.\n\nУсловия\n● Salary level: from 3500 to 5000 euros gross, but no strict limits, have never rejected a\ncandidate due to their salary request\n● Benefits:\n- discretionary salary raise in the end of each calendar year\n- discretionary cash and stock bonus in the end of each calendar year\n- lunch paid by the company (up to 7.50 EUR/day)\n- dental/vision expenses compensation of 205 EUR per year\n- sport activities compensation of 45 EUR/month\n- 2,000 EUR and 2 days off per year for conferences, online courses, seminars, etc.\n● Relocation:\n- No relocation experience\n- Relocation package: willing to discuss, don’t have experience, cover the visa\n● Office:\n- Location: near the city center / 3-5 minutes by foot/bus/train, free parking\n- No open spaces; Rooms for ~ 2-3 persons (everyone can concentrate)\n- Remote work is not allowed due to the security reasons, but very flexible working hours\n\nТребования\n● 3+ years of software development experience with an emphasis on Java\n● Fluency in Core Java\n● Proactive, driven to excel and get things done on time\n● Ability to work and deliver independently with little supervision\n● BS in Computer Science, or equivalent (advanced degrees a plus)\n● Passion for building top-quality user-interface products\n● Strong communication skills (good written/spoken English skills is a must, at least intermediate)\n● Understanding spoken Russian\n● Job-hoppers are 100% no-go (at least 2 years at each company, the more the better. At least 1,5  years at the latest one).\n\nЖелательно\n● Experience with Java GUI toolkits (Swing, AWT or similar); this could be\nsubstituted with strong desire to learn Swing/AWT and related technology\n● Familiarity with market data concepts and trading technologies and technical\nexperience with systems used in the capital & financial markets all are a\nbig plus\n● Experience with Java development for mobile platforms\n\nЗадачи\n1. UI components design and implementation in Java \n2. Development testing\n3. Engineering documentation\n4. Focus on: existing product development (20% bug fixing/80%new features)","markup":[{"type":"hashtag","offset":0,"length":9,"data":"вакансия"},{"type":"hashtag","offset":10,"length":5,"data":"java"},{"type":"hashtag","offset":16,"length":10,"data":"developer"},{"type":"hashtag","offset":27,"length":7,"data":"middle"},{"type":"hashtag","offset":35,"length":7,"data":"senior"},{"type":"hashtag","offset":43,"length":9,"data":"relocate"},{"type":"bold","offset":54,"length":24,"data":""},{"type":"bold","offset":99,"length":8,"data":""},{"type":"bold","offset":115,"length":10,"data":""},{"type":"bold","offset":135,"length":5,"data":""},{"type":"bold","offset":150,"length":10,"data":""},{"type":"handle","offset":160,"length":11,"data":"observer69"},{"type":"bold","offset":173,"length":7,"data":""},{"type":"bold","offset":721,"length":8,"data":""},{"type":"italic","offset":731,"length":12,"data":""},{"type":"italic","offset":860,"length":10,"data":""},{"type":"italic","offset":1243,"length":10,"data":""},{"type":"italic","offset":1364,"length":6,"data":""},{"type":"bold","offset":1611,"length":11,"data":""},{"type":"bold","offset":2223,"length":11,"data":""},{"type":"bold","offset":2601,"length":10,"data":""},{"type":"bold","offset":2660,"length":2,"data":""},{"type":"bold","offset":2683,"length":2,"data":""},{"type":"bold","offset":2712,"length":2,"data":""}],"date":"2020-06-19T09:50:29+00:00","link":"tg://resolve?domain=jvmjobs&post=1632","tags":[{"name":"java"},{"name":"jvm"},{"name":"ms-access"},{"name":"excel"},{"name":"swing"},{"name":"mobile"},{"name":"user-interface"}],"cities":[{"code":"hong-kong"}],"allowsRemote":false}},{"node":{"__typename":"Job","id":"2228224000-1001134745498","title":"Devops инженер","text":"#вакансия #офис #Москва #DevSecOps \n\nИщу любителя безопасной инфраструктуры в компанию Swordfish Security.\n\nРебята интересные, команда адекватная, практикуют создание защищенных приложений, адаптируя и тиражируя практики SSDL.\n\nИх применение гарантирует премиальный уровень защищенности ПО, а максимальная автоматизация процессов при помощи инструментального стека DevSecOps обеспечивает эффективность инженерного процесса разработки. (с)\n\nВилка: 120-180+\nПожелания к опыту: 1-3 года\n\nЧто надо уметь:\n- кодить на Java или Python, уметь разбираться в чужом коде\n- знать, зачем вообще нужны DevOps-практики\n\n- Опыт работы с инструментами безопасности:\nSAST (Checkmarx, Fortify, Solar Incode) - в приоритете;\nБудет плюсом - DAST (NetSparker, Acunetix, HP WebInspect, Burp Enterprise, Wallarm FAST);\nБудет плюсом - OSA / SCA (Nexus IQ, WhiteSource, BlackDuck, Dependency Checker);\nУверенная работа с Unix системами;\nУмение находить и эксплуатировать уязвимости;\n\nБудет плюсом опыт работы с широким инструментальным стеком разработки:\n* Teamcity/Jenkins/Gitlab CI,\n* Bitbucket/GitLab,\n* Jira/Confluence,\n* Nexus Repo/Jfrog Artifactory,\n* Docker/Kubernetes;\n\nУсловия:\nОфис, Москва ст. м. ЗИЛ, Тульская, Новоданиловская набережная, 6к1\nгибкий график, плюшки \"спорт+ДМС\" :)\n\nКонтакты:\nПолина @polinathin\n\n—\n\n👉 Обсуждение вакансии в чате @devops_jobs","markup":[{"type":"hashtag","offset":0,"length":9,"data":"вакансия"},{"type":"hashtag","offset":10,"length":5,"data":"офис"},{"type":"hashtag","offset":16,"length":7,"data":"Москва"},{"type":"hashtag","offset":24,"length":10,"data":"DevSecOps"},{"type":"handle","offset":1284,"length":11,"data":"polinathin"},{"type":"handle","offset":1330,"length":12,"data":"devops_jobs"}],"date":"2020-06-19T09:38:47+00:00","link":"tg://resolve?domain=devops_jobs_feed&post=2125","tags":[{"name":"java"},{"name":"python"},{"name":"unix"},{"name":"jenkins"},{"name":"gitlab"},{"name":"docker"},{"name":"kubernetes"}],"cities":[{"code":"moscow"}],"allowsRemote":false}},{"node":{"__typename":"Job","id":"71617740800-1001054966032","title":"Android разработчик","text":"#вакансия #Android #Java #Kotlin #офис #Москва #fulltime   \n\nГород и адрес офиса: Москва, Кутузовский пр-т;\nФормат работы: офис (на период карантина удаленка)\nЗанятость: полная\nЗарплатная вилка: от 160 000 до 300 000 руб\n\nОписание вакансии: \nКомпания TEAM FORCE ищет в свою команду Android(Java/Kotlin) разработчиков  уровня Middle и выше. Проект в одном из топ-5 банков России. Предстоит разработка нового функционала текущего приложения, а также разработка новых продуктов банка. \n\nТребования:\n🔺 Опыт работы Android (Java/Kotlin) разработчиком от 2-х лет, участие в нескольких проектах.\n🔺 Опыт работы с технологиями: Java, Kotlin, RxJava, Dagger, Android Studio, Git, JIRA, Confluence\n🔺 Знание гайдлайнов мобильных приложений на базе Android\n\nКонтакты: @an_krivochenko","markup":[{"type":"hashtag","offset":0,"length":9,"data":"вакансия"},{"type":"hashtag","offset":10,"length":8,"data":"Android"},{"type":"hashtag","offset":19,"length":5,"data":"Java"},{"type":"hashtag","offset":25,"length":7,"data":"Kotlin"},{"type":"hashtag","offset":33,"length":5,"data":"офис"},{"type":"hashtag","offset":39,"length":7,"data":"Москва"},{"type":"hashtag","offset":47,"length":9,"data":"fulltime"},{"type":"handle","offset":758,"length":15,"data":"an_krivochenko"}],"date":"2020-06-19T09:06:17+00:00","link":"tg://resolve?domain=mobile_jobs&post=0","tags":[{"name":"mobile"},{"name":"android"},{"name":"java"},{"name":"kotlin"},{"name":"git"},{"name":"android-studio"}],"cities":[{"code":"moscow"}],"allowsRemote":true}},{"node":{"__typename":"Job","id":"71615643648-1001054966032","title":"Android разработчик","text":"#вакансия #спб #офис #фултайм #английский #junior \n\nГород: Санкт-Петербург\nУровень: Junior\nФормат работы: офис\nЗанятость: полная\nЗарплатная вилка (обязательно): от 70 до 120 тыс. (зависит от опыта конкретного кандидата)\n\nТребования:\n• Опыт коммерческой разработки под Android от года;\n• Отличное знание Java как минимум;\n• Умение и желание писать код, который легко читать и поддерживать;\n• Понимание основных паттернов проектирования\n• Знание основных алгоритмов и структур данных\n• Английский язык на уровне intermediate\n\nУсловия:\n• Работа в надежной и успешной компании, в коллективе профессионалов, при поддержке коллег\n• Достойная оплата труда\n• Официальное оформление согласно ТК РФ, полный соц. пакет\n• ДМС\n• Гибкий график\n• Удобное рабочее место\n• Возможность профессионального и карьерного роста\n\nКонтакты: @alexheadhunt","markup":[{"type":"hashtag","offset":0,"length":9,"data":"вакансия"},{"type":"hashtag","offset":10,"length":4,"data":"спб"},{"type":"hashtag","offset":15,"length":5,"data":"офис"},{"type":"hashtag","offset":21,"length":8,"data":"фултайм"},{"type":"hashtag","offset":30,"length":11,"data":"английский"},{"type":"hashtag","offset":42,"length":7,"data":"junior"},{"type":"bold","offset":52,"length":5,"data":""},{"type":"bold","offset":84,"length":6,"data":""},{"type":"bold","offset":106,"length":5,"data":""},{"type":"bold","offset":122,"length":7,"data":""},{"type":"bold","offset":240,"length":12,"data":""},{"type":"handle","offset":816,"length":13,"data":"alexheadhunt"}],"date":"2020-06-19T08:42:15+00:00","link":"tg://resolve?domain=mobile_jobs&post=0","tags":[{"name":"mobile"},{"name":"android"},{"name":"java"}],"cities":[],"allowsRemote":false}},{"node":{"__typename":"Job","id":"91367669760-1001067529236","title":"Python developer","text":"#вакансия #Москва #fulltime #офис #python #machinelearning\nКомпания: FunCorp\nВакансия: Senior Python Backend Developer (Machine Learning)\nОпыт работы: от 3-х лет\nЗарплата: от 250 000 р. на руки\nМесторасположение: Москва, м. Белорусская\nЗанятость: fulltime, офис.\nNB! Удаленный вариант работы после выхода из карантина, к сожалению, не рассматриваем\nКонтактные данные: @chrschredinger или kristina@fun.co\n\nFunCorp — международная компания, которая занимается разработкой развлекательных UGC-сервисов и игр. В работе наших приложений мы активно используем сервисы, построенные на машинном обучении. Значительная часть этих сервисов построена на базе ML-фреймворков и пакетов на Python. \n\nТребования:\n- знание Python 3, фреймворков Flask или Django, а также иметь опыт написания асинхронного кода с использованием AsyncIO;\n- опыт построения и поддержки высоконагруженных систем и сервисов;\n- интерес к Machine Learning как отрасли и быть готовым изучать фреймворки (PyTorch, TensorFlow).\n\nСтек используемых технологий: Docker, Redis, MongoDB, ClickHouse.\n\nОбязанности:\n- создание и поддержка Highload-сервисы на базе обученных моделей;\n- интегрирование ML-сервисов с бизнес-логикой PHP-монолита и Java/Kotlin-сервисов;\n- участие в обучении и доработке существующих моделей, получении и консолидации данных, построении тестовых выборок.\n\nУсловия:\n- ДМС, включая стоматологию;\n- бонусная система;\n- обеды и ужины в офисе;\n- бюджет на обучение и на фитнес;\n- оплата участия в российских и зарубежных конференциях;\n- отличный офис на м. Белорусская (БЦ «Белая площадь).","markup":[{"type":"hashtag","offset":0,"length":9,"data":"вакансия"},{"type":"hashtag","offset":10,"length":7,"data":"Москва"},{"type":"hashtag","offset":18,"length":9,"data":"fulltime"},{"type":"hashtag","offset":28,"length":5,"data":"офис"},{"type":"hashtag","offset":34,"length":7,"data":"python"},{"type":"hashtag","offset":42,"length":16,"data":"machinelearning"},{"type":"bold","offset":59,"length":10,"data":""},{"type":"bold","offset":77,"length":10,"data":""},{"type":"bold","offset":138,"length":13,"data":""},{"type":"bold","offset":162,"length":10,"data":""},{"type":"bold","offset":194,"length":19,"data":""},{"type":"bold","offset":236,"length":11,"data":""},{"type":"underline","offset":263,"length":86,"data":""},{"type":"bold","offset":349,"length":19,"data":""},{"type":"handle","offset":368,"length":15,"data":"chrschredinger"},{"type":"link","offset":388,"length":15,"data":"mailto:kristina@fun.co"},{"type":"bold","offset":686,"length":12,"data":""},{"type":"italic","offset":986,"length":67,"data":""},{"type":"bold","offset":1053,"length":13,"data":""},{"type":"bold","offset":1334,"length":9,"data":""}],"date":"2020-06-19T07:10:14+00:00","link":"tg://resolve?domain=python_jobs&post=0","tags":[{"name":"python"},{"name":"flask"},{"name":"django"},{"name":"tensorflow"},{"name":"docker"},{"name":"redis"},{"name":"mongodb"},{"name":"php"},{"name":"java"},{"name":"kotlin"},{"name":"machine-learning"}],"cities":[{"code":"moscow"}],"allowsRemote":false}},{"node":{"__typename":"Job","id":"103246987264-1001089317451","title":"Qa инженер","text":"#job #вакансия #remote #QA #удаленка\n\nВсем привет!\n\nЯндекс.Практикум — сервис онлайн-образования. Мы помогаем людям расти — на работе и в жизни. Студенты могут освоить новую специальность, заговорить на иностранном языке и получать удовольствие от того, чем занимаются — каждый день.\n\nСейчас мы в поиске Наставников на факультет QA!\n\nКомпания: Яндекс.Практикум \nГрафик: частичная удаленная работа, 10 часов в неделю (з/п 50 тыс рублей в месяц). Можно легко совмещать с основной работой.\n\n🔹Что делает наставник?\nНаставник курирует группу из 40 студентов на протяжении всего процесса обучения (примерно 4  месяца). Он отвечает на их вопросы, проводит групповые консультации. \n\n🔹Вам подойдет роль, если у вас есть: опыт работы тестировщиком от 3х лет, опыт тестирования веб- и мобильных приложений, веб-сервисов; \nЕсть опыт с автоматизацией тестирования: selenium + язык программирования (js, python, java);\nПлюсом будет опыт преподавания и экспертной деятельности. \n\n🔹Все наставники перед работой проходят Школу наставников от Яндекс.Практикума. \n\nОткликаться можно здесь: https://praktikum.yandex.ru/job/vacancy-3\nили пишите в личку 🙌","markup":[{"type":"hashtag","offset":0,"length":4,"data":"job"},{"type":"hashtag","offset":5,"length":9,"data":"вакансия"},{"type":"hashtag","offset":15,"length":7,"data":"remote"},{"type":"hashtag","offset":23,"length":3,"data":"QA"},{"type":"hashtag","offset":27,"length":9,"data":"удаленка"},{"type":"link","offset":1074,"length":41,"data":"https://praktikum.yandex.ru/job/vacancy-3"}],"date":"2020-06-19T06:58:50+00:00","link":"tg://resolve?domain=qa_jobs&post=0","tags":[{"name":"qa"},{"name":"selenium"},{"name":"python"},{"name":"java"}],"cities":[],"allowsRemote":true}},{"node":{"__typename":"Job","id":"71604109312-1001054966032","title":"Android разработчик","text":"#вакансия #android #fulltime #удаленка #middle #senior\n\nГород и адрес офиса: Уфа (удаленно)\nФормат работы: удаленка\nЗанятость: полная\nЗарплатная вилка: от 100 000 р. до 250 000\n\nОписание вакансии:\nЕсли Вы крутой аndroid разработчик, влюбленный в свое дело, обладаете опытом разработки мобильных приложений, любите использовать в работе самые современные подходы и техники, интересуетесь трендами в мобильной разработке, то эта вакансия для Вас!\n\nКлассно, если Вы:\n- Свободно владеете языком Kotlin и Java\n- Имеете опыт реактивного программирования (RxJava2)\n- Имеете опыт работы с сетевыми протоколами (HTTP, REST, JSON и др.)\n- Знакомы с концепциями ООП, знаете паттерны проектирования, принципы SOLID и умеете их применять\n- Имеете базовое понимание и опыт работы с основными архитектурными паттернами (Clean, MVP, MVVM)\n- Знакомы с основными алгоритмами и структурами данных\n- Умеете писать простой в понимании и тестируемый код\n- Умеете работать в команде и готовы активно принимать участие в жизни продукта\n\nЖелательно:\n- Опыт работы с библиотеками Moxy, Dagger2\n- Знание принципов Agile-разработки\n- Умение работать с git, CI/CD системами (у нас Gitlab)\n- Умение проводить перекрестное Code Review\n- Ссылки на проекты в Play Market, профили GitHub и StackOverflow\n\nВашими ключевыми задачами будут:\n- Разрабатывать и поддерживать мобильное приложение с нуля\n- Создавать удобный и понятный для пользователей интерфейса по макету\n- Взаимодействовать с другими командами, для совместного решения задач\n- Разрабатывать и внедрять новые интересные фичи\n\nМы предлагаем:\n- Работа над финтех проектом европейской компании.\n- Самые современные технологии разработки\n- Возможность роста, как в профессиональной так и в управленческой сфере\n\nНазвание компании: Фином-Технологии —  команда разработчиков с большим опытом создания успешных финтех продуктов.  Расширяем свою команду для работы над проектом для стран Европы. Автоматизация финансовых процессов для малого бизнеса.\n\nКонтакт для связи: @deeeana","markup":[{"type":"hashtag","offset":0,"length":9,"data":"вакансия"},{"type":"hashtag","offset":10,"length":8,"data":"android"},{"type":"hashtag","offset":19,"length":9,"data":"fulltime"},{"type":"hashtag","offset":29,"length":9,"data":"удаленка"},{"type":"hashtag","offset":39,"length":7,"data":"middle"},{"type":"hashtag","offset":47,"length":7,"data":"senior"},{"type":"bold","offset":56,"length":20,"data":""},{"type":"bold","offset":92,"length":14,"data":""},{"type":"bold","offset":116,"length":11,"data":""},{"type":"bold","offset":134,"length":10,"data":""},{"type":"bold","offset":145,"length":6,"data":""},{"type":"bold","offset":178,"length":23,"data":""},{"type":"underline","offset":446,"length":18,"data":""},{"type":"underline","offset":1013,"length":12,"data":""},{"type":"underline","offset":1271,"length":33,"data":""},{"type":"underline","offset":1554,"length":15,"data":""},{"type":"bold","offset":1736,"length":19,"data":""},{"type":"bold","offset":1972,"length":18,"data":""},{"type":"handle","offset":1991,"length":8,"data":"deeeana"}],"date":"2020-06-19T05:01:29+00:00","link":"tg://resolve?domain=mobile_jobs&post=0","tags":[{"name":"mobile"},{"name":"android"},{"name":"kotlin"},{"name":"java"},{"name":"rest"},{"name":"json"},{"name":"mvvm"},{"name":"git"},{"name":"gitlab"},{"name":"playframework"},{"name":"github"}],"cities":[{"code":"ufa"}],"allowsRemote":true}},{"node":{"__typename":"Job","id":"1710227456-1001091028994","title":"Java разработчик","text":"#вакансия #senior #middle #Сбербанк #java #spring #fulltime #офис #agile #backend\nКомпания: ПАО «Сбербанк»\nЛокация: Москва, м. Кутузовская (Agile home)\nЗ/п: от 180-280К на руки (в зависимости от уровня) + достойные годовые премии\nКонтакты: @tdurnicina TVlDurnitsyna@sberbank.ru\n\nДрузья! Мы в поисках Java разработчиков уровня middle и senior в новое небанковское приложение для клиента. Это уникальная возможность присоединиться к разработке серьёзного продукта в командах с атмосферой стартапа🙂 Вас ждут интересные задачи, свежий стек: Java 11, Spring, Hibernate, многомодульность и никакого легаси🔥 \n!Также готовы рассмотреть кандидатов уровня junior+ при наличии опыта коммерческой разработки.\n\nНаш Agile home это: пин понг, пул, кикер, библиотека, кофемашины на этажах, бесплатный спорт зал и подземный паркинг.\nЕсть отличный корпоративный университет, программы обучения в т.ч. за рубежом, конференции, митапы.\n🔥 Льготная ипотека и ДМС. \n\nРассмотрим кандидатов из других городов и стран. И конечно гибкое начало рабочего дня, куда без него.","markup":[{"type":"hashtag","offset":0,"length":9,"data":"вакансия"},{"type":"hashtag","offset":10,"length":7,"data":"senior"},{"type":"hashtag","offset":18,"length":7,"data":"middle"},{"type":"hashtag","offset":26,"length":9,"data":"Сбербанк"},{"type":"hashtag","offset":36,"length":5,"data":"java"},{"type":"hashtag","offset":42,"length":7,"data":"spring"},{"type":"hashtag","offset":50,"length":9,"data":"fulltime"},{"type":"hashtag","offset":60,"length":5,"data":"офис"},{"type":"hashtag","offset":66,"length":6,"data":"agile"},{"type":"hashtag","offset":73,"length":8,"data":"backend"},{"type":"handle","offset":240,"length":11,"data":"tdurnicina"},{"type":"link","offset":252,"length":25,"data":"mailto:TVlDurnitsyna@sberbank.ru"}],"date":"2020-06-18T17:32:56+00:00","link":"tg://resolve?domain=jvmjobs&post=1631","tags":[{"name":"java"},{"name":"jvm"},{"name":"spring"},{"name":"hibernate"}],"cities":[{"code":"moscow"}],"allowsRemote":false}}]}}},"context":{}}