{"hash":"f5f6bf98bd95e769321482904cbbd488f77922fd","data":{"records":{"id":"reactjs","name":"reactjs","belongsTo":{"totalCount":182,"pageInfo":{"totalPages":19,"currentPage":18},"edges":[{"node":{"__typename":"Job","id":"26285703168-1001075660570","title":"Php разработчик","text":"#вакансия #vacancy #fulltime #remote #fullstack #senior #middle\n\nПозиция: PHP Developer (Full-Stack)\nКомпания: SO Services Ltd\nФормат работы: удаленная работа\nЗанятость: полная\nОплата: от 2500 до 4000 USD в месяц\nКонтакт: Марк, @mark_soservices\n\nДобрый день! Мы ищем PHP разработчика для нашего клиента из США. Требуется разговорный английский. Оформление контракта через ИП - с этим проконсультируем.\n\nWhat will you do?\nWe are looking for a Software Engineer (Full Stack) who will have a voice in our product with the desire to mentor, motivate, and deliver exceptional code. \nYou will work on projects that will allow you to wear many hats and flex both technical development and collaborative, communication skills. Your main responsibility will be the development and implementation of web applications to create a process for innovation.\n\nResponsibilities\n- Collaborate with Product teams to implement robust, high performance, data-driven web applications\n- Architect web applications from the ground up, with a focus on extensibility and scalability\n- Provide insight into upgrading legacy platforms to the latest and relevant technologies\n- Solve complex problems with innovative and elegant design and delivery\n- Develop and maintain internal components and libraries\n- Integrate third party technologies\n- Enforce coding standards and set a high standard for code quality\n- Mentor and guide junior engineers\n- Participate in hiring process of new engineers\n\nRequirements\n- 6+ years professional experience building front and back-end web applications\n- Solid understanding of web standards, CSS-based design, cross-browser compatibility\n- Expert knowledge of PHP frameworks (Yii preferred)\n- Expert knowledge of SQL\n- Expert knowledge of modern Javascript frameworks (React preferred)\n- Experience with Git\n- Knowledgeable with software development lifecycles (Agile, Kanban, etc.)\n- Familiar with test driven development processes\n- Strong technical programming skills utilizing a variety of different coding languages and tools\n- Comfortable with taking ownership of projects and showcasing key accomplishments\n- Striving for continued learning opportunities to build upon craft\n- Excellent organisational skills and attention to detail\n- Ability to work quickly and independently with minimal oversight\n- Ability to accept feedback and constructive criticism positively\n- Extremely strong and demonstrable work ethic\n\nTechnology Stack\n- PHP, Yii, Apache\n- MySQL, MS SQL, Solr, Elastic Search\n- CSS and Sass\n- React, Marionette.js, Backbone\n- Git","markup":[{"type":"hashtag","offset":0,"length":9,"data":"вакансия"},{"type":"hashtag","offset":10,"length":8,"data":"vacancy"},{"type":"hashtag","offset":19,"length":9,"data":"fulltime"},{"type":"hashtag","offset":29,"length":7,"data":"remote"},{"type":"hashtag","offset":37,"length":10,"data":"fullstack"},{"type":"hashtag","offset":48,"length":7,"data":"senior"},{"type":"hashtag","offset":56,"length":7,"data":"middle"},{"type":"handle","offset":228,"length":16,"data":"mark_soservices"},{"type":"bold","offset":403,"length":17,"data":""},{"type":"bold","offset":844,"length":16,"data":""},{"type":"bold","offset":1468,"length":12,"data":""},{"type":"bold","offset":2431,"length":16,"data":""}],"date":"2020-06-13T13:31:17+00:00","link":"tg://resolve?domain=php_jobs&post=0","tags":[{"name":"php"},{"name":"web"},{"name":"css"},{"name":"yii"},{"name":"sql"},{"name":"javascript"},{"name":"reactjs"},{"name":"git"},{"name":"apache"},{"name":"mysql"},{"name":"solr"},{"name":"elasticsearch"},{"name":"sass"},{"name":"backbonejs"},{"name":"cross-browser"}],"cities":[],"allowsRemote":true}},{"node":{"__typename":"Job","id":"16878927872-1001110946746","title":"Js разработчик","text":"#вакансия #middle #спб #react #redux #emotion\n\nГород: Сантк-Петербург, ул. Рубинштейна (5 углов)\nФормат работы: офис\nЗанятость: полная\nЗарплатная вилка: от 80к до 130к рублей (на руки, больше по согласованию)\nИспользуемый стек: react 16 (hooks), redux, emotion\n\nОписание вакансии:\n\nПривет всем, мы разрабатываем крутые проекты, связанные прежде всего с физическим здоровьем людей, которые тратят его, зарабатывая себе на хлеб. Эти люди работают на складах, перенося коробки с места на место, в сортировочных центрах, доставляя вам посылки, на стройках, и в остальных местах, где требуется ручной труд.\nНаши решения помогают компаниям за границей измерять и управлять (с помощью носимых устройств) рисками возникновения травмы для своих сотрудников (подробнее можете ознакомиться по ссылке: https://soteranalytics.com/ ). Я сооснователь проекта и нам в сентябре исполнится 4 года. С помощью этого канала мы уже нашли двух сотрудников, которые успешно у нас работают, но сейчас такие времена, что чем быстрее мы сможем разработать новые фичи в наших продуктах, тем больше рынка сможем захватить.\n\nЧто нужно делать: нужно разрабатывать дэшборды и прочие веб интерфейсы для наших клиентов, так и для наших внутренних нужд.\n\nЧто требуется от вас: мы ценим самоорганизованность и очень не любим микроменеджмент. Также мы любим когда наши сотрудники развиваются у нас на глазах и всячески стараемся этому помочь. У нас также сформирована команда из опытных сотрудников, которые имеют экспертизы почти в каждой теме.\nТакже мы ценим, когда человек умеет решать проблемы, а не создавать их другим.\n\nКонтакты: писать мне в личку @pavko_a. В сообщении пишите что вы уже сделали на reactjs, чем вы гордитесь в своей работе, а также пару строк о себе и чем вы занимались на последнем проекте.\n\nЗабыл упомянуть: в команде очень много общения на английском, так как коммерческая команда находится в Лондоне и являются носителями языка. #doyourhomework\n\n—\n\n👉 Обсуждение вакансии в чате @javascript_jobs","markup":[{"type":"hashtag","offset":0,"length":9,"data":"вакансия"},{"type":"hashtag","offset":10,"length":7,"data":"middle"},{"type":"hashtag","offset":18,"length":4,"data":"спб"},{"type":"hashtag","offset":23,"length":6,"data":"react"},{"type":"hashtag","offset":30,"length":6,"data":"redux"},{"type":"hashtag","offset":37,"length":8,"data":"emotion"},{"type":"link","offset":790,"length":27,"data":"https://soteranalytics.com/"},{"type":"handle","offset":1618,"length":8,"data":"pavko_a"},{"type":"hashtag","offset":1920,"length":15,"data":"doyourhomework"},{"type":"handle","offset":1970,"length":16,"data":"javascript_jobs"}],"date":"2020-06-13T10:07:55+00:00","link":"tg://resolve?domain=javascript_jobs_feed&post=16097","tags":[{"name":"javascript"},{"name":"reactjs"},{"name":"redux"},{"name":"react-redux"}],"cities":[],"allowsRemote":false}},{"node":{"__typename":"Job","id":"16869490688-1001110946746","title":"Js developer","text":"#вакансия #удаленнаяработа #react #js\n\nГород и адрес офиса: Москва (удаленно!!)\nФормат работы: удаленная работа \nЗанятость: полная \nЗарплатная вилка: 160-180 тыс. руб. в мес. на руки. \nОписание вакансии: В компанию Айтиквик в банковский проект требуется Senior React developer\nПо стеку UI5/Reat/JS\nС опытом работы от 5 лет \nУдаленно, фулл тайм\nРабота в команде по Agile \nЖдем резюме с примером кода на реакте.\nВалентина.\nНазвание компании: Айтиквик \nКонтакты: chekalina@itquick.ru, @valentine2511\n\n—\n\n👉 Обсуждение вакансии в чате @javascript_jobs","markup":[{"type":"hashtag","offset":0,"length":9,"data":"вакансия"},{"type":"hashtag","offset":10,"length":16,"data":"удаленнаяработа"},{"type":"hashtag","offset":27,"length":6,"data":"react"},{"type":"hashtag","offset":34,"length":3,"data":"js"},{"type":"link","offset":460,"length":20,"data":"mailto:chekalina@itquick.ru"},{"type":"handle","offset":482,"length":14,"data":"valentine2511"},{"type":"handle","offset":531,"length":16,"data":"javascript_jobs"}],"date":"2020-06-12T15:02:41+00:00","link":"tg://resolve?domain=javascript_jobs_feed&post=16088","tags":[{"name":"javascript"},{"name":"reactjs"}],"cities":[{"code":"moscow"}],"allowsRemote":true}},{"node":{"__typename":"Job","id":"16867393536-1001110946746","title":"Js разработчик","text":"#reactjs\n#вакансия #remote #middle  #frontend \n\nREMOTE!\nВакансия: Middle ReactJS разработчик\nФормат работы: удаленная работа\nЗанятость: полная\nЗарплатная вилка: от 2000 до 3000 usd\n\n- Над нашим продуктом - соцсеть для стартапов - работает распределенная команда.\n- Стэк проекта: React.js - на фронте почти стандартный, кроме GraphQL (Apollo).\n- Мы пишем 2 версии продукта, сейчас есть 2 вакансии для ReactJS разработчиков на одну из версий. \n- Компания Заказчик - Американский стартап.\n- Все технические детали по вакансии я расскажу в переписке.\n-✌️🏠🏡 Работа удаленная.\n\nОбратите внимание:  у нас нет требования к уровню английского языка (над проектом работает распределенная команда разработчиков, все ребята общаются по-русски)\n\nРезюме, отправленное на почту, упросит и ускорит общение.\nКонтакты : \nSkype ID: anna.soutskover | Telegram: @soutskover | anna.soutskover@gmail.com\n\n—\n\n👉 Обсуждение вакансии в чате @javascript_jobs","markup":[{"type":"hashtag","offset":0,"length":8,"data":"reactjs"},{"type":"hashtag","offset":9,"length":9,"data":"вакансия"},{"type":"hashtag","offset":19,"length":7,"data":"remote"},{"type":"hashtag","offset":27,"length":7,"data":"middle"},{"type":"hashtag","offset":36,"length":9,"data":"frontend"},{"type":"handle","offset":843,"length":11,"data":"soutskover"},{"type":"link","offset":857,"length":25,"data":"mailto:anna.soutskover@gmail.com"},{"type":"handle","offset":917,"length":16,"data":"javascript_jobs"}],"date":"2020-06-12T10:39:08+00:00","link":"tg://resolve?domain=javascript_jobs_feed&post=16086","tags":[{"name":"javascript"},{"name":"reactjs"},{"name":"graphql"}],"cities":[],"allowsRemote":true}},{"node":{"__typename":"Job","id":"16866344960-1001110946746","title":"Js программист","text":"#вакансия #middle #WordPress #fullstack\n\nГород и адрес офиса: Запорожье (Украина)\nФормат работы: удаленная работа\nЗанятость: полная\nЗарплатная вилка: от 600 до 1300 usd\n\nО нас:\nНебольшая команда, сконцентрирована на WordPress разработке и ищет в команду хорошего программиста на длительное время для работы с различными проектами.\n\nСпецифика:\n● Поддержка постоянных проектов, плюс разработка новых сайтов.      \n● Общение с клиентами, как направления, так и опосредованно.\n\nУровень задач:\nОт очень простых (добавить код /   пофиксить элемент) для полного цикла разработки.\nТипичная задача - преобразование готовой верстки (возможно, с поправками) на WP тему, написанные JS и PHP кода.\n\nПрофессиональные качества соискателя:\n● Страсть к разработке, хороший самоменеджмент, желание всегда писать лучший код, а не код, просто решает задачи; Умение быстро осваивать новую технологию или предметной области;      \n● Английский на уровне не менее B2;      \n● Уметь уверенно работать с git;      \n● Хорошее знание API WP - умение перенести верстку с нуля и минимумом плагинов; написать плагин с нуля, получать данные со стороннего API; Знание ACF; Умение настроить кэширование на различных уровнях; Знание базовых принципов обеспечения безопасности проекта;      \n● Хорошее знание Node.js и npm;      \n● Умение семантической станки без CSS-фреймворков. Уверенное знание flexbox, знание основных проблем кросс-браузерную верстки; Навыки работы с Less, Scss;      \n● Умение писать JS (ES-2015 +) без jQuery;      \n● Понимание принципов работы webpack, gulp; Умение писать и изменять их конфигурацию;      \n● Навыки работы с VPS через SSH;      \n● Понимание показателей, влияющих на PageSpeed и SEO;      \n\nБыло бы плюсом:\n● Понимание принципов a11y;      \n● Подтвержденный open source contribution, выступления на конференциях, митапах;      \n● Опыт работы с Ruby, Python / Vue.js, React.js, Angular;      \n● Хорошие навыки работы с PHPStorm;      \n\nПлюшки:\n● Удаленная работа.      \n● Реальные возможности карьерного роста.      \n● Зарплата по результатам собеседования с быстрой возможностью по пересмотру по результатам работы. \n\nНазвание компании: MaximumStart\n\nКонтакты: \n- Телеграм @polinasvetlaya\n- Email polina.dubovik@gmail.com\n\n—\n\n👉 Обсуждение вакансии в чате @javascript_jobs","markup":[{"type":"hashtag","offset":0,"length":9,"data":"вакансия"},{"type":"hashtag","offset":10,"length":7,"data":"middle"},{"type":"hashtag","offset":18,"length":10,"data":"WordPress"},{"type":"hashtag","offset":29,"length":10,"data":"fullstack"},{"type":"handle","offset":2179,"length":15,"data":"polinasvetlaya"},{"type":"link","offset":2203,"length":24,"data":"mailto:polina.dubovik@gmail.com"},{"type":"handle","offset":2262,"length":16,"data":"javascript_jobs"}],"date":"2020-06-12T10:38:58+00:00","link":"tg://resolve?domain=javascript_jobs_feed&post=16085","tags":[{"name":"javascript"},{"name":"wordpress"},{"name":"php"},{"name":"git"},{"name":"nodejs"},{"name":"npm"},{"name":"css"},{"name":"jquery"},{"name":"webpack"},{"name":"gulp"},{"name":"ssh"},{"name":"seo"},{"name":"ruby"},{"name":"python"},{"name":"vuejs"},{"name":"reactjs"},{"name":"angularjs"}],"cities":[],"allowsRemote":true}},{"node":{"__typename":"Job","id":"16864247808-1001110946746","title":"Js разработчик","text":"#вакансия #middle #спб #react #redux #emotion\n\nГород: Сантк-Петербург, ул. Рубинштейна (5 углов)\nФормат работы: офис\nЗанятость: полная\nЗарплатная вилка: от 80к до 130к рублей (на руки, больше по согласованию)\nИспользуемый стек: react 16 (hooks), redux, emotion\n\nОписание вакансии:\n\nПривет всем, мы разрабатываем крутые проекты, связанные прежде всего с физическим здоровьем людей, которые тратят его, зарабатывая себе на хлеб. Эти люди работают на складах, перенося коробки с места на место, в сортировочных центрах, доставляя вам посылки, на стройках, и в остальных местах, где требуется ручной труд.\nНаши решения помогают компаниям за границей измерять и управлять (с помощью носимых устройств) рисками возникновения травмы для своих сотрудников (подробнее можете ознакомиться по ссылке: https://soteranalytics.com/ ). Я сооснователь проекта и нам в сентябре исполнится 4 года. С помощью этого канала мы уже нашли двух сотрудников, которые успешно у нас работают, но сейчас такие времена, что чем быстрее мы сможем разработать новые фичи в наших продуктах, тем больше рынка сможем захватить.\n\nЧто нужно делать: нужно разрабатывать дэшборды и прочие веб интерфейсы для наших клиентов, так и для наших внутренних нужд.\n\nЧто требуется от вас: мы ценим самоорганизованность и очень не любим микроменеджмент. Также мы любим когда наши сотрудники развиваются у нас на глазах и всячески стараемся этому помочь. У нас также сформирована команда из опытных сотрудников, которые имеют экспертизы почти в каждой теме.\nТакже мы ценим, когда человек умеет решать проблемы, а не создавать их другим.\n\nКонтакты: писать мне в личку @pavko_a. В сообщении пишите что вы уже сделали на reactjs, чем вы гордитесь в своей работе, а также пару строк о себе и чем вы занимались на последнем проекте.\n\nЗабыл упомянуть: в команде очень много общения на английском, так как коммерческая команда находится в Лондоне и являются носителями языка. #doyourhomework\n\n—\n\n👉 Обсуждение вакансии в чате @javascript_jobs","markup":[{"type":"hashtag","offset":0,"length":9,"data":"вакансия"},{"type":"hashtag","offset":10,"length":7,"data":"middle"},{"type":"hashtag","offset":18,"length":4,"data":"спб"},{"type":"hashtag","offset":23,"length":6,"data":"react"},{"type":"hashtag","offset":30,"length":6,"data":"redux"},{"type":"hashtag","offset":37,"length":8,"data":"emotion"},{"type":"link","offset":790,"length":27,"data":"https://soteranalytics.com/"},{"type":"handle","offset":1618,"length":8,"data":"pavko_a"},{"type":"hashtag","offset":1920,"length":15,"data":"doyourhomework"},{"type":"handle","offset":1970,"length":16,"data":"javascript_jobs"}],"date":"2020-06-12T10:31:45+00:00","link":"tg://resolve?domain=javascript_jobs_feed&post=16083","tags":[{"name":"javascript"},{"name":"reactjs"},{"name":"redux"},{"name":"react-redux"}],"cities":[],"allowsRemote":false}},{"node":{"__typename":"Job","id":"16860053504-1001110946746","title":"Js разработчик","text":"#вакансия #Москва #vue\n\nКомпания Proscom ищет Middle/Senior Frontend разработчика\n\nФормат занятости: Офис около м. Серпуховская/Павелецкая.\nЗанятость: полная \nЗарплатная вилка: 100 000 - 250 000 рублей/месяц (по результатам собеседования)\n\nО компании: \n\nС 2013 года создаем интерфейсы, веб-сайты,\nмобильные приложения для крупных\nправительственных организаций и\nкоммерческих предприятий\n\nЗадачи:\n\n ⁃ Разработка компонентов дизайн-системы с крутым UX\n ⁃ Разработка страниц с использованием этих компонентов\n ⁃ Проектирование и реализация фронтенда в команде с дизайнерами и другими разработчиками\n ⁃ Реализация адаптива, микровзаимодействий и анимаций\n ⁃ Решение проблем с кроссбраузерностью (Safari, IE 11)\n ⁃ Визуализация данных, кастомные графики (d3.js)\n\nТребования: \n\n ⁃ Знание языка JavaScript и его современных стандартов (ES6+)\n ⁃ Уверенная работа с асинхронным кодом\n ⁃ Знание тонкостей Vue.js\n ⁃ Опыт программирования от 2 лет\n ⁃ Опыт фронтенд веб-разработки от 1 года\n ⁃ Владение английским языком на уровне чтения технической документации\n\nБудет плюсом:\n\n ⁃ Представление о React\n ⁃ Уверенная адаптивная верстка\n ⁃ Понимание TypeScript\n ⁃ Работа с Git\n ⁃ Знание основ Computer Science (алгоритмы, структуры данных и математика)\n ⁃ Опыт написания автотестов для фронтенда\n\nНаши преимущества:\n\n - Оформление по ТК\n ⁃ У нас много интересных проектов\n ⁃ Используем актуальные технологии, следим за трендами и постоянно улучшаем UX и DX\n ⁃ Не заморачиваемся графиком 9-18, не считаем съеденные печеньки, не заставляем ходить на обязательные корпоративы в нерабочее время, петь гимны и ублажать начальство\n ⁃ Заинтересованы в развитии сотрудников. Есть чему учиться и куда расти.\n ⁃ У нас дружный коллектив. Периодически проводим время вместе, но всегда без принуждения\n ⁃ У нас минимум бюрократии и нет дресс-кода\n ⁃ У нас уютный лофт офис у м. Серпуховская/Павелецкая.\n\nКонтакт: @mxm_at","markup":[{"type":"hashtag","offset":0,"length":9,"data":"вакансия"},{"type":"hashtag","offset":10,"length":7,"data":"Москва"},{"type":"hashtag","offset":18,"length":4,"data":"vue"},{"type":"handle","offset":1886,"length":7,"data":"mxm_at"}],"date":"2020-06-11T20:26:10+00:00","link":"tg://resolve?domain=javascript_jobs_feed&post=16079","tags":[{"name":"javascript"},{"name":"vuejs"},{"name":"safari"},{"name":"reactjs"},{"name":"typescript"},{"name":"git"}],"cities":[{"code":"moscow"}],"allowsRemote":false}},{"node":{"__typename":"Job","id":"16854810624-1001110946746","title":"Js разработчик","text":"#вакансия #fulltime #fullstack #frontend #nodejs #reactjs #remote\n\nГород и адрес офиса: Санкт-Петербург, м. Звенигородская\n\nФормат работы: офис / частично ремоут\n\nЗанятость: полная\n\nЗарплатная вилка: от 90к до 160к\n\nОписание вакансии: \nработа в небольшой команде над банковскими продуктами, фронтенд / фулстек разработка, написание API, поддержка кода\n\nОсновные задачи:\n- Участие в разработке внутрибанковских сервисов на JS\n- Разработка архитектуры проектов\n- Бывают задачи по настройке серверов, CD/CI, Docker, и т.п., если нет опыта, будет возможность узнать что-то новое\n\nТребования:\n- JS ES6 от 1 года\n- уверенное знание React.js / Node.js \n- умение в git\n- MongoDB (mongoose)\n\nРабота по контрактам, оформление белое\n\nКонтакты: @hopacha","markup":[{"type":"hashtag","offset":0,"length":9,"data":"вакансия"},{"type":"hashtag","offset":10,"length":9,"data":"fulltime"},{"type":"hashtag","offset":20,"length":10,"data":"fullstack"},{"type":"hashtag","offset":31,"length":9,"data":"frontend"},{"type":"hashtag","offset":41,"length":7,"data":"nodejs"},{"type":"hashtag","offset":49,"length":8,"data":"reactjs"},{"type":"hashtag","offset":58,"length":7,"data":"remote"},{"type":"handle","offset":733,"length":8,"data":"hopacha"}],"date":"2020-06-11T20:10:59+00:00","link":"tg://resolve?domain=javascript_jobs_feed&post=0","tags":[{"name":"javascript"},{"name":"nodejs"},{"name":"reactjs"},{"name":"docker"},{"name":"git"},{"name":"mongodb"},{"name":"mongoose"}],"cities":[],"allowsRemote":true}},{"node":{"__typename":"Job","id":"16849567744-1001110946746","title":"Js разработчик","text":"#вакансия #frontend_developer #js #react #stream #lead\nLead frontend developer (React JS)\nЛокация: г. Казань, Спартаковская, 6 \nФормат работы: удаленка (на карантине), офис с большими окнами (в обычной жизни)\nЗанятость: полная \nЗарплатная вилка: от 150 000 до 200 000 рублей net\n\nОписание вакансии:\nStream  - 100% дочерняя компания МТС. Ищем ведущего React JS разработчика в группу frontend-разработки из 4 человек для участия в проекте Виртуальная АТС.\nО проекте:\nВАТС - платформа для сборки бизнес-инструментов и «умная» телефонная связь через интернет, которая доступна в любом месте и для разных типов устройств. \nЧто предстоит?\n- проектирование архитектуры и участие в разработке frontend продукта;\n- проведение code review;\n- участие в оптимизации процессов разработки в компании.\nМы ожидаем от Вас:\n- опыт работы с React от 2-3 лет\n- опыт разработки SPA\n- знание TypeScript, NextJS, SCSS, Styled Components, HTML5, CSS\n- умение писать Unit-тесты (будет плюсом)\nЧто предлагаем?\n- \"белую\" заработную плату + полугодовые бонусы;\n- гибкий график работы;\n- ДМС со стоматологией, страхование жизни после испытательного срока;\n- корпоративную мобильную связь;\n- льготное кредитование для участников зарплатного проекта МТС Банк.\nНазвание компании: Stream https://stream.ru/\n\n📲 Контакты для резюме и вопросов: @askamasaska, AMorozova@stream.ru","markup":[{"type":"hashtag","offset":0,"length":9,"data":"вакансия"},{"type":"hashtag","offset":10,"length":19,"data":"frontend_developer"},{"type":"hashtag","offset":30,"length":3,"data":"js"},{"type":"hashtag","offset":34,"length":6,"data":"react"},{"type":"hashtag","offset":41,"length":7,"data":"stream"},{"type":"hashtag","offset":49,"length":5,"data":"lead"},{"type":"link","offset":1255,"length":18,"data":"https://stream.ru/"},{"type":"handle","offset":1310,"length":12,"data":"askamasaska"},{"type":"link","offset":1324,"length":19,"data":"mailto:AMorozova@stream.ru"}],"date":"2020-06-11T20:02:29+00:00","link":"tg://resolve?domain=javascript_jobs_feed&post=0","tags":[{"name":"javascript"},{"name":"reactjs"},{"name":"dotnet"},{"name":"typescript"},{"name":"html"},{"name":"css"}],"cities":[{"code":"kazan"}],"allowsRemote":true}},{"node":{"__typename":"Job","id":"16843276288-1001110946746","title":"Js разработчик","text":"#вакансия #удаленка #работа #node #команда_разработчиков \n\nГород и адрес офиса: любой\nФормат работы: удаленка\nЗанятость: полная\nЗарплатная вилка: для middle от 160 до 180 net\nдля teamlead от 200 до 230 net\n\nОписание вакансии: \nНужна сработанная команда node.js разработчиков с тимлидом для разработки облачных сервисов.\n\nЗадачи:\n1. Разработка и развитие системы управления биллингом облачных сервисов.\n- Front-end - личные кабинеты, различные графики, настройки использования и отчёты сервиса.\n- Back-end - реализация функционала, необходимого фронту, плюс реализация непосредственного взаимодействия с облачными сервисами.\n- Интеграция других бизнес-процессов в систему.\n- Постепенное превращение системы из внутреннего продукта компании в продукт для клиентов, с соответствующими требованиями.\n\n2. Разработка сервиса регистрации и классификации обращений с использованием машинного обучения.\n- Создание среды для работы моделей, созданных нашими дата-сайентистами.\n- Интеграция с другими сервисами.\n\n3. Создание продуктов или MVP совместно с другими подразделениями в рамках автоматизации деятельности организации или в рамках проверки гипотез;\n\n4. Закрытые проекты для заказчиков федерального уровня.\n\nИспользуемые технологии: \nBack end: node.js\nFront end: Vue + typescript (текущая версия), React with hooks + redux + typescript (новые версии).\nСоотношение задач back/front примерно 80/20, поэтому знание фреймворков на front end не критично, если есть готовность их освоить.\n\nТакже важны знания:\n- PostgreSQL.\n- Умение работать в Linux.\n- Знание React.Js и Redux.\n\nИ будет плюсом:\n- Опыт разработки систем в микросервисной архитектуре и работы с геоинформационными системами.\n- Опыт работы с mongoDB.\n- Знания по настройке web-серверов.\n- Знания инструментария devops. \n\nУсловия: возможна полностью удаленная работа (не в Москве), оформление по ТК РФ, ежеквартальные премии, ДМС после испытательного + есть программы лояльности с партнерами (подробнее на интервью).\n\nНазвание компании: КА Star-Staff\n\nКонтакты: @aazaitseva azaitseva@star-staff.ru","markup":[{"type":"hashtag","offset":0,"length":9,"data":"вакансия"},{"type":"hashtag","offset":10,"length":9,"data":"удаленка"},{"type":"hashtag","offset":20,"length":7,"data":"работа"},{"type":"hashtag","offset":28,"length":5,"data":"node"},{"type":"hashtag","offset":34,"length":22,"data":"команда_разработчиков"},{"type":"handle","offset":2016,"length":11,"data":"aazaitseva"},{"type":"link","offset":2028,"length":23,"data":"mailto:azaitseva@star-staff.ru"}],"date":"2020-06-11T19:55:18+00:00","link":"tg://resolve?domain=javascript_jobs_feed&post=0","tags":[{"name":"javascript"},{"name":"nodejs"},{"name":"dotnet"},{"name":"vuejs"},{"name":"typescript"},{"name":"reactjs"},{"name":"redux"},{"name":"postgresql"},{"name":"linux"},{"name":"mongodb"},{"name":"web"},{"name":"react-redux"}],"cities":[],"allowsRemote":true}}]}}},"context":{}}