{"hash":"f5f6bf98bd95e769321482904cbbd488f77922fd","data":{"records":{"id":"dotnet","name":"dotnet","belongsTo":{"totalCount":172,"pageInfo":{"totalPages":18,"currentPage":13},"edges":[{"node":{"__typename":"Job","id":"3579838464-1001121589364","title":".net разработчик","text":"#Mobile #Xamarin #Android #iOS #crossplatform #Middle #Senior #удаленно\n\n#вакансия \"Разработчик мобильных приложений Xamarin\" \nУдаленная работа\n\nПредлагаемая заработная плата 3000 USD (200 000 + рублей.)\n\nО нас:\nМы - стартап в индустрии Outdoors с офисами в США и Европе. Наша команда является по-настоящему распределенной: на сегодняшний день члены команды находятся в США, Австрии, Австралии, России и Южной Африке.\n\nУ нас начинается интересный этап, так как мы запускаем новый продукт с фокусом на американском рынке.\n\nКого мы ищем? Хорошего человека и по совместительству топового мобильного разработчика :) \n\nЧто будешь делать:\nЖдем, что ты включишься в работу по созданию нового мобильного приложения, которое является частью запускаемого нами продукта.\n\nОсновные требования: \n-Опыт работы в качестве мобильного разработчика не менее 3-х лет.\n-Высокий уровень самоорганизации.\n-Экспертные знания фреймворков Xamarin Native и .NET.\n-Готовность отвечать за delivery мобильного приложения.\n-Умение работать в команде.\n-Тестирование разрабатываемых решений.\n\nУсловия: \n- ЗП 3000 USD - 200 000 + руб.\n- Огненный коллектив \n- Выслушаем и применим пожелания и идеи\n- Все плюшки удаленки\n____________________________________\n📞Telegram @tankograin +79818148442","markup":[{"type":"hashtag","offset":0,"length":7,"data":"Mobile"},{"type":"hashtag","offset":8,"length":8,"data":"Xamarin"},{"type":"hashtag","offset":17,"length":8,"data":"Android"},{"type":"hashtag","offset":26,"length":4,"data":"iOS"},{"type":"hashtag","offset":31,"length":14,"data":"crossplatform"},{"type":"hashtag","offset":46,"length":7,"data":"Middle"},{"type":"hashtag","offset":54,"length":7,"data":"Senior"},{"type":"hashtag","offset":62,"length":9,"data":"удаленно"},{"type":"hashtag","offset":73,"length":9,"data":"вакансия"},{"type":"bold","offset":205,"length":7,"data":""},{"type":"bold","offset":614,"length":19,"data":""},{"type":"bold","offset":761,"length":20,"data":""},{"type":"bold","offset":1061,"length":10,"data":""},{"type":"handle","offset":1234,"length":11,"data":"tankograin"},{"type":"link","offset":1246,"length":12,"data":"tel:+79818148442"}],"date":"2020-06-18T10:50:53+00:00","link":"tg://resolve?domain=xamarin_jobs&post=3414","tags":[{"name":"dotnet"},{"name":"csharp"},{"name":"mobile"},{"name":"xamarin"},{"name":"android"},{"name":"ios"}],"cities":[],"allowsRemote":true}},{"node":{"__typename":"Job","id":"91275395072-1001067529236","title":"Python разработчик","text":"#вакансия #python #fulltime #office #remote #спб #Senior #Middle #backend #офис #удаленка #работа\nЗп 120 000-160 000 net \n\nПривет! Компания e-Legion в поисках Python-разработчика в офис в Санкт-Петербург или удаленно.\n\nНеобходимые навыки:\n🔹 Python 3,6+, \n🔹 Django Framework и сопутствующие ему библиотеки и утилиты,\n🔹 asyncio, aiohttp и другие асинхронные библиотеки,\n🔹 PostgreSQL или другие реляционные БД,\nхорошее знание принципов работы HTTP и смежных сетевых протоколов,\n🔹 английский язык на уровне чтения и написания технической документации,\n🔹 Git.\n\nПреимуществом будет:\n🔹 знание SQL и реляционной алгебры,\n🔹 знакомство с Redis, RabbitMQ,\n🔹 опыт работы с Ansible,\n🔹 основы администрирования Linux,\n🔹 знание других языков программирования, фреймворков и технологий.\n🔹 понимание микросервисной архитектуры, опыт разработки высоконагруженных систем\n\nОт нас:\n🔹 гибкий график работы,\n🔹 компенсацию спорта, обучения и медицины,\n🔹 обучение и систему наставничества,\nвозможность писать статьи для отраслевых медиа и выступать на конференциях и митапах.\n\nОписание вакансии: https://www.e-legion.ru/vacancies/spb/python/\nКонтакты: @alexandrashirokina или на почту: hr@e-legion.com","markup":[{"type":"hashtag","offset":0,"length":9,"data":"вакансия"},{"type":"hashtag","offset":10,"length":7,"data":"python"},{"type":"hashtag","offset":18,"length":9,"data":"fulltime"},{"type":"hashtag","offset":28,"length":7,"data":"office"},{"type":"hashtag","offset":36,"length":7,"data":"remote"},{"type":"hashtag","offset":44,"length":4,"data":"спб"},{"type":"hashtag","offset":49,"length":7,"data":"Senior"},{"type":"hashtag","offset":57,"length":7,"data":"Middle"},{"type":"hashtag","offset":65,"length":8,"data":"backend"},{"type":"hashtag","offset":74,"length":5,"data":"офис"},{"type":"hashtag","offset":80,"length":9,"data":"удаленка"},{"type":"hashtag","offset":90,"length":7,"data":"работа"},{"type":"link","offset":1086,"length":45,"data":"https://www.e-legion.ru/vacancies/spb/python/"},{"type":"handle","offset":1142,"length":19,"data":"alexandrashirokina"},{"type":"link","offset":1176,"length":15,"data":"mailto:hr@e-legion.com"}],"date":"2020-06-18T10:31:37+00:00","link":"tg://resolve?domain=python_jobs&post=0","tags":[{"name":"python"},{"name":"dotnet"},{"name":"django"},{"name":"postgresql"},{"name":"git"},{"name":"sql"},{"name":"redis"},{"name":"rabbitmq"},{"name":"ansible"},{"name":"linux"}],"cities":[],"allowsRemote":true}},{"node":{"__typename":"Job","id":"26406289408-1001075660570","title":"Php разработчик","text":"#работа #вакансия #удаленка #job #РНР #Yii #Laravel #Symfony \n\nВсем привет! \n\nСейчас нахожусь в поисках РНР разработчика уровня senior в одну из крупнейших ecommerce компаний России - Bork/Technopark. \nНа текущий  момент внутри идет несколько проектов по поддержке и развитию интернет-площадки по продаже бытовой техники и электроники премиум-класса.\n\nПродукты реализуются на стеке: PHP (Yii2), MySql, JS (Vue), HTML, CSS, Gulp, Webpack, SVG, Canvas. \nЗадачи: разработка серверной части веб-проектов на всех этапах (от участия в проектировании архитектуры, до разработки сервисов), участие в митапах для обсуждения предстоящих задач, вносить вклад в планирование архитектуры и т.д.\n\nОсновные требования:\n\n- Опыт коммерческой разработки от 3 лет на PHP (7.1 или выше);\n\n- Хорошие знания современных фреймворков  (YII, Symfony);\n\n- Знание ООП, базовых алгоритмов, шаблонов проектирования, стандартов написания кода.\n\nУсловия: \n\n- ЗП до 250 000 net;\n\n- Полная УДАЛЁНКА; \n\n- Оформление через ИП или как самозанятый; \n\nКто заинтересовался - пишите в ЛС (@nastyaklassnaya),  буду рада пообщаться :)","markup":[{"type":"hashtag","offset":0,"length":7,"data":"работа"},{"type":"hashtag","offset":8,"length":9,"data":"вакансия"},{"type":"hashtag","offset":18,"length":9,"data":"удаленка"},{"type":"hashtag","offset":28,"length":4,"data":"job"},{"type":"hashtag","offset":33,"length":4,"data":"РНР"},{"type":"hashtag","offset":38,"length":4,"data":"Yii"},{"type":"hashtag","offset":43,"length":8,"data":"Laravel"},{"type":"hashtag","offset":52,"length":8,"data":"Symfony"},{"type":"handle","offset":1049,"length":16,"data":"nastyaklassnaya"}],"date":"2020-06-18T08:54:14+00:00","link":"tg://resolve?domain=php_jobs&post=25183","tags":[{"name":"php"},{"name":"yii"},{"name":"laravel"},{"name":"symfony"},{"name":"mysql"},{"name":"vuejs"},{"name":"html"},{"name":"css"},{"name":"gulp"},{"name":"webpack"},{"name":"svg"},{"name":"canvas"},{"name":"dotnet"}],"cities":[],"allowsRemote":true}},{"node":{"__typename":"Job","id":"17038311424-1001110946746","title":"Js разработчик","text":"#вакансия #работа #удаленка #backend #node #nodejs #remote\nГород и адрес офиса: Москва, Савеловская\nФормат работы: удаленка\nЗанятость: полная || проектная\nЗарплатная вилка: 100-160 т.р.\n\nОписание вакансии: \nИщем опытного backend-разработчика node.js для разработки высоконадежных транзакционных сервисов интеграции с различными системами\n\nТребования:\n• Опыт работы с унаследованными системами\n• Знание PHP на уровне понимания и чтения кода будет плюсом\n• Знание и понимание работы сетевых протоколов TCP/IP, HTTP, SMTP, IMAP\n• Знание и понимание языка JavaScript и связанных с ним технологий и фреймворков\n• Опыт разработки серверных приложений\n• Понимание основных процессов разработки, умение работать в команде\n• Понимание принципов ООП, подходов в программировании и требований к транзакционным системам\n\nЗадачи:\n• Разработка высоконадежных транзакционных сервисов интеграции с различными системами\n• Поддержка и модернизация существующих систем\n\nНазвание компании: TechPlatforms (https://techpl.net)\nКонтакты:@desych79\n\n—\n\n👉 Обсуждение вакансии в чате @javascript_jobs","markup":[{"type":"hashtag","offset":0,"length":9,"data":"вакансия"},{"type":"hashtag","offset":10,"length":7,"data":"работа"},{"type":"hashtag","offset":18,"length":9,"data":"удаленка"},{"type":"hashtag","offset":28,"length":8,"data":"backend"},{"type":"hashtag","offset":37,"length":5,"data":"node"},{"type":"hashtag","offset":43,"length":7,"data":"nodejs"},{"type":"hashtag","offset":51,"length":7,"data":"remote"},{"type":"link","offset":985,"length":18,"data":"https://techpl.net"},{"type":"handle","offset":1014,"length":9,"data":"desych79"},{"type":"handle","offset":1058,"length":16,"data":"javascript_jobs"}],"date":"2020-06-18T08:18:05+00:00","link":"tg://resolve?domain=javascript_jobs_feed&post=0","tags":[{"name":"javascript"},{"name":"nodejs"},{"name":"php"},{"name":"smtp"},{"name":"dotnet"}],"cities":[{"code":"moscow"}],"allowsRemote":true}},{"node":{"__typename":"Job","id":"71544340480-1001054966032","title":"Android разработчик","text":"#вакансия #удаленка #iOS #Android\nФормат работы: Удаленка или офис Екб\nЗанятость: Полная\nЗарплатная вилка от 100 до 150 net (зависит от уровня)\nУровень: middle/middle+\nКомпания: УБРиР\nКонтакты: @vikacrn\n\nСейчас мы в поиске мобильных разработчиков (Android/iOS).📱Для развития основного проекта - мобильного банка и написание нового (приложение для юр/лиц).\n\nПодробнее по вакансиям здесь:\niOS https://ekaterinburg.hh.ru/vacancy/37221491\nAndroid https://ekaterinburg.hh.ru/vacancy/37110186","markup":[{"type":"hashtag","offset":0,"length":9,"data":"вакансия"},{"type":"hashtag","offset":10,"length":9,"data":"удаленка"},{"type":"hashtag","offset":20,"length":4,"data":"iOS"},{"type":"hashtag","offset":25,"length":8,"data":"Android"},{"type":"bold","offset":153,"length":14,"data":""},{"type":"handle","offset":194,"length":8,"data":"vikacrn"},{"type":"bold","offset":358,"length":29,"data":""},{"type":"link","offset":392,"length":43,"data":"https://ekaterinburg.hh.ru/vacancy/37221491"},{"type":"link","offset":444,"length":43,"data":"https://ekaterinburg.hh.ru/vacancy/37110186"}],"date":"2020-06-18T08:05:01+00:00","link":"tg://resolve?domain=mobile_jobs&post=0","tags":[{"name":"mobile"},{"name":"android"},{"name":"ios"},{"name":"dotnet"}],"cities":[],"allowsRemote":true}},{"node":{"__typename":"Job","id":"17027825664-1001110946746","title":"Js разработчик","text":"#вакансия #работа #удаленка #backend #node #nodejs #remote\nГород и адрес офиса: Москва, Савеловская\nФормат работы: удаленка\nЗанятость: полная || проектная\nЗарплатная вилка: 100-160 т.р.\n\nОписание вакансии: \nИщем опытного backend-разработчика node.js для разработки высоконадежных транзакционных сервисов интеграции с различными системами\n\nТребования:\n• Опыт работы с унаследованными системами\n• Знание PHP на уровне понимания и чтения кода будет плюсом\n• Знание и понимание работы сетевых протоколов TCP/IP, HTTP, SMTP, IMAP\n• Знание и понимание языка JavaScript и связанных с ним технологий и фреймворков\n• Опыт разработки серверных приложений\n• Понимание основных процессов разработки, умение работать в команде\n• Понимание принципов ООП, подходов в программировании и требований к транзакционным системам\n\nЗадачи:\n• Разработка высоконадежных транзакционных сервисов интеграции с различными системами\n• Поддержка и модернизация существующих систем\n\nНазвание компании: TechPlatforms (https://techpl.net)\nКонтакты:@desych79\n\n—\n\n👉 Обсуждение вакансии в чате @javascript_jobs","markup":[{"type":"hashtag","offset":0,"length":9,"data":"вакансия"},{"type":"hashtag","offset":10,"length":7,"data":"работа"},{"type":"hashtag","offset":18,"length":9,"data":"удаленка"},{"type":"hashtag","offset":28,"length":8,"data":"backend"},{"type":"hashtag","offset":37,"length":5,"data":"node"},{"type":"hashtag","offset":43,"length":7,"data":"nodejs"},{"type":"hashtag","offset":51,"length":7,"data":"remote"},{"type":"link","offset":985,"length":18,"data":"https://techpl.net"},{"type":"handle","offset":1014,"length":9,"data":"desych79"},{"type":"handle","offset":1058,"length":16,"data":"javascript_jobs"}],"date":"2020-06-17T16:37:00+00:00","link":"tg://resolve?domain=javascript_jobs_feed&post=0","tags":[{"name":"javascript"},{"name":"nodejs"},{"name":"php"},{"name":"smtp"},{"name":"dotnet"}],"cities":[{"code":"moscow"}],"allowsRemote":true}},{"node":{"__typename":"Job","id":"17019437056-1001110946746","title":"Javascript разработчик","text":"#вакансия #Иннополис #Казань #React #Javascript #офис #remote \nЛокация: Казань/ Иннополис\n(Есть хороший релокационный пакет)\nФормат работы: офис / удаленная работа\nЗанятость: полная, гибкое начало дня\nЗП: от 80 000 до 130 000 NET \n\n*к сожалению, у компании нет формальной возможности трудоустраивать иностранных граждан \n\n🔹 Ак Барс Цифровые Технологии — это лаборатория «АК БАРС» Банка, которая создает digital-продукты и инновационные решения в сфере fintech, чтобы сделать мир финансов простым и доступным каждому.\nРебята и правда инноваторы в своей сфере, которые горят своими делом и стремятся сделать жизнь людей проще и комфортнее. Команда нуждается в специалисте, который бы присоединился к работе над созданием ряда сложных интересных цифровых продуктов, которыми будут пользоваться.\nВакансия открыта в связи с глобальным расширением.\n\n🔹 Требуемый опыт:\n-Javascript (ES5, ES6+) - коммерческий опыт разработки от 2-ух лет;\n-React/Redux - коммерческий опыт разработки от 1-ого года;\n\n🔹Что интересного:\n- Рабочее пространство - один из самых привлекательных и “гибких” офисов в Казани;\n- Полное соблюдение норм ТК РФ;\n- Льготные условия кредитования;\n- Программа релокации для иногородних;\n- Конкурентоспособная белая заработная плата;\n-Профессиональное развитие и обучение (внутренние и внешние конференции, семинары);\n- Футбол, настольный теннис, скидки на занятия в фитнес-центре.\n\n🔹 Контакты:\ne-mail: daria@luckyhunter.io\ntelegram: @prudentdaria\nКА: luckyhunter\nПишите, буду рада ответить на все возможные вопросы здесь или по почте 😊\n\n—\n\n👉 Обсуждение вакансии в чате @javascript_jobs","markup":[{"type":"hashtag","offset":0,"length":9,"data":"вакансия"},{"type":"hashtag","offset":10,"length":10,"data":"Иннополис"},{"type":"hashtag","offset":21,"length":7,"data":"Казань"},{"type":"hashtag","offset":29,"length":6,"data":"React"},{"type":"hashtag","offset":36,"length":11,"data":"Javascript"},{"type":"hashtag","offset":48,"length":5,"data":"офис"},{"type":"hashtag","offset":54,"length":7,"data":"remote"},{"type":"link","offset":1414,"length":20,"data":"mailto:daria@luckyhunter.io"},{"type":"handle","offset":1445,"length":13,"data":"prudentdaria"},{"type":"handle","offset":1583,"length":16,"data":"javascript_jobs"}],"date":"2020-06-17T15:28:29+00:00","link":"tg://resolve?domain=javascript_jobs_feed&post=0","tags":[{"name":"javascript"},{"name":"reactjs"},{"name":"dotnet"},{"name":"redux"},{"name":"react-redux"}],"cities":[{"code":"kazan"}],"allowsRemote":true}},{"node":{"__typename":"Job","id":"17015242752-1001110946746","title":"Javascript разработчик","text":"#frontend #Javascript #middle #Vue #вакансия #москва #офис #remote #удаленно\n🆕 Frontend developer (Vue)  🆕\nГород и адрес офиса: Москва, метро Дмитривская, БЦ Савеловский Сити \nФормат работы: офис или удаленка ✈\nЗанятость: полная \nЗарплатная вилка: от 110 000 до 150 000 RUB net \nОписание вакансии: \n▫ Нужны толковые руки и голова фронтендера для работы в проекте EPICSTARS - крупнейшей в России и СНГ платформы для работы с блогерами и лидерами мнений.\n\n▪ Задачи: \n-- Позиция ведущего frontend разработчика на проекте: разрабатывать административную панель на vue,  клиентскую часть системы с поиском, фильтрами.\n-- Разрабатывать отдельную систему для b2b сегмента с нуля.\n-- Скоро возможен запуск нового проекта.\n\n▫ Все стильно, модно, молодежно, атмосфера Silicon Valley – included. \n▫ Компания – бизнес-инкубатор и бизнес-акселератор от Адмитада, под ее крышей собрано N стартапов, есть собственная и аутсорс-разработка, сейчас ищем в конкретный проект. \nEPICSTARS – платформа прямой рекламы в социальных сетях. Мы используем уникальный технологический комплекс собственной разработки и благодаря высокому качеству алгоритмов и технологий помогаем нашим клиентам и партнерам добиться впечатляющих результатов. \nНазвание компании: Admitad (Admitad/Projects)  \nКонтакты: @Si8eria or a.podolskaya@admitad.pro\nЗа успешную рекомендацию - бутылочка просекко🍸\n\n—\n\n👉 Обсуждение вакансии в чате @javascript_jobs","markup":[{"type":"hashtag","offset":0,"length":9,"data":"frontend"},{"type":"hashtag","offset":10,"length":11,"data":"Javascript"},{"type":"hashtag","offset":22,"length":7,"data":"middle"},{"type":"hashtag","offset":30,"length":4,"data":"Vue"},{"type":"hashtag","offset":35,"length":9,"data":"вакансия"},{"type":"hashtag","offset":45,"length":7,"data":"москва"},{"type":"hashtag","offset":53,"length":5,"data":"офис"},{"type":"hashtag","offset":59,"length":7,"data":"remote"},{"type":"hashtag","offset":67,"length":9,"data":"удаленно"},{"type":"handle","offset":1274,"length":8,"data":"Si8eria"},{"type":"link","offset":1286,"length":24,"data":"mailto:a.podolskaya@admitad.pro"},{"type":"handle","offset":1393,"length":16,"data":"javascript_jobs"}],"date":"2020-06-17T15:24:32+00:00","link":"tg://resolve?domain=javascript_jobs_feed&post=0","tags":[{"name":"javascript"},{"name":"vuejs"},{"name":"dotnet"}],"cities":[{"code":"moscow"}],"allowsRemote":true}},{"node":{"__typename":"Job","id":"17014194176-1001110946746","title":"Js разработчик","text":"#вакансия #москва #frontend #Javascript #middle #react #vanilla \n🚀 Frontend developer (middle/middle+) \nГород и адрес офиса: Москва, метро Дмитривская, БЦ Савеловский Сити \nФормат работы: офис, пока что удаленка \nЗанятость: полная \nЗарплатная вилка: от 120 000 до 180 000 RUB net \nОписание вакансии: \n▫Компания Admitad Projects ищет фронтенд-разработчика, который способен писать код с красивой модульной архитектурой под два наших продукта. \n▪ Задачи: \n\n-- доработка сайта и внутреннего редактора материалов (проект Hype.Tech) \n-- создание нового личного кабинета на react (проект Push.World) \n▪ Стек: S6+, React, node.js (опционально) \n▫ Все стильно, модно, молодежно, атмосфера Silicon Valley – included. \n▫ Компания – бизнес-инкубатор и бизнес-акселератор от Адмитада, под ее крышей собрано N стартапов, есть собственная и аутсорс-разработка, сейчас ищем в конкретный проект. \nНазвание компании: Admitad (Admitad/Projects)  \nКонтакты: @Si8eria or a.podolskaya@admitad.pro\nЗа успешную рекомендацию - бутылочка просекко🍸\n\n—\n\n👉 Обсуждение вакансии в чате @javascript_jobs","markup":[{"type":"hashtag","offset":0,"length":9,"data":"вакансия"},{"type":"hashtag","offset":10,"length":7,"data":"москва"},{"type":"hashtag","offset":18,"length":9,"data":"frontend"},{"type":"hashtag","offset":28,"length":11,"data":"Javascript"},{"type":"hashtag","offset":40,"length":7,"data":"middle"},{"type":"hashtag","offset":48,"length":6,"data":"react"},{"type":"hashtag","offset":55,"length":8,"data":"vanilla"},{"type":"handle","offset":940,"length":8,"data":"Si8eria"},{"type":"link","offset":952,"length":24,"data":"mailto:a.podolskaya@admitad.pro"},{"type":"handle","offset":1059,"length":16,"data":"javascript_jobs"}],"date":"2020-06-17T15:23:50+00:00","link":"tg://resolve?domain=javascript_jobs_feed&post=0","tags":[{"name":"javascript"},{"name":"reactjs"},{"name":"dotnet"},{"name":"nodejs"}],"cities":[{"code":"moscow"}],"allowsRemote":true}},{"node":{"__typename":"Job","id":"17013145600-1001110946746","title":"Js разработчик","text":"#вакансия\nГород и адрес офиса: Москва \nФормат работы: удаленка\nЗанятость: полная\nЗарплатная вилка:  от 80 000 до 150 000руб net\nОписание вакансии: Требования - миддл, опыт от 3х лет\nCSS3, HTML5, JavaScript\nVue.js второй версии\nwebpack\nопыт в работе с REST или GraphQL\nумение верстать или писать JS код с учетом возможностей IE11\nуверенное использование Git\nНазвание компании: в платформу WikiVote\nКонтакты: @irensergeeva\n\n—\n\n👉 Обсуждение вакансии в чате @javascript_jobs","markup":[{"type":"hashtag","offset":0,"length":9,"data":"вакансия"},{"type":"handle","offset":407,"length":13,"data":"irensergeeva"},{"type":"handle","offset":455,"length":16,"data":"javascript_jobs"}],"date":"2020-06-17T15:23:09+00:00","link":"tg://resolve?domain=javascript_jobs_feed&post=0","tags":[{"name":"javascript"},{"name":"dotnet"},{"name":"css"},{"name":"html"},{"name":"vuejs"},{"name":"webpack"},{"name":"rest"},{"name":"graphql"},{"name":"git"}],"cities":[{"code":"moscow"}],"allowsRemote":true}}]}}},"context":{}}