{"hash":"f5f6bf98bd95e769321482904cbbd488f77922fd","data":{"records":{"id":"java","name":"java","belongsTo":{"totalCount":242,"pageInfo":{"totalPages":25,"currentPage":19},"edges":[{"node":{"__typename":"Job","id":"71481425920-1001054966032","title":"Android разработчик","text":"#вакансия #спб #питер #android #java #kotlin #офис #fulltime\n\nВсем привет! \n\nИщу Middle/Senior Android разработчиков.\n\nВ продуктовую компанию, которая занимается проектами  FinTech направления. Нужны Senior и Middle Android developer'ы.\nОсновной СТЭК: MVVM, Clean, Retrofit, Dagger2, RxJava2.\n\nЛокация: Санкт-Петербург, м. Чкаловская\nФормат работы: Офис, фуллтайм\nЗаработная плата: 120 - 250к руб. На руки\n\nЧто делать:\n\n- разрабатывать и исправлять ошибки в SDK для токенизации банковских карт;\n- встраивать и поддерживать это SDK в приложении;\n- участвовать в проработке, проверке и внедрении продуктовых гипотез;\n- проводить Code Review;\n- участвовать в принятии технических решений и планировании процесса разработки.\n\nЧто ждем от вас:\n\n- опыт разработки под Android SDK: Kotlin, RxJava2, Dagger2, MVVM (желательно);\n- понимание различий в работе приложений на разных версиях Android;\n- знание ООП, шаблонов проектирования;\n- опыт использования систем контроля версий, понимание принципов командной разработки и Agile.\n\nМы предлагаем:\n\n- Участие в развитии полезного и популярного приложения, возможность сделать мир лучше;\n- Стабильную, конкурентную зарплату;\n- Оформление по ТК РФ с первого дня обучения и работы. ДМС после прохождения испытательного срока;\n- Оплату мобильной связи, частичную компенсацию оплаты питания в 20 кафе и ресторанах в шаговой доступности от офиса;\n- Гибкий график и высокий уровень самостоятельности;\n- Командные мероприятия и приятные коллеги;\n- Комфортный офис в центре города, чай-кофе-снэки.\n\nПодробности:\n@Alex_Korm\nsasha8419@gmail.com","markup":[{"type":"hashtag","offset":0,"length":9,"data":"вакансия"},{"type":"hashtag","offset":10,"length":4,"data":"спб"},{"type":"hashtag","offset":15,"length":6,"data":"питер"},{"type":"hashtag","offset":22,"length":8,"data":"android"},{"type":"hashtag","offset":31,"length":5,"data":"java"},{"type":"hashtag","offset":37,"length":7,"data":"kotlin"},{"type":"hashtag","offset":45,"length":5,"data":"офис"},{"type":"hashtag","offset":51,"length":9,"data":"fulltime"},{"type":"handle","offset":1543,"length":10,"data":"Alex_Korm"},{"type":"link","offset":1554,"length":19,"data":"mailto:sasha8419@gmail.com"}],"date":"2020-06-17T13:29:29+00:00","link":"tg://resolve?domain=mobile_jobs&post=0","tags":[{"name":"mobile"},{"name":"android"},{"name":"java"},{"name":"kotlin"},{"name":"mvvm"}],"cities":[],"allowsRemote":false}},{"node":{"__typename":"Job","id":"103051952128-1001089317451","title":"Qa инженер","text":"#вакансия #спб #fulltime #qa #удаленно\n\nКомпания: Smart Design (smddev.com) \n\nДолжность: Инженер по ручному и автоматизированному тестированию (QA & Automation Engineer)\n\nИщем инженера по тестированию BSS сотового оператора.\nБольшая распределенная команда (~30 человек).\nНужно хорошо уметь тестировать вручную и, когда это выгодно, суметь автоматизировать.\n\n\nНаши пожелания к кандидатам:\n✔️Опыт работы с Java или любым другим высокоуровневым языком программирования на уровне, достаточном для самостоятельного написания игры \"Сапёр\"\n✔️Опыт работы в консоли linux на уровне, достаточном для для решения задач:\nпоиск и изменение строк в файле\nуправление системными процессами\n✔️Опыт взаимодействия с REST API на уровне, достаточном для того, чтобы получить из ВКонтакте имя и фамилию своего аккаунта, не используя браузер\n\nПлюсом будет:\n✔️Опыт работы с протоколом SOAP\n✔️Профессиональный опыт функционального тестирования\n✔️Опыт работы с JUnit, Gradle, Oracle\n\nУсловия:\n✔️\"Белая\" зарплата до 110K gross\n✔️ДМС\n✔️ Работа в удаленном режиме на данный момент, далее в уютном офисе.\n\nhttps://spb.hh.ru/vacancy/37540632\n\nМои контакты: @romanovaya iyliia.romanova@smddev.com","markup":[{"type":"hashtag","offset":0,"length":9,"data":"вакансия"},{"type":"hashtag","offset":10,"length":4,"data":"спб"},{"type":"hashtag","offset":15,"length":9,"data":"fulltime"},{"type":"hashtag","offset":25,"length":3,"data":"qa"},{"type":"hashtag","offset":29,"length":9,"data":"удаленно"},{"type":"link","offset":64,"length":10,"data":"http://smddev.com"},{"type":"link","offset":1077,"length":34,"data":"https://spb.hh.ru/vacancy/37540632"},{"type":"handle","offset":1127,"length":11,"data":"romanovaya"},{"type":"link","offset":1139,"length":26,"data":"mailto:iyliia.romanova@smddev.com"}],"date":"2020-06-17T11:29:10+00:00","link":"tg://resolve?domain=qa_jobs&post=0","tags":[{"name":"qa"},{"name":"java"},{"name":"linux"},{"name":"rest"},{"name":"soap"},{"name":"junit"},{"name":"gradle"},{"name":"oracle"}],"cities":[],"allowsRemote":true}},{"node":{"__typename":"Job","id":"103044612096-1001089317451","title":"Qa engineer","text":"#вакансия #QA #фуллстек #ФТ #АТ #удаленка \n\nВакансия: QA Engineer (АФТ на Java)\nГород: удаленка из городов РФ, стандартный график с Москвой\nЗарплата: от 150 000 рублей до 210 000 рублей на руки \nФормат: полный день, полная занятость\nКомпания Innovative People \n\n➡ Требования:\n• От 2х лет опыта тестирования веб- или мобильных приложений\n• Практический опыт применения практик тест-дизайна\n• Рабочие знания клиент-серверной архитектуры\n• Знание Java\n• Уверенный опыт разработки авто-тестов, работы с инструментами автоматизации\nДля удаленки нужен релевантный опыт удаленной работы.\n\n➡ Предлагаем:\n• все по ТК РФ, белое и официальное\n• ДМС со стоматологией, программа лояльности\n• адекватное руководство (сейчас мы на удаленке и собеседования по скайпу)\n• большое комьюнити, классные команды, карьерный рост\n• помогаем с релокацией в Москву/Питер/Екатеринбург(50 000 рублей)\n или есть возможность работы удаленно\n\nРезюме и вопросы @Priboch","markup":[{"type":"hashtag","offset":0,"length":9,"data":"вакансия"},{"type":"hashtag","offset":10,"length":3,"data":"QA"},{"type":"hashtag","offset":14,"length":9,"data":"фуллстек"},{"type":"hashtag","offset":24,"length":3,"data":"ФТ"},{"type":"hashtag","offset":28,"length":3,"data":"АТ"},{"type":"hashtag","offset":32,"length":9,"data":"удаленка"},{"type":"handle","offset":929,"length":8,"data":"Priboch"}],"date":"2020-06-17T10:42:47+00:00","link":"tg://resolve?domain=qa_jobs&post=0","tags":[{"name":"qa"},{"name":"java"}],"cities":[],"allowsRemote":true}},{"node":{"__typename":"Job","id":"103043563520-1001089317451","title":"Qa engineer","text":"#СПб #СанктПетербург #вакансия #QA #fulltime #office #automation\n🏙Компания: Actimind\n📣Вакансия: QA Automation Engineer\n🌎Проект: Evernote – один из самых популярных сервисов для заметок и для предоставления единой рабочей среды.\n💰Зп: до 130 000 net\n\n🇺🇸В составе распределенной международной команды предстоит: \n🔸Разрабатывать и поддерживать автотесты на Java;\n🔸Оптимизировать Performance; \n🔸Поддерживать и развивать существующий фреймворк;\n🔸Предлагать улучшения в процессе тестирования;\n🔸Иногда тестировать вручную (не более 10% времени).\nИспользуемый стек: Java , JBehave, Selenium, немного python\n\nMust have:\n🔸Опыт автоматизации на Java, Selenium и знание ООП\n🔸Английский для работы с документацией и участия в общих митингах (intermediate)\n🔸Приветствуется владение Python, JBehave.\n\nУсловия:\n📚Возможность участвовать в обучающих конференциях от Evernote;\n🎓Экспертная команда;\n💎Спорт, медицинские компенсации, оплата обучений\nОфис рядом с м. Старая Деревня\n\nПишите в телеграм: @actimind_jobs, на почту ksenia.dryukova@actimind.com\nИли звоните +7(921)1847150","markup":[{"type":"hashtag","offset":0,"length":4,"data":"СПб"},{"type":"hashtag","offset":5,"length":15,"data":"СанктПетербург"},{"type":"hashtag","offset":21,"length":9,"data":"вакансия"},{"type":"hashtag","offset":31,"length":3,"data":"QA"},{"type":"hashtag","offset":35,"length":9,"data":"fulltime"},{"type":"hashtag","offset":45,"length":7,"data":"office"},{"type":"hashtag","offset":53,"length":11,"data":"automation"},{"type":"bold","offset":610,"length":11,"data":""},{"type":"bold","offset":799,"length":9,"data":""},{"type":"handle","offset":995,"length":14,"data":"actimind_jobs"},{"type":"link","offset":1020,"length":28,"data":"mailto:ksenia.dryukova@actimind.com"},{"type":"link","offset":1061,"length":14,"data":"tel:+7(921)1847150"}],"date":"2020-06-17T10:37:11+00:00","link":"tg://resolve?domain=qa_jobs&post=0","tags":[{"name":"qa"},{"name":"dotnet"},{"name":"java"},{"name":"selenium"},{"name":"python"}],"cities":[],"allowsRemote":false}},{"node":{"__typename":"Job","id":"71456260096-1001054966032","title":"Android разработчик","text":"#вакансия #работа #Санкт_Петербург #Пермь #Казань  #middle #Android #Kotlin #RxJava\nГород: Санкт-Петербург, Казань, Пермь\nФормат работы: Офис (пока удаленка)\nЗанятость: Полная\nЗарплатная вилка от 120 net до 200 net  (зависит от уровня)\nКомпания: Стрим\nКонтакты: @Ntsama_IT \n\nМы Stream - делаем классные и реально удобные продукты для людей. 📣Сейчас находимся в поиске Android разработчика.📱\n\nСейчас у нас есть несколько проектов, куда мы ищем разработчиков. Подробнее по вакансиям здесь:\nhttps://spb.hh.ru/vacancy/37445336\nhttps://spb.hh.ru/vacancy/37365465\n\nМы ждём: \n🔹опыт разработки как на Kotlin, так и на Java;\n🔹опыт в работе с RxJava;\n\nУсловия:\n✅Гибкий график\n✅ДМС со стоматологией\n✅Компенсация мобильной связи\n✅Официальное оформление и \"белая\" зарплата + премии сверху оклада\n✅Возможность дополнительного обучения\nКонтакты: @Ntsama_IT \nпочта: eivanova@stream.ru","markup":[{"type":"hashtag","offset":0,"length":9,"data":"вакансия"},{"type":"hashtag","offset":10,"length":7,"data":"работа"},{"type":"hashtag","offset":18,"length":16,"data":"Санкт_Петербург"},{"type":"hashtag","offset":35,"length":6,"data":"Пермь"},{"type":"hashtag","offset":42,"length":7,"data":"Казань"},{"type":"hashtag","offset":51,"length":7,"data":"middle"},{"type":"hashtag","offset":59,"length":8,"data":"Android"},{"type":"hashtag","offset":68,"length":7,"data":"Kotlin"},{"type":"hashtag","offset":76,"length":7,"data":"RxJava"},{"type":"link","offset":246,"length":6,"data":"https://stream.ru/"},{"type":"handle","offset":262,"length":10,"data":"Ntsama_IT"},{"type":"link","offset":490,"length":34,"data":"https://spb.hh.ru/vacancy/37445336"},{"type":"link","offset":525,"length":34,"data":"https://spb.hh.ru/vacancy/37365465"},{"type":"handle","offset":835,"length":10,"data":"Ntsama_IT"},{"type":"link","offset":854,"length":18,"data":"mailto:eivanova@stream.ru"}],"date":"2020-06-17T08:54:24+00:00","link":"tg://resolve?domain=mobile_jobs&post=0","tags":[{"name":"mobile"},{"name":"android"},{"name":"kotlin"},{"name":"dotnet"},{"name":"java"}],"cities":[{"code":"perm"},{"code":"kazan"}],"allowsRemote":true}},{"node":{"__typename":"Job","id":"71448920064-1001054966032","title":"Android разработчик","text":"#вакансия #android #Москва #офис #fulltime\n\nКомпания - АНТОР БИЗНЕС РЕШЕНИЯ\nОфис: Москва, м.Тульская, ул. 4-й Рощинский проезд, д.19 (БЦ ВНИИ НЕФТЕМАШ)\n\nВакансия: Android разработчик (Java)\nЗарплата: 100000-120000 рублей.\n\nОбязанности:\n👨🏻‍💻Участие в разработке комплексных систем для автоматизации транспортной логистики;\n⚽️️Работа в команде;\n👨🏻‍✈️Выполнение задач, поставленных руководителем проекта;\n👨🏻‍💻Развитие существующих и создание новых мобильных приложений для Android;\n📊Разработка UI, разработка бизнес-логики, организация взаимодействия с backend системы;\n👨🏻‍💻Организация взаимодействия со сторонними приложениями, оборудованием и внешними системами.\n\nТребования:\n👨🏻‍💻Опыт программирования на Java Android от 2 лет;\n👨🏻‍💻Знание Android Studio;\n👨🏻‍💻Технологии: Room, RXJava, EventBus;\n👨‍🎓Высшее образование;\n🇬🇧Английский язык (технический).\n\nУсловия:\n🎁Интересная работа в стабильной компании профессионалов;\n🎁Перспективные проекты;\n🎁Дружный коллектив единомышленников;\n🎁Оформление в соответствии с требованиями Трудового Кодекса РФ с первого дня;\n🎁Современный офис в центральной части города (в 10-минутной шаговой доступности от ст. метро «Тульская»);\n🎁Пятидневка с пн – пт с 09.30-17.30;\n🎁Уровень дохода: обсуждается на собеседовании;\n🎁Выплата заработной платы официально и стабильно на карту 2 раза в месяц;\n🎁Испытательный срок 3 месяца.\n\nКонтакты:\nTelegram: @AndreyBikmaev \nТелефон: 89851161727\nEmail: bikmaev@antor.ru","markup":[{"type":"hashtag","offset":0,"length":9,"data":"вакансия"},{"type":"hashtag","offset":10,"length":8,"data":"android"},{"type":"hashtag","offset":19,"length":7,"data":"Москва"},{"type":"hashtag","offset":27,"length":5,"data":"офис"},{"type":"hashtag","offset":33,"length":9,"data":"fulltime"},{"type":"handle","offset":1405,"length":14,"data":"AndreyBikmaev"},{"type":"link","offset":1430,"length":11,"data":"tel:89851161727"},{"type":"link","offset":1449,"length":16,"data":"mailto:bikmaev@antor.ru"}],"date":"2020-06-17T08:06:14+00:00","link":"tg://resolve?domain=mobile_jobs&post=0","tags":[{"name":"mobile"},{"name":"android"},{"name":"java"},{"name":"android-studio"}],"cities":[{"code":"moscow"}],"allowsRemote":false}},{"node":{"__typename":"Job","id":"1701838848-1001091028994","title":"Java developer","text":"#вакансия  #удаленка #Java #Spring #senior #middle #backend\nЛокация: #регион \nФормат работы: #fulltime #удаленка\nЗ/п: 80-160 NET\nВакансия: Java developer (senior,middle)\nКомпания: X5 Retail Group\nКонтакты: @CatProgramist\nТребования:\n- отличное понимание Java Core, Collections, Multithreading, transaction API\n- Spring\n- Hibernate, JDBC\n- SOAP\n- REST\n- Maven, Gradle\n- ActiveMQ\n- Git\n- *nix\nНаш целевой стек: Java 11+, Spring Boot, Spring Cloud, Netflix, PostgreSQL.  \nРаботаем в окружении CI/CD на GitLab, Apache Maven, Jira, Confluence (сейчас переписывают на этом стеке)\nСтарый стек проекта: Java 8, Spring Core, Spring Security, TBI (ORM), PostgreSQL, SQL, Jasper, Swing, XML, Jetty Embedded, Junit, Mockito, PowerMock, JBehave, maven, gradle, Jenkins, Gitlab, Sonar, REST, RMI, Git, CI/CD\nУсловия:\nУдаленка\nОфициальное трудоустройство и оформление полностью согласно ТК РФ\nДополнительная медицинская страховка (ДМС) – после испытательного срока","markup":[{"type":"hashtag","offset":0,"length":9,"data":"вакансия"},{"type":"hashtag","offset":11,"length":9,"data":"удаленка"},{"type":"hashtag","offset":21,"length":5,"data":"Java"},{"type":"hashtag","offset":27,"length":7,"data":"Spring"},{"type":"hashtag","offset":35,"length":7,"data":"senior"},{"type":"hashtag","offset":43,"length":7,"data":"middle"},{"type":"hashtag","offset":51,"length":8,"data":"backend"},{"type":"hashtag","offset":69,"length":7,"data":"регион"},{"type":"hashtag","offset":93,"length":9,"data":"fulltime"},{"type":"hashtag","offset":103,"length":9,"data":"удаленка"},{"type":"handle","offset":206,"length":14,"data":"CatProgramist"}],"date":"2020-06-17T08:02:57+00:00","link":"tg://resolve?domain=jvmjobs&post=1623","tags":[{"name":"java"},{"name":"jvm"},{"name":"spring"},{"name":"dotnet"},{"name":"hibernate"},{"name":"jdbc"},{"name":"soap"},{"name":"rest"},{"name":"maven"},{"name":"gradle"},{"name":"git"},{"name":"cloud"},{"name":"postgresql"},{"name":"gitlab"},{"name":"apache"},{"name":"orm"},{"name":"sql"},{"name":"swing"},{"name":"xml"},{"name":"jetty"},{"name":"junit"},{"name":"jenkins"},{"name":"spring-boot"},{"name":"spring-security"}],"cities":[],"allowsRemote":true}},{"node":{"__typename":"Job","id":"102971211776-1001089317451","title":"Qa engineer","text":"#вакансия #QA #Java #Python #HighLoad #backend #СанктПетербург #Спб #fulltime #Bercut\n\nПривет! Мы команда компании Bercut.\nУже 25 лет разрабатываем высоконагруженное ПО для ведущих игроков на рынке операторов сотовой связи.\nНашими решениями, реально, пользуется каждый 5 человек в мире! \nОчень ждем в команду гениев тестирования #QA Engineer\nКто испытывает страсть к высоконагруженному backend – welcome!!!\nУмеешь тестить руками – отлично! Автоматизировать – огонь! Не умеешь, но хочешь - научим!)\n\nMust Have:\n- Базы данных: Oracle/Postgre\n- ОС Linux/Solaris\n- Sql/PL/Sql\n- SOAP\n- Python/Java\n\nНаходимся в Санкт-Петербурге, рядом с метро Пионерская.\nЖдем, как в офис, так и на удаленку.\nЗарплата: от 100 000 до 150 000net + годовой бонус до 2х окладов.\n\nЧто в проекте:\n•  тестирование многокомпонентной OLTP систему 24/7 (API);\n•  нагрузка;\n•  регрессия;\n•  настройка CD;\n•  тест-планы, тест-кейсы, чек-листы и тд.\n\nПиши мне в личку, отправляй письмо, звони – буду рада рассказать все  подробности!\n\nhttps://www.bercut.com/\nКонтакты @Mari_Kupaeva или почта maria.kupaeva@bercut.co","markup":[{"type":"hashtag","offset":0,"length":9,"data":"вакансия"},{"type":"hashtag","offset":10,"length":3,"data":"QA"},{"type":"hashtag","offset":14,"length":5,"data":"Java"},{"type":"hashtag","offset":20,"length":7,"data":"Python"},{"type":"hashtag","offset":28,"length":9,"data":"HighLoad"},{"type":"hashtag","offset":38,"length":8,"data":"backend"},{"type":"hashtag","offset":47,"length":15,"data":"СанктПетербург"},{"type":"hashtag","offset":63,"length":4,"data":"Спб"},{"type":"hashtag","offset":68,"length":9,"data":"fulltime"},{"type":"hashtag","offset":78,"length":7,"data":"Bercut"},{"type":"hashtag","offset":329,"length":3,"data":"QA"},{"type":"link","offset":1000,"length":23,"data":"https://www.bercut.com/"},{"type":"handle","offset":1033,"length":13,"data":"Mari_Kupaeva"},{"type":"link","offset":1057,"length":23,"data":"mailto:maria.kupaeva@bercut.co"}],"date":"2020-06-16T17:01:11+00:00","link":"tg://resolve?domain=qa_jobs&post=0","tags":[{"name":"qa"},{"name":"java"},{"name":"python"},{"name":"oracle"},{"name":"linux"},{"name":"sql"},{"name":"soap"},{"name":"dotnet"}],"cities":[],"allowsRemote":false}},{"node":{"__typename":"Job","id":"344981504-1001352129329","title":"Go разработчик","text":"#вакансия #go #релокейт #fulltime #oфис\nНазвание компании: Toughbyte \nНазвание вакансии: Senior Go Developer\nЗарплатная вилка (до налогов): 3500-5000 EUR\nДоступна ли удалённая работа: Нет, офис, полный день.\nГород: Helsinki, Espoo\nСписок языков, которые необходимо знать: Английский \n\nСписок необходимых навыков: Go и по крайней мере, еще один надежный статически типизированный язык бэкэнда (например, Haskell, Rust, C#, Scala, Java, Elixir).\n- Опыт написания функционального кода\n- Опыт создания микросервисной архитектуры\n- Знание DevOps \n\n\nДано: Компания автоматизирует процесс проверки различных установок из воздуха с помощью дронов (например, линии электропередачи, ветрянные мельницы и тд). Они занимаются не производством самих дронов, а улучшением их производительности с помощью созданной командой компании самой развитой в мире системы воздушных датчиков. Благодаря этой технологии процесс сбора и анализа информации с помощью дронов стал намного быстрее, а затраты компаний на проверку и поддержание состояния своих установок значительно уменьшились. \n\nВ настоящий момент компания находится в поиске амбициозного Go разработчика, который бы присоединился к их команде в Хельсинки. Компания предлагает интересные и сложные задачи, связанные со сбором информации, геопривязки, анализом и обраткой 3D изображений практически в режиме реального времени, и последующая визуализация результатов с помощью современного веб интерфейса. \n\nПомимо возможности стать частью инновационного проекта, компания предлагает гибкие рабочие часы, а также возможность получить опыт с интересными технологиями в сфере дронов, географических информационных систем, интеграции датчиков - таких как LiDAR и тепловизионные камеры, ML / AI, DevOps.\nКонтактное лицо: Даша - @Daria_Shvec","markup":[{"type":"hashtag","offset":0,"length":9,"data":"вакансия"},{"type":"hashtag","offset":10,"length":3,"data":"go"},{"type":"hashtag","offset":14,"length":9,"data":"релокейт"},{"type":"hashtag","offset":24,"length":9,"data":"fulltime"},{"type":"hashtag","offset":34,"length":5,"data":"oфис"},{"type":"handle","offset":1759,"length":12,"data":"Daria_Shvec"}],"date":"2020-06-16T16:12:32+00:00","link":"tg://resolve?domain=gogetajobfeed&post=329","tags":[{"name":"go"},{"name":"haskell"},{"name":"rust"},{"name":"scala"},{"name":"java"},{"name":"elixir"}],"cities":[{"code":"helsinki"}],"allowsRemote":true}},{"node":{"__typename":"Job","id":"2217738240-1001134745498","title":"Devops engineer","text":"#вакансия #devops #fulltime #НижнийНовгород\n\nВакансия: DevOps Engineer\nКомпания: Natera\nЛокация: Нижний Новгород\nФормат работы: офис и удаленный формат\nЗанятость: полная\nЗарплатная вилка: от 2500 до 3200 $ до вычета.  \nКонтакт:@zKITO\n\nAt Natera we build fast, reliable and scalable software that is easy to test and deploy. Our Engineering team works on a set of applications such as a complex Laboratory Information Management System (LIMS) and Constellation – our cloud based data analytics SaaS platform hosted on Amazon Web Services. As a DevOps Engineer your responsibilities will include building scalable infrastructure on which we deliver our software as well as managing development tools that are used on a daily basis by the members of Engineering team.\n\n\n      BENEFITS\nSalary $ 2500-3200 gross.  \nStocks\nPossibility of remote work with flexible working hours\nFree lunch, snacks etc in office\nMacbook Pro + monitors\nComfortable and cozy office with table tennis, playstation etc\nPossibility of business trips to the USA California\nFull compliance with labour laws.\n\n\nKNOWLEDGE, SKILLS, AND ABILITIES\n\n  Mandatory\nExperience in Linux Ubuntu administration.\nPractical experience managing applications deployed using AWS/GCP or Docker.\nAbility to read and understand Java code.\nStrong ability to troubleshoot complex issues ranging from system resources to application stack traces.\n\n  Nice to have experience with\nKubernetes, Rancher\nPython/Java\nTerraform\nAtlassian applications stack\ndatabases and SQL\n  \n \nPRIMARY RESPONSIBILITIES\n\nDevelop, configure and manage tools for fast and reliable deployments of our software.\nParticipate in operations efforts and be the point person for infrastructural activities.\nBuild tools for monitoring our infrastructure and resolve any issues with instances running in production. \nDevelop automation and CI/CD processes to enable teams to build, test, deploy, manage, configure, scale and monitor their applications using the latest technologies such as Docker, Kubernetes, Terraform and others.\nParticipate in architectural decisions to help improve reliability and scalability of our software.\nHelp configure and manage development tools such as Atlassian Bitbucket, Bamboo, Artifactory and others.\n\n—\n\n👉 Обсуждение вакансии в чате @devops_jobs","markup":[{"type":"hashtag","offset":0,"length":9,"data":"вакансия"},{"type":"hashtag","offset":10,"length":7,"data":"devops"},{"type":"hashtag","offset":18,"length":9,"data":"fulltime"},{"type":"hashtag","offset":28,"length":15,"data":"НижнийНовгород"},{"type":"handle","offset":227,"length":6,"data":"zKITO"},{"type":"handle","offset":2283,"length":12,"data":"devops_jobs"}],"date":"2020-06-16T15:59:39+00:00","link":"tg://resolve?domain=devops_jobs_feed&post=2115","tags":[{"name":"cloud"},{"name":"web"},{"name":"linux"},{"name":"ubuntu"},{"name":"amazon-web-services"},{"name":"google-cloud-platform"},{"name":"docker"},{"name":"java"},{"name":"kubernetes"},{"name":"python"},{"name":"sql"}],"cities":[{"code":"nice"},{"code":"nizhny-novgorod"}],"allowsRemote":true}}]}}},"context":{}}