{"hash":"f5f6bf98bd95e769321482904cbbd488f77922fd","data":{"records":{"id":"jenkins","name":"jenkins","belongsTo":{"totalCount":70,"pageInfo":{"totalPages":7,"currentPage":2},"edges":[{"node":{"__typename":"Job","id":"2269118464-1001134745498","title":"Devops инженер","text":"#вакансия #Москва #Казань #Екатеринбург #Питер #Новосибирск фултайм #Экспресс42 #инженер #удаленка\nГород: Москва. Вакансия для кандидатов из любых городов.\nКомпания: Экспресс 42\nФормат работы: удалённый \nЗанятость: полная\nЗарплата: от 120 000 до 200 000 рублей на руки\n\nМы небольшая команда, которая легко проводит эксперименты и быстро принимает решения. Мы делаем проекты по постановке практик DevOps, обучению DevOps практикам в технологических компаниях и корпоративном секторе.\nВ составе нашей команды тебя ждут разнообразные задачи по созданию и улучшению решений, обеспечивающих процессы разработки и эксплуатации цифровых продуктов наших клиентов. \nМы строим высокодоступную и удобную инфраструктуру, изучаем новые подходы и помогаем нашим клиентом с внедрением и адаптацией инженерных практик, таких как Непрерывная поставка, Инфраструктура как код, Централизованное логирование. \nИнструменты выбираем под задачу и потребности клиентов, среди основных, которые точно нужно знать: Kubernetes и его экосистема, Ansible, Terraform, CI-сервисы, системы контроля версий, облачные решения от разных провайдеров.\n\nМы ожидаем от тебя:\n— знание практик и инструментов логирования и мониторинга;\n— опыт описания инфраструктуры в виде кода (Ansible, Terraform, etc);\n— понимание процесса CI/CD;\n— слова Kubernetes, Prometheus, Jenkins, Gitlab, ELK, AWS, GCP не вызывают изумления, а заставляют трепетать нежное сердце инженера\n\nКлассно, если у тебя есть опыт эксплуатации веб-проектов в продакшене. И если при этом ты можешь похвастаться опытом применения нескольких перечисленных инструментов, то тебе точно нужно в Экспресс.\n\nУ нас действительно огненная команда. Мы вместе работаем, общаемся, ходим в бары, посещаем ивенты, организовываем внутренние хакатоны, готовим друг друга к выступлениям на конференциях, поддерживаем и болеем за наше общее дело. А с марта мы перешли на удалённую работу 🚀\nУ нас классно! Присоединяйся!\n\nКонтакты: Рушана @razrushana и rushana@express42.com\n\n—\n\n👉 Обсуждение вакансии в чате @devops_jobs","markup":[{"type":"hashtag","offset":0,"length":9,"data":"вакансия"},{"type":"hashtag","offset":10,"length":7,"data":"Москва"},{"type":"hashtag","offset":18,"length":7,"data":"Казань"},{"type":"hashtag","offset":26,"length":13,"data":"Екатеринбург"},{"type":"hashtag","offset":40,"length":6,"data":"Питер"},{"type":"hashtag","offset":47,"length":12,"data":"Новосибирск"},{"type":"hashtag","offset":68,"length":11,"data":"Экспресс42"},{"type":"hashtag","offset":80,"length":8,"data":"инженер"},{"type":"hashtag","offset":89,"length":9,"data":"удаленка"},{"type":"handle","offset":1946,"length":11,"data":"razrushana"},{"type":"link","offset":1960,"length":21,"data":"mailto:rushana@express42.com"},{"type":"handle","offset":2016,"length":12,"data":"devops_jobs"}],"date":"2020-06-30T17:13:05+00:00","link":"tg://resolve?domain=devops_jobs_feed&post=2164","tags":[{"name":"kubernetes"},{"name":"ansible"},{"name":"jenkins"},{"name":"gitlab"},{"name":"amazon-web-services"},{"name":"google-cloud-platform"},{"name":"express"}],"cities":[{"code":"moscow"},{"code":"kazan"},{"code":"novosibirsk"}],"allowsRemote":true}},{"node":{"__typename":"Job","id":"72383201280-1001054966032","title":"Ios developer","text":"#вакансия #спб #ios #middle #senior #spb #офис #IoT #умныйдом \nMiddle/Senior iOS developer \nReady for Sky 🚀 \nhttps://readyforsky.com/ru/career/ \n📍 полный день, удаленно в СПб/офис м. Нарвская \nМы серьезно занимаемся сферой iot, создаем умные приборы.\nИщем iOS developer, который будет разрабатывать приложение, использующее данные с IoT-устройств для предоставления пользователям нужных товаров и услуг \n💡 Используем: Swift, Objective-C; Jenkins; GraphQL; RxSwift; MVC, MVVM и Viper \nВ команде: разрабатываем новый функционал приложения, внутренние фреймворки (Private pods), фреймворки для общего доступа; пишем Unit тесты; принимаем участие в создании протоколов работы с умными устройствами; Refactoring и Code-review. \nПредлагаем: \nРаботу в профессиональной команде, более 300 000 активных пользователей приложения. \nЗП от 130 до 250 тыс. руб. на руки  \nПосле исп.срока корпоративный английский \n📬 Пиши: @Rupeka_Natali","markup":[{"type":"hashtag","offset":0,"length":9,"data":"вакансия"},{"type":"hashtag","offset":10,"length":4,"data":"спб"},{"type":"hashtag","offset":15,"length":4,"data":"ios"},{"type":"hashtag","offset":20,"length":7,"data":"middle"},{"type":"hashtag","offset":28,"length":7,"data":"senior"},{"type":"hashtag","offset":36,"length":4,"data":"spb"},{"type":"hashtag","offset":41,"length":5,"data":"офис"},{"type":"hashtag","offset":47,"length":4,"data":"IoT"},{"type":"hashtag","offset":52,"length":9,"data":"умныйдом"},{"type":"bold","offset":63,"length":27,"data":""},{"type":"bold","offset":92,"length":13,"data":""},{"type":"link","offset":110,"length":34,"data":"https://readyforsky.com/ru/career/"},{"type":"bold","offset":258,"length":13,"data":""},{"type":"bold","offset":409,"length":11,"data":""},{"type":"bold","offset":487,"length":10,"data":""},{"type":"bold","offset":726,"length":11,"data":""},{"type":"bold","offset":906,"length":5,"data":""},{"type":"handle","offset":912,"length":14,"data":"Rupeka_Natali"}],"date":"2020-06-30T15:50:02+00:00","link":"tg://resolve?domain=mobile_jobs&post=69030","tags":[{"name":"mobile"},{"name":"ios"},{"name":"swift"},{"name":"objective-c"},{"name":"jenkins"},{"name":"graphql"},{"name":"mvvm"}],"cities":[],"allowsRemote":true}},{"node":{"__typename":"Job","id":"104086896640-1001089317451","title":"Qa инженер","text":"#вакансия #спб #питер #fulltime #QALead\n\n🚀Старший тестировщик/ QA Lead (в офис)\n130-170k\n\nО компании:\nНаПоправку.Ру - медицинский онлайн-сервис: поиск врача по отзывам и real time запись на приём в частные и государственные клиники. Именно мы партнеры суперприложения Тинькофф в блоке «Здоровье». Мы помогаем более 1 млн. пользователей в месяц. Сайт + сейчас создаём первое приложение (нативное).\n\nЦель должности:\n🔸Настроить процесс тестирования, предлагать и внедрять инструменты чтобы повышать эффективность тестов;\n🔸Запустить автотесты;\n🔸Формировать и развивать команду (сейчас 4 тестировщика и 15 разработчиков);\n🔸Тестировать сайт и мобильное приложение;\n🔸Не позволять багам просачиваться на прод и расстраивать пользователей.\n\nПочему точно стоит идти к нам:\n🔸Возможность выстроить и наладить процесс, сделать «как надо»;\n🔸 Социально-значимый проект, его пользователи - простые люди как ты и я;\n🔸Гибкое начало рабочего дня (с 8 до 11);\n🔸Официальное оформление и «белая» зарплата;\n🔸ДМС;\n🔸У нас есть софинансирование командных активностей;\n🔸Программа опционов для ключевых сотрудников;\n🔸Офис (в нем снеки и прочее) на ВО;\nЗарплата:\n🔸Гибко обсуждаем, вилка 130-170k\n\nЧего мы ждём от тебя:\n🔸Высшее техническое образование, курсы по тестированию;\n🔸Более 2х лет работал/а в IT-компаниях с хорошо выстроенным процессом тестирования, есть опыт автоматизации;\n🔸Работал/а с Git, Docker, SSH, Selenium, Jenkins;\n🔸Внимателен/а к деталям, требователен/а к себе и окружающим.\n\nВопросы и резюме к @Vasilisa_bu","markup":[{"type":"hashtag","offset":0,"length":9,"data":"вакансия"},{"type":"hashtag","offset":10,"length":4,"data":"спб"},{"type":"hashtag","offset":15,"length":6,"data":"питер"},{"type":"hashtag","offset":22,"length":9,"data":"fulltime"},{"type":"hashtag","offset":32,"length":7,"data":"QALead"},{"type":"bold","offset":43,"length":58,"data":""},{"type":"bold","offset":103,"length":14,"data":""},{"type":"bold","offset":399,"length":14,"data":""},{"type":"bold","offset":738,"length":31,"data":""},{"type":"bold","offset":1138,"length":8,"data":""},{"type":"bold","offset":1183,"length":20,"data":""},{"type":"bold","offset":1486,"length":18,"data":""},{"type":"handle","offset":1505,"length":12,"data":"Vasilisa_bu"}],"date":"2020-06-30T15:26:56+00:00","link":"tg://resolve?domain=qa_jobs&post=99265","tags":[{"name":"qa"},{"name":"git"},{"name":"docker"},{"name":"ssh"},{"name":"selenium"},{"name":"jenkins"}],"cities":[],"allowsRemote":false}},{"node":{"__typename":"Job","id":"2268069888-1001134745498","title":"Devops инженер","text":"#Москва #СПБ #НижнийНовгород #Краснодар #вакансия #fulltime #офис #Савеловская #Devops  #teamlead\nГород: Москва. (а так же города присутствия нашего подразделения: Санкт-Петербург, Нижний Новгород, Краснодар)\nОфис, м. Савеловская\nПолная занятость \nВилка: от 150 000 до 250 000 рублей на руки.\nКомпания \"Инфосистемы Джет\" в поисках Ведущего Devops-инженера.\n\nПривет! Мы ищем крутого девопса, который СМОЖЕТ. Сможет стать частью одной из крутых команд, которые прямо сейчас выполняют проекты по разработке для крупнейших заказчиков.\n\nСтало страшно? Не бойся! Нашими проектами управляют умопомрачительные менеджеры проектов, супертехничные-энергичные архитекторы, въедливые ведущие аналитики, лучшие тест-менеджеры и, конечно же, команда крутых DevOps-ов.\n\nМы настроены на длительное сотрудничество с нашими заказчиками и делаем страшные вещи красивыми на хорошем технологическом стеке.\n\nХочешь с нами??? найди меня в телеге @ovandrianova\n\nВот еще немного подробностей по вакансии:\n\nФормальные формальности из вакансий, которые все всё равно обсуждают.\nОбязанности:\n1) работа с потоком задач в Jira:\n- уточнение постановок задач, если автор недостаточно четко их сформулировал;\n- возврат негодных, в техническом плане, задач;\n- оценка задач по объёму работ и по сроку исполнения при текущей занятости и приоритизации;\n- своевременное смещение сроков по задачам;\n- распределение задач по инженерам команды;\n- отслеживание всего пула задач на предмет своевременного их исполнения, передачи в тестирование, и закрытия.\n2) код ревью: лид должен быть уверен в качестве того, что мы отдаём заказчику;\n3) ликвидация аварий (например, после проведения неких IT мероприятий CI сломался);\n4) разбор инцидентов (например, сломался CI, его починили, но однозначного понимания как такое произошло нет);\n5) помощь команде продуктивных инженеров, как экспертизой, так и написанием соответствующих пайплайнов для них;\n6) понимание и немедленное реагирование на нехватку инженеров для решения пула задач;\n7) выработка и согласование перспективных решений.\nЧего мы ждем :\n•отличное знание Linux RHEL, CentOS;\n•понимание процесса разработки ПО;\n•понимание микросервисной архитектуры;\n•опыт работы с git, ELK, docker, jira, zabbix;\n•опыт работы с jenkins, в частности с плагином Configuration as a Code;\n•опыт работы с kubernetes приветствуется;\n•опыт написания скриптов на bash, python, groovy, ansible;\n•опыт написания запросов в SQL приветствуется;\n•личные качества: широкий кругозор, быстрая адаптивность, стрессоустойчивость, самостоятельность, нацеленность на результат.\n\nПеченьки, ложки, вилки, десерты:\n•График работы 5/2 с 10.00 до 18.30, м. Савеловская (шаговая доступность – 5-7 минут);\n•Работу в команде профессионалов с возможностью карьерного роста;\n•Дружелюбную атмосферу внутри компании;\n•Оформление по ТК РФ;\n•Оклад + бонусы по проектам;\n•Возможности для профессионального роста (внешнее и внутреннее обучение, сертификация);\n•Возможность изучать английский язык в офисе;\n•Компенсация за фитнес;\n•Оформляется ДМС для сотрудников;\n•Медицинский кабинет в офисе;\n•Буфеты на территории компании, бесплатные завтраки.\nПо всем вопросам в личку:  @ovandrianova\n\n—\n\n👉 Обсуждение вакансии в чате @devops_jobs","markup":[{"type":"hashtag","offset":0,"length":7,"data":"Москва"},{"type":"hashtag","offset":8,"length":4,"data":"СПБ"},{"type":"hashtag","offset":13,"length":15,"data":"НижнийНовгород"},{"type":"hashtag","offset":29,"length":10,"data":"Краснодар"},{"type":"hashtag","offset":40,"length":9,"data":"вакансия"},{"type":"hashtag","offset":50,"length":9,"data":"fulltime"},{"type":"hashtag","offset":60,"length":5,"data":"офис"},{"type":"hashtag","offset":66,"length":12,"data":"Савеловская"},{"type":"hashtag","offset":79,"length":7,"data":"Devops"},{"type":"hashtag","offset":88,"length":9,"data":"teamlead"},{"type":"handle","offset":922,"length":13,"data":"ovandrianova"},{"type":"handle","offset":3134,"length":13,"data":"ovandrianova"},{"type":"handle","offset":3182,"length":12,"data":"devops_jobs"}],"date":"2020-06-30T14:22:49+00:00","link":"tg://resolve?domain=devops_jobs_feed&post=2163","tags":[{"name":"linux"},{"name":"centos"},{"name":"git"},{"name":"docker"},{"name":"jenkins"},{"name":"kubernetes"},{"name":"bash"},{"name":"python"},{"name":"groovy"},{"name":"ansible"},{"name":"sql"}],"cities":[{"code":"moscow"},{"code":"krasnodar"},{"code":"nizhny-novgorod"}],"allowsRemote":false}},{"node":{"__typename":"Job","id":"2267021312-1001134745498","title":"Devops инженер","text":"#вакансия #devops #удаленка\n\nНазвание компании: ZenCar\nГород и адрес офиса: г. Иннополис, ул.Университетская 7.\nФормат работы:  удалёнка, можно офис (обсуждаемо)\nЗанятость: частичная. около 4х ч/день.\nЗарплатная вилка: от 70 до 100 gross (обсуждаемо)\n\nНеобходим человек на сопровождение и поддержание проекта, который уже вышел в продакшн. \n\nОпыт работы на аналогичной позиции от 3х лет.\n\nЗадачи:\n- Автоматизация технологических процессов разработки, тестирования и развертывания ПО.\n- Мониторинг и контроль процессов\n- Разработка совместно с руководителем архитектуры и дизайна систем автоматизации\n- Контроль качества систем автоматизации\n\nТребования:\n\n- Иметь опыт проектирования и разработки инструментов автоматизации\n- Иметь опыт написания тестовых сценариев и автоматизированных тестов\n- Знать и уметь использовать Ansible, Chef, Docker, Docker Compose, Jenkins, Gitlab, Kubernetes, Jira и др. инструменты\n- Знать и иметь опыт с как минимум одним из ЯП: Node.js, Ruby, JavaScript, Golang, Java и др.\n- Опыт автоматизации развертывания и тестирования различных проектов, настройки CI/CD\n- Опыт развертывания и настройки различных программных систем мониторинга\n\n📩Откликаться: \nэл.п.: anna@sayhire.agency \nтелеграм: @anika0801\nКадровое агенство: sayhire.agency.\n\n—\n\n👉 Обсуждение вакансии в чате @devops_jobs","markup":[{"type":"hashtag","offset":0,"length":9,"data":"вакансия"},{"type":"hashtag","offset":10,"length":7,"data":"devops"},{"type":"hashtag","offset":18,"length":9,"data":"удаленка"},{"type":"link","offset":1191,"length":19,"data":"mailto:anna@sayhire.agency"},{"type":"handle","offset":1222,"length":10,"data":"anika0801"},{"type":"link","offset":1252,"length":14,"data":"http://sayhire.agency"},{"type":"handle","offset":1302,"length":12,"data":"devops_jobs"}],"date":"2020-06-30T12:01:52+00:00","link":"tg://resolve?domain=devops_jobs_feed&post=2162","tags":[{"name":"ansible"},{"name":"docker"},{"name":"jenkins"},{"name":"gitlab"},{"name":"kubernetes"},{"name":"nodejs"},{"name":"ruby"},{"name":"javascript"},{"name":"go"},{"name":"java"},{"name":"docker-compose"}],"cities":[],"allowsRemote":true}},{"node":{"__typename":"Job","id":"2265972736-1001134745498","title":"Devops инженер","text":"#вакансия #Remote #работаDevOps  #удаленка \nКомпания: IDG\nФормат работы: удаленка\nЗанятость: полная\nЗарплатная вилка: $2500 до $4000\n\n👋Всем привет. \nМы занимаемся разработкой собственных образовательных проектов, а также проектов для клиентов - технологических, финансовых и аудиторских компаний.\nСейчас мы ищем DevOps инженера в дополнение к нашей текущей DevOps-команде, который будет вместе с нами делать cross-cloud big-data/ai платформу для одного из наших крупных постоянных клиентов.\nУ нас всё в k8s. Помимо этого есть spark, несколько баз данных и еще куча всего интересного. Разворачиваем с помощью Terraform/Ansible/Helm\n\n📍Требования:\n\n- Опыт работы с AWS/Azure/GCE - от 2+ лет;\n- Опыт работы с Kubernetes - от 2+ лет\n- Опыт работы со Spark - от 1 года\n- Имеет опыт настройки и администрирования БД (Mongo, Redis, Rabbit, SQL Server, Postgres, MySQL, Elastic Search)\n- Опыт разработки на Python или других подобных языках;\n- Опыт организации процесса CI/CD (jenkins, teamcity).\n- Английский на уровне Intermediate и выше.\nБудет плюсом: \n\n- Опыт работы в крупных международных компаниях;\n- Опыт работы с технологиями Big Data;\n\n📌Что мы предлагаем:\n\n- Интересные задачи и возможность реализовать свой потенциал в международных проектах компании и внутренних стартапах;\n- Гибкий график (начало и конец рабочего дня согласовываются с менеджером и командой проекта)\n- Полностью удаленная работа\n- Дополнительные выплаты за профессиональные успехи\n\nКонтакт: @IDGAccount\n\n—\n\n👉 Обсуждение вакансии в чате @devops_jobs","markup":[{"type":"hashtag","offset":0,"length":9,"data":"вакансия"},{"type":"hashtag","offset":10,"length":7,"data":"Remote"},{"type":"hashtag","offset":18,"length":13,"data":"работаDevOps"},{"type":"hashtag","offset":33,"length":9,"data":"удаленка"},{"type":"handle","offset":1465,"length":11,"data":"IDGAccount"},{"type":"handle","offset":1511,"length":12,"data":"devops_jobs"}],"date":"2020-06-30T11:03:34+00:00","link":"tg://resolve?domain=devops_jobs_feed&post=2161","tags":[{"name":"cloud"},{"name":"ansible"},{"name":"amazon-web-services"},{"name":"azure"},{"name":"kubernetes"},{"name":"redis"},{"name":"rabbitmq"},{"name":"sql"},{"name":"postgresql"},{"name":"mysql"},{"name":"elasticsearch"},{"name":"python"},{"name":"jenkins"},{"name":"sql-server"}],"cities":[],"allowsRemote":true}},{"node":{"__typename":"Job","id":"2264924160-1001134745498","title":"Devops инженер","text":"#вакансия\n\nНазвание компании: Лаборатория нейронных систем и глубокого обучения МФТИ, deeppavlov.ai\nГород и адрес офиса: г. Долгопрудный, Научный переулок, 4 (кампус МФТИ, 10 минут пешком от станции МЦД Новодачная)\nФормат работы: сейчас удалёнка, далее офис (обсуждаемо)\nЗанятость: полная\nЗарплатная вилка: от 100 до 140 net\n\nВсем привет!\nМы занимаемся разработкой opensource библиотек для создания диалоговых систем. CI/CD процессы в определённой степени отлажены, но в связи с новыми задачами, возросло количество ручной работы, и текущие пайплайны требуют доработки.\n\nЗадачи:\n- деплой моделей библиотеки DeepPavlov на инфраструктуре лаборатории\n- оптимизация выкатки и тестирования компонентов чат-бота\n- доработка интеграционных компонентов библиотеки\n\nТребования:\n- знание python 3 и стандартной библиотеки\n- знание Docker, опыт написания Dockerfile\n- небольшой опыт с Kubernetes\n- опыт работы с linux shell\n- знакомство с REST\n\nПриветствуется:\nJenkins, git, знакомство с базами данных (простейшие запросы к Postgres, Mongo)\n\nНаш стек: Python 3, Docker, Kubernetes, PostgreSQL/MongoDB, Jenkins, git\n\nУсловия:\n- Оформление по ТК РФ\n- Гибкий рабочий график\n- Желающим предоставляем место в квартирном отбщежитии для сотрудников МФТИ через дорогу от работы\n\nКонтакты: @ignatovf, ignatov@deeppavlov.ai\n\n—\n\n👉 Обсуждение вакансии в чате @devops_jobs","markup":[{"type":"hashtag","offset":0,"length":9,"data":"вакансия"},{"type":"link","offset":86,"length":13,"data":"http://deeppavlov.ai"},{"type":"handle","offset":1270,"length":9,"data":"ignatovf"},{"type":"link","offset":1281,"length":21,"data":"mailto:ignatov@deeppavlov.ai"},{"type":"handle","offset":1337,"length":12,"data":"devops_jobs"}],"date":"2020-06-30T10:59:16+00:00","link":"tg://resolve?domain=devops_jobs_feed&post=2160","tags":[{"name":"dotnet"},{"name":"python"},{"name":"docker"},{"name":"kubernetes"},{"name":"linux"},{"name":"shell"},{"name":"rest"},{"name":"jenkins"},{"name":"git"},{"name":"postgresql"},{"name":"mongodb"}],"cities":[{"code":"dolgoprudny"}],"allowsRemote":true}},{"node":{"__typename":"Job","id":"1768947712-1001091028994","title":"Java разработчик","text":"#backend #java #middle  \nКомпания: #ОООСервисхаб \nЛокация: #удаленка \nЗ/п: 80 000-120 000 \nКонтакты:👉 @ANASTASIAHRServicehub  \n\nВ команду, которая производит и внедряет ПО для банков, нужен Разработчик Java (удаленно или в офис во Владимир).   \n\nМы предлагаем Вам:\n  \nФедеральный ИТ проект.  \n Бесплатное обучение английскому языку и возможность выбора обучающего курса по интересующей тематике. \nСоциальный пакет, официальное трудоустройство.  \n\n\nВ проекте используется следующий стек :  \n\n✔️Java с использованием spring-boot \n✔️Axon Framework в качестве каркасных фрейворков.  \n✔️А так же JOOQ, MapStruct, Jackson для работы с внешними источниками данных.  \n✔️Для тестирования используется JUnit + Mockito.  \n✔️Для решения задач безопасности(ЭЦП) используется BouncyCastle. \n✔️CI/CD организуется средствами Gradle, Docker, Jenkins, Rancher 2, Kubernetes, Helm.  \n✔️Для хранения данных используется СУБД PostgreSQL,для организации асинхронной коммуникации применяется RabbitMQ.  \n\nЧто требуется от Вас:  \n\nЗнание языков/фреймворков, Spring, SQL, Core Java S, серверов очередей, неряляционных баз данных, web-технологий приветствуется;  \nУверенное знание Core Java, Spring IoC, SQL  \n\n❕Приветствуются экспертизы в следующих областях: сервера очередей, неряляционные базы данных, CQRS, Event Sourcing, Web-технологии \n \nБуду также благодарна за контакты и рекомендации😊 \n✍️@ANASTASIAHRServicehub hr@srvhub.ru","markup":[{"type":"hashtag","offset":0,"length":8,"data":"backend"},{"type":"hashtag","offset":9,"length":5,"data":"java"},{"type":"hashtag","offset":15,"length":7,"data":"middle"},{"type":"hashtag","offset":35,"length":13,"data":"ОООСервисхаб"},{"type":"hashtag","offset":59,"length":9,"data":"удаленка"},{"type":"handle","offset":103,"length":22,"data":"ANASTASIAHRServicehub"},{"type":"handle","offset":1374,"length":22,"data":"ANASTASIAHRServicehub"},{"type":"link","offset":1397,"length":12,"data":"mailto:hr@srvhub.ru"}],"date":"2020-06-30T08:39:05+00:00","link":"tg://resolve?domain=jvmjobs&post=1687","tags":[{"name":"java"},{"name":"jvm"},{"name":"spring"},{"name":"jackson"},{"name":"junit"},{"name":"gradle"},{"name":"docker"},{"name":"jenkins"},{"name":"kubernetes"},{"name":"postgresql"},{"name":"rabbitmq"},{"name":"sql"},{"name":"web"},{"name":"spring-boot"}],"cities":[{"code":"vladimir"}],"allowsRemote":true}},{"node":{"__typename":"Job","id":"72284635136-1001054966032","title":"Ios developer","text":"#вакансия #спб #ios #middle #senior #spb #офис #IoT #умныйдом \nMiddle/Senior iOS developer \nReady for Sky 🚀 \nhttps://readyforsky.com/ru/career/ \n📍 полный день, удаленно/офис (сейчас вся компания работает удаленно) \nМы ищем iOS developer, который будет разрабатывать приложение, использующее данные с IoT-устройств для предоставления пользователям нужных товаров и услуг \n💡 Используем: Swift, Objective-C; Jenkins; GraphQL; RxSwift; MVC, MVVM и Viper \nВ команде: разрабатываем новый функционал приложения, внутренние фреймворки (Private pods), фреймворки для общего доступа; пишем Unit тесты; принимаем участие в создании протоколов работы с умными устройствами; Refactoring и Code-review. \nПредлагаем: \nРаботу в профессиональной команде (team lead, senior, middle), более 300 000 активных пользователей приложения. \nЗП от 130 до 250 тыс. руб. на руки \nПосле исп.срока корпоративный английский \n📬 Пиши: @Rupeka_Natali","markup":[{"type":"hashtag","offset":0,"length":9,"data":"вакансия"},{"type":"hashtag","offset":10,"length":4,"data":"спб"},{"type":"hashtag","offset":15,"length":4,"data":"ios"},{"type":"hashtag","offset":20,"length":7,"data":"middle"},{"type":"hashtag","offset":28,"length":7,"data":"senior"},{"type":"hashtag","offset":36,"length":4,"data":"spb"},{"type":"hashtag","offset":41,"length":5,"data":"офис"},{"type":"hashtag","offset":47,"length":4,"data":"IoT"},{"type":"hashtag","offset":52,"length":9,"data":"умныйдом"},{"type":"bold","offset":63,"length":27,"data":""},{"type":"bold","offset":92,"length":13,"data":""},{"type":"link","offset":110,"length":34,"data":"https://readyforsky.com/ru/career/"},{"type":"bold","offset":225,"length":13,"data":""},{"type":"bold","offset":376,"length":11,"data":""},{"type":"bold","offset":454,"length":10,"data":""},{"type":"bold","offset":693,"length":11,"data":""},{"type":"bold","offset":900,"length":5,"data":""},{"type":"handle","offset":906,"length":14,"data":"Rupeka_Natali"}],"date":"2020-06-29T15:34:19+00:00","link":"tg://resolve?domain=mobile_jobs&post=68936","tags":[{"name":"mobile"},{"name":"ios"},{"name":"swift"},{"name":"objective-c"},{"name":"jenkins"},{"name":"graphql"},{"name":"mvvm"}],"cities":[],"allowsRemote":true}},{"node":{"__typename":"Job","id":"103979941888-1001089317451","title":"Qa инженер","text":"#вакансия #QA #тестировщик #part-time #home-office #удалёнка #удаленная_работа #Новосибирск\n✅ Должность: Тестировщик ПО / QA engineer\n✅ Компания: Albatross Internet Group состоит из нескольких интернет-проектов со своими командами. \nМы поддерживаем атмосферу стартапа, чтобы оставаться гибкими и уметь оперативно принимать решения.\n✅ В одном из наших ключевых проектов открыта позиция QA инженер на part-time удаленную работу 8-10 часов в неделю.\n✅ Требуемый опыт работы: 1–3 года\n\n✅ Какие задачи тебя ждут?\n- тестирование задач по требованиям;\n- регрессионное тестирование на тестовом/боевом серверах;\n- формирование чек-листов;\n- написание технической документации по задачам;\n- автоматизация тестирования на Selenium(если опыта нет - не проблема, можем отправить на курсы);\n- постановка ТЗ для задач.\n\n✅ Чего мы ожидаем?\n- опыт тестирования браузерных приложений и нативных (IOS/Android);\n- умение применять на практике техники тест дизайна;\n- внимательность к деталям и неуклонное желание что-нибудь сломать;\n- понимание методологии разработки и тестирования ПО;\n- навыки в составлении и использовании тестовой документации (чек-листы, тест-кейсы, отчеты о тестировании);\n- опыт работы с Jira, Confluence.\n\n✅ Что будет преимуществом?\n- опыт автоматизации тестирования (желательно на Selenium);\n- опыт работы с системой контроля версий git;\n- опыт работы с Jenkins;\n- опыт написания SQL запросов (MySQL);\n- опыт работы с testRail, Postman;\n- опыт работы с Docker.\n\n✅ Условия:\n- оплата: до 300 руб./час\n- плавающий график\n- обучение за счет компании\n✅ Отклики с пометкой QA можно присылать на hr@albatrosscom.ru или сразу пишите @Tetyana7","markup":[{"type":"hashtag","offset":0,"length":9,"data":"вакансия"},{"type":"hashtag","offset":10,"length":3,"data":"QA"},{"type":"hashtag","offset":14,"length":12,"data":"тестировщик"},{"type":"hashtag","offset":27,"length":5,"data":"part"},{"type":"hashtag","offset":38,"length":5,"data":"home"},{"type":"hashtag","offset":51,"length":9,"data":"удалёнка"},{"type":"hashtag","offset":61,"length":17,"data":"удаленная_работа"},{"type":"hashtag","offset":79,"length":12,"data":"Новосибирск"},{"type":"link","offset":1595,"length":18,"data":"mailto:hr@albatrosscom.ru"},{"type":"handle","offset":1631,"length":9,"data":"Tetyana7"}],"date":"2020-06-29T12:44:10+00:00","link":"tg://resolve?domain=qa_jobs&post=99163","tags":[{"name":"qa"},{"name":"selenium"},{"name":"ios"},{"name":"android"},{"name":"git"},{"name":"jenkins"},{"name":"sql"},{"name":"mysql"},{"name":"docker"}],"cities":[{"code":"novosibirsk"}],"allowsRemote":true}}]}}},"context":{}}