{"hash":"f5f6bf98bd95e769321482904cbbd488f77922fd","data":{"records":{"id":"objective-c","name":"objective-c","belongsTo":{"totalCount":60,"pageInfo":{"totalPages":6,"currentPage":1},"edges":[{"node":{"__typename":"Job","id":"72622276608-1001054966032","title":"Ios developer","text":"#вакансия #спб #ios #middle #senior #spb #офис #IoT #умныйдом \nMiddle/Senior iOS developer \nReady for Sky 🚀 \nhttps://readyforsky.com/ru/career/ \n📍 полный день, удаленно в СПб/офис м. Нарвская \nМы ищем iOS developer, который будет разрабатывать приложение, использующее данные с IoT-устройств для предоставления пользователям нужных товаров и услуг \n💡 Используем: Swift, Objective-C; Jenkins; GraphQL; RxSwift; MVC, MVVM и Viper \nВ команде: разрабатываем новый функционал приложения, внутренние фреймворки (Private pods), фреймворки для общего доступа; пишем Unit тесты; принимаем участие в создании протоколов работы с умными устройствами; Refactoring и Code-review. \nПредлагаем: \nРаботу в профессиональной команде (team lead, senior, middle), более 300 000 активных пользователей приложения. \nЗП от 130 до 250 тыс. руб. \nПосле исп.срока корпоративный английский \n📬 Пиши: @Rupeka_Natali","markup":[{"type":"hashtag","offset":0,"length":9,"data":"вакансия"},{"type":"hashtag","offset":10,"length":4,"data":"спб"},{"type":"hashtag","offset":15,"length":4,"data":"ios"},{"type":"hashtag","offset":20,"length":7,"data":"middle"},{"type":"hashtag","offset":28,"length":7,"data":"senior"},{"type":"hashtag","offset":36,"length":4,"data":"spb"},{"type":"hashtag","offset":41,"length":5,"data":"офис"},{"type":"hashtag","offset":47,"length":4,"data":"IoT"},{"type":"hashtag","offset":52,"length":9,"data":"умныйдом"},{"type":"bold","offset":63,"length":27,"data":""},{"type":"bold","offset":92,"length":13,"data":""},{"type":"link","offset":110,"length":34,"data":"https://readyforsky.com/ru/career/"},{"type":"bold","offset":203,"length":13,"data":""},{"type":"bold","offset":354,"length":11,"data":""},{"type":"bold","offset":432,"length":10,"data":""},{"type":"bold","offset":671,"length":11,"data":""},{"type":"bold","offset":870,"length":5,"data":""},{"type":"handle","offset":876,"length":14,"data":"Rupeka_Natali"}],"date":"2020-07-03T11:26:33+00:00","link":"tg://resolve?domain=mobile_jobs&post=69258","tags":[{"name":"mobile"},{"name":"ios"},{"name":"swift"},{"name":"objective-c"},{"name":"jenkins"},{"name":"graphql"},{"name":"mvvm"}],"cities":[],"allowsRemote":true}},{"node":{"__typename":"Job","id":"72612839424-1001054966032","title":"Mobile разработчик","text":"#вакансия #ios #senior #middle #objective_c \n\nОчень важен опыт работы с Core Data\n\nГород: #Москва, м. Павелецкая или удалённо\nФормат работы: #офис, #удалёнка, #гибкие_часы \n\nЗанятость: полная  \nЗарплатная вилка: от 200к до 250к руб. net \nОписание вакансии: \n\nМы разрабатываем облачные CRM решения с широким использованием мобильных устройств.   \nСейчас мы ищем middle  и senior iOS разработчиков в команду, которая внедряет приложение CT Mobile в архитектуру CRM наших клиентов в Европе.\n\nhttps://apps.apple.com/us/app/ct-mobile-for-salesforce/id1234947996\n\nНазвание компании: Customertimes.com\nКонтакты: mikhail.zinoviev@ctconsult.ru","markup":[{"type":"hashtag","offset":0,"length":9,"data":"вакансия"},{"type":"hashtag","offset":10,"length":4,"data":"ios"},{"type":"hashtag","offset":15,"length":7,"data":"senior"},{"type":"hashtag","offset":23,"length":7,"data":"middle"},{"type":"hashtag","offset":31,"length":12,"data":"objective_c"},{"type":"hashtag","offset":90,"length":7,"data":"Москва"},{"type":"hashtag","offset":141,"length":5,"data":"офис"},{"type":"hashtag","offset":148,"length":9,"data":"удалёнка"},{"type":"hashtag","offset":159,"length":12,"data":"гибкие_часы"},{"type":"link","offset":489,"length":67,"data":"https://apps.apple.com/us/app/ct-mobile-for-salesforce/id1234947996"},{"type":"link","offset":577,"length":17,"data":"http://Customertimes.com"},{"type":"link","offset":605,"length":29,"data":"mailto:mikhail.zinoviev@ctconsult.ru"}],"date":"2020-07-03T09:46:34+00:00","link":"tg://resolve?domain=mobile_jobs&post=69249","tags":[{"name":"mobile"},{"name":"ios"},{"name":"objective-c"},{"name":"dotnet"},{"name":"core-data"}],"cities":[{"code":"moscow"}],"allowsRemote":true}},{"node":{"__typename":"Job","id":"72555167744-1001054966032","title":"Mobile разработчик","text":"#вакансия #mobile #ios #swift #fulltime\nГород и адрес офиса: Москва, м. Нахимовский проспект, БЦ Лотос, офис класса А\nФормат работы: офис + возможно частично удаленная работа \nЗанятость: полная, 5/2\nЗП: от 150к до 250к, готовы рассмотреть и выше\n\nКомпания X4Apps специализируется на разработке собственных мобильных приложений и открывает вакансию мобильного разработчика уровня Middle+/Senior, который будет работать над созданием приложений для платформы iOS.\n\nМы практикуем быструю проверку гипотез, быстро создаем приложения, запускаем первых пользователей, смотрим на обратную связь и наращиваем функционал либо переключаемся на разработку новых приложений/новых идей.\n\nОт Вас мы ждем:\n- Способность разработать приложение с нуля и выпустить его в AppStore\n- Знание Objective-C и Swift\n- Суммарный опыт программирования от 3-х лет\n- Умение работать с системой контроля версий git - console, IDE, web;\n- Понимание принципов ООП и шаблонов проектирования\n- Опыт использования JSON, REST API\n- Опыт написания клиент-серверных приложений\n- Наличие опубликованных приложений в AppStore\n\nБудет плюсом:\n- Желание постоянно учиться и применять новые технологии в своей работе\n- Понимание в разработке пользовательского интерфейса\n- Понимание работы бэкэнда\n\nКонтакт @bambaleeyo","markup":[{"type":"hashtag","offset":0,"length":9,"data":"вакансия"},{"type":"hashtag","offset":10,"length":7,"data":"mobile"},{"type":"hashtag","offset":18,"length":4,"data":"ios"},{"type":"hashtag","offset":23,"length":6,"data":"swift"},{"type":"hashtag","offset":30,"length":9,"data":"fulltime"},{"type":"bold","offset":40,"length":19,"data":""},{"type":"bold","offset":118,"length":13,"data":""},{"type":"bold","offset":176,"length":9,"data":""},{"type":"bold","offset":199,"length":2,"data":""},{"type":"bold","offset":675,"length":14,"data":""},{"type":"bold","offset":1087,"length":12,"data":""},{"type":"bold","offset":1255,"length":7,"data":""},{"type":"handle","offset":1263,"length":11,"data":"bambaleeyo"}],"date":"2020-07-02T14:04:01+00:00","link":"tg://resolve?domain=mobile_jobs&post=69194","tags":[{"name":"mobile"},{"name":"ios"},{"name":"swift"},{"name":"objective-c"},{"name":"git"},{"name":"web"},{"name":"json"},{"name":"rest"}],"cities":[{"code":"moscow"}],"allowsRemote":true}},{"node":{"__typename":"Job","id":"72550973440-1001054966032","title":"Ios разработчик","text":"#вакансия #ios #swift #москва #офис #objectivec\n\nГород: Москва (ст.м. Аэропорт).\n\nФормат работы: full-time.\n\nЗанятость: полная. \n\nВилка: 100-200 т.р. на руки.\n\nФункционал:\n\n• Разработка мобильных приложений под платформу iOS.\n\n• Участие в командной разработке, тестировании, оптимизации существующих мобильных приложений на платформе iOS \n\nПрофессиональные знания: \n\nОтличное знание Objective-C/Swift, iOS SDK 10+;\nОпыт разработки мобильных приложений - от 2 лет;\nЗнание шаблонов проектирования, принципы SOLID, умение их применять;\nЗнакомы с основными алгоритмами и структурами данных;\nУмение работать со Storyboard и Autolayout;\nОпыт разработки клиент-серверных приложений, понимание принципов и устройства сетевого взаимодействия (HTTPS, JSON, REST);\nУмеете работать в команде и конструктивно реагируете на аргументы коллег;\nУмение разбираться и работать с чужим кодом;\nЗнание распределенных систем контроля версий (Git). \n\nНазвание компании: Локо-Банк\nhttps://www.lockobank.ru//\nhttps://hh.ru/vacancy/37365811\n\nКонтакты: @hrlocko","markup":[{"type":"hashtag","offset":0,"length":9,"data":"вакансия"},{"type":"hashtag","offset":10,"length":4,"data":"ios"},{"type":"hashtag","offset":15,"length":6,"data":"swift"},{"type":"hashtag","offset":22,"length":7,"data":"москва"},{"type":"hashtag","offset":30,"length":5,"data":"офис"},{"type":"hashtag","offset":36,"length":11,"data":"objectivec"},{"type":"link","offset":956,"length":26,"data":"https://www.lockobank.ru//"},{"type":"link","offset":983,"length":30,"data":"https://hh.ru/vacancy/37365811"},{"type":"handle","offset":1025,"length":8,"data":"hrlocko"}],"date":"2020-07-02T13:41:35+00:00","link":"tg://resolve?domain=mobile_jobs&post=69190","tags":[{"name":"mobile"},{"name":"ios"},{"name":"swift"},{"name":"objective-c"},{"name":"json"},{"name":"rest"},{"name":"git"}],"cities":[{"code":"moscow"}],"allowsRemote":false}},{"node":{"__typename":"Job","id":"72530001920-1001054966032","title":"Ios developer","text":"#вакансия #ios #developer #iosdeveloper #москва #мск \n\nIOS Developer\nКомпания: Азбука Вкуса\nЛокация: Москва, офис\nм. Парк Победы/Кутузовская\nЗанятость: fulltime\nЗ/п: 150-210k ₽ net  \nКонтакты: @observer69\n\nУсловия\n● Официальное оформление с соблюдением ТК РФ;\n● Организация внешнего обучения;\n● Участие в конференциях и хакатонах;\n● ДМС;\n● Возможность работать из дома пару раз в неделю;\n● Комфортный офис в шаговой доступности от м. Парк Победы / Кутузовская;\n● Большая команда IT - профессионалов;\n● Интересные задачи\n\nТребования\n● Имеешь опыт iOS-разработки от 3-х лет;\n● Знаешь и любишь Swift, без вопросов можешь разобраться с кодом на Objective-C;\n● Имеешь опыт интеграции различных социальных сетей в проект;\n● Умеешь работать в AppStoreConnect и developer.apple.com, понимаешь зачем нужны сертификаты;\n● Знаешь принципы SOLID, структуры данных, паттерны проектирования и программирования;\n● Знаешь что таĸое MVC, MVVM, MVP etc. понимаешь их плюсы и\nминуты;\n● Работал с Realm;\nУверенно делаешь сложный UI, знаешь и понимаешь Autolayout, понимаешь когда лучше отказаться от него;\n● Сможешь обьяснить разницу между процессом и потоĸом, знаешь ĸаĸ\nработает многопоточность;\n● Знаком с HTTP, REST, Websocket, JSON и т.д.;\n● Работал с git (терминал или приложение);\n● Умеешь \"гуглить\" и воспринимать информацию на английском;\n● Терпимо относишься ĸ чужому ĸоду, даже если сильно не нравится;\n● Умеешь аргументировано и последовательно отстаивать свою\nпозицию;\n● Сможешь оценить задачу, и выполнить ее в сроĸ;\n● Интересуешься “а ĸаĸ это устроено внутри?”\n\nЗадачи\n1. Развивать и поддерживать существующие приложения;\n2. Проводить code review;\n3. Развивать IOS инфраструктуру в компании;\n4. Активно участвовать в жизни команды.","markup":[{"type":"hashtag","offset":0,"length":9,"data":"вакансия"},{"type":"hashtag","offset":10,"length":4,"data":"ios"},{"type":"hashtag","offset":15,"length":10,"data":"developer"},{"type":"hashtag","offset":26,"length":13,"data":"iosdeveloper"},{"type":"hashtag","offset":40,"length":7,"data":"москва"},{"type":"hashtag","offset":48,"length":4,"data":"мск"},{"type":"bold","offset":55,"length":23,"data":""},{"type":"bold","offset":92,"length":8,"data":""},{"type":"bold","offset":141,"length":10,"data":""},{"type":"bold","offset":161,"length":5,"data":""},{"type":"bold","offset":183,"length":10,"data":""},{"type":"handle","offset":193,"length":11,"data":"observer69"},{"type":"bold","offset":206,"length":8,"data":""},{"type":"bold","offset":521,"length":11,"data":""},{"type":"link","offset":754,"length":19,"data":"http://developer.apple.com"},{"type":"bold","offset":1557,"length":9,"data":""},{"type":"bold","offset":1617,"length":2,"data":""},{"type":"bold","offset":1643,"length":2,"data":""},{"type":"bold","offset":1687,"length":2,"data":""}],"date":"2020-07-02T10:23:24+00:00","link":"tg://resolve?domain=mobile_jobs&post=69170","tags":[{"name":"mobile"},{"name":"ios"},{"name":"dotnet"},{"name":"swift"},{"name":"objective-c"},{"name":"mvvm"},{"name":"realm"},{"name":"rest"},{"name":"websocket"},{"name":"json"},{"name":"git"}],"cities":[{"code":"moscow"}],"allowsRemote":false}},{"node":{"__typename":"Job","id":"72489107456-1001054966032","title":"Android разработчик","text":"#вакансия  #vacancy  #IOSdeveloper #IOS \nПривет! ✌ Мы ищем IOS и Android разработчика в одном лице для контрактной удалённой работы. \nФормат работы: Удалёнка. \nЗП: от 80 до 100 к\n\nУровень middle\nКомпания:https://arkonsa.ru/\n💁 Описание компании: Мы работаем в двух направлениях: 1) Своя CRM система (oko сrm), которую планируем продавать на внешний рынок + запускать мобильное приложение для IOS и Android;\n2) Свой учебный центр (продажи).\n\nЧто мы ожидаем от Вас:\nПроектирование архитектуры приложения;\nРеализация и дальнейшее развитие приложений на Swift(Objective-C) или Java(Kotlin)\nОпыт работы с основными алгоритмами и структурами данных.\nКлючевые знания - Android SDK, работы с сетью: RESTful/SOAP API и HTTP, Web Sockets.\n\n💻 Что нужно делать:\nТестирование;\n\nРефакторинг;\n\nДеплоинг;\n\nРазработка технической документации.\n\nУсловия:\n- проектная занятость\n\nТребования:\nопыт разработки по данному стеку от 2+лет.\n\n📠 За подробностями по вакансии и по всем вопросам:\n@elena_hr_tmn \n89129125591 Viber","markup":[{"type":"hashtag","offset":0,"length":9,"data":"вакансия"},{"type":"hashtag","offset":11,"length":8,"data":"vacancy"},{"type":"hashtag","offset":21,"length":13,"data":"IOSdeveloper"},{"type":"hashtag","offset":35,"length":4,"data":"IOS"},{"type":"link","offset":204,"length":19,"data":"https://arkonsa.ru/"},{"type":"handle","offset":969,"length":13,"data":"elena_hr_tmn"},{"type":"link","offset":984,"length":11,"data":"tel:89129125591"}],"date":"2020-07-02T05:03:05+00:00","link":"tg://resolve?domain=mobile_jobs&post=69131","tags":[{"name":"mobile"},{"name":"android"},{"name":"ios"},{"name":"swift"},{"name":"objective-c"},{"name":"java"},{"name":"kotlin"},{"name":"soap"},{"name":"web"}],"cities":[],"allowsRemote":true}},{"node":{"__typename":"Job","id":"72446115840-1001054966032","title":"Ios разработчик","text":"#вакансия #москва #офис #fulltime #ios \n\nВакансия: iOS-разработчик\nГород: Москва\nЗ/п: от 230 тыс.руб. до 280 тыс. руб. после налогообложения\nФормат работы: офис, полная занятость\nКомпания: CORE\n\n📌О компании:\nНаша команда занимается мобильной и web-разработкой в области финансов и страхования. Мы реализуем проекты для международных финтех-стартапов, российских банков и страховых компаний. При разработке мы применяем самый современный стек технологий, большое внимание уделяем оптимизации процесса разработки – использованию практик CI/CD, инструментов кодогенерация. Для вас это возможность познакомиться с передовыми технологиями, развиваться в команде профессионалов, готовых поддерживать перспективные инициативы.\n\nРаботать предстоит в суперсовременном офисе в центре Москвы. Мы предоставляем современный hardware и все, что нужно для продуктивной работы. После испытательного срока предоставляется социальный пакет. Лучшие сотрудники проходят профильное обучение за счет компании, выступают спикерами на конференциях.\n\n📌Требования:\n– Уверенное знание Swift и Objective-C; \n– Знает базовые алгоритмы и структуры данных;\n– Знает основные паттерны проектирования и имеет опыт их применения.\n\n📌Условия:\n– Заработная плата 250 тыс. руб. после налогообложения;\n– Работа в офисе в центре Москвы;\n– Официальное трудоустройство согласно ТК РФ.\n\nДля иногородних специалистов предоставляем комфортные апартаменты в современном жилом комплексе недалеко от места работы.\n\nО компании https://core.company\n\nБолее подробно о вакансии в ТГ @tv_corecompany","markup":[{"type":"hashtag","offset":0,"length":9,"data":"вакансия"},{"type":"hashtag","offset":10,"length":7,"data":"москва"},{"type":"hashtag","offset":18,"length":5,"data":"офис"},{"type":"hashtag","offset":24,"length":9,"data":"fulltime"},{"type":"hashtag","offset":34,"length":4,"data":"ios"},{"type":"link","offset":1480,"length":20,"data":"https://core.company"},{"type":"handle","offset":1533,"length":15,"data":"tv_corecompany"}],"date":"2020-07-01T09:51:30+00:00","link":"tg://resolve?domain=mobile_jobs&post=69090","tags":[{"name":"mobile"},{"name":"ios"},{"name":"web"},{"name":"swift"},{"name":"objective-c"}],"cities":[{"code":"moscow"}],"allowsRemote":false}},{"node":{"__typename":"Job","id":"72425144320-1001054966032","title":"Mobile программист","text":"#вакансия #middle #senior #iOS #developer #Minsk #Moscow #удаленка #fulltime\n\nГород - Минск или Москва\nФормат работы: #офис или #удаленно\nЗанятость: полная \nЗарплатная вилка: от 2.000$ до 6.000$\n\nКоманда BP Mobile в поисках опытных iOS программистов, для работы над мобильными продуктами!\n\nЖдем в команду людей, у которых:\n-3+ лет опыта в разработке мобильных приложений;\n-Глубокие знания Objective-C и Swift;\n-Уверенные знания Core Data, Rest API, iOS SDK и паттернов MVC/MVVM, знания Realm - плюс;\n-Дополнительно будет плюсом знание С++ и других языков программирования.\n\n У нас: \n-Свобода выбора технологий;\n-Только собственные и разнообразные проекты (одновременно в разработке более 20 продуктов);\n-Курсы английского языка на базе офиса;\n-Медицинская страховка (включает стоматологию);\n-Скидка на паркинг возле офиса;\n-Корпоративы несколько раз в год;\n-5 Sick days в году;\n-Скидка в тренажерный зал и другие бонусы.\nКонтакты: \nemail - nadezhda.kostenevich@bpmobile.com\ntelegram - @nadzzzeya","markup":[{"type":"hashtag","offset":0,"length":9,"data":"вакансия"},{"type":"hashtag","offset":10,"length":7,"data":"middle"},{"type":"hashtag","offset":18,"length":7,"data":"senior"},{"type":"hashtag","offset":26,"length":4,"data":"iOS"},{"type":"hashtag","offset":31,"length":10,"data":"developer"},{"type":"hashtag","offset":42,"length":6,"data":"Minsk"},{"type":"hashtag","offset":49,"length":7,"data":"Moscow"},{"type":"hashtag","offset":57,"length":9,"data":"удаленка"},{"type":"hashtag","offset":67,"length":9,"data":"fulltime"},{"type":"hashtag","offset":118,"length":5,"data":"офис"},{"type":"hashtag","offset":128,"length":9,"data":"удаленно"},{"type":"link","offset":940,"length":33,"data":"mailto:nadezhda.kostenevich@bpmobile.com"},{"type":"handle","offset":985,"length":10,"data":"nadzzzeya"}],"date":"2020-07-01T06:59:55+00:00","link":"tg://resolve?domain=mobile_jobs&post=69070","tags":[{"name":"mobile"},{"name":"ios"},{"name":"objective-c"},{"name":"swift"},{"name":"rest"},{"name":"mvvm"},{"name":"realm"},{"name":"core-data"}],"cities":[{"code":"minsk"},{"code":"moscow"}],"allowsRemote":true}},{"node":{"__typename":"Job","id":"72383201280-1001054966032","title":"Ios developer","text":"#вакансия #спб #ios #middle #senior #spb #офис #IoT #умныйдом \nMiddle/Senior iOS developer \nReady for Sky 🚀 \nhttps://readyforsky.com/ru/career/ \n📍 полный день, удаленно в СПб/офис м. Нарвская \nМы серьезно занимаемся сферой iot, создаем умные приборы.\nИщем iOS developer, который будет разрабатывать приложение, использующее данные с IoT-устройств для предоставления пользователям нужных товаров и услуг \n💡 Используем: Swift, Objective-C; Jenkins; GraphQL; RxSwift; MVC, MVVM и Viper \nВ команде: разрабатываем новый функционал приложения, внутренние фреймворки (Private pods), фреймворки для общего доступа; пишем Unit тесты; принимаем участие в создании протоколов работы с умными устройствами; Refactoring и Code-review. \nПредлагаем: \nРаботу в профессиональной команде, более 300 000 активных пользователей приложения. \nЗП от 130 до 250 тыс. руб. на руки  \nПосле исп.срока корпоративный английский \n📬 Пиши: @Rupeka_Natali","markup":[{"type":"hashtag","offset":0,"length":9,"data":"вакансия"},{"type":"hashtag","offset":10,"length":4,"data":"спб"},{"type":"hashtag","offset":15,"length":4,"data":"ios"},{"type":"hashtag","offset":20,"length":7,"data":"middle"},{"type":"hashtag","offset":28,"length":7,"data":"senior"},{"type":"hashtag","offset":36,"length":4,"data":"spb"},{"type":"hashtag","offset":41,"length":5,"data":"офис"},{"type":"hashtag","offset":47,"length":4,"data":"IoT"},{"type":"hashtag","offset":52,"length":9,"data":"умныйдом"},{"type":"bold","offset":63,"length":27,"data":""},{"type":"bold","offset":92,"length":13,"data":""},{"type":"link","offset":110,"length":34,"data":"https://readyforsky.com/ru/career/"},{"type":"bold","offset":258,"length":13,"data":""},{"type":"bold","offset":409,"length":11,"data":""},{"type":"bold","offset":487,"length":10,"data":""},{"type":"bold","offset":726,"length":11,"data":""},{"type":"bold","offset":906,"length":5,"data":""},{"type":"handle","offset":912,"length":14,"data":"Rupeka_Natali"}],"date":"2020-06-30T15:50:02+00:00","link":"tg://resolve?domain=mobile_jobs&post=69030","tags":[{"name":"mobile"},{"name":"ios"},{"name":"swift"},{"name":"objective-c"},{"name":"jenkins"},{"name":"graphql"},{"name":"mvvm"}],"cities":[],"allowsRemote":true}},{"node":{"__typename":"Job","id":"72334966784-1001054966032","title":"Ios разработчик","text":"#вакансия #iOS \n\nНа проект от Сбербанка требуется Middle iOS разработчик\n\nФормат: офис\n\nВилка ЗП: 160 000 - 200 000 рублей (net)\n\nЛокация: Москва\n\nТребования:\n- Опыт разработки под iOS (Objective-C или Swift) от 2 лет\n- Знание особенностей: Collections, Optionals, Protocol Oriented, Generics\n- Понимание, как происходит управление памятью в iOS\n- Понимание принципов проектирования SOLID\n- REST API, HTTP, JSON, APNs\n- Git, git flow\n\nБудет плюсом:\n- Умение писать UI тесты\n- Опыт в команде\n\nКонтакт: @mxm_at","markup":[{"type":"hashtag","offset":0,"length":9,"data":"вакансия"},{"type":"hashtag","offset":10,"length":4,"data":"iOS"},{"type":"bold","offset":30,"length":9,"data":""},{"type":"bold","offset":50,"length":22,"data":""},{"type":"bold","offset":74,"length":7,"data":""},{"type":"bold","offset":88,"length":9,"data":""},{"type":"bold","offset":130,"length":8,"data":""},{"type":"bold","offset":147,"length":11,"data":""},{"type":"bold","offset":435,"length":14,"data":""},{"type":"handle","offset":501,"length":7,"data":"mxm_at"}],"date":"2020-06-30T09:47:00+00:00","link":"tg://resolve?domain=mobile_jobs&post=68984","tags":[{"name":"mobile"},{"name":"ios"},{"name":"dotnet"},{"name":"objective-c"},{"name":"swift"},{"name":"rest"},{"name":"json"},{"name":"git"}],"cities":[{"code":"moscow"}],"allowsRemote":false}}]}}},"context":{}}