{"hash":"f5f6bf98bd95e769321482904cbbd488f77922fd","data":{"records":{"id":"russia/moscow","country":{"code":"russia","ruName":"Россия","enName":"Russia"},"city":{"code":"moscow","ruName":"Москва","enName":"Moscow"},"belongsTo":{"totalCount":476,"pageInfo":{"totalPages":48,"currentPage":4},"edges":[{"node":{"__typename":"Job","id":"17330864128-1001110946746","title":"Javascript developer","text":"#вакансия\n\nГород: Москва\nФормат: удаленка\nЗанятость: полная\nВилка: 100-200к на руки\n\nПривет! Я основатель Дневника - клиент для электронных дневников\nМы ищем Senior/Middle Full Stack Developer. Особый бонус, если ты крут в React Native\n\nПочему мы:\n🇷🇺 Твой код будет влиять на сотни тысяч людей. У нас 600 тысяч пользователей (в следующем году будет 1.2М), большая часть пользуется продуктом каждый день. Мы тестируем 4+ гипотез в месяц и получаем результаты очень быстро. Ты сможешь видеть, как твой код помогает приложению расти ещё больше.\n\n📈 Дневник прибылен и развивается на свои деньги — это максимализирует свободу и принцип \"шкура на кону\". Мы нашли product-market fit и растем каждый год в 3 раза. Прекрасный момент, чтобы присоединиться к команде.\n\n🔥 Мы не боимся. У Дневника насыщенная история: нас блокировало государство, но мы продолжили работать. Нас даже упомянули в статье Голунова. Сегодня все хорошо, мы можем спокойно идти к нашей миссии\n\n\nПолное описание компани и вакансии тут ->\nhttps://www.notion.so/Senior-Middle-Full-Stack-Developer-439a011d96df47809ed4ffc089d18b09\n\n\nКонтакты:\n@levan","markup":[{"type":"hashtag","offset":0,"length":9,"data":"вакансия"},{"type":"link","offset":1005,"length":89,"data":"https://www.notion.so/Senior-Middle-Full-Stack-Developer-439a011d96df47809ed4ffc089d18b09"},{"type":"handle","offset":1107,"length":6,"data":"levan"}],"date":"2020-07-02T16:34:06+00:00","link":"tg://resolve?domain=javascript_jobs_feed&post=16528","tags":[{"name":"javascript"},{"name":"reactjs"},{"name":"react-native"}],"cities":[{"code":"moscow"}],"allowsRemote":true}},{"node":{"__typename":"Job","id":"17329815552-1001110946746","title":"Js разработчик","text":"#вакансия #vue #vuex #frontend\nМосква, м. Цветной бульвар (2 мин до офиса), фулл тайм в офис на полную занятость\nЗарплатная вилка: от 90 до 180 т.р.\nJETSTAT \n\nОписание вакансии: \nМы делаем инструмент (ETL), который помогает упростить работу пользователей с отчетами.\nМы подключаемся к различным сервисам: рекламным, аналитическим, базам данных и тд, чтобы с помощью автоматизации решать задачи для аналитики и маркетинга.\n\nИщем frontend разработчика для нашей аналитической платформы. У тебя будет самостоятельность в принятии решений, например построение архитектуры.\nПроцессы не строго регламентированы и мы прислушиваемся ко мнению каждого при планировании спринтов.\n\nТебе предстоит:\n\n- разрабатывать сложные интерактивных интерфейсы на JS с использованием Vue;\n- разрабатывать архитектуру проекта со стороны frontend.\n\nМы ожидаем:\n\n- знание JS (ES5 / ES6);\n- знание Vue.js, Vuex Webpack;\n- знание и понимание клиент-серверного взаимодействия;\n- умение работать с REST-API; \n- HTML5, CSS3.\n\nБудет плюсом:\n\n- опыт тестирования кода (мы используем mocha, chai и sinon);\n- WebSockets (используем socket-io).\n\nhttps://jetstat.io/workflow \n\nКонтакты: @diana131313","markup":[{"type":"hashtag","offset":0,"length":9,"data":"вакансия"},{"type":"hashtag","offset":10,"length":4,"data":"vue"},{"type":"hashtag","offset":15,"length":5,"data":"vuex"},{"type":"hashtag","offset":21,"length":9,"data":"frontend"},{"type":"link","offset":1110,"length":27,"data":"https://jetstat.io/workflow"},{"type":"handle","offset":1150,"length":12,"data":"diana131313"}],"date":"2020-07-02T16:33:11+00:00","link":"tg://resolve?domain=javascript_jobs_feed&post=16527","tags":[{"name":"javascript"},{"name":"vuejs"},{"name":"webpack"},{"name":"rest"},{"name":"html"},{"name":"css"},{"name":"mocha"}],"cities":[{"code":"moscow"}],"allowsRemote":false}},{"node":{"__typename":"Job","id":"17328766976-1001110946746","title":"Js разработчик","text":"#вакансия #angularjs #react #москва #javascript #typescript\n\nГород: Москва (ст.м. Аэропорт).\n\nФормат работы: remote.\n\nЗанятость: полная. \n\nВилка: 100-200 т.р. на руки.\n\nПрофессиональные знания:\nУверенное знание HTML, CSS, JavaScript\nОпыт работы с Angular 2+, будет плюсом опыт работы с react, redux\nОтличное знание JavaScript (ES5, ES6+) и TypeScript\nОпыт верстки (css, stylus, sass) \n\nФункционал:\n\n• Проектирование, разработка клиентской части систем дистанционного банковского обслуживания, тестирование и выпуск обновлений.\n\n• Рефакторинг Legacy кода;\n\n• Участие в оценке сроков, трудоёмкости и проектирование приложений.\n\n\nНазвание компании: Локо-Банк\nhttps://www.lockobank.ru//\nhttps://hh.ru/vacancy/37795548\n\nКонтакты: @hrlocko","markup":[{"type":"hashtag","offset":0,"length":9,"data":"вакансия"},{"type":"hashtag","offset":10,"length":10,"data":"angularjs"},{"type":"hashtag","offset":21,"length":6,"data":"react"},{"type":"hashtag","offset":28,"length":7,"data":"москва"},{"type":"hashtag","offset":36,"length":11,"data":"javascript"},{"type":"hashtag","offset":48,"length":11,"data":"typescript"},{"type":"link","offset":656,"length":26,"data":"https://www.lockobank.ru//"},{"type":"link","offset":683,"length":30,"data":"https://hh.ru/vacancy/37795548"},{"type":"handle","offset":725,"length":8,"data":"hrlocko"}],"date":"2020-07-02T16:32:21+00:00","link":"tg://resolve?domain=javascript_jobs_feed&post=16526","tags":[{"name":"javascript"},{"name":"angularjs"},{"name":"reactjs"},{"name":"typescript"},{"name":"html"},{"name":"css"},{"name":"redux"},{"name":"sass"},{"name":"react-redux"}],"cities":[{"code":"moscow"}],"allowsRemote":true}},{"node":{"__typename":"Job","id":"17326669824-1001110946746","title":"Js разработчик","text":"#вакансия #удаленка #fulltime #react #node #typescript \n\nГород: Москва\nФормат: удалённая работа\nЗанятость: полная\nЗарплатная вилка: от 150к до 250к на руки.\n\nВ российскую геймдев компанию требуется опытный TypeScript разработчик для разработки нового и доработок текущего функционала проекта на Node.js/React.\n\nНа протяжении 10 лет компания занимается разработкой, лицензированием и локализацией многопользовательских онлайн-игр. На сегодняшний день наш портфель состоит из игровых проектов разных жанров, включая легендарные MMO TERA, «Ботва», Music Wars и др. Некоторые разработки получили признание в Европе и Северной Америке.\n\nТребования:\n• React.js (React Hooks, JSX)\n• State Management (Redux)\n• Node.js\n• TypeScript\n• HTML5\n, CSS3 / SCSS \n• REST API\n• WebSocket\n• Опыт работы c PostgreSQL\n• Опыт работы с Redis\n• Bash\n• Docker\n• Git\n\nПриветствуется:\n• Docker + docker-compose\n• Angular (8+)\n• Опыт работы с криптовалютами и мастернодами\n• Умение быстро разбираться с новыми технологиями\n\nУсловия:\n• дружная и профессиональная команда (средний возраст которой 27 лет)\n• отличная возможность с головой погрузиться в мир гейм-индустрии\n• удаленная работа из любой точки мира, гибкий график\n\nПо всем вопросам: @rjaidy","markup":[{"type":"hashtag","offset":0,"length":9,"data":"вакансия"},{"type":"hashtag","offset":10,"length":9,"data":"удаленка"},{"type":"hashtag","offset":20,"length":9,"data":"fulltime"},{"type":"hashtag","offset":30,"length":6,"data":"react"},{"type":"hashtag","offset":37,"length":5,"data":"node"},{"type":"hashtag","offset":43,"length":11,"data":"typescript"},{"type":"handle","offset":1214,"length":7,"data":"rjaidy"}],"date":"2020-07-02T16:31:36+00:00","link":"tg://resolve?domain=javascript_jobs_feed&post=16524","tags":[{"name":"javascript"},{"name":"reactjs"},{"name":"nodejs"},{"name":"typescript"},{"name":"redux"},{"name":"html"},{"name":"css"},{"name":"rest"},{"name":"websocket"},{"name":"postgresql"},{"name":"redis"},{"name":"bash"},{"name":"docker"},{"name":"git"},{"name":"angularjs"},{"name":"docker-compose"}],"cities":[{"code":"moscow"}],"allowsRemote":true}},{"node":{"__typename":"Job","id":"17322475520-1001110946746","title":"Javascript разработчик","text":"#вакансия #frontend #react #typescript #middle #senior #москва #офис #fulltime\n\nПозиция – Frontend developer (Middle)\n\nКомпания – Quadcom\n\nЛокация – Москва, м. Ботанический сад\n\nЗанятость – полная, офис, гибкое время начала дня\n\nОплата: от 110 000 до 150 000 рублей на руки\n\n\n\nМы ищем талантливого фронтенд-разработчика в нашу не очень большую, но дружную команду. Если ты легко осваиваешь новые технологии, любишь чистый и красивый код, знаешь алгоритмы и готов развиваться, то мы очень хотим тебя к себе!\n\nМы разрабатываем различные сервисы и интерфейсы для внутреннего и внешнего использования. У нас есть как большие проекты, так и маленькие. Начиная с 2014 года с небольшой команды мы развились до довольно большой компании и развиваемся дальше\n\nБазируемся в уютном бизнес-центре Ультрамарин, недалеко от метро Ботанический сад и ВДНХ. У нас гибкий рабочий график, современный офис и отличное оборудование для работы.\n\n\n\n✅ Необходимые навыки:\n\n• Знание Javascript и ES6+, React + Redux\n\n• Уверенные знания HTML, CSS/SASS/LESS, опыт кроссбраузерной верстки\n\n• Опыт работы в команде с использованием Git и любого системой управления задачами\n\n\n\n✅ Плюсом будет:\n\n• Опыт работы с RestAPI\n\n• Знакомство с TypeScript\n\n• Знание алгоритмов и структур данных\n\n\n\n✅ Мы предлагаем:\n\nРаботу в успешной, растущей компании\n\nКарьерный и профессиональный рост\n\nУютный офис\n\nОтсутствие какого-либо дресс-кода\n\nСвободный график\n\nАдекватное руководство\n\n\n\nЗП от 110 000 до 150 000 рублей на руки\n\nпо итогам собеседования и испытательного срока\n\n\n\n☎️ Контакты для обсуждения вакансии:\n\ntelegram @codebor\n\ne-mail ybb@quadcom.ru\n\n\n\nДля желающих мы подготовили небольшое интересное задание\nhttps://github.com/walborn/test-backend-jwt/blob/master/task.md","markup":[{"type":"hashtag","offset":0,"length":9,"data":"вакансия"},{"type":"hashtag","offset":10,"length":9,"data":"frontend"},{"type":"hashtag","offset":20,"length":6,"data":"react"},{"type":"hashtag","offset":27,"length":11,"data":"typescript"},{"type":"hashtag","offset":39,"length":7,"data":"middle"},{"type":"hashtag","offset":47,"length":7,"data":"senior"},{"type":"hashtag","offset":55,"length":7,"data":"москва"},{"type":"hashtag","offset":63,"length":5,"data":"офис"},{"type":"hashtag","offset":69,"length":9,"data":"fulltime"},{"type":"handle","offset":1579,"length":8,"data":"codebor"},{"type":"link","offset":1596,"length":14,"data":"mailto:ybb@quadcom.ru"},{"type":"link","offset":1671,"length":63,"data":"https://github.com/walborn/test-backend-jwt/blob/master/task.md"}],"date":"2020-07-02T16:28:50+00:00","link":"tg://resolve?domain=javascript_jobs_feed&post=16520","tags":[{"name":"javascript"},{"name":"reactjs"},{"name":"typescript"},{"name":"redux"},{"name":"html"},{"name":"css"},{"name":"sass"},{"name":"git"},{"name":"github"},{"name":"jwt"},{"name":"react-redux"}],"cities":[{"code":"moscow"}],"allowsRemote":false}},{"node":{"__typename":"Job","id":"1774190592-1001091028994","title":"Java разработчик","text":"#москва #удаленка #fulltime #JavaDeveloper #Backend\n\nJava-разработчик/Backend Developer \n\nООО Криптериум (https://crypterium.com)\n\nЗп: 180.000-270.000 net\n\nПривет!\n\nМы команда Crypterium!\n\nМы международный финтех стартап.\n\nМы строим банк будущего, который поддерживает криптофиатные операции.\n\nНаша цель – создание сервиса, который фактически займёт место традиционных банков, по всем возможным банковским операциям!\n\nУ нас сложные, но интересные задачи по созданию крутого и по-настоящему полезного продукта для людей из разных стран по всему миру. Работа у нас реальная возможность приложить руку к крутому продукту, которым будет пользоваться большое количество людей.\n\nНа данный момент наша компания активно растет и развивается, в связи с этим мы ищем Backend Developer. Нам нужен по-настоящему про активный и ответственный сотрудник. Задач много, они разные и крайне интересны\n\n🟢Что предстоит делать?\n\n🔹Разработка бэкэнда финансового приложения;\n🔹Разработка платформенных микросервисов: интеграция с партнерами, аналитика, карточный процессинг, etc;\n🔹Разработка REST API для frontend\n\n🟢Какие skill’s мы хотим видеть в нашем будущем коллеге?\n\n🔹Java 8 (также желательно Kotlin);\n🔹Spring, Spring Cloud, Hibernate;\n🔹JUnit или другие фреймворки для тестирования;\n🔹Умение работать с SQL и не-SQL базами данных (у нас PostgreSQL);\n🔹Умение проектировать и реализовывать REST API;\n🔹Понимание микросервисной архитектуры;\n🔹Английский язык: умение читать и писать техническую документацию.\n🔹Понимание принципов работы tcp/ip, сетей передачи данных.\n🔹Умение писать тестируемый код;\n🔹Умение работать в команде и использовать соответствующие инструменты (git, jira, etc).\n\n🟢Преимущества:\n\n🔹Знание Kotlin;\n🔹Понимание принципов CI/CD;\n🔹Понимание, как работают основные сервисы AWS.\n\n🟢Что мы готовы предложить будущему коллеге?\n\n🔹По настоящему заряженная команда профессионалов\n🔹Офис м.Тульская\n🔹Удаленная работа, с возможностью приезжать в офис, гибкое начало рабочего дня (c 9 до 12)\n🔹Возможности профессионально развиваться и расти\n\n🔔Контакты:\n@kriskrisych Кристина","markup":[{"type":"hashtag","offset":0,"length":7,"data":"москва"},{"type":"hashtag","offset":8,"length":9,"data":"удаленка"},{"type":"hashtag","offset":18,"length":9,"data":"fulltime"},{"type":"hashtag","offset":28,"length":14,"data":"JavaDeveloper"},{"type":"hashtag","offset":43,"length":8,"data":"Backend"},{"type":"link","offset":106,"length":22,"data":"https://crypterium.com"},{"type":"handle","offset":2060,"length":12,"data":"kriskrisych"}],"date":"2020-07-02T15:08:19+00:00","link":"tg://resolve?domain=jvmjobs&post=1692","tags":[{"name":"java"},{"name":"jvm"},{"name":"dotnet"},{"name":"rest"},{"name":"kotlin"},{"name":"spring"},{"name":"cloud"},{"name":"hibernate"},{"name":"junit"},{"name":"sql"},{"name":"postgresql"},{"name":"git"},{"name":"amazon-web-services"}],"cities":[{"code":"moscow"}],"allowsRemote":true}},{"node":{"__typename":"Job","id":"104269348864-1001089317451","title":"Qa инженер","text":"#вакансияQAМосква#\nМы компания \"Мобильные Медицинские Технологии\": разработчик сервисов Онлайн Доктор, Педиатр 24/7 и Мой Доктор.\nМы ищем ответственного и активного сотрудника на позицию Тестировщик в городе Москва и области\n\nНаш основной продукт (сервис телемедицинских консультаций) и большая экосистема вокруг него - это 90% вашей работы.\nПочему мы?\n • мы реально меняем медицину в России прямо сейчас\n • у нас сильная, дружная и открытая команда разработки\n • высокие темпы попадания в продакшн\n • минимум бюрократии\nОбязанности:\n • Анализ и тестирование ПО и оборудования;\n • Разработка сценариев тестирования;\n • Составление документации (руководство пользователя, руководство по эксплуатации и ремонту);\n • Обнаружение, документирование и отслеживание дефектов;\n • Участие в проработке задач;\n • Взаимодействие с группой эксплуатации и разработчиками.\n • Проведение функционального и регрессионного тестирования;\n • Поиск ошибок, сбоев, возникающих при использовании ПО;\n • Требования:\n • Высшее техническое образование\n • Опыт ручного тестирования, работы с системами отслеживания ошибок, написания документации\n • Знание основных видов тестирования ПО;\n • Иметь практический опыт работы с СУБД на уровне написания простых запросов.\n • Усидчивость, ответственность, умение найти неочевидныег тесткейсы\n • Условия:\n • Официальное оформление по ТК РФ\n • Полный рабочий день \n • Удаленная работа присутствие в офисе несколько раз в месяц территориально город Москва)\n • Корпоративные занятия спортом\n • Обучение, участие в конференциях по желанию\n • Бесплатные телемедицинские консультации\n\n-- \nЛукахина Татьяна\nHR менеджер\nМобильные Медицинские Технологии\nhr@pediatr247.ru","markup":[{"type":"bold","offset":0,"length":129,"data":""},{"type":"bold","offset":187,"length":38,"data":""},{"type":"bold","offset":342,"length":10,"data":""},{"type":"bold","offset":521,"length":12,"data":""},{"type":"bold","offset":978,"length":14,"data":""},{"type":"bold","offset":1310,"length":11,"data":""},{"type":"link","offset":1662,"length":16,"data":"mailto:hr@pediatr247.ru"}],"date":"2020-07-02T14:42:54+00:00","link":"tg://resolve?domain=qa_jobs&post=99439","tags":[{"name":"qa"}],"cities":[{"code":"moscow"}],"allowsRemote":false}},{"node":{"__typename":"Job","id":"72559362048-1001054966032","title":"Ios разработчик","text":"#вакансия #iOS #Swift\n\nГород и адрес офиса: #Питер ст.м. Петроградская, #Москва ст.м. Белорусская\nФормат работы: #офис (сейчас удалёнка)\nЗанятость: #полная #fulltime\nЗарплатная вилка: 160-220к на руки\n\nExperiment X — биотех-компания, мы делаем девайсы и приложения для мониторинга здоровья для лабораторий, клиник и обычных людей. Ищем iOS-разработчика в команду разработки мобильного приложения, стимулирующего пользователя формировать развернутый медицинский профиль, подбирая подходящие исследования. Продукт свежий, разработка ведётся всего полгода — самое время подключиться и повлиять на то, каким он станет в итоге.\n\nЧто нам важно:\n- опыт коммерческой разработки приложений под iOS 3+ лет\n- уверенное знание Swift \n- опыт создания кастомных анимаций и переходов\n- умение писать хорошо структурированный и читаемый код\n- понимание принципов работы iOS и умение использовать возможности системы\n- хорошее понимание архитектурных паттернов и умение их применять\n- умение оценивать задачи и попадать в собственные оценки\n- внимание к деталям и качеству кода\n\nУ нас отличная экспертная команда, офисы в Москве и Питере, всё по-белому и как у людей: ДМС со стоматологией, корпоративная библиотека, компенсации обучения и занятий спортом. До конца лета работаем удалённо.\n\nКонтакты:\nя тут @mariefilins\nexperimentx.co","markup":[{"type":"hashtag","offset":0,"length":9,"data":"вакансия"},{"type":"hashtag","offset":10,"length":4,"data":"iOS"},{"type":"hashtag","offset":15,"length":6,"data":"Swift"},{"type":"hashtag","offset":44,"length":6,"data":"Питер"},{"type":"hashtag","offset":72,"length":7,"data":"Москва"},{"type":"hashtag","offset":113,"length":5,"data":"офис"},{"type":"hashtag","offset":148,"length":7,"data":"полная"},{"type":"hashtag","offset":156,"length":9,"data":"fulltime"},{"type":"handle","offset":1289,"length":12,"data":"mariefilins"},{"type":"link","offset":1302,"length":14,"data":"http://experimentx.co"}],"date":"2020-07-02T14:19:14+00:00","link":"tg://resolve?domain=mobile_jobs&post=69198","tags":[{"name":"mobile"},{"name":"ios"},{"name":"swift"}],"cities":[{"code":"moscow"}],"allowsRemote":true}},{"node":{"__typename":"Job","id":"72555167744-1001054966032","title":"Mobile разработчик","text":"#вакансия #mobile #ios #swift #fulltime\nГород и адрес офиса: Москва, м. Нахимовский проспект, БЦ Лотос, офис класса А\nФормат работы: офис + возможно частично удаленная работа \nЗанятость: полная, 5/2\nЗП: от 150к до 250к, готовы рассмотреть и выше\n\nКомпания X4Apps специализируется на разработке собственных мобильных приложений и открывает вакансию мобильного разработчика уровня Middle+/Senior, который будет работать над созданием приложений для платформы iOS.\n\nМы практикуем быструю проверку гипотез, быстро создаем приложения, запускаем первых пользователей, смотрим на обратную связь и наращиваем функционал либо переключаемся на разработку новых приложений/новых идей.\n\nОт Вас мы ждем:\n- Способность разработать приложение с нуля и выпустить его в AppStore\n- Знание Objective-C и Swift\n- Суммарный опыт программирования от 3-х лет\n- Умение работать с системой контроля версий git - console, IDE, web;\n- Понимание принципов ООП и шаблонов проектирования\n- Опыт использования JSON, REST API\n- Опыт написания клиент-серверных приложений\n- Наличие опубликованных приложений в AppStore\n\nБудет плюсом:\n- Желание постоянно учиться и применять новые технологии в своей работе\n- Понимание в разработке пользовательского интерфейса\n- Понимание работы бэкэнда\n\nКонтакт @bambaleeyo","markup":[{"type":"hashtag","offset":0,"length":9,"data":"вакансия"},{"type":"hashtag","offset":10,"length":7,"data":"mobile"},{"type":"hashtag","offset":18,"length":4,"data":"ios"},{"type":"hashtag","offset":23,"length":6,"data":"swift"},{"type":"hashtag","offset":30,"length":9,"data":"fulltime"},{"type":"bold","offset":40,"length":19,"data":""},{"type":"bold","offset":118,"length":13,"data":""},{"type":"bold","offset":176,"length":9,"data":""},{"type":"bold","offset":199,"length":2,"data":""},{"type":"bold","offset":675,"length":14,"data":""},{"type":"bold","offset":1087,"length":12,"data":""},{"type":"bold","offset":1255,"length":7,"data":""},{"type":"handle","offset":1263,"length":11,"data":"bambaleeyo"}],"date":"2020-07-02T14:04:01+00:00","link":"tg://resolve?domain=mobile_jobs&post=69194","tags":[{"name":"mobile"},{"name":"ios"},{"name":"swift"},{"name":"objective-c"},{"name":"git"},{"name":"web"},{"name":"json"},{"name":"rest"}],"cities":[{"code":"moscow"}],"allowsRemote":true}},{"node":{"__typename":"Job","id":"104259911680-1001089317451","title":"Qa инженер","text":"#вакансия #москва #fulltime #middle #automation\n\n🏢Город: Москва, м. Ленинский проспект\n💻Формат: Офис\n💰З/п: до 180k на руки\n\n✌️Ищем тестировщика в команду сопровождения и развития облачной платформы собственной разработки на базе open source продуктов.\n«Лоялти энд Медиа Групп»- это современная облачная платформа - продуктовый маркетплейс и процессинг лояльности одновременно, заточенная под обработку больших массивов данных и создание продуктов и сервисов карточной лояльности для банков и мерчантов. Компания выступает как enabler и для тех, и для других, для чего реализовано большое количество интеграций с партнерами и клиентами, несколько white-label вебприложений для клиентов и набор API для онлайн-взаимодействия с приложениями клиентов и партнёров. Стратегический партнёр ЛМГ – Visa International.  \n\n📌Задачи: \n • Вам предстоит построить процесс тестирования в компании, фактически с нуля. \n • Участие в разработке правил и стандартов тестирования, поддержание высокого уровня культуры тестирования. \n • Создание и поддержка автоматизированных тестов\n • Ведение проекта – постоянная готовность предоставить полный и ясный отчет о состоянии проекта, анализ рисков, своевременное реагирование на проблемы. \n • Координация взаимодействия с другими участниками команды. \n • Выполнение всех работ, связанных с тестированием — сбор и анализ требований, разработка тестовой документации всех уровней, планирование, выдача оценок, подготовка тестовых сред и тестовых окружений, проведение циклов тестирования. \n  \n📌Требования: \n • Ясное понимание проектного подхода к работе, знакомство с различными методологиями управления проектами. \n • Опыт работы в тестировании от 2х лет. \n • Опыт использования ЯП в автоматизации тестирования  \n • Уверенные знания теории тестирования. \n • Умение составлять тестовую документацию всех уровней. \n • Английский язык на уровне чтения и написания технической документации. \n • Самостоятельность, высокий уровень личной дисциплины \n  \n📌Желательно: \n • Опыт работы с БД (PostgreSQL, PGBouncer, Redis, ElasticSearch, OpenLDAP) \n • Знание техник тестдизайна \n  \n📌Мы предлагаем: \n • Дружную команду и рабочую атмосферу с хорошим балансом творчества и задач. \n • Гибкий график. Возможна удаленная работа из дома по договоренности с командой. \n • Оплачиваемый отпуск и больничный. По предварительной договоренности у вас могут быть выходные дни для особых случаев. \n • Растущий коллектив – на данный момент около 20 человек, из которых половина – разработчики, devops и аналитики. \n • Адекватное руководство. \n • Полное отсутствие бюрократии. \n • Достойный уровень зарплаты. \n • Перспективы профессионального и карьерного роста. Мы убеждены, что компания должна инвестировать в развитие своих сотрудников и поэтому приветствуем посещение конференций, митапов, профессиональные курсы (некоторые из них возможно организовать за счет компании). \n • Офис в Москве, 7 минут от м. «Ленинский Проспект».\n\n✉️Почта: mkoneva@youhired.ru \n❗️Telegram: @nunquam2008\n📞 Телефон: +79210614118","markup":[{"type":"hashtag","offset":0,"length":9,"data":"вакансия"},{"type":"hashtag","offset":10,"length":7,"data":"москва"},{"type":"hashtag","offset":18,"length":9,"data":"fulltime"},{"type":"hashtag","offset":28,"length":7,"data":"middle"},{"type":"hashtag","offset":36,"length":11,"data":"automation"},{"type":"link","offset":2946,"length":19,"data":"mailto:mkoneva@youhired.ru"},{"type":"handle","offset":2979,"length":12,"data":"nunquam2008"},{"type":"link","offset":3004,"length":12,"data":"tel:+79210614118"}],"date":"2020-07-02T14:03:01+00:00","link":"tg://resolve?domain=qa_jobs&post=99430","tags":[{"name":"qa"},{"name":"postgresql"},{"name":"redis"},{"name":"elasticsearch"}],"cities":[{"code":"moscow"}],"allowsRemote":true}}]}}},"context":{}}