{"hash":"f5f6bf98bd95e769321482904cbbd488f77922fd","data":{"records":{"id":"nodejs","name":"nodejs","belongsTo":{"totalCount":122,"pageInfo":{"totalPages":13,"currentPage":7},"edges":[{"node":{"__typename":"Job","id":"17089691648-1001110946746","title":"Js developer","text":"#вакансия #удаленка #nodejs \n\nRocketech.it ищет Middle+ Backend Node.js Developer\n\nФормат занятости: удаленка\nЗанятость: full-time\nЗарплатная вилка: 2000-2700$/месяц на руки\n\nО компании: \n\nRocketech - компания, предоставляющая полноценные продуктовые команды для инвесторов, стартаперов и крупных компаний. Мы уже больше 5 лет на рынке разработки програмного обеспечения. Сотни выполненых кейсов, десятки крупных клиентов. \n\nО проекте:\n\nМаркетинговый инструмент.\n\nСтек технологий: \n\nNest.js, MongoDB\n\nТребования: \n\n3+ года опыта коммерческой разработки на Node.js\n\nБудет плюсом:\n\nРазговорный английский\n\nКонтакт: @mxm_at\n\n—\n\n👉 Обсуждение вакансии в чате @javascript_jobs","markup":[{"type":"hashtag","offset":0,"length":9,"data":"вакансия"},{"type":"hashtag","offset":10,"length":9,"data":"удаленка"},{"type":"hashtag","offset":20,"length":7,"data":"nodejs"},{"type":"link","offset":30,"length":12,"data":"http://Rocketech.it"},{"type":"handle","offset":613,"length":7,"data":"mxm_at"},{"type":"handle","offset":655,"length":16,"data":"javascript_jobs"}],"date":"2020-06-20T10:39:10+00:00","link":"tg://resolve?domain=javascript_jobs_feed&post=16298","tags":[{"name":"javascript"},{"name":"nodejs"},{"name":"mongodb"}],"cities":[],"allowsRemote":true}},{"node":{"__typename":"Job","id":"17087594496-1001110946746","title":"Js разработчик","text":"#вакансия #работа #удаленка #backend #node #nodejs #remote\nГород и адрес офиса: Москва, Савеловская\nФормат работы: удаленка\nЗанятость: полная || проектная\nЗарплатная вилка: 100-160 т.р.\n\nОписание вакансии: \nИщем опытного backend-разработчика node.js для разработки высоконадежных транзакционных сервисов интеграции с различными системами\n\nТребования:\n• Опыт работы с унаследованными системами\n• Знание PHP на уровне понимания и чтения кода будет плюсом\n• Знание и понимание работы сетевых протоколов TCP/IP, HTTP, SMTP, IMAP\n• Знание и понимание языка JavaScript и связанных с ним технологий и фреймворков\n• Опыт разработки серверных приложений\n• Понимание основных процессов разработки, умение работать в команде\n• Понимание принципов ООП, подходов в программировании и требований к транзакционным системам\n\nЗадачи:\n• Разработка высоконадежных транзакционных сервисов интеграции с различными системами\n• Поддержка и модернизация существующих систем\n\nНазвание компании: TechPlatforms (https://techpl.net)\nКонтакты:@desych79\n\n—\n\n👉 Обсуждение вакансии в чате @javascript_jobs","markup":[{"type":"hashtag","offset":0,"length":9,"data":"вакансия"},{"type":"hashtag","offset":10,"length":7,"data":"работа"},{"type":"hashtag","offset":18,"length":9,"data":"удаленка"},{"type":"hashtag","offset":28,"length":8,"data":"backend"},{"type":"hashtag","offset":37,"length":5,"data":"node"},{"type":"hashtag","offset":43,"length":7,"data":"nodejs"},{"type":"hashtag","offset":51,"length":7,"data":"remote"},{"type":"link","offset":985,"length":18,"data":"https://techpl.net"},{"type":"handle","offset":1014,"length":9,"data":"desych79"},{"type":"handle","offset":1058,"length":16,"data":"javascript_jobs"}],"date":"2020-06-20T10:35:03+00:00","link":"tg://resolve?domain=javascript_jobs_feed&post=16296","tags":[{"name":"javascript"},{"name":"nodejs"},{"name":"php"},{"name":"smtp"},{"name":"dotnet"}],"cities":[{"code":"moscow"}],"allowsRemote":true}},{"node":{"__typename":"Job","id":"17080254464-1001110946746","title":"Js разработчик","text":"#вакансия #вакансии #удаленная #работа #разработчик #remote #job #remotejob #full #stack #fullstack #software #engineer #develop #developer #node #react #amazon #aws #api #crm #erp #zoho #us #usa\n\n😎 Full Stack Software Engineer\n\nКомпания: Deep Consulting Solutions (Austin, Texas)\n\nМестоположение: Anywhere\n\nФормат работы: Remote \n\nЗанятость: Full Time, Flexible Schedule \n\nЗарплата: $1000-3000\n \nОписание вакансии:\n\nhttps://zfrmz.com/yIDN35yaj3apxsNfR9qS?src=irina-itrecruiter\n\nRequirements:\n\nYou must be:\n\n- A mature and responsible individual driven by results and not activities.\n- An individual with genuine interest in technology.\n- Willing to learn, grow, and admit mistakes.\n- Able to communicate with other people on the project's team effectively.\n \nSkills/Experience:\n\n- Node.js, React, SQL and NoSQL databases.\n- APIs.\n- Effective Written and Verbal English.\n- Basic Understanding of DevOps and SDLC.\n \nThe following will be a good plus:\n\n- Experience with Amazon AWS, serverless technologies, and microservices on its platform.\n- Experience with CRM and ERP systems such as Zoho and others.\n\nКак подать заявку:\n\nhttps://zfrmz.com/yIDN35yaj3apxsNfR9qS?src=irina-itrecruiter\n\nКонтакт:\n@Aagdan\n\n—\n\n👉 Обсуждение вакансии в чате @javascript_jobs","markup":[{"type":"hashtag","offset":0,"length":9,"data":"вакансия"},{"type":"hashtag","offset":10,"length":9,"data":"вакансии"},{"type":"hashtag","offset":20,"length":10,"data":"удаленная"},{"type":"hashtag","offset":31,"length":7,"data":"работа"},{"type":"hashtag","offset":39,"length":12,"data":"разработчик"},{"type":"hashtag","offset":52,"length":7,"data":"remote"},{"type":"hashtag","offset":60,"length":4,"data":"job"},{"type":"hashtag","offset":65,"length":10,"data":"remotejob"},{"type":"hashtag","offset":76,"length":5,"data":"full"},{"type":"hashtag","offset":82,"length":6,"data":"stack"},{"type":"hashtag","offset":89,"length":10,"data":"fullstack"},{"type":"hashtag","offset":100,"length":9,"data":"software"},{"type":"hashtag","offset":110,"length":9,"data":"engineer"},{"type":"hashtag","offset":120,"length":8,"data":"develop"},{"type":"hashtag","offset":129,"length":10,"data":"developer"},{"type":"hashtag","offset":140,"length":5,"data":"node"},{"type":"hashtag","offset":146,"length":6,"data":"react"},{"type":"hashtag","offset":153,"length":7,"data":"amazon"},{"type":"hashtag","offset":161,"length":4,"data":"aws"},{"type":"hashtag","offset":166,"length":4,"data":"api"},{"type":"hashtag","offset":171,"length":4,"data":"crm"},{"type":"hashtag","offset":176,"length":4,"data":"erp"},{"type":"hashtag","offset":181,"length":5,"data":"zoho"},{"type":"hashtag","offset":187,"length":3,"data":"us"},{"type":"hashtag","offset":191,"length":4,"data":"usa"},{"type":"link","offset":418,"length":60,"data":"https://zfrmz.com/yIDN35yaj3apxsNfR9qS?src=irina-itrecruiter"},{"type":"link","offset":1126,"length":60,"data":"https://zfrmz.com/yIDN35yaj3apxsNfR9qS?src=irina-itrecruiter"},{"type":"handle","offset":1197,"length":7,"data":"Aagdan"},{"type":"handle","offset":1239,"length":16,"data":"javascript_jobs"}],"date":"2020-06-19T18:46:06+00:00","link":"tg://resolve?domain=javascript_jobs_feed&post=16289","tags":[{"name":"javascript"},{"name":"nodejs"},{"name":"reactjs"},{"name":"amazon-web-services"},{"name":"sql"},{"name":"nosql"}],"cities":[{"code":"austin"}],"allowsRemote":true}},{"node":{"__typename":"Job","id":"26480738304-1001075660570","title":"Php разработчик","text":"#вакансия #офис #СанктПетербург #php #nodes\n\nFull stack developer\n\nАдрес: м Чкаловская\nФормат работы: офис\nЗанятость: полная\nЗ.п: 120 000-150 000\n\nРазработчик платформы для приема ставок на киберспортивные Игры и соревнования.\n\nОбязанности:\n\nРазработка высоконагруженных сервисов\nУчастие в проектирование архитектуры системы\nОптимизация производительности систем\nИнтеграции с внешними сервисами\n\nТребования:\n\n- php / node.js\n- MongoDB, MySQL\n- js, css, scss, один из фреймворков - react (mobx), vue\n- опыт разработки парсеров\n- опыт работы с REST API\n- уверенное владение Git\n- понимание что такое s2s, google analytics\n- умение покрывать код трекерами статистики (пиксели, голы, эвенты google analytics и фейсбука, постбеки) и понимание принципов их работы\n- знание английского языка на уровне чтения технической документации\n- автономность, желание разбираться в новом\n\nУсловия:\nОформление по ТК РФ;\nРежим работы 5/2, гибкий графике;\nофис в историческом центре Петербурга, в 10 минутах от метро Чкаловская;\nПеченьки, фрукты, чай и кофе\n\nКонтакты: vp5494@yandex.ru\n@Аnastasia202011","markup":[{"type":"hashtag","offset":0,"length":9,"data":"вакансия"},{"type":"hashtag","offset":10,"length":5,"data":"офис"},{"type":"hashtag","offset":16,"length":15,"data":"СанктПетербург"},{"type":"hashtag","offset":32,"length":4,"data":"php"},{"type":"hashtag","offset":37,"length":6,"data":"nodes"},{"type":"link","offset":1049,"length":16,"data":"mailto:vp5494@yandex.ru"}],"date":"2020-06-19T17:04:53+00:00","link":"tg://resolve?domain=php_jobs&post=25254","tags":[{"name":"php"},{"name":"nodejs"},{"name":"mongodb"},{"name":"mysql"},{"name":"css"},{"name":"reactjs"},{"name":"vuejs"},{"name":"rest"},{"name":"git"},{"name":"google-analytics"}],"cities":[],"allowsRemote":false}},{"node":{"__typename":"Job","id":"26477592576-1001075660570","title":"Php разработчик","text":"🏡 При публикации вакансии необходимо указать город и станцию метро (или ближайший ориентир). Если возможна удалённая работа – надо об этом указать явно. \n\n🔵 В группе есть традиция - представляться при входе:\n\n▫️Какой у вас проект или где работаете?\n▫️В чём вы специалист?\n▫️Чем можете быть интересны или полезны сообществу?\n▫️Чем интересно сообщество вам? Что вы ищите?\n▫️Откуда вы?\n▫️Как узнали про группу?\nВ сообщении нужно указать тэг #whois\n\n🔵 Правила чата: \n\n🚫 Реклама запрещена\n🚫 Политика запрещена\n🚫 Флуд и оффтопик запрещён\n🚫 Нецензурная лексика запрещена\n\nЗа несоблюдение правил - одно предупреждение, далее следует бан.\n\nЗдесь публикуем вакансии (указывая тэг #вакансия) и запросы на поиск работы (указывая тэг #ищу) по направлению PHP, Laravel, Symfony, Yii и т.д. Формат любой: full-time, part-time, remote и разовые подработки. Также обмениваемся инсайдами и аналитикой по рынку труда.\n\nЗаметили нарушение? Обратитесь, пожалуйста, к модераторам:\n🔸@Ddonalld \n🔸@DenisIzmaylov\n\n🔵 Параллельно с этой группой развиваются другие группы с вакансиями, запросами на поиск работы и аналитикой по рынку труда в разных направлениях:\n\n🔸@qa_jobs – по всем видам тестирования, его автоматизации и т.д. \n🔸@mobile_jobs – по направлению iOS, Android, Xamarin и т.д.\n🔸@javascript_jobs – по JavaScript, React.js, Node.js, React Native и пр.\n🔸@devops_jobs – по направлению DevOps, Docker, CoreOS, Kubernetes и пр\n🔸@uiux_jobs –  по направлению дизайна UI, UX, Design Thinking, Style Guides, Mobile и т.д.\n🔸@products_jobs – по управлению продуктами, Growth Hacking, Cust Dev, Design Thinking, UX.\n\n🌎 Возможно, вам также будут интересны группы: @qa_ru, @android_ru, @ios_ru, @reactnative_ru, @react_js, @nodejs_ru, @angularjs_ru, @angular2, @devops_ru, @uiux_ru, @products_, @agile_ru, @selfdev_ru. Приятного общения!","markup":[{"type":"hashtag","offset":440,"length":6,"data":"whois"},{"type":"hashtag","offset":677,"length":9,"data":"вакансия"},{"type":"hashtag","offset":728,"length":4,"data":"ищу"},{"type":"handle","offset":968,"length":9,"data":"Ddonalld"},{"type":"handle","offset":981,"length":14,"data":"DenisIzmaylov"},{"type":"handle","offset":1147,"length":8,"data":"qa_jobs"},{"type":"handle","offset":1214,"length":12,"data":"mobile_jobs"},{"type":"handle","offset":1275,"length":16,"data":"javascript_jobs"},{"type":"handle","offset":1349,"length":12,"data":"devops_jobs"},{"type":"handle","offset":1421,"length":10,"data":"uiux_jobs"},{"type":"handle","offset":1513,"length":14,"data":"products_jobs"},{"type":"handle","offset":1651,"length":6,"data":"qa_ru"},{"type":"handle","offset":1659,"length":11,"data":"android_ru"},{"type":"handle","offset":1672,"length":7,"data":"ios_ru"},{"type":"handle","offset":1681,"length":15,"data":"reactnative_ru"},{"type":"handle","offset":1698,"length":9,"data":"react_js"},{"type":"handle","offset":1709,"length":10,"data":"nodejs_ru"},{"type":"handle","offset":1721,"length":13,"data":"angularjs_ru"},{"type":"handle","offset":1736,"length":9,"data":"angular2"},{"type":"handle","offset":1747,"length":10,"data":"devops_ru"},{"type":"handle","offset":1759,"length":8,"data":"uiux_ru"},{"type":"handle","offset":1769,"length":10,"data":"products_"},{"type":"handle","offset":1781,"length":9,"data":"agile_ru"},{"type":"handle","offset":1792,"length":11,"data":"selfdev_ru"}],"date":"2020-06-19T15:11:52+00:00","link":"tg://resolve?domain=php_jobs&post=25251","tags":[{"name":"php"},{"name":"laravel"},{"name":"symfony"},{"name":"yii"},{"name":"mobile"},{"name":"ios"},{"name":"android"},{"name":"xamarin"},{"name":"javascript"},{"name":"reactjs"},{"name":"nodejs"},{"name":"docker"},{"name":"kubernetes"},{"name":"angularjs"},{"name":"react-native"}],"cities":[],"allowsRemote":true}},{"node":{"__typename":"Job","id":"17076060160-1001110946746","title":"Js разработчик","text":"#вакансия #работа #удаленка #backend #node #nodejs #remote\nГород и адрес офиса: Москва, Савеловская\nФормат работы: удаленка\nЗанятость: полная || проектная\nЗарплатная вилка: 100-160 т.р. net\n\nОписание вакансии: \nИщем опытного backend-разработчика node.js для разработки высоконадежных транзакционных сервисов интеграции с различными системами\n\nТребования:\n• Опыт работы с унаследованными системами\n• Знание PHP на уровне понимания и чтения кода будет плюсом\n• Знание и понимание работы сетевых протоколов TCP/IP, HTTP, SMTP, IMAP\n• Знание и понимание языка JavaScript и связанных с ним технологий и фреймворков\n• Опыт разработки серверных приложений\n• Понимание основных процессов разработки, умение работать в команде\n• Понимание принципов ООП, подходов в программировании и требований к транзакционным системам\n\nЗадачи:\n• Разработка высоконадежных транзакционных сервисов интеграции с различными системами\n• Поддержка и модернизация существующих систем\n\nНазвание компании: TechPlatforms (https://techpl.net)\nКонтакты:@desych79\n\n—\n\n👉 Обсуждение вакансии в чате @javascript_jobs","markup":[{"type":"hashtag","offset":0,"length":9,"data":"вакансия"},{"type":"hashtag","offset":10,"length":7,"data":"работа"},{"type":"hashtag","offset":18,"length":9,"data":"удаленка"},{"type":"hashtag","offset":28,"length":8,"data":"backend"},{"type":"hashtag","offset":37,"length":5,"data":"node"},{"type":"hashtag","offset":43,"length":7,"data":"nodejs"},{"type":"hashtag","offset":51,"length":7,"data":"remote"},{"type":"link","offset":989,"length":18,"data":"https://techpl.net"},{"type":"handle","offset":1018,"length":9,"data":"desych79"},{"type":"handle","offset":1062,"length":16,"data":"javascript_jobs"}],"date":"2020-06-19T10:52:00+00:00","link":"tg://resolve?domain=javascript_jobs_feed&post=16285","tags":[{"name":"javascript"},{"name":"nodejs"},{"name":"dotnet"},{"name":"php"},{"name":"smtp"}],"cities":[{"code":"moscow"}],"allowsRemote":true}},{"node":{"__typename":"Job","id":"17072914432-1001110946746","title":"Js разработчик","text":"#вакансия  #backend #nodejs #javascript #удаленка #js #remote\n\nПозиция: Backend developer (Middle)\nКомпания: paradigmfund.io - инвестиционный фонд с офисами в Москве и Токио.\nФормат работы: Удаленка \nЗанятость: Полная с графиком работы (в выходные отдыхаем, в будни работаем по графику, гибкое начало рабочего дня)\nЗарплатная вилка: 110 000-150 000 руб. на руки\nЗадача: Участвовать в разработке новых и текущих it продуктов компании (криптовалютный кошелек, торговая биржа, обменник валют). \n\nТребования:\n- Опыт программирования на чистом JS не менее 3-х лет\n- Опыт программирования под Node.js не менее года\n- Опыт работы с серверами на Ubuntu\n- Знание SQL и особенностей PostgreSQL\n- Умение оптимизировать тяжелые запросы к базе\n- Хороший навык чтения чужого кода и модернизации его\n- Навык анализа новых структур данных и чужих API\n- Навык работы с Git\n- Гибкость, отзывчивость и хорошие soft skills, мы ценим дружелюбную и продуктивную среду, которую мы создали в команде, и надеемся, что вы гармонично в нее впишетесь.\n\nЖелательно:\n- Знание html, css, vue.js\n- Навык работы с docker'ами\n- Умение настраивать NGINX\n- Навык написание unit тестов\n- Навык поиска утечек памяти\n\nПомимо всего вышесказанного, у нас вы получите:\n- Работа в дружной команде, как разработчиков так и управленцев. \n- Профессиональное развитие и новые знания касаемо blockchain технологий.\n- Возможность релокации в офис в Москве.\n- Понятные процессы разработки (Agile, двухнедельные спринты, работаем в Jira и Confluence). \n\nКонтакты:\nМы стремимся постоянно автоматизировать и улучшать наши процессы, поэтому отклик на вакансию просим оставлять через форму: https://forms.gle/L9hWmD18Zs9kMo2E8\nС подходящими кандидатами свяжемся в течение недели, если возникли какие то вопросы, с радостью отвечу на них в лс @grshabl\n\n—\n\n👉 Обсуждение вакансии в чате @javascript_jobs","markup":[{"type":"hashtag","offset":0,"length":9,"data":"вакансия"},{"type":"hashtag","offset":11,"length":8,"data":"backend"},{"type":"hashtag","offset":20,"length":7,"data":"nodejs"},{"type":"hashtag","offset":28,"length":11,"data":"javascript"},{"type":"hashtag","offset":40,"length":9,"data":"удаленка"},{"type":"hashtag","offset":50,"length":3,"data":"js"},{"type":"hashtag","offset":54,"length":7,"data":"remote"},{"type":"link","offset":109,"length":15,"data":"http://paradigmfund.io"},{"type":"link","offset":1636,"length":35,"data":"https://forms.gle/L9hWmD18Zs9kMo2E8"},{"type":"handle","offset":1787,"length":8,"data":"grshabl"},{"type":"handle","offset":1830,"length":16,"data":"javascript_jobs"}],"date":"2020-06-19T10:46:36+00:00","link":"tg://resolve?domain=javascript_jobs_feed&post=16282","tags":[{"name":"javascript"},{"name":"nodejs"},{"name":"ubuntu"},{"name":"sql"},{"name":"postgresql"},{"name":"git"},{"name":"html"},{"name":"css"},{"name":"vuejs"},{"name":"docker"},{"name":"nginx"}],"cities":[{"code":"tokyo"}],"allowsRemote":true}},{"node":{"__typename":"Job","id":"17064525824-1001110946746","title":"Js разработчик","text":"#вакансия #вакансии #удаленная #работа #разработчик #remote #job #remotejob #senior #full #stack #fullstack #software #engineer #develop #developer #node #react #amazon #aws #api #crm #erp #zoho #us #usa\n\n😎 Senior Full Stack Software Engineer\n\nCompany: Deep Consulting Solutions (Austin, Texas)\n\nLocation: Anywhere\n\nMonthly Salary: $3000-4000\n \n#Remote #FullTime #Flexible\n\nRequirements: \n\nYou must be:\n- A mature and responsible individual driven by results and not activities.\n- An individual with genuine interest in technology.\n- Willing to learn, grow, and admit mistakes.\n- Able to communicate with other people on the project's team effectively.\n \nSkills/Experience:\n\n- Node.js, React, SQL and NoSQL databases.\n- APIs.\n- Effective Written and Verbal English.\n- Basic Understanding of DevOps and SDLC.\n \nThe following will be a good plus:\n\n- Experience with Amazon AWS, serverless technologies, and microservices on its platform.\n- Experience with CRM and ERP systems such as Zoho and others.\n\nHow to apply:\n\nhttps://zfrmz.com/yIDN35yaj3apxsNfR9qS?src=irina-itrecruiter\n\nContact:\n@Aagdan\n\n—\n\n👉 Обсуждение вакансии в чате @javascript_jobs","markup":[{"type":"hashtag","offset":0,"length":9,"data":"вакансия"},{"type":"hashtag","offset":10,"length":9,"data":"вакансии"},{"type":"hashtag","offset":20,"length":10,"data":"удаленная"},{"type":"hashtag","offset":31,"length":7,"data":"работа"},{"type":"hashtag","offset":39,"length":12,"data":"разработчик"},{"type":"hashtag","offset":52,"length":7,"data":"remote"},{"type":"hashtag","offset":60,"length":4,"data":"job"},{"type":"hashtag","offset":65,"length":10,"data":"remotejob"},{"type":"hashtag","offset":76,"length":7,"data":"senior"},{"type":"hashtag","offset":84,"length":5,"data":"full"},{"type":"hashtag","offset":90,"length":6,"data":"stack"},{"type":"hashtag","offset":97,"length":10,"data":"fullstack"},{"type":"hashtag","offset":108,"length":9,"data":"software"},{"type":"hashtag","offset":118,"length":9,"data":"engineer"},{"type":"hashtag","offset":128,"length":8,"data":"develop"},{"type":"hashtag","offset":137,"length":10,"data":"developer"},{"type":"hashtag","offset":148,"length":5,"data":"node"},{"type":"hashtag","offset":154,"length":6,"data":"react"},{"type":"hashtag","offset":161,"length":7,"data":"amazon"},{"type":"hashtag","offset":169,"length":4,"data":"aws"},{"type":"hashtag","offset":174,"length":4,"data":"api"},{"type":"hashtag","offset":179,"length":4,"data":"crm"},{"type":"hashtag","offset":184,"length":4,"data":"erp"},{"type":"hashtag","offset":189,"length":5,"data":"zoho"},{"type":"hashtag","offset":195,"length":3,"data":"us"},{"type":"hashtag","offset":199,"length":4,"data":"usa"},{"type":"hashtag","offset":346,"length":7,"data":"Remote"},{"type":"hashtag","offset":354,"length":9,"data":"FullTime"},{"type":"hashtag","offset":364,"length":9,"data":"Flexible"},{"type":"link","offset":1016,"length":60,"data":"https://zfrmz.com/yIDN35yaj3apxsNfR9qS?src=irina-itrecruiter"},{"type":"handle","offset":1087,"length":7,"data":"Aagdan"},{"type":"handle","offset":1129,"length":16,"data":"javascript_jobs"}],"date":"2020-06-19T10:38:42+00:00","link":"tg://resolve?domain=javascript_jobs_feed&post=16274","tags":[{"name":"javascript"},{"name":"nodejs"},{"name":"reactjs"},{"name":"amazon-web-services"},{"name":"sql"},{"name":"nosql"}],"cities":[{"code":"austin"}],"allowsRemote":true}},{"node":{"__typename":"Job","id":"17061380096-1001110946746","title":"Js разработчик","text":"Greenatom.ru\n#вакансия #Москва #javascript #React #Typescript #Node.js #Middle #Senior #удаленка #удаленная работа \n\n👨🏼‍💻 Middle/Senior Frontend Developer, Middle/Senior Backend Developer\nГород и адрес офиса: #Москва, БЦ Сириус Парк, метро Нагатинская\n\n✅Формат работы: \nУДАЛЕННАЯ РАБОТА\n\n💻Занятость: полная, гибкое начало трудового дня.\n\nЗарплатная вилка: от 170 000 до 230 000 руб. на руки.\n\n🏢Компания: АО Гринатом\n\nПривет! Мы растём и активно развиваем ряд внутренних проектов: например, корпоративный портал, горячая линия, собственная кадровая система для 400 предприятий! \nМы формируем НЕСКОЛЬКО КОМАНД, общей численностью более 60 человек и ищем классных:\n\n✅ФРОНТЕНД  разработчиков;\n\n✅БЭКЕНД разработчиков. \n\nПроекты в стадии разработки пилота и у тебя есть возможность повлиять на дальнейшее развитие продукта. Если у тебя есть крутые идеи - ты сможешь их здесь реализовать! Откликайся сам и зови друзей! Вирус пройдёт, работа останется!\n\n✅Требуемые знания и навыки:\n- Опыт разработки от двух лет\n- Хорошее знание чистого JS\n- Опыт работы с TypeScript\n- React, MobX, Less/Sass\n- Опыт написания юнит-тестов с помощью Jest, Enzymе очень приветствуется\n\n💡Наш стек:\n      React, TypeScript, Node.js, MobX, Docker\n\nМы работаем по Scrum.\n\n✅Условия:\n- Официальное оформление по ТК, белая зп;\n- Годовой бонус;\n- Возможности профессионального и карьерного роста;\n- Дополнительные 3 дня к отпуску;\n- Плавающее начало дня;\n- ДМС со стоматологией;\n- Полная удаленка \n(Если тебе нравится работать в офисе, мы не против)\n\n☎️Контакты:\nЮлия - YAnZueva@Greenatom.ru\n\n—\n\n👉 Обсуждение вакансии в чате @javascript_jobs","markup":[{"type":"link","offset":0,"length":12,"data":"http://Greenatom.ru"},{"type":"hashtag","offset":13,"length":9,"data":"вакансия"},{"type":"hashtag","offset":23,"length":7,"data":"Москва"},{"type":"hashtag","offset":31,"length":11,"data":"javascript"},{"type":"hashtag","offset":43,"length":6,"data":"React"},{"type":"hashtag","offset":50,"length":11,"data":"Typescript"},{"type":"hashtag","offset":62,"length":5,"data":"Node"},{"type":"hashtag","offset":71,"length":7,"data":"Middle"},{"type":"hashtag","offset":79,"length":7,"data":"Senior"},{"type":"hashtag","offset":87,"length":9,"data":"удаленка"},{"type":"hashtag","offset":97,"length":10,"data":"удаленная"},{"type":"hashtag","offset":212,"length":7,"data":"Москва"},{"type":"link","offset":1540,"length":21,"data":"mailto:YAnZueva@Greenatom.ru"},{"type":"handle","offset":1596,"length":16,"data":"javascript_jobs"}],"date":"2020-06-18T21:15:55+00:00","link":"tg://resolve?domain=javascript_jobs_feed&post=16271","tags":[{"name":"javascript"},{"name":"reactjs"},{"name":"typescript"},{"name":"nodejs"},{"name":"sass"},{"name":"docker"}],"cities":[{"code":"moscow"}],"allowsRemote":true}},{"node":{"__typename":"Job","id":"17057185792-1001110946746","title":"Js программист","text":"#вакансия #remote #Javascript #React #Node.js #middle #senior\n\nВсем привет!\n\nЯндекс.Практикум — сервис онлайн-образования. Мы помогаем людям расти — на работе и в жизни. Студенты могут освоить новую специальность, заговорить на иностранном языке и получать удовольствие от того, чем занимаются — каждый день.\n\nСейчас мы в поиске наставников на факультет Веб-разработки!\n\nКомпания: Яндекс.Практикум \nГрафик: частичная удаленная работа, 12 часов в неделю (з/п 50 тыс рублей в месяц). Можно легко совмещать с основной работой.\n\n🔹Что делает наставник?\nНаставник курирует группу из 60 студентов на протяжении всего процесса обучения (примерно 10 месяцев). Он отвечает на их вопросы, проводит групповые консультации и лайвкодинг-вебинары. \n\n🔹Вам подойдет роль, если у вас есть: опыт работы программистом больше трех лет;\nЗнаете HTML, CSS, JavaScript, React, NodeJs;\nПлюсом будет опыт преподавания и экспертной деятельности. \n\n🔹Все наставники перед работой проходят Школу наставников от Яндекс.Практикума. \n\nОткликаться можно здесь: https://praktikum.yandex.ru/job/vacancy-9 \nили пишите в личку @valerymis \nПочта: valeriamis@yandex-team.ru\n\n—\n\n👉 Обсуждение вакансии в чате @javascript_jobs","markup":[{"type":"hashtag","offset":0,"length":9,"data":"вакансия"},{"type":"hashtag","offset":10,"length":7,"data":"remote"},{"type":"hashtag","offset":18,"length":11,"data":"Javascript"},{"type":"hashtag","offset":30,"length":6,"data":"React"},{"type":"hashtag","offset":37,"length":5,"data":"Node"},{"type":"hashtag","offset":46,"length":7,"data":"middle"},{"type":"hashtag","offset":54,"length":7,"data":"senior"},{"type":"link","offset":1029,"length":41,"data":"https://praktikum.yandex.ru/job/vacancy-9"},{"type":"handle","offset":1091,"length":10,"data":"valerymis"},{"type":"link","offset":1110,"length":25,"data":"mailto:valeriamis@yandex-team.ru"},{"type":"handle","offset":1170,"length":16,"data":"javascript_jobs"}],"date":"2020-06-18T21:09:30+00:00","link":"tg://resolve?domain=javascript_jobs_feed&post=0","tags":[{"name":"javascript"},{"name":"reactjs"},{"name":"nodejs"},{"name":"html"},{"name":"css"}],"cities":[],"allowsRemote":true}}]}}},"context":{}}