{"hash":"f5f6bf98bd95e769321482904cbbd488f77922fd","data":{"records":{"id":"reactjs","name":"reactjs","belongsTo":{"totalCount":182,"pageInfo":{"totalPages":19,"currentPage":8},"edges":[{"node":{"__typename":"Job","id":"72096940032-1001054966032","title":"Android developer","text":"#вакансия #fulltime  #vacancy  #remote #ремоут  #ReactNativedeveloper #ReactNative \n\n💻 React Native Developer\n🕐 Fulltime remote\n👩🏻‍💻1,5 year of commercial development on React Native\n💰from 10 $/hour to 18 $/hour\n\nВсем привет!🙋🏻‍♀️\nAMS ищет React Native dev на ремоут. Мы занимаемся разработкой мобильных приложений под Android и IOS.\n\nУсловия:\n-проектная занятость;\n-фуллтайм.\n\nТребования :\n-коммерческий опыт разработки от 1,5 года;\n-разговорный английский.\n\n📝 За подробностями по вакансии и по всем вопросам  пишите:\ndarya.matsyas@ams-apps.com\nDarya \nLinkedIn","markup":[{"type":"hashtag","offset":0,"length":9,"data":"вакансия"},{"type":"hashtag","offset":10,"length":9,"data":"fulltime"},{"type":"hashtag","offset":21,"length":8,"data":"vacancy"},{"type":"hashtag","offset":31,"length":7,"data":"remote"},{"type":"hashtag","offset":39,"length":7,"data":"ремоут"},{"type":"hashtag","offset":48,"length":21,"data":"ReactNativedeveloper"},{"type":"hashtag","offset":70,"length":12,"data":"ReactNative"},{"type":"link","offset":468,"length":2,"data":"http://darya.matsyas@ams-apps.com/"},{"type":"link","offset":528,"length":27,"data":"http://darya.matsyas@ams-apps.com/"},{"type":"link","offset":562,"length":8,"data":"https://www.linkedin.com/in/darya-matyas-12ba33158/"}],"date":"2020-06-26T13:53:45+00:00","link":"tg://resolve?domain=mobile_jobs&post=68757","tags":[{"name":"mobile"},{"name":"android"},{"name":"ios"},{"name":"reactjs"},{"name":"react-native"}],"cities":[],"allowsRemote":true}},{"node":{"__typename":"Job","id":"17169383424-1001110946746","title":"Js разработчик","text":"#вакансия #javascript #typescript #react #удаленка\n\nГород и адрес офиса: любой\nФормат работы: удаленка\nЗанятость: полная\nЗарплатная вилка: от 105 000 до 130 000 рублей (на руки)\n\nОписание вакансии: Мы отказались от идеи клонировать сотрудников, поэтому продолжаем искать увлеченных High Middle frontend-разработчиков. Разработка веб-приложений на JS для банковской сферы.\n\nСтек технологий:\n– JavaScript, TypeScript;\n– React, Redux, Redux-saga;\n– Babel (ES 2016+), Webpack или Gulp, Git, БЭМ.\n\nНазвание компании: CSSSR\nКонтакты: telegram - @lena_bezbatchenko                                e-mail - elena.bezbatchenko@csssr.io","markup":[{"type":"hashtag","offset":0,"length":9,"data":"вакансия"},{"type":"hashtag","offset":10,"length":11,"data":"javascript"},{"type":"hashtag","offset":22,"length":11,"data":"typescript"},{"type":"hashtag","offset":34,"length":6,"data":"react"},{"type":"hashtag","offset":41,"length":9,"data":"удаленка"},{"type":"handle","offset":539,"length":18,"data":"lena_bezbatchenko"},{"type":"link","offset":598,"length":27,"data":"mailto:elena.bezbatchenko@csssr.io"}],"date":"2020-06-26T12:59:43+00:00","link":"tg://resolve?domain=javascript_jobs_feed&post=16374","tags":[{"name":"javascript"},{"name":"typescript"},{"name":"reactjs"},{"name":"redux"},{"name":"webpack"},{"name":"gulp"},{"name":"git"},{"name":"react-redux"}],"cities":[],"allowsRemote":true}},{"node":{"__typename":"Job","id":"1744830464-1001091028994","title":"Java разработчик","text":"#москва #вакансия #java #javateamlead \nВакансия: Lead/Senior java разработчик \nВилка заработной платы: 180 000 – 250 000 net\nФормат: офис\n\nПроекты по созданию/развитию информационных систем в части цифровизации городских сервисов ЖКХ.\nРабота с IoT-системами, проекты по Bigdata, сбору и анализу данных с множества источников.\n\n🔸Мы предлагаем:\n-Высокая заработная плата от 180 000 до 250 000 на руки;\n-Повышение ставки после испытательного срока;\n-13-я зарплата+премии по итогу выполнения проектов;\n-Полностью официальное оформление по ТК РФ;\n\n🔸Требования:\n-Опыт управления командой 6+ человек от 1-го года;\n-Базовые знания Computer Science (алгоритмы, структуры данных);\n-Опыт разработки серверной части приложений на Java;\n-Знание практик и инструментария DevOps;\n-Отличное знание Java 8+ и популярных библиотек (Log4J, Apache Commons, Google Guava);\n-Знание Linux, основы Shell scripts, понимание архитектуры ОС.\n\n🔸Стек технологий:\n-На проектах используются языки: Java, JavaScript(React + Redux);\n-Java-стэк: Java8, Spring, Spring Cloud, Apache Kafka, Apache Spark, Tomcat;\n-Docker, Postgres, HDFS, Apache Hive;\n-Gitlab, Telegram.\n\nКонтакт: @Zarnica_hr","markup":[{"type":"hashtag","offset":0,"length":7,"data":"москва"},{"type":"hashtag","offset":8,"length":9,"data":"вакансия"},{"type":"hashtag","offset":18,"length":5,"data":"java"},{"type":"hashtag","offset":24,"length":13,"data":"javateamlead"},{"type":"handle","offset":1147,"length":11,"data":"Zarnica_hr"}],"date":"2020-06-26T12:01:03+00:00","link":"tg://resolve?domain=jvmjobs&post=1664","tags":[{"name":"java"},{"name":"jvm"},{"name":"dotnet"},{"name":"apache"},{"name":"linux"},{"name":"shell"},{"name":"javascript"},{"name":"reactjs"},{"name":"redux"},{"name":"spring"},{"name":"cloud"},{"name":"kafka"},{"name":"tomcat"},{"name":"docker"},{"name":"postgresql"},{"name":"hdfs"},{"name":"hive"},{"name":"gitlab"},{"name":"react-redux"},{"name":"apache-spark"}],"cities":[{"code":"moscow"}],"allowsRemote":false}},{"node":{"__typename":"Job","id":"72082259968-1001054966032","title":"Android разработчик","text":"#вакансия: #android #middle\nГород : Томск\nФормат работы: офис, удаленно\nЗанятость : Полная\nЗарплатная вилка80 000- 180 000\n\nОписание компании\nМы Digital Nomads проектируем и разрабатываем мобильные приложения на  iOS, Android, так же открываем направление кроссплатформенной разработки на React Native и Flutter\n\nИщем android разработчика\n\nТребования:\n\n- Опыт разработки мобильных приложений от 1,5 лет.\n- Знание и понимание ООП и паттернов проектирования, СУБД;\n- Знание Java или Kotlin, Android SDK, API и Design Guidelines, SQLite;\n- Знание RxJava, Dagger2, Retrofit;\n- Уверенное знания Git / Bitbucket;\n- Android Framework;\n- Умение писать аккуратный читаемый код, а также разбираться в чужом коде;\n- Знание английского языка на уровне чтения технической документации;\n- Приветствуются завершенные проекты для ознакомления (Google Play + GitHub).\n- Сотрудничаем с разработчиками РФ.\n Условия\n- Возможность работать удаленно или в комфортном офисе.\n- У нас гибкий 8-часовой рабочий день, поэтому вы можете работать в наиболее продуктивное для себя время.\n- Оформление по ТК РФ.\n- Разнообразие задач, технологий, возможность участия в международных проектах и в проектах с крупными заказчиками, определяющими отрасль.\n- Еженедельные занятия английским языком в офисе.\n\nКонтакты: @Denis5726","markup":[{"type":"hashtag","offset":0,"length":9,"data":"вакансия"},{"type":"hashtag","offset":11,"length":8,"data":"android"},{"type":"hashtag","offset":20,"length":7,"data":"middle"},{"type":"handle","offset":1281,"length":10,"data":"Denis5726"}],"date":"2020-06-26T10:30:10+00:00","link":"tg://resolve?domain=mobile_jobs&post=68743","tags":[{"name":"mobile"},{"name":"android"},{"name":"ios"},{"name":"reactjs"},{"name":"flutter"},{"name":"java"},{"name":"kotlin"},{"name":"sqlite"},{"name":"git"},{"name":"playframework"},{"name":"github"},{"name":"react-native"}],"cities":[{"code":"tomsk"}],"allowsRemote":true}},{"node":{"__typename":"Job","id":"17164140544-1001110946746","title":"Javascript разработчик","text":"#вакансия #remote #react #WebRTC #RealtimeWeb #ReactNative\nГород: Москва\nФормат работы: удаленная занятость, РФ\nЗанятость: полная\nВилка: от 70 до 200 000 руб\nРазработка приложения для проведения видео конференций (React).\nСтек: React, redux, typescript, vanilla DOM (WebRTC)\nРазработка мобильного клиента для большой программной платформы на React Native. Новый проект. \nНужен: Опыт разработки \"больших\" одностраничных приложений на JavaScript. \nОпыт разработки мобильных приложений на javascript (React Native, Ionic). \nКомпания: mirapolis.ru\nКонтакты: telegram @TimKaty\n\n—\n\n👉 Обсуждение вакансии в чате @javascript_jobs","markup":[{"type":"hashtag","offset":0,"length":9,"data":"вакансия"},{"type":"hashtag","offset":10,"length":7,"data":"remote"},{"type":"hashtag","offset":18,"length":6,"data":"react"},{"type":"hashtag","offset":25,"length":7,"data":"WebRTC"},{"type":"hashtag","offset":33,"length":12,"data":"RealtimeWeb"},{"type":"hashtag","offset":46,"length":12,"data":"ReactNative"},{"type":"link","offset":531,"length":12,"data":"http://mirapolis.ru"},{"type":"handle","offset":563,"length":8,"data":"TimKaty"},{"type":"handle","offset":606,"length":16,"data":"javascript_jobs"}],"date":"2020-06-26T07:36:42+00:00","link":"tg://resolve?domain=javascript_jobs_feed&post=16369","tags":[{"name":"javascript"},{"name":"reactjs"},{"name":"redux"},{"name":"typescript"},{"name":"react-redux"},{"name":"react-native"}],"cities":[{"code":"moscow"}],"allowsRemote":true}},{"node":{"__typename":"Job","id":"17162043392-1001110946746","title":"Js разработчик","text":"#вакансия #frontend_developer #js #react #stream \nMiddle/ Senior frontend developer (React JS)\nЛокация: г. Казань, Спартаковская, 6 \nФормат работы: удаленная работа (возможен формат коворкинга)\nЗанятость: полная \nЗарплатная вилка: от 130 000 до 200 000 рублей net\n\nОписание вакансии:\nStream  - 100% дочерняя компания МТС. Ищем опытного React JS разработчика для участия в проекте Виртуальная АТС.\nО проекте:\nВАТС - платформа для сборки бизнес-инструментов и «умная» телефонная связь через интернет, которая доступна в любом месте и для разных типов устройств.\nЧто предстоит?\n- проектирование архитектуры и участие в разработке frontend продукта;\n- проведение code review;\n- участие в оптимизации процессов разработки в компании.\nМы ожидаем от Вас:\n- опыт работы с React от 2 лет\n- опыт разработки SPA\n- знание TypeScript, NextJS, SCSS, Styled Components, HTML5, CSS\n- умение писать Unit-тесты (будет плюсом)\nЧто предлагаем?\n- \"белую\" заработную плату + полугодовые бонусы;\n- гибкий график работы;\n- ДМС со стоматологией, страхование жизни после испытательного срока;\n- корпоративную мобильную связь;\n- льготное кредитование для участников зарплатного проекта МТС Банк.\nНазвание компании: Stream https://stream.ru/\n\n📲 Контакты для резюме и вопросов: @askamasaska, AMorozova@stream.ru\n\n—\n\n👉 Обсуждение вакансии в чате @javascript_jobs","markup":[{"type":"hashtag","offset":0,"length":9,"data":"вакансия"},{"type":"hashtag","offset":10,"length":19,"data":"frontend_developer"},{"type":"hashtag","offset":30,"length":3,"data":"js"},{"type":"hashtag","offset":34,"length":6,"data":"react"},{"type":"hashtag","offset":41,"length":7,"data":"stream"},{"type":"link","offset":1195,"length":18,"data":"https://stream.ru/"},{"type":"handle","offset":1250,"length":12,"data":"askamasaska"},{"type":"link","offset":1264,"length":19,"data":"mailto:AMorozova@stream.ru"},{"type":"handle","offset":1318,"length":16,"data":"javascript_jobs"}],"date":"2020-06-26T07:25:03+00:00","link":"tg://resolve?domain=javascript_jobs_feed&post=16367","tags":[{"name":"javascript"},{"name":"reactjs"},{"name":"dotnet"},{"name":"typescript"},{"name":"html"},{"name":"css"}],"cities":[{"code":"kazan"}],"allowsRemote":true}},{"node":{"__typename":"Job","id":"17155751936-1001110946746","title":"Js developer","text":"#вакансия #удаленка #React #Frontend\n\nГород: Москва Emirex\nФормат работы: удаленка\nЗанятость: полная\nЗарплатная вилка:  от 80k  до 150к рублей\n\n👉Ближневосточная биржа Emirex ищет React Developer👈\n\n⚡️О компании:\nEmirex Group объединяет сообщество эмитентов и трейдеров со всей Африки, Азии и Европы и предоставляет им доступ к богатству Ближнего Востока, используя современные технологии (токен EMRX входит в ТОП-300 CMC)\n\nТребуемый опыт работы: от 3–ех лет\nПолная занятость, удаленная работа\n\nЧто для это нужно уметь:\n– знания и опыт работы с React.js, Javascript (ES6+),Typescript, HTML5, CSS3;\n– знание redux, redux saga, next.js (edited);\n– знание принципов ООП, шаблонов проектирования;\n– умение писать понятный и логичный код;\n– опыт работы с системами контроля версий (Git) и багтрекинг системами. Опыт работы с системами непрерывной интеграции (Gitlab CI);\n– ВАЖНО! амбициозность, порядочность, внимательность, аккуратность, умение четко и ясно излагать свои мысли.\n\nКруто, если вы:\n– знаете системы сборок (Gulp, Webpack);\n– имеете опыт разработки коммерческих проектов;\n– есть желание осваивать новые технологии, совершенствовать свои профессиональные навыки;\n– есть опыт разработки серверной стороны Web-приложения.\n\n📱Контакты: \nПрисылайте резюме на: recruiting@emirex.com\nTelegram: @AndreNaumov\n\n—\n\n👉 Обсуждение вакансии в чате @javascript_jobs","markup":[{"type":"hashtag","offset":0,"length":9,"data":"вакансия"},{"type":"hashtag","offset":10,"length":9,"data":"удаленка"},{"type":"hashtag","offset":20,"length":6,"data":"React"},{"type":"hashtag","offset":27,"length":9,"data":"Frontend"},{"type":"link","offset":1264,"length":21,"data":"mailto:recruiting@emirex.com"},{"type":"handle","offset":1296,"length":12,"data":"AndreNaumov"},{"type":"handle","offset":1343,"length":16,"data":"javascript_jobs"}],"date":"2020-06-25T17:58:55+00:00","link":"tg://resolve?domain=javascript_jobs_feed&post=16361","tags":[{"name":"javascript"},{"name":"reactjs"},{"name":"typescript"},{"name":"html"},{"name":"css"},{"name":"redux"},{"name":"git"},{"name":"gitlab"},{"name":"gulp"},{"name":"webpack"},{"name":"web"}],"cities":[{"code":"moscow"}],"allowsRemote":true}},{"node":{"__typename":"Job","id":"17153654784-1001110946746","title":"Js разработчик","text":"#вакансия #react #redux #москва #офис #javascript\n\nГород: Москва (ст.м. Аэропорт), также города с тем же часовым поясом.\n\nФормат работы: full-time, remote.\n\nЗанятость: полная. \n\nВилка: 100-250 т.р. на руки.\n\nФункционал:\n\n• Разработка WEB приложений;\n\n• Рефакторинг Legacy кода;\n\n• Написание и поддержка сложных модулей, реализованных на стеке технологий React;\n\n• Участие в оценке сроков, трудоёмкости и проектирование приложений.\n\nПрофессиональные знания: знание JavaScript и его особенностей; знание React / Redux, Node.js, пакетных менеджеров (Yarn / npm); умение работать с Git; понимание стратегий оптимизации web-приложения.\n\nНазвание компании: Локо-Банк\nhttps://www.lockobank.ru//\nhttps://hh.ru/vacancy/37365811\n\nКонтакты: @hrlocko","markup":[{"type":"hashtag","offset":0,"length":9,"data":"вакансия"},{"type":"hashtag","offset":10,"length":6,"data":"react"},{"type":"hashtag","offset":17,"length":6,"data":"redux"},{"type":"hashtag","offset":24,"length":7,"data":"москва"},{"type":"hashtag","offset":32,"length":5,"data":"офис"},{"type":"hashtag","offset":38,"length":11,"data":"javascript"},{"type":"link","offset":661,"length":26,"data":"https://www.lockobank.ru//"},{"type":"link","offset":688,"length":30,"data":"https://hh.ru/vacancy/37365811"},{"type":"handle","offset":730,"length":8,"data":"hrlocko"}],"date":"2020-06-25T13:40:52+00:00","link":"tg://resolve?domain=javascript_jobs_feed&post=16359","tags":[{"name":"javascript"},{"name":"reactjs"},{"name":"redux"},{"name":"web"},{"name":"nodejs"},{"name":"npm"},{"name":"git"},{"name":"react-redux"}],"cities":[{"code":"moscow"}],"allowsRemote":true}},{"node":{"__typename":"Job","id":"17151557632-1001110946746","title":"Js разработчик","text":"#вакансия #работа #frontend #react #redux #js #typescript #ульяновск #крснодар #нижнийновгород #самара #тольятти #ижевск #воронеж #казань #fulltime #удаленно #офис \n\nMiddle/Senior frontend разработчик React/Redux\nКомпания: Норд Клан\nГород: Ульяновск\nФормат: в офисе, удаленно, если живете не в Ульяновске\nЗарплатная вилка: от 70 до 150k на руки\n\n\nМы ищем разработчика в нашу команду NORD CLAN.  \nМы разрабатываем системы для бизнеса в области финтеха, медицины и фудтеха. Так же разрабатываем собственные продукты связанные с машинным обучением, распознаванием образов и компьютерным зрением. \n\nПо задачам:\n\nРазработка пользовательских интерфейсов в стеке React + Redux\nПроектирование, выбор и доработка архитектурных и технологических решений\nПроведение code-review Frontend-команды\nРазработка прототипов для отработки новых идей\n\nПо тербованиям:\nРеальный опыт работы с React;\nУверенные знания в HTML, CSS;\nНавыки работы с Git.\n\nБудет плюсом:\nОпыт работы на других языках (например, Java);\nАнглийский язык уровня Upper Intermediate.\n\n\nУ нас нет бюрократии, четко выстроены процессы разработки, мы любим и чтим ТК РФ и белую зп\n\n\nПисать в Telegram: @Dinovikova1477","markup":[{"type":"hashtag","offset":0,"length":9,"data":"вакансия"},{"type":"hashtag","offset":10,"length":7,"data":"работа"},{"type":"hashtag","offset":18,"length":9,"data":"frontend"},{"type":"hashtag","offset":28,"length":6,"data":"react"},{"type":"hashtag","offset":35,"length":6,"data":"redux"},{"type":"hashtag","offset":42,"length":3,"data":"js"},{"type":"hashtag","offset":46,"length":11,"data":"typescript"},{"type":"hashtag","offset":58,"length":10,"data":"ульяновск"},{"type":"hashtag","offset":69,"length":9,"data":"крснодар"},{"type":"hashtag","offset":79,"length":15,"data":"нижнийновгород"},{"type":"hashtag","offset":95,"length":7,"data":"самара"},{"type":"hashtag","offset":103,"length":9,"data":"тольятти"},{"type":"hashtag","offset":113,"length":7,"data":"ижевск"},{"type":"hashtag","offset":121,"length":8,"data":"воронеж"},{"type":"hashtag","offset":130,"length":7,"data":"казань"},{"type":"hashtag","offset":138,"length":9,"data":"fulltime"},{"type":"hashtag","offset":148,"length":9,"data":"удаленно"},{"type":"hashtag","offset":158,"length":5,"data":"офис"},{"type":"handle","offset":1149,"length":15,"data":"Dinovikova1477"}],"date":"2020-06-25T11:31:56+00:00","link":"tg://resolve?domain=javascript_jobs_feed&post=16357","tags":[{"name":"javascript"},{"name":"reactjs"},{"name":"redux"},{"name":"typescript"},{"name":"html"},{"name":"css"},{"name":"git"},{"name":"java"},{"name":"react-redux"}],"cities":[{"code":"ulyanovsk"},{"code":"samara"},{"code":"izhevsk"},{"code":"voronezh"},{"code":"kazan"}],"allowsRemote":true}},{"node":{"__typename":"Job","id":"17150509056-1001110946746","title":"Javascript разработчик","text":"#react #typescript #middle #вакансия #Москва\n\nГород и адрес офиса: Москва, Проспект Мира 69/1\n\nФормат работы: офис\n\nЗанятость: полная\n\nЗарплатная вилка: от 180 000 до 230 000 рублей\n\nНазвание компании: ООО «Компания БКС»\n\nЧем предстоит заниматься: \n\n- Разрабатывать один из самых важных микросервисов компании - Дистанционное открытие брокерского счета (ДОБС). Каждый наш новый клиент создается с помощью этого сервиса;\n\n- Работать в кросс-функциональной команде - Backend(4 чел), Web, IOS, Android, QA по Scrum;\n\n- Принимать участие в развитии микро-фронтенд архитектуре.\n\nЧто для этого потребуется:\n\n- Опыт разработки на Javascript от 3-х лет;\n- Опыт работы с React и любым state management'ом (redux, mobx, effector и др.) от 2-х лет;\n- Опыт работы с Typescript;\n- Опыт в кроссбраузерной и адаптивной верстке;\n- Опыт в написании тестов: Unit, интеграционные;\n- Опыт работы с Docker;\n- Опыт работы по Scrum;\n\nЗа что предложим справедливую компенсацию:\n\n- Оформление в соответствии с ТК РФ, все по правилам порядочных работодателей;\n- Комфортный, современный офис в центре города (7 мин. от м. Проспект Мира);\n- Гибкой график;\n- 3 day-off в течение года;\n- Более чем конкурентную заработную плату;\n- Минимум бюрократии (особенно по меркам банковского сектора) и отсутствие дресс-кода;\n- ДМС по льготным условиям;\n- Спортивные команды по футболу, волейболу, баскетболу, настольному теннису;\n- Обучение английскому языку со скидкой прямо в офисе и дистанционно;\n- Льготное приобретение фитнеса в компании World Class;\n- Уютная недорогая столовая на территории Компании (завтраки, обеды).\n\nКонтакты:\nEmail: tupalovdd@bcs.msk.ru\nТелеграм: @dtupalov","markup":[{"type":"hashtag","offset":0,"length":6,"data":"react"},{"type":"hashtag","offset":7,"length":11,"data":"typescript"},{"type":"hashtag","offset":19,"length":7,"data":"middle"},{"type":"hashtag","offset":27,"length":9,"data":"вакансия"},{"type":"hashtag","offset":37,"length":7,"data":"Москва"},{"type":"link","offset":1605,"length":20,"data":"mailto:tupalovdd@bcs.msk.ru"},{"type":"handle","offset":1636,"length":9,"data":"dtupalov"}],"date":"2020-06-25T11:30:26+00:00","link":"tg://resolve?domain=javascript_jobs_feed&post=16356","tags":[{"name":"javascript"},{"name":"reactjs"},{"name":"typescript"},{"name":"web"},{"name":"ios"},{"name":"android"},{"name":"redux"},{"name":"docker"}],"cities":[{"code":"moscow"}],"allowsRemote":false}}]}}},"context":{}}