{"hash":"f5f6bf98bd95e769321482904cbbd488f77922fd","data":{"records":{"id":"dotnet","name":"dotnet","belongsTo":{"totalCount":172,"pageInfo":{"totalPages":18,"currentPage":8},"edges":[{"node":{"__typename":"Job","id":"2254438400-1001134745498","title":"Devops инженер","text":"Инженер DevOps \n#вакансия #Москва #Сколково #DevOps \n\nКомпания: Farzoom (финтех стартап 2016 года, резидент Сколково) \nЛокация: Москва, МЦД Сколково \nФормат работы: частично удаленный формат  \nЗанятость: Полная  \n💰Зарплатная вилка: от 180т.р до 230т.р net, премии \n\nПроект по разработке облачной фронтальной системы для банковского сектора.  \n\nЧто мы используем: микросервисная архитектура, Java 8, Spring Boot, Camunda BPM, Gitlab, Jenkins, Ansible, Docker Swarm, OpenStack, Nexus. Везде стоит Linux CentOS. \n \nСейчас идет переход на стек: Kubernetes, Coreos, Terraform, Podman. \n \n🎯 Что предстоит делать: \nПоддержка инфраструктуры в облаке (порядка 60 серверов/виртуалок) \nРазворачивание новых контуров \nСборка сервисов \nПоддержка CI/CD (в том числе настройка пайплайнов) \nИнтеграция контура и помощь в поддержке решения \n \n🎯  Мы предлагаем: \nОформление по ТК РФ с первого рабочего дня \nЕжегодные премии \nОфис рядом с МЦД Сколково, возможность часть времени работать удаленно \n\n👉 Контакты: @edzyuba\n\n—\n\n👉 Обсуждение вакансии в чате @devops_jobs","markup":[{"type":"hashtag","offset":16,"length":9,"data":"вакансия"},{"type":"hashtag","offset":26,"length":7,"data":"Москва"},{"type":"hashtag","offset":34,"length":9,"data":"Сколково"},{"type":"hashtag","offset":44,"length":7,"data":"DevOps"},{"type":"handle","offset":996,"length":8,"data":"edzyuba"},{"type":"handle","offset":1039,"length":12,"data":"devops_jobs"}],"date":"2020-06-25T07:28:33+00:00","link":"tg://resolve?domain=devops_jobs_feed&post=2150","tags":[{"name":"dotnet"},{"name":"java"},{"name":"spring"},{"name":"gitlab"},{"name":"jenkins"},{"name":"ansible"},{"name":"docker"},{"name":"linux"},{"name":"centos"},{"name":"kubernetes"},{"name":"spring-boot"}],"cities":[{"code":"moscow"}],"allowsRemote":true}},{"node":{"__typename":"Job","id":"71948042240-1001054966032","title":"Android developer","text":"#вакансия #Juniorandroid #Android developer #kotlin #удаленно                                                                                                         Уровень дохода:💵 50 000-60 000  рублей net                                                                                                                                                                                 Требуемый опыт работы: от 1 года\nПолная занятость, дистанционно, гибкое начало рабочего дня\n \n📌Требования:\n- Нативная Android разработка (Kotlin)\n- Умение писать поддерживаемый и тестируемый код\n- Умение работать с Dagger 2\n- Умение работать с git\n- Желание развиваться и изучать новое в разработке\n- Опыт разработки приложений от 1 года\n -Знание английского языка от уровня Intermediate\n \n📌Будет плюсом:\n- Опыт работы с JNI\n- Опыт использования tensorflow\n- Опыт работы с аудио и видео\n\n📌Условия:\n- Отсутствие бюрократии\n- Время начала рабочего дня обговариваем индивидуально\n- Крутой инновационный проект - возможность самореализации и профессионального роста\n- Стабильное зарубежное финансирование\n- Десятки миллионов установок и множество глобальных партнёров\n📞Контакты @SvetikS_hr +7(963)-632-12-36 Cветлана","markup":[{"type":"hashtag","offset":0,"length":9,"data":"вакансия"},{"type":"hashtag","offset":10,"length":14,"data":"Juniorandroid"},{"type":"hashtag","offset":25,"length":8,"data":"Android"},{"type":"hashtag","offset":44,"length":7,"data":"kotlin"},{"type":"hashtag","offset":52,"length":9,"data":"удаленно"},{"type":"link","offset":184,"length":13,"data":"tel:50 000-60 000"},{"type":"handle","offset":1164,"length":11,"data":"SvetikS_hr"},{"type":"link","offset":1176,"length":17,"data":"tel:+7(963)-632-12-36"}],"date":"2020-06-24T13:25:12+00:00","link":"tg://resolve?domain=mobile_jobs&post=68615","tags":[{"name":"mobile"},{"name":"android"},{"name":"kotlin"},{"name":"dotnet"},{"name":"git"},{"name":"tensorflow"}],"cities":[],"allowsRemote":true}},{"node":{"__typename":"Job","id":"1734344704-1001091028994","title":"Java developer","text":"#java#spring#сбербанк#москва\nКомпания: Сбербанк\nПозиция: Java backend-developer (Москва)\nЗп: от 250 тыс. net + годовой бонус\n \nЗадачи:\nРазработка backend-части высоконагруженной инновационной аналитической системы на Java; разработка интеграционных сервисов и микросервисных компонентов на Java (стандарты JMS, REST API); написание Unit-тестов; рефакторинг и оптимизация кода; участие в принятии архитектурных решений и исследовательские задачи.\n\nМы ожидаем:\nОпыт коммерческой разработки на Java от 2-х лет; понимание принципов ООП; уверенное знание Java SE (желательно, Java SE 8), Collection, JDBC, Multithreading; знания и опыт использования: Spring Framework/ Boot (Spring MVC, Spring Security, SpringJDBC); опыт написания Unit-тестов (Junit, TestNG); уверенное знание SQL; опыт работы с Git, Maven.\n\nКонтакт: Екатерина (+79250716855, @katyavarlygina)","markup":[{"type":"link","offset":825,"length":12,"data":"tel:+79250716855"},{"type":"handle","offset":839,"length":15,"data":"katyavarlygina"}],"date":"2020-06-24T11:21:18+00:00","link":"tg://resolve?domain=jvmjobs&post=1654","tags":[{"name":"java"},{"name":"jvm"},{"name":"spring"},{"name":"dotnet"},{"name":"rest"},{"name":"jdbc"},{"name":"junit"},{"name":"sql"},{"name":"git"},{"name":"maven"},{"name":"spring-mvc"},{"name":"spring-security"}],"cities":[{"code":"moscow"}],"allowsRemote":false}},{"node":{"__typename":"Job","id":"108047368192-1001119539411","title":".net разработчик","text":"#вакансия #fulltime #офис #remote \n\nЛокация: Казань, ст. м. Козья Слобода; Иннополис;\nФормат работы: офис или remote, фуллтайм \nЗанятость: полная, гибкое начало дня\nЗП: до 160 000 Net \n\n🚀Компания Ак Барс Цифровые Технологии запускает новый большой проект по трансформации архитектуры розничного бизнеса (физические лица) и переезд всех процессов на новую технологическую платформу. В рамках проекта будет сформировано 8 команд, занимающихся разными задачами по платежным решениям, каталогам продуктов, работой с электронными досье клиента, операционному обслуживанию и др.\n\nВ связи с чем компания в поисках Middle .Net разработчиков с коммерческим опытом работы от 2 лет. \n\nСтек технологий: C#, ASP.NET MVC / Core, Web API, MS SQLServer / PostgreSql, Entity Framework, JS /React, RabbitMQ\n\n✅Ребята ищут специалиста с опытом разработки веб-платформ, которому знаком .NET, ASP.NET Core, MS SQL Server. Команды гибко рассматривают кандидатов, готовы обучать и делиться опытом. \n\n✅АК Барс Цифровые технологии предлагают отличные условия:\n- официальное оформление и полностью белую зп;\n- гибкий график работы, позитивная атмосфера, дружный молодой коллектив;\n- возможность работать удаленно или в комфортном офисе в Казани;\n- помощь с релокацией, если вы из другого города; \n- возможность быстро «прокачаться» в скиллах на интересных проектах и другие приятные плюшки и бонусы.\n\nКонтакты:\ne-mail: valeriya@luckyhunter.io\ntelegram: @sobolevavalery\nБуду рада ответить на все вопросы и комментарии! 😊","markup":[{"type":"hashtag","offset":0,"length":9,"data":"вакансия"},{"type":"hashtag","offset":10,"length":9,"data":"fulltime"},{"type":"hashtag","offset":20,"length":5,"data":"офис"},{"type":"hashtag","offset":26,"length":7,"data":"remote"},{"type":"bold","offset":675,"length":15,"data":""},{"type":"link","offset":696,"length":7,"data":"http://ASP.NET"},{"type":"link","offset":872,"length":7,"data":"http://ASP.NET"},{"type":"link","offset":1393,"length":23,"data":"mailto:valeriya@luckyhunter.io"},{"type":"handle","offset":1427,"length":15,"data":"sobolevavalery"}],"date":"2020-06-24T10:23:42+00:00","link":"tg://resolve?domain=microsoftstackjobs&post=103042","tags":[{"name":"dotnet"},{"name":"csharp"},{"name":"web"},{"name":"sql-server"},{"name":"postgresql"},{"name":"reactjs"},{"name":"rabbitmq"},{"name":"sql"},{"name":"asp-net"},{"name":"entity-framework"},{"name":"net-core"},{"name":"asp-net-mvc"},{"name":"asp-net-core"}],"cities":[{"code":"kazan"}],"allowsRemote":true}},{"node":{"__typename":"Job","id":"17127440384-1001110946746","title":"Js developer","text":"#вакансия #js #extjs #frontend\nГород: Москва (М. Киевская)\nФормат работы: удаленная работа\nЗанятость: полная\nЗ.п.: 90 - 150 т.р. net\n\nFrontend developer Doczilla\nСкиллы: JavaScript, HTML5, CSS3 (будет плюсом: C/С++/Java).\n\nПроект Doczilla Pro - платформа для подготовки документов и совместной работы с ними.\n- Клиентская часть разрабатывается на \"чистом\" JavaScript без использования сторонних фреймворков. \n- Подход к разработке клиентской части похож на фреймворк Sencha ExtJS с его объектно-ориентированным стилем описания JavaScript-классов, однако избавлен от всего лишнего.\n- Серверная часть Doczilla Pro разрабатывается на Java, использование сторонних библиотек минимально.\n- Для решения задач интеграции с внешними сервисами применяется язык программирования BL из состава фреймворка Z8 (https://github.com/zenframework/z8).\n- Для понимания специфики проекта мы предлагаем выполнить тестовое задание.\n\nИнтереснейший и очень перспективный проект от команды профессиональных юристов. Присоединяйся!\n\nНазвание компании: Лекс Борелис\nLexborealis.com\nDoczilla.ru\n\nСтрельченко Дмитрий \n+7-960-869-03-03\nstrelchenko@doczilla.ru \ntelegram @d_strelchenko","markup":[{"type":"hashtag","offset":0,"length":9,"data":"вакансия"},{"type":"hashtag","offset":10,"length":3,"data":"js"},{"type":"hashtag","offset":14,"length":6,"data":"extjs"},{"type":"hashtag","offset":21,"length":9,"data":"frontend"},{"type":"link","offset":798,"length":34,"data":"https://github.com/zenframework/z8"},{"type":"link","offset":1040,"length":15,"data":"http://Lexborealis.com"},{"type":"link","offset":1056,"length":11,"data":"http://Doczilla.ru"},{"type":"link","offset":1090,"length":16,"data":"tel:+7-960-869-03-03"},{"type":"link","offset":1107,"length":23,"data":"mailto:strelchenko@doczilla.ru"},{"type":"handle","offset":1141,"length":14,"data":"d_strelchenko"}],"date":"2020-06-24T09:54:00+00:00","link":"tg://resolve?domain=javascript_jobs_feed&post=16334","tags":[{"name":"javascript"},{"name":"extjs"},{"name":"dotnet"},{"name":"html"},{"name":"css"},{"name":"java"},{"name":"github"}],"cities":[{"code":"moscow"},{"code":"kiev"}],"allowsRemote":true}},{"node":{"__typename":"Job","id":"17123246080-1001110946746","title":"Js разработчик","text":"#вакансия #работа #удаленка #backend #node #nodejs #remote\nГород и адрес офиса: Москва, Савеловская\nФормат работы: удаленка\nЗанятость: полная || проектная\nЗарплатная вилка: 100-160 т.р.\n\nОписание вакансии: \nИщем опытного backend-разработчика node.js для разработки высоконадежных транзакционных сервисов интеграции с различными системами\n\nТребования:\n• Опыт работы с унаследованными системами\n• Знание PHP на уровне понимания и чтения кода будет плюсом\n• Знание и понимание работы сетевых протоколов TCP/IP, HTTP, SMTP, IMAP\n• Знание и понимание языка JavaScript и связанных с ним технологий и фреймворков\n• Опыт разработки серверных приложений\n• Понимание основных процессов разработки, умение работать в команде\n• Понимание принципов ООП, подходов в программировании и требований к транзакционным системам\n\nЗадачи:\n• Разработка высоконадежных транзакционных сервисов интеграции с различными системами\n• Поддержка и модернизация существующих систем\n\nНазвание компании: TechPlatforms (https://techpl.net)\nКонтакты:@desych79","markup":[{"type":"hashtag","offset":0,"length":9,"data":"вакансия"},{"type":"hashtag","offset":10,"length":7,"data":"работа"},{"type":"hashtag","offset":18,"length":9,"data":"удаленка"},{"type":"hashtag","offset":28,"length":8,"data":"backend"},{"type":"hashtag","offset":37,"length":5,"data":"node"},{"type":"hashtag","offset":43,"length":7,"data":"nodejs"},{"type":"hashtag","offset":51,"length":7,"data":"remote"},{"type":"link","offset":985,"length":18,"data":"https://techpl.net"},{"type":"handle","offset":1014,"length":9,"data":"desych79"}],"date":"2020-06-24T09:11:21+00:00","link":"tg://resolve?domain=javascript_jobs_feed&post=16330","tags":[{"name":"javascript"},{"name":"nodejs"},{"name":"php"},{"name":"smtp"},{"name":"dotnet"}],"cities":[{"code":"moscow"}],"allowsRemote":true}},{"node":{"__typename":"Job","id":"1731198976-1001091028994","title":"Java разработчик","text":"#вакансия  #офис #удаленка #регионы #Москва #Java #Spring #senior #middle #backend\nЛокация: #регион #Москва\nФормат работы: #офис #fulltime #удаленка\nЗ/п: 150-250 NET\nКомпания: МД-IT\nВедущий разработчик/Разработчик JAVA  \nВсем привет!\n\n✅Нужны классные разработчики Java уровня Middle, Senior, Lead\n\n👉Немного о нас: \nЦентр разработки МД-IT реализует проекты федерального масштаба под ключ. Наши специалисты работают с крупнейшими системными интеграторами, выполняя задачи по проектированию, разработке, тестированию, сопровождению и эксплуатации внедренных решений. \nНаши офисы расположены в Москве, Ростове-на –Дону, Нижнем Новгороде. \n\n👉Что ждем от Вас:\n* Уверенные знания java 8+, spring boot, будет плюсом знание Kotlin. \n Глубокие знания и практический опыт использования Java в нагруженных многопоточных приложениях Hibernate, Spring, Maven3, ХML\n\n* Опыт проектирования версионнированных REST-API, знание grpc будет плюсом\n\n* Понимание принципов асинхронного программирования, знание одного из: netty, nio, r2dbc\n\n* Желателен опыт использования библиотек реактивного программирования (rxjava, reactor) или опыт работы с vert.x, ratpack или http4\n\n*Приветствуется опыт работы с современными архитектурами, Apache Ignite, Apache Kafka\n\n👉Что мы можем предложить Вам:\n\n* Работа: удаленка\n\n*График работы 5/2, команда работает с 9(10) до 18(19) ч. по МСК\n\n*Заработную плату белую, конкурентоспособную (рассмотрим ваши предложения).\n\n* Работа в команде сообразительных, открытых, стремящихся к развитию единомышленников.\n\n* Крупные и долгосрочные проекты, увеличивающие профессиональный кругозор и опыт работы. \n* Плюшки к чаю и кофе, оплачиваемая мобильная связь, оплачиваемые тренинги и курсы для повышения квалификации. \n\n🖍 Вопросы, резюме прошу писать в личку Елене @Elenazlh","markup":[{"type":"hashtag","offset":0,"length":9,"data":"вакансия"},{"type":"hashtag","offset":11,"length":5,"data":"офис"},{"type":"hashtag","offset":17,"length":9,"data":"удаленка"},{"type":"hashtag","offset":27,"length":8,"data":"регионы"},{"type":"hashtag","offset":36,"length":7,"data":"Москва"},{"type":"hashtag","offset":44,"length":5,"data":"Java"},{"type":"hashtag","offset":50,"length":7,"data":"Spring"},{"type":"hashtag","offset":58,"length":7,"data":"senior"},{"type":"hashtag","offset":66,"length":7,"data":"middle"},{"type":"hashtag","offset":74,"length":8,"data":"backend"},{"type":"hashtag","offset":92,"length":7,"data":"регион"},{"type":"hashtag","offset":100,"length":7,"data":"Москва"},{"type":"hashtag","offset":123,"length":5,"data":"офис"},{"type":"hashtag","offset":129,"length":9,"data":"fulltime"},{"type":"hashtag","offset":139,"length":9,"data":"удаленка"},{"type":"handle","offset":1772,"length":9,"data":"Elenazlh"}],"date":"2020-06-24T08:41:15+00:00","link":"tg://resolve?domain=jvmjobs&post=1651","tags":[{"name":"java"},{"name":"jvm"},{"name":"spring"},{"name":"dotnet"},{"name":"kotlin"},{"name":"hibernate"},{"name":"maven"},{"name":"rest"},{"name":"apache"},{"name":"kafka"},{"name":"spring-boot"}],"cities":[{"code":"moscow"}],"allowsRemote":true}},{"node":{"__typename":"Job","id":"71900856320-1001054966032","title":"Android разработчик","text":"#Android #Java #Kotlin #вакансия \n#НижнийНовгород #Ижевск #Владимир #Белгород \nВакансия: Android разработчик . Готовы принят в штат команды мобильной разработки. Локация: Нижний Новгород, Ижевск, Владимир или Белгород.\nРассмотрим кандидатов из любого из перечисленных регионов или готовых переехать туда.\nКомпания: разработчик ИТ, продукты \"под заказ\", 90% приложений для банковской сферы.\nФормат работы: Office/remote Занятость: Full-time Зарплатная вилка: 90.000-180.000 net (по итогам собеседования, есть индексация и рост з\\п)\n🏢Адреса офисов в указанных городах:г. Н.Новгород, ул.Керченская, д.13;\nг. Владимир, ул.Горького, д.56а, г. Ижевск, ул. Вадима Сивкова.д.290 и г.Белгород (возможен формат домашнего офиса или аренды офиса в доступности от кандидата).\n☕️Формат работы: офис,начало-конец рабочего дня гибкие,по договоренности,официальное оформление. Удаленный вариант есть,но для указанных регионов.\n🔆Занятость: полный день\n📋Описание вакансии: ищу с опытом программирования на Java и/или Kotlin.\n😍Гибкий подход к каждому специалисту, корпоративный английский; стремительно растущая компания;меняем жизнь к лучшему при помощи технологий IT;оплачиваемые конференции и внутренние тренинги/курсы;ежегодный пересмотр заработной платы по результатам работы. @ElenaTsatsenko","markup":[{"type":"hashtag","offset":0,"length":8,"data":"Android"},{"type":"hashtag","offset":9,"length":5,"data":"Java"},{"type":"hashtag","offset":15,"length":7,"data":"Kotlin"},{"type":"hashtag","offset":23,"length":9,"data":"вакансия"},{"type":"hashtag","offset":34,"length":15,"data":"НижнийНовгород"},{"type":"hashtag","offset":50,"length":7,"data":"Ижевск"},{"type":"hashtag","offset":58,"length":9,"data":"Владимир"},{"type":"hashtag","offset":68,"length":9,"data":"Белгород"},{"type":"handle","offset":1266,"length":15,"data":"ElenaTsatsenko"}],"date":"2020-06-23T20:07:25+00:00","link":"tg://resolve?domain=mobile_jobs&post=68570","tags":[{"name":"mobile"},{"name":"android"},{"name":"java"},{"name":"kotlin"},{"name":"dotnet"}],"cities":[{"code":"izhevsk"},{"code":"vladimir"},{"code":"belgorod"},{"code":"nizhny-novgorod"}],"allowsRemote":true}},{"node":{"__typename":"Job","id":"2248146944-1001134745498","title":"Devops engineer","text":"#вакансия #офис #Москва\nДолжность: Devops Engineer\nКомпания: Selecty IT – компания интегратор\nГород и адрес офиса: Москва, м.Технопарк\nФормат работы: офис\nЗанятость: постоянная\nЗарплатная вилка: от 200 000 до 300 000 net по итогам собеседования\n\n▪️Чем предстоит заниматься \n• Разработка и поддержка программно-определяемой инфраструктуры хранилищ данных,\n• Развертывание и непрерывная бесперебойная эксплуатация\n• Решение инцидентов в тестовых и промышленных средах\n• Проведение регламентных и профилактических работ\n\n▪️Наши пожелания к кандидатам:\n• Знание Linux на уровне администратора \n• Навыки использования инструментов управления конфигурациями\n• Владение скриптовыми языками программирования, aCI/CD инструментами\n• Понимание принципов и особенностей работы Kafka, Hazelcast, Infinispan, Elasticsearch, Mongodb, Minio\n• Знание Docker\n• Понимание Java, Python, JS\n• Создавать, развертывать, обновлять, оптимизировать и сопровождать отказоустойчивые кластеры различных БД и инфраструктурных элементов\n• Настраивать системы мониторинга и алертинга\n• Развивать практики инцидент-менеджмента и хаос-инжениринга\n\n▪️Контакты для связи: igor.bekbuzarov@selecty.ru ,+7 (999) 826-43-02, @IgorBekB\nБекбузаров Игорь\n\n—\n\n👉 Обсуждение вакансии в чате @devops_jobs","markup":[{"type":"hashtag","offset":0,"length":9,"data":"вакансия"},{"type":"hashtag","offset":10,"length":5,"data":"офис"},{"type":"hashtag","offset":16,"length":7,"data":"Москва"},{"type":"link","offset":1137,"length":26,"data":"mailto:igor.bekbuzarov@selecty.ru"},{"type":"link","offset":1165,"length":18,"data":"tel:+7 (999) 826-43-02"},{"type":"handle","offset":1185,"length":9,"data":"IgorBekB"},{"type":"handle","offset":1246,"length":12,"data":"devops_jobs"}],"date":"2020-06-23T16:21:30+00:00","link":"tg://resolve?domain=devops_jobs_feed&post=2144","tags":[{"name":"dotnet"},{"name":"linux"},{"name":"kafka"},{"name":"elasticsearch"},{"name":"mongodb"},{"name":"docker"},{"name":"java"},{"name":"python"}],"cities":[{"code":"moscow"}],"allowsRemote":false}},{"node":{"__typename":"Job","id":"1730150400-1001091028994","title":"Java разработчик","text":"#вакансия #москва #офис #fulltime #clojure \nИщу разработчика, желающего переехать на Clojure или уже имеет опыт с ним.\n\nПроект - saas платформа для digital маркетинга. Собираем и обрабатываем большие данные о покупателях всего крупного e-commerce. \n\nУ нас:\n- Clojure, FP;\n- Kafka, Spark;\n- Docker, Docker Compose, Terraform, Kubernetes, AWS;\n- Highload (15k - 20k rps), терабайты данных;\n- Postgresql, Vertica, DynamoDB, Redis, Tarantool, Memcached, Clickhouse.\n\nУ вас:\n- Опыт в промышленном программировании (Java, Scala, Python, Ruby, Clojure, etc) от 2-х лет; \n- Опыт в высоконагруженных проектах с микросервисной архитектурой;\n- Любовь к FP.\n\nУсловия:\n- Москва, офис м.Тверская, фуллтайм;\n- Белая з/п до 300к net;\n- ДМС, хороший офис и техника;\n\nЗа подробностями —-> @nat_kirisova","markup":[{"type":"hashtag","offset":0,"length":9,"data":"вакансия"},{"type":"hashtag","offset":10,"length":7,"data":"москва"},{"type":"hashtag","offset":18,"length":5,"data":"офис"},{"type":"hashtag","offset":24,"length":9,"data":"fulltime"},{"type":"hashtag","offset":34,"length":8,"data":"clojure"},{"type":"handle","offset":771,"length":13,"data":"nat_kirisova"}],"date":"2020-06-23T15:25:30+00:00","link":"tg://resolve?domain=jvmjobs&post=1650","tags":[{"name":"java"},{"name":"jvm"},{"name":"clojure"},{"name":"kafka"},{"name":"docker"},{"name":"kubernetes"},{"name":"amazon-web-services"},{"name":"postgresql"},{"name":"dynamodb"},{"name":"redis"},{"name":"scala"},{"name":"python"},{"name":"ruby"},{"name":"dotnet"},{"name":"docker-compose"}],"cities":[{"code":"moscow"}],"allowsRemote":false}}]}}},"context":{}}