{"hash":"f34fd2c444a074f4e0e67d525015a008ef8e766f","data":{"records":{"id":"rabbitmq","name":"rabbitmq","belongsTo":{"totalCount":55,"pageInfo":{"totalPages":6,"currentPage":4},"edges":[{"node":{"__typename":"Job","id":"1927282688-1001134745498","title":"Devops инженер","text":"#вакансия #DevOps #новосибирск \n\nГород: Новосибирск - на выбор два офиса - Академгородок или центр города (метро пл.Ленина)\nФормат работы: офис\nЗанятость: полная\nЗарплатная вилка: от 120 до 180 на руки (готовы смотреть выше) \n\nPushwoosh – глобальный хайлоад продукт для разработчиков и владельцев мобильных приложений и сайтов. Мы предоставляем решения для отправки пуш-уведомлений как стартапам, так и компаниям с многомиллионными аудиториями, и обрабатываем более двух миллиардов API-запросов ежедневно. \n\nЗадачи:\nподготавливать и поддерживать K8s-кластер, мониторинг (Prometheus), ansible, storage(CEPH), databases(mongodb, postgresql), очереди/in-mem(redis, kafka, rabbit). \nВсё до момента консампшена командой разработки. \n\nТребования:\n- Advanced Linux user (в идеале CentOS и RHEL);\n- Любой скриптовый язык (bash, python, etc...)\n- Хорошо знать хотя бы одну систему управления конфигами (у нас Ansible, но будем смотреть и людей с puppet, chef, terraform, etc.) \n\nРабота в офисе, не удаленка\nБелые, ДМС, фитнес, английский, курсы и т.д.  \n\nКонтакты: @glad2seeyou\n\n—\n\n👉 Обсуждение вакансии в чате @devops_jobs","markup":[{"type":"hashtag","offset":0,"length":9,"data":"вакансия"},{"type":"hashtag","offset":10,"length":7,"data":"DevOps"},{"type":"hashtag","offset":18,"length":12,"data":"новосибирск"},{"type":"handle","offset":1056,"length":12,"data":"glad2seeyou"},{"type":"handle","offset":1103,"length":12,"data":"devops_jobs"}],"date":"2020-03-23T07:48:51+00:00","link":"tg://resolve?domain=devops_jobs_feed&post=1838","tags":[{"name":"ansible"},{"name":"mongodb"},{"name":"postgresql"},{"name":"redis"},{"name":"kafka"},{"name":"rabbitmq"},{"name":"linux"},{"name":"centos"},{"name":"bash"},{"name":"python"}],"cities":[{"code":"novosibirsk"}],"allowsRemote":true}},{"node":{"__typename":"Job","id":"1913651200-1001134745498","title":"Devops инженер","text":"#вакансия #DevOps\nМосква, м.Ботанический сад\nФормат работы: офис\nЗанятость: полная\nЗаработная плата: 180 000р. на руки - фиксированный оклад\n(в планах со 2/3 квартала - квартальные премии по итогам работы до 45 000р. на руки) \nЧто делать:\n- Разработка и поддержка инфраструктуры для dev/test/prod (On-Cloud и On-Premise);\n- Разработка и поддержка процессов CI/CD;\n- Выбор технологий для реализации проектов;\n- Разработка и поддержка систем мониторинга, регистрации инцидентов и оповещения;\n- Организация бесперебойной работы всех сервисов (на всех уровнях: от инфраструктуры до разрабатываемого ПО);\n- Развертывание и поддержка общей инфраструктуры (nginx, haproxy, dns, iptables, ssh, sssd & etc).\nЧто нужно знать и уметь:\n- Экспертное понимание Linux (Ubuntu/CentOS7);\n- Знание скриптовых языков;\n- Опыт работы с технологиями виртуализации (VMware) и контейнеризации (Docker);\n- Опыт развёртывания и эксплуатации CI/CD (GitLab-CI, Jenkins);\n- Навыки работы и администрирования GitLab, Jira, Confluence;\n- Опыт внедрения и эксплуатации систем мониторинга и сбора метрик (ELK, Prometheus, Grafana, Sentry);\n- Опыт развёртывания и эксплуатации Redis, MySQL, RabbitMQ, HAProxy, nginx, PostgreSQL, php-fpm);\n- Интеграция Jenkins, Jira, GitLab. \nКомпания: АСНА (www.asna.ru)\nКонтакты: 8(965)194-28-96 (WhatsApp), @mil0lika (Telegram)\n\n—\n\n👉 Обсуждение вакансии в чате @devops_jobs","markup":[{"type":"hashtag","offset":0,"length":9,"data":"вакансия"},{"type":"hashtag","offset":10,"length":7,"data":"DevOps"},{"type":"link","offset":1258,"length":11,"data":"http://www.asna.ru"},{"type":"link","offset":1281,"length":15,"data":"tel:8(965)194-28-96"},{"type":"handle","offset":1309,"length":9,"data":"mil0lika"},{"type":"handle","offset":1364,"length":12,"data":"devops_jobs"}],"date":"2020-03-18T10:52:54+00:00","link":"tg://resolve?domain=devops_jobs_feed&post=1825","tags":[{"name":"cloud"},{"name":"nginx"},{"name":"dns"},{"name":"ssh"},{"name":"linux"},{"name":"ubuntu"},{"name":"centos"},{"name":"docker"},{"name":"gitlab"},{"name":"jenkins"},{"name":"redis"},{"name":"mysql"},{"name":"rabbitmq"},{"name":"postgresql"},{"name":"php"}],"cities":[{"code":"moscow"}],"allowsRemote":false}},{"node":{"__typename":"Job","id":"1909456896-1001134745498","title":"Devops инженер","text":"Всем привет\nПопробуем снова)\n\n#вакансия\nМосква, Бауманская\nРабота в офисе (Классный, современный)\nПолная занятость\nот 150.000 (На руки, после налогов) до 170.000\nМы ищем крутого DevOps в нашу команду. HomeApp быстро растёт, и нам необходим человек, который будет следить за тем, чтобы всё не рухнуло в один момент. \n\nМы ожидаем, что ты:\n\nумеешь администрировать linux-системы;\nзнаешь как работают облачные системы;\nхорошо разбираешься в Docker и Kubernetes;\nзнаком с Google Cloud;\nзнаешь как разграничивать права доступа к инфраструктуре для разных ролей в системе;\nпонимаешь как настраивать интеграцию Jira/GitHub/Teamcity и других частей CI/CD;\nзнаешь Python, GO или PHP на базовом уровне;\nможешь развернуть VPN для доступа ко внутренним сервисам;\nхорошо разбираешься в настройке PostgreSQL, RabbitMQ, nginx.\nЧто у нас внутри:\nмы пишем на PHP7 и Symfony 4;\n•  храним данные в PostgreSQL, Google Cloud Storage;\n•  используем Docker как основу для сборки релизов;\n•  запускаем релизы в Google Kubernetes Engine;\n•  пишем unit-тесты и функциональные тесты в Codeception;\n•  придерживаемся scrum;\n•  планируем задачи в Jira;\n•  держим код на GitHub;\n\n\nПодробнее можно ознакомиться здесь:\n\nhttps://career.habr.com/vacancies/1000056382\n\nHomeApp\nhomeapp.ru\n\nПисать можно в телеграмм: \n@SugarLeps\n\nИли на почту: \nEvgeniy.kozlov@homeapp.ru\n\n—\n\n👉 Обсуждение вакансии в чате @devops_jobs","markup":[{"type":"hashtag","offset":30,"length":9,"data":"вакансия"},{"type":"link","offset":1187,"length":44,"data":"https://career.habr.com/vacancies/1000056382"},{"type":"link","offset":1241,"length":10,"data":"http://homeapp.ru"},{"type":"handle","offset":1280,"length":10,"data":"SugarLeps"},{"type":"link","offset":1307,"length":25,"data":"mailto:Evgeniy.kozlov@homeapp.ru"},{"type":"handle","offset":1367,"length":12,"data":"devops_jobs"}],"date":"2020-03-16T15:00:41+00:00","link":"tg://resolve?domain=devops_jobs_feed&post=1821","tags":[{"name":"linux"},{"name":"docker"},{"name":"kubernetes"},{"name":"cloud"},{"name":"github"},{"name":"python"},{"name":"php"},{"name":"postgresql"},{"name":"rabbitmq"},{"name":"nginx"},{"name":"symfony"},{"name":"google-cloud-platform"},{"name":"google-cloud-storage"}],"cities":[{"code":"moscow"}],"allowsRemote":false}},{"node":{"__typename":"Job","id":"1908408320-1001134745498","title":"Devops инженер","text":"#вакансия #Москва #Калиниград #Linux  #DevOps\n#remote #удалёнка #офис \nГород: Москва, Калиниград\nЗанятость: полная\nФормат работы: офис или удаленка\nЗарплатная вилка: от 100 000 до 150 000\nОписание вакансии:\nЧто нужно делать?\n\n-Автоматизация рутинных процессов;\n-Поддержка и развитие CI/CD\n-Настройка систем непрерывного мониторинга, сбора логов и т.д.\n-Развертывание окружений (dev, test, prod)\n-Разбор критических ситуаций, оперативное устранение выявленных неисправностей\n-Активное участие при прорабатывании новой архитектуры продукта, внедрение новейших сервисов и технологий\nТребования:\n\n-Опыт работы с Docker и (желательно) с системами оркестрации (swarm/kubernetes/openshift)\n-Опыт работы с Web-стеком PHP/NGINX/PostgreSQL\n-Опыт настройки, кластеризации rabbitMQ, PostgreSQL, ElasticSearch будет большим плюсом\n-Опыт работы с SCM (Ansible, Puppet) будет большим плюсом\n-Опыт работы с continuous integration, build&release management\n-Знание систем контроля версий. У нас Git (Gitlab)\n-Scripting (PowerShell, bash/python)\nНазвание компании: Cognitive Technologies \nКонтакты:  @codefather_ru можно в https://kaliningrad.hh.ru/vacancy/36234203\nhttps://kaliningrad.hh.ru/vacancy/36234204\n\n—\n\n👉 Обсуждение вакансии в чате @devops_jobs","markup":[{"type":"hashtag","offset":0,"length":9,"data":"вакансия"},{"type":"hashtag","offset":10,"length":7,"data":"Москва"},{"type":"hashtag","offset":18,"length":11,"data":"Калиниград"},{"type":"hashtag","offset":30,"length":6,"data":"Linux"},{"type":"hashtag","offset":38,"length":7,"data":"DevOps"},{"type":"hashtag","offset":46,"length":7,"data":"remote"},{"type":"hashtag","offset":54,"length":9,"data":"удалёнка"},{"type":"hashtag","offset":64,"length":5,"data":"офис"},{"type":"handle","offset":1082,"length":14,"data":"codefather_ru"},{"type":"link","offset":1105,"length":42,"data":"https://kaliningrad.hh.ru/vacancy/36234203"},{"type":"link","offset":1148,"length":42,"data":"https://kaliningrad.hh.ru/vacancy/36234204"},{"type":"handle","offset":1225,"length":12,"data":"devops_jobs"}],"date":"2020-03-16T14:58:57+00:00","link":"tg://resolve?domain=devops_jobs_feed&post=1820","tags":[{"name":"linux"},{"name":"docker"},{"name":"kubernetes"},{"name":"web"},{"name":"php"},{"name":"nginx"},{"name":"postgresql"},{"name":"rabbitmq"},{"name":"elasticsearch"},{"name":"ansible"},{"name":"git"},{"name":"gitlab"},{"name":"powershell"},{"name":"bash"},{"name":"python"},{"name":"continuous-integration"}],"cities":[{"code":"moscow"},{"code":"kaliningrad"}],"allowsRemote":true}},{"node":{"__typename":"Job","id":"1897922560-1001134745498","title":"Devops инженер","text":"#вакансия #DevOps #Москва \n\nЛокация: Москва, ст. м. Дмитровская\nФормат работы: офис \nЗанятость: полная\nЗарплатная вилка: от 180 000 до 250 000 руб. на руки.\n\nМы — команда эксплуатации сервиса ivi .\n\nРазыскиваем коллегу в команду для участия в настройке процессов, технических (CI/CD) и в части взаимодействия с коллегами. \nАктивное участие в разворачивании и эксплуатации k8s. Помогаем командам разработки строить CI/CD-пайплайны . Некоторые из нас это делают в составе кросс-команд, другие помогают многим командам, оставшиеся обеспечивают всех нас необходимыми приложениями и инфраструктурой.\n\nУчим команды использовать контейнеры (docker) для подготовки разрабатываемых приложений, осваиваем использование k8s для оркестрации. Используем Ubuntu, Linux.\n\nХраним код и разрабатываем pipeline-ы с помощью gitlab+artifactory .\nДля мониторинга серверов и сервисов используем zabbix и statsd , заправляем grafana.\nНаши сервисы написаны на python, golang и немного php и java.\nЛюбим и активно используем jenkins для решения самых разнообразных задач.\nИспользуем много open source (и не только) приложений: nginx, redis, postgresql, mongodb, rabbitmq, clickhouse, openstack, gitlab, kafka, hdfs, jira , opennebula.\n\nЧто предстоит делать: \n- развитие и настройки процессов ci/cd;\n- планирование и участие в рефакторинге процессов, инфраструктуры, приложений;\n- сопровождение сервисов от разработки до эксплуатации, участие в эксплуатации;\n- доработка текущих и разработка новых сценариев конфигурирования серверов и приложений; \n- администрирование приложений по результатам выполненной работы подготовка документации, если необходимо. \n\nКак узнать что ты нам подходишь? \n- положительный и продолжительный опыт работы с CI/CD-системами (у нас gitlab и jenkins);\n- умение хорошо готовить docker; \n- опыт программирования на скриптовых языках (shell, python);\nопыт администрирования linux и приложение 5+;\n- понимание сетевых технологий TCP/IP; \n- опыт работы с системами управления версиями (git) и конфигурациями. \n\nСо своей стороны мы обещаем: \n1. Подписку на ivi;\n2. Трудоустройство по ТК РФ;\n3. ДМС после прохождения испытательного срока;\n4. Футбольная команда ivi.ru принимает новых игроков;\n5. Обучение и митапы внутри компании, а также профессиональные курсы, тренинги и участие в конференциях;\n6. Оснащенный зонами отдыха, кухнями и прочими необходимыми вещами для комфортного нахождения офис в 5 минутах от ст. м. Дмитровская. \n\nОнлайн-кинотеатр ivi \nhttps://www.ivi.tv/\n\nБуду рада рассказать подробности, пишите в личку @daria144 или на почту dsereda@ivi.ru\n\n—\n\n👉 Обсуждение вакансии в чате @devops_jobs","markup":[{"type":"hashtag","offset":0,"length":9,"data":"вакансия"},{"type":"hashtag","offset":10,"length":7,"data":"DevOps"},{"type":"hashtag","offset":18,"length":7,"data":"Москва"},{"type":"link","offset":2158,"length":6,"data":"http://ivi.ru"},{"type":"link","offset":2453,"length":19,"data":"https://www.ivi.tv/"},{"type":"handle","offset":2523,"length":9,"data":"daria144"},{"type":"link","offset":2546,"length":14,"data":"mailto:dsereda@ivi.ru"},{"type":"handle","offset":2595,"length":12,"data":"devops_jobs"}],"date":"2020-03-13T10:36:50+00:00","link":"tg://resolve?domain=devops_jobs_feed&post=1810","tags":[{"name":"docker"},{"name":"ubuntu"},{"name":"linux"},{"name":"gitlab"},{"name":"python"},{"name":"go"},{"name":"php"},{"name":"java"},{"name":"jenkins"},{"name":"nginx"},{"name":"redis"},{"name":"postgresql"},{"name":"mongodb"},{"name":"rabbitmq"},{"name":"kafka"},{"name":"hdfs"},{"name":"shell"},{"name":"git"}],"cities":[{"code":"moscow"}],"allowsRemote":false}},{"node":{"__typename":"Job","id":"1896873984-1001134745498","title":"Devops инженер","text":"#вакансия #DevOps\nМосква, м.Ботанический сад\nФормат работы: офис\nЗанятость: полная\nЗаработная плата: 180 000р. на руки - фиксированный оклад\n(в планах со 2/3 квартала - квартальные премии по итогам работы до 45 000р. на руки) \nЧто делать:\n- Разработка и поддержка инфраструктуры для dev/test/prod (On-Cloud и On-Premise);\n- Разработка и поддержка процессов CI/CD;\n- Выбор технологий для реализации проектов;\n- Разработка и поддержка систем мониторинга, регистрации инцидентов и оповещения;\n- Организация бесперебойной работы всех сервисов (на всех уровнях: от инфраструктуры до разрабатываемого ПО);\n- Развертывание и поддержка общей инфраструктуры (nginx, haproxy, dns, iptables, ssh, sssd & etc).\nЧто нужно знать и уметь:\n- Экспертное понимание Linux (Ubuntu/CentOS7);\n- Знание скриптовых языков;\n- Опыт работы с технологиями виртуализации (VMware) и контейнеризации (Docker);\n- Опыт развёртывания и эксплуатации CI/CD (GitLab-CI, Jenkins);\n- Навыки работы и администрирования GitLab, Jira, Confluence;\n- Опыт внедрения и эксплуатации систем мониторинга и сбора метрик (ELK, Prometheus, Grafana, Sentry);\n- Опыт развёртывания и эксплуатации Redis, MySQL, RabbitMQ, HAProxy, nginx, PostgreSQL, php-fpm);\n- Интеграция Jenkins, Jira, GitLab. \nКомпания: АСНА (www.asna.ru)\nКонтакты: 8(965)194-28-96 (WhatsApp), @mil0lika (Telegram)\n\n—\n\n👉 Обсуждение вакансии в чате @devops_jobs","markup":[{"type":"hashtag","offset":0,"length":9,"data":"вакансия"},{"type":"hashtag","offset":10,"length":7,"data":"DevOps"},{"type":"link","offset":1258,"length":11,"data":"http://www.asna.ru"},{"type":"link","offset":1281,"length":15,"data":"tel:8(965)194-28-96"},{"type":"handle","offset":1309,"length":9,"data":"mil0lika"},{"type":"handle","offset":1364,"length":12,"data":"devops_jobs"}],"date":"2020-03-13T09:43:31+00:00","link":"tg://resolve?domain=devops_jobs_feed&post=1809","tags":[{"name":"cloud"},{"name":"nginx"},{"name":"dns"},{"name":"ssh"},{"name":"linux"},{"name":"ubuntu"},{"name":"centos"},{"name":"docker"},{"name":"gitlab"},{"name":"jenkins"},{"name":"redis"},{"name":"mysql"},{"name":"rabbitmq"},{"name":"postgresql"},{"name":"php"}],"cities":[{"code":"moscow"}],"allowsRemote":false}},{"node":{"__typename":"Job","id":"1885339648-1001134745498","title":"Devops инженер","text":"#вакансия #DevOps\nМосква, м.Ботанический сад\nФормат работы: офис\nЗанятость: полная\nЗаработная плата: 180 000р. на руки - фиксированный оклад\n(в планах со 2/3 квартала - квартальные премии по итогам работы до 45 000р. на руки) \nЧто делать:\n- Разработка и поддержка инфраструктуры для dev/test/prod (On-Cloud и On-Premise);\n- Разработка и поддержка процессов CI/CD;\n- Выбор технологий для реализации проектов;\n- Разработка и поддержка систем мониторинга, регистрации инцидентов и оповещения;\n- Организация бесперебойной работы всех сервисов (на всех уровнях: от инфраструктуры до разрабатываемого ПО);\n- Развертывание и поддержка общей инфраструктуры (nginx, haproxy, dns, iptables, ssh, sssd & etc).\nЧто нужно знать и уметь:\n- Экспертное понимание Linux (Ubuntu/CentOS7);\n- Знание скриптовых языков;\n- Опыт работы с технологиями виртуализации (VMware) и контейнеризации (Docker);\n- Опыт развёртывания и эксплуатации CI/CD (GitLab-CI, Jenkins);\n- Навыки работы и администрирования GitLab, Jira, Confluence;\n- Опыт внедрения и эксплуатации систем мониторинга и сбора метрик (ELK, Prometheus, Grafana, Sentry);\n- Опыт развёртывания и эксплуатации Redis, MySQL, RabbitMQ, HAProxy, nginx, PostgreSQL, php-fpm);\n- Интеграция Jenkins, Jira, GitLab. \nКомпания: АСНА (www.asna.ru)\nКонтакты: 8(965)194-28-96 (WhatsApp), @mil0lika (Telegram)\n\n—\n\n👉 Обсуждение вакансии в чате @devops_jobs","markup":[{"type":"hashtag","offset":0,"length":9,"data":"вакансия"},{"type":"hashtag","offset":10,"length":7,"data":"DevOps"},{"type":"link","offset":1258,"length":11,"data":"http://www.asna.ru"},{"type":"link","offset":1281,"length":15,"data":"tel:8(965)194-28-96"},{"type":"handle","offset":1309,"length":9,"data":"mil0lika"},{"type":"handle","offset":1364,"length":12,"data":"devops_jobs"}],"date":"2020-03-12T07:46:45+00:00","link":"tg://resolve?domain=devops_jobs_feed&post=1798","tags":[{"name":"cloud"},{"name":"nginx"},{"name":"dns"},{"name":"ssh"},{"name":"linux"},{"name":"ubuntu"},{"name":"centos"},{"name":"docker"},{"name":"gitlab"},{"name":"jenkins"},{"name":"redis"},{"name":"mysql"},{"name":"rabbitmq"},{"name":"postgresql"},{"name":"php"}],"cities":[{"code":"moscow"}],"allowsRemote":false}},{"node":{"__typename":"Job","id":"1880096768-1001134745498","title":"Devops инженер","text":"#вакансия #НижнийНовгород\n\nАдрес: Нижний Новгород (рассматриваем так же тех, кто готов переехать, предлагаем полный релокационный пакет);\nФормат работы: Офис;\nЗарплатная вилка: 150-250 net\n\nВсем привет! В международной IT компании all.me открыта горящая вакансия \"DevOps\"!\n\nМы активно используем облачные технологии, расширяемся и ищем в команду увлеченных DevOps инженеров, готовых творить что-то новое, активно учиться и решать технические проблемы любой сложности.\n\nЗадачи:\n\nПроектирование, внедрение и сопровождение инфраструктуры программных продуктов компании\nРазработка и поддержка CI/CD\nСопровождение процесса разработки и консультация разработчиков\nКакие технологии используем:\n\nKubernetes и Helm\nTerraform и Ansible\nMongoDB, Elasticsearch, Clickhouse, PostgreSQL, Redis\nRabbitMQ, NATS, ActiveMQ\nТребования:\n\nРабота в highload-проектах от 2 лет\nОтличное знание LInux\nУверенная работа с Kubernetes\nОпыт работы с облачными провайдерами, преимущественно AWS\nВладение каким либо языком программирования: Python, Javascript, Go. Знание всех языков из этого списка будет особым плюсом.\nУсловия:\n\nМеждународная команда профессионалов\nКонкурентная заработная плата, по результатам собеседования;\nКарьерный рост, профессиональное развитие\nОтличный старт для начинающих специалистов\nУникальные мотивационные программы\nПрограмма ДМС “Премиум”\nКорпоративная онлайн-библиотека\nАктивная корпоративная жизнь\nНовейшее оборудование на выбор\nКомфортабельный офис с современным дизайном\n\nПо всем вопросам можно обращаться в личку, либо на почту Oleg.Oltybaev@all.me\n\n—\n\n👉 Обсуждение вакансии в чате @devops_jobs","markup":[{"type":"hashtag","offset":0,"length":9,"data":"вакансия"},{"type":"hashtag","offset":10,"length":15,"data":"НижнийНовгород"},{"type":"link","offset":231,"length":6,"data":"http://all.me"},{"type":"link","offset":1535,"length":20,"data":"mailto:Oleg.Oltybaev@all.me"},{"type":"handle","offset":1590,"length":12,"data":"devops_jobs"}],"date":"2020-03-11T06:58:26+00:00","link":"tg://resolve?domain=devops_jobs_feed&post=1793","tags":[{"name":"dotnet"},{"name":"kubernetes"},{"name":"ansible"},{"name":"mongodb"},{"name":"elasticsearch"},{"name":"postgresql"},{"name":"redis"},{"name":"rabbitmq"},{"name":"linux"},{"name":"amazon-web-services"},{"name":"python"},{"name":"javascript"}],"cities":[{"code":"nizhny-novgorod"}],"allowsRemote":false}},{"node":{"__typename":"Job","id":"239075328-1001352129329","title":"Golang разработчик","text":"#вакансия #office #golang #fulltime \nВакансия: Golang разработчик\nФормат работы: fulltime, офис\nМесто работы: Москва, м. Сухаревская\nПродукт: маркетплейс \nЗП: от 180 000 до 200 000 рублей.\nТребования: опыт программирования на Golang от 1 года\nСтек: Golang, NodeJS, Redis, RabbitMQ, ElasticSearch, MongoDB, ClickHouse, GitLab, Docker, Kubernetes.\nКомпания: pharmaspace.ru\nКонтакты: @irarudakova\n\nС уважением, Ирина\n Автор @irarudakova","markup":[{"type":"hashtag","offset":0,"length":9,"data":"вакансия"},{"type":"hashtag","offset":10,"length":7,"data":"office"},{"type":"hashtag","offset":18,"length":7,"data":"golang"},{"type":"hashtag","offset":26,"length":9,"data":"fulltime"},{"type":"link","offset":356,"length":14,"data":"http://pharmaspace.ru"},{"type":"handle","offset":381,"length":12,"data":"irarudakova"},{"type":"handle","offset":421,"length":12,"data":"irarudakova"}],"date":"2020-02-25T19:44:58+00:00","link":"tg://resolve?domain=gogetajobfeed&post=228","tags":[{"name":"go"},{"name":"nodejs"},{"name":"redis"},{"name":"rabbitmq"},{"name":"elasticsearch"},{"name":"mongodb"},{"name":"gitlab"},{"name":"docker"},{"name":"kubernetes"}],"cities":[{"code":"moscow"}],"allowsRemote":false}},{"node":{"__typename":"Job","id":"654311424-1001089319619","title":"Ruby разработчик","text":"О компании:\n#вакансия #СПБ #офис #фуллтайм #ruby #middle #sinior #HighLoad #Umbrellio #работа #rubydeveloper\nКомпания Umbrellio. Специализируемся на создании собственных IT продуктов (CRM-системы, платежные шлюзы, маркетинговые инструменты). Ищем сильного спеца для усиления одной из команд. У нас большая туса Ruby разработчиков, скучно точно не будет 🙂\n\nЗарплатная вилка\nВилка: 110 - 180 т.р.\n\nТип работы\nПолный рабочий день\n\nТип занятости\nОфис\n\nОписание вакансии:\nМы делаем свою работу качественно и увлеченно. В свою команду мы хотим пригласить такого же увлеченного человека, который считает разработку своим призванием.\n\nТребования по позиции:\n- Глубокое знание фреймворка Ruby on Rails и ORM-фреймворков (Sequel, ActiveRecord);\n- Опыт решения сложных задач и оптимизаций запросов в PostgreSQL;\n- Опыт использования RabbitMQ;\n- Непонимание как жить без Git;\n- Непонимание разработки без тестов (RSpec);\n- Опыт работы с nix-системами;\n- Опыт написания JSON-API-приложений\n\nУсловия работы:\n- Работу в комфортабельном, современном офисе Санкт-Петербурга, в десяти минутах ходьбы от ст. м. \"Комендантский проспект\".\n- Выделенную зону отдыха, где есть вкусный кофе с печеньем, фрукты, пицца и возможность играть в кикер, настольные игры, PS4, а так же гитара и огромная терраса;\n- График работы 5\\2 с гибким началом рабочего дня;\n- Оформление по ТК РФ с первого рабочего дня;\n- Оплачиваемые больничные и отпуск;\n- Компенсация фитнеса 50%, после испытательного срока;\n- ДМС после полугода работы в компании;\n- Возможность не только посещения конференций и курсов, но и выступать в качестве спикера, мы проводим открытые митапы у нас в офисе;\n- Выездные корпоративные праздники и мероприятия;\n- Иногородним кандидатам окажем помощь в релокации;\n    Предоставим все необходимое для работы и поддержим все здравые начинания!\n\nКонтакты:\n@kseniya_larionova","markup":[{"type":"bold","offset":0,"length":11,"data":""},{"type":"hashtag","offset":12,"length":9,"data":"вакансия"},{"type":"hashtag","offset":22,"length":4,"data":"СПБ"},{"type":"hashtag","offset":27,"length":5,"data":"офис"},{"type":"hashtag","offset":33,"length":9,"data":"фуллтайм"},{"type":"hashtag","offset":43,"length":5,"data":"ruby"},{"type":"hashtag","offset":49,"length":7,"data":"middle"},{"type":"hashtag","offset":57,"length":7,"data":"sinior"},{"type":"hashtag","offset":65,"length":9,"data":"HighLoad"},{"type":"hashtag","offset":75,"length":10,"data":"Umbrellio"},{"type":"hashtag","offset":86,"length":7,"data":"работа"},{"type":"hashtag","offset":94,"length":14,"data":"rubydeveloper"},{"type":"bold","offset":357,"length":16,"data":""},{"type":"bold","offset":397,"length":10,"data":""},{"type":"bold","offset":429,"length":13,"data":""},{"type":"bold","offset":449,"length":18,"data":""},{"type":"bold","offset":628,"length":22,"data":""},{"type":"bold","offset":979,"length":15,"data":""},{"type":"bold","offset":1824,"length":9,"data":""},{"type":"handle","offset":1834,"length":18,"data":"kseniya_larionova"}],"date":"2020-02-25T13:20:34+00:00","link":"tg://resolve?domain=rubyjob&post=624","tags":[{"name":"ruby"},{"name":"ruby-on-rails"},{"name":"orm"},{"name":"activerecord"},{"name":"postgresql"},{"name":"rabbitmq"},{"name":"git"},{"name":"json"}],"cities":[],"allowsRemote":false}}]}}},"context":{}}