{"hash":"f5f6bf98bd95e769321482904cbbd488f77922fd","data":{"records":{"id":"mysql","name":"mysql","belongsTo":{"totalCount":78,"pageInfo":{"totalPages":8,"currentPage":7},"edges":[{"node":{"__typename":"Job","id":"16981688320-1001110946746","title":"Js разработчик","text":"#вакансия #frontend  #React #офис #remote #Спб #senior \n\nКомпания: DBeaver\nЗ/п: 180 000 - 300 000 рублей на руки \nГород и адрес офиса: г. Санкт-Петербург (м. Площадь Ленина/Новочеркасская)\nФормат работы: офис или удаленка (приоритет кандидатам из Санкт-Петербурга)\nЗанятость: полная, fulltime\n\n🌏DВeaver  - это международный open source проект, бесплатный многоплатформенный инструмент для работы с базами данных. Поддерживает все популярные базы данных: MySQL, PostgreSQL, MariaDB, SQLite, Oracle, DB2, SQL Server, Sybase, MS Access, Teradata, Firebird, Derby и т. д. Платформа интегрируется с Amazon сервисами и нацелена на облачные решения. \n\nCейчас ребята разрабатывают web решение DВeaver, первый релиз состоялся в начале года и компания активно продолжает развитие. \n\n💠Какой опыт и знания ожидают увидеть ребята:\n- опыт работы с TypeScript и React;\n- опыт участия в многокомпонентных проектах со сложной бизнес-логикой;\n- опыт проектирования и рефакторинга;\n- готовность возглавить разработку интерфейсной части продукта, принимать ключевые архитектурные решения;\n- английский язык от уровня intermediate (письменный и на уровне чтения).\n\nСтек технологий: TypeScript, React, GraphQL, MobX, RxJS, Docker. \n\n💎Что получите вы:\n- комфортный офис в БЦ Бенуа;\n- возможность частично или полностью удаленной работы; \n- официальное оформление;\n- возможность поработать над крутым международным продуктом в сплоченной команде энтузиастов;\n- профессиональные командировки и конференции в США и Европу.\n\nКонтакты:\ne-mail: valeriya@luckyhunter.io\ntelegram: @sobolevavalery\nКА: http://luckyhunter.io\nБуду рада ответить на все вопросы и рассказать подробнее о компании 😊\n\n—\n\n👉 Обсуждение вакансии в чате @javascript_jobs","markup":[{"type":"hashtag","offset":0,"length":9,"data":"вакансия"},{"type":"hashtag","offset":10,"length":9,"data":"frontend"},{"type":"hashtag","offset":21,"length":6,"data":"React"},{"type":"hashtag","offset":28,"length":5,"data":"офис"},{"type":"hashtag","offset":34,"length":7,"data":"remote"},{"type":"hashtag","offset":42,"length":4,"data":"Спб"},{"type":"hashtag","offset":47,"length":7,"data":"senior"},{"type":"link","offset":1519,"length":23,"data":"mailto:valeriya@luckyhunter.io"},{"type":"handle","offset":1553,"length":15,"data":"sobolevavalery"},{"type":"link","offset":1573,"length":21,"data":"http://luckyhunter.io"},{"type":"handle","offset":1700,"length":16,"data":"javascript_jobs"}],"date":"2020-06-16T12:56:30+00:00","link":"tg://resolve?domain=javascript_jobs_feed&post=0","tags":[{"name":"javascript"},{"name":"reactjs"},{"name":"mysql"},{"name":"postgresql"},{"name":"mariadb"},{"name":"sqlite"},{"name":"oracle"},{"name":"sql"},{"name":"ms-access"},{"name":"web"},{"name":"typescript"},{"name":"graphql"},{"name":"rxjs"},{"name":"docker"},{"name":"sql-server"}],"cities":[],"allowsRemote":true}},{"node":{"__typename":"Job","id":"2215641088-1001134745498","title":"Devops engineer","text":"#вакансия #devops #fulltime #релокация #казань #удаленка \n\nВакансия: DevOps Engineer\nКомпания: Ак Барс Цифровые Технологии.\nЛокация: Казань, возможна релокация.\nФормат работы: офис и удаленный формат.\nЗанятость: полная.\nКонтакт:@aabilova\n\nВсем привет! Мы разрабатываем цифровые продукты в сфере финтех и находимся в поисках DevOps Engineer.\n\nЗадачи:\n•Сопровождение и развитие текущей инфраструктуры проекта, поддержка тестового окружения и переноса данных между тестовыми серверами.\n•Разработка инструментов и автоматизация процессов развертывания систем, проектов и окружений, организация стабильного процесса выпуска версий продуктов.\n•Планирование архитектуры, прогноз по нагрузке.\n•Взаимодействие с разработчиками и сисадминами, координация команд по смежным областям.\n•Решение возникающих в процессе развёртывания проблем.\n\nЖелателен опыт с:\n•ОС Linux (серверные и клиентские).\n•Системы контейнеризации (мы используем RedHat OpenShift).\n•Уверенные навыки Shell-скриптинга (Bash).\n•Continious Integration (Teamcity) \\ Continious Delivery (Octopus).\n•Системы мониторинга (SCOM \\ Zabbix).\n•NoSQL СУБД (MongoDB, Redis).\n•Системы контроля версий (GIT).\n•Веб-серверы и балансировщики нагрузки (Apache \\ nginx \\ haproxy).\n•Навыки использования аналогичных по функциональности инструментов вполне допустимы, инструменты - не главное, важно понимание.\n\nБазовая экспертиза в областях:\n•ОС Windows (серверные).\n•Системы виртуализации (Vmware), системы управления (Vcenter \\ Openstack).\n•Системы управления конфигурацией (Ansible \\ Chef \\ Puppet \\ SaltStack).\n•Реляционные СУБД (SQL Server \\ Postgre \\ Mysql).\n•Agile-разработка.\n•Информационная безопасность.\n•Архитектура информационных систем.\n\nЧто предлагаем:\n•Работа в команде профессионалов из разных городов с общими интересами и разными взглядами.\n•Официальное трудоустройство, белая зарплата.\n•Программа релокации для иногородних.\n•ДМС.\n•Комфортный офис (кухня, зоны отдыха, X-box, бесплатные парковочные места, фрукты).\n•Профессиональное развитие и обучение (внутренние и внешние профильные мероприятия).\n•Физическое развитие (спортивная комната, скидки на занятия в фитнес-центре, футбол).\n•Зарплата -  вилка 100-150 тыс.руб., обсуждается индивидуально на интервью.\n\nКонтакт:@aabilova\n\n—\n\n👉 Обсуждение вакансии в чате @devops_jobs","markup":[{"type":"hashtag","offset":0,"length":9,"data":"вакансия"},{"type":"hashtag","offset":10,"length":7,"data":"devops"},{"type":"hashtag","offset":18,"length":9,"data":"fulltime"},{"type":"hashtag","offset":28,"length":10,"data":"релокация"},{"type":"hashtag","offset":39,"length":7,"data":"казань"},{"type":"hashtag","offset":47,"length":9,"data":"удаленка"},{"type":"handle","offset":228,"length":9,"data":"aabilova"},{"type":"handle","offset":2227,"length":9,"data":"aabilova"},{"type":"handle","offset":2271,"length":12,"data":"devops_jobs"}],"date":"2020-06-16T10:19:49+00:00","link":"tg://resolve?domain=devops_jobs_feed&post=2113","tags":[{"name":"linux"},{"name":"shell"},{"name":"bash"},{"name":"nosql"},{"name":"mongodb"},{"name":"redis"},{"name":"git"},{"name":"apache"},{"name":"nginx"},{"name":"windows"},{"name":"ansible"},{"name":"sql"},{"name":"mysql"},{"name":"sql-server"}],"cities":[{"code":"kazan"}],"allowsRemote":true}},{"node":{"__typename":"Job","id":"2214592512-1001134745498","title":"Devops инженер","text":"#вакансия #Remote #работаDevOps  #удаленка \n\nКомпания: IDG\nФормат работы: удаленка\nЗанятость: полная\nЗарплатная вилка: $2500 до $4000\n\n👋Всем привет. Меня зовут Гульназ. \nМы занимаемся разработкой собственных образовательных проектов, а также проектов для клиентов - технологических, финансовых и аудиторских компаний.\nСейчас мы ищем DevOps инженера в дополнение к нашей текущей DevOps-команде, который будет вместе с нами делать cross-cloud big-data/ai платформу для одного из наших крупных постоянных клиентов.\nУ нас всё в k8s. Помимо этого есть spark, несколько баз данных и еще куча всего интересного. Разворачиваем с помощью Terraform/Ansible/Helm\n\n📍Требования:\n\n- Опыт работы с AWS/Azure/GCE - от 2+ лет;\n- Опыт работы с Kubernetes - от 2+ лет\n- Опыт работы со Spark - от 1 года\n- Имеет опыт настройки и администрирования БД (Mongo, Redis, Rabbit, SQL Server, Postgres, MySQL, Elastic Search)\n- Опыт разработки на Python или других подобных языках;\n- Опыт организации процесса CI/CD (jenkins, teamcity).\n- Английский на уровне Intermediate и выше.\n\nБудет плюсом: \n\n- Опыт работы в крупных международных компаниях;\n- Опыт работы с технологиями Big Data;\n\n📌Что мы предлагаем:\n\n- Интересные задачи и возможность реализовать свой потенциал в международных проектах компании и внутренних стартапах;\n- Гибкий график (начало и конец рабочего дня согласовываются с менеджером и командой проекта)\n- Полностью удаленная работа\n- Дополнительные выплаты за профессиональные успехи\n\nКонтакт: @IDGAccount\n\n—\n\n👉 Обсуждение вакансии в чате @devops_jobs","markup":[{"type":"hashtag","offset":0,"length":9,"data":"вакансия"},{"type":"hashtag","offset":10,"length":7,"data":"Remote"},{"type":"hashtag","offset":18,"length":13,"data":"работаDevOps"},{"type":"hashtag","offset":33,"length":9,"data":"удаленка"},{"type":"handle","offset":1487,"length":11,"data":"IDGAccount"},{"type":"handle","offset":1533,"length":12,"data":"devops_jobs"}],"date":"2020-06-16T08:10:39+00:00","link":"tg://resolve?domain=devops_jobs_feed&post=2112","tags":[{"name":"cloud"},{"name":"ansible"},{"name":"amazon-web-services"},{"name":"azure"},{"name":"kubernetes"},{"name":"redis"},{"name":"rabbitmq"},{"name":"sql"},{"name":"postgresql"},{"name":"mysql"},{"name":"elasticsearch"},{"name":"python"},{"name":"jenkins"},{"name":"sql-server"}],"cities":[],"allowsRemote":true}},{"node":{"__typename":"Job","id":"2212495360-1001134745498","title":"Devops engineer","text":"#вакансия #DevOps #fulltime #москва\n\nDevOps Engineer\nГород: Москва\nФормат работы: офис \nЗанятость: полная\nЗП вилка 160-250 тысяч\n\ninDriver - международный ride-hailing сервис:\n* 47 млн пользователей в 31 стране мира.\n* Входим в топ-5 мобильных сервисов для заказа поездки по итогам января 2020 года.\n* Офис возле м. Улица 1905 года.\n\nОбязанности:\n• Настройка и поддержка инфраструктуры для разработки (сервера, docker, kubernetes, helm)\n• Внедрение и поддержка Kubernetes в production\n• Создание Helm Charts\n• Настройка пайплайнов для процессов CI/CD (TeamCity)\n• Повышение отказоустойчивости работы сервисов\n\nТребования:\n• Опыт работы с операционными системами семейства Linux (CentOS/RHEL)\n• Опыт внедрения и использования Kubernetes в production\n• Опыт настройки и работы с nginx, MySQL, Redis, Prometheus, ClickHouse\n• Опыт работы с облачными провайдерами: GCP, AWS, Azure\n• Опыт использования Ansible и написания ролей и плейбуков\n• Опыт поддержки высоконагруженных сервисов на базе ОС Linux\n• Умение читать и разбираться в чужом коде: Go, PHP\n\nКонтакт для связи: @liuboushka888\n\n—\n\n👉 Обсуждение вакансии в чате @devops_jobs","markup":[{"type":"hashtag","offset":0,"length":9,"data":"вакансия"},{"type":"hashtag","offset":10,"length":7,"data":"DevOps"},{"type":"hashtag","offset":18,"length":9,"data":"fulltime"},{"type":"hashtag","offset":28,"length":7,"data":"москва"},{"type":"handle","offset":1069,"length":14,"data":"liuboushka888"},{"type":"handle","offset":1118,"length":12,"data":"devops_jobs"}],"date":"2020-06-16T07:57:58+00:00","link":"tg://resolve?domain=devops_jobs_feed&post=2110","tags":[{"name":"docker"},{"name":"kubernetes"},{"name":"linux"},{"name":"centos"},{"name":"nginx"},{"name":"mysql"},{"name":"redis"},{"name":"google-cloud-platform"},{"name":"amazon-web-services"},{"name":"azure"},{"name":"ansible"},{"name":"php"}],"cities":[{"code":"moscow"}],"allowsRemote":false}},{"node":{"__typename":"Job","id":"339738624-1001352129329","title":"Golang разработчик","text":"#вакансия #Казань #Lead #Go #fulltime #офис #удаленка  \nВакансия: Lead or Senior Golang Developer \nКомпания: SoftConsulting\nГород: Казань\nФормат работы: офис или удаленка \nЗанятость: полная\nВилка заработной платы: 2000-3000$\n\nИдея проекта – создать революционную крауд-сорсинговую платформу для размещения/выполнение заказов на фотографию. Это возможность работать напрямую с CTO и в дальнейшем собрать команду под себя.\nТребования:\n- Коммерческий опыт разработки на Go\n- Опыт руководства командой будет плюсом\n- Знание AWS, MySQL, Redis \n- Разговорный английский\n- Высокие коммуникативные навыки\n- Желание работать в динамичной стартап-среде, быть готовым самостоятельно решать задачи и архитектора, и разработчика, предлагать решения\n\nУсловия:\n- Комфортабельный офис в Казани или удаленная работа из любой точки мира\n- ДМС\n- Компенсация расходов на занятия спортом, английским языком\n- Гибкий рабочий график\n\nКонтакты: telegram @It_recruiter_Nadezhda","markup":[{"type":"hashtag","offset":0,"length":9,"data":"вакансия"},{"type":"hashtag","offset":10,"length":7,"data":"Казань"},{"type":"hashtag","offset":18,"length":5,"data":"Lead"},{"type":"hashtag","offset":24,"length":3,"data":"Go"},{"type":"hashtag","offset":28,"length":9,"data":"fulltime"},{"type":"hashtag","offset":38,"length":5,"data":"офис"},{"type":"hashtag","offset":44,"length":9,"data":"удаленка"},{"type":"handle","offset":930,"length":22,"data":"It_recruiter_Nadezhda"}],"date":"2020-06-15T13:49:00+00:00","link":"tg://resolve?domain=gogetajobfeed&post=324","tags":[{"name":"go"},{"name":"amazon-web-services"},{"name":"mysql"},{"name":"redis"}],"cities":[{"code":"kazan"}],"allowsRemote":true}},{"node":{"__typename":"Job","id":"26312966144-1001075660570","title":"Php developer","text":"#вакансия #backend #remote #fulltime\nPHP back-end developer в  Platinum Software Development (удаленка)\n\nО НАС:\nhttps://platinum.fund\n\nЗАДАЧИ:\n• Разработка высоконагруженных коммерческих приложений\n\nТРЕБОВАНИЯ:\n• Опыт разработки комерческих приложений на PHP (Laravel) от двух лет\n• Опыт разработки RESTfull сервисов;\n• Знание СУБД (MySQL, Postgresql, NoSQL) \n• Знание принципов ООП, SOLID, шаблонов проектирования\n• Умение работать c Git, Bash\n\nБУДЕТ ПЛЮСОМ:\n• Знакомство с микросервисной архитектурой приложения \n• Понимание Continuous Integration и Delivery, опыт использование CI tools\n• Знакомство с инструментом контейнеризации Docker \n•  Знание алгоритмов, структур данных\n• Опыт разработки с применением Unit-тестирования (TDD) \n• Базовые знания JavaScript\n\nУСЛОВИЯ:\n• Удаленка\n• Полный день, 6 дней в неделю \n• ЗП от 1500-2500$\n\nКОНТАКТЫ:\n@Helen_Blb","markup":[{"type":"hashtag","offset":0,"length":9,"data":"вакансия"},{"type":"hashtag","offset":10,"length":8,"data":"backend"},{"type":"hashtag","offset":19,"length":7,"data":"remote"},{"type":"hashtag","offset":27,"length":9,"data":"fulltime"},{"type":"bold","offset":37,"length":22,"data":""},{"type":"bold","offset":63,"length":29,"data":""},{"type":"bold","offset":105,"length":7,"data":""},{"type":"link","offset":112,"length":21,"data":"https://platinum.fund"},{"type":"bold","offset":135,"length":8,"data":""},{"type":"bold","offset":199,"length":12,"data":""},{"type":"bold","offset":446,"length":14,"data":""},{"type":"bold","offset":766,"length":9,"data":""},{"type":"bold","offset":838,"length":10,"data":""},{"type":"handle","offset":848,"length":10,"data":"Helen_Blb"}],"date":"2020-06-15T11:01:12+00:00","link":"tg://resolve?domain=php_jobs&post=25094","tags":[{"name":"php"},{"name":"laravel"},{"name":"mysql"},{"name":"postgresql"},{"name":"nosql"},{"name":"git"},{"name":"bash"},{"name":"docker"},{"name":"javascript"},{"name":"continuous-integration"}],"cities":[],"allowsRemote":true}},{"node":{"__typename":"Job","id":"90978648064-1001067529236","title":"Python разработчик","text":"#fullstack_dev #вакансия #удаленка #Python \n\nПривет! Меня зовут Виолетта, ищу Python разработчика в компанию SIMKOMAT.\n\nМесто работы: удаленка \nРабочий день: полный рабочий день\nТвои умения: \nPython, asyncio, flask\nОпыт программирования многопоточных приложений;\nЗнание операционной системы Linux;\nЗнание Docker/Docker-compose\nУмение работы с системой контроля версий Git, gitlab, CI/CD\nОпыт работы с базами данных Mongodb, PostgreSQL или MySQL\nПонимание принципов виртуализации;\nОпыт администрирования ОС семейства Linux, localhost, умение работать с ssh\nМы общаемся в: Trello, Atlassian, Telegram, Viber, GitLab Issues\nО компании: создаем программные аппараты для выдачи сим-карт без участия человека. В основном сотрудничаем с иностраннными компаниями. Нашему коллективу кажется, что мы веселые и приятные люди. \nОткликаться на вакансию: пиши мне в телеграм @violker или на почту yo@simkomat.com\n\nЗа внимание спасибо. Сайт SIMKOMAT - тебе. https://simkomat.com/ru/","markup":[{"type":"hashtag","offset":0,"length":14,"data":"fullstack_dev"},{"type":"hashtag","offset":15,"length":9,"data":"вакансия"},{"type":"hashtag","offset":25,"length":9,"data":"удаленка"},{"type":"hashtag","offset":35,"length":7,"data":"Python"},{"type":"bold","offset":120,"length":13,"data":""},{"type":"bold","offset":144,"length":13,"data":""},{"type":"bold","offset":178,"length":14,"data":""},{"type":"bold","offset":556,"length":15,"data":""},{"type":"bold","offset":621,"length":11,"data":""},{"type":"bold","offset":816,"length":24,"data":""},{"type":"handle","offset":861,"length":8,"data":"violker"},{"type":"link","offset":883,"length":15,"data":"mailto:yo@simkomat.com"},{"type":"link","offset":943,"length":24,"data":"https://simkomat.com/ru/"},{"type":"bold","offset":943,"length":24,"data":""}],"date":"2020-06-15T10:41:34+00:00","link":"tg://resolve?domain=python_jobs&post=0","tags":[{"name":"python"},{"name":"flask"},{"name":"linux"},{"name":"docker"},{"name":"git"},{"name":"gitlab"},{"name":"mongodb"},{"name":"postgresql"},{"name":"mysql"},{"name":"ssh"},{"name":"docker-compose"}],"cities":[],"allowsRemote":true}},{"node":{"__typename":"Job","id":"102840139776-1001089317451","title":"Qa инженер","text":"#СПб #fulltime #офис #вакансия\n\nQA engineer (manual/AT)\n\nМеждународная продуктовая ИТ компания ТТ DEVELOPMENT приглашает присоединиться к команде опытного инженера по тестированию для обеспечения качества выпускаемого ПО.\n\nО наших продуктах: youtube.com/channel/UCNyfseLuQVXVo79c8-bQEzQ\n\nЧем предстоит заниматься?\n\n- Проводить анализ, оценку, испытания решений для гарантированного высокого качества нашего программного обеспечения;\n- Производить мониторинг последних технических разработок и делать предложения по улучшению наших продуктов на основе вашего опыта и знаний;\n- Тестировать наше программное обеспечение (ручное);\n- Оказывать поддержку команды саппорта по всем нестандартным запросам;\n- Обновлять и создавать документацию и часто задаваемые вопросы;\n- Если имеются знания автоматизированного тестирования, писать и выполнять тесты (Java).\n\nНам важно, чтобы у тебя было:\n\n- Опыт работы на аналогичной должности от 2х лет;\n- Опыт работы с приложениями, написанными на разных языках программирования, в частности: C/C ++, Java (Kotlin), Go, Swift;\n- Понимание основ программирования: структуры данных, алгоритмы;\n- Умение работать с базами данных на уровне простых запросов MySQL, Mongo;\n- Понимание клиент-серверной архитектуры (опыт работы с этим, понимание этого);\n- Опыт работы с REST API;\n- Умение гуглить выше среднего;\n- Владение инструментами ручного тестировщика под разные платформы и разные задачи (postman, fiddler, wireshark, loggers, adb etc);\n- Работа с командной строкой *nix систем;\n- Уверенное знание английского языка для общения устно и письмом;\n- Готовность выполнить тестовое задание.\n\nУсловия работы:\n\n- График 5/2, 8-ми часовой рабочий день, гибкое начало рабочего дня;\n- Стабильная заработная плата (фиксированный оклад), устанавливается по итогам собеседования;\n- Оформление по ТК РФ, испытательный срок 3 месяца;\n- Современный, уютный офис в 15 мин. ходьбы от м. Бухарестская.\n\nПочему с нами круто работать:\n\n- Нетривиальный продукт и такая же команда;\n- Работа в международной компании с возможностью практики английского языка;\n- Белоснежно белая заработная плата;\n- Бизнес-ланчи за счёт компании;\n- Свободный стиль в одежде - у нас можно оставаться собой;\n- Неформальное общение и быстрые решения без лишней бюрократии и грозных начальников;\n- Компенсация 50% годового абонемента в fitness-зале;\n- Яркая корпоративная жизнь (поздравления коллег, пятничные вечера с пиццей и настолками, корпоративные подарки и многое другое);\n- Relax уголок с Sony Playstation 4;\n- Фруктовые дни, чай, кофе, конфетки и пр.;\n- У нас точно некогда будет скучать ;)\n\nВилка: от 60 000 до 120 000 руб. до вычета налогов\n\nHR специалист: Бэлла, telegram bellykim","markup":[{"type":"hashtag","offset":0,"length":4,"data":"СПб"},{"type":"hashtag","offset":5,"length":9,"data":"fulltime"},{"type":"hashtag","offset":15,"length":5,"data":"офис"},{"type":"hashtag","offset":21,"length":9,"data":"вакансия"},{"type":"bold","offset":32,"length":25,"data":""},{"type":"bold","offset":94,"length":15,"data":""},{"type":"bold","offset":223,"length":17,"data":""},{"type":"link","offset":242,"length":44,"data":"http://youtube.com/channel/UCNyfseLuQVXVo79c8-bQEzQ"},{"type":"bold","offset":288,"length":27,"data":""},{"type":"bold","offset":853,"length":31,"data":""},{"type":"bold","offset":1618,"length":17,"data":""},{"type":"bold","offset":1915,"length":31,"data":""},{"type":"bold","offset":2587,"length":6,"data":""}],"date":"2020-06-15T10:15:29+00:00","link":"tg://resolve?domain=qa_jobs&post=0","tags":[{"name":"qa"},{"name":"java"},{"name":"kotlin"},{"name":"swift"},{"name":"mysql"},{"name":"rest"}],"cities":[],"allowsRemote":false}},{"node":{"__typename":"Job","id":"71281147904-1001054966032","title":"Mobile разработчик","text":"#вакансия #аналитик #продуктовый аналитик #мобильные приложения #Москва #удаленка\n🔸РосШтрафы\n▫️Москва\n▫️офис на Проспекте мира или удаленка\n▫️Fulltime\n▫️от 140К до 250К на руки\n\"РосШтрафы\" – сервис для проверки и оплаты штрафов ГИБДД и налогов, который постепенно превращается в маркетплейс для автомобилистов. Аудитория – несколько миллионов человек.\nНаш отдел маркетинга открывает вакансию 📣Аналитика мобильных приложений (продуктового аналитика)! 📣\n✔️Основные требования:\nОпыт работы на аналогичной должности от 2-х лет;\nЖелательно знание МОБИЛЬНОЙ аналитики (Firebase, AppМетрика, Appsflyer);\nПонимание принципов клиентской аналитики и сегментирования клиентского ядра;\nПонимание когортного анализа, основным метрик цифровых бизнесов, APRU, Retention, LTV, CPA, CPI;\nОпыт работы с регулярным точечным сбором данных;\nВладение SQL на уверенном уровне;\nОтличное знание SQL в диалекте MySQL/PgSQL и ClickHouse.\n✔️Задачи:\nПодготовка данных и настройка их сбора из различных источников;\nРазработка методики оценки окупаемости маркетинговых каналов;\nСоздание и улучшение аналитических инструментов;\nИсследования и поиск инсайтов в данных;\nПовышение эффективности работы менеджеров отдела маркетинга за счет получения достоверных, актуальных данных;\nГрамотное выстраивание системы аналитики с нуля.\n✔️Предлагаем:\nДостойная оплата труда;\nМинимум бюрократии;\nНикакого скрин-трекинга или почасового журнала работ -- всё на совести и доверии;\nГибкое начало рабочего дня;\nПлюшки на домашнюю технику, подарки на ДР;\nНеформальное адекватное общение по всей вертикали компании ;\nПринимаются во внимание любые идеи и инициатива;\nКомпенсация профессиональных курсов и конференций до 60%;\nВозможность 100% удалёнки с опциональным посещением офиса для работы и тимбилдинга.\n◽️@grabulya","markup":[{"type":"hashtag","offset":0,"length":9,"data":"вакансия"},{"type":"hashtag","offset":10,"length":9,"data":"аналитик"},{"type":"hashtag","offset":20,"length":12,"data":"продуктовый"},{"type":"hashtag","offset":42,"length":10,"data":"мобильные"},{"type":"hashtag","offset":64,"length":7,"data":"Москва"},{"type":"hashtag","offset":72,"length":9,"data":"удаленка"},{"type":"handle","offset":1763,"length":9,"data":"grabulya"}],"date":"2020-06-15T06:07:20+00:00","link":"tg://resolve?domain=mobile_jobs&post=0","tags":[{"name":"mobile"},{"name":"firebase"},{"name":"sql"},{"name":"mysql"}],"cities":[{"code":"moscow"}],"allowsRemote":true}},{"node":{"__typename":"Job","id":"26294091776-1001075660570","title":"Php разработчик","text":"#вакансия #удалённо #фронтенд #javascript #AngularJs #Symfony\n\nКомпания: Промрукав\nО компании: Компания «Промрукав» — это торгово-производственная организация, с 1999 года динамично развивающаяся на рынке кабеленесущих систем. \nФормат работы: удалённая работа, график работы 5/2, частичная занятость (<5 ч/день), по желанию возможна работа в офисе\nПроект: B2B Ecommerce\nЗаработная плата: от 50 000 и выше (на руки)\nЗадачи/Обязанности: \nПоддержка и развитие e-commerce проектов компании: b2b-платформа, сайт: \n- разработка новых сервисов компании\n- оптимизация и поддержка текущих продуктов\n- улучшать имеющийся функционал и разрабатывать новый \n- участвовать в принятии архитектурных решений\n- способного к эффективному взаимодействию удалённо или в офисе\n- чёткое следование установленным Вами же срокам \n- оперативное решение проблем   \nСтек: \n  LAMP/LEMP для оптовой онлайн торговли.\n  PHP 7, MySQL, Nginx, Nodejs\n  Фреймворки: Symfony (Symfony console component, Symfony process component, Swift Mailer)\n  Модульная сетка и внешний вид: gentelella\n  Фреймворки: bootstrap, AngularJs\n\nТребования:\n•  Опыт работы от 3х лет\n•  Уверенное знание , MySQL, OOP, Composer, Design patterns в целом, Git.  PHP 7 \n•  Навыки работы в Linux, Apache/nginx, Bootstrap (Gentelella), AngularJs, Nodejs (сборщик js -> gulp на nodejs работает + различные js компоненты). \n•  Приветствуются знания в области интеграции сайта с 1С (использование Web- и HTTP-сервисов) \n\nЧто предлагаем: \nМы не web-студия и не зарабатываем, продавая Ваши способности третьим лицам, поэтому для разработчика наши проекты — это возможность заниматься одним интересным делом без необходимости каждый раз вникать в новый проект и тонкости его работы. Преимущества работы у нас это:\n • стабильный ежемесячный заработок в формате удалённой работы с оформление по ТК; \n • небольшой, но очень дружный коллектив (ИТ-отдел);\n • один руководитель;  \n • возможность посещения всероссийских и международных IT-конференций;\n • возможность принимать участие в корпоративных мероприятиях (проезд оплачивается)\n\nКонтакт для связи: \nTelegram: @dnmit","markup":[{"type":"hashtag","offset":0,"length":9,"data":"вакансия"},{"type":"hashtag","offset":10,"length":9,"data":"удалённо"},{"type":"hashtag","offset":20,"length":9,"data":"фронтенд"},{"type":"hashtag","offset":30,"length":11,"data":"javascript"},{"type":"hashtag","offset":42,"length":10,"data":"AngularJs"},{"type":"hashtag","offset":53,"length":8,"data":"Symfony"},{"type":"handle","offset":2095,"length":6,"data":"dnmit"}],"date":"2020-06-14T14:06:14+00:00","link":"tg://resolve?domain=php_jobs&post=25076","tags":[{"name":"php"},{"name":"javascript"},{"name":"angularjs"},{"name":"symfony"},{"name":"mysql"},{"name":"nginx"},{"name":"nodejs"},{"name":"swift"},{"name":"bootstrap"},{"name":"git"},{"name":"linux"},{"name":"apache"},{"name":"gulp"},{"name":"web"}],"cities":[],"allowsRemote":true}}]}}},"context":{}}