{"hash":"f34fd2c444a074f4e0e67d525015a008ef8e766f","data":{"records":{"id":"docker","name":"docker","belongsTo":{"totalCount":130,"pageInfo":{"totalPages":13,"currentPage":5},"edges":[{"node":{"__typename":"Job","id":"1968177152-1001134745498","title":"Devops engineer","text":"#вакансия #DevOps #fulltime #киев\n\nВакансия: DevOps engineer\nКомпания: Luxena\nГород: Киев, метро Черниговская\nФормат работы: офис, remote - возможен для отдельных дней.\nЗанятость: полная\nЗарплата : от $2500 до $5000 по уровню квалификации.\nПомощь в релокации.\n\nО компании:\n\nLuxena - продуктовая IT-компания полного цикла, предлагаем самореализацию на международных проектах Industry 4.0 в отличной профи-атмосфере с элементами гибкого графика. \n\nЭксперту в построении и управлении платформами разработки и внедрения ПО предлагаем должность DevOps Engineer. \n \nTechnology Stack: \n \nCloud Services \n  - Azure (in use) \n  - AWS \n  - Google \n  \nCI/CD \n  - Azure DevOps (in use) \n  - Jenkins \n  - GitLab \n  \nCluster Orchestration \n  - Docker Swarm (in use) \n  - Kubernetes \n  \nRDBMS \n  - PostgreSQL (in use) \n  - MS SQL \n  - Oracle \n  \nAnalytical Solutions \n  - Clickhouse (in use) \n  - Apache Spark (in use) \n  - Apache Flink \n  - Druid \n  - Pinot \n  - Presto \n  \nStreaming & Message Queues \n  - Apache Pulsar (in use) \n  - Apache Kafka \n  \nDeployment Automation \n  - Ansible \n  - Puppet \n  - Terraform \n  \nProxy & Load balancing \n  - HA proxy (in use) \n  - Nginx \n \nВ каждом виде необходимо иметь практический опыт в production не менее 2-х лет. Часть навыков может быть развита в ходе первого года работы.\n\nКонтакт: @special_forces_recruiter\n\n—\n\n👉 Обсуждение вакансии в чате @devops_jobs","markup":[{"type":"hashtag","offset":0,"length":9,"data":"вакансия"},{"type":"hashtag","offset":10,"length":7,"data":"DevOps"},{"type":"hashtag","offset":18,"length":9,"data":"fulltime"},{"type":"hashtag","offset":28,"length":5,"data":"киев"},{"type":"handle","offset":1314,"length":25,"data":"special_forces_recruiter"},{"type":"handle","offset":1374,"length":12,"data":"devops_jobs"}],"date":"2020-04-05T00:33:02+00:00","link":"tg://resolve?domain=devops_jobs_feed&post=1877","tags":[{"name":"cloud"},{"name":"azure"},{"name":"amazon-web-services"},{"name":"jenkins"},{"name":"gitlab"},{"name":"docker"},{"name":"kubernetes"},{"name":"postgresql"},{"name":"sql"},{"name":"oracle"},{"name":"apache"},{"name":"kafka"},{"name":"deployment"},{"name":"ansible"},{"name":"nginx"},{"name":"azure-devops"},{"name":"apache-spark"}],"cities":[{"code":"kiev"}],"allowsRemote":true}},{"node":{"__typename":"Job","id":"1967128576-1001134745498","title":"Devops engineer","text":"#вакансия #fulltime #devops #удалёнка\n\n💫Компания: i-techlabs\n\nЯ ищу опытного DevOps Engineer на проект по созданию Playtech Open Platform (POP) и игровой платформы как услуги (GPAS). \nОбе платформы построены с использованием архитектуры реактивных микроуслуг и написаны на языке программирования Scala.\nОни используют базу данных No-SQL Couchbase для сохранения и хранения данных.\n\n☕️Условия:\n\n• Вилка по зп 150 000 р.-200 000+р.\n• Удалённая работа\n• Полный день\n• Гибкий график\n\n💻Требования:\n\n• Более 3 лет опыта в DevOps или администрировании Linux\n• Хороший набор навыков Linux\n• Опыт работы с контейнерами Docker (сборка и развертывание)\n• Навыки программирования на Python / Bash\n• Jenkins\n• Управление Java-приложениями\n• Intermediate English \n\n☎️ Контакт: @coderhunt Надежда\n\n—\n\n👉 Обсуждение вакансии в чате @devops_jobs","markup":[{"type":"hashtag","offset":0,"length":9,"data":"вакансия"},{"type":"hashtag","offset":10,"length":9,"data":"fulltime"},{"type":"hashtag","offset":20,"length":7,"data":"devops"},{"type":"hashtag","offset":28,"length":9,"data":"удалёнка"},{"type":"handle","offset":765,"length":10,"data":"coderhunt"},{"type":"handle","offset":818,"length":12,"data":"devops_jobs"}],"date":"2020-04-04T11:37:37+00:00","link":"tg://resolve?domain=devops_jobs_feed&post=1876","tags":[{"name":"scala"},{"name":"sql"},{"name":"linux"},{"name":"docker"},{"name":"python"},{"name":"bash"},{"name":"jenkins"},{"name":"java"}],"cities":[],"allowsRemote":true}},{"node":{"__typename":"Job","id":"1966080000-1001134745498","title":"Devops инженер","text":"#devops #работа #вакансия #москва #kubernetes #redcode \nИнженер DevOps с сильным Kubernetes\n300 - 400 т.руб. на руки\nКомпания разрабатывает ПО и создаёт программно-аппаратные комплексы анализа данных.\nМосква\n\nОбязанности:\nРазработка плейбуков Ansible для конфигурирования серверов на CentOS 7 и 8.\nРазработка манифестов для развертывания приложений в кластерах Kubernetes.\nУправление и мониторинг кластеров Kubernetes.\nНастройка CI/CD конвейеров на базе Gitlab и Nexus\n\nТребования:\nОпыт администрирования CentOS 7 и/или RedHat Enterprise Linux 7\nОпыт работы с Ansible, в частности - разработка плейбуков и ролей Ansible\nОпыт работы с Docker на Linux\nЗнание принципов построения безопасных, высокодоступных и масштабируемых приложений\nОпыт управления кластером Kubernetes, написания манифестов, разворачивание приложений в кластере Kubernetes\nОпыт использования Helm и разработки Helm charts\nОпыт развертывания кластера Kubernetes при помощи Kubespray\nОпыт работы с:\nGitlab и Gitlab CI (Runner)\nNexus Repository Manager и Gitlab Repository\nсо стеком Elastic (ELK или EFK) для логирования\nPrometheus и Alert Manager для мониторинга\nPostgreSQL и Patroni\nNginx, HAProxy и Keepalived\nHashiCorp Vault\nIstio\n\n\"белое\" трудоустройство, ДМС\n\nКонтакты для связи:\ntelegram: @kristina_jobs \nКА RedCode\n\n—\n\n👉 Обсуждение вакансии в чате @devops_jobs","markup":[{"type":"hashtag","offset":0,"length":7,"data":"devops"},{"type":"hashtag","offset":8,"length":7,"data":"работа"},{"type":"hashtag","offset":16,"length":9,"data":"вакансия"},{"type":"hashtag","offset":26,"length":7,"data":"москва"},{"type":"hashtag","offset":34,"length":11,"data":"kubernetes"},{"type":"hashtag","offset":46,"length":8,"data":"redcode"},{"type":"handle","offset":1262,"length":14,"data":"kristina_jobs"},{"type":"handle","offset":1323,"length":12,"data":"devops_jobs"}],"date":"2020-04-03T17:17:36+00:00","link":"tg://resolve?domain=devops_jobs_feed&post=1875","tags":[{"name":"kubernetes"},{"name":"ansible"},{"name":"centos"},{"name":"gitlab"},{"name":"linux"},{"name":"docker"},{"name":"elasticsearch"},{"name":"postgresql"},{"name":"nginx"}],"cities":[{"code":"moscow"}],"allowsRemote":false}},{"node":{"__typename":"Job","id":"1965031424-1001134745498","title":"Devops инженер","text":"#вакансия \nГород: Amsterdam\nФормат работы: удаленка / remote\nЗанятость: проектная\nЗарплатная вилка: от 15 до 25 USD в час\n\nОписание вакансии: \nПредоставить инструкцию и/или скрипты по разворачиванию Kubernetes с Istio поверх, на котором необходимо :\n- задеплоить docker с Spring Java REST приложением (имеющим доступ извне кластера, для того чтобы внешнии клиенты могли к нему подключаться)\n- задеплоить docker с MongoDB (не имеющим доступ извне  кластера, но иметь доступ с других инстанций кластера, в частности с Spring Java REST приложения\n- подключить Keycloak к Istio для авторизации через JWT token в Spring Java REST приложении\n- подключить TLS в Istio и допускать только SSL трафик в кластер\nУсловия:\n* уже имеется конфигурация Keycloak с помощью которой есть Spring Java REST приложение осуществляет регистрацию  пользователей и получение JWT token, необходимо использовать эту конфигурацию для доступа к Spring Java REST приложению\n* не все методы в Spring Java REST приложении необходимо обезопасить JWT токеном\n\nНазвание компании: Take it Personally BV\nКонтакт: @takeitpersonally\nEmail: konstantin@mytip.app\n\n—\n\n👉 Обсуждение вакансии в чате @devops_jobs","markup":[{"type":"hashtag","offset":0,"length":9,"data":"вакансия"},{"type":"handle","offset":1075,"length":17,"data":"takeitpersonally"},{"type":"link","offset":1100,"length":20,"data":"mailto:konstantin@mytip.app"},{"type":"handle","offset":1155,"length":12,"data":"devops_jobs"}],"date":"2020-04-03T15:05:06+00:00","link":"tg://resolve?domain=devops_jobs_feed&post=1874","tags":[{"name":"kubernetes"},{"name":"docker"},{"name":"spring"},{"name":"java"},{"name":"rest"},{"name":"mongodb"},{"name":"jwt"},{"name":"ssl"}],"cities":[{"code":"amsterdam"}],"allowsRemote":true}},{"node":{"__typename":"Job","id":"1416626176-1001091028994","title":"Java разработчик","text":"#офис #Москва #Java #RedCode\n\nСобеседования и работа в период карантина осуществляются дистанционно\n\nВакансия: Java разработчик\nЛокация: Москва, офис, м. Павелецкая \nЗарплатная вилка: 250 - 400 т.р. (обсуждается)\nТребуемый опыт: 3-6 лет \n\nВ крупную и стабильную компанию, уважающую трудовое законодательство и умеющую ценить своих сотрудников, требуется квалифицированный и опытный Java разработчик\n\n🔹Требования к кандидатам: \n- Высокий уровень знаний Java и опыт объектно-ориентированного программирования.\n- Знание современных библиотек, фреймворков (Spring, Hibernate...) и шаблонов проектирования.\n- Опыт работы с инфраструктурой микросервисов (Docker)\n- Необходимо понимать процесс разработки, уметь его организовывать и оптимизировать\n- Знать принципы ООП, подходы в программировании и требования к транзакционным системам (SOLID, DRY, WET, ACID)\n- Иметь обширный опыт работы с различными фреймворками, опыт работы с большими проектами\n- Понимать как работает git, уметь работать с linix-подобными консолями\n- Уметь аргументировать и договариваться \n\n🔹Также приветствуются:\n- Опыт разработки высокопроизводительных и высоконадёжных приложений.\n- Практика с Golang \n\n🔹О приятном: \n- белая зарплата.; \n- Соцпакет + ДМС (после испытательного срока).\n- стабильная компания\n- Шаговая доступность ст.м. \"Павелецкая\".\n- Coffee-Room в офисе + много где поесть в любое время дня. \n\nРезюме и вопросы: @Tatiana_Litvak","markup":[{"type":"hashtag","offset":0,"length":5,"data":"офис"},{"type":"hashtag","offset":6,"length":7,"data":"Москва"},{"type":"hashtag","offset":14,"length":5,"data":"Java"},{"type":"hashtag","offset":20,"length":8,"data":"RedCode"},{"type":"handle","offset":1400,"length":15,"data":"Tatiana_Litvak"}],"date":"2020-04-03T13:54:58+00:00","link":"tg://resolve?domain=jvmjobs&post=1351","tags":[{"name":"java"},{"name":"jvm"},{"name":"spring"},{"name":"hibernate"},{"name":"docker"},{"name":"git"},{"name":"go"}],"cities":[{"code":"moscow"}],"allowsRemote":false}},{"node":{"__typename":"Job","id":"1962934272-1001134745498","title":"Devops инженер","text":"#вакансия #DevOps #Москва #ivi\n\nЛокация: Москва, ст. м. Дмитровская\nФормат работы: офис (на время карантина - удаленка) \nЗанятость: полная\nЗарплатная вилка: от 180 000 до 250 000 руб. на руки.\n\nМы — команда эксплуатации сервиса ivi .\n\nРазыскиваем коллегу в команду для участия в настойке процессов, технических (CI/CD) и в части взаимодействия с коллегами. Активное участие в разворачивании и эксплуатации k8s .Помогаем командам разработки строить CI/CD-пайплайны . Некоторые из нас это делают в составе кросс-команд, другие помогают многим командам, оставшиеся обеспечивают всех нас необходимыми приложениями и инфраструктурой.\n\nУчим команды использовать контейнеры (docker) для подготовки разрабатываемых приложений, осваиваем использование k8s для оркестрации. Используем Ubuntu, Linux.\n\nХраним код и разрабатываем pipeline-ы с помощью gitlab+artifactory .\nДля мониторинга серверов и сервисов используем zabbix и statsd , заправляем grafana.\nНаши сервисы написаны на python, golang и немного php и java.\nЛюбим и активно используем jenkins для решения самых разнообразных задач.\nИспользуем много open source (и не только) приложений: nginx, redis, postgresql, mongodb, rabbitmq, clickhouse, openstack, gitlab, kafka, hdfs, jira , opennebula.\n\nЧто предстоит делать: \n- развитие и настройки процессов ci/cd;\n- планирование и участие в рефакторинге процессов, инфраструктуры, приложений;\n- сопровождение сервисов от разработки до эксплуатации, участие в эксплуатации;\n- доработка текущих и разработка новых сценариев конфигурирования серверов и приложений; \n- администрирование приложений по результатам выполненной работы подготовка документации, если необходимо. \n\nКак узнать что ты нам подходишь? \n- положительный и продолжительный опыт работы с CI/CD-системами (у нас gitlab и jenkins);\n- умение хорошо готовить docker; \n- опыт программирования на скриптовых языках (shell, python);\nопыт администрирования linux и приложение 5+;\n- понимание сетевых технологий TCP/IP; \n- опыт работы с системами управления версиями (git) и конфигурациями. \n\nСо своей стороны мы обещаем: \n- Офис в 5 минутах ходьбы от м. \"Дмитровская\";\n- У нас гибкий график, мы начинаем до 11 часов дня;\n- Трудоустройство по ТК РФ;\n- ДМС + стоматология после прохождения испытательного срока;\n- Подписка на ivi;\n- Пакет релокации для соискателей со всей России.\n\nОнлайн-кинотеатр ivi \nhttps://www.ivi.tv/\n\nБуду рада рассказать подробности, пишите в личку @daria144 или на почту dsereda@ivi.ru\n\n—\n\n👉 Обсуждение вакансии в чате @devops_jobs","markup":[{"type":"hashtag","offset":0,"length":9,"data":"вакансия"},{"type":"hashtag","offset":10,"length":7,"data":"DevOps"},{"type":"hashtag","offset":18,"length":7,"data":"Москва"},{"type":"hashtag","offset":26,"length":4,"data":"ivi"},{"type":"link","offset":2354,"length":19,"data":"https://www.ivi.tv/"},{"type":"handle","offset":2424,"length":9,"data":"daria144"},{"type":"link","offset":2447,"length":14,"data":"mailto:dsereda@ivi.ru"},{"type":"handle","offset":2496,"length":12,"data":"devops_jobs"}],"date":"2020-04-03T12:38:12+00:00","link":"tg://resolve?domain=devops_jobs_feed&post=1872","tags":[{"name":"docker"},{"name":"ubuntu"},{"name":"linux"},{"name":"gitlab"},{"name":"python"},{"name":"go"},{"name":"php"},{"name":"java"},{"name":"jenkins"},{"name":"nginx"},{"name":"redis"},{"name":"postgresql"},{"name":"mongodb"},{"name":"rabbitmq"},{"name":"kafka"},{"name":"hdfs"},{"name":"shell"},{"name":"git"}],"cities":[{"code":"moscow"}],"allowsRemote":true}},{"node":{"__typename":"Job","id":"1414529024-1001091028994","title":"Java разработчик","text":"#senior #java #architect #москва \nГород: Москва\nФормат работы: офис\nЗанятость: Полная\nЗарплатная вилка: от 220 000 до 260 000\nКомпания «Performance Lab» — одна из лидирующих ИТ-компаний в России ищет в свою команду Архитектора Java на направление custom development. Нам нужен эксперт, которому интересно заниматься проектированием и разработкой, быть ответственным за результаты работы.\n❗️Обязанности:\n-Проводить анализ функциональных и нефункциональных требований заказчика совместно с группой аналитики.\n-Разрабатывать концепции, архитектурные решения и подходы к реализации.\n-Взаимодействовать с заказчиком, представлять и защищать свои архитектурные решения.\n-Быть лидером в проектной команде (планировать работу команды, проводить декомпозицию задач, отслеживать прогресс по выполнению задач, поддерживать рабочую атмосферу в команде).\n-Полностью отвечать за техническую составляющую и качество проекта.\n-Обеспечивать прозрачность и прогнозируемость работы проектной команды, отвечать за своевременный выпуск релизов.\n-Самому участвовать в разработке back-end’а, проводить code-review.\n-Принимать участие в согласовании и разработке технической документации.\n❗️Требования:\n-Обладает большим опытом backend-разработки на Java, уверенно владеет Java 8 и выше.\n-Отлично знает Spring (Core, Boot, MVC, JPA, Security) и Hibernate.\n-Отлично знает SQL и хотя бы одну реляционную СУБД.\n-Разбирается в технологиях: REST, gRPC, GraphQL, SOAP, XML, JSON, JWT, OAuth.\n-Имеет опыт разработки на микросервисной архитектуре, понимает ее плюсы и минусы, понимает как организовать взаимодействия микросервисов.\n-Работал с Apache Kafka, Rabbit MQ.\n-Уверенно владеет Git.\n-Уже управлял командой разработки от 3-х человек.\n-Может быть лидером в команде, вести за собой людей.\n❗️Будет плюсом:\n-Немного умеет в devops (построить CI/CD пайплайн, оптимизировать сборку docker-контейнеров, настроить nginx и тд).\n-Знает JavaScript и знаком с современными Frontend-фреймворками (если знаком с React, то совсем хорошо).\n-Умеет налаживать отношения с бизнес-заказчиками, умеет договариваться и искать компромиссы.\n❗️Условия:\n-Официальное трудоустройство по ТК, дополнительные выходные.\n-Белая зарплата.\n-Место работы: отличный офис на м. Парк победы, БЦ «Барклай плаза».\n 📩Контакты: @polinakokina","markup":[{"type":"hashtag","offset":0,"length":7,"data":"senior"},{"type":"hashtag","offset":8,"length":5,"data":"java"},{"type":"hashtag","offset":14,"length":10,"data":"architect"},{"type":"hashtag","offset":25,"length":7,"data":"москва"},{"type":"handle","offset":2262,"length":13,"data":"polinakokina"}],"date":"2020-04-02T14:38:38+00:00","link":"tg://resolve?domain=jvmjobs&post=1349","tags":[{"name":"java"},{"name":"jvm"},{"name":"spring"},{"name":"jpa"},{"name":"hibernate"},{"name":"sql"},{"name":"rest"},{"name":"graphql"},{"name":"soap"},{"name":"xml"},{"name":"json"},{"name":"jwt"},{"name":"oauth"},{"name":"apache"},{"name":"kafka"},{"name":"rabbitmq"},{"name":"git"},{"name":"docker"},{"name":"nginx"},{"name":"javascript"},{"name":"reactjs"}],"cities":[{"code":"moscow"}],"allowsRemote":false}},{"node":{"__typename":"Job","id":"1413480448-1001091028994","title":"Java разработчик","text":"#java #backend #middle #senior #питер #удаленка\nВакансия: Java-разработчик (middle/senior)\nКомпания: https://loyaltyplant.com\nг. Санкт-Петербург\nЗ/П: Middle 130-160k, Senior 180-240k\nФормат работы: офис/удаленка\nЗанятость: полная \nСпециализация компании: мобильное маркетинговое решение с программой лояльности и доставкой для ресторанов, чтобы гости получали лучший сервис, а бизнес – большие выручки и возможность выжить в каратнин. Работаем не только в России, но и в США, Европе и Азии. Нашими решениями пользуются Subway Russia, Black Star Burgers, Greenbox, Papa Johns UAE, и еще 500 брендов в 20 странах, и более 10 миллионов конечных пользователей. Мы ищем не просто сотрудников, но настоящих партнеров, которые готовы предлагать прорывные решения и разделять с нами ценности открытости, честности и личной инициативы.\n\nТебе предстоит:\n • Заниматься рефакторингом legacy-блоков, распиливанием монолита на микросервисы;\n • Развивать функционал системы;\n • Готовить систему к повышению нагрузки;\n • Осуществлять техподдержку третьего уровня;\n • Проводить code review;\n • Делиться опытом с другими разработчиками.\n • Для Senior также – определять и воплощать архитектурные и технические решения.\n\nЧто нам важно?\n • Опыт backend-разработки на Java от 3 лет (Senior – от 5);\n • Хорошее знание Java Core;\n • Опыт работы с микросервисами;\n • Знания и опыт: Spring, БД (MySQL, PostgreSQL, Redis), Kafka, ELK;\n • Как +: Linux, Docker, Cassandra;\n • Самостоятельность;\n • Умение видеть и исправлять плохой код.\n\nМы предлагаем:\n • Интересные задачи и возможности для развития;\n • Возможность реально влиять на решения;\n • Гибкий график;\n • Дружественную атмосферу стартапа, офис-не-open-space, заказ еды, массаж, кикер, английский и тд.\n\nКонтакты: @orehmthfcka","markup":[{"type":"hashtag","offset":0,"length":5,"data":"java"},{"type":"hashtag","offset":6,"length":8,"data":"backend"},{"type":"hashtag","offset":15,"length":7,"data":"middle"},{"type":"hashtag","offset":23,"length":7,"data":"senior"},{"type":"hashtag","offset":31,"length":6,"data":"питер"},{"type":"hashtag","offset":38,"length":9,"data":"удаленка"},{"type":"link","offset":101,"length":24,"data":"https://loyaltyplant.com"},{"type":"handle","offset":1745,"length":12,"data":"orehmthfcka"}],"date":"2020-04-02T13:36:43+00:00","link":"tg://resolve?domain=jvmjobs&post=1348","tags":[{"name":"java"},{"name":"jvm"},{"name":"spring"},{"name":"mysql"},{"name":"postgresql"},{"name":"redis"},{"name":"kafka"},{"name":"linux"},{"name":"docker"},{"name":"cassandra"}],"cities":[],"allowsRemote":true}},{"node":{"__typename":"Job","id":"1409286144-1001091028994","title":"Java разработчик","text":"#вакансия #москва #java #middle #senior\n\nКомпания Альфа Страхование в поисках Java-разработчика на внутренние проекты (Москва).\n\n💰Заработная вилка: 200 000 ₽ — 300 000 ₽ (в зависимости от опыта)\n\n🔸Проект «АльфаПартнерс»\nСистема для партнеров компании для продажи страховок. Некое B2B решение, которое используют сотрудники наших партнёров, чтобы продавать страховки.\n\nТехнологии:\n▪️Java 8\n▪️[legacy часть] — Java Core, Weblogic + Oracle (LiquidBase)\n▪️[новая часть] — Spring Boot , Tomcat + Mongo + Vaadin 14\n\n————-\n\n🔸Проект «Продуктовая фабрика»\nПишется с нуля.\n\nТехнологии:\n▪️Java 8\n▪️Vaadin\n▪️Spring Framework (IoC, Data, Security, Web)\n▪️Spring Boot\n▪️Spring Cloud REST, SOAP, Docker SQL (PostgreSQL)\n▪️[тестирование] — JUnit, Mockito, spring tests, test containers\n\n————-\n\n🔸Проект «РСА 2.0 (Шина)»\n\nТехнологии:\n▪️Java 8/11\n▪️Spring Boot\n▪️Rest API\n▪️JUnit\n▪️PostgreSQL\n▪️ActiveMQ\n▪️Redis\n\n————-\n\n🔸Проект «Альфа NEXT»\n\nТехнологии:\n▪️Java 8/11\n▪️Spring Boot\n▪️Camunda\n▪️JUnit\n▪️PostgreSQL\n▪️k8s\n▪️cloud-native\n\n========\n\n🔸🔸🔸\nУсловия\n▫️ График работы: 5/2 (гибкое начало дня)\n▫️ Работа в профессиональной команде разработчиков, которая готова делиться знаниями и опытом\n▫️ Удобное расположение офиса – м. Шаболовская (7 минут пешком от метро)\n▫️ Оформление по ТК РФ\n🔸🔸🔸\n\nКонтакты\n▪️Telegram: @ruslan_mart","markup":[{"type":"hashtag","offset":0,"length":9,"data":"вакансия"},{"type":"hashtag","offset":10,"length":7,"data":"москва"},{"type":"hashtag","offset":18,"length":5,"data":"java"},{"type":"hashtag","offset":24,"length":7,"data":"middle"},{"type":"hashtag","offset":32,"length":7,"data":"senior"},{"type":"bold","offset":50,"length":17,"data":""},{"type":"bold","offset":149,"length":21,"data":""},{"type":"bold","offset":207,"length":13,"data":""},{"type":"italic","offset":222,"length":148,"data":""},{"type":"bold","offset":370,"length":12,"data":""},{"type":"italic","offset":394,"length":12,"data":""},{"type":"italic","offset":455,"length":11,"data":""},{"type":"bold","offset":529,"length":19,"data":""},{"type":"italic","offset":550,"length":17,"data":""},{"type":"bold","offset":567,"length":12,"data":""},{"type":"italic","offset":711,"length":12,"data":""},{"type":"bold","offset":791,"length":14,"data":""},{"type":"bold","offset":808,"length":12,"data":""},{"type":"bold","offset":915,"length":10,"data":""},{"type":"bold","offset":928,"length":12,"data":""},{"type":"bold","offset":1036,"length":8,"data":""},{"type":"bold","offset":1284,"length":9,"data":""},{"type":"handle","offset":1305,"length":12,"data":"ruslan_mart"}],"date":"2020-04-02T12:23:30+00:00","link":"tg://resolve?domain=jvmjobs&post=1344","tags":[{"name":"java"},{"name":"jvm"},{"name":"oracle"},{"name":"spring"},{"name":"tomcat"},{"name":"web"},{"name":"cloud"},{"name":"rest"},{"name":"soap"},{"name":"docker"},{"name":"sql"},{"name":"postgresql"},{"name":"junit"},{"name":"redis"},{"name":"spring-boot"}],"cities":[{"code":"moscow"}],"allowsRemote":false}},{"node":{"__typename":"Job","id":"1957691392-1001134745498","title":"Devops инженер","text":"#вакансия #devops #remote\n\nГород: #Новосибирск\nформат работы: #удаленка #remote\nзанятость: #проектная #fulltime\nзарплатная вилка: 700-1000 рублей в час\n\nОписание вакансии:\n\nДобрый день!\n\nМеня зовут Матвей, менеджер проектов в компании The Invaders. Мы занимаемся заказной веб и мобильной разработкой для компаний по всему миру. Основная специализация компании это разработка Web и Mobile проектов, кроме того, в портфеле нашей компании работа с  блокчейн проектами на различных платформах (Waves, Ethereum, EOS, Corda, Hyperledger и тд.)  Наша команда разработки находится в Новосибирске, но у нас так же, на удаленной основе, работают разработчики с разных мест Земного шара.\n\nВ данный момент мы ищем колегу DevOps, который поможет нам периодически настраивать, разворачивать сервера, улучшит нашу ситуацию с CI/CD, покажет путь лучшей жизни с контейнеризацией\n\nЧем предстоит заниматься:\n\n1. Формирование Docker-образов, CI/CD сценариев\n2. Управления контейнеризованными рабочими нагрузками и сервисами (Kubernetes)\n3. Решение сетевых вопросов организации серверов\n4. Решение вопросов хранения данных\n5. Мониторинг систем, сбор, визуализация и анализ логов\n6. Взаимодействие с командой разработчиков и совместное решение задач\n\nТехнические скиллы:\n\n1.  Умение работать с Ansible\n2.  Опыт администрирования баз данных (PostgreSQL, Redis)\n3.  Опыт работы в качестве Инженера DevOps\n\nТехнологический стек:\n\n- Непосредственное взаимодействие и окружение\n\n  - Gitlab CI/CD\n  - Docker\n  - Ansible\n  - Ubuntu\n  - PostgreSQL\n  - Redis\n  - Rabbitmq\n  - Python\n  - Django\n  - Celery\n  - Nginx\n\nТак же будет очень хорошо:\n\n- Увлекаешься программированием\n- Сможешь рассказать о ревалентном опыте работы\n\nНазвание компании: The Invaders\n\nКонтакты: hr@theinvaders.pro @matteslip\n\n—\n\n👉 Обсуждение вакансии в чате @devops_jobs","markup":[{"type":"hashtag","offset":0,"length":9,"data":"вакансия"},{"type":"hashtag","offset":10,"length":7,"data":"devops"},{"type":"hashtag","offset":18,"length":7,"data":"remote"},{"type":"hashtag","offset":34,"length":12,"data":"Новосибирск"},{"type":"hashtag","offset":62,"length":9,"data":"удаленка"},{"type":"hashtag","offset":72,"length":7,"data":"remote"},{"type":"hashtag","offset":91,"length":10,"data":"проектная"},{"type":"hashtag","offset":102,"length":9,"data":"fulltime"},{"type":"link","offset":1737,"length":18,"data":"mailto:hr@theinvaders.pro"},{"type":"handle","offset":1756,"length":10,"data":"matteslip"},{"type":"handle","offset":1801,"length":12,"data":"devops_jobs"}],"date":"2020-04-02T06:34:20+00:00","link":"tg://resolve?domain=devops_jobs_feed&post=1867","tags":[{"name":"web"},{"name":"mobile"},{"name":"docker"},{"name":"kubernetes"},{"name":"ansible"},{"name":"postgresql"},{"name":"redis"},{"name":"gitlab"},{"name":"ubuntu"},{"name":"rabbitmq"},{"name":"python"},{"name":"django"},{"name":"nginx"}],"cities":[{"code":"novosibirsk"}],"allowsRemote":true}}]}}},"context":{}}