{"hash":"f5f6bf98bd95e769321482904cbbd488f77922fd","data":{"records":{"id":"react-redux","name":"react-redux","belongsTo":{"totalCount":42,"pageInfo":{"totalPages":5,"currentPage":5},"edges":[{"node":{"__typename":"Job","id":"16864247808-1001110946746","title":"Js разработчик","text":"#вакансия #middle #спб #react #redux #emotion\n\nГород: Сантк-Петербург, ул. Рубинштейна (5 углов)\nФормат работы: офис\nЗанятость: полная\nЗарплатная вилка: от 80к до 130к рублей (на руки, больше по согласованию)\nИспользуемый стек: react 16 (hooks), redux, emotion\n\nОписание вакансии:\n\nПривет всем, мы разрабатываем крутые проекты, связанные прежде всего с физическим здоровьем людей, которые тратят его, зарабатывая себе на хлеб. Эти люди работают на складах, перенося коробки с места на место, в сортировочных центрах, доставляя вам посылки, на стройках, и в остальных местах, где требуется ручной труд.\nНаши решения помогают компаниям за границей измерять и управлять (с помощью носимых устройств) рисками возникновения травмы для своих сотрудников (подробнее можете ознакомиться по ссылке: https://soteranalytics.com/ ). Я сооснователь проекта и нам в сентябре исполнится 4 года. С помощью этого канала мы уже нашли двух сотрудников, которые успешно у нас работают, но сейчас такие времена, что чем быстрее мы сможем разработать новые фичи в наших продуктах, тем больше рынка сможем захватить.\n\nЧто нужно делать: нужно разрабатывать дэшборды и прочие веб интерфейсы для наших клиентов, так и для наших внутренних нужд.\n\nЧто требуется от вас: мы ценим самоорганизованность и очень не любим микроменеджмент. Также мы любим когда наши сотрудники развиваются у нас на глазах и всячески стараемся этому помочь. У нас также сформирована команда из опытных сотрудников, которые имеют экспертизы почти в каждой теме.\nТакже мы ценим, когда человек умеет решать проблемы, а не создавать их другим.\n\nКонтакты: писать мне в личку @pavko_a. В сообщении пишите что вы уже сделали на reactjs, чем вы гордитесь в своей работе, а также пару строк о себе и чем вы занимались на последнем проекте.\n\nЗабыл упомянуть: в команде очень много общения на английском, так как коммерческая команда находится в Лондоне и являются носителями языка. #doyourhomework\n\n—\n\n👉 Обсуждение вакансии в чате @javascript_jobs","markup":[{"type":"hashtag","offset":0,"length":9,"data":"вакансия"},{"type":"hashtag","offset":10,"length":7,"data":"middle"},{"type":"hashtag","offset":18,"length":4,"data":"спб"},{"type":"hashtag","offset":23,"length":6,"data":"react"},{"type":"hashtag","offset":30,"length":6,"data":"redux"},{"type":"hashtag","offset":37,"length":8,"data":"emotion"},{"type":"link","offset":790,"length":27,"data":"https://soteranalytics.com/"},{"type":"handle","offset":1618,"length":8,"data":"pavko_a"},{"type":"hashtag","offset":1920,"length":15,"data":"doyourhomework"},{"type":"handle","offset":1970,"length":16,"data":"javascript_jobs"}],"date":"2020-06-12T10:31:45+00:00","link":"tg://resolve?domain=javascript_jobs_feed&post=16083","tags":[{"name":"javascript"},{"name":"reactjs"},{"name":"redux"},{"name":"react-redux"}],"cities":[],"allowsRemote":false}},{"node":{"__typename":"Job","id":"16843276288-1001110946746","title":"Js разработчик","text":"#вакансия #удаленка #работа #node #команда_разработчиков \n\nГород и адрес офиса: любой\nФормат работы: удаленка\nЗанятость: полная\nЗарплатная вилка: для middle от 160 до 180 net\nдля teamlead от 200 до 230 net\n\nОписание вакансии: \nНужна сработанная команда node.js разработчиков с тимлидом для разработки облачных сервисов.\n\nЗадачи:\n1. Разработка и развитие системы управления биллингом облачных сервисов.\n- Front-end - личные кабинеты, различные графики, настройки использования и отчёты сервиса.\n- Back-end - реализация функционала, необходимого фронту, плюс реализация непосредственного взаимодействия с облачными сервисами.\n- Интеграция других бизнес-процессов в систему.\n- Постепенное превращение системы из внутреннего продукта компании в продукт для клиентов, с соответствующими требованиями.\n\n2. Разработка сервиса регистрации и классификации обращений с использованием машинного обучения.\n- Создание среды для работы моделей, созданных нашими дата-сайентистами.\n- Интеграция с другими сервисами.\n\n3. Создание продуктов или MVP совместно с другими подразделениями в рамках автоматизации деятельности организации или в рамках проверки гипотез;\n\n4. Закрытые проекты для заказчиков федерального уровня.\n\nИспользуемые технологии: \nBack end: node.js\nFront end: Vue + typescript (текущая версия), React with hooks + redux + typescript (новые версии).\nСоотношение задач back/front примерно 80/20, поэтому знание фреймворков на front end не критично, если есть готовность их освоить.\n\nТакже важны знания:\n- PostgreSQL.\n- Умение работать в Linux.\n- Знание React.Js и Redux.\n\nИ будет плюсом:\n- Опыт разработки систем в микросервисной архитектуре и работы с геоинформационными системами.\n- Опыт работы с mongoDB.\n- Знания по настройке web-серверов.\n- Знания инструментария devops. \n\nУсловия: возможна полностью удаленная работа (не в Москве), оформление по ТК РФ, ежеквартальные премии, ДМС после испытательного + есть программы лояльности с партнерами (подробнее на интервью).\n\nНазвание компании: КА Star-Staff\n\nКонтакты: @aazaitseva azaitseva@star-staff.ru","markup":[{"type":"hashtag","offset":0,"length":9,"data":"вакансия"},{"type":"hashtag","offset":10,"length":9,"data":"удаленка"},{"type":"hashtag","offset":20,"length":7,"data":"работа"},{"type":"hashtag","offset":28,"length":5,"data":"node"},{"type":"hashtag","offset":34,"length":22,"data":"команда_разработчиков"},{"type":"handle","offset":2016,"length":11,"data":"aazaitseva"},{"type":"link","offset":2028,"length":23,"data":"mailto:azaitseva@star-staff.ru"}],"date":"2020-06-11T19:55:18+00:00","link":"tg://resolve?domain=javascript_jobs_feed&post=0","tags":[{"name":"javascript"},{"name":"nodejs"},{"name":"dotnet"},{"name":"vuejs"},{"name":"typescript"},{"name":"reactjs"},{"name":"redux"},{"name":"postgresql"},{"name":"linux"},{"name":"mongodb"},{"name":"web"},{"name":"react-redux"}],"cities":[],"allowsRemote":true}}]}}},"context":{}}