{"hash":"f5f6bf98bd95e769321482904cbbd488f77922fd","data":{"records":{"id":"russia/moscow","country":{"code":"russia","ruName":"Россия","enName":"Russia"},"city":{"code":"moscow","ruName":"Москва","enName":"Moscow"},"belongsTo":{"totalCount":476,"pageInfo":{"totalPages":48,"currentPage":12},"edges":[{"node":{"__typename":"Job","id":"26846691328-1001075660570","title":"Php разработчик","text":"#вакансия #москва #офис #fulltime #yii2 #php #job\n\nВсем привет!\nСейчас нахожусь в поиске крутого разработчика :)\n\n Позиция: Senior PHP Developer\nЗанятость: полная\nКомпания: ТД ЦУМ \nЛокация: Москва\nЗ/П: до 280 000\n\n   Основные цели и задачи:\n- Разработка программных модулей продуктов компании;\n- Глубокое погружение в процессы работы интернет-магазина;\n- Участие в разработке сервис-ориентированной архитектуре приложения.\n\n   Основные обязанности:\n- Разработка и поддержка инфраструктуры интернет-проекта, мобильного приложения и внутренних сервисов компании;\n- Разработка программных модулей продуктов интернет магазина ЦУМ;\n- Оптимизация приложения под высокую нагрузку, масштабирование, поиск узких мест;\n- Интеграция со сторонними сервисами;\n- Предложение и внедрение высокотехнологичных, инновационных решений.\n\nТребования:\n- Отличное знание и опыт работы с PHP 7 от 3 лет;\n- Понимание как устроен HTTP, REST;\n- Знание и понимание MVC архитектуры;\n- Знание и опыт работы фреймворком YII;\n- Опыт работы с одной или несколькими БД: MySQL, Redis, Mongo;\n- Опыт мониторинга и оптимизации SQL-запросов;\n\n   Условия работы:\n- Полный рабочий день  (гибкое утро - возможность начала рабочего дня с 9:00 до 12:00)\n- Официальное оформление по трудовому договору.\n- Офис в центре Москвы.\n- ДМС.\n- Корпоративное обучение.\n- Скидки от партнеров компании.\n\nЕсли остались вопросы, с радостью отвечу:\n @nastyaklassnaya","markup":[{"type":"hashtag","offset":0,"length":9,"data":"вакансия"},{"type":"hashtag","offset":10,"length":7,"data":"москва"},{"type":"hashtag","offset":18,"length":5,"data":"офис"},{"type":"hashtag","offset":24,"length":9,"data":"fulltime"},{"type":"hashtag","offset":34,"length":5,"data":"yii2"},{"type":"hashtag","offset":40,"length":4,"data":"php"},{"type":"hashtag","offset":45,"length":4,"data":"job"},{"type":"handle","offset":1392,"length":16,"data":"nastyaklassnaya"}],"date":"2020-06-30T07:36:11+00:00","link":"tg://resolve?domain=php_jobs&post=25603","tags":[{"name":"php"},{"name":"yii"},{"name":"rest"},{"name":"mysql"},{"name":"redis"},{"name":"sql"}],"cities":[{"code":"moscow"}],"allowsRemote":false}},{"node":{"__typename":"Job","id":"1767899136-1001091028994","title":"Java разработчик","text":"#Вакансия #Java #Spring #Москва #Middle #Senior\nЛокация #москва #динамо\nЗанятость #fulltime\nФормат #офис\n (временно удаленка до сентября)\nЗарплата 150 000 – 200 000 net\nВ компанию Информзащита. Мы ищем опытного Java-разработчика в высоконагруженный проект для крупного государственного заказчика. Аудитория проекта - вся Россия. 1,5 млн. пользователей, плановая нагрузка до 100 тыс. запросов в секунду.\nТехнический стек: Java 8, Spring Boot 2, PostgreSQL 9.6, RabbitMQ, Redis, микросервисная архитектура.\nСобеседование проводится в один этап (руководитель отдела + ведущий разработчик). Решение принимается за 1-2 дня.\nОбязанности:\n- Разработка компонентов микросервисной архитектуры для высоконагруженного проекта\n- Участие в проектировании архитектуры\nТребования:\n• Хорошие знания Java/Spring, PostgreSQL, ООП\nУсловия:\n- Работа в сильной, стабильной компании (ТОП 3 компаний России в сфере защиты информации по оценке CNews Analytics (2017г.);\n- Интересные задачи. Работа с крупными интересными проектами;\n- Зрелые процессы разработки, четкие роли в команде, методология agile;\n- Оформление в соответствии с ТК РФ (все выплаты в \"белую\");\n- Развитая система премирования;\n- Расширенный социальный пакет (ДМС через 6 месяцев работы, 100% оплачиваемый больничный);\n- Возможность гибкого начала/окончания рабочего дня (начало с 8 до 11, окно присутствия с 12 до 17);\n- Разнообразные программы обучения сотрудников;\n- Возможности для повышения квалификации и сертификации;\n- Дружный коллектив профессионалов, вся команда работает In-house;\n- Удобный современный офис класса А;\n- Полный рабочий инструментарий;\n- Кофе, чай;\n- Шаговая доступность от метро - м. Динамо (2 мин.) или м.Петровский Парк (1 мин.)\na.romanovsky@infosec.ru\nwww.infosec.ru","markup":[{"type":"hashtag","offset":0,"length":9,"data":"Вакансия"},{"type":"hashtag","offset":10,"length":5,"data":"Java"},{"type":"hashtag","offset":16,"length":7,"data":"Spring"},{"type":"hashtag","offset":24,"length":7,"data":"Москва"},{"type":"hashtag","offset":32,"length":7,"data":"Middle"},{"type":"hashtag","offset":40,"length":7,"data":"Senior"},{"type":"hashtag","offset":56,"length":7,"data":"москва"},{"type":"hashtag","offset":64,"length":7,"data":"динамо"},{"type":"hashtag","offset":82,"length":9,"data":"fulltime"},{"type":"hashtag","offset":99,"length":5,"data":"офис"},{"type":"link","offset":1704,"length":23,"data":"mailto:a.romanovsky@infosec.ru"},{"type":"link","offset":1728,"length":14,"data":"http://www.infosec.ru"}],"date":"2020-06-30T06:48:55+00:00","link":"tg://resolve?domain=jvmjobs&post=1686","tags":[{"name":"java"},{"name":"jvm"},{"name":"spring"},{"name":"dotnet"},{"name":"postgresql"},{"name":"rabbitmq"},{"name":"redis"},{"name":"spring-boot"}],"cities":[{"code":"moscow"}],"allowsRemote":true}},{"node":{"__typename":"Job","id":"361758720-1001352129329","title":"Golang разработчик","text":"#вакансия #fulltime #офис #удалёнка #Москва #go #golang #kubernetes #k8s\n\nВ команду разработки облачных решений требуются Golang разработчики.\n\nВозможные задачи:\n • Доработка и расширение Kubernetes.\n • Написание Terraform Provider.\n\nТребования:\n • Опыт разработки на Golang\n • Опыт работы с Docker или kubernetes\n • Английский на уровне чтения тех. документации\n\nБудет плюсом:\n • Опыт расширения kubernetes: CRD, Operator.\n • Опыт работы, расширения Terraform.\n • Опыт работы с opensource community, отправки патчей в upstream.\n\nЗарплатная вилка: 150-250 на руки.\nГород: Москва, офис/удалёнка.\nЯзык общения: русский.\nНазвание компании: ITKey https://itkey.com/\nКонтактное лицо: @nepit PTolstikov@itkey.com","markup":[{"type":"hashtag","offset":0,"length":9,"data":"вакансия"},{"type":"hashtag","offset":10,"length":9,"data":"fulltime"},{"type":"hashtag","offset":20,"length":5,"data":"офис"},{"type":"hashtag","offset":26,"length":9,"data":"удалёнка"},{"type":"hashtag","offset":36,"length":7,"data":"Москва"},{"type":"hashtag","offset":44,"length":3,"data":"go"},{"type":"hashtag","offset":48,"length":7,"data":"golang"},{"type":"hashtag","offset":56,"length":11,"data":"kubernetes"},{"type":"hashtag","offset":68,"length":4,"data":"k8s"},{"type":"link","offset":643,"length":18,"data":"https://itkey.com/"},{"type":"handle","offset":679,"length":6,"data":"nepit"},{"type":"link","offset":686,"length":20,"data":"mailto:PTolstikov@itkey.com"}],"date":"2020-06-29T22:17:16+00:00","link":"tg://resolve?domain=gogetajobfeed&post=345","tags":[{"name":"go"},{"name":"kubernetes"},{"name":"docker"}],"cities":[{"code":"moscow"}],"allowsRemote":true}},{"node":{"__typename":"Job","id":"2262827008-1001134745498","title":"Devops engineer","text":"#вакансия #удаленка #DevOps \n\nDevOps Engineer \nГород и адрес офиса: Москва, Сочи, Новосибирск \nФормат работы: удаленка\nЗанятость: полная\nЗарплатная вилка: 4000 - 5000$ в месяц \n\nКомпания решает задачи в областях искусственного интеллекта, машинного обучения и больших данных, а вам предстоит заниматься поддержкой сложной облачной инфраструктуры и развитием DevOps-практик в компании.\n\nСильная команда, сложные задачи, перспектива быстрого роста, удаленная работа, гибкий график. С вас — опыт 3+ лет, понимание современных подходов к инфраструктуре (immutable infrastructure) и представление о том, как работают современные вычислительные облака (aws, gcp, azure, openstack-based решения).\n\nТребования: \nDevOps/SRE, ключевые слова:\nTypeScrypt, Node.js, SRE, SDN, PoP, VPN, динамическая маршрутизация, инкапсуляция трафика, Kubernetes, Helm и что-нибудь из стораджа типа Lustre, CEPH и про Apache Spark, Hadoop и особенно HDFS\n\nЧто мы предлагаем:\n— Сложные задачи, в которых можно сильно прокачать свои навыки;\n— Гибкий график;\n— Оплата обучения внутри и вне компании.\n\nP.S. Ищем супер ниндзю, который творит чудеса;)\n\nПоскольку позиция требует срочного закрытия, для того, чтобы на нее откликнуться, кандидату нужно пройти отбор на платформе по ссылке https://6nomads.com/ (это займет около часа).\n\nКонтакт для связи: @temnik_sofya\n\n—\n\n👉 Обсуждение вакансии в чате @devops_jobs","markup":[{"type":"hashtag","offset":0,"length":9,"data":"вакансия"},{"type":"hashtag","offset":10,"length":9,"data":"удаленка"},{"type":"hashtag","offset":20,"length":7,"data":"DevOps"},{"type":"link","offset":1252,"length":20,"data":"https://6nomads.com/"},{"type":"handle","offset":1318,"length":13,"data":"temnik_sofya"},{"type":"handle","offset":1366,"length":12,"data":"devops_jobs"}],"date":"2020-06-29T22:07:11+00:00","link":"tg://resolve?domain=devops_jobs_feed&post=2158","tags":[{"name":"amazon-web-services"},{"name":"google-cloud-platform"},{"name":"azure"},{"name":"nodejs"},{"name":"kubernetes"},{"name":"apache"},{"name":"hadoop"},{"name":"hdfs"},{"name":"apache-spark"}],"cities":[{"code":"moscow"},{"code":"sochi"},{"code":"novosibirsk"}],"allowsRemote":true}},{"node":{"__typename":"Job","id":"17235443712-1001110946746","title":"Javascript разработчик","text":"#вакансия #frontend #react #typescript #graphQL #junior #middle #senior #lead #москва #офис #fulltime\n\nКомпания: СберТех\nЛокация: г. Москва, м. Савеловская\nФормат работы: офис (до конца июля удаленка), полная занятость\nЗ/п: 100 000 - 230 000 руб. net (+ у нас высокая годовая премия) \n\nВсем привет 🙌\nТут один проект скучает без Frontend-разработчика \n\n💻 Делаем образовательную цифровую платформу - SaaS решение для персонализированного обучения в школах, университетах, IT Bootcamp  Сбербанка. \nПредстоит повышать перфоманс приложения (плановая нагрузка на сентябрь 2020 - 500 000 активных пользователей в день)\n\n🔔 Must have:\nReact, Typescript, HTML5+CSS3, Webpack/аналог, система контроля версий Git, для уровня lead управление командой из 3-6 человек\n\nБудет здорово, если есть\nопыт/желание изучить: GraphQL (Apollo client), уверенное знание ЕS6, Styled-components, Jest/React-testing-library, Code review, адаптивность под мобильные платформы\n\nПредлагаем:\n✔профессиональное развитие: конференции, митапы, обучение в Корпоративном университете Сбербанка\n✔ДМС и страховку от несчастных случаев, льготные условия ипотеки, скидки от компаний-партнеров, бесплатный корпоративный тренажерный зал\n✔офис А класса в БЦ «Северное Сияние» (5 мин. от м. Савеловская), возможность гибкого начала рабочего дня \n\nЕсли интересно - буду рада обсудить, вот мои контакты:\n📲 @karprokar\n📩 KVProlomova@sberbank.ru","markup":[{"type":"hashtag","offset":0,"length":9,"data":"вакансия"},{"type":"hashtag","offset":10,"length":9,"data":"frontend"},{"type":"hashtag","offset":20,"length":6,"data":"react"},{"type":"hashtag","offset":27,"length":11,"data":"typescript"},{"type":"hashtag","offset":39,"length":8,"data":"graphQL"},{"type":"hashtag","offset":48,"length":7,"data":"junior"},{"type":"hashtag","offset":56,"length":7,"data":"middle"},{"type":"hashtag","offset":64,"length":7,"data":"senior"},{"type":"hashtag","offset":72,"length":5,"data":"lead"},{"type":"hashtag","offset":78,"length":7,"data":"москва"},{"type":"hashtag","offset":86,"length":5,"data":"офис"},{"type":"hashtag","offset":92,"length":9,"data":"fulltime"},{"type":"link","offset":568,"length":14,"data":"tel:2020 - 500 000"},{"type":"handle","offset":1361,"length":10,"data":"karprokar"},{"type":"link","offset":1375,"length":23,"data":"mailto:KVProlomova@sberbank.ru"}],"date":"2020-06-29T20:21:25+00:00","link":"tg://resolve?domain=javascript_jobs_feed&post=16437","tags":[{"name":"javascript"},{"name":"reactjs"},{"name":"typescript"},{"name":"graphql"},{"name":"dotnet"},{"name":"html"},{"name":"css"},{"name":"webpack"},{"name":"git"}],"cities":[{"code":"moscow"}],"allowsRemote":true}},{"node":{"__typename":"Job","id":"17234395136-1001110946746","title":"Js разработчик","text":"#вакансия\n\nSenior NodeJS Software Engineer\n\nГород и адрес офиса: Москва, м.Китай-Город\nФормат работы: удаленка \nЗанятость: полная \nЗарплата: $ 50 000 - 60 000 в год\n\nМеждународный сервис по подбору стипендиальных программ ищет в свою команду опытного NodeJS разработчика. Главный офис компании находится в Тель-Авиве, куда предусмотрены поездки раз в полгода, команда рассредоточена по миру.\n\nМы предлагаем интересные задачи на высоконагруженных web-проектах, зарплату, привязанную к курсу доллара; возможность профессионального обучения и полноценного участия в жизни IT сообщества (тренинги, конференции) и возможность работать по гибкому графику.\n\n\nТребования: \n- Отличные знания Javascript, Node JS; \n- Будет плюсом опыт работы с Golang; \n- Опыт работы с высокими нагрузками; \n- Хорошее понимание архитектуры и проектирования; \n- Опыт работы с RabbitMQ/Kafka; \n- Опыт работы с NoSQL DB (MongoDB, Redis); \n- Разработка или взаимодействие с REST API; \n- Написание юнит и интеграционных тестов; \n- Понимание цикла CI/CD, поддержка его конфигурации; \n- Отличные коммуникативные навыки и уровень английского не ниже В2.\n\nЧтобы откликнуться, необходимо пройти короткий отбор по ссылке https://6nomads.com/\n\nНазвание компании: 6nomads.com\nКонтакт: @temnik_sofya","markup":[{"type":"hashtag","offset":0,"length":9,"data":"вакансия"},{"type":"link","offset":143,"length":15,"data":"tel:50 000 - 60 000"},{"type":"link","offset":1183,"length":20,"data":"https://6nomads.com/"},{"type":"link","offset":1224,"length":11,"data":"http://6nomads.com"},{"type":"handle","offset":1245,"length":13,"data":"temnik_sofya"}],"date":"2020-06-29T17:50:20+00:00","link":"tg://resolve?domain=javascript_jobs_feed&post=16436","tags":[{"name":"javascript"},{"name":"nodejs"},{"name":"web"},{"name":"go"},{"name":"rabbitmq"},{"name":"kafka"},{"name":"nosql"},{"name":"mongodb"},{"name":"redis"},{"name":"rest"}],"cities":[{"code":"moscow"}],"allowsRemote":true}},{"node":{"__typename":"Job","id":"17232297984-1001110946746","title":"Js разработчик","text":"Greenatom.ru\n#вакансия #Москва #javascript #React #Typescript #Node.js #Middle #Senior #удаленка #удаленная работа \n\n👨🏼‍💻 Middle/Senior Frontend Developer, Middle/Senior Backend Developer\nГород и адрес офиса: #Москва, БЦ Сириус Парк, метро Нагатинская\n\n✅Формат работы: \nУДАЛЕННАЯ РАБОТА\n\n💻Занятость: полная, гибкое начало трудового дня.\n\nЗарплатная вилка: от 170 000 до 230 000 руб. на руки.\n\n🏢Компания: АО Гринатом\n\nПривет! Мы растём и активно развиваем ряд внутренних проектов: например, корпоративный портал, горячая линия, собственная кадровая система для 400 предприятий! \nМы формируем НЕСКОЛЬКО КОМАНД, общей численностью более 60 человек и ищем классных:\n\n✅ФРОНТЕНД  разработчиков;\n\n✅БЭКЕНД разработчиков. \n\nПроекты в стадии разработки пилота и у тебя есть возможность повлиять на дальнейшее развитие продукта. Если у тебя есть крутые идеи - ты сможешь их здесь реализовать! Откликайся сам и зови друзей! Вирус пройдёт, работа останется!\n\n✅Требуемые знания и навыки:\n- Опыт разработки от двух лет\n- Хорошее знание чистого JS\n- Опыт работы с TypeScript\n- React, MobX, Less/Sass\n- Опыт написания юнит-тестов с помощью Jest, Enzymе очень приветствуется\n\n💡Наш стек:\n      React, TypeScript, Node.js, MobX, Docker\n\nМы работаем по Scrum.\n\n✅Условия:\n- Официальное оформление в штат по ТК, белая зп;\n- Бессрочный трудовой договор; \n- Годовой бонус;\n- Возможности профессионального и карьерного роста;\n- Дополнительные 3 дня к отпуску;\n- Плавающее начало дня;\n- ДМС со стоматологией;\n- Полная удаленка \n(Если тебе нравится работать в офисе, мы не против)\n\n☎️Контакты:\nЮлия - YAnZueva@Greenatom.ru","markup":[{"type":"link","offset":0,"length":12,"data":"http://Greenatom.ru"},{"type":"hashtag","offset":13,"length":9,"data":"вакансия"},{"type":"hashtag","offset":23,"length":7,"data":"Москва"},{"type":"hashtag","offset":31,"length":11,"data":"javascript"},{"type":"hashtag","offset":43,"length":6,"data":"React"},{"type":"hashtag","offset":50,"length":11,"data":"Typescript"},{"type":"hashtag","offset":62,"length":5,"data":"Node"},{"type":"hashtag","offset":71,"length":7,"data":"Middle"},{"type":"hashtag","offset":79,"length":7,"data":"Senior"},{"type":"hashtag","offset":87,"length":9,"data":"удаленка"},{"type":"hashtag","offset":97,"length":10,"data":"удаленная"},{"type":"hashtag","offset":212,"length":7,"data":"Москва"},{"type":"link","offset":1579,"length":21,"data":"mailto:YAnZueva@Greenatom.ru"}],"date":"2020-06-29T17:49:45+00:00","link":"tg://resolve?domain=javascript_jobs_feed&post=16434","tags":[{"name":"javascript"},{"name":"reactjs"},{"name":"typescript"},{"name":"nodejs"},{"name":"sass"},{"name":"docker"}],"cities":[{"code":"moscow"}],"allowsRemote":true}},{"node":{"__typename":"Job","id":"17231249408-1001110946746","title":"Javascript разработчик","text":"#вакансия #RN #reactnative #офис #москва #мск #remote #удаленка \nГород и адрес офиса:  #москва #мск  #арбатская\nФормат работы: офис, фултайм, гибкий график, можно удаленно (с редкими встречами в мск, поэтому важно, чтобы вы жили не очень далеко от мск)\nЗанятость: полная\nЗарплатная вилка: 180-250 т.р. net готовы обсуждать\nОписание вакансии: \nИщу сейчас RN разработчика в финтех проект (Openbanking, psd2) -  это новый продукт в онлайн покупках на европейском рынке, со своей «платежкой», которое сделает эту сферу более технологичной и еще проще и доступнее для пользователей:\n- новое удобное решение для b2c клиентов (мобильное приложение)\n- выгодные условия для b2b партнеров (низкие комиссии за транзакции)\n\nОформление белое, проект полностью с нуля, только собираем команду, есть возможность максимального влияния на продукт, на выбор технологий и построение процессов.\n\nНазвание компании:  Star-Staff\nКонтакты: пишите на этот тг @yuliaataman","markup":[{"type":"hashtag","offset":0,"length":9,"data":"вакансия"},{"type":"hashtag","offset":10,"length":3,"data":"RN"},{"type":"hashtag","offset":14,"length":12,"data":"reactnative"},{"type":"hashtag","offset":27,"length":5,"data":"офис"},{"type":"hashtag","offset":33,"length":7,"data":"москва"},{"type":"hashtag","offset":41,"length":4,"data":"мск"},{"type":"hashtag","offset":46,"length":7,"data":"remote"},{"type":"hashtag","offset":54,"length":9,"data":"удаленка"},{"type":"hashtag","offset":87,"length":7,"data":"москва"},{"type":"hashtag","offset":95,"length":4,"data":"мск"},{"type":"hashtag","offset":101,"length":10,"data":"арбатская"},{"type":"handle","offset":935,"length":12,"data":"yuliaataman"}],"date":"2020-06-29T17:49:36+00:00","link":"tg://resolve?domain=javascript_jobs_feed&post=16433","tags":[{"name":"javascript"},{"name":"dotnet"}],"cities":[{"code":"moscow"}],"allowsRemote":true}},{"node":{"__typename":"Job","id":"72293023744-1001054966032","title":"Mobile разработчик","text":"#вакансия #RN #reactnative #офис #москва #мск #remote #удаленка \nГород и адрес офиса:  #москва #мск  #арбатская\nФормат работы: офис, фултайм, гибкий график, можно удаленно (с редкими встречами в мск, поэтому важно, чтобы вы жили не очень далеко от мск)\nЗанятость: полная\nЗарплатная вилка: 180-250 т.р. net готовы обсуждать\nОписание вакансии: \nИщу сейчас RN разработчика в финтех проект (Openbanking, psd2) -  это новый продукт в онлайн покупках на европейском рынке, со своей «платежкой», которое сделает эту сферу более технологичной и еще проще и доступнее для пользователей:\n- новое удобное решение для b2c клиентов (мобильное приложение)\n- выгодные условия для b2b партнеров (низкие комиссии за транзакции)\n\nОформление белое, проект полностью с нуля, только собираем команду, есть возможность максимального влияния на продукт, на выбор технологий и построение процессов.\n\nНазвание компании:  Star-Staff\nКонтакты: пишите на этот тг @yuliaataman","markup":[{"type":"hashtag","offset":0,"length":9,"data":"вакансия"},{"type":"hashtag","offset":10,"length":3,"data":"RN"},{"type":"hashtag","offset":14,"length":12,"data":"reactnative"},{"type":"hashtag","offset":27,"length":5,"data":"офис"},{"type":"hashtag","offset":33,"length":7,"data":"москва"},{"type":"hashtag","offset":41,"length":4,"data":"мск"},{"type":"hashtag","offset":46,"length":7,"data":"remote"},{"type":"hashtag","offset":54,"length":9,"data":"удаленка"},{"type":"hashtag","offset":87,"length":7,"data":"москва"},{"type":"hashtag","offset":95,"length":4,"data":"мск"},{"type":"hashtag","offset":101,"length":10,"data":"арбатская"},{"type":"handle","offset":935,"length":12,"data":"yuliaataman"}],"date":"2020-06-29T16:37:14+00:00","link":"tg://resolve?domain=mobile_jobs&post=68944","tags":[{"name":"mobile"},{"name":"dotnet"}],"cities":[{"code":"moscow"}],"allowsRemote":true}},{"node":{"__typename":"Job","id":"104009302016-1001089317451","title":"Qa инженер","text":"#вакансия #qa #middle+ #москва #удаленнаяработа\n\nКомпания VMB -  мы создаём веб/мобильные приложения и сложные информационные системы. Мы расширяемся и ищем еще одного крутого тестировщика с коммерческим опытом работы (обязательно).\n\nЗадачи:\n- ручное, функциональное, интеграционное, регрессивное, нагрузочное тестирование веб/мобильных приложений\n- регистрация обнаруженных дефектов в багтрекинг-системе, отслеживание исправления дефектов и их повторное тестирование.\n\nЧто ждём от вас?\n- опыт тестирования веб и мобильных приложений от 2х лет\n- умение писать понятные и работающие тест-кейсы\n- опыт работы с багтрекинговыми системами\n\nМы предлагаем:\n- возможность работать удаленно \n- ЗП вилка 80к - 100к рублей на руки\n- участие в интересных и известных проектах\n- возможность карьерного роста и профессионального развития\n- гибкое начало рабочего дня\n\nКонтакты\n@nariarakel","markup":[{"type":"hashtag","offset":0,"length":9,"data":"вакансия"},{"type":"hashtag","offset":10,"length":3,"data":"qa"},{"type":"hashtag","offset":14,"length":7,"data":"middle"},{"type":"hashtag","offset":23,"length":7,"data":"москва"},{"type":"hashtag","offset":31,"length":16,"data":"удаленнаяработа"},{"type":"bold","offset":189,"length":28,"data":""},{"type":"italic","offset":323,"length":25,"data":""},{"type":"handle","offset":864,"length":11,"data":"nariarakel"}],"date":"2020-06-29T16:32:41+00:00","link":"tg://resolve?domain=qa_jobs&post=99191","tags":[{"name":"qa"}],"cities":[{"code":"moscow"}],"allowsRemote":true}}]}}},"context":{}}