{"hash":"f5f6bf98bd95e769321482904cbbd488f77922fd","data":{"records":{"id":"javascript","name":"javascript","belongsTo":{"totalCount":272,"pageInfo":{"totalPages":28,"currentPage":5},"edges":[{"node":{"__typename":"Job","id":"17286823936-1001110946746","title":"Js разработчик","text":"#вакансия #job #fulltime #frontend #спб #санкт_петербург\nВакансия: Frontend-разработчик\nКомпания: 4people https://the4people.com\nГород: Санкт-Петербург. ст.м. Обводный канал\nФормат работы: #офис\nЗанятость: #полная\nЗарплата : от 140 000 до 250 000 р. на руки💥\n\nПривет! Мы растем и активно развиваемся, поэтому ищем специалистов для работы в офисе нашей компании в Санкт-Петербурге. Это отличная возможность реализовать свои навыки и прокачаться ещё больше в команде профессионалов. Подробности в описании:\n\n🔷Задачи: \n- Разработка новых сервисов компании.\n- Оптимизация и поддержка текущих продуктов.\n- Наш стек: JavaScript, VueJS, YouTrack.\n\n🔷Добро пожаловать в нашу команду, если вы:\n- Имеете опыт разработки на JS.\n- Умеете использовать Git.\n- Знаете ООП, умеете применять на практике основные паттерны, не теряетесь при использовании объектно-ориентированного подхода в JS.\n- Знакомы с JS фреймворками (мы предпочитаем VueJS) либо являетесь гуру нативного JS.\n\n🔷Мы предлагаем:\n- Уровень заработной платы зависит от пожеланий и профессионально уровня кандидата.\n- Поездки на ИТ-конференции, митапы, учебные курсы за счет компании.\n- Возможность гибкого начала рабочего дня.\n- Бесплатные корпоративные обеды (шведский стол).\n- Абонемент в спорт зал за счет компании.\n\nБуду рада вопросам и резюме: \n✍️ @hrkaterina\n✉️ ekaterina.4people@gmail.com","markup":[{"type":"hashtag","offset":0,"length":9,"data":"вакансия"},{"type":"hashtag","offset":10,"length":4,"data":"job"},{"type":"hashtag","offset":15,"length":9,"data":"fulltime"},{"type":"hashtag","offset":25,"length":9,"data":"frontend"},{"type":"hashtag","offset":35,"length":4,"data":"спб"},{"type":"hashtag","offset":40,"length":16,"data":"санкт_петербург"},{"type":"link","offset":106,"length":22,"data":"https://the4people.com"},{"type":"hashtag","offset":189,"length":5,"data":"офис"},{"type":"hashtag","offset":206,"length":7,"data":"полная"},{"type":"handle","offset":1305,"length":11,"data":"hrkaterina"},{"type":"link","offset":1320,"length":27,"data":"mailto:ekaterina.4people@gmail.com"}],"date":"2020-07-01T09:19:24+00:00","link":"tg://resolve?domain=javascript_jobs_feed&post=16486","tags":[{"name":"javascript"},{"name":"vuejs"},{"name":"git"}],"cities":[],"allowsRemote":false}},{"node":{"__typename":"Job","id":"17284726784-1001110946746","title":"Js developer","text":"#вакансия #frontend #react #senior #Kyiv #Kiev #Киев  #vacancy #office #офис #fulltime \n\n📍Компания: Ninety Percent of Everything (https://openocean.studio)\n📍Локация: Киев, Майдан Независимости\n📍Формат: офис с возможностью 1-2 дня в неделю работать из дома\n📍Вилка от 3к$ до 6к$. \n\n✅ Основные требования:\n- React;\n- JavaScript core and TypeScript;\n- GraphQL using React Apollo;\n- Data structures and algorithms;\n- Data visualisations (i.e. charts via Highchart);\n- Global state management;\n- Unit testing with Jest;\n- CI/CD practices;\n\n 🖥 Обязанности:\n- Developing React applications for web.\n- Following modern JS and TypeScript best practices to deliver and support production ready industry quality code.\n- Being responsible for full lifecycle of applications. Developers will take the applications they build from design, through implementation and into production.\n- Contributing to developing and maintaining a core UI component library.\n- Working closely with designers to ensure delivery of the vision.\n- Regular and clear communication of progress to the squad product owner and technical lead.\n\n💥 Условия:\n- Flexible hours, possibility to work from home 1-2 times per week, no time-tracking. \nThe main thing is to accomplish your goals and deliver results on time;\n- State of the art, cool, centrally located office (Maidan Nezalezhnosti) with cozy atmosphere; \n- Competitive net salary in￡ (taxes are on us);\n- 25 business days of paid vacation;\n- Health insurance;\n- Occasional travels to client offices based in London.\n\nПо всем вопросам пишите в личку 😊\nTelegram: @IrynaDim\n\n—\n\n👉 Обсуждение вакансии в чате @javascript_jobs","markup":[{"type":"hashtag","offset":0,"length":9,"data":"вакансия"},{"type":"hashtag","offset":10,"length":9,"data":"frontend"},{"type":"hashtag","offset":20,"length":6,"data":"react"},{"type":"hashtag","offset":27,"length":7,"data":"senior"},{"type":"hashtag","offset":35,"length":5,"data":"Kyiv"},{"type":"hashtag","offset":41,"length":5,"data":"Kiev"},{"type":"hashtag","offset":47,"length":5,"data":"Киев"},{"type":"hashtag","offset":54,"length":8,"data":"vacancy"},{"type":"hashtag","offset":63,"length":7,"data":"office"},{"type":"hashtag","offset":71,"length":5,"data":"офис"},{"type":"hashtag","offset":77,"length":9,"data":"fulltime"},{"type":"link","offset":131,"length":24,"data":"https://openocean.studio"},{"type":"handle","offset":1583,"length":9,"data":"IrynaDim"},{"type":"handle","offset":1627,"length":16,"data":"javascript_jobs"}],"date":"2020-07-01T08:16:53+00:00","link":"tg://resolve?domain=javascript_jobs_feed&post=16484","tags":[{"name":"javascript"},{"name":"reactjs"},{"name":"typescript"},{"name":"graphql"},{"name":"web"},{"name":"dotnet"},{"name":"unit-testing"}],"cities":[{"code":"kiev"},{"code":"london"}],"allowsRemote":false}},{"node":{"__typename":"Job","id":"17281581056-1001110946746","title":"Javascript разработчик","text":"#вакансия #javascript #typescript \n\nFrontend-разработчик (удаленно или в офисе)\n\nBlogman\n\nГород и адрес офиса: \n— Санкт-Петербург\nФормат работы:           \n— офис в Санкт-Петербурге или удаленка по России \nЗанятость:                     \n— полная / full time\nЗарплатная вилка:       \n— от 80 000 до 300 000 рублей\n\nОсновной стек технологий — JavaScript, TypeScript, HTML/CSS. Сейчас мы разрабатываем бизнес-функционал приложения и будем рады новому специалисту в нашей команде, который вольется в проект и мы вместе будем делать frontend с нативным кодом и отзывчивым интерфейсом.\n\nМы ожидаем, что у вас есть:\n🔹Опыт коммерческой разработки от 3 лет\n🔹Хорошее знание JavaScript, TypeScript, HTML/CSS;\n\nРады предложить:\n🔹Возможность работать удаленно;\n🔹Желаемый оклад по результатам собеседования;\n🔹Cистему роста зарплаты каждые 6 месяцев\n\nКонтакт: @alinablogman\nhttps://spb.hh.ru/employer/3069197?customDomain=","markup":[{"type":"hashtag","offset":0,"length":9,"data":"вакансия"},{"type":"hashtag","offset":10,"length":11,"data":"javascript"},{"type":"hashtag","offset":22,"length":11,"data":"typescript"},{"type":"handle","offset":851,"length":13,"data":"alinablogman"},{"type":"link","offset":865,"length":48,"data":"https://spb.hh.ru/employer/3069197?customDomain="}],"date":"2020-07-01T07:49:17+00:00","link":"tg://resolve?domain=javascript_jobs_feed&post=16481","tags":[{"name":"javascript"},{"name":"typescript"},{"name":"html"},{"name":"css"}],"cities":[],"allowsRemote":true}},{"node":{"__typename":"Job","id":"17280532480-1001110946746","title":"Javascript разработчик","text":"#вакансия #удаленка #remote #react\n\nГород: любой\nФормат работы: удаленка\nЗанятость: полная, fulltime\nЗарплатная вилка: от 80.000 до 160.000 рублей \nНазвание компании: E-cetera\n\nОписание вакансии: Требуется react-разработчик\n\nЗадачи:\nРазработка компонентов и сервисов на реакте \nИнтеграция с API\nПожелания к опыту соискателя:\nОтличные знания JavaScript (у нас ES6+)\nОпыт работы с React/Redux от года\nОпыт в покрытии кода тестами (у нас Jest и Enzyme) \nОпыт разработки SPA приложений\nПомнить как верстать\n\nПлюсом будет\nОпыт использования redux-saga, reselect \nИспользование кодестайла eslint и airbnb\n\nКонтакты: azakharov@marfa.team \nTelegram: @toxuh","markup":[{"type":"hashtag","offset":0,"length":9,"data":"вакансия"},{"type":"hashtag","offset":10,"length":9,"data":"удаленка"},{"type":"hashtag","offset":20,"length":7,"data":"remote"},{"type":"hashtag","offset":28,"length":6,"data":"react"},{"type":"link","offset":610,"length":20,"data":"mailto:azakharov@marfa.team"},{"type":"handle","offset":642,"length":6,"data":"toxuh"}],"date":"2020-07-01T07:49:02+00:00","link":"tg://resolve?domain=javascript_jobs_feed&post=16480","tags":[{"name":"javascript"},{"name":"reactjs"},{"name":"redux"},{"name":"react-redux"}],"cities":[],"allowsRemote":true}},{"node":{"__typename":"Job","id":"17277386752-1001110946746","title":"Js разработчик","text":"#вакансия #вакансии #удаленная #работа #разработчик #remote #job #remotejob #full #stack #fullstack #software #engineer #develop #developer #node #react #amazon #aws #api #crm #erp #zoho #us #usa\n\n😎 Full Stack Software Engineer\n\nКомпания: Deep Consulting Solutions (Austin, Texas)\n\nМестоположение: Anywhere\n\nФормат работы: Remote \n\nЗанятость: Full Time, Flexible Schedule \n\nЗарплата: $20-80K в год. Compensation plan depends on level of ability, responsibility taken, and results delivered. Compensation consists of base and bonus pay.\n \nОписание вакансии:\n\nhttps://zfrmz.com/yIDN35yaj3apxsNfR9qS?src=irina-itrecruiter\n\nRequirements:\n\nYou must be:\n\n- A mature and responsible individual driven by results and not activities.\n- An individual with genuine interest in technology.\n- Willing to learn, grow, and admit mistakes.\n- Able to communicate with other people on the project's team effectively.\n \nSkills/Experience:\n\n- Node.js, React, SQL and NoSQL databases.\n- APIs.\n- Effective Written and Verbal English.\n- Basic Understanding of DevOps and SDLC.\n \nThe following will be a good plus:\n\n- Experience with Amazon AWS, serverless technologies, and microservices on its platform.\n- Experience with CRM and ERP systems such as Zoho and others.\n\nКак подать заявку:\n\nhttps://zfrmz.com/yIDN35yaj3apxsNfR9qS?src=irina-itrecruiter\n\nКонтакт:\n@Aagdan","markup":[{"type":"hashtag","offset":0,"length":9,"data":"вакансия"},{"type":"hashtag","offset":10,"length":9,"data":"вакансии"},{"type":"hashtag","offset":20,"length":10,"data":"удаленная"},{"type":"hashtag","offset":31,"length":7,"data":"работа"},{"type":"hashtag","offset":39,"length":12,"data":"разработчик"},{"type":"hashtag","offset":52,"length":7,"data":"remote"},{"type":"hashtag","offset":60,"length":4,"data":"job"},{"type":"hashtag","offset":65,"length":10,"data":"remotejob"},{"type":"hashtag","offset":76,"length":5,"data":"full"},{"type":"hashtag","offset":82,"length":6,"data":"stack"},{"type":"hashtag","offset":89,"length":10,"data":"fullstack"},{"type":"hashtag","offset":100,"length":9,"data":"software"},{"type":"hashtag","offset":110,"length":9,"data":"engineer"},{"type":"hashtag","offset":120,"length":8,"data":"develop"},{"type":"hashtag","offset":129,"length":10,"data":"developer"},{"type":"hashtag","offset":140,"length":5,"data":"node"},{"type":"hashtag","offset":146,"length":6,"data":"react"},{"type":"hashtag","offset":153,"length":7,"data":"amazon"},{"type":"hashtag","offset":161,"length":4,"data":"aws"},{"type":"hashtag","offset":166,"length":4,"data":"api"},{"type":"hashtag","offset":171,"length":4,"data":"crm"},{"type":"hashtag","offset":176,"length":4,"data":"erp"},{"type":"hashtag","offset":181,"length":5,"data":"zoho"},{"type":"hashtag","offset":187,"length":3,"data":"us"},{"type":"hashtag","offset":191,"length":4,"data":"usa"},{"type":"link","offset":559,"length":60,"data":"https://zfrmz.com/yIDN35yaj3apxsNfR9qS?src=irina-itrecruiter"},{"type":"link","offset":1267,"length":60,"data":"https://zfrmz.com/yIDN35yaj3apxsNfR9qS?src=irina-itrecruiter"},{"type":"handle","offset":1338,"length":7,"data":"Aagdan"}],"date":"2020-07-01T05:19:22+00:00","link":"tg://resolve?domain=javascript_jobs_feed&post=16477","tags":[{"name":"javascript"},{"name":"nodejs"},{"name":"reactjs"},{"name":"amazon-web-services"},{"name":"sql"},{"name":"nosql"}],"cities":[{"code":"austin"}],"allowsRemote":true}},{"node":{"__typename":"Job","id":"104108916736-1001089317451","title":"Qa engineer","text":"#вакансия #QA #тестировщик #middle #senior #москва #офис #fulltime\n\nКомпания: СберТех\nЛокация: г. Москва\nЗ/п: 130-250k\n \nСберТех приглашает в команду QA Engineer. Так же того, кто желает обучаться автоматизации на JS/CodeceptJS или уже состоявшегося автоматизатора\n\n💻 Делаем образовательную цифровую платформу - SaaS решение для персонализированного обучения в школах, IT Bootcamp Сбербанка. Сейчас масштабируемся и выходим на университеты\n\nСтек проекта:\nBack: Java 8+, Spring 5, SpringBoot 2, PostgreSQL, MongoDB, Flyway\n﻿Front: ReactJS, Typescript, Apollo-client, Styled-Components\nAutomationQA: API - Java/TestNG; UI - JavaScript/CodeceptJS\nInfracture: Jenkins, Allure, Bitbucket, Jira, EFK, Grafana\nEnvironment: Docker, Kubernetes, Ceph\n\nЧем предстоит заниматься:\n🔹проходить регресс текущего функционала\n🔹разрабатывать кейсы параллельно разработке нового функционала\n🔹проводить анализ требований для новых фич и давать свое заключение\n🔹участвовать в расширении тестовой модели\n🔹автоматизировать регресс, поддерживать старый функционал, писать тесты для новых фич\n\nОжидания от квалификации:\n🔹умение работать с DevTools, различать Get & Post-запросы\n🔹знание видов тестирования, умение отличить функциональное тестирование от нефункционального, понимание зачем и когда нужен regress, end-2-end и smoke testing\n🔹умение/желание тестировать UI\n🔹опыт работы с технической документацией, анализом макетов и составлением тестовой документации \n🔹умение чётко и внятно составлять баг-репорты в таск-трекере (у нас Jira)\n🔹умение писать понятные для других тест-кейсы без лишней информации\n🔹опыт взаимодействия с Rest-API\n\nПлюсом будет:\n🔹если слова cross platform testing & cross device testing не вызывают ступора, на примете есть полезные applications для тестирования UI\n🔹если уже ступил на путь познания JavaScript или Java\n🔹шапочное или личное знакомство с GraphQL\n🔹опыт работы в Agile-команде\n\nПредлагаем:\n✔достойную зарплату (оклад + высокая годовая премия) \n✔профессиональное развитие: конференции, митапы, обучение в Корпоративном университете Сбербанка\n✔ДМС, страховку от несчастных случаев, льготные условия ипотеки, скидки от компаний-партнеров, бесплатный тренажёрный зал\n✔офис А класса в БЦ «Северное Сияние» (5 мин от м. Савеловская), удалёнка до конца июля\n\nЕсли интересно - буду рада обсудить, вот мои контакты:\n📲 @karprokar\n📩 KVProlomova@sberbank.ru","markup":[{"type":"hashtag","offset":0,"length":9,"data":"вакансия"},{"type":"hashtag","offset":10,"length":3,"data":"QA"},{"type":"hashtag","offset":14,"length":12,"data":"тестировщик"},{"type":"hashtag","offset":27,"length":7,"data":"middle"},{"type":"hashtag","offset":35,"length":7,"data":"senior"},{"type":"hashtag","offset":43,"length":7,"data":"москва"},{"type":"hashtag","offset":51,"length":5,"data":"офис"},{"type":"hashtag","offset":57,"length":9,"data":"fulltime"},{"type":"bold","offset":68,"length":8,"data":""},{"type":"bold","offset":86,"length":7,"data":""},{"type":"bold","offset":105,"length":3,"data":""},{"type":"bold","offset":121,"length":40,"data":""},{"type":"bold","offset":442,"length":12,"data":""},{"type":"bold","offset":743,"length":24,"data":""},{"type":"bold","offset":1074,"length":24,"data":""},{"type":"bold","offset":1627,"length":12,"data":""},{"type":"bold","offset":1908,"length":10,"data":""},{"type":"handle","offset":2340,"length":10,"data":"karprokar"},{"type":"link","offset":2354,"length":23,"data":"mailto:KVProlomova@sberbank.ru"}],"date":"2020-06-30T20:08:43+00:00","link":"tg://resolve?domain=qa_jobs&post=99286","tags":[{"name":"qa"},{"name":"java"},{"name":"spring"},{"name":"postgresql"},{"name":"mongodb"},{"name":"reactjs"},{"name":"typescript"},{"name":"javascript"},{"name":"jenkins"},{"name":"docker"},{"name":"kubernetes"},{"name":"rest"},{"name":"graphql"}],"cities":[{"code":"moscow"}],"allowsRemote":true}},{"node":{"__typename":"Job","id":"17276338176-1001110946746","title":"Javascript разработчик","text":"#вакансия #react #junior #middle #работа #parttime #JavaScript #Frontend #Web\n\nГород и адрес офиса: Москва. \nФормат работы: Удаленная работа. \nЗанятость: Частичная. В ближайший месяц требуется фуллтайм и работы много, дальше почасово или по задачам.\n\nЗарплатная вилка: от 50.000 до 100.000 рублей на руки\n\nОписание вакансии: Требуется второй разработчик для разработки админки, который сверстает и запрограммирует второстепенные экраны. React. Делать необходимо только фронтенд-часть. Ответственные джуниоры приветствуются\n\nНазвание компании: Новая Газета\nКонтакты: @hector5555","markup":[{"type":"hashtag","offset":0,"length":9,"data":"вакансия"},{"type":"hashtag","offset":10,"length":6,"data":"react"},{"type":"hashtag","offset":17,"length":7,"data":"junior"},{"type":"hashtag","offset":25,"length":7,"data":"middle"},{"type":"hashtag","offset":33,"length":7,"data":"работа"},{"type":"hashtag","offset":41,"length":9,"data":"parttime"},{"type":"hashtag","offset":51,"length":11,"data":"JavaScript"},{"type":"hashtag","offset":63,"length":9,"data":"Frontend"},{"type":"hashtag","offset":73,"length":4,"data":"Web"},{"type":"handle","offset":566,"length":11,"data":"hector5555"}],"date":"2020-06-30T17:34:12+00:00","link":"tg://resolve?domain=javascript_jobs_feed&post=16476","tags":[{"name":"javascript"},{"name":"reactjs"},{"name":"web"}],"cities":[{"code":"moscow"}],"allowsRemote":false}},{"node":{"__typename":"Job","id":"17274241024-1001110946746","title":"Js разработчик","text":"Всем привет! \n\nИщу Frontend-разработчика в крупную инвестиционно-строительную компанию, реализующую свои проекты на рынке Москвы и Московской области. Топ-5 среди застройщиков Москвы и МО.\n\nНеобходимо будет разрабатывать проекты по управлению стройкой и её оптимизацией (планирование, распределение бюджетов, управление процессами на стройке и т.д.), а также для внешних пользователей сервис по покупке недвижимости (web и mobile-версии). Команда пока собрана небольшая - 12 человек. \nСтек: JavaScript (ES6) React +Redux + CSS + SCSS на фронтенде, Python (Django) на бекенде, React-Native - на мобильной разработке. \n\nПо требованиям: \n- опыт с React (от 1,5 лет)\n- опыт с JS (от 2-х лет)\n\nВилка ЗП 150-220k руб. на руки, офис в пяти минутах от ст. м. Кунцевская (г. Москва), есть возможность работать удаленно, отсутствие бюрократии, лояльное руководство, ДМС, возможность посещения конференций, курсов по повышению квалификации за счет работодателя.\n\nТип занятости: полная, офис, удаленка\nНазвание компании: Самолет Девелопмент\n\nКто заинтересовался - пишите в ЛС (@eivanova17),  буду оперативно отвечать 🙂 \n\n#работа #Москва #вакансия #job #react #reactjs #js #офис #удаленка","markup":[{"type":"handle","offset":1065,"length":11,"data":"eivanova17"},{"type":"hashtag","offset":1110,"length":7,"data":"работа"},{"type":"hashtag","offset":1118,"length":7,"data":"Москва"},{"type":"hashtag","offset":1126,"length":9,"data":"вакансия"},{"type":"hashtag","offset":1136,"length":4,"data":"job"},{"type":"hashtag","offset":1141,"length":6,"data":"react"},{"type":"hashtag","offset":1148,"length":8,"data":"reactjs"},{"type":"hashtag","offset":1157,"length":3,"data":"js"},{"type":"hashtag","offset":1161,"length":5,"data":"офис"},{"type":"hashtag","offset":1167,"length":9,"data":"удаленка"}],"date":"2020-06-30T16:39:47+00:00","link":"tg://resolve?domain=javascript_jobs_feed&post=16474","tags":[{"name":"javascript"},{"name":"web"},{"name":"mobile"},{"name":"reactjs"},{"name":"redux"},{"name":"css"},{"name":"python"},{"name":"django"},{"name":"react-redux"},{"name":"react-native"}],"cities":[{"code":"moscow"}],"allowsRemote":true}},{"node":{"__typename":"Job","id":"17273192448-1001110946746","title":"Js разработчик","text":"Всем привет!\n#вакансия #Frontend #React #PWA\nФормат работы: удаленка/возможен офис\nГород: г. Москва (м. Дмитровская), г. Минск (м. Грушевка)\nЗанятость: проектная/полная\nЗ/п: от 1200$ до 2500$\nКомпания: BSL (bsl.dev)\n\nСейчас ищем на иностранный проект Frontend разработчика для работы над PWA.\n\n🔸 Задачи:\nРазработка новых сервисов и приложений PWA;\nРабота с инфраструктурой React.JS;\nРабота совместно с тех. руководством, участие в принятии решения об архитектуре проекта;\nПроведение Code Review.\n🔸 Что нужно уметь:\nОпыт работы на JavaScript, знание стандартов ECMAScript;\nУмение создавать интерфейсы с использованием React;\nХорошее понимание принципов ФП, ООП и паттернов проектирования;\nЗнание и понимание Git.\n🔸 Что мы даем взамен:\nВозможность прокачки hard skills на проектах разного уровня сложности;\nКоманду с сильными разработчиками, QA, UX/UI дизайнерами, менеджерами и налаженными внутренними процессами;\nСамореализацию и профессиональный рост, посещение конференций и курсов за счет компании. Расскажите нам о своей профессиональной мечте, возможно мы поможем вам воплотить ее в жизнь;\nГрафик работы: удаленный или можно работать в офисе: г. Москва - м. Дмитровская, г. Минск - м. Грушевка;\n\nКонтакты: hr@bsl.dev или мой телеграм: @viktoriya_gw","markup":[{"type":"hashtag","offset":13,"length":9,"data":"вакансия"},{"type":"hashtag","offset":23,"length":9,"data":"Frontend"},{"type":"hashtag","offset":33,"length":6,"data":"React"},{"type":"hashtag","offset":40,"length":4,"data":"PWA"},{"type":"link","offset":207,"length":7,"data":"http://bsl.dev"},{"type":"link","offset":1214,"length":10,"data":"mailto:hr@bsl.dev"},{"type":"handle","offset":1243,"length":13,"data":"viktoriya_gw"}],"date":"2020-06-30T16:38:59+00:00","link":"tg://resolve?domain=javascript_jobs_feed&post=16473","tags":[{"name":"javascript"},{"name":"reactjs"},{"name":"git"}],"cities":[{"code":"moscow"},{"code":"minsk"}],"allowsRemote":true}},{"node":{"__typename":"Job","id":"17272143872-1001110946746","title":"Js разработчик","text":"#вакансия #frontend #JS #JavaScript\nГород и адрес офиса: Москва, м. Шаболовская\nФормат работы: Офис и удаленка\nЗанятость: полная\nЗарплатная вилка: от 90 000 до 130 000\nОписание вакансии: Мы высокотехнологичный платежный сервис с персонализированным подходом к каждому партнеру. Мы хотим и умеем менять рынок!\nЧем мы интересны для тебя:\no Сейчас запускаем процесс перехода с ASP.NET MVC на Angular - долой легаси.\no Пишем свой Angular UI Kit.\no Есть своя команда дизайнеров, но фантазировать не запрещаем.\no Если любишь сложности - есть высоконагруженные проекты с высокими требованиями к кроссбраузерности.\no Митапы, конференции за счет компании.\no Возможность работать удаленно - на время пандемии удаленка обязательна.                                                                                                               Подробно тут: https://geekjob.ru/vacancy/5ef9a95a28806b36183f315c\n\n\nНазвание компании: CloudPayments https://cloudpayments.ru/\nКонтакты: @akulovaeg или на почту hr@cloudpayments.ru","markup":[{"type":"hashtag","offset":0,"length":9,"data":"вакансия"},{"type":"hashtag","offset":10,"length":9,"data":"frontend"},{"type":"hashtag","offset":20,"length":3,"data":"JS"},{"type":"hashtag","offset":24,"length":11,"data":"JavaScript"},{"type":"link","offset":374,"length":7,"data":"http://ASP.NET"},{"type":"link","offset":845,"length":51,"data":"https://geekjob.ru/vacancy/5ef9a95a28806b36183f315c"},{"type":"link","offset":932,"length":25,"data":"https://cloudpayments.ru/"},{"type":"handle","offset":968,"length":10,"data":"akulovaeg"},{"type":"link","offset":992,"length":19,"data":"mailto:hr@cloudpayments.ru"}],"date":"2020-06-30T16:31:42+00:00","link":"tg://resolve?domain=javascript_jobs_feed&post=16472","tags":[{"name":"javascript"},{"name":"dotnet"},{"name":"angularjs"},{"name":"asp-net"},{"name":"asp-net-mvc"}],"cities":[{"code":"moscow"}],"allowsRemote":true}}]}}},"context":{}}