{"hash":"f5f6bf98bd95e769321482904cbbd488f77922fd","data":{"records":{"id":"qa","name":"qa","belongsTo":{"totalCount":208,"pageInfo":{"totalPages":21,"currentPage":5},"edges":[{"node":{"__typename":"Job","id":"104120451072-1001089317451","title":"Qa инженер","text":"#вакансия #middle #офис #fulltime #Москва \n\nВсем привет!\nВ связи с ростом проектов открыта вакансия Специалиста по тестированию/ QC в международную продуктовую финтех компанию CMA. Занимаются разработкой платежных систем, работающих на национальных масштабах.\n\nСейчас их решениями пользуются более 40-ка компаний в России (ВТБ24, Банк России, Московская Биржа и т.д.) и более 100 клиентов и за рубежом.\n\nЧем предстоит заниматься:\n- Практическое применение методик тест-дизайна и анализа тестового покрытия;\n- Проведение ручного тестирования (50%) и участие в разработке автоматизированных тестов (50%);\n- Анализ проектной документации, разработка тест-кейсов, чек-листов;\n- Анализ и заведение багов в Jira.\nЧто хотели бы видеть в профиле кандидата:\n- Опыт написания авто-тестов ( Java, Java Script, XSLT, HTML) + работа с фрэймворком для автоматизации тестирования ;\n- Знание основ SQL(на уровне простых запросов), практика работы с XML;\n- Опыт работы с программными продуктами: Oracle Database, VirtualBox, Jira, Confluence, Git, Toad, WireShark, багтрекерами или ALM системами (JIRA, HP ALM и другие).\nЧто готовы предложить:\n- Заработная плата от 100 000 net;\n- Гибкое начало рабочего дня;\n- Офис на станции метро Динамо, бесплатный автобус до БЦ;\n- Наличие свободных парковочных мест рядом с БЦ;\n- Оплата обедов;\n- Страхование жизни и для поездок за пределы РФ.\n\nЕсли вакансия заинтересовала, можете откликаться на HH: https://hh.ru/vacancy/37770841\nИли пишите в ЛС @astarichkova","markup":[{"type":"hashtag","offset":0,"length":9,"data":"вакансия"},{"type":"hashtag","offset":10,"length":7,"data":"middle"},{"type":"hashtag","offset":18,"length":5,"data":"офис"},{"type":"hashtag","offset":24,"length":9,"data":"fulltime"},{"type":"hashtag","offset":34,"length":7,"data":"Москва"},{"type":"bold","offset":100,"length":31,"data":""},{"type":"bold","offset":176,"length":3,"data":""},{"type":"bold","offset":404,"length":26,"data":""},{"type":"bold","offset":707,"length":42,"data":""},{"type":"bold","offset":1104,"length":23,"data":""},{"type":"italic","offset":1366,"length":116,"data":""},{"type":"link","offset":1422,"length":30,"data":"https://hh.ru/vacancy/37770841"},{"type":"handle","offset":1469,"length":13,"data":"astarichkova"}],"date":"2020-07-01T08:46:53+00:00","link":"tg://resolve?domain=qa_jobs&post=99297","tags":[{"name":"qa"},{"name":"java"},{"name":"xslt"},{"name":"html"},{"name":"sql"},{"name":"xml"},{"name":"oracle"},{"name":"git"},{"name":"dotnet"}],"cities":[{"code":"moscow"}],"allowsRemote":false}},{"node":{"__typename":"Job","id":"104117305344-1001089317451","title":"Qa engineer","text":"#вакансия #удаленка #QA #parttime\n\nИщу тестировщика в стартап Neatsy, который поможет с нуля выстроить процесс тестирования. Сейчас у нас приложение только для iOS, релизы раз в 2 недели. \n\n🎱 QA engineer\n🎱 Neatsy AI\n🎱 удаленная работа\n🎱 30-40к за 10 часов в неделю\n\nNeatsy - это приложение которое помогает выбрать самые удобные кроссовки и заказать правильный размер в интернете. Скачиваешь приложение и сканируешь ноги с помощью своего телефона. Затем наша рекомендательная система покажет рейтинг удобства для каждой пары кроссовок и скажет какой размер лучше всего подойдет именно тебе.\n\nЗадачи:\n ⁃ внедрение процесса тестирования приложения\n ⁃ составление тест-кейсов и чек-листов и поддержание их в актуальном состоянии\n ⁃ составление и поддержание документации\n\nТребования:\n ⁃ опыт тестирования мобильных приложений\n ⁃ опыт работы в стартапах\n ⁃ скорость\n ⁃ внимание к деталям\n\nУсловия:\n ⁃ классная команда\n ⁃ возможность учиться и прокачиваться\n\nПисать мне в личку: @voropavlik","markup":[{"type":"hashtag","offset":0,"length":9,"data":"вакансия"},{"type":"hashtag","offset":10,"length":9,"data":"удаленка"},{"type":"hashtag","offset":20,"length":3,"data":"QA"},{"type":"hashtag","offset":24,"length":9,"data":"parttime"},{"type":"handle","offset":978,"length":11,"data":"voropavlik"}],"date":"2020-07-01T08:09:03+00:00","link":"tg://resolve?domain=qa_jobs&post=99294","tags":[{"name":"qa"},{"name":"ios"}],"cities":[],"allowsRemote":true}},{"node":{"__typename":"Job","id":"104112062464-1001089317451","title":"Qa инженер","text":"QA\n\n#QA #тестировщик #россия #APi\n#ручноетестирование #middle #senior #тестирование #вакансия\nВ нашей молодой концептуальной IT-компании ООО \"Сколопендра\" (www.skolopendra.com) на данный момент открыта позиция QA тестировщика.\nВид деятельности  нашей Компании: ИТ-разработка полного цикла. \nСпециализация: высоконагруженные промышленные системы, процессинги данных, СППР, AI, запуск стартап-идей под ключ, электротехника.\nНаправление деятельности: технологический партнер для внешних заказчиков/собственные Hard&Soft Продукты.\n\n\n\nQA \n\nТребуемые знания, навыки, опыт\n• Знание основных технологий и методов тестирования\n• Понимание процесса разработки и тестирования ПО\n• Хорошие знания в области тест-дизайна\n• Опыт работы с баг-трекинговыми системами (jira)\n• Понимание основных принципов REST API\n• Опыт работы в тестировании от 1,5 лет\n• Высшее образование (предпочтительно техническое)\n\nБудет плюсом:\n• Базовые знания Java будут плюсом\n• Опыт автоматизации тестирования будет плюсом\n• Базовые знания технологии блокчейн и принципов работы бирж будут плюсом\nТакже мы ждем от кандидатов:\n• Умение работать в команде\n• Ответственность, самостоятельность, инициативность\n• Умение работать в условиях большого количества задач, оперативная реакция на задачи\n• Внимание к деталям, способность анализировать информацию\n• Стремление к саморазвитию, обучению, повышению технических компетенций\nФункциональные обязанности:\n• Проведение ручного функционального и регрессионного тестирования\n• Локализация, документирование, проверка дефектов\n• Разработка и актуализация тестовых планов, тестовых сценариев\n• Оценка трудоемкости задач\n• Работа с требованиями и документацией\nЗанятость : фултайм 5/2 на удалёнке Зарплатная вилка:600-800/час\n#iOS\n#Android\n#mobiledevelopment \n#crossplatform #flutter #kotlinnative\n#мобильнаяразработка #вакансия\n\nКомпания ООО “СКОЛОПЕНДРА” (www.skolopendra.com) приглашает целеустремленных и одаренных в наш дружный коллектив. \nДавай вместе делать интересные проекты в современных стеках технологий. А мы предоставим возможности для скорейшего профессионального и личностного роста.\n\nВид деятельности Компании: ИТ-разработка полного цикла. \nСпециализация: высоконагруженные промышленные системы, процессинги данных, СППР, AI, запуск стартап-идей под ключ, электротехника.\nНаправление деятельности: технологический партнер для внешних заказчиков/собственные Hard&Soft Продукты.\n\nОфис: Москва, м.Павелецкая, Космодамианская наб., 52/10\nФормат работы: в офисе/удаленно\nЗанятость: full-time (целевой формат) /part-time (возможный старт)\nЗП: по итогам собеседования, 3-х месячный цикл пересмотра grade\nОформление: по ТК\n\nДолжность: Mid/Mid+/Sen\nКонтакты: team@skolopendra.com\nТелеграмм : @Tufelka1","markup":[{"type":"hashtag","offset":4,"length":3,"data":"QA"},{"type":"hashtag","offset":8,"length":12,"data":"тестировщик"},{"type":"hashtag","offset":21,"length":7,"data":"россия"},{"type":"hashtag","offset":29,"length":4,"data":"APi"},{"type":"hashtag","offset":34,"length":19,"data":"ручноетестирование"},{"type":"hashtag","offset":54,"length":7,"data":"middle"},{"type":"hashtag","offset":62,"length":7,"data":"senior"},{"type":"hashtag","offset":70,"length":13,"data":"тестирование"},{"type":"hashtag","offset":84,"length":9,"data":"вакансия"},{"type":"link","offset":156,"length":19,"data":"http://www.skolopendra.com"},{"type":"hashtag","offset":1731,"length":4,"data":"iOS"},{"type":"hashtag","offset":1736,"length":8,"data":"Android"},{"type":"hashtag","offset":1745,"length":18,"data":"mobiledevelopment"},{"type":"hashtag","offset":1765,"length":14,"data":"crossplatform"},{"type":"hashtag","offset":1780,"length":8,"data":"flutter"},{"type":"hashtag","offset":1789,"length":13,"data":"kotlinnative"},{"type":"hashtag","offset":1803,"length":20,"data":"мобильнаяразработка"},{"type":"hashtag","offset":1824,"length":9,"data":"вакансия"},{"type":"link","offset":1863,"length":19,"data":"http://www.skolopendra.com"},{"type":"link","offset":2672,"length":20,"data":"mailto:team@skolopendra.com"},{"type":"handle","offset":2705,"length":9,"data":"Tufelka1"}],"date":"2020-07-01T00:06:52+00:00","link":"tg://resolve?domain=qa_jobs&post=99289","tags":[{"name":"qa"},{"name":"rest"},{"name":"java"},{"name":"ios"},{"name":"android"},{"name":"flutter"}],"cities":[{"code":"moscow"}],"allowsRemote":true}},{"node":{"__typename":"Job","id":"104108916736-1001089317451","title":"Qa engineer","text":"#вакансия #QA #тестировщик #middle #senior #москва #офис #fulltime\n\nКомпания: СберТех\nЛокация: г. Москва\nЗ/п: 130-250k\n \nСберТех приглашает в команду QA Engineer. Так же того, кто желает обучаться автоматизации на JS/CodeceptJS или уже состоявшегося автоматизатора\n\n💻 Делаем образовательную цифровую платформу - SaaS решение для персонализированного обучения в школах, IT Bootcamp Сбербанка. Сейчас масштабируемся и выходим на университеты\n\nСтек проекта:\nBack: Java 8+, Spring 5, SpringBoot 2, PostgreSQL, MongoDB, Flyway\n﻿Front: ReactJS, Typescript, Apollo-client, Styled-Components\nAutomationQA: API - Java/TestNG; UI - JavaScript/CodeceptJS\nInfracture: Jenkins, Allure, Bitbucket, Jira, EFK, Grafana\nEnvironment: Docker, Kubernetes, Ceph\n\nЧем предстоит заниматься:\n🔹проходить регресс текущего функционала\n🔹разрабатывать кейсы параллельно разработке нового функционала\n🔹проводить анализ требований для новых фич и давать свое заключение\n🔹участвовать в расширении тестовой модели\n🔹автоматизировать регресс, поддерживать старый функционал, писать тесты для новых фич\n\nОжидания от квалификации:\n🔹умение работать с DevTools, различать Get & Post-запросы\n🔹знание видов тестирования, умение отличить функциональное тестирование от нефункционального, понимание зачем и когда нужен regress, end-2-end и smoke testing\n🔹умение/желание тестировать UI\n🔹опыт работы с технической документацией, анализом макетов и составлением тестовой документации \n🔹умение чётко и внятно составлять баг-репорты в таск-трекере (у нас Jira)\n🔹умение писать понятные для других тест-кейсы без лишней информации\n🔹опыт взаимодействия с Rest-API\n\nПлюсом будет:\n🔹если слова cross platform testing & cross device testing не вызывают ступора, на примете есть полезные applications для тестирования UI\n🔹если уже ступил на путь познания JavaScript или Java\n🔹шапочное или личное знакомство с GraphQL\n🔹опыт работы в Agile-команде\n\nПредлагаем:\n✔достойную зарплату (оклад + высокая годовая премия) \n✔профессиональное развитие: конференции, митапы, обучение в Корпоративном университете Сбербанка\n✔ДМС, страховку от несчастных случаев, льготные условия ипотеки, скидки от компаний-партнеров, бесплатный тренажёрный зал\n✔офис А класса в БЦ «Северное Сияние» (5 мин от м. Савеловская), удалёнка до конца июля\n\nЕсли интересно - буду рада обсудить, вот мои контакты:\n📲 @karprokar\n📩 KVProlomova@sberbank.ru","markup":[{"type":"hashtag","offset":0,"length":9,"data":"вакансия"},{"type":"hashtag","offset":10,"length":3,"data":"QA"},{"type":"hashtag","offset":14,"length":12,"data":"тестировщик"},{"type":"hashtag","offset":27,"length":7,"data":"middle"},{"type":"hashtag","offset":35,"length":7,"data":"senior"},{"type":"hashtag","offset":43,"length":7,"data":"москва"},{"type":"hashtag","offset":51,"length":5,"data":"офис"},{"type":"hashtag","offset":57,"length":9,"data":"fulltime"},{"type":"bold","offset":68,"length":8,"data":""},{"type":"bold","offset":86,"length":7,"data":""},{"type":"bold","offset":105,"length":3,"data":""},{"type":"bold","offset":121,"length":40,"data":""},{"type":"bold","offset":442,"length":12,"data":""},{"type":"bold","offset":743,"length":24,"data":""},{"type":"bold","offset":1074,"length":24,"data":""},{"type":"bold","offset":1627,"length":12,"data":""},{"type":"bold","offset":1908,"length":10,"data":""},{"type":"handle","offset":2340,"length":10,"data":"karprokar"},{"type":"link","offset":2354,"length":23,"data":"mailto:KVProlomova@sberbank.ru"}],"date":"2020-06-30T20:08:43+00:00","link":"tg://resolve?domain=qa_jobs&post=99286","tags":[{"name":"qa"},{"name":"java"},{"name":"spring"},{"name":"postgresql"},{"name":"mongodb"},{"name":"reactjs"},{"name":"typescript"},{"name":"javascript"},{"name":"jenkins"},{"name":"docker"},{"name":"kubernetes"},{"name":"rest"},{"name":"graphql"}],"cities":[{"code":"moscow"}],"allowsRemote":true}},{"node":{"__typename":"Job","id":"104091090944-1001089317451","title":"Qa инженер","text":"#вакансия #спб #питер #fulltime #mobiletester #mobileqa\n\n🚀Mobile QA (в офис)\n70-90k\n\nО компании:\nНаПоправку.Ру - медицинский онлайн-сервис: поиск врача по отзывам и real time запись на приём в частные и государственные клиники. Именно мы партнеры суперприложения Тинькофф в блоке «Здоровье». Мы помогаем более 1 млн. пользователей в месяц. Сайт + сейчас создаём первое приложение (нативное).\n\nЦель должности:\n🔸Стать первым тестировщиком мобильного приложения продуктовой команды;\n🔸Настроить процесс тестирования, сделать все «как надо» с самого начала;\n🔸Не позволять багам просачиваться на прод и расстраивать пользователей.\n\nПочему точно стоит идти к нам:\n🔸Возможность применить всю экспертизу;\n🔸 Социально-значимый проект, его пользователи - простые люди как ты и я;\n🔸Гибкое начало рабочего дня (с 8 до 11);\n🔸Официальное оформление и «белая» зарплата;\n🔸ДМС;\n🔸У нас есть софинансирование командных активностей;\n🔸Программа опционов для ключевых сотрудников;\n🔸Офис (в нем снеки и прочее) на ВО;\nЗарплата:\n🔸Гибко обсуждаем, вилка для ориентира 70-90k\n\nЧего мы ждём от тебя:\n🔸Высшее техническое образование, курсы по тестированию - это всегда плюс;\n🔸Более года тестировал/а мобильные приложения в связке с API (не только клиентскую часть) - это must;\n🔸Навыки автоматизации тестирования будут супер плюсом!\n🔸Внимателен/а к деталям, требователен/а к себе и окружающим.\n\nВопросы и резюме к @Vasilisa_bu","markup":[{"type":"hashtag","offset":0,"length":9,"data":"вакансия"},{"type":"hashtag","offset":10,"length":4,"data":"спб"},{"type":"hashtag","offset":15,"length":6,"data":"питер"},{"type":"hashtag","offset":22,"length":9,"data":"fulltime"},{"type":"hashtag","offset":32,"length":13,"data":"mobiletester"},{"type":"hashtag","offset":46,"length":9,"data":"mobileqa"},{"type":"bold","offset":59,"length":25,"data":""},{"type":"bold","offset":86,"length":10,"data":""},{"type":"bold","offset":394,"length":14,"data":""},{"type":"bold","offset":630,"length":30,"data":""},{"type":"bold","offset":1063,"length":21,"data":""},{"type":"bold","offset":1382,"length":19,"data":""},{"type":"handle","offset":1401,"length":12,"data":"Vasilisa_bu"}],"date":"2020-06-30T15:43:50+00:00","link":"tg://resolve?domain=qa_jobs&post=99269","tags":[{"name":"qa"},{"name":"mobile"}],"cities":[],"allowsRemote":false}},{"node":{"__typename":"Job","id":"104086896640-1001089317451","title":"Qa инженер","text":"#вакансия #спб #питер #fulltime #QALead\n\n🚀Старший тестировщик/ QA Lead (в офис)\n130-170k\n\nО компании:\nНаПоправку.Ру - медицинский онлайн-сервис: поиск врача по отзывам и real time запись на приём в частные и государственные клиники. Именно мы партнеры суперприложения Тинькофф в блоке «Здоровье». Мы помогаем более 1 млн. пользователей в месяц. Сайт + сейчас создаём первое приложение (нативное).\n\nЦель должности:\n🔸Настроить процесс тестирования, предлагать и внедрять инструменты чтобы повышать эффективность тестов;\n🔸Запустить автотесты;\n🔸Формировать и развивать команду (сейчас 4 тестировщика и 15 разработчиков);\n🔸Тестировать сайт и мобильное приложение;\n🔸Не позволять багам просачиваться на прод и расстраивать пользователей.\n\nПочему точно стоит идти к нам:\n🔸Возможность выстроить и наладить процесс, сделать «как надо»;\n🔸 Социально-значимый проект, его пользователи - простые люди как ты и я;\n🔸Гибкое начало рабочего дня (с 8 до 11);\n🔸Официальное оформление и «белая» зарплата;\n🔸ДМС;\n🔸У нас есть софинансирование командных активностей;\n🔸Программа опционов для ключевых сотрудников;\n🔸Офис (в нем снеки и прочее) на ВО;\nЗарплата:\n🔸Гибко обсуждаем, вилка 130-170k\n\nЧего мы ждём от тебя:\n🔸Высшее техническое образование, курсы по тестированию;\n🔸Более 2х лет работал/а в IT-компаниях с хорошо выстроенным процессом тестирования, есть опыт автоматизации;\n🔸Работал/а с Git, Docker, SSH, Selenium, Jenkins;\n🔸Внимателен/а к деталям, требователен/а к себе и окружающим.\n\nВопросы и резюме к @Vasilisa_bu","markup":[{"type":"hashtag","offset":0,"length":9,"data":"вакансия"},{"type":"hashtag","offset":10,"length":4,"data":"спб"},{"type":"hashtag","offset":15,"length":6,"data":"питер"},{"type":"hashtag","offset":22,"length":9,"data":"fulltime"},{"type":"hashtag","offset":32,"length":7,"data":"QALead"},{"type":"bold","offset":43,"length":58,"data":""},{"type":"bold","offset":103,"length":14,"data":""},{"type":"bold","offset":399,"length":14,"data":""},{"type":"bold","offset":738,"length":31,"data":""},{"type":"bold","offset":1138,"length":8,"data":""},{"type":"bold","offset":1183,"length":20,"data":""},{"type":"bold","offset":1486,"length":18,"data":""},{"type":"handle","offset":1505,"length":12,"data":"Vasilisa_bu"}],"date":"2020-06-30T15:26:56+00:00","link":"tg://resolve?domain=qa_jobs&post=99265","tags":[{"name":"qa"},{"name":"git"},{"name":"docker"},{"name":"ssh"},{"name":"selenium"},{"name":"jenkins"}],"cities":[],"allowsRemote":false}},{"node":{"__typename":"Job","id":"104080605184-1001089317451","title":"Qa engineer","text":"#вакансия #TestAutomation #Java #JS #НижнийНовгород #Казань #MERA\n💼  Java and JS Test Automation Engineers\n🔹 Формат работы: office (до конца лета 2020 remote)\n🔹 Локация офисов: НН, Казань (бонус при релокации)\n🔹 Занятость: full-time\n🔹 Опыт: от 2х лет (Test Automation)\n🔹 Английский язык:  Чтение и написание документации не ниже pre-intermediate\n🏢 О компании: MERA (крупная международная компания) сейчас быстро растет. В связи со стартом масштабного проекта наш крупный Заказчик, ведущий поставщик глобальных корпоративных облачных коммуникаций и решений для бизнеса, расширяет команду Test Automation Engineers. Открыто более 10 вакансий на Java and JS Test Automation.\n📁 О проекте:\nПроект по разработке высоконагруженных сервисов облачной телефонии для физических лиц и глобальных корпораций. Продукт объединяет в себе возможности телефонии, видеосвязи, организации встреч и обмен сообщениями в одном надежном, простом в использовании решении.\n👉🏻Подробнее о компании и проекте: https://www.youtube.com/watch?v=V9l0TkZWHfI\n✔ Обязанности: \n- Разработка и поддержка тест-планов и сценариев.\n- Автоматизация тестовых сценариев, сопровождение библиотеки автотестов.\n- Участие в разработке тестового фреймворка.\n- Запуск тестовых скриптов, анализ результатов прогона на разных окружениях, поддержка CI.\n🔹 Гибкая метология: Scrum/Agile\n👋  Команда: Работаем в рамках распределённой (Вильнюс, НН, Казань, Дзержинск), совмещённой с заказчиком команды.  80% - Test Automation Engineers, 20% - Software Developers.\n🙌 Мы предлагаем:\n• Официальное трудоустройство, полностью белая зарплата + премиальная система\n• Участие в перспективных масштабных международных проектах. Заказчики: Северная Америка, Западная Европа.\n• ДМС после прохождения испытательного срока (3 месяца).\n• Широкие возможности профессионального развития (участие в митапах, конференциях, корпоративные программы обучения) и карьерного роста.\n\n💵Бонус за рекомендацию: 60 000 рублей за Middle и 80 000 рублей за Senior.\nЗП стартуем от 70000\nКонтакты:  telegram: @nazahvat, natalya.zakhvatova@orioninc.com","markup":[{"type":"hashtag","offset":0,"length":9,"data":"вакансия"},{"type":"hashtag","offset":10,"length":15,"data":"TestAutomation"},{"type":"hashtag","offset":26,"length":5,"data":"Java"},{"type":"hashtag","offset":32,"length":3,"data":"JS"},{"type":"hashtag","offset":36,"length":15,"data":"НижнийНовгород"},{"type":"hashtag","offset":52,"length":7,"data":"Казань"},{"type":"hashtag","offset":60,"length":5,"data":"MERA"},{"type":"link","offset":991,"length":43,"data":"https://www.youtube.com/watch?v=V9l0TkZWHfI"},{"type":"handle","offset":2034,"length":9,"data":"nazahvat"},{"type":"link","offset":2045,"length":31,"data":"mailto:natalya.zakhvatova@orioninc.com"}],"date":"2020-06-30T13:52:02+00:00","link":"tg://resolve?domain=qa_jobs&post=99259","tags":[{"name":"qa"},{"name":"java"}],"cities":[{"code":"kazan"},{"code":"vilnius"},{"code":"dzerzhinsk"}],"allowsRemote":true}},{"node":{"__typename":"Job","id":"104078508032-1001089317451","title":"Qa engineer","text":"#вакансия #QA  #QAEngineer # relocation #Praha\nВакансия: Manual QA Engineer\nГород:  #Прага \nЗарплата: 💸45 000-65 000 czk gross\nФормат: #удаленно  #офис\nКомпания: Slotegrator\n\nЗадачи:\n•  Разработка и проведение ручного, функционального, регрессионного тестирования\n•  Анализ и уточнение требований, разработка и ведение тест кейсов в рамках назначенных проектов.\n•  Разработка и поддержка тестовой документации;\n•  Документирование процессов тестирования, контроль актуальности тест-кейсов\n•  Тестирование назначенных проектов или функционала (область ответственности - этап разработки и согласования требований, этап разработки и проведения тестов)\n•  Отладка программных продуктов с использованием систематических тестов\n•  Работать в тесном сотрудничестве с командой разработчиков\n\nТребования:\n•  2+ года опыта в ручных тестовых случаях, разработке сценариев тестирования, написание тестовых сценариев\n•  Знание основных критериев качества требований к ПО\n•  Знания в области тестирования и работа на веб / клиент-сервер / мобильные приложения\n•  Хорошее знание процессов тестирования, знания тестовой документации\n•  Хороший опыт анализа, устранения неполадок и решения проблем\n\nБудут преимуществом:\n•  Опыт тестирования API / веб-сервисов (Web API) и мобильных устройств\n•  Знания SQL\n\nЧто мы предлагаем?🍩\n•  Работу на различных интересных международных проектах \n•  Визовая поддержка и частичная компенсации расходов на переезд в Чехию\n•  Уроки английского и чешского языков каждую неделю \n•  Гибкое начало рабочего дня \n•  Бизнес коуч\n•  Карта MultiSport\n•  Бесплатные обеды по средам и вкусные снэки каждый день\n\nБудь частью крутых проектов!🤝\n\nКонтакты: recruiting@slotegrator.com / tlg @DarinaRecruitment","markup":[{"type":"hashtag","offset":0,"length":9,"data":"вакансия"},{"type":"hashtag","offset":10,"length":3,"data":"QA"},{"type":"hashtag","offset":15,"length":11,"data":"QAEngineer"},{"type":"hashtag","offset":40,"length":6,"data":"Praha"},{"type":"hashtag","offset":84,"length":6,"data":"Прага"},{"type":"hashtag","offset":136,"length":9,"data":"удаленно"},{"type":"hashtag","offset":147,"length":5,"data":"офис"},{"type":"link","offset":1664,"length":26,"data":"mailto:recruiting@slotegrator.com"},{"type":"handle","offset":1697,"length":18,"data":"DarinaRecruitment"}],"date":"2020-06-30T13:34:11+00:00","link":"tg://resolve?domain=qa_jobs&post=99257","tags":[{"name":"qa"},{"name":"web"},{"name":"sql"}],"cities":[{"code":"prague"}],"allowsRemote":true}},{"node":{"__typename":"Job","id":"104071168000-1001089317451","title":"Qa engineer","text":"#вакансия #qaautomation #fulltime #удаленка #москва #криптериум\n\nQA automation engineer/QA engineer (100.000-250.000)\n\n\n\nПривет!\n\nМы команда Crypterium!\n\nМы международный финтех стартап.\n\nМы строим банк будущего, который поддерживает криптофиатные операции.\n\nНаша цель – создание сервиса, который фактически займёт место традиционных банков, по всем возможным банковским операциям!\n\nУ нас сложные, но интересные задачи по созданию крутого и по-настоящему полезного продукта для людей из разных стран по всему миру. Работа у нас-реальная возможность приложить руку к крутому продукту, которым будет пользоваться большое количество людей.\n\nНа данный момент наша компания активно растет и развивается, в связи с этим мы ищем QA autimation enginer .Нам нужен по-настоящему проактивный и ответственный сотрудник. Задач много, они разные и крайне интересные\n\n🟢Что предстоит делать?\n\n-Тестировать веб и мобильную версию нашего продукта (РФТ)\n\n-Фиксировать ошибки и писать отчёты по результатам тест-кейсов\n\n-Писать автотесты по тест-кейсам\n\n-Осуществлять исследовательское тестирование\n\n-Взаимодействовать с командой разработки\n\n🟢Какие skill’s мы хотим видеть в нашем будущем коллеге?\n\n-Опыт функционального тестирования web и mobile приложений от 1 года\n-Английский язык на уровне чтения документации\n-Опыт работы в Jira, Confluence\n-Написание автотестов на Java+JUnit\n-Опыт работы с Rest API\n-Знакомство с Postman, Fiddler, Swagger\n-Опыт работы в PostgreSQL\n-Понимание принципов CI/CD\n-Минимальные навыки программирования\n-Опыт написание автоматизированных тестов (Java+JUnit, Postman, Fiddler, Swagger, понимание Rest API)\n\n\n🟢Как преимущество:\n\n-Опыт проведения нагрузочного тестирования\n-Понимание, как работают основные сервисы AWS\n-Знание Kotlin/.Net\n-Опыт работы с TeamCity/GitLab\n\n\n🟢Что мы готовы предложить будущему коллеге?\n\n-По настоящему заряженная команда профессионалов\n-Офис в Москва Сити с видом на Москва реку\n-Удаленная работа, с возможностью приезжать в офис, гибкое начало рабочего дня (c 9 до 12)\n-Возможности профессионально развиваться и расти\n\nКонтакты: \nКристина +79161262306 (WhatsApp)\n@kriskrisych telegram\nИли пишите в ЛС.","markup":[{"type":"hashtag","offset":0,"length":9,"data":"вакансия"},{"type":"hashtag","offset":10,"length":13,"data":"qaautomation"},{"type":"hashtag","offset":24,"length":9,"data":"fulltime"},{"type":"hashtag","offset":34,"length":9,"data":"удаленка"},{"type":"hashtag","offset":44,"length":7,"data":"москва"},{"type":"hashtag","offset":52,"length":11,"data":"криптериум"},{"type":"link","offset":2085,"length":12,"data":"tel:+79161262306"},{"type":"handle","offset":2109,"length":12,"data":"kriskrisych"}],"date":"2020-06-30T12:31:02+00:00","link":"tg://resolve?domain=qa_jobs&post=99250","tags":[{"name":"qa"},{"name":"web"},{"name":"mobile"},{"name":"java"},{"name":"junit"},{"name":"rest"},{"name":"swagger"},{"name":"postgresql"},{"name":"amazon-web-services"},{"name":"kotlin"},{"name":"dotnet"},{"name":"gitlab"}],"cities":[{"code":"moscow"}],"allowsRemote":true}},{"node":{"__typename":"Job","id":"104052293632-1001089317451","title":"Qa engineer","text":"#вакансия #QA  #QAEngineer\n #удаленка\n\nВакансия: QA Engineer\nГород:  #Москва \nЗарплата: 110 gross\nФормат: #удаленно  #офис\nКомпания: 🅰 Альфа-банк\n\n🔺 Чем вы должны обладать?\n\n•  Опытом работы в тестировании от 1 года\n•  Опытом интеграционного тестирования от 1 года\n•  Знанием и опытом применения техник тест-дизайна\n•  Опытом написания тест-кейсов, чек-листов, тест-планов\n•  Знанием SQL на среднем уровне\n•  Опытом тестирования API (Rest/Soap)\n•  Пониманием принципов работы клиент-серверной архитектуры\n\n\n🔺 Что мы предлагаем?\n\n• Стабильный и прозрачный доход + квартальные премии по итогам работы\n• Гибкий график работы\n• Расширенное ДМС со стоматологией, страхование жизни\n• Эксклюзивные предложения от банка только для сотрудников\n\n☎ Контакты: @kkristinak","markup":[{"type":"hashtag","offset":0,"length":9,"data":"вакансия"},{"type":"hashtag","offset":10,"length":3,"data":"QA"},{"type":"hashtag","offset":15,"length":11,"data":"QAEngineer"},{"type":"hashtag","offset":28,"length":9,"data":"удаленка"},{"type":"hashtag","offset":69,"length":7,"data":"Москва"},{"type":"hashtag","offset":106,"length":9,"data":"удаленно"},{"type":"hashtag","offset":117,"length":5,"data":"офис"},{"type":"handle","offset":751,"length":11,"data":"kkristinak"}],"date":"2020-06-30T11:01:39+00:00","link":"tg://resolve?domain=qa_jobs&post=99232","tags":[{"name":"qa"},{"name":"sql"},{"name":"rest"},{"name":"soap"}],"cities":[{"code":"moscow"}],"allowsRemote":true}}]}}},"context":{}}