{"hash":"f34fd2c444a074f4e0e67d525015a008ef8e766f","data":{"records":{"id":"jvm","name":"jvm","belongsTo":{"totalCount":62,"pageInfo":{"totalPages":7,"currentPage":1},"edges":[{"node":{"__typename":"Job","id":"1435500544-1001091028994","title":"Java разработчик","text":"#ulyanovsk #java #kotlin #backend #spring #middle #senior\n\nЛокация: Ульяновск, можно удаленно, если из другого города (работаем по ТК РФ или как с Российским ИП) \nФормат работы: #офис, #fulltime #remote\nЗ/п: до 150к т.р. (net) \nКомпания: Nord Clan\nКонтакты: @VladislavAg\n\nИщу разработчика в команду Nord Clan. Наша компания разрабатывает системы для бизнеса в области финтеха, медецины и фудтеха. Помимо этого разрабатываем собственные продукты связанные с машинным обучением, распознаванием образов и компьютерным зрением. \nОгромным плюсом будет опыт работы с Kotlin. \nТакже готовы рассмотреть специалистов с опытом в других backend технологиях, которые хотят погрузиться в мир Java.\n\n📌 Мы работаем с:\nJava 8 и выше, Kotlin, Groovy;\nSpring, Spring Boot, Security, Data, MVC;\nРеляционным базами (Postgres\\Oracle) и NoSQL (Mongo\\Cassandra\\Ignite);\nПишем RESTfull приложения с использованием RabbitMQ и Kafka.\n\n📌 В круг твоих обязанностей будет входить:\nПринимать непосредственное участие в командной разработке ПО;\nПроводить и проходить через code-review;\nПринимать участие в проработке архитектурных задач;\nОднако CRUD-сервисы никто не отменял, и мы их тоже пишем;\nПисать качественный код и покрывать его unit-тестами.\n\n📌Тебе к нам, если ты хочешь:\nРаботать в компании, где нет формальностей и бюрократии;\nРаботать в команде с четко выстроенным процессом разработки;\nИметь возможность пройти сертификацию OCP за счет компании;\nОформление по ТК РФ, белую зарплату;","markup":[{"type":"hashtag","offset":0,"length":10,"data":"ulyanovsk"},{"type":"hashtag","offset":11,"length":5,"data":"java"},{"type":"hashtag","offset":17,"length":7,"data":"kotlin"},{"type":"hashtag","offset":25,"length":8,"data":"backend"},{"type":"hashtag","offset":34,"length":7,"data":"spring"},{"type":"hashtag","offset":42,"length":7,"data":"middle"},{"type":"hashtag","offset":50,"length":7,"data":"senior"},{"type":"hashtag","offset":178,"length":5,"data":"офис"},{"type":"hashtag","offset":185,"length":9,"data":"fulltime"},{"type":"hashtag","offset":195,"length":7,"data":"remote"},{"type":"handle","offset":258,"length":12,"data":"VladislavAg"}],"date":"2020-04-10T12:23:59+00:00","link":"tg://resolve?domain=jvmjobs&post=1369","tags":[{"name":"java"},{"name":"jvm"},{"name":"kotlin"},{"name":"spring"},{"name":"dotnet"},{"name":"groovy"},{"name":"postgresql"},{"name":"oracle"},{"name":"nosql"},{"name":"cassandra"},{"name":"rabbitmq"},{"name":"kafka"},{"name":"spring-boot"}],"cities":[{"code":"ulyanovsk"}],"allowsRemote":true}},{"node":{"__typename":"Job","id":"1434451968-1001091028994","title":"Java developer","text":"Вакансия: Senior Java developer \n\nБольшой интергационный проект: разработка платформы финансового маркетплейса для физических лиц, проект  стартует в сентябре-декабре 2020 г. \n\nЗадачи на новый проект:\n\nНачать разработку и отладку BPM-слоя платформы, основанной на микросервисной архитектуре с использованием - Java 8; Spring Framework (Core, MVC, Boot); Camunda BPM; Apache Kafka; Hibernate; Docker; PostgreSQL. \n\nВзаимодействие со смежными командами и определение зон ответственности при реализации задач.\n\nПодготовка рекомендаций по внедрению новых технологии, решений, подходов.\n\nНастройка CI/CD процессов. \n\nТребования:\n\nГлубокие знание java core.\nОпыт в java от 3-х лет.\nЗнание подходов CI/CD. \nОтличные организационные и коммуникативные навыки. \n\nЛокация офиса: г. Москва, м. Арбатская/Библиотека им. Ленина/Боровицкая/Александровский сад. \nЗанятость: полная, официальное оформление в штат Компании. \nДМС: с первого рабочего дня. \nФормат работы: современный  офис возле кремля в шаговой доступности от метро (сейчас работаем из дома, возможно, после выхода в офисе многое поменяется))).\nКомпания: ПАО Московская биржа (Компания входящая в 500 - лучших работодателей мира по версии Forbes за 2019 год). \nУровень з/п:  230- 300 тыс.руб. + годовой бонус.\nФормат интервью: один этап интервью по Skype (60 минут). \nКоманда: абсолютно новая команда, почти (3 вакансии senior developer) сформирована за период февраль - март 2020 г. \n\n\nПишите в личку, отвечу на любые вопросы!\nКонтакты: @Sasha_P92","markup":[{"type":"handle","offset":1486,"length":10,"data":"Sasha_P92"}],"date":"2020-04-10T10:34:17+00:00","link":"tg://resolve?domain=jvmjobs&post=1368","tags":[{"name":"java"},{"name":"jvm"},{"name":"spring"},{"name":"apache"},{"name":"kafka"},{"name":"hibernate"},{"name":"docker"},{"name":"postgresql"}],"cities":[{"code":"moscow"}],"allowsRemote":false}},{"node":{"__typename":"Job","id":"1433403392-1001091028994","title":"Java developer","text":"#java #middle+ #senoir #fulltime #Москва #Ярославль\nJava Developer\nКомпания: Solit Clouds\nЛокация: Москва/Ярославль\nЗп: от 180к до 250к \nКонтакты: @IrinaTishkina\n\nНаша сфера деятельности – это создание уникальных решений в области информатизации медицины, банковской сферы, финансовых организаций, складских систем и других, существенно влияющих на жизнь и здоровье, областей.\n✅Проекты:\n•  Разработка собственной Big Data / BI платформы\n•  Разработка решений в одном из самых масштабных проектов Москвы\n✅Во что предстоит погрузиться:\n•  Участие в проектировании и разработке высоконагруженных облачных решений;\n•  Предложение архитектурных и технических решений;\n•  Коммуникация с аналитиками: необходимо понимать бизнес задачу и предлагать оптимальное техническое решение;\n•  Проектирование интерфейсов и сервисов внутреннего обмена данными;\n•  Контроль качества технических решений, разрабатываемых командой.\n✅Какой опыт может быть интересен:\n•  Умение читать иностранную документацию;\n•  Способность и желание развиваться и изучать новые технологии;\n•  Знание и умение применять паттерны проектирования;\n•  Отличные знания Java и опыт создания приложений с нуля;\n•  Опыт работы с реляционными БД;\n•  Отличные знание SQL, навыки оптимизации планов запросов;\n✅Знание технологий:\n•  Java (Java SE, JEE);\n•  Spring Framework;\n•  Hibernate;\n•  Maven/Gradle;\n•  Oracle, PostgreSQL;\n•  Git/SVN/Mercurial;\n•  TomCat/Undertow/WildFly/GlassFish;\n•  SОAP, REST, WebSockets, JMS.\n✅Мы предлагаем:\n•  Участие в интересных масштабных проектах федерального уровня;\n•  Продуктовые команды, обмен опытом и наставничество;\n•  Конкурентная заработная плата и официальное оформление по ТК;\n•  Работа по гибким методологиям;\n•  Ежегодная оценка и пересмотр условий труда;\n•  Гибкое начало рабочего дня и социальный пакет.","markup":[{"type":"hashtag","offset":0,"length":5,"data":"java"},{"type":"hashtag","offset":6,"length":7,"data":"middle"},{"type":"hashtag","offset":15,"length":7,"data":"senoir"},{"type":"hashtag","offset":23,"length":9,"data":"fulltime"},{"type":"hashtag","offset":33,"length":7,"data":"Москва"},{"type":"hashtag","offset":41,"length":10,"data":"Ярославль"},{"type":"handle","offset":147,"length":14,"data":"IrinaTishkina"}],"date":"2020-04-10T07:57:38+00:00","link":"tg://resolve?domain=jvmjobs&post=1367","tags":[{"name":"java"},{"name":"jvm"},{"name":"sql"},{"name":"spring"},{"name":"hibernate"},{"name":"maven"},{"name":"gradle"},{"name":"oracle"},{"name":"postgresql"},{"name":"git"},{"name":"svn"},{"name":"mercurial"},{"name":"tomcat"},{"name":"rest"}],"cities":[{"code":"moscow"},{"code":"yaroslavl"}],"allowsRemote":false}},{"node":{"__typename":"Job","id":"1432354816-1001091028994","title":"Java разработчик","text":"Ищем Java-разработчика для создания высоконагруженных клиент-серверных приложений в компании Smartech IT Outsourcing.\n\n⚙️Который владеет большинством из:\n\n➖Java, J2EE, Spring/Spring Boot, Hibernate/JPA;\n➖JMS, Apache ActiveMQ, Tomcat;\n➖Web Services, REST, WebSocket;\n➖PostgreSQL/Oracle, Redis/MongoDB.\n➖Опыт от 2х лет \n\n💡Дают:\n\n💻 удаленная работа, ☕️гибкий график;\n\n💸 зарплата от 100 000 до 130 000 р. по результатам собеседования, регулярная индексация;\n\n📃 работа над разнообразными и интересными проектами в команде профессионалов с использованием современных технологий;\n\n🎓 возможность постоянного развития (повышение квалификации, участие в конференциях, сертификация);\n\n📱Надежда @coderhunt","markup":[{"type":"handle","offset":689,"length":10,"data":"coderhunt"}],"date":"2020-04-09T11:59:26+00:00","link":"tg://resolve?domain=jvmjobs&post=1366","tags":[{"name":"java"},{"name":"jvm"},{"name":"spring"},{"name":"hibernate"},{"name":"jpa"},{"name":"apache"},{"name":"tomcat"},{"name":"web"},{"name":"rest"},{"name":"websocket"},{"name":"postgresql"},{"name":"oracle"},{"name":"redis"},{"name":"mongodb"},{"name":"spring-boot"}],"cities":[],"allowsRemote":true}},{"node":{"__typename":"Job","id":"1431306240-1001091028994","title":"Java разработчик","text":"#scala #teamlead #senior #офис #удаленно #fulltime #Москва\n\nПриглашаем Scala-разработчика уровня senior-teamlead, 220-270 тыс. на руки.\n\nТребования:\nлидировать и развивать команду разработчиков\nразвивать backend приложение на Akka HTTP\nпрорабатывать интеграции для сервисов на Java (Spring Cloud)\nинтегрироваться со стеком Kafka, MQ, Redis, Orcale SQL, Postgres\nfrontend разработка (React, Redux, Typescript, собственная библиотека компонентов)\nработать с витринами на Spark, Hadoop\nразработать web-scraper на Akka Streams\nподдерживать процесс сборки и тестирования (git, Ansible, Jenkins, Docker, OpenShift)\n\nСбербанк, Москва, Кутузовская\n\nКонтакты: @MikeTurchenkov","markup":[{"type":"hashtag","offset":0,"length":6,"data":"scala"},{"type":"hashtag","offset":7,"length":9,"data":"teamlead"},{"type":"hashtag","offset":17,"length":7,"data":"senior"},{"type":"hashtag","offset":25,"length":5,"data":"офис"},{"type":"hashtag","offset":31,"length":9,"data":"удаленно"},{"type":"hashtag","offset":41,"length":9,"data":"fulltime"},{"type":"hashtag","offset":51,"length":7,"data":"Москва"},{"type":"handle","offset":651,"length":15,"data":"MikeTurchenkov"}],"date":"2020-04-09T11:58:52+00:00","link":"tg://resolve?domain=jvmjobs&post=1365","tags":[{"name":"java"},{"name":"jvm"},{"name":"scala"},{"name":"akka"},{"name":"spring"},{"name":"cloud"},{"name":"kafka"},{"name":"redis"},{"name":"sql"},{"name":"postgresql"},{"name":"reactjs"},{"name":"redux"},{"name":"typescript"},{"name":"hadoop"},{"name":"web"},{"name":"git"},{"name":"ansible"},{"name":"jenkins"},{"name":"docker"},{"name":"react-redux"}],"cities":[{"code":"moscow"}],"allowsRemote":true}},{"node":{"__typename":"Job","id":"1430257664-1001091028994","title":"Java разработчик","text":"#вакансия #fullstack #fullstackdeveloper #java  #javascript #jquery #remote #fulltime #удаленно\n\nFullstack Developer\nКомпания: Fplay\nЛокация: remote\nЗанятость: fulltime\nЗ/п: 130-140К net\nКонтакты: @observer69\n\nНаша команда состоит из криптотрейдеров с большим опытом торговли. Деятельность проекта - трейдинг на криптобиржах посредством использования торгового робота. На данный момент уже создан и используется прибыльный торговый робот. В планах проекта расширение возможностей робота путем подключения бОльшего количества криптобирж. Для реализации этих целей мы расширяем штат, ищем разработчика. Мы не создаем продукт для продажи, только для собственного использования.\n\nУсловия\n● Удаленная работа, полная занятость. Территориальные границы часовых поясов: от UTC+2 до UTC+6.\n● Работа в небольшом коллективе криптоэнтузиастов. На данный момент команда состоит из 4-х человек. Все работают на удаленке.\n● Режим работы 8 часов в день + 1 час перерыв на обед. Все выходные и праздничные дни, отпуска предоставляются и оплачиваются в соответствии с трудовым законодательством страны проживания.\n● Выплата заработной платы 2 раза в месяц.\n\nТребования\n● Java 8+, Spring, JavaScript, jQuery;\n● Опыт Java от 3-х лет, опыт JavaScript от 1 года;\n● Опыт разработки многопоточных систем;\n● Знание баз данных PostgreSQL либо MariaDB;\n● Опыт самостоятельной работы (удаленка на дому или ко-воркинг, другие формы работы не по найму).\n \nПриветствуется\n● Опыт работы с API классических или криптобирж;\n● Опыт работы с REST API, WebSocket API.\n● Опыт разработки систем реального времени;\n● Опыт в создании архитектур программ;\n● DevOps навыки;\n● Хорошее знание английского языка.\n● Приверженность open source идеологии.\n\nЗадачи\n1. Сопровождение и улучшение имеющегося торгового робота;\n2. Разработка архитектуры универсального ядра, к которому будут подключаться новые криптобиржи;\n3. Разработка серверной и интерфейсной частей торгового робота;\n4. Реализация автоматического тестирования серверной части;\n5. Администрирование серверной части в Debian/Ubuntu server OS","markup":[{"type":"hashtag","offset":0,"length":9,"data":"вакансия"},{"type":"hashtag","offset":10,"length":10,"data":"fullstack"},{"type":"hashtag","offset":21,"length":19,"data":"fullstackdeveloper"},{"type":"hashtag","offset":41,"length":5,"data":"java"},{"type":"hashtag","offset":48,"length":11,"data":"javascript"},{"type":"hashtag","offset":60,"length":7,"data":"jquery"},{"type":"hashtag","offset":68,"length":7,"data":"remote"},{"type":"hashtag","offset":76,"length":9,"data":"fulltime"},{"type":"hashtag","offset":86,"length":9,"data":"удаленно"},{"type":"bold","offset":97,"length":29,"data":""},{"type":"bold","offset":133,"length":8,"data":""},{"type":"bold","offset":149,"length":10,"data":""},{"type":"bold","offset":169,"length":4,"data":""},{"type":"bold","offset":187,"length":9,"data":""},{"type":"handle","offset":197,"length":11,"data":"observer69"},{"type":"bold","offset":676,"length":8,"data":""},{"type":"bold","offset":722,"length":59,"data":""},{"type":"bold","offset":1140,"length":11,"data":""},{"type":"bold","offset":1426,"length":15,"data":""},{"type":"bold","offset":1708,"length":9,"data":""},{"type":"bold","offset":1773,"length":2,"data":""},{"type":"bold","offset":1869,"length":2,"data":""},{"type":"bold","offset":1933,"length":2,"data":""},{"type":"bold","offset":1993,"length":2,"data":""}],"date":"2020-04-09T08:01:38+00:00","link":"tg://resolve?domain=jvmjobs&post=1364","tags":[{"name":"java"},{"name":"jvm"},{"name":"javascript"},{"name":"jquery"},{"name":"dotnet"},{"name":"spring"},{"name":"postgresql"},{"name":"mariadb"},{"name":"rest"},{"name":"websocket"},{"name":"debian"},{"name":"ubuntu"}],"cities":[],"allowsRemote":true}},{"node":{"__typename":"Job","id":"1429209088-1001091028994","title":"Java разработчик","text":"#java #javascript #spring #middle #senior #кибербезопасность\nКомпания: #bizone #бизон \nЛокация: #москва #мск \nЗ/п: 100 - 220к\nКонтакты: @sokolovaap, d.sokolova@bi.zone\n\n- BI.ZONE (Безопасная информационная зона) -визионер российского рынка кибербезопасности.\nМы создаем инновационные продукты для анализа угроз и активной защиты от мошенничества, автоматизируем и масштабируем экспертизу наших сервисных подразделений и разрабатываем инструменты для внутреннего использования; Являемся международной компанией;\n\nЗадача:\n- Разработка уникальной платформы выявления мошенничества (Fraud Monitoring);\n\nНаш стек:\n- spring, знание maven,postgresql,apache cassandra,docker,apache kafka;\n\nЧто предлагаем?\n- Сложные задачи, прокачивающие уникальные скиллы;\n- Организовываем удаленную работу сейчас, не проблема.\n- Офис м.Комсомольская/Бауманская/Красносельская;\n- Свободный график, капсулы сна, работу на свежем воздухе, игровые приставки;\n- ДМС и фитнес и тд;\n- Профессиональный коллектив, сплошь состоящий из асов разработки сложных систем в области практической ИБ;\n- И дружную семью 24/7.","markup":[{"type":"hashtag","offset":0,"length":5,"data":"java"},{"type":"hashtag","offset":6,"length":11,"data":"javascript"},{"type":"hashtag","offset":18,"length":7,"data":"spring"},{"type":"hashtag","offset":26,"length":7,"data":"middle"},{"type":"hashtag","offset":34,"length":7,"data":"senior"},{"type":"hashtag","offset":42,"length":18,"data":"кибербезопасность"},{"type":"hashtag","offset":71,"length":7,"data":"bizone"},{"type":"hashtag","offset":79,"length":6,"data":"бизон"},{"type":"hashtag","offset":96,"length":7,"data":"москва"},{"type":"hashtag","offset":104,"length":4,"data":"мск"},{"type":"handle","offset":136,"length":11,"data":"sokolovaap"},{"type":"link","offset":149,"length":18,"data":"mailto:d.sokolova@bi.zone"},{"type":"link","offset":171,"length":7,"data":"http://BI.ZONE"}],"date":"2020-04-08T10:59:36+00:00","link":"tg://resolve?domain=jvmjobs&post=1363","tags":[{"name":"java"},{"name":"jvm"},{"name":"javascript"},{"name":"spring"},{"name":"maven"},{"name":"postgresql"},{"name":"apache"},{"name":"cassandra"},{"name":"docker"},{"name":"kafka"}],"cities":[{"code":"moscow"}],"allowsRemote":false}},{"node":{"__typename":"Job","id":"1428160512-1001091028994","title":"Java разработчик","text":"Вакансия: Team Lead Java\n\nПроект: Сервисная шина предприятия (ESB) — связующее программное обеспечение, обеспечивающее централизованный и унифицированный событийно-ориентированный обмен сообщениями между различными информационными системами на принципах микросервисной архитектуры.\n\nТехнологический стек на проекте: core Java 12, Spring Framework, Kafka.\n\nФункционал на проекте:\n\n- Управление процессом разработки внутренней интеграционной платформы и компонентов, постановка задач, контроль исполнения;\n- Проектирование и реализация компонентов: адаптеры получения данных, компоненты сервера приложений, веб сервисы;\n- Реализация интеграционных сценариев и бизнес процессов (BPMS);\n- Проектирование и разработка интерфейсов взаимодействия с системами и сервисами;\n- Написание автоматических модульных тестов (Unit tests);\n- Ведение неформальной технической документации в confluence.\n\nДля этого важно:\n\nОпыт работы Team Lead от 2 лет;\nУверенное знание Core Java: collections, многопоточность;\nОпыт разработки веб-сервисов (REST, HTTP);\nОпыт работы с системами обмена сообщениями (JMS);\nЗнание паттернов проектирования ПО;\nОпыт работы с ESB.\n\nМы предлагаем:\n- Локация офиса: г. Москва, м. Арбатская/Библиотека им. Ленина/Боровицкая/Александровский сад;\n- Занятость: пока полная занятость, официальное оформление в штат Компании (пока работает удаленно из дома, выйдем в офис многое поменяется);\n- ДМС: с первого рабочего дня;\n- Формат работы: современный  офис возле кремля в шаговой доступности от метро (сейчас работаем из дома, возможно, после выхода в офисе многое поменяется);\n- Компания: ПАО Московская биржа (Компания входящая в 500 - лучших работодателей мира по версии Forbes за 2019 год);\n- Уровень з/п:  250- 350 тыс.руб. + годовой бонус;\n- Формат интервью: 1-2 этапа интервью по Skype (60 минут). \n\n\nПишите в личку, отвечу на любые вопросы!\nКонтакты: @Sasha_P92","markup":[{"type":"bold","offset":0,"length":24,"data":""},{"type":"bold","offset":26,"length":8,"data":""},{"type":"bold","offset":283,"length":32,"data":""},{"type":"bold","offset":356,"length":22,"data":""},{"type":"bold","offset":886,"length":17,"data":""},{"type":"bold","offset":1143,"length":15,"data":""},{"type":"bold","offset":1853,"length":9,"data":""},{"type":"handle","offset":1863,"length":10,"data":"Sasha_P92"}],"date":"2020-04-08T10:40:54+00:00","link":"tg://resolve?domain=jvmjobs&post=1362","tags":[{"name":"java"},{"name":"jvm"},{"name":"spring"},{"name":"kafka"},{"name":"rest"}],"cities":[{"code":"moscow"}],"allowsRemote":true}},{"node":{"__typename":"Job","id":"1427111936-1001091028994","title":"Java developer","text":"#вакансия #java #backend #spring \nКомпания OpenDev\nЛокация #мск #москва \nЗП 170-230 gross\n\n🔵 Middle / Senior Java Developer\nТендеция  бесконтактных услуг и удаленных сервисов набирает обороты. Присоединийся к нам!\nПроект: SMARTBRANCH \nРазработка и поддержка ПО банковских терминалов нового поколения. Все услуги банка и интерактивное общение с менеджером  - в одном устройстве. Больше никаких очередей и \"возьмите талончик\" :) \n\nСтек:\n🔹 Java core, Java 8+\n🔹  Spring Framework, Spring boot, Spring Cloud\n🔹 Docker\n🔹 БД: NoSQL\n\nУсловия\n- Белая ЗП + ДМС\n- Продуктовые Scrum команды\n- Performance review\n- Релокация кандидатов из регионов ✈  \n\nЗадать вопрос / прислать CV / просто поздороваться @xenia_agv","markup":[{"type":"hashtag","offset":0,"length":9,"data":"вакансия"},{"type":"hashtag","offset":10,"length":5,"data":"java"},{"type":"hashtag","offset":16,"length":8,"data":"backend"},{"type":"hashtag","offset":25,"length":7,"data":"spring"},{"type":"hashtag","offset":59,"length":4,"data":"мск"},{"type":"hashtag","offset":64,"length":7,"data":"москва"},{"type":"handle","offset":695,"length":10,"data":"xenia_agv"}],"date":"2020-04-08T07:16:44+00:00","link":"tg://resolve?domain=jvmjobs&post=1361","tags":[{"name":"java"},{"name":"jvm"},{"name":"spring"},{"name":"cloud"},{"name":"docker"},{"name":"nosql"},{"name":"spring-boot"}],"cities":[{"code":"moscow"}],"allowsRemote":false}},{"node":{"__typename":"Job","id":"1426063360-1001091028994","title":"Java разработчик","text":"#разработчик #вакансия #java #developer #удаленка #офис #екб #разработка \n\nВ команду, которая производит и внедряет ПО для учета человеческих ресурсов (для HR, ага 😉), нужен классный Разработчик Java (удаленно или в офис в Екатеринбурге).\n\nСтэк:\n🔸java8, Druid (для больших данных), Hadoop;\n🔸LPSolve (для математических расчетов)\n\nЗадачи:\n🔸Разработка компонентов, приложений и интерфейсов;\n🔸Интеграции с внешними системами с помощью rabbitmq и ASM\n🔸Участие в разработке архитектуры \n🔸Написание технической документации (совместно с архитектором и техническим писателем)\n🔸Разработка побочного продукта\n🔸Разработка бэкенда системы\n\nНаши преимущества:\n🔸единый стэк для всех продуктов\n🔸почти нет легаси \n🔸низкая вертикаль (максимум 1 человек до директора) \n\nТребования:\n🔸Глубокие познания java\n🔸Уровень middle/senior\n\nЗарплата: 80 000 – 200 000 руб/мес в зависимости от вашего уровня, белая👌\n\nКонтакты и вопросы 👉 @DaryaShevelyova , darya_shevelyova@bk.ru","markup":[{"type":"hashtag","offset":0,"length":12,"data":"разработчик"},{"type":"hashtag","offset":13,"length":9,"data":"вакансия"},{"type":"hashtag","offset":23,"length":5,"data":"java"},{"type":"hashtag","offset":29,"length":10,"data":"developer"},{"type":"hashtag","offset":40,"length":9,"data":"удаленка"},{"type":"hashtag","offset":50,"length":5,"data":"офис"},{"type":"hashtag","offset":56,"length":4,"data":"екб"},{"type":"hashtag","offset":61,"length":11,"data":"разработка"},{"type":"italic","offset":75,"length":89,"data":""},{"type":"italic","offset":166,"length":18,"data":""},{"type":"bold","offset":184,"length":16,"data":""},{"type":"italic","offset":200,"length":41,"data":""},{"type":"bold","offset":241,"length":6,"data":""},{"type":"bold","offset":333,"length":8,"data":""},{"type":"bold","offset":638,"length":19,"data":""},{"type":"bold","offset":765,"length":12,"data":""},{"type":"bold","offset":827,"length":8,"data":""},{"type":"bold","offset":903,"length":18,"data":""},{"type":"handle","offset":925,"length":16,"data":"DaryaShevelyova"},{"type":"link","offset":944,"length":22,"data":"mailto:darya_shevelyova@bk.ru"}],"date":"2020-04-07T14:09:10+00:00","link":"tg://resolve?domain=jvmjobs&post=1360","tags":[{"name":"java"},{"name":"jvm"},{"name":"hadoop"},{"name":"rabbitmq"}],"cities":[],"allowsRemote":true}}]}}},"context":{}}