{"hash":"f5f6bf98bd95e769321482904cbbd488f77922fd","data":{"records":{"id":"playframework","name":"playframework","belongsTo":{"totalCount":22,"pageInfo":{"totalPages":3,"currentPage":2},"edges":[{"node":{"__typename":"Job","id":"71856816128-1001054966032","title":"Android разработчик","text":"‼️Вакансия Senior Android⁢ Developer‼️\n#android #developer #вакансия #удаленка\nВ команде Mycelium Wallet (mycelium.com) открыта #вакансия Senior Android⁢ Developer.\n💵З/П 3000-4000 USD по итогам собеседования.\nРабота удаленная 💻\n\nМы предлагаем:\n🔸Получить навыки и компетенции в одном из самых передовых и перспективных направлений финтех индустрии - blockchain;\n🔸Принять участие в разработке одного из самых популярных биткоин-кошельков в Google Play Store;\n🔸Работать в международной команде бок о бок с ведущими специалистами в индустрии;\n🔸Возможность профессионального карьерного роста и участия в разнообразных проектах компании.\n\nЧем предстоит заниматься:\n🔹Разрабатывать новые и развивать существующие мобильные сервисы компании на платформе Android;\n🔹Проектировать и разрабатывать большие функциональные части приложения с привлечением других программистов;\n🔹Использовать cutting edge технологии, а также проверенные временем решения.\n\nТребования:\n✔️Как минимум 3 года опыта разработки на Android;\n✔️Знание Java/Kotlin на уровне ведущего разработчика;\n✔️Знание шаблонов проектирования, опыт использования MVP и других архитектурных подходов;\n✔️Опыт параллельного и многопоточного программирования;\n✔️Понимание циклов работы Android-приложения и управления памятью;\n✔️Опыт разработки пользовательских интерфейсов на платформе Android. \n✔️Знание Android Design Principles;\n✔️Знание и умение использовать различные механизмы взаимодействий между приложениями, предоставляемые в рамках Android SDK;\n✔️Понимание принципов работы REST API, WS, RPC и клиент-серверных приложений;\n✔️Знание английского языка на уровне чтения документации и умения общаться в корпоративном чате.\n\nПлюсом будет:\n➕Умение и понимание необходимости написания Unit tests;\n➕Знание основ криптографии;\n➕Опыт работы с bitcoin/etherium blockchain stack;\n➕Наличие своих проектов на Github, в Google Play и т.д.\n\n📲Контакт: @valeritata","markup":[{"type":"hashtag","offset":39,"length":8,"data":"android"},{"type":"hashtag","offset":48,"length":10,"data":"developer"},{"type":"hashtag","offset":59,"length":9,"data":"вакансия"},{"type":"hashtag","offset":69,"length":9,"data":"удаленка"},{"type":"link","offset":106,"length":12,"data":"http://mycelium.com"},{"type":"hashtag","offset":128,"length":9,"data":"вакансия"},{"type":"handle","offset":1900,"length":11,"data":"valeritata"}],"date":"2020-06-23T11:07:04+00:00","link":"tg://resolve?domain=mobile_jobs&post=68528","tags":[{"name":"mobile"},{"name":"android"},{"name":"playframework"},{"name":"java"},{"name":"kotlin"},{"name":"rest"},{"name":"github"}],"cities":[],"allowsRemote":true}},{"node":{"__typename":"Job","id":"103498645504-1001089317451","title":"Qa инженер","text":"#qa #вакансия #fulltime #удаленно\nКомпания: КлаудФэктори (cloudfactory.ru) \n\nCloudfactory  –компания разработчик мобильных приложений. Наша специализация это создание инвестиционных для финансовых компаний и банков на основе собственной платформы. Наши приложения входят в ТОП-100 App Store и Google Play.\n\n\nДолжность: Инженер по ручному и автоматизированному тестированию (QA & Automation Engineer)\n\nПриглашаем  инженера по тестированию в распределенную команда (~50 человек).\n\nЗП от  100к и по результатам собеседования\nОформление по ТК или возможны иные варианты сотрудничества\n\nОбязанности\n•  Тестирование мобильного приложения (приемочное, регрессионное, исследовательское)\n•  Разбор дефектов, полученных от поддержки\n•  Ведение тестовой документации\n•  Подготовка тестовой среды (формирование данных, локальные изменения хранимых процедур)\n\nТребуемые навыки\n•  Понимание принципов работы мобильного приложения\n•  Знания методов и техник тестирования\n•  Умение работать с Postman / Swagger или аналогами\n•  Умение работать с Fiddler / Charles / Mitmproxy или аналогами\n•  Базовые знания SQL\n•  Самостоятельность и самоорганизованность\n•  Опыт работы от 1 года\nЛичные качества:\n•  Аналитические способности;\n•  Системное мышление;\n•  Ответственность.\n•  Умение работать в команде.\n•  Целеустремленность.\nУсловия работы:\n•  Удаленная работа на полный рабочий день\n•  Работа в стабильной компании\n•  ЗП без задержек.\n•  Оформление по ТК РФ\n•  График работы: 5/2\n\nУ нас интересная команда и хорошие проекты (топ 100 в google play и app store)\nЕсли вас заинтересовало наше предложение, ждем ваши отклики на e-mail: guskov@cloudfactory.ru  или в Телеграмм  @ConstG","markup":[{"type":"hashtag","offset":0,"length":3,"data":"qa"},{"type":"hashtag","offset":4,"length":9,"data":"вакансия"},{"type":"hashtag","offset":14,"length":9,"data":"fulltime"},{"type":"hashtag","offset":24,"length":9,"data":"удаленно"},{"type":"link","offset":58,"length":15,"data":"http://cloudfactory.ru"},{"type":"link","offset":1615,"length":22,"data":"mailto:guskov@cloudfactory.ru"},{"type":"handle","offset":1656,"length":7,"data":"ConstG"}],"date":"2020-06-23T07:42:07+00:00","link":"tg://resolve?domain=qa_jobs&post=98704","tags":[{"name":"qa"},{"name":"playframework"},{"name":"swagger"},{"name":"sql"}],"cities":[],"allowsRemote":true}},{"node":{"__typename":"Job","id":"103437828096-1001089317451","title":"Qa инженер","text":"#qa #вакансия #fulltime #удаленно\nКомпания: КлаудФэктори (cloudfactory.ru) \n\nCloudfactory  –компания разработчик мобильных приложений. Наша специализация это создание инвестиционных для финансовых компаний и банков на основе собственной платформы. Наши приложения входят в ТОП-100 App Store и Google Play.\n\n\nДолжность: Инженер по ручному и автоматизированному тестированию (QA & Automation Engineer)\n\nПриглашаем  инженера по тестированию в распределенную команда (~50 человек).\n\nЗП от  100к и по результатам собеседования\nОформление по ТК или возможны иные варианты сотрудничества\n\nОбязанности\n•  Тестирование мобильного приложения (приемочное, регрессионное, исследовательское)\n•  Разбор дефектов, полученных от поддержки\n•  Ведение тестовой документации\n•  Подготовка тестовой среды (формирование данных, локальные изменения хранимых процедур)\n\nТребуемые навыки\n•  Понимание принципов работы мобильного приложения\n•  Знания методов и техник тестирования\n•  Умение работать с Postman / Swagger или аналогами\n•  Умение работать с Fiddler / Charles / Mitmproxy или аналогами\n•  Базовые знания SQL\n•  Самостоятельность и самоорганизованность\n•  Опыт работы от 1 года\nЛичные качества:\n•  Аналитические способности;\n•  Системное мышление;\n•  Ответственность.\n•  Умение работать в команде.\n•  Целеустремленность.\nУсловия работы:\n•  Удаленная работа на полный рабочий день\n•  Работа в стабильной компании\n•  ЗП без задержек.\n•  Оформление по ТК РФ\n•  График работы: 5/2\n\nУ нас интересная команда и хорошие проекты (топ 100 в google play и app store)\nЕсли вас заинтересовало наше предложение, ждем ваши отклики на e-mail: guskov@cloudfactory.ru  или в Телеграмм  @ConstG","markup":[{"type":"hashtag","offset":0,"length":3,"data":"qa"},{"type":"hashtag","offset":4,"length":9,"data":"вакансия"},{"type":"hashtag","offset":14,"length":9,"data":"fulltime"},{"type":"hashtag","offset":24,"length":9,"data":"удаленно"},{"type":"link","offset":58,"length":15,"data":"http://cloudfactory.ru"},{"type":"link","offset":1615,"length":22,"data":"mailto:guskov@cloudfactory.ru"},{"type":"handle","offset":1656,"length":7,"data":"ConstG"}],"date":"2020-06-22T12:34:51+00:00","link":"tg://resolve?domain=qa_jobs&post=98646","tags":[{"name":"qa"},{"name":"playframework"},{"name":"swagger"},{"name":"sql"}],"cities":[],"allowsRemote":true}},{"node":{"__typename":"Job","id":"71604109312-1001054966032","title":"Android разработчик","text":"#вакансия #android #fulltime #удаленка #middle #senior\n\nГород и адрес офиса: Уфа (удаленно)\nФормат работы: удаленка\nЗанятость: полная\nЗарплатная вилка: от 100 000 р. до 250 000\n\nОписание вакансии:\nЕсли Вы крутой аndroid разработчик, влюбленный в свое дело, обладаете опытом разработки мобильных приложений, любите использовать в работе самые современные подходы и техники, интересуетесь трендами в мобильной разработке, то эта вакансия для Вас!\n\nКлассно, если Вы:\n- Свободно владеете языком Kotlin и Java\n- Имеете опыт реактивного программирования (RxJava2)\n- Имеете опыт работы с сетевыми протоколами (HTTP, REST, JSON и др.)\n- Знакомы с концепциями ООП, знаете паттерны проектирования, принципы SOLID и умеете их применять\n- Имеете базовое понимание и опыт работы с основными архитектурными паттернами (Clean, MVP, MVVM)\n- Знакомы с основными алгоритмами и структурами данных\n- Умеете писать простой в понимании и тестируемый код\n- Умеете работать в команде и готовы активно принимать участие в жизни продукта\n\nЖелательно:\n- Опыт работы с библиотеками Moxy, Dagger2\n- Знание принципов Agile-разработки\n- Умение работать с git, CI/CD системами (у нас Gitlab)\n- Умение проводить перекрестное Code Review\n- Ссылки на проекты в Play Market, профили GitHub и StackOverflow\n\nВашими ключевыми задачами будут:\n- Разрабатывать и поддерживать мобильное приложение с нуля\n- Создавать удобный и понятный для пользователей интерфейса по макету\n- Взаимодействовать с другими командами, для совместного решения задач\n- Разрабатывать и внедрять новые интересные фичи\n\nМы предлагаем:\n- Работа над финтех проектом европейской компании.\n- Самые современные технологии разработки\n- Возможность роста, как в профессиональной так и в управленческой сфере\n\nНазвание компании: Фином-Технологии —  команда разработчиков с большим опытом создания успешных финтех продуктов.  Расширяем свою команду для работы над проектом для стран Европы. Автоматизация финансовых процессов для малого бизнеса.\n\nКонтакт для связи: @deeeana","markup":[{"type":"hashtag","offset":0,"length":9,"data":"вакансия"},{"type":"hashtag","offset":10,"length":8,"data":"android"},{"type":"hashtag","offset":19,"length":9,"data":"fulltime"},{"type":"hashtag","offset":29,"length":9,"data":"удаленка"},{"type":"hashtag","offset":39,"length":7,"data":"middle"},{"type":"hashtag","offset":47,"length":7,"data":"senior"},{"type":"bold","offset":56,"length":20,"data":""},{"type":"bold","offset":92,"length":14,"data":""},{"type":"bold","offset":116,"length":11,"data":""},{"type":"bold","offset":134,"length":10,"data":""},{"type":"bold","offset":145,"length":6,"data":""},{"type":"bold","offset":178,"length":23,"data":""},{"type":"underline","offset":446,"length":18,"data":""},{"type":"underline","offset":1013,"length":12,"data":""},{"type":"underline","offset":1271,"length":33,"data":""},{"type":"underline","offset":1554,"length":15,"data":""},{"type":"bold","offset":1736,"length":19,"data":""},{"type":"bold","offset":1972,"length":18,"data":""},{"type":"handle","offset":1991,"length":8,"data":"deeeana"}],"date":"2020-06-19T05:01:29+00:00","link":"tg://resolve?domain=mobile_jobs&post=0","tags":[{"name":"mobile"},{"name":"android"},{"name":"kotlin"},{"name":"java"},{"name":"rest"},{"name":"json"},{"name":"mvvm"},{"name":"git"},{"name":"gitlab"},{"name":"playframework"},{"name":"github"}],"cities":[{"code":"ufa"}],"allowsRemote":true}},{"node":{"__typename":"Job","id":"71562166272-1001054966032","title":"Android разработчик","text":"‼️Вакансия Senior Android⁢ Developer‼️\n#android #developer #вакансия #удаленка\nВ команде Mycelium Wallet (mycelium.com) открыта #вакансия Senior Android⁢ Developer.\n💵З/П 3000-4000 USD по итогам собеседования.\nРабота удаленная 💻\n\nМы предлагаем:\n🔸Получить навыки и компетенции в одном из самых передовых и перспективных направлений финтех индустрии - blockchain;\n🔸Принять участие в разработке одного из самых популярных биткоин-кошельков в Google Play Store;\n🔸Работать в международной команде бок о бок с ведущими специалистами в индустрии;\n🔸Возможность профессионального карьерного роста и участия в разнообразных проектах компании.\n\nЧем предстоит заниматься:\n🔹Разрабатывать новые и развивать существующие мобильные сервисы компании на платформе Android;\n🔹Проектировать и разрабатывать большие функциональные части приложения с привлечением других программистов;\n🔹Использовать cutting edge технологии, а также проверенные временем решения.\n\nТребования:\n✔️Как минимум 3 года опыта разработки на Android;\n✔️Знание Java/Kotlin на уровне ведущего разработчика;\n✔️Знание шаблонов проектирования, опыт использования MVP и других архитектурных подходов;\n✔️Опыт параллельного и многопоточного программирования;\n✔️Понимание циклов работы Android-приложения и управления памятью;\n✔️Опыт разработки пользовательских интерфейсов на платформе Android. \n✔️Знание Android Design Principles;\n✔️Знание и умение использовать различные механизмы взаимодействий между приложениями, предоставляемые в рамках Android SDK;\n✔️Понимание принципов работы REST API, WS, RPC и клиент-серверных приложений;\n✔️Знание английского языка на уровне чтения документации и умения общаться в корпоративном чате.\n\nПлюсом будет:\n➕Умение и понимание необходимости написания Unit tests;\n➕Знание основ криптографии;\n➕Опыт работы с bitcoin/etherium blockchain stack;\n➕Наличие своих проектов на Github, в Google Play и т.д.\n\n📲Контакт: @valeritata","markup":[{"type":"hashtag","offset":39,"length":8,"data":"android"},{"type":"hashtag","offset":48,"length":10,"data":"developer"},{"type":"hashtag","offset":59,"length":9,"data":"вакансия"},{"type":"hashtag","offset":69,"length":9,"data":"удаленка"},{"type":"link","offset":106,"length":12,"data":"http://mycelium.com"},{"type":"hashtag","offset":128,"length":9,"data":"вакансия"},{"type":"handle","offset":1900,"length":11,"data":"valeritata"}],"date":"2020-06-18T10:56:47+00:00","link":"tg://resolve?domain=mobile_jobs&post=0","tags":[{"name":"mobile"},{"name":"android"},{"name":"playframework"},{"name":"java"},{"name":"kotlin"},{"name":"rest"},{"name":"github"}],"cities":[],"allowsRemote":true}},{"node":{"__typename":"Job","id":"103155761152-1001089317451","title":"Qa инженер","text":"#вакансия #москва #полнаязанятость #мегафон #bigdata #покаработаемиздомапотомвофис\n\nМы ищем QA-инженера в команду для тестирования внутренних и внешних сервисов.\n\nЧем предстоит заниматься:\n\n- Разработка модулей интеграционных тестов для наших сервисов;\n- Подготовка тестовых данных (работа с hive/oracle);\nРабота с SQL/HiveQL (Oracle/Hive);\n- Написание алгоритмов работы с данными, в рамках тестирования;\n- Взаимодействие с разработчиками и аналитиками в процессе проектирования и развития;\n- Выявление, фиксация и контроль багов в баг-трекере (Jira);\n- Ведение документации по тестированию (confluence);\n\nИспользуемые технологии:\nДля разработки – Play, Spring, Flask, Scala, Java (8+), Python(3+);\nДля тестирования: Java/Scala & Maven + TestNG + Google Guice;\nДля работы сервисов – Docker;\nДля работы с кодом – GitLab;\nДля работы с задачами – Jira.\n\nМы ожидаем от вас:\n- Опыт работы в автоматизации тестирования от 1 года;\n- Знание структур данных и алгоритмов;\n- Уверенное знание Java;\n- Уверенное знание фреймворков TestNG/JUnit;\n- Опыт работы в автоматизации тестирования;\n- Опыт работы с реляционными СУБД (Oracle/PostgreSQL);\n- Умение писать хорошо читаемый код;\n- Умение работать с VCS (Git) и сборщиками (maven).\n\nБудет плюсом:\n- Опыт в области тестирования приложений по работе с большими данными;\n- Опыт в нагрузочном тестировании;\n- Опыт работы с Spring/Google Guice;\n- Опыт конфигурирования CI/CD (GitLab);\n- Умение писать код на Scala;\n- Опыт работы с Hadoop/Spark.\n\nЧто мы предлагаем:\n- Внутреннее и внешнее обучение в России (Coursera, New Prolab, Geek Brains и др.);\n- Новый офис в центре: 7 минут пешком от м. Маяковская/Новослободская;\n- Компенсация затрат на мобильную связь;\nДМС (включая стоматологию);\n- Частичная компенсация спорта;\n- Возможность участия в корпоративных спортивных командах: футбол, волейбол, баскетбол, хоккей и бег\n- Регулярные митапы в офисе с внешними спикерами из разных областей.\n\n#мегафон #bigdata\nКонтакты: Svetlana.stakanova@megafon.ru или @svetastakanova","markup":[{"type":"hashtag","offset":0,"length":9,"data":"вакансия"},{"type":"hashtag","offset":10,"length":7,"data":"москва"},{"type":"hashtag","offset":18,"length":16,"data":"полнаязанятость"},{"type":"hashtag","offset":35,"length":8,"data":"мегафон"},{"type":"hashtag","offset":44,"length":8,"data":"bigdata"},{"type":"hashtag","offset":53,"length":29,"data":"покаработаемиздомапотомвофис"},{"type":"hashtag","offset":1926,"length":8,"data":"мегафон"},{"type":"hashtag","offset":1935,"length":8,"data":"bigdata"},{"type":"link","offset":1954,"length":29,"data":"mailto:Svetlana.stakanova@megafon.ru"},{"type":"handle","offset":1988,"length":15,"data":"svetastakanova"}],"date":"2020-06-18T09:58:49+00:00","link":"tg://resolve?domain=qa_jobs&post=0","tags":[{"name":"qa"},{"name":"hive"},{"name":"oracle"},{"name":"sql"},{"name":"playframework"},{"name":"spring"},{"name":"flask"},{"name":"scala"},{"name":"java"},{"name":"python"},{"name":"maven"},{"name":"docker"},{"name":"gitlab"},{"name":"junit"},{"name":"postgresql"},{"name":"git"},{"name":"hadoop"}],"cities":[{"code":"moscow"}],"allowsRemote":false}},{"node":{"__typename":"Job","id":"71502397440-1001054966032","title":"Mobile разработчик","text":"#вакансия #android #kotlin #junior\nФормат работы: удаленка\n\nЗанятость: полная\n\nГород: Не имеет значения\n\nЗарплатная вилка: 600-800$ в месяц\n\nОписание вакансии: Ищу android-разработчика с горящими глазами, знающего основы работы с sdk admob, firebase, appmetrica, работа с подписками в google play. На данный момент нужно доделать текущее приложение и в дальнейшем его развивать и поддерживать. Будут адекватные условия и большая возможность проф.развития. Работа с готовыми исходниками \n\nНазвание компании: Liquid Mobile\n\nКонтакты: @JohnSelf","markup":[{"type":"hashtag","offset":0,"length":9,"data":"вакансия"},{"type":"hashtag","offset":10,"length":8,"data":"android"},{"type":"hashtag","offset":19,"length":7,"data":"kotlin"},{"type":"hashtag","offset":27,"length":7,"data":"junior"},{"type":"handle","offset":532,"length":9,"data":"JohnSelf"}],"date":"2020-06-17T15:42:09+00:00","link":"tg://resolve?domain=mobile_jobs&post=0","tags":[{"name":"mobile"},{"name":"android"},{"name":"kotlin"},{"name":"admob"},{"name":"firebase"},{"name":"playframework"}],"cities":[],"allowsRemote":true}},{"node":{"__typename":"Job","id":"71496105984-1001054966032","title":"Android разработчик","text":"‼️Вакансия Senior Android⁢ Developer‼️\n#android #developer #вакансия #удаленка\nВ команде Mycelium Wallet (mycelium.com) открыта #вакансия Senior Android⁢ Developer.\n💵З/П 3000-4000 USD по итогам собеседования.\nРабота удаленная 💻\n\nМы предлагаем:\n🔸Получить навыки и компетенции в одном из самых передовых и перспективных направлений финтех индустрии - blockchain;\n🔸Принять участие в разработке одного из самых популярных биткоин-кошельков в Google Play Store;\n🔸Работать в международной команде бок о бок с ведущими специалистами в индустрии;\n🔸Возможность профессионального карьерного роста и участия в разнообразных проектах компании.\n\nЧем предстоит заниматься:\n🔹Разрабатывать новые и развивать существующие мобильные сервисы компании на платформе Android;\n🔹Проектировать и разрабатывать большие функциональные части приложения с привлечением других программистов;\n🔹Использовать cutting edge технологии, а также проверенные временем решения.\n\nТребования:\n✔️Как минимум 3 года опыта разработки на Android;\n✔️Знание Java/Kotlin на уровне ведущего разработчика;\n✔️Знание шаблонов проектирования, опыт использования MVP и других архитектурных подходов;\n✔️Опыт параллельного и многопоточного программирования;\n✔️Понимание циклов работы Android-приложения и управления памятью;\n✔️Опыт разработки пользовательских интерфейсов на платформе Android. \n✔️Знание Android Design Principles;\n✔️Знание и умение использовать различные механизмы взаимодействий между приложениями, предоставляемые в рамках Android SDK;\n✔️Понимание принципов работы REST API, WS, RPC и клиент-серверных приложений;\n✔️Знание английского языка на уровне чтения документации и умения общаться в корпоративном чате.\n\nПлюсом будет:\n➕Умение и понимание необходимости написания Unit tests;\n➕Знание основ криптографии;\n➕Опыт работы с bitcoin/etherium blockchain stack;\n➕Наличие своих проектов на Github, в Google Play и т.д.\n\n📲Контакт: @valeritata","markup":[{"type":"hashtag","offset":39,"length":8,"data":"android"},{"type":"hashtag","offset":48,"length":10,"data":"developer"},{"type":"hashtag","offset":59,"length":9,"data":"вакансия"},{"type":"hashtag","offset":69,"length":9,"data":"удаленка"},{"type":"link","offset":106,"length":12,"data":"http://mycelium.com"},{"type":"hashtag","offset":128,"length":9,"data":"вакансия"},{"type":"handle","offset":1900,"length":11,"data":"valeritata"}],"date":"2020-06-17T15:20:53+00:00","link":"tg://resolve?domain=mobile_jobs&post=0","tags":[{"name":"mobile"},{"name":"android"},{"name":"playframework"},{"name":"java"},{"name":"kotlin"},{"name":"rest"},{"name":"github"}],"cities":[],"allowsRemote":true}},{"node":{"__typename":"Job","id":"71412219904-1001054966032","title":"Ios developer","text":"#УДАЛЕНКА #вакансия #Москва #reactnative #senior #iOS #гибкийграфик #GBP  #vacancy #startup #Sweatcoin \n☀️Всем привет! Ищу к нам в команду Senior iOS Developer в #Sweatcoin - №1 in Appstore среди Health&Fitness приложений \nГород Москва, м Чистые пруды/Тургеневская, возможна удаленка \nФормат работы: удаленка/офис, все как вы захотите (вы можете находиться, где угодно, главное быть на связи с 10 до 16 по Лондону) \nЗанятость: полная, гибкий график\n💷Зарплатная вилка: от 180 до 250 K RUR Net, ЗП зафиксированная в фунтах (GBP); Также оплачиваем участие в отраслевых международных конференциях, бывают командировки в Лондон и 3-х месячные вылазки зимой в Португалию всем офисом 🌅 Также в перспективе возможна релокация в Европу \nОписание вакансии: Задачи сложные и интересные, на любой вкус — космический и сложный UI, борьба с батарейкой, GPS/Sensors, защита от фрода и безопасность, ML/AI, аналитика и рост, a/b тестирование, Apple Watch и различные wearables - в общем, разнообразно. Часть проекта реализована на React Native.\n\nОт вас требуется\n* Наличие завершенного приложения, доступного в AppStore\n* Английский не ниже intermediate\n* Опыт коммерческой разработки от 3-ти лет\n* Отличное и глубокое понимание Swift, Objective-C и платформы в целом.\n* Уметь писать поддерживаемый и читабельный код, знать паттерны проектирования\n* Прекрасно владеть git, не бояться rebase, делать code review и пул реквесты\n* Будет большим плюсом, если вы знакомы с React Native или JS, а также участвуете в open-source проектах или помогаете остальным на stackoverflow\n\nНаше приложение уверенно занимает первое место в AppStore и Google Play в категории Health&Fitness в Америке и Англии, а также входит в Top 10 Overall. Количество пользователей постоянно растет (порядка 70 000 загрузок в день, за последний год выросли с 8 млн до 30 млн), сейчас приложением пользуются порядка 30 млн человек в 40 странах. Присоединяйся к глобальному проекту! \nДетали по ссылке: https://sweatco.in/team\nКонтакты: @ElenaZangeeva","markup":[{"type":"hashtag","offset":0,"length":9,"data":"УДАЛЕНКА"},{"type":"hashtag","offset":10,"length":9,"data":"вакансия"},{"type":"hashtag","offset":20,"length":7,"data":"Москва"},{"type":"hashtag","offset":28,"length":12,"data":"reactnative"},{"type":"hashtag","offset":41,"length":7,"data":"senior"},{"type":"hashtag","offset":49,"length":4,"data":"iOS"},{"type":"hashtag","offset":54,"length":13,"data":"гибкийграфик"},{"type":"hashtag","offset":68,"length":4,"data":"GBP"},{"type":"hashtag","offset":74,"length":8,"data":"vacancy"},{"type":"hashtag","offset":83,"length":8,"data":"startup"},{"type":"hashtag","offset":92,"length":10,"data":"Sweatcoin"},{"type":"hashtag","offset":162,"length":10,"data":"Sweatcoin"},{"type":"link","offset":1954,"length":23,"data":"https://sweatco.in/team"},{"type":"handle","offset":1988,"length":14,"data":"ElenaZangeeva"}],"date":"2020-06-16T14:55:34+00:00","link":"tg://resolve?domain=mobile_jobs&post=0","tags":[{"name":"mobile"},{"name":"ios"},{"name":"dotnet"},{"name":"reactjs"},{"name":"swift"},{"name":"objective-c"},{"name":"git"},{"name":"playframework"},{"name":"react-native"}],"cities":[{"code":"moscow"},{"code":"london"}],"allowsRemote":true}},{"node":{"__typename":"Job","id":"71411171328-1001054966032","title":"Android разработчик","text":"‼️Вакансия Senior Android⁢ Developer‼️\n#android #developer #вакансия #удаленка\nВ команде Mycelium Wallet (mycelium.com) открыта #вакансия Senior Android⁢ Developer.\n💵З/П 3000-4000 USD по итогам собеседования.\nРабота удаленная 💻\n\nМы предлагаем:\n🔸Получить навыки и компетенции в одном из самых передовых и перспективных направлений финтех индустрии - blockchain;\n🔸Принять участие в разработке одного из самых популярных биткоин-кошельков в Google Play Store;\n🔸Работать в международной команде бок о бок с ведущими специалистами в индустрии;\n🔸Возможность профессионального карьерного роста и участия в разнообразных проектах компании.\n\nЧем предстоит заниматься:\n🔹Разрабатывать новые и развивать существующие мобильные сервисы компании на платформе Android;\n🔹Проектировать и разрабатывать большие функциональные части приложения с привлечением других программистов;\n🔹Использовать cutting edge технологии, а также проверенные временем решения.\n\nТребования:\n✔️Как минимум 3 года опыта разработки на Android;\n✔️Знание Java/Kotlin на уровне ведущего разработчика;\n✔️Знание шаблонов проектирования, опыт использования MVP и других архитектурных подходов;\n✔️Опыт параллельного и многопоточного программирования;\n✔️Понимание циклов работы Android-приложения и управления памятью;\n✔️Опыт разработки пользовательских интерфейсов на платформе Android. \n✔️Знание Android Design Principles;\n✔️Знание и умение использовать различные механизмы взаимодействий между приложениями, предоставляемые в рамках Android SDK;\n✔️Понимание принципов работы REST API, WS, RPC и клиент-серверных приложений;\n✔️Знание английского языка на уровне чтения документации и умения общаться в корпоративном чате.\n\nПлюсом будет:\n➕Умение и понимание необходимости написания Unit tests;\n➕Знание основ криптографии;\n➕Опыт работы с bitcoin/etherium blockchain stack;\n➕Наличие своих проектов на Github, в Google Play и т.д.\n\n📲Контакт: @valeritata","markup":[{"type":"hashtag","offset":39,"length":8,"data":"android"},{"type":"hashtag","offset":48,"length":10,"data":"developer"},{"type":"hashtag","offset":59,"length":9,"data":"вакансия"},{"type":"hashtag","offset":69,"length":9,"data":"удаленка"},{"type":"link","offset":106,"length":12,"data":"http://mycelium.com"},{"type":"hashtag","offset":128,"length":9,"data":"вакансия"},{"type":"handle","offset":1900,"length":11,"data":"valeritata"}],"date":"2020-06-16T14:37:41+00:00","link":"tg://resolve?domain=mobile_jobs&post=0","tags":[{"name":"mobile"},{"name":"android"},{"name":"playframework"},{"name":"java"},{"name":"kotlin"},{"name":"rest"},{"name":"github"}],"cities":[],"allowsRemote":true}}]}}},"context":{}}