{"hash":"f34fd2c444a074f4e0e67d525015a008ef8e766f","data":{"records":{"id":"javascript","name":"javascript","belongsTo":{"totalCount":84,"pageInfo":{"totalPages":9,"currentPage":3},"edges":[{"node":{"__typename":"Job","id":"16231956480-1001110946746","title":"Js разработчик","text":"Greenatom.ru\n#вакансия #Москва #javascript #React #Typescript #Node.js #Middle #Senior #удаленка\n\n👨🏼‍💻 Middle/Senior Frontend Developer, Middle/Senior Backend Developer\nГород и адрес офиса: #Москва, 1-й Нагатинский проезд, 10с1, метро Нагатинская\n\nФормат работы: офис или частичная удаленка на выбор\n\n💻Занятость: полная, гибкое начало трудового дня.\n\nЗарплатная вилка: от 170 000 до 230 000 руб. на руки.\n\n🏢Компания: АО Гринатом\n\nПривет! Мы растём и активно развиваем ряд внутренних проектов: например, корпоративный портал, горячая линия. Мы формируем несколько команд и ищем классных:\n\n✅фронтенд разработчиков;\n\n✅бэкенд разработчиков. \n\nПроекты в стадии разработки пилота и у тебя есть возможность повлиять на дальнейшее развитие продукта. Если у тебя есть крутые идеи - ты сможешь их здесь реализовать! Откликайся сам и зови друзей! Вирус пройдёт, работа останется!\n\n✅Требуемые знания и навыки:\n- Опыт разработки от двух лет\n- Хорошее знание чистого JS\n- Опыт работы с TypeScript\n- React, MobX, Less/Sass\n- Опыт написания юнит-тестов с помощью Jest, Enzymе очень приветствуется\n\n💡Наш стек:\n      React, TypeScript, Node.js, MobX, Docker\n\nМы работаем по Scrum.\n\n✅Условия:\n- Официальное оформление по ТК, белая зп;\n- Возможности профессионального и карьерного роста;\n- Дополнительные 3 дня к отпуску;\n- Плавающее начало дня;\n- Удаленка после прохождения испытательного срока (3 месяца)\n- ДМС со стоматологией\n\n☎️Контакты:\nЮлия - YAnZueva@Greenatom.ru","markup":[{"type":"link","offset":0,"length":12,"data":"http://Greenatom.ru"},{"type":"hashtag","offset":13,"length":9,"data":"вакансия"},{"type":"hashtag","offset":23,"length":7,"data":"Москва"},{"type":"hashtag","offset":31,"length":11,"data":"javascript"},{"type":"hashtag","offset":43,"length":6,"data":"React"},{"type":"hashtag","offset":50,"length":11,"data":"Typescript"},{"type":"hashtag","offset":62,"length":5,"data":"Node"},{"type":"hashtag","offset":71,"length":7,"data":"Middle"},{"type":"hashtag","offset":79,"length":7,"data":"Senior"},{"type":"hashtag","offset":87,"length":9,"data":"удаленка"},{"type":"hashtag","offset":193,"length":7,"data":"Москва"},{"type":"link","offset":1436,"length":21,"data":"mailto:YAnZueva@Greenatom.ru"}],"date":"2020-04-09T06:41:15+00:00","link":"tg://resolve?domain=javascript_jobs_feed&post=15480","tags":[{"name":"javascript"},{"name":"reactjs"},{"name":"typescript"},{"name":"nodejs"},{"name":"sass"},{"name":"docker"}],"cities":[{"code":"moscow"}],"allowsRemote":true}},{"node":{"__typename":"Job","id":"16230907904-1001110946746","title":"Js разработчик","text":"#вакансия\nГород и адрес офиса: Санкт-Петербург\nФормат работы: удалёнка\nЗанятость: проектная\nЗарплатная вилка: $500-700/мес ($20/ч)\nОписание вакансии:\nИщем JS разработчика с опытом в рекламной сфере для написания библиотеки, которая могла бы проверять окружение, подгружать рекламу как async js тегами, так и внутри iframe. Подгружать трекинг пиксели Автообновлять по таймеру и т.п. (Пр. библиотеки https://bit.ly/38jNDa3) Понимание тонкостей последних браузерных обновлений как https://bit.ly/31JlgPW. Помощь с видео\\аудио форматами рекламы.\nНазвание компании: Adwheel.co\nКонтакты: tg: @alexqem","markup":[{"type":"hashtag","offset":0,"length":9,"data":"вакансия"},{"type":"link","offset":398,"length":22,"data":"https://bit.ly/38jNDa3"},{"type":"link","offset":478,"length":22,"data":"https://bit.ly/31JlgPW"},{"type":"link","offset":561,"length":10,"data":"http://Adwheel.co"},{"type":"handle","offset":586,"length":8,"data":"alexqem"}],"date":"2020-04-09T06:41:06+00:00","link":"tg://resolve?domain=javascript_jobs_feed&post=15479","tags":[{"name":"javascript"}],"cities":[],"allowsRemote":true}},{"node":{"__typename":"Job","id":"16229859328-1001110946746","title":"Js разработчик","text":"#вакансия #удаленка #frontend #vuejs #javascript #junior #intern\nГород и адрес офиса: Украина, Винница\nНазвание компании: Web Dev Evo\nФормат работы: удаленка\nЗанятость: проектная\nЗарплатная вилка: от 300$ до 1500$\nОписание вакансии: В аутсорс компанию ищем молодого разработчика, с минимальным опытом работы. Работа в сфере ecommerce. Обязанности: разработка frontend части приложения с использованием Vue.js.\nКонтакты: @CrazyHorseGambino","markup":[{"type":"hashtag","offset":0,"length":9,"data":"вакансия"},{"type":"hashtag","offset":10,"length":9,"data":"удаленка"},{"type":"hashtag","offset":20,"length":9,"data":"frontend"},{"type":"hashtag","offset":30,"length":6,"data":"vuejs"},{"type":"hashtag","offset":37,"length":11,"data":"javascript"},{"type":"hashtag","offset":49,"length":7,"data":"junior"},{"type":"hashtag","offset":57,"length":7,"data":"intern"},{"type":"handle","offset":420,"length":18,"data":"CrazyHorseGambino"}],"date":"2020-04-09T06:40:49+00:00","link":"tg://resolve?domain=javascript_jobs_feed&post=15478","tags":[{"name":"javascript"},{"name":"vuejs"},{"name":"web"}],"cities":[{"code":"vinnytsia"}],"allowsRemote":true}},{"node":{"__typename":"Job","id":"16228810752-1001110946746","title":"Js разработчик","text":"#вакансия #javascript #nodejs #typescript #frontend #middle\n\nКомпания: #Mетрквадратный https://m2.ru\nЛокация: #москва м.Белорусская\nФормат работы: офис\nЗанятость: полная\nЗ/п: 200к - 260к руб. на руки\nКонтакты: @maxdmitrov\n\nЭто платформа, на которой физические лица смогут в режиме одного окна подобрать объект недвижимости, оформить на него ипотеку, произвести электронную регистрацию, сделать безопасный расчет не посещая банки и воспользоваться дополнительными услугами (страхование, дизайн, ремонт). \n\nЧем предстоит заниматься:\n\n•  разрабатывать один из продуктов жилищной экосистемы;\n•  прорабатывать задачи с начального этапа (декомпозиция, проработка архитектуры, демо с владельцем продукта);\n•  проводить код ревью;\n•  покрывать код unit тестами, помогать тестировщикам в написании e2e тестов;\n•  оптимизировать рендеринг и скорость загрузки страниц;\n•  разрабатывать продуктовые компоненты, используя общие UI библиотеки, и помогать в развитии этих библиотек.\n\nЧего мы ждем:\n\n• Javascript(ES6);\n• React + MobX/Redux;\n• HTML;\n• CSS;\n• Опыт кроссбраузерной верстки.\n\nБудет плюсом:\n\n• TypeScript;\n• Знание протокола HTTP/HTTPS, websockets, опыт работы с REST API;\n• Опыт работы с react native;\n• Опыт в бекэнде на различных языках программирования;\n• Опыт профилирования, оптимизации и рефакторинга кода;\n• Опыт написания тестов.\n\nМы используем: \n\n•  TypeScript + React + MobX + Gatsby;\n•  NestJS + gRPC + ProtoBuf (мидл-слой, управляющий UI и обращающийся к API бэк-энда);\n•  Micro Frontend Service;\n•  GitLab (CI/CD);\n•  Yarn + Lerna;\n•  Webpack/Rollup.\n\nМы предлагаем: \n\n•  Современный стек технологий;\n•  Возможность влиять на архитектуру и сразу видеть результат своей работы;\n•  Белая конкурентная ЗП, официальное оформление;\n•  Гибкий график работы, возможность выбора рабочего оборудования;\n•  ДМС, компенсация фитнеса, льготная ставка по ипотеке;\n•  Комфортный офис в БЦ «Белая площадь» (минута от метро): лаундж-зоны, бариста, фрукты.","markup":[{"type":"hashtag","offset":0,"length":9,"data":"вакансия"},{"type":"hashtag","offset":10,"length":11,"data":"javascript"},{"type":"hashtag","offset":22,"length":7,"data":"nodejs"},{"type":"hashtag","offset":30,"length":11,"data":"typescript"},{"type":"hashtag","offset":42,"length":9,"data":"frontend"},{"type":"hashtag","offset":52,"length":7,"data":"middle"},{"type":"hashtag","offset":71,"length":15,"data":"Mетрквадратный"},{"type":"link","offset":87,"length":13,"data":"https://m2.ru"},{"type":"hashtag","offset":110,"length":7,"data":"москва"},{"type":"handle","offset":210,"length":11,"data":"maxdmitrov"}],"date":"2020-04-09T06:40:27+00:00","link":"tg://resolve?domain=javascript_jobs_feed&post=15477","tags":[{"name":"javascript"},{"name":"nodejs"},{"name":"typescript"},{"name":"reactjs"},{"name":"redux"},{"name":"html"},{"name":"css"},{"name":"rest"},{"name":"gitlab"},{"name":"webpack"},{"name":"react-native"}],"cities":[{"code":"moscow"}],"allowsRemote":false}},{"node":{"__typename":"Job","id":"16227762176-1001110946746","title":"Javascript developer","text":"#вакансия #react #javascript #москва #офис\n\n🔭 Под задачи разработки платформы Web-решений ищем Frontend Developer (React) в крупную финансовую компанию. \n🎧 Все собеседования проводятся по скайпу из-за карантина. \nОфис: Москва, Лубянка\n🏠 Формат работы: в офисе после карантина (сейчас как у всех  удалёнка). В первый рабочий день оформляетесь и идете на удалёнку.\nЗанятость полная.\nГражданство: РФ\nПолный соцпакет.\n💰 Зарплата: от 165К до 175К net + квартальная премия 0,5 оклада. \nС премией средняя ЗП составит 205K рублей net \n\nFrontend Developer (React)\n🚀Область ответственности:\n• Участие в разработке фронт-офисных систем компании.\n💎 Требования:\n• Высшее / неоконченное высшее образование;\n• Опыт коммерческой разработки UI от 2,5 лет;\n• Необходимый стек: JavaScript, TypeScript, React (с использованием Redux/Mobx, Webpack, Babel), СУБД (PostgreSQL, MongoDB, Redis).\n• Кроссбраузерная и кроссплатформенная вёрстка.\n• Участие в высоконагруженных проектах.\n\nНазвание компании: КА \"Бизнес Крафт Консалт\" https://bcraft.ru/\n📪Контакты:\ntelegram: @oksanaalieva \nEmail: oksana@bcraft.ru \nБуду рада ответить на уточняющие вопросы. \nПодробности могу выслать в ЛС в ответ на присланное резюме.","markup":[{"type":"hashtag","offset":0,"length":9,"data":"вакансия"},{"type":"hashtag","offset":10,"length":6,"data":"react"},{"type":"hashtag","offset":17,"length":11,"data":"javascript"},{"type":"hashtag","offset":29,"length":7,"data":"москва"},{"type":"hashtag","offset":37,"length":5,"data":"офис"},{"type":"link","offset":1011,"length":18,"data":"https://bcraft.ru/"},{"type":"handle","offset":1052,"length":13,"data":"oksanaalieva"},{"type":"link","offset":1074,"length":16,"data":"mailto:oksana@bcraft.ru"}],"date":"2020-04-09T06:40:13+00:00","link":"tg://resolve?domain=javascript_jobs_feed&post=15476","tags":[{"name":"javascript"},{"name":"reactjs"},{"name":"web"},{"name":"dotnet"},{"name":"typescript"},{"name":"redux"},{"name":"webpack"},{"name":"postgresql"},{"name":"mongodb"},{"name":"redis"}],"cities":[{"code":"moscow"}],"allowsRemote":true}},{"node":{"__typename":"Job","id":"16226713600-1001110946746","title":"Js программист","text":"#вакансия #js #angular\n\nНазвание компании: Froot Middle Asia (ФрутМидл Эйжа)\nhttps://thefroot.com\nВилка: от 350 до 750 тысяч тенге (1 - 2К $)\nТребуемый опыт работы: 1–3 года\nГород: Алматы, Казахстан\n\nФормат: Полная занятость, полный день, можно удаленно\n\nО компании\nСегодня Froot - это 650 000 товаров в собственном маркетплейсе, 15 магазинов в Алматы, договора франшизы на 100 магазинов по всему Казахстану и успешные переговоры по экспансии на рынки Турции, Филиппин, Узбекистана, Таджикистана и Кыргызстана.\nВ 2020 году мы откроем 200 магазинов по всему Казахстану и доведём ассортимент нашего онлайн маркетплейса до 3 000 000!\n\nМы ожидаем, что программист умеет работать в команде и готов оперативно погрузится в существующий продукт. Он пишет код не «для себя» или «чтобы работало», а хорошо, аккуратно и понятно, чтобы любой член команды смог продолжить работу. Мы используем несколько серверов (тестовый, продакшен, rnd), gitflow, разветвление микросервисов.\n\nКого мы ищем?\nСамостоятельного Frontend Developer'а, сильного командного игрока, свято уважающего дедлайны и эффективную коммуникацию. Важно уметь предлагать свои идеи, делиться своим видением какие технологии могут давать результат.\n\nЧто делать:\n\nПоддерживать проекты;\nРазрабатывать новые модули и спецпроекты в существующих проектах;\nПредлагать технические решения для упрощения бизнес-процессов\nЗапускаем мобильную разработку на js\n\nТребования:\n\nЗнание современных стандартов и методов разработки веб-приложений\nОтличное знание HTML5/CSS3, JavaScript ES5/ES6\nAngular 2+\nУмение обращаться с системами сборки Grunt/Gulp/Webpack\nЗнание CSS/HTML препроцессоров (Sass/Less/Stylus/Pug)\nЗнание Git\nВнимательность к мелочам;\nУмение создавать адаптивную верстку;\nПлюсом будет:\n\nОпыт работы с Node.js\nPWA\nNativeScript\nМы предлагаем:\n· Молодой коллектив с крутой командой разработки, в которой можно быстро расти и развиваться;\n· Интересные рабочие задачи;\n· Офис на Кунаева с панорамным видом на город;\n· Стабильная заработная плата, официальное трудоустройство.\n\nКонтакты: @sanzhikee, sanzhar.sarsenbi@gmail.com, +7 702 97 65 999","markup":[{"type":"hashtag","offset":0,"length":9,"data":"вакансия"},{"type":"hashtag","offset":10,"length":3,"data":"js"},{"type":"hashtag","offset":14,"length":8,"data":"angular"},{"type":"link","offset":77,"length":20,"data":"https://thefroot.com"},{"type":"handle","offset":2034,"length":10,"data":"sanzhikee"},{"type":"link","offset":2046,"length":26,"data":"mailto:sanzhar.sarsenbi@gmail.com"},{"type":"link","offset":2074,"length":16,"data":"tel:+7 702 97 65 999"}],"date":"2020-04-09T06:39:00+00:00","link":"tg://resolve?domain=javascript_jobs_feed&post=15475","tags":[{"name":"javascript"},{"name":"angularjs"},{"name":"html"},{"name":"css"},{"name":"gruntjs"},{"name":"gulp"},{"name":"webpack"},{"name":"sass"},{"name":"git"},{"name":"nodejs"}],"cities":[{"code":"almaty"}],"allowsRemote":true}},{"node":{"__typename":"Job","id":"16225665024-1001110946746","title":"Js разработчик","text":"#вакансия #nodejs #backend #remote #postgres #rabbitmq #redis #docker #linux #удаленно\n\nВакансия Node.JS разработчик\nФормат работы: удаленно\nЗанятость: полная\nЗарплатная вилка: \nMiddle 160000-190000₽, \nSenior 200000-230000₽\nКомпания: ЕasyPay\n\nПлатежная система для мгновенной оплаты по счетам за сотовый телефон, коммунальные услуги, услуги денежных переводов, игры и тд.\n\n🔹Наши продукты сейчас особенно актуальны и востребованы\n\n🔹Почти вся команда работает удалённо. Это молодые, веселые и целеустремлённые ребята. У нас очень дружная команда👍🏽\n\n🔹Компания постоянно увеличивает количество предоставляемых услуг, и сейчас нужны два разработчика, Senior и Middle\n\n♦️На проекте используем такие технологии: Postgres, Rabbitmq, Redis, Docker и все это работает на Linux \n\nИ это только 10% всей информации, пишите, буду рада рассказать подробнее о условиях работы, проекте и бонусах @Julia_Nikolova","markup":[{"type":"hashtag","offset":0,"length":9,"data":"вакансия"},{"type":"hashtag","offset":10,"length":7,"data":"nodejs"},{"type":"hashtag","offset":18,"length":8,"data":"backend"},{"type":"hashtag","offset":27,"length":7,"data":"remote"},{"type":"hashtag","offset":35,"length":9,"data":"postgres"},{"type":"hashtag","offset":45,"length":9,"data":"rabbitmq"},{"type":"hashtag","offset":55,"length":6,"data":"redis"},{"type":"hashtag","offset":62,"length":7,"data":"docker"},{"type":"hashtag","offset":70,"length":6,"data":"linux"},{"type":"hashtag","offset":77,"length":9,"data":"удаленно"},{"type":"handle","offset":884,"length":15,"data":"Julia_Nikolova"}],"date":"2020-04-09T06:38:38+00:00","link":"tg://resolve?domain=javascript_jobs_feed&post=15474","tags":[{"name":"javascript"},{"name":"nodejs"},{"name":"postgresql"},{"name":"rabbitmq"},{"name":"redis"},{"name":"docker"},{"name":"linux"}],"cities":[],"allowsRemote":true}},{"node":{"__typename":"Job","id":"16224616448-1001110946746","title":"Js разработчик","text":"#вакансия #frontend #developer #senior  #javascript #typescript #angular #fulltime #офис #питер\n\nSenior Frontend Developer\nКомпания: CM.Expert\nЛокация: Санкт-Петербург\nЗанятость: fulltime\nЗ/п: 150-250К net\nКонтакты: @observer69\n\nCM.Expert — единственная в России платформа, предназначенная для интеллектуального анализа рынка и автоматизированного управления продажами и складом автомобилей с пробегом.\n\nУсловия\n● Гибкий график рабочего времени (полный день, о начале и окончании рабочего дня можно договориться)\n● Профессиональная команда, Agile-процесс с плоской структурой управления проектом, работа по ТЗ, всё белое, офис в 15 минутах от метро Балтийская в БЦ “Балтийский Порт\n● Бессрочный трудовой договор\n\nТребования\n● Продолжительный специализированный опыт работы с FrontEnd-приложениями\n● Высокое качество кода\n● Навыки работы с Git\n● Хорошее знание JavaScript / TypeScript\n● Знание HTML5 / DOM / SCSS\n● Навыки верстки, внимательность, хороший “глазомер”\n● Уверенные знания и навыки работы с ReactiveX\n● Умение работать с “состоянием” приложения; эрудиция в “Best Practices”\n● Хорошее знание фреймворка Angular (2-6) — в том числе, “под капотом”\n● Опыт создания типовых решений (npm-пакетов, плагинов, библиотек и т.д.)\n● Хорошее понимание принципов ООП, функционального программирования\n● Понимание принципов поддерживаемости\n● Хорошее знание сборщиков: WebPack, Gulp; способность создавать кастомные решения любой сложности\n● Опыт работы с базами данных и хранением информации\n● Умение работать с документацией (читать и писать)\n● Навыки работы с JSON Schema, OpenAPI/Swagger\n\nЗадачи\n1. Развитие и поддержание функциональности CM.Expert\n2. Участие в проектировании архитектуры приложения и API.        \n3. Взаимодействие с BE разработчиками, дизайнером, продукт-менеджером.","markup":[{"type":"hashtag","offset":0,"length":9,"data":"вакансия"},{"type":"hashtag","offset":10,"length":9,"data":"frontend"},{"type":"hashtag","offset":20,"length":10,"data":"developer"},{"type":"hashtag","offset":31,"length":7,"data":"senior"},{"type":"hashtag","offset":40,"length":11,"data":"javascript"},{"type":"hashtag","offset":52,"length":11,"data":"typescript"},{"type":"hashtag","offset":64,"length":8,"data":"angular"},{"type":"hashtag","offset":73,"length":9,"data":"fulltime"},{"type":"hashtag","offset":83,"length":5,"data":"офис"},{"type":"hashtag","offset":89,"length":6,"data":"питер"},{"type":"handle","offset":216,"length":11,"data":"observer69"}],"date":"2020-04-09T06:38:20+00:00","link":"tg://resolve?domain=javascript_jobs_feed&post=15473","tags":[{"name":"javascript"},{"name":"typescript"},{"name":"angularjs"},{"name":"dotnet"},{"name":"git"},{"name":"html"},{"name":"npm"},{"name":"webpack"},{"name":"gulp"},{"name":"json"},{"name":"swagger"}],"cities":[],"allowsRemote":false}},{"node":{"__typename":"Job","id":"16223567872-1001110946746","title":"Javascript разработчик","text":"#вакансия #москва #офис #полнаязанятость #frontend #javascript #react #angular #vue\n\nFrontend-разработчик (JavaScript)\n\nГород и адрес офиса: Москва, метро Дубровка\nФормат работы: офис (в период самоизоляции работаем удалённо)\nЗанятость: полная\nЗарплатная вилка: от 140 000 до 170 000 рублей\n\nЗадачи:\n\n— Разработка frontend-интерфейса рекламной платформы\n— Перевод UI/UX макетов в верстку\n— Взаимодействие с backend-разработчиками, согласование протоколов обмена данными\n— Работа со сторонними frontend-решениями, в т.ч. внесение изменений в сторонний код\n— Разработка плеера, поддерживающего стандарты VAST/VPAID\n— Разработка и поддержка рекламных блоков (VPAID AdUnit)\n— Разработка автоматизированных тестов и тестовых сред\n\nТребования:\n\n— Опыт кроссбраузерной веб-разработки от трех лет (HTML 5, CSS)\n— Опыт программирования с использованием как чистого JavaScript, так и фреймворков (react, angular, vue), работа с npm\n— Опыт работы с REST API\n\nБудет плюсом:\n\n— Представление об асинхронной̆ обработке запросов, разработка single-page application\n— Опыт работы в AdTech, знание протоколов VAST/VPAID, представление о работе плееров с рекламными материалами\n— Знание о том, что такое CORS\n— Хорошее понимание работы HTTP протокола \n— Навыки работы с сетевыми инспекторами\n\nУсловия:\n\n— Заработная плата от 140 000 до 170 000 рублей (по результатам собеседования)\n— Полная занятость, полный день\n— Работа под руководством опытного CTO c хорошим чувством юмора :)\n— Современный комфортный офис в Москве (метро Дубровка)\n\nНазвание компании:\n\nUnion Media Group\n\nО компании:\n\nГруппа компаний на стыке агентского бизнеса и рекламных технологий.\n\nРазрабатываем ab ovo рекламную платформу, не отягощенную legacy-кодом и грузом обратной совместимости.\n\nВ качестве таск-трекера используем Jira.\n\nДля откликов: \n\nПройдите первичное собеседование в экспресс-формате прямо сейчас:\n\n👉 @yeshr_it_bot\n\nПо дополнительным вопросам:\n\n🖖 @asubc","markup":[{"type":"hashtag","offset":0,"length":9,"data":"вакансия"},{"type":"hashtag","offset":10,"length":7,"data":"москва"},{"type":"hashtag","offset":18,"length":5,"data":"офис"},{"type":"hashtag","offset":24,"length":16,"data":"полнаязанятость"},{"type":"hashtag","offset":41,"length":9,"data":"frontend"},{"type":"hashtag","offset":51,"length":11,"data":"javascript"},{"type":"hashtag","offset":63,"length":6,"data":"react"},{"type":"hashtag","offset":70,"length":8,"data":"angular"},{"type":"hashtag","offset":79,"length":4,"data":"vue"},{"type":"handle","offset":1875,"length":13,"data":"yeshr_it_bot"},{"type":"handle","offset":1922,"length":6,"data":"asubc"}],"date":"2020-04-09T06:38:06+00:00","link":"tg://resolve?domain=javascript_jobs_feed&post=15472","tags":[{"name":"javascript"},{"name":"reactjs"},{"name":"angularjs"},{"name":"vuejs"},{"name":"html"},{"name":"css"},{"name":"npm"},{"name":"rest"}],"cities":[{"code":"moscow"}],"allowsRemote":true}},{"node":{"__typename":"Job","id":"16222519296-1001110946746","title":"Javascript разработчик","text":"#вакансия #frontend #fulltime #vue #middle\nГород и адрес офиса: Санкт-Петербург, м. Московская\nФормат работы: #офис\nЗанятость: полная\nНазвание компании: Paydek, paydek.com\nЗарплатная вилка: от 160 000 до 220 000 рублей на руки\n\nНаш продукт — это удобная система для оплаты фрилансеров и удалённых сотрудников по всему миру.\n\nПроект существует 10 лет, у него 50 000 корпоративных клиентов и порядка 500 000 частных.\n\nИщем Middle Frontend-разработчика, которому не чуждо чувство прекрасного.\n\nОсновные ожидания:\n— опыт разработки на JavaScript от 2-х лет;\n— от 1 года на Vue;\n— опыт взаимодействия с REST API;\n— опыт работы с git или с любой другой системой контроля версий.\n\nБудет плюсом:\n— бэкграунд в дизайне, UX;\n— опыт тестирования своего кода;\n— опыт разработки для платежных систем.\n\nГрафик работы гибкий — приход в офис до 13:00.\n\nКонтакт для связи: @recruiter","markup":[{"type":"hashtag","offset":0,"length":9,"data":"вакансия"},{"type":"hashtag","offset":10,"length":9,"data":"frontend"},{"type":"hashtag","offset":20,"length":9,"data":"fulltime"},{"type":"hashtag","offset":30,"length":4,"data":"vue"},{"type":"hashtag","offset":35,"length":7,"data":"middle"},{"type":"hashtag","offset":110,"length":5,"data":"офис"},{"type":"link","offset":161,"length":10,"data":"http://paydek.com"},{"type":"handle","offset":856,"length":10,"data":"recruiter"}],"date":"2020-04-09T06:37:42+00:00","link":"tg://resolve?domain=javascript_jobs_feed&post=15471","tags":[{"name":"javascript"},{"name":"vuejs"},{"name":"rest"},{"name":"git"}],"cities":[],"allowsRemote":false}}]}}},"context":{}}