{"hash":"f5f6bf98bd95e769321482904cbbd488f77922fd","data":{"records":{"id":"kubernetes","name":"kubernetes","belongsTo":{"totalCount":87,"pageInfo":{"totalPages":9,"currentPage":4},"edges":[{"node":{"__typename":"Job","id":"2260729856-1001134745498","title":"Devops engineer","text":"#вакансия #devops #azure #remote #спб #fulltime #релокация #офис #удаленка\n\nВ компании Bekitzur открыта позиция Senior DevOps Remote Engineer (Azure)\n\nМы работаем с крупными Американскими проектами и стартапами из Кремниевой долины.\n\nЗарплатная вилка: от 200 до 300К рублей на руки.\n\nПроект: Софт для командного планирования, с возможностью интерактивного управления с помощью жестов рук.\n\nИспользуемые технологии: Azure, Terraform, Kubernetes, PostgreSQL, Redis.\n\nОсновные требования:\nОпыт с Azure от 2-х лет\nОпыт на позиции DevOps от 3-х лет\nАнглийский от B2\n\nВозможно работать в офисе(Санкт-Петербург) и удаленно\n\nПисать: @khabibulin_it\n\n—\n\n👉 Обсуждение вакансии в чате @devops_jobs","markup":[{"type":"hashtag","offset":0,"length":9,"data":"вакансия"},{"type":"hashtag","offset":10,"length":7,"data":"devops"},{"type":"hashtag","offset":18,"length":6,"data":"azure"},{"type":"hashtag","offset":25,"length":7,"data":"remote"},{"type":"hashtag","offset":33,"length":4,"data":"спб"},{"type":"hashtag","offset":38,"length":9,"data":"fulltime"},{"type":"hashtag","offset":48,"length":10,"data":"релокация"},{"type":"hashtag","offset":59,"length":5,"data":"офис"},{"type":"hashtag","offset":65,"length":9,"data":"удаленка"},{"type":"handle","offset":625,"length":14,"data":"khabibulin_it"},{"type":"handle","offset":674,"length":12,"data":"devops_jobs"}],"date":"2020-06-29T08:16:46+00:00","link":"tg://resolve?domain=devops_jobs_feed&post=2156","tags":[{"name":"azure"},{"name":"kubernetes"},{"name":"postgresql"},{"name":"redis"}],"cities":[],"allowsRemote":true}},{"node":{"__typename":"Job","id":"17178820608-1001110946746","title":"Js developer","text":"#Вакансия #разыскивается #JS #Vue.js #Vue #developer #Сочи #fulltime #работа #офис \n\nГород: Сочи\n\nФормат работы: офис\n\nЗанятость: fulltimе\n\nЗарплатная вилка: от 130 000 до 150 000 рублей\n\nОписание вакансии: \nСоздание системы по управлению метаданными компании. Работа в кроссфункциональной команде в составе до 10 человек\n\nНазвание компании: ОЦРВ\n\nПримерный пул задач:\n•  Разработка системы по управлению метаданными\n•  Участие в построение архитектуры решения\n•  Разработка интеграционных сценариев с другими системами\n•  Подготовка инструкций и документации\n\n\nНаши требования к кандидату: \n•  Аналитическое мышление, понимание работы алгоритмов, структур данных и оптимизации работы приложений\n•  Опыт разработки на Vue.js, React (Redux или MobX, Webpack, SCSS)\n•  Отличные знания чистого Javascript\n•  Умение адаптивно и кроссбраузерно верстать\n•  Опыт работы с веб-сервисами (SOAP, REST)\n•  Опыт работы с микросервисной архитектурой\n•  Опыт работы с GIT\n\nБудет плюсом\n•  Опыт работы с популярными css-фреймворками (bootstrap, semantic, material-ui и т.д.)\n•  Опыт работы с Webpack, NPM\n•  Опыт работы с Docker\n•  Опыт работы с Selenium и/или другими средствами UI тестирования\n•  Использование Figma для работы с дизайнером\n\n\n\nНаш стек:\nJava 8-11, Spring, Vue.js, PostgreSQL/HBase/MongoDB/JanusGraph, GIT, Docker, Kubernetes, Kafka\n\nУсловия: \n•  Офис в Адлере в 10 минутах до моря\n•  Оклад: 130 000 - 150 000 руб. gross\n•  Компенсация проживания 20 000 руб. gross в месяц (для кандидатов из других регионов)\n•  Релокационный бонус в размере оклада (для кандидатов из других регионов)\n•  Премия до 30% годового оклада\n•  Работа в динамичной команде единомышленников\n•  Компенсация ДМС после прохождения испытательного срока\n•  Скидки на ДМС для родственников\n•  Компенсация мобильной связи\n•  Новейшее оборудование и просторный офис\n•  Лучшая экология и климат в России\n•  Море и горнолыжный курорт рядом\n\n\nКомпания: ОЦРВ\nСайт: http://www.ocrv.ru/\nКонтакты: @Mirovan","markup":[{"type":"hashtag","offset":0,"length":9,"data":"Вакансия"},{"type":"hashtag","offset":10,"length":14,"data":"разыскивается"},{"type":"hashtag","offset":25,"length":3,"data":"JS"},{"type":"hashtag","offset":29,"length":4,"data":"Vue"},{"type":"hashtag","offset":37,"length":4,"data":"Vue"},{"type":"hashtag","offset":42,"length":10,"data":"developer"},{"type":"hashtag","offset":53,"length":5,"data":"Сочи"},{"type":"hashtag","offset":59,"length":9,"data":"fulltime"},{"type":"hashtag","offset":69,"length":7,"data":"работа"},{"type":"hashtag","offset":77,"length":5,"data":"офис"},{"type":"link","offset":1931,"length":19,"data":"http://www.ocrv.ru/"},{"type":"handle","offset":1961,"length":8,"data":"Mirovan"}],"date":"2020-06-27T09:58:34+00:00","link":"tg://resolve?domain=javascript_jobs_feed&post=16383","tags":[{"name":"javascript"},{"name":"vuejs"},{"name":"reactjs"},{"name":"redux"},{"name":"webpack"},{"name":"soap"},{"name":"rest"},{"name":"git"},{"name":"css"},{"name":"bootstrap"},{"name":"npm"},{"name":"docker"},{"name":"selenium"},{"name":"java"},{"name":"spring"},{"name":"postgresql"},{"name":"hbase"},{"name":"mongodb"},{"name":"kubernetes"},{"name":"kafka"},{"name":"react-redux"}],"cities":[{"code":"sochi"}],"allowsRemote":false}},{"node":{"__typename":"Job","id":"2256535552-1001134745498","title":"Devops инженер","text":"#вакансия #devops #docker #kubernetes\n\nВакансия: DevOps\nКомпания: Potok.io\nГород и адрес офиса: Москва, м. Марьина Роща, м. Савёловская\nФормат работы: удаленно на время пандемии, далее офис\nЗанятость: полная\nЗарплатная вилка: от 120 до 200к (net)\n\nМы - SaaS-решение по автоматизации бизнес-процессов в рамках подбора. Ищем человека, который возьмет на себя построение нашей инфраструктуры и CI/CD. Сейчас делаем всё силами команды разработки, а задач уже набралось на полноценного специалиста\nНаш стэк - ubuntu, ruby, postgres, elasticsearch, redis.\n\n🔹Чем предстоит заниматься:\n-настройка CI/CD\n-инфраструктурная поддержка продакшена - мониторинг, логи, деплой, вот это вот всё :)\n-запаковка SaaS-решения в коробку и развертка на серверах клиентов\n\n🔹Мы ищем человека, который:\n-имеет опыт работы DevOps специалистом от 2-х лет\n-имеет опыт администрирования Ubuntu\n-опыт работы с Docker и Kubernetes\n-навыки в сфере автоматизации процессов настройки и управления серверами (puppet, ansible, chef)\n-системы мониторинга и логинорования \nТакже большим плюсом будет опыт работы с PostgreSQL и Elasticsearch\n\n🔹Условия:\n-индивидуальное обсуждение зарплатных ожиданий \n-честное трудоустройство на 100%\n-классный ДМС\n-график 5/2 в среднем с 10 до 19\n-команду, нацеленную на общий результат и интересные задачи\n-дух стартапа + стабильность большой компании \n\nКонтакты: @yulianka_95\n\n—\n\n👉 Обсуждение вакансии в чате @devops_jobs","markup":[{"type":"hashtag","offset":0,"length":9,"data":"вакансия"},{"type":"hashtag","offset":10,"length":7,"data":"devops"},{"type":"hashtag","offset":18,"length":7,"data":"docker"},{"type":"hashtag","offset":26,"length":11,"data":"kubernetes"},{"type":"link","offset":66,"length":8,"data":"http://Potok.io"},{"type":"handle","offset":1362,"length":12,"data":"yulianka_95"},{"type":"handle","offset":1409,"length":12,"data":"devops_jobs"}],"date":"2020-06-25T11:10:32+00:00","link":"tg://resolve?domain=devops_jobs_feed&post=2152","tags":[{"name":"docker"},{"name":"kubernetes"},{"name":"dotnet"},{"name":"ubuntu"},{"name":"ruby"},{"name":"postgresql"},{"name":"elasticsearch"},{"name":"redis"},{"name":"ansible"}],"cities":[{"code":"moscow"}],"allowsRemote":true}},{"node":{"__typename":"Job","id":"2254438400-1001134745498","title":"Devops инженер","text":"Инженер DevOps \n#вакансия #Москва #Сколково #DevOps \n\nКомпания: Farzoom (финтех стартап 2016 года, резидент Сколково) \nЛокация: Москва, МЦД Сколково \nФормат работы: частично удаленный формат  \nЗанятость: Полная  \n💰Зарплатная вилка: от 180т.р до 230т.р net, премии \n\nПроект по разработке облачной фронтальной системы для банковского сектора.  \n\nЧто мы используем: микросервисная архитектура, Java 8, Spring Boot, Camunda BPM, Gitlab, Jenkins, Ansible, Docker Swarm, OpenStack, Nexus. Везде стоит Linux CentOS. \n \nСейчас идет переход на стек: Kubernetes, Coreos, Terraform, Podman. \n \n🎯 Что предстоит делать: \nПоддержка инфраструктуры в облаке (порядка 60 серверов/виртуалок) \nРазворачивание новых контуров \nСборка сервисов \nПоддержка CI/CD (в том числе настройка пайплайнов) \nИнтеграция контура и помощь в поддержке решения \n \n🎯  Мы предлагаем: \nОформление по ТК РФ с первого рабочего дня \nЕжегодные премии \nОфис рядом с МЦД Сколково, возможность часть времени работать удаленно \n\n👉 Контакты: @edzyuba\n\n—\n\n👉 Обсуждение вакансии в чате @devops_jobs","markup":[{"type":"hashtag","offset":16,"length":9,"data":"вакансия"},{"type":"hashtag","offset":26,"length":7,"data":"Москва"},{"type":"hashtag","offset":34,"length":9,"data":"Сколково"},{"type":"hashtag","offset":44,"length":7,"data":"DevOps"},{"type":"handle","offset":996,"length":8,"data":"edzyuba"},{"type":"handle","offset":1039,"length":12,"data":"devops_jobs"}],"date":"2020-06-25T07:28:33+00:00","link":"tg://resolve?domain=devops_jobs_feed&post=2150","tags":[{"name":"dotnet"},{"name":"java"},{"name":"spring"},{"name":"gitlab"},{"name":"jenkins"},{"name":"ansible"},{"name":"docker"},{"name":"linux"},{"name":"centos"},{"name":"kubernetes"},{"name":"spring-boot"}],"cities":[{"code":"moscow"}],"allowsRemote":true}},{"node":{"__typename":"Job","id":"2253389824-1001134745498","title":"Devops инженер","text":"#вакансия #Москва #офис #DevOps\n\n▫️ВАКАНСИЯ: Devops engineer\nКомпания: Северсталь-Диджитал\nФормат работы: удаленно на пандемии, далее офис  \nЛокация: Москва Офис на м. Войковская или МЦК Балтийская\nЗанятость: полная \nЗарплатная вилка: до 140-180к gross middle, 180-230к gross senior  + 30% годовой бонус\n\nКомпания занимается внедрением моделей машинного обучение в производстве. Мы ищем devops инженера для поддержки и развития платформы k8s, Kafka, Hadoop, Gitlab. Работа в небольшой команде, где ваши идеи будут быстро находить реализацию.\n\n▫️Обязанности:\n • Настройка, обновление, GitLab, GitlabCI, Nexus/Artifactory; \n • Организация сбора логов с компонентов IoT платформы Северстали (GrayLog); \n • Организация сбора метрик, описывающих состояние IoT платформы; \n • Создание дашбордов и алертов в Grafana; \n • Автоматизированный выпуск релизов. \n\n▫️Требования:\n• Опыт работы в роли DevOps инженера или аналогичной позиции от 1-го года;  \n• Опыт работы с Linux в роли администратора, навыки работы с Docker; \n• Опыт работы с Hadoop, Kafka, Kubernetes. \n\n▫️Желательно:\n• Умение быстро изучать англоязычные технические ресурсы; \n• Экспертные навыки работы с ОС семейства Linux; \n• Навыки работы на языках программирования Bash, Python, Java, Scala.\n• Опыт работы с Prometeus, Zabbix, ELK\n\n▫️Условия:\n•  Гибкое начало рабочего дня\n•  Официальное оформление\n•  Корпоративную мобильную связь, медицинскую страховку и страхование жизни\n•  Участие в профессиональных конференциях\n•  Современное рабочее пространство и уютные зоны отдыха\n\nКонтакты @DaynekoRoman, @ikart\n\n—\n\n👉 Обсуждение вакансии в чате @devops_jobs","markup":[{"type":"hashtag","offset":0,"length":9,"data":"вакансия"},{"type":"hashtag","offset":10,"length":7,"data":"Москва"},{"type":"hashtag","offset":18,"length":5,"data":"офис"},{"type":"hashtag","offset":24,"length":7,"data":"DevOps"},{"type":"handle","offset":1543,"length":13,"data":"DaynekoRoman"},{"type":"handle","offset":1558,"length":6,"data":"ikart"},{"type":"handle","offset":1599,"length":12,"data":"devops_jobs"}],"date":"2020-06-25T07:26:49+00:00","link":"tg://resolve?domain=devops_jobs_feed&post=2149","tags":[{"name":"kafka"},{"name":"hadoop"},{"name":"gitlab"},{"name":"linux"},{"name":"docker"},{"name":"kubernetes"},{"name":"bash"},{"name":"python"},{"name":"java"},{"name":"scala"}],"cities":[{"code":"moscow"}],"allowsRemote":true}},{"node":{"__typename":"Job","id":"17133731840-1001110946746","title":"Js developer","text":"#вакансия #frontenddeveloper #frontend\n\nГород и адрес офиса: Москва\n\nФормат работы: удаленна\n\nЗанятость: проектная, далее возможно заключение долгосрочного контракта с бонусами за развитие компании (испытательный срок - 2 месяца)\n\nЗарплатная вилка: от 90 000 до 130 000 руб.\n\nОписание вакансии: РАЗРАБОТКА ИНТЕРНЕТ  ПЛАТФОРМЫ ДЛЯ СОЗДАНИЯ КОМПЬЮТЕРНОЙ ГРАФИКИ ДЛЯ ИГР И СПЕЦЭФФЕКТОВ В КИНО (cg-doo.com)\n\nТребуемый опыт работы: 2–5 лет\n\nНеобходимые навыки:\n- уверенное знание JavaScript, React / Redux, HTML5, CSS3\n- опыт коммерческой разработки с использованием React.JS, Redux от года\n- опыт работы с ES6\n- знание английского на уровне чтения документации\n\nБудет плюсом:\n- опыт работы с Docker, Git\n\nСтек проекта:\n- SPA-приложение JS / React / Redux;\n- бэкэнд на Django/Postgresql/Redis/Celery/RabbitMQ; \n- NginX, kubernetes\n\nНазвание компании: Argunov Studio (https://argunov.studio)\n\nПодробнее ознакомиться с компанией и вакансией можно здесь: https://help.cg-doo.com/work-in-cg-doo/vacancies/frontend-developer\n\nКонтакты: телеграм @victoriashrv и/или на почту vicsukhareva@yandex.ru (пожалуйста, прикладывайте резюме или сопроводительное письмо)\n\n—\n\n👉 Обсуждение вакансии в чате @javascript_jobs","markup":[{"type":"hashtag","offset":0,"length":9,"data":"вакансия"},{"type":"hashtag","offset":10,"length":18,"data":"frontenddeveloper"},{"type":"hashtag","offset":29,"length":9,"data":"frontend"},{"type":"link","offset":391,"length":10,"data":"http://cg-doo.com"},{"type":"link","offset":862,"length":22,"data":"https://argunov.studio"},{"type":"link","offset":947,"length":67,"data":"https://help.cg-doo.com/work-in-cg-doo/vacancies/frontend-developer"},{"type":"handle","offset":1035,"length":13,"data":"victoriashrv"},{"type":"link","offset":1064,"length":22,"data":"mailto:vicsukhareva@yandex.ru"},{"type":"handle","offset":1184,"length":16,"data":"javascript_jobs"}],"date":"2020-06-24T13:37:13+00:00","link":"tg://resolve?domain=javascript_jobs_feed&post=16340","tags":[{"name":"javascript"},{"name":"reactjs"},{"name":"redux"},{"name":"html"},{"name":"css"},{"name":"docker"},{"name":"git"},{"name":"django"},{"name":"postgresql"},{"name":"redis"},{"name":"rabbitmq"},{"name":"nginx"},{"name":"kubernetes"},{"name":"react-redux"}],"cities":[{"code":"moscow"}],"allowsRemote":false}},{"node":{"__typename":"Job","id":"2250244096-1001134745498","title":"Devops engineer","text":"#вакансия #vacancy #job #Belarus #Russsia #Ukraine #office #remote #fulltime #flexible #devops #aws #docker  #kubernetes #terraform\nPosition - DevOps Engineer\nCompany - Sphere Software\nLocation - Belarus, Russia, Ukraine\nWork - Remote or Office, Full-time\nSalary - 3700$ - 4800$ gross (3500$-4500$ nett)\n\nSphere Software is  partnered innovative trading platform with post-trade settlement and payments system and looking for DevOps engineer. \n\nRequirements:\n🔹 5+ years of experience as an SRE, DevOps engineer, operations engineer or similar\n🔹 Expert at Linux system administration\n🔹 Deep understanding of AWS technologies  \n🔹 Experience using IaC tools such as Ansible or Terraform \n🔹 Hands-on experience using Docker, AWS ECS or other orchestration tools\n🔹 Experience with bare metal infrastructures preferred\n🔹 Proficient in Python or alternative scripting language \n🔹 Experience managing a metrics driven system infrastructure\n🔹 Familiarity and hands on experience with common CI/CD pipeline tools (we use Jenkins) and container technologies\n🔹 Experience using Hashicorp Vault and Consul (big plus)\n🔹 Knowledge of cybersecurity mitigation and best practice (big plus)\n🔹 Relevant experience from an exchange, proprietary trading firm or top tier bank (big plus) \n \nResponsibilities include but are not limited to:\n🔹 Maintain and improve upon the uptime reliability of the overall platform \n🔹 Investigation and handling of issues in all public environments \n🔹 Designing automation tools and improving upon our deployment and release pipeline \n🔹 Build monitoring and alerting tools to keep internal teams and external stakeholders informed about system health and platform viability\n🔹 Identify and advocate for changes vital to the stability and supportability of the system\n🔹 Support the growth and scale of our infrastructure by suggesting and implementing new technology architecture\n \nOn-site benefits:\n🔹 Competitive compensation and paid time off\n🔹 Team of professionals providing you with the opportunity to grow\n🔹 Sports compensation\n🔹 Team building events.\n\nFeel free to contact me for more info! 👋  @alex_ithr\n\n—\n\n👉 Обсуждение вакансии в чате @devops_jobs","markup":[{"type":"hashtag","offset":0,"length":9,"data":"вакансия"},{"type":"hashtag","offset":10,"length":8,"data":"vacancy"},{"type":"hashtag","offset":19,"length":4,"data":"job"},{"type":"hashtag","offset":24,"length":8,"data":"Belarus"},{"type":"hashtag","offset":33,"length":8,"data":"Russsia"},{"type":"hashtag","offset":42,"length":8,"data":"Ukraine"},{"type":"hashtag","offset":51,"length":7,"data":"office"},{"type":"hashtag","offset":59,"length":7,"data":"remote"},{"type":"hashtag","offset":67,"length":9,"data":"fulltime"},{"type":"hashtag","offset":77,"length":9,"data":"flexible"},{"type":"hashtag","offset":87,"length":7,"data":"devops"},{"type":"hashtag","offset":95,"length":4,"data":"aws"},{"type":"hashtag","offset":100,"length":7,"data":"docker"},{"type":"hashtag","offset":109,"length":11,"data":"kubernetes"},{"type":"hashtag","offset":121,"length":10,"data":"terraform"},{"type":"handle","offset":2133,"length":10,"data":"alex_ithr"},{"type":"handle","offset":2178,"length":12,"data":"devops_jobs"}],"date":"2020-06-24T10:07:58+00:00","link":"tg://resolve?domain=devops_jobs_feed&post=2146","tags":[{"name":"amazon-web-services"},{"name":"docker"},{"name":"kubernetes"},{"name":"linux"},{"name":"ansible"},{"name":"python"},{"name":"jenkins"},{"name":"deployment"}],"cities":[],"allowsRemote":true}},{"node":{"__typename":"Job","id":"2249195520-1001134745498","title":"Devops engineer","text":"#вакансия #devops #azure #remote #спб #fulltime #релокация \n\nSenior DevOps Remote Engineer (Azure)\n\nCity: Saint-Petersburg, metro Mayakovskaya | Chernyshevskaya \nFormat: office or remote (both are possible)\nSalary: ₽220-300k\n\nProject: We are BeKitzur and now we are looking for a Senior DevOps Engineer to support and drive innovative collaboration software products used by dozens of thousands of clients across the world. \nThe platform is an Azure-hosted solution and offers you a great opportunity in driving state-of-the-art CI/CD, security, monitoring and DB management. This is a great position for an energetic and ambitious professional to get to the next career step and become a member of a stable and growing international company.\n\nResponsibilities:\n🔹Set up the best monitoring ever - unified, transparent and flexible\n🔹Improve our CI/CD process and automation to deliver faster, more frequent and reliable releases\n🔹Migrate databases to more secure and powerful clusters\n🔹Migrate applications to Kubernetes\n🔹Increase High-Availability and Reliability of applications and DB clusters\n🔹Optimize Azure costs and design more cost-effective DevOps solutions\n🔹Improve the existing DevOps processes and technologies, such as CI/CD, monitoring, logs aggregation, and security\n🔹Participate in all DevOps decisions together with Senior engineers and Tech leads\n🔹Define and implement the security architecture to ensure data security at rest and in transit, application security, key management, identity management, authentication, and authorization with OIDC and OAuth2, infrastructure security with Azure VNets, NSGs, UDR, etc.\n\nRequired Skills and Experience:\n🔹5 years of experience in IT with good knowledge in Linux\n🔹Experience in maintaining a production data processing system\n🔹Hands-on experience with git, Jenkins, Docker, and MySQL\n🔹Azure Networking - Azure Virtual Networks, ExpressRoute, NSG, App Service Environment\n🔹Azure PAAS Services Security and Provisioning\n🔹Cloud Security - Azure Key Vault, HSTS, SSL/TLS Ingress Control\n🔹Cloud monitoring - Experience with Azure Log Analytics, Azure Monitor, DataDog\n🔹Experience with any configuration management tool (Ansible, Saltstack, Chef, Puppet, etc), Ansible preferred\n🔹Hands-on experience with cloud technologies (Azure in our case)\n🔹Bash and Python scripting skills\n🔹Good written and spoken English\n\nBenefits:\n🔹Extremely interesting complex products\n🔹The most modern technology stack\n🔹Wonderful result-oriented team of senior professionals\n🔹Support for all your Cloud studies and certificates (you will have access and we will pay for exams)\n🔹Friendly atmosphere\n🔹Competitive salary\n🔹Medical insurance, sport, English classes in the office\n🔹Business trips to the US (Silicon Valley)\n🔹Relocation package to St.Petersburg\n🔹Opportunity to build a career in a growing branch of the stable US company\n🔹Professional growth in the international business environment\n\n📩\nОткликнуться: @Khabibulin_it\n\n—\n\n👉 Обсуждение вакансии в чате @devops_jobs","markup":[{"type":"hashtag","offset":0,"length":9,"data":"вакансия"},{"type":"hashtag","offset":10,"length":7,"data":"devops"},{"type":"hashtag","offset":18,"length":6,"data":"azure"},{"type":"hashtag","offset":25,"length":7,"data":"remote"},{"type":"hashtag","offset":33,"length":4,"data":"спб"},{"type":"hashtag","offset":38,"length":9,"data":"fulltime"},{"type":"hashtag","offset":48,"length":10,"data":"релокация"},{"type":"handle","offset":2975,"length":14,"data":"Khabibulin_it"},{"type":"handle","offset":3024,"length":12,"data":"devops_jobs"}],"date":"2020-06-23T16:22:03+00:00","link":"tg://resolve?domain=devops_jobs_feed&post=2145","tags":[{"name":"azure"},{"name":"kubernetes"},{"name":"rest"},{"name":"oauth"},{"name":"linux"},{"name":"git"},{"name":"jenkins"},{"name":"docker"},{"name":"mysql"},{"name":"cloud"},{"name":"ssl"},{"name":"ansible"},{"name":"bash"},{"name":"python"},{"name":"ms-access"}],"cities":[],"allowsRemote":true}},{"node":{"__typename":"Job","id":"1730150400-1001091028994","title":"Java разработчик","text":"#вакансия #москва #офис #fulltime #clojure \nИщу разработчика, желающего переехать на Clojure или уже имеет опыт с ним.\n\nПроект - saas платформа для digital маркетинга. Собираем и обрабатываем большие данные о покупателях всего крупного e-commerce. \n\nУ нас:\n- Clojure, FP;\n- Kafka, Spark;\n- Docker, Docker Compose, Terraform, Kubernetes, AWS;\n- Highload (15k - 20k rps), терабайты данных;\n- Postgresql, Vertica, DynamoDB, Redis, Tarantool, Memcached, Clickhouse.\n\nУ вас:\n- Опыт в промышленном программировании (Java, Scala, Python, Ruby, Clojure, etc) от 2-х лет; \n- Опыт в высоконагруженных проектах с микросервисной архитектурой;\n- Любовь к FP.\n\nУсловия:\n- Москва, офис м.Тверская, фуллтайм;\n- Белая з/п до 300к net;\n- ДМС, хороший офис и техника;\n\nЗа подробностями —-> @nat_kirisova","markup":[{"type":"hashtag","offset":0,"length":9,"data":"вакансия"},{"type":"hashtag","offset":10,"length":7,"data":"москва"},{"type":"hashtag","offset":18,"length":5,"data":"офис"},{"type":"hashtag","offset":24,"length":9,"data":"fulltime"},{"type":"hashtag","offset":34,"length":8,"data":"clojure"},{"type":"handle","offset":771,"length":13,"data":"nat_kirisova"}],"date":"2020-06-23T15:25:30+00:00","link":"tg://resolve?domain=jvmjobs&post=1650","tags":[{"name":"java"},{"name":"jvm"},{"name":"clojure"},{"name":"kafka"},{"name":"docker"},{"name":"kubernetes"},{"name":"amazon-web-services"},{"name":"postgresql"},{"name":"dynamodb"},{"name":"redis"},{"name":"scala"},{"name":"python"},{"name":"ruby"},{"name":"dotnet"},{"name":"docker-compose"}],"cities":[{"code":"moscow"}],"allowsRemote":false}},{"node":{"__typename":"Job","id":"2246049792-1001134745498","title":"Devops инженер","text":"#вакансия #МСК #DevOps #удаленно\nГород : Москва \nГрафик работы: 5/2\nЗанятость: полная\nЗ/п: от 100 т.р до 250 т.р. на руки 💥\nКомпания: wavesenterprise.com\n\nПозиция открыта в очень крутую команду, которая занимается разработкой и внедрением кастомизированных решений на технологии блокчейн внешним заказчикам (b2b, b2g).\n\nЗадачи:\n- подготовка инфраструктуры для сборки, развертывания и тестирования программного обеспечения;\n- построение и сопровождение конвейера непрерывной интеграции\\поставки программного обеспечения;\n- администрирование и обеспечение работоспособности ИТ-инфраструктуры разработки.\n\nТребования:\n- Опыт администрирования linux;\n- Опыт работы с Jenkins, Kubernetes, Ansible, public cloud engines.\n- Умение писать на bash/python и желательно groovy.\n\nПо вакансии прошу писать мне в tg @v_soloveva\n\n—\n\n👉 Обсуждение вакансии в чате @devops_jobs","markup":[{"type":"hashtag","offset":0,"length":9,"data":"вакансия"},{"type":"hashtag","offset":10,"length":4,"data":"МСК"},{"type":"hashtag","offset":15,"length":7,"data":"DevOps"},{"type":"hashtag","offset":23,"length":9,"data":"удаленно"},{"type":"link","offset":135,"length":19,"data":"http://wavesenterprise.com"},{"type":"handle","offset":803,"length":11,"data":"v_soloveva"},{"type":"handle","offset":849,"length":12,"data":"devops_jobs"}],"date":"2020-06-23T12:50:03+00:00","link":"tg://resolve?domain=devops_jobs_feed&post=2142","tags":[{"name":"linux"},{"name":"jenkins"},{"name":"kubernetes"},{"name":"ansible"},{"name":"cloud"},{"name":"bash"},{"name":"python"},{"name":"groovy"}],"cities":[{"code":"moscow"}],"allowsRemote":true}}]}}},"context":{}}