{"hash":"f34fd2c444a074f4e0e67d525015a008ef8e766f","data":{"records":{"id":"cassandra","name":"cassandra","belongsTo":{"totalCount":13,"pageInfo":{"totalPages":2,"currentPage":1},"edges":[{"node":{"__typename":"Job","id":"1435500544-1001091028994","title":"Java разработчик","text":"#ulyanovsk #java #kotlin #backend #spring #middle #senior\n\nЛокация: Ульяновск, можно удаленно, если из другого города (работаем по ТК РФ или как с Российским ИП) \nФормат работы: #офис, #fulltime #remote\nЗ/п: до 150к т.р. (net) \nКомпания: Nord Clan\nКонтакты: @VladislavAg\n\nИщу разработчика в команду Nord Clan. Наша компания разрабатывает системы для бизнеса в области финтеха, медецины и фудтеха. Помимо этого разрабатываем собственные продукты связанные с машинным обучением, распознаванием образов и компьютерным зрением. \nОгромным плюсом будет опыт работы с Kotlin. \nТакже готовы рассмотреть специалистов с опытом в других backend технологиях, которые хотят погрузиться в мир Java.\n\n📌 Мы работаем с:\nJava 8 и выше, Kotlin, Groovy;\nSpring, Spring Boot, Security, Data, MVC;\nРеляционным базами (Postgres\\Oracle) и NoSQL (Mongo\\Cassandra\\Ignite);\nПишем RESTfull приложения с использованием RabbitMQ и Kafka.\n\n📌 В круг твоих обязанностей будет входить:\nПринимать непосредственное участие в командной разработке ПО;\nПроводить и проходить через code-review;\nПринимать участие в проработке архитектурных задач;\nОднако CRUD-сервисы никто не отменял, и мы их тоже пишем;\nПисать качественный код и покрывать его unit-тестами.\n\n📌Тебе к нам, если ты хочешь:\nРаботать в компании, где нет формальностей и бюрократии;\nРаботать в команде с четко выстроенным процессом разработки;\nИметь возможность пройти сертификацию OCP за счет компании;\nОформление по ТК РФ, белую зарплату;","markup":[{"type":"hashtag","offset":0,"length":10,"data":"ulyanovsk"},{"type":"hashtag","offset":11,"length":5,"data":"java"},{"type":"hashtag","offset":17,"length":7,"data":"kotlin"},{"type":"hashtag","offset":25,"length":8,"data":"backend"},{"type":"hashtag","offset":34,"length":7,"data":"spring"},{"type":"hashtag","offset":42,"length":7,"data":"middle"},{"type":"hashtag","offset":50,"length":7,"data":"senior"},{"type":"hashtag","offset":178,"length":5,"data":"офис"},{"type":"hashtag","offset":185,"length":9,"data":"fulltime"},{"type":"hashtag","offset":195,"length":7,"data":"remote"},{"type":"handle","offset":258,"length":12,"data":"VladislavAg"}],"date":"2020-04-10T12:23:59+00:00","link":"tg://resolve?domain=jvmjobs&post=1369","tags":[{"name":"java"},{"name":"jvm"},{"name":"kotlin"},{"name":"spring"},{"name":"dotnet"},{"name":"groovy"},{"name":"postgresql"},{"name":"oracle"},{"name":"nosql"},{"name":"cassandra"},{"name":"rabbitmq"},{"name":"kafka"},{"name":"spring-boot"}],"cities":[{"code":"ulyanovsk"}],"allowsRemote":true}},{"node":{"__typename":"Job","id":"1991245824-1001134745498","title":"Devops инженер","text":"#вакансия #devops #remote \nКомпания Imhio Ltd ищет инженера инфраструктуры, обладающего навыками конфигурирования и поддержки аппаратных и облачных платформ, организации работы отказоустойчивых систем, а также автоматизации доставки программного обеспечения. \nВ составе нашей инфраструктуры мы используем Digital Ocean и AWS, Oracle Linux, Νginx, Consul, RabbitMQ, ScyllaDB, Redis, PostgreSQL, GoLang, GoCD и Docker.\nАктуальная цель, которая стоит перед нами, переход к полностью автоматизированному конфигурированию и эксплуатации всех элементов нашей инфраструктуры.\n\nОбязанности:\n- автоматизация конфигурирования и обслуживания элементов инфраструктуры\n- участие в процессах CI/CD\n- мониторинг работоспособности\n- планирование использования ресурсов\n- оптимизация инфраструктуры\n- документирование инфраструктуры\n\nТребования:\n - Минимальный опыт работы по специальности от 3 лет.\n\nДля соответствия нашей команде, ваши личные качества должны включать:\n - коммуникабельность, умение находить точки соприкосновения\nцелеустремленность, ответственность, внимательность и аккуратность\n- умение и желание решать комплексные, нестандартные проблемы и задачи\n- понятное формулирование своих мыслей и идей\n- умение отстаивать свою позицию\n- понимание технической документации на английском языке\n- поддержка принципов DevOPS методологии\n\nДля соответствия нашим задачам, у вас должен быть опыт промышленной эксплуатации:\n- Linux \n- Digital Ocean или AWS\n- Terraform и Ansible\n- CI/CD инструментов\n- Docker или Kubernetes\n- Nginx, SQL, MQ, Redis, Consul\n- Prometheus и Grafana, Graylog или ELK\n- Python или Bash\nУ вас будет дополнительное преимущество при наличии\nопыта использования:\n- ScyllaDB или Cassandra\n- системы мониторинга DataDog\n- системы доставки GoCD\n- (микро)сервисов, разработанных с использованием Golang\n\nУсловия:\n- полностью удаленная работа\n- оплачиваемый отпуск и больничный\n- заработная плата в евро, определяется вашей компетенцией (1850-2900 Евро)\n- гибкий график и широкая автономия - мы оцениваем результаты работы\n- интересные задачи, способствующие профессиональному развитию\n- работа в команде профессионалов\n- отсутствие бюрократических процедур\nКонтакты: @yanalyakhova, jane@imhio.com\n\n—\n\n👉 Обсуждение вакансии в чате @devops_jobs","markup":[{"type":"hashtag","offset":0,"length":9,"data":"вакансия"},{"type":"hashtag","offset":10,"length":7,"data":"devops"},{"type":"hashtag","offset":18,"length":7,"data":"remote"},{"type":"handle","offset":2176,"length":13,"data":"yanalyakhova"},{"type":"link","offset":2191,"length":14,"data":"mailto:jane@imhio.com"},{"type":"handle","offset":2240,"length":12,"data":"devops_jobs"}],"date":"2020-04-09T11:57:04+00:00","link":"tg://resolve?domain=devops_jobs_feed&post=1899","tags":[{"name":"amazon-web-services"},{"name":"oracle"},{"name":"linux"},{"name":"rabbitmq"},{"name":"redis"},{"name":"postgresql"},{"name":"go"},{"name":"docker"},{"name":"ansible"},{"name":"kubernetes"},{"name":"nginx"},{"name":"sql"},{"name":"python"},{"name":"bash"},{"name":"cassandra"}],"cities":[],"allowsRemote":true}},{"node":{"__typename":"Job","id":"1429209088-1001091028994","title":"Java разработчик","text":"#java #javascript #spring #middle #senior #кибербезопасность\nКомпания: #bizone #бизон \nЛокация: #москва #мск \nЗ/п: 100 - 220к\nКонтакты: @sokolovaap, d.sokolova@bi.zone\n\n- BI.ZONE (Безопасная информационная зона) -визионер российского рынка кибербезопасности.\nМы создаем инновационные продукты для анализа угроз и активной защиты от мошенничества, автоматизируем и масштабируем экспертизу наших сервисных подразделений и разрабатываем инструменты для внутреннего использования; Являемся международной компанией;\n\nЗадача:\n- Разработка уникальной платформы выявления мошенничества (Fraud Monitoring);\n\nНаш стек:\n- spring, знание maven,postgresql,apache cassandra,docker,apache kafka;\n\nЧто предлагаем?\n- Сложные задачи, прокачивающие уникальные скиллы;\n- Организовываем удаленную работу сейчас, не проблема.\n- Офис м.Комсомольская/Бауманская/Красносельская;\n- Свободный график, капсулы сна, работу на свежем воздухе, игровые приставки;\n- ДМС и фитнес и тд;\n- Профессиональный коллектив, сплошь состоящий из асов разработки сложных систем в области практической ИБ;\n- И дружную семью 24/7.","markup":[{"type":"hashtag","offset":0,"length":5,"data":"java"},{"type":"hashtag","offset":6,"length":11,"data":"javascript"},{"type":"hashtag","offset":18,"length":7,"data":"spring"},{"type":"hashtag","offset":26,"length":7,"data":"middle"},{"type":"hashtag","offset":34,"length":7,"data":"senior"},{"type":"hashtag","offset":42,"length":18,"data":"кибербезопасность"},{"type":"hashtag","offset":71,"length":7,"data":"bizone"},{"type":"hashtag","offset":79,"length":6,"data":"бизон"},{"type":"hashtag","offset":96,"length":7,"data":"москва"},{"type":"hashtag","offset":104,"length":4,"data":"мск"},{"type":"handle","offset":136,"length":11,"data":"sokolovaap"},{"type":"link","offset":149,"length":18,"data":"mailto:d.sokolova@bi.zone"},{"type":"link","offset":171,"length":7,"data":"http://BI.ZONE"}],"date":"2020-04-08T10:59:36+00:00","link":"tg://resolve?domain=jvmjobs&post=1363","tags":[{"name":"java"},{"name":"jvm"},{"name":"javascript"},{"name":"spring"},{"name":"maven"},{"name":"postgresql"},{"name":"apache"},{"name":"cassandra"},{"name":"docker"},{"name":"kafka"}],"cities":[{"code":"moscow"}],"allowsRemote":false}},{"node":{"__typename":"Job","id":"1961885696-1001134745498","title":"Devops инженер","text":"#вакансия #remote #удаленка #kubernetes #kuber #k8s #puppet\n\nИ еще в другой команде в PulsePoint вакансия SRE (Site Reliability Engineer / можно DevOps, как угодно).\n\nРабота удаленная, фуллтайм, ЗП 5-8k USD/месяц.\n\nОбычно оплата на ИП, если есть какие-то альтернативы - они готовы обсудить, но юрлица в РФ у них нет.\nРазрабатывают различные продукты в области интернет рекламы, keywords: programmatic, SSP, RTB.\n\nГрафик работы: график с 17 до 02:00 по Мск (с 9 до 18 по NY). Час на обед.\n\nВыходные и отпуски: 21 день оплачиваемого отпуска. Не работают на американских выходных.\n\nДежурств нет. Все инциденты в нерабочее время на себя берет менеджер команды.\n\nКлючевое: Kubernetes (работает на bare metal, у них свои датацентры), Puppet (версия 4+. Чем сложнее и больше опыта, тем лучше), Linux (у них CentOS).\nОстальное: Postgres/MySQL/аналогичное, какой-нть NoSQL. Супер, если был опыт с Cassandra. Мониторинг,  ELK.\n\nВ команде много инженеров из РФ, но язык общения английский, нужно бегло говорить без проблем. Все-таки основной костяк в NY и там русскоязычные далеко не все. \n\nЕсли заинтересует или какие вопросы - @pskuzin / pk@4cv.io\n\n—\n\n👉 Обсуждение вакансии в чате @devops_jobs","markup":[{"type":"hashtag","offset":0,"length":9,"data":"вакансия"},{"type":"hashtag","offset":10,"length":7,"data":"remote"},{"type":"hashtag","offset":18,"length":9,"data":"удаленка"},{"type":"hashtag","offset":28,"length":11,"data":"kubernetes"},{"type":"hashtag","offset":40,"length":6,"data":"kuber"},{"type":"hashtag","offset":47,"length":4,"data":"k8s"},{"type":"hashtag","offset":52,"length":7,"data":"puppet"},{"type":"handle","offset":1118,"length":8,"data":"pskuzin"},{"type":"link","offset":1129,"length":9,"data":"mailto:pk@4cv.io"},{"type":"handle","offset":1173,"length":12,"data":"devops_jobs"}],"date":"2020-04-02T14:05:36+00:00","link":"tg://resolve?domain=devops_jobs_feed&post=1871","tags":[{"name":"kubernetes"},{"name":"linux"},{"name":"centos"},{"name":"postgresql"},{"name":"mysql"},{"name":"nosql"},{"name":"cassandra"}],"cities":[],"allowsRemote":true}},{"node":{"__typename":"Job","id":"1960837120-1001134745498","title":"Devops инженер","text":"#вакансия #sre #hadoop #kafka #devops #remote\n\nА я все еще ищу SRE (Site Reliability Engineer, ну или DevOps, как угодно, только без холиваров) в BigData команду для американской компании PulsePoint. \n\nРабота удаленная, фуллтайм, ЗП 6-8k USD/месяц.\n\nОбычно оплата на ИП, если есть какие-то альтернативы - они готовы обсудить, но юрлица в РФ у них нет.\nРазрабатывают различные продукты в области интернет рекламы, keywords: programmatic, SSP, RTB.\n\nГрафик работы: график с 16 до 01:00 по Мск (с 9 до 18 по NY). Час на обед. Рабочая неделя 5/2.\n\nВыходные и отпуски: 21 день оплачиваемого отпуска. Не работают по американским выходным.\n\nДежурств нет. Все инциденты в нерабочее время на себя берет менеджер команды.\n\nКлючевое: администрирование Hadoop (HDFS, Hive, Impala), Kafka.\nБудет плюсом: Kubernetes, Postgres/MySQL/аналогичное, какой-нть NoSQL. Супер, если был опыт с Cassandra. А еще с Presto + Alluxio.\n\nВ команде много инженеров из РФ, но язык общения английский, нужно бегло говорить без проблем. Все-таки основной костяк в NY и там русскоязычные далеко не все. \n\nЕсли заинтересует или какие вопросы - @pskuzin / pk@4cv.io\n\n—\n\n👉 Обсуждение вакансии в чате @devops_jobs","markup":[{"type":"hashtag","offset":0,"length":9,"data":"вакансия"},{"type":"hashtag","offset":10,"length":4,"data":"sre"},{"type":"hashtag","offset":15,"length":7,"data":"hadoop"},{"type":"hashtag","offset":23,"length":6,"data":"kafka"},{"type":"hashtag","offset":30,"length":7,"data":"devops"},{"type":"hashtag","offset":38,"length":7,"data":"remote"},{"type":"handle","offset":1109,"length":8,"data":"pskuzin"},{"type":"link","offset":1120,"length":9,"data":"mailto:pk@4cv.io"},{"type":"handle","offset":1164,"length":12,"data":"devops_jobs"}],"date":"2020-04-02T14:04:21+00:00","link":"tg://resolve?domain=devops_jobs_feed&post=1870","tags":[{"name":"hadoop"},{"name":"kafka"},{"name":"hdfs"},{"name":"hive"},{"name":"kubernetes"},{"name":"postgresql"},{"name":"mysql"},{"name":"nosql"},{"name":"cassandra"}],"cities":[],"allowsRemote":true}},{"node":{"__typename":"Job","id":"1413480448-1001091028994","title":"Java разработчик","text":"#java #backend #middle #senior #питер #удаленка\nВакансия: Java-разработчик (middle/senior)\nКомпания: https://loyaltyplant.com\nг. Санкт-Петербург\nЗ/П: Middle 130-160k, Senior 180-240k\nФормат работы: офис/удаленка\nЗанятость: полная \nСпециализация компании: мобильное маркетинговое решение с программой лояльности и доставкой для ресторанов, чтобы гости получали лучший сервис, а бизнес – большие выручки и возможность выжить в каратнин. Работаем не только в России, но и в США, Европе и Азии. Нашими решениями пользуются Subway Russia, Black Star Burgers, Greenbox, Papa Johns UAE, и еще 500 брендов в 20 странах, и более 10 миллионов конечных пользователей. Мы ищем не просто сотрудников, но настоящих партнеров, которые готовы предлагать прорывные решения и разделять с нами ценности открытости, честности и личной инициативы.\n\nТебе предстоит:\n • Заниматься рефакторингом legacy-блоков, распиливанием монолита на микросервисы;\n • Развивать функционал системы;\n • Готовить систему к повышению нагрузки;\n • Осуществлять техподдержку третьего уровня;\n • Проводить code review;\n • Делиться опытом с другими разработчиками.\n • Для Senior также – определять и воплощать архитектурные и технические решения.\n\nЧто нам важно?\n • Опыт backend-разработки на Java от 3 лет (Senior – от 5);\n • Хорошее знание Java Core;\n • Опыт работы с микросервисами;\n • Знания и опыт: Spring, БД (MySQL, PostgreSQL, Redis), Kafka, ELK;\n • Как +: Linux, Docker, Cassandra;\n • Самостоятельность;\n • Умение видеть и исправлять плохой код.\n\nМы предлагаем:\n • Интересные задачи и возможности для развития;\n • Возможность реально влиять на решения;\n • Гибкий график;\n • Дружественную атмосферу стартапа, офис-не-open-space, заказ еды, массаж, кикер, английский и тд.\n\nКонтакты: @orehmthfcka","markup":[{"type":"hashtag","offset":0,"length":5,"data":"java"},{"type":"hashtag","offset":6,"length":8,"data":"backend"},{"type":"hashtag","offset":15,"length":7,"data":"middle"},{"type":"hashtag","offset":23,"length":7,"data":"senior"},{"type":"hashtag","offset":31,"length":6,"data":"питер"},{"type":"hashtag","offset":38,"length":9,"data":"удаленка"},{"type":"link","offset":101,"length":24,"data":"https://loyaltyplant.com"},{"type":"handle","offset":1745,"length":12,"data":"orehmthfcka"}],"date":"2020-04-02T13:36:43+00:00","link":"tg://resolve?domain=jvmjobs&post=1348","tags":[{"name":"java"},{"name":"jvm"},{"name":"spring"},{"name":"mysql"},{"name":"postgresql"},{"name":"redis"},{"name":"kafka"},{"name":"linux"},{"name":"docker"},{"name":"cassandra"}],"cities":[],"allowsRemote":true}},{"node":{"__typename":"Job","id":"1959788544-1001134745498","title":"Devops инженер","text":"#вакансия#Москва#AWS\n\nDataArt (https://www.dataart.ru/) ищет DevOps с опытом AWS в один из наших IoT-проектов.\n\nГород: Москва (м. Белорусская).\nФормат работы: в офисе, но сейчас, по понятным причинам, удалённый.\nЗанятость: Full-time.\n\nЗарплатная вилка: \nот 2200$ до $5000 net. \nСтартовый бонус – $1000\n\nТребуемый опыт:\n• развертывание, управление и использование масштабируемой и отказоустойчивой инфраструктуры Linux/JVM в AWS (или других общедоступных облаках).\n• Разговорный английский.\n• Linux, сетевые технологии и концепции баз данных.\n• Cassandra (или другой NoSQL).\n• Amazon Web Services.\n• Chef или Puppet.\n• Ruby или Python.\n\nБольше подробностей о позиции у нас на сайте: \nhttps://www.dataart.ru/vacancy/cfm337\n\nЕсли у вас появятся вопросы - буду рада на них ответить!\n\nTelegram: @kluhpluh\nПочта: darya.matskevich@dataart.com\n\n—\n\n👉 Обсуждение вакансии в чате @devops_jobs","markup":[{"type":"link","offset":31,"length":23,"data":"https://www.dataart.ru/"},{"type":"link","offset":683,"length":37,"data":"https://www.dataart.ru/vacancy/cfm337"},{"type":"handle","offset":790,"length":9,"data":"kluhpluh"},{"type":"link","offset":807,"length":28,"data":"mailto:darya.matskevich@dataart.com"},{"type":"handle","offset":870,"length":12,"data":"devops_jobs"}],"date":"2020-04-02T09:23:39+00:00","link":"tg://resolve?domain=devops_jobs_feed&post=1869","tags":[{"name":"amazon-web-services"},{"name":"dotnet"},{"name":"linux"},{"name":"jvm"},{"name":"cassandra"},{"name":"nosql"},{"name":"web"},{"name":"ruby"},{"name":"python"}],"cities":[{"code":"moscow"}],"allowsRemote":true}},{"node":{"__typename":"Job","id":"1954545664-1001134745498","title":"Devops engineer","text":"#вакансия #devops \nВакансия: DevOps Engineer\nГород: San Jose, Costa Rica\nФормат работы: удаленка\nЗанятость: полная\nЗарплата: 2000 EUR/месяц\n\nОбязанности\nПроектирование, построение, поддержка и развитие в эксплуатации:\n- высокодоступной инфраструктуры в рамках нескольких датацентров (на базе Kubernetes);\n- инструментов жизненного цикла проектов (Docker-образы, CI/CD сценарии, баг-трекеры, инструменты сборки);\n- систем распределенного мониторинга, логирования, трасcировки;\n- распределенных баз данных, файловых хранилищ, шин событий.\n\nТребования:\n- богатый опыт работы с контейнеризацией и Kubernetes (Docker, rkt, CRI), написания Helm-чартов;\n- богатый опыт администрирования Linux, написания shell-скриптов, работы с systemd;\n- умение работать с Ansible;\n- опыт администрирования баз данных (MySQL, PostgreSQL, Redis, Cassandra, ClickHouse, и т.д.);\n- опыт эксплуатации распределенных систем логирования, мониторинга, трассировки (Fluentd, Prometheus, ElasticSearch, Kibana, Grafana, Zipkin, и т.д.);\n- опыт работы с Grafana;\n- владение языками программирования (что-то из Python, Go, Rust, Java, PHP);\n- хорошее понимание фундаментальных основ PKI, DNS, TLS, SSH, OSI, Linux;\n- технический английский;\n- наличие широкого Интернет-канала и Skype.\n\nУсловия:\n- удаленная работа (не фриланс);\n- полная занятость;\n- зарплата 2000 EUR/мес.;\n- возможен переезд за границу.\n\nКанал нашей компании https://t.me/TRlogik\nРезюме присылайте сюда @trlogic\n\n—\n\n👉 Обсуждение вакансии в чате @devops_jobs","markup":[{"type":"hashtag","offset":0,"length":9,"data":"вакансия"},{"type":"hashtag","offset":10,"length":7,"data":"devops"},{"type":"link","offset":1394,"length":20,"data":"https://t.me/TRlogik"},{"type":"handle","offset":1438,"length":8,"data":"trlogic"},{"type":"handle","offset":1481,"length":12,"data":"devops_jobs"}],"date":"2020-04-01T20:19:12+00:00","link":"tg://resolve?domain=devops_jobs_feed&post=1864","tags":[{"name":"kubernetes"},{"name":"docker"},{"name":"linux"},{"name":"shell"},{"name":"ansible"},{"name":"mysql"},{"name":"postgresql"},{"name":"redis"},{"name":"cassandra"},{"name":"elasticsearch"},{"name":"python"},{"name":"rust"},{"name":"java"},{"name":"php"},{"name":"dns"},{"name":"ssh"}],"cities":[{"code":"san-jose"}],"allowsRemote":true}},{"node":{"__typename":"Job","id":"24239931392-1001075660570","title":"Php разработчик","text":"#вакансия #php \nВакансия: PHP-разработчик\nФормат работы: удаленка\nЗанятость: полная\nЗарплата: 1500 EUR/месяц\n\nВ IT компанию приглашается PHP-разработчик.\n\nОбязанности:\n- проектирование, разработка, тестирование и поддержка кода на PHP;\n- проектирование структур баз данных;\n- разработка модулей к существующим проектам;\n- улучшение существующего кода и решений;\n- поддержание целостности архитектуры проекта.\n\nТребования:\n- опыт работы PHP программистом более 1 года; \n- уверенное владение PHP, HTML, CSS, JavaScript, MySQL;\n- опыт и понимание принципов проектирования структур баз данных;\n- понимание принципов объектно-ориентированного дизайна программ;\n- умение использовать операционные системы типа *nix;\n- владение Git и понимание принципов Git Flow;\n- приветствуется понимание TDD, BDD, опыт автоматизированного тестирования;\n- приветствуется опыт работы с технологиями Memcached, Redis, RabbitMQ, MongoDB, Cassandra, Kafka;\n- приветствуется опыт работы с другими языками Python, Ruby, TypeScript, Go, Rust;\n- умение работать в команде, желание перенимать опыт коллег и делиться собственным опытом;\n- умение и желание докапываться до сути;\n- умение поддерживать порядок и быть педантом в вопросах качества;\n- умение читать и понимать техническую литературу на английском языке;\n- терпеливое отношение к чужому коду и к критике собственного;\n- наличие широкого Интернет-канала и настроенной программы Skype, позволяющих поддерживать качественную видеосвязь.\n\nУсловия и основные принципы:\n- удаленная работа (не фриланс);\n- полная занятость (5 дней в неделю, 8/6/4 часов в день по выбору);\n- ставка заработной платы 1500 EUR (8 часов), 1125 EUR (6 часов) или 750 EUR (4 часа) в месяц;\n- возможен переезд за границу.\n\nПодробности @trlogic","markup":[{"type":"hashtag","offset":0,"length":9,"data":"вакансия"},{"type":"hashtag","offset":10,"length":4,"data":"php"},{"type":"handle","offset":1734,"length":8,"data":"trlogic"}],"date":"2020-04-01T20:18:09+00:00","link":"tg://resolve?domain=php_jobs&post=23117","tags":[{"name":"php"},{"name":"html"},{"name":"css"},{"name":"javascript"},{"name":"mysql"},{"name":"git"},{"name":"redis"},{"name":"rabbitmq"},{"name":"mongodb"},{"name":"cassandra"},{"name":"kafka"},{"name":"python"},{"name":"ruby"},{"name":"typescript"},{"name":"rust"}],"cities":[],"allowsRemote":true}},{"node":{"__typename":"Job","id":"24152899584-1001075660570","title":"Php developer","text":"#вакансия #php #lead #fulltime #удалёнка \nГород и адрес офиса: Москва (м.Курская)\nНазвание компании: КА\nФормат работы: удаленно/офис \nЗанятость: полная\nЗарплатная вилка: от 150к до 220к net\n\nПривет я ищу Tech lead/Senior php developer. Проект -- платформа для чатботов и воронок продаж. Сейчас у платформы более 1000 пользователей, растет на 20% ежемесячно, в следующем году планируется запуск на глобальном рынке, срочно нужно усиление 🙂 \n\nЗадачи:\n- разработка архитектуры новой части проекта;\n- разработка backend на php;\n- code review, тесты.\n\nТребования:\n- опыт разработки на php от 3х лет;\n- опыт работы с SQL;\n- опыт с брокерами очередей, например RabbitMQ.\n\nБудет плюсом:\n- знание node.js и других языков программирования;\n- noSQL (у нас Cassandra).\n\nУсловия:\n- Белая з/п;\n- Офис в Москве (м.Курская), есть возможность работать удаленно;\n- Крутой продукт, которым ежедневно пользуются тысячи людей;\n- Классная команда;\n- Возможность быстрого карьерного роста и профессионального развития.\n\nКонтакты: @nat_kirisova","markup":[{"type":"hashtag","offset":0,"length":9,"data":"вакансия"},{"type":"hashtag","offset":10,"length":4,"data":"php"},{"type":"hashtag","offset":15,"length":5,"data":"lead"},{"type":"hashtag","offset":21,"length":9,"data":"fulltime"},{"type":"hashtag","offset":31,"length":9,"data":"удалёнка"},{"type":"handle","offset":1008,"length":13,"data":"nat_kirisova"}],"date":"2020-03-30T10:00:00+00:00","link":"tg://resolve?domain=php_jobs&post=23034","tags":[{"name":"php"},{"name":"dotnet"},{"name":"sql"},{"name":"rabbitmq"},{"name":"nodejs"},{"name":"nosql"},{"name":"cassandra"}],"cities":[{"code":"moscow"}],"allowsRemote":true}}]}}},"context":{}}