{"hash":"f5f6bf98bd95e769321482904cbbd488f77922fd","data":{"records":{"id":"rest","name":"rest","belongsTo":{"totalCount":192,"pageInfo":{"totalPages":20,"currentPage":14},"edges":[{"node":{"__typename":"Job","id":"71579992064-1001054966032","title":"Ios разработчик","text":"💪#вакансия #удалёнка #iOS #fulltime  #Middle+/#Senior    \n💵З/П 2200-2400 $/месяц по итогам собеседования\nРабота: удалёнка\n\nЧеловек в среднем больше сотни раз взаимодействует с клавиатурой своего мобильного устройства. Для большинства пользователей нашего приложения мы делаем этот процесс  интереснее и выгодней. Мы также оцениваем эмоциональное состояние пользователя, в процессе его взаимодействия с клавиатурой. Руководство компании из топ-менеджмента крупнейших глобальных игроков мобильного рынка. В данный момент открыта вакансия Middle+/Senior IOS разработчика, в подчинении 2 сотрудника                                                                                                               \n\n📌Обязанности:\n- Разработка кастомной клавиатуры iOS\n- Подключение ML-алгоритмов (TensorFlow) распознавания эмоций к iOS-клавиатуре\n- Разработка кода обработки данных камеры, микрофона\n\n📌Требования:\n- Уверенное знание Swift;\n- Хорошее знание платформы iOS, инструментов разработки, работы UI;\n- Опыт работы с REST API, HTTP, JSON, APNs;\n- Знакомство с библиотеками CoreData, AVFoundation, CoreML и CreateML\n- Желание развиваться и развивать свои знания            \n-Знание английского на уровне от Intermediate желательно                                                                                                               \n\n📌Будет плюсом:\n- Опыт работы c TensorFlow на iOS\n- Опыт работы с OpenCV на iOS\n- Опыт работы с фреймворком SwiftUI\n\n📌Условия:\n- Отсутствие бюрократии\n- Время начала рабочего дня обговариваем индивидуально\n- Come to the Dark Side, we have тёплая ламповая атмосфера стартапа, чай, кофе и печеньки!\n- Крутой инновационный проект - возможность самореализации и профессионального роста\n- Стабильное зарубежное финансирование\n- Десятки миллионов установок и множество глобальных партнёров\n📞 Контакты @SvetikS_hr +7(963)-632-12-36 Cветлана","markup":[{"type":"hashtag","offset":2,"length":9,"data":"вакансия"},{"type":"hashtag","offset":12,"length":9,"data":"удалёнка"},{"type":"hashtag","offset":22,"length":4,"data":"iOS"},{"type":"hashtag","offset":27,"length":9,"data":"fulltime"},{"type":"hashtag","offset":38,"length":7,"data":"Middle"},{"type":"hashtag","offset":47,"length":7,"data":"Senior"},{"type":"handle","offset":1841,"length":11,"data":"SvetikS_hr"},{"type":"link","offset":1853,"length":17,"data":"tel:+7(963)-632-12-36"}],"date":"2020-06-18T14:11:13+00:00","link":"tg://resolve?domain=mobile_jobs&post=0","tags":[{"name":"mobile"},{"name":"ios"},{"name":"tensorflow"},{"name":"swift"},{"name":"rest"},{"name":"json"},{"name":"opencv"}],"cities":[],"allowsRemote":true}},{"node":{"__typename":"Job","id":"71577894912-1001054966032","title":"Ios разработчик","text":"#вакансия #iOS #developer #moscow #офис #fulltime\n\n🔸Адрес: Москва, Новокузнецкая\n🔸Формат работы: офис \n🔸Занятость: полная \n🔸ЗП: 180 000-250 000\n\n📣Middle/Senior iOS Разработчик\n\nна один из наших проектов-социальная сеть нового поколения на базе блокчейн-технологий.\n\n🔶Компания Freedom Group International \n\nЧем придётся заниматься:\n🔶Разработка нового функционала в рамках существующего приложения;\n🔶Рефакторинг и апгрейд ранее сделанного функционала\n\nЧто для этого потребуется:\n🔶Опыт разработки мобильных приложений от трех лет;\n🔶Отличные знания ООП, алгоритмов и структур данных;\n🔶Отличное знание Swift;\n🔶Знание Objective-C для правки старого кода;\n🔶Понимание REST API, взаимодействие с backend;\n🔶Опыт работы с GIT\n\nЖелательно знание следующих библиотек:\n   • RxSwift\n   • AFNetworking\n\nМы готовы предложить:\n🔷Уютный, современный офис;\n🔷Гибкий график;\n🔷Дружный коллектив и лояльное руководство;\n🔷Все плюсы работы в «белой» компании\n\n🔶Контакт для связи: @AnutaF","markup":[{"type":"hashtag","offset":0,"length":9,"data":"вакансия"},{"type":"hashtag","offset":10,"length":4,"data":"iOS"},{"type":"hashtag","offset":15,"length":10,"data":"developer"},{"type":"hashtag","offset":26,"length":7,"data":"moscow"},{"type":"hashtag","offset":34,"length":5,"data":"офис"},{"type":"hashtag","offset":40,"length":9,"data":"fulltime"},{"type":"bold","offset":312,"length":24,"data":""},{"type":"bold","offset":458,"length":26,"data":""},{"type":"bold","offset":730,"length":38,"data":""},{"type":"bold","offset":801,"length":21,"data":""},{"type":"handle","offset":972,"length":7,"data":"AnutaF"}],"date":"2020-06-18T13:33:21+00:00","link":"tg://resolve?domain=mobile_jobs&post=0","tags":[{"name":"mobile"},{"name":"ios"},{"name":"swift"},{"name":"objective-c"},{"name":"rest"},{"name":"git"}],"cities":[{"code":"moscow"}],"allowsRemote":false}},{"node":{"__typename":"Job","id":"1706033152-1001091028994","title":"Java разработчик","text":"#вакансия #backend #java #fulltime #офис #spring\n\n🔷 Вакансия: JAVA разработчик\nФормат работы: офис/удалёнка\nЗанятость: полная \nЗ/п: от 185 000 до 230 000 рублей на руки\nКомпания: Екомобайл\nСфера деятельности: разработка инфраструктурных IT решений\nЛокация: Зеленоград (25 минут от м. Речной вокзал)\n\n🔷 Основные задачи\n• работа в команде разработчиков над проектами с нуля;\n• доработка и поддержка существующих решений;\n• интеграции с внешними информационными системами;\n• участие в проектировании архитектуры приложений и БД;\n\n🔷 Требования\n• Опыт коммерческой разработки\n• Java SE 8 и выше;\n• Принципы ООП;\n• Spring / Spring Boot (Data, MVC, Security, Cloud);\n• Hibernate или MyBatis;\n• PostgreSQL;\n• Apache Tomcat или Eclipse Jetty или другой app server;\n• Опыт работы с сервисами REST/SOAP.\n\n🔷 Мы предлагаем\n• стабильную зарплату по результатам собеседования;\n• оформление по ТК РФ;\n• гибкий график работы;\n• возможность удалённой работы в перспективе;\n• интересные, творческие задачи;\n• перспектива для личного и профессионального роста.\n\n🔷 Контакт: @devstd","markup":[{"type":"hashtag","offset":0,"length":9,"data":"вакансия"},{"type":"hashtag","offset":10,"length":8,"data":"backend"},{"type":"hashtag","offset":19,"length":5,"data":"java"},{"type":"hashtag","offset":25,"length":9,"data":"fulltime"},{"type":"hashtag","offset":35,"length":5,"data":"офис"},{"type":"hashtag","offset":41,"length":7,"data":"spring"},{"type":"bold","offset":53,"length":27,"data":""},{"type":"bold","offset":304,"length":16,"data":""},{"type":"bold","offset":532,"length":11,"data":""},{"type":"bold","offset":800,"length":14,"data":""},{"type":"bold","offset":1056,"length":2,"data":""},{"type":"handle","offset":1058,"length":7,"data":"devstd"}],"date":"2020-06-18T11:27:13+00:00","link":"tg://resolve?domain=jvmjobs&post=1627","tags":[{"name":"java"},{"name":"jvm"},{"name":"spring"},{"name":"cloud"},{"name":"hibernate"},{"name":"postgresql"},{"name":"apache"},{"name":"tomcat"},{"name":"eclipse"},{"name":"jetty"},{"name":"rest"},{"name":"soap"},{"name":"spring-boot"}],"cities":[],"allowsRemote":true}},{"node":{"__typename":"Job","id":"71565312000-1001054966032","title":"Ios разработчик","text":"#вакансия #iOS #москва\n\nНа проект от крупного российского банка требуется Middle iOS разработчик\n\nФормат: офис\n\nВилка ЗП: 150-180К\n\nЛокация: Москва\n\nТребования:\n\n- Опыт разработки под IOS (Objective-C или Swift) от 2 лет\n- Уверенное знание iOS SDK, Xcode\n- Опыт использования одной из архитектур: MVP, MVVM, VIPER\n- Знание особенностей: Collections, Optionals, Protocol Oriented, Generics\n- Понимание, как происходит управление памятью в iOS\n- Понимание принципов проектирования SOLID и желание придерживаться их\n- Наличие опыта работы с REST API, HTTP, JSON, APNs\n- Опыт работы с Git, знание git flow\n\nБудет плюсом:\n\n- Умение писать UI тесты\n- Опыт работы в команде\n\nКонтакт: @mxm_at","markup":[{"type":"hashtag","offset":0,"length":9,"data":"вакансия"},{"type":"hashtag","offset":10,"length":4,"data":"iOS"},{"type":"hashtag","offset":15,"length":7,"data":"москва"},{"type":"bold","offset":73,"length":23,"data":""},{"type":"bold","offset":98,"length":7,"data":""},{"type":"bold","offset":112,"length":9,"data":""},{"type":"bold","offset":132,"length":8,"data":""},{"type":"bold","offset":149,"length":11,"data":""},{"type":"bold","offset":603,"length":13,"data":""},{"type":"bold","offset":668,"length":8,"data":""},{"type":"handle","offset":677,"length":7,"data":"mxm_at"}],"date":"2020-06-18T11:11:25+00:00","link":"tg://resolve?domain=mobile_jobs&post=0","tags":[{"name":"mobile"},{"name":"ios"},{"name":"objective-c"},{"name":"swift"},{"name":"xcode"},{"name":"mvvm"},{"name":"rest"},{"name":"json"},{"name":"git"}],"cities":[{"code":"moscow"}],"allowsRemote":false}},{"node":{"__typename":"Job","id":"71562166272-1001054966032","title":"Android разработчик","text":"‼️Вакансия Senior Android⁢ Developer‼️\n#android #developer #вакансия #удаленка\nВ команде Mycelium Wallet (mycelium.com) открыта #вакансия Senior Android⁢ Developer.\n💵З/П 3000-4000 USD по итогам собеседования.\nРабота удаленная 💻\n\nМы предлагаем:\n🔸Получить навыки и компетенции в одном из самых передовых и перспективных направлений финтех индустрии - blockchain;\n🔸Принять участие в разработке одного из самых популярных биткоин-кошельков в Google Play Store;\n🔸Работать в международной команде бок о бок с ведущими специалистами в индустрии;\n🔸Возможность профессионального карьерного роста и участия в разнообразных проектах компании.\n\nЧем предстоит заниматься:\n🔹Разрабатывать новые и развивать существующие мобильные сервисы компании на платформе Android;\n🔹Проектировать и разрабатывать большие функциональные части приложения с привлечением других программистов;\n🔹Использовать cutting edge технологии, а также проверенные временем решения.\n\nТребования:\n✔️Как минимум 3 года опыта разработки на Android;\n✔️Знание Java/Kotlin на уровне ведущего разработчика;\n✔️Знание шаблонов проектирования, опыт использования MVP и других архитектурных подходов;\n✔️Опыт параллельного и многопоточного программирования;\n✔️Понимание циклов работы Android-приложения и управления памятью;\n✔️Опыт разработки пользовательских интерфейсов на платформе Android. \n✔️Знание Android Design Principles;\n✔️Знание и умение использовать различные механизмы взаимодействий между приложениями, предоставляемые в рамках Android SDK;\n✔️Понимание принципов работы REST API, WS, RPC и клиент-серверных приложений;\n✔️Знание английского языка на уровне чтения документации и умения общаться в корпоративном чате.\n\nПлюсом будет:\n➕Умение и понимание необходимости написания Unit tests;\n➕Знание основ криптографии;\n➕Опыт работы с bitcoin/etherium blockchain stack;\n➕Наличие своих проектов на Github, в Google Play и т.д.\n\n📲Контакт: @valeritata","markup":[{"type":"hashtag","offset":39,"length":8,"data":"android"},{"type":"hashtag","offset":48,"length":10,"data":"developer"},{"type":"hashtag","offset":59,"length":9,"data":"вакансия"},{"type":"hashtag","offset":69,"length":9,"data":"удаленка"},{"type":"link","offset":106,"length":12,"data":"http://mycelium.com"},{"type":"hashtag","offset":128,"length":9,"data":"вакансия"},{"type":"handle","offset":1900,"length":11,"data":"valeritata"}],"date":"2020-06-18T10:56:47+00:00","link":"tg://resolve?domain=mobile_jobs&post=0","tags":[{"name":"mobile"},{"name":"android"},{"name":"playframework"},{"name":"java"},{"name":"kotlin"},{"name":"rest"},{"name":"github"}],"cities":[],"allowsRemote":true}},{"node":{"__typename":"Job","id":"103149469696-1001089317451","title":"Qa инженер","text":"Юлия Романова, [17.06.20 14:29]\n#вакансия #спб #fulltime #qa #удаленно\n\nКомпания: Smart Design (smddev.com) \n\nДолжность: Инженер по ручному и автоматизированному тестированию (QA & Automation Engineer)\n\nИщем инженера по тестированию BSS сотового оператора.\nБольшая распределенная команда (~30 человек).\nНужно хорошо уметь тестировать вручную и, когда это выгодно, суметь автоматизировать.\n\n\nНаши пожелания к кандидатам:\n✔️Опыт работы с Java или любым другим высокоуровневым языком программирования на уровне, достаточном для самостоятельного написания игры \"Сапёр\"\n✔️Опыт работы в консоли linux на уровне, достаточном для для решения задач:\nпоиск и изменение строк в файле\nуправление системными процессами\n✔️Опыт взаимодействия с REST API на уровне, достаточном для того, чтобы получить из ВКонтакте имя и фамилию своего аккаунта, не используя браузер\n\nПлюсом будет:\n✔️Опыт работы с протоколом SOAP\n✔️Профессиональный опыт функционального тестирования\n✔️Опыт работы с JUnit, Gradle, Oracle\n\nУсловия:\n✔️\"Белая\" зарплата до 110K gross\n✔️ДМС\n✔️ Работа в удаленном режиме на данный момент, далее в уютном офисе.\n\nhttps://spb.hh.ru/vacancy/37540632\n\nМои контакты: @romanovaya iyliia.romanova@smddev.com","markup":[{"type":"hashtag","offset":32,"length":9,"data":"вакансия"},{"type":"hashtag","offset":42,"length":4,"data":"спб"},{"type":"hashtag","offset":47,"length":9,"data":"fulltime"},{"type":"hashtag","offset":57,"length":3,"data":"qa"},{"type":"hashtag","offset":61,"length":9,"data":"удаленно"},{"type":"link","offset":96,"length":10,"data":"http://smddev.com"},{"type":"link","offset":1109,"length":34,"data":"https://spb.hh.ru/vacancy/37540632"},{"type":"handle","offset":1159,"length":11,"data":"romanovaya"},{"type":"link","offset":1171,"length":26,"data":"mailto:iyliia.romanova@smddev.com"}],"date":"2020-06-18T09:08:47+00:00","link":"tg://resolve?domain=qa_jobs&post=0","tags":[{"name":"qa"},{"name":"java"},{"name":"linux"},{"name":"rest"},{"name":"soap"},{"name":"junit"},{"name":"gradle"},{"name":"oracle"}],"cities":[],"allowsRemote":true}},{"node":{"__typename":"Job","id":"1704984576-1001091028994","title":"Java разработчик","text":"#вакансия  #офис #удалёнка #DevOps #Java\n\nкомпания: #JTSOFT\nгород: #Москва\nвилка: 200-260+ на рук\nконтакты: @reanimatsiya\n\n\n🧑🏻‍💻Я ищу ведущего Java-разработчика со знанием Spring Boot и DevOps практик в компанию JTSOFT.\n\nJTSOFT - это аутсорсинговая IT компания, которая уже 7 лет специализируемся на разработке программных решений в сферах b2b, b2g. \n\nКомпания имеет статус IBM Premier Business Partner и работает практически со всей линейкой IBM. \nКоманды JTSOFT внедряли Универсальную Электронную Карту, разрабатывали приложения и формы для банка «Возрождение», а также реализовали проект по визуализации и контролю системы БД IBM Tivoli.\n\n🤝Вам будут рады при:\n\n✔️Опыте работы не менее 5 лет на Java Core, Java 8+\n✔️Уверенном знании фреймворков Spring\n✔️Знании принципов и шаблонов проектирования\n✔️Опыте профилирования, оптимизации и решения performance-проблем Java-приложений\n✔️Опыте проектирования API (REST, GRPC и т.д.)\n✔️Опыте работы с разными системами оркестрации (Kubernetes, OpenShift, Mesos/Marathon);\n✔️Знании Apache Kafka, MongoDB, Elasticsearch, Docker\n✔️Опыте написания инфраструктурных скриптов на Ansible\n\n\n➕Огромным плюсом будет:\n\n▪️Опыт работы с реляционными БД;\n▪️Опыт работы с SOAP;\n▪️Знакомство с методологией Agile, Scrum.\n\n\n🍪 Компания предоставляет все необходимое:\n\n👌🏻ТК РФ\n👌🏻Ваш вклад в разработку всегда будет учтен, так как работа происходит в небольших автономных группах, обеспечивающих полный цикл разработки.\n👌🏻Компания предоставляет современное и удобное оборудование\n👌🏻Комфортный офис в бизнес-центре \"Технопарк\", в двух минутах ходьбы от м. Технопарк или удаленно при согласовании с командой","markup":[{"type":"hashtag","offset":0,"length":9,"data":"вакансия"},{"type":"hashtag","offset":11,"length":5,"data":"офис"},{"type":"hashtag","offset":17,"length":9,"data":"удалёнка"},{"type":"hashtag","offset":27,"length":7,"data":"DevOps"},{"type":"hashtag","offset":35,"length":5,"data":"Java"},{"type":"hashtag","offset":52,"length":7,"data":"JTSOFT"},{"type":"hashtag","offset":67,"length":7,"data":"Москва"},{"type":"handle","offset":108,"length":13,"data":"reanimatsiya"}],"date":"2020-06-18T08:57:14+00:00","link":"tg://resolve?domain=jvmjobs&post=1626","tags":[{"name":"java"},{"name":"jvm"},{"name":"spring"},{"name":"rest"},{"name":"kubernetes"},{"name":"apache"},{"name":"kafka"},{"name":"mongodb"},{"name":"elasticsearch"},{"name":"docker"},{"name":"ansible"},{"name":"soap"},{"name":"spring-boot"}],"cities":[{"code":"moscow"}],"allowsRemote":true}},{"node":{"__typename":"Job","id":"71547486208-1001054966032","title":"Android разработчик","text":"#вакансия #android #офис #удаленка\n\nГород: Москва (Сокольники или Павелецкая), есть релокационный пакет\n\nФормат работы: офис, но также возможна удаленка из Москвы, Питера, Самары\n\nЗанятость: полная\n\nВилка: 180-250 т.р. на руки\n\nКоманда разработчиков ищет коллегу для создания и развития функционала мобильного банка.\n\nЧто требуется знать:\n\n• Паттерны GOF\n• Алгоритмы и структуры данных\n• Core Java SE 8\n• Kotlin\n• Android SDK API Level 19-29\n• Android Support Library\n• Dagger 2\n• RxJava 2\n• JUnit, Espresso, Mockito\n\nБудет плюсом:\n\n• Cicerone\n• Moxy\n• FCM\n• Fingerprint Authentication\n• Знание основ криптологии\n• Android Architecture Components\n• Gradle\n• REST API\n• Опыт работы с Google Maps SDK для Android\n\nНазвание компании: ПСБ\nhttps://www.psbank.ru/\nhttps://hh.ru/vacancy/34497271\n\nКонтакты: @max_gusev\ngusevms@psbank.ru","markup":[{"type":"hashtag","offset":0,"length":9,"data":"вакансия"},{"type":"hashtag","offset":10,"length":8,"data":"android"},{"type":"hashtag","offset":19,"length":5,"data":"офис"},{"type":"hashtag","offset":25,"length":9,"data":"удаленка"},{"type":"bold","offset":36,"length":6,"data":""},{"type":"bold","offset":105,"length":14,"data":""},{"type":"bold","offset":180,"length":10,"data":""},{"type":"bold","offset":199,"length":7,"data":""},{"type":"bold","offset":318,"length":20,"data":""},{"type":"bold","offset":518,"length":13,"data":""},{"type":"bold","offset":712,"length":18,"data":""},{"type":"link","offset":735,"length":21,"data":"https://www.psbank.ru/"},{"type":"link","offset":758,"length":30,"data":"https://hh.ru/vacancy/34497271"},{"type":"bold","offset":790,"length":9,"data":""},{"type":"handle","offset":800,"length":10,"data":"max_gusev"},{"type":"link","offset":811,"length":17,"data":"mailto:gusevms@psbank.ru"}],"date":"2020-06-18T08:14:18+00:00","link":"tg://resolve?domain=mobile_jobs&post=0","tags":[{"name":"mobile"},{"name":"android"},{"name":"java"},{"name":"kotlin"},{"name":"junit"},{"name":"gradle"},{"name":"rest"},{"name":"google-maps"}],"cities":[{"code":"moscow"}],"allowsRemote":true}},{"node":{"__typename":"Job","id":"103124303872-1001089317451","title":"Qa инженер","text":"QA\n\n#QA #тестировщик #россия #APi\n#ручноетестирование #middle #senior #тестирование #вакансия\nВ нашей молодой концептуальной IT-компании ООО \"Сколопендра\" (www.skolopendra.com) на данный момент открыта позиция QA тестировщика.\nВид деятельности  нашей Компании: ИТ-разработка полного цикла. \nСпециализация: высоконагруженные промышленные системы, процессинги данных, СППР, AI, запуск стартап-идей под ключ, электротехника.\nНаправление деятельности: технологический партнер для внешних заказчиков/собственные Hard&Soft Продукты.\n\nТребуемые знания, навыки, опыт\n• Знание основных технологий и методов тестирования\n• Понимание процесса разработки и тестирования ПО\n• Хорошие знания в области тест-дизайна\n• Опыт работы с баг-трекинговыми системами (jira)\n• Понимание основных принципов REST API\n• Опыт работы в тестировании от 1,5 лет\n• Высшее образование (предпочтительно техническое)\n\nБудет плюсом:\n• Базовые знания Java будут плюсом\n• Опыт автоматизации тестирования будет плюсом\n• Базовые знания технологии блокчейн и принципов работы бирж будут плюсом\nТакже мы ждем от кандидатов:\n• Умение работать в команде\n• Ответственность, самостоятельность, инициативность\n• Умение работать в условиях большого количества задач, оперативная реакция на задачи\n• Внимание к деталям, способность анализировать информацию\n• Стремление к саморазвитию, обучению, повышению технических компетенций\nФункциональные обязанности:\n• Проведение ручного функционального и регрессионного тестирования\n• Локализация, документирование, проверка дефектов\n• Разработка и актуализация тестовых планов, тестовых сценариев\n• Оценка трудоемкости задач\n• Работа с требованиями и документацией\nЗанятость : фултайм 5/2 на удалёнке \n#iOS\n#Android\n#mobiledevelopment \n#crossplatform #flutter #kotlinnative\n#мобильнаяразработка #вакансия\n\nКомпания ООО “СКОЛОПЕНДРА” (www.skolopendra.com) приглашает целеустремленных и одаренных в наш дружный коллектив. \nДавай вместе делать интересные проекты в современных стеках технологий. А мы предоставим возможности для скорейшего профессионального и личностного роста.\n\nВид деятельности Компании: ИТ-разработка полного цикла. \nСпециализация: высоконагруженные промышленные системы, процессинги данных, СППР, AI, запуск стартап-идей под ключ, электротехника.\nНаправление деятельности: технологический партнер для внешних заказчиков/собственные Hard&Soft Продукты.\n\nОфис: Москва, м.Павелецкая, Космодамианская наб., 52/10\nФормат работы: в офисе/удаленно\nЗанятость: full-time (целевой формат) /part-time (возможный старт)\nЗП: по итогам собеседования от 600-800 рублей в час на руки , 3-х месячный цикл пересмотра grade\nОформление: по ТК\n\nДолжность: Mid/Mid+/Sen\nКонтакты: team@skolopendra.com\nТелеграмм : @Tufelka1","markup":[{"type":"hashtag","offset":4,"length":3,"data":"QA"},{"type":"hashtag","offset":8,"length":12,"data":"тестировщик"},{"type":"hashtag","offset":21,"length":7,"data":"россия"},{"type":"hashtag","offset":29,"length":4,"data":"APi"},{"type":"hashtag","offset":34,"length":19,"data":"ручноетестирование"},{"type":"hashtag","offset":54,"length":7,"data":"middle"},{"type":"hashtag","offset":62,"length":7,"data":"senior"},{"type":"hashtag","offset":70,"length":13,"data":"тестирование"},{"type":"hashtag","offset":84,"length":9,"data":"вакансия"},{"type":"link","offset":156,"length":19,"data":"http://www.skolopendra.com"},{"type":"hashtag","offset":1696,"length":4,"data":"iOS"},{"type":"hashtag","offset":1701,"length":8,"data":"Android"},{"type":"hashtag","offset":1710,"length":18,"data":"mobiledevelopment"},{"type":"hashtag","offset":1730,"length":14,"data":"crossplatform"},{"type":"hashtag","offset":1745,"length":8,"data":"flutter"},{"type":"hashtag","offset":1754,"length":13,"data":"kotlinnative"},{"type":"hashtag","offset":1768,"length":20,"data":"мобильнаяразработка"},{"type":"hashtag","offset":1789,"length":9,"data":"вакансия"},{"type":"link","offset":1828,"length":19,"data":"http://www.skolopendra.com"},{"type":"link","offset":2670,"length":20,"data":"mailto:team@skolopendra.com"},{"type":"handle","offset":2703,"length":9,"data":"Tufelka1"}],"date":"2020-06-17T22:40:04+00:00","link":"tg://resolve?domain=qa_jobs&post=0","tags":[{"name":"qa"},{"name":"rest"},{"name":"java"},{"name":"ios"},{"name":"android"},{"name":"flutter"}],"cities":[{"code":"moscow"}],"allowsRemote":true}},{"node":{"__typename":"Job","id":"17013145600-1001110946746","title":"Js разработчик","text":"#вакансия\nГород и адрес офиса: Москва \nФормат работы: удаленка\nЗанятость: полная\nЗарплатная вилка:  от 80 000 до 150 000руб net\nОписание вакансии: Требования - миддл, опыт от 3х лет\nCSS3, HTML5, JavaScript\nVue.js второй версии\nwebpack\nопыт в работе с REST или GraphQL\nумение верстать или писать JS код с учетом возможностей IE11\nуверенное использование Git\nНазвание компании: в платформу WikiVote\nКонтакты: @irensergeeva\n\n—\n\n👉 Обсуждение вакансии в чате @javascript_jobs","markup":[{"type":"hashtag","offset":0,"length":9,"data":"вакансия"},{"type":"handle","offset":407,"length":13,"data":"irensergeeva"},{"type":"handle","offset":455,"length":16,"data":"javascript_jobs"}],"date":"2020-06-17T15:23:09+00:00","link":"tg://resolve?domain=javascript_jobs_feed&post=0","tags":[{"name":"javascript"},{"name":"dotnet"},{"name":"css"},{"name":"html"},{"name":"vuejs"},{"name":"webpack"},{"name":"rest"},{"name":"graphql"},{"name":"git"}],"cities":[{"code":"moscow"}],"allowsRemote":true}}]}}},"context":{}}