{"hash":"f5f6bf98bd95e769321482904cbbd488f77922fd","data":{"records":{"id":"nodejs","name":"nodejs","belongsTo":{"totalCount":122,"pageInfo":{"totalPages":13,"currentPage":12},"edges":[{"node":{"__typename":"Job","id":"16890462208-1001110946746","title":"Js разработчик","text":"#remote #вакансия #typescript #node #nodejs #express #expressjs #fulltime #fullstack #москва #санктпетербург #новосибирск #екатеринбург #нижний #новгород #нижнийновгород #пермь #уфа #ульяновск\nНазвание компании: 4spaces\nПозиция: Full Stack JavaScript/TypeScript/Node.js Разработчик\nФормат работы: #удаленка\nЗанятость: полная\nЗарплатная вилка: от 80 000 руб. до 200 000 руб.\n\nОписание вакансии:\nМы ищем талантливого fullstack разработчика с коммерческим опытом создания сложных/высоконагруженных сервисов. Львиная доля разработки приходится на бэкэнд, поэтому значние frontend технологий опционально при условии высокого уровня разработки на стороне backend.\n\nДанная позиция предполагает полную занятость (минимум 40 часовая рабочая неделя).\n\nРассматриваем Senior и Middle кандидатов.\n\nТребования:\n* опыт работы с NodeJS\n* опыт работы с Typescript или JavaScript\n* опыт автоматизации процессов разработки: CI/CD, PR Checks, и т.д.\n* знанение git, gitflow, github flow, и т.д.\n* знание стандартных фреймворков и SDK\n* самое важное – умение и желание получать новые знания необходимые для работы\n\nБудет плюсом:\n* опыт разработки RESTful API\n* опыт работы c ExpressJS\n* опыт работы с ReactJS, webpack, rollup, parcel, jest\n* опыт работы или хотя бы понимание архитектуры Serverless\n* опыт работы в создании/поддержки инфраструктуры на AWS\n* опыт работы с алгоритмами Machine Learning, в частности, для рекомендательных систем.\n* опыт работы c Typescript\n* опыт работы c frontend frameworks, например React, Angular, JQuery\n* опыт работы с SQL и NoSQL базами данных, например MySQL, Postgres, Elasticsearch, Cassandra, AWS DynamoDB, Mongo, Redis etc.\n* опыт работы с масштабируемыми технологиями кэширования, например memchached, Coherence, Infinispan etc.\n* опыт работы с Linux\n* понимание современных процессов и лучших практик разработки: TDD, DDD, CQRS, Eventsourcing, и так далее\n* опыт контрибуции в Open Source (приложите ссылку на github, если есть на что посмотреть)\n\nКонтакты:\nВакансия – https://hh.ru/vacancy/37464232\nEmail – abalchunas@4spaces.company\nSkype – alexey.balchunas\nTelegram – https://t.me/AlexeyBalchunas","markup":[{"type":"hashtag","offset":0,"length":7,"data":"remote"},{"type":"hashtag","offset":8,"length":9,"data":"вакансия"},{"type":"hashtag","offset":18,"length":11,"data":"typescript"},{"type":"hashtag","offset":30,"length":5,"data":"node"},{"type":"hashtag","offset":36,"length":7,"data":"nodejs"},{"type":"hashtag","offset":44,"length":8,"data":"express"},{"type":"hashtag","offset":53,"length":10,"data":"expressjs"},{"type":"hashtag","offset":64,"length":9,"data":"fulltime"},{"type":"hashtag","offset":74,"length":10,"data":"fullstack"},{"type":"hashtag","offset":85,"length":7,"data":"москва"},{"type":"hashtag","offset":93,"length":15,"data":"санктпетербург"},{"type":"hashtag","offset":109,"length":12,"data":"новосибирск"},{"type":"hashtag","offset":122,"length":13,"data":"екатеринбург"},{"type":"hashtag","offset":136,"length":7,"data":"нижний"},{"type":"hashtag","offset":144,"length":9,"data":"новгород"},{"type":"hashtag","offset":154,"length":15,"data":"нижнийновгород"},{"type":"hashtag","offset":170,"length":6,"data":"пермь"},{"type":"hashtag","offset":177,"length":4,"data":"уфа"},{"type":"hashtag","offset":182,"length":10,"data":"ульяновск"},{"type":"hashtag","offset":297,"length":9,"data":"удаленка"},{"type":"link","offset":1993,"length":30,"data":"https://hh.ru/vacancy/37464232"},{"type":"link","offset":2032,"length":26,"data":"http://abalchunas@4spaces.company"},{"type":"link","offset":2095,"length":28,"data":"https://t.me/AlexeyBalchunas"}],"date":"2020-06-13T15:02:56+00:00","link":"tg://resolve?domain=javascript_jobs_feed&post=16108","tags":[{"name":"javascript"},{"name":"typescript"},{"name":"nodejs"},{"name":"express"},{"name":"git"},{"name":"github"},{"name":"reactjs"},{"name":"webpack"},{"name":"amazon-web-services"},{"name":"angularjs"},{"name":"jquery"},{"name":"sql"},{"name":"nosql"},{"name":"mysql"},{"name":"postgresql"},{"name":"elasticsearch"},{"name":"cassandra"},{"name":"dynamodb"},{"name":"redis"},{"name":"linux"},{"name":"machine-learning"}],"cities":[{"code":"moscow"},{"code":"novosibirsk"},{"code":"perm"},{"code":"ufa"},{"code":"ulyanovsk"},{"code":"nizhny-novgorod"}],"allowsRemote":true}},{"node":{"__typename":"Job","id":"90895810560-1001067529236","title":"Python разработчик","text":"#вакансия #vacancy #fulltime #remote #fullstack #senior\n\nПозиция: Senior Python Developer\nКомпания: SO Services Ltd\nФормат работы: удаленная работа\nЗанятость: полная\nОплата: от 3000 до 4000 USD в месяц\nКонтакт: Марк, @mark_soservices\n\nДобрый день! Мы ищем Python разработчика для нашего клиента из США. Требуется разговорный английский. Оформление контракта через ИП - с этим проконсультируем.\n\nResponsibilities\n- Plan and architect development work with rest of Dev team to ensure successful execution and delivery\n- Participate in improving and refining development processes and workflows\n- Help your peers with code review with focus on performance and reliability\n- Develop automation culture\n- Collaborate with Product Management to plan sprints\n- Collaborate with IT Operations to ensure services stability and high uptime\n- Help with investigation of software issues causing downtime and/or malfunction\n- Adapt legacy code to AWS\n\nRequirements\n- 4+ years professional experience building front and back-end web applications\n- Experience with most or all technologies: Python & Django, RDBMS, JS and jQuery, HTML/CSS/LESS, Git\n- Experience with following technologies will be a bonus: MongoDB, PostgreSQL, Elastic Search, WordPress, Redis, Celery, Jenkins, Sentry, New Relic, Nginx, RabbitMQ, NodeJS\n- Focus on task accomplishment and pursuing deadlines\n- Ability to prioritise and manage work across multiple related projects\n- Experienced in working following Agile development methodologies\n- Strong written and communications skills\n\n\nTechnology Stack\n- Python, Django\n- MySQL, Redis\n- AWS (storage, container services, serverless)\n- Github for code management\n- Jenkins as CI","markup":[{"type":"hashtag","offset":0,"length":9,"data":"вакансия"},{"type":"hashtag","offset":10,"length":8,"data":"vacancy"},{"type":"hashtag","offset":19,"length":9,"data":"fulltime"},{"type":"hashtag","offset":29,"length":7,"data":"remote"},{"type":"hashtag","offset":37,"length":10,"data":"fullstack"},{"type":"hashtag","offset":48,"length":7,"data":"senior"},{"type":"handle","offset":217,"length":16,"data":"mark_soservices"},{"type":"bold","offset":395,"length":16,"data":""},{"type":"bold","offset":939,"length":12,"data":""},{"type":"bold","offset":1546,"length":16,"data":""}],"date":"2020-06-13T14:26:03+00:00","link":"tg://resolve?domain=python_jobs&post=0","tags":[{"name":"python"},{"name":"rest"},{"name":"amazon-web-services"},{"name":"web"},{"name":"django"},{"name":"jquery"},{"name":"html"},{"name":"css"},{"name":"git"},{"name":"mongodb"},{"name":"postgresql"},{"name":"elasticsearch"},{"name":"wordpress"},{"name":"redis"},{"name":"jenkins"},{"name":"nginx"},{"name":"rabbitmq"},{"name":"nodejs"},{"name":"mysql"},{"name":"github"}],"cities":[],"allowsRemote":true}},{"node":{"__typename":"Job","id":"16886267904-1001110946746","title":"Js разработчик","text":"#remote #вакансия #typescript #node #nodejs #express #expressjs #fulltime #fullstack #москва #санктпетербург #новосибирск #екатеринбург #нижний #новгород #нижнийновгород #пермь #уфа #ульяновск\nНазвание компании: 4spaces\nПозиция: Full Stack JavaScript/TypeScript/Node.js Разработчик\nФормат работы: #удаленка\nЗанятость: полная\nЗарплатная вилка: от 80 000 руб. до 200 000 руб.\n\nОписание вакансии:\nМы ищем талантливого fullstack разработчика с коммерческим опытом создания сложных/высоконагруженных сервисов. Львиная доля разработки приходится на бэкэнд, поэтому значние frontend технологий опционально при условии высокого уровня разработки на стороне backend.\n\nДанная позиция предполагает полную занятость (минимум 40 часовая рабочая неделя).\n\nРассматриваем Senior и Middle кандидатов.\n\nТребования:\n* опыт работы с NodeJS\n* опыт работы с Typescript или JavaScript\n* опыт автоматизации процессов разработки: CI/CD, PR Checks, и т.д.\n* знанение git, gitflow, github flow, и т.д.\n* знание стандартных фреймворков и SDK\n* самое важное – умение и желание получать новые знания необходимые для работы\n\nБудет плюсом:\n* опыт разработки RESTful API\n* опыт работы c ExpressJS\n* опыт работы с ReactJS, webpack, rollup, parcel, jest\n* опыт работы или хотя бы понимание архитектуры Serverless\n* опыт работы в создании/поддержки инфраструктуры на AWS\n* опыт работы с алгоритмами Machine Learning, в частности, для рекомендательных систем.\n* опыт работы c Typescript\n* опыт работы c frontend frameworks, например React, Angular, JQuery\n* опыт работы с SQL и NoSQL базами данных, например MySQL, Postgres, Elasticsearch, Cassandra, AWS DynamoDB, Mongo, Redis etc.\n* опыт работы с масштабируемыми технологиями кэширования, например memchached, Coherence, Infinispan etc.\n* опыт работы с Linux\n* понимание современных процессов и лучших практик разработки: TDD, DDD, CQRS, Eventsourcing, и так далее\n* опыт контрибуции в Open Source (приложите ссылку на github, если есть на что посмотреть)\n\nКонтакты:\nВакансия – https://hh.ru/vacancy/37464232\nEmail – abalchunas@4spaces.company\nSkype – alexey.balchunas\nTelegram – https://t.me/AlexeyBalchunas\n\n—\n\n👉 Обсуждение вакансии в чате @javascript_jobs","markup":[{"type":"hashtag","offset":0,"length":7,"data":"remote"},{"type":"hashtag","offset":8,"length":9,"data":"вакансия"},{"type":"hashtag","offset":18,"length":11,"data":"typescript"},{"type":"hashtag","offset":30,"length":5,"data":"node"},{"type":"hashtag","offset":36,"length":7,"data":"nodejs"},{"type":"hashtag","offset":44,"length":8,"data":"express"},{"type":"hashtag","offset":53,"length":10,"data":"expressjs"},{"type":"hashtag","offset":64,"length":9,"data":"fulltime"},{"type":"hashtag","offset":74,"length":10,"data":"fullstack"},{"type":"hashtag","offset":85,"length":7,"data":"москва"},{"type":"hashtag","offset":93,"length":15,"data":"санктпетербург"},{"type":"hashtag","offset":109,"length":12,"data":"новосибирск"},{"type":"hashtag","offset":122,"length":13,"data":"екатеринбург"},{"type":"hashtag","offset":136,"length":7,"data":"нижний"},{"type":"hashtag","offset":144,"length":9,"data":"новгород"},{"type":"hashtag","offset":154,"length":15,"data":"нижнийновгород"},{"type":"hashtag","offset":170,"length":6,"data":"пермь"},{"type":"hashtag","offset":177,"length":4,"data":"уфа"},{"type":"hashtag","offset":182,"length":10,"data":"ульяновск"},{"type":"hashtag","offset":297,"length":9,"data":"удаленка"},{"type":"link","offset":1993,"length":30,"data":"https://hh.ru/vacancy/37464232"},{"type":"link","offset":2032,"length":26,"data":"http://abalchunas@4spaces.company"},{"type":"link","offset":2095,"length":28,"data":"https://t.me/AlexeyBalchunas"},{"type":"handle","offset":2158,"length":16,"data":"javascript_jobs"}],"date":"2020-06-13T13:50:55+00:00","link":"tg://resolve?domain=javascript_jobs_feed&post=16104","tags":[{"name":"javascript"},{"name":"typescript"},{"name":"nodejs"},{"name":"express"},{"name":"git"},{"name":"github"},{"name":"reactjs"},{"name":"webpack"},{"name":"amazon-web-services"},{"name":"angularjs"},{"name":"jquery"},{"name":"sql"},{"name":"nosql"},{"name":"mysql"},{"name":"postgresql"},{"name":"elasticsearch"},{"name":"cassandra"},{"name":"dynamodb"},{"name":"redis"},{"name":"linux"},{"name":"machine-learning"}],"cities":[{"code":"moscow"},{"code":"novosibirsk"},{"code":"perm"},{"code":"ufa"},{"code":"ulyanovsk"},{"code":"nizhny-novgorod"}],"allowsRemote":true}},{"node":{"__typename":"Job","id":"16885219328-1001110946746","title":"Js разработчик","text":"#вакансия #удалённо #фронтенд #javascript #ExtJS\n\nНазвание компании: R-vision\nНазвание вакансии: Frontend developer Ext JS (Sencha)\nФормат работы: удаленка, можно офис (Москва, м. Римская).\nЗанятость: полная\nЗарплатная вилка: от 80 000 – 200 000 руб.\nОписание вакансии: \n«Ищем опытного фронтенд разработчика, который вместе с нами будет создавать инновационные решения, которые позволяют нашим клиентам автоматизировать мониторинг, регистрацию и реагирование на инциденты информационной безопасности и значительно повысить возможности по отражению кибер-атак.\nНаши ожидания от кандидата:\nзнание JavaScript (опыт работы от 2х лет)\nопыт работы с Ext JS (версия не ниже 4-ой, в идеале 6-я)\nопыт работы с PostgreSQL или MySQL\nопыт работы с системами контроля версий\nБудет плюсом:\nзнание D3, Node.js, Highcharts\nопыт работы с Linux\nОбязанности:\nработа над фронтэндом (Ext JS) системы R-Vision (централизованной системы мониторинга и управления информационной безопасностью)\nрешение нестандартных / сложных технических задач, используя весь свой творческий и девелоперский потенциал\nпри желании возможна работа fullstack в связке Node.js + Ext JS.»\nКонтакты: @katrinfek\n\n—\n\n👉 Обсуждение вакансии в чате @javascript_jobs","markup":[{"type":"hashtag","offset":0,"length":9,"data":"вакансия"},{"type":"hashtag","offset":10,"length":9,"data":"удалённо"},{"type":"hashtag","offset":20,"length":9,"data":"фронтенд"},{"type":"hashtag","offset":30,"length":11,"data":"javascript"},{"type":"hashtag","offset":42,"length":6,"data":"ExtJS"},{"type":"handle","offset":1153,"length":10,"data":"katrinfek"},{"type":"handle","offset":1198,"length":16,"data":"javascript_jobs"}],"date":"2020-06-13T12:21:08+00:00","link":"tg://resolve?domain=javascript_jobs_feed&post=16103","tags":[{"name":"javascript"},{"name":"extjs"},{"name":"postgresql"},{"name":"mysql"},{"name":"nodejs"},{"name":"highcharts"},{"name":"linux"}],"cities":[{"code":"moscow"}],"allowsRemote":true}},{"node":{"__typename":"Job","id":"16883122176-1001110946746","title":"Js разработчик","text":"#вакансия #Москва #nodejs #офис\n\nКомпания Proscom ищет Middle/Senior Backend (Node.js) разработчика\n\nФормат занятости: Офис около м. Серпуховская/Павелецкая.\nЗанятость: полная \nЗарплатная вилка: 130 000 - 240 000 рублей/месяц (по результатам собеседования)\n\nО компании: \n\nС 2013 года создаем интерфейсы, веб-сайты,\nмобильные приложения для крупных\nправительственных организаций и\nкоммерческих предприятий\n\nЗадачи:\n\nВести разработку как новых проектов, так и поддерживать уже существующий код. \n\nСтек:\n\nNode.js, GraphQL, REST, Nest.js, TypeScript, CRDT, MySQL, PostreSQL, Git, Docker\n\nТребования:\n\nОт 1 года опыта работы с Node.js, от 2х лет опыта программирования\n\nКонтакт: @mxm_at\n\n—\n\n👉 Обсуждение вакансии в чате @javascript_jobs","markup":[{"type":"hashtag","offset":0,"length":9,"data":"вакансия"},{"type":"hashtag","offset":10,"length":7,"data":"Москва"},{"type":"hashtag","offset":18,"length":7,"data":"nodejs"},{"type":"hashtag","offset":26,"length":5,"data":"офис"},{"type":"handle","offset":674,"length":7,"data":"mxm_at"},{"type":"handle","offset":716,"length":16,"data":"javascript_jobs"}],"date":"2020-06-13T12:09:35+00:00","link":"tg://resolve?domain=javascript_jobs_feed&post=16101","tags":[{"name":"javascript"},{"name":"nodejs"},{"name":"graphql"},{"name":"rest"},{"name":"typescript"},{"name":"mysql"},{"name":"git"},{"name":"docker"}],"cities":[{"code":"moscow"}],"allowsRemote":false}},{"node":{"__typename":"Job","id":"16866344960-1001110946746","title":"Js программист","text":"#вакансия #middle #WordPress #fullstack\n\nГород и адрес офиса: Запорожье (Украина)\nФормат работы: удаленная работа\nЗанятость: полная\nЗарплатная вилка: от 600 до 1300 usd\n\nО нас:\nНебольшая команда, сконцентрирована на WordPress разработке и ищет в команду хорошего программиста на длительное время для работы с различными проектами.\n\nСпецифика:\n● Поддержка постоянных проектов, плюс разработка новых сайтов.      \n● Общение с клиентами, как направления, так и опосредованно.\n\nУровень задач:\nОт очень простых (добавить код /   пофиксить элемент) для полного цикла разработки.\nТипичная задача - преобразование готовой верстки (возможно, с поправками) на WP тему, написанные JS и PHP кода.\n\nПрофессиональные качества соискателя:\n● Страсть к разработке, хороший самоменеджмент, желание всегда писать лучший код, а не код, просто решает задачи; Умение быстро осваивать новую технологию или предметной области;      \n● Английский на уровне не менее B2;      \n● Уметь уверенно работать с git;      \n● Хорошее знание API WP - умение перенести верстку с нуля и минимумом плагинов; написать плагин с нуля, получать данные со стороннего API; Знание ACF; Умение настроить кэширование на различных уровнях; Знание базовых принципов обеспечения безопасности проекта;      \n● Хорошее знание Node.js и npm;      \n● Умение семантической станки без CSS-фреймворков. Уверенное знание flexbox, знание основных проблем кросс-браузерную верстки; Навыки работы с Less, Scss;      \n● Умение писать JS (ES-2015 +) без jQuery;      \n● Понимание принципов работы webpack, gulp; Умение писать и изменять их конфигурацию;      \n● Навыки работы с VPS через SSH;      \n● Понимание показателей, влияющих на PageSpeed и SEO;      \n\nБыло бы плюсом:\n● Понимание принципов a11y;      \n● Подтвержденный open source contribution, выступления на конференциях, митапах;      \n● Опыт работы с Ruby, Python / Vue.js, React.js, Angular;      \n● Хорошие навыки работы с PHPStorm;      \n\nПлюшки:\n● Удаленная работа.      \n● Реальные возможности карьерного роста.      \n● Зарплата по результатам собеседования с быстрой возможностью по пересмотру по результатам работы. \n\nНазвание компании: MaximumStart\n\nКонтакты: \n- Телеграм @polinasvetlaya\n- Email polina.dubovik@gmail.com\n\n—\n\n👉 Обсуждение вакансии в чате @javascript_jobs","markup":[{"type":"hashtag","offset":0,"length":9,"data":"вакансия"},{"type":"hashtag","offset":10,"length":7,"data":"middle"},{"type":"hashtag","offset":18,"length":10,"data":"WordPress"},{"type":"hashtag","offset":29,"length":10,"data":"fullstack"},{"type":"handle","offset":2179,"length":15,"data":"polinasvetlaya"},{"type":"link","offset":2203,"length":24,"data":"mailto:polina.dubovik@gmail.com"},{"type":"handle","offset":2262,"length":16,"data":"javascript_jobs"}],"date":"2020-06-12T10:38:58+00:00","link":"tg://resolve?domain=javascript_jobs_feed&post=16085","tags":[{"name":"javascript"},{"name":"wordpress"},{"name":"php"},{"name":"git"},{"name":"nodejs"},{"name":"npm"},{"name":"css"},{"name":"jquery"},{"name":"webpack"},{"name":"gulp"},{"name":"ssh"},{"name":"seo"},{"name":"ruby"},{"name":"python"},{"name":"vuejs"},{"name":"reactjs"},{"name":"angularjs"}],"cities":[],"allowsRemote":true}},{"node":{"__typename":"Job","id":"16862150656-1001110946746","title":"Js разработчик","text":"#вакансия #Москва #nodejs #офис\n\nКомпания Proscom ищет Middle/Senior Backend (Node.js) разработчика\n\nФормат занятости: Офис около м. Серпуховская/Павелецкая.\nЗанятость: полная \nЗарплатная вилка: 100 000 - 240 000 рублей/месяц (по результатам собеседования)\n\nО компании: \n\nС 2013 года создаем интерфейсы, веб-сайты,\nмобильные приложения для крупных\nправительственных организаций и\nкоммерческих предприятий\n\nЗадачи:\n\nВести разработку как новых проектов, так и поддерживать уже существующий код.\n\nСтек:\n\nNode.js, GraphQL, REST, Nest.js, TypeScript, CRDT, MySQL, PostreSQL, Git, Docker\n\nТребования:\n\nОт 1 года опыта работы с Node.js, от 2х лет опыта программирования\n\nБудет плюсом:\n\nОпыт с frontend\n\nНаши преимущества:\n\n ⁃ У нас много интересных проектов\n ⁃ Используем актуальные технологии, следим за трендами и постоянно улучшаем UX и DX\n ⁃ Не заморачиваемся графиком 9-18, не считаем съеденные печеньки, не заставляем ходить на обязательные корпоративы в нерабочее время, петь гимны и ублажать начальство\n ⁃ Заинтересованы в развитии сотрудников. Есть чему учиться и куда расти.\n ⁃ У нас дружный коллектив. Периодически проводим время вместе, но всегда без принуждения\n ⁃ У нас минимум бюрократии и нет дресс-кода\n ⁃ У нас уютный лофт офис у м. Серпуховская/Павелецкая.\n\nКонтакт: @mxm_at","markup":[{"type":"hashtag","offset":0,"length":9,"data":"вакансия"},{"type":"hashtag","offset":10,"length":7,"data":"Москва"},{"type":"hashtag","offset":18,"length":7,"data":"nodejs"},{"type":"hashtag","offset":26,"length":5,"data":"офис"},{"type":"handle","offset":1279,"length":7,"data":"mxm_at"}],"date":"2020-06-12T08:59:08+00:00","link":"tg://resolve?domain=javascript_jobs_feed&post=16081","tags":[{"name":"javascript"},{"name":"nodejs"},{"name":"graphql"},{"name":"rest"},{"name":"typescript"},{"name":"mysql"},{"name":"git"},{"name":"docker"}],"cities":[{"code":"moscow"}],"allowsRemote":false}},{"node":{"__typename":"Job","id":"2199912448-1001134745498","title":"Devops инженер","text":"#вакансия #DevOps \nDevOps Engineer \nГород и адрес офиса: Москва, Сочи, Новосибирск \n\nФормат работы: удаленка\n\nЗанятость: полная\n\nЗарплатная вилка: от 40000 до 60000 USD в год \n\nОписание вакансии: Крупная международная компания по разработке игр ищет в свою команду DevOps инженера. \n\nТребования: \nDevOps/SRE, ключевые слова:\nTypeScrypt, Node.js, SRE, SDN, PoP, VPN, динамическая маршрутизация, инкапсуляция трафика, Kubernetes, Helm и что-нибудь из стораджа типа Lustre, CEPH и про Apache Spark, Hadoop и особенно HDFS\n\nБудет плюсом: \n• Опыт удаленной работы.\n\nP.S. Ищем супер ниндзю, который отвечает всем требованиям вакансии \n\nКонтакт для связи: @temnik_sofya\n\n—\n\n👉 Обсуждение вакансии в чате @devops_jobs","markup":[{"type":"hashtag","offset":0,"length":9,"data":"вакансия"},{"type":"hashtag","offset":10,"length":7,"data":"DevOps"},{"type":"handle","offset":649,"length":13,"data":"temnik_sofya"},{"type":"handle","offset":697,"length":12,"data":"devops_jobs"}],"date":"2020-06-12T08:26:02+00:00","link":"tg://resolve?domain=devops_jobs_feed&post=2098","tags":[{"name":"nodejs"},{"name":"kubernetes"},{"name":"apache"},{"name":"hadoop"},{"name":"hdfs"},{"name":"apache-spark"}],"cities":[{"code":"moscow"},{"code":"sochi"},{"code":"novosibirsk"}],"allowsRemote":true}},{"node":{"__typename":"Job","id":"16859004928-1001110946746","title":"Js разработчик","text":"#вакансия #frontend #vue #senior #middle #remote #офис #удаленка\n\nГород: Москва, м. Славянский бульвар\nФормат работы: офис, удаленное сотрудничество\nЗанятость: полная, гибкий график (обсуждаем)\nЗарплатная вилка: от 80 000 рублей до 240 000 рублей на руки\nНазвание компании: ФГБУ «ИАЦ МЧС России»\nКонтакты для связи: @mxrkin\n\nНа данный момент отдел разработки программного обеспечения формирует команду JS-разработчиков для поддержки существующих и реализации новых проектов.\n\nТребования для соискателей:\n— уверенные знания Javascript, знание стандартов ECMAScript;\n— знание и опыт применения фреймворка Vue.js и использование элементов экосистемы фреймворка (vuex, vue-router);\n— опыт использования систем сборки - webpack, gulp, parcel. Опыт написания конфигов для webpack;\n— владение препроцессорами CSS - SASS/LESS;\n— опыт использования Prettier, ESLint;\n— гражданство РФ (местонахождение так же РФ).\n\nПлюсом будет:\n— владение Node.js или знание других языков программирования;\n— активные профили в сообществах habrahabr, habr Q&A, участие в opensource проектах, активный профиль github;\n— опыт работы с библиотекой D3.js;\n— опыт работы с картографическими библиотеками.\n\nТрудоустройство официальное по ТК РФ, социальный пакет.\nНа территории имеется столовая для сотрудников, спортивные площадки, футбольное и баскетбольное поле.\nРабота не является государственной службой.\n\nСобеседование проходит в три этапа — общение с руководителем, выполнение тестового задания (простое задание на 15-30 минут), предложение сотрудничества. \n\nЕсли вас заинтересовала вакансия, обращайтесь в тг @mxrkin. Большим плюсом будет, если первым сообщением прикрепите резюме и поделитесь ссылками на проекты, в которых принимали активное участие, или ссылку на гитхаб с кодом, который, по-вашему мнению, сможет показать все ваши знания и навыки.","markup":[{"type":"hashtag","offset":0,"length":9,"data":"вакансия"},{"type":"hashtag","offset":10,"length":9,"data":"frontend"},{"type":"hashtag","offset":20,"length":4,"data":"vue"},{"type":"hashtag","offset":25,"length":7,"data":"senior"},{"type":"hashtag","offset":33,"length":7,"data":"middle"},{"type":"hashtag","offset":41,"length":7,"data":"remote"},{"type":"hashtag","offset":49,"length":5,"data":"офис"},{"type":"hashtag","offset":55,"length":9,"data":"удаленка"},{"type":"handle","offset":316,"length":7,"data":"mxrkin"},{"type":"handle","offset":1584,"length":7,"data":"mxrkin"}],"date":"2020-06-11T20:24:35+00:00","link":"tg://resolve?domain=javascript_jobs_feed&post=16078","tags":[{"name":"javascript"},{"name":"vuejs"},{"name":"webpack"},{"name":"gulp"},{"name":"css"},{"name":"sass"},{"name":"nodejs"},{"name":"github"}],"cities":[{"code":"moscow"}],"allowsRemote":true}},{"node":{"__typename":"Job","id":"16854810624-1001110946746","title":"Js разработчик","text":"#вакансия #fulltime #fullstack #frontend #nodejs #reactjs #remote\n\nГород и адрес офиса: Санкт-Петербург, м. Звенигородская\n\nФормат работы: офис / частично ремоут\n\nЗанятость: полная\n\nЗарплатная вилка: от 90к до 160к\n\nОписание вакансии: \nработа в небольшой команде над банковскими продуктами, фронтенд / фулстек разработка, написание API, поддержка кода\n\nОсновные задачи:\n- Участие в разработке внутрибанковских сервисов на JS\n- Разработка архитектуры проектов\n- Бывают задачи по настройке серверов, CD/CI, Docker, и т.п., если нет опыта, будет возможность узнать что-то новое\n\nТребования:\n- JS ES6 от 1 года\n- уверенное знание React.js / Node.js \n- умение в git\n- MongoDB (mongoose)\n\nРабота по контрактам, оформление белое\n\nКонтакты: @hopacha","markup":[{"type":"hashtag","offset":0,"length":9,"data":"вакансия"},{"type":"hashtag","offset":10,"length":9,"data":"fulltime"},{"type":"hashtag","offset":20,"length":10,"data":"fullstack"},{"type":"hashtag","offset":31,"length":9,"data":"frontend"},{"type":"hashtag","offset":41,"length":7,"data":"nodejs"},{"type":"hashtag","offset":49,"length":8,"data":"reactjs"},{"type":"hashtag","offset":58,"length":7,"data":"remote"},{"type":"handle","offset":733,"length":8,"data":"hopacha"}],"date":"2020-06-11T20:10:59+00:00","link":"tg://resolve?domain=javascript_jobs_feed&post=0","tags":[{"name":"javascript"},{"name":"nodejs"},{"name":"reactjs"},{"name":"docker"},{"name":"git"},{"name":"mongodb"},{"name":"mongoose"}],"cities":[],"allowsRemote":true}}]}}},"context":{}}