{"hash":"f5f6bf98bd95e769321482904cbbd488f77922fd","data":{"records":{"id":"russia/moscow","country":{"code":"russia","ruName":"Россия","enName":"Russia"},"city":{"code":"moscow","ruName":"Москва","enName":"Moscow"},"belongsTo":{"totalCount":476,"pageInfo":{"totalPages":48,"currentPage":21},"edges":[{"node":{"__typename":"Job","id":"103704166400-1001089317451","title":"Qa engineer","text":"#вакансия #москва #офис #qaengineer #qa \nГород и адрес офиса: Москва, м.Автозаводская \nФормат работы: офис \nЗанятость: полная \nЗарплатная вилка: от 60 000 на руки \n\n✅QA Engineer (gamedev)\n\nОписание вакансии: \n\nКрупный мобильный проект в жанре фентези - Dragon Champions - ищет своего QA! Вы сможете работать над интересной игрой на стыке мидкорных и хардкорных механик, в окружении команды больших профессионалов с многолетним опытом.\n\n✅Что делать:\n\n•  Тестирование мобильной игры: функциональное тестирование, юзабилити тестирование, регрессионное тестирование\n•  Составление документации для тестирования: тест-кейсы, тест-план, чек-листы\n•  Тесное обсуждение функциональности игры с командой разработки\n•  Заведение всех найденных багов в трекере (Jira)\n\n✅Требования:\n\n•  Опыт работы в тестировании от одного года\n•  Понимание основ тестирования ПО, тест-планов, чек-листов, регрессионного и функционального тестирования\n•  Огромным плюсом будет наличие опыта в тестировании игр, в особенности, мобильных игр на Unity\n•  Умение работать с Jira, Confluence и Unity также будет большим плюсом\n\n✅Для вас:\n\n•  Конкурентная заработная плата, выплачивается 2 раза в месяц\n•  Необходимое оборудование для работы\n•  Коллектив творческих и позитивных людей\n\n✅О нас:\n\n•  Просторный офис 600 метров на м. Автозаводская (3 минуты от метро и от ТТК на машине) с ультра современным дизайном и кучей ништяков (кухня с вкусняшками, кальяны каждый вечер в дружной кампании, PS4 Pro + 4K TV, аркадные автоматы с Pac-Man, Metal Slug и другими хитами геймдизайна, просторная зона отдыха, 6 переговорных комнат и т д)\n•  Команда из 120 человек занимающаяся паблишингом и маркетингом, которая готова сделать продукт успешным после его готовности\n•  Возможность бесплатно обучаться английскому языку с носителями каждый будний день\n\nНазвание компании: AppQuantum\n\nКонтакты: \ne-mail: bm@adquantum.com\ntelegram: @MishaBarinov","markup":[{"type":"hashtag","offset":0,"length":9,"data":"вакансия"},{"type":"hashtag","offset":10,"length":7,"data":"москва"},{"type":"hashtag","offset":18,"length":5,"data":"офис"},{"type":"hashtag","offset":24,"length":11,"data":"qaengineer"},{"type":"hashtag","offset":36,"length":3,"data":"qa"},{"type":"bold","offset":166,"length":21,"data":""},{"type":"bold","offset":437,"length":11,"data":""},{"type":"bold","offset":759,"length":11,"data":""},{"type":"bold","offset":1096,"length":8,"data":""},{"type":"bold","offset":1253,"length":6,"data":""},{"type":"link","offset":1863,"length":16,"data":"mailto:bm@adquantum.com"},{"type":"handle","offset":1890,"length":13,"data":"MishaBarinov"}],"date":"2020-06-25T10:53:44+00:00","link":"tg://resolve?domain=qa_jobs&post=98900","tags":[{"name":"qa"},{"name":"unity3d"}],"cities":[{"code":"moscow"}],"allowsRemote":false}},{"node":{"__typename":"Job","id":"1737490432-1001091028994","title":"Java developer","text":"#Вакансия #Java #Spring #Москва\n\nВсем привет! \nИщу Middle Java Backend Developer в Национальную Систему Платёжных Карт на проект \"Клиринг\".\n\nЭто Core-платформа, которая обрабатывает все транзакции внутри нашей страны по всем основным платежным системам. Обработка каждой системы уникальна, имеет свои интересные особенности. \n\nСтек: CentOS, Java Core, Spring, Akka Actors, MySql, MyBatis, Swagger, Gradle, Groovy и Kotlin скрипты.\n\nНам интересны кандидаты от уровня Middle и выше: от 160 000 rub. \nФинансовый вопрос обсуждается индивидуально и зависит от опыта, знаний и навыков кандидата.\n\nЧто предстоит делать:\n- разрабатывать и поддерживать  backend проекта в тесном взаимодействии с командой;\n- обеспечивать полный цикл разработки от анализа требований до внедрения продукта;\n- участвовать в построении новых систем и в развитии существующих.\n\nЧто требуется:\n- отличные знания Core Java;\n- опыт работы со стеком Spring, в том числе SpringBoot;\n- хорошие знания SQL, опыт работы с JUnit, использования git, вариантов gitflow;\n- понимание принципов построения CI/CD (методология, инструменты);\nумение декомпозировать задачи.\n\nМы предлагаем:\n- работу в команде профессионалов;\n- обучение за счет компании;\n- развитую корпоративную культуру;\n- комфортный офис в центре (тренажерный зал, спортивный зал, лаунж-зона, кухни с чаем и кофе на каждом этаже);\n- ДМС со стоматологией с первого месяца работы, официальное трудоустройство.\n\n@arinakulova","markup":[{"type":"hashtag","offset":0,"length":9,"data":"Вакансия"},{"type":"hashtag","offset":10,"length":5,"data":"Java"},{"type":"hashtag","offset":16,"length":7,"data":"Spring"},{"type":"hashtag","offset":24,"length":7,"data":"Москва"},{"type":"handle","offset":1431,"length":12,"data":"arinakulova"}],"date":"2020-06-25T10:47:20+00:00","link":"tg://resolve?domain=jvmjobs&post=1657","tags":[{"name":"java"},{"name":"jvm"},{"name":"spring"},{"name":"centos"},{"name":"akka"},{"name":"mysql"},{"name":"swagger"},{"name":"gradle"},{"name":"groovy"},{"name":"kotlin"},{"name":"sql"},{"name":"junit"},{"name":"git"}],"cities":[{"code":"moscow"}],"allowsRemote":false}},{"node":{"__typename":"Job","id":"17149460480-1001110946746","title":"Js разработчик","text":"Ребята, всем привет!\n\n#вакансия #москва #JavaScript #backend #nodeJS #developer #middle #SQL #MySQL #PostgresSQL #RDBMS #нода #автотест #офис\n\nИщем nodejs разработчика для онлайн-платформы, которая предоставляет услуги разного профиля и помогает в решении от сложных юридически вопросов до консультаций с врачем\n \nЗП: 140 000-180 000 на руки\nМосква, м. Пролетарская, \n\nофис\nПолный рабочий день. Гибкое начало дня.\nКА RedCode\n\nЧто делать: \n-интегрировать внутреннюю корпоративную систему с сайтом;\n- работать с «личным кабинетом» пользователей;\n- работать с продуктами компании.\n\nСтек: JavaScript (NodeJS), RDBMS, SQL, MySQL/Postgres\n\nБудет хорошо, если у вас:\n- опыт коммерческой разработки от 3 лет, \n- знание ООП и основных шаблонов проектирования;\n-опыт написания автотестов.\n\nБуду рада пообщаться лично @diana_com\n\n—\n\n👉 Обсуждение вакансии в чате @javascript_jobs","markup":[{"type":"hashtag","offset":22,"length":9,"data":"вакансия"},{"type":"hashtag","offset":32,"length":7,"data":"москва"},{"type":"hashtag","offset":40,"length":11,"data":"JavaScript"},{"type":"hashtag","offset":52,"length":8,"data":"backend"},{"type":"hashtag","offset":61,"length":7,"data":"nodeJS"},{"type":"hashtag","offset":69,"length":10,"data":"developer"},{"type":"hashtag","offset":80,"length":7,"data":"middle"},{"type":"hashtag","offset":88,"length":4,"data":"SQL"},{"type":"hashtag","offset":93,"length":6,"data":"MySQL"},{"type":"hashtag","offset":100,"length":12,"data":"PostgresSQL"},{"type":"hashtag","offset":113,"length":6,"data":"RDBMS"},{"type":"hashtag","offset":120,"length":5,"data":"нода"},{"type":"hashtag","offset":126,"length":9,"data":"автотест"},{"type":"hashtag","offset":136,"length":5,"data":"офис"},{"type":"handle","offset":807,"length":10,"data":"diana_com"},{"type":"handle","offset":852,"length":16,"data":"javascript_jobs"}],"date":"2020-06-25T10:41:37+00:00","link":"tg://resolve?domain=javascript_jobs_feed&post=16355","tags":[{"name":"javascript"},{"name":"nodejs"},{"name":"sql"},{"name":"mysql"},{"name":"postgresql"}],"cities":[{"code":"moscow"}],"allowsRemote":false}},{"node":{"__typename":"Job","id":"72002568192-1001054966032","title":"Android разработчик","text":"#вакансия #москва #офис #unity #developer #gamedev #csharp c#\n\nГород и адрес офиса: Москва, м.Автозаводская \nФормат работы: офис \nЗанятость: полная \nЗарплатная вилка: от 160 000 до 200 000 на руки \n\n📣 Unity Developer (gamedev)\n\n✅ Описание вакансии:\n\nAppQuantum - это успешная команда из 120 человек, которая занимается мобильным маркетингом, разработкой и паблишингом мобильных игр. Один из наших самых успешных проектов Idle Evil Clicker набрал за пол года 5 млн пользователей на iOS и Android и мы не планируем останавливаться на достигнутом.\nМы ищем сильного Unity разработчика для работы над проектами в жанре Idle / Clicker / Tycoon. У нас три запущенных проекта, сейчас работаем над четвертым.\n\n\n✅ Задачи:\n\n• Разработка клиентской части игры\n• Интеграция в проект готового контента (модели, анимации, звуки)\n• Интеграция в проект готовых VFX, написание логики их управления\n• Вёрстка UI по макетам от художников\n• Интеграция различных сторонних SDK\n\n\n✅ Требования:\n\n• Опыт работы на Unity3D (С#) от 3х лет\n• Отличное знание Unity и всех её подсистем\n• Отличное знание C#, умение писать чёткий, понятный, структурированный код\n• Отличное знание паттернов проектирования\n• Умение верстать адаптивные интерфесы в uGUI\n• Умение отлаживать и оптимизировать проекты под мобильные платформы iOS/Android\n• Понимание Рендер пайплайна Unity3D, его тонких мест и принципов оптимизации\n• Уверенные знания по работе с системой контроля версий git\n• Умение разбираться в чужом коде, проводить рефакторинг\n• Дисциплинированность и ответственность\n\n\n✅ Плюсом будет:\n\n• Участие в разработке выпущенных игр под мобильные платформы на аналогичной должности\n• Умение работать с шейдерами\n• Опыт работы с нативными плагинами (In-Apps, PUSH notifications, аналитика, реклама, социальное взаимодействие)\n• Опыт работы с ecs (Unity DOTS, Entitas)\n• Умение разрабатывать и поддерживать стабильную архитектуру\n• Коммуникабельность, yмение чётко доносить свою точку зрения и принимать точку зрения остальных участников команды\n\n\n✅ Для вас:\n\n• Конкурентная заработная плата по результатам собеседования, выплачивается 2 раза в месяц без задержек\n• Необходимое оборудование заказываем под вас\n• Возможность обучаться английскому языку с носителями каждый будний день по утрам\n• Собеседование сразу же с руководителем, который принимает решение о найме\n\nНазвание компании: AppQuantum\n\nhttps://appquantum.com/\n\nКонтакты: \ne-mail: vika@adquantum.com\ntelegram: @wikki13","markup":[{"type":"hashtag","offset":0,"length":9,"data":"вакансия"},{"type":"hashtag","offset":10,"length":7,"data":"москва"},{"type":"hashtag","offset":18,"length":5,"data":"офис"},{"type":"hashtag","offset":24,"length":6,"data":"unity"},{"type":"hashtag","offset":31,"length":10,"data":"developer"},{"type":"hashtag","offset":42,"length":8,"data":"gamedev"},{"type":"hashtag","offset":51,"length":7,"data":"csharp"},{"type":"bold","offset":231,"length":18,"data":""},{"type":"bold","offset":705,"length":7,"data":""},{"type":"bold","offset":960,"length":11,"data":""},{"type":"bold","offset":1543,"length":13,"data":""},{"type":"bold","offset":2011,"length":8,"data":""},{"type":"link","offset":2362,"length":23,"data":"https://appquantum.com/"},{"type":"link","offset":2406,"length":18,"data":"mailto:vika@adquantum.com"},{"type":"handle","offset":2435,"length":8,"data":"wikki13"}],"date":"2020-06-25T10:07:53+00:00","link":"tg://resolve?domain=mobile_jobs&post=68667","tags":[{"name":"mobile"},{"name":"android"},{"name":"ios"},{"name":"unity3d"},{"name":"csharp"},{"name":"git"}],"cities":[{"code":"moscow"}],"allowsRemote":false}},{"node":{"__typename":"Job","id":"71999422464-1001054966032","title":"Ios разработчик","text":"#вакансия #Москва #fulltime #swift #middle \nКомпания: Trinity Monsters\nПозиция: middle iOS developer\nЛокация: Россия, Москва, офис в самом центре, у метро Охотный Ряд\nЗанятость: полная \n\nЗП: от 150.000 до 200.000 руб. на руки\n\nНа новый проект (с нуля), нужен разработчик в команду. Мы занимаемся разработкой с 2013 года и входим в ТОП-10 лучших разработчиков Москвы. У нас небольшой коллектив, с которым мы реализуем амбициозные проекты (Nespresso, Азбука Вкуса, Газпром-Нефть, ВТБ, несколько внутренних проектов-стартапов).\n\nИщем разработчиков уровня middle и выше.  \n\nПочему мы:\n⁃ гибкий график\n⁃ отлаженный менеджмент\n⁃ большие проекты \n⁃ работа с разнообразными интересными и амбициозными проектами\n⁃ сложные технические задачи, возможность развития и роста\n⁃ просторный комфортный офис в 2-х минутах от метро Охотный ряд с кухней, чаем, кофе и т.д.\n⁃ возможность влиять на продукт и вносить свои идеи\n⁃ оформление по ТК РФ\n\nДля связи @vicemik","markup":[{"type":"hashtag","offset":0,"length":9,"data":"вакансия"},{"type":"hashtag","offset":10,"length":7,"data":"Москва"},{"type":"hashtag","offset":18,"length":9,"data":"fulltime"},{"type":"hashtag","offset":28,"length":6,"data":"swift"},{"type":"hashtag","offset":35,"length":7,"data":"middle"},{"type":"handle","offset":939,"length":8,"data":"vicemik"}],"date":"2020-06-25T10:02:27+00:00","link":"tg://resolve?domain=mobile_jobs&post=68664","tags":[{"name":"mobile"},{"name":"ios"},{"name":"swift"}],"cities":[{"code":"moscow"}],"allowsRemote":false}},{"node":{"__typename":"Job","id":"103698923520-1001089317451","title":"Qa инженер","text":"#вакансия #fulltime #офис #москва\n#manual\n\nНаша компания (ООО Солид Дев) находится в поиске ручного тестировщика (но с желанием развиваться в автоматизации) - уровень от middle, который будет помогать нам совершенствовать наши продукты и сервисы! \n\nЕсли ты:\n- Тестишь web-приложения уже не один год \n- Имеешь базовые знания SQL и опыт написания автотестов на python\n- Хочешь работать в команде профессионалов и развиваться\n\nТо пиши мне в личку или присылай резюме на почту - soliddevhr@gmail.com расскажу подробнее про функционал и про наши плюшки)\n\nСтанция м.Бабушкинская\nВилка: от 120 на руки","markup":[{"type":"hashtag","offset":0,"length":9,"data":"вакансия"},{"type":"hashtag","offset":10,"length":9,"data":"fulltime"},{"type":"hashtag","offset":20,"length":5,"data":"офис"},{"type":"hashtag","offset":26,"length":7,"data":"москва"},{"type":"hashtag","offset":34,"length":7,"data":"manual"},{"type":"bold","offset":249,"length":8,"data":""},{"type":"bold","offset":424,"length":19,"data":""},{"type":"link","offset":475,"length":20,"data":"mailto:soliddevhr@gmail.com"},{"type":"bold","offset":550,"length":7,"data":""},{"type":"bold","offset":573,"length":5,"data":""}],"date":"2020-06-25T09:51:45+00:00","link":"tg://resolve?domain=qa_jobs&post=98895","tags":[{"name":"qa"},{"name":"web"},{"name":"sql"},{"name":"python"}],"cities":[{"code":"moscow"}],"allowsRemote":false}},{"node":{"__typename":"Job","id":"1736441856-1001091028994","title":"Java разработчик","text":"Город: #москва, м. Кутузовская \nКомпания: Лига Цифровой Экономики \nПозиция:  #fullstack #java #senior разработчик  \nФормат работы: #офис #fulltime\nЗарплатная вилка: 220 000 – 230 000 \n\nВсем привет! \nИщу senior java разработчика с желанием развиваться во fullstack (js+React).\nКоманда занимается разработкой продукта, реализующего инструменты анализа данных и методик расчета метрик, он-лайн и офф-лайн отчетности (Grafana, QlikView, Qlik Sense)\n\nКроме желания мы ожидаем от вас:\n- опыт коммерческой разработки на java от 3 лет;\n- опыт использования Spring;\n- знание JavaScript/HTML/CSS;\n- умение оценивать объем работ по поставляемым бизнес-требованиям и выдерживать обозначенные сроки.\n \nВ нашей команде вы будете:\n- участвовать в развитии текущего функционал оперативной отчетности (фронт: Grafana, JS+React; бэк: Java);\n- лидировать команду разработки, распределять и контролировать задачи на junior-разработчиков; \n- участвовать в выстраивании процессов и требований к аналитическим материалам, передачи функционала в тестирование;\n- участвовать в приемочных испытаниях и помогать в установке/настройке функционала в промышленном контуре, а также консультировать и bug-fix в случае выявления дефектов.\n\nМы, в свою очередь, предлагаем: \n- удобное для вас время начала работы (с 9 до 11);\n- первое время удаленная работа, далее - офис 5/2;\n- развитую систему внутренних тренингов и возможность обучатся на внешних курсах;\n- расширенный ДМС, скидки на фитнес и обучение английскому языку, оплачиваемая мобильная связь и многое другое.\n\nЖдем ваши резюме!\n@hr_ushka\nosalina@digitalleague.ru","markup":[{"type":"bold","offset":0,"length":6,"data":""},{"type":"hashtag","offset":7,"length":7,"data":"москва"},{"type":"bold","offset":32,"length":9,"data":""},{"type":"bold","offset":67,"length":8,"data":""},{"type":"hashtag","offset":77,"length":10,"data":"fullstack"},{"type":"hashtag","offset":88,"length":5,"data":"java"},{"type":"hashtag","offset":94,"length":7,"data":"senior"},{"type":"bold","offset":116,"length":14,"data":""},{"type":"hashtag","offset":131,"length":5,"data":"офис"},{"type":"hashtag","offset":137,"length":9,"data":"fulltime"},{"type":"bold","offset":147,"length":17,"data":""},{"type":"bold","offset":446,"length":33,"data":""},{"type":"bold","offset":689,"length":27,"data":""},{"type":"bold","offset":1207,"length":31,"data":""},{"type":"bold","offset":1537,"length":18,"data":""},{"type":"handle","offset":1555,"length":9,"data":"hr_ushka"},{"type":"link","offset":1565,"length":24,"data":"mailto:osalina@digitalleague.ru"}],"date":"2020-06-25T09:37:50+00:00","link":"tg://resolve?domain=jvmjobs&post=1656","tags":[{"name":"java"},{"name":"jvm"},{"name":"reactjs"},{"name":"spring"},{"name":"javascript"},{"name":"html"},{"name":"css"}],"cities":[{"code":"moscow"}],"allowsRemote":true}},{"node":{"__typename":"Job","id":"1735393280-1001091028994","title":"Java разработчик","text":"#java #senior #backend #js #Москва #fulltime #офис #angular\nЛокация: Москва, м. Шаболовская\nФормат работы: Office\nЗанятость: Fulltime\nЗарплата от 100 к до 240 к\nОписание вакансии:\nРазработчик JAVA (senior\\middle)\nНаш клиент - международная компания, в связи с расширением деятельности в России - приглашает опытных Java-разработчиков. \nРазработка собственного продукта - коммерческого приложения на основе Angular front + Java backend.\nОбязанности:\n- разработка новых компонентов системы\n- доработка и оптимизация существующих компонентов\n- поддержка качества кода (code review, использование систем автоматизированного контроля кода)\n- Написание юнит-тестов и функциональных тестов\n- Взаимодействие с бизнес-аналитиками для выполнения техзадания\nТребования:\n- Высшее образование\n- Командность, гибкость подходов и мышления\n- опыт разработки на java от 3 лет\nТехнические требования:\n- знание java 8, Spring-*(Boot, Data, Rest), Hibernate\n- опыт работы с SQL (SQL Server, Oracle или postgresql)\n- понимание основ микросервисной архитектуры\n- Git\n-если ты умеешь работать с Docker и понимаешь практики DevOps ты тот, кто нам нужен.\nАдекватных руководителей, сильную команду и офисные плюшки гарантируем\nКА Wit recruitment\nКонтакты m.buldenko@witrec.com\n@marinabuldenko","markup":[{"type":"hashtag","offset":0,"length":5,"data":"java"},{"type":"hashtag","offset":6,"length":7,"data":"senior"},{"type":"hashtag","offset":14,"length":8,"data":"backend"},{"type":"hashtag","offset":23,"length":3,"data":"js"},{"type":"hashtag","offset":27,"length":7,"data":"Москва"},{"type":"hashtag","offset":35,"length":9,"data":"fulltime"},{"type":"hashtag","offset":45,"length":5,"data":"офис"},{"type":"hashtag","offset":51,"length":8,"data":"angular"},{"type":"link","offset":1229,"length":21,"data":"mailto:m.buldenko@witrec.com"},{"type":"handle","offset":1251,"length":15,"data":"marinabuldenko"}],"date":"2020-06-25T09:30:21+00:00","link":"tg://resolve?domain=jvmjobs&post=1655","tags":[{"name":"java"},{"name":"jvm"},{"name":"angularjs"},{"name":"spring"},{"name":"rest"},{"name":"hibernate"},{"name":"sql"},{"name":"oracle"},{"name":"postgresql"},{"name":"git"},{"name":"docker"},{"name":"spring-boot"},{"name":"sql-server"}],"cities":[{"code":"moscow"}],"allowsRemote":false}},{"node":{"__typename":"Job","id":"103691583488-1001089317451","title":"Qa инженер","text":"QA\n\n#QA #тестировщик #россия #APi\n#ручноетестирование #middle #senior #тестирование #вакансия\nВ нашей молодой концептуальной IT-компании ООО \"Сколопендра\" (www.skolopendra.com) на данный момент открыта позиция QA тестировщика.\nВид деятельности  нашей Компании: ИТ-разработка полного цикла. \nСпециализация: высоконагруженные промышленные системы, процессинги данных, СППР, AI, запуск стартап-идей под ключ, электротехника.\nНаправление деятельности: технологический партнер для внешних заказчиков/собственные Hard&Soft Продукты.\n\n\n\nQA \n\nТребуемые знания, навыки, опыт\n• Знание основных технологий и методов тестирования\n• Понимание процесса разработки и тестирования ПО\n• Хорошие знания в области тест-дизайна\n• Опыт работы с баг-трекинговыми системами (jira)\n• Понимание основных принципов REST API\n• Опыт работы в тестировании от 1,5 лет\n• Высшее образование (предпочтительно техническое)\n\nБудет плюсом:\n• Базовые знания Java будут плюсом\n• Опыт автоматизации тестирования будет плюсом\n• Базовые знания технологии блокчейн и принципов работы бирж будут плюсом\nТакже мы ждем от кандидатов:\n• Умение работать в команде\n• Ответственность, самостоятельность, инициативность\n• Умение работать в условиях большого количества задач, оперативная реакция на задачи\n• Внимание к деталям, способность анализировать информацию\n• Стремление к саморазвитию, обучению, повышению технических компетенций\nФункциональные обязанности:\n• Проведение ручного функционального и регрессионного тестирования\n• Локализация, документирование, проверка дефектов\n• Разработка и актуализация тестовых планов, тестовых сценариев\n• Оценка трудоемкости задач\n• Работа с требованиями и документацией\nЗанятость : фултайм 5/2 на удалёнке \n#iOS\n#Android\n#mobiledevelopment \n#crossplatform #flutter #kotlinnative\n#мобильнаяразработка #вакансия\n\nКомпания ООО “СКОЛОПЕНДРА” (www.skolopendra.com) приглашает целеустремленных и одаренных в наш дружный коллектив. \nДавай вместе делать интересные проекты в современных стеках технологий. А мы предоставим возможности для скорейшего профессионального и личностного роста.\n\nВид деятельности Компании: ИТ-разработка полного цикла. \nСпециализация: высоконагруженные промышленные системы, процессинги данных, СППР, AI, запуск стартап-идей под ключ, электротехника.\nНаправление деятельности: технологический партнер для внешних заказчиков/собственные Hard&Soft Продукты.\n\nОфис: Москва, м.Павелецкая, Космодамианская наб., 52/10\nФормат работы: в офисе/удаленно\nЗанятость: full-time (целевой формат) /part-time (возможный старт)\nЗП: по итогам собеседования вилка от 600-800 рублей в час , 3-х месячный цикл пересмотра grade\nОформление: по ТК\n\nДолжность: Mid/Mid+/Sen\nКонтакты: team@skolopendra.com\nТелеграмм : @Tufelka1","markup":[{"type":"hashtag","offset":4,"length":3,"data":"QA"},{"type":"hashtag","offset":8,"length":12,"data":"тестировщик"},{"type":"hashtag","offset":21,"length":7,"data":"россия"},{"type":"hashtag","offset":29,"length":4,"data":"APi"},{"type":"hashtag","offset":34,"length":19,"data":"ручноетестирование"},{"type":"hashtag","offset":54,"length":7,"data":"middle"},{"type":"hashtag","offset":62,"length":7,"data":"senior"},{"type":"hashtag","offset":70,"length":13,"data":"тестирование"},{"type":"hashtag","offset":84,"length":9,"data":"вакансия"},{"type":"link","offset":156,"length":19,"data":"http://www.skolopendra.com"},{"type":"hashtag","offset":1703,"length":4,"data":"iOS"},{"type":"hashtag","offset":1708,"length":8,"data":"Android"},{"type":"hashtag","offset":1717,"length":18,"data":"mobiledevelopment"},{"type":"hashtag","offset":1737,"length":14,"data":"crossplatform"},{"type":"hashtag","offset":1752,"length":8,"data":"flutter"},{"type":"hashtag","offset":1761,"length":13,"data":"kotlinnative"},{"type":"hashtag","offset":1775,"length":20,"data":"мобильнаяразработка"},{"type":"hashtag","offset":1796,"length":9,"data":"вакансия"},{"type":"link","offset":1835,"length":19,"data":"http://www.skolopendra.com"},{"type":"link","offset":2675,"length":20,"data":"mailto:team@skolopendra.com"},{"type":"handle","offset":2708,"length":9,"data":"Tufelka1"}],"date":"2020-06-25T08:53:27+00:00","link":"tg://resolve?domain=qa_jobs&post=98888","tags":[{"name":"qa"},{"name":"rest"},{"name":"java"},{"name":"ios"},{"name":"android"},{"name":"flutter"}],"cities":[{"code":"moscow"}],"allowsRemote":true}},{"node":{"__typename":"Job","id":"17144217600-1001110946746","title":"Js разработчик","text":"#вакансия #работа #удаленка #backend #node #nodejs #remote\nГород и адрес офиса: Москва, Савеловская\nФормат работы: удаленка\nЗанятость: полная || проектная\nЗарплатная вилка: 100-160 т.р.\n\nОписание вакансии: \nИщем опытного backend-разработчика node.js для разработки высоконадежных транзакционных сервисов интеграции с различными системами\n\nТребования:\n• Опыт работы с унаследованными системами\n• Знание PHP на уровне понимания и чтения кода будет плюсом\n• Знание и понимание работы сетевых протоколов TCP/IP, HTTP, SMTP, IMAP\n• Знание и понимание языка JavaScript и связанных с ним технологий и фреймворков\n• Опыт разработки серверных приложений\n• Понимание основных процессов разработки, умение работать в команде\n• Понимание принципов ООП, подходов в программировании и требований к транзакционным системам\n\nЗадачи:\n• Разработка высоконадежных транзакционных сервисов интеграции с различными системами\n• Поддержка и модернизация существующих систем\n\nНазвание компании: TechPlatforms (https://techpl.net)\nКонтакты:@desych79","markup":[{"type":"hashtag","offset":0,"length":9,"data":"вакансия"},{"type":"hashtag","offset":10,"length":7,"data":"работа"},{"type":"hashtag","offset":18,"length":9,"data":"удаленка"},{"type":"hashtag","offset":28,"length":8,"data":"backend"},{"type":"hashtag","offset":37,"length":5,"data":"node"},{"type":"hashtag","offset":43,"length":7,"data":"nodejs"},{"type":"hashtag","offset":51,"length":7,"data":"remote"},{"type":"link","offset":985,"length":18,"data":"https://techpl.net"},{"type":"handle","offset":1014,"length":9,"data":"desych79"}],"date":"2020-06-25T08:42:13+00:00","link":"tg://resolve?domain=javascript_jobs_feed&post=16350","tags":[{"name":"javascript"},{"name":"nodejs"},{"name":"php"},{"name":"smtp"},{"name":"dotnet"}],"cities":[{"code":"moscow"}],"allowsRemote":true}}]}}},"context":{}}