{"hash":"f34fd2c444a074f4e0e67d525015a008ef8e766f","data":{"records":{"id":"java","name":"java","belongsTo":{"totalCount":123,"pageInfo":{"totalPages":13,"currentPage":4},"edges":[{"node":{"__typename":"Job","id":"98220113920-1001089317451","title":"Qa engineer","text":"#вакансия #performancelab #перфоманслаб #QA #senior #middle #Москва #офис #тестировщик #Java #Automation #автоматизация \n \n✅Город: Москва \n✅Вилка: 80 - 110 на руки \n✅Тестировщик/QA Engineer (с частичной автоматизацией на Java) \n \nВсем привет!  \nУ тебя есть опыт в тестировании и огромное желание развиваться в автоматизации? Если ты уже изучаешь Java и можешь написать простой калькулятор, то эта вакансия для тебя.  \nМы ищем в свою команду сотрудников на проект с частичной автоматизацией на Java. \n \n🔷Стек на проекте:  \nJava, Atlassian Jira, Confluence, Bitbucket, API, Postman, SoapUI \n \n🔷Требования: \n• обязателен опыт интеграции; \n• Java (на уровне чтения логов); \n• тестирование мобильных приложений; \n• умение писать кейсы; \n• знание проведения регрессионного тестирования. \n \n🔷Обязанности: \n• подготовка программы и методики испытаний; \n• разработка и актуализация тест-кейсов; \n• подготовка тест-плана; \n• подготовка тестовых сценариев; \n• актуализация тестовых сценариев; \n• проведение тестов согласно утвержденной методике; \n• анализ результатов тестов и оформление отчета. \n🔷Условия: \n• работа на проекте банка, входящего в ТОП-10 России; \n• белая ЗП; \n• трудоустройство по ТК РФ. \n \nПо всем вопросам: @ElenaElis","markup":[{"type":"hashtag","offset":0,"length":9,"data":"вакансия"},{"type":"hashtag","offset":10,"length":15,"data":"performancelab"},{"type":"hashtag","offset":26,"length":13,"data":"перфоманслаб"},{"type":"hashtag","offset":40,"length":3,"data":"QA"},{"type":"hashtag","offset":44,"length":7,"data":"senior"},{"type":"hashtag","offset":52,"length":7,"data":"middle"},{"type":"hashtag","offset":60,"length":7,"data":"Москва"},{"type":"hashtag","offset":68,"length":5,"data":"офис"},{"type":"hashtag","offset":74,"length":12,"data":"тестировщик"},{"type":"hashtag","offset":87,"length":5,"data":"Java"},{"type":"hashtag","offset":93,"length":11,"data":"Automation"},{"type":"hashtag","offset":105,"length":14,"data":"автоматизация"},{"type":"handle","offset":1218,"length":10,"data":"ElenaElis"}],"date":"2020-04-08T10:02:22+00:00","link":"tg://resolve?domain=qa_jobs&post=93670","tags":[{"name":"qa"},{"name":"java"}],"cities":[{"code":"moscow"}],"allowsRemote":false}},{"node":{"__typename":"Job","id":"66239594496-1001054966032","title":"Android developer","text":"#вакансия #android #kotlin #Москва #Fulltime #Офис\n\nКомпания: Звук\nФормат работы: офис \nЗанятость: полная \nЗп: от 200 до 300к\nНаша команда создает современный музыкальный сервис Звук. Приложение доступно на устройствах Android и IOS. \n\nДля разработки собственного мобильного приложения в команду разработки приглашается Senior Android Developer.\n\nОжидания:\n— Опыт работы с Android от 2-х лет.\n— Уверенное знание Java Core, понимание принципов многопоточного программирования.\n— Уверенное знание Android SDK v19 – v28.\n— Опыт работы с RxJava(1 / 2), Retrofit, Exoplayer, Jetpack, Dagger2, StorIO.\n— Опыт работы с Kotlin, понимание основных принципов.\n— Опыт разработки клиент серверных приложений, понимание сетевого стека.\n— Умение работать с системой контроля версий git (terminal/gui).\n— Знание ООП, паттернов проектирования ПО.\n— Ответственность и умение работать на результат.\n— Знание общих мобильных подходов, архитектур, тенденций и новых технологий.\n— Твердое понимание полного жизненного цикла мобильной разработки.\n\nОсновные задачи:\n— Работать над исправлением ошибок и улучшением производительности приложений.\n— Постоянно находить, оценивать и внедрять новые технологии, чтобы максимизировать эффективность разработки. \n\nЧто у нас:\n— Опен-спейс между станциями метро Комсомольская, Красные Ворота и Бауманская.\n— Гибкий график работы, возможность периодически работать из дома.\n— Современная и производительная техника.\n— Оплачиваемые билеты на конференции.\n— В офисе есть стол для Пинг-понг, доска для дартс, оборудованная кухня, печеньки.\n— Факультативные просмотры лекций, обучение.\n\n\n\nЗа доп. инфой в лс: @AnnaPai4","markup":[{"type":"hashtag","offset":0,"length":9,"data":"вакансия"},{"type":"hashtag","offset":10,"length":8,"data":"android"},{"type":"hashtag","offset":19,"length":7,"data":"kotlin"},{"type":"hashtag","offset":27,"length":7,"data":"Москва"},{"type":"hashtag","offset":35,"length":9,"data":"Fulltime"},{"type":"hashtag","offset":45,"length":5,"data":"Офис"},{"type":"handle","offset":1621,"length":9,"data":"AnnaPai4"}],"date":"2020-04-08T10:00:00+00:00","link":"tg://resolve?domain=mobile_jobs&post=0","tags":[{"name":"mobile"},{"name":"android"},{"name":"ios"},{"name":"kotlin"},{"name":"java"},{"name":"git"}],"cities":[{"code":"moscow"}],"allowsRemote":false}},{"node":{"__typename":"Job","id":"66238545920-1001054966032","title":"Android разработчик","text":"‼️Вакансия Senior Android⁢ Developer‼️\n#android #developer #vacancy\nВ команде Mycelium Wallet (mycelium.com) открыта #вакансия Senior Android⁢ Developer.\n💵З/П 3500-4000 USD по итогам собеседования.\nРабота удаленная 💻\n\nМы предлагаем:\n🔸Получить навыки и компетенции в одном из самых передовых и перспективных направлений финтех индустрии - blockchain;\n🔸Принять участие в разработке одного из самых популярных биткоин-кошельков в Google Play Store;\n🔸Работать в международной команде бок о бок с ведущими специалистами в индустрии;\n🔸Возможность профессионального карьерного роста и участия в разнообразных проектах компании.\n\nЧем предстоит заниматься:\n🔹Разрабатывать новые и развивать существующие мобильные сервисы компании на платформе Android;\n🔹Проектировать и разрабатывать большие функциональные части приложения с привлечением других программистов;\n🔹Использовать cutting edge технологии, а также проверенные временем решения.\n\nТребования:\n✔️Как минимум 3 года опыта разработки на Android;\n✔️Знание Java/Kotlin на уровне ведущего разработчика;\n✔️Знание шаблонов проектирования, опыт использования MVP и других архитектурных подходов;\n✔️Опыт параллельного и многопоточного программирования;\n✔️Понимание циклов работы Android-приложения и управления памятью;\n✔️Опыт разработки пользовательских интерфейсов на платформе Android. \n✔️Знание Android Design Principles;\n✔️Знание и умение использовать различные механизмы взаимодействий между приложениями, предоставляемые в рамках Android SDK;\n✔️Понимание принципов работы REST API, WS, RPC и клиент-серверных приложений;\n✔️Знание английского языка на уровне чтения документации и умения общаться в корпоративном чате.\n\nПлюсом будет:\n➕Умение и понимание необходимости написания Unit tests;\n➕Знание основ криптографии;\n➕Опыт работы с bitcoin/etherium blockchain stack;\n➕Наличие своих проектов на Github, в Google Play и т.д.\n\n📲Контакт: @valeritata","markup":[{"type":"hashtag","offset":39,"length":8,"data":"android"},{"type":"hashtag","offset":48,"length":10,"data":"developer"},{"type":"hashtag","offset":59,"length":8,"data":"vacancy"},{"type":"link","offset":95,"length":12,"data":"http://mycelium.com"},{"type":"hashtag","offset":117,"length":9,"data":"вакансия"},{"type":"handle","offset":1889,"length":11,"data":"valeritata"}],"date":"2020-04-08T09:56:13+00:00","link":"tg://resolve?domain=mobile_jobs&post=0","tags":[{"name":"mobile"},{"name":"android"},{"name":"playframework"},{"name":"java"},{"name":"kotlin"},{"name":"rest"},{"name":"github"}],"cities":[],"allowsRemote":true}},{"node":{"__typename":"Job","id":"66235400192-1001054966032","title":"Android разработчик","text":"#вакансия #android #job #java #Developer #удаленка #Kotlin\nГород и адрес офиса: Москва/Брянск\nФормат работы: удаленный вид работы\nЗанятость: полная, гибкий график \nЗП:  от 1000 до 1500$\nPENA - аутсорс продакшн №1 в России по версии Теглайна. \nPENA Production - это часть группы компаний Idea-Promotion, ASAP BANNER и PENA Agency.\nИщем в команду middle/senior Android разработчикa.\nИщем самостоятельного разработчика, способного работать в команде.\n✅Требования:\n• знание распределенных систем контроля версий (Git);\n• умение разбираться в чужом коде;\n• опыт программирования на Java от двух лет;\n• опыт разработки Android-приложений от двух лет;\n• уверенное знание платформы Android, API 4.0 и выше;\nСтек: exoplayer, okhttp, dagger2, kotlin, picasso\\glide, gson, material, jobDispatcher, androidx, arch components, social sdks, espresso, junit\nКонтакт: @hr_dariya","markup":[{"type":"hashtag","offset":0,"length":9,"data":"вакансия"},{"type":"hashtag","offset":10,"length":8,"data":"android"},{"type":"hashtag","offset":19,"length":4,"data":"job"},{"type":"hashtag","offset":24,"length":5,"data":"java"},{"type":"hashtag","offset":30,"length":10,"data":"Developer"},{"type":"hashtag","offset":41,"length":9,"data":"удаленка"},{"type":"hashtag","offset":51,"length":7,"data":"Kotlin"},{"type":"handle","offset":852,"length":10,"data":"hr_dariya"}],"date":"2020-04-08T09:37:36+00:00","link":"tg://resolve?domain=mobile_jobs&post=0","tags":[{"name":"mobile"},{"name":"android"},{"name":"java"},{"name":"kotlin"},{"name":"git"},{"name":"junit"}],"cities":[{"code":"moscow"},{"code":"bryansk"}],"allowsRemote":true}},{"node":{"__typename":"Job","id":"98216968192-1001089317451","title":"Qa инженер","text":"#вакансия #fulltime #офис #Москва #Саратов #testautomation #middle #senior #TS\n\nКомпания: Техносерв https://technoserv.com/ \nВакансия: QA-ИНЖЕНЕР ПО АВТОМАТИЗАЦИИ ТЕСТИРОВАНИЯ\nДля работы на проектах в крупном банке (T&M)\nЗП: 60 000 - 220 000 (несколько позиций)\nГрафик работы: фултайм, 10:00-19:00 (по договоренности)\nМесто работы: офис, г. Москва или г. Саратов\n\nО проекте:\nСоздание системы, упрощающей работу операционистов в отделениях банка.\nРелизы выпускаются несколько раз в день\nQA активно участвуют в DevOps и CI/CD.\n\nКого мы ищем:\nИщем опытного QA-автоматизатора, разбирающегося в ключевых моментах автотестирования ПО. Основной его задачей будет увеличение покрытия автотестами существующего/нового функционала.\n\nЧем будете заниматься:\n• Разрабатывать автотесты на C# (Rest API / Rabbit MQ), поддерживать как новые, так и существующие тесты\n• Разрабатывать тестовые заглушки и сервисы (.net)\n• Конфигурировать сборки на CI-сервере (TeamCity)\n• Конфигурировать тестовые стенды (Helm, ArgoCD, Kubernetes, Docker)\n\nТребуемый опыт и знание технологий:\n• Опыт написания автотестов на C# (от года);\n• Опыт работы с NUnit / xUnit;\n• Умение разбираться с деплоймент-тулами и понимание принципов DevOps;\n• SQL на уровне написания запросов;\n• Знание методологий тестирования;\n• Умение написать чек-лист / тест-кейсы для функционала, покрываемого автотестами.\n\nБудет плюсом:\n• Работа с .net Core;\n• Опыт конфигурирования CI-серверов (мы используем TeamCity);\n• Знание PL-SQL и опыт работы c Oracle;\n• Навыки работы в консоли Linux (CentOS).\n\nРезюме сюда: QAResume@technoserv.com\n\nP.S. Если вы слабы в C#, но уверенно знаете java и Selenium, не стесняйтесь присылать резюме - варианты и возможности есть.","markup":[{"type":"hashtag","offset":0,"length":9,"data":"вакансия"},{"type":"hashtag","offset":10,"length":9,"data":"fulltime"},{"type":"hashtag","offset":20,"length":5,"data":"офис"},{"type":"hashtag","offset":26,"length":7,"data":"Москва"},{"type":"hashtag","offset":34,"length":8,"data":"Саратов"},{"type":"hashtag","offset":43,"length":15,"data":"testautomation"},{"type":"hashtag","offset":59,"length":7,"data":"middle"},{"type":"hashtag","offset":67,"length":7,"data":"senior"},{"type":"hashtag","offset":75,"length":3,"data":"TS"},{"type":"link","offset":100,"length":23,"data":"https://technoserv.com/"},{"type":"link","offset":1554,"length":23,"data":"mailto:QAResume@technoserv.com"}],"date":"2020-04-08T09:15:43+00:00","link":"tg://resolve?domain=qa_jobs&post=93667","tags":[{"name":"qa"},{"name":"rest"},{"name":"rabbitmq"},{"name":"dotnet"},{"name":"kubernetes"},{"name":"docker"},{"name":"sql"},{"name":"oracle"},{"name":"linux"},{"name":"centos"},{"name":"java"},{"name":"selenium"},{"name":"net-core"}],"cities":[{"code":"moscow"},{"code":"saratov"}],"allowsRemote":false}},{"node":{"__typename":"Job","id":"98214871040-1001089317451","title":"Qa engineer","text":"#вакансия #москва #полнаязанятость #qaengineer\nКомпания: #Mетрквадратный ( https://m2.ru )\nЛокация: м.Белорусская (в шаге от метро) \nЗ/п: от 120к - 230к на руки\nКонтакты: @maxdmitrov\n\nЭто платформа, на которой физические лица смогут в режиме одного окна подобрать объект недвижимости, оформить на него ипотеку, произвести электронную регистрацию, сделать безопасный расчет не посещая банки и воспользоваться дополнительными услугами (страхование, дизайн, ремонт). \n\nНаш стэк:\n• Java\n • Node.js\n • React, TypeScript\n • Kafka, ElasticSearch, gRPC\n • Docker\n\nЧем предстоит заниматься:\n • анализировать и тестировать требования к разрабатываемым приложениям;\n • писать приемочные критерии к пользовательским историям;\n • проводить функциональное, регрессионное и smoke тестирование;\n • заниматься задачами по автоматизации тестирования.\n\nЧего мы ждем:\n • глубокое понимание процессов тестирования и разработки ПО;\n • опыт интеграционного тестирования:\n    - системная интеграция;\n    - компонентная интеграция\n • опыт тестирования АРI;\n • опыт автоматизации тестирования на любом стеке.\n\nБудет плюсом\n • опыт исследовательского тестирования;\n • опыт тестирования ПО с микросервисной архитектурой.\n\nМы предлагаем:\n • белая конкурентная ЗП, официальное оформление;\n • гибкий график работы, возможность выбора рабочего оборудования;\n • ДМС, компенсация фитнеса, льготная ставка по ипотеке;\n • комфортный офис в БЦ «Белая площадь» (минута от метро): лаундж-зоны, бариста, фрукты.","markup":[{"type":"hashtag","offset":0,"length":9,"data":"вакансия"},{"type":"hashtag","offset":10,"length":7,"data":"москва"},{"type":"hashtag","offset":18,"length":16,"data":"полнаязанятость"},{"type":"hashtag","offset":35,"length":11,"data":"qaengineer"},{"type":"hashtag","offset":57,"length":15,"data":"Mетрквадратный"},{"type":"link","offset":75,"length":13,"data":"https://m2.ru"},{"type":"handle","offset":171,"length":11,"data":"maxdmitrov"},{"type":"bold","offset":465,"length":11,"data":""},{"type":"bold","offset":556,"length":26,"data":""},{"type":"bold","offset":833,"length":15,"data":""},{"type":"bold","offset":1083,"length":14,"data":""},{"type":"bold","offset":1192,"length":16,"data":""}],"date":"2020-04-08T08:59:45+00:00","link":"tg://resolve?domain=qa_jobs&post=93665","tags":[{"name":"qa"},{"name":"java"},{"name":"nodejs"},{"name":"reactjs"},{"name":"typescript"},{"name":"kafka"},{"name":"elasticsearch"},{"name":"docker"}],"cities":[{"code":"moscow"}],"allowsRemote":false}},{"node":{"__typename":"Job","id":"98213822464-1001089317451","title":"Qa инженер","text":"#вакансия #QA #Москва #офис #java\n\nВакансия: Тестировщик (ФТ+АТ)\nГород: Москва м. Комсомольская, но скоро переезд на Технопарк\nЗарплата: от 100 000 рублей до 140 000 рублей на руки \nФормат: офис, полный день, полная занятость \nКомпания Innovative People \n\nПроект «заявление на получение наличных»\nСоотношение ручного тестирования и автоматизации примерно 50/50.\nМы уже запилили шаблоны рублевых платежей, а теперь беремся за Модуль заказа наличных. Через наш модуль клиент-юр лицо сможет заказать выдачу наличных любому своему сотруднику с точностью суммы до копеечки, а точность -  это уже половина успеха. \nЕсли без тебя никак нельзя - тебе к нам!\n\nНа проекте понадобится:\n🔹Опыт работы в функциональном тестировании от 1 года + опыт написания авто-тестов\n🔹Java, selenide/selenium (автотесты через docker + selenoid)\n🔹Опыт работы с Jira\n🔹Документация – confluence\n🔹Логирование - kibana + monlog + grafana (prod) + логи напрямую на сервере\n🔹Система контроля версий - git bitbucket\n🔹Сервис планирования, почтовик - Lotus Notes\n🔹Сервис для сборки и развертывания приложений – Bamboo\n🔹Сервис хранения образов приложений – artifactory\n\n\nНадо будет:\n🔸поддерживать и актуализировать авто-тесты\n🔸отвечать за функциональное и приемочное тестирвоание\n🔸проводить регулярный регресс проекта\n🔸разрабатывать тестовую документацию\n🔸принимать активное участие в scrum\n\nМы предлагаем:\n🔺все официальное и белое \n🔺ДМС со стоматологией, программа лояльности\n🔺Macbook \n🔺гибкое начало дня, иногда можно работать из дома \n🔺четкое видение результата и наличие обратной связи\n🔺отличный продакт во главе scrum-команды, хорошая корпоративная культура\n🔺большое комьюнити, карьерный рост\n\n\n📩Резюме и вопросы a.anokhina@inpglobal.com","markup":[{"type":"hashtag","offset":0,"length":9,"data":"вакансия"},{"type":"hashtag","offset":10,"length":3,"data":"QA"},{"type":"hashtag","offset":14,"length":7,"data":"Москва"},{"type":"hashtag","offset":22,"length":5,"data":"офис"},{"type":"hashtag","offset":28,"length":5,"data":"java"},{"type":"bold","offset":650,"length":25,"data":""},{"type":"bold","offset":1141,"length":13,"data":""},{"type":"bold","offset":1367,"length":16,"data":""},{"type":"link","offset":1702,"length":24,"data":"mailto:a.anokhina@inpglobal.com"}],"date":"2020-04-08T08:41:54+00:00","link":"tg://resolve?domain=qa_jobs&post=93664","tags":[{"name":"qa"},{"name":"java"},{"name":"selenium"},{"name":"docker"},{"name":"git"}],"cities":[{"code":"moscow"}],"allowsRemote":false}},{"node":{"__typename":"Job","id":"1983905792-1001134745498","title":"Devops engineer","text":"#вакансия #мысоцблок #дитпобедит\nКомпания: ДИТ правительства г. Москва(продукт «Московская электронная школа»)\nСейчас мы ищем в продукт «Московская электронная школа» человека, который готов делать московскую систему образования еще более технологичной.☝️👍🤘\nПозиция: ❗️System Engineer (DevOps)❗️\nЛокация: г. Москва (м. Деловой центр)\nФормат работы: full-time, 1 день доступен для удаленной работы\nЗанятость: полная\nЗаработная плата: 150 000 – 200 000 рублей «на руки» \nСтек:\n👉RHEL\n👉Postgres\n👉Java\n👉Ansible\n👉Jenkins\n👉Zabbix\nЧем предстоит заниматься: \nЭксплуатировать и улучшать с использованием методологии CI/CD  инфраструктуру одного из флагманских продуктов ДИТа - Московская электронная школа(МЭШ).\n\nЧто предлагаем:\n👉Бюджетная организация с полным соблюдением норм ТК РФ\n👉Корпоративная культура современной ИТ-компании\n👉Интересные задачи на социальнозначимом проекте ДИТ\n👉Корпоративные скидки на ДМС, фитнес, английский \n👉Прекрасный офис в Москва-Сити.\n\nКонтакты: @nazar_an; nazarovaaa3@it.mos.ru\n\n—\n\n👉 Обсуждение вакансии в чате @devops_jobs","markup":[{"type":"hashtag","offset":0,"length":9,"data":"вакансия"},{"type":"hashtag","offset":10,"length":10,"data":"мысоцблок"},{"type":"hashtag","offset":21,"length":11,"data":"дитпобедит"},{"type":"handle","offset":980,"length":9,"data":"nazar_an"},{"type":"link","offset":991,"length":21,"data":"mailto:nazarovaaa3@it.mos.ru"},{"type":"handle","offset":1047,"length":12,"data":"devops_jobs"}],"date":"2020-04-08T08:20:06+00:00","link":"tg://resolve?domain=devops_jobs_feed&post=1892","tags":[{"name":"postgresql"},{"name":"java"},{"name":"ansible"},{"name":"jenkins"}],"cities":[{"code":"moscow"}],"allowsRemote":true}},{"node":{"__typename":"Job","id":"98204385280-1001089317451","title":"Qa инженер","text":"#QA #вакансия #Москва #fulltime #java\n💥Команда СберТеха  ищет классного QA-инженера!🙌\n💥Проект: тестирование сервисов безопасности технологической платформы Сбербанка.\n💥Задачи: дизайн, разработка и поддержка пакетов автотестов API и UI группы продуктов платформы поддержки развития бизнеса;подготовка тест-кейсов; регистрация и отслеживание дефектов.\n💥Стек: Java,cucumber, Junit, Jenkins, Allure reports, Docker, BPM\n💥Москва, м.Нагатинская/Тульская\n💥зп: 150-250 k\n💥-Оформление ТК РФ;\n     -ДМС;\n     - Белая заработная плата (оклад + годовая премия);\n     -Возможность обучения за счет компании;\n     -   Льготное кредитование;\n      -Бесплатный тренажерный зал на территории офиса;\n       - корпоративная жизнь и спортивные мероприятия;\n       -возможность карьерного роста.\n\nЖдём Вас в нашей команде!\n@TaliaHR","markup":[{"type":"hashtag","offset":0,"length":3,"data":"QA"},{"type":"hashtag","offset":4,"length":9,"data":"вакансия"},{"type":"hashtag","offset":14,"length":7,"data":"Москва"},{"type":"hashtag","offset":22,"length":9,"data":"fulltime"},{"type":"hashtag","offset":32,"length":5,"data":"java"},{"type":"handle","offset":810,"length":8,"data":"TaliaHR"}],"date":"2020-04-08T07:57:21+00:00","link":"tg://resolve?domain=qa_jobs&post=93655","tags":[{"name":"qa"},{"name":"java"},{"name":"cucumber"},{"name":"junit"},{"name":"jenkins"},{"name":"docker"}],"cities":[{"code":"moscow"}],"allowsRemote":false}},{"node":{"__typename":"Job","id":"1427111936-1001091028994","title":"Java developer","text":"#вакансия #java #backend #spring \nКомпания OpenDev\nЛокация #мск #москва \nЗП 170-230 gross\n\n🔵 Middle / Senior Java Developer\nТендеция  бесконтактных услуг и удаленных сервисов набирает обороты. Присоединийся к нам!\nПроект: SMARTBRANCH \nРазработка и поддержка ПО банковских терминалов нового поколения. Все услуги банка и интерактивное общение с менеджером  - в одном устройстве. Больше никаких очередей и \"возьмите талончик\" :) \n\nСтек:\n🔹 Java core, Java 8+\n🔹  Spring Framework, Spring boot, Spring Cloud\n🔹 Docker\n🔹 БД: NoSQL\n\nУсловия\n- Белая ЗП + ДМС\n- Продуктовые Scrum команды\n- Performance review\n- Релокация кандидатов из регионов ✈  \n\nЗадать вопрос / прислать CV / просто поздороваться @xenia_agv","markup":[{"type":"hashtag","offset":0,"length":9,"data":"вакансия"},{"type":"hashtag","offset":10,"length":5,"data":"java"},{"type":"hashtag","offset":16,"length":8,"data":"backend"},{"type":"hashtag","offset":25,"length":7,"data":"spring"},{"type":"hashtag","offset":59,"length":4,"data":"мск"},{"type":"hashtag","offset":64,"length":7,"data":"москва"},{"type":"handle","offset":695,"length":10,"data":"xenia_agv"}],"date":"2020-04-08T07:16:44+00:00","link":"tg://resolve?domain=jvmjobs&post=1361","tags":[{"name":"java"},{"name":"jvm"},{"name":"spring"},{"name":"cloud"},{"name":"docker"},{"name":"nosql"},{"name":"spring-boot"}],"cities":[{"code":"moscow"}],"allowsRemote":false}}]}}},"context":{}}