{"hash":"f5f6bf98bd95e769321482904cbbd488f77922fd","data":{"records":{"id":"typescript","name":"typescript","belongsTo":{"totalCount":104,"pageInfo":{"totalPages":11,"currentPage":7},"edges":[{"node":{"__typename":"Job","id":"103138983936-1001089317451","title":"Qa engineer","text":"#вакансия #москва #полнаязанятость #qaengineer #auto #manual\nКомпания: #Mетрквадратный www.m2.ru\nЛокация: м.Белорусская \nФормат работы: офис (удаленная до сентября)  \nЗ/п: от 120к - 180к на руки\nКонтакты: @maxdmitrov\n\nЭто экосистема недвижимости, которая помогает клиентам решать любые жилищные вопросы: от поиска вариантов и оформления сделки до организации ремонта и переезда в новую квартиру. Мы также создаем решения для партнёров и профессиональных участников рынка недвижимости.\n\nНаш стэк:\n• Java\n • Node.js\n • React, TypeScript\n • Kafka, ElasticSearch, gRPC\n • Docker\n\nЧем предстоит заниматься:\n • анализировать и тестировать требования к разрабатываемым приложениям;\n • писать приемочные критерии к пользовательским историям;\n • проводить функциональное, регрессионное и smoke тестирование;\n • заниматься задачами по автоматизации тестирования.\n\nЧего мы ждем:\n • глубокое понимание процессов тестирования и разработки ПО;\n • опыт интеграционного тестирования:\n    - системная интеграция;\n    - компонентная интеграция\n • опыт тестирования АРI;\n • опыт автоматизации тестирования на любом стеке.\n\nБудет плюсом\n • опыт исследовательского тестирования;\n • опыт тестирования ПО с микросервисной архитектурой.\n\nМы предлагаем:\n • белая конкурентная ЗП, официальное оформление;\n • гибкий график работы;\n • ДМС, компенсация фитнеса, льготная ставка по ипотеке;\n • комфортный офис в БЦ «Белая площадь» (минута от метро): лаундж-зоны, бариста, фрукты.","markup":[{"type":"hashtag","offset":0,"length":9,"data":"вакансия"},{"type":"hashtag","offset":10,"length":7,"data":"москва"},{"type":"hashtag","offset":18,"length":16,"data":"полнаязанятость"},{"type":"hashtag","offset":35,"length":11,"data":"qaengineer"},{"type":"hashtag","offset":47,"length":5,"data":"auto"},{"type":"hashtag","offset":53,"length":7,"data":"manual"},{"type":"hashtag","offset":71,"length":15,"data":"Mетрквадратный"},{"type":"link","offset":87,"length":9,"data":"http://www.m2.ru"},{"type":"handle","offset":205,"length":11,"data":"maxdmitrov"},{"type":"bold","offset":485,"length":11,"data":""},{"type":"bold","offset":576,"length":26,"data":""},{"type":"bold","offset":853,"length":15,"data":""},{"type":"bold","offset":1103,"length":14,"data":""},{"type":"bold","offset":1212,"length":16,"data":""}],"date":"2020-06-18T07:20:58+00:00","link":"tg://resolve?domain=qa_jobs&post=0","tags":[{"name":"qa"},{"name":"java"},{"name":"nodejs"},{"name":"reactjs"},{"name":"typescript"},{"name":"kafka"},{"name":"elasticsearch"},{"name":"docker"}],"cities":[{"code":"moscow"}],"allowsRemote":true}},{"node":{"__typename":"Job","id":"17025728512-1001110946746","title":"Javascript разработчик","text":"#вакансия #Москва #React #Redux #TypeScript\nFrontend-разработчик\nЛокация: Москва, Москва-Сити\nФормат работы: офис, после ИС возможна удаленка\nЗанятость: полная\nЗП: от 150 000 до 200 000 рублей на руки\n\nЗадача: Работа над ERP-системой, развитие и поддержка. \n\nТребования:\n•опыт коммерческой разработки от 3 лет\n•уверенное знание React, Redux, хуки, опыт оптимизации производительности\n•покрытие кода тестами\n•хорошее знание HTML и CSS\n•опыт работы с TypeScript больше года\n•знание git и webpack\n\nУсловия:\n•Уютный офис в Москва-Сити\n•Медицинская страховка, включая стоматологию\n•Дотация на питание\n•Оплата изучения иностранного языка\n• Макбук для работы (или любая другая конфигурация по желанию)\n•Оплата профильных конференций и семинаров\n\nНазвание компании: GetIT\nПроект: компания - часть международного инвестиционного фонда.\nРазработка внутренней корпоративной ERP-системы, включающей логистику, документооборот, финансовый учет.\n\nРезюме можно направить сюда:  @Rita_RS\nemail: m.sinelnikova@getit.agency\n\n—\n\n👉 Обсуждение вакансии в чате @javascript_jobs","markup":[{"type":"hashtag","offset":0,"length":9,"data":"вакансия"},{"type":"hashtag","offset":10,"length":7,"data":"Москва"},{"type":"hashtag","offset":18,"length":6,"data":"React"},{"type":"hashtag","offset":25,"length":6,"data":"Redux"},{"type":"hashtag","offset":32,"length":11,"data":"TypeScript"},{"type":"handle","offset":963,"length":8,"data":"Rita_RS"},{"type":"link","offset":979,"length":26,"data":"mailto:m.sinelnikova@getit.agency"},{"type":"handle","offset":1040,"length":16,"data":"javascript_jobs"}],"date":"2020-06-17T15:36:09+00:00","link":"tg://resolve?domain=javascript_jobs_feed&post=0","tags":[{"name":"javascript"},{"name":"reactjs"},{"name":"redux"},{"name":"typescript"},{"name":"html"},{"name":"css"},{"name":"git"},{"name":"webpack"},{"name":"react-redux"}],"cities":[{"code":"moscow"}],"allowsRemote":true}},{"node":{"__typename":"Job","id":"17022582784-1001110946746","title":"Js разработчик","text":"#вакансия #React #Питер #fulltime #frontend #middle  \n                                       \nГород: Санкт-Петербург\nФормат: в офисе\nЗанятость: полная\nЗарплатная вилка: 100-150К на руки\n\nОписание:\n\nМы — профессиональная площадка, которая освещает киберспортивные соревнования по Overwatch, Dota 2, CS:GO, League of Legends (LoL), Fortnite, FIFA и др. Ищем Front-end developer в наш перспективный проект киберспортивной индустрии!\n\nУсловия: \n\n- Оформление по ТК РФ;\n- \"белая\" зарплата 100 - 150к на руки\n- Режим работы 5/2;\n- Офис в историческом центре Петербурга, в 10 минутах от метро Чкаловская;\n- Печеньки, фрукты, чай и кофе;\n\nФункционал:\n\n- Проектирование, разработка и поддержка front-end части приложения с использованием фреймворка React/Redux\n- Разработка компонентов React/Redux\n- Интеграция с back-end, взаимодействие с командой back-end разработчиков\n- Кросс-браузерная оптимизация, рефакторинг полученных решений, оптимизация скорости загрузки страниц и интерактивных элементов\n\nНаш стэк:\n\n- React/Redux 16.8+ (hooks, context)\n- TypeScript\n- redux-observable, RxJs\n- GraphQL, WebSocket\n- Styled component\n\nПожелания к опыту:\n\nУверенное владение\n- React.js продвинутое знание, JS, CSS, Typescript\n- Опыт командной работы\n- Приветствуется опыт/понимание бэкенда\n    \nКомпания: ToBeHired                                    \nКонтакт: @Alex_Korm\n\n—\n\n👉 Обсуждение вакансии в чате @javascript_jobs","markup":[{"type":"hashtag","offset":0,"length":9,"data":"вакансия"},{"type":"hashtag","offset":10,"length":6,"data":"React"},{"type":"hashtag","offset":17,"length":6,"data":"Питер"},{"type":"hashtag","offset":24,"length":9,"data":"fulltime"},{"type":"hashtag","offset":34,"length":9,"data":"frontend"},{"type":"hashtag","offset":44,"length":7,"data":"middle"},{"type":"handle","offset":1343,"length":10,"data":"Alex_Korm"},{"type":"handle","offset":1388,"length":16,"data":"javascript_jobs"}],"date":"2020-06-17T15:31:04+00:00","link":"tg://resolve?domain=javascript_jobs_feed&post=0","tags":[{"name":"javascript"},{"name":"reactjs"},{"name":"redux"},{"name":"typescript"},{"name":"rxjs"},{"name":"graphql"},{"name":"websocket"},{"name":"css"},{"name":"react-redux"}],"cities":[],"allowsRemote":false}},{"node":{"__typename":"Job","id":"17017339904-1001110946746","title":"Javascript разработчик","text":"#вакансия #екб #екатеринбург #react #frontend #middle\n\nПозиция: Разработчик React \nКомпания: SoftMediaLab \nЛокация: Екатеринбург \nФормат работы: #удаленка или  #офис\nЗанятость: #фултайм \nЗП 110 000 - 140 000 рублей на руки\n\nSoftMediaLab – была основана в 2015 году в городе Екатеринбурге. Основатели компании – разработчики, поэтому никакой бюрократии и странных решений, процессы максимально простые и понятные, среда дружественная. \nРазрабатываем в основном стартапы для России, Европы и Америки. \n\nЗадачи: \n- улучшать имеющийся функционал и разрабатывать новый \n- участвовать в принятии архитектурных решений \n\nСтек: react, redux, typescript, bootstrap, material-ui, JQuery, sass, less\n\nДля связи @Ekaterina_Mitroshkina  или @iamanastasie\n\n—\n\n👉 Обсуждение вакансии в чате @javascript_jobs","markup":[{"type":"hashtag","offset":0,"length":9,"data":"вакансия"},{"type":"hashtag","offset":10,"length":4,"data":"екб"},{"type":"hashtag","offset":15,"length":13,"data":"екатеринбург"},{"type":"hashtag","offset":29,"length":6,"data":"react"},{"type":"hashtag","offset":36,"length":9,"data":"frontend"},{"type":"hashtag","offset":46,"length":7,"data":"middle"},{"type":"hashtag","offset":145,"length":9,"data":"удаленка"},{"type":"hashtag","offset":160,"length":5,"data":"офис"},{"type":"hashtag","offset":177,"length":8,"data":"фултайм"},{"type":"handle","offset":700,"length":22,"data":"Ekaterina_Mitroshkina"},{"type":"handle","offset":728,"length":13,"data":"iamanastasie"},{"type":"handle","offset":776,"length":16,"data":"javascript_jobs"}],"date":"2020-06-17T15:26:32+00:00","link":"tg://resolve?domain=javascript_jobs_feed&post=0","tags":[{"name":"javascript"},{"name":"reactjs"},{"name":"redux"},{"name":"typescript"},{"name":"bootstrap"},{"name":"jquery"},{"name":"sass"},{"name":"react-redux"}],"cities":[],"allowsRemote":true}},{"node":{"__typename":"Job","id":"17009999872-1001110946746","title":"Js разработчик","text":"#вакансия #удаленно #frontend #react\nКомпания - VMB\nГород - Москва \nМетро - Киевская\nФормат - удаленная работа \nГрафик - полный рабочий день \n\n📍Приглашаем middle/middle + frontend разработчика развивать социальный и известный проект \n📍Что нужно? \nзнание React и TypeScript;\nотличное владение чистым JS;\nхорошее знание Node.js и ES6;\nхорошее знание HTML и CSS;\nумение работать с Git;\nпонимание особенностей SPA-приложений.\n📍Плюсами будут:\nпонимание принципов разработки изоморфных приложений;\nопыт разработки под мобильные браузеры;\nзнакомство с Unix-системами;\nопыт написания тестов (юнит- или интеграционных);\nопыт работы с системами сборки (Webpack, Rollup, Gulp, Grunt и т. п.);\nопыт работы с системами непрерывной интеграции (TeamСity, Travis, Jenkins, Drone и т. п.).\n📍Что предлагаем?\nУдалённую занятость \nВозможность развиваться и развивать интересный проект\nЗП 150-200к рублей на руки \n\nКонтакты \n@nariarakel","markup":[{"type":"hashtag","offset":0,"length":9,"data":"вакансия"},{"type":"hashtag","offset":10,"length":9,"data":"удаленно"},{"type":"hashtag","offset":20,"length":9,"data":"frontend"},{"type":"hashtag","offset":30,"length":6,"data":"react"},{"type":"handle","offset":908,"length":11,"data":"nariarakel"}],"date":"2020-06-17T15:21:28+00:00","link":"tg://resolve?domain=javascript_jobs_feed&post=0","tags":[{"name":"javascript"},{"name":"reactjs"},{"name":"typescript"},{"name":"nodejs"},{"name":"html"},{"name":"css"},{"name":"git"},{"name":"unix"},{"name":"webpack"},{"name":"gulp"},{"name":"gruntjs"},{"name":"jenkins"}],"cities":[{"code":"moscow"},{"code":"kiev"}],"allowsRemote":true}},{"node":{"__typename":"Job","id":"17006854144-1001110946746","title":"Js разработчик","text":"Greenatom.ru\n#вакансия #Москва #javascript #React #Typescript #Node.js #Middle #Senior #удаленка #удаленная работа \n\n👨🏼‍💻 Middle/Senior Frontend Developer, Middle/Senior Backend Developer\nГород и адрес офиса: #Москва, БЦ Сириус Парк, метро Нагатинская\n\n✅Формат работы: \nУДАЛЕННАЯ РАБОТА\n\n💻Занятость: полная, гибкое начало трудового дня.\n\nЗарплатная вилка: от 170 000 до 230 000 руб. на руки.\n\n🏢Компания: АО Гринатом\n\nПривет! Мы растём и активно развиваем ряд внутренних проектов: например, корпоративный портал, горячая линия, собственная кадровая система для нескольких сотен предприятий. Мы формируем НЕСКОЛЬКО КОМАНД и ищем классных:\n\n✅ФРОНТЕНД  разработчиков;\n\n✅БЭКЕНД разработчиков. \n\nПроекты в стадии разработки пилота и у тебя есть возможность повлиять на дальнейшее развитие продукта. Если у тебя есть крутые идеи - ты сможешь их здесь реализовать! Откликайся сам и зови друзей! Вирус пройдёт, работа останется!\n\n✅Требуемые знания и навыки:\n- Опыт разработки от двух лет\n- Хорошее знание чистого JS\n- Опыт работы с TypeScript\n- React, MobX, Less/Sass\n- Опыт написания юнит-тестов с помощью Jest, Enzymе очень приветствуется\n\n💡Наш стек:\n      React, TypeScript, Node.js, MobX, Docker\n\nМы работаем по Scrum.\n\n✅Условия:\n- Официальное оформление по ТК, белая зп;\n- Возможности профессионального и карьерного роста;\n- Дополнительные 3 дня к отпуску;\n- Плавающее начало дня;\n- ДМС со стоматологией\n\n☎️Контакты:\nЮлия - YAnZueva@Greenatom.ru\n\n—\n\n👉 Обсуждение вакансии в чате @javascript_jobs","markup":[{"type":"link","offset":0,"length":12,"data":"http://Greenatom.ru"},{"type":"hashtag","offset":13,"length":9,"data":"вакансия"},{"type":"hashtag","offset":23,"length":7,"data":"Москва"},{"type":"hashtag","offset":31,"length":11,"data":"javascript"},{"type":"hashtag","offset":43,"length":6,"data":"React"},{"type":"hashtag","offset":50,"length":11,"data":"Typescript"},{"type":"hashtag","offset":62,"length":5,"data":"Node"},{"type":"hashtag","offset":71,"length":7,"data":"Middle"},{"type":"hashtag","offset":79,"length":7,"data":"Senior"},{"type":"hashtag","offset":87,"length":9,"data":"удаленка"},{"type":"hashtag","offset":97,"length":10,"data":"удаленная"},{"type":"hashtag","offset":212,"length":7,"data":"Москва"},{"type":"link","offset":1426,"length":21,"data":"mailto:YAnZueva@Greenatom.ru"},{"type":"handle","offset":1482,"length":16,"data":"javascript_jobs"}],"date":"2020-06-17T15:17:29+00:00","link":"tg://resolve?domain=javascript_jobs_feed&post=0","tags":[{"name":"javascript"},{"name":"reactjs"},{"name":"typescript"},{"name":"nodejs"},{"name":"sass"},{"name":"docker"}],"cities":[{"code":"moscow"}],"allowsRemote":true}},{"node":{"__typename":"Job","id":"16991125504-1001110946746","title":"Js разработчик","text":"Greenatom.ru\n#вакансия #Москва #javascript #React #Typescript #Node.js #Middle #Senior #удаленка #удаленная работа \n\n👨🏼‍💻 Middle/Senior Frontend Developer, Middle/Senior Backend Developer\nГород и адрес офиса: #Москва, БЦ Сириус Парк, метро Нагатинская\n\n✅Формат работы: \nУДАЛЕННАЯ РАБОТА\n\n💻Занятость: полная, гибкое начало трудового дня.\n\nЗарплатная вилка: от 170 000 до 230 000 руб. на руки.\n\n🏢Компания: АО Гринатом\n\nПривет! Мы растём и активно развиваем ряд внутренних проектов: например, корпоративный портал, горячая линия, собственная кадровая система. Мы формируем НЕСКОЛЬКО КОМАНД и ищем классных:\n\n✅фронтенд разработчиков;\n\n✅бэкенд разработчиков. \n\nПроекты в стадии разработки пилота и у тебя есть возможность повлиять на дальнейшее развитие продукта. Если у тебя есть крутые идеи - ты сможешь их здесь реализовать! Откликайся сам и зови друзей! Вирус пройдёт, работа останется!\n\n✅Требуемые знания и навыки:\n- Опыт разработки от двух лет\n- Хорошее знание чистого JS\n- Опыт работы с TypeScript\n- React, MobX, Less/Sass\n- Опыт написания юнит-тестов с помощью Jest, Enzymе очень приветствуется\n\n💡Наш стек:\n      React, TypeScript, Node.js, MobX, Docker\n\nМы работаем по Scrum.\n\n✅Условия:\n- Официальное оформление по ТК, белая зп;\n- Возможности профессионального и карьерного роста;\n- Дополнительные 3 дня к отпуску;\n- Плавающее начало дня;\n- ДМС со стоматологией\n\n☎️Контакты:\nЮлия - YAnZueva@Greenatom.ru\n\n—\n\n👉 Обсуждение вакансии в чате @javascript_jobs","markup":[{"type":"link","offset":0,"length":12,"data":"http://Greenatom.ru"},{"type":"hashtag","offset":13,"length":9,"data":"вакансия"},{"type":"hashtag","offset":23,"length":7,"data":"Москва"},{"type":"hashtag","offset":31,"length":11,"data":"javascript"},{"type":"hashtag","offset":43,"length":6,"data":"React"},{"type":"hashtag","offset":50,"length":11,"data":"Typescript"},{"type":"hashtag","offset":62,"length":5,"data":"Node"},{"type":"hashtag","offset":71,"length":7,"data":"Middle"},{"type":"hashtag","offset":79,"length":7,"data":"Senior"},{"type":"hashtag","offset":87,"length":9,"data":"удаленка"},{"type":"hashtag","offset":97,"length":10,"data":"удаленная"},{"type":"hashtag","offset":212,"length":7,"data":"Москва"},{"type":"link","offset":1392,"length":21,"data":"mailto:YAnZueva@Greenatom.ru"},{"type":"handle","offset":1448,"length":16,"data":"javascript_jobs"}],"date":"2020-06-16T19:43:17+00:00","link":"tg://resolve?domain=javascript_jobs_feed&post=0","tags":[{"name":"javascript"},{"name":"reactjs"},{"name":"typescript"},{"name":"nodejs"},{"name":"sass"},{"name":"docker"}],"cities":[{"code":"moscow"}],"allowsRemote":true}},{"node":{"__typename":"Job","id":"16987979776-1001110946746","title":"Javascript developer","text":"#вакансия #удаленка #react\n\nRocketech.it срочно ищет Middle+ Frontend React Developer\n\nФормат занятости: удаленка\nЗанятость: fulltime\nЗарплатная вилка: 2200 -2700$/месяц на руки\n\nО компании: \n\nRocketech - компания, предоставляющая полноценные продуктовые команды для инвесторов, стартаперов и крупных компаний. Мы уже больше 5 лет на рынке разработки програмного обеспечения. Сотни выполненых кейсов, десятки крупных клиентов. \n\nО проекте:\n\nМаркетинговый инструмент.\n\nСтек технологий: \n\nTypeScript, React, CRA, less, mobx, antd\n\nТребования: \n\n3+ года опыта коммерческой разработки в frontend\n\nБудет плюсом:\n\nРазговорный английский\n\nКонтакт: @mxm_at\n\n—\n\n👉 Обсуждение вакансии в чате @javascript_jobs","markup":[{"type":"hashtag","offset":0,"length":9,"data":"вакансия"},{"type":"hashtag","offset":10,"length":9,"data":"удаленка"},{"type":"hashtag","offset":20,"length":6,"data":"react"},{"type":"link","offset":28,"length":12,"data":"http://Rocketech.it"},{"type":"handle","offset":641,"length":7,"data":"mxm_at"},{"type":"handle","offset":683,"length":16,"data":"javascript_jobs"}],"date":"2020-06-16T19:38:07+00:00","link":"tg://resolve?domain=javascript_jobs_feed&post=0","tags":[{"name":"javascript"},{"name":"reactjs"},{"name":"typescript"}],"cities":[],"allowsRemote":true}},{"node":{"__typename":"Job","id":"16985882624-1001110946746","title":"Js разработчик","text":"#вакансия  #frontend  #React #офис\n\nFrontend разработчик \n\nГде: Москва, Савеловский сити\nФормат работы: fulltime, офис\nКомпания: Mecruryo.io\nВилка: 180-200к на руки\nКонтакт: @sollesdi\n\nЗадачи:\n⇢ Развивать функционал и пользовательские интерфейсы имеющихся продуктов;\n⇢ Плотно работать в команде с другими разработчиками, тестировщиками и дизайнерами.\n\nТребования:\n⇢ Опыт промышленной разработки на ReactJS от 1,5 лет. Наши основные технологии: React, Redux, webpack, БЭМ, SCSS;\n⇢ Умение создавать адаптивную вёрстку один-в-один с макетом;\n⇢ Умение с нуля настроить webpack под любые требования;\n⇢ Плюсом будет знание TypeScript и умение писать тесты;\n⇢ Существенным плюсом будет, если вы покажете ваш код на React либо выполните небольшое тестовое задание.\n\nВозможности:\n⇢ Работать на острие технологий в команде с опытными специалистами. У нас нет устаревшего legacy кода и устаревших технологий;\n⇢ Работать в команде с выстроенными процессами разработки и тестирования;\n⇢ Погрузиться в инновационную технологическую сферу криптовалют.\n\nУсловия:\n⇢ Молодая, амбициозная, дружная команда;\n⇢ Конкурентная заработная плата;\n⇢ Корпоративный английский;\n⇢ Переговоры с крупными международными компаниями;\n⇢ Приветствуется инициатива, возможность реализовать свои идеи;\n⇢ Возможность участвовать в построении крупной компании международного уровня;\n⇢ Чай, кофе, плюшки в офисе.\n\nКадровое агентство RecruitIT\nКонтакт: @sollesdi\n\n—\n\n👉 Обсуждение вакансии в чате @javascript_jobs","markup":[{"type":"hashtag","offset":0,"length":9,"data":"вакансия"},{"type":"hashtag","offset":11,"length":9,"data":"frontend"},{"type":"hashtag","offset":22,"length":6,"data":"React"},{"type":"hashtag","offset":29,"length":5,"data":"офис"},{"type":"link","offset":129,"length":11,"data":"http://Mecruryo.io"},{"type":"handle","offset":174,"length":9,"data":"sollesdi"},{"type":"handle","offset":1411,"length":9,"data":"sollesdi"},{"type":"handle","offset":1455,"length":16,"data":"javascript_jobs"}],"date":"2020-06-16T19:28:07+00:00","link":"tg://resolve?domain=javascript_jobs_feed&post=0","tags":[{"name":"javascript"},{"name":"reactjs"},{"name":"redux"},{"name":"webpack"},{"name":"typescript"},{"name":"react-redux"}],"cities":[{"code":"moscow"}],"allowsRemote":false}},{"node":{"__typename":"Job","id":"16984834048-1001110946746","title":"Js разработчик","text":"#вакансия #офис #краснодар #krasnodar #fulltime #react #native\n\n✅Вакансия: React developer \n✅Город: Краснодар\n✅Занятость: полная, офис\n✅ЗП вилка: 40 000 - 100 000р. на руки\n✅Компания: WILIX\n\nПривет!\nМы создаём веб и мобильные приложения, помогаем большим и маленьким компаниям, разбросанным по всему Миру, создать надежные и быстрые программные решения.\nИщем React разработчика в свою команду!\n🙌Наши ожидания:\nJS, TypeScript,\nReact\nRedux (Redux-toolkit), \nReact Router (React Navigation), \nRedux Thunk, \nWebpack,\nHTML+CSS,\nBootstrap/material\n\nБудет плюсом:\nReact Native\nreselect, normalizr\nstyle-components, css-modules, css-in-js\n\n👍Что мы готовы предложить:\n- Работу в офисе (40 часов в неделю), возможна частичная удаленка \n- Комфортное рабочее место \n- Дружный и отзывчивый коллектив, выезды на природу и разного рода мероприятия \n- Mac или PC \n- Классика: Чай/Кофе/Печеньки/Тенис/XBox\n\nКонтакты: @Aleen_ku\n\n—\n\n👉 Обсуждение вакансии в чате @javascript_jobs","markup":[{"type":"hashtag","offset":0,"length":9,"data":"вакансия"},{"type":"hashtag","offset":10,"length":5,"data":"офис"},{"type":"hashtag","offset":16,"length":10,"data":"краснодар"},{"type":"hashtag","offset":27,"length":10,"data":"krasnodar"},{"type":"hashtag","offset":38,"length":9,"data":"fulltime"},{"type":"hashtag","offset":48,"length":6,"data":"react"},{"type":"hashtag","offset":55,"length":7,"data":"native"},{"type":"handle","offset":902,"length":9,"data":"Aleen_ku"},{"type":"handle","offset":946,"length":16,"data":"javascript_jobs"}],"date":"2020-06-16T14:24:18+00:00","link":"tg://resolve?domain=javascript_jobs_feed&post=0","tags":[{"name":"javascript"},{"name":"reactjs"},{"name":"typescript"},{"name":"redux"},{"name":"webpack"},{"name":"html"},{"name":"css"},{"name":"bootstrap"},{"name":"react-native"},{"name":"react-redux"},{"name":"react-router"}],"cities":[{"code":"krasnodar"}],"allowsRemote":true}}]}}},"context":{}}