{"hash":"f5f6bf98bd95e769321482904cbbd488f77922fd","data":{"records":{"totalCount":669,"pageInfo":{"totalPages":67,"currentPage":22},"edges":[{"node":{"id":"17202937856-1001110946746","title":"Js разработчик","text":"#вакансия #Vue #nuxt \n\nГород и адрес офиса: Москва\n\nФормат работы: удаленка\n\nЗанятость: полная\n\nЗарплатная вилка: 70 000 - 100 000 руб. на руки\n\nПроект: Онлайн школа. Бэкенд готов, дизайн в фигме.\n\nОписание вакансии: \n\n• Разработка веб-интерфейсов на vue.js/Nuxt\n• Активное участие в обсуждении задач.\n• Разработка нового функционала.\n• Доработка/Оптимизация существующего функционала.\n\nТребования:\n• Уверенное знание Javascript (ES6+)\n• Обязательное понимание экосистемы Vue/VueRouter/Vuex\n• Понимание принципов построения архитектуры большого приложения и принципов компонентного подхода.\n• Умение делать качественную кросс-браузерную адаптивную верстку (SCSS).\n• Опыт работы с Webpack и Babel.\n• Опыт работы с REST API\n\nБудет супер, если:\n• Есть понимание принципов pixel perfect\n• Опыт использования серверного рендеринга (SSR) с использованием Nuxt.js.\n• Есть ИП или статус самозанятого\n\nНазвание компании: www.webland.design\n\nКонтакты: @alex_project","markup":[{"type":"hashtag","offset":0,"length":9,"data":"вакансия"},{"type":"hashtag","offset":10,"length":4,"data":"Vue"},{"type":"hashtag","offset":15,"length":5,"data":"nuxt"},{"type":"link","offset":912,"length":18,"data":"http://www.webland.design"},{"type":"handle","offset":942,"length":13,"data":"alex_project"}],"date":"2020-06-29T08:48:59+00:00","link":"tg://resolve?domain=javascript_jobs_feed&post=16406","tags":[{"name":"javascript"},{"name":"vuejs"},{"name":"webpack"},{"name":"rest"}],"cities":[{"code":"moscow"}],"allowsRemote":true}},{"node":{"id":"2260729856-1001134745498","title":"Devops engineer","text":"#вакансия #devops #azure #remote #спб #fulltime #релокация #офис #удаленка\n\nВ компании Bekitzur открыта позиция Senior DevOps Remote Engineer (Azure)\n\nМы работаем с крупными Американскими проектами и стартапами из Кремниевой долины.\n\nЗарплатная вилка: от 200 до 300К рублей на руки.\n\nПроект: Софт для командного планирования, с возможностью интерактивного управления с помощью жестов рук.\n\nИспользуемые технологии: Azure, Terraform, Kubernetes, PostgreSQL, Redis.\n\nОсновные требования:\nОпыт с Azure от 2-х лет\nОпыт на позиции DevOps от 3-х лет\nАнглийский от B2\n\nВозможно работать в офисе(Санкт-Петербург) и удаленно\n\nПисать: @khabibulin_it\n\n—\n\n👉 Обсуждение вакансии в чате @devops_jobs","markup":[{"type":"hashtag","offset":0,"length":9,"data":"вакансия"},{"type":"hashtag","offset":10,"length":7,"data":"devops"},{"type":"hashtag","offset":18,"length":6,"data":"azure"},{"type":"hashtag","offset":25,"length":7,"data":"remote"},{"type":"hashtag","offset":33,"length":4,"data":"спб"},{"type":"hashtag","offset":38,"length":9,"data":"fulltime"},{"type":"hashtag","offset":48,"length":10,"data":"релокация"},{"type":"hashtag","offset":59,"length":5,"data":"офис"},{"type":"hashtag","offset":65,"length":9,"data":"удаленка"},{"type":"handle","offset":625,"length":14,"data":"khabibulin_it"},{"type":"handle","offset":674,"length":12,"data":"devops_jobs"}],"date":"2020-06-29T08:16:46+00:00","link":"tg://resolve?domain=devops_jobs_feed&post=2156","tags":[{"name":"azure"},{"name":"kubernetes"},{"name":"postgresql"},{"name":"redis"}],"cities":[],"allowsRemote":true}},{"node":{"id":"26772242432-1001075660570","title":"Php разработчик","text":"#Удаленка #вакансия #php #fulltime #Senior #middle\nФормат работы: Удаленка \nЗанятость: полная\nЗарплатная вилка: от 80 т.р. до 150 т.р.\n\nMobidoo - AdTech компания, занимаемся рекламой в мобильном сегменте интернета.Мы работаем в области анализа и генерации трафика, с данными пользователей. Мы ищем Backend разработчика, который хотел бы реализовывать нетривиальные задачи и работать с продуктами, нацеленными на большие аудитории. (Возможна удаленная работа)\n\nС чем предстоит работать:\n\nРабота над внутренними проектами компании для аналитики и маркетинга;\nРабота над сервисами по интеграции с third-party партнерами (Facebook, Google, Apple и другие);\nРазработка API для мобильных приложений с DAU 500к+\nВзаимодействие с командой мобильной разработки\n\nТребования:\n\nPHP 7.1-7.4, ООП, паттерны\nPostgreSql (понимать плюсы и минусы БД, уметь работать со сложными запросами и выборками данных)\nОпыт работы с Redis/Memcache/Tarantool\nОпыт работы с Silex, Symfony2, Yii, Laravel\nИнициативность.\n\nПриветствуется:\n\nСильно приветствуется если на предыдущем месте работы занимались геймдевом, BI, трекерами, системами аналитики трафика, а так же имеется опыт работы с google и facebook api.\n\nНазвание компании: Mobidoo http://mobidoo.io\nКонтакты: @ohmytraff","markup":[{"type":"hashtag","offset":0,"length":9,"data":"Удаленка"},{"type":"hashtag","offset":10,"length":9,"data":"вакансия"},{"type":"hashtag","offset":20,"length":4,"data":"php"},{"type":"hashtag","offset":25,"length":9,"data":"fulltime"},{"type":"hashtag","offset":35,"length":7,"data":"Senior"},{"type":"hashtag","offset":43,"length":7,"data":"middle"},{"type":"link","offset":1209,"length":17,"data":"http://mobidoo.io"},{"type":"handle","offset":1237,"length":10,"data":"ohmytraff"}],"date":"2020-06-29T08:14:57+00:00","link":"tg://resolve?domain=php_jobs&post=25532","tags":[{"name":"php"},{"name":"postgresql"},{"name":"redis"},{"name":"symfony"},{"name":"yii"},{"name":"laravel"}],"cities":[],"allowsRemote":true}},{"node":{"id":"17201889280-1001110946746","title":"Js разработчик","text":"#вакансия #remote #удаленка #Angular9 #SASS #Fulstack #Frontend #Backend #Bulma #Node.js #JavaScript\n\nФормат: Удаленка\nЗанятость: Проектная\nУровень: Middle/Senior\nЗп: 500 USD -> 2000 USD или проектная после собеседования.\n\nО компании: БиКинг (https://beking.co) - разработка приложений и сервисов на основе web-технологий. Мы ищем к себе в команду ответственного человека, который хочет и готов активно расти как разработчик и специалист. Компания молодая. Пока в компании програмистов нету.\n\nОбязанности:\n- Разработка Web приложений на Angular, Reakt с применением современных framework-ов\n- Исследование и внедрение новых тенденций и технологий\n\nТребования:\n- Хорошее знание JavaScript (ES5, ES6), HTML, SASS, CSS, Typescript\n- Знание Адаптивной Вёрстки\n- Опыт работы с современными фреймворками (Angular/React, Bulma)\n- Умение работать с REST\n- Хорошее умение пользоваться Git\n- Навыки работы в интернациональной команде\n\nБудет плюсом:\n- Разговорный английский, испаский язык\n- Знание Node.js и опыт работы с Express.js/Nest.js/Next.js\n- Умение верстать дизайн из Adobe XD.\n\nМы предлагаем:\n- Гибкий график работы\n- Постоянное обучение, развитие скиллов\n- Возможность получить опыт в разных проектах и изучить новые технологии\n\nКонтакты: @yuribkng","markup":[{"type":"hashtag","offset":0,"length":9,"data":"вакансия"},{"type":"hashtag","offset":10,"length":7,"data":"remote"},{"type":"hashtag","offset":18,"length":9,"data":"удаленка"},{"type":"hashtag","offset":28,"length":9,"data":"Angular9"},{"type":"hashtag","offset":38,"length":5,"data":"SASS"},{"type":"hashtag","offset":44,"length":9,"data":"Fulstack"},{"type":"hashtag","offset":54,"length":9,"data":"Frontend"},{"type":"hashtag","offset":64,"length":8,"data":"Backend"},{"type":"hashtag","offset":73,"length":6,"data":"Bulma"},{"type":"hashtag","offset":80,"length":5,"data":"Node"},{"type":"hashtag","offset":89,"length":11,"data":"JavaScript"},{"type":"link","offset":243,"length":17,"data":"https://beking.co"},{"type":"handle","offset":1240,"length":9,"data":"yuribkng"}],"date":"2020-06-29T06:52:19+00:00","link":"tg://resolve?domain=javascript_jobs_feed&post=16405","tags":[{"name":"javascript"},{"name":"angularjs"},{"name":"sass"},{"name":"nodejs"},{"name":"web"},{"name":"html"},{"name":"css"},{"name":"typescript"},{"name":"reactjs"},{"name":"rest"},{"name":"git"},{"name":"express"}],"cities":[],"allowsRemote":true}},{"node":{"id":"17200840704-1001110946746","title":"Js разработчик","text":"#вакансия #remote #frontend #Angularjs #Angular #middle #senior #удаленка \n\nГород: Краснодар\nФормат работы: remote \nЗанятость: fulltime\nВилка: 120-180k net \n\nНа протяжении 14 лет наша команда создает кастомные веб/мобильные приложения и дизайн. \nПриглашаем к сотрудничеству на удаленной постоянной основе опытного разработчика front-end со знанием Angular (Angular.js/Angular 9). \nПроект:  продукт для крупного бизнеса (USA) \n\nЗадачи: разработка front-end части на Anagular. \n\nНазвание компании: Softlight \n\nТребования: \nОпыт в разработке front-end на Angular от 3-х лет;\nОпыт работы с версией Angular 1.x от 1 года\n JavaScript, HTML5/CSS3 \nработа в распределенной команде \n\nМы предлагаем:\n- Полностью удаленную работу\n- Участие в разработке зарубежных продуктов (USA)\n- Пятидневная рабочая неделя ( с 9-10 до 18-19 МСК), госпраздники - выходные\n- Оформление ИП\n- Оплачиваемый отпуск и больничный \n- Работу в слаженной опытной команде \n\nКонтакты: @MikeHR или mzaharov@softlightllc.com","markup":[{"type":"hashtag","offset":0,"length":9,"data":"вакансия"},{"type":"hashtag","offset":10,"length":7,"data":"remote"},{"type":"hashtag","offset":18,"length":9,"data":"frontend"},{"type":"hashtag","offset":28,"length":10,"data":"Angularjs"},{"type":"hashtag","offset":39,"length":8,"data":"Angular"},{"type":"hashtag","offset":48,"length":7,"data":"middle"},{"type":"hashtag","offset":56,"length":7,"data":"senior"},{"type":"hashtag","offset":64,"length":9,"data":"удаленка"},{"type":"handle","offset":947,"length":7,"data":"MikeHR"},{"type":"link","offset":959,"length":25,"data":"mailto:mzaharov@softlightllc.com"}],"date":"2020-06-29T06:51:53+00:00","link":"tg://resolve?domain=javascript_jobs_feed&post=16404","tags":[{"name":"javascript"},{"name":"angularjs"},{"name":"dotnet"},{"name":"html"},{"name":"css"}],"cities":[{"code":"krasnodar"}],"allowsRemote":true}},{"node":{"id":"103942193152-1001089317451","title":"Qa инженер","text":"Юлия Романова, [17.06.20 14:29]\n#вакансия #спб #fulltime #qa #удаленно\n\nКомпания: Smart Design (smddev.com) \n\nДолжность: Инженер по ручному и автоматизированному тестированию (QA & Automation Engineer)\n\nИщем инженера по тестированию BSS сотового оператора.\nБольшая распределенная команда (~30 человек).\nНужно хорошо уметь тестировать вручную и, когда это выгодно, суметь автоматизировать.\n\n\nНаши пожелания к кандидатам:\n✔️Опыт работы с Java или любым другим высокоуровневым языком программирования на уровне, достаточном для самостоятельного написания игры \"Сапёр\"\n✔️Опыт работы в консоли linux на уровне, достаточном для для решения задач:\nпоиск и изменение строк в файле\nуправление системными процессами\n✔️Опыт взаимодействия с REST API на уровне, достаточном для того, чтобы получить из ВКонтакте имя и фамилию своего аккаунта, не используя браузер\n\nПлюсом будет:\n✔️Опыт работы с протоколом SOAP\n✔️Профессиональный опыт функционального тестирования\n✔️Опыт работы с JUnit, Gradle, Oracle\n\nУсловия:\n✔️\"Белая\" зарплата до 110K gross\n✔️ДМС\n✔️ Работа в удаленном режиме на данный момент, далее в уютном офисе.\n\nhttps://spb.hh.ru/vacancy/37540632\n\nМои контакты: @romanovaya iyliia.romanova@smddev.com","markup":[{"type":"hashtag","offset":32,"length":9,"data":"вакансия"},{"type":"hashtag","offset":42,"length":4,"data":"спб"},{"type":"hashtag","offset":47,"length":9,"data":"fulltime"},{"type":"hashtag","offset":57,"length":3,"data":"qa"},{"type":"hashtag","offset":61,"length":9,"data":"удаленно"},{"type":"link","offset":96,"length":10,"data":"http://smddev.com"},{"type":"link","offset":1109,"length":34,"data":"https://spb.hh.ru/vacancy/37540632"},{"type":"handle","offset":1159,"length":11,"data":"romanovaya"},{"type":"link","offset":1171,"length":26,"data":"mailto:iyliia.romanova@smddev.com"}],"date":"2020-06-29T05:55:45+00:00","link":"tg://resolve?domain=qa_jobs&post=99127","tags":[{"name":"qa"},{"name":"java"},{"name":"linux"},{"name":"rest"},{"name":"soap"},{"name":"junit"},{"name":"gradle"},{"name":"oracle"}],"cities":[],"allowsRemote":true}},{"node":{"id":"72214380544-1001054966032","title":"Android разработчик","text":"#вакансия #android #developer #remote #java\n\nВакансия: Android разработчик\n\nКомпания: EatAp\nЛокация: удаленной работы (GMT+3 / GMT+7)\nГрафик: проектная работа\nЗ/п вилка: 600-700₽/час в зависимости от квалификации (частичная занятость, 20-30 часов в неделю) \n\nОписание компании:\nДействующий стартап в сфере доставки еды: EatAp\n\nЧем предстоит заниматься: \n• дорабатывать действующий продукт\n• разрабатывать новые фичи\n• поддерживать порядок в коде и документации\n\nЧто ждем от кандидата:\n• Опыт разработки на Android от 1 года\n• Опыт работы со стеком : Java, retrofit, rxjava, dagger, moxy, MVP, butterknife, room, git, navigation component\n• Аккуратное ведение кода\n\n• Знание Jira, Slack\n\n• Умение планировать свою работу в рамках спринтов\n\nКонтакты для связи: @doing_the_future","markup":[{"type":"hashtag","offset":0,"length":9,"data":"вакансия"},{"type":"hashtag","offset":10,"length":8,"data":"android"},{"type":"hashtag","offset":19,"length":10,"data":"developer"},{"type":"hashtag","offset":30,"length":7,"data":"remote"},{"type":"hashtag","offset":38,"length":5,"data":"java"},{"type":"handle","offset":759,"length":17,"data":"doing_the_future"}],"date":"2020-06-29T03:28:21+00:00","link":"tg://resolve?domain=mobile_jobs&post=68869","tags":[{"name":"mobile"},{"name":"android"},{"name":"java"},{"name":"git"}],"cities":[],"allowsRemote":true}},{"node":{"id":"17195597824-1001110946746","title":"Javascript разработчик","text":"#вакансия #удаленно #проектная #reactNative \n В компанию \"Far Express CO\" LLC требуется React Native Разработчик под проектный вид работы\n Город: Узбекистан, г. Ташкент\n Занятость: проектная\n Формат работы: удаленка\n Зарплатная вилка: от 500$ до 1000$\n Требования:\n - опыт работы React Native не менее 2 года\n Условия работы:\n - график работы 30-40ч в недели (работаем с Hubstaff)\n Контакты:\n Телеграм: @nazirovlix\n\n—\n\n👉 Обсуждение вакансии в чате @javascript_jobs","markup":[{"type":"hashtag","offset":0,"length":9,"data":"вакансия"},{"type":"hashtag","offset":10,"length":9,"data":"удаленно"},{"type":"hashtag","offset":20,"length":10,"data":"проектная"},{"type":"hashtag","offset":31,"length":12,"data":"reactNative"},{"type":"handle","offset":403,"length":11,"data":"nazirovlix"},{"type":"handle","offset":449,"length":16,"data":"javascript_jobs"}],"date":"2020-06-28T20:36:51+00:00","link":"tg://resolve?domain=javascript_jobs_feed&post=16399","tags":[{"name":"javascript"},{"name":"express"},{"name":"reactjs"},{"name":"react-native"}],"cities":[{"code":"tashkent"}],"allowsRemote":true}},{"node":{"id":"17191403520-1001110946746","title":"Js разработчик","text":"Greenatom.ru\n#вакансия #Москва #javascript #React #Typescript #Node.js #Middle #Senior #удаленка #удаленная работа \n\n👨🏼‍💻 Middle/Senior Frontend Developer, Middle/Senior Backend Developer\nГород и адрес офиса: #Москва, БЦ Сириус Парк, метро Нагатинская\n\n✅Формат работы: \nУДАЛЕННАЯ РАБОТА\n\n💻Занятость: полная, гибкое начало трудового дня.\n\nЗарплатная вилка: от 170 000 до 230 000 руб. на руки.\n\n🏢Компания: АО Гринатом\n\nПривет! Мы растём и активно развиваем ряд внутренних проектов: например, корпоративный портал, горячая линия, собственная кадровая система для 400 предприятий! \nМы формируем НЕСКОЛЬКО КОМАНД, общей численностью более 60 человек и ищем классных:\n\n✅ФРОНТЕНД  разработчиков;\n\n✅БЭКЕНД разработчиков. \n\nПроекты в стадии разработки пилота и у тебя есть возможность повлиять на дальнейшее развитие продукта. Если у тебя есть крутые идеи - ты сможешь их здесь реализовать! Откликайся сам и зови друзей! Вирус пройдёт, работа останется!\n\n✅Требуемые знания и навыки:\n- Опыт разработки от двух лет\n- Хорошее знание чистого JS\n- Опыт работы с TypeScript\n- React, MobX, Less/Sass\n- Опыт написания юнит-тестов с помощью Jest, Enzymе очень приветствуется\n\n💡Наш стек:\n      React, TypeScript, Node.js, MobX, Docker\n\nМы работаем по Scrum.\n\n✅Условия:\n- Официальное оформление в штат по ТК, белая зп;\n- Бессрочный трудовой договор; \n- Годовой бонус;\n- Возможности профессионального и карьерного роста;\n- Дополнительные 3 дня к отпуску;\n- Плавающее начало дня;\n- ДМС со стоматологией;\n- Полная удаленка \n(Если тебе нравится работать в офисе, мы не против)\n\n☎️Контакты:\nЮлия - YAnZueva@Greenatom.ru","markup":[{"type":"link","offset":0,"length":12,"data":"http://Greenatom.ru"},{"type":"hashtag","offset":13,"length":9,"data":"вакансия"},{"type":"hashtag","offset":23,"length":7,"data":"Москва"},{"type":"hashtag","offset":31,"length":11,"data":"javascript"},{"type":"hashtag","offset":43,"length":6,"data":"React"},{"type":"hashtag","offset":50,"length":11,"data":"Typescript"},{"type":"hashtag","offset":62,"length":5,"data":"Node"},{"type":"hashtag","offset":71,"length":7,"data":"Middle"},{"type":"hashtag","offset":79,"length":7,"data":"Senior"},{"type":"hashtag","offset":87,"length":9,"data":"удаленка"},{"type":"hashtag","offset":97,"length":10,"data":"удаленная"},{"type":"hashtag","offset":212,"length":7,"data":"Москва"},{"type":"link","offset":1579,"length":21,"data":"mailto:YAnZueva@Greenatom.ru"}],"date":"2020-06-28T17:42:12+00:00","link":"tg://resolve?domain=javascript_jobs_feed&post=16395","tags":[{"name":"javascript"},{"name":"reactjs"},{"name":"typescript"},{"name":"nodejs"},{"name":"sass"},{"name":"docker"}],"cities":[{"code":"moscow"}],"allowsRemote":true}},{"node":{"id":"72178728960-1001054966032","title":"Android разработчик","text":"#вакансия #android #developer #remote #java\n\nВакансия: Android разработчик\n\nКомпания: 8locate\nЛокация: удаленной работы (GMT+8 / GMT+7)\nГрафик: проектная работа\nЗ/п вилка: 600-700₽/час в зависимости от квалификации (частичная занятость, 20-30 часов в неделю) \n\nОписание компании:\nДействующий travel-experiences стартап 8locate.com\n\nЧем предстоит заниматься: \n• дорабатывать действующий продукт\n• разрабатывать новые фичи\n• поддерживать порядок в коде и документации\n\nЧто ждем от кандидата:\n• Опыт разработки на Android от 2-х лет \n• Опыт успешных релизов\n• Опыт работы со стеком : Java, retrofit, rxjava, dagger, moxy, MVP, butterknife, room, git, navigation component\n• Аккуратное ведение кода\n\n• Знание Jira, Slack\n\n• Умение планировать свою работу в рамках спринтов\n\nКонтакты для связи: @vit_bakh","markup":[{"type":"hashtag","offset":0,"length":9,"data":"вакансия"},{"type":"hashtag","offset":10,"length":8,"data":"android"},{"type":"hashtag","offset":19,"length":10,"data":"developer"},{"type":"hashtag","offset":30,"length":7,"data":"remote"},{"type":"hashtag","offset":38,"length":5,"data":"java"},{"type":"link","offset":319,"length":11,"data":"http://8locate.com"},{"type":"handle","offset":790,"length":9,"data":"vit_bakh"}],"date":"2020-06-28T15:30:17+00:00","link":"tg://resolve?domain=mobile_jobs&post=68835","tags":[{"name":"mobile"},{"name":"android"},{"name":"java"},{"name":"git"}],"cities":[],"allowsRemote":true}}]}},"context":{}}