{"hash":"f34fd2c444a074f4e0e67d525015a008ef8e766f","data":{"records":{"totalCount":178,"pageInfo":{"totalPages":18,"currentPage":8},"edges":[{"node":{"id":"98202288128-1001089317451","title":"Qa инженер","text":"#вакансия #qa #manual #manualqa  #remote #удаленно #офис #севастополь #fulltime\n\nManual QA\nКомпания: ИП Хорьков Э.В.\nЛокация: Севастополь (офис/удаленно) \nЗанятость: полный день\nЗ/п: 50-70К net\nКонтакты: @observer69\n\nНаш проект – IoT инфраструктура сбора и анализа данных, запущена на базе компании, которая занимается морскими грузоперевозками (более 100 судов). Мы делаем реальный проект, который будет работать и генерировать добавленную стоимость для логистических компаний.\nОсновные технологии, которые мы используем – TypeScript, React, CouchDB. Клиент-серверное взаимодействие через GraphQL и RabbitMQ. Уже запущена и протестирована первая бета-версия. Сейчас разрабатываем продакшен-версию для запуска в середине 2020.\nМы ищем опытного ручного тестировщика. Вам предстоит заниматься ручным тестирование продукта, взаимодействовать командой разработки. Дизайн, ключевая техническая команда, продуктовая команда работают распределенно (команда интернациональная).\n\nУсловия\n● Официальное оформление по ТК РФ, трудовой договор, 100 % белая зарплата с оплатой всех налогов и страховых взносов, отпуск 28 календарных дней\n● Оплачиваемые онлайн-курсы английского языка\n● Работа удаленно или в офисе в Севастополе\n\nТребования\n● Не менее 2 лет опыта ручного тестирование ПО\n● Понимание принципов клиент-серверного взаимодействия\n● Опыт работы с системами менеджмента текст-кейсов (Zephyr)\n● Знание английского (нужно будет читать и писать)\n● Будет плюсом: знание Python/TypeScript, знание NoSQL\n\nЗадачи\n1. Ручное тестирование нашего продукта\n2. Написание тестовой документации: тест-планов, тест-кейсов, отчетов\n3. Коммуникация с командой разработки и командой автоматизации","markup":[{"type":"hashtag","offset":0,"length":9,"data":"вакансия"},{"type":"hashtag","offset":10,"length":3,"data":"qa"},{"type":"hashtag","offset":14,"length":7,"data":"manual"},{"type":"hashtag","offset":22,"length":9,"data":"manualqa"},{"type":"hashtag","offset":33,"length":7,"data":"remote"},{"type":"hashtag","offset":41,"length":9,"data":"удаленно"},{"type":"hashtag","offset":51,"length":5,"data":"офис"},{"type":"hashtag","offset":57,"length":12,"data":"севастополь"},{"type":"hashtag","offset":70,"length":9,"data":"fulltime"},{"type":"bold","offset":81,"length":19,"data":""},{"type":"bold","offset":117,"length":9,"data":""},{"type":"bold","offset":155,"length":10,"data":""},{"type":"bold","offset":178,"length":5,"data":""},{"type":"bold","offset":194,"length":9,"data":""},{"type":"handle","offset":204,"length":11,"data":"observer69"},{"type":"bold","offset":971,"length":8,"data":""},{"type":"bold","offset":1215,"length":11,"data":""},{"type":"bold","offset":1495,"length":7,"data":""}],"date":"2020-04-08T07:26:35+00:00","link":"tg://resolve?domain=qa_jobs&post=0","tags":[{"name":"qa"},{"name":"dotnet"},{"name":"typescript"},{"name":"reactjs"},{"name":"graphql"},{"name":"rabbitmq"},{"name":"python"},{"name":"nosql"}],"cities":[{"code":"sevastopol"}],"allowsRemote":true}},{"node":{"id":"85074116608-1001067529236","title":"Python разработчик","text":"#python #вакансия #backend #Москва #офис #fulltime\n\nВсем привет! \nМеня зовут Эля, помогаю усилить талантливыми Python разработчиками продуктовую команду, \nразрабатывающую девайсы на основе голосовых и речевых технологий .\nВ команде открыто несколько направлений:\nРазработка приложений для девайсов.\nСоздание платформы для разных поставщиков данных.\nРазработка сценариев для виртуального ассистента.\nРазработка системы метрик.\nРазработка инструментов для сервиса синтеза и распознавания речи.\nРазработка NLP платформы.\nВсего ищем 7-8 разработчиков строго с опытом на Python 3 и использованием алгоритмов,\nдля увеличения производительности в работе. Опыт интересен от года и выше, позиции от джуна до лида. \n\nЗп от 100 до 350 тыр целковых + широчайший соц пакет (ДМС, обучение, конференции, спортзал с сауной в офисе и еще много интересного).\nРабота СТРОГО В ОФИСЕ (NDA) на м. Кутузовский проспект, удаленка только на время карантина... \n\nДетали буду рада обсудить в личке или по тел +7 965 314 45 43","markup":[{"type":"hashtag","offset":0,"length":7,"data":"python"},{"type":"hashtag","offset":8,"length":9,"data":"вакансия"},{"type":"hashtag","offset":18,"length":8,"data":"backend"},{"type":"hashtag","offset":27,"length":7,"data":"Москва"},{"type":"hashtag","offset":35,"length":5,"data":"офис"},{"type":"hashtag","offset":41,"length":9,"data":"fulltime"},{"type":"link","offset":982,"length":16,"data":"tel:+7 965 314 45 43"}],"date":"2020-04-08T07:08:31+00:00","link":"tg://resolve?domain=python_jobs&post=0","tags":[{"name":"python"},{"name":"nlp"}],"cities":[{"code":"moscow"},{"code":"lida"}],"allowsRemote":true}},{"node":{"id":"16213082112-1001110946746","title":"Js программист","text":"#вакансия #js #angular\n\nНазвание компании: Froot Middle Asia (ФрутМидл Эйжа)\nhttps://thefroot.com\nВилка: от 350 до 750 тысяч тенге (1 - 2К $)\nТребуемый опыт работы: 1–3 года\nГород: Алматы, Казахстан\n\nФормат: Полная занятость, полный день, можно удаленно\n\nО компании\nСегодня Froot - это 650 000 товаров в собственном маркетплейсе, 15 магазинов в Алматы, договора франшизы на 100 магазинов по всему Казахстану и успешные переговоры по экспансии на рынки Турции, Филиппин, Узбекистана, Таджикистана и Кыргызстана.\nВ 2020 году мы откроем 200 магазинов по всему Казахстану и доведём ассортимент нашего онлайн маркетплейса до 3 000 000!\n\nМы ожидаем, что программист умеет работать в команде и готов оперативно погрузится в существующий продукт. Он пишет код не «для себя» или «чтобы работало», а хорошо, аккуратно и понятно, чтобы любой член команды смог продолжить работу. Мы используем несколько серверов (тестовый, продакшен, rnd), gitflow, разветвление микросервисов.\n\nКого мы ищем?\nСамостоятельного Frontend Developer'а, сильного командного игрока, свято уважающего дедлайны и эффективную коммуникацию. Важно уметь предлагать свои идеи, делиться своим видением какие технологии могут давать результат.\n\nЧто делать:\n\nПоддерживать проекты;\nРазрабатывать новые модули и спецпроекты в существующих проектах;\nПредлагать технические решения для упрощения бизнес-процессов\nЗапускаем мобильную разработку на js\n\nТребования:\n\nЗнание современных стандартов и методов разработки веб-приложений\nОтличное знание HTML5/CSS3, JavaScript ES5/ES6\nAngular 2+\nУмение обращаться с системами сборки Grunt/Gulp/Webpack\nЗнание CSS/HTML препроцессоров (Sass/Less/Stylus/Pug)\nЗнание Git\nВнимательность к мелочам;\nУмение создавать адаптивную верстку;\nПлюсом будет:\n\nОпыт работы с Node.js\nPWA\nNativeScript\nМы предлагаем:\n· Молодой коллектив с крутой командой разработки, в которой можно быстро расти и развиваться;\n· Интересные рабочие задачи;\n· Офис на Кунаева с панорамным видом на город;\n· Стабильная заработная плата, официальное трудоустройство.\n\nКонтакты: @sanzhikee, sanzhar.sarsenbi@gmail.com, +7 702 97 65 999","markup":[{"type":"hashtag","offset":0,"length":9,"data":"вакансия"},{"type":"hashtag","offset":10,"length":3,"data":"js"},{"type":"hashtag","offset":14,"length":8,"data":"angular"},{"type":"link","offset":77,"length":20,"data":"https://thefroot.com"},{"type":"handle","offset":2034,"length":10,"data":"sanzhikee"},{"type":"link","offset":2046,"length":26,"data":"mailto:sanzhar.sarsenbi@gmail.com"},{"type":"link","offset":2074,"length":16,"data":"tel:+7 702 97 65 999"}],"date":"2020-04-07T18:37:48+00:00","link":"tg://resolve?domain=javascript_jobs_feed&post=15462","tags":[{"name":"javascript"},{"name":"angularjs"},{"name":"html"},{"name":"css"},{"name":"gruntjs"},{"name":"gulp"},{"name":"webpack"},{"name":"sass"},{"name":"git"},{"name":"nodejs"}],"cities":[{"code":"almaty"}],"allowsRemote":true}},{"node":{"id":"16210984960-1001110946746","title":"Js разработчик","text":"#вакансия #fulltime #node #typescript #kubernetes #graphQL #Remote \nStrong Middle Node engineer\n\nГород: Любой(HQ в Miami, Florida)\nФормат работы: удаленно\nЗанятость: полная\nЗарплатная вилка: от $3000 - $5000\n\nКомпания StartupCraft Inc - больше инфы тут - https://startupcraft.io\n\nРабота в команде профи, полный стек ролей и четко настроенные процессы. Позиция на продукт связанный с управлением Kubernetes инфраструктурами\n\n\nТребования:\n- At least 3 years of experience with Node.js\n- At least 1 year with TypeScript\n- At least 1 year with GraphQL\n- Conversational level of English\n\nУсловия:\n- Top Salary rates\n- Company internal positive culture. We are not all about just a work\n- Personal development and professional growth. You will grow with one of the best engineers in class\n\nДля того чтоб зааплаиться - нужно выслать CV на info@startupcraft.io и указать проекты на которых вы работали, с указанием технологий и периода (от, до).  Можно так же указать референс на предыдущих местах - это плюс\n\n\nКомпания: StartupCraft Inc\nКонтакты: info@startupcraft.io","markup":[{"type":"hashtag","offset":0,"length":9,"data":"вакансия"},{"type":"hashtag","offset":10,"length":9,"data":"fulltime"},{"type":"hashtag","offset":20,"length":5,"data":"node"},{"type":"hashtag","offset":26,"length":11,"data":"typescript"},{"type":"hashtag","offset":38,"length":11,"data":"kubernetes"},{"type":"hashtag","offset":50,"length":8,"data":"graphQL"},{"type":"hashtag","offset":59,"length":7,"data":"Remote"},{"type":"link","offset":255,"length":23,"data":"https://startupcraft.io"},{"type":"link","offset":832,"length":20,"data":"mailto:info@startupcraft.io"},{"type":"link","offset":1040,"length":20,"data":"mailto:info@startupcraft.io"}],"date":"2020-04-07T18:37:12+00:00","link":"tg://resolve?domain=javascript_jobs_feed&post=15460","tags":[{"name":"javascript"},{"name":"nodejs"},{"name":"typescript"},{"name":"kubernetes"},{"name":"graphql"}],"cities":[{"code":"miami"}],"allowsRemote":true}},{"node":{"id":"16208887808-1001110946746","title":"Js разработчик","text":"Город:  Москва, м. Киевская\nФормат работы: офис, а также возможность работать удаленно\nЗанятость: полная\nЗарплатная вилка: 100 000-150 000 руб.\n\nРазыскиваем Фронтенд-разработчика (JS, React, SPA)\n#Москва #вакансия  #JavaScript #JS #React #удаленка #fulltime #фронтенд\n\nИщем коллегу в сформировавшуюся команду разработки крупных и технологически сложных сайтов. Наши проекты начинаются с идеи и заканчиваются эксплуатацией, поддержкой. Действительно полезные сервисы с приличной посещаемостью. \n\nМЫ ПРЕДЛАГАЕМ:\n-Работу в небольшом сплоченном коллективе, высокую скорость коммуникации, минимум бюрократии;\n-Оформление в соответствии с ТК РФ или договор с ИП;\n-Программу профессионального роста сотрудников, компенсацию курсов, семинаров;\n-Офис м. Киевская, а также возможность работать удаленно или частично удаленно.\n-Рабочий ноутбук, мобильный телефон, комфортное рабочее место;\nБОНУСЫ: \nГибкий график работы.\nВозможность быть причастным к крупным интересным проектам, которые не стыдно показать в портфолио и хороший опыт работы в команде.\n\nОЖИДАЕМ ОТ ВАС:\n-Отличное знание и опыт разработки на JavaScript;\n-Хорошее знание React (или других похожих фреймворков)\n-Опыт работы с инструментами командной разработки: Git, таск-трекер (используем YouTrack);\n-Понимание клиент-серверного взаимодействия, архитектуры REST;\n-Умение слышать коллег, находить лучшие решения задач;\n-Умение адекватно оценивать сложность задач, соблюдать сроки;\n-Понимание методологии БЭМ, знание HTML и CSS, разумеется;\nБУДЕТ ПЛЮСОМ\nОпыт работы с API картографических сервисов;\nОпыт разработки Single Page Application;\nЗнакомство с шаблонизатором Twig, опыт разработки фронтенда под Symfony-приложения;\n\nНазвание компании: KR Digital https://kr.digital/about/ \nКонтакты: Елена @HRechubakina","markup":[{"type":"hashtag","offset":196,"length":7,"data":"Москва"},{"type":"hashtag","offset":204,"length":9,"data":"вакансия"},{"type":"hashtag","offset":215,"length":11,"data":"JavaScript"},{"type":"hashtag","offset":227,"length":3,"data":"JS"},{"type":"hashtag","offset":231,"length":6,"data":"React"},{"type":"hashtag","offset":238,"length":9,"data":"удаленка"},{"type":"hashtag","offset":248,"length":9,"data":"fulltime"},{"type":"hashtag","offset":258,"length":9,"data":"фронтенд"},{"type":"link","offset":1707,"length":25,"data":"https://kr.digital/about/"},{"type":"handle","offset":1750,"length":13,"data":"HRechubakina"}],"date":"2020-04-07T18:36:35+00:00","link":"tg://resolve?domain=javascript_jobs_feed&post=15458","tags":[{"name":"javascript"},{"name":"reactjs"},{"name":"git"},{"name":"rest"},{"name":"html"},{"name":"css"},{"name":"twig"},{"name":"symfony"}],"cities":[{"code":"moscow"},{"code":"kiev"}],"allowsRemote":true}},{"node":{"id":"16205742080-1001110946746","title":"Js разработчик","text":"#вакансия #vue #vuejs #typescript #удалёнка #удаленка\n\nГород и адрес офиса: удалёнка (костяк команды в Санкт-Петербурге)\n\nФормат работы: удалёнка\n\nЗанятость: полная, фултайм\n\nЗарплатная вилка: от 110 000₽ до 180 000₽\n\nОписание вакансии: \nИщем разработчика для усиления команды в нашем стартапе. Мы делаем продукт для предпринимателей и топ-менеджеров и их сообществ, который помогает им налаживать связи и профессионально развиваться.\n\nНам очень не хватает фронтенд-специалиста с опытом, который поможет закрывать в том числе и архитектурные задачи. Не архитектурой единой — код тоже писать нужно, а также проводить код ревью. В команде есть тимлид, который поможет во всём разобраться.\n\nНаш идеальный кандидат сделал на Vue несколько проектов, которые работают в продакшене. Среди этих проектов — один или несколько больших. Опыт работы с Javascript в целом — от 3 лет.\n\nНазвание компании: Yodvisor\n\nКонтакты: @arutyunov или +7-951-657-01-10","markup":[{"type":"hashtag","offset":0,"length":9,"data":"вакансия"},{"type":"hashtag","offset":10,"length":4,"data":"vue"},{"type":"hashtag","offset":15,"length":6,"data":"vuejs"},{"type":"hashtag","offset":22,"length":11,"data":"typescript"},{"type":"hashtag","offset":34,"length":9,"data":"удалёнка"},{"type":"hashtag","offset":44,"length":9,"data":"удаленка"},{"type":"handle","offset":911,"length":10,"data":"arutyunov"},{"type":"link","offset":926,"length":16,"data":"tel:+7-951-657-01-10"}],"date":"2020-04-07T18:35:19+00:00","link":"tg://resolve?domain=javascript_jobs_feed&post=15455","tags":[{"name":"javascript"},{"name":"vuejs"},{"name":"typescript"}],"cities":[],"allowsRemote":true}},{"node":{"id":"1979711488-1001134745498","title":"Devops инженер","text":"#вакансия #DevOps #Москва\nФормат: #fulltime #office #remote\nЗарплатная вилка: 170 000 - 230 000\n\n#aurigajob для DevOps инженера в проект по разработке и внедрению автоматизированного сервиса взаимодействия учетных систем заказчика (преимущественно на базе SAP) и налоговой службы. Заказчик - крупная и (что сейчас особенно важно😉 ) стабильная компания в нефтегазовой сфере. \n\n✅ На проекте вас ждет:\n-  Создание, настройка и поддержка инфраструктуры решения :\nLinux (Red Hat, CentOs, Debian, AstraLinux) – установка, настройка, сопровождение\nNginx – установка, настройка\nPostgreSql – установка, настройка, тюнинг (репликация, шардирование, бэкапирование, отказоустойчивый кластер)\nAnsible – разработка и сопровождение скриптов развертывания\nGit Lab CI – установка, настройка, настройка пайплайнов сборки и развертывания\nTarantool – установка, сопровождение\nPrometheus, Grafana – мониторинг\nELK\n-  Участие в проектировании технической архитектуры решения\n- Настройка и сопровождение конвейера CI/CD\n- Исследование и выбор подходящих для системы инфраструктурных компонентов\n- Расчет сайзинга системы под требования заказчика\n- Оптимизация производительности\n \n✴️ Мы предлагаем:        \n- На время режима самоизоляции - удаленка, потом в период испытательного срока офис на м. Аэропорт, а дальше как вам больше нравится. \n- Заработную плату, выплачиваемую день-в-день, и ежегодные индексации.\n- Бесплатное обучение английскому языку, возможно, в режиме скайп-групп от внутреннего преподавателя, упор на разговорную практику.\n- Хорошая корпоративная программа ДМС со стоматологией, скорой помощью, вызовом врача на дом и льготным подключением родственников в лучших клиниках региона.\n- Один из плюсов аутсорсинговой компании - это множество интересных проектов и современных технологий. Нам важно, чтобы наши сотрудники находили себе проект по душе.\n- Мы очень ценим наш коллектив, микроклимат и домашнюю атмосферу.\n\n👍Нам нужен инженер сейчас, оформляем по ТК РФ удаленно, обмениваемся документами с помощью курьера.\n\nСмело пиши, если даже просто спросить :-) \n@Maria_Auriga\n\n—\n\n👉 Обсуждение вакансии в чате @devops_jobs","markup":[{"type":"hashtag","offset":0,"length":9,"data":"вакансия"},{"type":"hashtag","offset":10,"length":7,"data":"DevOps"},{"type":"hashtag","offset":18,"length":7,"data":"Москва"},{"type":"hashtag","offset":34,"length":9,"data":"fulltime"},{"type":"hashtag","offset":44,"length":7,"data":"office"},{"type":"hashtag","offset":52,"length":7,"data":"remote"},{"type":"hashtag","offset":97,"length":10,"data":"aurigajob"},{"type":"handle","offset":2059,"length":13,"data":"Maria_Auriga"},{"type":"handle","offset":2107,"length":12,"data":"devops_jobs"}],"date":"2020-04-07T16:22:31+00:00","link":"tg://resolve?domain=devops_jobs_feed&post=1888","tags":[{"name":"linux"},{"name":"centos"},{"name":"debian"},{"name":"nginx"},{"name":"postgresql"},{"name":"ansible"},{"name":"git"}],"cities":[{"code":"moscow"}],"allowsRemote":true}},{"node":{"id":"1426063360-1001091028994","title":"Java разработчик","text":"#разработчик #вакансия #java #developer #удаленка #офис #екб #разработка \n\nВ команду, которая производит и внедряет ПО для учета человеческих ресурсов (для HR, ага 😉), нужен классный Разработчик Java (удаленно или в офис в Екатеринбурге).\n\nСтэк:\n🔸java8, Druid (для больших данных), Hadoop;\n🔸LPSolve (для математических расчетов)\n\nЗадачи:\n🔸Разработка компонентов, приложений и интерфейсов;\n🔸Интеграции с внешними системами с помощью rabbitmq и ASM\n🔸Участие в разработке архитектуры \n🔸Написание технической документации (совместно с архитектором и техническим писателем)\n🔸Разработка побочного продукта\n🔸Разработка бэкенда системы\n\nНаши преимущества:\n🔸единый стэк для всех продуктов\n🔸почти нет легаси \n🔸низкая вертикаль (максимум 1 человек до директора) \n\nТребования:\n🔸Глубокие познания java\n🔸Уровень middle/senior\n\nЗарплата: 80 000 – 200 000 руб/мес в зависимости от вашего уровня, белая👌\n\nКонтакты и вопросы 👉 @DaryaShevelyova , darya_shevelyova@bk.ru","markup":[{"type":"hashtag","offset":0,"length":12,"data":"разработчик"},{"type":"hashtag","offset":13,"length":9,"data":"вакансия"},{"type":"hashtag","offset":23,"length":5,"data":"java"},{"type":"hashtag","offset":29,"length":10,"data":"developer"},{"type":"hashtag","offset":40,"length":9,"data":"удаленка"},{"type":"hashtag","offset":50,"length":5,"data":"офис"},{"type":"hashtag","offset":56,"length":4,"data":"екб"},{"type":"hashtag","offset":61,"length":11,"data":"разработка"},{"type":"italic","offset":75,"length":89,"data":""},{"type":"italic","offset":166,"length":18,"data":""},{"type":"bold","offset":184,"length":16,"data":""},{"type":"italic","offset":200,"length":41,"data":""},{"type":"bold","offset":241,"length":6,"data":""},{"type":"bold","offset":333,"length":8,"data":""},{"type":"bold","offset":638,"length":19,"data":""},{"type":"bold","offset":765,"length":12,"data":""},{"type":"bold","offset":827,"length":8,"data":""},{"type":"bold","offset":903,"length":18,"data":""},{"type":"handle","offset":925,"length":16,"data":"DaryaShevelyova"},{"type":"link","offset":944,"length":22,"data":"mailto:darya_shevelyova@bk.ru"}],"date":"2020-04-07T14:09:10+00:00","link":"tg://resolve?domain=jvmjobs&post=1360","tags":[{"name":"java"},{"name":"jvm"},{"name":"hadoop"},{"name":"rabbitmq"}],"cities":[],"allowsRemote":true}},{"node":{"id":"24331157504-1001075660570","title":"Php программист","text":"📌Вакансия: #PHP developer на Битрикс\n📌ЗП: 40-50 тыс. (обсуждается с кандидатом)\n📌Занятость: полная, офис (Томск) или удаленно\n📌Компания: Промресурс (hh.ru/employer/2140160)\n\nНа данный момент у нас функционирует 50 сайтов с абсолютно разными категориями товаров, разработанных в разное время на разных платформах.\n\nМы занимаемся продажами инновационной техники: квадрокоптеры, гироскутеры, смарт-часы, микронаушники, 3D ручки и многого другого.\n\nРаботаем по всей России и ближнему зарубежью. Мы активно развиваемся и формируем свой it-отдел.\n\n👆Задачи:\n• Сопровождение и развитие текущего проекта.\n• Реализация поставленных технических заданий.\n• Работа и усовершенствование существующей ERP системы на Битриксе.\n\n👍Что мы готовы предложить:\n• График работы 5/2, режим работы может быть, как с 8 до 17, так и с 13 до 22. Обсуждаем на собеседовании.\n• Оформление согласно ТК РФ.\n• Стабильная и своевременная выплата заработной платы.\n• Молодой, дружный коллектив.\n• Испытательный срок – 1 месяц.\n\n🔥Наши ожидания:\n• Знание 1С-Битрикс. Хорошее знание PHP.\n• Умение разбираться в чужом коде и качественно комментировать свой.\n• Важное качество — аккуратность.\n\nПлюсом будет:\n\n• HTML5, CSS3, JS, jQuery.\n• Яндекс api, google adwords/analytics api, vk api.\n• Гибкость мышления и понимание, когда уместно применить \"ad-hoc решение\", а когда нужно поднять вопрос серьезного рефакторинга.\n• Опыт оптимизации производительности сайта.\n• Опыт проведения технических оптимизаций сайтов для SEO.\n• Опыт работы с базами данных, развертывание, написание запросов, работа с таблицами.\n\nНе болейте)\n#работа_программист_битрикс, #вакансия_php","markup":[{"type":"hashtag","offset":12,"length":4,"data":"PHP"},{"type":"link","offset":153,"length":22,"data":"http://hh.ru/employer/2140160"},{"type":"hashtag","offset":1586,"length":27,"data":"работа_программист_битрикс"},{"type":"hashtag","offset":1615,"length":13,"data":"вакансия_php"}],"date":"2020-04-07T11:34:56+00:00","link":"tg://resolve?domain=php_jobs&post=23204","tags":[{"name":"php"},{"name":"html"},{"name":"css"},{"name":"jquery"},{"name":"seo"}],"cities":[{"code":"tomsk"}],"allowsRemote":true}},{"node":{"id":"1975517184-1001134745498","title":"Devops engineer","text":"#вакансия #fulltime #devops #удалёнка\n\n💫Компания: i-techlabs\n\nЯ ищу опытного DevOps Engineer на проект по созданию Playtech Open Platform (POP) и игровой платформы как услуги (GPAS). \nОбе платформы построены с использованием архитектуры реактивных микроуслуг и написаны на языке программирования Scala.\nОни используют базу данных No-SQL Couchbase для сохранения и хранения данных.\n\n☕️Условия:\n\n• Вилка по зп 150 000 р.-200 000+р.\n• Удалённая работа\n• Полный день\n• Гибкий график\n\n💻Требования:\n\n• Более 3 лет опыта в DevOps или администрировании Linux\n• Хороший набор навыков Linux\n• Опыт работы с контейнерами Docker (сборка и развертывание)\n• Навыки программирования на Python / Bash\n• Jenkins\n• Управление Java-приложениями\n• Intermediate English \n\n➕Плюсом:\n• Mirantis\n• Kubernetes\n• Akka cluster\n• Couchbase\n• Elasticsearch\n• Grafana\n• Prometheus\n\n☎️ Контакт: @coderhunt Надежда\n\n—\n\n👉 Обсуждение вакансии в чате @devops_jobs","markup":[{"type":"hashtag","offset":0,"length":9,"data":"вакансия"},{"type":"hashtag","offset":10,"length":9,"data":"fulltime"},{"type":"hashtag","offset":20,"length":7,"data":"devops"},{"type":"hashtag","offset":28,"length":9,"data":"удалёнка"},{"type":"handle","offset":865,"length":10,"data":"coderhunt"},{"type":"handle","offset":918,"length":12,"data":"devops_jobs"}],"date":"2020-04-07T11:32:53+00:00","link":"tg://resolve?domain=devops_jobs_feed&post=1884","tags":[{"name":"scala"},{"name":"sql"},{"name":"linux"},{"name":"docker"},{"name":"python"},{"name":"bash"},{"name":"jenkins"},{"name":"java"},{"name":"kubernetes"},{"name":"akka"},{"name":"elasticsearch"}],"cities":[],"allowsRemote":true}}]}},"context":{}}