{"hash":"f5f6bf98bd95e769321482904cbbd488f77922fd","data":{"records":{"id":"hibernate","name":"hibernate","belongsTo":{"totalCount":34,"pageInfo":{"totalPages":4,"currentPage":1},"edges":[{"node":{"__typename":"Job","id":"1776287744-1001091028994","title":"Java разработчик","text":"#вакансия #senior #middle #Сбербанк #java #spring #fulltime #офис #agile #backend\nКомпания: ПАО «Сбербанк»\nЛокация: Москва, м. Кутузовская (Agile home)\nЗ/п: от 180-280К на руки (в зависимости от уровня) + достойные годовые премии\nКонтакты: @tdurnicina TVlDurnitsyna@sberbank.ru\n\nДрузья! Мы в поисках Java разработчиков уровня middle и senior в новое небанковское приложение для клиента. Это уникальная возможность присоединиться к разработке серьёзного продукта в командах с атмосферой стартапа🙂 Вас ждут интересные задачи, свежий стек: Java 11, Spring, Hibernate, многомодульность и никакого легаси🔥 \n!Также готовы рассмотреть кандидатов уровня junior+ при наличии опыта коммерческой разработки.\n\nНаш Agile home это: пин понг, пул, кикер, библиотека, кофемашины на этажах, бесплатный спорт зал и подземный паркинг.\nЕсть отличный корпоративный университет, программы обучения в т.ч. за рубежом, конференции, митапы.\n🔥 Льготная ипотека и ДМС. \n\nРассмотрим кандидатов из других городов и стран. И конечно гибкое начало рабочего дня, куда без него.","markup":[{"type":"hashtag","offset":0,"length":9,"data":"вакансия"},{"type":"hashtag","offset":10,"length":7,"data":"senior"},{"type":"hashtag","offset":18,"length":7,"data":"middle"},{"type":"hashtag","offset":26,"length":9,"data":"Сбербанк"},{"type":"hashtag","offset":36,"length":5,"data":"java"},{"type":"hashtag","offset":42,"length":7,"data":"spring"},{"type":"hashtag","offset":50,"length":9,"data":"fulltime"},{"type":"hashtag","offset":60,"length":5,"data":"офис"},{"type":"hashtag","offset":66,"length":6,"data":"agile"},{"type":"hashtag","offset":73,"length":8,"data":"backend"},{"type":"handle","offset":240,"length":11,"data":"tdurnicina"},{"type":"link","offset":252,"length":25,"data":"mailto:TVlDurnitsyna@sberbank.ru"}],"date":"2020-07-03T08:36:26+00:00","link":"tg://resolve?domain=jvmjobs&post=1694","tags":[{"name":"java"},{"name":"jvm"},{"name":"spring"},{"name":"hibernate"}],"cities":[{"code":"moscow"}],"allowsRemote":false}},{"node":{"__typename":"Job","id":"1775239168-1001091028994","title":"Java разработчик","text":"#middle #senior #Java #Spring #backend #developer #вакансия \nЛокация: Cанкт-Петербург\nЗанятость: полная, гибкое начало дня\n*до окончания пандемии работа удаленная, далее работа в офисе\nЗ/п: 130 – 200 k net.\nКомпания: CSI\nКонтакты: @Danny_Ushakova\nМы продуктовая компания CSI, создающая решения для автоматизации торговых сетей.  \nМы ищем крутых разработчиков, ответственных за собственный код, любящих тесты и понимающих важность unit тестов. Разработчиков, которые с радостью забывают про бюрократию, которые умеют защищать собственные решения и хотят сделать этот мир лучше!  \n💥JAVA developer (высоконагруженные сервисы лояльности)  \nКлючевой задачей будет разработка нового и доработка нашего продукта -  существующего функционала системы Set Retail 10. \n🔵Стек:\n• Java от 2 лет.\n• Spring (Web, Data, Cloud), Kafka.\n• Опыт разработки микросервисов.\n• Опыт проектирования базы данных.\n• SQL (желательно PostgreSQL), JDBC, Hibernate.\n• Git, Gradle.\n🔵Будет плюсом:\n• Опыт работы с J2EE (EJB3, JAX-WS, JAXB, JPA2).\n• Знание Linux.\n• Опыт работы с Redis, MongoDB, Docker, Hashicorp Nomad, Ansible.\n\nМы предлагаем:\n• возможность каждый день видеть результаты своей работы;\n• официальное оформление, белая зарплата, отпуск согласно ТК РФ;\n• гибкий график работы;\n• ДМС со стоматологией, 100% оплата больничных;\n• курсы английского языка в офисе;\n• посещение тренингов, конференций;\n• работа по Agile в команде высокопрофессиональных разработчиков;\n• возможности профессионального роста, четкая схема повышения зарплаты;\n• работа в современном и комфортном офисе в центре города (Чкаловcкий пр-т);\n• оборудованные столовые, чай, кофе, фрукты, печеньки и PlayStation;\n• командные тимбилдинги, футбольная команда.","markup":[{"type":"hashtag","offset":0,"length":7,"data":"middle"},{"type":"hashtag","offset":8,"length":7,"data":"senior"},{"type":"hashtag","offset":16,"length":5,"data":"Java"},{"type":"hashtag","offset":22,"length":7,"data":"Spring"},{"type":"hashtag","offset":30,"length":8,"data":"backend"},{"type":"hashtag","offset":39,"length":10,"data":"developer"},{"type":"hashtag","offset":50,"length":9,"data":"вакансия"},{"type":"handle","offset":231,"length":15,"data":"Danny_Ushakova"}],"date":"2020-07-02T15:12:35+00:00","link":"tg://resolve?domain=jvmjobs&post=1693","tags":[{"name":"java"},{"name":"jvm"},{"name":"spring"},{"name":"dotnet"},{"name":"web"},{"name":"cloud"},{"name":"kafka"},{"name":"sql"},{"name":"postgresql"},{"name":"jdbc"},{"name":"hibernate"},{"name":"git"},{"name":"gradle"},{"name":"jaxb"},{"name":"jpa"},{"name":"linux"},{"name":"redis"},{"name":"mongodb"},{"name":"docker"},{"name":"ansible"}],"cities":[],"allowsRemote":true}},{"node":{"__typename":"Job","id":"1774190592-1001091028994","title":"Java разработчик","text":"#москва #удаленка #fulltime #JavaDeveloper #Backend\n\nJava-разработчик/Backend Developer \n\nООО Криптериум (https://crypterium.com)\n\nЗп: 180.000-270.000 net\n\nПривет!\n\nМы команда Crypterium!\n\nМы международный финтех стартап.\n\nМы строим банк будущего, который поддерживает криптофиатные операции.\n\nНаша цель – создание сервиса, который фактически займёт место традиционных банков, по всем возможным банковским операциям!\n\nУ нас сложные, но интересные задачи по созданию крутого и по-настоящему полезного продукта для людей из разных стран по всему миру. Работа у нас реальная возможность приложить руку к крутому продукту, которым будет пользоваться большое количество людей.\n\nНа данный момент наша компания активно растет и развивается, в связи с этим мы ищем Backend Developer. Нам нужен по-настоящему про активный и ответственный сотрудник. Задач много, они разные и крайне интересны\n\n🟢Что предстоит делать?\n\n🔹Разработка бэкэнда финансового приложения;\n🔹Разработка платформенных микросервисов: интеграция с партнерами, аналитика, карточный процессинг, etc;\n🔹Разработка REST API для frontend\n\n🟢Какие skill’s мы хотим видеть в нашем будущем коллеге?\n\n🔹Java 8 (также желательно Kotlin);\n🔹Spring, Spring Cloud, Hibernate;\n🔹JUnit или другие фреймворки для тестирования;\n🔹Умение работать с SQL и не-SQL базами данных (у нас PostgreSQL);\n🔹Умение проектировать и реализовывать REST API;\n🔹Понимание микросервисной архитектуры;\n🔹Английский язык: умение читать и писать техническую документацию.\n🔹Понимание принципов работы tcp/ip, сетей передачи данных.\n🔹Умение писать тестируемый код;\n🔹Умение работать в команде и использовать соответствующие инструменты (git, jira, etc).\n\n🟢Преимущества:\n\n🔹Знание Kotlin;\n🔹Понимание принципов CI/CD;\n🔹Понимание, как работают основные сервисы AWS.\n\n🟢Что мы готовы предложить будущему коллеге?\n\n🔹По настоящему заряженная команда профессионалов\n🔹Офис м.Тульская\n🔹Удаленная работа, с возможностью приезжать в офис, гибкое начало рабочего дня (c 9 до 12)\n🔹Возможности профессионально развиваться и расти\n\n🔔Контакты:\n@kriskrisych Кристина","markup":[{"type":"hashtag","offset":0,"length":7,"data":"москва"},{"type":"hashtag","offset":8,"length":9,"data":"удаленка"},{"type":"hashtag","offset":18,"length":9,"data":"fulltime"},{"type":"hashtag","offset":28,"length":14,"data":"JavaDeveloper"},{"type":"hashtag","offset":43,"length":8,"data":"Backend"},{"type":"link","offset":106,"length":22,"data":"https://crypterium.com"},{"type":"handle","offset":2060,"length":12,"data":"kriskrisych"}],"date":"2020-07-02T15:08:19+00:00","link":"tg://resolve?domain=jvmjobs&post=1692","tags":[{"name":"java"},{"name":"jvm"},{"name":"dotnet"},{"name":"rest"},{"name":"kotlin"},{"name":"spring"},{"name":"cloud"},{"name":"hibernate"},{"name":"junit"},{"name":"sql"},{"name":"postgresql"},{"name":"git"},{"name":"amazon-web-services"}],"cities":[{"code":"moscow"}],"allowsRemote":true}},{"node":{"__typename":"Job","id":"1771044864-1001091028994","title":"Java разработчик","text":"#java#middle#senior#J#developer#telecom\nЛокация: Москва, Нижний Новгород, Россия\nЗанятость: офис, полная, удаленная\nЗ/п: от 120 000 рублей на руки\nКомпания: ГК INTECH\n\nКонтакты: @vkechatova\n\nINTECH – IT компания, контент и сервис провайдер на рынке телекома России и стран СНГ, разработчик инновационных идей для мобильной и WEB индустрии. Мы работаем с операторами сотовой связи не только в России, но и в странах СНГ и Вьетнаме.\n\nПримеры наших проектов:\nПроект «Глаголь» - Платформа создания и управления высоко нагружёнными видео конференциями с мобильными приложениями.\nОблачная АТС - Решение облачной телефонии для корпоративных клиентов;\nСтриминговая платформа - Видео, аудио стриминговые решения для работы с ТВ трансляциями;\nВидео Истории - Платформа для видеозвонков и для проигрывания пользовательских и коммерческих видео роликов на экране мобильного телефона во время вызова и т.д.\n\nЗадачи:\n•  Разработка голосовых и SMS/USSD сервисов для сотовых операторов;\n•  Сопровождение существующие продуктов и разработка новых.\n\nДля работы потребуется:\n•  Опыт разработки от 3-х лет;\n•  Уверенное знание Java Core, Multithreading, Collections;\n•  Уверенные навыки работы с реляционными базами данных;\n•  Опыт работы с JPA, Hibernate\n•  Опыт работы с Spring (MVC, Data)\n•  Опыт работы с ОС Linux;\n•  Опыт работы с системой контроля версий;\n•  Навыки работы с JUnit - приветствуются.\n\nПлюсом будет:\n•  Опыт работы в телеком (SIP, SS7).\n\nМы предлагаем:\n•  Официальное трудоустройство, полностью официальная заработная плата;\n•  Белая заработная плата - полностью зависит от квалификации кандидата и обсуждается на интервью;\n•  Возможность карьерного и профессионального роста;\n•  Возможность предлагать и реализовывать собственные идеи;\n•  Работа в профессиональной команде разработчиков;\n•  Обучение в процессе работы;\nА также:\n•  Гибкая мотивационная программа;\n•  Ежегодные корпоративные мероприятия и удобный формат работы (современные офисы в Москве, Нижнем Новгороде, или удаленно).","markup":[{"type":"handle","offset":178,"length":11,"data":"vkechatova"}],"date":"2020-07-02T06:59:13+00:00","link":"tg://resolve?domain=jvmjobs&post=1689","tags":[{"name":"java"},{"name":"jvm"},{"name":"web"},{"name":"jpa"},{"name":"hibernate"},{"name":"spring"},{"name":"linux"},{"name":"junit"},{"name":"spring-mvc"}],"cities":[{"code":"moscow"},{"code":"nizhny-novgorod"}],"allowsRemote":true}},{"node":{"__typename":"Job","id":"1763704832-1001091028994","title":"Java разработчик","text":"#Java #developer #Сочи #fulltime #работа #офис \n\nВакансия: Java-разработчик\n\nГород: Сочи\n\nФормат работы: офис\n\nЗанятость: fulltimе\n\nЗарплатная вилка: от 130 000 до 150 000 рублей\n\nОписание вакансии:\nСоздание системы по управлению метаданными компании. Работа в кроссфункциональной команде в составе до 10 человек\n\nНазвание компании: ОЦРВ\n\nПримерный пул задач:\n•  Разработка системы по управлению метаданными\n•  Участие в построение архитектуры решения\n•  Разработка интеграционных сценариев с другими системами\n•  Подготовка инструкций и документации\n\n\nНаши требования к кандидату: \n•  Аналитическое мышление, понимание работы алгоритмов, структур данных и оптимизации работы приложений\n•  Понимание паттернов проектирования, умение писать чистый читаемый код\n•  Знание Java SE (Core, Servlets, Exceptions)\n•  Опыт работы с Spring Framework (Boot, MVC, Data, Security), Hibernate ORM\n•  Опыт работы с веб-сервисами (SOAP, REST)\n•  Опыт работы с микросервисной архитектурой\n•  Опыт работы и развертывания приложений под Linux\n•  Опыт работы с очередями и брокерами сообщений (Kafka, Rabbit, ActiveMQ)\n•  Знание SQL\n•  Опыт работы с инструментами сборки Maven, Gradle\n•  Опыт работы с GIT\n\nБудет плюсом\n•  Опыт написания скриптов автоматизации для CI/CD (bash, python, Java, Groovy)\n•  Опыт работы с базами данных NoSQL (Janus Graph, HBase, Cassandra)\n•  Навыки frontend-разработки (HTML, CSS, React/Vue.js)\n•  Опыт работы с системами BPM или СЭД (Spring Activity, Camunda)\n•  Опыт работы с Apache Atlas, ODPi Egeria\n\n\n\nНаш стек:\nБек: Java 8-11, Spring, PostgreSQL/HBase/MongoDB/JanusGraph, GIT, Docker, Kubernetes, Kafka\nФронт: Vue.js\n\nУсловия: \n•  Офис в Адлере в 10 минутах до моря\n•  Оклад: 130 000 - 150 000 руб. gross\n•  Компенсация проживания 20 000 руб. gross в месяц (для кандидатов из других регионов)\n•  Релокационный бонус в размере оклада (для кандидатов из других регионов)\n•  Премия до 30% годового оклада\n•  Работа в динамичной команде единомышленников\n•  Компенсация ДМС после прохождения испытательного срока\n•  Скидки на ДМС для родственников\n•  Компенсация мобильной связи\n•  Новейшее оборудование и просторный офис\n•  Лучшая экология и климат в России\n•  Море и горнолыжный курорт рядом\n\n\nКомпания: ОЦРВ\nСайт: http://www.ocrv.ru/\nКонтакты: @Mirovan","markup":[{"type":"hashtag","offset":0,"length":5,"data":"Java"},{"type":"hashtag","offset":6,"length":10,"data":"developer"},{"type":"hashtag","offset":17,"length":5,"data":"Сочи"},{"type":"hashtag","offset":23,"length":9,"data":"fulltime"},{"type":"hashtag","offset":33,"length":7,"data":"работа"},{"type":"hashtag","offset":41,"length":5,"data":"офис"},{"type":"link","offset":2229,"length":19,"data":"http://www.ocrv.ru/"},{"type":"handle","offset":2259,"length":8,"data":"Mirovan"}],"date":"2020-06-29T11:37:47+00:00","link":"tg://resolve?domain=jvmjobs&post=1682","tags":[{"name":"java"},{"name":"jvm"},{"name":"spring"},{"name":"hibernate"},{"name":"orm"},{"name":"soap"},{"name":"rest"},{"name":"linux"},{"name":"kafka"},{"name":"rabbitmq"},{"name":"sql"},{"name":"maven"},{"name":"gradle"},{"name":"git"},{"name":"bash"},{"name":"python"},{"name":"groovy"},{"name":"nosql"},{"name":"hbase"},{"name":"cassandra"},{"name":"html"},{"name":"css"},{"name":"reactjs"},{"name":"vuejs"},{"name":"apache"},{"name":"postgresql"},{"name":"mongodb"},{"name":"docker"},{"name":"kubernetes"}],"cities":[{"code":"sochi"}],"allowsRemote":false}},{"node":{"__typename":"Job","id":"1761607680-1001091028994","title":"Java разработчик","text":"#javaвакансия #javaspring #senior #middle #полнаязанятость\nДобрый день!\nВ настоящий момент нахожусь в поисках ведущего разработчика Java (backend) для международной аутсорсинговой компании (проекты банковского направления).\n160-300 K, Москва, ст.м. Динамо\nСтэк: Java 8, Spring, Spring (Boot, Cloud), Hibernate, SQL, Микросервисы, DevOps, REST-сервисы. \nУсловия: 160 – 300.000 рублей, полностью «белая» заработная плата. В компании регулярно проводится корпоративное обучение, сертификация в технических и бизнес-областях. Помощь в релокации.\nБуду рада ответить на Ваши вопросы: @LyKatrin, ekaterina706712@mail.ru","markup":[{"type":"hashtag","offset":0,"length":13,"data":"javaвакансия"},{"type":"hashtag","offset":14,"length":11,"data":"javaspring"},{"type":"hashtag","offset":26,"length":7,"data":"senior"},{"type":"hashtag","offset":34,"length":7,"data":"middle"},{"type":"hashtag","offset":42,"length":16,"data":"полнаязанятость"},{"type":"handle","offset":578,"length":9,"data":"LyKatrin"},{"type":"link","offset":589,"length":23,"data":"mailto:ekaterina706712@mail.ru"}],"date":"2020-06-29T11:14:55+00:00","link":"tg://resolve?domain=jvmjobs&post=1680","tags":[{"name":"java"},{"name":"jvm"},{"name":"spring"},{"name":"cloud"},{"name":"hibernate"},{"name":"sql"},{"name":"rest"},{"name":"spring-boot"}],"cities":[{"code":"moscow"}],"allowsRemote":false}},{"node":{"__typename":"Job","id":"1760559104-1001091028994","title":"Java разработчик","text":"#вакансия #удаленка #Java\n\nВакансия: Backend Java разработчик (middle, senior)\n\nЛокация: #Москва #удаленка\nВилка по ЗП: middle до 170 000 net, senior до 200 000 net)\nКонтакт: @Hr_Dina\nОсновной проект: Разработка подсистемы обеспечения юридической значимости электронного документооборота.\nСтек технологий: Java 11, Spring (Core, Boot, Security, Data), JPA (Hibernate), PostgreSQL, Angular, Ant-design, Docker.\n\nЧто нужно делать:\nBack-end - разработка проектов разных масштабов и направленности, в том числе проектов с \"нуля\"\nРефакторинг, оптимизация и модернизация кода существующих проектов\nУчастие в разработке архитектуры проекта\nРабота с разными проектными командами архитекторов, разработчиков и тестировщиков\n\nЧто мы ждем от вас:\nОпыт работы (обязательный):\nОпыт коммерческой разработки на Java от 3х лет.\nОпыт работы (желательный):\nОпыт разработки высоконагруженных приложений на Java от 1го года.\n\nНавыки (обязательные):\n- Java SE 8+ (Core, Collections, Multithreading);\n- Spring (Core, Boot, Security, Data);\n- ORM: Hibernate/JOOQ;\n- Кеши (Ehcache/Redis/Hazelcast/Ignite/GridGain/etc);\n- Очереди (Kafka/RabbitMQ/ActiveMQ/etc);\n- Проектирование REST API (Swagger);\n- БазыданныхPostgre/Oracle\n- Maven, Git\n\nНавыки (желательные):\n- OAuth, OpenId, SSO/SAML, WS-Security, PKI, Kerberos;\n- Docker\n- GitLab, Sonar","markup":[{"type":"hashtag","offset":0,"length":9,"data":"вакансия"},{"type":"hashtag","offset":10,"length":9,"data":"удаленка"},{"type":"hashtag","offset":20,"length":5,"data":"Java"},{"type":"bold","offset":27,"length":9,"data":""},{"type":"bold","offset":80,"length":8,"data":""},{"type":"hashtag","offset":89,"length":7,"data":"Москва"},{"type":"hashtag","offset":97,"length":9,"data":"удаленка"},{"type":"bold","offset":107,"length":12,"data":""},{"type":"bold","offset":166,"length":8,"data":""},{"type":"handle","offset":175,"length":8,"data":"Hr_Dina"},{"type":"bold","offset":184,"length":16,"data":""},{"type":"bold","offset":289,"length":16,"data":""},{"type":"bold","offset":411,"length":18,"data":""},{"type":"bold","offset":716,"length":20,"data":""},{"type":"bold","offset":906,"length":23,"data":""},{"type":"bold","offset":1214,"length":22,"data":""}],"date":"2020-06-29T11:03:15+00:00","link":"tg://resolve?domain=jvmjobs&post=1679","tags":[{"name":"java"},{"name":"jvm"},{"name":"dotnet"},{"name":"spring"},{"name":"jpa"},{"name":"hibernate"},{"name":"postgresql"},{"name":"angularjs"},{"name":"ant"},{"name":"docker"},{"name":"orm"},{"name":"redis"},{"name":"kafka"},{"name":"rabbitmq"},{"name":"rest"},{"name":"swagger"},{"name":"oracle"},{"name":"maven"},{"name":"git"},{"name":"oauth"},{"name":"gitlab"}],"cities":[{"code":"moscow"}],"allowsRemote":true}},{"node":{"__typename":"Job","id":"1757413376-1001091028994","title":"Java разработчик","text":"#Middle #Java #Developer\nЛокация: #удаленка #офис (Москва)\nЗ/п: 100 000 – 150 000 Net\nКонтакт: @Elena19_10Kom\n\nНаша компания занимается разработкой программного обеспечения в сфере аффилированного маркетинга, оказывает сервис, связанный с обслуживанием клиентов, генерирующих трафик для различных зарубежных проектов.\nМы запускаем очередной новый проект. Цель проекта - получить современный портал в области теннисного спорта. Это должна быть мощная платформа, которая превзойдет по удобству и современности все существующие на данный момент платформы этой тематики.\nПроект стартует с \"0\", поэтому предоставляется уникальная возможность начать \"все с самого начала\", а не разбираться и пилить Legacy код.\n\nОбязанности:\n•  разработка и сопровождение веб-проектов\n•  модульное и интеграционное тестирование\n•  системная интеграция и развертывание приложений\n•  обеспечение технической поддержки второго и третьего уровня\nТребования:\n•  опыт коммерческой разработки на java от 3-х лет\n•  знание Spring Framework (в т.ч. SpringBoot, SpringData, SpringSecurity)\n•  знание ORM (JPA или Hibernate)\n•  опыт работы с RDBMS, желательно PostgreSQL\n•  опыт работы по практикам Agile, DevOps, CI/CD\n•  знание Java Core, collections, multithreading, concurrency, generics, reflection\n•  знание и понимание основных принципов ООП\n•  знание паттернов проектирования\n•  умение писать качественный и понятный код\n•  английский – уровень Intermediate\nБудет плюсом:\n•  опыт разработки на Playframework, Akka, Akka-Persistence\n•  опыт работы Full-Stack разработчиком на React/Redux\n•  опыт работы в команде\n•  знание Apache Cassandra\n•  опыт работы с Docker и Kubernetes\n•  опыт работы с микросервисной архитектурой\n•  опыт работы c AWS или другими Cloud платформами\n•  понимание принципов работы HTTP, Websockets\n•  понимание принципов работы stream-processing, reactive, CQRS\n•  наличие примеров кода на GitHub\n•  опыт администрирования Linux\nУсловия:\n•  зарплату обсуждаем\n•  оформление по ТК РФ\n•  можно работать удаленно или в комфортном офисе, который находится в пешей доступности от м. Динамо, с панорамным видом на Москву, на 25 этаже бизнес-центра класса \"А\"\n•  гибкое начало рабочего дня\n•  работа на MacBook air\n•  выделение бюджета для каждого сотрудника на развитие как профессиональных навыков (английский язык, курсы повышения квалификации), так и физических возможностей (корпоративный фитнес)","markup":[{"type":"hashtag","offset":0,"length":7,"data":"Middle"},{"type":"hashtag","offset":8,"length":5,"data":"Java"},{"type":"hashtag","offset":14,"length":10,"data":"Developer"},{"type":"hashtag","offset":34,"length":9,"data":"удаленка"},{"type":"hashtag","offset":44,"length":5,"data":"офис"},{"type":"handle","offset":95,"length":14,"data":"Elena19_10Kom"}],"date":"2020-06-29T10:38:58+00:00","link":"tg://resolve?domain=jvmjobs&post=1676","tags":[{"name":"java"},{"name":"jvm"},{"name":"dotnet"},{"name":"spring"},{"name":"orm"},{"name":"jpa"},{"name":"hibernate"},{"name":"postgresql"},{"name":"playframework"},{"name":"akka"},{"name":"reactjs"},{"name":"redux"},{"name":"apache"},{"name":"cassandra"},{"name":"docker"},{"name":"kubernetes"},{"name":"amazon-web-services"},{"name":"cloud"},{"name":"github"},{"name":"linux"},{"name":"react-redux"}],"cities":[{"code":"moscow"}],"allowsRemote":true}},{"node":{"__typename":"Job","id":"1750073344-1001091028994","title":"Java разработчик","text":"#java #fulltime\n\nНа проект от одного из лидирующих российских банков требуется\nMiddle Java Developer (backend)\n\nЛокация: Москва, ул. Сретенка\nФормат работы: Офис\nЗанятость: полная\n\nВилка зп: 200 000 рублей/месяц нетто\n\nСтек: \nSpring, Hibernate, Maven, JMS, REST, SOAP, Git, Jenkins, UML, TestNG.\n\nТребования: \n- Опыт от 2х лет разработки высоко-нагруженных и отказоустойчивых фронтальных систем.\n- Знание основных методологий разработки программного обеспечения, включая гибкие методологии.\n- Опыт командной разработки.\n- Умение разбираться в чужом коде, писать чистый и понятный код для других разработчиков, опыт написания автотестов.\n- Уверенное знание Java Core (типы данных, Collections Framework, JMM...)\n- Знание парадигм ООП и их реализации в Java.\n- Знание структур данных и алгоритмов.\n- Знание шаблонов проектирования (GoF)\n\nКонтакт: @mxm_at","markup":[{"type":"hashtag","offset":0,"length":5,"data":"java"},{"type":"hashtag","offset":6,"length":9,"data":"fulltime"},{"type":"handle","offset":845,"length":7,"data":"mxm_at"}],"date":"2020-06-27T12:39:42+00:00","link":"tg://resolve?domain=jvmjobs&post=1669","tags":[{"name":"java"},{"name":"jvm"},{"name":"spring"},{"name":"hibernate"},{"name":"maven"},{"name":"rest"},{"name":"soap"},{"name":"git"},{"name":"jenkins"}],"cities":[{"code":"moscow"}],"allowsRemote":false}},{"node":{"__typename":"Job","id":"1743781888-1001091028994","title":"Java разработчик","text":"#вакансия #java # Senior #middle #Москва \nГород: Москва, метро Тульская\nФормат работы: full-time, офис ( сейчас удаленно)\nЗарплатная вилка: 180 -300к рублей на руки ( + годовой бонус) – в зависимости от вашего опыта\nКонтакты: @vsevkosmo\nКомпания: Сбербанк\nSenior Java Разработчик\nРазвитие функциональности брокерского обслуживания для физических и юридических лиц.\nТехнические требования:\nХорошие знания Java Core\nОпыт работы с ORM(Hibernate/Jooq)\nУмение писать и оптимизировать SQL-запросы\nУверенное знание Spring Framework\nОпыт работы с системой контроля версий: Git/Mercurial\nХорошее понимание принципов ООП\nТехнический английский\n\nПреимуществом будет:\nОпыт работы с Docker/Openshift\nОпыт работы с Spring Boot\nОпыт работы с Istio\nОпыт работы с Kafka\nНавыки работы в Linux системах.\nОпыт разработки высоконагруженных сервисов;\nЗнание Gradle\n\nОбязанности:\nРазработка серверных приложений на Java\nРазработка новой функциональности\nРазработка архитектуры \nНаписание unit-тестов\nОптимизация и рефакторинг кода\nРевью кода","markup":[{"type":"hashtag","offset":0,"length":9,"data":"вакансия"},{"type":"hashtag","offset":10,"length":5,"data":"java"},{"type":"hashtag","offset":25,"length":7,"data":"middle"},{"type":"hashtag","offset":33,"length":7,"data":"Москва"},{"type":"handle","offset":226,"length":10,"data":"vsevkosmo"}],"date":"2020-06-26T06:49:08+00:00","link":"tg://resolve?domain=jvmjobs&post=1663","tags":[{"name":"java"},{"name":"jvm"},{"name":"orm"},{"name":"hibernate"},{"name":"sql"},{"name":"spring"},{"name":"git"},{"name":"mercurial"},{"name":"docker"},{"name":"kafka"},{"name":"linux"},{"name":"gradle"},{"name":"spring-boot"}],"cities":[{"code":"moscow"}],"allowsRemote":true}}]}}},"context":{}}