{"hash":"f34fd2c444a074f4e0e67d525015a008ef8e766f","data":{"records":{"id":"dns","name":"dns","belongsTo":{"totalCount":12,"pageInfo":{"totalPages":2,"currentPage":1},"edges":[{"node":{"__typename":"Job","id":"98338603008-1001089317451","title":"Qa инженер","text":"#вакансия #москва #fulltime #фуллтайм #офис #тестировщик #qa \n\nОнлайн-кинотеатр ivi\n\nИнженер по автоматизации тестирования Android\nот 140 т.р. на руки \nНаш основной стек python+pytest (готовы рассматривать с другим стеком технологий) \n\nОбязанности:\n• Автоматизация функциональных и интеграционных тестов Android-приложений (ivi, Kids, приложение для Android TV);\n• Поддержка и доработка существующих фреймворков клиентского тестирования;\n• Разработка архитектурных тестовых решений.\n\nТребования:\n• Умение тестировать (составление тест-кейсов, структурный подход к планированию тестирования);\n• Опыт работы с *nix системами (Linux);\n• Знание bash/zsh на уровне пользователя (cd, mkdir, vim, grep, tail и т.п.);\n• Опыт программирования на любом из объектно-ориентированных языков программирования (Python, Java, Kotlin, C#, Swift);\n• Общее понятие о том, как работает клиент-серверные мобильные приложения: что такое DNS, HTTP(S), JSON, RESTful-сервисы;\n• Опыт работы с Appium, UI Automator или Espresso.\n\nУсловия:\n• Офис в 5 минутах ходьбы от м. \"Дмитровская\";\n• У нас гибкий график, мы начинаем до 11 часов дня;\n• Трудоустройство по ТК РФ;\n• ДМС + стоматология после прохождения испытательного срока;\n• Подписка на ivi;\n• Пакет релокации для соискателей со всей России.\n\nПишите @daria144, на почту dsereda@ivi.ru или откликайтесь здесь https://hh.ru/vacancy/35897596","markup":[{"type":"hashtag","offset":0,"length":9,"data":"вакансия"},{"type":"hashtag","offset":10,"length":7,"data":"москва"},{"type":"hashtag","offset":18,"length":9,"data":"fulltime"},{"type":"hashtag","offset":28,"length":9,"data":"фуллтайм"},{"type":"hashtag","offset":38,"length":5,"data":"офис"},{"type":"hashtag","offset":44,"length":12,"data":"тестировщик"},{"type":"hashtag","offset":57,"length":3,"data":"qa"},{"type":"bold","offset":63,"length":21,"data":""},{"type":"bold","offset":236,"length":13,"data":""},{"type":"bold","offset":484,"length":12,"data":""},{"type":"bold","offset":1004,"length":9,"data":""},{"type":"handle","offset":1278,"length":9,"data":"daria144"},{"type":"link","offset":1298,"length":14,"data":"mailto:dsereda@ivi.ru"},{"type":"link","offset":1336,"length":30,"data":"https://hh.ru/vacancy/35897596"}],"date":"2020-04-10T07:56:02+00:00","link":"tg://resolve?domain=qa_jobs&post=93783","tags":[{"name":"qa"},{"name":"android"},{"name":"python"},{"name":"linux"},{"name":"bash"},{"name":"vim"},{"name":"grep"},{"name":"java"},{"name":"kotlin"},{"name":"swift"},{"name":"dns"},{"name":"json"}],"cities":[{"code":"moscow"}],"allowsRemote":false}},{"node":{"__typename":"Job","id":"98199142400-1001089317451","title":"Qa engineer","text":"QA automation engineer (OpenStack)\n\nВсем привет!\n\n#вакансия #sbercloud #тестировщик # QAautomationengineer #QA #OpenStack #автоматизация #москва #офис #мск  #auto\n\n🏢Компания: SberCloud\n🏙Город: Москва, м. Боровицкая, м. Библиотека им Ленина, м. Александровский сад\n💰Зп: от 110к (обсуждается по результатам собеседования)\n\nФормат работы: офис \nЗанятость: полная\n\nSberCloud – облачный провайдер Группы Сбербанк, предоставляющий услуги для бизнес-клиентов на базе технологий Группы Сбербанк, одной из крупнейших технологических экосистем в России. Предоставляя клиентам передовые облачные технологии, совместимые с привычной для их бизнеса архитектурой ИТ-приложений, мы делаем возможным технологический прорыв. Мы создаем облачную платформу SberCloud, используя многолетний опыт развития ИТ-инфраструктуры Группы Сбербанк, обеспечения ее надежности, безопасности и эффективности в условиях стремительно растущих нагрузок и темпа изменений.\n\nОбязанности:\n✔️ Разрабатывать автотесты\n✔️ Участвовать в разработке и поддержке CI процесса\n✔️ Участвовать в функциональном, интеграционном, системном тестировании\n✔️ Проводить ручное и автоматизированное тестирование\n✔️ Анализировать результаты выполнения тестов\n✔️ Разрабатывать и поддерживать в актуальном состоянии тестовую документацию\n✔️ Работать с дефектами (обнаружение, анализ, контроль исправления)\n✔️ Взаимодействовать с другими отделами и членами команды для решения поставленных задач\n\nТребования:\n✔️ Понимание теории тестирования\n✔️ Опыт администрирования Linux/Windows серверов\n✔️ Опыт использования платформ виртуализации\n✔️ Опыт использования облачных платформ (OpenStack)\n✔️ Понимание сетевых технологий и протоколов (DNS, DHCP, VPN)\n✔️ Знание Python/других языков\n\nБудет плюсом:\n✔️ Знание фреймворков для автоматизации тестирования WEB UI\n✔️ Знание инструментов для тестирования REST API\n\nУсловия:\n✔️ Офис у м. Боровицкая, м. Библиотека им Ленина, м. Александровский сад\n✔️ ДМС + стоматология;\n✔️ Корпоративные скидки для сотрудников Группы Сбербанк;\n✔️ Льготные условия для кредитования;\n✔️ Гибкое начало рабочего дня.\n\n📲Контакты: aosamarov@sbercloud.ru или в лс (в телеге)","markup":[{"type":"hashtag","offset":50,"length":9,"data":"вакансия"},{"type":"hashtag","offset":60,"length":10,"data":"sbercloud"},{"type":"hashtag","offset":71,"length":12,"data":"тестировщик"},{"type":"hashtag","offset":107,"length":3,"data":"QA"},{"type":"hashtag","offset":111,"length":10,"data":"OpenStack"},{"type":"hashtag","offset":122,"length":14,"data":"автоматизация"},{"type":"hashtag","offset":137,"length":7,"data":"москва"},{"type":"hashtag","offset":145,"length":5,"data":"офис"},{"type":"hashtag","offset":151,"length":4,"data":"мск"},{"type":"hashtag","offset":157,"length":5,"data":"auto"},{"type":"link","offset":2093,"length":22,"data":"mailto:aosamarov@sbercloud.ru"}],"date":"2020-04-08T07:19:20+00:00","link":"tg://resolve?domain=qa_jobs&post=93650","tags":[{"name":"qa"},{"name":"linux"},{"name":"windows"},{"name":"dns"},{"name":"python"},{"name":"web"},{"name":"rest"}],"cities":[{"code":"moscow"}],"allowsRemote":false}},{"node":{"__typename":"Job","id":"1971322880-1001134745498","title":"Devops engineer","text":"DevOps engineer\n#вакансия #DevOps #noremote #fulltime \n\nВакансия: DevOps engineer\nКомпания: ДОМ.РФ / ООО «Цифровые технологии»\nГород: Москва. ст.м. Арбатская\nФормат работы: #офис\nЗанятость: #полная\nЗарплата : от 160 до 200 на руки.\n\nТебе предстоит:\n•  Поддержка ETL процессов;\n•  Участие в процессах внедрения ПО;\n•  Администрирование операционных систем *nix и общесистемного ПО;\n•  Развертывание и конфигурирование стендов под различные нужды;\n•  Решение возникающих проблем, устранение нештатных ситуаций;\n•  Участие в разработке конструкторской и эксплуатационной документации;\n•  Формирование требований к системе резервного копирования. \n\nЗдорово если у тебя есть:\n•  Знание серверной операционной системы Linux;\n•  Уверенное понимание принципов работы сетей TCP/IP: адресация, маршрутизация, стек протоколов, сетевые топологии, принципы работы VLAN, VPN, DNS, DHCP;\n•  Практический опыт автоматизации управления средами с применением docker, Kubernetes, ansible;\n•  Практический опыт разработки технологической или эксплуатационной документации;\n•  Практический опыт конфигурирования систем хранения данных (желательно);\n•  Практический опыт конфигурирования и администрирования общесистемного ПО: системы виртуализации, СУБД (PostgreSQL), серверы приложений, системы обработки сообщений, средства мониторинга и управления, elastic search;\n\nМы предлагаем:\n•  Комфортный офис в центре Москвы;\n•  Работа в высокопрофессиональной и эффективной команде, постоянное развитие;\n•  Конкурентный компенсационный пакет (ежеквартальная премия, ДМС, компенсация расходов на фитнес-абонемент до 20 т.р. в год);\n\n\nCV в ЛС плз)\nНа входе опишу, что конкретно нужно будет делать, что и как есть сейчас.\n\nКонтакт:\n@alekseytherecruiter\n\n—\n\n👉 Обсуждение вакансии в чате @devops_jobs","markup":[{"type":"hashtag","offset":16,"length":9,"data":"вакансия"},{"type":"hashtag","offset":26,"length":7,"data":"DevOps"},{"type":"hashtag","offset":34,"length":9,"data":"noremote"},{"type":"hashtag","offset":44,"length":9,"data":"fulltime"},{"type":"link","offset":92,"length":6,"data":"http://ДОМ.РФ"},{"type":"hashtag","offset":173,"length":5,"data":"офис"},{"type":"hashtag","offset":190,"length":7,"data":"полная"},{"type":"handle","offset":1703,"length":20,"data":"alekseytherecruiter"},{"type":"handle","offset":1758,"length":12,"data":"devops_jobs"}],"date":"2020-04-06T13:25:42+00:00","link":"tg://resolve?domain=devops_jobs_feed&post=1880","tags":[{"name":"linux"},{"name":"dns"},{"name":"docker"},{"name":"kubernetes"},{"name":"ansible"},{"name":"postgresql"},{"name":"elasticsearch"}],"cities":[{"code":"moscow"}],"allowsRemote":true}},{"node":{"__typename":"Job","id":"1956642816-1001134745498","title":"Devops инженер","text":"#вакансия #DevOps\nМосква, м.Ботанический сад\nФормат работы: офис\nЗанятость: полная\nЗаработная плата: 180 000р. на руки - фиксированный оклад\nЧто делать:\n- Разработка и поддержка инфраструктуры для dev/test/prod (On-Cloud и On-Premise);\n- Разработка и поддержка процессов CI/CD;\n- Выбор технологий для реализации проектов;\n- Разработка и поддержка систем мониторинга, регистрации инцидентов и оповещения;\n- Организация бесперебойной работы всех сервисов (на всех уровнях: от инфраструктуры до разрабатываемого ПО);\n- Развертывание и поддержка общей инфраструктуры (nginx, haproxy, dns, iptables, ssh, sssd & etc).\nЧто нужно знать и уметь:\n- Экспертное понимание Linux (Ubuntu/CentOS7);\n- Знание скриптовых языков;\n- Опыт работы с технологиями виртуализации (VMware) и контейнеризации (Docker);\n- Опыт развёртывания и эксплуатации CI/CD (GitLab-CI, Jenkins);\n- Навыки работы и администрирования GitLab, Jira, Confluence;\n- Опыт внедрения и эксплуатации систем мониторинга и сбора метрик (ELK, Prometheus, Grafana, Sentry);\n- Опыт развёртывания и эксплуатации Redis, MySQL, RabbitMQ, HAProxy, nginx, PostgreSQL, php-fpm);\n- Интеграция Jenkins, Jira, GitLab. \nКомпания: АСНА (www.asna.ru)\nКонтакты: 8(965)194-28-96 (WhatsApp), @mil0lika (Telegram)\n\n—\n\n👉 Обсуждение вакансии в чате @devops_jobs","markup":[{"type":"hashtag","offset":0,"length":9,"data":"вакансия"},{"type":"hashtag","offset":10,"length":7,"data":"DevOps"},{"type":"link","offset":1172,"length":11,"data":"http://www.asna.ru"},{"type":"link","offset":1195,"length":15,"data":"tel:8(965)194-28-96"},{"type":"handle","offset":1223,"length":9,"data":"mil0lika"},{"type":"handle","offset":1278,"length":12,"data":"devops_jobs"}],"date":"2020-04-02T06:33:16+00:00","link":"tg://resolve?domain=devops_jobs_feed&post=1866","tags":[{"name":"cloud"},{"name":"nginx"},{"name":"dns"},{"name":"ssh"},{"name":"linux"},{"name":"ubuntu"},{"name":"centos"},{"name":"docker"},{"name":"gitlab"},{"name":"jenkins"},{"name":"redis"},{"name":"mysql"},{"name":"rabbitmq"},{"name":"postgresql"},{"name":"php"}],"cities":[{"code":"moscow"}],"allowsRemote":false}},{"node":{"__typename":"Job","id":"1954545664-1001134745498","title":"Devops engineer","text":"#вакансия #devops \nВакансия: DevOps Engineer\nГород: San Jose, Costa Rica\nФормат работы: удаленка\nЗанятость: полная\nЗарплата: 2000 EUR/месяц\n\nОбязанности\nПроектирование, построение, поддержка и развитие в эксплуатации:\n- высокодоступной инфраструктуры в рамках нескольких датацентров (на базе Kubernetes);\n- инструментов жизненного цикла проектов (Docker-образы, CI/CD сценарии, баг-трекеры, инструменты сборки);\n- систем распределенного мониторинга, логирования, трасcировки;\n- распределенных баз данных, файловых хранилищ, шин событий.\n\nТребования:\n- богатый опыт работы с контейнеризацией и Kubernetes (Docker, rkt, CRI), написания Helm-чартов;\n- богатый опыт администрирования Linux, написания shell-скриптов, работы с systemd;\n- умение работать с Ansible;\n- опыт администрирования баз данных (MySQL, PostgreSQL, Redis, Cassandra, ClickHouse, и т.д.);\n- опыт эксплуатации распределенных систем логирования, мониторинга, трассировки (Fluentd, Prometheus, ElasticSearch, Kibana, Grafana, Zipkin, и т.д.);\n- опыт работы с Grafana;\n- владение языками программирования (что-то из Python, Go, Rust, Java, PHP);\n- хорошее понимание фундаментальных основ PKI, DNS, TLS, SSH, OSI, Linux;\n- технический английский;\n- наличие широкого Интернет-канала и Skype.\n\nУсловия:\n- удаленная работа (не фриланс);\n- полная занятость;\n- зарплата 2000 EUR/мес.;\n- возможен переезд за границу.\n\nКанал нашей компании https://t.me/TRlogik\nРезюме присылайте сюда @trlogic\n\n—\n\n👉 Обсуждение вакансии в чате @devops_jobs","markup":[{"type":"hashtag","offset":0,"length":9,"data":"вакансия"},{"type":"hashtag","offset":10,"length":7,"data":"devops"},{"type":"link","offset":1394,"length":20,"data":"https://t.me/TRlogik"},{"type":"handle","offset":1438,"length":8,"data":"trlogic"},{"type":"handle","offset":1481,"length":12,"data":"devops_jobs"}],"date":"2020-04-01T20:19:12+00:00","link":"tg://resolve?domain=devops_jobs_feed&post=1864","tags":[{"name":"kubernetes"},{"name":"docker"},{"name":"linux"},{"name":"shell"},{"name":"ansible"},{"name":"mysql"},{"name":"postgresql"},{"name":"redis"},{"name":"cassandra"},{"name":"elasticsearch"},{"name":"python"},{"name":"rust"},{"name":"java"},{"name":"php"},{"name":"dns"},{"name":"ssh"}],"cities":[{"code":"san-jose"}],"allowsRemote":true}},{"node":{"__typename":"Job","id":"1952448512-1001134745498","title":"Devops engineer","text":"DevOps engineer\n#вакансия #DevOps #fulltime \nВакансия: DevOps engineer\nКомпания: ДОМ.РФ ООО «Цифровые технологии»\nГород: Санкт-Петербург. ст.м. Василеостровская, БЦ Сенатор\nФормат работы: #офис\nЗанятость: #полная\nЗарплата : от 150 до 180 т.р. net\nКто мы:\nIT-компания \"Цифровые технологии\" была образована марте 2019 г. в рамках ГК ДОМ.РФ - финансового института развития в жилищной сфере.\nНаша миссия состоит в том, чтобы покрывать потребность в разработке собственных продуктов для всей группы компаний.\nОдин из самых перспективных наших проектов - это ВИТРИНА недвижимости. Сейчас это сайт с информацией о всех новостройках страны. Следом туда добавится много разных сервисов, которые позволят вывести сделку по покупке жилья в онлайн. Проект продолжительный и очень амбициозный.\nТебе предстоит:\n•  Поддержка ETL процессов;\n•  Участие в процессах внедрения ПО;\n•  Администрирование операционных систем *nix и общесистемного ПО;\n•  Развертывание и конфигурирование стендов под различные нужды;\n•  Решение возникающих проблем, устранение нештатных ситуаций;\n•  Участие в разработке конструкторской и эксплуатационной документации;\n•  Формирование требований к системе резервного копирования. \nЗдорово если у тебя есть:\n•  Знание серверной операционной системы Linux;\n•  Уверенное понимание принципов работы сетей TCP/IP: адресация, маршрутизация, стек протоколов, сетевые топологии, принципы работы VLAN, VPN, DNS, DHCP;\n•  Практический опыт автоматизации управления средами с применением docker, Kubernetes, ansible;\n•  Практический опыт разработки технологической или эксплуатационной документации;\n•  Практический опыт конфигурирования систем хранения данных (желательно);\n•  Практический опыт конфигурирования и администрирования общесистемного ПО: системы виртуализации, СУБД (PostgreSQL), серверы приложений, системы обработки сообщений, средства мониторинга и управления, elastic search;\nМы предлагаем:\n•  Комфортный офис в центре Санкт-Петербурга;\n•  Работа в высокопрофессиональной и эффективной команде, постоянное развитие;\n•  Конкурентный компенсационный пакет (ежеквартальная премия, ДМС, компенсация расходов на фитнес-абонемент до 20 т.р. в год);\n•  Амбициозный проект.\nЕсли ты молодой, амбициозный, идейный специалист - будем рады пригласить тебя на встречу и расскажем о возможностях работы с нами🥇\n✍️ ЛС @polipropilenka\n\n—\n\n👉 Обсуждение вакансии в чате @devops_jobs","markup":[{"type":"hashtag","offset":16,"length":9,"data":"вакансия"},{"type":"hashtag","offset":26,"length":7,"data":"DevOps"},{"type":"hashtag","offset":34,"length":9,"data":"fulltime"},{"type":"link","offset":81,"length":6,"data":"http://ДОМ.РФ"},{"type":"hashtag","offset":188,"length":5,"data":"офис"},{"type":"hashtag","offset":205,"length":7,"data":"полная"},{"type":"link","offset":331,"length":6,"data":"http://ДОМ.РФ"},{"type":"handle","offset":2323,"length":15,"data":"polipropilenka"},{"type":"handle","offset":2373,"length":12,"data":"devops_jobs"}],"date":"2020-04-01T14:15:31+00:00","link":"tg://resolve?domain=devops_jobs_feed&post=1862","tags":[{"name":"dotnet"},{"name":"linux"},{"name":"dns"},{"name":"docker"},{"name":"kubernetes"},{"name":"ansible"},{"name":"postgresql"},{"name":"elasticsearch"}],"cities":[],"allowsRemote":false}},{"node":{"__typename":"Job","id":"1951399936-1001134745498","title":"Devops инженер","text":"#вакансия #DevOps\nМосква, м.Ботанический сад\nФормат работы: офис\nЗанятость: полная\nЗаработная плата: 180 000р. на руки - фиксированный оклад\nЧто делать:\n- Разработка и поддержка инфраструктуры для dev/test/prod (On-Cloud и On-Premise);\n- Разработка и поддержка процессов CI/CD;\n- Выбор технологий для реализации проектов;\n- Разработка и поддержка систем мониторинга, регистрации инцидентов и оповещения;\n- Организация бесперебойной работы всех сервисов (на всех уровнях: от инфраструктуры до разрабатываемого ПО);\n- Развертывание и поддержка общей инфраструктуры (nginx, haproxy, dns, iptables, ssh, sssd & etc).\nЧто нужно знать и уметь:\n- Экспертное понимание Linux (Ubuntu/CentOS7);\n- Знание скриптовых языков;\n- Опыт работы с технологиями виртуализации (VMware) и контейнеризации (Docker);\n- Опыт развёртывания и эксплуатации CI/CD (GitLab-CI, Jenkins);\n- Навыки работы и администрирования GitLab, Jira, Confluence;\n- Опыт внедрения и эксплуатации систем мониторинга и сбора метрик (ELK, Prometheus, Grafana, Sentry);\n- Опыт развёртывания и эксплуатации Redis, MySQL, RabbitMQ, HAProxy, nginx, PostgreSQL, php-fpm);\n- Интеграция Jenkins, Jira, GitLab. \nКомпания: АСНА (www.asna.ru)\nКонтакты: 8(965)194-28-96 (WhatsApp), @mil0lika (Telegram)\n\n—\n\n👉 Обсуждение вакансии в чате @devops_jobs","markup":[{"type":"hashtag","offset":0,"length":9,"data":"вакансия"},{"type":"hashtag","offset":10,"length":7,"data":"DevOps"},{"type":"link","offset":1172,"length":11,"data":"http://www.asna.ru"},{"type":"link","offset":1195,"length":15,"data":"tel:8(965)194-28-96"},{"type":"handle","offset":1223,"length":9,"data":"mil0lika"},{"type":"handle","offset":1278,"length":12,"data":"devops_jobs"}],"date":"2020-04-01T13:22:09+00:00","link":"tg://resolve?domain=devops_jobs_feed&post=1861","tags":[{"name":"cloud"},{"name":"nginx"},{"name":"dns"},{"name":"ssh"},{"name":"linux"},{"name":"ubuntu"},{"name":"centos"},{"name":"docker"},{"name":"gitlab"},{"name":"jenkins"},{"name":"redis"},{"name":"mysql"},{"name":"rabbitmq"},{"name":"postgresql"},{"name":"php"}],"cities":[{"code":"moscow"}],"allowsRemote":false}},{"node":{"__typename":"Job","id":"1922039808-1001134745498","title":"Devops engineer","text":"DevOps engineer\n#вакансия #DevOps #fulltime \nВакансия: DevOps engineer\nКомпания: ДОМ.РФ ООО «Цифровые технологии»\nГород: Санкт-Петербург. ст.м. Василеостровская, БЦ Сенатор\nФормат работы: #офис\nЗанятость: #полная\nЗарплата : от 150 до 180 т.р. net\n\nТебе предстоит:\n•  Поддержка ETL процессов;\n•  Участие в процессах внедрения ПО;\n•  Администрирование операционных систем *nix и общесистемного ПО;\n•  Развертывание и конфигурирование стендов под различные нужды;\n•  Решение возникающих проблем, устранение нештатных ситуаций;\n•  Участие в разработке конструкторской и эксплуатационной документации;\n•  Формирование требований к системе резервного копирования. \nЗдорово если у тебя есть:\n•  Знание серверной операционной системы Linux;\n•  Уверенное понимание принципов работы сетей TCP/IP: адресация, маршрутизация, стек протоколов, сетевые топологии, принципы работы VLAN, VPN, DNS, DHCP;\n•  Практический опыт автоматизации управления средами с применением docker, Kubernetes, ansible;\n•  Практический опыт разработки технологической или эксплуатационной документации;\n•  Практический опыт конфигурирования систем хранения данных (желательно);\n•  Практический опыт конфигурирования и администрирования общесистемного ПО: системы виртуализации, СУБД (PostgreSQL), серверы приложений, системы обработки сообщений, средства мониторинга и управления, elastic search;\nМы предлагаем:\n•  Комфортный офис в центре Санкт-Петербурга;\n•  Работа в высокопрофессиональной и эффективной команде, постоянное развитие;\n•  Конкурентный компенсационный пакет (ежеквартальная премия, ДМС, компенсация расходов на фитнес-абонемент до 20 т.р. в год);\n•  Амбициозный проект.\nЕсли ты молодой, амбициозный, идейный специалист - будем рады пригласить тебя на встречу и расскажем о возможностях работы с нами🥇\n✍️ ЛС @polipropilenka\n\n—\n\n👉 Обсуждение вакансии в чате @devops_jobs","markup":[{"type":"hashtag","offset":16,"length":9,"data":"вакансия"},{"type":"hashtag","offset":26,"length":7,"data":"DevOps"},{"type":"hashtag","offset":34,"length":9,"data":"fulltime"},{"type":"link","offset":81,"length":6,"data":"http://ДОМ.РФ"},{"type":"hashtag","offset":188,"length":5,"data":"офис"},{"type":"hashtag","offset":205,"length":7,"data":"полная"},{"type":"handle","offset":1789,"length":15,"data":"polipropilenka"},{"type":"handle","offset":1839,"length":12,"data":"devops_jobs"}],"date":"2020-03-19T14:20:41+00:00","link":"tg://resolve?domain=devops_jobs_feed&post=1833","tags":[{"name":"dotnet"},{"name":"linux"},{"name":"dns"},{"name":"docker"},{"name":"kubernetes"},{"name":"ansible"},{"name":"postgresql"},{"name":"elasticsearch"}],"cities":[],"allowsRemote":false}},{"node":{"__typename":"Job","id":"1913651200-1001134745498","title":"Devops инженер","text":"#вакансия #DevOps\nМосква, м.Ботанический сад\nФормат работы: офис\nЗанятость: полная\nЗаработная плата: 180 000р. на руки - фиксированный оклад\n(в планах со 2/3 квартала - квартальные премии по итогам работы до 45 000р. на руки) \nЧто делать:\n- Разработка и поддержка инфраструктуры для dev/test/prod (On-Cloud и On-Premise);\n- Разработка и поддержка процессов CI/CD;\n- Выбор технологий для реализации проектов;\n- Разработка и поддержка систем мониторинга, регистрации инцидентов и оповещения;\n- Организация бесперебойной работы всех сервисов (на всех уровнях: от инфраструктуры до разрабатываемого ПО);\n- Развертывание и поддержка общей инфраструктуры (nginx, haproxy, dns, iptables, ssh, sssd & etc).\nЧто нужно знать и уметь:\n- Экспертное понимание Linux (Ubuntu/CentOS7);\n- Знание скриптовых языков;\n- Опыт работы с технологиями виртуализации (VMware) и контейнеризации (Docker);\n- Опыт развёртывания и эксплуатации CI/CD (GitLab-CI, Jenkins);\n- Навыки работы и администрирования GitLab, Jira, Confluence;\n- Опыт внедрения и эксплуатации систем мониторинга и сбора метрик (ELK, Prometheus, Grafana, Sentry);\n- Опыт развёртывания и эксплуатации Redis, MySQL, RabbitMQ, HAProxy, nginx, PostgreSQL, php-fpm);\n- Интеграция Jenkins, Jira, GitLab. \nКомпания: АСНА (www.asna.ru)\nКонтакты: 8(965)194-28-96 (WhatsApp), @mil0lika (Telegram)\n\n—\n\n👉 Обсуждение вакансии в чате @devops_jobs","markup":[{"type":"hashtag","offset":0,"length":9,"data":"вакансия"},{"type":"hashtag","offset":10,"length":7,"data":"DevOps"},{"type":"link","offset":1258,"length":11,"data":"http://www.asna.ru"},{"type":"link","offset":1281,"length":15,"data":"tel:8(965)194-28-96"},{"type":"handle","offset":1309,"length":9,"data":"mil0lika"},{"type":"handle","offset":1364,"length":12,"data":"devops_jobs"}],"date":"2020-03-18T10:52:54+00:00","link":"tg://resolve?domain=devops_jobs_feed&post=1825","tags":[{"name":"cloud"},{"name":"nginx"},{"name":"dns"},{"name":"ssh"},{"name":"linux"},{"name":"ubuntu"},{"name":"centos"},{"name":"docker"},{"name":"gitlab"},{"name":"jenkins"},{"name":"redis"},{"name":"mysql"},{"name":"rabbitmq"},{"name":"postgresql"},{"name":"php"}],"cities":[{"code":"moscow"}],"allowsRemote":false}},{"node":{"__typename":"Job","id":"1910505472-1001134745498","title":"Devops engineer","text":"#вакансия DevOps Engineer \n#vacancy #job #вакансия #работа #кипр #cyprus #fulltime #relocate #релокация #DevOps #linux #golang #ClickHouse #PostgreSQL #Kafka \n \nКомпания: TrafficStars \nГород: Лимасcол, Кипр \nФормат работы: офис \nЗанятость: полная \nЗарплатная вилка: от 2500 до 3500 евро на руки \n \nОписание вакансии:  \nDevOps Engineer в кипрскую ad-network компанию TrafficStars, релокация в г. Лимасcол \n \nНаш базовый стек: \n•Linux; \n•Golang, Python; \n•PostgreSQL, ClickHouse, Kafka, ELK, Redis; \n•Consul. \n \nЗадачи: \n•Развертывание и поддержка IT-инфраструктуры проекта в ЦОДах Европы, США и Азии; \n•Сопровождение кластеров PostgreSQL, ClickHouse и Kafka; \n•Автоматизация процессов деплоя конфигурации (Ansible); \n•Настройка дев процессов CI на Atlassian стеке (JIRA, Bitbucket, Bamboo) или аналоге; \n•Взаимодействие с хостинг-провайдерами (админы в саппорте, тикеты, постановка и контроль задач по серверам). \n \nБольшой плюс в опыте: \n•Настройка и мониторинг БД и разрабатываемых сервисов; \n•Репликация, бекапы, шардинг; \n•Установка и настройка среды разработки, тестирования и деплоя; \n•Оптимизация всех сервисов под highload (каждые сутки сохраняем более 4 млрд. новых событий); \n•Настройка и поддержка DNS, CDN, monitoring и прочих сервисов; \n•Опыт работы с контейнеризацией (Docker/LXC/Kubernetes); \n•Опыт работы с системами контроля версий. \n \nМы предлагаем: \n•Релокационный пакет: \n- покупаем билеты до Кипра тебе и твоей семье; \n- встречаем в аэропорту; \n- оформляем рабочую визу; \n- оплачиваем жильё на первый месяц; \n•Медицинскую страховку для тебя и твоей семьи; \n•50% компенсация затрат на детский сад и школу; \n•Оплачиваемую мобильную связь; \n•Бесплатные и вкусные завтраки, обеды и напитки; \n•Фрукты, снэки и другие вкусняшки в офисе; \n•Рабочий компьютер/ноутбук на выбор: Mac или PC; \n•Корпоративные скидки (кафе, магазины и др); \n•Бесплатные абонементы в спортзал и занятия йогой; \n•Уроки английского и греческого языка; \n•Корпоративные вечеринки, тимбилдинги; \n•Корпоративные митапы и конференции; \n•Интересные проекты; \n•Приятную рабочую атмосферу. \n  \nПрисоединяйся к нашей молодой и талантливой команде! \n \nКонтакты: +35795588440 \ntelegram: sofia_tomashevich \ne-mail: sofia@trafficstars.com\n\n—\n\n👉 Обсуждение вакансии в чате @devops_jobs","markup":[{"type":"hashtag","offset":0,"length":9,"data":"вакансия"},{"type":"hashtag","offset":27,"length":8,"data":"vacancy"},{"type":"hashtag","offset":36,"length":4,"data":"job"},{"type":"hashtag","offset":41,"length":9,"data":"вакансия"},{"type":"hashtag","offset":51,"length":7,"data":"работа"},{"type":"hashtag","offset":59,"length":5,"data":"кипр"},{"type":"hashtag","offset":65,"length":7,"data":"cyprus"},{"type":"hashtag","offset":73,"length":9,"data":"fulltime"},{"type":"hashtag","offset":83,"length":9,"data":"relocate"},{"type":"hashtag","offset":93,"length":10,"data":"релокация"},{"type":"hashtag","offset":104,"length":7,"data":"DevOps"},{"type":"hashtag","offset":112,"length":6,"data":"linux"},{"type":"hashtag","offset":119,"length":7,"data":"golang"},{"type":"hashtag","offset":127,"length":11,"data":"ClickHouse"},{"type":"hashtag","offset":139,"length":11,"data":"PostgreSQL"},{"type":"hashtag","offset":151,"length":6,"data":"Kafka"},{"type":"link","offset":2142,"length":12,"data":"tel:+35795588440"},{"type":"link","offset":2193,"length":22,"data":"mailto:sofia@trafficstars.com"},{"type":"handle","offset":2250,"length":12,"data":"devops_jobs"}],"date":"2020-03-16T16:17:55+00:00","link":"tg://resolve?domain=devops_jobs_feed&post=1822","tags":[{"name":"linux"},{"name":"go"},{"name":"postgresql"},{"name":"kafka"},{"name":"python"},{"name":"redis"},{"name":"ansible"},{"name":"dns"},{"name":"docker"},{"name":"kubernetes"}],"cities":[{"code":"sofia"}],"allowsRemote":false}}]}}},"context":{}}