{"hash":"f5f6bf98bd95e769321482904cbbd488f77922fd","data":{"records":{"id":"unity3d","name":"unity3d","belongsTo":{"totalCount":14,"pageInfo":{"totalPages":2,"currentPage":1},"edges":[{"node":{"__typename":"Job","id":"17303601152-1001110946746","title":"Js разработчик","text":"#вакансия \n\nГород: Москва \nФорма работы: удаленка\nЗанятость: full-time \nВилка: 90-170 тыс. руб, обсуждается\n\nИщем WebGL-программиста, который займется созданием нового инновационного продукта на рынке продаж онлайн-мероприятий. Это яркий продукт, продиктованный переходом в on-line, с пониманием потребностей и возможностью к масштабированию. \n \n▪️Наш идеальный кандидат:\n\n▫️Опыт работы от 3-х лет \n▫️Знание JavaScript\n▫️Опыт программирования (Three.js, OpenGL, Unity)\n▫️Лидерские качества и активность. Нам очень важен драйв в глазах и желание создавать что-то новое и крутое\n▫️Хороший тайм-менеджмент, ответственность, самостоятельность\n\n▪️Плюсом будет: \n\n▫️Опыт работы (A-frame, PlayCanvas)\n▫️Опыт работы лидом с frontend - разработчиком\n▫️Понимание реализации backend-части проектов\n▫️Успешное участие в хакатонах \n\n▪️Формат работы:\n\n▫️Гибкий график\n▫️Яркий и потенциальный продукт\n▫️Никакого легаси - ты создаешь новый продукт\n\nКто мы и чем занимаемся: \n\nКомпания Way2AR занимается разработкой иммерсивных решений для маркетинга и обучения. \n\nУ нас классная команда с многолетнем опытом в AR и других иммерсивных решениях. Мы создаем AR/VR приложения, WebGL и WebAR проекты, 3D-видео и многие другие продукты. \n\nКонтакты: \nДарья Калинина @DarianKalinina","markup":[{"type":"hashtag","offset":0,"length":9,"data":"вакансия"},{"type":"handle","offset":1243,"length":15,"data":"DarianKalinina"}],"date":"2020-07-01T20:13:38+00:00","link":"tg://resolve?domain=javascript_jobs_feed&post=16502","tags":[{"name":"javascript"},{"name":"opengl"},{"name":"unity3d"}],"cities":[{"code":"moscow"}],"allowsRemote":true}},{"node":{"__typename":"Job","id":"104135131136-1001089317451","title":"Qa инженер","text":"#вакансия #санктпетербург #спб #fulltime #офис #QA \n\nМолодая игровая студия \"Тактика\" https://www.taktikagames.ru/ с уютным офисом в Петербурге ищет в штат на полный рабочий день: \n\n⭐️⭐️⭐️QA-инженера⭐️⭐️⭐️\n\nЧТО МЫ ЖДЕМ ОТ КАНДИДАТА\n— Опыт тестирования от 2х лет;\n— Понимание процессов разработки мобильных игр, знание игровых механик, работа с ГД-документами;\n— Ведение документации и её актуализация, (чек-листы/тест-кейсы/тест-сьюты/баг-репорты/отчеты) + регресс- и релиз-листы;\n— Анализ документации и составление тест-планов (в том числе и описание рисков);\n— Локализация багов и отслеживание их исправлений;\n— Опыт работы с системами контроля версий;\n— Знание таск- и баг-трекингов;\n— Опыт работы с CI/CD;\n— Опыт тестирования IAP.\n\nПЛЮСОМ БУДЕТ\n— Английский уровня intermediate;\n— Знание любого языка программирования;\n— Опыт работы с Unity;\n— Опыт управления командой;\n— Опыт UI/UX тестирования;\n— Pixel Perfect;\n— Опыт тестирования клиент-серверных приложений;\n— Опыт тестирования на мобильных устройствах Android, IOS;\n— Опыт нагрузочного тестирования;\n— Саппорт на закрытом бета-тесте.\n\nЧТО МЫ ДОВЕРИМ:\n— Составление чек-листов, тест-кейсов и пр. документации;\n— Локализация багов и отслеживание их исправлений;\n— Тестирование сложности уровней.\n\nЧТО МЫ ПРЕДЛАГАЕМ\n— Комфортный офис в пяти минутах от станции метро Технологический институт;\n— Участие в современных и интересных проектах;\n— Возможности обучения и профессионального роста;\n— Соблюдение ТК РФ (оплата отпуска‚ больничного);\n— Заработная плата по результатам собеседования (от 70 000 руб.);\n— Помощь в релокации, поможем вам с переездом.\n\nМожно откликнуться на hh: https://spb.hh.ru/vacancy/37392564\nИли на почту: khreevaa@taktikagames.ru","markup":[{"type":"hashtag","offset":0,"length":9,"data":"вакансия"},{"type":"hashtag","offset":10,"length":15,"data":"санктпетербург"},{"type":"hashtag","offset":26,"length":4,"data":"спб"},{"type":"hashtag","offset":31,"length":9,"data":"fulltime"},{"type":"hashtag","offset":41,"length":5,"data":"офис"},{"type":"hashtag","offset":47,"length":3,"data":"QA"},{"type":"link","offset":86,"length":28,"data":"https://www.taktikagames.ru/"},{"type":"bold","offset":188,"length":11,"data":""},{"type":"bold","offset":207,"length":24,"data":""},{"type":"bold","offset":737,"length":12,"data":""},{"type":"bold","offset":1096,"length":15,"data":""},{"type":"bold","offset":1256,"length":17,"data":""},{"type":"bold","offset":1611,"length":25,"data":""},{"type":"link","offset":1637,"length":34,"data":"https://spb.hh.ru/vacancy/37392564"},{"type":"bold","offset":1672,"length":13,"data":""},{"type":"link","offset":1686,"length":24,"data":"mailto:khreevaa@taktikagames.ru"}],"date":"2020-07-01T11:17:29+00:00","link":"tg://resolve?domain=qa_jobs&post=99311","tags":[{"name":"qa"},{"name":"unity3d"},{"name":"android"},{"name":"ios"}],"cities":[],"allowsRemote":false}},{"node":{"__typename":"Job","id":"103704166400-1001089317451","title":"Qa engineer","text":"#вакансия #москва #офис #qaengineer #qa \nГород и адрес офиса: Москва, м.Автозаводская \nФормат работы: офис \nЗанятость: полная \nЗарплатная вилка: от 60 000 на руки \n\n✅QA Engineer (gamedev)\n\nОписание вакансии: \n\nКрупный мобильный проект в жанре фентези - Dragon Champions - ищет своего QA! Вы сможете работать над интересной игрой на стыке мидкорных и хардкорных механик, в окружении команды больших профессионалов с многолетним опытом.\n\n✅Что делать:\n\n•  Тестирование мобильной игры: функциональное тестирование, юзабилити тестирование, регрессионное тестирование\n•  Составление документации для тестирования: тест-кейсы, тест-план, чек-листы\n•  Тесное обсуждение функциональности игры с командой разработки\n•  Заведение всех найденных багов в трекере (Jira)\n\n✅Требования:\n\n•  Опыт работы в тестировании от одного года\n•  Понимание основ тестирования ПО, тест-планов, чек-листов, регрессионного и функционального тестирования\n•  Огромным плюсом будет наличие опыта в тестировании игр, в особенности, мобильных игр на Unity\n•  Умение работать с Jira, Confluence и Unity также будет большим плюсом\n\n✅Для вас:\n\n•  Конкурентная заработная плата, выплачивается 2 раза в месяц\n•  Необходимое оборудование для работы\n•  Коллектив творческих и позитивных людей\n\n✅О нас:\n\n•  Просторный офис 600 метров на м. Автозаводская (3 минуты от метро и от ТТК на машине) с ультра современным дизайном и кучей ништяков (кухня с вкусняшками, кальяны каждый вечер в дружной кампании, PS4 Pro + 4K TV, аркадные автоматы с Pac-Man, Metal Slug и другими хитами геймдизайна, просторная зона отдыха, 6 переговорных комнат и т д)\n•  Команда из 120 человек занимающаяся паблишингом и маркетингом, которая готова сделать продукт успешным после его готовности\n•  Возможность бесплатно обучаться английскому языку с носителями каждый будний день\n\nНазвание компании: AppQuantum\n\nКонтакты: \ne-mail: bm@adquantum.com\ntelegram: @MishaBarinov","markup":[{"type":"hashtag","offset":0,"length":9,"data":"вакансия"},{"type":"hashtag","offset":10,"length":7,"data":"москва"},{"type":"hashtag","offset":18,"length":5,"data":"офис"},{"type":"hashtag","offset":24,"length":11,"data":"qaengineer"},{"type":"hashtag","offset":36,"length":3,"data":"qa"},{"type":"bold","offset":166,"length":21,"data":""},{"type":"bold","offset":437,"length":11,"data":""},{"type":"bold","offset":759,"length":11,"data":""},{"type":"bold","offset":1096,"length":8,"data":""},{"type":"bold","offset":1253,"length":6,"data":""},{"type":"link","offset":1863,"length":16,"data":"mailto:bm@adquantum.com"},{"type":"handle","offset":1890,"length":13,"data":"MishaBarinov"}],"date":"2020-06-25T10:53:44+00:00","link":"tg://resolve?domain=qa_jobs&post=98900","tags":[{"name":"qa"},{"name":"unity3d"}],"cities":[{"code":"moscow"}],"allowsRemote":false}},{"node":{"__typename":"Job","id":"72002568192-1001054966032","title":"Android разработчик","text":"#вакансия #москва #офис #unity #developer #gamedev #csharp c#\n\nГород и адрес офиса: Москва, м.Автозаводская \nФормат работы: офис \nЗанятость: полная \nЗарплатная вилка: от 160 000 до 200 000 на руки \n\n📣 Unity Developer (gamedev)\n\n✅ Описание вакансии:\n\nAppQuantum - это успешная команда из 120 человек, которая занимается мобильным маркетингом, разработкой и паблишингом мобильных игр. Один из наших самых успешных проектов Idle Evil Clicker набрал за пол года 5 млн пользователей на iOS и Android и мы не планируем останавливаться на достигнутом.\nМы ищем сильного Unity разработчика для работы над проектами в жанре Idle / Clicker / Tycoon. У нас три запущенных проекта, сейчас работаем над четвертым.\n\n\n✅ Задачи:\n\n• Разработка клиентской части игры\n• Интеграция в проект готового контента (модели, анимации, звуки)\n• Интеграция в проект готовых VFX, написание логики их управления\n• Вёрстка UI по макетам от художников\n• Интеграция различных сторонних SDK\n\n\n✅ Требования:\n\n• Опыт работы на Unity3D (С#) от 3х лет\n• Отличное знание Unity и всех её подсистем\n• Отличное знание C#, умение писать чёткий, понятный, структурированный код\n• Отличное знание паттернов проектирования\n• Умение верстать адаптивные интерфесы в uGUI\n• Умение отлаживать и оптимизировать проекты под мобильные платформы iOS/Android\n• Понимание Рендер пайплайна Unity3D, его тонких мест и принципов оптимизации\n• Уверенные знания по работе с системой контроля версий git\n• Умение разбираться в чужом коде, проводить рефакторинг\n• Дисциплинированность и ответственность\n\n\n✅ Плюсом будет:\n\n• Участие в разработке выпущенных игр под мобильные платформы на аналогичной должности\n• Умение работать с шейдерами\n• Опыт работы с нативными плагинами (In-Apps, PUSH notifications, аналитика, реклама, социальное взаимодействие)\n• Опыт работы с ecs (Unity DOTS, Entitas)\n• Умение разрабатывать и поддерживать стабильную архитектуру\n• Коммуникабельность, yмение чётко доносить свою точку зрения и принимать точку зрения остальных участников команды\n\n\n✅ Для вас:\n\n• Конкурентная заработная плата по результатам собеседования, выплачивается 2 раза в месяц без задержек\n• Необходимое оборудование заказываем под вас\n• Возможность обучаться английскому языку с носителями каждый будний день по утрам\n• Собеседование сразу же с руководителем, который принимает решение о найме\n\nНазвание компании: AppQuantum\n\nhttps://appquantum.com/\n\nКонтакты: \ne-mail: vika@adquantum.com\ntelegram: @wikki13","markup":[{"type":"hashtag","offset":0,"length":9,"data":"вакансия"},{"type":"hashtag","offset":10,"length":7,"data":"москва"},{"type":"hashtag","offset":18,"length":5,"data":"офис"},{"type":"hashtag","offset":24,"length":6,"data":"unity"},{"type":"hashtag","offset":31,"length":10,"data":"developer"},{"type":"hashtag","offset":42,"length":8,"data":"gamedev"},{"type":"hashtag","offset":51,"length":7,"data":"csharp"},{"type":"bold","offset":231,"length":18,"data":""},{"type":"bold","offset":705,"length":7,"data":""},{"type":"bold","offset":960,"length":11,"data":""},{"type":"bold","offset":1543,"length":13,"data":""},{"type":"bold","offset":2011,"length":8,"data":""},{"type":"link","offset":2362,"length":23,"data":"https://appquantum.com/"},{"type":"link","offset":2406,"length":18,"data":"mailto:vika@adquantum.com"},{"type":"handle","offset":2435,"length":8,"data":"wikki13"}],"date":"2020-06-25T10:07:53+00:00","link":"tg://resolve?domain=mobile_jobs&post=68667","tags":[{"name":"mobile"},{"name":"android"},{"name":"ios"},{"name":"unity3d"},{"name":"csharp"},{"name":"git"}],"cities":[{"code":"moscow"}],"allowsRemote":false}},{"node":{"__typename":"Job","id":"103496548352-1001089317451","title":"Qa engineer","text":"#вакансия #москва #офис #qaengineer #qa \nГород и адрес офиса: Москва, м.Автозаводская \nФормат работы: офис \nЗанятость: полная \nЗарплатная вилка: от 60 000 на руки \n\n✅QA Engineer (gamedev)\n\nОписание вакансии: \n\nКрупный мобильный проект в жанре фентези - Dragon Champions - ищет своего QA! Вы сможете работать над интересной игрой на стыке мидкорных и хардкорных механик, в окружении команды больших профессионалов с многолетним опытом.\n\n✅Что делать:\n\n•  Тестирование мобильной игры: функциональное тестирование, юзабилити тестирование, регрессионное тестирование\n•  Составление документации для тестирования: тест-кейсы, тест-план, чек-листы\n•  Тесное обсуждение функциональности игры с командой разработки\n•  Заведение всех найденных багов в трекере (Jira)\n\n✅Требования:\n\n•  Опыт работы в тестировании от одного года\n•  Понимание основ тестирования ПО, тест-планов, чек-листов, регрессионного и функционального тестирования\n•  Огромным плюсом будет наличие опыта в тестировании игр, в особенности, мобильных игр на Unity\n•  Умение работать с Jira, Confluence и Unity также будет большим плюсом\n\n✅Для вас:\n\n•  Конкурентная заработная плата, выплачивается 2 раза в месяц\n•  Необходимое оборудование для работы\n•  Коллектив творческих и позитивных людей\n\n✅О нас:\n\n•  Просторный офис 600 метров на м. Автозаводская (3 минуты от метро и от ТТК на машине) с ультра современным дизайном и кучей ништяков (кухня с вкусняшками, кальяны каждый вечер в дружной кампании, PS4 Pro + 4K TV, аркадные автоматы с Pac-Man, Metal Slug и другими хитами геймдизайна, просторная зона отдыха, 6 переговорных комнат и т д)\n•  Команда из 120 человек занимающаяся паблишингом и маркетингом, которая готова сделать продукт успешным после его готовности\n•  Возможность бесплатно обучаться английскому языку с носителями каждый будний день\n\nНазвание компании: AppQuantum\n\nКонтакты: \ne-mail: bm@adquantum.com\ntelegram: @MishaBarinov","markup":[{"type":"hashtag","offset":0,"length":9,"data":"вакансия"},{"type":"hashtag","offset":10,"length":7,"data":"москва"},{"type":"hashtag","offset":18,"length":5,"data":"офис"},{"type":"hashtag","offset":24,"length":11,"data":"qaengineer"},{"type":"hashtag","offset":36,"length":3,"data":"qa"},{"type":"bold","offset":166,"length":21,"data":""},{"type":"bold","offset":437,"length":11,"data":""},{"type":"bold","offset":759,"length":11,"data":""},{"type":"bold","offset":1096,"length":8,"data":""},{"type":"bold","offset":1253,"length":6,"data":""},{"type":"link","offset":1863,"length":16,"data":"mailto:bm@adquantum.com"},{"type":"handle","offset":1890,"length":13,"data":"MishaBarinov"}],"date":"2020-06-23T07:21:35+00:00","link":"tg://resolve?domain=qa_jobs&post=98702","tags":[{"name":"qa"},{"name":"unity3d"}],"cities":[{"code":"moscow"}],"allowsRemote":false}},{"node":{"__typename":"Job","id":"71831650304-1001054966032","title":"Android разработчик","text":"#вакансия #москва #офис #unity #developer #gamedev #csharp c#\n\nГород и адрес офиса: Москва, м.Автозаводская \nФормат работы: офис \nЗанятость: полная \nЗарплатная вилка: от 160 000 на руки \n\n📣 Unity Developer (gamedev)\n\n✅ Описание вакансии:\n\nAppQuantum - это успешная команда из 120 человек, которая занимается мобильным маркетингом, разработкой и паблишингом мобильных игр. Один из наших самых успешных проектов Idle Evil Clicker набрал за пол года 5 млн пользователей на iOS и Android и мы не планируем останавливаться на достигнутом.\nМы ищем сильного Unity разработчика для работы над проектами в жанре Idle / Clicker / Tycoon. У нас три запущенных проекта, сейчас работаем над четвертым.\n\n\n✅ Задачи:\n\n• Разработка клиентской части игры\n• Интеграция в проект готового контента (модели, анимации, звуки)\n• Интеграция в проект готовых VFX, написание логики их управления\n• Вёрстка UI по макетам от художников\n• Интеграция различных сторонних SDK\n\n\n✅ Требования:\n\n• Опыт работы на Unity3D (С#) от 3х лет\n• Отличное знание Unity и всех её подсистем\n• Отличное знание C#, умение писать чёткий, понятный, структурированный код\n• Отличное знание паттернов проектирования\n• Умение верстать адаптивные интерфесы в uGUI\n• Умение отлаживать и оптимизировать проекты под мобильные платформы iOS/Android\n• Понимание Рендер пайплайна Unity3D, его тонких мест и принципов оптимизации\n• Уверенные знания по работе с системой контроля версий git\n• Умение разбираться в чужом коде, проводить рефакторинг\n• Дисциплинированность и ответственность\n\n\n✅ Плюсом будет:\n\n• Участие в разработке выпущенных игр под мобильные платформы на аналогичной должности\n• Умение работать с шейдерами\n• Опыт работы с нативными плагинами (In-Apps, PUSH notifications, аналитика, реклама, социальное взаимодействие)\n• Опыт работы с ecs (Unity DOTS, Entitas)\n• Умение разрабатывать и поддерживать стабильную архитектуру\n• Коммуникабельность, yмение чётко доносить свою точку зрения и принимать точку зрения остальных участников команды\n\n\n✅ Для вас:\n\n• Конкурентная заработная плата по результатам собеседования, выплачивается 2 раза в месяц без задержек\n• Необходимое оборудование заказываем под вас\n• Возможность обучаться английскому языку с носителями каждый будний день по утрам\n• Собеседование сразу же с руководителем, который принимает решение о найме\n\nНазвание компании: AppQuantum\n\nhttps://appquantum.com/\n\nКонтакты: \ne-mail: bm@adquantum.com\ntelegram: @MishaBarinov","markup":[{"type":"hashtag","offset":0,"length":9,"data":"вакансия"},{"type":"hashtag","offset":10,"length":7,"data":"москва"},{"type":"hashtag","offset":18,"length":5,"data":"офис"},{"type":"hashtag","offset":24,"length":6,"data":"unity"},{"type":"hashtag","offset":31,"length":10,"data":"developer"},{"type":"hashtag","offset":42,"length":8,"data":"gamedev"},{"type":"hashtag","offset":51,"length":7,"data":"csharp"},{"type":"bold","offset":220,"length":18,"data":""},{"type":"bold","offset":694,"length":7,"data":""},{"type":"bold","offset":949,"length":11,"data":""},{"type":"bold","offset":1532,"length":13,"data":""},{"type":"bold","offset":2000,"length":8,"data":""},{"type":"link","offset":2351,"length":23,"data":"https://appquantum.com/"},{"type":"link","offset":2395,"length":16,"data":"mailto:bm@adquantum.com"},{"type":"handle","offset":2422,"length":13,"data":"MishaBarinov"}],"date":"2020-06-23T07:21:01+00:00","link":"tg://resolve?domain=mobile_jobs&post=0","tags":[{"name":"mobile"},{"name":"android"},{"name":"ios"},{"name":"unity3d"},{"name":"csharp"},{"name":"git"}],"cities":[{"code":"moscow"}],"allowsRemote":false}},{"node":{"__typename":"Job","id":"71767687168-1001054966032","title":"Android разработчик","text":"#вакансия #москва #офис #unity #developer #gamedev #csharp c#\n\nГород и адрес офиса: Москва, м.Автозаводская \nФормат работы: офис \nЗанятость: полная \nЗарплатная вилка: от 160 000 на руки \n\n📣 Unity Developer (gamedev)\n\n✅ Описание вакансии:\n\nAppQuantum - это успешная команда из 120 человек, которая занимается мобильным маркетингом, разработкой и паблишингом мобильных игр. Один из наших самых успешных проектов Idle Evil Clicker набрал за пол года 5 млн пользователей на iOS и Android и мы не планируем останавливаться на достигнутом.\nМы ищем сильного Unity разработчика для работы над проектами в жанре Idle / Clicker / Tycoon. У нас три запущенных проекта, сейчас работаем над четвертым.\n\n\n✅ Задачи:\n\n• Разработка клиентской части игры\n• Интеграция в проект готового контента (модели, анимации, звуки)\n• Интеграция в проект готовых VFX, написание логики их управления\n• Вёрстка UI по макетам от художников\n• Интеграция различных сторонних SDK\n\n\n✅ Требования:\n\n• Опыт работы на Unity3D (С#) от 3х лет\n• Отличное знание Unity и всех её подсистем\n• Отличное знание C#, умение писать чёткий, понятный, структурированный код\n• Отличное знание паттернов проектирования\n• Умение верстать адаптивные интерфесы в uGUI\n• Умение отлаживать и оптимизировать проекты под мобильные платформы iOS/Android\n• Понимание Рендер пайплайна Unity3D, его тонких мест и принципов оптимизации\n• Уверенные знания по работе с системой контроля версий git\n• Умение разбираться в чужом коде, проводить рефакторинг\n• Дисциплинированность и ответственность\n\n\n✅ Плюсом будет:\n\n• Участие в разработке выпущенных игр под мобильные платформы на аналогичной должности\n• Умение работать с шейдерами\n• Опыт работы с нативными плагинами (In-Apps, PUSH notifications, аналитика, реклама, социальное взаимодействие)\n• Опыт работы с ecs (Unity DOTS, Entitas)\n• Умение разрабатывать и поддерживать стабильную архитектуру\n• Коммуникабельность, yмение чётко доносить свою точку зрения и принимать точку зрения остальных участников команды\n\n\n✅ Для вас:\n\n• Конкурентная заработная плата по результатам собеседования, выплачивается 2 раза в месяц без задержек\n• Необходимое оборудование заказываем под вас\n• Возможность обучаться английскому языку с носителями каждый будний день по утрам\n• Собеседование сразу же с руководителем, который принимает решение о найме\n\nНазвание компании: AppQuantum\n\nhttps://appquantum.com/\n\nКонтакты: \ne-mail: bm@adquantum.com\ntelegram: @MishaBarinov","markup":[{"type":"hashtag","offset":0,"length":9,"data":"вакансия"},{"type":"hashtag","offset":10,"length":7,"data":"москва"},{"type":"hashtag","offset":18,"length":5,"data":"офис"},{"type":"hashtag","offset":24,"length":6,"data":"unity"},{"type":"hashtag","offset":31,"length":10,"data":"developer"},{"type":"hashtag","offset":42,"length":8,"data":"gamedev"},{"type":"hashtag","offset":51,"length":7,"data":"csharp"},{"type":"bold","offset":220,"length":18,"data":""},{"type":"bold","offset":694,"length":7,"data":""},{"type":"bold","offset":949,"length":11,"data":""},{"type":"bold","offset":1532,"length":13,"data":""},{"type":"bold","offset":2000,"length":8,"data":""},{"type":"link","offset":2351,"length":23,"data":"https://appquantum.com/"},{"type":"link","offset":2395,"length":16,"data":"mailto:bm@adquantum.com"},{"type":"handle","offset":2422,"length":13,"data":"MishaBarinov"}],"date":"2020-06-22T10:46:02+00:00","link":"tg://resolve?domain=mobile_jobs&post=68443","tags":[{"name":"mobile"},{"name":"android"},{"name":"ios"},{"name":"unity3d"},{"name":"csharp"},{"name":"git"}],"cities":[{"code":"moscow"}],"allowsRemote":false}},{"node":{"__typename":"Job","id":"103426293760-1001089317451","title":"Qa engineer","text":"#вакансия #москва #офис #qaengineer #qa \nГород и адрес офиса: Москва, м.Автозаводская \nФормат работы: офис \nЗанятость: полная \nЗарплатная вилка: от 60 000 на руки \n\n✅QA Engineer (gamedev)\n\nОписание вакансии: \n\nКрупный мобильный проект в жанре фентези - Dragon Champions - ищет своего QA! Вы сможете работать над интересной игрой на стыке мидкорных и хардкорных механик, в окружении команды больших профессионалов с многолетним опытом.\n\n✅Что делать:\n\n•  Тестирование мобильной игры: функциональное тестирование, юзабилити тестирование, регрессионное тестирование\n•  Составление документации для тестирования: тест-кейсы, тест-план, чек-листы\n•  Тесное обсуждение функциональности игры с командой разработки\n•  Заведение всех найденных багов в трекере (Jira)\n\n✅Требования:\n\n•  Опыт работы в тестировании от одного года\n•  Понимание основ тестирования ПО, тест-планов, чек-листов, регрессионного и функционального тестирования\n•  Огромным плюсом будет наличие опыта в тестировании игр, в особенности, мобильных игр на Unity\n•  Умение работать с Jira, Confluence и Unity также будет большим плюсом\n\n✅Для вас:\n\n•  Конкурентная заработная плата, выплачивается 2 раза в месяц\n•  Необходимое оборудование для работы\n•  Коллектив творческих и позитивных людей\n\n✅О нас:\n\n•  Просторный офис 600 метров на м. Автозаводская (3 минуты от метро и от ТТК на машине) с ультра современным дизайном и кучей ништяков (кухня с вкусняшками, кальяны каждый вечер в дружной кампании, PS4 Pro + 4K TV, аркадные автоматы с Pac-Man, Metal Slug и другими хитами геймдизайна, просторная зона отдыха, 6 переговорных комнат и т д)\n•  Команда из 120 человек занимающаяся паблишингом и маркетингом, которая готова сделать продукт успешным после его готовности\n•  Возможность бесплатно обучаться английскому языку с носителями каждый будний день\n\nНазвание компании: AppQuantum\n\nКонтакты: \ne-mail: bm@adquantum.com\ntelegram: @MishaBarinov","markup":[{"type":"hashtag","offset":0,"length":9,"data":"вакансия"},{"type":"hashtag","offset":10,"length":7,"data":"москва"},{"type":"hashtag","offset":18,"length":5,"data":"офис"},{"type":"hashtag","offset":24,"length":11,"data":"qaengineer"},{"type":"hashtag","offset":36,"length":3,"data":"qa"},{"type":"bold","offset":166,"length":21,"data":""},{"type":"bold","offset":437,"length":11,"data":""},{"type":"bold","offset":759,"length":11,"data":""},{"type":"bold","offset":1096,"length":8,"data":""},{"type":"bold","offset":1253,"length":6,"data":""},{"type":"link","offset":1863,"length":16,"data":"mailto:bm@adquantum.com"},{"type":"handle","offset":1890,"length":13,"data":"MishaBarinov"}],"date":"2020-06-22T10:31:05+00:00","link":"tg://resolve?domain=qa_jobs&post=98635","tags":[{"name":"qa"},{"name":"unity3d"}],"cities":[{"code":"moscow"}],"allowsRemote":false}},{"node":{"__typename":"Job","id":"2229272576-1001134745498","title":"Devops инженер","text":"#вакансия #офис #Москва #DevOps \n\nВакансия для азартных энтузиастов:\n\nСтартапу AVVYLAND нужен девопс, строить все с нуля )) Милейшие чуваки, очень адекватный тех.дир. Денежка на проекте есть, релиз был, инвестиции привлечены. \n\nМоя личная рекомендация к вакухе: очень хороший шанс проявить себя за вполне нормальные деньги, ребята классные! \n\nКубер, облачка, линукс - технологии на выбор\n\nВилка: 180-250, нужно будет ИП\n\nО команде:\n•  7 человек, есть фронты, бекендеры, тестировщики\n•  Создаем приложения для различных платформ. От web до AR/VR;\n•  Работаем по недельным спринтам с ежедневными стендапами;\n•  Используем Jira, Confluence, Notion, Gitlab, Docker.\nО компании:\n•  Пишем на C#, Python, JS, Golang.\n•  Работаем с современным стэком Unity3D, React, Redis, aiohttp.\n\nДля тебя подготовили:\n•  Технику, на которой приятно работать.\n•  Оплату профессиональных конференций и курсов.\n• офис с плюшками в Москве (Большая Татарская)\n• адекватное руководство и понимающую команду =)\n\nКонтакты:\nМарьяна @reanimatsiya\n\n—\n\n👉 Обсуждение вакансии в чате @devops_jobs","markup":[{"type":"hashtag","offset":0,"length":9,"data":"вакансия"},{"type":"hashtag","offset":10,"length":5,"data":"офис"},{"type":"hashtag","offset":16,"length":7,"data":"Москва"},{"type":"hashtag","offset":24,"length":7,"data":"DevOps"},{"type":"handle","offset":1003,"length":13,"data":"reanimatsiya"},{"type":"handle","offset":1051,"length":12,"data":"devops_jobs"}],"date":"2020-06-19T09:46:43+00:00","link":"tg://resolve?domain=devops_jobs_feed&post=2126","tags":[{"name":"web"},{"name":"gitlab"},{"name":"docker"},{"name":"python"},{"name":"go"},{"name":"unity3d"},{"name":"reactjs"},{"name":"redis"}],"cities":[{"code":"moscow"}],"allowsRemote":false}},{"node":{"__typename":"Job","id":"103252230144-1001089317451","title":"Qa engineer","text":"#вакансия #москва #офис #qaengineer #qa \nГород и адрес офиса: Москва, м.Автозаводская \nФормат работы: офис \nЗанятость: полная \nЗарплатная вилка: от 60 000 на руки \n\n✅QA Engineer (gamedev)\n\nОписание вакансии: \n\nКрупный мобильный проект в жанре фентези - Dragon Champions - ищет своего QA! Вы сможете работать над интересной игрой на стыке мидкорных и хардкорных механик, в окружении команды больших профессионалов с многолетним опытом.\n\n✅Что делать:\n\n•  Тестирование мобильной игры: функциональное тестирование, юзабилити тестирование, регрессионное тестирование\n•  Составление документации для тестирования: тест-кейсы, тест-план, чек-листы\n•  Тесное обсуждение функциональности игры с командой разработки\n•  Заведение всех найденных багов в трекере (Jira)\n\n✅Требования:\n\n•  Опыт работы в тестировании от одного года\n•  Понимание основ тестирования ПО, тест-планов, чек-листов, регрессионного и функционального тестирования\n•  Огромным плюсом будет наличие опыта в тестировании игр, в особенности, мобильных игр на Unity\n•  Умение работать с Jira, Confluence и Unity также будет большим плюсом\n\n✅Для вас:\n\n•  Конкурентная заработная плата, выплачивается 2 раза в месяц\n•  Необходимое оборудование для работы\n•  Коллектив творческих и позитивных людей\n\n✅О нас:\n\n•  Просторный офис 600 метров на м. Автозаводская (3 минуты от метро и от ТТК на машине) с ультра современным дизайном и кучей ништяков (кухня с вкусняшками, кальяны каждый вечер в дружной кампании, PS4 Pro + 4K TV, аркадные автоматы с Pac-Man, Metal Slug и другими хитами геймдизайна, просторная зона отдыха, 6 переговорных комнат и т д)\n•  Команда из 120 человек занимающаяся паблишингом и маркетингом, которая готова сделать продукт успешным после его готовности\n•  Возможность бесплатно обучаться английскому языку с носителями каждый будний день\n\nНазвание компании: AppQuantum\n\nКонтакты: \ne-mail: bm@adquantum.com\ntelegram: @MishaBarinov","markup":[{"type":"hashtag","offset":0,"length":9,"data":"вакансия"},{"type":"hashtag","offset":10,"length":7,"data":"москва"},{"type":"hashtag","offset":18,"length":5,"data":"офис"},{"type":"hashtag","offset":24,"length":11,"data":"qaengineer"},{"type":"hashtag","offset":36,"length":3,"data":"qa"},{"type":"bold","offset":166,"length":21,"data":""},{"type":"bold","offset":437,"length":11,"data":""},{"type":"bold","offset":759,"length":11,"data":""},{"type":"bold","offset":1096,"length":8,"data":""},{"type":"bold","offset":1253,"length":6,"data":""},{"type":"link","offset":1863,"length":16,"data":"mailto:bm@adquantum.com"},{"type":"handle","offset":1890,"length":13,"data":"MishaBarinov"}],"date":"2020-06-19T07:34:54+00:00","link":"tg://resolve?domain=qa_jobs&post=0","tags":[{"name":"qa"},{"name":"unity3d"}],"cities":[{"code":"moscow"}],"allowsRemote":false}}]}}},"context":{}}