{"hash":"f5f6bf98bd95e769321482904cbbd488f77922fd","data":{"records":{"id":"qa","name":"qa","belongsTo":{"totalCount":208,"pageInfo":{"totalPages":21,"currentPage":3},"edges":[{"node":{"__typename":"Job","id":"104215871488-1001089317451","title":"Qa инженер","text":"#вакансия #qa #Москва #офис #fulltime \n🌀Если Вы - manual qa с опытом тестирования Web и mobile приложений от 2-х лет\n🌀Если Вы хотите профессионально развиваться в крутой команде\n\nПишите на avinogradova@corpteamo.com\n\n📝Кто мы?\n💟Teamo - ведущий сервис знакомств, www.teamo.ru \n\n📝Что нужно будет делать? \n- обеспечивать качества разрабатываемого ПО (web приложение + мобильные приложения);\n- выполнять различные виды ручного тестирования (функциональное, исследовательское, приемочное и др.);\n- находить и документировать дефекты;\n- взаимодействовать с другими участниками процесса разработки ПО (аналитики, разработчики, бизнес-пользователи) для быстрого и качественного устранения дефектов\n\n📝Что нужно уметь?\n- опыт тестирования web и мобильных приложений;\n- опыт тестирования без функциональной спецификации;\n- умение взаимодействовать с командой в целях улучшения конечного продукта;\n- опыт работы с баг-трекинговыми системами (Redmine, Jira и аналоги)\n- понимание принципов работы современных веб-приложений, понимание клиент-серверной архитектуры, взаимодействия API и его клиентов (web-сайт, ios/android-приложения);\n- умение локализовать дефект, грамотно описать его в task-трекере с последующим сопровождением процесса устранения;\n- понимание и поиск уязвимостей (sql injection, csrf, xss, etc); \n\n📝 Будет плюсом:\n- знакомство с инструментами автоматизированного тестирования (Selenium, Appium, etc);\n- опыт тестирования API, умение пользоваться инструментом для работы с HTTP-запросами Postman/Fiddler;\n  \n📝Что мы предлагаем?\n- возможность присоединиться к работе над успешным продуктом в нише Dating’a;\n- возможность повлиять на масштабную аудиторию пользователей и быстро увидеть результат своей работы;\n- дружную команду. Вы приносите свои идеи и методы для которых мы предоставим Вам требуемые ресурсы;\n- минимум бюрократии;\n- официальное оформление и \"белая\" заработная плата с компенсацией больничных. Вилка з/п 90-120т.р.net;\n- пятидневная рабочая неделя с возможностью выбрать удобное начало рабочего дня;\n- уютный офис в пешей доступности от ст.м. ул.1905 года;\n- плюшки, печеньки, фрукты;","markup":[{"type":"hashtag","offset":0,"length":9,"data":"вакансия"},{"type":"hashtag","offset":10,"length":3,"data":"qa"},{"type":"hashtag","offset":14,"length":7,"data":"Москва"},{"type":"hashtag","offset":22,"length":5,"data":"офис"},{"type":"hashtag","offset":28,"length":9,"data":"fulltime"},{"type":"link","offset":191,"length":26,"data":"mailto:avinogradova@corpteamo.com"},{"type":"bold","offset":231,"length":6,"data":""},{"type":"link","offset":265,"length":12,"data":"http://www.teamo.ru"},{"type":"link","offset":1933,"length":13,"data":"http://90-120т.р.net"}],"date":"2020-07-02T12:06:10+00:00","link":"tg://resolve?domain=qa_jobs&post=99388","tags":[{"name":"qa"},{"name":"web"},{"name":"mobile"},{"name":"ios"},{"name":"android"},{"name":"sql"},{"name":"selenium"},{"name":"dotnet"}],"cities":[{"code":"moscow"}],"allowsRemote":false}},{"node":{"__typename":"Job","id":"104214822912-1001089317451","title":"Qa инженер","text":"🕵️‍♂️ Компания Безопасная Информационная Зона рассматривает \n▪️Инженера по тестированию Security Operations Center (SOC)\n\n☑️BI.ZONE — визионер российского рынка кибербезопасности, которая исследует, разрабатывает и поддерживает решения для защиты от киберпреступников. В нашей компании успешно сотрудничают эксперты и разработчики, инженеры и специалисты, все те, кто разделяет наши ценности и цели.\nМы создаем инновационные продукты, не имеющие аналогов, для анализа угроз и активной защиты от мошенничества, автоматизируем и масштабируем экспертизу наших сервисных подразделений и разрабатываем инструменты для внутреннего использования.\nhttps://www.bi.zone/ \n\nhttps://hh.ru/vacancy/36873498 \n\n▪️Требования:\n\n-Опыт функционального тестирования от одного года;\n-Опыт работы с опорой на автоматизированные тесты;\n-Опыт написания кода на любом из популярных языков программирования;\n\n▪️Задачи:\n- Анализ и тестирование требований к веб интерфейсу и API - Проверка того, что фронтенд части приложений работают правильно, а сервер всегда отдает корректные значения.\n-Разработка автоматизированных тестов;\n\nМы максимально гибкие и живём без бюрократии.\n\n\nФинансы: до 160 nett, при входе в компанию, подходим к этому вопросу индивидуально.\n\n▪️График: Гибкий, возможность работать один день в неделю удалённо из дома ( в период \"короныча\" удалённо полностью)\n▪️Условия: Исключительно по ТК РФ, ДМС, английский, курсы, возможность залезть по \"ту\" сторону кибербезопасности в роли пинтестера, своя летняя лоджия для работы на свежем воздухе и много всего другого.\n▪️Профессиональный коллектив, сплошь состоящий из асов разработки сложных систем в области практической ИБ.\n▪️Уютный офис, капсульные зоны сна.\n▪️Дружную семью 24/7 и не только.\n\nАндрес: Москва, м. Комсомольская или м.Бауманкая Москва, ул. Ольховская, д.4 к.2,\n\nКонтакты: Телеграм/Звонки 89163097677 - Дарья 🦊\nПочта: d.sokolova@bi.zone \n\n#вакансия #qa #тестировщик #Москва #кибербезопасноть","markup":[{"type":"link","offset":123,"length":9,"data":"http://☑️BI.ZONE"},{"type":"link","offset":641,"length":20,"data":"https://www.bi.zone/"},{"type":"link","offset":664,"length":30,"data":"https://hh.ru/vacancy/36873498"},{"type":"link","offset":1844,"length":11,"data":"tel:89163097677"},{"type":"link","offset":1874,"length":18,"data":"mailto:d.sokolova@bi.zone"},{"type":"hashtag","offset":1895,"length":9,"data":"вакансия"},{"type":"hashtag","offset":1905,"length":3,"data":"qa"},{"type":"hashtag","offset":1909,"length":12,"data":"тестировщик"},{"type":"hashtag","offset":1922,"length":7,"data":"Москва"},{"type":"hashtag","offset":1930,"length":17,"data":"кибербезопасноть"}],"date":"2020-07-02T12:05:16+00:00","link":"tg://resolve?domain=qa_jobs&post=99387","tags":[{"name":"qa"}],"cities":[{"code":"moscow"}],"allowsRemote":true}},{"node":{"__typename":"Job","id":"104213774336-1001089317451","title":"Qa engineer","text":"#вакансия #qa #офис #москва\nм.Бауманская, полная занятость\nБелая з/п до 100.000руб. на руки \nQA Engineer / Тестировщик\nУдаленной работы нет\n\n Мы — команда разработки Level.Travel, сложного продукта в сфере путешествий.  За последние 8 лет мы с нуля создали и продолжаем развивать решение для онлайн-продажи путешествий. Нашу платформу используют лидеры рынка – Тинькофф Банк, OneTwoTrip, Сбербанк, TripAdvisor, Kayak, АК Барс Банк, Евросеть и многие другие. Компания Level.Travel является резидентом Инновационного центра «Сколково».\n\nОбязанности:\n🔸Функциональное тестирование мобильных и web приложений;\n🔸Тестирование API\n🔸Сопровождение задач, мониторинг качества продукта\n🔸Документирование багов\n🔸Проверка кейсов перед релизом, тестирование на промежуточных этапах фиксов и разработки нового функционала\n🔸Оптимизация процесса тестирования внутри команды\n🔸Разработка тест-планов, тест-кейсов\n🔸Тесное общение с командой разработчиков\n🔸Прием обращений от коллег\n🔸Cоставление отчета о тестировании\n\nОт Вас:\n🔸Опыт работы от 1,5 лет\n🔸Общительность, активность умение работать в команде\n🔸Представление о теории тестирования и жизненном цикле ПО\n🔸Умение описать баг, опыт работы с трекерами задач\n🔸Опыт разработки тест-планов, тест-кейсов\n🔸Базовые знания html, сss, regexp\n🔸Понимание как работает протокол http\n🔸Умение работать с перехватчиками трафика\n🔸Опыт работы с developer tools в браузере\n🔸Умение расставлять приоритеты задач\n\n\nОт нас: белая зп, официальное трудоустройство, больничные, отпуска. Скидки на изучение английского языка, техника MAC OS. Регулярная обратная связь и аттестации. Геймификация процессов и несколько раз в год релокейты поработать в другую страну. Клевый молодой коллектив, интересные ивенты, насыщенная корпоративная жизнь. Пинг-понг, бильярд, кальян и другие развлечения в офисе. Скидки на путешествия)\n\nСвязь по почте: vos@level.travel\nИли тут @Alyask_a","markup":[{"type":"hashtag","offset":0,"length":9,"data":"вакансия"},{"type":"hashtag","offset":10,"length":3,"data":"qa"},{"type":"hashtag","offset":14,"length":5,"data":"офис"},{"type":"hashtag","offset":20,"length":7,"data":"москва"},{"type":"bold","offset":59,"length":32,"data":""},{"type":"bold","offset":93,"length":25,"data":""},{"type":"bold","offset":142,"length":76,"data":""},{"type":"bold","offset":536,"length":12,"data":""},{"type":"bold","offset":1008,"length":7,"data":""},{"type":"bold","offset":1449,"length":7,"data":""},{"type":"bold","offset":1852,"length":32,"data":""},{"type":"link","offset":1868,"length":16,"data":"mailto:vos@level.travel"},{"type":"bold","offset":1885,"length":17,"data":""},{"type":"handle","offset":1893,"length":9,"data":"Alyask_a"}],"date":"2020-07-02T12:03:43+00:00","link":"tg://resolve?domain=qa_jobs&post=99386","tags":[{"name":"qa"},{"name":"web"},{"name":"html"}],"cities":[{"code":"moscow"}],"allowsRemote":false}},{"node":{"__typename":"Job","id":"104207482880-1001089317451","title":"Qa engineer","text":"#вакансия #москва #fulltime  #qaengineer \nКомпания: #MentalGrowth https://mentalgrowth.app\nЛокация: #Москва #Бауманская \nФормат работы: офис (удаленная до сентября)  \nЗ/п: от 100к - 120к на руки\nКонтакты: @elentarasova\n\nМы - Mental Growth - команда профессионалов-разработчиков мобильных iOS-приложений в области health/fitness/wellness/well-being. \nУ нас 4 приложения и каждое из них нуждается в постоянном тестировании, мы ищем человека, который сможет поставить этот процесс на поток, а также качественно улучшить нашу команду.\n\nЧем нужно делать:\n- Организовать процесс тестирования;\n- Тестировать мобильные приложения (UI/UX/functional/performance testing);\n- Проводить smoke/регрессионные тесты;\n- Вести тестовую документацию;\n- Выявлять и анализировать проблемы пользователей;\n- Анализовать продуктовые требования и декомпозировать технические задачи на предмет увеличения покрытия тестами;\n- Взаимодействовать с разработчиками для улучшения качества выпускаемых продуктов.\n\nЧто мы ждем от тебя:\n- Опыт тестирования мобильных приложений;\n- Хорошее понимание принципов клиент-серверного взаимодействия, знание HTTP, REST API.\n- Знание Apple’s Human Interface Guidelines, Material Design;\n- Практические навыки тест-дизайна;\n- Самостоятельность и желание все время развиваться.\n\nЧто мы можем предложить тебе:\n- Официальное трудоустройство;\n- Конкурентную заработную плату, растущую с повышением квалификации;\n- Гибкий график начала рабочего дня с 9 до 11;\n- Полное отсутствие бюрократии, молодой коллектив единомышленников и лояльное руководство;\n- Возможность посещения конференций, курсов по повышению квалификации за счет работодателя;\n- Комфортное рабочее место с макбуком и офис с кофе, снеками, диванами и PS4.","markup":[{"type":"bold","offset":0,"length":17,"data":""},{"type":"hashtag","offset":0,"length":9,"data":"вакансия"},{"type":"hashtag","offset":10,"length":7,"data":"москва"},{"type":"bold","offset":18,"length":11,"data":""},{"type":"hashtag","offset":18,"length":9,"data":"fulltime"},{"type":"hashtag","offset":29,"length":11,"data":"qaengineer"},{"type":"bold","offset":30,"length":10,"data":""},{"type":"hashtag","offset":52,"length":13,"data":"MentalGrowth"},{"type":"bold","offset":53,"length":12,"data":""},{"type":"bold","offset":65,"length":25,"data":""},{"type":"link","offset":66,"length":24,"data":"https://mentalgrowth.app/"},{"type":"hashtag","offset":100,"length":7,"data":"Москва"},{"type":"hashtag","offset":108,"length":11,"data":"Бауманская"},{"type":"handle","offset":205,"length":13,"data":"elentarasova"},{"type":"bold","offset":532,"length":17,"data":""},{"type":"bold","offset":981,"length":20,"data":""},{"type":"bold","offset":1283,"length":29,"data":""}],"date":"2020-07-02T10:50:07+00:00","link":"tg://resolve?domain=qa_jobs&post=99380","tags":[{"name":"qa"},{"name":"ios"},{"name":"rest"}],"cities":[{"code":"moscow"}],"allowsRemote":true}},{"node":{"__typename":"Job","id":"104205385728-1001089317451","title":"Qa инженер","text":"#вакансия #QA #офис #fulltime #Москва #Jira \n\nQA инженер\n⠀\nТребуемый опыт работы: 1–3 года\nФормат: офис / fulltime (сейчас удалённо, далее офис)\nЗарплата до 170 gross + 20 % годовой бонус + ДМС\nКомпания: 5POST (подразделение X5 Retail Group)\n\nЛокация: г.Москва  / МЦК Калитники 4 мин. пешком / м. Волгоградский проспект\nСсылка на компанию: https://fivepost.ru/\n\n5POST - новое логистическое подразделение X5 Retail Group, которое развивает услуги доставки заказов для e-commerce в пункты выдачи и автоматизированные пункты выдачи (постаматы) \n\nПроект находится в стадии активного роста и развития, наши амбициозные цели позволяют в своей работе использовать только новые и надежные технологии.\n⠀\nДля удобства наших клиентов мы интегрированы с AliExpress, Ozon, Беру и другими интернет-магазинами. \n⠀\nНаша цель - доставлять 1 000 000 посылок в сутки.\n⠀\nДля обеспечения такой производительности мы развернули несколько десятков микросервисов, отмасштабировали между ними нагрузку и продолжаем работать над оптимизациями.\n\nОбязанности:\n- обеспечение качественного и своевременного исполнения работ по тестированию;\n- минимизация дефектов, выявленных в системе, после переноса протестированного релиза в продуктивную эксплуатацию;\n- осуществление анализа функциональных и бизнес - требований;\n- написание и актуализация тестовых сценариев;\n- осуществление контроля за устранением дефектов в установленные сроки (SLA);\n- проведение тестирования (функциональное, регрессионное, интеграционное);\n- взаимодействие с разработчиками и аналитиками по вопросам тестирования;\n- подготовка отчетов о ходе тестирования.\n⠀\nТребования:\n- опыт тестирования (глубокое и системное понимание тестирование и его методов);\n- опыт создания тестовой документации;\n- разработка автотестов для основных сценариев;\n- опыт разработки скриптов для автоматизации повседневных задач;\n- развертывание и настройка тестовых сред;\n- понимание принципов работы клиент - сервисных приложений;\n- Jira;\n⠀\nУсловия:\n- работа в динамично развивающемся бизнесе 5Post;\n- офис в районе м. Волгоградский проспект;\nСкидки в наших магазинах (Пятерочка, Перекресток, Карусель);\n- ДМС (после прохождения испытательного срока);\n- корпоративное обучение;\n- корпоративная йога в офисе;\n- обширная партнерская программа лояльности;\n- бесплатная парковка;\n- возможность развития и карьерного роста.\n⠀\nКонтакты: @ValeryBurkina","markup":[{"type":"hashtag","offset":0,"length":9,"data":"вакансия"},{"type":"hashtag","offset":10,"length":3,"data":"QA"},{"type":"hashtag","offset":14,"length":5,"data":"офис"},{"type":"hashtag","offset":20,"length":9,"data":"fulltime"},{"type":"hashtag","offset":30,"length":7,"data":"Москва"},{"type":"hashtag","offset":38,"length":5,"data":"Jira"},{"type":"bold","offset":46,"length":11,"data":""},{"type":"bold","offset":145,"length":98,"data":""},{"type":"link","offset":340,"length":20,"data":"https://fivepost.ru/"},{"type":"handle","offset":2354,"length":14,"data":"ValeryBurkina"}],"date":"2020-07-02T10:17:03+00:00","link":"tg://resolve?domain=qa_jobs&post=99378","tags":[{"name":"qa"}],"cities":[{"code":"moscow"}],"allowsRemote":true}},{"node":{"__typename":"Job","id":"104203288576-1001089317451","title":"Qa engineer","text":"#вакансия #москва #полнаязанятость #qaengineer\n\nДолжность: Специалист по тестированию #QA_engineer\nКомпания: Selecty IT (аутсорс)\nГород:  #Москва\nЗП: до 170к на руки\nКонтакты: @BekBuzz , sergei.bekbuzarov@selecty.ru\nЗадачи - ручное и автоматизированное тестирование.\n\nФункциональные требования:\n\nOracle DB: SQL - сложные запросы, PL SQL - желательно знать основы (данный пункт является обязательным требованием)\nООП (преимущественно Java) - желательно знать как минимум основы\nSoupUI\nWeb-services (SOAP, REST)\nJira, Confluence, ALM\n\nОбработка большого кол-ва информации за короткие сроки\nКоммуникабельность, общительность, стрессоустойчивость\nЖелателен опыт работы с SAS MA/RTDM (но не критичен)\nОпыт в тестировании от 2 лет.\nНаличие сертификатов приветствуется (ISTQB и пр.). \n\nУслoвия:\n\nОфис в г. Москва;\nИнтeрeсныe и нeтривиaльныe зaдaчи;\nГибкий грaфик рaбoты (планируется переход на 3 дня в офисе, 2 дома);\nВoзмoжнoсть влиять нa всё тo, чтo тeбe нe нрaвится;\nДoстoйнoe вoзнaгрaждeниe и oтсутствиe кризисa;\nOфициaльнoe oфoрмлeниe нa кoмпaнию-интeгрaтoрa.","markup":[{"type":"hashtag","offset":0,"length":9,"data":"вакансия"},{"type":"hashtag","offset":10,"length":7,"data":"москва"},{"type":"hashtag","offset":18,"length":16,"data":"полнаязанятость"},{"type":"hashtag","offset":35,"length":11,"data":"qaengineer"},{"type":"hashtag","offset":86,"length":12,"data":"QA_engineer"},{"type":"hashtag","offset":138,"length":7,"data":"Москва"},{"type":"handle","offset":176,"length":8,"data":"BekBuzz"},{"type":"link","offset":187,"length":28,"data":"mailto:sergei.bekbuzarov@selecty.ru"}],"date":"2020-07-02T09:32:30+00:00","link":"tg://resolve?domain=qa_jobs&post=99376","tags":[{"name":"qa"},{"name":"oracle"},{"name":"sql"},{"name":"java"},{"name":"web"},{"name":"soap"},{"name":"rest"},{"name":"sas"}],"cities":[{"code":"moscow"}],"allowsRemote":false}},{"node":{"__typename":"Job","id":"104201191424-1001089317451","title":"Qa инженер","text":"#вакансия #QA #Java #QAAutomation #Москва #офис \n\nВакансия: QA Lead (Тест-Менеджер)\nГород: Москва м. Технопарк \nЗарплата: от 250 000 рублей до 290 000 рублей на руки\nФормат: офис, полный день, полная занятость\nКомпания Innovative People \n\n🕘 Чем предстоит заниматься:\n• планирование тестирования;\n• выстраивание процессов тестирования среди 8 команд с упором на автоматизацию;\n• выстраивать CI/CD проекта;\n• налаживание взаимодействия QA инженеров в нескольких командах;\n• поддерживать и развивать разработанные решения по автоматизации;\n• исследовать новые технологии и внедрять их на проекте;\n• принятие решений о внедрении / обновлении программного обеспечения.\n\n🕒 От кандидата ожидаем:\n• опыт в тестировании от 4х лет\n• опыт в автотестировании от 3х лет\n• опыт руководства группой тестировщиков от 2х лет\n• практический опыт применения практик тест-дизайна\n• умение проектировать тест-кейсы и подготавливать тестовые данные для тестирования\n• хорошие знание Java, библиотек\n• уверенное использование и понимание как работает под капотом Selenium Webdriver (Selenide и Appium для мобильных платформ)\n• опыт написания собственного фреймворка\n• опыт работы в unix системах\n• опыт работы с API (Soap, Rest)\n• опыт использование git\n• опыт использование CI (желательно, но не обязательно Jenkins)\n• опыт работы с Docker\n• опыт составления запросов SQL\n• опыт управления непрямыми (функциональными) подчиненными\n• умение контролировать несколько проектов одновременно\n• умение мотивировать команду, опыт управления рисками, мониторинг эффективности процессов\n\n🕧 Предлагаем:\n• все по ТК РФ\n• ДМС со стоматологией, программа лояльности\n• Macbook \n• адекватное руководство и лояльные процессы\n• большое комьюнити, классные команды\n• помогаем с релокацией!\n\nРезюме и вопросы @Priboch","markup":[{"type":"hashtag","offset":0,"length":9,"data":"вакансия"},{"type":"hashtag","offset":10,"length":3,"data":"QA"},{"type":"hashtag","offset":14,"length":5,"data":"Java"},{"type":"hashtag","offset":20,"length":13,"data":"QAAutomation"},{"type":"hashtag","offset":34,"length":7,"data":"Москва"},{"type":"hashtag","offset":42,"length":5,"data":"офис"},{"type":"handle","offset":1771,"length":8,"data":"Priboch"}],"date":"2020-07-02T09:23:09+00:00","link":"tg://resolve?domain=qa_jobs&post=99374","tags":[{"name":"qa"},{"name":"java"},{"name":"selenium"},{"name":"unix"},{"name":"soap"},{"name":"rest"},{"name":"git"},{"name":"jenkins"},{"name":"docker"},{"name":"sql"}],"cities":[{"code":"moscow"}],"allowsRemote":false}},{"node":{"__typename":"Job","id":"104184414208-1001089317451","title":"Qa engineer","text":"#вакансия #TestAutomation #Java #JS #НижнийНовгород #Казань #MERA\n💼  Java and JS Test Automation Engineers\n🔹 Формат работы: office (до конца лета 2020 remote)\n🔹 Локация офисов: НН, Казань (бонус при релокации)\n🔹 Занятость: full-time\n🔹 Опыт: от 2х лет (Test Automation)\n🔹 Английский язык:  Чтение и написание документации не ниже pre-intermediate\n🏢 О компании: MERA (крупная международная компания) сейчас быстро растет. В связи со стартом масштабного проекта наш крупный Заказчик, ведущий поставщик глобальных корпоративных облачных коммуникаций и решений для бизнеса, расширяет команду Test Automation Engineers. Открыто более 10 вакансий на Java and JS Test Automation.\n📁 О проекте:\nПроект по разработке высоконагруженных сервисов облачной телефонии для физических лиц и глобальных корпораций. Продукт объединяет в себе возможности телефонии, видеосвязи, организации встреч и обмен сообщениями в одном надежном, простом в использовании решении.\n👉🏻Подробнее о компании и проекте: https://www.youtube.com/watch?v=V9l0TkZWHfI\n✔ Обязанности: \n- Разработка и поддержка тест-планов и сценариев.\n- Автоматизация тестовых сценариев, сопровождение библиотеки автотестов.\n- Участие в разработке тестового фреймворка.\n- Запуск тестовых скриптов, анализ результатов прогона на разных окружениях, поддержка CI.\n🔹 Гибкая метология: Scrum/Agile\n👋  Команда: Работаем в рамках распределённой (Вильнюс, НН, Казань, Дзержинск), совмещённой с заказчиком команды.  80% - Test Automation Engineers, 20% - Software Developers.\n🙌 Мы предлагаем:\n• Официальное трудоустройство, полностью белая зарплата + премиальная система\n• Участие в перспективных масштабных международных проектах. Заказчики: Северная Америка, Западная Европа.\n• ДМС после прохождения испытательного срока (3 месяца).\n• Широкие возможности профессионального развития (участие в митапах, конференциях, корпоративные программы обучения) и карьерного роста.\n\n💵Бонус за рекомендацию: 60 000 рублей за Middle и 80 000 рублей за Senior.\nЗП стартуем от 70000\nКонтакты:  telegram: @nazahvat, natalya.zakhvatova@orioninc.com","markup":[{"type":"hashtag","offset":0,"length":9,"data":"вакансия"},{"type":"hashtag","offset":10,"length":15,"data":"TestAutomation"},{"type":"hashtag","offset":26,"length":5,"data":"Java"},{"type":"hashtag","offset":32,"length":3,"data":"JS"},{"type":"hashtag","offset":36,"length":15,"data":"НижнийНовгород"},{"type":"hashtag","offset":52,"length":7,"data":"Казань"},{"type":"hashtag","offset":60,"length":5,"data":"MERA"},{"type":"link","offset":991,"length":43,"data":"https://www.youtube.com/watch?v=V9l0TkZWHfI"},{"type":"handle","offset":2034,"length":9,"data":"nazahvat"},{"type":"link","offset":2045,"length":31,"data":"mailto:natalya.zakhvatova@orioninc.com"}],"date":"2020-07-02T07:56:55+00:00","link":"tg://resolve?domain=qa_jobs&post=99358","tags":[{"name":"qa"},{"name":"java"}],"cities":[{"code":"kazan"},{"code":"vilnius"},{"code":"dzerzhinsk"}],"allowsRemote":true}},{"node":{"__typename":"Job","id":"104183365632-1001089317451","title":"Qa engineer","text":"#вакансия #Manual #QA #НижнийНовгород #Казань #MERA\n💼 Manual QA Engineers (Middle/Senior)\n🔹 Формат работы: office (до конца лета 2020 remote)\n🔹 Локация офисов: НН, Казань (бонус при релокации)\n🔹 Занятость: full-time\n🔹 Опыт: от 2х лет для миддлов, от 5ти лет для сеньоров\n🔹 Английский язык: Чтение и написание документации не ниже pre-intermediate\n🏢 О компании: MERA (крупная международная компания) сейчас быстро растет. В связи со стартом масштабного проекта наш крупный Заказчик, ведущий поставщик глобальных корпоративных облачных коммуникаций и решений для бизнеса, расширяет команду. \n📁 О проекте:\nПроект по разработке высоконагруженных сервисов облачной телефонии для физических лиц и глобальных корпораций. Продукт объединяет в себе возможности телефонии, видеосвязи, организации встреч и обмен сообщениями в одном надежном, простом в использовании решении.\n👉🏻Подробнее о компании и проекте: https://www.youtube.com/watch?v=V9l0TkZWHfI\n✔ Обязанности: \nSenior:\n- Работать в Scrum команде, состоящей из 2 разработчиков и 5 QA\n- Составлять планы тестирования в рамках проектов отдела телефонии \n- Заниматься развертыванием, обновлением и поддержкой тестовых окружений\n- Заниматься дизайном и прохождением тестов \n- Составлять отчеты по результатам тестирования\n- Заводить и верифицировать дефекты в Jira\n-  Автоматизировать тесты на Python\nMiddle:\n- Разработка новых фич для IP-телефонов, поддерживаемых заказчиком.\n- Сертификация и добавление новых IP-телефонов (Polycom, Yealink, Cisco, Avaya, Unify и т. д.)\n- Сертификация новых прошивок и модернизация IP-телефонов действующих клиентов на проде.\n- Добавдять поддержку телефонии для новых стран (до 6 новых стран на релиз).\n- Выполнять провижнинг поддерживаемых в настоящее время устройств (IP-телефонов) для обеспечения правильных тарифных планов и тонов прохождения вызова.\n- Добавлять языковую локализацию - IP-телефоны и телефонные подсказки.\n- Добавлять новые IP-телефоны для существующих стран.\n- Создавать покрытие автоматизации для новых стран.\n\nТребования:\n- Опыт в области VoIP телефонии (работа с протоколом SIP, анализ сетевого трафика).\n- Хорошее понимание PBX функциональности\n- Опыт работы с VoIP телефонами (Polycom, Yealink, Cisco, Avaya, Unify, etc)\n- Базовые знания протоколов TCP, UDP, HTTP\n- Знание Linux.\n- Опыт тестирования серверных приложений.\n🔹 Гибкая метология: Scrum/Agile\n👋 Команда: Работаем в рамках распределённой (Вильнюс, НН, Казань, Дзержинск), совмещённой с заказчиком команды.\n🙌 Мы предлагаем:\n• Официальное трудоустройство, полностью белая зарплата + премиальная система\n• Участие в перспективных масштабных международных проектах. Заказчики: Северная Америка, Западная Европа.\n• ДМС после прохождения испытательного срока (3 месяца).\n• Широкие возможности профессионального развития (участие в митапах, конференциях, корпоративные программы обучения) и карьерного роста.\n\n💵Бонус за рекомендацию: 60 000 рублей за Middle и 80 000 рублей за Senior.\nЗП стартуем от 60000\nКонтакты: telegram: @nazahvat, natalya.zakhvatova@orioninc.com","markup":[{"type":"hashtag","offset":0,"length":9,"data":"вакансия"},{"type":"hashtag","offset":10,"length":7,"data":"Manual"},{"type":"hashtag","offset":18,"length":3,"data":"QA"},{"type":"hashtag","offset":22,"length":15,"data":"НижнийНовгород"},{"type":"hashtag","offset":38,"length":7,"data":"Казань"},{"type":"hashtag","offset":46,"length":5,"data":"MERA"},{"type":"link","offset":909,"length":43,"data":"https://www.youtube.com/watch?v=V9l0TkZWHfI"},{"type":"handle","offset":2997,"length":9,"data":"nazahvat"},{"type":"link","offset":3008,"length":31,"data":"mailto:natalya.zakhvatova@orioninc.com"}],"date":"2020-07-02T07:55:58+00:00","link":"tg://resolve?domain=qa_jobs&post=99357","tags":[{"name":"qa"},{"name":"python"},{"name":"linux"}],"cities":[{"code":"kazan"},{"code":"vilnius"},{"code":"dzerzhinsk"}],"allowsRemote":true}},{"node":{"__typename":"Job","id":"104182317056-1001089317451","title":"Qa engineer","text":"#вакансия #москва #полнаязанятость #qaengineer #auto \nКомпания: #Mетрквадратный www.m2.ru\nЛокация: м.Белорусская \nФормат работы: офис (удаленная до сентября)  \nЗ/п: от 120к - 180к на руки\nКонтакты: @maxdmitrov\n\nЭто экосистема недвижимости, которая помогает клиентам решать любые жилищные вопросы: от поиска вариантов и оформления сделки до организации ремонта и переезда в новую квартиру. Мы также создаем решения для партнёров и профессиональных участников рынка недвижимости.\n\nНаш стэк:\n• Java\n • Node.js\n • React, TypeScript\n • Kafka, ElasticSearch, gRPC\n • Docker\n\nЧем предстоит заниматься:\n• заниматься задачами по автоматизации тестирования. \n• анализировать и тестировать требования к разрабатываемым приложениям;\n • писать приемочные критерии к пользовательским историям;\n • проводить функциональное, регрессионное и smoke тестирование;\n \n\nЧего мы ждем:\n • глубокое понимание процессов тестирования и разработки ПО;\n • опыт интеграционного тестирования:\n    - системная интеграция;\n    - компонентная интеграция\n • опыт тестирования АРI;\n • опыт автоматизации тестирования на любом стеке.\n\nБудет плюсом\n • опыт исследовательского тестирования;\n • опыт тестирования ПО с микросервисной архитектурой.\n\nМы предлагаем:\n • белая конкурентная ЗП, официальное оформление;\n • гибкий график работы;\n • ДМС, компенсация фитнеса, льготная ставка по ипотеке;","markup":[{"type":"hashtag","offset":0,"length":9,"data":"вакансия"},{"type":"hashtag","offset":10,"length":7,"data":"москва"},{"type":"hashtag","offset":18,"length":16,"data":"полнаязанятость"},{"type":"hashtag","offset":35,"length":11,"data":"qaengineer"},{"type":"hashtag","offset":47,"length":5,"data":"auto"},{"type":"hashtag","offset":64,"length":15,"data":"Mетрквадратный"},{"type":"link","offset":80,"length":9,"data":"http://www.m2.ru"},{"type":"handle","offset":198,"length":11,"data":"maxdmitrov"},{"type":"bold","offset":478,"length":11,"data":""},{"type":"bold","offset":569,"length":26,"data":""},{"type":"bold","offset":847,"length":15,"data":""},{"type":"bold","offset":1097,"length":14,"data":""},{"type":"bold","offset":1206,"length":16,"data":""}],"date":"2020-07-02T07:49:51+00:00","link":"tg://resolve?domain=qa_jobs&post=99356","tags":[{"name":"qa"},{"name":"java"},{"name":"nodejs"},{"name":"reactjs"},{"name":"typescript"},{"name":"kafka"},{"name":"elasticsearch"},{"name":"docker"}],"cities":[{"code":"moscow"}],"allowsRemote":true}}]}}},"context":{}}