{"hash":"f34fd2c444a074f4e0e67d525015a008ef8e766f","data":{"records":{"id":"kafka","name":"kafka","belongsTo":{"totalCount":55,"pageInfo":{"totalPages":6,"currentPage":1},"edges":[{"node":{"__typename":"Job","id":"1435500544-1001091028994","title":"Java разработчик","text":"#ulyanovsk #java #kotlin #backend #spring #middle #senior\n\nЛокация: Ульяновск, можно удаленно, если из другого города (работаем по ТК РФ или как с Российским ИП) \nФормат работы: #офис, #fulltime #remote\nЗ/п: до 150к т.р. (net) \nКомпания: Nord Clan\nКонтакты: @VladislavAg\n\nИщу разработчика в команду Nord Clan. Наша компания разрабатывает системы для бизнеса в области финтеха, медецины и фудтеха. Помимо этого разрабатываем собственные продукты связанные с машинным обучением, распознаванием образов и компьютерным зрением. \nОгромным плюсом будет опыт работы с Kotlin. \nТакже готовы рассмотреть специалистов с опытом в других backend технологиях, которые хотят погрузиться в мир Java.\n\n📌 Мы работаем с:\nJava 8 и выше, Kotlin, Groovy;\nSpring, Spring Boot, Security, Data, MVC;\nРеляционным базами (Postgres\\Oracle) и NoSQL (Mongo\\Cassandra\\Ignite);\nПишем RESTfull приложения с использованием RabbitMQ и Kafka.\n\n📌 В круг твоих обязанностей будет входить:\nПринимать непосредственное участие в командной разработке ПО;\nПроводить и проходить через code-review;\nПринимать участие в проработке архитектурных задач;\nОднако CRUD-сервисы никто не отменял, и мы их тоже пишем;\nПисать качественный код и покрывать его unit-тестами.\n\n📌Тебе к нам, если ты хочешь:\nРаботать в компании, где нет формальностей и бюрократии;\nРаботать в команде с четко выстроенным процессом разработки;\nИметь возможность пройти сертификацию OCP за счет компании;\nОформление по ТК РФ, белую зарплату;","markup":[{"type":"hashtag","offset":0,"length":10,"data":"ulyanovsk"},{"type":"hashtag","offset":11,"length":5,"data":"java"},{"type":"hashtag","offset":17,"length":7,"data":"kotlin"},{"type":"hashtag","offset":25,"length":8,"data":"backend"},{"type":"hashtag","offset":34,"length":7,"data":"spring"},{"type":"hashtag","offset":42,"length":7,"data":"middle"},{"type":"hashtag","offset":50,"length":7,"data":"senior"},{"type":"hashtag","offset":178,"length":5,"data":"офис"},{"type":"hashtag","offset":185,"length":9,"data":"fulltime"},{"type":"hashtag","offset":195,"length":7,"data":"remote"},{"type":"handle","offset":258,"length":12,"data":"VladislavAg"}],"date":"2020-04-10T12:23:59+00:00","link":"tg://resolve?domain=jvmjobs&post=1369","tags":[{"name":"java"},{"name":"jvm"},{"name":"kotlin"},{"name":"spring"},{"name":"dotnet"},{"name":"groovy"},{"name":"postgresql"},{"name":"oracle"},{"name":"nosql"},{"name":"cassandra"},{"name":"rabbitmq"},{"name":"kafka"},{"name":"spring-boot"}],"cities":[{"code":"ulyanovsk"}],"allowsRemote":true}},{"node":{"__typename":"Job","id":"1434451968-1001091028994","title":"Java developer","text":"Вакансия: Senior Java developer \n\nБольшой интергационный проект: разработка платформы финансового маркетплейса для физических лиц, проект  стартует в сентябре-декабре 2020 г. \n\nЗадачи на новый проект:\n\nНачать разработку и отладку BPM-слоя платформы, основанной на микросервисной архитектуре с использованием - Java 8; Spring Framework (Core, MVC, Boot); Camunda BPM; Apache Kafka; Hibernate; Docker; PostgreSQL. \n\nВзаимодействие со смежными командами и определение зон ответственности при реализации задач.\n\nПодготовка рекомендаций по внедрению новых технологии, решений, подходов.\n\nНастройка CI/CD процессов. \n\nТребования:\n\nГлубокие знание java core.\nОпыт в java от 3-х лет.\nЗнание подходов CI/CD. \nОтличные организационные и коммуникативные навыки. \n\nЛокация офиса: г. Москва, м. Арбатская/Библиотека им. Ленина/Боровицкая/Александровский сад. \nЗанятость: полная, официальное оформление в штат Компании. \nДМС: с первого рабочего дня. \nФормат работы: современный  офис возле кремля в шаговой доступности от метро (сейчас работаем из дома, возможно, после выхода в офисе многое поменяется))).\nКомпания: ПАО Московская биржа (Компания входящая в 500 - лучших работодателей мира по версии Forbes за 2019 год). \nУровень з/п:  230- 300 тыс.руб. + годовой бонус.\nФормат интервью: один этап интервью по Skype (60 минут). \nКоманда: абсолютно новая команда, почти (3 вакансии senior developer) сформирована за период февраль - март 2020 г. \n\n\nПишите в личку, отвечу на любые вопросы!\nКонтакты: @Sasha_P92","markup":[{"type":"handle","offset":1486,"length":10,"data":"Sasha_P92"}],"date":"2020-04-10T10:34:17+00:00","link":"tg://resolve?domain=jvmjobs&post=1368","tags":[{"name":"java"},{"name":"jvm"},{"name":"spring"},{"name":"apache"},{"name":"kafka"},{"name":"hibernate"},{"name":"docker"},{"name":"postgresql"}],"cities":[{"code":"moscow"}],"allowsRemote":false}},{"node":{"__typename":"Job","id":"1431306240-1001091028994","title":"Java разработчик","text":"#scala #teamlead #senior #офис #удаленно #fulltime #Москва\n\nПриглашаем Scala-разработчика уровня senior-teamlead, 220-270 тыс. на руки.\n\nТребования:\nлидировать и развивать команду разработчиков\nразвивать backend приложение на Akka HTTP\nпрорабатывать интеграции для сервисов на Java (Spring Cloud)\nинтегрироваться со стеком Kafka, MQ, Redis, Orcale SQL, Postgres\nfrontend разработка (React, Redux, Typescript, собственная библиотека компонентов)\nработать с витринами на Spark, Hadoop\nразработать web-scraper на Akka Streams\nподдерживать процесс сборки и тестирования (git, Ansible, Jenkins, Docker, OpenShift)\n\nСбербанк, Москва, Кутузовская\n\nКонтакты: @MikeTurchenkov","markup":[{"type":"hashtag","offset":0,"length":6,"data":"scala"},{"type":"hashtag","offset":7,"length":9,"data":"teamlead"},{"type":"hashtag","offset":17,"length":7,"data":"senior"},{"type":"hashtag","offset":25,"length":5,"data":"офис"},{"type":"hashtag","offset":31,"length":9,"data":"удаленно"},{"type":"hashtag","offset":41,"length":9,"data":"fulltime"},{"type":"hashtag","offset":51,"length":7,"data":"Москва"},{"type":"handle","offset":651,"length":15,"data":"MikeTurchenkov"}],"date":"2020-04-09T11:58:52+00:00","link":"tg://resolve?domain=jvmjobs&post=1365","tags":[{"name":"java"},{"name":"jvm"},{"name":"scala"},{"name":"akka"},{"name":"spring"},{"name":"cloud"},{"name":"kafka"},{"name":"redis"},{"name":"sql"},{"name":"postgresql"},{"name":"reactjs"},{"name":"redux"},{"name":"typescript"},{"name":"hadoop"},{"name":"web"},{"name":"git"},{"name":"ansible"},{"name":"jenkins"},{"name":"docker"},{"name":"react-redux"}],"cities":[{"code":"moscow"}],"allowsRemote":true}},{"node":{"__typename":"Job","id":"98258911232-1001089317451","title":"Qa engineer","text":"#qa #automation #java #testng #remote #fulltime #job #jobs #backend #вакансия #remotework #sdet\nVacancy: Test Automation Engineer/SDET\nCompany: Libertex Group\nEmployment: Full-time remote\nSalary: 2,5k$ – 3,5k$ net\nDescription\nOur perfect automation engineer applies appropriate automation technologies to meet the short- and long-term goals of IT development. They are able to fulfill key activities of an Agile QA Tester.\n\nThe automation engineer strive to Automate as much of the testing effort as possible with a minimum set of code/scripts.\n\nThe Automation Engineer focuses on test effort not testing coverage, reducing expensive manual overheads at all times. The Automation engineer is aligned with services teams but is flexible when required to assist with projects.\n\nRequirements\nExperience with test automation frameworks & tools (Essential: Java, TestNG; optional: Cucumber/Gherkin)\nPerformance testing (Gatling)\nDemonstrable experience creating and maintaining automated test suites\nExperience with object-oriented programming language (Java)\nExperience with functional UI testing (Selenium WebDriver)\nExperience with RESTful web services testing\nExperience with Continuous Integration / Continuous Delivery\nPractical experience working with Agile methodologies, Scrum / Kanban\nExperience working in an Agile Scrum team\nExperience with Python and Golang would be a plus\nExperience with Message Brokers (e.g. Kafka, ActiveMQ) would be a plus\nGit basics\nUpper Intermediate is a minimal level, ability to pass an interview in English\nContact: @OlgaVzh","markup":[{"type":"hashtag","offset":0,"length":3,"data":"qa"},{"type":"hashtag","offset":4,"length":11,"data":"automation"},{"type":"hashtag","offset":16,"length":5,"data":"java"},{"type":"hashtag","offset":22,"length":7,"data":"testng"},{"type":"hashtag","offset":30,"length":7,"data":"remote"},{"type":"hashtag","offset":38,"length":9,"data":"fulltime"},{"type":"hashtag","offset":48,"length":4,"data":"job"},{"type":"hashtag","offset":53,"length":5,"data":"jobs"},{"type":"hashtag","offset":59,"length":8,"data":"backend"},{"type":"hashtag","offset":68,"length":9,"data":"вакансия"},{"type":"hashtag","offset":78,"length":11,"data":"remotework"},{"type":"hashtag","offset":90,"length":5,"data":"sdet"},{"type":"bold","offset":96,"length":47,"data":""},{"type":"bold","offset":159,"length":11,"data":""},{"type":"bold","offset":188,"length":6,"data":""},{"type":"bold","offset":214,"length":12,"data":""},{"type":"bold","offset":776,"length":13,"data":""},{"type":"underline","offset":1039,"length":8,"data":""},{"type":"bold","offset":1047,"length":8,"data":""},{"type":"bold","offset":1464,"length":87,"data":""},{"type":"handle","offset":1552,"length":8,"data":"OlgaVzh"}],"date":"2020-04-08T22:34:06+00:00","link":"tg://resolve?domain=qa_jobs&post=93707","tags":[{"name":"qa"},{"name":"java"},{"name":"dotnet"},{"name":"cucumber"},{"name":"selenium"},{"name":"web"},{"name":"python"},{"name":"go"},{"name":"kafka"},{"name":"git"},{"name":"continuous-integration"}],"cities":[],"allowsRemote":true}},{"node":{"__typename":"Job","id":"98229551104-1001089317451","title":"Qa engineer","text":"#вакансия \nВакансия: #sdet #QA #automation #fulltime\nКомпания: #нспк #псмир\nЛокация: #томск\nЗ/п: 100к-180к net (после вычета налогов)\n\n«Национальная система платежных карт» ищет QA Automation Engineer.\n\nНСПК - развивающаяся компания, создающая финтех-сервисы, которыми пользуются миллионы людей. \n\nЗа 5 лет нашей истории мы разработали бизнес-продукты, аналоги которых в мире можно пересчитать по пальцам:\n✔️Платежная система \"Мир\";\n✔️Система быстрых платежей;\n✔️Программа лояльности \"Мир\";\n✔️Сервис мобильной оплаты MirPay;\n✔️Система аутентификации пользователей MirAccept.  \n\n⛏ Наш стек: Java, Spring, MySql, Linux, Git, Jenkins, Nexus, Ansible, Groovy, Gradle, Nginx, HAProxy, Kafka, Hazelcast, Prometheus, ELK, Atlassian stack. \n\n🧠 Что нужно будет делать?\n- Разрабатывать автоматизированные тесты;\n- Проводить интеграционное тестирование;\n- Разрабатывать тест-кейсы и регистрировать баги;\n- Разрабатывать собственные платформы для автоматизации тестирования.\n\nВ общем, контролировать качество разрабатываемого решения. \n\n🎁 Мы предлагаем:\n- Работу в команде профессионалов;\n- Обучение за счет компании;\n- Развитую корпоративную культуру;\n- ДМС со стоматологией, официальное трудоустройство; \n- Комфортный офис в центре;\n- Чай, кофе, печеньки. ✌️\n\nХотите поучаствовать в масштабном и сложном проекте?\n\nМои контакты:\n📲 +7-916-051-20-63\n      @Ekaterina1915 \n\n📩 makarovaen@nspk.ru","markup":[{"type":"hashtag","offset":0,"length":9,"data":"вакансия"},{"type":"hashtag","offset":21,"length":5,"data":"sdet"},{"type":"hashtag","offset":27,"length":3,"data":"QA"},{"type":"hashtag","offset":31,"length":11,"data":"automation"},{"type":"hashtag","offset":43,"length":9,"data":"fulltime"},{"type":"hashtag","offset":63,"length":5,"data":"нспк"},{"type":"hashtag","offset":69,"length":6,"data":"псмир"},{"type":"hashtag","offset":85,"length":6,"data":"томск"},{"type":"link","offset":1323,"length":16,"data":"tel:+7-916-051-20-63"},{"type":"handle","offset":1346,"length":14,"data":"Ekaterina1915"},{"type":"link","offset":1366,"length":18,"data":"mailto:makarovaen@nspk.ru"}],"date":"2020-04-08T11:49:39+00:00","link":"tg://resolve?domain=qa_jobs&post=93679","tags":[{"name":"qa"},{"name":"dotnet"},{"name":"java"},{"name":"spring"},{"name":"mysql"},{"name":"linux"},{"name":"git"},{"name":"jenkins"},{"name":"ansible"},{"name":"groovy"},{"name":"gradle"},{"name":"nginx"},{"name":"kafka"}],"cities":[{"code":"tomsk"}],"allowsRemote":false}},{"node":{"__typename":"Job","id":"1429209088-1001091028994","title":"Java разработчик","text":"#java #javascript #spring #middle #senior #кибербезопасность\nКомпания: #bizone #бизон \nЛокация: #москва #мск \nЗ/п: 100 - 220к\nКонтакты: @sokolovaap, d.sokolova@bi.zone\n\n- BI.ZONE (Безопасная информационная зона) -визионер российского рынка кибербезопасности.\nМы создаем инновационные продукты для анализа угроз и активной защиты от мошенничества, автоматизируем и масштабируем экспертизу наших сервисных подразделений и разрабатываем инструменты для внутреннего использования; Являемся международной компанией;\n\nЗадача:\n- Разработка уникальной платформы выявления мошенничества (Fraud Monitoring);\n\nНаш стек:\n- spring, знание maven,postgresql,apache cassandra,docker,apache kafka;\n\nЧто предлагаем?\n- Сложные задачи, прокачивающие уникальные скиллы;\n- Организовываем удаленную работу сейчас, не проблема.\n- Офис м.Комсомольская/Бауманская/Красносельская;\n- Свободный график, капсулы сна, работу на свежем воздухе, игровые приставки;\n- ДМС и фитнес и тд;\n- Профессиональный коллектив, сплошь состоящий из асов разработки сложных систем в области практической ИБ;\n- И дружную семью 24/7.","markup":[{"type":"hashtag","offset":0,"length":5,"data":"java"},{"type":"hashtag","offset":6,"length":11,"data":"javascript"},{"type":"hashtag","offset":18,"length":7,"data":"spring"},{"type":"hashtag","offset":26,"length":7,"data":"middle"},{"type":"hashtag","offset":34,"length":7,"data":"senior"},{"type":"hashtag","offset":42,"length":18,"data":"кибербезопасность"},{"type":"hashtag","offset":71,"length":7,"data":"bizone"},{"type":"hashtag","offset":79,"length":6,"data":"бизон"},{"type":"hashtag","offset":96,"length":7,"data":"москва"},{"type":"hashtag","offset":104,"length":4,"data":"мск"},{"type":"handle","offset":136,"length":11,"data":"sokolovaap"},{"type":"link","offset":149,"length":18,"data":"mailto:d.sokolova@bi.zone"},{"type":"link","offset":171,"length":7,"data":"http://BI.ZONE"}],"date":"2020-04-08T10:59:36+00:00","link":"tg://resolve?domain=jvmjobs&post=1363","tags":[{"name":"java"},{"name":"jvm"},{"name":"javascript"},{"name":"spring"},{"name":"maven"},{"name":"postgresql"},{"name":"apache"},{"name":"cassandra"},{"name":"docker"},{"name":"kafka"}],"cities":[{"code":"moscow"}],"allowsRemote":false}},{"node":{"__typename":"Job","id":"1428160512-1001091028994","title":"Java разработчик","text":"Вакансия: Team Lead Java\n\nПроект: Сервисная шина предприятия (ESB) — связующее программное обеспечение, обеспечивающее централизованный и унифицированный событийно-ориентированный обмен сообщениями между различными информационными системами на принципах микросервисной архитектуры.\n\nТехнологический стек на проекте: core Java 12, Spring Framework, Kafka.\n\nФункционал на проекте:\n\n- Управление процессом разработки внутренней интеграционной платформы и компонентов, постановка задач, контроль исполнения;\n- Проектирование и реализация компонентов: адаптеры получения данных, компоненты сервера приложений, веб сервисы;\n- Реализация интеграционных сценариев и бизнес процессов (BPMS);\n- Проектирование и разработка интерфейсов взаимодействия с системами и сервисами;\n- Написание автоматических модульных тестов (Unit tests);\n- Ведение неформальной технической документации в confluence.\n\nДля этого важно:\n\nОпыт работы Team Lead от 2 лет;\nУверенное знание Core Java: collections, многопоточность;\nОпыт разработки веб-сервисов (REST, HTTP);\nОпыт работы с системами обмена сообщениями (JMS);\nЗнание паттернов проектирования ПО;\nОпыт работы с ESB.\n\nМы предлагаем:\n- Локация офиса: г. Москва, м. Арбатская/Библиотека им. Ленина/Боровицкая/Александровский сад;\n- Занятость: пока полная занятость, официальное оформление в штат Компании (пока работает удаленно из дома, выйдем в офис многое поменяется);\n- ДМС: с первого рабочего дня;\n- Формат работы: современный  офис возле кремля в шаговой доступности от метро (сейчас работаем из дома, возможно, после выхода в офисе многое поменяется);\n- Компания: ПАО Московская биржа (Компания входящая в 500 - лучших работодателей мира по версии Forbes за 2019 год);\n- Уровень з/п:  250- 350 тыс.руб. + годовой бонус;\n- Формат интервью: 1-2 этапа интервью по Skype (60 минут). \n\n\nПишите в личку, отвечу на любые вопросы!\nКонтакты: @Sasha_P92","markup":[{"type":"bold","offset":0,"length":24,"data":""},{"type":"bold","offset":26,"length":8,"data":""},{"type":"bold","offset":283,"length":32,"data":""},{"type":"bold","offset":356,"length":22,"data":""},{"type":"bold","offset":886,"length":17,"data":""},{"type":"bold","offset":1143,"length":15,"data":""},{"type":"bold","offset":1853,"length":9,"data":""},{"type":"handle","offset":1863,"length":10,"data":"Sasha_P92"}],"date":"2020-04-08T10:40:54+00:00","link":"tg://resolve?domain=jvmjobs&post=1362","tags":[{"name":"java"},{"name":"jvm"},{"name":"spring"},{"name":"kafka"},{"name":"rest"}],"cities":[{"code":"moscow"}],"allowsRemote":true}},{"node":{"__typename":"Job","id":"1987051520-1001134745498","title":"Devops инженер","text":"#вакансия #DevOps #Москва\nMiddle DevOps\nФормат работы: офис\\удаленно, Занятость: полная\nКомпания: SnegirSoft - вендор ITSM-платформы «4it».\nРазрабатываем и поддерживаем платформу для управления it-процессами больших компаний.\n\nЗадачи:\n⚙️Развитие и поддержка инфраструктуры;\n⚙️Автоматизация сборки и доставки кода;\n⚙️Поддержка разработчиков;\n⚙️Анализ и устранение инцидентов на продуктовых контурах;\n⚙️Обеспечение работоспособности и отказоустойчивости сервисов;\n⚙️Внедрение новых инструментов администрирования;\n\nНаши хотелки:\n🛠Системы контроля версий Git (Bitbucket, Gitlab);\n🛠Управление конфигурациями (Ansible);\n🛠CI\\CD: Teamcity \\ Gitlab \\ Jenkins;\n🛠Опыт администрирования Windows, IIS;\n🛠Умение хорошо писать на Powershell;\n🛠Cистемы мониторинга (Zabbix \\ Prometheus);\n🛠ELK – стек (Elasticsearch, Kibana);\n🛠Сообщения, очереди: RabbitMQ, Kafka;\nБудет круто если:\n🛠Опыт администрирования Apache \\ Nginx;\n🛠Опыт администрирования Linux;\n🛠Контейнеризация (Docker);\n🛠Умение писать SQL-запросы, понимание принципов работы СУБД;\n🛠Опыт работы с монолитными и микросервисными архитектурами;\n🛠Навыки написание скриптов на bash;\n\nПредлагаем:\n🏢м. Нововкузнецкая 3(!) мин. пешком,\n🚑  ДМС (почти all inclusive)\n💰  Доход: 140 000 – 180 000 нетт\n⏰Начало дня гибко с 9-10-11, как договоримся.\n🖥ПК: i7 8-gen, 24Gb, SSD 512Gb, 2 хороших монитора.\n🚀  Стэк актуальный: .Net Core, Angular, Elasticsearch, RabbitMQ, MS SQL->Postgres, Almost SCRUM ^)\nКонтакты: @aastaf  a.astafev@snegirsoft.com\n\n—\n\n👉 Обсуждение вакансии в чате @devops_jobs","markup":[{"type":"hashtag","offset":0,"length":9,"data":"вакансия"},{"type":"hashtag","offset":10,"length":7,"data":"DevOps"},{"type":"hashtag","offset":18,"length":7,"data":"Москва"},{"type":"handle","offset":1457,"length":7,"data":"aastaf"},{"type":"link","offset":1466,"length":24,"data":"mailto:a.astafev@snegirsoft.com"},{"type":"handle","offset":1525,"length":12,"data":"devops_jobs"}],"date":"2020-04-08T10:14:42+00:00","link":"tg://resolve?domain=devops_jobs_feed&post=1895","tags":[{"name":"git"},{"name":"gitlab"},{"name":"ansible"},{"name":"jenkins"},{"name":"windows"},{"name":"iis"},{"name":"powershell"},{"name":"elasticsearch"},{"name":"rabbitmq"},{"name":"kafka"},{"name":"apache"},{"name":"nginx"},{"name":"linux"},{"name":"docker"},{"name":"sql"},{"name":"bash"},{"name":"dotnet"},{"name":"angularjs"},{"name":"postgresql"},{"name":"net-core"}],"cities":[{"code":"moscow"}],"allowsRemote":true}},{"node":{"__typename":"Job","id":"1986002944-1001134745498","title":"Devops engineer","text":"#вакансия #Казань #офис #Linux  #DevOps\n🌎Город и адрес офиса: Казань, м. Суконная Слобода, ул. Спартаковская д. 6 \n🏙Формат работы: офис (на время карантина удаленно)\n🕗Занятость: полная\n💰Зарплатная вилка: от 150 000 до 250 000 рублей gross\n\nОписание вакансии: \nПолная занятость, гибкий график\n\nStream – дочерняя компания ПАО МТС, задача которой – вывести мобильную и веб-разработку холдинга на новый уровень.\nИщем Lead DevOps engineer, который:\n- не боится новых технологий, но и не забывает старые (уметь руками поднять и настроить);\n- выбирает решения и стек исходя из требований и эффективности;\n- готов быть наставником для менее опытных ребят (наставничество, менторство);\n- возглавит группу DevOps (в первые месяцы 2-3 человека, в будущем будет больше);\n- сможет курировать много проектов и распределять задачи между членами команд (потребуются навыки планирования, оценки задач и общения с внутренними заказчиками – техлидами проектов);\n- готов быть на связи в экстренных случаях в любое время.\nНаша цель – развивать лучшие DevOps практики и наращивать экспертизу в компании.\n\nНаш стек достаточно разнообразен, не обязательно быть экспертом во всем, но если вдруг есть хороший опыт с чем-то из этого списка: Kubernates, Kafka, Bamboo, Jenkins, Ansible, Prometheus, Postgres, vmware, то будет плюсом.\n\n🍩🍭Мы предлагаем:\n- оформление по ТК РФ, гибкий график работы;\n- \"Белая\" заработная плата + полугодовые бонусы;\n- ДМС со стоматологией, страхование жизни после испытательного срока;\n- обучение и посещение профильных конференций;\n- корпоративная мобильная связь;\n- просторный офис в центре Казани.\nНазвание компании: Stream https://stream.ru/\nКонтакты: @askamasaska\n\n—\n\n👉 Обсуждение вакансии в чате @devops_jobs","markup":[{"type":"hashtag","offset":0,"length":9,"data":"вакансия"},{"type":"hashtag","offset":10,"length":7,"data":"Казань"},{"type":"hashtag","offset":18,"length":5,"data":"офис"},{"type":"hashtag","offset":24,"length":6,"data":"Linux"},{"type":"hashtag","offset":32,"length":7,"data":"DevOps"},{"type":"link","offset":1635,"length":18,"data":"https://stream.ru/"},{"type":"handle","offset":1664,"length":12,"data":"askamasaska"},{"type":"handle","offset":1711,"length":12,"data":"devops_jobs"}],"date":"2020-04-08T09:52:24+00:00","link":"tg://resolve?domain=devops_jobs_feed&post=1894","tags":[{"name":"linux"},{"name":"kafka"},{"name":"jenkins"},{"name":"ansible"},{"name":"postgresql"}],"cities":[{"code":"kazan"}],"allowsRemote":true}},{"node":{"__typename":"Job","id":"98214871040-1001089317451","title":"Qa engineer","text":"#вакансия #москва #полнаязанятость #qaengineer\nКомпания: #Mетрквадратный ( https://m2.ru )\nЛокация: м.Белорусская (в шаге от метро) \nЗ/п: от 120к - 230к на руки\nКонтакты: @maxdmitrov\n\nЭто платформа, на которой физические лица смогут в режиме одного окна подобрать объект недвижимости, оформить на него ипотеку, произвести электронную регистрацию, сделать безопасный расчет не посещая банки и воспользоваться дополнительными услугами (страхование, дизайн, ремонт). \n\nНаш стэк:\n• Java\n • Node.js\n • React, TypeScript\n • Kafka, ElasticSearch, gRPC\n • Docker\n\nЧем предстоит заниматься:\n • анализировать и тестировать требования к разрабатываемым приложениям;\n • писать приемочные критерии к пользовательским историям;\n • проводить функциональное, регрессионное и smoke тестирование;\n • заниматься задачами по автоматизации тестирования.\n\nЧего мы ждем:\n • глубокое понимание процессов тестирования и разработки ПО;\n • опыт интеграционного тестирования:\n    - системная интеграция;\n    - компонентная интеграция\n • опыт тестирования АРI;\n • опыт автоматизации тестирования на любом стеке.\n\nБудет плюсом\n • опыт исследовательского тестирования;\n • опыт тестирования ПО с микросервисной архитектурой.\n\nМы предлагаем:\n • белая конкурентная ЗП, официальное оформление;\n • гибкий график работы, возможность выбора рабочего оборудования;\n • ДМС, компенсация фитнеса, льготная ставка по ипотеке;\n • комфортный офис в БЦ «Белая площадь» (минута от метро): лаундж-зоны, бариста, фрукты.","markup":[{"type":"hashtag","offset":0,"length":9,"data":"вакансия"},{"type":"hashtag","offset":10,"length":7,"data":"москва"},{"type":"hashtag","offset":18,"length":16,"data":"полнаязанятость"},{"type":"hashtag","offset":35,"length":11,"data":"qaengineer"},{"type":"hashtag","offset":57,"length":15,"data":"Mетрквадратный"},{"type":"link","offset":75,"length":13,"data":"https://m2.ru"},{"type":"handle","offset":171,"length":11,"data":"maxdmitrov"},{"type":"bold","offset":465,"length":11,"data":""},{"type":"bold","offset":556,"length":26,"data":""},{"type":"bold","offset":833,"length":15,"data":""},{"type":"bold","offset":1083,"length":14,"data":""},{"type":"bold","offset":1192,"length":16,"data":""}],"date":"2020-04-08T08:59:45+00:00","link":"tg://resolve?domain=qa_jobs&post=93665","tags":[{"name":"qa"},{"name":"java"},{"name":"nodejs"},{"name":"reactjs"},{"name":"typescript"},{"name":"kafka"},{"name":"elasticsearch"},{"name":"docker"}],"cities":[{"code":"moscow"}],"allowsRemote":false}}]}}},"context":{}}