{"hash":"f5f6bf98bd95e769321482904cbbd488f77922fd","data":{"records":{"id":"java","name":"java","belongsTo":{"totalCount":242,"pageInfo":{"totalPages":25,"currentPage":23},"edges":[{"node":{"__typename":"Job","id":"71305265152-1001054966032","title":"Android разработчик","text":"#вакансия #android #java #kotlin #офис #москва\nм.Бауманская, полная занятость\nБелая з/п 130.000 - 200.000 руб. на руки (рассматриваем уровень Middle/Senior)\nAndroid developer\nНа время изоляции работаем удаленно, после вновь вернемся в офис!\nПолностью удаленной работы у нас нет!\n\nМы — команда разработки Level.Travel, сложного продукта в сфере путешествий. За последние 8 лет мы с нуля создали и продолжаем развивать решение для онлайн-продажи путешествий. Нашу платформу используют лидеры рынка – Тинькофф Банк, OneTwoTrip, Сбербанк, TripAdvisor, Kayak, АК Барс Банк, Евросеть и многие другие. Компания Level.Travel является резидентом Инновационного центра «Сколково».\n\n\nОбязанности:\n🔸Разработка приложения со сложным UI в команде разработчиков\n🔸Построение архитектуры\n🔸Реализация клиент-серверного взаимодействия\n🔸Написание тестов\n\nОт Вас:\n🔸От 2-х лет в разработке на Android\n🔸Знание Java/Kotlin на уровне ведущего разработчика\n🔸Знание архитектурных паттернов (MVVM / Clean Architecture), ООП\n🔸Знания цикла работы приложения, управления памятью\n🔸Опыт работы или понимание RxJava, RxAndroid, Retrofit, Dagger2, Android Data Binding\n🔸Понимание Android Architecture Components будет плюсом\n🔸CI / CD\n🔸Все тонкости работы с клиент-серверной архитектурой\n🔸Умение отлаживать приложение, профилирование кода\n\nОт нас: белая зп, официальное трудоустройство, больничные, отпуска. Скидки на изучение английского языка, техника MacBook Pro. Регулярная обратная связь и аттестации. Геймификация процессов и несколько раз в год релокейты поработать в другую страну. Клевый молодой коллектив, интересные ивенты, насыщенная корпоративная жизнь. Пинг-понг, бильярд, кальян и другие развлечения в офисе. Скидки на путешествия)\n\nСвязь по почте : vos@level.travel\nИли тут @Alyask_a","markup":[{"type":"hashtag","offset":0,"length":9,"data":"вакансия"},{"type":"hashtag","offset":10,"length":8,"data":"android"},{"type":"hashtag","offset":19,"length":5,"data":"java"},{"type":"hashtag","offset":25,"length":7,"data":"kotlin"},{"type":"hashtag","offset":33,"length":5,"data":"офис"},{"type":"hashtag","offset":39,"length":7,"data":"москва"},{"type":"bold","offset":78,"length":40,"data":""},{"type":"bold","offset":157,"length":17,"data":""},{"type":"bold","offset":175,"length":65,"data":""},{"type":"bold","offset":280,"length":76,"data":""},{"type":"bold","offset":674,"length":12,"data":""},{"type":"bold","offset":840,"length":7,"data":""},{"type":"bold","offset":1318,"length":7,"data":""},{"type":"bold","offset":1726,"length":33,"data":""},{"type":"link","offset":1743,"length":16,"data":"mailto:vos@level.travel"},{"type":"bold","offset":1760,"length":17,"data":""},{"type":"handle","offset":1768,"length":9,"data":"Alyask_a"}],"date":"2020-06-15T14:11:51+00:00","link":"tg://resolve?domain=mobile_jobs&post=0","tags":[{"name":"mobile"},{"name":"android"},{"name":"java"},{"name":"kotlin"},{"name":"mvvm"}],"cities":[{"code":"moscow"}],"allowsRemote":true}},{"node":{"__typename":"Job","id":"2211446784-1001134745498","title":"Devops инженер","text":"#вакансия #DevOps #Москва #ivi\n\nОнлайн-кинотеатр ivi \nЛокация: Москва, ст. м. Дмитровская\nФормат работы: офис \nЗанятость: полная\nЗарплатная вилка: от 180 000 до 250 000 руб. на руки.\n\nРазыскиваем коллегу в команду для участия в настройке процессов: технических (CI/CD) и в части взаимодействия с коллегами. Активное участие в разворачивании и эксплуатации k8s. Помогаем командам разработки строить CI/CD-пайплайны.  Используем Ubuntu, Linux.\nХраним код и разрабатываем pipeline-ы с помощью GitLab+Artifactory.\nДля мониторинга серверов и сервисов используем Zabbix и StatsD, заправляем Grafana.\nНаши сервисы написаны на Python, Golang и немного PHP и Java.\nЛюбим и активно используем Jenkins для решения самых разнообразных задач.\nИспользуем много Open Source (и не только) приложений: Nginx, Redis, PostgreSQL, MongoDB, RabbitMQ, ClickHouse, OpenStack, GitLab, Kafka, HDFS, Jira , OpenNebula.\n\nЧто предстоит делать: \n- Развитие и настройка процессов CI/CD;\n- Периодический аудит используемого стека технологий;\n- Планирование и участие в рефакторинге процессов, инфраструктуры, приложений;\n- Сопровождение сервисов от разработки до эксплуатации, участие в эксплуатации;\n- Доработка текущих и разработка новых сценариев конфигурирования серверов и приложений;\n- Администрирование приложений по результатам выполненной работы, подготовка документации, если это необходимо.\n\nКак узнать, что ты нам подходишь? \n- Успешный опыт работы CI/CD-системами (у нас GitLab и Jenkins);\n- Умение хорошо готовить Docker;\n- Опыт программирования на скриптовых языках (Shell, Python);\n- Опыт администрирования Linux и приложений более 5 лет;\n- Понимание сетевых технологий TCP/IP;\n- Опыт работы с системами управления версиями (у нас Git);\n- Опыт работы с системами управления конфигурациями.\n\nСо своей стороны мы обещаем: \n- Офис в 5 минутах ходьбы от м. \"Дмитровская\";\n- У нас гибкий график, мы начинаем до 11 часов дня;\n- Трудоустройство по ТК РФ;\n- ДМС + стоматология после прохождения испытательного срока;\n- Подписка на ivi;\n- Пакет релокации для соискателей со всей России.\n\nПишите @daria144, на почту dsereda@ivi.ru или откликайтесь здесь https://hh.ru/vacancy/35021558\n\n—\n\n👉 Обсуждение вакансии в чате @devops_jobs","markup":[{"type":"hashtag","offset":0,"length":9,"data":"вакансия"},{"type":"hashtag","offset":10,"length":7,"data":"DevOps"},{"type":"hashtag","offset":18,"length":7,"data":"Москва"},{"type":"hashtag","offset":26,"length":4,"data":"ivi"},{"type":"handle","offset":2071,"length":9,"data":"daria144"},{"type":"link","offset":2091,"length":14,"data":"mailto:dsereda@ivi.ru"},{"type":"link","offset":2129,"length":30,"data":"https://hh.ru/vacancy/35021558"},{"type":"handle","offset":2194,"length":12,"data":"devops_jobs"}],"date":"2020-06-15T13:57:03+00:00","link":"tg://resolve?domain=devops_jobs_feed&post=2109","tags":[{"name":"ubuntu"},{"name":"linux"},{"name":"gitlab"},{"name":"python"},{"name":"go"},{"name":"php"},{"name":"java"},{"name":"jenkins"},{"name":"nginx"},{"name":"redis"},{"name":"postgresql"},{"name":"mongodb"},{"name":"rabbitmq"},{"name":"kafka"},{"name":"hdfs"},{"name":"docker"},{"name":"shell"},{"name":"git"}],"cities":[{"code":"moscow"}],"allowsRemote":false}},{"node":{"__typename":"Job","id":"1680867328-1001091028994","title":"Java developer","text":"#java #backend #spring #javadeveloper\nКомпания OpenDev\nЛокация #мск #москва м. Технопарк\nЗП до 250 gross\nМы разрабатываем \"умную\" шину для крупного финтеха: интеграция компонентов системы и их распределение на микросервисы.\nЗадачи интересные и их много, поэтому нам требуется подкрепление!\n🚀 Вакансия - Java Developer\n\nНавыки и знания\n- Java core, Java 8+\n- Spring Framework, Spring boot, Spring Cloud\n- Docker\n- Микросервисная архитектура\n- Опыт проектирования API (REST, GRPC и т.д.) \n- Опыт работы с разными системами оркестрации (Kubernetes, OpenShift, Mesos/Marathon)\n\nУсловия:\n- Белая ЗП + ДМС\n- Продуктовая Scrum команда\n- Релокация кандидатов из регионов\n\nОбсудить вакансию - @xenia_agv","markup":[{"type":"hashtag","offset":0,"length":5,"data":"java"},{"type":"hashtag","offset":6,"length":8,"data":"backend"},{"type":"hashtag","offset":15,"length":7,"data":"spring"},{"type":"hashtag","offset":23,"length":14,"data":"javadeveloper"},{"type":"hashtag","offset":63,"length":4,"data":"мск"},{"type":"hashtag","offset":68,"length":7,"data":"москва"},{"type":"bold","offset":320,"length":15,"data":""},{"type":"handle","offset":685,"length":10,"data":"xenia_agv"}],"date":"2020-06-15T11:38:21+00:00","link":"tg://resolve?domain=jvmjobs&post=1603","tags":[{"name":"java"},{"name":"jvm"},{"name":"spring"},{"name":"cloud"},{"name":"docker"},{"name":"rest"},{"name":"kubernetes"},{"name":"spring-boot"}],"cities":[{"code":"moscow"}],"allowsRemote":false}},{"node":{"__typename":"Job","id":"16925065216-1001110946746","title":"Js разработчик","text":"#вакансия #react #JavaScript #Волгоград\n\nГород и адрес офиса: Волгоград, ул Баррикадная 1Б. Бизнес центр Адмирал Плаза.\n\nФормат работы: офис\n\nЗанятость: полная\n\nЗарплатная вилка: от 40тр до 200 тр\n\nНазвание компании: Лига Цифровой Экономики\n\nОписание вакансии: Лига Цифровой Экономики – крупная консалтинговая IT-компания, где работает более 3500 талантливых специалистов.\nМы ищем талантливых единомышленников, которые хотят менять мир вокруг, а не наблюдать за изменениями со стороны.\n\nВ нашем Волгоградском офисе открыта вакансия JS разработчика\nВам удастся поучаствовать в разработке систем для крупнейших кампаний страны (ЦБ РФ, ВТБ, Сбербанк, РСХБ, ВСК), а также Европы (Daimler AG). \nПрисоединяйтесь к крутым проектам в роли JS-разработчика!\n\nЧЕМ ПРЕДСТОИТ ЗАНИМАТЬСЯ:\n•  Разработка фронтальной части\n•  Подбор оптимальных средств и инструментов\n•  Доработка OpenSource платформы (Contributing)\n•  Проработка архитектурных решений\n•  Участие в code-review\n•  GitFlow:\no  PullRequest в Gitlab\no  CI/CD (Jenkins, Telegram Bot, Gradle, Groove)\no  Иногда нещадный Code Review\n\nЧТО НАМ ВАЖНО:\n•  Уверенное знание: Java Script (ES6)\n•  Уверенное знание стеĸа: React + Redux, LESS/CSS\n•  Знание средств коллективной разработки и сборки проектов (Git, Jira Jenkins и т.д.)\n•  Понимание ООП, знание базовых шаблонов проектирования\n•  Опыт работы коммерческой разработки от 1-х года\nПлюсом будет:\n•  Знания и опыт работы с TypeScript\n\nЧТО МЫ ПРЕДЛАГАЕМ\n•  Бессрочный трудовой договор (независимо от периода проекта)\n•  Трудоустройство согласно ТК, белая заработная плата (уровень оклада обсуждается индивидуально)\n•  ДМС со стоматологией, оплата мобильной связи, корпоративные скидки 50% на фитнес и уроки английского языка\n•  Возможность профессионального развития и карьерного роста, а также реализации своих идей (внутренние профессиональные сообщества и внешнее обучение)\n•  Гибкий график работы (возможность выбора начала рабочего дня)\n\nНО ВРЯД ЛИ МЫ СРАБОТАЕМСЯ, ЕСЛИ:\n•  Не хотите учиться и развиваться\n•  Не хотите делать чуть лучше, чем написано в таске\n \nМы предлагаем самые интересные проекты, которыми можно будет гордиться. Мы всегда запускаем что-то новое. Мы используем самые новые технологии, и стагнация противоречит идеям команды и направлению бизнеса.\n\nКонтакты @Gromgard","markup":[{"type":"hashtag","offset":0,"length":9,"data":"вакансия"},{"type":"hashtag","offset":10,"length":6,"data":"react"},{"type":"hashtag","offset":17,"length":11,"data":"JavaScript"},{"type":"hashtag","offset":29,"length":10,"data":"Волгоград"},{"type":"handle","offset":2277,"length":9,"data":"Gromgard"}],"date":"2020-06-15T11:21:07+00:00","link":"tg://resolve?domain=javascript_jobs_feed&post=0","tags":[{"name":"javascript"},{"name":"reactjs"},{"name":"gitlab"},{"name":"jenkins"},{"name":"gradle"},{"name":"java"},{"name":"redux"},{"name":"css"},{"name":"git"},{"name":"typescript"},{"name":"react-redux"}],"cities":[{"code":"volgograd"}],"allowsRemote":false}},{"node":{"__typename":"Job","id":"1679818752-1001091028994","title":"Java разработчик","text":"#javaвакансия #javaspring #senior #middle\nДобрый день!\nВ настоящий момент нахожусь в поисках ведущего разработчика Java (backend) для международной аутсорсинговой компании (проекты банковского направления).\n160-300 K, Москва, ст.м. Динамо\nСтэк: Java 8, Spring, Spring (Boot, Cloud), Hibernate, SQL, Микросервисы, DevOps, REST-сервисы. \nУсловия: 160 – 300.000 рублей, полностью «белая» заработная плата. В компании регулярно проводится корпоративное обучение, сертификация в технических и бизнес-областях. Помощь в релокации.\nБуду рада ответить на Ваши вопросы: @LyKatrin, ekaterina706712@mail.ru","markup":[{"type":"hashtag","offset":0,"length":13,"data":"javaвакансия"},{"type":"hashtag","offset":14,"length":11,"data":"javaspring"},{"type":"hashtag","offset":26,"length":7,"data":"senior"},{"type":"hashtag","offset":34,"length":7,"data":"middle"},{"type":"handle","offset":561,"length":9,"data":"LyKatrin"},{"type":"link","offset":572,"length":23,"data":"mailto:ekaterina706712@mail.ru"}],"date":"2020-06-15T11:01:34+00:00","link":"tg://resolve?domain=jvmjobs&post=1602","tags":[{"name":"java"},{"name":"jvm"},{"name":"spring"},{"name":"cloud"},{"name":"hibernate"},{"name":"sql"},{"name":"rest"},{"name":"spring-boot"}],"cities":[{"code":"moscow"}],"allowsRemote":false}},{"node":{"__typename":"Job","id":"2209349632-1001134745498","title":"Devops инженер","text":"#вакансия #офис #Москва #devops #teamlead\n\nDevOps Engineer\nОписание проекта:\nНа текущий момент мы формируем ключевую команду по трансформации интеграционной архитектуры одного из крупнейших\nБанков.\nОдной из ключевых задач трансформации стоит построить принципиально новую платформу управления трафиком между\nприложениями,\nпозволяющую объединить все существующие системы Банка как монолитные, так и контейнеризированные, виртуализировать\nбазовые\nсервисы и инструменты обеспечения ключевых атрибутов масштабирования, надежности, безопасности и сопровождаемости.\nВ результате этой трансформации должны быть реализованы комплексные сервисы платформы для ИТ Банка и партнеров.\nПрофит для участника:\nВозможность трансформировать ИТ-ландшафт одного из крупнейшего Банка своими силами от начала до конца;\nВозможность развить компетенции и получить опыт применения современных технологий и подходов к DevOps;\n\nКлючевые задачи:\nУлучшение инструментов и автоматизация производственных процессов, уменьшение time to market\nПостроение и сопровождение конвейера CI/CD\nАвтоматизация процесса подготовки окружений, тестовых сред, сборки и развертывания приложений\nВнедрение, поддержка и развитие системы мониторинга\nУчастие в подготовке и настройке инфраструктуры проектов банка\nИнтеграция тестов в скрипты развертывания\n\nОсновные требования:\nОпыт конфигурации и уверенное владение Linux (RHEL/CentOS)\nУмение писать сценарии автоматизации (bash, python)\nПонимание языков разметки данных (xml, json, yaml)\nУверенное владение одним из языков: Python, Java, Kotlin, Groovy\nОпыт работы с Git.\nОпыт автоматизации CI/CD процессов. Активное взаимодействие с командами разработки, тестирования, поддержки.\nОпыт работы с CI-Системами (Gitlab CI/Jenkins/TeamCity). Разработка и отладка исходного кода Pipeline, умение\nкастомизировать сборку.\nУверенное владение средством управления конфигурациями – Ansible, написание скриптов. Большим плюсом будет\nявляется опыт разработки модулей и отладки.\nОпыт развертывание и использования Docker: Создание образов, сборка и доставка контейнеров. Развертывание\nприложений в кластере Kubernetes, OpenShift\nОпыт настройки инструментов мониторинга (zabbix, Prometheus, grafana, ELK/EFK)\nОпыт работы с базами данных: Oracle, PostgreSQL, NoSQL DB (Tarantool, Casandra, Redis, RocksDB, etcd, ...)\nОпыт работы с IBM WebSphere MQ\nИнженерные практики (code review, тестирование скриптов и прочее).\nОпыт работы с высокодоступными и высокопроизводительными решениями\nПонимание принципа infrastructure as code\nИнженерное мышление, умение локализовать проблему и предложить оптимальное решение\nРазвитый технический кругозор и желание постоянно развиваться.\n\nЧто предлагаем:\nОформление через интегратора T4u\nЗ.п белая, 200-250 к\nДМС, курсы, сертификация за счет компании\nРабочее место в одном из офисов банка: м. Деловой центр, м. Пролетарская, м. ВДНХ\nКонтакты: @Anastasia202011\n\n—\n\n👉 Обсуждение вакансии в чате @devops_jobs","markup":[{"type":"hashtag","offset":0,"length":9,"data":"вакансия"},{"type":"hashtag","offset":10,"length":5,"data":"офис"},{"type":"hashtag","offset":16,"length":7,"data":"Москва"},{"type":"hashtag","offset":24,"length":7,"data":"devops"},{"type":"hashtag","offset":32,"length":9,"data":"teamlead"},{"type":"handle","offset":2861,"length":16,"data":"Anastasia202011"},{"type":"handle","offset":2912,"length":12,"data":"devops_jobs"}],"date":"2020-06-15T11:01:14+00:00","link":"tg://resolve?domain=devops_jobs_feed&post=2107","tags":[{"name":"linux"},{"name":"centos"},{"name":"bash"},{"name":"python"},{"name":"xml"},{"name":"json"},{"name":"yaml"},{"name":"java"},{"name":"kotlin"},{"name":"groovy"},{"name":"git"},{"name":"gitlab"},{"name":"jenkins"},{"name":"ansible"},{"name":"docker"},{"name":"kubernetes"},{"name":"oracle"},{"name":"postgresql"},{"name":"nosql"},{"name":"redis"}],"cities":[{"code":"moscow"}],"allowsRemote":false}},{"node":{"__typename":"Job","id":"71292682240-1001054966032","title":"Android разработчик","text":"#вакансия #Android #Kotlin #Москва #офис \n\nВакансия: Android разработчик\nГород: Москва м. Выставочная/Арбатская\nЗарплата: от 190 000 рублей до 270 000 рублей на руки \nФормат: офис, полный день, полная занятость (гибкое начало)\nКомпания Innovative People\n\nВ команду «Средний и малый бизнес» ищу разработчика. Проект новый, agile-команда. \n\n📲 Обязанности\n• Разработка функционала мобильного приложения\n• Разработка unit-тестов, рефакторинг, code review\n• Соблюдение принципов командной разработки\n• Работа в офисе с командой\n\n📲 Требования \nОпыт разработки мобильных приложений от 2-х лет; \nОтличные знания ООП, классических алгоритмов и структур данных; \nОтличные знания платформы Android, языков Java и Kotlin; \nОпыт применения паттернов: MVP, MVVM, CLEAN; \nОпыт работы с библиотеками json и xml для мобильных и серверных решений опыт интеграции со сторонними системами по API опыт написания unit-тестов; \nОпыт работы с TFS, JIRA, GIT.\n\n📲 Условия:\n• Хорошую команду\n• ДМС со стоматологией, всё белое\n• Возможность предлагать собственные идеи\n• ноутбук, адекватное руководство\n\n📩Резюме и вопросы @Priboch","markup":[{"type":"hashtag","offset":0,"length":9,"data":"вакансия"},{"type":"hashtag","offset":10,"length":8,"data":"Android"},{"type":"hashtag","offset":19,"length":7,"data":"Kotlin"},{"type":"hashtag","offset":27,"length":7,"data":"Москва"},{"type":"hashtag","offset":35,"length":5,"data":"офис"},{"type":"handle","offset":1098,"length":8,"data":"Priboch"}],"date":"2020-06-15T10:44:21+00:00","link":"tg://resolve?domain=mobile_jobs&post=0","tags":[{"name":"mobile"},{"name":"android"},{"name":"kotlin"},{"name":"java"},{"name":"mvvm"},{"name":"json"},{"name":"xml"},{"name":"tfs"},{"name":"git"}],"cities":[{"code":"moscow"}],"allowsRemote":false}},{"node":{"__typename":"Job","id":"102840139776-1001089317451","title":"Qa инженер","text":"#СПб #fulltime #офис #вакансия\n\nQA engineer (manual/AT)\n\nМеждународная продуктовая ИТ компания ТТ DEVELOPMENT приглашает присоединиться к команде опытного инженера по тестированию для обеспечения качества выпускаемого ПО.\n\nО наших продуктах: youtube.com/channel/UCNyfseLuQVXVo79c8-bQEzQ\n\nЧем предстоит заниматься?\n\n- Проводить анализ, оценку, испытания решений для гарантированного высокого качества нашего программного обеспечения;\n- Производить мониторинг последних технических разработок и делать предложения по улучшению наших продуктов на основе вашего опыта и знаний;\n- Тестировать наше программное обеспечение (ручное);\n- Оказывать поддержку команды саппорта по всем нестандартным запросам;\n- Обновлять и создавать документацию и часто задаваемые вопросы;\n- Если имеются знания автоматизированного тестирования, писать и выполнять тесты (Java).\n\nНам важно, чтобы у тебя было:\n\n- Опыт работы на аналогичной должности от 2х лет;\n- Опыт работы с приложениями, написанными на разных языках программирования, в частности: C/C ++, Java (Kotlin), Go, Swift;\n- Понимание основ программирования: структуры данных, алгоритмы;\n- Умение работать с базами данных на уровне простых запросов MySQL, Mongo;\n- Понимание клиент-серверной архитектуры (опыт работы с этим, понимание этого);\n- Опыт работы с REST API;\n- Умение гуглить выше среднего;\n- Владение инструментами ручного тестировщика под разные платформы и разные задачи (postman, fiddler, wireshark, loggers, adb etc);\n- Работа с командной строкой *nix систем;\n- Уверенное знание английского языка для общения устно и письмом;\n- Готовность выполнить тестовое задание.\n\nУсловия работы:\n\n- График 5/2, 8-ми часовой рабочий день, гибкое начало рабочего дня;\n- Стабильная заработная плата (фиксированный оклад), устанавливается по итогам собеседования;\n- Оформление по ТК РФ, испытательный срок 3 месяца;\n- Современный, уютный офис в 15 мин. ходьбы от м. Бухарестская.\n\nПочему с нами круто работать:\n\n- Нетривиальный продукт и такая же команда;\n- Работа в международной компании с возможностью практики английского языка;\n- Белоснежно белая заработная плата;\n- Бизнес-ланчи за счёт компании;\n- Свободный стиль в одежде - у нас можно оставаться собой;\n- Неформальное общение и быстрые решения без лишней бюрократии и грозных начальников;\n- Компенсация 50% годового абонемента в fitness-зале;\n- Яркая корпоративная жизнь (поздравления коллег, пятничные вечера с пиццей и настолками, корпоративные подарки и многое другое);\n- Relax уголок с Sony Playstation 4;\n- Фруктовые дни, чай, кофе, конфетки и пр.;\n- У нас точно некогда будет скучать ;)\n\nВилка: от 60 000 до 120 000 руб. до вычета налогов\n\nHR специалист: Бэлла, telegram bellykim","markup":[{"type":"hashtag","offset":0,"length":4,"data":"СПб"},{"type":"hashtag","offset":5,"length":9,"data":"fulltime"},{"type":"hashtag","offset":15,"length":5,"data":"офис"},{"type":"hashtag","offset":21,"length":9,"data":"вакансия"},{"type":"bold","offset":32,"length":25,"data":""},{"type":"bold","offset":94,"length":15,"data":""},{"type":"bold","offset":223,"length":17,"data":""},{"type":"link","offset":242,"length":44,"data":"http://youtube.com/channel/UCNyfseLuQVXVo79c8-bQEzQ"},{"type":"bold","offset":288,"length":27,"data":""},{"type":"bold","offset":853,"length":31,"data":""},{"type":"bold","offset":1618,"length":17,"data":""},{"type":"bold","offset":1915,"length":31,"data":""},{"type":"bold","offset":2587,"length":6,"data":""}],"date":"2020-06-15T10:15:29+00:00","link":"tg://resolve?domain=qa_jobs&post=0","tags":[{"name":"qa"},{"name":"java"},{"name":"kotlin"},{"name":"swift"},{"name":"mysql"},{"name":"rest"}],"cities":[],"allowsRemote":false}},{"node":{"__typename":"Job","id":"71287439360-1001054966032","title":"Android разработчик","text":"#вакансия #ios #android #Flutter\nНаставник-помощник Flutter разработчик\n\nЧастичная занятость, гибкий график, удаленно \nОплата почасовая от 8$ \n\nМы ищем мобильного разработчика уровня Middle на почасовую консультацию, который:\n\n- имеет опыт коммерческой разработки на Dart и Flutter;\n- знает ООП, Git, Gradle, Pods;\n- уверенно знает Kotlin/Java\n- имеет опыт в разработке нативных мобильных приложений и модулей (android/ios).\n\nПлюсом будет:\n\n- знание основных шаблонов проектирования и опыт их применения;\n- опыт работы с Firebase;\n- понимание принципов и опыт настройки CI/CD.\n\nТебе предстоит:\n\n- консультировать нашего разработчика по нашим актуальным проектам\n- в случае проблем изредка участвовать в разработке \n- помогать в настройке CI/CD;\n- участвовать в Code Review;\n\nКонтакт для связи @korchikova","markup":[{"type":"hashtag","offset":0,"length":9,"data":"вакансия"},{"type":"hashtag","offset":10,"length":4,"data":"ios"},{"type":"hashtag","offset":15,"length":8,"data":"android"},{"type":"hashtag","offset":24,"length":8,"data":"Flutter"},{"type":"handle","offset":793,"length":11,"data":"korchikova"}],"date":"2020-06-15T09:01:39+00:00","link":"tg://resolve?domain=mobile_jobs&post=0","tags":[{"name":"mobile"},{"name":"android"},{"name":"ios"},{"name":"flutter"},{"name":"dart"},{"name":"git"},{"name":"gradle"},{"name":"kotlin"},{"name":"java"},{"name":"firebase"}],"cities":[],"allowsRemote":true}},{"node":{"__typename":"Job","id":"102831751168-1001089317451","title":"Qa инженер","text":"#вакансия #Москва #офис #fulltime #QA #релокация \n\nВсем привет! \nИщем Ведущего инженера по автоматизации\n\nКомпания: Промсвязьбанк\nМосква \n(есть релокационный пакет)\n💰 от 120 на руки.\n\nТребования:\n- опыт работы с БД ( MS SQL, PL SQL) знание языка запросов SQL \n-опыт тестирования web-сервисов ( Postman,SoapUI,ReadyApi)\n- опыт разработки автотестов на Java \n \nУсловия:\n-Гибкий график\n-Отсутсвие дресс-кода\n-Льготное кредитование \n-ДМС \n-Корпоративный спорт 🏀 \n-Участие в конференциях  и тд\n\nЕсть ещё несколько проектов \nПо всем вопросам ✍️ в личку","markup":[{"type":"hashtag","offset":0,"length":9,"data":"вакансия"},{"type":"hashtag","offset":10,"length":7,"data":"Москва"},{"type":"hashtag","offset":18,"length":5,"data":"офис"},{"type":"hashtag","offset":24,"length":9,"data":"fulltime"},{"type":"hashtag","offset":34,"length":3,"data":"QA"},{"type":"hashtag","offset":38,"length":10,"data":"релокация"}],"date":"2020-06-15T09:00:27+00:00","link":"tg://resolve?domain=qa_jobs&post=0","tags":[{"name":"qa"},{"name":"sql"},{"name":"web"},{"name":"java"}],"cities":[{"code":"moscow"}],"allowsRemote":false}}]}}},"context":{}}