{"hash":"f5f6bf98bd95e769321482904cbbd488f77922fd","data":{"records":{"id":"russia/moscow","country":{"code":"russia","ruName":"Россия","enName":"Russia"},"city":{"code":"moscow","ruName":"Москва","enName":"Moscow"},"belongsTo":{"totalCount":476,"pageInfo":{"totalPages":48,"currentPage":6},"edges":[{"node":{"__typename":"Job","id":"72530001920-1001054966032","title":"Ios developer","text":"#вакансия #ios #developer #iosdeveloper #москва #мск \n\nIOS Developer\nКомпания: Азбука Вкуса\nЛокация: Москва, офис\nм. Парк Победы/Кутузовская\nЗанятость: fulltime\nЗ/п: 150-210k ₽ net  \nКонтакты: @observer69\n\nУсловия\n● Официальное оформление с соблюдением ТК РФ;\n● Организация внешнего обучения;\n● Участие в конференциях и хакатонах;\n● ДМС;\n● Возможность работать из дома пару раз в неделю;\n● Комфортный офис в шаговой доступности от м. Парк Победы / Кутузовская;\n● Большая команда IT - профессионалов;\n● Интересные задачи\n\nТребования\n● Имеешь опыт iOS-разработки от 3-х лет;\n● Знаешь и любишь Swift, без вопросов можешь разобраться с кодом на Objective-C;\n● Имеешь опыт интеграции различных социальных сетей в проект;\n● Умеешь работать в AppStoreConnect и developer.apple.com, понимаешь зачем нужны сертификаты;\n● Знаешь принципы SOLID, структуры данных, паттерны проектирования и программирования;\n● Знаешь что таĸое MVC, MVVM, MVP etc. понимаешь их плюсы и\nминуты;\n● Работал с Realm;\nУверенно делаешь сложный UI, знаешь и понимаешь Autolayout, понимаешь когда лучше отказаться от него;\n● Сможешь обьяснить разницу между процессом и потоĸом, знаешь ĸаĸ\nработает многопоточность;\n● Знаком с HTTP, REST, Websocket, JSON и т.д.;\n● Работал с git (терминал или приложение);\n● Умеешь \"гуглить\" и воспринимать информацию на английском;\n● Терпимо относишься ĸ чужому ĸоду, даже если сильно не нравится;\n● Умеешь аргументировано и последовательно отстаивать свою\nпозицию;\n● Сможешь оценить задачу, и выполнить ее в сроĸ;\n● Интересуешься “а ĸаĸ это устроено внутри?”\n\nЗадачи\n1. Развивать и поддерживать существующие приложения;\n2. Проводить code review;\n3. Развивать IOS инфраструктуру в компании;\n4. Активно участвовать в жизни команды.","markup":[{"type":"hashtag","offset":0,"length":9,"data":"вакансия"},{"type":"hashtag","offset":10,"length":4,"data":"ios"},{"type":"hashtag","offset":15,"length":10,"data":"developer"},{"type":"hashtag","offset":26,"length":13,"data":"iosdeveloper"},{"type":"hashtag","offset":40,"length":7,"data":"москва"},{"type":"hashtag","offset":48,"length":4,"data":"мск"},{"type":"bold","offset":55,"length":23,"data":""},{"type":"bold","offset":92,"length":8,"data":""},{"type":"bold","offset":141,"length":10,"data":""},{"type":"bold","offset":161,"length":5,"data":""},{"type":"bold","offset":183,"length":10,"data":""},{"type":"handle","offset":193,"length":11,"data":"observer69"},{"type":"bold","offset":206,"length":8,"data":""},{"type":"bold","offset":521,"length":11,"data":""},{"type":"link","offset":754,"length":19,"data":"http://developer.apple.com"},{"type":"bold","offset":1557,"length":9,"data":""},{"type":"bold","offset":1617,"length":2,"data":""},{"type":"bold","offset":1643,"length":2,"data":""},{"type":"bold","offset":1687,"length":2,"data":""}],"date":"2020-07-02T10:23:24+00:00","link":"tg://resolve?domain=mobile_jobs&post=69170","tags":[{"name":"mobile"},{"name":"ios"},{"name":"dotnet"},{"name":"swift"},{"name":"objective-c"},{"name":"mvvm"},{"name":"realm"},{"name":"rest"},{"name":"websocket"},{"name":"json"},{"name":"git"}],"cities":[{"code":"moscow"}],"allowsRemote":false}},{"node":{"__typename":"Job","id":"104205385728-1001089317451","title":"Qa инженер","text":"#вакансия #QA #офис #fulltime #Москва #Jira \n\nQA инженер\n⠀\nТребуемый опыт работы: 1–3 года\nФормат: офис / fulltime (сейчас удалённо, далее офис)\nЗарплата до 170 gross + 20 % годовой бонус + ДМС\nКомпания: 5POST (подразделение X5 Retail Group)\n\nЛокация: г.Москва  / МЦК Калитники 4 мин. пешком / м. Волгоградский проспект\nСсылка на компанию: https://fivepost.ru/\n\n5POST - новое логистическое подразделение X5 Retail Group, которое развивает услуги доставки заказов для e-commerce в пункты выдачи и автоматизированные пункты выдачи (постаматы) \n\nПроект находится в стадии активного роста и развития, наши амбициозные цели позволяют в своей работе использовать только новые и надежные технологии.\n⠀\nДля удобства наших клиентов мы интегрированы с AliExpress, Ozon, Беру и другими интернет-магазинами. \n⠀\nНаша цель - доставлять 1 000 000 посылок в сутки.\n⠀\nДля обеспечения такой производительности мы развернули несколько десятков микросервисов, отмасштабировали между ними нагрузку и продолжаем работать над оптимизациями.\n\nОбязанности:\n- обеспечение качественного и своевременного исполнения работ по тестированию;\n- минимизация дефектов, выявленных в системе, после переноса протестированного релиза в продуктивную эксплуатацию;\n- осуществление анализа функциональных и бизнес - требований;\n- написание и актуализация тестовых сценариев;\n- осуществление контроля за устранением дефектов в установленные сроки (SLA);\n- проведение тестирования (функциональное, регрессионное, интеграционное);\n- взаимодействие с разработчиками и аналитиками по вопросам тестирования;\n- подготовка отчетов о ходе тестирования.\n⠀\nТребования:\n- опыт тестирования (глубокое и системное понимание тестирование и его методов);\n- опыт создания тестовой документации;\n- разработка автотестов для основных сценариев;\n- опыт разработки скриптов для автоматизации повседневных задач;\n- развертывание и настройка тестовых сред;\n- понимание принципов работы клиент - сервисных приложений;\n- Jira;\n⠀\nУсловия:\n- работа в динамично развивающемся бизнесе 5Post;\n- офис в районе м. Волгоградский проспект;\nСкидки в наших магазинах (Пятерочка, Перекресток, Карусель);\n- ДМС (после прохождения испытательного срока);\n- корпоративное обучение;\n- корпоративная йога в офисе;\n- обширная партнерская программа лояльности;\n- бесплатная парковка;\n- возможность развития и карьерного роста.\n⠀\nКонтакты: @ValeryBurkina","markup":[{"type":"hashtag","offset":0,"length":9,"data":"вакансия"},{"type":"hashtag","offset":10,"length":3,"data":"QA"},{"type":"hashtag","offset":14,"length":5,"data":"офис"},{"type":"hashtag","offset":20,"length":9,"data":"fulltime"},{"type":"hashtag","offset":30,"length":7,"data":"Москва"},{"type":"hashtag","offset":38,"length":5,"data":"Jira"},{"type":"bold","offset":46,"length":11,"data":""},{"type":"bold","offset":145,"length":98,"data":""},{"type":"link","offset":340,"length":20,"data":"https://fivepost.ru/"},{"type":"handle","offset":2354,"length":14,"data":"ValeryBurkina"}],"date":"2020-07-02T10:17:03+00:00","link":"tg://resolve?domain=qa_jobs&post=99378","tags":[{"name":"qa"}],"cities":[{"code":"moscow"}],"allowsRemote":true}},{"node":{"__typename":"Job","id":"367001600-1001352129329","title":"Golang разработчик","text":"Ребят, всем привет! \nПостараюсь кратко, подробности в ЛС. Заранее напишу, что это Москва (фултайм/офис), компания Lofty. Ищем в команду как Midle так и Senior Go разработчиков.\nВообщем если хочется в highload, добро пожаловать!)\n\nО проекте:\nЭто высоконагруженное backend приложение для рассылки web push-уведомлений, обслуживающее на данный момент более 100млн показов в сутки. \nЧем у нас предстоит заниматься:\nПрофилировать и оптимизировать существующие сервисы;\nПроводить доработки и интеграцию их в действующий код и инфраструктуру;\nРеализовывать новые бизнес-требования внутри сервиса;\nУстранять возникающие баги в сервисе.\n\nЧто мы ждем от кандидата:\nНавыки работы с Git;\nУверенное знание Golang;\nПонимание технологий HTTP, REST;\nОпыт работы в Unix-окружении.\n\nБудет совсем круто, если вы:\nРаботали с highload-проектами;\nПонимаете и уважаете концепцию CI/CD.\nНаш стек технологий: Golang, Gitlab, MySQL, JS, RabbitMQ, Docker, Ansible, Clickhouse\n\nУсловия: \nЗаработная плата от 130 000 до 300 000 руб. на руки, естественно зависит от уровня, преимущественно смотрим \"мидов\", но и \"джуны\" нам тоже интересны.\n\nНаш сайт: `https://www.lofty.today/\n#вакансия#golang","markup":[{"type":"link","offset":1122,"length":24,"data":"https://www.lofty.today/"}],"date":"2020-07-02T10:02:20+00:00","link":"tg://resolve?domain=gogetajobfeed&post=350","tags":[{"name":"go"},{"name":"web"},{"name":"git"},{"name":"rest"},{"name":"unix"},{"name":"gitlab"},{"name":"mysql"},{"name":"rabbitmq"},{"name":"docker"},{"name":"ansible"}],"cities":[{"code":"moscow"}],"allowsRemote":false}},{"node":{"__typename":"Job","id":"2274361344-1001134745498","title":"Devops инженер","text":"#вакансия #офис #DevSecOps #Москва\nДобрый день! \nМеня зовут Дмитрий и я ищу крутого спеца в команду Swordfish Security!!\n\nКомпания специализируется на сервисах запуска практик безопасной разработки ПО, создании центров компетенций для своих Клиентов, оказывает услуги аутсорсинга экспертизы в области безопасного ПО, а также разрабатывает собственные продуктовые решения для автоматизации ряда индустриальных задач в области DevSecOps.\nЭто интернациональная команда с офисами в Санкт-Петербурге, Москве, Софии (Болгария) и  Нью-Йорке (США).\nSwordfish Security является технологическим партнером ведущих игроков-разработчиков решений на рынке DevSecOps – Checkmarx, Sonatype, Netsparker, Wallarm.\n\nЧем будем заниматься вместо работы:\n• Работа с инструментами статического анализа кода (SAST), контроля open source компонент (OSA/SCA) и динамического анализа приложений (DAST);\n• Разбор результатов анализа SAST/SCA/DAST;\n• Анализ выявленных дефектов, проверка, приоритезация, поиск решения для их устранения;\n• Разработка специальных правил анализа исходного кода;\n• Участие в развитии выделенного сегмента или практики безопасной разработки;\n• Участие в проработке процесса Application Security вместе с командой.\n\nЧто хотим видеть в нашем Спеце: \n• Опыт разработки на Java или Python;\n• Умение читать и разбираться в чужом коде на различных языках программирования;\n• Понимание принципов процесса DevOps;\n• Уверенная работа с Unix системами;\n• Умение находить и эксплуатировать уязвимости;\n• Опыт работы с инструментами безопасности:\n  SAST (Checkmarx, Fortify, Solar Incode) - в приоритете;\n\nКруто Если ты знаешь и умеешь :\n* DAST (NetSparker, Acunetix, HP WebInspect, Burp Enterprise, Wallarm FAST);\n* OSA / SCA (Nexus IQ, WhiteSource, BlackDuck, Dependency Checker);\n* Опыт работы с широким инструментальным стеком разработки:\n* Teamcity/Jenkins/Gitlab CI,\n* Bitbucket/GitLab,\n* Jira/Confluence,\n* Nexus Repo/Jfrog Artifactory,\n* Docker/Kubernetes;\n\nЧем вознаградим:\n• Возможность развиваться и получать уникальный опыт;\n• Гибкий график рабочего времени;\n• «Белая» заработная плата от 100 000 до 180 000 руб. \n• Соц. Пакет и ДМС со стоматологией, компенсация спортивных занятий.\n\n\n\nИнтересно?? Пиши отвечу на все вопросы!!\n@tankograin\n\n—\n\n👉 Обсуждение вакансии в чате @devops_jobs","markup":[{"type":"hashtag","offset":0,"length":9,"data":"вакансия"},{"type":"hashtag","offset":10,"length":5,"data":"офис"},{"type":"hashtag","offset":16,"length":10,"data":"DevSecOps"},{"type":"hashtag","offset":27,"length":7,"data":"Москва"},{"type":"handle","offset":2227,"length":11,"data":"tankograin"},{"type":"handle","offset":2273,"length":12,"data":"devops_jobs"}],"date":"2020-07-02T09:54:11+00:00","link":"tg://resolve?domain=devops_jobs_feed&post=2169","tags":[{"name":"java"},{"name":"python"},{"name":"unix"},{"name":"jenkins"},{"name":"gitlab"},{"name":"docker"},{"name":"kubernetes"}],"cities":[{"code":"moscow"}],"allowsRemote":false}},{"node":{"__typename":"Job","id":"104203288576-1001089317451","title":"Qa engineer","text":"#вакансия #москва #полнаязанятость #qaengineer\n\nДолжность: Специалист по тестированию #QA_engineer\nКомпания: Selecty IT (аутсорс)\nГород:  #Москва\nЗП: до 170к на руки\nКонтакты: @BekBuzz , sergei.bekbuzarov@selecty.ru\nЗадачи - ручное и автоматизированное тестирование.\n\nФункциональные требования:\n\nOracle DB: SQL - сложные запросы, PL SQL - желательно знать основы (данный пункт является обязательным требованием)\nООП (преимущественно Java) - желательно знать как минимум основы\nSoupUI\nWeb-services (SOAP, REST)\nJira, Confluence, ALM\n\nОбработка большого кол-ва информации за короткие сроки\nКоммуникабельность, общительность, стрессоустойчивость\nЖелателен опыт работы с SAS MA/RTDM (но не критичен)\nОпыт в тестировании от 2 лет.\nНаличие сертификатов приветствуется (ISTQB и пр.). \n\nУслoвия:\n\nОфис в г. Москва;\nИнтeрeсныe и нeтривиaльныe зaдaчи;\nГибкий грaфик рaбoты (планируется переход на 3 дня в офисе, 2 дома);\nВoзмoжнoсть влиять нa всё тo, чтo тeбe нe нрaвится;\nДoстoйнoe вoзнaгрaждeниe и oтсутствиe кризисa;\nOфициaльнoe oфoрмлeниe нa кoмпaнию-интeгрaтoрa.","markup":[{"type":"hashtag","offset":0,"length":9,"data":"вакансия"},{"type":"hashtag","offset":10,"length":7,"data":"москва"},{"type":"hashtag","offset":18,"length":16,"data":"полнаязанятость"},{"type":"hashtag","offset":35,"length":11,"data":"qaengineer"},{"type":"hashtag","offset":86,"length":12,"data":"QA_engineer"},{"type":"hashtag","offset":138,"length":7,"data":"Москва"},{"type":"handle","offset":176,"length":8,"data":"BekBuzz"},{"type":"link","offset":187,"length":28,"data":"mailto:sergei.bekbuzarov@selecty.ru"}],"date":"2020-07-02T09:32:30+00:00","link":"tg://resolve?domain=qa_jobs&post=99376","tags":[{"name":"qa"},{"name":"oracle"},{"name":"sql"},{"name":"java"},{"name":"web"},{"name":"soap"},{"name":"rest"},{"name":"sas"}],"cities":[{"code":"moscow"}],"allowsRemote":false}},{"node":{"__typename":"Job","id":"26957840384-1001075660570","title":"Php developer","text":"#вакансия #php #senior #middle #laravel #москва #fulltime \nКомпания skillbox.ru ищет в команду Middle/Senior PHP Developer (Laravel).\n\nЧем предстоит заниматься:\n •  Нужно будет продолжать развивать сервис авторизации;\n •  Поддерживать текущие проекты на Laravel + Vue;\n •  Участвовать в Code Review;\n •  Писать Unit-тесты;\n •  Ведение документации своего кода;\n •  Принимать активное участие в проектировании микросервисов и БД.\n\nЧто мы ждем от вас:\n •  Уверенные знания PHP7, MySQL, Laravel;\n •  Умение разбираться в Legacy code;\n •  Опыт работы с Redis, WebSockets;\n •  Опыт работы с системами контроля версий – git;\n •  Опыт интеграции с внешними системами по API;\n •  Хорошее знание системы Linux (Ubuntu);\n •  Ответственность и инициативность;\n •  Умение внятно выражать свои мысли устно и письменно;\n •  Умение адекватно оценивать сроки на реализацию той или иной задачи.\n\nМы предлагаем отличные условия:\n •  Белую зарплату от 150.000 net (оклад обсудим индивидуально)\n •  Возможность прохождения любых дистанционных курсов Skillbox бесплатно, а еще корпоративную скидку на изучение английского языка в Skyeng и фитнес.\n •  Рост внутри компании не ограничен, всегда найдется то, что будет интересно тебе;\n •  Корпоративные активности (волейбол, футбол, квесты, квизы, шахматы, Skillbox.fm и др.);\n •  Наша команда творит в новом и стильном офисе на м.Октябрьская;\n •  Гибкий график работы (время прихода на работу в интервале с 8 до 12) и отсутствие дресс-кода;\n\nКонтакты: mariya.reshetova@skillbox.ru      @marieresh","markup":[{"type":"hashtag","offset":0,"length":9,"data":"вакансия"},{"type":"hashtag","offset":10,"length":4,"data":"php"},{"type":"hashtag","offset":15,"length":7,"data":"senior"},{"type":"hashtag","offset":23,"length":7,"data":"middle"},{"type":"hashtag","offset":31,"length":8,"data":"laravel"},{"type":"hashtag","offset":40,"length":7,"data":"москва"},{"type":"hashtag","offset":48,"length":9,"data":"fulltime"},{"type":"link","offset":68,"length":11,"data":"http://skillbox.ru"},{"type":"bold","offset":95,"length":38,"data":""},{"type":"bold","offset":135,"length":25,"data":""},{"type":"bold","offset":430,"length":19,"data":""},{"type":"bold","offset":879,"length":31,"data":""},{"type":"link","offset":1283,"length":11,"data":"http://Skillbox.fm"},{"type":"link","offset":1479,"length":28,"data":"mailto:mariya.reshetova@skillbox.ru"},{"type":"handle","offset":1513,"length":10,"data":"marieresh"}],"date":"2020-07-02T09:30:52+00:00","link":"tg://resolve?domain=php_jobs&post=25709","tags":[{"name":"php"},{"name":"laravel"},{"name":"vuejs"},{"name":"mysql"},{"name":"redis"},{"name":"git"},{"name":"linux"},{"name":"ubuntu"},{"name":"dotnet"}],"cities":[{"code":"moscow"}],"allowsRemote":false}},{"node":{"__typename":"Job","id":"26951548928-1001075660570","title":"Php разработчик","text":"#вакансия #москва #офис #fulltime #yii2 #php #job\n\nВсем привет!\nСейчас нахожусь в поиске крутого разработчика :)\n\n Позиция: Senior PHP Developer\nЗанятость: полная\nКомпания: ТД ЦУМ \nЛокация: Москва\nЗ/П: до 280 000\n\n   Основные цели и задачи:\n- Разработка программных модулей продуктов компании;\n- Глубокое погружение в процессы работы интернет-магазина;\n- Участие в разработке сервис-ориентированной архитектуре приложения.\n\n   Основные обязанности:\n- Разработка и поддержка инфраструктуры интернет-проекта, мобильного приложения и внутренних сервисов компании;\n- Разработка программных модулей продуктов интернет магазина ЦУМ;\n- Оптимизация приложения под высокую нагрузку, масштабирование, поиск узких мест;\n- Интеграция со сторонними сервисами;\n- Предложение и внедрение высокотехнологичных, инновационных решений.\n\nТребования:\n- Отличное знание и опыт работы с PHP 7 от 3 лет;\n- Понимание как устроен HTTP, REST;\n- Знание и понимание MVC архитектуры;\n- Знание и опыт работы фреймворком YII;\n- Опыт работы с одной или несколькими БД: MySQL, Redis, Mongo;\n- Опыт мониторинга и оптимизации SQL-запросов;\n\n   Условия работы:\n- Полный рабочий день  (гибкое утро - возможность начала рабочего дня с 9:00 до 12:00)\n- Официальное оформление по трудовому договору.\n- Офис в центре Москвы.\n- ДМС.\n- Корпоративное обучение.\n- Скидки от партнеров компании.\n\nЕсли остались вопросы, с радостью отвечу:\n @nastyaklassnaya","markup":[{"type":"hashtag","offset":0,"length":9,"data":"вакансия"},{"type":"hashtag","offset":10,"length":7,"data":"москва"},{"type":"hashtag","offset":18,"length":5,"data":"офис"},{"type":"hashtag","offset":24,"length":9,"data":"fulltime"},{"type":"hashtag","offset":34,"length":5,"data":"yii2"},{"type":"hashtag","offset":40,"length":4,"data":"php"},{"type":"hashtag","offset":45,"length":4,"data":"job"},{"type":"handle","offset":1392,"length":16,"data":"nastyaklassnaya"}],"date":"2020-07-02T09:26:49+00:00","link":"tg://resolve?domain=php_jobs&post=25703","tags":[{"name":"php"},{"name":"yii"},{"name":"rest"},{"name":"mysql"},{"name":"redis"},{"name":"sql"}],"cities":[{"code":"moscow"}],"allowsRemote":false}},{"node":{"__typename":"Job","id":"104201191424-1001089317451","title":"Qa инженер","text":"#вакансия #QA #Java #QAAutomation #Москва #офис \n\nВакансия: QA Lead (Тест-Менеджер)\nГород: Москва м. Технопарк \nЗарплата: от 250 000 рублей до 290 000 рублей на руки\nФормат: офис, полный день, полная занятость\nКомпания Innovative People \n\n🕘 Чем предстоит заниматься:\n• планирование тестирования;\n• выстраивание процессов тестирования среди 8 команд с упором на автоматизацию;\n• выстраивать CI/CD проекта;\n• налаживание взаимодействия QA инженеров в нескольких командах;\n• поддерживать и развивать разработанные решения по автоматизации;\n• исследовать новые технологии и внедрять их на проекте;\n• принятие решений о внедрении / обновлении программного обеспечения.\n\n🕒 От кандидата ожидаем:\n• опыт в тестировании от 4х лет\n• опыт в автотестировании от 3х лет\n• опыт руководства группой тестировщиков от 2х лет\n• практический опыт применения практик тест-дизайна\n• умение проектировать тест-кейсы и подготавливать тестовые данные для тестирования\n• хорошие знание Java, библиотек\n• уверенное использование и понимание как работает под капотом Selenium Webdriver (Selenide и Appium для мобильных платформ)\n• опыт написания собственного фреймворка\n• опыт работы в unix системах\n• опыт работы с API (Soap, Rest)\n• опыт использование git\n• опыт использование CI (желательно, но не обязательно Jenkins)\n• опыт работы с Docker\n• опыт составления запросов SQL\n• опыт управления непрямыми (функциональными) подчиненными\n• умение контролировать несколько проектов одновременно\n• умение мотивировать команду, опыт управления рисками, мониторинг эффективности процессов\n\n🕧 Предлагаем:\n• все по ТК РФ\n• ДМС со стоматологией, программа лояльности\n• Macbook \n• адекватное руководство и лояльные процессы\n• большое комьюнити, классные команды\n• помогаем с релокацией!\n\nРезюме и вопросы @Priboch","markup":[{"type":"hashtag","offset":0,"length":9,"data":"вакансия"},{"type":"hashtag","offset":10,"length":3,"data":"QA"},{"type":"hashtag","offset":14,"length":5,"data":"Java"},{"type":"hashtag","offset":20,"length":13,"data":"QAAutomation"},{"type":"hashtag","offset":34,"length":7,"data":"Москва"},{"type":"hashtag","offset":42,"length":5,"data":"офис"},{"type":"handle","offset":1771,"length":8,"data":"Priboch"}],"date":"2020-07-02T09:23:09+00:00","link":"tg://resolve?domain=qa_jobs&post=99374","tags":[{"name":"qa"},{"name":"java"},{"name":"selenium"},{"name":"unix"},{"name":"soap"},{"name":"rest"},{"name":"git"},{"name":"jenkins"},{"name":"docker"},{"name":"sql"}],"cities":[{"code":"moscow"}],"allowsRemote":false}},{"node":{"__typename":"Job","id":"365953024-1001352129329","title":"Golang разработчик","text":"#вакансия #Golang #middle #Senior #Moscow #удаленно \n\nНазвание компании: EveryTale\nНазвание вакансии: Golang разработчик \nЗарплатная вилка 150-200 тыс/мес\nГород: Москва\nСписок языков, которые необходимо знать: Русский, Английский (на уровне чтения тех. документации)\nФотрмат работы: удаленно\n\nВ это непростое время пандемии мы ищем талантливого GO разработчика, который жаждет развивать социально значимые продукты\nМы:\nМолодая успешная и стабильная компания\nЛидеры рынка инфопанелей\nДелаем продукты для людей с ограниченными возможностями здоровья (ОВЗ)\nАктивно разрабатываем революционную платформу для обучения\n\nEverytale — это платформа для видео-трансляций лекций преподавателей и выступлений специалистов, учитывающая потребности всех людей.\\\nНаши будущие клиенты - пользователи по всему миру. В компании нет закрытых дверей, вся команда точно понимает что она делает и зачем. Нет жесткой иерархии внутри. Мы ценим всех наших сотрудников и их идеи и стремлении расти вместе с нами. Так же мы имеем представительство в США и ориентируемся в том числе и на этот рынок. Приветствуем желание развития и роста.\n\nВозможны командировки в Los Angeles.\n\nЧто предстоит делать:\n\nРазработка beckend для edTech проекта\nРабота с чатами, опросами, потоковым видео, субтитрами\nРеализация АПИ для мобильных \nприложений\n\nЧто нужно уметь\n\nУ тебя есть:\nОпыт программирования backend от 3х лет\nЗнание особенностей разработки highload-проектов\nУверенное владение Golang\nАналитическое мышление с навыками решения проблем\nОпыт работы с Linux\n\nБудет плюсом:\n\nРабота с docker\nУмение строить SOA\nНавыки работы c оркестраторами и Docker Compose\nЗнание Python\nОпыт работы с инфраструктурой и сервисами Amazon\nОпыт работы с сервисами видеостриминга\nОпыт в построении CI/CD Pipeline\n\nЗдорово, если ты:\nЛюбишь учиться\nОткрытый\nОбщительный\nПозитивный\nСамостоятельный\n\nУсловия и преимущества\nМолодую команду профессионалов\\\nВысокую заработную плату по результатам собеседования\\\nНовый уютный офис в пешей доступности от метро Текстильщики\\\nИгровая зона пинг-понг, кикер \\\nВозможности роста в расширяющейся команде \\\nПремии по KPI\n\n\n\nКоманда:\nДиректор IT;\nТехЛид;\nPM;\nGo ТимЛид;\nReact front x3;\nАналитик;\nДизайнер;\n\nКонтакты: @sandevl","markup":[{"type":"hashtag","offset":0,"length":9,"data":"вакансия"},{"type":"hashtag","offset":10,"length":7,"data":"Golang"},{"type":"hashtag","offset":18,"length":7,"data":"middle"},{"type":"hashtag","offset":26,"length":7,"data":"Senior"},{"type":"hashtag","offset":34,"length":7,"data":"Moscow"},{"type":"hashtag","offset":42,"length":9,"data":"удаленно"},{"type":"handle","offset":2196,"length":8,"data":"sandevl"}],"date":"2020-07-02T09:13:00+00:00","link":"tg://resolve?domain=gogetajobfeed&post=349","tags":[{"name":"go"},{"name":"linux"},{"name":"docker"},{"name":"python"},{"name":"reactjs"},{"name":"docker-compose"}],"cities":[{"code":"moscow"},{"code":"los-angeles"}],"allowsRemote":true}},{"node":{"__typename":"Job","id":"1772093440-1001091028994","title":"Java разработчик","text":"#вакансия #backend #java #java8 #spring #офис #remote #Мск #Пермь #senior #middle \n\nкомпания: КА: http://luckyhunter.io\nЗ/п: 120 000 - 200 000 рублей на руки (+премии) \nГород и адрес офиса: \nг. Москва (Павелецкая),\nг. Пермь\nФормат работы: офис или удаленка \nЗанятость: полная, fulltime\n\n*У компании нет формальной возможности к трудоустройству иностранных граждан.\n\n🚀Ищем backend разработчиков уровня Middle/Middle+ в крупную продуктовую компанию с возможностью удаленной работы!\n\nРебята разрабатывают интеллектуальную low-code платформу для создания бизнес-приложений и информационных систем в области управления рисками и оптимизации бизнес-процессов любой сложности. Компания не разрабатывает решения для одного заказчика или «под проект», они продвигают собственную продуктовую разработку и реализуют весь новый функционал в удобных инструментах, которые сразу же становятся доступными для всех заказчиков.\n\n❇️Всего в компании трудится около 200 человек, разработчики поделены на 3 группы разработки и работают в scrum командах по 5-6 человек. Коллеги ценят инициативность и активный вклад в общее дело, также поддерживают разумные инициативы по внедрению новых технологий и подходов в разработку.\n\nСтэк технологий: \nJava 8, Spring, React, TypeScript, Webpack, Maven, MobX, HighchartsJS, Gitlab. \n\n✅Какой опыт необходим: \n- опыт коммерческой разработки на Java от 2 лет и больше; \n- опыт работы с БД (у ребят их 3: PostgreSQL, MySQL, Oracle; \n- опыт работы в финтехе будет плюсом☺️ \n\n✅Какие бонусы и перспективы получите вы: \n- возможность работать удаленно или в офисе (Москва, Пермь);\n- официальное оформление и полностью белую зп, которая зависит от ваших компетенций и ожиданий;\n- гибкое начало рабочего дня, отсутствие бюрократии;\n- работу в молодой и развивающейся команде, которая разрабатывает быстроразвивающийся, востребованный продукт;\n- релокационный пакет для переезжающих из других городов.\n\nКонтакты:\ne-mail: daria@luckyhunter.io\ntelegram: @prudentdaria\nБуду рада ответить на все вопросы и комментарии по вакансии 😊 \n\n\n\n\n#вакансия #backend #java #Java8 #senior  \nЛокация: Нижний-Новгород (есть хороший релокационный пакет)\nЗанятость: полная, гибкое начало дня\n*до окончания пандемии работа удаленная (и трудоустройство) далее работа в офисе\nЗП: до 220 000 NET \n\n🔹 Крупная немецкая компания ищет Java разработчиков senior уровня.\nКомпания более 20 лет, является лидером рынка в Европе поставляющем инновационные IT-решения по управлению кредитными рисками и по процессному консультированию. Кроме того в компании есть направления по разработке ПО для анализа финансовой отчетности и сегментации рынка. Продуктом компании пользуется многие известные бренды: Toshiba, Volvo, Росбанк и более 290 других компаний по всему миру.\n\n🔹 Требования:\n- коммерческий опыт разработки на Java от 3-ех лет;\n- знания Java 8 SE;\n- уровень английского языка, позволяющий вести диалог с коллегами из Германии (главное- не бояться говорить ☺️.). Это обязательное требование\n\n🔹 Условия:\n- Расширенный релокационный пакет;\n- Оформление официальное, белая заработная плата и премиальная система;\n- ДМС;\n- Компенсация обучения английскому языку;\n-Широкие возможности профессионального и карьерного роста и разные другие плюшки и бонусы.\n\nКонтакты:\ne-mail: daria@luckyhunter.io\ntelegram: @prudentdaria\nПишите, буду рада ответить на все возможные вопросы здесь или по почте :)","markup":[{"type":"hashtag","offset":0,"length":9,"data":"вакансия"},{"type":"hashtag","offset":10,"length":8,"data":"backend"},{"type":"hashtag","offset":19,"length":5,"data":"java"},{"type":"hashtag","offset":25,"length":6,"data":"java8"},{"type":"hashtag","offset":32,"length":7,"data":"spring"},{"type":"hashtag","offset":40,"length":5,"data":"офис"},{"type":"hashtag","offset":46,"length":7,"data":"remote"},{"type":"hashtag","offset":54,"length":4,"data":"Мск"},{"type":"hashtag","offset":59,"length":6,"data":"Пермь"},{"type":"hashtag","offset":66,"length":7,"data":"senior"},{"type":"hashtag","offset":74,"length":7,"data":"middle"},{"type":"link","offset":98,"length":21,"data":"http://luckyhunter.io"},{"type":"link","offset":1929,"length":20,"data":"mailto:daria@luckyhunter.io"},{"type":"handle","offset":1960,"length":13,"data":"prudentdaria"},{"type":"hashtag","offset":2042,"length":9,"data":"вакансия"},{"type":"hashtag","offset":2052,"length":8,"data":"backend"},{"type":"hashtag","offset":2061,"length":5,"data":"java"},{"type":"hashtag","offset":2067,"length":6,"data":"Java8"},{"type":"hashtag","offset":2074,"length":7,"data":"senior"},{"type":"link","offset":3254,"length":20,"data":"mailto:daria@luckyhunter.io"},{"type":"handle","offset":3285,"length":13,"data":"prudentdaria"}],"date":"2020-07-02T09:10:30+00:00","link":"tg://resolve?domain=jvmjobs&post=1690","tags":[{"name":"java"},{"name":"jvm"},{"name":"spring"},{"name":"reactjs"},{"name":"typescript"},{"name":"webpack"},{"name":"maven"},{"name":"gitlab"},{"name":"postgresql"},{"name":"mysql"},{"name":"oracle"},{"name":"dotnet"}],"cities":[{"code":"perm"},{"code":"moscow"},{"code":"nizhny-novgorod"}],"allowsRemote":true}}]}}},"context":{}}