{"hash":"f34fd2c444a074f4e0e67d525015a008ef8e766f","data":{"records":{"id":"rest","name":"rest","belongsTo":{"totalCount":66,"pageInfo":{"totalPages":7,"currentPage":3},"edges":[{"node":{"__typename":"Job","id":"16222519296-1001110946746","title":"Javascript разработчик","text":"#вакансия #frontend #fulltime #vue #middle\nГород и адрес офиса: Санкт-Петербург, м. Московская\nФормат работы: #офис\nЗанятость: полная\nНазвание компании: Paydek, paydek.com\nЗарплатная вилка: от 160 000 до 220 000 рублей на руки\n\nНаш продукт — это удобная система для оплаты фрилансеров и удалённых сотрудников по всему миру.\n\nПроект существует 10 лет, у него 50 000 корпоративных клиентов и порядка 500 000 частных.\n\nИщем Middle Frontend-разработчика, которому не чуждо чувство прекрасного.\n\nОсновные ожидания:\n— опыт разработки на JavaScript от 2-х лет;\n— от 1 года на Vue;\n— опыт взаимодействия с REST API;\n— опыт работы с git или с любой другой системой контроля версий.\n\nБудет плюсом:\n— бэкграунд в дизайне, UX;\n— опыт тестирования своего кода;\n— опыт разработки для платежных систем.\n\nГрафик работы гибкий — приход в офис до 13:00.\n\nКонтакт для связи: @recruiter","markup":[{"type":"hashtag","offset":0,"length":9,"data":"вакансия"},{"type":"hashtag","offset":10,"length":9,"data":"frontend"},{"type":"hashtag","offset":20,"length":9,"data":"fulltime"},{"type":"hashtag","offset":30,"length":4,"data":"vue"},{"type":"hashtag","offset":35,"length":7,"data":"middle"},{"type":"hashtag","offset":110,"length":5,"data":"офис"},{"type":"link","offset":161,"length":10,"data":"http://paydek.com"},{"type":"handle","offset":856,"length":10,"data":"recruiter"}],"date":"2020-04-09T06:37:42+00:00","link":"tg://resolve?domain=javascript_jobs_feed&post=15471","tags":[{"name":"javascript"},{"name":"vuejs"},{"name":"rest"},{"name":"git"}],"cities":[],"allowsRemote":false}},{"node":{"__typename":"Job","id":"16218324992-1001110946746","title":"Js разработчик","text":"#вакансия #front #react #typescript #москва #генетика #javascript #nodejs #геномэксперт #барсгруп\n\nГород и адрес офиса: Москва, ст.м.Павелецкая\nФормат работы: Офис\nЗанятость: Полная \nЗарплатная вилка: от 160 до 250 000 руб. на руки\nНазвание компании: Барс Груп\nhttps://bars.group/\nПроект Геном.Эксперт  - https://genome.expert/ \n\nТребуется senior/middle front-end разработчик в крупный медицинский проект.\n\nПредметная область: Генетика.\nТекущее состояние проекта: Проект запущен как стартап, поэтому есть уникальная возможность принять участие в создании с нуля единого пространства для врачей-генетиков, лабораторных генетиков, биоинформатиков.\n\nЧем придется заниматься:\n\n-Писать микроприложения и компоненты на React;\n-Изучать исходники на Polymer, чтобы переехать на React и микросервисную архитектуру;\n-Доделывать существующую систему с использованием самописного фрэймворка(пока переезжаем на реакт, это иногда нужно будет делать)\n\nТребования:\n\n-Front-end: React(Vue), typescript, Polymer, Redux/Mobx/Vuex;\n-Межсервисное взаимодействие и API: REST/GraphQL/gRPC;\n-Инструменты для работы: Git, bitbucket, JIRA, docker, docker-compose\n\nУсловия:\n-Оформление по ТК РФ;\n-Работа в комфортабельном офисе, ст.м.Павелецкая;\n-Белая зарплата, повышающаяся по системе аттестаций несколько раз в год;\n-ДМС;\n-Перспективы карьерного роста;\n-Корпоративное обучение (тренинги, мастер-классы);\n-Корпоративная библиотека;\n-Мы рассматриваем кандидатов с возможностью переезда в Москву;\n-Возможность предоставления бесплатного жилья на первый месяц\n- График 5/2. \n\nКонтакты для связи: \n\nemail: a.starchenko@bars.group \nTelegram: @alinavelcheva \n\nbars.group\nАО «БАРС Груп» - официальный сайт компании\nАО «БАРС Груп» - российский производитель ИТ-решений и экспертный центр в сфере государственной и корпоративной информатизации.","markup":[{"type":"hashtag","offset":0,"length":9,"data":"вакансия"},{"type":"hashtag","offset":10,"length":6,"data":"front"},{"type":"hashtag","offset":17,"length":6,"data":"react"},{"type":"hashtag","offset":24,"length":11,"data":"typescript"},{"type":"hashtag","offset":36,"length":7,"data":"москва"},{"type":"hashtag","offset":44,"length":9,"data":"генетика"},{"type":"hashtag","offset":54,"length":11,"data":"javascript"},{"type":"hashtag","offset":66,"length":7,"data":"nodejs"},{"type":"hashtag","offset":74,"length":13,"data":"геномэксперт"},{"type":"hashtag","offset":88,"length":9,"data":"барсгруп"},{"type":"link","offset":261,"length":19,"data":"https://bars.group/"},{"type":"link","offset":305,"length":22,"data":"https://genome.expert/"},{"type":"link","offset":1577,"length":23,"data":"mailto:a.starchenko@bars.group"},{"type":"handle","offset":1612,"length":14,"data":"alinavelcheva"},{"type":"link","offset":1629,"length":10,"data":"http://bars.group"}],"date":"2020-04-09T06:36:29+00:00","link":"tg://resolve?domain=javascript_jobs_feed&post=15467","tags":[{"name":"javascript"},{"name":"reactjs"},{"name":"typescript"},{"name":"nodejs"},{"name":"polymerjs"},{"name":"vuejs"},{"name":"redux"},{"name":"rest"},{"name":"graphql"},{"name":"git"},{"name":"docker"},{"name":"docker-compose"}],"cities":[{"code":"moscow"}],"allowsRemote":false}},{"node":{"__typename":"Job","id":"98255765504-1001089317451","title":"Qa инженер","text":"#вакансия #QA Automation #remote/офис #Limassol \nПозиция: QA Automation Engineer\nГород: Лимассол\nОфис / full-time remote\nПолный день, полная занятость\nЗаработная плата: от 3000 eur\nhttps://exness.bamboohr.com/jobs/view.php?id=221\n\nНаша компания строит финтех-продукты (как B2B, так и B2C) для 70 тысяч активных клиентов, постоянно стремясь к совершенствованию. \nМы приглашаем опытного инженера по автоматизации QA в команду партнерства. \nРаботаем в гибкой среде по методологии scrum, где каждый сотрудник влияет на функциональность продукта/услуги.\n\nОсновные задачи: \n- Автоматизированное тестирование REST API / RPC / Web;\n- Выполнение и анализ результатов автоматизированных тестов;\n- Подготовка и разработка стратегий тестирования и планов тестирования;\n- Наставничество в области методологии, практики и методов контроля качества;\n- Исследование, разработка и применение новых инструментов и функций для автоматизации тестирования.\n\nТребования:\n- 5+ лет в тестировании автоматизации Web/API\n- Хорошие знания в области Selenium/Selenide, TestNG/JUnit, Allure, Selenoid\n- Знание Java\n- Базовые знания системы контроля версий Git\n- Опыт работы с SQL, Docker, CI (GitLab, Jenkins)\n\nМы предлагаем:\n- Стабильную работу с интересными продуктами\n- Заработная плата от 3000 eur netto\n- Возможность работы из любой страны\nЕсли решите переехать, предоставим: \n- Пакет переезда (виза, билеты, корпоративная квартира на 1 месяц)\n- Медицинское страхование сотрудников и членов их семей\n- Корпоративный Mini Cooper Countryman S\n- Фитнес-центр для сотрудников и их супругов\n- Курсы английского/греческого языка\n- Программа компенсации детского сада / школы\n- Отличный офис с лучшим видом на море\n\nРезюме и вопросы задавайте здесь @lyubovblv","markup":[{"type":"hashtag","offset":0,"length":9,"data":"вакансия"},{"type":"hashtag","offset":10,"length":3,"data":"QA"},{"type":"hashtag","offset":25,"length":7,"data":"remote"},{"type":"hashtag","offset":38,"length":9,"data":"Limassol"},{"type":"link","offset":181,"length":48,"data":"https://exness.bamboohr.com/jobs/view.php?id=221"},{"type":"handle","offset":1718,"length":10,"data":"lyubovblv"}],"date":"2020-04-08T20:32:01+00:00","link":"tg://resolve?domain=qa_jobs&post=93704","tags":[{"name":"qa"},{"name":"php"},{"name":"rest"},{"name":"web"},{"name":"selenium"},{"name":"junit"},{"name":"java"},{"name":"git"},{"name":"sql"},{"name":"docker"},{"name":"gitlab"},{"name":"jenkins"}],"cities":[],"allowsRemote":true}},{"node":{"__typename":"Job","id":"66285731840-1001054966032","title":"Ios разработчик","text":"#вакансия #ios #swift #офис #СПб\n\nГород, адрес:  Санкт-Петербург, Гельсингфорсская ул, 2A\nФормат: офис\nЗанятость: Полная\nЗП вилка: 140000-180000 р \n\nО компании: АвтоТрансИнфо  \nhttps://ati.su/  \n – удобная площадка для сотрудничества и поиска клиентов.Мы создаём инновационные ИТ-решения для работы на логистическом рынке. На сайте ATI.SU грузоотправители и перевозчики быстро находят друг друга. Также наши сервисы и инструменты помогают сделать грузоперевозки выгодными и безопасными для всех пользователей. Мы постоянно развиваемся, поэтому ATI.SU уже 20 лет остается крупнейшей биржей грузоперевозок в России и СНГ.\n\nЗадачи. Вашей основной задачей будет - создание приложений компании для IOS.\nА также:\n- Участие в развитии текущего проекта;\n- Оценка задач; \n- Обсуждение и решение архитектурных, технических вопросов; \n- Взаимодействие с другими командами разработки.\n\nУсловия:\nОфициальное трудоустр по ТК РФ \nПолис ДМС со стоматологией;\nГибкий рабочий график: начало рабочего дня до 12:00\nОплачиваемые обеды, компенсация спорта, обучения ин.языкам, фрукты и сладости в офисе;\nПостоянно пополняющаяся библиотека с проф.литературой;\nКомнаты отдыха с PlayStation, мини спорт.зал с душем, настольный теннис, киккер, корпоративные сборные по разным видам спорта, йога;\nПрофессиональное обучение за счёт компании (конференции, тренинги, семинары).\n\nТребования: \n- Знание Swift;\n- Знание основных структур данных;\n- Понимание REST API/Soket;\n- Понимание SOLID/DRY/KISS;\n- Понимание архитектурных паттернов MVC, MVVM, VIPER, Clean Swift (VIP);\n- Знание и опыт работы с Core Data/Realm;\n- Понимание iOS Human Interface Guidelines.\nВашим преимуществом будет:\n- Fastlane, CI/CD, опыт взаимодействия с App Store Review.\n\nОтклики и вопросы жду с нетерпением! @KseniyaAG_HR","markup":[{"type":"hashtag","offset":0,"length":9,"data":"вакансия"},{"type":"hashtag","offset":10,"length":4,"data":"ios"},{"type":"hashtag","offset":15,"length":6,"data":"swift"},{"type":"hashtag","offset":22,"length":5,"data":"офис"},{"type":"hashtag","offset":28,"length":4,"data":"СПб"},{"type":"link","offset":177,"length":15,"data":"https://ati.su/"},{"type":"link","offset":332,"length":6,"data":"http://ATI.SU"},{"type":"link","offset":544,"length":6,"data":"http://ATI.SU"},{"type":"bold","offset":621,"length":6,"data":""},{"type":"bold","offset":874,"length":9,"data":""},{"type":"bold","offset":1349,"length":13,"data":""},{"type":"bold","offset":1628,"length":27,"data":""},{"type":"handle","offset":1752,"length":13,"data":"KseniyaAG_HR"}],"date":"2020-04-08T16:48:29+00:00","link":"tg://resolve?domain=mobile_jobs&post=0","tags":[{"name":"mobile"},{"name":"ios"},{"name":"swift"},{"name":"rest"},{"name":"mvvm"},{"name":"realm"},{"name":"core-data"}],"cities":[],"allowsRemote":false}},{"node":{"__typename":"Job","id":"98244231168-1001089317451","title":"Qa engineer","text":"#вакансия #QA #ручное #ФТ #Москва #офис \n\nВакансия: QA Engineer (функциональное)\nГород: Москва м. Технопарк \nЗарплата: от 100 000 рублей до 140 000 рублей на руки \nФормат: офис, полный день, полная занятость\nКомпания Innovative People \n\nПроекты в крупном банке с классной корпоративной культурой, гибким началом дня, адекватными продактами и лидами.\n\n✅ Требования:\n• опыт в тестировании от 1,5 лет (понимать процесс тестирования, уметь писать тест-кейсы, используя техники тест дизайна)\n• нужна здоровая самостоятельность - каждую задачу вряд ли кто-то будет ставить, зачастую нужно самому понимать - что, как и когда тестировать, много договариваться нужно ещё, искать инфу, спрашивать\n\nБудет плюсом:\n• знание REST, опыт тестирования API\n• знание SOAP\n• знания SQL, опыт составления запросов средней сложности\n• опыт интеграционного тестирования от 3+ систем в интеграции\n• опыт работы по Scrum\n\n✅ Надо будет:\n• разрабатывать планы тестирования\n• писать тест-кейсы\n• искать дефекты и описывать их в баг-трекинговой системе\n• взаимодействовать с разработчиками\n• контролировать устранение ошибок;\n•  анализировать и оптимизировать процесс тестирования\n•  составлять отчетность\n\n✅ Предлагаем:\n• все по ТК РФ\n• ДМС со стоматологией, программа лояльности\n• Macbook \n• гибкое начало дня, адекватное руководство\n(да, сейчас мы на удаленке)\n• большое комьюнити, классные команды\n• помогаем с релокацией\n\nРезюме и вопросы @Priboch","markup":[{"type":"hashtag","offset":0,"length":9,"data":"вакансия"},{"type":"hashtag","offset":10,"length":3,"data":"QA"},{"type":"hashtag","offset":14,"length":7,"data":"ручное"},{"type":"hashtag","offset":22,"length":3,"data":"ФТ"},{"type":"hashtag","offset":26,"length":7,"data":"Москва"},{"type":"hashtag","offset":34,"length":5,"data":"офис"},{"type":"bold","offset":353,"length":11,"data":""},{"type":"bold","offset":688,"length":13,"data":""},{"type":"bold","offset":899,"length":11,"data":""},{"type":"bold","offset":1180,"length":11,"data":""},{"type":"handle","offset":1415,"length":8,"data":"Priboch"}],"date":"2020-04-08T15:12:47+00:00","link":"tg://resolve?domain=qa_jobs&post=93693","tags":[{"name":"qa"},{"name":"rest"},{"name":"soap"},{"name":"sql"}],"cities":[{"code":"moscow"}],"allowsRemote":false}},{"node":{"__typename":"Job","id":"1428160512-1001091028994","title":"Java разработчик","text":"Вакансия: Team Lead Java\n\nПроект: Сервисная шина предприятия (ESB) — связующее программное обеспечение, обеспечивающее централизованный и унифицированный событийно-ориентированный обмен сообщениями между различными информационными системами на принципах микросервисной архитектуры.\n\nТехнологический стек на проекте: core Java 12, Spring Framework, Kafka.\n\nФункционал на проекте:\n\n- Управление процессом разработки внутренней интеграционной платформы и компонентов, постановка задач, контроль исполнения;\n- Проектирование и реализация компонентов: адаптеры получения данных, компоненты сервера приложений, веб сервисы;\n- Реализация интеграционных сценариев и бизнес процессов (BPMS);\n- Проектирование и разработка интерфейсов взаимодействия с системами и сервисами;\n- Написание автоматических модульных тестов (Unit tests);\n- Ведение неформальной технической документации в confluence.\n\nДля этого важно:\n\nОпыт работы Team Lead от 2 лет;\nУверенное знание Core Java: collections, многопоточность;\nОпыт разработки веб-сервисов (REST, HTTP);\nОпыт работы с системами обмена сообщениями (JMS);\nЗнание паттернов проектирования ПО;\nОпыт работы с ESB.\n\nМы предлагаем:\n- Локация офиса: г. Москва, м. Арбатская/Библиотека им. Ленина/Боровицкая/Александровский сад;\n- Занятость: пока полная занятость, официальное оформление в штат Компании (пока работает удаленно из дома, выйдем в офис многое поменяется);\n- ДМС: с первого рабочего дня;\n- Формат работы: современный  офис возле кремля в шаговой доступности от метро (сейчас работаем из дома, возможно, после выхода в офисе многое поменяется);\n- Компания: ПАО Московская биржа (Компания входящая в 500 - лучших работодателей мира по версии Forbes за 2019 год);\n- Уровень з/п:  250- 350 тыс.руб. + годовой бонус;\n- Формат интервью: 1-2 этапа интервью по Skype (60 минут). \n\n\nПишите в личку, отвечу на любые вопросы!\nКонтакты: @Sasha_P92","markup":[{"type":"bold","offset":0,"length":24,"data":""},{"type":"bold","offset":26,"length":8,"data":""},{"type":"bold","offset":283,"length":32,"data":""},{"type":"bold","offset":356,"length":22,"data":""},{"type":"bold","offset":886,"length":17,"data":""},{"type":"bold","offset":1143,"length":15,"data":""},{"type":"bold","offset":1853,"length":9,"data":""},{"type":"handle","offset":1863,"length":10,"data":"Sasha_P92"}],"date":"2020-04-08T10:40:54+00:00","link":"tg://resolve?domain=jvmjobs&post=1362","tags":[{"name":"java"},{"name":"jvm"},{"name":"spring"},{"name":"kafka"},{"name":"rest"}],"cities":[{"code":"moscow"}],"allowsRemote":true}},{"node":{"__typename":"Job","id":"66238545920-1001054966032","title":"Android разработчик","text":"‼️Вакансия Senior Android⁢ Developer‼️\n#android #developer #vacancy\nВ команде Mycelium Wallet (mycelium.com) открыта #вакансия Senior Android⁢ Developer.\n💵З/П 3500-4000 USD по итогам собеседования.\nРабота удаленная 💻\n\nМы предлагаем:\n🔸Получить навыки и компетенции в одном из самых передовых и перспективных направлений финтех индустрии - blockchain;\n🔸Принять участие в разработке одного из самых популярных биткоин-кошельков в Google Play Store;\n🔸Работать в международной команде бок о бок с ведущими специалистами в индустрии;\n🔸Возможность профессионального карьерного роста и участия в разнообразных проектах компании.\n\nЧем предстоит заниматься:\n🔹Разрабатывать новые и развивать существующие мобильные сервисы компании на платформе Android;\n🔹Проектировать и разрабатывать большие функциональные части приложения с привлечением других программистов;\n🔹Использовать cutting edge технологии, а также проверенные временем решения.\n\nТребования:\n✔️Как минимум 3 года опыта разработки на Android;\n✔️Знание Java/Kotlin на уровне ведущего разработчика;\n✔️Знание шаблонов проектирования, опыт использования MVP и других архитектурных подходов;\n✔️Опыт параллельного и многопоточного программирования;\n✔️Понимание циклов работы Android-приложения и управления памятью;\n✔️Опыт разработки пользовательских интерфейсов на платформе Android. \n✔️Знание Android Design Principles;\n✔️Знание и умение использовать различные механизмы взаимодействий между приложениями, предоставляемые в рамках Android SDK;\n✔️Понимание принципов работы REST API, WS, RPC и клиент-серверных приложений;\n✔️Знание английского языка на уровне чтения документации и умения общаться в корпоративном чате.\n\nПлюсом будет:\n➕Умение и понимание необходимости написания Unit tests;\n➕Знание основ криптографии;\n➕Опыт работы с bitcoin/etherium blockchain stack;\n➕Наличие своих проектов на Github, в Google Play и т.д.\n\n📲Контакт: @valeritata","markup":[{"type":"hashtag","offset":39,"length":8,"data":"android"},{"type":"hashtag","offset":48,"length":10,"data":"developer"},{"type":"hashtag","offset":59,"length":8,"data":"vacancy"},{"type":"link","offset":95,"length":12,"data":"http://mycelium.com"},{"type":"hashtag","offset":117,"length":9,"data":"вакансия"},{"type":"handle","offset":1889,"length":11,"data":"valeritata"}],"date":"2020-04-08T09:56:13+00:00","link":"tg://resolve?domain=mobile_jobs&post=0","tags":[{"name":"mobile"},{"name":"android"},{"name":"playframework"},{"name":"java"},{"name":"kotlin"},{"name":"rest"},{"name":"github"}],"cities":[],"allowsRemote":true}},{"node":{"__typename":"Job","id":"98216968192-1001089317451","title":"Qa инженер","text":"#вакансия #fulltime #офис #Москва #Саратов #testautomation #middle #senior #TS\n\nКомпания: Техносерв https://technoserv.com/ \nВакансия: QA-ИНЖЕНЕР ПО АВТОМАТИЗАЦИИ ТЕСТИРОВАНИЯ\nДля работы на проектах в крупном банке (T&M)\nЗП: 60 000 - 220 000 (несколько позиций)\nГрафик работы: фултайм, 10:00-19:00 (по договоренности)\nМесто работы: офис, г. Москва или г. Саратов\n\nО проекте:\nСоздание системы, упрощающей работу операционистов в отделениях банка.\nРелизы выпускаются несколько раз в день\nQA активно участвуют в DevOps и CI/CD.\n\nКого мы ищем:\nИщем опытного QA-автоматизатора, разбирающегося в ключевых моментах автотестирования ПО. Основной его задачей будет увеличение покрытия автотестами существующего/нового функционала.\n\nЧем будете заниматься:\n• Разрабатывать автотесты на C# (Rest API / Rabbit MQ), поддерживать как новые, так и существующие тесты\n• Разрабатывать тестовые заглушки и сервисы (.net)\n• Конфигурировать сборки на CI-сервере (TeamCity)\n• Конфигурировать тестовые стенды (Helm, ArgoCD, Kubernetes, Docker)\n\nТребуемый опыт и знание технологий:\n• Опыт написания автотестов на C# (от года);\n• Опыт работы с NUnit / xUnit;\n• Умение разбираться с деплоймент-тулами и понимание принципов DevOps;\n• SQL на уровне написания запросов;\n• Знание методологий тестирования;\n• Умение написать чек-лист / тест-кейсы для функционала, покрываемого автотестами.\n\nБудет плюсом:\n• Работа с .net Core;\n• Опыт конфигурирования CI-серверов (мы используем TeamCity);\n• Знание PL-SQL и опыт работы c Oracle;\n• Навыки работы в консоли Linux (CentOS).\n\nРезюме сюда: QAResume@technoserv.com\n\nP.S. Если вы слабы в C#, но уверенно знаете java и Selenium, не стесняйтесь присылать резюме - варианты и возможности есть.","markup":[{"type":"hashtag","offset":0,"length":9,"data":"вакансия"},{"type":"hashtag","offset":10,"length":9,"data":"fulltime"},{"type":"hashtag","offset":20,"length":5,"data":"офис"},{"type":"hashtag","offset":26,"length":7,"data":"Москва"},{"type":"hashtag","offset":34,"length":8,"data":"Саратов"},{"type":"hashtag","offset":43,"length":15,"data":"testautomation"},{"type":"hashtag","offset":59,"length":7,"data":"middle"},{"type":"hashtag","offset":67,"length":7,"data":"senior"},{"type":"hashtag","offset":75,"length":3,"data":"TS"},{"type":"link","offset":100,"length":23,"data":"https://technoserv.com/"},{"type":"link","offset":1554,"length":23,"data":"mailto:QAResume@technoserv.com"}],"date":"2020-04-08T09:15:43+00:00","link":"tg://resolve?domain=qa_jobs&post=93667","tags":[{"name":"qa"},{"name":"rest"},{"name":"rabbitmq"},{"name":"dotnet"},{"name":"kubernetes"},{"name":"docker"},{"name":"sql"},{"name":"oracle"},{"name":"linux"},{"name":"centos"},{"name":"java"},{"name":"selenium"},{"name":"net-core"}],"cities":[{"code":"moscow"},{"code":"saratov"}],"allowsRemote":false}},{"node":{"__typename":"Job","id":"98199142400-1001089317451","title":"Qa engineer","text":"QA automation engineer (OpenStack)\n\nВсем привет!\n\n#вакансия #sbercloud #тестировщик # QAautomationengineer #QA #OpenStack #автоматизация #москва #офис #мск  #auto\n\n🏢Компания: SberCloud\n🏙Город: Москва, м. Боровицкая, м. Библиотека им Ленина, м. Александровский сад\n💰Зп: от 110к (обсуждается по результатам собеседования)\n\nФормат работы: офис \nЗанятость: полная\n\nSberCloud – облачный провайдер Группы Сбербанк, предоставляющий услуги для бизнес-клиентов на базе технологий Группы Сбербанк, одной из крупнейших технологических экосистем в России. Предоставляя клиентам передовые облачные технологии, совместимые с привычной для их бизнеса архитектурой ИТ-приложений, мы делаем возможным технологический прорыв. Мы создаем облачную платформу SberCloud, используя многолетний опыт развития ИТ-инфраструктуры Группы Сбербанк, обеспечения ее надежности, безопасности и эффективности в условиях стремительно растущих нагрузок и темпа изменений.\n\nОбязанности:\n✔️ Разрабатывать автотесты\n✔️ Участвовать в разработке и поддержке CI процесса\n✔️ Участвовать в функциональном, интеграционном, системном тестировании\n✔️ Проводить ручное и автоматизированное тестирование\n✔️ Анализировать результаты выполнения тестов\n✔️ Разрабатывать и поддерживать в актуальном состоянии тестовую документацию\n✔️ Работать с дефектами (обнаружение, анализ, контроль исправления)\n✔️ Взаимодействовать с другими отделами и членами команды для решения поставленных задач\n\nТребования:\n✔️ Понимание теории тестирования\n✔️ Опыт администрирования Linux/Windows серверов\n✔️ Опыт использования платформ виртуализации\n✔️ Опыт использования облачных платформ (OpenStack)\n✔️ Понимание сетевых технологий и протоколов (DNS, DHCP, VPN)\n✔️ Знание Python/других языков\n\nБудет плюсом:\n✔️ Знание фреймворков для автоматизации тестирования WEB UI\n✔️ Знание инструментов для тестирования REST API\n\nУсловия:\n✔️ Офис у м. Боровицкая, м. Библиотека им Ленина, м. Александровский сад\n✔️ ДМС + стоматология;\n✔️ Корпоративные скидки для сотрудников Группы Сбербанк;\n✔️ Льготные условия для кредитования;\n✔️ Гибкое начало рабочего дня.\n\n📲Контакты: aosamarov@sbercloud.ru или в лс (в телеге)","markup":[{"type":"hashtag","offset":50,"length":9,"data":"вакансия"},{"type":"hashtag","offset":60,"length":10,"data":"sbercloud"},{"type":"hashtag","offset":71,"length":12,"data":"тестировщик"},{"type":"hashtag","offset":107,"length":3,"data":"QA"},{"type":"hashtag","offset":111,"length":10,"data":"OpenStack"},{"type":"hashtag","offset":122,"length":14,"data":"автоматизация"},{"type":"hashtag","offset":137,"length":7,"data":"москва"},{"type":"hashtag","offset":145,"length":5,"data":"офис"},{"type":"hashtag","offset":151,"length":4,"data":"мск"},{"type":"hashtag","offset":157,"length":5,"data":"auto"},{"type":"link","offset":2093,"length":22,"data":"mailto:aosamarov@sbercloud.ru"}],"date":"2020-04-08T07:19:20+00:00","link":"tg://resolve?domain=qa_jobs&post=93650","tags":[{"name":"qa"},{"name":"linux"},{"name":"windows"},{"name":"dns"},{"name":"python"},{"name":"web"},{"name":"rest"}],"cities":[{"code":"moscow"}],"allowsRemote":false}},{"node":{"__typename":"Job","id":"98195996672-1001089317451","title":"Qa инженер","text":"#вакансия #москва #fulltime #фуллтайм #офис #тестировщик #qa \n\nОнлайн-кинотеатр ivi\nТестлид команды backend \nот 140 т.р. на руки \n\nОбязанности:\n• Управление командой тестирования, обучение;\n• Внедрение локальных процедур, техник, регламентов в области QA;\n• Тестирование нового и существующего функционала;\n• Участие в автоматизации процессов тестирования.\n\nТребования:\n• Опыт в тестировании от 3х лет;\n• Опыт руководства командой тестирования от 1 года;\n• Опыт работы с REST API, SQL;\n• Знания и навыки в области автоматизации тестирования;\n• Опыт автоматизации python/bash будет плюсом.\n\nУсловия:\n• Офис в 5 минутах ходьбы от м. \"Дмитровская\";\n• У нас гибкий график, мы начинаем до 11 часов дня;\n• Трудоустройство по ТК РФ;\n• ДМС + стоматология после прохождения испытательного срока;\n• Подписка на ivi;\n• Пакет релокации для соискателей со всей России.\n\nПишите @daria144, на почту dsereda@ivi.ru или откликайтесь здесь https://hh.ru/vacancy/35356764","markup":[{"type":"hashtag","offset":0,"length":9,"data":"вакансия"},{"type":"hashtag","offset":10,"length":7,"data":"москва"},{"type":"hashtag","offset":18,"length":9,"data":"fulltime"},{"type":"hashtag","offset":28,"length":9,"data":"фуллтайм"},{"type":"hashtag","offset":38,"length":5,"data":"офис"},{"type":"hashtag","offset":44,"length":12,"data":"тестировщик"},{"type":"hashtag","offset":57,"length":3,"data":"qa"},{"type":"bold","offset":63,"length":46,"data":""},{"type":"bold","offset":131,"length":13,"data":""},{"type":"bold","offset":358,"length":12,"data":""},{"type":"bold","offset":590,"length":9,"data":""},{"type":"handle","offset":864,"length":9,"data":"daria144"},{"type":"link","offset":884,"length":14,"data":"mailto:dsereda@ivi.ru"},{"type":"link","offset":922,"length":30,"data":"https://hh.ru/vacancy/35356764"}],"date":"2020-04-08T06:55:54+00:00","link":"tg://resolve?domain=qa_jobs&post=93647","tags":[{"name":"qa"},{"name":"rest"},{"name":"sql"},{"name":"python"},{"name":"bash"}],"cities":[{"code":"moscow"}],"allowsRemote":false}}]}}},"context":{}}