{"hash":"f5f6bf98bd95e769321482904cbbd488f77922fd","data":{"records":{"id":"mvvm","name":"mvvm","belongsTo":{"totalCount":54,"pageInfo":{"totalPages":6,"currentPage":4},"edges":[{"node":{"__typename":"Job","id":"71795998720-1001054966032","title":"Android разработчик","text":"#вакансия #developer #android #москва #бауманская\nAndroid Developer\nГород: Москва\nФормат работы: офис\nЗанятость: полная\nЗарплатная вилка: от 100.000 до 250.000 тыс. руб. фикс\n\nИщем middle/senior разработчика в digital-агентство WakeApp для разработки приложений-утилит (forecast, vpn, safe kids etc) + приложение мотивированного траффика.\n\nСтек: Kotlin, RxJava2/RxAndroid, Dagger2, Android Architecture Components (LiveData, ViewModel, Room, Navigation);\n\nС Вас:\n🔸опыт разработки от 2-ух лет;\n🔸хорошие знания стека;\n🔸знание ООП, MVP, MVVM;\n🔸ориентирование в Android SDK, гайдлайнах, best practices;\n\nС нас:\n🔹достойный уровень заработной платы;\n🔹сложные и интересные задачи;\n🔹комфортный офис в пешей доступности от метро (кухня с запасом фруктов, йогуртов, мороженого);\n🔹технологическая свобода;\n🔹отличный коллектив и пятничные посиделки;\n\nКонтакты: @natereaver","markup":[{"type":"hashtag","offset":0,"length":9,"data":"вакансия"},{"type":"hashtag","offset":10,"length":10,"data":"developer"},{"type":"hashtag","offset":21,"length":8,"data":"android"},{"type":"hashtag","offset":30,"length":7,"data":"москва"},{"type":"hashtag","offset":38,"length":11,"data":"бауманская"},{"type":"bold","offset":50,"length":17,"data":""},{"type":"bold","offset":75,"length":6,"data":""},{"type":"bold","offset":97,"length":4,"data":""},{"type":"bold","offset":113,"length":6,"data":""},{"type":"bold","offset":138,"length":15,"data":""},{"type":"bold","offset":154,"length":20,"data":""},{"type":"bold","offset":228,"length":7,"data":""},{"type":"handle","offset":858,"length":11,"data":"natereaver"}],"date":"2020-06-22T15:29:10+00:00","link":"tg://resolve?domain=mobile_jobs&post=0","tags":[{"name":"mobile"},{"name":"android"},{"name":"kotlin"},{"name":"mvvm"}],"cities":[{"code":"moscow"}],"allowsRemote":false}},{"node":{"__typename":"Job","id":"71768735744-1001054966032","title":"Mobile разработчик","text":"#вакансия #работа #СанктПетербург #Android #Kotlin #fulltime #офис\nГород: Санкт-Петербург, м. Чкаловская\nФорма работы: офис, гибкий график\nЗанятость: полная\nЗарплатная вилка: от 120 000 до 250 000 net.\nВсем привет!\nМы петербургская IT-компания, разработчик мобильного приложения «Кошелёк». \n«Кошелёк» заменяет бумажник и избавляет от необходимости носить с собой пластик: пользователи хранят в нем дисконтные и банковские карты. Чтобы получить скидку, достаточно показать на кассе карту с экрана смартфона, а чтобы оплатить покупку – приложить NFC-смартфон к терминалу оплаты. \nНаши партнеры в ритейле – крупнейшие торговые сети страны: Лента, М.Видео, X5 Retail Group, ВкусВилл, Adidas Group и многие другие. Карты этих торговых сетей можно перенести в приложение, сфотографировав пластик, или выпустить новую карту из каталога Кошелька – сразу в мобильном формате. \nПлатформа токенизации Cardsmobile прошла сертификации Visa и MasterCard, что позволяет безопасно переносить банковские карты в приложение \"Кошелёк\" и бесконтактно оплачивать покупки. \n \nВ нашей команде более 150 человек, из которых более 50 человек - техническая команда. \nНашим приложением пользуются более 10 млн. человек в квартал, а в день от 1-го до 2-ух миллионов человек. \n \nНаши стратегические международные партнеры (MasterCard, Visa и Huawei) заинтересованы в расширении географии распространения нашего продукта и, в связи с этим мы ищем Android разработчика на одно из направлений: Core, Fintech, Activation, Communication. В команде Android у нас 9 человек. \n \nПишем на Kotlin. Наш стек - MVVM, Clean, Retrofit, Dagger2, RxJava2. \n\n🔸Основные задачи для данной позиции:\n• развивать и поддерживать Android приложение;\n• участвовать в проработке, проверке и внедрении продуктовых гипотез;\n• проводить Code Review;\n• участвовать в принятии технических решений и планировании процесса разработки.\n🔸Важные требования:\n•  опыт разработки под Android SDK: Kotlin, RxJava2, Dagger2, MVVM (желательно),\n•  понимание различий в работе приложений на разных версиях Android;\n•  знание ООП, шаблонов проектирования,\n•  опыт использования систем контроля версий, понимание принципов командной разработки и Agile.\n🔸Мы предлагаем:\n•  Участие в развитии полезного и популярного приложения, возможность сделать мир лучше;\n•  Оформление по ТК РФ с первого дня работы. ДМС после прохождения испытательного срока;\n•  Оплату мобильной связи, частичную компенсацию питания;\n•  Гибкий график и высокий уровень самостоятельности;\n•  Командные мероприятия и приятные коллеги;\n•  Комфортный офис в центре города (2 минуты от станции метро Чкаловская).\n\nИнформацию о компании можно найти по ссылке: https://blog.cardsmobile.ru/?utm_source=blog&utm_medium=post&utm_campaign=work_menu\n\nКонтакты: katerinaziryukova\nПочта: e.ziryukova@cardsmobile.ru","markup":[{"type":"hashtag","offset":0,"length":9,"data":"вакансия"},{"type":"hashtag","offset":10,"length":7,"data":"работа"},{"type":"hashtag","offset":18,"length":15,"data":"СанктПетербург"},{"type":"hashtag","offset":34,"length":8,"data":"Android"},{"type":"hashtag","offset":43,"length":7,"data":"Kotlin"},{"type":"hashtag","offset":51,"length":9,"data":"fulltime"},{"type":"hashtag","offset":61,"length":5,"data":"офис"},{"type":"link","offset":2654,"length":83,"data":"https://blog.cardsmobile.ru/?utm_source=blog&utm_medium=post&utm_campaign=work_menu"},{"type":"link","offset":2774,"length":26,"data":"mailto:e.ziryukova@cardsmobile.ru"}],"date":"2020-06-22T10:55:01+00:00","link":"tg://resolve?domain=mobile_jobs&post=68444","tags":[{"name":"mobile"},{"name":"android"},{"name":"kotlin"},{"name":"dotnet"},{"name":"mvvm"}],"cities":[],"allowsRemote":false}},{"node":{"__typename":"Job","id":"71766638592-1001054966032","title":"Android разработчик","text":"#вакансия  #fulltime #android #удаленка #middle #senior\n\nAndroid разработчик\n\nУровень: middle+, senior\nФормат работы: удаленно (часовой пояс желательно не более +/- 2ч с МСК)\nЗанятость: fulltime\nЗарплатная вилка: от 250 000 до 270 000 руб.\nКомпания: AGIMA\nОписание вакансии: поддержка и развитие приложения и разработка новых фич для известного онлайн-кинотеатра. Необходим специалист уровня middle+ и выше, с хорошим знанием API Android начиная с 5.0, знанием классических алгоритмов и структур данных, способный в высокой степени самостоятельно закрывать таски, не требуя постоянного участия техлидов. Опыт разработки музыкальных / видеосервисов приветствуется.\n\nОсновные требования:\n⁃ знание Java и Kotlin;\n⁃ опыт разработки под Android от года, хорошее знание API Android начиная с 5.0;\n⁃ понимание Аctivity/Fragment Lifecycle;\n⁃ знание архитектур MVC, MVVM, MVP, понимание работы протокола HTTP, навыки работы с потокобезопасным кодом;\n⁃ знание и понимание основных алгоритмов и структур данных;\n⁃ навыки оптимизации приложений по потреблению памяти и по FPS.\n\nУсловия:\n— Удаленная работа, оформление по ГПХ;\n— Полный день, гибкий график - 5/2;\n\nМы собрали основные требования к проекту в формате веб-формы, которую просим вас заполнить, чтобы сэкономить ваше и наше время на формирование ожиданий.\nВажно! Просьба заполнять форму \"как есть\": отсутствие каких-то знаний может не быть критичным, а пробелы мы все равно скорее всего с вами выявим на собеседовании.\n\nКонтакты: y.gribova@agima.ru\n@jgribova","markup":[{"type":"hashtag","offset":0,"length":9,"data":"вакансия"},{"type":"hashtag","offset":11,"length":9,"data":"fulltime"},{"type":"hashtag","offset":21,"length":8,"data":"android"},{"type":"hashtag","offset":30,"length":9,"data":"удаленка"},{"type":"hashtag","offset":40,"length":7,"data":"middle"},{"type":"hashtag","offset":48,"length":7,"data":"senior"},{"type":"bold","offset":57,"length":20,"data":""},{"type":"bold","offset":78,"length":9,"data":""},{"type":"bold","offset":103,"length":15,"data":""},{"type":"bold","offset":175,"length":11,"data":""},{"type":"bold","offset":195,"length":18,"data":""},{"type":"bold","offset":240,"length":10,"data":""},{"type":"bold","offset":256,"length":19,"data":""},{"type":"bold","offset":665,"length":20,"data":""},{"type":"bold","offset":1066,"length":8,"data":""},{"type":"link","offset":1232,"length":9,"data":"https://forms.gle/D1WkV35H46qTi3JL9"},{"type":"bold","offset":1304,"length":6,"data":""},{"type":"link","offset":1478,"length":18,"data":"mailto:y.gribova@agima.ru"},{"type":"handle","offset":1497,"length":9,"data":"jgribova"}],"date":"2020-06-22T10:37:35+00:00","link":"tg://resolve?domain=mobile_jobs&post=68442","tags":[{"name":"mobile"},{"name":"android"},{"name":"java"},{"name":"kotlin"},{"name":"mvvm"}],"cities":[],"allowsRemote":true}},{"node":{"__typename":"Job","id":"71696384000-1001054966032","title":"Ios разработчик","text":"#вакансия #iOS #москва\n\nНа проект от крупного российского банка требуется Middle iOS разработчик\n\nФормат: офис\n\nВилка ЗП: 160-200К\n\nЛокация: Москва\n\nТребования:\n- Гражданство РФ\n- Опыт разработки под IOS (Objective-C или Swift) от 2 лет\n- Уверенное знание iOS SDK, Xcode\n- Опыт использования одной из архитектур: MVP, MVVM, VIPER\n- Знание особенностей: Collections, Optionals, Protocol Oriented, Generics\n- Понимание, как происходит управление памятью в iOS\n- Понимание принципов проектирования SOLID и желание придерживаться их\n- Наличие опыта работы с REST API, HTTP, JSON, APNs\n- Опыт работы с Git, знание git flow\n\nБудет плюсом:\n\n- Умение писать UI тесты\n- Опыт работы в команде\n\nКонтакт: @mxm_at","markup":[{"type":"hashtag","offset":0,"length":9,"data":"вакансия"},{"type":"hashtag","offset":10,"length":4,"data":"iOS"},{"type":"hashtag","offset":15,"length":7,"data":"москва"},{"type":"bold","offset":73,"length":23,"data":""},{"type":"bold","offset":98,"length":7,"data":""},{"type":"bold","offset":112,"length":9,"data":""},{"type":"bold","offset":132,"length":8,"data":""},{"type":"bold","offset":149,"length":11,"data":""},{"type":"bold","offset":619,"length":13,"data":""},{"type":"bold","offset":684,"length":8,"data":""},{"type":"handle","offset":693,"length":7,"data":"mxm_at"}],"date":"2020-06-20T13:14:08+00:00","link":"tg://resolve?domain=mobile_jobs&post=0","tags":[{"name":"mobile"},{"name":"ios"},{"name":"objective-c"},{"name":"swift"},{"name":"xcode"},{"name":"mvvm"},{"name":"rest"},{"name":"json"},{"name":"git"}],"cities":[{"code":"moscow"}],"allowsRemote":false}},{"node":{"__typename":"Job","id":"71682752512-1001054966032","title":"Android разработчик","text":"#вакансия #iOS #android #developer #remote #InStat \n\nГород и адрес офиса: Москва, ст.м. Автозаводская\nФормат работы: удаленка\nЗанятость: полная/проектная\nЗарплатная вилка: от 80 до 130 net\nОписание вакансии:\n\nВсем привет. Ищем разработчиков приложений для Apple TV и Android TV(Box). Мы занимаемся сложными задачами, а также хотим разработать с нуля приложения, а у вас есть возможность поработать в спортивном стартапе и сделать лучшее приложение на рынке.\nЧто главное:\nОпыт разработки приложений Apple TV/Android box обязательно;\nОпыт по созданию продукта для просмотра видео-контента\nЗадачи:\nРазработка OTT приложения для Apple TV/Android box, анализ и оценка задач;\nпроведение code review, участие в SCRUM активностях\nТребования:\nзнание основных паттернов проектирования, REST API; SOLID, GCD, MVP/MVVM, опыт разработки по Apple TV/Android TV, box, знание Android Studio \nМы предлагаем:\nофициальное трудоустройство, полный соц. пакет;удаленное сотрудничество\nПодробнее о вакансиях тут: \nhttps://hh.ru/vacancy/37544424\nhttps://hh.ru/vacancy/37520710\n\nНазвание компании: InStat (https://instatsport.com/)\n\nКонтакты: yana.gurinovich@instatsport.com\n @Yana_Gurinovich","markup":[{"type":"hashtag","offset":0,"length":9,"data":"вакансия"},{"type":"hashtag","offset":10,"length":4,"data":"iOS"},{"type":"hashtag","offset":15,"length":8,"data":"android"},{"type":"hashtag","offset":24,"length":10,"data":"developer"},{"type":"hashtag","offset":35,"length":7,"data":"remote"},{"type":"hashtag","offset":43,"length":7,"data":"InStat"},{"type":"link","offset":991,"length":30,"data":"https://hh.ru/vacancy/37544424"},{"type":"link","offset":1022,"length":30,"data":"https://hh.ru/vacancy/37520710"},{"type":"link","offset":1081,"length":24,"data":"https://instatsport.com/"},{"type":"link","offset":1118,"length":31,"data":"mailto:yana.gurinovich@instatsport.com"},{"type":"handle","offset":1151,"length":16,"data":"Yana_Gurinovich"}],"date":"2020-06-20T04:32:51+00:00","link":"tg://resolve?domain=mobile_jobs&post=0","tags":[{"name":"mobile"},{"name":"android"},{"name":"ios"},{"name":"dotnet"},{"name":"rest"},{"name":"mvvm"},{"name":"android-studio"}],"cities":[{"code":"moscow"}],"allowsRemote":true}},{"node":{"__typename":"Job","id":"71662829568-1001054966032","title":"Android разработчик","text":"#вакансия #developer #android #москва #бауманская\nAndroid Developer\nГород: Москва\nФормат работы: офис\nЗанятость: полная\nЗарплатная вилка: от 100.000 до 250.000 тыс. руб. фикс\n\nИщем middle/senior разработчика в digital-агентство WakeApp для разработки приложений-утилит (forecast, vpn, safe kids etc) + приложение мотивированного траффика.\n\nСтек: Kotlin, RxJava2/RxAndroid, Dagger2, Android Architecture Components (LiveData, ViewModel, Room, Navigation);\n\nС Вас:\n🔸опыт разработки от 2-ух лет;\n🔸хорошие знания стека;\n🔸знание ООП, MVP, MVVM;\n🔸ориентирование в Android SDK, гайдлайнах, best practices;\n\nС нас:\n🔹достойный уровень заработной платы;\n🔹сложные и интересные задачи;\n🔹комфортный офис в пешей доступности от метро (кухня с запасом фруктов, йогуртов, мороженого);\n🔹технологическая свобода;\n🔹отличный коллектив и пятничные посиделки;\n\nКонтакты: @natereaver","markup":[{"type":"hashtag","offset":0,"length":9,"data":"вакансия"},{"type":"hashtag","offset":10,"length":10,"data":"developer"},{"type":"hashtag","offset":21,"length":8,"data":"android"},{"type":"hashtag","offset":30,"length":7,"data":"москва"},{"type":"hashtag","offset":38,"length":11,"data":"бауманская"},{"type":"bold","offset":50,"length":17,"data":""},{"type":"bold","offset":75,"length":6,"data":""},{"type":"bold","offset":97,"length":4,"data":""},{"type":"bold","offset":113,"length":6,"data":""},{"type":"bold","offset":138,"length":15,"data":""},{"type":"bold","offset":154,"length":20,"data":""},{"type":"bold","offset":228,"length":7,"data":""},{"type":"handle","offset":858,"length":11,"data":"natereaver"}],"date":"2020-06-19T14:40:59+00:00","link":"tg://resolve?domain=mobile_jobs&post=0","tags":[{"name":"mobile"},{"name":"android"},{"name":"kotlin"},{"name":"mvvm"}],"cities":[{"code":"moscow"}],"allowsRemote":false}},{"node":{"__typename":"Job","id":"71650246656-1001054966032","title":"Ios разработчик","text":"#вакансия #IOS  #middle  #офис #минск\n\nios разработчик в офис Минска м. Немига\n\nГород: Минск\nФормат работы: в офис (на период пандемии удаленно)\nЗанятость: полная\nЗарплатная вилка: 1 000 -1 500$\nКомпания: 𝓜𝓑𝓲𝓬𝔂𝓬𝓵𝓮\n\nMBicycle - команда профессионалов в области разработки мобильных и веб приложений.\nМы помогаем нашим клиентам решать их проблемы независимо от отрасли, размера компании или чего-либо еще.\nНаша работа - это постоянное развитие и движение вперед.\n\nО нас:\nНаша компания развивается с 2011 года. На данный момент отдел разработки составляет 70+ человек.\nОфисы нашей компании расположены в Гомеле, Минске и Бостоне (США).\nМы предоставляем комплексные технические решения для широкого круга отраслей, включая Спорт, IoT, FinTech, HealthCare и т.д.\nНаши сотрудники регулярно проводят митапы, на которых обсуждают актуальные технологии и возможности их внедрения на наших проектах\n\nСтек задач будет включать:\n\nОбщение с клиентом, уточнение и обсуждение требований\nУчастие в планировании проекта\nПроведение и прохождение код-ревью\nУчастие в различных фазах разработки: демо нового функционала, написание тестов, сборка и релиз приложений\nРаботу в распределенных командах, написание нового функционала\nДоработку и поддержку уже написанных частей\nНаши ожидания:\n\nЗнание английского языка на уровне Intermediate и выше\nОпыт разработки на Swift от 2-х лет\nОпыт работы с RxSwift, MVVM\nОпыт с git, понимание git flow\nОпыт написания Unit-тестов и работы с CI/CD\nМы предлагаем:\n• Работу в динамично развивающейся компании\n• Разработка приложений с нуля\n• Гибкость в выборе технологий\n• 3 sick days\n• Командировки за рубеж\n• Бесплатные курсы английского языка в нашем офисе\n\nПриятные плюшки:\n• Новый офис в центре города (Гомель), а в Минске мы находимся на Интернациональной (Немига)\n• Гибкое начало рабочего дня\n• Участие в конференциях и митапах\n• Отдых на тимбилдингах и ярких праздниках для всей семьи\n\nписать мне","markup":[{"type":"hashtag","offset":0,"length":9,"data":"вакансия"},{"type":"hashtag","offset":10,"length":4,"data":"IOS"},{"type":"hashtag","offset":16,"length":7,"data":"middle"},{"type":"hashtag","offset":25,"length":5,"data":"офис"},{"type":"hashtag","offset":31,"length":6,"data":"минск"}],"date":"2020-06-19T12:47:42+00:00","link":"tg://resolve?domain=mobile_jobs&post=0","tags":[{"name":"mobile"},{"name":"ios"},{"name":"swift"},{"name":"mvvm"},{"name":"git"}],"cities":[{"code":"minsk"},{"code":"gomel"}],"allowsRemote":true}},{"node":{"__typename":"Job","id":"71629275136-1001054966032","title":"Mobile разработчик","text":"#вакансия #mobile #ios #swift #remote #fulltime\nГород и адрес офиса: Москва, м. Технопарк\nФормат работы: удаленная \nЗанятость: полная, 5/2\nЗП:  от 140к до 200к\n\nМы - Stream, дочка МТС, IT департамент для продуктов МТС. Делаем классные и реально удобные продукты для пользователей.\n\nCейчас ищем Middle+ / Senior iOS  в проекты:\n\n1. МТС Поиск - Сервис по определению местоположения - poisk.mts.ru\nСтек: Swift, Realm, работа с локацией. Архитектура: VIP(CleanSwift).\n\n2. МТС Вторая память - Облачный сервис для хранения и обмена данными - 2memory2.mts.ru\nСтек: Swift 5.2, Cocoapods с публичными и приватными фреймворками, собственная реализация Rx, Moya, Xib & Storyboards, Realm. Архитектура MVVM.\n\nОт нас:\n- \"белая\" заработная плата с полугодовыми премиями;\n- ДМС со стоматологией + страховка;\n- корпоративная мобильная связь;\n- обучение и посещение профильных конференций. \n\nПрисоединяйся к команде, будет интересно!\n\nО компании: stream.ru\nПодробности в личке (@tanya2332)","markup":[{"type":"hashtag","offset":0,"length":9,"data":"вакансия"},{"type":"hashtag","offset":10,"length":7,"data":"mobile"},{"type":"hashtag","offset":18,"length":4,"data":"ios"},{"type":"hashtag","offset":23,"length":6,"data":"swift"},{"type":"hashtag","offset":30,"length":7,"data":"remote"},{"type":"hashtag","offset":38,"length":9,"data":"fulltime"},{"type":"bold","offset":166,"length":6,"data":""},{"type":"bold","offset":294,"length":20,"data":""},{"type":"bold","offset":331,"length":9,"data":""},{"type":"link","offset":382,"length":12,"data":"http://poisk.mts.ru"},{"type":"bold","offset":468,"length":17,"data":""},{"type":"link","offset":536,"length":15,"data":"http://2memory2.mts.ru"},{"type":"link","offset":930,"length":9,"data":"http://stream.ru"},{"type":"handle","offset":961,"length":10,"data":"tanya2332"}],"date":"2020-06-19T10:15:51+00:00","link":"tg://resolve?domain=mobile_jobs&post=0","tags":[{"name":"mobile"},{"name":"ios"},{"name":"swift"},{"name":"realm"},{"name":"cocoapods"},{"name":"mvvm"}],"cities":[{"code":"moscow"}],"allowsRemote":true}},{"node":{"__typename":"Job","id":"71604109312-1001054966032","title":"Android разработчик","text":"#вакансия #android #fulltime #удаленка #middle #senior\n\nГород и адрес офиса: Уфа (удаленно)\nФормат работы: удаленка\nЗанятость: полная\nЗарплатная вилка: от 100 000 р. до 250 000\n\nОписание вакансии:\nЕсли Вы крутой аndroid разработчик, влюбленный в свое дело, обладаете опытом разработки мобильных приложений, любите использовать в работе самые современные подходы и техники, интересуетесь трендами в мобильной разработке, то эта вакансия для Вас!\n\nКлассно, если Вы:\n- Свободно владеете языком Kotlin и Java\n- Имеете опыт реактивного программирования (RxJava2)\n- Имеете опыт работы с сетевыми протоколами (HTTP, REST, JSON и др.)\n- Знакомы с концепциями ООП, знаете паттерны проектирования, принципы SOLID и умеете их применять\n- Имеете базовое понимание и опыт работы с основными архитектурными паттернами (Clean, MVP, MVVM)\n- Знакомы с основными алгоритмами и структурами данных\n- Умеете писать простой в понимании и тестируемый код\n- Умеете работать в команде и готовы активно принимать участие в жизни продукта\n\nЖелательно:\n- Опыт работы с библиотеками Moxy, Dagger2\n- Знание принципов Agile-разработки\n- Умение работать с git, CI/CD системами (у нас Gitlab)\n- Умение проводить перекрестное Code Review\n- Ссылки на проекты в Play Market, профили GitHub и StackOverflow\n\nВашими ключевыми задачами будут:\n- Разрабатывать и поддерживать мобильное приложение с нуля\n- Создавать удобный и понятный для пользователей интерфейса по макету\n- Взаимодействовать с другими командами, для совместного решения задач\n- Разрабатывать и внедрять новые интересные фичи\n\nМы предлагаем:\n- Работа над финтех проектом европейской компании.\n- Самые современные технологии разработки\n- Возможность роста, как в профессиональной так и в управленческой сфере\n\nНазвание компании: Фином-Технологии —  команда разработчиков с большим опытом создания успешных финтех продуктов.  Расширяем свою команду для работы над проектом для стран Европы. Автоматизация финансовых процессов для малого бизнеса.\n\nКонтакт для связи: @deeeana","markup":[{"type":"hashtag","offset":0,"length":9,"data":"вакансия"},{"type":"hashtag","offset":10,"length":8,"data":"android"},{"type":"hashtag","offset":19,"length":9,"data":"fulltime"},{"type":"hashtag","offset":29,"length":9,"data":"удаленка"},{"type":"hashtag","offset":39,"length":7,"data":"middle"},{"type":"hashtag","offset":47,"length":7,"data":"senior"},{"type":"bold","offset":56,"length":20,"data":""},{"type":"bold","offset":92,"length":14,"data":""},{"type":"bold","offset":116,"length":11,"data":""},{"type":"bold","offset":134,"length":10,"data":""},{"type":"bold","offset":145,"length":6,"data":""},{"type":"bold","offset":178,"length":23,"data":""},{"type":"underline","offset":446,"length":18,"data":""},{"type":"underline","offset":1013,"length":12,"data":""},{"type":"underline","offset":1271,"length":33,"data":""},{"type":"underline","offset":1554,"length":15,"data":""},{"type":"bold","offset":1736,"length":19,"data":""},{"type":"bold","offset":1972,"length":18,"data":""},{"type":"handle","offset":1991,"length":8,"data":"deeeana"}],"date":"2020-06-19T05:01:29+00:00","link":"tg://resolve?domain=mobile_jobs&post=0","tags":[{"name":"mobile"},{"name":"android"},{"name":"kotlin"},{"name":"java"},{"name":"rest"},{"name":"json"},{"name":"mvvm"},{"name":"git"},{"name":"gitlab"},{"name":"playframework"},{"name":"github"}],"cities":[{"code":"ufa"}],"allowsRemote":true}},{"node":{"__typename":"Job","id":"71581040640-1001054966032","title":"Android developer","text":"#xamarin #вакансия #релокация #кипр #relocation #vacancy #cyprus\n✔️Cyprus, Limassol\n✔️Spotware Systems Ltd\n✔️Relocation is a must after quarantine and borders opening\n✔️Full-time\n✔️4000-4500 Eur gross, 3100-3400 Eur net\n✔️Fintech\n\nRequirements:\n\nBSc in Computer Science\nSolid experience with unit testing\nMinimum 3+ years’ experience working in C# Developer position\nDeep knowledge in .NET and C#\nDesign patterns\n\nExperience in following fields will be an advantage:\n\nExperience with Xamarin.iOS or Xamarin.Android\nMVVM client architecture, MvvmCross experience\nS.O.L.I.D. principles of OOD\nExperience with ReSharper/other refactoring tools\nTest-driven development\nFinancial Instruments Trading /Trading Platforms development\nPerformance optimization\n\nBonuses: \n\nRelocation bonus\nHealth insurance\nVasa's support\nFriendly working environment\nCompany events\nOpportunities for personal growth\n\nContacts: telegram @katerina_fa","markup":[{"type":"hashtag","offset":0,"length":8,"data":"xamarin"},{"type":"hashtag","offset":9,"length":9,"data":"вакансия"},{"type":"hashtag","offset":19,"length":10,"data":"релокация"},{"type":"hashtag","offset":30,"length":5,"data":"кипр"},{"type":"hashtag","offset":36,"length":11,"data":"relocation"},{"type":"hashtag","offset":48,"length":8,"data":"vacancy"},{"type":"hashtag","offset":57,"length":7,"data":"cyprus"},{"type":"link","offset":202,"length":9,"data":"tel:3100-3400"},{"type":"bold","offset":231,"length":15,"data":""},{"type":"bold","offset":414,"length":54,"data":""},{"type":"bold","offset":752,"length":11,"data":""},{"type":"bold","offset":891,"length":9,"data":""},{"type":"handle","offset":910,"length":12,"data":"katerina_fa"}],"date":"2020-06-18T14:31:26+00:00","link":"tg://resolve?domain=mobile_jobs&post=0","tags":[{"name":"mobile"},{"name":"android"},{"name":"ios"},{"name":"xamarin"},{"name":"dotnet"},{"name":"mvvm"},{"name":"unit-testing"}],"cities":[],"allowsRemote":false}}]}}},"context":{}}