{"hash":"f5f6bf98bd95e769321482904cbbd488f77922fd","data":{"records":{"id":"mongodb","name":"mongodb","belongsTo":{"totalCount":63,"pageInfo":{"totalPages":7,"currentPage":7},"edges":[{"node":{"__typename":"Job","id":"2200961024-1001134745498","title":"Devops инженер","text":"#вакансия #Remote #работаDevOps  #удаленка #DevOps #Cyprus #Relocation\n\nКомпания: Exness\nФормат работы: удаленная или релокация на Кипр (по желанию кандидата)\nЗанятость: полная\nЗарплатная вилка: от 3000 до 4000 EUR (обсуждаем с кандидатами по итогам интерью)\n\nВсем привет! Мы - компания Exness 🌟 Разрабатываем собственные продукты в Fintech. \nИщем талантливого DevOps/DBA инженера, который сможет внести экспертизу в продуктовую команду по обработке торговых данных, обладая глубокими знаниями в управлении базами данных 💥\n\n🤗**Чем предстоит заниматься?**\nТесно работать над исследованиями, разработкой новых функций продукта, проверкой гипотез, улучшением качества, выявлением и решением проблем производительности, особенно с базами данных - их масштабирование, разбиение, разбиение, оптимизация запросов и т. д.\n\n🛠**Наш стэк:**\nBackend: Java, Go;\nETL: Clickhouse, MongoDB/Postgres;\nIT infra: Kubernetes;\nVCS/CICD: Gitlab, Teamcity.\n\n🤞**Чего мы ожидаем от кандидата:**\n- Знание операций и администрирования СУБД\n- Знание парадигмы и стека NoSQL (мы предпочитаем MongoDB)\n- Экспертное знание дизайна больших баз данных\n- Опыт работы с RabbitMQ и Apache Kafka\n- Экспертное знание инструментов и подходов CI / CD.\n- Опыт разработки программного обеспечения не менее 1 года (мы предпочитаем: Java, Go или Python)\n\nБудет плюсом: \n\n- Знание технологий облачных баз данных, таких как AWS RDS, AWS Aurora, AWS Redshift.\n\n🔥**Мы предлагаем:**\nПри удаленном сотрудничестве:\n- Медицинское страхование для сотрудника и членов их семей;\n- Компенсация спорта;\n- Путешествие на Кипр, чтобы познакомиться со своей командой (раз в год).\n\nПри желании релокации на Кипр:\n- Релокационный пакет для нового сотрудника и его семьи (билеты, визы, разрешение на работу, корпоративная квартира на первый месяц и т. д.);\n- Корпоративный автомобиль Мини Купер S;\n- Медицинское страхование для сотрудника и членов их семей;\n- Корпоративный фитнес-центр для сотрудников и их супругов;\n- Программа компенсации детского сада / школы;\n- Непрерывное профессиональное развитие, много интересных задач;\n- Отличный офис со свежевыжатыми соками, печеньем и лучшим видом на море из нашего собственного бара на крыше. \n\nКонтакт: @sofia_tomashevich\n\n—\n\n👉 Обсуждение вакансии в чате @devops_jobs","markup":[{"type":"hashtag","offset":0,"length":9,"data":"вакансия"},{"type":"hashtag","offset":10,"length":7,"data":"Remote"},{"type":"hashtag","offset":18,"length":13,"data":"работаDevOps"},{"type":"hashtag","offset":33,"length":9,"data":"удаленка"},{"type":"hashtag","offset":43,"length":7,"data":"DevOps"},{"type":"hashtag","offset":51,"length":7,"data":"Cyprus"},{"type":"hashtag","offset":59,"length":11,"data":"Relocation"},{"type":"handle","offset":2195,"length":18,"data":"sofia_tomashevich"},{"type":"handle","offset":2248,"length":12,"data":"devops_jobs"}],"date":"2020-06-12T08:26:57+00:00","link":"tg://resolve?domain=devops_jobs_feed&post=2099","tags":[{"name":"java"},{"name":"mongodb"},{"name":"postgresql"},{"name":"kubernetes"},{"name":"gitlab"},{"name":"nosql"},{"name":"rabbitmq"},{"name":"apache"},{"name":"kafka"},{"name":"python"},{"name":"amazon-web-services"}],"cities":[{"code":"aurora"},{"code":"sofia"}],"allowsRemote":true}},{"node":{"__typename":"Job","id":"16854810624-1001110946746","title":"Js разработчик","text":"#вакансия #fulltime #fullstack #frontend #nodejs #reactjs #remote\n\nГород и адрес офиса: Санкт-Петербург, м. Звенигородская\n\nФормат работы: офис / частично ремоут\n\nЗанятость: полная\n\nЗарплатная вилка: от 90к до 160к\n\nОписание вакансии: \nработа в небольшой команде над банковскими продуктами, фронтенд / фулстек разработка, написание API, поддержка кода\n\nОсновные задачи:\n- Участие в разработке внутрибанковских сервисов на JS\n- Разработка архитектуры проектов\n- Бывают задачи по настройке серверов, CD/CI, Docker, и т.п., если нет опыта, будет возможность узнать что-то новое\n\nТребования:\n- JS ES6 от 1 года\n- уверенное знание React.js / Node.js \n- умение в git\n- MongoDB (mongoose)\n\nРабота по контрактам, оформление белое\n\nКонтакты: @hopacha","markup":[{"type":"hashtag","offset":0,"length":9,"data":"вакансия"},{"type":"hashtag","offset":10,"length":9,"data":"fulltime"},{"type":"hashtag","offset":20,"length":10,"data":"fullstack"},{"type":"hashtag","offset":31,"length":9,"data":"frontend"},{"type":"hashtag","offset":41,"length":7,"data":"nodejs"},{"type":"hashtag","offset":49,"length":8,"data":"reactjs"},{"type":"hashtag","offset":58,"length":7,"data":"remote"},{"type":"handle","offset":733,"length":8,"data":"hopacha"}],"date":"2020-06-11T20:10:59+00:00","link":"tg://resolve?domain=javascript_jobs_feed&post=0","tags":[{"name":"javascript"},{"name":"nodejs"},{"name":"reactjs"},{"name":"docker"},{"name":"git"},{"name":"mongodb"},{"name":"mongoose"}],"cities":[],"allowsRemote":true}},{"node":{"__typename":"Job","id":"16843276288-1001110946746","title":"Js разработчик","text":"#вакансия #удаленка #работа #node #команда_разработчиков \n\nГород и адрес офиса: любой\nФормат работы: удаленка\nЗанятость: полная\nЗарплатная вилка: для middle от 160 до 180 net\nдля teamlead от 200 до 230 net\n\nОписание вакансии: \nНужна сработанная команда node.js разработчиков с тимлидом для разработки облачных сервисов.\n\nЗадачи:\n1. Разработка и развитие системы управления биллингом облачных сервисов.\n- Front-end - личные кабинеты, различные графики, настройки использования и отчёты сервиса.\n- Back-end - реализация функционала, необходимого фронту, плюс реализация непосредственного взаимодействия с облачными сервисами.\n- Интеграция других бизнес-процессов в систему.\n- Постепенное превращение системы из внутреннего продукта компании в продукт для клиентов, с соответствующими требованиями.\n\n2. Разработка сервиса регистрации и классификации обращений с использованием машинного обучения.\n- Создание среды для работы моделей, созданных нашими дата-сайентистами.\n- Интеграция с другими сервисами.\n\n3. Создание продуктов или MVP совместно с другими подразделениями в рамках автоматизации деятельности организации или в рамках проверки гипотез;\n\n4. Закрытые проекты для заказчиков федерального уровня.\n\nИспользуемые технологии: \nBack end: node.js\nFront end: Vue + typescript (текущая версия), React with hooks + redux + typescript (новые версии).\nСоотношение задач back/front примерно 80/20, поэтому знание фреймворков на front end не критично, если есть готовность их освоить.\n\nТакже важны знания:\n- PostgreSQL.\n- Умение работать в Linux.\n- Знание React.Js и Redux.\n\nИ будет плюсом:\n- Опыт разработки систем в микросервисной архитектуре и работы с геоинформационными системами.\n- Опыт работы с mongoDB.\n- Знания по настройке web-серверов.\n- Знания инструментария devops. \n\nУсловия: возможна полностью удаленная работа (не в Москве), оформление по ТК РФ, ежеквартальные премии, ДМС после испытательного + есть программы лояльности с партнерами (подробнее на интервью).\n\nНазвание компании: КА Star-Staff\n\nКонтакты: @aazaitseva azaitseva@star-staff.ru","markup":[{"type":"hashtag","offset":0,"length":9,"data":"вакансия"},{"type":"hashtag","offset":10,"length":9,"data":"удаленка"},{"type":"hashtag","offset":20,"length":7,"data":"работа"},{"type":"hashtag","offset":28,"length":5,"data":"node"},{"type":"hashtag","offset":34,"length":22,"data":"команда_разработчиков"},{"type":"handle","offset":2016,"length":11,"data":"aazaitseva"},{"type":"link","offset":2028,"length":23,"data":"mailto:azaitseva@star-staff.ru"}],"date":"2020-06-11T19:55:18+00:00","link":"tg://resolve?domain=javascript_jobs_feed&post=0","tags":[{"name":"javascript"},{"name":"nodejs"},{"name":"dotnet"},{"name":"vuejs"},{"name":"typescript"},{"name":"reactjs"},{"name":"redux"},{"name":"postgresql"},{"name":"linux"},{"name":"mongodb"},{"name":"web"},{"name":"react-redux"}],"cities":[],"allowsRemote":true}}]}}},"context":{}}