{"hash":"f5f6bf98bd95e769321482904cbbd488f77922fd","data":{"records":{"id":"sqlite","name":"sqlite","belongsTo":{"totalCount":12,"pageInfo":{"totalPages":2,"currentPage":2},"edges":[{"node":{"__typename":"Job","id":"71846330368-1001054966032","title":"Android разработчик","text":"#вакансия #Android #Kotlin #spb #спб #офис\n\nГород и адрес: Санкт-Петербург, м.Площадь Ленина \nФормат работы: офис \nЗанятость: полная \nЗарплатная вилка: от 140 до 220 т.р. в месяц \nAndroid developer\n\nВсем привет! Мы — международная IT компания Noveo. Наши главные офисы разработки ПО находятся в Новосибирске и Санкт-Петербурге, представительства — в Париже и на Кипре. \n\nМы занимаемся заказными разработками софта для крупных европейских компаний. И сейчас мы рады пригласить в команду Android-разработчика для работы над проектом нашего зарубежного партнера.\n\nЭто файловый менеджер, который работает с определёнными жесткими дисками. Проект написан на ~90% на Kotlin. Стек проекта: di, Retrofit, RxJava, Room, MVVM.\n\n✅Ожидания от кандидата:\nОпыт разработки коммерческих проектов на Android\nХорошие знание Kotlin, Android SDK, RxJava2, Room, Toothpick/Dagger2, MVP/MVVM + Clean Architecture\nТехнический английский язык (Pre-Intermediate и выше)\n\nДополнительным плюсом будет: \nУмение писать unit тесты\nЗнания SQLite\nОбщее представление о JNI\nОпыт работы с чужим кодом\nMaterial Design guidelines\n\n☕️ Что мы предлагаем: \nДостойный уровень зарплаты и ее пересмотр по результатам performance review\nОфициальное трудоустройство, оплачиваемый отпуск и больничные\nГибкий график, с возможностью работать из дома\nКомфортабельный офис рядом со ст. м. Площадь Ленина (БЦ Петровский форт)\nВнутреннее обучение, митапы, code-review и прокачка твоих технических навыков\nМощный комп для работы + любое количество мониторов по запросу)\nКурсы английского и французского языков в офисе\nИ другие приятные бонусы (чай/кофе/печеньки, оборудованная офисная кухня, кикер, PS и др.)\n\n📩 Жду твоего резюме, если его нет - пиши, все обсудим!\n\nНазвание компании: #Noveo \nКонтакты: Анастасия @stasya_sot","markup":[{"type":"hashtag","offset":0,"length":9,"data":"вакансия"},{"type":"hashtag","offset":10,"length":8,"data":"Android"},{"type":"hashtag","offset":19,"length":7,"data":"Kotlin"},{"type":"hashtag","offset":27,"length":4,"data":"spb"},{"type":"hashtag","offset":32,"length":4,"data":"спб"},{"type":"hashtag","offset":37,"length":5,"data":"офис"},{"type":"bold","offset":180,"length":19,"data":""},{"type":"bold","offset":486,"length":20,"data":""},{"type":"hashtag","offset":1734,"length":6,"data":"Noveo"},{"type":"handle","offset":1762,"length":11,"data":"stasya_sot"}],"date":"2020-06-23T09:04:29+00:00","link":"tg://resolve?domain=mobile_jobs&post=68518","tags":[{"name":"mobile"},{"name":"android"},{"name":"kotlin"},{"name":"mvvm"},{"name":"sqlite"}],"cities":[],"allowsRemote":false}},{"node":{"__typename":"Job","id":"16981688320-1001110946746","title":"Js разработчик","text":"#вакансия #frontend  #React #офис #remote #Спб #senior \n\nКомпания: DBeaver\nЗ/п: 180 000 - 300 000 рублей на руки \nГород и адрес офиса: г. Санкт-Петербург (м. Площадь Ленина/Новочеркасская)\nФормат работы: офис или удаленка (приоритет кандидатам из Санкт-Петербурга)\nЗанятость: полная, fulltime\n\n🌏DВeaver  - это международный open source проект, бесплатный многоплатформенный инструмент для работы с базами данных. Поддерживает все популярные базы данных: MySQL, PostgreSQL, MariaDB, SQLite, Oracle, DB2, SQL Server, Sybase, MS Access, Teradata, Firebird, Derby и т. д. Платформа интегрируется с Amazon сервисами и нацелена на облачные решения. \n\nCейчас ребята разрабатывают web решение DВeaver, первый релиз состоялся в начале года и компания активно продолжает развитие. \n\n💠Какой опыт и знания ожидают увидеть ребята:\n- опыт работы с TypeScript и React;\n- опыт участия в многокомпонентных проектах со сложной бизнес-логикой;\n- опыт проектирования и рефакторинга;\n- готовность возглавить разработку интерфейсной части продукта, принимать ключевые архитектурные решения;\n- английский язык от уровня intermediate (письменный и на уровне чтения).\n\nСтек технологий: TypeScript, React, GraphQL, MobX, RxJS, Docker. \n\n💎Что получите вы:\n- комфортный офис в БЦ Бенуа;\n- возможность частично или полностью удаленной работы; \n- официальное оформление;\n- возможность поработать над крутым международным продуктом в сплоченной команде энтузиастов;\n- профессиональные командировки и конференции в США и Европу.\n\nКонтакты:\ne-mail: valeriya@luckyhunter.io\ntelegram: @sobolevavalery\nКА: http://luckyhunter.io\nБуду рада ответить на все вопросы и рассказать подробнее о компании 😊\n\n—\n\n👉 Обсуждение вакансии в чате @javascript_jobs","markup":[{"type":"hashtag","offset":0,"length":9,"data":"вакансия"},{"type":"hashtag","offset":10,"length":9,"data":"frontend"},{"type":"hashtag","offset":21,"length":6,"data":"React"},{"type":"hashtag","offset":28,"length":5,"data":"офис"},{"type":"hashtag","offset":34,"length":7,"data":"remote"},{"type":"hashtag","offset":42,"length":4,"data":"Спб"},{"type":"hashtag","offset":47,"length":7,"data":"senior"},{"type":"link","offset":1519,"length":23,"data":"mailto:valeriya@luckyhunter.io"},{"type":"handle","offset":1553,"length":15,"data":"sobolevavalery"},{"type":"link","offset":1573,"length":21,"data":"http://luckyhunter.io"},{"type":"handle","offset":1700,"length":16,"data":"javascript_jobs"}],"date":"2020-06-16T12:56:30+00:00","link":"tg://resolve?domain=javascript_jobs_feed&post=0","tags":[{"name":"javascript"},{"name":"reactjs"},{"name":"mysql"},{"name":"postgresql"},{"name":"mariadb"},{"name":"sqlite"},{"name":"oracle"},{"name":"sql"},{"name":"ms-access"},{"name":"web"},{"name":"typescript"},{"name":"graphql"},{"name":"rxjs"},{"name":"docker"},{"name":"sql-server"}],"cities":[],"allowsRemote":true}}]}}},"context":{}}