{"hash":"f34fd2c444a074f4e0e67d525015a008ef8e766f","data":{"records":{"id":"rest","name":"rest","belongsTo":{"totalCount":66,"pageInfo":{"totalPages":7,"currentPage":6},"edges":[{"node":{"__typename":"Job","id":"1378877440-1001091028994","title":"Java developer","text":"#вакансия #backend #javadeveloper #java #spb\nЛокация: Санкт-Петербург, станция метро Петроградская\nЗанятость: полная/ офис / гибкое начало рабочего дня\nЗарплата: от 180 000 net\nКомпания: ТетраСофт\nКонтакты: @dproto (Telegram), darya.protopopova@tetra-soft.ru\n\nКомпания ТетраСофт разрабатывает крутые информационные системы для сопровождения строительства нефтяных и газовых скважин (удаленный мониторинг различных параметров, аналитика на основе полученных данных, сбор и формирование отчётов).\nВ данный момент мы разрабатываем новый функционал платформы (SSO + modules).\nДля этого мы хотим усилить команду и приглашаем вас стать её частью.\n\nТехнологический стек разработки:\nJava 8, Spring, Hibernate, Elasticsearch, NATS, JUnit, MySQL, OAuth 2.0.\n\nЧто нужно будет делать:\n• Реализовывать алгоритмы работы с данными\n• Прорабатывать функциональные блоки бекенд части от проектирования до реализации\n• Участвовать в code review\n• Проектировать API\n\nЖдем от вас:\n• Опыт коммерческой разработки от 3-х лет\n• Хорошее знание Java core\n• Spring Boot (Security, MVC, REST Docs)\n• Hibernate 4+\n• Знание какого-либо SQL сервера\n• Знание алгоритмов и структур данных\n• Умение писать junit тесты\n• Понимание уязвимостей от OWASP Top 10\n• Умение работать с системой контроля версия (git)\n• Знание минимум одной системы сборки (ant, maven, gradle)\n\nБудет плюсом:\n• NoSQL\n• Docker\n• Знание коммуникационных протоколов (в том числе промышленных)\n• Опыт работы в Linux системах\n• Elasticsearch\n• Опыт работы с message broker\n• Знание других языков программирования\n• Понимание SOLID-принципов\n\nОт нас:\n• Гибкое начало рабочего дня (с 9:00 до 11:00);\n• Интересные проекты с возможностью карьерного роста;\n• Ежегодная премия по итогам работы;\n• Ежегодный пересмотр заработной платы по результатам работы;\n• ДМС после успешного прохождение ИС (включая стоматологию);\n• Компенсация питания;\n• Бесплатные курсы английского языка на территории офиса;\n• Возможность профильного обучения за счёт компании (оплата конференций, курсов);\n• Кикер, настолки, турник, XBox, корпоративные мероприятия;\n• Корпоративный волейбол на песке;\n• Иногородним соискателям помощь в релокации.","markup":[{"type":"hashtag","offset":0,"length":9,"data":"вакансия"},{"type":"hashtag","offset":10,"length":8,"data":"backend"},{"type":"hashtag","offset":19,"length":14,"data":"javadeveloper"},{"type":"hashtag","offset":34,"length":5,"data":"java"},{"type":"hashtag","offset":40,"length":4,"data":"spb"},{"type":"bold","offset":45,"length":8,"data":""},{"type":"bold","offset":99,"length":10,"data":""},{"type":"bold","offset":152,"length":9,"data":""},{"type":"bold","offset":177,"length":9,"data":""},{"type":"bold","offset":197,"length":9,"data":""},{"type":"handle","offset":207,"length":7,"data":"dproto"},{"type":"link","offset":227,"length":31,"data":"mailto:darya.protopopova@tetra-soft.ru"},{"type":"bold","offset":642,"length":31,"data":""},{"type":"bold","offset":749,"length":23,"data":""},{"type":"bold","offset":947,"length":12,"data":""},{"type":"bold","offset":1335,"length":13,"data":""},{"type":"bold","offset":1577,"length":7,"data":""}],"date":"2020-03-24T10:39:20+00:00","link":"tg://resolve?domain=jvmjobs&post=1315","tags":[{"name":"java"},{"name":"jvm"},{"name":"dotnet"},{"name":"spring"},{"name":"hibernate"},{"name":"elasticsearch"},{"name":"junit"},{"name":"mysql"},{"name":"oauth"},{"name":"rest"},{"name":"sql"},{"name":"git"},{"name":"ant"},{"name":"maven"},{"name":"gradle"},{"name":"nosql"},{"name":"docker"},{"name":"linux"},{"name":"spring-boot"}],"cities":[],"allowsRemote":true}},{"node":{"__typename":"Job","id":"23908581376-1001075660570","title":"Php разработчик","text":"#вакансия #backend #москва #офис #fulltime #php #senior #lead\n\nМой дружище из Aorti.ru собирает группу разработчиков на PHP. Большой концерн, компания работает с гос заказчиком. Деньги есть, кризис не помеха. Да, в офис, но в небольшой. Не коронизируем :)\n\nИщем: \n1. Одного могучего Lead Backend Developer\n2. Двух крутых Senior Backend Developer\n3. Сурового (одного) Middle Backend Developer\n\nДанное боевое подразделение будет заниматься разработкой интерфейсов управления всяких интересных штук.\n\nКомпания: АО “РТИ”: https://hh.ru/employer/103944\nАдрес: Москва, М Динамо\nЗанятость: полная\nРежим работы: с 9-11 до 18-20, пятница -1 час\nЗарплатная вилка: 120 - 180 т.р. на руки (уже после вычета налогов)\nПлюс: чай, кофе, санитайзер и безлимитная туалетная бумага :-D\n\nОбщие требования / пожелания:\n- PHP 7 + опыт от 3-х лет\n- SQL (PostgreSQL и PL/pgSQL) от 3х лет \n- Опыт с ОС Linux. Умение работать в Unix-окружении\n- Нет страха перех унаследованным кодом\n- Удалось поработать с Jira, Confluence, GitLab\n- Приходилось писать документацию по своему коду\n- Английский уровня чтения тех документации\n- Опыт разработки Web Services, REST, Web API\n- Было время поработать с GIS и OGC-протоколами\n- Code review удается без истерик\n- Есть смелость общаться с Заказчиком\n- Плюсуют карту: Python 3.5.6,  Django, C++ 2011 и новее\n- Удалось посмотреть на Astra Linux\n- Сложилась картина мира как написать UNIT и интеграционные тесты\n- Не пугают слова “отладка и оптимизация”\n\n→ Контакт: @dspv1\n\nПрошу сразу: резюме, о себе, ссылка на git","markup":[{"type":"hashtag","offset":0,"length":9,"data":"вакансия"},{"type":"hashtag","offset":10,"length":8,"data":"backend"},{"type":"hashtag","offset":19,"length":7,"data":"москва"},{"type":"hashtag","offset":27,"length":5,"data":"офис"},{"type":"hashtag","offset":33,"length":9,"data":"fulltime"},{"type":"hashtag","offset":43,"length":4,"data":"php"},{"type":"hashtag","offset":48,"length":7,"data":"senior"},{"type":"hashtag","offset":56,"length":5,"data":"lead"},{"type":"link","offset":78,"length":8,"data":"https://hh.ru/employer/103944"},{"type":"bold","offset":257,"length":7,"data":""},{"type":"link","offset":518,"length":29,"data":"https://hh.ru/employer/103944"},{"type":"underline","offset":721,"length":10,"data":""},{"type":"underline","offset":734,"length":28,"data":""},{"type":"bold","offset":768,"length":30,"data":""},{"type":"handle","offset":1477,"length":6,"data":"dspv1"}],"date":"2020-03-24T03:41:58+00:00","link":"tg://resolve?domain=php_jobs&post=22801","tags":[{"name":"php"},{"name":"sql"},{"name":"postgresql"},{"name":"linux"},{"name":"unix"},{"name":"gitlab"},{"name":"web"},{"name":"rest"},{"name":"python"},{"name":"django"}],"cities":[{"code":"moscow"}],"allowsRemote":false}},{"node":{"__typename":"Job","id":"1930428416-1001134745498","title":"Devops инженер","text":"#вакансия #Москва #офис #полная занятость\nБанк ВТБ (ПАО) ищет DevOps инженера в отдел внедрения\nФормат работы: #офис #полнаязанятость\n\nЗадачи: \n👉разработка скриптов автоматизированного развертывания ПО на контурах банка;\n👉автоматизации процессов администрирования;\n👉владение новых подходов разработки автоматизации. \n\nТребования:\n👉опыт работы DevOps инженером от 2х лет;\n👉опыт работы с Git, Bitbucket;\n👉выстраивание процессов CI/CD с помощью Jenkins, Gitlab CI и TeamCity;\n👉экспертные навыки написания скриптов bash, powershell, python;\n👉 администрирование linux/unix, windows;\n👉  владение Ansible и Groovy;\n👉  опыт работа с Rest API, SOAP;\n👉 опыт работы с MsSQL Oracle, PostrgeSQL;\n👉 наличие опыта автоматизации бизнес-процессов и рутинных операций;\n👉  знание инструментов микросервисной архитектуры.\n \nУсловия:\n👉офис м.Алексеевская;\n👉заработная плата от 180 000 до 240 000;\n👉ДМС, спортивная жизнь;\n👉проффесиональное обучение и развитие.\n\nБолее подробно о вакансиях можно узнать у меня. Мои контакты @Nchugreeva\n+7 9264549707\nChugreeva@vtb.ru\n\n—\n\n👉 Обсуждение вакансии в чате @devops_jobs","markup":[{"type":"hashtag","offset":0,"length":9,"data":"вакансия"},{"type":"hashtag","offset":10,"length":7,"data":"Москва"},{"type":"hashtag","offset":18,"length":5,"data":"офис"},{"type":"hashtag","offset":24,"length":7,"data":"полная"},{"type":"hashtag","offset":111,"length":5,"data":"офис"},{"type":"hashtag","offset":117,"length":16,"data":"полнаязанятость"},{"type":"handle","offset":1018,"length":11,"data":"Nchugreeva"},{"type":"link","offset":1030,"length":13,"data":"tel:+7 9264549707"},{"type":"link","offset":1044,"length":16,"data":"mailto:Chugreeva@vtb.ru"},{"type":"handle","offset":1095,"length":12,"data":"devops_jobs"}],"date":"2020-03-23T13:20:40+00:00","link":"tg://resolve?domain=devops_jobs_feed&post=1841","tags":[{"name":"git"},{"name":"jenkins"},{"name":"gitlab"},{"name":"bash"},{"name":"powershell"},{"name":"python"},{"name":"linux"},{"name":"unix"},{"name":"windows"},{"name":"ansible"},{"name":"groovy"},{"name":"rest"},{"name":"soap"},{"name":"sql-server"},{"name":"oracle"}],"cities":[{"code":"moscow"}],"allowsRemote":false}},{"node":{"__typename":"Job","id":"1917845504-1001134745498","title":"Devops инженер","text":"#вакансия #devOps #Москва #офис \n\nГород: Москва \\ м. Кутузовская \nЗанятость: полная \nФормат работы: офис \nЗарплатная вилка: от 230 000 до 260000 рублей на руки \n\nОписание: Команда «Интеллектуальной системы управления» Сбербанка ищет Dev.Ops-инженера. Ты поможешь нам в разработке системы, которая анализирует бизнес-показатели и формирует задания для менеджеров по развитию подчиненных.\n\nЗадачи:\nразработка инструментов сборки и развертывания ПО\n\nЧто нужно:\n∙ опыт работы с Jenkins(Groovy), liquibase, Ansible, Docker, Kubernetes, OpenShift\n∙ знание форматов JSON, Yaml, XML\n∙ общее понимание стека протоколов TCP/IP, HTTP, HTTPS, REST, SOAP\n∙ опыт использования системы управления задачами, например в Atlassian Jira\n\nНазвание компании: Сбербанк \nКонтакты : @vsevkosmo\n\n—\n\n👉 Обсуждение вакансии в чате @devops_jobs","markup":[{"type":"hashtag","offset":0,"length":9,"data":"вакансия"},{"type":"hashtag","offset":10,"length":7,"data":"devOps"},{"type":"hashtag","offset":18,"length":7,"data":"Москва"},{"type":"hashtag","offset":26,"length":5,"data":"офис"},{"type":"handle","offset":759,"length":10,"data":"vsevkosmo"},{"type":"handle","offset":804,"length":12,"data":"devops_jobs"}],"date":"2020-03-19T06:43:45+00:00","link":"tg://resolve?domain=devops_jobs_feed&post=1829","tags":[{"name":"jenkins"},{"name":"groovy"},{"name":"ansible"},{"name":"docker"},{"name":"kubernetes"},{"name":"json"},{"name":"yaml"},{"name":"xml"},{"name":"rest"},{"name":"soap"}],"cities":[{"code":"moscow"}],"allowsRemote":false}},{"node":{"__typename":"Job","id":"634388480-1001089319619","title":"Ruby developer","text":"#ITиDigital #вакансия #backend #Senior #Middle #RubyonRails #RoR #developer\nГород: #Москва\nПозиция: Senior/Middle #Ruby developer / #Teamlead \nФормат работы: #офис или #удалёнка, полная занятость \nЗарплатная вилка: 200000 руб (обсуждаем индивидуально)\n\nВ IT-холдинг, быстрорастущий #стартап, онлайн-платформу, которая объединяет технологичные продукты в одну экосистему, требуется Senior или Middle Ruby developer.\n\n💥Чем предстоит заниматься:\n- Разрабатывать API для Frontend'a SPA-приложения;\n- Интеграции с внешними сервисами;\n- Оптимизация запросов к БД;\n- Писать качественный и поддерживаемый код.\n\n💡Что нам важно:\n- Умение работать в команде, желание обмениваться опытом с коллегами;\n- Знание ООП и паттернов;\n- Опыт написания REST API и RSpec;\n- Понимание RoR, ActiveRecord, PostgreSQL;\n- Готовность брать ответственность;\n- Желание учиться новым технологиям.\n\n💰Что мы предлагаем:\n- Работу в офисе м. Марьина Роща/Менделеевская или #удалённо.\n- Белая зарплата, #ДМС, скидки в компаниях нашего холдинга.\n- Слаженную команду, которая готова научить всему, что умеет;\n- Ноутбук (mac или linux) и монитор, дух стартапа и стабильность большой компании.\n\nРезюме на @tommyuber","markup":[{"type":"hashtag","offset":0,"length":11,"data":"ITиDigital"},{"type":"hashtag","offset":12,"length":9,"data":"вакансия"},{"type":"hashtag","offset":22,"length":8,"data":"backend"},{"type":"hashtag","offset":31,"length":7,"data":"Senior"},{"type":"hashtag","offset":39,"length":7,"data":"Middle"},{"type":"hashtag","offset":47,"length":12,"data":"RubyonRails"},{"type":"hashtag","offset":60,"length":4,"data":"RoR"},{"type":"hashtag","offset":65,"length":10,"data":"developer"},{"type":"hashtag","offset":83,"length":7,"data":"Москва"},{"type":"hashtag","offset":114,"length":5,"data":"Ruby"},{"type":"hashtag","offset":132,"length":9,"data":"Teamlead"},{"type":"hashtag","offset":158,"length":5,"data":"офис"},{"type":"hashtag","offset":168,"length":9,"data":"удалёнка"},{"type":"hashtag","offset":282,"length":8,"data":"стартап"},{"type":"hashtag","offset":941,"length":9,"data":"удалённо"},{"type":"hashtag","offset":970,"length":4,"data":"ДМС"},{"type":"handle","offset":1168,"length":10,"data":"tommyuber"}],"date":"2020-01-31T19:35:30+00:00","link":"tg://resolve?domain=rubyjob&post=605","tags":[{"name":"ruby"},{"name":"ruby-on-rails"},{"name":"rest"},{"name":"activerecord"},{"name":"postgresql"},{"name":"linux"}],"cities":[{"code":"moscow"}],"allowsRemote":true}},{"node":{"__typename":"Job","id":"84934656-1001375797688","title":".net разработчик","text":"#вакансия #НижнийНовгород #офис #.net core #Middle#Senior\n\nГород: Нижний Новгород\nФормат работы: в офисе\nЗанятость: полная\nЗарплатная вилка: от 70 000 до 120 000 руб. на руки\nНазвание компании: Сезон\n\nСезон – это площадка с элементами социальной сети для продажи своей одежды и аксессуаров от известных брендов премиум-класса.\n\nЧто хотят:\n- Уверенное владение C#, .NET Framework, ASP.NET Core;\n- Знания и понимание принципов ООП, шаблонов проектирования;\n- Опыт работы и понимание асинхронного кода, блокировок и дедлоков;\n- Опыт работы с базами данных MS SQL и ORM;\n- Опыт разработки REST сервисов, работа с JSON и XML;\n- Опыт работы с Git\n\nЧто дают:\n- Современный офис в Нижнем Новгороде;\n- Официальное трудоустройство;\n- Частичная оплата личных образовательных мероприятий;\n- Любая профессиональная литература по заказу;\n- Гибкий график;\n- Дружный молодой коллектив;\n- Интересные неповторяющиеся задачи, никакой рутины.\n\nВопросы в любом  мессенджере +79297474161","markup":[{"type":"hashtag","offset":0,"length":9,"data":"вакансия"},{"type":"hashtag","offset":10,"length":15,"data":"НижнийНовгород"},{"type":"hashtag","offset":26,"length":5,"data":"офис"},{"type":"link","offset":380,"length":7,"data":"http://ASP.NET"},{"type":"link","offset":953,"length":12,"data":"tel:+79297474161"}],"date":"2020-01-31T15:41:51+00:00","link":"tg://resolve?domain=DotNetRuJobsFeed&post=81","tags":[{"name":"dotnet"},{"name":"csharp"},{"name":"sql"},{"name":"orm"},{"name":"rest"},{"name":"json"},{"name":"xml"},{"name":"git"},{"name":"net-core"},{"name":"asp-net"},{"name":"asp-net-core"}],"cities":[{"code":"nizhny-novgorod"}],"allowsRemote":false}},{"node":{"__typename":"Job","id":"80740352-1001375797688","title":".net разработчик","text":"#вакансия #НижнийНовгород #офис #.net core #Middle#Senior\n\nГород: Нижний Новгород\nФормат работы: в офисе\nЗанятость: полная\nЗарплатная вилка: от 70 000 до 120 000 руб. на руки\nНазвание компании: Сезон\n\nСезон – это площадка с элементами социальной сети для продажи своей одежды и аксессуаров от известных брендов премиум-класса.\n\nЧто хотят:\n- Уверенное владение C#, .NET Framework, ASP.NET Core;\n- Знания и понимание принципов ООП, шаблонов проектирования;\n- Опыт работы и понимание асинхронного кода, блокировок и дедлоков;\n- Опыт работы с базами данных MS SQL и ORM;\n- Опыт разработки REST сервисов, работа с JSON и XML;\n- Опыт работы с Git\n\nЧто дают:\n- Современный офис в Нижнем Новгороде;\n- Официальное трудоустройство;\n- Частичная оплата личных образовательных мероприятий;\n- Любая профессиональная литература по заказу;\n- Гибкий график;\n- Дружный молодой коллектив;\n- Интересные неповторяющиеся задачи, никакой рутины.\n\nВопросы в любом  мессенджере +79297474161","markup":[{"type":"hashtag","offset":0,"length":9,"data":"вакансия"},{"type":"hashtag","offset":10,"length":15,"data":"НижнийНовгород"},{"type":"hashtag","offset":26,"length":5,"data":"офис"},{"type":"link","offset":380,"length":7,"data":"http://ASP.NET"},{"type":"link","offset":953,"length":12,"data":"tel:+79297474161"}],"date":"2020-01-29T15:40:11+00:00","link":"tg://resolve?domain=DotNetRuJobsFeed&post=77","tags":[{"name":"dotnet"},{"name":"csharp"},{"name":"sql"},{"name":"orm"},{"name":"rest"},{"name":"json"},{"name":"xml"},{"name":"git"},{"name":"net-core"},{"name":"asp-net"},{"name":"asp-net-core"}],"cities":[{"code":"nizhny-novgorod"}],"allowsRemote":false}},{"node":{"__typename":"Job","id":"212860928-1001352129329","title":"Golang разработчик","text":"#вакансия #backend #developer\nВсем привет! Я рекрутер из компании СофтТелематика и мы собираем wow команду golang разработчиков. \nФормат работы: fulltime, офис, гибкий график\nЛокация: Москва, Савеловская\nЗП: до 300 000 net +бонусы\n\nМы занимаемся заказной разработкой и делаем большие информационные системы, У нас стартовал новый проект \"Умная дорога\" для транспортных магистралей и мы существенно расширяем команду разработки. \n\nЧто надо будет кодить:\n - backend проекта, фактически с нуля\n - интеграции с разнообразным периферийным оборудованием (метеостанции, камеры, шлагбаумы, весы и пр.)\n\nЧто хотим от будущего коллеги: \n- Уверенные знания Go и опыт разработки от года. \n- Опыт серверной асинхронной / многопоточной разработки\n- Опыт работы с ClickHouse, PostgreSQL,MySSQL, in-memory базами, системами обмена сообщений (RabbitMQ)\n- Опыт интеграции с API сторонних Web-сервисов. Приветствуется опыт интеграции оборудования\n- Знание и понимание о HTTP, CoAP, MQTT, gRPC, REST, JSON, SOAP, XML\n- Опыт работы с протоколом SNMP\n- Понимание особенностей микросервисной архитектуры\n- Адекватно выбирать инструменты и находить золотую середину\n- будет круто если есть опыт работы в сфере автоматизации транспортных систем.\n\nЧто предлагаем:\n- высокую зарплату;\n- официальное оформление и соблюдение ТК;\n- ДМС со стоматологией после испытательного;\n- гибкий график и отсутствие бюрократии;\n-  отличный коллектив;\n- возможность обучения и развития;\n- и конечно крутой социально значимый проект. \nВакансий открыто несколько - от уровня миддл до лидовых. \nПисать мне в личку @tivalkin\n Автор @TiValkin","markup":[{"type":"hashtag","offset":0,"length":9,"data":"вакансия"},{"type":"hashtag","offset":10,"length":8,"data":"backend"},{"type":"hashtag","offset":19,"length":10,"data":"developer"},{"type":"handle","offset":1568,"length":9,"data":"tivalkin"},{"type":"handle","offset":1585,"length":9,"data":"TiValkin"}],"date":"2020-01-28T14:15:31+00:00","link":"tg://resolve?domain=gogetajobfeed&post=203","tags":[{"name":"go"},{"name":"dotnet"},{"name":"postgresql"},{"name":"rabbitmq"},{"name":"web"},{"name":"rest"},{"name":"json"},{"name":"soap"},{"name":"xml"}],"cities":[{"code":"moscow"}],"allowsRemote":false}},{"node":{"__typename":"Job","id":"208666624-1001352129329","title":"Golang разработчик","text":"#вакансия #godeveloper #golang #backend #fulltime #офис #senior #techlead\n\nВсем привет! В поиске талантливого и клёвого техлида. \nЕсли вы были ведущим разработчиком, если вы сеньор или техлид, и вилка вам подходит, то welcome. \nДаже если опыта менеджера не было, но вы сеньор/ведущий разработчик - welcome. \nА ещё если у вас немного опыта на Go, но есть хороший опыт на java - welcome. \nПро проект напишу в лс, если вам подходит вилка по зп (больше 250net, к сожалению, не рассматриваем). \n\nСписок необходимых навыков:\n- Golang/Java\n- Docker\n- SQL (В основном Postgres)\n- NoSQL (Redis/Elastic/Couchbase/Mongo/etc.. - зависит от задач)\n- REST/gRPC \n- Kubernetes\n\nЗ/П: 180 000 - 250 000 net (обсуждаемо)\nУдаленка: нет\nЛокация: Москва, м. Смоленская\nКомпания: МТС ИТ\nКонтакты: @horthekifo \n\nЧто нужно делать?\nРазрабатывать бекенд web-приложения и участвовать в проектировании архитектуры, проводить code review. \n\nЧто мы предлагаем:\n- Белая ЗП, премия 20% от годового оклада;\n- ДМС со стоматологией;\n- Хакатоны, митапы, конференции;\n- Гибкое начало рабочего дня;\n- Корпоративная связь, доп. дни ежегодного отпуска;\n- Офис у м. Смоленская (7 мин. пешком).\n Автор @Horthekifo","markup":[{"type":"hashtag","offset":0,"length":9,"data":"вакансия"},{"type":"hashtag","offset":10,"length":12,"data":"godeveloper"},{"type":"hashtag","offset":23,"length":7,"data":"golang"},{"type":"hashtag","offset":31,"length":8,"data":"backend"},{"type":"hashtag","offset":40,"length":9,"data":"fulltime"},{"type":"hashtag","offset":50,"length":5,"data":"офис"},{"type":"hashtag","offset":56,"length":7,"data":"senior"},{"type":"hashtag","offset":64,"length":9,"data":"techlead"},{"type":"handle","offset":774,"length":11,"data":"horthekifo"},{"type":"handle","offset":1159,"length":11,"data":"Horthekifo"}],"date":"2020-01-21T09:10:55+00:00","link":"tg://resolve?domain=gogetajobfeed&post=199","tags":[{"name":"go"},{"name":"java"},{"name":"dotnet"},{"name":"docker"},{"name":"sql"},{"name":"postgresql"},{"name":"nosql"},{"name":"redis"},{"name":"elasticsearch"},{"name":"rest"},{"name":"kubernetes"},{"name":"web"}],"cities":[{"code":"moscow"}],"allowsRemote":false}},{"node":{"__typename":"Job","id":"207618048-1001352129329","title":"Golang разработчик","text":"#вакансия #godeveloper #golang #backend #fulltime #офис #senior #techlead\n\nВсем привет! В поиске талантливого и клёвого техлида. \nЕсли вы были ведущим разработчиком, если вы сеньор или техлид, и вилка вам подходит, то welcome. \nДаже если опыта менеджера не было, но вы сеньор/ведущий разработчик - welcome. \nА ещё если у вас немного опыта на Go, но есть хороший опыт на java - welcome. \nПро проект напишу в лс, если вам подходит вилка по зп (больше 250net, к сожалению, не рассматриваем). \n\nСписок необходимых навыков:\n- Golang/Java\n- Docker\n- SQL (В основном Postgres)\n- NoSQL (Redis/Elastic/Couchbase/Mongo/etc.. - зависит от задач)\n- REST/gRPC \n- Kubernetes\n\nЗ/П: 180 000 - 250 000 net (обсуждаемо)\nУдаленка: нет\nЛокация: Москва, м. Смоленская\nКомпания: МТС ИТ\nКонтакты: @horthekifo \n\nЧто нужно делать?\nРазрабатывать бекенд web-приложения и участвовать в проектировании архитектуры, проводить code review. \n\nЧто мы предлагаем:\n- Белая ЗП, премия 20% от годового оклада;\n- ДМС со стоматологией;\n- Хакатоны, митапы, конференции;\n- Гибкое начало рабочего дня;\n- Корпоративная связь, доп. дни ежегодного отпуска;\n- Офис у м. Смоленская (7 мин. пешком).\n Автор @Horthekifo","markup":[{"type":"hashtag","offset":0,"length":9,"data":"вакансия"},{"type":"hashtag","offset":10,"length":12,"data":"godeveloper"},{"type":"hashtag","offset":23,"length":7,"data":"golang"},{"type":"hashtag","offset":31,"length":8,"data":"backend"},{"type":"hashtag","offset":40,"length":9,"data":"fulltime"},{"type":"hashtag","offset":50,"length":5,"data":"офис"},{"type":"hashtag","offset":56,"length":7,"data":"senior"},{"type":"hashtag","offset":64,"length":9,"data":"techlead"},{"type":"handle","offset":774,"length":11,"data":"horthekifo"},{"type":"handle","offset":1159,"length":11,"data":"Horthekifo"}],"date":"2020-01-21T09:10:53+00:00","link":"tg://resolve?domain=gogetajobfeed&post=198","tags":[{"name":"go"},{"name":"java"},{"name":"dotnet"},{"name":"docker"},{"name":"sql"},{"name":"postgresql"},{"name":"nosql"},{"name":"redis"},{"name":"elasticsearch"},{"name":"rest"},{"name":"kubernetes"},{"name":"web"}],"cities":[{"code":"moscow"}],"allowsRemote":false}}]}}},"context":{}}