{"hash":"f34fd2c444a074f4e0e67d525015a008ef8e766f","data":{"records":{"id":"ansible","name":"ansible","belongsTo":{"totalCount":59,"pageInfo":{"totalPages":6,"currentPage":3},"edges":[{"node":{"__typename":"Job","id":"1952448512-1001134745498","title":"Devops engineer","text":"DevOps engineer\n#вакансия #DevOps #fulltime \nВакансия: DevOps engineer\nКомпания: ДОМ.РФ ООО «Цифровые технологии»\nГород: Санкт-Петербург. ст.м. Василеостровская, БЦ Сенатор\nФормат работы: #офис\nЗанятость: #полная\nЗарплата : от 150 до 180 т.р. net\nКто мы:\nIT-компания \"Цифровые технологии\" была образована марте 2019 г. в рамках ГК ДОМ.РФ - финансового института развития в жилищной сфере.\nНаша миссия состоит в том, чтобы покрывать потребность в разработке собственных продуктов для всей группы компаний.\nОдин из самых перспективных наших проектов - это ВИТРИНА недвижимости. Сейчас это сайт с информацией о всех новостройках страны. Следом туда добавится много разных сервисов, которые позволят вывести сделку по покупке жилья в онлайн. Проект продолжительный и очень амбициозный.\nТебе предстоит:\n•  Поддержка ETL процессов;\n•  Участие в процессах внедрения ПО;\n•  Администрирование операционных систем *nix и общесистемного ПО;\n•  Развертывание и конфигурирование стендов под различные нужды;\n•  Решение возникающих проблем, устранение нештатных ситуаций;\n•  Участие в разработке конструкторской и эксплуатационной документации;\n•  Формирование требований к системе резервного копирования. \nЗдорово если у тебя есть:\n•  Знание серверной операционной системы Linux;\n•  Уверенное понимание принципов работы сетей TCP/IP: адресация, маршрутизация, стек протоколов, сетевые топологии, принципы работы VLAN, VPN, DNS, DHCP;\n•  Практический опыт автоматизации управления средами с применением docker, Kubernetes, ansible;\n•  Практический опыт разработки технологической или эксплуатационной документации;\n•  Практический опыт конфигурирования систем хранения данных (желательно);\n•  Практический опыт конфигурирования и администрирования общесистемного ПО: системы виртуализации, СУБД (PostgreSQL), серверы приложений, системы обработки сообщений, средства мониторинга и управления, elastic search;\nМы предлагаем:\n•  Комфортный офис в центре Санкт-Петербурга;\n•  Работа в высокопрофессиональной и эффективной команде, постоянное развитие;\n•  Конкурентный компенсационный пакет (ежеквартальная премия, ДМС, компенсация расходов на фитнес-абонемент до 20 т.р. в год);\n•  Амбициозный проект.\nЕсли ты молодой, амбициозный, идейный специалист - будем рады пригласить тебя на встречу и расскажем о возможностях работы с нами🥇\n✍️ ЛС @polipropilenka\n\n—\n\n👉 Обсуждение вакансии в чате @devops_jobs","markup":[{"type":"hashtag","offset":16,"length":9,"data":"вакансия"},{"type":"hashtag","offset":26,"length":7,"data":"DevOps"},{"type":"hashtag","offset":34,"length":9,"data":"fulltime"},{"type":"link","offset":81,"length":6,"data":"http://ДОМ.РФ"},{"type":"hashtag","offset":188,"length":5,"data":"офис"},{"type":"hashtag","offset":205,"length":7,"data":"полная"},{"type":"link","offset":331,"length":6,"data":"http://ДОМ.РФ"},{"type":"handle","offset":2323,"length":15,"data":"polipropilenka"},{"type":"handle","offset":2373,"length":12,"data":"devops_jobs"}],"date":"2020-04-01T14:15:31+00:00","link":"tg://resolve?domain=devops_jobs_feed&post=1862","tags":[{"name":"dotnet"},{"name":"linux"},{"name":"dns"},{"name":"docker"},{"name":"kubernetes"},{"name":"ansible"},{"name":"postgresql"},{"name":"elasticsearch"}],"cities":[],"allowsRemote":false}},{"node":{"__typename":"Job","id":"1948254208-1001134745498","title":"Devops инженер","text":"#вакансия #DevОps #Network\nГород и адрес офиса: #москва \nФормат работы: #удаленка\nЗанятость: #полная \nЗарплатная вилка: от 200 до 300 т.р. на руки\n\nFreedomFi строит частные LTE-сети с использованием commodity-оборудования, программного обеспечения с открытым исходным кодом и CBRS. Компания ищет опытных DevOps/Network инженеров для участия в проекте по разработке распределенной packet core сети с открытым исходным кодом под названием Magma. Нам предстоит совместная работа в тесном сотрудничестве с внешними контрибьюторами из таких организаций, как Facebook Connectivity, Eurocom, AmDocs, Rakuten.\nБез чего ты не сможешь работать у нас:\nАнглийский язык на разговорном уровне.\nМинимум 1 год опыта работы с Kubernetes (K8s), Docker.\nРасширенные знания в сетях LAN / WAN.\nОпыт Автоматизации от 2 лет (Bash, Ansible, Puppet, helm).\nЗнание архитектуры ОС Linux.\nХорошее понимание спецификации архитектуры 3GPP 5G SA, связанных компонентов и интерфейсов.\nПрактический опыт работы с протоколами стека 3GPP: HSS, AAA-Swx, Diameter, PCRF / PCEF, OCS, GGSN, Gx, Gy.\nWi-Fi AP, WAC, AGW, Радиусная аутентификация, Аутентификация, EAP-AKA, EAP-SIM \nЧто предстоит делать:\nРазвертывание и эксплуатация сред контейнеризации: K8s, Docker.\nРазработка Helm Charts и скриптов автоматизации для автоматического развертывания различных микросервисов в рамках проекта Magma (Access Gateway, Federation Gateway, Orchestrator и т. Д.) в облачной инфраструктуре на основе Kubernetes.\nУсловия: скидка на изучение английского языка, 3 дополнительных отгула в год, гибкое начало дня (до 9-10 вечера для общения с американским Заказчиком)\nКонтакт: @bystrova_ak\n\n—\n\n👉 Обсуждение вакансии в чате @devops_jobs","markup":[{"type":"hashtag","offset":0,"length":9,"data":"вакансия"},{"type":"hashtag","offset":10,"length":7,"data":"DevОps"},{"type":"hashtag","offset":18,"length":8,"data":"Network"},{"type":"hashtag","offset":48,"length":7,"data":"москва"},{"type":"hashtag","offset":72,"length":9,"data":"удаленка"},{"type":"hashtag","offset":93,"length":7,"data":"полная"},{"type":"handle","offset":1622,"length":12,"data":"bystrova_ak"},{"type":"handle","offset":1669,"length":12,"data":"devops_jobs"}],"date":"2020-03-31T15:18:32+00:00","link":"tg://resolve?domain=devops_jobs_feed&post=1858","tags":[{"name":"kubernetes"},{"name":"docker"},{"name":"bash"},{"name":"ansible"},{"name":"linux"},{"name":"ms-access"}],"cities":[{"code":"moscow"}],"allowsRemote":true}},{"node":{"__typename":"Job","id":"1941962752-1001134745498","title":"Devops engineer","text":"#вакансия #DevOps #fulltime \n\nВакансия: DevOps engineer / Системный администратор\nКомпания: Sl-Tech\nГород: Москва, метро Маяковская\nФормат работы: офис\nЗанятость: полная\nЗарплата : от 100 до 170 т.р. net\n\nО компании:\n\nSL Tech – компания, которая управляет портфелем проектов, предназначенных как для потребителей, так и для партнеров - поставщиков услуг в высокотехнологичных областях.\n\nКомпания родилась в 2006 году как часть группы SEALINE, в которую также входит страховой и перестраховочный брокер SEALINE, входящий в ТОП-10 страховых брокеров РФ.\n\nМы создаем современные IT-решения для бизнеса и жизни, помогая выстраивать коммуникацию между поставщиками и потребителями услуг. Своим партнерам мы предлагаем готовые решения, которые позволяют расширить возможности существующего бизнеса и получить дополнительный доход.\n\nSL Tech не просто разрабатывает продукты, отвечающие современным запросам  партнеров и их клиентов, но и влияет непосредственно на формирование новых сегментов рынка\n\nТебе предстоит:\n- Развитие и поддержка сервисов компании\n- Управление инфраструктурой компании\n- Автоматизация развертывания\n- Мониторинг \n- Сбор и анализ логов\n- Организация непрерывного функционирования сервисов, резервное копирование\n\nЧто нужно уметь:\n- Администрирование Linux (Ubuntu)\n- От 3-х лет опыта администрирования веб-сервисов работающих на Linux\n- Опыт использования и настройки системы Gitlab\n- Знания систем Docker Swarm, Kubernetes\n- Настройка, репликация PostgreSQL\n- Работы с системами автоматизации (Ansible, Chef и т.п.), мониторинга (Zabbix, Prometheus), сбора и анализа логов (ELK, ClickHouse)\n- Умение читать код на Python\n- Желание работать в команде\n\nМы предлагаем:\n• Оформление по ТК РФ \n• Полностью белая зп; \n• Уровень зп обсуждается индивидуально (в соответствии с вашим уровнем и ожиданиями) ЗП вилка 100-170 тыс.руб.\n• ДМС (после испытательного срока 3 месяца)\n• Офис в центре (5 минут от м.Маяковская)\n• Чай, кофе, печеньки\n• Адекватное руководство\n• Весёлая, сильная команда\n\nКонтакт: @SanDevl\n\n—\n\n👉 Обсуждение вакансии в чате @devops_jobs","markup":[{"type":"hashtag","offset":0,"length":9,"data":"вакансия"},{"type":"hashtag","offset":10,"length":7,"data":"DevOps"},{"type":"hashtag","offset":18,"length":9,"data":"fulltime"},{"type":"handle","offset":2012,"length":8,"data":"SanDevl"},{"type":"handle","offset":2055,"length":12,"data":"devops_jobs"}],"date":"2020-03-27T07:39:14+00:00","link":"tg://resolve?domain=devops_jobs_feed&post=1852","tags":[{"name":"dotnet"},{"name":"linux"},{"name":"ubuntu"},{"name":"gitlab"},{"name":"docker"},{"name":"kubernetes"},{"name":"postgresql"},{"name":"ansible"},{"name":"python"}],"cities":[{"code":"moscow"}],"allowsRemote":false}},{"node":{"__typename":"Job","id":"1940914176-1001134745498","title":"Devops инженер","text":"#вакансия #DevOps #fulltime \nСанкт-Петербург, м. Чкаловская\nОфис, полная занятость \nЗарплата от 150 000 до 200 000\nЧто предстоит делать:\n-Настройка и поддержание в работоспособном состоянии продуктовых бизнес систем\n-Работа с инфраструктурой в DigitalOcean, AWS\n-Автоматизация разворачивания сервисов\n-Миграция, а также поддержка проектов на Kubernetes\n-Интеграция новых сервисов в существующую инфраструктуру\n-Администрирование операционных систем: RHEL/CentOS, Ubuntu\nЧто нам нужно от Вас:\n-Обязателен production опыт эксплуатации кластера kubernetes\n-Опыт работы с Linux системами\n-Понимание работы сетевых протоколов\n-Docker\n-git\n-Написание и поддержка Ansible playbooks\n-CI/CD (мы используем Drone CI, CircleCI)\n-Знакомство с одним из языков: Go, Python, Bash\n-Знания хотя бы об одном из продуктов: nginx, haproxy, tomcat\n-Опыт работы с PostgreSQL/MySQL, MongoDB\n-Глубокое понимание Terraform\n-Amazon Web Services\n-Знакомство с Prometheus\nNice to have:\n-Базовые знания DigitalOcean\n-Опыт работы с Kafka, Redis\n-Знакомство с ElasticSearch\nКомпания Snowball Gaming https://www.linkedin.com/company/snowball-gaming/about/\nКонтакт: maria.yudina@snowball.dev, TG @maria_you\n\n—\n\n👉 Обсуждение вакансии в чате @devops_jobs","markup":[{"type":"hashtag","offset":0,"length":9,"data":"вакансия"},{"type":"hashtag","offset":10,"length":7,"data":"DevOps"},{"type":"hashtag","offset":18,"length":9,"data":"fulltime"},{"type":"link","offset":1068,"length":55,"data":"https://www.linkedin.com/company/snowball-gaming/about/"},{"type":"link","offset":1133,"length":25,"data":"mailto:maria.yudina@snowball.dev"},{"type":"handle","offset":1163,"length":10,"data":"maria_you"},{"type":"handle","offset":1208,"length":12,"data":"devops_jobs"}],"date":"2020-03-26T12:56:42+00:00","link":"tg://resolve?domain=devops_jobs_feed&post=1851","tags":[{"name":"amazon-web-services"},{"name":"kubernetes"},{"name":"centos"},{"name":"ubuntu"},{"name":"linux"},{"name":"docker"},{"name":"git"},{"name":"ansible"},{"name":"python"},{"name":"bash"},{"name":"nginx"},{"name":"tomcat"},{"name":"postgresql"},{"name":"mysql"},{"name":"mongodb"},{"name":"web"},{"name":"kafka"},{"name":"redis"},{"name":"elasticsearch"}],"cities":[{"code":"nice"}],"allowsRemote":false}},{"node":{"__typename":"Job","id":"1939865600-1001134745498","title":"Devops инженер","text":"#вакансия\n\nГород и адрес офиса: Москва, метро Парк Культуры\n\nФормат работы: формат офис, пока ситуация с короновирусом непонятная на удаленке\n\nЗанятость: полная\n\nЗарплатная вилка: от 120 до 150 на руки\n\nОписание вакансии: Чем предстоит заниматься\nуправление несколькими десятками Linux-серверов\nсистемная поддержка проектов компании\nцентрализованное хранение логов, автоматизированная их обработка\nперестройка, актуализация политик сетевого доступа, создание новых инструментов для их управления;\nУправление инцидентами, бэкапами, выдачей прав\nМы ожидаем, что у вас имеется\nтехнический бэкграунд в системном администрировании Linux и большей части сервисов, что перечислены ниже\nопыт создания и эксплуатации развитых сетевых конфигураций (/tcp/udp/vpn/nat/iptables/…)\nОсновные используемые технологии\nAnsible\nOpenVPN, IPsec, GRE, BGP\nBareos\nGraphite, Graphana, Moira\nOS Ubuntu\nELK\nMongoDB\nPostgresql\nNGINX\nAtlassian (JIRA, Confluence)\nGitlab\nDocker\nПлюсом будет\nопыт работы с Kanban\n\n\nНазвание компании: x5 Retail Group x5.ru\nКонтакты: natalya.shumshurova@gmail.com\n\n—\n\n👉 Обсуждение вакансии в чате @devops_jobs","markup":[{"type":"hashtag","offset":0,"length":9,"data":"вакансия"},{"type":"link","offset":1020,"length":5,"data":"http://x5.ru"},{"type":"link","offset":1036,"length":29,"data":"mailto:natalya.shumshurova@gmail.com"},{"type":"handle","offset":1100,"length":12,"data":"devops_jobs"}],"date":"2020-03-26T12:40:04+00:00","link":"tg://resolve?domain=devops_jobs_feed&post=1850","tags":[{"name":"linux"},{"name":"ansible"},{"name":"ubuntu"},{"name":"mongodb"},{"name":"postgresql"},{"name":"nginx"},{"name":"gitlab"},{"name":"docker"}],"cities":[{"code":"moscow"}],"allowsRemote":false}},{"node":{"__typename":"Job","id":"1385168896-1001091028994","title":"Java разработчик","text":"#backend #java #senior #middle #javaEE\nКомпания: #Сбербанк\nЛокация: #Москва #бцчайка\nЗ/п: 220 000 - 270 000 net + бонус \nКонтакты: @nas_vas , +79234620351\n\nМы разрабатываем  новую систему Argus – это фронт-система для работы банковских сотрудников, участвующих в процессах корпоративного кредитования, предоставляющая сервисы по риск-инструментам, и являющаяся мастер-системой по хранению риск-метрик корпоративного сектора. У нас 8 продуктовых команд, порядка 5000 пользователей, 30-50 тысяч расчетов в неделю.\nНаш тех.стек: ОС - Centos , Red Hat; СП – IBM Websphere AppServer , Wildfly; СУБД Oracle, PostgreSQL\nУправление требованиями: Jira, Confluenсe + Jenkins, Ansible, Git (Bitbucket). \nТехнологии и инструменты разработки:\n• Сервер приложения - WS\n• СУБД Оракл\n• Java 8, \n• Управление требованиями: Jira, Confluenсe\n• DevOps: Jenkins, Nexus \n\nКлючевые навыки:\n• Опыт работы с ОС Linux, СУБД Oracle;\n• Языки программирования Java EE, sql;\n• Опыт работы с многопоточностью\n• Опыт написания unit-тестов.","markup":[{"type":"hashtag","offset":0,"length":8,"data":"backend"},{"type":"hashtag","offset":9,"length":5,"data":"java"},{"type":"hashtag","offset":15,"length":7,"data":"senior"},{"type":"hashtag","offset":23,"length":7,"data":"middle"},{"type":"hashtag","offset":31,"length":7,"data":"javaEE"},{"type":"hashtag","offset":49,"length":9,"data":"Сбербанк"},{"type":"hashtag","offset":68,"length":7,"data":"Москва"},{"type":"hashtag","offset":76,"length":8,"data":"бцчайка"},{"type":"handle","offset":131,"length":8,"data":"nas_vas"},{"type":"link","offset":142,"length":12,"data":"tel:+79234620351"}],"date":"2020-03-25T15:11:49+00:00","link":"tg://resolve?domain=jvmjobs&post=1321","tags":[{"name":"java"},{"name":"jvm"},{"name":"dotnet"},{"name":"centos"},{"name":"oracle"},{"name":"postgresql"},{"name":"jenkins"},{"name":"ansible"},{"name":"git"},{"name":"linux"},{"name":"sql"}],"cities":[{"code":"moscow"}],"allowsRemote":false}},{"node":{"__typename":"Job","id":"1384120320-1001091028994","title":"Java разработчик","text":"#java #офис # Москва \nГород: Москва\nФормат работы: офис\nЗанятость: полная занятость, постоянная работа\nЗарплата:  от 200 до 280 на руки (+ есть годовой бонус)\nМы молодая команда внутри Сбербанка, занимаемся разработкой и внедрением нового мобильного приложения Сбербанк Инвестор, которое должно вывести из эксплуатации текущее решение для инвестиций от Сбербанка.\n\nОбязанности:\n\n- Проектирование архитектуры приложения;\n- Проектирование интерфейсов взаимодействия между компонентами системы и внешними системами;\n- Проектирование хранилища данных;\n- Разработка и поддержка приложений на Java;\n- Написание unit-тестов, проведение code review;\n- Подготовка документации.\n\nТребования:\n\n- Широкий технический кругозор в современных информационных технологиях;\n- Знание технологий и методов интеграции информационных систем;\n- Знание и опыт применения средств масштабирования и отказоустойчивости;\n- Опыт разработки приложений на Java от трех лет;\n- Опыт разработки приложений с использованием Spring / Spring Boot;\n- Опыт работы с DevOps инструментами (jenkins, ansible, maven, gradle, git, etc.);\n- Знание PL/pgSQL или PL/SQL.\n\nКомпания: Сбербанк\nВопросы можно задать тут @vsevkosmo","markup":[{"type":"hashtag","offset":0,"length":5,"data":"java"},{"type":"hashtag","offset":6,"length":5,"data":"офис"},{"type":"handle","offset":1169,"length":10,"data":"vsevkosmo"}],"date":"2020-03-25T15:00:25+00:00","link":"tg://resolve?domain=jvmjobs&post=1320","tags":[{"name":"java"},{"name":"jvm"},{"name":"spring"},{"name":"jenkins"},{"name":"ansible"},{"name":"maven"},{"name":"gradle"},{"name":"git"},{"name":"sql"},{"name":"spring-boot"}],"cities":[{"code":"moscow"}],"allowsRemote":false}},{"node":{"__typename":"Job","id":"1936719872-1001134745498","title":"Devops инженер","text":"#вакансия #офис #Беговая #полнаязанятость #СПб\n\nКомпания: FutureComes.com, но ищем к нашим партнёрам.\n\nВилка: от 150 до 250,000;\n\nПроект: их два, один - это высоконагруженная площадка для трейдинга с некоторым хардкором в работе, второй - это площадка для высокочастотной алгоритмической торговли, песочница.\n\nТехнологии: Ansible/Prometheus/Grafana/TeamCity/CloudFlair/Docker/GitCi/K8S\n\nОт вас нужны знания и желание прокачать свой скилл (говорят, что у нас реально качают его, но сам не проверял, культяпки админить не умеют). \n\nИз минусов: иногда процессы через… но, сейчас мы перекрываем эти дыры, стараемся их наладить, получается сложно, тяжело и со скрипом, но получается.\n\nКомпания 8 лет на рынке. \nУ нас нет систем штрафов.\nМы не трекаем ваше время, нам все равно, если выполняются поставленные задачи и сервера не падают. \nСлучаев, когда кого-то оставили без ЗП или не выплатили какие-то отпускные/премии/переработки - не зафиксировано.\n\nЧто есть: можно выбирать себе технику (вообще любую в рамках разумного), 100% больничные/отпуска 28 календарных дней, у нас крутой офис, можно работать удаленно несколько дней в неделю, если таски не подразумевают присутствие в офисе, мы помогаем со всем: визы, кредиты, ипотеки, алименты. В пятницу пьем винишко, едим пиццу, играем в настолки.\n\nОбязанности:\n- Развертывание и обеспечение непрерывной работы (эксплуатация) распределенных, отказоустойчивых, \n- Высоконагруженных серверных решений (Linux);\n- Автоматизация процесса разработки (CI/CD);\n- Мониторинг и администрирование linux серверов, а также мониторинг функционирования серверного программного обеспечения;\n- Администрирование систем хранения данных;\n- Разработка предложений по развитию инфраструктуры.\n\nПисать можно:  @kitanamda или konstantin@futurecomes.com\n\n—\n\n👉 Обсуждение вакансии в чате @devops_jobs","markup":[{"type":"hashtag","offset":0,"length":9,"data":"вакансия"},{"type":"hashtag","offset":10,"length":5,"data":"офис"},{"type":"hashtag","offset":16,"length":8,"data":"Беговая"},{"type":"hashtag","offset":25,"length":16,"data":"полнаязанятость"},{"type":"hashtag","offset":42,"length":4,"data":"СПб"},{"type":"link","offset":58,"length":15,"data":"http://FutureComes.com"},{"type":"handle","offset":1732,"length":10,"data":"kitanamda"},{"type":"link","offset":1747,"length":26,"data":"mailto:konstantin@futurecomes.com"},{"type":"handle","offset":1808,"length":12,"data":"devops_jobs"}],"date":"2020-03-24T11:33:14+00:00","link":"tg://resolve?domain=devops_jobs_feed&post=1847","tags":[{"name":"ansible"},{"name":"docker"},{"name":"linux"}],"cities":[],"allowsRemote":true}},{"node":{"__typename":"Job","id":"1933574144-1001134745498","title":"Devops инженер","text":"#devops  #middle  #senior #вакансия\n\nВсем добрый вечер\n\nЯ ищу Ведущего devops / системного инженера в компанию,  которая занимается разработкой системного интегратора ПО в области виртуализации и облачных технологий.\n\nЧто хотят:\nЖелательно - высшее профильное образование и соответствующий опыт работы от 3-5 лет\nОС: Linux, Unix\nCI/CD: Jenkins, Teamcity, Travis и аналоги\nКонтейнеры: Docker\nВеб-сервисы: Ngnix, UWSGI\nМониторинг/алертинг: AppDynamics, Nagios, Zabbix etc.\nОпыт администрирования реплицированных СУБД (PostgreSQL или MariaDB, MongoDB)\nОпыт работы с elasticsearch/logstash/kibana\nAnsible, Salt\nОпыт администрирования облачных серверов (например - под платформами Amazon EC2, GoogleCloud, VmWare vSphere, OpenStack или прочих)\n\nПлюсами будут:\nустановка/обслуживание - Reverse Proxy (Nginx …), caсhing\nserver (Squid, Nginx etc.)\nустановка/обслуживание - load balancer (HAProxy, Nginx, etc.)\nBash Scripts.\nProcess Monitoring: ps, top, htop, atop, .. etc\nSystem Performance: nmon, iostat, sar, vmstat etc\nNetworking: nmap, tcpdump, ping, traceroute, airmon, etc.\nkubernetes/docker swarm\n\nОсновные обязанности:\nРазвертка контуров (dev, qas, prod)\nPerformance тестирование, нагрузочное тестирование\nСборка и обновление из репозиториев\nПоиск и устранение проблем\n\nЧто дают:\nХорошая ЗП. от 120 000 руб. до 200.000 по результатам собеседования.\nВозможна удаленная работа \nТак же есть возможность работы в офисе.\nг. Москва Сколково, возможна работа из офиса в г. Санкт-Петербурге и г Нижний Новогород (ул Грузинская).\n\nКомпания: http://asdtech.co/\n\nКонтакты: @mayke_kin\n\n—\n\n👉 Обсуждение вакансии в чате @devops_jobs","markup":[{"type":"hashtag","offset":0,"length":7,"data":"devops"},{"type":"hashtag","offset":9,"length":7,"data":"middle"},{"type":"hashtag","offset":18,"length":7,"data":"senior"},{"type":"hashtag","offset":26,"length":9,"data":"вакансия"},{"type":"link","offset":1532,"length":18,"data":"http://asdtech.co/"},{"type":"handle","offset":1562,"length":10,"data":"mayke_kin"},{"type":"handle","offset":1607,"length":12,"data":"devops_jobs"}],"date":"2020-03-24T04:12:20+00:00","link":"tg://resolve?domain=devops_jobs_feed&post=1844","tags":[{"name":"linux"},{"name":"unix"},{"name":"jenkins"},{"name":"docker"},{"name":"postgresql"},{"name":"mariadb"},{"name":"mongodb"},{"name":"elasticsearch"},{"name":"logstash"},{"name":"ansible"},{"name":"nginx"},{"name":"bash"},{"name":"kubernetes"}],"cities":[{"code":"moscow"}],"allowsRemote":true}},{"node":{"__typename":"Job","id":"1932525568-1001134745498","title":"Devops инженер","text":"#вакансия #jenkins #aws #украина #беларусь #прибалтика #remote #удалёнка\nкомпания s-o-services\nФормат - remote\nз\\п 5к-6к$ gross\nУвы гражданам России, живущим в РФ - вакансия недоступна.\nHere's some of the tech we use in DevOps.\n\n- jenkins экспертное знание\n- ansible\n- gradle (some maven) понимане логов сборок и умение чётко рассказать программисту что пошло не так\n- java тюнинг, хорошее понимание работы gc(чем отличается cms от g1 и от zgc, и когда лучше взять zulu? а когда openjdk?), что и когда тюнить в jvm, настройка логов и их тюнинг\n- groovy обязателен\n- HashiCorp vault\n- AWS infrastructure, понимание ценообразования, трафика и днс, стоимости i\\o и особенностей rds\n- drone\n- cri-o/containerd\n- prometheus, grafana, elk, datadog\n- upper-intermediate English обязателен\nконтакты @erzentd\n\n—\n\n👉 Обсуждение вакансии в чате @devops_jobs","markup":[{"type":"hashtag","offset":0,"length":9,"data":"вакансия"},{"type":"hashtag","offset":10,"length":8,"data":"jenkins"},{"type":"hashtag","offset":19,"length":4,"data":"aws"},{"type":"hashtag","offset":24,"length":8,"data":"украина"},{"type":"hashtag","offset":33,"length":9,"data":"беларусь"},{"type":"hashtag","offset":43,"length":11,"data":"прибалтика"},{"type":"hashtag","offset":55,"length":7,"data":"remote"},{"type":"hashtag","offset":63,"length":9,"data":"удалёнка"},{"type":"handle","offset":791,"length":8,"data":"erzentd"},{"type":"handle","offset":834,"length":12,"data":"devops_jobs"}],"date":"2020-03-23T14:06:57+00:00","link":"tg://resolve?domain=devops_jobs_feed&post=1843","tags":[{"name":"jenkins"},{"name":"amazon-web-services"},{"name":"ansible"},{"name":"gradle"},{"name":"maven"},{"name":"java"},{"name":"jvm"},{"name":"groovy"}],"cities":[],"allowsRemote":true}}]}}},"context":{}}