{"hash":"f34fd2c444a074f4e0e67d525015a008ef8e766f","data":{"records":{"id":"dotnet","name":"dotnet","belongsTo":{"totalCount":129,"pageInfo":{"totalPages":13,"currentPage":3},"edges":[{"node":{"__typename":"Job","id":"98227453952-1001089317451","title":"Qa инженер","text":"#вакансия #офиc  #QA #Москва #ручноетестирование #гибкийграфик #relocation\n\nГород и адрес офиса: Москва, м. Тверская, 3 минуты от метро\nФормат работы: офис.\nЗарплата: до 100 000 net\n\nИщу manual QA с хорошим письменным английским в калифорнийскую продуктовую компанию. \nМы разрабатываем удобный call-center, который уже умеет синтезировать речь, обучатся и распознавать настроение пользователей, создавать аналитические отчеты, строить сложные сценарии с использованием чат-ботов, поддерживать омниканальные соединения.\n\nОжидаем:\nопыт работы QA, опыт работы с Linux, знание SQL. Cупер, если у вас будет опыт с IP телефонией.\n\nПредлагаем:\nГибкий график, ламповая атмосфера в офисе с бесплатными ланчами (2 раза в неделю), на самом деле классный и интересный продукт, командировки в Сан-Франциско за счет компании. \nВозможен рост в QA team leader.\n\nКонтакт для связи - @o_kuzi","markup":[{"type":"hashtag","offset":0,"length":9,"data":"вакансия"},{"type":"hashtag","offset":10,"length":5,"data":"офиc"},{"type":"hashtag","offset":17,"length":3,"data":"QA"},{"type":"hashtag","offset":21,"length":7,"data":"Москва"},{"type":"hashtag","offset":29,"length":19,"data":"ручноетестирование"},{"type":"hashtag","offset":49,"length":13,"data":"гибкийграфик"},{"type":"hashtag","offset":63,"length":11,"data":"relocation"},{"type":"bold","offset":76,"length":20,"data":""},{"type":"bold","offset":136,"length":15,"data":""},{"type":"bold","offset":157,"length":9,"data":""},{"type":"link","offset":258,"length":8,"data":"https://www.brightpattern.com/"},{"type":"bold","offset":520,"length":9,"data":""},{"type":"bold","offset":625,"length":12,"data":""},{"type":"handle","offset":866,"length":7,"data":"o_kuzi"}],"date":"2020-04-08T10:59:56+00:00","link":"tg://resolve?domain=qa_jobs&post=93677","tags":[{"name":"qa"},{"name":"dotnet"},{"name":"linux"},{"name":"sql"}],"cities":[{"code":"moscow"}],"allowsRemote":false}},{"node":{"__typename":"Job","id":"1987051520-1001134745498","title":"Devops инженер","text":"#вакансия #DevOps #Москва\nMiddle DevOps\nФормат работы: офис\\удаленно, Занятость: полная\nКомпания: SnegirSoft - вендор ITSM-платформы «4it».\nРазрабатываем и поддерживаем платформу для управления it-процессами больших компаний.\n\nЗадачи:\n⚙️Развитие и поддержка инфраструктуры;\n⚙️Автоматизация сборки и доставки кода;\n⚙️Поддержка разработчиков;\n⚙️Анализ и устранение инцидентов на продуктовых контурах;\n⚙️Обеспечение работоспособности и отказоустойчивости сервисов;\n⚙️Внедрение новых инструментов администрирования;\n\nНаши хотелки:\n🛠Системы контроля версий Git (Bitbucket, Gitlab);\n🛠Управление конфигурациями (Ansible);\n🛠CI\\CD: Teamcity \\ Gitlab \\ Jenkins;\n🛠Опыт администрирования Windows, IIS;\n🛠Умение хорошо писать на Powershell;\n🛠Cистемы мониторинга (Zabbix \\ Prometheus);\n🛠ELK – стек (Elasticsearch, Kibana);\n🛠Сообщения, очереди: RabbitMQ, Kafka;\nБудет круто если:\n🛠Опыт администрирования Apache \\ Nginx;\n🛠Опыт администрирования Linux;\n🛠Контейнеризация (Docker);\n🛠Умение писать SQL-запросы, понимание принципов работы СУБД;\n🛠Опыт работы с монолитными и микросервисными архитектурами;\n🛠Навыки написание скриптов на bash;\n\nПредлагаем:\n🏢м. Нововкузнецкая 3(!) мин. пешком,\n🚑  ДМС (почти all inclusive)\n💰  Доход: 140 000 – 180 000 нетт\n⏰Начало дня гибко с 9-10-11, как договоримся.\n🖥ПК: i7 8-gen, 24Gb, SSD 512Gb, 2 хороших монитора.\n🚀  Стэк актуальный: .Net Core, Angular, Elasticsearch, RabbitMQ, MS SQL->Postgres, Almost SCRUM ^)\nКонтакты: @aastaf  a.astafev@snegirsoft.com\n\n—\n\n👉 Обсуждение вакансии в чате @devops_jobs","markup":[{"type":"hashtag","offset":0,"length":9,"data":"вакансия"},{"type":"hashtag","offset":10,"length":7,"data":"DevOps"},{"type":"hashtag","offset":18,"length":7,"data":"Москва"},{"type":"handle","offset":1457,"length":7,"data":"aastaf"},{"type":"link","offset":1466,"length":24,"data":"mailto:a.astafev@snegirsoft.com"},{"type":"handle","offset":1525,"length":12,"data":"devops_jobs"}],"date":"2020-04-08T10:14:42+00:00","link":"tg://resolve?domain=devops_jobs_feed&post=1895","tags":[{"name":"git"},{"name":"gitlab"},{"name":"ansible"},{"name":"jenkins"},{"name":"windows"},{"name":"iis"},{"name":"powershell"},{"name":"elasticsearch"},{"name":"rabbitmq"},{"name":"kafka"},{"name":"apache"},{"name":"nginx"},{"name":"linux"},{"name":"docker"},{"name":"sql"},{"name":"bash"},{"name":"dotnet"},{"name":"angularjs"},{"name":"postgresql"},{"name":"net-core"}],"cities":[{"code":"moscow"}],"allowsRemote":true}},{"node":{"__typename":"Job","id":"98216968192-1001089317451","title":"Qa инженер","text":"#вакансия #fulltime #офис #Москва #Саратов #testautomation #middle #senior #TS\n\nКомпания: Техносерв https://technoserv.com/ \nВакансия: QA-ИНЖЕНЕР ПО АВТОМАТИЗАЦИИ ТЕСТИРОВАНИЯ\nДля работы на проектах в крупном банке (T&M)\nЗП: 60 000 - 220 000 (несколько позиций)\nГрафик работы: фултайм, 10:00-19:00 (по договоренности)\nМесто работы: офис, г. Москва или г. Саратов\n\nО проекте:\nСоздание системы, упрощающей работу операционистов в отделениях банка.\nРелизы выпускаются несколько раз в день\nQA активно участвуют в DevOps и CI/CD.\n\nКого мы ищем:\nИщем опытного QA-автоматизатора, разбирающегося в ключевых моментах автотестирования ПО. Основной его задачей будет увеличение покрытия автотестами существующего/нового функционала.\n\nЧем будете заниматься:\n• Разрабатывать автотесты на C# (Rest API / Rabbit MQ), поддерживать как новые, так и существующие тесты\n• Разрабатывать тестовые заглушки и сервисы (.net)\n• Конфигурировать сборки на CI-сервере (TeamCity)\n• Конфигурировать тестовые стенды (Helm, ArgoCD, Kubernetes, Docker)\n\nТребуемый опыт и знание технологий:\n• Опыт написания автотестов на C# (от года);\n• Опыт работы с NUnit / xUnit;\n• Умение разбираться с деплоймент-тулами и понимание принципов DevOps;\n• SQL на уровне написания запросов;\n• Знание методологий тестирования;\n• Умение написать чек-лист / тест-кейсы для функционала, покрываемого автотестами.\n\nБудет плюсом:\n• Работа с .net Core;\n• Опыт конфигурирования CI-серверов (мы используем TeamCity);\n• Знание PL-SQL и опыт работы c Oracle;\n• Навыки работы в консоли Linux (CentOS).\n\nРезюме сюда: QAResume@technoserv.com\n\nP.S. Если вы слабы в C#, но уверенно знаете java и Selenium, не стесняйтесь присылать резюме - варианты и возможности есть.","markup":[{"type":"hashtag","offset":0,"length":9,"data":"вакансия"},{"type":"hashtag","offset":10,"length":9,"data":"fulltime"},{"type":"hashtag","offset":20,"length":5,"data":"офис"},{"type":"hashtag","offset":26,"length":7,"data":"Москва"},{"type":"hashtag","offset":34,"length":8,"data":"Саратов"},{"type":"hashtag","offset":43,"length":15,"data":"testautomation"},{"type":"hashtag","offset":59,"length":7,"data":"middle"},{"type":"hashtag","offset":67,"length":7,"data":"senior"},{"type":"hashtag","offset":75,"length":3,"data":"TS"},{"type":"link","offset":100,"length":23,"data":"https://technoserv.com/"},{"type":"link","offset":1554,"length":23,"data":"mailto:QAResume@technoserv.com"}],"date":"2020-04-08T09:15:43+00:00","link":"tg://resolve?domain=qa_jobs&post=93667","tags":[{"name":"qa"},{"name":"rest"},{"name":"rabbitmq"},{"name":"dotnet"},{"name":"kubernetes"},{"name":"docker"},{"name":"sql"},{"name":"oracle"},{"name":"linux"},{"name":"centos"},{"name":"java"},{"name":"selenium"},{"name":"net-core"}],"cities":[{"code":"moscow"},{"code":"saratov"}],"allowsRemote":false}},{"node":{"__typename":"Job","id":"98202288128-1001089317451","title":"Qa инженер","text":"#вакансия #qa #manual #manualqa  #remote #удаленно #офис #севастополь #fulltime\n\nManual QA\nКомпания: ИП Хорьков Э.В.\nЛокация: Севастополь (офис/удаленно) \nЗанятость: полный день\nЗ/п: 50-70К net\nКонтакты: @observer69\n\nНаш проект – IoT инфраструктура сбора и анализа данных, запущена на базе компании, которая занимается морскими грузоперевозками (более 100 судов). Мы делаем реальный проект, который будет работать и генерировать добавленную стоимость для логистических компаний.\nОсновные технологии, которые мы используем – TypeScript, React, CouchDB. Клиент-серверное взаимодействие через GraphQL и RabbitMQ. Уже запущена и протестирована первая бета-версия. Сейчас разрабатываем продакшен-версию для запуска в середине 2020.\nМы ищем опытного ручного тестировщика. Вам предстоит заниматься ручным тестирование продукта, взаимодействовать командой разработки. Дизайн, ключевая техническая команда, продуктовая команда работают распределенно (команда интернациональная).\n\nУсловия\n● Официальное оформление по ТК РФ, трудовой договор, 100 % белая зарплата с оплатой всех налогов и страховых взносов, отпуск 28 календарных дней\n● Оплачиваемые онлайн-курсы английского языка\n● Работа удаленно или в офисе в Севастополе\n\nТребования\n● Не менее 2 лет опыта ручного тестирование ПО\n● Понимание принципов клиент-серверного взаимодействия\n● Опыт работы с системами менеджмента текст-кейсов (Zephyr)\n● Знание английского (нужно будет читать и писать)\n● Будет плюсом: знание Python/TypeScript, знание NoSQL\n\nЗадачи\n1. Ручное тестирование нашего продукта\n2. Написание тестовой документации: тест-планов, тест-кейсов, отчетов\n3. Коммуникация с командой разработки и командой автоматизации","markup":[{"type":"hashtag","offset":0,"length":9,"data":"вакансия"},{"type":"hashtag","offset":10,"length":3,"data":"qa"},{"type":"hashtag","offset":14,"length":7,"data":"manual"},{"type":"hashtag","offset":22,"length":9,"data":"manualqa"},{"type":"hashtag","offset":33,"length":7,"data":"remote"},{"type":"hashtag","offset":41,"length":9,"data":"удаленно"},{"type":"hashtag","offset":51,"length":5,"data":"офис"},{"type":"hashtag","offset":57,"length":12,"data":"севастополь"},{"type":"hashtag","offset":70,"length":9,"data":"fulltime"},{"type":"bold","offset":81,"length":19,"data":""},{"type":"bold","offset":117,"length":9,"data":""},{"type":"bold","offset":155,"length":10,"data":""},{"type":"bold","offset":178,"length":5,"data":""},{"type":"bold","offset":194,"length":9,"data":""},{"type":"handle","offset":204,"length":11,"data":"observer69"},{"type":"bold","offset":971,"length":8,"data":""},{"type":"bold","offset":1215,"length":11,"data":""},{"type":"bold","offset":1495,"length":7,"data":""}],"date":"2020-04-08T07:26:35+00:00","link":"tg://resolve?domain=qa_jobs&post=0","tags":[{"name":"qa"},{"name":"dotnet"},{"name":"typescript"},{"name":"reactjs"},{"name":"graphql"},{"name":"rabbitmq"},{"name":"python"},{"name":"nosql"}],"cities":[{"code":"sevastopol"}],"allowsRemote":true}},{"node":{"__typename":"Job","id":"16214130688-1001110946746","title":"Js разработчик","text":"#вакансия #JavaScript #JS #frontend #Тензор #НСК #job #разработка\nГород: Новосибирск (м. Заельцовская) или Академгородок\nФормат работы: офис #Новосибирск . \nЗанятость: #fulltime \nЗарплата: от 65 000 до 104 000 рублей +net\nДолжность: JavaScript разработчик\n\nТензор – крупная российская IT-компания, разрабатывающая продукт СБИС (sbis.ru)\n\nЖдём от вас:\n•  уверенное знание JavaScript;\n•  понимание принципов ООП в JavaScript;\n•  понимание принципов верстки, адаптивности;\n•  знакомство с системой контроля версий (такие как GIT, SVN);\n•  представление о принципах работы web-сайтов: от запроса к серверу до отрендеренной в браузере страницы.\n\nМы предлагаем: \n•  официальное трудоустройство по ТК РФ;\n•  оклад в зависимости от квалификации и уровня ответственности;\n•  премии по результатам работы от 5 до 20%;\n•  интересные проекты;\n•  комфортный офис в центре города.\n•  курсы английского языка и компенсацию занятий спортом;\n•  оформление ДМС после года работы в компании.\n\nКонтакты: Анна - am.sizova@tensor.ru\n@anet_danilova","markup":[{"type":"hashtag","offset":0,"length":9,"data":"вакансия"},{"type":"hashtag","offset":10,"length":11,"data":"JavaScript"},{"type":"hashtag","offset":22,"length":3,"data":"JS"},{"type":"hashtag","offset":26,"length":9,"data":"frontend"},{"type":"hashtag","offset":36,"length":7,"data":"Тензор"},{"type":"hashtag","offset":44,"length":4,"data":"НСК"},{"type":"hashtag","offset":49,"length":4,"data":"job"},{"type":"hashtag","offset":54,"length":11,"data":"разработка"},{"type":"hashtag","offset":141,"length":12,"data":"Новосибирск"},{"type":"hashtag","offset":168,"length":9,"data":"fulltime"},{"type":"link","offset":328,"length":7,"data":"http://sbis.ru"},{"type":"link","offset":991,"length":19,"data":"mailto:am.sizova@tensor.ru"},{"type":"handle","offset":1011,"length":14,"data":"anet_danilova"}],"date":"2020-04-07T18:38:03+00:00","link":"tg://resolve?domain=javascript_jobs_feed&post=15463","tags":[{"name":"javascript"},{"name":"dotnet"},{"name":"git"},{"name":"svn"},{"name":"web"}],"cities":[{"code":"novosibirsk"}],"allowsRemote":false}},{"node":{"__typename":"Job","id":"16207839232-1001110946746","title":"Javascript разработчик","text":"#вакансия #ReactNative #Спб #офис #middle #senior \n\nКомпания: White Code \nЛокация: Санкт-Петербург, ст.м. Петроградская\nФормат работы: офис, fulltime\nЗанятость: полная\nЗарплатная вилка: 170 000 - 300 000 Net рублей (для кандидатов уровня Senior готовы обсуждать выше) \n\n🔈Компания White Code в поисках Senior и Middle React Native developers. \n\n🌏White Code - это продуктовая IT компания, которая занимается разработкой и запуском собственных веб и мобильных приложений для международного рынка. За более чем 10-летний опыт работы ребята научились решать широкий спектр задач, на сегодняшний день их продуктами и сервисами воспользовались уже более полу миллиарда человек по всему миру. \n\nОсновные продукты, над которыми сейчас работает компания: S-browser - первый в мире веб–браузер, который защищает не только телефон, но и мобильный счет, CB.click - сервис для сокращения длинных ссылок с раширенными возможностями и статистикой, MemesTab - портал для публикации мемов, браузер CryptoTab — первый в мире браузер с функцией майнинга, Orange Pie, truWallet, HandyTab и другие. \n\n💠White Code - это профессиональная команда технарей, всего в компании 13 разработчиков, все процессы выстроены по agile, у каждого члена команды есть возможность напрямую влиять на развитие продукта и участвовать в выборе технологий. \n\n💠Что нужно знать и уметь:\n- уверенные знания JavaScript;\n- опыт работы с React Native от 1 года, React, Redux/MobX;\nЗнание и понимание native Java, Objective-C. \n\n💠Что получите вы: \n- официальное трудоустройство и белую зп;  \n- рабочее место в комфортном офисе в пешей доступности от м. Петроградская;\n- возможность быстрого карьерного роста в молодом коллективе;\n- гибкое время прихода на работу и различные бенефиты: бонусная программа, хороший дмс со стоматологией, компенсация обедов, фитнес зал при офисе, возможность выбрать удобную рабочую технику (выбор большинства iMac 27). \n\nКонтакты:\ntelegram: @sobolevavalery\nБуду рада ответить на все вопросы и рассказать подробнее о компании 😊","markup":[{"type":"hashtag","offset":0,"length":9,"data":"вакансия"},{"type":"hashtag","offset":10,"length":12,"data":"ReactNative"},{"type":"hashtag","offset":23,"length":4,"data":"Спб"},{"type":"hashtag","offset":28,"length":5,"data":"офис"},{"type":"hashtag","offset":34,"length":7,"data":"middle"},{"type":"hashtag","offset":42,"length":7,"data":"senior"},{"type":"link","offset":843,"length":8,"data":"http://CB.click"},{"type":"handle","offset":1926,"length":15,"data":"sobolevavalery"}],"date":"2020-04-07T18:36:10+00:00","link":"tg://resolve?domain=javascript_jobs_feed&post=15457","tags":[{"name":"javascript"},{"name":"dotnet"},{"name":"reactjs"},{"name":"redux"},{"name":"java"},{"name":"objective-c"},{"name":"react-native"},{"name":"react-redux"}],"cities":[],"allowsRemote":false}},{"node":{"__typename":"Job","id":"1978662912-1001134745498","title":"Devops engineer","text":"#вакансия #DevOps #fulltime\nВакансия: DevOps engineer / Системный администратор\nКомпания: Sl-Tech\nГород: Москва, метро Маяковская\nФормат работы: офис\nЗанятость: полная\nЗарплата : от 100 до 170 т.р. net\nО компании:\nSL Tech – компания, которая управляет портфелем проектов, предназначенных как для потребителей, так и для партнеров - поставщиков услуг в высокотехнологичных областях.\nКомпания родилась в 2006 году как часть группы SEALINE, в которую также входит страховой и перестраховочный брокер SEALINE, входящий в ТОП-10 страховых брокеров РФ.\nМы создаем современные IT-решения для бизнеса и жизни, помогая выстраивать коммуникацию между поставщиками и потребителями услуг. Своим партнерам мы предлагаем готовые решения, которые позволяют расширить возможности существующего бизнеса и получить дополнительный доход.\nSL Tech не просто разрабатывает продукты, отвечающие современным запросам партнеров и их клиентов, но и влияет непосредственно на формирование новых сегментов рынка\nТебе предстоит:\n- Развитие и поддержка сервисов компании\n- Управление инфраструктурой компании\n- Автоматизация развертывания\n- Мониторинг\n- Сбор и анализ логов\n- Организация непрерывного функционирования сервисов, резервное копирование\nЧто нужно уметь:\n- Администрирование Linux (Ubuntu)\n- От 3-х лет опыта администрирования веб-сервисов работающих на Linux\n- Опыт использования и настройки системы Gitlab\n- Знания систем Docker Swarm, Kubernetes\n- Настройка, репликация PostgreSQL\n- Работы с системами автоматизации (Ansible, Chef и т.п.), мониторинга (Zabbix, Prometheus), сбора и анализа логов (ELK, ClickHouse)\n- Умение читать код на Python\n- Желание работать в команде\nМы предлагаем:\n• Оформление по ТК РФ\n• Полностью белая зп;\n• Уровень зп обсуждается индивидуально (в соответствии с вашим уровнем и ожиданиями) ЗП вилка 100-170 тыс.руб.\n• ДМС (после испытательного срока 3 месяца)\n• Офис в центре (5 минут от м.Маяковская)\n• Чай, кофе, печеньки\n• Адекватное руководство\n• Весёлая, сильная команда\nКонтакт: @SanDevl\n\n—\n\n👉 Обсуждение вакансии в чате @devops_jobs","markup":[{"type":"hashtag","offset":0,"length":9,"data":"вакансия"},{"type":"hashtag","offset":10,"length":7,"data":"DevOps"},{"type":"hashtag","offset":18,"length":9,"data":"fulltime"},{"type":"handle","offset":1997,"length":8,"data":"SanDevl"},{"type":"handle","offset":2040,"length":12,"data":"devops_jobs"}],"date":"2020-04-07T13:49:27+00:00","link":"tg://resolve?domain=devops_jobs_feed&post=1887","tags":[{"name":"dotnet"},{"name":"linux"},{"name":"ubuntu"},{"name":"gitlab"},{"name":"docker"},{"name":"kubernetes"},{"name":"postgresql"},{"name":"ansible"},{"name":"python"}],"cities":[{"code":"moscow"}],"allowsRemote":false}},{"node":{"__typename":"Job","id":"1423966208-1001091028994","title":"Java разработчик","text":"#вакансия #backend #java #Java8 #middle #junior \nЛокация: Нижний-Новгород (есть хороший релокационный пакет)\nЗанятость: полная, гибкое начало дня\nЗП:  до 150 000 NET \n\n🔹 Вакансия в стабильной, международной компании, которая готова трудоустраивать новых специалистов в период пандемии🔥🔥🔥   \n\n🔹 Крупная немецкая компания Schumann GmbH ищет Java разработчиков (junior и middle уровня).\nКомпания Schumann более 20 лет, является лидером рынка в Европе поставляющем инновационные IT-решения по управлению кредитными рисками и по процессному консультированию. Кроме того в компании есть направления по разработке ПО для анализа финансовой отчетности и сегментации рынка. Продуктом компании пользуется многие известные бренды: Toshiba, Volvo, Росбанк и более 290 других компаний по всему миру.\n\n🔹 Требования:\nВ компании сформирована очень сильная команда разработки, поэтому есть возможность обучать новых специалистов.\n\nСейчас рассматривают два профиля кандидатов:\nJunior\n- законченные курсы/ пройденные стажировки/ мотивация\n- базовые знания Java\n- обязательный свободный английский и возможность проходить интервью\n\nНачинающий Middle\n\n- коммерческий опыт разработки на Java от 1-ого года;\n- очень желателен свободный английский, но можно и без него😊 \n\n🔹 Условия:\n- Расширенный релокационный пакет;\n- Оформление официальное, белая заработная плата и премиальная система;\n- ДМС;\n- Компенсация обучения английскому языку;\n-Широкие возможности профессионального и карьерного роста и разные другие плюшки и бонусы.\n\nКонтакты:\ne-mail: daria@luckyhunter.io\ntelegram: @prudentdaria\nПишите, буду рада ответить на все возможные вопросы здесь или по почте :)","markup":[{"type":"hashtag","offset":0,"length":9,"data":"вакансия"},{"type":"hashtag","offset":10,"length":8,"data":"backend"},{"type":"hashtag","offset":19,"length":5,"data":"java"},{"type":"hashtag","offset":25,"length":6,"data":"Java8"},{"type":"hashtag","offset":32,"length":7,"data":"middle"},{"type":"hashtag","offset":40,"length":7,"data":"junior"},{"type":"bold","offset":965,"length":7,"data":""},{"type":"bold","offset":1050,"length":12,"data":""},{"type":"bold","offset":1118,"length":19,"data":""},{"type":"link","offset":1533,"length":20,"data":"mailto:daria@luckyhunter.io"},{"type":"handle","offset":1564,"length":13,"data":"prudentdaria"}],"date":"2020-04-07T12:08:12+00:00","link":"tg://resolve?domain=jvmjobs&post=1358","tags":[{"name":"java"},{"name":"jvm"},{"name":"dotnet"}],"cities":[{"code":"nizhny-novgorod"}],"allowsRemote":false}},{"node":{"__typename":"Job","id":"1976565760-1001134745498","title":"Devops инженер","text":"#вакансия #vacancy #Москва #Moscow #fulltime #DevOps \nПозиция: DevOps / Инженер внедрения\nЛокация: Москва, м. Калужская\nВилка: 110.000-150.000 RUB net \nЗанятость: Полная\nФормат работы: офис\nКонтакты: @cated_z\nekdzolotareva@gmail.com\n \nОбязанности:\n▫️Проводить деплой;\n▫️Дорабатывать схему деплоя текущих и будущих проектов;\n▫️Перенести текущую инфраструктуру компании в код (две стойки различного оборудования с бородой из патчкордов);\n▫️Поиск проблем: взаимодействие с командой разработчиков по вопросам внедрения системы и исправления найденных в процессе внедрения недостатков;\n▫️Ведение базы знаний (у нас Confluence);\n▫️Ведение отчетной документации;\n▫️Подготовка элементов документации (описания, схемы).\n \nНеобходимые навыки: \n▫️Опыт работы с Docker, Docker-реестром, Docker-swarm (чтение структуры, запуск, конфигурирование, обслуживание, оптимизация);\n▫️Опыт работы с Windows-сервер (установка, удаление сервисов, написание конфигурации для Cocholatey реестра, PowerShell);\n▫️Опыт отладки и оптимизации сетей (просмотр трафика, обнаружение сервисов, потребляющих канал и т.д.);\n▫️Знание основных инструментов CI/CD, IasC, CasC (у нас Jenkins, BitBucket, Ansible, Terraform, Vmware, в процессе переноса инфраструктуры в облако);\n▫️Умение писать  на одном из языков: Bash, Python, Groovy;\n▫️Опыт отладки REST API;\n▫️Опыт работы с PostgreSQL (написание запросов, поиск данных);\n▫️Опыт работы с MongoDB (просмотр, поиск, редактирование данных);\n▫️Способность разбираться в сложных программных алгоритмах, логике и структуре системы.\n \nУсловия: \n▫️Официальное оформление по ТК РФ;\n▫️График работы 5/2, гибкое начало рабочего дня;\n▫️Комфортное рабочее место;\n▫️Пятидневная рабочая неделя с гибким началом рабочего дня;\n▫️Расширенный ДМС;\n▫️Скидки у компаний-партнеров;\n▫️Помощь в релокации: оплата залога + первого месяца проживания;\n▫️Офис в 7 минутах от м. Калужская, БЦ \"Neo Geo\".\n\n—\n\n👉 Обсуждение вакансии в чате @devops_jobs","markup":[{"type":"hashtag","offset":0,"length":9,"data":"вакансия"},{"type":"hashtag","offset":10,"length":8,"data":"vacancy"},{"type":"hashtag","offset":19,"length":7,"data":"Москва"},{"type":"hashtag","offset":27,"length":7,"data":"Moscow"},{"type":"hashtag","offset":35,"length":9,"data":"fulltime"},{"type":"hashtag","offset":45,"length":7,"data":"DevOps"},{"type":"handle","offset":200,"length":8,"data":"cated_z"},{"type":"link","offset":209,"length":23,"data":"mailto:ekdzolotareva@gmail.com"},{"type":"handle","offset":1921,"length":12,"data":"devops_jobs"}],"date":"2020-04-07T11:52:55+00:00","link":"tg://resolve?domain=devops_jobs_feed&post=1885","tags":[{"name":"dotnet"},{"name":"docker"},{"name":"windows"},{"name":"powershell"},{"name":"jenkins"},{"name":"ansible"},{"name":"bash"},{"name":"python"},{"name":"groovy"},{"name":"rest"},{"name":"postgresql"},{"name":"mongodb"}],"cities":[{"code":"moscow"}],"allowsRemote":false}},{"node":{"__typename":"Job","id":"1974468608-1001134745498","title":"Devops engineer","text":"#вакансия #fulltime #Москва #devops\nSenior devops engineer\nМосква, м. Павелецкая. Работа в офисе. Полная занятость.\nЗарплатная вилка: от 200 до 300 тр net, все официально, по ТК РФ.\nОтличный соц пакет. \n \nИщем опытного специалиста devops. Нужен опыт с ansible, kubernetes, debian, mysql, docker, nginх, python. Желательно: kafka, clickhouse и опыт в финтех 🙂\nЭто будет работа в команде.\n \nКомпания: Криптовалютная биржа Exmo (https://exmo.me) зарегистрирована в Великобритании, офисы компании находятся в Лондоне, Москве, Курске, Киеве и Стамбуле. \nКонтакты: @Sofiyka\n\n—\n\n👉 Обсуждение вакансии в чате @devops_jobs","markup":[{"type":"hashtag","offset":0,"length":9,"data":"вакансия"},{"type":"hashtag","offset":10,"length":9,"data":"fulltime"},{"type":"hashtag","offset":20,"length":7,"data":"Москва"},{"type":"hashtag","offset":28,"length":7,"data":"devops"},{"type":"link","offset":427,"length":15,"data":"https://exmo.me"},{"type":"handle","offset":560,"length":8,"data":"Sofiyka"},{"type":"handle","offset":603,"length":12,"data":"devops_jobs"}],"date":"2020-04-07T05:05:17+00:00","link":"tg://resolve?domain=devops_jobs_feed&post=1883","tags":[{"name":"dotnet"},{"name":"ansible"},{"name":"kubernetes"},{"name":"debian"},{"name":"mysql"},{"name":"docker"},{"name":"python"},{"name":"kafka"}],"cities":[{"code":"moscow"}],"allowsRemote":false}}]}}},"context":{}}