{"hash":"f5f6bf98bd95e769321482904cbbd488f77922fd","data":{"records":{"id":"qa","name":"qa","belongsTo":{"totalCount":208,"pageInfo":{"totalPages":21,"currentPage":12},"edges":[{"node":{"__typename":"Job","id":"103501791232-1001089317451","title":"Qa engineer","text":"#вакансия #Москва #fulltime #офис #qa #mobile\nКомпания: FunCorp\nВакансия:  QA mobile engineer\nОпыт работы: от 2-х лет\nЗарплата: 100 000 - 130 000 р. на руки\nМесторасположение: Москва, м. Белорусская\nЗанятость: fulltime, офис.\nNB! Удаленный вариант работы после выхода из карантина, к сожалению, не рассматриваем\nКонтактные данные: @chrschredinger или kristina@fun.co\n\nТребования\n- опыт тестирования мобильных приложений (iOS, Android) от года\n- опыт использования сниффера (Charles или Fiddler / Wireshark / Mitmproxy)\n- опыт работы с Android Studio / XCode\n- опыт работы с Firebase\n\nОбязанности\n- ручное тестирование (функциональное / регрессионное / исследовательское)\n- написание тестовых сценариев\n- тесная работа с менеджерами и разработчиками проекта\n\nУсловия\n- ДМС, включая стоматологию\n- бонусная система\n- обеды и ужины в офисе\n- бюджет на обучение и на фитнес\n- оплата участия в российских и зарубежных конференциях\n- отличный офис на м. Белорусская (БЦ «Белая площадь)","markup":[{"type":"hashtag","offset":0,"length":9,"data":"вакансия"},{"type":"hashtag","offset":10,"length":7,"data":"Москва"},{"type":"hashtag","offset":18,"length":9,"data":"fulltime"},{"type":"hashtag","offset":28,"length":5,"data":"офис"},{"type":"hashtag","offset":34,"length":3,"data":"qa"},{"type":"hashtag","offset":38,"length":7,"data":"mobile"},{"type":"bold","offset":46,"length":10,"data":""},{"type":"bold","offset":64,"length":10,"data":""},{"type":"bold","offset":94,"length":13,"data":""},{"type":"bold","offset":118,"length":10,"data":""},{"type":"bold","offset":157,"length":19,"data":""},{"type":"bold","offset":199,"length":10,"data":""},{"type":"underline","offset":226,"length":86,"data":""},{"type":"bold","offset":312,"length":19,"data":""},{"type":"handle","offset":331,"length":15,"data":"chrschredinger"},{"type":"link","offset":351,"length":15,"data":"mailto:kristina@fun.co"},{"type":"bold","offset":368,"length":11,"data":""},{"type":"bold","offset":584,"length":12,"data":""},{"type":"bold","offset":758,"length":8,"data":""}],"date":"2020-06-23T07:54:11+00:00","link":"tg://resolve?domain=qa_jobs&post=98707","tags":[{"name":"qa"},{"name":"mobile"},{"name":"ios"},{"name":"android"},{"name":"xcode"},{"name":"firebase"},{"name":"android-studio"}],"cities":[{"code":"moscow"}],"allowsRemote":false}},{"node":{"__typename":"Job","id":"103498645504-1001089317451","title":"Qa инженер","text":"#qa #вакансия #fulltime #удаленно\nКомпания: КлаудФэктори (cloudfactory.ru) \n\nCloudfactory  –компания разработчик мобильных приложений. Наша специализация это создание инвестиционных для финансовых компаний и банков на основе собственной платформы. Наши приложения входят в ТОП-100 App Store и Google Play.\n\n\nДолжность: Инженер по ручному и автоматизированному тестированию (QA & Automation Engineer)\n\nПриглашаем  инженера по тестированию в распределенную команда (~50 человек).\n\nЗП от  100к и по результатам собеседования\nОформление по ТК или возможны иные варианты сотрудничества\n\nОбязанности\n•  Тестирование мобильного приложения (приемочное, регрессионное, исследовательское)\n•  Разбор дефектов, полученных от поддержки\n•  Ведение тестовой документации\n•  Подготовка тестовой среды (формирование данных, локальные изменения хранимых процедур)\n\nТребуемые навыки\n•  Понимание принципов работы мобильного приложения\n•  Знания методов и техник тестирования\n•  Умение работать с Postman / Swagger или аналогами\n•  Умение работать с Fiddler / Charles / Mitmproxy или аналогами\n•  Базовые знания SQL\n•  Самостоятельность и самоорганизованность\n•  Опыт работы от 1 года\nЛичные качества:\n•  Аналитические способности;\n•  Системное мышление;\n•  Ответственность.\n•  Умение работать в команде.\n•  Целеустремленность.\nУсловия работы:\n•  Удаленная работа на полный рабочий день\n•  Работа в стабильной компании\n•  ЗП без задержек.\n•  Оформление по ТК РФ\n•  График работы: 5/2\n\nУ нас интересная команда и хорошие проекты (топ 100 в google play и app store)\nЕсли вас заинтересовало наше предложение, ждем ваши отклики на e-mail: guskov@cloudfactory.ru  или в Телеграмм  @ConstG","markup":[{"type":"hashtag","offset":0,"length":3,"data":"qa"},{"type":"hashtag","offset":4,"length":9,"data":"вакансия"},{"type":"hashtag","offset":14,"length":9,"data":"fulltime"},{"type":"hashtag","offset":24,"length":9,"data":"удаленно"},{"type":"link","offset":58,"length":15,"data":"http://cloudfactory.ru"},{"type":"link","offset":1615,"length":22,"data":"mailto:guskov@cloudfactory.ru"},{"type":"handle","offset":1656,"length":7,"data":"ConstG"}],"date":"2020-06-23T07:42:07+00:00","link":"tg://resolve?domain=qa_jobs&post=98704","tags":[{"name":"qa"},{"name":"playframework"},{"name":"swagger"},{"name":"sql"}],"cities":[],"allowsRemote":true}},{"node":{"__typename":"Job","id":"103497596928-1001089317451","title":"Qa engineer","text":"#вакансия #QA #фуллстек #ФТ #АТ #Москва #офис #удаленка\n\nВакансия: QA Engineer (АФТ на Ruby)\nГород: Москва м. Технопарк или удаленка\nЗарплата: от 130 000 рублей до 180 000 рублей на руки \nФормат: офис, полный день, полная занятость\nКомпания Innovative People \n\nАвтоматизация и ручное тестирование примерно 50/50. Можем предложить работу из офиса в Москве или удаленку из городов России (время работы по Мск).\n➡ Требования:\n• От 1,5 лет коммерческого опыта тестирования веб- или мобильных приложений\n• Практический опыт применения практик тест-дизайна\n• Знание Ruby\n• Опыт работы с автотестами\n\n➡ Предлагаем:\n• все по ТК РФ, белое и официальное\n• ДМС со стоматологией, программа лояльности, обучение\n• адекватное руководство (сейчас мы на удаленке и собеседования по скайпу)\n• большое комьюнити, классные команды, карьерный рост\n• Macbook\n• помогаем с релокацией (50 000 рублей)\n\nРезюме и вопросы @Priboch","markup":[{"type":"hashtag","offset":0,"length":9,"data":"вакансия"},{"type":"hashtag","offset":10,"length":3,"data":"QA"},{"type":"hashtag","offset":14,"length":9,"data":"фуллстек"},{"type":"hashtag","offset":24,"length":3,"data":"ФТ"},{"type":"hashtag","offset":28,"length":3,"data":"АТ"},{"type":"hashtag","offset":32,"length":7,"data":"Москва"},{"type":"hashtag","offset":40,"length":5,"data":"офис"},{"type":"hashtag","offset":46,"length":9,"data":"удаленка"},{"type":"handle","offset":896,"length":8,"data":"Priboch"}],"date":"2020-06-23T07:25:16+00:00","link":"tg://resolve?domain=qa_jobs&post=98703","tags":[{"name":"qa"},{"name":"ruby"}],"cities":[{"code":"moscow"}],"allowsRemote":true}},{"node":{"__typename":"Job","id":"103496548352-1001089317451","title":"Qa engineer","text":"#вакансия #москва #офис #qaengineer #qa \nГород и адрес офиса: Москва, м.Автозаводская \nФормат работы: офис \nЗанятость: полная \nЗарплатная вилка: от 60 000 на руки \n\n✅QA Engineer (gamedev)\n\nОписание вакансии: \n\nКрупный мобильный проект в жанре фентези - Dragon Champions - ищет своего QA! Вы сможете работать над интересной игрой на стыке мидкорных и хардкорных механик, в окружении команды больших профессионалов с многолетним опытом.\n\n✅Что делать:\n\n•  Тестирование мобильной игры: функциональное тестирование, юзабилити тестирование, регрессионное тестирование\n•  Составление документации для тестирования: тест-кейсы, тест-план, чек-листы\n•  Тесное обсуждение функциональности игры с командой разработки\n•  Заведение всех найденных багов в трекере (Jira)\n\n✅Требования:\n\n•  Опыт работы в тестировании от одного года\n•  Понимание основ тестирования ПО, тест-планов, чек-листов, регрессионного и функционального тестирования\n•  Огромным плюсом будет наличие опыта в тестировании игр, в особенности, мобильных игр на Unity\n•  Умение работать с Jira, Confluence и Unity также будет большим плюсом\n\n✅Для вас:\n\n•  Конкурентная заработная плата, выплачивается 2 раза в месяц\n•  Необходимое оборудование для работы\n•  Коллектив творческих и позитивных людей\n\n✅О нас:\n\n•  Просторный офис 600 метров на м. Автозаводская (3 минуты от метро и от ТТК на машине) с ультра современным дизайном и кучей ништяков (кухня с вкусняшками, кальяны каждый вечер в дружной кампании, PS4 Pro + 4K TV, аркадные автоматы с Pac-Man, Metal Slug и другими хитами геймдизайна, просторная зона отдыха, 6 переговорных комнат и т д)\n•  Команда из 120 человек занимающаяся паблишингом и маркетингом, которая готова сделать продукт успешным после его готовности\n•  Возможность бесплатно обучаться английскому языку с носителями каждый будний день\n\nНазвание компании: AppQuantum\n\nКонтакты: \ne-mail: bm@adquantum.com\ntelegram: @MishaBarinov","markup":[{"type":"hashtag","offset":0,"length":9,"data":"вакансия"},{"type":"hashtag","offset":10,"length":7,"data":"москва"},{"type":"hashtag","offset":18,"length":5,"data":"офис"},{"type":"hashtag","offset":24,"length":11,"data":"qaengineer"},{"type":"hashtag","offset":36,"length":3,"data":"qa"},{"type":"bold","offset":166,"length":21,"data":""},{"type":"bold","offset":437,"length":11,"data":""},{"type":"bold","offset":759,"length":11,"data":""},{"type":"bold","offset":1096,"length":8,"data":""},{"type":"bold","offset":1253,"length":6,"data":""},{"type":"link","offset":1863,"length":16,"data":"mailto:bm@adquantum.com"},{"type":"handle","offset":1890,"length":13,"data":"MishaBarinov"}],"date":"2020-06-23T07:21:35+00:00","link":"tg://resolve?domain=qa_jobs&post=98702","tags":[{"name":"qa"},{"name":"unity3d"}],"cities":[{"code":"moscow"}],"allowsRemote":false}},{"node":{"__typename":"Job","id":"103495499776-1001089317451","title":"Qa engineer","text":"#вакансия #Казань #Нижний_Новгород #Краснодар #офис #удаленно \n\n💻Компания «БАРС Груп» - ведущий российский разработчик решений для государственного и корпоративного секторов с 1992 года, входит в ТОП-15 крупнейших разработчиков России.\n\n👀Мы в поисках QA Auto Engineer на крупные государственные проекты.\n\nОт новых сотрудников мы ожидаем:\n•Знание базовых понятий и определений в тестировании;\n•Знание и уверенное владение методиками тестирования;\n•  Экспертное владение навыками составления тест-кейсов, чек-листов, баг-репортов;\n•Владение языком программирования С# / Python.\nБудет плюсом:\n•Владение инструментами тестирования Fiddler/Postman, Visual Studio, фрэймворками Nunit, restsharp, Selenium.webdriver;\n•Опыт работы с системами JIRA, git/stash.\n\n💰Уровень заработной платы: от 50000р до 150000р. \n\n⏰Рабочий день в офисе или полностью удаленно\n\n🔺Вместе мы будем работать над масштабными проектами, которые меняют к лучшему жизни людей!","markup":[{"type":"hashtag","offset":0,"length":9,"data":"вакансия"},{"type":"hashtag","offset":10,"length":7,"data":"Казань"},{"type":"hashtag","offset":18,"length":16,"data":"Нижний_Новгород"},{"type":"hashtag","offset":35,"length":10,"data":"Краснодар"},{"type":"hashtag","offset":46,"length":5,"data":"офис"},{"type":"hashtag","offset":52,"length":9,"data":"удаленно"}],"date":"2020-06-23T07:13:13+00:00","link":"tg://resolve?domain=qa_jobs&post=98701","tags":[{"name":"qa"},{"name":"python"},{"name":"selenium"},{"name":"git"},{"name":"visual-studio"}],"cities":[{"code":"kazan"},{"code":"krasnodar"},{"code":"nizhny-novgorod"}],"allowsRemote":true}},{"node":{"__typename":"Job","id":"103494451200-1001089317451","title":"Qa engineer","text":"#вакансия #Москва #офис\nДолжность: QA automation engineer\nКомпания: Открытая мобильная платформа\nГород: Москва, м.Парк Победы\nЗП: до 160к\nСтек: Python, Pytest, requests + cattrs, selenium\n\nУсловия:\n•ЗП до 160 000 гросс (в зависимости от ваших тех скиллов)\n•Участие в конференциях\n•ДМС\n•Гибкое начало рабочего дня \n\nЗадачи:\n•Разработка автоматизированных тестов (web + api), стремимся к 100% покрытию автотестами  (не unit)\n•Участие в развитии тестового framework'а\n•Командная работа с разработчиками и аналитиками (Scrum Dev Team)\n\nРассмотрим кандидатов с опытом в QA automation (Python) от полугода\n\nРезюме можно направить сюда: @Rita_RS \nили на почту: m.sinelnikova@getit.agency","markup":[{"type":"hashtag","offset":0,"length":9,"data":"вакансия"},{"type":"hashtag","offset":10,"length":7,"data":"Москва"},{"type":"hashtag","offset":18,"length":5,"data":"офис"},{"type":"bold","offset":35,"length":23,"data":""},{"type":"bold","offset":133,"length":5,"data":""},{"type":"bold","offset":189,"length":9,"data":""},{"type":"bold","offset":315,"length":8,"data":""},{"type":"bold","offset":565,"length":13,"data":""},{"type":"bold","offset":601,"length":6,"data":""},{"type":"handle","offset":630,"length":8,"data":"Rita_RS"},{"type":"link","offset":654,"length":26,"data":"mailto:m.sinelnikova@getit.agency"}],"date":"2020-06-23T07:13:09+00:00","link":"tg://resolve?domain=qa_jobs&post=98700","tags":[{"name":"qa"},{"name":"python"},{"name":"selenium"},{"name":"web"}],"cities":[{"code":"moscow"}],"allowsRemote":false}},{"node":{"__typename":"Job","id":"103487111168-1001089317451","title":"Qa инженер","text":"#Москва #офис #qa #вакансия #middle #senior\nКРИПТО-ПРО\nот 120 000 руб. до вычета НДФЛ\n\nОбязанности:\n\nРучное тестирование ПО по кейсам и без;\n\nНастраивание, развертывание тестовых сред на разнообразных ОС (MS Windows, Unix, Linux и т.д.), проверка работы нашего ПО с сетевыми и доменными службами и в интеграции с продуктами других компаний;\n\nВедение тестовой документации, описание тестирования, своевременное предоставление информации о состоянии ПО.\n\nПо вопросам, связанным с технологией продуктов, мы готовы обучать. Хотим видеть в команде внимательного, придирчивого, технически грамотного человека, не стесняющегося спросить, когда что-то не ясно, но и не делающего свою задачу задачей всех, кто его окружает. Если вы умеете планировать своё тестирование и рассказывать о текущем состоянии подукта - вы нам нужны. \n\nЕсли при этом вы умеете работать с операционными системами на уровне администратора и не боитесь командной строки - вы нам тоже нужны.\n\nУ нас есть и веб, и десктоп, и фронтенд, и бэкэнд, у нас есть облачные продукты и SDK, есть даже сетевой шлюз, и мы с вами можем подобрать то, что вам будет ближе, рутины не бывает и мы с пониманием и одобрением относимся к желанию поучиться чему-то новенькому.\n\nАвтоматизация  многих продуктов у нас уже развита и теперь мы ищем ручных тестировщиков, которые мудрее, хитрее и круче каких-то там скриптов.\n\nМы предлагаем:\n\nРаботу в современном офисе (в пешей доступности от м. Савёловская и м. Марьина роща) на полный рабочий день с гибким началом рабочего дня;\nОфициальную заработную плату по результатам собеседования;\nЗамечательных коллег и порой нетривиальные задачи;\nОтносительную свободу выбора инструментов тестирования;\nВозможность дополнительного обучения и участия в профильных конференциях;\nСокращение испытательного срока при демонстрации хорошего профессионального уровня;\nЕжегодную премию по результатам работы;\nЕщё у нас есть кухня с запасом кофе, и даже маленький спортивный зал.\nmasterica@cryptopro.ru\nhttps://hh.ru/vacancy/37244242","markup":[{"type":"hashtag","offset":0,"length":7,"data":"Москва"},{"type":"hashtag","offset":8,"length":5,"data":"офис"},{"type":"hashtag","offset":14,"length":3,"data":"qa"},{"type":"hashtag","offset":18,"length":9,"data":"вакансия"},{"type":"hashtag","offset":28,"length":7,"data":"middle"},{"type":"hashtag","offset":36,"length":7,"data":"senior"},{"type":"link","offset":1953,"length":22,"data":"mailto:masterica@cryptopro.ru"},{"type":"link","offset":1976,"length":30,"data":"https://hh.ru/vacancy/37244242"}],"date":"2020-06-23T04:34:31+00:00","link":"tg://resolve?domain=qa_jobs&post=98693","tags":[{"name":"qa"},{"name":"windows"},{"name":"unix"},{"name":"linux"}],"cities":[{"code":"moscow"}],"allowsRemote":false}},{"node":{"__typename":"Job","id":"103458799616-1001089317451","title":"Qa engineer","text":"#Москва #вакансия #QA #fulltime #test #office\n\n💻Компания: СберТех.\n🧰Вакансия: QA Engineer.\n🏢Офис: Москва, м. Нагатинская/м. Тульская/ м. Верхние Котлы.\n💰ЗП: от 150 000 Net.\n\n📂Проект: Разработка платформы для управления бизнес-процессами Банка и Цифровой Платформы Sber.\n\n🗓Задачи:\n• Работа в роли тестировщика в scrum команде.\n• Написание, актуализация тестовых сценариев и их прохождение (API, UI).\n• Проведение функционального, регрессионного, интеграционного и других видов тестирования.\n• Регистрация, отслеживание и верификация дефектов.\n• Участие в развитии команды и процессов тестирования.\n\n📌Требования: \n• Опыт написания тестовых сценариев, чек-листов, составления сложных интеграционных сценариев.\n• Знание теории тестирования, понимание видов тестирования и необходимости их применения на различных этапах реализации проекта.\n• Опыт анализа и тестирования требований.\n• Опыт тестирования rest/soap сервисов.\n• Опыт работы с BPM системами, понимание нотации BPMN 2.0.\n\n📎Cтек: REST, XML, XSD, JSON, SQL, BPMN 2.0, Docker, Kubernetes, Openshift, Kafka.\n\n🔰Условия:\n• Оформление ТК РФ.\n• ДМС для сотрудников и скидки на медицинскую страховку для родственников;\n• Высокая белая заработная плата (оклад + годовая премия).\n• Возможность обучения за счет компании, посещения IT-конференций.\n• Бесплатный тренажерный зал на территории офиса.\n• Корпоративная жизнь и спортивные мероприятия.\n\n📩Готов ответить на интересующие вопросы - @Dmiryy","markup":[{"type":"hashtag","offset":0,"length":7,"data":"Москва"},{"type":"hashtag","offset":8,"length":9,"data":"вакансия"},{"type":"hashtag","offset":18,"length":3,"data":"QA"},{"type":"hashtag","offset":22,"length":9,"data":"fulltime"},{"type":"hashtag","offset":32,"length":5,"data":"test"},{"type":"hashtag","offset":38,"length":7,"data":"office"},{"type":"handle","offset":1443,"length":7,"data":"Dmiryy"}],"date":"2020-06-22T15:07:24+00:00","link":"tg://resolve?domain=qa_jobs&post=98666","tags":[{"name":"qa"},{"name":"dotnet"},{"name":"rest"},{"name":"soap"},{"name":"xml"},{"name":"xsd"},{"name":"json"},{"name":"sql"},{"name":"docker"},{"name":"kubernetes"},{"name":"kafka"}],"cities":[{"code":"moscow"}],"allowsRemote":false}},{"node":{"__typename":"Job","id":"103450411008-1001089317451","title":"Qa инженер","text":"#тестировщик #QA #manual #СПб #fulltime #вакансия \nИнженер по тестированию middle/senior\nКомпания: Yota \nСанкт-Петербург, м. Беговая (БЦ Атлантик Сити) \nСредняя ЗП: **120 000**/на руки\nПолная занятость, офис (сейчас работаем удаленно)\n\nВсем привет! Я Олеся – HR компании Yota. В развивающуюся команду биллинга и тарификации ищем внимательного QA инженера. \nОднозначно пиши, если НЕТ опыта в автотестах, но очень хочешь расти в этом направлении. БОльшая часть времени-ручные тесты, + развитие в авто.\nТесная работа с БД (Oracle).\nИнтересные задачи: \n• Проведение приёмочного тестирования новой функциональности биллинговой системы;\n• Тестирование новых бизнес продуктов;\n• Тестирование-исследование на предмет реализуемости функционала.\n*остальное в вакансии на НН\n\nОбязательные требования: \n• Опыт работы в тестировании ПО от 2 лет; \n• Базовые знания REST API;\n• Базовые знания Linux;\n• Понимание QA как процесса обеспечения качества, знание процессов и методологий разработки ПО\n• Знания ORACLE (SQL, PL/SQL на уровне написания запросов/простых процедур).\n\nУсловия:\nДМС \nЗП полностью белая\nКофетерий: спорт, иностранные языки, корпоративные активности (футбол, теннис), клуб аналитиков и много других приятных мелочей.\nУютный новый офис в Атлантик-Сити (м.Беговая)\n\nВакансия: https://spb.hh.ru/vacancy/36958391\nОС: @olesyaromanova01","markup":[{"type":"hashtag","offset":0,"length":12,"data":"тестировщик"},{"type":"hashtag","offset":13,"length":3,"data":"QA"},{"type":"hashtag","offset":17,"length":7,"data":"manual"},{"type":"hashtag","offset":25,"length":4,"data":"СПб"},{"type":"hashtag","offset":30,"length":9,"data":"fulltime"},{"type":"hashtag","offset":40,"length":9,"data":"вакансия"},{"type":"bold","offset":75,"length":13,"data":""},{"type":"bold","offset":99,"length":4,"data":""},{"type":"bold","offset":153,"length":7,"data":""},{"type":"bold","offset":185,"length":22,"data":""},{"type":"bold","offset":301,"length":8,"data":""},{"type":"bold","offset":500,"length":18,"data":""},{"type":"bold","offset":540,"length":6,"data":""},{"type":"bold","offset":778,"length":10,"data":""},{"type":"bold","offset":1058,"length":7,"data":""},{"type":"link","offset":1277,"length":34,"data":"https://spb.hh.ru/vacancy/36958391"},{"type":"handle","offset":1316,"length":17,"data":"olesyaromanova01"}],"date":"2020-06-22T13:52:39+00:00","link":"tg://resolve?domain=qa_jobs&post=98658","tags":[{"name":"qa"},{"name":"oracle"},{"name":"rest"},{"name":"linux"},{"name":"sql"}],"cities":[],"allowsRemote":true}},{"node":{"__typename":"Job","id":"103449362432-1001089317451","title":"Qa engineer","text":"#вакансия #HQSoftware #fulltime #QA #onlyMinsk\n\nНебольшая, но очень уютная компания HQSoftware хочет сделать один из проектов  чуточку круче - и поэтому мы ищем крепкого миддла/синьёра QA\nКомпания:  HQSoftware (hqsoftwarelab.com)/85 человек в штате\nПозиция: Senior QA Engineer\nФормат и форма работы: фулл-тайм, офис Минск\n💲ЗП: 1500 - 2100$\n\nАнглийский: от крепкого Intermediate\n\n✏️Описание вакансии и задач:  \nПроект один из самых интересных, что Вы видели) Заказчиком проекта выступают британцы. Посвящен сбору, визуализации и валидации информации с автомобилей, проходящих заводское тестирование выхлопных газов на соответствие евростандартам. Автомобили напичканы датчиками.Данные с этих датчиков и списывает система, выстраивая различные графики и статистику.\nЧто нужно будет делать:\nсоздание и выполнение тестовых сценариев для нового функционала; функциональное, нефункциональное, интеграционное, регрессионное, смоук, разведывательное тестирование. В основном, мобильное тестирование на проекте. Тесное взаимодействие с РМ и командой, по рискам и статусу QA  по проекту.\nКоманда:  1 PM, 2 Front-end developers. На стороне заказчика - команда огромнейшая.\nМетодология: Scrum\n\n✅Пишите смело сюда по всем вопросам:\n@Salko_Dmitry \nd.salko@hqsoftwarelab.com (mail)\ndzmitry.salko (skype)\n✏️отзывы о нас на dev.by: https://companies.dev.by/hqsoftware\n🗽наш сайт: hqsoftwarelab.com","markup":[{"type":"hashtag","offset":0,"length":9,"data":"вакансия"},{"type":"hashtag","offset":10,"length":11,"data":"HQSoftware"},{"type":"hashtag","offset":22,"length":9,"data":"fulltime"},{"type":"hashtag","offset":32,"length":3,"data":"QA"},{"type":"hashtag","offset":36,"length":10,"data":"onlyMinsk"},{"type":"bold","offset":83,"length":11,"data":""},{"type":"bold","offset":188,"length":9,"data":""},{"type":"link","offset":211,"length":17,"data":"http://hqsoftwarelab.com"},{"type":"bold","offset":249,"length":50,"data":""},{"type":"bold","offset":324,"length":3,"data":""},{"type":"bold","offset":342,"length":11,"data":""},{"type":"bold","offset":382,"length":27,"data":""},{"type":"bold","offset":765,"length":24,"data":""},{"type":"bold","offset":1079,"length":9,"data":""},{"type":"bold","offset":1163,"length":12,"data":""},{"type":"bold","offset":1184,"length":36,"data":""},{"type":"handle","offset":1220,"length":13,"data":"Salko_Dmitry"},{"type":"link","offset":1235,"length":25,"data":"mailto:d.salko@hqsoftwarelab.com"},{"type":"link","offset":1308,"length":6,"data":"http://dev.by"},{"type":"link","offset":1316,"length":35,"data":"https://companies.dev.by/hqsoftware"},{"type":"link","offset":1364,"length":17,"data":"http://hqsoftwarelab.com"}],"date":"2020-06-22T13:42:21+00:00","link":"tg://resolve?domain=qa_jobs&post=98657","tags":[{"name":"qa"}],"cities":[{"code":"minsk"}],"allowsRemote":false}}]}}},"context":{}}