{"hash":"f5f6bf98bd95e769321482904cbbd488f77922fd","data":{"records":{"id":"javascript","name":"javascript","belongsTo":{"totalCount":272,"pageInfo":{"totalPages":28,"currentPage":7},"edges":[{"node":{"__typename":"Job","id":"17260609536-1001110946746","title":"Javascript разработчик","text":"#вакансия #javascript #typescript \n\nFrontend-разработчик (удаленно или в офисе)\n\nBlogman\n\nГород и адрес офиса: \n— Санкт-Петербург\nФормат работы:           \n— офис в Санкт-Петербурге или удаленка по России \nЗанятость:                     \n— полная / full time\nЗарплатная вилка:       \n— от 80 000 до 300 000 рублей\n\nОсновной стек технологий — JavaScript, TypeScript, HTML/CSS. Сейчас мы разрабатываем бизнес-функционал приложения и будем рады новому специалисту в нашей команде, который вольется в проект и мы вместе будем делать frontend с нативным кодом и отзывчивым интерфейсом.\n\nМы ожидаем, что у вас есть:\n🔹Опыт коммерческой разработки от 3 лет\n🔹Хорошее знание JavaScript, TypeScript, HTML/CSS;\n\nРады предложить:\n🔹Возможность работать удаленно;\n🔹Желаемый оклад по результатам собеседования;\n🔹Cистему роста зарплаты каждые 6 месяцев\n\nКонтакт: @alinablogman\nhttps://spb.hh.ru/employer/3069197?customDomain=","markup":[{"type":"hashtag","offset":0,"length":9,"data":"вакансия"},{"type":"hashtag","offset":10,"length":11,"data":"javascript"},{"type":"hashtag","offset":22,"length":11,"data":"typescript"},{"type":"handle","offset":851,"length":13,"data":"alinablogman"},{"type":"link","offset":865,"length":48,"data":"https://spb.hh.ru/employer/3069197?customDomain="}],"date":"2020-06-30T11:57:37+00:00","link":"tg://resolve?domain=javascript_jobs_feed&post=16461","tags":[{"name":"javascript"},{"name":"typescript"},{"name":"html"},{"name":"css"}],"cities":[],"allowsRemote":true}},{"node":{"__typename":"Job","id":"17258512384-1001110946746","title":"Js разработчик","text":"#вакансия #remote #frontend #Angularjs #Angular #middle #senior #удаленка \n\nФормат работы: remote \nЗанятость: fulltime\nВилка: 120-180k net \n\nНа протяжении 14 лет наша команда создает кастомные веб/мобильные приложения и дизайн. \nПриглашаем к сотрудничеству на удаленной постоянной основе опытного разработчика front-end со знанием Angular (Angular.js/Angular 9). \nПроект:  продукт для крупного бизнеса (USA) \n\nЗадачи: разработка front-end части на Anagular. \n\nНазвание компании: Softlight \n\nТребования: \nОпыт в разработке front-end на Angular.js обязательный;\nОпыт работы с  Angular 9 \n JavaScript, HTML5/CSS3 \nработа в распределенной команде \n\nМы предлагаем:\n- Полностью удаленную работу\n- Участие в разработке зарубежных продуктов (USA)\n- Пятидневная рабочая неделя ( с 9-10 до 18-19 МСК), госпраздники - выходные\n- Оформление ИП\n- Оплачиваемый отпуск и больничный \n- Работу в слаженной опытной команде \n\nP.S. рассмотрим парт-тайм занятость 20ч в неделю \n\nКонтакты: @MikeHR или mzaharov@softlightllc.com","markup":[{"type":"hashtag","offset":0,"length":9,"data":"вакансия"},{"type":"hashtag","offset":10,"length":7,"data":"remote"},{"type":"hashtag","offset":18,"length":9,"data":"frontend"},{"type":"hashtag","offset":28,"length":10,"data":"Angularjs"},{"type":"hashtag","offset":39,"length":8,"data":"Angular"},{"type":"hashtag","offset":48,"length":7,"data":"middle"},{"type":"hashtag","offset":56,"length":7,"data":"senior"},{"type":"hashtag","offset":64,"length":9,"data":"удаленка"},{"type":"handle","offset":968,"length":7,"data":"MikeHR"},{"type":"link","offset":980,"length":25,"data":"mailto:mzaharov@softlightllc.com"}],"date":"2020-06-30T11:56:03+00:00","link":"tg://resolve?domain=javascript_jobs_feed&post=16459","tags":[{"name":"javascript"},{"name":"angularjs"},{"name":"dotnet"},{"name":"html"},{"name":"css"}],"cities":[],"allowsRemote":true}},{"node":{"__typename":"Job","id":"17256415232-1001110946746","title":"Js developer","text":"#вакансия #удаленка #nodejs \n\nRocketech.it ищет Middle+ Backend Node.js Developer\n\nФормат занятости: удаленка\nЗанятость: full-time\nЗарплатная вилка: 2400-2700$/месяц на руки\nОформление: по договоренности\n\nО компании: \n\nRocketech - компания, предоставляющая полноценные продуктовые команды для инвесторов, стартаперов и крупных компаний. Мы уже больше 5 лет на рынке разработки програмного обеспечения. Сотни выполненых кейсов, десятки крупных клиентов. \n\nО проекте:\n\nМаркетинговый инструмент.\n\nСтек технологий: \n\nNest.js, MongoDB\n\nТребования: \n\n3+ года опыта коммерческой разработки на Node.js\n\nБудет плюсом:\n\nРазговорный английский\n\nКонтакт: @mxm_at","markup":[{"type":"hashtag","offset":0,"length":9,"data":"вакансия"},{"type":"hashtag","offset":10,"length":9,"data":"удаленка"},{"type":"hashtag","offset":20,"length":7,"data":"nodejs"},{"type":"link","offset":30,"length":12,"data":"http://Rocketech.it"},{"type":"handle","offset":643,"length":7,"data":"mxm_at"}],"date":"2020-06-30T11:55:24+00:00","link":"tg://resolve?domain=javascript_jobs_feed&post=16457","tags":[{"name":"javascript"},{"name":"nodejs"},{"name":"mongodb"}],"cities":[],"allowsRemote":true}},{"node":{"__typename":"Job","id":"17255366656-1001110946746","title":"Js разработчик","text":"#вакансия #Москва #nodejs #офис\n\nКомпания Proscom ищет Middle/Senior Backend (Node.js) разработчика\n\nФормат занятости: Офис около м. Серпуховская/Павелецкая.\nЗанятость: полная \nЗарплатная вилка: 130 000 - 240 000 рублей/месяц (по результатам собеседования)\n\nО компании: \n\nС 2013 года создаем интерфейсы, веб-сайты,\nмобильные приложения для крупных\nправительственных организаций и\nкоммерческих предприятий\n\nЗадачи:\n\nВести разработку как новых проектов, так и поддерживать уже существующий код. \n\nСтек:\n\nNode.js, GraphQL, REST, Nest.js, TypeScript, CRDT, MySQL, PostreSQL, Git, Docker\n\nТребования:\n\nОт 1 года опыта работы с Node.js, от 2х лет опыта программирования\n\nКонтакт: @mxm_at","markup":[{"type":"hashtag","offset":0,"length":9,"data":"вакансия"},{"type":"hashtag","offset":10,"length":7,"data":"Москва"},{"type":"hashtag","offset":18,"length":7,"data":"nodejs"},{"type":"hashtag","offset":26,"length":5,"data":"офис"},{"type":"handle","offset":674,"length":7,"data":"mxm_at"}],"date":"2020-06-30T11:55:06+00:00","link":"tg://resolve?domain=javascript_jobs_feed&post=16456","tags":[{"name":"javascript"},{"name":"nodejs"},{"name":"graphql"},{"name":"rest"},{"name":"typescript"},{"name":"mysql"},{"name":"git"},{"name":"docker"}],"cities":[{"code":"moscow"}],"allowsRemote":false}},{"node":{"__typename":"Job","id":"17254318080-1001110946746","title":"Js developer","text":"#вакансия #FrontendDeveloper #AngularJS #JavaScript #HTML5 #CSS3 #Senior #Middle \nГород: Минск \nФормат работы: офис \nЗанятость: полная занятость, полный день\nЗарплатная вилка: 2000 - 4000$\nОписание вакансии: Front-end Developer (AngularJS)\nПроект - Web-сайт\nНеобходимый стек:\n- Глубокие знания JavaScript, AngularJS (1) и принципов работы современных браузеров\n- Отличный уровень знаний HTML5/CSS3\n- Опыт работы с пре- и пост-процессорами (SCSS/LESS/Stylus/PostCSS)\n- Очень желателен опыт работы с React\n- Понимание особенностей кроссбраузерности и адаптивности, умение создавать сложные адаптивные интерфейсы без использования фреймворков.\nНазвание компании: WakeApp (https://wakeapp.ru)\nКонтакты: Telegram - @Katherine_Faleichik","markup":[{"type":"hashtag","offset":0,"length":9,"data":"вакансия"},{"type":"hashtag","offset":10,"length":18,"data":"FrontendDeveloper"},{"type":"hashtag","offset":29,"length":10,"data":"AngularJS"},{"type":"hashtag","offset":40,"length":11,"data":"JavaScript"},{"type":"hashtag","offset":52,"length":6,"data":"HTML5"},{"type":"hashtag","offset":59,"length":5,"data":"CSS3"},{"type":"hashtag","offset":65,"length":7,"data":"Senior"},{"type":"hashtag","offset":73,"length":7,"data":"Middle"},{"type":"link","offset":669,"length":18,"data":"https://wakeapp.ru"},{"type":"handle","offset":710,"length":20,"data":"Katherine_Faleichik"}],"date":"2020-06-30T11:54:45+00:00","link":"tg://resolve?domain=javascript_jobs_feed&post=16455","tags":[{"name":"javascript"},{"name":"angularjs"},{"name":"html"},{"name":"css"},{"name":"web"},{"name":"reactjs"}],"cities":[{"code":"minsk"}],"allowsRemote":false}},{"node":{"__typename":"Job","id":"17246978048-1001110946746","title":"Js developer","text":"#Харьков #офис #FullTime #вакансия #Middle #FullStack #Node #Vue \n\nКомпания: Business Process Technologies\nГород: Харьков, Гимназическая Набережная 24\nФормат работы: офис\nЗанятость: полная \nЗарплатная вилка: 2000 - 3500$ (50% налога берем на себя) \n\nОписание вакансии \nВсем привет\nВ продуктовую компанию на наши проекты ищем Middle Full Stack Node\\Vue.JS Developer \nТребования\n— Опыт работы с Vue от 2х лет\n— Опыт работы с SSR (nuxt, gridsome etc.)\n— Опыт работы с node (express || adonis || sails) от 1 года\n— Опыт работы как FullStack от 1,5 лет\n— Понимание принципов ООП, S.O.L.I.D., паттернов разработки и архитектуры приложений\n— Опыт работы с HTML/CSS\n— Опыт работы с GIT\n— Опыт работы с MySQL, MongoDB\n— Английский на уровне чтения тех документации\n\nБудет плюсом\n\n— Опыт работы с tailwindcss, bootstrap или vuetify\n— Опыт работы с firebase\n— Опыт работы с Docker\n\nУДАЛЕННОЕ СОТРУДНИЧЕСТВО НЕ РАССМАТРИВАЕМ\n\nКонтакты:\n@nataliashlyahova \nSkype live:shlyahovanatalia","markup":[{"type":"hashtag","offset":0,"length":8,"data":"Харьков"},{"type":"hashtag","offset":9,"length":5,"data":"офис"},{"type":"hashtag","offset":15,"length":9,"data":"FullTime"},{"type":"hashtag","offset":25,"length":9,"data":"вакансия"},{"type":"hashtag","offset":35,"length":7,"data":"Middle"},{"type":"hashtag","offset":43,"length":10,"data":"FullStack"},{"type":"hashtag","offset":54,"length":5,"data":"Node"},{"type":"hashtag","offset":60,"length":4,"data":"Vue"},{"type":"handle","offset":924,"length":17,"data":"nataliashlyahova"}],"date":"2020-06-30T11:51:49+00:00","link":"tg://resolve?domain=javascript_jobs_feed&post=16448","tags":[{"name":"javascript"},{"name":"nodejs"},{"name":"vuejs"},{"name":"express"},{"name":"html"},{"name":"css"},{"name":"git"},{"name":"mysql"},{"name":"mongodb"},{"name":"bootstrap"},{"name":"firebase"},{"name":"docker"}],"cities":[],"allowsRemote":false}},{"node":{"__typename":"Job","id":"17245929472-1001110946746","title":"Js developer","text":"#Харьков #офис #FullTime #вакансия #Middle #Vue \n\nКомпания: Business Process Technologies\nГород: Харьков, Гимназическая Набережная 24\nФормат работы: офис\nЗанятость: полная \nЗарплатная вилка: 2500 - 3500$ (50% налога берем на себя) \n\nОписание вакансии \nВсем привет\nВ продуктовую компанию на Blockchaine проект ищем Middle Vue.JS Developer \nТребования\n-   2+ года профессионального опыта фронтенд разработки.\n-   1+ год профессионального опыта работы с Vue/Vuex.\n-   Хотябы pre-intermediate английский.\n- Отличные знания JavaScript (ES6+, closures, promises, etc).\n - Умение писать эффективный и поддерживаемы асинхронный код.\n - Опыт работы с Git, Webpack, REST.\n\nБудет плюсом\n\n  Понимание основ blockchain.\n  Опыт бэкенд разработки.\n\nКонтакты:\n@nataliashlyahova \nSkype live:shlyahovanatalia","markup":[{"type":"hashtag","offset":0,"length":8,"data":"Харьков"},{"type":"hashtag","offset":9,"length":5,"data":"офис"},{"type":"hashtag","offset":15,"length":9,"data":"FullTime"},{"type":"hashtag","offset":25,"length":9,"data":"вакансия"},{"type":"hashtag","offset":35,"length":7,"data":"Middle"},{"type":"hashtag","offset":43,"length":4,"data":"Vue"},{"type":"handle","offset":744,"length":17,"data":"nataliashlyahova"}],"date":"2020-06-30T11:51:01+00:00","link":"tg://resolve?domain=javascript_jobs_feed&post=16447","tags":[{"name":"javascript"},{"name":"vuejs"},{"name":"git"},{"name":"webpack"},{"name":"rest"}],"cities":[],"allowsRemote":false}},{"node":{"__typename":"Job","id":"17244880896-1001110946746","title":"Js разработчик","text":"#вакансия #удаленка #junior #reactjs #remote\n\nГород и адрес офиса: Москва, удаленка\n\nФормат работы: удаленка\n\nЗанятость: полная\n\nЗарплатная вилка:  от 15000р до 25000р\n\n\nОписание вакансии: \nМы ищем стажера или джуна на стажировку React-разработчика :)\n\n\nНеобходимые знания:\nБазовые знания html / css / js\nЖелание развиваться в front-end разработке, особеннов в React\nРазвитое логическое мышление\nСтремление развиваться и создавать не только функциональные, но и удобные продукты\nПреимуществом будет опыт разработки в роли front-end разработчика\n\n\nОбязанности:\nСоздание веб-сервиса в роли front-end разработчика (стажера) на React\nучастие в полном цикле работы команды: от планирования до релиза\nвозможность участвовать\n\nПредлагем: \nИнтересные и сложные задачи для улучшения скиллов React-разработчика\nнаставника, который будет помогать и подсказывать \nудаленную работу с комфортным графиком\nвознаграждение по итогам стажировки\n\nНазвание компании: Outlines tech\n\nКонтакты: телеграм @MrNapcae","markup":[{"type":"hashtag","offset":0,"length":9,"data":"вакансия"},{"type":"hashtag","offset":10,"length":9,"data":"удаленка"},{"type":"hashtag","offset":20,"length":7,"data":"junior"},{"type":"hashtag","offset":28,"length":8,"data":"reactjs"},{"type":"hashtag","offset":37,"length":7,"data":"remote"},{"type":"handle","offset":981,"length":9,"data":"MrNapcae"}],"date":"2020-06-30T11:47:46+00:00","link":"tg://resolve?domain=javascript_jobs_feed&post=16446","tags":[{"name":"javascript"},{"name":"reactjs"},{"name":"html"},{"name":"css"}],"cities":[{"code":"moscow"}],"allowsRemote":true}},{"node":{"__typename":"Job","id":"17242783744-1001110946746","title":"Js разработчик","text":"#вакансия #владимир #удаленно #middle #angular #fulltime \n\nИщем frontend разработчика для работы над основным сайтом и новыми разделами.\nГород и адрес офиса: Владимир\nФормат работы: Удаленно/Офис\nЗанятость: полная\nЗарплатная вилка: 75 000 — 100 000 на руки по результатам технического собеседования\n\nСайт компании: srvhub.ru\n\nВ технической команде 70 человек.\n\nОбязанности:\n▫ Самостоятельно разрабатывать ПО;\n▫ Тестировать продукт;\n▫ Запускать ПО в работу;\n▫ Корректировать ПО на основе анализа выходных данных;\n▫ Разрабатывать инструкции по работе с ПО, оформлять необходимую техническую документацию.\nТребования:\n▪ Опыт разработки от 1-2 лет;\n▪ Уверенное знание JavaScript;\n▪ работа с DOM;\n▪ понимание EventLoop (задачи, микрозадачи , animation frames);\n▪ браузерное API;\n▪ Опыт работы с Figma/Zeplin;\n▪ Работа с сетью (кэширование, безопасность)\n▪ Уверенное знание HTML, CSS3:\n Владение адаптивной вёрсткой\n БЭМ (для CSS)\n Умение оптимально выбрать способ отображения графики, растр, вектор (SVG)\n Оптимизация трафика\n RxJS\nPromise (async, await)\nGit, Git-flow\n\nЖелательно:\n◾ Хорошее знание или желание изучить Angular последней версии;\n◾ Владение адаптивной вёрсткой\n◾ БЭМ (для CSS)\n◾ Умение оптимально выбрать способ отображения графики, растр, вектор (SVG)\n◾ Оптимизация трафика\n◾ RxJS, Promise (async, await), Git, Git-flow.\n\nУсловия:\n\n▫ Комфортный офис в центре г.Владимира;\n▫ Оформление по ТК РФ с первого рабочего дня;\n▫ Возможность работать удалённо;\n▫ Полностью белая заработная плата;\n▫ Неформальная атмосфера и дружный, амбициозный коллектив;\n▫ Корпоративная скидка на изучение английского языка.\n\nКонтакт: https://t.me/olya_fru","markup":[{"type":"hashtag","offset":0,"length":9,"data":"вакансия"},{"type":"hashtag","offset":10,"length":9,"data":"владимир"},{"type":"hashtag","offset":20,"length":9,"data":"удаленно"},{"type":"hashtag","offset":30,"length":7,"data":"middle"},{"type":"hashtag","offset":38,"length":8,"data":"angular"},{"type":"hashtag","offset":47,"length":9,"data":"fulltime"},{"type":"link","offset":315,"length":9,"data":"http://srvhub.ru"},{"type":"link","offset":1621,"length":21,"data":"https://t.me/olya_fru"}],"date":"2020-06-30T08:31:24+00:00","link":"tg://resolve?domain=javascript_jobs_feed&post=16444","tags":[{"name":"javascript"},{"name":"angularjs"},{"name":"html"},{"name":"css"},{"name":"svg"},{"name":"rxjs"},{"name":"git"}],"cities":[{"code":"vladimir"}],"allowsRemote":true}},{"node":{"__typename":"Job","id":"17241735168-1001110946746","title":"Js разработчик","text":"#вакансия #frontend #Москва #fulltime #middle #senior #react #работа\nГород и адрес офиса: Москва, между метро Нагатинская и Тульская, мцк Верхние котлы \nФормат работы: офис\nЗанятость:полная\nОплата: 180-250 тыс. рублей\nОписание вакансии:\n💥Команда СберТеха  ищет сильного Frontend-разработчика!🙌\n💥Проект «Управление сбойными ситуациями, возникающими при работе банковских процессов». Система находится в промышленной эксплуатации, имеет пользовательский интерфейс для ручного разбора инцидентов ( реализован на React JS).Продукт активно развивается, поэтому мы хотим усилить нашу команду. От нас вы получите опыт и развитие компетенций, амбициозные задачи, карьерный рост и открытость к инновациям!\n💥Стек: React JS, react-redux, webPack, CSS, HTML, Java, Spring, Git, Maven.\n💥 Процесс разработки : Scrum, Jira, Gitflow, DevOps до Production (переход на OpenShift)\n💥-Оформление ТК РФ;\n     -ДМС;\n     - Белая заработная плата (оклад + годовая премия);\n     -Возможность обучения за счет компании;\n     -   Льготное кредитование;\n      -Бесплатный тренажерный зал на территории офиса;\n       - корпоративная жизнь и спортивные мероприятия;\n       -возможность карьерного роста.\nКомпания: СберТех\nКонтакты: @TaliaHR","markup":[{"type":"hashtag","offset":0,"length":9,"data":"вакансия"},{"type":"hashtag","offset":10,"length":9,"data":"frontend"},{"type":"hashtag","offset":20,"length":7,"data":"Москва"},{"type":"hashtag","offset":28,"length":9,"data":"fulltime"},{"type":"hashtag","offset":38,"length":7,"data":"middle"},{"type":"hashtag","offset":46,"length":7,"data":"senior"},{"type":"hashtag","offset":54,"length":6,"data":"react"},{"type":"hashtag","offset":61,"length":7,"data":"работа"},{"type":"handle","offset":1208,"length":8,"data":"TaliaHR"}],"date":"2020-06-30T08:30:19+00:00","link":"tg://resolve?domain=javascript_jobs_feed&post=16443","tags":[{"name":"javascript"},{"name":"reactjs"},{"name":"redux"},{"name":"webpack"},{"name":"css"},{"name":"html"},{"name":"java"},{"name":"spring"},{"name":"git"},{"name":"maven"},{"name":"react-redux"}],"cities":[{"code":"moscow"}],"allowsRemote":false}}]}}},"context":{}}