{"hash":"f5f6bf98bd95e769321482904cbbd488f77922fd","data":{"records":{"id":"reactjs","name":"reactjs","belongsTo":{"totalCount":182,"pageInfo":{"totalPages":19,"currentPage":16},"edges":[{"node":{"__typename":"Job","id":"16948133888-1001110946746","title":"Js разработчик","text":"#вакансия #удаленка #gamedev #геймдев #job #работа #JavaScript #WebGL #AR #8thwall #React #JS  #ReactNative #WebAR \n\n🔹 Название компании: https://twin3d.ru\n🔹 Город и адрес офиса: Москва\n🔹 Формат работы: Удаленка, проектная работа\n🔹 Занятость: На полный рабочий день (2 месяца)\n🔹 Зарплатная вилка: 100 000 - 150 000 руб\n\n🔥 Описание вакансии: React Native + JavaScript Frontend или Fullstack разработчик на игровой WebAR проект на iOS и Android (safari, chrome, opera).\nУдаленно, полный рабочий день, проектно на 2+ месяца.\n\n🛎 Требования:\n- JavaScript, а именно three.js, ar.js, node.js\n- React Native\n- Опыт c AR и мобильными игровыми проектами будет огромным плюсом\n- Опыт работы с Web проектами\n- Опыт сборки в приложение 3D моделей и анимаций\n- Уровень Middle или Senior\n- Опыт коммерческой разработки +3 года\n- Наличие портфолио - ссылок на успешно реализованные проекты\n\n💻 Обязанности:\n- Разработать архитектуру приложения\n- Коммуникация с беком на стороне заказчика\n- Верстка/сборка дизайна приложения (адаптивная)\n- Настройка логики\n- Интеграция в приложение и настройка 3D моделей, анимаций\n- Сопровождение проекта после релиза, до завершения промо кампании (+4 месяца) без активной разработки (будем оплачивать почасово или по задачам)\n\n☎️ Контакты: присылайте ссылки на реализованные проекты и финансовые ожидания в телеграм: @shemetvlad","markup":[{"type":"hashtag","offset":0,"length":9,"data":"вакансия"},{"type":"hashtag","offset":10,"length":9,"data":"удаленка"},{"type":"hashtag","offset":20,"length":8,"data":"gamedev"},{"type":"hashtag","offset":29,"length":8,"data":"геймдев"},{"type":"hashtag","offset":38,"length":4,"data":"job"},{"type":"hashtag","offset":43,"length":7,"data":"работа"},{"type":"hashtag","offset":51,"length":11,"data":"JavaScript"},{"type":"hashtag","offset":63,"length":6,"data":"WebGL"},{"type":"hashtag","offset":70,"length":3,"data":"AR"},{"type":"hashtag","offset":74,"length":8,"data":"8thwall"},{"type":"hashtag","offset":83,"length":6,"data":"React"},{"type":"hashtag","offset":90,"length":3,"data":"JS"},{"type":"hashtag","offset":95,"length":12,"data":"ReactNative"},{"type":"hashtag","offset":108,"length":6,"data":"WebAR"},{"type":"link","offset":139,"length":17,"data":"https://twin3d.ru"},{"type":"handle","offset":1343,"length":11,"data":"shemetvlad"}],"date":"2020-06-15T18:52:35+00:00","link":"tg://resolve?domain=javascript_jobs_feed&post=0","tags":[{"name":"javascript"},{"name":"reactjs"},{"name":"ios"},{"name":"android"},{"name":"safari"},{"name":"nodejs"},{"name":"web"},{"name":"react-native"}],"cities":[{"code":"moscow"}],"allowsRemote":true}},{"node":{"__typename":"Job","id":"16943939584-1001110946746","title":"Js разработчик","text":"#вакансия #remote #Javascript #React #Node.js\n\nЛокация: из любой точки мира\nФормат работы: удаленно\nЗанятость: от 8 часов/неделю\nЗаработная плата: от 20-000 до 100.000 рублей (нетто), заработная плата складывается из количества проверенных проектов\n\nОписание вакансии: Яндекс.Практикум — сервис онлайн-образования, ежемесячно запускает обучение по направлению веб-разработки. Нам требуется Code reviewer (HTML, CSS, JavaScript) со знанием английского языка. Код-ревьер проверяет написанный студентом международного потока код и даёт обратную связь на английском языке. Код-ревьюер решает: зачесть задание или нет. Также он даёт советы по улучшению кода, отмечает неточности, указывает на ошибки. Вся коммуникация проходит на английском языке.м. Примерная занятость - от 8 часов в неделю (но можно и больше :) Рабочий язык - английский.\nТребования:\n✔Опыт работы веб-разработчиком от одного года;\n✔ Знание HTML, CSS, JavaScript и Node.js;\n✔ Умение грамотно писать на английском языке;\n✔ Готовность посвящать проекту минимум восемь часов в неделю.\n\nНазвание компании: Яндекс.Практикум https://practicum.yandex.com/\n\nКонтакты: чтобы откликнуться, отправьте резюме с пометкой на какую позицию вы претендуете на адрес ilinovamarian@yandex-team.ru","markup":[{"type":"hashtag","offset":0,"length":9,"data":"вакансия"},{"type":"hashtag","offset":10,"length":7,"data":"remote"},{"type":"hashtag","offset":18,"length":11,"data":"Javascript"},{"type":"hashtag","offset":30,"length":6,"data":"React"},{"type":"hashtag","offset":37,"length":5,"data":"Node"},{"type":"link","offset":1082,"length":29,"data":"https://practicum.yandex.com/"},{"type":"link","offset":1212,"length":28,"data":"mailto:ilinovamarian@yandex-team.ru"}],"date":"2020-06-15T18:42:02+00:00","link":"tg://resolve?domain=javascript_jobs_feed&post=0","tags":[{"name":"javascript"},{"name":"reactjs"},{"name":"nodejs"},{"name":"html"},{"name":"css"}],"cities":[],"allowsRemote":true}},{"node":{"__typename":"Job","id":"16942891008-1001110946746","title":"Js разработчик","text":"Greenatom.ru\n#вакансия #Москва #javascript #React #Typescript #Node.js #Middle #Senior #удаленка #удаленная работа \n\n👨🏼‍💻 Middle/Senior Frontend Developer, Middle/Senior Backend Developer\nГород и адрес офиса: #Москва, БЦ Сириус Парк, метро Нагатинская\n\n✅Формат работы: \nУДАЛЕННАЯ РАБОТА\n\n💻Занятость: полная, гибкое начало трудового дня.\n\nЗарплатная вилка: от 170 000 до 230 000 руб. на руки.\n\n🏢Компания: АО Гринатом\n\nПривет! Мы растём и активно развиваем ряд внутренних проектов: например, корпоративный портал, горячая линия, собственная кадровая система. Мы формируем НЕСКОЛЬКО КОМАНД и ищем классных:\n\n✅фронтенд разработчиков;\n\n✅бэкенд разработчиков. \n\nПроекты в стадии разработки пилота и у тебя есть возможность повлиять на дальнейшее развитие продукта. Если у тебя есть крутые идеи - ты сможешь их здесь реализовать! Откликайся сам и зови друзей! Вирус пройдёт, работа останется!\n\n✅Требуемые знания и навыки:\n- Опыт разработки от двух лет\n- Хорошее знание чистого JS\n- Опыт работы с TypeScript\n- React, MobX, Less/Sass\n- Опыт написания юнит-тестов с помощью Jest, Enzymе очень приветствуется\n\n💡Наш стек:\n      React, TypeScript, Node.js, MobX, Docker\n\nМы работаем по Scrum.\n\n✅Условия:\n- Официальное оформление по ТК, белая зп;\n- Возможности профессионального и карьерного роста;\n- Дополнительные 3 дня к отпуску;\n- Плавающее начало дня;\n- ДМС со стоматологией\n\n☎️Контакты:\nЮлия - YAnZueva@Greenatom.ru","markup":[{"type":"link","offset":0,"length":12,"data":"http://Greenatom.ru"},{"type":"hashtag","offset":13,"length":9,"data":"вакансия"},{"type":"hashtag","offset":23,"length":7,"data":"Москва"},{"type":"hashtag","offset":31,"length":11,"data":"javascript"},{"type":"hashtag","offset":43,"length":6,"data":"React"},{"type":"hashtag","offset":50,"length":11,"data":"Typescript"},{"type":"hashtag","offset":62,"length":5,"data":"Node"},{"type":"hashtag","offset":71,"length":7,"data":"Middle"},{"type":"hashtag","offset":79,"length":7,"data":"Senior"},{"type":"hashtag","offset":87,"length":9,"data":"удаленка"},{"type":"hashtag","offset":97,"length":10,"data":"удаленная"},{"type":"hashtag","offset":212,"length":7,"data":"Москва"},{"type":"link","offset":1392,"length":21,"data":"mailto:YAnZueva@Greenatom.ru"}],"date":"2020-06-15T18:41:43+00:00","link":"tg://resolve?domain=javascript_jobs_feed&post=0","tags":[{"name":"javascript"},{"name":"reactjs"},{"name":"typescript"},{"name":"nodejs"},{"name":"sass"},{"name":"docker"}],"cities":[{"code":"moscow"}],"allowsRemote":true}},{"node":{"__typename":"Job","id":"16938696704-1001110946746","title":"Javascript developer","text":"#вакансия #удаленка #react\n\nRocketech.it срочно ищет Senior Frontend React Developer\n\nФормат занятости: удаленка\nЗанятость: fulltime\nЗарплатная вилка: 2200 -2700$/месяц на руки\n\nО компании: \n\nRocketech - компания, предоставляющая полноценные продуктовые команды для инвесторов, стартаперов и крупных компаний. Мы уже больше 5 лет на рынке разработки програмного обеспечения. Сотни выполненых кейсов, десятки крупных клиентов. \n\nО проекте:\n\nМаркетинговый инструмент.\n\nСтек технологий: \n\nTypeScript, React, CRA, less, mobx, antd\n\nТребования: \n\n3+ года опыта коммерческой разработки в frontend\n\nБудет плюсом:\n\nРазговорный английский\n\nКонтакт: @mxm_at\n\n—\n\n👉 Обсуждение вакансии в чате @javascript_jobs","markup":[{"type":"hashtag","offset":0,"length":9,"data":"вакансия"},{"type":"hashtag","offset":10,"length":9,"data":"удаленка"},{"type":"hashtag","offset":20,"length":6,"data":"react"},{"type":"link","offset":28,"length":12,"data":"http://Rocketech.it"},{"type":"handle","offset":640,"length":7,"data":"mxm_at"},{"type":"handle","offset":682,"length":16,"data":"javascript_jobs"}],"date":"2020-06-15T14:35:41+00:00","link":"tg://resolve?domain=javascript_jobs_feed&post=0","tags":[{"name":"javascript"},{"name":"reactjs"},{"name":"typescript"}],"cities":[],"allowsRemote":true}},{"node":{"__typename":"Job","id":"16933453824-1001110946746","title":"Js разработчик","text":"#вакансия #офис #fulltime #frontend  #react #teamlead\n\nКомпания: Алгоритмика \nПозиция: Frontend Team Lead (React)\nФормат работы: офис, fulltime\nГород: Москва\n\nЗарплатная вилка: от 200 до 300 т.р на руки \n\nЗадачи:\n•  Разработка веб-интерфейсов на React\\Redux\n•  Построить комфортную и эффективную жизнь в команде разработки: нанимать новых сотрудников, помогать развиваться существующим;\n•  Внедрять и развивать инструментарий и процессы разработки;\n•  Контролировать процесс разработка крупного образовательного приложения на React + Redux и собственной платформы онлайн-конференций (WebRTC);\n\nТребования:\n•  Опыт в разработке не менее 3 лет;\n•  Опыт работы старшим разработчиком / архитектором / лидом frontend-команды от 1 года;\n•  Опыт разработки под React + Redux от 1 года;\n•  Опыт разработки библиотек UI компонентов (мы используем Storybook);\n•  Любовь к статической типизации JavaScript (TypeScript);\n•  Опыт работы по гибким методологиям (Scrum, Kanban и т.д.);\n\nБудет плюсом:\n•  Опыт работы с unit-тестами;\n•  Понимание основ работы WebRTC;\n•  Опыт в использовании и настройке систем сборки (webpack);\n•  Опыт работы по гибким методологиям (Scrum, Kanban и т.д.);\n\nСтек: \n•  React/Redux + redux-observable (RxJs)\n•  Styled Components\n•  ES6\n•  Storybook\n•  WebRTC (ilb-jitsi-meet)\n\nКонтакт: @Lykovpsy","markup":[{"type":"hashtag","offset":0,"length":9,"data":"вакансия"},{"type":"hashtag","offset":10,"length":5,"data":"офис"},{"type":"hashtag","offset":16,"length":9,"data":"fulltime"},{"type":"hashtag","offset":26,"length":9,"data":"frontend"},{"type":"hashtag","offset":37,"length":6,"data":"react"},{"type":"hashtag","offset":44,"length":9,"data":"teamlead"},{"type":"handle","offset":1301,"length":9,"data":"Lykovpsy"}],"date":"2020-06-15T14:05:29+00:00","link":"tg://resolve?domain=javascript_jobs_feed&post=0","tags":[{"name":"javascript"},{"name":"reactjs"},{"name":"redux"},{"name":"typescript"},{"name":"webpack"},{"name":"rxjs"},{"name":"react-redux"}],"cities":[{"code":"moscow"}],"allowsRemote":false}},{"node":{"__typename":"Job","id":"16931356672-1001110946746","title":"Js разработчик","text":"Друзья, ура! В связи с продолжающимся ростом и развитием, следующие 10 дней ищем себе боевого товарища и коллегу! 🎉\n\n🎸 Трудолюбивый JavaScript (React.js) Engineer, приди!\n\n🔖 #вакансия / #remote #удаленка / #полная #fulltime / #reactjs #javascript\n\nЭта не просто вакансия. Это возможность для стабильного профессионального, финансового и карьерного роста. Мы уделяем большое внимание системности, общей продуктивности и согласованности совместной работы, поэтому ищем коллегу на удалённый (remote) формат работы.\n\n\n📲 Кто мы?\n\n→ Компания Axept занимается консалтингом и заказной разработкой программных продуктов.\n→ Наши клиенты – крупные корпорации в России, профессионалы из Европы, Сингапура и Японии.\n→ Текущий портфель проектов – Личные кабинеты, ERP, Поисковые системы, CRM, dashboards, Социальные сети, мобильные приложения.\n→ Центры разработки находится в Москве. Но 70% сотрудников работают удалённо.\n→ Ключевой момент — мы относимся к проектам наших клиентов ❤️, как к своим собственным, с любовью и максимальной ответственностью.\n→ Мы любим то, что делаем. Более подробно здесь – www.axept.com/ru-ru/jobs\n\n🎸 Чем предстоит заниматься?\n\n→ Разрабатывать и развивать веб-приложения с нами, используя React.js, Redux, TypeScript, Styled Components, иногда – Node.js, React Native и GraphQL.\n→ Принимать архитектурные решения и думать наперёд.\n→ Влиять на развитие команды разработки и выбор технологий в проекте.\n→ Активно учиться, развиваться и делиться знаниями с коллегами.\n→ Заботиться о производительности, качестве и устойчивости поставляемых нами приложений.\n\n💪 Для этого вам потребуется:\n\n→ Любить свою профессию и то, что вы делаете. Горят глаза? Срочно к нам. \n→ Опыт разработки сервисов с REST API. Знакомство с JSON API, Swagger и GraphQL будет жирным плюсом.\n→ Хорошее знание экосистемы React и Redux. Уметь и любить гуглить.\n→ Понимание изоморфных React-приложений и SSR. Про это и наш доклад 5-летней давности https://youtu.be/xarGaBBDROw\n→ Будет плюсом опыт разработки на Node.js (SSR, PostgreSQL, Express, Passport, JWT)\n→ Хорошее понимание HTTP. А если есть опыт с WebSockets, то это wow! 🎉\n→ Свободное владение ES6. Опыт с TypeScript ускорит погружение.\n→ Понимание принципов ФП и ООП.\n→ Уметь свободно пользоваться Git. Знание Git Flow.\n→ Желательно понимание Styled Components.\n→ Свободное владение CSS 3.\n→ Умение решать проблемы (кросс-браузерная верстка, отладка).\n→ Отсутствие проблем с Pixel Perfect и сеткой. Вёрстка для вас – это просто, а для нас – важно.\n→ Умение работать в команде, прогнозировать риски и следовать соглашениям.\n\n🎁 Что мы предлагаем?\n\n1. ПОЛНОСТЬЮ удалённая работа.\n2. Серьезные проекты для крупнейших банков, страховых компаний и Интернет-компаний. Команды и задачи, которые обеспечат вам профессиональный рост и активное развитие.\n3. Возможность выбирать проекты.\n4. Когда пожелаете, можете присоединиться к нам в новом офисе на ст.м. Калужская в БЦ \"Нео Гео\" – самом стильном и награждаемом БЦ в России с качественной новой техникой (Apple, HP, Dell) и гаджетами. Чай/кофе, фрукты, M&M's и прочие сладости в свободном доступе.\n5. Стабильность. Большие возможности для карьерного роста. Профессиональный рост за счёт наших практик – гарантирован.\n6. Гибрид европейской, японской и российской культуры работы. \n7. Оформление по ТК РФ. \n8. Занятость будет полная. Зарплата на руки от 130 000 до 160 000 рублей (Senior), Middle – от 90 000 до 120 000 рублей.\n9. Корпоративный ДМС (по запросу, разные опции).\n10. Гордость за годы, проведённые здесь, за результаты, достигнутые вместе.\n11. Админка в React-чате – в подарок! 😉 Шутка.\n\n🚀 Отнеситесь с вниманием! Жизнь одна. Уделите немного времени. Напишите о себе, приложите резюме и отправьте на jobs@axept.com, или в ЛС @AxeptJobs, или в ЛС @DenisIzmaylov","markup":[{"type":"hashtag","offset":177,"length":9,"data":"вакансия"},{"type":"hashtag","offset":189,"length":7,"data":"remote"},{"type":"hashtag","offset":197,"length":9,"data":"удаленка"},{"type":"hashtag","offset":209,"length":7,"data":"полная"},{"type":"hashtag","offset":217,"length":9,"data":"fulltime"},{"type":"hashtag","offset":229,"length":8,"data":"reactjs"},{"type":"hashtag","offset":238,"length":11,"data":"javascript"},{"type":"link","offset":1093,"length":24,"data":"http://www.axept.com/ru-ru/jobs"},{"type":"link","offset":1935,"length":28,"data":"https://youtu.be/xarGaBBDROw"},{"type":"link","offset":3705,"length":14,"data":"mailto:jobs@axept.com"},{"type":"handle","offset":3730,"length":10,"data":"AxeptJobs"},{"type":"handle","offset":3751,"length":14,"data":"DenisIzmaylov"}],"date":"2020-06-15T12:54:27+00:00","link":"tg://resolve?domain=javascript_jobs_feed&post=0","tags":[{"name":"javascript"},{"name":"reactjs"},{"name":"redux"},{"name":"typescript"},{"name":"nodejs"},{"name":"graphql"},{"name":"rest"},{"name":"json"},{"name":"swagger"},{"name":"postgresql"},{"name":"express"},{"name":"jwt"},{"name":"git"},{"name":"css"},{"name":"react-redux"},{"name":"react-native"}],"cities":[],"allowsRemote":true}},{"node":{"__typename":"Job","id":"16930308096-1001110946746","title":"Js программист","text":"#вакансия #gamedev #геймдев #job #работа #JavaScript #WebGL #AR #8thwall #React\n\n🔸Название компании: https://twin3d.ru\n🔸Город и адрес офиса: Москва\n🔸Формат работы: Удаленка, проектная работа\n🔸Занятость: На полный рабочий день (2 месяца)\n🔸Зарплатная вилка: 100 000 - 150 000 руб\n\n🔥Описание вакансии: Нужны 2 программиста на мультемидийный/игровой WEB AR проект для мобильных устройств. Собирать планируемна https://www.8thwall.com\n\n🛎 Требования:\n- JavaScript + WebGL\n- React и/или Vue.js\n- Опыт c AR и/или GameDev будет плюсом. \n\n☎️ Контакты, telegram: @shemetvlad","markup":[{"type":"hashtag","offset":0,"length":9,"data":"вакансия"},{"type":"hashtag","offset":10,"length":8,"data":"gamedev"},{"type":"hashtag","offset":19,"length":8,"data":"геймдев"},{"type":"hashtag","offset":28,"length":4,"data":"job"},{"type":"hashtag","offset":33,"length":7,"data":"работа"},{"type":"hashtag","offset":41,"length":11,"data":"JavaScript"},{"type":"hashtag","offset":53,"length":6,"data":"WebGL"},{"type":"hashtag","offset":60,"length":3,"data":"AR"},{"type":"hashtag","offset":64,"length":8,"data":"8thwall"},{"type":"hashtag","offset":73,"length":6,"data":"React"},{"type":"link","offset":102,"length":17,"data":"https://twin3d.ru"},{"type":"link","offset":412,"length":23,"data":"https://www.8thwall.com"},{"type":"handle","offset":559,"length":11,"data":"shemetvlad"}],"date":"2020-06-15T12:21:12+00:00","link":"tg://resolve?domain=javascript_jobs_feed&post=0","tags":[{"name":"javascript"},{"name":"reactjs"},{"name":"web"},{"name":"vuejs"}],"cities":[{"code":"moscow"}],"allowsRemote":false}},{"node":{"__typename":"Job","id":"16928210944-1001110946746","title":"Js программист","text":"#вакансия #gamedev #геймдев #job #работа #JavaScript #WebGL #AR #8thwall #React\n\n🔸Название компании: https://twin3d.ru\n🔸Город и адрес офиса: Москва\n🔸Формат работы: Удаленка, проектная работа\n🔸Занятость: На полный рабочий день (2 месяца)\n🔸Зарплатная вилка: 100 000 - 150 000 руб/мес на руки\n\n🔥Описание вакансии: Нужны 2 программиста на мультемидийный/игровой WEB AR проект для мобильных устройств. Собирать планируемна https://www.8thwall.com\n\n🛎 Требования:\n- JavaScript + WebGL\n- React и/или Vue.js\n- Опыт c AR и/или GameDev будет плюсом. \n\n☎️ Контакты, telegram: @shemetvlad\n\n—\n\n👉 Обсуждение вакансии в чате @javascript_jobs","markup":[{"type":"hashtag","offset":0,"length":9,"data":"вакансия"},{"type":"hashtag","offset":10,"length":8,"data":"gamedev"},{"type":"hashtag","offset":19,"length":8,"data":"геймдев"},{"type":"hashtag","offset":28,"length":4,"data":"job"},{"type":"hashtag","offset":33,"length":7,"data":"работа"},{"type":"hashtag","offset":41,"length":11,"data":"JavaScript"},{"type":"hashtag","offset":53,"length":6,"data":"WebGL"},{"type":"hashtag","offset":60,"length":3,"data":"AR"},{"type":"hashtag","offset":64,"length":8,"data":"8thwall"},{"type":"hashtag","offset":73,"length":6,"data":"React"},{"type":"link","offset":102,"length":17,"data":"https://twin3d.ru"},{"type":"link","offset":424,"length":23,"data":"https://www.8thwall.com"},{"type":"handle","offset":571,"length":11,"data":"shemetvlad"},{"type":"handle","offset":617,"length":16,"data":"javascript_jobs"}],"date":"2020-06-15T11:54:02+00:00","link":"tg://resolve?domain=javascript_jobs_feed&post=0","tags":[{"name":"javascript"},{"name":"reactjs"},{"name":"web"},{"name":"vuejs"}],"cities":[{"code":"moscow"}],"allowsRemote":false}},{"node":{"__typename":"Job","id":"16925065216-1001110946746","title":"Js разработчик","text":"#вакансия #react #JavaScript #Волгоград\n\nГород и адрес офиса: Волгоград, ул Баррикадная 1Б. Бизнес центр Адмирал Плаза.\n\nФормат работы: офис\n\nЗанятость: полная\n\nЗарплатная вилка: от 40тр до 200 тр\n\nНазвание компании: Лига Цифровой Экономики\n\nОписание вакансии: Лига Цифровой Экономики – крупная консалтинговая IT-компания, где работает более 3500 талантливых специалистов.\nМы ищем талантливых единомышленников, которые хотят менять мир вокруг, а не наблюдать за изменениями со стороны.\n\nВ нашем Волгоградском офисе открыта вакансия JS разработчика\nВам удастся поучаствовать в разработке систем для крупнейших кампаний страны (ЦБ РФ, ВТБ, Сбербанк, РСХБ, ВСК), а также Европы (Daimler AG). \nПрисоединяйтесь к крутым проектам в роли JS-разработчика!\n\nЧЕМ ПРЕДСТОИТ ЗАНИМАТЬСЯ:\n•  Разработка фронтальной части\n•  Подбор оптимальных средств и инструментов\n•  Доработка OpenSource платформы (Contributing)\n•  Проработка архитектурных решений\n•  Участие в code-review\n•  GitFlow:\no  PullRequest в Gitlab\no  CI/CD (Jenkins, Telegram Bot, Gradle, Groove)\no  Иногда нещадный Code Review\n\nЧТО НАМ ВАЖНО:\n•  Уверенное знание: Java Script (ES6)\n•  Уверенное знание стеĸа: React + Redux, LESS/CSS\n•  Знание средств коллективной разработки и сборки проектов (Git, Jira Jenkins и т.д.)\n•  Понимание ООП, знание базовых шаблонов проектирования\n•  Опыт работы коммерческой разработки от 1-х года\nПлюсом будет:\n•  Знания и опыт работы с TypeScript\n\nЧТО МЫ ПРЕДЛАГАЕМ\n•  Бессрочный трудовой договор (независимо от периода проекта)\n•  Трудоустройство согласно ТК, белая заработная плата (уровень оклада обсуждается индивидуально)\n•  ДМС со стоматологией, оплата мобильной связи, корпоративные скидки 50% на фитнес и уроки английского языка\n•  Возможность профессионального развития и карьерного роста, а также реализации своих идей (внутренние профессиональные сообщества и внешнее обучение)\n•  Гибкий график работы (возможность выбора начала рабочего дня)\n\nНО ВРЯД ЛИ МЫ СРАБОТАЕМСЯ, ЕСЛИ:\n•  Не хотите учиться и развиваться\n•  Не хотите делать чуть лучше, чем написано в таске\n \nМы предлагаем самые интересные проекты, которыми можно будет гордиться. Мы всегда запускаем что-то новое. Мы используем самые новые технологии, и стагнация противоречит идеям команды и направлению бизнеса.\n\nКонтакты @Gromgard","markup":[{"type":"hashtag","offset":0,"length":9,"data":"вакансия"},{"type":"hashtag","offset":10,"length":6,"data":"react"},{"type":"hashtag","offset":17,"length":11,"data":"JavaScript"},{"type":"hashtag","offset":29,"length":10,"data":"Волгоград"},{"type":"handle","offset":2277,"length":9,"data":"Gromgard"}],"date":"2020-06-15T11:21:07+00:00","link":"tg://resolve?domain=javascript_jobs_feed&post=0","tags":[{"name":"javascript"},{"name":"reactjs"},{"name":"gitlab"},{"name":"jenkins"},{"name":"gradle"},{"name":"java"},{"name":"redux"},{"name":"css"},{"name":"git"},{"name":"typescript"},{"name":"react-redux"}],"cities":[{"code":"volgograd"}],"allowsRemote":false}},{"node":{"__typename":"Job","id":"16922968064-1001110946746","title":"Js разработчик","text":"#вакансия #javascript #react #typescript #nodejs #frontend #middle #senior\n\nКомпания: #Mетрквадратный www.m2.ru\nЛокация: #москва м.Белорусская\nФормат работы: офис (удаленная до сентября) \nЗанятость: полная\nЗ/п: 200к - 260к руб. на руки\nКонтакты: @maxdmitrov\n\nЭто экосистема недвижимости, которая помогает клиентам решать любые жилищные вопросы: от поиска вариантов и оформления сделки до организации ремонта и переезда в новую квартиру. Мы также создаем решения для партнёров и профессиональных участников рынка недвижимости.\n\nЧем предстоит заниматься:\n\n•  разрабатывать один из продуктов жилищной экосистемы;\n•  прорабатывать задачи с начального этапа (декомпозиция, проработка архитектуры, демо с владельцем продукта);\n•  проводить код ревью;\n•  покрывать код unit тестами, помогать тестировщикам в написании e2e тестов;\n•  оптимизировать рендеринг и скорость загрузки страниц;\n•  разрабатывать продуктовые компоненты, используя общие UI библиотеки, и помогать в развитии этих библиотек.\n\nЧего мы ждем:\n\n• Javascript(ES6);\n• React + MobX/Redux;\n• HTML;\n• CSS;\n• Опыт кроссбраузерной верстки.\n\nБудет плюсом:\n\n• TypeScript;\n• знание протокола HTTP/HTTPS, websockets, опыт работы с REST API;\n• опыт работы с react native;\n• опыт в бекэнде на различных языках программирования;\n• опыт профилирования, оптимизации и рефакторинга кода;\n• опыт написания тестов.\n\nМы используем: \n\n•  TypeScript + React + MobX + Gatsby;\n•  NestJS + gRPC + ProtoBuf (мидл-слой, управляющий UI и обращающийся к API бэк-энда);\n•  Micro Frontend Service;\n•  GitLab (CI/CD);\n•  Yarn + Lerna;\n•  Webpack/Rollup.\n\nМы предлагаем: \n\n•  современный стек технологий;\n•  возможность влиять на архитектуру и сразу видеть результат своей работы;\n•  белая конкурентная ЗП, официальное оформление;\n•  гибкий график работы;\n•  ДМС, компенсация фитнеса, льготная ставка по ипотеке;\n•  комфортный офис в БЦ «Белая площадь» (минута от метро): лаундж-зоны, бариста, фрукты.","markup":[{"type":"hashtag","offset":0,"length":9,"data":"вакансия"},{"type":"hashtag","offset":10,"length":11,"data":"javascript"},{"type":"hashtag","offset":22,"length":6,"data":"react"},{"type":"hashtag","offset":29,"length":11,"data":"typescript"},{"type":"hashtag","offset":41,"length":7,"data":"nodejs"},{"type":"hashtag","offset":49,"length":9,"data":"frontend"},{"type":"hashtag","offset":59,"length":7,"data":"middle"},{"type":"hashtag","offset":67,"length":7,"data":"senior"},{"type":"hashtag","offset":86,"length":15,"data":"Mетрквадратный"},{"type":"link","offset":102,"length":9,"data":"http://www.m2.ru"},{"type":"hashtag","offset":121,"length":7,"data":"москва"},{"type":"handle","offset":246,"length":11,"data":"maxdmitrov"}],"date":"2020-06-15T09:19:53+00:00","link":"tg://resolve?domain=javascript_jobs_feed&post=0","tags":[{"name":"javascript"},{"name":"reactjs"},{"name":"typescript"},{"name":"nodejs"},{"name":"redux"},{"name":"html"},{"name":"css"},{"name":"rest"},{"name":"gitlab"},{"name":"webpack"},{"name":"react-native"}],"cities":[{"code":"moscow"}],"allowsRemote":true}}]}}},"context":{}}