{"hash":"f5f6bf98bd95e769321482904cbbd488f77922fd","data":{"records":{"id":"html","name":"html","belongsTo":{"totalCount":110,"pageInfo":{"totalPages":11,"currentPage":8},"edges":[{"node":{"__typename":"Job","id":"17081303040-1001110946746","title":"Javascript разработчик","text":"#вакансия #javascript #typescript \n\nFrontend-разработчик (удаленно)\n\nГород и адрес офиса: Санкт-Петербург\nФормат работы: офис или удаленка / full time\nЗанятость: полная\nЗарплатная вилка: от 100К до 280К\n\nОписание вакансии: \n\nОсновной стек технологий — JavaScript, TypeScript, HTML/CSS. Сейчас мы разрабатываем бизнес-функционал приложения и будем рады новому специалисту в нашей команде, который вольется в проект и мы вместе будем делать frontend с нативным кодом и отзывчивым интерфейсом.\n\nМы ожидаем, что у вас есть:\n\n— Хорошее знание JavaScript, TypeScript, HTML/CSS;\n\n— Умение пользоваться отладчиком в браузере;\n\n— Навыки уверенной работы с Git.\n\nРады предложить:\n\n— Возможность работать удаленно;\n\n— Желаемый оклад по результатам собеседования;\n\n— Понятную систему роста зарплаты каждые 6 месяцев, в которой все зависит только от вас;\n\nУ нас есть общие ценности, такие как стремление к качественному результату, забота о продукте и желание двигаться вперед. Также у нас нет “Начальства”, а есть коллеги. Все взаимодействуют горизонтально, работают бок о бок и делают одно общее дело.\n\nБлагодарим за внимание к нашей вакансии, будем рады познакомиться и ответить на ваши вопросы ツ\n\nНазвание компании: Blogman https://orenburg.hh.ru/employer/3069197\nКонтакты: @alinablogman\n\n—\n\n👉 Обсуждение вакансии в чате @javascript_jobs","markup":[{"type":"hashtag","offset":0,"length":9,"data":"вакансия"},{"type":"hashtag","offset":10,"length":11,"data":"javascript"},{"type":"hashtag","offset":22,"length":11,"data":"typescript"},{"type":"link","offset":1215,"length":39,"data":"https://orenburg.hh.ru/employer/3069197"},{"type":"handle","offset":1265,"length":13,"data":"alinablogman"},{"type":"handle","offset":1313,"length":16,"data":"javascript_jobs"}],"date":"2020-06-19T18:48:58+00:00","link":"tg://resolve?domain=javascript_jobs_feed&post=16290","tags":[{"name":"javascript"},{"name":"typescript"},{"name":"html"},{"name":"css"},{"name":"git"}],"cities":[{"code":"orenburg"}],"allowsRemote":true}},{"node":{"__typename":"Job","id":"26460815360-1001075660570","title":"Php разработчик","text":"#работа #вакансия #удаленка #job #РНР #Yii #Laravel #Symfony \n\nВсем привет! \n\nСейчас нахожусь в поисках РНР разработчика уровня senior в одну из крупнейших ecommerce компаний России - Bork/Technopark. \nНа текущий  момент внутри идет несколько проектов по поддержке и развитию интернет-площадки по продаже бытовой техники и электроники премиум-класса.\n\nПродукты реализуются на стеке: PHP (Yii2), MySql, JS (Vue), HTML, CSS, Gulp, Webpack, SVG, Canvas. \nЗадачи: разработка серверной части веб-проектов на всех этапах (от участия в проектировании архитектуры, до разработки сервисов), участие в митапах для обсуждения предстоящих задач, вносить вклад в планирование архитектуры и т.д.\n\nОсновные требования:\n\n- Опыт коммерческой разработки от 3 лет на PHP (7.1 или выше);\n\n- Хорошие знания современных фреймворков  (YII, Symfony);\n\n- Знание ООП, базовых алгоритмов, шаблонов проектирования, стандартов написания кода.\n\nУсловия: \n\n- ЗП до 250 000 net;\n\n- Полная УДАЛЁНКА; \n\n- Оформление через ИП или как самозанятый; \n\nКто заинтересовался - пишите в ЛС (@nastyaklassnaya),  буду рада пообщаться :)","markup":[{"type":"hashtag","offset":0,"length":7,"data":"работа"},{"type":"hashtag","offset":8,"length":9,"data":"вакансия"},{"type":"hashtag","offset":18,"length":9,"data":"удаленка"},{"type":"hashtag","offset":28,"length":4,"data":"job"},{"type":"hashtag","offset":33,"length":4,"data":"РНР"},{"type":"hashtag","offset":38,"length":4,"data":"Yii"},{"type":"hashtag","offset":43,"length":8,"data":"Laravel"},{"type":"hashtag","offset":52,"length":8,"data":"Symfony"},{"type":"handle","offset":1049,"length":16,"data":"nastyaklassnaya"}],"date":"2020-06-19T13:34:08+00:00","link":"tg://resolve?domain=php_jobs&post=25235","tags":[{"name":"php"},{"name":"yii"},{"name":"laravel"},{"name":"symfony"},{"name":"mysql"},{"name":"vuejs"},{"name":"html"},{"name":"css"},{"name":"gulp"},{"name":"webpack"},{"name":"svg"},{"name":"canvas"},{"name":"dotnet"}],"cities":[],"allowsRemote":true}},{"node":{"__typename":"Job","id":"17072914432-1001110946746","title":"Js разработчик","text":"#вакансия  #backend #nodejs #javascript #удаленка #js #remote\n\nПозиция: Backend developer (Middle)\nКомпания: paradigmfund.io - инвестиционный фонд с офисами в Москве и Токио.\nФормат работы: Удаленка \nЗанятость: Полная с графиком работы (в выходные отдыхаем, в будни работаем по графику, гибкое начало рабочего дня)\nЗарплатная вилка: 110 000-150 000 руб. на руки\nЗадача: Участвовать в разработке новых и текущих it продуктов компании (криптовалютный кошелек, торговая биржа, обменник валют). \n\nТребования:\n- Опыт программирования на чистом JS не менее 3-х лет\n- Опыт программирования под Node.js не менее года\n- Опыт работы с серверами на Ubuntu\n- Знание SQL и особенностей PostgreSQL\n- Умение оптимизировать тяжелые запросы к базе\n- Хороший навык чтения чужого кода и модернизации его\n- Навык анализа новых структур данных и чужих API\n- Навык работы с Git\n- Гибкость, отзывчивость и хорошие soft skills, мы ценим дружелюбную и продуктивную среду, которую мы создали в команде, и надеемся, что вы гармонично в нее впишетесь.\n\nЖелательно:\n- Знание html, css, vue.js\n- Навык работы с docker'ами\n- Умение настраивать NGINX\n- Навык написание unit тестов\n- Навык поиска утечек памяти\n\nПомимо всего вышесказанного, у нас вы получите:\n- Работа в дружной команде, как разработчиков так и управленцев. \n- Профессиональное развитие и новые знания касаемо blockchain технологий.\n- Возможность релокации в офис в Москве.\n- Понятные процессы разработки (Agile, двухнедельные спринты, работаем в Jira и Confluence). \n\nКонтакты:\nМы стремимся постоянно автоматизировать и улучшать наши процессы, поэтому отклик на вакансию просим оставлять через форму: https://forms.gle/L9hWmD18Zs9kMo2E8\nС подходящими кандидатами свяжемся в течение недели, если возникли какие то вопросы, с радостью отвечу на них в лс @grshabl\n\n—\n\n👉 Обсуждение вакансии в чате @javascript_jobs","markup":[{"type":"hashtag","offset":0,"length":9,"data":"вакансия"},{"type":"hashtag","offset":11,"length":8,"data":"backend"},{"type":"hashtag","offset":20,"length":7,"data":"nodejs"},{"type":"hashtag","offset":28,"length":11,"data":"javascript"},{"type":"hashtag","offset":40,"length":9,"data":"удаленка"},{"type":"hashtag","offset":50,"length":3,"data":"js"},{"type":"hashtag","offset":54,"length":7,"data":"remote"},{"type":"link","offset":109,"length":15,"data":"http://paradigmfund.io"},{"type":"link","offset":1636,"length":35,"data":"https://forms.gle/L9hWmD18Zs9kMo2E8"},{"type":"handle","offset":1787,"length":8,"data":"grshabl"},{"type":"handle","offset":1830,"length":16,"data":"javascript_jobs"}],"date":"2020-06-19T10:46:36+00:00","link":"tg://resolve?domain=javascript_jobs_feed&post=16282","tags":[{"name":"javascript"},{"name":"nodejs"},{"name":"ubuntu"},{"name":"sql"},{"name":"postgresql"},{"name":"git"},{"name":"html"},{"name":"css"},{"name":"vuejs"},{"name":"docker"},{"name":"nginx"}],"cities":[{"code":"tokyo"}],"allowsRemote":true}},{"node":{"__typename":"Job","id":"26450329600-1001075660570","title":"Php developer","text":"#вакансия #php #magento #magento2 #петербург #москва #нижнийновгород\n\n📎Вакансия: Senior PHP developer (Magento2)\n📎Компания: First Line Software\n📎Город: Санкт-Петербург/Москва/Нижний Новгород (работа в любом из наших центров разработки, до осени в удаленном режиме)\n\n📎Мы предлагаем присоединиться к проекту по миграции крупного американского интернет-портала с Magento 1 на Magento 2. Планируется использование headless-решения на Magento2 и WordPress и генерацией на Sapper. Коммуникация в проекте осуществляется на английском языке, поэтому необходимы навыки разговорного общения.\nТехнологический стек: PHP, Magento 2, Wordpress, Sapper, HTML, CSS, Svelte JS.\nМы ищем того, кто:\n•имеет опыт разработки на PHP от 3-х лет\n•работал с Magento 2 (сертификат будет являться преимуществом)\n•владеет английским языком на уровне Intermediate и выше.\n\n📎Мы предлагаем:\n•Участие в разработке высокотехнологичных продуктов, которые используются на всех континентах, кроме Антарктиды\n•Большую команду профессиональных и творческих инженеров, которые готовы делиться своим опытом и знаниями\n•Курсы английского языка с носителями и русскоязычными преподавателями в офисе (большое количество наших заказчиков находится за рубежом, мы всегда за то, чтобы вы прокачивали свои скиллы владения английским)\n•Компенсация оплаты успешно пройденной сертификации (напр., Microsoft, Oracle и пр.)\n•Официальная зарплата и оформление по ТК РФ\n•Полис ДМС, в том числе стоматология, гибкий график, удобные рабочие места\n•На каждом этаже офиса есть уютные кухни с плюшками, фруктами, вкусным кофе и какао;\n•Возможность стать частью нашей футбольной команды, принимать участие в турнирах по кикеру, теннису, ежедневная суставная зарядка и еще много корпоративных движух :)\n\nС радостью обсужу все детали в личке @MariiaDia","markup":[{"type":"hashtag","offset":0,"length":9,"data":"вакансия"},{"type":"hashtag","offset":10,"length":4,"data":"php"},{"type":"hashtag","offset":15,"length":8,"data":"magento"},{"type":"hashtag","offset":24,"length":9,"data":"magento2"},{"type":"hashtag","offset":34,"length":10,"data":"петербург"},{"type":"hashtag","offset":45,"length":7,"data":"москва"},{"type":"hashtag","offset":53,"length":15,"data":"нижнийновгород"},{"type":"handle","offset":1784,"length":10,"data":"MariiaDia"}],"date":"2020-06-19T08:23:34+00:00","link":"tg://resolve?domain=php_jobs&post=25225","tags":[{"name":"php"},{"name":"magento"},{"name":"wordpress"},{"name":"html"},{"name":"css"},{"name":"oracle"}],"cities":[{"code":"moscow"},{"code":"nizhny-novgorod"}],"allowsRemote":true}},{"node":{"__typename":"Job","id":"17062428672-1001110946746","title":"Js developer","text":"#вакансия #vue #js #frontend #html #css\n\nВакансия: Frontend / Vuejs Developer\nНазвание компании: Httplab, https://httplab.ru/\nГород и адрес офиса: Ростов-на-Дону, Будённовский 35\nЗанятость: полная\nЗарплатная вилка: от 90 000 до 130 000 руб. (нетто)\n\nОписание вакансии:\n\nТребования:\n• Опыт работы с VueJS и сопутствующими библиотеками. Опыт разработки сложных UI-компонентов.\n• Отличное понимание того, как работает современный веб. Мы ждем, что вы следите за событиями и трендами, но обладаете усточивостью к хайпу. :)\n• Навыки кроссброузерной и адаптивной верстки с использованием HTML5, SСSS.\n• Умение писать тесты для фронтенд-кода, понимать, как и что нужно тестировать.\n• Навыки рефакторинга плохого кода и последовательного превращения его в хороший.\n• Хорошие фундаментальные знания в области ИТ: алгоритмы и структуры данных, шаблоны проектирования.\n• Уверенное использование Linux и утилит командной строки.\n\nУсловия:\n• Профессиональное развитие в команде специалистов высокого уровня\n• Уютный офис в центре Ростова\n• Возможность удаленной работы\n\nКонтакты: info@httplab.ru, @flggg\n\n—\n\n👉 Обсуждение вакансии в чате @javascript_jobs","markup":[{"type":"hashtag","offset":0,"length":9,"data":"вакансия"},{"type":"hashtag","offset":10,"length":4,"data":"vue"},{"type":"hashtag","offset":15,"length":3,"data":"js"},{"type":"hashtag","offset":19,"length":9,"data":"frontend"},{"type":"hashtag","offset":29,"length":5,"data":"html"},{"type":"hashtag","offset":35,"length":4,"data":"css"},{"type":"link","offset":106,"length":19,"data":"https://httplab.ru/"},{"type":"link","offset":1067,"length":15,"data":"mailto:info@httplab.ru"},{"type":"handle","offset":1084,"length":6,"data":"flggg"},{"type":"handle","offset":1125,"length":16,"data":"javascript_jobs"}],"date":"2020-06-18T21:53:52+00:00","link":"tg://resolve?domain=javascript_jobs_feed&post=16272","tags":[{"name":"javascript"},{"name":"vuejs"},{"name":"html"},{"name":"css"},{"name":"linux"}],"cities":[{"code":"rostov"}],"allowsRemote":true}},{"node":{"__typename":"Job","id":"17057185792-1001110946746","title":"Js программист","text":"#вакансия #remote #Javascript #React #Node.js #middle #senior\n\nВсем привет!\n\nЯндекс.Практикум — сервис онлайн-образования. Мы помогаем людям расти — на работе и в жизни. Студенты могут освоить новую специальность, заговорить на иностранном языке и получать удовольствие от того, чем занимаются — каждый день.\n\nСейчас мы в поиске наставников на факультет Веб-разработки!\n\nКомпания: Яндекс.Практикум \nГрафик: частичная удаленная работа, 12 часов в неделю (з/п 50 тыс рублей в месяц). Можно легко совмещать с основной работой.\n\n🔹Что делает наставник?\nНаставник курирует группу из 60 студентов на протяжении всего процесса обучения (примерно 10 месяцев). Он отвечает на их вопросы, проводит групповые консультации и лайвкодинг-вебинары. \n\n🔹Вам подойдет роль, если у вас есть: опыт работы программистом больше трех лет;\nЗнаете HTML, CSS, JavaScript, React, NodeJs;\nПлюсом будет опыт преподавания и экспертной деятельности. \n\n🔹Все наставники перед работой проходят Школу наставников от Яндекс.Практикума. \n\nОткликаться можно здесь: https://praktikum.yandex.ru/job/vacancy-9 \nили пишите в личку @valerymis \nПочта: valeriamis@yandex-team.ru\n\n—\n\n👉 Обсуждение вакансии в чате @javascript_jobs","markup":[{"type":"hashtag","offset":0,"length":9,"data":"вакансия"},{"type":"hashtag","offset":10,"length":7,"data":"remote"},{"type":"hashtag","offset":18,"length":11,"data":"Javascript"},{"type":"hashtag","offset":30,"length":6,"data":"React"},{"type":"hashtag","offset":37,"length":5,"data":"Node"},{"type":"hashtag","offset":46,"length":7,"data":"middle"},{"type":"hashtag","offset":54,"length":7,"data":"senior"},{"type":"link","offset":1029,"length":41,"data":"https://praktikum.yandex.ru/job/vacancy-9"},{"type":"handle","offset":1091,"length":10,"data":"valerymis"},{"type":"link","offset":1110,"length":25,"data":"mailto:valeriamis@yandex-team.ru"},{"type":"handle","offset":1170,"length":16,"data":"javascript_jobs"}],"date":"2020-06-18T21:09:30+00:00","link":"tg://resolve?domain=javascript_jobs_feed&post=0","tags":[{"name":"javascript"},{"name":"reactjs"},{"name":"nodejs"},{"name":"html"},{"name":"css"}],"cities":[],"allowsRemote":true}},{"node":{"__typename":"Job","id":"17051942912-1001110946746","title":"Js разработчик","text":"#вакансия #удаленка #работа #js #javascript #разработчик\n\nГород и адрес офиса: Тель-Авив \nФормат работы: удаленка\nЗанятость: полная, гибкий график.\n\nЗарплатная вилка: 5500-6000$/мес. (Почасовая оплата 35$/час + ежемесячный бонус 250$)\n\nНалоги платите по месту жительства. ИП 6%. Если патент, то он зависит от места жительства. В Подмосковье 12 000 руб в год. В Москве 300 тыс. в год. Как сами оформите налоги, так и платите. \n\nИщу разработчика к нам в команду: израильский проект Luminati (https://luminati.io).  Full-Stack. Компания разрабатывает несколько продуктов, в том числе p2p vpn, видео cdn нового поколения http://holaspark.com/\nОфис в Тель-Авиве, работа удаленная! График свободный. Что нам нужно:\n\n • Knowledge in Node JS framework: ExpressJS, Promise - Experience with MongoDB \n- Creating RESTful web services/API’s using Node.js with or without framework assistance \n\n- JavaScript-based unit testing tools \n\n- Client-side browser technologies including JavaScript, CSS, and HTML \n\n- 1 year development experience in Node JS with a solid working knowledge of frameworks and architecture \n\n- 2+ year’s overall development experience using JavaScript and open web technologies \n\n- хороший английский язык, идеальная грамматика не обязательна \n\n • работа удаленная, 7-9 часов в день (по желанию)\n • зарплата от 35$/час (+фиксированный бонус 250$ ежемесячно), через полгода повышается\n • после того, как откроют границы и будут возможны перелёты - выезд в офис на заключение контракта (перед этим возможно заключение с электронной подписью), отель и перелет за счет компании, море под окном\n\nОтвечу на все вопросы:)\n\nИнстаграмм https://instagram.com/hola_better_internet\n\nРезюме сюда:  luda.hola@gmail.com\n\n—\n\n👉 Обсуждение вакансии в чате @javascript_jobs","markup":[{"type":"hashtag","offset":0,"length":9,"data":"вакансия"},{"type":"hashtag","offset":10,"length":9,"data":"удаленка"},{"type":"hashtag","offset":20,"length":7,"data":"работа"},{"type":"hashtag","offset":28,"length":3,"data":"js"},{"type":"hashtag","offset":32,"length":11,"data":"javascript"},{"type":"hashtag","offset":44,"length":12,"data":"разработчик"},{"type":"link","offset":490,"length":19,"data":"https://luminati.io"},{"type":"link","offset":617,"length":21,"data":"http://holaspark.com/"},{"type":"link","offset":1637,"length":42,"data":"https://instagram.com/hola_better_internet"},{"type":"link","offset":1695,"length":19,"data":"mailto:luda.hola@gmail.com"},{"type":"handle","offset":1749,"length":16,"data":"javascript_jobs"}],"date":"2020-06-18T21:04:51+00:00","link":"tg://resolve?domain=javascript_jobs_feed&post=0","tags":[{"name":"javascript"},{"name":"nodejs"},{"name":"mongodb"},{"name":"web"},{"name":"css"},{"name":"html"},{"name":"unit-testing"}],"cities":[],"allowsRemote":true}},{"node":{"__typename":"Job","id":"17050894336-1001110946746","title":"Javascript разработчик","text":"#вакансия #frontend #JavaScript #React #senior #middle #remote #офис #удаленка                                                              \n\nFrontend-разработчик (React)\nГород и адрес офиса: Москва,Пермь\nФормат работы: офис или удаленно, пятидневка\nЗанятость: полный день\nЗарплатная вилка: от 50 000 до 140 000 руб.                                                                                                                                                                       \n\nО компании: GreenData - компания разработчик уникального ПО для финансового сектора. За более чем десять лет автоматизации кредитных процессов, мы выработали оптимальные подходы к решению большого количества конкретных прикладных задач.                                                       \n\nЧто надо делать:                                                                                                                                                                                                    Участие в разработке платформы.\nПроведение code review.                                                                                                                                                                                                   Работа с контролем версий, управление сборками                                                                                                                                                  \n\nМы работаем с:\nReact\nJavaScript/TypeScript\nHTML, CSS\nGitLab\n\nОпыт работы от 1,5 лет React/JavaScript\nОфициальное трудоустройство\nБелая зарплата\n\nКонтакты:@AnastasyiaKustova\n\n—\n\n👉 Обсуждение вакансии в чате @javascript_jobs","markup":[{"type":"hashtag","offset":0,"length":9,"data":"вакансия"},{"type":"hashtag","offset":10,"length":9,"data":"frontend"},{"type":"hashtag","offset":20,"length":11,"data":"JavaScript"},{"type":"hashtag","offset":32,"length":6,"data":"React"},{"type":"hashtag","offset":39,"length":7,"data":"senior"},{"type":"hashtag","offset":47,"length":7,"data":"middle"},{"type":"hashtag","offset":55,"length":7,"data":"remote"},{"type":"hashtag","offset":63,"length":5,"data":"офис"},{"type":"hashtag","offset":69,"length":9,"data":"удаленка"},{"type":"handle","offset":1588,"length":18,"data":"AnastasyiaKustova"},{"type":"handle","offset":1641,"length":16,"data":"javascript_jobs"}],"date":"2020-06-18T21:04:37+00:00","link":"tg://resolve?domain=javascript_jobs_feed&post=0","tags":[{"name":"javascript"},{"name":"reactjs"},{"name":"typescript"},{"name":"html"},{"name":"css"},{"name":"gitlab"}],"cities":[{"code":"moscow"},{"code":"perm"}],"allowsRemote":true}},{"node":{"__typename":"Job","id":"17048797184-1001110946746","title":"Javascript разработчик","text":"#вакансия #JavaScript #React #jenkins #HTML #CSS #офис #удаленка\n\nMiddle Frontend-разработчик (React)\nГород и адрес офиса: Новосибирск, центр и Академгородок\nФормат работы: Офис или удаленно, пятидневка\nЗанятость: Полный день\nЗарплатная вилка: от 80 000 до 130 000 руб.\n\nО компании: Компания создает и продает софт для любительской обработки видео, музыки и изображений, сотрудничает с Intel, Amazon, Google и NVIDIA.\n\nЧем предстоит заниматься:\n– разработка онлайн-программ для обработки мультимедиа (фоторедактор)\n– проведение ревью кода\n– внедрение новых технологий и подходов в разработке\n\nВ своей работе мы используем:\n– React\n– JavaScript/TypeScript\n– Webpack\n– HTML, CSS\n– Git, GitLab\n– Jenkins\n\nДля успешного выполнения задач тебе потребуется:\n– опыт работы на позиции frontend-разработчика от 1,5 лет\n– опыт разработки на React от 1 года\n– опыт удаленной работы в команде от полугода (в случае удаленной работы)\n– знание JavaScript\n\nофициальное трудоустройство с 1-го дня, белая зп\n\nНазвание компании: HR-project\nКонтакты: @nicedream13\n\n—\n\n👉 Обсуждение вакансии в чате @javascript_jobs","markup":[{"type":"hashtag","offset":0,"length":9,"data":"вакансия"},{"type":"hashtag","offset":10,"length":11,"data":"JavaScript"},{"type":"hashtag","offset":22,"length":6,"data":"React"},{"type":"hashtag","offset":29,"length":8,"data":"jenkins"},{"type":"hashtag","offset":38,"length":5,"data":"HTML"},{"type":"hashtag","offset":44,"length":4,"data":"CSS"},{"type":"hashtag","offset":49,"length":5,"data":"офис"},{"type":"hashtag","offset":55,"length":9,"data":"удаленка"},{"type":"handle","offset":1031,"length":12,"data":"nicedream13"},{"type":"handle","offset":1078,"length":16,"data":"javascript_jobs"}],"date":"2020-06-18T21:02:05+00:00","link":"tg://resolve?domain=javascript_jobs_feed&post=0","tags":[{"name":"javascript"},{"name":"reactjs"},{"name":"jenkins"},{"name":"html"},{"name":"css"},{"name":"typescript"},{"name":"webpack"},{"name":"git"},{"name":"gitlab"}],"cities":[{"code":"novosibirsk"}],"allowsRemote":true}},{"node":{"__typename":"Job","id":"17047748608-1001110946746","title":"Js разработчик","text":"#вакансия #frontend #middle #JavaScript #SPB\n\nГород: Санкт-Петербург м.Чернышевская  \nФормат работы: офис (иногда можно удаленку)\nЗанятость: полная \nЗарплатная вилка: от 1300 USD до 2000 USD после уплаты налогов. Фиксируется в долларах.\n\nОписание вакансии: \n\n🟠 Обязанности:\nРазработка интерфейсов, приложений и сайтов\n\n🟢 Требования:\n\n- Уверенное знание JavaScript Уверенные знания в HTML-верстке (кроссбраузерная/адаптивная/мобильная/HTML5/CSS3/Less)/\n- Понимание основных принципов UI/UX Понимание принципов работы в системе контроля версий\n- Дополнительным плюсом будет: Опыт работы с Electron/Cordova/Node.js/Vue.js\n- Дополнительный плюс: опыт вёрстки приложений\n\n☝️В первую очередь ищем петербуржцев, готовых работать в офисе. Однако готовы рассмотреть и вариант удалённой работы.\n\n🔵 Условия:\n- Уютный офис в Питере (можно иногда удаленку)\n- 3 недели оплачиваемого отпуска\n- Фирма продаёт свой софт в США. Это не аутсорс, а интересная работа со своими динамичными продуктами!\n\nО компании: Компания Rixtrema Inc. находится в поиске frontend-разработчика уровня middle, который, также, как и мы, обожает программировать и разрабатывать интерфейсы.  Нам важно видеть у соискателя огонь в глазах и желание развиваться вместе с командой.\n\n🟣 Контакты: @foundook\n\n—\n\n👉 Обсуждение вакансии в чате @javascript_jobs","markup":[{"type":"hashtag","offset":0,"length":9,"data":"вакансия"},{"type":"hashtag","offset":10,"length":9,"data":"frontend"},{"type":"hashtag","offset":20,"length":7,"data":"middle"},{"type":"hashtag","offset":28,"length":11,"data":"JavaScript"},{"type":"hashtag","offset":40,"length":4,"data":"SPB"},{"type":"handle","offset":1254,"length":9,"data":"foundook"},{"type":"handle","offset":1298,"length":16,"data":"javascript_jobs"}],"date":"2020-06-18T21:01:17+00:00","link":"tg://resolve?domain=javascript_jobs_feed&post=0","tags":[{"name":"javascript"},{"name":"html"},{"name":"css"},{"name":"electron"},{"name":"cordova"},{"name":"nodejs"},{"name":"vuejs"}],"cities":[],"allowsRemote":true}}]}}},"context":{}}