{"hash":"f5f6bf98bd95e769321482904cbbd488f77922fd","data":{"records":{"id":"git","name":"git","belongsTo":{"totalCount":273,"pageInfo":{"totalPages":28,"currentPage":26},"edges":[{"node":{"__typename":"Job","id":"2204106752-1001134745498","title":"Devops engineer","text":"#вакансия #Москва #infrastructure #lead #офис #DevOps\n\nЛокация: Москва\nФормат работы: офис \nЗанятость: полная \nЗП: 250 000 до 350 000 рублей на руки (компания готова отталкиваться от пожеланий кандидатов) \nВакансия: Lead Infrastructure Engineer\n\n🔹 Avotel существует на российском рынке уже почти 5 лет, сначала возникла лишь идея о том, как создать решение, которое позволит решить проблемы связи для транспорта и объектов, которые сложно подключить обычными технологиями. На сегодняшний день Avotel стала партнером крупнейших представителей в сфере телекома и транспорта, что делает необходимым рост команды. \n\nНа текущий момент команда ищет специалиста, который займет ключевую роль в сетевой/программной инфраструктуре для телеком операторов и больших интернет соединений.\n\nСтек: Linux, Ansible, KVM, Docker, BGP, IP tunnel, Git.\n\n🔹Обязанности:\n— Сопровождение серверной и сетевой инфраструктуры проекта;\n— Расширение и формирование команды;\n\n🔹 Требования:\n—Обширный опыт в качестве Infrastructure Engineer и DevOps - от 6 лет;\n— Опыт работы на Lead позиции от 2 лет; \n— Уверенное владение инструментами динамической и статической маршрутизации;\n— Опыт проектирования сетей на базе Linux и обслуживания сетевой инфраструктуры от 100 серверов;\n— Большим плюсом будет наличие опыта сопровождения “железа”, как, например, в сегментах телекома, транспорта или IoT;\n\n🔹 Контакты:\ne-mail: maria@luckyhunter.io\ntelegram: @Maria_Rey\n\n—\n\n👉 Обсуждение вакансии в чате @devops_jobs","markup":[{"type":"hashtag","offset":0,"length":9,"data":"вакансия"},{"type":"hashtag","offset":10,"length":7,"data":"Москва"},{"type":"hashtag","offset":18,"length":15,"data":"infrastructure"},{"type":"hashtag","offset":34,"length":5,"data":"lead"},{"type":"hashtag","offset":40,"length":5,"data":"офис"},{"type":"hashtag","offset":46,"length":7,"data":"DevOps"},{"type":"link","offset":1389,"length":20,"data":"mailto:maria@luckyhunter.io"},{"type":"handle","offset":1420,"length":10,"data":"Maria_Rey"},{"type":"handle","offset":1465,"length":12,"data":"devops_jobs"}],"date":"2020-06-15T09:32:06+00:00","link":"tg://resolve?domain=devops_jobs_feed&post=2102","tags":[{"name":"linux"},{"name":"ansible"},{"name":"docker"},{"name":"git"}],"cities":[{"code":"moscow"}],"allowsRemote":false}},{"node":{"__typename":"Job","id":"16918773760-1001110946746","title":"Javascript разработчик","text":"#вакансия #midle #удаленно #parttime \nКомпания: AvtoTO.ru\nГород офиса: Ростов-на-Дону\nФормат работы: удаленно\nЗанятость: частичная, почасовка\nЗП: 40-80к руб. на руки\n\nКто: ищем уверенного мидла с перспективой фултайма для несложной работы, которую нужно выполнять в срок. Исполнительность и инициативность обязательное условие. Если ты уже не мидл, но не боишься простых задач - нам будет что обсудить.\n\nЧто: проект простой, gulp, scss, jquery, адаптив, docker, git Много планов на рефакторинг и новые подпроекты на реакте / вью.\n\nКонтакт: @eekos","markup":[{"type":"hashtag","offset":0,"length":9,"data":"вакансия"},{"type":"hashtag","offset":10,"length":6,"data":"midle"},{"type":"hashtag","offset":17,"length":9,"data":"удаленно"},{"type":"hashtag","offset":27,"length":9,"data":"parttime"},{"type":"link","offset":48,"length":9,"data":"http://AvtoTO.ru"},{"type":"handle","offset":540,"length":6,"data":"eekos"}],"date":"2020-06-15T09:15:01+00:00","link":"tg://resolve?domain=javascript_jobs_feed&post=0","tags":[{"name":"javascript"},{"name":"gulp"},{"name":"jquery"},{"name":"docker"},{"name":"git"}],"cities":[{"code":"rostov"}],"allowsRemote":true}},{"node":{"__typename":"Job","id":"71287439360-1001054966032","title":"Android разработчик","text":"#вакансия #ios #android #Flutter\nНаставник-помощник Flutter разработчик\n\nЧастичная занятость, гибкий график, удаленно \nОплата почасовая от 8$ \n\nМы ищем мобильного разработчика уровня Middle на почасовую консультацию, который:\n\n- имеет опыт коммерческой разработки на Dart и Flutter;\n- знает ООП, Git, Gradle, Pods;\n- уверенно знает Kotlin/Java\n- имеет опыт в разработке нативных мобильных приложений и модулей (android/ios).\n\nПлюсом будет:\n\n- знание основных шаблонов проектирования и опыт их применения;\n- опыт работы с Firebase;\n- понимание принципов и опыт настройки CI/CD.\n\nТебе предстоит:\n\n- консультировать нашего разработчика по нашим актуальным проектам\n- в случае проблем изредка участвовать в разработке \n- помогать в настройке CI/CD;\n- участвовать в Code Review;\n\nКонтакт для связи @korchikova","markup":[{"type":"hashtag","offset":0,"length":9,"data":"вакансия"},{"type":"hashtag","offset":10,"length":4,"data":"ios"},{"type":"hashtag","offset":15,"length":8,"data":"android"},{"type":"hashtag","offset":24,"length":8,"data":"Flutter"},{"type":"handle","offset":793,"length":11,"data":"korchikova"}],"date":"2020-06-15T09:01:39+00:00","link":"tg://resolve?domain=mobile_jobs&post=0","tags":[{"name":"mobile"},{"name":"android"},{"name":"ios"},{"name":"flutter"},{"name":"dart"},{"name":"git"},{"name":"gradle"},{"name":"kotlin"},{"name":"java"},{"name":"firebase"}],"cities":[],"allowsRemote":true}},{"node":{"__typename":"Job","id":"16914579456-1001110946746","title":"Js разработчик","text":"🎸 Трудолюбивый JavaScript (React.js) Engineer, приди!\n\n🔖 #вакансия / #remote #удаленка / #полная #fulltime / #reactjs #javascript\n\nЭта не просто вакансия. Это возможность для стабильного профессионального, финансового и карьерного роста. Мы уделяем большое внимание системности, общей продуктивности и согласованности совместной работы, поэтому ищем коллегу на удалённый (remote) формат работы.\n\n\n📲 Кто мы?\n\n→ Компания Axept занимается консалтингом и заказной разработкой программных продуктов.\n→ Наши клиенты – крупные корпорации в России, профессионалы из Европы, Сингапура и Японии.\n→ Текущий портфель проектов – Личные кабинеты, ERP, Поисковые системы, CRM, dashboards, Социальные сети, мобильные приложения.\n→ Центры разработки находится в Москве. Но 70% сотрудников работают удалённо.\n→ Ключевой момент — мы относимся к проектам наших клиентов ❤️, как к своим собственным, с любовью и максимальной ответственностью.\n→ Мы любим то, что делаем. Более подробно здесь – www.axept.com/ru-ru/jobs\n\n🎸 Чем предстоит заниматься?\n\n→ Разрабатывать и развивать веб-приложения с нами, используя React.js, Redux, TypeScript, Styled Components, иногда – Node.js, React Native и GraphQL.\n→ Принимать архитектурные решения и думать наперёд.\n→ Влиять на развитие команды разработки и выбор технологий в проекте.\n→ Активно учиться, развиваться и делиться знаниями с коллегами.\n→ Заботиться о производительности, качестве и устойчивости поставляемых нами приложений.\n\n💪 Для этого вам потребуется:\n\n→ Любить свою профессию и то, что вы делаете. Горят глаза? Срочно к нам. \n→ Опыт разработки сервисов с REST API. Знакомство с JSON API, Swagger и GraphQL будет жирным плюсом.\n→ Хорошее знание экосистемы React и Redux. Уметь и любить гуглить.\n→ Понимание изоморфных React-приложений и SSR. Про это и наш доклад 5-летней давности https://youtu.be/xarGaBBDROw\n→ Будет плюсом опыт разработки на Node.js (SSR, PostgreSQL, Express, Passport, JWT)\n→ Хорошее понимание HTTP. А если есть опыт с WebSockets, то это wow! 🎉\n→ Свободное владение ES6. Опыт с TypeScript ускорит погружение.\n→ Понимание принципов ФП и ООП.\n→ Уметь свободно пользоваться Git. Знание Git Flow.\n→ Желательно понимание Styled Components.\n→ Свободное владение CSS 3.\n→ Умение решать проблемы (кросс-браузерная верстка, отладка).\n→ Отсутствие проблем с Pixel Perfect и сеткой. Вёрстка для вас – это просто, а для нас – важно.\n→ Умение работать в команде, прогнозировать риски и следовать соглашениям.\n\n🎁 Что мы предлагаем?\n\n1. ПОЛНОСТЬЮ удалённая работа.\n2. Серьезные проекты для крупнейших банков, страховых компаний и Интернет-компаний. Команды и задачи, которые обеспечат вам профессиональный рост и активное развитие.\n3. Возможность выбирать проекты.\n4. Когда пожелаете, можете присоединиться к нам в новом офисе на ст.м. Калужская в БЦ \"Нео Гео\" – самом стильном и награждаемом БЦ в России с качественной новой техникой (Apple, HP, Dell) и гаджетами. Чай/кофе, фрукты, M&M's и прочие сладости в свободном доступе.\n5. Стабильность. Большие возможности для карьерного роста. Профессиональный рост за счёт наших практик – гарантирован.\n6. Гибрид европейской, японской и российской культуры работы. \n7. Оформление по ТК РФ. \n8. Занятость будет полная. Зарплата на руки от 130 000 до 160 000 рублей (Senior), Middle – от 90 000 до 120 000 рублей.\n9. Корпоративный ДМС (по запросу, разные опции).\n10. Гордость за годы, проведённые здесь, за результаты, достигнутые вместе.\n11. Админка в React-чате – в подарок! 😉 Шутка.\n\n🚀 Отнеситесь с вниманием! Жизнь одна. Уделите немного времени. Напишите о себе, приложите резюме и отправьте на jobs@axept.com, или в ЛС @AxeptJobs, или в ЛС @AxeptJobs","markup":[{"type":"hashtag","offset":59,"length":9,"data":"вакансия"},{"type":"hashtag","offset":71,"length":7,"data":"remote"},{"type":"hashtag","offset":79,"length":9,"data":"удаленка"},{"type":"hashtag","offset":91,"length":7,"data":"полная"},{"type":"hashtag","offset":99,"length":9,"data":"fulltime"},{"type":"hashtag","offset":111,"length":8,"data":"reactjs"},{"type":"hashtag","offset":120,"length":11,"data":"javascript"},{"type":"link","offset":975,"length":24,"data":"http://www.axept.com/ru-ru/jobs"},{"type":"link","offset":1817,"length":28,"data":"https://youtu.be/xarGaBBDROw"},{"type":"link","offset":3587,"length":14,"data":"mailto:jobs@axept.com"},{"type":"handle","offset":3612,"length":10,"data":"AxeptJobs"},{"type":"handle","offset":3633,"length":10,"data":"AxeptJobs"}],"date":"2020-06-15T08:03:02+00:00","link":"tg://resolve?domain=javascript_jobs_feed&post=0","tags":[{"name":"javascript"},{"name":"reactjs"},{"name":"redux"},{"name":"typescript"},{"name":"nodejs"},{"name":"graphql"},{"name":"rest"},{"name":"json"},{"name":"swagger"},{"name":"postgresql"},{"name":"express"},{"name":"jwt"},{"name":"git"},{"name":"css"},{"name":"react-redux"},{"name":"react-native"}],"cities":[],"allowsRemote":true}},{"node":{"__typename":"Job","id":"16913530880-1001110946746","title":"Javascript разработчик","text":"#вакансия #frontend #angular #remote #parttime\n\nВакансия: Frontend разработчик (angular)\nФормат работы: удалённо\nЗанятость: полная \nЗ/п: от 180 000 до 200 000 рублей в месяц на руки\nКомпания: https://payler.com/\nСфера деятельности: платежный онлайн сервис, предоставляющий услуги интернет-эквайринга\n\nОсновные задачи\n- работа в команде разработчиков над проектами с нуля, доработка новых функций и поддержка \n- существующего кода\n- кроссбраузерная и адаптивная верстка\n\nТребования\n- опыт коммерческой разработки\n- опыт работы с angular\n- знание TypeScript, Git\n- понимание работы SPA приложений\n\nМы предлагаем\n- стабильную зарплату по результатам собеседования\n- оформление по ТК РФ\n- гибкий график работы\n- интересные, творческие задачи\n\nКонтакты: @irarudakova","markup":[{"type":"hashtag","offset":0,"length":9,"data":"вакансия"},{"type":"hashtag","offset":10,"length":9,"data":"frontend"},{"type":"hashtag","offset":20,"length":8,"data":"angular"},{"type":"hashtag","offset":29,"length":7,"data":"remote"},{"type":"hashtag","offset":37,"length":9,"data":"parttime"},{"type":"link","offset":192,"length":19,"data":"https://payler.com/"},{"type":"handle","offset":749,"length":12,"data":"irarudakova"}],"date":"2020-06-15T07:47:41+00:00","link":"tg://resolve?domain=javascript_jobs_feed&post=16130","tags":[{"name":"javascript"},{"name":"angularjs"},{"name":"typescript"},{"name":"git"}],"cities":[],"allowsRemote":true}},{"node":{"__typename":"Job","id":"1678770176-1001091028994","title":"Java разработчик","text":"#вакансия #java #senior #middle\nКомпания: #сбербанктехнологии #сбертех\nЛокация: #москва\nЗП: 180-270 + премии\nКонтакты: @okashchenko, kashchenko.o.bor@sberbank.ru\n\nМы - современная инженерная компания, продолжаем расти и развиваться. Активно ищем Java разработчиков уровня middle и senior в связи с расширением команды для Образовательной платформы - SaaS решения для автоматизации обучения в средних школах. Разработка началась марте 2019, сейчас дорабатываем функционал и создаём фичи.\n\n  Требования:\n· Знание Java 8+ (хорошее знание core, collections), Spring IoC 4-5, от 2х лет\n· Системы сборки maven или gradle\n· Опыт использования jUnit/TestNG\n· БД: jdbc, SQL(лучше PostgresQL) на уровне написания средних запросов\n· VCS: опыт работы с git в команде\n· Опыт командной разработки\n\n  Очень желательно:\n· Умение работать с linux command line, писать минимальные bash-скрипты.\n· Понимание оптимизации SQL-запросов\n· Опыт разработки промышленных микросервисных приложений\n· Опыт работы со SpringBoot, MongoDB, Docker/Kubernetes\n\n  Наши условия:\n· Конкурентная «белая» заработная плата (оклад + премии)\n· Профессиональный и зарплатный рост\n· Интересные, сложные, амбициозные задачи, молодая и сильная команда профессионалов\n· Обучение за счет компании в Корпоративном университете\n· Льготная ипотека от Сбербанка, ДМС\n· Страхование от несчастных случаев\n· Тренажерный зал\n\nБуду рада обсудить вакансию и ответить на ваши вопросы!","markup":[{"type":"hashtag","offset":0,"length":9,"data":"вакансия"},{"type":"hashtag","offset":10,"length":5,"data":"java"},{"type":"hashtag","offset":16,"length":7,"data":"senior"},{"type":"hashtag","offset":24,"length":7,"data":"middle"},{"type":"hashtag","offset":42,"length":19,"data":"сбербанктехнологии"},{"type":"hashtag","offset":62,"length":8,"data":"сбертех"},{"type":"hashtag","offset":80,"length":7,"data":"москва"},{"type":"handle","offset":119,"length":12,"data":"okashchenko"},{"type":"link","offset":133,"length":28,"data":"mailto:kashchenko.o.bor@sberbank.ru"}],"date":"2020-06-15T07:12:16+00:00","link":"tg://resolve?domain=jvmjobs&post=1601","tags":[{"name":"java"},{"name":"jvm"},{"name":"spring"},{"name":"maven"},{"name":"gradle"},{"name":"junit"},{"name":"jdbc"},{"name":"sql"},{"name":"postgresql"},{"name":"git"},{"name":"linux"},{"name":"bash"},{"name":"mongodb"},{"name":"docker"},{"name":"kubernetes"}],"cities":[{"code":"moscow"}],"allowsRemote":false}},{"node":{"__typename":"Job","id":"16909336576-1001110946746","title":"Javascript разработчик","text":"#вакансия #front #react #typescript #москва #генетика #javascript #геномэксперт #барсгруп\n\nГород и адрес офиса: Москва, ст.м.Павелецкая\nФормат работы: Офис\nЗанятость: полная.\nЗарплатная вилка: от 200.000 до 300.000 рублей на руки. \nНазвание компании: Барс Груп\nhttps://bars.group/\nПроект Геном.Эксперт  - https://genome.expert/ \n\nТребуется senior front-end разработчик в крупный медицинский проект.\n\nПредметная область: Генетика. \nТекущее состояние проекта: Проект запущен с прошлого года, сейчас добираем команду по потребностям проекта, есть уникальная возможность принять участие в создании единого пространства для врачей-генетиков, лабораторных генетиков, биоинформатиков.\n\n✅Чем придется заниматься:\n\n-Писать микроприложения и компоненты на React;\n-Изучать исходники на Polymer, чтобы переехать на React (не допиливаем старый фреймворк, а выпиливаем) и микросервисную архитектуру;\n\n✔️Требования:\n\n-Front-end: React(Vue), typescript, Redux/Mobx/Vuex;\n-Межсервисное взаимодействие и API: REST/GraphQL/gRPC. \n\n✔️Инструменты для работы: \n\nGit, bitbucket, JIRA, docker, docker-compose. \n\n✔️Условия:\n\n-Оформление по ТК РФ;\n-Работа в офисе в пешей доступности от ст.м.Павелецкая (на данный момент удаленка);\n-График 5/2, гибкое начало рабочего дня ;\n-Белая зарплата, повышающаяся по системе аттестаций несколько раз в год;\n-ДМС;\n-Перспективы карьерного роста;\n-Корпоративное обучение (тренинги, мастер-классы);\n-Корпоративная библиотека;\n-Мы рассматриваем кандидатов с возможностью переезда в Москву;\n-Возможность предоставления бесплатного жилья на первый месяц. \n\nКонтакты для связи: \n\nemail: a.starchenko@bars.group \nTelegram: @alinavelcheva \n\nbars.group\nАО «БАРС Груп» - официальный сайт компании\nАО «БАРС Груп» - российский производитель ИТ-решений и экспертный центр в сфере государственной и корпоративной информатизации.\n\n—\n\n👉 Обсуждение вакансии в чате @javascript_jobs","markup":[{"type":"hashtag","offset":0,"length":9,"data":"вакансия"},{"type":"hashtag","offset":10,"length":6,"data":"front"},{"type":"hashtag","offset":17,"length":6,"data":"react"},{"type":"hashtag","offset":24,"length":11,"data":"typescript"},{"type":"hashtag","offset":36,"length":7,"data":"москва"},{"type":"hashtag","offset":44,"length":9,"data":"генетика"},{"type":"hashtag","offset":54,"length":11,"data":"javascript"},{"type":"hashtag","offset":66,"length":13,"data":"геномэксперт"},{"type":"hashtag","offset":80,"length":9,"data":"барсгруп"},{"type":"link","offset":261,"length":19,"data":"https://bars.group/"},{"type":"link","offset":305,"length":22,"data":"https://genome.expert/"},{"type":"link","offset":1593,"length":23,"data":"mailto:a.starchenko@bars.group"},{"type":"handle","offset":1628,"length":14,"data":"alinavelcheva"},{"type":"link","offset":1645,"length":10,"data":"http://bars.group"},{"type":"handle","offset":1861,"length":16,"data":"javascript_jobs"}],"date":"2020-06-15T07:06:51+00:00","link":"tg://resolve?domain=javascript_jobs_feed&post=16126","tags":[{"name":"javascript"},{"name":"reactjs"},{"name":"typescript"},{"name":"polymerjs"},{"name":"vuejs"},{"name":"redux"},{"name":"rest"},{"name":"graphql"},{"name":"git"},{"name":"docker"},{"name":"docker-compose"}],"cities":[{"code":"moscow"}],"allowsRemote":true}},{"node":{"__typename":"Job","id":"102808682496-1001089317451","title":"Qa инженер","text":"🐞🐞🐞#вакансия #QA #Ульяновск #Саранск #Казань #Самара #Уфа #Краснодар #офис #удаленная_работа\n\n🔍Middle QA-специалист🔎\n\n⚡️Компания: Simbirsoft (более 19 лет на рынке, более 700 сотрудников в штате)\n\nОчень ждем тебя, наш будущий коллега и борец за качественное ПО! :)\n\n📌Твои будущие задачи:\n• тестирование ПО (frontend, backend, API);\n• локализация и документирование найденных дефектов;\n• ведение и оптимизация тестовой документации;\n• контроль качества на всех этапах разработки ПО;\n• выстраивание и оптимизация процессов тестирования ПО.\n\n📌Что мы ждем от тебя:\n• наличие опыта от 2 лет в направлениях QA или тестирования ПО;\n• понимание разницы между QA и тестированием ПО;\n• понимание особенностей гибких методологий;\n• уверенное владение техниками тест-дизайна;\n• знание клиент-серверной архитектуры;\n• понимание особенностей тестирования web, mobile и desktop приложений;\n• навык тестирования API;\n• написание запросов SQL;\n• опыт работы с системами контроля версий (git);\n• знание основных команд работы с консолью (Windows/Linux).\n\n📌Что мы предлагаем:\n• Полностью белая ЗП два раза в месяц;\n• Оформление по ТК РФ;\n• Высокий уровень экспертности внутри компании, которым мы делимся друг с другом;\n• Перспективы вертикального и горизонтального роста;\n• Работа на российских и международных проектах;\n• Оборудованное рабочее место и парк тестовых устройств;\n• Подготовка и прохождение сертификации ISTQB бесплатно;\n• Внутренние и внешние курсы, доклады, конференции;\n• Бесплатные чай, кофе, печеньки в офисе;\n• Корпоративная спортивная программа (оплата тематических секций, частичная компенсация абонемента);\n• Проведение летних и зимних корпоративов, дня именинника, совместные походы и т.д.\n\n📌Зарплата:\n• от 50 000 (Договорная, по итогу собеседования)\n\n☎️Контакты:\nKaterina","markup":[{"type":"hashtag","offset":6,"length":9,"data":"вакансия"},{"type":"hashtag","offset":16,"length":3,"data":"QA"},{"type":"hashtag","offset":20,"length":10,"data":"Ульяновск"},{"type":"hashtag","offset":31,"length":8,"data":"Саранск"},{"type":"hashtag","offset":40,"length":7,"data":"Казань"},{"type":"hashtag","offset":48,"length":7,"data":"Самара"},{"type":"hashtag","offset":56,"length":4,"data":"Уфа"},{"type":"hashtag","offset":61,"length":10,"data":"Краснодар"},{"type":"hashtag","offset":72,"length":5,"data":"офис"},{"type":"hashtag","offset":78,"length":17,"data":"удаленная_работа"}],"date":"2020-06-15T05:55:18+00:00","link":"tg://resolve?domain=qa_jobs&post=0","tags":[{"name":"qa"},{"name":"web"},{"name":"mobile"},{"name":"sql"},{"name":"git"},{"name":"windows"},{"name":"linux"}],"cities":[{"code":"ulyanovsk"},{"code":"saransk"},{"code":"kazan"},{"code":"samara"},{"code":"ufa"},{"code":"krasnodar"}],"allowsRemote":true}},{"node":{"__typename":"Job","id":"102802391040-1001089317451","title":"Qa инженер","text":"#вакансия #QA #Java #QAAutomation #Москва #офис \n\nВакансия: QA Lead (Тест-Менеджер)\nГород: Москва м. Технопарк \nЗарплата: от 220 000 рублей до 260 000 рублей на руки\nФормат: офис, полный день, полная занятость\nКомпания Innovative People \n\n🚀 Чем предстоит заниматься:\n• планирование тестирования;\n• выстраивание процессов тестирования среди 8 команд с упором на автоматизацию;\n• автоматизировать процессы разработки и тестирования;\n• выстраивать CI/CD проекта;\n• налаживание взаимодействия QA инженеров в нескольких командах;\n• поддерживать и развивать разработанные решения по автоматизации;\n• разрабатывать фреймворк автоматизации;\n• исследовать новые технологии и внедрять их на проекте;\n• подготовка метрик автоматизированных тестов;\n• принятие решений о внедрении / обновлении программного обеспечения.\n\n🚀 От кандидата ожидаем:\n• опыт в тестировании от 4х лет\n• опыт в автотестировании от 3х лет\n• опыт руководства группой тестировщиков от 2х лет\n• практический опыт применения практик тест-дизайна\n• умение проектировать тест-кейсы и подготавливать тестовые данные для тестирования\n• хорошие знание Java, библиотек\n• уверенное использование и понимание как работает под капотом Selenium Webdriver (Selenide и Appium для мобильных платформ)\n• опыт написания собственного фреймворка\n• опыт работы в unix системах\n• опыт работы с API (Soap, Rest)\n• опыт использование git\n• опыт использование CI (желательно, но не обязательно Jenkins)\n• опыт работы с Docker\n• опыт составления запросов SQL\n• опыт управления непрямыми (функциональными) подчиненными\n• умение контролировать несколько проектов одновременно\n• умение мотивировать команду, опыт управления рисками, мониторинг эффективности процессов\n\n🚀 Предлагаем:\n• все по ТК РФ\n• ДМС со стоматологией, программа лояльности\n• Macbook \n• адекватное руководство и лояльные процессы\n• большое комьюнити, классные команды\n• помогаем с релокацией!\n\nРезюме и вопросы @Priboch","markup":[{"type":"hashtag","offset":0,"length":9,"data":"вакансия"},{"type":"hashtag","offset":10,"length":3,"data":"QA"},{"type":"hashtag","offset":14,"length":5,"data":"Java"},{"type":"hashtag","offset":20,"length":13,"data":"QAAutomation"},{"type":"hashtag","offset":34,"length":7,"data":"Москва"},{"type":"hashtag","offset":42,"length":5,"data":"офис"},{"type":"handle","offset":1914,"length":8,"data":"Priboch"}],"date":"2020-06-15T04:41:09+00:00","link":"tg://resolve?domain=qa_jobs&post=0","tags":[{"name":"qa"},{"name":"java"},{"name":"selenium"},{"name":"unix"},{"name":"soap"},{"name":"rest"},{"name":"git"},{"name":"jenkins"},{"name":"docker"},{"name":"sql"}],"cities":[{"code":"moscow"}],"allowsRemote":false}},{"node":{"__typename":"Job","id":"16907239424-1001110946746","title":"Javascript разработчик","text":"#вакансия #front #react #typescript #москва #генетика #javascript #геномэксперт #барсгруп\n\nГород и адрес офиса: Москва, ст.м.Павелецкая\nФормат работы: Офис\nЗанятость: полная.\nЗарплатная вилка: от 200 до 300 на руки. \nНазвание компании: Барс Груп\nhttps://bars.group/\nПроект Геном.Эксперт  - https://genome.expert/ \n\nТребуется senior front-end разработчик в крупный медицинский проект.\n\nПредметная область: Генетика.\nТекущее состояние проекта: Проект запущен с прошлого года, сейчас добираем команду по потребностям проекта, есть уникальная возможность принять участие в создании единого пространства для врачей-генетиков, лабораторных генетиков, биоинформатиков.\n\nЧем придется заниматься:\n\n-Писать микроприложения и компоненты на React;\n-Изучать исходники на Polymer, чтобы переехать на React и микросервисную архитектуру;\n\nТребования:\n\n-Front-end: React(Vue), typescript, Redux/Mobx/Vuex;\n-Межсервисное взаимодействие и API: REST/GraphQL/gRPC. \n\nИнструменты для работы: \n\nGit, bitbucket, JIRA, docker, docker-compose. \n\nУсловия:\n\n-Оформление по ТК РФ;\n-Работа в офисе в пешей доступности от ст.м.Павелецкая (на данный момент удаленка);\n-График 5/2, гибкое начало рабочего дня ;\n-Белая зарплата, повышающаяся по системе аттестаций несколько раз в год;\n-ДМС;\n-Перспективы карьерного роста;\n-Корпоративное обучение (тренинги, мастер-классы);\n-Корпоративная библиотека;\n-Мы рассматриваем кандидатов с возможностью переезда в Москву;\n-Возможность предоставления бесплатного жилья на первый месяц. \n\nКонтакты для связи: \n\nemail: a.starchenko@bars.group \nTelegram: @alinavelcheva \n\nbars.group\nАО «БАРС Груп» - официальный сайт компании\nАО «БАРС Груп» - российский производитель ИТ-решений и экспертный центр в сфере государственной и корпоративной информатизации.","markup":[{"type":"hashtag","offset":0,"length":9,"data":"вакансия"},{"type":"hashtag","offset":10,"length":6,"data":"front"},{"type":"hashtag","offset":17,"length":6,"data":"react"},{"type":"hashtag","offset":24,"length":11,"data":"typescript"},{"type":"hashtag","offset":36,"length":7,"data":"москва"},{"type":"hashtag","offset":44,"length":9,"data":"генетика"},{"type":"hashtag","offset":54,"length":11,"data":"javascript"},{"type":"hashtag","offset":66,"length":13,"data":"геномэксперт"},{"type":"hashtag","offset":80,"length":9,"data":"барсгруп"},{"type":"link","offset":246,"length":19,"data":"https://bars.group/"},{"type":"link","offset":290,"length":22,"data":"https://genome.expert/"},{"type":"link","offset":1523,"length":23,"data":"mailto:a.starchenko@bars.group"},{"type":"handle","offset":1558,"length":14,"data":"alinavelcheva"},{"type":"link","offset":1575,"length":10,"data":"http://bars.group"}],"date":"2020-06-14T19:01:43+00:00","link":"tg://resolve?domain=javascript_jobs_feed&post=16124","tags":[{"name":"javascript"},{"name":"reactjs"},{"name":"typescript"},{"name":"polymerjs"},{"name":"vuejs"},{"name":"redux"},{"name":"rest"},{"name":"graphql"},{"name":"git"},{"name":"docker"},{"name":"docker-compose"}],"cities":[{"code":"moscow"}],"allowsRemote":true}}]}}},"context":{}}