{"hash":"f5f6bf98bd95e769321482904cbbd488f77922fd","data":{"records":{"id":"java","name":"java","belongsTo":{"totalCount":242,"pageInfo":{"totalPages":25,"currentPage":22},"edges":[{"node":{"__typename":"Job","id":"1688207360-1001091028994","title":"Java разработчик","text":"#вакансия #офис #Самара #Java\n\nДобрый день!\n🧐 Очень срочно разыскивается Senior или прошаренный Middle Java developer в компанию Open Code.\n\n👨‍👩‍👧‍👦В компании 200 разработчиков, штат постоянно растет.\n\n👩🏻‍🏫Каждый год стартуют новые проекты, под проекты обновляют стек, используют новые технологии.\n\n👫Команды внутри собирают по 5-8, максимум 12 человек, к разработчикам присоединяются тестировщики и аналитики, команды участвуют в совещаниях и формировании ТЗ\n\n👓У компании есть свой учебный центр. http://open-distance.ru/\nOpen Code является партнером Санкт-Петербургского университета ИТМО. На базе компании открыта  кафедра магистратуры этого ВУЗа. \nСотрудники имеют возможность получить на бюджетной основе образование степени магистра, обучаясь в офисе компании и на основе своих рабочих проектов. \nВыдаются дипломы гос. образца Санкт-Петербургского университета ИТМО об окончании магистратуры.\n\n🤝Тебе скажут уверенное \"да\", протянут руку и пригласят в команду если:\n- ты больше 3-х лет восхищен Java 8+, особенно любишь Spring;\n- тебе нравится, как звучит слово Hibernate;\n- знаешь, что в кишочках одной из СУБД: PostgreSQL, Oracle, MS SQL Server;\n- Git. Ну, ты понимаешь, что надо =) ;\n- ActiveMQ, Hadoop, Lucene, Elasticsearch, Gradle, Maven - вот это вот все.\n\n🧑🏻‍💻Чем заняться вместо работы:\n- Разрабатывать новый функционал серверной части\n- Участвовать в проектировании отдельных модулей системы\n- Разработывать интеграцию с внешними системами\n- Рефакторить поддерживать существующий код\n- Покрывать код юнит-тестами\n\n🧁А теперь о плюшках, кроме обучения в ИТМО:\n- ЗП 150-170 в руки\n- Занятия английским языком в офисе компании\n- Бассейн, фитнес-центр\n- Футбол/волейбол\n- Дружная команда\n- Посещение культурных мероприятий за счет компании\n- Перспектива карьерного роста\n- И другие заслуженные ништяки от компании\n\n\n🏄🏻Отличая возможность научиться чему-то новому с комфортом!\n\nЗаинтересовало?\n\n📲Пиши мне. @reanimatsiya","markup":[{"type":"hashtag","offset":0,"length":9,"data":"вакансия"},{"type":"hashtag","offset":10,"length":5,"data":"офис"},{"type":"hashtag","offset":16,"length":7,"data":"Самара"},{"type":"hashtag","offset":24,"length":5,"data":"Java"},{"type":"bold","offset":103,"length":15,"data":""},{"type":"bold","offset":130,"length":9,"data":""},{"type":"link","offset":507,"length":24,"data":"http://open-distance.ru/"},{"type":"bold","offset":911,"length":70,"data":""},{"type":"bold","offset":1286,"length":28,"data":""},{"type":"bold","offset":1544,"length":43,"data":""},{"type":"bold","offset":1844,"length":59,"data":""},{"type":"handle","offset":1932,"length":13,"data":"reanimatsiya"}],"date":"2020-06-16T08:52:54+00:00","link":"tg://resolve?domain=jvmjobs&post=1610","tags":[{"name":"java"},{"name":"jvm"},{"name":"spring"},{"name":"hibernate"},{"name":"postgresql"},{"name":"oracle"},{"name":"sql"},{"name":"git"},{"name":"hadoop"},{"name":"lucene"},{"name":"elasticsearch"},{"name":"gradle"},{"name":"maven"},{"name":"sql-server"}],"cities":[{"code":"samara"}],"allowsRemote":false}},{"node":{"__typename":"Job","id":"1687158784-1001091028994","title":"Java разработчик","text":"#java #senior #backend #js #Москва #fulltime #офис #angular\nЛокация: Москва, м. Шаболовская\nФормат работы: Office\nЗанятость: Fulltime\nЗарплата от 100 к до 240 к\nОписание вакансии:\nРазработчик JAVA (senior\\middle)\nНаш клиент - международная компания, в связи с расширением деятельности в России - приглашает опытных Java-разработчиков. \nРазработка собственного продукта - коммерческого приложения на основе Angular front + Java backend.\nОбязанности:\n- разработка новых компонентов системы\n- доработка и оптимизация существующих компонентов\n- поддержка качества кода (code review, использование систем автоматизированного контроля кода)\n- Написание юнит-тестов и функциональных тестов\n- Взаимодействие с бизнес-аналитиками для выполнения техзадания\nТребования:\n- Высшее образование\n- Командность, гибкость подходов и мышления\n- опыт разработки на java от 3 лет\nТехнические требования:\n- знание java 8, Spring-*(Boot, Data, Rest), Hibernate\n- опыт работы с SQL (SQL Server, Oracle или postgresql)\n- понимание основ микросервисной архитектуры\n- Git\n-если ты умеешь работать с Docker и понимаешь практики DevOps ты тот, кто нам нужен.\nАдекватных руководителей, сильную команду и офисные плюшки гарантируем\nКА Wit recruitment\nКонтакты m.buldenko@witrec.com\n@marinabuldenko","markup":[{"type":"hashtag","offset":0,"length":5,"data":"java"},{"type":"hashtag","offset":6,"length":7,"data":"senior"},{"type":"hashtag","offset":14,"length":8,"data":"backend"},{"type":"hashtag","offset":23,"length":3,"data":"js"},{"type":"hashtag","offset":27,"length":7,"data":"Москва"},{"type":"hashtag","offset":35,"length":9,"data":"fulltime"},{"type":"hashtag","offset":45,"length":5,"data":"офис"},{"type":"hashtag","offset":51,"length":8,"data":"angular"},{"type":"link","offset":1229,"length":21,"data":"mailto:m.buldenko@witrec.com"},{"type":"handle","offset":1251,"length":15,"data":"marinabuldenko"}],"date":"2020-06-16T08:20:47+00:00","link":"tg://resolve?domain=jvmjobs&post=1609","tags":[{"name":"java"},{"name":"jvm"},{"name":"angularjs"},{"name":"spring"},{"name":"rest"},{"name":"hibernate"},{"name":"sql"},{"name":"oracle"},{"name":"postgresql"},{"name":"git"},{"name":"docker"},{"name":"spring-boot"},{"name":"sql-server"}],"cities":[{"code":"moscow"}],"allowsRemote":false}},{"node":{"__typename":"Job","id":"1686110208-1001091028994","title":"Java разработчик","text":"#вакансия #java #senior #middle \nЛокация: Саратов, Самара, Кемерово \nЗП: 80.000-170.000 на руки\nИщем в команду Java dev  уровня middle/senior в связи с большим количеством интересных проектов и расширения команды.\nКратко по стеку: \n[ Java 11+, Maven, Spring Boot 2+, Hibernate 5+, PostgreSQL 12, RabbitMQ ]\nТребования:\n - Java SE 8 и выше \n- Spring / Spring Boot \n- Hibernate или MyBatis\n- SQL (PostgreSQL) \n- Apache Tomcat или Eclipse Jetty или другой app server\n- Принципы ООП\n- Web сервисы (REST или SOAP).\n Будет плюсом: опыт работы с одним из актуальных frontend фреймворков - Angular, React, Vue; понимание принципов работы протоколов HTTP, HTTPS; работа с очередями (ActiveMQ, RabbitMQ) и опыт работы с Docker.\nЧто предлагаем:\n- белая з/п и оформление в штат;\n- интересные проекты и адекватное руководство; \n- возможность профессионального и карьерного роста;\n- формат интервью 1 этап по Skype или Zoom\nДля связи и резюме @KaterinaHR","markup":[{"type":"hashtag","offset":0,"length":9,"data":"вакансия"},{"type":"hashtag","offset":10,"length":5,"data":"java"},{"type":"hashtag","offset":16,"length":7,"data":"senior"},{"type":"hashtag","offset":24,"length":7,"data":"middle"},{"type":"handle","offset":929,"length":11,"data":"KaterinaHR"}],"date":"2020-06-16T07:55:35+00:00","link":"tg://resolve?domain=jvmjobs&post=1608","tags":[{"name":"java"},{"name":"jvm"},{"name":"maven"},{"name":"spring"},{"name":"hibernate"},{"name":"postgresql"},{"name":"rabbitmq"},{"name":"sql"},{"name":"apache"},{"name":"tomcat"},{"name":"eclipse"},{"name":"jetty"},{"name":"web"},{"name":"rest"},{"name":"soap"},{"name":"angularjs"},{"name":"reactjs"},{"name":"vuejs"},{"name":"docker"},{"name":"spring-boot"}],"cities":[{"code":"saratov"},{"code":"samara"},{"code":"kemerovo"}],"allowsRemote":false}},{"node":{"__typename":"Job","id":"1685061632-1001091028994","title":"Java разработчик","text":"#вакансия #удаленка \n\nJava Engineer\nФормат работы: #fulltime #remote\nОфис: метро Китай-город\nЗарплата: $ 60 000 в год\nКонтакт для связи: @temnik_sofya\n\nКомпания-разработчик обучающих приложений для детей 3-6 лет и их родителей ищет опытного Java Engineer. В команде сейчас 32 человека, все работают удаленно из России, Белоруссии и Украины. Мы активно растем и привлекаем новые таланты.\n\nПредстоящие задачи связаны с:\n • валидацией подписок Apple/Google/Amazon;\n • клиент-серверными фичами;\n • аналитическим сервисом и визуализацией метрик через Grafana;\n • сервисом пуш-уведомлений;\n • интеграциями со сторонними сервисами (Facebook, Amplitude, adjust, Mailchimp);\n • созданием админки;\n • безопасностью.\n\nТребования:\n\n- Технический английский;\n- Владение или желание научиться и использовать Kotlin.\n\nПервоначальный отбор осуществляется через 6nomads.com","markup":[{"type":"hashtag","offset":0,"length":9,"data":"вакансия"},{"type":"hashtag","offset":10,"length":9,"data":"удаленка"},{"type":"hashtag","offset":51,"length":9,"data":"fulltime"},{"type":"hashtag","offset":61,"length":7,"data":"remote"},{"type":"handle","offset":137,"length":13,"data":"temnik_sofya"},{"type":"link","offset":845,"length":11,"data":"http://6nomads.com"}],"date":"2020-06-16T07:54:40+00:00","link":"tg://resolve?domain=jvmjobs&post=1607","tags":[{"name":"java"},{"name":"jvm"},{"name":"kotlin"}],"cities":[],"allowsRemote":true}},{"node":{"__typename":"Job","id":"1684013056-1001091028994","title":"Java разработчик","text":"#java #java11 #tarantool #lua #redis #kotlin \n\nКомпания #Иннодата (ГК Ramax) - системный интегратор с офисами в #Москва, #Питер, #Воронеж, #Иннополис. \nФормат работы #офис, #fulltime #remote\nВилка: от 200 net на руки\nКонтакт для связи: pbokarev@innodata.ru \n\n📌Задача: Нам предстоит разработать один из центральных компонентов ИТ системы крупнейшей ритейл сети.\n\nГеораспределённую mission-critical платформу, работающую в режиме 24/7 365, объединяющую информацию из всех подразделений и IT-систем, связанных с клиентом, в единый профиль. К системе предъявляются жесткие требования ко времени отклика и rps. Ядром системы мы выбрали tarantool - одно из самых навороченных imdg решений на данный момент. Мы ищем человека, который не боится новых вызовов и готов развиваться, устал от бесконечный crud'ов и хочет попробовать себя в highload. Готовы рассмотреть кандидатов разного уровня!\n\n📌Наши плюсы:\nНикакого legacy, тк проект только начинается, есть возможность поучаствовать в выборе стека. Современные технологии, мощный кластер, после окончания проекта возможность работы на других проектах (scala, BIgData)\n\n📌Стек технологий:\nJava 11;\nTarantool (Lua);\nClickhouse;\nPostgreSQL;\n\n📌Требования:\nОпыт коммерческой разработки на Java более 2 лет. Будет плюсом умение писать на Kotlin;\nSQL, опыт проектирования реляционнных баз данных;\nОпыт использования Tarantool или Redis (Lua);\nПонимание разницы OLAP и OLTP;\n\n📌Будет плюсом:\nОпыт работы с распределёнными системами;\nОпыт разработки highload систем;\nОпыт разработки многопоточных приложений;\n\n📌Обязанности:\nУчастие в проектировании архитектуры и детализации работ;\nНепосредсвенно реализация задач;\nПокрытие нового функционала тестами (unit, регрессионные);","markup":[{"type":"hashtag","offset":0,"length":5,"data":"java"},{"type":"hashtag","offset":6,"length":7,"data":"java11"},{"type":"hashtag","offset":14,"length":10,"data":"tarantool"},{"type":"hashtag","offset":25,"length":4,"data":"lua"},{"type":"hashtag","offset":30,"length":6,"data":"redis"},{"type":"hashtag","offset":37,"length":7,"data":"kotlin"},{"type":"hashtag","offset":56,"length":9,"data":"Иннодата"},{"type":"hashtag","offset":112,"length":7,"data":"Москва"},{"type":"hashtag","offset":121,"length":6,"data":"Питер"},{"type":"hashtag","offset":129,"length":8,"data":"Воронеж"},{"type":"hashtag","offset":139,"length":10,"data":"Иннополис"},{"type":"hashtag","offset":166,"length":5,"data":"офис"},{"type":"hashtag","offset":173,"length":9,"data":"fulltime"},{"type":"hashtag","offset":183,"length":7,"data":"remote"},{"type":"link","offset":236,"length":20,"data":"mailto:pbokarev@innodata.ru"}],"date":"2020-06-16T07:13:08+00:00","link":"tg://resolve?domain=jvmjobs&post=1606","tags":[{"name":"java"},{"name":"jvm"},{"name":"lua"},{"name":"redis"},{"name":"kotlin"},{"name":"dotnet"},{"name":"scala"},{"name":"postgresql"},{"name":"sql"}],"cities":[{"code":"moscow"},{"code":"voronezh"}],"allowsRemote":true}},{"node":{"__typename":"Job","id":"71338819584-1001054966032","title":"Android разработчик","text":"#казань #вакансия #работа #android #fудаленка                                                                                                                                                              Город: Казань \nФорма работы: удаленка; проектная занятость на 2-3 месяца                                                                                                             Зарплатная вилка: 60 000 - 80 000 \nНаш стек: Kotlin/Java, Moxy, Cicerone, Retrofit, Dagger2, RxJava2, Room, FCM, Gitlab CI, Mockito                                                                                    Обязанности:\n- Участие в командной разработке, тестировании, оптимизации существующих мобильных приложений на платформе Android;\n- Проектирование архитектуры приложений;\n\nТребования:\n- Опыт коммерческой разработки под Android от 1 года (Java/Kotlin);\n- Опыт создания клиент-серверных приложений;\n- Уверенное знание Java Core, Android SDK;\n- Знание основных технологий и протоколов передачи данных;\n- Знание ООП и паттернов проектирования;\n- Опыт работы с системами контроля версий Git;\n- Английский язык на уровне понимания технической литературы.\n\nБудет плюсом:\n- Наличие завершённых проектов в магазинах приложений;\n- Понимание принципов Clean Architecture;\n- Опыт написания unit и UI-тестов;\n- Умение организовать CI/CD в проекте;\n- Опыт работы с DI.                                                                                                                                                                                                                             Контакты: @daryahr","markup":[{"type":"hashtag","offset":0,"length":7,"data":"казань"},{"type":"hashtag","offset":8,"length":9,"data":"вакансия"},{"type":"hashtag","offset":18,"length":7,"data":"работа"},{"type":"hashtag","offset":26,"length":8,"data":"android"},{"type":"hashtag","offset":35,"length":10,"data":"fудаленка"},{"type":"link","offset":402,"length":15,"data":"tel:60 000 - 80 000"},{"type":"handle","offset":1583,"length":8,"data":"daryahr"}],"date":"2020-06-16T06:01:14+00:00","link":"tg://resolve?domain=mobile_jobs&post=0","tags":[{"name":"mobile"},{"name":"android"},{"name":"kotlin"},{"name":"java"},{"name":"gitlab"},{"name":"git"}],"cities":[{"code":"kazan"}],"allowsRemote":true}},{"node":{"__typename":"Job","id":"1682964480-1001091028994","title":"Java developer","text":"#Junior #Middle #Java #Developer\nКомпания: #Утконос\nЛокация: #Москва\nЗ/п: до 180 000 Net\nКонтакт: @RecruiterTatianaK\nJunior/Middle Java Developer в Утконос Онлайн\n📍Наш проект:\nВ компании разрабатывается комплексная система по управлению складом (WMS). Систему пишем сами «с нуля» на микросервисной архитектуре. \nСистема является ключевой для бизнеса и проектируется под высокие нагрузки.\n📍Что нужно делать?\n25% времени:\nАвтоматизировать бизнес процессы на складе в одной из scrum команд в количестве 10 человек.\n75% времени:\nРазрабатывать E2E и нагрузочные тесты.\n📍Наш стек:\nJava 11/Kotlin, Spring Boot 2.3.0, Camunda BPM, Kafka, Kubernetes, ELK, Grafana, Prometheus\n📍Что предлагаем?\nОформление по ТК РФ, ДМС\nГибкий график\nВозможность работы из дома\nСплоченный и профессиональный коллектив\nКорпоративные скидки на utkonos.ru, tui.ru, фитнес, кино и др.\nОфис - 10 минут  от м. Краснопресненская/ м.Улица 1905 года","markup":[{"type":"hashtag","offset":0,"length":7,"data":"Junior"},{"type":"hashtag","offset":8,"length":7,"data":"Middle"},{"type":"hashtag","offset":16,"length":5,"data":"Java"},{"type":"hashtag","offset":22,"length":10,"data":"Developer"},{"type":"hashtag","offset":43,"length":8,"data":"Утконос"},{"type":"hashtag","offset":61,"length":7,"data":"Москва"},{"type":"handle","offset":98,"length":18,"data":"RecruiterTatianaK"},{"type":"link","offset":818,"length":10,"data":"http://utkonos.ru"},{"type":"link","offset":830,"length":6,"data":"http://tui.ru"}],"date":"2020-06-15T20:10:30+00:00","link":"tg://resolve?domain=jvmjobs&post=1605","tags":[{"name":"java"},{"name":"jvm"},{"name":"dotnet"},{"name":"kotlin"},{"name":"spring"},{"name":"kafka"},{"name":"kubernetes"},{"name":"spring-boot"}],"cities":[{"code":"moscow"}],"allowsRemote":false}},{"node":{"__typename":"Job","id":"90991230976-1001067529236","title":"Python developer","text":"#вакансия #remote #fulltime #python\n\nBack-end Python Developer\n\nФормат работы: #fulltime #remote\nЗарплата: от  $ 50 000 до $ 70 000  в год\n\nКоманда с большим опытом в компьютерном зрении и экспертами мирового уровня ищет в свои ряды Backend Python Developer. Стартап, создающий продукт для домашней безопасности, привлек $6,9 млн инвестиций. Продукт и его основатели базируются в Калифорнии, а почти вся команда — в России и Украине.\n\nЗадачи :\n• Оптимизация и улучшение качества алгоритмов трекинга людей;\n• Доработка основного кода клиентской стороны;\n• Разработка механизмов обновления клиентских приложений (Linux\\Docker);\n• Разработка системы сбора и разметки данных;\n• Доработка инфраструктурных сервисов и системы оценки качества.\n\nТребования:\n• Опыт промышленной работы от двух лет;\n• Опыт разработки оптимизационных алгоритмов разного назначения;\n• Опыт работы с AWS, Google Cloud, Azure, Docker.\n• Знание Python и\\или С++ и\\или Java;\n• Знание сетевых протоколов, их вариаций и особенностей;\n• Умение работать с многопоточной средой, понимание принципов работы сопрограмм;\n• Умение создавать сервера, способные выдерживать большие нагрузки.\n\nБудет плюсом:\n• Веб каркас Tornado, знания протокола HTTP;\n• Базы данных MongoDB, Redis, Aerospike, Cassandra;\n• Опыт работы с распределенной инфраструктурой;\n• Опыт использования нейронных сетей на TensorFlow / Keras / Caffe;\n• Понимание принципов работы различных архитектур нейронных сетей, знание алгоритмов машинного обучения.\n\nЧтобы откликнуться, необходимо пройти короткий отбор по ссылке https://6nomads.com/","markup":[{"type":"hashtag","offset":0,"length":9,"data":"вакансия"},{"type":"hashtag","offset":10,"length":7,"data":"remote"},{"type":"hashtag","offset":18,"length":9,"data":"fulltime"},{"type":"hashtag","offset":28,"length":7,"data":"python"},{"type":"hashtag","offset":79,"length":9,"data":"fulltime"},{"type":"hashtag","offset":89,"length":7,"data":"remote"},{"type":"link","offset":1546,"length":20,"data":"https://6nomads.com/"}],"date":"2020-06-15T18:27:28+00:00","link":"tg://resolve?domain=python_jobs&post=0","tags":[{"name":"python"},{"name":"linux"},{"name":"docker"},{"name":"amazon-web-services"},{"name":"cloud"},{"name":"azure"},{"name":"java"},{"name":"mongodb"},{"name":"redis"},{"name":"cassandra"},{"name":"tensorflow"},{"name":"google-cloud-platform"}],"cities":[],"allowsRemote":true}},{"node":{"__typename":"Job","id":"71313653760-1001054966032","title":"Android разработчик","text":"‼️Вакансия Senior Android⁢ Developer‼️\n#android #developer #вакансия #удаленка\nВ команде Mycelium Wallet (mycelium.com) открыта #вакансия Senior Android⁢ Developer.\n💵З/П 3000-4000 USD по итогам собеседования.\nРабота удаленная 💻\n\nМы предлагаем:\n🔸Получить навыки и компетенции в одном из самых передовых и перспективных направлений финтех индустрии - blockchain;\n🔸Принять участие в разработке одного из самых популярных биткоин-кошельков в Google Play Store;\n🔸Работать в международной команде бок о бок с ведущими специалистами в индустрии;\n🔸Возможность профессионального карьерного роста и участия в разнообразных проектах компании.\n\nЧем предстоит заниматься:\n🔹Разрабатывать новые и развивать существующие мобильные сервисы компании на платформе Android;\n🔹Проектировать и разрабатывать большие функциональные части приложения с привлечением других программистов;\n🔹Использовать cutting edge технологии, а также проверенные временем решения.\n\nТребования:\n✔️Как минимум 3 года опыта разработки на Android;\n✔️Знание Java/Kotlin на уровне ведущего разработчика;\n✔️Знание шаблонов проектирования, опыт использования MVP и других архитектурных подходов;\n✔️Опыт параллельного и многопоточного программирования;\n✔️Понимание циклов работы Android-приложения и управления памятью;\n✔️Опыт разработки пользовательских интерфейсов на платформе Android. \n✔️Знание Android Design Principles;\n✔️Знание и умение использовать различные механизмы взаимодействий между приложениями, предоставляемые в рамках Android SDK;\n✔️Понимание принципов работы REST API, WS, RPC и клиент-серверных приложений;\n✔️Знание английского языка на уровне чтения документации и умения общаться в корпоративном чате.\n\nПлюсом будет:\n➕Умение и понимание необходимости написания Unit tests;\n➕Знание основ криптографии;\n➕Опыт работы с bitcoin/etherium blockchain stack;\n➕Наличие своих проектов на Github, в Google Play и т.д.\n\n📲Контакт: @valeritata","markup":[{"type":"hashtag","offset":39,"length":8,"data":"android"},{"type":"hashtag","offset":48,"length":10,"data":"developer"},{"type":"hashtag","offset":59,"length":9,"data":"вакансия"},{"type":"hashtag","offset":69,"length":9,"data":"удаленка"},{"type":"link","offset":106,"length":12,"data":"http://mycelium.com"},{"type":"hashtag","offset":128,"length":9,"data":"вакансия"},{"type":"handle","offset":1900,"length":11,"data":"valeritata"}],"date":"2020-06-15T15:20:15+00:00","link":"tg://resolve?domain=mobile_jobs&post=0","tags":[{"name":"mobile"},{"name":"android"},{"name":"playframework"},{"name":"java"},{"name":"kotlin"},{"name":"rest"},{"name":"github"}],"cities":[],"allowsRemote":true}},{"node":{"__typename":"Job","id":"1681915904-1001091028994","title":"Java developer","text":"#вакансия #java #javadeveloper #spring #офис #МСК\n\nГород и адрес офиса: Москва, \nФормат работы: в офисе\nЗанятость: фулл тайм\nЗарплатная вилка: 200 000-250 000 рублей на руки (+-10% люфт для кандидатов с немного большими ожиданиями)\nНазвание компании: Фирма 1С\n\nВ амбициозный проект фирмы «1С» требуется Lead Java Developer с экспертным знанием стека Spring Framework и практическим опытом в области разработки интернет-проектов на платформе Java. Вы получите возможность работать над архитектурно значимыми компонентами, создавая масштабные и современные интернет-проекты делового назначения. \nСам проект представляет: современную торговую площадку в сегменте B2B https://1cbn.ru/trading.htm. Наша торговая площадка - технически сложный интернет-проект, работающий как в web, так и встроенный во многие учетные системы \"1С\".\n\nТЕХНОЛОГИЧЕСКИЙ СТЕК:\nJava, экосистема Spring (IoC, Spring MVC, Spring Data JPA, Spring Security, Spring Boot), PostgreSQL\n\nЧТО ВЫ БУДЕТЕ ДЕЛАТЬ:\n-Анализ задачи и проектирование микросервисов с использованием DDD и Hexagonal Architecture;\n-Проведение code review;\n-Участие в архитектурном совете продукта;\n-Проектирование REST API (OpenAPI 3);\n-Разработку микросервисов на Spring Framework 5 от идеи до запуска в эксплуатацию;\n-Покрытие своего кода unit и интеграционными тестами;\n-Соотношение легаси к разработке 20/80%.\n\nМы используем микросервисную архитектуру, Project Lombok, технологии Spring Cloud, Spring Boot, Spring Data, Elasticsearch, PostgreSQL, Git, Docker. Практикуем DDD, Agile-методологии, code review, CI и прочие полезные инженерные практики.\n\nЧТО ПРЕДЛАГАЕМ:\n-возможность профессионального и карьерного роста вместе с ростом команды;\n-опыт работы с талантливыми профессионалами, у которых есть чему научиться;\n-современный комфортный офис в 5-ти минутах ходьбы от м. Тимирязевская  http://1c.ru/rus/firm1c/d9.html;\n-зоны отдыха и кофе-поинты с диванами и массажными креслами;\n-гибкий график;\n-возможность заказывать проф. литературу за счет компании;\n-стабильная и конкурентоспособная заработная плата;\n-расширенный социальный пакет (ДМС со стоматологией всех видов работ);\n(хорошо решены вопросы медицинского обслуживания   (страхования), питания, проезда, спорта);\n-бесплатная охраняемая парковка на территории офиса;\n-предоставляем жилье для иногородних на период исп. срока.\n\nПообщаться по вакансии можно в телеграм @lamamama или по почте yana@geecko.ru","markup":[{"type":"hashtag","offset":0,"length":9,"data":"вакансия"},{"type":"hashtag","offset":10,"length":5,"data":"java"},{"type":"hashtag","offset":16,"length":14,"data":"javadeveloper"},{"type":"hashtag","offset":31,"length":7,"data":"spring"},{"type":"hashtag","offset":39,"length":5,"data":"офис"},{"type":"hashtag","offset":45,"length":4,"data":"МСК"},{"type":"link","offset":664,"length":27,"data":"https://1cbn.ru/trading.htm"},{"type":"link","offset":1828,"length":31,"data":"http://1c.ru/rus/firm1c/d9.html"},{"type":"handle","offset":2366,"length":9,"data":"lamamama"},{"type":"link","offset":2389,"length":14,"data":"mailto:yana@geecko.ru"}],"date":"2020-06-15T14:41:52+00:00","link":"tg://resolve?domain=jvmjobs&post=1604","tags":[{"name":"java"},{"name":"jvm"},{"name":"spring"},{"name":"web"},{"name":"jpa"},{"name":"postgresql"},{"name":"rest"},{"name":"cloud"},{"name":"elasticsearch"},{"name":"git"},{"name":"docker"},{"name":"html"},{"name":"spring-mvc"},{"name":"spring-data"},{"name":"spring-security"},{"name":"spring-boot"}],"cities":[{"code":"moscow"}],"allowsRemote":false}}]}}},"context":{}}