{"hash":"f34fd2c444a074f4e0e67d525015a008ef8e766f","data":{"records":{"id":"selenium","name":"selenium","belongsTo":{"totalCount":12,"pageInfo":{"totalPages":2,"currentPage":2},"edges":[{"node":{"__typename":"Job","id":"98124693504-1001089317451","title":"Qa engineer","text":"#вакансия #QAAutomation #Python #Москва \nДолжность: QA Automation Engineer\nЛокация: Москва\nКомпания:  GetIT\nПроект: платформа управления корпоративными парками мобильных устройств.\nЗадачи:\n•Разработка автоматизированных тестов (web + api), стремимся к 100% покрытию автотестами  (не unit)\n•Участие в развитии тестового framework'а\n•Командная работа с разработчиками и аналитиками (Scrum Dev Team)\nСтек: Python, Pytest, requests + cattrs, selenium\nУсловия:\n•ЗП до 190 000 гросс (в зависимости от ваших тех скиллов и уровня мидл/синьор)\n•Участие в конференциях\n•ДМС\nРезюме можно направить сюда:\nтг: @RitaRS \nпочта: m.sinelnikova@getit.agency","markup":[{"type":"hashtag","offset":0,"length":9,"data":"вакансия"},{"type":"hashtag","offset":10,"length":13,"data":"QAAutomation"},{"type":"hashtag","offset":24,"length":7,"data":"Python"},{"type":"hashtag","offset":32,"length":7,"data":"Москва"},{"type":"bold","offset":41,"length":10,"data":""},{"type":"bold","offset":75,"length":7,"data":""},{"type":"bold","offset":91,"length":9,"data":""},{"type":"bold","offset":108,"length":7,"data":""},{"type":"bold","offset":181,"length":8,"data":""},{"type":"bold","offset":397,"length":5,"data":""},{"type":"bold","offset":447,"length":9,"data":""},{"type":"bold","offset":457,"length":19,"data":""},{"type":"bold","offset":564,"length":29,"data":""},{"type":"handle","offset":597,"length":7,"data":"RitaRS"},{"type":"link","offset":613,"length":26,"data":"mailto:m.sinelnikova@getit.agency"}],"date":"2020-04-07T10:24:33+00:00","link":"tg://resolve?domain=qa_jobs&post=93579","tags":[{"name":"qa"},{"name":"python"},{"name":"web"},{"name":"selenium"}],"cities":[{"code":"moscow"}],"allowsRemote":false}},{"node":{"__typename":"Job","id":"98118402048-1001089317451","title":"Qa engineer","text":"#вакансия #СПБ #fulltime #office\n\nГород: Санкт-Петербург\nПозиция: Senior QA Engineer\nКомпания: Antal Russia\nФормат работы: офис, полная занятость \nЗарплатная вилка: до 150k gross + ежемесячные и квартальные бонусы (З/П обсуждаем индивидуально)\n\nО проекте:\nНужен Senior QA Engineer в команду, разрабатывающую интерфейсы сервиса обновления, сервиса метаданных и VOD-контента. \nМы используем микросервисную архитектуру, применяем на backend как основной язык Python, а на frontend - стандартный web-стек (JS, CSS, HTML).\n\nКого мы ищем?\n- Опыт тестирования от 3-х лет;\n- Опыт тестирования веб сервисов (UI+backend);\n- Знание реляционных СУБД (Postgres);\n- Умение работать с ОС Linux в консоли;\n- Знание Python, JavaScript, опыт программирования приветствуется;\n- Опыт автоматизации Selenium;\n- Опыт наставничества/управления небольшой командой.\n\nМы предлагаем:\n- Современный офис в Петербурге\n- Иногда можно работать удалённо;\n- ДМС и врач в офисе;\n- Оплата спорта и проф. курсов;\n- Помощь с переездом семьи из любого региона России.\n\nКонтакты куда слать СV резюме: kristina.shaburova@antalrussia.com\ntelegram @hello_intelligence","markup":[{"type":"hashtag","offset":0,"length":9,"data":"вакансия"},{"type":"hashtag","offset":10,"length":4,"data":"СПБ"},{"type":"hashtag","offset":15,"length":9,"data":"fulltime"},{"type":"hashtag","offset":25,"length":7,"data":"office"},{"type":"italic","offset":34,"length":6,"data":""},{"type":"italic","offset":57,"length":8,"data":""},{"type":"bold","offset":66,"length":19,"data":""},{"type":"italic","offset":85,"length":9,"data":""},{"type":"italic","offset":108,"length":14,"data":""},{"type":"italic","offset":147,"length":17,"data":""},{"type":"bold","offset":245,"length":11,"data":""},{"type":"bold","offset":519,"length":14,"data":""},{"type":"bold","offset":842,"length":15,"data":""},{"type":"bold","offset":1062,"length":63,"data":""},{"type":"link","offset":1062,"length":34,"data":"mailto:kristina.shaburova@antalrussia.com"},{"type":"handle","offset":1106,"length":19,"data":"hello_intelligence"}],"date":"2020-04-07T09:10:42+00:00","link":"tg://resolve?domain=qa_jobs&post=93573","tags":[{"name":"qa"},{"name":"python"},{"name":"web"},{"name":"css"},{"name":"html"},{"name":"postgresql"},{"name":"linux"},{"name":"javascript"},{"name":"selenium"}],"cities":[],"allowsRemote":true}}]}}},"context":{}}