{"hash":"f5f6bf98bd95e769321482904cbbd488f77922fd","data":{"records":{"id":"ios","name":"ios","belongsTo":{"totalCount":194,"pageInfo":{"totalPages":20,"currentPage":6},"edges":[{"node":{"__typename":"Job","id":"72334966784-1001054966032","title":"Ios разработчик","text":"#вакансия #iOS \n\nНа проект от Сбербанка требуется Middle iOS разработчик\n\nФормат: офис\n\nВилка ЗП: 160 000 - 200 000 рублей (net)\n\nЛокация: Москва\n\nТребования:\n- Опыт разработки под iOS (Objective-C или Swift) от 2 лет\n- Знание особенностей: Collections, Optionals, Protocol Oriented, Generics\n- Понимание, как происходит управление памятью в iOS\n- Понимание принципов проектирования SOLID\n- REST API, HTTP, JSON, APNs\n- Git, git flow\n\nБудет плюсом:\n- Умение писать UI тесты\n- Опыт в команде\n\nКонтакт: @mxm_at","markup":[{"type":"hashtag","offset":0,"length":9,"data":"вакансия"},{"type":"hashtag","offset":10,"length":4,"data":"iOS"},{"type":"bold","offset":30,"length":9,"data":""},{"type":"bold","offset":50,"length":22,"data":""},{"type":"bold","offset":74,"length":7,"data":""},{"type":"bold","offset":88,"length":9,"data":""},{"type":"bold","offset":130,"length":8,"data":""},{"type":"bold","offset":147,"length":11,"data":""},{"type":"bold","offset":435,"length":14,"data":""},{"type":"handle","offset":501,"length":7,"data":"mxm_at"}],"date":"2020-06-30T09:47:00+00:00","link":"tg://resolve?domain=mobile_jobs&post=68984","tags":[{"name":"mobile"},{"name":"ios"},{"name":"dotnet"},{"name":"objective-c"},{"name":"swift"},{"name":"rest"},{"name":"json"},{"name":"git"}],"cities":[{"code":"moscow"}],"allowsRemote":false}},{"node":{"__typename":"Job","id":"72327626752-1001054966032","title":"Mobile программист","text":"#вакансия #ios #swift #middle\nФормат работы: удаленная\nГород: Киев/Харьков\nЗанятость: полная\nз/п: 2000-3000$\n\nMiddle Ios Swift +RXSwift Developer (Mobile Apps)\n🔥🔥🔥\n\nИщем опытного Ios Swift программиста в продуктовую компанию.\nТребования:\n- 2+ лет в ios разработке (Swift);\n- Солидный бекграунд в OOP и нативной разработке;\n- Понимание всего цикла разработки мобильного приложения;\n- Опыт работы с алгоритмами, базами данных и комплексным анализом ;\n- MVP, MVVM;\n- Опыт работы с реактивным кодом (RXSwift);\n- Интеграция REST API;\n- Опыт с GIT, BitBucket, JIRA;\n\nБудет плюсом:\n- Опыт работы с Firebase, FCM;\n- Знание гайдлайнов и екосистемы ios ;\n- Опыт работы с CocoaPods (Alamofire, PromiseKit, Starscream, - Kingsfisher, RxSwift, DifferenceKit).\n\nЧто мы предлагаем:\n- Дружный коллектив;\n- Удаленный формат работы (на период карантина);\n- Гибгий график;\n- Конкурентную з/п;\n- Личностное и профессиональное развитие.\n📍Писать сюда: @vortex007","markup":[{"type":"hashtag","offset":0,"length":9,"data":"вакансия"},{"type":"hashtag","offset":10,"length":4,"data":"ios"},{"type":"hashtag","offset":15,"length":6,"data":"swift"},{"type":"hashtag","offset":22,"length":7,"data":"middle"},{"type":"bold","offset":110,"length":49,"data":""},{"type":"handle","offset":934,"length":10,"data":"vortex007"}],"date":"2020-06-30T08:51:50+00:00","link":"tg://resolve?domain=mobile_jobs&post=68977","tags":[{"name":"mobile"},{"name":"ios"},{"name":"swift"},{"name":"mvvm"},{"name":"rest"},{"name":"git"},{"name":"firebase"},{"name":"cocoapods"}],"cities":[{"code":"kiev"}],"allowsRemote":true}},{"node":{"__typename":"Job","id":"72324481024-1001054966032","title":"Ios разработчик","text":"#вакансия #работа #Санкт_Петербург #middle #IOS #Swift #Scrum\n\nФормат работы: Удаленный\nЗанятость: Полная\nЗарплатная вилка: от 120 000 до 200 000.\n\nМы Stream - делаем классные и реально удобные продукты для людей. 📣Сейчас находимся в поиске IOS разработчика.📱\n\nЖдём от вас: \n🔹Опыт разработки приложений на IOS (желательно от 2-х лет).\n🔹Знание ООП, структур данных, архитектурных паттернов;\n🔹Опыт применения RxSwift;\n🔹Опыт написания unit-тестов;\n🔹Наличие готовых приложений в AppStore будет преимуществом;\n🔹Коммуникабельность, желание работать в команде единомышленников.\nПредлагаем:\n✅Сильная команда\n✅Гибкий график\n✅ДМС со стоматологией\n✅Компенсация мобильной связи\n✅Официальное оформление и \"белая\" зарплата + премии сверху оклада\n✅Возможность дополнительного обучения.\n\nКонтакты: telegram - @YanaKuzn\nпочта: ykuznetsova@stream.ru","markup":[{"type":"hashtag","offset":0,"length":9,"data":"вакансия"},{"type":"hashtag","offset":10,"length":7,"data":"работа"},{"type":"hashtag","offset":18,"length":16,"data":"Санкт_Петербург"},{"type":"hashtag","offset":35,"length":7,"data":"middle"},{"type":"hashtag","offset":43,"length":4,"data":"IOS"},{"type":"hashtag","offset":48,"length":6,"data":"Swift"},{"type":"hashtag","offset":55,"length":6,"data":"Scrum"},{"type":"handle","offset":801,"length":9,"data":"YanaKuzn"},{"type":"link","offset":818,"length":21,"data":"mailto:ykuznetsova@stream.ru"}],"date":"2020-06-30T08:35:09+00:00","link":"tg://resolve?domain=mobile_jobs&post=68974","tags":[{"name":"mobile"},{"name":"ios"},{"name":"swift"}],"cities":[],"allowsRemote":false}},{"node":{"__typename":"Job","id":"72318189568-1001054966032","title":"Ios разработчик","text":"#вакансия #swift #objective-C #ios\n\niOS разработчик удаленно по России \nmiddle/senior\n\nГород : Санкт-Петербург\nФормат работы: офис или удаленно\nЗанятость: Полная\nЗарплатная вилка:  90 000 - 200 000 руб\nОписание компании:\nВ Blogman мы занимаемся разработкой собственного приложения – платформа для блогеров и рекламодателей. В нашей команде уже более 50 разработчиков и мы продолжаем расти. Сейчас мы ищем инженера с опытом коммерческой разработки под iOS\n\nМы ожидаем, что у вас есть:\n— Опыт коммерческой разработки мобильных приложений под iOS;\n— Хорошие знания Swift, UIKit;\n— Опыт работы с мобильными БД;\n— Умение работать с Git, Cocoapods.\n\nБудет плюсом, если вы:\n— Разрабатывали клиент-серверные приложения;\n— Умеете работать с WebSocket;\n— Знаете и понимаете архитектуру VIPER;\n— Командный игрок без яркого эгоцентризма;\n— Готовы активно принимать участие в жизни компании и продукта.\n\nРады предложить:\n– Удаленное сотрудничество или комфортный офис на Невском проспекте в 5 минутах ходьбы от ст. м. Маяковская и Владимирская;\n– Желаемый оклад по результатам собеседования;\n– Понятную систему роста зарплаты каждые 6 месяцев, в которой все зависит только от вас;\n– Все необходимые офисные блага вроде вкусного кофе и т.д.\nВас будут окружать адекватные люди, с которыми комфортно решать поставленные задачи. У сотрудников есть общие ценности, такие как стремление к качественному результату, забота о продукте и желание двигаться вперед. Также у нас нет “Начальства”, а есть коллеги. Все взаимодействуют горизонтально и в команде равенство между инженерами, стейкхолдером, продактом и т.д. Все работают бок о бок и делают одно общее дело.\nНазвание компании: Blogman\nКонтакты: @maria_golovina","markup":[{"type":"hashtag","offset":0,"length":9,"data":"вакансия"},{"type":"hashtag","offset":10,"length":6,"data":"swift"},{"type":"hashtag","offset":17,"length":10,"data":"objective"},{"type":"hashtag","offset":30,"length":4,"data":"ios"},{"type":"bold","offset":223,"length":8,"data":""},{"type":"bold","offset":456,"length":27,"data":""},{"type":"bold","offset":644,"length":22,"data":""},{"type":"bold","offset":891,"length":16,"data":""},{"type":"handle","offset":1680,"length":15,"data":"maria_golovina"}],"date":"2020-06-30T07:56:16+00:00","link":"tg://resolve?domain=mobile_jobs&post=68968","tags":[{"name":"mobile"},{"name":"ios"},{"name":"swift"},{"name":"objective-c"},{"name":"uikit"},{"name":"git"},{"name":"cocoapods"},{"name":"websocket"}],"cities":[],"allowsRemote":true}},{"node":{"__typename":"Job","id":"72296169472-1001054966032","title":"Ios разработчик","text":"#вакансия #ios #swift #junior #джун\n\nГород и адрес офиса: Санкт-Петербург, м. Петроградская (но команда работает удалённо)\n\nФормат работы: удалёнка\n\nЗанятость: проектная\n\nЗарплатная вилка (за проект): 200 000–500 000₽\n\nОписание вакансии: \nИщем джуниор-iOS разработчиков для разработки приложения под руководством сильного тимлида. Все подробности про приложение — в личку. \n\nФормат работы — проектный, с фиксированной оплатой за проект. После запуска приложения есть вероятность перехода на фултайм в команду (зависит от успеха запуска приложения). \n\nЕсли хочешь работать на международном рынке, тебе интересны стартапы, хочешь быть частью команды, которая работает над классными продуктами — пиши и присоединяйся к нам!\n\nВ отклике укажи портфолио/проекты/ссылки на приложения, резюме, ссылку на гитхаб. Вкратце расскажи, почему тебя заинтересовала наша вакансия. \n\nНазвание компании: Mooza.ru (пилим внутренний проект, не заказной)\n\nКонтакты: tg — @arutyunov","markup":[{"type":"hashtag","offset":0,"length":9,"data":"вакансия"},{"type":"hashtag","offset":10,"length":4,"data":"ios"},{"type":"hashtag","offset":15,"length":6,"data":"swift"},{"type":"hashtag","offset":22,"length":7,"data":"junior"},{"type":"hashtag","offset":30,"length":5,"data":"джун"},{"type":"bold","offset":37,"length":20,"data":""},{"type":"bold","offset":124,"length":14,"data":""},{"type":"bold","offset":149,"length":11,"data":""},{"type":"bold","offset":171,"length":30,"data":""},{"type":"bold","offset":219,"length":19,"data":""},{"type":"bold","offset":866,"length":18,"data":""},{"type":"link","offset":885,"length":8,"data":"http://mooza.ru/"},{"type":"bold","offset":934,"length":9,"data":""},{"type":"handle","offset":949,"length":10,"data":"arutyunov"}],"date":"2020-06-29T17:31:17+00:00","link":"tg://resolve?domain=mobile_jobs&post=68947","tags":[{"name":"mobile"},{"name":"ios"},{"name":"swift"}],"cities":[],"allowsRemote":true}},{"node":{"__typename":"Job","id":"72286732288-1001054966032","title":"Ios разработчик","text":"#вакансия #ios #офис #удаленка #Москва #fulltime\n\nГород: Москва\nФормат работы: офис/удаленная работа\nЗанятость: полная\nЗарплатная вилка: от 130 000 до 200 000\n\nКомпания: Лига Цифровой Экономики \n\nЛига Цифровой Экономики — это 3 500 человек и  1 000 проектов цифровой трансформации каждый год!\n\nНаши клиенты — лидеры рынка в ключевых отраслях экономики и государственного сектора. Мы гордимся нашей экспертизой и знаковыми проектами.\n\n🟢Мы пишем iOS-приложение для крупного ритейлера по продаже электроники и уже прошли довольно большой путь. Как ты уже понял, останавливаться мы не собираемся.\n\nМы постоянно растём и прямо сейчас ищем в команду хорошего iOS-разработчика, который будет с нами и в горе, и в радости.\n\nМы разрабатываем на последней версии Swift, используем VIPER. А также, пишем unit-тесты, используем моднейший CI/CD, ратуем за чистую архитектуру и не боимся экспериментировать.\n\n🔹Чего тебя ждёт на нашем проекте:\n\nРазработка нового функционала приложения – на горизонте маячит большое количество интересных фич, включая геймификацию.\nПоддержка и сопровождение существующего функционала – приложение уже довольно большое и за ним нужно ухаживать: не давать зарастать багами и следить за unit-тестами;\nУчастие в обсуждениях по развитию приложения и его архитектуры;\nРефакторинг устаревших модулей проекта;\n\n🔹Кого мы ищем:\n\nУверенное знание языка Swift, UIKit, Foundation и среды разработки в целом;\nПонимание архитектуры VIPER;\nОпыт написания Unit-тестов приветствуется;\nПонимание принципов SOLID;\nОпыт работы с системами контроля версий (Git);\nКоммуникабельность;\nЖелание обучаться и развиваться;\nУмение разбираться в чужом коде без приступов тошноты.\n\nПо всем вопросам пишите в ЛС: @Bogdan_Ln","markup":[{"type":"hashtag","offset":0,"length":9,"data":"вакансия"},{"type":"hashtag","offset":10,"length":4,"data":"ios"},{"type":"hashtag","offset":15,"length":5,"data":"офис"},{"type":"hashtag","offset":21,"length":9,"data":"удаленка"},{"type":"hashtag","offset":31,"length":7,"data":"Москва"},{"type":"hashtag","offset":39,"length":9,"data":"fulltime"},{"type":"handle","offset":1701,"length":10,"data":"Bogdan_Ln"}],"date":"2020-06-29T15:45:55+00:00","link":"tg://resolve?domain=mobile_jobs&post=68938","tags":[{"name":"mobile"},{"name":"ios"},{"name":"swift"},{"name":"uikit"},{"name":"git"}],"cities":[{"code":"moscow"}],"allowsRemote":true}},{"node":{"__typename":"Job","id":"358612992-1001352129329","title":"Golang разработчик","text":"#вакансия #Москва #офис #удаленка #Golang #fulltime\n\nГород и адрес офиса: Москва, м. Новокузнецкая/Павелецкая\nФормат работы: #офис, #удаленка\nЗанятость: #полная\nЗП: от 120к до 200к руб. нетт\n\nSports.ru – ведущий спортивный сайт в России. Мы строим сообщества людей, увлекающихся разными видами спорта, помогаем им развиваться и даем им площадку для общения. Сейчас мы ищем Backend-разработчика (Golang/PHP) в команду нашего проекта Betting Insider.\n\nBetting Insider — социальная сеть для любителей ставок. Мы верим, что ставки — неотъемлемая часть рынка спортивных развлечений, и стремимся сделать этот рынок прозрачнее и интереснее для пользователей. Мы не принимаем ставок на реальные деньги, но даем пользователям множество вспомогательных сервисов, которые делают их игру проще, безопаснее и интереснее.\n\nО задачах:\nВы будете участвовать в продуктовой разработке на всех стадиях: от обсуждения фич и проработки архитектуры до деплоя и мониторинга работы.\nРазрабатывать микросервисы на Go, перевода на них наш монолит на PHP. Поддержкой монолита тоже нужно будет заниматься. Разрабатывать GraphQL API для web-версии и приложений iOS и Android.\nОптимизировать работу приложений, искать проблемы с производительностью и надежностью. Покрывать код тестами и проводить код ревью.\nЕще сможете принять участие в разработке core сервисов для sports.ru и других наших проектов с MAU больше 20 млн.\n\nО технологиях:\nGo как основной язык. PHP сервис для поддержки и переписывания на Go.\nGraphQL для клиентов. gRPC и JSON over HTTP для межсервисного взаимодействия.\nРазвертывание docker контейнеров в kubernetes. Деплой через gitlab CI и helm чарты.\nМониторинг, трейсинг и алертинг c помощью Grafana и Prometheus, Kibana, Sentry, Elasticsearch APM.\nPostgres 12 и MySQL 8.0.\nNsq и RabbitMQ в качестве очереди событий. Redis для Pub/Sub.\n\nО наших ожиданиях:\nМы ожидаем, что вы имеете опыт разработки микросервисов на Go. Имеете опыт работы с PHP и все еще можете и хотите с ним взаимодействовать. Имеете навыки построения производительных и отказоустойчивых систем.\nЗнаете основы используемых технологий и понимаете, как их использовать: SQL, Go, PHP, message queue, сетевое взаимодействие, кеширование, системы мониторинга и т.д.\nУ вас есть опыт написания тестов равного уровня: Unit, Integration, E2E.\nОпыт взаимодействия с GraphQL и gRPC будет плюсом.\nКлассно, если вы любите спорт. Еще лучше, если вы интересуетесь ставками.\n\nОб условиях: \nПросторный стильный офис возле м. Новокузнецкая/Третьяковская.\n“Белая” заработная плата.\nБесплатная медстраховка со стоматологией после испытательного срока.\nГибкий график работы с возможностью день-два в неделю работать удаленно,\nФрукты, снеки, чай, кофе, какао 24/7.\nКорпоративная скидка в спортзал и на занятия английским языком.\nКорпоративный футбол с тренером.\nФинансовая помощь при переезде из другого города.\nВозможности для профессионального развития.\n\nНазвание компании: Sports.ru (Tribuna Digital)\nКому интересно, пишите в личку (@pbuyatova), поделюсь подробностями)","markup":[{"type":"hashtag","offset":0,"length":9,"data":"вакансия"},{"type":"hashtag","offset":10,"length":7,"data":"Москва"},{"type":"hashtag","offset":18,"length":5,"data":"офис"},{"type":"hashtag","offset":24,"length":9,"data":"удаленка"},{"type":"hashtag","offset":34,"length":7,"data":"Golang"},{"type":"hashtag","offset":42,"length":9,"data":"fulltime"},{"type":"hashtag","offset":125,"length":5,"data":"офис"},{"type":"hashtag","offset":132,"length":9,"data":"удаленка"},{"type":"hashtag","offset":153,"length":7,"data":"полная"},{"type":"link","offset":192,"length":9,"data":"http://Sports.ru"},{"type":"link","offset":1338,"length":9,"data":"http://sports.ru"},{"type":"link","offset":2913,"length":9,"data":"http://Sports.ru"},{"type":"handle","offset":2973,"length":10,"data":"pbuyatova"}],"date":"2020-06-29T15:38:06+00:00","link":"tg://resolve?domain=gogetajobfeed&post=342","tags":[{"name":"go"},{"name":"php"},{"name":"graphql"},{"name":"web"},{"name":"ios"},{"name":"android"},{"name":"json"},{"name":"docker"},{"name":"kubernetes"},{"name":"gitlab"},{"name":"elasticsearch"},{"name":"postgresql"},{"name":"mysql"},{"name":"rabbitmq"},{"name":"redis"},{"name":"sql"}],"cities":[{"code":"moscow"}],"allowsRemote":true}},{"node":{"__typename":"Job","id":"72284635136-1001054966032","title":"Ios developer","text":"#вакансия #спб #ios #middle #senior #spb #офис #IoT #умныйдом \nMiddle/Senior iOS developer \nReady for Sky 🚀 \nhttps://readyforsky.com/ru/career/ \n📍 полный день, удаленно/офис (сейчас вся компания работает удаленно) \nМы ищем iOS developer, который будет разрабатывать приложение, использующее данные с IoT-устройств для предоставления пользователям нужных товаров и услуг \n💡 Используем: Swift, Objective-C; Jenkins; GraphQL; RxSwift; MVC, MVVM и Viper \nВ команде: разрабатываем новый функционал приложения, внутренние фреймворки (Private pods), фреймворки для общего доступа; пишем Unit тесты; принимаем участие в создании протоколов работы с умными устройствами; Refactoring и Code-review. \nПредлагаем: \nРаботу в профессиональной команде (team lead, senior, middle), более 300 000 активных пользователей приложения. \nЗП от 130 до 250 тыс. руб. на руки \nПосле исп.срока корпоративный английский \n📬 Пиши: @Rupeka_Natali","markup":[{"type":"hashtag","offset":0,"length":9,"data":"вакансия"},{"type":"hashtag","offset":10,"length":4,"data":"спб"},{"type":"hashtag","offset":15,"length":4,"data":"ios"},{"type":"hashtag","offset":20,"length":7,"data":"middle"},{"type":"hashtag","offset":28,"length":7,"data":"senior"},{"type":"hashtag","offset":36,"length":4,"data":"spb"},{"type":"hashtag","offset":41,"length":5,"data":"офис"},{"type":"hashtag","offset":47,"length":4,"data":"IoT"},{"type":"hashtag","offset":52,"length":9,"data":"умныйдом"},{"type":"bold","offset":63,"length":27,"data":""},{"type":"bold","offset":92,"length":13,"data":""},{"type":"link","offset":110,"length":34,"data":"https://readyforsky.com/ru/career/"},{"type":"bold","offset":225,"length":13,"data":""},{"type":"bold","offset":376,"length":11,"data":""},{"type":"bold","offset":454,"length":10,"data":""},{"type":"bold","offset":693,"length":11,"data":""},{"type":"bold","offset":900,"length":5,"data":""},{"type":"handle","offset":906,"length":14,"data":"Rupeka_Natali"}],"date":"2020-06-29T15:34:19+00:00","link":"tg://resolve?domain=mobile_jobs&post=68936","tags":[{"name":"mobile"},{"name":"ios"},{"name":"swift"},{"name":"objective-c"},{"name":"jenkins"},{"name":"graphql"},{"name":"mvvm"}],"cities":[],"allowsRemote":true}},{"node":{"__typename":"Job","id":"72278343680-1001054966032","title":"Ios developer","text":"‼️Вакансия Senior iOS Developer в MNFST‼️\n\n#вакансия #ios #удалённо \nФормат работы: #удалённо\nЗанятость: полная\n💶 З/п: от 200 000 до 230 000 руб. на руки\n\n🏢 Компания: MNFST (mnfst.com)\n\nЧем предстоит заниматься: \n🔸 Разработка и доработка нового функционала iOS-приложения MNFST\n🔸 Поддержка и развитие AR и face tracker\n🔸 Работа над оптимизацией и стабильностью приложения\n\nТребования:\n✔️ Отличное владение языком Swift (не менее двух лет)\n✔️ Опыт коммерческой разработки iOS-приложений (не менее трех лет)\n✔️ Хорошее владение Objective-C\n✔️ Уверенное знание GCD и понимание ARC\n\nПлюсом будет:\n➕ Знание Objective-C Runtime\n➕ Опыт работы с AVFoundation, Vision, ARKit и CoreML\n➕ Опыт разработки Cocoa Touch Frameworks\n\n📨 Резюме и вопросы по вакансии присылайте на talent@mnfst.com или @aderyabin","markup":[{"type":"hashtag","offset":43,"length":9,"data":"вакансия"},{"type":"hashtag","offset":53,"length":4,"data":"ios"},{"type":"hashtag","offset":58,"length":9,"data":"удалённо"},{"type":"bold","offset":69,"length":14,"data":""},{"type":"hashtag","offset":84,"length":9,"data":"удалённо"},{"type":"bold","offset":94,"length":11,"data":""},{"type":"bold","offset":115,"length":5,"data":""},{"type":"bold","offset":159,"length":10,"data":""},{"type":"link","offset":176,"length":9,"data":"http://mnfst.com"},{"type":"bold","offset":188,"length":25,"data":""},{"type":"bold","offset":378,"length":11,"data":""},{"type":"bold","offset":584,"length":14,"data":""},{"type":"link","offset":768,"length":16,"data":"mailto:talent@mnfst.com"},{"type":"handle","offset":789,"length":10,"data":"aderyabin"}],"date":"2020-06-29T14:33:28+00:00","link":"tg://resolve?domain=mobile_jobs&post=68930","tags":[{"name":"mobile"},{"name":"ios"},{"name":"swift"},{"name":"objective-c"},{"name":"cocoa"},{"name":"cocoa-touch"}],"cities":[],"allowsRemote":true}},{"node":{"__typename":"Job","id":"72272052224-1001054966032","title":"Ios разработчик","text":"#вакансия #ios #senior #swift #Спб\n\nГород: Санкт-Петербург\nФормат работы: офис\nЗанятость: полная\nЗарплатная вилка: 180-220 k net (готовы по потолку двигаться в зависимости от опыта)\nВакансия: ищу ведущего iOS-разработчика в развитие молодого приложения.\nО компании: НаПоправку.ру — медицинский онлайн-сервис. Команда реализовала real-time запись на медицинскую диагностику и услуги. Компании 6 лет, ежемесячно она помогает более чем 1 000 000 пользователей решать свои проблемы со здоровьем, и этот факт по-настоящему драйвит команду.\n\nГлавные задачи:\n✔️ Развивать архитектуру приложения и решать \"как делать\"\n✔️ Участвовать в планировании спринтов\n✔️ Менторство для младшего разработчика\n✔️ Наши технологии: Мы строим работу по SCRUM, для организации flow используем Jira и Slack.\n✔️ Основной стек команды веб-разработки (для полноты картины): PHP 7.3, MySQL / PostgreSQL / Redis, Zend / Laravel, Vue / jQuery.\n\nТребования:\n✔️ Имеете опыт коммерческой разработки на Swift более 3-х лет\n✔️ Понимаете как устроен жизненный цикл разработки мобильного приложения от концепции и первой строчки кода до релиза на маркетплейс\n✔️ Имеете опыт взаимодействия с REST API\n✔️ Уверенно владеете iOS SDK\n✔️ Пишете SOLID’ный код, знаете и применяете паттерны проектирования\n✔️ Настроены на решение реальных задач бизнеса\n✔️ Мы ищем в команду специалиста, мыслящего в терминах time-to-market, то есть, чтобы новые фичи доходили до прода, как можно быстрее, а не застревали в тестировании.\n\nПриятные мелочи:\n✔️ Белая зарплата, размер обсуждается с успешным кандидатом\n✔️ Мы поощряем развитие коллег, поэтому оплачиваем курсы, конференции и создаем корпоративную библиотеку\n✔️ Программа опционов для сотрудников\n✔️ Фрукты, снеки, чай и кофе\n✔️ Гибкое начало рабочего дня (с 8 до 11)\n\n📩 @ulyana_rol","markup":[{"type":"hashtag","offset":0,"length":9,"data":"вакансия"},{"type":"hashtag","offset":10,"length":4,"data":"ios"},{"type":"hashtag","offset":15,"length":7,"data":"senior"},{"type":"hashtag","offset":23,"length":6,"data":"swift"},{"type":"hashtag","offset":30,"length":4,"data":"Спб"},{"type":"bold","offset":36,"length":7,"data":""},{"type":"bold","offset":59,"length":14,"data":""},{"type":"bold","offset":79,"length":11,"data":""},{"type":"bold","offset":97,"length":17,"data":""},{"type":"bold","offset":182,"length":9,"data":""},{"type":"bold","offset":254,"length":11,"data":""},{"type":"bold","offset":536,"length":15,"data":""},{"type":"bold","offset":913,"length":11,"data":""},{"type":"bold","offset":1474,"length":16,"data":""},{"type":"handle","offset":1769,"length":11,"data":"ulyana_rol"}],"date":"2020-06-29T13:47:15+00:00","link":"tg://resolve?domain=mobile_jobs&post=68924","tags":[{"name":"mobile"},{"name":"ios"},{"name":"swift"},{"name":"dotnet"},{"name":"php"},{"name":"mysql"},{"name":"postgresql"},{"name":"redis"},{"name":"zend-framework"},{"name":"laravel"},{"name":"vuejs"},{"name":"jquery"},{"name":"rest"}],"cities":[],"allowsRemote":false}}]}}},"context":{}}