{"hash":"f34fd2c444a074f4e0e67d525015a008ef8e766f","data":{"records":{"id":"web","name":"web","belongsTo":{"totalCount":68,"pageInfo":{"totalPages":7,"currentPage":7},"edges":[{"node":{"__typename":"Job","id":"65011712-1001375797688","title":".net разработчик","text":"#вакансия #vbnet #net #backend\n#Москва, м. Белорусская, #fulltime, #офис\n#Вознаграждение: 150-200 тыс. руб net + премии (+20% к окладу), соц. пакет.\n\n🎯Back-end разработчик / Back-end Developer (VB.NET, .NET)\n\nКоллеги, добрый день! \n\nНаходимся в поисках разработчика/архитектора для поддержки и развития функциональности финансово-биллинговой системы Elite 3E, путем доработок программного продукта (на базе VB.NET, .NET), и участия в проектах по внедрению новых модулей, интеграции с прочими системами компании (DMS, CRM).\n\nТекущий язык программирования нашей системы на 90% похож на VB.NET (но работает вне рамок .NET среды разработки т.к. среда разработки от вендора системы).\nВ среднесрочной перспективе систему полностью переведут на .NET и в обязанности будет входить работа именно с .NET и его фрейморками, средой разработки и т.д.\n\n#Требования: \n🧩Отличные знания и практический опыт VB.NET, VBA, .NET, MS SQL, WEB API (REST, SOAP);\n🧩Хорошие знания и практический опыт XML и XSLT-преобразований;\n🧩Хороший практический опыт работы с Entity Framework (или иными современными ORM);\n🧩Умение продумывать и проектировать архитектуру программных приложений, знание принципов ООП, популярных паттернов проектирования, принципов SOLID\n\nБуду рад ответить на вопросы и пояснить детали вакансии. Хорошего дня!\n\nПолное описание по ссылкам:\nhttps://lnkd.in/dPE_Trc\nhttps://lnkd.in/dxfVQRz\n\nКонтакты для связи:\nabelov@alrud.com\n+7 (926) 470-97-21 (telegram, whatsapp)","markup":[{"type":"bold","offset":0,"length":16,"data":""},{"type":"hashtag","offset":0,"length":9,"data":"вакансия"},{"type":"hashtag","offset":10,"length":6,"data":"vbnet"},{"type":"hashtag","offset":17,"length":4,"data":"net"},{"type":"bold","offset":17,"length":4,"data":""},{"type":"bold","offset":22,"length":16,"data":""},{"type":"hashtag","offset":22,"length":8,"data":"backend"},{"type":"hashtag","offset":31,"length":7,"data":"Москва"},{"type":"hashtag","offset":56,"length":9,"data":"fulltime"},{"type":"bold","offset":56,"length":9,"data":""},{"type":"bold","offset":67,"length":21,"data":""},{"type":"hashtag","offset":67,"length":5,"data":"офис"},{"type":"hashtag","offset":73,"length":15,"data":"Вознаграждение"},{"type":"bold","offset":152,"length":58,"data":""},{"type":"link","offset":195,"length":6,"data":"http://VB.NET"},{"type":"link","offset":408,"length":6,"data":"http://VB.NET"},{"type":"link","offset":585,"length":6,"data":"http://VB.NET"},{"type":"hashtag","offset":840,"length":11,"data":"Требования"},{"type":"link","offset":892,"length":6,"data":"http://VB.NET"},{"type":"link","offset":1338,"length":23,"data":"https://lnkd.in/dPE_Trc"},{"type":"link","offset":1362,"length":23,"data":"https://lnkd.in/dxfVQRz"},{"type":"link","offset":1407,"length":16,"data":"mailto:abelov@alrud.com"},{"type":"link","offset":1424,"length":18,"data":"tel:+7 (926) 470-97-21"}],"date":"2019-12-14T19:59:03+00:00","link":"tg://resolve?domain=DotNetRuJobsFeed&post=62","tags":[{"name":"dotnet"},{"name":"csharp"},{"name":"vba"},{"name":"sql"},{"name":"web"},{"name":"rest"},{"name":"soap"},{"name":"xml"},{"name":"xslt"},{"name":"orm"},{"name":"entity-framework"}],"cities":[{"code":"moscow"}],"allowsRemote":false}},{"node":{"__typename":"Job","id":"60817408-1001375797688","title":".net разработчик","text":"#вакансия #спб #удалённо #upper-intermediate\nз\\р 3500-4000$\nResponsibilities:\n- Working within an Agile team to develop, test, and maintain SharePoint business applications built on Microsoft technologies.  \n- Participating with the team in the collection and documentation of user's requirements, development of user stories, and estimates.  \n- Design, develop, and unit test applications in accordance with established standards - Involved in High Level and Low Lever estimation process \n- Participating in reviews of other Agile team’s applications and code - Participating in application system and integration testing. \n- Package and support deployment of releases.  \n- Adhering to high-quality development principles while delivering solutions on-time and on budget.  \n- Providing third-level support to Business users. \n- Analyzing and resolving technical and application problems.  \n- Preparing reports, manuals and other documentation  \n- Work with Architect to develop best practices for solution development.\nMinimum Requirements \n - College or University degree in Computer Science or a related discipline  \n- Motivated with a strong desire to learn  \n- Clearly articulate ideas and thoughts verbally\nCore Competency Requirements  \n- Experience of Angular Framework, Typescript, SharePoint Framework, JavaScript, HTML, CSS, Bootstrap, SharePoint Online out of the box components (Workflow, Web Parts, Lists, Libraries), relational database, Microsoft Azure, C#, .NET (OOPs Concepts)\nPreferred Competency Requirements  \n- 6 or more years of experience with Microsoft .NET development using C#  \n- 6 or more years of experience with SQL Server database design and development. \n- 2 or more years of experience with Office 365. SPFX development \n- 6 or more years of experience with web development using HTML5, CSS and JavaScript, Angular Framework, Typescript \n- 3 or more years of experience with agile development methodologies  \n- 6 or more years of experience with unit testing, system testing, integration testing.\nконтакт @erzentd","markup":[{"type":"hashtag","offset":0,"length":9,"data":"вакансия"},{"type":"hashtag","offset":10,"length":4,"data":"спб"},{"type":"hashtag","offset":15,"length":9,"data":"удалённо"},{"type":"hashtag","offset":25,"length":6,"data":"upper"},{"type":"pre","offset":60,"length":1970,"data":""},{"type":"handle","offset":2039,"length":8,"data":"erzentd"}],"date":"2019-12-04T15:35:31+00:00","link":"tg://resolve?domain=DotNetRuJobsFeed&post=58","tags":[{"name":"dotnet"},{"name":"csharp"},{"name":"sharepoint"},{"name":"deployment"},{"name":"angularjs"},{"name":"typescript"},{"name":"javascript"},{"name":"html"},{"name":"css"},{"name":"bootstrap"},{"name":"web"},{"name":"azure"},{"name":"sql"},{"name":"sql-server"},{"name":"unit-testing"}],"cities":[],"allowsRemote":true}},{"node":{"__typename":"Job","id":"58720256-1001375797688","title":".net developer","text":"#Москва #вакансия #офис #net #developer #fullstack #backend\n\nВ настоящее время мы ищем коллегу в нашу команду разработки. C 2014 года мы разрабатываем облачное решение для автоматизации процессов перевода, наш продукт работает в 200 странах.\n\nЧто предлагаем:\nОфициальное оформление по ТК РФ с первого дня.\nПолностью \"белая\" заработная плата 150-200К на руки.\nРабота в офисе или удаленно.\nГибкий график работы.\n\nПожелания:\nОпыт создания и продакшн-эксплуатации веб-приложений в .Net стеке.\nПонимание и осознанное применение принципов ООП и паттернов проектирования.\nХорошее знание C# и понимание его особенностей.\nОпыт разработки приложений с конкурентным доступом к ресурсам в БД.\nОпыт разработки фронтэнда для нетривиальных web-приложений на любом из современных фреймворков: Vue.js, AngularJS, Angular 2+, ReactJS.\nЗнание JavaScript, TypeScript, HTML 5, CSS 3.\nОпыт работы с NoSQL.\n\nКакие задачи будут стоять:\nПроектирование, разработка и рефакторинг высоконагруженных веб-приложений с высокими требованиями к производительности и доступности.\nРабота на общий результат в кросс-функциональной скрам-команде, активное взаимодействие с коллегами, участие в решении широкого спектра задач.\nТесное взаимодействие с менеджерами по продукту.\nПроведение код-ревью, участие в выработке архитектурных и проектных решений.\n\nЕсли позиция full stack'а - это не совсем подходящая роль, то мы можем обсудить и другие возможности и варианты.\n\nЕсли вы тот человек, которого мы ищем, напишите в ЛС - @dnotna","markup":[{"type":"hashtag","offset":0,"length":7,"data":"Москва"},{"type":"hashtag","offset":8,"length":9,"data":"вакансия"},{"type":"hashtag","offset":18,"length":5,"data":"офис"},{"type":"hashtag","offset":24,"length":4,"data":"net"},{"type":"hashtag","offset":29,"length":10,"data":"developer"},{"type":"hashtag","offset":40,"length":10,"data":"fullstack"},{"type":"hashtag","offset":51,"length":8,"data":"backend"},{"type":"handle","offset":1485,"length":7,"data":"dnotna"}],"date":"2019-11-27T14:39:20+00:00","link":"tg://resolve?domain=DotNetRuJobsFeed&post=56","tags":[{"name":"dotnet"},{"name":"csharp"},{"name":"web"},{"name":"vuejs"},{"name":"angularjs"},{"name":"reactjs"},{"name":"javascript"},{"name":"typescript"},{"name":"html"},{"name":"css"},{"name":"nosql"}],"cities":[{"code":"moscow"}],"allowsRemote":true}},{"node":{"__typename":"Job","id":"50331648-1001375797688","title":".net developer","text":"#вакансия #минск #офис #minsk #fulltime #csharp #core #middle #senior\n\nВакансия: Middle/Senior .NET Developer\nКомпания: Amaryllis Solutions\nЛокация: Минск \nФормат: #офис #фуллтайм\nВилка з/п: 2000-3200 USD net в зависимости от уровня\n\nПроект: Amaryllis Payment Solutions (инновационная платежная платформа).\n\nТребования:\n- практический опыт в .NET, .NET Core, ASP.NET Web API, MS SQL Server, JavaScript, Angular 2+;\n- не менее чем 3-летний стаж бэкенд либо фуллстек разработки.\n\nПредлагаем:\n- конкурентную компенсацию за ваш труд;\n- специальные учебные программы (тренинги и семинары в области передового опыта в области разработки программного обеспечения, управления проектами, управления);\n- индивидуальный план профессионального развития каждого сотрудника;\n- социальный пакет (курсы английского языка и спорт для сотрудников);\n- гибкий график работы;\n- 100% белую заработную плату – компания резидент ПВТ\n- помощь с релокацией для иногородних.\n\nКонтакты: @steelRunner","markup":[{"type":"hashtag","offset":0,"length":9,"data":"вакансия"},{"type":"hashtag","offset":10,"length":6,"data":"минск"},{"type":"hashtag","offset":17,"length":5,"data":"офис"},{"type":"hashtag","offset":23,"length":6,"data":"minsk"},{"type":"hashtag","offset":30,"length":9,"data":"fulltime"},{"type":"hashtag","offset":40,"length":7,"data":"csharp"},{"type":"hashtag","offset":48,"length":5,"data":"core"},{"type":"hashtag","offset":54,"length":7,"data":"middle"},{"type":"hashtag","offset":62,"length":7,"data":"senior"},{"type":"hashtag","offset":164,"length":5,"data":"офис"},{"type":"hashtag","offset":170,"length":9,"data":"фуллтайм"},{"type":"link","offset":359,"length":7,"data":"http://ASP.NET"},{"type":"handle","offset":959,"length":12,"data":"steelRunner"}],"date":"2019-11-15T17:17:33+00:00","link":"tg://resolve?domain=DotNetRuJobsFeed&post=48","tags":[{"name":"dotnet"},{"name":"csharp"},{"name":"web"},{"name":"sql"},{"name":"javascript"},{"name":"angularjs"},{"name":"net-core"},{"name":"asp-net"},{"name":"sql-server"}],"cities":[{"code":"minsk"}],"allowsRemote":false}},{"node":{"__typename":"Job","id":"45088768-1001375797688","title":".net разработчик","text":"#вакансия #с#  #.NET #офис #Минск\n\nВакансии Middle/Senior .net разработчики.\nГород и адрес офиса: Минск\nФормат работы: офис\nЗанятость: полная\nЗарплатная вилка: от 2300 до 3500\n\nAmaryllis Payment Solutions – это компания из списка «20 самых перспективных поставщиков платежных решений 2018 года», ищет .Net / C # разработчиков, готовых присоединиться к нашей профессиональной команде, чтобы участвовать в создании инновационной платежной платформы Amaryllis.\n\nТребования:\n\n* Практический опыт в .NET, .NET Core, ASP.NET Web API, MS SQL Server, JavaScript, Angular 2+;\n* 3+ летний опыт работы в ИТ-индустрии;\n\nМы готовы предложить вам:\n\n* Конкурентную компенсацию за ваш труд;\n* Специальные учебные программы (тренинги и семинары в области передового опыта в области разработки программного обеспечения, управления проектами, управления);\n* Индивидуальный план профессионального развития каждого сотрудника;\n* Социальный пакет (курсы английского языка и спорт для сотрудников);\n* Гибкий график работы.\n* 100% белая заработная плата – компания резидент ПВТ\n\n@veroneko","markup":[{"type":"hashtag","offset":0,"length":9,"data":"вакансия"},{"type":"hashtag","offset":21,"length":5,"data":"офис"},{"type":"hashtag","offset":27,"length":6,"data":"Минск"},{"type":"link","offset":511,"length":7,"data":"http://ASP.NET"},{"type":"handle","offset":1055,"length":9,"data":"veroneko"}],"date":"2019-11-07T10:08:54+00:00","link":"tg://resolve?domain=DotNetRuJobsFeed&post=43","tags":[{"name":"dotnet"},{"name":"csharp"},{"name":"web"},{"name":"sql"},{"name":"javascript"},{"name":"angularjs"},{"name":"net-core"},{"name":"asp-net"},{"name":"sql-server"}],"cities":[{"code":"minsk"}],"allowsRemote":false}},{"node":{"__typename":"Job","id":"42991616-1001375797688","title":".net разработчик","text":"#вакансия #москва #офис Разработчика C# (fullstack)\nот 150 000 руб. на руки\nНаша IT команда ведет активную разработку различных IT проектов: учетную ERP систему, ряд Web порталов, служебного софта и много другое.\nСейчас мы в поисках талантливого Разработчика C# (fullstack).\nНаш основной стэк технологий: .Net (4.8/Core, WCF, SQL 2017, EF, ServiceStack OrmLite), разработка на современном железе.\nВас ждут интересные задачи в очень атмосферной компании!\nНаши ожидания\n • Опыт разработки на C#, понимание паттернов и принципов проектирования.\n • Знание MS SQL, опыт написания и оптимизации запросов.\n • Знание JS, Angular.\n • Умение разбираться в чужом коде;\n • Навыки работы в команде;\n • Чтение технической литературы на английском языке.\nБудут плюсом:\n • Знание CSS\n • Опыт работы с ServiceStack\n • Опыт разработки на .Net Core\nМы рассматриваем кандидатов с частичным совпадением наших ожиданий и ваших умений, а также продвинутых профессионалов с опытом более 3-х лет.\nОсновные задачи нового сотрудника\n • Участие в разработке новых проектов в компании (сервисы, webApp, интернет-магазин, CRM система).\n • Поддержка и развитие существующих приложений и сервисов.\n • Контроль качества реализованных решений.\n • Активно следить за актуальными технологиями!\nМы предлагаем:\n • Cовременные технологии и подходы к разработке, спринты Agile (на Jetbrains YouTrack)\n • Позитивную атмосферу и дружный коллектив, демократичную обстановку\n • График работы 5/2, часы работы обсуждаются\n • Оформление и соц. пакет в соответствии с Трудовым Кодексом\n • Корпоративные скидки на весь портфель брендов\n • Корпоративные подарки на праздники\n • Ароматный кофе и чай в неограниченном количестве\n • Уютный Open space на 7-8 человек\n • Офис в 10 мин. от м. Спортивная и МЦК Лужники","markup":[{"type":"hashtag","offset":0,"length":9,"data":"вакансия"},{"type":"hashtag","offset":10,"length":7,"data":"москва"},{"type":"hashtag","offset":18,"length":5,"data":"офис"},{"type":"bold","offset":24,"length":27,"data":""},{"type":"bold","offset":246,"length":28,"data":""},{"type":"bold","offset":454,"length":13,"data":""},{"type":"bold","offset":740,"length":13,"data":""},{"type":"bold","offset":972,"length":33,"data":""},{"type":"bold","offset":1258,"length":14,"data":""}],"date":"2019-11-06T18:11:42+00:00","link":"tg://resolve?domain=DotNetRuJobsFeed&post=41","tags":[{"name":"dotnet"},{"name":"csharp"},{"name":"web"},{"name":"wcf"},{"name":"sql"},{"name":"angularjs"},{"name":"css"},{"name":"net-core"}],"cities":[{"code":"moscow"}],"allowsRemote":false}},{"node":{"__typename":"Job","id":"40894464-1001375797688","title":"Dotnet разработчик","text":"#вакансия #удаленка\n\nЯ frontend-разработчик, мне нужен backend-разработчик в команду. Будем заниматься разработкой новых проектов и поддержкой старых. Тематика проектов - ювелирные украшения и все что с ними связано. В основном это интернет магазины. Работа fulltime, 40 часов в неделю. Оплата повременная. Работаем через трекер Upwork. При полной занятости компенсация $2500 на первое время\nТребования:\n- Чистый, безопасный и грамотный код.\n- При написании кода использовать принципы SOLID\n- 3+ лет опыта написания RESTful Web API\n- Опыт работы Postman, Fiddler, Google Chrome Dev tools\n- Entity Framework\n- Иметь опыт развертывания приложения на AWS, Heroku, Google Cloud сервисах\n- Git\n- MS SQL (писать грамотные, лековестные SQL запросы)\n- Опыт работы с AngularJS, Angular (у проектов есть админка, которая написана на AngularJS, иногда надо будет и там делать правки)\n- Английский на уровне чтения технической документации и переписки\n\nСо всеми вопросами обращайтесь сюда @Merazent","markup":[{"type":"hashtag","offset":0,"length":9,"data":"вакансия"},{"type":"hashtag","offset":10,"length":9,"data":"удаленка"},{"type":"handle","offset":977,"length":9,"data":"Merazent"}],"date":"2019-11-04T18:22:52+00:00","link":"tg://resolve?domain=DotNetRuJobsFeed&post=39","tags":[{"name":"dotnet"},{"name":"csharp"},{"name":"web"},{"name":"amazon-web-services"},{"name":"heroku"},{"name":"cloud"},{"name":"git"},{"name":"sql"},{"name":"angularjs"},{"name":"google-chrome"},{"name":"entity-framework"},{"name":"google-cloud-platform"}],"cities":[],"allowsRemote":true}},{"node":{"__typename":"Job","id":"38797312-1001375797688","title":".net developer","text":"#офис #вакансия \nНижний Новгород\nMiddle C# Developer Full Stack\nЗп 80-120к руб на руки\n\nРассматриваем иногородних!\n\nОбязанности:\n• участие в разработке новых сервисов на C# / .NET Core\n• поддержка и развитие существующих продуктов и сервисов на C# / WPF / .NET Core\n• участие в проектировании архитектуры, планировании релизов, совершенствовании процессов разработки\n• участие во всех этапах разработки продуктов (от идеи/прототипа до релиза)\n\nТребования:\n• высшее техническое образование \n• работа только в офисе полный рабочий день, дистанционная работа не рассматривается (но оказываем материальную и другую поддержку для тех, кто готов к переезду в Нижний Новгород)\n\nПриветствуются:\n• собственный проект или участие в opensource\n• опыт работы по Agile (Scrum, Kanban, XP).\n• умение находить нестандартные, простые технические решения\n• опыт разработки Web-сервисов,\n• опыт работы с Doсker, Kubernetes\n• опыт написания unit-тестов и разработки по TDD\n\nКлючевые навыки\nC#.NET Framework WPF AgileExtreme Programming Unit Testing.NET Core ASP.NET LINQ MVC ООП MySQL JavaScript HTML SQL CSS\n\nВопросы/отклики писать сюда: @hr_rodnaya, enn369347@gmail.com","markup":[{"type":"hashtag","offset":0,"length":5,"data":"офис"},{"type":"hashtag","offset":6,"length":9,"data":"вакансия"},{"type":"link","offset":1022,"length":11,"data":"http://Testing.NET"},{"type":"link","offset":1039,"length":7,"data":"http://ASP.NET"},{"type":"handle","offset":1120,"length":11,"data":"hr_rodnaya"},{"type":"link","offset":1133,"length":19,"data":"mailto:enn369347@gmail.com"}],"date":"2019-11-04T13:41:16+00:00","link":"tg://resolve?domain=DotNetRuJobsFeed&post=37","tags":[{"name":"dotnet"},{"name":"csharp"},{"name":"wpf"},{"name":"web"},{"name":"kubernetes"},{"name":"linq"},{"name":"mysql"},{"name":"javascript"},{"name":"html"},{"name":"sql"},{"name":"css"},{"name":"net-core"},{"name":"unit-testing"},{"name":"asp-net"}],"cities":[{"code":"nizhny-novgorod"}],"allowsRemote":false}}]}}},"context":{}}