{"hash":"f5f6bf98bd95e769321482904cbbd488f77922fd","data":{"records":{"id":"sass","name":"sass","belongsTo":{"totalCount":31,"pageInfo":{"totalPages":4,"currentPage":2},"edges":[{"node":{"__typename":"Job","id":"17190354944-1001110946746","title":"Js разработчик","text":"#вакансия #frontend  #офис #fulltime #спб #петербург  #fulltime #middle #vue #JavaScript #lodash #middle #petersburg #jquery #sass #less \n\nГород: Санкт-Петербург м.Чернышевская\n\nЗанятость: fulltime\n\nКомпания Rixtrema Inc. находится в поиске frontend-разработчика уровня middle, который, также, как и мы, обожает программировать и разрабатывать интерфейсы.  Нам важно видеть у соискателя огонь в глазах и желание развиваться вместе с командой. \nШтаб-квартира компании находится в Нью-Йорке. Мы обслуживаем одни из крупнейших инвестиционных домов и управляющих активами в США. \nМы продаёт свой софт в США. Это не аутсорс, а интересная работа со своими динамичными продуктами. Именно поэтому ищем кандидата, способного продемонстрировать  креативность.\n\nОбязанности:\n\n - Разработка интерфейсов, приложений и сайтов\n-  Поддержание проектов в продакшне\n- Участие в разработке новых приложений\n- Постоянное, непрерывное развитие и обучение (это как и условие, так и обязанность)\n\nТребования:\n\n Уверенное знание JavaScript (само собой, HTML5, CSS3 ) Понимание основных паттернов проектирования\nПонимание основных принципов UI/UX, умение верстать без макетов\nНе так важна углубленная работа с конкретным фреймворком, важно понимание их работы в целом (Angular, React, Vue и пр.). Тем не менее, новые проекты пишутся на Vue и кандидат должен быть готов на кратчайшие сроки сориентироваться. \nДополнительным плюсом будет работа с jquery, lodash (в т.ч. шаблонизаторами), cordova, electron, nodejs, less, sass.\n\n\nВ первую очередь ищем петербуржцев, готовых работать в офисе. Однако готовы рассмотреть и вариант удалённой работы.\n\nУсловия:\n\n    Удалённая работа (если в Питере, то можно в офисе)\n    Зарплата от 1300 USD до 2000 USD после уплаты налогов. Фиксируется в долларах. \n    3 недели оплачиваемого отпуска\nпрактически отсутствует бюрократия, все предельно прозрачно\nвозможность разработчику непросто кодить по ТЗ, а принимать в том числе стратегические решения по проекту.\n    Фирма продаёт свой софт в США. Это не аутсорс, а интересная работа со своими динамичными продуктами. \n\nЕсли Вы подходите под требования и готовы решать нестандартные задачи вместе с нами - смело записывайтесь на собеседование!  Не забывайте прилагать пример кода и ссылки на проекты в продакшне, особенно на самые нетривиальные на Ваш взгляд. \n\nКонтакты:\n@sanyanx\n\n—\n\n👉 Обсуждение вакансии в чате @javascript_jobs","markup":[{"type":"hashtag","offset":0,"length":9,"data":"вакансия"},{"type":"hashtag","offset":10,"length":9,"data":"frontend"},{"type":"hashtag","offset":21,"length":5,"data":"офис"},{"type":"hashtag","offset":27,"length":9,"data":"fulltime"},{"type":"hashtag","offset":37,"length":4,"data":"спб"},{"type":"hashtag","offset":42,"length":10,"data":"петербург"},{"type":"hashtag","offset":54,"length":9,"data":"fulltime"},{"type":"hashtag","offset":64,"length":7,"data":"middle"},{"type":"hashtag","offset":72,"length":4,"data":"vue"},{"type":"hashtag","offset":77,"length":11,"data":"JavaScript"},{"type":"hashtag","offset":89,"length":7,"data":"lodash"},{"type":"hashtag","offset":97,"length":7,"data":"middle"},{"type":"hashtag","offset":105,"length":11,"data":"petersburg"},{"type":"hashtag","offset":117,"length":7,"data":"jquery"},{"type":"hashtag","offset":125,"length":5,"data":"sass"},{"type":"hashtag","offset":131,"length":5,"data":"less"},{"type":"handle","offset":2329,"length":8,"data":"sanyanx"},{"type":"handle","offset":2372,"length":16,"data":"javascript_jobs"}],"date":"2020-06-28T15:15:36+00:00","link":"tg://resolve?domain=javascript_jobs_feed&post=16394","tags":[{"name":"javascript"},{"name":"vuejs"},{"name":"jquery"},{"name":"sass"},{"name":"html"},{"name":"css"},{"name":"angularjs"},{"name":"reactjs"},{"name":"cordova"},{"name":"electron"},{"name":"nodejs"}],"cities":[],"allowsRemote":true}},{"node":{"__typename":"Job","id":"26658996224-1001075660570","title":"Php developer","text":"#вакансия #JavaScript #PHP #React #Senior #офис #Москва #Балашиха\n📣Крупнейший в России поставщик автомобильных шин и колесных дисков ведущих мировых производителей (входящих в Forbs 500) приглашает Senior PHP/JavaScript Developer для участия в новом интернет-проекте в сфере B2B и B2C.\n\n✅Мы предлагаем:\nУровень ЗП: 170-200 net (обсуждается!)\nЛокация: офис г. Балашиха или м. Таганская\nОформление по ТК РФ, полный соц.пакет.\nКомпенсация аренды жилья при переезде❗️\nГрафик работы 5/2 с 9:00 до 18:00, корпоративное питание, частично удаленно❗️\n\n🧑‍💻Ваши будущие задачи:\n- участие в разработке новых больших интернет-проектов в сфере B2B и B2C;\n- участие в разработке внутренних проектов Компании;\n- развитие и оптимизация существующих проектов.\n\n🤝Мы ожидаем от Вас:\nОпыт работы и уверенное владение PHP, Javascript (React), jQuery от 3 лет\nХорошее понимание ООП, MVC, SQL, CSS3\nОпыт комплексной разработки web-проектов, наличие готовых проектов\nЖелательно: использование grunt, browserify, методологии BEM, препроцессоров SASS/LESS; опыт работы Oracle DB, Docker, умение верстать на flexbox.\n\n👉Откликнуться на вакансию и задать вопросы: telegram @anisimovaane4ka","markup":[{"type":"hashtag","offset":0,"length":9,"data":"вакансия"},{"type":"hashtag","offset":10,"length":11,"data":"JavaScript"},{"type":"hashtag","offset":22,"length":4,"data":"PHP"},{"type":"hashtag","offset":27,"length":6,"data":"React"},{"type":"hashtag","offset":34,"length":7,"data":"Senior"},{"type":"hashtag","offset":42,"length":5,"data":"офис"},{"type":"hashtag","offset":48,"length":7,"data":"Москва"},{"type":"hashtag","offset":56,"length":9,"data":"Балашиха"},{"type":"handle","offset":1148,"length":16,"data":"anisimovaane4ka"}],"date":"2020-06-28T11:35:43+00:00","link":"tg://resolve?domain=php_jobs&post=25424","tags":[{"name":"php"},{"name":"javascript"},{"name":"reactjs"},{"name":"dotnet"},{"name":"jquery"},{"name":"sql"},{"name":"css"},{"name":"web"},{"name":"gruntjs"},{"name":"sass"},{"name":"oracle"},{"name":"docker"}],"cities":[{"code":"moscow"},{"code":"balashikha"}],"allowsRemote":true}},{"node":{"__typename":"Job","id":"17152606208-1001110946746","title":"Js разработчик","text":"#вакансия #frontend #vue #senior #middle #remote #офис #удаленка\n\nГород: Москва, м. Славянский бульвар\nФормат работы: офис, удаленное сотрудничество\nЗанятость: полная, гибкий график (обсуждаем)\nЗарплатная вилка: от 80 000 рублей до 240 000 рублей на руки\nНазвание компании: ФГБУ «ИАЦ МЧС России»\nКонтакты для связи: @mxrkin\n\nНа данный момент отдел разработки программного обеспечения формирует команду JS-разработчиков для поддержки существующих и реализации новых проектов.\n\nТребования для соискателей:\n— уверенные знания Javascript, знание стандартов ECMAScript;\n— знание и опыт применения фреймворка Vue.js и использование элементов экосистемы фреймворка (vuex, vue-router);\n— опыт использования систем сборки - webpack, gulp, parcel. Опыт написания конфигов для webpack;\n— владение препроцессорами CSS - SASS/LESS;\n— опыт использования Prettier, ESLint;\n— гражданство РФ (местонахождение так же РФ).\n\nПлюсом будет:\n— владение Node.js или знание других языков программирования;\n— активные профили в сообществах habrahabr, habr Q&A, участие в opensource проектах, активный профиль github;\n— опыт работы с библиотекой D3.js;\n— опыт работы с картографическими библиотеками.\n\nТрудоустройство официальное по ТК РФ, социальный пакет.\nНа территории имеется столовая для сотрудников, спортивные площадки, футбольное и баскетбольное поле.\nРабота не является государственной службой.\n\nСобеседование проходит в три этапа — общение с руководителем, выполнение тестового задания (простое задание на 15-30 минут), предложение сотрудничества. \n\nЕсли вас заинтересовала вакансия, обращайтесь в тг @mxrkin. Большим плюсом будет, если первым сообщением прикрепите резюме и поделитесь ссылками на проекты, в которых принимали активное участие, или ссылку на гитхаб с кодом, который, по-вашему мнению, сможет показать все ваши знания и навыки.","markup":[{"type":"hashtag","offset":0,"length":9,"data":"вакансия"},{"type":"hashtag","offset":10,"length":9,"data":"frontend"},{"type":"hashtag","offset":20,"length":4,"data":"vue"},{"type":"hashtag","offset":25,"length":7,"data":"senior"},{"type":"hashtag","offset":33,"length":7,"data":"middle"},{"type":"hashtag","offset":41,"length":7,"data":"remote"},{"type":"hashtag","offset":49,"length":5,"data":"офис"},{"type":"hashtag","offset":55,"length":9,"data":"удаленка"},{"type":"handle","offset":316,"length":7,"data":"mxrkin"},{"type":"handle","offset":1584,"length":7,"data":"mxrkin"}],"date":"2020-06-25T13:40:01+00:00","link":"tg://resolve?domain=javascript_jobs_feed&post=16358","tags":[{"name":"javascript"},{"name":"vuejs"},{"name":"webpack"},{"name":"gulp"},{"name":"css"},{"name":"sass"},{"name":"nodejs"},{"name":"github"}],"cities":[{"code":"moscow"}],"allowsRemote":true}},{"node":{"__typename":"Job","id":"17146314752-1001110946746","title":"Js разработчик","text":"#вакансия #екб #екатеринбург #react #frontend #middle\n\nПозиция: Разработчик React \nКомпания: SoftMediaLab \nЛокация: Екатеринбург \nФормат работы: #удаленка или  #офис\nЗанятость: #фултайм \nЗП 110 000 - 140 000 рублей на руки\n\nSoftMediaLab – была основана в 2015 году в городе Екатеринбурге. Основатели компании – разработчики, поэтому никакой бюрократии и странных решений, процессы максимально простые и понятные, среда дружественная. \nРазрабатываем в основном стартапы для России, Европы и Америки. \n\nЗадачи: \n- улучшать имеющийся функционал и разрабатывать новый \n- участвовать в принятии архитектурных решений \n\nСтек: react, redux, typescript, bootstrap, material-ui, JQuery, sass, less\n\nРассматриваем также кандидатов, которые  ранее писали на vue.js или angular (от 2х лет), но хотели бы перейти на react\n\nДля связи @Ekaterina_Mitroshkina  или @iamanastasie","markup":[{"type":"hashtag","offset":0,"length":9,"data":"вакансия"},{"type":"hashtag","offset":10,"length":4,"data":"екб"},{"type":"hashtag","offset":15,"length":13,"data":"екатеринбург"},{"type":"hashtag","offset":29,"length":6,"data":"react"},{"type":"hashtag","offset":36,"length":9,"data":"frontend"},{"type":"hashtag","offset":46,"length":7,"data":"middle"},{"type":"hashtag","offset":145,"length":9,"data":"удаленка"},{"type":"hashtag","offset":160,"length":5,"data":"офис"},{"type":"hashtag","offset":177,"length":8,"data":"фултайм"},{"type":"handle","offset":820,"length":22,"data":"Ekaterina_Mitroshkina"},{"type":"handle","offset":848,"length":13,"data":"iamanastasie"}],"date":"2020-06-25T08:48:37+00:00","link":"tg://resolve?domain=javascript_jobs_feed&post=16352","tags":[{"name":"javascript"},{"name":"reactjs"},{"name":"redux"},{"name":"typescript"},{"name":"bootstrap"},{"name":"jquery"},{"name":"sass"},{"name":"vuejs"},{"name":"angularjs"},{"name":"react-redux"}],"cities":[],"allowsRemote":true}},{"node":{"__typename":"Job","id":"17103323136-1001110946746","title":"Js разработчик","text":"#вакансия #удаленно #удаленка #vue                                                                                                                                     Удаленная работа\nПолная занятость \nЗп От 100 000 до 200 000 ₽\n\nFrontend developer (VUE)\n\nКомпания «Averia Electronics» \n\nМы занимаемся разработкой потребительской носимой электроники (IoT, wearable), мобильных приложений и собственной ERP системы. \nВсе наши проекты так или иначе связаны с домашними питомцами и многие наши сотрудники, даже не вовлечённые в эту тему и не разделявшие наши интересы изначально, со временем заводят своих домашних любимцев. Общность наших с вами интересов будет ощутимым плюсом.                                                                                                                                                                                       \n                                                                                                                                                                                                                  Нам нужен  сильный  frontend  разработчик, умеющий решать нестандартные задачи. \n                                                                                                                                                                                                                 Наши продукты: \nI. CRM (ERP) для ветеринарных клиник и зоомагазинов. Мы строим свою сеть и чем стремительнее мы развиваем наш софт, тем стремительнее растёт наш бизнес. С нашей crm работает и медицинское оборудование через кроссплатформенную программу на Electron, благодаря чему вы сможете получить уникальный опыт по взаимодействию с медицинским оборудованием и его интеграции в единую экосистему.\nII. Averia.Collar – умный ошейник для собак, работающий по принципу Apple Watch через Bluetooth Low Energy. \nIII. Аверия.поиск — сервис помощи в поиске потерянных питомцев. \n                                                                                                                                                                                                       Обязательными навыками являются:\n•  JS (ES6, современный яваскрипт);\n•  Уверенное владение фрейворком  Vue.js;\n•  CSS / твердое знание одного из CSS-препроцессоров (SASS, LESS, Stylus). Мы предпочитаем SAS;\n•  Опыт работы с системами сборки проектов (webpack, gulp);\n•  Знание шаблонизоторов. Мы предпочитаем pug;\n•  GIT, git-flow;\n•  English (на уровне чтения документации и написания комментариев);\n•  Командная работа и умение оценивать трудозатраты.\nБольшим плюсом будет:\n•  advanced навыки в верстке, mobile\n•  Опыт автоматического тестирования\n•  Опыт backend разработки.\nУсловия работы: \n•  Удаленная работа;\n•  Полная занятость;\n•  Уровень заработной платы устанавливается индивидуально по итогам собеседования. \nКонтакты: Полина Храмцова, polina_hr@mail.ru, @polina_hr\n\n—\n\n👉 Обсуждение вакансии в чате @javascript_jobs","markup":[{"type":"hashtag","offset":0,"length":9,"data":"вакансия"},{"type":"hashtag","offset":10,"length":9,"data":"удаленно"},{"type":"hashtag","offset":20,"length":9,"data":"удаленка"},{"type":"hashtag","offset":30,"length":4,"data":"vue"},{"type":"link","offset":2881,"length":17,"data":"mailto:polina_hr@mail.ru"},{"type":"handle","offset":2900,"length":10,"data":"polina_hr"},{"type":"handle","offset":2945,"length":16,"data":"javascript_jobs"}],"date":"2020-06-22T11:04:20+00:00","link":"tg://resolve?domain=javascript_jobs_feed&post=16311","tags":[{"name":"javascript"},{"name":"vuejs"},{"name":"electron"},{"name":"css"},{"name":"sass"},{"name":"sas"},{"name":"webpack"},{"name":"gulp"},{"name":"git"},{"name":"mobile"}],"cities":[],"allowsRemote":true}},{"node":{"__typename":"Job","id":"17098080256-1001110946746","title":"Js developer","text":"#вакансия #JavaScript #middle #senior #FrontEnd #удаленно #офиc #Москва #СПБ #Екатеринбург #Ростов-на Дону\n📣Приглашаем middle/senior JavaScript FrontEnd Developer в новый проект от Сбербанка.\n\n💸Уровень ЗП: от 170 000 до 280 000 руб. net. (обсуждается!).\n\n✍🏻Оформление: штат компании партнера или ИП. Занятость: полная.\n\n📍Локация: офис (Москва Кутузовский пр-т 32/1). Или удалено с возможностью посещать офис: СПБ, Екатеринбург, Ростов-на Дону.\n\n🏢О проекте: В рамках стратегической программы «Создание платформы поддержки развития бизнеса» наша команда разрабатывает линейку продуктов Cash Management. Продукта корпоративного блока, предоставляющий функции управления финансовыми потоками для предприятий и корпораций с развитой филиальной сетью. Линейка продуктов содержит порядка 10 продуктов, направленных на управление всеми счетами холдинга единым казначейством. Основная задача – перевод линейки продуктов из Legacy АС на целевые платформы банка и перевод управления продуктами в удаленные каналы обслуживания.\n\n🎯Ваши будущие задачи :\n- проектирование решения, в том числе разработка детальной внутренней архитектуры сервиса, включая интеграционные сценарии;\n- детальное проектирование интеграции со смежными сервисами (в том числе API);\n- разработка программного продукта, внесение изменений в код;\n- разработка автоматических модульных тестов, автоматических скриптов и тестов развертывания.\n\n🤝Мы ожидаем от вас:\n• опыт от 2х лет разработки высоко-нагруженных и отказоустойчивых фронтальных систем;\n• прекрасное знание JavaScript, React;\n• экспертное знание HTML, HTML5, SASS/LESS/CSS;\n• опыт работы с js-фреймоврками (например, Backbone, Angular, React, Reflux), REST-сервисами, Webpack, Bootstrap, Ionic, Foundation;\n• понятие о принципах разработки ПО, ООП, паттернах проектирования;\n• умение разрабатывать прототипы UI с помощью, например, Axure, Pixate, Invision, Proto.io и т.д.\n\nЖду Ваши резюме и буду рада ответить на все вопросы. Прекрасного дня!☺️\nКонтакты для связи: telegram @anisimovaane4ka\n\n—\n\n👉 Обсуждение вакансии в чате @javascript_jobs","markup":[{"type":"hashtag","offset":0,"length":9,"data":"вакансия"},{"type":"hashtag","offset":10,"length":11,"data":"JavaScript"},{"type":"hashtag","offset":22,"length":7,"data":"middle"},{"type":"hashtag","offset":30,"length":7,"data":"senior"},{"type":"hashtag","offset":38,"length":9,"data":"FrontEnd"},{"type":"hashtag","offset":48,"length":9,"data":"удаленно"},{"type":"hashtag","offset":58,"length":5,"data":"офиc"},{"type":"hashtag","offset":64,"length":7,"data":"Москва"},{"type":"hashtag","offset":72,"length":4,"data":"СПБ"},{"type":"hashtag","offset":77,"length":13,"data":"Екатеринбург"},{"type":"hashtag","offset":91,"length":7,"data":"Ростов"},{"type":"link","offset":1883,"length":8,"data":"http://Proto.io"},{"type":"handle","offset":2001,"length":16,"data":"anisimovaane4ka"},{"type":"handle","offset":2052,"length":16,"data":"javascript_jobs"}],"date":"2020-06-21T15:22:14+00:00","link":"tg://resolve?domain=javascript_jobs_feed&post=16306","tags":[{"name":"javascript"},{"name":"dotnet"},{"name":"reactjs"},{"name":"html"},{"name":"sass"},{"name":"css"},{"name":"backbonejs"},{"name":"angularjs"},{"name":"rest"},{"name":"webpack"},{"name":"bootstrap"}],"cities":[{"code":"moscow"},{"code":"rostov"}],"allowsRemote":true}},{"node":{"__typename":"Job","id":"17084448768-1001110946746","title":"Javascript разработчик","text":"#вакансия #удаленка #работа #html #css #javascript \n\nГород и адрес офиса: любой\nФормат работы: удаленка\nЗанятость: полная\nЗарплатная вилка:  2000$ - 2400$\n\nИщем крутого верстальщика, фултайм, американский стартап (крутая стартап-корпоративная культура, адекватное начальство, зарплата по курсу в долларах), свой продукт, рост по знаниям и деньгам! \n\nТребования: \n • Уметь в верстку на 10 из 5 (responsive / adaptive, Pixel Perfect, SASS, HTML5, SEO Optimized, дружить с Figma) \n • Быть адекватным - четко соблюдать оговоренные условия (если вы не придете на пару интервью вовремя или любите проспать гибкое начало рабочего дня - не пишите нам) \n • Мочь в письменный английский (а если можете говорить - это +100 к нашей совместимости) \n\nПолная вакансия по ссылке: https://career.habr.com/vacancies/1000059669 \n\nДополнительные инструкции: Пожалуйста, присылайте ссылки на ваше CV, ссылки на LinkedIn / Habr страничку, ссылку на гитхаб и по возможности портфолио на sergey@waltbury.com\n\n—\n\n👉 Обсуждение вакансии в чате @javascript_jobs","markup":[{"type":"hashtag","offset":0,"length":9,"data":"вакансия"},{"type":"hashtag","offset":10,"length":9,"data":"удаленка"},{"type":"hashtag","offset":20,"length":7,"data":"работа"},{"type":"hashtag","offset":28,"length":5,"data":"html"},{"type":"hashtag","offset":34,"length":4,"data":"css"},{"type":"hashtag","offset":39,"length":11,"data":"javascript"},{"type":"link","offset":764,"length":44,"data":"https://career.habr.com/vacancies/1000059669"},{"type":"link","offset":964,"length":19,"data":"mailto:sergey@waltbury.com"},{"type":"handle","offset":1018,"length":16,"data":"javascript_jobs"}],"date":"2020-06-19T19:03:46+00:00","link":"tg://resolve?domain=javascript_jobs_feed&post=16293","tags":[{"name":"javascript"},{"name":"html"},{"name":"css"},{"name":"sass"},{"name":"seo"}],"cities":[],"allowsRemote":true}},{"node":{"__typename":"Job","id":"17070817280-1001110946746","title":"Js developer","text":"#вакансия #js #frontend #react\n\nПозиция: Middle React Developer\n\nФормат работы: удаленно (дэйли митинги в начале дня)\n\nЗанятость: полная, проектная\n\nТребования:\n- уверенные знания ECMAScript\n- уверенные знания React/Redux \n- знания git и git-flow (squash, merge, etc)\n- инициативность и способность общаться с командой\n- умение писать чистый и поддерживаемый код\n- умение выполнять задачи\n\nНеплохо, если вы:\n- умеете работать с веб-сокетами (потребуется в дальнейшем)\n- знаете TypeScript (возможно потребуется в дальнейшем)\n- знаете CSS/Sass и умеете верстать\n\nОбязанности:\n- разработка приложения на React+Redux\n- коммуникация с командой, принятие решений в проектировании API\n\nРабочий график: 10:00 - 18:00 Пн-Пт\n\nОплата: 1500$ - 2000$ (на руки)\n\nКонтакты: @heavycharged\n\n—\n\n👉 Обсуждение вакансии в чате @javascript_jobs","markup":[{"type":"hashtag","offset":0,"length":9,"data":"вакансия"},{"type":"hashtag","offset":10,"length":3,"data":"js"},{"type":"hashtag","offset":14,"length":9,"data":"frontend"},{"type":"hashtag","offset":24,"length":6,"data":"react"},{"type":"handle","offset":759,"length":13,"data":"heavycharged"},{"type":"handle","offset":807,"length":16,"data":"javascript_jobs"}],"date":"2020-06-19T10:45:28+00:00","link":"tg://resolve?domain=javascript_jobs_feed&post=16280","tags":[{"name":"javascript"},{"name":"reactjs"},{"name":"redux"},{"name":"git"},{"name":"typescript"},{"name":"css"},{"name":"sass"},{"name":"react-redux"}],"cities":[],"allowsRemote":true}},{"node":{"__typename":"Job","id":"17061380096-1001110946746","title":"Js разработчик","text":"Greenatom.ru\n#вакансия #Москва #javascript #React #Typescript #Node.js #Middle #Senior #удаленка #удаленная работа \n\n👨🏼‍💻 Middle/Senior Frontend Developer, Middle/Senior Backend Developer\nГород и адрес офиса: #Москва, БЦ Сириус Парк, метро Нагатинская\n\n✅Формат работы: \nУДАЛЕННАЯ РАБОТА\n\n💻Занятость: полная, гибкое начало трудового дня.\n\nЗарплатная вилка: от 170 000 до 230 000 руб. на руки.\n\n🏢Компания: АО Гринатом\n\nПривет! Мы растём и активно развиваем ряд внутренних проектов: например, корпоративный портал, горячая линия, собственная кадровая система для 400 предприятий! \nМы формируем НЕСКОЛЬКО КОМАНД, общей численностью более 60 человек и ищем классных:\n\n✅ФРОНТЕНД  разработчиков;\n\n✅БЭКЕНД разработчиков. \n\nПроекты в стадии разработки пилота и у тебя есть возможность повлиять на дальнейшее развитие продукта. Если у тебя есть крутые идеи - ты сможешь их здесь реализовать! Откликайся сам и зови друзей! Вирус пройдёт, работа останется!\n\n✅Требуемые знания и навыки:\n- Опыт разработки от двух лет\n- Хорошее знание чистого JS\n- Опыт работы с TypeScript\n- React, MobX, Less/Sass\n- Опыт написания юнит-тестов с помощью Jest, Enzymе очень приветствуется\n\n💡Наш стек:\n      React, TypeScript, Node.js, MobX, Docker\n\nМы работаем по Scrum.\n\n✅Условия:\n- Официальное оформление по ТК, белая зп;\n- Годовой бонус;\n- Возможности профессионального и карьерного роста;\n- Дополнительные 3 дня к отпуску;\n- Плавающее начало дня;\n- ДМС со стоматологией;\n- Полная удаленка \n(Если тебе нравится работать в офисе, мы не против)\n\n☎️Контакты:\nЮлия - YAnZueva@Greenatom.ru\n\n—\n\n👉 Обсуждение вакансии в чате @javascript_jobs","markup":[{"type":"link","offset":0,"length":12,"data":"http://Greenatom.ru"},{"type":"hashtag","offset":13,"length":9,"data":"вакансия"},{"type":"hashtag","offset":23,"length":7,"data":"Москва"},{"type":"hashtag","offset":31,"length":11,"data":"javascript"},{"type":"hashtag","offset":43,"length":6,"data":"React"},{"type":"hashtag","offset":50,"length":11,"data":"Typescript"},{"type":"hashtag","offset":62,"length":5,"data":"Node"},{"type":"hashtag","offset":71,"length":7,"data":"Middle"},{"type":"hashtag","offset":79,"length":7,"data":"Senior"},{"type":"hashtag","offset":87,"length":9,"data":"удаленка"},{"type":"hashtag","offset":97,"length":10,"data":"удаленная"},{"type":"hashtag","offset":212,"length":7,"data":"Москва"},{"type":"link","offset":1540,"length":21,"data":"mailto:YAnZueva@Greenatom.ru"},{"type":"handle","offset":1596,"length":16,"data":"javascript_jobs"}],"date":"2020-06-18T21:15:55+00:00","link":"tg://resolve?domain=javascript_jobs_feed&post=16271","tags":[{"name":"javascript"},{"name":"reactjs"},{"name":"typescript"},{"name":"nodejs"},{"name":"sass"},{"name":"docker"}],"cities":[{"code":"moscow"}],"allowsRemote":true}},{"node":{"__typename":"Job","id":"17049845760-1001110946746","title":"Js разработчик","text":"#вакансия #frontend #vue #senior #middle #remote #офис #удаленка\n\nГород: Москва, м. Славянский бульвар\nФормат работы: офис, удаленное сотрудничество\nЗанятость: полная, гибкий график (обсуждаем)\nЗарплатная вилка: от 80 000 рублей до 240 000 рублей на руки\nНазвание компании: ФГБУ «ИАЦ МЧС России»\nКонтакты для связи: @mxrkin\n\nНа данный момент отдел разработки программного обеспечения формирует команду JS-разработчиков для поддержки существующих и реализации новых проектов.\n\nТребования для соискателей:\n— уверенные знания Javascript, знание стандартов ECMAScript;\n— знание и опыт применения фреймворка Vue.js и использование элементов экосистемы фреймворка (vuex, vue-router);\n— опыт использования систем сборки - webpack, gulp, parcel. Опыт написания конфигов для webpack;\n— владение препроцессорами CSS - SASS/LESS;\n— опыт использования Prettier, ESLint;\n— гражданство РФ (местонахождение так же РФ).\n\nПлюсом будет:\n— владение Node.js или знание других языков программирования;\n— активные профили в сообществах habrahabr, habr Q&A, участие в opensource проектах, активный профиль github;\n— опыт работы с библиотекой D3.js;\n— опыт работы с картографическими библиотеками.\n\nТрудоустройство официальное по ТК РФ, социальный пакет.\nНа территории имеется столовая для сотрудников, спортивные площадки, футбольное и баскетбольное поле.\nРабота не является государственной службой.\n\nСобеседование проходит в три этапа — общение с руководителем, выполнение тестового задания (простое задание на 15-30 минут), предложение сотрудничества. \n\nЕсли вас заинтересовала вакансия, обращайтесь в тг @mxrkin. Большим плюсом будет, если первым сообщением прикрепите резюме и поделитесь ссылками на проекты, в которых принимали активное участие, или ссылку на гитхаб с кодом, который, по-вашему мнению, сможет показать все ваши знания и навыки.\n\n—\n\n👉 Обсуждение вакансии в чате @javascript_jobs","markup":[{"type":"hashtag","offset":0,"length":9,"data":"вакансия"},{"type":"hashtag","offset":10,"length":9,"data":"frontend"},{"type":"hashtag","offset":20,"length":4,"data":"vue"},{"type":"hashtag","offset":25,"length":7,"data":"senior"},{"type":"hashtag","offset":33,"length":7,"data":"middle"},{"type":"hashtag","offset":41,"length":7,"data":"remote"},{"type":"hashtag","offset":49,"length":5,"data":"офис"},{"type":"hashtag","offset":55,"length":9,"data":"удаленка"},{"type":"handle","offset":316,"length":7,"data":"mxrkin"},{"type":"handle","offset":1584,"length":7,"data":"mxrkin"},{"type":"handle","offset":1861,"length":16,"data":"javascript_jobs"}],"date":"2020-06-18T21:02:31+00:00","link":"tg://resolve?domain=javascript_jobs_feed&post=0","tags":[{"name":"javascript"},{"name":"vuejs"},{"name":"webpack"},{"name":"gulp"},{"name":"css"},{"name":"sass"},{"name":"nodejs"},{"name":"github"}],"cities":[{"code":"moscow"}],"allowsRemote":true}}]}}},"context":{}}