{"hash":"f5f6bf98bd95e769321482904cbbd488f77922fd","data":{"records":{"totalCount":669,"pageInfo":{"totalPages":67,"currentPage":59},"edges":[{"node":{"id":"102942900224-1001089317451","title":"Qa инженер","text":"#вакансия #Моcква #Россия #офис #удаленка #тест-менеджер \n\nДолжность: Ведущий тестировщик\\Тест-менеджер\nГород: Москва (Парк Культуры) и не только\nФормат работы: возможна удаленка\nЗанятость: полная\nЗП: 160 – 180 net (в зависимости от опыта), + квартальные бонусы\nОформление ТК РФ\nСоцпакет – ДМС, обучение, корп скидки и т.д.\n\nКто мы:\nДирекция BigData  в X5 Retail\nРазрабатываем продукты работающие с большими данными в ритэйле.\n\nЧто нужно делать:\nРабота  в продуктовой команде \nРазвитие процесса тестирования продукта с 0 до выхода на автоматизацию  в будущем\nРазработка тестовой модели\nРабота с документацией\nПодготовка тестовых данных\nПланирование и проведение тестирования – регресс, интеграционное, тестирование нового функционала и исправлений дефектов\nОрганизация автоматизированного и нагрузочного тестирования\nАнализ причин появления дефектов\nРабота с баг-трекинговой системой (Jira) и TMS (Allure Enterprise) системами\n\nНаш кандидат:\n🔎Опыт тестирования web-приложений от 4 лет\n🔎Опыт организации тестирования сложных интеграционных продуктов\n🔎Уверенные знания гибких методологий тестирования \n🔎Умение аргументированно отстаивать свою точку зрения \n\n🔎Опыт работы с баг-трекинговыми системами\n🔎Знание SQL на уровне написания составных запросов\n🔎Способность быстро адаптироваться к изменениям приоритетов в работе\n🔎Аналитическое мышление, системный подход к решению задач, умение работать в команде, склонность к самообразованию, усидчивость, внимательность, инициативность\n🔎Желание развиваться\n🔎Дополнительный плюсы\n – знание основ автоматизации (Python) и нагрузочного тестирования\n - Базовые знания работы с Docker, k8s\n - Опты работы в Scrum командах \n\n\nРезюме и вопросы в личные сообщения denis_d_u либо по телефону + 7 985 2986708","markup":[{"type":"hashtag","offset":0,"length":9,"data":"вакансия"},{"type":"hashtag","offset":10,"length":7,"data":"Моcква"},{"type":"hashtag","offset":18,"length":7,"data":"Россия"},{"type":"hashtag","offset":26,"length":5,"data":"офис"},{"type":"hashtag","offset":32,"length":9,"data":"удаленка"},{"type":"hashtag","offset":42,"length":5,"data":"тест"},{"type":"link","offset":1735,"length":15,"data":"tel:+ 7 985 2986708"}],"date":"2020-06-16T09:28:29+00:00","link":"tg://resolve?domain=qa_jobs&post=0","tags":[{"name":"qa"},{"name":"dotnet"},{"name":"web"},{"name":"sql"},{"name":"python"},{"name":"docker"}],"cities":[{"code":"moscow"}],"allowsRemote":true}},{"node":{"id":"16963862528-1001110946746","title":"Js developer","text":"#вакансия #fulltime #frontend #JS #jquery\nFrontend developer\nКомпания: ВсеИнструменты.ру\nЛокация: удаленная работа \nДиапазон: 100000 - 130000 руб./мес. net\n\nЗадача: поддерживать и писать новый функционал сайта на js с использованием jquery.\n\nСтек: \n- Javascript от 2-3 лет;\n- ES6+;\n- Jquery;\n- HTML5, CSS3, SCSS.\n\nПолная информация о вакансии: https://nn.hh.ru/vacancy/37324206\nКонтакты: telegram @obukhova_irina или irina.obukhova@vseinstrumenti.ru","markup":[{"type":"hashtag","offset":0,"length":9,"data":"вакансия"},{"type":"hashtag","offset":10,"length":9,"data":"fulltime"},{"type":"hashtag","offset":20,"length":9,"data":"frontend"},{"type":"hashtag","offset":30,"length":3,"data":"JS"},{"type":"hashtag","offset":34,"length":7,"data":"jquery"},{"type":"link","offset":344,"length":33,"data":"https://nn.hh.ru/vacancy/37324206"},{"type":"handle","offset":397,"length":15,"data":"obukhova_irina"},{"type":"link","offset":417,"length":32,"data":"mailto:irina.obukhova@vseinstrumenti.ru"}],"date":"2020-06-16T09:20:04+00:00","link":"tg://resolve?domain=javascript_jobs_feed&post=0","tags":[{"name":"javascript"},{"name":"jquery"},{"name":"dotnet"},{"name":"html"},{"name":"css"}],"cities":[],"allowsRemote":true}},{"node":{"id":"1691353088-1001091028994","title":"Java developer","text":"Senior Java/Kotlin developer в Группу компаний FIX 📍\n#удаленно #Казань #Java #Kotlin \n\nЧем предстоит заниматься:\n- разрабатывать высоконагруженную платежную платформу\n- участвовать в проектировании модулей и компонентов\n- улучшать производительность создаваемого решения\n- реализовывать решения по обработке платежей\n- решать задачи резервирования и отказоустойчивости подсистем\n \nЧто для этого нужно:\n- опыт разработки высоконагруженных решений на Java/Kotlin.\n- глубокое знание Java SE.\n- опыт создания Web-приложений, понимание соответствующего стека технологий Java/Kotlin, знание протоколов TCP/IP, HTTP/HTTPS).\n- знание устройства и правил функционирования JVM.\n- опыт разработки многопоточных высоконагруженных приложений.\n- опыт улучшения производительности Java/Kotlin решений;\n\n\nМы предлагаем: \n- ЗП 150- 250 000\n- достойный уровень дохода (обсуждается индивидуально)\n- уютный офис в центре Казани\n- интересные задачи и открытая идеям команда\n- насыщенная корпоративная жизнь (праздники и активности, футбол, волейбол, йога)\n- релокационный пакет для специалистов из других городов, ДМС\n\n✏️ Откликаться: @rsharafutdinova","markup":[{"type":"hashtag","offset":54,"length":9,"data":"удаленно"},{"type":"hashtag","offset":64,"length":7,"data":"Казань"},{"type":"hashtag","offset":72,"length":5,"data":"Java"},{"type":"hashtag","offset":78,"length":7,"data":"Kotlin"},{"type":"handle","offset":1115,"length":16,"data":"rsharafutdinova"}],"date":"2020-06-16T09:17:52+00:00","link":"tg://resolve?domain=jvmjobs&post=1613","tags":[{"name":"java"},{"name":"jvm"},{"name":"kotlin"},{"name":"web"}],"cities":[{"code":"kazan"}],"allowsRemote":true}},{"node":{"id":"102939754496-1001089317451","title":"Qa инженер","text":"#вакансия #Моcква #Россия #офис #удаленка #автоматизация #Python #тестировщик\n\nДолжность: Тестировщик ПО (функциональное + автоматизированное тестирование)\nГород: Москва (Парк Культуры) и не только\nФормат работы: возможна удаленка\nЗанятость: полная\nЗП: 130 – 180 net (в зависимости от опыта), + квартальные бонусы\nОформление ТК РФ\nСоцпакет – ДМС, обучение, корп скидки и т.д.\n\nКто мы:\nДирекция BigData  в X5 Retail\nРазрабатываем продукты работающие с большими данными в ритэйле.\n\nЧто нужно делать:\nРазработка ручных и авто тестов\nПодготовка тестовых данных\nПроведение тестирования – регресс, интеграционное, тестирование нового функционала и исправлений дефектов\nАнализ причин появления дефектов\nРабота с баг-трекинговой системой (Jira) – регистрация дефектов, отслеживание статусов, проверка исправлений, закрытие дефектов\nРазвитие процесса тестирования продукта\nВозможна работа как в продуктовой команде так и в стриме автоматизации тестирования – в зависимости от опыта и пожеланий.\n\nНаш кандидат:\n🔎Опыт тестирования web-приложений от 3 лет\n🔎Опыт автоматизации тестирования с Python, Pytest от 1 года\n🔎Базовые знания работы с Docker, k8s\n🔎Опыт работы с баг-трекинговыми системами\n🔎Знание SQL на уровне написания составных запросов\n🔎Способность быстро адаптироваться к изменениям приоритетов в работе\n🔎Аналитическое мышление, системный подход к решению задач, умение работать в команде, склонность к самообразованию, усидчивость, внимательность, инициативность\n🔎Желание развиваться\n🔎Дополнительный плюс – опыт работы с продуктами ритэйла.\n\nРезюме и вопросы в личные сообщения denis_d_u или по телефону +7 985 2986708","markup":[{"type":"hashtag","offset":0,"length":9,"data":"вакансия"},{"type":"hashtag","offset":10,"length":7,"data":"Моcква"},{"type":"hashtag","offset":18,"length":7,"data":"Россия"},{"type":"hashtag","offset":26,"length":5,"data":"офис"},{"type":"hashtag","offset":32,"length":9,"data":"удаленка"},{"type":"hashtag","offset":42,"length":14,"data":"автоматизация"},{"type":"hashtag","offset":57,"length":7,"data":"Python"},{"type":"hashtag","offset":65,"length":12,"data":"тестировщик"},{"type":"link","offset":1613,"length":14,"data":"tel:+7 985 2986708"}],"date":"2020-06-16T09:09:17+00:00","link":"tg://resolve?domain=qa_jobs&post=0","tags":[{"name":"qa"},{"name":"python"},{"name":"dotnet"},{"name":"web"},{"name":"docker"},{"name":"sql"}],"cities":[{"code":"moscow"}],"allowsRemote":true}},{"node":{"id":"71359791104-1001054966032","title":"Ios разработчик","text":"#вакансия #ios #swift #офис #москва\nм.Бауманская, полная занятость\nБелая з/п от 130.000 до 200.000 руб. на руки (рассматриваем уровень Middle/Senior)\niOS developer\nНа время изоляции работаем удаленно, после вновь вернемся в офис!\nПолностью удаленной работы у нас нет!\n\n Мы — команда разработки Level.Travel, сложного продукта в сфере путешествий.  За последние 8 лет мы с нуля создали и продолжаем развивать решение для онлайн-продажи путешествий. Нашу платформу используют лидеры рынка – Тинькофф Банк, OneTwoTrip, Сбербанк, TripAdvisor, Kayak, АК Барс Банк, Евросеть и многие другие. Компания Level.Travel является резидентом Инновационного центра «Сколково».\n\nОбязанности:\n🔸Разработка проекта на Swift\n🔸Разработка новых модулей приложения\n🔸Проведение code review\n🔸Пишем на VIPER, используем Realm, Swinject, SnapKit\n🔸Сбор требований и фидбэка от других команд разработчиков и дизайнеров для улучшения и развития нашего продукта\n🔸Проводить оценку и корректировать требования для развития и улучшения приложения\n\nОт Вас:\n🔸Разработка на iOS от 2х лет\n🔸Умеете писать поддерживаемый и тестируемый код и понимаете, что DRY, KISS и 🔸SOLID — не просто аббревиатуры\n🔸Умение разрабатывать многопоточные приложения\n🔸Способность планировать и приоритезировать работу\n🔸Умение находить аргументы и конструктивно реагировать на комментарии коллег\n🔸Готовность много общаться с другими командами\n\nОт нас: белая зп, официальное трудоустройство, больничные, отпуска. Скидки на изучение английского языка, техника MacBook Pro. Регулярная обратная связь и аттестации. Геймификация процессов и несколько раз в год релокейты поработать в другую страну. Клевый молодой коллектив, интересные ивенты, насыщенная корпоративная жизнь. Пинг-понг, бильярд, кальян и другие развлечения в офисе. Скидки на путешествия)\n\nСвязь по почте: vos@level.travel\nИли тут @Alyask_a","markup":[{"type":"hashtag","offset":0,"length":9,"data":"вакансия"},{"type":"hashtag","offset":10,"length":4,"data":"ios"},{"type":"hashtag","offset":15,"length":6,"data":"swift"},{"type":"hashtag","offset":22,"length":5,"data":"офис"},{"type":"hashtag","offset":28,"length":7,"data":"москва"},{"type":"bold","offset":67,"length":44,"data":""},{"type":"bold","offset":150,"length":13,"data":""},{"type":"bold","offset":164,"length":65,"data":""},{"type":"bold","offset":270,"length":76,"data":""},{"type":"bold","offset":664,"length":12,"data":""},{"type":"bold","offset":1021,"length":7,"data":""},{"type":"bold","offset":1397,"length":7,"data":""},{"type":"bold","offset":1805,"length":32,"data":""},{"type":"link","offset":1821,"length":16,"data":"mailto:vos@level.travel"},{"type":"bold","offset":1838,"length":17,"data":""},{"type":"handle","offset":1846,"length":9,"data":"Alyask_a"}],"date":"2020-06-16T08:56:51+00:00","link":"tg://resolve?domain=mobile_jobs&post=0","tags":[{"name":"mobile"},{"name":"ios"},{"name":"swift"},{"name":"realm"}],"cities":[{"code":"moscow"}],"allowsRemote":true}},{"node":{"id":"1690304512-1001091028994","title":"Java developer","text":"Вакансия: Java developer \n \nПроект: Разрабатываем единый веб-терминал MOEX Treasury, который позволит получить быстрый и удобный доступ ко всем рынкам Московской Биржи, а также сервисам по управлению обеспечением и внебиржевым операциям. Это не просто веб-интерфейс к уже существующим торговым системам, а новая платформа, которая взаимодействует со всеми основными торговыми и бэк-офисными системами Биржи, которая сейчас начинает активно развиваться.\n \nТехнологический стек на проекте: Java 8, Spring (Spring Boot, Spring MVC), Hazelcast, WebSocket, RabbitMQ, Firebird (с переходом на PostgreSQL), в интеграционных решения REST API и JMS.\n \nЗадачи на проекте:\n Участие в проекте по разработке платформы, объединяющей основные рынки и инструменты Московской Биржи;\n Разработка и отладка модулей платформы;\n Интеграция приложения с внешними и внутренними сервисами;\n Написание понятного и стабильно работающего кода;\n Активное взаимодействие со специалистами из смежных подразделений;\n Поиск и аргументация технически эффективных путей решения бизнес задач;\n Умение и желание писать чистый и понятный код;\n Навык написания unit и интеграционных тестов на Java;\n Паттерны проектирования.\n\nЧто ожидаем от Вас:\n Опыт промышленной разработки (от 3 лет);\n\nФундаментальные знания принципов построения распределенных систем;\n Уверенные знания core Java;\n Опыт разработки веб-сервисов;\n Знание паттернов проектирования;\n Применение практик TDD, DDD, CI/CD.\n\nНаши условия работы:\n• Компания: ПАО Московская биржа (Компания, входящая в 500 - лучших работодателей мира по версии Forbes за 2019 год);\n• Офис в центре: г. Москва, м. Арбатская/Библиотека им. Ленина/Боровицкая/Александровский сад;\n• Занятость: полная, официальное оформление в штат компании (оформление онлайн);\n• Формат работы: современный  офис возле Кремля в шаговой доступности от метро (на данный момент работаем удаленно из дома);\n• ДМС: с первого рабочего дня;\n• Свой «корпоративный университет», собственный лекторий, широкие возможности обучения – как внутри, так и вне компании;\n• Уровень з/п:  230 - 290 тыс.руб. (gross) + годовой бонус (25% от годового дохода);\n• Формат интервью: 1 этап онлайн интервью (60 минут).\n\nПишите в личку, отвечу на любые вопросы!\nКонтакты: @Sasha_P92\nAlexander.Panin@moex.com","markup":[{"type":"bold","offset":0,"length":26,"data":""},{"type":"bold","offset":28,"length":8,"data":""},{"type":"bold","offset":455,"length":33,"data":""},{"type":"bold","offset":643,"length":19,"data":""},{"type":"bold","offset":1188,"length":20,"data":""},{"type":"bold","offset":1450,"length":21,"data":""},{"type":"bold","offset":1744,"length":19,"data":""},{"type":"handle","offset":2233,"length":10,"data":"Sasha_P92"},{"type":"link","offset":2244,"length":24,"data":"mailto:Alexander.Panin@moex.com"}],"date":"2020-06-16T08:53:26+00:00","link":"tg://resolve?domain=jvmjobs&post=1612","tags":[{"name":"java"},{"name":"jvm"},{"name":"spring"},{"name":"websocket"},{"name":"rabbitmq"},{"name":"postgresql"},{"name":"rest"},{"name":"spring-boot"},{"name":"spring-mvc"}],"cities":[{"code":"moscow"}],"allowsRemote":true}},{"node":{"id":"1689255936-1001091028994","title":"Java разработчик","text":"Вакансия Team Lead Java \n\nПроект: Разрабатываем единый веб-терминал MOEX Treasury, который позволит получить быстрый и удобный доступ ко всем рынкам Московской Биржи, а также сервисам по управлению обеспечением и внебиржевым операциям. Это не просто веб-интерфейс к уже существующим торговым системам, а новая платформа, которая взаимодействует со всеми основными торговыми и бэк-офисными системами Биржи, которая сейчас начинает активно развиваться.\n \nТехнологический стек: Java 8, Spring (Spring Boot, Spring MVC), Hazelcast, WebSocket, RabbitMQ, Firebird (с переходом на PostgreSQL), в интеграционных решения REST API и JMS.\n \n Задачи на проекте:\n Участие в проекте по разработке платформы, объединяющей основные рынки и инструменты Московской Биржи;\n Подбор команды java-разработчиков (3 человека);\n Решение всех эскалаций по сотрудникам направления – качество и производительность работы, мотивация и пр.;\n Обеспечение качества работы членов команды;\n Накопление экспертизы по направлению;\n Организация и поддержание в актуальном состоянии базы знаний, проведение внутренних мероприятий по обмену знаниями и пр.;\n Проработка подхода к организации работ и его документирование в регламентах;\n Информирование всех заинтересованных сторон о процессе и его изменениях, контроль следования установленному процессу;\n Оценка задач в итерацию, оценка скоупа входящих работ;\n Ревью оценок от команды, отчетность план/факт по задачам команды;\n Разработка и контроль стандартов проектирования и качества кода для внешнего подрядчика.\n \nЧто мы ожидаем от Вас:\n Глубокое знание Java core;\n Знание принципов ООП и понимание паттернов проектирования;\n Уверенное знание JEE, Spring, Spring Boot, Spring MVC;\n Опыт разработки высоконагруженных систем;\n Уверенное знание, опыт проектирования и разработки RESTful API и WebSocket;\n Уверенное знание и опыт работы с данными в формате xml,json;\n Опыт работы с jaxb;\n Уверенное знание rdms. умение отлаживать, оптимизировать sql запросы;\n Опыт работы с Postgres приветствуется.\n\nНаши условия работы:\n• Компания: ПАО Московская биржа (Компания, входящая в 500 - лучших работодателей мира по версии Forbes за 2019 год);\n• Офис в центре: г. Москва, м. Арбатская/Библиотека им. Ленина/Боровицкая/Александровский сад;\n• Занятость: полная, официальное оформление в штат компании (оформление онлайн);\n• Формат работы: современный  офис возле Кремля в шаговой доступности от метро (на данный момент работаем удаленно из дома);\n• ДМС: с первого рабочего дня;\n• Свой «корпоративный университет», собственный лекторий, широкие возможности обучения – как внутри, так и вне компании;\n• Уровень з/п:  300 - 350 тыс.руб. (gross) + годовой бонус (32% от годового дохода);\n• Формат интервью: 1 этап онлайн интервью (60 минут).\n\nПишите в личку, отвечу на любые вопросы!\nКонтакты: @Sasha_P92\nAlexander.Panin@moex.com","markup":[{"type":"bold","offset":0,"length":34,"data":""},{"type":"bold","offset":453,"length":22,"data":""},{"type":"bold","offset":631,"length":19,"data":""},{"type":"bold","offset":1530,"length":23,"data":""},{"type":"bold","offset":2012,"length":21,"data":""},{"type":"bold","offset":2306,"length":19,"data":""},{"type":"handle","offset":2795,"length":10,"data":"Sasha_P92"},{"type":"link","offset":2806,"length":24,"data":"mailto:Alexander.Panin@moex.com"}],"date":"2020-06-16T08:53:10+00:00","link":"tg://resolve?domain=jvmjobs&post=1611","tags":[{"name":"java"},{"name":"jvm"},{"name":"spring"},{"name":"websocket"},{"name":"rabbitmq"},{"name":"postgresql"},{"name":"rest"},{"name":"xml"},{"name":"json"},{"name":"jaxb"},{"name":"sql"},{"name":"spring-boot"},{"name":"spring-mvc"}],"cities":[{"code":"moscow"}],"allowsRemote":true}},{"node":{"id":"102938705920-1001089317451","title":"Qa инженер","text":"#вакансия #москва #fulltime #middle #automation\n\n🏢Город: Москва, м. Ленинский проспект\n💻Формат: Офис\n💰З/п: до 170k на руки\n\n✌️Ищем тестировщика в команду сопровождения и развития облачной платформы собственной разработки на базе open source продуктов.\n«Лоялти энд Медиа Групп»- это современная облачная платформа - продуктовый маркетплейс и процессинг лояльности одновременно, заточенная под обработку больших массивов данных и создание продуктов и сервисов карточной лояльности для банков и мерчантов. Компания выступает как enabler и для тех, и для других, для чего реализовано большое количество интеграций с партнерами и клиентами, несколько white-label вебприложений для клиентов и набор API для онлайн-взаимодействия с приложениями клиентов и партнёров. Стратегический партнёр ЛМГ – Visa International.  \n\n📌Задачи: \n • Вам предстоит построить процесс тестирования в компании, фактически с нуля. \n • Участие в разработке правил и стандартов тестирования, поддержание высокого уровня культуры тестирования. \n • Создание и поддержка автоматизированных тестов\n • Ведение проекта – постоянная готовность предоставить полный и ясный отчет о состоянии проекта, анализ рисков, своевременное реагирование на проблемы. \n • Координация взаимодействия с другими участниками команды. \n • Выполнение всех работ, связанных с тестированием — сбор и анализ требований, разработка тестовой документации всех уровней, планирование, выдача оценок, подготовка тестовых сред и тестовых окружений, проведение циклов тестирования. \n  \n📌Требования: \n • Ясное понимание проектного подхода к работе, знакомство с различными методологиями управления проектами. \n • Опыт работы в тестировании от 2х лет. \n • Опыт использования ЯП в автоматизации тестирования  \n • Уверенные знания теории тестирования. \n • Умение составлять тестовую документацию всех уровней. \n • Английский язык на уровне чтения и написания технической документации. \n • Самостоятельность, высокий уровень личной дисциплины \n  \n📌Желательно: \n • Опыт работы с БД (PostgreSQL, PGBouncer, Redis, ElasticSearch, OpenLDAP) \n • Знание техник тестдизайна \n  \n📌Мы предлагаем: \n • Дружную команду и рабочую атмосферу с хорошим балансом творчества и задач. \n • Гибкий график. Возможна удаленная работа из дома по договоренности с командой. \n • Оплачиваемый отпуск и больничный. По предварительной договоренности у вас могут быть выходные дни для особых случаев. \n • Растущий коллектив – на данный момент около 20 человек, из которых половина – разработчики, devops и аналитики. \n • Адекватное руководство. \n • Полное отсутствие бюрократии. \n • Достойный уровень зарплаты. \n • Перспективы профессионального и карьерного роста. Мы убеждены, что компания должна инвестировать в развитие своих сотрудников и поэтому приветствуем посещение конференций, митапов, профессиональные курсы (некоторые из них возможно организовать за счет компании). \n • Офис в Москве, 7 минут от м. «Ленинский Проспект».\n\n✉️Почта: mkoneva@youhired.ru \n❗️Telegram: @nunquam2008\n📞 Телефон: +79210614118","markup":[{"type":"hashtag","offset":0,"length":9,"data":"вакансия"},{"type":"hashtag","offset":10,"length":7,"data":"москва"},{"type":"hashtag","offset":18,"length":9,"data":"fulltime"},{"type":"hashtag","offset":28,"length":7,"data":"middle"},{"type":"hashtag","offset":36,"length":11,"data":"automation"},{"type":"link","offset":2946,"length":19,"data":"mailto:mkoneva@youhired.ru"},{"type":"handle","offset":2979,"length":12,"data":"nunquam2008"},{"type":"link","offset":3004,"length":12,"data":"tel:+79210614118"}],"date":"2020-06-16T08:17:36+00:00","link":"tg://resolve?domain=qa_jobs&post=0","tags":[{"name":"qa"},{"name":"postgresql"},{"name":"redis"},{"name":"elasticsearch"}],"cities":[{"code":"moscow"}],"allowsRemote":true}},{"node":{"id":"71352451072-1001054966032","title":"Android разработчик","text":"#вакансия #android #remote #удаленка\n\nГород и адрес офиса: Ростов-на-Дону\nФормат работы: удаленка\nЗанятость: проектная\nЗарплатная вилка - от $30 до $100 за проект, перспектива роста количества и сложности проектов и как следствие ставки\n\nОписание вакансии:\n\nНа данном этапе периодическая проектная работа по разработке приложений Android, состоящих из 3 - 7 экранов, с довольно базовым функционалом (работа 2-3 часа максимум на одно приложение)\n\n🧠 Требования:\n\n- Ключевое требование - опыт работы с метриками (Firebase, Facebook Analytics, Google Analytics)\n- опыт разработки приложений для Android от 1 года\n- опыт работы с Webview\n- навыки разработки приложений, осуществляющих запросы на сторонний веб-сервер и обработку его ответа\n- навыки имплементации локальных push-уведомлений\n\nКонтакты: телеграм @makar_abraam","markup":[{"type":"hashtag","offset":0,"length":9,"data":"вакансия"},{"type":"hashtag","offset":10,"length":8,"data":"android"},{"type":"hashtag","offset":19,"length":7,"data":"remote"},{"type":"hashtag","offset":27,"length":9,"data":"удаленка"},{"type":"handle","offset":806,"length":13,"data":"makar_abraam"}],"date":"2020-06-16T08:17:08+00:00","link":"tg://resolve?domain=mobile_jobs&post=0","tags":[{"name":"mobile"},{"name":"android"},{"name":"firebase"},{"name":"google-analytics"}],"cities":[{"code":"rostov"}],"allowsRemote":true}},{"node":{"id":"2214592512-1001134745498","title":"Devops инженер","text":"#вакансия #Remote #работаDevOps  #удаленка \n\nКомпания: IDG\nФормат работы: удаленка\nЗанятость: полная\nЗарплатная вилка: $2500 до $4000\n\n👋Всем привет. Меня зовут Гульназ. \nМы занимаемся разработкой собственных образовательных проектов, а также проектов для клиентов - технологических, финансовых и аудиторских компаний.\nСейчас мы ищем DevOps инженера в дополнение к нашей текущей DevOps-команде, который будет вместе с нами делать cross-cloud big-data/ai платформу для одного из наших крупных постоянных клиентов.\nУ нас всё в k8s. Помимо этого есть spark, несколько баз данных и еще куча всего интересного. Разворачиваем с помощью Terraform/Ansible/Helm\n\n📍Требования:\n\n- Опыт работы с AWS/Azure/GCE - от 2+ лет;\n- Опыт работы с Kubernetes - от 2+ лет\n- Опыт работы со Spark - от 1 года\n- Имеет опыт настройки и администрирования БД (Mongo, Redis, Rabbit, SQL Server, Postgres, MySQL, Elastic Search)\n- Опыт разработки на Python или других подобных языках;\n- Опыт организации процесса CI/CD (jenkins, teamcity).\n- Английский на уровне Intermediate и выше.\n\nБудет плюсом: \n\n- Опыт работы в крупных международных компаниях;\n- Опыт работы с технологиями Big Data;\n\n📌Что мы предлагаем:\n\n- Интересные задачи и возможность реализовать свой потенциал в международных проектах компании и внутренних стартапах;\n- Гибкий график (начало и конец рабочего дня согласовываются с менеджером и командой проекта)\n- Полностью удаленная работа\n- Дополнительные выплаты за профессиональные успехи\n\nКонтакт: @IDGAccount\n\n—\n\n👉 Обсуждение вакансии в чате @devops_jobs","markup":[{"type":"hashtag","offset":0,"length":9,"data":"вакансия"},{"type":"hashtag","offset":10,"length":7,"data":"Remote"},{"type":"hashtag","offset":18,"length":13,"data":"работаDevOps"},{"type":"hashtag","offset":33,"length":9,"data":"удаленка"},{"type":"handle","offset":1487,"length":11,"data":"IDGAccount"},{"type":"handle","offset":1533,"length":12,"data":"devops_jobs"}],"date":"2020-06-16T08:10:39+00:00","link":"tg://resolve?domain=devops_jobs_feed&post=2112","tags":[{"name":"cloud"},{"name":"ansible"},{"name":"amazon-web-services"},{"name":"azure"},{"name":"kubernetes"},{"name":"redis"},{"name":"rabbitmq"},{"name":"sql"},{"name":"postgresql"},{"name":"mysql"},{"name":"elasticsearch"},{"name":"python"},{"name":"jenkins"},{"name":"sql-server"}],"cities":[],"allowsRemote":true}}]}},"context":{}}