{"hash":"f34fd2c444a074f4e0e67d525015a008ef8e766f","data":{"records":{"id":"spring","name":"spring","belongsTo":{"totalCount":54,"pageInfo":{"totalPages":6,"currentPage":4},"edges":[{"node":{"__typename":"Job","id":"1404043264-1001091028994","title":"Java разработчик","text":"Вакансия: #Java #TeamLead                                           \nКомпания: #Утконос                                                                  \nЛокация: #Москва                                                                         \nЗ/п: 320 000 Net                                                                             \nКонтакт: @RecruiterTatianaK                                                   \nJava TeamLead в Утконос Онлайн\n📍Наш проект:\nВ компании разрабатывается комплексная система по управлению складом. Систему пишем сами «с нуля», на микросервисной архитектуре\n📍Что нужно делать?   \nУправление командой разработки   \nРазработка алгоритмов по оптимизации хранения и комплектации                                                                                       \nУчастие в проработке архитектурных решений                   \n📍Наш стек:\n Java 11, Spring 5, Kubernetes, ELK, Grafana, Prometheus, Kafka                                                                                               \n📍Что предлагаем?                                                                        \nОформление по ТК РФ, ДМС   \nГибкий график                                                                     \nКорпоративные скидки на utkonos.ru, tui.ru, фитнес, кино и др.                                                                                      \nОфис - 10 минут  от м. Краснопресненская/ м.Улица 1905 года","markup":[{"type":"hashtag","offset":10,"length":5,"data":"Java"},{"type":"hashtag","offset":16,"length":9,"data":"TeamLead"},{"type":"hashtag","offset":79,"length":8,"data":"Утконос"},{"type":"hashtag","offset":163,"length":7,"data":"Москва"},{"type":"handle","offset":347,"length":18,"data":"RecruiterTatianaK"},{"type":"link","offset":1254,"length":10,"data":"http://utkonos.ru"},{"type":"link","offset":1266,"length":6,"data":"http://tui.ru"}],"date":"2020-03-31T21:26:33+00:00","link":"tg://resolve?domain=jvmjobs&post=1339","tags":[{"name":"java"},{"name":"jvm"},{"name":"dotnet"},{"name":"spring"},{"name":"kubernetes"},{"name":"kafka"}],"cities":[{"code":"moscow"}],"allowsRemote":false}},{"node":{"__typename":"Job","id":"1402994688-1001091028994","title":"Java разработчик","text":"#java #Moscow #Tallin\n\nГород: Москва (возможна релокация в Эстонию через 3 месяца)\nФормат работы/занятость: Офис / полная/ Сейчас удаленка\nЗарплатная вилка: 200 000- 300 000 руб на руки \nКомпания: РА  Clever Recruiting\n\nДрузья, есть отличная вакансия Java Developer (Middle/Senior) в Москве, для тех кто:\n •хочет участвовать в создании приложений для здоровья людей, которыми будут пользоваться юзеры по всему миру\n •готов работать в международной компании в команде с разработчиками из других стран\n •желает развиваться в сфере AI и Machine Vision\n •любит высокую степень самостоятельности и автономности и готов принимать решения вплоть до выбора технологического стека\n •ищет стабильную компанию с демократичной атмосферой, гибким графиком работы, и возможностью частично удаленной работы\n \nПроект: создание SaaS платформы для диагностики проблем с кожей и разработки рекомендации для ухода за кожей, с использованием алгоритмов искусственного интеллекта и машинного зрения.\n \nСтек: Java, Spring Boot, PostgreSQL, Maven, Docker, Kubernetes, AWS, GCP, Azure\n \nТребования:\n •Опыт коммерческой разработки на Java от2 лет с использованием Spring Frameworks\n •Знание классических алгоритмов и структур данных\n •Английский - Upper-Intermediate level\n •Опыт работы с облаками будет преимуществом\n \nУсловия:\nЗарплата 200-300К рублей на руки, все по ТК\nГибкий график работы, возможность частично- удаленной работы\nОфис в Москве в 5 мин ходьбы от м. Нахимовский проспект\n\nконтакты:@Marina_Pelikh\nm.chetverikova@clever-recruiting.com","markup":[{"type":"hashtag","offset":0,"length":5,"data":"java"},{"type":"hashtag","offset":6,"length":7,"data":"Moscow"},{"type":"hashtag","offset":14,"length":7,"data":"Tallin"},{"type":"handle","offset":1474,"length":14,"data":"Marina_Pelikh"},{"type":"link","offset":1489,"length":36,"data":"mailto:m.chetverikova@clever-recruiting.com"}],"date":"2020-03-31T12:57:14+00:00","link":"tg://resolve?domain=jvmjobs&post=1338","tags":[{"name":"java"},{"name":"jvm"},{"name":"spring"},{"name":"postgresql"},{"name":"maven"},{"name":"docker"},{"name":"kubernetes"},{"name":"amazon-web-services"},{"name":"google-cloud-platform"},{"name":"azure"},{"name":"spring-boot"}],"cities":[{"code":"moscow"}],"allowsRemote":true}},{"node":{"__typename":"Job","id":"1401946112-1001091028994","title":"Java разработчик","text":"#java #вакансия #Москва #fulltime #middle #senior \nГород и адрес офиса: Москва, между метро Нагатинская и Тульская, мцк Верхние котлы \nФормат работы: офис\nЗанятость: полная\nОплата: 180-300 тыс. рублей\n\nОписание вакансии:\nКоманда Sber Product Catalog  ищет сильного Java-разработчика!🙌\nПроект Product Catalog-это облачное решение, которое позволяет бизнесу вести все свои продукты (карты, вклады, продукты партнеров и и.п) в едином месте, гибко управлять всеми элементами 4P (product,price, promotion, place) и мгновенно выводить все изменения на рынок. Архитектура системы состоит из 11 модулей, половина из них в Production, другая половина требует проектирования и разработки. Продукт активно развивается, поэтому мы хотим усилить нашу команду. От нас вы получите опыт и развитие компетенций, амбициозные задачи, карьерный рост и открытость к инновациям!\nСтек: Spring core/Security/Batch/Rest/HateOAS, ABACUSES,BPM,Versioning, Hibernate Envers/ORM/OGM, Apache Kafka, Jasper reports, Oracle/PostgreeSQL.\nПроцесс разработки : Scrum, Jira, Gitflow,Devops до Production (переход на OpenShift)\n-Оформление ТК РФ;\n     -ДМС;\n     - Белая заработная плата (оклад + годовая премия);\n     -Возможность обучения за счет компании;\n     -   Льготное кредитование;\n      -Бесплатный тренажерный зал на территории офиса;\n       - корпоративная жизнь и спортивные мероприятия;\n       -возможность карьерного роста.\n\nЖдём Вас в нашей команде!\n@TaliaHR","markup":[{"type":"hashtag","offset":0,"length":5,"data":"java"},{"type":"hashtag","offset":6,"length":9,"data":"вакансия"},{"type":"hashtag","offset":16,"length":7,"data":"Москва"},{"type":"hashtag","offset":24,"length":9,"data":"fulltime"},{"type":"hashtag","offset":34,"length":7,"data":"middle"},{"type":"hashtag","offset":42,"length":7,"data":"senior"},{"type":"handle","offset":1430,"length":8,"data":"TaliaHR"}],"date":"2020-03-31T08:49:56+00:00","link":"tg://resolve?domain=jvmjobs&post=1337","tags":[{"name":"java"},{"name":"jvm"},{"name":"spring"},{"name":"batch"},{"name":"rest"},{"name":"hibernate"},{"name":"orm"},{"name":"apache"},{"name":"kafka"},{"name":"oracle"}],"cities":[{"code":"moscow"}],"allowsRemote":false}},{"node":{"__typename":"Job","id":"1398800384-1001091028994","title":"Java developer","text":"Большой интергационный проект: разработка платформы финансового маркетплейса для физических лиц, проект  стартует в сентябре-декабре 2020 г. \n\nЗадачи на новый проект:\n\nНачать разработку и отладку BPM-слоя платформы, основанной на микросервисной архитектуре с использованием - Java 8; Spring Framework (Core, MVC, Boot); Camunda BPM; Apache Kafka; Hibernate; Docker; PostgreSQL. \n\nВзаимодействие со смежными командами и определение зон ответственности при реализации задач.\n\nПодготовка рекомендаций по внедрению новых технологии, решений, подходов.\n\nНастройка CI/CD процессов. \n\nТребования:\n\nГлубокие знание java core.\nОпыт в java от 3-х лет.\nЗнание подходов CI/CD. \nОтличные организационные и коммуникативные навыки. \n\nЛокация офиса: г. Москва, м. Арбатская/Библиотека им. Ленина/Боровицкая/Александровский сад. \nЗанятость: полная, официальное оформление в штат Компании. \nДМС: с первого рабочего дня. \nФормат работы: современный  офис возле кремля в шаговой доступности от метро (сейчас работаем из дома, возможно, после выхода в офисе многое поменяется))).\nКомпания: ПАО Московская биржа (Компания входящая в 500 - лучших работодателей мира по версии Forbes за 2019 год). \nУровень з/п:  230- 300 тыс.руб. + годовой бонус.\nФормат интервью: один этап интервью по Skype (60 минут). \nКоманда: абсолютно новая команда, почти (3 вакансии senior developer) сформирована за период февраль - март 2020 г. \n\n\nПишите в личку, отвечу на любые вопросы!\nКонтакты: @Sasha_P92","markup":[{"type":"handle","offset":1452,"length":10,"data":"Sasha_P92"}],"date":"2020-03-30T18:53:38+00:00","link":"tg://resolve?domain=jvmjobs&post=1334","tags":[{"name":"java"},{"name":"jvm"},{"name":"spring"},{"name":"apache"},{"name":"kafka"},{"name":"hibernate"},{"name":"docker"},{"name":"postgresql"}],"cities":[{"code":"moscow"}],"allowsRemote":false}},{"node":{"__typename":"Job","id":"1397751808-1001091028994","title":"Java разработчик","text":"Вакансия: #Java \nКомпания: #S-O-Services\nЛокация: #удаленнаяработа #remote #belarus #ukraine #balticstates\nЗ/п: 5000-6500$ gross\nКонтакты: @erzentd\nMust be able to translate business needs into effective technical solutions using core JAVA and common\nopensource libraries and frameworks.\n🔹 Must have practical implementation experience with Web Service RESTful API.\n🔹 Highly preferred with performance in encoding audio video in cloud platform.\n🔹 Experience with Java/J2EE technologies: Java, EJB3.0, JMS, JDBC, XML.\n🔹 Experience with application servers is a plus: Spring Boot, Jetty, Apache Tomcat, Wildfly.\n🔹 Experience with frameworks: Spring, Hibernate.\n🔹 Strong understanding of Java Multithreading and Daemons.\n🔹 Experience with the development tools a plus: Intellij, Git, JIRA\n🔹 Proven experience with interfacing to relational databases (particularly PostgreSQL, MySQL)\n🔹 Excellent troubleshooting skills with the ability to analyze and resolve difficult problems quickly\n🔹 Must have excellent written and verbal communication skills\n🔹 Familiarity with common branching strategies like Gitflow a plus\n🔹 Upper-intermediate English","markup":[{"type":"hashtag","offset":10,"length":5,"data":"Java"},{"type":"hashtag","offset":27,"length":2,"data":"S"},{"type":"hashtag","offset":50,"length":16,"data":"удаленнаяработа"},{"type":"hashtag","offset":67,"length":7,"data":"remote"},{"type":"hashtag","offset":75,"length":8,"data":"belarus"},{"type":"hashtag","offset":84,"length":8,"data":"ukraine"},{"type":"hashtag","offset":93,"length":13,"data":"balticstates"},{"type":"handle","offset":139,"length":8,"data":"erzentd"}],"date":"2020-03-30T18:44:36+00:00","link":"tg://resolve?domain=jvmjobs&post=1333","tags":[{"name":"java"},{"name":"jvm"},{"name":"web"},{"name":"cloud"},{"name":"jdbc"},{"name":"xml"},{"name":"spring"},{"name":"jetty"},{"name":"apache"},{"name":"tomcat"},{"name":"hibernate"},{"name":"git"},{"name":"postgresql"},{"name":"mysql"},{"name":"spring-boot"}],"cities":[],"allowsRemote":true}},{"node":{"__typename":"Job","id":"1946157056-1001134745498","title":"Devops engineer","text":"#вакансия #USA #Australia #senior #remote #DevOps #AWS \n\nЛокация: Атланта\nФормат работы: удаленка \nЗанятость: полная, гибкое начало дня\nЗП:  250 000 до 450 000 рублей на руки (заработная плата начисляется в долларах, вилка указана примерно, компания готова отталкиваться от пожеланий кандидатов)\n\n🔹 Открыта вакансия SR. Cloud Service Engineer в небольшой Американский стартап в области healthcare Lifetime Fluency.\nРебята существуют один год и разрабатывают инновационное VR решение для лечения пациентов, страдающих заиканием. Сейчас закончен прототип продукта и начинается этап активной разработки. Разработка идет с нуля, используются максимально современные технологии.\nПланируемвй стек проекта: Java,\nSpring Boot, AWS, Micro-services, RESTful API,\nKafka, Spring Data, Angular 2+, Node.js, JavaScript, HTML5, CSS3, Docker\n\nМы ищем первого SR. Cloud Service Engineer, который выстроит всю необходимую архитектуру, СI/СD процесс с нуля, выстроит работу в AWS. \nОчень желателен опыт в healthcare и знание HIPAA.\n\n🔹 Требования:\n- Свободный английский язык (разговорный и письменный)\n- Опыт работы с AWS в продакшн от 3-ех лет;\n- Опыт выстраивания CI/CD процесса с нуля;\n\n🔹 Контакты:\nКА: Lucky hunter\ne-mail: daria@luckyhunter.io\ntelegram: @prudentdaria\nПишите, буду рада ответить на все возможные вопросы в телеграм или по почте\n\n—\n\n👉 Обсуждение вакансии в чате @devops_jobs","markup":[{"type":"hashtag","offset":0,"length":9,"data":"вакансия"},{"type":"hashtag","offset":10,"length":4,"data":"USA"},{"type":"hashtag","offset":15,"length":10,"data":"Australia"},{"type":"hashtag","offset":26,"length":7,"data":"senior"},{"type":"hashtag","offset":34,"length":7,"data":"remote"},{"type":"hashtag","offset":42,"length":7,"data":"DevOps"},{"type":"hashtag","offset":50,"length":4,"data":"AWS"},{"type":"link","offset":1211,"length":20,"data":"mailto:daria@luckyhunter.io"},{"type":"handle","offset":1242,"length":13,"data":"prudentdaria"},{"type":"handle","offset":1366,"length":12,"data":"devops_jobs"}],"date":"2020-03-30T15:48:22+00:00","link":"tg://resolve?domain=devops_jobs_feed&post=1856","tags":[{"name":"amazon-web-services"},{"name":"cloud"},{"name":"java"},{"name":"spring"},{"name":"kafka"},{"name":"angularjs"},{"name":"nodejs"},{"name":"javascript"},{"name":"html"},{"name":"css"},{"name":"docker"},{"name":"spring-boot"},{"name":"spring-data"}],"cities":[{"code":"atlanta"}],"allowsRemote":true}},{"node":{"__typename":"Job","id":"1396703232-1001091028994","title":"Java разработчик","text":"#java #middle #москва #офис #fulltime \n\nКА: Lucky Hunter\nФормат работы: офис \nЗанятость: full time\nЛокация: Москва, Нижний Сусальный пер. \nЗ/п:  до 220к Net \n\n🌏Британский лидер глобального рынка информационных услуг в сфере финансов расширяет границы своего присутствия и открывает первый офис в России. \n\nВ связи с этим компания находится в поиске middle Java специалиста, который будет отвечать за кастомизацию продукта. \n\nДанный сервис позволяет частным лицам контролировать свои финансы, кредитным организациям давать кредиты с большей ответственностью, а также позволяет компаниям предотвращать кражу персональных данных и мошенничество.\nНа сегодняшний день в компании работает около 17 000 человек в 37 странах🌍\n\n🔸 Требования:\n— Опыт разработки на Java+Spring от 2 лет;\n— Опыт работы с PostgreSQL, MS SQL, Oracle; \n— Англ.яз. (интервью будет проходит с представителями Британского офиса); \n\nБольшим плюсом будет:\n— Опыт работы с кастомными продуктами;\n— Понимание особенностей фин.тех. сервисов;\n\n🔸 Что получите Вы:\n— Официальное трудоустройство;\n— Вы встанете у истоков первого российского филиала;\n— Большие перспективы роста и развития;\n— Работа в международной команде профессионалов;\n\nКонтакты: \ne-mail: maria@luckyhunter.io\ntelegram: @Maria_Rey","markup":[{"type":"hashtag","offset":0,"length":5,"data":"java"},{"type":"hashtag","offset":6,"length":7,"data":"middle"},{"type":"hashtag","offset":14,"length":7,"data":"москва"},{"type":"hashtag","offset":22,"length":5,"data":"офис"},{"type":"hashtag","offset":28,"length":9,"data":"fulltime"},{"type":"link","offset":1219,"length":20,"data":"mailto:maria@luckyhunter.io"},{"type":"handle","offset":1250,"length":10,"data":"Maria_Rey"}],"date":"2020-03-30T11:48:16+00:00","link":"tg://resolve?domain=jvmjobs&post=1332","tags":[{"name":"java"},{"name":"jvm"},{"name":"dotnet"},{"name":"spring"},{"name":"postgresql"},{"name":"sql"},{"name":"oracle"}],"cities":[{"code":"moscow"}],"allowsRemote":false}},{"node":{"__typename":"Job","id":"1395654656-1001091028994","title":"Java developer","text":"В инновационное подразделение крупнейшей российской авиакомпании\nищем #Junior #Java #Developer\nГород: #Москва\nФормат работы: #офис\nЗанятость: #fulltime, гибкий подход к рабочему времени\nВилка: до 100000 net.\n\nЗадача:\n\n • Проектирование и разработка хранилища данных о клиентах компании.\n\nЧто хотим видеть:\n\n • Опыт разработки на Java 1 год на коммерческом проекте,\n • Spring Framework, понимание концепции DI,\n • Опыт реализации REST-сервисов,\n • Понимание микросервисной архитектуры,\n   \nБудет плюсом:\n\n • вы знаете, что такое ETL\n • вы работали с:\n            Spark (SQL, Streaming);\n            Kafka;\n            Linux, Docker, Kubernetes;\n            реляционными БД (Oracle, MS SQL, PostgreSQL);\n            Spring Integration или аналогами (Camel)\n\nУсловия:\n\n • Интересные задачи, возможность влиять на прибыль компании;\n • Бессрочный трудовой договор;\n • Корпоративный тариф на перелеты;\n • ДМС;\n • Возможность обучаться за счет компании;\n • Участие в конференциях.\n\nКонтакт:  @morozovamary","markup":[{"type":"bold","offset":70,"length":13,"data":""},{"type":"hashtag","offset":70,"length":7,"data":"Junior"},{"type":"hashtag","offset":78,"length":5,"data":"Java"},{"type":"bold","offset":84,"length":17,"data":""},{"type":"hashtag","offset":84,"length":10,"data":"Developer"},{"type":"hashtag","offset":102,"length":7,"data":"Москва"},{"type":"bold","offset":110,"length":14,"data":""},{"type":"hashtag","offset":125,"length":5,"data":"офис"},{"type":"bold","offset":131,"length":10,"data":""},{"type":"hashtag","offset":142,"length":9,"data":"fulltime"},{"type":"bold","offset":186,"length":6,"data":""},{"type":"bold","offset":209,"length":9,"data":""},{"type":"code","offset":218,"length":3,"data":""},{"type":"bold","offset":288,"length":19,"data":""},{"type":"code","offset":307,"length":3,"data":""},{"type":"code","offset":365,"length":3,"data":""},{"type":"code","offset":410,"length":3,"data":""},{"type":"code","offset":444,"length":3,"data":""},{"type":"bold","offset":489,"length":15,"data":""},{"type":"code","offset":504,"length":3,"data":""},{"type":"code","offset":532,"length":3,"data":""},{"type":"bold","offset":756,"length":10,"data":""},{"type":"code","offset":766,"length":3,"data":""},{"type":"code","offset":828,"length":3,"data":""},{"type":"code","offset":860,"length":3,"data":""},{"type":"code","offset":896,"length":3,"data":""},{"type":"code","offset":904,"length":3,"data":""},{"type":"code","offset":947,"length":3,"data":""},{"type":"bold","offset":975,"length":8,"data":""},{"type":"handle","offset":985,"length":13,"data":"morozovamary"}],"date":"2020-03-30T09:30:22+00:00","link":"tg://resolve?domain=jvmjobs&post=1331","tags":[{"name":"java"},{"name":"jvm"},{"name":"dotnet"},{"name":"spring"},{"name":"rest"},{"name":"sql"},{"name":"kafka"},{"name":"linux"},{"name":"docker"},{"name":"kubernetes"},{"name":"oracle"},{"name":"postgresql"}],"cities":[{"code":"moscow"}],"allowsRemote":false}},{"node":{"__typename":"Job","id":"1394606080-1001091028994","title":"Java разработчик","text":"#вакансия #android #backend #java #kotlin #senior\n\nВакансия: Kotlin/Java Backend Software Engineer\nФормат работы: удаленка / #remote\nЗанятость: полная / частичная #fulltime #parttime\nЗарплатная вилка: от $2500 до $3500 по итогам собеседования\nИмя компании: Take it Personally B.V.\nАдрес компании: #Amsterdam\nОписание работы: https://takeitpersonally.me/kotlin-java-backend-software-engineer/\n\nBackend Software Engineer with experience with Java and Kotlin to join our remote team full-time within European time zone.\n\nRESPONSIBILITIES\n • Drive key technical decisions from the start of the project\n • Write unit tests and integrate into CI/CD\n • Own the Feature, Own the Code – feel responsible for what you create. This starts with bringing in your own feature ideas, goes over development, testing and ends in deploying your code and monitoring the feature\n • Design and develop systems based on product requirements or refactorings\n\nREQUIREMENTS\n • Curiosity about ethical / mindful / humane tech space\n • 3+ years of experience with Java or Kotlin\n • Familiar with the quirks of Spring\n • Keen about principles and practices of scalable web applications, such as RESTful APIs, dealing with transactions and resiliency\n • Deep knowledge of best practices, APIs and libraries needed for building web applications\n • Strong understanding of application architecture and object-oriented design\n • Passion for continuous learning and understanding\n • Ability to operate in fast-paced, deadline driven, collaborative and iterative programming environment\n • Proven tech documentation skills\n • Excellent verbal and written communication in English\n\nWHAT IS IN IT FOR YOU\n • No bureaucracy, flat organisational structure\n • Competitive salary and shares package\n • Be part of the team from the start and grow with the company\n • Business trips to Spain and the Netherlands\n\nContact: @takeitpersonally\nEmail: olga@mytip.app\nApplication form: https://takeitpersonally.me/kotlin-java-backend-software-engineer/","markup":[{"type":"hashtag","offset":0,"length":9,"data":"вакансия"},{"type":"hashtag","offset":10,"length":8,"data":"android"},{"type":"hashtag","offset":19,"length":8,"data":"backend"},{"type":"hashtag","offset":28,"length":5,"data":"java"},{"type":"hashtag","offset":34,"length":7,"data":"kotlin"},{"type":"hashtag","offset":42,"length":7,"data":"senior"},{"type":"hashtag","offset":125,"length":7,"data":"remote"},{"type":"hashtag","offset":163,"length":9,"data":"fulltime"},{"type":"hashtag","offset":173,"length":9,"data":"parttime"},{"type":"hashtag","offset":297,"length":10,"data":"Amsterdam"},{"type":"link","offset":325,"length":66,"data":"https://takeitpersonally.me/kotlin-java-backend-software-engineer/"},{"type":"handle","offset":1880,"length":17,"data":"takeitpersonally"},{"type":"link","offset":1905,"length":14,"data":"mailto:olga@mytip.app"},{"type":"link","offset":1938,"length":66,"data":"https://takeitpersonally.me/kotlin-java-backend-software-engineer/"}],"date":"2020-03-28T20:25:05+00:00","link":"tg://resolve?domain=jvmjobs&post=1330","tags":[{"name":"java"},{"name":"jvm"},{"name":"android"},{"name":"kotlin"},{"name":"spring"},{"name":"web"}],"cities":[{"code":"amsterdam"}],"allowsRemote":true}},{"node":{"__typename":"Job","id":"1392508928-1001091028994","title":"Java разработчик","text":"Вакансия: #java #developer #javadeveloper\nКомпания: #ivi\nЛокация: #москва #мск\nЗ/п: от 250 000 до 270 000 руб. на руки\nКонтакты: @daria144 \n\nКоманда Big Data онлайн-кинотеатра ivi ищет сильного Java разработчика, заинтересованного в работе с данными и разработке аналитических продуктов\n\nНаша задача - собирать, обогащать, хранить и доставлять данные, а также разрабатывать инструменты для извлечения из них максимального business value.\n\nДанные - важное звено в бизнесе ivi, мы придерживаемся data-driven культуры принятия решений. Мы обрабатываем 1 Тб в день с помощью Kafka, Flink и ClickHouse.\n\nРазрабатываем нагруженные (18k qps) сервисы на Spring Boot WebFlux и синхронизируем их через ZooKeeper. Разрабатываем многоуровневые кеши Caffeine + Redis и Flink коннекторы. Основные технологии: Java, Python; Kafka, Flink, Spring Boot, Spring WebFlux, ZooKeeper, Redis, ClickHouse, PostgreSQL.\n\nЕсли вы любите разбираться с новыми технологиями и решать нестандартные задачи - вам у нас будет интересно.\n\nЧто предстоит делать:\n- разработка модулей на основе streaming-processing (Apache Flink);\n- разработка web-сервисов для различных задач (реклама, аналитика и т.п.);\n- взаимодействовать с командой по вопросам архитектуры и разработки.\n\nКак узнать что ты нам подходишь?\n- есть опыт разработки на Java в коммерческих проектах от 5 лет;\n- у тебя отличное знание Java Core;\n- твердые архитектурные скилы;\n- общая культура разработки: декомпозиция задач, SOLID-принципы, DI, написание интеграционных и модульных тестов. \n\nСо своей стороны мы обещаем:\n- Офис в 5 минутах ходьбы от м. \"Дмитровская\";\n- У нас гибкий график, мы начинаем до 11 часов дня;\n- Трудоустройство по ТК РФ;\n- ДМС + стоматология после прохождения испытательного срока;\n- Подписка на ivi;\n- Пакет релокации для соискателей со всей России.","markup":[{"type":"bold","offset":0,"length":9,"data":""},{"type":"hashtag","offset":10,"length":5,"data":"java"},{"type":"hashtag","offset":16,"length":10,"data":"developer"},{"type":"hashtag","offset":27,"length":14,"data":"javadeveloper"},{"type":"bold","offset":42,"length":9,"data":""},{"type":"hashtag","offset":52,"length":4,"data":"ivi"},{"type":"bold","offset":57,"length":8,"data":""},{"type":"hashtag","offset":66,"length":7,"data":"москва"},{"type":"hashtag","offset":74,"length":4,"data":"мск"},{"type":"bold","offset":79,"length":4,"data":""},{"type":"bold","offset":119,"length":9,"data":""},{"type":"handle","offset":129,"length":9,"data":"daria144"},{"type":"bold","offset":1004,"length":22,"data":""},{"type":"bold","offset":1239,"length":33,"data":""},{"type":"bold","offset":1520,"length":29,"data":""}],"date":"2020-03-27T09:48:35+00:00","link":"tg://resolve?domain=jvmjobs&post=1328","tags":[{"name":"java"},{"name":"jvm"},{"name":"kafka"},{"name":"spring"},{"name":"redis"},{"name":"python"},{"name":"postgresql"},{"name":"apache"},{"name":"web"},{"name":"spring-boot"}],"cities":[{"code":"moscow"}],"allowsRemote":false}}]}}},"context":{}}