{"hash":"f34fd2c444a074f4e0e67d525015a008ef8e766f","data":{"records":{"id":"groovy","name":"groovy","belongsTo":{"totalCount":16,"pageInfo":{"totalPages":2,"currentPage":1},"edges":[{"node":{"__typename":"Job","id":"1435500544-1001091028994","title":"Java разработчик","text":"#ulyanovsk #java #kotlin #backend #spring #middle #senior\n\nЛокация: Ульяновск, можно удаленно, если из другого города (работаем по ТК РФ или как с Российским ИП) \nФормат работы: #офис, #fulltime #remote\nЗ/п: до 150к т.р. (net) \nКомпания: Nord Clan\nКонтакты: @VladislavAg\n\nИщу разработчика в команду Nord Clan. Наша компания разрабатывает системы для бизнеса в области финтеха, медецины и фудтеха. Помимо этого разрабатываем собственные продукты связанные с машинным обучением, распознаванием образов и компьютерным зрением. \nОгромным плюсом будет опыт работы с Kotlin. \nТакже готовы рассмотреть специалистов с опытом в других backend технологиях, которые хотят погрузиться в мир Java.\n\n📌 Мы работаем с:\nJava 8 и выше, Kotlin, Groovy;\nSpring, Spring Boot, Security, Data, MVC;\nРеляционным базами (Postgres\\Oracle) и NoSQL (Mongo\\Cassandra\\Ignite);\nПишем RESTfull приложения с использованием RabbitMQ и Kafka.\n\n📌 В круг твоих обязанностей будет входить:\nПринимать непосредственное участие в командной разработке ПО;\nПроводить и проходить через code-review;\nПринимать участие в проработке архитектурных задач;\nОднако CRUD-сервисы никто не отменял, и мы их тоже пишем;\nПисать качественный код и покрывать его unit-тестами.\n\n📌Тебе к нам, если ты хочешь:\nРаботать в компании, где нет формальностей и бюрократии;\nРаботать в команде с четко выстроенным процессом разработки;\nИметь возможность пройти сертификацию OCP за счет компании;\nОформление по ТК РФ, белую зарплату;","markup":[{"type":"hashtag","offset":0,"length":10,"data":"ulyanovsk"},{"type":"hashtag","offset":11,"length":5,"data":"java"},{"type":"hashtag","offset":17,"length":7,"data":"kotlin"},{"type":"hashtag","offset":25,"length":8,"data":"backend"},{"type":"hashtag","offset":34,"length":7,"data":"spring"},{"type":"hashtag","offset":42,"length":7,"data":"middle"},{"type":"hashtag","offset":50,"length":7,"data":"senior"},{"type":"hashtag","offset":178,"length":5,"data":"офис"},{"type":"hashtag","offset":185,"length":9,"data":"fulltime"},{"type":"hashtag","offset":195,"length":7,"data":"remote"},{"type":"handle","offset":258,"length":12,"data":"VladislavAg"}],"date":"2020-04-10T12:23:59+00:00","link":"tg://resolve?domain=jvmjobs&post=1369","tags":[{"name":"java"},{"name":"jvm"},{"name":"kotlin"},{"name":"spring"},{"name":"dotnet"},{"name":"groovy"},{"name":"postgresql"},{"name":"oracle"},{"name":"nosql"},{"name":"cassandra"},{"name":"rabbitmq"},{"name":"kafka"},{"name":"spring-boot"}],"cities":[{"code":"ulyanovsk"}],"allowsRemote":true}},{"node":{"__typename":"Job","id":"98229551104-1001089317451","title":"Qa engineer","text":"#вакансия \nВакансия: #sdet #QA #automation #fulltime\nКомпания: #нспк #псмир\nЛокация: #томск\nЗ/п: 100к-180к net (после вычета налогов)\n\n«Национальная система платежных карт» ищет QA Automation Engineer.\n\nНСПК - развивающаяся компания, создающая финтех-сервисы, которыми пользуются миллионы людей. \n\nЗа 5 лет нашей истории мы разработали бизнес-продукты, аналоги которых в мире можно пересчитать по пальцам:\n✔️Платежная система \"Мир\";\n✔️Система быстрых платежей;\n✔️Программа лояльности \"Мир\";\n✔️Сервис мобильной оплаты MirPay;\n✔️Система аутентификации пользователей MirAccept.  \n\n⛏ Наш стек: Java, Spring, MySql, Linux, Git, Jenkins, Nexus, Ansible, Groovy, Gradle, Nginx, HAProxy, Kafka, Hazelcast, Prometheus, ELK, Atlassian stack. \n\n🧠 Что нужно будет делать?\n- Разрабатывать автоматизированные тесты;\n- Проводить интеграционное тестирование;\n- Разрабатывать тест-кейсы и регистрировать баги;\n- Разрабатывать собственные платформы для автоматизации тестирования.\n\nВ общем, контролировать качество разрабатываемого решения. \n\n🎁 Мы предлагаем:\n- Работу в команде профессионалов;\n- Обучение за счет компании;\n- Развитую корпоративную культуру;\n- ДМС со стоматологией, официальное трудоустройство; \n- Комфортный офис в центре;\n- Чай, кофе, печеньки. ✌️\n\nХотите поучаствовать в масштабном и сложном проекте?\n\nМои контакты:\n📲 +7-916-051-20-63\n      @Ekaterina1915 \n\n📩 makarovaen@nspk.ru","markup":[{"type":"hashtag","offset":0,"length":9,"data":"вакансия"},{"type":"hashtag","offset":21,"length":5,"data":"sdet"},{"type":"hashtag","offset":27,"length":3,"data":"QA"},{"type":"hashtag","offset":31,"length":11,"data":"automation"},{"type":"hashtag","offset":43,"length":9,"data":"fulltime"},{"type":"hashtag","offset":63,"length":5,"data":"нспк"},{"type":"hashtag","offset":69,"length":6,"data":"псмир"},{"type":"hashtag","offset":85,"length":6,"data":"томск"},{"type":"link","offset":1323,"length":16,"data":"tel:+7-916-051-20-63"},{"type":"handle","offset":1346,"length":14,"data":"Ekaterina1915"},{"type":"link","offset":1366,"length":18,"data":"mailto:makarovaen@nspk.ru"}],"date":"2020-04-08T11:49:39+00:00","link":"tg://resolve?domain=qa_jobs&post=93679","tags":[{"name":"qa"},{"name":"dotnet"},{"name":"java"},{"name":"spring"},{"name":"mysql"},{"name":"linux"},{"name":"git"},{"name":"jenkins"},{"name":"ansible"},{"name":"groovy"},{"name":"gradle"},{"name":"nginx"},{"name":"kafka"}],"cities":[{"code":"tomsk"}],"allowsRemote":false}},{"node":{"__typename":"Job","id":"1976565760-1001134745498","title":"Devops инженер","text":"#вакансия #vacancy #Москва #Moscow #fulltime #DevOps \nПозиция: DevOps / Инженер внедрения\nЛокация: Москва, м. Калужская\nВилка: 110.000-150.000 RUB net \nЗанятость: Полная\nФормат работы: офис\nКонтакты: @cated_z\nekdzolotareva@gmail.com\n \nОбязанности:\n▫️Проводить деплой;\n▫️Дорабатывать схему деплоя текущих и будущих проектов;\n▫️Перенести текущую инфраструктуру компании в код (две стойки различного оборудования с бородой из патчкордов);\n▫️Поиск проблем: взаимодействие с командой разработчиков по вопросам внедрения системы и исправления найденных в процессе внедрения недостатков;\n▫️Ведение базы знаний (у нас Confluence);\n▫️Ведение отчетной документации;\n▫️Подготовка элементов документации (описания, схемы).\n \nНеобходимые навыки: \n▫️Опыт работы с Docker, Docker-реестром, Docker-swarm (чтение структуры, запуск, конфигурирование, обслуживание, оптимизация);\n▫️Опыт работы с Windows-сервер (установка, удаление сервисов, написание конфигурации для Cocholatey реестра, PowerShell);\n▫️Опыт отладки и оптимизации сетей (просмотр трафика, обнаружение сервисов, потребляющих канал и т.д.);\n▫️Знание основных инструментов CI/CD, IasC, CasC (у нас Jenkins, BitBucket, Ansible, Terraform, Vmware, в процессе переноса инфраструктуры в облако);\n▫️Умение писать  на одном из языков: Bash, Python, Groovy;\n▫️Опыт отладки REST API;\n▫️Опыт работы с PostgreSQL (написание запросов, поиск данных);\n▫️Опыт работы с MongoDB (просмотр, поиск, редактирование данных);\n▫️Способность разбираться в сложных программных алгоритмах, логике и структуре системы.\n \nУсловия: \n▫️Официальное оформление по ТК РФ;\n▫️График работы 5/2, гибкое начало рабочего дня;\n▫️Комфортное рабочее место;\n▫️Пятидневная рабочая неделя с гибким началом рабочего дня;\n▫️Расширенный ДМС;\n▫️Скидки у компаний-партнеров;\n▫️Помощь в релокации: оплата залога + первого месяца проживания;\n▫️Офис в 7 минутах от м. Калужская, БЦ \"Neo Geo\".\n\n—\n\n👉 Обсуждение вакансии в чате @devops_jobs","markup":[{"type":"hashtag","offset":0,"length":9,"data":"вакансия"},{"type":"hashtag","offset":10,"length":8,"data":"vacancy"},{"type":"hashtag","offset":19,"length":7,"data":"Москва"},{"type":"hashtag","offset":27,"length":7,"data":"Moscow"},{"type":"hashtag","offset":35,"length":9,"data":"fulltime"},{"type":"hashtag","offset":45,"length":7,"data":"DevOps"},{"type":"handle","offset":200,"length":8,"data":"cated_z"},{"type":"link","offset":209,"length":23,"data":"mailto:ekdzolotareva@gmail.com"},{"type":"handle","offset":1921,"length":12,"data":"devops_jobs"}],"date":"2020-04-07T11:52:55+00:00","link":"tg://resolve?domain=devops_jobs_feed&post=1885","tags":[{"name":"dotnet"},{"name":"docker"},{"name":"windows"},{"name":"powershell"},{"name":"jenkins"},{"name":"ansible"},{"name":"bash"},{"name":"python"},{"name":"groovy"},{"name":"rest"},{"name":"postgresql"},{"name":"mongodb"}],"cities":[{"code":"moscow"}],"allowsRemote":false}},{"node":{"__typename":"Job","id":"1972371456-1001134745498","title":"Devops инженер","text":"#вакансия #сбербанк #DevOps Заработная плата 180-220 net. \nЗаинтересованным прошу писать в личку @nas_vas\n\nКто мы?\n\nМы новая группа Agile команд, которая развивает риск-продукты экосистемы Сбербанка. Через API и фронт системы мы предоставляем партнерам и клиентам Банка рейтинги физических и юридических лиц, отчеты и уведомления по кредитной истории.\nМы приглашаем амбициозного инженера, который готов оперативно выстроить DevOps pipeline по нашим новым продуктам в соответствии с лучшими практиками и стандартами.\n\n\nDevOps инженер\n\n Чем предстоит заниматься:\n• Организация DevOps pipeline (CI\\CD) для новых продуктов\n• Настройка, диагностика и использование инструментов автоматизации:\nсборка дистрибутива, Unit-тесты, публикация дистрибутива, доставка и развертывание дистрибутива на среды, работа с результатами анализа кода на качество и безопасность\n• Чтение и понимание реализованных job’ов и pipeline\n• Сопровождение непромышленных стендов приложений (Dev, Test): анализ доступности, мониторинг, применение инструментов обезличивания, разбор дефектов и их локализация/устранение совместно с командами разработки\n• Консультация разработчиков и администраторов по лучшим практикам DevOps\nЧто ожидаем от тебя:\n• Высшее техническое образование\n• Хорошие коммуникационные навыки. Умение работать в команде\n• Опыт работы от 1 года\n• Опыт построения CI\\CD pipeline\n• Опыт работы с инструментами DevOps (Jenkins, Nexus, BitBucket, Ansible);\n• Знание Groovy;\n• Владение SQL, понимание принципов работы RDBMS (PostgreSQL);\n• Опыт поддержки серверных ОС семейства Linux (RHEL);\n\nДополнительным плюсом будет:\n• Опыт работы c Docker контейнерами\n• Опыт работы с SonarQube, Kafka, GridGain, Oracle, Nginx, JBoss/WildFly, Jira, Confluence\n• Знание Java.\n\n—\n\n👉 Обсуждение вакансии в чате @devops_jobs","markup":[{"type":"hashtag","offset":0,"length":9,"data":"вакансия"},{"type":"hashtag","offset":10,"length":9,"data":"сбербанк"},{"type":"hashtag","offset":20,"length":7,"data":"DevOps"},{"type":"handle","offset":97,"length":8,"data":"nas_vas"},{"type":"handle","offset":1781,"length":12,"data":"devops_jobs"}],"date":"2020-04-06T13:26:30+00:00","link":"tg://resolve?domain=devops_jobs_feed&post=1881","tags":[{"name":"dotnet"},{"name":"jenkins"},{"name":"ansible"},{"name":"groovy"},{"name":"sql"},{"name":"postgresql"},{"name":"linux"},{"name":"docker"},{"name":"sonarqube"},{"name":"kafka"},{"name":"oracle"},{"name":"nginx"},{"name":"jboss"},{"name":"java"}],"cities":[],"allowsRemote":false}},{"node":{"__typename":"Job","id":"1950351360-1001134745498","title":"Devops инженер","text":"#вакансия #DevOps #Москва #офис #Kafka  #RHEL\n🚀 Ищем инженера DevOps в финансовую компанию под задачи сопровождения CI/CD инфраструктуры. \n🎧 Все собеседования можно пройти по скайпу из-за карантина.\nГород: Москва, центр\n🏠 Формат работы: офис после карантина (сейчас, как и у всех, удалёнка).\nЗанятость: полная.\nГражданство: РФ, Беларусь, Казахстан.\n🔅 Зарплатная вилка: оклад от 160 до 170K рублей net, с премиями получается 210К net.\nОбласть ответственности:\n•  Установка нового ПО на сервера Linux \n•  Поддержка CI/CD, Jenkins,\n•  Мониторинг работы сервиса и серверов, снятие логов, оптимизация;\n•  Взаимодействие с командой разработчиков и совместное решение задач;\n•  Ведение технической документации по администрируемым сервисам и решениям. \n💎Требования:\n•  Знание и опыт работы с nix* подобными системами от 3 лет. Желательно, чтобы был опыт работы с RHEL.\n•  Опыт программирования: скриптинг под Linux + Python/Groovy/JAVA.\n•  Опыт работы с БД\n•  Умение делать настройки систем мониторинга.\n\nНазвание компании: КА \"Бизнес Крафт Консалт\" https://bcraft.ru/ \n📩 Контакты: \nemail: oksana@bcraft.ru Telegram: @oksanaalieva \nБуду рада ответить на уточняющие вопросы. Подробности о проекте вышлю в ЛС в ответ на присланное резюме\n\n—\n\n👉 Обсуждение вакансии в чате @devops_jobs","markup":[{"type":"hashtag","offset":0,"length":9,"data":"вакансия"},{"type":"hashtag","offset":10,"length":7,"data":"DevOps"},{"type":"hashtag","offset":18,"length":7,"data":"Москва"},{"type":"hashtag","offset":26,"length":5,"data":"офис"},{"type":"hashtag","offset":32,"length":6,"data":"Kafka"},{"type":"hashtag","offset":40,"length":5,"data":"RHEL"},{"type":"link","offset":1048,"length":18,"data":"https://bcraft.ru/"},{"type":"link","offset":1089,"length":16,"data":"mailto:oksana@bcraft.ru"},{"type":"handle","offset":1116,"length":13,"data":"oksanaalieva"},{"type":"handle","offset":1269,"length":12,"data":"devops_jobs"}],"date":"2020-03-31T18:08:40+00:00","link":"tg://resolve?domain=devops_jobs_feed&post=1860","tags":[{"name":"kafka"},{"name":"dotnet"},{"name":"linux"},{"name":"jenkins"},{"name":"python"},{"name":"groovy"},{"name":"java"}],"cities":[{"code":"moscow"}],"allowsRemote":true}},{"node":{"__typename":"Job","id":"1388314624-1001091028994","title":"Java разработчик","text":"Вакансия: #java #developer #javadeveloper\nКомпания: #Эльдорадо \nЛокация: #москва #мск \nЗ/п: 170 - 190к net\nКонтакты: @observer69\n\nВ целях усиления команды разработки поискового сервиса интернет-магазина «Эльдорадо», ищем профессионального java-разработчика.\n\nЧем интересна наша вакансия:\n- ТК РФ;\n- Офис м. Красносельская/м. Бауманская;\n- Корпоративные скидки на продукцию компании;\n- Оформление ДМС после прохождения испытательного срока;\n- Опция для сотрудников \"система гибких льгот\", скидки сотрудникам от наших партнеров;\n- Конкурентоспособная, “белая” заработная плата (компенсационный пакет обсуждается индивидуально).\n\nВам предстоит:\n- Разработка поискового сервиса интернет-магазина «Эльдорадо», не UI;\n- Проектирование и реализация API;\n- Оценка разработки, проведение код-ревью;\n- Определение векторов развития/оптимизации сервиса;\n- Интеграция с внешними сервисами и системами.\n\nТехнологический стек:\n- java;\n- spring framework, spring boot, spring - cloud, spring batch;\n- git, gitlab, maven, teamcity;\n- hibernate, mysql;\n- elasticsearch;\n- mesos/marathon;\n- rabbitmq;\n- open API;\n- docker, k8s.\n\nТребования: \n- java 8 – уверенные знания, ООП, паттерны;\n- Понимание REST подхода к разработке API;\n- Опыт работы с Spring (Ioc, Data JPA, Boot, Cloud);\nhibernate;\n- Опыт профилирования и оптимизации производительности;\n- Опыт использования системы контроля версий git, а ткже понимание принципов её работы;\n- Английский на уровне чтения технической документации;\n- Базовые знания linux.\n\nБудет плюсом:\n- maven;\n- elasticsearch;\n- mesos/marathon\n- docker, k8s\n- groovy/spock","markup":[{"type":"bold","offset":0,"length":8,"data":""},{"type":"hashtag","offset":10,"length":5,"data":"java"},{"type":"hashtag","offset":16,"length":10,"data":"developer"},{"type":"hashtag","offset":27,"length":14,"data":"javadeveloper"},{"type":"bold","offset":42,"length":9,"data":""},{"type":"hashtag","offset":52,"length":10,"data":"Эльдорадо"},{"type":"bold","offset":64,"length":8,"data":""},{"type":"hashtag","offset":73,"length":7,"data":"москва"},{"type":"hashtag","offset":81,"length":4,"data":"мск"},{"type":"bold","offset":107,"length":9,"data":""},{"type":"handle","offset":117,"length":11,"data":"observer69"},{"type":"bold","offset":259,"length":29,"data":""},{"type":"bold","offset":627,"length":15,"data":""},{"type":"bold","offset":891,"length":22,"data":""},{"type":"bold","offset":1111,"length":13,"data":""},{"type":"bold","offset":1500,"length":14,"data":""}],"date":"2020-03-26T09:02:49+00:00","link":"tg://resolve?domain=jvmjobs&post=1324","tags":[{"name":"java"},{"name":"jvm"},{"name":"dotnet"},{"name":"spring"},{"name":"cloud"},{"name":"batch"},{"name":"git"},{"name":"gitlab"},{"name":"maven"},{"name":"hibernate"},{"name":"mysql"},{"name":"elasticsearch"},{"name":"rabbitmq"},{"name":"docker"},{"name":"rest"},{"name":"jpa"},{"name":"linux"},{"name":"groovy"},{"name":"spring-boot"}],"cities":[{"code":"moscow"}],"allowsRemote":false}},{"node":{"__typename":"Job","id":"1932525568-1001134745498","title":"Devops инженер","text":"#вакансия #jenkins #aws #украина #беларусь #прибалтика #remote #удалёнка\nкомпания s-o-services\nФормат - remote\nз\\п 5к-6к$ gross\nУвы гражданам России, живущим в РФ - вакансия недоступна.\nHere's some of the tech we use in DevOps.\n\n- jenkins экспертное знание\n- ansible\n- gradle (some maven) понимане логов сборок и умение чётко рассказать программисту что пошло не так\n- java тюнинг, хорошее понимание работы gc(чем отличается cms от g1 и от zgc, и когда лучше взять zulu? а когда openjdk?), что и когда тюнить в jvm, настройка логов и их тюнинг\n- groovy обязателен\n- HashiCorp vault\n- AWS infrastructure, понимание ценообразования, трафика и днс, стоимости i\\o и особенностей rds\n- drone\n- cri-o/containerd\n- prometheus, grafana, elk, datadog\n- upper-intermediate English обязателен\nконтакты @erzentd\n\n—\n\n👉 Обсуждение вакансии в чате @devops_jobs","markup":[{"type":"hashtag","offset":0,"length":9,"data":"вакансия"},{"type":"hashtag","offset":10,"length":8,"data":"jenkins"},{"type":"hashtag","offset":19,"length":4,"data":"aws"},{"type":"hashtag","offset":24,"length":8,"data":"украина"},{"type":"hashtag","offset":33,"length":9,"data":"беларусь"},{"type":"hashtag","offset":43,"length":11,"data":"прибалтика"},{"type":"hashtag","offset":55,"length":7,"data":"remote"},{"type":"hashtag","offset":63,"length":9,"data":"удалёнка"},{"type":"handle","offset":791,"length":8,"data":"erzentd"},{"type":"handle","offset":834,"length":12,"data":"devops_jobs"}],"date":"2020-03-23T14:06:57+00:00","link":"tg://resolve?domain=devops_jobs_feed&post=1843","tags":[{"name":"jenkins"},{"name":"amazon-web-services"},{"name":"ansible"},{"name":"gradle"},{"name":"maven"},{"name":"java"},{"name":"jvm"},{"name":"groovy"}],"cities":[],"allowsRemote":true}},{"node":{"__typename":"Job","id":"1930428416-1001134745498","title":"Devops инженер","text":"#вакансия #Москва #офис #полная занятость\nБанк ВТБ (ПАО) ищет DevOps инженера в отдел внедрения\nФормат работы: #офис #полнаязанятость\n\nЗадачи: \n👉разработка скриптов автоматизированного развертывания ПО на контурах банка;\n👉автоматизации процессов администрирования;\n👉владение новых подходов разработки автоматизации. \n\nТребования:\n👉опыт работы DevOps инженером от 2х лет;\n👉опыт работы с Git, Bitbucket;\n👉выстраивание процессов CI/CD с помощью Jenkins, Gitlab CI и TeamCity;\n👉экспертные навыки написания скриптов bash, powershell, python;\n👉 администрирование linux/unix, windows;\n👉  владение Ansible и Groovy;\n👉  опыт работа с Rest API, SOAP;\n👉 опыт работы с MsSQL Oracle, PostrgeSQL;\n👉 наличие опыта автоматизации бизнес-процессов и рутинных операций;\n👉  знание инструментов микросервисной архитектуры.\n \nУсловия:\n👉офис м.Алексеевская;\n👉заработная плата от 180 000 до 240 000;\n👉ДМС, спортивная жизнь;\n👉проффесиональное обучение и развитие.\n\nБолее подробно о вакансиях можно узнать у меня. Мои контакты @Nchugreeva\n+7 9264549707\nChugreeva@vtb.ru\n\n—\n\n👉 Обсуждение вакансии в чате @devops_jobs","markup":[{"type":"hashtag","offset":0,"length":9,"data":"вакансия"},{"type":"hashtag","offset":10,"length":7,"data":"Москва"},{"type":"hashtag","offset":18,"length":5,"data":"офис"},{"type":"hashtag","offset":24,"length":7,"data":"полная"},{"type":"hashtag","offset":111,"length":5,"data":"офис"},{"type":"hashtag","offset":117,"length":16,"data":"полнаязанятость"},{"type":"handle","offset":1018,"length":11,"data":"Nchugreeva"},{"type":"link","offset":1030,"length":13,"data":"tel:+7 9264549707"},{"type":"link","offset":1044,"length":16,"data":"mailto:Chugreeva@vtb.ru"},{"type":"handle","offset":1095,"length":12,"data":"devops_jobs"}],"date":"2020-03-23T13:20:40+00:00","link":"tg://resolve?domain=devops_jobs_feed&post=1841","tags":[{"name":"git"},{"name":"jenkins"},{"name":"gitlab"},{"name":"bash"},{"name":"powershell"},{"name":"python"},{"name":"linux"},{"name":"unix"},{"name":"windows"},{"name":"ansible"},{"name":"groovy"},{"name":"rest"},{"name":"soap"},{"name":"sql-server"},{"name":"oracle"}],"cities":[{"code":"moscow"}],"allowsRemote":false}},{"node":{"__typename":"Job","id":"1920991232-1001134745498","title":"Devops инженер","text":"#вакансия #МСК #работаDevOps #seniorDevOps \n\nГород и адрес офиса: Москва; м.Арбатская\nФормат работы: офисная\nЗанятость: полная\nЗарплатная вилка: 100-200 gross + 25% бонус \nОписание вакансии:  \n\nПроект: платформа для финансовых услуг . \nДанный проект является новым продуктом компании. Поэтому одним из преимуществ является отсутсвие легасикода.Полностью новая разработка с нуля. \n\nЗадачи:  \n- Поддержка CI/CD инфраструктуры для разработки, тестирования (Jenkins, Kubernetes и др.)\n- Автоматизация задач (Bash / Python / Groovy)\n- Настройка ОС Linux и необходимого системного ПО под созданную архитектуру\n- Обновление и установка нового ПО на сервера Linux \n- Мониторинг работы сервиса и серверов (Zabbix, Prometheus, ELK Stack) снятие логов, оптимизация \n- Взаимодействие с командой разработчиков и совместное решение задач \n- Ведение технической документации по администрируемым сервисам и решениям \n\nТребования:  \n- Знание Linux, опыт работы с Linux от 3 лет \n- Опыт работы с CentOS (RHEL) от года \n- Опыт работы с Kubernetes и docker \n- Опыт работы с Kafka \n- Опыт работы с Zabbix, умение добавить дополнительные метрики для мониторинга  \n- Умение писать скрипты на bash \n- Умение локализовать проблему до точки отказа и объяснить это профильному специалисту для её решения \n- Опыт автоматизации на основе configuration managers: ansible, saltstack будет дополнительным преимуществом \n\nУсловия:  \n- Оформление по ТК  \n\nНазвание компании:https://ru.globalcareer.eu/  (Global Career)\n\nКонтакты: @EkaterinaHRecruiter\n\n—\n\n👉 Обсуждение вакансии в чате @devops_jobs","markup":[{"type":"hashtag","offset":0,"length":9,"data":"вакансия"},{"type":"hashtag","offset":10,"length":4,"data":"МСК"},{"type":"hashtag","offset":15,"length":13,"data":"работаDevOps"},{"type":"hashtag","offset":29,"length":13,"data":"seniorDevOps"},{"type":"link","offset":1440,"length":27,"data":"https://ru.globalcareer.eu/"},{"type":"handle","offset":1496,"length":20,"data":"EkaterinaHRecruiter"},{"type":"handle","offset":1551,"length":12,"data":"devops_jobs"}],"date":"2020-03-19T10:09:11+00:00","link":"tg://resolve?domain=devops_jobs_feed&post=1832","tags":[{"name":"jenkins"},{"name":"kubernetes"},{"name":"bash"},{"name":"python"},{"name":"groovy"},{"name":"linux"},{"name":"centos"},{"name":"docker"},{"name":"kafka"},{"name":"ansible"}],"cities":[{"code":"moscow"}],"allowsRemote":false}},{"node":{"__typename":"Job","id":"1917845504-1001134745498","title":"Devops инженер","text":"#вакансия #devOps #Москва #офис \n\nГород: Москва \\ м. Кутузовская \nЗанятость: полная \nФормат работы: офис \nЗарплатная вилка: от 230 000 до 260000 рублей на руки \n\nОписание: Команда «Интеллектуальной системы управления» Сбербанка ищет Dev.Ops-инженера. Ты поможешь нам в разработке системы, которая анализирует бизнес-показатели и формирует задания для менеджеров по развитию подчиненных.\n\nЗадачи:\nразработка инструментов сборки и развертывания ПО\n\nЧто нужно:\n∙ опыт работы с Jenkins(Groovy), liquibase, Ansible, Docker, Kubernetes, OpenShift\n∙ знание форматов JSON, Yaml, XML\n∙ общее понимание стека протоколов TCP/IP, HTTP, HTTPS, REST, SOAP\n∙ опыт использования системы управления задачами, например в Atlassian Jira\n\nНазвание компании: Сбербанк \nКонтакты : @vsevkosmo\n\n—\n\n👉 Обсуждение вакансии в чате @devops_jobs","markup":[{"type":"hashtag","offset":0,"length":9,"data":"вакансия"},{"type":"hashtag","offset":10,"length":7,"data":"devOps"},{"type":"hashtag","offset":18,"length":7,"data":"Москва"},{"type":"hashtag","offset":26,"length":5,"data":"офис"},{"type":"handle","offset":759,"length":10,"data":"vsevkosmo"},{"type":"handle","offset":804,"length":12,"data":"devops_jobs"}],"date":"2020-03-19T06:43:45+00:00","link":"tg://resolve?domain=devops_jobs_feed&post=1829","tags":[{"name":"jenkins"},{"name":"groovy"},{"name":"ansible"},{"name":"docker"},{"name":"kubernetes"},{"name":"json"},{"name":"yaml"},{"name":"xml"},{"name":"rest"},{"name":"soap"}],"cities":[{"code":"moscow"}],"allowsRemote":false}}]}}},"context":{}}