{"hash":"f5f6bf98bd95e769321482904cbbd488f77922fd","data":{"records":{"id":"web","name":"web","belongsTo":{"totalCount":155,"pageInfo":{"totalPages":16,"currentPage":10},"edges":[{"node":{"__typename":"Job","id":"91669659648-1001067529236","title":"Python developer","text":"#вакансия #senior #upperintermediate #fullstack #remote\nкомпания s-o-services\nз\\п 2800-3800$, оформление по ип (компании в рф нет)\nзаказчик американское издательство\nконтакты @erzentd\n\nТребования:\n\n4+ years of demonstrated experience successfully launching complex projects on time\n2+ years of experience as a full-time developer for a web app, custom software product or organization web site\n3+ years of experience with most or all of the following: Python & Django, relational DBs, jQuery & JavaScript, HTML, CSS/LESS, Git\nExperience with the following technologies preferred but not required: MongoDB, PostgreSQL, Elasticsearch,\nWordPress, CDNs, uWSGI, Redis, Celery, Jenkins, Sentry, New Relic, Nginx, CentOS, RabbitMQ, React, \nSalesforce, Marketo, high availability systems, or graph databases\nOrganized, detail and deadline oriented, highly focused\nAbility to prioritize & manage multiple projects at one time; cool under pressure\nAnalytical thinker with strong/creative problem solving skills\nExperience with Agile development methodologies\nStrong written and verbal communication skills\nAn interest in government, elections, and associated datasets","markup":[{"type":"hashtag","offset":0,"length":9,"data":"вакансия"},{"type":"hashtag","offset":10,"length":7,"data":"senior"},{"type":"hashtag","offset":18,"length":18,"data":"upperintermediate"},{"type":"hashtag","offset":37,"length":10,"data":"fullstack"},{"type":"hashtag","offset":48,"length":7,"data":"remote"},{"type":"handle","offset":175,"length":8,"data":"erzentd"}],"date":"2020-06-23T07:27:31+00:00","link":"tg://resolve?domain=python_jobs&post=87423","tags":[{"name":"python"},{"name":"web"},{"name":"django"},{"name":"jquery"},{"name":"javascript"},{"name":"html"},{"name":"css"},{"name":"git"},{"name":"mongodb"},{"name":"postgresql"},{"name":"elasticsearch"},{"name":"wordpress"},{"name":"redis"},{"name":"jenkins"},{"name":"nginx"},{"name":"centos"},{"name":"rabbitmq"},{"name":"reactjs"}],"cities":[],"allowsRemote":true}},{"node":{"__typename":"Job","id":"103494451200-1001089317451","title":"Qa engineer","text":"#вакансия #Москва #офис\nДолжность: QA automation engineer\nКомпания: Открытая мобильная платформа\nГород: Москва, м.Парк Победы\nЗП: до 160к\nСтек: Python, Pytest, requests + cattrs, selenium\n\nУсловия:\n•ЗП до 160 000 гросс (в зависимости от ваших тех скиллов)\n•Участие в конференциях\n•ДМС\n•Гибкое начало рабочего дня \n\nЗадачи:\n•Разработка автоматизированных тестов (web + api), стремимся к 100% покрытию автотестами  (не unit)\n•Участие в развитии тестового framework'а\n•Командная работа с разработчиками и аналитиками (Scrum Dev Team)\n\nРассмотрим кандидатов с опытом в QA automation (Python) от полугода\n\nРезюме можно направить сюда: @Rita_RS \nили на почту: m.sinelnikova@getit.agency","markup":[{"type":"hashtag","offset":0,"length":9,"data":"вакансия"},{"type":"hashtag","offset":10,"length":7,"data":"Москва"},{"type":"hashtag","offset":18,"length":5,"data":"офис"},{"type":"bold","offset":35,"length":23,"data":""},{"type":"bold","offset":133,"length":5,"data":""},{"type":"bold","offset":189,"length":9,"data":""},{"type":"bold","offset":315,"length":8,"data":""},{"type":"bold","offset":565,"length":13,"data":""},{"type":"bold","offset":601,"length":6,"data":""},{"type":"handle","offset":630,"length":8,"data":"Rita_RS"},{"type":"link","offset":654,"length":26,"data":"mailto:m.sinelnikova@getit.agency"}],"date":"2020-06-23T07:13:09+00:00","link":"tg://resolve?domain=qa_jobs&post=98700","tags":[{"name":"qa"},{"name":"python"},{"name":"selenium"},{"name":"web"}],"cities":[{"code":"moscow"}],"allowsRemote":false}},{"node":{"__typename":"Job","id":"103440973824-1001089317451","title":"Qa инженер","text":"#вакансия #qa #middle #fulltime #удаленно\nПривет!\nКомпания: ПИК Digital (https://www.pik.ru/).\nMiddle QA - от 50к и выше (по результатам собеседования) \n\nЗадачи:\n• Участие в интересных проектах по тестированию web и мобильных приложений;\n• Проведение функционального, регрессионного, юзабилити тестирования;\n• Разработка ручных тестовых сценариев и написание тестовой документации;\n• Оценка задач на тестирование;\n• Заведение дефектов и контроль их исправления;\n• Согласование тестовых требований и планов тестирования;\n• Составление отчетов и документации по результатам тестирования;\n• Поддержка автотестов.\n\nТребования:\n• Опыт работы на аналогичной должности от 1 года;\n• Опыт тестирования API;\n• Уверенные знания SQL;\n• Опыт работы с developer tools в браузере;\n• Понимание процессов тестирования и разработки;\n• Понимание принципов работы front и backend приложений;\n• Умение ясно и грамотно формулировать свои мысли;\n• Умение пользоваться устройствами на базе Android и iOS;\n\nБудет плюсом:\n• Опыт разработки автоматизированных тестовых сценариев (Java, Pyton, JavaScript);\n• Умение работать с unix-системами, знание bash-скриптов.\n• Понимание принципов непрерывной интеграции и доставки (CI, CD).\n\nНаши преимущества:\n• Большое внутреннее community разработчиков, аналитиков;\n• Современный стек технологий и техническое оснащение;\n• Минимум бюрократии;\n• Возможности для роста и развития;\n• Обучение и посещение конференций за счет компании.\n\nУсловия:\n• Оформление в соответствии с ТК РФ;\n• После испытательного срока медицинское обслуживание;\n• Официальная заработная плата обсуждается при собеседовании;\n• Премии по итогам года;\n• Гибкое начало рабочего дня;\n• Возможность удаленной работы.\nКонтакты: @alexey_petrunin","markup":[{"type":"hashtag","offset":0,"length":9,"data":"вакансия"},{"type":"hashtag","offset":10,"length":3,"data":"qa"},{"type":"hashtag","offset":14,"length":7,"data":"middle"},{"type":"hashtag","offset":22,"length":9,"data":"fulltime"},{"type":"hashtag","offset":32,"length":9,"data":"удаленно"},{"type":"link","offset":73,"length":19,"data":"https://www.pik.ru/"},{"type":"handle","offset":1708,"length":16,"data":"alexey_petrunin"}],"date":"2020-06-22T12:44:10+00:00","link":"tg://resolve?domain=qa_jobs&post=98649","tags":[{"name":"qa"},{"name":"web"},{"name":"sql"},{"name":"android"},{"name":"ios"},{"name":"java"},{"name":"javascript"},{"name":"unix"},{"name":"bash"}],"cities":[],"allowsRemote":true}},{"node":{"__typename":"Job","id":"17105420288-1001110946746","title":"Js программист","text":"#вакансия #frontend #удаленка #fulltime #js #ts \n\n В финтех стартап YouHodler.com требуется талантливый frontend программист \n\n- 5/2 круглый год, без официальный праздников РФ, но отпуск 6 недель - даты выбираешь сам по договоренности с командой\n- зарплата в $\n- полностью удаленная работа (с коммандировками за счет компании)\n- основное рабочее время с 9:00 до 18:00 CET с понедельника по пятницу\n- несколько раз в год общий слет за счет компании в красивых местах нашей планеты\n\nФормат работы: удаленка\n\nЗанятость: полная\n\nЗарплатная вилка: от 2500 до 3000 USD\n\nОписание вакансии:\nК нам в компанию требует таланливый фронтенд программист для работы над следующей версией app.youhodler.com и https://apps.apple.com/app/id1469351696\nМного интересных и сложных задач задач на любой вкус: от работы с потоком real-time данных до анимирования графиков для работы с 60fps на всех плафмах (web, react-native), оптимизации статического web сайта, настройки pwa и так далее\n\nТребуется:\n- typescript;\n- react;\n- state-management (redux / mobx);\n\nБудет плюсом:\n- react-native;\n- styled-components / styled-system;\n\nhttps://www.youhodler.com/\nКонтакты: @acusticdemon, renat@youhodler.com","markup":[{"type":"hashtag","offset":0,"length":9,"data":"вакансия"},{"type":"hashtag","offset":10,"length":9,"data":"frontend"},{"type":"hashtag","offset":20,"length":9,"data":"удаленка"},{"type":"hashtag","offset":30,"length":9,"data":"fulltime"},{"type":"hashtag","offset":40,"length":3,"data":"js"},{"type":"hashtag","offset":44,"length":3,"data":"ts"},{"type":"link","offset":68,"length":13,"data":"http://YouHodler.com"},{"type":"link","offset":673,"length":17,"data":"http://app.youhodler.com"},{"type":"link","offset":693,"length":39,"data":"https://apps.apple.com/app/id1469351696"},{"type":"link","offset":1106,"length":26,"data":"https://www.youhodler.com/"},{"type":"handle","offset":1143,"length":13,"data":"acusticdemon"},{"type":"link","offset":1158,"length":19,"data":"mailto:renat@youhodler.com"}],"date":"2020-06-22T11:05:05+00:00","link":"tg://resolve?domain=javascript_jobs_feed&post=16313","tags":[{"name":"javascript"},{"name":"web"},{"name":"reactjs"},{"name":"typescript"},{"name":"redux"},{"name":"react-native"}],"cities":[],"allowsRemote":true}},{"node":{"__typename":"Job","id":"103427342336-1001089317451","title":"Qa инженер","text":"#вакансия #работа #СанктПетербург #QA #Manual #Mobile #API #fulltime #офис\nГород: Санкт-Петербург, м. Чкаловская\nФорма работы: офис\nЗанятость: полная\nЗарплатная вилка: от 100 000 net (обсуждается по результатам собеседования).\nВсем привет!\nМы – Cardsmobile, петербургская IT-компания, разработчик мобильного приложения «Кошелёк». \n«Кошелёк» заменяет бумажник и избавляет от необходимости носить с собой пластик: пользователи хранят в нем дисконтные и банковские карты. Чтобы получить скидку, достаточно показать на кассе карту с экрана смартфона, а чтобы оплатить покупку – приложить NFC-смартфон к терминалу оплаты.\nВ связи с расширением функционала приложения и выходом на зарубежные рынки мы усиляем нашу команду и ищем QA инженера с опытом тестирования мобильных и веб продуктов.\n🔹Что нужно будет делать:\n•  тестировать работу «Кошелька» на Android и iOS;\n•  проводить функциональное и регрессионное тестирование клиентской части приложения, функциональное и нагрузочное тестирование серверной;\n•  организовывать процесс тестирования: устанавливать и настраивать тестовое окружение, разрабатывать тестовые сценарии, писать тестовую документацию.\n🔹Ожидаем, что у Вас есть:\n•  опыт тестирования мобильных приложений от 1,5 лет;\n•  понимание принципов клиент-серверного взаимодействия;\n•  навыки работы с базами данных (Postgresql, MongoDB и др.);\n•  навыки работы с инструментами для тестирования серверного API (Postman, SoapUI и т.д.).\n🔹Будет плюсом:\n•  Опыт разработки автотестов для web (Selenium), mobile (Espresso, XCTest) или желание его приобрести.\n🔹Мы предлагаем:\n•  Участие в развитии полезного и популярного приложения, возможность сделать мир лучше;\n•  Оформление по ТК РФ с первого дня работы. ДМС после прохождения испытательного срока;\n•  Оплату мобильной связи, частичную компенсацию питания;\n•  Гибкий график и высокий уровень самостоятельности;\n•  Командные мероприятия и приятные коллеги;\n•  Комфортный офис в центре города (2 минуты от станции метро Чкаловская).\n\nИнформацию о компании можно найти по ссылке: https://spb.hh.ru/employer/2032205\n\nTelegram: katerinaziryukova","markup":[{"type":"hashtag","offset":0,"length":9,"data":"вакансия"},{"type":"hashtag","offset":10,"length":7,"data":"работа"},{"type":"hashtag","offset":18,"length":15,"data":"СанктПетербург"},{"type":"hashtag","offset":34,"length":3,"data":"QA"},{"type":"hashtag","offset":38,"length":7,"data":"Manual"},{"type":"hashtag","offset":46,"length":7,"data":"Mobile"},{"type":"hashtag","offset":54,"length":4,"data":"API"},{"type":"hashtag","offset":59,"length":9,"data":"fulltime"},{"type":"hashtag","offset":69,"length":5,"data":"офис"},{"type":"link","offset":2035,"length":34,"data":"https://spb.hh.ru/employer/2032205"}],"date":"2020-06-22T10:58:58+00:00","link":"tg://resolve?domain=qa_jobs&post=98636","tags":[{"name":"qa"},{"name":"mobile"},{"name":"dotnet"},{"name":"android"},{"name":"ios"},{"name":"postgresql"},{"name":"mongodb"},{"name":"web"},{"name":"selenium"}],"cities":[],"allowsRemote":false}},{"node":{"__typename":"Job","id":"103425245184-1001089317451","title":"Qa engineer","text":"#вакансия #qa #офис #москва\nм.Бауманская, полная занятость\nБелая з/п до 100.000руб. на руки \nQA Engineer / Тестировщик\n\n Мы — команда разработки Level.Travel, сложного продукта в сфере путешествий.  За последние 8 лет мы с нуля создали и продолжаем развивать решение для онлайн-продажи путешествий. Нашу платформу используют лидеры рынка – Тинькофф Банк, OneTwoTrip, Сбербанк, TripAdvisor, Kayak, АК Барс Банк, Евросеть и многие другие. Компания Level.Travel является резидентом Инновационного центра «Сколково».\n\nОбязанности:\n🔸Функциональное тестирование мобильных и web приложений;\n🔸Тестирование API\n🔸Сопровождение задач, мониторинг качества продукта\n🔸Документирование багов\n🔸Проверка кейсов перед релизом, тестирование на промежуточных этапах фиксов и разработки нового функционала\n🔸Оптимизация процесса тестирования внутри команды\n🔸Разработка тест-планов, тест-кейсов\n🔸Тесное общение с командой разработчиков\n🔸Прием обращений от коллег\n🔸Cоставление отчета о тестировании\n\nОт Вас:\n🔸Опыт работы от 2х лет!\n🔸Общительность, активность умение работать в команде\n🔸Представление о теории тестирования и жизненном цикле ПО\n🔸Умение описать баг, опыт работы с трекерами задач\n🔸Опыт разработки тест-планов, тест-кейсов\n🔸Базовые знания html, сss, regexp\n🔸Понимание как работает протокол http\n🔸Умение работать с перехватчиками трафика\n🔸Опыт работы с developer tools в браузере\n🔸Умение расставлять приоритеты задач\n\n\nОт нас: белая зп, официальное трудоустройство, больничные, отпуска. Скидки на изучение английского языка, техника MacBook Pro. Регулярная обратная связь и аттестации. Геймификация процессов и несколько раз в год релокейты поработать в другую страну. Клевый молодой коллектив, интересные ивенты, насыщенная корпоративная жизнь. Пинг-понг, бильярд, кальян и другие развлечения в офисе. Скидки на путешествия)\n\nСвязь по почте: vos@level.travel\nИли тут @Alyask_a","markup":[{"type":"hashtag","offset":0,"length":9,"data":"вакансия"},{"type":"hashtag","offset":10,"length":3,"data":"qa"},{"type":"hashtag","offset":14,"length":5,"data":"офис"},{"type":"hashtag","offset":20,"length":7,"data":"москва"},{"type":"bold","offset":59,"length":32,"data":""},{"type":"bold","offset":93,"length":25,"data":""},{"type":"bold","offset":121,"length":76,"data":""},{"type":"bold","offset":515,"length":12,"data":""},{"type":"bold","offset":987,"length":7,"data":""},{"type":"bold","offset":1428,"length":7,"data":""},{"type":"bold","offset":1836,"length":32,"data":""},{"type":"link","offset":1852,"length":16,"data":"mailto:vos@level.travel"},{"type":"bold","offset":1869,"length":17,"data":""},{"type":"handle","offset":1877,"length":9,"data":"Alyask_a"}],"date":"2020-06-22T10:30:36+00:00","link":"tg://resolve?domain=qa_jobs&post=98634","tags":[{"name":"qa"},{"name":"web"},{"name":"html"}],"cities":[{"code":"moscow"}],"allowsRemote":false}},{"node":{"__typename":"Job","id":"1715470336-1001091028994","title":"Java разработчик","text":"#middle #удаленка #Java #Spring #senior #backend #developer\nЛокация: Cанкт-Петербург\nЗанятость: полная, гибкое начало дня\n*до окончания пандемии работа удаленная, далее работа в офисе\nЗ/п: 130 – 200 k net.\nКомпания: CSI\nКонтакты: @Danny_Ushakova\nМы продуктовая компания CSI, создающая решения для автоматизации торговых сетей.  \nМы ищем крутых разработчиков, ответственных за собственный код, любящих тесты и понимающих важность unit тестов. Разработчиков, которые с радостью забывают про бюрократию, и разделение труда, которые умеют защищать собственные решения и хотят сделать этот мир лучше!  \nJAVA developer (высоконагруженные сервисы лояльности)  \nКлючевой задачей будет разработка нового и доработка нашего продукта -  существующего функционала системы Set Retail 10. \nСтек:\n• Java от 2 лет.\n• Spring (Web, Data, Cloud), Kafka.\n• Опыт разработки микросервисов.\n• Опыт проектирования базы данных.\n• SQL (желательно PostgreSQL), JDBC, Hibernate.\n• Git, Gradle.\nБудет плюсом:\n• Опыт работы с J2EE (EJB3, JAX-WS, JAXB, JPA2).\n• Знание Linux.\n• Опыт работы с Redis, MongoDB, Docker, Hashicorp Nomad, Ansible.\n\nМы предлагаем:\n• возможность каждый день видеть результаты своей работы;\n• официальное оформление, белая зарплата, отпуск согласно ТК РФ;\n• гибкий график работы (с 11 до 17 - время присутствия в офисе), есть возможность работать из дома (при необходимости);\n• ДМС со стоматологией, 100% оплата больничных;\n• курсы английского языка в офисе;\n• посещение тренингов, конференций;\n• работа по Agile в команде высокопрофессиональных разработчиков;\n• возможности профессионального роста, четкая схема повышения зарплаты;\n• работа в современном и комфортном офисе в центре города (Чкаловcкий пр-т);\n• оборудованные столовые, чай, кофе, фрукты, печеньки и PlayStation;\n• командные тимбилдинги, футбольная команда.","markup":[{"type":"hashtag","offset":0,"length":7,"data":"middle"},{"type":"hashtag","offset":8,"length":9,"data":"удаленка"},{"type":"hashtag","offset":18,"length":5,"data":"Java"},{"type":"hashtag","offset":24,"length":7,"data":"Spring"},{"type":"hashtag","offset":32,"length":7,"data":"senior"},{"type":"hashtag","offset":40,"length":8,"data":"backend"},{"type":"hashtag","offset":49,"length":10,"data":"developer"},{"type":"handle","offset":230,"length":15,"data":"Danny_Ushakova"}],"date":"2020-06-22T09:26:18+00:00","link":"tg://resolve?domain=jvmjobs&post=1636","tags":[{"name":"java"},{"name":"jvm"},{"name":"spring"},{"name":"dotnet"},{"name":"web"},{"name":"cloud"},{"name":"kafka"},{"name":"sql"},{"name":"postgresql"},{"name":"jdbc"},{"name":"hibernate"},{"name":"git"},{"name":"gradle"},{"name":"jaxb"},{"name":"jpa"},{"name":"linux"},{"name":"redis"},{"name":"mongodb"},{"name":"docker"},{"name":"ansible"}],"cities":[],"allowsRemote":true}},{"node":{"__typename":"Job","id":"350224384-1001352129329","title":"Golang разработчик","text":"Ребят, всем привет! \nПостараюсь кратко, подробности в ЛС, заранее напишу, что это Москва (Фултайм в офис), компания Lofty. Ищем в команду как Midle так и один Senior нужен.\nВообщем если хочется в highload, добро пожаловать!)\n\nО проекте:\nЭто высоконагруженное backend приложение для рассылки web push-уведомлений, обслуживающее на данный момент более 100млн показов в сутки. \nЧем у нас предстоит заниматься:\nПрофилировать и оптимизировать существующие сервисы;\nПроводить доработки и интеграцию их в действующий код и инфраструктуру;\nРеализовывать новые бизнес-требования внутри сервиса;\nУстранять возникающие баги в сервисе.\n\nЧто мы ждем от кандидата:\nНавыки работы с Git;\nУверенное знание Golang;\nПонимание технологий HTTP, REST;\nОпыт работы в Unix-окружении.\n\nБудет совсем круто, если вы:\nРаботали с highload-проектами;\nПонимаете и уважаете концепцию CI/CD.\nНаш стек технологий: Golang, Gitlab, MySQL, JS, RabbitMQ, Docker, Ansible, Clickhouse\n\nУсловия: \nЗаработная плата от 130 000 до 300 000 руб. на руки, естественно зависит от уровня, преимущественно смотрим \"мидов\", но и \"джуны\" нам тоже интересны.\n\n#вакансия#golang","markup":[],"date":"2020-06-22T08:15:13+00:00","link":"tg://resolve?domain=gogetajobfeed&post=334","tags":[{"name":"go"},{"name":"web"},{"name":"git"},{"name":"rest"},{"name":"unix"},{"name":"gitlab"},{"name":"mysql"},{"name":"rabbitmq"},{"name":"docker"},{"name":"ansible"}],"cities":[{"code":"moscow"}],"allowsRemote":false}},{"node":{"__typename":"Job","id":"103396933632-1001089317451","title":"Qa инженер","text":"🐞🐞🐞#вакансия #QA #Ульяновск #Саранск #Казань #Самара #Уфа #Краснодар #офис #удаленная_работа\n\n🔍Middle QA-специалист🔎\n\n⚡️Компания: Simbirsoft (более 19 лет на рынке, более 700 сотрудников в штате)\n\nОчень ждем тебя, наш будущий коллега и борец за качественное ПО! :)\n\n📌Твои будущие задачи:\n• тестирование ПО (frontend, backend, API);\n• локализация и документирование найденных дефектов;\n• ведение и оптимизация тестовой документации;\n• контроль качества на всех этапах разработки ПО;\n• выстраивание и оптимизация процессов тестирования ПО.\n\n📌Что мы ждем от тебя:\n• наличие опыта от 2 лет в направлениях QA или тестирования ПО;\n• понимание разницы между QA и тестированием ПО;\n• понимание особенностей гибких методологий;\n• уверенное владение техниками тест-дизайна;\n• знание клиент-серверной архитектуры;\n• понимание особенностей тестирования web, mobile и desktop приложений;\n• навык тестирования API;\n• написание запросов SQL;\n• опыт работы с системами контроля версий (git);\n• знание основных команд работы с консолью (Windows/Linux).\n\n📌Что мы предлагаем:\n• Полностью белая ЗП два раза в месяц;\n• Оформление по ТК РФ;\n• Высокий уровень экспертности внутри компании, которым мы делимся друг с другом;\n• Перспективы вертикального и горизонтального роста;\n• Работа на российских и международных проектах;\n• Оборудованное рабочее место и парк тестовых устройств;\n• Возможность сертификации за счет компании;\n• Внутренние и внешние курсы, доклады, конференции;\n• Бесплатные чай, кофе, печеньки в офисе;\n• Корпоративная спортивная программа (оплата тематических секций, частичная компенсация абонемента);\n• Проведение летних и зимних корпоративов, дня именинника, совместные походы и т.д.\n\n📌Зарплата:\n• от 50 000 (Договорная, по итогу собеседования)\n\n☎️Контакты:\n@julia_kli","markup":[{"type":"hashtag","offset":6,"length":9,"data":"вакансия"},{"type":"hashtag","offset":16,"length":3,"data":"QA"},{"type":"hashtag","offset":20,"length":10,"data":"Ульяновск"},{"type":"hashtag","offset":31,"length":8,"data":"Саранск"},{"type":"hashtag","offset":40,"length":7,"data":"Казань"},{"type":"hashtag","offset":48,"length":7,"data":"Самара"},{"type":"hashtag","offset":56,"length":4,"data":"Уфа"},{"type":"hashtag","offset":61,"length":10,"data":"Краснодар"},{"type":"hashtag","offset":72,"length":5,"data":"офис"},{"type":"hashtag","offset":78,"length":17,"data":"удаленная_работа"},{"type":"handle","offset":1767,"length":10,"data":"julia_kli"}],"date":"2020-06-22T07:56:46+00:00","link":"tg://resolve?domain=qa_jobs&post=98607","tags":[{"name":"qa"},{"name":"web"},{"name":"mobile"},{"name":"sql"},{"name":"git"},{"name":"windows"},{"name":"linux"}],"cities":[{"code":"ulyanovsk"},{"code":"saransk"},{"code":"kazan"},{"code":"samara"},{"code":"ufa"},{"code":"krasnodar"}],"allowsRemote":true}},{"node":{"__typename":"Job","id":"1714421760-1001091028994","title":"Java разработчик","text":"#java#Junior#Java#developer#telecom\nЛокация: Москва, Нижний Новгород, Россия\nЗанятость: офис, полная, удаленная\nЗ/п: от 100 000 рублей на руки\nКомпания: ГК INTECH\n\nКонтакты: @vkechatova\n\nINTECH – IT компания, контент и сервис провайдер на рынке телекома России и стран СНГ, разработчик инновационных идей для мобильной и WEB индустрии. Мы работаем с операторами сотовой связи не только в России, но и в странах СНГ и Вьетнаме.\n\nПримеры наших проектов:\nПроект «Глаголь» - Платформа создания и управления высоко нагружёнными видео конференциями с мобильными приложениями.\nCashback - Сервис Сахар;\nОблачная АТС - Решение облачной телефонии для корпоративных клиентов;\nСтриминговая платформа - Видео, аудио стриминговые решения для работы с ТВ трансляциями;\nВидео Истории - Платформа для видеозвонков и для проигрывания пользовательских и коммерческих видео роликов на экране мобильного телефона во время вызова.\n\nЗадачи:\n•  Разработка голосовых и SMS/USSD сервисов для сотовых операторов;\n•  Сопровождение существующие продуктов и разработка новых.\n\nДля работы потребуется:\n•  Опыт разработки от 1 года;\n•  Уверенное знание Java Core, Multithreading, Collections;\n•  Уверенные навыки работы с реляционными базами данных;\n•  Опыт работы с JPA, Hibernate\n•  Опыт работы с Spring (MVC, Data)\n•  Опыт работы с ОС Linux;\n•  Опыт работы с системой контроля версий;\n•  Навыки работы с JUnit - приветствуются.\n\nПлюсом будет:\n•  Опыт работы в телеком (SIP, SS7).\n\nМы предлагаем:\n•  Официальное трудоустройство, полностью официальная заработная плата;\n•  Белая заработная плата - полностью зависит от квалификации кандидата и обсуждается на интервью;\n•  Возможность карьерного и профессионального роста;\n•  Возможность предлагать и реализовывать собственные идеи;\n•  Работа в профессиональной команде разработчиков;\n•  Обучение в процессе работы;\nА также:\n•  Гибкая мотивационная программа;\n•  Ежемесячные премии;\n•  Ежегодные корпоративные мероприятия.","markup":[{"type":"handle","offset":174,"length":11,"data":"vkechatova"}],"date":"2020-06-22T06:35:58+00:00","link":"tg://resolve?domain=jvmjobs&post=1635","tags":[{"name":"java"},{"name":"jvm"},{"name":"web"},{"name":"jpa"},{"name":"hibernate"},{"name":"spring"},{"name":"linux"},{"name":"junit"},{"name":"spring-mvc"}],"cities":[{"code":"moscow"},{"code":"nizhny-novgorod"}],"allowsRemote":true}}]}}},"context":{}}