{"hash":"f5f6bf98bd95e769321482904cbbd488f77922fd","data":{"records":{"id":"qa","name":"qa","belongsTo":{"totalCount":208,"pageInfo":{"totalPages":21,"currentPage":2},"edges":[{"node":{"__typename":"Job","id":"104309194752-1001089317451","title":"Qa инженер","text":"#moscow #москва #вакансия\n\nИщем QA инженера в британский стартап с российскими корнями copper.co. \n\nНам нужен человек, которому до всего будет дело :)\n\nВилка - от 1500 до 2200 usd\n\nЗадачи:\n — создание и поддержка функциональных и регрессионных тестов на JS на новый и существующий код.\n — проведение ручного тестирование web, мобильных и desktop приложений\n \n — контроль задачи на каждом этапе производственного цикла\n — релиз менеджмент: сбор и анализ требований, контроль качества реализации, управление процессом CI/CD\n — организация и поддержка процессов тестирования\n — поддержка account managers по техническим вопросам\n\nНеобходимые навыки:\n — опыт ручного тестирования web приложений\n — опыт автоматизированного тестирования\n — понимание процесса разработки\n — умение читать код\n — уметь пользоваться логами\n\nБудет плюсом:\n — разговорный и письменный английский \n — базовые навыки и желание развиваться в построении серверной инфраструктуры\n — опыт промышленной разработки\n\nО проекте:\n — Сервисно-ориентированная архитектура (SOA)\n — Backend на Scala/Java, фронтенд: ReactJS, нативные мобильные приложения, desktop на ElectronJS\n — AWS, CI/CD\n — Блокчейн, криптовалюты, финансовые инструменты\n\nПлюшки:\nВозможны командировки, совместные выезды с командой в Европу (мы , конечно, верим в то, что границы будут открыты :));\nДМС – депозит в клинике Медси;\nВ такое непростое время платим зарплату в $$;\nЛамповый офис с кухней в лофте на Тульской;\nНаш стартап – двухлетний продакшн, который имеет выручку от клиентов.\n\n Пишите в ЛС :)","markup":[{"type":"hashtag","offset":0,"length":7,"data":"moscow"},{"type":"hashtag","offset":8,"length":7,"data":"москва"},{"type":"hashtag","offset":16,"length":9,"data":"вакансия"},{"type":"link","offset":87,"length":9,"data":"http://copper.co"}],"date":"2020-07-02T21:43:14+00:00","link":"tg://resolve?domain=qa_jobs&post=99477","tags":[{"name":"qa"},{"name":"web"},{"name":"scala"},{"name":"java"},{"name":"reactjs"},{"name":"amazon-web-services"}],"cities":[{"code":"moscow"}],"allowsRemote":false}},{"node":{"__typename":"Job","id":"104273543168-1001089317451","title":"Qa engineer","text":"#вакансия #QA #manual #fulltime #remote #офис\n\nФормат работы: офис или удаленно\nРасположение: Санкт-Петербург \nЗанятость: полная, гибкое начало дня\nЗП: до 200k gross\n\n🔹 Компания OCS Labs более 25 лет на рынке IT и является ведущим дистрибьютером по всем продуктовым направлениям IT рынка. \nРегиональная сеть офисов OCS включает 27 городов в России, компания работает с более чем 8500 партнеров, среди которых 500 продуктовых линеек от ведущих мировых вендеров. \n\n🔸Сейчас команда находится в поиске Senior Manual QA Engineer, который будет готов в дальнейшем вырасти в teamlead’a, и в перспективе возглавить направление тестирования в R&D отделе.\nНа текущий момент в команде уже есть 1 ручной тестировщик и 1 автотестировщик (python).\nПредстоит заниматься тестированием сервиса взаимодествия вендоров; \n\n🔹  Требования:\n— Опыт тестирования Web от 2 лет;\n— Умение оценивать и распределять задачи в команде;\n— Опыт менторства/руководства командой;\n— Опыт тестирования API;\n\nБольшим плюсом будет:\n— Понимание b2b сервисов;\n— Навыки автотестирования, будет возможность расти и развиваться в этом направлении; \n\n🔹  Условия:\n— Официальное трудоустройство, белая заработная плата;\n— Комфортный офис на Б.Сампсониевском (Петербург), также для московских специалистов есть возможность работать в московском офисе: Румянцево, офисный парк «Комсити» или удаленно; \n— Техника предоставляется в соответствии с пожеланиями специалиста;\n— Внутреннее обучение;\n— Годовая дотация;\n— Дружественная рабочая среда с возможностью карьерного и профессионального роста;\n\n🔹 Контакты:\ne-mail: maria@luckyhunter.io\ntelegram: @Maria_Rey","markup":[{"type":"hashtag","offset":0,"length":9,"data":"вакансия"},{"type":"hashtag","offset":10,"length":3,"data":"QA"},{"type":"hashtag","offset":14,"length":7,"data":"manual"},{"type":"hashtag","offset":22,"length":9,"data":"fulltime"},{"type":"hashtag","offset":32,"length":7,"data":"remote"},{"type":"hashtag","offset":40,"length":5,"data":"офис"},{"type":"bold","offset":500,"length":6,"data":""},{"type":"bold","offset":507,"length":18,"data":""},{"type":"bold","offset":570,"length":10,"data":""},{"type":"link","offset":1571,"length":20,"data":"mailto:maria@luckyhunter.io"},{"type":"handle","offset":1602,"length":10,"data":"Maria_Rey"}],"date":"2020-07-02T14:59:51+00:00","link":"tg://resolve?domain=qa_jobs&post=99443","tags":[{"name":"qa"},{"name":"python"},{"name":"web"}],"cities":[],"allowsRemote":true}},{"node":{"__typename":"Job","id":"104269348864-1001089317451","title":"Qa инженер","text":"#вакансияQAМосква#\nМы компания \"Мобильные Медицинские Технологии\": разработчик сервисов Онлайн Доктор, Педиатр 24/7 и Мой Доктор.\nМы ищем ответственного и активного сотрудника на позицию Тестировщик в городе Москва и области\n\nНаш основной продукт (сервис телемедицинских консультаций) и большая экосистема вокруг него - это 90% вашей работы.\nПочему мы?\n • мы реально меняем медицину в России прямо сейчас\n • у нас сильная, дружная и открытая команда разработки\n • высокие темпы попадания в продакшн\n • минимум бюрократии\nОбязанности:\n • Анализ и тестирование ПО и оборудования;\n • Разработка сценариев тестирования;\n • Составление документации (руководство пользователя, руководство по эксплуатации и ремонту);\n • Обнаружение, документирование и отслеживание дефектов;\n • Участие в проработке задач;\n • Взаимодействие с группой эксплуатации и разработчиками.\n • Проведение функционального и регрессионного тестирования;\n • Поиск ошибок, сбоев, возникающих при использовании ПО;\n • Требования:\n • Высшее техническое образование\n • Опыт ручного тестирования, работы с системами отслеживания ошибок, написания документации\n • Знание основных видов тестирования ПО;\n • Иметь практический опыт работы с СУБД на уровне написания простых запросов.\n • Усидчивость, ответственность, умение найти неочевидныег тесткейсы\n • Условия:\n • Официальное оформление по ТК РФ\n • Полный рабочий день \n • Удаленная работа присутствие в офисе несколько раз в месяц территориально город Москва)\n • Корпоративные занятия спортом\n • Обучение, участие в конференциях по желанию\n • Бесплатные телемедицинские консультации\n\n-- \nЛукахина Татьяна\nHR менеджер\nМобильные Медицинские Технологии\nhr@pediatr247.ru","markup":[{"type":"bold","offset":0,"length":129,"data":""},{"type":"bold","offset":187,"length":38,"data":""},{"type":"bold","offset":342,"length":10,"data":""},{"type":"bold","offset":521,"length":12,"data":""},{"type":"bold","offset":978,"length":14,"data":""},{"type":"bold","offset":1310,"length":11,"data":""},{"type":"link","offset":1662,"length":16,"data":"mailto:hr@pediatr247.ru"}],"date":"2020-07-02T14:42:54+00:00","link":"tg://resolve?domain=qa_jobs&post=99439","tags":[{"name":"qa"}],"cities":[{"code":"moscow"}],"allowsRemote":false}},{"node":{"__typename":"Job","id":"104259911680-1001089317451","title":"Qa инженер","text":"#вакансия #москва #fulltime #middle #automation\n\n🏢Город: Москва, м. Ленинский проспект\n💻Формат: Офис\n💰З/п: до 180k на руки\n\n✌️Ищем тестировщика в команду сопровождения и развития облачной платформы собственной разработки на базе open source продуктов.\n«Лоялти энд Медиа Групп»- это современная облачная платформа - продуктовый маркетплейс и процессинг лояльности одновременно, заточенная под обработку больших массивов данных и создание продуктов и сервисов карточной лояльности для банков и мерчантов. Компания выступает как enabler и для тех, и для других, для чего реализовано большое количество интеграций с партнерами и клиентами, несколько white-label вебприложений для клиентов и набор API для онлайн-взаимодействия с приложениями клиентов и партнёров. Стратегический партнёр ЛМГ – Visa International.  \n\n📌Задачи: \n • Вам предстоит построить процесс тестирования в компании, фактически с нуля. \n • Участие в разработке правил и стандартов тестирования, поддержание высокого уровня культуры тестирования. \n • Создание и поддержка автоматизированных тестов\n • Ведение проекта – постоянная готовность предоставить полный и ясный отчет о состоянии проекта, анализ рисков, своевременное реагирование на проблемы. \n • Координация взаимодействия с другими участниками команды. \n • Выполнение всех работ, связанных с тестированием — сбор и анализ требований, разработка тестовой документации всех уровней, планирование, выдача оценок, подготовка тестовых сред и тестовых окружений, проведение циклов тестирования. \n  \n📌Требования: \n • Ясное понимание проектного подхода к работе, знакомство с различными методологиями управления проектами. \n • Опыт работы в тестировании от 2х лет. \n • Опыт использования ЯП в автоматизации тестирования  \n • Уверенные знания теории тестирования. \n • Умение составлять тестовую документацию всех уровней. \n • Английский язык на уровне чтения и написания технической документации. \n • Самостоятельность, высокий уровень личной дисциплины \n  \n📌Желательно: \n • Опыт работы с БД (PostgreSQL, PGBouncer, Redis, ElasticSearch, OpenLDAP) \n • Знание техник тестдизайна \n  \n📌Мы предлагаем: \n • Дружную команду и рабочую атмосферу с хорошим балансом творчества и задач. \n • Гибкий график. Возможна удаленная работа из дома по договоренности с командой. \n • Оплачиваемый отпуск и больничный. По предварительной договоренности у вас могут быть выходные дни для особых случаев. \n • Растущий коллектив – на данный момент около 20 человек, из которых половина – разработчики, devops и аналитики. \n • Адекватное руководство. \n • Полное отсутствие бюрократии. \n • Достойный уровень зарплаты. \n • Перспективы профессионального и карьерного роста. Мы убеждены, что компания должна инвестировать в развитие своих сотрудников и поэтому приветствуем посещение конференций, митапов, профессиональные курсы (некоторые из них возможно организовать за счет компании). \n • Офис в Москве, 7 минут от м. «Ленинский Проспект».\n\n✉️Почта: mkoneva@youhired.ru \n❗️Telegram: @nunquam2008\n📞 Телефон: +79210614118","markup":[{"type":"hashtag","offset":0,"length":9,"data":"вакансия"},{"type":"hashtag","offset":10,"length":7,"data":"москва"},{"type":"hashtag","offset":18,"length":9,"data":"fulltime"},{"type":"hashtag","offset":28,"length":7,"data":"middle"},{"type":"hashtag","offset":36,"length":11,"data":"automation"},{"type":"link","offset":2946,"length":19,"data":"mailto:mkoneva@youhired.ru"},{"type":"handle","offset":2979,"length":12,"data":"nunquam2008"},{"type":"link","offset":3004,"length":12,"data":"tel:+79210614118"}],"date":"2020-07-02T14:03:01+00:00","link":"tg://resolve?domain=qa_jobs&post=99430","tags":[{"name":"qa"},{"name":"postgresql"},{"name":"redis"},{"name":"elasticsearch"}],"cities":[{"code":"moscow"}],"allowsRemote":true}},{"node":{"__typename":"Job","id":"104252571648-1001089317451","title":"Qa инженер","text":"#вакансия #тестировщик #удаленно #нагрузочноетестирование\n\nПриглашаем специалистов в наше новое подразделение по тестированию ПО – IBS AppLine. До ноября 2019 это была компания «Аплана» – лидер российского рынка услуг по тестированию программного обеспечения.\n\nЧто мы ожидаем от инженера по нагрузочному тестированию:\n• опыт нагрузочного тестирования от 1 года;\n• навыки работы с инструментами Jmeter или LoadRunner;\n\nМы предлагаем:\n🔹заработная плата от 90 000 Net и выше;\n🔹возможность получить опыт на больших проектах в различных сферах (банки/ритейл/телеком);\n🔹профессиональный рост в IT-компании – у нас есть внутреннее обучение, корпоративная база знаний и сертификация;\n🔹коллектив из специалистов, которые всегда готовы помочь;\n🔹 медицинское страхование сотрудника и его детей (ДМС).\n\n✉️ Контакты: opankina@ibs.ru @pankina_hr","markup":[{"type":"hashtag","offset":0,"length":9,"data":"вакансия"},{"type":"hashtag","offset":10,"length":12,"data":"тестировщик"},{"type":"hashtag","offset":23,"length":9,"data":"удаленно"},{"type":"hashtag","offset":33,"length":24,"data":"нагрузочноетестирование"},{"type":"link","offset":809,"length":15,"data":"mailto:opankina@ibs.ru"},{"type":"handle","offset":825,"length":11,"data":"pankina_hr"}],"date":"2020-07-02T13:54:58+00:00","link":"tg://resolve?domain=qa_jobs&post=99423","tags":[{"name":"qa"},{"name":"jmeter"},{"name":"dotnet"}],"cities":[],"allowsRemote":true}},{"node":{"__typename":"Job","id":"104246280192-1001089317451","title":"Qa engineer","text":"#вакансия #qa #QAEngineer #спб #санктпетербург #fulltime \n\nPosition: Manual QA Engineer\nLocation: Saint Petersvurg\nSalary: ₽60 - 90k net\nOffice: Saint Petersburg\nCompany: Bekitzur \n\nResponsibilities:\n🔹Maintain QA process on iOS platform to fit fast pace and highest quality needs of a mature San Francisco-based mobile business;\n🔹Collaborate closely with other team members including US-based founders, managers and developers on a daily basis, work with the client representatives to prepare tasks and bugs for development team, clarify requirements with customers directly;\n🔹Maintain JIRA and up-to-date documentation in Confluence, Testrail and Figma;\n🔹Create and execute test cases and suites to ensure that the product specification is met for both iOS and Android platforms;\n🔹Analyze test results at the story or feature level and provide meaningful reports to the project and product team.\n\nRequired Skills and Experience:\n🔹3+ years experience with QA of mobile applications (iOS is preferred) and API testing;\n🔹Understanding of requirement elicitation and functional spec writing;\n🔹Excellent communication skills: upper-Intermediate English speaking skills to communicate by email and on conference calls;\n🔹Deep knowledge of testing theory\n\nNice to have:\n🔹Mobile or social network product QA experience;\n🔹Strong practical knowledge of Agile product development methodologies\n\nBenefits:\n🔹Friendly atmosphere\n🔹Competitive salary\n🔹Medical insurance, sport, English classes\n🔹Professional growth in the international business environment\n\nContact: @macarthur64","markup":[{"type":"hashtag","offset":0,"length":9,"data":"вакансия"},{"type":"hashtag","offset":10,"length":3,"data":"qa"},{"type":"hashtag","offset":14,"length":11,"data":"QAEngineer"},{"type":"hashtag","offset":26,"length":4,"data":"спб"},{"type":"hashtag","offset":31,"length":15,"data":"санктпетербург"},{"type":"hashtag","offset":47,"length":9,"data":"fulltime"},{"type":"bold","offset":59,"length":8,"data":""},{"type":"link","offset":69,"length":19,"data":"https://bekitzur.com/job/st-petersburg-qa-engineer/"},{"type":"bold","offset":88,"length":8,"data":""},{"type":"bold","offset":115,"length":6,"data":""},{"type":"bold","offset":137,"length":6,"data":""},{"type":"bold","offset":162,"length":7,"data":""},{"type":"link","offset":171,"length":8,"data":"https://bekitzur.com/"},{"type":"bold","offset":182,"length":18,"data":""},{"type":"bold","offset":903,"length":32,"data":""},{"type":"bold","offset":1258,"length":14,"data":""},{"type":"bold","offset":1395,"length":10,"data":""},{"type":"bold","offset":1557,"length":8,"data":""},{"type":"handle","offset":1566,"length":12,"data":"macarthur64"}],"date":"2020-07-02T13:44:26+00:00","link":"tg://resolve?domain=qa_jobs&post=99417","tags":[{"name":"qa"},{"name":"dotnet"},{"name":"ios"},{"name":"mobile"},{"name":"android"}],"cities":[{"code":"nice"},{"code":"san-francisco"}],"allowsRemote":false}},{"node":{"__typename":"Job","id":"104226357248-1001089317451","title":"Qa инженер","text":"#вакансия #офис #москва\nКомпания: Комеджик, наши бренды  CoMagic  и UIS\nЛокация: м. Нахимовский пр-т, БЦ \"Лотос\"\nФормат работы: полная занятость, офис (до сентября удаленка)\nЗп: белая, от 115000 рублей на руки\nКто нужен: Тестировшик ПО\nКонтакты: @Nadin_Asteria\n\nВ нашей компании два основных направления, построенные на базе IP телефонии, собственно сама IP телефония и все сопутствующие ей продукты и сервис сквозной аналитики и коллтрекинга. Также мы являемся оператором связи. \nВакансия тестировщик открыта в команде, занимающейся разработкой и поддержкой ВАТС (виртуальная АТС)\n\nФронт работ:\n\n- тестирование продуктов компании, а именно ВАТС -виртуальной телефонии (работа с тест-комплектами):\nAPI;\nличный кабинет клиента.\n\n- пока ручное тестирование(90 %) и переход на автотестирование.\n\n- написание тест-кейсов и планов тестирования.\n\n- обнаружение, документирование и отслеживание дефектов.\n\n- проведение нагрузочного и интеграционного тестирования продуктов компании.\n\n- развитие и поддержка тестовой инфраструктуры.\n\n- разработка и поддержка автотестов.\n\nЧто ждем от тебя:\n\n- опыт тестирования продуктовых решений от 3х лет.\n\n- наличие базовых знаний SQL.\n\n- опыт написания тест-кейсов по спецификациям и без.\n\n- опыт тестирования API.\n\n- знание Unix/Linux-based операционных систем (bash/ssh/ps/grep и т.п.).\n\nЧто мы можем предложить тебе:\n\n- график работы 5/2 (возможно гибкое начала рабочего дня).\n\n- команду сообразительных, открытых, стремящихся к развитию единомышленников, работающих по Scrum\n\n- оформление согласно ТК РФ.\n\n - плюшки из Кафетерия льгот: фитнес, профессиональные курсы и литература, ДМС, иностранные языки, доп. оборудование рабочего места, больничный без больничного.\n\n - ежегодное ревью по улучшениям твоей работы.","markup":[{"type":"hashtag","offset":0,"length":9,"data":"вакансия"},{"type":"hashtag","offset":10,"length":5,"data":"офис"},{"type":"hashtag","offset":16,"length":7,"data":"москва"},{"type":"link","offset":56,"length":8,"data":"https://www.comagic.ru/"},{"type":"link","offset":68,"length":4,"data":"https://www.uiscom.ru/"},{"type":"bold","offset":174,"length":62,"data":""},{"type":"handle","offset":246,"length":14,"data":"Nadin_Asteria"},{"type":"bold","offset":490,"length":11,"data":""},{"type":"bold","offset":583,"length":14,"data":""},{"type":"bold","offset":1064,"length":16,"data":""},{"type":"bold","offset":1320,"length":31,"data":""}],"date":"2020-07-02T13:36:01+00:00","link":"tg://resolve?domain=qa_jobs&post=99398","tags":[{"name":"qa"},{"name":"sql"},{"name":"unix"},{"name":"linux"},{"name":"bash"},{"name":"ssh"},{"name":"grep"}],"cities":[{"code":"moscow"}],"allowsRemote":true}},{"node":{"__typename":"Job","id":"104223211520-1001089317451","title":"Qa инженер","text":"#вакансия#QAAutomation#тестировщик #атоматизация #Тюмень #офис \n\n🏢Компания: Creative\n🏙Город: Тюмень, ул. Малыгина, 84/1\n💰Зп: от 85к (обсуждается по результатам собеседования)\n\nФормат работы: офис \nЗанятость: полная\nМы занимаемся веб и мобильной разработкой: помогаем нашим клиентам эффективно инвестировать деньги в цифровую среду и стремимся стать лидерами на российском рынке.\nСейчас у нас в работе флагманский проект с крупнейшим банком TOP-5 в России по разработке сервиса для поиска и заказа услуг самозанятых. Мы активно формируем команду разработчиков на долгосрочный проект.\n\nЗадачи: \n✔️ Написание и поддержка behat-тестов на API продукта (backend), \n✔️Написание и поддержка Java+Selenium-тестов на интерфейсную часть продукта (frontend). \n\nТребования:\n ✔️Знание behat фреймворка тестирования и умение его применять\n✔️ Знания в PHP на уровне, достаточном для поддержания behat-сценариев - написание бэкдоров\n✔️Знания в Java на уровне, достаточном для написания сценариев тестирования на связка Java+Selenium\n\nУсловия:\n✔️Конкурентная заработная плата;\n✔️работаем с 10:00 до 19:00. График индивидуально корректируемый. Иногда можно работать из дома. Обед можно смещать.\n✔️возможность пробовать новый стек;\n✔️пятничные встречи с интересными ребятами, английский прямо в офисе, поездки на конференции, обучение друг друга внутри компании;\n✔️современный офис в центре города;\n✔️программа релокации по переезду в г. Тюмень\nПодробнее о компании здесь https://crtweb.ru/career\n📲Контакты: m.zinoveva@rabota.ru или в лс (в телеге)","markup":[{"type":"hashtag","offset":35,"length":13,"data":"атоматизация"},{"type":"hashtag","offset":49,"length":7,"data":"Тюмень"},{"type":"hashtag","offset":57,"length":5,"data":"офис"},{"type":"link","offset":1455,"length":24,"data":"https://crtweb.ru/career"},{"type":"link","offset":1492,"length":20,"data":"mailto:m.zinoveva@rabota.ru"}],"date":"2020-07-02T13:15:47+00:00","link":"tg://resolve?domain=qa_jobs&post=99395","tags":[{"name":"qa"},{"name":"java"},{"name":"selenium"},{"name":"php"}],"cities":[{"code":"tyumen"}],"allowsRemote":false}},{"node":{"__typename":"Job","id":"104219017216-1001089317451","title":"Qa инженер","text":"#вакансия #спб #job #fulltime #saintpetersburg #office #QA #mobileqa  #manual #Android #iOS\n\nQA\n\nКомпания: e-Legion\nСанкт-Петербург, м. Старая деревня\nФормат работы: офис (гибкое начало дня) \nЗанятость: полная\nЗарплатная вилка: от 70 тыс. руб.\n\nПривет! Ищем в команду тестировщика мобильных приложений. Ты будешь влиять на качество продукта крупных компаний. QA участвует во всех этапах создания продукта: от анализа требований до публикации в стор. Мы взаимодействуем со всеми отделами: от продаж до разработки. \n\nЧем будем заниматься:\n-тестировать мобильные приложения на платформах iOS и Android,\nна части проектов еще тестируем WEB\n-проводить тест-анализ и писать тестовую документацию\n-анализировать и тестировать требования\n-оформлять задачи в трекере Redmine или Jira\n\nНеобходимые навыки:\n-опыт тестирования мобильных приложений\n-знание техник тест–дизайна и умение их применять\n-умение работать с сетевыми снифферами — Fiddler, Charles\n-умение снимать и анализировать логи\n-знание гайдлайнов iOS и Android\n\nМы предлагаем:\n-гибкий график работы\n-офис в 7 минутах ходьбы от м. Старая Деревня\n-компенсацию спорта, обучения и медицины\n-обучение и систему наставничества, которые помогут быстро расти и получать новые грейды\n-возможность писать статьи для отраслевых медиа и выступать на конференциях и митапах\n\nСсылка на вакансию: https://www.e-legion.ru/vacancies/spb/qa/\nОтклики, резюме, вопросы пишите:\n@AlexandraShirokina или на почту hr@e-legion.com","markup":[{"type":"hashtag","offset":0,"length":9,"data":"вакансия"},{"type":"hashtag","offset":10,"length":4,"data":"спб"},{"type":"hashtag","offset":15,"length":4,"data":"job"},{"type":"hashtag","offset":20,"length":9,"data":"fulltime"},{"type":"hashtag","offset":30,"length":16,"data":"saintpetersburg"},{"type":"hashtag","offset":47,"length":7,"data":"office"},{"type":"hashtag","offset":55,"length":3,"data":"QA"},{"type":"hashtag","offset":59,"length":9,"data":"mobileqa"},{"type":"hashtag","offset":70,"length":7,"data":"manual"},{"type":"hashtag","offset":78,"length":8,"data":"Android"},{"type":"hashtag","offset":87,"length":4,"data":"iOS"},{"type":"link","offset":1335,"length":41,"data":"https://www.e-legion.ru/vacancies/spb/qa/"},{"type":"handle","offset":1410,"length":19,"data":"AlexandraShirokina"},{"type":"link","offset":1443,"length":15,"data":"mailto:hr@e-legion.com"}],"date":"2020-07-02T12:46:57+00:00","link":"tg://resolve?domain=qa_jobs&post=99391","tags":[{"name":"qa"},{"name":"android"},{"name":"ios"},{"name":"web"}],"cities":[],"allowsRemote":false}},{"node":{"__typename":"Job","id":"104216920064-1001089317451","title":"Qa engineer","text":"#вакансия #Ульяновск #QA #fulltime #офис #manual #relocate\n\n🔸 manual QA engineer \n🔸 Ульяновск, офис, remote не рассматриваем (но пока удаленно из-за covid)\n🔸 Dualboot Partners (NC, USA)\n🔸 от $1000\n\nОт вас:\n\n- нужно очень хорошо тестировать web- и mobile-приложения, API, нужны уверенные скиллы в этом\n- эрудиция в web-технологиях\n- опыт работы с различными инструментами для тестирования\n- умение работать самостоятельно и ответственно\n- вся документация и общение с клиентом на английском, соответственно, уровень хотя бы базовый необходим\n- есть проекты, покрываемые автотестами, поэтому умение их разрабатывать может быть плюсом и пригодиться в будущем\n\nОт нас:\n\n- ноль лишней бюрократии\n- з/п в $ официально\n- уроки английского от компании\n- MacBook Pro для работы (через 1 год работы он переходит во владение сотруднику)\n- очень крутой офис-коттедж в центре города (да, Ульяновск) с кучей вкусностей и прочими радостями\n- команда - молодые, разносторонние и очень скилловые люди\n- гибкий график и вообще всевозможные свободы, не мешающие эффективно работать\n- помощь при переезде в Ульяновск\n\nБуду рада ответить на любые вопросы,  @alina_fatkhutdinova","markup":[{"type":"hashtag","offset":0,"length":9,"data":"вакансия"},{"type":"hashtag","offset":10,"length":10,"data":"Ульяновск"},{"type":"hashtag","offset":21,"length":3,"data":"QA"},{"type":"hashtag","offset":25,"length":9,"data":"fulltime"},{"type":"hashtag","offset":35,"length":5,"data":"офис"},{"type":"hashtag","offset":41,"length":7,"data":"manual"},{"type":"hashtag","offset":49,"length":9,"data":"relocate"},{"type":"handle","offset":1140,"length":20,"data":"alina_fatkhutdinova"}],"date":"2020-07-02T12:12:53+00:00","link":"tg://resolve?domain=qa_jobs&post=99389","tags":[{"name":"qa"},{"name":"web"},{"name":"mobile"}],"cities":[{"code":"ulyanovsk"}],"allowsRemote":true}}]}}},"context":{}}