{"hash":"f5f6bf98bd95e769321482904cbbd488f77922fd","data":{"records":{"id":"mvvm","name":"mvvm","belongsTo":{"totalCount":54,"pageInfo":{"totalPages":6,"currentPage":3},"edges":[{"node":{"__typename":"Job","id":"72083308544-1001054966032","title":"Ios разработчик","text":"#вакансия #удаленно #ios #swift #fulltime #remote\n\nКомпания Hoodies \nЗанятость #fulltime #remote\nВилка 150т-180т₽\n\nНужен iOS-разработчик на благотворительный проект по профилактике домашнего насилия Silsila\n\nТвои профессиональные знания могут оказать  поддержку и спасти жизни людей. \n\nТребования\n✅ Опыт от 3 лет коммерческой разработки на Swift.\n✅ Опыт создания кастомных элементов и анимаций. Понимание, что такое микро-анимации и где их использовать.\n✅ Знание и понимание архитектуры MVVM.\n✅ Опыт работы с Dependency Injection.\n✅ Опыт работы с RxSwift.\n✅ Опыт рефакторинга и разделения проекта на модули.\n✅ Опыт написания интеграционных и Unit-тестов.\n\nВ компании присутствует программа повышения квалификации и карьерного роста\n\nПо вакансии гибкий график - вы сами выбираете когда работать, а когда отдыхать\n\nБудем рады рассказать более подробно и ответить на все вопросы😉\nПишите @Maxim_Franshteyn","markup":[{"type":"hashtag","offset":0,"length":9,"data":"вакансия"},{"type":"hashtag","offset":10,"length":9,"data":"удаленно"},{"type":"hashtag","offset":20,"length":4,"data":"ios"},{"type":"hashtag","offset":25,"length":6,"data":"swift"},{"type":"hashtag","offset":32,"length":9,"data":"fulltime"},{"type":"hashtag","offset":42,"length":7,"data":"remote"},{"type":"hashtag","offset":79,"length":9,"data":"fulltime"},{"type":"hashtag","offset":89,"length":7,"data":"remote"},{"type":"bold","offset":114,"length":23,"data":""},{"type":"link","offset":199,"length":7,"data":"http://silsila.ru/"},{"type":"bold","offset":285,"length":12,"data":""},{"type":"code","offset":297,"length":1,"data":""},{"type":"bold","offset":812,"length":66,"data":""},{"type":"handle","offset":885,"length":17,"data":"Maxim_Franshteyn"}],"date":"2020-06-26T10:33:09+00:00","link":"tg://resolve?domain=mobile_jobs&post=68744","tags":[{"name":"mobile"},{"name":"ios"},{"name":"swift"},{"name":"mvvm"}],"cities":[],"allowsRemote":true}},{"node":{"__typename":"Job","id":"72068628480-1001054966032","title":"Android разработчик","text":"#вакансия #москва #офис #ios #senior\n\nгород: Москва\nформат работы: офис\nзанятость: полная\nзарплатная вилка: 150-200\nвакансия: Ищу iOS-разработчика не ниже middle+, готового возглавить развитие  и поддержку приложения.\n\nо компании: Электронное издательство «Юрайт» Мы работаем со всеми вузами страны и считаем своей главной целью повышение образовательного уровня в России.\nwww.urait.ru\n\nо проекте: Над проектом работает 20 человек. Приложение заказывали на стороне в 2019 г. Теперь решили собрать свою команду для рефакторинга и выведения на новый уровень.\n\n🧑🏻‍💻Чем будешь заниматься:\n✔️Доработка текущего мобильного приложения компании под iOS/Android;\n✔️Интеграция с внешними сервисами;\n✔️Взаимодействовать с командой (аналитики, тестировщики);\n✔️Участие в проектной деятельности.\n\n\nЧто хотят видеть в тебе:\n • Имеешь успешный опыт разработки и поддержки iOS-приложений\n • Любишь iOS SDK, Xcode, Objective-C и Swift\n • Трогал архитектуру MVP или MVVM\n • Имеешь успешный опыт разработки клиент-серверных приложений (REST, JSON)\n • Владеешь паттернами UI\n • Знаешь, зачем нужен Git\n • Можешь писать тесты\n\nНемного о печеньках:\nОфис с плюшками в 5 минутах от м. Шоссе Энтузиастов, Мск\nГибкое начало дня: для жаворонков с 8, сова может начать в 11 =)\nВсе по ТК РФ + соц.пакет \nАдекватные коллеги и руководство, интересные таски, много позитива :)\n\n\nЗаинтересовало?\nНапиши:)\nМарьяна @reanimawka\n+79151474789","markup":[{"type":"hashtag","offset":0,"length":9,"data":"вакансия"},{"type":"hashtag","offset":10,"length":7,"data":"москва"},{"type":"hashtag","offset":18,"length":5,"data":"офис"},{"type":"hashtag","offset":24,"length":4,"data":"ios"},{"type":"hashtag","offset":29,"length":7,"data":"senior"},{"type":"bold","offset":231,"length":32,"data":""},{"type":"bold","offset":276,"length":22,"data":""},{"type":"bold","offset":329,"length":42,"data":""},{"type":"link","offset":373,"length":12,"data":"http://www.urait.ru"},{"type":"bold","offset":558,"length":29,"data":""},{"type":"bold","offset":788,"length":24,"data":""},{"type":"code","offset":813,"length":3,"data":""},{"type":"code","offset":875,"length":3,"data":""},{"type":"code","offset":921,"length":3,"data":""},{"type":"code","offset":956,"length":3,"data":""},{"type":"code","offset":1032,"length":3,"data":""},{"type":"code","offset":1058,"length":3,"data":""},{"type":"code","offset":1085,"length":3,"data":""},{"type":"bold","offset":1109,"length":20,"data":""},{"type":"handle","offset":1383,"length":11,"data":"reanimawka"},{"type":"link","offset":1395,"length":12,"data":"tel:+79151474789"}],"date":"2020-06-26T08:08:19+00:00","link":"tg://resolve?domain=mobile_jobs&post=68730","tags":[{"name":"mobile"},{"name":"android"},{"name":"ios"},{"name":"xcode"},{"name":"objective-c"},{"name":"swift"},{"name":"mvvm"},{"name":"rest"},{"name":"json"},{"name":"git"}],"cities":[{"code":"moscow"}],"allowsRemote":false}},{"node":{"__typename":"Job","id":"71998373888-1001054966032","title":"Ios developer","text":"#вакансия #спб #ios #middle #senior #spb #офис #IoT #умныйдом \nMiddle/Senior iOS developer \nReady for Sky 🚀 \nhttps://readyforsky.com/ru/career/ \n📍 полный день, удаленно/офис (сейчас вся компания работает удаленно) \nМы ищем iOS developer, который будет разрабатывать приложение, использующее данные с IoT-устройств для предоставления пользователям нужных товаров и услуг \n💡 Используем: Swift, Objective-C; Jenkins; GraphQL; RxSwift; MVC, MVVM и Viper \nВ команде: разрабатываем новый функционал приложения, внутренние фреймворки (Private pods), фреймворки для общего доступа; пишем Unit тесты; принимаем участие в создании протоколов работы с умными устройствами; Refactoring и Code-review. \nПредлагаем: \nРаботу в профессиональной команде (team lead, senior, middle), более 300 000 активных пользователей приложения. \nПолностью белую ЗП от 130 до 250 тыс. руб. на руки \nПосле исп.срока корпоративный английский \n📬 Пиши: @Rupeka_Natali","markup":[{"type":"hashtag","offset":0,"length":9,"data":"вакансия"},{"type":"hashtag","offset":10,"length":4,"data":"спб"},{"type":"hashtag","offset":15,"length":4,"data":"ios"},{"type":"hashtag","offset":20,"length":7,"data":"middle"},{"type":"hashtag","offset":28,"length":7,"data":"senior"},{"type":"hashtag","offset":36,"length":4,"data":"spb"},{"type":"hashtag","offset":41,"length":5,"data":"офис"},{"type":"hashtag","offset":47,"length":4,"data":"IoT"},{"type":"hashtag","offset":52,"length":9,"data":"умныйдом"},{"type":"bold","offset":63,"length":27,"data":""},{"type":"bold","offset":92,"length":13,"data":""},{"type":"link","offset":110,"length":34,"data":"https://readyforsky.com/ru/career/"},{"type":"bold","offset":225,"length":13,"data":""},{"type":"bold","offset":376,"length":11,"data":""},{"type":"bold","offset":454,"length":10,"data":""},{"type":"bold","offset":693,"length":11,"data":""},{"type":"bold","offset":916,"length":5,"data":""},{"type":"handle","offset":922,"length":14,"data":"Rupeka_Natali"}],"date":"2020-06-25T10:01:03+00:00","link":"tg://resolve?domain=mobile_jobs&post=68663","tags":[{"name":"mobile"},{"name":"ios"},{"name":"swift"},{"name":"objective-c"},{"name":"jenkins"},{"name":"graphql"},{"name":"mvvm"}],"cities":[],"allowsRemote":true}},{"node":{"__typename":"Job","id":"71987888128-1001054966032","title":"Ios разработчик","text":"#вакансия #IOS разработчик #ObjectiveC\n\nРабота в офисе или УД\nЗП от 120 000 до 240 000 руб. на руки\nг. Москва\n\nМы ищем коллегу iOS-разработчика в команду, основными задачами которой является разработка приложений для ведущих операторов сотовой связи, компаний в сфере финансов и телекоммуникаций. \n \nДолжностные обязанности: \n∙ Разработка и поддержка новых приложений;\n∙ Поддержка имеющихся приложений;\n∙ Создание библиотек;\n∙ Верстка по макетам с нарезкой. \n \nНеобходимые навыки: \n∙ Опыт работы от 2-х лет;\n∙ Наличие законченных проектов; \n∙ Уверенное знание iOS SDK 7+;\n∙ Опыт разработки кастомных UI; \n∙ Опыт работы с анимацией;\n∙ Опыт работы с push-нотификациями, сетью, базами данных, структурами данных;\n∙ Опыт работы с Git;\n∙ Хорошее знание ООП и паттернов проектирования;\n∙ Умение разбираться в чужом коде. \n \nБудет плюсом: \n∙ Опыт работы с другими языками программирования;\n∙ Опыт работы с MVVM;\n∙ Опыт публикации приложений в App Store;\n∙ Знание классических алгоритмов и структур данных. \n \nМы предлагаем: \n∙ Достойную заработную плату;\n∙ График работы понедельник-пятница 9.00-18.00;\n∙ Дружный коллектив, творческая самостоятельность в работе.\n\nКомпания ИММО – VAS-интегратор, ведущий поставщик сервисов для операторов связи. \nМы сотрудничаем с более чем 60 операторами сотовой связи в 14 странах.\nМы разрабатываем, внедряем и развиваем высокотехнологичные сервисы «под ключ».\nНаши партнеры – операторы мобильной и фиксированной связи, производители мобильных и сетевых устройств нового поколения, ведущие социальные сети, поставщики и производители технологических VAS-решений, Правообладатели (Universal, Sony, Warner, EMI, Disney).\n\ntel: +7(985)896-83-99\nhr@immo.ru","markup":[{"type":"hashtag","offset":0,"length":9,"data":"вакансия"},{"type":"hashtag","offset":10,"length":4,"data":"IOS"},{"type":"hashtag","offset":27,"length":11,"data":"ObjectiveC"},{"type":"link","offset":1653,"length":16,"data":"tel:+7(985)896-83-99"},{"type":"link","offset":1670,"length":10,"data":"mailto:hr@immo.ru"}],"date":"2020-06-25T08:06:29+00:00","link":"tg://resolve?domain=mobile_jobs&post=68653","tags":[{"name":"mobile"},{"name":"ios"},{"name":"git"},{"name":"mvvm"}],"cities":[{"code":"moscow"}],"allowsRemote":false}},{"node":{"__typename":"Job","id":"71893516288-1001054966032","title":"Android разработчик","text":"#вакансия #Москва #fulltime #android \nКомпания: Trinity Monsters\nПозиция: Android разработчик\nЛокация: Россия, Москва, офис в самом центре, у метро Охотный Ряд\nЗанятость: полная \n\nЗП: от 150.000 до 250.000 руб. на руки\n\nОт вас мы ждём:\n\n- отличные знания Kotlin\n- опыт работы с git\n- понимание принципов ООП\n- понимание принципы проектирования SOLID\n-MVP/MVVM, Clean Architecture; понимание DI;\n- умение расставлять приоритеты и эффективно планировать рабочее время\n\nПочему мы:\n⁃ гибкий график\n⁃ отлаженный менеджмент\n⁃ большие проекты \n⁃ работа с разнообразными интересными и амбициозными проектами\n⁃ сложные технические задачи, возможность развития и роста\n⁃ просторный комфортный офис в 2-х минутах от метро Охотный ряд с кухней, чаем, кофе и т.д.\n⁃ возможность влиять на продукт и вносить свои идеи\n⁃ оформление по ТК РФ\n\nДля связи @vicemik","markup":[{"type":"hashtag","offset":0,"length":9,"data":"вакансия"},{"type":"hashtag","offset":10,"length":7,"data":"Москва"},{"type":"hashtag","offset":18,"length":9,"data":"fulltime"},{"type":"hashtag","offset":28,"length":8,"data":"android"},{"type":"handle","offset":836,"length":8,"data":"vicemik"}],"date":"2020-06-23T16:29:03+00:00","link":"tg://resolve?domain=mobile_jobs&post=68563","tags":[{"name":"mobile"},{"name":"android"},{"name":"kotlin"},{"name":"git"},{"name":"mvvm"}],"cities":[{"code":"moscow"}],"allowsRemote":false}},{"node":{"__typename":"Job","id":"71887224832-1001054966032","title":"Ios developer","text":"#вакансия #спб #ios #middle #senior #spb #офис #IoT #умныйдом \nMiddle/Senior iOS developer \nReady for Sky 🚀 \nhttps://readyforsky.com/ru/career/ \n📍 полный день, удаленно/офис (сейчас вся компания работает удаленно) \nМы ищем iOS developer, который будет разрабатывать приложение, использующее данные с IoT-устройств для предоставления пользователям нужных товаров и услуг \n💡 Используем: Swift, Objective-C; Jenkins; GraphQL; RxSwift; MVC, MVVM и Viper \nВ команде: разрабатываем новый функционал приложения, внутренние фреймворки (Private pods), фреймворки для общего доступа; пишем Unit тесты; принимаем участие в создании протоколов работы с умными устройствами; Refactoring и Code-review. \nПредлагаем: \nРаботу в профессиональной команде (team lead, senior, middle), более 300 000 активных пользователей приложения. \nПолностью белую ЗП от 130 до 250 тыс. руб. на руки \nПосле исп.срока корпоративный английский \n📬 Пиши: @Rupeka_Natali","markup":[{"type":"hashtag","offset":0,"length":9,"data":"вакансия"},{"type":"hashtag","offset":10,"length":4,"data":"спб"},{"type":"hashtag","offset":15,"length":4,"data":"ios"},{"type":"hashtag","offset":20,"length":7,"data":"middle"},{"type":"hashtag","offset":28,"length":7,"data":"senior"},{"type":"hashtag","offset":36,"length":4,"data":"spb"},{"type":"hashtag","offset":41,"length":5,"data":"офис"},{"type":"hashtag","offset":47,"length":4,"data":"IoT"},{"type":"hashtag","offset":52,"length":9,"data":"умныйдом"},{"type":"bold","offset":63,"length":27,"data":""},{"type":"bold","offset":92,"length":13,"data":""},{"type":"link","offset":110,"length":34,"data":"https://readyforsky.com/ru/career/"},{"type":"bold","offset":225,"length":13,"data":""},{"type":"bold","offset":376,"length":11,"data":""},{"type":"bold","offset":454,"length":10,"data":""},{"type":"bold","offset":693,"length":11,"data":""},{"type":"bold","offset":916,"length":5,"data":""},{"type":"handle","offset":922,"length":14,"data":"Rupeka_Natali"}],"date":"2020-06-23T16:01:18+00:00","link":"tg://resolve?domain=mobile_jobs&post=68557","tags":[{"name":"mobile"},{"name":"ios"},{"name":"swift"},{"name":"objective-c"},{"name":"jenkins"},{"name":"graphql"},{"name":"mvvm"}],"cities":[],"allowsRemote":true}},{"node":{"__typename":"Job","id":"71877787648-1001054966032","title":"Ios разработчик","text":"#вакансия #IOS разработчик #ObjectiveC\n\nРабота в офисе или УД\nЗП от 120 000 до 240 000 руб. на руки\nг. Москва\n\nМы ищем коллегу iOS-разработчика в команду, основными задачами которой является разработка приложений для ведущих операторов сотовой связи, компаний в сфере финансов и телекоммуникаций. \n \nДолжностные обязанности: \n∙ Разработка и поддержка новых приложений;\n∙ Поддержка имеющихся приложений;\n∙ Создание библиотек;\n∙ Верстка по макетам с нарезкой. \n \nНеобходимые навыки: \n∙ Опыт работы от 2-х лет;\n∙ Наличие законченных проектов; \n∙ Уверенное знание iOS SDK 7+;\n∙ Опыт разработки кастомных UI; \n∙ Опыт работы с анимацией;\n∙ Опыт работы с push-нотификациями, сетью, базами данных, структурами данных;\n∙ Опыт работы с Git;\n∙ Хорошее знание ООП и паттернов проектирования;\n∙ Умение разбираться в чужом коде. \n \nБудет плюсом: \n∙ Опыт работы с другими языками программирования;\n∙ Опыт работы с MVVM;\n∙ Опыт публикации приложений в App Store;\n∙ Знание классических алгоритмов и структур данных. \n \nМы предлагаем: \n∙ Достойную заработную плату;\n∙ График работы понедельник-пятница 9.00-18.00;\n∙ Дружный коллектив, творческая самостоятельность в работе.\n\nКомпания ИММО – VAS-интегратор, ведущий поставщик сервисов для операторов связи. \nМы сотрудничаем с более чем 60 операторами сотовой связи в 14 странах.\nМы разрабатываем, внедряем и развиваем высокотехнологичные сервисы «под ключ».\nНаши партнеры – операторы мобильной и фиксированной связи, производители мобильных и сетевых устройств нового поколения, ведущие социальные сети, поставщики и производители технологических VAS-решений, Правообладатели (Universal, Sony, Warner, EMI, Disney).\n\ntel: +7(985)896-83-99\nhr@immo.ru","markup":[{"type":"hashtag","offset":0,"length":9,"data":"вакансия"},{"type":"hashtag","offset":10,"length":4,"data":"IOS"},{"type":"hashtag","offset":27,"length":11,"data":"ObjectiveC"},{"type":"link","offset":1653,"length":16,"data":"tel:+7(985)896-83-99"},{"type":"link","offset":1670,"length":10,"data":"mailto:hr@immo.ru"}],"date":"2020-06-23T14:08:24+00:00","link":"tg://resolve?domain=mobile_jobs&post=68548","tags":[{"name":"mobile"},{"name":"ios"},{"name":"git"},{"name":"mvvm"}],"cities":[{"code":"moscow"}],"allowsRemote":false}},{"node":{"__typename":"Job","id":"71875690496-1001054966032","title":"Ios разработчик","text":"❗️Вакансия IOS разработчик❗️\n#вакансия     #IOS   #офис\n\nГород: Санкт-Петербург\nФормат работы: офис\nЗанятость: полная\n💰ЗП: от 180 до 210\nКомпания: ООО Липтсофт\n\nОбязанности:\n✔️Разработка нативных iOS приложений (МБ для физ.лиц)\n✔️Обсуждение функционала и требований с разработчиками, дизайнерами, менеджерами проектов\n\nОпыт и навыки:\n- Swift от 1 года коммерческой разработки\n- REST, TCP, HTTPS(handshake, certificate, MITM understanding)\n- IB, Autolayout, Верстка из кода, SwiftUI + Combine\n- MVC, MVVM\n- ООП, SOLID, Design Patterns.\n- Multithreading (GCD, NSOperationQueue)\n- Git\n\nНаше предложение:\n✅белая заработная плата, премии и индексации;\n✅ДМС (включая стоматологию)\n✅компенсация занятий спортом;\n✅корпоративный английский в офисе;\n✅оплата курсов и участия в конференциях;\n✅гибкое начало рабочего дня с 9.00 до 11.00;\n✅комфортный офис в БЦ \"Санкт-Петербург Плаза\", м. Новочеркасская\";\n✅отсутствие дресс-кода;\n✅теннисный стол, снеки в офисе\n\nРезюме и любые вопросы присылайте @e_zharova или на почту e.zharova@lipt-soft.ru","markup":[{"type":"hashtag","offset":29,"length":9,"data":"вакансия"},{"type":"hashtag","offset":43,"length":4,"data":"IOS"},{"type":"hashtag","offset":50,"length":5,"data":"офис"},{"type":"handle","offset":984,"length":10,"data":"e_zharova"},{"type":"link","offset":1008,"length":22,"data":"mailto:e.zharova@lipt-soft.ru"}],"date":"2020-06-23T13:29:40+00:00","link":"tg://resolve?domain=mobile_jobs&post=68546","tags":[{"name":"mobile"},{"name":"ios"},{"name":"swift"},{"name":"rest"},{"name":"mvvm"},{"name":"git"}],"cities":[],"allowsRemote":false}},{"node":{"__typename":"Job","id":"71846330368-1001054966032","title":"Android разработчик","text":"#вакансия #Android #Kotlin #spb #спб #офис\n\nГород и адрес: Санкт-Петербург, м.Площадь Ленина \nФормат работы: офис \nЗанятость: полная \nЗарплатная вилка: от 140 до 220 т.р. в месяц \nAndroid developer\n\nВсем привет! Мы — международная IT компания Noveo. Наши главные офисы разработки ПО находятся в Новосибирске и Санкт-Петербурге, представительства — в Париже и на Кипре. \n\nМы занимаемся заказными разработками софта для крупных европейских компаний. И сейчас мы рады пригласить в команду Android-разработчика для работы над проектом нашего зарубежного партнера.\n\nЭто файловый менеджер, который работает с определёнными жесткими дисками. Проект написан на ~90% на Kotlin. Стек проекта: di, Retrofit, RxJava, Room, MVVM.\n\n✅Ожидания от кандидата:\nОпыт разработки коммерческих проектов на Android\nХорошие знание Kotlin, Android SDK, RxJava2, Room, Toothpick/Dagger2, MVP/MVVM + Clean Architecture\nТехнический английский язык (Pre-Intermediate и выше)\n\nДополнительным плюсом будет: \nУмение писать unit тесты\nЗнания SQLite\nОбщее представление о JNI\nОпыт работы с чужим кодом\nMaterial Design guidelines\n\n☕️ Что мы предлагаем: \nДостойный уровень зарплаты и ее пересмотр по результатам performance review\nОфициальное трудоустройство, оплачиваемый отпуск и больничные\nГибкий график, с возможностью работать из дома\nКомфортабельный офис рядом со ст. м. Площадь Ленина (БЦ Петровский форт)\nВнутреннее обучение, митапы, code-review и прокачка твоих технических навыков\nМощный комп для работы + любое количество мониторов по запросу)\nКурсы английского и французского языков в офисе\nИ другие приятные бонусы (чай/кофе/печеньки, оборудованная офисная кухня, кикер, PS и др.)\n\n📩 Жду твоего резюме, если его нет - пиши, все обсудим!\n\nНазвание компании: #Noveo \nКонтакты: Анастасия @stasya_sot","markup":[{"type":"hashtag","offset":0,"length":9,"data":"вакансия"},{"type":"hashtag","offset":10,"length":8,"data":"Android"},{"type":"hashtag","offset":19,"length":7,"data":"Kotlin"},{"type":"hashtag","offset":27,"length":4,"data":"spb"},{"type":"hashtag","offset":32,"length":4,"data":"спб"},{"type":"hashtag","offset":37,"length":5,"data":"офис"},{"type":"bold","offset":180,"length":19,"data":""},{"type":"bold","offset":486,"length":20,"data":""},{"type":"hashtag","offset":1734,"length":6,"data":"Noveo"},{"type":"handle","offset":1762,"length":11,"data":"stasya_sot"}],"date":"2020-06-23T09:04:29+00:00","link":"tg://resolve?domain=mobile_jobs&post=68518","tags":[{"name":"mobile"},{"name":"android"},{"name":"kotlin"},{"name":"mvvm"},{"name":"sqlite"}],"cities":[],"allowsRemote":false}},{"node":{"__typename":"Job","id":"71840038912-1001054966032","title":"Android разработчик","text":"#вакансия #android #java #kotlin #офис #москва\nм.Бауманская, полная занятость\nБелая з/п 150.000 - 200.000 руб. на руки\nAndroid developer\n\n\nМы — команда разработки Level.Travel, сложного продукта в сфере путешествий. За последние 8 лет мы с нуля создали и продолжаем развивать решение для онлайн-продажи путешествий. Нашу платформу используют лидеры рынка – Тинькофф Банк, OneTwoTrip, Сбербанк, TripAdvisor, Kayak, АК Барс Банк, Евросеть и многие другие. Компания Level.Travel является резидентом Инновационного центра «Сколково».\n\n\nОбязанности:\n🔸Разработка приложения со сложным UI в команде разработчиков\n🔸Построение архитектуры\n🔸Реализация клиент-серверного взаимодействия\n🔸Написание тестов\n\nОт Вас:\n🔸От 2-х лет в разработке на Android\n🔸Знание Java/Kotlin на уровне ведущего разработчика\n🔸Знание архитектурных паттернов (MVVM / Clean Architecture), ООП\n🔸Знания цикла работы приложения, управления памятью\n🔸Опыт работы или понимание RxJava, RxAndroid, Retrofit, Dagger2, Android Data Binding\n🔸Понимание Android Architecture Components будет плюсом\n🔸CI / CD\n🔸Все тонкости работы с клиент-серверной архитектурой\n🔸Умение отлаживать приложение, профилирование кода\n\nОт нас: белая зп, официальное трудоустройство, больничные, отпуска. Скидки на изучение английского языка, техника MacBook Pro. Регулярная обратная связь и аттестации. Геймификация процессов и несколько раз в год релокейты поработать в другую страну. Клевый молодой коллектив, интересные ивенты, насыщенная корпоративная жизнь. Пинг-понг, бильярд, кальян и другие развлечения в офисе. Скидки на путешествия)\n\nСвязь по почте : vos@level.travel\nИли тут @Alyask_a","markup":[{"type":"hashtag","offset":0,"length":9,"data":"вакансия"},{"type":"hashtag","offset":10,"length":8,"data":"android"},{"type":"hashtag","offset":19,"length":5,"data":"java"},{"type":"hashtag","offset":25,"length":7,"data":"kotlin"},{"type":"hashtag","offset":33,"length":5,"data":"офис"},{"type":"hashtag","offset":39,"length":7,"data":"москва"},{"type":"bold","offset":78,"length":40,"data":""},{"type":"bold","offset":119,"length":17,"data":""},{"type":"bold","offset":139,"length":76,"data":""},{"type":"bold","offset":533,"length":12,"data":""},{"type":"bold","offset":699,"length":7,"data":""},{"type":"bold","offset":1177,"length":7,"data":""},{"type":"bold","offset":1585,"length":33,"data":""},{"type":"link","offset":1602,"length":16,"data":"mailto:vos@level.travel"},{"type":"bold","offset":1619,"length":17,"data":""},{"type":"handle","offset":1627,"length":9,"data":"Alyask_a"}],"date":"2020-06-23T08:15:27+00:00","link":"tg://resolve?domain=mobile_jobs&post=68512","tags":[{"name":"mobile"},{"name":"android"},{"name":"java"},{"name":"kotlin"},{"name":"mvvm"}],"cities":[{"code":"moscow"}],"allowsRemote":false}}]}}},"context":{}}