{"hash":"f5f6bf98bd95e769321482904cbbd488f77922fd","data":{"records":{"id":"linux","name":"linux","belongsTo":{"totalCount":109,"pageInfo":{"totalPages":11,"currentPage":10},"edges":[{"node":{"__typename":"Job","id":"90991230976-1001067529236","title":"Python developer","text":"#вакансия #remote #fulltime #python\n\nBack-end Python Developer\n\nФормат работы: #fulltime #remote\nЗарплата: от  $ 50 000 до $ 70 000  в год\n\nКоманда с большим опытом в компьютерном зрении и экспертами мирового уровня ищет в свои ряды Backend Python Developer. Стартап, создающий продукт для домашней безопасности, привлек $6,9 млн инвестиций. Продукт и его основатели базируются в Калифорнии, а почти вся команда — в России и Украине.\n\nЗадачи :\n• Оптимизация и улучшение качества алгоритмов трекинга людей;\n• Доработка основного кода клиентской стороны;\n• Разработка механизмов обновления клиентских приложений (Linux\\Docker);\n• Разработка системы сбора и разметки данных;\n• Доработка инфраструктурных сервисов и системы оценки качества.\n\nТребования:\n• Опыт промышленной работы от двух лет;\n• Опыт разработки оптимизационных алгоритмов разного назначения;\n• Опыт работы с AWS, Google Cloud, Azure, Docker.\n• Знание Python и\\или С++ и\\или Java;\n• Знание сетевых протоколов, их вариаций и особенностей;\n• Умение работать с многопоточной средой, понимание принципов работы сопрограмм;\n• Умение создавать сервера, способные выдерживать большие нагрузки.\n\nБудет плюсом:\n• Веб каркас Tornado, знания протокола HTTP;\n• Базы данных MongoDB, Redis, Aerospike, Cassandra;\n• Опыт работы с распределенной инфраструктурой;\n• Опыт использования нейронных сетей на TensorFlow / Keras / Caffe;\n• Понимание принципов работы различных архитектур нейронных сетей, знание алгоритмов машинного обучения.\n\nЧтобы откликнуться, необходимо пройти короткий отбор по ссылке https://6nomads.com/","markup":[{"type":"hashtag","offset":0,"length":9,"data":"вакансия"},{"type":"hashtag","offset":10,"length":7,"data":"remote"},{"type":"hashtag","offset":18,"length":9,"data":"fulltime"},{"type":"hashtag","offset":28,"length":7,"data":"python"},{"type":"hashtag","offset":79,"length":9,"data":"fulltime"},{"type":"hashtag","offset":89,"length":7,"data":"remote"},{"type":"link","offset":1546,"length":20,"data":"https://6nomads.com/"}],"date":"2020-06-15T18:27:28+00:00","link":"tg://resolve?domain=python_jobs&post=0","tags":[{"name":"python"},{"name":"linux"},{"name":"docker"},{"name":"amazon-web-services"},{"name":"cloud"},{"name":"azure"},{"name":"java"},{"name":"mongodb"},{"name":"redis"},{"name":"cassandra"},{"name":"tensorflow"},{"name":"google-cloud-platform"}],"cities":[],"allowsRemote":true}},{"node":{"__typename":"Job","id":"102892568576-1001089317451","title":"Qa инженер","text":"#вакансия #fulltime #офис #Москва #DRTest #Kubernetes #senior #DevOps #TS\n\nКомпания: Техносерв https://technoserv.com/ \nВакансия: Senior QA DevOps\nДля работы на проектах в крупном банке (T&M)\nЗП: 100 000 - 220 000\nГрафик работы: фултайм, 10:00-19:00 (по договоренности)\nМесто работы: офис, г. Москва\n\nЗадачи:\n· Построение/тестирование CI/CD pipelines;\n· Администрирование/тестирование скриптов развертывания Kubernetes кластеров;\n· Консультирование заинтересованных лиц по сопровождению и эксплуатации ПО в части DR тестирования;\n· Изучение и последующее тестирование новых инструментов.\n\nТребования:\n∙ Опыт построения процесса конечной интеграции и мониторинга, управления сетями (настройка машин, виртуализация, безопасность);\n∙ Опыт работы с Kubernetes;\n∙ Опыт администрирования Linux серверов (Centos,RHEL)\n∙ Хорошее знание инструментов DevOps (Docker, Jenkins/TeamCity, Ansible/Salt/Puppet/Chef), понимание принципов DevSecOps;\n∙ Опыт настройки и администрирования веб-серверов (Apache, Nginx, JBoss/WildFly, Glassfish);\n∙ Опыт настройки и администрирования систем мониторинга (Zabbix, Prometheus, Grafana, Nagios);\n∙ Хорошее знание Git;\n∙ Знание shell/bash;\n∙ Опыт работы с ELK Stack (или готовность самостоятельно быстро изучить его на практике);\n∙ Умение доходчиво донести информацию как представителям бизнеса, так и IT-специалистам.\n\nПриветствуется:\n∙ Опыт построения pipelines в TeamCity;\n∙ Знание одного из языков программирования (Python, JS, golang);\n∙ Опыт работы со стеком Atlassian (Jira, Confluence);\n∙ Опыт работы с Redis, RabbitMQ, Elasticsearch, Kafka.\n\nРезюме сюда: QAResume@technoserv.com","markup":[{"type":"hashtag","offset":0,"length":9,"data":"вакансия"},{"type":"hashtag","offset":10,"length":9,"data":"fulltime"},{"type":"hashtag","offset":20,"length":5,"data":"офис"},{"type":"hashtag","offset":26,"length":7,"data":"Москва"},{"type":"hashtag","offset":34,"length":7,"data":"DRTest"},{"type":"hashtag","offset":42,"length":11,"data":"Kubernetes"},{"type":"hashtag","offset":54,"length":7,"data":"senior"},{"type":"hashtag","offset":62,"length":7,"data":"DevOps"},{"type":"hashtag","offset":70,"length":3,"data":"TS"},{"type":"link","offset":95,"length":23,"data":"https://technoserv.com/"},{"type":"link","offset":1588,"length":23,"data":"mailto:QAResume@technoserv.com"}],"date":"2020-06-15T14:52:17+00:00","link":"tg://resolve?domain=qa_jobs&post=0","tags":[{"name":"qa"},{"name":"kubernetes"},{"name":"linux"},{"name":"centos"},{"name":"docker"},{"name":"jenkins"},{"name":"ansible"},{"name":"apache"},{"name":"nginx"},{"name":"jboss"},{"name":"git"},{"name":"shell"},{"name":"bash"},{"name":"python"},{"name":"go"},{"name":"redis"},{"name":"rabbitmq"},{"name":"elasticsearch"},{"name":"kafka"}],"cities":[{"code":"moscow"}],"allowsRemote":false}},{"node":{"__typename":"Job","id":"2211446784-1001134745498","title":"Devops инженер","text":"#вакансия #DevOps #Москва #ivi\n\nОнлайн-кинотеатр ivi \nЛокация: Москва, ст. м. Дмитровская\nФормат работы: офис \nЗанятость: полная\nЗарплатная вилка: от 180 000 до 250 000 руб. на руки.\n\nРазыскиваем коллегу в команду для участия в настройке процессов: технических (CI/CD) и в части взаимодействия с коллегами. Активное участие в разворачивании и эксплуатации k8s. Помогаем командам разработки строить CI/CD-пайплайны.  Используем Ubuntu, Linux.\nХраним код и разрабатываем pipeline-ы с помощью GitLab+Artifactory.\nДля мониторинга серверов и сервисов используем Zabbix и StatsD, заправляем Grafana.\nНаши сервисы написаны на Python, Golang и немного PHP и Java.\nЛюбим и активно используем Jenkins для решения самых разнообразных задач.\nИспользуем много Open Source (и не только) приложений: Nginx, Redis, PostgreSQL, MongoDB, RabbitMQ, ClickHouse, OpenStack, GitLab, Kafka, HDFS, Jira , OpenNebula.\n\nЧто предстоит делать: \n- Развитие и настройка процессов CI/CD;\n- Периодический аудит используемого стека технологий;\n- Планирование и участие в рефакторинге процессов, инфраструктуры, приложений;\n- Сопровождение сервисов от разработки до эксплуатации, участие в эксплуатации;\n- Доработка текущих и разработка новых сценариев конфигурирования серверов и приложений;\n- Администрирование приложений по результатам выполненной работы, подготовка документации, если это необходимо.\n\nКак узнать, что ты нам подходишь? \n- Успешный опыт работы CI/CD-системами (у нас GitLab и Jenkins);\n- Умение хорошо готовить Docker;\n- Опыт программирования на скриптовых языках (Shell, Python);\n- Опыт администрирования Linux и приложений более 5 лет;\n- Понимание сетевых технологий TCP/IP;\n- Опыт работы с системами управления версиями (у нас Git);\n- Опыт работы с системами управления конфигурациями.\n\nСо своей стороны мы обещаем: \n- Офис в 5 минутах ходьбы от м. \"Дмитровская\";\n- У нас гибкий график, мы начинаем до 11 часов дня;\n- Трудоустройство по ТК РФ;\n- ДМС + стоматология после прохождения испытательного срока;\n- Подписка на ivi;\n- Пакет релокации для соискателей со всей России.\n\nПишите @daria144, на почту dsereda@ivi.ru или откликайтесь здесь https://hh.ru/vacancy/35021558\n\n—\n\n👉 Обсуждение вакансии в чате @devops_jobs","markup":[{"type":"hashtag","offset":0,"length":9,"data":"вакансия"},{"type":"hashtag","offset":10,"length":7,"data":"DevOps"},{"type":"hashtag","offset":18,"length":7,"data":"Москва"},{"type":"hashtag","offset":26,"length":4,"data":"ivi"},{"type":"handle","offset":2071,"length":9,"data":"daria144"},{"type":"link","offset":2091,"length":14,"data":"mailto:dsereda@ivi.ru"},{"type":"link","offset":2129,"length":30,"data":"https://hh.ru/vacancy/35021558"},{"type":"handle","offset":2194,"length":12,"data":"devops_jobs"}],"date":"2020-06-15T13:57:03+00:00","link":"tg://resolve?domain=devops_jobs_feed&post=2109","tags":[{"name":"ubuntu"},{"name":"linux"},{"name":"gitlab"},{"name":"python"},{"name":"go"},{"name":"php"},{"name":"java"},{"name":"jenkins"},{"name":"nginx"},{"name":"redis"},{"name":"postgresql"},{"name":"mongodb"},{"name":"rabbitmq"},{"name":"kafka"},{"name":"hdfs"},{"name":"docker"},{"name":"shell"},{"name":"git"}],"cities":[{"code":"moscow"}],"allowsRemote":false}},{"node":{"__typename":"Job","id":"2210398208-1001134745498","title":"Devops инженер","text":"#вакансия #devops #fulltime #релокация \n\nКомпания: 2Glab\nГород и адрес офиса: Helsinki, Stockholm, Amsterdam, Berlin.\nФормат работы: Удаленка / Релокация, Европа.\nЗанятость: Полная занятость\nЗарплатная вилка: 3500$-4500$, Уровень дохода указан на период работы в РФ\nОписание вакансии: Европейский лидер инфраструктурных решений, облачных сервисов и разработке приложений.\n\nЖдем от Вас:\n- хороший английский\n- поддержка инфраструктуры проекта на AWS или Google Cloud\n- не менее 5 лет работы с linux системами в роли системного администратора/devops инженера\n-  Системы управления конфигурацией (одна из Ansible, Chef, Puppet или аналогичная) и  контейнерные  технологии (например, Kubernetes, Mesosphere, Docker Swarm)\n- опыт построения CI/CD\n- Иметь четкое представление о локальных технологиях (например, VMware, OpenStack или Hyper-V)\n- улучшение существующей инфраструктуры, включая масштабирование и отказоустойчивость\n- мониторинг системы, анализ быстродействия и тонкая настройка\n- выбор и внедрение DevOps практик и инструментов\n- автоматизация рутинных задач;\n- Готовность путешествовать примерно 25% вашего времени;\n\nДополнительным плюсом будет:\n- знание Python/Ruby\n- опыт работы с Azure\n\nКонтакты: usubow@gmail.com +79182255234  @Yuriy_2Glab\n\n—\n\n👉 Обсуждение вакансии в чате @devops_jobs","markup":[{"type":"hashtag","offset":0,"length":9,"data":"вакансия"},{"type":"hashtag","offset":10,"length":7,"data":"devops"},{"type":"hashtag","offset":18,"length":9,"data":"fulltime"},{"type":"hashtag","offset":28,"length":10,"data":"релокация"},{"type":"link","offset":1209,"length":16,"data":"mailto:usubow@gmail.com"},{"type":"link","offset":1226,"length":12,"data":"tel:+79182255234"},{"type":"handle","offset":1240,"length":12,"data":"Yuriy_2Glab"},{"type":"handle","offset":1287,"length":12,"data":"devops_jobs"}],"date":"2020-06-15T11:01:39+00:00","link":"tg://resolve?domain=devops_jobs_feed&post=2108","tags":[{"name":"amazon-web-services"},{"name":"cloud"},{"name":"linux"},{"name":"ansible"},{"name":"kubernetes"},{"name":"docker"},{"name":"python"},{"name":"ruby"},{"name":"azure"},{"name":"google-cloud-platform"}],"cities":[{"code":"helsinki"},{"code":"stockholm"},{"code":"amsterdam"},{"code":"berlin"}],"allowsRemote":false}},{"node":{"__typename":"Job","id":"2209349632-1001134745498","title":"Devops инженер","text":"#вакансия #офис #Москва #devops #teamlead\n\nDevOps Engineer\nОписание проекта:\nНа текущий момент мы формируем ключевую команду по трансформации интеграционной архитектуры одного из крупнейших\nБанков.\nОдной из ключевых задач трансформации стоит построить принципиально новую платформу управления трафиком между\nприложениями,\nпозволяющую объединить все существующие системы Банка как монолитные, так и контейнеризированные, виртуализировать\nбазовые\nсервисы и инструменты обеспечения ключевых атрибутов масштабирования, надежности, безопасности и сопровождаемости.\nВ результате этой трансформации должны быть реализованы комплексные сервисы платформы для ИТ Банка и партнеров.\nПрофит для участника:\nВозможность трансформировать ИТ-ландшафт одного из крупнейшего Банка своими силами от начала до конца;\nВозможность развить компетенции и получить опыт применения современных технологий и подходов к DevOps;\n\nКлючевые задачи:\nУлучшение инструментов и автоматизация производственных процессов, уменьшение time to market\nПостроение и сопровождение конвейера CI/CD\nАвтоматизация процесса подготовки окружений, тестовых сред, сборки и развертывания приложений\nВнедрение, поддержка и развитие системы мониторинга\nУчастие в подготовке и настройке инфраструктуры проектов банка\nИнтеграция тестов в скрипты развертывания\n\nОсновные требования:\nОпыт конфигурации и уверенное владение Linux (RHEL/CentOS)\nУмение писать сценарии автоматизации (bash, python)\nПонимание языков разметки данных (xml, json, yaml)\nУверенное владение одним из языков: Python, Java, Kotlin, Groovy\nОпыт работы с Git.\nОпыт автоматизации CI/CD процессов. Активное взаимодействие с командами разработки, тестирования, поддержки.\nОпыт работы с CI-Системами (Gitlab CI/Jenkins/TeamCity). Разработка и отладка исходного кода Pipeline, умение\nкастомизировать сборку.\nУверенное владение средством управления конфигурациями – Ansible, написание скриптов. Большим плюсом будет\nявляется опыт разработки модулей и отладки.\nОпыт развертывание и использования Docker: Создание образов, сборка и доставка контейнеров. Развертывание\nприложений в кластере Kubernetes, OpenShift\nОпыт настройки инструментов мониторинга (zabbix, Prometheus, grafana, ELK/EFK)\nОпыт работы с базами данных: Oracle, PostgreSQL, NoSQL DB (Tarantool, Casandra, Redis, RocksDB, etcd, ...)\nОпыт работы с IBM WebSphere MQ\nИнженерные практики (code review, тестирование скриптов и прочее).\nОпыт работы с высокодоступными и высокопроизводительными решениями\nПонимание принципа infrastructure as code\nИнженерное мышление, умение локализовать проблему и предложить оптимальное решение\nРазвитый технический кругозор и желание постоянно развиваться.\n\nЧто предлагаем:\nОформление через интегратора T4u\nЗ.п белая, 200-250 к\nДМС, курсы, сертификация за счет компании\nРабочее место в одном из офисов банка: м. Деловой центр, м. Пролетарская, м. ВДНХ\nКонтакты: @Anastasia202011\n\n—\n\n👉 Обсуждение вакансии в чате @devops_jobs","markup":[{"type":"hashtag","offset":0,"length":9,"data":"вакансия"},{"type":"hashtag","offset":10,"length":5,"data":"офис"},{"type":"hashtag","offset":16,"length":7,"data":"Москва"},{"type":"hashtag","offset":24,"length":7,"data":"devops"},{"type":"hashtag","offset":32,"length":9,"data":"teamlead"},{"type":"handle","offset":2861,"length":16,"data":"Anastasia202011"},{"type":"handle","offset":2912,"length":12,"data":"devops_jobs"}],"date":"2020-06-15T11:01:14+00:00","link":"tg://resolve?domain=devops_jobs_feed&post=2107","tags":[{"name":"linux"},{"name":"centos"},{"name":"bash"},{"name":"python"},{"name":"xml"},{"name":"json"},{"name":"yaml"},{"name":"java"},{"name":"kotlin"},{"name":"groovy"},{"name":"git"},{"name":"gitlab"},{"name":"jenkins"},{"name":"ansible"},{"name":"docker"},{"name":"kubernetes"},{"name":"oracle"},{"name":"postgresql"},{"name":"nosql"},{"name":"redis"}],"cities":[{"code":"moscow"}],"allowsRemote":false}},{"node":{"__typename":"Job","id":"90978648064-1001067529236","title":"Python разработчик","text":"#fullstack_dev #вакансия #удаленка #Python \n\nПривет! Меня зовут Виолетта, ищу Python разработчика в компанию SIMKOMAT.\n\nМесто работы: удаленка \nРабочий день: полный рабочий день\nТвои умения: \nPython, asyncio, flask\nОпыт программирования многопоточных приложений;\nЗнание операционной системы Linux;\nЗнание Docker/Docker-compose\nУмение работы с системой контроля версий Git, gitlab, CI/CD\nОпыт работы с базами данных Mongodb, PostgreSQL или MySQL\nПонимание принципов виртуализации;\nОпыт администрирования ОС семейства Linux, localhost, умение работать с ssh\nМы общаемся в: Trello, Atlassian, Telegram, Viber, GitLab Issues\nО компании: создаем программные аппараты для выдачи сим-карт без участия человека. В основном сотрудничаем с иностраннными компаниями. Нашему коллективу кажется, что мы веселые и приятные люди. \nОткликаться на вакансию: пиши мне в телеграм @violker или на почту yo@simkomat.com\n\nЗа внимание спасибо. Сайт SIMKOMAT - тебе. https://simkomat.com/ru/","markup":[{"type":"hashtag","offset":0,"length":14,"data":"fullstack_dev"},{"type":"hashtag","offset":15,"length":9,"data":"вакансия"},{"type":"hashtag","offset":25,"length":9,"data":"удаленка"},{"type":"hashtag","offset":35,"length":7,"data":"Python"},{"type":"bold","offset":120,"length":13,"data":""},{"type":"bold","offset":144,"length":13,"data":""},{"type":"bold","offset":178,"length":14,"data":""},{"type":"bold","offset":556,"length":15,"data":""},{"type":"bold","offset":621,"length":11,"data":""},{"type":"bold","offset":816,"length":24,"data":""},{"type":"handle","offset":861,"length":8,"data":"violker"},{"type":"link","offset":883,"length":15,"data":"mailto:yo@simkomat.com"},{"type":"link","offset":943,"length":24,"data":"https://simkomat.com/ru/"},{"type":"bold","offset":943,"length":24,"data":""}],"date":"2020-06-15T10:41:34+00:00","link":"tg://resolve?domain=python_jobs&post=0","tags":[{"name":"python"},{"name":"flask"},{"name":"linux"},{"name":"docker"},{"name":"git"},{"name":"gitlab"},{"name":"mongodb"},{"name":"postgresql"},{"name":"mysql"},{"name":"ssh"},{"name":"docker-compose"}],"cities":[],"allowsRemote":true}},{"node":{"__typename":"Job","id":"338690048-1001352129329","title":"Golang разработчик","text":"#вакансия #golang #go\n\nВакансия: Golang разработчик\nГород: Казань\nФормат работы: удаленная работа/офис\nКомпания: Спутник\nВилка заработной платы: 70 000 - 150 000\n\nКто мы?\nКомпания Спутник занимается обеспечением безопасности людей более чем в 100 городах России и 7 странах мира. Наши продукты позволяют сделать из обычного многоквартирного дома - умный дом. Мы являемся резидентами Сколково и Иннополиса, а также входим в тройку лидеров отрасли. \nВместо классической управленческой иерархии мы предпочитаем придерживаться принципов холакратии.\n\nКого мы ожидаем?\nТалантливых разработчиков, которые:\n• имеют коммерческий опыт работы с GoLang (от 1 года);\n• владеют знанием любого другого языка программирования;\n• имеют опыт работы с Linux, терминалом;\n• как примущество - имеют опыт серверного программирования (Web, облака)\n\nЧто мы предлагаем?\n• увлекательный опыт в режиме равенства и без бюрократии;\n• возможность гибкого графика работы/удаленной работы;\n• перспективу динамичного пересмотра заработной платы в зависимости от способностей и достижений\n\nКонтактное лицо\nЛиля Афанасьева\ne-mail: lily@sputnik.direct\ntelegram: lilia_afanaseva","markup":[{"type":"hashtag","offset":0,"length":9,"data":"вакансия"},{"type":"hashtag","offset":10,"length":7,"data":"golang"},{"type":"hashtag","offset":18,"length":3,"data":"go"},{"type":"link","offset":1096,"length":19,"data":"mailto:lily@sputnik.direct"}],"date":"2020-06-15T10:06:29+00:00","link":"tg://resolve?domain=gogetajobfeed&post=323","tags":[{"name":"go"},{"name":"linux"},{"name":"web"}],"cities":[{"code":"kazan"}],"allowsRemote":true}},{"node":{"__typename":"Job","id":"2204106752-1001134745498","title":"Devops engineer","text":"#вакансия #Москва #infrastructure #lead #офис #DevOps\n\nЛокация: Москва\nФормат работы: офис \nЗанятость: полная \nЗП: 250 000 до 350 000 рублей на руки (компания готова отталкиваться от пожеланий кандидатов) \nВакансия: Lead Infrastructure Engineer\n\n🔹 Avotel существует на российском рынке уже почти 5 лет, сначала возникла лишь идея о том, как создать решение, которое позволит решить проблемы связи для транспорта и объектов, которые сложно подключить обычными технологиями. На сегодняшний день Avotel стала партнером крупнейших представителей в сфере телекома и транспорта, что делает необходимым рост команды. \n\nНа текущий момент команда ищет специалиста, который займет ключевую роль в сетевой/программной инфраструктуре для телеком операторов и больших интернет соединений.\n\nСтек: Linux, Ansible, KVM, Docker, BGP, IP tunnel, Git.\n\n🔹Обязанности:\n— Сопровождение серверной и сетевой инфраструктуры проекта;\n— Расширение и формирование команды;\n\n🔹 Требования:\n—Обширный опыт в качестве Infrastructure Engineer и DevOps - от 6 лет;\n— Опыт работы на Lead позиции от 2 лет; \n— Уверенное владение инструментами динамической и статической маршрутизации;\n— Опыт проектирования сетей на базе Linux и обслуживания сетевой инфраструктуры от 100 серверов;\n— Большим плюсом будет наличие опыта сопровождения “железа”, как, например, в сегментах телекома, транспорта или IoT;\n\n🔹 Контакты:\ne-mail: maria@luckyhunter.io\ntelegram: @Maria_Rey\n\n—\n\n👉 Обсуждение вакансии в чате @devops_jobs","markup":[{"type":"hashtag","offset":0,"length":9,"data":"вакансия"},{"type":"hashtag","offset":10,"length":7,"data":"Москва"},{"type":"hashtag","offset":18,"length":15,"data":"infrastructure"},{"type":"hashtag","offset":34,"length":5,"data":"lead"},{"type":"hashtag","offset":40,"length":5,"data":"офис"},{"type":"hashtag","offset":46,"length":7,"data":"DevOps"},{"type":"link","offset":1389,"length":20,"data":"mailto:maria@luckyhunter.io"},{"type":"handle","offset":1420,"length":10,"data":"Maria_Rey"},{"type":"handle","offset":1465,"length":12,"data":"devops_jobs"}],"date":"2020-06-15T09:32:06+00:00","link":"tg://resolve?domain=devops_jobs_feed&post=2102","tags":[{"name":"linux"},{"name":"ansible"},{"name":"docker"},{"name":"git"}],"cities":[{"code":"moscow"}],"allowsRemote":false}},{"node":{"__typename":"Job","id":"2203058176-1001134745498","title":"Devops инженер","text":"#вакансия #Москва #удаленка #remote\n#kubernetes\nКомпания, стартап в области информационной безопасности, ищет DevOps инженера\n🎱 Город и адрес офиса: Москва\n🎱 Формат работы: удаленка или офис \n🎱 Занятость: полная \n🎱 Условия: зп от 130 до 180К (в зависимости от опыта и формата работы)\n\n🎱 Задачи:\nОбеспечение отказоустойчивости и развитие инфраструктуры в Европе и РФ.\nРабота с командой разработки по совершенствованию микросервисов.\nМониторинг работы инфраструктуры и приложений, реакция на инциденты.\nОбщение с заказчиками на этапе интеграции и при возникновении проблем.\n\n🎱 Ожидания:\nОпыт администрирования Linux\nопыт работы с Amazon Web Services, Terraform, Ansible.\nхорошие знания Kubernetes и Docker.\nопыт работы с nginx, ELK, GitLab CI/CD.\n\n\n🎱 Будет преимуществом:\nЗнание Python и/или Golang\nопыт прохождения PCI DSS\nзнание MongoDB, Redis, Kafka, Clickhouse,\nопыт эксплуатации JVM,\nопыт эксплуатации Dask, AirFlow.\n\n🎱 Контакты: @kornet_croft\n\n—\n\n👉 Обсуждение вакансии в чате @devops_jobs","markup":[{"type":"hashtag","offset":0,"length":9,"data":"вакансия"},{"type":"hashtag","offset":10,"length":7,"data":"Москва"},{"type":"hashtag","offset":18,"length":9,"data":"удаленка"},{"type":"hashtag","offset":28,"length":7,"data":"remote"},{"type":"hashtag","offset":36,"length":11,"data":"kubernetes"},{"type":"handle","offset":941,"length":13,"data":"kornet_croft"},{"type":"handle","offset":989,"length":12,"data":"devops_jobs"}],"date":"2020-06-15T08:42:51+00:00","link":"tg://resolve?domain=devops_jobs_feed&post=2101","tags":[{"name":"kubernetes"},{"name":"linux"},{"name":"web"},{"name":"ansible"},{"name":"docker"},{"name":"nginx"},{"name":"gitlab"},{"name":"python"},{"name":"go"},{"name":"mongodb"},{"name":"redis"},{"name":"kafka"},{"name":"jvm"},{"name":"amazon-web-services"}],"cities":[{"code":"moscow"}],"allowsRemote":true}},{"node":{"__typename":"Job","id":"71284293632-1001054966032","title":"Android разработчик","text":"#вакансия #android #remote #fulltime \nВакансия: android разработчик\nФормат работы: удаленно \nЗанятость: полная\nЗ/п: от 170 000 до 200 000 по результатам общения\nКомпания: https://poloniumarts.com/\nСфера деятельности: разработка ПО.\n\nНа один из новых проектов. Все с нуля. Никакого легаси. \n\nCтек: kotlin, RxJava, Firebase (Retrofit Glide Android Annotation) \n\nОсновные задачи\n▪️верстка экранов приложения\n▪️проработка Api и логика приложения\n▪️полная поддержка проекта\n\nТребования\n▪️опыт коммерческой разработки на Java и/или Kotlin от 1 года\n▪️опыт работы с Android SDK, Gradle, Layout Inspector, Linux\n▪️понимание принципов MVP и MVVM\n▪️понимание основных принципов работы с многопоточностью\n\nМы предлагаем\n▪️стабильную зарплату по результатам собеседования\n▪️оформление по ТК РФ\n▪️гибкий график работы\n▪️интересные, творческие задачи\n\nКонтакты: @Tragoman","markup":[{"type":"hashtag","offset":0,"length":9,"data":"вакансия"},{"type":"hashtag","offset":10,"length":8,"data":"android"},{"type":"hashtag","offset":19,"length":7,"data":"remote"},{"type":"hashtag","offset":27,"length":9,"data":"fulltime"},{"type":"bold","offset":38,"length":9,"data":""},{"type":"bold","offset":68,"length":13,"data":""},{"type":"bold","offset":93,"length":11,"data":""},{"type":"bold","offset":111,"length":5,"data":""},{"type":"bold","offset":161,"length":9,"data":""},{"type":"link","offset":171,"length":25,"data":"https://poloniumarts.com/"},{"type":"bold","offset":197,"length":19,"data":""},{"type":"bold","offset":360,"length":16,"data":""},{"type":"bold","offset":470,"length":11,"data":""},{"type":"bold","offset":695,"length":14,"data":""},{"type":"bold","offset":838,"length":9,"data":""},{"type":"handle","offset":848,"length":9,"data":"Tragoman"}],"date":"2020-06-15T07:25:26+00:00","link":"tg://resolve?domain=mobile_jobs&post=0","tags":[{"name":"mobile"},{"name":"android"},{"name":"kotlin"},{"name":"firebase"},{"name":"java"},{"name":"gradle"},{"name":"linux"},{"name":"mvvm"}],"cities":[],"allowsRemote":true}}]}}},"context":{}}