{"hash":"f34fd2c444a074f4e0e67d525015a008ef8e766f","data":{"records":{"id":"sql","name":"sql","belongsTo":{"totalCount":108,"pageInfo":{"totalPages":11,"currentPage":2},"edges":[{"node":{"__typename":"Job","id":"1991245824-1001134745498","title":"Devops инженер","text":"#вакансия #devops #remote \nКомпания Imhio Ltd ищет инженера инфраструктуры, обладающего навыками конфигурирования и поддержки аппаратных и облачных платформ, организации работы отказоустойчивых систем, а также автоматизации доставки программного обеспечения. \nВ составе нашей инфраструктуры мы используем Digital Ocean и AWS, Oracle Linux, Νginx, Consul, RabbitMQ, ScyllaDB, Redis, PostgreSQL, GoLang, GoCD и Docker.\nАктуальная цель, которая стоит перед нами, переход к полностью автоматизированному конфигурированию и эксплуатации всех элементов нашей инфраструктуры.\n\nОбязанности:\n- автоматизация конфигурирования и обслуживания элементов инфраструктуры\n- участие в процессах CI/CD\n- мониторинг работоспособности\n- планирование использования ресурсов\n- оптимизация инфраструктуры\n- документирование инфраструктуры\n\nТребования:\n - Минимальный опыт работы по специальности от 3 лет.\n\nДля соответствия нашей команде, ваши личные качества должны включать:\n - коммуникабельность, умение находить точки соприкосновения\nцелеустремленность, ответственность, внимательность и аккуратность\n- умение и желание решать комплексные, нестандартные проблемы и задачи\n- понятное формулирование своих мыслей и идей\n- умение отстаивать свою позицию\n- понимание технической документации на английском языке\n- поддержка принципов DevOPS методологии\n\nДля соответствия нашим задачам, у вас должен быть опыт промышленной эксплуатации:\n- Linux \n- Digital Ocean или AWS\n- Terraform и Ansible\n- CI/CD инструментов\n- Docker или Kubernetes\n- Nginx, SQL, MQ, Redis, Consul\n- Prometheus и Grafana, Graylog или ELK\n- Python или Bash\nУ вас будет дополнительное преимущество при наличии\nопыта использования:\n- ScyllaDB или Cassandra\n- системы мониторинга DataDog\n- системы доставки GoCD\n- (микро)сервисов, разработанных с использованием Golang\n\nУсловия:\n- полностью удаленная работа\n- оплачиваемый отпуск и больничный\n- заработная плата в евро, определяется вашей компетенцией (1850-2900 Евро)\n- гибкий график и широкая автономия - мы оцениваем результаты работы\n- интересные задачи, способствующие профессиональному развитию\n- работа в команде профессионалов\n- отсутствие бюрократических процедур\nКонтакты: @yanalyakhova, jane@imhio.com\n\n—\n\n👉 Обсуждение вакансии в чате @devops_jobs","markup":[{"type":"hashtag","offset":0,"length":9,"data":"вакансия"},{"type":"hashtag","offset":10,"length":7,"data":"devops"},{"type":"hashtag","offset":18,"length":7,"data":"remote"},{"type":"handle","offset":2176,"length":13,"data":"yanalyakhova"},{"type":"link","offset":2191,"length":14,"data":"mailto:jane@imhio.com"},{"type":"handle","offset":2240,"length":12,"data":"devops_jobs"}],"date":"2020-04-09T11:57:04+00:00","link":"tg://resolve?domain=devops_jobs_feed&post=1899","tags":[{"name":"amazon-web-services"},{"name":"oracle"},{"name":"linux"},{"name":"rabbitmq"},{"name":"redis"},{"name":"postgresql"},{"name":"go"},{"name":"docker"},{"name":"ansible"},{"name":"kubernetes"},{"name":"nginx"},{"name":"sql"},{"name":"python"},{"name":"bash"},{"name":"cassandra"}],"cities":[],"allowsRemote":true}},{"node":{"__typename":"Job","id":"24342691840-1001075660570","title":"Php разработчик","text":"#вакансия #Новосибирск #офис #удаленно#FullStack#Middle #Senior#PHP#JavaScript\n\nГород: Новосибирск\nФормат работы: в офисе/удаленно\nЗанятость: полная\nЗарплатная вилка: от 100 000 до 200 000 руб. на руки\nНазвание компании: ВилайнТВ\n\nНужен FullStack разработчик для создания и развития нового проекта видео- тематики. Данная компания разрабатывает и поддерживает облачные хранилища. Проекту уже более 7 лет, в своей нише занимает второе место в мире, аналог на рынке России turbobit, аналог в мире rapidgator, основные рынки это США, Европа, сейчас выходят на Азию, в России не работают. \n\nСтек технологий: Хранилище - OpenStack Swift, BackEnd - Nodejs, PHP (Yii1, Yii2, Laravel), FrontEnd - React, BD - MySql, Postgres, Mongo, Elastic, Доставка - Jenkins, Docker, Kubernetes.\n\nЧто хотят:\n• программирование на JS хотя бы 1 год.\n• программирование на PHP хотя бы 2 года\n• решение любой front-задачи начинать с составления модели данных.\n• уметь работать со сложными SQL-запросами.\n• самостоятельно уметь планировать свою работу.\n• опыт создания сайтов «под ключ»\n• навыки работы с системами контроля версий\n• обязательное понимание валидной, кросс-браузерной и адаптивной верстки.\n\nЧто дают:\n• Работа в офисе или возможность работать удаленно на полный рабочий день;\n• Трудоустройство в соответствии с ТК РФ;\n• График работы с Пн по Пт;\n• Просторный офис в центре Новосибирска либо удаленно;\n• Гибкое начало рабочего дня.\n\nБудет плюсом, если работали с большими проектами.\n\nВопросы : @juliajudina2810\njuliajudina2810@gmail.com","markup":[{"type":"hashtag","offset":0,"length":9,"data":"вакансия"},{"type":"hashtag","offset":10,"length":12,"data":"Новосибирск"},{"type":"hashtag","offset":23,"length":5,"data":"офис"},{"type":"handle","offset":1481,"length":16,"data":"juliajudina2810"},{"type":"link","offset":1498,"length":25,"data":"mailto:juliajudina2810@gmail.com"}],"date":"2020-04-09T10:05:09+00:00","link":"tg://resolve?domain=php_jobs&post=23215","tags":[{"name":"php"},{"name":"javascript"},{"name":"swift"},{"name":"nodejs"},{"name":"yii"},{"name":"laravel"},{"name":"reactjs"},{"name":"mysql"},{"name":"postgresql"},{"name":"elasticsearch"},{"name":"jenkins"},{"name":"docker"},{"name":"kubernetes"},{"name":"sql"}],"cities":[{"code":"novosibirsk"}],"allowsRemote":true}},{"node":{"__typename":"Job","id":"98270445568-1001089317451","title":"Qa инженер","text":"#вакансия #Москва #QA #работа\n❗️Команда Тинькофф ищет талантливых тестировщиков❗️\nА у нас есть позиции в команде, которая разрабатывает продукты для бизнеса, команде, которая разрабатывает мобильное приложение для физ.лиц (он же SuperApp) , а еще есть вакансии в Тинькофф Инвестиции, в Тинькофф Мобайл – все они ищут тестировщика мобильных приложений. \n\n 📍Основные задачи:\n-Проведение функционального, регрессионного, smoke тестирования мобильных приложений на 3-х платформах (iOS, Android, Windows)\n-Использование инструментов разработчиков (Android Studio, Xcode, ITools)\n-Участие в процессе автоматизации: составление тест-кейсов и оценка результатов запуска автокейсов, их актуализация\n-Поддержка/развитие решений автоматизированного тестирования мобильного банка Тинькофф на платформе iOS (swift, xCode, XCTest) / Android (Java, JUnit, Espresso, UIAutomator)\n-Автоматизация регресса мобильного банка Тинькофф                                                                                                                                                                 \n📍Наши ожидания от кандидата:\n-Опыт работы в качестве мобильного тестировщика от 1 года\n-Понимание рынка мобильных технологий (ОС, оболочки и т.д.)\n-Понимание процесса интеграционного тестирования;принципа работы REST и SOAP API\n-Опыт использования сниффера трафика (Charles, Fiddler)\n-Знание SQL на уровне простых запросов\n\n✅Мы предлагаем:\n•Профессиональное развитие: проводим митапы, тренинги и мастер-классы; огромная tech-библиотека\n•Бесплатные и вкусные обеды в уютном Tinkoff.Сafe; чай, кофе и фрукты в кухнях на каждом этаже офиса\n•Заботу о здоровье: полис ДМС и страховку от несчастных случаев, льготные условия страхования для близких\n•Занятия в бесплатном фитнес-зале «Tinkoff.Sport»: есть тренажеры, групповые программы с крутыми тренерами, сауна. Устраиваем турниры по футболу, волейболу и хоккею\n•Работу в комфортном офисе с современной техникой и панорамным видом на город в 5 минутах пешком от м. Водный стадион. Для тех, кто за рулем, есть удобная парковка\n•Заработная плата от 130K, обсуждаем с каждым индивидуально\n\n📌Резюме и вопросы можете присылать на почту a.a.sklyarova@tinkoff.ru","markup":[{"type":"hashtag","offset":0,"length":9,"data":"вакансия"},{"type":"hashtag","offset":10,"length":7,"data":"Москва"},{"type":"hashtag","offset":18,"length":3,"data":"QA"},{"type":"hashtag","offset":22,"length":7,"data":"работа"},{"type":"link","offset":2155,"length":24,"data":"mailto:a.a.sklyarova@tinkoff.ru"}],"date":"2020-04-09T08:36:28+00:00","link":"tg://resolve?domain=qa_jobs&post=93718","tags":[{"name":"qa"},{"name":"ios"},{"name":"android"},{"name":"windows"},{"name":"xcode"},{"name":"swift"},{"name":"java"},{"name":"junit"},{"name":"rest"},{"name":"soap"},{"name":"sql"},{"name":"android-studio"}],"cities":[{"code":"moscow"}],"allowsRemote":false}},{"node":{"__typename":"Job","id":"16235102208-1001110946746","title":"Js разработчик","text":"#вакансия #удаленка #nodejs #backend \n\nГород: Томск, Никитина 20\nФормат работы: удаленка\nЗанятость: полная/проектная\nЗарплатная вилка:  от 100 до 150k рублей на руки за месяц ИЛИ 800 руб/час\n\nОписание вакансии: \nМы ищем Backend разработчика со знанием Node.js\n\nТы нам подходишь, если у тебя есть..\n\n➖Опыт работы c Node.js от года;\n➖Знание SQL и MySQL или PostgreSQL;\n➖Знание GraphQL;\n➖Уверенное владение Git.\n\nБудет плюсом:\n➖Опыт работы с сервисами AWS и Serverless Framework;\n➖Опыт работы с NoSQL (Redis, DynamoDB).\n\nЧто мы предлагаем?\n➖Официальное трудоустройство\n➖Регулярное повышение зарплаты по результатам работы\n➖Премирование по итогам проектов\n\nНазвание компании: ООО ай-Линк \ni-link.pro\n\nКонтакты: \nhttps://t.me/ferret24","markup":[{"type":"hashtag","offset":0,"length":9,"data":"вакансия"},{"type":"hashtag","offset":10,"length":9,"data":"удаленка"},{"type":"hashtag","offset":20,"length":7,"data":"nodejs"},{"type":"hashtag","offset":28,"length":8,"data":"backend"},{"type":"link","offset":685,"length":10,"data":"http://i-link.pro"},{"type":"link","offset":708,"length":21,"data":"https://t.me/ferret24"}],"date":"2020-04-09T07:53:42+00:00","link":"tg://resolve?domain=javascript_jobs_feed&post=15483","tags":[{"name":"javascript"},{"name":"nodejs"},{"name":"sql"},{"name":"mysql"},{"name":"postgresql"},{"name":"graphql"},{"name":"git"},{"name":"amazon-web-services"},{"name":"nosql"},{"name":"redis"},{"name":"dynamodb"}],"cities":[{"code":"tomsk"}],"allowsRemote":true}},{"node":{"__typename":"Job","id":"16221470720-1001110946746","title":"Js разработчик","text":"#вакансия #удаленка #remote #angular #javascript #киров #томск #уфа #брест #белгород #новгород\nЛокация: удаленно или офис (Н.Новгород, Томск, Киров, Уфа, Белгород, Брест)\n\nЗанятость: полная\n\nЗарплатная вилка: от 120 т.р. до 150т.р. на руки\n\nКомпания: Colvir Software Solutions\n\nТребуется senior или middle разработчик на удаленную работу\n\nЗадачи:\n\nРазработка/доработка одностраничных Web-приложений (SPA) дистанционного банковского обслуживания (на базе Angular 2+)\n\n\nПожелания к опыту соискателя:\n\nОпыт коммерческой разработки Angular 2+\n\nОпыт работы с Angular 2+ от 2 лет\n\nОпыт разработки Apache Сordova приложений;\n\nОпыт использования CSS-препроцессоров (LESS, SASS);\n\nОтличные знания JavaScript/HTML/CSS,\n\n\nСущественным плюсом будет:\n\nОпыт использования библиотек функционального программирования (Lodash);\n\nПрограммирование на платформе NodeJS;\n\nОпыт программирования по спецификации ECMAScript 6\n\nУмение читать SQL код;\n\nОпыт работы с Mercurial и(или) Git;\n\nБазовые знания администрирования Linux;\n\nАнглийский язык - на уровне чтения документации.\nМы предлагаем:\nОфициальное трудоустройство, оплачиваемые больничные и отпуск\n\nКорпоративное обучение и библиотека\n\nБесплатные медицинские онлайн-консультации «Онлайн Доктор»\n\nКорпоративные скидки на изучение английского языка\n\nКонтакты: @CTatyana или почта tchertykova@colvir.ru","markup":[{"type":"hashtag","offset":0,"length":9,"data":"вакансия"},{"type":"hashtag","offset":10,"length":9,"data":"удаленка"},{"type":"hashtag","offset":20,"length":7,"data":"remote"},{"type":"hashtag","offset":28,"length":8,"data":"angular"},{"type":"hashtag","offset":37,"length":11,"data":"javascript"},{"type":"hashtag","offset":49,"length":6,"data":"киров"},{"type":"hashtag","offset":56,"length":6,"data":"томск"},{"type":"hashtag","offset":63,"length":4,"data":"уфа"},{"type":"hashtag","offset":68,"length":6,"data":"брест"},{"type":"hashtag","offset":75,"length":9,"data":"белгород"},{"type":"hashtag","offset":85,"length":9,"data":"новгород"},{"type":"handle","offset":1291,"length":9,"data":"CTatyana"},{"type":"link","offset":1311,"length":21,"data":"mailto:tchertykova@colvir.ru"}],"date":"2020-04-09T06:37:28+00:00","link":"tg://resolve?domain=javascript_jobs_feed&post=15470","tags":[{"name":"javascript"},{"name":"angularjs"},{"name":"web"},{"name":"apache"},{"name":"css"},{"name":"sass"},{"name":"html"},{"name":"nodejs"},{"name":"sql"},{"name":"mercurial"},{"name":"git"},{"name":"linux"}],"cities":[{"code":"kirov"},{"code":"tomsk"},{"code":"ufa"},{"code":"brest"},{"code":"belgorod"}],"allowsRemote":true}},{"node":{"__typename":"Job","id":"98255765504-1001089317451","title":"Qa инженер","text":"#вакансия #QA Automation #remote/офис #Limassol \nПозиция: QA Automation Engineer\nГород: Лимассол\nОфис / full-time remote\nПолный день, полная занятость\nЗаработная плата: от 3000 eur\nhttps://exness.bamboohr.com/jobs/view.php?id=221\n\nНаша компания строит финтех-продукты (как B2B, так и B2C) для 70 тысяч активных клиентов, постоянно стремясь к совершенствованию. \nМы приглашаем опытного инженера по автоматизации QA в команду партнерства. \nРаботаем в гибкой среде по методологии scrum, где каждый сотрудник влияет на функциональность продукта/услуги.\n\nОсновные задачи: \n- Автоматизированное тестирование REST API / RPC / Web;\n- Выполнение и анализ результатов автоматизированных тестов;\n- Подготовка и разработка стратегий тестирования и планов тестирования;\n- Наставничество в области методологии, практики и методов контроля качества;\n- Исследование, разработка и применение новых инструментов и функций для автоматизации тестирования.\n\nТребования:\n- 5+ лет в тестировании автоматизации Web/API\n- Хорошие знания в области Selenium/Selenide, TestNG/JUnit, Allure, Selenoid\n- Знание Java\n- Базовые знания системы контроля версий Git\n- Опыт работы с SQL, Docker, CI (GitLab, Jenkins)\n\nМы предлагаем:\n- Стабильную работу с интересными продуктами\n- Заработная плата от 3000 eur netto\n- Возможность работы из любой страны\nЕсли решите переехать, предоставим: \n- Пакет переезда (виза, билеты, корпоративная квартира на 1 месяц)\n- Медицинское страхование сотрудников и членов их семей\n- Корпоративный Mini Cooper Countryman S\n- Фитнес-центр для сотрудников и их супругов\n- Курсы английского/греческого языка\n- Программа компенсации детского сада / школы\n- Отличный офис с лучшим видом на море\n\nРезюме и вопросы задавайте здесь @lyubovblv","markup":[{"type":"hashtag","offset":0,"length":9,"data":"вакансия"},{"type":"hashtag","offset":10,"length":3,"data":"QA"},{"type":"hashtag","offset":25,"length":7,"data":"remote"},{"type":"hashtag","offset":38,"length":9,"data":"Limassol"},{"type":"link","offset":181,"length":48,"data":"https://exness.bamboohr.com/jobs/view.php?id=221"},{"type":"handle","offset":1718,"length":10,"data":"lyubovblv"}],"date":"2020-04-08T20:32:01+00:00","link":"tg://resolve?domain=qa_jobs&post=93704","tags":[{"name":"qa"},{"name":"php"},{"name":"rest"},{"name":"web"},{"name":"selenium"},{"name":"junit"},{"name":"java"},{"name":"git"},{"name":"sql"},{"name":"docker"},{"name":"gitlab"},{"name":"jenkins"}],"cities":[],"allowsRemote":true}},{"node":{"__typename":"Job","id":"98244231168-1001089317451","title":"Qa engineer","text":"#вакансия #QA #ручное #ФТ #Москва #офис \n\nВакансия: QA Engineer (функциональное)\nГород: Москва м. Технопарк \nЗарплата: от 100 000 рублей до 140 000 рублей на руки \nФормат: офис, полный день, полная занятость\nКомпания Innovative People \n\nПроекты в крупном банке с классной корпоративной культурой, гибким началом дня, адекватными продактами и лидами.\n\n✅ Требования:\n• опыт в тестировании от 1,5 лет (понимать процесс тестирования, уметь писать тест-кейсы, используя техники тест дизайна)\n• нужна здоровая самостоятельность - каждую задачу вряд ли кто-то будет ставить, зачастую нужно самому понимать - что, как и когда тестировать, много договариваться нужно ещё, искать инфу, спрашивать\n\nБудет плюсом:\n• знание REST, опыт тестирования API\n• знание SOAP\n• знания SQL, опыт составления запросов средней сложности\n• опыт интеграционного тестирования от 3+ систем в интеграции\n• опыт работы по Scrum\n\n✅ Надо будет:\n• разрабатывать планы тестирования\n• писать тест-кейсы\n• искать дефекты и описывать их в баг-трекинговой системе\n• взаимодействовать с разработчиками\n• контролировать устранение ошибок;\n•  анализировать и оптимизировать процесс тестирования\n•  составлять отчетность\n\n✅ Предлагаем:\n• все по ТК РФ\n• ДМС со стоматологией, программа лояльности\n• Macbook \n• гибкое начало дня, адекватное руководство\n(да, сейчас мы на удаленке)\n• большое комьюнити, классные команды\n• помогаем с релокацией\n\nРезюме и вопросы @Priboch","markup":[{"type":"hashtag","offset":0,"length":9,"data":"вакансия"},{"type":"hashtag","offset":10,"length":3,"data":"QA"},{"type":"hashtag","offset":14,"length":7,"data":"ручное"},{"type":"hashtag","offset":22,"length":3,"data":"ФТ"},{"type":"hashtag","offset":26,"length":7,"data":"Москва"},{"type":"hashtag","offset":34,"length":5,"data":"офис"},{"type":"bold","offset":353,"length":11,"data":""},{"type":"bold","offset":688,"length":13,"data":""},{"type":"bold","offset":899,"length":11,"data":""},{"type":"bold","offset":1180,"length":11,"data":""},{"type":"handle","offset":1415,"length":8,"data":"Priboch"}],"date":"2020-04-08T15:12:47+00:00","link":"tg://resolve?domain=qa_jobs&post=93693","tags":[{"name":"qa"},{"name":"rest"},{"name":"soap"},{"name":"sql"}],"cities":[{"code":"moscow"}],"allowsRemote":false}},{"node":{"__typename":"Job","id":"66268954624-1001054966032","title":"Ios разработчик","text":"#вакансия #senior #middle #iOS #swift #fulltime #офис #agile\nКомпания: Моризо Диджитал \nЛокация: Москва, м. Кутузовская (Agile home)\nЗ/п: от 180-280К на руки\nКонтакты: @helend4216\n\nИщем в нашу команду не просто исполнителя, а коллегу на банкинг проект - iOS  разработчика для работы над крупнейшим приложением одного из самых стабильных банков на существующем рынке. 🔥Это прекрасная возможность оказаться в профессиональной фичевой командой с самым актуальным стеком разработки: #swift #xcode #sql\n\nОфис Agile home это гибкое начало рабочего дня и плюшки каждому на свой вкус:)\nА также оплачиваемое обучение, митапы и пр., ведь мы за развитие!💪🏼\n\nПредоставляем релокационный пакет для желающих переехать.","markup":[{"type":"hashtag","offset":0,"length":9,"data":"вакансия"},{"type":"hashtag","offset":10,"length":7,"data":"senior"},{"type":"hashtag","offset":18,"length":7,"data":"middle"},{"type":"hashtag","offset":26,"length":4,"data":"iOS"},{"type":"hashtag","offset":31,"length":6,"data":"swift"},{"type":"hashtag","offset":38,"length":9,"data":"fulltime"},{"type":"hashtag","offset":48,"length":5,"data":"офис"},{"type":"hashtag","offset":54,"length":6,"data":"agile"},{"type":"handle","offset":168,"length":11,"data":"helend4216"},{"type":"bold","offset":254,"length":17,"data":""},{"type":"bold","offset":320,"length":23,"data":""},{"type":"hashtag","offset":480,"length":6,"data":"swift"},{"type":"hashtag","offset":487,"length":6,"data":"xcode"},{"type":"hashtag","offset":494,"length":4,"data":"sql"}],"date":"2020-04-08T12:52:59+00:00","link":"tg://resolve?domain=mobile_jobs&post=0","tags":[{"name":"mobile"},{"name":"ios"},{"name":"swift"},{"name":"xcode"},{"name":"sql"}],"cities":[{"code":"moscow"}],"allowsRemote":false}},{"node":{"__typename":"Job","id":"98227453952-1001089317451","title":"Qa инженер","text":"#вакансия #офиc  #QA #Москва #ручноетестирование #гибкийграфик #relocation\n\nГород и адрес офиса: Москва, м. Тверская, 3 минуты от метро\nФормат работы: офис.\nЗарплата: до 100 000 net\n\nИщу manual QA с хорошим письменным английским в калифорнийскую продуктовую компанию. \nМы разрабатываем удобный call-center, который уже умеет синтезировать речь, обучатся и распознавать настроение пользователей, создавать аналитические отчеты, строить сложные сценарии с использованием чат-ботов, поддерживать омниканальные соединения.\n\nОжидаем:\nопыт работы QA, опыт работы с Linux, знание SQL. Cупер, если у вас будет опыт с IP телефонией.\n\nПредлагаем:\nГибкий график, ламповая атмосфера в офисе с бесплатными ланчами (2 раза в неделю), на самом деле классный и интересный продукт, командировки в Сан-Франциско за счет компании. \nВозможен рост в QA team leader.\n\nКонтакт для связи - @o_kuzi","markup":[{"type":"hashtag","offset":0,"length":9,"data":"вакансия"},{"type":"hashtag","offset":10,"length":5,"data":"офиc"},{"type":"hashtag","offset":17,"length":3,"data":"QA"},{"type":"hashtag","offset":21,"length":7,"data":"Москва"},{"type":"hashtag","offset":29,"length":19,"data":"ручноетестирование"},{"type":"hashtag","offset":49,"length":13,"data":"гибкийграфик"},{"type":"hashtag","offset":63,"length":11,"data":"relocation"},{"type":"bold","offset":76,"length":20,"data":""},{"type":"bold","offset":136,"length":15,"data":""},{"type":"bold","offset":157,"length":9,"data":""},{"type":"link","offset":258,"length":8,"data":"https://www.brightpattern.com/"},{"type":"bold","offset":520,"length":9,"data":""},{"type":"bold","offset":625,"length":12,"data":""},{"type":"handle","offset":866,"length":7,"data":"o_kuzi"}],"date":"2020-04-08T10:59:56+00:00","link":"tg://resolve?domain=qa_jobs&post=93677","tags":[{"name":"qa"},{"name":"dotnet"},{"name":"linux"},{"name":"sql"}],"cities":[{"code":"moscow"}],"allowsRemote":false}},{"node":{"__typename":"Job","id":"1987051520-1001134745498","title":"Devops инженер","text":"#вакансия #DevOps #Москва\nMiddle DevOps\nФормат работы: офис\\удаленно, Занятость: полная\nКомпания: SnegirSoft - вендор ITSM-платформы «4it».\nРазрабатываем и поддерживаем платформу для управления it-процессами больших компаний.\n\nЗадачи:\n⚙️Развитие и поддержка инфраструктуры;\n⚙️Автоматизация сборки и доставки кода;\n⚙️Поддержка разработчиков;\n⚙️Анализ и устранение инцидентов на продуктовых контурах;\n⚙️Обеспечение работоспособности и отказоустойчивости сервисов;\n⚙️Внедрение новых инструментов администрирования;\n\nНаши хотелки:\n🛠Системы контроля версий Git (Bitbucket, Gitlab);\n🛠Управление конфигурациями (Ansible);\n🛠CI\\CD: Teamcity \\ Gitlab \\ Jenkins;\n🛠Опыт администрирования Windows, IIS;\n🛠Умение хорошо писать на Powershell;\n🛠Cистемы мониторинга (Zabbix \\ Prometheus);\n🛠ELK – стек (Elasticsearch, Kibana);\n🛠Сообщения, очереди: RabbitMQ, Kafka;\nБудет круто если:\n🛠Опыт администрирования Apache \\ Nginx;\n🛠Опыт администрирования Linux;\n🛠Контейнеризация (Docker);\n🛠Умение писать SQL-запросы, понимание принципов работы СУБД;\n🛠Опыт работы с монолитными и микросервисными архитектурами;\n🛠Навыки написание скриптов на bash;\n\nПредлагаем:\n🏢м. Нововкузнецкая 3(!) мин. пешком,\n🚑  ДМС (почти all inclusive)\n💰  Доход: 140 000 – 180 000 нетт\n⏰Начало дня гибко с 9-10-11, как договоримся.\n🖥ПК: i7 8-gen, 24Gb, SSD 512Gb, 2 хороших монитора.\n🚀  Стэк актуальный: .Net Core, Angular, Elasticsearch, RabbitMQ, MS SQL->Postgres, Almost SCRUM ^)\nКонтакты: @aastaf  a.astafev@snegirsoft.com\n\n—\n\n👉 Обсуждение вакансии в чате @devops_jobs","markup":[{"type":"hashtag","offset":0,"length":9,"data":"вакансия"},{"type":"hashtag","offset":10,"length":7,"data":"DevOps"},{"type":"hashtag","offset":18,"length":7,"data":"Москва"},{"type":"handle","offset":1457,"length":7,"data":"aastaf"},{"type":"link","offset":1466,"length":24,"data":"mailto:a.astafev@snegirsoft.com"},{"type":"handle","offset":1525,"length":12,"data":"devops_jobs"}],"date":"2020-04-08T10:14:42+00:00","link":"tg://resolve?domain=devops_jobs_feed&post=1895","tags":[{"name":"git"},{"name":"gitlab"},{"name":"ansible"},{"name":"jenkins"},{"name":"windows"},{"name":"iis"},{"name":"powershell"},{"name":"elasticsearch"},{"name":"rabbitmq"},{"name":"kafka"},{"name":"apache"},{"name":"nginx"},{"name":"linux"},{"name":"docker"},{"name":"sql"},{"name":"bash"},{"name":"dotnet"},{"name":"angularjs"},{"name":"postgresql"},{"name":"net-core"}],"cities":[{"code":"moscow"}],"allowsRemote":true}}]}}},"context":{}}