{"hash":"f5f6bf98bd95e769321482904cbbd488f77922fd","data":{"records":{"id":"gradle","name":"gradle","belongsTo":{"totalCount":33,"pageInfo":{"totalPages":4,"currentPage":1},"edges":[{"node":{"__typename":"Job","id":"72617033728-1001054966032","title":"Android разработчик","text":"#вакансия #Android #Kotlin #Москва #офис \n\nВакансия: Android разработчик\nГород: Москва м. Технопарк\nЗарплата: от 150 000 рублей до 260 000 рублей на руки \nФормат: офис, полный день, полная занятость (гибкое начало)\nКомпания Innovative People \n\nИспользуют e2e automation testing, release train и др. Пишут на Kotlin. В стеке RxJava2, Dagger2, Architecture Components, Spock, Espresso. Есть техрадар, на котором тестируют новые технологии.\n\nЧто ждем:\n▪ Опыт разработки под платформу Android от 2х лет\n▪ Наличие опубликованных приложений в google play\n▪ Знание Android SDK (4.1+)\n▪ Иметь коммерческий опыт разработки на Kotlin\n▪ Знание классических алгоритмов и структур данных\n▪ Иметь опыт работы с системами автоматической сборки проектов (Gradle)\n▪ Знание и умение применять паттерны проектирования\n▪ Понимание принципов SOLID\n▪ Желание развиваться\n\nУсловия:\n▪ Использование свежих практик и современного стека в работе\n▪ Передовую инфраструктуру\n▪ Иногда можно работать из дома\n▪ Хорошую команду и большое комьюнити\n▪ ДМС со стоматологией, программу лояльности\n▪ Возможность предлагать собственные идеи и реализовывать их\n\n📩Резюме и вопросы @Priboch","markup":[{"type":"hashtag","offset":0,"length":9,"data":"вакансия"},{"type":"hashtag","offset":10,"length":8,"data":"Android"},{"type":"hashtag","offset":19,"length":7,"data":"Kotlin"},{"type":"hashtag","offset":27,"length":7,"data":"Москва"},{"type":"hashtag","offset":35,"length":5,"data":"офис"},{"type":"handle","offset":1143,"length":8,"data":"Priboch"}],"date":"2020-07-03T10:13:35+00:00","link":"tg://resolve?domain=mobile_jobs&post=69253","tags":[{"name":"mobile"},{"name":"android"},{"name":"kotlin"},{"name":"playframework"},{"name":"gradle"}],"cities":[{"code":"moscow"}],"allowsRemote":false}},{"node":{"__typename":"Job","id":"1775239168-1001091028994","title":"Java разработчик","text":"#middle #senior #Java #Spring #backend #developer #вакансия \nЛокация: Cанкт-Петербург\nЗанятость: полная, гибкое начало дня\n*до окончания пандемии работа удаленная, далее работа в офисе\nЗ/п: 130 – 200 k net.\nКомпания: CSI\nКонтакты: @Danny_Ushakova\nМы продуктовая компания CSI, создающая решения для автоматизации торговых сетей.  \nМы ищем крутых разработчиков, ответственных за собственный код, любящих тесты и понимающих важность unit тестов. Разработчиков, которые с радостью забывают про бюрократию, которые умеют защищать собственные решения и хотят сделать этот мир лучше!  \n💥JAVA developer (высоконагруженные сервисы лояльности)  \nКлючевой задачей будет разработка нового и доработка нашего продукта -  существующего функционала системы Set Retail 10. \n🔵Стек:\n• Java от 2 лет.\n• Spring (Web, Data, Cloud), Kafka.\n• Опыт разработки микросервисов.\n• Опыт проектирования базы данных.\n• SQL (желательно PostgreSQL), JDBC, Hibernate.\n• Git, Gradle.\n🔵Будет плюсом:\n• Опыт работы с J2EE (EJB3, JAX-WS, JAXB, JPA2).\n• Знание Linux.\n• Опыт работы с Redis, MongoDB, Docker, Hashicorp Nomad, Ansible.\n\nМы предлагаем:\n• возможность каждый день видеть результаты своей работы;\n• официальное оформление, белая зарплата, отпуск согласно ТК РФ;\n• гибкий график работы;\n• ДМС со стоматологией, 100% оплата больничных;\n• курсы английского языка в офисе;\n• посещение тренингов, конференций;\n• работа по Agile в команде высокопрофессиональных разработчиков;\n• возможности профессионального роста, четкая схема повышения зарплаты;\n• работа в современном и комфортном офисе в центре города (Чкаловcкий пр-т);\n• оборудованные столовые, чай, кофе, фрукты, печеньки и PlayStation;\n• командные тимбилдинги, футбольная команда.","markup":[{"type":"hashtag","offset":0,"length":7,"data":"middle"},{"type":"hashtag","offset":8,"length":7,"data":"senior"},{"type":"hashtag","offset":16,"length":5,"data":"Java"},{"type":"hashtag","offset":22,"length":7,"data":"Spring"},{"type":"hashtag","offset":30,"length":8,"data":"backend"},{"type":"hashtag","offset":39,"length":10,"data":"developer"},{"type":"hashtag","offset":50,"length":9,"data":"вакансия"},{"type":"handle","offset":231,"length":15,"data":"Danny_Ushakova"}],"date":"2020-07-02T15:12:35+00:00","link":"tg://resolve?domain=jvmjobs&post=1693","tags":[{"name":"java"},{"name":"jvm"},{"name":"spring"},{"name":"dotnet"},{"name":"web"},{"name":"cloud"},{"name":"kafka"},{"name":"sql"},{"name":"postgresql"},{"name":"jdbc"},{"name":"hibernate"},{"name":"git"},{"name":"gradle"},{"name":"jaxb"},{"name":"jpa"},{"name":"linux"},{"name":"redis"},{"name":"mongodb"},{"name":"docker"},{"name":"ansible"}],"cities":[],"allowsRemote":true}},{"node":{"__typename":"Job","id":"1773142016-1001091028994","title":"Java разработчик","text":"#спб #офис #java #middle #senior\n\nМесто работы: Санкт-Петербург, м. Лиговский проспект\nКомпания: Санкт-Петербургский Информационно аналитический центр\nФормат работы: офис ( на текущий момент удаленно)\nЗанятость: полная, гибкое начало дня\nЗарплатная вилка: до 200 на руки, 100% белая\n\n«Санкт-Петербургский Информационно-аналитический центр» с 1980 года улучшает качество жизни петербуржцев, автоматизируя городские процессы и государственные органы. В портфолио компании - 50 действующих проектов в Санкт-Петербурге и других регионах. Наши проекты побеждают в общероссийских и международных конкурсах.\n\nСодержание работы:\n- Требуется Java разработчик в Agile команду разработки государственных информационных систем.\n\nОбязанности:\n- Проектирование, разработка и развитие информационных систем с использованием технологий: Java, Postgres/Oracle, ElasticSearch, Spring Boot, Kafka, React, Ansible, Docker, Kubernetes, Jenkins и других\n\nТребования:\n- опыт веб-разработки на Java от 3-х лет;\n- знание ООП, SQL;\n- опыт разработки моделей БД;\n- умение думать и желание развиваться;\n- умение и желание решать сложные технические задачи;\n- высшее техническое образование;\n- знание английского языка (уровень чтения профессиональной литературы);\n\nЖелательно:\n- опыт работы со Spring Boot\n- опыт работы с React\n- опыт работы с СУБД Postgres или другой\n- опыт работы с Gradle\n- опыт работы с брокерами сообщений (Kafka, RabbitMQ);\n- знакомство с оркестраторами (Kubernetes, Swarm);\n- знание современных инженерных практик и инструментов (XP, TDD, Continuous delivery и т.п.).\n\nО команде:\n- мы работаем в компактных командах;\n- избегаем бюрократии и фокусируемся на реальных потребностях граждан нашего города;\n- осуществляем полный цикл разработки от выявления требований, до внедрения и сопровождения;\n- проводим ежедневные митинги, совместные обсуждения возле доски и регулярные ретроспективы;\n- стремимся к постоянному персональному и командному росту и развитию!\n\nВ портфолио команды информационные системы, функционирующие в СПб, других регионах РФ и на международном уровне:\n- Аналитическая платформа поддержки принятия решений по управлению городом;\n- Культура Петербурга\n- Общедоступные библиотеки Санкт-Петербурга\n- Государственные архивы Санкт-Петербурга\n- Приграничный электронный архив\n\nМы готовы предложить успешным кандидатам :\n- влиться в большой дружный коллектив, стать частью команды увлеченных, целеустремленных людей;\n- конкурентоспособный уровень заработной платы, который мы готовы обсудить с успешными кандидатами на собеседовании;\n- бонусы и премии по результатам работы;\n- оплачиваемые отпуска и больничные, полностью «белая» заработная плата дважды в месяц;\n- оплата обучения (тренинги, семинары, конференции);\n- широкие возможности для повышения личного мастерства и профессионального роста;\n- рабочий график – пятидневка с 9 до 18 часов, по пятницам до 17;\n- офис около ст. метро «Лиговский проспект»;\n- возможность внести свой значимый вклад в развитие городской автоматизации!\n\nБуду рад ответить на ваши вопросы о команде и проектах @akozhin","markup":[{"type":"hashtag","offset":0,"length":4,"data":"спб"},{"type":"hashtag","offset":5,"length":5,"data":"офис"},{"type":"hashtag","offset":11,"length":5,"data":"java"},{"type":"hashtag","offset":17,"length":7,"data":"middle"},{"type":"hashtag","offset":25,"length":7,"data":"senior"},{"type":"handle","offset":3051,"length":8,"data":"akozhin"}],"date":"2020-07-02T15:01:55+00:00","link":"tg://resolve?domain=jvmjobs&post=1691","tags":[{"name":"java"},{"name":"jvm"},{"name":"postgresql"},{"name":"oracle"},{"name":"elasticsearch"},{"name":"spring"},{"name":"kafka"},{"name":"reactjs"},{"name":"ansible"},{"name":"docker"},{"name":"kubernetes"},{"name":"jenkins"},{"name":"sql"},{"name":"gradle"},{"name":"rabbitmq"},{"name":"spring-boot"}],"cities":[],"allowsRemote":true}},{"node":{"__typename":"Job","id":"72536293376-1001054966032","title":"Android разработчик","text":"#вакансия #москва #офис #android \n\nгород: Москва\nформат работы: офис\nзанятость: полная\nзарплатная вилка: 150-200\nвакансия: Ищу Android-разработчика  middle+, готового возглавить развитие  и поддержку приложения.\n\nо компании: Электронное издательство «Юрайт» Мы работаем со всеми вузами страны и считаем своей главной целью повышение образовательного уровня в России.\nwww.urait.ru\n\nо проекте: Над проектом работает 20 человек. Приложение заказывали на стороне в 2019 г. Теперь решили собрать свою команду для рефакторинга и выведения на новый уровень.\n\nЧто ждет от тебя будущее нашего образования:\nПоддержку и развитие нашего приложения;\nПеренос функционала из web;\nВзаимодействие с командой - аналитиками и тестировщиками;\nУчастие в развитии проекта.\n\nСкажем тебе уверенное “да”, если ты:\nИмеешь успешный опыт разработки и поддержки под Android  (Android Studio, Gradle);\nИмеешь опыт разработки на Kotlin;\nИмеешь успешный опыт разработки клиент-серверных приложений (REST, JSON);\nТрогал архитектуру (MVP, Clean architecture);\nЗнаешь  Android application architecture, Android SDK, Gradle;\nВладеешь паттернами UI;\nЗнаешь, зачем нужен Git, без контроля версий никуда, правда?\nМожешь писать тесты;\nГотов ин-хаус исправлять код от аутсорса. Уверен в том, что ты сделаешь круче, чем исполнители на стороне =)\n\nКак и что по условиям\nОфис с плюшками в 5 минутах от м. Шоссе Энтузиастов, Мск\nГибкое начало дня:  с 8 до 11 \nВсе по ТК РФ + соц.пакет \nАдекватные коллеги и руководство!!!\n\n\nЗаинтересовало?\nДмитрий @tankograin","markup":[{"type":"hashtag","offset":0,"length":9,"data":"вакансия"},{"type":"hashtag","offset":10,"length":7,"data":"москва"},{"type":"hashtag","offset":18,"length":5,"data":"офис"},{"type":"hashtag","offset":24,"length":8,"data":"android"},{"type":"bold","offset":225,"length":32,"data":""},{"type":"bold","offset":270,"length":22,"data":""},{"type":"bold","offset":323,"length":42,"data":""},{"type":"link","offset":367,"length":12,"data":"http://www.urait.ru"},{"type":"bold","offset":552,"length":45,"data":""},{"type":"bold","offset":752,"length":37,"data":""},{"type":"bold","offset":1305,"length":22,"data":""},{"type":"handle","offset":1503,"length":11,"data":"tankograin"}],"date":"2020-07-02T11:44:19+00:00","link":"tg://resolve?domain=mobile_jobs&post=69176","tags":[{"name":"mobile"},{"name":"android"},{"name":"web"},{"name":"gradle"},{"name":"kotlin"},{"name":"rest"},{"name":"json"},{"name":"git"},{"name":"android-studio"}],"cities":[{"code":"moscow"}],"allowsRemote":false}},{"node":{"__typename":"Job","id":"72472330240-1001054966032","title":"Android разработчик","text":"#вакансия #москва #офис #kotlin#Android\n\nгород: Москва\nформат работы: офис\nзанятость: полная\nзарплатная вилка: 150-200\nвакансия: Ищу Android-разработчика  middle+, готового возглавить развитие  и поддержку приложения.\nПодробности: @Jane1204\n\nо компании: Электронное издательство «Юрайт» Мы работаем со всеми вузами страны и считаем своей главной целью повышение образовательного уровня в России.\nwww.urait.ru\n\nо проекте: Над проектом работает 20 человек. Приложение заказывали на стороне в 2019 г. Теперь решили собрать свою команду для рефакторинга и выведения на новый уровень.\n\nЧто ждет от тебя будущее нашего образования:\n-Поддержку и развитие нашего приложения;\n-Перенос функционала из web;\n-Взаимодействие с командой - аналитиками и тестировщиками;\n-Участие в развитии проекта.\n\nСкажем тебе уверенное “да”, если ты:\n-Имеешь успешный опыт разработки и поддержки под Android  (Android Studio, Gradle);\n-Имеешь опыт разработки на Kotlin;\n-Имеешь успешный опыт разработки клиент-серверных приложений (REST, JSON);\n-Трогал архитектуру (MVP, Clean architecture);\n-Знаешь  Android application architecture, Android SDK, Gradle;\n-Владеешь паттернами UI;\n-Знаешь, зачем нужен Git, \n-Можешь писать тесты;\n-Готов ин-хаус исправлять код от аутсорса. Уверен в том, что ты сделаешь круче, чем исполнители на стороне =)\n\nПо  условиям:\nОфис с плюшками в 5 минутах от м. Шоссе Энтузиастов, МСК\nГибкое начало дня:  с 8 до 11 \nВсе по ТК РФ + соц.пакет \nАдекватные коллеги и руководство!!!\n\nСвязь по почте: manuylovaey@gmail.com\nИли тут @Jane1204","markup":[{"type":"hashtag","offset":0,"length":9,"data":"вакансия"},{"type":"hashtag","offset":10,"length":7,"data":"москва"},{"type":"hashtag","offset":18,"length":5,"data":"офис"},{"type":"handle","offset":231,"length":9,"data":"Jane1204"},{"type":"link","offset":396,"length":12,"data":"http://www.urait.ru"},{"type":"link","offset":1493,"length":21,"data":"mailto:manuylovaey@gmail.com"},{"type":"handle","offset":1523,"length":9,"data":"Jane1204"}],"date":"2020-07-01T16:51:34+00:00","link":"tg://resolve?domain=mobile_jobs&post=69115","tags":[{"name":"mobile"},{"name":"android"},{"name":"kotlin"},{"name":"web"},{"name":"gradle"},{"name":"rest"},{"name":"json"},{"name":"git"},{"name":"android-studio"}],"cities":[{"code":"moscow"}],"allowsRemote":false}},{"node":{"__typename":"Job","id":"104143519744-1001089317451","title":"Qa инженер","text":"#вакансия #QA #fulltime #офис #москва\nГород: Москва, ст. м. Автозаводская \nФормат работы: офис\nКомпания: Логистик Тайм\nЗанятость: полная\nЗ/п: от 130 000 р. на руки.\n\nПривет! Мы растем и активно развиваемся, поэтому ищем специалистов для работы в офисе нашей компании в Москве. Это отличная возможность реализовать свои навыки и прокачаться ещё больше в команде профессионалов. Подробности смотри в описании:\n\n🔷Основные обязанности: \n-Написание и поддержка автотестов;\n-Анализ отчетов прогонов;\n-Организация и поддержка тестового окружения;\n-Взаимодействие с группой разработки и тестирования.\n\n🔷Наши пожелания:\n-Понимание принципов разработки и тестирования;\n-Знание методов и технологий тестирования;\n-Опыт разработки/написания автотестов на Java\\Kotlin;\n-Опыт автоматизации на базе Selenium WebDriver+JUnit+Cucumber (+Gradle/Maven);\n-Опыт работы с баг-трекинговыми системами (Jira, Redmine, YouTrack или др.);\n-Навыки работы с системами контроля версия (Git).\n\n🔷Плюсы работы у нас:\n-Уровень заработной платы зависит от пожеланий и профессионально уровня кандидата;\n-Поездки на ИТ-конференции, митапы, учебные курсы за счет компании;\n-Гибкое начало рабочего дня;\n-Перспективы материального и профессионального роста;\n-Возможность релокации в Европу.\n\nБуду рада Вашим вопросам и резюме:\n✏️@hrkaterina\n✉️ekaterina.logistik@gmail.com","markup":[{"type":"hashtag","offset":0,"length":9,"data":"вакансия"},{"type":"hashtag","offset":10,"length":3,"data":"QA"},{"type":"hashtag","offset":14,"length":9,"data":"fulltime"},{"type":"hashtag","offset":24,"length":5,"data":"офис"},{"type":"hashtag","offset":30,"length":7,"data":"москва"},{"type":"italic","offset":166,"length":79,"data":""},{"type":"italic","offset":252,"length":15,"data":""},{"type":"bold","offset":267,"length":10,"data":""},{"type":"italic","offset":277,"length":98,"data":""},{"type":"italic","offset":377,"length":32,"data":""},{"type":"bold","offset":409,"length":25,"data":""},{"type":"bold","offset":595,"length":18,"data":""},{"type":"bold","offset":965,"length":22,"data":""},{"type":"bold","offset":1255,"length":37,"data":""},{"type":"handle","offset":1292,"length":11,"data":"hrkaterina"},{"type":"link","offset":1304,"length":30,"data":"http://✉️ekaterina.logistik@gmail.com"}],"date":"2020-07-01T14:52:07+00:00","link":"tg://resolve?domain=qa_jobs&post=99319","tags":[{"name":"qa"},{"name":"java"},{"name":"kotlin"},{"name":"selenium"},{"name":"junit"},{"name":"cucumber"},{"name":"gradle"},{"name":"maven"},{"name":"git"}],"cities":[{"code":"moscow"}],"allowsRemote":false}},{"node":{"__typename":"Job","id":"1768947712-1001091028994","title":"Java разработчик","text":"#backend #java #middle  \nКомпания: #ОООСервисхаб \nЛокация: #удаленка \nЗ/п: 80 000-120 000 \nКонтакты:👉 @ANASTASIAHRServicehub  \n\nВ команду, которая производит и внедряет ПО для банков, нужен Разработчик Java (удаленно или в офис во Владимир).   \n\nМы предлагаем Вам:\n  \nФедеральный ИТ проект.  \n Бесплатное обучение английскому языку и возможность выбора обучающего курса по интересующей тематике. \nСоциальный пакет, официальное трудоустройство.  \n\n\nВ проекте используется следующий стек :  \n\n✔️Java с использованием spring-boot \n✔️Axon Framework в качестве каркасных фрейворков.  \n✔️А так же JOOQ, MapStruct, Jackson для работы с внешними источниками данных.  \n✔️Для тестирования используется JUnit + Mockito.  \n✔️Для решения задач безопасности(ЭЦП) используется BouncyCastle. \n✔️CI/CD организуется средствами Gradle, Docker, Jenkins, Rancher 2, Kubernetes, Helm.  \n✔️Для хранения данных используется СУБД PostgreSQL,для организации асинхронной коммуникации применяется RabbitMQ.  \n\nЧто требуется от Вас:  \n\nЗнание языков/фреймворков, Spring, SQL, Core Java S, серверов очередей, неряляционных баз данных, web-технологий приветствуется;  \nУверенное знание Core Java, Spring IoC, SQL  \n\n❕Приветствуются экспертизы в следующих областях: сервера очередей, неряляционные базы данных, CQRS, Event Sourcing, Web-технологии \n \nБуду также благодарна за контакты и рекомендации😊 \n✍️@ANASTASIAHRServicehub hr@srvhub.ru","markup":[{"type":"hashtag","offset":0,"length":8,"data":"backend"},{"type":"hashtag","offset":9,"length":5,"data":"java"},{"type":"hashtag","offset":15,"length":7,"data":"middle"},{"type":"hashtag","offset":35,"length":13,"data":"ОООСервисхаб"},{"type":"hashtag","offset":59,"length":9,"data":"удаленка"},{"type":"handle","offset":103,"length":22,"data":"ANASTASIAHRServicehub"},{"type":"handle","offset":1374,"length":22,"data":"ANASTASIAHRServicehub"},{"type":"link","offset":1397,"length":12,"data":"mailto:hr@srvhub.ru"}],"date":"2020-06-30T08:39:05+00:00","link":"tg://resolve?domain=jvmjobs&post=1687","tags":[{"name":"java"},{"name":"jvm"},{"name":"spring"},{"name":"jackson"},{"name":"junit"},{"name":"gradle"},{"name":"docker"},{"name":"jenkins"},{"name":"kubernetes"},{"name":"postgresql"},{"name":"rabbitmq"},{"name":"sql"},{"name":"web"},{"name":"spring-boot"}],"cities":[{"code":"vladimir"}],"allowsRemote":true}},{"node":{"__typename":"Job","id":"1766850560-1001091028994","title":"Java разработчик","text":"#Java #developer #job #офис\n\nВакансия: Java-разработчик \n\nКомпания: Selecty\n\nГород: Москва, Санкт-Петербург, Новосибирск, Самара\n\nФормат работы: Офис\n\nЗанятость: full timе\n\nЗарплатная вилка: 320k net \n\nОписание вакансии:\n\nРазработка ПО для одного из крупнейших российских банков.\n\nОбязанности:\n• Разработка под Java, фреймворк: Spring boot\n• Разработка в рамках микросервисной архитектуры\n• Проектирование интерфейсов взаимодействия с другими системами.\n• Работа в тесном сотрудничестве со специалистами фронтенд разработки, тестирования и аналитиками.\n• Работа по гибким методологиям разработки.\n\nCтек технологий:\n• Java 8-11, Kotlin.\n• Spring/Springboot.\n• PostgreSQL/Oracle, Kafka, Redis\n• Maven/Gradle\n• Docker/Kubernetes(или OpenShift).\n\nНаши ожидания от кандидата:\n• уверенное владение Java, понимание принципов работы JVM. Знание основных библиотек и шаблонов проектирования.\n• опыт использования Spring Framework (boot, mvc, data, secutity...)\n• опыт работы с многопоточностью и асинхронностью.\n• опыт работы с базами данных, умение писать и оптимизировать запросы.\n• опыт работы с распределёнными хранилищами и системами.\n• знание HTTP, REST, SOAP.\n• опыт работы с фреймворками и инструментами автоматического тестирования (junit, postman, jmeter).\n\nМы предлагаем:\n•  Оформление согласно ТК РФ.\n•  Заработная плата полностью \"белая\".\n•  ДМС.\n•  Оплата корпоративной мобильной связи.\n•  Внутреннее, внешнее обучение (сертификаты).\n•  Льготные программы от компаний – партнеров.\n\nКонтакты: @lelya01\nolga.afonina@selecty.ru","markup":[{"type":"hashtag","offset":0,"length":5,"data":"Java"},{"type":"hashtag","offset":6,"length":10,"data":"developer"},{"type":"hashtag","offset":17,"length":4,"data":"job"},{"type":"hashtag","offset":22,"length":5,"data":"офис"},{"type":"handle","offset":1497,"length":8,"data":"lelya01"},{"type":"link","offset":1506,"length":23,"data":"mailto:olga.afonina@selecty.ru"}],"date":"2020-06-29T16:07:55+00:00","link":"tg://resolve?domain=jvmjobs&post=1685","tags":[{"name":"java"},{"name":"jvm"},{"name":"dotnet"},{"name":"spring"},{"name":"kotlin"},{"name":"postgresql"},{"name":"oracle"},{"name":"kafka"},{"name":"redis"},{"name":"maven"},{"name":"gradle"},{"name":"docker"},{"name":"kubernetes"},{"name":"rest"},{"name":"soap"},{"name":"junit"},{"name":"jmeter"},{"name":"spring-boot"}],"cities":[{"code":"moscow"},{"code":"novosibirsk"},{"code":"samara"}],"allowsRemote":false}},{"node":{"__typename":"Job","id":"2261778432-1001134745498","title":"Devops инженер","text":"#вакансия #разыскивается #devops #Java #developer #Сочи #fulltime #работа #офис \n\nDevOps-инженер\n\nГород: Сочи\n\nФормат работы: офис\n\nЗанятость: полная\n\nЗарплатная вилка: от 130 000 до 150 000 рублей\n\nОписание вакансии:\nСоздание системы по управлению метаданными компании. Работа в кроссфункциональной команде в составе до 10 человек\n\nНазвание компании: ОЦРВ\n\nПримерный пул задач:\n•  Участие в построение архитектуры решения\n•  Развертывание и сопровождение тестовых и производственных сред экосистемы Hadoop (для R&D проектов)\n•  Настройка, оптимизация параметров кластера, траблшутинг проблем пользователей\n•  Построение CI/CD\n•  Управление мониторингом сервиса (метрики, мониторинг, алертинг, лучшие практики) со стороны эксплуатации\n•  Проведение инсталляций, апгрейдов, наката патчей и настройки дистрибутивов: ODPi Egeria, Cloudera, Hortonworks и др\n•  Подготовка инструкций для администраторов промышленных систем\n•  Обеспечение информационной безопасности на уровне инфраструктуры\n•  Управления мощностью сервиса со стороны эксплуатации\n•  Автоматизация интеграционных и функциональных тестов\n\n\nНаши требования к кандидату: \n•  Не менее 2х лет релевантного (администратор *nix) опыта работы\n•  Сильные навыки в администрировании Linux (package management, user management, shell scripting)\n•  Опыт написания скриптов автоматизации (perl, bash, powershell, python, Java, Groovy)\n•  Опыт работы с системами конфигурационного менеджмента (Puppet, Chef, Ansible, SaltStack)\n•  Опыт работы с ELK, Graylog\n•  Опыт работы с JVM-related технологиями: Java, Scala, Maven, Gradle\n•  Опыт подготовки технической документации (User Guides, Tutorials…)\n•  Опыт администрирования open source решений (трабшутинг, установка обновлений, развертывание, доступы, настройка мониторинга, диагностика узких мест, в т.ч. и производительность)\n\nБудет плюсом\n•  Опыт администрирования экосистемы Hadoop (трабшутинг, установка обновлений, развертывание, доступы, настройка мониторинга, диагностика узких мест, в т.ч. и производительность)\n•  Опыт администрирования MPP СУБД (в т.ч. backup/restore)\n•  Опыт поиска узких мест в производительности приложений со стороны оборудования (диски, cpu, gpu, сеть)\n•  Опыт построения CI/CD\n\n\n\nНаш стек:\nБек: Java 8-11, Spring, PostgreSQL/HBase/MongoDB/JanusGraph, GIT, Docker, Kubernetes, Kafka\nФронт: Vue.js\n\nУсловия: \n•  Офис в Адлере в 10 минутах до моря\n•  Оклад: 130 000 - 150 000 руб. gross\n•  Компенсация проживания 20 000 руб. gross в месяц (для кандидатов из других регионов)\n•  Релокационный бонус в размере оклада (для кандидатов из других регионов)\n•  Премия до 30% годового оклада\n•  Работа в динамичной команде единомышленников\n•  Компенсация ДМС после прохождения испытательного срока\n•  Скидки на ДМС для родственников\n•  Компенсация мобильной связи\n•  Новейшее оборудование и просторный офис\n•  Лучшая экология и климат в России\n•  Море и горнолыжный курорт рядом\n\n\nКомпания: ОЦРВ\nСайт: http://www.ocrv.ru/\nКонтакты: @Mirovan\n\n—\n\n👉 Обсуждение вакансии в чате @devops_jobs","markup":[{"type":"hashtag","offset":0,"length":9,"data":"вакансия"},{"type":"hashtag","offset":10,"length":14,"data":"разыскивается"},{"type":"hashtag","offset":25,"length":7,"data":"devops"},{"type":"hashtag","offset":33,"length":5,"data":"Java"},{"type":"hashtag","offset":39,"length":10,"data":"developer"},{"type":"hashtag","offset":50,"length":5,"data":"Сочи"},{"type":"hashtag","offset":56,"length":9,"data":"fulltime"},{"type":"hashtag","offset":66,"length":7,"data":"работа"},{"type":"hashtag","offset":74,"length":5,"data":"офис"},{"type":"link","offset":2924,"length":19,"data":"http://www.ocrv.ru/"},{"type":"handle","offset":2954,"length":8,"data":"Mirovan"},{"type":"handle","offset":2997,"length":12,"data":"devops_jobs"}],"date":"2020-06-29T14:20:07+00:00","link":"tg://resolve?domain=devops_jobs_feed&post=2157","tags":[{"name":"java"},{"name":"hadoop"},{"name":"linux"},{"name":"shell"},{"name":"perl"},{"name":"bash"},{"name":"powershell"},{"name":"python"},{"name":"groovy"},{"name":"ansible"},{"name":"jvm"},{"name":"scala"},{"name":"maven"},{"name":"gradle"},{"name":"spring"},{"name":"postgresql"},{"name":"hbase"},{"name":"mongodb"},{"name":"git"},{"name":"docker"},{"name":"kubernetes"},{"name":"kafka"},{"name":"vuejs"}],"cities":[{"code":"sochi"}],"allowsRemote":false}},{"node":{"__typename":"Job","id":"1764753408-1001091028994","title":"Java разработчик","text":"#вакансия #офис #Java #москва #senior #fulltime\nВакансия: Senior Java-разработчик в Райффайзенбанк\nВилка по ЗП: senior 265-345 gross\nМы ищем старшего Java-разработчика в команду разработки внутренних инструментов для продуктовых команд. Наша цель – быстрая, надежная и эффективная разработка продуктов и для этого нам нужны крутые инструменты и мощная инфраструктура. Если тебе интересно делать работу большого количества инженеров проще и удобней, то мы тебя ждем.\nСтек технологий: Java 11, Spring (Core, Boot, Security, Data), PostgreSQL, React, Docker, Python\nОсновные задачи:\n•  участие в разработке инструментов и инфраструктуры для продуктовых команд;\n•  написание юнит-тестов;\n•  написание документации;\n•  участие в разработке стандартов разработки и проектирования программного обеспечения.\n\nЧто мы ждем от вас:\n\n•  опыт промышленной разработки на Java не менее 3х лет;\n•  опыт применения основных паттернов проектирования;\n•  опыт разработки распределенных систем, микросервисной архитектуры;\n•  опыт работы с SQL/NoSQL-решениями;\n•  знание Maven или Gradle, опыт использования инструментов и практик CI/CD.\n•  опыт написания юнит и интеграционных тестов;\n•  понимание принципов работы по методологии Agile (Scrum, Kanban, etc.).\nПро нас:\n•  у нас очень комфортная культура и отзывчивые люди;\n•  мы вкладываемся в развитие сотрудников: отправляем на курсы, проводим митапы, делимся опытом;\n•  боремся с бюрократией, костюмы не носим.\nА еще:\n•  приятная заработная плата;\n•  1-2 раза в неделю можно работать из дома после карантина (сейчас мы полностью на удаленке);\n•  наш офис находится всего в двух минутах пешком от метро Технопарк;\n•  бесплатный спортзал на первом этаже;\n•  социальный пакет, включая ДМС с первого дня, страхование выезжающих за рубеж и от несчастных случаев;\n•  доплата по больничным, выгодный отпуск в январе и мае, корпоративный пенсионный план;\n•  льготное кредитование, программа корпоративных скидок от множества партнеров.\nКонтакт: @ZamyslovaN","markup":[{"type":"hashtag","offset":0,"length":9,"data":"вакансия"},{"type":"hashtag","offset":10,"length":5,"data":"офис"},{"type":"hashtag","offset":16,"length":5,"data":"Java"},{"type":"hashtag","offset":22,"length":7,"data":"москва"},{"type":"hashtag","offset":30,"length":7,"data":"senior"},{"type":"hashtag","offset":38,"length":9,"data":"fulltime"},{"type":"handle","offset":1970,"length":11,"data":"ZamyslovaN"}],"date":"2020-06-29T12:17:59+00:00","link":"tg://resolve?domain=jvmjobs&post=1683","tags":[{"name":"java"},{"name":"jvm"},{"name":"spring"},{"name":"postgresql"},{"name":"reactjs"},{"name":"docker"},{"name":"python"},{"name":"sql"},{"name":"nosql"},{"name":"maven"},{"name":"gradle"}],"cities":[{"code":"moscow"}],"allowsRemote":false}}]}}},"context":{}}