{"hash":"f34fd2c444a074f4e0e67d525015a008ef8e766f","data":{"records":{"totalCount":178,"pageInfo":{"totalPages":18,"currentPage":16},"edges":[{"node":{"id":"1895825408-1001134745498","title":"Devops инженер","text":"#вакансия #jenkins #aws #украина #беларусь #прибалтика #remote #удалёнка\nкомпания s-o-services\nФормат - remote\nз\\п 5-6$ gross\nУвы гражданам России, живущим в РФ - вакансия недоступна.\nHere's some of the tech we use in DevOps.\n\n- jenkins экспертное знание\n- ansible\n- gradle (some maven) погимане логов сборок и умение чётко рассказать программисту что пошло не так\n- java тюнинг, хорошее понимание работы gc(чем отличается cms от g1 и от zgc, и когда лучше взять zulu? а когда openjdk?), что и когда тюнить в jvm, настройка логов и их тюнинг\n- groovy обязателен\n- HashiCorp vault\n- AWS infrastructure, понимание ценообразования, трафика и днс, стоимости i\\o и особенностей rds\n- drone\n- cri-o/containerd\n- prometheus, grafana, elk, datadog\n- upper-intermediate обязателен\nконтакты @erzentd\n\n—\n\n👉 Обсуждение вакансии в чате @devops_jobs","markup":[{"type":"hashtag","offset":0,"length":9,"data":"вакансия"},{"type":"hashtag","offset":10,"length":8,"data":"jenkins"},{"type":"hashtag","offset":19,"length":4,"data":"aws"},{"type":"hashtag","offset":24,"length":8,"data":"украина"},{"type":"hashtag","offset":33,"length":9,"data":"беларусь"},{"type":"hashtag","offset":43,"length":11,"data":"прибалтика"},{"type":"hashtag","offset":55,"length":7,"data":"remote"},{"type":"hashtag","offset":63,"length":9,"data":"удалёнка"},{"type":"handle","offset":781,"length":8,"data":"erzentd"},{"type":"handle","offset":824,"length":12,"data":"devops_jobs"}],"date":"2020-03-13T06:47:09+00:00","link":"tg://resolve?domain=devops_jobs_feed&post=1808","tags":[{"name":"jenkins"},{"name":"amazon-web-services"},{"name":"ansible"},{"name":"gradle"},{"name":"maven"},{"name":"java"},{"name":"jvm"},{"name":"groovy"}],"cities":[],"allowsRemote":true}},{"node":{"id":"1891631104-1001134745498","title":"Devops engineer","text":"#вакансия #fulltime #devops #удалёнка\n\n💫Компания: i-techlabs\n\nЯ ищу опытного DevOps Engineer на проект по созданию Playtech Open Platform (POP) и игровой платформы как услуги (GPAS). \nОбе платформы построены с использованием архитектуры реактивных микроуслуг и написаны на языке программирования Scala.\nОни используют базу данных No-SQL Couchbase для сохранения и хранения данных.\n\n☕️Условия:\n\n• Вилка по зп 150 000 р.-200 000+р.\n• Удалённая работа\n• Полный день\n• Гибкий график\n\n💻Требования:\n\n• Более 3 лет опыта в DevOps или администрировании Linux\n• Хороший набор навыков Linux\n• Опыт работы с контейнерами Docker (сборка и развертывание)\n• Навыки программирования на Python / Bash\n• Jenkins\n• Управление Java-приложениями\n• Intermediate English \n\n☎️ Контакт: @coderhunt\n\n—\n\n👉 Обсуждение вакансии в чате @devops_jobs","markup":[{"type":"hashtag","offset":0,"length":9,"data":"вакансия"},{"type":"hashtag","offset":10,"length":9,"data":"fulltime"},{"type":"hashtag","offset":20,"length":7,"data":"devops"},{"type":"hashtag","offset":28,"length":9,"data":"удалёнка"},{"type":"handle","offset":765,"length":10,"data":"coderhunt"},{"type":"handle","offset":810,"length":12,"data":"devops_jobs"}],"date":"2020-03-12T15:07:40+00:00","link":"tg://resolve?domain=devops_jobs_feed&post=1804","tags":[{"name":"scala"},{"name":"sql"},{"name":"linux"},{"name":"docker"},{"name":"python"},{"name":"bash"},{"name":"jenkins"},{"name":"java"}],"cities":[],"allowsRemote":true}},{"node":{"id":"1889533952-1001134745498","title":"Devops инженер","text":"#вакансия #Devops #moscow #Linux #linuxsysadmin\nLinux sys admin/Devops\n\nCity: Moscow, Oktyabrskaya  \n\nWork style: office, sometimes remote\n\nWork Schedule: flexible, fulltime\n\nCompany name: System Lab\n\nDomain: Virtualization, infrastructure\n\nSalary range: 180.000..250.000 rub net\n\nResponsibilities:\nManage Docker containers with monitoring and alerting systems\nCreating and supporting Jenkins jobs for automation testing\nManage and operate Gitlab infrastructure by development CI/CD\nSystem administration of Test infrastructure\n\n\nRequirements:\nExpert-level knowledge of Linux System Administration (5 years).\nExperience with monitoring and alerting systems\nSome experience in CI/CD processes, Jenkins, pipelines\nExperience with Strace\n\nNice to have:\nExperience with building and tuning custom Linux Kernel\nSome programming skills in Python\nHand-on experience in building and administering VMs and containers using tools such as Docker, Kubernetes\n\n\nWork Conditions:\nAttractive compensation package + bonuses\nMedical insurance with dental care included and travel insurance\nRelocation bonus for candidates moving from other cities\nFlexible working hours(possible from 14,15 pm), no dress code\nCorporate discounts for purchasing devices\nMobile phone allowance\nOffice gym\nOpportunity for professional growth and career development\nFriendly team, interesting projects, the opportunity for business trips\n\nContacts: @kaizenst\n\n—\n\n👉 Обсуждение вакансии в чате @devops_jobs","markup":[{"type":"hashtag","offset":0,"length":9,"data":"вакансия"},{"type":"hashtag","offset":10,"length":7,"data":"Devops"},{"type":"hashtag","offset":18,"length":7,"data":"moscow"},{"type":"hashtag","offset":26,"length":6,"data":"Linux"},{"type":"hashtag","offset":33,"length":14,"data":"linuxsysadmin"},{"type":"handle","offset":1411,"length":9,"data":"kaizenst"},{"type":"handle","offset":1455,"length":12,"data":"devops_jobs"}],"date":"2020-03-12T13:17:03+00:00","link":"tg://resolve?domain=devops_jobs_feed&post=1802","tags":[{"name":"linux"},{"name":"dotnet"},{"name":"docker"},{"name":"jenkins"},{"name":"gitlab"},{"name":"python"},{"name":"kubernetes"},{"name":"mobile"}],"cities":[{"code":"moscow"},{"code":"nice"}],"allowsRemote":true}},{"node":{"id":"1887436800-1001134745498","title":"Devops инженер","text":"#вакансия #fulltime #teamlead #DevOps #СПБ \nПривет! \nTL Devops, 1 сотрудник в подчинении. Есть небольшая команда на стороне заказчиков. \nЛокация: Санкт-Петербург\nФормат работы: приоритет - офис, но удаленка тоже возможна. \nГрафик: 5/2 с гибким началом рабочего дня. \nЗанятость: полная\nЗарплатная вилка: от 180 до 220 на руки\n\n🧰Мы: 4xxi.com (разработка проектов-стартапов (веб, мобильные истории IOS/Android)). 90% проектов компании приходятся на зарубежный рынок (США, Англия основные страны).\n\n🍩 Плюшки: \n✔️оформление по ТК РФ (мы белые полностью);\n✔️уроки английского языка;\n✔️ДМС;\n✔️спортивные мероприятия;\n✔️обучение и развитие;\n✔️офис в центре города в стиле лофт, м.Горьковская;\n✔️кухня, забитая вкусняхами;\n\nТребования: \n☑️опыт работы на позиции системного администратора UNIX/Linux от 2х лет;\n☑️ОС: Linux/Unix (Ubuntu/Debian и CentOS/Redhat). Уровень ведущего системного администратора;\n☑️опыт автоматизации рутинных задач с помощью python/php/ruby/bash;\n☑️опыт практического использования Ansible/puppet/chef для управления конфигурациями;\n☑️опыт практического использования систем контейнеризации Docker/LXC/LXD;\n☑️администрирование серверов, сетевого оборудования;\n☑️знание сетевых протоколов, понимание протоколов маршрутизации;\n☑️опыт работы с такими сервисами AWS как SES, SNS, Container engine, Route53, S3, RDS;\n☑️Kubernetes/CoreOS.\n\n☑️список ПО, используемого компанией\n- Nginx\n- PHP(php-fpm)\n- Postgresql\n- MongoDB\n- Mysql/Percona Mysql\n- Nodejs\n- Zabbix\n- Redis\n- postfix/exim\n- bind\n\nПишите и присылайте свои резюме:  vyangurskaya@4xxi.com, @vyangurskaya\n\n—\n\n👉 Обсуждение вакансии в чате @devops_jobs","markup":[{"type":"hashtag","offset":0,"length":9,"data":"вакансия"},{"type":"hashtag","offset":10,"length":9,"data":"fulltime"},{"type":"hashtag","offset":20,"length":9,"data":"teamlead"},{"type":"hashtag","offset":30,"length":7,"data":"DevOps"},{"type":"hashtag","offset":38,"length":4,"data":"СПБ"},{"type":"link","offset":332,"length":8,"data":"http://4xxi.com"},{"type":"link","offset":1540,"length":21,"data":"mailto:vyangurskaya@4xxi.com"},{"type":"handle","offset":1563,"length":13,"data":"vyangurskaya"},{"type":"handle","offset":1611,"length":12,"data":"devops_jobs"}],"date":"2020-03-12T11:28:54+00:00","link":"tg://resolve?domain=devops_jobs_feed&post=1800","tags":[{"name":"ios"},{"name":"android"},{"name":"unix"},{"name":"linux"},{"name":"ubuntu"},{"name":"debian"},{"name":"centos"},{"name":"python"},{"name":"php"},{"name":"ruby"},{"name":"bash"},{"name":"ansible"},{"name":"docker"},{"name":"amazon-web-services"},{"name":"kubernetes"},{"name":"nginx"},{"name":"postgresql"},{"name":"mongodb"},{"name":"mysql"},{"name":"nodejs"},{"name":"redis"}],"cities":[],"allowsRemote":true}},{"node":{"id":"1882193920-1001134745498","title":"Devops инженер","text":"#вакансия #devops  #москва\n\nВакансия: DevOps\nКомпания: IBS https://www.ibs.ru/\nФормат работы: офис, возможна частичная удаленка\nГород: Москва (м. Дмитровская)\nЗП вилка: 150-230 тыс. руб. гросс\n\nОбязанности:\n•  Организация процесса непрерывной сборки приложений (CI) на базе TC\n•  Участие в разработке скриптов автоматизированного развёртывания приложений (ansible, bash)\n•  Участие в разработке/доработке технической архитектуры системы (совместно с архитектором системы), составление требований к серверам и системному ПО\n•  Сборка и развертывание приложений/разработок на разработческой, тестовой и продуктивных средах (участие, организация и настройка процесса)\n•  Мониторинг работы системы/компонентов системы, проработка принципов отказоустойчивости инфраструктуры\n•  Установка и настройка системного ПО, включая БД и прочего ПО\n•  Диагностика и устранение проблем с системным ПО и прочим ПО, решение проблем по производительности (в части системного ПО, настройки БД и прочего ПО)\n•  Организация и проведение автоматического тестирования, включая нагрузочное.\n•  Развертывание и сопровождение инструментов разработки: Gitlab, Confluence, Jira, TestRail\n•  Автоматизация деплоя стендов разработки и тестирования.\n\nТребования:\n•  Понимание и опыт поддержки, устранения проблем с сетевыми сервисами Linux\n•  Понимание принципов построения отказоустойчивых систем\n•  Опыт настройки или сопровождения CI/СD (TeamCity) и опыт автоматизации с использованием Ansible\n•  Владение Bash и/или Python\n•  Наличие опыта настройки и управления Nginx и HAProxy\n•  Знание принципов балансировки нагрузки (например, HAProxy и Citrix NetScaler)\n•  Умение работать с инструментами мониторинга Zabbix/Nagios или их аналогами.\n\nУсловия:\n•  Работа в лидирующей IT компании, профессиональное развитие\n•  Конкурентная заработная плата по результатам собеседования, ежегодный ее пересмотр\n•  Работа в команде с сильной экспертизой\n•  Обучение, участие в корпоративных тренингах/семинарах, наставничество\n•  Социальный пакет, оформление по ТК РФ\n•  Испытательный срок 3 месяца\n•  Офис Москва, м.Дмировская\n\nЕще больше о компании https://www.facebook.com/IBS.ru\n\nКонтакты: opankina@ibs.ru @itgig\n\n—\n\n👉 Обсуждение вакансии в чате @devops_jobs","markup":[{"type":"hashtag","offset":0,"length":9,"data":"вакансия"},{"type":"hashtag","offset":10,"length":7,"data":"devops"},{"type":"hashtag","offset":19,"length":7,"data":"москва"},{"type":"link","offset":59,"length":19,"data":"https://www.ibs.ru/"},{"type":"link","offset":2108,"length":31,"data":"https://www.facebook.com/IBS.ru"},{"type":"link","offset":2151,"length":15,"data":"mailto:opankina@ibs.ru"},{"type":"handle","offset":2167,"length":6,"data":"itgig"},{"type":"handle","offset":2208,"length":12,"data":"devops_jobs"}],"date":"2020-03-11T09:14:08+00:00","link":"tg://resolve?domain=devops_jobs_feed&post=1795","tags":[{"name":"ansible"},{"name":"bash"},{"name":"gitlab"},{"name":"linux"},{"name":"python"},{"name":"nginx"}],"cities":[{"code":"moscow"}],"allowsRemote":true}},{"node":{"id":"657457152-1001089319619","title":"Ruby разработчик","text":"#вакансия #удаленка #ruby #rubyonrails #rails\n\n🔶 Senior Ruby on Rails developer в frogogo.ru, удалённо\n\n🔸 опыт: от 1 года\n🔸 зарплата: от 100 000\n\n🔸 Компания: #frogogo https://frogogo.ru/\n🔶 frogogo ищет Ruby on Rails разработчика в product-команду для работы над веб-приложением.\n\n🔶 Ruby on Rails разработчик в frogogo принимает участие во всех стадиях разработки продукта, а именно:\n\n🔸  Обсуждение концепции и макетов проекта с дизайнером.\n🔸 Составление плана разработки. У нас гибкое планирование, нет строгих дедлайнов.\n🔸 Разработка нового функционала, поддержка и отладка имеющегося. \n🔸 Работа над open-source.\n\n🔶 Требования к кандидату\n\n🔸 Уверенное знание веб-стандартов и гайдлайнов, внимание к деталям и хороший вкус.\n🔸 Опыт веб-разработки от года.\nАктивность и самостоятельность.\n🔸 Умение работать удалённо.\n🔸 Уверенное знание русского языка, умение писать красивый и читаемый текст.\n🔸 Хорошее знание английского языка.\n🔸 Нас не интересует наличие диплома о высшем образовании. Но мы обращаем внимание на выполненные проекты и прошлый опыт работы\n                                                                                                      \n🔶 Бонусы\n                                                                                    \n🔸 Удалённый и очень гибкий рабочий процесс.\n🔸 Конкурентноспособная зарплата. От 100 000 ₽ в зависимости от опыта + премии. Обязательно пересматриваем зарплату каждый год. Или чаще.\n🔸 Официальное трудоустройство: оплачиваемый отпуск, больничные.\n🔸 Мы выделяем бюджет на посещение профильных конференций и курсов повышения квалификации.\n🔶  Дополнительные инструкции\nЕсли наша вакансия интересна вам, напишите по контактам, указанным ниже, с указанием вакансии, и прикрепите своё резюме и ссылку на GitHub.\n\n@larina_kristina","markup":[{"type":"hashtag","offset":0,"length":9,"data":"вакансия"},{"type":"hashtag","offset":10,"length":9,"data":"удаленка"},{"type":"hashtag","offset":20,"length":5,"data":"ruby"},{"type":"hashtag","offset":26,"length":12,"data":"rubyonrails"},{"type":"hashtag","offset":39,"length":6,"data":"rails"},{"type":"link","offset":83,"length":10,"data":"http://frogogo.ru"},{"type":"hashtag","offset":162,"length":8,"data":"frogogo"},{"type":"link","offset":171,"length":19,"data":"https://frogogo.ru/"},{"type":"handle","offset":1779,"length":16,"data":"larina_kristina"}],"date":"2020-02-27T12:32:16+00:00","link":"tg://resolve?domain=rubyjob&post=627","tags":[{"name":"ruby"},{"name":"ruby-on-rails"},{"name":"github"}],"cities":[],"allowsRemote":true}},{"node":{"id":"240123904-1001352129329","title":"Golang разработчик","text":"#вакансия #go #питер \n\n\n##Компания\n«Софтвайс» занимается разработкой ПО в области рекламы и мобильных игр.\n\n##Продукт:\n\nПрограмматик рекламная платформа с антифродовыми фильтрами. Все протоколы платформы работают с big data и построены по принципу децентрализации. Мы применяем технологии работы с высоконагруженными системами, чтобы создавать умную медийную рекламу, которую пользователь воспринимает как персональную рекомендацию.\n\n##Технологии:\n\nGolang, PostgreSQL, Redis, Kafka, KSQL, ClickHouse, Scylla, Docker, Prometheus, PHP, JS\n\nО наших объёмах: >130k RPS, несколько миллиардов событий в ClickHouse в день\n\n##Команда:\n\nтехнический отдел состоит из проектных команд: несколько команд разработки нового функционала и платформенных команд, занимающихся поддержкой и развитием ядра системы.\n\n## Задачи:\nСейчас нам требуется опытный Golang-разработчик. На Go у нас написан высоконагруженный бекенд, который мы постоянно дорабатываем, улучшаем и разбиваем на микросервисы. Нужно будет вносить изменения в такие сервисы и покрывать тестами новый функционал.\n\n##Опыт:\n\nразработка на Golang 2 года  и больше;\n\nИспользование Docker;\n\nGit;\n\n\n\nБудет плюсом, если ты:\n\nПроектировал архитектуру сервисов;\n\nУмеешь писать SQL запросы;\n\nСтримил сообщения в Kafka;\n\nРаботал с NoSQL;\n\nСталкивался с системой мониторинга Prometheus;\n\nПроверял код профилировщиком;\n\nЗнаешь *nix на уровне пользователя\n\nЕсли нет, то научим.\n\n\n## Условия:\n\nОформляем официально, все по ТК РФ;\nЗарплата в вилке 160 000 -200.000 на руки, по результатам интервью;\n\nЕздим вместе на конференции (оплачивается);\n\nНовый БЦ в 7 минутах пешком от м. Петроградская и м. Чкаловская;\n\nГибкий график работы;\n\nДМС, корпоративный английский, корпоративная растяжка;\n\n## Собеседование:\n\nпервое знакомство - удаленное интервью с рекрутером,\nа дальше техническое интервью в офисе компании;\n \nКонтакты @Kate_888\n Автор @Kate_888","markup":[{"type":"hashtag","offset":0,"length":9,"data":"вакансия"},{"type":"hashtag","offset":10,"length":3,"data":"go"},{"type":"hashtag","offset":14,"length":6,"data":"питер"},{"type":"hashtag","offset":25,"length":9,"data":"Компания"},{"type":"hashtag","offset":109,"length":8,"data":"Продукт"},{"type":"hashtag","offset":435,"length":11,"data":"Технологии"},{"type":"hashtag","offset":617,"length":8,"data":"Команда"},{"type":"hashtag","offset":1062,"length":5,"data":"Опыт"},{"type":"handle","offset":1852,"length":9,"data":"Kate_888"},{"type":"handle","offset":1869,"length":9,"data":"Kate_888"}],"date":"2020-02-26T09:48:38+00:00","link":"tg://resolve?domain=gogetajobfeed&post=229","tags":[{"name":"go"},{"name":"postgresql"},{"name":"redis"},{"name":"kafka"},{"name":"docker"},{"name":"php"},{"name":"git"},{"name":"sql"},{"name":"nosql"}],"cities":[],"allowsRemote":true}},{"node":{"id":"236978176-1001352129329","title":"Go разработчик","text":"#вакансия #aleksi #remote #percona #dollars\n \nПривет. Приходите ко мне писать SaaS-часть Percona Monitoring and Management (https://www.percona.com/software/database-tools/percona-monitoring-and-management).\n \nGo, MySQL/MongoDB/PostgreSQL и другие БД, github.com. Kubernetes желателен. Excellent English written and verbal language skills are required (ну или немного хуже, чем excellent). Отбор по Go суровый :) \n\nПолное описание вакансии: https://bit.ly/percona-saas \n\nРабота полностью удалённая (ездить 2 часа не нужно, но холодильник слишком близко). Зарплата в долларах, налоги нужно платить самому (но вести ИП на упрощёнке в России очень просто). Вилка не публична (вакансия размещена на правах непотизма), но выше чем вакансии тут.  \n\nОбщие вопросы можно спросить тут, личные в личке или (лучше) на почту alexey.palazhchenko@percona.com.\n Автор @alek_si","markup":[{"type":"hashtag","offset":0,"length":9,"data":"вакансия"},{"type":"hashtag","offset":10,"length":7,"data":"aleksi"},{"type":"hashtag","offset":18,"length":7,"data":"remote"},{"type":"hashtag","offset":26,"length":8,"data":"percona"},{"type":"hashtag","offset":35,"length":8,"data":"dollars"},{"type":"link","offset":124,"length":81,"data":"https://www.percona.com/software/database-tools/percona-monitoring-and-management"},{"type":"link","offset":252,"length":10,"data":"http://github.com"},{"type":"link","offset":441,"length":27,"data":"https://bit.ly/percona-saas"},{"type":"link","offset":813,"length":31,"data":"mailto:alexey.palazhchenko@percona.com"},{"type":"handle","offset":853,"length":8,"data":"alek_si"}],"date":"2020-02-25T11:49:33+00:00","link":"tg://resolve?domain=gogetajobfeed&post=226","tags":[{"name":"go"},{"name":"mysql"},{"name":"mongodb"},{"name":"postgresql"},{"name":"github"},{"name":"kubernetes"}],"cities":[],"allowsRemote":true}},{"node":{"id":"235929600-1001352129329","title":"Golang разработчик","text":"#вакансия #Москва #офис #Golang #fulltime\nГород и адрес офиса: Москва, м. Новокузнецкая/Павелецкая\nФормат работы: #офис\nЗанятость: #полная\nЗП: от 80к до 140к руб. нетт\n\nSports.ru – ведущий спортивный сайт в России. Мы строим сообщества людей, увлекающихся разными видами спорта, помогаем им развиваться и даем им площадку для общения.\nМы ищем к себе в команду backend-разработчика (golang), который будет разрабатывать новые решения и сервисы и сопровождать полный цикл жизни продукта от проработки архитектуры до деплоя и сопровождения продакшена.\n\nЧто предстоит делать:\n-Заниматься разработкой и интеграцией микросервисов.\n-Сопровождать полный цикл жизни продукта от проработки архитектуры до деплоя.\n-Оптимизировать работу приложений, искать узкие места.\n-Разрабатывать тематические спецпроекты к спортивным мероприятиям.\n\nЧто мы хотим от вас:\n-Владение языком Golang.\n-Понимание того, как работает HTTP/gRPC.\n-Уверенные навыки работы с SQL.\n-Понимание микросервисной архитектуры.\n-Знание основных алгоритмов, структур данных и способов защиты информации.\n\nУ нас: \n-Просторный офис в 7-ми минутах ходьбы от м.Новокузнецкая/Павелецкая.\n-Всё, что вы любите в ИТ-индустрии: высокая белая зарплата, оплачиваемые отпуска и больничные, ДМС со стоматологией, кофе, фрукты и шоколадки.\n-Мы работаем по индивидуальному графику, иногда позволяя себе поработать и удаленно. \n-Мы играем в кикер, с удовольствием едим пряники, печеньки, фрукты и пьем вкусный кофе в офисе.\n-Мы играем в футбол и баскетбол на арендованных площадках, смотрим знаковые матчи на большом проекторе и вообще любим различные внутрикорпоративные активности.\n\nНазвание компании: Sports.ru (Tribuna Digital)\n\nЕсли заинтересовало - пишите в личку (@pbuyatova), обсудим детали 😌\n Автор @pbuyatova","markup":[{"type":"hashtag","offset":0,"length":9,"data":"вакансия"},{"type":"hashtag","offset":10,"length":7,"data":"Москва"},{"type":"hashtag","offset":18,"length":5,"data":"офис"},{"type":"hashtag","offset":24,"length":7,"data":"Golang"},{"type":"hashtag","offset":32,"length":9,"data":"fulltime"},{"type":"hashtag","offset":114,"length":5,"data":"офис"},{"type":"hashtag","offset":131,"length":7,"data":"полная"},{"type":"link","offset":169,"length":9,"data":"http://Sports.ru"},{"type":"link","offset":1643,"length":9,"data":"http://Sports.ru"},{"type":"handle","offset":1710,"length":10,"data":"pbuyatova"},{"type":"handle","offset":1748,"length":10,"data":"pbuyatova"}],"date":"2020-02-20T08:38:39+00:00","link":"tg://resolve?domain=gogetajobfeed&post=225","tags":[{"name":"go"},{"name":"sql"}],"cities":[{"code":"moscow"}],"allowsRemote":true}},{"node":{"id":"233832448-1001352129329","title":"Golang разработчик","text":"#вакансия #Москва #удаленка #fulltime \nНазвание компании: xpate\nНазвание вакансии: Go developer\nЗарплатная вилка (после налогов в стандартной валюте расчетов компании): 2500 - 4000 EUR\nДоступна ли удалённая работа: да, так как вся команда распределенная\nГород: Москва \nСписок языков, которые необходимо знать: Русский, Английский\n\nСписок необходимых навыков:\n- отличные знания Golang и его экосистемы;\n- понимание принципов работы с распределёнными брокерами сообщений (Kafka / RabbitMQ);\n- опыт работы и понимание принципов построения мультипоточных систем; \n- знание SQL;\n- понимание и применение принципов разработки программного обеспечения: SOA, SOLID, KISS, DRY;\n- опыт разработки микросервисной архитектуры;\n- готовность предлагать архитектурные решения, активное участие в проектировании архитектуры продукта;\n- склонность к авантюризму и желание развиваться вместе с компанией.😉 \n\nО нас: xpate - это европейская финтех-компания, которая делает быстрый и удобный продукт в необанкинге. Мы пишем своё собственное решение банковского ядра и платёжный шлюз, который интегрируется с различными эквайринг-системами. Центральный офис в Риге, часть команды работает в Москве и удаленно.\n\nКого мы ищем: Golang разработчика, который поможет нам создать ядро банковской системы и решение по интернет-эквайрингу. В команде сейчас есть CTO, 3 фронтендера на React и 4 бэкенд разработчика на Go. Среди нас есть много ребят с разных высоконагруженных проектов, в том числе из Gett и Mail. Вся команда распределенная.\n\nКонтакты:\ntelegram: @kvrtree\nпочта: Kirill.vladimirov@xpate.com\n Автор @kvrtree","markup":[{"type":"hashtag","offset":0,"length":9,"data":"вакансия"},{"type":"hashtag","offset":10,"length":7,"data":"Москва"},{"type":"hashtag","offset":18,"length":9,"data":"удаленка"},{"type":"hashtag","offset":28,"length":9,"data":"fulltime"},{"type":"handle","offset":1533,"length":8,"data":"kvrtree"},{"type":"link","offset":1549,"length":27,"data":"mailto:Kirill.vladimirov@xpate.com"},{"type":"handle","offset":1584,"length":8,"data":"kvrtree"}],"date":"2020-02-17T16:46:02+00:00","link":"tg://resolve?domain=gogetajobfeed&post=223","tags":[{"name":"go"},{"name":"kafka"},{"name":"rabbitmq"},{"name":"sql"},{"name":"reactjs"}],"cities":[{"code":"moscow"}],"allowsRemote":true}}]}},"context":{}}