{"hash":"f5f6bf98bd95e769321482904cbbd488f77922fd","data":{"records":{"id":"russia/moscow","country":{"code":"russia","ruName":"Россия","enName":"Russia"},"city":{"code":"moscow","ruName":"Москва","enName":"Moscow"},"belongsTo":{"totalCount":476,"pageInfo":{"totalPages":48,"currentPage":32},"edges":[{"node":{"__typename":"Job","id":"71629275136-1001054966032","title":"Mobile разработчик","text":"#вакансия #mobile #ios #swift #remote #fulltime\nГород и адрес офиса: Москва, м. Технопарк\nФормат работы: удаленная \nЗанятость: полная, 5/2\nЗП:  от 140к до 200к\n\nМы - Stream, дочка МТС, IT департамент для продуктов МТС. Делаем классные и реально удобные продукты для пользователей.\n\nCейчас ищем Middle+ / Senior iOS  в проекты:\n\n1. МТС Поиск - Сервис по определению местоположения - poisk.mts.ru\nСтек: Swift, Realm, работа с локацией. Архитектура: VIP(CleanSwift).\n\n2. МТС Вторая память - Облачный сервис для хранения и обмена данными - 2memory2.mts.ru\nСтек: Swift 5.2, Cocoapods с публичными и приватными фреймворками, собственная реализация Rx, Moya, Xib & Storyboards, Realm. Архитектура MVVM.\n\nОт нас:\n- \"белая\" заработная плата с полугодовыми премиями;\n- ДМС со стоматологией + страховка;\n- корпоративная мобильная связь;\n- обучение и посещение профильных конференций. \n\nПрисоединяйся к команде, будет интересно!\n\nО компании: stream.ru\nПодробности в личке (@tanya2332)","markup":[{"type":"hashtag","offset":0,"length":9,"data":"вакансия"},{"type":"hashtag","offset":10,"length":7,"data":"mobile"},{"type":"hashtag","offset":18,"length":4,"data":"ios"},{"type":"hashtag","offset":23,"length":6,"data":"swift"},{"type":"hashtag","offset":30,"length":7,"data":"remote"},{"type":"hashtag","offset":38,"length":9,"data":"fulltime"},{"type":"bold","offset":166,"length":6,"data":""},{"type":"bold","offset":294,"length":20,"data":""},{"type":"bold","offset":331,"length":9,"data":""},{"type":"link","offset":382,"length":12,"data":"http://poisk.mts.ru"},{"type":"bold","offset":468,"length":17,"data":""},{"type":"link","offset":536,"length":15,"data":"http://2memory2.mts.ru"},{"type":"link","offset":930,"length":9,"data":"http://stream.ru"},{"type":"handle","offset":961,"length":10,"data":"tanya2332"}],"date":"2020-06-19T10:15:51+00:00","link":"tg://resolve?domain=mobile_jobs&post=0","tags":[{"name":"mobile"},{"name":"ios"},{"name":"swift"},{"name":"realm"},{"name":"cocoapods"},{"name":"mvvm"}],"cities":[{"code":"moscow"}],"allowsRemote":true}},{"node":{"__typename":"Job","id":"349175808-1001352129329","title":"Golang разработчик","text":"Ребят, всем привет! \nПростыню сюда флудить не хочется поэтому постараюсь кратко, а подробности в ЛС, заранее напишу, что это Москва (Фултайм в офис), компания Lofty. Ищем в команду как Midle так и один Senior нужен.\n Вообщем если хочется в highload, добро пожаловать!)\n\nО проекте:\nЭто высоконагруженное backend приложение для рассылки web push-уведомлений, обслуживающее на данный момент более 100млн показов в сутки. \nЧем у нас предстоит заниматься:\nПрофилировать и оптимизировать существующие сервисы;\nПроводить доработки и интеграцию их в действующий код и инфраструктуру;\nРеализовывать новые бизнес-требования внутри сервиса;\nУстранять возникающие баги в сервисе.\n\nЧто мы ждем от кандидата:\nНавыки работы с Git;\nУверенное знание Golang;\nПонимание технологий HTTP, REST;\nОпыт работы в Unix-окружении.\n\nБудет совсем круто, если вы:\nРаботали с highload-проектами;\nПонимаете и уважаете концепцию CI/CD.\nНаш стек технологий: Golang, Gitlab, MySQL, JS, RabbitMQ, Docker, Ansible, Clickhouse\n\nУсловия: \nЗаработная плата от 130 000 до 300 000 руб. на руки, естественно зависит от уровня, преимущественно смотрим \"мидов\", но и \"джуны\" нам тоже интересны.\n\n#вакансия#golang","markup":[],"date":"2020-06-19T10:03:46+00:00","link":"tg://resolve?domain=gogetajobfeed&post=333","tags":[{"name":"go"},{"name":"web"},{"name":"git"},{"name":"rest"},{"name":"unix"},{"name":"gitlab"},{"name":"mysql"},{"name":"rabbitmq"},{"name":"docker"},{"name":"ansible"}],"cities":[{"code":"moscow"}],"allowsRemote":false}},{"node":{"__typename":"Job","id":"2229272576-1001134745498","title":"Devops инженер","text":"#вакансия #офис #Москва #DevOps \n\nВакансия для азартных энтузиастов:\n\nСтартапу AVVYLAND нужен девопс, строить все с нуля )) Милейшие чуваки, очень адекватный тех.дир. Денежка на проекте есть, релиз был, инвестиции привлечены. \n\nМоя личная рекомендация к вакухе: очень хороший шанс проявить себя за вполне нормальные деньги, ребята классные! \n\nКубер, облачка, линукс - технологии на выбор\n\nВилка: 180-250, нужно будет ИП\n\nО команде:\n•  7 человек, есть фронты, бекендеры, тестировщики\n•  Создаем приложения для различных платформ. От web до AR/VR;\n•  Работаем по недельным спринтам с ежедневными стендапами;\n•  Используем Jira, Confluence, Notion, Gitlab, Docker.\nО компании:\n•  Пишем на C#, Python, JS, Golang.\n•  Работаем с современным стэком Unity3D, React, Redis, aiohttp.\n\nДля тебя подготовили:\n•  Технику, на которой приятно работать.\n•  Оплату профессиональных конференций и курсов.\n• офис с плюшками в Москве (Большая Татарская)\n• адекватное руководство и понимающую команду =)\n\nКонтакты:\nМарьяна @reanimatsiya\n\n—\n\n👉 Обсуждение вакансии в чате @devops_jobs","markup":[{"type":"hashtag","offset":0,"length":9,"data":"вакансия"},{"type":"hashtag","offset":10,"length":5,"data":"офис"},{"type":"hashtag","offset":16,"length":7,"data":"Москва"},{"type":"hashtag","offset":24,"length":7,"data":"DevOps"},{"type":"handle","offset":1003,"length":13,"data":"reanimatsiya"},{"type":"handle","offset":1051,"length":12,"data":"devops_jobs"}],"date":"2020-06-19T09:46:43+00:00","link":"tg://resolve?domain=devops_jobs_feed&post=2126","tags":[{"name":"web"},{"name":"gitlab"},{"name":"docker"},{"name":"python"},{"name":"go"},{"name":"unity3d"},{"name":"reactjs"},{"name":"redis"}],"cities":[{"code":"moscow"}],"allowsRemote":false}},{"node":{"__typename":"Job","id":"2228224000-1001134745498","title":"Devops инженер","text":"#вакансия #офис #Москва #DevSecOps \n\nИщу любителя безопасной инфраструктуры в компанию Swordfish Security.\n\nРебята интересные, команда адекватная, практикуют создание защищенных приложений, адаптируя и тиражируя практики SSDL.\n\nИх применение гарантирует премиальный уровень защищенности ПО, а максимальная автоматизация процессов при помощи инструментального стека DevSecOps обеспечивает эффективность инженерного процесса разработки. (с)\n\nВилка: 120-180+\nПожелания к опыту: 1-3 года\n\nЧто надо уметь:\n- кодить на Java или Python, уметь разбираться в чужом коде\n- знать, зачем вообще нужны DevOps-практики\n\n- Опыт работы с инструментами безопасности:\nSAST (Checkmarx, Fortify, Solar Incode) - в приоритете;\nБудет плюсом - DAST (NetSparker, Acunetix, HP WebInspect, Burp Enterprise, Wallarm FAST);\nБудет плюсом - OSA / SCA (Nexus IQ, WhiteSource, BlackDuck, Dependency Checker);\nУверенная работа с Unix системами;\nУмение находить и эксплуатировать уязвимости;\n\nБудет плюсом опыт работы с широким инструментальным стеком разработки:\n* Teamcity/Jenkins/Gitlab CI,\n* Bitbucket/GitLab,\n* Jira/Confluence,\n* Nexus Repo/Jfrog Artifactory,\n* Docker/Kubernetes;\n\nУсловия:\nОфис, Москва ст. м. ЗИЛ, Тульская, Новоданиловская набережная, 6к1\nгибкий график, плюшки \"спорт+ДМС\" :)\n\nКонтакты:\nПолина @polinathin\n\n—\n\n👉 Обсуждение вакансии в чате @devops_jobs","markup":[{"type":"hashtag","offset":0,"length":9,"data":"вакансия"},{"type":"hashtag","offset":10,"length":5,"data":"офис"},{"type":"hashtag","offset":16,"length":7,"data":"Москва"},{"type":"hashtag","offset":24,"length":10,"data":"DevSecOps"},{"type":"handle","offset":1284,"length":11,"data":"polinathin"},{"type":"handle","offset":1330,"length":12,"data":"devops_jobs"}],"date":"2020-06-19T09:38:47+00:00","link":"tg://resolve?domain=devops_jobs_feed&post=2125","tags":[{"name":"java"},{"name":"python"},{"name":"unix"},{"name":"jenkins"},{"name":"gitlab"},{"name":"docker"},{"name":"kubernetes"}],"cities":[{"code":"moscow"}],"allowsRemote":false}},{"node":{"__typename":"Job","id":"2227175424-1001134745498","title":"Devops инженер","text":"#вакансия \nГород и адрес офиса: Москва (удаленка)\nФормат работы: удаленка\nЗанятость: проектная\nЗарплатная вилка: 500-1400 р./час\nОписание вакансии: DevOps\nПодробнее: Доработать helm chart в кластере OpenShift. \nИмеется приложение микросервисной архитектуры, из порядка 10 микросервисов. Необходимо развернуть его на корпоративной платформе третьей стороны, Kubernetes в варианте OpenShift / OKD. Есть заготовка в виде Helm chart. Потребуется разобраться с доступом к корпоративному PgAAS, дисковому пространству, и соответствующим образом доработать chart.\nНазвание компании: Copenrat\nКонтакты: @andviro\n\n—\n\n👉 Обсуждение вакансии в чате @devops_jobs","markup":[{"type":"hashtag","offset":0,"length":9,"data":"вакансия"},{"type":"handle","offset":595,"length":8,"data":"andviro"},{"type":"handle","offset":638,"length":12,"data":"devops_jobs"}],"date":"2020-06-19T09:36:47+00:00","link":"tg://resolve?domain=devops_jobs_feed&post=2124","tags":[{"name":"kubernetes"}],"cities":[{"code":"moscow"}],"allowsRemote":true}},{"node":{"__typename":"Job","id":"71619837952-1001054966032","title":"Mobile разработчик","text":"#вакансия #ios #senior #middle #objectivec \n\nОчень важен опыт работы с Core Data\n\nГород: #Москва, м. Павелецкая (удалённо на период всеобщей борьбы с вирусами)\nФормат работы: #офис, #удалёнка, #гибкие_часы \n\nЗанятость: полная  \nЗарплатная вилка: от 200к до 250к руб. net \nОписание вакансии: \n\nМы разрабатываем облачные CRM решения с широким использованием мобильных устройств.   \nСейчас мы ищем middle  и senior iOS разработчиков в команду, которая внедряет приложение CT Mobile в архитектуру CRM наших клиентов в Европе.\n\nhttps://apps.apple.com/us/app/ct-mobile-for-salesforce/id1234947996\n\nНазвание компании: Customertimes.com\nКонтакты: mikhail.zinoviev@ctconsult.ru","markup":[{"type":"hashtag","offset":0,"length":9,"data":"вакансия"},{"type":"hashtag","offset":10,"length":4,"data":"ios"},{"type":"hashtag","offset":15,"length":7,"data":"senior"},{"type":"hashtag","offset":23,"length":7,"data":"middle"},{"type":"hashtag","offset":31,"length":11,"data":"objectivec"},{"type":"hashtag","offset":89,"length":7,"data":"Москва"},{"type":"hashtag","offset":175,"length":5,"data":"офис"},{"type":"hashtag","offset":182,"length":9,"data":"удалёнка"},{"type":"hashtag","offset":193,"length":12,"data":"гибкие_часы"},{"type":"link","offset":523,"length":67,"data":"https://apps.apple.com/us/app/ct-mobile-for-salesforce/id1234947996"},{"type":"link","offset":611,"length":17,"data":"http://Customertimes.com"},{"type":"link","offset":639,"length":29,"data":"mailto:mikhail.zinoviev@ctconsult.ru"}],"date":"2020-06-19T09:28:35+00:00","link":"tg://resolve?domain=mobile_jobs&post=0","tags":[{"name":"mobile"},{"name":"ios"},{"name":"dotnet"},{"name":"core-data"}],"cities":[{"code":"moscow"}],"allowsRemote":true}},{"node":{"__typename":"Job","id":"71617740800-1001054966032","title":"Android разработчик","text":"#вакансия #Android #Java #Kotlin #офис #Москва #fulltime   \n\nГород и адрес офиса: Москва, Кутузовский пр-т;\nФормат работы: офис (на период карантина удаленка)\nЗанятость: полная\nЗарплатная вилка: от 160 000 до 300 000 руб\n\nОписание вакансии: \nКомпания TEAM FORCE ищет в свою команду Android(Java/Kotlin) разработчиков  уровня Middle и выше. Проект в одном из топ-5 банков России. Предстоит разработка нового функционала текущего приложения, а также разработка новых продуктов банка. \n\nТребования:\n🔺 Опыт работы Android (Java/Kotlin) разработчиком от 2-х лет, участие в нескольких проектах.\n🔺 Опыт работы с технологиями: Java, Kotlin, RxJava, Dagger, Android Studio, Git, JIRA, Confluence\n🔺 Знание гайдлайнов мобильных приложений на базе Android\n\nКонтакты: @an_krivochenko","markup":[{"type":"hashtag","offset":0,"length":9,"data":"вакансия"},{"type":"hashtag","offset":10,"length":8,"data":"Android"},{"type":"hashtag","offset":19,"length":5,"data":"Java"},{"type":"hashtag","offset":25,"length":7,"data":"Kotlin"},{"type":"hashtag","offset":33,"length":5,"data":"офис"},{"type":"hashtag","offset":39,"length":7,"data":"Москва"},{"type":"hashtag","offset":47,"length":9,"data":"fulltime"},{"type":"handle","offset":758,"length":15,"data":"an_krivochenko"}],"date":"2020-06-19T09:06:17+00:00","link":"tg://resolve?domain=mobile_jobs&post=0","tags":[{"name":"mobile"},{"name":"android"},{"name":"java"},{"name":"kotlin"},{"name":"git"},{"name":"android-studio"}],"cities":[{"code":"moscow"}],"allowsRemote":true}},{"node":{"__typename":"Job","id":"26450329600-1001075660570","title":"Php developer","text":"#вакансия #php #magento #magento2 #петербург #москва #нижнийновгород\n\n📎Вакансия: Senior PHP developer (Magento2)\n📎Компания: First Line Software\n📎Город: Санкт-Петербург/Москва/Нижний Новгород (работа в любом из наших центров разработки, до осени в удаленном режиме)\n\n📎Мы предлагаем присоединиться к проекту по миграции крупного американского интернет-портала с Magento 1 на Magento 2. Планируется использование headless-решения на Magento2 и WordPress и генерацией на Sapper. Коммуникация в проекте осуществляется на английском языке, поэтому необходимы навыки разговорного общения.\nТехнологический стек: PHP, Magento 2, Wordpress, Sapper, HTML, CSS, Svelte JS.\nМы ищем того, кто:\n•имеет опыт разработки на PHP от 3-х лет\n•работал с Magento 2 (сертификат будет являться преимуществом)\n•владеет английским языком на уровне Intermediate и выше.\n\n📎Мы предлагаем:\n•Участие в разработке высокотехнологичных продуктов, которые используются на всех континентах, кроме Антарктиды\n•Большую команду профессиональных и творческих инженеров, которые готовы делиться своим опытом и знаниями\n•Курсы английского языка с носителями и русскоязычными преподавателями в офисе (большое количество наших заказчиков находится за рубежом, мы всегда за то, чтобы вы прокачивали свои скиллы владения английским)\n•Компенсация оплаты успешно пройденной сертификации (напр., Microsoft, Oracle и пр.)\n•Официальная зарплата и оформление по ТК РФ\n•Полис ДМС, в том числе стоматология, гибкий график, удобные рабочие места\n•На каждом этаже офиса есть уютные кухни с плюшками, фруктами, вкусным кофе и какао;\n•Возможность стать частью нашей футбольной команды, принимать участие в турнирах по кикеру, теннису, ежедневная суставная зарядка и еще много корпоративных движух :)\n\nС радостью обсужу все детали в личке @MariiaDia","markup":[{"type":"hashtag","offset":0,"length":9,"data":"вакансия"},{"type":"hashtag","offset":10,"length":4,"data":"php"},{"type":"hashtag","offset":15,"length":8,"data":"magento"},{"type":"hashtag","offset":24,"length":9,"data":"magento2"},{"type":"hashtag","offset":34,"length":10,"data":"петербург"},{"type":"hashtag","offset":45,"length":7,"data":"москва"},{"type":"hashtag","offset":53,"length":15,"data":"нижнийновгород"},{"type":"handle","offset":1784,"length":10,"data":"MariiaDia"}],"date":"2020-06-19T08:23:34+00:00","link":"tg://resolve?domain=php_jobs&post=25225","tags":[{"name":"php"},{"name":"magento"},{"name":"wordpress"},{"name":"html"},{"name":"css"},{"name":"oracle"}],"cities":[{"code":"moscow"},{"code":"nizhny-novgorod"}],"allowsRemote":true}},{"node":{"__typename":"Job","id":"103253278720-1001089317451","title":"Qa engineer","text":"#вакансия #Москва #fulltime #офис #qa #mobile\nКомпания: FunCorp\nВакансия:  QA mobile engineer\nОпыт работы: от 2-х лет\nЗарплата: 100 000 - 130 000 р. на руки\nМесторасположение: Москва, м. Белорусская\nЗанятость: fulltime, офис.\nNB! Удаленный вариант работы после выхода из карантина, к сожалению, не рассматриваем\nКонтактные данные: @chrschredinger или kristina@fun.co\n\nТребования\n- опыт тестирования мобильных приложений (iOS, Android) от года\n- опыт использования сниффера (Charles или Fiddler / Wireshark / Mitmproxy)\n- опыт работы с Android Studio / XCode\n- опыт работы с Firebase\n\nОбязанности\n- ручное тестирование (функциональное / регрессионное / исследовательское)\n- написание тестовых сценариев\n- тесная работа с менеджерами и разработчиками проекта\n\nУсловия\n- ДМС, включая стоматологию\n- бонусная система\n- обеды и ужины в офисе\n- бюджет на обучение и на фитнес\n- оплата участия в российских и зарубежных конференциях\n- отличный офис на м. Белорусская (БЦ «Белая площадь)","markup":[{"type":"hashtag","offset":0,"length":9,"data":"вакансия"},{"type":"hashtag","offset":10,"length":7,"data":"Москва"},{"type":"hashtag","offset":18,"length":9,"data":"fulltime"},{"type":"hashtag","offset":28,"length":5,"data":"офис"},{"type":"hashtag","offset":34,"length":3,"data":"qa"},{"type":"hashtag","offset":38,"length":7,"data":"mobile"},{"type":"bold","offset":46,"length":10,"data":""},{"type":"bold","offset":64,"length":10,"data":""},{"type":"bold","offset":94,"length":13,"data":""},{"type":"bold","offset":118,"length":10,"data":""},{"type":"bold","offset":157,"length":19,"data":""},{"type":"bold","offset":199,"length":10,"data":""},{"type":"underline","offset":226,"length":86,"data":""},{"type":"bold","offset":312,"length":19,"data":""},{"type":"handle","offset":331,"length":15,"data":"chrschredinger"},{"type":"link","offset":351,"length":15,"data":"mailto:kristina@fun.co"},{"type":"bold","offset":368,"length":11,"data":""},{"type":"bold","offset":584,"length":12,"data":""},{"type":"bold","offset":758,"length":8,"data":""}],"date":"2020-06-19T07:57:04+00:00","link":"tg://resolve?domain=qa_jobs&post=0","tags":[{"name":"qa"},{"name":"mobile"},{"name":"ios"},{"name":"android"},{"name":"xcode"},{"name":"firebase"},{"name":"android-studio"}],"cities":[{"code":"moscow"}],"allowsRemote":false}},{"node":{"__typename":"Job","id":"103252230144-1001089317451","title":"Qa engineer","text":"#вакансия #москва #офис #qaengineer #qa \nГород и адрес офиса: Москва, м.Автозаводская \nФормат работы: офис \nЗанятость: полная \nЗарплатная вилка: от 60 000 на руки \n\n✅QA Engineer (gamedev)\n\nОписание вакансии: \n\nКрупный мобильный проект в жанре фентези - Dragon Champions - ищет своего QA! Вы сможете работать над интересной игрой на стыке мидкорных и хардкорных механик, в окружении команды больших профессионалов с многолетним опытом.\n\n✅Что делать:\n\n•  Тестирование мобильной игры: функциональное тестирование, юзабилити тестирование, регрессионное тестирование\n•  Составление документации для тестирования: тест-кейсы, тест-план, чек-листы\n•  Тесное обсуждение функциональности игры с командой разработки\n•  Заведение всех найденных багов в трекере (Jira)\n\n✅Требования:\n\n•  Опыт работы в тестировании от одного года\n•  Понимание основ тестирования ПО, тест-планов, чек-листов, регрессионного и функционального тестирования\n•  Огромным плюсом будет наличие опыта в тестировании игр, в особенности, мобильных игр на Unity\n•  Умение работать с Jira, Confluence и Unity также будет большим плюсом\n\n✅Для вас:\n\n•  Конкурентная заработная плата, выплачивается 2 раза в месяц\n•  Необходимое оборудование для работы\n•  Коллектив творческих и позитивных людей\n\n✅О нас:\n\n•  Просторный офис 600 метров на м. Автозаводская (3 минуты от метро и от ТТК на машине) с ультра современным дизайном и кучей ништяков (кухня с вкусняшками, кальяны каждый вечер в дружной кампании, PS4 Pro + 4K TV, аркадные автоматы с Pac-Man, Metal Slug и другими хитами геймдизайна, просторная зона отдыха, 6 переговорных комнат и т д)\n•  Команда из 120 человек занимающаяся паблишингом и маркетингом, которая готова сделать продукт успешным после его готовности\n•  Возможность бесплатно обучаться английскому языку с носителями каждый будний день\n\nНазвание компании: AppQuantum\n\nКонтакты: \ne-mail: bm@adquantum.com\ntelegram: @MishaBarinov","markup":[{"type":"hashtag","offset":0,"length":9,"data":"вакансия"},{"type":"hashtag","offset":10,"length":7,"data":"москва"},{"type":"hashtag","offset":18,"length":5,"data":"офис"},{"type":"hashtag","offset":24,"length":11,"data":"qaengineer"},{"type":"hashtag","offset":36,"length":3,"data":"qa"},{"type":"bold","offset":166,"length":21,"data":""},{"type":"bold","offset":437,"length":11,"data":""},{"type":"bold","offset":759,"length":11,"data":""},{"type":"bold","offset":1096,"length":8,"data":""},{"type":"bold","offset":1253,"length":6,"data":""},{"type":"link","offset":1863,"length":16,"data":"mailto:bm@adquantum.com"},{"type":"handle","offset":1890,"length":13,"data":"MishaBarinov"}],"date":"2020-06-19T07:34:54+00:00","link":"tg://resolve?domain=qa_jobs&post=0","tags":[{"name":"qa"},{"name":"unity3d"}],"cities":[{"code":"moscow"}],"allowsRemote":false}}]}}},"context":{}}