{"hash":"f5f6bf98bd95e769321482904cbbd488f77922fd","data":{"records":{"id":"go","name":"go","belongsTo":{"totalCount":47,"pageInfo":{"totalPages":5,"currentPage":4},"edges":[{"node":{"__typename":"Job","id":"346030080-1001352129329","title":"Golang разработчик","text":"#вакансия #go #golang #офис #fulltime\nГород: Москва. Формат работы: офис \n♦️О компании:Marksman ищет golang разработчика. \nРоссийская продуктовая команда, отвечает на запрос от сегментов B2B и B2G. \n\n♦️Проект: Развитие инфраструктурного облачного решения. Highload.\n♦️Задачи: Проектирование архитектуры, разработка микросервисов на языке Go, code review. Мы активно работаем над созданием условий для развития программной экосистемы. Совершенствуется набор средств разработки (SDK) и интерфейс прикладного программирования (API).  ♦️Уровень позиции: несколько вакансий от Middle до уверенного Senior. \n\n♦️Требования: опыт коммерческой разработки  не менее 3-х лет; Golang - от 1,5 лет; опыт многопоточного программирования; опыт разработки высоконагруженных серверов или веб-приложений.\n♦️ Условия работы: Пока карантин удаленка, потом возвращение в офис. Гибкий рабочий график 5/2 (возможность выбрать время начала рабочего дня), ДМС + стоматология, отсутствие дресс-кода, возможность обучения и участия в международных конференциях за счёт компании.  По зп - зависит от уровня (смотрим от middle до senior): 140.000-240.000.\n\n♦️ За деталями - @dariaveresh","markup":[{"type":"hashtag","offset":0,"length":9,"data":"вакансия"},{"type":"hashtag","offset":10,"length":3,"data":"go"},{"type":"hashtag","offset":14,"length":7,"data":"golang"},{"type":"hashtag","offset":22,"length":5,"data":"офис"},{"type":"hashtag","offset":28,"length":9,"data":"fulltime"},{"type":"handle","offset":1145,"length":12,"data":"dariaveresh"}],"date":"2020-06-17T11:50:23+00:00","link":"tg://resolve?domain=gogetajobfeed&post=330","tags":[{"name":"go"}],"cities":[{"code":"moscow"}],"allowsRemote":true}},{"node":{"__typename":"Job","id":"103039369216-1001089317451","title":"Qa engineer","text":"#вакансия #QA #ФТ #СПб #офис \n\nВакансия: QA Engineer (ручное с переходом в АТ), Middle/Senior\nГород: Санкт-Петербург \nЗарплата: от 100 000 до 150 000 рублей на руки \nФормат: офис, полный день, полная занятость\nКомпания Wert\n\nКоманда Wert занимается разработкой финтех-решений на базе blockchain. В данным момент мы ищем Senior QA Engineer, готового трудиться над созданием и развитием нового продукта.\n\nЧто нужно будет делать:\n • Анализ задач для разработки\n • Написание тестовой документации\n • Анализ и решение технических проблем, связанных с конфигурацией сервисов\n • Работать в тесном контакте с разработчиками.\n\nОгромным плюсом будут:\n • Опыт работы в финансовом секторе/процессинге\n • Понимание технологии blockchain\n\nВ работе мы используем:\n• Golang\n• Amazon\n• Kubernetes\n• PostgreSQL\n• Redis\n\nЧто мы ожидаем от вас:\n • Опыт в тестировании как backend, так и frontend от 2-х лет\n • Умение составлять план тестирования.\n • Базовое понимание вопросов безопастности (SQL Injection, XSS, OWASP - хоть одно слово должно вызвать отклик)\n • Знание видов тестирование и понимание разницы между ними.\n • Наличие опыта работы с баг-трекинговыми и кейс-трекинговыми системами (например, с JIRA и TestRail)\n • Способность аргументированно выбирать оптимальные инструменты и решения\n • Умение работать в команде и самостоятельно\n\nЧто мы можем предложить:\n • участие в интересном проекте с “нуля”;\n • адекватную команду;\n • плоскую структуру компании без бюрократии.\n\n\nРезюме и вопросы @gonzogirl","markup":[{"type":"hashtag","offset":0,"length":9,"data":"вакансия"},{"type":"hashtag","offset":10,"length":3,"data":"QA"},{"type":"hashtag","offset":14,"length":3,"data":"ФТ"},{"type":"hashtag","offset":18,"length":4,"data":"СПб"},{"type":"hashtag","offset":23,"length":5,"data":"офис"},{"type":"handle","offset":1480,"length":10,"data":"gonzogirl"}],"date":"2020-06-17T09:47:25+00:00","link":"tg://resolve?domain=qa_jobs&post=0","tags":[{"name":"qa"},{"name":"go"},{"name":"kubernetes"},{"name":"postgresql"},{"name":"redis"},{"name":"sql"}],"cities":[],"allowsRemote":false}},{"node":{"__typename":"Job","id":"103016300544-1001089317451","title":"Qa engineer","text":"#вакансия #Москва #офис #QA #тестировщик #fulltime\n\nГород и адрес офиса: Москва, м. Новокузнецкая/Павелецкая\nФормат работы: #офис\nЗанятость: #полная\nЗП: от 80к до 120к руб. нетт\n\nSports.ru - провайдер развлечений для любителей спорта.\nЕсть спорт. Есть болельщики. Мы заполняем среду между ними, оживляем ее, наполняем общением и другими развлечениями. Мы делаем не «сайты» или «приложения», а мультиплатформенные продукты, с учетом актуальной технологической парадигмы.\n\nМы ищем Middle QA Engineer'а в наш флагманский проект Sports.ru.\nЭто главное медиа о спорте на русском языке с аудиторией 18 млн пользователей в месяц. Highload-проект с десятками тысяч RPS, состоящий из самых разных продуктов – сайтов, мобильных приложений, email-рассылок, чат-ботов и многого другого.\n\nВ данный момент мы заняты активным внедрением процесса тестирования. Под капотом - нативный js на фронте, php+perl на бэке. Все новые сервисы разрабатываем на новом стеке: vue.js+ssr+golang+graphql. Да, легаси есть - иногда попадается, но в тестирование всё же большинство задач идут на новом стеке.\n\nО задачах\nВы будете заниматься приёмкой фич и проведением регресса, написанием тестовой документации, разработкой автотестов и регистрацией ошибок в баг-трекере.\n\nО наших ожиданиях\nМы ждем, что вы уже минимум пару лет как в профессии и имеете хороший опыт ручного тестирования. Знаете различные инструменты и подходы к тестированию, обладаете навыками тест-дизайна и умеете их применять.\nПонимаете процессы разработки и тестирования, а также, что процессы не могут быть идеальными, но к этому необходимо стремиться.\nМы также ждем, что вы уже имеете навыки автоматизации и не ограничились одним инструментом.\n\nБудет плюсом\nЕсли вы уже пробовали себя в нагрузочном тестировании и автоматизации мобильных устройств.\n\nОб условиях:\nПросторный стильный офис возле м. Новокузнецкая/Третьяковская.\n“Белая” заработная плата.\nБесплатная медстраховка со стоматологией после испытательного срока.\nГибкий график работы с возможностью день-два в неделю работать удаленно.\nФрукты, снеки, чай, кофе, какао 24/7.\nКорпоративная скидка в спортзал и на занятия английским языком.\nКорпоративный футбол с тренером.\nФинансовая помощь при переезде из другого города.\nВозможности для профессионального развития.\n\nНазвание компании: Sports.ru (Tribuna Digital)\n\nКого заинтересовало, пишите мне в личку (@pbuyatova), рада буду поделиться подробностями:)","markup":[{"type":"hashtag","offset":0,"length":9,"data":"вакансия"},{"type":"hashtag","offset":10,"length":7,"data":"Москва"},{"type":"hashtag","offset":18,"length":5,"data":"офис"},{"type":"hashtag","offset":24,"length":3,"data":"QA"},{"type":"hashtag","offset":28,"length":12,"data":"тестировщик"},{"type":"hashtag","offset":41,"length":9,"data":"fulltime"},{"type":"hashtag","offset":124,"length":5,"data":"офис"},{"type":"hashtag","offset":141,"length":7,"data":"полная"},{"type":"link","offset":179,"length":9,"data":"http://Sports.ru"},{"type":"bold","offset":179,"length":9,"data":""},{"type":"bold","offset":479,"length":20,"data":""},{"type":"link","offset":525,"length":9,"data":"http://Sports.ru"},{"type":"bold","offset":1077,"length":10,"data":""},{"type":"bold","offset":1240,"length":18,"data":""},{"type":"bold","offset":1686,"length":13,"data":""},{"type":"bold","offset":1791,"length":13,"data":""},{"type":"link","offset":2284,"length":9,"data":"http://Sports.ru"},{"type":"handle","offset":2354,"length":10,"data":"pbuyatova"}],"date":"2020-06-17T07:41:47+00:00","link":"tg://resolve?domain=qa_jobs&post=0","tags":[{"name":"qa"},{"name":"php"},{"name":"perl"},{"name":"vuejs"},{"name":"go"},{"name":"graphql"}],"cities":[{"code":"moscow"}],"allowsRemote":true}},{"node":{"__typename":"Job","id":"16992174080-1001110946746","title":"Js разработчик","text":"#вакансия #москва #react\n\nИщем Frontend-разработчика\n\nГород и адрес офиса: Москва, Волгоградский проспект 42к5\nФормат работы: офис либо удаленная работа\nЗанятость: полная\nЗарплатная вилка: от 160 000 рублей до 220 000 рублей на руки\n\nОписание вакансии: \nРазработка Web-версии приложения (платформа обучения с использованием стриминговых сервисов, сервисов распознавания речи, сервисов перевода);\nВыполнение задач по frontend разработке (через Jira);\nВерстка страниц дизайн-проекта (дизайн уже отрисован в Figma)\nТребования:\nХорошее знание JS;\nХорошее знание React;\nУмение писать структурированный и понятный код;\nХорошие знания HTML/CSS;\nУмение работать с GIT;\nОпыт разработки для вэба от 3 лет;\nХорошее знание ES6;\nЗнание адаптивной верстки;\nЗнание кроссбраузерной вёрстки;\nОпыт верстки по макетам;\nУмение работать в команде и коммуницировать.\n\nТехнологический стек проекта:\nБек: Golang;\nФронт: React.js;\nИнфраструктура: Docker, Jira, Github, Jenkins, инфраструктура на сервисах Amazon\n\nНазвание компании: Everytale (www.everytale.net)\nКонтактная информация: vm@everytale.net, 89267213115\n\n—\n\n👉 Обсуждение вакансии в чате @javascript_jobs","markup":[{"type":"hashtag","offset":0,"length":9,"data":"вакансия"},{"type":"hashtag","offset":10,"length":7,"data":"москва"},{"type":"hashtag","offset":18,"length":6,"data":"react"},{"type":"link","offset":1018,"length":17,"data":"http://www.everytale.net"},{"type":"link","offset":1060,"length":16,"data":"mailto:vm@everytale.net"},{"type":"link","offset":1078,"length":11,"data":"tel:89267213115"},{"type":"handle","offset":1124,"length":16,"data":"javascript_jobs"}],"date":"2020-06-16T19:46:41+00:00","link":"tg://resolve?domain=javascript_jobs_feed&post=0","tags":[{"name":"javascript"},{"name":"reactjs"},{"name":"web"},{"name":"html"},{"name":"css"},{"name":"git"},{"name":"go"},{"name":"docker"},{"name":"github"},{"name":"jenkins"},{"name":"dotnet"}],"cities":[{"code":"moscow"}],"allowsRemote":true}},{"node":{"__typename":"Job","id":"344981504-1001352129329","title":"Go разработчик","text":"#вакансия #go #релокейт #fulltime #oфис\nНазвание компании: Toughbyte \nНазвание вакансии: Senior Go Developer\nЗарплатная вилка (до налогов): 3500-5000 EUR\nДоступна ли удалённая работа: Нет, офис, полный день.\nГород: Helsinki, Espoo\nСписок языков, которые необходимо знать: Английский \n\nСписок необходимых навыков: Go и по крайней мере, еще один надежный статически типизированный язык бэкэнда (например, Haskell, Rust, C#, Scala, Java, Elixir).\n- Опыт написания функционального кода\n- Опыт создания микросервисной архитектуры\n- Знание DevOps \n\n\nДано: Компания автоматизирует процесс проверки различных установок из воздуха с помощью дронов (например, линии электропередачи, ветрянные мельницы и тд). Они занимаются не производством самих дронов, а улучшением их производительности с помощью созданной командой компании самой развитой в мире системы воздушных датчиков. Благодаря этой технологии процесс сбора и анализа информации с помощью дронов стал намного быстрее, а затраты компаний на проверку и поддержание состояния своих установок значительно уменьшились. \n\nВ настоящий момент компания находится в поиске амбициозного Go разработчика, который бы присоединился к их команде в Хельсинки. Компания предлагает интересные и сложные задачи, связанные со сбором информации, геопривязки, анализом и обраткой 3D изображений практически в режиме реального времени, и последующая визуализация результатов с помощью современного веб интерфейса. \n\nПомимо возможности стать частью инновационного проекта, компания предлагает гибкие рабочие часы, а также возможность получить опыт с интересными технологиями в сфере дронов, географических информационных систем, интеграции датчиков - таких как LiDAR и тепловизионные камеры, ML / AI, DevOps.\nКонтактное лицо: Даша - @Daria_Shvec","markup":[{"type":"hashtag","offset":0,"length":9,"data":"вакансия"},{"type":"hashtag","offset":10,"length":3,"data":"go"},{"type":"hashtag","offset":14,"length":9,"data":"релокейт"},{"type":"hashtag","offset":24,"length":9,"data":"fulltime"},{"type":"hashtag","offset":34,"length":5,"data":"oфис"},{"type":"handle","offset":1759,"length":12,"data":"Daria_Shvec"}],"date":"2020-06-16T16:12:32+00:00","link":"tg://resolve?domain=gogetajobfeed&post=329","tags":[{"name":"go"},{"name":"haskell"},{"name":"rust"},{"name":"scala"},{"name":"java"},{"name":"elixir"}],"cities":[{"code":"helsinki"}],"allowsRemote":true}},{"node":{"__typename":"Job","id":"343932928-1001352129329","title":"Go developer","text":"Всем привет.\nЯ ищу Senior Go developer в компанию Xpate\nС опытом Go от 3-х лет, PostgreSQL от 1 года и SQL.\n\nXpate-это финтех-стартап, который создает финансовые услуги, используя дизайн-ориентированный подход, делающий процесс оплаты проще, быстрее и доступным для всех.\nXpate - это система электронных кошельков, ориентированная на розничных и бизнес-клиентов, которые стремятся сделать финансовую сферу своей жизни комфортной и легкой.\nМы пишем своё собственное решение банковского ядра и платёжный шлюз, который интегрируется с различными эквайринг-системами.\n\nЧто предстоит делать\n- Разработка и проектирование ядра банковской системы;\n- Разработка и проектирование сервиса интернет-эквайринга в рамках банковской системы.\n\nЧто нужно уметь\n- Понимание принципов работы с распределёнными брокерами сообщений (Kafka / RabbitMQ);\n- Опыт работы и понимание принципов построения мультипоточных систем;\n- Понимание и применение принципов разработки программного обеспечения: SOA, SOLID, KISS, DRY;\n- Опыт разработки микросервисной архитектуры;\n- Готовность предлагать архитектурные решения, активное участие в проектировании архитектуры продукта.\n- Чистый код (очень ВАЖНО)\n\nФормат работы:  Удаленно или Офис (Рига или МСК)\nЗанятость: Полная. оформление по ТК РФ (либо контрактная работа для иностранных граждан)\nЗарплатная вилка: 2 500–3 000 € / мес (возможна в любой валюте)\nПо всем вопросам пишите: @alex_brus\n\n#работа #удаленнка #вакансия #Go #Backend","markup":[{"type":"handle","offset":1401,"length":10,"data":"alex_brus"},{"type":"hashtag","offset":1413,"length":7,"data":"работа"},{"type":"hashtag","offset":1421,"length":10,"data":"удаленнка"},{"type":"hashtag","offset":1432,"length":9,"data":"вакансия"},{"type":"hashtag","offset":1442,"length":3,"data":"Go"},{"type":"hashtag","offset":1446,"length":8,"data":"Backend"}],"date":"2020-06-16T13:59:22+00:00","link":"tg://resolve?domain=gogetajobfeed&post=328","tags":[{"name":"go"},{"name":"postgresql"},{"name":"sql"},{"name":"kafka"},{"name":"rabbitmq"}],"cities":[{"code":"riga"}],"allowsRemote":false}},{"node":{"__typename":"Job","id":"342884352-1001352129329","title":"Golang разработчик","text":"#вакансия #fulltime #Golang #Go #удаленка \n\nНанимаем специалистов по Golang\nЗарплатная вилка: от 90 000 до 180 000 рублей ($1400-$2600)\nТребуемый опыт работы: 3-6 лет\nПолная занятость, полный день\nФормат работы: #удаленная работа либо в #офисе в Казани\n\n🔸 Необходимые навыки:\n• Уверенные знания Golang (GIN, GORM)\n• Опыт командной разработки и системой контроля версий\n• Понимание принципов построения веб-приложений\n• Опыт написания тестов\n• Английский язык на уровне чтения тех документации\n\n🔸 Обязанности:\n• Написание качественного, стабильного и поддерживаемого кода (понимание и использование SOLID принципов)\n• Участие в проектировании системы\n• Написание автотестов\n• Написание документации\n\n🔸 Будет плюсом:\n• Опыт построения высоконагруженных систем\n• Понимание принципов построения распределенных систем\n• Опыт работы с микросеривсной архитектурой\n\n🔸 Условия работы:\n• Компенсация в виде заработной платы + доля в компании\n• Удаленная работа либо работа в офисе компании\n• Интересные задачи, работу над востребованным продуктом\n\nНазвание компании: Mouselive\nКонтакты telegram: @iliadc\nEmail: ilia@mouselive.com\n\nДополнительную информацию о проекте смотрите на нашем сайте: www.mouselive.com","markup":[{"type":"hashtag","offset":0,"length":9,"data":"вакансия"},{"type":"hashtag","offset":10,"length":9,"data":"fulltime"},{"type":"hashtag","offset":20,"length":7,"data":"Golang"},{"type":"hashtag","offset":28,"length":3,"data":"Go"},{"type":"hashtag","offset":32,"length":9,"data":"удаленка"},{"type":"hashtag","offset":212,"length":10,"data":"удаленная"},{"type":"hashtag","offset":237,"length":6,"data":"офисе"},{"type":"handle","offset":1090,"length":7,"data":"iliadc"},{"type":"link","offset":1105,"length":18,"data":"mailto:ilia@mouselive.com"},{"type":"link","offset":1186,"length":17,"data":"http://www.mouselive.com"}],"date":"2020-06-16T12:20:41+00:00","link":"tg://resolve?domain=gogetajobfeed&post=327","tags":[{"name":"go"}],"cities":[],"allowsRemote":true}},{"node":{"__typename":"Job","id":"2213543936-1001134745498","title":"Devops инженер","text":"#вакансия #fulltime #devops #удалёнка\n\nГород и адрес офиса: г. Москва, метро Динамо, 12 минут пешком через Петровский парк\n\nФормат работы: офис и/или удалёнка\n\nЗанятость: полная\n\nЗарплатная вилка:  150 000 фикс на руки\n\nОписание вакансии: \n\nДрузья!\n\nИщем DevOps в образовательный онлайн-проект https://edu.sirius.online \nНас сейчас 15 человек. \nЗанимаемся бесплатным дополнительным образованием. \nДелаем его доступным и качественным.\n\nЧем надо заниматься:\n– осваивать и развивать существующую инфраструктуру\n– совершенствовать процессы CI/CD\n– автоматизировать и оптимизировать\n– внедрять новые технологии и идеи\n– заниматься поддержкой и обслуживанием сервисов\n\nЧто надо уметь:\n– быть активным и ответственным \n– учиться и развиваться самостоятельно\n\nНаши технологии одним списком:\nReact, Haskell, GoLang, PostgreSQL, Redis, MINIO, Янлекс.Облако, Kubernetes, Rancher, EFK, Grafana, Prometheus, GitLab CI/CD, HELM.\n\nВ начале поможем, научим, подскажем.\n\nНазвание компании: \nФонд «Талант и успех» (Образовательный центр «Сириус»), г. Сочи\n\nКонтакты:\n@szemskov\nszemskov@sirius.online\n\n—\n\n👉 Обсуждение вакансии в чате @devops_jobs","markup":[{"type":"hashtag","offset":0,"length":9,"data":"вакансия"},{"type":"hashtag","offset":10,"length":9,"data":"fulltime"},{"type":"hashtag","offset":20,"length":7,"data":"devops"},{"type":"hashtag","offset":28,"length":9,"data":"удалёнка"},{"type":"link","offset":294,"length":25,"data":"https://edu.sirius.online"},{"type":"handle","offset":1049,"length":9,"data":"szemskov"},{"type":"link","offset":1059,"length":22,"data":"mailto:szemskov@sirius.online"},{"type":"handle","offset":1116,"length":12,"data":"devops_jobs"}],"date":"2020-06-16T07:58:20+00:00","link":"tg://resolve?domain=devops_jobs_feed&post=2111","tags":[{"name":"reactjs"},{"name":"haskell"},{"name":"go"},{"name":"postgresql"},{"name":"redis"},{"name":"kubernetes"},{"name":"gitlab"}],"cities":[{"code":"moscow"},{"code":"sochi"}],"allowsRemote":true}},{"node":{"__typename":"Job","id":"341835776-1001352129329","title":"Golang developer","text":"#вакансия #backend  #Go #php #fulltime #moscow \n\ninDriver - международный ride-hailing сервис:\n* 47 млн пользователей в 31 стране мира.\n* Входим в топ-5 мобильных сервисов для заказа поездки по итогам января 2020 года.\n* Офис возле м. Улица 1905 года.\n\nBackend Developer (Golang/php)\nЗП вилка 160-250 тысяч\nГород Москва, только офис фуллтайм\n\nОбязанности:\n• Разработка и поддержка backend сервисов на Golang/PHP\n• Прототипирование новых решений\n• Проведение код-ревью\n• Развитие микро-сервисного подхода\n\nТребования:\n• Знание микро-сервисных, high load архитектур\n• Опыт работы в высоконагруженных проектах \n• Опыт работы с СУБД \n\nКонтакт для связи: почта lubov.iv@indriver.com или телеграм @Liuboushka888","markup":[{"type":"hashtag","offset":0,"length":9,"data":"вакансия"},{"type":"hashtag","offset":10,"length":8,"data":"backend"},{"type":"hashtag","offset":20,"length":3,"data":"Go"},{"type":"hashtag","offset":24,"length":4,"data":"php"},{"type":"hashtag","offset":29,"length":9,"data":"fulltime"},{"type":"hashtag","offset":39,"length":7,"data":"moscow"},{"type":"link","offset":656,"length":21,"data":"mailto:lubov.iv@indriver.com"},{"type":"handle","offset":691,"length":14,"data":"Liuboushka888"}],"date":"2020-06-16T06:50:11+00:00","link":"tg://resolve?domain=gogetajobfeed&post=326","tags":[{"name":"go"},{"name":"php"}],"cities":[{"code":"moscow"}],"allowsRemote":false}},{"node":{"__typename":"Job","id":"340787200-1001352129329","title":"Golang разработчик","text":"#вакансия #Москва #senior #Go #fulltime #офис #удаленка  \nВакансия: Lead or Senior Golang Developer \nКомпания: Skytech Solutions\nГород: Moscow/Malta\nФормат работы: офис или удаленка (на выбор кандидата)\nЗанятость: полная\nВилка заработной платы: от 180 000 - 230 000 р на руки\n\nТребуемый опыт работы: 3–6 лет.\nПолная занятость, полный день\n\nОбязанности:\nСоздание высоконагруженных сервисов / микро-сервисов;\nРазработка интеграции с внешними сервисами;\nРазработка платформы для Betting / Gambling;\nРазработка надежной, безопасной и безотказной экосистемы;\nРешение сложных и интересных задач;\n\nТребования:\nИметь опыт коммерческой разработки ПО на Go не менее 3-х лет, отличное знание языка и экосистемы;\nПонимание многопоточности, параллельных вычислений и широко используемых структур данных и алгоритмов;\nПонимание основных паттернов проектирования;\nУмение работать с контролем версий Git;\nУверенно знаете стек TCP / IP;\nЗнаете RFC стандартны HTTP / WebSockets;\nРаботаете с REST / GraphQL;\nЗнание лучших практик разработки микро-сервисных архитектур, Docker и опыт production релизов совместно с девопс инженерами;\nИмеете опыт написания высоконагруженных систем;\nРаботаете unix-подобными системами;\nОтличное знание SQL и одной из реляционных СУБД.\nСильные навыки решения проблем, желание работать в команде;\n\nБудет плюсом:\nПрофильное высшее образование (математическое или техническое);\nИмеете опыт разработки подобных решений (Ставки на спорт/Gambling/Poker/Trade)\nЗнание Алгоритмов\nОпыт работы с Графовыми базами данных;\n\nSoft skills:\nРешать поставленные задачи максимально эффективно в поставленный срок;\nЯвляться командным разработчиком, слышать других и учитывать чужое мнение;\nПонимать, что не надо делать overhead там, где это не надо;\nБыть самостоятельным и уметь брать на себя ответственность за свои решения;\nСчитать тестирование неотъемлемой частью разработки;\nСпокойно относиться к техническому долгу, так как это нормальный этап в развитии проекта;\n\nНемного о проекте:\nВ связи с расширением нашего портфеля проектов, мы находится в поисках квалифицированных разработчиков ПО.\nМы разрабатываем  высоконагруженный проект, связанный со ставками на sport/e-sport , фактически - это биржа ставок со своими сопутствующими сервисами, в нашем случае упор идет на Algo-trading, bot platform, AI и алгоритмы. Проект очень сложный и интересный, нет Legacy кода, все разрабатывается с 0. Будем рады видеть тебя в своих рядах.\nНаш стек :\nLinux, Go, PostgreSQL, Git, ArangoDB, Tarantool, Kafka, Redis.\n\nМы предлагаем:\nВозможность карьерного и профессионального роста в международной компании;\nРабота по контракту с зарубежной компанией (Мальта);\nВысокий уровень заработной платы;\nБонусы и премии по итогам выполненных задач;\nРазработка ведется по гибким методологиям;\nВозможна удаленная работа;\nГибкий график работы, но без фанатизма (главное - это качественное выполнение задач в сжатые сроки);\nПК - MacBook;\nМолодой профессиональный коллектив.\n\nКонтакты: telegram @FreddyNigma","markup":[{"type":"hashtag","offset":0,"length":9,"data":"вакансия"},{"type":"hashtag","offset":10,"length":7,"data":"Москва"},{"type":"hashtag","offset":18,"length":7,"data":"senior"},{"type":"hashtag","offset":26,"length":3,"data":"Go"},{"type":"hashtag","offset":30,"length":9,"data":"fulltime"},{"type":"hashtag","offset":40,"length":5,"data":"офис"},{"type":"hashtag","offset":46,"length":9,"data":"удаленка"},{"type":"handle","offset":2968,"length":12,"data":"FreddyNigma"}],"date":"2020-06-15T19:50:50+00:00","link":"tg://resolve?domain=gogetajobfeed&post=325","tags":[{"name":"go"},{"name":"git"},{"name":"rest"},{"name":"graphql"},{"name":"docker"},{"name":"unix"},{"name":"sql"},{"name":"linux"},{"name":"postgresql"},{"name":"kafka"},{"name":"redis"}],"cities":[{"code":"moscow"}],"allowsRemote":true}}]}}},"context":{}}