{"hash":"f5f6bf98bd95e769321482904cbbd488f77922fd","data":{"records":{"id":"sql","name":"sql","belongsTo":{"totalCount":169,"pageInfo":{"totalPages":17,"currentPage":3},"edges":[{"node":{"__typename":"Job","id":"2268069888-1001134745498","title":"Devops инженер","text":"#Москва #СПБ #НижнийНовгород #Краснодар #вакансия #fulltime #офис #Савеловская #Devops  #teamlead\nГород: Москва. (а так же города присутствия нашего подразделения: Санкт-Петербург, Нижний Новгород, Краснодар)\nОфис, м. Савеловская\nПолная занятость \nВилка: от 150 000 до 250 000 рублей на руки.\nКомпания \"Инфосистемы Джет\" в поисках Ведущего Devops-инженера.\n\nПривет! Мы ищем крутого девопса, который СМОЖЕТ. Сможет стать частью одной из крутых команд, которые прямо сейчас выполняют проекты по разработке для крупнейших заказчиков.\n\nСтало страшно? Не бойся! Нашими проектами управляют умопомрачительные менеджеры проектов, супертехничные-энергичные архитекторы, въедливые ведущие аналитики, лучшие тест-менеджеры и, конечно же, команда крутых DevOps-ов.\n\nМы настроены на длительное сотрудничество с нашими заказчиками и делаем страшные вещи красивыми на хорошем технологическом стеке.\n\nХочешь с нами??? найди меня в телеге @ovandrianova\n\nВот еще немного подробностей по вакансии:\n\nФормальные формальности из вакансий, которые все всё равно обсуждают.\nОбязанности:\n1) работа с потоком задач в Jira:\n- уточнение постановок задач, если автор недостаточно четко их сформулировал;\n- возврат негодных, в техническом плане, задач;\n- оценка задач по объёму работ и по сроку исполнения при текущей занятости и приоритизации;\n- своевременное смещение сроков по задачам;\n- распределение задач по инженерам команды;\n- отслеживание всего пула задач на предмет своевременного их исполнения, передачи в тестирование, и закрытия.\n2) код ревью: лид должен быть уверен в качестве того, что мы отдаём заказчику;\n3) ликвидация аварий (например, после проведения неких IT мероприятий CI сломался);\n4) разбор инцидентов (например, сломался CI, его починили, но однозначного понимания как такое произошло нет);\n5) помощь команде продуктивных инженеров, как экспертизой, так и написанием соответствующих пайплайнов для них;\n6) понимание и немедленное реагирование на нехватку инженеров для решения пула задач;\n7) выработка и согласование перспективных решений.\nЧего мы ждем :\n•отличное знание Linux RHEL, CentOS;\n•понимание процесса разработки ПО;\n•понимание микросервисной архитектуры;\n•опыт работы с git, ELK, docker, jira, zabbix;\n•опыт работы с jenkins, в частности с плагином Configuration as a Code;\n•опыт работы с kubernetes приветствуется;\n•опыт написания скриптов на bash, python, groovy, ansible;\n•опыт написания запросов в SQL приветствуется;\n•личные качества: широкий кругозор, быстрая адаптивность, стрессоустойчивость, самостоятельность, нацеленность на результат.\n\nПеченьки, ложки, вилки, десерты:\n•График работы 5/2 с 10.00 до 18.30, м. Савеловская (шаговая доступность – 5-7 минут);\n•Работу в команде профессионалов с возможностью карьерного роста;\n•Дружелюбную атмосферу внутри компании;\n•Оформление по ТК РФ;\n•Оклад + бонусы по проектам;\n•Возможности для профессионального роста (внешнее и внутреннее обучение, сертификация);\n•Возможность изучать английский язык в офисе;\n•Компенсация за фитнес;\n•Оформляется ДМС для сотрудников;\n•Медицинский кабинет в офисе;\n•Буфеты на территории компании, бесплатные завтраки.\nПо всем вопросам в личку:  @ovandrianova\n\n—\n\n👉 Обсуждение вакансии в чате @devops_jobs","markup":[{"type":"hashtag","offset":0,"length":7,"data":"Москва"},{"type":"hashtag","offset":8,"length":4,"data":"СПБ"},{"type":"hashtag","offset":13,"length":15,"data":"НижнийНовгород"},{"type":"hashtag","offset":29,"length":10,"data":"Краснодар"},{"type":"hashtag","offset":40,"length":9,"data":"вакансия"},{"type":"hashtag","offset":50,"length":9,"data":"fulltime"},{"type":"hashtag","offset":60,"length":5,"data":"офис"},{"type":"hashtag","offset":66,"length":12,"data":"Савеловская"},{"type":"hashtag","offset":79,"length":7,"data":"Devops"},{"type":"hashtag","offset":88,"length":9,"data":"teamlead"},{"type":"handle","offset":922,"length":13,"data":"ovandrianova"},{"type":"handle","offset":3134,"length":13,"data":"ovandrianova"},{"type":"handle","offset":3182,"length":12,"data":"devops_jobs"}],"date":"2020-06-30T14:22:49+00:00","link":"tg://resolve?domain=devops_jobs_feed&post=2163","tags":[{"name":"linux"},{"name":"centos"},{"name":"git"},{"name":"docker"},{"name":"jenkins"},{"name":"kubernetes"},{"name":"bash"},{"name":"python"},{"name":"groovy"},{"name":"ansible"},{"name":"sql"}],"cities":[{"code":"moscow"},{"code":"krasnodar"},{"code":"nizhny-novgorod"}],"allowsRemote":false}},{"node":{"__typename":"Job","id":"104078508032-1001089317451","title":"Qa engineer","text":"#вакансия #QA  #QAEngineer # relocation #Praha\nВакансия: Manual QA Engineer\nГород:  #Прага \nЗарплата: 💸45 000-65 000 czk gross\nФормат: #удаленно  #офис\nКомпания: Slotegrator\n\nЗадачи:\n•  Разработка и проведение ручного, функционального, регрессионного тестирования\n•  Анализ и уточнение требований, разработка и ведение тест кейсов в рамках назначенных проектов.\n•  Разработка и поддержка тестовой документации;\n•  Документирование процессов тестирования, контроль актуальности тест-кейсов\n•  Тестирование назначенных проектов или функционала (область ответственности - этап разработки и согласования требований, этап разработки и проведения тестов)\n•  Отладка программных продуктов с использованием систематических тестов\n•  Работать в тесном сотрудничестве с командой разработчиков\n\nТребования:\n•  2+ года опыта в ручных тестовых случаях, разработке сценариев тестирования, написание тестовых сценариев\n•  Знание основных критериев качества требований к ПО\n•  Знания в области тестирования и работа на веб / клиент-сервер / мобильные приложения\n•  Хорошее знание процессов тестирования, знания тестовой документации\n•  Хороший опыт анализа, устранения неполадок и решения проблем\n\nБудут преимуществом:\n•  Опыт тестирования API / веб-сервисов (Web API) и мобильных устройств\n•  Знания SQL\n\nЧто мы предлагаем?🍩\n•  Работу на различных интересных международных проектах \n•  Визовая поддержка и частичная компенсации расходов на переезд в Чехию\n•  Уроки английского и чешского языков каждую неделю \n•  Гибкое начало рабочего дня \n•  Бизнес коуч\n•  Карта MultiSport\n•  Бесплатные обеды по средам и вкусные снэки каждый день\n\nБудь частью крутых проектов!🤝\n\nКонтакты: recruiting@slotegrator.com / tlg @DarinaRecruitment","markup":[{"type":"hashtag","offset":0,"length":9,"data":"вакансия"},{"type":"hashtag","offset":10,"length":3,"data":"QA"},{"type":"hashtag","offset":15,"length":11,"data":"QAEngineer"},{"type":"hashtag","offset":40,"length":6,"data":"Praha"},{"type":"hashtag","offset":84,"length":6,"data":"Прага"},{"type":"hashtag","offset":136,"length":9,"data":"удаленно"},{"type":"hashtag","offset":147,"length":5,"data":"офис"},{"type":"link","offset":1664,"length":26,"data":"mailto:recruiting@slotegrator.com"},{"type":"handle","offset":1697,"length":18,"data":"DarinaRecruitment"}],"date":"2020-06-30T13:34:11+00:00","link":"tg://resolve?domain=qa_jobs&post=99257","tags":[{"name":"qa"},{"name":"web"},{"name":"sql"}],"cities":[{"code":"prague"}],"allowsRemote":true}},{"node":{"__typename":"Job","id":"2265972736-1001134745498","title":"Devops инженер","text":"#вакансия #Remote #работаDevOps  #удаленка \nКомпания: IDG\nФормат работы: удаленка\nЗанятость: полная\nЗарплатная вилка: $2500 до $4000\n\n👋Всем привет. \nМы занимаемся разработкой собственных образовательных проектов, а также проектов для клиентов - технологических, финансовых и аудиторских компаний.\nСейчас мы ищем DevOps инженера в дополнение к нашей текущей DevOps-команде, который будет вместе с нами делать cross-cloud big-data/ai платформу для одного из наших крупных постоянных клиентов.\nУ нас всё в k8s. Помимо этого есть spark, несколько баз данных и еще куча всего интересного. Разворачиваем с помощью Terraform/Ansible/Helm\n\n📍Требования:\n\n- Опыт работы с AWS/Azure/GCE - от 2+ лет;\n- Опыт работы с Kubernetes - от 2+ лет\n- Опыт работы со Spark - от 1 года\n- Имеет опыт настройки и администрирования БД (Mongo, Redis, Rabbit, SQL Server, Postgres, MySQL, Elastic Search)\n- Опыт разработки на Python или других подобных языках;\n- Опыт организации процесса CI/CD (jenkins, teamcity).\n- Английский на уровне Intermediate и выше.\nБудет плюсом: \n\n- Опыт работы в крупных международных компаниях;\n- Опыт работы с технологиями Big Data;\n\n📌Что мы предлагаем:\n\n- Интересные задачи и возможность реализовать свой потенциал в международных проектах компании и внутренних стартапах;\n- Гибкий график (начало и конец рабочего дня согласовываются с менеджером и командой проекта)\n- Полностью удаленная работа\n- Дополнительные выплаты за профессиональные успехи\n\nКонтакт: @IDGAccount\n\n—\n\n👉 Обсуждение вакансии в чате @devops_jobs","markup":[{"type":"hashtag","offset":0,"length":9,"data":"вакансия"},{"type":"hashtag","offset":10,"length":7,"data":"Remote"},{"type":"hashtag","offset":18,"length":13,"data":"работаDevOps"},{"type":"hashtag","offset":33,"length":9,"data":"удаленка"},{"type":"handle","offset":1465,"length":11,"data":"IDGAccount"},{"type":"handle","offset":1511,"length":12,"data":"devops_jobs"}],"date":"2020-06-30T11:03:34+00:00","link":"tg://resolve?domain=devops_jobs_feed&post=2161","tags":[{"name":"cloud"},{"name":"ansible"},{"name":"amazon-web-services"},{"name":"azure"},{"name":"kubernetes"},{"name":"redis"},{"name":"rabbitmq"},{"name":"sql"},{"name":"postgresql"},{"name":"mysql"},{"name":"elasticsearch"},{"name":"python"},{"name":"jenkins"},{"name":"sql-server"}],"cities":[],"allowsRemote":true}},{"node":{"__typename":"Job","id":"104052293632-1001089317451","title":"Qa engineer","text":"#вакансия #QA  #QAEngineer\n #удаленка\n\nВакансия: QA Engineer\nГород:  #Москва \nЗарплата: 110 gross\nФормат: #удаленно  #офис\nКомпания: 🅰 Альфа-банк\n\n🔺 Чем вы должны обладать?\n\n•  Опытом работы в тестировании от 1 года\n•  Опытом интеграционного тестирования от 1 года\n•  Знанием и опытом применения техник тест-дизайна\n•  Опытом написания тест-кейсов, чек-листов, тест-планов\n•  Знанием SQL на среднем уровне\n•  Опытом тестирования API (Rest/Soap)\n•  Пониманием принципов работы клиент-серверной архитектуры\n\n\n🔺 Что мы предлагаем?\n\n• Стабильный и прозрачный доход + квартальные премии по итогам работы\n• Гибкий график работы\n• Расширенное ДМС со стоматологией, страхование жизни\n• Эксклюзивные предложения от банка только для сотрудников\n\n☎ Контакты: @kkristinak","markup":[{"type":"hashtag","offset":0,"length":9,"data":"вакансия"},{"type":"hashtag","offset":10,"length":3,"data":"QA"},{"type":"hashtag","offset":15,"length":11,"data":"QAEngineer"},{"type":"hashtag","offset":28,"length":9,"data":"удаленка"},{"type":"hashtag","offset":69,"length":7,"data":"Москва"},{"type":"hashtag","offset":106,"length":9,"data":"удаленно"},{"type":"hashtag","offset":117,"length":5,"data":"офис"},{"type":"handle","offset":751,"length":11,"data":"kkristinak"}],"date":"2020-06-30T11:01:39+00:00","link":"tg://resolve?domain=qa_jobs&post=99232","tags":[{"name":"qa"},{"name":"sql"},{"name":"rest"},{"name":"soap"}],"cities":[{"code":"moscow"}],"allowsRemote":true}},{"node":{"__typename":"Job","id":"1768947712-1001091028994","title":"Java разработчик","text":"#backend #java #middle  \nКомпания: #ОООСервисхаб \nЛокация: #удаленка \nЗ/п: 80 000-120 000 \nКонтакты:👉 @ANASTASIAHRServicehub  \n\nВ команду, которая производит и внедряет ПО для банков, нужен Разработчик Java (удаленно или в офис во Владимир).   \n\nМы предлагаем Вам:\n  \nФедеральный ИТ проект.  \n Бесплатное обучение английскому языку и возможность выбора обучающего курса по интересующей тематике. \nСоциальный пакет, официальное трудоустройство.  \n\n\nВ проекте используется следующий стек :  \n\n✔️Java с использованием spring-boot \n✔️Axon Framework в качестве каркасных фрейворков.  \n✔️А так же JOOQ, MapStruct, Jackson для работы с внешними источниками данных.  \n✔️Для тестирования используется JUnit + Mockito.  \n✔️Для решения задач безопасности(ЭЦП) используется BouncyCastle. \n✔️CI/CD организуется средствами Gradle, Docker, Jenkins, Rancher 2, Kubernetes, Helm.  \n✔️Для хранения данных используется СУБД PostgreSQL,для организации асинхронной коммуникации применяется RabbitMQ.  \n\nЧто требуется от Вас:  \n\nЗнание языков/фреймворков, Spring, SQL, Core Java S, серверов очередей, неряляционных баз данных, web-технологий приветствуется;  \nУверенное знание Core Java, Spring IoC, SQL  \n\n❕Приветствуются экспертизы в следующих областях: сервера очередей, неряляционные базы данных, CQRS, Event Sourcing, Web-технологии \n \nБуду также благодарна за контакты и рекомендации😊 \n✍️@ANASTASIAHRServicehub hr@srvhub.ru","markup":[{"type":"hashtag","offset":0,"length":8,"data":"backend"},{"type":"hashtag","offset":9,"length":5,"data":"java"},{"type":"hashtag","offset":15,"length":7,"data":"middle"},{"type":"hashtag","offset":35,"length":13,"data":"ОООСервисхаб"},{"type":"hashtag","offset":59,"length":9,"data":"удаленка"},{"type":"handle","offset":103,"length":22,"data":"ANASTASIAHRServicehub"},{"type":"handle","offset":1374,"length":22,"data":"ANASTASIAHRServicehub"},{"type":"link","offset":1397,"length":12,"data":"mailto:hr@srvhub.ru"}],"date":"2020-06-30T08:39:05+00:00","link":"tg://resolve?domain=jvmjobs&post=1687","tags":[{"name":"java"},{"name":"jvm"},{"name":"spring"},{"name":"jackson"},{"name":"junit"},{"name":"gradle"},{"name":"docker"},{"name":"jenkins"},{"name":"kubernetes"},{"name":"postgresql"},{"name":"rabbitmq"},{"name":"sql"},{"name":"web"},{"name":"spring-boot"}],"cities":[{"code":"vladimir"}],"allowsRemote":true}},{"node":{"__typename":"Job","id":"104041807872-1001089317451","title":"Qa engineer","text":"#Москва #вакансия #QA #ручноетестирование #python #тестировщик #manual  #автотестирование #QAAutomation\n\nДолжность: QA Engineer (Manual+Auto)\nКомпания: Get IT, Москва\nЗП: ориентир - 120 000 \nФормат работы: офис, гибкое начало дня (сейчас – удаленно)\nЗанятость: полная\n\n🐬Задачи:\n- Тестирование ERP-системы;\n- Создание тест-кейсов, чек-листов и т.д. \n\n🌳Ожидания:\n- Понимание жизненного цикла разработки продукта\n- Знание теории и видов тестирования,  умение вести тестовую документацию;\n- Умение локализовать баги и оформлять баг репорты\n- Понимание и умение применять техники тест-дизайна\n- Тестирование API\n- Опыт использование Postman\n- Понимание мобильного тестирования \n- Знание и умение пользования командной строкой UNIX\n- Знание SQL (простые запросы), Git\n- Умение использовать снифферы (Charles,Fiddler и т.д.)\n- Опыт работы 1-3 года\nЖелательно:\n- Умение работать с Docker\n- Python (приветствуется желание развиваться в автотестировании!) \n\n🌴Предлагаем:\n- белая зп (ориентир - 120 000, зависит от опыта);\n- офис в центре Москвы;\n- ДМС,  курсы английского, участие в конференциях. \n\nКонтакт: @Olga11019","markup":[{"type":"hashtag","offset":0,"length":7,"data":"Москва"},{"type":"hashtag","offset":8,"length":9,"data":"вакансия"},{"type":"hashtag","offset":18,"length":3,"data":"QA"},{"type":"hashtag","offset":22,"length":19,"data":"ручноетестирование"},{"type":"hashtag","offset":42,"length":7,"data":"python"},{"type":"hashtag","offset":50,"length":12,"data":"тестировщик"},{"type":"hashtag","offset":63,"length":7,"data":"manual"},{"type":"hashtag","offset":72,"length":17,"data":"автотестирование"},{"type":"hashtag","offset":90,"length":13,"data":"QAAutomation"},{"type":"bold","offset":271,"length":8,"data":""},{"type":"bold","offset":353,"length":10,"data":""},{"type":"bold","offset":843,"length":12,"data":""},{"type":"bold","offset":952,"length":12,"data":""},{"type":"handle","offset":1101,"length":10,"data":"Olga11019"}],"date":"2020-06-30T08:28:10+00:00","link":"tg://resolve?domain=qa_jobs&post=99222","tags":[{"name":"qa"},{"name":"python"},{"name":"unix"},{"name":"sql"},{"name":"git"},{"name":"docker"}],"cities":[{"code":"moscow"}],"allowsRemote":true}},{"node":{"__typename":"Job","id":"104039710720-1001089317451","title":"Qa engineer","text":"#Москва  #QA  #вакансия #офис\nКомпания: Start.ru\n\nМы ищем коллег, которые смогут влиться в нашу команду и вместе с нами развивать и совершенствовать наш сервис!\nУ Вас есть возможность стать частью команды, развивающей первую в Восточной Европе студию с собственным международным VOD сервисом.\nВ данный момент мы усиляем нашу команду по тестированию и в поисках позиций Backend QA Engineer и QA Automation Engineer (python)\n\n———————————\nДолжность: Backend QA Engineer\nЗарплатная вилка: От 80.р. до 120т.р. по результатам собеседования\n\nКакие задачи вы будете решать:\n- Прогон описаных кейсов в TestRail и документация найденых дефектов;\n- Тестирование API (программного интерфейса платформы);\n- Разработка тестовых сценариев;\n- Взаимодействие с разработчиками и сопровождение дефектов до полного их решения;\n- Отладка и сбор логов в процессе воспроизведения проблем\n- Проведение регрессионного тестирования\n\nЧего мы хотим:\n- Вас не пугает работа с командной строкой чаще чем работа с графическим интерфейсом\n- Работа с chromedev tools и командной строкой (bash);\n- Знание и понимания клиент-серверной архитектуры приложений;\n- Понимание принципов работы веб-приложений;\n- Умение грамотно составлять свои мысли в предложения и описывать дефекты, чтобы понятно было разработчикам;\n- Навыки работы с технической документацией, анализ и вычленение требований;\n- Работали с программами-снифферами и проксями траффика (charles/wireshark/fiddler/mitmproxy etc)\n\nБудет плюсом:\n- Если знаете python на уровне, достаточном для автоматизации и сможете прочитать код который на нем написан\n- Знаете что такое DOM-дерево, локаторы и селекторы в контексте веб-приложения\n\n—————————\nДолжность: QA Automation Engineer\nЗарплатная вилка: От 130.р. до 170т.р. по результатам собеседования\n\nУ нас:\nВ нашем проекте есть автоматизация тестирования как API, так и WEB UI. \nНаш стек: Python3, PyTest, Requests, Selenium WebDriver, Selenoid, DB clients (MongoDB, PostgreSQL), JSON validation (jsonschema), TestRail API, Telegram API, GitLab CI. \nПомимо автотестов мы разрабатываем проект нагрузочного тестирования на Locust.\n\nВаши задачи:\n- Расширение покрытия автотестов API, WEB UI\n- Поддержка автотестов в актуальном состоянии\n- Анализ прохождения тестов с возможным заведением багов в Jira\n- Ревью кода\n- Ведение тестовой - документации\n- Написание сценариев нагрузочного тестирования\n\nТребования:\n- Хорошее знание теории тестирования\n- Опыт автоматизированного тестирования от 2х лет\n- Знание Python3, PyTest\n- Навыки написания и использования тестовой документации\n- Умение писать простые запросы на SQL и в MongoDB\n- Навыки работы с Git\n- Обсуждение проблем приложения с разработчиками\n\nБудет плюсом:\n- Опыт написания архитектуры проекта автотестов с нуля\n- Работа с Docker, Docker Compose\n- Опыт работы с Telegram API\n- Опыт описания JSON схем для валидации ответов API\n- Базовые знания в Linux\n\nОт нас:\n- На данный момент условия сотрудничества удаленные, но при нормализации ситуации мы выйдем в офис\n- Офис в районе Хамовники (территориально м.Киевская, м. Спортивная в 20.мин ходьбы)\n- График работы: 5/2 начинаем с 9  до 11 (в целом гибкий - главное результат);\n- Оформление в соответствии с ТК РФ (белая зарплата, отпускные, больничные);\n- Все возможности для прокачки имеющихся скиллов и получения новых;\n- Драйвовая и высокопрофессиональная команда единомышленников;\n- Возможность стать частью динамично развивающегося видеосервиса.\n\n\nВопросы и отклики по вакансии писать в tlgrm: @unambo OR emailto: v.selyanin@start.ru","markup":[{"type":"hashtag","offset":0,"length":7,"data":"Москва"},{"type":"hashtag","offset":9,"length":3,"data":"QA"},{"type":"hashtag","offset":14,"length":9,"data":"вакансия"},{"type":"hashtag","offset":24,"length":5,"data":"офис"},{"type":"link","offset":40,"length":8,"data":"http://Start.ru"},{"type":"handle","offset":3471,"length":7,"data":"unambo"},{"type":"link","offset":3491,"length":19,"data":"mailto:v.selyanin@start.ru"}],"date":"2020-06-30T08:06:32+00:00","link":"tg://resolve?domain=qa_jobs&post=99220","tags":[{"name":"qa"},{"name":"python"},{"name":"bash"},{"name":"web"},{"name":"selenium"},{"name":"mongodb"},{"name":"postgresql"},{"name":"json"},{"name":"gitlab"},{"name":"sql"},{"name":"git"},{"name":"docker"},{"name":"linux"},{"name":"docker-compose"}],"cities":[{"code":"moscow"},{"code":"kiev"}],"allowsRemote":false}},{"node":{"__typename":"Job","id":"26846691328-1001075660570","title":"Php разработчик","text":"#вакансия #москва #офис #fulltime #yii2 #php #job\n\nВсем привет!\nСейчас нахожусь в поиске крутого разработчика :)\n\n Позиция: Senior PHP Developer\nЗанятость: полная\nКомпания: ТД ЦУМ \nЛокация: Москва\nЗ/П: до 280 000\n\n   Основные цели и задачи:\n- Разработка программных модулей продуктов компании;\n- Глубокое погружение в процессы работы интернет-магазина;\n- Участие в разработке сервис-ориентированной архитектуре приложения.\n\n   Основные обязанности:\n- Разработка и поддержка инфраструктуры интернет-проекта, мобильного приложения и внутренних сервисов компании;\n- Разработка программных модулей продуктов интернет магазина ЦУМ;\n- Оптимизация приложения под высокую нагрузку, масштабирование, поиск узких мест;\n- Интеграция со сторонними сервисами;\n- Предложение и внедрение высокотехнологичных, инновационных решений.\n\nТребования:\n- Отличное знание и опыт работы с PHP 7 от 3 лет;\n- Понимание как устроен HTTP, REST;\n- Знание и понимание MVC архитектуры;\n- Знание и опыт работы фреймворком YII;\n- Опыт работы с одной или несколькими БД: MySQL, Redis, Mongo;\n- Опыт мониторинга и оптимизации SQL-запросов;\n\n   Условия работы:\n- Полный рабочий день  (гибкое утро - возможность начала рабочего дня с 9:00 до 12:00)\n- Официальное оформление по трудовому договору.\n- Офис в центре Москвы.\n- ДМС.\n- Корпоративное обучение.\n- Скидки от партнеров компании.\n\nЕсли остались вопросы, с радостью отвечу:\n @nastyaklassnaya","markup":[{"type":"hashtag","offset":0,"length":9,"data":"вакансия"},{"type":"hashtag","offset":10,"length":7,"data":"москва"},{"type":"hashtag","offset":18,"length":5,"data":"офис"},{"type":"hashtag","offset":24,"length":9,"data":"fulltime"},{"type":"hashtag","offset":34,"length":5,"data":"yii2"},{"type":"hashtag","offset":40,"length":4,"data":"php"},{"type":"hashtag","offset":45,"length":4,"data":"job"},{"type":"handle","offset":1392,"length":16,"data":"nastyaklassnaya"}],"date":"2020-06-30T07:36:11+00:00","link":"tg://resolve?domain=php_jobs&post=25603","tags":[{"name":"php"},{"name":"yii"},{"name":"rest"},{"name":"mysql"},{"name":"redis"},{"name":"sql"}],"cities":[{"code":"moscow"}],"allowsRemote":false}},{"node":{"__typename":"Job","id":"104031322112-1001089317451","title":"Qa инженер","text":"#qa #вакансия #fulltime #удаленно\nКомпания: КлаудФэктори (cloudfactory.ru) \n\nCloudfactory  –компания разработчик мобильных приложений. Наша специализация это создание инвестиционных для финансовых компаний и банков на основе собственной платформы. Наши приложения входят в ТОП-100 App Store и Google Play.\n\n\nДолжность: Инженер по ручному и автоматизированному тестированию (QA & Automation Engineer)\n\nПриглашаем  инженера по тестированию в распределенную команда (~50 человек) на интенсивное выполнение задач.\n\nЗП от  100к и по результатам собеседования\nОформление по ТК или возможны иные варианты сотрудничества\n\nОбязанности\n•  Тестирование мобильного приложения (приемочное, регрессионное, исследовательское)\n•  Разбор дефектов, полученных от поддержки\n•  Ведение тестовой документации\n•  Подготовка тестовой среды (формирование данных, локальные изменения хранимых процедур)\n\nТребуемые навыки\n•  Понимание принципов работы мобильного приложения\n•  Знания методов и техник тестирования\n•  Умение работать с Postman / Swagger или аналогами\n•  Умение работать с Fiddler / Charles / Mitmproxy или аналогами\n•  Базовые знания SQL\n•  Самостоятельность и самоорганизованность\n•  Опыт работы от 1 года\nЛичные качества:\n•  Аналитические способности;\n•  Системное мышление;\n•  Ответственность.\n•  Умение работать в команде.\n•  Целеустремленность.\nУсловия работы:\n•  Удаленная работа на полный рабочий день\n•  Работа в стабильной компании\n•  ЗП без задержек.\n•  Оформление по ТК РФ\n•  График работы: 5/2\n\nУ нас интересная команда и хорошие проекты (топ 100 в google play и app store)\nЕсли вас заинтересовало наше предложение, ждем ваши отклики на e-mail: guskov@cloudfactory.ru  или в Телеграмм  @ConstG","markup":[{"type":"hashtag","offset":0,"length":3,"data":"qa"},{"type":"hashtag","offset":4,"length":9,"data":"вакансия"},{"type":"hashtag","offset":14,"length":9,"data":"fulltime"},{"type":"hashtag","offset":24,"length":9,"data":"удаленно"},{"type":"link","offset":58,"length":15,"data":"http://cloudfactory.ru"},{"type":"link","offset":1647,"length":22,"data":"mailto:guskov@cloudfactory.ru"},{"type":"handle","offset":1688,"length":7,"data":"ConstG"}],"date":"2020-06-30T07:23:10+00:00","link":"tg://resolve?domain=qa_jobs&post=99212","tags":[{"name":"qa"},{"name":"playframework"},{"name":"swagger"},{"name":"sql"}],"cities":[],"allowsRemote":true}},{"node":{"__typename":"Job","id":"358612992-1001352129329","title":"Golang разработчик","text":"#вакансия #Москва #офис #удаленка #Golang #fulltime\n\nГород и адрес офиса: Москва, м. Новокузнецкая/Павелецкая\nФормат работы: #офис, #удаленка\nЗанятость: #полная\nЗП: от 120к до 200к руб. нетт\n\nSports.ru – ведущий спортивный сайт в России. Мы строим сообщества людей, увлекающихся разными видами спорта, помогаем им развиваться и даем им площадку для общения. Сейчас мы ищем Backend-разработчика (Golang/PHP) в команду нашего проекта Betting Insider.\n\nBetting Insider — социальная сеть для любителей ставок. Мы верим, что ставки — неотъемлемая часть рынка спортивных развлечений, и стремимся сделать этот рынок прозрачнее и интереснее для пользователей. Мы не принимаем ставок на реальные деньги, но даем пользователям множество вспомогательных сервисов, которые делают их игру проще, безопаснее и интереснее.\n\nО задачах:\nВы будете участвовать в продуктовой разработке на всех стадиях: от обсуждения фич и проработки архитектуры до деплоя и мониторинга работы.\nРазрабатывать микросервисы на Go, перевода на них наш монолит на PHP. Поддержкой монолита тоже нужно будет заниматься. Разрабатывать GraphQL API для web-версии и приложений iOS и Android.\nОптимизировать работу приложений, искать проблемы с производительностью и надежностью. Покрывать код тестами и проводить код ревью.\nЕще сможете принять участие в разработке core сервисов для sports.ru и других наших проектов с MAU больше 20 млн.\n\nО технологиях:\nGo как основной язык. PHP сервис для поддержки и переписывания на Go.\nGraphQL для клиентов. gRPC и JSON over HTTP для межсервисного взаимодействия.\nРазвертывание docker контейнеров в kubernetes. Деплой через gitlab CI и helm чарты.\nМониторинг, трейсинг и алертинг c помощью Grafana и Prometheus, Kibana, Sentry, Elasticsearch APM.\nPostgres 12 и MySQL 8.0.\nNsq и RabbitMQ в качестве очереди событий. Redis для Pub/Sub.\n\nО наших ожиданиях:\nМы ожидаем, что вы имеете опыт разработки микросервисов на Go. Имеете опыт работы с PHP и все еще можете и хотите с ним взаимодействовать. Имеете навыки построения производительных и отказоустойчивых систем.\nЗнаете основы используемых технологий и понимаете, как их использовать: SQL, Go, PHP, message queue, сетевое взаимодействие, кеширование, системы мониторинга и т.д.\nУ вас есть опыт написания тестов равного уровня: Unit, Integration, E2E.\nОпыт взаимодействия с GraphQL и gRPC будет плюсом.\nКлассно, если вы любите спорт. Еще лучше, если вы интересуетесь ставками.\n\nОб условиях: \nПросторный стильный офис возле м. Новокузнецкая/Третьяковская.\n“Белая” заработная плата.\nБесплатная медстраховка со стоматологией после испытательного срока.\nГибкий график работы с возможностью день-два в неделю работать удаленно,\nФрукты, снеки, чай, кофе, какао 24/7.\nКорпоративная скидка в спортзал и на занятия английским языком.\nКорпоративный футбол с тренером.\nФинансовая помощь при переезде из другого города.\nВозможности для профессионального развития.\n\nНазвание компании: Sports.ru (Tribuna Digital)\nКому интересно, пишите в личку (@pbuyatova), поделюсь подробностями)","markup":[{"type":"hashtag","offset":0,"length":9,"data":"вакансия"},{"type":"hashtag","offset":10,"length":7,"data":"Москва"},{"type":"hashtag","offset":18,"length":5,"data":"офис"},{"type":"hashtag","offset":24,"length":9,"data":"удаленка"},{"type":"hashtag","offset":34,"length":7,"data":"Golang"},{"type":"hashtag","offset":42,"length":9,"data":"fulltime"},{"type":"hashtag","offset":125,"length":5,"data":"офис"},{"type":"hashtag","offset":132,"length":9,"data":"удаленка"},{"type":"hashtag","offset":153,"length":7,"data":"полная"},{"type":"link","offset":192,"length":9,"data":"http://Sports.ru"},{"type":"link","offset":1338,"length":9,"data":"http://sports.ru"},{"type":"link","offset":2913,"length":9,"data":"http://Sports.ru"},{"type":"handle","offset":2973,"length":10,"data":"pbuyatova"}],"date":"2020-06-29T15:38:06+00:00","link":"tg://resolve?domain=gogetajobfeed&post=342","tags":[{"name":"go"},{"name":"php"},{"name":"graphql"},{"name":"web"},{"name":"ios"},{"name":"android"},{"name":"json"},{"name":"docker"},{"name":"kubernetes"},{"name":"gitlab"},{"name":"elasticsearch"},{"name":"postgresql"},{"name":"mysql"},{"name":"rabbitmq"},{"name":"redis"},{"name":"sql"}],"cities":[{"code":"moscow"}],"allowsRemote":true}}]}}},"context":{}}