{"hash":"f34fd2c444a074f4e0e67d525015a008ef8e766f","data":{"records":{"id":"java","name":"java","belongsTo":{"totalCount":123,"pageInfo":{"totalPages":13,"currentPage":13},"edges":[{"node":{"__typename":"Job","id":"221249536-1001352129329","title":"Golang developer","text":"#вакансия Golang developer\n#вакансия #работа #кипр #cyprus #fulltime #relocate #релокация #golang #developer #\n\nКомпания: TrafficStars\nГород: Лимасcол, Кипр\nФормат работы: офис\nЗанятость: полная\nЗарплатная вилка: от 2500 до 3500 евро на руки\nЯзыки: русский, английский на уровне свободного чтения технической документации, митинги на русском\n\nОбязанности: Разработка серверной части высоконагруженной рекламной сети на Golang.\n\nТребования:\n  Опыт веб-разработки не менее 3 лет;\n  Знание паттернов программирования MVC, ООП;\n  Отличное знание Go;\n  Отличное знание сетевых протоколов;\n  Опыт работы с реляционными базами данных, хорошее знание SQL;\n  Опыт работы с NoSQL;\n  Опыт командной работы (трекеры, знание Git, понимание Git Flow);\n  Умение разбираться в чужом коде.\n  \nМы приветствуем:\n  Знание языков C/C++, Python, Java, Erlang, NodeJs;\n  Опыт работы с высокими нагрузками;\n  Любовь к деталям и желание делать хорошо свою работу, а не так чтобы “просто работало“;\n  Умение отстаивать свою позицию, при этом прислушиваться к другим мнениям и сообща находить компромисс;\n  Желание развиваться и постигать новое;\n  Ориентацию на результат.\n  \nЧто у нас есть интересного кроме задач:\n  Современный новый офис в центре Лимассола;\n  Отсутствие дресс-кода и бюрократии;\n  Молодая нескучная команда с горящими глазами;\n  Профессиональное развитие в быстрорастущем проекте;\n  Медицинская страховка и мобильная связь;\n  Бесплатные вкусные обеды;\n  Уроки и практика английского в офисе;\n  Билет до Кипра за счёт компании, помощь с переездом семьи;\n  Первое время помогаем с жильем и транспортом.\n\nКонтакты: +35795588440\ntelegram: sofia_tomashevich\ne-mail: sofia@trafficstars.com\n Автор @sofia_tomashevich","markup":[{"type":"hashtag","offset":0,"length":9,"data":"вакансия"},{"type":"hashtag","offset":27,"length":9,"data":"вакансия"},{"type":"hashtag","offset":37,"length":7,"data":"работа"},{"type":"hashtag","offset":45,"length":5,"data":"кипр"},{"type":"hashtag","offset":51,"length":7,"data":"cyprus"},{"type":"hashtag","offset":59,"length":9,"data":"fulltime"},{"type":"hashtag","offset":69,"length":9,"data":"relocate"},{"type":"hashtag","offset":79,"length":10,"data":"релокация"},{"type":"hashtag","offset":90,"length":7,"data":"golang"},{"type":"hashtag","offset":98,"length":10,"data":"developer"},{"type":"link","offset":1605,"length":12,"data":"tel:+35795588440"},{"type":"link","offset":1654,"length":22,"data":"mailto:sofia@trafficstars.com"},{"type":"handle","offset":1684,"length":18,"data":"sofia_tomashevich"}],"date":"2020-02-05T15:30:18+00:00","link":"tg://resolve?domain=gogetajobfeed&post=211","tags":[{"name":"go"},{"name":"sql"},{"name":"nosql"},{"name":"git"},{"name":"python"},{"name":"java"},{"name":"erlang"},{"name":"nodejs"}],"cities":[{"code":"sofia"}],"allowsRemote":false}},{"node":{"__typename":"Job","id":"208666624-1001352129329","title":"Golang разработчик","text":"#вакансия #godeveloper #golang #backend #fulltime #офис #senior #techlead\n\nВсем привет! В поиске талантливого и клёвого техлида. \nЕсли вы были ведущим разработчиком, если вы сеньор или техлид, и вилка вам подходит, то welcome. \nДаже если опыта менеджера не было, но вы сеньор/ведущий разработчик - welcome. \nА ещё если у вас немного опыта на Go, но есть хороший опыт на java - welcome. \nПро проект напишу в лс, если вам подходит вилка по зп (больше 250net, к сожалению, не рассматриваем). \n\nСписок необходимых навыков:\n- Golang/Java\n- Docker\n- SQL (В основном Postgres)\n- NoSQL (Redis/Elastic/Couchbase/Mongo/etc.. - зависит от задач)\n- REST/gRPC \n- Kubernetes\n\nЗ/П: 180 000 - 250 000 net (обсуждаемо)\nУдаленка: нет\nЛокация: Москва, м. Смоленская\nКомпания: МТС ИТ\nКонтакты: @horthekifo \n\nЧто нужно делать?\nРазрабатывать бекенд web-приложения и участвовать в проектировании архитектуры, проводить code review. \n\nЧто мы предлагаем:\n- Белая ЗП, премия 20% от годового оклада;\n- ДМС со стоматологией;\n- Хакатоны, митапы, конференции;\n- Гибкое начало рабочего дня;\n- Корпоративная связь, доп. дни ежегодного отпуска;\n- Офис у м. Смоленская (7 мин. пешком).\n Автор @Horthekifo","markup":[{"type":"hashtag","offset":0,"length":9,"data":"вакансия"},{"type":"hashtag","offset":10,"length":12,"data":"godeveloper"},{"type":"hashtag","offset":23,"length":7,"data":"golang"},{"type":"hashtag","offset":31,"length":8,"data":"backend"},{"type":"hashtag","offset":40,"length":9,"data":"fulltime"},{"type":"hashtag","offset":50,"length":5,"data":"офис"},{"type":"hashtag","offset":56,"length":7,"data":"senior"},{"type":"hashtag","offset":64,"length":9,"data":"techlead"},{"type":"handle","offset":774,"length":11,"data":"horthekifo"},{"type":"handle","offset":1159,"length":11,"data":"Horthekifo"}],"date":"2020-01-21T09:10:55+00:00","link":"tg://resolve?domain=gogetajobfeed&post=199","tags":[{"name":"go"},{"name":"java"},{"name":"dotnet"},{"name":"docker"},{"name":"sql"},{"name":"postgresql"},{"name":"nosql"},{"name":"redis"},{"name":"elasticsearch"},{"name":"rest"},{"name":"kubernetes"},{"name":"web"}],"cities":[{"code":"moscow"}],"allowsRemote":false}},{"node":{"__typename":"Job","id":"207618048-1001352129329","title":"Golang разработчик","text":"#вакансия #godeveloper #golang #backend #fulltime #офис #senior #techlead\n\nВсем привет! В поиске талантливого и клёвого техлида. \nЕсли вы были ведущим разработчиком, если вы сеньор или техлид, и вилка вам подходит, то welcome. \nДаже если опыта менеджера не было, но вы сеньор/ведущий разработчик - welcome. \nА ещё если у вас немного опыта на Go, но есть хороший опыт на java - welcome. \nПро проект напишу в лс, если вам подходит вилка по зп (больше 250net, к сожалению, не рассматриваем). \n\nСписок необходимых навыков:\n- Golang/Java\n- Docker\n- SQL (В основном Postgres)\n- NoSQL (Redis/Elastic/Couchbase/Mongo/etc.. - зависит от задач)\n- REST/gRPC \n- Kubernetes\n\nЗ/П: 180 000 - 250 000 net (обсуждаемо)\nУдаленка: нет\nЛокация: Москва, м. Смоленская\nКомпания: МТС ИТ\nКонтакты: @horthekifo \n\nЧто нужно делать?\nРазрабатывать бекенд web-приложения и участвовать в проектировании архитектуры, проводить code review. \n\nЧто мы предлагаем:\n- Белая ЗП, премия 20% от годового оклада;\n- ДМС со стоматологией;\n- Хакатоны, митапы, конференции;\n- Гибкое начало рабочего дня;\n- Корпоративная связь, доп. дни ежегодного отпуска;\n- Офис у м. Смоленская (7 мин. пешком).\n Автор @Horthekifo","markup":[{"type":"hashtag","offset":0,"length":9,"data":"вакансия"},{"type":"hashtag","offset":10,"length":12,"data":"godeveloper"},{"type":"hashtag","offset":23,"length":7,"data":"golang"},{"type":"hashtag","offset":31,"length":8,"data":"backend"},{"type":"hashtag","offset":40,"length":9,"data":"fulltime"},{"type":"hashtag","offset":50,"length":5,"data":"офис"},{"type":"hashtag","offset":56,"length":7,"data":"senior"},{"type":"hashtag","offset":64,"length":9,"data":"techlead"},{"type":"handle","offset":774,"length":11,"data":"horthekifo"},{"type":"handle","offset":1159,"length":11,"data":"Horthekifo"}],"date":"2020-01-21T09:10:53+00:00","link":"tg://resolve?domain=gogetajobfeed&post=198","tags":[{"name":"go"},{"name":"java"},{"name":"dotnet"},{"name":"docker"},{"name":"sql"},{"name":"postgresql"},{"name":"nosql"},{"name":"redis"},{"name":"elasticsearch"},{"name":"rest"},{"name":"kubernetes"},{"name":"web"}],"cities":[{"code":"moscow"}],"allowsRemote":false}}]}}},"context":{}}