{"hash":"f5f6bf98bd95e769321482904cbbd488f77922fd","data":{"records":{"id":"vuejs","name":"vuejs","belongsTo":{"totalCount":82,"pageInfo":{"totalPages":9,"currentPage":5},"edges":[{"node":{"__typename":"Job","id":"17109614592-1001110946746","title":"Js разработчик","text":"#вакансия #удаленно #fullstack #JavaScript #NodeJS #Vue #middle #senior\n\nГород: г. Москва, Сколково, б-р Большой\nФорма работы: удаленка\nЗанятость: полная\nЗарплатная вилка: от 120000 до 200000 рублей\nНазвание компании: ADMON\n\nВ связи с расширением штата, компания ADMON приглашает Middle/Senior Full-stack JavaScript-разработчиков, готовых стать полноценными членами нашей команды на удаленной основе или в Новосибирском офисе. ADMON – одна из ведущих российских компаний по предотвращению и расследованию мошенничества в сфере рекламы в Интернете и на мобильных устройствах с использованием высоких технологий. Основные направления деятельности компании: мониторинг и предотвращение мошенничества, аудит рекламных кампаний, разработка инновационных программных продуктов по мониторингу, обнаружению и предотвращению возникающих видов мошенничества.\n\nСтек технологий:\nNode.JS, Vue, GraphQl, Jest, Redis, Clickhouse, PostgreSQL, Docker.\n\nЧто используем в работе:\n    - Jira (Kanban), Confluence;\n   - Храним код в Gitlab, тут же CI/CD;\n    -Практикуем code review, политику частых релизов, гибкие методологии разработки;\n    -Мониторим состояние приложений с помощью: Zabbix, Grafana.\n\nВ задачи будет входить:\n    - Улучшать имеющийся функционал и разрабатывать новый (Система нотификаций, Обработка платежей, Алгоритмы атрибуции, Ads Crawler и т.д.);\n    - Писать тесты и рефакторить кодовую базу;\n    - Участвовать в принятии архитектурных решений;\n    - Работать как в составе команды, так и в одного над небольшими проектами;\n    - Участвовать в коммуникации с командой;\n    - Быть инициативным и предлагать свои идеи, в том числе, если это касается использования новых технологий — проводить code review.\n\nЧто мы предлагаем:\n    - Удаленная работа;\n    - Оформление по ТК РФ;\n    - Полностью белая ЗП;\n    -  График работы 5/2;\n    - Можно выбрать свой график работы;\n    - Наставничество по предметной области и на равной позиции;\n    - Возможность работать как в составе команды, так и возглавить со временем свое направление — мы готовы обсуждать любые ваши идеи. \n\n Контакты:@juliajudina2810\n Резюме можно присылать на почту: hr@resurs-hr.ru\n\n—\n\n👉 Обсуждение вакансии в чате @javascript_jobs","markup":[{"type":"hashtag","offset":0,"length":9,"data":"вакансия"},{"type":"hashtag","offset":10,"length":9,"data":"удаленно"},{"type":"hashtag","offset":20,"length":10,"data":"fullstack"},{"type":"hashtag","offset":31,"length":11,"data":"JavaScript"},{"type":"hashtag","offset":43,"length":7,"data":"NodeJS"},{"type":"hashtag","offset":51,"length":4,"data":"Vue"},{"type":"hashtag","offset":56,"length":7,"data":"middle"},{"type":"hashtag","offset":64,"length":7,"data":"senior"},{"type":"handle","offset":2091,"length":16,"data":"juliajudina2810"},{"type":"link","offset":2142,"length":15,"data":"mailto:hr@resurs-hr.ru"},{"type":"handle","offset":2192,"length":16,"data":"javascript_jobs"}],"date":"2020-06-22T11:12:30+00:00","link":"tg://resolve?domain=javascript_jobs_feed&post=16317","tags":[{"name":"javascript"},{"name":"nodejs"},{"name":"vuejs"},{"name":"graphql"},{"name":"redis"},{"name":"postgresql"},{"name":"docker"},{"name":"gitlab"}],"cities":[{"code":"moscow"}],"allowsRemote":true}},{"node":{"__typename":"Job","id":"17103323136-1001110946746","title":"Js разработчик","text":"#вакансия #удаленно #удаленка #vue                                                                                                                                     Удаленная работа\nПолная занятость \nЗп От 100 000 до 200 000 ₽\n\nFrontend developer (VUE)\n\nКомпания «Averia Electronics» \n\nМы занимаемся разработкой потребительской носимой электроники (IoT, wearable), мобильных приложений и собственной ERP системы. \nВсе наши проекты так или иначе связаны с домашними питомцами и многие наши сотрудники, даже не вовлечённые в эту тему и не разделявшие наши интересы изначально, со временем заводят своих домашних любимцев. Общность наших с вами интересов будет ощутимым плюсом.                                                                                                                                                                                       \n                                                                                                                                                                                                                  Нам нужен  сильный  frontend  разработчик, умеющий решать нестандартные задачи. \n                                                                                                                                                                                                                 Наши продукты: \nI. CRM (ERP) для ветеринарных клиник и зоомагазинов. Мы строим свою сеть и чем стремительнее мы развиваем наш софт, тем стремительнее растёт наш бизнес. С нашей crm работает и медицинское оборудование через кроссплатформенную программу на Electron, благодаря чему вы сможете получить уникальный опыт по взаимодействию с медицинским оборудованием и его интеграции в единую экосистему.\nII. Averia.Collar – умный ошейник для собак, работающий по принципу Apple Watch через Bluetooth Low Energy. \nIII. Аверия.поиск — сервис помощи в поиске потерянных питомцев. \n                                                                                                                                                                                                       Обязательными навыками являются:\n•  JS (ES6, современный яваскрипт);\n•  Уверенное владение фрейворком  Vue.js;\n•  CSS / твердое знание одного из CSS-препроцессоров (SASS, LESS, Stylus). Мы предпочитаем SAS;\n•  Опыт работы с системами сборки проектов (webpack, gulp);\n•  Знание шаблонизоторов. Мы предпочитаем pug;\n•  GIT, git-flow;\n•  English (на уровне чтения документации и написания комментариев);\n•  Командная работа и умение оценивать трудозатраты.\nБольшим плюсом будет:\n•  advanced навыки в верстке, mobile\n•  Опыт автоматического тестирования\n•  Опыт backend разработки.\nУсловия работы: \n•  Удаленная работа;\n•  Полная занятость;\n•  Уровень заработной платы устанавливается индивидуально по итогам собеседования. \nКонтакты: Полина Храмцова, polina_hr@mail.ru, @polina_hr\n\n—\n\n👉 Обсуждение вакансии в чате @javascript_jobs","markup":[{"type":"hashtag","offset":0,"length":9,"data":"вакансия"},{"type":"hashtag","offset":10,"length":9,"data":"удаленно"},{"type":"hashtag","offset":20,"length":9,"data":"удаленка"},{"type":"hashtag","offset":30,"length":4,"data":"vue"},{"type":"link","offset":2881,"length":17,"data":"mailto:polina_hr@mail.ru"},{"type":"handle","offset":2900,"length":10,"data":"polina_hr"},{"type":"handle","offset":2945,"length":16,"data":"javascript_jobs"}],"date":"2020-06-22T11:04:20+00:00","link":"tg://resolve?domain=javascript_jobs_feed&post=16311","tags":[{"name":"javascript"},{"name":"vuejs"},{"name":"electron"},{"name":"css"},{"name":"sass"},{"name":"sas"},{"name":"webpack"},{"name":"gulp"},{"name":"git"},{"name":"mobile"}],"cities":[],"allowsRemote":true}},{"node":{"__typename":"Job","id":"17082351616-1001110946746","title":"Javascript разработчик","text":"#вакансия #front #react #typescript #москва #генетика #javascript #геномэксперт #барсгруп\n\nГород и адрес офиса: Москва, ст.м.Павелецкая\nФормат работы: Офис\nЗанятость: полная.\nЗарплатная вилка: от 200.000 до 300.000 рублей на руки. \nНазвание компании: Барс Груп\nhttps://bars.group/\nПроект Геном.Эксперт  - https://genome.expert/ \n\nТребуется senior/middle front-end разработчик в крупный медицинский проект.\n\nПредметная область: Генетика. \nТекущее состояние проекта: \nПроект запущен с прошлого года, сейчас добираем команду по потребностям проекта и новым направлениям, есть уникальная возможность принять участие в создании единого пространства для врачей-генетиков, лабораторных генетиков и биоинформатиков.\n\n✅Чем придется заниматься:\n\n- Писать микроприложения и компоненты на React (В данный момент есть большое приложение, его разбиваем на небольшие)\n- Пилить компоненты для ui-kit\n- Менять legacy components(polymer) на react components\n\n\n✔️Требования:\n\n-Front-end: React(Vue), typescript, Redux/Mobx/Vuex;\n-Межсервисное взаимодействие и API: REST/GraphQL/gRPC. \n\n✔️Инструменты для работы: \n\nGit, bitbucket, JIRA, docker, docker-compose. \n\n✔️Условия:\n\n-Оформление по ТК РФ;\n-Работа в офисе в пешей доступности от ст.м.Павелецкая (на данный момент удаленка);\n-График 5/2, гибкое начало рабочего дня ;\n-Белая зарплата, повышающаяся по системе аттестаций несколько раз в год;\n-ДМС;\n-Перспективы карьерного роста;\n-Корпоративное обучение (тренинги, мастер-классы);\n-Корпоративная библиотека;\n-Мы рассматриваем кандидатов с возможностью переезда в Москву;\n-Возможность предоставления бесплатного жилья на первый месяц. \n\nКонтакты для связи: \n\nemail: a.starchenko@bars.group \nTelegram: @alinavelcheva \n\nbars.group\nАО «БАРС Груп» - официальный сайт компании\nАО «БАРС Груп» - российский производитель ИТ-решений и экспертный центр в сфере государственной и корпоративной информатизации.\n\n—\n\n👉 Обсуждение вакансии в чате @javascript_jobs","markup":[{"type":"hashtag","offset":0,"length":9,"data":"вакансия"},{"type":"hashtag","offset":10,"length":6,"data":"front"},{"type":"hashtag","offset":17,"length":6,"data":"react"},{"type":"hashtag","offset":24,"length":11,"data":"typescript"},{"type":"hashtag","offset":36,"length":7,"data":"москва"},{"type":"hashtag","offset":44,"length":9,"data":"генетика"},{"type":"hashtag","offset":54,"length":11,"data":"javascript"},{"type":"hashtag","offset":66,"length":13,"data":"геномэксперт"},{"type":"hashtag","offset":80,"length":9,"data":"барсгруп"},{"type":"link","offset":261,"length":19,"data":"https://bars.group/"},{"type":"link","offset":305,"length":22,"data":"https://genome.expert/"},{"type":"link","offset":1648,"length":23,"data":"mailto:a.starchenko@bars.group"},{"type":"handle","offset":1683,"length":14,"data":"alinavelcheva"},{"type":"link","offset":1700,"length":10,"data":"http://bars.group"},{"type":"handle","offset":1916,"length":16,"data":"javascript_jobs"}],"date":"2020-06-19T18:52:18+00:00","link":"tg://resolve?domain=javascript_jobs_feed&post=16291","tags":[{"name":"javascript"},{"name":"reactjs"},{"name":"typescript"},{"name":"polymerjs"},{"name":"vuejs"},{"name":"redux"},{"name":"rest"},{"name":"graphql"},{"name":"git"},{"name":"docker"},{"name":"docker-compose"}],"cities":[{"code":"moscow"}],"allowsRemote":true}},{"node":{"__typename":"Job","id":"26480738304-1001075660570","title":"Php разработчик","text":"#вакансия #офис #СанктПетербург #php #nodes\n\nFull stack developer\n\nАдрес: м Чкаловская\nФормат работы: офис\nЗанятость: полная\nЗ.п: 120 000-150 000\n\nРазработчик платформы для приема ставок на киберспортивные Игры и соревнования.\n\nОбязанности:\n\nРазработка высоконагруженных сервисов\nУчастие в проектирование архитектуры системы\nОптимизация производительности систем\nИнтеграции с внешними сервисами\n\nТребования:\n\n- php / node.js\n- MongoDB, MySQL\n- js, css, scss, один из фреймворков - react (mobx), vue\n- опыт разработки парсеров\n- опыт работы с REST API\n- уверенное владение Git\n- понимание что такое s2s, google analytics\n- умение покрывать код трекерами статистики (пиксели, голы, эвенты google analytics и фейсбука, постбеки) и понимание принципов их работы\n- знание английского языка на уровне чтения технической документации\n- автономность, желание разбираться в новом\n\nУсловия:\nОформление по ТК РФ;\nРежим работы 5/2, гибкий графике;\nофис в историческом центре Петербурга, в 10 минутах от метро Чкаловская;\nПеченьки, фрукты, чай и кофе\n\nКонтакты: vp5494@yandex.ru\n@Аnastasia202011","markup":[{"type":"hashtag","offset":0,"length":9,"data":"вакансия"},{"type":"hashtag","offset":10,"length":5,"data":"офис"},{"type":"hashtag","offset":16,"length":15,"data":"СанктПетербург"},{"type":"hashtag","offset":32,"length":4,"data":"php"},{"type":"hashtag","offset":37,"length":6,"data":"nodes"},{"type":"link","offset":1049,"length":16,"data":"mailto:vp5494@yandex.ru"}],"date":"2020-06-19T17:04:53+00:00","link":"tg://resolve?domain=php_jobs&post=25254","tags":[{"name":"php"},{"name":"nodejs"},{"name":"mongodb"},{"name":"mysql"},{"name":"css"},{"name":"reactjs"},{"name":"vuejs"},{"name":"rest"},{"name":"git"},{"name":"google-analytics"}],"cities":[],"allowsRemote":false}},{"node":{"__typename":"Job","id":"26460815360-1001075660570","title":"Php разработчик","text":"#работа #вакансия #удаленка #job #РНР #Yii #Laravel #Symfony \n\nВсем привет! \n\nСейчас нахожусь в поисках РНР разработчика уровня senior в одну из крупнейших ecommerce компаний России - Bork/Technopark. \nНа текущий  момент внутри идет несколько проектов по поддержке и развитию интернет-площадки по продаже бытовой техники и электроники премиум-класса.\n\nПродукты реализуются на стеке: PHP (Yii2), MySql, JS (Vue), HTML, CSS, Gulp, Webpack, SVG, Canvas. \nЗадачи: разработка серверной части веб-проектов на всех этапах (от участия в проектировании архитектуры, до разработки сервисов), участие в митапах для обсуждения предстоящих задач, вносить вклад в планирование архитектуры и т.д.\n\nОсновные требования:\n\n- Опыт коммерческой разработки от 3 лет на PHP (7.1 или выше);\n\n- Хорошие знания современных фреймворков  (YII, Symfony);\n\n- Знание ООП, базовых алгоритмов, шаблонов проектирования, стандартов написания кода.\n\nУсловия: \n\n- ЗП до 250 000 net;\n\n- Полная УДАЛЁНКА; \n\n- Оформление через ИП или как самозанятый; \n\nКто заинтересовался - пишите в ЛС (@nastyaklassnaya),  буду рада пообщаться :)","markup":[{"type":"hashtag","offset":0,"length":7,"data":"работа"},{"type":"hashtag","offset":8,"length":9,"data":"вакансия"},{"type":"hashtag","offset":18,"length":9,"data":"удаленка"},{"type":"hashtag","offset":28,"length":4,"data":"job"},{"type":"hashtag","offset":33,"length":4,"data":"РНР"},{"type":"hashtag","offset":38,"length":4,"data":"Yii"},{"type":"hashtag","offset":43,"length":8,"data":"Laravel"},{"type":"hashtag","offset":52,"length":8,"data":"Symfony"},{"type":"handle","offset":1049,"length":16,"data":"nastyaklassnaya"}],"date":"2020-06-19T13:34:08+00:00","link":"tg://resolve?domain=php_jobs&post=25235","tags":[{"name":"php"},{"name":"yii"},{"name":"laravel"},{"name":"symfony"},{"name":"mysql"},{"name":"vuejs"},{"name":"html"},{"name":"css"},{"name":"gulp"},{"name":"webpack"},{"name":"svg"},{"name":"canvas"},{"name":"dotnet"}],"cities":[],"allowsRemote":true}},{"node":{"__typename":"Job","id":"17079205888-1001110946746","title":"Js разработчик","text":"#вакансия  #vue.js #Nuxt.js #удаленно\n\nСрочно ищем Vue.js разработчика\n\nГород и адрес офиса: г.Запорожье, Украина.\nЗанятость: частичная\\проектная \nФормат работы: удаленка\nЗарплатная вилка: от 400 до 1500 usd \n\nОписание вакансии:\nНужен Vue.js разработчик (желательно с опытом Nuxt.js) на проект для выполнения нескольких не слишком сложных задач. Основная задача - получить данные с уже подключенной к проекту headless CMS (directus.io), отрендерить на их основе несколько таблиц и отправить их URL параметрами на сервер. Также будет необходимость внести несколько дополнительных правок. Работа через Upwork под трекером. Если проект закончится успешно - будем заинтересованы в сотрудничестве в будущем.\n\nНазвание компании: Maximumstart\nКонтакты: @polinasvetlaya\n\n—\n\n👉 Обсуждение вакансии в чате @javascript_jobs","markup":[{"type":"hashtag","offset":0,"length":9,"data":"вакансия"},{"type":"hashtag","offset":11,"length":4,"data":"vue"},{"type":"hashtag","offset":19,"length":5,"data":"Nuxt"},{"type":"hashtag","offset":28,"length":9,"data":"удаленно"},{"type":"link","offset":423,"length":11,"data":"http://directus.io"},{"type":"handle","offset":746,"length":15,"data":"polinasvetlaya"},{"type":"handle","offset":796,"length":16,"data":"javascript_jobs"}],"date":"2020-06-19T12:55:52+00:00","link":"tg://resolve?domain=javascript_jobs_feed&post=16288","tags":[{"name":"javascript"},{"name":"vuejs"}],"cities":[],"allowsRemote":true}},{"node":{"__typename":"Job","id":"17077108736-1001110946746","title":"Js разработчик","text":"#вакансия  #офис #спб или #удалённо \n#job #fulltime #office #saintpetersburg or #remote \n\nJavaScript разработчик\n\nГород: Санкт-Петербург, м. пл. А. Невского\nФормат работы:  офис или удаленка (по желанию)\nЗанятость полная\nЗ/П: от 150к до 240к руб net\nКомпания: DevUnit\n\nИщу JS разработчика для разработки новой версии ритейл платформы для инвестиций\n\nВакансия включает в себя  работу с высокодинамичными real-time графиками (WebGL, highcharts.js)\nОсновной фреймворк - Vue.JS\nА еще:\nБольшие и непрерывные потоки данных по websocket\nPWA \n\nДля нас важно:\nКоммерческий опыт разработок на JS - от 2 лет \nОпыт работы с популярными фреймворками.\n\nСущественным плюсом будет: \nопыт работы с WebGL\nзнания VueJS\n\nЧто предлагаем: \n- Работу в опытной команде разработчиков\n- Современный стек \n- Возможность влиять на ход разработки \n- Достойную зарплату, с регулярным пересмотром. \n- Комфортное рабочее место, и качественное оборудование ( пл. А. Невского)\n- Также есть возможность работать в режиме хоум-офис\n- Увеличенный срок отпуска до 70-ти дней, в зависимости от продолжительности наших отношений.\n- Компенсацию участия в профильных мероприятиях и конференциях.\n\nИ самое главное: мы заботимся о том, чтобы работа была в радость, и всегда гибко подходим к решению любых  вопросов. \n\nКонтакты:\n@zazajul\njulizun09@gmail.com\n\n—\n\n👉 Обсуждение вакансии в чате @javascript_jobs","markup":[{"type":"hashtag","offset":0,"length":9,"data":"вакансия"},{"type":"hashtag","offset":11,"length":5,"data":"офис"},{"type":"hashtag","offset":17,"length":4,"data":"спб"},{"type":"hashtag","offset":26,"length":9,"data":"удалённо"},{"type":"hashtag","offset":37,"length":4,"data":"job"},{"type":"hashtag","offset":42,"length":9,"data":"fulltime"},{"type":"hashtag","offset":52,"length":7,"data":"office"},{"type":"hashtag","offset":60,"length":16,"data":"saintpetersburg"},{"type":"hashtag","offset":80,"length":7,"data":"remote"},{"type":"handle","offset":1284,"length":8,"data":"zazajul"},{"type":"link","offset":1293,"length":19,"data":"mailto:julizun09@gmail.com"},{"type":"handle","offset":1347,"length":16,"data":"javascript_jobs"}],"date":"2020-06-19T10:52:58+00:00","link":"tg://resolve?domain=javascript_jobs_feed&post=16286","tags":[{"name":"javascript"},{"name":"dotnet"},{"name":"highcharts"},{"name":"vuejs"},{"name":"websocket"}],"cities":[],"allowsRemote":true}},{"node":{"__typename":"Job","id":"17072914432-1001110946746","title":"Js разработчик","text":"#вакансия  #backend #nodejs #javascript #удаленка #js #remote\n\nПозиция: Backend developer (Middle)\nКомпания: paradigmfund.io - инвестиционный фонд с офисами в Москве и Токио.\nФормат работы: Удаленка \nЗанятость: Полная с графиком работы (в выходные отдыхаем, в будни работаем по графику, гибкое начало рабочего дня)\nЗарплатная вилка: 110 000-150 000 руб. на руки\nЗадача: Участвовать в разработке новых и текущих it продуктов компании (криптовалютный кошелек, торговая биржа, обменник валют). \n\nТребования:\n- Опыт программирования на чистом JS не менее 3-х лет\n- Опыт программирования под Node.js не менее года\n- Опыт работы с серверами на Ubuntu\n- Знание SQL и особенностей PostgreSQL\n- Умение оптимизировать тяжелые запросы к базе\n- Хороший навык чтения чужого кода и модернизации его\n- Навык анализа новых структур данных и чужих API\n- Навык работы с Git\n- Гибкость, отзывчивость и хорошие soft skills, мы ценим дружелюбную и продуктивную среду, которую мы создали в команде, и надеемся, что вы гармонично в нее впишетесь.\n\nЖелательно:\n- Знание html, css, vue.js\n- Навык работы с docker'ами\n- Умение настраивать NGINX\n- Навык написание unit тестов\n- Навык поиска утечек памяти\n\nПомимо всего вышесказанного, у нас вы получите:\n- Работа в дружной команде, как разработчиков так и управленцев. \n- Профессиональное развитие и новые знания касаемо blockchain технологий.\n- Возможность релокации в офис в Москве.\n- Понятные процессы разработки (Agile, двухнедельные спринты, работаем в Jira и Confluence). \n\nКонтакты:\nМы стремимся постоянно автоматизировать и улучшать наши процессы, поэтому отклик на вакансию просим оставлять через форму: https://forms.gle/L9hWmD18Zs9kMo2E8\nС подходящими кандидатами свяжемся в течение недели, если возникли какие то вопросы, с радостью отвечу на них в лс @grshabl\n\n—\n\n👉 Обсуждение вакансии в чате @javascript_jobs","markup":[{"type":"hashtag","offset":0,"length":9,"data":"вакансия"},{"type":"hashtag","offset":11,"length":8,"data":"backend"},{"type":"hashtag","offset":20,"length":7,"data":"nodejs"},{"type":"hashtag","offset":28,"length":11,"data":"javascript"},{"type":"hashtag","offset":40,"length":9,"data":"удаленка"},{"type":"hashtag","offset":50,"length":3,"data":"js"},{"type":"hashtag","offset":54,"length":7,"data":"remote"},{"type":"link","offset":109,"length":15,"data":"http://paradigmfund.io"},{"type":"link","offset":1636,"length":35,"data":"https://forms.gle/L9hWmD18Zs9kMo2E8"},{"type":"handle","offset":1787,"length":8,"data":"grshabl"},{"type":"handle","offset":1830,"length":16,"data":"javascript_jobs"}],"date":"2020-06-19T10:46:36+00:00","link":"tg://resolve?domain=javascript_jobs_feed&post=16282","tags":[{"name":"javascript"},{"name":"nodejs"},{"name":"ubuntu"},{"name":"sql"},{"name":"postgresql"},{"name":"git"},{"name":"html"},{"name":"css"},{"name":"vuejs"},{"name":"docker"},{"name":"nginx"}],"cities":[{"code":"tokyo"}],"allowsRemote":true}},{"node":{"__typename":"Job","id":"17065574400-1001110946746","title":"Js разработчик","text":"#вакансия #js #frontend #vue\nSenior Frontend Engineer \n\nФормат работы \nremote\n\nЗанятость\nполная\n\nНазвание компании \nUscreen\n\nЗарплатная вилка\n$2800-$4000 (контракт - swift/payoneer)\n\nОписание вакансии\nUscreen - помогает монетизировать видео более чем тысяче контент мейкерам и обслуживает несколько миллионов пользователей. Мы полностью удаленная команда из 38 специалистов со всех уголков мира.  Мы bootstrap компания, которая оперирует как бизнес. Нет инвесторов - нет головной боли. \nМы ищем самостоятельного и мотивированного фронтенд разработчика, который сможет работать с одной из наших команд над фитчами и UI-компонентами\n\nЧто от вас\n- опыт с JavaScript \n- опыт с Vue.js \n- английский язык (🇺🇸 ну почти английский)\n- какой-то опыт с Ruby on Rails - всегда плюс\n- 40 часов вашего времени каждую неделю 🙂 остальное время нужно проводить с семьей, друзьями и хобби. \n\nЧто о нас\n- удаленная работа\n- зп с ежегодными пересмотрами\n- Покупка книг/курсов\n- неделя оплачиваемого отпуска каждый сезон\n- оплата ко-воркинг спейса\n\nКонтакты\n- Telegram: @savrov_n\n- Почта: nick@uscreen.tv\n\n—\n\n👉 Обсуждение вакансии в чате @javascript_jobs","markup":[{"type":"hashtag","offset":0,"length":9,"data":"вакансия"},{"type":"hashtag","offset":10,"length":3,"data":"js"},{"type":"hashtag","offset":14,"length":9,"data":"frontend"},{"type":"hashtag","offset":24,"length":4,"data":"vue"},{"type":"handle","offset":1052,"length":9,"data":"savrov_n"},{"type":"link","offset":1071,"length":15,"data":"mailto:nick@uscreen.tv"},{"type":"handle","offset":1121,"length":16,"data":"javascript_jobs"}],"date":"2020-06-19T10:40:51+00:00","link":"tg://resolve?domain=javascript_jobs_feed&post=16275","tags":[{"name":"javascript"},{"name":"vuejs"},{"name":"swift"},{"name":"bootstrap"},{"name":"ruby"},{"name":"ruby-on-rails"}],"cities":[],"allowsRemote":true}},{"node":{"__typename":"Job","id":"17062428672-1001110946746","title":"Js developer","text":"#вакансия #vue #js #frontend #html #css\n\nВакансия: Frontend / Vuejs Developer\nНазвание компании: Httplab, https://httplab.ru/\nГород и адрес офиса: Ростов-на-Дону, Будённовский 35\nЗанятость: полная\nЗарплатная вилка: от 90 000 до 130 000 руб. (нетто)\n\nОписание вакансии:\n\nТребования:\n• Опыт работы с VueJS и сопутствующими библиотеками. Опыт разработки сложных UI-компонентов.\n• Отличное понимание того, как работает современный веб. Мы ждем, что вы следите за событиями и трендами, но обладаете усточивостью к хайпу. :)\n• Навыки кроссброузерной и адаптивной верстки с использованием HTML5, SСSS.\n• Умение писать тесты для фронтенд-кода, понимать, как и что нужно тестировать.\n• Навыки рефакторинга плохого кода и последовательного превращения его в хороший.\n• Хорошие фундаментальные знания в области ИТ: алгоритмы и структуры данных, шаблоны проектирования.\n• Уверенное использование Linux и утилит командной строки.\n\nУсловия:\n• Профессиональное развитие в команде специалистов высокого уровня\n• Уютный офис в центре Ростова\n• Возможность удаленной работы\n\nКонтакты: info@httplab.ru, @flggg\n\n—\n\n👉 Обсуждение вакансии в чате @javascript_jobs","markup":[{"type":"hashtag","offset":0,"length":9,"data":"вакансия"},{"type":"hashtag","offset":10,"length":4,"data":"vue"},{"type":"hashtag","offset":15,"length":3,"data":"js"},{"type":"hashtag","offset":19,"length":9,"data":"frontend"},{"type":"hashtag","offset":29,"length":5,"data":"html"},{"type":"hashtag","offset":35,"length":4,"data":"css"},{"type":"link","offset":106,"length":19,"data":"https://httplab.ru/"},{"type":"link","offset":1067,"length":15,"data":"mailto:info@httplab.ru"},{"type":"handle","offset":1084,"length":6,"data":"flggg"},{"type":"handle","offset":1125,"length":16,"data":"javascript_jobs"}],"date":"2020-06-18T21:53:52+00:00","link":"tg://resolve?domain=javascript_jobs_feed&post=16272","tags":[{"name":"javascript"},{"name":"vuejs"},{"name":"html"},{"name":"css"},{"name":"linux"}],"cities":[{"code":"rostov"}],"allowsRemote":true}}]}}},"context":{}}