{"hash":"f5f6bf98bd95e769321482904cbbd488f77922fd","data":{"records":{"id":"kotlin","name":"kotlin","belongsTo":{"totalCount":116,"pageInfo":{"totalPages":12,"currentPage":11},"edges":[{"node":{"__typename":"Job","id":"71338819584-1001054966032","title":"Android разработчик","text":"#казань #вакансия #работа #android #fудаленка                                                                                                                                                              Город: Казань \nФорма работы: удаленка; проектная занятость на 2-3 месяца                                                                                                             Зарплатная вилка: 60 000 - 80 000 \nНаш стек: Kotlin/Java, Moxy, Cicerone, Retrofit, Dagger2, RxJava2, Room, FCM, Gitlab CI, Mockito                                                                                    Обязанности:\n- Участие в командной разработке, тестировании, оптимизации существующих мобильных приложений на платформе Android;\n- Проектирование архитектуры приложений;\n\nТребования:\n- Опыт коммерческой разработки под Android от 1 года (Java/Kotlin);\n- Опыт создания клиент-серверных приложений;\n- Уверенное знание Java Core, Android SDK;\n- Знание основных технологий и протоколов передачи данных;\n- Знание ООП и паттернов проектирования;\n- Опыт работы с системами контроля версий Git;\n- Английский язык на уровне понимания технической литературы.\n\nБудет плюсом:\n- Наличие завершённых проектов в магазинах приложений;\n- Понимание принципов Clean Architecture;\n- Опыт написания unit и UI-тестов;\n- Умение организовать CI/CD в проекте;\n- Опыт работы с DI.                                                                                                                                                                                                                             Контакты: @daryahr","markup":[{"type":"hashtag","offset":0,"length":7,"data":"казань"},{"type":"hashtag","offset":8,"length":9,"data":"вакансия"},{"type":"hashtag","offset":18,"length":7,"data":"работа"},{"type":"hashtag","offset":26,"length":8,"data":"android"},{"type":"hashtag","offset":35,"length":10,"data":"fудаленка"},{"type":"link","offset":402,"length":15,"data":"tel:60 000 - 80 000"},{"type":"handle","offset":1583,"length":8,"data":"daryahr"}],"date":"2020-06-16T06:01:14+00:00","link":"tg://resolve?domain=mobile_jobs&post=0","tags":[{"name":"mobile"},{"name":"android"},{"name":"kotlin"},{"name":"java"},{"name":"gitlab"},{"name":"git"}],"cities":[{"code":"kazan"}],"allowsRemote":true}},{"node":{"__typename":"Job","id":"1682964480-1001091028994","title":"Java developer","text":"#Junior #Middle #Java #Developer\nКомпания: #Утконос\nЛокация: #Москва\nЗ/п: до 180 000 Net\nКонтакт: @RecruiterTatianaK\nJunior/Middle Java Developer в Утконос Онлайн\n📍Наш проект:\nВ компании разрабатывается комплексная система по управлению складом (WMS). Систему пишем сами «с нуля» на микросервисной архитектуре. \nСистема является ключевой для бизнеса и проектируется под высокие нагрузки.\n📍Что нужно делать?\n25% времени:\nАвтоматизировать бизнес процессы на складе в одной из scrum команд в количестве 10 человек.\n75% времени:\nРазрабатывать E2E и нагрузочные тесты.\n📍Наш стек:\nJava 11/Kotlin, Spring Boot 2.3.0, Camunda BPM, Kafka, Kubernetes, ELK, Grafana, Prometheus\n📍Что предлагаем?\nОформление по ТК РФ, ДМС\nГибкий график\nВозможность работы из дома\nСплоченный и профессиональный коллектив\nКорпоративные скидки на utkonos.ru, tui.ru, фитнес, кино и др.\nОфис - 10 минут  от м. Краснопресненская/ м.Улица 1905 года","markup":[{"type":"hashtag","offset":0,"length":7,"data":"Junior"},{"type":"hashtag","offset":8,"length":7,"data":"Middle"},{"type":"hashtag","offset":16,"length":5,"data":"Java"},{"type":"hashtag","offset":22,"length":10,"data":"Developer"},{"type":"hashtag","offset":43,"length":8,"data":"Утконос"},{"type":"hashtag","offset":61,"length":7,"data":"Москва"},{"type":"handle","offset":98,"length":18,"data":"RecruiterTatianaK"},{"type":"link","offset":818,"length":10,"data":"http://utkonos.ru"},{"type":"link","offset":830,"length":6,"data":"http://tui.ru"}],"date":"2020-06-15T20:10:30+00:00","link":"tg://resolve?domain=jvmjobs&post=1605","tags":[{"name":"java"},{"name":"jvm"},{"name":"dotnet"},{"name":"kotlin"},{"name":"spring"},{"name":"kafka"},{"name":"kubernetes"},{"name":"spring-boot"}],"cities":[{"code":"moscow"}],"allowsRemote":false}},{"node":{"__typename":"Job","id":"71313653760-1001054966032","title":"Android разработчик","text":"‼️Вакансия Senior Android⁢ Developer‼️\n#android #developer #вакансия #удаленка\nВ команде Mycelium Wallet (mycelium.com) открыта #вакансия Senior Android⁢ Developer.\n💵З/П 3000-4000 USD по итогам собеседования.\nРабота удаленная 💻\n\nМы предлагаем:\n🔸Получить навыки и компетенции в одном из самых передовых и перспективных направлений финтех индустрии - blockchain;\n🔸Принять участие в разработке одного из самых популярных биткоин-кошельков в Google Play Store;\n🔸Работать в международной команде бок о бок с ведущими специалистами в индустрии;\n🔸Возможность профессионального карьерного роста и участия в разнообразных проектах компании.\n\nЧем предстоит заниматься:\n🔹Разрабатывать новые и развивать существующие мобильные сервисы компании на платформе Android;\n🔹Проектировать и разрабатывать большие функциональные части приложения с привлечением других программистов;\n🔹Использовать cutting edge технологии, а также проверенные временем решения.\n\nТребования:\n✔️Как минимум 3 года опыта разработки на Android;\n✔️Знание Java/Kotlin на уровне ведущего разработчика;\n✔️Знание шаблонов проектирования, опыт использования MVP и других архитектурных подходов;\n✔️Опыт параллельного и многопоточного программирования;\n✔️Понимание циклов работы Android-приложения и управления памятью;\n✔️Опыт разработки пользовательских интерфейсов на платформе Android. \n✔️Знание Android Design Principles;\n✔️Знание и умение использовать различные механизмы взаимодействий между приложениями, предоставляемые в рамках Android SDK;\n✔️Понимание принципов работы REST API, WS, RPC и клиент-серверных приложений;\n✔️Знание английского языка на уровне чтения документации и умения общаться в корпоративном чате.\n\nПлюсом будет:\n➕Умение и понимание необходимости написания Unit tests;\n➕Знание основ криптографии;\n➕Опыт работы с bitcoin/etherium blockchain stack;\n➕Наличие своих проектов на Github, в Google Play и т.д.\n\n📲Контакт: @valeritata","markup":[{"type":"hashtag","offset":39,"length":8,"data":"android"},{"type":"hashtag","offset":48,"length":10,"data":"developer"},{"type":"hashtag","offset":59,"length":9,"data":"вакансия"},{"type":"hashtag","offset":69,"length":9,"data":"удаленка"},{"type":"link","offset":106,"length":12,"data":"http://mycelium.com"},{"type":"hashtag","offset":128,"length":9,"data":"вакансия"},{"type":"handle","offset":1900,"length":11,"data":"valeritata"}],"date":"2020-06-15T15:20:15+00:00","link":"tg://resolve?domain=mobile_jobs&post=0","tags":[{"name":"mobile"},{"name":"android"},{"name":"playframework"},{"name":"java"},{"name":"kotlin"},{"name":"rest"},{"name":"github"}],"cities":[],"allowsRemote":true}},{"node":{"__typename":"Job","id":"71312605184-1001054966032","title":"Android developer","text":"#вакансия #Juniorandroid #Android developer #kotlin #удаленно                                                                                                         Уровень дохода:💵 50 000-60 000  рублей net                                                                                                                                                                                 Требуемый опыт работы: от 1 года\nПолная занятость, дистанционно, гибкое начало рабочего дня\n \n📌Требования:\n- Нативная Android разработка (Kotlin)\n- Умение писать поддерживаемый и тестируемый код\n- Умение работать с Dagger 2\n- Умение работать с git\n- Желание развиваться и изучать новое в разработке\n- Опыт разработки приложений от 1 года\n -Знание английского языка от уровня Intermediate\n \n📌Будет плюсом:\n- Опыт работы с JNI\n- Опыт использования tensorflow\n- Опыт работы с аудио и видео\n\n📌Условия:\n- Отсутствие бюрократии\n- Время начала рабочего дня обговариваем индивидуально\n- Крутой инновационный проект - возможность самореализации и профессионального роста\n- Стабильное зарубежное финансирование\n- Десятки миллионов установок и множество глобальных партнёров\n📞Контакты @SvetikS_hr +7(963)-632-12-36 Cветлана","markup":[{"type":"hashtag","offset":0,"length":9,"data":"вакансия"},{"type":"hashtag","offset":10,"length":14,"data":"Juniorandroid"},{"type":"hashtag","offset":25,"length":8,"data":"Android"},{"type":"hashtag","offset":44,"length":7,"data":"kotlin"},{"type":"hashtag","offset":52,"length":9,"data":"удаленно"},{"type":"link","offset":184,"length":13,"data":"tel:50 000-60 000"},{"type":"handle","offset":1164,"length":11,"data":"SvetikS_hr"},{"type":"link","offset":1176,"length":17,"data":"tel:+7(963)-632-12-36"}],"date":"2020-06-15T15:18:42+00:00","link":"tg://resolve?domain=mobile_jobs&post=0","tags":[{"name":"mobile"},{"name":"android"},{"name":"kotlin"},{"name":"dotnet"},{"name":"git"},{"name":"tensorflow"}],"cities":[],"allowsRemote":true}},{"node":{"__typename":"Job","id":"71305265152-1001054966032","title":"Android разработчик","text":"#вакансия #android #java #kotlin #офис #москва\nм.Бауманская, полная занятость\nБелая з/п 130.000 - 200.000 руб. на руки (рассматриваем уровень Middle/Senior)\nAndroid developer\nНа время изоляции работаем удаленно, после вновь вернемся в офис!\nПолностью удаленной работы у нас нет!\n\nМы — команда разработки Level.Travel, сложного продукта в сфере путешествий. За последние 8 лет мы с нуля создали и продолжаем развивать решение для онлайн-продажи путешествий. Нашу платформу используют лидеры рынка – Тинькофф Банк, OneTwoTrip, Сбербанк, TripAdvisor, Kayak, АК Барс Банк, Евросеть и многие другие. Компания Level.Travel является резидентом Инновационного центра «Сколково».\n\n\nОбязанности:\n🔸Разработка приложения со сложным UI в команде разработчиков\n🔸Построение архитектуры\n🔸Реализация клиент-серверного взаимодействия\n🔸Написание тестов\n\nОт Вас:\n🔸От 2-х лет в разработке на Android\n🔸Знание Java/Kotlin на уровне ведущего разработчика\n🔸Знание архитектурных паттернов (MVVM / Clean Architecture), ООП\n🔸Знания цикла работы приложения, управления памятью\n🔸Опыт работы или понимание RxJava, RxAndroid, Retrofit, Dagger2, Android Data Binding\n🔸Понимание Android Architecture Components будет плюсом\n🔸CI / CD\n🔸Все тонкости работы с клиент-серверной архитектурой\n🔸Умение отлаживать приложение, профилирование кода\n\nОт нас: белая зп, официальное трудоустройство, больничные, отпуска. Скидки на изучение английского языка, техника MacBook Pro. Регулярная обратная связь и аттестации. Геймификация процессов и несколько раз в год релокейты поработать в другую страну. Клевый молодой коллектив, интересные ивенты, насыщенная корпоративная жизнь. Пинг-понг, бильярд, кальян и другие развлечения в офисе. Скидки на путешествия)\n\nСвязь по почте : vos@level.travel\nИли тут @Alyask_a","markup":[{"type":"hashtag","offset":0,"length":9,"data":"вакансия"},{"type":"hashtag","offset":10,"length":8,"data":"android"},{"type":"hashtag","offset":19,"length":5,"data":"java"},{"type":"hashtag","offset":25,"length":7,"data":"kotlin"},{"type":"hashtag","offset":33,"length":5,"data":"офис"},{"type":"hashtag","offset":39,"length":7,"data":"москва"},{"type":"bold","offset":78,"length":40,"data":""},{"type":"bold","offset":157,"length":17,"data":""},{"type":"bold","offset":175,"length":65,"data":""},{"type":"bold","offset":280,"length":76,"data":""},{"type":"bold","offset":674,"length":12,"data":""},{"type":"bold","offset":840,"length":7,"data":""},{"type":"bold","offset":1318,"length":7,"data":""},{"type":"bold","offset":1726,"length":33,"data":""},{"type":"link","offset":1743,"length":16,"data":"mailto:vos@level.travel"},{"type":"bold","offset":1760,"length":17,"data":""},{"type":"handle","offset":1768,"length":9,"data":"Alyask_a"}],"date":"2020-06-15T14:11:51+00:00","link":"tg://resolve?domain=mobile_jobs&post=0","tags":[{"name":"mobile"},{"name":"android"},{"name":"java"},{"name":"kotlin"},{"name":"mvvm"}],"cities":[{"code":"moscow"}],"allowsRemote":true}},{"node":{"__typename":"Job","id":"71294779392-1001054966032","title":"Android developer","text":"#вакансия #Middle #Android developer #kotlin #удаленно                                                                                                         Уровень дохода:💵 130 000-150 000  рублей net                                                                                                                                                                                 Требуемый опыт работы: 2-4 года\nПолная занятость, дистанционно, гибкое начало рабочего дня\n \n📌Требования:\n- Нативная Android разработка (Kotlin)\n- Умение писать поддерживаемый и тестируемый код\n- Умение работать с Dagger 2\n- Умение работать с git\n- Желание развиваться и изучать новое в разработке\n- Опыт разработки приложений от 2 лет\n -Знание английского языка от уровня Intermediate\n \n📌Будет плюсом:\n- Опыт работы с JNI\n- Опыт использования tensorflow\n- Опыт работы с аудио и видео\n\n📌Условия:\n- Отсутствие бюрократии\n- Время начала рабочего дня обговариваем индивидуально\n- Крутой инновационный проект - возможность самореализации и профессионального роста\n- Стабильное зарубежное финансирование\n- Десятки миллионов установок и множество глобальных партнёров\n📞Контакты @SvetikS_hr +7(963)-632-12-36 Cветлана","markup":[{"type":"hashtag","offset":0,"length":9,"data":"вакансия"},{"type":"hashtag","offset":10,"length":7,"data":"Middle"},{"type":"hashtag","offset":18,"length":8,"data":"Android"},{"type":"hashtag","offset":37,"length":7,"data":"kotlin"},{"type":"hashtag","offset":45,"length":9,"data":"удаленно"},{"type":"handle","offset":1157,"length":11,"data":"SvetikS_hr"},{"type":"link","offset":1169,"length":17,"data":"tel:+7(963)-632-12-36"}],"date":"2020-06-15T11:42:47+00:00","link":"tg://resolve?domain=mobile_jobs&post=0","tags":[{"name":"mobile"},{"name":"android"},{"name":"kotlin"},{"name":"dotnet"},{"name":"git"},{"name":"tensorflow"}],"cities":[],"allowsRemote":true}},{"node":{"__typename":"Job","id":"2209349632-1001134745498","title":"Devops инженер","text":"#вакансия #офис #Москва #devops #teamlead\n\nDevOps Engineer\nОписание проекта:\nНа текущий момент мы формируем ключевую команду по трансформации интеграционной архитектуры одного из крупнейших\nБанков.\nОдной из ключевых задач трансформации стоит построить принципиально новую платформу управления трафиком между\nприложениями,\nпозволяющую объединить все существующие системы Банка как монолитные, так и контейнеризированные, виртуализировать\nбазовые\nсервисы и инструменты обеспечения ключевых атрибутов масштабирования, надежности, безопасности и сопровождаемости.\nВ результате этой трансформации должны быть реализованы комплексные сервисы платформы для ИТ Банка и партнеров.\nПрофит для участника:\nВозможность трансформировать ИТ-ландшафт одного из крупнейшего Банка своими силами от начала до конца;\nВозможность развить компетенции и получить опыт применения современных технологий и подходов к DevOps;\n\nКлючевые задачи:\nУлучшение инструментов и автоматизация производственных процессов, уменьшение time to market\nПостроение и сопровождение конвейера CI/CD\nАвтоматизация процесса подготовки окружений, тестовых сред, сборки и развертывания приложений\nВнедрение, поддержка и развитие системы мониторинга\nУчастие в подготовке и настройке инфраструктуры проектов банка\nИнтеграция тестов в скрипты развертывания\n\nОсновные требования:\nОпыт конфигурации и уверенное владение Linux (RHEL/CentOS)\nУмение писать сценарии автоматизации (bash, python)\nПонимание языков разметки данных (xml, json, yaml)\nУверенное владение одним из языков: Python, Java, Kotlin, Groovy\nОпыт работы с Git.\nОпыт автоматизации CI/CD процессов. Активное взаимодействие с командами разработки, тестирования, поддержки.\nОпыт работы с CI-Системами (Gitlab CI/Jenkins/TeamCity). Разработка и отладка исходного кода Pipeline, умение\nкастомизировать сборку.\nУверенное владение средством управления конфигурациями – Ansible, написание скриптов. Большим плюсом будет\nявляется опыт разработки модулей и отладки.\nОпыт развертывание и использования Docker: Создание образов, сборка и доставка контейнеров. Развертывание\nприложений в кластере Kubernetes, OpenShift\nОпыт настройки инструментов мониторинга (zabbix, Prometheus, grafana, ELK/EFK)\nОпыт работы с базами данных: Oracle, PostgreSQL, NoSQL DB (Tarantool, Casandra, Redis, RocksDB, etcd, ...)\nОпыт работы с IBM WebSphere MQ\nИнженерные практики (code review, тестирование скриптов и прочее).\nОпыт работы с высокодоступными и высокопроизводительными решениями\nПонимание принципа infrastructure as code\nИнженерное мышление, умение локализовать проблему и предложить оптимальное решение\nРазвитый технический кругозор и желание постоянно развиваться.\n\nЧто предлагаем:\nОформление через интегратора T4u\nЗ.п белая, 200-250 к\nДМС, курсы, сертификация за счет компании\nРабочее место в одном из офисов банка: м. Деловой центр, м. Пролетарская, м. ВДНХ\nКонтакты: @Anastasia202011\n\n—\n\n👉 Обсуждение вакансии в чате @devops_jobs","markup":[{"type":"hashtag","offset":0,"length":9,"data":"вакансия"},{"type":"hashtag","offset":10,"length":5,"data":"офис"},{"type":"hashtag","offset":16,"length":7,"data":"Москва"},{"type":"hashtag","offset":24,"length":7,"data":"devops"},{"type":"hashtag","offset":32,"length":9,"data":"teamlead"},{"type":"handle","offset":2861,"length":16,"data":"Anastasia202011"},{"type":"handle","offset":2912,"length":12,"data":"devops_jobs"}],"date":"2020-06-15T11:01:14+00:00","link":"tg://resolve?domain=devops_jobs_feed&post=2107","tags":[{"name":"linux"},{"name":"centos"},{"name":"bash"},{"name":"python"},{"name":"xml"},{"name":"json"},{"name":"yaml"},{"name":"java"},{"name":"kotlin"},{"name":"groovy"},{"name":"git"},{"name":"gitlab"},{"name":"jenkins"},{"name":"ansible"},{"name":"docker"},{"name":"kubernetes"},{"name":"oracle"},{"name":"postgresql"},{"name":"nosql"},{"name":"redis"}],"cities":[{"code":"moscow"}],"allowsRemote":false}},{"node":{"__typename":"Job","id":"71292682240-1001054966032","title":"Android разработчик","text":"#вакансия #Android #Kotlin #Москва #офис \n\nВакансия: Android разработчик\nГород: Москва м. Выставочная/Арбатская\nЗарплата: от 190 000 рублей до 270 000 рублей на руки \nФормат: офис, полный день, полная занятость (гибкое начало)\nКомпания Innovative People\n\nВ команду «Средний и малый бизнес» ищу разработчика. Проект новый, agile-команда. \n\n📲 Обязанности\n• Разработка функционала мобильного приложения\n• Разработка unit-тестов, рефакторинг, code review\n• Соблюдение принципов командной разработки\n• Работа в офисе с командой\n\n📲 Требования \nОпыт разработки мобильных приложений от 2-х лет; \nОтличные знания ООП, классических алгоритмов и структур данных; \nОтличные знания платформы Android, языков Java и Kotlin; \nОпыт применения паттернов: MVP, MVVM, CLEAN; \nОпыт работы с библиотеками json и xml для мобильных и серверных решений опыт интеграции со сторонними системами по API опыт написания unit-тестов; \nОпыт работы с TFS, JIRA, GIT.\n\n📲 Условия:\n• Хорошую команду\n• ДМС со стоматологией, всё белое\n• Возможность предлагать собственные идеи\n• ноутбук, адекватное руководство\n\n📩Резюме и вопросы @Priboch","markup":[{"type":"hashtag","offset":0,"length":9,"data":"вакансия"},{"type":"hashtag","offset":10,"length":8,"data":"Android"},{"type":"hashtag","offset":19,"length":7,"data":"Kotlin"},{"type":"hashtag","offset":27,"length":7,"data":"Москва"},{"type":"hashtag","offset":35,"length":5,"data":"офис"},{"type":"handle","offset":1098,"length":8,"data":"Priboch"}],"date":"2020-06-15T10:44:21+00:00","link":"tg://resolve?domain=mobile_jobs&post=0","tags":[{"name":"mobile"},{"name":"android"},{"name":"kotlin"},{"name":"java"},{"name":"mvvm"},{"name":"json"},{"name":"xml"},{"name":"tfs"},{"name":"git"}],"cities":[{"code":"moscow"}],"allowsRemote":false}},{"node":{"__typename":"Job","id":"102840139776-1001089317451","title":"Qa инженер","text":"#СПб #fulltime #офис #вакансия\n\nQA engineer (manual/AT)\n\nМеждународная продуктовая ИТ компания ТТ DEVELOPMENT приглашает присоединиться к команде опытного инженера по тестированию для обеспечения качества выпускаемого ПО.\n\nО наших продуктах: youtube.com/channel/UCNyfseLuQVXVo79c8-bQEzQ\n\nЧем предстоит заниматься?\n\n- Проводить анализ, оценку, испытания решений для гарантированного высокого качества нашего программного обеспечения;\n- Производить мониторинг последних технических разработок и делать предложения по улучшению наших продуктов на основе вашего опыта и знаний;\n- Тестировать наше программное обеспечение (ручное);\n- Оказывать поддержку команды саппорта по всем нестандартным запросам;\n- Обновлять и создавать документацию и часто задаваемые вопросы;\n- Если имеются знания автоматизированного тестирования, писать и выполнять тесты (Java).\n\nНам важно, чтобы у тебя было:\n\n- Опыт работы на аналогичной должности от 2х лет;\n- Опыт работы с приложениями, написанными на разных языках программирования, в частности: C/C ++, Java (Kotlin), Go, Swift;\n- Понимание основ программирования: структуры данных, алгоритмы;\n- Умение работать с базами данных на уровне простых запросов MySQL, Mongo;\n- Понимание клиент-серверной архитектуры (опыт работы с этим, понимание этого);\n- Опыт работы с REST API;\n- Умение гуглить выше среднего;\n- Владение инструментами ручного тестировщика под разные платформы и разные задачи (postman, fiddler, wireshark, loggers, adb etc);\n- Работа с командной строкой *nix систем;\n- Уверенное знание английского языка для общения устно и письмом;\n- Готовность выполнить тестовое задание.\n\nУсловия работы:\n\n- График 5/2, 8-ми часовой рабочий день, гибкое начало рабочего дня;\n- Стабильная заработная плата (фиксированный оклад), устанавливается по итогам собеседования;\n- Оформление по ТК РФ, испытательный срок 3 месяца;\n- Современный, уютный офис в 15 мин. ходьбы от м. Бухарестская.\n\nПочему с нами круто работать:\n\n- Нетривиальный продукт и такая же команда;\n- Работа в международной компании с возможностью практики английского языка;\n- Белоснежно белая заработная плата;\n- Бизнес-ланчи за счёт компании;\n- Свободный стиль в одежде - у нас можно оставаться собой;\n- Неформальное общение и быстрые решения без лишней бюрократии и грозных начальников;\n- Компенсация 50% годового абонемента в fitness-зале;\n- Яркая корпоративная жизнь (поздравления коллег, пятничные вечера с пиццей и настолками, корпоративные подарки и многое другое);\n- Relax уголок с Sony Playstation 4;\n- Фруктовые дни, чай, кофе, конфетки и пр.;\n- У нас точно некогда будет скучать ;)\n\nВилка: от 60 000 до 120 000 руб. до вычета налогов\n\nHR специалист: Бэлла, telegram bellykim","markup":[{"type":"hashtag","offset":0,"length":4,"data":"СПб"},{"type":"hashtag","offset":5,"length":9,"data":"fulltime"},{"type":"hashtag","offset":15,"length":5,"data":"офис"},{"type":"hashtag","offset":21,"length":9,"data":"вакансия"},{"type":"bold","offset":32,"length":25,"data":""},{"type":"bold","offset":94,"length":15,"data":""},{"type":"bold","offset":223,"length":17,"data":""},{"type":"link","offset":242,"length":44,"data":"http://youtube.com/channel/UCNyfseLuQVXVo79c8-bQEzQ"},{"type":"bold","offset":288,"length":27,"data":""},{"type":"bold","offset":853,"length":31,"data":""},{"type":"bold","offset":1618,"length":17,"data":""},{"type":"bold","offset":1915,"length":31,"data":""},{"type":"bold","offset":2587,"length":6,"data":""}],"date":"2020-06-15T10:15:29+00:00","link":"tg://resolve?domain=qa_jobs&post=0","tags":[{"name":"qa"},{"name":"java"},{"name":"kotlin"},{"name":"swift"},{"name":"mysql"},{"name":"rest"}],"cities":[],"allowsRemote":false}},{"node":{"__typename":"Job","id":"71287439360-1001054966032","title":"Android разработчик","text":"#вакансия #ios #android #Flutter\nНаставник-помощник Flutter разработчик\n\nЧастичная занятость, гибкий график, удаленно \nОплата почасовая от 8$ \n\nМы ищем мобильного разработчика уровня Middle на почасовую консультацию, который:\n\n- имеет опыт коммерческой разработки на Dart и Flutter;\n- знает ООП, Git, Gradle, Pods;\n- уверенно знает Kotlin/Java\n- имеет опыт в разработке нативных мобильных приложений и модулей (android/ios).\n\nПлюсом будет:\n\n- знание основных шаблонов проектирования и опыт их применения;\n- опыт работы с Firebase;\n- понимание принципов и опыт настройки CI/CD.\n\nТебе предстоит:\n\n- консультировать нашего разработчика по нашим актуальным проектам\n- в случае проблем изредка участвовать в разработке \n- помогать в настройке CI/CD;\n- участвовать в Code Review;\n\nКонтакт для связи @korchikova","markup":[{"type":"hashtag","offset":0,"length":9,"data":"вакансия"},{"type":"hashtag","offset":10,"length":4,"data":"ios"},{"type":"hashtag","offset":15,"length":8,"data":"android"},{"type":"hashtag","offset":24,"length":8,"data":"Flutter"},{"type":"handle","offset":793,"length":11,"data":"korchikova"}],"date":"2020-06-15T09:01:39+00:00","link":"tg://resolve?domain=mobile_jobs&post=0","tags":[{"name":"mobile"},{"name":"android"},{"name":"ios"},{"name":"flutter"},{"name":"dart"},{"name":"git"},{"name":"gradle"},{"name":"kotlin"},{"name":"java"},{"name":"firebase"}],"cities":[],"allowsRemote":true}}]}}},"context":{}}