{"hash":"f5f6bf98bd95e769321482904cbbd488f77922fd","data":{"records":{"id":"kubernetes","name":"kubernetes","belongsTo":{"totalCount":87,"pageInfo":{"totalPages":9,"currentPage":6},"edges":[{"node":{"__typename":"Job","id":"17097031680-1001110946746","title":"Js developer","text":"#вакансия\nГород и адрес офиса: Эйлат, Израиль\nФормат работы: удаленка\nЗанятость: полная\nЗарплатная вилка: (оба значения обязательны) от 2200$ до 4500$ net\nОписание вакансии:\n\nhttps://trucknet.io/en/open-positions/middle-senior-backend-typescript-developer/\n\nWho are we looking for\nWe are looking for a Backend Developer to join our R&D department in Eilat, Israel. Have you ever dreamed of working with a small and capable team in a coastal town on the southern edge of the Negev Desert? Are you interested in creating an eco-friendly product in a domain of logistics and transportation, solving mysteries problems and facing new challenges? If so, the Trucknet team is just the place for you!\nResponsibilities\n • Implementing new features and providing support for various microservices.\n • Proposing, brainstorming and carrying out refactoring to improve the internal structure of our software.\n • Improving the developer experience by constantly bettering our toolbox.\n • Advancing deployment/integration infrastructure.\nRequirements\n • 3+ years of professional experience with backend development.\n • Acquaintance with Typescript, OOP Javascript, NodeJS.\n • Acquaintance with MongoDB and experience with databases in general.\n • Practical skills in software architecture and software design.\nAdvantages\n • Knowledge of Docker and Kubernetes.\n • Understanding the concept of horizontal scaling and what limitations it does impose on the application.\n • Strong knowledge of MongoDB, PostgreSQL.\n • Experience with CI/CD (we use GitLab CI).\n • Experience with test-driven development.\n • Experience with AWS.\n\n\nНазвание компании: Trucknet (https://trucknet.io/)\nКонтакты: @g000seman alex@trucknet.io\n\n—\n\n👉 Обсуждение вакансии в чате @javascript_jobs","markup":[{"type":"hashtag","offset":0,"length":9,"data":"вакансия"},{"type":"link","offset":175,"length":81,"data":"https://trucknet.io/en/open-positions/middle-senior-backend-typescript-developer/"},{"type":"link","offset":1641,"length":20,"data":"https://trucknet.io/"},{"type":"handle","offset":1673,"length":10,"data":"g000seman"},{"type":"link","offset":1684,"length":16,"data":"mailto:alex@trucknet.io"},{"type":"handle","offset":1735,"length":16,"data":"javascript_jobs"}],"date":"2020-06-21T15:12:01+00:00","link":"tg://resolve?domain=javascript_jobs_feed&post=16305","tags":[{"name":"javascript"},{"name":"dotnet"},{"name":"typescript"},{"name":"deployment"},{"name":"nodejs"},{"name":"mongodb"},{"name":"docker"},{"name":"kubernetes"},{"name":"postgresql"},{"name":"gitlab"},{"name":"amazon-web-services"}],"cities":[],"allowsRemote":true}},{"node":{"__typename":"Job","id":"26477592576-1001075660570","title":"Php разработчик","text":"🏡 При публикации вакансии необходимо указать город и станцию метро (или ближайший ориентир). Если возможна удалённая работа – надо об этом указать явно. \n\n🔵 В группе есть традиция - представляться при входе:\n\n▫️Какой у вас проект или где работаете?\n▫️В чём вы специалист?\n▫️Чем можете быть интересны или полезны сообществу?\n▫️Чем интересно сообщество вам? Что вы ищите?\n▫️Откуда вы?\n▫️Как узнали про группу?\nВ сообщении нужно указать тэг #whois\n\n🔵 Правила чата: \n\n🚫 Реклама запрещена\n🚫 Политика запрещена\n🚫 Флуд и оффтопик запрещён\n🚫 Нецензурная лексика запрещена\n\nЗа несоблюдение правил - одно предупреждение, далее следует бан.\n\nЗдесь публикуем вакансии (указывая тэг #вакансия) и запросы на поиск работы (указывая тэг #ищу) по направлению PHP, Laravel, Symfony, Yii и т.д. Формат любой: full-time, part-time, remote и разовые подработки. Также обмениваемся инсайдами и аналитикой по рынку труда.\n\nЗаметили нарушение? Обратитесь, пожалуйста, к модераторам:\n🔸@Ddonalld \n🔸@DenisIzmaylov\n\n🔵 Параллельно с этой группой развиваются другие группы с вакансиями, запросами на поиск работы и аналитикой по рынку труда в разных направлениях:\n\n🔸@qa_jobs – по всем видам тестирования, его автоматизации и т.д. \n🔸@mobile_jobs – по направлению iOS, Android, Xamarin и т.д.\n🔸@javascript_jobs – по JavaScript, React.js, Node.js, React Native и пр.\n🔸@devops_jobs – по направлению DevOps, Docker, CoreOS, Kubernetes и пр\n🔸@uiux_jobs –  по направлению дизайна UI, UX, Design Thinking, Style Guides, Mobile и т.д.\n🔸@products_jobs – по управлению продуктами, Growth Hacking, Cust Dev, Design Thinking, UX.\n\n🌎 Возможно, вам также будут интересны группы: @qa_ru, @android_ru, @ios_ru, @reactnative_ru, @react_js, @nodejs_ru, @angularjs_ru, @angular2, @devops_ru, @uiux_ru, @products_, @agile_ru, @selfdev_ru. Приятного общения!","markup":[{"type":"hashtag","offset":440,"length":6,"data":"whois"},{"type":"hashtag","offset":677,"length":9,"data":"вакансия"},{"type":"hashtag","offset":728,"length":4,"data":"ищу"},{"type":"handle","offset":968,"length":9,"data":"Ddonalld"},{"type":"handle","offset":981,"length":14,"data":"DenisIzmaylov"},{"type":"handle","offset":1147,"length":8,"data":"qa_jobs"},{"type":"handle","offset":1214,"length":12,"data":"mobile_jobs"},{"type":"handle","offset":1275,"length":16,"data":"javascript_jobs"},{"type":"handle","offset":1349,"length":12,"data":"devops_jobs"},{"type":"handle","offset":1421,"length":10,"data":"uiux_jobs"},{"type":"handle","offset":1513,"length":14,"data":"products_jobs"},{"type":"handle","offset":1651,"length":6,"data":"qa_ru"},{"type":"handle","offset":1659,"length":11,"data":"android_ru"},{"type":"handle","offset":1672,"length":7,"data":"ios_ru"},{"type":"handle","offset":1681,"length":15,"data":"reactnative_ru"},{"type":"handle","offset":1698,"length":9,"data":"react_js"},{"type":"handle","offset":1709,"length":10,"data":"nodejs_ru"},{"type":"handle","offset":1721,"length":13,"data":"angularjs_ru"},{"type":"handle","offset":1736,"length":9,"data":"angular2"},{"type":"handle","offset":1747,"length":10,"data":"devops_ru"},{"type":"handle","offset":1759,"length":8,"data":"uiux_ru"},{"type":"handle","offset":1769,"length":10,"data":"products_"},{"type":"handle","offset":1781,"length":9,"data":"agile_ru"},{"type":"handle","offset":1792,"length":11,"data":"selfdev_ru"}],"date":"2020-06-19T15:11:52+00:00","link":"tg://resolve?domain=php_jobs&post=25251","tags":[{"name":"php"},{"name":"laravel"},{"name":"symfony"},{"name":"yii"},{"name":"mobile"},{"name":"ios"},{"name":"android"},{"name":"xamarin"},{"name":"javascript"},{"name":"reactjs"},{"name":"nodejs"},{"name":"docker"},{"name":"kubernetes"},{"name":"angularjs"},{"name":"react-native"}],"cities":[],"allowsRemote":true}},{"node":{"__typename":"Job","id":"2232418304-1001134745498","title":"Devops инженер","text":"#вакансия #Remote #работаDevOps  #удаленка \n\nКомпания: IDG\nФормат работы: удаленка\nЗанятость: полная\nЗарплатная вилка: $2500 до $4000\n\n👋Всем привет. Меня зовут Гульназ. \nМы занимаемся разработкой собственных образовательных проектов, а также проектов для клиентов - технологических, финансовых и аудиторских компаний.\nСейчас мы ищем DevOps инженера в дополнение к нашей текущей DevOps-команде, который будет вместе с нами делать cross-cloud big-data/ai платформу для одного из наших крупных постоянных клиентов.\nУ нас всё в k8s. Помимо этого есть spark, несколько баз данных и еще куча всего интересного. Разворачиваем с помощью Terraform/Ansible/Helm\n\n📍Требования:\n\n- Опыт работы с AWS/Azure/GCE - от 2+ лет;\n- Опыт работы с Kubernetes - от 2+ лет\n- Опыт работы со Spark - от 1 года\n- Имеет опыт настройки и администрирования БД (Mongo, Redis, Rabbit, SQL Server, Postgres, MySQL, Elastic Search)\n- Опыт разработки на Python или других подобных языках;\n- Опыт организации процесса CI/CD (jenkins, teamcity).\n- Английский на уровне Intermediate и выше.\n\nБудет плюсом: \n\n- Опыт работы в крупных международных компаниях;\n- Опыт работы с технологиями Big Data;\n\n📌Что мы предлагаем:\n\n- Интересные задачи и возможность реализовать свой потенциал в международных проектах компании и внутренних стартапах;\n- Гибкий график (начало и конец рабочего дня согласовываются с менеджером и командой проекта)\n- Полностью удаленная работа\n- Дополнительные выплаты за профессиональные успехи\n\nКонтакт: @IDGAccount\n\n—\n\n👉 Обсуждение вакансии в чате @devops_jobs","markup":[{"type":"hashtag","offset":0,"length":9,"data":"вакансия"},{"type":"hashtag","offset":10,"length":7,"data":"Remote"},{"type":"hashtag","offset":18,"length":13,"data":"работаDevOps"},{"type":"hashtag","offset":33,"length":9,"data":"удаленка"},{"type":"handle","offset":1487,"length":11,"data":"IDGAccount"},{"type":"handle","offset":1533,"length":12,"data":"devops_jobs"}],"date":"2020-06-19T14:40:37+00:00","link":"tg://resolve?domain=devops_jobs_feed&post=2129","tags":[{"name":"cloud"},{"name":"ansible"},{"name":"amazon-web-services"},{"name":"azure"},{"name":"kubernetes"},{"name":"redis"},{"name":"rabbitmq"},{"name":"sql"},{"name":"postgresql"},{"name":"mysql"},{"name":"elasticsearch"},{"name":"python"},{"name":"jenkins"},{"name":"sql-server"}],"cities":[],"allowsRemote":true}},{"node":{"__typename":"Job","id":"2230321152-1001134745498","title":"Devops инженер","text":"#вакансия #devops\nГород и адрес офиса: #Москва\nФормат работы: #офис возможна частичная удаленка\nЗанятость: #полная\nЗарплатная вилка: от 180 000 до 270 000 на руки\n\nОдним из направлений деятельности Перфоманс Лаб является внедрение практик и инструментов DevOps, позволяющих улучшить time-to-market и повысить эффективность процессов наших клиентов.\nМы ищем сильных инженеров DevOps, умеющих решать сложные задачи в части поставки и внедрения продуктов и готовых к самостоятельному принятию решений и консультированию представителей клиентов.\nНужно будет:\n💪 Помогать командам наших клиентов при внедрении DevOps решений, включающие такие области, как автоматизация процессов сборки и развертывания систем, автоматизированное тестирование, мониторинг и релиз продуктов.\n💪 Устанавливать и настраивать инструменты DevOps.\n💪 Взаимодействовать с разработчиками и системными администраторами, координировать команды из смежных областей при переходе на модель DevOps.\n💪 Подготавливать документацию по проектам и внедрению DevOps решений.\n💪 Разрабатывать скрипты.\nБез чего не обойтись:\n🌟 Опыт развертывания, автоматизация сборки, мониторинга, непрерывной интеграции.\n🌟 Опыт работы с инструментами управления конфигурациями (Ansible или Puppet, Chef).\n🌟 Опыт работы с системами контейнерной виртуализации (Docker, Docker Swarm).\n🌟 Опыт работы с оркестраторами Docker: Kubernetes/Openshift.\n🌟 Опыт работы с CI/CD (Jenkins/Gitlab CI/Bamboo/Teamcity), понимание плюсов и минусов таких инструментов.\n🌟 Знание идеологии и инструментов infrastructure as a code.\n🌟 Хорошее знание Git, Git-Flow.\n🌟 Готовность постоянно самообучаться и помогать другим в освоении современных ИТ-технологий и инструментов.\nЧто мы предлагаем:\n🔥 Возможность попробовать разнообразные системы и технологии на практике.\n🔥 Огромное количество возможностей для обучения и саморазвития.\n🔥 Работа в успешной компании — резиденте Сколково.\n🔥 Официальное трудоустройство по ТК и белая зарплата.\n🔥 3 оплачиваемых отгула в год в дополнение к отпуску.\n🔥 Скидка на изучение английского языка и частичная компенсация ДМС.\n🔥 Курсы, сертификации за счет компании.\n🔥 Индивидуальный план профессионального развития.\n\nНазвание компании: Перфоманс Лаб \nКонтакты: @bystrova_ak / a.bystrova@pflb.ru\n\n—\n\n👉 Обсуждение вакансии в чате @devops_jobs","markup":[{"type":"hashtag","offset":0,"length":9,"data":"вакансия"},{"type":"hashtag","offset":10,"length":7,"data":"devops"},{"type":"hashtag","offset":39,"length":7,"data":"Москва"},{"type":"hashtag","offset":62,"length":5,"data":"офис"},{"type":"hashtag","offset":107,"length":7,"data":"полная"},{"type":"handle","offset":2226,"length":12,"data":"bystrova_ak"},{"type":"link","offset":2241,"length":18,"data":"mailto:a.bystrova@pflb.ru"},{"type":"handle","offset":2294,"length":12,"data":"devops_jobs"}],"date":"2020-06-19T12:25:14+00:00","link":"tg://resolve?domain=devops_jobs_feed&post=2127","tags":[{"name":"ansible"},{"name":"docker"},{"name":"kubernetes"},{"name":"jenkins"},{"name":"gitlab"},{"name":"git"}],"cities":[{"code":"moscow"}],"allowsRemote":true}},{"node":{"__typename":"Job","id":"2228224000-1001134745498","title":"Devops инженер","text":"#вакансия #офис #Москва #DevSecOps \n\nИщу любителя безопасной инфраструктуры в компанию Swordfish Security.\n\nРебята интересные, команда адекватная, практикуют создание защищенных приложений, адаптируя и тиражируя практики SSDL.\n\nИх применение гарантирует премиальный уровень защищенности ПО, а максимальная автоматизация процессов при помощи инструментального стека DevSecOps обеспечивает эффективность инженерного процесса разработки. (с)\n\nВилка: 120-180+\nПожелания к опыту: 1-3 года\n\nЧто надо уметь:\n- кодить на Java или Python, уметь разбираться в чужом коде\n- знать, зачем вообще нужны DevOps-практики\n\n- Опыт работы с инструментами безопасности:\nSAST (Checkmarx, Fortify, Solar Incode) - в приоритете;\nБудет плюсом - DAST (NetSparker, Acunetix, HP WebInspect, Burp Enterprise, Wallarm FAST);\nБудет плюсом - OSA / SCA (Nexus IQ, WhiteSource, BlackDuck, Dependency Checker);\nУверенная работа с Unix системами;\nУмение находить и эксплуатировать уязвимости;\n\nБудет плюсом опыт работы с широким инструментальным стеком разработки:\n* Teamcity/Jenkins/Gitlab CI,\n* Bitbucket/GitLab,\n* Jira/Confluence,\n* Nexus Repo/Jfrog Artifactory,\n* Docker/Kubernetes;\n\nУсловия:\nОфис, Москва ст. м. ЗИЛ, Тульская, Новоданиловская набережная, 6к1\nгибкий график, плюшки \"спорт+ДМС\" :)\n\nКонтакты:\nПолина @polinathin\n\n—\n\n👉 Обсуждение вакансии в чате @devops_jobs","markup":[{"type":"hashtag","offset":0,"length":9,"data":"вакансия"},{"type":"hashtag","offset":10,"length":5,"data":"офис"},{"type":"hashtag","offset":16,"length":7,"data":"Москва"},{"type":"hashtag","offset":24,"length":10,"data":"DevSecOps"},{"type":"handle","offset":1284,"length":11,"data":"polinathin"},{"type":"handle","offset":1330,"length":12,"data":"devops_jobs"}],"date":"2020-06-19T09:38:47+00:00","link":"tg://resolve?domain=devops_jobs_feed&post=2125","tags":[{"name":"java"},{"name":"python"},{"name":"unix"},{"name":"jenkins"},{"name":"gitlab"},{"name":"docker"},{"name":"kubernetes"}],"cities":[{"code":"moscow"}],"allowsRemote":false}},{"node":{"__typename":"Job","id":"2227175424-1001134745498","title":"Devops инженер","text":"#вакансия \nГород и адрес офиса: Москва (удаленка)\nФормат работы: удаленка\nЗанятость: проектная\nЗарплатная вилка: 500-1400 р./час\nОписание вакансии: DevOps\nПодробнее: Доработать helm chart в кластере OpenShift. \nИмеется приложение микросервисной архитектуры, из порядка 10 микросервисов. Необходимо развернуть его на корпоративной платформе третьей стороны, Kubernetes в варианте OpenShift / OKD. Есть заготовка в виде Helm chart. Потребуется разобраться с доступом к корпоративному PgAAS, дисковому пространству, и соответствующим образом доработать chart.\nНазвание компании: Copenrat\nКонтакты: @andviro\n\n—\n\n👉 Обсуждение вакансии в чате @devops_jobs","markup":[{"type":"hashtag","offset":0,"length":9,"data":"вакансия"},{"type":"handle","offset":595,"length":8,"data":"andviro"},{"type":"handle","offset":638,"length":12,"data":"devops_jobs"}],"date":"2020-06-19T09:36:47+00:00","link":"tg://resolve?domain=devops_jobs_feed&post=2124","tags":[{"name":"kubernetes"}],"cities":[{"code":"moscow"}],"allowsRemote":true}},{"node":{"__typename":"Job","id":"2226126848-1001134745498","title":"Devops инженер","text":"#вакансия #удаленно #devops \nВакансия: DevOps/Разработчик бандлов\nЛокация: удаленно\nЗаработная плата: от 120 до 180 тыс. руб. гросс (готовы обсуждать)\n\nArenadata – корпоративная платформа сбора и обработки больших данных на базе open-source проектов https://arenadata.tech/ Является контрибьютором open-source проектов Kafka, Clickhouse, Hadoop, Greenplum и других. Компания входит в ODPi (Linux Foundation).\n\nЧем предстоит заниматься:\n• Активно участвовать в разработке, развитии и поддержке системы управления развертыванием Big Data сервисов (Hadoop, Clickhouse, Greenplum);\n• Cозданием инфраструктурных обвязок для опенсорс проектов для автоматизации их разверток;\n• Работать c системой отслеживания ошибок (Jira);\n• Участвовать в разработке сценариев тестирования;\n• Принимать решения по выбору инструментов;\n• Участвовать в третьей линии поддержки заказчиков сервиса.\n\nЧто ожидаем:\n• Опыт автоматизации работы с помощью Ansible, опыт написания с нуля Ansible playbook;\n• Знание Linux (RHEL, CentOS, Ubuntu) на уровне администратора;\n• Опыт написания bash-скриптов;\n• Опыт работы с Git; \n• Опыт работы со стеком Hadoop.\n\nДополнительным плюсом будет:\n• Опыт работы с системами виртуализации (KVM, VMware, OpenStack);\n• Опыт работы с контейнерами: Docker, OpenShift, Kubernetes;\n• Опыт работы со Clickhouse;\n• Опыт работы со Greenplum;\n• Опыт сопровождения IT-инфраструктуры;\n• Знание Python.\n\nУ нас Вы сможете получить:\n• Работа в молодом, дружном коллективе в атмосфере стартапа, но с бонусами большой устоявшейся компании;\n• Сильная техническая экспертиза в команде;\n• Проекты внедрения в крупнейших компаниях России;\n• Возможность гибкого графика;\n• Участие в крупнейших российских и международных ИТ-конференциях и выставках;\n• Конкурентная заработная плата по результатам собеседования, ежегодный ее пересмотр по итогам аттестации\n\n✉️ Контакты: opankina@ibs.ru @itgig\n\n—\n\n👉 Обсуждение вакансии в чате @devops_jobs","markup":[{"type":"hashtag","offset":0,"length":9,"data":"вакансия"},{"type":"hashtag","offset":10,"length":9,"data":"удаленно"},{"type":"hashtag","offset":20,"length":7,"data":"devops"},{"type":"link","offset":250,"length":23,"data":"https://arenadata.tech/"},{"type":"link","offset":1854,"length":15,"data":"mailto:opankina@ibs.ru"},{"type":"handle","offset":1870,"length":6,"data":"itgig"},{"type":"handle","offset":1911,"length":12,"data":"devops_jobs"}],"date":"2020-06-18T20:27:12+00:00","link":"tg://resolve?domain=devops_jobs_feed&post=2123","tags":[{"name":"kafka"},{"name":"hadoop"},{"name":"linux"},{"name":"ansible"},{"name":"centos"},{"name":"ubuntu"},{"name":"bash"},{"name":"git"},{"name":"docker"},{"name":"kubernetes"},{"name":"python"}],"cities":[],"allowsRemote":true}},{"node":{"__typename":"Job","id":"2220883968-1001134745498","title":"Devops engineer","text":"#вакансия #devops #fulltime #НижнийНовгород\n\nВакансия: DevOps Engineer\nКомпания: Natera  ( www.natera.com)\nЛокация: Нижний Новгород\nФормат работы: офис и удаленный формат\nЗанятость: полная\nЗарплатная вилка: от 2500 до 3200 $ до вычета.  \nКонтакт:@zKITO\n\nВ продуктовую компанию ищем коллегу. \n\n\n      BENEFITS\nSalary $ 2500-3200 gross.  \nStocks\nPossibility of remote work with flexible working hours\nFree lunch, snacks etc in office\nMacbook Pro + monitors\nComfortable and cozy office with table tennis, playstation etc\nPossibility of business trips to the USA California\nFull compliance with labour laws.\n\n\nKNOWLEDGE, SKILLS, AND ABILITIES\n\n  Mandatory\nExperience in Linux Ubuntu administration.\nPractical experience managing applications deployed using AWS/GCP or Docker.\nAbility to read and understand Java code.\nStrong ability to troubleshoot complex issues ranging from system resources to application stack traces.\n\n  Nice to have experience with\nKubernetes, Rancher\nPython/Java\nTerraform\nAtlassian applications stack\ndatabases and SQL\n  \n \nPRIMARY RESPONSIBILITIES\n\nDevelop, configure and manage tools for fast and reliable deployments of our software.\nParticipate in operations efforts and be the point person for infrastructural activities.\nBuild tools for monitoring our infrastructure and resolve any issues with instances running in production. \nDevelop automation and CI/CD processes to enable teams to build, test, deploy, manage, configure, scale and monitor their applications using the latest technologies such as Docker, Kubernetes, Terraform and others.\nParticipate in architectural decisions to help improve reliability and scalability of our software.\nHelp configure and manage development tools such as Atlassian Bitbucket, Bamboo, Artifactory and others.\n\n—\n\n👉 Обсуждение вакансии в чате @devops_jobs","markup":[{"type":"hashtag","offset":0,"length":9,"data":"вакансия"},{"type":"hashtag","offset":10,"length":7,"data":"devops"},{"type":"hashtag","offset":18,"length":9,"data":"fulltime"},{"type":"hashtag","offset":28,"length":15,"data":"НижнийНовгород"},{"type":"link","offset":91,"length":14,"data":"http://www.natera.com"},{"type":"handle","offset":246,"length":6,"data":"zKITO"},{"type":"handle","offset":1810,"length":12,"data":"devops_jobs"}],"date":"2020-06-18T11:25:45+00:00","link":"tg://resolve?domain=devops_jobs_feed&post=2118","tags":[{"name":"linux"},{"name":"ubuntu"},{"name":"amazon-web-services"},{"name":"google-cloud-platform"},{"name":"docker"},{"name":"java"},{"name":"kubernetes"},{"name":"python"},{"name":"sql"}],"cities":[{"code":"nice"},{"code":"nizhny-novgorod"}],"allowsRemote":true}},{"node":{"__typename":"Job","id":"1704984576-1001091028994","title":"Java разработчик","text":"#вакансия  #офис #удалёнка #DevOps #Java\n\nкомпания: #JTSOFT\nгород: #Москва\nвилка: 200-260+ на рук\nконтакты: @reanimatsiya\n\n\n🧑🏻‍💻Я ищу ведущего Java-разработчика со знанием Spring Boot и DevOps практик в компанию JTSOFT.\n\nJTSOFT - это аутсорсинговая IT компания, которая уже 7 лет специализируемся на разработке программных решений в сферах b2b, b2g. \n\nКомпания имеет статус IBM Premier Business Partner и работает практически со всей линейкой IBM. \nКоманды JTSOFT внедряли Универсальную Электронную Карту, разрабатывали приложения и формы для банка «Возрождение», а также реализовали проект по визуализации и контролю системы БД IBM Tivoli.\n\n🤝Вам будут рады при:\n\n✔️Опыте работы не менее 5 лет на Java Core, Java 8+\n✔️Уверенном знании фреймворков Spring\n✔️Знании принципов и шаблонов проектирования\n✔️Опыте профилирования, оптимизации и решения performance-проблем Java-приложений\n✔️Опыте проектирования API (REST, GRPC и т.д.)\n✔️Опыте работы с разными системами оркестрации (Kubernetes, OpenShift, Mesos/Marathon);\n✔️Знании Apache Kafka, MongoDB, Elasticsearch, Docker\n✔️Опыте написания инфраструктурных скриптов на Ansible\n\n\n➕Огромным плюсом будет:\n\n▪️Опыт работы с реляционными БД;\n▪️Опыт работы с SOAP;\n▪️Знакомство с методологией Agile, Scrum.\n\n\n🍪 Компания предоставляет все необходимое:\n\n👌🏻ТК РФ\n👌🏻Ваш вклад в разработку всегда будет учтен, так как работа происходит в небольших автономных группах, обеспечивающих полный цикл разработки.\n👌🏻Компания предоставляет современное и удобное оборудование\n👌🏻Комфортный офис в бизнес-центре \"Технопарк\", в двух минутах ходьбы от м. Технопарк или удаленно при согласовании с командой","markup":[{"type":"hashtag","offset":0,"length":9,"data":"вакансия"},{"type":"hashtag","offset":11,"length":5,"data":"офис"},{"type":"hashtag","offset":17,"length":9,"data":"удалёнка"},{"type":"hashtag","offset":27,"length":7,"data":"DevOps"},{"type":"hashtag","offset":35,"length":5,"data":"Java"},{"type":"hashtag","offset":52,"length":7,"data":"JTSOFT"},{"type":"hashtag","offset":67,"length":7,"data":"Москва"},{"type":"handle","offset":108,"length":13,"data":"reanimatsiya"}],"date":"2020-06-18T08:57:14+00:00","link":"tg://resolve?domain=jvmjobs&post=1626","tags":[{"name":"java"},{"name":"jvm"},{"name":"spring"},{"name":"rest"},{"name":"kubernetes"},{"name":"apache"},{"name":"kafka"},{"name":"mongodb"},{"name":"elasticsearch"},{"name":"docker"},{"name":"ansible"},{"name":"soap"},{"name":"spring-boot"}],"cities":[{"code":"moscow"}],"allowsRemote":true}},{"node":{"__typename":"Job","id":"91154808832-1001067529236","title":"Python разработчик","text":"#вакансия #python #django #middle #senior #фултайм #Кипр #remote                                                                                                                                                                         Компания: Exness\nФормат работы: удаленная или релокация на Кипр (по желанию кандидата)\nЗанятость: полная\nЗарплатная вилка: от 3000 EUR (обсуждаем с кандидатами по итогам интервью)                                                                               \n🌟Кто мы?\nМы финтех компания, разрабатывающая B2B и B2C решения, с более чем 100 тысячами активных клиентов. Мы развиваемся и быстро движемся, ориентируясь на данные, мы всегда узнаем что-то новое о наших клиентах и находим новые способы сделать наш продукт более полезным и удобным для них. У нас есть 3 офиса: на Кипре, в Малайзии и Великобритании, более 600 сотрудников и 50 национальностей среди сотрудников.\n\n🤩Кого мы ищем?\nК нам в команду Identity & Access Management (IAM) нужен инженер, любящий backend, имеющий опыт разработки на Python и стремящийся к простым решениям сложных задач. Будет классно, наличие опыта построения микросервисной архитектуры, знание SQL, любовь к написанию unit тестов. \n\n🤗Чем предстоит заниматься?\nРазрабатывать новые и поддерживать старые сервисы, связанные с аутентификацией, авторизацией, верификацией и процедурами KYC. Участвовать в код ревью и командных активностях. Покрывать свой код unit тестами. \n\n🛠Наш стек технологий:\n -Python 3.x\n -Django, FastAPI, aiohttp\n -PostgreSQL, Redis\n -Kafka\n -Docker, Kubernetes, Rancher\n\n🔥Мы предлагаем:\nПри удаленном сотрудничестве:\n-Медицинское страхование для сотрудника и членов их семей;\n-Компенсация спорта;\n-Путешествие на Кипр, чтобы познакомиться со своей командой (раз в год).\nПри желании релокации на Кипр:\n-Релокационный пакет для нового сотрудника и его семьи (билеты, визы, разрешение на работу, корпоративная квартира на первый месяц и т. д.);\n-Корпоративный автомобиль Мини Купер S и парковка возле офиса или автобусные билеты;\n-Медицинское страхование для сотрудника и членов их семей;\n-Корпоративный фитнес-центр для сотрудников и их супругов;\n-Программа компенсации детского сада / школы;\n-Непрерывное профессиональное развитие, много интересных задач;\n-Отличный офис со свежевыжатыми соками, печеньем и лучшим видом на море из нашего собственного бара на крыше. \n\nНемного больше об Exness - https://clck.ru/N7aRd.\n\nЕсли тебе интересно, пишите в Telegram @sofia_tomashevich или на почту sofia.tomashevich@exness.com","markup":[{"type":"hashtag","offset":0,"length":9,"data":"вакансия"},{"type":"hashtag","offset":10,"length":7,"data":"python"},{"type":"hashtag","offset":18,"length":7,"data":"django"},{"type":"hashtag","offset":26,"length":7,"data":"middle"},{"type":"hashtag","offset":34,"length":7,"data":"senior"},{"type":"hashtag","offset":42,"length":8,"data":"фултайм"},{"type":"hashtag","offset":51,"length":5,"data":"Кипр"},{"type":"hashtag","offset":57,"length":7,"data":"remote"},{"type":"link","offset":2385,"length":21,"data":"https://clck.ru/N7aRd"},{"type":"handle","offset":2448,"length":18,"data":"sofia_tomashevich"},{"type":"link","offset":2480,"length":28,"data":"mailto:sofia.tomashevich@exness.com"}],"date":"2020-06-18T06:16:03+00:00","link":"tg://resolve?domain=python_jobs&post=0","tags":[{"name":"python"},{"name":"django"},{"name":"ms-access"},{"name":"sql"},{"name":"postgresql"},{"name":"redis"},{"name":"kafka"},{"name":"docker"},{"name":"kubernetes"}],"cities":[{"code":"sofia"}],"allowsRemote":true}}]}}},"context":{}}