{"hash":"f5f6bf98bd95e769321482904cbbd488f77922fd","data":{"records":{"id":"mvvm","name":"mvvm","belongsTo":{"totalCount":54,"pageInfo":{"totalPages":6,"currentPage":6},"edges":[{"node":{"__typename":"Job","id":"71292682240-1001054966032","title":"Android разработчик","text":"#вакансия #Android #Kotlin #Москва #офис \n\nВакансия: Android разработчик\nГород: Москва м. Выставочная/Арбатская\nЗарплата: от 190 000 рублей до 270 000 рублей на руки \nФормат: офис, полный день, полная занятость (гибкое начало)\nКомпания Innovative People\n\nВ команду «Средний и малый бизнес» ищу разработчика. Проект новый, agile-команда. \n\n📲 Обязанности\n• Разработка функционала мобильного приложения\n• Разработка unit-тестов, рефакторинг, code review\n• Соблюдение принципов командной разработки\n• Работа в офисе с командой\n\n📲 Требования \nОпыт разработки мобильных приложений от 2-х лет; \nОтличные знания ООП, классических алгоритмов и структур данных; \nОтличные знания платформы Android, языков Java и Kotlin; \nОпыт применения паттернов: MVP, MVVM, CLEAN; \nОпыт работы с библиотеками json и xml для мобильных и серверных решений опыт интеграции со сторонними системами по API опыт написания unit-тестов; \nОпыт работы с TFS, JIRA, GIT.\n\n📲 Условия:\n• Хорошую команду\n• ДМС со стоматологией, всё белое\n• Возможность предлагать собственные идеи\n• ноутбук, адекватное руководство\n\n📩Резюме и вопросы @Priboch","markup":[{"type":"hashtag","offset":0,"length":9,"data":"вакансия"},{"type":"hashtag","offset":10,"length":8,"data":"Android"},{"type":"hashtag","offset":19,"length":7,"data":"Kotlin"},{"type":"hashtag","offset":27,"length":7,"data":"Москва"},{"type":"hashtag","offset":35,"length":5,"data":"офис"},{"type":"handle","offset":1098,"length":8,"data":"Priboch"}],"date":"2020-06-15T10:44:21+00:00","link":"tg://resolve?domain=mobile_jobs&post=0","tags":[{"name":"mobile"},{"name":"android"},{"name":"kotlin"},{"name":"java"},{"name":"mvvm"},{"name":"json"},{"name":"xml"},{"name":"tfs"},{"name":"git"}],"cities":[{"code":"moscow"}],"allowsRemote":false}},{"node":{"__typename":"Job","id":"71284293632-1001054966032","title":"Android разработчик","text":"#вакансия #android #remote #fulltime \nВакансия: android разработчик\nФормат работы: удаленно \nЗанятость: полная\nЗ/п: от 170 000 до 200 000 по результатам общения\nКомпания: https://poloniumarts.com/\nСфера деятельности: разработка ПО.\n\nНа один из новых проектов. Все с нуля. Никакого легаси. \n\nCтек: kotlin, RxJava, Firebase (Retrofit Glide Android Annotation) \n\nОсновные задачи\n▪️верстка экранов приложения\n▪️проработка Api и логика приложения\n▪️полная поддержка проекта\n\nТребования\n▪️опыт коммерческой разработки на Java и/или Kotlin от 1 года\n▪️опыт работы с Android SDK, Gradle, Layout Inspector, Linux\n▪️понимание принципов MVP и MVVM\n▪️понимание основных принципов работы с многопоточностью\n\nМы предлагаем\n▪️стабильную зарплату по результатам собеседования\n▪️оформление по ТК РФ\n▪️гибкий график работы\n▪️интересные, творческие задачи\n\nКонтакты: @Tragoman","markup":[{"type":"hashtag","offset":0,"length":9,"data":"вакансия"},{"type":"hashtag","offset":10,"length":8,"data":"android"},{"type":"hashtag","offset":19,"length":7,"data":"remote"},{"type":"hashtag","offset":27,"length":9,"data":"fulltime"},{"type":"bold","offset":38,"length":9,"data":""},{"type":"bold","offset":68,"length":13,"data":""},{"type":"bold","offset":93,"length":11,"data":""},{"type":"bold","offset":111,"length":5,"data":""},{"type":"bold","offset":161,"length":9,"data":""},{"type":"link","offset":171,"length":25,"data":"https://poloniumarts.com/"},{"type":"bold","offset":197,"length":19,"data":""},{"type":"bold","offset":360,"length":16,"data":""},{"type":"bold","offset":470,"length":11,"data":""},{"type":"bold","offset":695,"length":14,"data":""},{"type":"bold","offset":838,"length":9,"data":""},{"type":"handle","offset":848,"length":9,"data":"Tragoman"}],"date":"2020-06-15T07:25:26+00:00","link":"tg://resolve?domain=mobile_jobs&post=0","tags":[{"name":"mobile"},{"name":"android"},{"name":"kotlin"},{"name":"firebase"},{"name":"java"},{"name":"gradle"},{"name":"linux"},{"name":"mvvm"}],"cities":[],"allowsRemote":true}},{"node":{"__typename":"Job","id":"71216136192-1001054966032","title":"Android разработчик","text":"#вакансия #android #relocate #germany\n\nAndroid Developer  \n\nРелокация:🇩🇪 Германия, Дюссельдорф\nФормат работы: офис\nЗанятость: полная\nЗ/п: брутто - от 36000€  до 50000€ в год\nнетто - от 1800€ в месяц - (в среднем 40% налогов для неженатого человека) \n\nВ общем:👌 Компания troido ищет Android разработчиков в свою команду, помогает с релокацией (трудоустройство по голубой карте), предоставляет идеальные условия для развития и работы (4 рабочих дня + 1 день для обучения), а также конкурентную, постоянно возрастающую заработную плату (компания оплачивает сертификаты - вы их получаете - зарплата возрастает). Важны хорошие знания английского и android-разработки.\n\nМы ждём от будущего сотрудника:🙃\n • От 2-х лет опыта работы с Android SDK и Java\n • Хорошее знание Kotlin и Git\n • Способность писать чистый и тестируемый код\n • Хорошее знание английского языка (Upper intermediate и выше)\n • Бонус: знание популярных фреймворков RxJava, Dagger2\n • Бонус: знание архитектурных паттернов  (MVC, MVP, or MVVM)\n • Наличие высшего образование (это условие для предоставления голубой карты)\n  \nКомпания предлагает:👍\n • Конкурентyую заработную плату и бонусы\n • 4-х дневную рабочую неделю \n • План персонального развития\n • Современное оборудование\n • Бесплатные книги\n • Конференции\n • Курсы немецкого языка для ассимиляции в немецком обществе\n • Общепринятые плюшки в мире айти (снэки, барбeкю, тимбилдинг и всё такое)\n\nЧем занимаемся:🥳\nКомпания является синергией аутсорсинговой компании, которая предоставляет разработчиков другим компаниям и продуктовой компании(имеются свои проекты над которыми также идет работа)\n\nПолезные видеоматериалы:🎬\n • О компании\n • О Дюссельдорфе\n • О Развитии в компании\n • О Тимбилдинге\n\nНе теряй свой шанс пиши сюда: @Giorgi_qvark","markup":[{"type":"hashtag","offset":0,"length":9,"data":"вакансия"},{"type":"hashtag","offset":10,"length":8,"data":"android"},{"type":"hashtag","offset":19,"length":9,"data":"relocate"},{"type":"hashtag","offset":29,"length":8,"data":"germany"},{"type":"bold","offset":39,"length":18,"data":""},{"type":"bold","offset":60,"length":10,"data":""},{"type":"bold","offset":97,"length":14,"data":""},{"type":"bold","offset":117,"length":9,"data":""},{"type":"bold","offset":135,"length":4,"data":""},{"type":"italic","offset":140,"length":60,"data":""},{"type":"bold","offset":253,"length":7,"data":""},{"type":"link","offset":273,"length":6,"data":"https://www.troido.de/en/"},{"type":"italic","offset":346,"length":32,"data":""},{"type":"italic","offset":436,"length":35,"data":""},{"type":"italic","offset":536,"length":72,"data":""},{"type":"bold","offset":632,"length":11,"data":""},{"type":"bold","offset":646,"length":51,"data":""},{"type":"italic","offset":864,"length":25,"data":""},{"type":"italic","offset":1041,"length":44,"data":""},{"type":"bold","offset":1090,"length":19,"data":""},{"type":"bold","offset":1418,"length":14,"data":""},{"type":"bold","offset":1619,"length":24,"data":""},{"type":"link","offset":1649,"length":11,"data":"https://1180390772.rsc.cdn77.org/troidorecruiting.m4v"},{"type":"link","offset":1663,"length":15,"data":"https://1180390772.rsc.cdn77.org/duesseldorf.mp4"},{"type":"link","offset":1681,"length":22,"data":"https://1180390772.rsc.cdn77.org/persdev.mp4"},{"type":"link","offset":1706,"length":15,"data":"https://1180390772.rsc.cdn77.org/teambuilding.mp4"},{"type":"handle","offset":1751,"length":13,"data":"Giorgi_qvark"}],"date":"2020-06-13T12:26:32+00:00","link":"tg://resolve?domain=mobile_jobs&post=0","tags":[{"name":"mobile"},{"name":"android"},{"name":"java"},{"name":"kotlin"},{"name":"git"},{"name":"mvvm"}],"cities":[],"allowsRemote":false}},{"node":{"__typename":"Job","id":"71214039040-1001054966032","title":"Ios разработчик","text":"#вакансия #iOS \n\nНа проект от крупного российского банка требуется Middle iOS разработчик\n\nФормат: офис/удаленка \n\nВилка ЗП: 150-180К\n\nЛокация: Москва/СПБ\n\nТребования:\nОпыт разработки под IOS (Objective-C или Swift) от 2 лет\nУверенное знание iOS SDK, Xcode\nОпыт использования одной из архитектур: MVP, MVVM, VIPER\nЗнание особенностей: Collections, Optionals, Protocol Oriented, Generics\nПонимание, как происходит управление памятью в iOS\nПонимание принципов проектирования SOLID и желание придерживаться их\nНаличие опыта работы с REST API, HTTP, JSON, APNs\nОпыт работы с Git, знание git flow\nЖелательно уметь писать UI тесты\nЖелателен опыт в команде\n\nКонтакт: @mxm_at","markup":[{"type":"hashtag","offset":0,"length":9,"data":"вакансия"},{"type":"hashtag","offset":10,"length":4,"data":"iOS"},{"type":"handle","offset":660,"length":7,"data":"mxm_at"}],"date":"2020-06-13T11:49:54+00:00","link":"tg://resolve?domain=mobile_jobs&post=0","tags":[{"name":"mobile"},{"name":"ios"},{"name":"objective-c"},{"name":"swift"},{"name":"xcode"},{"name":"mvvm"},{"name":"rest"},{"name":"json"},{"name":"git"}],"cities":[{"code":"moscow"}],"allowsRemote":true}}]}}},"context":{}}