{"hash":"f5f6bf98bd95e769321482904cbbd488f77922fd","data":{"records":{"id":"hadoop","name":"hadoop","belongsTo":{"totalCount":12,"pageInfo":{"totalPages":2,"currentPage":1},"edges":[{"node":{"__typename":"Job","id":"2277507072-1001134745498","title":"Devops инженер","text":"#вакансия #удаленно #devops \nВакансия: DevOps/Разработчик бандлов\nЛокация: удаленно\nЗаработная плата: от 180 до 260 тыс. руб. гросс (готовы обсуждать)\n\nArenadata – корпоративная платформа сбора и обработки больших данных на базе open-source проектов https://arenadata.tech/ Является контрибьютором open-source проектов Kafka, Clickhouse, Hadoop, Greenplum и других. Компания входит в ODPi (Linux Foundation).\n\nЧем предстоит заниматься:\n• Активно участвовать в разработке, развитии и поддержке системы управления развертыванием Big Data сервисов (Hadoop, Clickhouse, Greenplum);\n• Cозданием инфраструктурных обвязок для опенсорс проектов для автоматизации их разверток;\n• Работать c системой отслеживания ошибок (Jira);\n• Участвовать в разработке сценариев тестирования;\n• Принимать решения по выбору инструментов;\n• Участвовать в третьей линии поддержки заказчиков сервиса.\n\nЧто ожидаем:\n• Опыт автоматизации работы с помощью Ansible, опыт написания с нуля Ansible playbook;\n• Знание Linux (RHEL, CentOS, Ubuntu) на уровне администратора;\n• Опыт написания bash-скриптов;\n• Опыт работы с Git; \n• Опыт работы со стеком Hadoop.\n\nДополнительным плюсом будет:\n• Опыт работы с системами виртуализации (KVM, VMware, OpenStack);\n• Опыт работы с контейнерами: Docker, OpenShift, Kubernetes;\n• Опыт работы со Clickhouse;\n• Опыт работы со Greenplum;\n• Опыт сопровождения IT-инфраструктуры;\n• Знание Python.\n\nУ нас Вы сможете получить:\n• Работа в молодом, дружном коллективе в атмосфере стартапа, но с бонусами большой устоявшейся компании;\n• Сильная техническая экспертиза в команде;\n• Проекты внедрения в крупнейших компаниях России;\n• Возможность гибкого графика;\n• Участие в крупнейших российских и международных ИТ-конференциях и выставках;\n• Конкурентная заработная плата по результатам собеседования, ежегодный ее пересмотр по итогам аттестации\n\n✉️ Контакты: opankina@ibs.ru @pankina_hr\n\n—\n\n👉 Обсуждение вакансии в чате @devops_jobs","markup":[{"type":"hashtag","offset":0,"length":9,"data":"вакансия"},{"type":"hashtag","offset":10,"length":9,"data":"удаленно"},{"type":"hashtag","offset":20,"length":7,"data":"devops"},{"type":"link","offset":250,"length":23,"data":"https://arenadata.tech/"},{"type":"link","offset":1854,"length":15,"data":"mailto:opankina@ibs.ru"},{"type":"handle","offset":1870,"length":11,"data":"pankina_hr"},{"type":"handle","offset":1916,"length":12,"data":"devops_jobs"}],"date":"2020-07-02T18:11:10+00:00","link":"tg://resolve?domain=devops_jobs_feed&post=2172","tags":[{"name":"kafka"},{"name":"hadoop"},{"name":"linux"},{"name":"ansible"},{"name":"centos"},{"name":"ubuntu"},{"name":"bash"},{"name":"git"},{"name":"docker"},{"name":"kubernetes"},{"name":"python"}],"cities":[],"allowsRemote":true}},{"node":{"__typename":"Job","id":"2262827008-1001134745498","title":"Devops engineer","text":"#вакансия #удаленка #DevOps \n\nDevOps Engineer \nГород и адрес офиса: Москва, Сочи, Новосибирск \nФормат работы: удаленка\nЗанятость: полная\nЗарплатная вилка: 4000 - 5000$ в месяц \n\nКомпания решает задачи в областях искусственного интеллекта, машинного обучения и больших данных, а вам предстоит заниматься поддержкой сложной облачной инфраструктуры и развитием DevOps-практик в компании.\n\nСильная команда, сложные задачи, перспектива быстрого роста, удаленная работа, гибкий график. С вас — опыт 3+ лет, понимание современных подходов к инфраструктуре (immutable infrastructure) и представление о том, как работают современные вычислительные облака (aws, gcp, azure, openstack-based решения).\n\nТребования: \nDevOps/SRE, ключевые слова:\nTypeScrypt, Node.js, SRE, SDN, PoP, VPN, динамическая маршрутизация, инкапсуляция трафика, Kubernetes, Helm и что-нибудь из стораджа типа Lustre, CEPH и про Apache Spark, Hadoop и особенно HDFS\n\nЧто мы предлагаем:\n— Сложные задачи, в которых можно сильно прокачать свои навыки;\n— Гибкий график;\n— Оплата обучения внутри и вне компании.\n\nP.S. Ищем супер ниндзю, который творит чудеса;)\n\nПоскольку позиция требует срочного закрытия, для того, чтобы на нее откликнуться, кандидату нужно пройти отбор на платформе по ссылке https://6nomads.com/ (это займет около часа).\n\nКонтакт для связи: @temnik_sofya\n\n—\n\n👉 Обсуждение вакансии в чате @devops_jobs","markup":[{"type":"hashtag","offset":0,"length":9,"data":"вакансия"},{"type":"hashtag","offset":10,"length":9,"data":"удаленка"},{"type":"hashtag","offset":20,"length":7,"data":"DevOps"},{"type":"link","offset":1252,"length":20,"data":"https://6nomads.com/"},{"type":"handle","offset":1318,"length":13,"data":"temnik_sofya"},{"type":"handle","offset":1366,"length":12,"data":"devops_jobs"}],"date":"2020-06-29T22:07:11+00:00","link":"tg://resolve?domain=devops_jobs_feed&post=2158","tags":[{"name":"amazon-web-services"},{"name":"google-cloud-platform"},{"name":"azure"},{"name":"nodejs"},{"name":"kubernetes"},{"name":"apache"},{"name":"hadoop"},{"name":"hdfs"},{"name":"apache-spark"}],"cities":[{"code":"moscow"},{"code":"sochi"},{"code":"novosibirsk"}],"allowsRemote":true}},{"node":{"__typename":"Job","id":"2261778432-1001134745498","title":"Devops инженер","text":"#вакансия #разыскивается #devops #Java #developer #Сочи #fulltime #работа #офис \n\nDevOps-инженер\n\nГород: Сочи\n\nФормат работы: офис\n\nЗанятость: полная\n\nЗарплатная вилка: от 130 000 до 150 000 рублей\n\nОписание вакансии:\nСоздание системы по управлению метаданными компании. Работа в кроссфункциональной команде в составе до 10 человек\n\nНазвание компании: ОЦРВ\n\nПримерный пул задач:\n•  Участие в построение архитектуры решения\n•  Развертывание и сопровождение тестовых и производственных сред экосистемы Hadoop (для R&D проектов)\n•  Настройка, оптимизация параметров кластера, траблшутинг проблем пользователей\n•  Построение CI/CD\n•  Управление мониторингом сервиса (метрики, мониторинг, алертинг, лучшие практики) со стороны эксплуатации\n•  Проведение инсталляций, апгрейдов, наката патчей и настройки дистрибутивов: ODPi Egeria, Cloudera, Hortonworks и др\n•  Подготовка инструкций для администраторов промышленных систем\n•  Обеспечение информационной безопасности на уровне инфраструктуры\n•  Управления мощностью сервиса со стороны эксплуатации\n•  Автоматизация интеграционных и функциональных тестов\n\n\nНаши требования к кандидату: \n•  Не менее 2х лет релевантного (администратор *nix) опыта работы\n•  Сильные навыки в администрировании Linux (package management, user management, shell scripting)\n•  Опыт написания скриптов автоматизации (perl, bash, powershell, python, Java, Groovy)\n•  Опыт работы с системами конфигурационного менеджмента (Puppet, Chef, Ansible, SaltStack)\n•  Опыт работы с ELK, Graylog\n•  Опыт работы с JVM-related технологиями: Java, Scala, Maven, Gradle\n•  Опыт подготовки технической документации (User Guides, Tutorials…)\n•  Опыт администрирования open source решений (трабшутинг, установка обновлений, развертывание, доступы, настройка мониторинга, диагностика узких мест, в т.ч. и производительность)\n\nБудет плюсом\n•  Опыт администрирования экосистемы Hadoop (трабшутинг, установка обновлений, развертывание, доступы, настройка мониторинга, диагностика узких мест, в т.ч. и производительность)\n•  Опыт администрирования MPP СУБД (в т.ч. backup/restore)\n•  Опыт поиска узких мест в производительности приложений со стороны оборудования (диски, cpu, gpu, сеть)\n•  Опыт построения CI/CD\n\n\n\nНаш стек:\nБек: Java 8-11, Spring, PostgreSQL/HBase/MongoDB/JanusGraph, GIT, Docker, Kubernetes, Kafka\nФронт: Vue.js\n\nУсловия: \n•  Офис в Адлере в 10 минутах до моря\n•  Оклад: 130 000 - 150 000 руб. gross\n•  Компенсация проживания 20 000 руб. gross в месяц (для кандидатов из других регионов)\n•  Релокационный бонус в размере оклада (для кандидатов из других регионов)\n•  Премия до 30% годового оклада\n•  Работа в динамичной команде единомышленников\n•  Компенсация ДМС после прохождения испытательного срока\n•  Скидки на ДМС для родственников\n•  Компенсация мобильной связи\n•  Новейшее оборудование и просторный офис\n•  Лучшая экология и климат в России\n•  Море и горнолыжный курорт рядом\n\n\nКомпания: ОЦРВ\nСайт: http://www.ocrv.ru/\nКонтакты: @Mirovan\n\n—\n\n👉 Обсуждение вакансии в чате @devops_jobs","markup":[{"type":"hashtag","offset":0,"length":9,"data":"вакансия"},{"type":"hashtag","offset":10,"length":14,"data":"разыскивается"},{"type":"hashtag","offset":25,"length":7,"data":"devops"},{"type":"hashtag","offset":33,"length":5,"data":"Java"},{"type":"hashtag","offset":39,"length":10,"data":"developer"},{"type":"hashtag","offset":50,"length":5,"data":"Сочи"},{"type":"hashtag","offset":56,"length":9,"data":"fulltime"},{"type":"hashtag","offset":66,"length":7,"data":"работа"},{"type":"hashtag","offset":74,"length":5,"data":"офис"},{"type":"link","offset":2924,"length":19,"data":"http://www.ocrv.ru/"},{"type":"handle","offset":2954,"length":8,"data":"Mirovan"},{"type":"handle","offset":2997,"length":12,"data":"devops_jobs"}],"date":"2020-06-29T14:20:07+00:00","link":"tg://resolve?domain=devops_jobs_feed&post=2157","tags":[{"name":"java"},{"name":"hadoop"},{"name":"linux"},{"name":"shell"},{"name":"perl"},{"name":"bash"},{"name":"powershell"},{"name":"python"},{"name":"groovy"},{"name":"ansible"},{"name":"jvm"},{"name":"scala"},{"name":"maven"},{"name":"gradle"},{"name":"spring"},{"name":"postgresql"},{"name":"hbase"},{"name":"mongodb"},{"name":"git"},{"name":"docker"},{"name":"kubernetes"},{"name":"kafka"},{"name":"vuejs"}],"cities":[{"code":"sochi"}],"allowsRemote":false}},{"node":{"__typename":"Job","id":"2253389824-1001134745498","title":"Devops инженер","text":"#вакансия #Москва #офис #DevOps\n\n▫️ВАКАНСИЯ: Devops engineer\nКомпания: Северсталь-Диджитал\nФормат работы: удаленно на пандемии, далее офис  \nЛокация: Москва Офис на м. Войковская или МЦК Балтийская\nЗанятость: полная \nЗарплатная вилка: до 140-180к gross middle, 180-230к gross senior  + 30% годовой бонус\n\nКомпания занимается внедрением моделей машинного обучение в производстве. Мы ищем devops инженера для поддержки и развития платформы k8s, Kafka, Hadoop, Gitlab. Работа в небольшой команде, где ваши идеи будут быстро находить реализацию.\n\n▫️Обязанности:\n • Настройка, обновление, GitLab, GitlabCI, Nexus/Artifactory; \n • Организация сбора логов с компонентов IoT платформы Северстали (GrayLog); \n • Организация сбора метрик, описывающих состояние IoT платформы; \n • Создание дашбордов и алертов в Grafana; \n • Автоматизированный выпуск релизов. \n\n▫️Требования:\n• Опыт работы в роли DevOps инженера или аналогичной позиции от 1-го года;  \n• Опыт работы с Linux в роли администратора, навыки работы с Docker; \n• Опыт работы с Hadoop, Kafka, Kubernetes. \n\n▫️Желательно:\n• Умение быстро изучать англоязычные технические ресурсы; \n• Экспертные навыки работы с ОС семейства Linux; \n• Навыки работы на языках программирования Bash, Python, Java, Scala.\n• Опыт работы с Prometeus, Zabbix, ELK\n\n▫️Условия:\n•  Гибкое начало рабочего дня\n•  Официальное оформление\n•  Корпоративную мобильную связь, медицинскую страховку и страхование жизни\n•  Участие в профессиональных конференциях\n•  Современное рабочее пространство и уютные зоны отдыха\n\nКонтакты @DaynekoRoman, @ikart\n\n—\n\n👉 Обсуждение вакансии в чате @devops_jobs","markup":[{"type":"hashtag","offset":0,"length":9,"data":"вакансия"},{"type":"hashtag","offset":10,"length":7,"data":"Москва"},{"type":"hashtag","offset":18,"length":5,"data":"офис"},{"type":"hashtag","offset":24,"length":7,"data":"DevOps"},{"type":"handle","offset":1543,"length":13,"data":"DaynekoRoman"},{"type":"handle","offset":1558,"length":6,"data":"ikart"},{"type":"handle","offset":1599,"length":12,"data":"devops_jobs"}],"date":"2020-06-25T07:26:49+00:00","link":"tg://resolve?domain=devops_jobs_feed&post=2149","tags":[{"name":"kafka"},{"name":"hadoop"},{"name":"gitlab"},{"name":"linux"},{"name":"docker"},{"name":"kubernetes"},{"name":"bash"},{"name":"python"},{"name":"java"},{"name":"scala"}],"cities":[{"code":"moscow"}],"allowsRemote":true}},{"node":{"__typename":"Job","id":"2245001216-1001134745498","title":"Devops инженер","text":"#вакансия #Москва #офис #DevOps\n\n▫️ВАКАНСИЯ: Devops engineer\nКомпания: Северсталь-Диджитал\nФормат работы: удаленно на пандемии, далее офис  \nЛокация: Москва, Офис на м. Войковская или МЦК Балтийская\nЗанятость: полная \nЗарплатная вилка: до 140-180к gross middle, 180-230к gross senior  + 30% годовой бонус\n\nКомпания занимается внедрением моделей машинного обучение в производстве. Мы ищем devops инженера для поддержки и развития платформы k8s, Kafka, Hadoop, Gitlab. Работа в небольшой команде, где ваши идеи будут быстро находить реализацию.\n\n▫️Обязанности:\n • Настройка, обновление, GitLab, GitlabCI, Nexus/Artifactory; \n • Организация сбора логов с компонентов IoT платформы Северстали (GrayLog); \n • Организация сбора метрик, описывающих состояние IoT платформы; \n • Создание дашбордов и алертов в Grafana; \n • Автоматизированный выпуск релизов. \n\n▫️Требования:\n• Опыт работы в роли DevOps инженера или аналогичной позиции от 1-го года;  \n• Опыт работы с Linux в роли администратора, навыки работы с Docker; \n• Опыт работы с Hadoop, Kafka, Kubernetes. \n\n▫️Желательно:\n• Умение быстро изучать англоязычные технические ресурсы; \n• Экспертные навыки работы с ОС семейства Linux; \n• Навыки работы на языках программирования Bash, Python, Java, Scala.\n• Опыт работы с Prometeus, Zabbix, ELK\n\n▫️Условия:\n•  Гибкое начало рабочего дня\n•  Официальное оформление\n•  Корпоративную мобильную связь, медицинскую страховку и страхование жизни\n•  Участие в профессиональных конференциях\n•  Современное рабочее пространство и уютные зоны отдыха\n\nКонтакты @DaynekoRoman, @ikart\n\n—\n\n👉 Обсуждение вакансии в чате @devops_jobs","markup":[{"type":"hashtag","offset":0,"length":9,"data":"вакансия"},{"type":"hashtag","offset":10,"length":7,"data":"Москва"},{"type":"hashtag","offset":18,"length":5,"data":"офис"},{"type":"hashtag","offset":24,"length":7,"data":"DevOps"},{"type":"handle","offset":1544,"length":13,"data":"DaynekoRoman"},{"type":"handle","offset":1559,"length":6,"data":"ikart"},{"type":"handle","offset":1600,"length":12,"data":"devops_jobs"}],"date":"2020-06-23T09:00:51+00:00","link":"tg://resolve?domain=devops_jobs_feed&post=2141","tags":[{"name":"kafka"},{"name":"hadoop"},{"name":"gitlab"},{"name":"linux"},{"name":"docker"},{"name":"kubernetes"},{"name":"bash"},{"name":"python"},{"name":"java"},{"name":"scala"}],"cities":[{"code":"moscow"}],"allowsRemote":true}},{"node":{"__typename":"Job","id":"2236612608-1001134745498","title":"Devops инженер","text":"#вакансия #фуллтайм #офис #senior #teamlead #SRE #Kubernetes #Москва #fulltime\n\nВсем привет! \n\nИщем Team Lead /Senior SRE в крутую команду разработки аналитической платформы на базе Kubernetes и компонентов из экосистемы Hadoop.\nЛокация: Центр Москвы \nЗанятость: full time в офисе \nДоход: 250-350к рублей на руки. Мы готовы гибко обсуждать функции, роли и наименование позиции в зависимости от опыта и квалификации кандидата.\n\nЗадачи:\n✅Автоматизация механизмов развертывания и настройки операционной системы, платформы оркестрации контейнеров и инфраструктурных сервисов.\n✅Автоматизация всех рутинных/повторяющихся процессов, реализация концепции Infrastructure as Code, обеспечение воспроизводимости и повторяемости результата.\n✅Проектирование аппаратной составляющий платформы, подбор и планирование аппаратных ресурсов, настройка и администрирование серверов и сетевого оборудования.\n✅Проектирование программной составляющий платформы, тестирование и доработка существующих решений, интеграция компонентов друг с другом.\n\nТребования:\n✅Экспертные знания и опыт эксплуатации инфраструктуры на базе Linux от 3-х лет.\n✅Опыт внедрения и эксплуатации платформ контейнеризации и/или виртуализации (Ванильный Kubernetes, OpenShift, CoreOS Tectonic, Rancher, Cloud Foundry, OpenStack OpenNebula, Mesos или аналогичных по сложности) от 1 года.\n✅Уверенное понимание устройства контейнеров, cgroups, namespaces в Linux.\n✅Уверенное владение инструментами автоматизации (Ansible, Chef, Salt, Puppet и д.р.).\n\nЧто предлагаем: \n✅Интересные задачи и возможность развития, ДМС , корпоративное обучение английскому языку, возможность участие в профессиональных конференциях. \n\nПишите сюда - matvejchuk@r-code.info или @matvejchuk_m\n\n—\n\n👉 Обсуждение вакансии в чате @devops_jobs","markup":[{"type":"hashtag","offset":0,"length":9,"data":"вакансия"},{"type":"hashtag","offset":10,"length":9,"data":"фуллтайм"},{"type":"hashtag","offset":20,"length":5,"data":"офис"},{"type":"hashtag","offset":26,"length":7,"data":"senior"},{"type":"hashtag","offset":34,"length":9,"data":"teamlead"},{"type":"hashtag","offset":44,"length":4,"data":"SRE"},{"type":"hashtag","offset":49,"length":11,"data":"Kubernetes"},{"type":"hashtag","offset":61,"length":7,"data":"Москва"},{"type":"hashtag","offset":69,"length":9,"data":"fulltime"},{"type":"link","offset":1675,"length":22,"data":"mailto:matvejchuk@r-code.info"},{"type":"handle","offset":1702,"length":13,"data":"matvejchuk_m"},{"type":"handle","offset":1750,"length":12,"data":"devops_jobs"}],"date":"2020-06-22T09:37:27+00:00","link":"tg://resolve?domain=devops_jobs_feed&post=2133","tags":[{"name":"kubernetes"},{"name":"hadoop"},{"name":"linux"},{"name":"cloud"},{"name":"ansible"}],"cities":[{"code":"moscow"}],"allowsRemote":false}},{"node":{"__typename":"Job","id":"2226126848-1001134745498","title":"Devops инженер","text":"#вакансия #удаленно #devops \nВакансия: DevOps/Разработчик бандлов\nЛокация: удаленно\nЗаработная плата: от 120 до 180 тыс. руб. гросс (готовы обсуждать)\n\nArenadata – корпоративная платформа сбора и обработки больших данных на базе open-source проектов https://arenadata.tech/ Является контрибьютором open-source проектов Kafka, Clickhouse, Hadoop, Greenplum и других. Компания входит в ODPi (Linux Foundation).\n\nЧем предстоит заниматься:\n• Активно участвовать в разработке, развитии и поддержке системы управления развертыванием Big Data сервисов (Hadoop, Clickhouse, Greenplum);\n• Cозданием инфраструктурных обвязок для опенсорс проектов для автоматизации их разверток;\n• Работать c системой отслеживания ошибок (Jira);\n• Участвовать в разработке сценариев тестирования;\n• Принимать решения по выбору инструментов;\n• Участвовать в третьей линии поддержки заказчиков сервиса.\n\nЧто ожидаем:\n• Опыт автоматизации работы с помощью Ansible, опыт написания с нуля Ansible playbook;\n• Знание Linux (RHEL, CentOS, Ubuntu) на уровне администратора;\n• Опыт написания bash-скриптов;\n• Опыт работы с Git; \n• Опыт работы со стеком Hadoop.\n\nДополнительным плюсом будет:\n• Опыт работы с системами виртуализации (KVM, VMware, OpenStack);\n• Опыт работы с контейнерами: Docker, OpenShift, Kubernetes;\n• Опыт работы со Clickhouse;\n• Опыт работы со Greenplum;\n• Опыт сопровождения IT-инфраструктуры;\n• Знание Python.\n\nУ нас Вы сможете получить:\n• Работа в молодом, дружном коллективе в атмосфере стартапа, но с бонусами большой устоявшейся компании;\n• Сильная техническая экспертиза в команде;\n• Проекты внедрения в крупнейших компаниях России;\n• Возможность гибкого графика;\n• Участие в крупнейших российских и международных ИТ-конференциях и выставках;\n• Конкурентная заработная плата по результатам собеседования, ежегодный ее пересмотр по итогам аттестации\n\n✉️ Контакты: opankina@ibs.ru @itgig\n\n—\n\n👉 Обсуждение вакансии в чате @devops_jobs","markup":[{"type":"hashtag","offset":0,"length":9,"data":"вакансия"},{"type":"hashtag","offset":10,"length":9,"data":"удаленно"},{"type":"hashtag","offset":20,"length":7,"data":"devops"},{"type":"link","offset":250,"length":23,"data":"https://arenadata.tech/"},{"type":"link","offset":1854,"length":15,"data":"mailto:opankina@ibs.ru"},{"type":"handle","offset":1870,"length":6,"data":"itgig"},{"type":"handle","offset":1911,"length":12,"data":"devops_jobs"}],"date":"2020-06-18T20:27:12+00:00","link":"tg://resolve?domain=devops_jobs_feed&post=2123","tags":[{"name":"kafka"},{"name":"hadoop"},{"name":"linux"},{"name":"ansible"},{"name":"centos"},{"name":"ubuntu"},{"name":"bash"},{"name":"git"},{"name":"docker"},{"name":"kubernetes"},{"name":"python"}],"cities":[],"allowsRemote":true}},{"node":{"__typename":"Job","id":"103208189952-1001089317451","title":"Qa инженер","text":"#fulltime #hadoop #sql #english #вакансия #QA #тестировщик \n#etl #Самара #офис #полнаязанятость \nЗаработная плата: от 80 000 (gross)\nВакансия: QA Engineer/QA Analyst (в трудовой книжке: Главный инженер)\nКомпания: ПАО Сбербанк, Адрес: ул. Ленина, д. 17 (м. Алабинское)\nПроект: Разработка Корпоративной Модели Данных\nЧто используем: Jenkins, Confluence, Jira, Hadoop, Excel, Hive, Impala, Spark, SQL, Agile (Sbergile), и др.\nЗадачи: \n - Разработка тестовых сценариев\n - Разработка и анализ документации\n - Развитие подходов к тестированию, организация тестирования\nТребования:\n - Высшее техническое\\математическое образование\n - Знание методик тестирования баз данных\n - Английский (документация и проектные курсы на англ.)\nУсловия:                                                                                 \n - Цифровая библиотека, digital-курсы, подписка на O'Reilly 35000+ книг\n - В пятницу работаем на час меньше                                                 \n - Свободный дресс-код\n - Премии\nЭтапы собеседований (онлайн): \n1. Команда смотрит резюме \n2. Zoom с представителем команды (до 30 минут)\n3. Zoom с руководителем (до 1 часа)\nОтзыв в течении 3-х бизнес дней \n\nОбращение в л/с @bogdanova_hr и резюме присылать на nsboykova@sberbank.ru","markup":[{"type":"hashtag","offset":0,"length":9,"data":"fulltime"},{"type":"hashtag","offset":10,"length":7,"data":"hadoop"},{"type":"hashtag","offset":18,"length":4,"data":"sql"},{"type":"hashtag","offset":23,"length":8,"data":"english"},{"type":"hashtag","offset":32,"length":9,"data":"вакансия"},{"type":"hashtag","offset":42,"length":3,"data":"QA"},{"type":"hashtag","offset":46,"length":12,"data":"тестировщик"},{"type":"hashtag","offset":60,"length":4,"data":"etl"},{"type":"hashtag","offset":65,"length":7,"data":"Самара"},{"type":"hashtag","offset":73,"length":5,"data":"офис"},{"type":"hashtag","offset":79,"length":16,"data":"полнаязанятость"},{"type":"handle","offset":1193,"length":13,"data":"bogdanova_hr"},{"type":"link","offset":1229,"length":21,"data":"mailto:nsboykova@sberbank.ru"}],"date":"2020-06-18T16:34:47+00:00","link":"tg://resolve?domain=qa_jobs&post=0","tags":[{"name":"qa"},{"name":"hadoop"},{"name":"sql"},{"name":"jenkins"},{"name":"excel"},{"name":"hive"}],"cities":[{"code":"samara"}],"allowsRemote":false}},{"node":{"__typename":"Job","id":"103155761152-1001089317451","title":"Qa инженер","text":"#вакансия #москва #полнаязанятость #мегафон #bigdata #покаработаемиздомапотомвофис\n\nМы ищем QA-инженера в команду для тестирования внутренних и внешних сервисов.\n\nЧем предстоит заниматься:\n\n- Разработка модулей интеграционных тестов для наших сервисов;\n- Подготовка тестовых данных (работа с hive/oracle);\nРабота с SQL/HiveQL (Oracle/Hive);\n- Написание алгоритмов работы с данными, в рамках тестирования;\n- Взаимодействие с разработчиками и аналитиками в процессе проектирования и развития;\n- Выявление, фиксация и контроль багов в баг-трекере (Jira);\n- Ведение документации по тестированию (confluence);\n\nИспользуемые технологии:\nДля разработки – Play, Spring, Flask, Scala, Java (8+), Python(3+);\nДля тестирования: Java/Scala & Maven + TestNG + Google Guice;\nДля работы сервисов – Docker;\nДля работы с кодом – GitLab;\nДля работы с задачами – Jira.\n\nМы ожидаем от вас:\n- Опыт работы в автоматизации тестирования от 1 года;\n- Знание структур данных и алгоритмов;\n- Уверенное знание Java;\n- Уверенное знание фреймворков TestNG/JUnit;\n- Опыт работы в автоматизации тестирования;\n- Опыт работы с реляционными СУБД (Oracle/PostgreSQL);\n- Умение писать хорошо читаемый код;\n- Умение работать с VCS (Git) и сборщиками (maven).\n\nБудет плюсом:\n- Опыт в области тестирования приложений по работе с большими данными;\n- Опыт в нагрузочном тестировании;\n- Опыт работы с Spring/Google Guice;\n- Опыт конфигурирования CI/CD (GitLab);\n- Умение писать код на Scala;\n- Опыт работы с Hadoop/Spark.\n\nЧто мы предлагаем:\n- Внутреннее и внешнее обучение в России (Coursera, New Prolab, Geek Brains и др.);\n- Новый офис в центре: 7 минут пешком от м. Маяковская/Новослободская;\n- Компенсация затрат на мобильную связь;\nДМС (включая стоматологию);\n- Частичная компенсация спорта;\n- Возможность участия в корпоративных спортивных командах: футбол, волейбол, баскетбол, хоккей и бег\n- Регулярные митапы в офисе с внешними спикерами из разных областей.\n\n#мегафон #bigdata\nКонтакты: Svetlana.stakanova@megafon.ru или @svetastakanova","markup":[{"type":"hashtag","offset":0,"length":9,"data":"вакансия"},{"type":"hashtag","offset":10,"length":7,"data":"москва"},{"type":"hashtag","offset":18,"length":16,"data":"полнаязанятость"},{"type":"hashtag","offset":35,"length":8,"data":"мегафон"},{"type":"hashtag","offset":44,"length":8,"data":"bigdata"},{"type":"hashtag","offset":53,"length":29,"data":"покаработаемиздомапотомвофис"},{"type":"hashtag","offset":1926,"length":8,"data":"мегафон"},{"type":"hashtag","offset":1935,"length":8,"data":"bigdata"},{"type":"link","offset":1954,"length":29,"data":"mailto:Svetlana.stakanova@megafon.ru"},{"type":"handle","offset":1988,"length":15,"data":"svetastakanova"}],"date":"2020-06-18T09:58:49+00:00","link":"tg://resolve?domain=qa_jobs&post=0","tags":[{"name":"qa"},{"name":"hive"},{"name":"oracle"},{"name":"sql"},{"name":"playframework"},{"name":"spring"},{"name":"flask"},{"name":"scala"},{"name":"java"},{"name":"python"},{"name":"maven"},{"name":"docker"},{"name":"gitlab"},{"name":"junit"},{"name":"postgresql"},{"name":"git"},{"name":"hadoop"}],"cities":[{"code":"moscow"}],"allowsRemote":false}},{"node":{"__typename":"Job","id":"2218786816-1001134745498","title":"Devops инженер","text":"#вакансия #DevOps\n\nDevOps Engineer \nГород и адрес офиса: Москва, Сочи, Новосибирск \n\nФормат работы: удаленка\n\nЗанятость: полная\n\nЗарплатная вилка: от 40000 до 60000 USD в год \n\nКрупная международная компания по разработке игр ищет в свою команду DevOps инженера. \n\nТребования: \nDevOps/SRE, ключевые слова:\nTypeScrypt, Node.js, SRE, SDN, PoP, VPN, динамическая маршрутизация, инкапсуляция трафика, Kubernetes, Helm и что-нибудь из стораджа типа Lustre, CEPH и про Apache Spark, Hadoop и особенно HDFS\n\nБудет плюсом: \n• Опыт удаленной работы.\n\nP.S. Ищем супер ниндзю, который творит чудеса;) \n\nКонтакт для связи: @nastya_stret\n\n—\n\n👉 Обсуждение вакансии в чате @devops_jobs","markup":[{"type":"hashtag","offset":0,"length":9,"data":"вакансия"},{"type":"hashtag","offset":10,"length":7,"data":"DevOps"},{"type":"handle","offset":611,"length":13,"data":"nastya_stret"},{"type":"handle","offset":659,"length":12,"data":"devops_jobs"}],"date":"2020-06-17T11:52:49+00:00","link":"tg://resolve?domain=devops_jobs_feed&post=2116","tags":[{"name":"nodejs"},{"name":"kubernetes"},{"name":"apache"},{"name":"hadoop"},{"name":"hdfs"},{"name":"apache-spark"}],"cities":[{"code":"moscow"},{"code":"sochi"},{"code":"novosibirsk"}],"allowsRemote":true}}]}}},"context":{}}