{"hash":"f5f6bf98bd95e769321482904cbbd488f77922fd","data":{"records":{"id":"laravel","name":"laravel","belongsTo":{"totalCount":19,"pageInfo":{"totalPages":2,"currentPage":2},"edges":[{"node":{"__typename":"Job","id":"26609713152-1001075660570","title":"Php разработчик","text":"#работа #вакансия #удаленка #job #РНР #Yii #Laravel #Symfony \n\nВсем привет! \n\nСейчас нахожусь в поисках РНР разработчика уровня senior в одну из крупнейших ecommerce компаний России - Bork/Technopark. \nНа текущий  момент внутри идет несколько проектов по поддержке и развитию интернет-площадки по продаже бытовой техники и электроники премиум-класса.\n\nПродукты реализуются на стеке: PHP (Yii2), MySql, JS (Vue), HTML, CSS, Gulp, Webpack, SVG, Canvas. \nЗадачи: разработка серверной части веб-проектов на всех этапах (от участия в проектировании архитектуры, до разработки сервисов), участие в митапах для обсуждения предстоящих задач, вносить вклад в планирование архитектуры и т.д.\n\nОсновные требования:\n\n- Опыт коммерческой разработки от 3 лет на PHP (7.1 или выше);\n\n- Хорошие знания современных фреймворков  (YII, Symfony);\n\n- Знание ООП, базовых алгоритмов, шаблонов проектирования, стандартов написания кода.\n\nУсловия: \n\n- ЗП до 250 000 net;\n\n- Полная УДАЛЁНКА; \n\n- Оформление через ИП или как самозанятый; \n\nКто заинтересовался - пишите в ЛС (@nastyaklassnaya),  буду рада пообщаться :)","markup":[{"type":"hashtag","offset":0,"length":7,"data":"работа"},{"type":"hashtag","offset":8,"length":9,"data":"вакансия"},{"type":"hashtag","offset":18,"length":9,"data":"удаленка"},{"type":"hashtag","offset":28,"length":4,"data":"job"},{"type":"hashtag","offset":33,"length":4,"data":"РНР"},{"type":"hashtag","offset":38,"length":4,"data":"Yii"},{"type":"hashtag","offset":43,"length":8,"data":"Laravel"},{"type":"hashtag","offset":52,"length":8,"data":"Symfony"},{"type":"handle","offset":1049,"length":16,"data":"nastyaklassnaya"}],"date":"2020-06-26T15:52:06+00:00","link":"tg://resolve?domain=php_jobs&post=25377","tags":[{"name":"php"},{"name":"yii"},{"name":"laravel"},{"name":"symfony"},{"name":"mysql"},{"name":"vuejs"},{"name":"html"},{"name":"css"},{"name":"gulp"},{"name":"webpack"},{"name":"svg"},{"name":"canvas"},{"name":"dotnet"}],"cities":[],"allowsRemote":true}},{"node":{"__typename":"Job","id":"26560430080-1001075660570","title":"Php разработчик","text":"#вакансия #Тюмень #офис   #PHP #Laravel #middle #senior\n\nГород: Тюмень\nФормат работы: офис, иногда можно удаленно\nЗанятость: полная\nЗарплатная вилка: от 85 000 до 145 000 руб. \nНазвание компании: Creative\n\nПривет! Мы - компания Creative, занимаемся веб и мобильной разработкой и стремимся стать лидерами на российском рынке.\n\nСитуация: cейчас у нас в работе флагманский проект с крупнейшим банком TOP-5 в России по разработке сервиса для поиска и заказа услуг самозанятых. Мы активно формируем команду разработчиков на долгосрочный проект.\n\nКто нужен: PHP-разработчик (middle/senior)\n-опыт разработки от 1 года;\n-опыт разработки высоконагруженных приложений;\n-глубокие знания PHP, фреймворка Laravel, PostgreSQL, индекс-серверов, Memcached и иных серверных технологий;\n-знание ООП;\n-умение применять шаблоны проектирования;\n-опыт работы со средствами CI/CD, \n-знание DevOps инструментов;\n-опыт написания тестов, покрывающих программный код, поведенческих тестов;\n-умение писать документацию к программному коду;\n-приветствуется знание английского языка.\n\nНад чем предстоит работать: разрабатывать сервис, на котором доступно создание или выполнение задач в 11 категориях: IT-услуги, обучение, ремонт и строительство, ремонт техники, мастер на час, ремонт смартфонов, уборка и химчистка, красота и здоровье, перевозка груза, уход за животными, курьеры. Заказчик может выбрать подходящего исполнителя, изучив предложенные профили, цены на услуги и отзывы других пользователей. \n\nКоманда проекта: более 10 человек (бэкенд, фронтенд, тестирование).\n\nОт нас: \n-конкурентная  заработная плата;\n-работаем с 10:00 до 19:00. График индивидуально корректируемый. Иногда можно работать из дома. Обед можно смещать.\n-возможность пробовать новые стеки или стать тимлидом;\n-пятничные встречи с интересными ребятами, английский прямо в офисе, поездки на конференции, обучение друг друга внутри компании;\n-современный офис в центре города;\n-программа релокации по переезду в г. Тюмень кандидатам из других городов.\n\nКонтакты: @ksate или hr@crtweb.ru","markup":[{"type":"hashtag","offset":0,"length":9,"data":"вакансия"},{"type":"hashtag","offset":10,"length":7,"data":"Тюмень"},{"type":"hashtag","offset":18,"length":5,"data":"офис"},{"type":"hashtag","offset":26,"length":4,"data":"PHP"},{"type":"hashtag","offset":31,"length":8,"data":"Laravel"},{"type":"hashtag","offset":40,"length":7,"data":"middle"},{"type":"hashtag","offset":48,"length":7,"data":"senior"},{"type":"link","offset":196,"length":8,"data":"http://crtweb.ru/"},{"type":"bold","offset":326,"length":9,"data":""},{"type":"bold","offset":541,"length":42,"data":""},{"type":"bold","offset":1055,"length":28,"data":""},{"type":"bold","offset":1477,"length":17,"data":""},{"type":"bold","offset":1546,"length":8,"data":""},{"type":"handle","offset":2010,"length":6,"data":"ksate"},{"type":"link","offset":2021,"length":12,"data":"mailto:hr@crtweb.ru"}],"date":"2020-06-23T14:06:04+00:00","link":"tg://resolve?domain=php_jobs&post=25330","tags":[{"name":"php"},{"name":"laravel"},{"name":"postgresql"}],"cities":[{"code":"tyumen"}],"allowsRemote":true}},{"node":{"__typename":"Job","id":"26555187200-1001075660570","title":"Php разработчик","text":"#вакансия #фуллтайм #php #удаленка\n\nУважаемые разработчики PHP!\nНужен специалист\nофис в Москве, м.Менделеевская,  но работать можно откуда угодно(удаленный формат)\nЗП 120-160 т.р. по итогам собеседования\nСтек технологий: \nphp7\nlaravel 5\nmysql\n\nЗнаниие базовых технологий стека\nПонимание ООП, знакомство с принципами проектирования и конструирования кода\n\nГрафик: 5 дней в неделю с 10 до 19 плюс-минус 1-2 часа в любую сторону.\nТолько фултайм. Оформление по ТК\nна все вопросы отвечу в ЛС: @yusta2011","markup":[{"type":"hashtag","offset":0,"length":9,"data":"вакансия"},{"type":"hashtag","offset":10,"length":9,"data":"фуллтайм"},{"type":"hashtag","offset":20,"length":4,"data":"php"},{"type":"hashtag","offset":25,"length":9,"data":"удаленка"},{"type":"bold","offset":36,"length":28,"data":""},{"type":"handle","offset":488,"length":10,"data":"yusta2011"}],"date":"2020-06-23T10:18:32+00:00","link":"tg://resolve?domain=php_jobs&post=25325","tags":[{"name":"php"},{"name":"laravel"},{"name":"mysql"}],"cities":[],"allowsRemote":true}},{"node":{"__typename":"Job","id":"26477592576-1001075660570","title":"Php разработчик","text":"🏡 При публикации вакансии необходимо указать город и станцию метро (или ближайший ориентир). Если возможна удалённая работа – надо об этом указать явно. \n\n🔵 В группе есть традиция - представляться при входе:\n\n▫️Какой у вас проект или где работаете?\n▫️В чём вы специалист?\n▫️Чем можете быть интересны или полезны сообществу?\n▫️Чем интересно сообщество вам? Что вы ищите?\n▫️Откуда вы?\n▫️Как узнали про группу?\nВ сообщении нужно указать тэг #whois\n\n🔵 Правила чата: \n\n🚫 Реклама запрещена\n🚫 Политика запрещена\n🚫 Флуд и оффтопик запрещён\n🚫 Нецензурная лексика запрещена\n\nЗа несоблюдение правил - одно предупреждение, далее следует бан.\n\nЗдесь публикуем вакансии (указывая тэг #вакансия) и запросы на поиск работы (указывая тэг #ищу) по направлению PHP, Laravel, Symfony, Yii и т.д. Формат любой: full-time, part-time, remote и разовые подработки. Также обмениваемся инсайдами и аналитикой по рынку труда.\n\nЗаметили нарушение? Обратитесь, пожалуйста, к модераторам:\n🔸@Ddonalld \n🔸@DenisIzmaylov\n\n🔵 Параллельно с этой группой развиваются другие группы с вакансиями, запросами на поиск работы и аналитикой по рынку труда в разных направлениях:\n\n🔸@qa_jobs – по всем видам тестирования, его автоматизации и т.д. \n🔸@mobile_jobs – по направлению iOS, Android, Xamarin и т.д.\n🔸@javascript_jobs – по JavaScript, React.js, Node.js, React Native и пр.\n🔸@devops_jobs – по направлению DevOps, Docker, CoreOS, Kubernetes и пр\n🔸@uiux_jobs –  по направлению дизайна UI, UX, Design Thinking, Style Guides, Mobile и т.д.\n🔸@products_jobs – по управлению продуктами, Growth Hacking, Cust Dev, Design Thinking, UX.\n\n🌎 Возможно, вам также будут интересны группы: @qa_ru, @android_ru, @ios_ru, @reactnative_ru, @react_js, @nodejs_ru, @angularjs_ru, @angular2, @devops_ru, @uiux_ru, @products_, @agile_ru, @selfdev_ru. Приятного общения!","markup":[{"type":"hashtag","offset":440,"length":6,"data":"whois"},{"type":"hashtag","offset":677,"length":9,"data":"вакансия"},{"type":"hashtag","offset":728,"length":4,"data":"ищу"},{"type":"handle","offset":968,"length":9,"data":"Ddonalld"},{"type":"handle","offset":981,"length":14,"data":"DenisIzmaylov"},{"type":"handle","offset":1147,"length":8,"data":"qa_jobs"},{"type":"handle","offset":1214,"length":12,"data":"mobile_jobs"},{"type":"handle","offset":1275,"length":16,"data":"javascript_jobs"},{"type":"handle","offset":1349,"length":12,"data":"devops_jobs"},{"type":"handle","offset":1421,"length":10,"data":"uiux_jobs"},{"type":"handle","offset":1513,"length":14,"data":"products_jobs"},{"type":"handle","offset":1651,"length":6,"data":"qa_ru"},{"type":"handle","offset":1659,"length":11,"data":"android_ru"},{"type":"handle","offset":1672,"length":7,"data":"ios_ru"},{"type":"handle","offset":1681,"length":15,"data":"reactnative_ru"},{"type":"handle","offset":1698,"length":9,"data":"react_js"},{"type":"handle","offset":1709,"length":10,"data":"nodejs_ru"},{"type":"handle","offset":1721,"length":13,"data":"angularjs_ru"},{"type":"handle","offset":1736,"length":9,"data":"angular2"},{"type":"handle","offset":1747,"length":10,"data":"devops_ru"},{"type":"handle","offset":1759,"length":8,"data":"uiux_ru"},{"type":"handle","offset":1769,"length":10,"data":"products_"},{"type":"handle","offset":1781,"length":9,"data":"agile_ru"},{"type":"handle","offset":1792,"length":11,"data":"selfdev_ru"}],"date":"2020-06-19T15:11:52+00:00","link":"tg://resolve?domain=php_jobs&post=25251","tags":[{"name":"php"},{"name":"laravel"},{"name":"symfony"},{"name":"yii"},{"name":"mobile"},{"name":"ios"},{"name":"android"},{"name":"xamarin"},{"name":"javascript"},{"name":"reactjs"},{"name":"nodejs"},{"name":"docker"},{"name":"kubernetes"},{"name":"angularjs"},{"name":"react-native"}],"cities":[],"allowsRemote":true}},{"node":{"__typename":"Job","id":"26473398272-1001075660570","title":"Php разработчик","text":"#вакансия #PHP  #parttime #middle #senior #Laravel\n\nКомпания: ООО Рубедайт Рус \nЗанятость: part time, удаленка\nЗП вилка: от 800 – 1500 на руки за час работы (почасовая ставка) \nКонтакты: @DianaHRDigital\n \n\nМы ищем по-настоящему увлеченного человека и готовы такому во многом идти навстречу, заинтересовывать, предлагать комфортные условия. Для нас важны квалификация и готовность работать в команде с топ-перфомерами.\n\nМастхэв:\n• Laravel\n• SQL\n\nИ нам есть что предложить!\n• Удаленная работа;\n• Разные и крутые проекты;\n• Работа по методологии SCRUM;\n• Комфортная вилка заработной платы\n\nПишите в телеграмм с пометкой PHP на ник:@DianaHRDigital","markup":[{"type":"hashtag","offset":0,"length":9,"data":"вакансия"},{"type":"hashtag","offset":10,"length":4,"data":"PHP"},{"type":"hashtag","offset":16,"length":9,"data":"parttime"},{"type":"hashtag","offset":26,"length":7,"data":"middle"},{"type":"hashtag","offset":34,"length":7,"data":"senior"},{"type":"hashtag","offset":42,"length":8,"data":"Laravel"},{"type":"handle","offset":187,"length":15,"data":"DianaHRDigital"},{"type":"handle","offset":628,"length":15,"data":"DianaHRDigital"}],"date":"2020-06-19T15:06:14+00:00","link":"tg://resolve?domain=php_jobs&post=25247","tags":[{"name":"php"},{"name":"laravel"},{"name":"sql"}],"cities":[],"allowsRemote":true}},{"node":{"__typename":"Job","id":"26460815360-1001075660570","title":"Php разработчик","text":"#работа #вакансия #удаленка #job #РНР #Yii #Laravel #Symfony \n\nВсем привет! \n\nСейчас нахожусь в поисках РНР разработчика уровня senior в одну из крупнейших ecommerce компаний России - Bork/Technopark. \nНа текущий  момент внутри идет несколько проектов по поддержке и развитию интернет-площадки по продаже бытовой техники и электроники премиум-класса.\n\nПродукты реализуются на стеке: PHP (Yii2), MySql, JS (Vue), HTML, CSS, Gulp, Webpack, SVG, Canvas. \nЗадачи: разработка серверной части веб-проектов на всех этапах (от участия в проектировании архитектуры, до разработки сервисов), участие в митапах для обсуждения предстоящих задач, вносить вклад в планирование архитектуры и т.д.\n\nОсновные требования:\n\n- Опыт коммерческой разработки от 3 лет на PHP (7.1 или выше);\n\n- Хорошие знания современных фреймворков  (YII, Symfony);\n\n- Знание ООП, базовых алгоритмов, шаблонов проектирования, стандартов написания кода.\n\nУсловия: \n\n- ЗП до 250 000 net;\n\n- Полная УДАЛЁНКА; \n\n- Оформление через ИП или как самозанятый; \n\nКто заинтересовался - пишите в ЛС (@nastyaklassnaya),  буду рада пообщаться :)","markup":[{"type":"hashtag","offset":0,"length":7,"data":"работа"},{"type":"hashtag","offset":8,"length":9,"data":"вакансия"},{"type":"hashtag","offset":18,"length":9,"data":"удаленка"},{"type":"hashtag","offset":28,"length":4,"data":"job"},{"type":"hashtag","offset":33,"length":4,"data":"РНР"},{"type":"hashtag","offset":38,"length":4,"data":"Yii"},{"type":"hashtag","offset":43,"length":8,"data":"Laravel"},{"type":"hashtag","offset":52,"length":8,"data":"Symfony"},{"type":"handle","offset":1049,"length":16,"data":"nastyaklassnaya"}],"date":"2020-06-19T13:34:08+00:00","link":"tg://resolve?domain=php_jobs&post=25235","tags":[{"name":"php"},{"name":"yii"},{"name":"laravel"},{"name":"symfony"},{"name":"mysql"},{"name":"vuejs"},{"name":"html"},{"name":"css"},{"name":"gulp"},{"name":"webpack"},{"name":"svg"},{"name":"canvas"},{"name":"dotnet"}],"cities":[],"allowsRemote":true}},{"node":{"__typename":"Job","id":"26422018048-1001075660570","title":"Php разработчик","text":"#job #remote #senior #symfony #highload\n\n\n✅Вакансия: Senior PHP\n✅Занятость: полный день, удаленно\n✅Компания: Холдинг «Монастырёв» \n\n✅Задачи:\n\n- разработка микросервисной архитектуры\n- доработка системы поиска на сайте\n- разработка системы скоринга\n- разработка блока рекламы и рекомендаций на сайте\n\n✅помимо этого:\n\nВыбор стэка технологий и разработка архитектуры проекта.\nПроведение код-ревью и ревью дизайна проектов на соответствие архитектурным стандартам.\n\n✅Требования:\nОпыт в разработке архитектуры, выборе стэка технологий и проектировании сайтов и веб-сервисов.\nОпыт работы с PostgreSQL/MySQL/NoSQL\nОпыт работы Redis.\nОпыт работы с одним из PHP фреймворков Symfony/Yii/Laravel.\n\n✅Текущий стек:\nPHP, Symphony, React.js, Vue.js\nPostreSQL/MariaDb/Redis/ActiveMQ/ElasticSaerch\n\n ✅Преимущества работы в нашей команде:\n\nработаем в белую: 28 дней отпуска, полностью официальная зарплата;\nудобный рабочий график + в пятницу уходим с работы на час раньше;\nкомпенсация 100% внешнего обучения и бесплатное участие во внутренних корпоративных тренингах;\nактивная корпоративная жизнь: спортивные мероприятия, тимбилдинги, праздники и участие в благотворительных акциях;\nинтересные и амбициозные задач\n\nПишите в личку: @sundeevaa","markup":[{"type":"hashtag","offset":0,"length":4,"data":"job"},{"type":"hashtag","offset":5,"length":7,"data":"remote"},{"type":"hashtag","offset":13,"length":7,"data":"senior"},{"type":"hashtag","offset":21,"length":8,"data":"symfony"},{"type":"hashtag","offset":30,"length":9,"data":"highload"},{"type":"handle","offset":1213,"length":10,"data":"sundeevaa"}],"date":"2020-06-18T10:09:17+00:00","link":"tg://resolve?domain=php_jobs&post=25198","tags":[{"name":"php"},{"name":"symfony"},{"name":"postgresql"},{"name":"mysql"},{"name":"nosql"},{"name":"redis"},{"name":"yii"},{"name":"laravel"},{"name":"reactjs"},{"name":"vuejs"},{"name":"mariadb"}],"cities":[],"allowsRemote":true}},{"node":{"__typename":"Job","id":"26406289408-1001075660570","title":"Php разработчик","text":"#работа #вакансия #удаленка #job #РНР #Yii #Laravel #Symfony \n\nВсем привет! \n\nСейчас нахожусь в поисках РНР разработчика уровня senior в одну из крупнейших ecommerce компаний России - Bork/Technopark. \nНа текущий  момент внутри идет несколько проектов по поддержке и развитию интернет-площадки по продаже бытовой техники и электроники премиум-класса.\n\nПродукты реализуются на стеке: PHP (Yii2), MySql, JS (Vue), HTML, CSS, Gulp, Webpack, SVG, Canvas. \nЗадачи: разработка серверной части веб-проектов на всех этапах (от участия в проектировании архитектуры, до разработки сервисов), участие в митапах для обсуждения предстоящих задач, вносить вклад в планирование архитектуры и т.д.\n\nОсновные требования:\n\n- Опыт коммерческой разработки от 3 лет на PHP (7.1 или выше);\n\n- Хорошие знания современных фреймворков  (YII, Symfony);\n\n- Знание ООП, базовых алгоритмов, шаблонов проектирования, стандартов написания кода.\n\nУсловия: \n\n- ЗП до 250 000 net;\n\n- Полная УДАЛЁНКА; \n\n- Оформление через ИП или как самозанятый; \n\nКто заинтересовался - пишите в ЛС (@nastyaklassnaya),  буду рада пообщаться :)","markup":[{"type":"hashtag","offset":0,"length":7,"data":"работа"},{"type":"hashtag","offset":8,"length":9,"data":"вакансия"},{"type":"hashtag","offset":18,"length":9,"data":"удаленка"},{"type":"hashtag","offset":28,"length":4,"data":"job"},{"type":"hashtag","offset":33,"length":4,"data":"РНР"},{"type":"hashtag","offset":38,"length":4,"data":"Yii"},{"type":"hashtag","offset":43,"length":8,"data":"Laravel"},{"type":"hashtag","offset":52,"length":8,"data":"Symfony"},{"type":"handle","offset":1049,"length":16,"data":"nastyaklassnaya"}],"date":"2020-06-18T08:54:14+00:00","link":"tg://resolve?domain=php_jobs&post=25183","tags":[{"name":"php"},{"name":"yii"},{"name":"laravel"},{"name":"symfony"},{"name":"mysql"},{"name":"vuejs"},{"name":"html"},{"name":"css"},{"name":"gulp"},{"name":"webpack"},{"name":"svg"},{"name":"canvas"},{"name":"dotnet"}],"cities":[],"allowsRemote":true}},{"node":{"__typename":"Job","id":"26312966144-1001075660570","title":"Php developer","text":"#вакансия #backend #remote #fulltime\nPHP back-end developer в  Platinum Software Development (удаленка)\n\nО НАС:\nhttps://platinum.fund\n\nЗАДАЧИ:\n• Разработка высоконагруженных коммерческих приложений\n\nТРЕБОВАНИЯ:\n• Опыт разработки комерческих приложений на PHP (Laravel) от двух лет\n• Опыт разработки RESTfull сервисов;\n• Знание СУБД (MySQL, Postgresql, NoSQL) \n• Знание принципов ООП, SOLID, шаблонов проектирования\n• Умение работать c Git, Bash\n\nБУДЕТ ПЛЮСОМ:\n• Знакомство с микросервисной архитектурой приложения \n• Понимание Continuous Integration и Delivery, опыт использование CI tools\n• Знакомство с инструментом контейнеризации Docker \n•  Знание алгоритмов, структур данных\n• Опыт разработки с применением Unit-тестирования (TDD) \n• Базовые знания JavaScript\n\nУСЛОВИЯ:\n• Удаленка\n• Полный день, 6 дней в неделю \n• ЗП от 1500-2500$\n\nКОНТАКТЫ:\n@Helen_Blb","markup":[{"type":"hashtag","offset":0,"length":9,"data":"вакансия"},{"type":"hashtag","offset":10,"length":8,"data":"backend"},{"type":"hashtag","offset":19,"length":7,"data":"remote"},{"type":"hashtag","offset":27,"length":9,"data":"fulltime"},{"type":"bold","offset":37,"length":22,"data":""},{"type":"bold","offset":63,"length":29,"data":""},{"type":"bold","offset":105,"length":7,"data":""},{"type":"link","offset":112,"length":21,"data":"https://platinum.fund"},{"type":"bold","offset":135,"length":8,"data":""},{"type":"bold","offset":199,"length":12,"data":""},{"type":"bold","offset":446,"length":14,"data":""},{"type":"bold","offset":766,"length":9,"data":""},{"type":"bold","offset":838,"length":10,"data":""},{"type":"handle","offset":848,"length":10,"data":"Helen_Blb"}],"date":"2020-06-15T11:01:12+00:00","link":"tg://resolve?domain=php_jobs&post=25094","tags":[{"name":"php"},{"name":"laravel"},{"name":"mysql"},{"name":"postgresql"},{"name":"nosql"},{"name":"git"},{"name":"bash"},{"name":"docker"},{"name":"javascript"},{"name":"continuous-integration"}],"cities":[],"allowsRemote":true}}]}}},"context":{}}