{"hash":"f34fd2c444a074f4e0e67d525015a008ef8e766f","data":{"records":{"id":"net-core","name":"net-core","belongsTo":{"totalCount":24,"pageInfo":{"totalPages":3,"currentPage":2},"edges":[{"node":{"__typename":"Job","id":"71303168-1001375797688","title":".net developer","text":"#вакансия #удаленка #remote #fulltime\n\nBokaMera is an online booking tool used by about 4000 companies. We are looking for a strong middle / senior .NET developer to work on our backend written in ServiceStack.\n\nSalary: $2000 - $3000 gross.\n\nResponsibilities:\n\n- Write structured code and follow best practices\n- Write unit tests and maintain existing ones (about 700 tests)\n- Cooperate closely with frontend team\n- Localize the project to distribute it between several countries and timezones\n- Add support for Stripe payments\n- Rewrite to .NET core\n\nTechnologies used:\n\n- ServiceStack\n- FluentValidator\n- ORMLite\n- MSSQL\n- Swagger\n- .NET 4.7.1\n\nSend your CV to: kristian@bokamera.se","markup":[{"type":"hashtag","offset":0,"length":9,"data":"вакансия"},{"type":"hashtag","offset":10,"length":9,"data":"удаленка"},{"type":"hashtag","offset":20,"length":7,"data":"remote"},{"type":"hashtag","offset":28,"length":9,"data":"fulltime"},{"type":"link","offset":664,"length":20,"data":"mailto:kristian@bokamera.se"}],"date":"2019-12-19T10:51:03+00:00","link":"tg://resolve?domain=DotNetRuJobsFeed&post=68","tags":[{"name":"dotnet"},{"name":"csharp"},{"name":"sql-server"},{"name":"swagger"},{"name":"net-core"}],"cities":[],"allowsRemote":true}},{"node":{"__typename":"Job","id":"70254592-1001375797688","title":".net разработчик","text":"#вакансия\nНа данный момент занимаюсь поиском С# разработчика в один крупный торгово-производственный холдинг, который занимается производством климатической техники и оборудования. \n\nОбязанности:\n•Разработка online среды для подбора вентиляционного оборудования (внутренний проект компании);\n•Разработка систем взаимодействия с внешними сервисами, API;\n•Реализация и доработка собственных веб-сервисов;\n•Оптимизация скорости работы компонентов;\n•Участие в проработке архитектуры систем.\n\nТребования:\n•Опыт работы от 3-х лет.\n•Уверенное знание C#, TSQL, .NET Core, C#, MSSQL, MySQL.\n•Желателен опыт работы с Angular и/или AngularJS, GIT.\n•Умение и опыт работы с чужим кодом.\n•Проактивность в работе, нацеленность на результат, коммуникабельность, аналитическое мышление, математический склад ума, ответственность, стрессоустойчивость, умение работать в команде.\n\nГЕО - МОСКВА \n#москва\n\nУсловия: \n•Заработная плата (обсуждается индивидуально с каждым кандидатом); от 180 000 руб до 220 000 руб net\n•Бонусная система;\n•Соц.пакет: ДМС, скидки на фитнес и продукцию компании.\nДля резюме: zharov@4ssistance.com","markup":[{"type":"hashtag","offset":0,"length":9,"data":"вакансия"},{"type":"hashtag","offset":876,"length":7,"data":"москва"},{"type":"link","offset":1083,"length":21,"data":"mailto:zharov@4ssistance.com"}],"date":"2019-12-18T07:32:00+00:00","link":"tg://resolve?domain=DotNetRuJobsFeed&post=67","tags":[{"name":"dotnet"},{"name":"csharp"},{"name":"tsql"},{"name":"sql-server"},{"name":"mysql"},{"name":"angularjs"},{"name":"git"},{"name":"net-core"}],"cities":[{"code":"moscow"}],"allowsRemote":false}},{"node":{"__typename":"Job","id":"69206016-1001375797688","title":".net разработчик","text":"#вакансия #Москва #офис\nРазработчик С#\nЗ.п.: 80-140к\n\nОбязанности:\n\n1. Разработка прикладного ПО для внутренних нужд клиентских сервисов, в том числе:\n\n- реализация высоконагруженных серверных приложений\n- разработка архитектуры реализуемой программной системы\n- решение возникающих при реализации технических проблем\n\n2. Оптимизация текущего ПО (ускорение, снижение потребления ресурсов и т.п.)\n\nТребования:\n\n- высшее образование\n- опыт разработки на C# не менее 3-х лет\n- опыт разработки сложных корпоративных систем автоматизации\n\nБудет плюсом:\n- знание Python, JavaScript\n- знание языков разметки: CSS, HTML\n- опыт работы с ASP.NET Core, Keras, MongoDB\n- опыт написания модульных тестов\n- опыт работы с SVN, Git или Hg\n\nПисать в ЛС","markup":[{"type":"hashtag","offset":0,"length":9,"data":"вакансия"},{"type":"hashtag","offset":10,"length":7,"data":"Москва"},{"type":"hashtag","offset":18,"length":5,"data":"офис"},{"type":"link","offset":628,"length":7,"data":"http://ASP.NET"}],"date":"2019-12-17T16:05:01+00:00","link":"tg://resolve?domain=DotNetRuJobsFeed&post=66","tags":[{"name":"dotnet"},{"name":"csharp"},{"name":"python"},{"name":"javascript"},{"name":"css"},{"name":"html"},{"name":"mongodb"},{"name":"svn"},{"name":"git"},{"name":"asp-net"},{"name":"net-core"},{"name":"asp-net-core"}],"cities":[{"code":"moscow"}],"allowsRemote":false}},{"node":{"__typename":"Job","id":"68157440-1001375797688","title":".net разработчик","text":"Всем доброго дня!\n#вакансия #москва #remote#\nИщу .NET разработчика.\nПолная занятость#удаленка\nЗП 160-180 net оформление в штат по ТК РФ\nЧто ждем от опыта будущего сотрудника :\n∙ Уверенно знает основной стек технологий (Framework, ORM, СУБД)\n∙ Знает паттерны проектирования и умеет применять их на практике при решении задач\n∙ Знает, как устроена инфраструктура и архитектура проекта\n∙ В состоянии развернуть проект локально, настроить его и подготовить к работе.\n∙ Пишет unit тесты \n\n\nHard Skills\n∙ .Net framework\n∙ Git\n∙ СУБД, ORM, SQL\n∙ .Net Core\n∙ Контейниризация (docker)\n∙ Паттерны проектирования\n∙ SOLID\n∙ Unit тесты\n∙ Протоколы и форматы данных\n∙ Алгоритмы и их сложность\n∙ Работа с кешами\n\n\nРезюме и все вопросы по вакансии пожалуйста 👉🏼@VvElena или на e.vvedenskaya@h-h-i.ru .","markup":[{"type":"hashtag","offset":18,"length":9,"data":"вакансия"},{"type":"hashtag","offset":28,"length":7,"data":"москва"},{"type":"handle","offset":747,"length":8,"data":"VvElena"},{"type":"link","offset":763,"length":22,"data":"mailto:e.vvedenskaya@h-h-i.ru"}],"date":"2019-12-17T16:04:53+00:00","link":"tg://resolve?domain=DotNetRuJobsFeed&post=65","tags":[{"name":"dotnet"},{"name":"csharp"},{"name":"orm"},{"name":"git"},{"name":"sql"},{"name":"docker"},{"name":"net-core"}],"cities":[{"code":"moscow"}],"allowsRemote":true}},{"node":{"__typename":"Job","id":"54525952-1001375797688","title":".net разработчик","text":"Ребята, #вакансия прилетела: \n\nДля усиления текущей команды разыскиваю .NET разработчика уровня #middle/#senior с опытом работы на .NET Core. Будет очень хорошо, если разработчик найдется в Ульяновске, но и удаленных сотрудников тоже рассматриваем. Запускаем проект для ведущего сервиса доставки еды в Москве и Петербурге, нагрузка примерно 1 000 000 пользователей, сейчас идет стадия закладывания архитектуры, так что будет возможность влиять на решения. Фронт будет написан на реакте, так что фулстэки тоже приветствуются) А еще есть проект в стадии разработки - плагин, который будет помогать искать ошибки программистам и писать чистый код.\n\nТребования:\nГлубокое знание технологического стека Microsoft, включая C#, MS SQL, ASP.NET, MVC/ASP.NET Core и тд.;\nОпыт работы с реляционными базами данных MS-SQL/PostgreSQL;\nЗнание и практический опыт использования правильных инженерных практик (юнит тестирование, автотесты, рефакторинг, CI, DevOps и др)\n\nУдалённая работа, офис, если живете в Ульяновске, полный день. \n\nРезюме присылать сюда: @VladislavAg\n\nВилка: 60 000 - 180 000 рублей до вычета налога","markup":[{"type":"hashtag","offset":8,"length":9,"data":"вакансия"},{"type":"hashtag","offset":96,"length":7,"data":"middle"},{"type":"hashtag","offset":104,"length":7,"data":"senior"},{"type":"link","offset":728,"length":7,"data":"http://ASP.NET"},{"type":"link","offset":741,"length":7,"data":"http://ASP.NET"},{"type":"handle","offset":1042,"length":12,"data":"VladislavAg"}],"date":"2019-11-18T13:44:42+00:00","link":"tg://resolve?domain=DotNetRuJobsFeed&post=52","tags":[{"name":"dotnet"},{"name":"csharp"},{"name":"sql"},{"name":"postgresql"},{"name":"net-core"},{"name":"asp-net"},{"name":"asp-net-mvc"},{"name":"asp-net-core"}],"cities":[],"allowsRemote":false}},{"node":{"__typename":"Job","id":"50331648-1001375797688","title":".net developer","text":"#вакансия #минск #офис #minsk #fulltime #csharp #core #middle #senior\n\nВакансия: Middle/Senior .NET Developer\nКомпания: Amaryllis Solutions\nЛокация: Минск \nФормат: #офис #фуллтайм\nВилка з/п: 2000-3200 USD net в зависимости от уровня\n\nПроект: Amaryllis Payment Solutions (инновационная платежная платформа).\n\nТребования:\n- практический опыт в .NET, .NET Core, ASP.NET Web API, MS SQL Server, JavaScript, Angular 2+;\n- не менее чем 3-летний стаж бэкенд либо фуллстек разработки.\n\nПредлагаем:\n- конкурентную компенсацию за ваш труд;\n- специальные учебные программы (тренинги и семинары в области передового опыта в области разработки программного обеспечения, управления проектами, управления);\n- индивидуальный план профессионального развития каждого сотрудника;\n- социальный пакет (курсы английского языка и спорт для сотрудников);\n- гибкий график работы;\n- 100% белую заработную плату – компания резидент ПВТ\n- помощь с релокацией для иногородних.\n\nКонтакты: @steelRunner","markup":[{"type":"hashtag","offset":0,"length":9,"data":"вакансия"},{"type":"hashtag","offset":10,"length":6,"data":"минск"},{"type":"hashtag","offset":17,"length":5,"data":"офис"},{"type":"hashtag","offset":23,"length":6,"data":"minsk"},{"type":"hashtag","offset":30,"length":9,"data":"fulltime"},{"type":"hashtag","offset":40,"length":7,"data":"csharp"},{"type":"hashtag","offset":48,"length":5,"data":"core"},{"type":"hashtag","offset":54,"length":7,"data":"middle"},{"type":"hashtag","offset":62,"length":7,"data":"senior"},{"type":"hashtag","offset":164,"length":5,"data":"офис"},{"type":"hashtag","offset":170,"length":9,"data":"фуллтайм"},{"type":"link","offset":359,"length":7,"data":"http://ASP.NET"},{"type":"handle","offset":959,"length":12,"data":"steelRunner"}],"date":"2019-11-15T17:17:33+00:00","link":"tg://resolve?domain=DotNetRuJobsFeed&post=48","tags":[{"name":"dotnet"},{"name":"csharp"},{"name":"web"},{"name":"sql"},{"name":"javascript"},{"name":"angularjs"},{"name":"net-core"},{"name":"asp-net"},{"name":"sql-server"}],"cities":[{"code":"minsk"}],"allowsRemote":false}},{"node":{"__typename":"Job","id":"48234496-1001375797688","title":".net разработчик","text":"#вакансия #москва #офис  150-180 ₽ (fullstack)\nНаш основной стэк технологий: .Net (часть проектов Core), SQL 2017, EF, ServiceStack OrmLite. Основной фронт работ будет на бэкэнде, но необходимо знание фронта (Angular/AngularJS).\nВас ждут интересные задачи в очень атмосферной компании!\nНаши ожидания\n • Опыт разработки на C#, понимание паттернов и принципов проектирования.\n • Знание Angular/AngularJS.\n • Умение разбираться в чужом коде;\n • Навыки работы в команде;\n • Чтение технической литературы на английском языке.\nБудут плюсом:\n • Понимание HTML5\n • Опыт разработки на .Net Core\n • Знание MS SQL, опыт написания и оптимизации запросов.\nМы рассматриваем кандидатов с частичным совпадением наших ожиданий и ваших умений, а также с опытом более 2-х лет.\nОсновные задачи нового сотрудника\n • Участие в разработке новых проектов в компании (сервисы, webApp, интернет-магазин, CRM система).\n • Поддержка и развитие существующих приложений и сервисов.\n • Контроль качества реализованных решений.\n • Активно следить за актуальными технологиями!","markup":[{"type":"hashtag","offset":0,"length":9,"data":"вакансия"},{"type":"hashtag","offset":10,"length":7,"data":"москва"},{"type":"hashtag","offset":18,"length":5,"data":"офис"},{"type":"bold","offset":286,"length":13,"data":""},{"type":"bold","offset":521,"length":13,"data":""},{"type":"bold","offset":758,"length":33,"data":""}],"date":"2019-11-15T11:05:13+00:00","link":"tg://resolve?domain=DotNetRuJobsFeed&post=46","tags":[{"name":"dotnet"},{"name":"csharp"},{"name":"sql"},{"name":"angularjs"},{"name":"html"},{"name":"net-core"}],"cities":[{"code":"moscow"}],"allowsRemote":false}},{"node":{"__typename":"Job","id":"49283072-1001375797688","title":".net разработчик","text":"#вакансия #москва #офис Разработчика C#\nНаш основной стэк технологий: .Net (часть проектов Core), WCF, SQL 2017, EF, ServiceStack OrmLite, разработка на современном железе.\nВас ждут интересные задачи в очень атмосферной компании!\nНаши ожидания\n • Знание С#, .Net , WCF, понимание паттернов и принципов проектирования.\n • Знание MS SQL Server, T-SQL, оптимизация запросов, stored procedure;\n • Опыт разработки на WPF;\n • Умение разбираться в чужом коде;\n • Навыки работы в команде;\n • Чтение технической литературы на английском языке.\nБудут плюсом:\n • Желательно знание .net Core.\n • Знакомство с OrmLite\n • Знакомство с DevExpress\nМы рассматриваем кандидатов с частичным совпадением наших ожиданий и ваших умений, а также продвинутых профессионалов с опытом более 2-х лет.\nОсновные задачи нового сотрудника, это ..\n • Участие в разработке новых проектов в компании (приложений, сервисов, webApp).\n • Поддержка и развитие существующих приложений и сервисов.\n • Контроль качества реализованных решений.\n • Активно следить за актуальными технологиями!\nМы предлагаем:\n • Современные технологии и подходы к разработке, спринты Agile (на Jetbrains YouTrack)\n • Позитивную атмосферу и дружный коллектив, демократичную обстановку\n • График работы 5/2, часы работы обсуждаются\n • Оформление и соц. пакет в соответствии с Трудовым Кодексом\n • Корпоративные скидки на весь портфель брендов\n • Корпоративные подарки на праздники\n • Ароматный кофе и чай в неограниченном количестве\n • Уютный Open space на 7-8 человек\n • Офис в 10 мин. от м. Спортивная и МЦК Лужники","markup":[{"type":"hashtag","offset":0,"length":9,"data":"вакансия"},{"type":"hashtag","offset":10,"length":7,"data":"москва"},{"type":"hashtag","offset":18,"length":5,"data":"офис"},{"type":"bold","offset":24,"length":15,"data":""},{"type":"bold","offset":230,"length":13,"data":""},{"type":"bold","offset":535,"length":13,"data":""},{"type":"bold","offset":774,"length":41,"data":""},{"type":"bold","offset":1050,"length":14,"data":""}],"date":"2019-11-15T11:05:13+00:00","link":"tg://resolve?domain=DotNetRuJobsFeed&post=47","tags":[{"name":"dotnet"},{"name":"csharp"},{"name":"wcf"},{"name":"sql"},{"name":"wpf"},{"name":"sql-server"},{"name":"net-core"}],"cities":[{"code":"moscow"}],"allowsRemote":false}},{"node":{"__typename":"Job","id":"45088768-1001375797688","title":".net разработчик","text":"#вакансия #с#  #.NET #офис #Минск\n\nВакансии Middle/Senior .net разработчики.\nГород и адрес офиса: Минск\nФормат работы: офис\nЗанятость: полная\nЗарплатная вилка: от 2300 до 3500\n\nAmaryllis Payment Solutions – это компания из списка «20 самых перспективных поставщиков платежных решений 2018 года», ищет .Net / C # разработчиков, готовых присоединиться к нашей профессиональной команде, чтобы участвовать в создании инновационной платежной платформы Amaryllis.\n\nТребования:\n\n* Практический опыт в .NET, .NET Core, ASP.NET Web API, MS SQL Server, JavaScript, Angular 2+;\n* 3+ летний опыт работы в ИТ-индустрии;\n\nМы готовы предложить вам:\n\n* Конкурентную компенсацию за ваш труд;\n* Специальные учебные программы (тренинги и семинары в области передового опыта в области разработки программного обеспечения, управления проектами, управления);\n* Индивидуальный план профессионального развития каждого сотрудника;\n* Социальный пакет (курсы английского языка и спорт для сотрудников);\n* Гибкий график работы.\n* 100% белая заработная плата – компания резидент ПВТ\n\n@veroneko","markup":[{"type":"hashtag","offset":0,"length":9,"data":"вакансия"},{"type":"hashtag","offset":21,"length":5,"data":"офис"},{"type":"hashtag","offset":27,"length":6,"data":"Минск"},{"type":"link","offset":511,"length":7,"data":"http://ASP.NET"},{"type":"handle","offset":1055,"length":9,"data":"veroneko"}],"date":"2019-11-07T10:08:54+00:00","link":"tg://resolve?domain=DotNetRuJobsFeed&post=43","tags":[{"name":"dotnet"},{"name":"csharp"},{"name":"web"},{"name":"sql"},{"name":"javascript"},{"name":"angularjs"},{"name":"net-core"},{"name":"asp-net"},{"name":"sql-server"}],"cities":[{"code":"minsk"}],"allowsRemote":false}},{"node":{"__typename":"Job","id":"44040192-1001375797688","title":".net разработчик","text":"#вакансия #москва #офис Мидл разработчик ЗП:100-140 руб белая на карточку сбера пилим свою платформу с сервисной архитектурой, а на ней два продукта. Стек ASP .NET Core + голый TypeScript + MSSQL/PostgreSQL (windows/Linux) детальное описание вакансии тут https://hh.ru/vacancy/33744101 примеры реализации можно посмотреть тут https://youtu.be/TpHSMOcZ4qM","markup":[{"type":"hashtag","offset":0,"length":9,"data":"вакансия"},{"type":"hashtag","offset":10,"length":7,"data":"москва"},{"type":"hashtag","offset":18,"length":5,"data":"офис"},{"type":"link","offset":255,"length":30,"data":"https://hh.ru/vacancy/33744101"},{"type":"link","offset":326,"length":28,"data":"https://youtu.be/TpHSMOcZ4qM"}],"date":"2019-11-06T23:56:08+00:00","link":"tg://resolve?domain=DotNetRuJobsFeed&post=42","tags":[{"name":"dotnet"},{"name":"csharp"},{"name":"typescript"},{"name":"sql-server"},{"name":"postgresql"},{"name":"windows"},{"name":"linux"},{"name":"asp-net"},{"name":"net-core"},{"name":"asp-net-core"}],"cities":[{"code":"moscow"}],"allowsRemote":false}}]}}},"context":{}}