{"hash":"f5f6bf98bd95e769321482904cbbd488f77922fd","data":{"records":{"id":"nodejs","name":"nodejs","belongsTo":{"totalCount":122,"pageInfo":{"totalPages":13,"currentPage":11},"edges":[{"node":{"__typename":"Job","id":"16942891008-1001110946746","title":"Js разработчик","text":"Greenatom.ru\n#вакансия #Москва #javascript #React #Typescript #Node.js #Middle #Senior #удаленка #удаленная работа \n\n👨🏼‍💻 Middle/Senior Frontend Developer, Middle/Senior Backend Developer\nГород и адрес офиса: #Москва, БЦ Сириус Парк, метро Нагатинская\n\n✅Формат работы: \nУДАЛЕННАЯ РАБОТА\n\n💻Занятость: полная, гибкое начало трудового дня.\n\nЗарплатная вилка: от 170 000 до 230 000 руб. на руки.\n\n🏢Компания: АО Гринатом\n\nПривет! Мы растём и активно развиваем ряд внутренних проектов: например, корпоративный портал, горячая линия, собственная кадровая система. Мы формируем НЕСКОЛЬКО КОМАНД и ищем классных:\n\n✅фронтенд разработчиков;\n\n✅бэкенд разработчиков. \n\nПроекты в стадии разработки пилота и у тебя есть возможность повлиять на дальнейшее развитие продукта. Если у тебя есть крутые идеи - ты сможешь их здесь реализовать! Откликайся сам и зови друзей! Вирус пройдёт, работа останется!\n\n✅Требуемые знания и навыки:\n- Опыт разработки от двух лет\n- Хорошее знание чистого JS\n- Опыт работы с TypeScript\n- React, MobX, Less/Sass\n- Опыт написания юнит-тестов с помощью Jest, Enzymе очень приветствуется\n\n💡Наш стек:\n      React, TypeScript, Node.js, MobX, Docker\n\nМы работаем по Scrum.\n\n✅Условия:\n- Официальное оформление по ТК, белая зп;\n- Возможности профессионального и карьерного роста;\n- Дополнительные 3 дня к отпуску;\n- Плавающее начало дня;\n- ДМС со стоматологией\n\n☎️Контакты:\nЮлия - YAnZueva@Greenatom.ru","markup":[{"type":"link","offset":0,"length":12,"data":"http://Greenatom.ru"},{"type":"hashtag","offset":13,"length":9,"data":"вакансия"},{"type":"hashtag","offset":23,"length":7,"data":"Москва"},{"type":"hashtag","offset":31,"length":11,"data":"javascript"},{"type":"hashtag","offset":43,"length":6,"data":"React"},{"type":"hashtag","offset":50,"length":11,"data":"Typescript"},{"type":"hashtag","offset":62,"length":5,"data":"Node"},{"type":"hashtag","offset":71,"length":7,"data":"Middle"},{"type":"hashtag","offset":79,"length":7,"data":"Senior"},{"type":"hashtag","offset":87,"length":9,"data":"удаленка"},{"type":"hashtag","offset":97,"length":10,"data":"удаленная"},{"type":"hashtag","offset":212,"length":7,"data":"Москва"},{"type":"link","offset":1392,"length":21,"data":"mailto:YAnZueva@Greenatom.ru"}],"date":"2020-06-15T18:41:43+00:00","link":"tg://resolve?domain=javascript_jobs_feed&post=0","tags":[{"name":"javascript"},{"name":"reactjs"},{"name":"typescript"},{"name":"nodejs"},{"name":"sass"},{"name":"docker"}],"cities":[{"code":"moscow"}],"allowsRemote":true}},{"node":{"__typename":"Job","id":"16931356672-1001110946746","title":"Js разработчик","text":"Друзья, ура! В связи с продолжающимся ростом и развитием, следующие 10 дней ищем себе боевого товарища и коллегу! 🎉\n\n🎸 Трудолюбивый JavaScript (React.js) Engineer, приди!\n\n🔖 #вакансия / #remote #удаленка / #полная #fulltime / #reactjs #javascript\n\nЭта не просто вакансия. Это возможность для стабильного профессионального, финансового и карьерного роста. Мы уделяем большое внимание системности, общей продуктивности и согласованности совместной работы, поэтому ищем коллегу на удалённый (remote) формат работы.\n\n\n📲 Кто мы?\n\n→ Компания Axept занимается консалтингом и заказной разработкой программных продуктов.\n→ Наши клиенты – крупные корпорации в России, профессионалы из Европы, Сингапура и Японии.\n→ Текущий портфель проектов – Личные кабинеты, ERP, Поисковые системы, CRM, dashboards, Социальные сети, мобильные приложения.\n→ Центры разработки находится в Москве. Но 70% сотрудников работают удалённо.\n→ Ключевой момент — мы относимся к проектам наших клиентов ❤️, как к своим собственным, с любовью и максимальной ответственностью.\n→ Мы любим то, что делаем. Более подробно здесь – www.axept.com/ru-ru/jobs\n\n🎸 Чем предстоит заниматься?\n\n→ Разрабатывать и развивать веб-приложения с нами, используя React.js, Redux, TypeScript, Styled Components, иногда – Node.js, React Native и GraphQL.\n→ Принимать архитектурные решения и думать наперёд.\n→ Влиять на развитие команды разработки и выбор технологий в проекте.\n→ Активно учиться, развиваться и делиться знаниями с коллегами.\n→ Заботиться о производительности, качестве и устойчивости поставляемых нами приложений.\n\n💪 Для этого вам потребуется:\n\n→ Любить свою профессию и то, что вы делаете. Горят глаза? Срочно к нам. \n→ Опыт разработки сервисов с REST API. Знакомство с JSON API, Swagger и GraphQL будет жирным плюсом.\n→ Хорошее знание экосистемы React и Redux. Уметь и любить гуглить.\n→ Понимание изоморфных React-приложений и SSR. Про это и наш доклад 5-летней давности https://youtu.be/xarGaBBDROw\n→ Будет плюсом опыт разработки на Node.js (SSR, PostgreSQL, Express, Passport, JWT)\n→ Хорошее понимание HTTP. А если есть опыт с WebSockets, то это wow! 🎉\n→ Свободное владение ES6. Опыт с TypeScript ускорит погружение.\n→ Понимание принципов ФП и ООП.\n→ Уметь свободно пользоваться Git. Знание Git Flow.\n→ Желательно понимание Styled Components.\n→ Свободное владение CSS 3.\n→ Умение решать проблемы (кросс-браузерная верстка, отладка).\n→ Отсутствие проблем с Pixel Perfect и сеткой. Вёрстка для вас – это просто, а для нас – важно.\n→ Умение работать в команде, прогнозировать риски и следовать соглашениям.\n\n🎁 Что мы предлагаем?\n\n1. ПОЛНОСТЬЮ удалённая работа.\n2. Серьезные проекты для крупнейших банков, страховых компаний и Интернет-компаний. Команды и задачи, которые обеспечат вам профессиональный рост и активное развитие.\n3. Возможность выбирать проекты.\n4. Когда пожелаете, можете присоединиться к нам в новом офисе на ст.м. Калужская в БЦ \"Нео Гео\" – самом стильном и награждаемом БЦ в России с качественной новой техникой (Apple, HP, Dell) и гаджетами. Чай/кофе, фрукты, M&M's и прочие сладости в свободном доступе.\n5. Стабильность. Большие возможности для карьерного роста. Профессиональный рост за счёт наших практик – гарантирован.\n6. Гибрид европейской, японской и российской культуры работы. \n7. Оформление по ТК РФ. \n8. Занятость будет полная. Зарплата на руки от 130 000 до 160 000 рублей (Senior), Middle – от 90 000 до 120 000 рублей.\n9. Корпоративный ДМС (по запросу, разные опции).\n10. Гордость за годы, проведённые здесь, за результаты, достигнутые вместе.\n11. Админка в React-чате – в подарок! 😉 Шутка.\n\n🚀 Отнеситесь с вниманием! Жизнь одна. Уделите немного времени. Напишите о себе, приложите резюме и отправьте на jobs@axept.com, или в ЛС @AxeptJobs, или в ЛС @DenisIzmaylov","markup":[{"type":"hashtag","offset":177,"length":9,"data":"вакансия"},{"type":"hashtag","offset":189,"length":7,"data":"remote"},{"type":"hashtag","offset":197,"length":9,"data":"удаленка"},{"type":"hashtag","offset":209,"length":7,"data":"полная"},{"type":"hashtag","offset":217,"length":9,"data":"fulltime"},{"type":"hashtag","offset":229,"length":8,"data":"reactjs"},{"type":"hashtag","offset":238,"length":11,"data":"javascript"},{"type":"link","offset":1093,"length":24,"data":"http://www.axept.com/ru-ru/jobs"},{"type":"link","offset":1935,"length":28,"data":"https://youtu.be/xarGaBBDROw"},{"type":"link","offset":3705,"length":14,"data":"mailto:jobs@axept.com"},{"type":"handle","offset":3730,"length":10,"data":"AxeptJobs"},{"type":"handle","offset":3751,"length":14,"data":"DenisIzmaylov"}],"date":"2020-06-15T12:54:27+00:00","link":"tg://resolve?domain=javascript_jobs_feed&post=0","tags":[{"name":"javascript"},{"name":"reactjs"},{"name":"redux"},{"name":"typescript"},{"name":"nodejs"},{"name":"graphql"},{"name":"rest"},{"name":"json"},{"name":"swagger"},{"name":"postgresql"},{"name":"express"},{"name":"jwt"},{"name":"git"},{"name":"css"},{"name":"react-redux"},{"name":"react-native"}],"cities":[],"allowsRemote":true}},{"node":{"__typename":"Job","id":"16922968064-1001110946746","title":"Js разработчик","text":"#вакансия #javascript #react #typescript #nodejs #frontend #middle #senior\n\nКомпания: #Mетрквадратный www.m2.ru\nЛокация: #москва м.Белорусская\nФормат работы: офис (удаленная до сентября) \nЗанятость: полная\nЗ/п: 200к - 260к руб. на руки\nКонтакты: @maxdmitrov\n\nЭто экосистема недвижимости, которая помогает клиентам решать любые жилищные вопросы: от поиска вариантов и оформления сделки до организации ремонта и переезда в новую квартиру. Мы также создаем решения для партнёров и профессиональных участников рынка недвижимости.\n\nЧем предстоит заниматься:\n\n•  разрабатывать один из продуктов жилищной экосистемы;\n•  прорабатывать задачи с начального этапа (декомпозиция, проработка архитектуры, демо с владельцем продукта);\n•  проводить код ревью;\n•  покрывать код unit тестами, помогать тестировщикам в написании e2e тестов;\n•  оптимизировать рендеринг и скорость загрузки страниц;\n•  разрабатывать продуктовые компоненты, используя общие UI библиотеки, и помогать в развитии этих библиотек.\n\nЧего мы ждем:\n\n• Javascript(ES6);\n• React + MobX/Redux;\n• HTML;\n• CSS;\n• Опыт кроссбраузерной верстки.\n\nБудет плюсом:\n\n• TypeScript;\n• знание протокола HTTP/HTTPS, websockets, опыт работы с REST API;\n• опыт работы с react native;\n• опыт в бекэнде на различных языках программирования;\n• опыт профилирования, оптимизации и рефакторинга кода;\n• опыт написания тестов.\n\nМы используем: \n\n•  TypeScript + React + MobX + Gatsby;\n•  NestJS + gRPC + ProtoBuf (мидл-слой, управляющий UI и обращающийся к API бэк-энда);\n•  Micro Frontend Service;\n•  GitLab (CI/CD);\n•  Yarn + Lerna;\n•  Webpack/Rollup.\n\nМы предлагаем: \n\n•  современный стек технологий;\n•  возможность влиять на архитектуру и сразу видеть результат своей работы;\n•  белая конкурентная ЗП, официальное оформление;\n•  гибкий график работы;\n•  ДМС, компенсация фитнеса, льготная ставка по ипотеке;\n•  комфортный офис в БЦ «Белая площадь» (минута от метро): лаундж-зоны, бариста, фрукты.","markup":[{"type":"hashtag","offset":0,"length":9,"data":"вакансия"},{"type":"hashtag","offset":10,"length":11,"data":"javascript"},{"type":"hashtag","offset":22,"length":6,"data":"react"},{"type":"hashtag","offset":29,"length":11,"data":"typescript"},{"type":"hashtag","offset":41,"length":7,"data":"nodejs"},{"type":"hashtag","offset":49,"length":9,"data":"frontend"},{"type":"hashtag","offset":59,"length":7,"data":"middle"},{"type":"hashtag","offset":67,"length":7,"data":"senior"},{"type":"hashtag","offset":86,"length":15,"data":"Mетрквадратный"},{"type":"link","offset":102,"length":9,"data":"http://www.m2.ru"},{"type":"hashtag","offset":121,"length":7,"data":"москва"},{"type":"handle","offset":246,"length":11,"data":"maxdmitrov"}],"date":"2020-06-15T09:19:53+00:00","link":"tg://resolve?domain=javascript_jobs_feed&post=0","tags":[{"name":"javascript"},{"name":"reactjs"},{"name":"typescript"},{"name":"nodejs"},{"name":"redux"},{"name":"html"},{"name":"css"},{"name":"rest"},{"name":"gitlab"},{"name":"webpack"},{"name":"react-native"}],"cities":[{"code":"moscow"}],"allowsRemote":true}},{"node":{"__typename":"Job","id":"16914579456-1001110946746","title":"Js разработчик","text":"🎸 Трудолюбивый JavaScript (React.js) Engineer, приди!\n\n🔖 #вакансия / #remote #удаленка / #полная #fulltime / #reactjs #javascript\n\nЭта не просто вакансия. Это возможность для стабильного профессионального, финансового и карьерного роста. Мы уделяем большое внимание системности, общей продуктивности и согласованности совместной работы, поэтому ищем коллегу на удалённый (remote) формат работы.\n\n\n📲 Кто мы?\n\n→ Компания Axept занимается консалтингом и заказной разработкой программных продуктов.\n→ Наши клиенты – крупные корпорации в России, профессионалы из Европы, Сингапура и Японии.\n→ Текущий портфель проектов – Личные кабинеты, ERP, Поисковые системы, CRM, dashboards, Социальные сети, мобильные приложения.\n→ Центры разработки находится в Москве. Но 70% сотрудников работают удалённо.\n→ Ключевой момент — мы относимся к проектам наших клиентов ❤️, как к своим собственным, с любовью и максимальной ответственностью.\n→ Мы любим то, что делаем. Более подробно здесь – www.axept.com/ru-ru/jobs\n\n🎸 Чем предстоит заниматься?\n\n→ Разрабатывать и развивать веб-приложения с нами, используя React.js, Redux, TypeScript, Styled Components, иногда – Node.js, React Native и GraphQL.\n→ Принимать архитектурные решения и думать наперёд.\n→ Влиять на развитие команды разработки и выбор технологий в проекте.\n→ Активно учиться, развиваться и делиться знаниями с коллегами.\n→ Заботиться о производительности, качестве и устойчивости поставляемых нами приложений.\n\n💪 Для этого вам потребуется:\n\n→ Любить свою профессию и то, что вы делаете. Горят глаза? Срочно к нам. \n→ Опыт разработки сервисов с REST API. Знакомство с JSON API, Swagger и GraphQL будет жирным плюсом.\n→ Хорошее знание экосистемы React и Redux. Уметь и любить гуглить.\n→ Понимание изоморфных React-приложений и SSR. Про это и наш доклад 5-летней давности https://youtu.be/xarGaBBDROw\n→ Будет плюсом опыт разработки на Node.js (SSR, PostgreSQL, Express, Passport, JWT)\n→ Хорошее понимание HTTP. А если есть опыт с WebSockets, то это wow! 🎉\n→ Свободное владение ES6. Опыт с TypeScript ускорит погружение.\n→ Понимание принципов ФП и ООП.\n→ Уметь свободно пользоваться Git. Знание Git Flow.\n→ Желательно понимание Styled Components.\n→ Свободное владение CSS 3.\n→ Умение решать проблемы (кросс-браузерная верстка, отладка).\n→ Отсутствие проблем с Pixel Perfect и сеткой. Вёрстка для вас – это просто, а для нас – важно.\n→ Умение работать в команде, прогнозировать риски и следовать соглашениям.\n\n🎁 Что мы предлагаем?\n\n1. ПОЛНОСТЬЮ удалённая работа.\n2. Серьезные проекты для крупнейших банков, страховых компаний и Интернет-компаний. Команды и задачи, которые обеспечат вам профессиональный рост и активное развитие.\n3. Возможность выбирать проекты.\n4. Когда пожелаете, можете присоединиться к нам в новом офисе на ст.м. Калужская в БЦ \"Нео Гео\" – самом стильном и награждаемом БЦ в России с качественной новой техникой (Apple, HP, Dell) и гаджетами. Чай/кофе, фрукты, M&M's и прочие сладости в свободном доступе.\n5. Стабильность. Большие возможности для карьерного роста. Профессиональный рост за счёт наших практик – гарантирован.\n6. Гибрид европейской, японской и российской культуры работы. \n7. Оформление по ТК РФ. \n8. Занятость будет полная. Зарплата на руки от 130 000 до 160 000 рублей (Senior), Middle – от 90 000 до 120 000 рублей.\n9. Корпоративный ДМС (по запросу, разные опции).\n10. Гордость за годы, проведённые здесь, за результаты, достигнутые вместе.\n11. Админка в React-чате – в подарок! 😉 Шутка.\n\n🚀 Отнеситесь с вниманием! Жизнь одна. Уделите немного времени. Напишите о себе, приложите резюме и отправьте на jobs@axept.com, или в ЛС @AxeptJobs, или в ЛС @AxeptJobs","markup":[{"type":"hashtag","offset":59,"length":9,"data":"вакансия"},{"type":"hashtag","offset":71,"length":7,"data":"remote"},{"type":"hashtag","offset":79,"length":9,"data":"удаленка"},{"type":"hashtag","offset":91,"length":7,"data":"полная"},{"type":"hashtag","offset":99,"length":9,"data":"fulltime"},{"type":"hashtag","offset":111,"length":8,"data":"reactjs"},{"type":"hashtag","offset":120,"length":11,"data":"javascript"},{"type":"link","offset":975,"length":24,"data":"http://www.axept.com/ru-ru/jobs"},{"type":"link","offset":1817,"length":28,"data":"https://youtu.be/xarGaBBDROw"},{"type":"link","offset":3587,"length":14,"data":"mailto:jobs@axept.com"},{"type":"handle","offset":3612,"length":10,"data":"AxeptJobs"},{"type":"handle","offset":3633,"length":10,"data":"AxeptJobs"}],"date":"2020-06-15T08:03:02+00:00","link":"tg://resolve?domain=javascript_jobs_feed&post=0","tags":[{"name":"javascript"},{"name":"reactjs"},{"name":"redux"},{"name":"typescript"},{"name":"nodejs"},{"name":"graphql"},{"name":"rest"},{"name":"json"},{"name":"swagger"},{"name":"postgresql"},{"name":"express"},{"name":"jwt"},{"name":"git"},{"name":"css"},{"name":"react-redux"},{"name":"react-native"}],"cities":[],"allowsRemote":true}},{"node":{"__typename":"Job","id":"102821265408-1001089317451","title":"Qa engineer","text":"#вакансия #москва #полнаязанятость #qaengineer #auto #manual\nКомпания: #Mетрквадратный www.m2.ru\nЛокация: м.Белорусская \nФормат работы: офис (удаленная до сентября)  \nЗ/п: от 120к - 180к на руки\nКонтакты: @maxdmitrov\n\nЭто экосистема недвижимости, которая помогает клиентам решать любые жилищные вопросы: от поиска вариантов и оформления сделки до организации ремонта и переезда в новую квартиру. Мы также создаем решения для партнёров и профессиональных участников рынка недвижимости.\n\nНаш стэк:\n• Java\n • Node.js\n • React, TypeScript\n • Kafka, ElasticSearch, gRPC\n • Docker\n\nЧем предстоит заниматься:\n • анализировать и тестировать требования к разрабатываемым приложениям;\n • писать приемочные критерии к пользовательским историям;\n • проводить функциональное, регрессионное и smoke тестирование;\n • заниматься задачами по автоматизации тестирования.\n\nЧего мы ждем:\n • глубокое понимание процессов тестирования и разработки ПО;\n • опыт интеграционного тестирования:\n    - системная интеграция;\n    - компонентная интеграция\n • опыт тестирования АРI;\n • опыт автоматизации тестирования на любом стеке.\n\nБудет плюсом\n • опыт исследовательского тестирования;\n • опыт тестирования ПО с микросервисной архитектурой.\n\nМы предлагаем:\n • белая конкурентная ЗП, официальное оформление;\n • гибкий график работы;\n • ДМС, компенсация фитнеса, льготная ставка по ипотеке;\n • комфортный офис в БЦ «Белая площадь» (минута от метро): лаундж-зоны, бариста, фрукты.","markup":[{"type":"hashtag","offset":0,"length":9,"data":"вакансия"},{"type":"hashtag","offset":10,"length":7,"data":"москва"},{"type":"hashtag","offset":18,"length":16,"data":"полнаязанятость"},{"type":"hashtag","offset":35,"length":11,"data":"qaengineer"},{"type":"hashtag","offset":47,"length":5,"data":"auto"},{"type":"hashtag","offset":53,"length":7,"data":"manual"},{"type":"hashtag","offset":71,"length":15,"data":"Mетрквадратный"},{"type":"link","offset":87,"length":9,"data":"http://www.m2.ru"},{"type":"handle","offset":205,"length":11,"data":"maxdmitrov"},{"type":"bold","offset":485,"length":11,"data":""},{"type":"bold","offset":576,"length":26,"data":""},{"type":"bold","offset":853,"length":15,"data":""},{"type":"bold","offset":1103,"length":14,"data":""},{"type":"bold","offset":1212,"length":16,"data":""}],"date":"2020-06-15T07:59:01+00:00","link":"tg://resolve?domain=qa_jobs&post=0","tags":[{"name":"qa"},{"name":"java"},{"name":"nodejs"},{"name":"reactjs"},{"name":"typescript"},{"name":"kafka"},{"name":"elasticsearch"},{"name":"docker"}],"cities":[{"code":"moscow"}],"allowsRemote":true}},{"node":{"__typename":"Job","id":"102810779648-1001089317451","title":"Qa инженер","text":"#вакансия #Екатеринбург #удалённо #fulltime #фултайм #backend #fullstack #NestJS #nodejs #typescript\nBackend-разработчик в компанию-резидент Сколково IPnote https://www.facebook.com/426995510646028/posts/3319529111392639/\nОфис в Екатеринбурге, Технопарк высоких технологий Свердловской области\nПо формату работы можно на удаленку или в офис (он крутой), но full time\nЗП белая от 80 до 120 и разные бенефиты\nСтек: Node.js, NestJS, TypeScript/JavaScript, MongoDB\nПодробности: @Sasha_hr_tut","markup":[{"type":"hashtag","offset":0,"length":9,"data":"вакансия"},{"type":"hashtag","offset":10,"length":13,"data":"Екатеринбург"},{"type":"hashtag","offset":24,"length":9,"data":"удалённо"},{"type":"hashtag","offset":34,"length":9,"data":"fulltime"},{"type":"hashtag","offset":44,"length":8,"data":"фултайм"},{"type":"hashtag","offset":53,"length":8,"data":"backend"},{"type":"hashtag","offset":62,"length":10,"data":"fullstack"},{"type":"hashtag","offset":73,"length":7,"data":"NestJS"},{"type":"hashtag","offset":81,"length":7,"data":"nodejs"},{"type":"hashtag","offset":89,"length":11,"data":"typescript"},{"type":"link","offset":157,"length":64,"data":"https://www.facebook.com/426995510646028/posts/3319529111392639/"},{"type":"handle","offset":474,"length":13,"data":"Sasha_hr_tut"}],"date":"2020-06-15T06:05:27+00:00","link":"tg://resolve?domain=qa_jobs&post=0","tags":[{"name":"qa"},{"name":"nodejs"},{"name":"typescript"},{"name":"javascript"},{"name":"mongodb"}],"cities":[],"allowsRemote":true}},{"node":{"__typename":"Job","id":"71279050752-1001054966032","title":"Mobile разработчик","text":"#вакансия #Екатеринбург #удалённо #fulltime #фултайм #backend #fullstack #NestJS #nodejs #typescript\n#Backend-разработчик в компанию-резидент Сколково IPnote\nЕкатеринбург, Технопарк высоких технологий Свердловской области\nУдаленка или офис, но full time\nЗП белая от 80 до 120 и разные бенефиты\nСтек: Node.js, NestJS, TypeScript/JavaScript, MongoDB\nПодробности: @Sasha_hr_tut","markup":[{"type":"hashtag","offset":0,"length":9,"data":"вакансия"},{"type":"hashtag","offset":10,"length":13,"data":"Екатеринбург"},{"type":"hashtag","offset":24,"length":9,"data":"удалённо"},{"type":"hashtag","offset":34,"length":9,"data":"fulltime"},{"type":"hashtag","offset":44,"length":8,"data":"фултайм"},{"type":"hashtag","offset":53,"length":8,"data":"backend"},{"type":"hashtag","offset":62,"length":10,"data":"fullstack"},{"type":"hashtag","offset":73,"length":7,"data":"NestJS"},{"type":"hashtag","offset":81,"length":7,"data":"nodejs"},{"type":"hashtag","offset":89,"length":11,"data":"typescript"},{"type":"hashtag","offset":101,"length":8,"data":"Backend"},{"type":"handle","offset":361,"length":13,"data":"Sasha_hr_tut"}],"date":"2020-06-15T06:02:03+00:00","link":"tg://resolve?domain=mobile_jobs&post=0","tags":[{"name":"mobile"},{"name":"nodejs"},{"name":"typescript"},{"name":"javascript"},{"name":"mongodb"}],"cities":[],"allowsRemote":true}},{"node":{"__typename":"Job","id":"26294091776-1001075660570","title":"Php разработчик","text":"#вакансия #удалённо #фронтенд #javascript #AngularJs #Symfony\n\nКомпания: Промрукав\nО компании: Компания «Промрукав» — это торгово-производственная организация, с 1999 года динамично развивающаяся на рынке кабеленесущих систем. \nФормат работы: удалённая работа, график работы 5/2, частичная занятость (<5 ч/день), по желанию возможна работа в офисе\nПроект: B2B Ecommerce\nЗаработная плата: от 50 000 и выше (на руки)\nЗадачи/Обязанности: \nПоддержка и развитие e-commerce проектов компании: b2b-платформа, сайт: \n- разработка новых сервисов компании\n- оптимизация и поддержка текущих продуктов\n- улучшать имеющийся функционал и разрабатывать новый \n- участвовать в принятии архитектурных решений\n- способного к эффективному взаимодействию удалённо или в офисе\n- чёткое следование установленным Вами же срокам \n- оперативное решение проблем   \nСтек: \n  LAMP/LEMP для оптовой онлайн торговли.\n  PHP 7, MySQL, Nginx, Nodejs\n  Фреймворки: Symfony (Symfony console component, Symfony process component, Swift Mailer)\n  Модульная сетка и внешний вид: gentelella\n  Фреймворки: bootstrap, AngularJs\n\nТребования:\n•  Опыт работы от 3х лет\n•  Уверенное знание , MySQL, OOP, Composer, Design patterns в целом, Git.  PHP 7 \n•  Навыки работы в Linux, Apache/nginx, Bootstrap (Gentelella), AngularJs, Nodejs (сборщик js -> gulp на nodejs работает + различные js компоненты). \n•  Приветствуются знания в области интеграции сайта с 1С (использование Web- и HTTP-сервисов) \n\nЧто предлагаем: \nМы не web-студия и не зарабатываем, продавая Ваши способности третьим лицам, поэтому для разработчика наши проекты — это возможность заниматься одним интересным делом без необходимости каждый раз вникать в новый проект и тонкости его работы. Преимущества работы у нас это:\n • стабильный ежемесячный заработок в формате удалённой работы с оформление по ТК; \n • небольшой, но очень дружный коллектив (ИТ-отдел);\n • один руководитель;  \n • возможность посещения всероссийских и международных IT-конференций;\n • возможность принимать участие в корпоративных мероприятиях (проезд оплачивается)\n\nКонтакт для связи: \nTelegram: @dnmit","markup":[{"type":"hashtag","offset":0,"length":9,"data":"вакансия"},{"type":"hashtag","offset":10,"length":9,"data":"удалённо"},{"type":"hashtag","offset":20,"length":9,"data":"фронтенд"},{"type":"hashtag","offset":30,"length":11,"data":"javascript"},{"type":"hashtag","offset":42,"length":10,"data":"AngularJs"},{"type":"hashtag","offset":53,"length":8,"data":"Symfony"},{"type":"handle","offset":2095,"length":6,"data":"dnmit"}],"date":"2020-06-14T14:06:14+00:00","link":"tg://resolve?domain=php_jobs&post=25076","tags":[{"name":"php"},{"name":"javascript"},{"name":"angularjs"},{"name":"symfony"},{"name":"mysql"},{"name":"nginx"},{"name":"nodejs"},{"name":"swift"},{"name":"bootstrap"},{"name":"git"},{"name":"linux"},{"name":"apache"},{"name":"gulp"},{"name":"web"}],"cities":[],"allowsRemote":true}},{"node":{"__typename":"Job","id":"16893607936-1001110946746","title":"Js разработчик","text":"Greenatom.ru\n#вакансия #Москва #javascript #React #Typescript #Node.js #Middle #Senior #удаленка #удаленная работа \n\n👨🏼‍💻 Middle/Senior Frontend Developer, Middle/Senior Backend Developer\nГород и адрес офиса: #Москва, 1-й Нагатинский проезд, 10с1, метро Нагатинская\n\n✅Формат работы: \nУДАЛЕННАЯ РАБОТА\n\n💻Занятость: полная, гибкое начало трудового дня.\n\nЗарплатная вилка: от 170 000 до 230 000 руб. на руки.\n\n🏢Компания: АО Гринатом\n\nПривет! Мы растём и активно развиваем ряд внутренних проектов: например, корпоративный портал, горячая линия, собственная кадровая система. Мы формируем НЕСКОЛЬКО КОМАНД и ищем классных:\n\n✅фронтенд разработчиков;\n\n✅бэкенд разработчиков. \n\nПроекты в стадии разработки пилота и у тебя есть возможность повлиять на дальнейшее развитие продукта. Если у тебя есть крутые идеи - ты сможешь их здесь реализовать! Откликайся сам и зови друзей! Вирус пройдёт, работа останется!\n\n✅Требуемые знания и навыки:\n- Опыт разработки от двух лет\n- Хорошее знание чистого JS\n- Опыт работы с TypeScript\n- React, MobX, Less/Sass\n- Опыт написания юнит-тестов с помощью Jest, Enzymе очень приветствуется\n\n💡Наш стек:\n      React, TypeScript, Node.js, MobX, Docker\n\nМы работаем по Scrum.\n\n✅Условия:\n- Официальное оформление по ТК, белая зп;\n- Возможности профессионального и карьерного роста;\n- Дополнительные 3 дня к отпуску;\n- Плавающее начало дня;\n- ДМС со стоматологией\n\n☎️Контакты:\nЮлия - YAnZueva@Greenatom.ru","markup":[{"type":"link","offset":0,"length":12,"data":"http://Greenatom.ru"},{"type":"hashtag","offset":13,"length":9,"data":"вакансия"},{"type":"hashtag","offset":23,"length":7,"data":"Москва"},{"type":"hashtag","offset":31,"length":11,"data":"javascript"},{"type":"hashtag","offset":43,"length":6,"data":"React"},{"type":"hashtag","offset":50,"length":11,"data":"Typescript"},{"type":"hashtag","offset":62,"length":5,"data":"Node"},{"type":"hashtag","offset":71,"length":7,"data":"Middle"},{"type":"hashtag","offset":79,"length":7,"data":"Senior"},{"type":"hashtag","offset":87,"length":9,"data":"удаленка"},{"type":"hashtag","offset":97,"length":10,"data":"удаленная"},{"type":"hashtag","offset":212,"length":7,"data":"Москва"},{"type":"link","offset":1406,"length":21,"data":"mailto:YAnZueva@Greenatom.ru"}],"date":"2020-06-13T18:05:31+00:00","link":"tg://resolve?domain=javascript_jobs_feed&post=16111","tags":[{"name":"javascript"},{"name":"reactjs"},{"name":"typescript"},{"name":"nodejs"},{"name":"sass"},{"name":"docker"}],"cities":[{"code":"moscow"}],"allowsRemote":true}},{"node":{"__typename":"Job","id":"16891510784-1001110946746","title":"Js разработчик","text":"#вакансия #удалённо #фронтенд #javascript #ExtJS\n\nНазвание компании: R-vision\nНазвание вакансии: Frontend developer Ext JS (Sencha)\nФормат работы: удаленка, можно офис (Москва, м. Римская).\nЗанятость: полная\nЗарплатная вилка: от 80 000 – 200 000 руб.\nОписание вакансии: \n«Ищем опытного фронтенд разработчика, который вместе с нами будет создавать инновационные решения, которые позволяют нашим клиентам автоматизировать мониторинг, регистрацию и реагирование на инциденты информационной безопасности и значительно повысить возможности по отражению кибер-атак.\nНаши ожидания от кандидата:\nзнание JavaScript (опыт работы от 2х лет)\nопыт работы с Ext JS (версия не ниже 4-ой, в идеале 6-я)\nопыт работы с PostgreSQL или MySQL\nопыт работы с системами контроля версий\nБудет плюсом:\nзнание D3, Node.js, Highcharts\nопыт работы с Linux\nОбязанности:\nработа над фронтэндом (Ext JS) системы R-Vision (централизованной системы мониторинга и управления информационной безопасностью)\nрешение нестандартных / сложных технических задач, используя весь свой творческий и девелоперский потенциал\nпри желании возможна работа fullstack в связке Node.js + Ext JS.»\nКонтакты: @katrinfek","markup":[{"type":"hashtag","offset":0,"length":9,"data":"вакансия"},{"type":"hashtag","offset":10,"length":9,"data":"удалённо"},{"type":"hashtag","offset":20,"length":9,"data":"фронтенд"},{"type":"hashtag","offset":30,"length":11,"data":"javascript"},{"type":"hashtag","offset":42,"length":6,"data":"ExtJS"},{"type":"handle","offset":1153,"length":10,"data":"katrinfek"}],"date":"2020-06-13T15:05:27+00:00","link":"tg://resolve?domain=javascript_jobs_feed&post=16109","tags":[{"name":"javascript"},{"name":"extjs"},{"name":"postgresql"},{"name":"mysql"},{"name":"nodejs"},{"name":"highcharts"},{"name":"linux"}],"cities":[{"code":"moscow"}],"allowsRemote":true}}]}}},"context":{}}