{"hash":"f34fd2c444a074f4e0e67d525015a008ef8e766f","data":{"records":{"id":"ansible","name":"ansible","belongsTo":{"totalCount":59,"pageInfo":{"totalPages":6,"currentPage":5},"edges":[{"node":{"__typename":"Job","id":"1908408320-1001134745498","title":"Devops инженер","text":"#вакансия #Москва #Калиниград #Linux  #DevOps\n#remote #удалёнка #офис \nГород: Москва, Калиниград\nЗанятость: полная\nФормат работы: офис или удаленка\nЗарплатная вилка: от 100 000 до 150 000\nОписание вакансии:\nЧто нужно делать?\n\n-Автоматизация рутинных процессов;\n-Поддержка и развитие CI/CD\n-Настройка систем непрерывного мониторинга, сбора логов и т.д.\n-Развертывание окружений (dev, test, prod)\n-Разбор критических ситуаций, оперативное устранение выявленных неисправностей\n-Активное участие при прорабатывании новой архитектуры продукта, внедрение новейших сервисов и технологий\nТребования:\n\n-Опыт работы с Docker и (желательно) с системами оркестрации (swarm/kubernetes/openshift)\n-Опыт работы с Web-стеком PHP/NGINX/PostgreSQL\n-Опыт настройки, кластеризации rabbitMQ, PostgreSQL, ElasticSearch будет большим плюсом\n-Опыт работы с SCM (Ansible, Puppet) будет большим плюсом\n-Опыт работы с continuous integration, build&release management\n-Знание систем контроля версий. У нас Git (Gitlab)\n-Scripting (PowerShell, bash/python)\nНазвание компании: Cognitive Technologies \nКонтакты:  @codefather_ru можно в https://kaliningrad.hh.ru/vacancy/36234203\nhttps://kaliningrad.hh.ru/vacancy/36234204\n\n—\n\n👉 Обсуждение вакансии в чате @devops_jobs","markup":[{"type":"hashtag","offset":0,"length":9,"data":"вакансия"},{"type":"hashtag","offset":10,"length":7,"data":"Москва"},{"type":"hashtag","offset":18,"length":11,"data":"Калиниград"},{"type":"hashtag","offset":30,"length":6,"data":"Linux"},{"type":"hashtag","offset":38,"length":7,"data":"DevOps"},{"type":"hashtag","offset":46,"length":7,"data":"remote"},{"type":"hashtag","offset":54,"length":9,"data":"удалёнка"},{"type":"hashtag","offset":64,"length":5,"data":"офис"},{"type":"handle","offset":1082,"length":14,"data":"codefather_ru"},{"type":"link","offset":1105,"length":42,"data":"https://kaliningrad.hh.ru/vacancy/36234203"},{"type":"link","offset":1148,"length":42,"data":"https://kaliningrad.hh.ru/vacancy/36234204"},{"type":"handle","offset":1225,"length":12,"data":"devops_jobs"}],"date":"2020-03-16T14:58:57+00:00","link":"tg://resolve?domain=devops_jobs_feed&post=1820","tags":[{"name":"linux"},{"name":"docker"},{"name":"kubernetes"},{"name":"web"},{"name":"php"},{"name":"nginx"},{"name":"postgresql"},{"name":"rabbitmq"},{"name":"elasticsearch"},{"name":"ansible"},{"name":"git"},{"name":"gitlab"},{"name":"powershell"},{"name":"bash"},{"name":"python"},{"name":"continuous-integration"}],"cities":[{"code":"moscow"},{"code":"kaliningrad"}],"allowsRemote":true}},{"node":{"__typename":"Job","id":"1905262592-1001134745498","title":"Devops инженер","text":"#вакансия #devops\nОфис: Москва (м. Ленинский проспект), Санкт-Петербург (м. Петроградская), Рязань, Ижевск\nФормат работы: офис\nЗанятость: полная\nЗарплатная вилка: от 180 000 до 200 000 рублей на руки\nВ связи с расширением предлагаем рассмотреть нашу вакансию. \nОбязанности\n- настраивать и поддерживать инфраструктуру текущих и новых проектов \n- поддерживать CI/CD на основе Gerrit/Jenkins/Nexus\n- администрировать парк серверов \nRND - находить и внедрять новые решения\nТребования\n- уверенное администрирование Linux (CentOS)\n- опыт работы с Docker, Elasticsearch, Logstash и Kibana\n- уверенное владение инструментами CI/CD (Jenkis, TeamCity)\n- автоматизация с помощью Ansible\nвладение языками (bash и/или python)\n- опыт работы с системами сбора метрик и мониторинга \nжелательно: Kubernetes\nнавыки администрирования БД (Oracle, PostgreSQL)\nМы предлагаем\n- конкурентная заработная плата по результатам общения\n- соблюдение TK РФ\n- гибкий рабочий график с началом работы с 8:00 до 11:00\n- ДМС с расширенным набором услуг\n- интересные и нетривиальные задачи \n- возможность посещать семинары, тренинги, конференции\n\nКомпания: https://jtc.ooo/\nНа рынке ИТ с 2007.\nСпециализация: разработка систем ДБО и построение информационных экосистем. \n\nКонтакты: @irarudakova\n\n—\n\n👉 Обсуждение вакансии в чате @devops_jobs","markup":[{"type":"hashtag","offset":0,"length":9,"data":"вакансия"},{"type":"hashtag","offset":10,"length":7,"data":"devops"},{"type":"link","offset":1121,"length":16,"data":"https://jtc.ooo/"},{"type":"handle","offset":1246,"length":12,"data":"irarudakova"},{"type":"handle","offset":1293,"length":12,"data":"devops_jobs"}],"date":"2020-03-16T10:22:37+00:00","link":"tg://resolve?domain=devops_jobs_feed&post=1817","tags":[{"name":"jenkins"},{"name":"linux"},{"name":"centos"},{"name":"docker"},{"name":"elasticsearch"},{"name":"logstash"},{"name":"ansible"},{"name":"bash"},{"name":"python"},{"name":"kubernetes"},{"name":"oracle"},{"name":"postgresql"}],"cities":[{"code":"moscow"},{"code":"ryazan"},{"code":"izhevsk"}],"allowsRemote":false}},{"node":{"__typename":"Job","id":"1904214016-1001134745498","title":"Devops инженер","text":"#вакансия \nВакансия: #devops  #fulltime #office\nКомпания: #нспк #псмир\nЛокация: #томск\nЗ/п: 100к-180к net (после вычета налогов)\n\n«Национальная система платежных карт» ищет DevOps-инженера.\n\nНСПК - развивающаяся компания, создающая финтех-сервисы, которыми пользуются миллионы людей. \n\nЗа 5 лет нашей истории мы разработали бизнес-продукты, аналоги которых в мире можно пересчитать по пальцам:\n✔️Платежная система \"Мир\";\n✔️Система быстрых платежей;\n✔️Программа лояльности \"Мир\";\n✔️Сервис мобильной оплаты MirPay;\n✔️Система аутентификации пользователей MirAccept.  \n\n⛏ Наш стек:  \nLinux, Docker, Git, Jenkins, Nexus, Ansible, Groovy, Python, Java, Spring, Gradle, MySql, Nginx, HAProxy, Kafka, Hazelcast, Prometheus, ELK, Atlassian stack. \n\n🧠 Какие у нас бывают задачи?\n- Написание конвейеров (CI/CD); \n- Автоматизация процессов создания окружений инфраструктуры разработки (репозитории, типовые job CI, RBAC, Ansible roles);\n- Автоматизация housekeeping. \n\n🎁 Мы предлагаем:\n- Работу в команде профессионалов;\n- Обучение за счет компании;\n- Развитую корпоративную культуру;\n- ДМС со стоматологией, официальное трудоустройство; \n- Комфортный офис в центре;\n- Чай, кофе, печеньки✌️\n\nХотите поучаствовать в масштабном и сложном проекте?\n\nМои контакты:\n📲 +7-916-051-20-63\n      @Ekaterina1915 \n\n📩 makarovaen@nspk.ru\n\n—\n\n👉 Обсуждение вакансии в чате @devops_jobs","markup":[{"type":"hashtag","offset":0,"length":9,"data":"вакансия"},{"type":"hashtag","offset":21,"length":7,"data":"devops"},{"type":"hashtag","offset":30,"length":9,"data":"fulltime"},{"type":"hashtag","offset":40,"length":7,"data":"office"},{"type":"hashtag","offset":58,"length":5,"data":"нспк"},{"type":"hashtag","offset":64,"length":6,"data":"псмир"},{"type":"hashtag","offset":80,"length":6,"data":"томск"},{"type":"link","offset":1253,"length":16,"data":"tel:+7-916-051-20-63"},{"type":"handle","offset":1276,"length":14,"data":"Ekaterina1915"},{"type":"link","offset":1296,"length":18,"data":"mailto:makarovaen@nspk.ru"},{"type":"handle","offset":1349,"length":12,"data":"devops_jobs"}],"date":"2020-03-16T09:19:44+00:00","link":"tg://resolve?domain=devops_jobs_feed&post=1816","tags":[{"name":"dotnet"},{"name":"linux"},{"name":"docker"},{"name":"git"},{"name":"jenkins"},{"name":"ansible"},{"name":"groovy"},{"name":"python"},{"name":"java"},{"name":"spring"},{"name":"gradle"},{"name":"mysql"},{"name":"nginx"},{"name":"kafka"}],"cities":[{"code":"tomsk"}],"allowsRemote":false}},{"node":{"__typename":"Job","id":"1903165440-1001134745498","title":"Devops инженер","text":"#вакансия #Москва #devops #офис \n\nВакансия: devops\nОфис: Москва, Москва Сити, башня Империя \nКомпания: Диджитал Агро\nФормат работы: офис\nОпыт: 2-3 года \nЗарплатная вилка: 150 000 до 280 000 руб. (Обсуждается на собеседовании)\n\nТребования:\n- Создавать CI/CD продукты \n- Сопровождать продуктовую разработку в команде \n- Выяснять места происхождения ошибок \n- Создавать систему мониторинга ошибок \n- Поддерживать it инфраструктуру разработки.\n\nСтек,который мы ждём:\n- Ansible,Docker,PostgreSQL/MySQL,Zabbix/Grafana/Prometheus,Linux, Git, Gitlab, python, shell.\n\nУсловия:\n- Комфортабельный офис\n- Квартальные + годовые бонусы \n- Белый доход\n- Обучение за счёт компании \n\nКонтакты: tg: @LubaKovalenko\n\n—\n\n👉 Обсуждение вакансии в чате @devops_jobs","markup":[{"type":"hashtag","offset":0,"length":9,"data":"вакансия"},{"type":"hashtag","offset":10,"length":7,"data":"Москва"},{"type":"hashtag","offset":18,"length":7,"data":"devops"},{"type":"hashtag","offset":26,"length":5,"data":"офис"},{"type":"handle","offset":681,"length":14,"data":"LubaKovalenko"},{"type":"handle","offset":730,"length":12,"data":"devops_jobs"}],"date":"2020-03-16T07:52:36+00:00","link":"tg://resolve?domain=devops_jobs_feed&post=1815","tags":[{"name":"ansible"},{"name":"docker"},{"name":"postgresql"},{"name":"mysql"},{"name":"linux"},{"name":"git"},{"name":"gitlab"},{"name":"python"},{"name":"shell"}],"cities":[{"code":"moscow"}],"allowsRemote":false}},{"node":{"__typename":"Job","id":"1901068288-1001134745498","title":"Devops инженер","text":"#вакансия #jenkins #aws #украина #беларусь #прибалтика #remote #удалёнка\nкомпания s-o-services\nФормат - remote\nз\\п 5к-6к$ gross\nУвы гражданам России, живущим в РФ - вакансия недоступна.\nHere's some of the tech we use in DevOps.\n\n- jenkins экспертное знание\n- ansible\n- gradle (some maven) понимане логов сборок и умение чётко рассказать программисту что пошло не так\n- java тюнинг, хорошее понимание работы gc(чем отличается cms от g1 и от zgc, и когда лучше взять zulu? а когда openjdk?), что и когда тюнить в jvm, настройка логов и их тюнинг\n- groovy обязателен\n- HashiCorp vault\n- AWS infrastructure, понимание ценообразования, трафика и днс, стоимости i\\o и особенностей rds\n- drone\n- cri-o/containerd\n- prometheus, grafana, elk, datadog\n- upper-intermediate English обязателен\nконтакты @erzentd\n\n—\n\n👉 Обсуждение вакансии в чате @devops_jobs","markup":[{"type":"hashtag","offset":0,"length":9,"data":"вакансия"},{"type":"hashtag","offset":10,"length":8,"data":"jenkins"},{"type":"hashtag","offset":19,"length":4,"data":"aws"},{"type":"hashtag","offset":24,"length":8,"data":"украина"},{"type":"hashtag","offset":33,"length":9,"data":"беларусь"},{"type":"hashtag","offset":43,"length":11,"data":"прибалтика"},{"type":"hashtag","offset":55,"length":7,"data":"remote"},{"type":"hashtag","offset":63,"length":9,"data":"удалёнка"},{"type":"handle","offset":791,"length":8,"data":"erzentd"},{"type":"handle","offset":834,"length":12,"data":"devops_jobs"}],"date":"2020-03-14T10:23:43+00:00","link":"tg://resolve?domain=devops_jobs_feed&post=1813","tags":[{"name":"jenkins"},{"name":"amazon-web-services"},{"name":"ansible"},{"name":"gradle"},{"name":"maven"},{"name":"java"},{"name":"jvm"},{"name":"groovy"}],"cities":[],"allowsRemote":true}},{"node":{"__typename":"Job","id":"1900019712-1001134745498","title":"Devops инженер","text":"#вакансия #linux #sberdevices \nВакансия: Linux инженер \nКомпания: Сбербанк\nГород и адрес: Москва, Кутузовский пр-т, 32\nФормат работы: офис \nЗанятость: полная \nЗарплатная вилка: от 100 000 до 250 000\n\nКоманда эксплуатации SberDevices ищет коллег в дружный коллектив.\nМы создаем отказоустойчивую инфраструктуру для умных устройств и высоконагруженных систем.\nХочешь создавать инфраструктуру с 0?\nПосле выполнения пары однотипных задач автоматизируешь процесс?\nЛюбишь нарушать правило «Работает - не трогай!»?\nТогда мы ждём тебя на собеседование! :)\n\nЧем предстоит заниматься:\n• Прорабатывать базовую архитектуру и реализовывать её;\n• Строить и поддерживать отказоустойчивые системы;\n• Мониторинг инфраструктуры (сбор и анализ метрик, логирование, проактивный мониторинг);\n• Troubleshooting проблем на уровне операционной системы/сети (strace, tcpdump, etc);\n• Автоматизация рутинных задач.\n\nТребования:\n• Уверенные знания Linux;\n• Понимание принципов работы сети (TCP/IP);\n• Опыт работы с системами управления конфигурациями (Ansible, Puppet, etc);\n• Опыт работы с системами виртуализации (Proxmox, VmWare, etc);\n• Опыт работы с системами контроля версий (git);\n• Опыт программирования (Bash, Python).\n\nБудет плюсом опыт работы со следующими продуктами:\n• ELK stack, Zabbix, Prometheus, Grafana;\n• Ceph (radosgw);\n• Базами данных (PostgreSQL, Oracle);\n• Nginx.\n\nЧто мы предлагаем?\n• Возможность принять участие в разработке продуктов от идеи до реализации;\n• Гибкий график;\n• Возможность обучения за счет компании;\n• Страхование (от несчастных случаев, ДМС (включая поездки за рубеж));\n• Оздоровительные программы для детей сотрудников;\n• Дисконт-программы от компаний партнеров (фитнес, страхование, туризм);\n• Льготное кредитование;\n• Столовая, бесплатный тренажерный зал на территории офиса, бесплатная парковка;\n• Место работы - ст.м. Кутузовская.\n\nКонтакты:\nhttps://hh.ru/vacancy/36070450 (отклик на Headhunter) \n@Nastik8 (telegram)\n\n—\n\n👉 Обсуждение вакансии в чате @devops_jobs","markup":[{"type":"hashtag","offset":0,"length":9,"data":"вакансия"},{"type":"hashtag","offset":10,"length":6,"data":"linux"},{"type":"hashtag","offset":17,"length":12,"data":"sberdevices"},{"type":"link","offset":1861,"length":30,"data":"https://hh.ru/vacancy/36070450"},{"type":"handle","offset":1916,"length":8,"data":"Nastik8"},{"type":"handle","offset":1970,"length":12,"data":"devops_jobs"}],"date":"2020-03-13T11:01:06+00:00","link":"tg://resolve?domain=devops_jobs_feed&post=1812","tags":[{"name":"linux"},{"name":"ansible"},{"name":"git"},{"name":"bash"},{"name":"python"},{"name":"postgresql"},{"name":"oracle"},{"name":"nginx"}],"cities":[{"code":"moscow"}],"allowsRemote":false}},{"node":{"__typename":"Job","id":"1895825408-1001134745498","title":"Devops инженер","text":"#вакансия #jenkins #aws #украина #беларусь #прибалтика #remote #удалёнка\nкомпания s-o-services\nФормат - remote\nз\\п 5-6$ gross\nУвы гражданам России, живущим в РФ - вакансия недоступна.\nHere's some of the tech we use in DevOps.\n\n- jenkins экспертное знание\n- ansible\n- gradle (some maven) погимане логов сборок и умение чётко рассказать программисту что пошло не так\n- java тюнинг, хорошее понимание работы gc(чем отличается cms от g1 и от zgc, и когда лучше взять zulu? а когда openjdk?), что и когда тюнить в jvm, настройка логов и их тюнинг\n- groovy обязателен\n- HashiCorp vault\n- AWS infrastructure, понимание ценообразования, трафика и днс, стоимости i\\o и особенностей rds\n- drone\n- cri-o/containerd\n- prometheus, grafana, elk, datadog\n- upper-intermediate обязателен\nконтакты @erzentd\n\n—\n\n👉 Обсуждение вакансии в чате @devops_jobs","markup":[{"type":"hashtag","offset":0,"length":9,"data":"вакансия"},{"type":"hashtag","offset":10,"length":8,"data":"jenkins"},{"type":"hashtag","offset":19,"length":4,"data":"aws"},{"type":"hashtag","offset":24,"length":8,"data":"украина"},{"type":"hashtag","offset":33,"length":9,"data":"беларусь"},{"type":"hashtag","offset":43,"length":11,"data":"прибалтика"},{"type":"hashtag","offset":55,"length":7,"data":"remote"},{"type":"hashtag","offset":63,"length":9,"data":"удалёнка"},{"type":"handle","offset":781,"length":8,"data":"erzentd"},{"type":"handle","offset":824,"length":12,"data":"devops_jobs"}],"date":"2020-03-13T06:47:09+00:00","link":"tg://resolve?domain=devops_jobs_feed&post=1808","tags":[{"name":"jenkins"},{"name":"amazon-web-services"},{"name":"ansible"},{"name":"gradle"},{"name":"maven"},{"name":"java"},{"name":"jvm"},{"name":"groovy"}],"cities":[],"allowsRemote":true}},{"node":{"__typename":"Job","id":"1890582528-1001134745498","title":"Devops инженер","text":"#вакансия #москва #офис\nDevOps инженер\nВилка 200 - 230 т.р. на руки\nМосква, офис, полный рабочий день.\nКомпания занимается разработкой платежной системы.\nЗадачи:\n 1. Обеспечение бесперебойной работы серверов и приложений Компании (не менее 99.9% доступности);\n 2. Разработка и поддержка Docker-контейнеров приложений и оркестрация микросервисов с использованием Kubernetes;\n 3. CI/CD pipelining;\n 4. Развитие и поддержка мониторинга доступности сервисов Компании;\n 5. Автоматизация развертывания новых сервисов и управление конфигурациями;\nТребования:\n Linux(Debian-based, RedHat-based) – мы ждем администраторов;\n Nginx;\n Docker– разработка образов контейнеров;\n Bash,Python– написание скриптов автоматизации;\n Teamcity(GitlabCI, Jenkins) – реализация CI/CDpipeline;\n Git;\n Puppet (Chef, Ansible, Salt) – разработка своих модулей, модификация существующих;\n Kubernetes;\n Helm;\n Prometheus;\n vSphere (VCSA HA, advanced networking);\n Понимание Foreman;\n Использование регулярных выражений;\n Использование Hiera;\nУсловия:\n  Возможность выбрать время начала работы (с 8:00/9:00/10:00);\n Современный, просторный офис;\n Современный рабочий компьютер (16 GBRAM, SSD), удобное рабочее место;\n Комфортная кухонная зона для кофе-брейков, зона отдыха, PS4 PRO +VR;\n Возможность выбрать на чем работать: Windows/Linux\n ДМС по окончанию испытательного срока;\n Корпоративные курсы по изучению Английского языка;\n Компенсация расходов на питание по картам Obed.ru;\n Компенсация расходов на спорт, внутри БЦ World Trade Center\n\nКонтакты: @kristina_jobs\nКА RedCode\n\n—\n\n👉 Обсуждение вакансии в чате @devops_jobs","markup":[{"type":"hashtag","offset":0,"length":9,"data":"вакансия"},{"type":"hashtag","offset":10,"length":7,"data":"москва"},{"type":"hashtag","offset":18,"length":5,"data":"офис"},{"type":"link","offset":1442,"length":7,"data":"http://Obed.ru"},{"type":"handle","offset":1523,"length":14,"data":"kristina_jobs"},{"type":"handle","offset":1583,"length":12,"data":"devops_jobs"}],"date":"2020-03-12T13:17:33+00:00","link":"tg://resolve?domain=devops_jobs_feed&post=1803","tags":[{"name":"docker"},{"name":"kubernetes"},{"name":"linux"},{"name":"debian"},{"name":"nginx"},{"name":"bash"},{"name":"python"},{"name":"jenkins"},{"name":"git"},{"name":"ansible"},{"name":"windows"}],"cities":[{"code":"moscow"}],"allowsRemote":false}},{"node":{"__typename":"Job","id":"1888485376-1001134745498","title":"Devops инженер","text":"#вакансия #fulltime #devops #москва\nКомпания: Directadvert https://www.directadvert.ru/\nГород: Москва (м. Цветной бульвар)\nФормат работы: офис\nЗанятость: полная\nЗарплатная вилка: 150-170 тыс. руб.\n\nМы ищем действительно неравнодушного человека, которому небезразличен результат его работы, который радуется когда у него получилось хорошо и который задумывается когда у него получилось плохо. Это - главное требование для этой вакансии.\n\nМы занимаемся разработкой и эксплуатацией собственных рекламных сервисов. Мы показываем тысячи рекламных объявлений каждую секунду по всему миру, и это самый настоящий Highload. У нас успешно работают машинное обучение, технологии RTB, уникальные собственные алгоритмы для оптимального подбора рекламы пользователям. Нагрузки - огромные, серверов - много, проекты - разные, идей - миллион! Что ещё надо для быстрого и качественного развития инженера? Возможно, только команда. В нашей команде работают специалисты разных специализаций и разного уровня. Но ключевой момент - работают в команде, а не по отдельности. Стараемся соответствовать духу Devops и внедрять практики SRE.\n\nНам не нужен администратор, который просто умеет CI/CD от забора и до обеда. Нам нужен человек, готовый погрузиться во все нюансы проекта и принимать решения полезные для достижения общих целей.\n\n✳️ Требования:\n- Аккуратность и внимательность\n- Инициатива и проактивность\n- Ответственность\n- Разумный перфекицонизм\n- Незабывчивость\n\nЭто те основные качества, которые мы хотим видеть у людей в команде. Любые технологии можно выучить при наличии этих качеств, но при их отсутствии знание технологий - бесполезно для нас.\n\n✳️ Технологии с которыми мы работаем:\n- Debian\n- nginx\n- Postgresql\n- Python, Asyncio\n- PHP\n- Ansible\n- Prometheus\n- Grafana\n- ELK stack\n\nНет чего-то, что обязательно знать для данной вакансии. Но чем больше пересечение ваших знаний с этим списком - тем больше вероятность что мы подойдем друг другу.\n\n✳️ Обязанности:\n- Контроль и развитие всей инфраструктуры, максимально в строну IaC\n- Мониторинг сервисов, настройка алертов, работа с инцидентами\n- Создание и оптимизация CI/CD процессов\n- Автоматизация повторяющихся задач\n- Взаимодействие с разработчиками в духе Devops\n\n✳️ Условия:\n- Адекватный и грамотный менеджмент\n- Профессиональные и доброжелательные коллеги\n- Удобный офис в центре (м. Трубная/Цветной Бульвар)\n- Гибкий рабочий график\n\n\n☎️ Контакт: @andreyru\n\n—\n\n👉 Обсуждение вакансии в чате @devops_jobs","markup":[{"type":"hashtag","offset":0,"length":9,"data":"вакансия"},{"type":"hashtag","offset":10,"length":9,"data":"fulltime"},{"type":"hashtag","offset":20,"length":7,"data":"devops"},{"type":"hashtag","offset":28,"length":7,"data":"москва"},{"type":"link","offset":59,"length":28,"data":"https://www.directadvert.ru/"},{"type":"handle","offset":2397,"length":9,"data":"andreyru"},{"type":"handle","offset":2441,"length":12,"data":"devops_jobs"}],"date":"2020-03-12T11:36:49+00:00","link":"tg://resolve?domain=devops_jobs_feed&post=1801","tags":[{"name":"debian"},{"name":"nginx"},{"name":"postgresql"},{"name":"python"},{"name":"php"},{"name":"ansible"}],"cities":[{"code":"moscow"}],"allowsRemote":false}},{"node":{"__typename":"Job","id":"1887436800-1001134745498","title":"Devops инженер","text":"#вакансия #fulltime #teamlead #DevOps #СПБ \nПривет! \nTL Devops, 1 сотрудник в подчинении. Есть небольшая команда на стороне заказчиков. \nЛокация: Санкт-Петербург\nФормат работы: приоритет - офис, но удаленка тоже возможна. \nГрафик: 5/2 с гибким началом рабочего дня. \nЗанятость: полная\nЗарплатная вилка: от 180 до 220 на руки\n\n🧰Мы: 4xxi.com (разработка проектов-стартапов (веб, мобильные истории IOS/Android)). 90% проектов компании приходятся на зарубежный рынок (США, Англия основные страны).\n\n🍩 Плюшки: \n✔️оформление по ТК РФ (мы белые полностью);\n✔️уроки английского языка;\n✔️ДМС;\n✔️спортивные мероприятия;\n✔️обучение и развитие;\n✔️офис в центре города в стиле лофт, м.Горьковская;\n✔️кухня, забитая вкусняхами;\n\nТребования: \n☑️опыт работы на позиции системного администратора UNIX/Linux от 2х лет;\n☑️ОС: Linux/Unix (Ubuntu/Debian и CentOS/Redhat). Уровень ведущего системного администратора;\n☑️опыт автоматизации рутинных задач с помощью python/php/ruby/bash;\n☑️опыт практического использования Ansible/puppet/chef для управления конфигурациями;\n☑️опыт практического использования систем контейнеризации Docker/LXC/LXD;\n☑️администрирование серверов, сетевого оборудования;\n☑️знание сетевых протоколов, понимание протоколов маршрутизации;\n☑️опыт работы с такими сервисами AWS как SES, SNS, Container engine, Route53, S3, RDS;\n☑️Kubernetes/CoreOS.\n\n☑️список ПО, используемого компанией\n- Nginx\n- PHP(php-fpm)\n- Postgresql\n- MongoDB\n- Mysql/Percona Mysql\n- Nodejs\n- Zabbix\n- Redis\n- postfix/exim\n- bind\n\nПишите и присылайте свои резюме:  vyangurskaya@4xxi.com, @vyangurskaya\n\n—\n\n👉 Обсуждение вакансии в чате @devops_jobs","markup":[{"type":"hashtag","offset":0,"length":9,"data":"вакансия"},{"type":"hashtag","offset":10,"length":9,"data":"fulltime"},{"type":"hashtag","offset":20,"length":9,"data":"teamlead"},{"type":"hashtag","offset":30,"length":7,"data":"DevOps"},{"type":"hashtag","offset":38,"length":4,"data":"СПБ"},{"type":"link","offset":332,"length":8,"data":"http://4xxi.com"},{"type":"link","offset":1540,"length":21,"data":"mailto:vyangurskaya@4xxi.com"},{"type":"handle","offset":1563,"length":13,"data":"vyangurskaya"},{"type":"handle","offset":1611,"length":12,"data":"devops_jobs"}],"date":"2020-03-12T11:28:54+00:00","link":"tg://resolve?domain=devops_jobs_feed&post=1800","tags":[{"name":"ios"},{"name":"android"},{"name":"unix"},{"name":"linux"},{"name":"ubuntu"},{"name":"debian"},{"name":"centos"},{"name":"python"},{"name":"php"},{"name":"ruby"},{"name":"bash"},{"name":"ansible"},{"name":"docker"},{"name":"amazon-web-services"},{"name":"kubernetes"},{"name":"nginx"},{"name":"postgresql"},{"name":"mongodb"},{"name":"mysql"},{"name":"nodejs"},{"name":"redis"}],"cities":[],"allowsRemote":true}}]}}},"context":{}}