{"hash":"f34fd2c444a074f4e0e67d525015a008ef8e766f","data":{"records":{"id":"nosql","name":"nosql","belongsTo":{"totalCount":29,"pageInfo":{"totalPages":3,"currentPage":2},"edges":[{"node":{"__typename":"Job","id":"1412431872-1001091028994","title":"Java разработчик","text":"#java #middle #fulltime #удалённо #job #вакансия #remote #фуллтайм #fulltime #удаленно #удаленка #удаленно #spring\n #москва \n✔️ Вакансия: Java developer\nЗП: до 190k net\nФормат работы: полная/удаленно\nКомпания: МТС\n\nКрупная российская телекоммуникационная компания приглашает присоединиться Middle Java разработчика к проекту разработки IoT решений.\n\n ✔️ Задачи:\n• Разработка бэкенда проекта;\n• Code-review;\n• Участие в принятии архитектурных и технических решений;\n• Интеграция решений с мобильными приложениями.\n\n✔️ Предлагаем: \n• Официальное трудоустройство;\n• Повышение квалификации;\n•  Удаленная работа из дома.\n\n✔️ Пожелания к Вашему опыту:\n• Опыт работы от 3-х лет;\n• Высшее образование;\n• Работа с БД: PostgreSQL и NoSQL;\n• Опыт работы с Spring, Kafka.\nКонтактное лицо: @OlgaVzh","markup":[{"type":"hashtag","offset":0,"length":5,"data":"java"},{"type":"hashtag","offset":6,"length":7,"data":"middle"},{"type":"hashtag","offset":14,"length":9,"data":"fulltime"},{"type":"hashtag","offset":24,"length":9,"data":"удалённо"},{"type":"hashtag","offset":34,"length":4,"data":"job"},{"type":"hashtag","offset":39,"length":9,"data":"вакансия"},{"type":"hashtag","offset":49,"length":7,"data":"remote"},{"type":"hashtag","offset":57,"length":9,"data":"фуллтайм"},{"type":"hashtag","offset":67,"length":9,"data":"fulltime"},{"type":"hashtag","offset":77,"length":9,"data":"удаленно"},{"type":"hashtag","offset":87,"length":9,"data":"удаленка"},{"type":"hashtag","offset":97,"length":9,"data":"удаленно"},{"type":"hashtag","offset":107,"length":7,"data":"spring"},{"type":"hashtag","offset":116,"length":7,"data":"москва"},{"type":"bold","offset":169,"length":31,"data":""},{"type":"bold","offset":290,"length":24,"data":""},{"type":"bold","offset":354,"length":8,"data":""},{"type":"bold","offset":517,"length":13,"data":""},{"type":"bold","offset":620,"length":26,"data":""},{"type":"handle","offset":777,"length":8,"data":"OlgaVzh"}],"date":"2020-04-02T13:19:28+00:00","link":"tg://resolve?domain=jvmjobs&post=1347","tags":[{"name":"java"},{"name":"jvm"},{"name":"spring"},{"name":"dotnet"},{"name":"postgresql"},{"name":"nosql"},{"name":"kafka"}],"cities":[{"code":"moscow"}],"allowsRemote":true}},{"node":{"__typename":"Job","id":"1959788544-1001134745498","title":"Devops инженер","text":"#вакансия#Москва#AWS\n\nDataArt (https://www.dataart.ru/) ищет DevOps с опытом AWS в один из наших IoT-проектов.\n\nГород: Москва (м. Белорусская).\nФормат работы: в офисе, но сейчас, по понятным причинам, удалённый.\nЗанятость: Full-time.\n\nЗарплатная вилка: \nот 2200$ до $5000 net. \nСтартовый бонус – $1000\n\nТребуемый опыт:\n• развертывание, управление и использование масштабируемой и отказоустойчивой инфраструктуры Linux/JVM в AWS (или других общедоступных облаках).\n• Разговорный английский.\n• Linux, сетевые технологии и концепции баз данных.\n• Cassandra (или другой NoSQL).\n• Amazon Web Services.\n• Chef или Puppet.\n• Ruby или Python.\n\nБольше подробностей о позиции у нас на сайте: \nhttps://www.dataart.ru/vacancy/cfm337\n\nЕсли у вас появятся вопросы - буду рада на них ответить!\n\nTelegram: @kluhpluh\nПочта: darya.matskevich@dataart.com\n\n—\n\n👉 Обсуждение вакансии в чате @devops_jobs","markup":[{"type":"link","offset":31,"length":23,"data":"https://www.dataart.ru/"},{"type":"link","offset":683,"length":37,"data":"https://www.dataart.ru/vacancy/cfm337"},{"type":"handle","offset":790,"length":9,"data":"kluhpluh"},{"type":"link","offset":807,"length":28,"data":"mailto:darya.matskevich@dataart.com"},{"type":"handle","offset":870,"length":12,"data":"devops_jobs"}],"date":"2020-04-02T09:23:39+00:00","link":"tg://resolve?domain=devops_jobs_feed&post=1869","tags":[{"name":"amazon-web-services"},{"name":"dotnet"},{"name":"linux"},{"name":"jvm"},{"name":"cassandra"},{"name":"nosql"},{"name":"web"},{"name":"ruby"},{"name":"python"}],"cities":[{"code":"moscow"}],"allowsRemote":true}},{"node":{"__typename":"Job","id":"24152899584-1001075660570","title":"Php developer","text":"#вакансия #php #lead #fulltime #удалёнка \nГород и адрес офиса: Москва (м.Курская)\nНазвание компании: КА\nФормат работы: удаленно/офис \nЗанятость: полная\nЗарплатная вилка: от 150к до 220к net\n\nПривет я ищу Tech lead/Senior php developer. Проект -- платформа для чатботов и воронок продаж. Сейчас у платформы более 1000 пользователей, растет на 20% ежемесячно, в следующем году планируется запуск на глобальном рынке, срочно нужно усиление 🙂 \n\nЗадачи:\n- разработка архитектуры новой части проекта;\n- разработка backend на php;\n- code review, тесты.\n\nТребования:\n- опыт разработки на php от 3х лет;\n- опыт работы с SQL;\n- опыт с брокерами очередей, например RabbitMQ.\n\nБудет плюсом:\n- знание node.js и других языков программирования;\n- noSQL (у нас Cassandra).\n\nУсловия:\n- Белая з/п;\n- Офис в Москве (м.Курская), есть возможность работать удаленно;\n- Крутой продукт, которым ежедневно пользуются тысячи людей;\n- Классная команда;\n- Возможность быстрого карьерного роста и профессионального развития.\n\nКонтакты: @nat_kirisova","markup":[{"type":"hashtag","offset":0,"length":9,"data":"вакансия"},{"type":"hashtag","offset":10,"length":4,"data":"php"},{"type":"hashtag","offset":15,"length":5,"data":"lead"},{"type":"hashtag","offset":21,"length":9,"data":"fulltime"},{"type":"hashtag","offset":31,"length":9,"data":"удалёнка"},{"type":"handle","offset":1008,"length":13,"data":"nat_kirisova"}],"date":"2020-03-30T10:00:00+00:00","link":"tg://resolve?domain=php_jobs&post=23034","tags":[{"name":"php"},{"name":"dotnet"},{"name":"sql"},{"name":"rabbitmq"},{"name":"nodejs"},{"name":"nosql"},{"name":"cassandra"}],"cities":[{"code":"moscow"}],"allowsRemote":true}},{"node":{"__typename":"Job","id":"23913824256-1001075660570","title":"Php developer","text":"#вакансия  #спб  #fulltime #офис #php7  #Yii # Go #senior\n📍Кого ищем: Senior PHP/Go Developer\n📍Город: Санкт-Петербург, м. Петроградская\n📍Формат работы: офис, полная занятость\n💰Заработная плата: до 200 К на руки (обсудим на собеседовании)\nПривет, мы компания Фотосклад/АВС.ru, TOP3 e-commerce Санкт-Петербурга.\n🔎Мы ищем ведущего backend-девелопера в группу архитектуры и микросервисов , который владеет стеком PHP7 + Go.\nМы работаем в стандартном пятидневном графике, с возможностью немного двигать начало и окончание рабочего дня. Территориально мы располагаемся в шаговой доступности от м.Петроградская. В нашем офисе есть все стандартные плюшки (как кофе и печеньки), а также кикер, плойка и настолки. \n📌Наш стек:\nPHP7, Go, ElasticSearch, Postgres, Kafka, ELK, gitlab CI\n📌Мы ждем, что наш кандидат:\n- Уверенно знает PHP7 и хорошо знает Go;\n- Интересуется  архитектурой информационных систем;\n- Понимает ООП, SOLID, шаблоны проектирования, гексагональную архитектуру;\n- Владеет одним из фреймворков Yii2, Laravel, Symfony;\n- Понимает микросервисную архитектуру, Event-Driven Architecture;\n- Отличное знание баз данных SQL, NoSQL;\n\nПо всем вопросам: @minataly","markup":[{"type":"hashtag","offset":0,"length":9,"data":"вакансия"},{"type":"hashtag","offset":11,"length":4,"data":"спб"},{"type":"hashtag","offset":17,"length":9,"data":"fulltime"},{"type":"hashtag","offset":27,"length":5,"data":"офис"},{"type":"hashtag","offset":33,"length":5,"data":"php7"},{"type":"hashtag","offset":40,"length":4,"data":"Yii"},{"type":"hashtag","offset":50,"length":7,"data":"senior"},{"type":"link","offset":272,"length":6,"data":"http://АВС.ru"},{"type":"handle","offset":1157,"length":9,"data":"minataly"}],"date":"2020-03-24T12:29:47+00:00","link":"tg://resolve?domain=php_jobs&post=22806","tags":[{"name":"php"},{"name":"yii"},{"name":"elasticsearch"},{"name":"postgresql"},{"name":"kafka"},{"name":"gitlab"},{"name":"laravel"},{"name":"symfony"},{"name":"sql"},{"name":"nosql"}],"cities":[],"allowsRemote":false}},{"node":{"__typename":"Job","id":"1378877440-1001091028994","title":"Java developer","text":"#вакансия #backend #javadeveloper #java #spb\nЛокация: Санкт-Петербург, станция метро Петроградская\nЗанятость: полная/ офис / гибкое начало рабочего дня\nЗарплата: от 180 000 net\nКомпания: ТетраСофт\nКонтакты: @dproto (Telegram), darya.protopopova@tetra-soft.ru\n\nКомпания ТетраСофт разрабатывает крутые информационные системы для сопровождения строительства нефтяных и газовых скважин (удаленный мониторинг различных параметров, аналитика на основе полученных данных, сбор и формирование отчётов).\nВ данный момент мы разрабатываем новый функционал платформы (SSO + modules).\nДля этого мы хотим усилить команду и приглашаем вас стать её частью.\n\nТехнологический стек разработки:\nJava 8, Spring, Hibernate, Elasticsearch, NATS, JUnit, MySQL, OAuth 2.0.\n\nЧто нужно будет делать:\n• Реализовывать алгоритмы работы с данными\n• Прорабатывать функциональные блоки бекенд части от проектирования до реализации\n• Участвовать в code review\n• Проектировать API\n\nЖдем от вас:\n• Опыт коммерческой разработки от 3-х лет\n• Хорошее знание Java core\n• Spring Boot (Security, MVC, REST Docs)\n• Hibernate 4+\n• Знание какого-либо SQL сервера\n• Знание алгоритмов и структур данных\n• Умение писать junit тесты\n• Понимание уязвимостей от OWASP Top 10\n• Умение работать с системой контроля версия (git)\n• Знание минимум одной системы сборки (ant, maven, gradle)\n\nБудет плюсом:\n• NoSQL\n• Docker\n• Знание коммуникационных протоколов (в том числе промышленных)\n• Опыт работы в Linux системах\n• Elasticsearch\n• Опыт работы с message broker\n• Знание других языков программирования\n• Понимание SOLID-принципов\n\nОт нас:\n• Гибкое начало рабочего дня (с 9:00 до 11:00);\n• Интересные проекты с возможностью карьерного роста;\n• Ежегодная премия по итогам работы;\n• Ежегодный пересмотр заработной платы по результатам работы;\n• ДМС после успешного прохождение ИС (включая стоматологию);\n• Компенсация питания;\n• Бесплатные курсы английского языка на территории офиса;\n• Возможность профильного обучения за счёт компании (оплата конференций, курсов);\n• Кикер, настолки, турник, XBox, корпоративные мероприятия;\n• Корпоративный волейбол на песке;\n• Иногородним соискателям помощь в релокации.","markup":[{"type":"hashtag","offset":0,"length":9,"data":"вакансия"},{"type":"hashtag","offset":10,"length":8,"data":"backend"},{"type":"hashtag","offset":19,"length":14,"data":"javadeveloper"},{"type":"hashtag","offset":34,"length":5,"data":"java"},{"type":"hashtag","offset":40,"length":4,"data":"spb"},{"type":"bold","offset":45,"length":8,"data":""},{"type":"bold","offset":99,"length":10,"data":""},{"type":"bold","offset":152,"length":9,"data":""},{"type":"bold","offset":177,"length":9,"data":""},{"type":"bold","offset":197,"length":9,"data":""},{"type":"handle","offset":207,"length":7,"data":"dproto"},{"type":"link","offset":227,"length":31,"data":"mailto:darya.protopopova@tetra-soft.ru"},{"type":"bold","offset":642,"length":31,"data":""},{"type":"bold","offset":749,"length":23,"data":""},{"type":"bold","offset":947,"length":12,"data":""},{"type":"bold","offset":1335,"length":13,"data":""},{"type":"bold","offset":1577,"length":7,"data":""}],"date":"2020-03-24T10:39:20+00:00","link":"tg://resolve?domain=jvmjobs&post=1315","tags":[{"name":"java"},{"name":"jvm"},{"name":"dotnet"},{"name":"spring"},{"name":"hibernate"},{"name":"elasticsearch"},{"name":"junit"},{"name":"mysql"},{"name":"oauth"},{"name":"rest"},{"name":"sql"},{"name":"git"},{"name":"ant"},{"name":"maven"},{"name":"gradle"},{"name":"nosql"},{"name":"docker"},{"name":"linux"},{"name":"spring-boot"}],"cities":[],"allowsRemote":true}},{"node":{"__typename":"Job","id":"1377828864-1001091028994","title":"Java разработчик","text":"Вакансия: #java #spring #hibernate \nКонцепция: #IoT\nКомпания: #MTS\nЛокация: #Москва #Комсомольская #Красныеворота\nФормат работы: #работавофисе + иногда возможно удаленно работать\nЗП: 150-200 net (в замисимости от знаний и опыта)\nКонтакт: @alina_katkova почта: avkatko2@mts.ru\n\nВ команду IoT, трайба отраслевых решений требуется java-разработчик. Трайб отраслевых решений – направление внутри МТС, которое осуществляет разработку полного цикла инновационных продуктов в B2B и B2C сегментах. Основное направление – инновационные продукты в сфере интернета вещей, медицины, видео аналитики.\n\nЧто нужно делать: \n-участвовать в командной работе над решениями;\n-принимать участие в code-review;\n-участвовать в принятии архитектурных и технических решений;\n-писать качественный код;\nНаш стек:\n-Java1.8+;\n-Spring: Spring Security, Spring Data, Spring Boot и т.д.;\n-Реляционные базы (в основном Postgres) и NoSQL (InfluxDB, Mongo);\n-Restful-сервисы, JSON, клиент-серверное взаимодействие;\n-ORM Hibernate;\n-MQ: RabbitMQ.\nУсловия:\n-штат, все по ТК РФ\n-премия 20% от годового оклада сверху\n-соц.пакет\n-удаленка на время карантина :)","markup":[{"type":"hashtag","offset":10,"length":5,"data":"java"},{"type":"hashtag","offset":16,"length":7,"data":"spring"},{"type":"hashtag","offset":24,"length":10,"data":"hibernate"},{"type":"hashtag","offset":47,"length":4,"data":"IoT"},{"type":"hashtag","offset":62,"length":4,"data":"MTS"},{"type":"hashtag","offset":76,"length":7,"data":"Москва"},{"type":"hashtag","offset":84,"length":14,"data":"Комсомольская"},{"type":"hashtag","offset":99,"length":14,"data":"Красныеворота"},{"type":"hashtag","offset":129,"length":13,"data":"работавофисе"},{"type":"handle","offset":238,"length":14,"data":"alina_katkova"},{"type":"link","offset":260,"length":15,"data":"mailto:avkatko2@mts.ru"},{"type":"bold","offset":589,"length":18,"data":""},{"type":"bold","offset":776,"length":9,"data":""},{"type":"bold","offset":1011,"length":8,"data":""}],"date":"2020-03-24T09:58:43+00:00","link":"tg://resolve?domain=jvmjobs&post=1314","tags":[{"name":"java"},{"name":"jvm"},{"name":"spring"},{"name":"hibernate"},{"name":"dotnet"},{"name":"postgresql"},{"name":"nosql"},{"name":"json"},{"name":"orm"},{"name":"rabbitmq"},{"name":"spring-security"},{"name":"spring-data"},{"name":"spring-boot"}],"cities":[{"code":"moscow"}],"allowsRemote":true}},{"node":{"__typename":"Job","id":"23900192768-1001075660570","title":"Php developer","text":"#вакансия #php #lead #fulltime #удалёнка \nГород и адрес офиса: Москва (м.Курская)\nНазвание компании: КА\nФормат работы: удаленно/офис \nЗанятость: полная\nЗарплатная вилка: от 150к до 220к net\n\nПривет я ищу Tech lead/Senior php developer. Проект -- платформа для чатботов и воронок продаж. Сейчас у платформы более 1000 пользователей, растет на 20% ежемесячно, в следующем году планируется запуск на глобальном рынке, срочно нужно усиление 🙂 \n\nЗадачи:\n- разработка архитектуры новой части проекта;\n- разработка backend на php;\n- code review, тесты.\n\nТребования:\n- опыт разработки на php от 3х лет;\n- опыт работы с SQL;\n- опыт с брокерами очередей, например RabbitMQ.\n\nБудет плюсом:\n- знание node.js и других языков программирования;\n- noSQL (у нас Cassandra).\n\nУсловия:\n- Белая з/п;\n- Офис в Москве (м.Курская), есть возможность работать удаленно;\n- Крутой продукт, которым ежедневно пользуются тысячи людей;\n- Классная команда;\n- Возможность быстрого карьерного роста и профессионального развития.\n\nКонтакты: @nat_kirisova","markup":[{"type":"hashtag","offset":0,"length":9,"data":"вакансия"},{"type":"hashtag","offset":10,"length":4,"data":"php"},{"type":"hashtag","offset":15,"length":5,"data":"lead"},{"type":"hashtag","offset":21,"length":9,"data":"fulltime"},{"type":"hashtag","offset":31,"length":9,"data":"удалёнка"},{"type":"handle","offset":1008,"length":13,"data":"nat_kirisova"}],"date":"2020-03-23T13:28:18+00:00","link":"tg://resolve?domain=php_jobs&post=22793","tags":[{"name":"php"},{"name":"dotnet"},{"name":"sql"},{"name":"rabbitmq"},{"name":"nodejs"},{"name":"nosql"},{"name":"cassandra"}],"cities":[{"code":"moscow"}],"allowsRemote":true}},{"node":{"__typename":"Job","id":"1912602624-1001134745498","title":"Devops инженер","text":"Всем добрый день! Приглашаем в команду:\n\n#вакансия\n#DevOPS\n#backend #Москва #мТаганская\n#fulltime #офис\n#Зарплатная вилка от 165-210 net\n#высоконагруженные_сервисы\n\nпозиция DevOPS\nО проекте:\n • Надежность, стабильность,  скорость внедрения -  зависит от Вас.\n • Высоконагруженные сервисы\n • Разработка виртуальной мобильной связи\nЗадачи:\n • Обеспечение плановых задач администрирования\n • Взаимодействие  с командами разработки и эксплуатации\n • Обеспечение внедрения релизов\n • Совершенствование процессов внедрения\nУ Вас:\n • Опыт администрирования Unix/Linux\n • Опыт разворачивания и администрирования Java приложений\n • Опыт работы с SQL и/или noSQL БД\n • Умение написать запрос в БД\n • Знания сетевых технологий TCP/IP\n • Опыт программирования на скриптовых языках (shell, python, perl)\nМЫ ПРЕДЛАГАЕМ:\n •  Сильная команда разработчиков\n •  Официальное оформление (ДМС, английский, спорт)\n •  Офис в центре Москвы\n •  Профессиональное развитие и участие в разработке серьезного продукта.\n\n\nКонтакты @BetterCallOl\n\n—\n\n👉 Обсуждение вакансии в чате @devops_jobs","markup":[{"type":"hashtag","offset":41,"length":9,"data":"вакансия"},{"type":"hashtag","offset":51,"length":7,"data":"DevOPS"},{"type":"hashtag","offset":59,"length":8,"data":"backend"},{"type":"hashtag","offset":68,"length":7,"data":"Москва"},{"type":"hashtag","offset":76,"length":11,"data":"мТаганская"},{"type":"hashtag","offset":88,"length":9,"data":"fulltime"},{"type":"hashtag","offset":98,"length":5,"data":"офис"},{"type":"hashtag","offset":104,"length":11,"data":"Зарплатная"},{"type":"hashtag","offset":137,"length":26,"data":"высоконагруженные_сервисы"},{"type":"handle","offset":1002,"length":13,"data":"BetterCallOl"},{"type":"handle","offset":1050,"length":12,"data":"devops_jobs"}],"date":"2020-03-18T10:43:16+00:00","link":"tg://resolve?domain=devops_jobs_feed&post=1824","tags":[{"name":"dotnet"},{"name":"unix"},{"name":"linux"},{"name":"java"},{"name":"sql"},{"name":"nosql"},{"name":"shell"},{"name":"python"},{"name":"perl"}],"cities":[{"code":"moscow"}],"allowsRemote":false}},{"node":{"__typename":"Job","id":"244318208-1001352129329","title":"Golang developer","text":"#вакансия Golang developer \n#вакансия #работа #кипр #cyprus #fulltime #relocate #релокация #golang #developer \n \nКомпания: TrafficStars \nГород: Лимасcол, Кипр \nФормат работы: офис \nЗанятость: полная \nЗарплатная вилка: от 2500 до 3500 евро на руки \nЯзыки: русский, английский на уровне свободного чтения технической документации, митинги на русском \n \nОбязанности: Разработка серверной части высоконагруженной рекламной сети на Golang. \n \nТребования: \n•Опыт веб-разработки не менее 3 лет; \n•Знание паттернов программирования MVC, ООП; \n•Отличное знание Go; \n•Отличное знание сетевых протоколов; \n•Опыт работы с реляционными базами данных, хорошее знание SQL; \n•Опыт работы с NoSQL; \n•Опыт командной работы (трекеры, знание Git, понимание Git Flow); \n•Умение разбираться в чужом коде. \n   \nМы приветствуем: \n•Знание языков C/C++, Python, Java, Erlang, NodeJs; \n•Опыт работы с высокими нагрузками; \n•Любовь к деталям и желание делать хорошо свою работу, а не так чтобы “просто работало“; \n•Умение отстаивать свою позицию, при этом прислушиваться к другим мнениям и сообща находить компромисс; \n•Желание развиваться и постигать новое; \n•Ориентацию на результат. \n   \nМы предлагаем: \n•Релокационный пакет: \n - покупаем билеты до Кипра тебе и твоей  семье; \n - встречаем в аэропорту; \n - оформляем рабочую визу; \n - оплачиваем жильё на первый месяц; \n•Медицинская страховка для тебя и твоей семьи; \n•50% компенсация затрат на детский сад и школу; \n•Оплачиваемая мобильная связь; \n•Бесплатные и вкусные завтраки, обеды и напитки; \n•Фрукты, снэки и другие вкусняшки в офисе; \n•Рабочий компьютер/ноутбук на выбор: Mac или PC; \n•Корпоративные скидки (кафе, магазины и др); \n•Бесплатные абонементы в спортзал и занятия йогой; \n•Уроки английского и греческого языка; \n•Корпоративные вечеринки, тимбилдинги; \n•Корпоративные митапы и конференции; \n•Интересные проекты; \n•Приятная рабочая атмосфера. \n  \nПрисоединяйся к нашей молодой и талантливой команде! \n \nКонтакты: +35795588440 \ntelegram: sofia_tomashevich \ne-mail: sofia@trafficstars.com\n Автор @sofia_tomashevich","markup":[{"type":"hashtag","offset":0,"length":9,"data":"вакансия"},{"type":"hashtag","offset":28,"length":9,"data":"вакансия"},{"type":"hashtag","offset":38,"length":7,"data":"работа"},{"type":"hashtag","offset":46,"length":5,"data":"кипр"},{"type":"hashtag","offset":52,"length":7,"data":"cyprus"},{"type":"hashtag","offset":60,"length":9,"data":"fulltime"},{"type":"hashtag","offset":70,"length":9,"data":"relocate"},{"type":"hashtag","offset":80,"length":10,"data":"релокация"},{"type":"hashtag","offset":91,"length":7,"data":"golang"},{"type":"hashtag","offset":99,"length":10,"data":"developer"},{"type":"link","offset":1958,"length":12,"data":"tel:+35795588440"},{"type":"link","offset":2009,"length":22,"data":"mailto:sofia@trafficstars.com"},{"type":"handle","offset":2039,"length":18,"data":"sofia_tomashevich"}],"date":"2020-03-05T10:01:01+00:00","link":"tg://resolve?domain=gogetajobfeed&post=233","tags":[{"name":"go"},{"name":"sql"},{"name":"nosql"},{"name":"git"},{"name":"python"},{"name":"java"},{"name":"erlang"},{"name":"nodejs"}],"cities":[{"code":"sofia"}],"allowsRemote":false}},{"node":{"__typename":"Job","id":"240123904-1001352129329","title":"Golang разработчик","text":"#вакансия #go #питер \n\n\n##Компания\n«Софтвайс» занимается разработкой ПО в области рекламы и мобильных игр.\n\n##Продукт:\n\nПрограмматик рекламная платформа с антифродовыми фильтрами. Все протоколы платформы работают с big data и построены по принципу децентрализации. Мы применяем технологии работы с высоконагруженными системами, чтобы создавать умную медийную рекламу, которую пользователь воспринимает как персональную рекомендацию.\n\n##Технологии:\n\nGolang, PostgreSQL, Redis, Kafka, KSQL, ClickHouse, Scylla, Docker, Prometheus, PHP, JS\n\nО наших объёмах: >130k RPS, несколько миллиардов событий в ClickHouse в день\n\n##Команда:\n\nтехнический отдел состоит из проектных команд: несколько команд разработки нового функционала и платформенных команд, занимающихся поддержкой и развитием ядра системы.\n\n## Задачи:\nСейчас нам требуется опытный Golang-разработчик. На Go у нас написан высоконагруженный бекенд, который мы постоянно дорабатываем, улучшаем и разбиваем на микросервисы. Нужно будет вносить изменения в такие сервисы и покрывать тестами новый функционал.\n\n##Опыт:\n\nразработка на Golang 2 года  и больше;\n\nИспользование Docker;\n\nGit;\n\n\n\nБудет плюсом, если ты:\n\nПроектировал архитектуру сервисов;\n\nУмеешь писать SQL запросы;\n\nСтримил сообщения в Kafka;\n\nРаботал с NoSQL;\n\nСталкивался с системой мониторинга Prometheus;\n\nПроверял код профилировщиком;\n\nЗнаешь *nix на уровне пользователя\n\nЕсли нет, то научим.\n\n\n## Условия:\n\nОформляем официально, все по ТК РФ;\nЗарплата в вилке 160 000 -200.000 на руки, по результатам интервью;\n\nЕздим вместе на конференции (оплачивается);\n\nНовый БЦ в 7 минутах пешком от м. Петроградская и м. Чкаловская;\n\nГибкий график работы;\n\nДМС, корпоративный английский, корпоративная растяжка;\n\n## Собеседование:\n\nпервое знакомство - удаленное интервью с рекрутером,\nа дальше техническое интервью в офисе компании;\n \nКонтакты @Kate_888\n Автор @Kate_888","markup":[{"type":"hashtag","offset":0,"length":9,"data":"вакансия"},{"type":"hashtag","offset":10,"length":3,"data":"go"},{"type":"hashtag","offset":14,"length":6,"data":"питер"},{"type":"hashtag","offset":25,"length":9,"data":"Компания"},{"type":"hashtag","offset":109,"length":8,"data":"Продукт"},{"type":"hashtag","offset":435,"length":11,"data":"Технологии"},{"type":"hashtag","offset":617,"length":8,"data":"Команда"},{"type":"hashtag","offset":1062,"length":5,"data":"Опыт"},{"type":"handle","offset":1852,"length":9,"data":"Kate_888"},{"type":"handle","offset":1869,"length":9,"data":"Kate_888"}],"date":"2020-02-26T09:48:38+00:00","link":"tg://resolve?domain=gogetajobfeed&post=229","tags":[{"name":"go"},{"name":"postgresql"},{"name":"redis"},{"name":"kafka"},{"name":"docker"},{"name":"php"},{"name":"git"},{"name":"sql"},{"name":"nosql"}],"cities":[],"allowsRemote":true}}]}}},"context":{}}