{"hash":"f5f6bf98bd95e769321482904cbbd488f77922fd","data":{"records":{"id":"russia/rostov","country":{"code":"russia","ruName":"Россия","enName":"Russia"},"city":{"code":"rostov","ruName":"Ростов","enName":"Rostov"},"belongsTo":{"totalCount":15,"pageInfo":{"totalPages":2,"currentPage":2},"edges":[{"node":{"__typename":"Job","id":"102857965568-1001089317451","title":"Qa engineer","text":"#вакансия #performancelab #перфоманслаб #QA #Ростов-на-Дону #офис #тестировщик  \n \n✅Город: Ростов-на-Дону \n✅Вилка: 40-60 на руки \nОфис, полный день \nТестировщик/QA Engineer \n \nВсем привет!  \nИщем в команду функционального тестировщика с банковским опытом (операционисты или опыт тестирования банковского ПО). \n \nТребования: \n• Опыт проведения функционального тестирования от 3х месяцев (реальный опыт, а не курсы) \n• Опыт работы с банковским ПО\n• Опыт написания тест-кейсов \n \nОбязанности: \n• Проведение функционального тестирования \n• Написание тестовой документации (тест-кейсов, чек-листов) \n• Заведение и мониторинг дефектов \n• Подготовка тестовых данных \n• Согласование тестовых требований и планов тестирования \n• Взаимодействие с представителями Заказчика \n• Составление отчетов \n \nУсловия: \n• Работа на проекте банка, входящего в ТОП-10 России \n• Белая ЗП \n• Трудоустройство по ТК РФ \n \nПо всем вопросам: @ElenaElis","markup":[{"type":"hashtag","offset":0,"length":9,"data":"вакансия"},{"type":"hashtag","offset":10,"length":15,"data":"performancelab"},{"type":"hashtag","offset":26,"length":13,"data":"перфоманслаб"},{"type":"hashtag","offset":40,"length":3,"data":"QA"},{"type":"hashtag","offset":44,"length":7,"data":"Ростов"},{"type":"hashtag","offset":60,"length":5,"data":"офис"},{"type":"hashtag","offset":66,"length":12,"data":"тестировщик"},{"type":"bold","offset":312,"length":11,"data":""},{"type":"bold","offset":327,"length":86,"data":""},{"type":"bold","offset":417,"length":27,"data":""},{"type":"bold","offset":477,"length":12,"data":""},{"type":"bold","offset":789,"length":8,"data":""},{"type":"handle","offset":913,"length":10,"data":"ElenaElis"}],"date":"2020-06-15T12:59:57+00:00","link":"tg://resolve?domain=qa_jobs&post=0","tags":[{"name":"qa"}],"cities":[{"code":"rostov"}],"allowsRemote":false}},{"node":{"__typename":"Job","id":"16918773760-1001110946746","title":"Javascript разработчик","text":"#вакансия #midle #удаленно #parttime \nКомпания: AvtoTO.ru\nГород офиса: Ростов-на-Дону\nФормат работы: удаленно\nЗанятость: частичная, почасовка\nЗП: 40-80к руб. на руки\n\nКто: ищем уверенного мидла с перспективой фултайма для несложной работы, которую нужно выполнять в срок. Исполнительность и инициативность обязательное условие. Если ты уже не мидл, но не боишься простых задач - нам будет что обсудить.\n\nЧто: проект простой, gulp, scss, jquery, адаптив, docker, git Много планов на рефакторинг и новые подпроекты на реакте / вью.\n\nКонтакт: @eekos","markup":[{"type":"hashtag","offset":0,"length":9,"data":"вакансия"},{"type":"hashtag","offset":10,"length":6,"data":"midle"},{"type":"hashtag","offset":17,"length":9,"data":"удаленно"},{"type":"hashtag","offset":27,"length":9,"data":"parttime"},{"type":"link","offset":48,"length":9,"data":"http://AvtoTO.ru"},{"type":"handle","offset":540,"length":6,"data":"eekos"}],"date":"2020-06-15T09:15:01+00:00","link":"tg://resolve?domain=javascript_jobs_feed&post=0","tags":[{"name":"javascript"},{"name":"gulp"},{"name":"jquery"},{"name":"docker"},{"name":"git"}],"cities":[{"code":"rostov"}],"allowsRemote":true}},{"node":{"__typename":"Job","id":"16908288000-1001110946746","title":"Javascript developer","text":"#вакансия #angular #javascript #html #css #frontend #офис\n\n🍴Вакансия: Middle Frontend Developer в web-компанию под задачи разработки для социальных сетей, авиакомпаний, ERP-систем, а также ресторанной сети Нью-Йорка.\nГород: Ростов-на-Дону, Газетный переулок, 47Б\nФормат работы: Офис\nЗанятость: полная\nГражданство: Не имеет значение\nЗарплата: 60.000-100.000 рублей по результатам собеседования\n\n🏹Fronted Developer (Angular)\nТочное попадание, если:\n• Адаптивно верстаешь в angular (7 или 8 версия)\n• Имеешь в стеке ещё JavaScript, TypeScript, HTML, CSS\n• Полный фарш, если ты в курсе про автоматическую генерация клиентского кода по документации Swagger\n\nКомпания: GrowApp Solutions\n\n☎️Контакты:\ntelegram: @np_shirinkin\nEmail: npshirinkin@gmail.com\nБуду рад ответить на уточняющие вопросы.","markup":[{"type":"hashtag","offset":0,"length":9,"data":"вакансия"},{"type":"hashtag","offset":10,"length":8,"data":"angular"},{"type":"hashtag","offset":19,"length":11,"data":"javascript"},{"type":"hashtag","offset":31,"length":5,"data":"html"},{"type":"hashtag","offset":37,"length":4,"data":"css"},{"type":"hashtag","offset":42,"length":9,"data":"frontend"},{"type":"hashtag","offset":52,"length":5,"data":"офис"},{"type":"handle","offset":706,"length":13,"data":"np_shirinkin"},{"type":"link","offset":727,"length":21,"data":"mailto:npshirinkin@gmail.com"}],"date":"2020-06-14T20:27:27+00:00","link":"tg://resolve?domain=javascript_jobs_feed&post=16125","tags":[{"name":"javascript"},{"name":"angularjs"},{"name":"html"},{"name":"css"},{"name":"web"},{"name":"typescript"},{"name":"swagger"}],"cities":[{"code":"rostov"}],"allowsRemote":false}},{"node":{"__typename":"Job","id":"16874733568-1001110946746","title":"Javascript developer","text":"#вакансия #angular #javascript #html #css #frontend #офис\n\n🍴Вакансия: Middle Frontend Developer в web-компанию под задачи разработки для социальных сетей, авиакомпаний, ERP-систем, а также ресторанной сети Нью-Йорка.\nГород: Ростов-на-Дону, Газетный переулок, 47Б\nФормат работы: Офис\nЗанятость: полная\nГражданство: Не имеет значение\nЗарплата: 60.000-100.000 рублей по результатам собеседования\n\n🏹Fronted Developer (Angular)\nТочное попадание, если:\n• Адаптивно верстаешь в angular (7 или 8 версия)\n• Имеешь в стеке ещё JavaScript, TypeScript, HTML, CSS\n• Полный фарш, если ты в курсе про автоматическую генерация клиентского кода по документации Swagger\n\nКомпания: GrowApp Solutions\n\n☎️Контакты:\ntelegram: @np_shirinkin\nEmail: npshirinkin@gmail.com\nБуду рад ответить на уточняющие вопросы.\n\n—\n\n👉 Обсуждение вакансии в чате @javascript_jobs","markup":[{"type":"hashtag","offset":0,"length":9,"data":"вакансия"},{"type":"hashtag","offset":10,"length":8,"data":"angular"},{"type":"hashtag","offset":19,"length":11,"data":"javascript"},{"type":"hashtag","offset":31,"length":5,"data":"html"},{"type":"hashtag","offset":37,"length":4,"data":"css"},{"type":"hashtag","offset":42,"length":9,"data":"frontend"},{"type":"hashtag","offset":52,"length":5,"data":"офис"},{"type":"handle","offset":706,"length":13,"data":"np_shirinkin"},{"type":"link","offset":727,"length":21,"data":"mailto:npshirinkin@gmail.com"},{"type":"handle","offset":824,"length":16,"data":"javascript_jobs"}],"date":"2020-06-13T08:42:17+00:00","link":"tg://resolve?domain=javascript_jobs_feed&post=16093","tags":[{"name":"javascript"},{"name":"angularjs"},{"name":"html"},{"name":"css"},{"name":"web"},{"name":"typescript"},{"name":"swagger"}],"cities":[{"code":"rostov"}],"allowsRemote":false}},{"node":{"__typename":"Job","id":"16871587840-1001110946746","title":"Javascript developer","text":"#вакансия #angular #javascript #html #css #frontend #офис\n\n🍴Вакансия: Middle Frontend Developer в web-компанию под задачи разработки для социальных сетей, авиакомпаний, ERP-систем, а также ресторанной сети Нью-Йорка.\nГород: Ростов-на-Дону, Газетный переулок, 47Б\nФормат работы: Офис\nЗанятость: полная\nГражданство: Не имеет значение\nЗарплата: 60.000-100.000 рублей по результатам собеседования\n\n🏹Fronted Developer (Angular)\nТочное попадание, если:\n• Адаптивно верстаешь в angular (7 или 8 версия)\n• Имеешь в стеке ещё JavaScript, TypeScript, HTML, CSS\n• Полный фарш, если ты в курсе про автоматическую генерация клиентского кода по документации Swagger\n\nКомпания: GrowApp Solutions\n\n☎️Контакты:\ntelegram: @np_shirinkin\nEmail: npshirinkin@gmail.com\nБуду рад ответить на уточняющие вопросы.\n\n—\n\n👉 Обсуждение вакансии в чате @javascript_jobs","markup":[{"type":"hashtag","offset":0,"length":9,"data":"вакансия"},{"type":"hashtag","offset":10,"length":8,"data":"angular"},{"type":"hashtag","offset":19,"length":11,"data":"javascript"},{"type":"hashtag","offset":31,"length":5,"data":"html"},{"type":"hashtag","offset":37,"length":4,"data":"css"},{"type":"hashtag","offset":42,"length":9,"data":"frontend"},{"type":"hashtag","offset":52,"length":5,"data":"офис"},{"type":"handle","offset":706,"length":13,"data":"np_shirinkin"},{"type":"link","offset":727,"length":21,"data":"mailto:npshirinkin@gmail.com"},{"type":"handle","offset":824,"length":16,"data":"javascript_jobs"}],"date":"2020-06-12T16:09:02+00:00","link":"tg://resolve?domain=javascript_jobs_feed&post=16090","tags":[{"name":"javascript"},{"name":"angularjs"},{"name":"html"},{"name":"css"},{"name":"web"},{"name":"typescript"},{"name":"swagger"}],"cities":[{"code":"rostov"}],"allowsRemote":false}}]}}},"context":{}}