{"hash":"f5f6bf98bd95e769321482904cbbd488f77922fd","data":{"records":{"id":"mobile","name":"mobile","belongsTo":{"totalCount":307,"pageInfo":{"totalPages":31,"currentPage":31},"edges":[{"node":{"__typename":"Job","id":"71180484608-1001054966032","title":"Ios developer","text":"#вакансия #IOS #Swift #Objective-C #middle #офис #Москва\n👋Приглашаем Middle IOS Developer в новый проект от Сбербанка.\n\n💸Уровень ЗП: 220К-310К net (в зависимости от типа оформления).\n\n📝Оформление: ИП или штат компании партнера.\n\n📍Локация: офис в г.Москва, Кутузовский проспект.\n\n🧑‍💻О проекте: Разработка чата и видеозвонка с целью реализовать единое рабочее место оператора для дополнительного канала обслуживания. С помощью чатов клиент сможет переписываться со своим дистанционным клиентским менеджером по премиальному каналу в МП СБОЛ, с возможностью передачи файлов. Видеозвонок позволит установить визуальный контакт клиентом со своим менеджером с возможностью показа презентаций. На базе удаленных каналов обслуживания планируется реализовать возможность удаленного предоставления клиенту всего спектра продуктов банка.\n\n🎯Мы ожидаем от вас:\n· знание Objective-C;\n· знание Swift;\n· опыт коммерческой разработки iOS-приложений не менее года;\n· опыт параллельного и многопоточного программирования;\n· опыт разработки сетевых приложений как на уровне сокетов, так и на уровне HTTP;\n· опыт работы с Core Data, Core Graphics, XML-парсером в iOS SDK;\n· умение разбираться и работать с чужим кодом.\n\nЖду Ваши резюме и буду рада ответить на все вопросы☺️\nКонтакты для связи: telegram @anisimovaane4ka","markup":[{"type":"hashtag","offset":0,"length":9,"data":"вакансия"},{"type":"hashtag","offset":10,"length":4,"data":"IOS"},{"type":"hashtag","offset":15,"length":6,"data":"Swift"},{"type":"hashtag","offset":22,"length":10,"data":"Objective"},{"type":"hashtag","offset":35,"length":7,"data":"middle"},{"type":"hashtag","offset":43,"length":5,"data":"офис"},{"type":"hashtag","offset":49,"length":7,"data":"Москва"},{"type":"handle","offset":1288,"length":16,"data":"anisimovaane4ka"}],"date":"2020-06-12T14:57:02+00:00","link":"tg://resolve?domain=mobile_jobs&post=0","tags":[{"name":"mobile"},{"name":"ios"},{"name":"swift"},{"name":"objective-c"},{"name":"dotnet"},{"name":"xml"},{"name":"core-data"}],"cities":[{"code":"moscow"}],"allowsRemote":true}},{"node":{"__typename":"Job","id":"71178387456-1001054966032","title":"Android разработчик","text":"#remote #вакансия #android #kotlin #java #fulltime #новосибирск #екатеринбург #нижний #новгород #нижнийновгород #пермь #уфа #ульяновск\nПозиция: Android Разработчик (удаленно)\nФормат работы: #удаленка\nЗанятость: полная\nЗарплатная вилка: от 80 000 руб. до 130 000 руб.\n\nОписание вакансии:\nМы ищем Android разработчика с опытом создания Android приложений от прототипа заказчика и до непосредственной публикации в Google Play.\n\nДанная позиция предполагает полную занятость (минимум 30 часовая рабочая неделя).\n\nРассматриваем Senior и Middle кандидатов.\n\nТребования:\n* опыт разработки Android приложений (ожидается, что кандидат продемонстрирует хотя бы 1 приложение в App Store, разработанного с его/ее участием)\n* знание Kotlin или Java\n* знание стандартных фреймворков и SDK\n* самое важное – умение и желание получать новые знания необходимые для работы\n\nБудет плюсом:\n* опыт работы с видео/фото\n* опыт работы с OpenGL\n* опыт работы с машинным обучением\n* опыт работы с C++\n* опыт работы с RESTful API\n* опыт контрибуции в Open Source (приложите ссылку на github, если есть на что посмотреть)\n\nНазвание компании: 4spaces\n\nКонтакты:\nВакансия – https://hh.ru/vacancy/37448182\nEmail – abalchunas@4spaces.company\nSkype – alexey.balchunas\nTelegram – https://t.me/AlexeyBalchunas","markup":[{"type":"hashtag","offset":0,"length":7,"data":"remote"},{"type":"hashtag","offset":8,"length":9,"data":"вакансия"},{"type":"hashtag","offset":18,"length":8,"data":"android"},{"type":"hashtag","offset":27,"length":7,"data":"kotlin"},{"type":"hashtag","offset":35,"length":5,"data":"java"},{"type":"hashtag","offset":41,"length":9,"data":"fulltime"},{"type":"hashtag","offset":51,"length":12,"data":"новосибирск"},{"type":"hashtag","offset":64,"length":13,"data":"екатеринбург"},{"type":"hashtag","offset":78,"length":7,"data":"нижний"},{"type":"hashtag","offset":86,"length":9,"data":"новгород"},{"type":"hashtag","offset":96,"length":15,"data":"нижнийновгород"},{"type":"hashtag","offset":112,"length":6,"data":"пермь"},{"type":"hashtag","offset":119,"length":4,"data":"уфа"},{"type":"hashtag","offset":124,"length":10,"data":"ульяновск"},{"type":"hashtag","offset":190,"length":9,"data":"удаленка"},{"type":"link","offset":1142,"length":30,"data":"https://hh.ru/vacancy/37448182"},{"type":"link","offset":1181,"length":26,"data":"http://abalchunas@4spaces.company"},{"type":"link","offset":1244,"length":28,"data":"https://t.me/AlexeyBalchunas"}],"date":"2020-06-12T13:32:37+00:00","link":"tg://resolve?domain=mobile_jobs&post=0","tags":[{"name":"mobile"},{"name":"android"},{"name":"kotlin"},{"name":"java"},{"name":"playframework"},{"name":"opengl"},{"name":"github"}],"cities":[{"code":"novosibirsk"},{"code":"perm"},{"code":"ufa"},{"code":"ulyanovsk"},{"code":"nizhny-novgorod"}],"allowsRemote":true}},{"node":{"__typename":"Job","id":"71172096000-1001054966032","title":"Ios разработчик","text":"#remote #вакансия #ios #swift #fulltime #новосибирск #екатеринбург #нижний #новгород #нижнийновгород #пермь #уфа #ульяновск\nПозиция: iOS Разработчик (удаленно)\nФормат работы: #удаленка \nЗанятость: полная\nЗарплатная вилка: от 70 000 руб. до 130 000 руб.\n\nОписание вакансии:\nТребуется iOS разработчик с опытом создания iOS приложений от прототипа заказчика и до непосредственной публикации в App Store.\nДанная позиция предполагает полную занятость (минимум 30 часовая рабочая неделя).\nРассматриваем Senior и Middle кандидатов.\n\nТребования:\n* опыт разработки iOS приложений (ожидается, что кандидат продемонстрирует хотя бы 1 приложение в App Store, разработанного с его/ее участием)\n* знание Swift\n* знание стандартных фреймворков и SDK\n* самое важное – умение и желание получать новые знания необходимые для работы\n\nБудет плюсом:\n* опыт работы с видео/фото\n* опыт работы с Metal\n* опыт работы с ARKit\n* опыт работы с Core ML\n* опыт работы с Objective-C\n* опыт работы с RESTful API\n* опыт контрибуции в Open Source (приложите ссылку на github, если есть на что посмотреть)\n\nНазвание компании: 4spaces\n\nКонтакты:\nВакансия – https://hh.ru/vacancy/37463738\nEmail – abalchunas@4spaces.company\nSkype – alexey.balchunas\nTelegram – https://t.me/AlexeyBalchunas","markup":[{"type":"hashtag","offset":0,"length":7,"data":"remote"},{"type":"hashtag","offset":8,"length":9,"data":"вакансия"},{"type":"hashtag","offset":18,"length":4,"data":"ios"},{"type":"hashtag","offset":23,"length":6,"data":"swift"},{"type":"hashtag","offset":30,"length":9,"data":"fulltime"},{"type":"hashtag","offset":40,"length":12,"data":"новосибирск"},{"type":"hashtag","offset":53,"length":13,"data":"екатеринбург"},{"type":"hashtag","offset":67,"length":7,"data":"нижний"},{"type":"hashtag","offset":75,"length":9,"data":"новгород"},{"type":"hashtag","offset":85,"length":15,"data":"нижнийновгород"},{"type":"hashtag","offset":101,"length":6,"data":"пермь"},{"type":"hashtag","offset":108,"length":4,"data":"уфа"},{"type":"hashtag","offset":113,"length":10,"data":"ульяновск"},{"type":"hashtag","offset":175,"length":9,"data":"удаленка"},{"type":"link","offset":1121,"length":30,"data":"https://hh.ru/vacancy/37463738"},{"type":"link","offset":1160,"length":27,"data":"http://abalchunas@4spaces.company/"},{"type":"link","offset":1223,"length":28,"data":"https://t.me/AlexeyBalchunas"}],"date":"2020-06-12T12:27:13+00:00","link":"tg://resolve?domain=mobile_jobs&post=0","tags":[{"name":"mobile"},{"name":"ios"},{"name":"swift"},{"name":"objective-c"},{"name":"github"}],"cities":[{"code":"novosibirsk"},{"code":"perm"},{"code":"ufa"},{"code":"ulyanovsk"},{"code":"nizhny-novgorod"}],"allowsRemote":true}},{"node":{"__typename":"Job","id":"102713262080-1001089317451","title":"Qa engineer","text":"#vacancy #fulltime #relocate #вакансия  #работаQA \n\nQA Engineer - relocation to Germany -  company Excelsior \n\nThe role: testing web and mobile applications in the banking area.\n\nWhat you should have:\n\n📍BS degree (it's a must-have for getting a work permit).\n📍3+ years of experience in testing web and mobile applications.\n📍Experience with UI Automation.\n📍Selenium, Appium and Kotlin/Java skills.\n📍Knowledge of SDLC.\n📍Upper-Intermediate English and willing to learn German.\n\nCompany offers:\n\n✅Good salary - 2600 EUR/month - and bonus system .\n✅Relocation Support.\n✅Temporary apartment for the first 3 months.\n✅Tickets compensation.\n✅Official employment and medical insurance.\n✅Drinks and snacks at the office.\n\nPlease send any expressions of interest/CV's to \ne: nadiia@skillers.tech\ns: tixayaya\nt: @nadia_tykha","markup":[{"type":"hashtag","offset":0,"length":8,"data":"vacancy"},{"type":"hashtag","offset":9,"length":9,"data":"fulltime"},{"type":"hashtag","offset":19,"length":9,"data":"relocate"},{"type":"hashtag","offset":29,"length":9,"data":"вакансия"},{"type":"hashtag","offset":40,"length":9,"data":"работаQA"},{"type":"bold","offset":66,"length":21,"data":""},{"type":"bold","offset":99,"length":9,"data":""},{"type":"italic","offset":111,"length":10,"data":""},{"type":"italic","offset":179,"length":23,"data":""},{"type":"italic","offset":296,"length":27,"data":""},{"type":"italic","offset":481,"length":17,"data":""},{"type":"link","offset":769,"length":20,"data":"mailto:nadiia@skillers.tech"},{"type":"handle","offset":805,"length":12,"data":"nadia_tykha"}],"date":"2020-06-12T12:08:21+00:00","link":"tg://resolve?domain=qa_jobs&post=0","tags":[{"name":"qa"},{"name":"web"},{"name":"mobile"},{"name":"selenium"},{"name":"kotlin"},{"name":"java"}],"cities":[],"allowsRemote":false}},{"node":{"__typename":"Job","id":"71168950272-1001054966032","title":"Android разработчик","text":"#вакансия #android #java #kotlin #middle #senior #удаленка #remote #fulltime\n\nAndroid-разработчик удаленно от 200 тыс. руб.\n\nГород: Москва\nФормат работы: удаленно\nЗанятость: полная\nЗарплатная вилка: от 200 000 руб. до 250 000 руб. после налогообложения\nКомпания: CORE https://core.company\n\nМы команда разработчиков мобильных приложений и сейчас мы ищем Android-разработчика для одного из наших финтех-проектов.\n\nОсновные требования:\n— Опыт работы от 2-х лет;\n— Знание Java и Kotlin;\n— Опыт работы с Rx;\n— Знание шаблонов проектирования и умение их применять;\n— Понимание принципов SOLID;\n— Знание основных алгоритмов и структур данных;\n— Умение писать поддерживаемый и тестируемый код.\n\nУсловия:\n— Полный день, гибкий график;\n— Оформление по договору ГПХ.\n\nПрисылайте ваше резюме на @tv_corecompany","markup":[{"type":"hashtag","offset":0,"length":9,"data":"вакансия"},{"type":"hashtag","offset":10,"length":8,"data":"android"},{"type":"hashtag","offset":19,"length":5,"data":"java"},{"type":"hashtag","offset":25,"length":7,"data":"kotlin"},{"type":"hashtag","offset":33,"length":7,"data":"middle"},{"type":"hashtag","offset":41,"length":7,"data":"senior"},{"type":"hashtag","offset":49,"length":9,"data":"удаленка"},{"type":"hashtag","offset":59,"length":7,"data":"remote"},{"type":"hashtag","offset":67,"length":9,"data":"fulltime"},{"type":"link","offset":268,"length":20,"data":"https://core.company"},{"type":"handle","offset":783,"length":15,"data":"tv_corecompany"}],"date":"2020-06-12T11:36:40+00:00","link":"tg://resolve?domain=mobile_jobs&post=0","tags":[{"name":"mobile"},{"name":"android"},{"name":"java"},{"name":"kotlin"}],"cities":[{"code":"moscow"}],"allowsRemote":true}},{"node":{"__typename":"Job","id":"71165804544-1001054966032","title":"Android разработчик","text":"#вакансия #android #relocate\nГород: Франкфурт-на-Майне, Германия\nФормат работы: офис \nЗанятость: полная, официально \nЗарплатная вилка: около 2600 евро нетт (50000 евро в год гросс)\nкалькулятор: https://www.brutto-netto-rechner.info/gehalt/gross_net_calculator_germany.php\n\nОписание вакансии: \nОсновные сферы деятельности компании: Finance & Telecommunication. Компания работает с клиентами на месте в их офисах и интегрируется с командами. Кроме этого у них партнерский договор со вторым по величине частным банком Германии. Вместе с некоторыми отделами банка Excelsior реализует разного рода проекты. Многие из которых ведет полностью самостоятельно, начиная с идеи, дизайна, разработки, релиза и менеджмента и заканчивая тех обслуживанием.\nСейчас они ищут человека на новый проект - мобильное приложение для банка.\nНа нем будет работать 8 человек, 4 из них разработчика.\nДетальней: https://skillers.tech/jobs/android-engineer\nТребования:\nСтепень бакалавра/магистра (Computer Science)\n3+ года опыта Java\n1+ год с Kotlin\nХороший разговорный английский (В2)\nНазвание компании: Excelsior https://www.excelsior-solutions.de/en/\n\nКонтакты: @whoismcflurykkkkk","markup":[{"type":"hashtag","offset":0,"length":9,"data":"вакансия"},{"type":"hashtag","offset":10,"length":8,"data":"android"},{"type":"hashtag","offset":19,"length":9,"data":"relocate"},{"type":"link","offset":194,"length":77,"data":"https://www.brutto-netto-rechner.info/gehalt/gross_net_calculator_germany.php"},{"type":"link","offset":884,"length":43,"data":"https://skillers.tech/jobs/android-engineer"},{"type":"link","offset":1086,"length":38,"data":"https://www.excelsior-solutions.de/en/"},{"type":"handle","offset":1136,"length":18,"data":"whoismcflurykkkkk"}],"date":"2020-06-12T10:56:39+00:00","link":"tg://resolve?domain=mobile_jobs&post=0","tags":[{"name":"mobile"},{"name":"android"},{"name":"dotnet"},{"name":"php"},{"name":"java"},{"name":"kotlin"}],"cities":[],"allowsRemote":false}},{"node":{"__typename":"Job","id":"16844324864-1001110946746","title":"Js разработчик","text":"#вакансия #удаленка #работа \n\nГород и адрес офиса: любой\nФормат работы: удаленка\nЗанятость: полная\nЗарплатная вилка:  от 120 до 160 net\n\nHigh-Middle/Senior Front-End Developer\nМы стартап, у вас будет возможность стать нашим главным Front-End разработчиком и определять архитектуру и стек веб-приложений над которыми мы работаем.\n • интересные задачи \n • начальство адекват \n • стек крутой ) \n • сильная команда с опытом успешного развития подобных проектов \n • деньги есть \n\nТехнические требования:\n • Опыт прототипирования архитектуры современного высоко оптимизированного веб-приложения с нуля \n • HTML5, CSS preprocessors, JavaScript (ES6) \n • Опыт сборки CSS Grid, UI Components Kit библиотек, Style Guide ( Storybook.js / … ) \n • Понимание методологии Atomic Design, ее плюсов и минусов. Cпособность писать модульный и хорошо проверенный код \n • Работа с Webpack, управление NPM зависимостями, владение GIT, основы CLI \n • Responsive / mobile-first development \n • Анимация Javascript / CSS, ее оптимизация \n • Работа с SVG и оптимизация \n • Взаимодействие с внешними API и интеграция сторонних сервисов, оптимизация их работы \n • Использование современных стандартов семантики и применение их для технической SEO оптимизации \n • Понимание как добиться высоких результатов в Page Speed Insights \n • Разработка и покрытие кода тестами \n • Работа с Google Analytics, event tracking и альтернативы \n\nБонусом будет наличие опыта с:\n • Wordpress Stack: Trellis / Bedrock / Sage или альтернативы \n • основы PHP \n • Конфигурирование и запуск A/B тестов Optimizely / VWO / альтернативы \n • Опыт с JAMstack проектами \n • Опыт работы с Segment \n • Ссылка на Github проект которым есть желание гордиться \n • Ссылка на вклад в open-source проекты / участие в сообществах / конференциях \n\nОбщие требования: \nАнглийский\n Адекватность \n Возможность работы в пределах 15:00-23:00 по Москве (может плавать - типа 13:00-21:00, но так или иначе это вторая половина дня)  \nГотовность открыть ИП \nБонусы: \nДостойная заработная плата\n Атмосфера работы в стартапе \nОплачиваемый отпуск \nОплата книг и софта для работы\n Оплата профессиональных конференций\nРаз в год мы проводим встречи в разных городах И всякие другие плюшки\nДополнительные инструкции: Пожалуйста, присылайте ссылки на ваше CV, ссылки на LinkedIn / Habr страничку, ссылку на гитхаб и по возможности портфолио на sergey@waltbury.com","markup":[{"type":"hashtag","offset":0,"length":9,"data":"вакансия"},{"type":"hashtag","offset":10,"length":9,"data":"удаленка"},{"type":"hashtag","offset":20,"length":7,"data":"работа"},{"type":"link","offset":2359,"length":19,"data":"mailto:sergey@waltbury.com"}],"date":"2020-06-11T19:56:30+00:00","link":"tg://resolve?domain=javascript_jobs_feed&post=0","tags":[{"name":"javascript"},{"name":"dotnet"},{"name":"html"},{"name":"css"},{"name":"webpack"},{"name":"npm"},{"name":"git"},{"name":"mobile"},{"name":"svg"},{"name":"seo"},{"name":"wordpress"},{"name":"php"},{"name":"github"},{"name":"google-analytics"}],"cities":[],"allowsRemote":true}}]}}},"context":{}}