{"hash":"f5f6bf98bd95e769321482904cbbd488f77922fd","data":{"records":{"id":"jenkins","name":"jenkins","belongsTo":{"totalCount":70,"pageInfo":{"totalPages":7,"currentPage":7},"edges":[{"node":{"__typename":"Job","id":"102940803072-1001089317451","title":"Qa инженер","text":"#QAинженервакансия #QAjava #автотестыjava #QAМосква #вакансияМосква #middle \nДобрый день! В настоящий момент нахожусь в поисках QА-инженера для международной аутсорсинговой компании на проект банковской сферы.\nМестоположение: Москва, м. Кутузовская, либо Нагатинская\nОплата труда: 130-160.000 рублей\nФункциональные задачи;\n•  Анализ требований\n•  Разработка автотестов на Java + Selenium\n•  Актуализация автотестов\n•  Анализ ошибок\n•  Формирование отчетов\nТребования:\n•  Опыт разработки на Java + Selenium от 2-х лет\n•  Знание инструмента Maven\n•  Знание Junit и Allure\n•  Знание XML\n•  Знание SQL (MS SQL, Oracle)\n•  Опыт работы с Git, JenkinS\n•  Опыт работы с Bug Tracking Systems (Jira, Redmine)\n•  Опыт работы с линейкой HP ALM\n•  Знание BDD (Cucumber)\nУсловия:\n•  Конкурентная заработная плата\n•  Оформление в соответствии с ТК РФ, соц. пакет\n•  Работа в команде профессионалов\n•  Обучение, наставничество в процессе работы\nБуду рада ответить на Ваши вопросы: @LyKatrin, ekaterina706712@mail.ru\n\n•","markup":[{"type":"hashtag","offset":0,"length":18,"data":"QAинженервакансия"},{"type":"hashtag","offset":19,"length":7,"data":"QAjava"},{"type":"hashtag","offset":27,"length":14,"data":"автотестыjava"},{"type":"hashtag","offset":42,"length":9,"data":"QAМосква"},{"type":"hashtag","offset":52,"length":15,"data":"вакансияМосква"},{"type":"hashtag","offset":68,"length":7,"data":"middle"},{"type":"handle","offset":965,"length":9,"data":"LyKatrin"},{"type":"link","offset":976,"length":23,"data":"mailto:ekaterina706712@mail.ru"}],"date":"2020-06-16T09:14:53+00:00","link":"tg://resolve?domain=qa_jobs&post=0","tags":[{"name":"qa"},{"name":"java"},{"name":"selenium"},{"name":"maven"},{"name":"junit"},{"name":"xml"},{"name":"sql"},{"name":"oracle"},{"name":"git"},{"name":"jenkins"},{"name":"cucumber"}],"cities":[{"code":"moscow"}],"allowsRemote":false}},{"node":{"__typename":"Job","id":"2214592512-1001134745498","title":"Devops инженер","text":"#вакансия #Remote #работаDevOps  #удаленка \n\nКомпания: IDG\nФормат работы: удаленка\nЗанятость: полная\nЗарплатная вилка: $2500 до $4000\n\n👋Всем привет. Меня зовут Гульназ. \nМы занимаемся разработкой собственных образовательных проектов, а также проектов для клиентов - технологических, финансовых и аудиторских компаний.\nСейчас мы ищем DevOps инженера в дополнение к нашей текущей DevOps-команде, который будет вместе с нами делать cross-cloud big-data/ai платформу для одного из наших крупных постоянных клиентов.\nУ нас всё в k8s. Помимо этого есть spark, несколько баз данных и еще куча всего интересного. Разворачиваем с помощью Terraform/Ansible/Helm\n\n📍Требования:\n\n- Опыт работы с AWS/Azure/GCE - от 2+ лет;\n- Опыт работы с Kubernetes - от 2+ лет\n- Опыт работы со Spark - от 1 года\n- Имеет опыт настройки и администрирования БД (Mongo, Redis, Rabbit, SQL Server, Postgres, MySQL, Elastic Search)\n- Опыт разработки на Python или других подобных языках;\n- Опыт организации процесса CI/CD (jenkins, teamcity).\n- Английский на уровне Intermediate и выше.\n\nБудет плюсом: \n\n- Опыт работы в крупных международных компаниях;\n- Опыт работы с технологиями Big Data;\n\n📌Что мы предлагаем:\n\n- Интересные задачи и возможность реализовать свой потенциал в международных проектах компании и внутренних стартапах;\n- Гибкий график (начало и конец рабочего дня согласовываются с менеджером и командой проекта)\n- Полностью удаленная работа\n- Дополнительные выплаты за профессиональные успехи\n\nКонтакт: @IDGAccount\n\n—\n\n👉 Обсуждение вакансии в чате @devops_jobs","markup":[{"type":"hashtag","offset":0,"length":9,"data":"вакансия"},{"type":"hashtag","offset":10,"length":7,"data":"Remote"},{"type":"hashtag","offset":18,"length":13,"data":"работаDevOps"},{"type":"hashtag","offset":33,"length":9,"data":"удаленка"},{"type":"handle","offset":1487,"length":11,"data":"IDGAccount"},{"type":"handle","offset":1533,"length":12,"data":"devops_jobs"}],"date":"2020-06-16T08:10:39+00:00","link":"tg://resolve?domain=devops_jobs_feed&post=2112","tags":[{"name":"cloud"},{"name":"ansible"},{"name":"amazon-web-services"},{"name":"azure"},{"name":"kubernetes"},{"name":"redis"},{"name":"rabbitmq"},{"name":"sql"},{"name":"postgresql"},{"name":"mysql"},{"name":"elasticsearch"},{"name":"python"},{"name":"jenkins"},{"name":"sql-server"}],"cities":[],"allowsRemote":true}},{"node":{"__typename":"Job","id":"102892568576-1001089317451","title":"Qa инженер","text":"#вакансия #fulltime #офис #Москва #DRTest #Kubernetes #senior #DevOps #TS\n\nКомпания: Техносерв https://technoserv.com/ \nВакансия: Senior QA DevOps\nДля работы на проектах в крупном банке (T&M)\nЗП: 100 000 - 220 000\nГрафик работы: фултайм, 10:00-19:00 (по договоренности)\nМесто работы: офис, г. Москва\n\nЗадачи:\n· Построение/тестирование CI/CD pipelines;\n· Администрирование/тестирование скриптов развертывания Kubernetes кластеров;\n· Консультирование заинтересованных лиц по сопровождению и эксплуатации ПО в части DR тестирования;\n· Изучение и последующее тестирование новых инструментов.\n\nТребования:\n∙ Опыт построения процесса конечной интеграции и мониторинга, управления сетями (настройка машин, виртуализация, безопасность);\n∙ Опыт работы с Kubernetes;\n∙ Опыт администрирования Linux серверов (Centos,RHEL)\n∙ Хорошее знание инструментов DevOps (Docker, Jenkins/TeamCity, Ansible/Salt/Puppet/Chef), понимание принципов DevSecOps;\n∙ Опыт настройки и администрирования веб-серверов (Apache, Nginx, JBoss/WildFly, Glassfish);\n∙ Опыт настройки и администрирования систем мониторинга (Zabbix, Prometheus, Grafana, Nagios);\n∙ Хорошее знание Git;\n∙ Знание shell/bash;\n∙ Опыт работы с ELK Stack (или готовность самостоятельно быстро изучить его на практике);\n∙ Умение доходчиво донести информацию как представителям бизнеса, так и IT-специалистам.\n\nПриветствуется:\n∙ Опыт построения pipelines в TeamCity;\n∙ Знание одного из языков программирования (Python, JS, golang);\n∙ Опыт работы со стеком Atlassian (Jira, Confluence);\n∙ Опыт работы с Redis, RabbitMQ, Elasticsearch, Kafka.\n\nРезюме сюда: QAResume@technoserv.com","markup":[{"type":"hashtag","offset":0,"length":9,"data":"вакансия"},{"type":"hashtag","offset":10,"length":9,"data":"fulltime"},{"type":"hashtag","offset":20,"length":5,"data":"офис"},{"type":"hashtag","offset":26,"length":7,"data":"Москва"},{"type":"hashtag","offset":34,"length":7,"data":"DRTest"},{"type":"hashtag","offset":42,"length":11,"data":"Kubernetes"},{"type":"hashtag","offset":54,"length":7,"data":"senior"},{"type":"hashtag","offset":62,"length":7,"data":"DevOps"},{"type":"hashtag","offset":70,"length":3,"data":"TS"},{"type":"link","offset":95,"length":23,"data":"https://technoserv.com/"},{"type":"link","offset":1588,"length":23,"data":"mailto:QAResume@technoserv.com"}],"date":"2020-06-15T14:52:17+00:00","link":"tg://resolve?domain=qa_jobs&post=0","tags":[{"name":"qa"},{"name":"kubernetes"},{"name":"linux"},{"name":"centos"},{"name":"docker"},{"name":"jenkins"},{"name":"ansible"},{"name":"apache"},{"name":"nginx"},{"name":"jboss"},{"name":"git"},{"name":"shell"},{"name":"bash"},{"name":"python"},{"name":"go"},{"name":"redis"},{"name":"rabbitmq"},{"name":"elasticsearch"},{"name":"kafka"}],"cities":[{"code":"moscow"}],"allowsRemote":false}},{"node":{"__typename":"Job","id":"2211446784-1001134745498","title":"Devops инженер","text":"#вакансия #DevOps #Москва #ivi\n\nОнлайн-кинотеатр ivi \nЛокация: Москва, ст. м. Дмитровская\nФормат работы: офис \nЗанятость: полная\nЗарплатная вилка: от 180 000 до 250 000 руб. на руки.\n\nРазыскиваем коллегу в команду для участия в настройке процессов: технических (CI/CD) и в части взаимодействия с коллегами. Активное участие в разворачивании и эксплуатации k8s. Помогаем командам разработки строить CI/CD-пайплайны.  Используем Ubuntu, Linux.\nХраним код и разрабатываем pipeline-ы с помощью GitLab+Artifactory.\nДля мониторинга серверов и сервисов используем Zabbix и StatsD, заправляем Grafana.\nНаши сервисы написаны на Python, Golang и немного PHP и Java.\nЛюбим и активно используем Jenkins для решения самых разнообразных задач.\nИспользуем много Open Source (и не только) приложений: Nginx, Redis, PostgreSQL, MongoDB, RabbitMQ, ClickHouse, OpenStack, GitLab, Kafka, HDFS, Jira , OpenNebula.\n\nЧто предстоит делать: \n- Развитие и настройка процессов CI/CD;\n- Периодический аудит используемого стека технологий;\n- Планирование и участие в рефакторинге процессов, инфраструктуры, приложений;\n- Сопровождение сервисов от разработки до эксплуатации, участие в эксплуатации;\n- Доработка текущих и разработка новых сценариев конфигурирования серверов и приложений;\n- Администрирование приложений по результатам выполненной работы, подготовка документации, если это необходимо.\n\nКак узнать, что ты нам подходишь? \n- Успешный опыт работы CI/CD-системами (у нас GitLab и Jenkins);\n- Умение хорошо готовить Docker;\n- Опыт программирования на скриптовых языках (Shell, Python);\n- Опыт администрирования Linux и приложений более 5 лет;\n- Понимание сетевых технологий TCP/IP;\n- Опыт работы с системами управления версиями (у нас Git);\n- Опыт работы с системами управления конфигурациями.\n\nСо своей стороны мы обещаем: \n- Офис в 5 минутах ходьбы от м. \"Дмитровская\";\n- У нас гибкий график, мы начинаем до 11 часов дня;\n- Трудоустройство по ТК РФ;\n- ДМС + стоматология после прохождения испытательного срока;\n- Подписка на ivi;\n- Пакет релокации для соискателей со всей России.\n\nПишите @daria144, на почту dsereda@ivi.ru или откликайтесь здесь https://hh.ru/vacancy/35021558\n\n—\n\n👉 Обсуждение вакансии в чате @devops_jobs","markup":[{"type":"hashtag","offset":0,"length":9,"data":"вакансия"},{"type":"hashtag","offset":10,"length":7,"data":"DevOps"},{"type":"hashtag","offset":18,"length":7,"data":"Москва"},{"type":"hashtag","offset":26,"length":4,"data":"ivi"},{"type":"handle","offset":2071,"length":9,"data":"daria144"},{"type":"link","offset":2091,"length":14,"data":"mailto:dsereda@ivi.ru"},{"type":"link","offset":2129,"length":30,"data":"https://hh.ru/vacancy/35021558"},{"type":"handle","offset":2194,"length":12,"data":"devops_jobs"}],"date":"2020-06-15T13:57:03+00:00","link":"tg://resolve?domain=devops_jobs_feed&post=2109","tags":[{"name":"ubuntu"},{"name":"linux"},{"name":"gitlab"},{"name":"python"},{"name":"go"},{"name":"php"},{"name":"java"},{"name":"jenkins"},{"name":"nginx"},{"name":"redis"},{"name":"postgresql"},{"name":"mongodb"},{"name":"rabbitmq"},{"name":"kafka"},{"name":"hdfs"},{"name":"docker"},{"name":"shell"},{"name":"git"}],"cities":[{"code":"moscow"}],"allowsRemote":false}},{"node":{"__typename":"Job","id":"16925065216-1001110946746","title":"Js разработчик","text":"#вакансия #react #JavaScript #Волгоград\n\nГород и адрес офиса: Волгоград, ул Баррикадная 1Б. Бизнес центр Адмирал Плаза.\n\nФормат работы: офис\n\nЗанятость: полная\n\nЗарплатная вилка: от 40тр до 200 тр\n\nНазвание компании: Лига Цифровой Экономики\n\nОписание вакансии: Лига Цифровой Экономики – крупная консалтинговая IT-компания, где работает более 3500 талантливых специалистов.\nМы ищем талантливых единомышленников, которые хотят менять мир вокруг, а не наблюдать за изменениями со стороны.\n\nВ нашем Волгоградском офисе открыта вакансия JS разработчика\nВам удастся поучаствовать в разработке систем для крупнейших кампаний страны (ЦБ РФ, ВТБ, Сбербанк, РСХБ, ВСК), а также Европы (Daimler AG). \nПрисоединяйтесь к крутым проектам в роли JS-разработчика!\n\nЧЕМ ПРЕДСТОИТ ЗАНИМАТЬСЯ:\n•  Разработка фронтальной части\n•  Подбор оптимальных средств и инструментов\n•  Доработка OpenSource платформы (Contributing)\n•  Проработка архитектурных решений\n•  Участие в code-review\n•  GitFlow:\no  PullRequest в Gitlab\no  CI/CD (Jenkins, Telegram Bot, Gradle, Groove)\no  Иногда нещадный Code Review\n\nЧТО НАМ ВАЖНО:\n•  Уверенное знание: Java Script (ES6)\n•  Уверенное знание стеĸа: React + Redux, LESS/CSS\n•  Знание средств коллективной разработки и сборки проектов (Git, Jira Jenkins и т.д.)\n•  Понимание ООП, знание базовых шаблонов проектирования\n•  Опыт работы коммерческой разработки от 1-х года\nПлюсом будет:\n•  Знания и опыт работы с TypeScript\n\nЧТО МЫ ПРЕДЛАГАЕМ\n•  Бессрочный трудовой договор (независимо от периода проекта)\n•  Трудоустройство согласно ТК, белая заработная плата (уровень оклада обсуждается индивидуально)\n•  ДМС со стоматологией, оплата мобильной связи, корпоративные скидки 50% на фитнес и уроки английского языка\n•  Возможность профессионального развития и карьерного роста, а также реализации своих идей (внутренние профессиональные сообщества и внешнее обучение)\n•  Гибкий график работы (возможность выбора начала рабочего дня)\n\nНО ВРЯД ЛИ МЫ СРАБОТАЕМСЯ, ЕСЛИ:\n•  Не хотите учиться и развиваться\n•  Не хотите делать чуть лучше, чем написано в таске\n \nМы предлагаем самые интересные проекты, которыми можно будет гордиться. Мы всегда запускаем что-то новое. Мы используем самые новые технологии, и стагнация противоречит идеям команды и направлению бизнеса.\n\nКонтакты @Gromgard","markup":[{"type":"hashtag","offset":0,"length":9,"data":"вакансия"},{"type":"hashtag","offset":10,"length":6,"data":"react"},{"type":"hashtag","offset":17,"length":11,"data":"JavaScript"},{"type":"hashtag","offset":29,"length":10,"data":"Волгоград"},{"type":"handle","offset":2277,"length":9,"data":"Gromgard"}],"date":"2020-06-15T11:21:07+00:00","link":"tg://resolve?domain=javascript_jobs_feed&post=0","tags":[{"name":"javascript"},{"name":"reactjs"},{"name":"gitlab"},{"name":"jenkins"},{"name":"gradle"},{"name":"java"},{"name":"redux"},{"name":"css"},{"name":"git"},{"name":"typescript"},{"name":"react-redux"}],"cities":[{"code":"volgograd"}],"allowsRemote":false}},{"node":{"__typename":"Job","id":"2209349632-1001134745498","title":"Devops инженер","text":"#вакансия #офис #Москва #devops #teamlead\n\nDevOps Engineer\nОписание проекта:\nНа текущий момент мы формируем ключевую команду по трансформации интеграционной архитектуры одного из крупнейших\nБанков.\nОдной из ключевых задач трансформации стоит построить принципиально новую платформу управления трафиком между\nприложениями,\nпозволяющую объединить все существующие системы Банка как монолитные, так и контейнеризированные, виртуализировать\nбазовые\nсервисы и инструменты обеспечения ключевых атрибутов масштабирования, надежности, безопасности и сопровождаемости.\nВ результате этой трансформации должны быть реализованы комплексные сервисы платформы для ИТ Банка и партнеров.\nПрофит для участника:\nВозможность трансформировать ИТ-ландшафт одного из крупнейшего Банка своими силами от начала до конца;\nВозможность развить компетенции и получить опыт применения современных технологий и подходов к DevOps;\n\nКлючевые задачи:\nУлучшение инструментов и автоматизация производственных процессов, уменьшение time to market\nПостроение и сопровождение конвейера CI/CD\nАвтоматизация процесса подготовки окружений, тестовых сред, сборки и развертывания приложений\nВнедрение, поддержка и развитие системы мониторинга\nУчастие в подготовке и настройке инфраструктуры проектов банка\nИнтеграция тестов в скрипты развертывания\n\nОсновные требования:\nОпыт конфигурации и уверенное владение Linux (RHEL/CentOS)\nУмение писать сценарии автоматизации (bash, python)\nПонимание языков разметки данных (xml, json, yaml)\nУверенное владение одним из языков: Python, Java, Kotlin, Groovy\nОпыт работы с Git.\nОпыт автоматизации CI/CD процессов. Активное взаимодействие с командами разработки, тестирования, поддержки.\nОпыт работы с CI-Системами (Gitlab CI/Jenkins/TeamCity). Разработка и отладка исходного кода Pipeline, умение\nкастомизировать сборку.\nУверенное владение средством управления конфигурациями – Ansible, написание скриптов. Большим плюсом будет\nявляется опыт разработки модулей и отладки.\nОпыт развертывание и использования Docker: Создание образов, сборка и доставка контейнеров. Развертывание\nприложений в кластере Kubernetes, OpenShift\nОпыт настройки инструментов мониторинга (zabbix, Prometheus, grafana, ELK/EFK)\nОпыт работы с базами данных: Oracle, PostgreSQL, NoSQL DB (Tarantool, Casandra, Redis, RocksDB, etcd, ...)\nОпыт работы с IBM WebSphere MQ\nИнженерные практики (code review, тестирование скриптов и прочее).\nОпыт работы с высокодоступными и высокопроизводительными решениями\nПонимание принципа infrastructure as code\nИнженерное мышление, умение локализовать проблему и предложить оптимальное решение\nРазвитый технический кругозор и желание постоянно развиваться.\n\nЧто предлагаем:\nОформление через интегратора T4u\nЗ.п белая, 200-250 к\nДМС, курсы, сертификация за счет компании\nРабочее место в одном из офисов банка: м. Деловой центр, м. Пролетарская, м. ВДНХ\nКонтакты: @Anastasia202011\n\n—\n\n👉 Обсуждение вакансии в чате @devops_jobs","markup":[{"type":"hashtag","offset":0,"length":9,"data":"вакансия"},{"type":"hashtag","offset":10,"length":5,"data":"офис"},{"type":"hashtag","offset":16,"length":7,"data":"Москва"},{"type":"hashtag","offset":24,"length":7,"data":"devops"},{"type":"hashtag","offset":32,"length":9,"data":"teamlead"},{"type":"handle","offset":2861,"length":16,"data":"Anastasia202011"},{"type":"handle","offset":2912,"length":12,"data":"devops_jobs"}],"date":"2020-06-15T11:01:14+00:00","link":"tg://resolve?domain=devops_jobs_feed&post=2107","tags":[{"name":"linux"},{"name":"centos"},{"name":"bash"},{"name":"python"},{"name":"xml"},{"name":"json"},{"name":"yaml"},{"name":"java"},{"name":"kotlin"},{"name":"groovy"},{"name":"git"},{"name":"gitlab"},{"name":"jenkins"},{"name":"ansible"},{"name":"docker"},{"name":"kubernetes"},{"name":"oracle"},{"name":"postgresql"},{"name":"nosql"},{"name":"redis"}],"cities":[{"code":"moscow"}],"allowsRemote":false}},{"node":{"__typename":"Job","id":"2205155328-1001134745498","title":"Devops инженер","text":"#Москва #вакансия #офис #devops\n✅ www.onelya.ru - на рынке с 2002 года (E-travel и интернет-эквайринг), подразделение - команда эксплуатации ЦОД  \n✅ оформление по ТК РФ, з/п 170-200net, ДМС, территориально - ст.м.ЦСКА/Аэропорт, БЦ Линкор\n✅ Обязанности:\n- выстраивание процессов CI/CD;\n- мониторинг, автоматизация и дальнейшее улучшение существующей инфраструктуры;\n- обеспечение бесперебойной работы инфраструктуры и сервисов;\n- анализ инцидентов, оценка архитектурных решений, ввод изменений с целью минимизации рисков отказов в обслуживании;\n- тесное взаимодействие с командами разработки и тестирования;\n- ведение документации по администрируемым сервисам и решениям.\n✅ Требования:\n- понимание принципов devops-культуры и опыт построения devops-инфраструктуры;\n- релевантный опыт работы от 2-х лет;\n- обязательно знаниe kubernetes;\n- понимание важности принципов Infrastructure as a Code; Prometheus;\n- практический опыт автоматизации управления средами с применением Jenkins, Docker, Kubernetes, автоматизации развертывания средствами Ansible, опыт работы со средствами мониторинга , сбора и анализа метрик Zabbix, Graphite, Grafana, Kibana;\n- опыт администрирования, миграции данных и настройки резервного копирования для БД PostgreSQL, MongoDB, Redis, Elasticsearch;\n- опыт работы с ELK стеком;\n- опыт написания Python и bash скриптов;\n- готовность работать с legacy-системами.\n\n✅Ждем резюме на a.vinogradova@gateline.ru\n\n—\n\n👉 Обсуждение вакансии в чате @devops_jobs","markup":[{"type":"hashtag","offset":0,"length":7,"data":"Москва"},{"type":"hashtag","offset":8,"length":9,"data":"вакансия"},{"type":"hashtag","offset":18,"length":5,"data":"офис"},{"type":"hashtag","offset":24,"length":7,"data":"devops"},{"type":"link","offset":34,"length":13,"data":"http://www.onelya.ru"},{"type":"link","offset":1401,"length":25,"data":"mailto:a.vinogradova@gateline.ru"},{"type":"handle","offset":1461,"length":12,"data":"devops_jobs"}],"date":"2020-06-15T10:56:00+00:00","link":"tg://resolve?domain=devops_jobs_feed&post=2103","tags":[{"name":"dotnet"},{"name":"kubernetes"},{"name":"jenkins"},{"name":"docker"},{"name":"ansible"},{"name":"postgresql"},{"name":"mongodb"},{"name":"redis"},{"name":"elasticsearch"},{"name":"python"},{"name":"bash"}],"cities":[{"code":"moscow"}],"allowsRemote":false}},{"node":{"__typename":"Job","id":"102802391040-1001089317451","title":"Qa инженер","text":"#вакансия #QA #Java #QAAutomation #Москва #офис \n\nВакансия: QA Lead (Тест-Менеджер)\nГород: Москва м. Технопарк \nЗарплата: от 220 000 рублей до 260 000 рублей на руки\nФормат: офис, полный день, полная занятость\nКомпания Innovative People \n\n🚀 Чем предстоит заниматься:\n• планирование тестирования;\n• выстраивание процессов тестирования среди 8 команд с упором на автоматизацию;\n• автоматизировать процессы разработки и тестирования;\n• выстраивать CI/CD проекта;\n• налаживание взаимодействия QA инженеров в нескольких командах;\n• поддерживать и развивать разработанные решения по автоматизации;\n• разрабатывать фреймворк автоматизации;\n• исследовать новые технологии и внедрять их на проекте;\n• подготовка метрик автоматизированных тестов;\n• принятие решений о внедрении / обновлении программного обеспечения.\n\n🚀 От кандидата ожидаем:\n• опыт в тестировании от 4х лет\n• опыт в автотестировании от 3х лет\n• опыт руководства группой тестировщиков от 2х лет\n• практический опыт применения практик тест-дизайна\n• умение проектировать тест-кейсы и подготавливать тестовые данные для тестирования\n• хорошие знание Java, библиотек\n• уверенное использование и понимание как работает под капотом Selenium Webdriver (Selenide и Appium для мобильных платформ)\n• опыт написания собственного фреймворка\n• опыт работы в unix системах\n• опыт работы с API (Soap, Rest)\n• опыт использование git\n• опыт использование CI (желательно, но не обязательно Jenkins)\n• опыт работы с Docker\n• опыт составления запросов SQL\n• опыт управления непрямыми (функциональными) подчиненными\n• умение контролировать несколько проектов одновременно\n• умение мотивировать команду, опыт управления рисками, мониторинг эффективности процессов\n\n🚀 Предлагаем:\n• все по ТК РФ\n• ДМС со стоматологией, программа лояльности\n• Macbook \n• адекватное руководство и лояльные процессы\n• большое комьюнити, классные команды\n• помогаем с релокацией!\n\nРезюме и вопросы @Priboch","markup":[{"type":"hashtag","offset":0,"length":9,"data":"вакансия"},{"type":"hashtag","offset":10,"length":3,"data":"QA"},{"type":"hashtag","offset":14,"length":5,"data":"Java"},{"type":"hashtag","offset":20,"length":13,"data":"QAAutomation"},{"type":"hashtag","offset":34,"length":7,"data":"Москва"},{"type":"hashtag","offset":42,"length":5,"data":"офис"},{"type":"handle","offset":1914,"length":8,"data":"Priboch"}],"date":"2020-06-15T04:41:09+00:00","link":"tg://resolve?domain=qa_jobs&post=0","tags":[{"name":"qa"},{"name":"java"},{"name":"selenium"},{"name":"unix"},{"name":"soap"},{"name":"rest"},{"name":"git"},{"name":"jenkins"},{"name":"docker"},{"name":"sql"}],"cities":[{"code":"moscow"}],"allowsRemote":false}},{"node":{"__typename":"Job","id":"2202009600-1001134745498","title":"Devops инженер","text":"#вакансия #vacancy #fulltime #remote #fullstack #senior\n\nПозиция: AWS Operations Engineer\nКомпания: SO Services Ltd\nФормат работы: удаленная работа\nЗанятость: полная\nОплата: от 3200 до 4300 USD в месяц\nКонтакт: Марк, @mark_soservices\n\nДобрый день! Мы ищем AWS инженера для нашего клиента из США. Требуется разговорный английский. Оформление контракта через ИП - с этим проконсультируем.\n\nWhat will you do?\nWe are looking for AWS Operations Engineer who will help us to develop our DevOps practices and culture. In this position you will need to assist company to migrate its legacy services to AWS ecosystem, as well as supporting existing infrastructure in AWS. You will also work with architect team to develop new solutions\n\nResponsibilities\n- Maintaining IAC approach using TerraForm\n- Develop TerraForm templates\n- Assist Development and QA teams to craft and improve automation pipelines\n- Manage and administer QA environments\n- Assist with migration of legacy services from on-premise to AWS\n- Collaborate with Architect team to develop new solutions\n- Enforce automation culture across technical teams\n\nRequirements\n- 3+ hands-on experience with running production environments on AWS\n- Experience with most or all AWS services: EC2, S3, EKS, ECS, Lambda, RDS\n- Strong experience with TerraForm\n- Experience with Docker (creating images, migration of apps to Docker containers)\n- Strong written and spoken communication skills\n- Focus on result\n- AWS certification is a significant bonus\n- K8s experience is a bonus\n\n\nTechnology Stack\n- Python, Django\n- AWS (EC2, S3, EKS, ECS, Lambda, RDS)\n- Github for code management\n- Jenkins CI\n\n—\n\n👉 Обсуждение вакансии в чате @devops_jobs","markup":[{"type":"hashtag","offset":0,"length":9,"data":"вакансия"},{"type":"hashtag","offset":10,"length":8,"data":"vacancy"},{"type":"hashtag","offset":19,"length":9,"data":"fulltime"},{"type":"hashtag","offset":29,"length":7,"data":"remote"},{"type":"hashtag","offset":37,"length":10,"data":"fullstack"},{"type":"hashtag","offset":48,"length":7,"data":"senior"},{"type":"handle","offset":217,"length":16,"data":"mark_soservices"},{"type":"handle","offset":1676,"length":12,"data":"devops_jobs"}],"date":"2020-06-13T14:57:14+00:00","link":"tg://resolve?domain=devops_jobs_feed&post=2100","tags":[{"name":"amazon-web-services"},{"name":"aws-lambda"},{"name":"docker"},{"name":"python"},{"name":"django"},{"name":"github"},{"name":"jenkins"}],"cities":[],"allowsRemote":true}},{"node":{"__typename":"Job","id":"90895810560-1001067529236","title":"Python разработчик","text":"#вакансия #vacancy #fulltime #remote #fullstack #senior\n\nПозиция: Senior Python Developer\nКомпания: SO Services Ltd\nФормат работы: удаленная работа\nЗанятость: полная\nОплата: от 3000 до 4000 USD в месяц\nКонтакт: Марк, @mark_soservices\n\nДобрый день! Мы ищем Python разработчика для нашего клиента из США. Требуется разговорный английский. Оформление контракта через ИП - с этим проконсультируем.\n\nResponsibilities\n- Plan and architect development work with rest of Dev team to ensure successful execution and delivery\n- Participate in improving and refining development processes and workflows\n- Help your peers with code review with focus on performance and reliability\n- Develop automation culture\n- Collaborate with Product Management to plan sprints\n- Collaborate with IT Operations to ensure services stability and high uptime\n- Help with investigation of software issues causing downtime and/or malfunction\n- Adapt legacy code to AWS\n\nRequirements\n- 4+ years professional experience building front and back-end web applications\n- Experience with most or all technologies: Python & Django, RDBMS, JS and jQuery, HTML/CSS/LESS, Git\n- Experience with following technologies will be a bonus: MongoDB, PostgreSQL, Elastic Search, WordPress, Redis, Celery, Jenkins, Sentry, New Relic, Nginx, RabbitMQ, NodeJS\n- Focus on task accomplishment and pursuing deadlines\n- Ability to prioritise and manage work across multiple related projects\n- Experienced in working following Agile development methodologies\n- Strong written and communications skills\n\n\nTechnology Stack\n- Python, Django\n- MySQL, Redis\n- AWS (storage, container services, serverless)\n- Github for code management\n- Jenkins as CI","markup":[{"type":"hashtag","offset":0,"length":9,"data":"вакансия"},{"type":"hashtag","offset":10,"length":8,"data":"vacancy"},{"type":"hashtag","offset":19,"length":9,"data":"fulltime"},{"type":"hashtag","offset":29,"length":7,"data":"remote"},{"type":"hashtag","offset":37,"length":10,"data":"fullstack"},{"type":"hashtag","offset":48,"length":7,"data":"senior"},{"type":"handle","offset":217,"length":16,"data":"mark_soservices"},{"type":"bold","offset":395,"length":16,"data":""},{"type":"bold","offset":939,"length":12,"data":""},{"type":"bold","offset":1546,"length":16,"data":""}],"date":"2020-06-13T14:26:03+00:00","link":"tg://resolve?domain=python_jobs&post=0","tags":[{"name":"python"},{"name":"rest"},{"name":"amazon-web-services"},{"name":"web"},{"name":"django"},{"name":"jquery"},{"name":"html"},{"name":"css"},{"name":"git"},{"name":"mongodb"},{"name":"postgresql"},{"name":"elasticsearch"},{"name":"wordpress"},{"name":"redis"},{"name":"jenkins"},{"name":"nginx"},{"name":"rabbitmq"},{"name":"nodejs"},{"name":"mysql"},{"name":"github"}],"cities":[],"allowsRemote":true}}]}}},"context":{}}