{"hash":"f5f6bf98bd95e769321482904cbbd488f77922fd","data":{"records":{"id":"android","name":"android","belongsTo":{"totalCount":165,"pageInfo":{"totalPages":17,"currentPage":6},"edges":[{"node":{"__typename":"Job","id":"72253177856-1001054966032","title":"Android разработчик","text":"#вакансия #Android #Kotlin #Москва #офис \n\nВакансия: Android разработчик\nГород: Москва м. Чистые пруды\nЗарплата: от 180 000 рублей до 260 000 рублей на руки \nФормат: офис, полный день, полная занятость (гибкое начало)\nКомпания Innovative People\n\nВ команду «Страховых продуктов» ищу разработчика. Проект новый, agile-команда. \n\n⚓ Обязанности\n• Разработка функционала мобильного приложения\n• Разработка unit-тестов, рефакторинг, code review\n• Соблюдение принципов командной разработки\n• Работа в офисе с командой\n\n ⚓ Требования \n• Опыт разработки мобильных приложений от 2-х лет\n• Отличные знания ООП, классических алгоритмов и структур данных\n• Отличные знания платформы Android, языков Java и Kotlin (преимущественно)\n• Опыт применения паттернов: MVP, MVVM, CLEAN\n• Опыт работы с внешними библиотеками Dagger2, RxJava2\n• Опыт работы json и xml для мобильных и серверных решений\n• Опыт интеграции со сторонними системами по API\n• Опыт написания unit-тестов\n• Опыт работы с TFS, JIRA, GIT\n• Опыт поддержки чужого кода\n• Опыт обеспечения регулярных релизов и написания документации\n\n⚓ Условия:\n• Новая команда\n• ДМС со стоматологией, всё белое\n, ноутбук \n• Возможность предлагать собственные идеи\n, карьерный рост\n• Позже планируется переезд в Москва Сити\n\n📩Резюме и вопросы @Priboch","markup":[{"type":"hashtag","offset":0,"length":9,"data":"вакансия"},{"type":"hashtag","offset":10,"length":8,"data":"Android"},{"type":"hashtag","offset":19,"length":7,"data":"Kotlin"},{"type":"hashtag","offset":27,"length":7,"data":"Москва"},{"type":"hashtag","offset":35,"length":5,"data":"офис"},{"type":"handle","offset":1273,"length":8,"data":"Priboch"}],"date":"2020-06-29T10:59:51+00:00","link":"tg://resolve?domain=mobile_jobs&post=68906","tags":[{"name":"mobile"},{"name":"android"},{"name":"kotlin"},{"name":"java"},{"name":"mvvm"},{"name":"json"},{"name":"xml"},{"name":"tfs"},{"name":"git"}],"cities":[{"code":"moscow"}],"allowsRemote":false}},{"node":{"__typename":"Job","id":"72243740672-1001054966032","title":"Android разработчик","text":"#вакансия #Москва #fulltime #android \nКомпания: Trinity Monsters\nПозиция: Android разработчик\nЛокация: Россия, Москва, офис в самом центре, у метро Охотный Ряд\nЗанятость: полная \n\nЗП: от 150.000 до 250.000 руб. на руки\n\nОт вас мы ждём:\n\n- отличные знания Kotlin\n- опыт работы с git\n- понимание принципов ООП\n- понимание принципы проектирования SOLID\n-MVP/MVVM, Clean Architecture; понимание DI;\n- умение расставлять приоритеты и эффективно планировать рабочее время\n\nПочему мы:\n⁃ гибкий график\n⁃ отлаженный менеджмент\n⁃ большие проекты \n⁃ работа с разнообразными интересными и амбициозными проектами\n⁃ сложные технические задачи, возможность развития и роста\n⁃ просторный комфортный офис в 2-х минутах от метро Охотный ряд с кухней, чаем, кофе и т.д.\n⁃ возможность влиять на продукт и вносить свои идеи\n⁃ оформление по ТК РФ\n\nДля связи @vicemik","markup":[{"type":"hashtag","offset":0,"length":9,"data":"вакансия"},{"type":"hashtag","offset":10,"length":7,"data":"Москва"},{"type":"hashtag","offset":18,"length":9,"data":"fulltime"},{"type":"hashtag","offset":28,"length":8,"data":"android"},{"type":"handle","offset":836,"length":8,"data":"vicemik"}],"date":"2020-06-29T10:39:59+00:00","link":"tg://resolve?domain=mobile_jobs&post=68897","tags":[{"name":"mobile"},{"name":"android"},{"name":"kotlin"},{"name":"git"},{"name":"mvvm"}],"cities":[{"code":"moscow"}],"allowsRemote":false}},{"node":{"__typename":"Job","id":"72240594944-1001054966032","title":"Android developer","text":"#вакансия #android #kotlin #Москва #Fulltime #Офис\n\nКомпания: Звук\nФормат работы: офис \nЗанятость: полная \nЗп: от 200 до 300к\nНаша команда создает современный музыкальный сервис Звук. Приложение доступно на устройствах Android и IOS. \n\nДля разработки собственного мобильного приложения в команду разработки приглашается Senior Android Developer.\n\nОжидания:\n— Опыт работы с Android от 2-х лет.\n— Уверенное знание Java Core, понимание принципов многопоточного программирования.\n— Уверенное знание Android SDK v19 – v28.\n— Опыт работы с RxJava(1 / 2), Retrofit, Exoplayer, Jetpack, Dagger2, StorIO.\n— Опыт работы с Kotlin, понимание основных принципов.\n— Опыт разработки клиент серверных приложений, понимание сетевого стека.\n— Умение работать с системой контроля версий git (terminal/gui).\n— Знание ООП, паттернов проектирования ПО.\n— Ответственность и умение работать на результат.\n— Знание общих мобильных подходов, архитектур, тенденций и новых технологий.\n— Твердое понимание полного жизненного цикла мобильной разработки.\n\nОсновные задачи:\n— Работать над исправлением ошибок и улучшением производительности приложений.\n— Постоянно находить, оценивать и внедрять новые технологии, чтобы максимизировать эффективность разработки. \n\nЧто у нас:\n— Опен-спейс между станциями метро Комсомольская, Красные Ворота и Бауманская.\n— Гибкий график работы, возможность периодически работать из дома.\n— Современная и производительная техника.\n— Оплачиваемые билеты на конференции.\n— В офисе есть стол для Пинг-понг, доска для дартс, оборудованная кухня, печеньки.\n— Факультативные просмотры лекций, обучение.\n\n\n\nЗа доп. инфой в лс: @AnnaPai4","markup":[{"type":"hashtag","offset":0,"length":9,"data":"вакансия"},{"type":"hashtag","offset":10,"length":8,"data":"android"},{"type":"hashtag","offset":19,"length":7,"data":"kotlin"},{"type":"hashtag","offset":27,"length":7,"data":"Москва"},{"type":"hashtag","offset":35,"length":9,"data":"Fulltime"},{"type":"hashtag","offset":45,"length":5,"data":"Офис"},{"type":"handle","offset":1621,"length":9,"data":"AnnaPai4"}],"date":"2020-06-29T10:29:04+00:00","link":"tg://resolve?domain=mobile_jobs&post=68894","tags":[{"name":"mobile"},{"name":"android"},{"name":"ios"},{"name":"kotlin"},{"name":"java"},{"name":"git"}],"cities":[{"code":"moscow"}],"allowsRemote":false}},{"node":{"__typename":"Job","id":"72234303488-1001054966032","title":"Android разработчик","text":"#вакансия #москва #офис #senior\n\nгород: Москва\nформат работы: офис\nзанятость: полная\nзарплатная вилка: 150-200\nвакансия: Ищу Android-разработчика  middle+, готового возглавить развитие  и поддержку приложения.\n\nо компании: Электронное издательство «Юрайт» Мы работаем со всеми вузами страны и считаем своей главной целью повышение образовательного уровня в России.\nwww.urait.ru\n\nо проекте: Над проектом работает 20 человек. Приложение заказывали на стороне в 2019 г. Теперь решили собрать свою команду для рефакторинга и выведения на новый уровень.\n\nЧто ждет от тебя будущее нашего образования:\nПоддержку и развитие нашего приложения;\nПеренос функционала из web;\nВзаимодействие с командой - аналитиками и тестировщиками;\nУчастие в развитии проекта.\n\nСкажем тебе уверенное “да”, если ты:\nИмеешь успешный опыт разработки и поддержки под Android  (Android Studio, Gradle);\nИмеешь опыт разработки на Kotlin;\nИмеешь успешный опыт разработки клиент-серверных приложений (REST, JSON);\nТрогал архитектуру (MVP, Clean architecture);\nЗнаешь  Android application architecture, Android SDK, Gradle;\nВладеешь паттернами UI;\nЗнаешь, зачем нужен Git, без контроля версий никуда, правда?\nМожешь писать тесты;\nГотов ин-хаус исправлять код от аутсорса. Уверен в том, что ты сделаешь круче, чем исполнители на стороне =)\n\nКак и что по условиям\nОфис с плюшками в 5 минутах от м. Шоссе Энтузиастов, Мск\nГибкое начало дня:  с 8 до 11 \nВсе по ТК РФ + соц.пакет \nАдекватные коллеги и руководство!!!\n\n\nЗаинтересовало?\nДмитрий @tankograin","markup":[{"type":"hashtag","offset":0,"length":9,"data":"вакансия"},{"type":"hashtag","offset":10,"length":7,"data":"москва"},{"type":"hashtag","offset":18,"length":5,"data":"офис"},{"type":"hashtag","offset":24,"length":7,"data":"senior"},{"type":"bold","offset":223,"length":32,"data":""},{"type":"bold","offset":268,"length":22,"data":""},{"type":"bold","offset":321,"length":42,"data":""},{"type":"link","offset":365,"length":12,"data":"http://www.urait.ru"},{"type":"bold","offset":550,"length":45,"data":""},{"type":"bold","offset":750,"length":37,"data":""},{"type":"bold","offset":1303,"length":22,"data":""},{"type":"handle","offset":1501,"length":11,"data":"tankograin"}],"date":"2020-06-29T09:19:13+00:00","link":"tg://resolve?domain=mobile_jobs&post=68888","tags":[{"name":"mobile"},{"name":"android"},{"name":"web"},{"name":"gradle"},{"name":"kotlin"},{"name":"rest"},{"name":"json"},{"name":"git"},{"name":"android-studio"}],"cities":[{"code":"moscow"}],"allowsRemote":false}},{"node":{"__typename":"Job","id":"72229060608-1001054966032","title":"Android разработчик","text":"#вакансия #работа #Android #удалёнка \n\nГород: Москва, Преображенская площадь;\nФормат работы: фулл тайм удаленно \n\nЗарплатная вилка: от 150 000 до 230 000;\nКомпания: АО «Почта банк»\n\nМы занимаем лидирующие позиции в рейтингах Интернет-банков, и не останавливаемся на достигнутом. Приглашаем к себе в команду разработчика Android.\n\nВАША ГЛАВНАЯ ЗАДАЧА:\n⚡️Разработка систем дистанционного банковского обслуживания (мобильный банк) на Android.\n\nНАШИ ТРЕБОВАНИЯ:\n✅ Опыт разработки для платформы Android от 3-х лет;\n✅ Знание Android SDK, Java, Kotlin, Rest/SOAP, Google Maps API, SQLite;\n\nВАШИМ ДОПОЛНИТЕЛЬНЫМ ПРЕИМУЩЕСТВОМ БУДЕТ:\n✅ Наличие высшего технического образования;\n✅ Знание стандартов проектирования и разработки мобильных приложений;\n✅ Знание архитектуры мобильных приложений и реализации серверного взаимодействия для мобильных приложений;\n✅ Навыки работы с многопоточностью;\n✅Опыт работы в банковской сфере.\n\nГОТОВЫ ВАМ ПРЕДЛОЖИТЬ:\n🔹 Удобный график («плавающее» начало рабочего дня);\n🔹 Удаленный формат работы;\n🔹 Оклад + квартальное премирование + годовой бонус;\n🔹 Agile. Scrum (двухнедельные спринты, работа в командах по 6-8 человек: 2 backend, 3 frontend, системный аналитик, 2 тестировщика) Демократия и самоорганизация + наличие удаленного доступа;\n🔹 Обучение - доступное внутреннее и внешнее обучение. В Банке есть корпоративная академия. Регулярно проходят внутренние митаппы, tech. chapters и ретроспективы. Мы посещаем ключевые отраслевые конференции;\n🔹 Профессиональное развитие - мы используем современный стэк, поддерживаем разумные инициативы по внедрению новшеств, совершенствуем архитектуру и кодовую базу;\n🔹 Карьерный рост- команда постоянно растет. В зависимости от вклада, каждый сотрудник может претендовать на повышение дохода, новый функционал и дополнительные задачи. Мы держимся за наших сотрудников;\n🔹 ДМС. Многочисленные скидки и бонусы от партнеров (от каршеринга до ипотеки).\n\nКонтакты: @dorogavtseva","markup":[{"type":"hashtag","offset":0,"length":9,"data":"вакансия"},{"type":"hashtag","offset":10,"length":7,"data":"работа"},{"type":"hashtag","offset":18,"length":8,"data":"Android"},{"type":"hashtag","offset":27,"length":9,"data":"удалёнка"},{"type":"handle","offset":1929,"length":13,"data":"dorogavtseva"}],"date":"2020-06-29T08:50:42+00:00","link":"tg://resolve?domain=mobile_jobs&post=68883","tags":[{"name":"mobile"},{"name":"android"},{"name":"java"},{"name":"kotlin"},{"name":"rest"},{"name":"soap"},{"name":"sqlite"},{"name":"google-maps"}],"cities":[{"code":"moscow"}],"allowsRemote":true}},{"node":{"__typename":"Job","id":"72223817728-1001054966032","title":"Android разработчик","text":"#Удаленка #вакансия #android #fulltime  #middle\nФормат работы: Удаленка \nЗанятость: полная\nЗарплатная вилка: от 60 т.р. до 100 т.р \n\nMobidoo - ADTech компания, занимаемся рекламой в мобильном сегменте интернета. Разрабатываем in house проекты различной степени сложности, как небольшие проекты, так и нацеленные на большие аудитории. На данный момент ищем Android разработчика уровня  middle, который хотел бы реализовывать нетривиальные задачи и участвовать в комплексной разработке проекта\n\nС чем придется работать:\n-Разработка мобильных приложений\n-Оптимизация работы мобильного приложения\n-Тесное взаимодействие с backend отделом разработки\n\nНазвание компании: Mobidoo http://mobidoo.io\nКонтакты: @ohmytraff","markup":[{"type":"hashtag","offset":0,"length":9,"data":"Удаленка"},{"type":"hashtag","offset":10,"length":9,"data":"вакансия"},{"type":"hashtag","offset":20,"length":8,"data":"android"},{"type":"hashtag","offset":29,"length":9,"data":"fulltime"},{"type":"hashtag","offset":40,"length":7,"data":"middle"},{"type":"link","offset":673,"length":17,"data":"http://mobidoo.io"},{"type":"handle","offset":701,"length":10,"data":"ohmytraff"}],"date":"2020-06-29T08:13:49+00:00","link":"tg://resolve?domain=mobile_jobs&post=68878","tags":[{"name":"mobile"},{"name":"android"}],"cities":[],"allowsRemote":false}},{"node":{"__typename":"Job","id":"72214380544-1001054966032","title":"Android разработчик","text":"#вакансия #android #developer #remote #java\n\nВакансия: Android разработчик\n\nКомпания: EatAp\nЛокация: удаленной работы (GMT+3 / GMT+7)\nГрафик: проектная работа\nЗ/п вилка: 600-700₽/час в зависимости от квалификации (частичная занятость, 20-30 часов в неделю) \n\nОписание компании:\nДействующий стартап в сфере доставки еды: EatAp\n\nЧем предстоит заниматься: \n• дорабатывать действующий продукт\n• разрабатывать новые фичи\n• поддерживать порядок в коде и документации\n\nЧто ждем от кандидата:\n• Опыт разработки на Android от 1 года\n• Опыт работы со стеком : Java, retrofit, rxjava, dagger, moxy, MVP, butterknife, room, git, navigation component\n• Аккуратное ведение кода\n\n• Знание Jira, Slack\n\n• Умение планировать свою работу в рамках спринтов\n\nКонтакты для связи: @doing_the_future","markup":[{"type":"hashtag","offset":0,"length":9,"data":"вакансия"},{"type":"hashtag","offset":10,"length":8,"data":"android"},{"type":"hashtag","offset":19,"length":10,"data":"developer"},{"type":"hashtag","offset":30,"length":7,"data":"remote"},{"type":"hashtag","offset":38,"length":5,"data":"java"},{"type":"handle","offset":759,"length":17,"data":"doing_the_future"}],"date":"2020-06-29T03:28:21+00:00","link":"tg://resolve?domain=mobile_jobs&post=68869","tags":[{"name":"mobile"},{"name":"android"},{"name":"java"},{"name":"git"}],"cities":[],"allowsRemote":true}},{"node":{"__typename":"Job","id":"72178728960-1001054966032","title":"Android разработчик","text":"#вакансия #android #developer #remote #java\n\nВакансия: Android разработчик\n\nКомпания: 8locate\nЛокация: удаленной работы (GMT+8 / GMT+7)\nГрафик: проектная работа\nЗ/п вилка: 600-700₽/час в зависимости от квалификации (частичная занятость, 20-30 часов в неделю) \n\nОписание компании:\nДействующий travel-experiences стартап 8locate.com\n\nЧем предстоит заниматься: \n• дорабатывать действующий продукт\n• разрабатывать новые фичи\n• поддерживать порядок в коде и документации\n\nЧто ждем от кандидата:\n• Опыт разработки на Android от 2-х лет \n• Опыт успешных релизов\n• Опыт работы со стеком : Java, retrofit, rxjava, dagger, moxy, MVP, butterknife, room, git, navigation component\n• Аккуратное ведение кода\n\n• Знание Jira, Slack\n\n• Умение планировать свою работу в рамках спринтов\n\nКонтакты для связи: @vit_bakh","markup":[{"type":"hashtag","offset":0,"length":9,"data":"вакансия"},{"type":"hashtag","offset":10,"length":8,"data":"android"},{"type":"hashtag","offset":19,"length":10,"data":"developer"},{"type":"hashtag","offset":30,"length":7,"data":"remote"},{"type":"hashtag","offset":38,"length":5,"data":"java"},{"type":"link","offset":319,"length":11,"data":"http://8locate.com"},{"type":"handle","offset":790,"length":9,"data":"vit_bakh"}],"date":"2020-06-28T15:30:17+00:00","link":"tg://resolve?domain=mobile_jobs&post=68835","tags":[{"name":"mobile"},{"name":"android"},{"name":"java"},{"name":"git"}],"cities":[],"allowsRemote":true}},{"node":{"__typename":"Job","id":"72161951744-1001054966032","title":"Android разработчик","text":"#remote #вакансия #android #kotlin #fulltime\nПозиция: Android Разработчик (удаленно)\nФормат работы: #удаленка\nЗанятость: полная\nЗарплатная вилка: от 80 000 руб. до 130 000 руб.\n\n🔥Описание вакансии:\nМы ищем Android разработчика с опытом создания Android приложений от прототипа заказчика и до непосредственной публикации в Google Play.\n\n👨🏻‍💻Требования:\n* опыт разработки Android приложений (ожидается, что кандидат продемонстрирует хотя бы 1 приложение в Google Play, разработанного с его/ее участием)\n* знание Kotlin\n* знание стандартных фреймворков и SDK\n* самое важное – умение и желание получать новые знания необходимые для работы\n\nTelegram – https://t.me/AlexeyBalchunas\n🏢Компания: https://4spaces.company\n🌍Вакансия: https://hh.ru/vacancy/37448182\n💌Email: jobs@4spaces.company\n💬Skype: https://join.skype.com/invite/e0SoJ9M6dn8W","markup":[{"type":"hashtag","offset":0,"length":7,"data":"remote"},{"type":"hashtag","offset":8,"length":9,"data":"вакансия"},{"type":"hashtag","offset":18,"length":8,"data":"android"},{"type":"hashtag","offset":27,"length":7,"data":"kotlin"},{"type":"hashtag","offset":35,"length":9,"data":"fulltime"},{"type":"hashtag","offset":100,"length":9,"data":"удаленка"},{"type":"link","offset":651,"length":28,"data":"https://t.me/AlexeyBalchunas"},{"type":"link","offset":692,"length":23,"data":"https://4spaces.company"},{"type":"link","offset":728,"length":30,"data":"https://hh.ru/vacancy/37448182"},{"type":"link","offset":768,"length":21,"data":"http://jobs@4spaces.company/"},{"type":"link","offset":798,"length":42,"data":"https://join.skype.com/invite/e0SoJ9M6dn8W"}],"date":"2020-06-28T05:09:22+00:00","link":"tg://resolve?domain=mobile_jobs&post=68819","tags":[{"name":"mobile"},{"name":"android"},{"name":"kotlin"},{"name":"playframework"}],"cities":[],"allowsRemote":true}},{"node":{"__typename":"Job","id":"103850967040-1001089317451","title":"Qa инженер","text":"#remote #вакансия #удаленка #manual #qa\n\nВсем привет! ✌🏻\n\nКоманда Dostavista.global ищет в свои ряды талантливого QA Инженера 🤓\n\n💥Немного о нас💥\nDostavista основана в 2012 году. Аналог Uber в курьерской доставке. Курьеры работают через приложения для iOS и Android, доставляют десятки тысяч отправлений ежедневно. Достависта — крупнейшая в Европе служба доставки «день в день». Работаем в 10 странах (Россия, Южная Корея, Индия, Турция, Бразилия, Мексика, Индонезия, Вьетнам, Филиппины, Таиланд, Малайзия) под собственными локальными брендами.\n\n💥Твои задачи💥\n\n- Тестирование различных модулей системы (большинство из них не имеют пользовательского интерфейса);\n- Тестирование различных алгоритмов (маршрутизация, динамическое ценообразование, динамическое изменение видимости ордеров и т.д.);\n- Интеграционное тестирование;\n- Ведение тестовой документации: чек-листы, тест-кейсы, планы тестирования, отчеты об ошибках;\n- Подготовка тестовой среды и тестовых данных, разработка простейших инструментов для автоматизации этого процесса;\n- Анализ больших объемов данных (логи, MySQL, ClickHouse).\n\n\n💥Наши пожелания💥\n\n- Отличные аналитические навыки, уверенное знание SQL, желателен опыт работы с ClickHouse;\n- Умение работать с логами;\n- Базовые навыки программирования (умение самостоятельно писать простые автотесты на любом языке программирования).\n- Базовые навыки работы с Linux;\n- Уровень английского от intermediate и выше.\n\n💥Мы предлагаем💥\n\n- Удаленная работа;\n- Осенью откроется московский офис после ремонта, при желании можно будет работать там вместо удалёнки;\n - Офисы в 9 других странах, и туда тоже можно ездить работать;\n- Гибкий график, отпуска и болезни без бюрократии;\n- Неформальная обстановка внутри команды;\n- Полностью белая заработная плата, оформление по ТК;\n- Ежегодная индексация заработной платы;\n- Скидка на изучение английского в онлайн-школе Skyeng;\n- Оплата отпусков, больничных, курсов и конференций, корпоративная библиотека;\n- ДМС (включая стоматологию и массаж).\n\n💰По зарплате готовы обсуждать от 120 000 на руки и выше💰\n\nОткрыты к диалогу!\n\nПо всем вопросам пишите:\n@annfilimonova\nafi@dostavista.ru","markup":[{"type":"hashtag","offset":0,"length":7,"data":"remote"},{"type":"hashtag","offset":8,"length":9,"data":"вакансия"},{"type":"hashtag","offset":18,"length":9,"data":"удаленка"},{"type":"hashtag","offset":28,"length":7,"data":"manual"},{"type":"hashtag","offset":36,"length":3,"data":"qa"},{"type":"link","offset":67,"length":17,"data":"http://Dostavista.global"},{"type":"bold","offset":131,"length":15,"data":""},{"type":"bold","offset":549,"length":13,"data":""},{"type":"bold","offset":1102,"length":20,"data":""},{"type":"bold","offset":1439,"length":13,"data":""},{"type":"bold","offset":2009,"length":54,"data":""},{"type":"handle","offset":2112,"length":14,"data":"annfilimonova"},{"type":"link","offset":2127,"length":17,"data":"mailto:afi@dostavista.ru"}],"date":"2020-06-26T16:42:56+00:00","link":"tg://resolve?domain=qa_jobs&post=99040","tags":[{"name":"qa"},{"name":"ios"},{"name":"android"},{"name":"mysql"},{"name":"sql"},{"name":"linux"}],"cities":[{"code":"moscow"}],"allowsRemote":true}}]}}},"context":{}}