{"hash":"f5f6bf98bd95e769321482904cbbd488f77922fd","data":{"records":{"id":"docker","name":"docker","belongsTo":{"totalCount":182,"pageInfo":{"totalPages":19,"currentPage":11},"edges":[{"node":{"__typename":"Job","id":"1715470336-1001091028994","title":"Java разработчик","text":"#middle #удаленка #Java #Spring #senior #backend #developer\nЛокация: Cанкт-Петербург\nЗанятость: полная, гибкое начало дня\n*до окончания пандемии работа удаленная, далее работа в офисе\nЗ/п: 130 – 200 k net.\nКомпания: CSI\nКонтакты: @Danny_Ushakova\nМы продуктовая компания CSI, создающая решения для автоматизации торговых сетей.  \nМы ищем крутых разработчиков, ответственных за собственный код, любящих тесты и понимающих важность unit тестов. Разработчиков, которые с радостью забывают про бюрократию, и разделение труда, которые умеют защищать собственные решения и хотят сделать этот мир лучше!  \nJAVA developer (высоконагруженные сервисы лояльности)  \nКлючевой задачей будет разработка нового и доработка нашего продукта -  существующего функционала системы Set Retail 10. \nСтек:\n• Java от 2 лет.\n• Spring (Web, Data, Cloud), Kafka.\n• Опыт разработки микросервисов.\n• Опыт проектирования базы данных.\n• SQL (желательно PostgreSQL), JDBC, Hibernate.\n• Git, Gradle.\nБудет плюсом:\n• Опыт работы с J2EE (EJB3, JAX-WS, JAXB, JPA2).\n• Знание Linux.\n• Опыт работы с Redis, MongoDB, Docker, Hashicorp Nomad, Ansible.\n\nМы предлагаем:\n• возможность каждый день видеть результаты своей работы;\n• официальное оформление, белая зарплата, отпуск согласно ТК РФ;\n• гибкий график работы (с 11 до 17 - время присутствия в офисе), есть возможность работать из дома (при необходимости);\n• ДМС со стоматологией, 100% оплата больничных;\n• курсы английского языка в офисе;\n• посещение тренингов, конференций;\n• работа по Agile в команде высокопрофессиональных разработчиков;\n• возможности профессионального роста, четкая схема повышения зарплаты;\n• работа в современном и комфортном офисе в центре города (Чкаловcкий пр-т);\n• оборудованные столовые, чай, кофе, фрукты, печеньки и PlayStation;\n• командные тимбилдинги, футбольная команда.","markup":[{"type":"hashtag","offset":0,"length":7,"data":"middle"},{"type":"hashtag","offset":8,"length":9,"data":"удаленка"},{"type":"hashtag","offset":18,"length":5,"data":"Java"},{"type":"hashtag","offset":24,"length":7,"data":"Spring"},{"type":"hashtag","offset":32,"length":7,"data":"senior"},{"type":"hashtag","offset":40,"length":8,"data":"backend"},{"type":"hashtag","offset":49,"length":10,"data":"developer"},{"type":"handle","offset":230,"length":15,"data":"Danny_Ushakova"}],"date":"2020-06-22T09:26:18+00:00","link":"tg://resolve?domain=jvmjobs&post=1636","tags":[{"name":"java"},{"name":"jvm"},{"name":"spring"},{"name":"dotnet"},{"name":"web"},{"name":"cloud"},{"name":"kafka"},{"name":"sql"},{"name":"postgresql"},{"name":"jdbc"},{"name":"hibernate"},{"name":"git"},{"name":"gradle"},{"name":"jaxb"},{"name":"jpa"},{"name":"linux"},{"name":"redis"},{"name":"mongodb"},{"name":"docker"},{"name":"ansible"}],"cities":[],"allowsRemote":true}},{"node":{"__typename":"Job","id":"103407419392-1001089317451","title":"Qa engineer","text":"#Москва #вакансия #QA #manual  #python\n\nДолжность: QA Engineer \nКомпания: Andromeda Lab\nЗП: до 120 000 \nФормат работы: офис, гибкое начало дня\nЗанятость: полная\n\n\nКого мы ищем:\nЧеловека который готов заниматься ручным тестированием 80% времени и 20% времени - автоматизацией.Со временем доля автоматизации вырастет до 50%\n\nЗадачи:\n- Тестирование ERP-системы;\n- Введение документации для тестирования (Создание тест-кейсов, чек-листов и т.д.)\n- Тестирование мобильного приложения \n- Участие в автоматизации тестирования продуктов компании\n\nОбязанности:\n- Понимание жизненного цикла разработки продукта\n- Знание теории и видов тестирования,  умение вести тестовую документацию;\n- Умение локализовать баги и оформлять баг репорты\n- Понимание и умение применять техники тест-дизайна\n- Тестирование API\n- Опыт использование Postman\n- Понимание мобильного тестирования \n- Знание и умение пользования командной строкой UNIX\n- Знание SQL (простые запросы), Git\n- Умение использовать снифферы (Charles,Fiddler и т.д.)\n- Умение работать с Docker\n- Начальные знания Python либо желание выучить в ближайшее время\n\nПредлагаем:\n- белая зп (до 120 000, зависит от опыта);\n- уютный офис в Moscow City (сладости, печенки,кофе\\чай,PS4 и т.д.);\n- ДМС,  курсы английского, участие в конференциях. \n\nРезюме скидывать в лс.","markup":[{"type":"hashtag","offset":0,"length":7,"data":"Москва"},{"type":"hashtag","offset":8,"length":9,"data":"вакансия"},{"type":"hashtag","offset":18,"length":3,"data":"QA"},{"type":"hashtag","offset":22,"length":7,"data":"manual"},{"type":"hashtag","offset":31,"length":7,"data":"python"}],"date":"2020-06-22T09:17:00+00:00","link":"tg://resolve?domain=qa_jobs&post=98617","tags":[{"name":"qa"},{"name":"python"},{"name":"unix"},{"name":"sql"},{"name":"git"},{"name":"docker"}],"cities":[{"code":"moscow"}],"allowsRemote":false}},{"node":{"__typename":"Job","id":"350224384-1001352129329","title":"Golang разработчик","text":"Ребят, всем привет! \nПостараюсь кратко, подробности в ЛС, заранее напишу, что это Москва (Фултайм в офис), компания Lofty. Ищем в команду как Midle так и один Senior нужен.\nВообщем если хочется в highload, добро пожаловать!)\n\nО проекте:\nЭто высоконагруженное backend приложение для рассылки web push-уведомлений, обслуживающее на данный момент более 100млн показов в сутки. \nЧем у нас предстоит заниматься:\nПрофилировать и оптимизировать существующие сервисы;\nПроводить доработки и интеграцию их в действующий код и инфраструктуру;\nРеализовывать новые бизнес-требования внутри сервиса;\nУстранять возникающие баги в сервисе.\n\nЧто мы ждем от кандидата:\nНавыки работы с Git;\nУверенное знание Golang;\nПонимание технологий HTTP, REST;\nОпыт работы в Unix-окружении.\n\nБудет совсем круто, если вы:\nРаботали с highload-проектами;\nПонимаете и уважаете концепцию CI/CD.\nНаш стек технологий: Golang, Gitlab, MySQL, JS, RabbitMQ, Docker, Ansible, Clickhouse\n\nУсловия: \nЗаработная плата от 130 000 до 300 000 руб. на руки, естественно зависит от уровня, преимущественно смотрим \"мидов\", но и \"джуны\" нам тоже интересны.\n\n#вакансия#golang","markup":[],"date":"2020-06-22T08:15:13+00:00","link":"tg://resolve?domain=gogetajobfeed&post=334","tags":[{"name":"go"},{"name":"web"},{"name":"git"},{"name":"rest"},{"name":"unix"},{"name":"gitlab"},{"name":"mysql"},{"name":"rabbitmq"},{"name":"docker"},{"name":"ansible"}],"cities":[{"code":"moscow"}],"allowsRemote":false}},{"node":{"__typename":"Job","id":"103395885056-1001089317451","title":"Qa engineer","text":"#вакансия #москва #полнаязанятость #qaengineer #auto #manual\nКомпания: #Mетрквадратный www.m2.ru\nЛокация: м.Белорусская \nФормат работы: офис (удаленная до сентября)  \nЗ/п: от 120к - 180к на руки\nКонтакты: @maxdmitrov\n\nЭто экосистема недвижимости, которая помогает клиентам решать любые жилищные вопросы: от поиска вариантов и оформления сделки до организации ремонта и переезда в новую квартиру. Мы также создаем решения для партнёров и профессиональных участников рынка недвижимости.\n\nНаш стэк:\n• Java\n • Node.js\n • React, TypeScript\n • Kafka, ElasticSearch, gRPC\n • Docker\n\nЧем предстоит заниматься:\n • анализировать и тестировать требования к разрабатываемым приложениям;\n • писать приемочные критерии к пользовательским историям;\n • проводить функциональное, регрессионное и smoke тестирование;\n • заниматься задачами по автоматизации тестирования.\n\nЧего мы ждем:\n • глубокое понимание процессов тестирования и разработки ПО;\n • опыт интеграционного тестирования:\n    - системная интеграция;\n    - компонентная интеграция\n • опыт тестирования АРI;\n • опыт автоматизации тестирования на любом стеке.\n\nБудет плюсом\n • опыт исследовательского тестирования;\n • опыт тестирования ПО с микросервисной архитектурой.\n\nМы предлагаем:\n • белая конкурентная ЗП, официальное оформление;\n • гибкий график работы;\n • ДМС, компенсация фитнеса, льготная ставка по ипотеке;\n • комфортный офис в БЦ «Белая площадь» (минута от метро): лаундж-зоны, бариста, фрукты.","markup":[{"type":"hashtag","offset":0,"length":9,"data":"вакансия"},{"type":"hashtag","offset":10,"length":7,"data":"москва"},{"type":"hashtag","offset":18,"length":16,"data":"полнаязанятость"},{"type":"hashtag","offset":35,"length":11,"data":"qaengineer"},{"type":"hashtag","offset":47,"length":5,"data":"auto"},{"type":"hashtag","offset":53,"length":7,"data":"manual"},{"type":"hashtag","offset":71,"length":15,"data":"Mетрквадратный"},{"type":"link","offset":87,"length":9,"data":"http://www.m2.ru"},{"type":"handle","offset":205,"length":11,"data":"maxdmitrov"},{"type":"bold","offset":485,"length":11,"data":""},{"type":"bold","offset":576,"length":26,"data":""},{"type":"bold","offset":853,"length":15,"data":""},{"type":"bold","offset":1103,"length":14,"data":""},{"type":"bold","offset":1212,"length":16,"data":""}],"date":"2020-06-22T07:52:58+00:00","link":"tg://resolve?domain=qa_jobs&post=98606","tags":[{"name":"qa"},{"name":"java"},{"name":"nodejs"},{"name":"reactjs"},{"name":"typescript"},{"name":"kafka"},{"name":"elasticsearch"},{"name":"docker"}],"cities":[{"code":"moscow"}],"allowsRemote":true}},{"node":{"__typename":"Job","id":"17097031680-1001110946746","title":"Js developer","text":"#вакансия\nГород и адрес офиса: Эйлат, Израиль\nФормат работы: удаленка\nЗанятость: полная\nЗарплатная вилка: (оба значения обязательны) от 2200$ до 4500$ net\nОписание вакансии:\n\nhttps://trucknet.io/en/open-positions/middle-senior-backend-typescript-developer/\n\nWho are we looking for\nWe are looking for a Backend Developer to join our R&D department in Eilat, Israel. Have you ever dreamed of working with a small and capable team in a coastal town on the southern edge of the Negev Desert? Are you interested in creating an eco-friendly product in a domain of logistics and transportation, solving mysteries problems and facing new challenges? If so, the Trucknet team is just the place for you!\nResponsibilities\n • Implementing new features and providing support for various microservices.\n • Proposing, brainstorming and carrying out refactoring to improve the internal structure of our software.\n • Improving the developer experience by constantly bettering our toolbox.\n • Advancing deployment/integration infrastructure.\nRequirements\n • 3+ years of professional experience with backend development.\n • Acquaintance with Typescript, OOP Javascript, NodeJS.\n • Acquaintance with MongoDB and experience with databases in general.\n • Practical skills in software architecture and software design.\nAdvantages\n • Knowledge of Docker and Kubernetes.\n • Understanding the concept of horizontal scaling and what limitations it does impose on the application.\n • Strong knowledge of MongoDB, PostgreSQL.\n • Experience with CI/CD (we use GitLab CI).\n • Experience with test-driven development.\n • Experience with AWS.\n\n\nНазвание компании: Trucknet (https://trucknet.io/)\nКонтакты: @g000seman alex@trucknet.io\n\n—\n\n👉 Обсуждение вакансии в чате @javascript_jobs","markup":[{"type":"hashtag","offset":0,"length":9,"data":"вакансия"},{"type":"link","offset":175,"length":81,"data":"https://trucknet.io/en/open-positions/middle-senior-backend-typescript-developer/"},{"type":"link","offset":1641,"length":20,"data":"https://trucknet.io/"},{"type":"handle","offset":1673,"length":10,"data":"g000seman"},{"type":"link","offset":1684,"length":16,"data":"mailto:alex@trucknet.io"},{"type":"handle","offset":1735,"length":16,"data":"javascript_jobs"}],"date":"2020-06-21T15:12:01+00:00","link":"tg://resolve?domain=javascript_jobs_feed&post=16305","tags":[{"name":"javascript"},{"name":"dotnet"},{"name":"typescript"},{"name":"deployment"},{"name":"nodejs"},{"name":"mongodb"},{"name":"docker"},{"name":"kubernetes"},{"name":"postgresql"},{"name":"gitlab"},{"name":"amazon-web-services"}],"cities":[],"allowsRemote":true}},{"node":{"__typename":"Job","id":"17082351616-1001110946746","title":"Javascript разработчик","text":"#вакансия #front #react #typescript #москва #генетика #javascript #геномэксперт #барсгруп\n\nГород и адрес офиса: Москва, ст.м.Павелецкая\nФормат работы: Офис\nЗанятость: полная.\nЗарплатная вилка: от 200.000 до 300.000 рублей на руки. \nНазвание компании: Барс Груп\nhttps://bars.group/\nПроект Геном.Эксперт  - https://genome.expert/ \n\nТребуется senior/middle front-end разработчик в крупный медицинский проект.\n\nПредметная область: Генетика. \nТекущее состояние проекта: \nПроект запущен с прошлого года, сейчас добираем команду по потребностям проекта и новым направлениям, есть уникальная возможность принять участие в создании единого пространства для врачей-генетиков, лабораторных генетиков и биоинформатиков.\n\n✅Чем придется заниматься:\n\n- Писать микроприложения и компоненты на React (В данный момент есть большое приложение, его разбиваем на небольшие)\n- Пилить компоненты для ui-kit\n- Менять legacy components(polymer) на react components\n\n\n✔️Требования:\n\n-Front-end: React(Vue), typescript, Redux/Mobx/Vuex;\n-Межсервисное взаимодействие и API: REST/GraphQL/gRPC. \n\n✔️Инструменты для работы: \n\nGit, bitbucket, JIRA, docker, docker-compose. \n\n✔️Условия:\n\n-Оформление по ТК РФ;\n-Работа в офисе в пешей доступности от ст.м.Павелецкая (на данный момент удаленка);\n-График 5/2, гибкое начало рабочего дня ;\n-Белая зарплата, повышающаяся по системе аттестаций несколько раз в год;\n-ДМС;\n-Перспективы карьерного роста;\n-Корпоративное обучение (тренинги, мастер-классы);\n-Корпоративная библиотека;\n-Мы рассматриваем кандидатов с возможностью переезда в Москву;\n-Возможность предоставления бесплатного жилья на первый месяц. \n\nКонтакты для связи: \n\nemail: a.starchenko@bars.group \nTelegram: @alinavelcheva \n\nbars.group\nАО «БАРС Груп» - официальный сайт компании\nАО «БАРС Груп» - российский производитель ИТ-решений и экспертный центр в сфере государственной и корпоративной информатизации.\n\n—\n\n👉 Обсуждение вакансии в чате @javascript_jobs","markup":[{"type":"hashtag","offset":0,"length":9,"data":"вакансия"},{"type":"hashtag","offset":10,"length":6,"data":"front"},{"type":"hashtag","offset":17,"length":6,"data":"react"},{"type":"hashtag","offset":24,"length":11,"data":"typescript"},{"type":"hashtag","offset":36,"length":7,"data":"москва"},{"type":"hashtag","offset":44,"length":9,"data":"генетика"},{"type":"hashtag","offset":54,"length":11,"data":"javascript"},{"type":"hashtag","offset":66,"length":13,"data":"геномэксперт"},{"type":"hashtag","offset":80,"length":9,"data":"барсгруп"},{"type":"link","offset":261,"length":19,"data":"https://bars.group/"},{"type":"link","offset":305,"length":22,"data":"https://genome.expert/"},{"type":"link","offset":1648,"length":23,"data":"mailto:a.starchenko@bars.group"},{"type":"handle","offset":1683,"length":14,"data":"alinavelcheva"},{"type":"link","offset":1700,"length":10,"data":"http://bars.group"},{"type":"handle","offset":1916,"length":16,"data":"javascript_jobs"}],"date":"2020-06-19T18:52:18+00:00","link":"tg://resolve?domain=javascript_jobs_feed&post=16291","tags":[{"name":"javascript"},{"name":"reactjs"},{"name":"typescript"},{"name":"polymerjs"},{"name":"vuejs"},{"name":"redux"},{"name":"rest"},{"name":"graphql"},{"name":"git"},{"name":"docker"},{"name":"docker-compose"}],"cities":[{"code":"moscow"}],"allowsRemote":true}},{"node":{"__typename":"Job","id":"103309901824-1001089317451","title":"Qa engineer","text":"#Москва #вакансия #QA #manual  #python\n\nДолжность: QA Engineer \nКомпания: Andromeda Lab\nЗП: до 120 000 \nФормат работы: офис, гибкое начало дня\nЗанятость: полная\n\n\nКого мы ищем:\nЧеловека который готов заниматься ручным тестированием 80% времени и 20% времени - автоматизацией.Со временем доля автоматизации вырастет до 50%\n\nЗадачи:\n- Тестирование ERP-системы;\n- Введение документации для тестирования (Создание тест-кейсов, чек-листов и т.д.)\n- Тестирование мобильного приложения \n- Участие в автоматизации тестирования продуктов компании\n\nОбязанности:\n- Понимание жизненного цикла разработки продукта\n- Знание теории и видов тестирования,  умение вести тестовую документацию;\n- Умение локализовать баги и оформлять баг репорты\n- Понимание и умение применять техники тест-дизайна\n- Тестирование API\n- Опыт использование Postman\n- Понимание мобильного тестирования \n- Знание и умение пользования командной строкой UNIX\n- Знание SQL (простые запросы), Git\n- Умение использовать снифферы (Charles,Fiddler и т.д.)\n- Умение работать с Docker\n- Начальные знания Python либо желание выучить в ближайшее время\n\nПредлагаем:\n- белая зп (до 120 000, зависит от опыта);\n- уютный офис в Moscow City (сладости, печенки,кофе\\чай,PS4 и т.д.);\n- ДМС,  курсы английского, участие в конференциях. \n\nРезюме скидывать в лс.","markup":[{"type":"hashtag","offset":0,"length":7,"data":"Москва"},{"type":"hashtag","offset":8,"length":9,"data":"вакансия"},{"type":"hashtag","offset":18,"length":3,"data":"QA"},{"type":"hashtag","offset":22,"length":7,"data":"manual"},{"type":"hashtag","offset":31,"length":7,"data":"python"}],"date":"2020-06-19T15:36:21+00:00","link":"tg://resolve?domain=qa_jobs&post=98524","tags":[{"name":"qa"},{"name":"python"},{"name":"unix"},{"name":"sql"},{"name":"git"},{"name":"docker"}],"cities":[{"code":"moscow"}],"allowsRemote":false}},{"node":{"__typename":"Job","id":"26477592576-1001075660570","title":"Php разработчик","text":"🏡 При публикации вакансии необходимо указать город и станцию метро (или ближайший ориентир). Если возможна удалённая работа – надо об этом указать явно. \n\n🔵 В группе есть традиция - представляться при входе:\n\n▫️Какой у вас проект или где работаете?\n▫️В чём вы специалист?\n▫️Чем можете быть интересны или полезны сообществу?\n▫️Чем интересно сообщество вам? Что вы ищите?\n▫️Откуда вы?\n▫️Как узнали про группу?\nВ сообщении нужно указать тэг #whois\n\n🔵 Правила чата: \n\n🚫 Реклама запрещена\n🚫 Политика запрещена\n🚫 Флуд и оффтопик запрещён\n🚫 Нецензурная лексика запрещена\n\nЗа несоблюдение правил - одно предупреждение, далее следует бан.\n\nЗдесь публикуем вакансии (указывая тэг #вакансия) и запросы на поиск работы (указывая тэг #ищу) по направлению PHP, Laravel, Symfony, Yii и т.д. Формат любой: full-time, part-time, remote и разовые подработки. Также обмениваемся инсайдами и аналитикой по рынку труда.\n\nЗаметили нарушение? Обратитесь, пожалуйста, к модераторам:\n🔸@Ddonalld \n🔸@DenisIzmaylov\n\n🔵 Параллельно с этой группой развиваются другие группы с вакансиями, запросами на поиск работы и аналитикой по рынку труда в разных направлениях:\n\n🔸@qa_jobs – по всем видам тестирования, его автоматизации и т.д. \n🔸@mobile_jobs – по направлению iOS, Android, Xamarin и т.д.\n🔸@javascript_jobs – по JavaScript, React.js, Node.js, React Native и пр.\n🔸@devops_jobs – по направлению DevOps, Docker, CoreOS, Kubernetes и пр\n🔸@uiux_jobs –  по направлению дизайна UI, UX, Design Thinking, Style Guides, Mobile и т.д.\n🔸@products_jobs – по управлению продуктами, Growth Hacking, Cust Dev, Design Thinking, UX.\n\n🌎 Возможно, вам также будут интересны группы: @qa_ru, @android_ru, @ios_ru, @reactnative_ru, @react_js, @nodejs_ru, @angularjs_ru, @angular2, @devops_ru, @uiux_ru, @products_, @agile_ru, @selfdev_ru. Приятного общения!","markup":[{"type":"hashtag","offset":440,"length":6,"data":"whois"},{"type":"hashtag","offset":677,"length":9,"data":"вакансия"},{"type":"hashtag","offset":728,"length":4,"data":"ищу"},{"type":"handle","offset":968,"length":9,"data":"Ddonalld"},{"type":"handle","offset":981,"length":14,"data":"DenisIzmaylov"},{"type":"handle","offset":1147,"length":8,"data":"qa_jobs"},{"type":"handle","offset":1214,"length":12,"data":"mobile_jobs"},{"type":"handle","offset":1275,"length":16,"data":"javascript_jobs"},{"type":"handle","offset":1349,"length":12,"data":"devops_jobs"},{"type":"handle","offset":1421,"length":10,"data":"uiux_jobs"},{"type":"handle","offset":1513,"length":14,"data":"products_jobs"},{"type":"handle","offset":1651,"length":6,"data":"qa_ru"},{"type":"handle","offset":1659,"length":11,"data":"android_ru"},{"type":"handle","offset":1672,"length":7,"data":"ios_ru"},{"type":"handle","offset":1681,"length":15,"data":"reactnative_ru"},{"type":"handle","offset":1698,"length":9,"data":"react_js"},{"type":"handle","offset":1709,"length":10,"data":"nodejs_ru"},{"type":"handle","offset":1721,"length":13,"data":"angularjs_ru"},{"type":"handle","offset":1736,"length":9,"data":"angular2"},{"type":"handle","offset":1747,"length":10,"data":"devops_ru"},{"type":"handle","offset":1759,"length":8,"data":"uiux_ru"},{"type":"handle","offset":1769,"length":10,"data":"products_"},{"type":"handle","offset":1781,"length":9,"data":"agile_ru"},{"type":"handle","offset":1792,"length":11,"data":"selfdev_ru"}],"date":"2020-06-19T15:11:52+00:00","link":"tg://resolve?domain=php_jobs&post=25251","tags":[{"name":"php"},{"name":"laravel"},{"name":"symfony"},{"name":"yii"},{"name":"mobile"},{"name":"ios"},{"name":"android"},{"name":"xamarin"},{"name":"javascript"},{"name":"reactjs"},{"name":"nodejs"},{"name":"docker"},{"name":"kubernetes"},{"name":"angularjs"},{"name":"react-native"}],"cities":[],"allowsRemote":true}},{"node":{"__typename":"Job","id":"2233466880-1001134745498","title":"Devops инженер","text":"#вакансия #удаленка\nДолжность : Ведущий DevOps Инженер\nКомпания : https://www.bitorb.com/\nФормат работы: удаленная, на полный рабочий день\nЗарплата: 4-5k USD\nКто мы?\nBitOrb - биржа на азиатском рынке на стадии бета-тестирования.\n\nЧто делать?\n- Взять на себя инфраструктуру проекта;\n- Отвечать за мониторингы и алерты;\n- Работать вместе с девелоперами по обеспечению надежности и работы системы 24/7;\n- Автоматизировать все что можно (и что нельзя); \n- Настраивать железо и ОС для обеспечения low latency.\n\nЧто нужно в обязательном порядке?\n- Разговорный английский;\n- Опыт от 3 лет.\n\nЧто будет плюсом?\n- Опыт работы с JVM;\n- Опыт работы с Amazon;\n- Опыт работы над перфомансом (перфоманс тесты);\n- Также мы используем Ansible, Terraform, TeamCity, Docker - тоже не плохо бы было это уметь.\n\nПочему это может быть интересно?\n- Удаленная работа и гибкий график;\n- Сложная система, требовательная к перфомансу, секьюрити;\n- Можно брать задачи и развиваться в соседних областях;\n- Дружная и многонациональная команда;\n- Опыт работы в международной компании.\n\nПросьба присылать резюме на английском языке в телеграмм @svetlanaishmanova или на почту svet04ka17@mail.ru\n\n—\n\n👉 Обсуждение вакансии в чате @devops_jobs","markup":[{"type":"hashtag","offset":0,"length":9,"data":"вакансия"},{"type":"hashtag","offset":10,"length":9,"data":"удаленка"},{"type":"link","offset":66,"length":23,"data":"https://www.bitorb.com/"},{"type":"handle","offset":1112,"length":18,"data":"svetlanaishmanova"},{"type":"link","offset":1144,"length":18,"data":"mailto:svet04ka17@mail.ru"},{"type":"handle","offset":1197,"length":12,"data":"devops_jobs"}],"date":"2020-06-19T14:42:30+00:00","link":"tg://resolve?domain=devops_jobs_feed&post=2130","tags":[{"name":"jvm"},{"name":"ansible"},{"name":"docker"}],"cities":[],"allowsRemote":true}},{"node":{"__typename":"Job","id":"26452426752-1001075660570","title":"Php разработчик","text":"#вакансия #php #удаленка #разработчик #remote #symfony #freelance\nВакансия: PHP Developer (Symfony)\nПроект: trivago.com \nФормат работы: удаленная работа\nЗанятость: от 120 часов в месяц\nЗарплатная вилка: до 1500 руб/час (обсуждается)\nАнглийский: interview/meeting speaking\nНа один из самых больших порталов для путешествий trivago.com требуется PHP-разработчиков (Symfony), уровень миддл, сеньор.\nУдаленная работа, проектная занятость (проект 3 месяца, возможно дольше).\nНам важно, чтобы Вы уверенно работали с PHP Symfony, Docker, continuous Integration, имели опыт в API interface. Преимуществом будет опыт работы с порталами бронирования услуг, путешествий.\nОсновные задачи: развитие и поддержка функциональности портала, подробности на интервью.\nРабота под руководством технического директора, находящегося в Германии, поэтому ключевое требование – способность пройти интервью на английском языке и коммуницировать с англоговорящей командой.\nОриентировочная дата начала проекта с 1-ого июля, работа происходит по немецкому времени (с 9:00 по 18:00 по german time), т.е. с 10.00 до 19.00 московского времени. \nНа проекте отличная международная команда и комфортные условия. Оформление по договору.\nЕсли Вам это интересно, буду рада продолжить диалог и ответить на Ваши вопросы! \nКонтакт: Ирина, @ir1na_hr","markup":[{"type":"hashtag","offset":0,"length":9,"data":"вакансия"},{"type":"hashtag","offset":10,"length":4,"data":"php"},{"type":"hashtag","offset":15,"length":9,"data":"удаленка"},{"type":"hashtag","offset":25,"length":12,"data":"разработчик"},{"type":"hashtag","offset":38,"length":7,"data":"remote"},{"type":"hashtag","offset":46,"length":8,"data":"symfony"},{"type":"hashtag","offset":55,"length":10,"data":"freelance"},{"type":"link","offset":108,"length":11,"data":"http://trivago.com"},{"type":"link","offset":322,"length":11,"data":"http://trivago.com"},{"type":"handle","offset":1297,"length":9,"data":"ir1na_hr"}],"date":"2020-06-19T12:43:28+00:00","link":"tg://resolve?domain=php_jobs&post=25227","tags":[{"name":"php"},{"name":"symfony"},{"name":"docker"},{"name":"continuous-integration"}],"cities":[],"allowsRemote":true}}]}}},"context":{}}