{"hash":"f5f6bf98bd95e769321482904cbbd488f77922fd","data":{"records":{"id":"javascript","name":"javascript","belongsTo":{"totalCount":272,"pageInfo":{"totalPages":28,"currentPage":6},"edges":[{"node":{"__typename":"Job","id":"17271095296-1001110946746","title":"Js разработчик","text":"#вакансия #vacancy #удаленка #fullstack #nodejs #javascript #remote #remotly #удаленнаяработа #удалённая работа\n\nГород и адрес офиса:Санкт-Петербург,Москва,Ульяновск,Обнинск,Калуга,Казань,Харьков,Минск,Гомель-центр города+удалённое сотрудничество\nФормат работы:офис или удалёнка\nЗанятость: полная\nЗарплатная вилка:$1500-$2000\nОписание вакансии:\n\nИщем опытного и талантливого Full Stack девелопера в команду разработки ERP системы по продаже авиа запчастей и поддержания летной годности.\n\nСсылка на описание системы: http://www.erp.aero/\n\nЧто будет входить в задачи:\n\n🚀Бэкенд-разработка;\n🚀Фронт-енд-разработка;\n🚀Разработка архитектуры модулей приложения;\n🚀Написание документации.\n\nЧто мы ожидаем от кандидата:\n\n⚓️Опыт разработки с использованием Node.js;\n✈️Опыт разработки с использованием Vue.js;\n🚁Знание RabbitMQ;\n⛵️JavaScript (ES6);\n🛥БД MySQL;\n🛳Знание протокола WebSocket и принципов его работы;\n🚢Технический английский.\n\nБольшим плюсом будет:\n\n🛸Фреймворк Express.js;\n🏍Понимание работы с Amazon Web Services;\n🛵Оптимизация проекта под высокие нагрузки;\n🚠Понимание работы «облачных» приложений SaaS.\n\nЧто мы предлагаем:\n🇺🇸Работу в Американской компании\n🔥Возможность удалённой работы\n💵Официальное оформление- заключается договор с нашей ШК в Сан-Франциско по ИП\n☀️Гибкое начало рабочего дня\n💊ДМС\n🏖Оплачиваемый отпуск\n🎓75% компенсация стоимости курсов английского языка\nНазвание компании:  XIM, Ink. https://ximxim.com/\n\nОтклики и рекомендации направляйте, пожалуйста, сюда 👉 @veronikaborisovahr","markup":[{"type":"hashtag","offset":0,"length":9,"data":"вакансия"},{"type":"hashtag","offset":10,"length":8,"data":"vacancy"},{"type":"hashtag","offset":19,"length":9,"data":"удаленка"},{"type":"hashtag","offset":29,"length":10,"data":"fullstack"},{"type":"hashtag","offset":40,"length":7,"data":"nodejs"},{"type":"hashtag","offset":48,"length":11,"data":"javascript"},{"type":"hashtag","offset":60,"length":7,"data":"remote"},{"type":"hashtag","offset":68,"length":8,"data":"remotly"},{"type":"hashtag","offset":77,"length":16,"data":"удаленнаяработа"},{"type":"hashtag","offset":94,"length":10,"data":"удалённая"},{"type":"link","offset":516,"length":20,"data":"http://www.erp.aero/"},{"type":"link","offset":1417,"length":19,"data":"https://ximxim.com/"},{"type":"handle","offset":1494,"length":19,"data":"veronikaborisovahr"}],"date":"2020-06-30T16:10:03+00:00","link":"tg://resolve?domain=javascript_jobs_feed&post=16471","tags":[{"name":"javascript"},{"name":"nodejs"},{"name":"vuejs"},{"name":"rabbitmq"},{"name":"mysql"},{"name":"websocket"},{"name":"express"},{"name":"web"},{"name":"amazon-web-services"}],"cities":[{"code":"moscow"},{"code":"ulyanovsk"},{"code":"obninsk"},{"code":"kaluga"},{"code":"kazan"},{"code":"minsk"},{"code":"gomel"}],"allowsRemote":true}},{"node":{"__typename":"Job","id":"72386347008-1001054966032","title":"Mobile developer","text":"#вакансия  #android  #developer  #java  #senior  #remote  #иннополис         \n\nAndroid Developer\nCompany: NNG\nVacancy: Senior Android Developer\nLocation: Innopolis, Kazan\nWork format: #remote\nEmployment: full time\nS/p: from 180 to 200 k net\n\nAt NNG we develop the next generation of navigation and infotainment technology to improve driving experience, working with 7 of the top 10 car manufacturers worldwide. Headquartered in Hungary, we have a global footprint with coverage in almost 200 countries and 12 company offices worldwide. We have recently established a new development center in Kazan, tasked with delivering customized cutting-edge solutions to Russian vehicle manufacturers. In addition, the Kazan office will also develop independent, reusable software components for the global market, primarily frontend software (JavaScript, iOS and Android) and Java backend microservices.\n\nWhat would be your job? \n🔹Work on mobile and automotive navigation software development\n🔸Work on various projects with international clients from all parts of the world\n🔹Work in close cooperation with project managers and development teams both locally and in the Budapest office\n🔸Design, develop, code, test and debug; own your code\n                                                                                                                                                                                                                                If you have...\n🔹Experience developing, testing, and releasing Android apps\n🔸Knowledge of Java and Android UI development\n🔹 Experience collaborating with designers on usability and aesthetics of apps\n🔸 Strong experience in writing and maintaining testable code and unit tests\n🔹 Experience with git-based version control systems\n🔸Strong written and verbal communication skills in English\n🔹Experience working with global teams\n\nmoreover, you have any of the following: \n🔸Familiarity with JavaScript\n🔹 Familiarity with Flutter\n🔸Experience in Agile development, especially SaFE and SCRUM\n🔹Willingness to get familiar with new technologies\n🔸Experience in working as a team player\n\nWhat can we give you in return? \n🔹A job at a successful global company in Innopolis, where you can learn from the best\n🔸Serious professional challenges\n🔹A secure and well-paid job\n🔸The opportunity to develop the navigation software of the future in the present\n🔹 A youthful team\n🔸The opportunity of working abroad for several weeks\n\nContacts: hr.vkulneva@gmail.com, @viktoriyakulneva","markup":[{"type":"hashtag","offset":0,"length":9,"data":"вакансия"},{"type":"hashtag","offset":11,"length":8,"data":"android"},{"type":"hashtag","offset":21,"length":10,"data":"developer"},{"type":"hashtag","offset":33,"length":5,"data":"java"},{"type":"hashtag","offset":40,"length":7,"data":"senior"},{"type":"hashtag","offset":49,"length":7,"data":"remote"},{"type":"hashtag","offset":58,"length":10,"data":"иннополис"},{"type":"hashtag","offset":184,"length":7,"data":"remote"},{"type":"link","offset":2493,"length":21,"data":"mailto:hr.vkulneva@gmail.com"},{"type":"handle","offset":2516,"length":17,"data":"viktoriyakulneva"}],"date":"2020-06-30T16:09:08+00:00","link":"tg://resolve?domain=mobile_jobs&post=69033","tags":[{"name":"mobile"},{"name":"android"},{"name":"ios"},{"name":"java"},{"name":"dotnet"},{"name":"javascript"},{"name":"git"},{"name":"flutter"}],"cities":[{"code":"kazan"},{"code":"budapest"}],"allowsRemote":true}},{"node":{"__typename":"Job","id":"17270046720-1001110946746","title":"Js разработчик","text":"#вакансия #remote #office #fulltime #techlead #javascript #node.js\n\nКомпания: Quantori (https://quantori.com)\nЛокация: remote или офис в Санкт-Петербурге/Воронеже\nЗанятость: full-time\nЗП вилка: 2500-4000 USD\nКонтакты: @Ekaterina_Proskuriakova\n \nВсем привет!\n\nМеждународная компания Quantori ищет в команду Technical Lead (Node.js), описание позиции здесь\nhttps://career.quantori.com/technical-lead-nodejs\n\nМы занимаемся системной интеграцией и разработкой программного обеспечения в сфере Life Science и Healthcare.\nQuantori создает интеллектуальные решения, основанные на передовых научных достижениях, разработке алгоритмов и обработке данных. Такие решения помогают нашим клиентам более эффективно анализировать данные, разрабатывать новые лекарства и повышать качество заботы и ухода о пациентах.\nВ процессе работы вы будете использовать английский язык, так как наши заказчики - зарубежные компании.\n\nЕсли интересно, пишите, с удовольствием расскажу о вакансии и Quantori подробнее.\n@Ekaterina_Proskuriakova","markup":[{"type":"hashtag","offset":0,"length":9,"data":"вакансия"},{"type":"hashtag","offset":10,"length":7,"data":"remote"},{"type":"hashtag","offset":18,"length":7,"data":"office"},{"type":"hashtag","offset":26,"length":9,"data":"fulltime"},{"type":"hashtag","offset":36,"length":9,"data":"techlead"},{"type":"hashtag","offset":46,"length":11,"data":"javascript"},{"type":"hashtag","offset":58,"length":5,"data":"node"},{"type":"link","offset":88,"length":20,"data":"https://quantori.com"},{"type":"handle","offset":218,"length":24,"data":"Ekaterina_Proskuriakova"},{"type":"link","offset":355,"length":49,"data":"https://career.quantori.com/technical-lead-nodejs"},{"type":"handle","offset":988,"length":24,"data":"Ekaterina_Proskuriakova"}],"date":"2020-06-30T16:08:43+00:00","link":"tg://resolve?domain=javascript_jobs_feed&post=16470","tags":[{"name":"javascript"},{"name":"nodejs"}],"cities":[],"allowsRemote":true}},{"node":{"__typename":"Job","id":"17268998144-1001110946746","title":"Js разработчик","text":"#вакансия #frontend  #React #офис #remote #Мск #Пермь #senior #middle \n\nкомпания: КА: http://luckyhunter.io\nЗ/п: 120 000 - 200 000 рублей на руки (+премии) \nГород и адрес офиса: г. Москва (Павелецкая), г. Пермь\nФормат работы: офис или удаленка \nЗанятость: полная, fulltime\n\n🚀Ищем frontend разработчиков уровня Middle или Senior в крупную продуктовую компанию с возможностью удаленной работы!\n\nРебята разрабатывают интеллектуальную low-code платформу для создания бизнес-приложений и информационных систем в области управления рисками и оптимизации бизнес-процессов любой сложности. Компания не разрабатывает решения для одного заказчика или «под проект», они продвигают собственную продуктовую разработку и реализуют весь новый функционал в удобных инструментах, которые сразу же становятся доступными для всех заказчиков.\n\n❇️Всего в компании трудится около 200 человек, разработчики поделены на 3 группы разработки и работают в scrum командах по 5-6 человек. Коллеги ценят инициативность и активный вклад в общее дело, также поддерживают разумные инициативы по внедрению новых технологий и подходов в разработку.\n\nСтэк технологий: \nJavaScript, React, TypeScript, Webpack, Maven, MobX, HighchartsJS, Gitlab. \n\n✅Какой опыт необходим: \n- опыт коммерческой разработки на JS от 2 лет и больше;\n- опыт работы с React от 1 года;\n- опыт работы с TypeScript будет вашим преимуществом. \n\n✅Какие бонусы и перспективы получите вы: \n- возможность работать удаленно или в офисе (Москва, Пермь);\n- официальное оформление и полностью белую зп, которая зависит от ваших компетенций и ожиданий;\n- гибкое начало рабочего дня, отсутствие бюрократии;\n- работу в молодой и развивающейся команде, которая разрабатывает быстроразвивающийся, востребованный продукт;\n- релокационный пакет для переезжающих из других городов.\n\nКонтакты:\ne-mail: valeriya@luckyhunter.io\ntelegram: @sobolevavalery\nБуду рада ответить на все вопросы и комментарии по вакансии 😊","markup":[{"type":"hashtag","offset":0,"length":9,"data":"вакансия"},{"type":"hashtag","offset":10,"length":9,"data":"frontend"},{"type":"hashtag","offset":21,"length":6,"data":"React"},{"type":"hashtag","offset":28,"length":5,"data":"офис"},{"type":"hashtag","offset":34,"length":7,"data":"remote"},{"type":"hashtag","offset":42,"length":4,"data":"Мск"},{"type":"hashtag","offset":47,"length":6,"data":"Пермь"},{"type":"hashtag","offset":54,"length":7,"data":"senior"},{"type":"hashtag","offset":62,"length":7,"data":"middle"},{"type":"link","offset":86,"length":21,"data":"http://luckyhunter.io"},{"type":"link","offset":1820,"length":23,"data":"mailto:valeriya@luckyhunter.io"},{"type":"handle","offset":1854,"length":15,"data":"sobolevavalery"}],"date":"2020-06-30T16:06:49+00:00","link":"tg://resolve?domain=javascript_jobs_feed&post=16469","tags":[{"name":"javascript"},{"name":"reactjs"},{"name":"typescript"},{"name":"webpack"},{"name":"maven"},{"name":"gitlab"}],"cities":[{"code":"perm"},{"code":"moscow"}],"allowsRemote":true}},{"node":{"__typename":"Job","id":"17266900992-1001110946746","title":"Js разработчик","text":"Добрый день\n\n#вакансия #работа #parttime #JavaScript #vuejs #Frontend #Web\n\nГород и адрес офиса: Москва\nКомпания: Enlighted\nФормат работы: удаленка\nЗанятость: частичная, не менее 20-30 часов в неделю\nЗарплатная вилка: от 7-10$ в час либо сдельная\n\n\nМакеты в Sketch, задачи в Трекере\n\nСтек:\nVue2 + Vuex\n\nТребования:\nУмение верстать по макетам из Sketch/Figma\nПонимание принципа работы Vuex, уметь рассказать зачем он вообще нужен.\nvue+vuex, es6, vue-cli\nЗнание html, css3, BEM-методологии\nУмение работать с git, знание процесса git flow будет плюсом.\nОпыт интеграции Google/OSM maps будет плюсом.\nОпыт настройки CI/CD или хотя бы понимание как устроен процесс сборки Vue проекта.\n\nВам предстоит:\nРазрабатывать фронтенд-часть проекта по предоставленным макетам, никакого legacy, проект начинается с нуля.\nКомандная работа, утренние стендапы и еженедельные релизы.\n\nПисать мне в личку @westarakagrek или на почту ra@enlighted.ru","markup":[{"type":"hashtag","offset":13,"length":9,"data":"вакансия"},{"type":"hashtag","offset":23,"length":7,"data":"работа"},{"type":"hashtag","offset":31,"length":9,"data":"parttime"},{"type":"hashtag","offset":41,"length":11,"data":"JavaScript"},{"type":"hashtag","offset":53,"length":6,"data":"vuejs"},{"type":"hashtag","offset":60,"length":9,"data":"Frontend"},{"type":"hashtag","offset":70,"length":4,"data":"Web"},{"type":"handle","offset":882,"length":14,"data":"westarakagrek"},{"type":"link","offset":910,"length":15,"data":"mailto:ra@enlighted.ru"}],"date":"2020-06-30T16:06:01+00:00","link":"tg://resolve?domain=javascript_jobs_feed&post=16467","tags":[{"name":"javascript"},{"name":"vuejs"},{"name":"web"},{"name":"html"},{"name":"css"},{"name":"git"}],"cities":[{"code":"moscow"}],"allowsRemote":true}},{"node":{"__typename":"Job","id":"17264803840-1001110946746","title":"Js developer","text":"#вакансия #frontend #javascript #senior #vacancy #remote #удаленка #fulltime \n\n📍Компания: Datagrok (https://datagrok.ai)\n📍Локация: USA, PA\n📍Формат: удаленная работа, фуллтайм\n📍Вилка: 1000$ - 2500$\n\nКонтакт: @alexaprm \n\nDatagrok.ai is looking for a qualified frontend developer to join our strong team of engineers and data scientists. We are a startup developing a next-generation, no-compromises data analytics platform that will revolutionize the industry. Our proprietary technology lets us efficiently process datasets with tens of millions of rows in the browser, and interactively visualize them. We take pride in platform’s UX and performance, and take advantage of the technologies such as WebAssembly, WebGL, and browser-based multithreaded computations. We have a very well established development process that includes unit tests, continuous integration system, stress tests, integration tests, automated UI testing system, and various deployment options. Our technology stack is primarily based on Dart and Postgres, but also has multiple extension points with components developed in JavaScript, TypeScript, Python, R, Java, and C++. Initially you will be involved in developing new plugins in JavaScript, and extending platform’s core capabilities to enable that.\n\nThere is a lot of room to grow, and there will be many opportunities to assume more responsibilities and learn new domains, such as machine learning, artificial intelligence, or high-performance computing.\n\nThis is a remote position.\nIt would be great if you could send us a project you have developed on your own (github repository is ok), or point to another project you have participated in. \n\nResponsibilities\n* Front-end and back-end web development\n* Maintain and improve developer-facing platform’s JS API\n* Help our clients write JS applications on top of the Datagrok platform\n* Develop proof-of-concept applications\n* Integrate third-party JS libraries into the platform\n\nRequirements\n* At least two years of professional experience\n* JavaScript or TypeScript\n* At least one of (Angular, React, Vue)\n* Good written English, ability to communicate directly with our clients\n* Strong verbal and written communication skills\n* Ability to learn and apply new technologies\n\nNice to have\n* One of (Python, R, Java, C#, C++)\n* WebGL\n* WebAssembly\n* Dart\n* Machine learning and statistics\n* Prior exposure to life sciences is a plus\n\n—\n\n👉 Обсуждение вакансии в чате @javascript_jobs","markup":[{"type":"hashtag","offset":0,"length":9,"data":"вакансия"},{"type":"hashtag","offset":10,"length":9,"data":"frontend"},{"type":"hashtag","offset":20,"length":11,"data":"javascript"},{"type":"hashtag","offset":32,"length":7,"data":"senior"},{"type":"hashtag","offset":40,"length":8,"data":"vacancy"},{"type":"hashtag","offset":49,"length":7,"data":"remote"},{"type":"hashtag","offset":57,"length":9,"data":"удаленка"},{"type":"hashtag","offset":67,"length":9,"data":"fulltime"},{"type":"link","offset":101,"length":19,"data":"https://datagrok.ai"},{"type":"handle","offset":211,"length":9,"data":"alexaprm"},{"type":"link","offset":223,"length":11,"data":"http://Datagrok.ai"},{"type":"handle","offset":2452,"length":16,"data":"javascript_jobs"}],"date":"2020-06-30T12:32:35+00:00","link":"tg://resolve?domain=javascript_jobs_feed&post=16465","tags":[{"name":"javascript"},{"name":"deployment"},{"name":"dart"},{"name":"postgresql"},{"name":"typescript"},{"name":"python"},{"name":"java"},{"name":"github"},{"name":"web"},{"name":"angularjs"},{"name":"reactjs"},{"name":"vuejs"},{"name":"continuous-integration"},{"name":"machine-learning"}],"cities":[{"code":"nice"}],"allowsRemote":true}},{"node":{"__typename":"Job","id":"17263755264-1001110946746","title":"Javascript разработчик","text":"#react #typescript #middle #вакансия #Москва\n\nГород и адрес офиса: Москва, Проспект Мира 69/1\n\nФормат работы: офис\n\nЗанятость: полная\n\nЗарплатная вилка: от 180 000 до 230 000 рублей\n\nНазвание компании: ООО «Компания БКС»\n\nЧем предстоит заниматься: \n\n- Разрабатывать один из самых важных микросервисов компании - Дистанционное открытие брокерского счета (ДОБС). Каждый наш новый клиент создается с помощью этого сервиса;\n\n- Работать в кросс-функциональной команде - Backend(4 чел), Web, IOS, Android, QA по Scrum;\n\n- Принимать участие в развитии микро-фронтенд архитектуре.\n\nЧто для этого потребуется:\n\n- Опыт разработки на Javascript от 3-х лет;\n- Опыт работы с React и любым state management'ом (redux, mobx, effector и др.) от 2-х лет;\n- Опыт работы с Typescript;\n- Опыт в кроссбраузерной и адаптивной верстке;\n- Опыт в написании тестов: Unit, интеграционные;\n- Опыт работы с Docker;\n- Опыт работы по Scrum;\n\nЗа что предложим справедливую компенсацию:\n\n- Оформление в соответствии с ТК РФ, все по правилам порядочных работодателей;\n- Комфортный, современный офис в центре города (7 мин. от м. Проспект Мира);\n- Гибкой график;\n- 3 day-off в течение года;\n- Более чем конкурентную заработную плату;\n- Минимум бюрократии (особенно по меркам банковского сектора) и отсутствие дресс-кода;\n- ДМС по льготным условиям;\n- Спортивные команды по футболу, волейболу, баскетболу, настольному теннису;\n- Обучение английскому языку со скидкой прямо в офисе и дистанционно;\n- Льготное приобретение фитнеса в компании World Class;\n- Уютная недорогая столовая на территории Компании (завтраки, обеды).\n\nКонтакты:\nEmail: tupalovdd@bcs.msk.ru\nТелеграм: @dtupalov","markup":[{"type":"hashtag","offset":0,"length":6,"data":"react"},{"type":"hashtag","offset":7,"length":11,"data":"typescript"},{"type":"hashtag","offset":19,"length":7,"data":"middle"},{"type":"hashtag","offset":27,"length":9,"data":"вакансия"},{"type":"hashtag","offset":37,"length":7,"data":"Москва"},{"type":"link","offset":1605,"length":20,"data":"mailto:tupalovdd@bcs.msk.ru"},{"type":"handle","offset":1636,"length":9,"data":"dtupalov"}],"date":"2020-06-30T12:10:15+00:00","link":"tg://resolve?domain=javascript_jobs_feed&post=16464","tags":[{"name":"javascript"},{"name":"reactjs"},{"name":"typescript"},{"name":"web"},{"name":"ios"},{"name":"android"},{"name":"redux"},{"name":"docker"}],"cities":[{"code":"moscow"}],"allowsRemote":false}},{"node":{"__typename":"Job","id":"2267021312-1001134745498","title":"Devops инженер","text":"#вакансия #devops #удаленка\n\nНазвание компании: ZenCar\nГород и адрес офиса: г. Иннополис, ул.Университетская 7.\nФормат работы:  удалёнка, можно офис (обсуждаемо)\nЗанятость: частичная. около 4х ч/день.\nЗарплатная вилка: от 70 до 100 gross (обсуждаемо)\n\nНеобходим человек на сопровождение и поддержание проекта, который уже вышел в продакшн. \n\nОпыт работы на аналогичной позиции от 3х лет.\n\nЗадачи:\n- Автоматизация технологических процессов разработки, тестирования и развертывания ПО.\n- Мониторинг и контроль процессов\n- Разработка совместно с руководителем архитектуры и дизайна систем автоматизации\n- Контроль качества систем автоматизации\n\nТребования:\n\n- Иметь опыт проектирования и разработки инструментов автоматизации\n- Иметь опыт написания тестовых сценариев и автоматизированных тестов\n- Знать и уметь использовать Ansible, Chef, Docker, Docker Compose, Jenkins, Gitlab, Kubernetes, Jira и др. инструменты\n- Знать и иметь опыт с как минимум одним из ЯП: Node.js, Ruby, JavaScript, Golang, Java и др.\n- Опыт автоматизации развертывания и тестирования различных проектов, настройки CI/CD\n- Опыт развертывания и настройки различных программных систем мониторинга\n\n📩Откликаться: \nэл.п.: anna@sayhire.agency \nтелеграм: @anika0801\nКадровое агенство: sayhire.agency.\n\n—\n\n👉 Обсуждение вакансии в чате @devops_jobs","markup":[{"type":"hashtag","offset":0,"length":9,"data":"вакансия"},{"type":"hashtag","offset":10,"length":7,"data":"devops"},{"type":"hashtag","offset":18,"length":9,"data":"удаленка"},{"type":"link","offset":1191,"length":19,"data":"mailto:anna@sayhire.agency"},{"type":"handle","offset":1222,"length":10,"data":"anika0801"},{"type":"link","offset":1252,"length":14,"data":"http://sayhire.agency"},{"type":"handle","offset":1302,"length":12,"data":"devops_jobs"}],"date":"2020-06-30T12:01:52+00:00","link":"tg://resolve?domain=devops_jobs_feed&post=2162","tags":[{"name":"ansible"},{"name":"docker"},{"name":"jenkins"},{"name":"gitlab"},{"name":"kubernetes"},{"name":"nodejs"},{"name":"ruby"},{"name":"javascript"},{"name":"go"},{"name":"java"},{"name":"docker-compose"}],"cities":[],"allowsRemote":true}},{"node":{"__typename":"Job","id":"17262706688-1001110946746","title":"Js разработчик","text":"#вакансия #remote #frontend #fullstack #Angular #Node #middle #senior #remote\n\nФормат работы: remote \nЗанятость: fulltime\nВилка: 120 - 220k net \n\nНа протяжении 14 лет наша команда создает кастомные веб/мобильные приложения и дизайн. \nПриглашаем к сотрудничеству на удаленной постоянной основе опытного fullstack разработчика со знанием Angular 9 и Node.js\n\nПроект:  перспективный сервис для разработчиков\n\nЗадачи: fullstack разработка front-end и back-end на Angular 9 и Node.js \n\nНазвание компании: Softlight \n\nТребования: \nОпыт в разработке front-end на Angular от 2-х лет \nОпыт в разработке back-end на Node.js от 2-х лет \nработа в распределенной команде \nРазговорный английский - Intermediate и выше \n\nМы предлагаем:\n- Полностью удаленную работу\n- Участие в разработке зарубежных продуктов (USA)\n- Пятидневная рабочая неделя ( с 9-10 до 18-19 МСК), госпраздники - выходные\n- Оформление ИП или как самозанятый \n- Оплачиваемый отпуск и больничный \n- Работу в слаженной опытной команде \n\nКонтакты: @MikeHR или mzaharov@softlightllc.com","markup":[{"type":"hashtag","offset":0,"length":9,"data":"вакансия"},{"type":"hashtag","offset":10,"length":7,"data":"remote"},{"type":"hashtag","offset":18,"length":9,"data":"frontend"},{"type":"hashtag","offset":28,"length":10,"data":"fullstack"},{"type":"hashtag","offset":39,"length":8,"data":"Angular"},{"type":"hashtag","offset":48,"length":5,"data":"Node"},{"type":"hashtag","offset":54,"length":7,"data":"middle"},{"type":"hashtag","offset":62,"length":7,"data":"senior"},{"type":"hashtag","offset":70,"length":7,"data":"remote"},{"type":"handle","offset":999,"length":7,"data":"MikeHR"},{"type":"link","offset":1011,"length":25,"data":"mailto:mzaharov@softlightllc.com"}],"date":"2020-06-30T11:58:26+00:00","link":"tg://resolve?domain=javascript_jobs_feed&post=16463","tags":[{"name":"javascript"},{"name":"angularjs"},{"name":"nodejs"},{"name":"dotnet"}],"cities":[],"allowsRemote":true}},{"node":{"__typename":"Job","id":"17261658112-1001110946746","title":"Js разработчик","text":"#вакансия #remote #node.js #graphql #typescript\nГород и адрес офиса: Atlanta, GA, USA\nФормат работы: удаленка\nЗанятость: полная\nЗарплатная вилка: от $5'000 до $10'000/мес на руки + %\nНазвание компании: Kriasoft (https://github.com/kriasoft)\nКонтакты: @koistya\n \nИщем талантливого sr. level веб-разработчика в стартап ($1.5M посевных инвестиций) для разработки современного конструктора веб-сайтов похожий на Framer.com, который будет конкурировать с Webflow, Squarespace, Tilda.\n\n👉 Требования\n\n- Опыт работы с React.js, Node.js/GraphQL, PostgreSQL, TypeScript\n- Опыт разработки веб-приложений в роли основного контрибьютора\n- Умение писать грамотный, продуманный код и решать сложные задачи\n- Хороший разговорный английский","markup":[{"type":"hashtag","offset":0,"length":9,"data":"вакансия"},{"type":"hashtag","offset":10,"length":7,"data":"remote"},{"type":"hashtag","offset":18,"length":5,"data":"node"},{"type":"hashtag","offset":27,"length":8,"data":"graphql"},{"type":"hashtag","offset":36,"length":11,"data":"typescript"},{"type":"link","offset":212,"length":27,"data":"https://github.com/kriasoft"},{"type":"handle","offset":251,"length":8,"data":"koistya"},{"type":"link","offset":408,"length":10,"data":"http://Framer.com"}],"date":"2020-06-30T11:57:59+00:00","link":"tg://resolve?domain=javascript_jobs_feed&post=16462","tags":[{"name":"javascript"},{"name":"nodejs"},{"name":"graphql"},{"name":"typescript"},{"name":"github"},{"name":"reactjs"},{"name":"postgresql"}],"cities":[{"code":"atlanta"}],"allowsRemote":true}}]}}},"context":{}}