{"hash":"f34fd2c444a074f4e0e67d525015a008ef8e766f","data":{"records":{"id":"webpack","name":"webpack","belongsTo":{"totalCount":17,"pageInfo":{"totalPages":2,"currentPage":2},"edges":[{"node":{"__typename":"Job","id":"16209936384-1001110946746","title":"Js разработчик","text":"#вакансия #javascript #nodejs #typescript #frontend #middle\n\nКомпания: #Mетрквадратный https://m2.ru\nЛокация: #москва м.Белорусская\nФормат работы: офис\nЗанятость: полная\nЗ/п: 200к - 260к руб. на руки\nКонтакты: @maxdmitrov\n\nЭто платформа, на которой физические лица смогут в режиме одного окна подобрать объект недвижимости, оформить на него ипотеку, произвести электронную регистрацию, сделать безопасный расчет не посещая банки и воспользоваться дополнительными услугами (страхование, дизайн, ремонт). \n\nЧем предстоит заниматься:\n\n•  разрабатывать один из продуктов жилищной экосистемы;\n•  прорабатывать задачи с начального этапа (декомпозиция, проработка архитектуры, демо с владельцем продукта);\n•  проводить код ревью;\n•  покрывать код unit тестами, помогать тестировщикам в написании e2e тестов;\n•  оптимизировать рендеринг и скорость загрузки страниц;\n•  разрабатывать продуктовые компоненты, используя общие UI библиотеки, и помогать в развитии этих библиотек.\n\nЧего мы ждем:\n\n• Javascript(ES6);\n• React + MobX/Redux;\n• HTML;\n• CSS;\n• Опыт кроссбраузерной верстки.\n\nБудет плюсом:\n\n• TypeScript;\n• Знание протокола HTTP/HTTPS, websockets, опыт работы с REST API;\n• Опыт работы с react native;\n• Опыт в бекэнде на различных языках программирования;\n• Опыт профилирования, оптимизации и рефакторинга кода;\n• Опыт написания тестов.\n\nМы используем: \n\n•  TypeScript + React + MobX + Gatsby;\n•  NestJS + gRPC + ProtoBuf (мидл-слой, управляющий UI и обращающийся к API бэк-энда);\n•  Micro Frontend Service;\n•  GitLab (CI/CD);\n•  Yarn + Lerna;\n•  Webpack/Rollup.\n\nМы предлагаем: \n\n•  Современный стек технологий;\n•  Возможность влиять на архитектуру и сразу видеть результат своей работы;\n•  Белая конкурентная ЗП, официальное оформление;\n•  Гибкий график работы, возможность выбора рабочего оборудования;\n•  ДМС, компенсация фитнеса, льготная ставка по ипотеке;\n•  Комфортный офис в БЦ «Белая площадь» (минута от метро): лаундж-зоны, бариста, фрукты.","markup":[{"type":"hashtag","offset":0,"length":9,"data":"вакансия"},{"type":"hashtag","offset":10,"length":11,"data":"javascript"},{"type":"hashtag","offset":22,"length":7,"data":"nodejs"},{"type":"hashtag","offset":30,"length":11,"data":"typescript"},{"type":"hashtag","offset":42,"length":9,"data":"frontend"},{"type":"hashtag","offset":52,"length":7,"data":"middle"},{"type":"hashtag","offset":71,"length":15,"data":"Mетрквадратный"},{"type":"link","offset":87,"length":13,"data":"https://m2.ru"},{"type":"hashtag","offset":110,"length":7,"data":"москва"},{"type":"handle","offset":210,"length":11,"data":"maxdmitrov"}],"date":"2020-04-07T18:36:46+00:00","link":"tg://resolve?domain=javascript_jobs_feed&post=15459","tags":[{"name":"javascript"},{"name":"nodejs"},{"name":"typescript"},{"name":"reactjs"},{"name":"redux"},{"name":"html"},{"name":"css"},{"name":"rest"},{"name":"gitlab"},{"name":"webpack"},{"name":"react-native"}],"cities":[{"code":"moscow"}],"allowsRemote":false}},{"node":{"__typename":"Job","id":"16197353472-1001110946746","title":"Javascript разработчик","text":"#вакансия #angular #react #москва #релокация\n\nГород: Москва (Сокольники или Павелецкая), есть релокационный пакет\n\nФормат работы: офис, возможна удаленка после шести месяцев работы\n\nЗанятость: полная\n\nВилка: 180-250 т.р. на руки\n\nИщем коллегу для создания и развития современного сервиса дистанционных банковских услуг.\n\n• SPA на Angular 8\n\n• Пишем на TypeScript, ES6 Modules, SASS\n\n• Собираем в Webpack\n\n• Храним в Git\n\nМы также готовы рассмотреть кандидатов, которые имеют опыт работы на React, но хотели бы перейти на Angular.\n\nНазвание компании: ПСБ\nhttps://www.psbank.ru/\nhttps://hh.ru/vacancy/33110730\n\nКонтакты: @max_gusev\ngusevms@psbank.ru","markup":[{"type":"hashtag","offset":0,"length":9,"data":"вакансия"},{"type":"hashtag","offset":10,"length":8,"data":"angular"},{"type":"hashtag","offset":19,"length":6,"data":"react"},{"type":"hashtag","offset":26,"length":7,"data":"москва"},{"type":"hashtag","offset":34,"length":10,"data":"релокация"},{"type":"link","offset":554,"length":22,"data":"https://www.psbank.ru/"},{"type":"link","offset":577,"length":30,"data":"https://hh.ru/vacancy/33110730"},{"type":"handle","offset":619,"length":10,"data":"max_gusev"},{"type":"link","offset":630,"length":17,"data":"mailto:gusevms@psbank.ru"}],"date":"2020-04-06T14:42:01+00:00","link":"tg://resolve?domain=javascript_jobs_feed&post=15447","tags":[{"name":"javascript"},{"name":"angularjs"},{"name":"reactjs"},{"name":"typescript"},{"name":"sass"},{"name":"webpack"},{"name":"git"}],"cities":[{"code":"moscow"}],"allowsRemote":true}},{"node":{"__typename":"Job","id":"16193159168-1001110946746","title":"Js разработчик","text":"#вакансия #javascript #nodejs #typescript #frontend #middle\n\nКомпания: #Mетрквадратный https://m2.ru\nЛокация: #москва м.Белорусская\nФормат работы: офис\nЗанятость: полная\nЗ/п: 200к - 260к руб. на руки\nКонтакты: @maxdmitrov\n\nЭто платформа, на которой физические лица смогут в режиме одного окна подобрать объект недвижимости, оформить на него ипотеку, произвести электронную регистрацию, сделать безопасный расчет не посещая банки и воспользоваться дополнительными услугами (страхование, дизайн, ремонт). \n\nЧем предстоит заниматься:\n\n•  разрабатывать один из инновационных продуктов жилищной экосистемы;\n•  прорабатывать задачи с начального этапа (декомпозиция, проработка архитектуры, демо с владельцем продукта);\n•  проводить код ревью;\n•  покрывать код unit тестами, помогать тестировщикам в написании e2e тестов;\n•  оптимизировать рендеринг и скорость загрузки страниц;\n•  разрабатывать продуктовые компоненты, используя общие UI библиотеки, и помогать в развитии этих библиотек.\n\nЧего мы ждем:\n\n• Javascript(ES6);\n• React + MobX/Redux;\n• HTML;\n• CSS;\n• Опыт кроссбраузерной верстки.\n\nБудет плюсом:\n\n• TypeScript;\n• Знание протокола HTTP/HTTPS, websockets, опыт работы с REST API;\n• Опыт работы с react native;\n• Опыт в бекэнде на различных языках программирования;\n• Опыт профилирования, оптимизации и рефакторинга кода;\n• Опыт написания тестов.\n\nМы используем: \n\n•  TypeScript + React + MobX + Gatsby;\n•  NestJS + gRPC + ProtoBuf (мидл-слой, управляющий UI и обращающийся к API бэк-энда);\n•  Micro Frontend Service;\n•  GitLab (CI/CD);\n•  Yarn + Lerna;\n•  Webpack/Rollup.\n\nМы предлагаем: \n\n•  Современный стек технологий;\n•  Возможность влиять на архитектуру и сразу видеть результат своей работы;\n•  Белая конкурентная ЗП, официальное оформление;\n•  Гибкий график работы, возможность выбора рабочего оборудования;\n•  ДМС, компенсация фитнеса, льготная ставка по ипотеке;\n•  Комфортный офис в БЦ «Белая площадь» (минута от метро): лаундж-зоны, бариста, фрукты.\n\n—\n\n👉 Обсуждение вакансии в чате @javascript_jobs","markup":[{"type":"hashtag","offset":0,"length":9,"data":"вакансия"},{"type":"hashtag","offset":10,"length":11,"data":"javascript"},{"type":"hashtag","offset":22,"length":7,"data":"nodejs"},{"type":"hashtag","offset":30,"length":11,"data":"typescript"},{"type":"hashtag","offset":42,"length":9,"data":"frontend"},{"type":"hashtag","offset":52,"length":7,"data":"middle"},{"type":"hashtag","offset":71,"length":15,"data":"Mетрквадратный"},{"type":"link","offset":87,"length":13,"data":"https://m2.ru"},{"type":"hashtag","offset":110,"length":7,"data":"москва"},{"type":"handle","offset":210,"length":11,"data":"maxdmitrov"},{"type":"handle","offset":1998,"length":16,"data":"javascript_jobs"}],"date":"2020-04-06T12:22:15+00:00","link":"tg://resolve?domain=javascript_jobs_feed&post=15443","tags":[{"name":"javascript"},{"name":"nodejs"},{"name":"typescript"},{"name":"reactjs"},{"name":"redux"},{"name":"html"},{"name":"css"},{"name":"rest"},{"name":"gitlab"},{"name":"webpack"},{"name":"react-native"}],"cities":[{"code":"moscow"}],"allowsRemote":false}},{"node":{"__typename":"Job","id":"16190013440-1001110946746","title":"Js разработчик","text":"#Вакансия #Удаленка #Fulltime #JS #React #Redux #job \n\nВсем привет 👋\n\nНахожусь в поиске Frontend разработчика на React.JS для компании «Binance».\n\nО компании: binance.com\nНазвание компании: Binance Exchange - ведущая крипто-биржа по объему торгов и количеству пользователей, с клиентами в более чем 180 странах и регионах.\n\nФормат работы: fulltime, remote\nЗарплатная вилка: от 3000 до 3500$ (выдаётся в криптовалюте).\n\nЗадачи:\n• Внедрение новых функций, ориентированных на пользователя, в продуктах Binance, которые ежедневно используют огромное количество PV;\n• Написание клиентского кода для создания сверхбыстрых, простых в использовании веб-приложений, которые включают веб-сайт для настольных и мобильных браузеров и гибридные страницы в приложениях;\n• Оптимизация веб-приложений для максимизации скорости и масштабирования;\n• Создание библиотек и сред, поддерживающих сложные веб-приложения, ускоряющих эффективность разработки и улучшающих качество кода.\n\nОт вас:\n• 3-5+ лет на разработку производственного кода JavaScript и глубокое знание React.JS;\n• Понимание шаблонов управления состоянием, таких как Redux, Flux или аналогичных;\n• Опыт разработки адаптивных веб-сайтов для различных клиентов, от мощных desktop компьютеров до небольших мобильных устройств;\n• Опыт работы с интерфейсными технологиями (styled system, webpack, etc);\n• Cвободное владение английским языком.\n\nОт нас: \n• График работы желательно с 9:00 (нужно будет общаться с командой из Сингапура);\n• Большие возможности карьерного роста в растущей компании;\n• Возможность переезда и международных переводов;\n• Делать что-то значимое. Станьте частью будущего финансовых технологий и первой в отрасли компании.\n\nБолее подробно готов ответить в ЛС: @dobrkakbobr8","markup":[{"type":"hashtag","offset":0,"length":9,"data":"Вакансия"},{"type":"hashtag","offset":10,"length":9,"data":"Удаленка"},{"type":"hashtag","offset":20,"length":9,"data":"Fulltime"},{"type":"hashtag","offset":30,"length":3,"data":"JS"},{"type":"hashtag","offset":34,"length":6,"data":"React"},{"type":"hashtag","offset":41,"length":6,"data":"Redux"},{"type":"hashtag","offset":48,"length":4,"data":"job"},{"type":"link","offset":160,"length":11,"data":"http://binance.com"},{"type":"handle","offset":1724,"length":13,"data":"dobrkakbobr8"}],"date":"2020-04-06T11:19:51+00:00","link":"tg://resolve?domain=javascript_jobs_feed&post=15440","tags":[{"name":"javascript"},{"name":"reactjs"},{"name":"redux"},{"name":"webpack"},{"name":"react-redux"}],"cities":[],"allowsRemote":true}},{"node":{"__typename":"Job","id":"16186867712-1001110946746","title":"Js разработчик","text":"#frontend #вакансия #Москва #fulltime #middle #senior #react #работа\nГород и адрес офиса: Москва, между метро Нагатинская и Тульская, мцк Верхние котлы \nФормат работы: офис\nЗанятость:полная\nОплата: 150- 250 Net\nОписание вакансии:\n💥Команда Product Catalog  ищет сильного Frontend-разработчика!🙌\n💥Проект Product Catalog-это облачное решение, которое позволяет бизнесу вести все свои продукты (карты, вклады, продукты партнеров и и.п) в едином месте, гибко управлять всеми элементами 4P (product,price, promotion, place) и мгновенно выводить все изменения на рынок. Архитектура системы состоит из 11 модулей, половина из них в Production, другая половина требует проектирования и разработки. Продукт активно развивается, поэтому мы хотим усилить нашу команду. От нас вы получите опыт и развитие компетенций, амбициозные задачи, карьерный рост и открытость к инновациям!\n💥Стек: React JS, react-redux, webPack, CSS, HTML, Java, Spring, Git, Maven.\n💥 Процесс разработки : Scrum, Jira, Gitfliw, Devops до Production (переход на OpenShift)\n💥-Оформление ТК РФ;\n     -ДМС;\n     - Белая заработная плата (оклад + годовая премия);\n     -Возможность обучения за счет компании;\n     -   Льготное кредитование;\n      -Бесплатный тренажерный зал на территории офиса;\n       - корпоративная жизнь и спортивные мероприятия;\n       -возможность карьерного роста.\nКомпания: СберТех\nКонтакты: @TaliaHR\n\n—","markup":[{"type":"hashtag","offset":0,"length":9,"data":"frontend"},{"type":"hashtag","offset":10,"length":9,"data":"вакансия"},{"type":"hashtag","offset":20,"length":7,"data":"Москва"},{"type":"hashtag","offset":28,"length":9,"data":"fulltime"},{"type":"hashtag","offset":38,"length":7,"data":"middle"},{"type":"hashtag","offset":46,"length":7,"data":"senior"},{"type":"hashtag","offset":54,"length":6,"data":"react"},{"type":"hashtag","offset":61,"length":7,"data":"работа"},{"type":"handle","offset":1378,"length":8,"data":"TaliaHR"}],"date":"2020-04-06T09:46:48+00:00","link":"tg://resolve?domain=javascript_jobs_feed&post=15437","tags":[{"name":"javascript"},{"name":"reactjs"},{"name":"dotnet"},{"name":"redux"},{"name":"webpack"},{"name":"css"},{"name":"html"},{"name":"java"},{"name":"spring"},{"name":"git"},{"name":"maven"},{"name":"react-redux"}],"cities":[{"code":"moscow"}],"allowsRemote":false}},{"node":{"__typename":"Job","id":"16184770560-1001110946746","title":"Js разработчик","text":"#вакансия #удаленка #react #frontend                                                                                                                                                       Локация: удаленка                                                                                                                                                                                Занятость: полная                                                                                                                                                                     Зарплата: от 150 тыс. до 300 тыс. рублей (net).                                                                                                          Компания Skybonds.                                                                                                                          Мы — команда Skybonds. Используя современные технологии и стандарты мы создаем продукт для анализа рынка ценных бумаг и эффективного управления портфелем.\nМы стремимся ежедневно добавлять в наш продукт значимый функционал, выполняя строгие требования к его качеству и быстродействию.\n\nСейчас в нашу команду нужен сильный  FRONTEND-РАЗРАБОТЧИК уровня middle +   и выше, который будет:\n•  брать на себя ответственность за часть продукта, в рамках общих приоритетов команды;\n•  привносить в продукт ценный для клиента результат;\n•  в достижении результата, понимать как техническое решение, так и пользовательские сценарии;\n•  планировать свою работу и прозрачно отчитываться по ней;\n•  взаимодействовать с командой дизайнеров и серверных разработчиков;\n•  уметь разбираться в чужом коде;\n•  решать проблемы, о которых сообщили наши клиенты;\n•  изучать новые технологии и внедрять их в проект с целью его улучшения;\n•  принимать совместные командой решения сложных проблем.\nМинимальные требования:\n•  понимание принципов функционального программирования и ООП;\n•  опыт разработки на JS (React)  от 3-х лет;\n•  знание возможностей и синтаксиса последних версий ECMAScript;\n•  глубокое понимание React.js и его основных принципов;\n•  понимание SPA на основе React/Redux;\n•  понимание методов и знание инструментов тестирования (unit, e2e tests);\n•  опыт работы с системой контроля версий Git;\n•  опыт работы с средствами разработки, такими как Babel, Webpack, ESlint, npm;\n•  отличные навыки в адаптивной верстке.\nПлюсом будет:\n•  опыт создания интерактивных визуализаций при помощи D3.js;\n•  опыт создания высоконагруженных веб-приложений и оптимизации производительности;\n•  практика тестирования собственного кода и применения TDD и/или BDD;\n•  опыт проектирования и дизайна интерфейсов;\n•  стремление соблюдать принципы SOLID, KISS и YAGNI.\nМы предлагаем:\n•  интересные задачи, новые знания;\n•  работу в неравнодушной команде;\n•  полностью \"белую\" заработную плату, официальное трудоустройство;\n•  оклад от 150 тыс. рублей (net) (сильно зависит от квалификации, потолка нет);\n•  ДМС;\n•  график работы 5/2, полностью удаленную работу.\n89131105342 (telegram)\npolina_hr@mail.ru","markup":[{"type":"hashtag","offset":0,"length":9,"data":"вакансия"},{"type":"hashtag","offset":10,"length":9,"data":"удаленка"},{"type":"hashtag","offset":20,"length":6,"data":"react"},{"type":"hashtag","offset":27,"length":9,"data":"frontend"},{"type":"link","offset":2988,"length":11,"data":"tel:89131105342"},{"type":"link","offset":3011,"length":17,"data":"mailto:polina_hr@mail.ru"}],"date":"2020-04-05T14:32:50+00:00","link":"tg://resolve?domain=javascript_jobs_feed&post=15435","tags":[{"name":"javascript"},{"name":"reactjs"},{"name":"dotnet"},{"name":"redux"},{"name":"git"},{"name":"webpack"},{"name":"npm"},{"name":"react-redux"}],"cities":[],"allowsRemote":true}},{"node":{"__typename":"Job","id":"24183308288-1001075660570","title":"Php разработчик","text":"#вакансия #fullstack #PHP #Javascript #middle #fulltime #офис #спб\nРасположение: Санкт-Петербург, м. Балтийская \nФормат работы, занятость: офис, полная, гибкое начало дня\nЗП: до 150 000 руб.\n\nО компании: Мы - фабрика мебели «THE IDEA» (www.theidea.ru), с 2014 года занимаемся производством и продажей уникальных предметов домашнего интерьера, радующих своих обладателей каждый день. Сейчас мы в поиске своего fullstack разработчика, который вместе с нашей командой поможет выполнить множество интересных задач, первостепенные из которых: поддержание и развитие нашего сайта, написание тестов, совершенствование системы разработки.\n\nНаш стек: PHP 5.6/7.0, MySQL, HTML/CSS/JavaScript, jQuery, Lodash, Scss, Autoprefixer, PostCSS, Bootstrap 4, Webpack/Gulp. \n\nПомимо этого, наш сайт создан на PrestaShop, что позволит Вам получить/прокачать навыки работы с  фреймворком Symfony.\nВ свою очередь наш CTO готов вкладыватрься в сотрудников и обеспечивать им профессиональный и карьерный рост :)\n\nТребования:\n- Опыт разработки на PHP от 2-х лет c одни из фреймворков: Laravel/Yii2, Symfony;\n- Знание MySQL;\n- Опыт работы с jQuery.\n\nУсловия:\n- Официальное трудоустройство;\n- Работа напрямую с собственником бизнеса, возможность реализации собственных идей; \n- Дружественная рабочая среда с возможностью карьерного и профессионального роста;\n\nКонтакты:\ne-mail: the.idea.hr@gmail.com\ntelegram: @marina_ilmanova\nПишите, если интересно, буду рада ответить на все вопросы 😊","markup":[{"type":"hashtag","offset":0,"length":9,"data":"вакансия"},{"type":"hashtag","offset":10,"length":10,"data":"fullstack"},{"type":"hashtag","offset":21,"length":4,"data":"PHP"},{"type":"hashtag","offset":26,"length":11,"data":"Javascript"},{"type":"hashtag","offset":38,"length":7,"data":"middle"},{"type":"hashtag","offset":46,"length":9,"data":"fulltime"},{"type":"hashtag","offset":56,"length":5,"data":"офис"},{"type":"hashtag","offset":62,"length":4,"data":"спб"},{"type":"link","offset":236,"length":14,"data":"http://www.theidea.ru"},{"type":"link","offset":1351,"length":21,"data":"mailto:the.idea.hr@gmail.com"},{"type":"handle","offset":1383,"length":16,"data":"marina_ilmanova"}],"date":"2020-03-31T13:43:56+00:00","link":"tg://resolve?domain=php_jobs&post=23063","tags":[{"name":"php"},{"name":"javascript"},{"name":"mysql"},{"name":"html"},{"name":"css"},{"name":"jquery"},{"name":"bootstrap"},{"name":"webpack"},{"name":"gulp"},{"name":"symfony"},{"name":"laravel"},{"name":"yii"}],"cities":[],"allowsRemote":false}}]}}},"context":{}}