{"hash":"f5f6bf98bd95e769321482904cbbd488f77922fd","data":{"records":{"id":"python","name":"python","belongsTo":{"totalCount":130,"pageInfo":{"totalPages":13,"currentPage":5},"edges":[{"node":{"__typename":"Job","id":"103698923520-1001089317451","title":"Qa инженер","text":"#вакансия #fulltime #офис #москва\n#manual\n\nНаша компания (ООО Солид Дев) находится в поиске ручного тестировщика (но с желанием развиваться в автоматизации) - уровень от middle, который будет помогать нам совершенствовать наши продукты и сервисы! \n\nЕсли ты:\n- Тестишь web-приложения уже не один год \n- Имеешь базовые знания SQL и опыт написания автотестов на python\n- Хочешь работать в команде профессионалов и развиваться\n\nТо пиши мне в личку или присылай резюме на почту - soliddevhr@gmail.com расскажу подробнее про функционал и про наши плюшки)\n\nСтанция м.Бабушкинская\nВилка: от 120 на руки","markup":[{"type":"hashtag","offset":0,"length":9,"data":"вакансия"},{"type":"hashtag","offset":10,"length":9,"data":"fulltime"},{"type":"hashtag","offset":20,"length":5,"data":"офис"},{"type":"hashtag","offset":26,"length":7,"data":"москва"},{"type":"hashtag","offset":34,"length":7,"data":"manual"},{"type":"bold","offset":249,"length":8,"data":""},{"type":"bold","offset":424,"length":19,"data":""},{"type":"link","offset":475,"length":20,"data":"mailto:soliddevhr@gmail.com"},{"type":"bold","offset":550,"length":7,"data":""},{"type":"bold","offset":573,"length":5,"data":""}],"date":"2020-06-25T09:51:45+00:00","link":"tg://resolve?domain=qa_jobs&post=98895","tags":[{"name":"qa"},{"name":"web"},{"name":"sql"},{"name":"python"}],"cities":[{"code":"moscow"}],"allowsRemote":false}},{"node":{"__typename":"Job","id":"103690534912-1001089317451","title":"Qa engineer","text":"#Москва #вакансия #QA #manual  #python\n\nДолжность: QA Engineer \nКомпания: Andromeda Lab\nЗП: до 120 000 \nФормат работы: офис, гибкое начало дня\nЗанятость: полная\n\n\nКого мы ищем:\nЧеловека который готов заниматься ручным тестированием 80% времени и 20% времени - автоматизацией. Со временем доля автоматизации вырастет до 50%. \nЕсли у вас не хватает каких-то скиллов - готовы учить и помогать развиваться. Мы очень ценим проактивность и готовность менять все вокруг себя. \n\nЗадачи:\n- Тестирование ERP-системы (состоит из более чем 40 приложений, объединенные в одну экосистему)\n- Введение документации для тестирования (Создание тест-кейсов, чек-листов и т.д.)\n- Тестирование мобильного приложения \n- Тестирование API\n- Участие в автоматизации тестирования продуктов компании\n\nОбязанности:\n- Понимание жизненного цикла разработки продукта\n- Знание теории и видов тестирования,  умение вести тестовую документацию;\n- Умение локализовать баги и оформлять баг репорты\n- Понимание и умение применять техники тест-дизайна\n- Тестирование API\n- Опыт использование Postman\n- Понимание мобильного тестирования \n- Знание и умение пользования командной строкой UNIX\n- Знание SQL (простые запросы), Git\n- Умение использовать снифферы (Charles,Fiddler и т.д.)\n- Понимание как работать с Docker\n- Начальные знания Python либо желание выучить в ближайшее время\n\nПредлагаем:\n- белая зп (до 120 000, зависит от опыта);\n- уютный офис в Moscow City (сладости, печенки,кофе\\чай,PS4 и т.д.);\n- ДМС,  курсы английского, участие в конференциях. \n\nРезюме скидывать в лс.","markup":[{"type":"hashtag","offset":0,"length":7,"data":"Москва"},{"type":"hashtag","offset":8,"length":9,"data":"вакансия"},{"type":"hashtag","offset":18,"length":3,"data":"QA"},{"type":"hashtag","offset":22,"length":7,"data":"manual"},{"type":"hashtag","offset":31,"length":7,"data":"python"}],"date":"2020-06-25T08:22:40+00:00","link":"tg://resolve?domain=qa_jobs&post=98887","tags":[{"name":"qa"},{"name":"python"},{"name":"unix"},{"name":"sql"},{"name":"git"},{"name":"docker"}],"cities":[{"code":"moscow"}],"allowsRemote":false}},{"node":{"__typename":"Job","id":"2253389824-1001134745498","title":"Devops инженер","text":"#вакансия #Москва #офис #DevOps\n\n▫️ВАКАНСИЯ: Devops engineer\nКомпания: Северсталь-Диджитал\nФормат работы: удаленно на пандемии, далее офис  \nЛокация: Москва Офис на м. Войковская или МЦК Балтийская\nЗанятость: полная \nЗарплатная вилка: до 140-180к gross middle, 180-230к gross senior  + 30% годовой бонус\n\nКомпания занимается внедрением моделей машинного обучение в производстве. Мы ищем devops инженера для поддержки и развития платформы k8s, Kafka, Hadoop, Gitlab. Работа в небольшой команде, где ваши идеи будут быстро находить реализацию.\n\n▫️Обязанности:\n • Настройка, обновление, GitLab, GitlabCI, Nexus/Artifactory; \n • Организация сбора логов с компонентов IoT платформы Северстали (GrayLog); \n • Организация сбора метрик, описывающих состояние IoT платформы; \n • Создание дашбордов и алертов в Grafana; \n • Автоматизированный выпуск релизов. \n\n▫️Требования:\n• Опыт работы в роли DevOps инженера или аналогичной позиции от 1-го года;  \n• Опыт работы с Linux в роли администратора, навыки работы с Docker; \n• Опыт работы с Hadoop, Kafka, Kubernetes. \n\n▫️Желательно:\n• Умение быстро изучать англоязычные технические ресурсы; \n• Экспертные навыки работы с ОС семейства Linux; \n• Навыки работы на языках программирования Bash, Python, Java, Scala.\n• Опыт работы с Prometeus, Zabbix, ELK\n\n▫️Условия:\n•  Гибкое начало рабочего дня\n•  Официальное оформление\n•  Корпоративную мобильную связь, медицинскую страховку и страхование жизни\n•  Участие в профессиональных конференциях\n•  Современное рабочее пространство и уютные зоны отдыха\n\nКонтакты @DaynekoRoman, @ikart\n\n—\n\n👉 Обсуждение вакансии в чате @devops_jobs","markup":[{"type":"hashtag","offset":0,"length":9,"data":"вакансия"},{"type":"hashtag","offset":10,"length":7,"data":"Москва"},{"type":"hashtag","offset":18,"length":5,"data":"офис"},{"type":"hashtag","offset":24,"length":7,"data":"DevOps"},{"type":"handle","offset":1543,"length":13,"data":"DaynekoRoman"},{"type":"handle","offset":1558,"length":6,"data":"ikart"},{"type":"handle","offset":1599,"length":12,"data":"devops_jobs"}],"date":"2020-06-25T07:26:49+00:00","link":"tg://resolve?domain=devops_jobs_feed&post=2149","tags":[{"name":"kafka"},{"name":"hadoop"},{"name":"gitlab"},{"name":"linux"},{"name":"docker"},{"name":"kubernetes"},{"name":"bash"},{"name":"python"},{"name":"java"},{"name":"scala"}],"cities":[{"code":"moscow"}],"allowsRemote":true}},{"node":{"__typename":"Job","id":"103637057536-1001089317451","title":"Qa engineer","text":"#вакансия #remote #highload #QA\n\nДолжность: QA engineer (remote)\n\nГород: не принципиально, GMT +03:00\nКомпания: Wisebits, Лимассол, Кипр\nФормат работы: remote/удаленный\nЗанятость: полная занятость \nЗарплата: до 1500 EUR\n\n📍Что мы ждем от тебя:\n- навыки проектирования тест-дизайнов (тест-кейсов, тест-сценариев, ...)\n- навык написания качественных баг-репортов (да, это действительно отдельный и важный пункт)\n- навык работы с багтрекинг системами (Jira (у нас она), Redmine, Asana, YouTrack, ...)\n- умение работы с Linux (либо Unix)\nаналитическое мышление (команда взаимодействует с внешними партнерами. Очень часто причина ошибки в них и нужно это доказать)\n- английский язык на уровне intermediate\n \n \n📍Будет плюсом:\n- опыт работы с высоконагруженными сервисами\n- опыт написания автотестов (сейчас у нас есть автотесты на Python)\n- опыт работы с системами мониторинга и логирования (наш стек: ElasicSearch + Kibana, VictoriaMetrics + Grafana)\n- умение написания SQL-запросов\n- знание Docker\n- знание и понимание принципов Scrum\n\n📍Задачи:\n- тебе предстоит тестировать как backend, так и frontend, а также взаимодействовать с тестировщиками из других команд, потому что команда RTB является командой полного цикла и способна выполнить задачу от и до без привлечения внешних сил (мы называем это feature team)\n- также мы обязательно научим читать тебя код на языке golang, потому что это наш основной язык для разработки. Мы верим что тестировщик должен понимать как работает код и находить первые ошибки еще на этапе разработки. В команде RTB работают евангелисты языка, которые запустили сообщества в нескольких городах и активно развивают его, они обязательно помогут тебе с его освоением.\n\nРада буду ответить на вопросы, контакты: \n📲  tg: @lapteva_darja","markup":[{"type":"hashtag","offset":0,"length":9,"data":"вакансия"},{"type":"hashtag","offset":10,"length":7,"data":"remote"},{"type":"hashtag","offset":18,"length":9,"data":"highload"},{"type":"hashtag","offset":28,"length":3,"data":"QA"},{"type":"bold","offset":221,"length":23,"data":""},{"type":"bold","offset":705,"length":16,"data":""},{"type":"bold","offset":1033,"length":10,"data":""},{"type":"handle","offset":1746,"length":14,"data":"lapteva_darja"}],"date":"2020-06-24T14:11:31+00:00","link":"tg://resolve?domain=qa_jobs&post=98836","tags":[{"name":"qa"},{"name":"linux"},{"name":"unix"},{"name":"python"},{"name":"sql"},{"name":"docker"},{"name":"go"}],"cities":[],"allowsRemote":true}},{"node":{"__typename":"Job","id":"103630766080-1001089317451","title":"Qa engineer","text":"#hr #вакансия #QA #Москва #командасобранасамимбоженькой\n\n🔴 Xena Exchange - профессиональная торговая платформа для профессиональных трейдеров и институциональных инвесторов. \n🔍 Ищем QA Engineer\n\n✔️ Задачи: \n1- Создавать стратегии тестирования/тест-планы для верификации качества функциональности продукта;\n2- Выполнять ручное тестирование;\n3- Выполнять автоматизированное интеграционное тестирование;\n4- Проводить нагрузочное тестирование.\n\n✔️ Супер, если: \nИмеешь опыт тест-дизайна, планирования и управления тестированием;\nПонимаешь принципы работы веб-приложений и API, имеешь опыт автоматизированного тестирования REST и WebSocket API с применением любых языков и фреймворков;\nИмеешь опыт проведения нагрузочных тестов;\nСпособен анализировать логи и выяснять root-cause ошибок;\nЗнаком с микросервисной архитектурой;\nМожешь применять для автоматизации Bash, Python;\nИмеешь опыт работы с middleware - PostgreSQL, RabbitMQ, Kafka, Redis;\n\n✔️ Условия:\n- покупаем всю технику которая нужна вам для продуктивной работы; \n- у нас сплоченный коллектив профессионалов с серьезным бэкраундом\nгибкий график, время не трекаем, главное - результат\n- Интересные задачи, возможность применить и прокачать скилы в создании высоконагруженных сервисов\n\n✔️ Доп. информация: \nзарплатная вилка обсуждаема, от 170к до 240к 💸 (в зависимости от уровня)\n\nЗа подробной инфой го в личку @anastaysha163 или @anastaysha164","markup":[{"type":"hashtag","offset":0,"length":3,"data":"hr"},{"type":"hashtag","offset":4,"length":9,"data":"вакансия"},{"type":"hashtag","offset":14,"length":3,"data":"QA"},{"type":"hashtag","offset":18,"length":7,"data":"Москва"},{"type":"hashtag","offset":26,"length":29,"data":"командасобранасамимбоженькой"},{"type":"handle","offset":1367,"length":14,"data":"anastaysha163"},{"type":"handle","offset":1386,"length":14,"data":"anastaysha164"}],"date":"2020-06-24T12:47:34+00:00","link":"tg://resolve?domain=qa_jobs&post=98830","tags":[{"name":"qa"},{"name":"rest"},{"name":"websocket"},{"name":"bash"},{"name":"python"},{"name":"postgresql"},{"name":"rabbitmq"},{"name":"kafka"},{"name":"redis"}],"cities":[{"code":"moscow"}],"allowsRemote":false}},{"node":{"__typename":"Job","id":"92245327872-1001067529236","title":"Python разработчик","text":"#вакансия #python #fulltime #удалёнка #Middle #backend\n\nВакансия: Python developer \nФормат работы: удалённо, желательно Украина, Харьков\nЗанятость: полная\nЗаработная плата: 15$ - 20$ в час\n\nДобрый день, мы команда разработчиков, ищем Python developer на fulltime \n\nПо проекту: разработка платежной системы для супермаркетов и экономии процентов.\n\nОсновные требования: Python (Tensorflow, SciPy, Numpy, Pandas), это для Ai \nРабота происходит по таймтрекеру hubstaff \nИногда требуются командировки в Грецию.\n\nПо всем вопросам обращаться в лс: ItAntHouse","markup":[{"type":"hashtag","offset":0,"length":9,"data":"вакансия"},{"type":"hashtag","offset":10,"length":7,"data":"python"},{"type":"hashtag","offset":18,"length":9,"data":"fulltime"},{"type":"hashtag","offset":28,"length":9,"data":"удалёнка"},{"type":"hashtag","offset":38,"length":7,"data":"Middle"},{"type":"hashtag","offset":46,"length":8,"data":"backend"}],"date":"2020-06-24T12:27:52+00:00","link":"tg://resolve?domain=python_jobs&post=87972","tags":[{"name":"python"},{"name":"tensorflow"},{"name":"numpy"},{"name":"pandas"}],"cities":[],"allowsRemote":true}},{"node":{"__typename":"Job","id":"2250244096-1001134745498","title":"Devops engineer","text":"#вакансия #vacancy #job #Belarus #Russsia #Ukraine #office #remote #fulltime #flexible #devops #aws #docker  #kubernetes #terraform\nPosition - DevOps Engineer\nCompany - Sphere Software\nLocation - Belarus, Russia, Ukraine\nWork - Remote or Office, Full-time\nSalary - 3700$ - 4800$ gross (3500$-4500$ nett)\n\nSphere Software is  partnered innovative trading platform with post-trade settlement and payments system and looking for DevOps engineer. \n\nRequirements:\n🔹 5+ years of experience as an SRE, DevOps engineer, operations engineer or similar\n🔹 Expert at Linux system administration\n🔹 Deep understanding of AWS technologies  \n🔹 Experience using IaC tools such as Ansible or Terraform \n🔹 Hands-on experience using Docker, AWS ECS or other orchestration tools\n🔹 Experience with bare metal infrastructures preferred\n🔹 Proficient in Python or alternative scripting language \n🔹 Experience managing a metrics driven system infrastructure\n🔹 Familiarity and hands on experience with common CI/CD pipeline tools (we use Jenkins) and container technologies\n🔹 Experience using Hashicorp Vault and Consul (big plus)\n🔹 Knowledge of cybersecurity mitigation and best practice (big plus)\n🔹 Relevant experience from an exchange, proprietary trading firm or top tier bank (big plus) \n \nResponsibilities include but are not limited to:\n🔹 Maintain and improve upon the uptime reliability of the overall platform \n🔹 Investigation and handling of issues in all public environments \n🔹 Designing automation tools and improving upon our deployment and release pipeline \n🔹 Build monitoring and alerting tools to keep internal teams and external stakeholders informed about system health and platform viability\n🔹 Identify and advocate for changes vital to the stability and supportability of the system\n🔹 Support the growth and scale of our infrastructure by suggesting and implementing new technology architecture\n \nOn-site benefits:\n🔹 Competitive compensation and paid time off\n🔹 Team of professionals providing you with the opportunity to grow\n🔹 Sports compensation\n🔹 Team building events.\n\nFeel free to contact me for more info! 👋  @alex_ithr\n\n—\n\n👉 Обсуждение вакансии в чате @devops_jobs","markup":[{"type":"hashtag","offset":0,"length":9,"data":"вакансия"},{"type":"hashtag","offset":10,"length":8,"data":"vacancy"},{"type":"hashtag","offset":19,"length":4,"data":"job"},{"type":"hashtag","offset":24,"length":8,"data":"Belarus"},{"type":"hashtag","offset":33,"length":8,"data":"Russsia"},{"type":"hashtag","offset":42,"length":8,"data":"Ukraine"},{"type":"hashtag","offset":51,"length":7,"data":"office"},{"type":"hashtag","offset":59,"length":7,"data":"remote"},{"type":"hashtag","offset":67,"length":9,"data":"fulltime"},{"type":"hashtag","offset":77,"length":9,"data":"flexible"},{"type":"hashtag","offset":87,"length":7,"data":"devops"},{"type":"hashtag","offset":95,"length":4,"data":"aws"},{"type":"hashtag","offset":100,"length":7,"data":"docker"},{"type":"hashtag","offset":109,"length":11,"data":"kubernetes"},{"type":"hashtag","offset":121,"length":10,"data":"terraform"},{"type":"handle","offset":2133,"length":10,"data":"alex_ithr"},{"type":"handle","offset":2178,"length":12,"data":"devops_jobs"}],"date":"2020-06-24T10:07:58+00:00","link":"tg://resolve?domain=devops_jobs_feed&post=2146","tags":[{"name":"amazon-web-services"},{"name":"docker"},{"name":"kubernetes"},{"name":"linux"},{"name":"ansible"},{"name":"python"},{"name":"jenkins"},{"name":"deployment"}],"cities":[],"allowsRemote":true}},{"node":{"__typename":"Job","id":"92233793536-1001067529236","title":"Python разработчик","text":"#вакансия #python #Django #vacancy #IT  #remote\n\nДрузья, всем привет! \nНовая вакансия -  #Senior_PythonDeveloper\nЛокация - Россия,\nПолный рабочий день, #remote \n#Оплата: 3000$\n\nТребования:\n\n-Опыт работы в индустрии разработки ПО от 5-ти лет;\n-Уверенное знание Python 3+/Python Core (языковые структуры, стандартные библиотеки, регулярные выражения и т.д.);\n-Практический опыт работы с Django (Django ORM, Django Rest Framework);\n-Иметь представление о GraphQL APIs (Graphene будет плюсом);\n-Знание SQL (знание реляционной СУБД PostgreSQL будет плюсом) на уровне работы как прикладного разработчика;\n-Опыт написания API и работы/интеграции с API сторонних сервисов;\n-Опыт работы с рядом AWS-сервисов: Lambda, API Gateway, SNS, SQS, SES, S3, RDS, VPC, EC2, CloudWatch, etc;\n-The English language MUST HAVE (B2+ level) to work with the english speaking team.\n\n\nЗа дополнительной информацией, пишите в ЛС:  @Zalvovskaya","markup":[{"type":"hashtag","offset":0,"length":9,"data":"вакансия"},{"type":"hashtag","offset":10,"length":7,"data":"python"},{"type":"hashtag","offset":18,"length":7,"data":"Django"},{"type":"hashtag","offset":26,"length":8,"data":"vacancy"},{"type":"hashtag","offset":35,"length":3,"data":"IT"},{"type":"hashtag","offset":40,"length":7,"data":"remote"},{"type":"hashtag","offset":89,"length":23,"data":"Senior_PythonDeveloper"},{"type":"hashtag","offset":152,"length":7,"data":"remote"},{"type":"hashtag","offset":161,"length":7,"data":"Оплата"},{"type":"handle","offset":903,"length":12,"data":"Zalvovskaya"}],"date":"2020-06-23T21:10:23+00:00","link":"tg://resolve?domain=python_jobs&post=87961","tags":[{"name":"python"},{"name":"django"},{"name":"orm"},{"name":"rest"},{"name":"graphql"},{"name":"sql"},{"name":"postgresql"},{"name":"amazon-web-services"},{"name":"aws-lambda"}],"cities":[],"allowsRemote":true}},{"node":{"__typename":"Job","id":"2249195520-1001134745498","title":"Devops engineer","text":"#вакансия #devops #azure #remote #спб #fulltime #релокация \n\nSenior DevOps Remote Engineer (Azure)\n\nCity: Saint-Petersburg, metro Mayakovskaya | Chernyshevskaya \nFormat: office or remote (both are possible)\nSalary: ₽220-300k\n\nProject: We are BeKitzur and now we are looking for a Senior DevOps Engineer to support and drive innovative collaboration software products used by dozens of thousands of clients across the world. \nThe platform is an Azure-hosted solution and offers you a great opportunity in driving state-of-the-art CI/CD, security, monitoring and DB management. This is a great position for an energetic and ambitious professional to get to the next career step and become a member of a stable and growing international company.\n\nResponsibilities:\n🔹Set up the best monitoring ever - unified, transparent and flexible\n🔹Improve our CI/CD process and automation to deliver faster, more frequent and reliable releases\n🔹Migrate databases to more secure and powerful clusters\n🔹Migrate applications to Kubernetes\n🔹Increase High-Availability and Reliability of applications and DB clusters\n🔹Optimize Azure costs and design more cost-effective DevOps solutions\n🔹Improve the existing DevOps processes and technologies, such as CI/CD, monitoring, logs aggregation, and security\n🔹Participate in all DevOps decisions together with Senior engineers and Tech leads\n🔹Define and implement the security architecture to ensure data security at rest and in transit, application security, key management, identity management, authentication, and authorization with OIDC and OAuth2, infrastructure security with Azure VNets, NSGs, UDR, etc.\n\nRequired Skills and Experience:\n🔹5 years of experience in IT with good knowledge in Linux\n🔹Experience in maintaining a production data processing system\n🔹Hands-on experience with git, Jenkins, Docker, and MySQL\n🔹Azure Networking - Azure Virtual Networks, ExpressRoute, NSG, App Service Environment\n🔹Azure PAAS Services Security and Provisioning\n🔹Cloud Security - Azure Key Vault, HSTS, SSL/TLS Ingress Control\n🔹Cloud monitoring - Experience with Azure Log Analytics, Azure Monitor, DataDog\n🔹Experience with any configuration management tool (Ansible, Saltstack, Chef, Puppet, etc), Ansible preferred\n🔹Hands-on experience with cloud technologies (Azure in our case)\n🔹Bash and Python scripting skills\n🔹Good written and spoken English\n\nBenefits:\n🔹Extremely interesting complex products\n🔹The most modern technology stack\n🔹Wonderful result-oriented team of senior professionals\n🔹Support for all your Cloud studies and certificates (you will have access and we will pay for exams)\n🔹Friendly atmosphere\n🔹Competitive salary\n🔹Medical insurance, sport, English classes in the office\n🔹Business trips to the US (Silicon Valley)\n🔹Relocation package to St.Petersburg\n🔹Opportunity to build a career in a growing branch of the stable US company\n🔹Professional growth in the international business environment\n\n📩\nОткликнуться: @Khabibulin_it\n\n—\n\n👉 Обсуждение вакансии в чате @devops_jobs","markup":[{"type":"hashtag","offset":0,"length":9,"data":"вакансия"},{"type":"hashtag","offset":10,"length":7,"data":"devops"},{"type":"hashtag","offset":18,"length":6,"data":"azure"},{"type":"hashtag","offset":25,"length":7,"data":"remote"},{"type":"hashtag","offset":33,"length":4,"data":"спб"},{"type":"hashtag","offset":38,"length":9,"data":"fulltime"},{"type":"hashtag","offset":48,"length":10,"data":"релокация"},{"type":"handle","offset":2975,"length":14,"data":"Khabibulin_it"},{"type":"handle","offset":3024,"length":12,"data":"devops_jobs"}],"date":"2020-06-23T16:22:03+00:00","link":"tg://resolve?domain=devops_jobs_feed&post=2145","tags":[{"name":"azure"},{"name":"kubernetes"},{"name":"rest"},{"name":"oauth"},{"name":"linux"},{"name":"git"},{"name":"jenkins"},{"name":"docker"},{"name":"mysql"},{"name":"cloud"},{"name":"ssl"},{"name":"ansible"},{"name":"bash"},{"name":"python"},{"name":"ms-access"}],"cities":[],"allowsRemote":true}},{"node":{"__typename":"Job","id":"2248146944-1001134745498","title":"Devops engineer","text":"#вакансия #офис #Москва\nДолжность: Devops Engineer\nКомпания: Selecty IT – компания интегратор\nГород и адрес офиса: Москва, м.Технопарк\nФормат работы: офис\nЗанятость: постоянная\nЗарплатная вилка: от 200 000 до 300 000 net по итогам собеседования\n\n▪️Чем предстоит заниматься \n• Разработка и поддержка программно-определяемой инфраструктуры хранилищ данных,\n• Развертывание и непрерывная бесперебойная эксплуатация\n• Решение инцидентов в тестовых и промышленных средах\n• Проведение регламентных и профилактических работ\n\n▪️Наши пожелания к кандидатам:\n• Знание Linux на уровне администратора \n• Навыки использования инструментов управления конфигурациями\n• Владение скриптовыми языками программирования, aCI/CD инструментами\n• Понимание принципов и особенностей работы Kafka, Hazelcast, Infinispan, Elasticsearch, Mongodb, Minio\n• Знание Docker\n• Понимание Java, Python, JS\n• Создавать, развертывать, обновлять, оптимизировать и сопровождать отказоустойчивые кластеры различных БД и инфраструктурных элементов\n• Настраивать системы мониторинга и алертинга\n• Развивать практики инцидент-менеджмента и хаос-инжениринга\n\n▪️Контакты для связи: igor.bekbuzarov@selecty.ru ,+7 (999) 826-43-02, @IgorBekB\nБекбузаров Игорь\n\n—\n\n👉 Обсуждение вакансии в чате @devops_jobs","markup":[{"type":"hashtag","offset":0,"length":9,"data":"вакансия"},{"type":"hashtag","offset":10,"length":5,"data":"офис"},{"type":"hashtag","offset":16,"length":7,"data":"Москва"},{"type":"link","offset":1137,"length":26,"data":"mailto:igor.bekbuzarov@selecty.ru"},{"type":"link","offset":1165,"length":18,"data":"tel:+7 (999) 826-43-02"},{"type":"handle","offset":1185,"length":9,"data":"IgorBekB"},{"type":"handle","offset":1246,"length":12,"data":"devops_jobs"}],"date":"2020-06-23T16:21:30+00:00","link":"tg://resolve?domain=devops_jobs_feed&post=2144","tags":[{"name":"dotnet"},{"name":"linux"},{"name":"kafka"},{"name":"elasticsearch"},{"name":"mongodb"},{"name":"docker"},{"name":"java"},{"name":"python"}],"cities":[{"code":"moscow"}],"allowsRemote":false}}]}}},"context":{}}