{"hash":"f5f6bf98bd95e769321482904cbbd488f77922fd","data":{"records":{"id":"sql","name":"sql","belongsTo":{"totalCount":169,"pageInfo":{"totalPages":17,"currentPage":15},"edges":[{"node":{"__typename":"Job","id":"16981688320-1001110946746","title":"Js разработчик","text":"#вакансия #frontend  #React #офис #remote #Спб #senior \n\nКомпания: DBeaver\nЗ/п: 180 000 - 300 000 рублей на руки \nГород и адрес офиса: г. Санкт-Петербург (м. Площадь Ленина/Новочеркасская)\nФормат работы: офис или удаленка (приоритет кандидатам из Санкт-Петербурга)\nЗанятость: полная, fulltime\n\n🌏DВeaver  - это международный open source проект, бесплатный многоплатформенный инструмент для работы с базами данных. Поддерживает все популярные базы данных: MySQL, PostgreSQL, MariaDB, SQLite, Oracle, DB2, SQL Server, Sybase, MS Access, Teradata, Firebird, Derby и т. д. Платформа интегрируется с Amazon сервисами и нацелена на облачные решения. \n\nCейчас ребята разрабатывают web решение DВeaver, первый релиз состоялся в начале года и компания активно продолжает развитие. \n\n💠Какой опыт и знания ожидают увидеть ребята:\n- опыт работы с TypeScript и React;\n- опыт участия в многокомпонентных проектах со сложной бизнес-логикой;\n- опыт проектирования и рефакторинга;\n- готовность возглавить разработку интерфейсной части продукта, принимать ключевые архитектурные решения;\n- английский язык от уровня intermediate (письменный и на уровне чтения).\n\nСтек технологий: TypeScript, React, GraphQL, MobX, RxJS, Docker. \n\n💎Что получите вы:\n- комфортный офис в БЦ Бенуа;\n- возможность частично или полностью удаленной работы; \n- официальное оформление;\n- возможность поработать над крутым международным продуктом в сплоченной команде энтузиастов;\n- профессиональные командировки и конференции в США и Европу.\n\nКонтакты:\ne-mail: valeriya@luckyhunter.io\ntelegram: @sobolevavalery\nКА: http://luckyhunter.io\nБуду рада ответить на все вопросы и рассказать подробнее о компании 😊\n\n—\n\n👉 Обсуждение вакансии в чате @javascript_jobs","markup":[{"type":"hashtag","offset":0,"length":9,"data":"вакансия"},{"type":"hashtag","offset":10,"length":9,"data":"frontend"},{"type":"hashtag","offset":21,"length":6,"data":"React"},{"type":"hashtag","offset":28,"length":5,"data":"офис"},{"type":"hashtag","offset":34,"length":7,"data":"remote"},{"type":"hashtag","offset":42,"length":4,"data":"Спб"},{"type":"hashtag","offset":47,"length":7,"data":"senior"},{"type":"link","offset":1519,"length":23,"data":"mailto:valeriya@luckyhunter.io"},{"type":"handle","offset":1553,"length":15,"data":"sobolevavalery"},{"type":"link","offset":1573,"length":21,"data":"http://luckyhunter.io"},{"type":"handle","offset":1700,"length":16,"data":"javascript_jobs"}],"date":"2020-06-16T12:56:30+00:00","link":"tg://resolve?domain=javascript_jobs_feed&post=0","tags":[{"name":"javascript"},{"name":"reactjs"},{"name":"mysql"},{"name":"postgresql"},{"name":"mariadb"},{"name":"sqlite"},{"name":"oracle"},{"name":"sql"},{"name":"ms-access"},{"name":"web"},{"name":"typescript"},{"name":"graphql"},{"name":"rxjs"},{"name":"docker"},{"name":"sql-server"}],"cities":[],"allowsRemote":true}},{"node":{"__typename":"Job","id":"102951288832-1001089317451","title":"Qa engineer","text":"#вакансия #QA #ФТ #Москва #офис \n\nВакансия: QA Engineer (с возможностью автоматизации)\nГород: Москва м. Чистые пруды\nЗарплата: от 100 000 до 150 000 рублей на руки \nФормат: офис, полный день, полная занятость\nКомпания Innovative People \n\nПроект в банке, agile-команда.\n\n➡ Требования:\n• Опыт тестирование веб-приложений от 3х лет\n• Практический опыт применения практик тест-дизайна\n• Рабочие знания клиент-серверной архитектуры\n• Умение проектировать тест-кейсы и подготавливать тестовые данные для тестирования\n• SQL от базового уровня\n\n➡ Предлагаем:\n• все по ТК РФ, белое и официальное\n• ДМС со стоматологией, программа лояльности\n• адекватное руководство (сейчас мы на удаленке и собеседования по скайпу)\n• большое комьюнити, новый проект\n• ноутбук\n\nРезюме и вопросы @Priboch","markup":[{"type":"hashtag","offset":0,"length":9,"data":"вакансия"},{"type":"hashtag","offset":10,"length":3,"data":"QA"},{"type":"hashtag","offset":14,"length":3,"data":"ФТ"},{"type":"hashtag","offset":18,"length":7,"data":"Москва"},{"type":"hashtag","offset":26,"length":5,"data":"офис"},{"type":"handle","offset":769,"length":8,"data":"Priboch"}],"date":"2020-06-16T11:27:39+00:00","link":"tg://resolve?domain=qa_jobs&post=0","tags":[{"name":"qa"},{"name":"sql"}],"cities":[{"code":"moscow"}],"allowsRemote":false}},{"node":{"__typename":"Job","id":"2215641088-1001134745498","title":"Devops engineer","text":"#вакансия #devops #fulltime #релокация #казань #удаленка \n\nВакансия: DevOps Engineer\nКомпания: Ак Барс Цифровые Технологии.\nЛокация: Казань, возможна релокация.\nФормат работы: офис и удаленный формат.\nЗанятость: полная.\nКонтакт:@aabilova\n\nВсем привет! Мы разрабатываем цифровые продукты в сфере финтех и находимся в поисках DevOps Engineer.\n\nЗадачи:\n•Сопровождение и развитие текущей инфраструктуры проекта, поддержка тестового окружения и переноса данных между тестовыми серверами.\n•Разработка инструментов и автоматизация процессов развертывания систем, проектов и окружений, организация стабильного процесса выпуска версий продуктов.\n•Планирование архитектуры, прогноз по нагрузке.\n•Взаимодействие с разработчиками и сисадминами, координация команд по смежным областям.\n•Решение возникающих в процессе развёртывания проблем.\n\nЖелателен опыт с:\n•ОС Linux (серверные и клиентские).\n•Системы контейнеризации (мы используем RedHat OpenShift).\n•Уверенные навыки Shell-скриптинга (Bash).\n•Continious Integration (Teamcity) \\ Continious Delivery (Octopus).\n•Системы мониторинга (SCOM \\ Zabbix).\n•NoSQL СУБД (MongoDB, Redis).\n•Системы контроля версий (GIT).\n•Веб-серверы и балансировщики нагрузки (Apache \\ nginx \\ haproxy).\n•Навыки использования аналогичных по функциональности инструментов вполне допустимы, инструменты - не главное, важно понимание.\n\nБазовая экспертиза в областях:\n•ОС Windows (серверные).\n•Системы виртуализации (Vmware), системы управления (Vcenter \\ Openstack).\n•Системы управления конфигурацией (Ansible \\ Chef \\ Puppet \\ SaltStack).\n•Реляционные СУБД (SQL Server \\ Postgre \\ Mysql).\n•Agile-разработка.\n•Информационная безопасность.\n•Архитектура информационных систем.\n\nЧто предлагаем:\n•Работа в команде профессионалов из разных городов с общими интересами и разными взглядами.\n•Официальное трудоустройство, белая зарплата.\n•Программа релокации для иногородних.\n•ДМС.\n•Комфортный офис (кухня, зоны отдыха, X-box, бесплатные парковочные места, фрукты).\n•Профессиональное развитие и обучение (внутренние и внешние профильные мероприятия).\n•Физическое развитие (спортивная комната, скидки на занятия в фитнес-центре, футбол).\n•Зарплата -  вилка 100-150 тыс.руб., обсуждается индивидуально на интервью.\n\nКонтакт:@aabilova\n\n—\n\n👉 Обсуждение вакансии в чате @devops_jobs","markup":[{"type":"hashtag","offset":0,"length":9,"data":"вакансия"},{"type":"hashtag","offset":10,"length":7,"data":"devops"},{"type":"hashtag","offset":18,"length":9,"data":"fulltime"},{"type":"hashtag","offset":28,"length":10,"data":"релокация"},{"type":"hashtag","offset":39,"length":7,"data":"казань"},{"type":"hashtag","offset":47,"length":9,"data":"удаленка"},{"type":"handle","offset":228,"length":9,"data":"aabilova"},{"type":"handle","offset":2227,"length":9,"data":"aabilova"},{"type":"handle","offset":2271,"length":12,"data":"devops_jobs"}],"date":"2020-06-16T10:19:49+00:00","link":"tg://resolve?domain=devops_jobs_feed&post=2113","tags":[{"name":"linux"},{"name":"shell"},{"name":"bash"},{"name":"nosql"},{"name":"mongodb"},{"name":"redis"},{"name":"git"},{"name":"apache"},{"name":"nginx"},{"name":"windows"},{"name":"ansible"},{"name":"sql"},{"name":"mysql"},{"name":"sql-server"}],"cities":[{"code":"kazan"}],"allowsRemote":true}},{"node":{"__typename":"Job","id":"102942900224-1001089317451","title":"Qa инженер","text":"#вакансия #Моcква #Россия #офис #удаленка #тест-менеджер \n\nДолжность: Ведущий тестировщик\\Тест-менеджер\nГород: Москва (Парк Культуры) и не только\nФормат работы: возможна удаленка\nЗанятость: полная\nЗП: 160 – 180 net (в зависимости от опыта), + квартальные бонусы\nОформление ТК РФ\nСоцпакет – ДМС, обучение, корп скидки и т.д.\n\nКто мы:\nДирекция BigData  в X5 Retail\nРазрабатываем продукты работающие с большими данными в ритэйле.\n\nЧто нужно делать:\nРабота  в продуктовой команде \nРазвитие процесса тестирования продукта с 0 до выхода на автоматизацию  в будущем\nРазработка тестовой модели\nРабота с документацией\nПодготовка тестовых данных\nПланирование и проведение тестирования – регресс, интеграционное, тестирование нового функционала и исправлений дефектов\nОрганизация автоматизированного и нагрузочного тестирования\nАнализ причин появления дефектов\nРабота с баг-трекинговой системой (Jira) и TMS (Allure Enterprise) системами\n\nНаш кандидат:\n🔎Опыт тестирования web-приложений от 4 лет\n🔎Опыт организации тестирования сложных интеграционных продуктов\n🔎Уверенные знания гибких методологий тестирования \n🔎Умение аргументированно отстаивать свою точку зрения \n\n🔎Опыт работы с баг-трекинговыми системами\n🔎Знание SQL на уровне написания составных запросов\n🔎Способность быстро адаптироваться к изменениям приоритетов в работе\n🔎Аналитическое мышление, системный подход к решению задач, умение работать в команде, склонность к самообразованию, усидчивость, внимательность, инициативность\n🔎Желание развиваться\n🔎Дополнительный плюсы\n – знание основ автоматизации (Python) и нагрузочного тестирования\n - Базовые знания работы с Docker, k8s\n - Опты работы в Scrum командах \n\n\nРезюме и вопросы в личные сообщения denis_d_u либо по телефону + 7 985 2986708","markup":[{"type":"hashtag","offset":0,"length":9,"data":"вакансия"},{"type":"hashtag","offset":10,"length":7,"data":"Моcква"},{"type":"hashtag","offset":18,"length":7,"data":"Россия"},{"type":"hashtag","offset":26,"length":5,"data":"офис"},{"type":"hashtag","offset":32,"length":9,"data":"удаленка"},{"type":"hashtag","offset":42,"length":5,"data":"тест"},{"type":"link","offset":1735,"length":15,"data":"tel:+ 7 985 2986708"}],"date":"2020-06-16T09:28:29+00:00","link":"tg://resolve?domain=qa_jobs&post=0","tags":[{"name":"qa"},{"name":"dotnet"},{"name":"web"},{"name":"sql"},{"name":"python"},{"name":"docker"}],"cities":[{"code":"moscow"}],"allowsRemote":true}},{"node":{"__typename":"Job","id":"102940803072-1001089317451","title":"Qa инженер","text":"#QAинженервакансия #QAjava #автотестыjava #QAМосква #вакансияМосква #middle \nДобрый день! В настоящий момент нахожусь в поисках QА-инженера для международной аутсорсинговой компании на проект банковской сферы.\nМестоположение: Москва, м. Кутузовская, либо Нагатинская\nОплата труда: 130-160.000 рублей\nФункциональные задачи;\n•  Анализ требований\n•  Разработка автотестов на Java + Selenium\n•  Актуализация автотестов\n•  Анализ ошибок\n•  Формирование отчетов\nТребования:\n•  Опыт разработки на Java + Selenium от 2-х лет\n•  Знание инструмента Maven\n•  Знание Junit и Allure\n•  Знание XML\n•  Знание SQL (MS SQL, Oracle)\n•  Опыт работы с Git, JenkinS\n•  Опыт работы с Bug Tracking Systems (Jira, Redmine)\n•  Опыт работы с линейкой HP ALM\n•  Знание BDD (Cucumber)\nУсловия:\n•  Конкурентная заработная плата\n•  Оформление в соответствии с ТК РФ, соц. пакет\n•  Работа в команде профессионалов\n•  Обучение, наставничество в процессе работы\nБуду рада ответить на Ваши вопросы: @LyKatrin, ekaterina706712@mail.ru\n\n•","markup":[{"type":"hashtag","offset":0,"length":18,"data":"QAинженервакансия"},{"type":"hashtag","offset":19,"length":7,"data":"QAjava"},{"type":"hashtag","offset":27,"length":14,"data":"автотестыjava"},{"type":"hashtag","offset":42,"length":9,"data":"QAМосква"},{"type":"hashtag","offset":52,"length":15,"data":"вакансияМосква"},{"type":"hashtag","offset":68,"length":7,"data":"middle"},{"type":"handle","offset":965,"length":9,"data":"LyKatrin"},{"type":"link","offset":976,"length":23,"data":"mailto:ekaterina706712@mail.ru"}],"date":"2020-06-16T09:14:53+00:00","link":"tg://resolve?domain=qa_jobs&post=0","tags":[{"name":"qa"},{"name":"java"},{"name":"selenium"},{"name":"maven"},{"name":"junit"},{"name":"xml"},{"name":"sql"},{"name":"oracle"},{"name":"git"},{"name":"jenkins"},{"name":"cucumber"}],"cities":[{"code":"moscow"}],"allowsRemote":false}},{"node":{"__typename":"Job","id":"102939754496-1001089317451","title":"Qa инженер","text":"#вакансия #Моcква #Россия #офис #удаленка #автоматизация #Python #тестировщик\n\nДолжность: Тестировщик ПО (функциональное + автоматизированное тестирование)\nГород: Москва (Парк Культуры) и не только\nФормат работы: возможна удаленка\nЗанятость: полная\nЗП: 130 – 180 net (в зависимости от опыта), + квартальные бонусы\nОформление ТК РФ\nСоцпакет – ДМС, обучение, корп скидки и т.д.\n\nКто мы:\nДирекция BigData  в X5 Retail\nРазрабатываем продукты работающие с большими данными в ритэйле.\n\nЧто нужно делать:\nРазработка ручных и авто тестов\nПодготовка тестовых данных\nПроведение тестирования – регресс, интеграционное, тестирование нового функционала и исправлений дефектов\nАнализ причин появления дефектов\nРабота с баг-трекинговой системой (Jira) – регистрация дефектов, отслеживание статусов, проверка исправлений, закрытие дефектов\nРазвитие процесса тестирования продукта\nВозможна работа как в продуктовой команде так и в стриме автоматизации тестирования – в зависимости от опыта и пожеланий.\n\nНаш кандидат:\n🔎Опыт тестирования web-приложений от 3 лет\n🔎Опыт автоматизации тестирования с Python, Pytest от 1 года\n🔎Базовые знания работы с Docker, k8s\n🔎Опыт работы с баг-трекинговыми системами\n🔎Знание SQL на уровне написания составных запросов\n🔎Способность быстро адаптироваться к изменениям приоритетов в работе\n🔎Аналитическое мышление, системный подход к решению задач, умение работать в команде, склонность к самообразованию, усидчивость, внимательность, инициативность\n🔎Желание развиваться\n🔎Дополнительный плюс – опыт работы с продуктами ритэйла.\n\nРезюме и вопросы в личные сообщения denis_d_u или по телефону +7 985 2986708","markup":[{"type":"hashtag","offset":0,"length":9,"data":"вакансия"},{"type":"hashtag","offset":10,"length":7,"data":"Моcква"},{"type":"hashtag","offset":18,"length":7,"data":"Россия"},{"type":"hashtag","offset":26,"length":5,"data":"офис"},{"type":"hashtag","offset":32,"length":9,"data":"удаленка"},{"type":"hashtag","offset":42,"length":14,"data":"автоматизация"},{"type":"hashtag","offset":57,"length":7,"data":"Python"},{"type":"hashtag","offset":65,"length":12,"data":"тестировщик"},{"type":"link","offset":1613,"length":14,"data":"tel:+7 985 2986708"}],"date":"2020-06-16T09:09:17+00:00","link":"tg://resolve?domain=qa_jobs&post=0","tags":[{"name":"qa"},{"name":"python"},{"name":"dotnet"},{"name":"web"},{"name":"docker"},{"name":"sql"}],"cities":[{"code":"moscow"}],"allowsRemote":true}},{"node":{"__typename":"Job","id":"1689255936-1001091028994","title":"Java разработчик","text":"Вакансия Team Lead Java \n\nПроект: Разрабатываем единый веб-терминал MOEX Treasury, который позволит получить быстрый и удобный доступ ко всем рынкам Московской Биржи, а также сервисам по управлению обеспечением и внебиржевым операциям. Это не просто веб-интерфейс к уже существующим торговым системам, а новая платформа, которая взаимодействует со всеми основными торговыми и бэк-офисными системами Биржи, которая сейчас начинает активно развиваться.\n \nТехнологический стек: Java 8, Spring (Spring Boot, Spring MVC), Hazelcast, WebSocket, RabbitMQ, Firebird (с переходом на PostgreSQL), в интеграционных решения REST API и JMS.\n \n Задачи на проекте:\n Участие в проекте по разработке платформы, объединяющей основные рынки и инструменты Московской Биржи;\n Подбор команды java-разработчиков (3 человека);\n Решение всех эскалаций по сотрудникам направления – качество и производительность работы, мотивация и пр.;\n Обеспечение качества работы членов команды;\n Накопление экспертизы по направлению;\n Организация и поддержание в актуальном состоянии базы знаний, проведение внутренних мероприятий по обмену знаниями и пр.;\n Проработка подхода к организации работ и его документирование в регламентах;\n Информирование всех заинтересованных сторон о процессе и его изменениях, контроль следования установленному процессу;\n Оценка задач в итерацию, оценка скоупа входящих работ;\n Ревью оценок от команды, отчетность план/факт по задачам команды;\n Разработка и контроль стандартов проектирования и качества кода для внешнего подрядчика.\n \nЧто мы ожидаем от Вас:\n Глубокое знание Java core;\n Знание принципов ООП и понимание паттернов проектирования;\n Уверенное знание JEE, Spring, Spring Boot, Spring MVC;\n Опыт разработки высоконагруженных систем;\n Уверенное знание, опыт проектирования и разработки RESTful API и WebSocket;\n Уверенное знание и опыт работы с данными в формате xml,json;\n Опыт работы с jaxb;\n Уверенное знание rdms. умение отлаживать, оптимизировать sql запросы;\n Опыт работы с Postgres приветствуется.\n\nНаши условия работы:\n• Компания: ПАО Московская биржа (Компания, входящая в 500 - лучших работодателей мира по версии Forbes за 2019 год);\n• Офис в центре: г. Москва, м. Арбатская/Библиотека им. Ленина/Боровицкая/Александровский сад;\n• Занятость: полная, официальное оформление в штат компании (оформление онлайн);\n• Формат работы: современный  офис возле Кремля в шаговой доступности от метро (на данный момент работаем удаленно из дома);\n• ДМС: с первого рабочего дня;\n• Свой «корпоративный университет», собственный лекторий, широкие возможности обучения – как внутри, так и вне компании;\n• Уровень з/п:  300 - 350 тыс.руб. (gross) + годовой бонус (32% от годового дохода);\n• Формат интервью: 1 этап онлайн интервью (60 минут).\n\nПишите в личку, отвечу на любые вопросы!\nКонтакты: @Sasha_P92\nAlexander.Panin@moex.com","markup":[{"type":"bold","offset":0,"length":34,"data":""},{"type":"bold","offset":453,"length":22,"data":""},{"type":"bold","offset":631,"length":19,"data":""},{"type":"bold","offset":1530,"length":23,"data":""},{"type":"bold","offset":2012,"length":21,"data":""},{"type":"bold","offset":2306,"length":19,"data":""},{"type":"handle","offset":2795,"length":10,"data":"Sasha_P92"},{"type":"link","offset":2806,"length":24,"data":"mailto:Alexander.Panin@moex.com"}],"date":"2020-06-16T08:53:10+00:00","link":"tg://resolve?domain=jvmjobs&post=1611","tags":[{"name":"java"},{"name":"jvm"},{"name":"spring"},{"name":"websocket"},{"name":"rabbitmq"},{"name":"postgresql"},{"name":"rest"},{"name":"xml"},{"name":"json"},{"name":"jaxb"},{"name":"sql"},{"name":"spring-boot"},{"name":"spring-mvc"}],"cities":[{"code":"moscow"}],"allowsRemote":true}},{"node":{"__typename":"Job","id":"1688207360-1001091028994","title":"Java разработчик","text":"#вакансия #офис #Самара #Java\n\nДобрый день!\n🧐 Очень срочно разыскивается Senior или прошаренный Middle Java developer в компанию Open Code.\n\n👨‍👩‍👧‍👦В компании 200 разработчиков, штат постоянно растет.\n\n👩🏻‍🏫Каждый год стартуют новые проекты, под проекты обновляют стек, используют новые технологии.\n\n👫Команды внутри собирают по 5-8, максимум 12 человек, к разработчикам присоединяются тестировщики и аналитики, команды участвуют в совещаниях и формировании ТЗ\n\n👓У компании есть свой учебный центр. http://open-distance.ru/\nOpen Code является партнером Санкт-Петербургского университета ИТМО. На базе компании открыта  кафедра магистратуры этого ВУЗа. \nСотрудники имеют возможность получить на бюджетной основе образование степени магистра, обучаясь в офисе компании и на основе своих рабочих проектов. \nВыдаются дипломы гос. образца Санкт-Петербургского университета ИТМО об окончании магистратуры.\n\n🤝Тебе скажут уверенное \"да\", протянут руку и пригласят в команду если:\n- ты больше 3-х лет восхищен Java 8+, особенно любишь Spring;\n- тебе нравится, как звучит слово Hibernate;\n- знаешь, что в кишочках одной из СУБД: PostgreSQL, Oracle, MS SQL Server;\n- Git. Ну, ты понимаешь, что надо =) ;\n- ActiveMQ, Hadoop, Lucene, Elasticsearch, Gradle, Maven - вот это вот все.\n\n🧑🏻‍💻Чем заняться вместо работы:\n- Разрабатывать новый функционал серверной части\n- Участвовать в проектировании отдельных модулей системы\n- Разработывать интеграцию с внешними системами\n- Рефакторить поддерживать существующий код\n- Покрывать код юнит-тестами\n\n🧁А теперь о плюшках, кроме обучения в ИТМО:\n- ЗП 150-170 в руки\n- Занятия английским языком в офисе компании\n- Бассейн, фитнес-центр\n- Футбол/волейбол\n- Дружная команда\n- Посещение культурных мероприятий за счет компании\n- Перспектива карьерного роста\n- И другие заслуженные ништяки от компании\n\n\n🏄🏻Отличая возможность научиться чему-то новому с комфортом!\n\nЗаинтересовало?\n\n📲Пиши мне. @reanimatsiya","markup":[{"type":"hashtag","offset":0,"length":9,"data":"вакансия"},{"type":"hashtag","offset":10,"length":5,"data":"офис"},{"type":"hashtag","offset":16,"length":7,"data":"Самара"},{"type":"hashtag","offset":24,"length":5,"data":"Java"},{"type":"bold","offset":103,"length":15,"data":""},{"type":"bold","offset":130,"length":9,"data":""},{"type":"link","offset":507,"length":24,"data":"http://open-distance.ru/"},{"type":"bold","offset":911,"length":70,"data":""},{"type":"bold","offset":1286,"length":28,"data":""},{"type":"bold","offset":1544,"length":43,"data":""},{"type":"bold","offset":1844,"length":59,"data":""},{"type":"handle","offset":1932,"length":13,"data":"reanimatsiya"}],"date":"2020-06-16T08:52:54+00:00","link":"tg://resolve?domain=jvmjobs&post=1610","tags":[{"name":"java"},{"name":"jvm"},{"name":"spring"},{"name":"hibernate"},{"name":"postgresql"},{"name":"oracle"},{"name":"sql"},{"name":"git"},{"name":"hadoop"},{"name":"lucene"},{"name":"elasticsearch"},{"name":"gradle"},{"name":"maven"},{"name":"sql-server"}],"cities":[{"code":"samara"}],"allowsRemote":false}},{"node":{"__typename":"Job","id":"1687158784-1001091028994","title":"Java разработчик","text":"#java #senior #backend #js #Москва #fulltime #офис #angular\nЛокация: Москва, м. Шаболовская\nФормат работы: Office\nЗанятость: Fulltime\nЗарплата от 100 к до 240 к\nОписание вакансии:\nРазработчик JAVA (senior\\middle)\nНаш клиент - международная компания, в связи с расширением деятельности в России - приглашает опытных Java-разработчиков. \nРазработка собственного продукта - коммерческого приложения на основе Angular front + Java backend.\nОбязанности:\n- разработка новых компонентов системы\n- доработка и оптимизация существующих компонентов\n- поддержка качества кода (code review, использование систем автоматизированного контроля кода)\n- Написание юнит-тестов и функциональных тестов\n- Взаимодействие с бизнес-аналитиками для выполнения техзадания\nТребования:\n- Высшее образование\n- Командность, гибкость подходов и мышления\n- опыт разработки на java от 3 лет\nТехнические требования:\n- знание java 8, Spring-*(Boot, Data, Rest), Hibernate\n- опыт работы с SQL (SQL Server, Oracle или postgresql)\n- понимание основ микросервисной архитектуры\n- Git\n-если ты умеешь работать с Docker и понимаешь практики DevOps ты тот, кто нам нужен.\nАдекватных руководителей, сильную команду и офисные плюшки гарантируем\nКА Wit recruitment\nКонтакты m.buldenko@witrec.com\n@marinabuldenko","markup":[{"type":"hashtag","offset":0,"length":5,"data":"java"},{"type":"hashtag","offset":6,"length":7,"data":"senior"},{"type":"hashtag","offset":14,"length":8,"data":"backend"},{"type":"hashtag","offset":23,"length":3,"data":"js"},{"type":"hashtag","offset":27,"length":7,"data":"Москва"},{"type":"hashtag","offset":35,"length":9,"data":"fulltime"},{"type":"hashtag","offset":45,"length":5,"data":"офис"},{"type":"hashtag","offset":51,"length":8,"data":"angular"},{"type":"link","offset":1229,"length":21,"data":"mailto:m.buldenko@witrec.com"},{"type":"handle","offset":1251,"length":15,"data":"marinabuldenko"}],"date":"2020-06-16T08:20:47+00:00","link":"tg://resolve?domain=jvmjobs&post=1609","tags":[{"name":"java"},{"name":"jvm"},{"name":"angularjs"},{"name":"spring"},{"name":"rest"},{"name":"hibernate"},{"name":"sql"},{"name":"oracle"},{"name":"postgresql"},{"name":"git"},{"name":"docker"},{"name":"spring-boot"},{"name":"sql-server"}],"cities":[{"code":"moscow"}],"allowsRemote":false}},{"node":{"__typename":"Job","id":"2214592512-1001134745498","title":"Devops инженер","text":"#вакансия #Remote #работаDevOps  #удаленка \n\nКомпания: IDG\nФормат работы: удаленка\nЗанятость: полная\nЗарплатная вилка: $2500 до $4000\n\n👋Всем привет. Меня зовут Гульназ. \nМы занимаемся разработкой собственных образовательных проектов, а также проектов для клиентов - технологических, финансовых и аудиторских компаний.\nСейчас мы ищем DevOps инженера в дополнение к нашей текущей DevOps-команде, который будет вместе с нами делать cross-cloud big-data/ai платформу для одного из наших крупных постоянных клиентов.\nУ нас всё в k8s. Помимо этого есть spark, несколько баз данных и еще куча всего интересного. Разворачиваем с помощью Terraform/Ansible/Helm\n\n📍Требования:\n\n- Опыт работы с AWS/Azure/GCE - от 2+ лет;\n- Опыт работы с Kubernetes - от 2+ лет\n- Опыт работы со Spark - от 1 года\n- Имеет опыт настройки и администрирования БД (Mongo, Redis, Rabbit, SQL Server, Postgres, MySQL, Elastic Search)\n- Опыт разработки на Python или других подобных языках;\n- Опыт организации процесса CI/CD (jenkins, teamcity).\n- Английский на уровне Intermediate и выше.\n\nБудет плюсом: \n\n- Опыт работы в крупных международных компаниях;\n- Опыт работы с технологиями Big Data;\n\n📌Что мы предлагаем:\n\n- Интересные задачи и возможность реализовать свой потенциал в международных проектах компании и внутренних стартапах;\n- Гибкий график (начало и конец рабочего дня согласовываются с менеджером и командой проекта)\n- Полностью удаленная работа\n- Дополнительные выплаты за профессиональные успехи\n\nКонтакт: @IDGAccount\n\n—\n\n👉 Обсуждение вакансии в чате @devops_jobs","markup":[{"type":"hashtag","offset":0,"length":9,"data":"вакансия"},{"type":"hashtag","offset":10,"length":7,"data":"Remote"},{"type":"hashtag","offset":18,"length":13,"data":"работаDevOps"},{"type":"hashtag","offset":33,"length":9,"data":"удаленка"},{"type":"handle","offset":1487,"length":11,"data":"IDGAccount"},{"type":"handle","offset":1533,"length":12,"data":"devops_jobs"}],"date":"2020-06-16T08:10:39+00:00","link":"tg://resolve?domain=devops_jobs_feed&post=2112","tags":[{"name":"cloud"},{"name":"ansible"},{"name":"amazon-web-services"},{"name":"azure"},{"name":"kubernetes"},{"name":"redis"},{"name":"rabbitmq"},{"name":"sql"},{"name":"postgresql"},{"name":"mysql"},{"name":"elasticsearch"},{"name":"python"},{"name":"jenkins"},{"name":"sql-server"}],"cities":[],"allowsRemote":true}}]}}},"context":{}}