{"hash":"f34fd2c444a074f4e0e67d525015a008ef8e766f","data":{"records":{"id":"rest","name":"rest","belongsTo":{"totalCount":66,"pageInfo":{"totalPages":7,"currentPage":7},"edges":[{"node":{"__typename":"Job","id":"202375168-1001352129329","title":"Golang разработчик","text":"#вакансия #godeveloper #golang #backend #fulltime #офис #middle #москва\n\nВсем привет! Разыскиваю Go разработчиков, так как появились новые проекты. \n\nСписок необходимых навыков:\n- Golang\n- Docker\n- SQL (В основном Postgres)\n- NoSQL (Redis/Elastic/Couchbase/Mongo/etc.. - зависит от задач)\n- REST/gRPC \n- Kubernetes\n\nЗ/П: 170 000- 230 000 net (обсуждаемо)\nУдаленка: да\nЛокация: Москва, м. Смоленская\nКомпания: МТС ИТ\nКонтакты: @horthekifo \n\nЧто нужно делать?\nРазрабатывать бекенд web-приложения и участвовать в проектировании архитектуры, проводить code review.\n\nНа данный момент есть несколько проектов, куда нужно по одному человеку. Трайб занимается автоматизацией внутренних бизнес-процессов. \n\nЧто мы предлагаем:\n- Белая ЗП, премия 20% от годового оклада;\n- ДМС со стоматологией;\n- Хакатоны, митапы;\n- Гибкое начало рабочего дня;\n- Корпоративная связь, доп. дни ежегодного отпуска;\n- Офис у м. Смоленская (7 мин. пешком).\n\nТут про проекты не пишу, т.к будет много текста, если вы по деньгам ок и по уровню middle/senior - welcome, расскажу про проекты, выберите наиболее интересный.\n Автор @Horthekifo","markup":[{"type":"hashtag","offset":0,"length":9,"data":"вакансия"},{"type":"hashtag","offset":10,"length":12,"data":"godeveloper"},{"type":"hashtag","offset":23,"length":7,"data":"golang"},{"type":"hashtag","offset":31,"length":8,"data":"backend"},{"type":"hashtag","offset":40,"length":9,"data":"fulltime"},{"type":"hashtag","offset":50,"length":5,"data":"офис"},{"type":"hashtag","offset":56,"length":7,"data":"middle"},{"type":"hashtag","offset":64,"length":7,"data":"москва"},{"type":"handle","offset":426,"length":11,"data":"horthekifo"},{"type":"handle","offset":1094,"length":11,"data":"Horthekifo"}],"date":"2020-01-14T11:23:01+00:00","link":"tg://resolve?domain=gogetajobfeed&post=193","tags":[{"name":"go"},{"name":"docker"},{"name":"sql"},{"name":"postgresql"},{"name":"nosql"},{"name":"redis"},{"name":"elasticsearch"},{"name":"rest"},{"name":"kubernetes"},{"name":"dotnet"},{"name":"web"}],"cities":[{"code":"moscow"}],"allowsRemote":false}},{"node":{"__typename":"Job","id":"74448896-1001375797688","title":".net разработчик","text":"#вакансия #dotnet #csharp #remote #удаленка\n\nФормат: #удаленка\nЗанятость: полная\nЗарплата: от 2 000$ до 3 500$ (зп обсуждается с каждым лично и зависит от вашего уровня...)\nКомпания: IDG\n\n💡Задачи:\n- Разработка высоконагруженных систем на стороне заказчика;\n- Поддержка и сопровождения проектов;\n\n📍Требования:\n- опыт разработки коммерческих приложений на платформе .NET от 2 лет;\n- опыт и понимание ASP.Net MVC, Web API, опыт работы с клиентскими JS фреймворками;\n- опыт и понимание протокола передачи данных REST;\n- знание и опыт работы с MongoDB или другой NoSQL базой данных;\n- технический английский;\n\n🔗Будет плюсом:\n- опыт работы в финансовой индустрии, либо другой корпоративной среде, где важна защита данных и правильная организация контроля доступа к исполнению кода\n- опыт работы с зарубежными заказчиками\n- использование TDD в разработке\n- наличие сертификатов Microsoft\n- опыт работы с Datawarehouse/Big Data системами\n- Опыт работы с VSTS\n- Опыт работы с Kubernetes/Docker\n- Опыт работы с React\n\n📝Условия:\n- Интересные задачи и возможность реализовать свой потенциал в международных проектах компании и внутренних стартапах;\n- Гибкий график (начало и конец рабочего дня согласовываются с менеджером и командой проекта)\n- Полностью удаленная работа\n\nРезюме можно в личку или на почту.\n\nКонтакты:\n📧 seleznevaem@gmail.com\n🖌@EkaterinaSel\n\nТакже буду благодарна за рекомендации.","markup":[{"type":"hashtag","offset":0,"length":9,"data":"вакансия"},{"type":"hashtag","offset":10,"length":7,"data":"dotnet"},{"type":"hashtag","offset":18,"length":7,"data":"csharp"},{"type":"hashtag","offset":26,"length":7,"data":"remote"},{"type":"hashtag","offset":34,"length":9,"data":"удаленка"},{"type":"bold","offset":45,"length":8,"data":""},{"type":"hashtag","offset":53,"length":9,"data":"удаленка"},{"type":"bold","offset":63,"length":11,"data":""},{"type":"bold","offset":81,"length":10,"data":""},{"type":"bold","offset":173,"length":9,"data":""},{"type":"link","offset":1314,"length":21,"data":"mailto:seleznevaem@gmail.com"},{"type":"handle","offset":1338,"length":13,"data":"EkaterinaSel"}],"date":"2020-01-08T12:47:08+00:00","link":"tg://resolve?domain=DotNetRuJobsFeed&post=71","tags":[{"name":"dotnet"},{"name":"csharp"},{"name":"web"},{"name":"rest"},{"name":"mongodb"},{"name":"nosql"},{"name":"kubernetes"},{"name":"docker"},{"name":"reactjs"},{"name":"asp-net"},{"name":"asp-net-mvc"}],"cities":[],"allowsRemote":true}},{"node":{"__typename":"Job","id":"197132288-1001352129329","title":"Golang developer","text":"#вакансия #Golang developer #офис #Москва #fulltime #метро Павелецкая #зп 150 000руб на руки. \n\nВсем привет! ❄️ \nНадежда - it рекрутер 😌 ищу Go developerа в компанию rubetek, которая занимается реализацией систем «умный дом».\nДержит свой интернет-магазин. В поисках коллеги, который сможет влиться в команду, чтобы совместно развивать серверную часть экосистемы и сопутствующие сервисы, поможет построить лучший в IoT отказоустойчивый сервис 24/7.\nЧто нужно будет делать:\n ⁃ Разрабатывать новый и поддерживать существующий функционал серверной части\n ⁃ Проектировать и реализовывать API для устройств IoT и публичное API экосистемы\n ⁃ Разрабатывать инструменты управления и мониторинга, сбора и анализа статистики\n ⁃ Анализировать и оптимизировать производительность сервисов\n ⁃ Писать модульные, функциональные и интеграционные тесты\n ⁃ Участвовать в совершенствовании архитектуры платформы\nМы ожидаем от Вас:\n • Уверенные знания языка Go (Golang), опыт коммерческих проектов на нем порядка двух лет\n • Нам важно! чтобы было стремление доводить дела до конца, а также несмотря на опыт и хорошую теоретическую подготовку была тяга к постоянному развитию.\n • Далее стек: SQL (у нас MariaDB)/NoSQL, Опыт работы с SQL/NoSQL\n • API, API Design ( REST, RPC)\n • Хорошие знания Git\n • Написание тестов, CI\n • Уверенное использование Linux\nКомпания предлагает в замен:\n • Интересная работа в инновационном проекте в сфере IoT.\n • Официальное трудоустройство по ТК РФ с 1-го рабочего дня и полностью белая зарплата.\n • Оплачиваемые отпуск и больничный.\n • Благоприятные условия работы и очень дружный коллектив.\n • Комфортный и современный офис в стиле лофт в Бизнес квартале Новоспасский двор, в шаговой доступности от м. Павелецкая.\n • Заработная плата до 150 000 руб по итогу собеседования.\n\nПишите @NadiSmile или скидывайте информацию о себе n.ivanova@witrec.com\n Автор @NadiSmile","markup":[{"type":"hashtag","offset":0,"length":9,"data":"вакансия"},{"type":"hashtag","offset":10,"length":7,"data":"Golang"},{"type":"hashtag","offset":28,"length":5,"data":"офис"},{"type":"hashtag","offset":34,"length":7,"data":"Москва"},{"type":"hashtag","offset":42,"length":9,"data":"fulltime"},{"type":"hashtag","offset":52,"length":6,"data":"метро"},{"type":"hashtag","offset":70,"length":3,"data":"зп"},{"type":"handle","offset":1794,"length":10,"data":"NadiSmile"},{"type":"link","offset":1838,"length":20,"data":"mailto:n.ivanova@witrec.com"},{"type":"handle","offset":1866,"length":10,"data":"NadiSmile"}],"date":"2019-12-25T13:40:49+00:00","link":"tg://resolve?domain=gogetajobfeed&post=188","tags":[{"name":"go"},{"name":"sql"},{"name":"mariadb"},{"name":"nosql"},{"name":"rest"},{"name":"git"},{"name":"linux"}],"cities":[{"code":"moscow"}],"allowsRemote":false}},{"node":{"__typename":"Job","id":"72351744-1001375797688","title":".net developer","text":"#вакансия # C# #Москва #fulltime#офис \nSoftware Engineer/Developer (C#)\nМеждународная ИТ компания приглашает к себе в команду С# Developer с опытом от года.\nResponsibilities:\nAbility to reproduce and analyze issue according requirements and design. Review similar behavioral and relation with other components in system.\nClarify scope of changes and review with Technical expert, Product Owner if needed.\nDevelop business software in according standard and work procedures.\nParticipate in review code process.\nSupport and create and review Unit Tests, Automated tests\nWork closely with Team, attend all Agile activities\n\nSkills:\nUnderstanding of object oriented development principles required, client-server architecture.\nGood knowledge of C#, .Net, WCF, XML, JSON, REST (required)\nKnowledge of SQL Server\nAngular or ASP (desired)\nJira, TFS, Git (desired)\nReading/writing English – intermediate\nУсловия: 130 000 RUR фикс до вычета налогов + ДМС (со стоматологией) + страхование жизни + изучение англ в офисе + бонус.\nКОНТАКТЫ:\nЮлия Вербицкая: @julia_bright или  julia@brightis.ru\n+7(926) 478-30-02","markup":[{"type":"hashtag","offset":0,"length":9,"data":"вакансия"},{"type":"hashtag","offset":15,"length":7,"data":"Москва"},{"type":"handle","offset":1044,"length":13,"data":"julia_bright"},{"type":"link","offset":1063,"length":17,"data":"mailto:julia@brightis.ru"},{"type":"link","offset":1081,"length":17,"data":"tel:+7(926) 478-30-02"}],"date":"2019-12-24T10:45:32+00:00","link":"tg://resolve?domain=DotNetRuJobsFeed&post=69","tags":[{"name":"dotnet"},{"name":"csharp"},{"name":"wcf"},{"name":"xml"},{"name":"json"},{"name":"rest"},{"name":"sql"},{"name":"angularjs"},{"name":"tfs"},{"name":"git"},{"name":"sql-server"}],"cities":[{"code":"moscow"}],"allowsRemote":false}},{"node":{"__typename":"Job","id":"195035136-1001352129329","title":"Golang developer","text":"#вакансия #godeveloper #golang #backtend #fulltime #офис #middle #москва\n\nСписок необходимых навыков:\n- Golang\n- Docker\n- SQL (В основном Postgres)\n- NoSQL (Redis/Elastic/Couchbase/Mongo/etc.. - зависит от задач)\n- REST/gRPC \n- Kubernetes\n\nЗ/П: 170 000- 230 000 net (обсуждаемо)\nУдаленка: нет\nЛокация: Москва, м. Смоленская\nКомпания: МТС ИТ\nКонтакты: @horthekifo \n\nЧто нужно делать?\nРазрабатывать бекенд web-приложения и участвовать в проектировании архитектуры, проводить code review.\n\nНа данный момент есть два проекта, куда нужно по одному человеку. Трайб занимается автоматизацией внутренних бизнес-процессов. \n\nЧто мы предлагаем:\n- Белая ЗП, премия 20% от годового оклада;\n- ДМС со стоматологией;\n- Хакатоны, митапы;\n- Гибкое начало рабочего дня;\n- Корпоративная связь, доп. дни ежегодного отпуска;\n- Офис у м. Смоленская (7 мин. пешком).\n\nТут про проекты не пишу, т.к будет много текста, если вы по деньгам ок и по уровню middle/senior - welcome, расскажу про проекты, выберите наиболее интересный.\n Автор @Horthekifo","markup":[{"type":"hashtag","offset":0,"length":9,"data":"вакансия"},{"type":"hashtag","offset":10,"length":12,"data":"godeveloper"},{"type":"hashtag","offset":23,"length":7,"data":"golang"},{"type":"hashtag","offset":31,"length":9,"data":"backtend"},{"type":"hashtag","offset":41,"length":9,"data":"fulltime"},{"type":"hashtag","offset":51,"length":5,"data":"офис"},{"type":"hashtag","offset":57,"length":7,"data":"middle"},{"type":"hashtag","offset":65,"length":7,"data":"москва"},{"type":"handle","offset":351,"length":11,"data":"horthekifo"},{"type":"handle","offset":1012,"length":11,"data":"Horthekifo"}],"date":"2019-12-23T13:23:38+00:00","link":"tg://resolve?domain=gogetajobfeed&post=186","tags":[{"name":"go"},{"name":"docker"},{"name":"sql"},{"name":"postgresql"},{"name":"nosql"},{"name":"redis"},{"name":"elasticsearch"},{"name":"rest"},{"name":"kubernetes"},{"name":"dotnet"},{"name":"web"}],"cities":[{"code":"moscow"}],"allowsRemote":false}},{"node":{"__typename":"Job","id":"65011712-1001375797688","title":".net разработчик","text":"#вакансия #vbnet #net #backend\n#Москва, м. Белорусская, #fulltime, #офис\n#Вознаграждение: 150-200 тыс. руб net + премии (+20% к окладу), соц. пакет.\n\n🎯Back-end разработчик / Back-end Developer (VB.NET, .NET)\n\nКоллеги, добрый день! \n\nНаходимся в поисках разработчика/архитектора для поддержки и развития функциональности финансово-биллинговой системы Elite 3E, путем доработок программного продукта (на базе VB.NET, .NET), и участия в проектах по внедрению новых модулей, интеграции с прочими системами компании (DMS, CRM).\n\nТекущий язык программирования нашей системы на 90% похож на VB.NET (но работает вне рамок .NET среды разработки т.к. среда разработки от вендора системы).\nВ среднесрочной перспективе систему полностью переведут на .NET и в обязанности будет входить работа именно с .NET и его фрейморками, средой разработки и т.д.\n\n#Требования: \n🧩Отличные знания и практический опыт VB.NET, VBA, .NET, MS SQL, WEB API (REST, SOAP);\n🧩Хорошие знания и практический опыт XML и XSLT-преобразований;\n🧩Хороший практический опыт работы с Entity Framework (или иными современными ORM);\n🧩Умение продумывать и проектировать архитектуру программных приложений, знание принципов ООП, популярных паттернов проектирования, принципов SOLID\n\nБуду рад ответить на вопросы и пояснить детали вакансии. Хорошего дня!\n\nПолное описание по ссылкам:\nhttps://lnkd.in/dPE_Trc\nhttps://lnkd.in/dxfVQRz\n\nКонтакты для связи:\nabelov@alrud.com\n+7 (926) 470-97-21 (telegram, whatsapp)","markup":[{"type":"bold","offset":0,"length":16,"data":""},{"type":"hashtag","offset":0,"length":9,"data":"вакансия"},{"type":"hashtag","offset":10,"length":6,"data":"vbnet"},{"type":"hashtag","offset":17,"length":4,"data":"net"},{"type":"bold","offset":17,"length":4,"data":""},{"type":"bold","offset":22,"length":16,"data":""},{"type":"hashtag","offset":22,"length":8,"data":"backend"},{"type":"hashtag","offset":31,"length":7,"data":"Москва"},{"type":"hashtag","offset":56,"length":9,"data":"fulltime"},{"type":"bold","offset":56,"length":9,"data":""},{"type":"bold","offset":67,"length":21,"data":""},{"type":"hashtag","offset":67,"length":5,"data":"офис"},{"type":"hashtag","offset":73,"length":15,"data":"Вознаграждение"},{"type":"bold","offset":152,"length":58,"data":""},{"type":"link","offset":195,"length":6,"data":"http://VB.NET"},{"type":"link","offset":408,"length":6,"data":"http://VB.NET"},{"type":"link","offset":585,"length":6,"data":"http://VB.NET"},{"type":"hashtag","offset":840,"length":11,"data":"Требования"},{"type":"link","offset":892,"length":6,"data":"http://VB.NET"},{"type":"link","offset":1338,"length":23,"data":"https://lnkd.in/dPE_Trc"},{"type":"link","offset":1362,"length":23,"data":"https://lnkd.in/dxfVQRz"},{"type":"link","offset":1407,"length":16,"data":"mailto:abelov@alrud.com"},{"type":"link","offset":1424,"length":18,"data":"tel:+7 (926) 470-97-21"}],"date":"2019-12-14T19:59:03+00:00","link":"tg://resolve?domain=DotNetRuJobsFeed&post=62","tags":[{"name":"dotnet"},{"name":"csharp"},{"name":"vba"},{"name":"sql"},{"name":"web"},{"name":"rest"},{"name":"soap"},{"name":"xml"},{"name":"xslt"},{"name":"orm"},{"name":"entity-framework"}],"cities":[{"code":"moscow"}],"allowsRemote":false}}]}}},"context":{}}