{"hash":"f5f6bf98bd95e769321482904cbbd488f77922fd","data":{"records":{"id":"express","name":"express","belongsTo":{"totalCount":16,"pageInfo":{"totalPages":2,"currentPage":2},"edges":[{"node":{"__typename":"Job","id":"17179869184-1001110946746","title":"Js разработчик","text":"#вакансия #JavaScript #Node.js #Екатеринбург\n\nГород: Екатеринбург\nФормат: Обсуждаемый (офис/удаленка)\nзанятость: Полная\nУровень: Junior/Middle\nзп: 30 000 - 80 000 ₽ net\n\nО компании: YetiCrab (https://yeticrab.org/) - команда специалистов по разработке различных приложений (web, desktop, mobile) и сервисов на основе web-технологий. У нас много интересных проектов с заказчиками по всему миру. Мы ищем к себе в команду ответственного человека, который хочет и готов активно расти как разработчик и специалист.\n\nОбязанности:\n- Разработка Web и мобильных приложений на JavaScript с применением современных framework-ов\n- Исследование и внедрение новых тенденций и технологий\n\nТребования:\n- Хорошее знание JavaScript (ES5, ES6), HTML, CSS\n- Опыт работы с современными фреймворками (Angular/React/Vue)\n- Понимание REST\n- Умение пользоваться Git\n- Навыки работы в команде\n\nБудет плюсом:\n- Опыт работы с WebSockets и GraphQL\n- Разговорный английский язык\n- Знание Node.js и опыт работы с Express.js/KOA/Nest.js/Next.js\n- Приветствуется знание React Native или Ionic\n- Понимание работы с CI/CD\n- Опыт работы с Electron.js, PWA\n- Знание Python\n\nМы предлагаем:\n- Гибкий график работы\n- Просторный офис\n- Возможность удаленной работы\n- Рабочий ноутбук MacBook Apple\n- Чай, кофе, печеньки и другие плюшки в офисе\n- Постоянное обучение, развитие скиллов\n- Поддержку от команды единомышленников\n- Возможность получить опыт в разных проектах и изучить новые технологии\n- Поездки на IT-конференции\n\nКонтакты: @artemkuzvesov\n\n—\n\n👉 Обсуждение вакансии в чате @javascript_jobs","markup":[{"type":"hashtag","offset":0,"length":9,"data":"вакансия"},{"type":"hashtag","offset":10,"length":11,"data":"JavaScript"},{"type":"hashtag","offset":22,"length":5,"data":"Node"},{"type":"hashtag","offset":31,"length":13,"data":"Екатеринбург"},{"type":"link","offset":147,"length":15,"data":"tel:30 000 - 80 000"},{"type":"link","offset":192,"length":21,"data":"https://yeticrab.org/"},{"type":"handle","offset":1494,"length":14,"data":"artemkuzvesov"},{"type":"handle","offset":1543,"length":16,"data":"javascript_jobs"}],"date":"2020-06-27T12:12:37+00:00","link":"tg://resolve?domain=javascript_jobs_feed&post=16384","tags":[{"name":"javascript"},{"name":"nodejs"},{"name":"dotnet"},{"name":"web"},{"name":"mobile"},{"name":"html"},{"name":"css"},{"name":"angularjs"},{"name":"reactjs"},{"name":"vuejs"},{"name":"rest"},{"name":"git"},{"name":"graphql"},{"name":"express"},{"name":"electron"},{"name":"python"},{"name":"react-native"}],"cities":[],"allowsRemote":true}},{"node":{"__typename":"Job","id":"16954425344-1001110946746","title":"Js разработчик","text":"#вакансия #удалённо #nestjs #nest #fullstack #typescript \n\nFullstack TypeScript Developer\n\nhttps://edm-ghost-production.com ищет в команду разработчика для создания музыкальной платформы. \n\n⭐Стек: \nNode.Js, TypeScript, Express, NestJS, TypeOrm, PostgreSQL, Redis, Vue \n\n🔻 Требования:\n- Опыт работы с NestJS (не менее 6 месяцев), TypeOrm;\n- Опыт работы с Vue (vue-class-component, vue-property-decorator) не менее года\n- Знания ES6/ES7/ES8;\n- REST APIs, на основе Express и NestJS;\n- Опыт работы с PostgreSQL; \n- Typescript (не менее года)\n- ESLint;\n- Знание основ систем контроля версий (Git);\n- Умение работать в команде и писать чистый код;\n\n💥Будет плюсом:\n- AWS S3;\n- Интеграция с Helpdesk (Zendesk/Intercom/Helpcrunch etc.)\n\n🙋♂Обязанности:\n- Разработка бэкенда и фронтэнда нового приложения \n- Взаимодействие с другими разработчиками\n\n🔹Условия:\n- Удалённая работа\n- Полная занятость \n- Гибкий график работы (важно что бы все задачи были выполнены)\n- Зарплатная вилка 120 000 - 200 000 рублей (в зависимости от уровня кандидата middle/senior)\n\nПрисылайте CV в ЛС @alexlarichev","markup":[{"type":"hashtag","offset":0,"length":9,"data":"вакансия"},{"type":"hashtag","offset":10,"length":9,"data":"удалённо"},{"type":"hashtag","offset":20,"length":7,"data":"nestjs"},{"type":"hashtag","offset":28,"length":5,"data":"nest"},{"type":"hashtag","offset":34,"length":10,"data":"fullstack"},{"type":"hashtag","offset":45,"length":11,"data":"typescript"},{"type":"link","offset":91,"length":32,"data":"https://edm-ghost-production.com"},{"type":"handle","offset":1070,"length":13,"data":"alexlarichev"}],"date":"2020-06-16T06:34:02+00:00","link":"tg://resolve?domain=javascript_jobs_feed&post=0","tags":[{"name":"javascript"},{"name":"typescript"},{"name":"nodejs"},{"name":"express"},{"name":"postgresql"},{"name":"redis"},{"name":"vuejs"},{"name":"rest"},{"name":"git"},{"name":"amazon-web-services"}],"cities":[],"allowsRemote":true}},{"node":{"__typename":"Job","id":"16931356672-1001110946746","title":"Js разработчик","text":"Друзья, ура! В связи с продолжающимся ростом и развитием, следующие 10 дней ищем себе боевого товарища и коллегу! 🎉\n\n🎸 Трудолюбивый JavaScript (React.js) Engineer, приди!\n\n🔖 #вакансия / #remote #удаленка / #полная #fulltime / #reactjs #javascript\n\nЭта не просто вакансия. Это возможность для стабильного профессионального, финансового и карьерного роста. Мы уделяем большое внимание системности, общей продуктивности и согласованности совместной работы, поэтому ищем коллегу на удалённый (remote) формат работы.\n\n\n📲 Кто мы?\n\n→ Компания Axept занимается консалтингом и заказной разработкой программных продуктов.\n→ Наши клиенты – крупные корпорации в России, профессионалы из Европы, Сингапура и Японии.\n→ Текущий портфель проектов – Личные кабинеты, ERP, Поисковые системы, CRM, dashboards, Социальные сети, мобильные приложения.\n→ Центры разработки находится в Москве. Но 70% сотрудников работают удалённо.\n→ Ключевой момент — мы относимся к проектам наших клиентов ❤️, как к своим собственным, с любовью и максимальной ответственностью.\n→ Мы любим то, что делаем. Более подробно здесь – www.axept.com/ru-ru/jobs\n\n🎸 Чем предстоит заниматься?\n\n→ Разрабатывать и развивать веб-приложения с нами, используя React.js, Redux, TypeScript, Styled Components, иногда – Node.js, React Native и GraphQL.\n→ Принимать архитектурные решения и думать наперёд.\n→ Влиять на развитие команды разработки и выбор технологий в проекте.\n→ Активно учиться, развиваться и делиться знаниями с коллегами.\n→ Заботиться о производительности, качестве и устойчивости поставляемых нами приложений.\n\n💪 Для этого вам потребуется:\n\n→ Любить свою профессию и то, что вы делаете. Горят глаза? Срочно к нам. \n→ Опыт разработки сервисов с REST API. Знакомство с JSON API, Swagger и GraphQL будет жирным плюсом.\n→ Хорошее знание экосистемы React и Redux. Уметь и любить гуглить.\n→ Понимание изоморфных React-приложений и SSR. Про это и наш доклад 5-летней давности https://youtu.be/xarGaBBDROw\n→ Будет плюсом опыт разработки на Node.js (SSR, PostgreSQL, Express, Passport, JWT)\n→ Хорошее понимание HTTP. А если есть опыт с WebSockets, то это wow! 🎉\n→ Свободное владение ES6. Опыт с TypeScript ускорит погружение.\n→ Понимание принципов ФП и ООП.\n→ Уметь свободно пользоваться Git. Знание Git Flow.\n→ Желательно понимание Styled Components.\n→ Свободное владение CSS 3.\n→ Умение решать проблемы (кросс-браузерная верстка, отладка).\n→ Отсутствие проблем с Pixel Perfect и сеткой. Вёрстка для вас – это просто, а для нас – важно.\n→ Умение работать в команде, прогнозировать риски и следовать соглашениям.\n\n🎁 Что мы предлагаем?\n\n1. ПОЛНОСТЬЮ удалённая работа.\n2. Серьезные проекты для крупнейших банков, страховых компаний и Интернет-компаний. Команды и задачи, которые обеспечат вам профессиональный рост и активное развитие.\n3. Возможность выбирать проекты.\n4. Когда пожелаете, можете присоединиться к нам в новом офисе на ст.м. Калужская в БЦ \"Нео Гео\" – самом стильном и награждаемом БЦ в России с качественной новой техникой (Apple, HP, Dell) и гаджетами. Чай/кофе, фрукты, M&M's и прочие сладости в свободном доступе.\n5. Стабильность. Большие возможности для карьерного роста. Профессиональный рост за счёт наших практик – гарантирован.\n6. Гибрид европейской, японской и российской культуры работы. \n7. Оформление по ТК РФ. \n8. Занятость будет полная. Зарплата на руки от 130 000 до 160 000 рублей (Senior), Middle – от 90 000 до 120 000 рублей.\n9. Корпоративный ДМС (по запросу, разные опции).\n10. Гордость за годы, проведённые здесь, за результаты, достигнутые вместе.\n11. Админка в React-чате – в подарок! 😉 Шутка.\n\n🚀 Отнеситесь с вниманием! Жизнь одна. Уделите немного времени. Напишите о себе, приложите резюме и отправьте на jobs@axept.com, или в ЛС @AxeptJobs, или в ЛС @DenisIzmaylov","markup":[{"type":"hashtag","offset":177,"length":9,"data":"вакансия"},{"type":"hashtag","offset":189,"length":7,"data":"remote"},{"type":"hashtag","offset":197,"length":9,"data":"удаленка"},{"type":"hashtag","offset":209,"length":7,"data":"полная"},{"type":"hashtag","offset":217,"length":9,"data":"fulltime"},{"type":"hashtag","offset":229,"length":8,"data":"reactjs"},{"type":"hashtag","offset":238,"length":11,"data":"javascript"},{"type":"link","offset":1093,"length":24,"data":"http://www.axept.com/ru-ru/jobs"},{"type":"link","offset":1935,"length":28,"data":"https://youtu.be/xarGaBBDROw"},{"type":"link","offset":3705,"length":14,"data":"mailto:jobs@axept.com"},{"type":"handle","offset":3730,"length":10,"data":"AxeptJobs"},{"type":"handle","offset":3751,"length":14,"data":"DenisIzmaylov"}],"date":"2020-06-15T12:54:27+00:00","link":"tg://resolve?domain=javascript_jobs_feed&post=0","tags":[{"name":"javascript"},{"name":"reactjs"},{"name":"redux"},{"name":"typescript"},{"name":"nodejs"},{"name":"graphql"},{"name":"rest"},{"name":"json"},{"name":"swagger"},{"name":"postgresql"},{"name":"express"},{"name":"jwt"},{"name":"git"},{"name":"css"},{"name":"react-redux"},{"name":"react-native"}],"cities":[],"allowsRemote":true}},{"node":{"__typename":"Job","id":"16914579456-1001110946746","title":"Js разработчик","text":"🎸 Трудолюбивый JavaScript (React.js) Engineer, приди!\n\n🔖 #вакансия / #remote #удаленка / #полная #fulltime / #reactjs #javascript\n\nЭта не просто вакансия. Это возможность для стабильного профессионального, финансового и карьерного роста. Мы уделяем большое внимание системности, общей продуктивности и согласованности совместной работы, поэтому ищем коллегу на удалённый (remote) формат работы.\n\n\n📲 Кто мы?\n\n→ Компания Axept занимается консалтингом и заказной разработкой программных продуктов.\n→ Наши клиенты – крупные корпорации в России, профессионалы из Европы, Сингапура и Японии.\n→ Текущий портфель проектов – Личные кабинеты, ERP, Поисковые системы, CRM, dashboards, Социальные сети, мобильные приложения.\n→ Центры разработки находится в Москве. Но 70% сотрудников работают удалённо.\n→ Ключевой момент — мы относимся к проектам наших клиентов ❤️, как к своим собственным, с любовью и максимальной ответственностью.\n→ Мы любим то, что делаем. Более подробно здесь – www.axept.com/ru-ru/jobs\n\n🎸 Чем предстоит заниматься?\n\n→ Разрабатывать и развивать веб-приложения с нами, используя React.js, Redux, TypeScript, Styled Components, иногда – Node.js, React Native и GraphQL.\n→ Принимать архитектурные решения и думать наперёд.\n→ Влиять на развитие команды разработки и выбор технологий в проекте.\n→ Активно учиться, развиваться и делиться знаниями с коллегами.\n→ Заботиться о производительности, качестве и устойчивости поставляемых нами приложений.\n\n💪 Для этого вам потребуется:\n\n→ Любить свою профессию и то, что вы делаете. Горят глаза? Срочно к нам. \n→ Опыт разработки сервисов с REST API. Знакомство с JSON API, Swagger и GraphQL будет жирным плюсом.\n→ Хорошее знание экосистемы React и Redux. Уметь и любить гуглить.\n→ Понимание изоморфных React-приложений и SSR. Про это и наш доклад 5-летней давности https://youtu.be/xarGaBBDROw\n→ Будет плюсом опыт разработки на Node.js (SSR, PostgreSQL, Express, Passport, JWT)\n→ Хорошее понимание HTTP. А если есть опыт с WebSockets, то это wow! 🎉\n→ Свободное владение ES6. Опыт с TypeScript ускорит погружение.\n→ Понимание принципов ФП и ООП.\n→ Уметь свободно пользоваться Git. Знание Git Flow.\n→ Желательно понимание Styled Components.\n→ Свободное владение CSS 3.\n→ Умение решать проблемы (кросс-браузерная верстка, отладка).\n→ Отсутствие проблем с Pixel Perfect и сеткой. Вёрстка для вас – это просто, а для нас – важно.\n→ Умение работать в команде, прогнозировать риски и следовать соглашениям.\n\n🎁 Что мы предлагаем?\n\n1. ПОЛНОСТЬЮ удалённая работа.\n2. Серьезные проекты для крупнейших банков, страховых компаний и Интернет-компаний. Команды и задачи, которые обеспечат вам профессиональный рост и активное развитие.\n3. Возможность выбирать проекты.\n4. Когда пожелаете, можете присоединиться к нам в новом офисе на ст.м. Калужская в БЦ \"Нео Гео\" – самом стильном и награждаемом БЦ в России с качественной новой техникой (Apple, HP, Dell) и гаджетами. Чай/кофе, фрукты, M&M's и прочие сладости в свободном доступе.\n5. Стабильность. Большие возможности для карьерного роста. Профессиональный рост за счёт наших практик – гарантирован.\n6. Гибрид европейской, японской и российской культуры работы. \n7. Оформление по ТК РФ. \n8. Занятость будет полная. Зарплата на руки от 130 000 до 160 000 рублей (Senior), Middle – от 90 000 до 120 000 рублей.\n9. Корпоративный ДМС (по запросу, разные опции).\n10. Гордость за годы, проведённые здесь, за результаты, достигнутые вместе.\n11. Админка в React-чате – в подарок! 😉 Шутка.\n\n🚀 Отнеситесь с вниманием! Жизнь одна. Уделите немного времени. Напишите о себе, приложите резюме и отправьте на jobs@axept.com, или в ЛС @AxeptJobs, или в ЛС @AxeptJobs","markup":[{"type":"hashtag","offset":59,"length":9,"data":"вакансия"},{"type":"hashtag","offset":71,"length":7,"data":"remote"},{"type":"hashtag","offset":79,"length":9,"data":"удаленка"},{"type":"hashtag","offset":91,"length":7,"data":"полная"},{"type":"hashtag","offset":99,"length":9,"data":"fulltime"},{"type":"hashtag","offset":111,"length":8,"data":"reactjs"},{"type":"hashtag","offset":120,"length":11,"data":"javascript"},{"type":"link","offset":975,"length":24,"data":"http://www.axept.com/ru-ru/jobs"},{"type":"link","offset":1817,"length":28,"data":"https://youtu.be/xarGaBBDROw"},{"type":"link","offset":3587,"length":14,"data":"mailto:jobs@axept.com"},{"type":"handle","offset":3612,"length":10,"data":"AxeptJobs"},{"type":"handle","offset":3633,"length":10,"data":"AxeptJobs"}],"date":"2020-06-15T08:03:02+00:00","link":"tg://resolve?domain=javascript_jobs_feed&post=0","tags":[{"name":"javascript"},{"name":"reactjs"},{"name":"redux"},{"name":"typescript"},{"name":"nodejs"},{"name":"graphql"},{"name":"rest"},{"name":"json"},{"name":"swagger"},{"name":"postgresql"},{"name":"express"},{"name":"jwt"},{"name":"git"},{"name":"css"},{"name":"react-redux"},{"name":"react-native"}],"cities":[],"allowsRemote":true}},{"node":{"__typename":"Job","id":"16890462208-1001110946746","title":"Js разработчик","text":"#remote #вакансия #typescript #node #nodejs #express #expressjs #fulltime #fullstack #москва #санктпетербург #новосибирск #екатеринбург #нижний #новгород #нижнийновгород #пермь #уфа #ульяновск\nНазвание компании: 4spaces\nПозиция: Full Stack JavaScript/TypeScript/Node.js Разработчик\nФормат работы: #удаленка\nЗанятость: полная\nЗарплатная вилка: от 80 000 руб. до 200 000 руб.\n\nОписание вакансии:\nМы ищем талантливого fullstack разработчика с коммерческим опытом создания сложных/высоконагруженных сервисов. Львиная доля разработки приходится на бэкэнд, поэтому значние frontend технологий опционально при условии высокого уровня разработки на стороне backend.\n\nДанная позиция предполагает полную занятость (минимум 40 часовая рабочая неделя).\n\nРассматриваем Senior и Middle кандидатов.\n\nТребования:\n* опыт работы с NodeJS\n* опыт работы с Typescript или JavaScript\n* опыт автоматизации процессов разработки: CI/CD, PR Checks, и т.д.\n* знанение git, gitflow, github flow, и т.д.\n* знание стандартных фреймворков и SDK\n* самое важное – умение и желание получать новые знания необходимые для работы\n\nБудет плюсом:\n* опыт разработки RESTful API\n* опыт работы c ExpressJS\n* опыт работы с ReactJS, webpack, rollup, parcel, jest\n* опыт работы или хотя бы понимание архитектуры Serverless\n* опыт работы в создании/поддержки инфраструктуры на AWS\n* опыт работы с алгоритмами Machine Learning, в частности, для рекомендательных систем.\n* опыт работы c Typescript\n* опыт работы c frontend frameworks, например React, Angular, JQuery\n* опыт работы с SQL и NoSQL базами данных, например MySQL, Postgres, Elasticsearch, Cassandra, AWS DynamoDB, Mongo, Redis etc.\n* опыт работы с масштабируемыми технологиями кэширования, например memchached, Coherence, Infinispan etc.\n* опыт работы с Linux\n* понимание современных процессов и лучших практик разработки: TDD, DDD, CQRS, Eventsourcing, и так далее\n* опыт контрибуции в Open Source (приложите ссылку на github, если есть на что посмотреть)\n\nКонтакты:\nВакансия – https://hh.ru/vacancy/37464232\nEmail – abalchunas@4spaces.company\nSkype – alexey.balchunas\nTelegram – https://t.me/AlexeyBalchunas","markup":[{"type":"hashtag","offset":0,"length":7,"data":"remote"},{"type":"hashtag","offset":8,"length":9,"data":"вакансия"},{"type":"hashtag","offset":18,"length":11,"data":"typescript"},{"type":"hashtag","offset":30,"length":5,"data":"node"},{"type":"hashtag","offset":36,"length":7,"data":"nodejs"},{"type":"hashtag","offset":44,"length":8,"data":"express"},{"type":"hashtag","offset":53,"length":10,"data":"expressjs"},{"type":"hashtag","offset":64,"length":9,"data":"fulltime"},{"type":"hashtag","offset":74,"length":10,"data":"fullstack"},{"type":"hashtag","offset":85,"length":7,"data":"москва"},{"type":"hashtag","offset":93,"length":15,"data":"санктпетербург"},{"type":"hashtag","offset":109,"length":12,"data":"новосибирск"},{"type":"hashtag","offset":122,"length":13,"data":"екатеринбург"},{"type":"hashtag","offset":136,"length":7,"data":"нижний"},{"type":"hashtag","offset":144,"length":9,"data":"новгород"},{"type":"hashtag","offset":154,"length":15,"data":"нижнийновгород"},{"type":"hashtag","offset":170,"length":6,"data":"пермь"},{"type":"hashtag","offset":177,"length":4,"data":"уфа"},{"type":"hashtag","offset":182,"length":10,"data":"ульяновск"},{"type":"hashtag","offset":297,"length":9,"data":"удаленка"},{"type":"link","offset":1993,"length":30,"data":"https://hh.ru/vacancy/37464232"},{"type":"link","offset":2032,"length":26,"data":"http://abalchunas@4spaces.company"},{"type":"link","offset":2095,"length":28,"data":"https://t.me/AlexeyBalchunas"}],"date":"2020-06-13T15:02:56+00:00","link":"tg://resolve?domain=javascript_jobs_feed&post=16108","tags":[{"name":"javascript"},{"name":"typescript"},{"name":"nodejs"},{"name":"express"},{"name":"git"},{"name":"github"},{"name":"reactjs"},{"name":"webpack"},{"name":"amazon-web-services"},{"name":"angularjs"},{"name":"jquery"},{"name":"sql"},{"name":"nosql"},{"name":"mysql"},{"name":"postgresql"},{"name":"elasticsearch"},{"name":"cassandra"},{"name":"dynamodb"},{"name":"redis"},{"name":"linux"},{"name":"machine-learning"}],"cities":[{"code":"moscow"},{"code":"novosibirsk"},{"code":"perm"},{"code":"ufa"},{"code":"ulyanovsk"},{"code":"nizhny-novgorod"}],"allowsRemote":true}},{"node":{"__typename":"Job","id":"16886267904-1001110946746","title":"Js разработчик","text":"#remote #вакансия #typescript #node #nodejs #express #expressjs #fulltime #fullstack #москва #санктпетербург #новосибирск #екатеринбург #нижний #новгород #нижнийновгород #пермь #уфа #ульяновск\nНазвание компании: 4spaces\nПозиция: Full Stack JavaScript/TypeScript/Node.js Разработчик\nФормат работы: #удаленка\nЗанятость: полная\nЗарплатная вилка: от 80 000 руб. до 200 000 руб.\n\nОписание вакансии:\nМы ищем талантливого fullstack разработчика с коммерческим опытом создания сложных/высоконагруженных сервисов. Львиная доля разработки приходится на бэкэнд, поэтому значние frontend технологий опционально при условии высокого уровня разработки на стороне backend.\n\nДанная позиция предполагает полную занятость (минимум 40 часовая рабочая неделя).\n\nРассматриваем Senior и Middle кандидатов.\n\nТребования:\n* опыт работы с NodeJS\n* опыт работы с Typescript или JavaScript\n* опыт автоматизации процессов разработки: CI/CD, PR Checks, и т.д.\n* знанение git, gitflow, github flow, и т.д.\n* знание стандартных фреймворков и SDK\n* самое важное – умение и желание получать новые знания необходимые для работы\n\nБудет плюсом:\n* опыт разработки RESTful API\n* опыт работы c ExpressJS\n* опыт работы с ReactJS, webpack, rollup, parcel, jest\n* опыт работы или хотя бы понимание архитектуры Serverless\n* опыт работы в создании/поддержки инфраструктуры на AWS\n* опыт работы с алгоритмами Machine Learning, в частности, для рекомендательных систем.\n* опыт работы c Typescript\n* опыт работы c frontend frameworks, например React, Angular, JQuery\n* опыт работы с SQL и NoSQL базами данных, например MySQL, Postgres, Elasticsearch, Cassandra, AWS DynamoDB, Mongo, Redis etc.\n* опыт работы с масштабируемыми технологиями кэширования, например memchached, Coherence, Infinispan etc.\n* опыт работы с Linux\n* понимание современных процессов и лучших практик разработки: TDD, DDD, CQRS, Eventsourcing, и так далее\n* опыт контрибуции в Open Source (приложите ссылку на github, если есть на что посмотреть)\n\nКонтакты:\nВакансия – https://hh.ru/vacancy/37464232\nEmail – abalchunas@4spaces.company\nSkype – alexey.balchunas\nTelegram – https://t.me/AlexeyBalchunas\n\n—\n\n👉 Обсуждение вакансии в чате @javascript_jobs","markup":[{"type":"hashtag","offset":0,"length":7,"data":"remote"},{"type":"hashtag","offset":8,"length":9,"data":"вакансия"},{"type":"hashtag","offset":18,"length":11,"data":"typescript"},{"type":"hashtag","offset":30,"length":5,"data":"node"},{"type":"hashtag","offset":36,"length":7,"data":"nodejs"},{"type":"hashtag","offset":44,"length":8,"data":"express"},{"type":"hashtag","offset":53,"length":10,"data":"expressjs"},{"type":"hashtag","offset":64,"length":9,"data":"fulltime"},{"type":"hashtag","offset":74,"length":10,"data":"fullstack"},{"type":"hashtag","offset":85,"length":7,"data":"москва"},{"type":"hashtag","offset":93,"length":15,"data":"санктпетербург"},{"type":"hashtag","offset":109,"length":12,"data":"новосибирск"},{"type":"hashtag","offset":122,"length":13,"data":"екатеринбург"},{"type":"hashtag","offset":136,"length":7,"data":"нижний"},{"type":"hashtag","offset":144,"length":9,"data":"новгород"},{"type":"hashtag","offset":154,"length":15,"data":"нижнийновгород"},{"type":"hashtag","offset":170,"length":6,"data":"пермь"},{"type":"hashtag","offset":177,"length":4,"data":"уфа"},{"type":"hashtag","offset":182,"length":10,"data":"ульяновск"},{"type":"hashtag","offset":297,"length":9,"data":"удаленка"},{"type":"link","offset":1993,"length":30,"data":"https://hh.ru/vacancy/37464232"},{"type":"link","offset":2032,"length":26,"data":"http://abalchunas@4spaces.company"},{"type":"link","offset":2095,"length":28,"data":"https://t.me/AlexeyBalchunas"},{"type":"handle","offset":2158,"length":16,"data":"javascript_jobs"}],"date":"2020-06-13T13:50:55+00:00","link":"tg://resolve?domain=javascript_jobs_feed&post=16104","tags":[{"name":"javascript"},{"name":"typescript"},{"name":"nodejs"},{"name":"express"},{"name":"git"},{"name":"github"},{"name":"reactjs"},{"name":"webpack"},{"name":"amazon-web-services"},{"name":"angularjs"},{"name":"jquery"},{"name":"sql"},{"name":"nosql"},{"name":"mysql"},{"name":"postgresql"},{"name":"elasticsearch"},{"name":"cassandra"},{"name":"dynamodb"},{"name":"redis"},{"name":"linux"},{"name":"machine-learning"}],"cities":[{"code":"moscow"},{"code":"novosibirsk"},{"code":"perm"},{"code":"ufa"},{"code":"ulyanovsk"},{"code":"nizhny-novgorod"}],"allowsRemote":true}}]}}},"context":{}}