{"hash":"f5f6bf98bd95e769321482904cbbd488f77922fd","data":{"records":{"id":"realm","name":"realm","belongsTo":{"totalCount":23,"pageInfo":{"totalPages":3,"currentPage":2},"edges":[{"node":{"__typename":"Job","id":"71918682112-1001054966032","title":"Ios разработчик","text":"#вакансия #swift #objective-C #ios\n\niOS разработчик удаленно по России \nmiddle/senior\n\nГород : Санкт-Петербург\nФормат работы: офис или удаленно\nЗанятость: Полная\nЗарплатная вилка:  90 000 - 200 000 руб\n\n\nОписание компании:\nВ Blogman мы занимаемся разработкой собственного приложения – платформа для блогеров и рекламодателей. В нашей команде уже более 50 разработчиков и мы продолжаем расти. Сейчас мы ищем инженера с опытом коммерческой разработки под iOS.\nОсновной стек технологий — Swift, Realm, Alamofire. Сейчас мы разрабатываем бизнес-функционал и будем рады новому специалисту в нашей команде, вместе с которым мы будем делать быстрое приложение с отзывчивым и плавным интерфейсом.\n\nМы ожидаем, что у вас есть:\n— Опыт коммерческой разработки мобильных приложений под iOS;\n— Хорошие знания Swift, UIKit;\n— Опыт работы с мобильными БД;\n— Умение работать с Git, Cocoapods.\n\nБудет плюсом, если вы:\n— Разрабатывали клиент-серверные приложения;\n— Умеете работать с WebSocket;\n— Знаете и понимаете архитектуру VIPER;\n— Командный игрок без яркого эгоцентризма;\n— Готовы активно принимать участие в жизни компании и продукта.\n\nРады предложить:\n– Удаленное сотрудничество или комфортный офис на Невском проспекте в 5 минутах ходьбы от ст. м. Маяковская и Владимирская;\n– Желаемый оклад по результатам собеседования;\n– Понятную систему роста зарплаты каждые 6 месяцев, в которой все зависит только от вас;\n– Все необходимые офисные блага вроде вкусного кофе и т.д.\nВас будут окружать адекватные люди, с которыми комфортно решать поставленные задачи. У сотрудников есть общие ценности, такие как стремление к качественному результату, забота о продукте и желание двигаться вперед. Также у нас нет “Начальства”, а есть коллеги. Все взаимодействуют горизонтально и в команде равенство между инженерами, стейкхолдером, продактом и т.д. Все работают бок о бок и делают одно общее дело.\nНазвание компании: Blogman\nКонтакты: @maria_golovina","markup":[{"type":"hashtag","offset":0,"length":9,"data":"вакансия"},{"type":"hashtag","offset":10,"length":6,"data":"swift"},{"type":"hashtag","offset":17,"length":10,"data":"objective"},{"type":"hashtag","offset":30,"length":4,"data":"ios"},{"type":"bold","offset":225,"length":8,"data":""},{"type":"bold","offset":490,"length":2,"data":""},{"type":"bold","offset":497,"length":2,"data":""},{"type":"bold","offset":690,"length":27,"data":""},{"type":"bold","offset":878,"length":22,"data":""},{"type":"bold","offset":1125,"length":16,"data":""},{"type":"handle","offset":1914,"length":15,"data":"maria_golovina"}],"date":"2020-06-24T08:04:26+00:00","link":"tg://resolve?domain=mobile_jobs&post=68587","tags":[{"name":"mobile"},{"name":"ios"},{"name":"swift"},{"name":"objective-c"},{"name":"realm"},{"name":"uikit"},{"name":"git"},{"name":"cocoapods"},{"name":"websocket"}],"cities":[],"allowsRemote":true}},{"node":{"__typename":"Job","id":"71867301888-1001054966032","title":"Mobile разработчик","text":"#вакансия #работа #Москва #fulltime#IOS #Swift #ObjectiveC\n \nВсем привет:)\nИщем iOS разработчика с опытом работы от 1 года.\nЛокация: Москва, м. Бауманская/удаленка\nЗанятость: полный день\nВилка: до 150 000 на руки.\n \nMobile Dimension – продуктовая компания-разработчик В2В и В2С решений. В нашем действующем портфеле продуктов четыре решения, которые успешно реализуются на рынке. \n \nPregnancy Tracker  - это площадка для будущих мам, с активной аудиторией по всему миру (2 млн). Мы работаем в странах СНГ, Америке и выходим на рынок Китая. \nРазвитие проекта предполагает создание экосистемы приложений, а также внедрение внутренней криптовалюты.\n \nЗадачи:\n•Разработка нового функционала \n•Участие в полном цикле жизни продукта\n•Тесное взаимодействие с командами разработки и тестирования\n \nОжидания:\n•Опыт разработки под iOS от 1 года\n•Умение читать Оbjective-С\n•RxSwift, RxCocoa, RxFeedback, MagicalRecor, Moya\n•AutoLayout из кода\n•База данных Realm\n \nУсловия:\n•Достойная заработная плата по итогам собеседования\n•Оформление по ТК\n•Корпоративное обучение, профессиональный рост\n•Удобный график работы\n•Молодая и сплоченная команда, комфортная атмосфера и современный офис рядом с метро Бауманская. \n \nПо всем вопросам пишите в телеграм - Jenya_sll 😊","markup":[{"type":"hashtag","offset":0,"length":9,"data":"вакансия"},{"type":"hashtag","offset":10,"length":7,"data":"работа"},{"type":"hashtag","offset":18,"length":7,"data":"Москва"},{"type":"hashtag","offset":40,"length":6,"data":"Swift"},{"type":"hashtag","offset":47,"length":11,"data":"ObjectiveC"},{"type":"link","offset":216,"length":17,"data":"https://mobiledimension.ru/"},{"type":"bold","offset":216,"length":17,"data":""},{"type":"link","offset":383,"length":18,"data":"https://pregnancytracker.app/ru/"},{"type":"bold","offset":383,"length":18,"data":""},{"type":"bold","offset":648,"length":7,"data":""},{"type":"bold","offset":790,"length":9,"data":""},{"type":"bold","offset":953,"length":8,"data":""}],"date":"2020-06-23T12:37:33+00:00","link":"tg://resolve?domain=mobile_jobs&post=68538","tags":[{"name":"mobile"},{"name":"ios"},{"name":"swift"},{"name":"realm"}],"cities":[{"code":"moscow"}],"allowsRemote":true}},{"node":{"__typename":"Job","id":"71855767552-1001054966032","title":"Ios разработчик","text":"#вакансия #москва #офис #senior #ios #developer #gamedev #swift \nГород и адрес офиса: Москва, м.Автозаводская \nФормат работы: офис \nЗанятость: полная \nЗарплатная вилка: от 250 000 до 300 000 на руки \n\n\n✅ Senior iOS Developer \n\nОписание вакансии: \n\nМы - успешная команда из 120 человек, которая занимается: \n• разработкой собственных мобильных игр и приложений \n• паблишингом мобильных игр \n• рекламой и маркетингом мобильных приложений (реклама на Facebook, Google и т.д.) \nЗа последние 3 года мы привлекли более 100 млн пользователей в наши собственные мобильные приложения и приложения наших клиентов и партнеров, потратив на это более $80 млн. \n\nУ нас есть все составляющие чтобы делать готовые продукты известными и популярными. Мы ищем сильного и талантливого разработчика для усиления нашей текущей слаженно работающей команды и выведения нашего Fitness & Health iOS приложения Fitingo на лидирующие позиции в мире (уже сейчас приложение занимало позиции ТОП 13 в США и ТОП 6 в Великобритании с более чем 400,000 установок и более чем 45,000 совершенных покупок).\n\n✅Задачи: \n\n•  Разрабатывать новый функционал\n•  Рефакторить и оптимизировать код\n•  Писать код. Больше логики, меньше UI. Например - хранить историю и прогресс; сделать leaderboard по странам; добавить чат, аналитику и a/b тесты; Apple Health, Watch, Music и TV\n•  Участвовать в Code Review\n\nТекущий стек: Swift 5.1, MVPC, AVFoundation, UserNotifications, Realm, StoreKit, Firebase, PushWoosh, Facebook, Python.\n\n✅Требования: \n\n•  Опыт работы разработчиком iOS приложений от 3х лет\n•  Отличное знание Swift\n•  Уверенное знание SOLID и паттернов проектирования\n•  Умение профилировать приложение (Батарейка, утечки и вот это все)\n•  Опыт работы с системой контроля версий\n•  Наличие выпущенных проектов на Swift\n•  Желание делать красивые, интересные и популярные приложения\n\n✅Будет плюсом: \n\n•  Умение/желание писать небольшие серверные скрипты (например на Python)\n•  Умение автоматизировать рутинные процессы\n•  Умение рефакторить код итеративно\n•  Адекватный перфекционизм\n\n\n✅Для вас: \n\n•  Конкурентная заработная плата, выплачивается 2 раза в месяц\n•  Необходимое оборудование для работы\n•  Возможность набрать команду и выстроить всю работу под себя в краткосрочной перспективе\n•  Оформление по ТК РФ, оплачиваемые больничные, 28 дней оплачиваемого отпуска в год\n•  Возможны регулярные бонусы по результатам работы проектов\n•  Собеседование с лицом принимающим решение\n•  Возможность коммуницировать с людьми, которые принимают продуктовые решения\n\n✅О нас: \n\n•  Просторный офис 600 метров на м. Автозаводская (3 минуты от метро и от ТТК на машине) с ультра современным дизайном и кучей ништяков (кухня с вкусняшками, кальяны каждый вечер в дружной кампании, PS4 Pro + 4K TV, аркадные автоматы с Pac-Man, Metal Slug и другими хитами геймдизайна, просторная зона отдыха, 5 переговорных комнат и т д)\n•  Команда из 100 человек занимающаяся паблишингом и маркетингом, готовая сделать продукт успешным после его готовности\n•  Возможность обучаться английскому языку с носителями каждый будний день по утрам\n•  Менторы и инвесторы, создавшие большое количество успешных IT компаний (оборот в 2018 году более 140 млн долларов)\n\nНазвание компании: AppQuantum \n\nКонтакты: \ne-mail: vika@adquantum.com\ntelegram: @wikki13","markup":[{"type":"hashtag","offset":0,"length":9,"data":"вакансия"},{"type":"hashtag","offset":10,"length":7,"data":"москва"},{"type":"hashtag","offset":18,"length":5,"data":"офис"},{"type":"hashtag","offset":24,"length":7,"data":"senior"},{"type":"hashtag","offset":32,"length":4,"data":"ios"},{"type":"hashtag","offset":37,"length":10,"data":"developer"},{"type":"hashtag","offset":48,"length":8,"data":"gamedev"},{"type":"hashtag","offset":57,"length":6,"data":"swift"},{"type":"link","offset":3248,"length":18,"data":"mailto:vika@adquantum.com"},{"type":"handle","offset":3277,"length":8,"data":"wikki13"}],"date":"2020-06-23T10:28:34+00:00","link":"tg://resolve?domain=mobile_jobs&post=68527","tags":[{"name":"mobile"},{"name":"ios"},{"name":"swift"},{"name":"realm"},{"name":"firebase"},{"name":"python"}],"cities":[{"code":"moscow"}],"allowsRemote":false}},{"node":{"__typename":"Job","id":"71832698880-1001054966032","title":"Ios разработчик","text":"#вакансия #swift #objective-C #ios\n\niOS разработчик удаленно по России \nmiddle/senior/lead\n\nГород : Санкт-Петербург\nФормат работы: офис или удаленно\nЗанятость: Полная\nЗарплатная вилка:  90 000 - 300 000 руб\n\n\nОписание компании:\nВ Blogman мы занимаемся разработкой собственного приложения – платформа для блогеров и рекламодателей. В нашей команде уже более 50 разработчиков и мы продолжаем расти. Сейчас мы ищем инженера с опытом коммерческой разработки под iOS.\nОсновной стек технологий — Swift, Realm, Alamofire. Сейчас мы разрабатываем бизнес-функционал и будем рады новому специалисту в нашей команде, вместе с которым мы будем делать быстрое приложение с отзывчивым и плавным интерфейсом.\n\nМы ожидаем, что у вас есть:\n— Опыт коммерческой разработки мобильных приложений под iOS;\n— Хорошие знания Swift, UIKit;\n— Опыт работы с мобильными БД;\n— Умение работать с Git, Cocoapods.\n\nБудет плюсом, если вы:\n— Разрабатывали клиент-серверные приложения;\n— Умеете работать с WebSocket;\n— Знаете и понимаете архитектуру VIPER;\n— Командный игрок без яркого эгоцентризма;\n— Готовы активно принимать участие в жизни компании и продукта.\n\nРады предложить:\n– Удаленное сотрудничество или комфортный офис на Невском проспекте в 5 минутах ходьбы от ст. м. Маяковская и Владимирская;\n– Желаемый оклад по результатам собеседования;\n– Понятную систему роста зарплаты каждые 6 месяцев, в которой все зависит только от вас;\n– Все необходимые офисные блага вроде вкусного кофе и т.д.\nВас будут окружать адекватные люди, с которыми комфортно решать поставленные задачи. У сотрудников есть общие ценности, такие как стремление к качественному результату, забота о продукте и желание двигаться вперед. Также у нас нет “Начальства”, а есть коллеги. Все взаимодействуют горизонтально и в команде равенство между инженерами, стейкхолдером, продактом и т.д. Все работают бок о бок и делают одно общее дело.\n\n@maria_golovina","markup":[{"type":"hashtag","offset":0,"length":9,"data":"вакансия"},{"type":"hashtag","offset":10,"length":6,"data":"swift"},{"type":"hashtag","offset":17,"length":10,"data":"objective"},{"type":"hashtag","offset":30,"length":4,"data":"ios"},{"type":"bold","offset":230,"length":8,"data":""},{"type":"bold","offset":495,"length":2,"data":""},{"type":"bold","offset":502,"length":2,"data":""},{"type":"bold","offset":695,"length":27,"data":""},{"type":"bold","offset":883,"length":22,"data":""},{"type":"bold","offset":1130,"length":16,"data":""},{"type":"handle","offset":1883,"length":15,"data":"maria_golovina"}],"date":"2020-06-23T07:28:06+00:00","link":"tg://resolve?domain=mobile_jobs&post=68505","tags":[{"name":"mobile"},{"name":"ios"},{"name":"swift"},{"name":"objective-c"},{"name":"realm"},{"name":"uikit"},{"name":"git"},{"name":"cocoapods"},{"name":"websocket"}],"cities":[],"allowsRemote":true}},{"node":{"__typename":"Job","id":"71765590016-1001054966032","title":"Ios разработчик","text":"#вакансия #ios #swift #офис #москва\nм.Бауманская, полная занятость\nБелая з/п от 150.000 до 200.000 руб. на руки\niOS developer\n\nМы — команда разработки Level.Travel, сложного продукта в сфере путешествий.  За последние 8 лет мы с нуля создали и продолжаем развивать решение для онлайн-продажи путешествий. Нашу платформу используют лидеры рынка – Тинькофф Банк, OneTwoTrip, Сбербанк, TripAdvisor, Kayak, АК Барс Банк, Евросеть и многие другие. Компания Level.Travel является резидентом Инновационного центра «Сколково».\n\nОбязанности:\n🔸Разработка проекта на Swift\n🔸Разработка новых модулей приложения\n🔸Проведение code review\n🔸Пишем на VIPER, используем Realm, Swinject, SnapKit\n🔸Сбор требований и фидбэка от других команд разработчиков и дизайнеров для улучшения и развития нашего продукта\n🔸Проводить оценку и корректировать требования для развития и улучшения приложения\n\nОт Вас:\n🔸Разработка на iOS от 2х лет\n🔸Умеете писать поддерживаемый и тестируемый код и понимаете, что DRY, KISS и 🔸SOLID — не просто аббревиатуры\n🔸Умение разрабатывать многопоточные приложения\n🔸Способность планировать и приоритезировать работу\n🔸Умение находить аргументы и конструктивно реагировать на комментарии коллег\n🔸Готовность много общаться с другими командами\n\nОт нас: белая зп, официальное трудоустройство, больничные, отпуска. Скидки на изучение английского языка, техника MacBook Pro. Регулярная обратная связь и аттестации. Геймификация процессов и несколько раз в год релокейты поработать в другую страну. Клевый молодой коллектив, интересные ивенты, насыщенная корпоративная жизнь. Пинг-понг, бильярд, кальян и другие развлечения в офисе. Скидки на путешествия)\n\nСвязь по почте: vos@level.travel\nИли тут @Alyask_a","markup":[{"type":"hashtag","offset":0,"length":9,"data":"вакансия"},{"type":"hashtag","offset":10,"length":4,"data":"ios"},{"type":"hashtag","offset":15,"length":6,"data":"swift"},{"type":"hashtag","offset":22,"length":5,"data":"офис"},{"type":"hashtag","offset":28,"length":7,"data":"москва"},{"type":"bold","offset":67,"length":44,"data":""},{"type":"bold","offset":112,"length":13,"data":""},{"type":"bold","offset":127,"length":76,"data":""},{"type":"bold","offset":521,"length":12,"data":""},{"type":"bold","offset":878,"length":7,"data":""},{"type":"bold","offset":1254,"length":7,"data":""},{"type":"bold","offset":1662,"length":32,"data":""},{"type":"link","offset":1678,"length":16,"data":"mailto:vos@level.travel"},{"type":"bold","offset":1695,"length":17,"data":""},{"type":"handle","offset":1703,"length":9,"data":"Alyask_a"}],"date":"2020-06-22T10:35:56+00:00","link":"tg://resolve?domain=mobile_jobs&post=68441","tags":[{"name":"mobile"},{"name":"ios"},{"name":"swift"},{"name":"realm"}],"cities":[{"code":"moscow"}],"allowsRemote":false}},{"node":{"__typename":"Job","id":"71763492864-1001054966032","title":"Ios developer","text":"#вакансия #IOS #Swift #middle\n\nMiddle+ IOS developer \nКомпания WebAnt I Ростов-на-Дону (Кировский р-н)\n\nФормат работы: удаленно или в офисе, если ты из Ростова-на-Дону\nЗанятость: full-time \nЗП от 80 тыс. руб. до 100 тыс. руб. на руки \n\nЖдем тебя, если ты: \n\nУверенно знаешь Swift; realm, alamofire\nЕсть опыт написания клиент-серверных приложений от 2 лет\nОпыт работы с серверным API, JSON;\nРаботаешь с Git;\nПонимаешь ООП и шаблоны проектирования;\nЗнаешь базовые алгоритмы и структуры данных;\nРаботаешь с rest API;\nТестируешь собственный код;\nРаботаешь с ffmpeg либо другими библиотеками по обработке видео\nЗнаешь английский язык на уровне чтения технической документации\nЕсть свои приложения в продакшете\n\nКсения: @sladkiy_pirozhok","markup":[{"type":"hashtag","offset":0,"length":9,"data":"вакансия"},{"type":"hashtag","offset":10,"length":4,"data":"IOS"},{"type":"hashtag","offset":15,"length":6,"data":"Swift"},{"type":"hashtag","offset":22,"length":7,"data":"middle"},{"type":"handle","offset":714,"length":17,"data":"sladkiy_pirozhok"}],"date":"2020-06-22T10:11:27+00:00","link":"tg://resolve?domain=mobile_jobs&post=68439","tags":[{"name":"mobile"},{"name":"ios"},{"name":"swift"},{"name":"realm"},{"name":"json"},{"name":"git"},{"name":"rest"}],"cities":[{"code":"rostov"},{"code":"kirov"}],"allowsRemote":true}},{"node":{"__typename":"Job","id":"71724695552-1001054966032","title":"Ios разработчик","text":"#вакансия #swift #objective-C #ios\n\nГород : Санкт-Петербург\nФормат работы: офис или удаленно\nЗанятость: Полная\nЗарплатная вилка:  90 000 - 300 000 руб\n\nОписание компании:\nВ Blogman мы занимаемся разработкой собственного приложения – платформа для блогеров и рекламодателей. В нашей команде уже более 50 разработчиков и мы продолжаем расти. Сейчас мы ищем инженера с опытом коммерческой разработки под iOS.\nОсновной стек технологий — Swift, Realm, Alamofire. Сейчас мы разрабатываем бизнес-функционал и будем рады новому специалисту в нашей команде, вместе с которым мы будем делать быстрое приложение с отзывчивым и плавным интерфейсом.\n\nМы ожидаем, что у вас есть:\n— Опыт коммерческой разработки мобильных приложений под iOS;\n— Хорошие знания Swift, UIKit;\n— Опыт работы с мобильными БД;\n— Умение работать с Git, Cocoapods.\n\nБудет плюсом, если вы:\n— Разрабатывали клиент-серверные приложения;\n— Умеете работать с WebSocket;\n— Знаете и понимаете архитектуру VIPER;\n— Командный игрок без яркого эгоцентризма;\n— Готовы активно принимать участие в жизни компании и продукта.\n\nРады предложить:\n– Удаленное сотрудничество или комфортный офис на Невском проспекте в 5 минутах ходьбы от ст. м. Маяковская и Владимирская;\n– Желаемый оклад по результатам собеседования;\n– Понятную систему роста зарплаты каждые 6 месяцев, в которой все зависит только от вас;\n– Все необходимые офисные блага вроде вкусного кофе и т.д.\nВас будут окружать адекватные люди, с которыми комфортно решать поставленные задачи. У сотрудников есть общие ценности, такие как стремление к качественному результату, забота о продукте и желание двигаться вперед. Также у нас нет “Начальства”, а есть коллеги. Все взаимодействуют горизонтально и в команде равенство между инженерами, стейкхолдером, продактом и т.д. Все работают бок о бок и делают одно общее дело.\nНазвание компании: Blogman","markup":[{"type":"hashtag","offset":0,"length":9,"data":"вакансия"},{"type":"hashtag","offset":10,"length":6,"data":"swift"},{"type":"hashtag","offset":17,"length":10,"data":"objective"},{"type":"hashtag","offset":30,"length":4,"data":"ios"},{"type":"bold","offset":173,"length":8,"data":""},{"type":"bold","offset":438,"length":2,"data":""},{"type":"bold","offset":445,"length":2,"data":""},{"type":"bold","offset":638,"length":27,"data":""},{"type":"bold","offset":826,"length":22,"data":""},{"type":"bold","offset":1073,"length":16,"data":""}],"date":"2020-06-21T08:50:59+00:00","link":"tg://resolve?domain=mobile_jobs&post=0","tags":[{"name":"mobile"},{"name":"ios"},{"name":"swift"},{"name":"objective-c"},{"name":"realm"},{"name":"uikit"},{"name":"git"},{"name":"cocoapods"},{"name":"websocket"}],"cities":[],"allowsRemote":true}},{"node":{"__typename":"Job","id":"71629275136-1001054966032","title":"Mobile разработчик","text":"#вакансия #mobile #ios #swift #remote #fulltime\nГород и адрес офиса: Москва, м. Технопарк\nФормат работы: удаленная \nЗанятость: полная, 5/2\nЗП:  от 140к до 200к\n\nМы - Stream, дочка МТС, IT департамент для продуктов МТС. Делаем классные и реально удобные продукты для пользователей.\n\nCейчас ищем Middle+ / Senior iOS  в проекты:\n\n1. МТС Поиск - Сервис по определению местоположения - poisk.mts.ru\nСтек: Swift, Realm, работа с локацией. Архитектура: VIP(CleanSwift).\n\n2. МТС Вторая память - Облачный сервис для хранения и обмена данными - 2memory2.mts.ru\nСтек: Swift 5.2, Cocoapods с публичными и приватными фреймворками, собственная реализация Rx, Moya, Xib & Storyboards, Realm. Архитектура MVVM.\n\nОт нас:\n- \"белая\" заработная плата с полугодовыми премиями;\n- ДМС со стоматологией + страховка;\n- корпоративная мобильная связь;\n- обучение и посещение профильных конференций. \n\nПрисоединяйся к команде, будет интересно!\n\nО компании: stream.ru\nПодробности в личке (@tanya2332)","markup":[{"type":"hashtag","offset":0,"length":9,"data":"вакансия"},{"type":"hashtag","offset":10,"length":7,"data":"mobile"},{"type":"hashtag","offset":18,"length":4,"data":"ios"},{"type":"hashtag","offset":23,"length":6,"data":"swift"},{"type":"hashtag","offset":30,"length":7,"data":"remote"},{"type":"hashtag","offset":38,"length":9,"data":"fulltime"},{"type":"bold","offset":166,"length":6,"data":""},{"type":"bold","offset":294,"length":20,"data":""},{"type":"bold","offset":331,"length":9,"data":""},{"type":"link","offset":382,"length":12,"data":"http://poisk.mts.ru"},{"type":"bold","offset":468,"length":17,"data":""},{"type":"link","offset":536,"length":15,"data":"http://2memory2.mts.ru"},{"type":"link","offset":930,"length":9,"data":"http://stream.ru"},{"type":"handle","offset":961,"length":10,"data":"tanya2332"}],"date":"2020-06-19T10:15:51+00:00","link":"tg://resolve?domain=mobile_jobs&post=0","tags":[{"name":"mobile"},{"name":"ios"},{"name":"swift"},{"name":"realm"},{"name":"cocoapods"},{"name":"mvvm"}],"cities":[{"code":"moscow"}],"allowsRemote":true}},{"node":{"__typename":"Job","id":"71624032256-1001054966032","title":"Ios разработчик","text":"#вакансия #swift #objective-C #ios\n\nГород : Санкт-Петербург\nФормат работы: офис или удаленно\nЗанятость: Полная\nЗарплатная вилка:  90 000 - 300 000 руб\n\nОписание компании:\nВ Blogman мы занимаемся разработкой собственного приложения – платформа для блогеров и рекламодателей. В нашей команде уже более 50 разработчиков и мы продолжаем расти. Сейчас мы ищем инженера с опытом коммерческой разработки под iOS.\nОсновной стек технологий — Swift, Realm, Alamofire. Сейчас мы разрабатываем бизнес-функционал и будем рады новому специалисту в нашей команде, вместе с которым мы будем делать быстрое приложение с отзывчивым и плавным интерфейсом.\n\nМы ожидаем, что у вас есть:\n— Опыт коммерческой разработки мобильных приложений под iOS;\n— Хорошие знания Swift, UIKit;\n— Опыт работы с мобильными БД;\n— Умение работать с Git, Cocoapods.\n\nБудет плюсом, если вы:\n— Разрабатывали клиент-серверные приложения;\n— Умеете работать с WebSocket;\n— Знаете и понимаете архитектуру VIPER;\n— Командный игрок без яркого эгоцентризма;\n— Готовы активно принимать участие в жизни компании и продукта.\n\nРады предложить:\n– Удаленное сотрудничество или комфортный офис на Невском проспекте в 5 минутах ходьбы от ст. м. Маяковская и Владимирская;\n– Желаемый оклад по результатам собеседования;\n– Понятную систему роста зарплаты каждые 6 месяцев, в которой все зависит только от вас;\n– Все необходимые офисные блага вроде вкусного кофе и т.д.\nВас будут окружать адекватные люди, с которыми комфортно решать поставленные задачи. У сотрудников есть общие ценности, такие как стремление к качественному результату, забота о продукте и желание двигаться вперед. Также у нас нет “Начальства”, а есть коллеги. Все взаимодействуют горизонтально и в команде равенство между инженерами, стейкхолдером, продактом и т.д. Все работают бок о бок и делают одно общее дело.\nНазвание компании: Blogman","markup":[{"type":"hashtag","offset":0,"length":9,"data":"вакансия"},{"type":"hashtag","offset":10,"length":6,"data":"swift"},{"type":"hashtag","offset":17,"length":10,"data":"objective"},{"type":"hashtag","offset":30,"length":4,"data":"ios"},{"type":"bold","offset":173,"length":8,"data":""},{"type":"bold","offset":438,"length":2,"data":""},{"type":"bold","offset":445,"length":2,"data":""},{"type":"bold","offset":638,"length":27,"data":""},{"type":"bold","offset":826,"length":22,"data":""},{"type":"bold","offset":1073,"length":16,"data":""}],"date":"2020-06-19T09:44:55+00:00","link":"tg://resolve?domain=mobile_jobs&post=0","tags":[{"name":"mobile"},{"name":"ios"},{"name":"swift"},{"name":"objective-c"},{"name":"realm"},{"name":"uikit"},{"name":"git"},{"name":"cocoapods"},{"name":"websocket"}],"cities":[],"allowsRemote":true}},{"node":{"__typename":"Job","id":"71570554880-1001054966032","title":"Ios разработчик","text":"#вакансия #swift #objective-C #ios\n\nГород : Санкт-Петербург\nФормат работы: офис или удаленно\nЗанятость: Полная\nЗарплатная вилка:  90 000 - 300 000 руб\n\nОписание компании:\nВ Blogman мы занимаемся разработкой собственного приложения – платформа для блогеров и рекламодателей. В нашей команде уже более 50 разработчиков и мы продолжаем расти. Сейчас мы ищем инженера с опытом коммерческой разработки под iOS.\nОсновной стек технологий — Swift, Realm, Alamofire. Сейчас мы разрабатываем бизнес-функционал и будем рады новому специалисту в нашей команде, вместе с которым мы будем делать быстрое приложение с отзывчивым и плавным интерфейсом.\n\nМы ожидаем, что у вас есть:\n— Опыт коммерческой разработки мобильных приложений под iOS;\n— Хорошие знания Swift, UIKit;\n— Опыт работы с мобильными БД;\n— Умение работать с Git, Cocoapods.\n\nБудет плюсом, если вы:\n— Разрабатывали клиент-серверные приложения;\n— Умеете работать с WebSocket;\n— Знаете и понимаете архитектуру VIPER;\n— Командный игрок без яркого эгоцентризма;\n— Готовы активно принимать участие в жизни компании и продукта.\n\nРады предложить:\n– Удаленное сотрудничество или комфортный офис на Невском проспекте в 5 минутах ходьбы от ст. м. Маяковская и Владимирская;\n– Желаемый оклад по результатам собеседования;\n– Понятную систему роста зарплаты каждые 6 месяцев, в которой все зависит только от вас;\n– Все необходимые офисные блага вроде вкусного кофе и т.д.\nВас будут окружать адекватные люди, с которыми комфортно решать поставленные задачи. У сотрудников есть общие ценности, такие как стремление к качественному результату, забота о продукте и желание двигаться вперед. Также у нас нет “Начальства”, а есть коллеги. Все взаимодействуют горизонтально и в команде равенство между инженерами, стейкхолдером, продактом и т.д. Все работают бок о бок и делают одно общее дело.\nНазвание компании: Blogman\nКонтакты: @maria_golovina","markup":[{"type":"hashtag","offset":0,"length":9,"data":"вакансия"},{"type":"hashtag","offset":10,"length":6,"data":"swift"},{"type":"hashtag","offset":17,"length":10,"data":"objective"},{"type":"hashtag","offset":30,"length":4,"data":"ios"},{"type":"bold","offset":173,"length":8,"data":""},{"type":"bold","offset":438,"length":2,"data":""},{"type":"bold","offset":445,"length":2,"data":""},{"type":"bold","offset":638,"length":27,"data":""},{"type":"bold","offset":826,"length":22,"data":""},{"type":"bold","offset":1073,"length":16,"data":""},{"type":"handle","offset":1862,"length":15,"data":"maria_golovina"}],"date":"2020-06-18T12:32:34+00:00","link":"tg://resolve?domain=mobile_jobs&post=0","tags":[{"name":"mobile"},{"name":"ios"},{"name":"swift"},{"name":"objective-c"},{"name":"realm"},{"name":"uikit"},{"name":"git"},{"name":"cocoapods"},{"name":"websocket"}],"cities":[],"allowsRemote":true}}]}}},"context":{}}