{"hash":"f34fd2c444a074f4e0e67d525015a008ef8e766f","data":{"records":{"id":"dotnet","name":"dotnet","belongsTo":{"totalCount":129,"pageInfo":{"totalPages":13,"currentPage":10},"edges":[{"node":{"__typename":"Job","id":"84934656-1001375797688","title":".net разработчик","text":"#вакансия #НижнийНовгород #офис #.net core #Middle#Senior\n\nГород: Нижний Новгород\nФормат работы: в офисе\nЗанятость: полная\nЗарплатная вилка: от 70 000 до 120 000 руб. на руки\nНазвание компании: Сезон\n\nСезон – это площадка с элементами социальной сети для продажи своей одежды и аксессуаров от известных брендов премиум-класса.\n\nЧто хотят:\n- Уверенное владение C#, .NET Framework, ASP.NET Core;\n- Знания и понимание принципов ООП, шаблонов проектирования;\n- Опыт работы и понимание асинхронного кода, блокировок и дедлоков;\n- Опыт работы с базами данных MS SQL и ORM;\n- Опыт разработки REST сервисов, работа с JSON и XML;\n- Опыт работы с Git\n\nЧто дают:\n- Современный офис в Нижнем Новгороде;\n- Официальное трудоустройство;\n- Частичная оплата личных образовательных мероприятий;\n- Любая профессиональная литература по заказу;\n- Гибкий график;\n- Дружный молодой коллектив;\n- Интересные неповторяющиеся задачи, никакой рутины.\n\nВопросы в любом  мессенджере +79297474161","markup":[{"type":"hashtag","offset":0,"length":9,"data":"вакансия"},{"type":"hashtag","offset":10,"length":15,"data":"НижнийНовгород"},{"type":"hashtag","offset":26,"length":5,"data":"офис"},{"type":"link","offset":380,"length":7,"data":"http://ASP.NET"},{"type":"link","offset":953,"length":12,"data":"tel:+79297474161"}],"date":"2020-01-31T15:41:51+00:00","link":"tg://resolve?domain=DotNetRuJobsFeed&post=81","tags":[{"name":"dotnet"},{"name":"csharp"},{"name":"sql"},{"name":"orm"},{"name":"rest"},{"name":"json"},{"name":"xml"},{"name":"git"},{"name":"net-core"},{"name":"asp-net"},{"name":"asp-net-core"}],"cities":[{"code":"nizhny-novgorod"}],"allowsRemote":false}},{"node":{"__typename":"Job","id":"87031808-1001375797688","title":".net разработчик","text":"#вакансия #орел #fulltime #офис #csharp #netframework\nВсем привет! ✋\nКомпания ИнСистем в поисках C# разработчиков в офис в г. Орел:\n\nОсновные обязанности:\n- Разработка высоконагруженных систем;\n- Поддержка и сопровождение текущих проектов.\n\nДля нас важно: \n- Опыт разработки более 2-х лет.\n- Знание C#, RabbitMQ, LINQ, Git, MySQL, MongoDB, WCF, .NET Framework.\n- Опыт работы с реляционными базами данных.\n\nГотовы рассматривать кандидатов уровня Middle и Senior с заработной вилкой до 150 000 р. на руки. \nУ нас есть все необходимое для работы и отдыха: комфортный современный офис, компенсация поездок на IT – конференции и митапы, бесплатные обеды, спорт зал, современный подход к управлению, постановке задач, процессам.\n\nБуду рада Вашим вопросам и резюме: \n✍️  @hrkaterina \n📨 personal.insistem@gmail.com","markup":[{"type":"hashtag","offset":0,"length":9,"data":"вакансия"},{"type":"hashtag","offset":10,"length":5,"data":"орел"},{"type":"hashtag","offset":16,"length":9,"data":"fulltime"},{"type":"hashtag","offset":26,"length":5,"data":"офис"},{"type":"hashtag","offset":32,"length":7,"data":"csharp"},{"type":"hashtag","offset":40,"length":13,"data":"netframework"},{"type":"bold","offset":133,"length":22,"data":""},{"type":"bold","offset":241,"length":16,"data":""},{"type":"bold","offset":438,"length":13,"data":""},{"type":"bold","offset":453,"length":7,"data":""},{"type":"handle","offset":764,"length":11,"data":"hrkaterina"},{"type":"link","offset":780,"length":27,"data":"mailto:personal.insistem@gmail.com"}],"date":"2020-01-31T15:41:51+00:00","link":"tg://resolve?domain=DotNetRuJobsFeed&post=83","tags":[{"name":"dotnet"},{"name":"csharp"},{"name":"rabbitmq"},{"name":"linq"},{"name":"git"},{"name":"mysql"},{"name":"mongodb"},{"name":"wcf"}],"cities":[],"allowsRemote":false}},{"node":{"__typename":"Job","id":"80740352-1001375797688","title":".net разработчик","text":"#вакансия #НижнийНовгород #офис #.net core #Middle#Senior\n\nГород: Нижний Новгород\nФормат работы: в офисе\nЗанятость: полная\nЗарплатная вилка: от 70 000 до 120 000 руб. на руки\nНазвание компании: Сезон\n\nСезон – это площадка с элементами социальной сети для продажи своей одежды и аксессуаров от известных брендов премиум-класса.\n\nЧто хотят:\n- Уверенное владение C#, .NET Framework, ASP.NET Core;\n- Знания и понимание принципов ООП, шаблонов проектирования;\n- Опыт работы и понимание асинхронного кода, блокировок и дедлоков;\n- Опыт работы с базами данных MS SQL и ORM;\n- Опыт разработки REST сервисов, работа с JSON и XML;\n- Опыт работы с Git\n\nЧто дают:\n- Современный офис в Нижнем Новгороде;\n- Официальное трудоустройство;\n- Частичная оплата личных образовательных мероприятий;\n- Любая профессиональная литература по заказу;\n- Гибкий график;\n- Дружный молодой коллектив;\n- Интересные неповторяющиеся задачи, никакой рутины.\n\nВопросы в любом  мессенджере +79297474161","markup":[{"type":"hashtag","offset":0,"length":9,"data":"вакансия"},{"type":"hashtag","offset":10,"length":15,"data":"НижнийНовгород"},{"type":"hashtag","offset":26,"length":5,"data":"офис"},{"type":"link","offset":380,"length":7,"data":"http://ASP.NET"},{"type":"link","offset":953,"length":12,"data":"tel:+79297474161"}],"date":"2020-01-29T15:40:11+00:00","link":"tg://resolve?domain=DotNetRuJobsFeed&post=77","tags":[{"name":"dotnet"},{"name":"csharp"},{"name":"sql"},{"name":"orm"},{"name":"rest"},{"name":"json"},{"name":"xml"},{"name":"git"},{"name":"net-core"},{"name":"asp-net"},{"name":"asp-net-core"}],"cities":[{"code":"nizhny-novgorod"}],"allowsRemote":false}},{"node":{"__typename":"Job","id":"77594624-1001375797688","title":".net разработчик","text":"#вакансия #ереван #релокация\n\nВсем привет!\n\nОдин из немногих СНГ-шных юникорнов ищет лида на бекенд с релокацией в Ереван.\n\nЭто ServiceTitan, который недавно поднял очередной раунд и был оценен в >1.6 млрд долларов.\nЭто софт для рабочих профессий (в основном ремонтников), который помогает им больше зарабатывать, оптимизировать процессы.\nГоловной офис в США, команда разработки сейчас растет в Ереване. \n\nЧто надо будет делать?\n60% времени уходит на написание кода, 40% - на менторинг, менеджмент и работу над документацией\nРазрабатывать нужно фичи и новые продукты, а не фиксить баги или что-то постоянно переписывать.\n\nКого ждем?\nБудет круто, если у вас 4+ лет опыта, погружены с головой в .NET, знаете .NET Core, умеете на фронте. \nЕще нужен английский, чтобы понимать друг друга с командой в ЛА. Летать в Штаты тоже \"придется\". \n\nЧто даем?\nВилка - ≈250к в рублях после вычетов\nОфис в центре Еревана со всеми плюшками\nСтраховка для всей семьи\nОпцион с первого дня (размер обсуждается)\nГодовые бонусы, реферальные бонусы, бонусы-бонусы\nВообще полное покрытие всего, что связано с переездом, включая квартплату первые 3 месяца\nДва раза в год всей семье еще и билеты оплатят домой, чтобы сильно не скучали по дому\n\nCV/вопросы можно отправлять сюда: @satenikavetis","markup":[{"type":"hashtag","offset":0,"length":9,"data":"вакансия"},{"type":"hashtag","offset":10,"length":7,"data":"ереван"},{"type":"hashtag","offset":18,"length":10,"data":"релокация"},{"type":"bold","offset":85,"length":14,"data":""},{"type":"bold","offset":128,"length":12,"data":""},{"type":"bold","offset":406,"length":22,"data":""},{"type":"bold","offset":622,"length":10,"data":""},{"type":"bold","offset":835,"length":9,"data":""},{"type":"bold","offset":1216,"length":34,"data":""},{"type":"handle","offset":1250,"length":14,"data":"satenikavetis"}],"date":"2020-01-29T15:40:11+00:00","link":"tg://resolve?domain=DotNetRuJobsFeed&post=74","tags":[{"name":"dotnet"},{"name":"csharp"},{"name":"net-core"}],"cities":[{"code":"yerevan"},{"code":"lida"}],"allowsRemote":false}},{"node":{"__typename":"Job","id":"79691776-1001375797688","title":".net разработчик","text":"#вакансия #Москва #офис\n\nВ команду разработки высоконагруженной фронт системы компании Ренессанс Страхование ищем .NET-разработчика.\n\nГрафик работы 5/2 гибкое начало рабочего дня\nВилка до 170 т.р gross\n\nЗадачи :\n- Развитие и доработка высоконагруженной фронт-системы.\n- Участие в выработке архитектурных решений и их реализация\n- Участие в подготовке и развертывании новых версий ПО.\n- Мониторинг работоспособности и производительности ПО.\n- Участие как в активностях отдела по улучшению текущих систем в рамках техдолга, так и в активностях по проектированию и развитию систем на будущее.\n\nЖдем, что у вас есть:\n- Уверенное знание знание языка C# и платформы .net/.net core.\n- Знание паттернов проектирования и умение применять их на практике.\n- Знание системы контроля версий git.\n- Хорошее знание SQL/TSQL.\n- Опыт разработки автоматизированных тестов (unit и интеграционные тесты).\n-  Умение разбираться в чужом коде.\n- Понимание архитектурных принципов: микросервисная архитектура, SOLID, IoC (DI), Design Patterns (GoF), Unit Testing.\n- Базовые навыки front-разработки. Умение ориентироваться в front-технологиях.\n\nЖелательно:\n· Знание платформы Services Fabric.\n· Опыт внедрения новых технологий в разрабатываемое ПО.\n· Опыт внедрения новых методологий разработки ПО.\n· Знание методологий разработки ПО и инструментов: JIRA, Confluence.\n· Знания и опыт применения LINQ, WCF 4.0+, WEB API, XPATH, XSLT.\n· Желание развиваться в сторону .NET Core.\n\nОт нас:\n· Гибкий подход к началу рабочего дня - с 9 до 11.\n· ДМС со стоматологией, страховка от несчастного случая.\n· Работа в комфортном офисе в БЦ на Дербеневской набережной.\n· Спортивные корпоративные программы - йога, футбол.\n\nКонтакты: VladLazHR","markup":[{"type":"hashtag","offset":0,"length":9,"data":"вакансия"},{"type":"hashtag","offset":10,"length":7,"data":"Москва"},{"type":"hashtag","offset":18,"length":5,"data":"офис"}],"date":"2020-01-29T15:40:11+00:00","link":"tg://resolve?domain=DotNetRuJobsFeed&post=76","tags":[{"name":"dotnet"},{"name":"csharp"},{"name":"git"},{"name":"sql"},{"name":"tsql"},{"name":"linq"},{"name":"wcf"},{"name":"web"},{"name":"xslt"},{"name":"net-core"},{"name":"unit-testing"}],"cities":[{"code":"moscow"}],"allowsRemote":false}},{"node":{"__typename":"Job","id":"81788928-1001375797688","title":".net developer","text":"#job #vacancy #Minsk #.Net #dotnet #Net #Middle #Senior #fulltime \n#вакансия #Минск #офис\n\nПривет!!!\nЕсли вы давно хотели работать в game dev- этот пост для вас!\n\nЛокация: Минск, ст.м. Площадь Якуба Колоса\nРабота в офисе, фуллтайм\nЗП: до 4000$\n\nБыстро растущая компания, предоставляющая сервис по аутсорсной разработке программного обеспечения, находится в поисках Middle/Senior .Net Developer. \n\nЧто мы ожидаем:\n✔️ 2+года работы с ASP.Net  и Web API;\n✔ опыт работы MSSQL, PostgreSQL, а также MongoDB, DynamoDB;\n✔ опыт работы с Microservices;\n✔  опыт работы с SCRUM (Agile); \n✔ знание английского языка (от В1);\n\nПлюсом будет:\n⭕  опыт разработки на стороне клиента (JS и CSS);\n⭕ опыт работы с AWS, GC, Azure и т.д.;\n⭕ опыт работы в B2C;\n\nМы предлагаем:\n🔸  работу в дружном коллективе;\n🔸  медицинскую страховку;\n🔸  частичную оплату спорта;\n🔸 3 sick day's;\n🔸  стабильную и достойную заработную плату;\n🔸  гибкий график.\n\n⚡ Пишите в лс за подробной информацией. \ntg: @Ww_Darya","markup":[{"type":"hashtag","offset":0,"length":4,"data":"job"},{"type":"hashtag","offset":5,"length":8,"data":"vacancy"},{"type":"hashtag","offset":14,"length":6,"data":"Minsk"},{"type":"hashtag","offset":27,"length":7,"data":"dotnet"},{"type":"hashtag","offset":35,"length":4,"data":"Net"},{"type":"hashtag","offset":40,"length":7,"data":"Middle"},{"type":"hashtag","offset":48,"length":7,"data":"Senior"},{"type":"hashtag","offset":56,"length":9,"data":"fulltime"},{"type":"hashtag","offset":67,"length":9,"data":"вакансия"},{"type":"hashtag","offset":77,"length":6,"data":"Минск"},{"type":"hashtag","offset":84,"length":5,"data":"офис"},{"type":"handle","offset":969,"length":9,"data":"Ww_Darya"}],"date":"2020-01-29T15:40:11+00:00","link":"tg://resolve?domain=DotNetRuJobsFeed&post=78","tags":[{"name":"dotnet"},{"name":"csharp"},{"name":"web"},{"name":"sql-server"},{"name":"postgresql"},{"name":"mongodb"},{"name":"dynamodb"},{"name":"css"},{"name":"amazon-web-services"},{"name":"azure"},{"name":"asp-net"}],"cities":[{"code":"minsk"}],"allowsRemote":false}},{"node":{"__typename":"Job","id":"212860928-1001352129329","title":"Golang разработчик","text":"#вакансия #backend #developer\nВсем привет! Я рекрутер из компании СофтТелематика и мы собираем wow команду golang разработчиков. \nФормат работы: fulltime, офис, гибкий график\nЛокация: Москва, Савеловская\nЗП: до 300 000 net +бонусы\n\nМы занимаемся заказной разработкой и делаем большие информационные системы, У нас стартовал новый проект \"Умная дорога\" для транспортных магистралей и мы существенно расширяем команду разработки. \n\nЧто надо будет кодить:\n - backend проекта, фактически с нуля\n - интеграции с разнообразным периферийным оборудованием (метеостанции, камеры, шлагбаумы, весы и пр.)\n\nЧто хотим от будущего коллеги: \n- Уверенные знания Go и опыт разработки от года. \n- Опыт серверной асинхронной / многопоточной разработки\n- Опыт работы с ClickHouse, PostgreSQL,MySSQL, in-memory базами, системами обмена сообщений (RabbitMQ)\n- Опыт интеграции с API сторонних Web-сервисов. Приветствуется опыт интеграции оборудования\n- Знание и понимание о HTTP, CoAP, MQTT, gRPC, REST, JSON, SOAP, XML\n- Опыт работы с протоколом SNMP\n- Понимание особенностей микросервисной архитектуры\n- Адекватно выбирать инструменты и находить золотую середину\n- будет круто если есть опыт работы в сфере автоматизации транспортных систем.\n\nЧто предлагаем:\n- высокую зарплату;\n- официальное оформление и соблюдение ТК;\n- ДМС со стоматологией после испытательного;\n- гибкий график и отсутствие бюрократии;\n-  отличный коллектив;\n- возможность обучения и развития;\n- и конечно крутой социально значимый проект. \nВакансий открыто несколько - от уровня миддл до лидовых. \nПисать мне в личку @tivalkin\n Автор @TiValkin","markup":[{"type":"hashtag","offset":0,"length":9,"data":"вакансия"},{"type":"hashtag","offset":10,"length":8,"data":"backend"},{"type":"hashtag","offset":19,"length":10,"data":"developer"},{"type":"handle","offset":1568,"length":9,"data":"tivalkin"},{"type":"handle","offset":1585,"length":9,"data":"TiValkin"}],"date":"2020-01-28T14:15:31+00:00","link":"tg://resolve?domain=gogetajobfeed&post=203","tags":[{"name":"go"},{"name":"dotnet"},{"name":"postgresql"},{"name":"rabbitmq"},{"name":"web"},{"name":"rest"},{"name":"json"},{"name":"soap"},{"name":"xml"}],"cities":[{"code":"moscow"}],"allowsRemote":false}},{"node":{"__typename":"Job","id":"628097024-1001089319619","title":"Ruby разработчик","text":"#вакансия #Senior #Ruby #Rails #Севастополь #офис \n\nгород: Севастополь\nкомпания: SoftLight\nформат работы: офис, fulltime \n\nКратко о нас: \n\nНа протяжении 13 лет наша команда создает кастомные web/mobile applications и design. \nПриглашаем присоединиться к нашей команде Senior RoR разработчика с опытом проектирования и разработки высоконагруженных B2С web applications. \n\nОбязанности:\nПроектирование и разработка серверной части на RoR framework.\n\nПроект - очень сложная и большая финансовая платформа для получения инвестиций, займов etc. на уровне больших компаний (UK). \nОбласть проекта - fintech\n\nТребования: \n\nПрактический опыт работы с RoR/Sinatra/Padrino frameworks от 5 лет \nПрактический опыт работы с PostgreSQL и SQL в целом\nОпыт работы с Redis/Memcached, RSpec\nCистема контроля версий - Git\nБазовые знания Frontend - HTML, CSS, JavaScript/jQuery\nПонимание принципов и шаблонов проектирования сложных систем\nПонимание специфики и опыт работы с highload системами\nАнглийский язык - желательно (Intermediate+), но не обязательно \n\nПлюсом будет:\nОпыт работы с большими объемами данных (сотни GB)\nElasticSearch, MongoDB\nRabbitMQ/Kafka\nДругие технологии JVM/Elixir\nОпыт работы с распределенными системами\n \nМы предлагаем:\n\n- Офис с видом на море и бухту\n- Большая команда опытных разработчиков\n- Бессрочный проект (UK) \n- Сильная проектная команда включая менеджера \n- Бесплатные курсы английского для всех сотрудников\n- Необходимый environment (Mac, PC etc.)\n- Пятидневная рабочая неделя, гибкое начало дня ( с 9-10 до 18-19), госпраздники - выходные\n- Оформление ИП (с нашей стороны бухгалтерское сопровождение + gross) \n- Корпоративный отдых за счет компании\n- Пакет релокации (оплачиваем трансфер в Севастополь и аренду жилья 2 месяца) \n\nВилка: 2800-4000$ net \n\nemail: @MikeHR","markup":[{"type":"hashtag","offset":0,"length":9,"data":"вакансия"},{"type":"hashtag","offset":10,"length":7,"data":"Senior"},{"type":"hashtag","offset":18,"length":5,"data":"Ruby"},{"type":"hashtag","offset":24,"length":6,"data":"Rails"},{"type":"hashtag","offset":31,"length":12,"data":"Севастополь"},{"type":"hashtag","offset":44,"length":5,"data":"офис"},{"type":"handle","offset":1777,"length":7,"data":"MikeHR"}],"date":"2020-01-27T12:08:06+00:00","link":"tg://resolve?domain=rubyjob&post=0","tags":[{"name":"ruby"},{"name":"ruby-on-rails"},{"name":"web"},{"name":"mobile"},{"name":"postgresql"},{"name":"sql"},{"name":"redis"},{"name":"git"},{"name":"html"},{"name":"css"},{"name":"javascript"},{"name":"jquery"},{"name":"elasticsearch"},{"name":"mongodb"},{"name":"rabbitmq"},{"name":"kafka"},{"name":"jvm"},{"name":"elixir"},{"name":"dotnet"}],"cities":[{"code":"sevastopol"}],"allowsRemote":false}},{"node":{"__typename":"Job","id":"208666624-1001352129329","title":"Golang разработчик","text":"#вакансия #godeveloper #golang #backend #fulltime #офис #senior #techlead\n\nВсем привет! В поиске талантливого и клёвого техлида. \nЕсли вы были ведущим разработчиком, если вы сеньор или техлид, и вилка вам подходит, то welcome. \nДаже если опыта менеджера не было, но вы сеньор/ведущий разработчик - welcome. \nА ещё если у вас немного опыта на Go, но есть хороший опыт на java - welcome. \nПро проект напишу в лс, если вам подходит вилка по зп (больше 250net, к сожалению, не рассматриваем). \n\nСписок необходимых навыков:\n- Golang/Java\n- Docker\n- SQL (В основном Postgres)\n- NoSQL (Redis/Elastic/Couchbase/Mongo/etc.. - зависит от задач)\n- REST/gRPC \n- Kubernetes\n\nЗ/П: 180 000 - 250 000 net (обсуждаемо)\nУдаленка: нет\nЛокация: Москва, м. Смоленская\nКомпания: МТС ИТ\nКонтакты: @horthekifo \n\nЧто нужно делать?\nРазрабатывать бекенд web-приложения и участвовать в проектировании архитектуры, проводить code review. \n\nЧто мы предлагаем:\n- Белая ЗП, премия 20% от годового оклада;\n- ДМС со стоматологией;\n- Хакатоны, митапы, конференции;\n- Гибкое начало рабочего дня;\n- Корпоративная связь, доп. дни ежегодного отпуска;\n- Офис у м. Смоленская (7 мин. пешком).\n Автор @Horthekifo","markup":[{"type":"hashtag","offset":0,"length":9,"data":"вакансия"},{"type":"hashtag","offset":10,"length":12,"data":"godeveloper"},{"type":"hashtag","offset":23,"length":7,"data":"golang"},{"type":"hashtag","offset":31,"length":8,"data":"backend"},{"type":"hashtag","offset":40,"length":9,"data":"fulltime"},{"type":"hashtag","offset":50,"length":5,"data":"офис"},{"type":"hashtag","offset":56,"length":7,"data":"senior"},{"type":"hashtag","offset":64,"length":9,"data":"techlead"},{"type":"handle","offset":774,"length":11,"data":"horthekifo"},{"type":"handle","offset":1159,"length":11,"data":"Horthekifo"}],"date":"2020-01-21T09:10:55+00:00","link":"tg://resolve?domain=gogetajobfeed&post=199","tags":[{"name":"go"},{"name":"java"},{"name":"dotnet"},{"name":"docker"},{"name":"sql"},{"name":"postgresql"},{"name":"nosql"},{"name":"redis"},{"name":"elasticsearch"},{"name":"rest"},{"name":"kubernetes"},{"name":"web"}],"cities":[{"code":"moscow"}],"allowsRemote":false}},{"node":{"__typename":"Job","id":"207618048-1001352129329","title":"Golang разработчик","text":"#вакансия #godeveloper #golang #backend #fulltime #офис #senior #techlead\n\nВсем привет! В поиске талантливого и клёвого техлида. \nЕсли вы были ведущим разработчиком, если вы сеньор или техлид, и вилка вам подходит, то welcome. \nДаже если опыта менеджера не было, но вы сеньор/ведущий разработчик - welcome. \nА ещё если у вас немного опыта на Go, но есть хороший опыт на java - welcome. \nПро проект напишу в лс, если вам подходит вилка по зп (больше 250net, к сожалению, не рассматриваем). \n\nСписок необходимых навыков:\n- Golang/Java\n- Docker\n- SQL (В основном Postgres)\n- NoSQL (Redis/Elastic/Couchbase/Mongo/etc.. - зависит от задач)\n- REST/gRPC \n- Kubernetes\n\nЗ/П: 180 000 - 250 000 net (обсуждаемо)\nУдаленка: нет\nЛокация: Москва, м. Смоленская\nКомпания: МТС ИТ\nКонтакты: @horthekifo \n\nЧто нужно делать?\nРазрабатывать бекенд web-приложения и участвовать в проектировании архитектуры, проводить code review. \n\nЧто мы предлагаем:\n- Белая ЗП, премия 20% от годового оклада;\n- ДМС со стоматологией;\n- Хакатоны, митапы, конференции;\n- Гибкое начало рабочего дня;\n- Корпоративная связь, доп. дни ежегодного отпуска;\n- Офис у м. Смоленская (7 мин. пешком).\n Автор @Horthekifo","markup":[{"type":"hashtag","offset":0,"length":9,"data":"вакансия"},{"type":"hashtag","offset":10,"length":12,"data":"godeveloper"},{"type":"hashtag","offset":23,"length":7,"data":"golang"},{"type":"hashtag","offset":31,"length":8,"data":"backend"},{"type":"hashtag","offset":40,"length":9,"data":"fulltime"},{"type":"hashtag","offset":50,"length":5,"data":"офис"},{"type":"hashtag","offset":56,"length":7,"data":"senior"},{"type":"hashtag","offset":64,"length":9,"data":"techlead"},{"type":"handle","offset":774,"length":11,"data":"horthekifo"},{"type":"handle","offset":1159,"length":11,"data":"Horthekifo"}],"date":"2020-01-21T09:10:53+00:00","link":"tg://resolve?domain=gogetajobfeed&post=198","tags":[{"name":"go"},{"name":"java"},{"name":"dotnet"},{"name":"docker"},{"name":"sql"},{"name":"postgresql"},{"name":"nosql"},{"name":"redis"},{"name":"elasticsearch"},{"name":"rest"},{"name":"kubernetes"},{"name":"web"}],"cities":[{"code":"moscow"}],"allowsRemote":false}}]}}},"context":{}}