{"hash":"f5f6bf98bd95e769321482904cbbd488f77922fd","data":{"records":{"id":"oracle","name":"oracle","belongsTo":{"totalCount":30,"pageInfo":{"totalPages":3,"currentPage":2},"edges":[{"node":{"__typename":"Job","id":"26658996224-1001075660570","title":"Php developer","text":"#вакансия #JavaScript #PHP #React #Senior #офис #Москва #Балашиха\n📣Крупнейший в России поставщик автомобильных шин и колесных дисков ведущих мировых производителей (входящих в Forbs 500) приглашает Senior PHP/JavaScript Developer для участия в новом интернет-проекте в сфере B2B и B2C.\n\n✅Мы предлагаем:\nУровень ЗП: 170-200 net (обсуждается!)\nЛокация: офис г. Балашиха или м. Таганская\nОформление по ТК РФ, полный соц.пакет.\nКомпенсация аренды жилья при переезде❗️\nГрафик работы 5/2 с 9:00 до 18:00, корпоративное питание, частично удаленно❗️\n\n🧑‍💻Ваши будущие задачи:\n- участие в разработке новых больших интернет-проектов в сфере B2B и B2C;\n- участие в разработке внутренних проектов Компании;\n- развитие и оптимизация существующих проектов.\n\n🤝Мы ожидаем от Вас:\nОпыт работы и уверенное владение PHP, Javascript (React), jQuery от 3 лет\nХорошее понимание ООП, MVC, SQL, CSS3\nОпыт комплексной разработки web-проектов, наличие готовых проектов\nЖелательно: использование grunt, browserify, методологии BEM, препроцессоров SASS/LESS; опыт работы Oracle DB, Docker, умение верстать на flexbox.\n\n👉Откликнуться на вакансию и задать вопросы: telegram @anisimovaane4ka","markup":[{"type":"hashtag","offset":0,"length":9,"data":"вакансия"},{"type":"hashtag","offset":10,"length":11,"data":"JavaScript"},{"type":"hashtag","offset":22,"length":4,"data":"PHP"},{"type":"hashtag","offset":27,"length":6,"data":"React"},{"type":"hashtag","offset":34,"length":7,"data":"Senior"},{"type":"hashtag","offset":42,"length":5,"data":"офис"},{"type":"hashtag","offset":48,"length":7,"data":"Москва"},{"type":"hashtag","offset":56,"length":9,"data":"Балашиха"},{"type":"handle","offset":1148,"length":16,"data":"anisimovaane4ka"}],"date":"2020-06-28T11:35:43+00:00","link":"tg://resolve?domain=php_jobs&post=25424","tags":[{"name":"php"},{"name":"javascript"},{"name":"reactjs"},{"name":"dotnet"},{"name":"jquery"},{"name":"sql"},{"name":"css"},{"name":"web"},{"name":"gruntjs"},{"name":"sass"},{"name":"oracle"},{"name":"docker"}],"cities":[{"code":"moscow"},{"code":"balashikha"}],"allowsRemote":true}},{"node":{"__typename":"Job","id":"1745879040-1001091028994","title":"Java разработчик","text":"#вакансия #Java #Spring #middle #backend #удаленно #relocate\n👋Приглашаем Strong Middle Java Developer в продуктовую компанию HFLabs.\n📍Локация: удаленно или можно в офис (Москва м. Парк культуры).\n💸Уровень ЗП: от 180 000 до 250 000 руб. (обсуждается!).\n\nКомпания: HFLabs -разработчик собственных решений. MDM - Master Data Management - Управление основными мастер-данными, СУБД, СХД, Серверные платформы.\n\n🏢О проекте: «Единый клиент» собирает и поддерживает эталонную клиентскую базу. Автоматически исправляет ошибки в клиентских данных, отделяет «плохие» данные от «хороших», находит и схлопывает дубли, идентифицирует взаимосвязи. «Единый клиент» уже обработал 15 млрд. записей и успешно конкурирует с enterprise-продуктами от Oracle и IBM. 100% собственная разработка HFLabs, 0% «индусского» кода.\n\n🧑‍💻Наш стек:\n•Java 11, Stream API, регулярно обновляемые библиотеки;\n•Maven для сборки;\n•Spring как основа проекта;\n•Lucene в качестве быстрого полнотекстового кэша;\n•Oracle DB, PostgreSQL в качестве основной БД. 99% стандартный SQL, никакой «логики на БД»;\n•Spring REST на сервере, JS на клиенте (клиентом занимается фронтенд-разработчик).\n\n✅Мы предлагаем:\n•При переезде в Москву помогаем с оплатой жилья в первые 6 месяцев❗️\n•Участие в разработке крутого продукта в команде, которая ценит Ваше мнение;\n•Мощную технику (8+ ядер, 32+ оперативки, SSD, 2 монитора);\n•Дружный коллектив, 80 человек;\n•При выборе работы в офисе-просторный и тихий офис рядом с м. Парк культуры, кабинет на 2-3 человек или личный;\n•Любые курсы и конференции по специальности.\n\nЖду Ваши резюме и буду рада ответить на все вопросы. Прекрасного дня!☺️\nКонтакты для связи: telegram @anisimovaane4ka","markup":[{"type":"hashtag","offset":0,"length":9,"data":"вакансия"},{"type":"hashtag","offset":10,"length":5,"data":"Java"},{"type":"hashtag","offset":16,"length":7,"data":"Spring"},{"type":"hashtag","offset":24,"length":7,"data":"middle"},{"type":"hashtag","offset":32,"length":8,"data":"backend"},{"type":"hashtag","offset":41,"length":9,"data":"удаленно"},{"type":"hashtag","offset":51,"length":9,"data":"relocate"},{"type":"handle","offset":1662,"length":16,"data":"anisimovaane4ka"}],"date":"2020-06-26T13:22:43+00:00","link":"tg://resolve?domain=jvmjobs&post=1665","tags":[{"name":"java"},{"name":"jvm"},{"name":"spring"},{"name":"oracle"},{"name":"maven"},{"name":"lucene"},{"name":"postgresql"},{"name":"sql"},{"name":"rest"}],"cities":[{"code":"moscow"}],"allowsRemote":true}},{"node":{"__typename":"Job","id":"1735393280-1001091028994","title":"Java разработчик","text":"#java #senior #backend #js #Москва #fulltime #офис #angular\nЛокация: Москва, м. Шаболовская\nФормат работы: Office\nЗанятость: Fulltime\nЗарплата от 100 к до 240 к\nОписание вакансии:\nРазработчик JAVA (senior\\middle)\nНаш клиент - международная компания, в связи с расширением деятельности в России - приглашает опытных Java-разработчиков. \nРазработка собственного продукта - коммерческого приложения на основе Angular front + Java backend.\nОбязанности:\n- разработка новых компонентов системы\n- доработка и оптимизация существующих компонентов\n- поддержка качества кода (code review, использование систем автоматизированного контроля кода)\n- Написание юнит-тестов и функциональных тестов\n- Взаимодействие с бизнес-аналитиками для выполнения техзадания\nТребования:\n- Высшее образование\n- Командность, гибкость подходов и мышления\n- опыт разработки на java от 3 лет\nТехнические требования:\n- знание java 8, Spring-*(Boot, Data, Rest), Hibernate\n- опыт работы с SQL (SQL Server, Oracle или postgresql)\n- понимание основ микросервисной архитектуры\n- Git\n-если ты умеешь работать с Docker и понимаешь практики DevOps ты тот, кто нам нужен.\nАдекватных руководителей, сильную команду и офисные плюшки гарантируем\nКА Wit recruitment\nКонтакты m.buldenko@witrec.com\n@marinabuldenko","markup":[{"type":"hashtag","offset":0,"length":5,"data":"java"},{"type":"hashtag","offset":6,"length":7,"data":"senior"},{"type":"hashtag","offset":14,"length":8,"data":"backend"},{"type":"hashtag","offset":23,"length":3,"data":"js"},{"type":"hashtag","offset":27,"length":7,"data":"Москва"},{"type":"hashtag","offset":35,"length":9,"data":"fulltime"},{"type":"hashtag","offset":45,"length":5,"data":"офис"},{"type":"hashtag","offset":51,"length":8,"data":"angular"},{"type":"link","offset":1229,"length":21,"data":"mailto:m.buldenko@witrec.com"},{"type":"handle","offset":1251,"length":15,"data":"marinabuldenko"}],"date":"2020-06-25T09:30:21+00:00","link":"tg://resolve?domain=jvmjobs&post=1655","tags":[{"name":"java"},{"name":"jvm"},{"name":"angularjs"},{"name":"spring"},{"name":"rest"},{"name":"hibernate"},{"name":"sql"},{"name":"oracle"},{"name":"postgresql"},{"name":"git"},{"name":"docker"},{"name":"spring-boot"},{"name":"sql-server"}],"cities":[{"code":"moscow"}],"allowsRemote":false}},{"node":{"__typename":"Job","id":"17128488960-1001110946746","title":"Js разработчик","text":"#вакансия #frontend  #React #офис #remote #Спб #senior \n\nКомпания: DBeaver\nЗ/п: 180 000 - 300 000 рублей на руки \nГород и адрес офиса: г. Санкт-Петербург (м. Площадь Ленина/Новочеркасская)\nФормат работы: офис или удаленка \nЗанятость: полная, fulltime\n\n🌏DВeaver  - это международный open source проект, бесплатный многоплатформенный инструмент для работы с базами данных. Поддерживает все популярные базы данных: MySQL, PostgreSQL, MariaDB, SQLite, Oracle, DB2, SQL Server, Sybase, MS Access, Teradata, Firebird, Derby и т. д. Платформа интегрируется с Amazon сервисами и нацелена на облачные решения. \n\nCейчас ребята разрабатывают web решение DВeaver, первый релиз состоялся в начале года и компания активно продолжает развитие. \n\n💠Какой опыт и знания ожидают увидеть ребята:\n- опыт работы с TypeScript и React;\n- опыт участия в многокомпонентных проектах со сложной бизнес-логикой;\n- опыт проектирования и рефакторинга;\n- готовность возглавить разработку интерфейсной части продукта, принимать ключевые архитектурные решения;\n- английский язык от уровня intermediate (письменный и на уровне чтения).\n\nСтек технологий: TypeScript, React, GraphQL, MobX, RxJS, Docker. \n\n💎Что получите вы:\n- комфортный офис в БЦ Бенуа;\n- возможность частично или полностью удаленной работы; \n- официальное оформление;\n- возможность поработать над крутым международным продуктом в сплоченной команде энтузиастов;\n- профессиональные командировки и конференции в США и Европу.\n\nКонтакты:\ne-mail: valeriya@luckyhunter.io\ntelegram: @sobolevavalery\nКА: http://luckyhunter.io\nБуду рада ответить на все вопросы и рассказать подробнее о компании 😊","markup":[{"type":"hashtag","offset":0,"length":9,"data":"вакансия"},{"type":"hashtag","offset":10,"length":9,"data":"frontend"},{"type":"hashtag","offset":21,"length":6,"data":"React"},{"type":"hashtag","offset":28,"length":5,"data":"офис"},{"type":"hashtag","offset":34,"length":7,"data":"remote"},{"type":"hashtag","offset":42,"length":4,"data":"Спб"},{"type":"hashtag","offset":47,"length":7,"data":"senior"},{"type":"link","offset":1477,"length":23,"data":"mailto:valeriya@luckyhunter.io"},{"type":"handle","offset":1511,"length":15,"data":"sobolevavalery"},{"type":"link","offset":1531,"length":21,"data":"http://luckyhunter.io"}],"date":"2020-06-24T10:45:59+00:00","link":"tg://resolve?domain=javascript_jobs_feed&post=16335","tags":[{"name":"javascript"},{"name":"reactjs"},{"name":"mysql"},{"name":"postgresql"},{"name":"mariadb"},{"name":"sqlite"},{"name":"oracle"},{"name":"sql"},{"name":"ms-access"},{"name":"web"},{"name":"typescript"},{"name":"graphql"},{"name":"rxjs"},{"name":"docker"},{"name":"sql-server"}],"cities":[],"allowsRemote":true}},{"node":{"__typename":"Job","id":"1724907520-1001091028994","title":"Java разработчик","text":"#вакансия #java #Spring #middle #senior #офиc #backend #Москва #СПБ, #Екатеринбург #Ростов-на Дону #удаленно\n👋Приглашаем middle/senior Java Developer в новый проект от Сбербанка.\n\n💸Уровень ЗП: от 220 000 до 280 000 руб. net. (обсуждается!).\n\n✍🏻Оформление: штат компании партнера или ИП.\n\n📍Локация: офис (Москва Кутузовский пр-т 32/1). Или удалено с возможностью посещать офис: СПБ, Екатеринбург, Ростов-на Дону.\n\n🏢О проекте: В рамках стратегической программы «Создание платформы поддержки развития бизнеса» наша команда разрабатывает линейку продуктов Cash Management. Продукта корпоративного блока, предоставляющий функции управления финансовыми потоками для предприятий и корпораций с развитой филиальной сетью. Линейка продуктов содержит порядка 10 продуктов, направленных на управление всеми счетами холдинга единым казначейством. Основная задача – перевод линейки продуктов из Legacy АС на целевые платформы банка и перевод управления продуктами в удаленные каналы обслуживания.\n\n🎯Ваши будущие задачи :\n- проектирование решения, в том числе разработка детальной внутренней архитектуры сервиса, включая интеграционные сценарии;\n- детальное проектирование интеграции со смежными сервисами (в том числе API);\n- разработка программного продукта, внесение изменений в код;\n- разработка автоматических модульных тестов, автоматических скриптов и тестов развертывания.\n\n🤝Мы ожидаем от вас:\n• знание принципов ООП, методологий разработки, шаблонов проектирования;\n• уверенное владение Java 7+, Spring;\n• опыт работы с СУБД, опыт проектирования модели данных;\n• проактивная позиция, хорошие коммуникативные навыки;\n• умение работать с чужим кодом.\n• желательно опыт работы с react-js, Java Script.\n\nЖду Ваши резюме и буду рада ответить на все вопросы. Прекрасного дня!☺️\nКонтакты для связи: telegram @anisimovaane4ka\n\n#вакансия #java #Spring #middle #офиc #backend #Москва #удаленно\n📣Приглашаем Middle Java Developer в новый проект от Сбербанка.\n\n💸Уровень ЗП: от 180 000 до 270 000 руб. net. (обсуждается!).\n\n✍🏻Оформление: штат компании партнера или ИП.\n\n📌Локация: Удаленно или офис (Москва Кутузовский пр-т 32/1).\n\n🏢О проекте: Транзакционные кредитные продукты. Наша команда состоит из профессионалов и создает лучшие Кредитные карты на рынке. На платформе ППРБ мы разрабатываем принципиально новую back-office систему, которая позволит запускать продукты и сервисы с минимальным time-to-market. Технологический стек позволяет поддерживать высокую производительность, надежность и безопасность работы пользователей. Хранение данных в БД Oracle. Критичность системы – 24/7, обеспечение которой также заслуга раздельной кластеризации решений на всех уровнях: хранение данных, очереди сообщений, кластеры прикладных модулей.\n\n🎯Задачи разработчика:\n- разработка backend продукта процессинга кредитных карт (функционал кредитного продукта);\n- разработка обновлений, миграций данных и решение других backend задача.\n\n✅Наш стек:∙ Java 1.8; Spring 5 (Core, Boot, JMS, MVC, JdbcTemplate, REST); Hibernate; JUnit (Mockito); MQ (IM WS MQ, Kafka + ZooKeeper); Linux (RedHat); Application Server - Wildfly; Git, Bitbucket, Nexus, Jira, Confluence; CI: Maven, Jenkins, SonarQube, CheckMarx; IntelliJ IDEA.\n\n🤝Мы ожидаем от вас:\n- глубокие знания JavaSE 1.8;\n- понимание принципов OOP, принципов проектирования классов, шаблонов проектирования;\n- понимание принципов разработки REST сервисов;\n- желательно знания SQL и опыт работы с Oracle DB 12.2.\n\nЖду Ваши резюме и буду рада ответить на все вопросы. Прекрасного дня!☺️\nКонтакты для связи: telegram @anisimovaane4ka","markup":[{"type":"hashtag","offset":0,"length":9,"data":"вакансия"},{"type":"hashtag","offset":10,"length":5,"data":"java"},{"type":"hashtag","offset":16,"length":7,"data":"Spring"},{"type":"hashtag","offset":24,"length":7,"data":"middle"},{"type":"hashtag","offset":32,"length":7,"data":"senior"},{"type":"hashtag","offset":40,"length":5,"data":"офиc"},{"type":"hashtag","offset":46,"length":8,"data":"backend"},{"type":"hashtag","offset":55,"length":7,"data":"Москва"},{"type":"hashtag","offset":63,"length":4,"data":"СПБ"},{"type":"hashtag","offset":69,"length":13,"data":"Екатеринбург"},{"type":"hashtag","offset":83,"length":7,"data":"Ростов"},{"type":"hashtag","offset":99,"length":9,"data":"удаленно"},{"type":"handle","offset":1803,"length":16,"data":"anisimovaane4ka"},{"type":"hashtag","offset":1821,"length":9,"data":"вакансия"},{"type":"hashtag","offset":1831,"length":5,"data":"java"},{"type":"hashtag","offset":1837,"length":7,"data":"Spring"},{"type":"hashtag","offset":1845,"length":7,"data":"middle"},{"type":"hashtag","offset":1853,"length":5,"data":"офиc"},{"type":"hashtag","offset":1859,"length":8,"data":"backend"},{"type":"hashtag","offset":1868,"length":7,"data":"Москва"},{"type":"hashtag","offset":1876,"length":9,"data":"удаленно"},{"type":"handle","offset":3546,"length":16,"data":"anisimovaane4ka"}],"date":"2020-06-23T13:23:27+00:00","link":"tg://resolve?domain=jvmjobs&post=1645","tags":[{"name":"java"},{"name":"jvm"},{"name":"spring"},{"name":"dotnet"},{"name":"reactjs"},{"name":"oracle"},{"name":"rest"},{"name":"hibernate"},{"name":"junit"},{"name":"kafka"},{"name":"linux"},{"name":"git"},{"name":"maven"},{"name":"jenkins"},{"name":"sonarqube"},{"name":"sql"},{"name":"intellij-idea"}],"cities":[{"code":"moscow"},{"code":"rostov"}],"allowsRemote":true}},{"node":{"__typename":"Job","id":"103450411008-1001089317451","title":"Qa инженер","text":"#тестировщик #QA #manual #СПб #fulltime #вакансия \nИнженер по тестированию middle/senior\nКомпания: Yota \nСанкт-Петербург, м. Беговая (БЦ Атлантик Сити) \nСредняя ЗП: **120 000**/на руки\nПолная занятость, офис (сейчас работаем удаленно)\n\nВсем привет! Я Олеся – HR компании Yota. В развивающуюся команду биллинга и тарификации ищем внимательного QA инженера. \nОднозначно пиши, если НЕТ опыта в автотестах, но очень хочешь расти в этом направлении. БОльшая часть времени-ручные тесты, + развитие в авто.\nТесная работа с БД (Oracle).\nИнтересные задачи: \n• Проведение приёмочного тестирования новой функциональности биллинговой системы;\n• Тестирование новых бизнес продуктов;\n• Тестирование-исследование на предмет реализуемости функционала.\n*остальное в вакансии на НН\n\nОбязательные требования: \n• Опыт работы в тестировании ПО от 2 лет; \n• Базовые знания REST API;\n• Базовые знания Linux;\n• Понимание QA как процесса обеспечения качества, знание процессов и методологий разработки ПО\n• Знания ORACLE (SQL, PL/SQL на уровне написания запросов/простых процедур).\n\nУсловия:\nДМС \nЗП полностью белая\nКофетерий: спорт, иностранные языки, корпоративные активности (футбол, теннис), клуб аналитиков и много других приятных мелочей.\nУютный новый офис в Атлантик-Сити (м.Беговая)\n\nВакансия: https://spb.hh.ru/vacancy/36958391\nОС: @olesyaromanova01","markup":[{"type":"hashtag","offset":0,"length":12,"data":"тестировщик"},{"type":"hashtag","offset":13,"length":3,"data":"QA"},{"type":"hashtag","offset":17,"length":7,"data":"manual"},{"type":"hashtag","offset":25,"length":4,"data":"СПб"},{"type":"hashtag","offset":30,"length":9,"data":"fulltime"},{"type":"hashtag","offset":40,"length":9,"data":"вакансия"},{"type":"bold","offset":75,"length":13,"data":""},{"type":"bold","offset":99,"length":4,"data":""},{"type":"bold","offset":153,"length":7,"data":""},{"type":"bold","offset":185,"length":22,"data":""},{"type":"bold","offset":301,"length":8,"data":""},{"type":"bold","offset":500,"length":18,"data":""},{"type":"bold","offset":540,"length":6,"data":""},{"type":"bold","offset":778,"length":10,"data":""},{"type":"bold","offset":1058,"length":7,"data":""},{"type":"link","offset":1277,"length":34,"data":"https://spb.hh.ru/vacancy/36958391"},{"type":"handle","offset":1316,"length":17,"data":"olesyaromanova01"}],"date":"2020-06-22T13:52:39+00:00","link":"tg://resolve?domain=qa_jobs&post=98658","tags":[{"name":"qa"},{"name":"oracle"},{"name":"rest"},{"name":"linux"},{"name":"sql"}],"cities":[],"allowsRemote":true}},{"node":{"__typename":"Job","id":"103421050880-1001089317451","title":"Qa инженер","text":"Юлия Романова, [17.06.20 14:29]\n#вакансия #спб #fulltime #qa #удаленно\n\nКомпания: Smart Design (smddev.com) \n\nДолжность: Инженер по ручному и автоматизированному тестированию (QA & Automation Engineer)\n\nИщем инженера по тестированию BSS сотового оператора.\nБольшая распределенная команда (~30 человек).\nНужно хорошо уметь тестировать вручную и, когда это выгодно, суметь автоматизировать.\n\n\nНаши пожелания к кандидатам:\n✔️Опыт работы с Java или любым другим высокоуровневым языком программирования на уровне, достаточном для самостоятельного написания игры \"Сапёр\"\n✔️Опыт работы в консоли linux на уровне, достаточном для для решения задач:\nпоиск и изменение строк в файле\nуправление системными процессами\n✔️Опыт взаимодействия с REST API на уровне, достаточном для того, чтобы получить из ВКонтакте имя и фамилию своего аккаунта, не используя браузер\n\nПлюсом будет:\n✔️Опыт работы с протоколом SOAP\n✔️Профессиональный опыт функционального тестирования\n✔️Опыт работы с JUnit, Gradle, Oracle\n\nУсловия:\n✔️\"Белая\" зарплата до 110K gross\n✔️ДМС\n✔️ Работа в удаленном режиме на данный момент, далее в уютном офисе.\n\nhttps://spb.hh.ru/vacancy/37540632\n\nМои контакты: @romanovaya iyliia.romanova@smddev.com","markup":[{"type":"hashtag","offset":32,"length":9,"data":"вакансия"},{"type":"hashtag","offset":42,"length":4,"data":"спб"},{"type":"hashtag","offset":47,"length":9,"data":"fulltime"},{"type":"hashtag","offset":57,"length":3,"data":"qa"},{"type":"hashtag","offset":61,"length":9,"data":"удаленно"},{"type":"link","offset":96,"length":10,"data":"http://smddev.com"},{"type":"link","offset":1109,"length":34,"data":"https://spb.hh.ru/vacancy/37540632"},{"type":"handle","offset":1159,"length":11,"data":"romanovaya"},{"type":"link","offset":1171,"length":26,"data":"mailto:iyliia.romanova@smddev.com"}],"date":"2020-06-22T10:04:08+00:00","link":"tg://resolve?domain=qa_jobs&post=98630","tags":[{"name":"qa"},{"name":"java"},{"name":"linux"},{"name":"rest"},{"name":"soap"},{"name":"junit"},{"name":"gradle"},{"name":"oracle"}],"cities":[],"allowsRemote":true}},{"node":{"__typename":"Job","id":"103360233472-1001089317451","title":"Qa инженер","text":"#вакансия #Автоматизация #QA #fulltime #Bercut #удаленная_работа\n #удаленка\nФормат работы: удаленная\nЗанятость: полная занятость.\nЗарплата: от 120 000 до 180 000 net (белый доход) + годовой бонус.\n\nКомпания Bercut находит в поисках столпа инициативности и изменений! Здесь разрешено всё, что не запрещено. Мы создали среду возможностей, где каждое достижение поощряется. Хардкорные проекты, жесткие коллеги, и отряд аналитиков в комплекте (что бы ты не возился с кучей legacy кода). \n\nРассматриваем кандидатов на новые и текущие проекты BSS, преимущественно - биллинг, и проект RnD (ядро биллинга).\n\n\nТребования\n• Опыт в тестировании от 3-х лет;\n• Опыт в сфере BSS/Биллинга от года (обязательно);\n• Опыт в автоматизации тестирования от 1 года (Python, Java);\n• Опыт работы с CI инструментами (Jenkins/TeamCity);\n• Знание SQL на уровне написания сложных запросов, будет плюсом Oracle PL/SQL;\n• Знание различных методологий тестирования, техник тест-дизайна;\n• Желание развиваться в сфере тестирования.\n\nЧто делать?\n• Составлять тест-планы и тестовые сценарии;\n• Разрабатывать и поддерживать сценарии автоматизированного тестирования;\n• Участвовать в организации и развитии окружения для запуска тестов и тестовой инфраструктуры;\n• Взаимодействовать с разработчиками и аналитиками;\n• Работать над улучшением процесса тестирования, внедрять новые подходы по обеспечению качества.\n\nМы предлагаем:\n•  высокий \"белый\" доход, годовой бонус, ДМС, кафетерий льгот, интересные задачи.\n\n\nКомпания: https://www.bercut.com/\nКонтакты @Double2k или почта Ilya.Kuteinikov@bercut.com","markup":[{"type":"hashtag","offset":0,"length":9,"data":"вакансия"},{"type":"hashtag","offset":10,"length":14,"data":"Автоматизация"},{"type":"hashtag","offset":25,"length":3,"data":"QA"},{"type":"hashtag","offset":29,"length":9,"data":"fulltime"},{"type":"hashtag","offset":39,"length":7,"data":"Bercut"},{"type":"hashtag","offset":47,"length":17,"data":"удаленная_работа"},{"type":"hashtag","offset":66,"length":9,"data":"удаленка"},{"type":"link","offset":1487,"length":23,"data":"https://www.bercut.com/"},{"type":"handle","offset":1520,"length":9,"data":"Double2k"},{"type":"link","offset":1540,"length":26,"data":"mailto:Ilya.Kuteinikov@bercut.com"}],"date":"2020-06-21T10:18:13+00:00","link":"tg://resolve?domain=qa_jobs&post=98572","tags":[{"name":"qa"},{"name":"dotnet"},{"name":"python"},{"name":"java"},{"name":"jenkins"},{"name":"sql"},{"name":"oracle"}],"cities":[],"allowsRemote":true}},{"node":{"__typename":"Job","id":"26450329600-1001075660570","title":"Php developer","text":"#вакансия #php #magento #magento2 #петербург #москва #нижнийновгород\n\n📎Вакансия: Senior PHP developer (Magento2)\n📎Компания: First Line Software\n📎Город: Санкт-Петербург/Москва/Нижний Новгород (работа в любом из наших центров разработки, до осени в удаленном режиме)\n\n📎Мы предлагаем присоединиться к проекту по миграции крупного американского интернет-портала с Magento 1 на Magento 2. Планируется использование headless-решения на Magento2 и WordPress и генерацией на Sapper. Коммуникация в проекте осуществляется на английском языке, поэтому необходимы навыки разговорного общения.\nТехнологический стек: PHP, Magento 2, Wordpress, Sapper, HTML, CSS, Svelte JS.\nМы ищем того, кто:\n•имеет опыт разработки на PHP от 3-х лет\n•работал с Magento 2 (сертификат будет являться преимуществом)\n•владеет английским языком на уровне Intermediate и выше.\n\n📎Мы предлагаем:\n•Участие в разработке высокотехнологичных продуктов, которые используются на всех континентах, кроме Антарктиды\n•Большую команду профессиональных и творческих инженеров, которые готовы делиться своим опытом и знаниями\n•Курсы английского языка с носителями и русскоязычными преподавателями в офисе (большое количество наших заказчиков находится за рубежом, мы всегда за то, чтобы вы прокачивали свои скиллы владения английским)\n•Компенсация оплаты успешно пройденной сертификации (напр., Microsoft, Oracle и пр.)\n•Официальная зарплата и оформление по ТК РФ\n•Полис ДМС, в том числе стоматология, гибкий график, удобные рабочие места\n•На каждом этаже офиса есть уютные кухни с плюшками, фруктами, вкусным кофе и какао;\n•Возможность стать частью нашей футбольной команды, принимать участие в турнирах по кикеру, теннису, ежедневная суставная зарядка и еще много корпоративных движух :)\n\nС радостью обсужу все детали в личке @MariiaDia","markup":[{"type":"hashtag","offset":0,"length":9,"data":"вакансия"},{"type":"hashtag","offset":10,"length":4,"data":"php"},{"type":"hashtag","offset":15,"length":8,"data":"magento"},{"type":"hashtag","offset":24,"length":9,"data":"magento2"},{"type":"hashtag","offset":34,"length":10,"data":"петербург"},{"type":"hashtag","offset":45,"length":7,"data":"москва"},{"type":"hashtag","offset":53,"length":15,"data":"нижнийновгород"},{"type":"handle","offset":1784,"length":10,"data":"MariiaDia"}],"date":"2020-06-19T08:23:34+00:00","link":"tg://resolve?domain=php_jobs&post=25225","tags":[{"name":"php"},{"name":"magento"},{"name":"wordpress"},{"name":"html"},{"name":"css"},{"name":"oracle"}],"cities":[{"code":"moscow"},{"code":"nizhny-novgorod"}],"allowsRemote":true}},{"node":{"__typename":"Job","id":"103155761152-1001089317451","title":"Qa инженер","text":"#вакансия #москва #полнаязанятость #мегафон #bigdata #покаработаемиздомапотомвофис\n\nМы ищем QA-инженера в команду для тестирования внутренних и внешних сервисов.\n\nЧем предстоит заниматься:\n\n- Разработка модулей интеграционных тестов для наших сервисов;\n- Подготовка тестовых данных (работа с hive/oracle);\nРабота с SQL/HiveQL (Oracle/Hive);\n- Написание алгоритмов работы с данными, в рамках тестирования;\n- Взаимодействие с разработчиками и аналитиками в процессе проектирования и развития;\n- Выявление, фиксация и контроль багов в баг-трекере (Jira);\n- Ведение документации по тестированию (confluence);\n\nИспользуемые технологии:\nДля разработки – Play, Spring, Flask, Scala, Java (8+), Python(3+);\nДля тестирования: Java/Scala & Maven + TestNG + Google Guice;\nДля работы сервисов – Docker;\nДля работы с кодом – GitLab;\nДля работы с задачами – Jira.\n\nМы ожидаем от вас:\n- Опыт работы в автоматизации тестирования от 1 года;\n- Знание структур данных и алгоритмов;\n- Уверенное знание Java;\n- Уверенное знание фреймворков TestNG/JUnit;\n- Опыт работы в автоматизации тестирования;\n- Опыт работы с реляционными СУБД (Oracle/PostgreSQL);\n- Умение писать хорошо читаемый код;\n- Умение работать с VCS (Git) и сборщиками (maven).\n\nБудет плюсом:\n- Опыт в области тестирования приложений по работе с большими данными;\n- Опыт в нагрузочном тестировании;\n- Опыт работы с Spring/Google Guice;\n- Опыт конфигурирования CI/CD (GitLab);\n- Умение писать код на Scala;\n- Опыт работы с Hadoop/Spark.\n\nЧто мы предлагаем:\n- Внутреннее и внешнее обучение в России (Coursera, New Prolab, Geek Brains и др.);\n- Новый офис в центре: 7 минут пешком от м. Маяковская/Новослободская;\n- Компенсация затрат на мобильную связь;\nДМС (включая стоматологию);\n- Частичная компенсация спорта;\n- Возможность участия в корпоративных спортивных командах: футбол, волейбол, баскетбол, хоккей и бег\n- Регулярные митапы в офисе с внешними спикерами из разных областей.\n\n#мегафон #bigdata\nКонтакты: Svetlana.stakanova@megafon.ru или @svetastakanova","markup":[{"type":"hashtag","offset":0,"length":9,"data":"вакансия"},{"type":"hashtag","offset":10,"length":7,"data":"москва"},{"type":"hashtag","offset":18,"length":16,"data":"полнаязанятость"},{"type":"hashtag","offset":35,"length":8,"data":"мегафон"},{"type":"hashtag","offset":44,"length":8,"data":"bigdata"},{"type":"hashtag","offset":53,"length":29,"data":"покаработаемиздомапотомвофис"},{"type":"hashtag","offset":1926,"length":8,"data":"мегафон"},{"type":"hashtag","offset":1935,"length":8,"data":"bigdata"},{"type":"link","offset":1954,"length":29,"data":"mailto:Svetlana.stakanova@megafon.ru"},{"type":"handle","offset":1988,"length":15,"data":"svetastakanova"}],"date":"2020-06-18T09:58:49+00:00","link":"tg://resolve?domain=qa_jobs&post=0","tags":[{"name":"qa"},{"name":"hive"},{"name":"oracle"},{"name":"sql"},{"name":"playframework"},{"name":"spring"},{"name":"flask"},{"name":"scala"},{"name":"java"},{"name":"python"},{"name":"maven"},{"name":"docker"},{"name":"gitlab"},{"name":"junit"},{"name":"postgresql"},{"name":"git"},{"name":"hadoop"}],"cities":[{"code":"moscow"}],"allowsRemote":false}}]}}},"context":{}}