{"hash":"f5f6bf98bd95e769321482904cbbd488f77922fd","data":{"records":{"id":"mobile","name":"mobile","belongsTo":{"totalCount":307,"pageInfo":{"totalPages":31,"currentPage":6},"edges":[{"node":{"__typename":"Job","id":"72472330240-1001054966032","title":"Android разработчик","text":"#вакансия #москва #офис #kotlin#Android\n\nгород: Москва\nформат работы: офис\nзанятость: полная\nзарплатная вилка: 150-200\nвакансия: Ищу Android-разработчика  middle+, готового возглавить развитие  и поддержку приложения.\nПодробности: @Jane1204\n\nо компании: Электронное издательство «Юрайт» Мы работаем со всеми вузами страны и считаем своей главной целью повышение образовательного уровня в России.\nwww.urait.ru\n\nо проекте: Над проектом работает 20 человек. Приложение заказывали на стороне в 2019 г. Теперь решили собрать свою команду для рефакторинга и выведения на новый уровень.\n\nЧто ждет от тебя будущее нашего образования:\n-Поддержку и развитие нашего приложения;\n-Перенос функционала из web;\n-Взаимодействие с командой - аналитиками и тестировщиками;\n-Участие в развитии проекта.\n\nСкажем тебе уверенное “да”, если ты:\n-Имеешь успешный опыт разработки и поддержки под Android  (Android Studio, Gradle);\n-Имеешь опыт разработки на Kotlin;\n-Имеешь успешный опыт разработки клиент-серверных приложений (REST, JSON);\n-Трогал архитектуру (MVP, Clean architecture);\n-Знаешь  Android application architecture, Android SDK, Gradle;\n-Владеешь паттернами UI;\n-Знаешь, зачем нужен Git, \n-Можешь писать тесты;\n-Готов ин-хаус исправлять код от аутсорса. Уверен в том, что ты сделаешь круче, чем исполнители на стороне =)\n\nПо  условиям:\nОфис с плюшками в 5 минутах от м. Шоссе Энтузиастов, МСК\nГибкое начало дня:  с 8 до 11 \nВсе по ТК РФ + соц.пакет \nАдекватные коллеги и руководство!!!\n\nСвязь по почте: manuylovaey@gmail.com\nИли тут @Jane1204","markup":[{"type":"hashtag","offset":0,"length":9,"data":"вакансия"},{"type":"hashtag","offset":10,"length":7,"data":"москва"},{"type":"hashtag","offset":18,"length":5,"data":"офис"},{"type":"handle","offset":231,"length":9,"data":"Jane1204"},{"type":"link","offset":396,"length":12,"data":"http://www.urait.ru"},{"type":"link","offset":1493,"length":21,"data":"mailto:manuylovaey@gmail.com"},{"type":"handle","offset":1523,"length":9,"data":"Jane1204"}],"date":"2020-07-01T16:51:34+00:00","link":"tg://resolve?domain=mobile_jobs&post=69115","tags":[{"name":"mobile"},{"name":"android"},{"name":"kotlin"},{"name":"web"},{"name":"gradle"},{"name":"rest"},{"name":"json"},{"name":"git"},{"name":"android-studio"}],"cities":[{"code":"moscow"}],"allowsRemote":false}},{"node":{"__typename":"Job","id":"72467087360-1001054966032","title":"Android разработчик","text":"#вакансия #android #remote #удаленка \n\nФормат работы: удаленка\nЗанятость: проектная\nОплата:\n+ Отдельные проекты (сдельная оплата) в среднем 60-150 $\n+ Партнёрские условия (получаете процент от выручки)\n\nОписание вакансии:\nТребуется разработчик Face Swap и подобных приложений на различные проекты.\n\nВ ближайшее время планируем реализовать несколько проектов посредством подключения готовых Face Swap модулей по api или через внедрения отдельных готовых блоков кода. Есть много различных идей.\n\n🧠 Требования:\n\n+ Общий опыт работы от 2-х лет\n+ Опыт работы с различными api, с внедрением готовых модулей в приложение\n+ Опыт работы с Face Swap или дополненной реальностью и т.п.\n\nКонтакты: телеграм @makar_abraam","markup":[{"type":"hashtag","offset":0,"length":9,"data":"вакансия"},{"type":"hashtag","offset":10,"length":8,"data":"android"},{"type":"hashtag","offset":19,"length":7,"data":"remote"},{"type":"hashtag","offset":27,"length":9,"data":"удаленка"},{"type":"handle","offset":696,"length":13,"data":"makar_abraam"}],"date":"2020-07-01T15:26:25+00:00","link":"tg://resolve?domain=mobile_jobs&post=69110","tags":[{"name":"mobile"},{"name":"android"}],"cities":[],"allowsRemote":true}},{"node":{"__typename":"Job","id":"72464990208-1001054966032","title":"Android разработчик","text":"#вакансия #москва #офис #fulltime #android \n\nВакансия: Android-разработчик\nГород: Москва\nЗ/п: от 230тыс. руб. до 280 тыс. руб. после налогообложения\nФормат работы: офис, полная занятость\nКомпания: CORE\n\n📌О компании:\nНаша команда занимается мобильной и web-разработкой в области финансов и страхования. Мы реализуем проекты для международных финтех-стартапов, российских банков и страховых компаний. При разработке мы применяем самый современный стек технологий, большое внимание уделяем оптимизации процесса разработки – использованию практик CI/CD, инструментов кодогенерация. Для вас это возможность познакомиться с передовыми технологиями, развиваться в команде профессионалов, готовых поддерживать перспективные инициативы.\n\nРаботать предстоит в суперсовременном офисе в центре Москвы. Мы предоставляем современный hardware и все, что нужно для продуктивной работы. После испытательного срока предоставляется социальный пакет. Лучшие сотрудники проходят профильное обучение за счет компании, выступают спикерами на конференциях.\n\n📌Требования:\n– Уверенное знание Kotlin, Java;\n– Знает базовые алгоритмы и структуры данных;\n– Знает основные паттерны проектирования и имеет опыт их применения.\n\n📌Условия:\n– Заработная плата от 250 тыс. руб. после налогообложения;\n– Работа в офисе в центре Москвы;\n– Официальное трудоустройство согласно ТК РФ.\n\nДля иногородних специалистов предоставляем комфортные апартаменты в современном жилом комплексе недалеко от места работы.\n\nО компании https://core.company\n\nБолее подробно о вакансии в ТГ @tv_corecompany","markup":[{"type":"hashtag","offset":0,"length":9,"data":"вакансия"},{"type":"hashtag","offset":10,"length":7,"data":"москва"},{"type":"hashtag","offset":18,"length":5,"data":"офис"},{"type":"hashtag","offset":24,"length":9,"data":"fulltime"},{"type":"hashtag","offset":34,"length":8,"data":"android"},{"type":"link","offset":1483,"length":20,"data":"https://core.company"},{"type":"handle","offset":1536,"length":15,"data":"tv_corecompany"}],"date":"2020-07-01T14:42:14+00:00","link":"tg://resolve?domain=mobile_jobs&post=69108","tags":[{"name":"mobile"},{"name":"android"},{"name":"web"},{"name":"kotlin"},{"name":"java"}],"cities":[{"code":"moscow"}],"allowsRemote":false}},{"node":{"__typename":"Job","id":"72462893056-1001054966032","title":"Mobile разработчик","text":"#вакансия #react #native  #middle #senior \nГород и адрес офиса: Локация не важна. \nФормат работы: Удаленная работа. \nЗанятость: Частичная с расчётом на полную. Проектов несколько. Основная работа - разработка и контроль кроссплатформенного приложения по доставке. \nЗарплатная вилка: от 100 до 250 \n\nОписание вакансии: Требуется специалист по React Native в дружную команду для работы над очень интересными проектами. Обязательна адекватность, ответственность и любовь к своему делу. Уровень не ниже middle. \n\nНазвание компании: Scripta IT \nКонтакты: @buddhh","markup":[{"type":"hashtag","offset":0,"length":9,"data":"вакансия"},{"type":"hashtag","offset":10,"length":6,"data":"react"},{"type":"hashtag","offset":17,"length":7,"data":"native"},{"type":"hashtag","offset":26,"length":7,"data":"middle"},{"type":"hashtag","offset":34,"length":7,"data":"senior"},{"type":"bold","offset":43,"length":19,"data":""},{"type":"bold","offset":83,"length":13,"data":""},{"type":"bold","offset":117,"length":9,"data":""},{"type":"bold","offset":265,"length":16,"data":""},{"type":"bold","offset":299,"length":17,"data":""},{"type":"bold","offset":509,"length":18,"data":""},{"type":"bold","offset":540,"length":9,"data":""},{"type":"handle","offset":550,"length":7,"data":"buddhh"}],"date":"2020-07-01T13:26:09+00:00","link":"tg://resolve?domain=mobile_jobs&post=69106","tags":[{"name":"mobile"},{"name":"reactjs"},{"name":"react-native"}],"cities":[],"allowsRemote":false}},{"node":{"__typename":"Job","id":"72458698752-1001054966032","title":"Android developer","text":"#вакансия #fulltime  #vacancy  #remote #ремоут  #IOSdeveloper #IOS \n\n💻 IOS Developer\n🕐 Fulltime remote\n👩🏻‍💻2 year of commercial development on IOS\n💰from 10 $/hour to 17 $/hour\n\nВсем привет!🙋🏻‍♀️\nAMS ищет IOS dev на ремоут. Мы занимаемся разработкой мобильных приложений под Android и IOS.\n\nУсловия:\n-проектная занятость;\n-долгосрочный проект;\n-фуллтайм.\n\nТребования :\n-коммерческий опыт разработки от 2 лет;\n-разговорный английский B2+.\n\n📝 За подробностями по вакансии и по всем вопросам  пишите:\ndarya.matsyas@ams-apps.com\nDarya \nLinkedIn","markup":[{"type":"hashtag","offset":0,"length":9,"data":"вакансия"},{"type":"hashtag","offset":10,"length":9,"data":"fulltime"},{"type":"hashtag","offset":21,"length":8,"data":"vacancy"},{"type":"hashtag","offset":31,"length":7,"data":"remote"},{"type":"hashtag","offset":39,"length":7,"data":"ремоут"},{"type":"hashtag","offset":48,"length":13,"data":"IOSdeveloper"},{"type":"hashtag","offset":62,"length":4,"data":"IOS"},{"type":"link","offset":446,"length":2,"data":"http://darya.matsyas@ams-apps.com/"},{"type":"link","offset":506,"length":27,"data":"http://darya.matsyas@ams-apps.com/"},{"type":"link","offset":540,"length":8,"data":"https://www.linkedin.com/in/darya-matyas-12ba33158/"}],"date":"2020-07-01T11:46:07+00:00","link":"tg://resolve?domain=mobile_jobs&post=69102","tags":[{"name":"mobile"},{"name":"android"},{"name":"ios"}],"cities":[],"allowsRemote":true}},{"node":{"__typename":"Job","id":"104136179712-1001089317451","title":"Qa engineer","text":"#вакансия #Ульяновск #QA #fulltime #офис #manual #relocate\n\n🔸 manual QA engineer \n🔸 Ульяновск, офис, remote не рассматриваем (но пока удаленно из-за covid)\n🔸 Dualboot Partners (NC, USA)\n🔸 от $1000\n\nОт вас:\n\n- нужно очень хорошо тестировать web- и mobile-приложения, API, нужны уверенные скиллы в этом\n- эрудиция в web-технологиях\n- опыт работы с различными инструментами для тестирования\n- умение работать самостоятельно и ответственно\n- вся документация и общение с клиентом на английском, соответственно, уровень хотя бы базовый необходим\n- есть проекты, покрываемые автотестами, поэтому умение их разрабатывать может быть плюсом и пригодиться в будущем\n\nОт нас:\n\n- ноль лишней бюрократии\n- з/п в $ официально\n- уроки английского от компании\n- MacBook Pro для работы (через 1 год работы он переходит во владение сотруднику)\n- очень крутой офис-коттедж в центре города (да, Ульяновск) с кучей вкусностей и прочими радостями\n- команда - молодые, разносторонние и очень скилловые люди\n- гибкий график и вообще всевозможные свободы, не мешающие эффективно работать\n- помощь при переезде в Ульяновск\n\nБуду рада ответить на любые вопросы,  @alina_fatkhutdinova","markup":[{"type":"hashtag","offset":0,"length":9,"data":"вакансия"},{"type":"hashtag","offset":10,"length":10,"data":"Ульяновск"},{"type":"hashtag","offset":21,"length":3,"data":"QA"},{"type":"hashtag","offset":25,"length":9,"data":"fulltime"},{"type":"hashtag","offset":35,"length":5,"data":"офис"},{"type":"hashtag","offset":41,"length":7,"data":"manual"},{"type":"hashtag","offset":49,"length":9,"data":"relocate"},{"type":"handle","offset":1140,"length":20,"data":"alina_fatkhutdinova"}],"date":"2020-07-01T11:33:07+00:00","link":"tg://resolve?domain=qa_jobs&post=99312","tags":[{"name":"qa"},{"name":"web"},{"name":"mobile"}],"cities":[{"code":"ulyanovsk"}],"allowsRemote":true}},{"node":{"__typename":"Job","id":"72455553024-1001054966032","title":"Mobile разработчик","text":"#вакансия #удаленка #полная #react #reactnative\n\nНазвание компании: Storiesgain www.storiesgain.com\nОписание вакансии: \nРебята, ищем Senior React Native разработчика. Удаленно, полная занятость.\n\nТребования:\n- Опыт разработки мобильных приложений на React Native от 1 года;\n- Опыт разработки мобильных приложений от 3 лет;\n- Знания различных подводных камней ReactNative и их решение.\n\nУсловия:\n- Гео - любое\n- ЗП по результатам собеседования;\n- Мы предлагаем вам расти вместе с компанией Storiesgain. Наши амбиции огромны, возможности для развития и творчества безграничны;\n- Работа над HighLoad проектом в дружном коллективе; Удаленная занятость, полный рабочий день;\n- Испытательный срок один месяц.\n\nТехнологии: #react, #reactnative\nЗанятость: #полная #удаленка\nЗарплатная вилка: от 110000 до 160000 рублей\n\nБуду рада сконнектить с командой 🎈\nКонтакты: @Olga_hr_it","markup":[{"type":"hashtag","offset":0,"length":9,"data":"вакансия"},{"type":"hashtag","offset":10,"length":9,"data":"удаленка"},{"type":"hashtag","offset":20,"length":7,"data":"полная"},{"type":"hashtag","offset":28,"length":6,"data":"react"},{"type":"hashtag","offset":35,"length":12,"data":"reactnative"},{"type":"link","offset":80,"length":19,"data":"http://www.storiesgain.com"},{"type":"hashtag","offset":716,"length":6,"data":"react"},{"type":"hashtag","offset":724,"length":12,"data":"reactnative"},{"type":"hashtag","offset":748,"length":7,"data":"полная"},{"type":"hashtag","offset":756,"length":9,"data":"удаленка"},{"type":"handle","offset":858,"length":11,"data":"Olga_hr_it"}],"date":"2020-07-01T11:13:18+00:00","link":"tg://resolve?domain=mobile_jobs&post=69099","tags":[{"name":"mobile"},{"name":"reactjs"},{"name":"react-native"}],"cities":[],"allowsRemote":true}},{"node":{"__typename":"Job","id":"72454504448-1001054966032","title":"Ios разработчик","text":"#вакансия #москва #удаленка #fulltime #IOSdeveloper\n\nIOS-разработчик / iOS-программист / iOS developer (Swift)\n\nООО Криптериум (https://crypterium.com)\n\nЗп: 120.000-250.000\n\n\nПривет!\n\nМы команда Crypterium!\n\nМы международный финтех стартап.\n\nМы строим банк будущего, который поддерживает криптофиатные операции.\n\nНаша цель – создание сервиса, который фактически займёт место традиционных банков, по всем возможным банковским операциям!\n\nУ нас сложные, но интересные задачи по созданию крутого и по-настоящему полезного продукта для людей из разных стран по всему миру. Работа у нас- реальная возможность приложить руку к крутому продукту, которым будет пользоваться большое количество людей.\n\nНа данный момент наша компания активно растет и развивается, в связи с этим мы ищем iOS Developer. Нам нужен по-настоящему проактивный и ответственный сотрудник. Задач много, они разные и крайне интересны\n\n🟢Что предстоит делать?\n\n🔹Разработка нового функционала мобильного приложения под iOS и исправление существующих недостатков.\n🔹Проведение интеграционных тестов при передаче функционала в тест.\n🔹Участие в принятии технических решений и планировании процесса разработки продукта.\nВзаимодействие с менеджерами, дизайнерами, бекендерами, тестировщиками.\n🔹Участие в CodeReview.\n🔹Покрытие написанного кода UnitTest’ами.\n🔹Участие в проектировании REST API.\n🔹Ведение задач при помощи Jira.\n\n\n🟢Какие skill’s мы хотим видеть в нашем будущем коллеге?\n\n🔹Отличное знание Swift.\n🔹Знание архитектуры MVVM.\n🔹Использование Router, Assemblies, Managers.\n🔹Понимание принципов работы RESTful API и HTTP.\n🔹Знание шаблонов проектирования и умение их применять, придерживаясь принципов SOLID.\n🔹Знание основных алгоритмов и структур данных.\n🔹Умение писать поддерживаемый и тестируемый код.\n🔹Способность декомпозировать задачи, оценивать их и выдерживать сроки.\n🔹Опыт модульного программирования в больших проектах\n🔹Понимание linking библиотек\n🔹Ответственное выполнение поставленных задач в срок и c максимальным качеством\n\n🟢Что мы готовы предложить будущему коллеге?\n\n🔹По настоящему заряженная команда профессионалов\n🔹Офис м.Тульская\n🔹Удаленная работа, с возможностью приезжать в офис, гибкое начало рабочего дня (c 9 до 12)\n🔹Возможности профессионально развиваться и расти\n\nКонтакты:\n@kriskrisych Кристина","markup":[{"type":"hashtag","offset":0,"length":9,"data":"вакансия"},{"type":"hashtag","offset":10,"length":7,"data":"москва"},{"type":"hashtag","offset":18,"length":9,"data":"удаленка"},{"type":"hashtag","offset":28,"length":9,"data":"fulltime"},{"type":"hashtag","offset":38,"length":13,"data":"IOSdeveloper"},{"type":"link","offset":128,"length":22,"data":"https://crypterium.com"},{"type":"handle","offset":2284,"length":12,"data":"kriskrisych"}],"date":"2020-07-01T11:13:14+00:00","link":"tg://resolve?domain=mobile_jobs&post=69098","tags":[{"name":"mobile"},{"name":"ios"},{"name":"swift"},{"name":"rest"},{"name":"mvvm"}],"cities":[{"code":"moscow"}],"allowsRemote":true}},{"node":{"__typename":"Job","id":"72453455872-1001054966032","title":"Android разработчик","text":"#вакансия #job #Android #remote #удаленка #fulltime #Kotlin #Java\n🔶 Android developer (middle+)\n🔶 BSL (bsl.dev)\n🔶 г. Москва\n🔶 fulltime office/remote\n🔶 ЗП от 1900-2600$\n\n✅ Задачи:  \n• Разработка нового функционала мобильного приложения для сети магазинов;\n• Доработка текущего функционала;\n• Взаимодействие с распределенной командой разработчиков;\n• Проведение Code Review.\n\n✅ Что нужно уметь:\n• Коммерческий опыт на Kotlin;\n• Знание Java;\n• Знание Android SDK (API 21+);\n• Опыт разработки клиент-серверных приложений;\n• Знание современных архитектурных паттернов в разработке (MVP, MVVM, MVI, Clean Architecture и т.д.);\n• Использование стандартного стека технологий: RxJava 2, Dagger 2, Retrofit;\n• Работа по Git Flow в команде.\n\n✅ Что даем взамен:\n• Возможность прокачки hard skills на проектах разного уровня сложности; \n• Команду с сильными разработчиками, product-менеджерами, QA, UX/UI дизайнерами и налаженными процессами;\n• Самореализацию и профессиональный рост, посещение конференций и курсов за счет компании. Расскажите нам о своей профессиональной мечте, возможно мы поможем вам воплотить ее в жизнь;\n• Возможен удаленный формат сотрудничества, или работа в офисе: г. Москва - м. Дмитровская, г. Минск - м. Грушевка\n\n✅Жду ваши резюме и, если есть, вопросы.\nМои контакты: @viktoriya_gw \nhr@bsl.dev","markup":[{"type":"hashtag","offset":0,"length":9,"data":"вакансия"},{"type":"hashtag","offset":10,"length":4,"data":"job"},{"type":"hashtag","offset":15,"length":8,"data":"Android"},{"type":"hashtag","offset":24,"length":7,"data":"remote"},{"type":"hashtag","offset":32,"length":9,"data":"удаленка"},{"type":"hashtag","offset":42,"length":9,"data":"fulltime"},{"type":"hashtag","offset":52,"length":7,"data":"Kotlin"},{"type":"hashtag","offset":60,"length":5,"data":"Java"},{"type":"link","offset":105,"length":7,"data":"http://bsl.dev"},{"type":"handle","offset":1289,"length":13,"data":"viktoriya_gw"},{"type":"link","offset":1304,"length":10,"data":"mailto:hr@bsl.dev"}],"date":"2020-07-01T11:07:13+00:00","link":"tg://resolve?domain=mobile_jobs&post=69097","tags":[{"name":"mobile"},{"name":"android"},{"name":"kotlin"},{"name":"java"},{"name":"mvvm"},{"name":"git"}],"cities":[{"code":"moscow"},{"code":"minsk"}],"allowsRemote":true}},{"node":{"__typename":"Job","id":"72450310144-1001054966032","title":"Ios разработчик","text":"#вакансия #IOS #senior #full-time #офис #удаленка \nГород: Санкт-Петербург\nФормат работы: офис и удаленка\nЗанятость: полная \nЗарплатная вилка (обязательно): от 230 000 до 300 000 на руки\n\nКомпания: VOIR - приложение реалистичного диджитал мейкапа с самым большим количеством качественно оцифрованной продукции реальных брендов.\nМы используем компьютерное зрение, нейронные сети и запатентованный 3D рендеринг, чтобы обеспечить реалистичную примерку в дополненной реальности. \nНаше приложение Voir уже имеет более 3 млн. загрузок по всему миру.\n\nАудитория приложения составляет сотни тысяч пользователей по всему миру, и компания уже заключила партнерства с такими брендами как Dior, Sephora, Guerlain. Подробнее о компании можно узнать в статье Forbes и на сайте, а еще лучше скачать приложение.\nВ данный момент мы ищеним Senior IOS Developer'а. \n\nЧто нужно делать:\n\n* Активно участвовать в развитие проекта, общаться с командой, вместе находить крутые решения;\n* Разработка мобильных приложений;\n* Участие в работе над архитектурой, SDK, API;\n* Работа с командой разработчиков, тестировщиков, дизайнеров и специалистов по machine learning.\n\nЧто нам важно:\n\n* Опыт iOS разработки от 3-х лет;\n* Опыт разработки от 5-х лет;\n* Отличное знание Swift, RxSwift;\n* Отличное знание API и фреймворков iOS;\n* Отличные знания Metal, OpenGL, SceneKit, ARkit, CoreML;\n* Фундаментальные знания ООП, архитектур и алгоритмов;\n* Умение проводить комплексный анализ и самостоятельно решать проблемы;\n* Опыт разработки клиент-серверных приложений и работы с сетевыми протоколами;\n* Английский не ниже Intermediate, свободное чтение любой технической документации;\n* Опубликованные приложения, которые создавались с вашим значительным участием;\n* Плюсом будет открытый актуальный код на GitHub или даже в zip-архиве, статьи, выступления на конференциях, пришлите ссылки на них в сопроводительном письме;\n* Любить IOS и понимать гайды и best-practice;\n* Умение аргументированно излагать свою точку зрения.\n\nЧто мы предлагаем: \n\n* Интересные задачи на активно развивающемся проекте с использованием технологий machine learning;\n* Возможность непосредственно влиять на продукт и видеть результат работы;\n* Работу в профессиональной, заряженной команде и драйвовую атмосферу;\n* Гибкий график работы;\n* Белую зарплату, которая зависит только от ваших навыков и опыта;\n* Комфортный офис в 10 минутах ходьбы, от метро Петроградская.\n\nКонтакты: @aartenyan","markup":[{"type":"hashtag","offset":0,"length":9,"data":"вакансия"},{"type":"hashtag","offset":10,"length":4,"data":"IOS"},{"type":"hashtag","offset":15,"length":7,"data":"senior"},{"type":"hashtag","offset":23,"length":5,"data":"full"},{"type":"hashtag","offset":34,"length":5,"data":"офис"},{"type":"hashtag","offset":40,"length":9,"data":"удаленка"},{"type":"link","offset":737,"length":15,"data":"https://www.forbes.ru/tehnologii/381845-didzhital-makiyazh-kak-natalya-vodyanova-podarila-vtoruyu-zhizn-startapu-iz"},{"type":"link","offset":756,"length":5,"data":"http://voir.me/"},{"type":"link","offset":775,"length":19,"data":"https://apps.apple.com/us/app/voir-makeup-selfie-camera/id1226417060"},{"type":"handle","offset":2416,"length":10,"data":"aartenyan"}],"date":"2020-07-01T10:14:12+00:00","link":"tg://resolve?domain=mobile_jobs&post=69094","tags":[{"name":"mobile"},{"name":"ios"},{"name":"swift"},{"name":"opengl"},{"name":"github"},{"name":"machine-learning"}],"cities":[],"allowsRemote":true}}]}}},"context":{}}