{"hash":"f5f6bf98bd95e769321482904cbbd488f77922fd","data":{"records":{"id":"mobile","name":"mobile","belongsTo":{"totalCount":307,"pageInfo":{"totalPages":31,"currentPage":28},"edges":[{"node":{"__typename":"Job","id":"71352451072-1001054966032","title":"Android разработчик","text":"#вакансия #android #remote #удаленка\n\nГород и адрес офиса: Ростов-на-Дону\nФормат работы: удаленка\nЗанятость: проектная\nЗарплатная вилка - от $30 до $100 за проект, перспектива роста количества и сложности проектов и как следствие ставки\n\nОписание вакансии:\n\nНа данном этапе периодическая проектная работа по разработке приложений Android, состоящих из 3 - 7 экранов, с довольно базовым функционалом (работа 2-3 часа максимум на одно приложение)\n\n🧠 Требования:\n\n- Ключевое требование - опыт работы с метриками (Firebase, Facebook Analytics, Google Analytics)\n- опыт разработки приложений для Android от 1 года\n- опыт работы с Webview\n- навыки разработки приложений, осуществляющих запросы на сторонний веб-сервер и обработку его ответа\n- навыки имплементации локальных push-уведомлений\n\nКонтакты: телеграм @makar_abraam","markup":[{"type":"hashtag","offset":0,"length":9,"data":"вакансия"},{"type":"hashtag","offset":10,"length":8,"data":"android"},{"type":"hashtag","offset":19,"length":7,"data":"remote"},{"type":"hashtag","offset":27,"length":9,"data":"удаленка"},{"type":"handle","offset":806,"length":13,"data":"makar_abraam"}],"date":"2020-06-16T08:17:08+00:00","link":"tg://resolve?domain=mobile_jobs&post=0","tags":[{"name":"mobile"},{"name":"android"},{"name":"firebase"},{"name":"google-analytics"}],"cities":[{"code":"rostov"}],"allowsRemote":true}},{"node":{"__typename":"Job","id":"102937657344-1001089317451","title":"Qa engineer","text":"#вакансия #Москва #fulltime #офис #qa #mobile\nКомпания: FunCorp\nВакансия:  QA mobile engineer\nОпыт работы: от 2-х лет\nЗарплата: 100 000 - 130 000 р. на руки\nМесторасположение: Москва, м. Белорусская\nЗанятость: fulltime, офис.\nNB! Удаленный вариант работы после выхода из карантина, к сожалению, не рассматриваем\nКонтактные данные: @chrschredinger или kristina@fun.co\n\nТребования\n- опыт тестирования мобильных приложений (iOS, Android) от года\n- опыт использования сниффера (Charles или Fiddler / Wireshark / Mitmproxy)\n- опыт работы с Android Studio / XCode\n- опыт работы с Firebase\n\nОбязанности\n- ручное тестирование (функциональное / регрессионное / исследовательское)\n- написание тестовых сценариев\n- тесная работа с менеджерами и разработчиками проекта\n\nУсловия\n- ДМС, включая стоматологию\n- бонусная система\n- обеды и ужины в офисе\n- бюджет на обучение и на фитнес\n- оплата участия в российских и зарубежных конференциях\n- отличный офис на м. Белорусская (БЦ «Белая площадь)","markup":[{"type":"hashtag","offset":0,"length":9,"data":"вакансия"},{"type":"hashtag","offset":10,"length":7,"data":"Москва"},{"type":"hashtag","offset":18,"length":9,"data":"fulltime"},{"type":"hashtag","offset":28,"length":5,"data":"офис"},{"type":"hashtag","offset":34,"length":3,"data":"qa"},{"type":"hashtag","offset":38,"length":7,"data":"mobile"},{"type":"bold","offset":46,"length":10,"data":""},{"type":"bold","offset":64,"length":10,"data":""},{"type":"bold","offset":94,"length":13,"data":""},{"type":"bold","offset":118,"length":10,"data":""},{"type":"bold","offset":157,"length":19,"data":""},{"type":"bold","offset":199,"length":10,"data":""},{"type":"underline","offset":226,"length":86,"data":""},{"type":"bold","offset":312,"length":19,"data":""},{"type":"handle","offset":331,"length":15,"data":"chrschredinger"},{"type":"link","offset":351,"length":15,"data":"mailto:kristina@fun.co"},{"type":"bold","offset":368,"length":11,"data":""},{"type":"bold","offset":584,"length":12,"data":""},{"type":"bold","offset":758,"length":8,"data":""}],"date":"2020-06-16T08:08:44+00:00","link":"tg://resolve?domain=qa_jobs&post=0","tags":[{"name":"qa"},{"name":"mobile"},{"name":"ios"},{"name":"android"},{"name":"xcode"},{"name":"firebase"},{"name":"android-studio"}],"cities":[{"code":"moscow"}],"allowsRemote":false}},{"node":{"__typename":"Job","id":"71349305344-1001054966032","title":"Ios разработчик","text":"#вакансия #developer #iOS #москва  #fulltime \niOS Developer\nГород: Москва\nФормат работы: офис \nЗанятость: полная\nЗП вилка: 150-250 т.р.\n\nВ штат в офис госбанка в Москве в команду нужны разработчики iOS (Swift, objective-C) для написания нативных приложений. \nОпыт: Middle (выше - приветствуется) \nПолный соц. пакет, дмс и поддержка ре-локации.\nГибкое время работы.\n\nПодробнее – пишем в личку. @okokgoogLE","markup":[{"type":"hashtag","offset":0,"length":9,"data":"вакансия"},{"type":"hashtag","offset":10,"length":10,"data":"developer"},{"type":"hashtag","offset":21,"length":4,"data":"iOS"},{"type":"hashtag","offset":26,"length":7,"data":"москва"},{"type":"hashtag","offset":35,"length":9,"data":"fulltime"},{"type":"handle","offset":393,"length":11,"data":"okokgoogLE"}],"date":"2020-06-16T08:03:13+00:00","link":"tg://resolve?domain=mobile_jobs&post=0","tags":[{"name":"mobile"},{"name":"ios"},{"name":"swift"},{"name":"objective-c"}],"cities":[{"code":"moscow"}],"allowsRemote":false}},{"node":{"__typename":"Job","id":"71344062464-1001054966032","title":"Ios developer","text":"#вакансия #developer #iOS #moscow  #fulltime \niOS Developer\nГород: Москва\nФормат работы: офис \nЗанятость: полная\nЗП вилка: 160-290 тысяч \n\ninDriver - международный ride-hailing сервис:\n* 47 млн пользователей в 31 стране мира.\n* Входим в топ-5 мобильных сервисов для заказа поездки по итогам января 2020 года.\n* Офис возле м. Улица 1905 года.\n* Релокация в Москву для иногородних.\n\nОбязанности:\n• Разработка нового функционала приложения\n• Поддержка уже существующего функционала приложения\n• Участие в проектировании архитектуры системы\n\nТребования:\n• Отличное знание Swift и Objective-C\n•Опыт коммерческой iOS-разработки\n• Уверенное знание различных архитектурных подходов\n\nКонтакт для связи: @Liuboushka888 или lubov.iv@indriver.com","markup":[{"type":"hashtag","offset":0,"length":9,"data":"вакансия"},{"type":"hashtag","offset":10,"length":10,"data":"developer"},{"type":"hashtag","offset":21,"length":4,"data":"iOS"},{"type":"hashtag","offset":26,"length":7,"data":"moscow"},{"type":"hashtag","offset":35,"length":9,"data":"fulltime"},{"type":"handle","offset":694,"length":14,"data":"Liuboushka888"},{"type":"link","offset":713,"length":21,"data":"mailto:lubov.iv@indriver.com"}],"date":"2020-06-16T06:43:35+00:00","link":"tg://resolve?domain=mobile_jobs&post=0","tags":[{"name":"mobile"},{"name":"ios"},{"name":"swift"},{"name":"objective-c"}],"cities":[{"code":"moscow"}],"allowsRemote":false}},{"node":{"__typename":"Job","id":"71338819584-1001054966032","title":"Android разработчик","text":"#казань #вакансия #работа #android #fудаленка                                                                                                                                                              Город: Казань \nФорма работы: удаленка; проектная занятость на 2-3 месяца                                                                                                             Зарплатная вилка: 60 000 - 80 000 \nНаш стек: Kotlin/Java, Moxy, Cicerone, Retrofit, Dagger2, RxJava2, Room, FCM, Gitlab CI, Mockito                                                                                    Обязанности:\n- Участие в командной разработке, тестировании, оптимизации существующих мобильных приложений на платформе Android;\n- Проектирование архитектуры приложений;\n\nТребования:\n- Опыт коммерческой разработки под Android от 1 года (Java/Kotlin);\n- Опыт создания клиент-серверных приложений;\n- Уверенное знание Java Core, Android SDK;\n- Знание основных технологий и протоколов передачи данных;\n- Знание ООП и паттернов проектирования;\n- Опыт работы с системами контроля версий Git;\n- Английский язык на уровне понимания технической литературы.\n\nБудет плюсом:\n- Наличие завершённых проектов в магазинах приложений;\n- Понимание принципов Clean Architecture;\n- Опыт написания unit и UI-тестов;\n- Умение организовать CI/CD в проекте;\n- Опыт работы с DI.                                                                                                                                                                                                                             Контакты: @daryahr","markup":[{"type":"hashtag","offset":0,"length":7,"data":"казань"},{"type":"hashtag","offset":8,"length":9,"data":"вакансия"},{"type":"hashtag","offset":18,"length":7,"data":"работа"},{"type":"hashtag","offset":26,"length":8,"data":"android"},{"type":"hashtag","offset":35,"length":10,"data":"fудаленка"},{"type":"link","offset":402,"length":15,"data":"tel:60 000 - 80 000"},{"type":"handle","offset":1583,"length":8,"data":"daryahr"}],"date":"2020-06-16T06:01:14+00:00","link":"tg://resolve?domain=mobile_jobs&post=0","tags":[{"name":"mobile"},{"name":"android"},{"name":"kotlin"},{"name":"java"},{"name":"gitlab"},{"name":"git"}],"cities":[{"code":"kazan"}],"allowsRemote":true}},{"node":{"__typename":"Job","id":"71337771008-1001054966032","title":"Ios разработчик","text":"В классную компанию требуется Senior IOS разработчик, для работы над приложением ^_^ \n\n💻Вакансия: #вакансия #ios #удалённо\n🏢Компания: #IT\n📍Локация:  #удалённо\n💰З/п: от 200 до 320 на руки\n\n🔮Чем предстоит заниматься:\n• Разработка мобильных приложений под платформу iOS.\n• Участвовать в CodeReview.\n• Поддержка и развитие проектов, добавление нового функционала.\n\n💼Наши ожидания:\n• Опыт на Swift от 4-х лет, опыт на Obj-C будет плюсом;\n• Глубокие знания UIKit, SnapKit;\n• Глубокие знания iOS SDK.\n\n📩Резюме и вопросы по вакансии жду:\n✍️ @Gleaming_Darkness\n✉️ margoshwarz@gmail.com","markup":[{"type":"hashtag","offset":99,"length":9,"data":"вакансия"},{"type":"hashtag","offset":109,"length":4,"data":"ios"},{"type":"hashtag","offset":114,"length":9,"data":"удалённо"},{"type":"hashtag","offset":136,"length":3,"data":"IT"},{"type":"hashtag","offset":152,"length":9,"data":"удалённо"},{"type":"handle","offset":540,"length":18,"data":"Gleaming_Darkness"},{"type":"link","offset":562,"length":21,"data":"mailto:margoshwarz@gmail.com"}],"date":"2020-06-16T05:20:37+00:00","link":"tg://resolve?domain=mobile_jobs&post=0","tags":[{"name":"mobile"},{"name":"ios"},{"name":"swift"},{"name":"uikit"}],"cities":[],"allowsRemote":true}},{"node":{"__typename":"Job","id":"71334625280-1001054966032","title":"Ios разработчик","text":"🌈 В компанию в Москве требуется Senior IOS разработчик, для работы над стриминговой платформой ^_^ \n\n💻Вакансия: #вакансия #москва #ios #офис\n🏢Компания: #Magic\n📍Локация:  #мск #москва\n💰З/п: от 200 до 280 на руки\n\n🔮Чем предстоит заниматься:\n• Разработка мобильных приложений под платформу iOS.\n• Участвовать в CodeReview.\n• Поддержка и развитие проектов, добавление нового функционала.\n\n💼Наши ожидания:\n• Опыт на Swift от 3-х лет, опыт на Obj-C;\n• Глубокие знания UIKit;\n• Опыт работы с RxSwift;\n• Глубокие знания iOS SDK.\n\n🏆Мы предлагаем:\n• Уровень заработной платы (зависит от пожеланий и профессионально уровня кандидата).\n• Возможность гибкого начала рабочего дня.\n• Офис: м. Дубровка, м.Волгоградский проспект.\n• Работа в классном офисе.\n\n📩Резюме и вопросы по вакансии жду:\n✍️ @Gleaming_Darkness\n✉️ margoshwarz@gmail.com","markup":[{"type":"hashtag","offset":114,"length":9,"data":"вакансия"},{"type":"hashtag","offset":124,"length":7,"data":"москва"},{"type":"hashtag","offset":132,"length":4,"data":"ios"},{"type":"hashtag","offset":137,"length":5,"data":"офис"},{"type":"hashtag","offset":155,"length":6,"data":"Magic"},{"type":"hashtag","offset":174,"length":4,"data":"мск"},{"type":"hashtag","offset":179,"length":7,"data":"москва"},{"type":"handle","offset":789,"length":18,"data":"Gleaming_Darkness"},{"type":"link","offset":811,"length":21,"data":"mailto:margoshwarz@gmail.com"}],"date":"2020-06-16T03:41:27+00:00","link":"tg://resolve?domain=mobile_jobs&post=0","tags":[{"name":"mobile"},{"name":"ios"},{"name":"swift"},{"name":"uikit"}],"cities":[{"code":"moscow"}],"allowsRemote":false}},{"node":{"__typename":"Job","id":"16939745280-1001110946746","title":"Js developer","text":"#вакансия #JavaScript #Angular \n\nЛокация: Москва м.Достоевская/Новослободская/Менделеевская\nФормат работы: Удаленный формат работы на время карантина/далее офис\nЗанятость: полная\nЗаработная плата: от 140 000 до 240 000 после вычета налогов\nВакансия: Middle/Senior Front Developer\nКомпания: YCLIENTS\nКонтакты: @chernoglazau\n\n⭐️YCLIENTS -облачная ERP система - предоставляет сервисы онлайн-записи, складского учета, расчета зарплат сотрудников, управления уведомлениями и программой лояльности. \nПроекту 10 лет. На сегодняшний день клиентами YCLIENTS являются более 19 тысяч компаний в 400 городах России и стран СНГ. Ежемесячно на платформе совершается более 9 миллионов записей к 160 000 специалистов.\n\n💥Требования:\n    • Отличные знания JavaScript (es.next), TypeScript\n    • Обширный опыт работы с angular (4+) и angularjs, опыт работы с большими проектами\n    • Качественно верстать по mobile-first (Edge и нормальные браузеры)\n    • Опыт работы с cordova/phonegap\n    • Хорошо знаешь как работает git, комфортно себя чувствует в *nix-консоли\n    • Знает, как настраивать webpack\n     \n     💥 Мы работаем командой, и мнение каждого члена для нас имеет значение\n    • Работаем по Agile, в команде есть Scrum-мастер\n    • Отличный Work/Life баланс\n    • Гарантируем, что каждый получит технический буст на этом проекте. Научим, расскажем, главное чтобы Вы были открыты к новым знаниям.\n\nЕсли ты готов к переменам, пиши сразу мне, буду рада пообщаться!","markup":[{"type":"hashtag","offset":0,"length":9,"data":"вакансия"},{"type":"hashtag","offset":10,"length":11,"data":"JavaScript"},{"type":"hashtag","offset":22,"length":8,"data":"Angular"},{"type":"handle","offset":309,"length":13,"data":"chernoglazau"},{"type":"link","offset":751,"length":7,"data":"http://es.next"}],"date":"2020-06-15T18:34:34+00:00","link":"tg://resolve?domain=javascript_jobs_feed&post=0","tags":[{"name":"javascript"},{"name":"angularjs"},{"name":"typescript"},{"name":"mobile"},{"name":"cordova"},{"name":"git"},{"name":"webpack"}],"cities":[{"code":"moscow"}],"allowsRemote":false}},{"node":{"__typename":"Job","id":"71323090944-1001054966032","title":"Ios разработчик","text":"‼️Вакансия Senior IOS C++ Developer‼️\n#вакансия #IOS #developer #удаленка\nВ команде Mycelium Wallet (mycelium.com) открыта вакансия Senior IOS C++ Developer.\n💵З/П 3000-4000 USD по итогам собеседования.\nРабота удаленная 💻\n\nМы предлагаем:\n🔸Получить навыки и компетенции в одном из самых передовых и перспективных направлений финтех индустрии - blockchain;\n🔸Принять участие в разработке одного из самых популярных биткоин-стартапов;\n🔸Работать в международной команде бок о бок с ведущими специалистами в индустрии;\n🔸Возможность профессионального карьерного роста и участия в разнообразных проектах компании.\nЧем предстоит заниматься:\n🔸Разрабатывать мультивалютный крипто-валютный кошелек с кросс-платформенным ядром;\n🔸Проектировать и разрабатывать большие функциональные части приложения с привлечением других разработчиков;\n🔸Использовать cutting edge технологии, а также проверенные временем решения;\n🔸Находить решения для нестандартных задач.\nТребования:\n✔️Как минимум 3 года опыта разработки под IOS и опыта программирования на C++;\nЗнание C++ на уровне ведущего разработчика;\n✔️Знание шаблонов проектирования, опыт использования MVP и других архитектурных подходов;\n✔️Знание шаблонов проектирования пользовательских интерфейсов для iOS 9+ (Human Interface Guidelines);\n✔️Знание iOS SDK (UIKit, Foundation, CoreLocation и др.), общее понимание архитектуры iOS;\n✔️Знание особенностей UiKit: storyboards, autolayout, size classes;\n✔️Знание CocoaPods, FastLane, Xcode utils, code analyzers;\n✔️Опыт параллельного и многопоточного программирования, знание примитивов синхронизации (std::thread, std::mutex и тд);\n✔️Понимание циклов работы IOS-приложения и управления памятью;\n✔️Понимание принципов работы REST API, RPC, WS и клиент-серверных приложений;\n✔️Опыт работы с системами контроля версий (Git) и постановки задач (JIRA, TFS, Redmine);\n✔️Знание английского языка на уровне чтения документации и умения общаться в корпоративном чате.\n\nПлюсом будет:\n🔸Знание Objective-С и Swift;\n🔸Умение и понимание необходимости написания Unit tests;\n🔸Знание основ криптографии;\n🔸Опыт работы с bitcoin/etherium blockchain stack;\n🔸Наличие своих проектов на Github, в App Store и т.д.\n\n📲 Контакт : @valeritata","markup":[{"type":"hashtag","offset":38,"length":9,"data":"вакансия"},{"type":"hashtag","offset":48,"length":4,"data":"IOS"},{"type":"hashtag","offset":53,"length":10,"data":"developer"},{"type":"hashtag","offset":64,"length":9,"data":"удаленка"},{"type":"link","offset":101,"length":12,"data":"http://mycelium.com"},{"type":"handle","offset":2196,"length":11,"data":"valeritata"}],"date":"2020-06-15T18:26:28+00:00","link":"tg://resolve?domain=mobile_jobs&post=0","tags":[{"name":"mobile"},{"name":"ios"},{"name":"uikit"},{"name":"cocoapods"},{"name":"xcode"},{"name":"rest"},{"name":"git"},{"name":"tfs"},{"name":"objective-c"},{"name":"swift"},{"name":"github"}],"cities":[],"allowsRemote":true}},{"node":{"__typename":"Job","id":"71322042368-1001054966032","title":"Ios разработчик","text":"#вакансия #Москва #офис #fulltime #IOS #Middle #Senior \nформат работы: полный день\nлокация: Павелецкая\nЗ.п: от 120 до 260K на руки\nКонтакты: @Mironov_Boris \n\nПРЕДСТОИТ:\n• Разработка нового функционала приложения Rubetek Умный Дом и доработка имеющегося;\n• Участвовать в обсуждении новых задач и давать оценки своим задачам;\n• Участие в процессе архитектурного проектирования;\n• Разработка принципиально нового функционала приложения.\n \nОЖИДАЕМ:\n• Опыт программирования на Swift и Obj C от 2-х лет;\n• Опыт параллельного и многопоточного программирования;\n• Опыт разработки сетевых приложений;\n• Понимание принципов ООП и шаблонов проектирования;\n• Умение разбираться и работать с чужим кодом.\nПлюсом будет опыт работы с веб сокетами, IoT, EspTouch, опыт проектирования клиент-серверного взаимодействия с требованиями к серверной стороне, опыт рефакторинга Obj C и разделения приложения на модули\n \nПРЕДЛАГАЕМ:\n• Современный офис в стиле Loft в шаговой доступности от м. Павелецкая (7–10 минут), БЦ «Симонов Плаза»;\n• Официальное оформление и соблюдение ТК РФ;\n• График работы: понедельник – пятница с гибким началом рабочего дня (приход на работу до 11-00)","markup":[{"type":"hashtag","offset":0,"length":9,"data":"вакансия"},{"type":"hashtag","offset":10,"length":7,"data":"Москва"},{"type":"hashtag","offset":18,"length":5,"data":"офис"},{"type":"hashtag","offset":24,"length":9,"data":"fulltime"},{"type":"hashtag","offset":34,"length":4,"data":"IOS"},{"type":"hashtag","offset":39,"length":7,"data":"Middle"},{"type":"hashtag","offset":47,"length":7,"data":"Senior"},{"type":"bold","offset":71,"length":12,"data":""},{"type":"bold","offset":118,"length":4,"data":""},{"type":"handle","offset":141,"length":14,"data":"Mironov_Boris"},{"type":"bold","offset":158,"length":11,"data":""},{"type":"bold","offset":436,"length":9,"data":""},{"type":"bold","offset":897,"length":12,"data":""}],"date":"2020-06-15T18:26:09+00:00","link":"tg://resolve?domain=mobile_jobs&post=0","tags":[{"name":"mobile"},{"name":"ios"},{"name":"swift"}],"cities":[{"code":"moscow"}],"allowsRemote":false}}]}}},"context":{}}