{"hash":"f5f6bf98bd95e769321482904cbbd488f77922fd","data":{"records":{"id":"git","name":"git","belongsTo":{"totalCount":273,"pageInfo":{"totalPages":28,"currentPage":4},"edges":[{"node":{"__typename":"Job","id":"17307795456-1001110946746","title":"Js разработчик","text":"#вакансия #москва #middle #remote #angular #fulltime #офис\n\nИщем frontend разработчика для работы над основным сайтом и новыми разделами.\nГород и адрес офиса: Москва, м. Авиамоторная\nФормат работы: Офис\nЗанятость: полная\nЗарплатная вилка: 130 000 — 150 000 на руки по результатам технического собеседования\n\nAutospot.ru — онлайн гипермаркет автомобилей. 🚘\n\nВ 2018 году Mitsubishi Corporation и Mail.ru. оценили нас в $19,1 млн.\n\nВ технической команде 17 человек: СТО, 9 PHP разработчиков, 2 frontend разработчика, 3 тестировщика, DevOps.\n\nЧеловек нужен в Москве или готовый в эту самую Москву переехать.\n\n📍Обязанности:\n▫️Разработка компонентов и адаптация/интеграция сторонних библиотек и плагинов;\n▫️ Верстка новых разделов, кроссбраузерная, адаптивная, валидная;\n▫️ Развитие библиотеки UI компонентов;\n▫️ Оперативное исправление багов на проде (IE 11+);\n▫️ Помощь в оптимизации работы сайта (скорость загрузки, оптимизация DOM).\n\n📍Требования:\n▪️ Опыт разработки от 2 лет;\n▪️ Знание JavaScript (jQuery в разумных пределах);\n▪️ Уверенное знание html семантическая верстка, БЭМ, SCSS;\n▪️ Знание работы GIT & NPM;\n▪️ Опыт работы с gulp/webpack;\n▪️ Опыт работы с Figma/Zeplin;\n▪️ Опыт работы с векторной графикой (svg и svg-спрайты).\n\n📍Желательно:\n◾️ Хорошее знание Vue.js и/или Angular 5+. Работать надо будет и с тем и с другим. Angular 5+ в приоритете, планируется переход полностью на него;\n◾️ Знание инструментов организации разработки Jira;\n◾️ Знание нюансов работы браузеров на разных устройствах и ОС;\n◾️ Опыт сео оптимизации;\n◾️ Понимание, что такое доступные интерфейсы;\n\n📍Условия:\n▫️ Комфортабельный офис, БЦ Light Tower, бесплатный шаттл от м. Площадь Ильича;\n▫️ Оформление по ТК РФ с первого рабочего дня;\n▫️ Гибкое начало рабочего дня, с 9 до 11;\n▫️ Возможность работать 1-2 дня удалённо;\n▫️ Полностью белая заработная плата;\n▫️ Неформальная атмосфера и дружный, амбициозный коллектив;\n▫️ Корпоративная скидка на изучение английского языка.\n\n📌 Контакт: @dianadoma","markup":[{"type":"hashtag","offset":0,"length":9,"data":"вакансия"},{"type":"hashtag","offset":10,"length":7,"data":"москва"},{"type":"hashtag","offset":18,"length":7,"data":"middle"},{"type":"hashtag","offset":26,"length":7,"data":"remote"},{"type":"hashtag","offset":34,"length":8,"data":"angular"},{"type":"hashtag","offset":43,"length":9,"data":"fulltime"},{"type":"hashtag","offset":53,"length":5,"data":"офис"},{"type":"link","offset":308,"length":11,"data":"http://Autospot.ru"},{"type":"link","offset":395,"length":7,"data":"http://Mail.ru"},{"type":"handle","offset":1970,"length":10,"data":"dianadoma"}],"date":"2020-07-02T07:28:49+00:00","link":"tg://resolve?domain=javascript_jobs_feed&post=16506","tags":[{"name":"javascript"},{"name":"angularjs"},{"name":"php"},{"name":"jquery"},{"name":"html"},{"name":"git"},{"name":"npm"},{"name":"gulp"},{"name":"webpack"},{"name":"svg"},{"name":"vuejs"}],"cities":[{"code":"moscow"}],"allowsRemote":true}},{"node":{"__typename":"Job","id":"104171831296-1001089317451","title":"Qa engineer","text":"#вакансия #Казань #Нижний_Новгород #Краснодар #офис #удаленно \n\n💻Компания «БАРС Груп» - ведущий российский разработчик решений для государственного и корпоративного секторов с 1992 года, входит в ТОП-15 крупнейших разработчиков России.\n\n👀Мы в поисках QA Auto Engineer на крупные государственные проекты.\n\nОт новых сотрудников мы ожидаем:\n•Знание базовых понятий и определений в тестировании;\n•Знание и уверенное владение методиками тестирования;\n•  Экспертное владение навыками составления тест-кейсов, чек-листов, баг-репортов;\n•Владение языком программирования С# / Python.\nБудет плюсом:\n•Владение инструментами тестирования Fiddler/Postman, Visual Studio, фрэймворк Nunit, restsharp, Selenium.webdriver;\n•Опыт работы с системами JIRA, git/stash.\n\n💰Уровень заработной платы: от 50000р до 150000р. \n\n⏰Рабочий день в офисе или полностью удаленно\n\n🔺Вместе мы будем работать над масштабными проектами, которые меняют к лучшему жизни людей!","markup":[{"type":"hashtag","offset":0,"length":9,"data":"вакансия"},{"type":"hashtag","offset":10,"length":7,"data":"Казань"},{"type":"hashtag","offset":18,"length":16,"data":"Нижний_Новгород"},{"type":"hashtag","offset":35,"length":10,"data":"Краснодар"},{"type":"hashtag","offset":46,"length":5,"data":"офис"},{"type":"hashtag","offset":52,"length":9,"data":"удаленно"}],"date":"2020-07-02T06:24:57+00:00","link":"tg://resolve?domain=qa_jobs&post=99346","tags":[{"name":"qa"},{"name":"python"},{"name":"selenium"},{"name":"git"},{"name":"visual-studio"}],"cities":[{"code":"kazan"},{"code":"krasnodar"},{"code":"nizhny-novgorod"}],"allowsRemote":true}},{"node":{"__typename":"Job","id":"72498544640-1001054966032","title":"Android developer","text":"#вакансия #Juniorandroid #Android developer #kotlin #удаленно                                                                                                         Уровень дохода:💵 50 000-60 000  рублей net                                                                                                                                                                                 Требуемый опыт работы: от 1 года\nПолная занятость, дистанционно, гибкое начало рабочего дня\n \n📌Требования:\n- Нативная Android разработка (Kotlin)\n- Умение писать поддерживаемый и тестируемый код\n- Умение работать с Dagger 2\n- Умение работать с git\n- Желание развиваться и изучать новое в разработке\n- Опыт разработки приложений от 1 года\n -Знание английского языка от уровня Intermediate\n \n📌Будет плюсом:\n- Опыт работы с JNI\n- Опыт использования tensorflow\n- Опыт работы с аудио и видео\n\n📌Условия:\n- Отсутствие бюрократии\n- Время начала рабочего дня обговариваем индивидуально\n- Крутой инновационный проект - возможность самореализации и профессионального роста\n- Стабильное зарубежное финансирование\n- Десятки миллионов установок и множество глобальных партнёров\n📞Контакты @SvetikS_hr +7(963)-632-12-36 Cветлана","markup":[{"type":"hashtag","offset":0,"length":9,"data":"вакансия"},{"type":"hashtag","offset":10,"length":14,"data":"Juniorandroid"},{"type":"hashtag","offset":25,"length":8,"data":"Android"},{"type":"hashtag","offset":44,"length":7,"data":"kotlin"},{"type":"hashtag","offset":52,"length":9,"data":"удаленно"},{"type":"link","offset":184,"length":13,"data":"tel:50 000-60 000"},{"type":"handle","offset":1164,"length":11,"data":"SvetikS_hr"},{"type":"link","offset":1176,"length":17,"data":"tel:+7(963)-632-12-36"}],"date":"2020-07-02T06:18:18+00:00","link":"tg://resolve?domain=mobile_jobs&post=69140","tags":[{"name":"mobile"},{"name":"android"},{"name":"kotlin"},{"name":"dotnet"},{"name":"git"},{"name":"tensorflow"}],"cities":[],"allowsRemote":true}},{"node":{"__typename":"Job","id":"104170782720-1001089317451","title":"Qa инженер","text":"🐞🐞🐞#вакансия #QA #Ульяновск #Саранск #Казань #Самара #Уфа #Краснодар #офис #удаленная_работа\n\n🔍Middle QA-специалист🔎\n\n⚡️Компания: Simbirsoft (более 19 лет на рынке, более 700 сотрудников в штате)\n\nОчень ждем тебя, наш будущий коллега и борец за качественное ПО! ☺️\n\n📌Твои будущие задачи:\n• тестирование ПО (frontend, backend, API);\n• локализация и документирование найденных дефектов;\n• ведение и оптимизация тестовой документации;\n• контроль качества на всех этапах разработки ПО;\n• выстраивание и оптимизация процессов тестирования ПО.\n\n📌Что мы ждем от тебя:\n• наличие опыта от 2 лет в направлениях QA или тестирования ПО;\n• понимание разницы между QA и тестированием ПО;\n• понимание особенностей гибких методологий;\n• уверенное владение техниками тест-дизайна;\n• знание клиент-серверной архитектуры;\n• понимание особенностей тестирования web, mobile и desktop приложений;\n• навык тестирования API;\n• написание запросов SQL;\n• опыт работы с системами контроля версий (git);\n• знание основных команд работы с консолью (Windows/Linux).\n\n📌Что мы предлагаем:\n• Полностью белая ЗП два раза в месяц;\n• Оформление по ТК РФ;\n• Высокий уровень экспертности внутри компании, которым мы делимся друг с другом;\n• Перспективы вертикального и горизонтального роста;\n• Работа на российских и международных проектах;\n• Оборудованное рабочее место и парк тестовых устройств;\n• Подготовка и прохождение сертификации ISTQB бесплатно;\n• Внутренние и внешние курсы, доклады, конференции;\n• Бесплатные чай, кофе, печеньки в офисе;\n• Корпоративная спортивная программа (оплата тематических секций, частичная компенсация абонемента);\n• Проведение летних и зимних корпоративов, дня именинника, совместные походы и т.д.\n\n📌Зарплата:\n• от 50 000 (Договорная, по итогу собеседования)\n\n☎️Контакты: @julia_kli","markup":[{"type":"hashtag","offset":6,"length":9,"data":"вакансия"},{"type":"hashtag","offset":16,"length":3,"data":"QA"},{"type":"hashtag","offset":20,"length":10,"data":"Ульяновск"},{"type":"hashtag","offset":31,"length":8,"data":"Саранск"},{"type":"hashtag","offset":40,"length":7,"data":"Казань"},{"type":"hashtag","offset":48,"length":7,"data":"Самара"},{"type":"hashtag","offset":56,"length":4,"data":"Уфа"},{"type":"hashtag","offset":61,"length":10,"data":"Краснодар"},{"type":"hashtag","offset":72,"length":5,"data":"офис"},{"type":"hashtag","offset":78,"length":17,"data":"удаленная_работа"},{"type":"handle","offset":1779,"length":10,"data":"julia_kli"}],"date":"2020-07-02T06:05:28+00:00","link":"tg://resolve?domain=qa_jobs&post=99345","tags":[{"name":"qa"},{"name":"web"},{"name":"mobile"},{"name":"sql"},{"name":"git"},{"name":"windows"},{"name":"linux"}],"cities":[{"code":"ulyanovsk"},{"code":"saransk"},{"code":"kazan"},{"code":"samara"},{"code":"ufa"},{"code":"krasnodar"}],"allowsRemote":true}},{"node":{"__typename":"Job","id":"104158199808-1001089317451","title":"Qa engineer","text":"#вакансия #работа #удалёнка #fulltime #qa\n\nДолжность : QA Engineer\nКомпания : 6nomads.com\nФормат работы: #fulltime #remote\nЗарплата: 100-140 тыс рублей\n\nКто? \nБританский сервис с русскими корнями. Банковский помощник, который своей гибридной моделью автоматизации меняет скучный английский рынок платежных сервисов, лишает его бумажной составляющей и бюрократии, а заодно оставляет без работы бухгалтеров.\n\nЧто предлагают?\n- Заработная плата в фунтах (100-140 тыс рублей);\n- Командировки в Лондон и Кардифф;\n- Возможность релокации в Великобританию;\n- Работа в одном из офисов (Москва, Екатеринбург, Лондон и Кардифф) или удаленно;\n- Обучение и рост внутри компании, помощь в смене профиля на бэкенд, датасайнс или мобильную разработку при желании. \n\nЧто делать?  \n- Проектирование новых фич вместе с командой;\n- Написание тестовых сценариев;\n- Ручное тестирование (+немного автоматизации Python, appium);\n- Проведение регрессионного тестирования перед релизом;   \n- Создание отчетов по ошибкам и контроль их исправления;\n\nТребования:\n- Противобаговый иммунитет\n- Опыт поиска UI/UX дефектов \n- Английский не ниже Intermediate\n\nЧто тестировать?\ni​OS app, Android App, backend, web.        \nСтек: ​\nKaiten, Testrail, Git, TeamCity, Miro, Zeplin.\n\nЧтобы откликнуться, необходимо пройти короткий отбор по ссылке.\n\nКонтакт для связи: @temnik_sofya","markup":[{"type":"hashtag","offset":0,"length":9,"data":"вакансия"},{"type":"hashtag","offset":10,"length":7,"data":"работа"},{"type":"hashtag","offset":18,"length":9,"data":"удалёнка"},{"type":"hashtag","offset":28,"length":9,"data":"fulltime"},{"type":"hashtag","offset":38,"length":3,"data":"qa"},{"type":"link","offset":78,"length":11,"data":"http://6nomads.com"},{"type":"hashtag","offset":105,"length":9,"data":"fulltime"},{"type":"hashtag","offset":115,"length":7,"data":"remote"},{"type":"handle","offset":1332,"length":13,"data":"temnik_sofya"}],"date":"2020-07-01T17:51:07+00:00","link":"tg://resolve?domain=qa_jobs&post=99333","tags":[{"name":"qa"},{"name":"python"},{"name":"android"},{"name":"web"},{"name":"git"}],"cities":[{"code":"london"},{"code":"moscow"}],"allowsRemote":true}},{"node":{"__typename":"Job","id":"26927431680-1001075660570","title":"Php разработчик","text":"#php #вакансия #удалёнка \n\nPHP Engineer\nФормат работы: #fulltime #remote\nЗарплата: $ 40 000 - 50 000 в год\nГород: удаленно\n\nНебольшая, но быстро растущая студия разработки из Лондона ищет PHP-ниндзю. На нашем счету много успешных проектов, большая часть которых — британские. \n\nТребования:\n— Опыт в разработке не менее 3 лет;\n— Знание PHP как родного,\n— Знание SQL, особенно MySQL или PostgreSQL \n— Понимание HTML/CSS;\n— Быть знакомым с PHP MVC Framework, JavaScript (and jQuery);\n— Опыт в Version Control (Git);\n— Опыт с Bash and Unix (обычно мы используем Ubuntu 16.04) \n— Уровень английского С2;\n— Опыт с алгоритмами приветствуется;\n— Большим плюсом будет знание Laravel (или хотя бы Symfony), фреймворки CakePHP, Zend, CodeIgniter тоже ок, но все равно потребуется освоить Laravel.\n\nЧтобы откликнуться, необходимо пройти короткий отбор по ссылке https://6nomads.com/ (обязательное условие найма🤷‍♀️)\n\nКонтакт для связи @temnik_sofya","markup":[{"type":"hashtag","offset":0,"length":4,"data":"php"},{"type":"hashtag","offset":5,"length":9,"data":"вакансия"},{"type":"hashtag","offset":15,"length":9,"data":"удалёнка"},{"type":"hashtag","offset":55,"length":9,"data":"fulltime"},{"type":"hashtag","offset":65,"length":7,"data":"remote"},{"type":"link","offset":85,"length":15,"data":"tel:40 000 - 50 000"},{"type":"link","offset":850,"length":20,"data":"https://6nomads.com/"},{"type":"handle","offset":924,"length":13,"data":"temnik_sofya"}],"date":"2020-07-01T17:36:31+00:00","link":"tg://resolve?domain=php_jobs&post=25680","tags":[{"name":"php"},{"name":"sql"},{"name":"mysql"},{"name":"postgresql"},{"name":"html"},{"name":"css"},{"name":"javascript"},{"name":"jquery"},{"name":"git"},{"name":"bash"},{"name":"unix"},{"name":"ubuntu"},{"name":"laravel"},{"name":"symfony"},{"name":"cakephp"},{"name":"zend-framework"},{"name":"codeigniter"}],"cities":[],"allowsRemote":true}},{"node":{"__typename":"Job","id":"72472330240-1001054966032","title":"Android разработчик","text":"#вакансия #москва #офис #kotlin#Android\n\nгород: Москва\nформат работы: офис\nзанятость: полная\nзарплатная вилка: 150-200\nвакансия: Ищу Android-разработчика  middle+, готового возглавить развитие  и поддержку приложения.\nПодробности: @Jane1204\n\nо компании: Электронное издательство «Юрайт» Мы работаем со всеми вузами страны и считаем своей главной целью повышение образовательного уровня в России.\nwww.urait.ru\n\nо проекте: Над проектом работает 20 человек. Приложение заказывали на стороне в 2019 г. Теперь решили собрать свою команду для рефакторинга и выведения на новый уровень.\n\nЧто ждет от тебя будущее нашего образования:\n-Поддержку и развитие нашего приложения;\n-Перенос функционала из web;\n-Взаимодействие с командой - аналитиками и тестировщиками;\n-Участие в развитии проекта.\n\nСкажем тебе уверенное “да”, если ты:\n-Имеешь успешный опыт разработки и поддержки под Android  (Android Studio, Gradle);\n-Имеешь опыт разработки на Kotlin;\n-Имеешь успешный опыт разработки клиент-серверных приложений (REST, JSON);\n-Трогал архитектуру (MVP, Clean architecture);\n-Знаешь  Android application architecture, Android SDK, Gradle;\n-Владеешь паттернами UI;\n-Знаешь, зачем нужен Git, \n-Можешь писать тесты;\n-Готов ин-хаус исправлять код от аутсорса. Уверен в том, что ты сделаешь круче, чем исполнители на стороне =)\n\nПо  условиям:\nОфис с плюшками в 5 минутах от м. Шоссе Энтузиастов, МСК\nГибкое начало дня:  с 8 до 11 \nВсе по ТК РФ + соц.пакет \nАдекватные коллеги и руководство!!!\n\nСвязь по почте: manuylovaey@gmail.com\nИли тут @Jane1204","markup":[{"type":"hashtag","offset":0,"length":9,"data":"вакансия"},{"type":"hashtag","offset":10,"length":7,"data":"москва"},{"type":"hashtag","offset":18,"length":5,"data":"офис"},{"type":"handle","offset":231,"length":9,"data":"Jane1204"},{"type":"link","offset":396,"length":12,"data":"http://www.urait.ru"},{"type":"link","offset":1493,"length":21,"data":"mailto:manuylovaey@gmail.com"},{"type":"handle","offset":1523,"length":9,"data":"Jane1204"}],"date":"2020-07-01T16:51:34+00:00","link":"tg://resolve?domain=mobile_jobs&post=69115","tags":[{"name":"mobile"},{"name":"android"},{"name":"kotlin"},{"name":"web"},{"name":"gradle"},{"name":"rest"},{"name":"json"},{"name":"git"},{"name":"android-studio"}],"cities":[{"code":"moscow"}],"allowsRemote":false}},{"node":{"__typename":"Job","id":"104143519744-1001089317451","title":"Qa инженер","text":"#вакансия #QA #fulltime #офис #москва\nГород: Москва, ст. м. Автозаводская \nФормат работы: офис\nКомпания: Логистик Тайм\nЗанятость: полная\nЗ/п: от 130 000 р. на руки.\n\nПривет! Мы растем и активно развиваемся, поэтому ищем специалистов для работы в офисе нашей компании в Москве. Это отличная возможность реализовать свои навыки и прокачаться ещё больше в команде профессионалов. Подробности смотри в описании:\n\n🔷Основные обязанности: \n-Написание и поддержка автотестов;\n-Анализ отчетов прогонов;\n-Организация и поддержка тестового окружения;\n-Взаимодействие с группой разработки и тестирования.\n\n🔷Наши пожелания:\n-Понимание принципов разработки и тестирования;\n-Знание методов и технологий тестирования;\n-Опыт разработки/написания автотестов на Java\\Kotlin;\n-Опыт автоматизации на базе Selenium WebDriver+JUnit+Cucumber (+Gradle/Maven);\n-Опыт работы с баг-трекинговыми системами (Jira, Redmine, YouTrack или др.);\n-Навыки работы с системами контроля версия (Git).\n\n🔷Плюсы работы у нас:\n-Уровень заработной платы зависит от пожеланий и профессионально уровня кандидата;\n-Поездки на ИТ-конференции, митапы, учебные курсы за счет компании;\n-Гибкое начало рабочего дня;\n-Перспективы материального и профессионального роста;\n-Возможность релокации в Европу.\n\nБуду рада Вашим вопросам и резюме:\n✏️@hrkaterina\n✉️ekaterina.logistik@gmail.com","markup":[{"type":"hashtag","offset":0,"length":9,"data":"вакансия"},{"type":"hashtag","offset":10,"length":3,"data":"QA"},{"type":"hashtag","offset":14,"length":9,"data":"fulltime"},{"type":"hashtag","offset":24,"length":5,"data":"офис"},{"type":"hashtag","offset":30,"length":7,"data":"москва"},{"type":"italic","offset":166,"length":79,"data":""},{"type":"italic","offset":252,"length":15,"data":""},{"type":"bold","offset":267,"length":10,"data":""},{"type":"italic","offset":277,"length":98,"data":""},{"type":"italic","offset":377,"length":32,"data":""},{"type":"bold","offset":409,"length":25,"data":""},{"type":"bold","offset":595,"length":18,"data":""},{"type":"bold","offset":965,"length":22,"data":""},{"type":"bold","offset":1255,"length":37,"data":""},{"type":"handle","offset":1292,"length":11,"data":"hrkaterina"},{"type":"link","offset":1304,"length":30,"data":"http://✉️ekaterina.logistik@gmail.com"}],"date":"2020-07-01T14:52:07+00:00","link":"tg://resolve?domain=qa_jobs&post=99319","tags":[{"name":"qa"},{"name":"java"},{"name":"kotlin"},{"name":"selenium"},{"name":"junit"},{"name":"cucumber"},{"name":"gradle"},{"name":"maven"},{"name":"git"}],"cities":[{"code":"moscow"}],"allowsRemote":false}},{"node":{"__typename":"Job","id":"104141422592-1001089317451","title":"Qa engineer","text":"#вакансия #Саратов #fulltime #офис #QA \n\nВсем привет! Компания \"Проектная команда\". Расширяем штат и ищем человека с ответственным подходом к работе и желанием роста. Работа с долгосрочным проектом, по тестированию Банковского ПО.\n\nДолжность- manual QA Engineer;\n\nТребуемый опыт работы: от 1,5 года;\n\nПолная занятость, полный день.\n\nОбязанности:\n\n-Ручное тестирование.\n\n- Выявление, анализ ошибок и проблем;\n\n- Документирование найденных дефектов.\n\nТребования:\n\n- Высшее техническое образование/cтаршие курсы технического ВУЗа (желательно);\n\n\n- Понимание методологии разработки программного обеспечения;\n\n- Знание XML, XSD, веб-сервисах;\n\n- Знание SQL;\n\n- Владение инструментами: Postman, Git, SoapUI;\n\n- Умение работать с системами учета дефектов (Jira);\n\n- Опыт работы с bug tracking и task tracking системами;\n\n- Активная позиция, желание развиваться в области функционального тестирования.\n\nУсловия:\n\n- Удобный хорошо оборудованный офис;\n\n- Официальное трудоустройство;\n\n- «Белая» заработная плата;\n\n- ДМС со стоматологией (после года работы);\n\n- Дополнительные бонусы по результатам года;\n\n- Заработная плата по результатам собеседования от 40000-85000 (на руки);\n\nМожно откликнуться на hh.ru/vacancy/37402257\nИли на почту: Shkonda_ag@creativesoftlab.ru\nТак же- пишите в лс.","markup":[{"type":"hashtag","offset":0,"length":9,"data":"вакансия"},{"type":"hashtag","offset":10,"length":8,"data":"Саратов"},{"type":"hashtag","offset":19,"length":9,"data":"fulltime"},{"type":"hashtag","offset":29,"length":5,"data":"офис"},{"type":"hashtag","offset":35,"length":3,"data":"QA"},{"type":"link","offset":1146,"length":11,"data":"tel:40000-85000"},{"type":"link","offset":1192,"length":22,"data":"http://hh.ru/vacancy/37402257"},{"type":"link","offset":1229,"length":29,"data":"mailto:Shkonda_ag@creativesoftlab.ru"}],"date":"2020-07-01T14:37:01+00:00","link":"tg://resolve?domain=qa_jobs&post=99317","tags":[{"name":"qa"},{"name":"xml"},{"name":"xsd"},{"name":"sql"},{"name":"git"}],"cities":[{"code":"saratov"}],"allowsRemote":false}},{"node":{"__typename":"Job","id":"72453455872-1001054966032","title":"Android разработчик","text":"#вакансия #job #Android #remote #удаленка #fulltime #Kotlin #Java\n🔶 Android developer (middle+)\n🔶 BSL (bsl.dev)\n🔶 г. Москва\n🔶 fulltime office/remote\n🔶 ЗП от 1900-2600$\n\n✅ Задачи:  \n• Разработка нового функционала мобильного приложения для сети магазинов;\n• Доработка текущего функционала;\n• Взаимодействие с распределенной командой разработчиков;\n• Проведение Code Review.\n\n✅ Что нужно уметь:\n• Коммерческий опыт на Kotlin;\n• Знание Java;\n• Знание Android SDK (API 21+);\n• Опыт разработки клиент-серверных приложений;\n• Знание современных архитектурных паттернов в разработке (MVP, MVVM, MVI, Clean Architecture и т.д.);\n• Использование стандартного стека технологий: RxJava 2, Dagger 2, Retrofit;\n• Работа по Git Flow в команде.\n\n✅ Что даем взамен:\n• Возможность прокачки hard skills на проектах разного уровня сложности; \n• Команду с сильными разработчиками, product-менеджерами, QA, UX/UI дизайнерами и налаженными процессами;\n• Самореализацию и профессиональный рост, посещение конференций и курсов за счет компании. Расскажите нам о своей профессиональной мечте, возможно мы поможем вам воплотить ее в жизнь;\n• Возможен удаленный формат сотрудничества, или работа в офисе: г. Москва - м. Дмитровская, г. Минск - м. Грушевка\n\n✅Жду ваши резюме и, если есть, вопросы.\nМои контакты: @viktoriya_gw \nhr@bsl.dev","markup":[{"type":"hashtag","offset":0,"length":9,"data":"вакансия"},{"type":"hashtag","offset":10,"length":4,"data":"job"},{"type":"hashtag","offset":15,"length":8,"data":"Android"},{"type":"hashtag","offset":24,"length":7,"data":"remote"},{"type":"hashtag","offset":32,"length":9,"data":"удаленка"},{"type":"hashtag","offset":42,"length":9,"data":"fulltime"},{"type":"hashtag","offset":52,"length":7,"data":"Kotlin"},{"type":"hashtag","offset":60,"length":5,"data":"Java"},{"type":"link","offset":105,"length":7,"data":"http://bsl.dev"},{"type":"handle","offset":1289,"length":13,"data":"viktoriya_gw"},{"type":"link","offset":1304,"length":10,"data":"mailto:hr@bsl.dev"}],"date":"2020-07-01T11:07:13+00:00","link":"tg://resolve?domain=mobile_jobs&post=69097","tags":[{"name":"mobile"},{"name":"android"},{"name":"kotlin"},{"name":"java"},{"name":"mvvm"},{"name":"git"}],"cities":[{"code":"moscow"},{"code":"minsk"}],"allowsRemote":true}}]}}},"context":{}}